{"users":[{"id":1,"slack_id":"U03DFNYGPCN","display_name":"Malted","bio":null,"projects_count":1,"devlogs_count":1,"votes_count":12,"ships_count":1,"projects":[{"id":58,"title":"Summer of Making","devlogs_count":1,"created_at":"2025-06-16T10:16:27.105-04:00"}],"coding_time_seconds":177976,"coding_time_seconds_today":0,"balance":"You need to have a pocket watcher badge to view this.","badges":[{"name":"\u003c%= admin_tool do %\u003e","text":"with great power comes great responsibility... and a ban hammer.","icon":"🔨"},{"name":"Maiden Voyage","text":"you shipped your first project! the journey begins...","icon":"🚢"},{"name":"Ballot Stuffer","text":"vote 100 times.","icon":"https://summer.hackclub.com/assets/i_voted-bf851b48.png"}],"created_at":"2025-06-15T12:27:55.496-04:00","updated_at":"2025-09-23T11:10:20.642-04:00","avatar":"https://avatars.slack-edge.com/2025-04-02/8691071291270_f5f10b1c28f09449f27a_original.jpg","custom_css":null},{"id":2,"slack_id":"U080A3QP42C","display_name":"Rowan","bio":"we ball hard","projects_count":0,"devlogs_count":0,"votes_count":2,"ships_count":0,"projects":[],"coding_time_seconds":646679,"coding_time_seconds_today":1824,"balance":"You need to have a pocket watcher badge to view this.","badges":[{"name":"Verified","text":"this user is verified (i.e. gave us $8)","icon":"https://summer.hackclub.com/assets/verified-c9457a9f.png"},{"name":"\u003c%= admin_tool do %\u003e","text":"with great power comes great responsibility... and a ban hammer.","icon":"🔨"},{"name":"Gold Verified","text":"this user is REALLY verified (i.e. gave us $32)","icon":"https://summer.hackclub.com/assets/gold_verified-43dcb4b3.png"},{"name":"Spider","text":"this user has a pet!","icon":"🕷️"},{"name":"No Fun","text":"opt-out added for the whimsy-impaired","icon":"🚫"}],"created_at":"2025-06-15T12:30:11.969-04:00","updated_at":"2025-09-10T22:51:04.499-04:00","avatar":"https://avatars.slack-edge.com/2025-06-28/9118307123397_de6d5f92ca0ab5b43939_original.png","custom_css":null},{"id":3,"slack_id":"U06QK6AG3RD","display_name":"nora","bio":"i'm like if a girl was working on Summer of Making...","projects_count":2,"devlogs_count":3,"votes_count":2,"ships_count":2,"projects":[{"id":10251,"title":"Theseus","devlogs_count":1,"created_at":"2025-08-05T11:39:37.120-04:00"},{"id":10286,"title":"Summer of Making","devlogs_count":2,"created_at":"2025-08-05T14:38:30.790-04:00"}],"coding_time_seconds":507599,"coding_time_seconds_today":0,"balance":"You need to have a pocket watcher badge to view this.","badges":[{"name":"Graphic Design is My Passion","text":"Oh God How Did This Get Here I Am Not Good With Computer","icon":"🎨"},{"name":"Verified","text":"this user is verified (i.e. gave us $8)","icon":"https://summer.hackclub.com/assets/verified-c9457a9f.png"},{"name":"\u003c%= admin_tool do %\u003e","text":"with great power comes great responsibility... and a ban hammer.","icon":"🔨"},{"name":"Spider","text":"this user has a pet!","icon":"🕷️"},{"name":"Lived Mas","text":"you know what you did.","icon":"https://summer.hackclub.com/assets/bong-2a18e50d.png"},{"name":"Preferred Customer","text":"you'll never know what this does...","icon":"https://summer.hackclub.com/assets/cool-9a1241d0.png"},{"name":"Offshore Bank Account","text":"away from the watchful eyes...","icon":"https://summer.hackclub.com/assets/offshore_bank_account-8e65cc4d.png"},{"name":"Pocket Watcher","text":"you're a nosy one, aren't you?","icon":"https://summer.hackclub.com/assets/pocket_watcher-cd1cf021.png"},{"name":"Maiden Voyage","text":"you shipped your first project! the journey begins...","icon":"🚢"}],"created_at":"2025-06-15T12:54:28.478-04:00","updated_at":"2025-09-23T16:56:24.362-04:00","avatar":"https://avatars.slack-edge.com/2024-10-26/7934206296214_7be35073eff88c2252bc_original.png","custom_css":"body { filter: invert(1); font-family: \"Papyrus\"}"},{"id":4,"slack_id":"U05F4B48GBF","display_name":"cskartikey","bio":"uhhhh?","projects_count":4,"devlogs_count":5,"votes_count":52,"ships_count":1,"projects":[{"id":9019,"title":"Orpheus Editor","devlogs_count":0,"created_at":"2025-07-30T07:53:23.055-04:00"},{"id":12787,"title":"Low Effort Project ","devlogs_count":1,"created_at":"2025-09-02T12:14:29.802-04:00"},{"id":55,"title":"Summer of Making!","devlogs_count":7,"created_at":"2025-06-16T10:07:48.231-04:00"},{"id":56,"title":"som","devlogs_count":0,"created_at":"2025-06-16T10:07:49.853-04:00"}],"coding_time_seconds":479541,"coding_time_seconds_today":0,"balance":"You need to have a pocket watcher badge to view this.","badges":[{"name":"\u003c%= admin_tool do %\u003e","text":"with great power comes great responsibility... and a ban hammer.","icon":"🔨"},{"name":"Graphic Design is My Passion","text":"Oh God How Did This Get Here I Am Not Good With Computer","icon":"🎨"},{"name":"Lived Mas","text":"you know what you did.","icon":"https://summer.hackclub.com/assets/bong-2a18e50d.png"},{"name":"Verified","text":"this user is verified (i.e. gave us $8)","icon":"https://summer.hackclub.com/assets/verified-c9457a9f.png"},{"name":"Maiden Voyage","text":"you shipped your first project! the journey begins...","icon":"🚢"},{"name":"Yapper I","text":"Posted 10 comments on devlogs.","icon":"💬"}],"created_at":"2025-06-15T13:35:55.246-04:00","updated_at":"2025-09-11T00:02:06.694-04:00","avatar":"https://avatars.slack-edge.com/2025-05-17/8913055427746_e99ba98a3d7b53695c95_original.jpg","custom_css":"body {\n  display: none;\n}\n"},{"id":5,"slack_id":"U07L45W79E1","display_name":"Neon","bio":"Meow meow - https://saahild.com","projects_count":9,"devlogs_count":21,"votes_count":79,"ships_count":8,"projects":[{"id":4644,"title":"Annoy Lou","devlogs_count":2,"created_at":"2025-07-01T00:36:45.630-04:00"},{"id":7704,"title":"Slack zeon","devlogs_count":2,"created_at":"2025-07-22T16:04:42.275-04:00"},{"id":4034,"title":"Ntfy w/ som","devlogs_count":1,"created_at":"2025-06-27T02:08:07.833-04:00"},{"id":6,"title":"Summer of making Share votes","devlogs_count":5,"created_at":"2025-06-15T20:47:20.524-04:00"},{"id":6249,"title":"@grok is this true","devlogs_count":3,"created_at":"2025-07-11T15:29:26.959-04:00"},{"id":6248,"title":"ruby scrapes a book site","devlogs_count":1,"created_at":"2025-07-11T15:26:27.375-04:00"},{"id":6246,"title":"SoM userscript","devlogs_count":1,"created_at":"2025-07-11T15:15:19.053-04:00"},{"id":10065,"title":"Shipwrecked random phone number","devlogs_count":3,"created_at":"2025-08-03T19:58:10.322-04:00"},{"id":6494,"title":"Washing machine updates","devlogs_count":1,"created_at":"2025-07-13T20:29:57.231-04:00"}],"coding_time_seconds":1296817,"coding_time_seconds_today":1732,"balance":"You need to have a pocket watcher badge to view this.","badges":[{"name":"Verified","text":"this user is verified (i.e. gave us $8)","icon":"https://summer.hackclub.com/assets/verified-c9457a9f.png"},{"name":"\u003c%= admin_tool do %\u003e","text":"with great power comes great responsibility... and a ban hammer.","icon":"🔨"},{"name":"Maiden Voyage","text":"you shipped your first project! the journey begins...","icon":"🚢"},{"name":"Graphic Design is My Passion","text":"Oh God How Did This Get Here I Am Not Good With Computer","icon":"🎨"},{"name":"Spider","text":"this user has a pet!","icon":"🕷️"},{"name":"Popular","text":"Mrs popular over here with 100+ combined followers","icon":"🌟"},{"name":"Follower","text":"Following more then 100 projects!","icon":"👥"},{"name":"Lived Mas","text":"you know what you did.","icon":"https://summer.hackclub.com/assets/bong-2a18e50d.png"},{"name":"Gold Verified","text":"this user is REALLY verified (i.e. gave us $32)","icon":"https://summer.hackclub.com/assets/gold_verified-43dcb4b3.png"},{"name":"Offshore Bank Account","text":"away from the watchful eyes...","icon":"https://summer.hackclub.com/assets/offshore_bank_account-8e65cc4d.png"},{"name":"Sunglasses","text":"protect your eyes from other people's... creative... CSS choices.","icon":"https://summer.hackclub.com/assets/sunglasses-09ed0101.png"},{"name":"Pocket Watcher","text":"you're a nosy one, aren't you?","icon":"https://summer.hackclub.com/assets/pocket_watcher-cd1cf021.png"},{"name":"Preferred Customer","text":"you'll never know what this does...","icon":"https://summer.hackclub.com/assets/cool-9a1241d0.png"}],"created_at":"2025-06-15T14:46:29.520-04:00","updated_at":"2025-09-10T22:51:04.618-04:00","avatar":"https://avatars.slack-edge.com/2025-09-03/9454621858437_9639f633a675601d5612_original.png","custom_css":"body::after {\r\n  content: \"\";\r\n  position: fixed;\r\n  bottom: 20px;\r\n  right: 20px;\r\n  width: 250px;\r\n  height: 250px;\r\n  background-image: url('https://raw.githubusercontent.com/NeonGamerBot-QK/NeonGamerBot-QK/refs/heads/main/com--unscreen.gif'); /* put your image path here */\r\n  background-size: cover;\r\n  background-repeat: no-repeat;\r\n  z-index: 9999;\r\n  pointer-events: none; /* optional: allows clicks to pass through */\r\n}\r\n\r\n#tutorial-help-btn {\r\ndisplay: none;\r\n}\r\n[style=\"color: deeppink; font-family: Comic Sans MS\"] {\r\ncolor: #ca9ee6 !important;\r\nfont-weight: 800;\r\nfont-size: 50px;\r\n}\r\n[class=\"inline-flex items-center justify-center w-12 h-12 border-2 border-pink-500 bg-pink-500/10 text-pink-800 font-bold text-xl cursor-help transition-all duration-200 hover:scale-110 hover:shadow-lg relative group\"] {\r\ndisplay: none;\r\n}\r\n\r\n.profile-bio::after {\r\n    background-image: url(\"https://raw.githubusercontent.com/NeonGamerBot-QK/NeonGamerBot-QK/refs/heads/main/banner_stars.png\");\r\n    content: \"\";\r\n    display: block;\r\n    width: 100%;\r\n    min-height: 420px;\r\n    background-size: contain;\r\n    background-repeat: no-repeat;\r\n    background-position: center;\r\n}"},{"id":6,"slack_id":"U0C7B14Q3","display_name":"msw","bio":null,"projects_count":2,"devlogs_count":10,"votes_count":33,"ships_count":2,"projects":[{"id":50,"title":"Hackatime","devlogs_count":3,"created_at":"2025-06-16T09:36:24.244-04:00"},{"id":53,"title":"Summer of Making (SoM)","devlogs_count":7,"created_at":"2025-06-16T09:48:13.924-04:00"}],"coding_time_seconds":484873,"coding_time_seconds_today":212,"balance":"You need to have a pocket watcher badge to view this.","badges":[{"name":"\u003c%= admin_tool do %\u003e","text":"with great power comes great responsibility... and a ban hammer.","icon":"🔨"},{"name":"Maiden Voyage","text":"you shipped your first project! the journey begins...","icon":"🚢"}],"created_at":"2025-06-15T14:56:02.362-04:00","updated_at":"2025-09-10T22:51:04.666-04:00","avatar":"https://avatars.slack-edge.com/2025-04-19/8788878901233_f9d939fca3f77b2cd9c9_original.png","custom_css":null},{"id":7,"slack_id":"U082DPCGPST","display_name":"ascpixi","bio":"","projects_count":1,"devlogs_count":2,"votes_count":1,"ships_count":0,"projects":[{"id":10259,"title":"Pyton - make operating systems in Python","devlogs_count":1,"created_at":"2025-08-05T12:07:38.365-04:00"}],"coding_time_seconds":496553,"coding_time_seconds_today":207,"balance":"You need to have a pocket watcher badge to view this.","badges":[{"name":"Maiden Voyage","text":"you shipped your first project! the journey begins...","icon":"🚢"},{"name":"\u003c%= admin_tool do %\u003e","text":"with great power comes great responsibility... and a ban hammer.","icon":"🔨"}],"created_at":"2025-06-15T15:16:25.849-04:00","updated_at":"2025-09-10T22:51:04.702-04:00","avatar":"https://avatars.slack-edge.com/2025-05-25/8934823664711_55011dad5ce43c2b088e_original.jpg","custom_css":null},{"id":8,"slack_id":"U091BS3FQ83","display_name":"Test 25","bio":null,"projects_count":0,"devlogs_count":0,"votes_count":0,"ships_count":0,"projects":[],"coding_time_seconds":1171,"coding_time_seconds_today":0,"balance":"You need to have a pocket watcher badge to view this.","badges":[],"created_at":"2025-06-15T18:06:52.472-04:00","updated_at":"2025-07-03T19:10:58.516-04:00","avatar":"https://secure.gravatar.com/avatar/2927f39e203447d2572ee9e45e69e75e.jpg?s=512\u0026d=https%3A%2F%2Fa.slack-edge.com%2Fdf10d%2Fimg%2Favatars%2Fava_0026-512.png","custom_css":null},{"id":9,"slack_id":"U0927DMTR9N","display_name":"meow meow","bio":null,"projects_count":0,"devlogs_count":0,"votes_count":0,"ships_count":0,"projects":[],"coding_time_seconds":0,"coding_time_seconds_today":0,"balance":"You need to have a pocket watcher badge to view this.","badges":[],"created_at":"2025-06-15T18:13:59.588-04:00","updated_at":"2025-07-03T19:10:58.784-04:00","avatar":"https://secure.gravatar.com/avatar/71c39fd7045ff7543858f51c6e9c8fcc.jpg?s=512\u0026d=https%3A%2F%2Fa.slack-edge.com%2Fdf10d%2Fimg%2Favatars%2Fava_0002-512.png","custom_css":null},{"id":10,"slack_id":"U088V2C21AB","display_name":"Lawri","bio":null,"projects_count":2,"devlogs_count":7,"votes_count":0,"ships_count":1,"projects":[{"id":4281,"title":"WebQ","devlogs_count":1,"created_at":"2025-06-28T16:28:02.697-04:00"},{"id":2534,"title":"Lawri Darbyshire - Portfolio","devlogs_count":6,"created_at":"2025-06-21T08:38:33.182-04:00"}],"coding_time_seconds":37798,"coding_time_seconds_today":0,"balance":"You need to have a pocket watcher badge to view this.","badges":[{"name":"Maiden Voyage","text":"you shipped your first project! the journey begins...","icon":"🚢"}],"created_at":"2025-06-15T19:44:13.236-04:00","updated_at":"2025-09-10T22:51:04.770-04:00","avatar":"https://avatars.slack-edge.com/2025-07-13/9211890772496_2e96c3d0df152ba0ecf4_original.jpg","custom_css":null},{"id":11,"slack_id":"U04HJGA76H2","display_name":"Kai Pereira","bio":null,"projects_count":1,"devlogs_count":1,"votes_count":8,"ships_count":1,"projects":[{"id":12619,"title":"Personal portfolio :D","devlogs_count":1,"created_at":"2025-08-30T15:53:22.046-04:00"}],"coding_time_seconds":58051,"coding_time_seconds_today":0,"balance":"You need to have a pocket watcher badge to view this.","badges":[{"name":"Maiden Voyage","text":"you shipped your first project! the journey begins...","icon":"🚢"}],"created_at":"2025-06-15T19:44:30.878-04:00","updated_at":"2025-09-20T14:48:22.794-04:00","avatar":"https://avatars.slack-edge.com/2025-09-15/9519751011925_225e92e0127248e36b5b_original.png","custom_css":null},{"id":12,"slack_id":"U0824G9PTFE","display_name":"dhyan","bio":"","projects_count":7,"devlogs_count":12,"votes_count":41,"ships_count":2,"projects":[{"id":2151,"title":"Penguin Trinket","devlogs_count":1,"created_at":"2025-06-20T09:51:40.265-04:00"},{"id":3037,"title":"penguin jump","devlogs_count":0,"created_at":"2025-06-22T21:55:39.963-04:00"},{"id":7070,"title":"Battery Box","devlogs_count":2,"created_at":"2025-07-18T17:36:25.046-04:00"},{"id":9367,"title":"Hack Club Ai","devlogs_count":2,"created_at":"2025-07-31T20:18:54.396-04:00"},{"id":4,"title":"Reactive","devlogs_count":0,"created_at":"2025-06-15T20:02:07.258-04:00"},{"id":2328,"title":"Neoboard!","devlogs_count":5,"created_at":"2025-06-20T18:04:11.749-04:00"},{"id":9623,"title":"tools - cdn","devlogs_count":2,"created_at":"2025-08-01T22:33:03.815-04:00"}],"coding_time_seconds":178001,"coding_time_seconds_today":0,"balance":"You need to have a pocket watcher badge to view this.","badges":[{"name":"Maiden Voyage","text":"you shipped your first project! the journey begins...","icon":"🚢"}],"created_at":"2025-06-15T19:44:46.607-04:00","updated_at":"2025-09-23T10:19:27.860-04:00","avatar":"https://avatars.slack-edge.com/2025-06-17/9060906487205_065f61ec9b62491679ed_original.png","custom_css":null},{"id":13,"slack_id":"U07FHT3BNTT","display_name":"Nathan Cloutier","bio":null,"projects_count":3,"devlogs_count":39,"votes_count":39,"ships_count":2,"projects":[{"id":8626,"title":"Flash Forge","devlogs_count":23,"created_at":"2025-07-28T17:45:40.323-04:00"},{"id":13316,"title":"Shrek Website","devlogs_count":11,"created_at":"2025-09-13T21:52:06.290-04:00"},{"id":11221,"title":"Movie API","devlogs_count":5,"created_at":"2025-08-14T05:38:26.370-04:00"}],"coding_time_seconds":638378,"coding_time_seconds_today":0,"balance":"You need to have a pocket watcher badge to view this.","badges":[{"name":"Maiden Voyage","text":"you shipped your first project! the journey begins...","icon":"🚢"}],"created_at":"2025-06-15T19:45:24.572-04:00","updated_at":"2025-09-10T22:51:04.869-04:00","avatar":"https://avatars.slack-edge.com/2024-08-01/7508626377142_1cdfacce433f20db3527_original.jpg","custom_css":null},{"id":14,"slack_id":"U07UY5CR7U5","display_name":"Toshit","bio":":3","projects_count":8,"devlogs_count":80,"votes_count":43,"ships_count":5,"projects":[{"id":8235,"title":"m3-dreamland","devlogs_count":11,"created_at":"2025-07-25T13:22:16.817-04:00"},{"id":8516,"title":"epoxy-tls","devlogs_count":2,"created_at":"2025-07-27T19:06:29.396-04:00"},{"id":12916,"title":"SoM Grand Survey: Mount Kablooey Summit Visitor Center","devlogs_count":4,"created_at":"2025-09-05T08:16:19.231-04:00"},{"id":3,"title":"dreamland.js","devlogs_count":37,"created_at":"2025-06-15T20:00:06.951-04:00"},{"id":15,"title":"scramjet","devlogs_count":6,"created_at":"2025-06-15T21:46:14.117-04:00"},{"id":22,"title":"SoM Harbor","devlogs_count":10,"created_at":"2025-06-15T22:39:47.591-04:00"},{"id":6832,"title":"powerd","devlogs_count":7,"created_at":"2025-07-16T16:56:28.365-04:00"},{"id":7932,"title":"Summer Of Making","devlogs_count":3,"created_at":"2025-07-23T17:29:55.799-04:00"}],"coding_time_seconds":724413,"coding_time_seconds_today":0,"balance":"You need to have a pocket watcher badge to view this.","badges":[{"name":"Verified","text":"this user is verified (i.e. gave us $8)","icon":"https://summer.hackclub.com/assets/verified-c9457a9f.png"},{"name":"Graphic Design is My Passion","text":"Oh God How Did This Get Here I Am Not Good With Computer","icon":"🎨"},{"name":"Lived Mas","text":"you know what you did.","icon":"https://summer.hackclub.com/assets/bong-2a18e50d.png"},{"name":"Maiden Voyage","text":"you shipped your first project! the journey begins...","icon":"🚢"},{"name":"\u003c%= admin_tool do %\u003e","text":"with great power comes great responsibility... and a ban hammer.","icon":"🔨"},{"name":"Gold Verified","text":"this user is REALLY verified (i.e. gave us $32)","icon":"https://summer.hackclub.com/assets/gold_verified-43dcb4b3.png"},{"name":"Yapper I","text":"Posted 10 comments on devlogs.","icon":"💬"},{"name":"No Fun","text":"opt-out added for the whimsy-impaired","icon":"🚫"}],"created_at":"2025-06-15T19:46:09.310-04:00","updated_at":"2025-09-10T22:51:04.950-04:00","avatar":"https://secure.gravatar.com/avatar/ee6805f80d095e4499126d181e633958.jpg?s=512\u0026d=https%3A%2F%2Fa.slack-edge.com%2Fdf10d%2Fimg%2Favatars%2Fava_0005-512.png","custom_css":".card-with-gradient:has([src^=\"/assets/verified\"]) .card-content div.gap-3.justify-center \u003e div.gap-2.items-center \u003e div.border-pink-500 {\r\n    background: url(\"/rails/active_storage/representations/redirect/eyJfcmFpbHMiOnsiZGF0YSI6MjI1MjAsInB1ciI6ImJsb2JfaWQifX0=--a95ad860a7450513060bd278d7eb2e2470cfaf30/eyJfcmFpbHMiOnsiZGF0YSI6eyJmb3JtYXQiOiJqcGciLCJyZXNpemVfdG9fbGltaXQiOlsyNTYsMjU2XX0sInB1ciI6InZhcmlhdGlvbiJ9fQ==--b917b4255ec921c7e7a8d312ea98cb5ba37e5f5d/i_am_rich.png\");\r\n    background-size: contain;\r\n    content: \"\";\r\n    width: 48px;\r\n    height: 48px;\r\n    display: block;\r\n    border: 2px solid oklch(0.637 0.237 25.331);\r\n}\r\n.card-with-gradient:has([src^=\"/assets/verified\"]) .card-content div.gap-3.justify-center \u003e div.gap-2.items-center \u003e div.border-pink-500 \u003e span {\r\n    display: none;\r\n}\r\n.card-with-gradient:has([src^=\"/assets/verified\"]) .card-content div.gap-3.justify-center \u003e div.gap-2.items-center \u003e div.border-pink-500 \u003e div::before {\r\n    display: block;\r\n    content: \"I Am Rich\";\r\n    font-weight: 700;\r\n}\r\n.card-with-gradient:has([src^=\"/assets/verified\"]) .card-content div.gap-3.justify-center \u003e div.gap-2.items-center \u003e div.border-pink-500 \u003e div::after {\r\n    display: block;\r\n    content: \"you are rich. you deserv it. you are good, healthy \u0026 successful.\";\r\n    color: #d1d5dc;\r\n    font-size: .75rem;\r\n    line-height: calc(1 / .75);\r\n}\r\n.card-with-gradient:has([src^=\"/assets/verified\"]) .card-content div.gap-3.justify-center \u003e div.gap-2.items-center \u003e div.border-pink-500 \u003e div \u003e div:not(.absolute) {\r\n    display: none;\r\n}\r\n\r\n.profile-bio { display: none; }\r\n.profile-bio-section::after {\r\n    background-image: url(\"https://hc-cdn.hel1.your-objectstorage.com/s/v3/71eb338b6c8df40422a39e64c197d12bff6abe2f_image.png\");\r\n    content: \"\";\r\n    display: block;\r\n    width: 100%;\r\n    height: 360px;\r\n    background-size: contain;\r\n    background-repeat: no-repeat;\r\n    background-position: center;\r\n}"},{"id":15,"slack_id":"U091C4JU1DL","display_name":"meow meow meow","bio":null,"projects_count":0,"devlogs_count":0,"votes_count":0,"ships_count":0,"projects":[],"coding_time_seconds":0,"coding_time_seconds_today":0,"balance":"You need to have a pocket watcher badge to view this.","badges":[],"created_at":"2025-06-15T19:46:29.115-04:00","updated_at":"2025-07-03T19:11:00.647-04:00","avatar":"https://secure.gravatar.com/avatar/d50f9425f7da3e7c230176be9147b742.jpg?s=512\u0026d=https%3A%2F%2Fa.slack-edge.com%2Fdf10d%2Fimg%2Favatars%2Fava_0011-512.png","custom_css":null},{"id":16,"slack_id":"U07A0D5K3T2","display_name":"fireentity","bio":"hi !!\r\nsom user 16 :3\r\ngodot addict \u003c3\r\nlowk too lazy to finish the css ","projects_count":5,"devlogs_count":91,"votes_count":60,"ships_count":3,"projects":[{"id":517,"title":"n-u-l-l","devlogs_count":17,"created_at":"2025-06-17T00:08:26.773-04:00"},{"id":4788,"title":"Airfleet","devlogs_count":13,"created_at":"2025-07-01T14:15:51.152-04:00"},{"id":6644,"title":"Voidborne","devlogs_count":57,"created_at":"2025-07-14T18:24:47.943-04:00"},{"id":8625,"title":"Saberstalker","devlogs_count":0,"created_at":"2025-07-28T17:35:57.247-04:00"},{"id":10585,"title":"Hacksaber","devlogs_count":4,"created_at":"2025-08-08T12:45:13.130-04:00"}],"coding_time_seconds":1006250,"coding_time_seconds_today":569,"balance":"You need to have a pocket watcher badge to view this.","badges":[{"name":"Maiden Voyage","text":"you shipped your first project! the journey begins...","icon":"🚢"},{"name":"Graphic Design is My Passion","text":"Oh God How Did This Get Here I Am Not Good With Computer","icon":"🎨"},{"name":"Yapper I","text":"Posted 10 comments on devlogs.","icon":"💬"}],"created_at":"2025-06-15T19:46:36.955-04:00","updated_at":"2025-09-20T00:00:08.535-04:00","avatar":"https://avatars.slack-edge.com/2025-09-19/9551744298038_c6cc10c9830ba4948574_original.jpg","custom_css":".box-border {background: linear-gradient(180deg,rgba(21, 0, 23, 1) 0%, rgba(138, 0, 92, 1) 100%);}\r\n\r\n.profile-stats .text-xs { color: white; }\r\n.profile-stats .text-sm { color: white; }\r\n\r\n.text-sm {font-size:xl;}\r\n\r\n.profile-bio {color: white;}\r\n\r\nh3 h2 h4 h5 h6 a button {color:white !important;}\r\n\r\n.profile-container h2 { color: white; }\r\n\r\n.card-with-gradient { background: black !important; color: white !important; }\r\n\r\n.text-base {color: white !important}\r\n\r\n.profile-header {color: white}\r\n\r\nhtml {\r\ncolor: white !important;\r\n}\r\n\r\nspan {color:white;}"},{"id":17,"slack_id":"U078WRWQPGF","display_name":"grs","bio":null,"projects_count":3,"devlogs_count":10,"votes_count":2,"ships_count":0,"projects":[{"id":10976,"title":"Cursor","devlogs_count":1,"created_at":"2025-08-12T06:31:58.483-04:00"},{"id":12730,"title":"Onward","devlogs_count":2,"created_at":"2025-09-01T16:52:35.928-04:00"},{"id":3547,"title":"reed","devlogs_count":7,"created_at":"2025-06-24T16:25:35.927-04:00"}],"coding_time_seconds":220171,"coding_time_seconds_today":0,"balance":"You need to have a pocket watcher badge to view this.","badges":[],"created_at":"2025-06-15T19:47:17.546-04:00","updated_at":"2025-09-04T01:01:12.697-04:00","avatar":"https://avatars.slack-edge.com/2025-08-04/9302980459314_7799e73dcbe0eef7ec45_original.png","custom_css":null},{"id":18,"slack_id":"U07950S3GMC","display_name":"Shuflduf","bio":"🐸🚀","projects_count":9,"devlogs_count":141,"votes_count":142,"ships_count":7,"projects":[{"id":1902,"title":"Orange Goose 64","devlogs_count":2,"created_at":"2025-06-19T15:09:59.921-04:00"},{"id":3605,"title":"Pepsi Limbo","devlogs_count":47,"created_at":"2025-06-24T22:32:10.324-04:00"},{"id":4154,"title":"Godot Shaders Guide","devlogs_count":17,"created_at":"2025-06-27T23:00:25.052-04:00"},{"id":11794,"title":"Create Flat","devlogs_count":31,"created_at":"2025-08-19T14:41:51.473-04:00"},{"id":12747,"title":"MCX","devlogs_count":6,"created_at":"2025-09-01T23:10:06.064-04:00"},{"id":1575,"title":"Shufl Chat","devlogs_count":7,"created_at":"2025-06-18T19:21:16.461-04:00"},{"id":8079,"title":"Shuflduf Live","devlogs_count":7,"created_at":"2025-07-24T12:47:37.190-04:00"},{"id":10338,"title":"Goose Fight","devlogs_count":13,"created_at":"2025-08-06T03:37:03.762-04:00"},{"id":11252,"title":"Fizzler","devlogs_count":9,"created_at":"2025-08-14T10:09:04.975-04:00"}],"coding_time_seconds":1186473,"coding_time_seconds_today":1922,"balance":"You need to have a pocket watcher badge to view this.","badges":[{"name":"Maiden Voyage","text":"you shipped your first project! the journey begins...","icon":"🚢"},{"name":"Ballot Stuffer","text":"vote 100 times.","icon":"https://summer.hackclub.com/assets/i_voted-bf851b48.png"},{"name":"Yapper I","text":"Posted 10 comments on devlogs.","icon":"💬"}],"created_at":"2025-06-15T19:48:43.525-04:00","updated_at":"2025-09-10T22:51:05.230-04:00","avatar":"https://avatars.slack-edge.com/2025-09-05/9475254122116_d26c35e8518923061c9b_original.png","custom_css":null},{"id":19,"slack_id":"U0828MFCD99","display_name":"krunch","bio":"hii","projects_count":3,"devlogs_count":7,"votes_count":0,"ships_count":1,"projects":[{"id":1940,"title":"NetPeek Terminal Network Toolkit","devlogs_count":2,"created_at":"2025-06-19T16:55:31.153-04:00"},{"id":10161,"title":"krunchboard","devlogs_count":2,"created_at":"2025-08-04T13:54:34.931-04:00"},{"id":11687,"title":"SMD Soldering Practice Board","devlogs_count":3,"created_at":"2025-08-18T12:49:16.184-04:00"}],"coding_time_seconds":96450,"coding_time_seconds_today":0,"balance":"You need to have a pocket watcher badge to view this.","badges":[{"name":"Maiden Voyage","text":"you shipped your first project! the journey begins...","icon":"🚢"}],"created_at":"2025-06-15T19:50:02.958-04:00","updated_at":"2025-09-10T22:51:05.272-04:00","avatar":"https://avatars.slack-edge.com/2025-07-28/9246225035335_852a279f1a5f02696358_original.png","custom_css":null},{"id":20,"slack_id":"U07A10XBMGQ","display_name":"DevCmb","bio":null,"projects_count":3,"devlogs_count":20,"votes_count":21,"ships_count":1,"projects":[{"id":6262,"title":"Tree Tumblers","devlogs_count":5,"created_at":"2025-07-11T18:28:23.740-04:00"},{"id":7714,"title":"Resourcerer","devlogs_count":2,"created_at":"2025-07-22T16:56:34.132-04:00"},{"id":12231,"title":"CmbMinigames V2","devlogs_count":9,"created_at":"2025-08-24T16:19:59.562-04:00"}],"coding_time_seconds":409450,"coding_time_seconds_today":0,"balance":"You need to have a pocket watcher badge to view this.","badges":[{"name":"Maiden Voyage","text":"you shipped your first project! the journey begins...","icon":"🚢"}],"created_at":"2025-06-15T19:51:19.991-04:00","updated_at":"2025-09-17T20:22:28.259-04:00","avatar":"https://avatars.slack-edge.com/2024-06-23/7315572905317_9c11d9d2de7e23a1f5b1_original.png","custom_css":null}],"pagination":{"page":1,"pages":1191,"count":23810,"items":20}}