{"users": [{"id": 181, "slack_id": "U082L0UTJ66", "display_name": "tathya is aweomse", "bio": null, "projects_count": 6, "devlogs_count": 34, "votes_count": 1, "ships_count": 1, "projects": [{"id": 1333, "title": "Pokemon FRLG", "devlogs_count": 6, "created_at": "2025-06-18T09:17:32.511-04:00"}, {"id": 2937, "title": "diddler.party", "devlogs_count": 4, "created_at": "2025-06-22T13:57:57.660-04:00"}, {"id": 3982, "title": "Intoxicode", "devlogs_count": 16, "created_at": "2025-06-26T16:24:55.021-04:00"}, {"id": 6695, "title": "Grow a Business", "devlogs_count": 4, "created_at": "2025-07-15T07:27:34.313-04:00"}, {"id": 7711, "title": "Ferox", "devlogs_count": 3, "created_at": "2025-07-22T16:40:08.995-04:00"}, {"id": 11239, "title": "Armtrace - Raytracer in 100% Apple ARM64 Assembly", "devlogs_count": 1, "created_at": "2025-08-14T08:05:51.722-04:00"}], "coding_time_seconds": 578342, "coding_time_seconds_today": 0, "balance": "You need to have a pocket watcher badge to view this.", "badges": [{"name": "Maiden Voyage", "text": "you shipped your first project! the journey begins...", "icon": "\ud83d\udea2"}], "created_at": "2025-06-16T05:46:36.775-04:00", "updated_at": "2025-09-10T22:51:11.616-04:00", "avatar": "https://avatars.slack-edge.com/2025-03-28/8667279639653_633bd3bca0e4cf464c9b_original.webp", "custom_css": null}, {"id": 182, "slack_id": "U07GLQY6UN4", "display_name": "domain", "bio": null, "projects_count": 3, "devlogs_count": 7, "votes_count": 21, "ships_count": 2, "projects": [{"id": 4704, "title": "ChessBro Mobile", "devlogs_count": 0, "created_at": "2025-07-01T06:33:12.967-04:00"}, {"id": 10683, "title": "Anydle", "devlogs_count": 2, "created_at": "2025-08-09T14:42:15.201-04:00"}, {"id": 4099, "title": "ChessBro", "devlogs_count": 5, "created_at": "2025-06-27T12:47:19.625-04:00"}], "coding_time_seconds": 287338, "coding_time_seconds_today": 0, "balance": "You need to have a pocket watcher badge to view this.", "badges": [{"name": "Maiden Voyage", "text": "you shipped your first project! the journey begins...", "icon": "\ud83d\udea2"}], "created_at": "2025-06-16T05:47:40.052-04:00", "updated_at": "2025-09-10T22:51:11.644-04:00", "avatar": "https://avatars.slack-edge.com/2025-08-21/9387082076949_4f30f02e59405aa78aa1_original.png", "custom_css": null}, {"id": 183, "slack_id": "U079WR1AVNX", "display_name": "JaTar", "bio": null, "projects_count": 3, "devlogs_count": 28, "votes_count": 2, "ships_count": 1, "projects": [{"id": 3706, "title": "Launkey", "devlogs_count": 25, "created_at": "2025-06-25T09:58:55.861-04:00"}, {"id": 11970, "title": "VaultToEPUB", "devlogs_count": 1, "created_at": "2025-08-21T15:31:29.025-04:00"}, {"id": 1851, "title": "TickBack", "devlogs_count": 4, "created_at": "2025-06-19T12:32:13.446-04:00"}], "coding_time_seconds": 301710, "coding_time_seconds_today": 0, "balance": "You need to have a pocket watcher badge to view this.", "badges": [{"name": "Maiden Voyage", "text": "you shipped your first project! the journey begins...", "icon": "\ud83d\udea2"}], "created_at": "2025-06-16T05:48:57.444-04:00", "updated_at": "2025-09-10T22:51:11.679-04:00", "avatar": "https://secure.gravatar.com/avatar/19609ea1371075fb349b8e8208bbcbe9.jpg?s=512&d=https%3A%2F%2Fa.slack-edge.com%2Fdf10d%2Fimg%2Favatars%2Fava_0014-512.png", "custom_css": null}, {"id": 184, "slack_id": "U07AGEVSTD2", "display_name": "felix", "bio": "", "projects_count": 6, "devlogs_count": 16, "votes_count": 86, "ships_count": 4, "projects": [{"id": 3122, "title": "Camera Tweaks", "devlogs_count": 1, "created_at": "2025-06-23T06:45:56.676-04:00"}, {"id": 6400, "title": "Fishy Buisness", "devlogs_count": 3, "created_at": "2025-07-13T03:19:52.531-04:00"}, {"id": 6903, "title": "BlockBench Wakatime", "devlogs_count": 2, "created_at": "2025-07-17T08:18:43.873-04:00"}, {"id": 9524, "title": "Stfu", "devlogs_count": 2, "created_at": "2025-08-01T15:01:43.024-04:00"}, {"id": 2539, "title": "Hackatime troubleshooter", "devlogs_count": 3, "created_at": "2025-06-21T08:59:55.899-04:00"}, {"id": 9263, "title": "Felix' Rats!", "devlogs_count": 5, "created_at": "2025-07-31T08:47:16.883-04:00"}], "coding_time_seconds": 704699, "coding_time_seconds_today": 0, "balance": "You need to have a pocket watcher badge to view this.", "badges": [{"name": "Maiden Voyage", "text": "you shipped your first project! the journey begins...", "icon": "\ud83d\udea2"}], "created_at": "2025-06-16T05:51:49.249-04:00", "updated_at": "2025-09-10T22:51:11.716-04:00", "avatar": "https://avatars.slack-edge.com/2025-08-12/9327785921975_c937acef48694da1bc96_original.png", "custom_css": null}, {"id": 185, "slack_id": "U081PV418US", "display_name": "Dawar", "bio": null, "projects_count": 0, "devlogs_count": 0, "votes_count": 2, "ships_count": 0, "projects": [], "coding_time_seconds": 76990, "coding_time_seconds_today": 0, "balance": "You need to have a pocket watcher badge to view this.", "badges": [], "created_at": "2025-06-16T06:00:54.501-04:00", "updated_at": "2025-08-08T02:54:28.253-04:00", "avatar": "https://avatars.slack-edge.com/2025-01-05/8246664435205_5ff9654fd85caafadd1f_original.jpg", "custom_css": null}, {"id": 186, "slack_id": "U0807ADEC6L", "display_name": "Manan", "bio": null, "projects_count": 2, "devlogs_count": 14, "votes_count": 40, "ships_count": 2, "projects": [{"id": 12790, "title": "Mini Midi Magic", "devlogs_count": 1, "created_at": "2025-09-02T13:10:41.073-04:00"}, {"id": 94, "title": "A website about my city - Jaipur", "devlogs_count": 5, "created_at": "2025-06-16T12:48:21.401-04:00"}], "coding_time_seconds": 262226, "coding_time_seconds_today": 0, "balance": "You need to have a pocket watcher badge to view this.", "badges": [{"name": "Maiden Voyage", "text": "you shipped your first project! the journey begins...", "icon": "\ud83d\udea2"}], "created_at": "2025-06-16T06:04:59.871-04:00", "updated_at": "2025-09-10T22:51:11.782-04:00", "avatar": "https://avatars.slack-edge.com/2025-08-28/9453573288480_c81b69c06751480b1eb5_original.png", "custom_css": null}, {"id": 187, "slack_id": "U07E4196AMA", "display_name": "Souptik Samanta", "bio": null, "projects_count": 2, "devlogs_count": 1, "votes_count": 1, "ships_count": 1, "projects": [{"id": 4461, "title": "Walkie talkie", "devlogs_count": 0, "created_at": "2025-06-30T04:02:19.699-04:00"}, {"id": 4462, "title": "Infrared-gun", "devlogs_count": 1, "created_at": "2025-06-30T04:03:53.494-04:00"}], "coding_time_seconds": 45241, "coding_time_seconds_today": 0, "balance": "You need to have a pocket watcher badge to view this.", "badges": [{"name": "Maiden Voyage", "text": "you shipped your first project! the journey begins...", "icon": "\ud83d\udea2"}], "created_at": "2025-06-16T06:18:26.207-04:00", "updated_at": "2025-09-10T22:51:11.820-04:00", "avatar": "https://avatars.slack-edge.com/2025-06-14/9048329711285_d898640d5a3d0e2a85ce_original.png", "custom_css": null}, {"id": 188, "slack_id": "U091MQ4KTS8", "display_name": "Bushra", "bio": null, "projects_count": 0, "devlogs_count": 0, "votes_count": 0, "ships_count": 0, "projects": [], "coding_time_seconds": 0, "coding_time_seconds_today": 0, "balance": "You need to have a pocket watcher badge to view this.", "badges": [], "created_at": "2025-06-16T06:34:09.680-04:00", "updated_at": "2025-07-03T19:11:51.056-04:00", "avatar": "https://secure.gravatar.com/avatar/e5fefa5301e98502984ad87f87a32115.jpg?s=512&d=https%3A%2F%2Fa.slack-edge.com%2Fdf10d%2Fimg%2Favatars%2Fava_0026-512.png", "custom_css": null}, {"id": 189, "slack_id": "U0266FRGP", "display_name": "zrl", "bio": null, "projects_count": 2, "devlogs_count": 2, "votes_count": 10, "ships_count": 0, "projects": [{"id": 6078, "title": "arker", "devlogs_count": 2, "created_at": "2025-07-10T12:13:41.161-04:00"}, {"id": 6063, "title": "terminal-wakatime", "devlogs_count": 0, "created_at": "2025-07-10T10:29:45.937-04:00"}], "coding_time_seconds": 212129, "coding_time_seconds_today": 0, "balance": "You need to have a pocket watcher badge to view this.", "badges": [{"name": "<%= admin_tool do %>", "text": "with great power comes great responsibility... and a ban hammer.", "icon": "\ud83d\udd28"}], "created_at": "2025-06-16T06:38:53.721-04:00", "updated_at": "2025-09-10T22:51:11.873-04:00", "avatar": "https://avatars.slack-edge.com/2025-06-09/9034594347377_099215269d0adc2b02f9_original.jpg", "custom_css": null}, {"id": 190, "slack_id": "U082KS48JN5", "display_name": "\u30bf\u30b3", "bio": null, "projects_count": 3, "devlogs_count": 5, "votes_count": 20, "ships_count": 1, "projects": [{"id": 8879, "title": "Raccoon", "devlogs_count": 1, "created_at": "2025-07-29T14:41:51.742-04:00"}, {"id": 12655, "title": "NixOS configuration", "devlogs_count": 2, "created_at": "2025-08-31T06:32:25.907-04:00"}, {"id": 45, "title": "Vuelto Game Engine", "devlogs_count": 2, "created_at": "2025-06-16T09:07:23.486-04:00"}], "coding_time_seconds": 131849, "coding_time_seconds_today": 0, "balance": "You need to have a pocket watcher badge to view this.", "badges": [{"name": "Maiden Voyage", "text": "you shipped your first project! the journey begins...", "icon": "\ud83d\udea2"}], "created_at": "2025-06-16T06:39:43.351-04:00", "updated_at": "2025-09-10T22:51:11.907-04:00", "avatar": "https://avatars.slack-edge.com/2025-02-23/8497901150450_c9a8b45c15089f6bc545_original.jpg", "custom_css": null}, {"id": 191, "slack_id": "U07ES48RES3", "display_name": "Anirudh", "bio": null, "projects_count": 19, "devlogs_count": 131, "votes_count": 278, "ships_count": 16, "projects": [{"id": 5717, "title": "My Cute Mouse", "devlogs_count": 0, "created_at": "2025-07-07T12:20:43.458-04:00"}, {"id": 6275, "title": "The last message", "devlogs_count": 2, "created_at": "2025-07-11T23:19:19.669-04:00"}, {"id": 6572, "title": "Hand Cricket Bot ( EXTRA ROAST MODE )", "devlogs_count": 2, "created_at": "2025-07-14T10:24:49.430-04:00"}, {"id": 7992, "title": "PORTAL VR - YSWS", "devlogs_count": 13, "created_at": "2025-07-23T23:49:43.337-04:00"}, {"id": 12762, "title": "GITHUB Theater", "devlogs_count": 15, "created_at": "2025-09-02T05:42:55.472-04:00"}, {"id": 13658, "title": "Story - chrome extension", "devlogs_count": 24, "created_at": "2025-09-22T07:36:34.019-04:00"}, {"id": 4036, "title": "Scibble Pad", "devlogs_count": 7, "created_at": "2025-06-27T02:24:10.797-04:00"}, {"id": 13396, "title": "Cute little guy ( spammer bot )", "devlogs_count": 3, "created_at": "2025-09-15T09:31:57.292-04:00"}, {"id": 13118, "title": "The Shellfish Kingdom - Scene 62", "devlogs_count": 3, "created_at": "2025-09-09T00:23:41.917-04:00"}, {"id": 4061, "title": "ASCII FLOWCHART", "devlogs_count": 6, "created_at": "2025-06-27T07:09:40.049-04:00"}, {"id": 7585, "title": "Sub Atomic Particle Simulator", "devlogs_count": 9, "created_at": "2025-07-22T07:32:16.649-04:00"}, {"id": 839, "title": "Ferrari", "devlogs_count": 1, "created_at": "2025-06-17T09:34:51.683-04:00"}, {"id": 849, "title": "Make your waffle", "devlogs_count": 1, "created_at": "2025-06-17T09:45:51.206-04:00"}, {"id": 856, "title": "ISRO website", "devlogs_count": 1, "created_at": "2025-06-17T09:52:31.947-04:00"}, {"id": 10571, "title": "Digital Posture Monitor", "devlogs_count": 18, "created_at": "2025-08-08T09:48:14.868-04:00"}, {"id": 1769, "title": "Little Me", "devlogs_count": 3, "created_at": "2025-06-19T07:55:42.123-04:00"}, {"id": 4259, "title": "Shrink - Esolang", "devlogs_count": 9, "created_at": "2025-06-28T13:51:46.383-04:00"}, {"id": 4784, "title": "FREEWAY - AI PLAY THE GAME", "devlogs_count": 3, "created_at": "2025-07-01T13:52:20.199-04:00"}, {"id": 11066, "title": "Pixel ARM Assembly", "devlogs_count": 11, "created_at": "2025-08-12T23:35:35.603-04:00"}], "coding_time_seconds": 492884, "coding_time_seconds_today": 5113, "balance": "You need to have a pocket watcher badge to view this.", "badges": [{"name": "Maiden Voyage", "text": "you shipped your first project! the journey begins...", "icon": "\ud83d\udea2"}, {"name": "Ballot Stuffer", "text": "vote 100 times.", "icon": "https://summer.hackclub.com/assets/i_voted-bf851b48.png"}], "created_at": "2025-06-16T06:55:33.147-04:00", "updated_at": "2025-09-15T03:42:06.617-04:00", "avatar": "https://avatars.slack-edge.com/2025-08-22/9391147594451_f071064fadea03d26edf_original.jpg", "custom_css": null}, {"id": 192, "slack_id": "U07EVS2LRH6", "display_name": "wormmeatapple", "bio": null, "projects_count": 1, "devlogs_count": 0, "votes_count": 0, "ships_count": 0, "projects": [{"id": 1833, "title": "</Flag> website", "devlogs_count": 0, "created_at": "2025-06-19T11:24:34.113-04:00"}], "coding_time_seconds": 11005, "coding_time_seconds_today": 0, "balance": "You need to have a pocket watcher badge to view this.", "badges": [], "created_at": "2025-06-16T07:05:24.162-04:00", "updated_at": "2025-07-03T19:11:52.228-04:00", "avatar": "https://avatars.slack-edge.com/2024-07-26/7483291607602_b0b1abe61343420a22a7_original.png", "custom_css": null}, {"id": 193, "slack_id": "U07UGKXNANN", "display_name": "Boa_n", "bio": null, "projects_count": 0, "devlogs_count": 5, "votes_count": 3, "ships_count": 0, "projects": [], "coding_time_seconds": 125176, "coding_time_seconds_today": 0, "balance": "You need to have a pocket watcher badge to view this.", "badges": [{"name": "Maiden Voyage", "text": "you shipped your first project! the journey begins...", "icon": "\ud83d\udea2"}], "created_at": "2025-06-16T07:08:44.257-04:00", "updated_at": "2025-09-10T22:51:12.099-04:00", "avatar": "https://avatars.slack-edge.com/2025-03-30/8701316828000_11fca16b252a68795985_original.png", "custom_css": null}, {"id": 194, "slack_id": "U07JMTHC0P6", "display_name": "B0redChungus", "bio": null, "projects_count": 0, "devlogs_count": 0, "votes_count": 0, "ships_count": 0, "projects": [], "coding_time_seconds": 1200, "coding_time_seconds_today": 0, "balance": "You need to have a pocket watcher badge to view this.", "badges": [], "created_at": "2025-06-16T07:18:36.361-04:00", "updated_at": "2025-07-03T19:11:52.765-04:00", "avatar": "https://avatars.slack-edge.com/2025-01-29/8383121618465_aa3074feecb698c12ed7_original.jpg", "custom_css": null}, {"id": 195, "slack_id": "U091EJ40Y3G", "display_name": "Lord Factor", "bio": null, "projects_count": 0, "devlogs_count": 0, "votes_count": 0, "ships_count": 0, "projects": [], "coding_time_seconds": 0, "coding_time_seconds_today": 0, "balance": "You need to have a pocket watcher badge to view this.", "badges": [], "created_at": "2025-06-16T07:19:55.846-04:00", "updated_at": "2025-07-03T19:11:53.039-04:00", "avatar": "https://secure.gravatar.com/avatar/1ad2cc3d5ce58773f1ee55d12ad63d4e.jpg?s=512&d=https%3A%2F%2Fa.slack-edge.com%2Fdf10d%2Fimg%2Favatars%2Fava_0015-512.png", "custom_css": null}, {"id": 196, "slack_id": "U088LHA28DS", "display_name": "LemonGravy", "bio": null, "projects_count": 1, "devlogs_count": 2, "votes_count": 6, "ships_count": 1, "projects": [{"id": 2710, "title": "FracSH", "devlogs_count": 2, "created_at": "2025-06-21T19:33:56.943-04:00"}], "coding_time_seconds": 22255, "coding_time_seconds_today": 0, "balance": "You need to have a pocket watcher badge to view this.", "badges": [{"name": "Maiden Voyage", "text": "you shipped your first project! the journey begins...", "icon": "\ud83d\udea2"}], "created_at": "2025-06-16T07:22:04.508-04:00", "updated_at": "2025-09-13T08:00:28.992-04:00", "avatar": "https://avatars.slack-edge.com/2025-09-13/9512677776770_d816438527eeaea7e085_original.png", "custom_css": null}, {"id": 197, "slack_id": "U04JG7VFP6J", "display_name": "Arya Tajne", "bio": null, "projects_count": 0, "devlogs_count": 0, "votes_count": 0, "ships_count": 0, "projects": [], "coding_time_seconds": 232, "coding_time_seconds_today": 0, "balance": "You need to have a pocket watcher badge to view this.", "badges": [], "created_at": "2025-06-16T07:24:41.455-04:00", "updated_at": "2025-08-10T08:44:19.058-04:00", "avatar": "https://secure.gravatar.com/avatar/d0453395b19f1e1ea2bc7658c3a68787.jpg?s=512&d=https%3A%2F%2Fa.slack-edge.com%2Fdf10d%2Fimg%2Favatars%2Fava_0026-512.png", "custom_css": null}, {"id": 198, "slack_id": "U08T8QD95U1", "display_name": "notchapplez", "bio": null, "projects_count": 1, "devlogs_count": 0, "votes_count": 6, "ships_count": 0, "projects": [{"id": 12544, "title": "tarah", "devlogs_count": 0, "created_at": "2025-08-29T08:07:02.754-04:00"}], "coding_time_seconds": 14816, "coding_time_seconds_today": 0, "balance": "You need to have a pocket watcher badge to view this.", "badges": [], "created_at": "2025-06-16T07:24:47.760-04:00", "updated_at": "2025-08-16T07:47:54.777-04:00", "avatar": "https://avatars.slack-edge.com/2025-05-17/8899996930727_8f7c69c2e3fd884aed97_original.png", "custom_css": null}, {"id": 199, "slack_id": "U078WRY8MLH", "display_name": "Hayden Kong", "bio": null, "projects_count": 0, "devlogs_count": 0, "votes_count": 0, "ships_count": 0, "projects": [], "coding_time_seconds": 0, "coding_time_seconds_today": 0, "balance": "You need to have a pocket watcher badge to view this.", "badges": [], "created_at": "2025-06-16T07:29:11.178-04:00", "updated_at": "2025-07-03T19:11:54.117-04:00", "avatar": "https://avatars.slack-edge.com/2024-09-19/7749219447509_ab9db982981580471788_original.jpg", "custom_css": null}, {"id": 200, "slack_id": "U091678RUNB", "display_name": "Devaansh Pathak", "bio": null, "projects_count": 0, "devlogs_count": 15, "votes_count": 62, "ships_count": 0, "projects": [], "coding_time_seconds": 349702, "coding_time_seconds_today": 0, "balance": "You need to have a pocket watcher badge to view this.", "badges": [{"name": "Maiden Voyage", "text": "you shipped your first project! the journey begins...", "icon": "\ud83d\udea2"}], "created_at": "2025-06-16T07:37:35.285-04:00", "updated_at": "2025-09-10T22:51:12.465-04:00", "avatar": "https://avatars.slack-edge.com/2025-06-16/9056087125652_82f983da384b1a363bdb_original.jpg", "custom_css": null}], "pagination": {"page": 10, "pages": 1192, "count": 23827, "items": 20}}