{"users": [{"id": 1981, "slack_id": "U0918KPF631", "display_name": "Henrique Sampaio", "bio": null, "projects_count": 0, "devlogs_count": 0, "votes_count": 0, "ships_count": 0, "projects": [], "coding_time_seconds": 901, "coding_time_seconds_today": 0, "balance": "You need to have a pocket watcher badge to view this.", "badges": [], "created_at": "2025-06-16T14:28:32.441-04:00", "updated_at": "2025-07-03T19:20:09.746-04:00", "avatar": "https://secure.gravatar.com/avatar/f137e2dfbddee73cb222bb6cafa84ebc.jpg?s=512&d=https%3A%2F%2Fa.slack-edge.com%2Fdf10d%2Fimg%2Favatars%2Fava_0025-512.png", "custom_css": null}, {"id": 1982, "slack_id": "U091H0VPWUB", "display_name": "SALAH EDDIN", "bio": null, "projects_count": 0, "devlogs_count": 0, "votes_count": 0, "ships_count": 0, "projects": [], "coding_time_seconds": 0, "coding_time_seconds_today": 0, "balance": "You need to have a pocket watcher badge to view this.", "badges": [], "created_at": "2025-06-16T14:28:35.816-04:00", "updated_at": "2025-07-03T19:20:10.013-04:00", "avatar": "https://secure.gravatar.com/avatar/0b0f566721dc6a4b793e2e1d7d7c23e4.jpg?s=512&d=https%3A%2F%2Fa.slack-edge.com%2Fdf10d%2Fimg%2Favatars%2Fava_0020-512.png", "custom_css": null}, {"id": 1983, "slack_id": "U07A0FDA7HN", "display_name": "Aadi", "bio": null, "projects_count": 2, "devlogs_count": 9, "votes_count": 1, "ships_count": 0, "projects": [{"id": 399, "title": "Scora", "devlogs_count": 9, "created_at": "2025-06-16T20:15:43.901-04:00"}, {"id": 9109, "title": "Hand Wave", "devlogs_count": 0, "created_at": "2025-07-30T16:02:54.286-04:00"}], "coding_time_seconds": 298836, "coding_time_seconds_today": 0, "balance": "You need to have a pocket watcher badge to view this.", "badges": [], "created_at": "2025-06-16T14:28:38.082-04:00", "updated_at": "2025-08-07T14:57:04.511-04:00", "avatar": "https://secure.gravatar.com/avatar/caeabd9753a88f0dfc9b63a3116c01e2.jpg?s=512&d=https%3A%2F%2Fa.slack-edge.com%2Fdf10d%2Fimg%2Favatars%2Fava_0002-512.png", "custom_css": null}, {"id": 1984, "slack_id": "U091N631Y1K", "display_name": "Merchrist", "bio": null, "projects_count": 0, "devlogs_count": 0, "votes_count": 0, "ships_count": 0, "projects": [], "coding_time_seconds": 0, "coding_time_seconds_today": 0, "balance": "You need to have a pocket watcher badge to view this.", "badges": [], "created_at": "2025-06-16T14:28:49.987-04:00", "updated_at": "2025-07-03T19:20:10.573-04:00", "avatar": "https://secure.gravatar.com/avatar/112751c482877d83fd6464b5bed16458.jpg?s=512&d=https%3A%2F%2Fa.slack-edge.com%2Fdf10d%2Fimg%2Favatars%2Fava_0011-512.png", "custom_css": null}, {"id": 1985, "slack_id": "U091N5B8R8V", "display_name": "Kavi-ya", "bio": null, "projects_count": 0, "devlogs_count": 0, "votes_count": 0, "ships_count": 0, "projects": [], "coding_time_seconds": 0, "coding_time_seconds_today": 0, "balance": "You need to have a pocket watcher badge to view this.", "badges": [], "created_at": "2025-06-16T14:28:52.922-04:00", "updated_at": "2025-07-03T19:20:10.847-04:00", "avatar": "https://secure.gravatar.com/avatar/09ab9007357634134da5538ffab1d5fe.jpg?s=512&d=https%3A%2F%2Fa.slack-edge.com%2Fdf10d%2Fimg%2Favatars%2Fava_0004-512.png", "custom_css": null}, {"id": 1986, "slack_id": "U091N5NTUCD", "display_name": "Daniel C.", "bio": null, "projects_count": 0, "devlogs_count": 0, "votes_count": 0, "ships_count": 0, "projects": [], "coding_time_seconds": 113706, "coding_time_seconds_today": 0, "balance": "You need to have a pocket watcher badge to view this.", "badges": [], "created_at": "2025-06-16T14:28:54.402-04:00", "updated_at": "2025-07-03T19:20:11.142-04:00", "avatar": "https://secure.gravatar.com/avatar/a060409c20530e33c2374c9dfcad7bba.jpg?s=512&d=https%3A%2F%2Fa.slack-edge.com%2Fdf10d%2Fimg%2Favatars%2Fava_0017-512.png", "custom_css": null}, {"id": 1987, "slack_id": "U091PUS8BU2", "display_name": "Iorran Barros Valen\u00e7a", "bio": null, "projects_count": 0, "devlogs_count": 0, "votes_count": 0, "ships_count": 0, "projects": [], "coding_time_seconds": 0, "coding_time_seconds_today": 0, "balance": "You need to have a pocket watcher badge to view this.", "badges": [], "created_at": "2025-06-16T14:28:56.610-04:00", "updated_at": "2025-07-03T19:20:11.429-04:00", "avatar": "https://secure.gravatar.com/avatar/ef6fbe00ce27b5b2d79f304166b4b374.jpg?s=512&d=https%3A%2F%2Fa.slack-edge.com%2Fdf10d%2Fimg%2Favatars%2Fava_0022-512.png", "custom_css": null}, {"id": 1988, "slack_id": "U0922FL820Z", "display_name": "Maidul Islam", "bio": null, "projects_count": 0, "devlogs_count": 0, "votes_count": 0, "ships_count": 0, "projects": [], "coding_time_seconds": 0, "coding_time_seconds_today": 0, "balance": "You need to have a pocket watcher badge to view this.", "badges": [], "created_at": "2025-06-16T14:29:09.008-04:00", "updated_at": "2025-07-03T19:20:11.698-04:00", "avatar": "https://secure.gravatar.com/avatar/f71c63abbe7786c3cc80b18fee340e45.jpg?s=512&d=https%3A%2F%2Fa.slack-edge.com%2Fdf10d%2Fimg%2Favatars%2Fava_0010-512.png", "custom_css": null}, {"id": 1989, "slack_id": "U091H412E22", "display_name": "vicky kumar", "bio": null, "projects_count": 0, "devlogs_count": 0, "votes_count": 0, "ships_count": 0, "projects": [], "coding_time_seconds": 285658, "coding_time_seconds_today": 0, "balance": "You need to have a pocket watcher badge to view this.", "badges": [], "created_at": "2025-06-16T14:29:13.837-04:00", "updated_at": "2025-07-03T19:20:11.970-04:00", "avatar": "https://secure.gravatar.com/avatar/515bf5700234aa7d078d46c2bcb11d4e.jpg?s=512&d=https%3A%2F%2Fa.slack-edge.com%2Fdf10d%2Fimg%2Favatars%2Fava_0017-512.png", "custom_css": null}, {"id": 1990, "slack_id": "U07QKF9LB19", "display_name": "3XAY", "bio": null, "projects_count": 5, "devlogs_count": 9, "votes_count": 25, "ships_count": 3, "projects": [{"id": 8306, "title": "Windows Premium Security", "devlogs_count": 1, "created_at": "2025-07-26T04:39:29.746-04:00"}, {"id": 11189, "title": "PCB Business Card", "devlogs_count": 1, "created_at": "2025-08-13T23:53:23.339-04:00"}, {"id": 11320, "title": "Pixeldust", "devlogs_count": 2, "created_at": "2025-08-14T22:45:37.588-04:00"}, {"id": 6448, "title": "Discord PC Controller", "devlogs_count": 3, "created_at": "2025-07-13T12:29:11.672-04:00"}, {"id": 6382, "title": "3XAY Website", "devlogs_count": 2, "created_at": "2025-07-12T22:45:40.353-04:00"}], "coding_time_seconds": 165540, "coding_time_seconds_today": 0, "balance": "You need to have a pocket watcher badge to view this.", "badges": [{"name": "Maiden Voyage", "text": "you shipped your first project! the journey begins...", "icon": "\ud83d\udea2"}], "created_at": "2025-06-16T14:29:16.320-04:00", "updated_at": "2025-09-24T18:08:07.017-04:00", "avatar": "https://avatars.slack-edge.com/2024-10-05/7838114348916_d7339e5c8e594f39eaf9_original.gif", "custom_css": null}, {"id": 1991, "slack_id": "U091N61BTDK", "display_name": "Blendarr", "bio": null, "projects_count": 0, "devlogs_count": 0, "votes_count": 0, "ships_count": 0, "projects": [], "coding_time_seconds": 0, "coding_time_seconds_today": 0, "balance": "You need to have a pocket watcher badge to view this.", "badges": [], "created_at": "2025-06-16T14:29:19.476-04:00", "updated_at": "2025-07-03T19:20:12.509-04:00", "avatar": "https://avatars.slack-edge.com/2025-06-16/9051051746579_2f1fb6aa0c4309a752db_original.jpg", "custom_css": null}, {"id": 1992, "slack_id": "U091N62LVD3", "display_name": "Josh", "bio": null, "projects_count": 0, "devlogs_count": 0, "votes_count": 0, "ships_count": 0, "projects": [], "coding_time_seconds": 0, "coding_time_seconds_today": 0, "balance": "You need to have a pocket watcher badge to view this.", "badges": [], "created_at": "2025-06-16T14:29:24.725-04:00", "updated_at": "2025-07-03T19:20:12.785-04:00", "avatar": "https://avatars.slack-edge.com/2025-06-16/9051051484547_29a50ab4b3c7af4cc1e0_original.jpg", "custom_css": null}, {"id": 1993, "slack_id": "U091N67BPJ9", "display_name": "ATIK SHAHRIAR TAJ", "bio": null, "projects_count": 0, "devlogs_count": 0, "votes_count": 0, "ships_count": 0, "projects": [], "coding_time_seconds": 0, "coding_time_seconds_today": 0, "balance": "You need to have a pocket watcher badge to view this.", "badges": [], "created_at": "2025-06-16T14:29:27.766-04:00", "updated_at": "2025-07-03T19:20:13.056-04:00", "avatar": "https://secure.gravatar.com/avatar/d22eb0cb3f56713fcfed5466a76aff51.jpg?s=512&d=https%3A%2F%2Fa.slack-edge.com%2Fdf10d%2Fimg%2Favatars%2Fava_0019-512.png", "custom_css": null}, {"id": 1994, "slack_id": "U091H3TUCFQ", "display_name": "Kielbasah", "bio": null, "projects_count": 0, "devlogs_count": 0, "votes_count": 0, "ships_count": 0, "projects": [], "coding_time_seconds": 0, "coding_time_seconds_today": 0, "balance": "You need to have a pocket watcher badge to view this.", "badges": [], "created_at": "2025-06-16T14:29:38.044-04:00", "updated_at": "2025-07-03T19:20:13.318-04:00", "avatar": "https://secure.gravatar.com/avatar/e10172217b1f7f27019864e304ea6bd1.jpg?s=512&d=https%3A%2F%2Fa.slack-edge.com%2Fdf10d%2Fimg%2Favatars%2Fava_0013-512.png", "custom_css": null}, {"id": 1995, "slack_id": "U0922708ESV", "display_name": "Sophie M\u00f6ller", "bio": null, "projects_count": 0, "devlogs_count": 0, "votes_count": 0, "ships_count": 0, "projects": [], "coding_time_seconds": 0, "coding_time_seconds_today": 0, "balance": "You need to have a pocket watcher badge to view this.", "badges": [], "created_at": "2025-06-16T14:29:41.642-04:00", "updated_at": "2025-07-03T19:20:13.581-04:00", "avatar": "https://secure.gravatar.com/avatar/e7290df6dc592d389fa867f9a7c9989f.jpg?s=512&d=https%3A%2F%2Fa.slack-edge.com%2Fdf10d%2Fimg%2Favatars%2Fava_0011-512.png", "custom_css": null}, {"id": 1996, "slack_id": "U082XBRRXT6", "display_name": "Prabal Verma", "bio": null, "projects_count": 0, "devlogs_count": 0, "votes_count": 0, "ships_count": 0, "projects": [], "coding_time_seconds": 0, "coding_time_seconds_today": 0, "balance": "You need to have a pocket watcher badge to view this.", "badges": [], "created_at": "2025-06-16T14:29:44.626-04:00", "updated_at": "2025-07-03T19:20:13.849-04:00", "avatar": "https://avatars.slack-edge.com/2024-11-28/8094051795029_323ebe400dab9e84b0a6_original.jpg", "custom_css": null}, {"id": 1997, "slack_id": "U091H196AM9", "display_name": "Nayan Arora", "bio": null, "projects_count": 0, "devlogs_count": 0, "votes_count": 0, "ships_count": 0, "projects": [], "coding_time_seconds": 789948, "coding_time_seconds_today": 8991, "balance": "You need to have a pocket watcher badge to view this.", "badges": [], "created_at": "2025-06-16T14:29:53.689-04:00", "updated_at": "2025-07-03T19:20:14.113-04:00", "avatar": "https://avatars.slack-edge.com/2025-06-16/9070550879873_5f11e8bad384b0d5ed43_original.jpg", "custom_css": null}, {"id": 1998, "slack_id": "U091H489ET0", "display_name": "Latte72", "bio": null, "projects_count": 0, "devlogs_count": 0, "votes_count": 0, "ships_count": 0, "projects": [], "coding_time_seconds": 0, "coding_time_seconds_today": 0, "balance": "You need to have a pocket watcher badge to view this.", "badges": [], "created_at": "2025-06-16T14:30:51.809-04:00", "updated_at": "2025-07-03T19:20:14.425-04:00", "avatar": "https://secure.gravatar.com/avatar/5957d63b8e456e245bb3a1b57a409954.jpg?s=512&d=https%3A%2F%2Fa.slack-edge.com%2Fdf10d%2Fimg%2Favatars%2Fava_0023-512.png", "custom_css": null}, {"id": 1999, "slack_id": "U07915X6A22", "display_name": "eddyzow", "bio": null, "projects_count": 5, "devlogs_count": 8, "votes_count": 46, "ships_count": 3, "projects": [{"id": 4851, "title": "Wheel of Fortune", "devlogs_count": 4, "created_at": "2025-07-01T23:03:48.182-04:00"}, {"id": 9105, "title": "Podium Pro", "devlogs_count": 0, "created_at": "2025-07-30T15:58:24.767-04:00"}, {"id": 11078, "title": "eddyzow.net", "devlogs_count": 1, "created_at": "2025-08-13T02:44:50.069-04:00"}, {"id": 536, "title": "Cube Wars", "devlogs_count": 0, "created_at": "2025-06-17T00:43:01.370-04:00"}, {"id": 9106, "title": "Podium Pro", "devlogs_count": 3, "created_at": "2025-07-30T15:58:24.795-04:00"}], "coding_time_seconds": 200624, "coding_time_seconds_today": 0, "balance": "You need to have a pocket watcher badge to view this.", "badges": [{"name": "Maiden Voyage", "text": "you shipped your first project! the journey begins...", "icon": "\ud83d\udea2"}], "created_at": "2025-06-16T14:30:55.051-04:00", "updated_at": "2025-09-10T22:52:09.563-04:00", "avatar": "https://avatars.slack-edge.com/2025-05-05/8831904213335_9426f38ef8a49c6489c3_original.jpg", "custom_css": null}, {"id": 2000, "slack_id": "U091H0VH3UK", "display_name": "Patrick Ulbricht", "bio": null, "projects_count": 1, "devlogs_count": 0, "votes_count": 0, "ships_count": 0, "projects": [{"id": 249, "title": "apckey25", "devlogs_count": 0, "created_at": "2025-06-16T16:19:45.417-04:00"}], "coding_time_seconds": 116526, "coding_time_seconds_today": 0, "balance": "You need to have a pocket watcher badge to view this.", "badges": [], "created_at": "2025-06-16T14:30:55.475-04:00", "updated_at": "2025-07-03T19:20:14.959-04:00", "avatar": "https://secure.gravatar.com/avatar/dc816babf2e5945e71c64415af098724.jpg?s=512&d=https%3A%2F%2Fa.slack-edge.com%2Fdf10d%2Fimg%2Favatars%2Fava_0013-512.png", "custom_css": null}], "pagination": {"page": 100, "pages": 1192, "count": 23828, "items": 20}}