{"users": [{"id": 20066, "slack_id": "U098T71K056", "display_name": "Alvar Otto", "bio": null, "projects_count": 0, "devlogs_count": 0, "votes_count": 0, "ships_count": 0, "projects": [], "coding_time_seconds": 0, "coding_time_seconds_today": 0, "balance": "You need to have a pocket watcher badge to view this.", "badges": [], "created_at": "2025-07-30T07:13:04.560-04:00", "updated_at": "2025-07-30T09:51:47.540-04:00", "avatar": "https://secure.gravatar.com/avatar/44c0d37a4997be088f39a8d82d19bc02.jpg?s=512&d=https%3A%2F%2Fa.slack-edge.com%2Fdf10d%2Fimg%2Favatars%2Fava_0012-512.png", "custom_css": null}, {"id": 20067, "slack_id": "U098T7E37DE", "display_name": "Peggy", "bio": null, "projects_count": 0, "devlogs_count": 0, "votes_count": 0, "ships_count": 0, "projects": [], "coding_time_seconds": 0, "coding_time_seconds_today": 0, "balance": "You need to have a pocket watcher badge to view this.", "badges": [], "created_at": "2025-07-30T07:15:54.591-04:00", "updated_at": "2025-07-30T09:51:47.645-04:00", "avatar": "https://secure.gravatar.com/avatar/0983a26a538bccc75ebe93e64ae54a07.jpg?s=512&d=https%3A%2F%2Fa.slack-edge.com%2Fdf10d%2Fimg%2Favatars%2Fava_0025-512.png", "custom_css": null}, {"id": 20068, "slack_id": "U0983EFRE85", "display_name": "Tommaso", "bio": null, "projects_count": 0, "devlogs_count": 0, "votes_count": 0, "ships_count": 0, "projects": [], "coding_time_seconds": 0, "coding_time_seconds_today": 0, "balance": "You need to have a pocket watcher badge to view this.", "badges": [], "created_at": "2025-07-30T07:23:11.503-04:00", "updated_at": "2025-07-30T09:51:47.746-04:00", "avatar": "https://secure.gravatar.com/avatar/fb422736623fa939287649bbddd7b33c.jpg?s=512&d=https%3A%2F%2Fa.slack-edge.com%2Fdf10d%2Fimg%2Favatars%2Fava_0007-512.png", "custom_css": null}, {"id": 20069, "slack_id": "U0985DZ366N", "display_name": "Lei", "bio": null, "projects_count": 0, "devlogs_count": 0, "votes_count": 0, "ships_count": 0, "projects": [], "coding_time_seconds": 0, "coding_time_seconds_today": 0, "balance": "You need to have a pocket watcher badge to view this.", "badges": [], "created_at": "2025-07-30T07:44:50.043-04:00", "updated_at": "2025-07-30T09:51:47.851-04:00", "avatar": "https://secure.gravatar.com/avatar/d6ecb54e040e90b77c6a19192fea3149.jpg?s=512&d=https%3A%2F%2Fa.slack-edge.com%2Fdf10d%2Fimg%2Favatars%2Fava_0010-512.png", "custom_css": null}, {"id": 20070, "slack_id": "U07CAGCRRGU", "display_name": "Ryuo", "bio": null, "projects_count": 0, "devlogs_count": 0, "votes_count": 1, "ships_count": 0, "projects": [], "coding_time_seconds": 0, "coding_time_seconds_today": 0, "balance": "You need to have a pocket watcher badge to view this.", "badges": [], "created_at": "2025-07-30T07:47:33.691-04:00", "updated_at": "2025-08-18T21:47:23.540-04:00", "avatar": "https://avatars.slack-edge.com/2025-08-19/9366066592339_56c68ab4238a4dcbd347_original.png", "custom_css": null}, {"id": 20071, "slack_id": "U0961FDGAA3", "display_name": "karnav", "bio": null, "projects_count": 0, "devlogs_count": 0, "votes_count": 0, "ships_count": 0, "projects": [], "coding_time_seconds": 0, "coding_time_seconds_today": 0, "balance": "You need to have a pocket watcher badge to view this.", "badges": [], "created_at": "2025-07-30T08:17:47.668-04:00", "updated_at": "2025-07-30T08:17:58.794-04:00", "avatar": "https://secure.gravatar.com/avatar/3a738aa5e99e059c52c55765e46067d3.jpg?s=512&d=https%3A%2F%2Fa.slack-edge.com%2Fdf10d%2Fimg%2Favatars%2Fava_0006-512.png", "custom_css": null}, {"id": 20072, "slack_id": "U098167L91R", "display_name": "Srabona Bose", "bio": null, "projects_count": 0, "devlogs_count": 0, "votes_count": 0, "ships_count": 0, "projects": [], "coding_time_seconds": 0, "coding_time_seconds_today": 0, "balance": "You need to have a pocket watcher badge to view this.", "badges": [], "created_at": "2025-07-30T08:25:44.508-04:00", "updated_at": "2025-07-30T09:51:52.154-04:00", "avatar": "https://secure.gravatar.com/avatar/38f1b14e8d139220b741357e8f609d27.jpg?s=512&d=https%3A%2F%2Fa.slack-edge.com%2Fdf10d%2Fimg%2Favatars%2Fava_0019-512.png", "custom_css": null}, {"id": 20073, "slack_id": "U097Q743JHM", "display_name": "Saksham", "bio": null, "projects_count": 0, "devlogs_count": 0, "votes_count": 0, "ships_count": 0, "projects": [], "coding_time_seconds": 0, "coding_time_seconds_today": 0, "balance": "You need to have a pocket watcher badge to view this.", "badges": [], "created_at": "2025-07-30T08:45:04.576-04:00", "updated_at": "2025-07-30T09:51:52.285-04:00", "avatar": "https://secure.gravatar.com/avatar/330b7338e80edfabee5fc34f8c34e6ee.jpg?s=512&d=https%3A%2F%2Fa.slack-edge.com%2Fdf10d%2Fimg%2Favatars%2Fava_0017-512.png", "custom_css": null}, {"id": 20074, "slack_id": "U098TKK0GLQ", "display_name": "raghav kohli", "bio": null, "projects_count": 0, "devlogs_count": 0, "votes_count": 0, "ships_count": 0, "projects": [], "coding_time_seconds": 0, "coding_time_seconds_today": 0, "balance": "You need to have a pocket watcher badge to view this.", "badges": [], "created_at": "2025-07-30T08:51:47.213-04:00", "updated_at": "2025-07-30T09:51:52.433-04:00", "avatar": "https://secure.gravatar.com/avatar/78809b47a94f461405cc4e2b9ee6c589.jpg?s=512&d=https%3A%2F%2Fa.slack-edge.com%2Fdf10d%2Fimg%2Favatars%2Fava_0018-512.png", "custom_css": null}, {"id": 20075, "slack_id": "U098TQVLHR6", "display_name": "Adhyann Singal", "bio": null, "projects_count": 0, "devlogs_count": 0, "votes_count": 0, "ships_count": 0, "projects": [], "coding_time_seconds": 0, "coding_time_seconds_today": 0, "balance": "You need to have a pocket watcher badge to view this.", "badges": [], "created_at": "2025-07-30T09:23:23.314-04:00", "updated_at": "2025-07-31T02:15:29.424-04:00", "avatar": "https://secure.gravatar.com/avatar/ae9d8e63b574b2317c133aae6adc8b0a.jpg?s=512&d=https%3A%2F%2Fa.slack-edge.com%2Fdf10d%2Fimg%2Favatars%2Fava_0014-512.png", "custom_css": null}, {"id": 20076, "slack_id": "U09871XCQ9J", "display_name": "Anusha", "bio": null, "projects_count": 1, "devlogs_count": 1, "votes_count": 2, "ships_count": 1, "projects": [{"id": 9256, "title": "Canvas", "devlogs_count": 1, "created_at": "2025-07-31T07:51:29.707-04:00"}], "coding_time_seconds": 88553, "coding_time_seconds_today": 0, "balance": "You need to have a pocket watcher badge to view this.", "badges": [], "created_at": "2025-07-30T09:45:40.150-04:00", "updated_at": "2025-07-30T10:53:13.531-04:00", "avatar": "https://secure.gravatar.com/avatar/dea11651996ebe711645082cfdd1f2a9.jpg?s=512&d=https%3A%2F%2Fa.slack-edge.com%2Fdf10d%2Fimg%2Favatars%2Fava_0000-512.png", "custom_css": null}, {"id": 20077, "slack_id": "U097L1AH278", "display_name": "Shreyas N Nandargi", "bio": null, "projects_count": 0, "devlogs_count": 0, "votes_count": 0, "ships_count": 0, "projects": [], "coding_time_seconds": 0, "coding_time_seconds_today": 0, "balance": "You need to have a pocket watcher badge to view this.", "badges": [], "created_at": "2025-07-30T09:45:42.028-04:00", "updated_at": "2025-07-30T21:47:11.945-04:00", "avatar": "https://secure.gravatar.com/avatar/15a4024f2f95ad345e27398f069db5c5.jpg?s=512&d=https%3A%2F%2Fa.slack-edge.com%2Fdf10d%2Fimg%2Favatars%2Fava_0016-512.png", "custom_css": null}, {"id": 20078, "slack_id": "U07QCLTJG1L", "display_name": "Mahmoud", "bio": null, "projects_count": 0, "devlogs_count": 0, "votes_count": 0, "ships_count": 0, "projects": [], "coding_time_seconds": 0, "coding_time_seconds_today": 0, "balance": "You need to have a pocket watcher badge to view this.", "badges": [], "created_at": "2025-07-30T09:46:31.621-04:00", "updated_at": "2025-07-30T21:47:12.038-04:00", "avatar": "https://secure.gravatar.com/avatar/2f18844c43760805b05ca98e12fe195f.jpg?s=512&d=https%3A%2F%2Fa.slack-edge.com%2Fdf10d%2Fimg%2Favatars%2Fava_0007-512.png", "custom_css": null}, {"id": 20079, "slack_id": "U098LSM6EQH", "display_name": "Anusha", "bio": null, "projects_count": 0, "devlogs_count": 0, "votes_count": 0, "ships_count": 0, "projects": [], "coding_time_seconds": 0, "coding_time_seconds_today": 0, "balance": "You need to have a pocket watcher badge to view this.", "badges": [], "created_at": "2025-07-30T09:57:49.370-04:00", "updated_at": "2025-07-30T21:47:12.152-04:00", "avatar": "https://secure.gravatar.com/avatar/7fd08122b41a5a75eb5f486b499fcaf4.jpg?s=512&d=https%3A%2F%2Fa.slack-edge.com%2Fdf10d%2Fimg%2Favatars%2Fava_0025-512.png", "custom_css": null}, {"id": 20080, "slack_id": "U0984C957UM", "display_name": "Disha", "bio": null, "projects_count": 0, "devlogs_count": 0, "votes_count": 0, "ships_count": 0, "projects": [], "coding_time_seconds": 0, "coding_time_seconds_today": 0, "balance": "You need to have a pocket watcher badge to view this.", "badges": [], "created_at": "2025-07-30T10:14:27.719-04:00", "updated_at": "2025-07-30T21:47:12.261-04:00", "avatar": "https://secure.gravatar.com/avatar/b753d068222517f40a7e10637ade6fdf.jpg?s=512&d=https%3A%2F%2Fa.slack-edge.com%2Fdf10d%2Fimg%2Favatars%2Fava_0016-512.png", "custom_css": null}, {"id": 20081, "slack_id": "U0987BKAVD2", "display_name": "chetan bhandari", "bio": null, "projects_count": 0, "devlogs_count": 0, "votes_count": 0, "ships_count": 0, "projects": [], "coding_time_seconds": 8442, "coding_time_seconds_today": 0, "balance": "You need to have a pocket watcher badge to view this.", "badges": [], "created_at": "2025-07-30T10:34:23.340-04:00", "updated_at": "2025-07-30T21:47:12.385-04:00", "avatar": "https://avatars.slack-edge.com/2025-07-30/9300321972208_6dd84c50e8bddda1604f_original.png", "custom_css": null}, {"id": 20082, "slack_id": "U096X8MKX0S", "display_name": "Firas Ben Thayer", "bio": null, "projects_count": 0, "devlogs_count": 0, "votes_count": 0, "ships_count": 0, "projects": [], "coding_time_seconds": 18390, "coding_time_seconds_today": 0, "balance": "You need to have a pocket watcher badge to view this.", "badges": [], "created_at": "2025-07-30T10:47:45.056-04:00", "updated_at": "2025-07-30T21:47:12.493-04:00", "avatar": "https://secure.gravatar.com/avatar/e2477cc6fab6470a9629f7419cabb67e.jpg?s=512&d=https%3A%2F%2Fa.slack-edge.com%2Fdf10d%2Fimg%2Favatars%2Fava_0001-512.png", "custom_css": null}, {"id": 20083, "slack_id": "U0986EFHS5Q", "display_name": "Anas Jamil", "bio": null, "projects_count": 0, "devlogs_count": 0, "votes_count": 0, "ships_count": 0, "projects": [], "coding_time_seconds": 6458, "coding_time_seconds_today": 0, "balance": "You need to have a pocket watcher badge to view this.", "badges": [], "created_at": "2025-07-30T10:51:59.094-04:00", "updated_at": "2025-07-31T03:15:19.906-04:00", "avatar": "https://secure.gravatar.com/avatar/341507cf75579b3745c2226fa585cf81.jpg?s=512&d=https%3A%2F%2Fa.slack-edge.com%2Fdf10d%2Fimg%2Favatars%2Fava_0015-512.png", "custom_css": null}, {"id": 20084, "slack_id": "U0984MJMS3X", "display_name": "valley", "bio": "lloid", "projects_count": 1, "devlogs_count": 1, "votes_count": 4, "ships_count": 0, "projects": [{"id": 13533, "title": "VCDA (Very Cool Drawing App)", "devlogs_count": 1, "created_at": "2025-09-18T18:42:53.253-04:00"}], "coding_time_seconds": 6823, "coding_time_seconds_today": 0, "balance": "You need to have a pocket watcher badge to view this.", "badges": [], "created_at": "2025-07-30T11:03:09.263-04:00", "updated_at": "2025-09-18T18:43:17.313-04:00", "avatar": "https://secure.gravatar.com/avatar/addefd6ded8b14f7bda6cf24e701af37.jpg?s=512&d=https%3A%2F%2Fa.slack-edge.com%2Fdf10d%2Fimg%2Favatars%2Fava_0009-512.png", "custom_css": null}, {"id": 20085, "slack_id": "U09833ZN4HL", "display_name": "Michael Goldsworth", "bio": null, "projects_count": 2, "devlogs_count": 1, "votes_count": 0, "ships_count": 0, "projects": [{"id": 9247, "title": "Measuring pressure and temperature using CANBUS system", "devlogs_count": 1, "created_at": "2025-07-31T06:43:44.124-04:00"}, {"id": 9248, "title": "Measuring pressure and temperature using CANBUS system", "devlogs_count": 0, "created_at": "2025-07-31T06:43:44.124-04:00"}], "coding_time_seconds": 5567, "coding_time_seconds_today": 0, "balance": "You need to have a pocket watcher badge to view this.", "badges": [], "created_at": "2025-07-30T11:03:34.891-04:00", "updated_at": "2025-07-31T07:57:01.749-04:00", "avatar": "https://secure.gravatar.com/avatar/1df18f7800dfebe42d5b1a7b627e0014.jpg?s=512&d=https%3A%2F%2Fa.slack-edge.com%2Fdf10d%2Fimg%2Favatars%2Fava_0000-512.png", "custom_css": null}], "pagination": {"page": 1000, "pages": 1192, "count": 23828, "items": 20}}