{"users": [{"id": 20086, "slack_id": "U097VUTNN14", "display_name": "faizamustafabhutto", "bio": null, "projects_count": 0, "devlogs_count": 0, "votes_count": 0, "ships_count": 0, "projects": [], "coding_time_seconds": 0, "coding_time_seconds_today": 0, "balance": "You need to have a pocket watcher badge to view this.", "badges": [], "created_at": "2025-07-30T11:11:37.577-04:00", "updated_at": "2025-08-30T13:59:42.549-04:00", "avatar": "https://avatars.slack-edge.com/2025-07-30/9278646886242_c3c7b9529f77aff8b631_original.jpg", "custom_css": null}, {"id": 20087, "slack_id": "U0986HZCQKC", "display_name": "Youssef Waheed", "bio": null, "projects_count": 0, "devlogs_count": 0, "votes_count": 0, "ships_count": 0, "projects": [], "coding_time_seconds": 0, "coding_time_seconds_today": 0, "balance": "You need to have a pocket watcher badge to view this.", "badges": [], "created_at": "2025-07-30T11:15:36.684-04:00", "updated_at": "2025-07-30T21:47:12.995-04:00", "avatar": "https://avatars.slack-edge.com/2025-07-30/9275231265590_0c05206ef316b8078d80_original.png", "custom_css": null}, {"id": 20088, "slack_id": "U0982ATHQAF", "display_name": "Shaurya", "bio": null, "projects_count": 0, "devlogs_count": 0, "votes_count": 0, "ships_count": 0, "projects": [], "coding_time_seconds": 0, "coding_time_seconds_today": 0, "balance": "You need to have a pocket watcher badge to view this.", "badges": [], "created_at": "2025-07-30T11:20:53.409-04:00", "updated_at": "2025-07-31T13:21:32.898-04:00", "avatar": "https://secure.gravatar.com/avatar/070bd3a379ff25c06729fe0f9d95dbcc.jpg?s=512&d=https%3A%2F%2Fa.slack-edge.com%2Fdf10d%2Fimg%2Favatars%2Fava_0012-512.png", "custom_css": null}, {"id": 20089, "slack_id": "U097RA3URLP", "display_name": "InfernusReal", "bio": null, "projects_count": 0, "devlogs_count": 0, "votes_count": 0, "ships_count": 0, "projects": [], "coding_time_seconds": 95485, "coding_time_seconds_today": 0, "balance": "You need to have a pocket watcher badge to view this.", "badges": [], "created_at": "2025-07-30T11:35:13.028-04:00", "updated_at": "2025-07-31T07:49:37.387-04:00", "avatar": "https://secure.gravatar.com/avatar/f0293981de295814842cd5688d0ea4be.jpg?s=512&d=https%3A%2F%2Fa.slack-edge.com%2Fdf10d%2Fimg%2Favatars%2Fava_0006-512.png", "custom_css": null}, {"id": 20090, "slack_id": "U098MKUSW9F", "display_name": "Syed Sajjad", "bio": null, "projects_count": 1, "devlogs_count": 0, "votes_count": 0, "ships_count": 0, "projects": [{"id": 9068, "title": "Number Guessing Game", "devlogs_count": 0, "created_at": "2025-07-30T12:20:15.438-04:00"}], "coding_time_seconds": 3572, "coding_time_seconds_today": 0, "balance": "You need to have a pocket watcher badge to view this.", "badges": [], "created_at": "2025-07-30T11:47:06.326-04:00", "updated_at": "2025-07-31T08:30:07.805-04:00", "avatar": "https://secure.gravatar.com/avatar/fb69fa86bb75d5828f6974c37463ac11.jpg?s=512&d=https%3A%2F%2Fa.slack-edge.com%2Fdf10d%2Fimg%2Favatars%2Fava_0020-512.png", "custom_css": null}, {"id": 20091, "slack_id": "U07KZ8GU3C7", "display_name": "Ainuo Yuan", "bio": null, "projects_count": 0, "devlogs_count": 0, "votes_count": 0, "ships_count": 0, "projects": [], "coding_time_seconds": 0, "coding_time_seconds_today": 0, "balance": "You need to have a pocket watcher badge to view this.", "badges": [], "created_at": "2025-07-30T12:01:17.482-04:00", "updated_at": "2025-07-30T22:40:26.992-04:00", "avatar": "https://secure.gravatar.com/avatar/de8ff945fc61da79c6c202bf2b86be35.jpg?s=512&d=https%3A%2F%2Fa.slack-edge.com%2Fdf10d%2Fimg%2Favatars%2Fava_0020-512.png", "custom_css": null}, {"id": 20092, "slack_id": "U0982PRQMQB", "display_name": "Safana", "bio": null, "projects_count": 0, "devlogs_count": 0, "votes_count": 0, "ships_count": 0, "projects": [], "coding_time_seconds": 7402, "coding_time_seconds_today": 0, "balance": "You need to have a pocket watcher badge to view this.", "badges": [], "created_at": "2025-07-30T12:25:06.198-04:00", "updated_at": "2025-08-09T09:47:23.897-04:00", "avatar": "https://avatars.slack-edge.com/2025-08-09/9355217402096_a94fa455c1b4f3988343_original.jpg", "custom_css": null}, {"id": 20093, "slack_id": "U0986TCLDDG", "display_name": "ARFI MOHAMUD ABDI", "bio": null, "projects_count": 0, "devlogs_count": 0, "votes_count": 0, "ships_count": 0, "projects": [], "coding_time_seconds": 0, "coding_time_seconds_today": 0, "balance": "You need to have a pocket watcher badge to view this.", "badges": [], "created_at": "2025-07-30T12:26:38.835-04:00", "updated_at": "2025-09-04T08:30:02.311-04:00", "avatar": "https://avatars.slack-edge.com/2025-09-02/9457540930113_45a9e65034ba7f4b0073_original.jpg", "custom_css": null}, {"id": 20094, "slack_id": "U0982PV5WLB", "display_name": "Daniel Koezema", "bio": null, "projects_count": 2, "devlogs_count": 1, "votes_count": 0, "ships_count": 1, "projects": [{"id": 9231, "title": "OSC esp clicker", "devlogs_count": 0, "created_at": "2025-07-31T05:26:24.655-04:00"}, {"id": 9564, "title": "Homepage extention", "devlogs_count": 1, "created_at": "2025-08-01T16:55:07.126-04:00"}], "coding_time_seconds": 9227, "coding_time_seconds_today": 0, "balance": "You need to have a pocket watcher badge to view this.", "badges": [], "created_at": "2025-07-30T12:27:40.704-04:00", "updated_at": "2025-08-08T10:28:00.939-04:00", "avatar": "https://avatars.slack-edge.com/2025-07-30/9275908287094_d2ee02ec2f5a28ecd97d_original.png", "custom_css": null}, {"id": 20095, "slack_id": "U0983NGE0A2", "display_name": "Daniel Hopson-Frith", "bio": "I'm a kid who likes computers.", "projects_count": 0, "devlogs_count": 0, "votes_count": 0, "ships_count": 0, "projects": [], "coding_time_seconds": 0, "coding_time_seconds_today": 0, "balance": "You need to have a pocket watcher badge to view this.", "badges": [], "created_at": "2025-07-30T12:37:50.009-04:00", "updated_at": "2025-07-30T21:47:13.844-04:00", "avatar": "https://secure.gravatar.com/avatar/a14bd22a75a7e3b07de06d58e791a631.jpg?s=512&d=https%3A%2F%2Fa.slack-edge.com%2Fdf10d%2Fimg%2Favatars%2Fava_0008-512.png", "custom_css": null}, {"id": 20096, "slack_id": "U04E28JG3RB", "display_name": "V Manikanta", "bio": null, "projects_count": 8, "devlogs_count": 9, "votes_count": 0, "ships_count": 8, "projects": [{"id": 10266, "title": "Drums_kit_player", "devlogs_count": 1, "created_at": "2025-08-05T12:34:00.593-04:00"}, {"id": 10374, "title": "Reaction time game", "devlogs_count": 1, "created_at": "2025-08-06T12:23:01.796-04:00"}, {"id": 13397, "title": "QuizCraft", "devlogs_count": 1, "created_at": "2025-09-15T09:48:51.543-04:00"}, {"id": 10142, "title": "Secretes Behind The Creation of Universe", "devlogs_count": 1, "created_at": "2025-08-04T11:05:28.728-04:00"}, {"id": 10638, "title": "Numbers_Memory_theroy", "devlogs_count": 1, "created_at": "2025-08-09T07:05:01.204-04:00"}, {"id": 11388, "title": "Rock_Paper_Scissor", "devlogs_count": 1, "created_at": "2025-08-15T12:25:02.461-04:00"}, {"id": 10628, "title": "Doctor_Career_Paths", "devlogs_count": 1, "created_at": "2025-08-09T05:46:26.570-04:00"}, {"id": 9212, "title": "Simon_Game", "devlogs_count": 1, "created_at": "2025-07-31T01:54:03.704-04:00"}], "coding_time_seconds": 62861, "coding_time_seconds_today": 0, "balance": "You need to have a pocket watcher badge to view this.", "badges": [], "created_at": "2025-07-30T12:46:57.173-04:00", "updated_at": "2025-08-06T23:09:29.927-04:00", "avatar": "https://avatars.slack-edge.com/2022-12-07/4481246806626_d5d4527a802a487d47df_original.png", "custom_css": null}, {"id": 20097, "slack_id": "U096SU6RBNH", "display_name": "Mani", "bio": null, "projects_count": 0, "devlogs_count": 0, "votes_count": 0, "ships_count": 0, "projects": [], "coding_time_seconds": 0, "coding_time_seconds_today": 0, "balance": "You need to have a pocket watcher badge to view this.", "badges": [], "created_at": "2025-07-30T13:00:05.895-04:00", "updated_at": "2025-07-30T21:47:14.010-04:00", "avatar": "https://secure.gravatar.com/avatar/46238274a89cbe05b8287a1272b15d54.jpg?s=512&d=https%3A%2F%2Fa.slack-edge.com%2Fdf10d%2Fimg%2Favatars%2Fava_0006-512.png", "custom_css": null}, {"id": 20098, "slack_id": "U07RRCVTPK3", "display_name": "Ayra Ahmed", "bio": null, "projects_count": 0, "devlogs_count": 0, "votes_count": 0, "ships_count": 0, "projects": [], "coding_time_seconds": 480, "coding_time_seconds_today": 0, "balance": "You need to have a pocket watcher badge to view this.", "badges": [], "created_at": "2025-07-30T13:09:29.886-04:00", "updated_at": "2025-07-30T13:09:56.806-04:00", "avatar": "https://secure.gravatar.com/avatar/e8d648b5f84a4c40e7373bb4d6c99eae.jpg?s=512&d=https%3A%2F%2Fa.slack-edge.com%2Fdf10d%2Fimg%2Favatars%2Fava_0024-512.png", "custom_css": null}, {"id": 20099, "slack_id": "U097RTS8W5V", "display_name": "Jitanka Sarkar", "bio": null, "projects_count": 0, "devlogs_count": 0, "votes_count": 0, "ships_count": 0, "projects": [], "coding_time_seconds": 0, "coding_time_seconds_today": 0, "balance": "You need to have a pocket watcher badge to view this.", "badges": [], "created_at": "2025-07-30T13:11:34.424-04:00", "updated_at": "2025-07-30T21:47:14.193-04:00", "avatar": "https://avatars.slack-edge.com/2025-07-30/9294265411585_6ca3295864e6c065546a_original.jpg", "custom_css": null}, {"id": 20100, "slack_id": "U097RT62SK1", "display_name": "El Quina M.A", "bio": null, "projects_count": 0, "devlogs_count": 0, "votes_count": 0, "ships_count": 0, "projects": [], "coding_time_seconds": 0, "coding_time_seconds_today": 0, "balance": "You need to have a pocket watcher badge to view this.", "badges": [], "created_at": "2025-07-30T13:19:44.765-04:00", "updated_at": "2025-07-30T21:47:14.304-04:00", "avatar": "https://secure.gravatar.com/avatar/e69a87db013c5465551bacade4a8b1bd.jpg?s=512&d=https%3A%2F%2Fa.slack-edge.com%2Fdf10d%2Fimg%2Favatars%2Fava_0012-512.png", "custom_css": null}, {"id": 20101, "slack_id": "U09834BTE14", "display_name": "Saksham Adhikari", "bio": null, "projects_count": 0, "devlogs_count": 0, "votes_count": 0, "ships_count": 0, "projects": [], "coding_time_seconds": 0, "coding_time_seconds_today": 0, "balance": "You need to have a pocket watcher badge to view this.", "badges": [], "created_at": "2025-07-30T13:23:39.522-04:00", "updated_at": "2025-07-30T21:47:14.422-04:00", "avatar": "https://avatars.slack-edge.com/2025-07-30/9279452508546_00cdd6486e96d617bb16_original.jpg", "custom_css": null}, {"id": 20102, "slack_id": "U097S1AQMPZ", "display_name": "Aman", "bio": null, "projects_count": 2, "devlogs_count": 5, "votes_count": 36, "ships_count": 1, "projects": [{"id": 9259, "title": "To Do List", "devlogs_count": 0, "created_at": "2025-07-31T07:52:53.405-04:00"}, {"id": 10211, "title": "car collection", "devlogs_count": 2, "created_at": "2025-08-05T01:14:44.141-04:00"}], "coding_time_seconds": 84702, "coding_time_seconds_today": 0, "balance": "You need to have a pocket watcher badge to view this.", "badges": [], "created_at": "2025-07-30T13:28:46.005-04:00", "updated_at": "2025-08-11T12:38:18.007-04:00", "avatar": "https://avatars.slack-edge.com/2025-07-30/9277647518181_86b0dd9930e5f12fc75a_original.jpg", "custom_css": null}, {"id": 20103, "slack_id": "U098NASQ2F3", "display_name": "Sunil S", "bio": null, "projects_count": 2, "devlogs_count": 1, "votes_count": 0, "ships_count": 0, "projects": [{"id": 9197, "title": "Hearing Aid Using DSP", "devlogs_count": 1, "created_at": "2025-07-31T00:28:34.635-04:00"}, {"id": 9198, "title": "Hearing Aid Using DSP", "devlogs_count": 0, "created_at": "2025-07-31T00:28:35.135-04:00"}], "coding_time_seconds": 7873, "coding_time_seconds_today": 0, "balance": "You need to have a pocket watcher badge to view this.", "badges": [], "created_at": "2025-07-30T13:31:44.577-04:00", "updated_at": "2025-07-30T21:47:18.691-04:00", "avatar": "https://secure.gravatar.com/avatar/8171c8a3d6626332a7513ee01525e0de.jpg?s=512&d=https%3A%2F%2Fa.slack-edge.com%2Fdf10d%2Fimg%2Favatars%2Fava_0008-512.png", "custom_css": null}, {"id": 20104, "slack_id": "U098VDHDFPS", "display_name": "Jay", "bio": null, "projects_count": 0, "devlogs_count": 0, "votes_count": 0, "ships_count": 0, "projects": [], "coding_time_seconds": 0, "coding_time_seconds_today": 0, "balance": "You need to have a pocket watcher badge to view this.", "badges": [], "created_at": "2025-07-30T13:38:28.455-04:00", "updated_at": "2025-07-30T21:47:18.785-04:00", "avatar": "https://secure.gravatar.com/avatar/1ae944de036c011df7de8b27775764fb.jpg?s=512&d=https%3A%2F%2Fa.slack-edge.com%2Fdf10d%2Fimg%2Favatars%2Fava_0023-512.png", "custom_css": null}, {"id": 20105, "slack_id": "U05BRCY2CDC", "display_name": "Thepigcat", "bio": null, "projects_count": 2, "devlogs_count": 12, "votes_count": 26, "ships_count": 2, "projects": [{"id": 9233, "title": "Flies", "devlogs_count": 7, "created_at": "2025-07-31T05:28:18.278-04:00"}, {"id": 12851, "title": "goo", "devlogs_count": 5, "created_at": "2025-09-03T15:12:20.280-04:00"}], "coding_time_seconds": 231351, "coding_time_seconds_today": 0, "balance": "You need to have a pocket watcher badge to view this.", "badges": [], "created_at": "2025-07-30T13:43:05.484-04:00", "updated_at": "2025-08-29T06:55:05.563-04:00", "avatar": "https://secure.gravatar.com/avatar/f5ff6b4c827f47dd9118878e501c80ee.jpg?s=512&d=https%3A%2F%2Fa.slack-edge.com%2Fdf10d%2Fimg%2Favatars%2Fava_0021-512.png", "custom_css": null}], "pagination": {"page": 1001, "pages": 1192, "count": 23828, "items": 20}}