{"users": [{"id": 20146, "slack_id": "U098A2GPBTN", "display_name": "nick", "bio": null, "projects_count": 0, "devlogs_count": 0, "votes_count": 0, "ships_count": 0, "projects": [], "coding_time_seconds": 1480, "coding_time_seconds_today": 0, "balance": "You need to have a pocket watcher badge to view this.", "badges": [], "created_at": "2025-07-30T18:43:45.786-04:00", "updated_at": "2025-08-01T10:35:53.291-04:00", "avatar": "https://secure.gravatar.com/avatar/006b1b3a020cc17e5804b850830d6762.jpg?s=512&d=https%3A%2F%2Fa.slack-edge.com%2Fdf10d%2Fimg%2Favatars%2Fava_0005-512.png", "custom_css": null}, {"id": 20147, "slack_id": "U0987362BMK", "display_name": "Svanik Kolli", "bio": null, "projects_count": 0, "devlogs_count": 0, "votes_count": 0, "ships_count": 0, "projects": [], "coding_time_seconds": 2744, "coding_time_seconds_today": 0, "balance": "You need to have a pocket watcher badge to view this.", "badges": [], "created_at": "2025-07-30T18:45:07.947-04:00", "updated_at": "2025-07-30T21:47:35.298-04:00", "avatar": "https://avatars.slack-edge.com/2025-07-30/9279119291413_fce9840959a217f2154b_original.jpg", "custom_css": null}, {"id": 20148, "slack_id": "U0988UGDE90", "display_name": "Yurron Bar", "bio": null, "projects_count": 0, "devlogs_count": 0, "votes_count": 0, "ships_count": 0, "projects": [], "coding_time_seconds": 0, "coding_time_seconds_today": 0, "balance": "You need to have a pocket watcher badge to view this.", "badges": [], "created_at": "2025-07-30T18:50:15.919-04:00", "updated_at": "2025-07-30T21:47:35.392-04:00", "avatar": "https://secure.gravatar.com/avatar/226f3325dfec80e45dc6f69f0148c370.jpg?s=512&d=https%3A%2F%2Fa.slack-edge.com%2Fdf10d%2Fimg%2Favatars%2Fava_0006-512.png", "custom_css": null}, {"id": 20149, "slack_id": "U098A427TT6", "display_name": "Late-Is-Cool", "bio": "A teenager who has been programming for part of his life.", "projects_count": 1, "devlogs_count": 5, "votes_count": 4, "ships_count": 0, "projects": [{"id": 9155, "title": "Lativion OS | Simulated Operating System in the Web!", "devlogs_count": 5, "created_at": "2025-07-30T19:31:23.276-04:00"}], "coding_time_seconds": 79712, "coding_time_seconds_today": 0, "balance": "You need to have a pocket watcher badge to view this.", "badges": [], "created_at": "2025-07-30T19:06:57.555-04:00", "updated_at": "2025-08-06T20:39:30.615-04:00", "avatar": "https://avatars.slack-edge.com/2025-07-31/9273594802903_fcecb01365d573848e47_original.png", "custom_css": null}, {"id": 20150, "slack_id": "U098Q2BD3LH", "display_name": "Eyad Gamal Gouda", "bio": "Pikmin", "projects_count": 0, "devlogs_count": 0, "votes_count": 1, "ships_count": 0, "projects": [], "coding_time_seconds": 71130, "coding_time_seconds_today": 0, "balance": "You need to have a pocket watcher badge to view this.", "badges": [], "created_at": "2025-07-30T19:27:28.012-04:00", "updated_at": "2025-08-02T18:02:57.619-04:00", "avatar": "https://secure.gravatar.com/avatar/fd5a3dd01d4dfe9d3e18b0ac67061a03.jpg?s=512&d=https%3A%2F%2Fa.slack-edge.com%2Fdf10d%2Fimg%2Favatars%2Fava_0008-512.png", "custom_css": null}, {"id": 20151, "slack_id": "U098511LU9H", "display_name": "Adan Dang", "bio": null, "projects_count": 0, "devlogs_count": 0, "votes_count": 0, "ships_count": 0, "projects": [], "coding_time_seconds": 1183, "coding_time_seconds_today": 0, "balance": "You need to have a pocket watcher badge to view this.", "badges": [], "created_at": "2025-07-30T19:46:29.066-04:00", "updated_at": "2025-08-01T05:26:02.155-04:00", "avatar": "https://secure.gravatar.com/avatar/bb26d0f2979292f1f5deeb189cacdcc1.jpg?s=512&d=https%3A%2F%2Fa.slack-edge.com%2Fdf10d%2Fimg%2Favatars%2Fava_0005-512.png", "custom_css": null}, {"id": 20152, "slack_id": "U098QA23JG1", "display_name": "Dylan", "bio": null, "projects_count": 0, "devlogs_count": 0, "votes_count": 0, "ships_count": 0, "projects": [], "coding_time_seconds": 0, "coding_time_seconds_today": 0, "balance": "You need to have a pocket watcher badge to view this.", "badges": [], "created_at": "2025-07-30T20:47:06.066-04:00", "updated_at": "2025-07-30T21:47:35.817-04:00", "avatar": "https://secure.gravatar.com/avatar/c93bcd99a5ec357a2fb4283d33f2bbe1.jpg?s=512&d=https%3A%2F%2Fa.slack-edge.com%2Fdf10d%2Fimg%2Favatars%2Fava_0017-512.png", "custom_css": null}, {"id": 20153, "slack_id": "U092F9Q8D0V", "display_name": "Sophia", "bio": null, "projects_count": 2, "devlogs_count": 0, "votes_count": 0, "ships_count": 0, "projects": [{"id": 9548, "title": "Imposter Syndrome Guide", "devlogs_count": 0, "created_at": "2025-08-01T16:19:44.295-04:00"}, {"id": 9549, "title": "Imposter Syndrome Guide", "devlogs_count": 0, "created_at": "2025-08-01T16:19:44.302-04:00"}], "coding_time_seconds": 157310, "coding_time_seconds_today": 0, "balance": "You need to have a pocket watcher badge to view this.", "badges": [], "created_at": "2025-07-30T20:59:03.128-04:00", "updated_at": "2025-07-30T21:47:35.948-04:00", "avatar": "https://secure.gravatar.com/avatar/01a782ddec3b6491712f0c89e6a1ebfb.jpg?s=512&d=https%3A%2F%2Fa.slack-edge.com%2Fdf10d%2Fimg%2Favatars%2Fava_0017-512.png", "custom_css": null}, {"id": 20154, "slack_id": "U09864CLA14", "display_name": "Joseph", "bio": "I'm just a catholic game dev who makes games in Love2D!", "projects_count": 4, "devlogs_count": 62, "votes_count": 77, "ships_count": 2, "projects": [{"id": 11698, "title": "Mystery of the missing Boba", "devlogs_count": 12, "created_at": "2025-08-18T14:22:11.189-04:00"}, {"id": 12376, "title": "WarioWare-style Gayme", "devlogs_count": 9, "created_at": "2025-08-26T11:46:58.963-04:00"}, {"id": 13088, "title": "Capybara Cartridges", "devlogs_count": 27, "created_at": "2025-09-08T10:31:39.200-04:00"}, {"id": 9530, "title": "CherryPop", "devlogs_count": 14, "created_at": "2025-08-01T15:32:57.663-04:00"}], "coding_time_seconds": 283722, "coding_time_seconds_today": 0, "balance": "You need to have a pocket watcher badge to view this.", "badges": [], "created_at": "2025-07-30T21:14:41.076-04:00", "updated_at": "2025-09-13T09:46:43.168-04:00", "avatar": "https://avatars.slack-edge.com/2025-09-13/9509283050211_d9efb08839fdd1a49f37_original.png", "custom_css": null}, {"id": 20155, "slack_id": "U0987H42SBX", "display_name": "prithuvi", "bio": null, "projects_count": 0, "devlogs_count": 0, "votes_count": 0, "ships_count": 0, "projects": [], "coding_time_seconds": 0, "coding_time_seconds_today": 0, "balance": "You need to have a pocket watcher badge to view this.", "badges": [], "created_at": "2025-07-30T21:27:36.546-04:00", "updated_at": "2025-07-30T21:47:36.138-04:00", "avatar": "https://secure.gravatar.com/avatar/18ffee9f6d44dd3f52b5e44638091d83.jpg?s=512&d=https%3A%2F%2Fa.slack-edge.com%2Fdf10d%2Fimg%2Favatars%2Fava_0013-512.png", "custom_css": null}, {"id": 20156, "slack_id": "U08EZTELLRH", "display_name": "Eamon Gordon", "bio": null, "projects_count": 0, "devlogs_count": 0, "votes_count": 0, "ships_count": 0, "projects": [], "coding_time_seconds": 114146, "coding_time_seconds_today": 0, "balance": "You need to have a pocket watcher badge to view this.", "badges": [], "created_at": "2025-07-30T21:57:47.290-04:00", "updated_at": "2025-07-31T03:58:29.106-04:00", "avatar": "https://secure.gravatar.com/avatar/904da285d297dee06a70f52976b41037.jpg?s=512&d=https%3A%2F%2Fa.slack-edge.com%2Fdf10d%2Fimg%2Favatars%2Fava_0001-512.png", "custom_css": null}, {"id": 20157, "slack_id": "U0989FLG5FC", "display_name": "Max", "bio": null, "projects_count": 0, "devlogs_count": 0, "votes_count": 0, "ships_count": 0, "projects": [], "coding_time_seconds": 98106, "coding_time_seconds_today": 0, "balance": "You need to have a pocket watcher badge to view this.", "badges": [], "created_at": "2025-07-30T21:58:53.028-04:00", "updated_at": "2025-07-31T03:58:33.256-04:00", "avatar": "https://secure.gravatar.com/avatar/04eab9b75d1fa89ea0b52e29301e0a41.jpg?s=512&d=https%3A%2F%2Fa.slack-edge.com%2Fdf10d%2Fimg%2Favatars%2Fava_0018-512.png", "custom_css": null}, {"id": 20158, "slack_id": "U098696RC3Y", "display_name": "Logan", "bio": null, "projects_count": 0, "devlogs_count": 0, "votes_count": 0, "ships_count": 0, "projects": [], "coding_time_seconds": 0, "coding_time_seconds_today": 0, "balance": "You need to have a pocket watcher badge to view this.", "badges": [], "created_at": "2025-07-30T22:02:31.616-04:00", "updated_at": "2025-07-31T03:58:33.387-04:00", "avatar": "https://secure.gravatar.com/avatar/1d008bb26219217552496114c5fa5403.jpg?s=512&d=https%3A%2F%2Fa.slack-edge.com%2Fdf10d%2Fimg%2Favatars%2Fava_0024-512.png", "custom_css": null}, {"id": 20159, "slack_id": "U097G509V5F", "display_name": "Subhash Kumar", "bio": null, "projects_count": 0, "devlogs_count": 0, "votes_count": 0, "ships_count": 0, "projects": [], "coding_time_seconds": 0, "coding_time_seconds_today": 0, "balance": "You need to have a pocket watcher badge to view this.", "badges": [], "created_at": "2025-07-30T22:05:01.387-04:00", "updated_at": "2025-08-10T01:32:31.665-04:00", "avatar": "https://secure.gravatar.com/avatar/052e6d4c9b90abfe2dd98b447860fb42.jpg?s=512&d=https%3A%2F%2Fa.slack-edge.com%2Fdf10d%2Fimg%2Favatars%2Fava_0007-512.png", "custom_css": null}, {"id": 20160, "slack_id": "U09829SEUKF", "display_name": "Vin", "bio": null, "projects_count": 0, "devlogs_count": 0, "votes_count": 0, "ships_count": 0, "projects": [], "coding_time_seconds": 8134, "coding_time_seconds_today": 0, "balance": "You need to have a pocket watcher badge to view this.", "badges": [], "created_at": "2025-07-30T22:08:45.019-04:00", "updated_at": "2025-07-31T03:58:33.609-04:00", "avatar": "https://secure.gravatar.com/avatar/1f432570ac01206c189e09434112794e.jpg?s=512&d=https%3A%2F%2Fa.slack-edge.com%2Fdf10d%2Fimg%2Favatars%2Fava_0004-512.png", "custom_css": null}, {"id": 20161, "slack_id": "U097U7WQBEK", "display_name": "Juquan Wen", "bio": null, "projects_count": 0, "devlogs_count": 0, "votes_count": 0, "ships_count": 0, "projects": [], "coding_time_seconds": 0, "coding_time_seconds_today": 0, "balance": "You need to have a pocket watcher badge to view this.", "badges": [], "created_at": "2025-07-30T22:16:43.515-04:00", "updated_at": "2025-07-31T03:58:33.710-04:00", "avatar": "https://secure.gravatar.com/avatar/e024b73f22e42044f262e1e689fcb6ef.jpg?s=512&d=https%3A%2F%2Fa.slack-edge.com%2Fdf10d%2Fimg%2Favatars%2Fava_0026-512.png", "custom_css": null}, {"id": 20162, "slack_id": "U097U7V7AUX", "display_name": "techmooocher", "bio": null, "projects_count": 0, "devlogs_count": 0, "votes_count": 0, "ships_count": 0, "projects": [], "coding_time_seconds": 0, "coding_time_seconds_today": 0, "balance": "You need to have a pocket watcher badge to view this.", "badges": [], "created_at": "2025-07-30T22:25:52.438-04:00", "updated_at": "2025-08-01T08:06:01.947-04:00", "avatar": "https://secure.gravatar.com/avatar/a2a0121e638239b03aa040fd8e54868d.jpg?s=512&d=https%3A%2F%2Fa.slack-edge.com%2Fdf10d%2Fimg%2Favatars%2Fava_0016-512.png", "custom_css": null}, {"id": 20163, "slack_id": "U0989QTLZJN", "display_name": "Techy Weeb", "bio": null, "projects_count": 0, "devlogs_count": 0, "votes_count": 0, "ships_count": 0, "projects": [], "coding_time_seconds": 0, "coding_time_seconds_today": 0, "balance": "You need to have a pocket watcher badge to view this.", "badges": [], "created_at": "2025-07-30T23:52:49.573-04:00", "updated_at": "2025-07-31T03:58:33.913-04:00", "avatar": "https://avatars.slack-edge.com/2025-07-30/9280040057141_6259507996727f05e97a_original.png", "custom_css": null}, {"id": 20164, "slack_id": "U0985R7NQV9", "display_name": "Hamdan Abdul Rafeek", "bio": null, "projects_count": 0, "devlogs_count": 0, "votes_count": 0, "ships_count": 0, "projects": [], "coding_time_seconds": 0, "coding_time_seconds_today": 0, "balance": "You need to have a pocket watcher badge to view this.", "badges": [], "created_at": "2025-07-30T23:53:59.756-04:00", "updated_at": "2025-07-31T03:58:34.017-04:00", "avatar": "https://secure.gravatar.com/avatar/c9f260c98ad306826b33a15e712b429a.jpg?s=512&d=https%3A%2F%2Fa.slack-edge.com%2Fdf10d%2Fimg%2Favatars%2Fava_0012-512.png", "custom_css": null}, {"id": 20165, "slack_id": "U093R7UF7E1", "display_name": "ani", "bio": null, "projects_count": 0, "devlogs_count": 0, "votes_count": 0, "ships_count": 0, "projects": [], "coding_time_seconds": 0, "coding_time_seconds_today": 0, "balance": "You need to have a pocket watcher badge to view this.", "badges": [], "created_at": "2025-07-30T23:54:30.279-04:00", "updated_at": "2025-07-31T03:58:34.139-04:00", "avatar": "https://secure.gravatar.com/avatar/323a58910e9c30adec73603725301c56.jpg?s=512&d=https%3A%2F%2Fa.slack-edge.com%2Fdf10d%2Fimg%2Favatars%2Fava_0022-512.png", "custom_css": null}], "pagination": {"page": 1004, "pages": 1192, "count": 23828, "items": 20}}