{"users": [{"id": 20166, "slack_id": "U0985SSEABV", "display_name": "Alex", "bio": null, "projects_count": 0, "devlogs_count": 0, "votes_count": 0, "ships_count": 0, "projects": [], "coding_time_seconds": 0, "coding_time_seconds_today": 0, "balance": "You need to have a pocket watcher badge to view this.", "badges": [], "created_at": "2025-07-31T00:10:01.169-04:00", "updated_at": "2025-07-31T03:58:34.278-04:00", "avatar": "https://avatars.slack-edge.com/2025-07-30/9281905006898_80d180364e9d8cfec3c5_original.png", "custom_css": null}, {"id": 20167, "slack_id": "U09860WGNGK", "display_name": "William Gundrum", "bio": null, "projects_count": 2, "devlogs_count": 1, "votes_count": 0, "ships_count": 1, "projects": [{"id": 9205, "title": "GMTK Game Jam Game - Loopsmith", "devlogs_count": 1, "created_at": "2025-07-31T01:12:49.637-04:00"}, {"id": 9396, "title": "Mouse Glove", "devlogs_count": 0, "created_at": "2025-08-01T01:06:54.221-04:00"}], "coding_time_seconds": 54714, "coding_time_seconds_today": 0, "balance": "You need to have a pocket watcher badge to view this.", "badges": [], "created_at": "2025-07-31T00:47:14.252-04:00", "updated_at": "2025-08-12T22:12:45.874-04:00", "avatar": "https://avatars.slack-edge.com/2025-07-30/9303964346176_603e00626243ebb76e6a_original.jpg", "custom_css": null}, {"id": 20168, "slack_id": "U09863AFGM9", "display_name": "bobis", "bio": "", "projects_count": 5, "devlogs_count": 17, "votes_count": 50, "ships_count": 1, "projects": [{"id": 12153, "title": "Mandrake Shoot", "devlogs_count": 3, "created_at": "2025-08-23T19:37:12.637-04:00"}, {"id": 13036, "title": "Hop Hop Yeet", "devlogs_count": 0, "created_at": "2025-09-07T10:49:19.329-04:00"}, {"id": 13213, "title": "Streak App", "devlogs_count": 2, "created_at": "2025-09-11T19:32:33.119-04:00"}, {"id": 13418, "title": "Lost Realm of the Praksadonskalisks", "devlogs_count": 8, "created_at": "2025-09-15T22:30:23.344-04:00"}, {"id": 13306, "title": "SandboxRacer", "devlogs_count": 4, "created_at": "2025-09-13T17:23:28.562-04:00"}], "coding_time_seconds": 143257, "coding_time_seconds_today": 0, "balance": "You need to have a pocket watcher badge to view this.", "badges": [], "created_at": "2025-07-31T01:12:32.661-04:00", "updated_at": "2025-09-11T20:35:47.966-04:00", "avatar": "https://avatars.slack-edge.com/2025-08-27/9419570780005_9160e2b58f05f8688fdd_original.png", "custom_css": null}, {"id": 20169, "slack_id": "U098A4W0L5Q", "display_name": "Rajvir", "bio": null, "projects_count": 0, "devlogs_count": 0, "votes_count": 0, "ships_count": 0, "projects": [], "coding_time_seconds": 0, "coding_time_seconds_today": 0, "balance": "You need to have a pocket watcher badge to view this.", "badges": [], "created_at": "2025-07-31T01:42:51.171-04:00", "updated_at": "2025-08-01T18:25:38.419-04:00", "avatar": "https://secure.gravatar.com/avatar/87ea9405c6982b55e1536a9ec411731a.jpg?s=512&d=https%3A%2F%2Fa.slack-edge.com%2Fdf10d%2Fimg%2Favatars%2Fava_0025-512.png", "custom_css": null}, {"id": 20170, "slack_id": "U098Y4N6B9N", "display_name": "Chinmayi Cherukupalli", "bio": null, "projects_count": 0, "devlogs_count": 0, "votes_count": 0, "ships_count": 0, "projects": [], "coding_time_seconds": 0, "coding_time_seconds_today": 0, "balance": "You need to have a pocket watcher badge to view this.", "badges": [], "created_at": "2025-07-31T02:07:48.267-04:00", "updated_at": "2025-07-31T03:58:34.769-04:00", "avatar": "https://avatars.slack-edge.com/2025-07-30/9297387896001_909417ee9ff2486447c3_original.png", "custom_css": null}, {"id": 20171, "slack_id": "U098A7TFX7C", "display_name": "Varghese", "bio": null, "projects_count": 0, "devlogs_count": 0, "votes_count": 0, "ships_count": 0, "projects": [], "coding_time_seconds": 373, "coding_time_seconds_today": 0, "balance": "You need to have a pocket watcher badge to view this.", "badges": [], "created_at": "2025-07-31T02:11:33.468-04:00", "updated_at": "2025-08-04T08:02:07.177-04:00", "avatar": "https://secure.gravatar.com/avatar/1d868d94c0576533fc79456bc0b29d9e.jpg?s=512&d=https%3A%2F%2Fa.slack-edge.com%2Fdf10d%2Fimg%2Favatars%2Fava_0008-512.png", "custom_css": null}, {"id": 20172, "slack_id": "U0988G3LWLD", "display_name": "Akanksha", "bio": null, "projects_count": 0, "devlogs_count": 0, "votes_count": 0, "ships_count": 0, "projects": [], "coding_time_seconds": 0, "coding_time_seconds_today": 0, "balance": "You need to have a pocket watcher badge to view this.", "badges": [], "created_at": "2025-07-31T02:41:05.693-04:00", "updated_at": "2025-07-31T03:58:34.948-04:00", "avatar": "https://avatars.slack-edge.com/2025-07-30/9278473150307_d2904897f0dc82d2f759_original.png", "custom_css": null}, {"id": 20173, "slack_id": "U07GRHEF789", "display_name": "Dragos", "bio": null, "projects_count": 0, "devlogs_count": 0, "votes_count": 0, "ships_count": 0, "projects": [], "coding_time_seconds": 0, "coding_time_seconds_today": 0, "balance": "You need to have a pocket watcher badge to view this.", "badges": [], "created_at": "2025-07-31T02:46:52.748-04:00", "updated_at": "2025-07-31T02:47:50.011-04:00", "avatar": "https://avatars.slack-edge.com/2024-08-12/7563972416466_ec4aba4ca22f9a32076a_original.png", "custom_css": null}, {"id": 20174, "slack_id": "U097V73T7NK", "display_name": "Ollie", "bio": null, "projects_count": 0, "devlogs_count": 0, "votes_count": 0, "ships_count": 0, "projects": [], "coding_time_seconds": 0, "coding_time_seconds_today": 0, "balance": "You need to have a pocket watcher badge to view this.", "badges": [], "created_at": "2025-07-31T03:00:35.190-04:00", "updated_at": "2025-08-11T21:48:13.646-04:00", "avatar": "https://secure.gravatar.com/avatar/e174c832988647e94b5c5728a08d2082.jpg?s=512&d=https%3A%2F%2Fa.slack-edge.com%2Fdf10d%2Fimg%2Favatars%2Fava_0018-512.png", "custom_css": null}, {"id": 20175, "slack_id": "U097V814BM5", "display_name": "Muhammad Daud", "bio": "average dumbo", "projects_count": 0, "devlogs_count": 0, "votes_count": 1, "ships_count": 0, "projects": [], "coding_time_seconds": 0, "coding_time_seconds_today": 0, "balance": "You need to have a pocket watcher badge to view this.", "badges": [], "created_at": "2025-07-31T03:06:21.418-04:00", "updated_at": "2025-08-17T08:17:37.406-04:00", "avatar": "https://avatars.slack-edge.com/2025-08-12/9369580527584_565091a6be41edfb1521_original.jpg", "custom_css": null}, {"id": 20176, "slack_id": "U0988MLLFHB", "display_name": "Tabish", "bio": null, "projects_count": 0, "devlogs_count": 0, "votes_count": 0, "ships_count": 0, "projects": [], "coding_time_seconds": 0, "coding_time_seconds_today": 0, "balance": "You need to have a pocket watcher badge to view this.", "badges": [], "created_at": "2025-07-31T03:19:51.027-04:00", "updated_at": "2025-07-31T03:58:35.434-04:00", "avatar": "https://secure.gravatar.com/avatar/258f6aa8e1c06fe53edf0eed21fa55fc.jpg?s=512&d=https%3A%2F%2Fa.slack-edge.com%2Fdf10d%2Fimg%2Favatars%2Fava_0015-512.png", "custom_css": null}, {"id": 20177, "slack_id": "U098RM3BZS5", "display_name": "Harry T", "bio": null, "projects_count": 0, "devlogs_count": 0, "votes_count": 0, "ships_count": 0, "projects": [], "coding_time_seconds": 20394, "coding_time_seconds_today": 0, "balance": "You need to have a pocket watcher badge to view this.", "badges": [], "created_at": "2025-07-31T03:29:26.101-04:00", "updated_at": "2025-07-31T03:58:35.522-04:00", "avatar": "https://avatars.slack-edge.com/2025-07-31/9297802832465_1f555d1dc65cdc40d6c0_original.jpg", "custom_css": null}, {"id": 20178, "slack_id": "U0988TH7WQM", "display_name": "Keshav Chauhan", "bio": null, "projects_count": 2, "devlogs_count": 1, "votes_count": 0, "ships_count": 1, "projects": [{"id": 9765, "title": "zachlatta.com .... (But better )", "devlogs_count": 0, "created_at": "2025-08-02T07:48:47.648-04:00"}, {"id": 9764, "title": "zachlatta.com .... (But better )", "devlogs_count": 1, "created_at": "2025-08-02T07:48:47.396-04:00"}], "coding_time_seconds": 20406, "coding_time_seconds_today": 0, "balance": "You need to have a pocket watcher badge to view this.", "badges": [], "created_at": "2025-07-31T04:02:52.921-04:00", "updated_at": "2025-08-02T08:52:51.496-04:00", "avatar": "https://secure.gravatar.com/avatar/d9e69881d39737f5139e0a2756538cdd.jpg?s=512&d=https%3A%2F%2Fa.slack-edge.com%2Fdf10d%2Fimg%2Favatars%2Fava_0025-512.png", "custom_css": null}, {"id": 20179, "slack_id": "U098AP519EW", "display_name": "Francisco Sarmiento", "bio": null, "projects_count": 0, "devlogs_count": 0, "votes_count": 0, "ships_count": 0, "projects": [], "coding_time_seconds": 0, "coding_time_seconds_today": 0, "balance": "You need to have a pocket watcher badge to view this.", "badges": [], "created_at": "2025-07-31T04:09:47.008-04:00", "updated_at": "2025-07-31T09:58:46.516-04:00", "avatar": "https://avatars.slack-edge.com/2025-07-31/9278915373139_c0e91e65c8708194ebd0_original.jpg", "custom_css": null}, {"id": 20180, "slack_id": "U0987RYTJG6", "display_name": "Ekansh Jain", "bio": null, "projects_count": 0, "devlogs_count": 0, "votes_count": 0, "ships_count": 0, "projects": [], "coding_time_seconds": 0, "coding_time_seconds_today": 0, "balance": "You need to have a pocket watcher badge to view this.", "badges": [], "created_at": "2025-07-31T04:54:05.544-04:00", "updated_at": "2025-07-31T09:58:46.648-04:00", "avatar": "https://secure.gravatar.com/avatar/b14c94c1735177a1e578fae583c64645.jpg?s=512&d=https%3A%2F%2Fa.slack-edge.com%2Fdf10d%2Fimg%2Favatars%2Fava_0001-512.png", "custom_css": null}, {"id": 20181, "slack_id": "U0877A3FBRB", "display_name": "Dhishant", "bio": null, "projects_count": 0, "devlogs_count": 0, "votes_count": 0, "ships_count": 0, "projects": [], "coding_time_seconds": 0, "coding_time_seconds_today": 0, "balance": "You need to have a pocket watcher badge to view this.", "badges": [], "created_at": "2025-07-31T04:54:09.498-04:00", "updated_at": "2025-08-03T09:59:00.595-04:00", "avatar": "https://avatars.slack-edge.com/2025-08-03/9293073576163_b1a2007cf451c08e784a_original.jpg", "custom_css": null}, {"id": 20182, "slack_id": "U097VQNBEUF", "display_name": "Allaktar Oli", "bio": null, "projects_count": 0, "devlogs_count": 0, "votes_count": 0, "ships_count": 0, "projects": [], "coding_time_seconds": 0, "coding_time_seconds_today": 0, "balance": "You need to have a pocket watcher badge to view this.", "badges": [], "created_at": "2025-07-31T04:54:17.494-04:00", "updated_at": "2025-08-01T08:21:28.192-04:00", "avatar": "https://avatars.slack-edge.com/2025-07-31/9283010787618_92069a6eeb2ac9178845_original.jpg", "custom_css": null}, {"id": 20183, "slack_id": "U098S53M5Q9", "display_name": "maarouf_hz", "bio": null, "projects_count": 0, "devlogs_count": 0, "votes_count": 0, "ships_count": 0, "projects": [], "coding_time_seconds": 0, "coding_time_seconds_today": 0, "balance": "You need to have a pocket watcher badge to view this.", "badges": [], "created_at": "2025-07-31T05:00:48.552-04:00", "updated_at": "2025-08-03T14:36:50.579-04:00", "avatar": "https://secure.gravatar.com/avatar/b840d902cf8482752f8ee438ab503556.jpg?s=512&d=https%3A%2F%2Fa.slack-edge.com%2Fdf10d%2Fimg%2Favatars%2Fava_0005-512.png", "custom_css": null}, {"id": 20184, "slack_id": "U0986UNTS06", "display_name": "Himanshi _Bathla", "bio": null, "projects_count": 1, "devlogs_count": 1, "votes_count": 0, "ships_count": 0, "projects": [{"id": 12849, "title": "MLProject", "devlogs_count": 1, "created_at": "2025-09-03T14:48:08.143-04:00"}], "coding_time_seconds": 36069, "coding_time_seconds_today": 0, "balance": "You need to have a pocket watcher badge to view this.", "badges": [], "created_at": "2025-07-31T05:01:42.602-04:00", "updated_at": "2025-09-03T16:00:05.996-04:00", "avatar": "https://avatars.slack-edge.com/2025-07-31/9283051056866_2c6115e602974a642f87_original.png", "custom_css": null}, {"id": 20185, "slack_id": "U097UG96XL7", "display_name": "Nata.lie", "bio": null, "projects_count": 0, "devlogs_count": 0, "votes_count": 0, "ships_count": 0, "projects": [], "coding_time_seconds": 0, "coding_time_seconds_today": 0, "balance": "You need to have a pocket watcher badge to view this.", "badges": [], "created_at": "2025-07-31T05:07:08.638-04:00", "updated_at": "2025-08-01T03:59:06.752-04:00", "avatar": "https://avatars.slack-edge.com/2025-08-01/9285891341590_db3f72e117d47f57832a_original.jpg", "custom_css": null}], "pagination": {"page": 1005, "pages": 1192, "count": 23828, "items": 20}}