{"users": [{"id": 20186, "slack_id": "U09897LADU5", "display_name": "Yaale", "bio": null, "projects_count": 0, "devlogs_count": 0, "votes_count": 0, "ships_count": 0, "projects": [], "coding_time_seconds": 0, "coding_time_seconds_today": 0, "balance": "You need to have a pocket watcher badge to view this.", "badges": [], "created_at": "2025-07-31T05:25:16.531-04:00", "updated_at": "2025-07-31T09:58:51.209-04:00", "avatar": "https://secure.gravatar.com/avatar/cbbb0ac9a1fba295dc3cebab33b0c066.jpg?s=512&d=https%3A%2F%2Fa.slack-edge.com%2Fdf10d%2Fimg%2Favatars%2Fava_0014-512.png", "custom_css": null}, {"id": 20187, "slack_id": "U093FEFDD5G", "display_name": "Yassin Bassem", "bio": null, "projects_count": 0, "devlogs_count": 0, "votes_count": 0, "ships_count": 0, "projects": [], "coding_time_seconds": 0, "coding_time_seconds_today": 0, "balance": "You need to have a pocket watcher badge to view this.", "badges": [], "created_at": "2025-07-31T06:03:36.531-04:00", "updated_at": "2025-07-31T06:04:10.995-04:00", "avatar": "https://secure.gravatar.com/avatar/c518cee16769466dee27747eb35eb12a.jpg?s=512&d=https%3A%2F%2Fa.slack-edge.com%2Fdf10d%2Fimg%2Favatars%2Fava_0020-512.png", "custom_css": null}, {"id": 20188, "slack_id": "U098BAJAEN6", "display_name": "aero", "bio": null, "projects_count": 0, "devlogs_count": 0, "votes_count": 0, "ships_count": 0, "projects": [], "coding_time_seconds": 125220, "coding_time_seconds_today": 0, "balance": "You need to have a pocket watcher badge to view this.", "badges": [], "created_at": "2025-07-31T06:11:04.035-04:00", "updated_at": "2025-08-02T01:33:10.966-04:00", "avatar": "https://avatars.slack-edge.com/2025-07-31/9307103556368_de276b479172e98fcebd_original.png", "custom_css": null}, {"id": 20189, "slack_id": "U09888CN2CW", "display_name": "Matter", "bio": null, "projects_count": 0, "devlogs_count": 0, "votes_count": 0, "ships_count": 0, "projects": [], "coding_time_seconds": 0, "coding_time_seconds_today": 0, "balance": "You need to have a pocket watcher badge to view this.", "badges": [], "created_at": "2025-07-31T06:15:07.271-04:00", "updated_at": "2025-07-31T09:58:55.568-04:00", "avatar": "https://secure.gravatar.com/avatar/e5af4664aac947799f04a6952cceee69.jpg?s=512&d=https%3A%2F%2Fa.slack-edge.com%2Fdf10d%2Fimg%2Favatars%2Fava_0000-512.png", "custom_css": null}, {"id": 20190, "slack_id": "U098BBSJAUA", "display_name": "Ridham", "bio": null, "projects_count": 0, "devlogs_count": 0, "votes_count": 0, "ships_count": 0, "projects": [], "coding_time_seconds": 0, "coding_time_seconds_today": 0, "balance": "You need to have a pocket watcher badge to view this.", "badges": [], "created_at": "2025-07-31T06:21:16.188-04:00", "updated_at": "2025-07-31T09:58:55.661-04:00", "avatar": "https://secure.gravatar.com/avatar/75b26ac91b8d8f342f3c2f3dadcbb34e.jpg?s=512&d=https%3A%2F%2Fa.slack-edge.com%2Fdf10d%2Fimg%2Favatars%2Fava_0018-512.png", "custom_css": null}, {"id": 20191, "slack_id": "U098SJ0M8NM", "display_name": "Dimuthu", "bio": null, "projects_count": 0, "devlogs_count": 0, "votes_count": 0, "ships_count": 0, "projects": [], "coding_time_seconds": 0, "coding_time_seconds_today": 0, "balance": "You need to have a pocket watcher badge to view this.", "badges": [], "created_at": "2025-07-31T06:29:26.842-04:00", "updated_at": "2025-07-31T09:58:55.763-04:00", "avatar": "https://secure.gravatar.com/avatar/67c6263000b1436c9ae04601d4f2d8ee.jpg?s=512&d=https%3A%2F%2Fa.slack-edge.com%2Fdf10d%2Fimg%2Favatars%2Fava_0006-512.png", "custom_css": null}, {"id": 20192, "slack_id": "U0989JF9AKX", "display_name": "Daniel Idowu", "bio": "", "projects_count": 0, "devlogs_count": 0, "votes_count": 0, "ships_count": 0, "projects": [], "coding_time_seconds": 15783, "coding_time_seconds_today": 0, "balance": "You need to have a pocket watcher badge to view this.", "badges": [], "created_at": "2025-07-31T06:37:27.672-04:00", "updated_at": "2025-07-31T09:58:55.902-04:00", "avatar": "https://secure.gravatar.com/avatar/ff7dcc12419573ec23ac720395ebadb6.jpg?s=512&d=https%3A%2F%2Fa.slack-edge.com%2Fdf10d%2Fimg%2Favatars%2Fava_0021-512.png", "custom_css": null}, {"id": 20193, "slack_id": "U0989MUSG4V", "display_name": "Nigro Zore", "bio": null, "projects_count": 0, "devlogs_count": 0, "votes_count": 0, "ships_count": 0, "projects": [], "coding_time_seconds": 0, "coding_time_seconds_today": 0, "balance": "You need to have a pocket watcher badge to view this.", "badges": [], "created_at": "2025-07-31T07:05:50.425-04:00", "updated_at": "2025-07-31T09:58:56.036-04:00", "avatar": "https://secure.gravatar.com/avatar/576f9405c3d4a500d3ff5326d38af73f.jpg?s=512&d=https%3A%2F%2Fa.slack-edge.com%2Fdf10d%2Fimg%2Favatars%2Fava_0012-512.png", "custom_css": null}, {"id": 20194, "slack_id": "U08KT1HCGP3", "display_name": "TheAppleUser", "bio": null, "projects_count": 1, "devlogs_count": 1, "votes_count": 2, "ships_count": 1, "projects": [{"id": 10019, "title": "card creator", "devlogs_count": 1, "created_at": "2025-08-03T13:51:40.562-04:00"}], "coding_time_seconds": 143064, "coding_time_seconds_today": 0, "balance": "You need to have a pocket watcher badge to view this.", "badges": [], "created_at": "2025-07-31T07:21:27.134-04:00", "updated_at": "2025-08-06T13:01:54.653-04:00", "avatar": "https://avatars.slack-edge.com/2025-04-12/8730044527943_c516ef6a2a8d4401188b_original.png", "custom_css": null}, {"id": 20195, "slack_id": "U079117J7NF", "display_name": "Michael Ambros", "bio": null, "projects_count": 1, "devlogs_count": 2, "votes_count": 0, "ships_count": 0, "projects": [{"id": 11651, "title": "bubble blower", "devlogs_count": 2, "created_at": "2025-08-18T05:32:15.873-04:00"}], "coding_time_seconds": 105932, "coding_time_seconds_today": 0, "balance": "You need to have a pocket watcher badge to view this.", "badges": [], "created_at": "2025-07-31T07:33:47.517-04:00", "updated_at": "2025-08-12T15:46:18.190-04:00", "avatar": "https://secure.gravatar.com/avatar/cfcb880a0479d104dd307cfa87b6963d.jpg?s=512&d=https%3A%2F%2Fa.slack-edge.com%2Fdf10d%2Fimg%2Favatars%2Fava_0005-512.png", "custom_css": null}, {"id": 20196, "slack_id": "U098D0ABEA0", "display_name": "yaa", "bio": null, "projects_count": 0, "devlogs_count": 0, "votes_count": 0, "ships_count": 0, "projects": [], "coding_time_seconds": 10426, "coding_time_seconds_today": 0, "balance": "You need to have a pocket watcher badge to view this.", "badges": [], "created_at": "2025-07-31T07:40:24.417-04:00", "updated_at": "2025-08-01T07:59:12.512-04:00", "avatar": "https://secure.gravatar.com/avatar/8acb8f1f576b6999e2a1e5d87e7fa1ca.jpg?s=512&d=https%3A%2F%2Fa.slack-edge.com%2Fdf10d%2Fimg%2Favatars%2Fava_0026-512.png", "custom_css": null}, {"id": 20197, "slack_id": "U085DAZ6HML", "display_name": "CoolFort", "bio": null, "projects_count": 0, "devlogs_count": 0, "votes_count": 0, "ships_count": 0, "projects": [], "coding_time_seconds": 0, "coding_time_seconds_today": 0, "balance": "You need to have a pocket watcher badge to view this.", "badges": [], "created_at": "2025-07-31T08:05:31.347-04:00", "updated_at": "2025-07-31T09:58:56.525-04:00", "avatar": "https://secure.gravatar.com/avatar/67b74282f5f5190d159833e68eac422b.jpg?s=512&d=https%3A%2F%2Fa.slack-edge.com%2Fdf10d%2Fimg%2Favatars%2Fava_0010-512.png", "custom_css": null}, {"id": 20198, "slack_id": "U098D3V8KQU", "display_name": "akira", "bio": null, "projects_count": 0, "devlogs_count": 0, "votes_count": 0, "ships_count": 0, "projects": [], "coding_time_seconds": 0, "coding_time_seconds_today": 0, "balance": "You need to have a pocket watcher badge to view this.", "badges": [], "created_at": "2025-07-31T08:08:10.076-04:00", "updated_at": "2025-07-31T09:58:56.609-04:00", "avatar": "https://secure.gravatar.com/avatar/656053c1af7196f4821af01ebef2a82d.jpg?s=512&d=https%3A%2F%2Fa.slack-edge.com%2Fdf10d%2Fimg%2Favatars%2Fava_0001-512.png", "custom_css": null}, {"id": 20199, "slack_id": "U097WPCU4TH", "display_name": "yay", "bio": null, "projects_count": 0, "devlogs_count": 0, "votes_count": 0, "ships_count": 0, "projects": [], "coding_time_seconds": 20181, "coding_time_seconds_today": 0, "balance": "You need to have a pocket watcher badge to view this.", "badges": [], "created_at": "2025-07-31T08:14:24.757-04:00", "updated_at": "2025-08-08T02:46:36.388-04:00", "avatar": "https://secure.gravatar.com/avatar/a34eca85683019bfc38a129769e52267.jpg?s=512&d=https%3A%2F%2Fa.slack-edge.com%2Fdf10d%2Fimg%2Favatars%2Fava_0001-512.png", "custom_css": null}, {"id": 20200, "slack_id": "U098A2RM79B", "display_name": "Linus Berger", "bio": null, "projects_count": 0, "devlogs_count": 0, "votes_count": 0, "ships_count": 0, "projects": [], "coding_time_seconds": 0, "coding_time_seconds_today": 0, "balance": "You need to have a pocket watcher badge to view this.", "badges": [], "created_at": "2025-07-31T08:33:38.183-04:00", "updated_at": "2025-08-19T14:40:27.473-04:00", "avatar": "https://secure.gravatar.com/avatar/bb0eb33ec1283d1af0cfde9878613c04.jpg?s=512&d=https%3A%2F%2Fa.slack-edge.com%2Fdf10d%2Fimg%2Favatars%2Fava_0012-512.png", "custom_css": null}, {"id": 20201, "slack_id": "U07A7KNEVLH", "display_name": "Mo", "bio": null, "projects_count": 0, "devlogs_count": 0, "votes_count": 0, "ships_count": 0, "projects": [], "coding_time_seconds": 0, "coding_time_seconds_today": 0, "balance": "You need to have a pocket watcher badge to view this.", "badges": [], "created_at": "2025-07-31T08:57:16.808-04:00", "updated_at": "2025-07-31T09:58:56.924-04:00", "avatar": "https://avatars.slack-edge.com/2024-06-26/7350398718305_7f751d504ddc84a8d777_original.jpg", "custom_css": null}, {"id": 20202, "slack_id": "U0990214E2C", "display_name": "Amka", "bio": null, "projects_count": 0, "devlogs_count": 3, "votes_count": 52, "ships_count": 0, "projects": [], "coding_time_seconds": 68053, "coding_time_seconds_today": 0, "balance": "You need to have a pocket watcher badge to view this.", "badges": [], "created_at": "2025-07-31T09:13:50.027-04:00", "updated_at": "2025-09-13T01:08:41.131-04:00", "avatar": "https://avatars.slack-edge.com/2025-07-31/9299416874689_8a2872d2bddc191c0b28_original.png", "custom_css": null}, {"id": 20203, "slack_id": "U098DH2CXS8", "display_name": "jack haesen", "bio": null, "projects_count": 0, "devlogs_count": 0, "votes_count": 0, "ships_count": 0, "projects": [], "coding_time_seconds": 4556, "coding_time_seconds_today": 0, "balance": "You need to have a pocket watcher badge to view this.", "badges": [], "created_at": "2025-07-31T09:30:00.639-04:00", "updated_at": "2025-07-31T09:58:57.143-04:00", "avatar": "https://secure.gravatar.com/avatar/51ef622340d7804ccb710bce4756f578.jpg?s=512&d=https%3A%2F%2Fa.slack-edge.com%2Fdf10d%2Fimg%2Favatars%2Fava_0008-512.png", "custom_css": null}, {"id": 20204, "slack_id": "U09908JLNU8", "display_name": "xuerui fu", "bio": null, "projects_count": 0, "devlogs_count": 0, "votes_count": 0, "ships_count": 0, "projects": [], "coding_time_seconds": 14099, "coding_time_seconds_today": 0, "balance": "You need to have a pocket watcher badge to view this.", "badges": [], "created_at": "2025-07-31T09:55:48.853-04:00", "updated_at": "2025-08-01T04:40:18.266-04:00", "avatar": "https://avatars.slack-edge.com/2025-07-31/9306322757936_eed44d0c476dc3732f28_original.png", "custom_css": null}, {"id": 20205, "slack_id": "U098AJ75W7P", "display_name": "kathiravan", "bio": "I am baymax student from india", "projects_count": 0, "devlogs_count": 0, "votes_count": 0, "ships_count": 0, "projects": [], "coding_time_seconds": 56391, "coding_time_seconds_today": 0, "balance": "You need to have a pocket watcher badge to view this.", "badges": [], "created_at": "2025-07-31T10:08:31.949-04:00", "updated_at": "2025-08-20T03:53:35.207-04:00", "avatar": "https://secure.gravatar.com/avatar/8206ed4105427ead1392e9ab37a9ffdd.jpg?s=512&d=https%3A%2F%2Fa.slack-edge.com%2Fdf10d%2Fimg%2Favatars%2Fava_0002-512.png", "custom_css": null}], "pagination": {"page": 1006, "pages": 1192, "count": 23828, "items": 20}}