{"users": [{"id": 20226, "slack_id": "U098C4B2W1K", "display_name": "Doraemon", "bio": null, "projects_count": 1, "devlogs_count": 0, "votes_count": 1, "ships_count": 0, "projects": [{"id": 10595, "title": "Calculator with Java", "devlogs_count": 0, "created_at": "2025-08-08T15:18:36.191-04:00"}], "coding_time_seconds": 373, "coding_time_seconds_today": 0, "balance": "You need to have a pocket watcher badge to view this.", "badges": [], "created_at": "2025-07-31T14:37:31.909-04:00", "updated_at": "2025-08-13T17:40:55.118-04:00", "avatar": "https://avatars.slack-edge.com/2025-07-31/9284188268885_c007cf75b0e274521df4_original.png", "custom_css": null}, {"id": 20227, "slack_id": "U098E7G73R8", "display_name": "Fynn", "bio": "Pablo", "projects_count": 0, "devlogs_count": 0, "votes_count": 0, "ships_count": 0, "projects": [], "coding_time_seconds": 79164, "coding_time_seconds_today": 0, "balance": "You need to have a pocket watcher badge to view this.", "badges": [], "created_at": "2025-07-31T14:55:11.481-04:00", "updated_at": "2025-08-01T07:01:06.610-04:00", "avatar": "https://secure.gravatar.com/avatar/aa67d8d9e2e33e8048c0aa3e07cf835a.jpg?s=512&d=https%3A%2F%2Fa.slack-edge.com%2Fdf10d%2Fimg%2Favatars%2Fava_0019-512.png", "custom_css": null}, {"id": 20228, "slack_id": "U097LF46K1B", "display_name": "mugisha", "bio": "", "projects_count": 0, "devlogs_count": 0, "votes_count": 0, "ships_count": 0, "projects": [], "coding_time_seconds": 0, "coding_time_seconds_today": 0, "balance": "You need to have a pocket watcher badge to view this.", "badges": [], "created_at": "2025-07-31T15:02:25.078-04:00", "updated_at": "2025-07-31T18:12:36.018-04:00", "avatar": "https://avatars.slack-edge.com/2025-07-26/9258530238517_205792c383e26cefaebb_original.png", "custom_css": null}, {"id": 20229, "slack_id": "U098VN72CMP", "display_name": "plnsrvy", "bio": null, "projects_count": 0, "devlogs_count": 0, "votes_count": 0, "ships_count": 0, "projects": [], "coding_time_seconds": 0, "coding_time_seconds_today": 0, "balance": "You need to have a pocket watcher badge to view this.", "badges": [], "created_at": "2025-07-31T15:08:09.849-04:00", "updated_at": "2025-09-10T09:48:20.261-04:00", "avatar": "https://avatars.slack-edge.com/2025-09-10/9496614089060_e48bac42b316ae5a383e_original.jpg", "custom_css": null}, {"id": 20230, "slack_id": "U098FMEPTM2", "display_name": "shabeer", "bio": null, "projects_count": 0, "devlogs_count": 0, "votes_count": 0, "ships_count": 0, "projects": [], "coding_time_seconds": 0, "coding_time_seconds_today": 0, "balance": "You need to have a pocket watcher badge to view this.", "badges": [], "created_at": "2025-07-31T15:10:49.886-04:00", "updated_at": "2025-07-31T17:19:52.435-04:00", "avatar": "https://secure.gravatar.com/avatar/02b7f7ea68c502c28ba16385b753fe16.jpg?s=512&d=https%3A%2F%2Fa.slack-edge.com%2Fdf10d%2Fimg%2Favatars%2Fava_0013-512.png", "custom_css": null}, {"id": 20231, "slack_id": "U097ZETRJ7R", "display_name": "Rupert", "bio": null, "projects_count": 0, "devlogs_count": 0, "votes_count": 0, "ships_count": 0, "projects": [], "coding_time_seconds": 0, "coding_time_seconds_today": 0, "balance": "You need to have a pocket watcher badge to view this.", "badges": [], "created_at": "2025-07-31T15:21:54.076-04:00", "updated_at": "2025-07-31T17:19:52.516-04:00", "avatar": "https://secure.gravatar.com/avatar/ab48e57a2ad93a032a4bfe08aab9b3e7.jpg?s=512&d=https%3A%2F%2Fa.slack-edge.com%2Fdf10d%2Fimg%2Favatars%2Fava_0024-512.png", "custom_css": null}, {"id": 20232, "slack_id": "U098CC0UGE9", "display_name": "soapdog", "bio": null, "projects_count": 0, "devlogs_count": 0, "votes_count": 0, "ships_count": 0, "projects": [], "coding_time_seconds": 76112, "coding_time_seconds_today": 0, "balance": "You need to have a pocket watcher badge to view this.", "badges": [], "created_at": "2025-07-31T15:27:41.436-04:00", "updated_at": "2025-07-31T17:19:52.601-04:00", "avatar": "https://secure.gravatar.com/avatar/86d78d53c72319008f55dd116a690050.jpg?s=512&d=https%3A%2F%2Fa.slack-edge.com%2Fdf10d%2Fimg%2Favatars%2Fava_0022-512.png", "custom_css": null}, {"id": 20233, "slack_id": "U098B480GF5", "display_name": "JkaiGaming7905", "bio": null, "projects_count": 0, "devlogs_count": 0, "votes_count": 0, "ships_count": 0, "projects": [], "coding_time_seconds": 0, "coding_time_seconds_today": 0, "balance": "You need to have a pocket watcher badge to view this.", "badges": [], "created_at": "2025-07-31T16:12:06.187-04:00", "updated_at": "2025-07-31T17:19:52.718-04:00", "avatar": "https://secure.gravatar.com/avatar/cf66ba006b97b74b6398e855913d71aa.jpg?s=512&d=https%3A%2F%2Fa.slack-edge.com%2Fdf10d%2Fimg%2Favatars%2Fava_0018-512.png", "custom_css": null}, {"id": 20234, "slack_id": "U098CL3P30V", "display_name": "Snehitha", "bio": null, "projects_count": 0, "devlogs_count": 0, "votes_count": 0, "ships_count": 0, "projects": [], "coding_time_seconds": 0, "coding_time_seconds_today": 0, "balance": "You need to have a pocket watcher badge to view this.", "badges": [], "created_at": "2025-07-31T16:23:20.329-04:00", "updated_at": "2025-08-11T00:58:30.255-04:00", "avatar": "https://secure.gravatar.com/avatar/db35db4c257efbb0ec6442838daee4cd.jpg?s=512&d=https%3A%2F%2Fa.slack-edge.com%2Fdf10d%2Fimg%2Favatars%2Fava_0004-512.png", "custom_css": null}, {"id": 20235, "slack_id": "U098B6QCA6P", "display_name": "Abhirath Agasanakoppa", "bio": null, "projects_count": 0, "devlogs_count": 0, "votes_count": 0, "ships_count": 0, "projects": [], "coding_time_seconds": 36159, "coding_time_seconds_today": 0, "balance": "You need to have a pocket watcher badge to view this.", "badges": [], "created_at": "2025-07-31T16:29:12.716-04:00", "updated_at": "2025-07-31T17:19:52.920-04:00", "avatar": "https://avatars.slack-edge.com/2025-07-31/9284738514085_6235d01663a25ea51bb8_original.png", "custom_css": null}, {"id": 20236, "slack_id": "U098BD96P51", "display_name": "Loris Populaire", "bio": null, "projects_count": 0, "devlogs_count": 0, "votes_count": 0, "ships_count": 0, "projects": [], "coding_time_seconds": 0, "coding_time_seconds_today": 0, "balance": "You need to have a pocket watcher badge to view this.", "badges": [], "created_at": "2025-07-31T17:14:24.895-04:00", "updated_at": "2025-07-31T17:19:53.036-04:00", "avatar": "https://avatars.slack-edge.com/2025-07-31/9288376068868_f6dd05c556b7797615ae_original.png", "custom_css": null}, {"id": 20237, "slack_id": "U098EVBAAEN", "display_name": "Joseph Stein", "bio": null, "projects_count": 2, "devlogs_count": 4, "votes_count": 31, "ships_count": 2, "projects": [{"id": 13212, "title": "Christmas list", "devlogs_count": 2, "created_at": "2025-09-11T19:29:57.417-04:00"}, {"id": 13214, "title": "RMMaker (rubiks cube art maker)", "devlogs_count": 2, "created_at": "2025-09-11T20:04:03.494-04:00"}], "coding_time_seconds": 20416, "coding_time_seconds_today": 0, "balance": "You need to have a pocket watcher badge to view this.", "badges": [{"name": "Maiden Voyage", "text": "you shipped your first project! the journey begins...", "icon": "\ud83d\udea2"}], "created_at": "2025-07-31T17:21:26.069-04:00", "updated_at": "2025-09-22T17:43:20.824-04:00", "avatar": "https://secure.gravatar.com/avatar/7d975ef2dc981772635fe3f9c6d53824.jpg?s=512&d=https%3A%2F%2Fa.slack-edge.com%2Fdf10d%2Fimg%2Favatars%2Fava_0011-512.png", "custom_css": null}, {"id": 20238, "slack_id": "U098WF29KPB", "display_name": "SHU RA", "bio": null, "projects_count": 2, "devlogs_count": 0, "votes_count": 0, "ships_count": 0, "projects": [{"id": 9450, "title": "AI-powered disaster alert and evacuation app", "devlogs_count": 0, "created_at": "2025-08-01T09:08:51.520-04:00"}, {"id": 9451, "title": "AI-powered disaster alert and evacuation app", "devlogs_count": 0, "created_at": "2025-08-01T09:08:51.522-04:00"}], "coding_time_seconds": 1648, "coding_time_seconds_today": 0, "balance": "You need to have a pocket watcher badge to view this.", "badges": [], "created_at": "2025-07-31T17:38:09.002-04:00", "updated_at": "2025-08-01T08:44:36.065-04:00", "avatar": "https://avatars.slack-edge.com/2025-07-31/9272220678951_3001310e3ed9fb9114d1_original.jpg", "custom_css": null}, {"id": 20239, "slack_id": "U098WFVV49F", "display_name": "Jessica Xu", "bio": null, "projects_count": 0, "devlogs_count": 0, "votes_count": 0, "ships_count": 0, "projects": [], "coding_time_seconds": 0, "coding_time_seconds_today": 0, "balance": "You need to have a pocket watcher badge to view this.", "badges": [], "created_at": "2025-07-31T17:40:33.202-04:00", "updated_at": "2025-07-31T21:57:44.863-04:00", "avatar": "https://secure.gravatar.com/avatar/b7badd3eb25478327eda12cf4eaa68aa.jpg?s=512&d=https%3A%2F%2Fa.slack-edge.com%2Fdf10d%2Fimg%2Favatars%2Fava_0015-512.png", "custom_css": null}, {"id": 20240, "slack_id": "U09806UUSKZ", "display_name": "DHS Coding Club", "bio": null, "projects_count": 0, "devlogs_count": 0, "votes_count": 0, "ships_count": 0, "projects": [], "coding_time_seconds": 0, "coding_time_seconds_today": 0, "balance": "You need to have a pocket watcher badge to view this.", "badges": [], "created_at": "2025-07-31T17:41:03.648-04:00", "updated_at": "2025-07-31T21:57:44.947-04:00", "avatar": "https://avatars.slack-edge.com/2025-07-31/9272233562071_82157535862ee5b1b14e_original.png", "custom_css": null}, {"id": 20241, "slack_id": "U09806X7P63", "display_name": "Jayden Huang", "bio": null, "projects_count": 0, "devlogs_count": 0, "votes_count": 0, "ships_count": 0, "projects": [], "coding_time_seconds": 0, "coding_time_seconds_today": 0, "balance": "You need to have a pocket watcher badge to view this.", "badges": [], "created_at": "2025-07-31T17:41:42.091-04:00", "updated_at": "2025-08-20T21:48:37.141-04:00", "avatar": "https://avatars.slack-edge.com/2025-08-20/9408526953776_e3281bc1b8ac21e64d71_original.png", "custom_css": null}, {"id": 20242, "slack_id": "U0992RYPSKS", "display_name": "Milosch F\u00fcllgraf", "bio": null, "projects_count": 0, "devlogs_count": 0, "votes_count": 0, "ships_count": 0, "projects": [], "coding_time_seconds": 160392, "coding_time_seconds_today": 0, "balance": "You need to have a pocket watcher badge to view this.", "badges": [], "created_at": "2025-07-31T17:51:17.339-04:00", "updated_at": "2025-08-04T12:09:46.708-04:00", "avatar": "https://secure.gravatar.com/avatar/37bbaa4991bc3869899bfa0d1d73367b.jpg?s=512&d=https%3A%2F%2Fa.slack-edge.com%2Fdf10d%2Fimg%2Favatars%2Fava_0022-512.png", "custom_css": null}, {"id": 20243, "slack_id": "U098BGSRA9H", "display_name": "olivia", "bio": null, "projects_count": 0, "devlogs_count": 0, "votes_count": 0, "ships_count": 0, "projects": [], "coding_time_seconds": 0, "coding_time_seconds_today": 0, "balance": "You need to have a pocket watcher badge to view this.", "badges": [], "created_at": "2025-07-31T17:51:38.818-04:00", "updated_at": "2025-07-31T21:57:45.243-04:00", "avatar": "https://secure.gravatar.com/avatar/c43235705b0fdbc5788803bb6f0f8527.jpg?s=512&d=https%3A%2F%2Fa.slack-edge.com%2Fdf10d%2Fimg%2Favatars%2Fava_0022-512.png", "custom_css": null}, {"id": 20244, "slack_id": "U098F6EJ34J", "display_name": "Trevon Nguyen", "bio": null, "projects_count": 0, "devlogs_count": 0, "votes_count": 0, "ships_count": 0, "projects": [], "coding_time_seconds": 63705, "coding_time_seconds_today": 0, "balance": "You need to have a pocket watcher badge to view this.", "badges": [], "created_at": "2025-07-31T18:12:13.929-04:00", "updated_at": "2025-09-20T15:13:17.937-04:00", "avatar": "https://secure.gravatar.com/avatar/b8799098304166fb328dae0ec753b59b.jpg?s=512&d=https%3A%2F%2Fa.slack-edge.com%2Fdf10d%2Fimg%2Favatars%2Fava_0013-512.png", "custom_css": null}, {"id": 20245, "slack_id": "U08AD27RX5J", "display_name": "Egor Nastenko", "bio": null, "projects_count": 0, "devlogs_count": 0, "votes_count": 0, "ships_count": 0, "projects": [], "coding_time_seconds": 120, "coding_time_seconds_today": 0, "balance": "You need to have a pocket watcher badge to view this.", "badges": [], "created_at": "2025-07-31T18:18:58.312-04:00", "updated_at": "2025-07-31T21:57:45.425-04:00", "avatar": "https://avatars.slack-edge.com/2025-07-31/9283825900835_d0d6ea3dc6f3bf3d36f2_original.jpg", "custom_css": null}], "pagination": {"page": 1008, "pages": 1192, "count": 23828, "items": 20}}