{"users": [{"id": 20246, "slack_id": "U098F91FJSE", "display_name": "Hakil", "bio": null, "projects_count": 2, "devlogs_count": 9, "votes_count": 66, "ships_count": 2, "projects": [{"id": 9497, "title": "Rchat", "devlogs_count": 6, "created_at": "2025-08-01T13:10:15.693-04:00"}, {"id": 12567, "title": "RustCrack", "devlogs_count": 3, "created_at": "2025-08-29T19:17:41.306-04:00"}], "coding_time_seconds": 319186, "coding_time_seconds_today": 0, "balance": "You need to have a pocket watcher badge to view this.", "badges": [], "created_at": "2025-07-31T18:44:27.857-04:00", "updated_at": "2025-08-06T16:27:37.137-04:00", "avatar": "https://secure.gravatar.com/avatar/66900b515f4a49e96d8c0705be5424f7.jpg?s=512&d=https%3A%2F%2Fa.slack-edge.com%2Fdf10d%2Fimg%2Favatars%2Fava_0022-512.png", "custom_css": null}, {"id": 20247, "slack_id": "U098CA2C4CW", "display_name": "Megha Mishra", "bio": null, "projects_count": 0, "devlogs_count": 0, "votes_count": 0, "ships_count": 0, "projects": [], "coding_time_seconds": 0, "coding_time_seconds_today": 0, "balance": "You need to have a pocket watcher badge to view this.", "badges": [], "created_at": "2025-07-31T18:49:39.355-04:00", "updated_at": "2025-07-31T21:57:49.639-04:00", "avatar": "https://avatars.slack-edge.com/2025-07-31/9283843122467_73b3877dc96d3767d45e_original.png", "custom_css": null}, {"id": 20248, "slack_id": "U09933XB6RW", "display_name": "Adi Takhar", "bio": null, "projects_count": 2, "devlogs_count": 3, "votes_count": 20, "ships_count": 1, "projects": [{"id": 10321, "title": "Open CV motion detection Turret", "devlogs_count": 0, "created_at": "2025-08-05T22:03:22.971-04:00"}, {"id": 10331, "title": "Arduino-Based Parking Assisstant", "devlogs_count": 2, "created_at": "2025-08-06T00:18:24.097-04:00"}], "coding_time_seconds": 29567, "coding_time_seconds_today": 0, "balance": "You need to have a pocket watcher badge to view this.", "badges": [], "created_at": "2025-07-31T19:06:41.587-04:00", "updated_at": "2025-08-06T20:52:33.948-04:00", "avatar": "https://secure.gravatar.com/avatar/e0453cf35cd54a156729d2703c83dbe7.jpg?s=512&d=https%3A%2F%2Fa.slack-edge.com%2Fdf10d%2Fimg%2Favatars%2Fava_0018-512.png", "custom_css": null}, {"id": 20249, "slack_id": "U098DD40WVB", "display_name": "Shaina Gupta", "bio": null, "projects_count": 0, "devlogs_count": 0, "votes_count": 0, "ships_count": 0, "projects": [], "coding_time_seconds": 0, "coding_time_seconds_today": 0, "balance": "You need to have a pocket watcher badge to view this.", "badges": [], "created_at": "2025-07-31T19:46:35.719-04:00", "updated_at": "2025-07-31T21:57:49.846-04:00", "avatar": "https://secure.gravatar.com/avatar/179c35cde576469fd557cf2d02f88fca.jpg?s=512&d=https%3A%2F%2Fa.slack-edge.com%2Fdf10d%2Fimg%2Favatars%2Fava_0001-512.png", "custom_css": null}, {"id": 20250, "slack_id": "U098FFCCYAE", "display_name": "EggQueen", "bio": null, "projects_count": 0, "devlogs_count": 0, "votes_count": 0, "ships_count": 0, "projects": [], "coding_time_seconds": 0, "coding_time_seconds_today": 0, "balance": "You need to have a pocket watcher badge to view this.", "badges": [], "created_at": "2025-07-31T19:50:51.532-04:00", "updated_at": "2025-07-31T21:57:49.943-04:00", "avatar": "https://secure.gravatar.com/avatar/e9795117d0641d1d60aab1e83741d787.jpg?s=512&d=https%3A%2F%2Fa.slack-edge.com%2Fdf10d%2Fimg%2Favatars%2Fava_0011-512.png", "custom_css": null}, {"id": 20251, "slack_id": "U098FFLAZPC", "display_name": "Arpa Gms", "bio": null, "projects_count": 0, "devlogs_count": 0, "votes_count": 0, "ships_count": 0, "projects": [], "coding_time_seconds": 0, "coding_time_seconds_today": 0, "balance": "You need to have a pocket watcher badge to view this.", "badges": [], "created_at": "2025-07-31T19:54:59.238-04:00", "updated_at": "2025-07-31T21:57:50.058-04:00", "avatar": "https://avatars.slack-edge.com/2025-07-31/9288930442580_7058288d775cb2f29f81_original.jpg", "custom_css": null}, {"id": 20252, "slack_id": "U072Y91MEJZ", "display_name": "Creative0708", "bio": null, "projects_count": 0, "devlogs_count": 0, "votes_count": 0, "ships_count": 0, "projects": [], "coding_time_seconds": 0, "coding_time_seconds_today": 0, "balance": "You need to have a pocket watcher badge to view this.", "badges": [], "created_at": "2025-07-31T19:56:14.366-04:00", "updated_at": "2025-07-31T19:56:28.501-04:00", "avatar": "https://avatars.slack-edge.com/2024-05-11/7103102763587_7583d7decf0471e61121_original.png", "custom_css": null}, {"id": 20253, "slack_id": "U098CJLL14N", "display_name": "Daniel Meilhon", "bio": null, "projects_count": 0, "devlogs_count": 0, "votes_count": 0, "ships_count": 0, "projects": [], "coding_time_seconds": 0, "coding_time_seconds_today": 0, "balance": "You need to have a pocket watcher badge to view this.", "badges": [], "created_at": "2025-07-31T20:29:10.995-04:00", "updated_at": "2025-07-31T21:57:54.257-04:00", "avatar": "https://secure.gravatar.com/avatar/a83e470dabce76af2b6cc0bdb5166d4c.jpg?s=512&d=https%3A%2F%2Fa.slack-edge.com%2Fdf10d%2Fimg%2Favatars%2Fava_0002-512.png", "custom_css": null}, {"id": 20254, "slack_id": "U098H3B4C0L", "display_name": "Omar Ron", "bio": null, "projects_count": 0, "devlogs_count": 0, "votes_count": 0, "ships_count": 0, "projects": [], "coding_time_seconds": 0, "coding_time_seconds_today": 0, "balance": "You need to have a pocket watcher badge to view this.", "badges": [], "created_at": "2025-07-31T21:11:59.455-04:00", "updated_at": "2025-08-06T18:00:49.425-04:00", "avatar": "https://avatars.slack-edge.com/2025-07-31/9287811272322_6cd4c7a6836fce341ac6_original.png", "custom_css": null}, {"id": 20255, "slack_id": "U098GNZBWJG", "display_name": "alban", "bio": null, "projects_count": 0, "devlogs_count": 0, "votes_count": 0, "ships_count": 0, "projects": [], "coding_time_seconds": 0, "coding_time_seconds_today": 0, "balance": "You need to have a pocket watcher badge to view this.", "badges": [], "created_at": "2025-07-31T21:21:47.624-04:00", "updated_at": "2025-07-31T21:57:54.453-04:00", "avatar": "https://secure.gravatar.com/avatar/cd1893f2e4b45a31dd6a5605d3ef3912.jpg?s=512&d=https%3A%2F%2Fa.slack-edge.com%2Fdf10d%2Fimg%2Favatars%2Fava_0006-512.png", "custom_css": null}, {"id": 20256, "slack_id": "U09669591J4", "display_name": "Rehan Jalali", "bio": null, "projects_count": 0, "devlogs_count": 0, "votes_count": 0, "ships_count": 0, "projects": [], "coding_time_seconds": 0, "coding_time_seconds_today": 0, "balance": "You need to have a pocket watcher badge to view this.", "badges": [], "created_at": "2025-07-31T22:23:53.359-04:00", "updated_at": "2025-08-01T03:59:36.616-04:00", "avatar": "https://secure.gravatar.com/avatar/6ded3eb3ea449a15e3de74ff782fdb5d.jpg?s=512&d=https%3A%2F%2Fa.slack-edge.com%2Fdf10d%2Fimg%2Favatars%2Fava_0005-512.png", "custom_css": null}, {"id": 20257, "slack_id": "U0993NXNC64", "display_name": "Joanne Park", "bio": null, "projects_count": 0, "devlogs_count": 0, "votes_count": 0, "ships_count": 0, "projects": [], "coding_time_seconds": 0, "coding_time_seconds_today": 0, "balance": "You need to have a pocket watcher badge to view this.", "badges": [], "created_at": "2025-07-31T22:38:19.405-04:00", "updated_at": "2025-08-19T21:48:10.293-04:00", "avatar": "https://avatars.slack-edge.com/2025-08-19/9380834430038_a4d95ee2f413bbd309fc_original.jpg", "custom_css": null}, {"id": 20258, "slack_id": "U0993PE4SN4", "display_name": "Angela Jara", "bio": null, "projects_count": 0, "devlogs_count": 0, "votes_count": 0, "ships_count": 0, "projects": [], "coding_time_seconds": 66860, "coding_time_seconds_today": 0, "balance": "You need to have a pocket watcher badge to view this.", "badges": [], "created_at": "2025-07-31T22:48:07.756-04:00", "updated_at": "2025-08-01T03:59:36.806-04:00", "avatar": "https://avatars.slack-edge.com/2025-07-31/9285131274726_f5ebd9ef682d40c4b07f_original.jpg", "custom_css": null}, {"id": 20259, "slack_id": "U08US91Q80Y", "display_name": "cpy", "bio": null, "projects_count": 1, "devlogs_count": 2, "votes_count": 1, "ships_count": 0, "projects": [{"id": 9761, "title": "Discord Bot", "devlogs_count": 2, "created_at": "2025-08-02T07:37:11.071-04:00"}], "coding_time_seconds": 58267, "coding_time_seconds_today": 0, "balance": "You need to have a pocket watcher badge to view this.", "badges": [], "created_at": "2025-07-31T22:53:06.240-04:00", "updated_at": "2025-08-08T23:11:24.131-04:00", "avatar": "https://secure.gravatar.com/avatar/edecab8d53b9d17277ed2032eb0e68b3.jpg?s=512&d=https%3A%2F%2Fa.slack-edge.com%2Fdf10d%2Fimg%2Favatars%2Fava_0019-512.png", "custom_css": null}, {"id": 20260, "slack_id": "U098CK1MVMZ", "display_name": "iTwosAle", "bio": null, "projects_count": 0, "devlogs_count": 0, "votes_count": 0, "ships_count": 0, "projects": [], "coding_time_seconds": 0, "coding_time_seconds_today": 0, "balance": "You need to have a pocket watcher badge to view this.", "badges": [], "created_at": "2025-07-31T22:56:32.601-04:00", "updated_at": "2025-08-01T03:59:36.984-04:00", "avatar": "https://secure.gravatar.com/avatar/b83ba630c1b2f9aabd58c17f186f66e5.jpg?s=512&d=https%3A%2F%2Fa.slack-edge.com%2Fdf10d%2Fimg%2Favatars%2Fava_0005-512.png", "custom_css": null}, {"id": 20261, "slack_id": "U098HH4CN0L", "display_name": "Door", "bio": null, "projects_count": 0, "devlogs_count": 0, "votes_count": 0, "ships_count": 0, "projects": [], "coding_time_seconds": 168325, "coding_time_seconds_today": 0, "balance": "You need to have a pocket watcher badge to view this.", "badges": [], "created_at": "2025-07-31T23:16:03.088-04:00", "updated_at": "2025-08-01T03:59:37.072-04:00", "avatar": "https://secure.gravatar.com/avatar/401243b92951ad2d0fc8c623487ea02c.jpg?s=512&d=https%3A%2F%2Fa.slack-edge.com%2Fdf10d%2Fimg%2Favatars%2Fava_0018-512.png", "custom_css": null}, {"id": 20262, "slack_id": "U098HKPG3V2", "display_name": "Jahaan", "bio": null, "projects_count": 0, "devlogs_count": 0, "votes_count": 0, "ships_count": 0, "projects": [], "coding_time_seconds": 0, "coding_time_seconds_today": 0, "balance": "You need to have a pocket watcher badge to view this.", "badges": [], "created_at": "2025-07-31T23:47:01.167-04:00", "updated_at": "2025-08-01T03:59:37.164-04:00", "avatar": "https://secure.gravatar.com/avatar/3e5180f44aa38606a3958d1f12a8b29a.jpg?s=512&d=https%3A%2F%2Fa.slack-edge.com%2Fdf10d%2Fimg%2Favatars%2Fava_0023-512.png", "custom_css": null}, {"id": 20263, "slack_id": "U098CUU6U0K", "display_name": "Charles", "bio": null, "projects_count": 0, "devlogs_count": 0, "votes_count": 0, "ships_count": 0, "projects": [], "coding_time_seconds": 0, "coding_time_seconds_today": 0, "balance": "You need to have a pocket watcher badge to view this.", "badges": [], "created_at": "2025-08-01T00:44:38.101-04:00", "updated_at": "2025-08-01T03:59:37.256-04:00", "avatar": "https://secure.gravatar.com/avatar/d58baa074509308d1f6084c21643ba57.jpg?s=512&d=https%3A%2F%2Fa.slack-edge.com%2Fdf10d%2Fimg%2Favatars%2Fava_0008-512.png", "custom_css": null}, {"id": 20264, "slack_id": "U098GDYEH2N", "display_name": "Isaias Gorocica Elizondo", "bio": null, "projects_count": 5, "devlogs_count": 16, "votes_count": 32, "ships_count": 2, "projects": [{"id": 9533, "title": "HackMePlz", "devlogs_count": 4, "created_at": "2025-08-01T15:35:53.574-04:00"}, {"id": 10802, "title": "FormCreator", "devlogs_count": 1, "created_at": "2025-08-11T00:49:22.649-04:00"}, {"id": 11044, "title": "PomoDork", "devlogs_count": 6, "created_at": "2025-08-12T16:38:19.979-04:00"}, {"id": 10289, "title": "Blog", "devlogs_count": 0, "created_at": "2025-08-05T14:47:12.545-04:00"}, {"id": 10396, "title": "BrainDump", "devlogs_count": 5, "created_at": "2025-08-06T14:54:49.129-04:00"}], "coding_time_seconds": 177773, "coding_time_seconds_today": 0, "balance": "You need to have a pocket watcher badge to view this.", "badges": [], "created_at": "2025-08-01T00:47:20.424-04:00", "updated_at": "2025-08-07T16:33:24.197-04:00", "avatar": "https://secure.gravatar.com/avatar/8e0984ee39bc316bb3f0a88cb5001c7e.jpg?s=512&d=https%3A%2F%2Fa.slack-edge.com%2Fdf10d%2Fimg%2Favatars%2Fava_0016-512.png", "custom_css": null}, {"id": 20265, "slack_id": "U099465U0HE", "display_name": "Ahaana K", "bio": null, "projects_count": 0, "devlogs_count": 0, "votes_count": 0, "ships_count": 0, "projects": [], "coding_time_seconds": 0, "coding_time_seconds_today": 0, "balance": "You need to have a pocket watcher badge to view this.", "badges": [], "created_at": "2025-08-01T01:12:33.047-04:00", "updated_at": "2025-08-01T04:32:31.436-04:00", "avatar": "https://secure.gravatar.com/avatar/1e7bb24615c082689bfc6cadf98ff954.jpg?s=512&d=https%3A%2F%2Fa.slack-edge.com%2Fdf10d%2Fimg%2Favatars%2Fava_0005-512.png", "custom_css": null}], "pagination": {"page": 1009, "pages": 1192, "count": 23828, "items": 20}}