{"users": [{"id": 2001, "slack_id": "U091H4AHSPQ", "display_name": "Sujas", "bio": null, "projects_count": 0, "devlogs_count": 0, "votes_count": 0, "ships_count": 0, "projects": [], "coding_time_seconds": 41841, "coding_time_seconds_today": 0, "balance": "You need to have a pocket watcher badge to view this.", "badges": [], "created_at": "2025-06-16T14:30:59.859-04:00", "updated_at": "2025-07-03T19:20:15.231-04:00", "avatar": "https://secure.gravatar.com/avatar/f3142f9353197c5386f5d18e83100289.jpg?s=512&d=https%3A%2F%2Fa.slack-edge.com%2Fdf10d%2Fimg%2Favatars%2Fava_0006-512.png", "custom_css": null}, {"id": 2002, "slack_id": "U091QBA0HCL", "display_name": "neko 3 pain and misery", "bio": "Hiii, this is my account now -@felix", "projects_count": 0, "devlogs_count": 0, "votes_count": 0, "ships_count": 0, "projects": [], "coding_time_seconds": 0, "coding_time_seconds_today": 0, "balance": "You need to have a pocket watcher badge to view this.", "badges": [], "created_at": "2025-06-16T14:31:02.940-04:00", "updated_at": "2025-07-03T19:20:15.507-04:00", "avatar": "https://secure.gravatar.com/avatar/e34b64a130dfa1d794c45a761851e91c.jpg?s=512&d=https%3A%2F%2Fa.slack-edge.com%2Fdf10d%2Fimg%2Favatars%2Fava_0013-512.png", "custom_css": null}, {"id": 2003, "slack_id": "U091QBA210U", "display_name": "Nachiket Bidarkundi", "bio": null, "projects_count": 0, "devlogs_count": 0, "votes_count": 0, "ships_count": 0, "projects": [], "coding_time_seconds": 17358, "coding_time_seconds_today": 0, "balance": "You need to have a pocket watcher badge to view this.", "badges": [], "created_at": "2025-06-16T14:32:06.786-04:00", "updated_at": "2025-07-03T19:20:15.777-04:00", "avatar": "https://secure.gravatar.com/avatar/2d4d7335b38b9ee3cad778c5eab0d146.jpg?s=512&d=https%3A%2F%2Fa.slack-edge.com%2Fdf10d%2Fimg%2Favatars%2Fava_0016-512.png", "custom_css": null}, {"id": 2004, "slack_id": "U0922FZPS65", "display_name": "Jyoth Mani Ravi Sankar", "bio": null, "projects_count": 0, "devlogs_count": 0, "votes_count": 0, "ships_count": 0, "projects": [], "coding_time_seconds": 0, "coding_time_seconds_today": 0, "balance": "You need to have a pocket watcher badge to view this.", "badges": [], "created_at": "2025-06-16T14:32:19.269-04:00", "updated_at": "2025-07-03T19:20:16.068-04:00", "avatar": "https://secure.gravatar.com/avatar/61df47a69bb52d8d7dae1f0ed4e8d1e2.jpg?s=512&d=https%3A%2F%2Fa.slack-edge.com%2Fdf10d%2Fimg%2Favatars%2Fava_0018-512.png", "custom_css": null}, {"id": 2005, "slack_id": "U091H4AG4B0", "display_name": "Ytemeriku", "bio": null, "projects_count": 0, "devlogs_count": 0, "votes_count": 0, "ships_count": 0, "projects": [], "coding_time_seconds": 36847, "coding_time_seconds_today": 0, "balance": "You need to have a pocket watcher badge to view this.", "badges": [], "created_at": "2025-06-16T14:32:42.822-04:00", "updated_at": "2025-07-03T19:20:16.349-04:00", "avatar": "https://avatars.slack-edge.com/2025-06-16/9051192621206_ced3318ade40bcf38558_original.jpg", "custom_css": null}, {"id": 2006, "slack_id": "U091H1N4YNA", "display_name": "Alivin Shiva", "bio": null, "projects_count": 0, "devlogs_count": 0, "votes_count": 0, "ships_count": 0, "projects": [], "coding_time_seconds": 0, "coding_time_seconds_today": 0, "balance": "You need to have a pocket watcher badge to view this.", "badges": [], "created_at": "2025-06-16T14:32:56.558-04:00", "updated_at": "2025-07-03T19:20:16.615-04:00", "avatar": "https://secure.gravatar.com/avatar/06b9088d3dcd54f4942f4ad844c03dff.jpg?s=512&d=https%3A%2F%2Fa.slack-edge.com%2Fdf10d%2Fimg%2Favatars%2Fava_0008-512.png", "custom_css": null}, {"id": 2007, "slack_id": "U091H4S93HU", "display_name": "Christian Z", "bio": null, "projects_count": 0, "devlogs_count": 0, "votes_count": 0, "ships_count": 0, "projects": [], "coding_time_seconds": 0, "coding_time_seconds_today": 0, "balance": "You need to have a pocket watcher badge to view this.", "badges": [], "created_at": "2025-06-16T14:32:58.821-04:00", "updated_at": "2025-07-03T19:20:16.892-04:00", "avatar": "https://secure.gravatar.com/avatar/f1021c4647014e40218b46b31dda06df.jpg?s=512&d=https%3A%2F%2Fa.slack-edge.com%2Fdf10d%2Fimg%2Favatars%2Fava_0024-512.png", "custom_css": null}, {"id": 2008, "slack_id": "U091H4XLZ7G", "display_name": "Machindra Mane", "bio": null, "projects_count": 0, "devlogs_count": 0, "votes_count": 0, "ships_count": 0, "projects": [], "coding_time_seconds": 9671, "coding_time_seconds_today": 0, "balance": "You need to have a pocket watcher badge to view this.", "badges": [], "created_at": "2025-06-16T14:33:00.763-04:00", "updated_at": "2025-07-03T19:20:17.163-04:00", "avatar": "https://avatars.slack-edge.com/2025-06-16/9051075633827_f66dc07c5c94d8ee73b4_original.png", "custom_css": null}, {"id": 2009, "slack_id": "U0823J6HMTP", "display_name": "Csaba", "bio": null, "projects_count": 3, "devlogs_count": 3, "votes_count": 21, "ships_count": 2, "projects": [{"id": 9869, "title": "Expense Tracker App", "devlogs_count": 2, "created_at": "2025-08-02T14:59:29.726-04:00"}, {"id": 13358, "title": "Flipper Bird", "devlogs_count": 1, "created_at": "2025-09-14T13:34:19.839-04:00"}, {"id": 1304, "title": "AquaRobot", "devlogs_count": 0, "created_at": "2025-06-18T07:15:15.906-04:00"}], "coding_time_seconds": 72954, "coding_time_seconds_today": 0, "balance": "You need to have a pocket watcher badge to view this.", "badges": [{"name": "Maiden Voyage", "text": "you shipped your first project! the journey begins...", "icon": "\ud83d\udea2"}], "created_at": "2025-06-16T14:33:12.146-04:00", "updated_at": "2025-09-10T22:52:09.958-04:00", "avatar": "https://secure.gravatar.com/avatar/5e1d8cba972ed660d983e7d1094645ce.jpg?s=512&d=https%3A%2F%2Fa.slack-edge.com%2Fdf10d%2Fimg%2Favatars%2Fava_0001-512.png", "custom_css": null}, {"id": 2010, "slack_id": "U091H49RNK0", "display_name": "Anubhav Jaiswal", "bio": null, "projects_count": 0, "devlogs_count": 0, "votes_count": 0, "ships_count": 0, "projects": [], "coding_time_seconds": 95793, "coding_time_seconds_today": 0, "balance": "You need to have a pocket watcher badge to view this.", "badges": [], "created_at": "2025-06-16T14:33:13.548-04:00", "updated_at": "2025-07-03T19:20:17.753-04:00", "avatar": "https://secure.gravatar.com/avatar/6a141d2f74dc06686b7c4874b8224f8d.jpg?s=512&d=https%3A%2F%2Fa.slack-edge.com%2Fdf10d%2Fimg%2Favatars%2Fava_0006-512.png", "custom_css": null}, {"id": 2011, "slack_id": "U091GQ9RN9Z", "display_name": "Princi Jain", "bio": null, "projects_count": 0, "devlogs_count": 0, "votes_count": 0, "ships_count": 0, "projects": [], "coding_time_seconds": 0, "coding_time_seconds_today": 0, "balance": "You need to have a pocket watcher badge to view this.", "badges": [], "created_at": "2025-06-16T14:33:19.251-04:00", "updated_at": "2025-07-03T19:20:18.023-04:00", "avatar": "https://avatars.slack-edge.com/2025-06-16/9042715347351_35fe6b653248cb7de3cf_original.png", "custom_css": null}, {"id": 2012, "slack_id": "U091H1W5ZJ7", "display_name": "Flokkq", "bio": null, "projects_count": 0, "devlogs_count": 0, "votes_count": 0, "ships_count": 0, "projects": [], "coding_time_seconds": 0, "coding_time_seconds_today": 0, "balance": "You need to have a pocket watcher badge to view this.", "badges": [], "created_at": "2025-06-16T14:33:24.264-04:00", "updated_at": "2025-07-03T19:20:18.293-04:00", "avatar": "https://secure.gravatar.com/avatar/43e6ef4d368a771de23baad93c5a4f12.jpg?s=512&d=https%3A%2F%2Fa.slack-edge.com%2Fdf10d%2Fimg%2Favatars%2Fava_0012-512.png", "custom_css": null}, {"id": 2013, "slack_id": "U091N6VPWCV", "display_name": "FPL", "bio": null, "projects_count": 0, "devlogs_count": 0, "votes_count": 0, "ships_count": 0, "projects": [], "coding_time_seconds": 0, "coding_time_seconds_today": 0, "balance": "You need to have a pocket watcher badge to view this.", "badges": [], "created_at": "2025-06-16T14:33:27.086-04:00", "updated_at": "2025-07-03T19:20:18.566-04:00", "avatar": "https://secure.gravatar.com/avatar/de1707f1724ec3df0f6db9709201134c.jpg?s=512&d=https%3A%2F%2Fa.slack-edge.com%2Fdf10d%2Fimg%2Favatars%2Fava_0007-512.png", "custom_css": null}, {"id": 2014, "slack_id": "U0918K4NFL7", "display_name": "icimax", "bio": null, "projects_count": 1, "devlogs_count": 6, "votes_count": 3, "ships_count": 1, "projects": [{"id": 165, "title": "Paxo Store", "devlogs_count": 6, "created_at": "2025-06-16T14:46:31.898-04:00"}], "coding_time_seconds": 162960, "coding_time_seconds_today": 0, "balance": "You need to have a pocket watcher badge to view this.", "badges": [{"name": "Maiden Voyage", "text": "you shipped your first project! the journey begins...", "icon": "\ud83d\udea2"}], "created_at": "2025-06-16T14:33:27.179-04:00", "updated_at": "2025-09-10T22:52:10.101-04:00", "avatar": "https://secure.gravatar.com/avatar/e5bedae54a3067426ab0308397da35dc.jpg?s=512&d=https%3A%2F%2Fa.slack-edge.com%2Fdf10d%2Fimg%2Favatars%2Fava_0019-512.png", "custom_css": null}, {"id": 2015, "slack_id": "U091Q7P7WCU", "display_name": "Nandan Varma", "bio": null, "projects_count": 0, "devlogs_count": 0, "votes_count": 0, "ships_count": 0, "projects": [], "coding_time_seconds": 0, "coding_time_seconds_today": 0, "balance": "You need to have a pocket watcher badge to view this.", "badges": [], "created_at": "2025-06-16T14:33:31.701-04:00", "updated_at": "2025-07-03T19:20:19.111-04:00", "avatar": "https://secure.gravatar.com/avatar/bb96232e022161b6250173864ee43558.jpg?s=512&d=https%3A%2F%2Fa.slack-edge.com%2Fdf10d%2Fimg%2Favatars%2Fava_0002-512.png", "custom_css": null}, {"id": 2016, "slack_id": "U0918KY03GX", "display_name": "Kelly Streight", "bio": null, "projects_count": 0, "devlogs_count": 0, "votes_count": 0, "ships_count": 0, "projects": [], "coding_time_seconds": 0, "coding_time_seconds_today": 0, "balance": "You need to have a pocket watcher badge to view this.", "badges": [], "created_at": "2025-06-16T14:33:35.106-04:00", "updated_at": "2025-07-03T19:20:19.383-04:00", "avatar": "https://secure.gravatar.com/avatar/b0e04648b0ef78b82dd96f0d88dc2f0f.jpg?s=512&d=https%3A%2F%2Fa.slack-edge.com%2Fdf10d%2Fimg%2Favatars%2Fava_0011-512.png", "custom_css": null}, {"id": 2017, "slack_id": "U0918LJAE9M", "display_name": "Dhruv Kumar", "bio": null, "projects_count": 0, "devlogs_count": 0, "votes_count": 0, "ships_count": 0, "projects": [], "coding_time_seconds": 54735, "coding_time_seconds_today": 0, "balance": "You need to have a pocket watcher badge to view this.", "badges": [], "created_at": "2025-06-16T14:33:35.844-04:00", "updated_at": "2025-07-03T19:20:19.644-04:00", "avatar": "https://secure.gravatar.com/avatar/4ae96f23d1bb14a7d25047cda6a9f9e4.jpg?s=512&d=https%3A%2F%2Fa.slack-edge.com%2Fdf10d%2Fimg%2Favatars%2Fava_0006-512.png", "custom_css": null}, {"id": 2018, "slack_id": "U0918LT1AMV", "display_name": "Kevin Delugan", "bio": null, "projects_count": 0, "devlogs_count": 0, "votes_count": 0, "ships_count": 0, "projects": [], "coding_time_seconds": 57752, "coding_time_seconds_today": 0, "balance": "You need to have a pocket watcher badge to view this.", "badges": [], "created_at": "2025-06-16T14:33:44.422-04:00", "updated_at": "2025-07-03T19:20:19.928-04:00", "avatar": "https://secure.gravatar.com/avatar/9460ac6116043a791498130620aaa726.jpg?s=512&d=https%3A%2F%2Fa.slack-edge.com%2Fdf10d%2Fimg%2Favatars%2Fava_0004-512.png", "custom_css": null}, {"id": 2019, "slack_id": "U0918LG8PQX", "display_name": "Benjamin van Pham", "bio": null, "projects_count": 2, "devlogs_count": 8, "votes_count": 7, "ships_count": 1, "projects": [{"id": 338, "title": "ALTERSHAPER Discord Bot", "devlogs_count": 2, "created_at": "2025-06-16T18:23:53.898-04:00"}, {"id": 5613, "title": "ALTER EGO: Before", "devlogs_count": 6, "created_at": "2025-07-06T15:02:54.759-04:00"}], "coding_time_seconds": 368612, "coding_time_seconds_today": 0, "balance": "You need to have a pocket watcher badge to view this.", "badges": [{"name": "Maiden Voyage", "text": "you shipped your first project! the journey begins...", "icon": "\ud83d\udea2"}], "created_at": "2025-06-16T14:33:53.985-04:00", "updated_at": "2025-09-10T22:52:10.217-04:00", "avatar": "https://avatars.slack-edge.com/2025-06-16/9080489346144_015636b376f052c920a4_original.jpg", "custom_css": null}, {"id": 2020, "slack_id": "U091PRQSVCJ", "display_name": "Ritik", "bio": null, "projects_count": 0, "devlogs_count": 0, "votes_count": 0, "ships_count": 0, "projects": [], "coding_time_seconds": 3342, "coding_time_seconds_today": 0, "balance": "You need to have a pocket watcher badge to view this.", "badges": [], "created_at": "2025-06-16T14:33:58.416-04:00", "updated_at": "2025-07-03T19:20:20.549-04:00", "avatar": "https://secure.gravatar.com/avatar/f142ad13eb486db642badfe42d3313e6.jpg?s=512&d=https%3A%2F%2Fa.slack-edge.com%2Fdf10d%2Fimg%2Favatars%2Fava_0016-512.png", "custom_css": null}], "pagination": {"page": 101, "pages": 1192, "count": 23828, "items": 20}}