{"users": [{"id": 20266, "slack_id": "U098GH2K07L", "display_name": "Arnav Raheja", "bio": null, "projects_count": 0, "devlogs_count": 0, "votes_count": 0, "ships_count": 0, "projects": [], "coding_time_seconds": 48423, "coding_time_seconds_today": 0, "balance": "You need to have a pocket watcher badge to view this.", "badges": [], "created_at": "2025-08-01T01:19:57.455-04:00", "updated_at": "2025-08-01T03:59:41.579-04:00", "avatar": "https://secure.gravatar.com/avatar/96daf34c453172c89c4f080f5dfa2ee5.jpg?s=512&d=https%3A%2F%2Fa.slack-edge.com%2Fdf10d%2Fimg%2Favatars%2Fava_0013-512.png", "custom_css": null}, {"id": 20267, "slack_id": "U098GH2UJN6", "display_name": "Jack S", "bio": null, "projects_count": 0, "devlogs_count": 0, "votes_count": 0, "ships_count": 0, "projects": [], "coding_time_seconds": 3630, "coding_time_seconds_today": 0, "balance": "You need to have a pocket watcher badge to view this.", "badges": [], "created_at": "2025-08-01T01:21:06.578-04:00", "updated_at": "2025-08-03T14:53:29.643-04:00", "avatar": "https://secure.gravatar.com/avatar/8f04f3accbbb9d30798407eae3ffdb9b.jpg?s=512&d=https%3A%2F%2Fa.slack-edge.com%2Fdf10d%2Fimg%2Favatars%2Fava_0023-512.png", "custom_css": null}, {"id": 20268, "slack_id": "U098D3AGQNR", "display_name": "Oliver Luxton", "bio": null, "projects_count": 0, "devlogs_count": 0, "votes_count": 0, "ships_count": 0, "projects": [], "coding_time_seconds": 315379, "coding_time_seconds_today": 0, "balance": "You need to have a pocket watcher badge to view this.", "badges": [], "created_at": "2025-08-01T01:23:55.313-04:00", "updated_at": "2025-08-11T00:54:58.805-04:00", "avatar": "https://secure.gravatar.com/avatar/f081bbe9669efd4a4dd4922d7977f3b4.jpg?s=512&d=https%3A%2F%2Fa.slack-edge.com%2Fdf10d%2Fimg%2Favatars%2Fava_0018-512.png", "custom_css": null}, {"id": 20269, "slack_id": "U0981NKJJBZ", "display_name": "Trusha", "bio": null, "projects_count": 0, "devlogs_count": 0, "votes_count": 0, "ships_count": 0, "projects": [], "coding_time_seconds": 0, "coding_time_seconds_today": 0, "balance": "You need to have a pocket watcher badge to view this.", "badges": [], "created_at": "2025-08-01T02:04:15.506-04:00", "updated_at": "2025-08-01T03:59:41.868-04:00", "avatar": "https://secure.gravatar.com/avatar/991fb4dcae3fd4c56ac67775a3bc1313.jpg?s=512&d=https%3A%2F%2Fa.slack-edge.com%2Fdf10d%2Fimg%2Favatars%2Fava_0011-512.png", "custom_css": null}, {"id": 20270, "slack_id": "U098GML8N7L", "display_name": "Muskan Singh", "bio": null, "projects_count": 0, "devlogs_count": 28, "votes_count": 0, "ships_count": 0, "projects": [], "coding_time_seconds": 437408, "coding_time_seconds_today": 0, "balance": "You need to have a pocket watcher badge to view this.", "badges": [], "created_at": "2025-08-01T02:04:33.084-04:00", "updated_at": "2025-08-30T01:47:17.940-04:00", "avatar": "https://secure.gravatar.com/avatar/957207a9439c44f7f6345e3cd11f909a.jpg?s=512&d=https%3A%2F%2Fa.slack-edge.com%2Fdf10d%2Fimg%2Favatars%2Fava_0012-512.png", "custom_css": null}, {"id": 20271, "slack_id": "U098J2PF6HJ", "display_name": "Ch Qasim Raza", "bio": null, "projects_count": 0, "devlogs_count": 0, "votes_count": 0, "ships_count": 0, "projects": [], "coding_time_seconds": 0, "coding_time_seconds_today": 0, "balance": "You need to have a pocket watcher badge to view this.", "badges": [], "created_at": "2025-08-01T02:09:32.559-04:00", "updated_at": "2025-08-01T03:59:42.063-04:00", "avatar": "https://secure.gravatar.com/avatar/b68fa370955db83e576012b315e2924c.jpg?s=512&d=https%3A%2F%2Fa.slack-edge.com%2Fdf10d%2Fimg%2Favatars%2Fava_0005-512.png", "custom_css": null}, {"id": 20272, "slack_id": "U098Y6SRZG9", "display_name": "Aidan Hong", "bio": null, "projects_count": 0, "devlogs_count": 0, "votes_count": 0, "ships_count": 0, "projects": [], "coding_time_seconds": 0, "coding_time_seconds_today": 0, "balance": "You need to have a pocket watcher badge to view this.", "badges": [], "created_at": "2025-08-01T02:22:11.069-04:00", "updated_at": "2025-08-01T03:59:42.160-04:00", "avatar": "https://secure.gravatar.com/avatar/e65b34de3a5e123bff095881f2f61604.jpg?s=512&d=https%3A%2F%2Fa.slack-edge.com%2Fdf10d%2Fimg%2Favatars%2Fava_0005-512.png", "custom_css": null}, {"id": 20273, "slack_id": "U098DPYJUH4", "display_name": "Johnny Hsieh", "bio": null, "projects_count": 0, "devlogs_count": 0, "votes_count": 0, "ships_count": 0, "projects": [], "coding_time_seconds": 0, "coding_time_seconds_today": 0, "balance": "You need to have a pocket watcher badge to view this.", "badges": [], "created_at": "2025-08-01T02:22:30.967-04:00", "updated_at": "2025-08-01T03:59:42.244-04:00", "avatar": "https://avatars.slack-edge.com/2025-07-31/9285815219414_595451d5d80fef2c3927_original.png", "custom_css": null}, {"id": 20274, "slack_id": "U098GPY0AHG", "display_name": "yassin", "bio": "", "projects_count": 0, "devlogs_count": 0, "votes_count": 0, "ships_count": 0, "projects": [], "coding_time_seconds": 103252, "coding_time_seconds_today": 0, "balance": "You need to have a pocket watcher badge to view this.", "badges": [], "created_at": "2025-08-01T02:26:01.919-04:00", "updated_at": "2025-08-01T03:59:42.327-04:00", "avatar": "https://avatars.slack-edge.com/2025-08-01/9290241888068_9800e1f32b7a8039470a_original.jpg", "custom_css": null}, {"id": 20275, "slack_id": "U09826WRTP1", "display_name": "RIYAN RAMTEKE", "bio": null, "projects_count": 0, "devlogs_count": 0, "votes_count": 0, "ships_count": 0, "projects": [], "coding_time_seconds": 47976, "coding_time_seconds_today": 0, "balance": "You need to have a pocket watcher badge to view this.", "badges": [], "created_at": "2025-08-01T03:28:15.236-04:00", "updated_at": "2025-08-14T09:48:53.022-04:00", "avatar": "https://avatars.slack-edge.com/2025-08-14/9354895624644_9f202028dec04b4b6948_original.jpg", "custom_css": null}, {"id": 20276, "slack_id": "U098JHDQ8KW", "display_name": "PIYUSH", "bio": null, "projects_count": 0, "devlogs_count": 0, "votes_count": 0, "ships_count": 0, "projects": [], "coding_time_seconds": 0, "coding_time_seconds_today": 0, "balance": "You need to have a pocket watcher badge to view this.", "badges": [], "created_at": "2025-08-01T03:55:55.672-04:00", "updated_at": "2025-08-01T03:59:46.561-04:00", "avatar": "https://secure.gravatar.com/avatar/508255a960215c5961f5c68151e1c754.jpg?s=512&d=https%3A%2F%2Fa.slack-edge.com%2Fdf10d%2Fimg%2Favatars%2Fava_0015-512.png", "custom_css": null}, {"id": 20277, "slack_id": "U098F4C7V1T", "display_name": "Vojt\u011bch Vaidi\u0161", "bio": null, "projects_count": 2, "devlogs_count": 0, "votes_count": 5, "ships_count": 0, "projects": [{"id": 9426, "title": "Python Soundboard ", "devlogs_count": 0, "created_at": "2025-08-01T06:41:05.323-04:00"}, {"id": 9427, "title": "Python Soundboard ", "devlogs_count": 0, "created_at": "2025-08-01T06:41:05.319-04:00"}], "coding_time_seconds": 2008, "coding_time_seconds_today": 0, "balance": "You need to have a pocket watcher badge to view this.", "badges": [], "created_at": "2025-08-01T04:17:51.288-04:00", "updated_at": "2025-08-01T09:59:14.057-04:00", "avatar": "https://avatars.slack-edge.com/2025-08-01/9287163501365_96d1202e1962d7f580a7_original.jpg", "custom_css": null}, {"id": 20278, "slack_id": "U098E9EB8LW", "display_name": "Ella", "bio": null, "projects_count": 0, "devlogs_count": 0, "votes_count": 0, "ships_count": 0, "projects": [], "coding_time_seconds": 0, "coding_time_seconds_today": 0, "balance": "You need to have a pocket watcher badge to view this.", "badges": [], "created_at": "2025-08-01T04:20:53.586-04:00", "updated_at": "2025-08-01T09:59:14.142-04:00", "avatar": "https://secure.gravatar.com/avatar/e404cbe667ee31866ac05f77ded32271.jpg?s=512&d=https%3A%2F%2Fa.slack-edge.com%2Fdf10d%2Fimg%2Favatars%2Fava_0012-512.png", "custom_css": null}, {"id": 20279, "slack_id": "U092ZHGT2N6", "display_name": "Esra Zaidi", "bio": null, "projects_count": 0, "devlogs_count": 0, "votes_count": 0, "ships_count": 0, "projects": [], "coding_time_seconds": 6887, "coding_time_seconds_today": 0, "balance": "You need to have a pocket watcher badge to view this.", "badges": [], "created_at": "2025-08-01T04:21:29.751-04:00", "updated_at": "2025-08-03T00:43:14.015-04:00", "avatar": "https://secure.gravatar.com/avatar/63a1a4f0e17fb3acf40228f57271a1ef.jpg?s=512&d=https%3A%2F%2Fa.slack-edge.com%2Fdf10d%2Fimg%2Favatars%2Fava_0000-512.png", "custom_css": null}, {"id": 20280, "slack_id": "U09953YT21W", "display_name": "Zsigmond", "bio": null, "projects_count": 0, "devlogs_count": 0, "votes_count": 0, "ships_count": 0, "projects": [], "coding_time_seconds": 0, "coding_time_seconds_today": 0, "balance": "You need to have a pocket watcher badge to view this.", "badges": [], "created_at": "2025-08-01T05:01:24.224-04:00", "updated_at": "2025-08-01T09:59:18.411-04:00", "avatar": "https://secure.gravatar.com/avatar/87d95d505e1f800f2df42ff3305c3f1d.jpg?s=512&d=https%3A%2F%2Fa.slack-edge.com%2Fdf10d%2Fimg%2Favatars%2Fava_0012-512.png", "custom_css": null}, {"id": 20281, "slack_id": "U098HP3V6TC", "display_name": "Yashfeen Qaisar", "bio": null, "projects_count": 0, "devlogs_count": 0, "votes_count": 0, "ships_count": 0, "projects": [], "coding_time_seconds": 0, "coding_time_seconds_today": 0, "balance": "You need to have a pocket watcher badge to view this.", "badges": [], "created_at": "2025-08-01T05:57:57.101-04:00", "updated_at": "2025-08-01T09:59:18.522-04:00", "avatar": "https://secure.gravatar.com/avatar/af4e63abf869cd30bc38a45aa6d27529.jpg?s=512&d=https%3A%2F%2Fa.slack-edge.com%2Fdf10d%2Fimg%2Favatars%2Fava_0005-512.png", "custom_css": null}, {"id": 20282, "slack_id": "U098Z0CHNQZ", "display_name": "Abhi", "bio": null, "projects_count": 0, "devlogs_count": 0, "votes_count": 1, "ships_count": 0, "projects": [], "coding_time_seconds": 0, "coding_time_seconds_today": 0, "balance": "You need to have a pocket watcher badge to view this.", "badges": [], "created_at": "2025-08-01T05:58:25.280-04:00", "updated_at": "2025-08-07T06:25:22.365-04:00", "avatar": "https://secure.gravatar.com/avatar/ae3e372a0839bb5b54fd35f6d5095e34.jpg?s=512&d=https%3A%2F%2Fa.slack-edge.com%2Fdf10d%2Fimg%2Favatars%2Fava_0018-512.png", "custom_css": null}, {"id": 20283, "slack_id": "U098FM6E0JH", "display_name": "Arnav Ola", "bio": "I LOVE TO DO NEW", "projects_count": 5, "devlogs_count": 1, "votes_count": 20, "ships_count": 1, "projects": [{"id": 9437, "title": "ChatBot", "devlogs_count": 0, "created_at": "2025-08-01T08:01:59.680-04:00"}, {"id": 9676, "title": "Flappy Bird ", "devlogs_count": 0, "created_at": "2025-08-02T02:18:43.340-04:00"}, {"id": 9677, "title": "Flappy Bird ", "devlogs_count": 0, "created_at": "2025-08-02T02:18:43.439-04:00"}, {"id": 11502, "title": "Showcasing", "devlogs_count": 1, "created_at": "2025-08-16T12:58:30.191-04:00"}, {"id": 12259, "title": "Pweb ", "devlogs_count": 0, "created_at": "2025-08-25T01:11:02.468-04:00"}], "coding_time_seconds": 75323, "coding_time_seconds_today": 0, "balance": "You need to have a pocket watcher badge to view this.", "badges": [], "created_at": "2025-08-01T06:28:27.106-04:00", "updated_at": "2025-08-18T15:49:21.874-04:00", "avatar": "https://avatars.slack-edge.com/2025-08-18/9396159694912_2fbf26b8dafd5f0aaf9e_original.jpg", "custom_css": null}, {"id": 20284, "slack_id": "U098AEULMLG", "display_name": "goikei", "bio": null, "projects_count": 0, "devlogs_count": 0, "votes_count": 0, "ships_count": 0, "projects": [], "coding_time_seconds": 441091, "coding_time_seconds_today": 139, "balance": "You need to have a pocket watcher badge to view this.", "badges": [], "created_at": "2025-08-01T06:41:10.329-04:00", "updated_at": "2025-08-01T09:59:18.968-04:00", "avatar": "https://secure.gravatar.com/avatar/fcccddfd639941b1532353d35fd1419f.jpg?s=512&d=https%3A%2F%2Fa.slack-edge.com%2Fdf10d%2Fimg%2Favatars%2Fava_0020-512.png", "custom_css": null}, {"id": 20285, "slack_id": "U09835MFQCF", "display_name": "Gerg\u0151 Miszori", "bio": null, "projects_count": 0, "devlogs_count": 0, "votes_count": 5, "ships_count": 0, "projects": [], "coding_time_seconds": 240, "coding_time_seconds_today": 0, "balance": "You need to have a pocket watcher badge to view this.", "badges": [], "created_at": "2025-08-01T07:00:44.796-04:00", "updated_at": "2025-08-01T09:59:19.092-04:00", "avatar": "https://avatars.slack-edge.com/2025-08-01/9286606680051_03db99dbb6aaeeae5e08_original.png", "custom_css": null}], "pagination": {"page": 1010, "pages": 1192, "count": 23828, "items": 20}}