{"users": [{"id": 20286, "slack_id": "U098EHZDEKD", "display_name": "tgghfghfghfgh", "bio": null, "projects_count": 0, "devlogs_count": 0, "votes_count": 0, "ships_count": 0, "projects": [], "coding_time_seconds": 0, "coding_time_seconds_today": 0, "balance": "You need to have a pocket watcher badge to view this.", "badges": [], "created_at": "2025-08-01T07:05:12.735-04:00", "updated_at": "2025-08-01T09:59:19.199-04:00", "avatar": "https://secure.gravatar.com/avatar/e4321ce9c47cc5b762c89fba2cf6d911.jpg?s=512&d=https%3A%2F%2Fa.slack-edge.com%2Fdf10d%2Fimg%2Favatars%2Fava_0008-512.png", "custom_css": null}, {"id": 20287, "slack_id": "U098KFUE72Q", "display_name": "Gyanxkashyap", "bio": null, "projects_count": 0, "devlogs_count": 0, "votes_count": 0, "ships_count": 0, "projects": [], "coding_time_seconds": 0, "coding_time_seconds_today": 0, "balance": "You need to have a pocket watcher badge to view this.", "badges": [], "created_at": "2025-08-01T07:24:38.825-04:00", "updated_at": "2025-08-01T09:59:19.296-04:00", "avatar": "https://secure.gravatar.com/avatar/15cc33d25ddc2e730f03718c377b9ffd.jpg?s=512&d=https%3A%2F%2Fa.slack-edge.com%2Fdf10d%2Fimg%2Favatars%2Fava_0008-512.png", "custom_css": null}, {"id": 20288, "slack_id": "U098JA14ALS", "display_name": "NoorAhmed", "bio": null, "projects_count": 0, "devlogs_count": 0, "votes_count": 0, "ships_count": 0, "projects": [], "coding_time_seconds": 0, "coding_time_seconds_today": 0, "balance": "You need to have a pocket watcher badge to view this.", "badges": [], "created_at": "2025-08-01T08:16:00.939-04:00", "updated_at": "2025-08-01T09:59:19.415-04:00", "avatar": "https://secure.gravatar.com/avatar/717d9498d9e7081110ea18256d2789d2.jpg?s=512&d=https%3A%2F%2Fa.slack-edge.com%2Fdf10d%2Fimg%2Favatars%2Fava_0015-512.png", "custom_css": null}, {"id": 20289, "slack_id": "U098FBJS6NA", "display_name": "Dhruv", "bio": null, "projects_count": 0, "devlogs_count": 0, "votes_count": 0, "ships_count": 0, "projects": [], "coding_time_seconds": 0, "coding_time_seconds_today": 0, "balance": "You need to have a pocket watcher badge to view this.", "badges": [], "created_at": "2025-08-01T08:30:36.621-04:00", "updated_at": "2025-08-01T09:59:23.942-04:00", "avatar": "https://secure.gravatar.com/avatar/805045c00ed4af7deb6d89db9147c81a.jpg?s=512&d=https%3A%2F%2Fa.slack-edge.com%2Fdf10d%2Fimg%2Favatars%2Fava_0001-512.png", "custom_css": null}, {"id": 20290, "slack_id": "U098F2B4X9R", "display_name": "Sohaib_su", "bio": null, "projects_count": 0, "devlogs_count": 0, "votes_count": 0, "ships_count": 0, "projects": [], "coding_time_seconds": 0, "coding_time_seconds_today": 0, "balance": "You need to have a pocket watcher badge to view this.", "badges": [], "created_at": "2025-08-01T08:55:38.281-04:00", "updated_at": "2025-08-01T09:59:24.057-04:00", "avatar": "https://secure.gravatar.com/avatar/631b6301d06d379b2d98101e3df97696.jpg?s=512&d=https%3A%2F%2Fa.slack-edge.com%2Fdf10d%2Fimg%2Favatars%2Fava_0012-512.png", "custom_css": null}, {"id": 20291, "slack_id": "U098GAN942H", "display_name": "test", "bio": null, "projects_count": 0, "devlogs_count": 0, "votes_count": 0, "ships_count": 0, "projects": [], "coding_time_seconds": 0, "coding_time_seconds_today": 0, "balance": "You need to have a pocket watcher badge to view this.", "badges": [], "created_at": "2025-08-01T09:03:53.700-04:00", "updated_at": "2025-08-01T09:59:28.572-04:00", "avatar": "https://secure.gravatar.com/avatar/96294c5be984a22f3fe2f4eaea5184f2.jpg?s=512&d=https%3A%2F%2Fa.slack-edge.com%2Fdf10d%2Fimg%2Favatars%2Fava_0017-512.png", "custom_css": null}, {"id": 20292, "slack_id": "U09965C504Q", "display_name": "Genevieve Pala", "bio": null, "projects_count": 0, "devlogs_count": 0, "votes_count": 0, "ships_count": 0, "projects": [], "coding_time_seconds": 0, "coding_time_seconds_today": 0, "balance": "You need to have a pocket watcher badge to view this.", "badges": [], "created_at": "2025-08-01T09:11:41.974-04:00", "updated_at": "2025-08-01T09:59:28.699-04:00", "avatar": "https://avatars.slack-edge.com/2025-08-01/9306056174129_c1d01a4f9761e2d73455_original.jpg", "custom_css": null}, {"id": 20293, "slack_id": "U09734K3DJB", "display_name": "Tahir", "bio": null, "projects_count": 0, "devlogs_count": 0, "votes_count": 0, "ships_count": 0, "projects": [], "coding_time_seconds": 0, "coding_time_seconds_today": 0, "balance": "You need to have a pocket watcher badge to view this.", "badges": [], "created_at": "2025-08-01T09:16:39.147-04:00", "updated_at": "2025-08-14T02:17:41.253-04:00", "avatar": "https://secure.gravatar.com/avatar/4f2f1367f202df0addcc7c9bc52c7818.jpg?s=512&d=https%3A%2F%2Fa.slack-edge.com%2Fdf10d%2Fimg%2Favatars%2Fava_0009-512.png", "custom_css": null}, {"id": 20294, "slack_id": "U0996635EG0", "display_name": "Pranet Khetan", "bio": null, "projects_count": 0, "devlogs_count": 0, "votes_count": 0, "ships_count": 0, "projects": [], "coding_time_seconds": 0, "coding_time_seconds_today": 0, "balance": "You need to have a pocket watcher badge to view this.", "badges": [], "created_at": "2025-08-01T09:17:09.415-04:00", "updated_at": "2025-08-01T09:59:29.644-04:00", "avatar": "https://secure.gravatar.com/avatar/79f668cf4342427bfd282816f5412cef.jpg?s=512&d=https%3A%2F%2Fa.slack-edge.com%2Fdf10d%2Fimg%2Favatars%2Fava_0026-512.png", "custom_css": null}, {"id": 20295, "slack_id": "U0983TGEEJK", "display_name": "samliu (alt egrsfd)", "bio": null, "projects_count": 0, "devlogs_count": 0, "votes_count": 0, "ships_count": 0, "projects": [], "coding_time_seconds": 835, "coding_time_seconds_today": 0, "balance": "You need to have a pocket watcher badge to view this.", "badges": [], "created_at": "2025-08-01T09:42:53.618-04:00", "updated_at": "2025-08-01T09:59:29.738-04:00", "avatar": "https://secure.gravatar.com/avatar/ec4f2554b392be22f2cdbbfc6c298186.jpg?s=512&d=https%3A%2F%2Fa.slack-edge.com%2Fdf10d%2Fimg%2Favatars%2Fava_0014-512.png", "custom_css": null}, {"id": 20296, "slack_id": "U098FBVG7EX", "display_name": "samliu (alt wefds)", "bio": null, "projects_count": 0, "devlogs_count": 0, "votes_count": 0, "ships_count": 0, "projects": [], "coding_time_seconds": 0, "coding_time_seconds_today": 0, "balance": "You need to have a pocket watcher badge to view this.", "badges": [], "created_at": "2025-08-01T09:52:18.482-04:00", "updated_at": "2025-08-01T09:59:29.829-04:00", "avatar": "https://secure.gravatar.com/avatar/95b4bf969401f5932a53649a3697344e.jpg?s=512&d=https%3A%2F%2Fa.slack-edge.com%2Fdf10d%2Fimg%2Favatars%2Fava_0005-512.png", "custom_css": null}, {"id": 20297, "slack_id": "U0996D328GY", "display_name": "samliu (alt regfsd)", "bio": null, "projects_count": 0, "devlogs_count": 0, "votes_count": 0, "ships_count": 0, "projects": [], "coding_time_seconds": 0, "coding_time_seconds_today": 0, "balance": "You need to have a pocket watcher badge to view this.", "badges": [], "created_at": "2025-08-01T09:59:45.067-04:00", "updated_at": "2025-08-01T15:59:28.159-04:00", "avatar": "https://secure.gravatar.com/avatar/0030312c4dbe947280e5684b2ba6d2d4.jpg?s=512&d=https%3A%2F%2Fa.slack-edge.com%2Fdf10d%2Fimg%2Favatars%2Fava_0004-512.png", "custom_css": null}, {"id": 20298, "slack_id": "U098LA3DPV2", "display_name": "samliu (alt 3ergfdc)", "bio": null, "projects_count": 0, "devlogs_count": 0, "votes_count": 0, "ships_count": 0, "projects": [], "coding_time_seconds": 0, "coding_time_seconds_today": 0, "balance": "You need to have a pocket watcher badge to view this.", "badges": [], "created_at": "2025-08-01T10:05:07.504-04:00", "updated_at": "2025-08-01T15:59:28.261-04:00", "avatar": "https://secure.gravatar.com/avatar/5ae81b295ce9149bbafd2d51e5a0b817.jpg?s=512&d=https%3A%2F%2Fa.slack-edge.com%2Fdf10d%2Fimg%2Favatars%2Fava_0022-512.png", "custom_css": null}, {"id": 20299, "slack_id": "U0996ERHPCY", "display_name": "Camila", "bio": null, "projects_count": 0, "devlogs_count": 0, "votes_count": 0, "ships_count": 0, "projects": [], "coding_time_seconds": 0, "coding_time_seconds_today": 0, "balance": "You need to have a pocket watcher badge to view this.", "badges": [], "created_at": "2025-08-01T10:08:51.151-04:00", "updated_at": "2025-08-06T15:49:07.149-04:00", "avatar": "https://avatars.slack-edge.com/2025-08-06/9338610393808_fafa6002803049662e49_original.jpg", "custom_css": null}, {"id": 20300, "slack_id": "U098GN9U4MB", "display_name": "samliu (alt 23eqw0)", "bio": null, "projects_count": 0, "devlogs_count": 0, "votes_count": 0, "ships_count": 0, "projects": [], "coding_time_seconds": 0, "coding_time_seconds_today": 0, "balance": "You need to have a pocket watcher badge to view this.", "badges": [], "created_at": "2025-08-01T10:15:30.979-04:00", "updated_at": "2025-08-01T15:59:28.460-04:00", "avatar": "https://secure.gravatar.com/avatar/05604911ee2eaa15d5d8c799ecd2dc17.jpg?s=512&d=https%3A%2F%2Fa.slack-edge.com%2Fdf10d%2Fimg%2Favatars%2Fava_0007-512.png", "custom_css": null}, {"id": 20301, "slack_id": "U098LBHR3A8", "display_name": "shark", "bio": null, "projects_count": 0, "devlogs_count": 0, "votes_count": 0, "ships_count": 0, "projects": [], "coding_time_seconds": 0, "coding_time_seconds_today": 0, "balance": "You need to have a pocket watcher badge to view this.", "badges": [], "created_at": "2025-08-01T10:15:44.714-04:00", "updated_at": "2025-08-01T15:59:28.550-04:00", "avatar": "https://avatars.slack-edge.com/2025-08-01/9287576834131_38e7c73e8c5caa138126_original.png", "custom_css": null}, {"id": 20302, "slack_id": "U0996G6JSHW", "display_name": "samliu (alt erfsk)", "bio": null, "projects_count": 0, "devlogs_count": 0, "votes_count": 0, "ships_count": 0, "projects": [], "coding_time_seconds": 0, "coding_time_seconds_today": 0, "balance": "You need to have a pocket watcher badge to view this.", "badges": [], "created_at": "2025-08-01T10:17:24.921-04:00", "updated_at": "2025-08-01T15:59:28.634-04:00", "avatar": "https://secure.gravatar.com/avatar/d2d6093bd95cbe59eed48bb6b164486a.jpg?s=512&d=https%3A%2F%2Fa.slack-edge.com%2Fdf10d%2Fimg%2Favatars%2Fava_0004-512.png", "custom_css": null}, {"id": 20303, "slack_id": "U0990DJU66M", "display_name": "Gayatri", "bio": null, "projects_count": 0, "devlogs_count": 0, "votes_count": 0, "ships_count": 0, "projects": [], "coding_time_seconds": 0, "coding_time_seconds_today": 0, "balance": "You need to have a pocket watcher badge to view this.", "badges": [], "created_at": "2025-08-01T10:28:02.611-04:00", "updated_at": "2025-08-01T15:59:28.710-04:00", "avatar": "https://secure.gravatar.com/avatar/9d0da84b96ac9423d675874947c1e3f8.jpg?s=512&d=https%3A%2F%2Fa.slack-edge.com%2Fdf10d%2Fimg%2Favatars%2Fava_0022-512.png", "custom_css": null}, {"id": 20304, "slack_id": "U090A2MTQKY", "display_name": "Naalani_aby", "bio": null, "projects_count": 0, "devlogs_count": 0, "votes_count": 0, "ships_count": 0, "projects": [], "coding_time_seconds": 0, "coding_time_seconds_today": 0, "balance": "You need to have a pocket watcher badge to view this.", "badges": [], "created_at": "2025-08-01T10:33:30.908-04:00", "updated_at": "2025-08-01T15:59:28.811-04:00", "avatar": "https://secure.gravatar.com/avatar/3ea2872c4f107b322fbd86327b850644.jpg?s=512&d=https%3A%2F%2Fa.slack-edge.com%2Fdf10d%2Fimg%2Favatars%2Fava_0000-512.png", "custom_css": null}, {"id": 20305, "slack_id": "U09848LHAMV", "display_name": "Ngan Tran", "bio": null, "projects_count": 0, "devlogs_count": 0, "votes_count": 0, "ships_count": 0, "projects": [], "coding_time_seconds": 0, "coding_time_seconds_today": 0, "balance": "You need to have a pocket watcher badge to view this.", "badges": [], "created_at": "2025-08-01T10:44:39.471-04:00", "updated_at": "2025-08-01T15:59:28.917-04:00", "avatar": "https://secure.gravatar.com/avatar/8d1e7323508c55b0b186465756a9e2e1.jpg?s=512&d=https%3A%2F%2Fa.slack-edge.com%2Fdf10d%2Fimg%2Favatars%2Fava_0008-512.png", "custom_css": null}], "pagination": {"page": 1011, "pages": 1192, "count": 23828, "items": 20}}