{"users": [{"id": 20306, "slack_id": "U098FDE616W", "display_name": "Gursaaz Gund", "bio": null, "projects_count": 0, "devlogs_count": 0, "votes_count": 0, "ships_count": 0, "projects": [], "coding_time_seconds": 0, "coding_time_seconds_today": 0, "balance": "You need to have a pocket watcher badge to view this.", "badges": [], "created_at": "2025-08-01T10:47:08.738-04:00", "updated_at": "2025-08-24T18:05:49.979-04:00", "avatar": "https://secure.gravatar.com/avatar/80c55fa0e1dce1ab2842881b09af8e42.jpg?s=512&d=https%3A%2F%2Fa.slack-edge.com%2Fdf10d%2Fimg%2Favatars%2Fava_0007-512.png", "custom_css": null}, {"id": 20307, "slack_id": "U09848GG48P", "display_name": "Rajput5847", "bio": null, "projects_count": 0, "devlogs_count": 0, "votes_count": 0, "ships_count": 0, "projects": [], "coding_time_seconds": 13429, "coding_time_seconds_today": 0, "balance": "You need to have a pocket watcher badge to view this.", "badges": [], "created_at": "2025-08-01T10:47:09.788-04:00", "updated_at": "2025-08-01T15:59:29.099-04:00", "avatar": "https://avatars.slack-edge.com/2025-08-01/9288626828742_040af5226a848501397a_original.jpg", "custom_css": null}, {"id": 20308, "slack_id": "U098FPGBZFY", "display_name": "Moses Shriver", "bio": null, "projects_count": 1, "devlogs_count": 1, "votes_count": 1, "ships_count": 0, "projects": [{"id": 13726, "title": "Talkity", "devlogs_count": 1, "created_at": "2025-09-23T21:06:03.480-04:00"}], "coding_time_seconds": 5115, "coding_time_seconds_today": 0, "balance": "You need to have a pocket watcher badge to view this.", "badges": [], "created_at": "2025-08-01T10:48:44.329-04:00", "updated_at": "2025-09-22T21:51:25.927-04:00", "avatar": "https://secure.gravatar.com/avatar/9da2d76401b5444a9f6392df85c77e39.jpg?s=512&d=https%3A%2F%2Fa.slack-edge.com%2Fdf10d%2Fimg%2Favatars%2Fava_0004-512.png", "custom_css": null}, {"id": 20309, "slack_id": "U082JLA2NU9", "display_name": "Aadhya Sure", "bio": null, "projects_count": 0, "devlogs_count": 0, "votes_count": 0, "ships_count": 0, "projects": [], "coding_time_seconds": 120, "coding_time_seconds_today": 0, "balance": "You need to have a pocket watcher badge to view this.", "badges": [], "created_at": "2025-08-01T11:17:27.579-04:00", "updated_at": "2025-08-01T15:59:29.304-04:00", "avatar": "https://avatars.slack-edge.com/2025-08-01/9306781265441_abb3ba8373a7c9d1820b_original.jpg", "custom_css": null}, {"id": 20310, "slack_id": "U0984HX6EPR", "display_name": "Shivom", "bio": null, "projects_count": 0, "devlogs_count": 0, "votes_count": 0, "ships_count": 0, "projects": [], "coding_time_seconds": 0, "coding_time_seconds_today": 0, "balance": "You need to have a pocket watcher badge to view this.", "badges": [], "created_at": "2025-08-01T11:37:47.185-04:00", "updated_at": "2025-08-01T15:59:33.462-04:00", "avatar": "https://secure.gravatar.com/avatar/b0ac6b5ff900f54f59eea83b5a5ec8e6.jpg?s=512&d=https%3A%2F%2Fa.slack-edge.com%2Fdf10d%2Fimg%2Favatars%2Fava_0026-512.png", "custom_css": null}, {"id": 20311, "slack_id": "U098H720FGV", "display_name": "Anika", "bio": null, "projects_count": 0, "devlogs_count": 0, "votes_count": 0, "ships_count": 0, "projects": [], "coding_time_seconds": 859, "coding_time_seconds_today": 0, "balance": "You need to have a pocket watcher badge to view this.", "badges": [], "created_at": "2025-08-01T11:49:00.891-04:00", "updated_at": "2025-08-01T15:59:33.556-04:00", "avatar": "https://secure.gravatar.com/avatar/233ac8eeb09bcdd6e6d2e9f3d69825a1.jpg?s=512&d=https%3A%2F%2Fa.slack-edge.com%2Fdf10d%2Fimg%2Favatars%2Fava_0021-512.png", "custom_css": null}, {"id": 20312, "slack_id": "U098GGL6NP8", "display_name": "Gomana", "bio": null, "projects_count": 0, "devlogs_count": 0, "votes_count": 0, "ships_count": 0, "projects": [], "coding_time_seconds": 0, "coding_time_seconds_today": 0, "balance": "You need to have a pocket watcher badge to view this.", "badges": [], "created_at": "2025-08-01T11:54:32.123-04:00", "updated_at": "2025-08-01T15:59:33.657-04:00", "avatar": "https://secure.gravatar.com/avatar/c40f9646cdab58f493ef808f7990f579.jpg?s=512&d=https%3A%2F%2Fa.slack-edge.com%2Fdf10d%2Fimg%2Favatars%2Fava_0017-512.png", "custom_css": null}, {"id": 20313, "slack_id": "U096S4FMFJ7", "display_name": "AuraRiddle", "bio": null, "projects_count": 0, "devlogs_count": 0, "votes_count": 0, "ships_count": 0, "projects": [], "coding_time_seconds": 0, "coding_time_seconds_today": 0, "balance": "You need to have a pocket watcher badge to view this.", "badges": [], "created_at": "2025-08-01T11:56:50.171-04:00", "updated_at": "2025-08-01T15:59:33.751-04:00", "avatar": "https://secure.gravatar.com/avatar/24142c605399f14bc5ed2be3d9f206f9.jpg?s=512&d=https%3A%2F%2Fa.slack-edge.com%2Fdf10d%2Fimg%2Favatars%2Fava_0025-512.png", "custom_css": null}, {"id": 20314, "slack_id": "U098HANB0JZ", "display_name": "Vineet", "bio": null, "projects_count": 0, "devlogs_count": 0, "votes_count": 0, "ships_count": 0, "projects": [], "coding_time_seconds": 0, "coding_time_seconds_today": 0, "balance": "You need to have a pocket watcher badge to view this.", "badges": [], "created_at": "2025-08-01T12:02:03.498-04:00", "updated_at": "2025-08-01T15:59:33.834-04:00", "avatar": "https://secure.gravatar.com/avatar/c02fce48ed6d4c3876eb710f56af29c4.jpg?s=512&d=https%3A%2F%2Fa.slack-edge.com%2Fdf10d%2Fimg%2Favatars%2Fava_0020-512.png", "custom_css": null}, {"id": 20315, "slack_id": "U0984PHGD6K", "display_name": "Gomana", "bio": null, "projects_count": 0, "devlogs_count": 0, "votes_count": 0, "ships_count": 0, "projects": [], "coding_time_seconds": 0, "coding_time_seconds_today": 0, "balance": "You need to have a pocket watcher badge to view this.", "badges": [], "created_at": "2025-08-01T12:05:54.395-04:00", "updated_at": "2025-08-01T15:59:33.909-04:00", "avatar": "https://secure.gravatar.com/avatar/1e8a5ef220a3dd2478aee0929b939320.jpg?s=512&d=https%3A%2F%2Fa.slack-edge.com%2Fdf10d%2Fimg%2Favatars%2Fava_0024-512.png", "custom_css": null}, {"id": 20316, "slack_id": "U099768PG3A", "display_name": "Jacio", "bio": null, "projects_count": 0, "devlogs_count": 0, "votes_count": 0, "ships_count": 0, "projects": [], "coding_time_seconds": 0, "coding_time_seconds_today": 0, "balance": "You need to have a pocket watcher badge to view this.", "badges": [], "created_at": "2025-08-01T12:08:55.699-04:00", "updated_at": "2025-08-01T15:59:34.003-04:00", "avatar": "https://secure.gravatar.com/avatar/7f7a0f425909c8e5868d002a8f36a0df.jpg?s=512&d=https%3A%2F%2Fa.slack-edge.com%2Fdf10d%2Fimg%2Favatars%2Fava_0019-512.png", "custom_css": null}, {"id": 20317, "slack_id": "U098M2D9RUL", "display_name": "Nischal Rimal", "bio": null, "projects_count": 0, "devlogs_count": 0, "votes_count": 0, "ships_count": 0, "projects": [], "coding_time_seconds": 76749, "coding_time_seconds_today": 120, "balance": "You need to have a pocket watcher badge to view this.", "badges": [], "created_at": "2025-08-01T12:09:22.240-04:00", "updated_at": "2025-08-01T15:59:34.095-04:00", "avatar": "https://secure.gravatar.com/avatar/493dc7528caad79cc51318d9dac35985.jpg?s=512&d=https%3A%2F%2Fa.slack-edge.com%2Fdf10d%2Fimg%2Favatars%2Fava_0007-512.png", "custom_css": null}, {"id": 20318, "slack_id": "U0874RUSJGH", "display_name": "Akshat Prasanna", "bio": null, "projects_count": 0, "devlogs_count": 0, "votes_count": 0, "ships_count": 0, "projects": [], "coding_time_seconds": 0, "coding_time_seconds_today": 0, "balance": "You need to have a pocket watcher badge to view this.", "badges": [], "created_at": "2025-08-01T12:17:44.753-04:00", "updated_at": "2025-08-01T15:59:34.188-04:00", "avatar": "https://secure.gravatar.com/avatar/1eb599ad947cd7fc7223df002c4757f3.jpg?s=512&d=https%3A%2F%2Fa.slack-edge.com%2Fdf10d%2Fimg%2Favatars%2Fava_0005-512.png", "custom_css": null}, {"id": 20319, "slack_id": "U098G8Z0G3V", "display_name": "soraya", "bio": null, "projects_count": 0, "devlogs_count": 0, "votes_count": 0, "ships_count": 0, "projects": [], "coding_time_seconds": 0, "coding_time_seconds_today": 0, "balance": "You need to have a pocket watcher badge to view this.", "badges": [], "created_at": "2025-08-01T12:21:07.397-04:00", "updated_at": "2025-08-01T15:59:34.265-04:00", "avatar": "https://secure.gravatar.com/avatar/04a0356099740270872db334e879a7cd.jpg?s=512&d=https%3A%2F%2Fa.slack-edge.com%2Fdf10d%2Fimg%2Favatars%2Fava_0012-512.png", "custom_css": null}, {"id": 20320, "slack_id": "U098NCRGPEV", "display_name": "Ritu Maiti", "bio": null, "projects_count": 0, "devlogs_count": 0, "votes_count": 0, "ships_count": 0, "projects": [], "coding_time_seconds": 17037, "coding_time_seconds_today": 0, "balance": "You need to have a pocket watcher badge to view this.", "badges": [], "created_at": "2025-08-01T12:21:16.315-04:00", "updated_at": "2025-08-05T19:42:26.148-04:00", "avatar": "https://avatars.slack-edge.com/2025-08-01/9307152454897_f2a0a03a115cb93c770d_original.png", "custom_css": null}, {"id": 20321, "slack_id": "U098GN7UHLN", "display_name": "a", "bio": null, "projects_count": 0, "devlogs_count": 0, "votes_count": 0, "ships_count": 0, "projects": [], "coding_time_seconds": 0, "coding_time_seconds_today": 0, "balance": "You need to have a pocket watcher badge to view this.", "badges": [], "created_at": "2025-08-01T12:25:52.896-04:00", "updated_at": "2025-08-01T15:59:34.429-04:00", "avatar": "https://avatars.slack-edge.com/2025-08-01/9307176844049_7c3615b21af8dfac148e_original.png", "custom_css": null}, {"id": 20322, "slack_id": "U098M6CDECC", "display_name": "Rishabh Keshri", "bio": null, "projects_count": 0, "devlogs_count": 0, "votes_count": 0, "ships_count": 0, "projects": [], "coding_time_seconds": 141692, "coding_time_seconds_today": 0, "balance": "You need to have a pocket watcher badge to view this.", "badges": [], "created_at": "2025-08-01T12:35:49.945-04:00", "updated_at": "2025-08-01T15:59:34.528-04:00", "avatar": "https://secure.gravatar.com/avatar/345b45ea6637e6f606c6fa58b01c1e64.jpg?s=512&d=https%3A%2F%2Fa.slack-edge.com%2Fdf10d%2Fimg%2Favatars%2Fava_0012-512.png", "custom_css": null}, {"id": 20323, "slack_id": "U0997BETFLG", "display_name": "0w3nH", "bio": "", "projects_count": 1, "devlogs_count": 2, "votes_count": 17, "ships_count": 1, "projects": [{"id": 11287, "title": "PyPaint", "devlogs_count": 2, "created_at": "2025-08-14T15:36:37.339-04:00"}], "coding_time_seconds": 5908, "coding_time_seconds_today": 0, "balance": "You need to have a pocket watcher badge to view this.", "badges": [], "created_at": "2025-08-01T12:43:42.282-04:00", "updated_at": "2025-08-14T19:38:43.467-04:00", "avatar": "https://avatars.slack-edge.com/2025-08-03/9296077067410_0db1f8db7a62097ac6f6_original.png", "custom_css": null}, {"id": 20324, "slack_id": "U098GQUARGE", "display_name": "Moen", "bio": null, "projects_count": 0, "devlogs_count": 0, "votes_count": 0, "ships_count": 0, "projects": [], "coding_time_seconds": 0, "coding_time_seconds_today": 0, "balance": "You need to have a pocket watcher badge to view this.", "badges": [], "created_at": "2025-08-01T12:46:34.198-04:00", "updated_at": "2025-08-01T17:45:30.549-04:00", "avatar": "https://avatars.slack-edge.com/2025-08-01/9293295537332_a7c4bd29120cf45b829e_original.png", "custom_css": null}, {"id": 20325, "slack_id": "U0997FH0KUG", "display_name": "Madhumidha", "bio": null, "projects_count": 0, "devlogs_count": 0, "votes_count": 0, "ships_count": 0, "projects": [], "coding_time_seconds": 0, "coding_time_seconds_today": 0, "balance": "You need to have a pocket watcher badge to view this.", "badges": [], "created_at": "2025-08-01T13:04:28.172-04:00", "updated_at": "2025-08-01T15:59:34.851-04:00", "avatar": "https://avatars.slack-edge.com/2025-08-01/9291964840226_7f141e7a6710549187b2_original.png", "custom_css": null}], "pagination": {"page": 1012, "pages": 1192, "count": 23828, "items": 20}}