{"users": [{"id": 20326, "slack_id": "U09809S2B7C", "display_name": "SUFYAN", "bio": null, "projects_count": 0, "devlogs_count": 0, "votes_count": 0, "ships_count": 0, "projects": [], "coding_time_seconds": 0, "coding_time_seconds_today": 0, "balance": "You need to have a pocket watcher badge to view this.", "badges": [], "created_at": "2025-08-01T13:04:59.472-04:00", "updated_at": "2025-08-01T15:59:34.947-04:00", "avatar": "https://secure.gravatar.com/avatar/77fa76586a78b573ef40488b418b7872.jpg?s=512&d=https%3A%2F%2Fa.slack-edge.com%2Fdf10d%2Fimg%2Favatars%2Fava_0005-512.png", "custom_css": null}, {"id": 20327, "slack_id": "U098H19L3RC", "display_name": "Blu Zed", "bio": "", "projects_count": 2, "devlogs_count": 0, "votes_count": 1, "ships_count": 0, "projects": [{"id": 9816, "title": "2d-platoformer-game", "devlogs_count": 0, "created_at": "2025-08-02T11:34:43.470-04:00"}, {"id": 13694, "title": "silentcord", "devlogs_count": 0, "created_at": "2025-09-23T03:09:53.260-04:00"}], "coding_time_seconds": 187813, "coding_time_seconds_today": 0, "balance": "You need to have a pocket watcher badge to view this.", "badges": [], "created_at": "2025-08-01T13:18:45.943-04:00", "updated_at": "2025-08-20T01:37:50.664-04:00", "avatar": "https://avatars.slack-edge.com/2025-08-01/9289807998981_0656b6b271e7fb338911_original.jpg", "custom_css": null}, {"id": 20328, "slack_id": "U098MFA93TN", "display_name": "Ziad", "bio": null, "projects_count": 0, "devlogs_count": 0, "votes_count": 0, "ships_count": 0, "projects": [], "coding_time_seconds": 0, "coding_time_seconds_today": 0, "balance": "You need to have a pocket watcher badge to view this.", "badges": [], "created_at": "2025-08-01T13:31:45.797-04:00", "updated_at": "2025-08-01T19:19:10.097-04:00", "avatar": "https://avatars.slack-edge.com/2025-08-01/9313685054304_5df9249924b1f0cd39a1_original.png", "custom_css": null}, {"id": 20329, "slack_id": "U098MC7PY12", "display_name": "Amal O.", "bio": null, "projects_count": 2, "devlogs_count": 0, "votes_count": 0, "ships_count": 0, "projects": [{"id": 9797, "title": "MY SITE", "devlogs_count": 0, "created_at": "2025-08-02T10:21:50.659-04:00"}, {"id": 9798, "title": "MY SITE", "devlogs_count": 0, "created_at": "2025-08-02T10:21:50.666-04:00"}], "coding_time_seconds": 410, "coding_time_seconds_today": 0, "balance": "You need to have a pocket watcher badge to view this.", "badges": [], "created_at": "2025-08-01T13:33:33.165-04:00", "updated_at": "2025-08-10T17:25:15.918-04:00", "avatar": "https://avatars.slack-edge.com/2025-08-01/9289883295813_0911c3de557f9a5c2009_original.png", "custom_css": null}, {"id": 20330, "slack_id": "U098GGPSFKM", "display_name": "RADYO ACTIV", "bio": null, "projects_count": 3, "devlogs_count": 6, "votes_count": 24, "ships_count": 2, "projects": [{"id": 9882, "title": "Pulse Bot", "devlogs_count": 2, "created_at": "2025-08-02T16:33:46.419-04:00"}, {"id": 13710, "title": "Quotable", "devlogs_count": 1, "created_at": "2025-09-23T12:17:22.933-04:00"}, {"id": 9757, "title": "THE TRIBUTE", "devlogs_count": 3, "created_at": "2025-08-02T07:30:57.383-04:00"}], "coding_time_seconds": 58254, "coding_time_seconds_today": 145, "balance": "You need to have a pocket watcher badge to view this.", "badges": [], "created_at": "2025-08-01T13:40:43.187-04:00", "updated_at": "2025-08-07T03:40:39.586-04:00", "avatar": "https://secure.gravatar.com/avatar/215dd3042f174ece086f5daeeb3f648a.jpg?s=512&d=https%3A%2F%2Fa.slack-edge.com%2Fdf10d%2Fimg%2Favatars%2Fava_0000-512.png", "custom_css": null}, {"id": 20331, "slack_id": "U0997M6TDPS", "display_name": "Aarnav D", "bio": null, "projects_count": 0, "devlogs_count": 0, "votes_count": 0, "ships_count": 0, "projects": [], "coding_time_seconds": 0, "coding_time_seconds_today": 0, "balance": "You need to have a pocket watcher badge to view this.", "badges": [], "created_at": "2025-08-01T13:41:24.508-04:00", "updated_at": "2025-08-01T15:59:35.420-04:00", "avatar": "https://secure.gravatar.com/avatar/d691cfa10ca2aef816699a76a7c6677f.jpg?s=512&d=https%3A%2F%2Fa.slack-edge.com%2Fdf10d%2Fimg%2Favatars%2Fava_0011-512.png", "custom_css": null}, {"id": 20332, "slack_id": "U098HSY3SBF", "display_name": "Aadhi Suresh", "bio": null, "projects_count": 0, "devlogs_count": 0, "votes_count": 0, "ships_count": 0, "projects": [], "coding_time_seconds": 0, "coding_time_seconds_today": 0, "balance": "You need to have a pocket watcher badge to view this.", "badges": [], "created_at": "2025-08-01T13:46:00.256-04:00", "updated_at": "2025-08-01T15:59:35.505-04:00", "avatar": "https://avatars.slack-edge.com/2025-08-01/9292174273842_20df3cdf9d1c7e3155b2_original.png", "custom_css": null}, {"id": 20333, "slack_id": "U09859BGFU7", "display_name": "Prithvi Oduru", "bio": null, "projects_count": 0, "devlogs_count": 0, "votes_count": 0, "ships_count": 0, "projects": [], "coding_time_seconds": 0, "coding_time_seconds_today": 0, "balance": "You need to have a pocket watcher badge to view this.", "badges": [], "created_at": "2025-08-01T13:46:39.158-04:00", "updated_at": "2025-08-01T15:59:35.605-04:00", "avatar": "https://avatars.slack-edge.com/2025-08-01/9292176661506_f1d7f37a7f48f3435e4d_original.png", "custom_css": null}, {"id": 20334, "slack_id": "U09859Y1H1V", "display_name": "Saber", "bio": null, "projects_count": 0, "devlogs_count": 0, "votes_count": 0, "ships_count": 0, "projects": [], "coding_time_seconds": 0, "coding_time_seconds_today": 0, "balance": "You need to have a pocket watcher badge to view this.", "badges": [], "created_at": "2025-08-01T13:51:23.902-04:00", "updated_at": "2025-08-01T21:04:48.086-04:00", "avatar": "https://avatars.slack-edge.com/2025-08-01/9307631562401_bc296c4e0f2925ddfdba_original.png", "custom_css": null}, {"id": 20335, "slack_id": "U0985B7JNQ7", "display_name": "verity", "bio": null, "projects_count": 0, "devlogs_count": 0, "votes_count": 1, "ships_count": 0, "projects": [], "coding_time_seconds": 7476, "coding_time_seconds_today": 0, "balance": "You need to have a pocket watcher badge to view this.", "badges": [], "created_at": "2025-08-01T13:58:55.677-04:00", "updated_at": "2025-08-01T15:59:39.838-04:00", "avatar": "https://avatars.slack-edge.com/2025-08-01/9307669897153_8e47d365ab7e625fd9b1_original.png", "custom_css": null}, {"id": 20336, "slack_id": "U06AGS5F4T0", "display_name": "skifli", "bio": null, "projects_count": 0, "devlogs_count": 0, "votes_count": 0, "ships_count": 0, "projects": [], "coding_time_seconds": 125620, "coding_time_seconds_today": 0, "balance": "You need to have a pocket watcher badge to view this.", "badges": [], "created_at": "2025-08-01T14:05:41.466-04:00", "updated_at": "2025-08-10T17:19:16.043-04:00", "avatar": "https://avatars.slack-edge.com/2025-01-17/8307052134165_24302ed09177eb96a06b_original.png", "custom_css": null}, {"id": 20337, "slack_id": "U098GU49RM1", "display_name": "Rishith Chennuapti", "bio": null, "projects_count": 0, "devlogs_count": 0, "votes_count": 0, "ships_count": 0, "projects": [], "coding_time_seconds": 120, "coding_time_seconds_today": 0, "balance": "You need to have a pocket watcher badge to view this.", "badges": [], "created_at": "2025-08-01T14:26:23.117-04:00", "updated_at": "2025-08-01T17:09:46.197-04:00", "avatar": "https://secure.gravatar.com/avatar/d546cd458ea269c67f4dee5ab008b254.jpg?s=512&d=https%3A%2F%2Fa.slack-edge.com%2Fdf10d%2Fimg%2Favatars%2Fava_0020-512.png", "custom_css": null}, {"id": 20338, "slack_id": "U098GTW9UBV", "display_name": "AadityaS", "bio": null, "projects_count": 0, "devlogs_count": 0, "votes_count": 0, "ships_count": 0, "projects": [], "coding_time_seconds": 246, "coding_time_seconds_today": 0, "balance": "You need to have a pocket watcher badge to view this.", "badges": [], "created_at": "2025-08-01T14:26:30.764-04:00", "updated_at": "2025-08-01T15:59:44.142-04:00", "avatar": "https://secure.gravatar.com/avatar/e6f119c105b1d8560cab9584a25386cd.jpg?s=512&d=https%3A%2F%2Fa.slack-edge.com%2Fdf10d%2Fimg%2Favatars%2Fava_0008-512.png", "custom_css": null}, {"id": 20339, "slack_id": "U08T2LS6ZHV", "display_name": "Srijan Cherupally", "bio": null, "projects_count": 1, "devlogs_count": 0, "votes_count": 20, "ships_count": 0, "projects": [{"id": 10685, "title": "GPS + Motion Sensing Firmware (Industrial use applications)", "devlogs_count": 0, "created_at": "2025-08-09T15:24:18.130-04:00"}], "coding_time_seconds": 20808, "coding_time_seconds_today": 0, "balance": "You need to have a pocket watcher badge to view this.", "badges": [], "created_at": "2025-08-01T14:29:54.949-04:00", "updated_at": "2025-08-07T23:53:53.906-04:00", "avatar": "https://secure.gravatar.com/avatar/f5e22642d13b816db777de6850b49085.jpg?s=512&d=https%3A%2F%2Fa.slack-edge.com%2Fdf10d%2Fimg%2Favatars%2Fava_0007-512.png", "custom_css": null}, {"id": 20340, "slack_id": "U0983E6PSC8", "display_name": "Aishika Biswas", "bio": null, "projects_count": 0, "devlogs_count": 0, "votes_count": 0, "ships_count": 0, "projects": [], "coding_time_seconds": 0, "coding_time_seconds_today": 0, "balance": "You need to have a pocket watcher badge to view this.", "badges": [], "created_at": "2025-08-01T14:40:36.204-04:00", "updated_at": "2025-08-01T15:59:44.307-04:00", "avatar": "https://avatars.slack-edge.com/2025-08-01/9277603836039_dc1352abe47f997a3789_original.webp", "custom_css": null}, {"id": 20341, "slack_id": "U093X118Y3V", "display_name": "techstuff22", "bio": null, "projects_count": 0, "devlogs_count": 0, "votes_count": 0, "ships_count": 0, "projects": [], "coding_time_seconds": 0, "coding_time_seconds_today": 0, "balance": "You need to have a pocket watcher badge to view this.", "badges": [], "created_at": "2025-08-01T14:53:27.272-04:00", "updated_at": "2025-08-01T15:59:44.415-04:00", "avatar": "https://secure.gravatar.com/avatar/2501cc1fb61d2c02434c41eed04d542b.jpg?s=512&d=https%3A%2F%2Fa.slack-edge.com%2Fdf10d%2Fimg%2Favatars%2Fava_0003-512.png", "custom_css": null}, {"id": 20342, "slack_id": "U0991T9LTUH", "display_name": "Nor", "bio": null, "projects_count": 0, "devlogs_count": 0, "votes_count": 0, "ships_count": 0, "projects": [], "coding_time_seconds": 0, "coding_time_seconds_today": 0, "balance": "You need to have a pocket watcher badge to view this.", "badges": [], "created_at": "2025-08-01T14:54:55.529-04:00", "updated_at": "2025-08-01T18:31:45.424-04:00", "avatar": "https://avatars.slack-edge.com/2025-08-01/9290265413141_db3a35e67135c4922e6e_original.png", "custom_css": null}, {"id": 20343, "slack_id": "U097Y47KDQB", "display_name": "Sahith", "bio": null, "projects_count": 1, "devlogs_count": 23, "votes_count": 107, "ships_count": 1, "projects": [{"id": 10531, "title": "Neuronudge", "devlogs_count": 23, "created_at": "2025-08-07T21:08:54.206-04:00"}], "coding_time_seconds": 230247, "coding_time_seconds_today": 0, "balance": "You need to have a pocket watcher badge to view this.", "badges": [{"name": "Maiden Voyage", "text": "you shipped your first project! the journey begins...", "icon": "\ud83d\udea2"}, {"name": "Ballot Stuffer", "text": "vote 100 times.", "icon": "https://summer.hackclub.com/assets/i_voted-bf851b48.png"}], "created_at": "2025-08-01T15:05:42.928-04:00", "updated_at": "2025-09-21T12:29:29.777-04:00", "avatar": "https://secure.gravatar.com/avatar/2bd74cf44e428dfd3c042b523b7dc14b.jpg?s=512&d=https%3A%2F%2Fa.slack-edge.com%2Fdf10d%2Fimg%2Favatars%2Fava_0001-512.png", "custom_css": null}, {"id": 20344, "slack_id": "U098HHRE66S", "display_name": "ledo", "bio": null, "projects_count": 0, "devlogs_count": 0, "votes_count": 0, "ships_count": 0, "projects": [], "coding_time_seconds": 0, "coding_time_seconds_today": 0, "balance": "You need to have a pocket watcher badge to view this.", "badges": [], "created_at": "2025-08-01T15:09:32.018-04:00", "updated_at": "2025-08-01T15:59:44.655-04:00", "avatar": "https://secure.gravatar.com/avatar/b798a3925223297e2d17e96c375d245e.jpg?s=512&d=https%3A%2F%2Fa.slack-edge.com%2Fdf10d%2Fimg%2Favatars%2Fava_0010-512.png", "custom_css": null}, {"id": 20345, "slack_id": "U09920NNB7B", "display_name": "Elliot Hammer", "bio": null, "projects_count": 1, "devlogs_count": 0, "votes_count": 0, "ships_count": 0, "projects": [{"id": 9592, "title": "Dracion: Malum Hunt", "devlogs_count": 0, "created_at": "2025-08-01T18:49:57.672-04:00"}], "coding_time_seconds": 420, "coding_time_seconds_today": 0, "balance": "You need to have a pocket watcher badge to view this.", "badges": [], "created_at": "2025-08-01T15:11:57.643-04:00", "updated_at": "2025-08-02T21:32:04.784-04:00", "avatar": "https://secure.gravatar.com/avatar/f7557fef090a0264d033796f33826d4d.jpg?s=512&d=https%3A%2F%2Fa.slack-edge.com%2Fdf10d%2Fimg%2Favatars%2Fava_0009-512.png", "custom_css": null}], "pagination": {"page": 1013, "pages": 1192, "count": 23828, "items": 20}}