{"users": [{"id": 20346, "slack_id": "U0989S2H5QW", "display_name": "Naomika Rohra", "bio": null, "projects_count": 0, "devlogs_count": 0, "votes_count": 0, "ships_count": 0, "projects": [], "coding_time_seconds": 3745, "coding_time_seconds_today": 0, "balance": "You need to have a pocket watcher badge to view this.", "badges": [], "created_at": "2025-08-01T15:23:37.544-04:00", "updated_at": "2025-08-03T01:24:02.206-04:00", "avatar": "https://secure.gravatar.com/avatar/702fe64e36a1eff4cfbe264afd8e4e75.jpg?s=512&d=https%3A%2F%2Fa.slack-edge.com%2Fdf10d%2Fimg%2Favatars%2Fava_0025-512.png", "custom_css": null}, {"id": 20347, "slack_id": "U09984Q9M40", "display_name": "kisoku", "bio": null, "projects_count": 0, "devlogs_count": 0, "votes_count": 0, "ships_count": 0, "projects": [], "coding_time_seconds": 55764, "coding_time_seconds_today": 0, "balance": "You need to have a pocket watcher badge to view this.", "badges": [], "created_at": "2025-08-01T15:26:53.158-04:00", "updated_at": "2025-08-06T13:21:46.986-04:00", "avatar": "https://secure.gravatar.com/avatar/a5d54b23f6ed6c858726e7d7812f845c.jpg?s=512&d=https%3A%2F%2Fa.slack-edge.com%2Fdf10d%2Fimg%2Favatars%2Fava_0004-512.png", "custom_css": null}, {"id": 20348, "slack_id": "U098HLA9G1L", "display_name": "Abdala", "bio": null, "projects_count": 0, "devlogs_count": 0, "votes_count": 0, "ships_count": 0, "projects": [], "coding_time_seconds": 0, "coding_time_seconds_today": 0, "balance": "You need to have a pocket watcher badge to view this.", "badges": [], "created_at": "2025-08-01T15:28:41.486-04:00", "updated_at": "2025-08-01T17:19:54.188-04:00", "avatar": "https://avatars.slack-edge.com/2025-08-01/9308112033825_acc905b63b13d7a27f82_original.png", "custom_css": null}, {"id": 20349, "slack_id": "U0985SYNSGP", "display_name": "Eddie The Potatoe", "bio": null, "projects_count": 0, "devlogs_count": 0, "votes_count": 0, "ships_count": 0, "projects": [], "coding_time_seconds": 0, "coding_time_seconds_today": 0, "balance": "You need to have a pocket watcher badge to view this.", "badges": [], "created_at": "2025-08-01T15:52:28.553-04:00", "updated_at": "2025-08-01T15:59:49.879-04:00", "avatar": "https://avatars.slack-edge.com/2025-08-01/9294207332788_84cf9f959f8444039ff5_original.png", "custom_css": null}, {"id": 20350, "slack_id": "U0985T1DTSB", "display_name": "The Developer Drawer", "bio": null, "projects_count": 0, "devlogs_count": 0, "votes_count": 0, "ships_count": 0, "projects": [], "coding_time_seconds": 6035, "coding_time_seconds_today": 0, "balance": "You need to have a pocket watcher badge to view this.", "badges": [], "created_at": "2025-08-01T15:53:32.814-04:00", "updated_at": "2025-08-03T01:54:01.734-04:00", "avatar": "https://avatars.slack-edge.com/2025-08-01/9308223097601_de9e72bdcc586b2e034c_original.png", "custom_css": null}, {"id": 20351, "slack_id": "U08H4T635R9", "display_name": "Sisi", "bio": null, "projects_count": 0, "devlogs_count": 0, "votes_count": 0, "ships_count": 0, "projects": [], "coding_time_seconds": 0, "coding_time_seconds_today": 0, "balance": "You need to have a pocket watcher badge to view this.", "badges": [], "created_at": "2025-08-01T16:02:11.752-04:00", "updated_at": "2025-08-01T16:02:30.462-04:00", "avatar": "https://avatars.slack-edge.com/2025-05-21/8925751775811_ccd7da6aff1ccbfc0576_original.png", "custom_css": null}, {"id": 20352, "slack_id": "U096W0JE3LJ", "display_name": "Ahmet Salih Da\u011f", "bio": null, "projects_count": 0, "devlogs_count": 0, "votes_count": 0, "ships_count": 0, "projects": [], "coding_time_seconds": 0, "coding_time_seconds_today": 0, "balance": "You need to have a pocket watcher badge to view this.", "badges": [], "created_at": "2025-08-01T16:06:27.136-04:00", "updated_at": "2025-08-02T03:59:57.698-04:00", "avatar": "https://avatars.slack-edge.com/2025-08-01/9289434363731_384b71c962a7684079db_original.jpg", "custom_css": null}, {"id": 20353, "slack_id": "U09928X9P7T", "display_name": "yacine20005", "bio": null, "projects_count": 0, "devlogs_count": 0, "votes_count": 0, "ships_count": 0, "projects": [], "coding_time_seconds": 0, "coding_time_seconds_today": 0, "balance": "You need to have a pocket watcher badge to view this.", "badges": [], "created_at": "2025-08-01T16:12:51.689-04:00", "updated_at": "2025-08-02T03:59:57.805-04:00", "avatar": "https://secure.gravatar.com/avatar/2a023d1f5819720e6b1623e7e631116a.jpg?s=512&d=https%3A%2F%2Fa.slack-edge.com%2Fdf10d%2Fimg%2Favatars%2Fava_0000-512.png", "custom_css": null}, {"id": 20354, "slack_id": "U0998DJUACQ", "display_name": "ksc", "bio": null, "projects_count": 0, "devlogs_count": 0, "votes_count": 0, "ships_count": 0, "projects": [], "coding_time_seconds": 0, "coding_time_seconds_today": 0, "balance": "You need to have a pocket watcher badge to view this.", "badges": [], "created_at": "2025-08-01T16:20:18.661-04:00", "updated_at": "2025-08-02T04:00:01.947-04:00", "avatar": "https://secure.gravatar.com/avatar/3a87e1ec5138e7c69af481701aa59baf.jpg?s=512&d=https%3A%2F%2Fa.slack-edge.com%2Fdf10d%2Fimg%2Favatars%2Fava_0017-512.png", "custom_css": null}, {"id": 20355, "slack_id": "U0998DVJM3J", "display_name": "Kausar", "bio": null, "projects_count": 2, "devlogs_count": 0, "votes_count": 0, "ships_count": 0, "projects": [{"id": 9571, "title": "RAG_exp", "devlogs_count": 0, "created_at": "2025-08-01T17:24:28.004-04:00"}, {"id": 9572, "title": "RAG_exp", "devlogs_count": 0, "created_at": "2025-08-01T17:24:28.008-04:00"}], "coding_time_seconds": 3819, "coding_time_seconds_today": 0, "balance": "You need to have a pocket watcher badge to view this.", "badges": [], "created_at": "2025-08-01T16:23:52.414-04:00", "updated_at": "2025-08-02T08:19:28.390-04:00", "avatar": "https://secure.gravatar.com/avatar/874ae695e7cf47ff091d8bab1dfdf23f.jpg?s=512&d=https%3A%2F%2Fa.slack-edge.com%2Fdf10d%2Fimg%2Favatars%2Fava_0024-512.png", "custom_css": null}, {"id": 20356, "slack_id": "U098HEL902F", "display_name": "Eren Erdogan", "bio": null, "projects_count": 0, "devlogs_count": 0, "votes_count": 0, "ships_count": 0, "projects": [], "coding_time_seconds": 0, "coding_time_seconds_today": 0, "balance": "You need to have a pocket watcher badge to view this.", "badges": [], "created_at": "2025-08-01T16:24:14.118-04:00", "updated_at": "2025-08-02T04:00:02.177-04:00", "avatar": "https://secure.gravatar.com/avatar/f3c98c9874805a629616a2ca3c471e0b.jpg?s=512&d=https%3A%2F%2Fa.slack-edge.com%2Fdf10d%2Fimg%2Favatars%2Fava_0011-512.png", "custom_css": null}, {"id": 20357, "slack_id": "U098N8L7A1J", "display_name": "Aditya Vikram Singh", "bio": null, "projects_count": 0, "devlogs_count": 0, "votes_count": 0, "ships_count": 0, "projects": [], "coding_time_seconds": 0, "coding_time_seconds_today": 0, "balance": "You need to have a pocket watcher badge to view this.", "badges": [], "created_at": "2025-08-01T16:27:09.733-04:00", "updated_at": "2025-08-03T06:39:03.458-04:00", "avatar": "https://avatars.slack-edge.com/2025-08-01/9278083041015_f92ad6f6318b46a5e454_original.png", "custom_css": null}, {"id": 20358, "slack_id": "U098HU5DDPY", "display_name": "Marisol", "bio": null, "projects_count": 0, "devlogs_count": 0, "votes_count": 0, "ships_count": 0, "projects": [], "coding_time_seconds": 8061, "coding_time_seconds_today": 0, "balance": "You need to have a pocket watcher badge to view this.", "badges": [], "created_at": "2025-08-01T16:27:36.182-04:00", "updated_at": "2025-09-02T17:22:49.715-04:00", "avatar": "https://secure.gravatar.com/avatar/933faa593727f3b1de32d27d04366d8e.jpg?s=512&d=https%3A%2F%2Fa.slack-edge.com%2Fdf10d%2Fimg%2Favatars%2Fava_0000-512.png", "custom_css": null}, {"id": 20359, "slack_id": "U098JL5D7QV", "display_name": "Oliver T.", "bio": null, "projects_count": 0, "devlogs_count": 0, "votes_count": 0, "ships_count": 0, "projects": [], "coding_time_seconds": 0, "coding_time_seconds_today": 0, "balance": "You need to have a pocket watcher badge to view this.", "badges": [], "created_at": "2025-08-01T16:35:57.224-04:00", "updated_at": "2025-08-02T04:00:06.557-04:00", "avatar": "https://secure.gravatar.com/avatar/c30c9337a6cf060ab2a052a5918584f2.jpg?s=512&d=https%3A%2F%2Fa.slack-edge.com%2Fdf10d%2Fimg%2Favatars%2Fava_0025-512.png", "custom_css": null}, {"id": 20360, "slack_id": "U098NBK5S5A", "display_name": "Cicero", "bio": null, "projects_count": 1, "devlogs_count": 1, "votes_count": 16, "ships_count": 1, "projects": [{"id": 9633, "title": "Weyra", "devlogs_count": 1, "created_at": "2025-08-01T23:24:24.667-04:00"}], "coding_time_seconds": 70418, "coding_time_seconds_today": 0, "balance": "You need to have a pocket watcher badge to view this.", "badges": [], "created_at": "2025-08-01T16:40:26.432-04:00", "updated_at": "2025-08-08T15:09:13.564-04:00", "avatar": "https://avatars.slack-edge.com/2025-08-02/9316027390800_c90e8af16c97be84d5e0_original.png", "custom_css": null}, {"id": 20361, "slack_id": "U098PTXL4F3", "display_name": "Amogh", "bio": null, "projects_count": 0, "devlogs_count": 0, "votes_count": 0, "ships_count": 0, "projects": [], "coding_time_seconds": 0, "coding_time_seconds_today": 0, "balance": "You need to have a pocket watcher badge to view this.", "badges": [], "created_at": "2025-08-01T16:53:06.801-04:00", "updated_at": "2025-08-02T04:00:10.800-04:00", "avatar": "https://secure.gravatar.com/avatar/02e4a2bf0005eb20fe955aee129ec353.jpg?s=512&d=https%3A%2F%2Fa.slack-edge.com%2Fdf10d%2Fimg%2Favatars%2Fava_0009-512.png", "custom_css": null}, {"id": 20362, "slack_id": "U091G6D9GPQ", "display_name": "Eric", "bio": null, "projects_count": 0, "devlogs_count": 0, "votes_count": 0, "ships_count": 0, "projects": [], "coding_time_seconds": 0, "coding_time_seconds_today": 0, "balance": "You need to have a pocket watcher badge to view this.", "badges": [], "created_at": "2025-08-01T16:58:08.729-04:00", "updated_at": "2025-08-02T04:00:10.908-04:00", "avatar": "https://secure.gravatar.com/avatar/90930cdab1bc638e83c9839269e0b092.jpg?s=512&d=https%3A%2F%2Fa.slack-edge.com%2Fdf10d%2Fimg%2Favatars%2Fava_0021-512.png", "custom_css": null}, {"id": 20363, "slack_id": "U098M1MGEH0", "display_name": "Mohit", "bio": null, "projects_count": 3, "devlogs_count": 0, "votes_count": 0, "ships_count": 0, "projects": [{"id": 9574, "title": "Anime Recommendation System", "devlogs_count": 0, "created_at": "2025-08-01T17:31:22.574-04:00"}, {"id": 9575, "title": "Anime Recommendation System", "devlogs_count": 0, "created_at": "2025-08-01T17:31:22.577-04:00"}, {"id": 9950, "title": "Cp skills ", "devlogs_count": 0, "created_at": "2025-08-03T05:16:28.406-04:00"}], "coding_time_seconds": 68522, "coding_time_seconds_today": 0, "balance": "You need to have a pocket watcher badge to view this.", "badges": [], "created_at": "2025-08-01T17:02:44.881-04:00", "updated_at": "2025-08-02T04:06:56.401-04:00", "avatar": "https://secure.gravatar.com/avatar/06c794d2c801639a541b7684f1a66e2b.jpg?s=512&d=https%3A%2F%2Fa.slack-edge.com%2Fdf10d%2Fimg%2Favatars%2Fava_0002-512.png", "custom_css": null}, {"id": 20364, "slack_id": "U0986CTC2KZ", "display_name": "Ansh Thakar", "bio": null, "projects_count": 0, "devlogs_count": 0, "votes_count": 1, "ships_count": 0, "projects": [], "coding_time_seconds": 8642, "coding_time_seconds_today": 0, "balance": "You need to have a pocket watcher badge to view this.", "badges": [], "created_at": "2025-08-01T18:10:57.596-04:00", "updated_at": "2025-09-16T19:28:12.551-04:00", "avatar": "https://secure.gravatar.com/avatar/76240a5da3f28ad4efcceb5ab5830c4e.jpg?s=512&d=https%3A%2F%2Fa.slack-edge.com%2Fdf10d%2Fimg%2Favatars%2Fava_0009-512.png", "custom_css": null}, {"id": 20365, "slack_id": "U0986EAJKU7", "display_name": "charcadamy", "bio": null, "projects_count": 0, "devlogs_count": 0, "votes_count": 0, "ships_count": 0, "projects": [], "coding_time_seconds": 0, "coding_time_seconds_today": 0, "balance": "You need to have a pocket watcher badge to view this.", "badges": [], "created_at": "2025-08-01T18:29:14.266-04:00", "updated_at": "2025-08-02T04:00:11.199-04:00", "avatar": "https://secure.gravatar.com/avatar/b8bd24c45660c1288d62658fbda456c3.jpg?s=512&d=https%3A%2F%2Fa.slack-edge.com%2Fdf10d%2Fimg%2Favatars%2Fava_0024-512.png", "custom_css": null}], "pagination": {"page": 1014, "pages": 1192, "count": 23828, "items": 20}}