{"users": [{"id": 20366, "slack_id": "U098K3PUPB7", "display_name": "Niko Kanza", "bio": null, "projects_count": 0, "devlogs_count": 0, "votes_count": 0, "ships_count": 0, "projects": [], "coding_time_seconds": 0, "coding_time_seconds_today": 0, "balance": "You need to have a pocket watcher badge to view this.", "badges": [], "created_at": "2025-08-01T19:09:42.272-04:00", "updated_at": "2025-08-21T20:59:27.150-04:00", "avatar": "https://avatars.slack-edge.com/2025-08-01/9278588827271_3f1d2aaf38361f7f5d6b_original.png", "custom_css": null}, {"id": 20367, "slack_id": "U098MCB1XDG", "display_name": "Joshitha Kalyani Govarthanan", "bio": null, "projects_count": 0, "devlogs_count": 0, "votes_count": 0, "ships_count": 0, "projects": [], "coding_time_seconds": 0, "coding_time_seconds_today": 0, "balance": "You need to have a pocket watcher badge to view this.", "badges": [], "created_at": "2025-08-01T19:09:49.106-04:00", "updated_at": "2025-08-02T04:00:11.417-04:00", "avatar": "https://secure.gravatar.com/avatar/4c6a2cb769299e340b57c5ffbabdfe14.jpg?s=512&d=https%3A%2F%2Fa.slack-edge.com%2Fdf10d%2Fimg%2Favatars%2Fava_0010-512.png", "custom_css": null}, {"id": 20368, "slack_id": "U098NR466GL", "display_name": "Vuk Urosevic", "bio": null, "projects_count": 0, "devlogs_count": 0, "votes_count": 0, "ships_count": 0, "projects": [], "coding_time_seconds": 0, "coding_time_seconds_today": 0, "balance": "You need to have a pocket watcher badge to view this.", "badges": [], "created_at": "2025-08-01T19:14:25.702-04:00", "updated_at": "2025-08-02T04:00:11.503-04:00", "avatar": "https://avatars.slack-edge.com/2025-08-01/9291176594165_5cda5fa2429560e37287_original.png", "custom_css": null}, {"id": 20369, "slack_id": "U0992SBH5RP", "display_name": "Sebasti\u00e1n Gil", "bio": null, "projects_count": 0, "devlogs_count": 0, "votes_count": 0, "ships_count": 0, "projects": [], "coding_time_seconds": 0, "coding_time_seconds_today": 0, "balance": "You need to have a pocket watcher badge to view this.", "badges": [], "created_at": "2025-08-01T19:14:36.264-04:00", "updated_at": "2025-08-02T04:00:11.595-04:00", "avatar": "https://secure.gravatar.com/avatar/f19266b75b43b4401540a43da0ff5d1c.jpg?s=512&d=https%3A%2F%2Fa.slack-edge.com%2Fdf10d%2Fimg%2Favatars%2Fava_0025-512.png", "custom_css": null}, {"id": 20370, "slack_id": "U098JEPH2EA", "display_name": "Tomas Mesa", "bio": null, "projects_count": 0, "devlogs_count": 0, "votes_count": 0, "ships_count": 0, "projects": [], "coding_time_seconds": 0, "coding_time_seconds_today": 0, "balance": "You need to have a pocket watcher badge to view this.", "badges": [], "created_at": "2025-08-01T19:19:07.289-04:00", "updated_at": "2025-08-02T04:00:11.687-04:00", "avatar": "https://avatars.slack-edge.com/2025-08-01/9291185178117_725b4cf6d19c6d0126be_original.png", "custom_css": null}, {"id": 20371, "slack_id": "U0992TG5M25", "display_name": "WILLY ABRAHAM SUCASAIRE COAQUIRA", "bio": null, "projects_count": 0, "devlogs_count": 0, "votes_count": 0, "ships_count": 0, "projects": [], "coding_time_seconds": 593, "coding_time_seconds_today": 0, "balance": "You need to have a pocket watcher badge to view this.", "badges": [], "created_at": "2025-08-01T19:32:24.639-04:00", "updated_at": "2025-08-02T04:00:15.928-04:00", "avatar": "https://avatars.slack-edge.com/2025-08-01/9291214834997_a0af5f9be469e1d95cab_original.jpg", "custom_css": null}, {"id": 20372, "slack_id": "U082UPSKFBJ", "display_name": "Skrapa142", "bio": null, "projects_count": 0, "devlogs_count": 0, "votes_count": 0, "ships_count": 0, "projects": [], "coding_time_seconds": 0, "coding_time_seconds_today": 0, "balance": "You need to have a pocket watcher badge to view this.", "badges": [], "created_at": "2025-08-01T19:38:20.300-04:00", "updated_at": "2025-08-02T04:00:16.034-04:00", "avatar": "https://secure.gravatar.com/avatar/54738191d9126a30c2aae151654daadf.jpg?s=512&d=https%3A%2F%2Fa.slack-edge.com%2Fdf10d%2Fimg%2Favatars%2Fava_0000-512.png", "custom_css": null}, {"id": 20373, "slack_id": "U09864T690B", "display_name": "Rajvir Singh", "bio": null, "projects_count": 0, "devlogs_count": 0, "votes_count": 0, "ships_count": 0, "projects": [], "coding_time_seconds": 0, "coding_time_seconds_today": 0, "balance": "You need to have a pocket watcher badge to view this.", "badges": [], "created_at": "2025-08-01T19:45:40.953-04:00", "updated_at": "2025-08-02T04:00:16.118-04:00", "avatar": "https://secure.gravatar.com/avatar/1c5f97fca0e042c910099c426a6c30b1.jpg?s=512&d=https%3A%2F%2Fa.slack-edge.com%2Fdf10d%2Fimg%2Favatars%2Fava_0008-512.png", "custom_css": null}, {"id": 20374, "slack_id": "U098J37NJBD", "display_name": "Fernando", "bio": null, "projects_count": 0, "devlogs_count": 0, "votes_count": 0, "ships_count": 0, "projects": [], "coding_time_seconds": 2108, "coding_time_seconds_today": 0, "balance": "You need to have a pocket watcher badge to view this.", "badges": [], "created_at": "2025-08-01T19:55:02.034-04:00", "updated_at": "2025-08-02T04:00:16.205-04:00", "avatar": "https://secure.gravatar.com/avatar/d1193d67442aa27a95bb27522db083d5.jpg?s=512&d=https%3A%2F%2Fa.slack-edge.com%2Fdf10d%2Fimg%2Favatars%2Fava_0019-512.png", "custom_css": null}, {"id": 20375, "slack_id": "U078WLWJ8JD", "display_name": "MinoDab492", "bio": null, "projects_count": 0, "devlogs_count": 0, "votes_count": 0, "ships_count": 0, "projects": [], "coding_time_seconds": 69260, "coding_time_seconds_today": 0, "balance": "You need to have a pocket watcher badge to view this.", "badges": [], "created_at": "2025-08-01T20:18:35.407-04:00", "updated_at": "2025-08-17T01:09:53.362-04:00", "avatar": "https://secure.gravatar.com/avatar/816c74cef4c38bfd4fcc192a8c153641.jpg?s=512&d=https%3A%2F%2Fa.slack-edge.com%2Fdf10d%2Fimg%2Favatars%2Fava_0003-512.png", "custom_css": null}, {"id": 20376, "slack_id": "U096GSXHUBH", "display_name": "Dhaval Suthar", "bio": null, "projects_count": 0, "devlogs_count": 0, "votes_count": 0, "ships_count": 0, "projects": [], "coding_time_seconds": 0, "coding_time_seconds_today": 0, "balance": "You need to have a pocket watcher badge to view this.", "badges": [], "created_at": "2025-08-01T20:51:33.691-04:00", "updated_at": "2025-08-02T04:00:16.404-04:00", "avatar": "https://secure.gravatar.com/avatar/261a37067adadd1a41ffd86ccc74a80e.jpg?s=512&d=https%3A%2F%2Fa.slack-edge.com%2Fdf10d%2Fimg%2Favatars%2Fava_0025-512.png", "custom_css": null}, {"id": 20377, "slack_id": "U09998TASQG", "display_name": "Shantanu Johri", "bio": null, "projects_count": 0, "devlogs_count": 0, "votes_count": 0, "ships_count": 0, "projects": [], "coding_time_seconds": 0, "coding_time_seconds_today": 0, "balance": "You need to have a pocket watcher badge to view this.", "badges": [], "created_at": "2025-08-01T21:47:01.999-04:00", "updated_at": "2025-08-02T04:00:16.501-04:00", "avatar": "https://secure.gravatar.com/avatar/c13aa5cc19b7213047d8bf6cd72e28a1.jpg?s=512&d=https%3A%2F%2Fa.slack-edge.com%2Fdf10d%2Fimg%2Favatars%2Fava_0010-512.png", "custom_css": null}, {"id": 20378, "slack_id": "U098JPCJJ2J", "display_name": "Pragati Das", "bio": null, "projects_count": 0, "devlogs_count": 0, "votes_count": 3, "ships_count": 0, "projects": [], "coding_time_seconds": 0, "coding_time_seconds_today": 0, "balance": "You need to have a pocket watcher badge to view this.", "badges": [], "created_at": "2025-08-01T21:52:05.823-04:00", "updated_at": "2025-08-12T04:30:02.454-04:00", "avatar": "https://avatars.slack-edge.com/2025-08-01/9291466767221_2f986950ae7894e9d0ae_original.png", "custom_css": null}, {"id": 20379, "slack_id": "U098P4KNNJY", "display_name": "mzhang", "bio": "", "projects_count": 2, "devlogs_count": 2, "votes_count": 1, "ships_count": 0, "projects": [{"id": 9641, "title": "lahs.win", "devlogs_count": 0, "created_at": "2025-08-02T00:39:13.668-04:00"}, {"id": 13643, "title": "EagleScout", "devlogs_count": 2, "created_at": "2025-09-21T20:01:30.603-04:00"}], "coding_time_seconds": 144522, "coding_time_seconds_today": 2815, "balance": "You need to have a pocket watcher badge to view this.", "badges": [], "created_at": "2025-08-01T21:58:43.104-04:00", "updated_at": "2025-08-16T23:51:36.512-04:00", "avatar": "https://secure.gravatar.com/avatar/9e2407b5e8ae9141a434022b6d815b8f.jpg?s=512&d=https%3A%2F%2Fa.slack-edge.com%2Fdf10d%2Fimg%2Favatars%2Fava_0010-512.png", "custom_css": null}, {"id": 20380, "slack_id": "U097A0HBE3B", "display_name": "Abel Louis Fernandez", "bio": null, "projects_count": 0, "devlogs_count": 0, "votes_count": 0, "ships_count": 0, "projects": [], "coding_time_seconds": 25374, "coding_time_seconds_today": 0, "balance": "You need to have a pocket watcher badge to view this.", "badges": [], "created_at": "2025-08-01T22:07:10.945-04:00", "updated_at": "2025-08-02T04:00:16.775-04:00", "avatar": "https://secure.gravatar.com/avatar/fc16dea0d4061c0669de1d8e70d9c957.jpg?s=512&d=https%3A%2F%2Fa.slack-edge.com%2Fdf10d%2Fimg%2Favatars%2Fava_0015-512.png", "custom_css": null}, {"id": 20381, "slack_id": "U098KEQMX6Z", "display_name": "kazi", "bio": null, "projects_count": 5, "devlogs_count": 2, "votes_count": 12, "ships_count": 1, "projects": [{"id": 9828, "title": "Alarm Clock", "devlogs_count": 2, "created_at": "2025-08-02T12:04:06.123-04:00"}, {"id": 10069, "title": "Space Ship Game", "devlogs_count": 0, "created_at": "2025-08-03T20:27:55.005-04:00"}, {"id": 9829, "title": "Alarm Clock", "devlogs_count": 0, "created_at": "2025-08-02T12:04:06.126-04:00"}, {"id": 9850, "title": "Personal website", "devlogs_count": 0, "created_at": "2025-08-02T12:59:32.498-04:00"}, {"id": 9851, "title": "Personal website", "devlogs_count": 0, "created_at": "2025-08-02T12:59:32.511-04:00"}], "coding_time_seconds": 71153, "coding_time_seconds_today": 0, "balance": "You need to have a pocket watcher badge to view this.", "badges": [], "created_at": "2025-08-01T22:17:51.329-04:00", "updated_at": "2025-08-08T12:18:22.202-04:00", "avatar": "https://secure.gravatar.com/avatar/030dd4e8be9ec9e65e053ea7c19a082c.jpg?s=512&d=https%3A%2F%2Fa.slack-edge.com%2Fdf10d%2Fimg%2Favatars%2Fava_0010-512.png", "custom_css": null}, {"id": 20382, "slack_id": "U098MPKA6EN", "display_name": "Meghashree Mudi", "bio": null, "projects_count": 0, "devlogs_count": 0, "votes_count": 0, "ships_count": 0, "projects": [], "coding_time_seconds": 480, "coding_time_seconds_today": 0, "balance": "You need to have a pocket watcher badge to view this.", "badges": [], "created_at": "2025-08-01T22:48:34.365-04:00", "updated_at": "2025-08-02T04:00:16.938-04:00", "avatar": "https://avatars.slack-edge.com/2025-08-01/9278990787607_5bc99bf2d9d22ce0559b_original.png", "custom_css": null}, {"id": 20383, "slack_id": "U098JS33HHC", "display_name": "Suiiii", "bio": null, "projects_count": 0, "devlogs_count": 0, "votes_count": 0, "ships_count": 0, "projects": [], "coding_time_seconds": 0, "coding_time_seconds_today": 120, "balance": "You need to have a pocket watcher badge to view this.", "badges": [], "created_at": "2025-08-01T22:53:00.924-04:00", "updated_at": "2025-09-24T08:04:13.691-04:00", "avatar": "https://secure.gravatar.com/avatar/05a45cb1dd3f163d3c6f42ff9478ec21.jpg?s=512&d=https%3A%2F%2Fa.slack-edge.com%2Fdf10d%2Fimg%2Favatars%2Fava_0007-512.png", "custom_css": null}, {"id": 20384, "slack_id": "U098JS3SQMC", "display_name": "ISHAN GAUTAM", "bio": null, "projects_count": 0, "devlogs_count": 0, "votes_count": 0, "ships_count": 0, "projects": [], "coding_time_seconds": 0, "coding_time_seconds_today": 0, "balance": "You need to have a pocket watcher badge to view this.", "badges": [], "created_at": "2025-08-01T22:53:39.970-04:00", "updated_at": "2025-08-02T04:00:17.126-04:00", "avatar": "https://avatars.slack-edge.com/2025-08-01/9290897789270_1b1c17bdd94759ec34c3_original.jpg", "custom_css": null}, {"id": 20385, "slack_id": "U098MPQUV3L", "display_name": "Daniel", "bio": null, "projects_count": 0, "devlogs_count": 0, "votes_count": 0, "ships_count": 0, "projects": [], "coding_time_seconds": 0, "coding_time_seconds_today": 0, "balance": "You need to have a pocket watcher badge to view this.", "badges": [], "created_at": "2025-08-01T22:54:20.118-04:00", "updated_at": "2025-08-02T04:00:17.216-04:00", "avatar": "https://secure.gravatar.com/avatar/bd0691035a9078408023abf1f7713aef.jpg?s=512&d=https%3A%2F%2Fa.slack-edge.com%2Fdf10d%2Fimg%2Favatars%2Fava_0023-512.png", "custom_css": null}], "pagination": {"page": 1015, "pages": 1192, "count": 23828, "items": 20}}