{"users": [{"id": 20386, "slack_id": "U050AMRV1EX", "display_name": "sarinara", "bio": null, "projects_count": 0, "devlogs_count": 0, "votes_count": 0, "ships_count": 0, "projects": [], "coding_time_seconds": 0, "coding_time_seconds_today": 0, "balance": "You need to have a pocket watcher badge to view this.", "badges": [], "created_at": "2025-08-01T22:56:20.276-04:00", "updated_at": "2025-08-02T04:00:17.307-04:00", "avatar": "https://avatars.slack-edge.com/2025-02-23/8511053079265_54dca8cf214865ccfdbd_original.png", "custom_css": null}, {"id": 20387, "slack_id": "U098MPZDUJW", "display_name": "ARAKALA SRINIVAS KUMAR", "bio": null, "projects_count": 0, "devlogs_count": 0, "votes_count": 0, "ships_count": 0, "projects": [], "coding_time_seconds": 0, "coding_time_seconds_today": 0, "balance": "You need to have a pocket watcher badge to view this.", "badges": [], "created_at": "2025-08-01T22:59:42.413-04:00", "updated_at": "2025-08-03T05:24:47.550-04:00", "avatar": "https://avatars.slack-edge.com/2025-08-01/9295244534372_52e265b3f98bb203a435_original.png", "custom_css": null}, {"id": 20388, "slack_id": "U098KGXDD6Z", "display_name": "Aryan", "bio": null, "projects_count": 0, "devlogs_count": 0, "votes_count": 0, "ships_count": 0, "projects": [], "coding_time_seconds": 0, "coding_time_seconds_today": 0, "balance": "You need to have a pocket watcher badge to view this.", "badges": [], "created_at": "2025-08-01T23:08:56.114-04:00", "updated_at": "2025-08-02T04:00:17.504-04:00", "avatar": "https://secure.gravatar.com/avatar/0b934ae8ef898d33495f7ba7d6321fa4.jpg?s=512&d=https%3A%2F%2Fa.slack-edge.com%2Fdf10d%2Fimg%2Favatars%2Fava_0017-512.png", "custom_css": null}, {"id": 20389, "slack_id": "U0993A3C8U9", "display_name": "Milan", "bio": null, "projects_count": 0, "devlogs_count": 0, "votes_count": 0, "ships_count": 0, "projects": [], "coding_time_seconds": 42781, "coding_time_seconds_today": 651, "balance": "You need to have a pocket watcher badge to view this.", "badges": [], "created_at": "2025-08-01T23:26:56.967-04:00", "updated_at": "2025-08-02T05:59:44.884-04:00", "avatar": "https://secure.gravatar.com/avatar/151e5fb7189927381ca8cae7ae60da73.jpg?s=512&d=https%3A%2F%2Fa.slack-edge.com%2Fdf10d%2Fimg%2Favatars%2Fava_0000-512.png", "custom_css": null}, {"id": 20390, "slack_id": "U098KKWJ761", "display_name": "Shaish Guni", "bio": null, "projects_count": 0, "devlogs_count": 0, "votes_count": 0, "ships_count": 0, "projects": [], "coding_time_seconds": 0, "coding_time_seconds_today": 0, "balance": "You need to have a pocket watcher badge to view this.", "badges": [], "created_at": "2025-08-02T00:14:20.550-04:00", "updated_at": "2025-08-02T04:00:17.681-04:00", "avatar": "https://avatars.slack-edge.com/2025-08-01/9309416326769_4ddf533d751965e9fe00_original.jpg", "custom_css": null}, {"id": 20391, "slack_id": "U07P4R39BM5", "display_name": "avni", "bio": null, "projects_count": 1, "devlogs_count": 1, "votes_count": 0, "ships_count": 0, "projects": [{"id": 9654, "title": "Trust me.", "devlogs_count": 1, "created_at": "2025-08-02T01:20:30.035-04:00"}], "coding_time_seconds": 326654, "coding_time_seconds_today": 0, "balance": "You need to have a pocket watcher badge to view this.", "badges": [], "created_at": "2025-08-02T00:16:59.235-04:00", "updated_at": "2025-09-07T03:47:59.373-04:00", "avatar": "https://avatars.slack-edge.com/2025-09-06/9471461498421_d844cf11e7d4c5a302ac_original.png", "custom_css": null}, {"id": 20392, "slack_id": "U08041BK9PF", "display_name": "Yido", "bio": "Everybody knows I'm sad!", "projects_count": 0, "devlogs_count": 0, "votes_count": 0, "ships_count": 0, "projects": [], "coding_time_seconds": 6907, "coding_time_seconds_today": 0, "balance": "You need to have a pocket watcher badge to view this.", "badges": [], "created_at": "2025-08-02T00:30:06.410-04:00", "updated_at": "2025-08-04T01:04:20.307-04:00", "avatar": "https://avatars.slack-edge.com/2024-12-07/8125268319879_98eeead089a38280c8f3_original.png", "custom_css": null}, {"id": 20393, "slack_id": "U097QK336HG", "display_name": "Marlon", "bio": null, "projects_count": 0, "devlogs_count": 0, "votes_count": 0, "ships_count": 0, "projects": [], "coding_time_seconds": 0, "coding_time_seconds_today": 0, "balance": "You need to have a pocket watcher badge to view this.", "badges": [], "created_at": "2025-08-02T00:37:00.051-04:00", "updated_at": "2025-08-02T04:00:17.937-04:00", "avatar": "https://secure.gravatar.com/avatar/fe163810a3d9d2b0c166521e6fa6c2b9.jpg?s=512&d=https%3A%2F%2Fa.slack-edge.com%2Fdf10d%2Fimg%2Favatars%2Fava_0000-512.png", "custom_css": null}, {"id": 20394, "slack_id": "U098774MKQX", "display_name": "Varun Damojipurapu", "bio": null, "projects_count": 0, "devlogs_count": 0, "votes_count": 0, "ships_count": 0, "projects": [], "coding_time_seconds": 0, "coding_time_seconds_today": 0, "balance": "You need to have a pocket watcher badge to view this.", "badges": [], "created_at": "2025-08-02T01:39:19.364-04:00", "updated_at": "2025-08-05T21:59:10.124-04:00", "avatar": "https://avatars.slack-edge.com/2025-08-05/9305289903414_7618e96e1783474160f2_original.jpg", "custom_css": null}, {"id": 20395, "slack_id": "U0999LL0XEC", "display_name": "Rudra Singla", "bio": null, "projects_count": 0, "devlogs_count": 0, "votes_count": 0, "ships_count": 0, "projects": [], "coding_time_seconds": 0, "coding_time_seconds_today": 0, "balance": "You need to have a pocket watcher badge to view this.", "badges": [], "created_at": "2025-08-02T02:20:24.625-04:00", "updated_at": "2025-08-02T04:00:18.132-04:00", "avatar": "https://avatars.slack-edge.com/2025-08-01/9290726019075_0c6a12f9cea5256221db_original.png", "custom_css": null}, {"id": 20396, "slack_id": "U0999MPCDUY", "display_name": "janpreet", "bio": null, "projects_count": 0, "devlogs_count": 0, "votes_count": 0, "ships_count": 0, "projects": [], "coding_time_seconds": 0, "coding_time_seconds_today": 0, "balance": "You need to have a pocket watcher badge to view this.", "badges": [], "created_at": "2025-08-02T02:39:49.859-04:00", "updated_at": "2025-08-02T04:00:18.227-04:00", "avatar": "https://secure.gravatar.com/avatar/c2c6e312b2d7415f175f8c63fd68d025.jpg?s=512&d=https%3A%2F%2Fa.slack-edge.com%2Fdf10d%2Fimg%2Favatars%2Fava_0001-512.png", "custom_css": null}, {"id": 20397, "slack_id": "U098JNJ2CEP", "display_name": "Hassan Shahzada", "bio": null, "projects_count": 0, "devlogs_count": 0, "votes_count": 0, "ships_count": 0, "projects": [], "coding_time_seconds": 0, "coding_time_seconds_today": 0, "balance": "You need to have a pocket watcher badge to view this.", "badges": [], "created_at": "2025-08-02T02:54:45.111-04:00", "updated_at": "2025-08-02T04:00:22.360-04:00", "avatar": "https://secure.gravatar.com/avatar/3ee3311e1853794e134a98d90488d812.jpg?s=512&d=https%3A%2F%2Fa.slack-edge.com%2Fdf10d%2Fimg%2Favatars%2Fava_0012-512.png", "custom_css": null}, {"id": 20398, "slack_id": "U098PGXBQFN", "display_name": "Ankit Kumar", "bio": null, "projects_count": 0, "devlogs_count": 0, "votes_count": 0, "ships_count": 0, "projects": [], "coding_time_seconds": 12920, "coding_time_seconds_today": 0, "balance": "You need to have a pocket watcher badge to view this.", "badges": [], "created_at": "2025-08-02T02:59:52.168-04:00", "updated_at": "2025-08-02T06:46:12.574-04:00", "avatar": "https://secure.gravatar.com/avatar/0ed75963a9eff92272912e3c73b92dbc.jpg?s=512&d=https%3A%2F%2Fa.slack-edge.com%2Fdf10d%2Fimg%2Favatars%2Fava_0012-512.png", "custom_css": null}, {"id": 20399, "slack_id": "U098F2KACCT", "display_name": "aaykay", "bio": null, "projects_count": 0, "devlogs_count": 0, "votes_count": 0, "ships_count": 0, "projects": [], "coding_time_seconds": 0, "coding_time_seconds_today": 0, "balance": "You need to have a pocket watcher badge to view this.", "badges": [], "created_at": "2025-08-02T03:16:00.766-04:00", "updated_at": "2025-08-02T04:00:22.539-04:00", "avatar": "https://secure.gravatar.com/avatar/bb133c51fdbcc9239b1eaa5c71fe4e25.jpg?s=512&d=https%3A%2F%2Fa.slack-edge.com%2Fdf10d%2Fimg%2Favatars%2Fava_0004-512.png", "custom_css": null}, {"id": 20400, "slack_id": "U098JPNQHD1", "display_name": "Ayush Dubey", "bio": null, "projects_count": 0, "devlogs_count": 0, "votes_count": 0, "ships_count": 0, "projects": [], "coding_time_seconds": 0, "coding_time_seconds_today": 0, "balance": "You need to have a pocket watcher badge to view this.", "badges": [], "created_at": "2025-08-02T03:19:07.405-04:00", "updated_at": "2025-08-02T04:00:22.625-04:00", "avatar": "https://avatars.slack-edge.com/2025-08-02/9295609469620_6eeec829e0c71644d6e3_original.png", "custom_css": null}, {"id": 20401, "slack_id": "U096GHKRTQX", "display_name": "Saud", "bio": null, "projects_count": 0, "devlogs_count": 0, "votes_count": 0, "ships_count": 0, "projects": [], "coding_time_seconds": 0, "coding_time_seconds_today": 0, "balance": "You need to have a pocket watcher badge to view this.", "badges": [], "created_at": "2025-08-02T03:22:39.174-04:00", "updated_at": "2025-08-02T04:00:22.721-04:00", "avatar": "https://secure.gravatar.com/avatar/b2640a5f780c4b6a88eefaa36b576cd0.jpg?s=512&d=https%3A%2F%2Fa.slack-edge.com%2Fdf10d%2Fimg%2Favatars%2Fava_0023-512.png", "custom_css": null}, {"id": 20402, "slack_id": "U098N6QR6CS", "display_name": "yr", "bio": null, "projects_count": 0, "devlogs_count": 0, "votes_count": 0, "ships_count": 0, "projects": [], "coding_time_seconds": 0, "coding_time_seconds_today": 0, "balance": "You need to have a pocket watcher badge to view this.", "badges": [], "created_at": "2025-08-02T03:45:53.989-04:00", "updated_at": "2025-08-02T04:00:22.822-04:00", "avatar": "https://secure.gravatar.com/avatar/2ffd14b00992360d3956bc30b0003254.jpg?s=512&d=https%3A%2F%2Fa.slack-edge.com%2Fdf10d%2Fimg%2Favatars%2Fava_0021-512.png", "custom_css": null}, {"id": 20403, "slack_id": "U07HXRBJ6CU", "display_name": "Exotwd", "bio": null, "projects_count": 1, "devlogs_count": 1, "votes_count": 4, "ships_count": 0, "projects": [{"id": 12067, "title": "Smart Pool", "devlogs_count": 1, "created_at": "2025-08-22T15:08:50.717-04:00"}], "coding_time_seconds": 9703, "coding_time_seconds_today": 0, "balance": "You need to have a pocket watcher badge to view this.", "badges": [], "created_at": "2025-08-02T03:49:29.917-04:00", "updated_at": "2025-08-22T16:46:41.659-04:00", "avatar": "https://avatars.slack-edge.com/2024-08-21/7630168365472_1367bbd917580a2b9c91_original.png", "custom_css": null}, {"id": 20404, "slack_id": "U0999QXD76C", "display_name": "Mnahil", "bio": null, "projects_count": 1, "devlogs_count": 1, "votes_count": 4, "ships_count": 1, "projects": [{"id": 10452, "title": "Emart", "devlogs_count": 1, "created_at": "2025-08-07T06:06:27.114-04:00"}], "coding_time_seconds": 107303, "coding_time_seconds_today": 0, "balance": "You need to have a pocket watcher badge to view this.", "badges": [], "created_at": "2025-08-02T03:54:26.362-04:00", "updated_at": "2025-08-07T06:35:01.114-04:00", "avatar": "https://secure.gravatar.com/avatar/d3a18d8bcb9143eaca3bebb5de0288cc.jpg?s=512&d=https%3A%2F%2Fa.slack-edge.com%2Fdf10d%2Fimg%2Favatars%2Fava_0017-512.png", "custom_css": null}, {"id": 20405, "slack_id": "U06BXDZHW4U", "display_name": "MD. MUFTHAKHERUL ISLAM MIRAZ", "bio": null, "projects_count": 0, "devlogs_count": 0, "votes_count": 0, "ships_count": 0, "projects": [], "coding_time_seconds": 0, "coding_time_seconds_today": 0, "balance": "You need to have a pocket watcher badge to view this.", "badges": [], "created_at": "2025-08-02T04:03:32.031-04:00", "updated_at": "2025-08-02T10:00:10.188-04:00", "avatar": "https://secure.gravatar.com/avatar/543b3d6432778f171b4e59059ada1b68.jpg?s=512&d=https%3A%2F%2Fa.slack-edge.com%2Fdf10d%2Fimg%2Favatars%2Fava_0016-512.png", "custom_css": null}], "pagination": {"page": 1016, "pages": 1192, "count": 23828, "items": 20}}