{"users": [{"id": 20426, "slack_id": "U098NGTQCHG", "display_name": "Lydenburg", "bio": null, "projects_count": 0, "devlogs_count": 0, "votes_count": 0, "ships_count": 0, "projects": [], "coding_time_seconds": 21371, "coding_time_seconds_today": 0, "balance": "You need to have a pocket watcher badge to view this.", "badges": [], "created_at": "2025-08-02T07:59:37.715-04:00", "updated_at": "2025-09-14T06:52:45.439-04:00", "avatar": "https://secure.gravatar.com/avatar/e6e8d5b3034ed0045027697ca24085b8.jpg?s=512&d=https%3A%2F%2Fa.slack-edge.com%2Fdf10d%2Fimg%2Favatars%2Fava_0018-512.png", "custom_css": null}, {"id": 20427, "slack_id": "U089MTBANSD", "display_name": "Ilia", "bio": null, "projects_count": 0, "devlogs_count": 0, "votes_count": 0, "ships_count": 0, "projects": [], "coding_time_seconds": 0, "coding_time_seconds_today": 0, "balance": "You need to have a pocket watcher badge to view this.", "badges": [], "created_at": "2025-08-02T08:08:34.070-04:00", "updated_at": "2025-08-02T10:00:16.230-04:00", "avatar": "https://secure.gravatar.com/avatar/90f39b111304a0855ed859f2f5282eda.jpg?s=512&d=https%3A%2F%2Fa.slack-edge.com%2Fdf10d%2Fimg%2Favatars%2Fava_0017-512.png", "custom_css": null}, {"id": 20428, "slack_id": "U098Q0B3FC4", "display_name": "Natavan", "bio": null, "projects_count": 0, "devlogs_count": 0, "votes_count": 0, "ships_count": 0, "projects": [], "coding_time_seconds": 0, "coding_time_seconds_today": 0, "balance": "You need to have a pocket watcher badge to view this.", "badges": [], "created_at": "2025-08-02T08:22:22.500-04:00", "updated_at": "2025-08-02T10:00:16.331-04:00", "avatar": "https://secure.gravatar.com/avatar/3e77980b0a17817fd591cd2f37743911.jpg?s=512&d=https%3A%2F%2Fa.slack-edge.com%2Fdf10d%2Fimg%2Favatars%2Fava_0016-512.png", "custom_css": null}, {"id": 20429, "slack_id": "U098NJ4R4H0", "display_name": "Arda G\u00fcn", "bio": null, "projects_count": 0, "devlogs_count": 0, "votes_count": 0, "ships_count": 0, "projects": [], "coding_time_seconds": 0, "coding_time_seconds_today": 0, "balance": "You need to have a pocket watcher badge to view this.", "badges": [], "created_at": "2025-08-02T08:23:33.079-04:00", "updated_at": "2025-08-02T10:00:16.435-04:00", "avatar": "https://avatars.slack-edge.com/2025-08-02/9294617097234_92b01ab5f0cdec2d8a62_original.jpg", "custom_css": null}, {"id": 20430, "slack_id": "U099A9J2PLY", "display_name": "Emek Turhan", "bio": null, "projects_count": 0, "devlogs_count": 0, "votes_count": 0, "ships_count": 0, "projects": [], "coding_time_seconds": 60639, "coding_time_seconds_today": 0, "balance": "You need to have a pocket watcher badge to view this.", "badges": [], "created_at": "2025-08-02T09:08:39.565-04:00", "updated_at": "2025-08-02T10:00:16.535-04:00", "avatar": "https://secure.gravatar.com/avatar/3ecdf805c53f7e1bfebb0a66c3d5b1c8.jpg?s=512&d=https%3A%2F%2Fa.slack-edge.com%2Fdf10d%2Fimg%2Favatars%2Fava_0020-512.png", "custom_css": null}, {"id": 20431, "slack_id": "U098LF2AEQ5", "display_name": "Zidan", "bio": null, "projects_count": 0, "devlogs_count": 0, "votes_count": 0, "ships_count": 0, "projects": [], "coding_time_seconds": 0, "coding_time_seconds_today": 0, "balance": "You need to have a pocket watcher badge to view this.", "badges": [], "created_at": "2025-08-02T09:45:38.469-04:00", "updated_at": "2025-08-02T10:00:16.634-04:00", "avatar": "https://secure.gravatar.com/avatar/b2f5044e7d525f3d69c3b5d9d5a16df7.jpg?s=512&d=https%3A%2F%2Fa.slack-edge.com%2Fdf10d%2Fimg%2Favatars%2Fava_0014-512.png", "custom_css": null}, {"id": 20432, "slack_id": "U098LFZ9GUV", "display_name": "Al Nikolov", "bio": null, "projects_count": 0, "devlogs_count": 0, "votes_count": 0, "ships_count": 0, "projects": [], "coding_time_seconds": 0, "coding_time_seconds_today": 0, "balance": "You need to have a pocket watcher badge to view this.", "badges": [], "created_at": "2025-08-02T10:03:53.893-04:00", "updated_at": "2025-08-02T16:44:13.502-04:00", "avatar": "https://avatars.slack-edge.com/2025-08-02/9291893477062_292ad6c03528fe267ee5_original.jpg", "custom_css": null}, {"id": 20433, "slack_id": "U098KS30P3Q", "display_name": "Peter", "bio": null, "projects_count": 0, "devlogs_count": 0, "votes_count": 0, "ships_count": 0, "projects": [], "coding_time_seconds": 0, "coding_time_seconds_today": 0, "balance": "You need to have a pocket watcher badge to view this.", "badges": [], "created_at": "2025-08-02T10:04:26.897-04:00", "updated_at": "2025-08-02T16:44:13.591-04:00", "avatar": "https://secure.gravatar.com/avatar/56be18a8370398d1413c6fa2a59d5823.jpg?s=512&d=https%3A%2F%2Fa.slack-edge.com%2Fdf10d%2Fimg%2Favatars%2Fava_0014-512.png", "custom_css": null}, {"id": 20434, "slack_id": "U098KC2RJ3V", "display_name": "Sahriar Rahman Nahid", "bio": null, "projects_count": 0, "devlogs_count": 0, "votes_count": 0, "ships_count": 0, "projects": [], "coding_time_seconds": 309, "coding_time_seconds_today": 0, "balance": "You need to have a pocket watcher badge to view this.", "badges": [], "created_at": "2025-08-02T10:29:18.539-04:00", "updated_at": "2025-08-02T16:44:17.718-04:00", "avatar": "https://avatars.slack-edge.com/2025-08-02/9316458388640_1788d9e4bb3cd1300423_original.jpg", "custom_css": null}, {"id": 20435, "slack_id": "U098LHK7GDB", "display_name": "Harris Marinos", "bio": null, "projects_count": 0, "devlogs_count": 0, "votes_count": 0, "ships_count": 0, "projects": [], "coding_time_seconds": 0, "coding_time_seconds_today": 0, "balance": "You need to have a pocket watcher badge to view this.", "badges": [], "created_at": "2025-08-02T10:39:21.923-04:00", "updated_at": "2025-08-02T16:44:17.798-04:00", "avatar": "https://avatars.slack-edge.com/2025-08-02/9291429815635_e4a80652615fcaed6c34_original.jpg", "custom_css": null}, {"id": 20436, "slack_id": "U098NREDJM8", "display_name": "Dhriti Peshkar", "bio": null, "projects_count": 0, "devlogs_count": 0, "votes_count": 0, "ships_count": 0, "projects": [], "coding_time_seconds": 0, "coding_time_seconds_today": 0, "balance": "You need to have a pocket watcher badge to view this.", "badges": [], "created_at": "2025-08-02T11:20:50.592-04:00", "updated_at": "2025-08-02T16:44:18.150-04:00", "avatar": "https://secure.gravatar.com/avatar/62cef1e0a02757fb9f68e7c1ff54e40a.jpg?s=512&d=https%3A%2F%2Fa.slack-edge.com%2Fdf10d%2Fimg%2Favatars%2Fava_0021-512.png", "custom_css": null}, {"id": 20437, "slack_id": "U098LLMRS13", "display_name": "Dhanya P", "bio": null, "projects_count": 0, "devlogs_count": 0, "votes_count": 0, "ships_count": 0, "projects": [], "coding_time_seconds": 0, "coding_time_seconds_today": 0, "balance": "You need to have a pocket watcher badge to view this.", "badges": [], "created_at": "2025-08-02T11:46:13.651-04:00", "updated_at": "2025-08-02T16:44:18.240-04:00", "avatar": "https://secure.gravatar.com/avatar/617143234d5bc70df25b1aa2f781a313.jpg?s=512&d=https%3A%2F%2Fa.slack-edge.com%2Fdf10d%2Fimg%2Favatars%2Fava_0022-512.png", "custom_css": null}, {"id": 20438, "slack_id": "U08TVMC7N56", "display_name": "Rudaiba", "bio": "Hey there! I'm Rudaiba. I'm a normal student, living a normal life, learning something new every night! Have a great day!!", "projects_count": 0, "devlogs_count": 17, "votes_count": 381, "ships_count": 0, "projects": [], "coding_time_seconds": 224831, "coding_time_seconds_today": 0, "balance": "You need to have a pocket watcher badge to view this.", "badges": [], "created_at": "2025-08-02T12:07:33.025-04:00", "updated_at": "2025-08-25T04:49:37.929-04:00", "avatar": "https://avatars.slack-edge.com/2025-05-20/8927368832548_3390f62249ef7b6641c3_original.jpg", "custom_css": null}, {"id": 20439, "slack_id": "U099AJ78MJL", "display_name": "Rohit Kumar", "bio": null, "projects_count": 0, "devlogs_count": 0, "votes_count": 0, "ships_count": 0, "projects": [], "coding_time_seconds": 0, "coding_time_seconds_today": 0, "balance": "You need to have a pocket watcher badge to view this.", "badges": [], "created_at": "2025-08-02T12:17:09.436-04:00", "updated_at": "2025-08-02T16:44:18.431-04:00", "avatar": "https://avatars.slack-edge.com/2025-08-02/9294963541346_7a96619a3ae855b71d04_original.jpg", "custom_css": null}, {"id": 20440, "slack_id": "U098LNX2P6Z", "display_name": "Ishanth", "bio": null, "projects_count": 0, "devlogs_count": 0, "votes_count": 0, "ships_count": 0, "projects": [], "coding_time_seconds": 0, "coding_time_seconds_today": 0, "balance": "You need to have a pocket watcher badge to view this.", "badges": [], "created_at": "2025-08-02T12:34:52.529-04:00", "updated_at": "2025-08-02T16:44:18.518-04:00", "avatar": "https://secure.gravatar.com/avatar/137bb4ffb0c8a09b8974c939af2ff75d.jpg?s=512&d=https%3A%2F%2Fa.slack-edge.com%2Fdf10d%2Fimg%2Favatars%2Fava_0004-512.png", "custom_css": null}, {"id": 20441, "slack_id": "U08K09UKHRS", "display_name": "stuck", "bio": null, "projects_count": 0, "devlogs_count": 0, "votes_count": 0, "ships_count": 0, "projects": [], "coding_time_seconds": 0, "coding_time_seconds_today": 0, "balance": "You need to have a pocket watcher badge to view this.", "badges": [], "created_at": "2025-08-02T12:40:48.469-04:00", "updated_at": "2025-08-02T13:32:01.003-04:00", "avatar": "https://secure.gravatar.com/avatar/342fcff706a8c837c63197d3e52d2425.jpg?s=512&d=https%3A%2F%2Fa.slack-edge.com%2Fdf10d%2Fimg%2Favatars%2Fava_0000-512.png", "custom_css": null}, {"id": 20442, "slack_id": "U098ELGTERK", "display_name": "Ashutosh Panda", "bio": null, "projects_count": 1, "devlogs_count": 1, "votes_count": 0, "ships_count": 0, "projects": [{"id": 9940, "title": "sasen", "devlogs_count": 1, "created_at": "2025-08-03T02:49:05.351-04:00"}], "coding_time_seconds": 25495, "coding_time_seconds_today": 0, "balance": "You need to have a pocket watcher badge to view this.", "badges": [], "created_at": "2025-08-02T13:08:10.353-04:00", "updated_at": "2025-08-05T11:48:08.324-04:00", "avatar": "https://avatars.slack-edge.com/2025-08-02/9280307709847_664274bba4fd9df4395c_original.png", "custom_css": null}, {"id": 20443, "slack_id": "U098QCSHF6Y", "display_name": "kalinah_cs", "bio": null, "projects_count": 0, "devlogs_count": 0, "votes_count": 0, "ships_count": 0, "projects": [], "coding_time_seconds": 0, "coding_time_seconds_today": 0, "balance": "You need to have a pocket watcher badge to view this.", "badges": [], "created_at": "2025-08-02T13:18:00.296-04:00", "updated_at": "2025-08-02T16:44:18.762-04:00", "avatar": "https://secure.gravatar.com/avatar/4f3a2465c8bd8be852e1eddce6d66722.jpg?s=512&d=https%3A%2F%2Fa.slack-edge.com%2Fdf10d%2Fimg%2Favatars%2Fava_0019-512.png", "custom_css": null}, {"id": 20444, "slack_id": "U097J4DE8E4", "display_name": "Hrithik Nayak", "bio": null, "projects_count": 0, "devlogs_count": 0, "votes_count": 0, "ships_count": 0, "projects": [], "coding_time_seconds": 0, "coding_time_seconds_today": 0, "balance": "You need to have a pocket watcher badge to view this.", "badges": [], "created_at": "2025-08-02T13:23:47.637-04:00", "updated_at": "2025-08-02T16:44:18.847-04:00", "avatar": "https://avatars.slack-edge.com/2025-08-02/9316741403792_45b1af6197d26db6182d_original.png", "custom_css": null}, {"id": 20445, "slack_id": "U098L6TA8A2", "display_name": "NarutoGX", "bio": null, "projects_count": 0, "devlogs_count": 0, "votes_count": 0, "ships_count": 0, "projects": [], "coding_time_seconds": 756, "coding_time_seconds_today": 0, "balance": "You need to have a pocket watcher badge to view this.", "badges": [], "created_at": "2025-08-02T13:46:26.491-04:00", "updated_at": "2025-08-03T23:53:01.708-04:00", "avatar": "https://secure.gravatar.com/avatar/92cfc61a34230cd426e3d88351ec254f.jpg?s=512&d=https%3A%2F%2Fa.slack-edge.com%2Fdf10d%2Fimg%2Favatars%2Fava_0015-512.png", "custom_css": null}], "pagination": {"page": 1018, "pages": 1192, "count": 23828, "items": 20}}