{"users": [{"id": 20446, "slack_id": "U098L770814", "display_name": "Gajendra", "bio": null, "projects_count": 1, "devlogs_count": 0, "votes_count": 0, "ships_count": 0, "projects": [{"id": 9864, "title": "myPortfolio", "devlogs_count": 0, "created_at": "2025-08-02T14:18:42.864-04:00"}], "coding_time_seconds": 481, "coding_time_seconds_today": 0, "balance": "You need to have a pocket watcher badge to view this.", "badges": [], "created_at": "2025-08-02T13:53:17.264-04:00", "updated_at": "2025-08-02T16:44:19.007-04:00", "avatar": "https://secure.gravatar.com/avatar/509419fef2e089b7da7ba8d50beeb4a3.jpg?s=512&d=https%3A%2F%2Fa.slack-edge.com%2Fdf10d%2Fimg%2Favatars%2Fava_0019-512.png", "custom_css": null}, {"id": 20447, "slack_id": "U08KA9DKJPK", "display_name": "Glenzzy", "bio": null, "projects_count": 0, "devlogs_count": 0, "votes_count": 0, "ships_count": 0, "projects": [], "coding_time_seconds": 0, "coding_time_seconds_today": 0, "balance": "You need to have a pocket watcher badge to view this.", "badges": [], "created_at": "2025-08-02T14:41:51.280-04:00", "updated_at": "2025-08-02T14:51:04.339-04:00", "avatar": "https://avatars.slack-edge.com/2025-05-02/8840218500596_bd02c8866dd0226b2cd2_original.jpg", "custom_css": null}, {"id": 20448, "slack_id": "U098LAQJJ4E", "display_name": "Moosa", "bio": null, "projects_count": 0, "devlogs_count": 0, "votes_count": 0, "ships_count": 0, "projects": [], "coding_time_seconds": 0, "coding_time_seconds_today": 0, "balance": "You need to have a pocket watcher badge to view this.", "badges": [], "created_at": "2025-08-02T15:20:24.268-04:00", "updated_at": "2025-08-02T16:44:23.202-04:00", "avatar": "https://secure.gravatar.com/avatar/e24610d8ee6805d5bba6f612c5a3e1c5.jpg?s=512&d=https%3A%2F%2Fa.slack-edge.com%2Fdf10d%2Fimg%2Favatars%2Fava_0024-512.png", "custom_css": null}, {"id": 20449, "slack_id": "U0994NXPU8Z", "display_name": "muhirk", "bio": null, "projects_count": 0, "devlogs_count": 0, "votes_count": 0, "ships_count": 0, "projects": [], "coding_time_seconds": 0, "coding_time_seconds_today": 0, "balance": "You need to have a pocket watcher badge to view this.", "badges": [], "created_at": "2025-08-02T15:25:51.253-04:00", "updated_at": "2025-08-02T16:44:23.300-04:00", "avatar": "https://secure.gravatar.com/avatar/e5a049772dd54d387ec7c895b53cd3e4.jpg?s=512&d=https%3A%2F%2Fa.slack-edge.com%2Fdf10d%2Fimg%2Favatars%2Fava_0008-512.png", "custom_css": null}, {"id": 20450, "slack_id": "U098KRA6R43", "display_name": "Ben", "bio": null, "projects_count": 0, "devlogs_count": 0, "votes_count": 0, "ships_count": 0, "projects": [], "coding_time_seconds": 0, "coding_time_seconds_today": 0, "balance": "You need to have a pocket watcher badge to view this.", "badges": [], "created_at": "2025-08-02T15:37:47.318-04:00", "updated_at": "2025-08-02T16:44:23.398-04:00", "avatar": "https://avatars.slack-edge.com/2025-08-02/9291870628227_63492abb0dbb6a94752e_original.jpg", "custom_css": null}, {"id": 20451, "slack_id": "U09234LCJGK", "display_name": "Abhinav Gandhi", "bio": null, "projects_count": 0, "devlogs_count": 0, "votes_count": 0, "ships_count": 0, "projects": [], "coding_time_seconds": 0, "coding_time_seconds_today": 0, "balance": "You need to have a pocket watcher badge to view this.", "badges": [], "created_at": "2025-08-02T16:01:17.975-04:00", "updated_at": "2025-08-02T16:44:23.493-04:00", "avatar": "https://secure.gravatar.com/avatar/1f4c642e49807d224e5514a316983267.jpg?s=512&d=https%3A%2F%2Fa.slack-edge.com%2Fdf10d%2Fimg%2Favatars%2Fava_0017-512.png", "custom_css": null}, {"id": 20452, "slack_id": "U098KCZQEBD", "display_name": "Md Arifullah Al Anas", "bio": null, "projects_count": 0, "devlogs_count": 0, "votes_count": 0, "ships_count": 0, "projects": [], "coding_time_seconds": 0, "coding_time_seconds_today": 0, "balance": "You need to have a pocket watcher badge to view this.", "badges": [], "created_at": "2025-08-02T16:18:37.577-04:00", "updated_at": "2025-08-02T16:44:23.581-04:00", "avatar": "https://secure.gravatar.com/avatar/1b5914b43d3423a36e5e6564fe811329.jpg?s=512&d=https%3A%2F%2Fa.slack-edge.com%2Fdf10d%2Fimg%2Favatars%2Fava_0002-512.png", "custom_css": null}, {"id": 20453, "slack_id": "U098KTARV3M", "display_name": "lily", "bio": null, "projects_count": 0, "devlogs_count": 0, "votes_count": 0, "ships_count": 0, "projects": [], "coding_time_seconds": 30, "coding_time_seconds_today": 0, "balance": "You need to have a pocket watcher badge to view this.", "badges": [], "created_at": "2025-08-02T16:26:31.251-04:00", "updated_at": "2025-08-02T16:44:23.666-04:00", "avatar": "https://secure.gravatar.com/avatar/e8b6109ca609369abc4fe8fa826af0d8.jpg?s=512&d=https%3A%2F%2Fa.slack-edge.com%2Fdf10d%2Fimg%2Favatars%2Fava_0003-512.png", "custom_css": null}, {"id": 20454, "slack_id": "U098P9DLUGJ", "display_name": "ingobeans", "bio": "hi there!!!!!!! you should play mail\r\n\r\n:3", "projects_count": 6, "devlogs_count": 116, "votes_count": 140, "ships_count": 6, "projects": [{"id": 12187, "title": "ramble", "devlogs_count": 21, "created_at": "2025-08-24T06:38:44.804-04:00"}, {"id": 12677, "title": "HorseGadgets", "devlogs_count": 13, "created_at": "2025-08-31T14:21:33.561-04:00"}, {"id": 12939, "title": "mail", "devlogs_count": 12, "created_at": "2025-09-05T18:38:32.568-04:00"}, {"id": 11362, "title": "toad", "devlogs_count": 50, "created_at": "2025-08-15T08:34:35.706-04:00"}, {"id": 13133, "title": "nora", "devlogs_count": 7, "created_at": "2025-09-09T11:46:44.274-04:00"}, {"id": 10305, "title": "sludge", "devlogs_count": 13, "created_at": "2025-08-05T18:36:17.011-04:00"}], "coding_time_seconds": 845330, "coding_time_seconds_today": 0, "balance": "You need to have a pocket watcher badge to view this.", "badges": [{"name": "Maiden Voyage", "text": "you shipped your first project! the journey begins...", "icon": "\ud83d\udea2"}, {"name": "Ballot Stuffer", "text": "vote 100 times.", "icon": "https://summer.hackclub.com/assets/i_voted-bf851b48.png"}, {"name": "Yapper I", "text": "Posted 10 comments on devlogs.", "icon": "\ud83d\udcac"}], "created_at": "2025-08-02T16:44:13.674-04:00", "updated_at": "2025-09-20T20:41:13.213-04:00", "avatar": "https://avatars.slack-edge.com/2025-09-20/9553786776690_2880557337f62c086395_original.png", "custom_css": null}, {"id": 20455, "slack_id": "U08BJ25057T", "display_name": "Pepino", "bio": null, "projects_count": 0, "devlogs_count": 0, "votes_count": 0, "ships_count": 0, "projects": [], "coding_time_seconds": 0, "coding_time_seconds_today": 0, "balance": "You need to have a pocket watcher badge to view this.", "badges": [], "created_at": "2025-08-02T16:53:00.360-04:00", "updated_at": "2025-08-02T16:54:02.044-04:00", "avatar": "https://secure.gravatar.com/avatar/ca4491c2cad15181668d4daa24709315.jpg?s=512&d=https%3A%2F%2Fa.slack-edge.com%2Fdf10d%2Fimg%2Favatars%2Fava_0000-512.png", "custom_css": null}, {"id": 20456, "slack_id": "U098PAEMWR0", "display_name": "Jackson Novak", "bio": null, "projects_count": 0, "devlogs_count": 0, "votes_count": 0, "ships_count": 0, "projects": [], "coding_time_seconds": 0, "coding_time_seconds_today": 0, "balance": "You need to have a pocket watcher badge to view this.", "badges": [], "created_at": "2025-08-02T17:11:34.906-04:00", "updated_at": "2025-08-02T21:59:16.147-04:00", "avatar": "https://secure.gravatar.com/avatar/f2dcaec23ccb3ab26101ce40dbaa5714.jpg?s=512&d=https%3A%2F%2Fa.slack-edge.com%2Fdf10d%2Fimg%2Favatars%2Fava_0001-512.png", "custom_css": null}, {"id": 20457, "slack_id": "U0994TEAJ8H", "display_name": "Rohan Babbellapati", "bio": null, "projects_count": 0, "devlogs_count": 0, "votes_count": 0, "ships_count": 0, "projects": [], "coding_time_seconds": 22737, "coding_time_seconds_today": 0, "balance": "You need to have a pocket watcher badge to view this.", "badges": [], "created_at": "2025-08-02T17:13:09.744-04:00", "updated_at": "2025-08-02T21:59:16.264-04:00", "avatar": "https://secure.gravatar.com/avatar/de1d7329526dfb5a31ce339cce2450af.jpg?s=512&d=https%3A%2F%2Fa.slack-edge.com%2Fdf10d%2Fimg%2Favatars%2Fava_0026-512.png", "custom_css": null}, {"id": 20458, "slack_id": "U0994TVHZ6D", "display_name": "Robin", "bio": null, "projects_count": 0, "devlogs_count": 0, "votes_count": 0, "ships_count": 0, "projects": [], "coding_time_seconds": 10711, "coding_time_seconds_today": 0, "balance": "You need to have a pocket watcher badge to view this.", "badges": [], "created_at": "2025-08-02T17:29:44.141-04:00", "updated_at": "2025-08-02T21:59:16.381-04:00", "avatar": "https://secure.gravatar.com/avatar/188a0dbabe4c74de9fb9dd71b9a543e7.jpg?s=512&d=https%3A%2F%2Fa.slack-edge.com%2Fdf10d%2Fimg%2Favatars%2Fava_0018-512.png", "custom_css": null}, {"id": 20459, "slack_id": "U099B2RQ2Q0", "display_name": "Moose", "bio": null, "projects_count": 0, "devlogs_count": 0, "votes_count": 0, "ships_count": 0, "projects": [], "coding_time_seconds": 0, "coding_time_seconds_today": 0, "balance": "You need to have a pocket watcher badge to view this.", "badges": [], "created_at": "2025-08-02T17:42:02.795-04:00", "updated_at": "2025-08-03T11:14:31.631-04:00", "avatar": "https://secure.gravatar.com/avatar/9b4500165b34bda1582b1d045dbff885.jpg?s=512&d=https%3A%2F%2Fa.slack-edge.com%2Fdf10d%2Fimg%2Favatars%2Fava_0014-512.png", "custom_css": null}, {"id": 20460, "slack_id": "U0988LNGMT9", "display_name": "Evelyn", "bio": null, "projects_count": 0, "devlogs_count": 0, "votes_count": 0, "ships_count": 0, "projects": [], "coding_time_seconds": 0, "coding_time_seconds_today": 0, "balance": "You need to have a pocket watcher badge to view this.", "badges": [], "created_at": "2025-08-02T17:48:48.247-04:00", "updated_at": "2025-08-17T16:45:07.017-04:00", "avatar": "https://secure.gravatar.com/avatar/b5b930bd4eea9f8a553643bf171c41b3.jpg?s=512&d=https%3A%2F%2Fa.slack-edge.com%2Fdf10d%2Fimg%2Favatars%2Fava_0007-512.png", "custom_css": null}, {"id": 20461, "slack_id": "U099AA46WDN", "display_name": "cheese", "bio": null, "projects_count": 0, "devlogs_count": 0, "votes_count": 0, "ships_count": 0, "projects": [], "coding_time_seconds": 3311, "coding_time_seconds_today": 0, "balance": "You need to have a pocket watcher badge to view this.", "badges": [], "created_at": "2025-08-02T18:12:40.231-04:00", "updated_at": "2025-08-02T21:59:20.910-04:00", "avatar": "https://secure.gravatar.com/avatar/1e76d6a33481c55e83b2f37dad7b4bca.jpg?s=512&d=https%3A%2F%2Fa.slack-edge.com%2Fdf10d%2Fimg%2Favatars%2Fava_0023-512.png", "custom_css": null}, {"id": 20462, "slack_id": "U078VGEGL1H", "display_name": "Graham Howard", "bio": null, "projects_count": 0, "devlogs_count": 0, "votes_count": 1, "ships_count": 0, "projects": [], "coding_time_seconds": 39797, "coding_time_seconds_today": 0, "balance": "You need to have a pocket watcher badge to view this.", "badges": [], "created_at": "2025-08-02T18:31:40.845-04:00", "updated_at": "2025-08-26T19:47:57.827-04:00", "avatar": "https://secure.gravatar.com/avatar/fefa2e5a218c5a2c70600667273483ef.jpg?s=512&d=https%3A%2F%2Fa.slack-edge.com%2Fdf10d%2Fimg%2Favatars%2Fava_0021-512.png", "custom_css": null}, {"id": 20463, "slack_id": "U07F6FMJ97U", "display_name": "Max", "bio": null, "projects_count": 1, "devlogs_count": 2, "votes_count": 0, "ships_count": 0, "projects": [{"id": 9901, "title": "fishSol", "devlogs_count": 2, "created_at": "2025-08-02T19:22:02.912-04:00"}], "coding_time_seconds": 26577, "coding_time_seconds_today": 0, "balance": "You need to have a pocket watcher badge to view this.", "badges": [], "created_at": "2025-08-02T19:05:41.534-04:00", "updated_at": "2025-08-07T19:26:41.709-04:00", "avatar": "https://avatars.slack-edge.com/2024-08-09/7555809767316_8f67a83a377955b580f1_original.png", "custom_css": null}, {"id": 20464, "slack_id": "U098L3UEJ4B", "display_name": "Abheer Sehgal", "bio": null, "projects_count": 2, "devlogs_count": 5, "votes_count": 16, "ships_count": 2, "projects": [{"id": 10247, "title": "Lendly", "devlogs_count": 2, "created_at": "2025-08-05T11:16:07.372-04:00"}, {"id": 10308, "title": "Recommender bot", "devlogs_count": 3, "created_at": "2025-08-05T19:12:43.418-04:00"}], "coding_time_seconds": 36972, "coding_time_seconds_today": 0, "balance": "You need to have a pocket watcher badge to view this.", "badges": [], "created_at": "2025-08-02T19:07:06.799-04:00", "updated_at": "2025-08-07T18:45:39.372-04:00", "avatar": "https://secure.gravatar.com/avatar/33f923c8678303c6a8db863ace7ef668.jpg?s=512&d=https%3A%2F%2Fa.slack-edge.com%2Fdf10d%2Fimg%2Favatars%2Fava_0020-512.png", "custom_css": null}, {"id": 20465, "slack_id": "U099B8372BA", "display_name": "Koios Hong", "bio": null, "projects_count": 3, "devlogs_count": 1, "votes_count": 1, "ships_count": 1, "projects": [{"id": 10033, "title": "Project 2491", "devlogs_count": 0, "created_at": "2025-08-03T15:04:40.918-04:00"}, {"id": 10073, "title": "Click the square", "devlogs_count": 0, "created_at": "2025-08-03T21:04:11.846-04:00"}, {"id": 10029, "title": "Space Jump", "devlogs_count": 1, "created_at": "2025-08-03T14:41:47.098-04:00"}], "coding_time_seconds": 13767, "coding_time_seconds_today": 0, "balance": "You need to have a pocket watcher badge to view this.", "badges": [], "created_at": "2025-08-02T19:56:08.904-04:00", "updated_at": "2025-08-08T23:20:03.292-04:00", "avatar": "https://secure.gravatar.com/avatar/c07d508fee272dda5dd4b9caf72d6f85.jpg?s=512&d=https%3A%2F%2Fa.slack-edge.com%2Fdf10d%2Fimg%2Favatars%2Fava_0003-512.png", "custom_css": null}], "pagination": {"page": 1019, "pages": 1192, "count": 23828, "items": 20}}