{"users": [{"id": 2021, "slack_id": "U0922GHANJD", "display_name": "Aresito", "bio": null, "projects_count": 1, "devlogs_count": 2, "votes_count": 0, "ships_count": 0, "projects": [{"id": 1168, "title": "Ideology Tracker", "devlogs_count": 2, "created_at": "2025-06-17T20:01:51.353-04:00"}], "coding_time_seconds": 34546, "coding_time_seconds_today": 0, "balance": "You need to have a pocket watcher badge to view this.", "badges": [], "created_at": "2025-06-16T14:34:01.677-04:00", "updated_at": "2025-07-03T19:20:20.818-04:00", "avatar": "https://secure.gravatar.com/avatar/e54e31101bb2be0d3ab174e9ff293249.jpg?s=512&d=https%3A%2F%2Fa.slack-edge.com%2Fdf10d%2Fimg%2Favatars%2Fava_0015-512.png", "custom_css": null}, {"id": 2022, "slack_id": "U07AD6RKUBW", "display_name": "PonderSlime", "bio": null, "projects_count": 0, "devlogs_count": 1, "votes_count": 0, "ships_count": 0, "projects": [], "coding_time_seconds": 73806, "coding_time_seconds_today": 0, "balance": "You need to have a pocket watcher badge to view this.", "badges": [], "created_at": "2025-06-16T14:34:03.731-04:00", "updated_at": "2025-08-11T21:27:34.458-04:00", "avatar": "https://avatars.slack-edge.com/2024-11-17/8039344526293_c5bda7bf4cd0073f2bb0_original.png", "custom_css": null}, {"id": 2023, "slack_id": "U0922GJ7909", "display_name": "Shriram Mange", "bio": null, "projects_count": 0, "devlogs_count": 0, "votes_count": 0, "ships_count": 0, "projects": [], "coding_time_seconds": 271389, "coding_time_seconds_today": 0, "balance": "You need to have a pocket watcher badge to view this.", "badges": [], "created_at": "2025-06-16T14:34:05.029-04:00", "updated_at": "2025-07-03T19:20:21.371-04:00", "avatar": "https://secure.gravatar.com/avatar/31b8c9f8e0dff76c95c9f2863a971f83.jpg?s=512&d=https%3A%2F%2Fa.slack-edge.com%2Fdf10d%2Fimg%2Favatars%2Fava_0013-512.png", "custom_css": null}, {"id": 2024, "slack_id": "U092CD19J0G", "display_name": "Jonathan Pirolo", "bio": null, "projects_count": 0, "devlogs_count": 0, "votes_count": 0, "ships_count": 0, "projects": [], "coding_time_seconds": 2080, "coding_time_seconds_today": 0, "balance": "You need to have a pocket watcher badge to view this.", "badges": [], "created_at": "2025-06-16T14:34:16.005-04:00", "updated_at": "2025-07-03T19:20:21.643-04:00", "avatar": "https://secure.gravatar.com/avatar/48063528ef0e451b70fbc65146d74fed.jpg?s=512&d=https%3A%2F%2Fa.slack-edge.com%2Fdf10d%2Fimg%2Favatars%2Fava_0016-512.png", "custom_css": null}, {"id": 2025, "slack_id": "U091QBS6UG4", "display_name": "Ayaan", "bio": null, "projects_count": 1, "devlogs_count": 0, "votes_count": 0, "ships_count": 0, "projects": [{"id": 267, "title": "FairClause", "devlogs_count": 0, "created_at": "2025-06-16T16:40:17.191-04:00"}], "coding_time_seconds": 120742, "coding_time_seconds_today": 0, "balance": "You need to have a pocket watcher badge to view this.", "badges": [], "created_at": "2025-06-16T14:34:25.698-04:00", "updated_at": "2025-07-03T19:20:21.918-04:00", "avatar": "https://secure.gravatar.com/avatar/eaf16f1894b9ea011d6a9cd3f7e629d0.jpg?s=512&d=https%3A%2F%2Fa.slack-edge.com%2Fdf10d%2Fimg%2Favatars%2Fava_0024-512.png", "custom_css": null}, {"id": 2026, "slack_id": "U07THBZKZ5K", "display_name": "Riley", "bio": null, "projects_count": 0, "devlogs_count": 0, "votes_count": 0, "ships_count": 0, "projects": [], "coding_time_seconds": 97317, "coding_time_seconds_today": 0, "balance": "You need to have a pocket watcher badge to view this.", "badges": [], "created_at": "2025-06-16T14:34:33.339-04:00", "updated_at": "2025-08-11T19:47:43.469-04:00", "avatar": "https://avatars.slack-edge.com/2025-01-03/8244195346133_9bc57ab0c5d6514f0df8_original.png", "custom_css": null}, {"id": 2027, "slack_id": "U091H520BP0", "display_name": "Fidel", "bio": null, "projects_count": 1, "devlogs_count": 1, "votes_count": 0, "ships_count": 0, "projects": [{"id": 188, "title": "Fist Steps Pygame", "devlogs_count": 1, "created_at": "2025-06-16T15:09:51.242-04:00"}], "coding_time_seconds": 30608, "coding_time_seconds_today": 0, "balance": "You need to have a pocket watcher badge to view this.", "badges": [], "created_at": "2025-06-16T14:34:36.596-04:00", "updated_at": "2025-09-08T19:47:12.974-04:00", "avatar": "https://secure.gravatar.com/avatar/f4e6f1d5bc21e30cd98738f9fcf38354.jpg?s=512&d=https%3A%2F%2Fa.slack-edge.com%2Fdf10d%2Fimg%2Favatars%2Fava_0010-512.png", "custom_css": null}, {"id": 2028, "slack_id": "U091N707RFF", "display_name": "Hector Navarro-Barboza", "bio": null, "projects_count": 0, "devlogs_count": 0, "votes_count": 0, "ships_count": 0, "projects": [], "coding_time_seconds": 0, "coding_time_seconds_today": 0, "balance": "You need to have a pocket watcher badge to view this.", "badges": [], "created_at": "2025-06-16T14:34:37.883-04:00", "updated_at": "2025-07-03T19:20:22.736-04:00", "avatar": "https://avatars.slack-edge.com/2025-06-16/9051083963187_92bb44fd633803ba9863_original.png", "custom_css": null}, {"id": 2029, "slack_id": "U092CE6R2DN", "display_name": "Pranav", "bio": null, "projects_count": 1, "devlogs_count": 0, "votes_count": 0, "ships_count": 0, "projects": [{"id": 198, "title": "AI Finance Platform", "devlogs_count": 0, "created_at": "2025-06-16T15:16:38.380-04:00"}], "coding_time_seconds": 146028, "coding_time_seconds_today": 0, "balance": "You need to have a pocket watcher badge to view this.", "badges": [], "created_at": "2025-06-16T14:34:52.446-04:00", "updated_at": "2025-07-03T19:20:23.022-04:00", "avatar": "https://secure.gravatar.com/avatar/0cf05bcfa5c670c20ba9577f7482d324.jpg?s=512&d=https%3A%2F%2Fa.slack-edge.com%2Fdf10d%2Fimg%2Favatars%2Fava_0020-512.png", "custom_css": null}, {"id": 2030, "slack_id": "U091H58HX9C", "display_name": "Andrea", "bio": null, "projects_count": 0, "devlogs_count": 0, "votes_count": 0, "ships_count": 0, "projects": [], "coding_time_seconds": 0, "coding_time_seconds_today": 0, "balance": "You need to have a pocket watcher badge to view this.", "badges": [], "created_at": "2025-06-16T14:35:07.267-04:00", "updated_at": "2025-07-03T19:20:23.302-04:00", "avatar": "https://secure.gravatar.com/avatar/e5c0e9e2aa65b600fcbbeb62cbf2c39b.jpg?s=512&d=https%3A%2F%2Fa.slack-edge.com%2Fdf10d%2Fimg%2Favatars%2Fava_0009-512.png", "custom_css": null}, {"id": 2031, "slack_id": "U091Q4TTS2G", "display_name": "tobi1craft", "bio": null, "projects_count": 0, "devlogs_count": 0, "votes_count": 0, "ships_count": 0, "projects": [], "coding_time_seconds": 6802, "coding_time_seconds_today": 0, "balance": "You need to have a pocket watcher badge to view this.", "badges": [], "created_at": "2025-06-16T14:35:13.126-04:00", "updated_at": "2025-07-03T19:20:23.588-04:00", "avatar": "https://secure.gravatar.com/avatar/dc7be4ee38420d1564dbbda0e80b13e0.jpg?s=512&d=https%3A%2F%2Fa.slack-edge.com%2Fdf10d%2Fimg%2Favatars%2Fava_0002-512.png", "custom_css": null}, {"id": 2032, "slack_id": "U091GGBSZ46", "display_name": "Jacob", "bio": null, "projects_count": 0, "devlogs_count": 0, "votes_count": 0, "ships_count": 0, "projects": [], "coding_time_seconds": 0, "coding_time_seconds_today": 0, "balance": "You need to have a pocket watcher badge to view this.", "badges": [], "created_at": "2025-06-16T14:35:16.709-04:00", "updated_at": "2025-07-03T19:20:23.877-04:00", "avatar": "https://secure.gravatar.com/avatar/a8f7bce4d9429c7bddcba9cc47d6019f.jpg?s=512&d=https%3A%2F%2Fa.slack-edge.com%2Fdf10d%2Fimg%2Favatars%2Fava_0006-512.png", "custom_css": null}, {"id": 2033, "slack_id": "U091H52G11U", "display_name": "Ayush Bansal", "bio": null, "projects_count": 0, "devlogs_count": 0, "votes_count": 0, "ships_count": 0, "projects": [], "coding_time_seconds": 0, "coding_time_seconds_today": 0, "balance": "You need to have a pocket watcher badge to view this.", "badges": [], "created_at": "2025-06-16T14:35:17.230-04:00", "updated_at": "2025-07-03T19:20:24.246-04:00", "avatar": "https://secure.gravatar.com/avatar/b8d009bee09f83eb72a26e7354cb0da6.jpg?s=512&d=https%3A%2F%2Fa.slack-edge.com%2Fdf10d%2Fimg%2Favatars%2Fava_0013-512.png", "custom_css": null}, {"id": 2034, "slack_id": "U07UCNS7P9Q", "display_name": "Aries Powvalla", "bio": null, "projects_count": 2, "devlogs_count": 0, "votes_count": 0, "ships_count": 0, "projects": [{"id": 5772, "title": "Research-Based Chatbot Service", "devlogs_count": 0, "created_at": "2025-07-07T22:54:32.425-04:00"}, {"id": 5773, "title": "Synthesis - Robotics Simulator", "devlogs_count": 0, "created_at": "2025-07-07T22:55:53.329-04:00"}], "coding_time_seconds": 251171, "coding_time_seconds_today": 0, "balance": "You need to have a pocket watcher badge to view this.", "badges": [], "created_at": "2025-06-16T14:35:20.951-04:00", "updated_at": "2025-07-06T22:02:19.219-04:00", "avatar": "https://avatars.slack-edge.com/2024-10-31/7964024356597_fb3986cef44531f88e48_original.jpg", "custom_css": null}, {"id": 2035, "slack_id": "U092C66U9FS", "display_name": "Yasin Karaaslan", "bio": null, "projects_count": 0, "devlogs_count": 10, "votes_count": 19, "ships_count": 0, "projects": [], "coding_time_seconds": 91270, "coding_time_seconds_today": 0, "balance": "You need to have a pocket watcher badge to view this.", "badges": [{"name": "Maiden Voyage", "text": "you shipped your first project! the journey begins...", "icon": "\ud83d\udea2"}], "created_at": "2025-06-16T14:35:22.949-04:00", "updated_at": "2025-09-10T22:52:10.983-04:00", "avatar": "https://avatars.slack-edge.com/2025-06-16/9058036115330_88717c09bfff4eef72f1_original.jpg", "custom_css": null}, {"id": 2036, "slack_id": "U0918LWKR0F", "display_name": "PRIYANSHI AGRAWAL", "bio": null, "projects_count": 0, "devlogs_count": 0, "votes_count": 0, "ships_count": 0, "projects": [], "coding_time_seconds": 46688, "coding_time_seconds_today": 0, "balance": "You need to have a pocket watcher badge to view this.", "badges": [], "created_at": "2025-06-16T14:35:34.900-04:00", "updated_at": "2025-07-03T19:20:25.072-04:00", "avatar": "https://secure.gravatar.com/avatar/bdd355edafe99ade049841b56dd71654.jpg?s=512&d=https%3A%2F%2Fa.slack-edge.com%2Fdf10d%2Fimg%2Favatars%2Fava_0011-512.png", "custom_css": null}, {"id": 2037, "slack_id": "U092CE53F9N", "display_name": "Jolodasquid", "bio": null, "projects_count": 1, "devlogs_count": 0, "votes_count": 2, "ships_count": 0, "projects": [{"id": 1853, "title": "Messing Around in HTML", "devlogs_count": 0, "created_at": "2025-06-19T12:39:48.470-04:00"}], "coding_time_seconds": 19444, "coding_time_seconds_today": 0, "balance": "You need to have a pocket watcher badge to view this.", "badges": [], "created_at": "2025-06-16T14:35:35.817-04:00", "updated_at": "2025-07-03T19:20:25.353-04:00", "avatar": "https://avatars.slack-edge.com/2025-06-16/9058037982722_8731dbbe5eefe90192f4_original.png", "custom_css": null}, {"id": 2038, "slack_id": "U09187KTHT9", "display_name": "Prince", "bio": null, "projects_count": 0, "devlogs_count": 0, "votes_count": 0, "ships_count": 0, "projects": [], "coding_time_seconds": 0, "coding_time_seconds_today": 0, "balance": "You need to have a pocket watcher badge to view this.", "badges": [], "created_at": "2025-06-16T14:35:37.887-04:00", "updated_at": "2025-07-03T19:20:25.623-04:00", "avatar": "https://secure.gravatar.com/avatar/6957297afa4369597482716233375251.jpg?s=512&d=https%3A%2F%2Fa.slack-edge.com%2Fdf10d%2Fimg%2Favatars%2Fava_0026-512.png", "custom_css": null}, {"id": 2039, "slack_id": "U092CE1LXUY", "display_name": "yarish kumar", "bio": null, "projects_count": 0, "devlogs_count": 0, "votes_count": 0, "ships_count": 0, "projects": [], "coding_time_seconds": 0, "coding_time_seconds_today": 0, "balance": "You need to have a pocket watcher badge to view this.", "badges": [], "created_at": "2025-06-16T14:35:49.834-04:00", "updated_at": "2025-07-03T19:20:25.910-04:00", "avatar": "https://secure.gravatar.com/avatar/2ee11d76b8847a0f9c7a929138b7de52.jpg?s=512&d=https%3A%2F%2Fa.slack-edge.com%2Fdf10d%2Fimg%2Favatars%2Fava_0021-512.png", "custom_css": null}, {"id": 2040, "slack_id": "U0922GN078R", "display_name": "Dinho Stork", "bio": null, "projects_count": 0, "devlogs_count": 0, "votes_count": 0, "ships_count": 0, "projects": [], "coding_time_seconds": 0, "coding_time_seconds_today": 0, "balance": "You need to have a pocket watcher badge to view this.", "badges": [], "created_at": "2025-06-16T14:35:54.399-04:00", "updated_at": "2025-07-03T19:20:26.193-04:00", "avatar": "https://secure.gravatar.com/avatar/5a0d9108c09ce0b69132eca9e03cb254.jpg?s=512&d=https%3A%2F%2Fa.slack-edge.com%2Fdf10d%2Fimg%2Favatars%2Fava_0007-512.png", "custom_css": null}], "pagination": {"page": 102, "pages": 1192, "count": 23828, "items": 20}}