{"users": [{"id": 20466, "slack_id": "U099B9GP6E4", "display_name": "Orlando Wang", "bio": null, "projects_count": 1, "devlogs_count": 0, "votes_count": 0, "ships_count": 0, "projects": [{"id": 13181, "title": "Code Helper U01", "devlogs_count": 0, "created_at": "2025-09-11T00:56:16.133-04:00"}], "coding_time_seconds": 12485, "coding_time_seconds_today": 0, "balance": "You need to have a pocket watcher badge to view this.", "badges": [], "created_at": "2025-08-02T20:31:13.832-04:00", "updated_at": "2025-09-11T00:47:09.977-04:00", "avatar": "https://secure.gravatar.com/avatar/4dd3b893336f5fb246ea9c1dbbd68030.jpg?s=512&d=https%3A%2F%2Fa.slack-edge.com%2Fdf10d%2Fimg%2Favatars%2Fava_0026-512.png", "custom_css": null}, {"id": 20467, "slack_id": "U098LPN8YH4", "display_name": "Rikhil", "bio": null, "projects_count": 1, "devlogs_count": 0, "votes_count": 1, "ships_count": 0, "projects": [{"id": 9913, "title": "AI-Squared", "devlogs_count": 0, "created_at": "2025-08-02T21:11:10.385-04:00"}], "coding_time_seconds": 42203, "coding_time_seconds_today": 0, "balance": "You need to have a pocket watcher badge to view this.", "badges": [], "created_at": "2025-08-02T20:42:45.462-04:00", "updated_at": "2025-08-04T06:51:01.817-04:00", "avatar": "https://avatars.slack-edge.com/2025-08-02/9292257425203_a701906c62df87a570ec_original.gif", "custom_css": null}, {"id": 20468, "slack_id": "U098LQ4MRRU", "display_name": "enrique", "bio": null, "projects_count": 0, "devlogs_count": 0, "votes_count": 0, "ships_count": 0, "projects": [], "coding_time_seconds": 0, "coding_time_seconds_today": 0, "balance": "You need to have a pocket watcher badge to view this.", "badges": [], "created_at": "2025-08-02T20:54:46.325-04:00", "updated_at": "2025-08-02T21:59:21.670-04:00", "avatar": "https://secure.gravatar.com/avatar/fcfc9a210700b9e33d5d56516a4c0770.jpg?s=512&d=https%3A%2F%2Fa.slack-edge.com%2Fdf10d%2Fimg%2Favatars%2Fava_0024-512.png", "custom_css": null}, {"id": 20469, "slack_id": "U098MF995D3", "display_name": "Hacker123", "bio": "I'm new to this Community. But I do know a bit about coding and robotics. I'm 16 and I'm excited to get started.", "projects_count": 0, "devlogs_count": 0, "votes_count": 0, "ships_count": 0, "projects": [], "coding_time_seconds": 155415, "coding_time_seconds_today": 16920, "balance": "You need to have a pocket watcher badge to view this.", "badges": [], "created_at": "2025-08-02T21:46:44.623-04:00", "updated_at": "2025-09-10T08:54:16.456-04:00", "avatar": "https://avatars.slack-edge.com/2025-08-03/9295714801250_f4865e6470b1ffe556c4_original.png", "custom_css": null}, {"id": 20470, "slack_id": "U097R84UX25", "display_name": "shresti", "bio": null, "projects_count": 0, "devlogs_count": 0, "votes_count": 0, "ships_count": 0, "projects": [], "coding_time_seconds": 0, "coding_time_seconds_today": 0, "balance": "You need to have a pocket watcher badge to view this.", "badges": [], "created_at": "2025-08-02T21:53:24.144-04:00", "updated_at": "2025-08-19T10:34:41.581-04:00", "avatar": "https://secure.gravatar.com/avatar/d8154d7ab82ecb53da0f7fa15153baa5.jpg?s=512&d=https%3A%2F%2Fa.slack-edge.com%2Fdf10d%2Fimg%2Favatars%2Fava_0003-512.png", "custom_css": null}, {"id": 20471, "slack_id": "U099BDE2RCG", "display_name": "Seth Packard", "bio": null, "projects_count": 0, "devlogs_count": 0, "votes_count": 0, "ships_count": 0, "projects": [], "coding_time_seconds": 42374, "coding_time_seconds_today": 0, "balance": "You need to have a pocket watcher badge to view this.", "badges": [], "created_at": "2025-08-02T22:08:35.848-04:00", "updated_at": "2025-08-03T04:00:55.567-04:00", "avatar": "https://avatars.slack-edge.com/2025-08-02/9281056903735_263df8b1ab1fc676940c_original.gif", "custom_css": null}, {"id": 20472, "slack_id": "U099BE1EAAC", "display_name": "Leo", "bio": null, "projects_count": 1, "devlogs_count": 0, "votes_count": 0, "ships_count": 0, "projects": [{"id": 10751, "title": "Pixel Pal", "devlogs_count": 0, "created_at": "2025-08-10T11:16:17.227-04:00"}], "coding_time_seconds": 194, "coding_time_seconds_today": 0, "balance": "You need to have a pocket watcher badge to view this.", "badges": [], "created_at": "2025-08-02T22:27:47.736-04:00", "updated_at": "2025-08-09T21:22:42.687-04:00", "avatar": "https://secure.gravatar.com/avatar/9c0f62c8bac0a0f016b75220369ab14d.jpg?s=512&d=https%3A%2F%2Fa.slack-edge.com%2Fdf10d%2Fimg%2Favatars%2Fava_0001-512.png", "custom_css": null}, {"id": 20473, "slack_id": "U08BCBPPPQB", "display_name": "Emily", "bio": null, "projects_count": 0, "devlogs_count": 0, "votes_count": 0, "ships_count": 0, "projects": [], "coding_time_seconds": 95500, "coding_time_seconds_today": 0, "balance": "You need to have a pocket watcher badge to view this.", "badges": [], "created_at": "2025-08-02T23:02:48.608-04:00", "updated_at": "2025-08-04T09:11:06.375-04:00", "avatar": "https://avatars.slack-edge.com/2025-02-01/8386483887458_aa3dfd37842fbc1cab7b_original.jpg", "custom_css": null}, {"id": 20474, "slack_id": "U098M0YAQ5U", "display_name": "Ansh Garg", "bio": null, "projects_count": 1, "devlogs_count": 0, "votes_count": 0, "ships_count": 0, "projects": [{"id": 9923, "title": "Greenify", "devlogs_count": 0, "created_at": "2025-08-03T00:02:57.572-04:00"}], "coding_time_seconds": 29085, "coding_time_seconds_today": 0, "balance": "You need to have a pocket watcher badge to view this.", "badges": [], "created_at": "2025-08-02T23:41:15.525-04:00", "updated_at": "2025-08-03T04:00:55.871-04:00", "avatar": "https://secure.gravatar.com/avatar/6c9728607cb2346078dbb9507c1eac13.jpg?s=512&d=https%3A%2F%2Fa.slack-edge.com%2Fdf10d%2Fimg%2Favatars%2Fava_0022-512.png", "custom_css": null}, {"id": 20475, "slack_id": "U098979LK7Z", "display_name": "AI Interview", "bio": null, "projects_count": 0, "devlogs_count": 0, "votes_count": 0, "ships_count": 0, "projects": [], "coding_time_seconds": 0, "coding_time_seconds_today": 0, "balance": "You need to have a pocket watcher badge to view this.", "badges": [], "created_at": "2025-08-03T00:30:43.000-04:00", "updated_at": "2025-08-03T04:00:55.951-04:00", "avatar": "https://secure.gravatar.com/avatar/6ada8c7fdc49e9b8e5815b4778c322e9.jpg?s=512&d=https%3A%2F%2Fa.slack-edge.com%2Fdf10d%2Fimg%2Favatars%2Fava_0025-512.png", "custom_css": null}, {"id": 20476, "slack_id": "U09897EACKZ", "display_name": "Clome Gawd", "bio": null, "projects_count": 0, "devlogs_count": 0, "votes_count": 0, "ships_count": 0, "projects": [], "coding_time_seconds": 0, "coding_time_seconds_today": 0, "balance": "You need to have a pocket watcher badge to view this.", "badges": [], "created_at": "2025-08-03T00:34:26.208-04:00", "updated_at": "2025-08-03T04:00:56.035-04:00", "avatar": "https://secure.gravatar.com/avatar/ecef201afc372794224838b90ace373a.jpg?s=512&d=https%3A%2F%2Fa.slack-edge.com%2Fdf10d%2Fimg%2Favatars%2Fava_0005-512.png", "custom_css": null}, {"id": 20477, "slack_id": "U0820NJSP9T", "display_name": "Hashim", "bio": "", "projects_count": 1, "devlogs_count": 1, "votes_count": 20, "ships_count": 1, "projects": [{"id": 10015, "title": "PhotoEncoder", "devlogs_count": 1, "created_at": "2025-08-03T12:55:12.649-04:00"}], "coding_time_seconds": 20973, "coding_time_seconds_today": 0, "balance": "You need to have a pocket watcher badge to view this.", "badges": [], "created_at": "2025-08-03T00:35:04.597-04:00", "updated_at": "2025-08-08T18:51:58.634-04:00", "avatar": "https://secure.gravatar.com/avatar/168d6a4efb17238bd10a557c3110577b.jpg?s=512&d=https%3A%2F%2Fa.slack-edge.com%2Fdf10d%2Fimg%2Favatars%2Fava_0025-512.png", "custom_css": null}, {"id": 20478, "slack_id": "U098MNP3V37", "display_name": "pk", "bio": null, "projects_count": 0, "devlogs_count": 0, "votes_count": 0, "ships_count": 0, "projects": [], "coding_time_seconds": 0, "coding_time_seconds_today": 0, "balance": "You need to have a pocket watcher badge to view this.", "badges": [], "created_at": "2025-08-03T01:09:49.597-04:00", "updated_at": "2025-08-03T04:00:56.191-04:00", "avatar": "https://secure.gravatar.com/avatar/b4633bcb0f47309a0f6959cf1e3fb18b.jpg?s=512&d=https%3A%2F%2Fa.slack-edge.com%2Fdf10d%2Fimg%2Favatars%2Fava_0024-512.png", "custom_css": null}, {"id": 20479, "slack_id": "U098MPPQUFP", "display_name": "Zainab Anwar", "bio": null, "projects_count": 0, "devlogs_count": 0, "votes_count": 0, "ships_count": 0, "projects": [], "coding_time_seconds": 0, "coding_time_seconds_today": 0, "balance": "You need to have a pocket watcher badge to view this.", "badges": [], "created_at": "2025-08-03T01:37:44.133-04:00", "updated_at": "2025-08-15T09:50:12.397-04:00", "avatar": "https://avatars.slack-edge.com/2025-08-15/9346503072407_d9e5d208ab520e17e75d_original.jpg", "custom_css": null}, {"id": 20480, "slack_id": "U098LKLQXM1", "display_name": "Faheem Ashraf", "bio": null, "projects_count": 0, "devlogs_count": 0, "votes_count": 0, "ships_count": 0, "projects": [], "coding_time_seconds": 114432, "coding_time_seconds_today": 0, "balance": "You need to have a pocket watcher badge to view this.", "badges": [], "created_at": "2025-08-03T02:28:32.036-04:00", "updated_at": "2025-08-12T04:43:22.313-04:00", "avatar": "https://avatars.slack-edge.com/2025-08-04/9318109112257_b7114147debbbac2b767_original.jpg", "custom_css": null}, {"id": 20481, "slack_id": "U098M91QL6A", "display_name": "Mohammad Ali", "bio": null, "projects_count": 0, "devlogs_count": 0, "votes_count": 0, "ships_count": 0, "projects": [], "coding_time_seconds": 0, "coding_time_seconds_today": 0, "balance": "You need to have a pocket watcher badge to view this.", "badges": [], "created_at": "2025-08-03T03:10:23.907-04:00", "updated_at": "2025-08-03T05:02:54.575-04:00", "avatar": "https://secure.gravatar.com/avatar/f95eec9a515c9e41096bc9cfa453d418.jpg?s=512&d=https%3A%2F%2Fa.slack-edge.com%2Fdf10d%2Fimg%2Favatars%2Fava_0024-512.png", "custom_css": null}, {"id": 20482, "slack_id": "U098RG0Q24U", "display_name": "lakshanaa", "bio": null, "projects_count": 0, "devlogs_count": 0, "votes_count": 0, "ships_count": 0, "projects": [], "coding_time_seconds": 0, "coding_time_seconds_today": 0, "balance": "You need to have a pocket watcher badge to view this.", "badges": [], "created_at": "2025-08-03T04:04:36.672-04:00", "updated_at": "2025-08-03T15:59:45.662-04:00", "avatar": "https://avatars.slack-edge.com/2025-08-03/9293658080835_d6d2bccc694395be1073_original.jpg", "custom_css": null}, {"id": 20483, "slack_id": "U098RFK2WRJ", "display_name": "Yoftahe Abraham", "bio": null, "projects_count": 0, "devlogs_count": 0, "votes_count": 0, "ships_count": 0, "projects": [], "coding_time_seconds": 156272, "coding_time_seconds_today": 0, "balance": "You need to have a pocket watcher badge to view this.", "badges": [], "created_at": "2025-08-03T04:12:11.372-04:00", "updated_at": "2025-08-03T10:00:49.477-04:00", "avatar": "https://avatars.slack-edge.com/2025-08-03/9297582509012_acdf112bb14d0eb0f6b9_original.png", "custom_css": null}, {"id": 20484, "slack_id": "U098MVDUZB7", "display_name": "Supporter Supporter", "bio": null, "projects_count": 0, "devlogs_count": 0, "votes_count": 0, "ships_count": 0, "projects": [], "coding_time_seconds": 0, "coding_time_seconds_today": 0, "balance": "You need to have a pocket watcher badge to view this.", "badges": [], "created_at": "2025-08-03T04:12:51.272-04:00", "updated_at": "2025-08-03T10:00:49.572-04:00", "avatar": "https://avatars.slack-edge.com/2025-08-03/9317934360256_743e240ecce0635ccd38_original.png", "custom_css": null}, {"id": 20485, "slack_id": "U098MC2JCUE", "display_name": "Hans-notanai", "bio": null, "projects_count": 0, "devlogs_count": 0, "votes_count": 0, "ships_count": 0, "projects": [], "coding_time_seconds": 0, "coding_time_seconds_today": 0, "balance": "You need to have a pocket watcher badge to view this.", "badges": [], "created_at": "2025-08-03T04:22:03.836-04:00", "updated_at": "2025-08-03T10:00:53.699-04:00", "avatar": "https://secure.gravatar.com/avatar/cf749908e8f49bc5881cb42c71d34ff3.jpg?s=512&d=https%3A%2F%2Fa.slack-edge.com%2Fdf10d%2Fimg%2Favatars%2Fava_0024-512.png", "custom_css": null}], "pagination": {"page": 1020, "pages": 1192, "count": 23828, "items": 20}}