{"users": [{"id": 20486, "slack_id": "U098RGQLTV2", "display_name": "Aleena Jaison", "bio": "", "projects_count": 0, "devlogs_count": 0, "votes_count": 0, "ships_count": 0, "projects": [], "coding_time_seconds": 0, "coding_time_seconds_today": 0, "balance": "You need to have a pocket watcher badge to view this.", "badges": [], "created_at": "2025-08-03T04:24:18.578-04:00", "updated_at": "2025-08-03T10:00:53.788-04:00", "avatar": "https://secure.gravatar.com/avatar/92f90157a9c479ae76ec33cf953894c5.jpg?s=512&d=https%3A%2F%2Fa.slack-edge.com%2Fdf10d%2Fimg%2Favatars%2Fava_0021-512.png", "custom_css": null}, {"id": 20487, "slack_id": "U098MC2C8SJ", "display_name": "Ishaan Bawa", "bio": null, "projects_count": 0, "devlogs_count": 0, "votes_count": 0, "ships_count": 0, "projects": [], "coding_time_seconds": 0, "coding_time_seconds_today": 0, "balance": "You need to have a pocket watcher badge to view this.", "badges": [], "created_at": "2025-08-03T04:31:32.727-04:00", "updated_at": "2025-08-03T10:00:53.873-04:00", "avatar": "https://secure.gravatar.com/avatar/be5f02b50afb85546cdd46f636c6fc03.jpg?s=512&d=https%3A%2F%2Fa.slack-edge.com%2Fdf10d%2Fimg%2Favatars%2Fava_0022-512.png", "custom_css": null}, {"id": 20488, "slack_id": "U098MCYS40N", "display_name": "Farook Sayed", "bio": "I am a Master's Student in Electrical and Computer Engineering at University of Colorado Boulder through Coursera", "projects_count": 0, "devlogs_count": 0, "votes_count": 0, "ships_count": 0, "projects": [], "coding_time_seconds": 0, "coding_time_seconds_today": 0, "balance": "You need to have a pocket watcher badge to view this.", "badges": [], "created_at": "2025-08-03T04:42:35.631-04:00", "updated_at": "2025-08-03T10:00:53.959-04:00", "avatar": "https://secure.gravatar.com/avatar/b27af096d5f0efcda34d7a19a78ecc85.jpg?s=512&d=https%3A%2F%2Fa.slack-edge.com%2Fdf10d%2Fimg%2Favatars%2Fava_0019-512.png", "custom_css": null}, {"id": 20489, "slack_id": "U07A8UVU620", "display_name": "Kian", "bio": null, "projects_count": 1, "devlogs_count": 1, "votes_count": 4, "ships_count": 0, "projects": [{"id": 9958, "title": "Polytopia Logic", "devlogs_count": 1, "created_at": "2025-08-03T06:42:00.035-04:00"}], "coding_time_seconds": 16055, "coding_time_seconds_today": 0, "balance": "You need to have a pocket watcher badge to view this.", "badges": [], "created_at": "2025-08-03T06:04:36.406-04:00", "updated_at": "2025-08-04T03:00:27.453-04:00", "avatar": "https://secure.gravatar.com/avatar/614b1622073dd12415b02143b6cd0b16.jpg?s=512&d=https%3A%2F%2Fa.slack-edge.com%2Fdf10d%2Fimg%2Favatars%2Fava_0000-512.png", "custom_css": null}, {"id": 20490, "slack_id": "U0989NCJBST", "display_name": "Haithem (Student) Bouziane", "bio": null, "projects_count": 0, "devlogs_count": 0, "votes_count": 0, "ships_count": 0, "projects": [], "coding_time_seconds": 0, "coding_time_seconds_today": 0, "balance": "You need to have a pocket watcher badge to view this.", "badges": [], "created_at": "2025-08-03T06:49:05.594-04:00", "updated_at": "2025-08-03T10:00:54.140-04:00", "avatar": "https://secure.gravatar.com/avatar/6497c092fa73304f3d5e9805bc6cffa5.jpg?s=512&d=https%3A%2F%2Fa.slack-edge.com%2Fdf10d%2Fimg%2Favatars%2Fava_0022-512.png", "custom_css": null}, {"id": 20491, "slack_id": "U098RNAJLRJ", "display_name": "Saket Vanga", "bio": null, "projects_count": 2, "devlogs_count": 9, "votes_count": 11, "ships_count": 1, "projects": [{"id": 10578, "title": "MathDash", "devlogs_count": 3, "created_at": "2025-08-08T11:24:56.982-04:00"}, {"id": 10129, "title": "NEWCOOLBOY92 WEBSITE", "devlogs_count": 6, "created_at": "2025-08-04T08:05:30.248-04:00"}], "coding_time_seconds": 20513, "coding_time_seconds_today": 0, "balance": "You need to have a pocket watcher badge to view this.", "badges": [], "created_at": "2025-08-03T06:49:27.881-04:00", "updated_at": "2025-08-08T06:53:40.373-04:00", "avatar": "https://avatars.slack-edge.com/2025-08-03/9318147004832_342972d1f4e28da02e77_original.png", "custom_css": null}, {"id": 20492, "slack_id": "U0996210TR7", "display_name": "Gaurav", "bio": null, "projects_count": 0, "devlogs_count": 0, "votes_count": 0, "ships_count": 0, "projects": [], "coding_time_seconds": 0, "coding_time_seconds_today": 0, "balance": "You need to have a pocket watcher badge to view this.", "badges": [], "created_at": "2025-08-03T07:17:00.706-04:00", "updated_at": "2025-08-08T04:03:04.274-04:00", "avatar": "https://secure.gravatar.com/avatar/58e0d547cdbd645de34292e73183bcdc.jpg?s=512&d=https%3A%2F%2Fa.slack-edge.com%2Fdf10d%2Fimg%2Favatars%2Fava_0020-512.png", "custom_css": null}, {"id": 20493, "slack_id": "U098MK64NG6", "display_name": "Nyx", "bio": "I'm a \"novice\" coder who is 14. ", "projects_count": 1, "devlogs_count": 4, "votes_count": 12, "ships_count": 1, "projects": [{"id": 11359, "title": "Rainforest - a parallax", "devlogs_count": 1, "created_at": "2025-08-15T08:06:51.245-04:00"}], "coding_time_seconds": 5639, "coding_time_seconds_today": 0, "balance": "You need to have a pocket watcher badge to view this.", "badges": [], "created_at": "2025-08-03T07:23:09.652-04:00", "updated_at": "2025-08-14T09:50:13.385-04:00", "avatar": "https://avatars.slack-edge.com/2025-08-14/9353064150294_b42ec337a72a9b670343_original.png", "custom_css": null}, {"id": 20494, "slack_id": "U098QCDT11Q", "display_name": "Yash", "bio": null, "projects_count": 1, "devlogs_count": 0, "votes_count": 0, "ships_count": 0, "projects": [{"id": 10376, "title": "Slop producer", "devlogs_count": 0, "created_at": "2025-08-06T12:31:30.221-04:00"}], "coding_time_seconds": 17486, "coding_time_seconds_today": 0, "balance": "You need to have a pocket watcher badge to view this.", "badges": [], "created_at": "2025-08-03T07:31:57.771-04:00", "updated_at": "2025-08-06T12:29:10.408-04:00", "avatar": "https://secure.gravatar.com/avatar/ac420cce059631fa40bf88d450dae4b8.jpg?s=512&d=https%3A%2F%2Fa.slack-edge.com%2Fdf10d%2Fimg%2Favatars%2Fava_0005-512.png", "custom_css": null}, {"id": 20495, "slack_id": "U098RQ9DTHS", "display_name": "Waffelo", "bio": null, "projects_count": 0, "devlogs_count": 0, "votes_count": 0, "ships_count": 0, "projects": [], "coding_time_seconds": 0, "coding_time_seconds_today": 0, "balance": "You need to have a pocket watcher badge to view this.", "badges": [], "created_at": "2025-08-03T07:42:20.322-04:00", "updated_at": "2025-08-03T10:00:54.615-04:00", "avatar": "https://avatars.slack-edge.com/2025-08-03/9294334506133_c6d220774a5a9a8d69fe_original.png", "custom_css": null}, {"id": 20496, "slack_id": "U098MLR5XGW", "display_name": "Tedbuild", "bio": null, "projects_count": 0, "devlogs_count": 0, "votes_count": 0, "ships_count": 0, "projects": [], "coding_time_seconds": 0, "coding_time_seconds_today": 0, "balance": "You need to have a pocket watcher badge to view this.", "badges": [], "created_at": "2025-08-03T08:10:01.171-04:00", "updated_at": "2025-08-03T10:00:54.715-04:00", "avatar": "https://secure.gravatar.com/avatar/ff1907b297a0434fd6427e885956687d.jpg?s=512&d=https%3A%2F%2Fa.slack-edge.com%2Fdf10d%2Fimg%2Favatars%2Fava_0019-512.png", "custom_css": null}, {"id": 20497, "slack_id": "U08RRHA5WTU", "display_name": "Binary Bytes", "bio": null, "projects_count": 1, "devlogs_count": 1, "votes_count": 0, "ships_count": 0, "projects": [{"id": 9979, "title": "Text 2 Beluga Discord Bot", "devlogs_count": 1, "created_at": "2025-08-03T08:56:57.055-04:00"}], "coding_time_seconds": 5602, "coding_time_seconds_today": 0, "balance": "You need to have a pocket watcher badge to view this.", "badges": [], "created_at": "2025-08-03T08:40:11.289-04:00", "updated_at": "2025-08-15T04:30:07.531-04:00", "avatar": "https://avatars.slack-edge.com/2025-05-09/8875663849282_1c4283b6937f5b24cfe0_original.jpg", "custom_css": null}, {"id": 20498, "slack_id": "U098MP30AG6", "display_name": "Aditya Pawar", "bio": null, "projects_count": 0, "devlogs_count": 0, "votes_count": 0, "ships_count": 0, "projects": [], "coding_time_seconds": 0, "coding_time_seconds_today": 0, "balance": "You need to have a pocket watcher badge to view this.", "badges": [], "created_at": "2025-08-03T08:59:19.970-04:00", "updated_at": "2025-08-03T10:00:58.925-04:00", "avatar": "https://secure.gravatar.com/avatar/adc00d960a2eac8280565af910784c82.jpg?s=512&d=https%3A%2F%2Fa.slack-edge.com%2Fdf10d%2Fimg%2Favatars%2Fava_0020-512.png", "custom_css": null}, {"id": 20499, "slack_id": "U098NCFLDPX", "display_name": "swati shivhare", "bio": null, "projects_count": 0, "devlogs_count": 0, "votes_count": 0, "ships_count": 0, "projects": [], "coding_time_seconds": 0, "coding_time_seconds_today": 0, "balance": "You need to have a pocket watcher badge to view this.", "badges": [], "created_at": "2025-08-03T09:21:26.010-04:00", "updated_at": "2025-08-03T10:00:59.025-04:00", "avatar": "https://secure.gravatar.com/avatar/b67bd3a45d4eabdb37d1ce1554f9c178.jpg?s=512&d=https%3A%2F%2Fa.slack-edge.com%2Fdf10d%2Fimg%2Favatars%2Fava_0021-512.png", "custom_css": null}, {"id": 20500, "slack_id": "U098ND6N7FF", "display_name": "KC", "bio": null, "projects_count": 0, "devlogs_count": 0, "votes_count": 0, "ships_count": 0, "projects": [], "coding_time_seconds": 0, "coding_time_seconds_today": 0, "balance": "You need to have a pocket watcher badge to view this.", "badges": [], "created_at": "2025-08-03T09:38:16.957-04:00", "updated_at": "2025-08-03T10:00:59.127-04:00", "avatar": "https://secure.gravatar.com/avatar/f16e5cc1841f88b44eb1455d96da5c63.jpg?s=512&d=https%3A%2F%2Fa.slack-edge.com%2Fdf10d%2Fimg%2Favatars%2Fava_0011-512.png", "custom_css": null}, {"id": 20501, "slack_id": "U098S1ACGAY", "display_name": "Kunal Kundu", "bio": null, "projects_count": 0, "devlogs_count": 0, "votes_count": 0, "ships_count": 0, "projects": [], "coding_time_seconds": 0, "coding_time_seconds_today": 0, "balance": "You need to have a pocket watcher badge to view this.", "badges": [], "created_at": "2025-08-03T10:18:03.419-04:00", "updated_at": "2025-08-04T05:26:59.173-04:00", "avatar": "https://secure.gravatar.com/avatar/5af228de8940311429c04e677a67978d.jpg?s=512&d=https%3A%2F%2Fa.slack-edge.com%2Fdf10d%2Fimg%2Favatars%2Fava_0013-512.png", "custom_css": null}, {"id": 20502, "slack_id": "U099CD5BS80", "display_name": "suchismita sahoo", "bio": null, "projects_count": 0, "devlogs_count": 0, "votes_count": 0, "ships_count": 0, "projects": [], "coding_time_seconds": 840, "coding_time_seconds_today": 0, "balance": "You need to have a pocket watcher badge to view this.", "badges": [], "created_at": "2025-08-03T10:26:12.650-04:00", "updated_at": "2025-09-24T13:48:57.752-04:00", "avatar": "https://avatars.slack-edge.com/2025-09-24/9560082433479_bfa7f1670bda43cc5586_original.png", "custom_css": null}, {"id": 20503, "slack_id": "U098A2QC2LF", "display_name": "lindenthesilly", "bio": "fluent in car. kitty kitty car meow meow meow meow meow meow meow meow meow meow meow meow meow meow meow meow meow meow meow meow meow meow meow meow meow meow meow meow meow meow meow meow meow meow meow meow meow meow meow meow meow meow meow meow meow meow meow meow meow meow meow meow meow meow meow meow meow meow meow meow meow meow meow meow meow meow meow meow meow meow meow meow meow meow meow meow meow meow meow meow meow meow meow meow meow meow meow ", "projects_count": 4, "devlogs_count": 65, "votes_count": 120, "ships_count": 2, "projects": [{"id": 9993, "title": "3D renderer using nothing but turtle (for rendering) and math (for computing).", "devlogs_count": 38, "created_at": "2025-08-03T10:58:30.770-04:00"}, {"id": 12808, "title": "Some Smaller-than-usual Mercenaries", "devlogs_count": 0, "created_at": "2025-09-03T01:55:14.147-04:00"}, {"id": 13124, "title": "Realistic 3D rendering through stereoscopy, using nothing but tkinter (for rendering) and math (for computing)", "devlogs_count": 8, "created_at": "2025-09-09T05:21:54.967-04:00"}, {"id": 12007, "title": "3D Voxel renderer using nothing but turtle (for rendering) and math (for computing).", "devlogs_count": 20, "created_at": "2025-08-22T03:19:48.844-04:00"}], "coding_time_seconds": 263254, "coding_time_seconds_today": 0, "balance": "You need to have a pocket watcher badge to view this.", "badges": [{"name": "Maiden Voyage", "text": "you shipped your first project! the journey begins...", "icon": "\ud83d\udea2"}, {"name": "Graphic Design is My Passion", "text": "Oh God How Did This Get Here I Am Not Good With Computer", "icon": "\ud83c\udfa8"}, {"name": "Ballot Stuffer", "text": "vote 100 times.", "icon": "https://summer.hackclub.com/assets/i_voted-bf851b48.png"}, {"name": "Yapper I", "text": "Posted 10 comments on devlogs.", "icon": "\ud83d\udcac"}], "created_at": "2025-08-03T10:28:14.469-04:00", "updated_at": "2025-09-24T13:48:57.894-04:00", "avatar": "https://avatars.slack-edge.com/2025-09-24/9587830575841_39e35a96f9f377d871ed_original.png", "custom_css": ""}, {"id": 20504, "slack_id": "U098S1S38JG", "display_name": "kai", "bio": "what am i doing yo", "projects_count": 1, "devlogs_count": 6, "votes_count": 3, "ships_count": 0, "projects": [{"id": 13659, "title": "Python calculator ", "devlogs_count": 4, "created_at": "2025-09-22T07:53:28.349-04:00"}], "coding_time_seconds": 28355, "coding_time_seconds_today": 0, "balance": "You need to have a pocket watcher badge to view this.", "badges": [], "created_at": "2025-08-03T10:31:27.968-04:00", "updated_at": "2025-09-14T00:41:43.539-04:00", "avatar": "https://secure.gravatar.com/avatar/6358c4382a60232dc32f67f8b5c8234b.jpg?s=512&d=https%3A%2F%2Fa.slack-edge.com%2Fdf10d%2Fimg%2Favatars%2Fava_0009-512.png", "custom_css": null}, {"id": 20505, "slack_id": "U098NFQNQQ5", "display_name": "simon", "bio": null, "projects_count": 0, "devlogs_count": 0, "votes_count": 0, "ships_count": 0, "projects": [], "coding_time_seconds": 0, "coding_time_seconds_today": 0, "balance": "You need to have a pocket watcher badge to view this.", "badges": [], "created_at": "2025-08-03T10:39:30.072-04:00", "updated_at": "2025-08-03T15:59:55.558-04:00", "avatar": "https://secure.gravatar.com/avatar/4e70a47ad7a9849512706d6b4a833f6f.jpg?s=512&d=https%3A%2F%2Fa.slack-edge.com%2Fdf10d%2Fimg%2Favatars%2Fava_0000-512.png", "custom_css": null}], "pagination": {"page": 1021, "pages": 1192, "count": 23828, "items": 20}}