{"users": [{"id": 20506, "slack_id": "U0989RBC15M", "display_name": "Teddy Samuel", "bio": null, "projects_count": 0, "devlogs_count": 0, "votes_count": 0, "ships_count": 0, "projects": [], "coding_time_seconds": 5349, "coding_time_seconds_today": 0, "balance": "You need to have a pocket watcher badge to view this.", "badges": [], "created_at": "2025-08-03T10:39:36.097-04:00", "updated_at": "2025-08-03T15:59:55.673-04:00", "avatar": "https://avatars.slack-edge.com/2025-08-03/9312397514945_60ceca62f214e5ee1a35_original.png", "custom_css": null}, {"id": 20507, "slack_id": "U098M9K4ABD", "display_name": "Harshika Dev", "bio": "nothing special just a common girl with big dreams ", "projects_count": 1, "devlogs_count": 0, "votes_count": 0, "ships_count": 0, "projects": [{"id": 10836, "title": "cli-binn", "devlogs_count": 0, "created_at": "2025-08-11T08:01:24.827-04:00"}], "coding_time_seconds": 29421, "coding_time_seconds_today": 0, "balance": "You need to have a pocket watcher badge to view this.", "badges": [], "created_at": "2025-08-03T10:48:08.993-04:00", "updated_at": "2025-08-11T07:59:51.164-04:00", "avatar": "https://secure.gravatar.com/avatar/9161705e9b79b83a33f31b406b8d7b83.jpg?s=512&d=https%3A%2F%2Fa.slack-edge.com%2Fdf10d%2Fimg%2Favatars%2Fava_0020-512.png", "custom_css": null}, {"id": 20508, "slack_id": "U098MATUT6X", "display_name": "Enhanced Rock", "bio": "Hai! :3\r\nI'm a 16 year old Irish transfem who enjoys programming.\r\nYou can find me most places as @enhancedrock, and you can learn a lot more about me at my carrd; https://erock.carrd.co", "projects_count": 1, "devlogs_count": 6, "votes_count": 26, "ships_count": 1, "projects": [{"id": 10011, "title": "Squishy", "devlogs_count": 6, "created_at": "2025-08-03T12:35:28.507-04:00"}], "coding_time_seconds": 51595, "coding_time_seconds_today": 0, "balance": "You need to have a pocket watcher badge to view this.", "badges": [], "created_at": "2025-08-03T11:16:17.109-04:00", "updated_at": "2025-08-10T11:58:23.473-04:00", "avatar": "https://avatars.slack-edge.com/2025-08-03/9294011078966_8a9e9cf9a12ddba112d8_original.jpg", "custom_css": null}, {"id": 20509, "slack_id": "U099CFWML9E", "display_name": "durdan", "bio": null, "projects_count": 0, "devlogs_count": 0, "votes_count": 0, "ships_count": 0, "projects": [], "coding_time_seconds": 0, "coding_time_seconds_today": 0, "balance": "You need to have a pocket watcher badge to view this.", "badges": [], "created_at": "2025-08-03T11:28:44.470-04:00", "updated_at": "2025-08-03T15:59:55.991-04:00", "avatar": "https://secure.gravatar.com/avatar/93efd9bd78ca6eae19983a5efb975c2a.jpg?s=512&d=https%3A%2F%2Fa.slack-edge.com%2Fdf10d%2Fimg%2Favatars%2Fava_0001-512.png", "custom_css": null}, {"id": 20510, "slack_id": "U098MC4J9HR", "display_name": "igloo", "bio": null, "projects_count": 0, "devlogs_count": 0, "votes_count": 0, "ships_count": 0, "projects": [], "coding_time_seconds": 0, "coding_time_seconds_today": 0, "balance": "You need to have a pocket watcher badge to view this.", "badges": [], "created_at": "2025-08-03T11:48:25.350-04:00", "updated_at": "2025-08-03T15:59:56.105-04:00", "avatar": "https://secure.gravatar.com/avatar/a371303ec481210d88ff024b757bc213.jpg?s=512&d=https%3A%2F%2Fa.slack-edge.com%2Fdf10d%2Fimg%2Favatars%2Fava_0009-512.png", "custom_css": null}, {"id": 20511, "slack_id": "U0996FN7L01", "display_name": "Diksha", "bio": null, "projects_count": 0, "devlogs_count": 0, "votes_count": 0, "ships_count": 0, "projects": [], "coding_time_seconds": 0, "coding_time_seconds_today": 0, "balance": "You need to have a pocket watcher badge to view this.", "badges": [], "created_at": "2025-08-03T12:13:26.486-04:00", "updated_at": "2025-08-03T15:59:56.218-04:00", "avatar": "https://secure.gravatar.com/avatar/665e584bc77862741f587d97896db80d.jpg?s=512&d=https%3A%2F%2Fa.slack-edge.com%2Fdf10d%2Fimg%2Favatars%2Fava_0016-512.png", "custom_css": null}, {"id": 20512, "slack_id": "U098MDYLTNX", "display_name": "Pjanda", "bio": "UI/UX design is my passion, also i listen to laufey", "projects_count": 4, "devlogs_count": 25, "votes_count": 43, "ships_count": 2, "projects": [{"id": 11353, "title": "Paper", "devlogs_count": 3, "created_at": "2025-08-15T05:53:21.543-04:00"}, {"id": 11365, "title": "RPI Zero Assistant", "devlogs_count": 1, "created_at": "2025-08-15T08:58:33.578-04:00"}, {"id": 10014, "title": "Percent", "devlogs_count": 17, "created_at": "2025-08-03T12:54:31.643-04:00"}, {"id": 10158, "title": "Sprigade", "devlogs_count": 4, "created_at": "2025-08-04T13:36:48.221-04:00"}], "coding_time_seconds": 64809, "coding_time_seconds_today": 0, "balance": "You need to have a pocket watcher badge to view this.", "badges": [], "created_at": "2025-08-03T12:31:49.799-04:00", "updated_at": "2025-08-11T11:50:33.046-04:00", "avatar": "https://avatars.slack-edge.com/2025-08-09/9355398112448_cfa24f1a8511e10d84e9_original.png", "custom_css": null}, {"id": 20513, "slack_id": "U09545VG2KA", "display_name": "Paul", "bio": null, "projects_count": 0, "devlogs_count": 0, "votes_count": 0, "ships_count": 0, "projects": [], "coding_time_seconds": 0, "coding_time_seconds_today": 0, "balance": "You need to have a pocket watcher badge to view this.", "badges": [], "created_at": "2025-08-03T12:38:41.433-04:00", "updated_at": "2025-08-03T15:59:56.413-04:00", "avatar": "https://secure.gravatar.com/avatar/a6dce4b70d3b46adccbc339020bba6f6.jpg?s=512&d=https%3A%2F%2Fa.slack-edge.com%2Fdf10d%2Fimg%2Favatars%2Fava_0014-512.png", "custom_css": null}, {"id": 20514, "slack_id": "U098QQYQ9FC", "display_name": "Papp S\u00e1ndor", "bio": null, "projects_count": 0, "devlogs_count": 0, "votes_count": 0, "ships_count": 0, "projects": [], "coding_time_seconds": 0, "coding_time_seconds_today": 0, "balance": "You need to have a pocket watcher badge to view this.", "badges": [], "created_at": "2025-08-03T12:41:20.829-04:00", "updated_at": "2025-08-03T15:59:56.501-04:00", "avatar": "https://secure.gravatar.com/avatar/6afc9ea1e731f57ebc46de5e96f427ad.jpg?s=512&d=https%3A%2F%2Fa.slack-edge.com%2Fdf10d%2Fimg%2Favatars%2Fava_0024-512.png", "custom_css": null}, {"id": 20515, "slack_id": "U096FKFFJ07", "display_name": "R_over", "bio": null, "projects_count": 0, "devlogs_count": 0, "votes_count": 0, "ships_count": 0, "projects": [], "coding_time_seconds": 0, "coding_time_seconds_today": 0, "balance": "You need to have a pocket watcher badge to view this.", "badges": [], "created_at": "2025-08-03T12:47:41.202-04:00", "updated_at": "2025-08-03T15:59:56.600-04:00", "avatar": "https://secure.gravatar.com/avatar/cfce618799b134f0d5f098378c04d1e8.jpg?s=512&d=https%3A%2F%2Fa.slack-edge.com%2Fdf10d%2Fimg%2Favatars%2Fava_0022-512.png", "custom_css": null}, {"id": 20516, "slack_id": "U098SAHHZB6", "display_name": "Satyam Mhetre", "bio": null, "projects_count": 0, "devlogs_count": 0, "votes_count": 0, "ships_count": 0, "projects": [], "coding_time_seconds": 0, "coding_time_seconds_today": 0, "balance": "You need to have a pocket watcher badge to view this.", "badges": [], "created_at": "2025-08-03T13:57:44.457-04:00", "updated_at": "2025-08-03T15:59:56.693-04:00", "avatar": "https://secure.gravatar.com/avatar/6bee6dd7834d067c7aafe194ad75318d.jpg?s=512&d=https%3A%2F%2Fa.slack-edge.com%2Fdf10d%2Fimg%2Favatars%2Fava_0019-512.png", "custom_css": null}, {"id": 20517, "slack_id": "U099CPWDN00", "display_name": "Alina", "bio": null, "projects_count": 0, "devlogs_count": 0, "votes_count": 0, "ships_count": 0, "projects": [], "coding_time_seconds": 0, "coding_time_seconds_today": 0, "balance": "You need to have a pocket watcher badge to view this.", "badges": [], "created_at": "2025-08-03T14:37:00.955-04:00", "updated_at": "2025-08-03T15:59:56.787-04:00", "avatar": "https://secure.gravatar.com/avatar/26366fcb5d24de3b2669be6d153a28f5.jpg?s=512&d=https%3A%2F%2Fa.slack-edge.com%2Fdf10d%2Fimg%2Favatars%2Fava_0005-512.png", "custom_css": null}, {"id": 20518, "slack_id": "U082XBW8GHE", "display_name": "Simpery", "bio": null, "projects_count": 0, "devlogs_count": 0, "votes_count": 0, "ships_count": 0, "projects": [], "coding_time_seconds": 0, "coding_time_seconds_today": 0, "balance": "You need to have a pocket watcher badge to view this.", "badges": [], "created_at": "2025-08-03T15:27:40.480-04:00", "updated_at": "2025-08-04T06:06:48.679-04:00", "avatar": "https://secure.gravatar.com/avatar/8324b789eb660295d2c7685b896806a2.jpg?s=512&d=https%3A%2F%2Fa.slack-edge.com%2Fdf10d%2Fimg%2Favatars%2Fava_0016-512.png", "custom_css": null}, {"id": 20519, "slack_id": "U099CUEMRS4", "display_name": "Jordan Zhao", "bio": null, "projects_count": 0, "devlogs_count": 0, "votes_count": 0, "ships_count": 0, "projects": [], "coding_time_seconds": 0, "coding_time_seconds_today": 0, "balance": "You need to have a pocket watcher badge to view this.", "badges": [], "created_at": "2025-08-03T16:25:36.926-04:00", "updated_at": "2025-08-15T12:08:50.823-04:00", "avatar": "https://secure.gravatar.com/avatar/54199b2c71d6276118aca5e9ec71e8de.jpg?s=512&d=https%3A%2F%2Fa.slack-edge.com%2Fdf10d%2Fimg%2Favatars%2Fava_0007-512.png", "custom_css": null}, {"id": 20520, "slack_id": "U0996SS3H41", "display_name": "Amine Sakoute", "bio": "Avg. tech & astronomy enthusiast.\r\n16 years old (02/08/2009)\r\norg @ daydream casablanca\r\nlead programmer @ FTC#24950 Novatard (Morocco Inspire Award 1st 2025)\r\nmoroccan student @ lyc\u00e9e louis-massignon (Casablanca)\r\nMy Github : https://github.com/Sak-288", "projects_count": 1, "devlogs_count": 6, "votes_count": 1, "ships_count": 0, "projects": [{"id": 10563, "title": "Automating_Astrophotography", "devlogs_count": 6, "created_at": "2025-08-08T07:25:03.013-04:00"}], "coding_time_seconds": 247474, "coding_time_seconds_today": 0, "balance": "You need to have a pocket watcher badge to view this.", "badges": [], "created_at": "2025-08-03T16:34:25.453-04:00", "updated_at": "2025-08-08T07:56:08.900-04:00", "avatar": "https://avatars.slack-edge.com/2025-08-03/9298645595268_2b95d15cc9944c8dc077_original.jpg", "custom_css": null}, {"id": 20521, "slack_id": "U098P18B3DK", "display_name": "Partho Biswas", "bio": null, "projects_count": 0, "devlogs_count": 0, "votes_count": 0, "ships_count": 0, "projects": [], "coding_time_seconds": 0, "coding_time_seconds_today": 0, "balance": "You need to have a pocket watcher badge to view this.", "badges": [], "created_at": "2025-08-03T16:42:52.540-04:00", "updated_at": "2025-08-03T22:00:01.834-04:00", "avatar": "https://avatars.slack-edge.com/2025-08-03/9282646258295_a90d86f1e70cde4c05bd_original.png", "custom_css": null}, {"id": 20522, "slack_id": "U098MR3AKEX", "display_name": "Ezra Sanchez", "bio": null, "projects_count": 0, "devlogs_count": 0, "votes_count": 0, "ships_count": 0, "projects": [], "coding_time_seconds": 0, "coding_time_seconds_today": 0, "balance": "You need to have a pocket watcher badge to view this.", "badges": [], "created_at": "2025-08-03T17:22:36.105-04:00", "updated_at": "2025-08-03T22:00:01.968-04:00", "avatar": "https://avatars.slack-edge.com/2025-08-03/9319052886672_c8623b6b1186dd87bc96_original.png", "custom_css": null}, {"id": 20523, "slack_id": "U098ALBDJMV", "display_name": "Eileen Cedillo", "bio": null, "projects_count": 0, "devlogs_count": 0, "votes_count": 0, "ships_count": 0, "projects": [], "coding_time_seconds": 0, "coding_time_seconds_today": 0, "balance": "You need to have a pocket watcher badge to view this.", "badges": [], "created_at": "2025-08-03T17:32:37.206-04:00", "updated_at": "2025-08-03T23:42:38.196-04:00", "avatar": "https://secure.gravatar.com/avatar/f3a6f053b33c0098ae4093a7cb52526e.jpg?s=512&d=https%3A%2F%2Fa.slack-edge.com%2Fdf10d%2Fimg%2Favatars%2Fava_0015-512.png", "custom_css": null}, {"id": 20524, "slack_id": "U099D1Q4NDN", "display_name": "Yashveer Patel", "bio": null, "projects_count": 0, "devlogs_count": 0, "votes_count": 0, "ships_count": 0, "projects": [], "coding_time_seconds": 0, "coding_time_seconds_today": 0, "balance": "You need to have a pocket watcher badge to view this.", "badges": [], "created_at": "2025-08-03T17:33:59.995-04:00", "updated_at": "2025-08-03T22:00:02.213-04:00", "avatar": "https://secure.gravatar.com/avatar/09b84abe9ec1326f135e3402e9c15b0e.jpg?s=512&d=https%3A%2F%2Fa.slack-edge.com%2Fdf10d%2Fimg%2Favatars%2Fava_0001-512.png", "custom_css": null}, {"id": 20525, "slack_id": "U0996VA9AC9", "display_name": "Smaran Paul", "bio": null, "projects_count": 0, "devlogs_count": 0, "votes_count": 0, "ships_count": 0, "projects": [], "coding_time_seconds": 0, "coding_time_seconds_today": 0, "balance": "You need to have a pocket watcher badge to view this.", "badges": [], "created_at": "2025-08-03T17:41:48.616-04:00", "updated_at": "2025-08-03T22:00:02.336-04:00", "avatar": "https://secure.gravatar.com/avatar/92dae1171ba46ee0ec9d38aae9ad503a.jpg?s=512&d=https%3A%2F%2Fa.slack-edge.com%2Fdf10d%2Fimg%2Favatars%2Fava_0004-512.png", "custom_css": null}], "pagination": {"page": 1022, "pages": 1192, "count": 23828, "items": 20}}