{"users": [{"id": 20546, "slack_id": "U0791TU9DM3", "display_name": "Rishabh Mittal", "bio": null, "projects_count": 0, "devlogs_count": 0, "votes_count": 0, "ships_count": 0, "projects": [], "coding_time_seconds": 841, "coding_time_seconds_today": 0, "balance": "You need to have a pocket watcher badge to view this.", "badges": [], "created_at": "2025-08-04T01:23:00.054-04:00", "updated_at": "2025-08-04T01:27:41.469-04:00", "avatar": "https://secure.gravatar.com/avatar/26ef5867d6e0b5113ce8f53452edd21a.jpg?s=512&d=https%3A%2F%2Fa.slack-edge.com%2Fdf10d%2Fimg%2Favatars%2Fava_0010-512.png", "custom_css": null}, {"id": 20547, "slack_id": "U08S626RH2A", "display_name": "Taufeeq", "bio": null, "projects_count": 0, "devlogs_count": 0, "votes_count": 0, "ships_count": 0, "projects": [], "coding_time_seconds": 0, "coding_time_seconds_today": 0, "balance": "You need to have a pocket watcher badge to view this.", "badges": [], "created_at": "2025-08-04T01:45:41.987-04:00", "updated_at": "2025-08-04T04:01:06.462-04:00", "avatar": "https://secure.gravatar.com/avatar/e69f247dd9b7c51f454776e771d597dd.jpg?s=512&d=https%3A%2F%2Fa.slack-edge.com%2Fdf10d%2Fimg%2Favatars%2Fava_0000-512.png", "custom_css": null}, {"id": 20548, "slack_id": "U098TUL934L", "display_name": "ninem4re", "bio": null, "projects_count": 1, "devlogs_count": 1, "votes_count": 16, "ships_count": 1, "projects": [{"id": 10508, "title": "NoMusic", "devlogs_count": 1, "created_at": "2025-08-07T16:09:08.595-04:00"}], "coding_time_seconds": 33253, "coding_time_seconds_today": 0, "balance": "You need to have a pocket watcher badge to view this.", "badges": [], "created_at": "2025-08-04T02:06:11.994-04:00", "updated_at": "2025-08-07T16:07:11.652-04:00", "avatar": "https://avatars.slack-edge.com/2025-08-05/9292292111943_eba3cfafb3f7de4a8ae8_original.jpg", "custom_css": null}, {"id": 20549, "slack_id": "U098QCMU4KF", "display_name": "Yonatan Arbel", "bio": null, "projects_count": 0, "devlogs_count": 0, "votes_count": 0, "ships_count": 0, "projects": [], "coding_time_seconds": 0, "coding_time_seconds_today": 0, "balance": "You need to have a pocket watcher badge to view this.", "badges": [], "created_at": "2025-08-04T02:21:35.271-04:00", "updated_at": "2025-08-04T04:01:06.626-04:00", "avatar": "https://avatars.slack-edge.com/2025-08-03/9295750021174_b73ca0759ff51361b00f_original.png", "custom_css": null}, {"id": 20550, "slack_id": "U099EEA1264", "display_name": "unknownspeci", "bio": null, "projects_count": 0, "devlogs_count": 0, "votes_count": 0, "ships_count": 0, "projects": [], "coding_time_seconds": 0, "coding_time_seconds_today": 0, "balance": "You need to have a pocket watcher badge to view this.", "badges": [], "created_at": "2025-08-04T02:39:52.746-04:00", "updated_at": "2025-08-04T04:01:06.712-04:00", "avatar": "https://secure.gravatar.com/avatar/45974bb3b56ddfbe06cb86c45147fbb4.jpg?s=512&d=https%3A%2F%2Fa.slack-edge.com%2Fdf10d%2Fimg%2Favatars%2Fava_0001-512.png", "custom_css": null}, {"id": 20551, "slack_id": "U098PRDCLSJ", "display_name": "Hirav", "bio": null, "projects_count": 0, "devlogs_count": 0, "votes_count": 0, "ships_count": 0, "projects": [], "coding_time_seconds": 0, "coding_time_seconds_today": 0, "balance": "You need to have a pocket watcher badge to view this.", "badges": [], "created_at": "2025-08-04T02:54:14.968-04:00", "updated_at": "2025-08-04T04:01:06.808-04:00", "avatar": "https://secure.gravatar.com/avatar/b776544e68a41ef65b8d637323244eb9.jpg?s=512&d=https%3A%2F%2Fa.slack-edge.com%2Fdf10d%2Fimg%2Favatars%2Fava_0007-512.png", "custom_css": null}, {"id": 20552, "slack_id": "U082U8U1943", "display_name": "Prashant Kumar", "bio": null, "projects_count": 0, "devlogs_count": 0, "votes_count": 0, "ships_count": 0, "projects": [], "coding_time_seconds": 0, "coding_time_seconds_today": 0, "balance": "You need to have a pocket watcher badge to view this.", "badges": [], "created_at": "2025-08-04T03:30:08.025-04:00", "updated_at": "2025-08-04T03:30:19.419-04:00", "avatar": "https://secure.gravatar.com/avatar/517ba04ec35f8b462f5d5a2d85effed5.jpg?s=512&d=https%3A%2F%2Fa.slack-edge.com%2Fdf10d%2Fimg%2Favatars%2Fava_0020-512.png", "custom_css": null}, {"id": 20553, "slack_id": "U098TBEU5C4", "display_name": "shashi93", "bio": "", "projects_count": 1, "devlogs_count": 6, "votes_count": 21, "ships_count": 1, "projects": [{"id": 10127, "title": "Completing CS50P", "devlogs_count": 6, "created_at": "2025-08-04T08:04:12.358-04:00"}], "coding_time_seconds": 62407, "coding_time_seconds_today": 0, "balance": "You need to have a pocket watcher badge to view this.", "badges": [], "created_at": "2025-08-04T03:46:39.962-04:00", "updated_at": "2025-08-22T03:50:44.242-04:00", "avatar": "https://avatars.slack-edge.com/2025-08-21/9400616247025_f120332b35d529adbf4a_original.png", "custom_css": null}, {"id": 20554, "slack_id": "U098CDLKG6T", "display_name": "Rauda Dhoba", "bio": null, "projects_count": 0, "devlogs_count": 0, "votes_count": 0, "ships_count": 0, "projects": [], "coding_time_seconds": 0, "coding_time_seconds_today": 0, "balance": "You need to have a pocket watcher badge to view this.", "badges": [], "created_at": "2025-08-04T03:47:40.068-04:00", "updated_at": "2025-08-04T04:01:11.131-04:00", "avatar": "https://secure.gravatar.com/avatar/8484ed9fd4c6596b14d9e0d8f39b5f20.jpg?s=512&d=https%3A%2F%2Fa.slack-edge.com%2Fdf10d%2Fimg%2Favatars%2Fava_0002-512.png", "custom_css": null}, {"id": 20555, "slack_id": "U098Q3H2DQE", "display_name": "Fray", "bio": null, "projects_count": 0, "devlogs_count": 0, "votes_count": 0, "ships_count": 0, "projects": [], "coding_time_seconds": 0, "coding_time_seconds_today": 0, "balance": "You need to have a pocket watcher badge to view this.", "badges": [], "created_at": "2025-08-04T03:53:53.298-04:00", "updated_at": "2025-08-26T16:49:02.077-04:00", "avatar": "https://secure.gravatar.com/avatar/be658f89b02090247192029cdb1f8dea.jpg?s=512&d=https%3A%2F%2Fa.slack-edge.com%2Fdf10d%2Fimg%2Favatars%2Fava_0020-512.png", "custom_css": null}, {"id": 20556, "slack_id": "U098PFM4T8B", "display_name": "Jaideep", "bio": null, "projects_count": 0, "devlogs_count": 0, "votes_count": 1, "ships_count": 0, "projects": [], "coding_time_seconds": 0, "coding_time_seconds_today": 0, "balance": "You need to have a pocket watcher badge to view this.", "badges": [], "created_at": "2025-08-04T03:54:32.202-04:00", "updated_at": "2025-08-09T07:36:46.621-04:00", "avatar": "https://secure.gravatar.com/avatar/b68a3834bbe3ddce6b3bfa5c593c1680.jpg?s=512&d=https%3A%2F%2Fa.slack-edge.com%2Fdf10d%2Fimg%2Favatars%2Fava_0014-512.png", "custom_css": null}, {"id": 20557, "slack_id": "U098D1R9W79", "display_name": "Roland", "bio": null, "projects_count": 0, "devlogs_count": 0, "votes_count": 0, "ships_count": 0, "projects": [], "coding_time_seconds": 0, "coding_time_seconds_today": 0, "balance": "You need to have a pocket watcher badge to view this.", "badges": [], "created_at": "2025-08-04T05:45:42.932-04:00", "updated_at": "2025-08-04T22:01:06.697-04:00", "avatar": "https://secure.gravatar.com/avatar/557139c67063d0fdca59f73b18d11b60.jpg?s=512&d=https%3A%2F%2Fa.slack-edge.com%2Fdf10d%2Fimg%2Favatars%2Fava_0016-512.png", "custom_css": null}, {"id": 20558, "slack_id": "U099994BPHP", "display_name": "Sai Manaswini", "bio": null, "projects_count": 0, "devlogs_count": 0, "votes_count": 0, "ships_count": 0, "projects": [], "coding_time_seconds": 0, "coding_time_seconds_today": 0, "balance": "You need to have a pocket watcher badge to view this.", "badges": [], "created_at": "2025-08-04T05:46:37.462-04:00", "updated_at": "2025-08-04T22:01:06.914-04:00", "avatar": "https://avatars.slack-edge.com/2025-08-04/9315310858033_c45d68b9a7c27a4654e8_original.jpg", "custom_css": null}, {"id": 20559, "slack_id": "U098Q28M4JX", "display_name": "simps", "bio": null, "projects_count": 1, "devlogs_count": 6, "votes_count": 3, "ships_count": 0, "projects": [{"id": 10240, "title": "Clear As Night", "devlogs_count": 6, "created_at": "2025-08-05T10:15:27.676-04:00"}], "coding_time_seconds": 29174, "coding_time_seconds_today": 0, "balance": "You need to have a pocket watcher badge to view this.", "badges": [], "created_at": "2025-08-04T05:46:52.354-04:00", "updated_at": "2025-08-07T08:07:38.340-04:00", "avatar": "https://secure.gravatar.com/avatar/661ce4549421db2805494a3465fff887.jpg?s=512&d=https%3A%2F%2Fa.slack-edge.com%2Fdf10d%2Fimg%2Favatars%2Fava_0011-512.png", "custom_css": null}, {"id": 20560, "slack_id": "U098D38VA1M", "display_name": "Abeer Mishra", "bio": null, "projects_count": 0, "devlogs_count": 0, "votes_count": 0, "ships_count": 0, "projects": [], "coding_time_seconds": 0, "coding_time_seconds_today": 0, "balance": "You need to have a pocket watcher badge to view this.", "badges": [], "created_at": "2025-08-04T05:57:16.299-04:00", "updated_at": "2025-08-04T22:01:07.182-04:00", "avatar": "https://secure.gravatar.com/avatar/f00c0525ff6dc31c46adc95b59966dbd.jpg?s=512&d=https%3A%2F%2Fa.slack-edge.com%2Fdf10d%2Fimg%2Favatars%2Fava_0025-512.png", "custom_css": null}, {"id": 20561, "slack_id": "U09992XU3CZ", "display_name": "Rouvik Maji", "bio": null, "projects_count": 0, "devlogs_count": 0, "votes_count": 0, "ships_count": 0, "projects": [], "coding_time_seconds": 1490, "coding_time_seconds_today": 0, "balance": "You need to have a pocket watcher badge to view this.", "badges": [], "created_at": "2025-08-04T05:59:50.583-04:00", "updated_at": "2025-08-04T22:01:07.428-04:00", "avatar": "https://secure.gravatar.com/avatar/4a8d4ea3fee2d93401ca2cc1358b2d0f.jpg?s=512&d=https%3A%2F%2Fa.slack-edge.com%2Fdf10d%2Fimg%2Favatars%2Fava_0019-512.png", "custom_css": null}, {"id": 20562, "slack_id": "U098D13Q823", "display_name": "Lucas", "bio": null, "projects_count": 0, "devlogs_count": 0, "votes_count": 0, "ships_count": 0, "projects": [], "coding_time_seconds": 7346, "coding_time_seconds_today": 0, "balance": "You need to have a pocket watcher badge to view this.", "badges": [], "created_at": "2025-08-04T06:03:19.473-04:00", "updated_at": "2025-08-05T22:00:15.020-04:00", "avatar": "https://avatars.slack-edge.com/2025-08-05/9305393848275_1da938722f35547935f3_original.png", "custom_css": null}, {"id": 20563, "slack_id": "U0863TNN675", "display_name": "Kushal Pathak", "bio": null, "projects_count": 0, "devlogs_count": 0, "votes_count": 0, "ships_count": 0, "projects": [], "coding_time_seconds": 439, "coding_time_seconds_today": 0, "balance": "You need to have a pocket watcher badge to view this.", "badges": [], "created_at": "2025-08-04T06:16:30.047-04:00", "updated_at": "2025-08-06T07:18:57.666-04:00", "avatar": "https://secure.gravatar.com/avatar/ec7454842dfb1aad2a76bfeb6e9b5d50.jpg?s=512&d=https%3A%2F%2Fa.slack-edge.com%2Fdf10d%2Fimg%2Favatars%2Fava_0025-512.png", "custom_css": null}, {"id": 20564, "slack_id": "U098V61Q9EY", "display_name": "Hasindu", "bio": null, "projects_count": 0, "devlogs_count": 0, "votes_count": 0, "ships_count": 0, "projects": [], "coding_time_seconds": 0, "coding_time_seconds_today": 0, "balance": "You need to have a pocket watcher badge to view this.", "badges": [], "created_at": "2025-08-04T06:25:06.180-04:00", "updated_at": "2025-08-04T22:01:07.700-04:00", "avatar": "https://secure.gravatar.com/avatar/b9c721bdd04a14078b9166c548b7a613.jpg?s=512&d=https%3A%2F%2Fa.slack-edge.com%2Fdf10d%2Fimg%2Favatars%2Fava_0010-512.png", "custom_css": null}, {"id": 20565, "slack_id": "U098QB9AX2P", "display_name": "Percy Ho", "bio": null, "projects_count": 0, "devlogs_count": 0, "votes_count": 0, "ships_count": 0, "projects": [], "coding_time_seconds": 0, "coding_time_seconds_today": 0, "balance": "You need to have a pocket watcher badge to view this.", "badges": [], "created_at": "2025-08-04T07:01:21.315-04:00", "updated_at": "2025-08-04T22:01:07.780-04:00", "avatar": "https://secure.gravatar.com/avatar/9f649a90674c348955f1a00460639eb1.jpg?s=512&d=https%3A%2F%2Fa.slack-edge.com%2Fdf10d%2Fimg%2Favatars%2Fava_0003-512.png", "custom_css": null}], "pagination": {"page": 1024, "pages": 1192, "count": 23828, "items": 20}}