{"users": [{"id": 20566, "slack_id": "U0999P521PB", "display_name": "Ravi Shankar Singhal", "bio": null, "projects_count": 0, "devlogs_count": 0, "votes_count": 0, "ships_count": 0, "projects": [], "coding_time_seconds": 397628, "coding_time_seconds_today": 4244, "balance": "You need to have a pocket watcher badge to view this.", "badges": [], "created_at": "2025-08-04T07:40:46.153-04:00", "updated_at": "2025-08-04T22:01:07.861-04:00", "avatar": "https://avatars.slack-edge.com/2025-08-04/9296682747507_605b0f866fbd021a9f25_original.jpg", "custom_css": null}, {"id": 20567, "slack_id": "U098M0SPAMQ", "display_name": "Seyi Olawepo", "bio": null, "projects_count": 0, "devlogs_count": 0, "votes_count": 0, "ships_count": 0, "projects": [], "coding_time_seconds": 0, "coding_time_seconds_today": 0, "balance": "You need to have a pocket watcher badge to view this.", "badges": [], "created_at": "2025-08-04T07:53:38.753-04:00", "updated_at": "2025-08-04T22:01:07.944-04:00", "avatar": "https://avatars.slack-edge.com/2025-08-04/9296594558979_fa80ce51f06637fcf5c1_original.jpg", "custom_css": null}, {"id": 20568, "slack_id": "U098S18QMUM", "display_name": "wiktor", "bio": null, "projects_count": 0, "devlogs_count": 0, "votes_count": 0, "ships_count": 0, "projects": [], "coding_time_seconds": 0, "coding_time_seconds_today": 0, "balance": "You need to have a pocket watcher badge to view this.", "badges": [], "created_at": "2025-08-04T08:08:23.613-04:00", "updated_at": "2025-08-04T22:01:08.037-04:00", "avatar": "https://secure.gravatar.com/avatar/a8294a5ff2cb23fdce5f097d3e5ffee5.jpg?s=512&d=https%3A%2F%2Fa.slack-edge.com%2Fdf10d%2Fimg%2Favatars%2Fava_0001-512.png", "custom_css": null}, {"id": 20569, "slack_id": "U098S7G64MT", "display_name": "Abishek Adhikari", "bio": null, "projects_count": 0, "devlogs_count": 0, "votes_count": 0, "ships_count": 0, "projects": [], "coding_time_seconds": 0, "coding_time_seconds_today": 0, "balance": "You need to have a pocket watcher badge to view this.", "badges": [], "created_at": "2025-08-04T08:53:01.042-04:00", "updated_at": "2025-08-04T22:01:08.140-04:00", "avatar": "https://secure.gravatar.com/avatar/d51840a085ff48c0ca3728fdd75fda58.jpg?s=512&d=https%3A%2F%2Fa.slack-edge.com%2Fdf10d%2Fimg%2Favatars%2Fava_0004-512.png", "custom_css": null}, {"id": 20570, "slack_id": "U097RUWBHV4", "display_name": "Vesryin", "bio": null, "projects_count": 0, "devlogs_count": 0, "votes_count": 0, "ships_count": 0, "projects": [], "coding_time_seconds": 0, "coding_time_seconds_today": 0, "balance": "You need to have a pocket watcher badge to view this.", "badges": [], "created_at": "2025-08-04T09:24:52.920-04:00", "updated_at": "2025-08-04T22:01:08.236-04:00", "avatar": "https://secure.gravatar.com/avatar/e9308ca80e8ff62b019c6637eb3af558.jpg?s=512&d=https%3A%2F%2Fa.slack-edge.com%2Fdf10d%2Fimg%2Favatars%2Fava_0004-512.png", "custom_css": null}, {"id": 20571, "slack_id": "U098SGDMYN9", "display_name": "Leunam Sousa de Jesus", "bio": null, "projects_count": 0, "devlogs_count": 0, "votes_count": 0, "ships_count": 0, "projects": [], "coding_time_seconds": 19401, "coding_time_seconds_today": 0, "balance": "You need to have a pocket watcher badge to view this.", "badges": [], "created_at": "2025-08-04T09:42:48.368-04:00", "updated_at": "2025-08-04T22:01:08.360-04:00", "avatar": "https://avatars.slack-edge.com/2025-08-04/9298573796069_cf9299675f5aa8f67836_original.jpg", "custom_css": null}, {"id": 20572, "slack_id": "U098EA6FGJ3", "display_name": "Agrim Singh", "bio": null, "projects_count": 1, "devlogs_count": 0, "votes_count": 3, "ships_count": 0, "projects": [{"id": 10235, "title": "Color picker website", "devlogs_count": 0, "created_at": "2025-08-05T08:06:30.456-04:00"}], "coding_time_seconds": 12443, "coding_time_seconds_today": 0, "balance": "You need to have a pocket watcher badge to view this.", "badges": [], "created_at": "2025-08-04T10:06:42.041-04:00", "updated_at": "2025-08-05T06:43:17.174-04:00", "avatar": "https://avatars.slack-edge.com/2025-08-04/9302297907108_2f691aaaccbc41763460_original.png", "custom_css": null}, {"id": 20573, "slack_id": "U098WBFAH4L", "display_name": "Veekshith", "bio": null, "projects_count": 0, "devlogs_count": 0, "votes_count": 0, "ships_count": 0, "projects": [], "coding_time_seconds": 0, "coding_time_seconds_today": 0, "balance": "You need to have a pocket watcher badge to view this.", "badges": [], "created_at": "2025-08-04T10:24:52.132-04:00", "updated_at": "2025-08-18T21:44:05.489-04:00", "avatar": "https://secure.gravatar.com/avatar/0a24a73659be775529f1bf1c96107f2b.jpg?s=512&d=https%3A%2F%2Fa.slack-edge.com%2Fdf10d%2Fimg%2Favatars%2Fava_0000-512.png", "custom_css": null}, {"id": 20574, "slack_id": "U092LBJ8JJV", "display_name": "David Dosu", "bio": null, "projects_count": 0, "devlogs_count": 0, "votes_count": 0, "ships_count": 0, "projects": [], "coding_time_seconds": 0, "coding_time_seconds_today": 0, "balance": "You need to have a pocket watcher badge to view this.", "badges": [], "created_at": "2025-08-04T10:28:22.544-04:00", "updated_at": "2025-08-04T22:01:08.648-04:00", "avatar": "https://avatars.slack-edge.com/2025-08-04/9300844325058_0bdf24427a8c52d8c415_original.png", "custom_css": null}, {"id": 20575, "slack_id": "U098RCG7C0K", "display_name": "Dhaniyashree Raj", "bio": null, "projects_count": 1, "devlogs_count": 1, "votes_count": 3, "ships_count": 1, "projects": [{"id": 11339, "title": "Crop Disease Detection", "devlogs_count": 1, "created_at": "2025-08-15T02:24:16.193-04:00"}], "coding_time_seconds": 24988, "coding_time_seconds_today": 0, "balance": "You need to have a pocket watcher badge to view this.", "badges": [], "created_at": "2025-08-04T10:32:57.259-04:00", "updated_at": "2025-08-16T05:01:32.246-04:00", "avatar": "https://avatars.slack-edge.com/2025-08-04/9298900949237_3760dff135fea527b042_original.png", "custom_css": null}, {"id": 20576, "slack_id": "U098T1MHH2R", "display_name": "Nishanth Kancharla", "bio": null, "projects_count": 0, "devlogs_count": 0, "votes_count": 0, "ships_count": 0, "projects": [], "coding_time_seconds": 0, "coding_time_seconds_today": 0, "balance": "You need to have a pocket watcher badge to view this.", "badges": [], "created_at": "2025-08-04T10:57:58.368-04:00", "updated_at": "2025-08-04T22:01:08.816-04:00", "avatar": "https://avatars.slack-edge.com/2025-08-04/9299296050789_3a7ec4e93b91a9abe4c2_original.png", "custom_css": null}, {"id": 20577, "slack_id": "U098EPMF5QF", "display_name": "Daniel", "bio": null, "projects_count": 1, "devlogs_count": 4, "votes_count": 42, "ships_count": 1, "projects": [{"id": 10311, "title": "OPEN THE CAN 3000", "devlogs_count": 4, "created_at": "2025-08-05T19:49:14.698-04:00"}], "coding_time_seconds": 7364, "coding_time_seconds_today": 0, "balance": "You need to have a pocket watcher badge to view this.", "badges": [], "created_at": "2025-08-04T11:15:07.945-04:00", "updated_at": "2025-08-06T18:05:29.732-04:00", "avatar": "https://secure.gravatar.com/avatar/8b845566c81aa1c04eb677f9ef423ba2.jpg?s=512&d=https%3A%2F%2Fa.slack-edge.com%2Fdf10d%2Fimg%2Favatars%2Fava_0023-512.png", "custom_css": null}, {"id": 20578, "slack_id": "U098N4F7U93", "display_name": "Stan", "bio": null, "projects_count": 0, "devlogs_count": 0, "votes_count": 0, "ships_count": 0, "projects": [], "coding_time_seconds": 0, "coding_time_seconds_today": 0, "balance": "You need to have a pocket watcher badge to view this.", "badges": [], "created_at": "2025-08-04T11:23:09.714-04:00", "updated_at": "2025-08-04T22:01:08.999-04:00", "avatar": "https://secure.gravatar.com/avatar/19511375d8413e4d55a48203bb7daa22.jpg?s=512&d=https%3A%2F%2Fa.slack-edge.com%2Fdf10d%2Fimg%2Favatars%2Fava_0008-512.png", "custom_css": null}, {"id": 20579, "slack_id": "U098TPCEUSE", "display_name": "Nevo Bias Restu Sangkane", "bio": null, "projects_count": 0, "devlogs_count": 0, "votes_count": 0, "ships_count": 0, "projects": [], "coding_time_seconds": 3178, "coding_time_seconds_today": 0, "balance": "You need to have a pocket watcher badge to view this.", "badges": [], "created_at": "2025-08-04T11:29:16.707-04:00", "updated_at": "2025-08-07T20:57:11.199-04:00", "avatar": "https://secure.gravatar.com/avatar/e0be9ac396152ebde0705af0d486dd67.jpg?s=512&d=https%3A%2F%2Fa.slack-edge.com%2Fdf10d%2Fimg%2Favatars%2Fava_0025-512.png", "custom_css": null}, {"id": 20580, "slack_id": "U098ESP1YH5", "display_name": "BuiVanHuy", "bio": null, "projects_count": 0, "devlogs_count": 0, "votes_count": 0, "ships_count": 0, "projects": [], "coding_time_seconds": 732014, "coding_time_seconds_today": 4760, "balance": "You need to have a pocket watcher badge to view this.", "badges": [], "created_at": "2025-08-04T11:31:01.813-04:00", "updated_at": "2025-08-04T22:01:09.171-04:00", "avatar": "https://secure.gravatar.com/avatar/591cb673a4e619cd34738f8d3b05151f.jpg?s=512&d=https%3A%2F%2Fa.slack-edge.com%2Fdf10d%2Fimg%2Favatars%2Fava_0001-512.png", "custom_css": null}, {"id": 20581, "slack_id": "U098RPF9STV", "display_name": "Manish Banjara", "bio": null, "projects_count": 0, "devlogs_count": 0, "votes_count": 0, "ships_count": 0, "projects": [], "coding_time_seconds": 0, "coding_time_seconds_today": 0, "balance": "You need to have a pocket watcher badge to view this.", "badges": [], "created_at": "2025-08-04T11:31:43.400-04:00", "updated_at": "2025-08-04T22:01:09.266-04:00", "avatar": "https://secure.gravatar.com/avatar/db8cb9d0368664793e5eb77ee90957d4.jpg?s=512&d=https%3A%2F%2Fa.slack-edge.com%2Fdf10d%2Fimg%2Favatars%2Fava_0010-512.png", "custom_css": null}, {"id": 20582, "slack_id": "U098SB3609L", "display_name": "Euan", "bio": null, "projects_count": 0, "devlogs_count": 0, "votes_count": 0, "ships_count": 0, "projects": [], "coding_time_seconds": 0, "coding_time_seconds_today": 0, "balance": "You need to have a pocket watcher badge to view this.", "badges": [], "created_at": "2025-08-04T11:40:42.447-04:00", "updated_at": "2025-08-04T22:01:13.381-04:00", "avatar": "https://secure.gravatar.com/avatar/5e2325f51649bc8d3b9436c859bf5c3d.jpg?s=512&d=https%3A%2F%2Fa.slack-edge.com%2Fdf10d%2Fimg%2Favatars%2Fava_0017-512.png", "custom_css": null}, {"id": 20583, "slack_id": "U098RRAD51R", "display_name": "kristina o", "bio": null, "projects_count": 0, "devlogs_count": 0, "votes_count": 0, "ships_count": 0, "projects": [], "coding_time_seconds": 0, "coding_time_seconds_today": 0, "balance": "You need to have a pocket watcher badge to view this.", "badges": [], "created_at": "2025-08-04T11:43:48.008-04:00", "updated_at": "2025-08-05T22:08:00.493-04:00", "avatar": "https://secure.gravatar.com/avatar/583e24786587d7cd2907b7f46c804374.jpg?s=512&d=https%3A%2F%2Fa.slack-edge.com%2Fdf10d%2Fimg%2Favatars%2Fava_0020-512.png", "custom_css": null}, {"id": 20584, "slack_id": "U06T30DNB3L", "display_name": "Euan Ripper", "bio": "", "projects_count": 2, "devlogs_count": 1, "votes_count": 21, "ships_count": 1, "projects": [{"id": 10899, "title": "Conways game of life in p5.js", "devlogs_count": 0, "created_at": "2025-08-11T16:48:20.471-04:00"}, {"id": 10275, "title": "Sand Pile Symmetry", "devlogs_count": 1, "created_at": "2025-08-05T13:31:17.802-04:00"}], "coding_time_seconds": 35157, "coding_time_seconds_today": 0, "balance": "You need to have a pocket watcher badge to view this.", "badges": [], "created_at": "2025-08-04T11:44:00.841-04:00", "updated_at": "2025-09-17T11:23:03.221-04:00", "avatar": "https://avatars.slack-edge.com/2025-08-15/9359888237813_13d0d6e57152b93db97e_original.png", "custom_css": null}, {"id": 20585, "slack_id": "U078J6H1XL3", "display_name": "phthallo", "bio": null, "projects_count": 0, "devlogs_count": 0, "votes_count": 0, "ships_count": 0, "projects": [], "coding_time_seconds": 216739, "coding_time_seconds_today": 0, "balance": "You need to have a pocket watcher badge to view this.", "badges": [], "created_at": "2025-08-04T11:47:13.862-04:00", "updated_at": "2025-09-23T19:49:08.410-04:00", "avatar": "https://avatars.slack-edge.com/2025-09-23/9554522395319_df14e04a311d1883fc02_original.jpg", "custom_css": null}], "pagination": {"page": 1025, "pages": 1192, "count": 23828, "items": 20}}