{"users": [{"id": 20586, "slack_id": "U098RS55WF5", "display_name": "Victoria", "bio": null, "projects_count": 0, "devlogs_count": 0, "votes_count": 0, "ships_count": 0, "projects": [], "coding_time_seconds": 0, "coding_time_seconds_today": 0, "balance": "You need to have a pocket watcher badge to view this.", "badges": [], "created_at": "2025-08-04T11:47:14.224-04:00", "updated_at": "2025-08-04T22:01:13.826-04:00", "avatar": "https://secure.gravatar.com/avatar/74a514cc9a87a2ba9399595851611aaf.jpg?s=512&d=https%3A%2F%2Fa.slack-edge.com%2Fdf10d%2Fimg%2Favatars%2Fava_0013-512.png", "custom_css": null}, {"id": 20587, "slack_id": "U098VA3G2LS", "display_name": "Jaydev", "bio": null, "projects_count": 2, "devlogs_count": 3, "votes_count": 2, "ships_count": 1, "projects": [{"id": 10224, "title": "ToDo App (CLI based)", "devlogs_count": 3, "created_at": "2025-08-05T05:59:25.827-04:00"}, {"id": 10362, "title": "Amazon price tracker", "devlogs_count": 0, "created_at": "2025-08-06T09:16:57.618-04:00"}], "coding_time_seconds": 76029, "coding_time_seconds_today": 0, "balance": "You need to have a pocket watcher badge to view this.", "badges": [], "created_at": "2025-08-04T11:49:31.127-04:00", "updated_at": "2025-08-07T09:50:35.230-04:00", "avatar": "https://avatars.slack-edge.com/2025-08-07/9343163265040_29c707a9402ab2cd54de_original.png", "custom_css": null}, {"id": 20588, "slack_id": "U04QD71QWS0", "display_name": "manitej", "bio": null, "projects_count": 0, "devlogs_count": 0, "votes_count": 0, "ships_count": 0, "projects": [], "coding_time_seconds": 324766, "coding_time_seconds_today": 0, "balance": "You need to have a pocket watcher badge to view this.", "badges": [], "created_at": "2025-08-04T11:53:43.736-04:00", "updated_at": "2025-08-08T09:58:46.331-04:00", "avatar": "https://avatars.slack-edge.com/2025-05-11/8891264129041_37bdb115220d80e4482e_original.png", "custom_css": null}, {"id": 20589, "slack_id": "U099HA389A4", "display_name": "N K", "bio": null, "projects_count": 0, "devlogs_count": 0, "votes_count": 0, "ships_count": 0, "projects": [], "coding_time_seconds": 0, "coding_time_seconds_today": 0, "balance": "You need to have a pocket watcher badge to view this.", "badges": [], "created_at": "2025-08-04T11:54:29.243-04:00", "updated_at": "2025-08-04T22:01:14.242-04:00", "avatar": "https://avatars.slack-edge.com/2025-08-04/9297947902275_7aa05134f590b2b90c56_original.jpg", "custom_css": null}, {"id": 20590, "slack_id": "U098VEE7C2E", "display_name": "Minkim", "bio": null, "projects_count": 3, "devlogs_count": 9, "votes_count": 15, "ships_count": 1, "projects": [{"id": 10268, "title": "Emi Calculator", "devlogs_count": 0, "created_at": "2025-08-05T12:40:51.082-04:00"}, {"id": 10364, "title": "Uroboros", "devlogs_count": 5, "created_at": "2025-08-06T09:56:24.057-04:00"}, {"id": 11373, "title": "Symbolic-ALL", "devlogs_count": 4, "created_at": "2025-08-15T10:37:46.131-04:00"}], "coding_time_seconds": 544955, "coding_time_seconds_today": 0, "balance": "You need to have a pocket watcher badge to view this.", "badges": [], "created_at": "2025-08-04T12:13:21.118-04:00", "updated_at": "2025-08-06T12:29:06.414-04:00", "avatar": "https://secure.gravatar.com/avatar/bc11b6cae71c67df2c97495362707dd0.jpg?s=512&d=https%3A%2F%2Fa.slack-edge.com%2Fdf10d%2Fimg%2Favatars%2Fava_0008-512.png", "custom_css": null}, {"id": 20591, "slack_id": "U098SH19GBG", "display_name": "Sruthi", "bio": null, "projects_count": 0, "devlogs_count": 0, "votes_count": 0, "ships_count": 0, "projects": [], "coding_time_seconds": 0, "coding_time_seconds_today": 0, "balance": "You need to have a pocket watcher badge to view this.", "badges": [], "created_at": "2025-08-04T12:14:45.065-04:00", "updated_at": "2025-08-04T22:01:14.723-04:00", "avatar": "https://secure.gravatar.com/avatar/33c6ce9b292d0340d2fc2b00b22d0ecc.jpg?s=512&d=https%3A%2F%2Fa.slack-edge.com%2Fdf10d%2Fimg%2Favatars%2Fava_0010-512.png", "custom_css": null}, {"id": 20592, "slack_id": "U098TFY7AR3", "display_name": "Minkyeong Kim", "bio": null, "projects_count": 0, "devlogs_count": 0, "votes_count": 0, "ships_count": 0, "projects": [], "coding_time_seconds": 0, "coding_time_seconds_today": 0, "balance": "You need to have a pocket watcher badge to view this.", "badges": [], "created_at": "2025-08-04T12:18:03.138-04:00", "updated_at": "2025-08-04T22:01:14.858-04:00", "avatar": "https://secure.gravatar.com/avatar/6fa16e455e51818113d80c46b52e79c7.jpg?s=512&d=https%3A%2F%2Fa.slack-edge.com%2Fdf10d%2Fimg%2Favatars%2Fava_0021-512.png", "custom_css": null}, {"id": 20593, "slack_id": "U0989DJC4S3", "display_name": "\u00cbv\u0101", "bio": "", "projects_count": 0, "devlogs_count": 0, "votes_count": 0, "ships_count": 0, "projects": [], "coding_time_seconds": 0, "coding_time_seconds_today": 0, "balance": "You need to have a pocket watcher badge to view this.", "badges": [], "created_at": "2025-08-04T12:33:27.184-04:00", "updated_at": "2025-08-04T22:01:15.080-04:00", "avatar": "https://avatars.slack-edge.com/2025-08-04/9303204538196_2dec4db959b39213acbb_original.png", "custom_css": null}, {"id": 20594, "slack_id": "U099HKYGTAL", "display_name": "Testing", "bio": null, "projects_count": 0, "devlogs_count": 0, "votes_count": 0, "ships_count": 0, "projects": [], "coding_time_seconds": 0, "coding_time_seconds_today": 0, "balance": "You need to have a pocket watcher badge to view this.", "badges": [], "created_at": "2025-08-04T12:49:36.595-04:00", "updated_at": "2025-08-04T22:01:15.185-04:00", "avatar": "https://secure.gravatar.com/avatar/40a770b87ce5f41af903c9a8ed433c3c.jpg?s=512&d=https%3A%2F%2Fa.slack-edge.com%2Fdf10d%2Fimg%2Favatars%2Fava_0013-512.png", "custom_css": null}, {"id": 20595, "slack_id": "U095U9R9ABY", "display_name": "gigi youssef", "bio": null, "projects_count": 0, "devlogs_count": 0, "votes_count": 0, "ships_count": 0, "projects": [], "coding_time_seconds": 0, "coding_time_seconds_today": 0, "balance": "You need to have a pocket watcher badge to view this.", "badges": [], "created_at": "2025-08-04T13:26:06.908-04:00", "updated_at": "2025-08-05T15:34:59.106-04:00", "avatar": "https://secure.gravatar.com/avatar/a6d866c86f6bc08b021fc4273f827015.jpg?s=512&d=https%3A%2F%2Fa.slack-edge.com%2Fdf10d%2Fimg%2Favatars%2Fava_0020-512.png", "custom_css": null}, {"id": 20596, "slack_id": "U098RR24FJ9", "display_name": "Muhammed Moin Shaikh", "bio": null, "projects_count": 0, "devlogs_count": 0, "votes_count": 0, "ships_count": 0, "projects": [], "coding_time_seconds": 0, "coding_time_seconds_today": 0, "balance": "You need to have a pocket watcher badge to view this.", "badges": [], "created_at": "2025-08-04T13:35:15.056-04:00", "updated_at": "2025-08-04T22:01:15.529-04:00", "avatar": "https://avatars.slack-edge.com/2025-08-04/9301975390482_1e5e8344a6090f224dd1_original.png", "custom_css": null}, {"id": 20597, "slack_id": "U098SFSS675", "display_name": "Archer", "bio": null, "projects_count": 0, "devlogs_count": 0, "votes_count": 0, "ships_count": 0, "projects": [], "coding_time_seconds": 0, "coding_time_seconds_today": 0, "balance": "You need to have a pocket watcher badge to view this.", "badges": [], "created_at": "2025-08-04T13:43:15.476-04:00", "updated_at": "2025-08-04T22:01:15.638-04:00", "avatar": "https://secure.gravatar.com/avatar/61266377afb1082b6039348240263548.jpg?s=512&d=https%3A%2F%2Fa.slack-edge.com%2Fdf10d%2Fimg%2Favatars%2Fava_0026-512.png", "custom_css": null}, {"id": 20598, "slack_id": "U098FMP4GTZ", "display_name": "Henry Zhuang", "bio": null, "projects_count": 0, "devlogs_count": 0, "votes_count": 0, "ships_count": 0, "projects": [], "coding_time_seconds": 0, "coding_time_seconds_today": 0, "balance": "You need to have a pocket watcher badge to view this.", "badges": [], "created_at": "2025-08-04T13:50:18.343-04:00", "updated_at": "2025-08-04T22:01:15.739-04:00", "avatar": "https://secure.gravatar.com/avatar/1c057330743806598f9ff46cbbbd9e5c.jpg?s=512&d=https%3A%2F%2Fa.slack-edge.com%2Fdf10d%2Fimg%2Favatars%2Fava_0023-512.png", "custom_css": null}, {"id": 20599, "slack_id": "U099C0RCNQZ", "display_name": "Csontos Kincs\u0151", "bio": null, "projects_count": 0, "devlogs_count": 0, "votes_count": 0, "ships_count": 0, "projects": [], "coding_time_seconds": 0, "coding_time_seconds_today": 0, "balance": "You need to have a pocket watcher badge to view this.", "badges": [], "created_at": "2025-08-04T14:03:46.415-04:00", "updated_at": "2025-08-04T22:01:15.839-04:00", "avatar": "https://secure.gravatar.com/avatar/09f8b63103fc7293fa8fd4fa92e8c059.jpg?s=512&d=https%3A%2F%2Fa.slack-edge.com%2Fdf10d%2Fimg%2Favatars%2Fava_0010-512.png", "custom_css": null}, {"id": 20600, "slack_id": "U099J29V3DW", "display_name": "Ihar", "bio": null, "projects_count": 0, "devlogs_count": 0, "votes_count": 0, "ships_count": 0, "projects": [], "coding_time_seconds": 0, "coding_time_seconds_today": 0, "balance": "You need to have a pocket watcher badge to view this.", "badges": [], "created_at": "2025-08-04T14:03:59.550-04:00", "updated_at": "2025-08-04T22:01:15.993-04:00", "avatar": "https://secure.gravatar.com/avatar/f9636166a3816e58f78998a4500ae81d.jpg?s=512&d=https%3A%2F%2Fa.slack-edge.com%2Fdf10d%2Fimg%2Favatars%2Fava_0003-512.png", "custom_css": null}, {"id": 20601, "slack_id": "U098SKJ096X", "display_name": "Jeroben Guzman", "bio": null, "projects_count": 1, "devlogs_count": 0, "votes_count": 0, "ships_count": 0, "projects": [{"id": 10167, "title": "Findub", "devlogs_count": 0, "created_at": "2025-08-04T14:54:11.069-04:00"}], "coding_time_seconds": 38378, "coding_time_seconds_today": 0, "balance": "You need to have a pocket watcher badge to view this.", "badges": [], "created_at": "2025-08-04T14:05:24.313-04:00", "updated_at": "2025-08-04T22:01:16.108-04:00", "avatar": "https://secure.gravatar.com/avatar/350ccd055276419a2b468c51889018dc.jpg?s=512&d=https%3A%2F%2Fa.slack-edge.com%2Fdf10d%2Fimg%2Favatars%2Fava_0001-512.png", "custom_css": null}, {"id": 20602, "slack_id": "U098U3XT7C5", "display_name": "ren", "bio": null, "projects_count": 0, "devlogs_count": 0, "votes_count": 0, "ships_count": 0, "projects": [], "coding_time_seconds": 0, "coding_time_seconds_today": 0, "balance": "You need to have a pocket watcher badge to view this.", "badges": [], "created_at": "2025-08-04T14:32:55.674-04:00", "updated_at": "2025-08-04T22:01:16.195-04:00", "avatar": "https://secure.gravatar.com/avatar/2a8c70b0984d3d2741c5f870500f594a.jpg?s=512&d=https%3A%2F%2Fa.slack-edge.com%2Fdf10d%2Fimg%2Favatars%2Fava_0015-512.png", "custom_css": null}, {"id": 20603, "slack_id": "U099JAAG2N4", "display_name": "Ren Lin", "bio": null, "projects_count": 0, "devlogs_count": 0, "votes_count": 0, "ships_count": 0, "projects": [], "coding_time_seconds": 12136, "coding_time_seconds_today": 0, "balance": "You need to have a pocket watcher badge to view this.", "badges": [], "created_at": "2025-08-04T14:53:09.061-04:00", "updated_at": "2025-08-07T12:26:32.540-04:00", "avatar": "https://avatars.slack-edge.com/2025-08-06/9309671009013_4603fef657ac90b37f9e_original.png", "custom_css": null}, {"id": 20604, "slack_id": "U098XSSDXMJ", "display_name": "Jake Marlaii", "bio": null, "projects_count": 0, "devlogs_count": 0, "votes_count": 0, "ships_count": 0, "projects": [], "coding_time_seconds": 0, "coding_time_seconds_today": 0, "balance": "You need to have a pocket watcher badge to view this.", "badges": [], "created_at": "2025-08-04T15:07:52.970-04:00", "updated_at": "2025-08-04T22:01:20.514-04:00", "avatar": "https://secure.gravatar.com/avatar/69a7bf074ad772a2aa65beb4150bc75a.jpg?s=512&d=https%3A%2F%2Fa.slack-edge.com%2Fdf10d%2Fimg%2Favatars%2Fava_0017-512.png", "custom_css": null}, {"id": 20605, "slack_id": "U099J8ZE82C", "display_name": "Gian Franco", "bio": null, "projects_count": 0, "devlogs_count": 0, "votes_count": 0, "ships_count": 0, "projects": [], "coding_time_seconds": 775, "coding_time_seconds_today": 0, "balance": "You need to have a pocket watcher badge to view this.", "badges": [], "created_at": "2025-08-04T15:11:05.400-04:00", "updated_at": "2025-08-04T22:01:20.622-04:00", "avatar": "https://secure.gravatar.com/avatar/81d9fcf86b39bfbc45f05b662d37a948.jpg?s=512&d=https%3A%2F%2Fa.slack-edge.com%2Fdf10d%2Fimg%2Favatars%2Fava_0024-512.png", "custom_css": null}], "pagination": {"page": 1026, "pages": 1192, "count": 23828, "items": 20}}