{"users": [{"id": 20606, "slack_id": "U098G8F6Y6B", "display_name": "Omar Alaiashy", "bio": null, "projects_count": 0, "devlogs_count": 0, "votes_count": 0, "ships_count": 0, "projects": [], "coding_time_seconds": 0, "coding_time_seconds_today": 0, "balance": "You need to have a pocket watcher badge to view this.", "badges": [], "created_at": "2025-08-04T15:29:52.816-04:00", "updated_at": "2025-08-04T22:01:20.723-04:00", "avatar": "https://avatars.slack-edge.com/2025-08-04/9288287649111_9ce52d702b24c1d6c775_original.jpg", "custom_css": null}, {"id": 20607, "slack_id": "U099CF1CJAV", "display_name": "Rachel Ward", "bio": null, "projects_count": 0, "devlogs_count": 0, "votes_count": 0, "ships_count": 0, "projects": [], "coding_time_seconds": 0, "coding_time_seconds_today": 0, "balance": "You need to have a pocket watcher badge to view this.", "badges": [], "created_at": "2025-08-04T15:38:35.505-04:00", "updated_at": "2025-08-04T22:01:20.812-04:00", "avatar": "https://secure.gravatar.com/avatar/a5061c1b4f2184c44e6e08108bb25478.jpg?s=512&d=https%3A%2F%2Fa.slack-edge.com%2Fdf10d%2Fimg%2Favatars%2Fava_0012-512.png", "custom_css": null}, {"id": 20608, "slack_id": "U099CFCTQ2V", "display_name": "Diya P", "bio": null, "projects_count": 0, "devlogs_count": 0, "votes_count": 0, "ships_count": 0, "projects": [], "coding_time_seconds": 0, "coding_time_seconds_today": 0, "balance": "You need to have a pocket watcher badge to view this.", "badges": [], "created_at": "2025-08-04T15:39:28.465-04:00", "updated_at": "2025-08-04T22:01:20.897-04:00", "avatar": "https://secure.gravatar.com/avatar/6cade2cfbf4063911422f686c7f671b1.jpg?s=512&d=https%3A%2F%2Fa.slack-edge.com%2Fdf10d%2Fimg%2Favatars%2Fava_0013-512.png", "custom_css": null}, {"id": 20609, "slack_id": "U099JHQSK2L", "display_name": "genuis", "bio": null, "projects_count": 0, "devlogs_count": 0, "votes_count": 0, "ships_count": 0, "projects": [], "coding_time_seconds": 0, "coding_time_seconds_today": 0, "balance": "You need to have a pocket watcher badge to view this.", "badges": [], "created_at": "2025-08-04T15:47:33.734-04:00", "updated_at": "2025-08-04T22:01:21.008-04:00", "avatar": "https://secure.gravatar.com/avatar/76c51eac4f5c66c7cd42c7b2c2b268a4.jpg?s=512&d=https%3A%2F%2Fa.slack-edge.com%2Fdf10d%2Fimg%2Favatars%2Fava_0019-512.png", "custom_css": null}, {"id": 20610, "slack_id": "U099CKN2FHP", "display_name": "Didi", "bio": "", "projects_count": 2, "devlogs_count": 1, "votes_count": 1, "ships_count": 0, "projects": [{"id": 10264, "title": "X509 Certificate Utility", "devlogs_count": 0, "created_at": "2025-08-05T12:30:49.347-04:00"}, {"id": 10641, "title": "Website Login Page", "devlogs_count": 1, "created_at": "2025-08-09T07:24:47.467-04:00"}], "coding_time_seconds": 147075, "coding_time_seconds_today": 0, "balance": "You need to have a pocket watcher badge to view this.", "badges": [], "created_at": "2025-08-04T16:10:29.848-04:00", "updated_at": "2025-08-08T08:25:53.421-04:00", "avatar": "https://secure.gravatar.com/avatar/26dcc1a50b745e331a8787cd2e29edf9.jpg?s=512&d=https%3A%2F%2Fa.slack-edge.com%2Fdf10d%2Fimg%2Favatars%2Fava_0009-512.png", "custom_css": null}, {"id": 20611, "slack_id": "U099CQ3V5UH", "display_name": "Zafir Shirazi", "bio": null, "projects_count": 0, "devlogs_count": 0, "votes_count": 0, "ships_count": 0, "projects": [], "coding_time_seconds": 120, "coding_time_seconds_today": 0, "balance": "You need to have a pocket watcher badge to view this.", "badges": [], "created_at": "2025-08-04T16:41:14.023-04:00", "updated_at": "2025-09-02T10:56:12.862-04:00", "avatar": "https://secure.gravatar.com/avatar/956edacf93455c42cf4529f0c0f55df6.jpg?s=512&d=https%3A%2F%2Fa.slack-edge.com%2Fdf10d%2Fimg%2Favatars%2Fava_0016-512.png", "custom_css": null}, {"id": 20612, "slack_id": "U099K0T2JM6", "display_name": "guam", "bio": null, "projects_count": 2, "devlogs_count": 1, "votes_count": 8, "ships_count": 1, "projects": [{"id": 13538, "title": "Dockercompose with Forgejo and Postgres setup", "devlogs_count": 0, "created_at": "2025-09-18T21:43:37.000-04:00"}, {"id": 11057, "title": "portfoilo", "devlogs_count": 1, "created_at": "2025-08-12T20:09:01.884-04:00"}], "coding_time_seconds": 2386, "coding_time_seconds_today": 0, "balance": "You need to have a pocket watcher badge to view this.", "badges": [], "created_at": "2025-08-04T17:13:26.459-04:00", "updated_at": "2025-09-15T17:12:32.609-04:00", "avatar": "https://secure.gravatar.com/avatar/2928c21830d1a2d5379c0c03839d5b9c.jpg?s=512&d=https%3A%2F%2Fa.slack-edge.com%2Fdf10d%2Fimg%2Favatars%2Fava_0023-512.png", "custom_css": null}, {"id": 20613, "slack_id": "U098YM3K7EG", "display_name": "DevCrox", "bio": null, "projects_count": 0, "devlogs_count": 0, "votes_count": 0, "ships_count": 0, "projects": [], "coding_time_seconds": 0, "coding_time_seconds_today": 0, "balance": "You need to have a pocket watcher badge to view this.", "badges": [], "created_at": "2025-08-04T17:40:19.878-04:00", "updated_at": "2025-08-04T22:01:25.492-04:00", "avatar": "https://secure.gravatar.com/avatar/b8c6e12b4f3a089387090e6d186a2ccc.jpg?s=512&d=https%3A%2F%2Fa.slack-edge.com%2Fdf10d%2Fimg%2Favatars%2Fava_0011-512.png", "custom_css": null}, {"id": 20614, "slack_id": "U098U4V60P8", "display_name": "Nick", "bio": null, "projects_count": 0, "devlogs_count": 0, "votes_count": 0, "ships_count": 0, "projects": [], "coding_time_seconds": 0, "coding_time_seconds_today": 0, "balance": "You need to have a pocket watcher badge to view this.", "badges": [], "created_at": "2025-08-04T17:57:26.721-04:00", "updated_at": "2025-08-04T22:01:25.587-04:00", "avatar": "https://secure.gravatar.com/avatar/5c36ef9a62448960b998899a6cdc6e1e.jpg?s=512&d=https%3A%2F%2Fa.slack-edge.com%2Fdf10d%2Fimg%2Favatars%2Fava_0022-512.png", "custom_css": null}, {"id": 20615, "slack_id": "U098X63TYLS", "display_name": "Danya", "bio": null, "projects_count": 0, "devlogs_count": 0, "votes_count": 0, "ships_count": 0, "projects": [], "coding_time_seconds": 0, "coding_time_seconds_today": 0, "balance": "You need to have a pocket watcher badge to view this.", "badges": [], "created_at": "2025-08-04T17:59:24.525-04:00", "updated_at": "2025-08-04T22:01:25.680-04:00", "avatar": "https://secure.gravatar.com/avatar/a720bda113cd3d525e90cbdba2bbec52.jpg?s=512&d=https%3A%2F%2Fa.slack-edge.com%2Fdf10d%2Fimg%2Favatars%2Fava_0009-512.png", "custom_css": null}, {"id": 20616, "slack_id": "U097M9GL46B", "display_name": "Samanyu Goyal", "bio": null, "projects_count": 0, "devlogs_count": 0, "votes_count": 0, "ships_count": 0, "projects": [], "coding_time_seconds": 13, "coding_time_seconds_today": 0, "balance": "You need to have a pocket watcher badge to view this.", "badges": [], "created_at": "2025-08-04T18:09:53.898-04:00", "updated_at": "2025-09-02T01:02:00.124-04:00", "avatar": "https://secure.gravatar.com/avatar/42a4b42977de5d1d233a0f54a23fcf25.jpg?s=512&d=https%3A%2F%2Fa.slack-edge.com%2Fdf10d%2Fimg%2Favatars%2Fava_0008-512.png", "custom_css": null}, {"id": 20617, "slack_id": "U099D74CAUR", "display_name": "Rishabh Mittal", "bio": null, "projects_count": 1, "devlogs_count": 0, "votes_count": 0, "ships_count": 0, "projects": [{"id": 10194, "title": "Personal Portfolio", "devlogs_count": 0, "created_at": "2025-08-04T20:48:21.147-04:00"}], "coding_time_seconds": 128721, "coding_time_seconds_today": 0, "balance": "You need to have a pocket watcher badge to view this.", "badges": [], "created_at": "2025-08-04T18:25:27.519-04:00", "updated_at": "2025-08-18T21:25:26.584-04:00", "avatar": "https://secure.gravatar.com/avatar/bf9d674ef449e90503cb78983935a26a.jpg?s=512&d=https%3A%2F%2Fa.slack-edge.com%2Fdf10d%2Fimg%2Favatars%2Fava_0018-512.png", "custom_css": null}, {"id": 20618, "slack_id": "U097X2CUA9M", "display_name": "momocadic", "bio": null, "projects_count": 0, "devlogs_count": 0, "votes_count": 0, "ships_count": 0, "projects": [], "coding_time_seconds": 0, "coding_time_seconds_today": 0, "balance": "You need to have a pocket watcher badge to view this.", "badges": [], "created_at": "2025-08-04T18:44:06.752-04:00", "updated_at": "2025-08-04T22:01:29.990-04:00", "avatar": "https://secure.gravatar.com/avatar/7aa3752f3cb3d442e6101f87edb69cea.jpg?s=512&d=https%3A%2F%2Fa.slack-edge.com%2Fdf10d%2Fimg%2Favatars%2Fava_0020-512.png", "custom_css": null}, {"id": 20619, "slack_id": "U098H8RH2UX", "display_name": "camvace camvace", "bio": null, "projects_count": 0, "devlogs_count": 0, "votes_count": 0, "ships_count": 0, "projects": [], "coding_time_seconds": 0, "coding_time_seconds_today": 0, "balance": "You need to have a pocket watcher badge to view this.", "badges": [], "created_at": "2025-08-04T19:45:55.426-04:00", "updated_at": "2025-08-04T22:01:30.083-04:00", "avatar": "https://avatars.slack-edge.com/2025-08-04/9305132434212_892896e5c652ca42df37_original.jpg", "custom_css": null}, {"id": 20620, "slack_id": "U099KG9L9PA", "display_name": "didara", "bio": null, "projects_count": 0, "devlogs_count": 0, "votes_count": 0, "ships_count": 0, "projects": [], "coding_time_seconds": 0, "coding_time_seconds_today": 0, "balance": "You need to have a pocket watcher badge to view this.", "badges": [], "created_at": "2025-08-04T19:52:48.794-04:00", "updated_at": "2025-08-04T22:01:30.180-04:00", "avatar": "https://secure.gravatar.com/avatar/2c10651f6f98a421a989219c3de7ab3e.jpg?s=512&d=https%3A%2F%2Fa.slack-edge.com%2Fdf10d%2Fimg%2Favatars%2Fava_0023-512.png", "custom_css": null}, {"id": 20621, "slack_id": "U099DF29TLZ", "display_name": "Sharifa-Hana Omar", "bio": null, "projects_count": 0, "devlogs_count": 0, "votes_count": 0, "ships_count": 0, "projects": [], "coding_time_seconds": 45153, "coding_time_seconds_today": 0, "balance": "You need to have a pocket watcher badge to view this.", "badges": [], "created_at": "2025-08-04T19:56:12.967-04:00", "updated_at": "2025-08-07T17:06:00.567-04:00", "avatar": "https://avatars.slack-edge.com/2025-08-04/9325776750880_45bc2d1db4378cef91df_original.png", "custom_css": null}, {"id": 20622, "slack_id": "U08JYSDGERW", "display_name": "fraisa", "bio": null, "projects_count": 0, "devlogs_count": 0, "votes_count": 0, "ships_count": 0, "projects": [], "coding_time_seconds": 14459, "coding_time_seconds_today": 0, "balance": "You need to have a pocket watcher badge to view this.", "badges": [], "created_at": "2025-08-04T20:48:03.183-04:00", "updated_at": "2025-08-05T22:00:27.510-04:00", "avatar": "https://avatars.slack-edge.com/2025-08-05/9323572008433_07440ef5e108a0b39ffc_original.jpg", "custom_css": null}, {"id": 20623, "slack_id": "U098HGJ3K0X", "display_name": "FellowConrad", "bio": null, "projects_count": 0, "devlogs_count": 0, "votes_count": 0, "ships_count": 0, "projects": [], "coding_time_seconds": 0, "coding_time_seconds_today": 0, "balance": "You need to have a pocket watcher badge to view this.", "badges": [], "created_at": "2025-08-04T21:05:30.967-04:00", "updated_at": "2025-08-04T22:01:30.450-04:00", "avatar": "https://secure.gravatar.com/avatar/2931a71d8534b2e66a696b8bbffd87cf.jpg?s=512&d=https%3A%2F%2Fa.slack-edge.com%2Fdf10d%2Fimg%2Favatars%2Fava_0017-512.png", "custom_css": null}, {"id": 20624, "slack_id": "U098HG4KAVD", "display_name": "Arijit", "bio": null, "projects_count": 0, "devlogs_count": 0, "votes_count": 0, "ships_count": 0, "projects": [], "coding_time_seconds": 0, "coding_time_seconds_today": 0, "balance": "You need to have a pocket watcher badge to view this.", "badges": [], "created_at": "2025-08-04T21:09:04.955-04:00", "updated_at": "2025-08-04T22:01:30.546-04:00", "avatar": "https://avatars.slack-edge.com/2025-08-05/9305406159956_13432580a135edea9d27_original.jpg", "custom_css": null}, {"id": 20625, "slack_id": "U098ZD44NAY", "display_name": "fellowcomrad", "bio": null, "projects_count": 0, "devlogs_count": 0, "votes_count": 0, "ships_count": 0, "projects": [], "coding_time_seconds": 7387, "coding_time_seconds_today": 0, "balance": "You need to have a pocket watcher badge to view this.", "badges": [], "created_at": "2025-08-04T21:27:59.273-04:00", "updated_at": "2025-08-04T22:01:30.643-04:00", "avatar": "https://avatars.slack-edge.com/2025-08-04/9289659204839_564ec24da859054a2cd8_original.jpg", "custom_css": null}], "pagination": {"page": 1027, "pages": 1192, "count": 23828, "items": 20}}