{"users": [{"id": 20626, "slack_id": "U0944R00679", "display_name": "Kriti Nayak", "bio": null, "projects_count": 0, "devlogs_count": 0, "votes_count": 0, "ships_count": 0, "projects": [], "coding_time_seconds": 0, "coding_time_seconds_today": 0, "balance": "You need to have a pocket watcher badge to view this.", "badges": [], "created_at": "2025-08-04T21:28:57.222-04:00", "updated_at": "2025-08-04T22:01:30.729-04:00", "avatar": "https://secure.gravatar.com/avatar/231e0eb33906dbc47751ec09b9073e69.jpg?s=512&d=https%3A%2F%2Fa.slack-edge.com%2Fdf10d%2Fimg%2Favatars%2Fava_0010-512.png", "custom_css": null}, {"id": 20627, "slack_id": "U098UAUST27", "display_name": "Rudney Junior", "bio": null, "projects_count": 0, "devlogs_count": 0, "votes_count": 0, "ships_count": 0, "projects": [], "coding_time_seconds": 0, "coding_time_seconds_today": 0, "balance": "You need to have a pocket watcher badge to view this.", "badges": [], "created_at": "2025-08-04T21:41:10.366-04:00", "updated_at": "2025-08-04T22:01:30.813-04:00", "avatar": "https://secure.gravatar.com/avatar/773e8f807f3f2842afd5eae9d4fef134.jpg?s=512&d=https%3A%2F%2Fa.slack-edge.com%2Fdf10d%2Fimg%2Favatars%2Fava_0014-512.png", "custom_css": null}, {"id": 20628, "slack_id": "U098HQS0ME3", "display_name": "Mix Media YouTube Channel", "bio": null, "projects_count": 0, "devlogs_count": 0, "votes_count": 0, "ships_count": 0, "projects": [], "coding_time_seconds": 1086, "coding_time_seconds_today": 0, "balance": "You need to have a pocket watcher badge to view this.", "badges": [], "created_at": "2025-08-04T22:32:43.071-04:00", "updated_at": "2025-08-05T04:01:45.068-04:00", "avatar": "https://avatars.slack-edge.com/2025-08-04/9302141066501_58b865771e604079c362_original.png", "custom_css": null}, {"id": 20629, "slack_id": "U098Y2MBHM0", "display_name": "Noah Ferris", "bio": null, "projects_count": 0, "devlogs_count": 0, "votes_count": 0, "ships_count": 0, "projects": [], "coding_time_seconds": 0, "coding_time_seconds_today": 0, "balance": "You need to have a pocket watcher badge to view this.", "badges": [], "created_at": "2025-08-04T22:39:59.739-04:00", "updated_at": "2025-08-05T04:01:45.255-04:00", "avatar": "https://secure.gravatar.com/avatar/376ba5ad5aa39d645c664027c8d8f6fe.jpg?s=512&d=https%3A%2F%2Fa.slack-edge.com%2Fdf10d%2Fimg%2Favatars%2Fava_0025-512.png", "custom_css": null}, {"id": 20630, "slack_id": "U09988K0XTJ", "display_name": "rushy", "bio": null, "projects_count": 0, "devlogs_count": 0, "votes_count": 0, "ships_count": 0, "projects": [], "coding_time_seconds": 0, "coding_time_seconds_today": 0, "balance": "You need to have a pocket watcher badge to view this.", "badges": [], "created_at": "2025-08-04T22:55:53.953-04:00", "updated_at": "2025-08-05T04:01:45.409-04:00", "avatar": "https://secure.gravatar.com/avatar/3ca274f7f2c2233d70779f1907ec6ec5.jpg?s=512&d=https%3A%2F%2Fa.slack-edge.com%2Fdf10d%2Fimg%2Favatars%2Fava_0022-512.png", "custom_css": null}, {"id": 20631, "slack_id": "U099KVC2WLQ", "display_name": "mario seminario", "bio": null, "projects_count": 0, "devlogs_count": 0, "votes_count": 0, "ships_count": 0, "projects": [], "coding_time_seconds": 0, "coding_time_seconds_today": 0, "balance": "You need to have a pocket watcher badge to view this.", "badges": [], "created_at": "2025-08-04T23:05:45.870-04:00", "updated_at": "2025-08-05T04:01:45.510-04:00", "avatar": "https://secure.gravatar.com/avatar/4fbdb512e5e82fd876f670a641b5c06d.jpg?s=512&d=https%3A%2F%2Fa.slack-edge.com%2Fdf10d%2Fimg%2Favatars%2Fava_0019-512.png", "custom_css": null}, {"id": 20632, "slack_id": "U099E0L3CM7", "display_name": "Kaye N", "bio": null, "projects_count": 0, "devlogs_count": 0, "votes_count": 0, "ships_count": 0, "projects": [], "coding_time_seconds": 0, "coding_time_seconds_today": 0, "balance": "You need to have a pocket watcher badge to view this.", "badges": [], "created_at": "2025-08-04T23:17:29.137-04:00", "updated_at": "2025-08-05T04:01:45.596-04:00", "avatar": "https://secure.gravatar.com/avatar/63c76f3b57df6d38e9f6dd06529074fe.jpg?s=512&d=https%3A%2F%2Fa.slack-edge.com%2Fdf10d%2Fimg%2Favatars%2Fava_0025-512.png", "custom_css": null}, {"id": 20633, "slack_id": "U098Y6D7JRY", "display_name": "Jansen", "bio": null, "projects_count": 0, "devlogs_count": 0, "votes_count": 0, "ships_count": 0, "projects": [], "coding_time_seconds": 0, "coding_time_seconds_today": 0, "balance": "You need to have a pocket watcher badge to view this.", "badges": [], "created_at": "2025-08-04T23:24:31.476-04:00", "updated_at": "2025-08-05T04:01:45.691-04:00", "avatar": "https://secure.gravatar.com/avatar/0b050e426e6df95963efe94d4bbaa264.jpg?s=512&d=https%3A%2F%2Fa.slack-edge.com%2Fdf10d%2Fimg%2Favatars%2Fava_0004-512.png", "custom_css": null}, {"id": 20634, "slack_id": "U098V4C3VJA", "display_name": "Shriya Guntupalli", "bio": null, "projects_count": 0, "devlogs_count": 0, "votes_count": 0, "ships_count": 0, "projects": [], "coding_time_seconds": 0, "coding_time_seconds_today": 0, "balance": "You need to have a pocket watcher badge to view this.", "badges": [], "created_at": "2025-08-04T23:30:24.958-04:00", "updated_at": "2025-08-05T04:01:45.782-04:00", "avatar": "https://avatars.slack-edge.com/2025-08-04/9290031159415_2c48134c5092ec46d77e_original.jpg", "custom_css": null}, {"id": 20635, "slack_id": "U099L7ZR75E", "display_name": "Syed Bariman Jan", "bio": null, "projects_count": 0, "devlogs_count": 0, "votes_count": 7, "ships_count": 0, "projects": [], "coding_time_seconds": 0, "coding_time_seconds_today": 0, "balance": "You need to have a pocket watcher badge to view this.", "badges": [], "created_at": "2025-08-04T23:38:55.514-04:00", "updated_at": "2025-08-05T06:04:32.376-04:00", "avatar": "https://secure.gravatar.com/avatar/62269d8d6a6e0bd666abdf65178a128a.jpg?s=512&d=https%3A%2F%2Fa.slack-edge.com%2Fdf10d%2Fimg%2Favatars%2Fava_0015-512.png", "custom_css": null}, {"id": 20636, "slack_id": "U07AN99FJF2", "display_name": "Rei", "bio": null, "projects_count": 0, "devlogs_count": 0, "votes_count": 0, "ships_count": 0, "projects": [], "coding_time_seconds": 1977, "coding_time_seconds_today": 0, "balance": "You need to have a pocket watcher badge to view this.", "badges": [], "created_at": "2025-08-05T00:14:20.665-04:00", "updated_at": "2025-08-06T10:43:00.591-04:00", "avatar": "https://secure.gravatar.com/avatar/d336c8894413cd7db03930c2a6e40c98.jpg?s=512&d=https%3A%2F%2Fa.slack-edge.com%2Fdf10d%2Fimg%2Favatars%2Fava_0014-512.png", "custom_css": null}, {"id": 20637, "slack_id": "U098ZUXK70U", "display_name": "Typlaz64", "bio": null, "projects_count": 0, "devlogs_count": 0, "votes_count": 0, "ships_count": 0, "projects": [], "coding_time_seconds": 0, "coding_time_seconds_today": 0, "balance": "You need to have a pocket watcher badge to view this.", "badges": [], "created_at": "2025-08-05T00:26:33.534-04:00", "updated_at": "2025-08-05T04:01:50.163-04:00", "avatar": "https://avatars.slack-edge.com/2025-08-05/9301449277430_8792807f5865183de52b_original.png", "custom_css": null}, {"id": 20638, "slack_id": "U08QZ0UGLAD", "display_name": "suvan", "bio": null, "projects_count": 0, "devlogs_count": 0, "votes_count": 0, "ships_count": 0, "projects": [], "coding_time_seconds": 0, "coding_time_seconds_today": 0, "balance": "You need to have a pocket watcher badge to view this.", "badges": [], "created_at": "2025-08-05T00:26:50.315-04:00", "updated_at": "2025-08-05T04:01:50.263-04:00", "avatar": "https://secure.gravatar.com/avatar/08a40937cd0637ac8c22f519dedc04f9.jpg?s=512&d=https%3A%2F%2Fa.slack-edge.com%2Fdf10d%2Fimg%2Favatars%2Fava_0026-512.png", "custom_css": null}, {"id": 20639, "slack_id": "U098VBDEV9U", "display_name": "morvy", "bio": null, "projects_count": 0, "devlogs_count": 0, "votes_count": 0, "ships_count": 0, "projects": [], "coding_time_seconds": 0, "coding_time_seconds_today": 0, "balance": "You need to have a pocket watcher badge to view this.", "badges": [], "created_at": "2025-08-05T00:58:12.896-04:00", "updated_at": "2025-08-05T04:01:50.359-04:00", "avatar": "https://secure.gravatar.com/avatar/e4490d24a667ed3cc50192cb006f20c4.jpg?s=512&d=https%3A%2F%2Fa.slack-edge.com%2Fdf10d%2Fimg%2Favatars%2Fava_0002-512.png", "custom_css": null}, {"id": 20640, "slack_id": "U099LG04GDN", "display_name": "Sameer Ali", "bio": null, "projects_count": 0, "devlogs_count": 0, "votes_count": 0, "ships_count": 0, "projects": [], "coding_time_seconds": 0, "coding_time_seconds_today": 0, "balance": "You need to have a pocket watcher badge to view this.", "badges": [], "created_at": "2025-08-05T01:23:12.481-04:00", "updated_at": "2025-08-05T04:01:50.451-04:00", "avatar": "https://avatars.slack-edge.com/2025-08-04/9306176322052_d24adfc4e7420dba3173_original.png", "custom_css": null}, {"id": 20641, "slack_id": "U099EH3S5UH", "display_name": "Joyce", "bio": null, "projects_count": 0, "devlogs_count": 0, "votes_count": 0, "ships_count": 0, "projects": [], "coding_time_seconds": 0, "coding_time_seconds_today": 0, "balance": "You need to have a pocket watcher badge to view this.", "badges": [], "created_at": "2025-08-05T01:32:04.599-04:00", "updated_at": "2025-08-05T04:01:54.590-04:00", "avatar": "https://secure.gravatar.com/avatar/7a538fd1b28d994e9df2f88e126873c8.jpg?s=512&d=https%3A%2F%2Fa.slack-edge.com%2Fdf10d%2Fimg%2Favatars%2Fava_0022-512.png", "custom_css": null}, {"id": 20642, "slack_id": "U098W2VGTSA", "display_name": "Emily M", "bio": null, "projects_count": 0, "devlogs_count": 0, "votes_count": 0, "ships_count": 0, "projects": [], "coding_time_seconds": 0, "coding_time_seconds_today": 0, "balance": "You need to have a pocket watcher badge to view this.", "badges": [], "created_at": "2025-08-05T04:00:30.298-04:00", "updated_at": "2025-08-05T10:01:36.653-04:00", "avatar": "https://avatars.slack-edge.com/2025-08-05/9291088466535_324185369ca0640a4e3f_original.jpg", "custom_css": null}, {"id": 20643, "slack_id": "U098VNN703V", "display_name": "contentify-ai", "bio": null, "projects_count": 0, "devlogs_count": 0, "votes_count": 0, "ships_count": 0, "projects": [], "coding_time_seconds": 0, "coding_time_seconds_today": 0, "balance": "You need to have a pocket watcher badge to view this.", "badges": [], "created_at": "2025-08-05T04:28:26.240-04:00", "updated_at": "2025-08-05T10:01:36.755-04:00", "avatar": "https://secure.gravatar.com/avatar/eae02a322e8ec67c54d1f419562dcae0.jpg?s=512&d=https%3A%2F%2Fa.slack-edge.com%2Fdf10d%2Fimg%2Favatars%2Fava_0018-512.png", "custom_css": null}, {"id": 20644, "slack_id": "U098K6QTT0X", "display_name": "Ilay binyamin", "bio": null, "projects_count": 0, "devlogs_count": 0, "votes_count": 0, "ships_count": 0, "projects": [], "coding_time_seconds": 99643, "coding_time_seconds_today": 0, "balance": "You need to have a pocket watcher badge to view this.", "badges": [], "created_at": "2025-08-05T04:30:30.993-04:00", "updated_at": "2025-08-24T17:25:54.647-04:00", "avatar": "https://avatars.slack-edge.com/2025-08-05/9327404763504_111e7516cd4c6d743eb8_original.png", "custom_css": null}, {"id": 20645, "slack_id": "U099FB7T02D", "display_name": "Tamar", "bio": null, "projects_count": 0, "devlogs_count": 0, "votes_count": 0, "ships_count": 0, "projects": [], "coding_time_seconds": 0, "coding_time_seconds_today": 0, "balance": "You need to have a pocket watcher badge to view this.", "badges": [], "created_at": "2025-08-05T04:33:12.747-04:00", "updated_at": "2025-08-06T15:04:02.480-04:00", "avatar": "https://secure.gravatar.com/avatar/54cab0e20818cd88885cdb2587407673.jpg?s=512&d=https%3A%2F%2Fa.slack-edge.com%2Fdf10d%2Fimg%2Favatars%2Fava_0000-512.png", "custom_css": null}], "pagination": {"page": 1028, "pages": 1192, "count": 23828, "items": 20}}