{"users": [{"id": 2041, "slack_id": "U092CECQHME", "display_name": "Hossein Zahedi Adib", "bio": null, "projects_count": 0, "devlogs_count": 0, "votes_count": 0, "ships_count": 0, "projects": [], "coding_time_seconds": 0, "coding_time_seconds_today": 0, "balance": "You need to have a pocket watcher badge to view this.", "badges": [], "created_at": "2025-06-16T14:35:55.837-04:00", "updated_at": "2025-07-03T19:20:26.939-04:00", "avatar": "https://secure.gravatar.com/avatar/eb651fe6a25cea9b0439d1785ea7c3bf.jpg?s=512&d=https%3A%2F%2Fa.slack-edge.com%2Fdf10d%2Fimg%2Favatars%2Fava_0022-512.png", "custom_css": null}, {"id": 2042, "slack_id": "U07B35P78R4", "display_name": "Rudransh Pratap Singh", "bio": null, "projects_count": 0, "devlogs_count": 3, "votes_count": 0, "ships_count": 0, "projects": [], "coding_time_seconds": 801593, "coding_time_seconds_today": 0, "balance": "You need to have a pocket watcher badge to view this.", "badges": [], "created_at": "2025-06-16T14:35:58.128-04:00", "updated_at": "2025-08-31T01:24:09.790-04:00", "avatar": "https://avatars.slack-edge.com/2024-07-06/7397014812081_3d776b022760bb26deee_original.jpg", "custom_css": null}, {"id": 2043, "slack_id": "U091P2F796G", "display_name": "Fabrizio GUCCIONE", "bio": null, "projects_count": 0, "devlogs_count": 0, "votes_count": 0, "ships_count": 0, "projects": [], "coding_time_seconds": 0, "coding_time_seconds_today": 0, "balance": "You need to have a pocket watcher badge to view this.", "badges": [], "created_at": "2025-06-16T14:36:08.313-04:00", "updated_at": "2025-07-03T19:20:27.505-04:00", "avatar": "https://secure.gravatar.com/avatar/77c0766cb1d7bd157e3f9351295651fa.jpg?s=512&d=https%3A%2F%2Fa.slack-edge.com%2Fdf10d%2Fimg%2Favatars%2Fava_0008-512.png", "custom_css": null}, {"id": 2044, "slack_id": "U0918LVH4H5", "display_name": "Raghav", "bio": null, "projects_count": 0, "devlogs_count": 0, "votes_count": 0, "ships_count": 0, "projects": [], "coding_time_seconds": 0, "coding_time_seconds_today": 0, "balance": "You need to have a pocket watcher badge to view this.", "badges": [], "created_at": "2025-06-16T14:36:09.892-04:00", "updated_at": "2025-07-03T19:20:27.781-04:00", "avatar": "https://secure.gravatar.com/avatar/239ec8a5eac4dbf6ddb1a241ee40387e.jpg?s=512&d=https%3A%2F%2Fa.slack-edge.com%2Fdf10d%2Fimg%2Favatars%2Fava_0004-512.png", "custom_css": null}, {"id": 2045, "slack_id": "U0917UZHTMM", "display_name": "Juled Zaganjori", "bio": null, "projects_count": 0, "devlogs_count": 0, "votes_count": 0, "ships_count": 0, "projects": [], "coding_time_seconds": 0, "coding_time_seconds_today": 0, "balance": "You need to have a pocket watcher badge to view this.", "badges": [], "created_at": "2025-06-16T14:36:17.647-04:00", "updated_at": "2025-07-03T19:20:28.093-04:00", "avatar": "https://avatars.slack-edge.com/2025-06-16/9058038636354_f5366e4a0a4bf4ade8df_original.gif", "custom_css": null}, {"id": 2046, "slack_id": "U08RJ1ESE6A", "display_name": "Yannick Rumelfanger", "bio": null, "projects_count": 1, "devlogs_count": 12, "votes_count": 0, "ships_count": 0, "projects": [{"id": 199, "title": "Lunaverse Core", "devlogs_count": 12, "created_at": "2025-06-16T15:18:13.711-04:00"}], "coding_time_seconds": 258754, "coding_time_seconds_today": 0, "balance": "You need to have a pocket watcher badge to view this.", "badges": [], "created_at": "2025-06-16T14:36:20.933-04:00", "updated_at": "2025-08-14T14:30:56.357-04:00", "avatar": "https://secure.gravatar.com/avatar/ccc38fb98f8abbbeebe3a35a1ebbfa19.jpg?s=512&d=https%3A%2F%2Fa.slack-edge.com%2Fdf10d%2Fimg%2Favatars%2Fava_0005-512.png", "custom_css": null}, {"id": 2047, "slack_id": "U091N74PA85", "display_name": "Wala", "bio": null, "projects_count": 0, "devlogs_count": 0, "votes_count": 0, "ships_count": 0, "projects": [], "coding_time_seconds": 0, "coding_time_seconds_today": 0, "balance": "You need to have a pocket watcher badge to view this.", "badges": [], "created_at": "2025-06-16T14:36:24.499-04:00", "updated_at": "2025-07-03T19:20:28.655-04:00", "avatar": "https://secure.gravatar.com/avatar/3cf27b27ec834963c53a6af52f1b6dc8.jpg?s=512&d=https%3A%2F%2Fa.slack-edge.com%2Fdf10d%2Fimg%2Favatars%2Fava_0016-512.png", "custom_css": null}, {"id": 2048, "slack_id": "U091H2CSGBY", "display_name": "Julo", "bio": null, "projects_count": 0, "devlogs_count": 0, "votes_count": 0, "ships_count": 0, "projects": [], "coding_time_seconds": 0, "coding_time_seconds_today": 0, "balance": "You need to have a pocket watcher badge to view this.", "badges": [], "created_at": "2025-06-16T14:36:26.868-04:00", "updated_at": "2025-07-03T19:20:28.932-04:00", "avatar": "https://secure.gravatar.com/avatar/f1bcfbf65c327b4d989f2f48321a93eb.jpg?s=512&d=https%3A%2F%2Fa.slack-edge.com%2Fdf10d%2Fimg%2Favatars%2Fava_0010-512.png", "custom_css": null}, {"id": 2049, "slack_id": "U0922FPR1QR", "display_name": "Zal\u00e1n Utasi", "bio": null, "projects_count": 0, "devlogs_count": 0, "votes_count": 0, "ships_count": 0, "projects": [], "coding_time_seconds": 1900, "coding_time_seconds_today": 0, "balance": "You need to have a pocket watcher badge to view this.", "badges": [], "created_at": "2025-06-16T14:36:34.031-04:00", "updated_at": "2025-07-22T13:55:42.246-04:00", "avatar": "https://secure.gravatar.com/avatar/7c0e3b43c6608147c3ba04e82b410cce.jpg?s=512&d=https%3A%2F%2Fa.slack-edge.com%2Fdf10d%2Fimg%2Favatars%2Fava_0018-512.png", "custom_css": null}, {"id": 2050, "slack_id": "U092CDR8L5N", "display_name": "Shaishav Surati", "bio": null, "projects_count": 0, "devlogs_count": 0, "votes_count": 0, "ships_count": 0, "projects": [], "coding_time_seconds": 0, "coding_time_seconds_today": 0, "balance": "You need to have a pocket watcher badge to view this.", "badges": [], "created_at": "2025-06-16T14:36:37.129-04:00", "updated_at": "2025-07-03T19:20:29.504-04:00", "avatar": "https://secure.gravatar.com/avatar/e99f8cb9830e339dcc7cc26bce057ad7.jpg?s=512&d=https%3A%2F%2Fa.slack-edge.com%2Fdf10d%2Fimg%2Favatars%2Fava_0025-512.png", "custom_css": null}, {"id": 2051, "slack_id": "U0918M64KRV", "display_name": "Tobias", "bio": null, "projects_count": 0, "devlogs_count": 0, "votes_count": 0, "ships_count": 0, "projects": [], "coding_time_seconds": 284772, "coding_time_seconds_today": 0, "balance": "You need to have a pocket watcher badge to view this.", "badges": [], "created_at": "2025-06-16T14:37:07.982-04:00", "updated_at": "2025-07-03T19:20:29.789-04:00", "avatar": "https://secure.gravatar.com/avatar/ca731c25561541338aab0283da39d548.jpg?s=512&d=https%3A%2F%2Fa.slack-edge.com%2Fdf10d%2Fimg%2Favatars%2Fava_0008-512.png", "custom_css": null}, {"id": 2052, "slack_id": "U091H1NMBA7", "display_name": "Harshit Goyal", "bio": null, "projects_count": 0, "devlogs_count": 0, "votes_count": 0, "ships_count": 0, "projects": [], "coding_time_seconds": 0, "coding_time_seconds_today": 0, "balance": "You need to have a pocket watcher badge to view this.", "badges": [], "created_at": "2025-06-16T14:37:10.931-04:00", "updated_at": "2025-07-03T19:20:30.150-04:00", "avatar": "https://avatars.slack-edge.com/2025-06-16/9058042592498_0ce22c1d3f03640520f7_original.webp", "custom_css": null}, {"id": 2053, "slack_id": "U091H5ANE6S", "display_name": "B\u00e1lint Monos", "bio": null, "projects_count": 0, "devlogs_count": 0, "votes_count": 0, "ships_count": 0, "projects": [], "coding_time_seconds": 0, "coding_time_seconds_today": 0, "balance": "You need to have a pocket watcher badge to view this.", "badges": [], "created_at": "2025-06-16T14:37:25.661-04:00", "updated_at": "2025-07-03T19:20:30.426-04:00", "avatar": "https://avatars.slack-edge.com/2025-06-16/9058434914068_db019ccf4e4bf1bae0d6_original.jpg", "custom_css": null}, {"id": 2054, "slack_id": "U0922GNFS73", "display_name": "Ivaylo Popov", "bio": null, "projects_count": 3, "devlogs_count": 4, "votes_count": 8, "ships_count": 1, "projects": [{"id": 242, "title": "Sofia Schedule grabber", "devlogs_count": 0, "created_at": "2025-06-16T16:16:08.309-04:00"}, {"id": 253, "title": "Light Feather Bot", "devlogs_count": 2, "created_at": "2025-06-16T16:21:28.441-04:00"}, {"id": 2666, "title": "2G web protocol", "devlogs_count": 2, "created_at": "2025-06-21T15:47:38.062-04:00"}], "coding_time_seconds": 346718, "coding_time_seconds_today": 0, "balance": "You need to have a pocket watcher badge to view this.", "badges": [{"name": "Maiden Voyage", "text": "you shipped your first project! the journey begins...", "icon": "\ud83d\udea2"}], "created_at": "2025-06-16T14:37:29.499-04:00", "updated_at": "2025-09-10T22:52:11.705-04:00", "avatar": "https://avatars.slack-edge.com/2025-06-16/9058445621940_ac8b52a728eedb669be6_original.png", "custom_css": null}, {"id": 2055, "slack_id": "U091QCG3GJ0", "display_name": "neko 4", "bio": "seized by @felix", "projects_count": 0, "devlogs_count": 0, "votes_count": 0, "ships_count": 0, "projects": [], "coding_time_seconds": 0, "coding_time_seconds_today": 0, "balance": "You need to have a pocket watcher badge to view this.", "badges": [], "created_at": "2025-06-16T14:37:33.424-04:00", "updated_at": "2025-07-03T19:20:30.989-04:00", "avatar": "https://secure.gravatar.com/avatar/9a96822d2ed645b80a51f3f9fdbb2e07.jpg?s=512&d=https%3A%2F%2Fa.slack-edge.com%2Fdf10d%2Fimg%2Favatars%2Fava_0001-512.png", "custom_css": null}, {"id": 2056, "slack_id": "U091Q23MSJY", "display_name": "Lucas G. C. Silva", "bio": null, "projects_count": 0, "devlogs_count": 0, "votes_count": 0, "ships_count": 0, "projects": [], "coding_time_seconds": 0, "coding_time_seconds_today": 0, "balance": "You need to have a pocket watcher badge to view this.", "badges": [], "created_at": "2025-06-16T14:37:43.671-04:00", "updated_at": "2025-07-03T19:20:31.254-04:00", "avatar": "https://avatars.slack-edge.com/2025-06-16/9058047814594_775ed369dd1158291773_original.jpg", "custom_css": null}, {"id": 2057, "slack_id": "U091PHR6GMS", "display_name": "bodoque", "bio": null, "projects_count": 0, "devlogs_count": 0, "votes_count": 0, "ships_count": 0, "projects": [], "coding_time_seconds": 0, "coding_time_seconds_today": 0, "balance": "You need to have a pocket watcher badge to view this.", "badges": [], "created_at": "2025-06-16T14:37:45.003-04:00", "updated_at": "2025-07-03T19:20:31.520-04:00", "avatar": "https://secure.gravatar.com/avatar/0f5888497b39c9ede163d94f3d9d538e.jpg?s=512&d=https%3A%2F%2Fa.slack-edge.com%2Fdf10d%2Fimg%2Favatars%2Fava_0015-512.png", "custom_css": null}, {"id": 2058, "slack_id": "U091PRBL3B4", "display_name": "Ananth Arunkumar", "bio": null, "projects_count": 0, "devlogs_count": 0, "votes_count": 0, "ships_count": 0, "projects": [], "coding_time_seconds": 113318, "coding_time_seconds_today": 0, "balance": "You need to have a pocket watcher badge to view this.", "badges": [], "created_at": "2025-06-16T14:37:51.201-04:00", "updated_at": "2025-07-09T14:28:23.638-04:00", "avatar": "https://secure.gravatar.com/avatar/e5c265c12c6e8c7e4828df6640cdb61e.jpg?s=512&d=https%3A%2F%2Fa.slack-edge.com%2Fdf10d%2Fimg%2Favatars%2Fava_0008-512.png", "custom_css": null}, {"id": 2059, "slack_id": "U091PS30MCJ", "display_name": "Ananya Jha", "bio": null, "projects_count": 0, "devlogs_count": 0, "votes_count": 0, "ships_count": 0, "projects": [], "coding_time_seconds": 0, "coding_time_seconds_today": 0, "balance": "You need to have a pocket watcher badge to view this.", "badges": [], "created_at": "2025-06-16T14:38:04.523-04:00", "updated_at": "2025-07-03T19:20:32.077-04:00", "avatar": "https://secure.gravatar.com/avatar/f28f545aa5cdcbec75713dd73b01f70e.jpg?s=512&d=https%3A%2F%2Fa.slack-edge.com%2Fdf10d%2Fimg%2Favatars%2Fava_0015-512.png", "custom_css": null}, {"id": 2060, "slack_id": "U091Q0XHTM0", "display_name": "Rayane", "bio": null, "projects_count": 0, "devlogs_count": 0, "votes_count": 0, "ships_count": 0, "projects": [], "coding_time_seconds": 0, "coding_time_seconds_today": 0, "balance": "You need to have a pocket watcher badge to view this.", "badges": [], "created_at": "2025-06-16T14:38:06.005-04:00", "updated_at": "2025-07-03T19:20:32.361-04:00", "avatar": "https://secure.gravatar.com/avatar/6902bd90dc93ec2eab72611ba98d5853.jpg?s=512&d=https%3A%2F%2Fa.slack-edge.com%2Fdf10d%2Fimg%2Favatars%2Fava_0023-512.png", "custom_css": null}], "pagination": {"page": 103, "pages": 1192, "count": 23828, "items": 20}}