{"users": [{"id": 20666, "slack_id": "U098Y8GUPEJ", "display_name": "Michael albert", "bio": null, "projects_count": 0, "devlogs_count": 0, "votes_count": 0, "ships_count": 0, "projects": [], "coding_time_seconds": 0, "coding_time_seconds_today": 0, "balance": "You need to have a pocket watcher badge to view this.", "badges": [], "created_at": "2025-08-05T11:05:15.517-04:00", "updated_at": "2025-08-05T22:00:39.363-04:00", "avatar": "https://secure.gravatar.com/avatar/63a6419893c5ce751e388720ce753f34.jpg?s=512&d=https%3A%2F%2Fa.slack-edge.com%2Fdf10d%2Fimg%2Favatars%2Fava_0011-512.png", "custom_css": null}, {"id": 20667, "slack_id": "U098YBST2BY", "display_name": "Cecilia Fierro", "bio": null, "projects_count": 0, "devlogs_count": 0, "votes_count": 0, "ships_count": 0, "projects": [], "coding_time_seconds": 1503, "coding_time_seconds_today": 0, "balance": "You need to have a pocket watcher badge to view this.", "badges": [], "created_at": "2025-08-05T11:20:58.411-04:00", "updated_at": "2025-08-08T16:09:08.715-04:00", "avatar": "https://avatars.slack-edge.com/2025-08-05/9303891833747_5fb7c54a5dc8e10ac804_original.png", "custom_css": null}, {"id": 20668, "slack_id": "U098YC97CUE", "display_name": "Konny", "bio": null, "projects_count": 0, "devlogs_count": 0, "votes_count": 0, "ships_count": 0, "projects": [], "coding_time_seconds": 49514, "coding_time_seconds_today": 0, "balance": "You need to have a pocket watcher badge to view this.", "badges": [], "created_at": "2025-08-05T11:22:07.343-04:00", "updated_at": "2025-08-12T09:51:25.365-04:00", "avatar": "https://avatars.slack-edge.com/2025-08-12/9344483543108_a173355e11b2e16a5d0a_original.jpg", "custom_css": null}, {"id": 20669, "slack_id": "U098XSUMSNP", "display_name": "Thomas Williams", "bio": null, "projects_count": 0, "devlogs_count": 0, "votes_count": 0, "ships_count": 0, "projects": [], "coding_time_seconds": 0, "coding_time_seconds_today": 0, "balance": "You need to have a pocket watcher badge to view this.", "badges": [], "created_at": "2025-08-05T11:27:50.084-04:00", "updated_at": "2025-08-05T22:00:39.646-04:00", "avatar": "https://secure.gravatar.com/avatar/edd14e9d8103a3e49ecf3a243c110b09.jpg?s=512&d=https%3A%2F%2Fa.slack-edge.com%2Fdf10d%2Fimg%2Favatars%2Fava_0026-512.png", "custom_css": null}, {"id": 20670, "slack_id": "U0991GWE6FL", "display_name": "Karmjeet Chauhan", "bio": "20 \u2738 webdev", "projects_count": 1, "devlogs_count": 1, "votes_count": 0, "ships_count": 0, "projects": [{"id": 10304, "title": "Brainwave", "devlogs_count": 1, "created_at": "2025-08-05T18:25:10.698-04:00"}], "coding_time_seconds": 97736, "coding_time_seconds_today": 171, "balance": "You need to have a pocket watcher badge to view this.", "badges": [], "created_at": "2025-08-05T11:33:48.614-04:00", "updated_at": "2025-09-03T03:51:23.035-04:00", "avatar": "https://avatars.slack-edge.com/2025-09-02/9472953119808_fe0e508f10ff2fd67146_original.jpg", "custom_css": null}, {"id": 20671, "slack_id": "U0923EM9GS3", "display_name": "Banjoko Divine", "bio": null, "projects_count": 0, "devlogs_count": 0, "votes_count": 0, "ships_count": 0, "projects": [], "coding_time_seconds": 0, "coding_time_seconds_today": 0, "balance": "You need to have a pocket watcher badge to view this.", "badges": [], "created_at": "2025-08-05T11:38:25.120-04:00", "updated_at": "2025-08-05T22:00:39.862-04:00", "avatar": "https://secure.gravatar.com/avatar/5df643ed78015720605e679c0819b913.jpg?s=512&d=https%3A%2F%2Fa.slack-edge.com%2Fdf10d%2Fimg%2Favatars%2Fava_0021-512.png", "custom_css": null}, {"id": 20672, "slack_id": "U05JNJZJ0BS", "display_name": "CAN", "bio": null, "projects_count": 1, "devlogs_count": 1, "votes_count": 1, "ships_count": 0, "projects": [{"id": 10253, "title": "Hack Club Grounded", "devlogs_count": 1, "created_at": "2025-08-05T11:46:10.550-04:00"}], "coding_time_seconds": 94842, "coding_time_seconds_today": 0, "balance": "You need to have a pocket watcher badge to view this.", "badges": [], "created_at": "2025-08-05T11:41:03.256-04:00", "updated_at": "2025-08-28T21:51:03.828-04:00", "avatar": "https://avatars.slack-edge.com/2025-08-28/9424419987077_33f34defbaa4bf6982a7_original.jpg", "custom_css": null}, {"id": 20673, "slack_id": "U099HNABS81", "display_name": "melon", "bio": null, "projects_count": 0, "devlogs_count": 0, "votes_count": 0, "ships_count": 0, "projects": [], "coding_time_seconds": 269, "coding_time_seconds_today": 0, "balance": "You need to have a pocket watcher badge to view this.", "badges": [], "created_at": "2025-08-05T11:51:57.809-04:00", "updated_at": "2025-08-06T05:02:41.019-04:00", "avatar": "https://secure.gravatar.com/avatar/2a12c866398b28ec1c36e7b6850020b9.jpg?s=512&d=https%3A%2F%2Fa.slack-edge.com%2Fdf10d%2Fimg%2Favatars%2Fava_0025-512.png", "custom_css": null}, {"id": 20674, "slack_id": "U0993BL7RLL", "display_name": "Matin", "bio": null, "projects_count": 1, "devlogs_count": 0, "votes_count": 1, "ships_count": 0, "projects": [{"id": 13034, "title": "Coastline: Azulejo", "devlogs_count": 0, "created_at": "2025-09-07T10:17:15.134-04:00"}], "coding_time_seconds": 22597, "coding_time_seconds_today": 0, "balance": "You need to have a pocket watcher badge to view this.", "badges": [], "created_at": "2025-08-05T11:51:59.723-04:00", "updated_at": "2025-09-07T10:13:23.560-04:00", "avatar": "https://avatars.slack-edge.com/2025-08-05/9324283701745_a612b98c9dc35b2cb5bb_original.png", "custom_css": null}, {"id": 20675, "slack_id": "U098Y2UPWCT", "display_name": "Jeffrey", "bio": "High school senior developing agricultural analysis software and a hobbyist application for creating scrapbooks from group pictures.\r\n\r\nRecord collector, car enjoyer, & a general electronics nerd with experience in microcontrollers and robotics.\r\n\r\nFirst Robotics Competition team 9613 captain/build leader", "projects_count": 2, "devlogs_count": 4, "votes_count": 20, "ships_count": 1, "projects": [{"id": 10399, "title": "Scrapbooks", "devlogs_count": 2, "created_at": "2025-08-06T15:50:58.716-04:00"}, {"id": 10274, "title": "Canari", "devlogs_count": 2, "created_at": "2025-08-05T13:25:37.989-04:00"}], "coding_time_seconds": 57874, "coding_time_seconds_today": 0, "balance": "You need to have a pocket watcher badge to view this.", "badges": [], "created_at": "2025-08-05T11:55:13.478-04:00", "updated_at": "2025-08-06T13:18:00.308-04:00", "avatar": "https://secure.gravatar.com/avatar/060200c7ee09e9e4d4abb0f895cf284b.jpg?s=512&d=https%3A%2F%2Fa.slack-edge.com%2Fdf10d%2Fimg%2Favatars%2Fava_0005-512.png", "custom_css": null}, {"id": 20676, "slack_id": "U099HQTD5MF", "display_name": "\u55b5\u55b5", "bio": null, "projects_count": 0, "devlogs_count": 0, "votes_count": 0, "ships_count": 0, "projects": [], "coding_time_seconds": 0, "coding_time_seconds_today": 0, "balance": "You need to have a pocket watcher badge to view this.", "badges": [], "created_at": "2025-08-05T12:04:09.090-04:00", "updated_at": "2025-08-06T22:38:01.728-04:00", "avatar": "https://avatars.slack-edge.com/2025-08-05/9293836965431_be81d2d729235b9a255d_original.png", "custom_css": null}, {"id": 20677, "slack_id": "U098XCN2GGK", "display_name": "Secuvortex", "bio": null, "projects_count": 0, "devlogs_count": 0, "votes_count": 0, "ships_count": 0, "projects": [], "coding_time_seconds": 0, "coding_time_seconds_today": 0, "balance": "You need to have a pocket watcher badge to view this.", "badges": [], "created_at": "2025-08-05T12:10:36.008-04:00", "updated_at": "2025-08-05T22:00:44.446-04:00", "avatar": "https://secure.gravatar.com/avatar/3785e0c068e2752e1a8b232cf2ace488.jpg?s=512&d=https%3A%2F%2Fa.slack-edge.com%2Fdf10d%2Fimg%2Favatars%2Fava_0026-512.png", "custom_css": null}, {"id": 20678, "slack_id": "U0993AZF760", "display_name": "Tanaya Gupta", "bio": null, "projects_count": 0, "devlogs_count": 0, "votes_count": 0, "ships_count": 0, "projects": [], "coding_time_seconds": 0, "coding_time_seconds_today": 0, "balance": "You need to have a pocket watcher badge to view this.", "badges": [], "created_at": "2025-08-05T12:11:42.544-04:00", "updated_at": "2025-08-05T22:00:44.543-04:00", "avatar": "https://secure.gravatar.com/avatar/2debae86f3652a0223b2e5ac51b276ef.jpg?s=512&d=https%3A%2F%2Fa.slack-edge.com%2Fdf10d%2Fimg%2Favatars%2Fava_0019-512.png", "custom_css": null}, {"id": 20679, "slack_id": "U098N0FCWH5", "display_name": "Japan Patel", "bio": null, "projects_count": 0, "devlogs_count": 0, "votes_count": 0, "ships_count": 0, "projects": [], "coding_time_seconds": 21, "coding_time_seconds_today": 0, "balance": "You need to have a pocket watcher badge to view this.", "badges": [], "created_at": "2025-08-05T12:33:30.533-04:00", "updated_at": "2025-08-05T22:00:44.643-04:00", "avatar": "https://avatars.slack-edge.com/2025-08-05/9306094989077_bd3c9b169be8744ba318_original.png", "custom_css": null}, {"id": 20680, "slack_id": "U079ATM413L", "display_name": "Minessh Uchat", "bio": null, "projects_count": 0, "devlogs_count": 0, "votes_count": 0, "ships_count": 0, "projects": [], "coding_time_seconds": 0, "coding_time_seconds_today": 0, "balance": "You need to have a pocket watcher badge to view this.", "badges": [], "created_at": "2025-08-05T12:51:16.342-04:00", "updated_at": "2025-08-05T12:51:53.340-04:00", "avatar": "https://avatars.slack-edge.com/2025-06-09/9020457800677_91dc343bff0a6feebdc4_original.png", "custom_css": null}, {"id": 20681, "slack_id": "U07ACECRYM6", "display_name": "renran sun", "bio": null, "projects_count": 0, "devlogs_count": 0, "votes_count": 0, "ships_count": 0, "projects": [], "coding_time_seconds": 0, "coding_time_seconds_today": 0, "balance": "You need to have a pocket watcher badge to view this.", "badges": [], "created_at": "2025-08-05T12:56:36.336-04:00", "updated_at": "2025-08-05T22:00:44.834-04:00", "avatar": "https://avatars.slack-edge.com/2025-05-08/8892130687504_c949231d84af5970c105_original.jpg", "custom_css": null}, {"id": 20682, "slack_id": "U098N24ENPR", "display_name": "Apil Samrat Poudel", "bio": null, "projects_count": 0, "devlogs_count": 0, "votes_count": 0, "ships_count": 0, "projects": [], "coding_time_seconds": 125, "coding_time_seconds_today": 0, "balance": "You need to have a pocket watcher badge to view this.", "badges": [], "created_at": "2025-08-05T12:58:51.641-04:00", "updated_at": "2025-08-05T22:00:44.941-04:00", "avatar": "https://avatars.slack-edge.com/2025-08-05/9305049099190_82f23f4f6c9878d0190b_original.png", "custom_css": null}, {"id": 20683, "slack_id": "U097WH20Q86", "display_name": "Tejas Yadav", "bio": null, "projects_count": 1, "devlogs_count": 0, "votes_count": 0, "ships_count": 0, "projects": [{"id": 10346, "title": "Focus_Buddy", "devlogs_count": 0, "created_at": "2025-08-06T06:14:08.616-04:00"}], "coding_time_seconds": 8963, "coding_time_seconds_today": 0, "balance": "You need to have a pocket watcher badge to view this.", "badges": [], "created_at": "2025-08-05T13:16:12.782-04:00", "updated_at": "2025-08-08T11:46:14.816-04:00", "avatar": "https://secure.gravatar.com/avatar/f5d6cfd827ad37ae62124dd20aef6672.jpg?s=512&d=https%3A%2F%2Fa.slack-edge.com%2Fdf10d%2Fimg%2Favatars%2Fava_0005-512.png", "custom_css": null}, {"id": 20684, "slack_id": "U098PLLR46S", "display_name": "Nancy Pandey", "bio": null, "projects_count": 0, "devlogs_count": 0, "votes_count": 0, "ships_count": 0, "projects": [], "coding_time_seconds": 0, "coding_time_seconds_today": 0, "balance": "You need to have a pocket watcher badge to view this.", "badges": [], "created_at": "2025-08-05T13:17:21.318-04:00", "updated_at": "2025-08-18T13:00:06.340-04:00", "avatar": "https://avatars.slack-edge.com/2025-08-05/9306354854405_1a4647b8e65183e63945_original.png", "custom_css": null}, {"id": 20685, "slack_id": "U0990BW05RB", "display_name": "Sayuon", "bio": null, "projects_count": 0, "devlogs_count": 0, "votes_count": 0, "ships_count": 0, "projects": [], "coding_time_seconds": 0, "coding_time_seconds_today": 0, "balance": "You need to have a pocket watcher badge to view this.", "badges": [], "created_at": "2025-08-05T13:27:26.298-04:00", "updated_at": "2025-08-05T22:00:49.263-04:00", "avatar": "https://secure.gravatar.com/avatar/e81d20e9b1b1dce7989056ff8214d6bf.jpg?s=512&d=https%3A%2F%2Fa.slack-edge.com%2Fdf10d%2Fimg%2Favatars%2Fava_0002-512.png", "custom_css": null}], "pagination": {"page": 1030, "pages": 1192, "count": 23828, "items": 20}}