{"users": [{"id": 20686, "slack_id": "U098Z8PKXAS", "display_name": "Anushka Majumdar", "bio": null, "projects_count": 0, "devlogs_count": 0, "votes_count": 0, "ships_count": 0, "projects": [], "coding_time_seconds": 6101, "coding_time_seconds_today": 0, "balance": "You need to have a pocket watcher badge to view this.", "badges": [], "created_at": "2025-08-05T13:44:07.978-04:00", "updated_at": "2025-08-05T22:00:49.352-04:00", "avatar": "https://avatars.slack-edge.com/2025-08-05/9294472566151_1afbf37c0565e54e7dc3_original.jpg", "custom_css": null}, {"id": 20687, "slack_id": "U099QFBKGF2", "display_name": "Maanav Pinapala", "bio": null, "projects_count": 0, "devlogs_count": 0, "votes_count": 0, "ships_count": 0, "projects": [], "coding_time_seconds": 0, "coding_time_seconds_today": 0, "balance": "You need to have a pocket watcher badge to view this.", "badges": [], "created_at": "2025-08-05T13:56:05.676-04:00", "updated_at": "2025-08-05T22:00:49.440-04:00", "avatar": "https://avatars.slack-edge.com/2025-08-05/9324521586561_43151bc833dfa6e4d160_original.png", "custom_css": null}, {"id": 20688, "slack_id": "U08JNE2B1K5", "display_name": "Gav1nat0R", "bio": null, "projects_count": 0, "devlogs_count": 0, "votes_count": 0, "ships_count": 0, "projects": [], "coding_time_seconds": 0, "coding_time_seconds_today": 0, "balance": "You need to have a pocket watcher badge to view this.", "badges": [], "created_at": "2025-08-05T14:24:12.677-04:00", "updated_at": "2025-08-05T14:28:51.083-04:00", "avatar": "https://avatars.slack-edge.com/2025-03-20/8630600161333_e4ca1377ebe1e8567b4e_original.jpg", "custom_css": null}, {"id": 20689, "slack_id": "U09949AU17W", "display_name": "Null7", "bio": null, "projects_count": 1, "devlogs_count": 0, "votes_count": 2, "ships_count": 0, "projects": [{"id": 10292, "title": "KatLamp", "devlogs_count": 0, "created_at": "2025-08-05T15:24:35.054-04:00"}], "coding_time_seconds": 2604, "coding_time_seconds_today": 0, "balance": "You need to have a pocket watcher badge to view this.", "badges": [], "created_at": "2025-08-05T14:26:37.967-04:00", "updated_at": "2025-08-05T22:00:49.596-04:00", "avatar": "https://secure.gravatar.com/avatar/aaf8c8cb8218ba2fb3df995624a3ef7c.jpg?s=512&d=https%3A%2F%2Fa.slack-edge.com%2Fdf10d%2Fimg%2Favatars%2Fava_0006-512.png", "custom_css": null}, {"id": 20690, "slack_id": "U09944RAEQ4", "display_name": "Ananya Agrawal", "bio": null, "projects_count": 0, "devlogs_count": 0, "votes_count": 0, "ships_count": 0, "projects": [], "coding_time_seconds": 0, "coding_time_seconds_today": 0, "balance": "You need to have a pocket watcher badge to view this.", "badges": [], "created_at": "2025-08-05T14:38:30.666-04:00", "updated_at": "2025-08-05T22:00:49.696-04:00", "avatar": "https://secure.gravatar.com/avatar/64df9c21cc79e64c046821766693ad10.jpg?s=512&d=https%3A%2F%2Fa.slack-edge.com%2Fdf10d%2Fimg%2Favatars%2Fava_0013-512.png", "custom_css": null}, {"id": 20691, "slack_id": "U0992L3DSE6", "display_name": "Vaibhav Shukla", "bio": null, "projects_count": 0, "devlogs_count": 0, "votes_count": 0, "ships_count": 0, "projects": [], "coding_time_seconds": 5087, "coding_time_seconds_today": 0, "balance": "You need to have a pocket watcher badge to view this.", "badges": [], "created_at": "2025-08-05T14:40:28.436-04:00", "updated_at": "2025-08-06T00:02:31.548-04:00", "avatar": "https://avatars.slack-edge.com/2025-08-05/9305105178131_4618903c0d902e691c76_original.png", "custom_css": null}, {"id": 20692, "slack_id": "U098NTY4ZRV", "display_name": "Aditya", "bio": null, "projects_count": 0, "devlogs_count": 0, "votes_count": 0, "ships_count": 0, "projects": [], "coding_time_seconds": 0, "coding_time_seconds_today": 0, "balance": "You need to have a pocket watcher badge to view this.", "badges": [], "created_at": "2025-08-05T15:06:54.393-04:00", "updated_at": "2025-08-05T22:00:49.896-04:00", "avatar": "https://secure.gravatar.com/avatar/a6092740c56047ed6b7d41bbb5567e7d.jpg?s=512&d=https%3A%2F%2Fa.slack-edge.com%2Fdf10d%2Fimg%2Favatars%2Fava_0022-512.png", "custom_css": null}, {"id": 20693, "slack_id": "U098Z6QDUKD", "display_name": "Sumit Chauhan", "bio": null, "projects_count": 0, "devlogs_count": 0, "votes_count": 0, "ships_count": 0, "projects": [], "coding_time_seconds": 0, "coding_time_seconds_today": 0, "balance": "You need to have a pocket watcher badge to view this.", "badges": [], "created_at": "2025-08-05T15:10:36.898-04:00", "updated_at": "2025-08-07T01:45:02.092-04:00", "avatar": "https://secure.gravatar.com/avatar/b12a1328e1809b63c27dd5aebd0d3dd5.jpg?s=512&d=https%3A%2F%2Fa.slack-edge.com%2Fdf10d%2Fimg%2Favatars%2Fava_0022-512.png", "custom_css": null}, {"id": 20694, "slack_id": "U0977HKEEB1", "display_name": "Shreya Kush", "bio": null, "projects_count": 0, "devlogs_count": 0, "votes_count": 0, "ships_count": 0, "projects": [], "coding_time_seconds": 24535, "coding_time_seconds_today": 240, "balance": "You need to have a pocket watcher badge to view this.", "badges": [], "created_at": "2025-08-05T15:17:32.053-04:00", "updated_at": "2025-08-05T22:00:50.095-04:00", "avatar": "https://secure.gravatar.com/avatar/ab92678781aaa6d6c697b4caba958dfc.jpg?s=512&d=https%3A%2F%2Fa.slack-edge.com%2Fdf10d%2Fimg%2Favatars%2Fava_0001-512.png", "custom_css": null}, {"id": 20695, "slack_id": "U098P2UHJCF", "display_name": "David", "bio": null, "projects_count": 0, "devlogs_count": 0, "votes_count": 0, "ships_count": 0, "projects": [], "coding_time_seconds": 59250, "coding_time_seconds_today": 0, "balance": "You need to have a pocket watcher badge to view this.", "badges": [], "created_at": "2025-08-05T15:34:22.259-04:00", "updated_at": "2025-08-05T22:00:50.188-04:00", "avatar": "https://secure.gravatar.com/avatar/5281a20d289d7a3d9938aef7d441dab6.jpg?s=512&d=https%3A%2F%2Fa.slack-edge.com%2Fdf10d%2Fimg%2Favatars%2Fava_0020-512.png", "custom_css": null}, {"id": 20696, "slack_id": "U098P1FDWB1", "display_name": "Tinoe", "bio": null, "projects_count": 0, "devlogs_count": 0, "votes_count": 0, "ships_count": 0, "projects": [], "coding_time_seconds": 0, "coding_time_seconds_today": 0, "balance": "You need to have a pocket watcher badge to view this.", "badges": [], "created_at": "2025-08-05T15:45:02.483-04:00", "updated_at": "2025-08-05T22:00:50.290-04:00", "avatar": "https://secure.gravatar.com/avatar/71ce024b0b3209296b1130cc3726f845.jpg?s=512&d=https%3A%2F%2Fa.slack-edge.com%2Fdf10d%2Fimg%2Favatars%2Fava_0010-512.png", "custom_css": null}, {"id": 20697, "slack_id": "U099K31NRMF", "display_name": "Nitin tiwari", "bio": null, "projects_count": 0, "devlogs_count": 0, "votes_count": 0, "ships_count": 0, "projects": [], "coding_time_seconds": 0, "coding_time_seconds_today": 0, "balance": "You need to have a pocket watcher badge to view this.", "badges": [], "created_at": "2025-08-05T15:50:56.709-04:00", "updated_at": "2025-08-05T22:00:50.368-04:00", "avatar": "https://secure.gravatar.com/avatar/01cec776936ef96b862f5623ce0a3624.jpg?s=512&d=https%3A%2F%2Fa.slack-edge.com%2Fdf10d%2Fimg%2Favatars%2Fava_0017-512.png", "custom_css": null}, {"id": 20698, "slack_id": "U098P6C9C31", "display_name": "Deirdre Stanford", "bio": null, "projects_count": 0, "devlogs_count": 0, "votes_count": 0, "ships_count": 0, "projects": [], "coding_time_seconds": 0, "coding_time_seconds_today": 0, "balance": "You need to have a pocket watcher badge to view this.", "badges": [], "created_at": "2025-08-05T16:02:20.468-04:00", "updated_at": "2025-08-05T22:00:50.457-04:00", "avatar": "https://avatars.slack-edge.com/2025-08-05/9309133169618_ecb1326d7c51130f1984_original.png", "custom_css": null}, {"id": 20699, "slack_id": "U09918VJQAH", "display_name": "100xnikhil", "bio": null, "projects_count": 0, "devlogs_count": 0, "votes_count": 0, "ships_count": 0, "projects": [], "coding_time_seconds": 0, "coding_time_seconds_today": 0, "balance": "You need to have a pocket watcher badge to view this.", "badges": [], "created_at": "2025-08-05T16:11:19.441-04:00", "updated_at": "2025-08-06T07:33:40.279-04:00", "avatar": "https://secure.gravatar.com/avatar/359b122133e4cf2595969a79cfddd141.jpg?s=512&d=https%3A%2F%2Fa.slack-edge.com%2Fdf10d%2Fimg%2Favatars%2Fava_0021-512.png", "custom_css": null}, {"id": 20700, "slack_id": "U082M9LHZJM", "display_name": "festivius", "bio": null, "projects_count": 0, "devlogs_count": 0, "votes_count": 0, "ships_count": 0, "projects": [], "coding_time_seconds": 74857, "coding_time_seconds_today": 0, "balance": "You need to have a pocket watcher badge to view this.", "badges": [], "created_at": "2025-08-05T16:19:23.251-04:00", "updated_at": "2025-08-05T16:20:46.594-04:00", "avatar": "https://secure.gravatar.com/avatar/61e8c0869759df11422186d9cc647c95.jpg?s=512&d=https%3A%2F%2Fa.slack-edge.com%2Fdf10d%2Fimg%2Favatars%2Fava_0002-512.png", "custom_css": null}, {"id": 20701, "slack_id": "U099R92LTL0", "display_name": "Ivy Datta", "bio": null, "projects_count": 0, "devlogs_count": 0, "votes_count": 0, "ships_count": 0, "projects": [], "coding_time_seconds": 0, "coding_time_seconds_today": 0, "balance": "You need to have a pocket watcher badge to view this.", "badges": [], "created_at": "2025-08-05T16:23:21.920-04:00", "updated_at": "2025-08-05T22:00:50.721-04:00", "avatar": "https://secure.gravatar.com/avatar/da5b408e142f6b7054fff2805a985aec.jpg?s=512&d=https%3A%2F%2Fa.slack-edge.com%2Fdf10d%2Fimg%2Favatars%2Fava_0010-512.png", "custom_css": null}, {"id": 20702, "slack_id": "U0994UZRJF6", "display_name": "Abhirup Koduru", "bio": null, "projects_count": 0, "devlogs_count": 0, "votes_count": 0, "ships_count": 0, "projects": [], "coding_time_seconds": 1987, "coding_time_seconds_today": 0, "balance": "You need to have a pocket watcher badge to view this.", "badges": [], "created_at": "2025-08-05T16:37:12.717-04:00", "updated_at": "2025-08-22T18:35:35.849-04:00", "avatar": "https://secure.gravatar.com/avatar/ae5029e4d773da960782d9d8ef130dcf.jpg?s=512&d=https%3A%2F%2Fa.slack-edge.com%2Fdf10d%2Fimg%2Favatars%2Fava_0007-512.png", "custom_css": null}, {"id": 20703, "slack_id": "U099RFEU0Q0", "display_name": "Ulysse Amiel", "bio": "", "projects_count": 0, "devlogs_count": 0, "votes_count": 0, "ships_count": 0, "projects": [], "coding_time_seconds": 23634, "coding_time_seconds_today": 0, "balance": "You need to have a pocket watcher badge to view this.", "badges": [], "created_at": "2025-08-05T17:02:02.924-04:00", "updated_at": "2025-08-06T14:27:25.656-04:00", "avatar": "https://avatars.slack-edge.com/2025-08-05/9306422108614_6dac1eb674bc9c1584a1_original.png", "custom_css": null}, {"id": 20704, "slack_id": "U098N7A92UD", "display_name": "Zimal", "bio": null, "projects_count": 0, "devlogs_count": 0, "votes_count": 0, "ships_count": 0, "projects": [], "coding_time_seconds": 0, "coding_time_seconds_today": 0, "balance": "You need to have a pocket watcher badge to view this.", "badges": [], "created_at": "2025-08-05T17:13:11.287-04:00", "updated_at": "2025-08-05T22:00:55.056-04:00", "avatar": "https://avatars.slack-edge.com/2025-08-05/9295624925335_aaa68609e02e1e930ed7_original.png", "custom_css": null}, {"id": 20705, "slack_id": "U09954ML0R2", "display_name": "Adem", "bio": null, "projects_count": 0, "devlogs_count": 0, "votes_count": 0, "ships_count": 0, "projects": [], "coding_time_seconds": 0, "coding_time_seconds_today": 0, "balance": "You need to have a pocket watcher badge to view this.", "badges": [], "created_at": "2025-08-05T17:13:25.453-04:00", "updated_at": "2025-08-05T22:00:55.156-04:00", "avatar": "https://secure.gravatar.com/avatar/ead67ddf902520fbda8def77e3029db6.jpg?s=512&d=https%3A%2F%2Fa.slack-edge.com%2Fdf10d%2Fimg%2Favatars%2Fava_0020-512.png", "custom_css": null}], "pagination": {"page": 1031, "pages": 1192, "count": 23828, "items": 20}}