{"users": [{"id": 20706, "slack_id": "U098PKCQZNK", "display_name": "strues", "bio": null, "projects_count": 0, "devlogs_count": 0, "votes_count": 0, "ships_count": 0, "projects": [], "coding_time_seconds": 0, "coding_time_seconds_today": 0, "balance": "You need to have a pocket watcher badge to view this.", "badges": [], "created_at": "2025-08-05T17:27:42.425-04:00", "updated_at": "2025-08-05T22:00:55.250-04:00", "avatar": "https://secure.gravatar.com/avatar/841b324efb5c3922b34da305f1697f93.jpg?s=512&d=https%3A%2F%2Fa.slack-edge.com%2Fdf10d%2Fimg%2Favatars%2Fava_0023-512.png", "custom_css": null}, {"id": 20707, "slack_id": "U0993GCJPT4", "display_name": "AJ Nambiar", "bio": null, "projects_count": 0, "devlogs_count": 0, "votes_count": 0, "ships_count": 0, "projects": [], "coding_time_seconds": 0, "coding_time_seconds_today": 0, "balance": "You need to have a pocket watcher badge to view this.", "badges": [], "created_at": "2025-08-05T17:35:48.388-04:00", "updated_at": "2025-08-05T22:00:55.359-04:00", "avatar": "https://secure.gravatar.com/avatar/cb88a22a28c00b0825ebfe706f6bd418.jpg?s=512&d=https%3A%2F%2Fa.slack-edge.com%2Fdf10d%2Fimg%2Favatars%2Fava_0018-512.png", "custom_css": null}, {"id": 20708, "slack_id": "U095LLLRZ1Q", "display_name": "Walnut", "bio": null, "projects_count": 0, "devlogs_count": 0, "votes_count": 0, "ships_count": 0, "projects": [], "coding_time_seconds": 0, "coding_time_seconds_today": 0, "balance": "You need to have a pocket watcher badge to view this.", "badges": [], "created_at": "2025-08-05T17:55:17.385-04:00", "updated_at": "2025-08-05T22:00:55.458-04:00", "avatar": "https://avatars.slack-edge.com/2025-08-05/9306083560707_0e32d5b90c7daad3fc19_original.jpg", "custom_css": null}, {"id": 20709, "slack_id": "U09959Q0KFW", "display_name": "Mouthless Stoat", "bio": null, "projects_count": 2, "devlogs_count": 20, "votes_count": 20, "ships_count": 1, "projects": [{"id": 10401, "title": "CrabbyVim", "devlogs_count": 19, "created_at": "2025-08-06T15:54:03.278-04:00"}, {"id": 12798, "title": "Note Assistant Helper", "devlogs_count": 1, "created_at": "2025-09-02T18:20:33.896-04:00"}], "coding_time_seconds": 539946, "coding_time_seconds_today": 5050, "balance": "You need to have a pocket watcher badge to view this.", "badges": [], "created_at": "2025-08-05T18:02:45.123-04:00", "updated_at": "2025-08-06T15:51:17.513-04:00", "avatar": "https://avatars.slack-edge.com/2025-08-05/9306551664931_94f764a12c7a9a0f64b9_original.png", "custom_css": null}, {"id": 20710, "slack_id": "U0991TA8EMT", "display_name": "Chloe", "bio": null, "projects_count": 1, "devlogs_count": 2, "votes_count": 2, "ships_count": 1, "projects": [{"id": 10405, "title": "chloe's book reviews", "devlogs_count": 2, "created_at": "2025-08-06T16:30:11.484-04:00"}], "coding_time_seconds": 91850, "coding_time_seconds_today": 0, "balance": "You need to have a pocket watcher badge to view this.", "badges": [], "created_at": "2025-08-05T18:36:53.487-04:00", "updated_at": "2025-08-14T02:30:10.140-04:00", "avatar": "https://secure.gravatar.com/avatar/e02db4bcf7a098ead146828973c6a1b6.jpg?s=512&d=https%3A%2F%2Fa.slack-edge.com%2Fdf10d%2Fimg%2Favatars%2Fava_0001-512.png", "custom_css": null}, {"id": 20711, "slack_id": "U098PTSB6Q7", "display_name": "Mayank Patel", "bio": null, "projects_count": 0, "devlogs_count": 0, "votes_count": 0, "ships_count": 0, "projects": [], "coding_time_seconds": 0, "coding_time_seconds_today": 0, "balance": "You need to have a pocket watcher badge to view this.", "badges": [], "created_at": "2025-08-05T18:40:46.124-04:00", "updated_at": "2025-08-05T22:00:55.740-04:00", "avatar": "https://secure.gravatar.com/avatar/1ed9171f6a188537ef5a0f80fada58a7.jpg?s=512&d=https%3A%2F%2Fa.slack-edge.com%2Fdf10d%2Fimg%2Favatars%2Fava_0015-512.png", "custom_css": null}, {"id": 20712, "slack_id": "U0990P0GD2A", "display_name": "ninja", "bio": null, "projects_count": 0, "devlogs_count": 0, "votes_count": 0, "ships_count": 0, "projects": [], "coding_time_seconds": 0, "coding_time_seconds_today": 0, "balance": "You need to have a pocket watcher badge to view this.", "badges": [], "created_at": "2025-08-05T18:43:13.660-04:00", "updated_at": "2025-08-05T22:00:55.828-04:00", "avatar": "https://secure.gravatar.com/avatar/7db65816fe1368d55f7add2dc191cbc0.jpg?s=512&d=https%3A%2F%2Fa.slack-edge.com%2Fdf10d%2Fimg%2Favatars%2Fava_0014-512.png", "custom_css": null}, {"id": 20713, "slack_id": "U0993QS95PC", "display_name": "Samantha Welsh", "bio": null, "projects_count": 0, "devlogs_count": 0, "votes_count": 0, "ships_count": 0, "projects": [], "coding_time_seconds": 0, "coding_time_seconds_today": 0, "balance": "You need to have a pocket watcher badge to view this.", "badges": [], "created_at": "2025-08-05T19:01:00.289-04:00", "updated_at": "2025-08-19T19:31:55.776-04:00", "avatar": "https://avatars.slack-edge.com/2025-08-05/9309859325074_2ae80dcabb4b4c813f8d_original.jpg", "custom_css": null}, {"id": 20714, "slack_id": "U0993RYEREW", "display_name": "Ruby Mendoza", "bio": null, "projects_count": 0, "devlogs_count": 0, "votes_count": 0, "ships_count": 0, "projects": [], "coding_time_seconds": 0, "coding_time_seconds_today": 0, "balance": "You need to have a pocket watcher badge to view this.", "badges": [], "created_at": "2025-08-05T19:11:48.033-04:00", "updated_at": "2025-08-05T22:00:56.008-04:00", "avatar": "https://avatars.slack-edge.com/2025-08-05/9308088165829_230306f29455d992ce0e_original.jpg", "custom_css": null}, {"id": 20715, "slack_id": "U079YK2DCDP", "display_name": "Scrafty", "bio": null, "projects_count": 0, "devlogs_count": 0, "votes_count": 0, "ships_count": 0, "projects": [], "coding_time_seconds": 13426, "coding_time_seconds_today": 0, "balance": "You need to have a pocket watcher badge to view this.", "badges": [], "created_at": "2025-08-05T19:41:44.347-04:00", "updated_at": "2025-08-05T22:00:56.097-04:00", "avatar": "https://avatars.slack-edge.com/2025-08-03/9298133041860_acb0fdae08e63deaf486_original.jpg", "custom_css": null}, {"id": 20716, "slack_id": "U0993VCLUN6", "display_name": "Anna Wang", "bio": null, "projects_count": 0, "devlogs_count": 0, "votes_count": 0, "ships_count": 0, "projects": [], "coding_time_seconds": 0, "coding_time_seconds_today": 0, "balance": "You need to have a pocket watcher badge to view this.", "badges": [], "created_at": "2025-08-05T19:45:15.674-04:00", "updated_at": "2025-08-07T06:20:00.318-04:00", "avatar": "https://secure.gravatar.com/avatar/5b5635755a0e0b340aa9ad20e834002d.jpg?s=512&d=https%3A%2F%2Fa.slack-edge.com%2Fdf10d%2Fimg%2Favatars%2Fava_0004-512.png", "custom_css": null}, {"id": 20717, "slack_id": "U099S4W52GY", "display_name": "Nishka", "bio": null, "projects_count": 2, "devlogs_count": 1, "votes_count": 2, "ships_count": 1, "projects": [{"id": 10611, "title": "Spotify Search Engine", "devlogs_count": 0, "created_at": "2025-08-08T22:42:01.161-04:00"}, {"id": 11322, "title": "New Roots Website", "devlogs_count": 1, "created_at": "2025-08-14T22:46:58.603-04:00"}], "coding_time_seconds": 130241, "coding_time_seconds_today": 0, "balance": "You need to have a pocket watcher badge to view this.", "badges": [], "created_at": "2025-08-05T20:05:39.991-04:00", "updated_at": "2025-08-06T16:20:10.610-04:00", "avatar": "https://secure.gravatar.com/avatar/4a13a48876a38c9aa3f42674dff2dffa.jpg?s=512&d=https%3A%2F%2Fa.slack-edge.com%2Fdf10d%2Fimg%2Favatars%2Fava_0019-512.png", "custom_css": null}, {"id": 20718, "slack_id": "U099674CRB6", "display_name": "ramin bahrainy", "bio": null, "projects_count": 0, "devlogs_count": 0, "votes_count": 0, "ships_count": 0, "projects": [], "coding_time_seconds": 0, "coding_time_seconds_today": 0, "balance": "You need to have a pocket watcher badge to view this.", "badges": [], "created_at": "2025-08-05T22:17:06.842-04:00", "updated_at": "2025-08-06T03:51:38.367-04:00", "avatar": "https://secure.gravatar.com/avatar/7c8d891b6269435c102eb52ce869ce93.jpg?s=512&d=https%3A%2F%2Fa.slack-edge.com%2Fdf10d%2Fimg%2Favatars%2Fava_0003-512.png", "custom_css": null}, {"id": 20719, "slack_id": "U0994J811T4", "display_name": "Arya Salem", "bio": null, "projects_count": 0, "devlogs_count": 0, "votes_count": 0, "ships_count": 0, "projects": [], "coding_time_seconds": 0, "coding_time_seconds_today": 0, "balance": "You need to have a pocket watcher badge to view this.", "badges": [], "created_at": "2025-08-05T22:21:26.654-04:00", "updated_at": "2025-08-07T21:46:05.513-04:00", "avatar": "https://secure.gravatar.com/avatar/80498ae97643cd9e59e79b9e4abd352f.jpg?s=512&d=https%3A%2F%2Fa.slack-edge.com%2Fdf10d%2Fimg%2Favatars%2Fava_0012-512.png", "custom_css": null}, {"id": 20720, "slack_id": "U09969Z7A1J", "display_name": "Krsh", "bio": null, "projects_count": 0, "devlogs_count": 0, "votes_count": 0, "ships_count": 0, "projects": [], "coding_time_seconds": 0, "coding_time_seconds_today": 0, "balance": "You need to have a pocket watcher badge to view this.", "badges": [], "created_at": "2025-08-05T22:29:31.220-04:00", "updated_at": "2025-08-06T03:51:38.578-04:00", "avatar": "https://secure.gravatar.com/avatar/8a6d9ab5b2aa6e37bcfe88eba881eea0.jpg?s=512&d=https%3A%2F%2Fa.slack-edge.com%2Fdf10d%2Fimg%2Favatars%2Fava_0003-512.png", "custom_css": null}, {"id": 20721, "slack_id": "U0994NPQ1M0", "display_name": "tyler", "bio": null, "projects_count": 0, "devlogs_count": 0, "votes_count": 0, "ships_count": 0, "projects": [], "coding_time_seconds": 0, "coding_time_seconds_today": 0, "balance": "You need to have a pocket watcher badge to view this.", "badges": [], "created_at": "2025-08-05T23:04:21.705-04:00", "updated_at": "2025-08-06T19:02:33.448-04:00", "avatar": "https://secure.gravatar.com/avatar/8d050d4254f229d55f28550d1a9f8c97.jpg?s=512&d=https%3A%2F%2Fa.slack-edge.com%2Fdf10d%2Fimg%2Favatars%2Fava_0019-512.png", "custom_css": null}, {"id": 20722, "slack_id": "U098TPFTRNF", "display_name": "Devi", "bio": "", "projects_count": 1, "devlogs_count": 0, "votes_count": 0, "ships_count": 0, "projects": [{"id": 11213, "title": "Text-Based_Adventure Game", "devlogs_count": 0, "created_at": "2025-08-14T05:01:41.206-04:00"}], "coding_time_seconds": 8773, "coding_time_seconds_today": 0, "balance": "You need to have a pocket watcher badge to view this.", "badges": [], "created_at": "2025-08-05T23:32:57.079-04:00", "updated_at": "2025-09-07T22:06:36.061-04:00", "avatar": "https://avatars.slack-edge.com/2025-09-07/9474759528694_8572b10a3a0639579202_original.jpg", "custom_css": null}, {"id": 20723, "slack_id": "U099T7PT2GY", "display_name": "Nirvair Sandhu", "bio": null, "projects_count": 0, "devlogs_count": 0, "votes_count": 0, "ships_count": 0, "projects": [], "coding_time_seconds": 0, "coding_time_seconds_today": 0, "balance": "You need to have a pocket watcher badge to view this.", "badges": [], "created_at": "2025-08-06T00:17:34.453-04:00", "updated_at": "2025-08-06T03:51:38.922-04:00", "avatar": "https://secure.gravatar.com/avatar/798860f1c5e51b3243247d6a53bb204b.jpg?s=512&d=https%3A%2F%2Fa.slack-edge.com%2Fdf10d%2Fimg%2Favatars%2Fava_0011-512.png", "custom_css": null}, {"id": 20724, "slack_id": "U09950CAT98", "display_name": "vahidmomin.dev", "bio": null, "projects_count": 0, "devlogs_count": 0, "votes_count": 0, "ships_count": 0, "projects": [], "coding_time_seconds": 0, "coding_time_seconds_today": 0, "balance": "You need to have a pocket watcher badge to view this.", "badges": [], "created_at": "2025-08-06T00:17:48.373-04:00", "updated_at": "2025-08-06T03:51:39.005-04:00", "avatar": "https://secure.gravatar.com/avatar/1f193b7588816052e8f9c2bfc206345b.jpg?s=512&d=https%3A%2F%2Fa.slack-edge.com%2Fdf10d%2Fimg%2Favatars%2Fava_0006-512.png", "custom_css": null}, {"id": 20725, "slack_id": "U08759XEKS6", "display_name": "Atharv", "bio": null, "projects_count": 0, "devlogs_count": 0, "votes_count": 0, "ships_count": 0, "projects": [], "coding_time_seconds": 240, "coding_time_seconds_today": 0, "balance": "You need to have a pocket watcher badge to view this.", "badges": [], "created_at": "2025-08-06T00:18:16.507-04:00", "updated_at": "2025-08-10T06:26:00.264-04:00", "avatar": "https://avatars.slack-edge.com/2025-01-04/8260071448385_1f8699fc8055316e4fd1_original.jpg", "custom_css": null}], "pagination": {"page": 1032, "pages": 1192, "count": 23828, "items": 20}}