{"users": [{"id": 20726, "slack_id": "U091P2630TY", "display_name": "Jacob Yee", "bio": null, "projects_count": 0, "devlogs_count": 0, "votes_count": 0, "ships_count": 0, "projects": [], "coding_time_seconds": 0, "coding_time_seconds_today": 0, "balance": "You need to have a pocket watcher badge to view this.", "badges": [], "created_at": "2025-08-06T00:43:37.995-04:00", "updated_at": "2025-08-07T13:13:10.962-04:00", "avatar": "https://secure.gravatar.com/avatar/c22d141fba780f16f4053a25f5159ffd.jpg?s=512&d=https%3A%2F%2Fa.slack-edge.com%2Fdf10d%2Fimg%2Favatars%2Fava_0026-512.png", "custom_css": null}, {"id": 20727, "slack_id": "U07QC35DFV0", "display_name": "Priyanshu Verma", "bio": "I love building things", "projects_count": 3, "devlogs_count": 27, "votes_count": 79, "ships_count": 3, "projects": [{"id": 12837, "title": "Row3", "devlogs_count": 8, "created_at": "2025-09-03T13:35:07.628-04:00"}, {"id": 10335, "title": "Emoki", "devlogs_count": 8, "created_at": "2025-08-06T02:36:57.136-04:00"}, {"id": 11197, "title": "Handwar", "devlogs_count": 11, "created_at": "2025-08-14T02:05:39.083-04:00"}], "coding_time_seconds": 259621, "coding_time_seconds_today": 0, "balance": "You need to have a pocket watcher badge to view this.", "badges": [], "created_at": "2025-08-06T00:44:17.938-04:00", "updated_at": "2025-08-06T21:38:52.662-04:00", "avatar": "https://secure.gravatar.com/avatar/5fcac43930e1770722a9cbe07a6e64d7.jpg?s=512&d=https%3A%2F%2Fa.slack-edge.com%2Fdf10d%2Fimg%2Favatars%2Fava_0012-512.png", "custom_css": null}, {"id": 20728, "slack_id": "U099547QTJ6", "display_name": "Nate Bergmann", "bio": null, "projects_count": 0, "devlogs_count": 0, "votes_count": 1, "ships_count": 0, "projects": [], "coding_time_seconds": 849, "coding_time_seconds_today": 0, "balance": "You need to have a pocket watcher badge to view this.", "badges": [], "created_at": "2025-08-06T00:50:08.428-04:00", "updated_at": "2025-08-06T23:33:41.412-04:00", "avatar": "https://secure.gravatar.com/avatar/9500037cc90d2fe352957f33e3b22cdc.jpg?s=512&d=https%3A%2F%2Fa.slack-edge.com%2Fdf10d%2Fimg%2Favatars%2Fava_0003-512.png", "custom_css": null}, {"id": 20729, "slack_id": "U0991R7JLKV", "display_name": "Yash", "bio": null, "projects_count": 0, "devlogs_count": 0, "votes_count": 0, "ships_count": 0, "projects": [], "coding_time_seconds": 51935, "coding_time_seconds_today": 0, "balance": "You need to have a pocket watcher badge to view this.", "badges": [], "created_at": "2025-08-06T01:34:29.947-04:00", "updated_at": "2025-08-19T07:47:18.526-04:00", "avatar": "https://secure.gravatar.com/avatar/341c3dc3fd5079b78542fa9ad1f1151f.jpg?s=512&d=https%3A%2F%2Fa.slack-edge.com%2Fdf10d%2Fimg%2Favatars%2Fava_0011-512.png", "custom_css": null}, {"id": 20730, "slack_id": "U09971V8H2Q", "display_name": "Ghanendra Dev Prabhakar", "bio": null, "projects_count": 0, "devlogs_count": 0, "votes_count": 0, "ships_count": 0, "projects": [], "coding_time_seconds": 0, "coding_time_seconds_today": 0, "balance": "You need to have a pocket watcher badge to view this.", "badges": [], "created_at": "2025-08-06T01:39:28.976-04:00", "updated_at": "2025-08-06T03:51:39.519-04:00", "avatar": "https://secure.gravatar.com/avatar/c902e61c0cd6687b60a11f487b2b833d.jpg?s=512&d=https%3A%2F%2Fa.slack-edge.com%2Fdf10d%2Fimg%2Favatars%2Fava_0003-512.png", "custom_css": null}, {"id": 20731, "slack_id": "U099TJEQ3PA", "display_name": "DOKU JERRY", "bio": null, "projects_count": 0, "devlogs_count": 0, "votes_count": 0, "ships_count": 0, "projects": [], "coding_time_seconds": 0, "coding_time_seconds_today": 0, "balance": "You need to have a pocket watcher badge to view this.", "badges": [], "created_at": "2025-08-06T01:50:25.007-04:00", "updated_at": "2025-08-06T03:51:43.648-04:00", "avatar": "https://secure.gravatar.com/avatar/3da73851089e6a229b9bf71a36408aca.jpg?s=512&d=https%3A%2F%2Fa.slack-edge.com%2Fdf10d%2Fimg%2Favatars%2Fava_0018-512.png", "custom_css": null}, {"id": 20732, "slack_id": "U0993MZH7FF", "display_name": "xutiancai97", "bio": null, "projects_count": 0, "devlogs_count": 0, "votes_count": 0, "ships_count": 0, "projects": [], "coding_time_seconds": 19137, "coding_time_seconds_today": 0, "balance": "You need to have a pocket watcher badge to view this.", "badges": [], "created_at": "2025-08-06T02:01:49.632-04:00", "updated_at": "2025-08-06T03:51:43.751-04:00", "avatar": "https://secure.gravatar.com/avatar/2eac60f2d3d59f9cfad5fca17cd32c27.jpg?s=512&d=https%3A%2F%2Fa.slack-edge.com%2Fdf10d%2Fimg%2Favatars%2Fava_0003-512.png", "custom_css": null}, {"id": 20733, "slack_id": "U09978M9Z36", "display_name": "Kartik Srivastava", "bio": null, "projects_count": 0, "devlogs_count": 0, "votes_count": 0, "ships_count": 0, "projects": [], "coding_time_seconds": 0, "coding_time_seconds_today": 0, "balance": "You need to have a pocket watcher badge to view this.", "badges": [], "created_at": "2025-08-06T02:30:46.262-04:00", "updated_at": "2025-08-06T03:51:43.860-04:00", "avatar": "https://avatars.slack-edge.com/2025-08-05/9308121342979_a84ade3dd6511323d781_original.png", "custom_css": null}, {"id": 20734, "slack_id": "U099MMXV0BB", "display_name": "Bartoszzzzzz", "bio": null, "projects_count": 0, "devlogs_count": 0, "votes_count": 0, "ships_count": 0, "projects": [], "coding_time_seconds": 0, "coding_time_seconds_today": 0, "balance": "You need to have a pocket watcher badge to view this.", "badges": [], "created_at": "2025-08-06T02:44:55.592-04:00", "updated_at": "2025-08-06T03:03:30.261-04:00", "avatar": "https://secure.gravatar.com/avatar/86d5605da73f0245f0a21feda218feb5.jpg?s=512&d=https%3A%2F%2Fa.slack-edge.com%2Fdf10d%2Fimg%2Favatars%2Fava_0021-512.png", "custom_css": null}, {"id": 20735, "slack_id": "U099MMQ1W2D", "display_name": "Suvid Datta", "bio": null, "projects_count": 0, "devlogs_count": 0, "votes_count": 0, "ships_count": 0, "projects": [], "coding_time_seconds": 8864, "coding_time_seconds_today": 0, "balance": "You need to have a pocket watcher badge to view this.", "badges": [], "created_at": "2025-08-06T02:57:53.344-04:00", "updated_at": "2025-08-06T03:51:44.025-04:00", "avatar": "https://avatars.slack-edge.com/2025-08-05/9313453416900_47f01d4cd88ef44ee303_original.jpg", "custom_css": null}, {"id": 20736, "slack_id": "U09929PJFU3", "display_name": "Agastya Varshney", "bio": null, "projects_count": 0, "devlogs_count": 0, "votes_count": 0, "ships_count": 0, "projects": [], "coding_time_seconds": 0, "coding_time_seconds_today": 0, "balance": "You need to have a pocket watcher badge to view this.", "badges": [], "created_at": "2025-08-06T03:14:20.970-04:00", "updated_at": "2025-08-06T03:51:44.113-04:00", "avatar": "https://avatars.slack-edge.com/2025-08-06/9311795399458_d3740759cc9acc487b28_original.png", "custom_css": null}, {"id": 20737, "slack_id": "U0997ERQXC4", "display_name": "Nicole Lozi", "bio": null, "projects_count": 0, "devlogs_count": 0, "votes_count": 0, "ships_count": 0, "projects": [], "coding_time_seconds": 120, "coding_time_seconds_today": 0, "balance": "You need to have a pocket watcher badge to view this.", "badges": [], "created_at": "2025-08-06T03:26:13.971-04:00", "updated_at": "2025-08-06T03:51:44.204-04:00", "avatar": "https://avatars.slack-edge.com/2025-08-06/9310206992021_1bce81418f3a3a73b8af_original.png", "custom_css": null}, {"id": 20738, "slack_id": "U098W8RFFB7", "display_name": "Akshita Swarnkar", "bio": "\ud83c\udf1f Akshita Swarnkar (aka Akshu)\r\n\ud83c\udfa8 Developer | \ud83c\udfad Creator | \ud83d\ude80 Dreamer\r\n\ud83d\udc69\ud83c\udffb\u200d\ud83d\udcbb A 17cm-handed coder with ultra-promax humour, self-obsession, and a mission to become a tech billionaire.\r\n\r\nI'm a student who turns chaos into creativity and code into magic. Obsessed with painting pixels and building projects that stand out like constellations in a dark sky \u2728. Whether it's designing an aesthetic web app or automating real-world problems, I believe in learning loud and dreaming bigger.", "projects_count": 1, "devlogs_count": 2, "votes_count": 1, "ships_count": 0, "projects": [{"id": 10343, "title": "\"My Personal Universe\" \u2014 Mood Diary with a Twist", "devlogs_count": 2, "created_at": "2025-08-06T05:13:14.867-04:00"}], "coding_time_seconds": 12489, "coding_time_seconds_today": 0, "balance": "You need to have a pocket watcher badge to view this.", "badges": [], "created_at": "2025-08-06T04:24:24.328-04:00", "updated_at": "2025-08-06T12:25:36.499-04:00", "avatar": "https://avatars.slack-edge.com/2025-08-06/9312188606498_834661296d14eb0f50c8_original.png", "custom_css": null}, {"id": 20739, "slack_id": "U098QBU5B9V", "display_name": "spunky", "bio": null, "projects_count": 0, "devlogs_count": 0, "votes_count": 0, "ships_count": 0, "projects": [], "coding_time_seconds": 0, "coding_time_seconds_today": 0, "balance": "You need to have a pocket watcher badge to view this.", "badges": [], "created_at": "2025-08-06T04:51:01.002-04:00", "updated_at": "2025-08-06T09:51:44.012-04:00", "avatar": "https://secure.gravatar.com/avatar/e073b2506eac260ebfaa7c6ec896c3fc.jpg?s=512&d=https%3A%2F%2Fa.slack-edge.com%2Fdf10d%2Fimg%2Favatars%2Fava_0003-512.png", "custom_css": null}, {"id": 20740, "slack_id": "U099UKN45DW", "display_name": "CS", "bio": null, "projects_count": 0, "devlogs_count": 0, "votes_count": 0, "ships_count": 0, "projects": [], "coding_time_seconds": 1326, "coding_time_seconds_today": 0, "balance": "You need to have a pocket watcher badge to view this.", "badges": [], "created_at": "2025-08-06T04:56:57.675-04:00", "updated_at": "2025-08-06T09:51:44.102-04:00", "avatar": "https://secure.gravatar.com/avatar/7e2c68c0b8f1ce92130be9feab057486.jpg?s=512&d=https%3A%2F%2Fa.slack-edge.com%2Fdf10d%2Fimg%2Favatars%2Fava_0019-512.png", "custom_css": null}, {"id": 20741, "slack_id": "U0991GTQPSS", "display_name": "budgiedaone", "bio": null, "projects_count": 0, "devlogs_count": 0, "votes_count": 0, "ships_count": 0, "projects": [], "coding_time_seconds": 0, "coding_time_seconds_today": 0, "balance": "You need to have a pocket watcher badge to view this.", "badges": [], "created_at": "2025-08-06T05:30:02.316-04:00", "updated_at": "2025-08-06T09:51:44.202-04:00", "avatar": "https://secure.gravatar.com/avatar/ba74171b5ff4327338503bf47c6789df.jpg?s=512&d=https%3A%2F%2Fa.slack-edge.com%2Fdf10d%2Fimg%2Favatars%2Fava_0021-512.png", "custom_css": null}, {"id": 20742, "slack_id": "U099TMYFBT2", "display_name": "Nene", "bio": null, "projects_count": 0, "devlogs_count": 0, "votes_count": 0, "ships_count": 0, "projects": [], "coding_time_seconds": 2580, "coding_time_seconds_today": 0, "balance": "You need to have a pocket watcher badge to view this.", "badges": [], "created_at": "2025-08-06T05:37:15.252-04:00", "updated_at": "2025-08-06T09:51:44.311-04:00", "avatar": "https://secure.gravatar.com/avatar/bdd1d7d622bb05e4f0d72c6d72a7262c.jpg?s=512&d=https%3A%2F%2Fa.slack-edge.com%2Fdf10d%2Fimg%2Favatars%2Fava_0010-512.png", "custom_css": null}, {"id": 20743, "slack_id": "U0993U11WS0", "display_name": "Seforq", "bio": null, "projects_count": 0, "devlogs_count": 0, "votes_count": 0, "ships_count": 0, "projects": [], "coding_time_seconds": 0, "coding_time_seconds_today": 0, "balance": "You need to have a pocket watcher badge to view this.", "badges": [], "created_at": "2025-08-06T05:44:04.165-04:00", "updated_at": "2025-08-06T09:51:44.423-04:00", "avatar": "https://secure.gravatar.com/avatar/f8783106f64f369c784545e3e4c68e2b.jpg?s=512&d=https%3A%2F%2Fa.slack-edge.com%2Fdf10d%2Fimg%2Favatars%2Fava_0003-512.png", "custom_css": null}, {"id": 20744, "slack_id": "U099NQ904V7", "display_name": "zelinah muriuki", "bio": null, "projects_count": 0, "devlogs_count": 0, "votes_count": 0, "ships_count": 0, "projects": [], "coding_time_seconds": 0, "coding_time_seconds_today": 0, "balance": "You need to have a pocket watcher badge to view this.", "badges": [], "created_at": "2025-08-06T05:52:27.476-04:00", "updated_at": "2025-08-06T09:51:44.514-04:00", "avatar": "https://avatars.slack-edge.com/2025-08-06/9328879608385_1dae8f202550d81e93c0_original.jpg", "custom_css": null}, {"id": 20745, "slack_id": "U0996P1U6M8", "display_name": "Yen", "bio": null, "projects_count": 0, "devlogs_count": 0, "votes_count": 0, "ships_count": 0, "projects": [], "coding_time_seconds": 0, "coding_time_seconds_today": 0, "balance": "You need to have a pocket watcher badge to view this.", "badges": [], "created_at": "2025-08-06T06:14:18.904-04:00", "updated_at": "2025-08-06T09:51:44.606-04:00", "avatar": "https://secure.gravatar.com/avatar/c424137d6f375df982d2034690459737.jpg?s=512&d=https%3A%2F%2Fa.slack-edge.com%2Fdf10d%2Fimg%2Favatars%2Fava_0006-512.png", "custom_css": null}], "pagination": {"page": 1033, "pages": 1192, "count": 23828, "items": 20}}