{"users": [{"id": 20746, "slack_id": "U0997C2JH2N", "display_name": "Edw", "bio": null, "projects_count": 0, "devlogs_count": 0, "votes_count": 0, "ships_count": 0, "projects": [], "coding_time_seconds": 0, "coding_time_seconds_today": 0, "balance": "You need to have a pocket watcher badge to view this.", "badges": [], "created_at": "2025-08-06T08:30:29.624-04:00", "updated_at": "2025-08-06T09:51:44.712-04:00", "avatar": "https://secure.gravatar.com/avatar/eb762d04630b5986256b9aac24dc0a4b.jpg?s=512&d=https%3A%2F%2Fa.slack-edge.com%2Fdf10d%2Fimg%2Favatars%2Fava_0017-512.png", "custom_css": null}, {"id": 20747, "slack_id": "U0995SLEJMB", "display_name": "Leland White", "bio": null, "projects_count": 0, "devlogs_count": 0, "votes_count": 0, "ships_count": 0, "projects": [], "coding_time_seconds": 0, "coding_time_seconds_today": 0, "balance": "You need to have a pocket watcher badge to view this.", "badges": [], "created_at": "2025-08-06T08:36:57.326-04:00", "updated_at": "2025-08-06T09:51:44.800-04:00", "avatar": "https://secure.gravatar.com/avatar/0df9113ccea8ce86d39e2d1e230f7fcf.jpg?s=512&d=https%3A%2F%2Fa.slack-edge.com%2Fdf10d%2Fimg%2Favatars%2Fava_0004-512.png", "custom_css": null}, {"id": 20748, "slack_id": "U09960GSNJZ", "display_name": "Apinya Sangkasunya", "bio": null, "projects_count": 0, "devlogs_count": 0, "votes_count": 0, "ships_count": 0, "projects": [], "coding_time_seconds": 0, "coding_time_seconds_today": 0, "balance": "You need to have a pocket watcher badge to view this.", "badges": [], "created_at": "2025-08-06T08:50:40.382-04:00", "updated_at": "2025-08-06T09:51:44.878-04:00", "avatar": "https://avatars.slack-edge.com/2025-08-06/9315522578692_e5caa47ec39d7cb04d23_original.jpg", "custom_css": null}, {"id": 20749, "slack_id": "U08AAP9QUCS", "display_name": "Raiyan Islam", "bio": null, "projects_count": 0, "devlogs_count": 0, "votes_count": 0, "ships_count": 0, "projects": [], "coding_time_seconds": 274426, "coding_time_seconds_today": 0, "balance": "You need to have a pocket watcher badge to view this.", "badges": [], "created_at": "2025-08-06T09:10:02.197-04:00", "updated_at": "2025-08-11T19:27:07.784-04:00", "avatar": "https://secure.gravatar.com/avatar/ccc8e518f72aacef57ca976b1253434f.jpg?s=512&d=https%3A%2F%2Fa.slack-edge.com%2Fdf10d%2Fimg%2Favatars%2Fava_0009-512.png", "custom_css": null}, {"id": 20750, "slack_id": "U099VTUPWSC", "display_name": "Palchhin Chaudhary", "bio": null, "projects_count": 0, "devlogs_count": 0, "votes_count": 0, "ships_count": 0, "projects": [], "coding_time_seconds": 0, "coding_time_seconds_today": 0, "balance": "You need to have a pocket watcher badge to view this.", "badges": [], "created_at": "2025-08-06T09:16:30.950-04:00", "updated_at": "2025-08-06T09:51:45.092-04:00", "avatar": "https://secure.gravatar.com/avatar/e99e9aaa98212adde5178b1b6fb96f6d.jpg?s=512&d=https%3A%2F%2Fa.slack-edge.com%2Fdf10d%2Fimg%2Favatars%2Fava_0007-512.png", "custom_css": null}, {"id": 20751, "slack_id": "U099VRZ9VRN", "display_name": "dev-marwan", "bio": null, "projects_count": 0, "devlogs_count": 0, "votes_count": 0, "ships_count": 0, "projects": [], "coding_time_seconds": 0, "coding_time_seconds_today": 0, "balance": "You need to have a pocket watcher badge to view this.", "badges": [], "created_at": "2025-08-06T09:51:50.922-04:00", "updated_at": "2025-08-06T15:51:28.000-04:00", "avatar": "https://secure.gravatar.com/avatar/a2162392c17f63d2a316769e4738ee51.jpg?s=512&d=https%3A%2F%2Fa.slack-edge.com%2Fdf10d%2Fimg%2Favatars%2Fava_0019-512.png", "custom_css": null}, {"id": 20752, "slack_id": "U0994KS38FM", "display_name": "Ray K", "bio": null, "projects_count": 0, "devlogs_count": 0, "votes_count": 0, "ships_count": 0, "projects": [], "coding_time_seconds": 0, "coding_time_seconds_today": 0, "balance": "You need to have a pocket watcher badge to view this.", "badges": [], "created_at": "2025-08-06T10:11:53.668-04:00", "updated_at": "2025-08-06T15:51:28.103-04:00", "avatar": "https://avatars.slack-edge.com/2025-08-06/9312893744437_b122f0ba84c9c44a2bcd_original.png", "custom_css": null}, {"id": 20753, "slack_id": "U0996QP40SZ", "display_name": "Ruqaya AlZamil", "bio": null, "projects_count": 0, "devlogs_count": 0, "votes_count": 0, "ships_count": 0, "projects": [], "coding_time_seconds": 0, "coding_time_seconds_today": 0, "balance": "You need to have a pocket watcher badge to view this.", "badges": [], "created_at": "2025-08-06T10:38:02.679-04:00", "updated_at": "2025-08-06T15:51:28.204-04:00", "avatar": "https://secure.gravatar.com/avatar/94bad3fac1b0c3b78019c0d065fc3195.jpg?s=512&d=https%3A%2F%2Fa.slack-edge.com%2Fdf10d%2Fimg%2Favatars%2Fava_0000-512.png", "custom_css": null}, {"id": 20754, "slack_id": "U098R468GAK", "display_name": "Odina", "bio": null, "projects_count": 0, "devlogs_count": 0, "votes_count": 0, "ships_count": 0, "projects": [], "coding_time_seconds": 0, "coding_time_seconds_today": 0, "balance": "You need to have a pocket watcher badge to view this.", "badges": [], "created_at": "2025-08-06T10:53:42.326-04:00", "updated_at": "2025-08-06T15:51:28.310-04:00", "avatar": "https://secure.gravatar.com/avatar/68f1a093cc8421923ea8607698dee6ea.jpg?s=512&d=https%3A%2F%2Fa.slack-edge.com%2Fdf10d%2Fimg%2Favatars%2Fava_0026-512.png", "custom_css": null}, {"id": 20755, "slack_id": "U099X2R1JJU", "display_name": "Samiksha", "bio": null, "projects_count": 0, "devlogs_count": 0, "votes_count": 0, "ships_count": 0, "projects": [], "coding_time_seconds": 0, "coding_time_seconds_today": 0, "balance": "You need to have a pocket watcher badge to view this.", "badges": [], "created_at": "2025-08-06T11:25:43.244-04:00", "updated_at": "2025-08-06T15:51:28.446-04:00", "avatar": "https://secure.gravatar.com/avatar/93d9bfa0209cb5809a81394786ba398f.jpg?s=512&d=https%3A%2F%2Fa.slack-edge.com%2Fdf10d%2Fimg%2Favatars%2Fava_0017-512.png", "custom_css": null}, {"id": 20756, "slack_id": "U099AR83SH2", "display_name": "Aayan DAS", "bio": null, "projects_count": 0, "devlogs_count": 0, "votes_count": 0, "ships_count": 0, "projects": [], "coding_time_seconds": 0, "coding_time_seconds_today": 0, "balance": "You need to have a pocket watcher badge to view this.", "badges": [], "created_at": "2025-08-06T11:42:54.194-04:00", "updated_at": "2025-08-19T17:00:15.788-04:00", "avatar": "https://secure.gravatar.com/avatar/d5a3f522b2718d49843728608c7e45fc.jpg?s=512&d=https%3A%2F%2Fa.slack-edge.com%2Fdf10d%2Fimg%2Favatars%2Fava_0006-512.png", "custom_css": null}, {"id": 20757, "slack_id": "U0998R785LJ", "display_name": "Yotam Amibar", "bio": null, "projects_count": 0, "devlogs_count": 0, "votes_count": 0, "ships_count": 0, "projects": [], "coding_time_seconds": 2646, "coding_time_seconds_today": 0, "balance": "You need to have a pocket watcher badge to view this.", "badges": [], "created_at": "2025-08-06T11:56:22.814-04:00", "updated_at": "2025-08-06T15:51:28.645-04:00", "avatar": "https://avatars.slack-edge.com/2025-08-06/9337360343504_810ff8ebbebdd4eb5a43_original.jpg", "custom_css": null}, {"id": 20758, "slack_id": "U099X9XKJEL", "display_name": "HayleyReg", "bio": null, "projects_count": 0, "devlogs_count": 0, "votes_count": 0, "ships_count": 0, "projects": [], "coding_time_seconds": 0, "coding_time_seconds_today": 0, "balance": "You need to have a pocket watcher badge to view this.", "badges": [], "created_at": "2025-08-06T11:56:54.263-04:00", "updated_at": "2025-08-06T15:51:28.727-04:00", "avatar": "https://avatars.slack-edge.com/2025-08-06/9337376229984_77a5f56a19b2b30f81a1_original.jpg", "custom_css": null}, {"id": 20759, "slack_id": "U0998SKGA6N", "display_name": "dem9716", "bio": "", "projects_count": 0, "devlogs_count": 0, "votes_count": 0, "ships_count": 0, "projects": [], "coding_time_seconds": 35, "coding_time_seconds_today": 0, "balance": "You need to have a pocket watcher badge to view this.", "badges": [], "created_at": "2025-08-06T12:01:17.225-04:00", "updated_at": "2025-08-06T15:51:28.825-04:00", "avatar": "https://secure.gravatar.com/avatar/538f3d0458e335d113ef0b09f9da6c50.jpg?s=512&d=https%3A%2F%2Fa.slack-edge.com%2Fdf10d%2Fimg%2Favatars%2Fava_0024-512.png", "custom_css": null}, {"id": 20760, "slack_id": "U099766DB0D", "display_name": "Chelsea", "bio": null, "projects_count": 0, "devlogs_count": 0, "votes_count": 0, "ships_count": 0, "projects": [], "coding_time_seconds": 0, "coding_time_seconds_today": 0, "balance": "You need to have a pocket watcher badge to view this.", "badges": [], "created_at": "2025-08-06T12:15:18.300-04:00", "updated_at": "2025-08-06T15:51:28.954-04:00", "avatar": "https://avatars.slack-edge.com/2025-08-06/9311665581363_e236063ad6dbea22bcf6_original.png", "custom_css": null}, {"id": 20761, "slack_id": "U099RATS2G1", "display_name": "Rokia Tamer", "bio": null, "projects_count": 0, "devlogs_count": 0, "votes_count": 0, "ships_count": 0, "projects": [], "coding_time_seconds": 0, "coding_time_seconds_today": 0, "balance": "You need to have a pocket watcher badge to view this.", "badges": [], "created_at": "2025-08-06T12:20:33.959-04:00", "updated_at": "2025-08-06T15:51:29.047-04:00", "avatar": "https://secure.gravatar.com/avatar/4763b4fe471a80eba3293251bfb912f7.jpg?s=512&d=https%3A%2F%2Fa.slack-edge.com%2Fdf10d%2Fimg%2Favatars%2Fava_0000-512.png", "custom_css": null}, {"id": 20762, "slack_id": "U099959PKJN", "display_name": "Codecooker Mintz", "bio": null, "projects_count": 0, "devlogs_count": 0, "votes_count": 0, "ships_count": 0, "projects": [], "coding_time_seconds": 7662, "coding_time_seconds_today": 0, "balance": "You need to have a pocket watcher badge to view this.", "badges": [], "created_at": "2025-08-06T12:39:55.954-04:00", "updated_at": "2025-08-06T15:51:29.138-04:00", "avatar": "https://secure.gravatar.com/avatar/2b554c3dec67fb4f5b5e42c3c9f6e1b0.jpg?s=512&d=https%3A%2F%2Fa.slack-edge.com%2Fdf10d%2Fimg%2Favatars%2Fava_0004-512.png", "custom_css": null}, {"id": 20763, "slack_id": "U09995SH8P4", "display_name": "Annabelle Snyder", "bio": null, "projects_count": 0, "devlogs_count": 0, "votes_count": 0, "ships_count": 0, "projects": [], "coding_time_seconds": 0, "coding_time_seconds_today": 0, "balance": "You need to have a pocket watcher badge to view this.", "badges": [], "created_at": "2025-08-06T12:42:13.450-04:00", "updated_at": "2025-08-06T15:51:29.225-04:00", "avatar": "https://avatars.slack-edge.com/2025-08-06/9337701838960_d827948dcc90c5c93d90_original.jpg", "custom_css": null}, {"id": 20764, "slack_id": "U0997R6FLKX", "display_name": "Tejas", "bio": null, "projects_count": 0, "devlogs_count": 0, "votes_count": 0, "ships_count": 0, "projects": [], "coding_time_seconds": 0, "coding_time_seconds_today": 0, "balance": "You need to have a pocket watcher badge to view this.", "badges": [], "created_at": "2025-08-06T12:50:33.815-04:00", "updated_at": "2025-08-06T15:51:29.316-04:00", "avatar": "https://secure.gravatar.com/avatar/411af30b30d6783ac1d89aaddc192683.jpg?s=512&d=https%3A%2F%2Fa.slack-edge.com%2Fdf10d%2Fimg%2Favatars%2Fava_0019-512.png", "custom_css": null}, {"id": 20765, "slack_id": "U096GKK50AZ", "display_name": "patrick", "bio": null, "projects_count": 1, "devlogs_count": 1, "votes_count": 1, "ships_count": 1, "projects": [{"id": 10381, "title": "Youtube Short Generator", "devlogs_count": 1, "created_at": "2025-08-06T13:07:31.094-04:00"}], "coding_time_seconds": 43975, "coding_time_seconds_today": 0, "balance": "You need to have a pocket watcher badge to view this.", "badges": [], "created_at": "2025-08-06T12:53:19.879-04:00", "updated_at": "2025-08-06T19:22:09.483-04:00", "avatar": "https://secure.gravatar.com/avatar/78893789b80bd521145847dca1da19a2.jpg?s=512&d=https%3A%2F%2Fa.slack-edge.com%2Fdf10d%2Fimg%2Favatars%2Fava_0003-512.png", "custom_css": null}], "pagination": {"page": 1034, "pages": 1192, "count": 23828, "items": 20}}