{"users": [{"id": 20766, "slack_id": "U099B94JU1J", "display_name": "juniper", "bio": null, "projects_count": 0, "devlogs_count": 0, "votes_count": 0, "ships_count": 0, "projects": [], "coding_time_seconds": 784, "coding_time_seconds_today": 0, "balance": "You need to have a pocket watcher badge to view this.", "badges": [], "created_at": "2025-08-06T12:57:08.328-04:00", "updated_at": "2025-08-06T15:51:29.487-04:00", "avatar": "https://secure.gravatar.com/avatar/523e4460237f1494cd11fe4f540547f5.jpg?s=512&d=https%3A%2F%2Fa.slack-edge.com%2Fdf10d%2Fimg%2Favatars%2Fava_0017-512.png", "custom_css": null}, {"id": 20767, "slack_id": "U099602FT5Z", "display_name": "Manasi", "bio": null, "projects_count": 0, "devlogs_count": 0, "votes_count": 0, "ships_count": 0, "projects": [], "coding_time_seconds": 0, "coding_time_seconds_today": 0, "balance": "You need to have a pocket watcher badge to view this.", "badges": [], "created_at": "2025-08-06T13:05:25.645-04:00", "updated_at": "2025-08-06T15:51:29.596-04:00", "avatar": "https://secure.gravatar.com/avatar/f72b04703df210a7cc2e196256e9add2.jpg?s=512&d=https%3A%2F%2Fa.slack-edge.com%2Fdf10d%2Fimg%2Favatars%2Fava_0011-512.png", "custom_css": null}, {"id": 20768, "slack_id": "U099812SF8V", "display_name": "luca kilum", "bio": null, "projects_count": 0, "devlogs_count": 0, "votes_count": 0, "ships_count": 0, "projects": [], "coding_time_seconds": 0, "coding_time_seconds_today": 0, "balance": "You need to have a pocket watcher badge to view this.", "badges": [], "created_at": "2025-08-06T13:16:08.289-04:00", "updated_at": "2025-08-06T15:51:29.697-04:00", "avatar": "https://secure.gravatar.com/avatar/4bf2d333ad14dbfbe33c6df93be64c9b.jpg?s=512&d=https%3A%2F%2Fa.slack-edge.com%2Fdf10d%2Fimg%2Favatars%2Fava_0012-512.png", "custom_css": null}, {"id": 20769, "slack_id": "U099XT9RDDE", "display_name": "diego", "bio": null, "projects_count": 1, "devlogs_count": 2, "votes_count": 13, "ships_count": 0, "projects": [{"id": 10385, "title": "Productivity Tracker", "devlogs_count": 2, "created_at": "2025-08-06T13:38:32.744-04:00"}], "coding_time_seconds": 125337, "coding_time_seconds_today": 0, "balance": "You need to have a pocket watcher badge to view this.", "badges": [], "created_at": "2025-08-06T13:17:19.215-04:00", "updated_at": "2025-08-06T15:51:29.799-04:00", "avatar": "https://secure.gravatar.com/avatar/9b6827de2ec215f2a70753f879524189.jpg?s=512&d=https%3A%2F%2Fa.slack-edge.com%2Fdf10d%2Fimg%2Favatars%2Fava_0023-512.png", "custom_css": null}, {"id": 20770, "slack_id": "U099XU47F7A", "display_name": "Neeraj", "bio": null, "projects_count": 0, "devlogs_count": 0, "votes_count": 0, "ships_count": 0, "projects": [], "coding_time_seconds": 0, "coding_time_seconds_today": 0, "balance": "You need to have a pocket watcher badge to view this.", "badges": [], "created_at": "2025-08-06T13:27:46.025-04:00", "updated_at": "2025-08-10T02:27:29.617-04:00", "avatar": "https://secure.gravatar.com/avatar/89a61b1bc8d6a9d11c29b0c3914c36be.jpg?s=512&d=https%3A%2F%2Fa.slack-edge.com%2Fdf10d%2Fimg%2Favatars%2Fava_0015-512.png", "custom_css": null}, {"id": 20771, "slack_id": "U07AMTW2FU7", "display_name": "Towster", "bio": null, "projects_count": 2, "devlogs_count": 4, "votes_count": 2, "ships_count": 0, "projects": [{"id": 10661, "title": "My FTC Robotics Website [8097 Botcats]", "devlogs_count": 3, "created_at": "2025-08-09T11:24:17.776-04:00"}, {"id": 11491, "title": "Running USACO Locally", "devlogs_count": 1, "created_at": "2025-08-16T10:18:38.584-04:00"}], "coding_time_seconds": 144901, "coding_time_seconds_today": 0, "balance": "You need to have a pocket watcher badge to view this.", "badges": [], "created_at": "2025-08-06T13:47:37.860-04:00", "updated_at": "2025-08-08T10:21:06.675-04:00", "avatar": "https://avatars.slack-edge.com/2025-01-08/8271322225940_6a0cba77f70a5b924c01_original.png", "custom_css": null}, {"id": 20772, "slack_id": "U0999KJBPSN", "display_name": "Aswin", "bio": null, "projects_count": 0, "devlogs_count": 0, "votes_count": 0, "ships_count": 0, "projects": [], "coding_time_seconds": 0, "coding_time_seconds_today": 0, "balance": "You need to have a pocket watcher badge to view this.", "badges": [], "created_at": "2025-08-06T13:54:15.731-04:00", "updated_at": "2025-08-06T15:51:30.077-04:00", "avatar": "https://secure.gravatar.com/avatar/d73b623600e1295667a71697618d6753.jpg?s=512&d=https%3A%2F%2Fa.slack-edge.com%2Fdf10d%2Fimg%2Favatars%2Fava_0007-512.png", "custom_css": null}, {"id": 20773, "slack_id": "U099BSPAE84", "display_name": "luca kilum", "bio": null, "projects_count": 0, "devlogs_count": 0, "votes_count": 0, "ships_count": 0, "projects": [], "coding_time_seconds": 0, "coding_time_seconds_today": 0, "balance": "You need to have a pocket watcher badge to view this.", "badges": [], "created_at": "2025-08-06T14:02:01.471-04:00", "updated_at": "2025-08-06T15:51:30.161-04:00", "avatar": "https://avatars.slack-edge.com/2025-08-06/9317949358900_8bc63d8ad3e18061a782_original.png", "custom_css": null}, {"id": 20774, "slack_id": "U08SGS6FGG4", "display_name": "Shain", "bio": null, "projects_count": 0, "devlogs_count": 16, "votes_count": 40, "ships_count": 0, "projects": [], "coding_time_seconds": 160291, "coding_time_seconds_today": 0, "balance": "You need to have a pocket watcher badge to view this.", "badges": [], "created_at": "2025-08-06T14:23:17.590-04:00", "updated_at": "2025-08-31T02:04:31.023-04:00", "avatar": "https://secure.gravatar.com/avatar/02f728ef042609582b342a31d924a88c.jpg?s=512&d=https%3A%2F%2Fa.slack-edge.com%2Fdf10d%2Fimg%2Favatars%2Fava_0021-512.png", "custom_css": null}, {"id": 20775, "slack_id": "U099S55V1U1", "display_name": "Leland", "bio": null, "projects_count": 1, "devlogs_count": 0, "votes_count": 0, "ships_count": 0, "projects": [{"id": 10393, "title": "MindRest", "devlogs_count": 0, "created_at": "2025-08-06T14:42:32.121-04:00"}], "coding_time_seconds": 42648, "coding_time_seconds_today": 656, "balance": "You need to have a pocket watcher badge to view this.", "badges": [], "created_at": "2025-08-06T14:26:17.515-04:00", "updated_at": "2025-08-08T01:10:02.197-04:00", "avatar": "https://secure.gravatar.com/avatar/a51ca16ce7f5bc6724eaf5cb94d93c36.jpg?s=512&d=https%3A%2F%2Fa.slack-edge.com%2Fdf10d%2Fimg%2Favatars%2Fava_0023-512.png", "custom_css": null}, {"id": 20776, "slack_id": "U099C41RRU4", "display_name": "Pranjali Sanwal", "bio": null, "projects_count": 0, "devlogs_count": 0, "votes_count": 0, "ships_count": 0, "projects": [], "coding_time_seconds": 0, "coding_time_seconds_today": 0, "balance": "You need to have a pocket watcher badge to view this.", "badges": [], "created_at": "2025-08-06T14:33:28.403-04:00", "updated_at": "2025-08-06T15:51:34.501-04:00", "avatar": "https://secure.gravatar.com/avatar/ef0d6b40a2277876eb314f5c0ddeb177.jpg?s=512&d=https%3A%2F%2Fa.slack-edge.com%2Fdf10d%2Fimg%2Favatars%2Fava_0022-512.png", "custom_css": null}, {"id": 20777, "slack_id": "U099YJKMSD6", "display_name": "Yuvraj Singh", "bio": null, "projects_count": 0, "devlogs_count": 0, "votes_count": 0, "ships_count": 0, "projects": [], "coding_time_seconds": 0, "coding_time_seconds_today": 0, "balance": "You need to have a pocket watcher badge to view this.", "badges": [], "created_at": "2025-08-06T15:11:29.296-04:00", "updated_at": "2025-09-05T14:41:10.580-04:00", "avatar": "https://secure.gravatar.com/avatar/bb926e15acf4a7af1e1ecd09a865ffab.jpg?s=512&d=https%3A%2F%2Fa.slack-edge.com%2Fdf10d%2Fimg%2Favatars%2Fava_0000-512.png", "custom_css": null}, {"id": 20778, "slack_id": "U099CEB2884", "display_name": "Joshlynn", "bio": null, "projects_count": 0, "devlogs_count": 0, "votes_count": 0, "ships_count": 0, "projects": [], "coding_time_seconds": 0, "coding_time_seconds_today": 0, "balance": "You need to have a pocket watcher badge to view this.", "badges": [], "created_at": "2025-08-06T15:32:42.606-04:00", "updated_at": "2025-08-06T15:51:34.687-04:00", "avatar": "https://secure.gravatar.com/avatar/abfeb1c034362636e06292157d34ee35.jpg?s=512&d=https%3A%2F%2Fa.slack-edge.com%2Fdf10d%2Fimg%2Favatars%2Fava_0001-512.png", "custom_css": null}, {"id": 20779, "slack_id": "U0996FE2JN9", "display_name": "Mili Nakarmi", "bio": null, "projects_count": 0, "devlogs_count": 0, "votes_count": 0, "ships_count": 0, "projects": [], "coding_time_seconds": 0, "coding_time_seconds_today": 0, "balance": "You need to have a pocket watcher badge to view this.", "badges": [], "created_at": "2025-08-06T15:43:30.100-04:00", "updated_at": "2025-08-07T16:37:29.294-04:00", "avatar": "https://secure.gravatar.com/avatar/87cf3cddd6e12fdd49ca020b9e7b65e8.jpg?s=512&d=https%3A%2F%2Fa.slack-edge.com%2Fdf10d%2Fimg%2Favatars%2Fava_0006-512.png", "custom_css": null}, {"id": 20780, "slack_id": "U07B24C1ENB", "display_name": "Selven", "bio": null, "projects_count": 0, "devlogs_count": 0, "votes_count": 0, "ships_count": 0, "projects": [], "coding_time_seconds": 0, "coding_time_seconds_today": 0, "balance": "You need to have a pocket watcher badge to view this.", "badges": [], "created_at": "2025-08-06T15:43:37.074-04:00", "updated_at": "2025-08-08T02:28:00.424-04:00", "avatar": "https://avatars.slack-edge.com/2024-08-01/7501527878295_810e3340e1ce983edfea_original.jpg", "custom_css": null}, {"id": 20781, "slack_id": "U08SM0L4BR9", "display_name": "Shaoming Wu", "bio": "", "projects_count": 0, "devlogs_count": 0, "votes_count": 0, "ships_count": 0, "projects": [], "coding_time_seconds": 65676, "coding_time_seconds_today": 0, "balance": "You need to have a pocket watcher badge to view this.", "badges": [], "created_at": "2025-08-06T16:04:54.945-04:00", "updated_at": "2025-09-09T01:30:01.091-04:00", "avatar": "https://secure.gravatar.com/avatar/ee061bb46b52966fc6e4e3084426eb0c.jpg?s=512&d=https%3A%2F%2Fa.slack-edge.com%2Fdf10d%2Fimg%2Favatars%2Fava_0007-512.png", "custom_css": null}, {"id": 20782, "slack_id": "U099CNW458C", "display_name": "Vinayak V S", "bio": null, "projects_count": 0, "devlogs_count": 0, "votes_count": 0, "ships_count": 0, "projects": [], "coding_time_seconds": 20402, "coding_time_seconds_today": 0, "balance": "You need to have a pocket watcher badge to view this.", "badges": [], "created_at": "2025-08-06T16:08:54.816-04:00", "updated_at": "2025-08-06T21:51:12.309-04:00", "avatar": "https://avatars.slack-edge.com/2025-08-06/9315163716933_29d40c5f9ba516f7ea7d_original.jpg", "custom_css": null}, {"id": 20783, "slack_id": "U09995W2UG5", "display_name": "NEEMA KOIYAN", "bio": null, "projects_count": 0, "devlogs_count": 0, "votes_count": 0, "ships_count": 0, "projects": [], "coding_time_seconds": 108411, "coding_time_seconds_today": 0, "balance": "You need to have a pocket watcher badge to view this.", "badges": [], "created_at": "2025-08-06T16:18:21.594-04:00", "updated_at": "2025-08-20T02:06:03.365-04:00", "avatar": "https://secure.gravatar.com/avatar/8ddd45b90806788c4c30f7c9f91424a9.jpg?s=512&d=https%3A%2F%2Fa.slack-edge.com%2Fdf10d%2Fimg%2Favatars%2Fava_0024-512.png", "custom_css": null}, {"id": 20784, "slack_id": "U09999V7D8D", "display_name": "Jia", "bio": null, "projects_count": 0, "devlogs_count": 0, "votes_count": 0, "ships_count": 0, "projects": [], "coding_time_seconds": 0, "coding_time_seconds_today": 0, "balance": "You need to have a pocket watcher badge to view this.", "badges": [], "created_at": "2025-08-06T16:41:59.761-04:00", "updated_at": "2025-08-06T21:51:12.510-04:00", "avatar": "https://secure.gravatar.com/avatar/7634ce0d09afbcf2b4b3548ce1f98915.jpg?s=512&d=https%3A%2F%2Fa.slack-edge.com%2Fdf10d%2Fimg%2Favatars%2Fava_0023-512.png", "custom_css": null}, {"id": 20785, "slack_id": "U099AKTTL7L", "display_name": "Felix", "bio": null, "projects_count": 0, "devlogs_count": 0, "votes_count": 0, "ships_count": 0, "projects": [], "coding_time_seconds": 0, "coding_time_seconds_today": 0, "balance": "You need to have a pocket watcher badge to view this.", "badges": [], "created_at": "2025-08-06T16:48:35.793-04:00", "updated_at": "2025-08-06T21:51:16.618-04:00", "avatar": "https://secure.gravatar.com/avatar/7c78ac9e310d045566123b051d59eebd.jpg?s=512&d=https%3A%2F%2Fa.slack-edge.com%2Fdf10d%2Fimg%2Favatars%2Fava_0008-512.png", "custom_css": null}], "pagination": {"page": 1035, "pages": 1192, "count": 23828, "items": 20}}