{"users": [{"id": 20806, "slack_id": "U099AL5Q1NZ", "display_name": "Rook Hardison Faver", "bio": null, "projects_count": 0, "devlogs_count": 0, "votes_count": 0, "ships_count": 0, "projects": [], "coding_time_seconds": 0, "coding_time_seconds_today": 0, "balance": "You need to have a pocket watcher badge to view this.", "badges": [], "created_at": "2025-08-06T23:29:06.505-04:00", "updated_at": "2025-08-07T03:52:10.792-04:00", "avatar": "https://secure.gravatar.com/avatar/4eecc31148d6651010c9808e9e4a2261.jpg?s=512&d=https%3A%2F%2Fa.slack-edge.com%2Fdf10d%2Fimg%2Favatars%2Fava_0005-512.png", "custom_css": null}, {"id": 20807, "slack_id": "U099EAW5692", "display_name": "Kae", "bio": null, "projects_count": 1, "devlogs_count": 0, "votes_count": 0, "ships_count": 0, "projects": [{"id": 10443, "title": "Pacemaker", "devlogs_count": 0, "created_at": "2025-08-07T02:42:02.304-04:00"}], "coding_time_seconds": 319686, "coding_time_seconds_today": 0, "balance": "You need to have a pocket watcher badge to view this.", "badges": [], "created_at": "2025-08-06T23:36:09.915-04:00", "updated_at": "2025-08-08T03:51:43.550-04:00", "avatar": "https://avatars.slack-edge.com/2025-08-07/9307369909255_5c65e6121673430a5c15_original.png", "custom_css": null}, {"id": 20808, "slack_id": "U098TUYS479", "display_name": "William Daniel", "bio": null, "projects_count": 0, "devlogs_count": 0, "votes_count": 0, "ships_count": 0, "projects": [], "coding_time_seconds": 0, "coding_time_seconds_today": 0, "balance": "You need to have a pocket watcher badge to view this.", "badges": [], "created_at": "2025-08-06T23:47:52.610-04:00", "updated_at": "2025-08-08T03:51:43.642-04:00", "avatar": "https://avatars.slack-edge.com/2025-08-07/9304701428151_8d7536d8623db7c94724_original.png", "custom_css": null}, {"id": 20809, "slack_id": "U09963LCBB7", "display_name": "SPIDEYIRAJ MOVIE STORE", "bio": null, "projects_count": 0, "devlogs_count": 0, "votes_count": 0, "ships_count": 0, "projects": [], "coding_time_seconds": 0, "coding_time_seconds_today": 0, "balance": "You need to have a pocket watcher badge to view this.", "badges": [], "created_at": "2025-08-07T00:02:27.022-04:00", "updated_at": "2025-08-07T03:52:11.088-04:00", "avatar": "https://avatars.slack-edge.com/2025-08-06/9320511519124_6367cc4e3cdea7517a5f_original.png", "custom_css": null}, {"id": 20810, "slack_id": "U081P8JKX7Z", "display_name": "Sasandara Dilmina", "bio": null, "projects_count": 1, "devlogs_count": 0, "votes_count": 1, "ships_count": 0, "projects": [{"id": 10742, "title": "HackSpark Hackathons Official Website", "devlogs_count": 0, "created_at": "2025-08-10T09:59:58.371-04:00"}], "coding_time_seconds": 12110, "coding_time_seconds_today": 0, "balance": "You need to have a pocket watcher badge to view this.", "badges": [], "created_at": "2025-08-07T00:38:50.029-04:00", "updated_at": "2025-08-10T09:52:15.020-04:00", "avatar": "https://avatars.slack-edge.com/2024-11-23/8074220107539_bc4ef266aa08233ac28f_original.jpg", "custom_css": null}, {"id": 20811, "slack_id": "U0998D3Q9GT", "display_name": "Lilikoi", "bio": null, "projects_count": 0, "devlogs_count": 0, "votes_count": 0, "ships_count": 0, "projects": [], "coding_time_seconds": 1944, "coding_time_seconds_today": 0, "balance": "You need to have a pocket watcher badge to view this.", "badges": [], "created_at": "2025-08-07T00:43:42.342-04:00", "updated_at": "2025-08-07T14:06:53.785-04:00", "avatar": "https://secure.gravatar.com/avatar/d1a256100b31bd589cc4e13fbd1874d6.jpg?s=512&d=https%3A%2F%2Fa.slack-edge.com%2Fdf10d%2Fimg%2Favatars%2Fava_0019-512.png", "custom_css": null}, {"id": 20812, "slack_id": "U0995UZTQ2J", "display_name": "Prajjwal Dey", "bio": null, "projects_count": 0, "devlogs_count": 0, "votes_count": 0, "ships_count": 0, "projects": [], "coding_time_seconds": 0, "coding_time_seconds_today": 0, "balance": "You need to have a pocket watcher badge to view this.", "badges": [], "created_at": "2025-08-07T00:48:09.214-04:00", "updated_at": "2025-08-07T03:52:15.412-04:00", "avatar": "https://avatars.slack-edge.com/2025-08-06/9320652832084_e523d90ac77926650b7d_original.jpg", "custom_css": null}, {"id": 20813, "slack_id": "U098UBTPWGP", "display_name": "Muhammad Ameen -ur-Rehman", "bio": null, "projects_count": 0, "devlogs_count": 0, "votes_count": 0, "ships_count": 0, "projects": [], "coding_time_seconds": 0, "coding_time_seconds_today": 0, "balance": "You need to have a pocket watcher badge to view this.", "badges": [], "created_at": "2025-08-07T01:07:58.714-04:00", "updated_at": "2025-08-07T03:52:15.511-04:00", "avatar": "https://secure.gravatar.com/avatar/de65a3a924243e64a0edc963d6ef7c49.jpg?s=512&d=https%3A%2F%2Fa.slack-edge.com%2Fdf10d%2Fimg%2Favatars%2Fava_0002-512.png", "custom_css": null}, {"id": 20814, "slack_id": "U0998E0AFFD", "display_name": "Evan Plant (ConsciousBone)", "bio": null, "projects_count": 0, "devlogs_count": 0, "votes_count": 0, "ships_count": 0, "projects": [], "coding_time_seconds": 2496, "coding_time_seconds_today": 0, "balance": "You need to have a pocket watcher badge to view this.", "badges": [], "created_at": "2025-08-07T01:10:18.799-04:00", "updated_at": "2025-08-07T03:52:15.632-04:00", "avatar": "https://avatars.slack-edge.com/2025-08-06/9300477944615_3fe7f0c71effd05c4db5_original.png", "custom_css": null}, {"id": 20815, "slack_id": "U099665PNPQ", "display_name": "Thomas", "bio": null, "projects_count": 0, "devlogs_count": 0, "votes_count": 0, "ships_count": 0, "projects": [], "coding_time_seconds": 0, "coding_time_seconds_today": 0, "balance": "You need to have a pocket watcher badge to view this.", "badges": [], "created_at": "2025-08-07T01:24:47.996-04:00", "updated_at": "2025-08-07T15:24:29.399-04:00", "avatar": "https://secure.gravatar.com/avatar/d62ccab1f2fb7fa2c91303d2925bbbd5.jpg?s=512&d=https%3A%2F%2Fa.slack-edge.com%2Fdf10d%2Fimg%2Favatars%2Fava_0017-512.png", "custom_css": null}, {"id": 20816, "slack_id": "U096DPQ66RM", "display_name": "Yeison Betancur", "bio": null, "projects_count": 0, "devlogs_count": 0, "votes_count": 0, "ships_count": 0, "projects": [], "coding_time_seconds": 0, "coding_time_seconds_today": 0, "balance": "You need to have a pocket watcher badge to view this.", "badges": [], "created_at": "2025-08-07T01:31:33.328-04:00", "updated_at": "2025-08-07T03:52:15.819-04:00", "avatar": "https://avatars.slack-edge.com/2025-08-06/9317024169813_af917a12b33561350aeb_original.jpg", "custom_css": null}, {"id": 20817, "slack_id": "U09969M1JQ6", "display_name": "Avanthika", "bio": null, "projects_count": 0, "devlogs_count": 0, "votes_count": 0, "ships_count": 0, "projects": [], "coding_time_seconds": 0, "coding_time_seconds_today": 0, "balance": "You need to have a pocket watcher badge to view this.", "badges": [], "created_at": "2025-08-07T01:42:17.350-04:00", "updated_at": "2025-08-07T03:52:15.905-04:00", "avatar": "https://secure.gravatar.com/avatar/c5766427583469b6f3c122207612ba54.jpg?s=512&d=https%3A%2F%2Fa.slack-edge.com%2Fdf10d%2Fimg%2Favatars%2Fava_0010-512.png", "custom_css": null}, {"id": 20818, "slack_id": "U0996A9MM8E", "display_name": "Ruiee", "bio": null, "projects_count": 0, "devlogs_count": 0, "votes_count": 0, "ships_count": 0, "projects": [], "coding_time_seconds": 0, "coding_time_seconds_today": 0, "balance": "You need to have a pocket watcher badge to view this.", "badges": [], "created_at": "2025-08-07T01:46:29.132-04:00", "updated_at": "2025-08-07T03:52:16.005-04:00", "avatar": "https://avatars.slack-edge.com/2025-08-06/9300693897319_4ad5172f6aaf3624d8ea_original.png", "custom_css": null}, {"id": 20819, "slack_id": "U0996BE89SS", "display_name": "helpmeidkwhattodo", "bio": null, "projects_count": 0, "devlogs_count": 0, "votes_count": 0, "ships_count": 0, "projects": [], "coding_time_seconds": 0, "coding_time_seconds_today": 0, "balance": "You need to have a pocket watcher badge to view this.", "badges": [], "created_at": "2025-08-07T01:58:54.126-04:00", "updated_at": "2025-08-07T03:52:16.096-04:00", "avatar": "https://secure.gravatar.com/avatar/1f03cb8567fd6838010678eb6771fb30.jpg?s=512&d=https%3A%2F%2Fa.slack-edge.com%2Fdf10d%2Fimg%2Favatars%2Fava_0003-512.png", "custom_css": null}, {"id": 20820, "slack_id": "U098UM8GJ23", "display_name": "NIYITANGA Eric", "bio": null, "projects_count": 0, "devlogs_count": 0, "votes_count": 0, "ships_count": 0, "projects": [], "coding_time_seconds": 0, "coding_time_seconds_today": 0, "balance": "You need to have a pocket watcher badge to view this.", "badges": [], "created_at": "2025-08-07T02:02:21.867-04:00", "updated_at": "2025-08-08T03:51:52.668-04:00", "avatar": "https://avatars.slack-edge.com/2025-08-07/9320404865778_6a31096dbf3d1f58ffc1_original.jpg", "custom_css": null}, {"id": 20821, "slack_id": "U07P3BFMLBT", "display_name": "Daniel Li", "bio": null, "projects_count": 0, "devlogs_count": 0, "votes_count": 0, "ships_count": 0, "projects": [], "coding_time_seconds": 0, "coding_time_seconds_today": 0, "balance": "You need to have a pocket watcher badge to view this.", "badges": [], "created_at": "2025-08-07T02:31:03.129-04:00", "updated_at": "2025-08-09T15:34:41.926-04:00", "avatar": "https://avatars.slack-edge.com/2024-09-23/7769846643925_22a50cd998e293d891b3_original.png", "custom_css": null}, {"id": 20822, "slack_id": "U09A1DATDJL", "display_name": "Priyanshu Kandari", "bio": null, "projects_count": 1, "devlogs_count": 0, "votes_count": 0, "ships_count": 0, "projects": [{"id": 10445, "title": "\ud83d\udeaa \u201cThe Door of Destiny\u201d \u2014 My First Step into Web Dev! \ud83c\udf10", "devlogs_count": 0, "created_at": "2025-08-07T03:30:37.343-04:00"}], "coding_time_seconds": 203244, "coding_time_seconds_today": 0, "balance": "You need to have a pocket watcher badge to view this.", "badges": [], "created_at": "2025-08-07T02:56:30.113-04:00", "updated_at": "2025-08-09T23:20:58.295-04:00", "avatar": "https://secure.gravatar.com/avatar/9a137e12ac75b46edcfe6aa4bb9fc8ad.jpg?s=512&d=https%3A%2F%2Fa.slack-edge.com%2Fdf10d%2Fimg%2Favatars%2Fava_0024-512.png", "custom_css": null}, {"id": 20823, "slack_id": "U097LLJQ944", "display_name": "lorine", "bio": null, "projects_count": 0, "devlogs_count": 0, "votes_count": 0, "ships_count": 0, "projects": [], "coding_time_seconds": 0, "coding_time_seconds_today": 0, "balance": "You need to have a pocket watcher badge to view this.", "badges": [], "created_at": "2025-08-07T03:00:32.450-04:00", "updated_at": "2025-08-07T03:52:16.457-04:00", "avatar": "https://secure.gravatar.com/avatar/abf6037e41a07ea5d93345c01cef171e.jpg?s=512&d=https%3A%2F%2Fa.slack-edge.com%2Fdf10d%2Fimg%2Favatars%2Fava_0020-512.png", "custom_css": null}, {"id": 20824, "slack_id": "U099BDG3VFX", "display_name": "L.P.Thedaswin Kethaka", "bio": null, "projects_count": 0, "devlogs_count": 0, "votes_count": 0, "ships_count": 0, "projects": [], "coding_time_seconds": 0, "coding_time_seconds_today": 0, "balance": "You need to have a pocket watcher badge to view this.", "badges": [], "created_at": "2025-08-07T03:38:23.188-04:00", "updated_at": "2025-08-07T21:55:13.426-04:00", "avatar": "https://secure.gravatar.com/avatar/c61ba5da3f55a69a4b88b86be1617a21.jpg?s=512&d=https%3A%2F%2Fa.slack-edge.com%2Fdf10d%2Fimg%2Favatars%2Fava_0024-512.png", "custom_css": null}, {"id": 20825, "slack_id": "U09A1N273FA", "display_name": "Maaz Kattangere", "bio": null, "projects_count": 0, "devlogs_count": 0, "votes_count": 0, "ships_count": 0, "projects": [], "coding_time_seconds": 146360, "coding_time_seconds_today": 0, "balance": "You need to have a pocket watcher badge to view this.", "badges": [], "created_at": "2025-08-07T03:47:28.585-04:00", "updated_at": "2025-08-07T03:52:16.648-04:00", "avatar": "https://secure.gravatar.com/avatar/71578bdf913ce8ebe2b864823a367421.jpg?s=512&d=https%3A%2F%2Fa.slack-edge.com%2Fdf10d%2Fimg%2Favatars%2Fava_0005-512.png", "custom_css": null}], "pagination": {"page": 1037, "pages": 1192, "count": 23828, "items": 20}}