{"users": [{"id": 20826, "slack_id": "U09A28G6Y4Q", "display_name": "PCIEL", "bio": null, "projects_count": 0, "devlogs_count": 0, "votes_count": 0, "ships_count": 0, "projects": [], "coding_time_seconds": 0, "coding_time_seconds_today": 0, "balance": "You need to have a pocket watcher badge to view this.", "badges": [], "created_at": "2025-08-07T05:12:54.168-04:00", "updated_at": "2025-08-07T09:52:06.989-04:00", "avatar": "https://secure.gravatar.com/avatar/cdd15849a93d94929b465bba2d7edc07.jpg?s=512&d=https%3A%2F%2Fa.slack-edge.com%2Fdf10d%2Fimg%2Favatars%2Fava_0018-512.png", "custom_css": null}, {"id": 20827, "slack_id": "U09A2B4JQ0G", "display_name": "Will Kitch", "bio": "Hi I'm Will (I think...)", "projects_count": 1, "devlogs_count": 6, "votes_count": 14, "ships_count": 1, "projects": [{"id": 10633, "title": "To-do list Project!", "devlogs_count": 3, "created_at": "2025-08-09T06:43:49.262-04:00"}], "coding_time_seconds": 61983, "coding_time_seconds_today": 0, "balance": "You need to have a pocket watcher badge to view this.", "badges": [], "created_at": "2025-08-07T05:27:10.485-04:00", "updated_at": "2025-09-17T19:50:23.102-04:00", "avatar": "https://avatars.slack-edge.com/2025-09-17/9550151594929_ce640effa6943df5a176_original.png", "custom_css": null}, {"id": 20828, "slack_id": "U099CN39JN6", "display_name": "hey", "bio": null, "projects_count": 0, "devlogs_count": 0, "votes_count": 0, "ships_count": 0, "projects": [], "coding_time_seconds": 0, "coding_time_seconds_today": 0, "balance": "You need to have a pocket watcher badge to view this.", "badges": [], "created_at": "2025-08-07T05:43:04.091-04:00", "updated_at": "2025-08-07T09:52:07.186-04:00", "avatar": "https://secure.gravatar.com/avatar/3052984c77c7440cd4edfbdc4ea33635.jpg?s=512&d=https%3A%2F%2Fa.slack-edge.com%2Fdf10d%2Fimg%2Favatars%2Fava_0025-512.png", "custom_css": null}, {"id": 20829, "slack_id": "U09A2JERP0Q", "display_name": "Suraj Kumar Sharma", "bio": null, "projects_count": 3, "devlogs_count": 1, "votes_count": 3, "ships_count": 1, "projects": [{"id": 10543, "title": "Extracurricular Tracker", "devlogs_count": 0, "created_at": "2025-08-08T00:20:40.655-04:00"}, {"id": 10466, "title": "naros", "devlogs_count": 0, "created_at": "2025-08-07T09:19:25.275-04:00"}, {"id": 10464, "title": "My First Website - Nepal", "devlogs_count": 1, "created_at": "2025-08-07T09:17:33.151-04:00"}], "coding_time_seconds": 47989, "coding_time_seconds_today": 0, "balance": "You need to have a pocket watcher badge to view this.", "badges": [], "created_at": "2025-08-07T06:10:24.195-04:00", "updated_at": "2025-08-07T08:50:48.001-04:00", "avatar": "https://secure.gravatar.com/avatar/c5c24192c2cd326160e9849d77a31fe1.jpg?s=512&d=https%3A%2F%2Fa.slack-edge.com%2Fdf10d%2Fimg%2Favatars%2Fava_0006-512.png", "custom_css": null}, {"id": 20830, "slack_id": "U099C4F9YFP", "display_name": "Kay Langley", "bio": null, "projects_count": 0, "devlogs_count": 0, "votes_count": 1, "ships_count": 0, "projects": [], "coding_time_seconds": 85549, "coding_time_seconds_today": 0, "balance": "You need to have a pocket watcher badge to view this.", "badges": [], "created_at": "2025-08-07T06:18:12.042-04:00", "updated_at": "2025-08-07T09:52:07.348-04:00", "avatar": "https://avatars.slack-edge.com/2025-08-07/9318866343730_2170702764046664e149_original.png", "custom_css": null}, {"id": 20831, "slack_id": "U09A2PHRXQQ", "display_name": "gopal", "bio": null, "projects_count": 0, "devlogs_count": 73, "votes_count": 19, "ships_count": 0, "projects": [], "coding_time_seconds": 846107, "coding_time_seconds_today": 0, "balance": "You need to have a pocket watcher badge to view this.", "badges": [], "created_at": "2025-08-07T06:43:02.347-04:00", "updated_at": "2025-08-13T14:57:55.960-04:00", "avatar": "https://secure.gravatar.com/avatar/c0b049741c50a3ffa625e9f454c62c64.jpg?s=512&d=https%3A%2F%2Fa.slack-edge.com%2Fdf10d%2Fimg%2Favatars%2Fava_0020-512.png", "custom_css": null}, {"id": 20832, "slack_id": "U0999415R0W", "display_name": "Suneel", "bio": null, "projects_count": 0, "devlogs_count": 0, "votes_count": 0, "ships_count": 0, "projects": [], "coding_time_seconds": 360, "coding_time_seconds_today": 0, "balance": "You need to have a pocket watcher badge to view this.", "badges": [], "created_at": "2025-08-07T07:40:49.208-04:00", "updated_at": "2025-08-09T03:30:34.293-04:00", "avatar": "https://secure.gravatar.com/avatar/dbccac7e5a49cc372ae581e6b55316aa.jpg?s=512&d=https%3A%2F%2Fa.slack-edge.com%2Fdf10d%2Fimg%2Favatars%2Fava_0009-512.png", "custom_css": null}, {"id": 20833, "slack_id": "U099CE67NCV", "display_name": "pranav veeraghanta", "bio": null, "projects_count": 0, "devlogs_count": 0, "votes_count": 0, "ships_count": 0, "projects": [], "coding_time_seconds": 75141, "coding_time_seconds_today": 0, "balance": "You need to have a pocket watcher badge to view this.", "badges": [], "created_at": "2025-08-07T07:53:39.672-04:00", "updated_at": "2025-08-07T09:52:07.627-04:00", "avatar": "https://avatars.slack-edge.com/2025-08-07/9303444218887_cfe96478a5456a57afdc_original.png", "custom_css": null}, {"id": 20834, "slack_id": "U0768ARN58T", "display_name": "tgum", "bio": null, "projects_count": 0, "devlogs_count": 0, "votes_count": 0, "ships_count": 0, "projects": [], "coding_time_seconds": 0, "coding_time_seconds_today": 0, "balance": "You need to have a pocket watcher badge to view this.", "badges": [], "created_at": "2025-08-07T08:02:47.922-04:00", "updated_at": "2025-08-07T08:11:33.464-04:00", "avatar": "https://avatars.slack-edge.com/2024-06-03/7235312467104_9da0520a01613dbc0a3f_original.png", "custom_css": null}, {"id": 20835, "slack_id": "U0995NMN5FW", "display_name": "Ian Njenga", "bio": null, "projects_count": 0, "devlogs_count": 0, "votes_count": 0, "ships_count": 0, "projects": [], "coding_time_seconds": 0, "coding_time_seconds_today": 0, "balance": "You need to have a pocket watcher badge to view this.", "badges": [], "created_at": "2025-08-07T08:11:59.612-04:00", "updated_at": "2025-08-07T09:52:07.785-04:00", "avatar": "https://secure.gravatar.com/avatar/d335902cf7277a5a2450c27e420ffe91.jpg?s=512&d=https%3A%2F%2Fa.slack-edge.com%2Fdf10d%2Fimg%2Favatars%2Fava_0024-512.png", "custom_css": null}, {"id": 20836, "slack_id": "U07LKN1J4M7", "display_name": "shahd", "bio": null, "projects_count": 0, "devlogs_count": 0, "votes_count": 0, "ships_count": 0, "projects": [], "coding_time_seconds": 615422, "coding_time_seconds_today": 2280, "balance": "You need to have a pocket watcher badge to view this.", "badges": [], "created_at": "2025-08-07T08:13:07.287-04:00", "updated_at": "2025-09-24T13:50:46.463-04:00", "avatar": "https://avatars.slack-edge.com/2025-09-24/9575796816322_ca69effcd302605ebfec_original.png", "custom_css": null}, {"id": 20837, "slack_id": "U099CHN7UGM", "display_name": "anirudh", "bio": null, "projects_count": 0, "devlogs_count": 0, "votes_count": 0, "ships_count": 0, "projects": [], "coding_time_seconds": 0, "coding_time_seconds_today": 0, "balance": "You need to have a pocket watcher badge to view this.", "badges": [], "created_at": "2025-08-07T08:16:21.038-04:00", "updated_at": "2025-08-07T09:52:07.987-04:00", "avatar": "https://secure.gravatar.com/avatar/c315d556d5cf006db5cd70061639ea38.jpg?s=512&d=https%3A%2F%2Fa.slack-edge.com%2Fdf10d%2Fimg%2Favatars%2Fava_0021-512.png", "custom_css": null}, {"id": 20838, "slack_id": "U08SA090W2U", "display_name": "Gabriel Theodoro", "bio": null, "projects_count": 0, "devlogs_count": 0, "votes_count": 0, "ships_count": 0, "projects": [], "coding_time_seconds": 0, "coding_time_seconds_today": 0, "balance": "You need to have a pocket watcher badge to view this.", "badges": [], "created_at": "2025-08-07T08:51:10.186-04:00", "updated_at": "2025-08-07T09:52:08.121-04:00", "avatar": "https://secure.gravatar.com/avatar/3ea50cdaba008497c0c20a5f5ceaf707.jpg?s=512&d=https%3A%2F%2Fa.slack-edge.com%2Fdf10d%2Fimg%2Favatars%2Fava_0018-512.png", "custom_css": null}, {"id": 20839, "slack_id": "U0999ET070T", "display_name": "hedwig.doodles", "bio": null, "projects_count": 1, "devlogs_count": 1, "votes_count": 1, "ships_count": 1, "projects": [{"id": 10619, "title": "Terminal-based calculator", "devlogs_count": 1, "created_at": "2025-08-09T01:59:38.568-04:00"}], "coding_time_seconds": 16598, "coding_time_seconds_today": 836, "balance": "You need to have a pocket watcher badge to view this.", "badges": [], "created_at": "2025-08-07T09:27:10.397-04:00", "updated_at": "2025-09-06T03:28:47.107-04:00", "avatar": "https://avatars.slack-edge.com/2025-08-07/9315516526003_5e6a0f43a798d705beed_original.png", "custom_css": null}, {"id": 20840, "slack_id": "U099H4RGDS8", "display_name": "Gargi Joshi", "bio": null, "projects_count": 0, "devlogs_count": 0, "votes_count": 0, "ships_count": 0, "projects": [], "coding_time_seconds": 0, "coding_time_seconds_today": 0, "balance": "You need to have a pocket watcher badge to view this.", "badges": [], "created_at": "2025-08-07T09:42:52.803-04:00", "updated_at": "2025-08-07T09:52:08.319-04:00", "avatar": "https://secure.gravatar.com/avatar/28fb698f8c71310b69b81570d0e84007.jpg?s=512&d=https%3A%2F%2Fa.slack-edge.com%2Fdf10d%2Fimg%2Favatars%2Fava_0018-512.png", "custom_css": null}, {"id": 20841, "slack_id": "U0823MDN2JF", "display_name": "\u8a31\u5b89\u7950", "bio": null, "projects_count": 0, "devlogs_count": 0, "votes_count": 0, "ships_count": 0, "projects": [], "coding_time_seconds": 0, "coding_time_seconds_today": 0, "balance": "You need to have a pocket watcher badge to view this.", "badges": [], "created_at": "2025-08-07T10:30:12.041-04:00", "updated_at": "2025-08-07T10:42:44.135-04:00", "avatar": "https://avatars.slack-edge.com/2024-12-01/8092728955559_b3632e68402fc727b634_original.jpg", "custom_css": null}, {"id": 20842, "slack_id": "U08CXTHA01H", "display_name": "noob200", "bio": null, "projects_count": 0, "devlogs_count": 0, "votes_count": 0, "ships_count": 0, "projects": [], "coding_time_seconds": 0, "coding_time_seconds_today": 0, "balance": "You need to have a pocket watcher badge to view this.", "badges": [], "created_at": "2025-08-07T10:37:46.348-04:00", "updated_at": "2025-08-08T14:59:28.472-04:00", "avatar": "https://avatars.slack-edge.com/2025-02-13/8445193431522_2575e7dcf7485300ddfb_original.png", "custom_css": null}, {"id": 20843, "slack_id": "U099AQ1SHNJ", "display_name": "\u67ef\u5a77\u4e91", "bio": "what is this help", "projects_count": 0, "devlogs_count": 0, "votes_count": 0, "ships_count": 0, "projects": [], "coding_time_seconds": 5340, "coding_time_seconds_today": 0, "balance": "You need to have a pocket watcher badge to view this.", "badges": [], "created_at": "2025-08-07T10:45:18.677-04:00", "updated_at": "2025-08-13T08:24:36.941-04:00", "avatar": "https://avatars.slack-edge.com/2025-08-07/9334839391713_a8408a8de2f74077288d_original.png", "custom_css": null}, {"id": 20844, "slack_id": "U098YSK2HP1", "display_name": "Ema", "bio": null, "projects_count": 0, "devlogs_count": 0, "votes_count": 0, "ships_count": 0, "projects": [], "coding_time_seconds": 6167, "coding_time_seconds_today": 0, "balance": "You need to have a pocket watcher badge to view this.", "badges": [], "created_at": "2025-08-07T10:47:00.034-04:00", "updated_at": "2025-08-08T03:51:58.497-04:00", "avatar": "https://avatars.slack-edge.com/2025-08-07/9316874635254_0f0f6411d93b14b381e2_original.jpg", "custom_css": null}, {"id": 20845, "slack_id": "U099DQZ5D7U", "display_name": "\u5609\u7fa9\u9ad8\u4e2d\u8cc7\u7814\u793e", "bio": null, "projects_count": 0, "devlogs_count": 0, "votes_count": 0, "ships_count": 0, "projects": [], "coding_time_seconds": 0, "coding_time_seconds_today": 0, "balance": "You need to have a pocket watcher badge to view this.", "badges": [], "created_at": "2025-08-07T10:56:39.749-04:00", "updated_at": "2025-08-08T03:51:58.598-04:00", "avatar": "https://avatars.slack-edge.com/2025-08-07/9305096168983_0541878bcd6be42aaa36_original.png", "custom_css": null}], "pagination": {"page": 1038, "pages": 1192, "count": 23828, "items": 20}}