{"users": [{"id": 20846, "slack_id": "U099B59291C", "display_name": "TPEC", "bio": null, "projects_count": 0, "devlogs_count": 0, "votes_count": 0, "ships_count": 0, "projects": [], "coding_time_seconds": 0, "coding_time_seconds_today": 0, "balance": "You need to have a pocket watcher badge to view this.", "badges": [], "created_at": "2025-08-07T11:17:39.301-04:00", "updated_at": "2025-08-08T03:51:58.687-04:00", "avatar": "https://avatars.slack-edge.com/2025-08-07/9323834965124_b680f70271cf6b353e3f_original.png", "custom_css": null}, {"id": 20847, "slack_id": "U099B5JU7L6", "display_name": "Sidar", "bio": null, "projects_count": 0, "devlogs_count": 0, "votes_count": 0, "ships_count": 0, "projects": [], "coding_time_seconds": 7602, "coding_time_seconds_today": 0, "balance": "You need to have a pocket watcher badge to view this.", "badges": [], "created_at": "2025-08-07T11:19:45.266-04:00", "updated_at": "2025-08-28T23:43:05.253-04:00", "avatar": "https://secure.gravatar.com/avatar/0ce2229f02ab97056083f6302a51c833.jpg?s=512&d=https%3A%2F%2Fa.slack-edge.com%2Fdf10d%2Fimg%2Favatars%2Fava_0025-512.png", "custom_css": null}, {"id": 20848, "slack_id": "U098Z6HKE07", "display_name": "pika", "bio": null, "projects_count": 0, "devlogs_count": 0, "votes_count": 0, "ships_count": 0, "projects": [], "coding_time_seconds": 0, "coding_time_seconds_today": 0, "balance": "You need to have a pocket watcher badge to view this.", "badges": [], "created_at": "2025-08-07T11:30:31.196-04:00", "updated_at": "2025-08-08T03:51:58.867-04:00", "avatar": "https://secure.gravatar.com/avatar/1b9db5a4b321ade5fac82eadca1922da.jpg?s=512&d=https%3A%2F%2Fa.slack-edge.com%2Fdf10d%2Fimg%2Favatars%2Fava_0019-512.png", "custom_css": null}, {"id": 20849, "slack_id": "U099E5LS2SW", "display_name": "marwan mostafa", "bio": null, "projects_count": 0, "devlogs_count": 0, "votes_count": 0, "ships_count": 0, "projects": [], "coding_time_seconds": 43637, "coding_time_seconds_today": 0, "balance": "You need to have a pocket watcher badge to view this.", "badges": [], "created_at": "2025-08-07T12:07:50.792-04:00", "updated_at": "2025-08-09T04:05:23.060-04:00", "avatar": "https://avatars.slack-edge.com/2025-08-07/9317716656870_6dd27e91c3a39710555d_original.jpg", "custom_css": null}, {"id": 20850, "slack_id": "U099BL31BV4", "display_name": "Frankie", "bio": null, "projects_count": 0, "devlogs_count": 0, "votes_count": 0, "ships_count": 0, "projects": [], "coding_time_seconds": 0, "coding_time_seconds_today": 0, "balance": "You need to have a pocket watcher badge to view this.", "badges": [], "created_at": "2025-08-07T12:08:07.253-04:00", "updated_at": "2025-08-08T03:51:59.062-04:00", "avatar": "https://secure.gravatar.com/avatar/33f5fdced0da08992d2081fe9f8045b0.jpg?s=512&d=https%3A%2F%2Fa.slack-edge.com%2Fdf10d%2Fimg%2Favatars%2Fava_0009-512.png", "custom_css": null}, {"id": 20851, "slack_id": "U0999TTE0UB", "display_name": "camila", "bio": null, "projects_count": 0, "devlogs_count": 0, "votes_count": 0, "ships_count": 0, "projects": [], "coding_time_seconds": 0, "coding_time_seconds_today": 0, "balance": "You need to have a pocket watcher badge to view this.", "badges": [], "created_at": "2025-08-07T12:16:55.063-04:00", "updated_at": "2025-08-08T03:51:59.142-04:00", "avatar": "https://avatars.slack-edge.com/2025-08-07/9320241098162_a664f3a25e91f0f6b810_original.png", "custom_css": null}, {"id": 20852, "slack_id": "U099BS45M9C", "display_name": "Alyssa Bell", "bio": null, "projects_count": 0, "devlogs_count": 0, "votes_count": 0, "ships_count": 0, "projects": [], "coding_time_seconds": 962, "coding_time_seconds_today": 0, "balance": "You need to have a pocket watcher badge to view this.", "badges": [], "created_at": "2025-08-07T12:29:10.990-04:00", "updated_at": "2025-08-17T15:19:27.530-04:00", "avatar": "https://avatars.slack-edge.com/2025-08-07/9317920149382_3209cfe77a01153a4e00_original.png", "custom_css": null}, {"id": 20853, "slack_id": "U08NXJL86KT", "display_name": "Holy descendant of frog ulent the 1st", "bio": "Im cool", "projects_count": 1, "devlogs_count": 49, "votes_count": 134, "ships_count": 1, "projects": [{"id": 12552, "title": "Python for Beginners", "devlogs_count": 6, "created_at": "2025-08-29T11:25:57.990-04:00"}], "coding_time_seconds": 114833, "coding_time_seconds_today": 734, "balance": "You need to have a pocket watcher badge to view this.", "badges": [], "created_at": "2025-08-07T12:36:25.198-04:00", "updated_at": "2025-09-19T19:50:22.737-04:00", "avatar": "https://avatars.slack-edge.com/2025-09-20/9549628738549_c77e49802bd4bf9a5c40_original.jpg", "custom_css": null}, {"id": 20854, "slack_id": "U099JBP5B0C", "display_name": "tempest kartikey", "bio": null, "projects_count": 0, "devlogs_count": 0, "votes_count": 0, "ships_count": 0, "projects": [], "coding_time_seconds": 0, "coding_time_seconds_today": 0, "balance": "You need to have a pocket watcher badge to view this.", "badges": [], "created_at": "2025-08-07T12:43:30.265-04:00", "updated_at": "2025-08-08T03:51:59.375-04:00", "avatar": "https://secure.gravatar.com/avatar/45542fc5c3518aeb73c9ddfbc176b8db.jpg?s=512&d=https%3A%2F%2Fa.slack-edge.com%2Fdf10d%2Fimg%2Favatars%2Fava_0004-512.png", "custom_css": null}, {"id": 20855, "slack_id": "U099ECVMRJN", "display_name": "Yatharth Vishwa", "bio": null, "projects_count": 1, "devlogs_count": 0, "votes_count": 0, "ships_count": 0, "projects": [{"id": 10496, "title": "Pocketnote", "devlogs_count": 0, "created_at": "2025-08-07T14:17:49.507-04:00"}], "coding_time_seconds": 407502, "coding_time_seconds_today": 2834, "balance": "You need to have a pocket watcher badge to view this.", "badges": [], "created_at": "2025-08-07T13:05:00.368-04:00", "updated_at": "2025-08-23T15:51:50.809-04:00", "avatar": "https://avatars.slack-edge.com/2025-08-23/9411784131345_93d2122ee92483e7ded6_original.jpg", "custom_css": null}, {"id": 20856, "slack_id": "U099C82H9D4", "display_name": "leemar", "bio": null, "projects_count": 0, "devlogs_count": 0, "votes_count": 0, "ships_count": 0, "projects": [], "coding_time_seconds": 0, "coding_time_seconds_today": 0, "balance": "You need to have a pocket watcher badge to view this.", "badges": [], "created_at": "2025-08-07T13:15:50.790-04:00", "updated_at": "2025-08-08T03:52:07.632-04:00", "avatar": "https://secure.gravatar.com/avatar/10fb888255185bf07e8a58e22af0d4ed.jpg?s=512&d=https%3A%2F%2Fa.slack-edge.com%2Fdf10d%2Fimg%2Favatars%2Fava_0007-512.png", "custom_css": null}, {"id": 20857, "slack_id": "U0990CGEFN3", "display_name": "Kiwiocean01", "bio": null, "projects_count": 0, "devlogs_count": 0, "votes_count": 0, "ships_count": 0, "projects": [], "coding_time_seconds": 0, "coding_time_seconds_today": 0, "balance": "You need to have a pocket watcher badge to view this.", "badges": [], "created_at": "2025-08-07T13:22:28.999-04:00", "updated_at": "2025-08-09T04:41:37.868-04:00", "avatar": "https://secure.gravatar.com/avatar/c88c149fcc0d56a69e19cefe6d07a0d3.jpg?s=512&d=https%3A%2F%2Fa.slack-edge.com%2Fdf10d%2Fimg%2Favatars%2Fava_0000-512.png", "custom_css": null}, {"id": 20858, "slack_id": "U099ECNQM4M", "display_name": "Betty Busboom", "bio": null, "projects_count": 0, "devlogs_count": 0, "votes_count": 0, "ships_count": 0, "projects": [], "coding_time_seconds": 0, "coding_time_seconds_today": 0, "balance": "You need to have a pocket watcher badge to view this.", "badges": [], "created_at": "2025-08-07T13:35:55.796-04:00", "updated_at": "2025-08-08T03:52:07.828-04:00", "avatar": "https://avatars.slack-edge.com/2025-08-07/9324745203316_4c4ef57d7aba770d2e3b_original.png", "custom_css": null}, {"id": 20859, "slack_id": "U0990HBE3KR", "display_name": "mohamed", "bio": null, "projects_count": 1, "devlogs_count": 0, "votes_count": 0, "ships_count": 0, "projects": [{"id": 10529, "title": "snake game.", "devlogs_count": 0, "created_at": "2025-08-07T20:44:56.822-04:00"}], "coding_time_seconds": 17894, "coding_time_seconds_today": 0, "balance": "You need to have a pocket watcher badge to view this.", "badges": [], "created_at": "2025-08-07T13:42:34.130-04:00", "updated_at": "2025-08-08T03:52:07.938-04:00", "avatar": "https://secure.gravatar.com/avatar/0df5f4b8e665ac218faf07e5df7abc8a.jpg?s=512&d=https%3A%2F%2Fa.slack-edge.com%2Fdf10d%2Fimg%2Favatars%2Fava_0016-512.png", "custom_css": null}, {"id": 20860, "slack_id": "U099CJNQ5N2", "display_name": "quackandcheese", "bio": null, "projects_count": 1, "devlogs_count": 3, "votes_count": 0, "ships_count": 0, "projects": [{"id": 10500, "title": "Hole in the Wall", "devlogs_count": 3, "created_at": "2025-08-07T14:33:11.604-04:00"}], "coding_time_seconds": 31895, "coding_time_seconds_today": 0, "balance": "You need to have a pocket watcher badge to view this.", "badges": [], "created_at": "2025-08-07T13:50:35.769-04:00", "updated_at": "2025-08-08T02:00:01.489-04:00", "avatar": "https://avatars.slack-edge.com/2025-08-07/9324835867540_a2c8403cff5a98d584f2_original.png", "custom_css": null}, {"id": 20861, "slack_id": "U0990PF9LQP", "display_name": "Mikayla C", "bio": null, "projects_count": 0, "devlogs_count": 0, "votes_count": 0, "ships_count": 0, "projects": [], "coding_time_seconds": 6225, "coding_time_seconds_today": 0, "balance": "You need to have a pocket watcher badge to view this.", "badges": [], "created_at": "2025-08-07T14:06:35.311-04:00", "updated_at": "2025-08-09T04:50:36.160-04:00", "avatar": "https://secure.gravatar.com/avatar/ea37b81b33276c724c9c3f3a84068835.jpg?s=512&d=https%3A%2F%2Fa.slack-edge.com%2Fdf10d%2Fimg%2Favatars%2Fava_0004-512.png", "custom_css": null}, {"id": 20862, "slack_id": "U09A5TC6Q9E", "display_name": "Olive Tester", "bio": null, "projects_count": 0, "devlogs_count": 0, "votes_count": 0, "ships_count": 0, "projects": [], "coding_time_seconds": 0, "coding_time_seconds_today": 0, "balance": "You need to have a pocket watcher badge to view this.", "badges": [], "created_at": "2025-08-07T14:23:55.526-04:00", "updated_at": "2025-08-08T03:52:08.244-04:00", "avatar": "https://secure.gravatar.com/avatar/238f0bbacee3e61cf6ac4ee3c7ec7af4.jpg?s=512&d=https%3A%2F%2Fa.slack-edge.com%2Fdf10d%2Fimg%2Favatars%2Fava_0008-512.png", "custom_css": null}, {"id": 20863, "slack_id": "U09A5THP02C", "display_name": "Malobi Vincent-Otiono", "bio": null, "projects_count": 0, "devlogs_count": 0, "votes_count": 0, "ships_count": 0, "projects": [], "coding_time_seconds": 7128, "coding_time_seconds_today": 0, "balance": "You need to have a pocket watcher badge to view this.", "badges": [], "created_at": "2025-08-07T14:24:54.526-04:00", "updated_at": "2025-08-08T03:52:08.384-04:00", "avatar": "https://secure.gravatar.com/avatar/8353f31f638ff20a720cf9ffba813aa1.jpg?s=512&d=https%3A%2F%2Fa.slack-edge.com%2Fdf10d%2Fimg%2Favatars%2Fava_0025-512.png", "custom_css": null}, {"id": 20864, "slack_id": "U08PYKDPC04", "display_name": "Impasta", "bio": null, "projects_count": 0, "devlogs_count": 0, "votes_count": 0, "ships_count": 0, "projects": [], "coding_time_seconds": 3107, "coding_time_seconds_today": 0, "balance": "You need to have a pocket watcher badge to view this.", "badges": [], "created_at": "2025-08-07T15:09:54.995-04:00", "updated_at": "2025-08-16T21:52:03.906-04:00", "avatar": "https://avatars.slack-edge.com/2025-08-16/9376671618977_a7a628f84fef37b4dd65_original.png", "custom_css": null}, {"id": 20865, "slack_id": "U09919R3M3R", "display_name": "jeremy nduati", "bio": null, "projects_count": 0, "devlogs_count": 0, "votes_count": 0, "ships_count": 0, "projects": [], "coding_time_seconds": 20489, "coding_time_seconds_today": 0, "balance": "You need to have a pocket watcher badge to view this.", "badges": [], "created_at": "2025-08-07T15:15:22.281-04:00", "updated_at": "2025-08-19T01:13:36.714-04:00", "avatar": "https://secure.gravatar.com/avatar/61da2b597f5b87829c4e80a616e25ec2.jpg?s=512&d=https%3A%2F%2Fa.slack-edge.com%2Fdf10d%2Fimg%2Favatars%2Fava_0007-512.png", "custom_css": null}], "pagination": {"page": 1039, "pages": 1192, "count": 23828, "items": 20}}