{"users": [{"id": 2061, "slack_id": "U0918M2KFC7", "display_name": "maksym", "bio": null, "projects_count": 0, "devlogs_count": 0, "votes_count": 0, "ships_count": 0, "projects": [], "coding_time_seconds": 0, "coding_time_seconds_today": 0, "balance": "You need to have a pocket watcher badge to view this.", "badges": [], "created_at": "2025-06-16T14:38:12.827-04:00", "updated_at": "2025-07-03T19:20:32.634-04:00", "avatar": "https://secure.gravatar.com/avatar/2372dde083267648d3f5d85ff11a99ff.jpg?s=512&d=https%3A%2F%2Fa.slack-edge.com%2Fdf10d%2Fimg%2Favatars%2Fava_0023-512.png", "custom_css": null}, {"id": 2062, "slack_id": "U091H2HU6FM", "display_name": "Swapnil Suryawanshi", "bio": null, "projects_count": 0, "devlogs_count": 0, "votes_count": 0, "ships_count": 0, "projects": [], "coding_time_seconds": 0, "coding_time_seconds_today": 0, "balance": "You need to have a pocket watcher badge to view this.", "badges": [], "created_at": "2025-06-16T14:38:15.455-04:00", "updated_at": "2025-07-03T19:20:32.912-04:00", "avatar": "https://avatars.slack-edge.com/2025-06-16/9042740169239_ce18c187dbf31716e4d7_original.png", "custom_css": null}, {"id": 2063, "slack_id": "U091MBNPH0D", "display_name": "Erwan BRION", "bio": null, "projects_count": 0, "devlogs_count": 0, "votes_count": 0, "ships_count": 0, "projects": [], "coding_time_seconds": 0, "coding_time_seconds_today": 0, "balance": "You need to have a pocket watcher badge to view this.", "badges": [], "created_at": "2025-06-16T14:38:16.387-04:00", "updated_at": "2025-07-03T19:20:33.191-04:00", "avatar": "https://avatars.slack-edge.com/2025-06-16/9058050342786_8fe24cacea22df1ac194_original.png", "custom_css": null}, {"id": 2064, "slack_id": "U03A9V18X2P", "display_name": "Kazybek_kh", "bio": null, "projects_count": 0, "devlogs_count": 0, "votes_count": 0, "ships_count": 0, "projects": [], "coding_time_seconds": 0, "coding_time_seconds_today": 0, "balance": "You need to have a pocket watcher badge to view this.", "badges": [], "created_at": "2025-06-16T14:38:26.001-04:00", "updated_at": "2025-07-03T19:20:33.467-04:00", "avatar": "https://avatars.slack-edge.com/2023-08-23/5779483642534_e7b32e088e534f1f1825_original.png", "custom_css": null}, {"id": 2065, "slack_id": "U091GRX4XK5", "display_name": "Chadley", "bio": null, "projects_count": 0, "devlogs_count": 0, "votes_count": 0, "ships_count": 0, "projects": [], "coding_time_seconds": 0, "coding_time_seconds_today": 0, "balance": "You need to have a pocket watcher badge to view this.", "badges": [], "created_at": "2025-06-16T14:38:27.533-04:00", "updated_at": "2025-07-03T19:20:33.750-04:00", "avatar": "https://secure.gravatar.com/avatar/484aa439b0d149b9ab4df5e8fcff153b.jpg?s=512&d=https%3A%2F%2Fa.slack-edge.com%2Fdf10d%2Fimg%2Favatars%2Fava_0008-512.png", "custom_css": null}, {"id": 2066, "slack_id": "U08AA0NHRQX", "display_name": "amrbassem218", "bio": null, "projects_count": 3, "devlogs_count": 18, "votes_count": 1, "ships_count": 1, "projects": [{"id": 8391, "title": "Door2Door", "devlogs_count": 6, "created_at": "2025-07-26T19:40:03.101-04:00"}, {"id": 8945, "title": "Mathforces", "devlogs_count": 11, "created_at": "2025-07-29T21:38:12.608-04:00"}, {"id": 11293, "title": "star master", "devlogs_count": 1, "created_at": "2025-08-14T17:13:01.694-04:00"}], "coding_time_seconds": 481934, "coding_time_seconds_today": 0, "balance": "You need to have a pocket watcher badge to view this.", "badges": [{"name": "Maiden Voyage", "text": "you shipped your first project! the journey begins...", "icon": "\ud83d\udea2"}], "created_at": "2025-06-16T14:38:43.551-04:00", "updated_at": "2025-09-10T22:52:12.012-04:00", "avatar": "https://avatars.slack-edge.com/2025-07-01/9129110413525_7a290d94259062159ca2_original.jpg", "custom_css": null}, {"id": 2067, "slack_id": "U0922GQS48H", "display_name": "Pedroxzz", "bio": null, "projects_count": 0, "devlogs_count": 0, "votes_count": 0, "ships_count": 0, "projects": [], "coding_time_seconds": 36394, "coding_time_seconds_today": 0, "balance": "You need to have a pocket watcher badge to view this.", "badges": [], "created_at": "2025-06-16T14:39:19.809-04:00", "updated_at": "2025-07-03T19:20:34.308-04:00", "avatar": "https://secure.gravatar.com/avatar/cd014a8e8fc7ae13df7bf0b42bbf19a3.jpg?s=512&d=https%3A%2F%2Fa.slack-edge.com%2Fdf10d%2Fimg%2Favatars%2Fava_0016-512.png", "custom_css": null}, {"id": 2068, "slack_id": "U0922GQE22D", "display_name": "Himanshu", "bio": null, "projects_count": 0, "devlogs_count": 0, "votes_count": 0, "ships_count": 0, "projects": [], "coding_time_seconds": 0, "coding_time_seconds_today": 0, "balance": "You need to have a pocket watcher badge to view this.", "badges": [], "created_at": "2025-06-16T14:39:29.800-04:00", "updated_at": "2025-07-03T19:20:34.584-04:00", "avatar": "https://avatars.slack-edge.com/2025-06-16/9058444545220_62ca6a9ef5abb581836b_original.jpg", "custom_css": null}, {"id": 2069, "slack_id": "U091QCA8T7W", "display_name": "becky", "bio": null, "projects_count": 0, "devlogs_count": 0, "votes_count": 0, "ships_count": 0, "projects": [], "coding_time_seconds": 0, "coding_time_seconds_today": 0, "balance": "You need to have a pocket watcher badge to view this.", "badges": [], "created_at": "2025-06-16T14:39:32.195-04:00", "updated_at": "2025-07-03T19:20:34.902-04:00", "avatar": "https://secure.gravatar.com/avatar/ed2a06bf8f9a30fd8907b5916c7cf6b0.jpg?s=512&d=https%3A%2F%2Fa.slack-edge.com%2Fdf10d%2Fimg%2Favatars%2Fava_0000-512.png", "custom_css": null}, {"id": 2070, "slack_id": "U091H25FU3V", "display_name": "stranzer", "bio": null, "projects_count": 0, "devlogs_count": 0, "votes_count": 0, "ships_count": 0, "projects": [], "coding_time_seconds": 68719, "coding_time_seconds_today": 0, "balance": "You need to have a pocket watcher badge to view this.", "badges": [], "created_at": "2025-06-16T14:40:00.284-04:00", "updated_at": "2025-07-03T19:20:35.168-04:00", "avatar": "https://secure.gravatar.com/avatar/8e909f152faffef5d93d1bacbe6b140d.jpg?s=512&d=https%3A%2F%2Fa.slack-edge.com%2Fdf10d%2Fimg%2Favatars%2Fava_0021-512.png", "custom_css": null}, {"id": 2071, "slack_id": "U092C1NNUBA", "display_name": "Nuno Graxinha", "bio": null, "projects_count": 0, "devlogs_count": 0, "votes_count": 0, "ships_count": 0, "projects": [], "coding_time_seconds": 0, "coding_time_seconds_today": 0, "balance": "You need to have a pocket watcher badge to view this.", "badges": [], "created_at": "2025-06-16T14:40:11.628-04:00", "updated_at": "2025-07-03T19:20:35.457-04:00", "avatar": "https://avatars.slack-edge.com/2025-06-16/9051111664195_1d581bf828b43c4d4b12_original.jpg", "custom_css": null}, {"id": 2072, "slack_id": "U091N7L8NJH", "display_name": "Shani Soni", "bio": null, "projects_count": 0, "devlogs_count": 0, "votes_count": 0, "ships_count": 0, "projects": [], "coding_time_seconds": 0, "coding_time_seconds_today": 0, "balance": "You need to have a pocket watcher badge to view this.", "badges": [], "created_at": "2025-06-16T14:40:14.272-04:00", "updated_at": "2025-07-21T17:30:27.700-04:00", "avatar": "https://avatars.slack-edge.com/2025-06-16/9042749433287_423253eaa70ee6adf184_original.png", "custom_css": null}, {"id": 2073, "slack_id": "U091QCL1GDS", "display_name": "Yashas Jain", "bio": null, "projects_count": 2, "devlogs_count": 1, "votes_count": 1, "ships_count": 0, "projects": [{"id": 812, "title": "Unplugged", "devlogs_count": 0, "created_at": "2025-06-17T08:48:50.294-04:00"}, {"id": 867, "title": "Cloud Advisor", "devlogs_count": 1, "created_at": "2025-06-17T10:05:13.946-04:00"}], "coding_time_seconds": 15493, "coding_time_seconds_today": 374, "balance": "You need to have a pocket watcher badge to view this.", "badges": [], "created_at": "2025-06-16T14:40:20.080-04:00", "updated_at": "2025-07-21T04:52:35.134-04:00", "avatar": "https://secure.gravatar.com/avatar/399542ed77b9ebe787005f50fd9a038f.jpg?s=512&d=https%3A%2F%2Fa.slack-edge.com%2Fdf10d%2Fimg%2Favatars%2Fava_0005-512.png", "custom_css": null}, {"id": 2074, "slack_id": "U091H5RA8TY", "display_name": "TEJA KIRAN S RAYUDU", "bio": null, "projects_count": 0, "devlogs_count": 0, "votes_count": 0, "ships_count": 0, "projects": [], "coding_time_seconds": 0, "coding_time_seconds_today": 0, "balance": "You need to have a pocket watcher badge to view this.", "badges": [], "created_at": "2025-06-16T14:40:21.828-04:00", "updated_at": "2025-07-03T19:20:36.293-04:00", "avatar": "https://secure.gravatar.com/avatar/5b581854d330f74d930615d9c527be97.jpg?s=512&d=https%3A%2F%2Fa.slack-edge.com%2Fdf10d%2Fimg%2Favatars%2Fava_0002-512.png", "custom_css": null}, {"id": 2075, "slack_id": "U07E6TW9DL0", "display_name": "dld", "bio": null, "projects_count": 1, "devlogs_count": 1, "votes_count": 0, "ships_count": 0, "projects": [{"id": 11685, "title": "dld's website", "devlogs_count": 1, "created_at": "2025-08-18T12:20:03.363-04:00"}], "coding_time_seconds": 18618, "coding_time_seconds_today": 0, "balance": "You need to have a pocket watcher badge to view this.", "badges": [], "created_at": "2025-06-16T14:40:33.247-04:00", "updated_at": "2025-08-14T02:06:44.907-04:00", "avatar": "https://avatars.slack-edge.com/2025-08-13/9363585730209_209163433e2d4d0fd4ed_original.png", "custom_css": null}, {"id": 2076, "slack_id": "U091Q1BAY82", "display_name": "John", "bio": null, "projects_count": 0, "devlogs_count": 0, "votes_count": 0, "ships_count": 0, "projects": [], "coding_time_seconds": 0, "coding_time_seconds_today": 0, "balance": "You need to have a pocket watcher badge to view this.", "badges": [], "created_at": "2025-06-16T14:40:35.840-04:00", "updated_at": "2025-07-03T19:20:36.842-04:00", "avatar": "https://secure.gravatar.com/avatar/f563c17e472ff3503943297ea102bffa.jpg?s=512&d=https%3A%2F%2Fa.slack-edge.com%2Fdf10d%2Fimg%2Favatars%2Fava_0025-512.png", "custom_css": null}, {"id": 2077, "slack_id": "U091N801XK7", "display_name": "Gedeonkp", "bio": null, "projects_count": 0, "devlogs_count": 0, "votes_count": 0, "ships_count": 0, "projects": [], "coding_time_seconds": 335640, "coding_time_seconds_today": 0, "balance": "You need to have a pocket watcher badge to view this.", "badges": [], "created_at": "2025-06-16T14:40:40.342-04:00", "updated_at": "2025-07-03T19:20:37.127-04:00", "avatar": "https://avatars.slack-edge.com/2025-06-16/9070607501217_3798477aed4ff63774b4_original.png", "custom_css": null}, {"id": 2078, "slack_id": "U091Q1G22G2", "display_name": "Burak", "bio": null, "projects_count": 0, "devlogs_count": 0, "votes_count": 0, "ships_count": 0, "projects": [], "coding_time_seconds": 0, "coding_time_seconds_today": 0, "balance": "You need to have a pocket watcher badge to view this.", "badges": [], "created_at": "2025-06-16T14:40:48.780-04:00", "updated_at": "2025-07-03T19:20:37.392-04:00", "avatar": "https://secure.gravatar.com/avatar/1c35cdd3ea31a71295ff69b7f30c823d.jpg?s=512&d=https%3A%2F%2Fa.slack-edge.com%2Fdf10d%2Fimg%2Favatars%2Fava_0022-512.png", "custom_css": null}, {"id": 2079, "slack_id": "U07F2JESD7F", "display_name": "Myles", "bio": null, "projects_count": 1, "devlogs_count": 3, "votes_count": 26, "ships_count": 1, "projects": [{"id": 1578, "title": "Grapply Bird", "devlogs_count": 3, "created_at": "2025-06-18T19:29:51.314-04:00"}], "coding_time_seconds": 19749, "coding_time_seconds_today": 0, "balance": "You need to have a pocket watcher badge to view this.", "badges": [{"name": "Maiden Voyage", "text": "you shipped your first project! the journey begins...", "icon": "\ud83d\udea2"}], "created_at": "2025-06-16T14:41:03.482-04:00", "updated_at": "2025-09-10T22:52:12.401-04:00", "avatar": "https://avatars.slack-edge.com/2025-06-16/9042753252087_4c9e16de013e3831532c_original.png", "custom_css": null}, {"id": 2080, "slack_id": "U091Q1GM44A", "display_name": "Mahmoud", "bio": null, "projects_count": 0, "devlogs_count": 0, "votes_count": 0, "ships_count": 0, "projects": [], "coding_time_seconds": 0, "coding_time_seconds_today": 0, "balance": "You need to have a pocket watcher badge to view this.", "badges": [], "created_at": "2025-06-16T14:41:06.008-04:00", "updated_at": "2025-07-03T19:20:37.916-04:00", "avatar": "https://avatars.slack-edge.com/2025-06-16/9070798868321_d3ed8a47a777e466e7d3_original.png", "custom_css": null}], "pagination": {"page": 104, "pages": 1192, "count": 23828, "items": 20}}