{"users": [{"id": 20866, "slack_id": "U0991FN4JBZ", "display_name": "Yousef", "bio": null, "projects_count": 0, "devlogs_count": 0, "votes_count": 0, "ships_count": 0, "projects": [], "coding_time_seconds": 0, "coding_time_seconds_today": 0, "balance": "You need to have a pocket watcher badge to view this.", "badges": [], "created_at": "2025-08-07T15:49:03.651-04:00", "updated_at": "2025-08-08T03:52:08.656-04:00", "avatar": "https://secure.gravatar.com/avatar/44378ee9ad7464e84c7be7c7c8c64c2e.jpg?s=512&d=https%3A%2F%2Fa.slack-edge.com%2Fdf10d%2Fimg%2Favatars%2Fava_0021-512.png", "custom_css": null}, {"id": 20867, "slack_id": "U0991M3JLBH", "display_name": "Bartossszzz", "bio": null, "projects_count": 0, "devlogs_count": 0, "votes_count": 0, "ships_count": 0, "projects": [], "coding_time_seconds": 0, "coding_time_seconds_today": 0, "balance": "You need to have a pocket watcher badge to view this.", "badges": [], "created_at": "2025-08-07T16:08:41.649-04:00", "updated_at": "2025-08-07T16:11:17.104-04:00", "avatar": "https://secure.gravatar.com/avatar/5f7578de06489fc2103c6fc8e1f671f4.jpg?s=512&d=https%3A%2F%2Fa.slack-edge.com%2Fdf10d%2Fimg%2Favatars%2Fava_0024-512.png", "custom_css": null}, {"id": 20868, "slack_id": "U0991ME3RV5", "display_name": "Dasterman800", "bio": null, "projects_count": 0, "devlogs_count": 0, "votes_count": 0, "ships_count": 0, "projects": [], "coding_time_seconds": 0, "coding_time_seconds_today": 0, "balance": "You need to have a pocket watcher badge to view this.", "badges": [], "created_at": "2025-08-07T16:13:59.087-04:00", "updated_at": "2025-08-08T03:52:08.890-04:00", "avatar": "https://avatars.slack-edge.com/2025-08-07/9316940041091_c4a2cce4e55899cf9003_original.png", "custom_css": null}, {"id": 20869, "slack_id": "U09922CB0EB", "display_name": "Leonard", "bio": null, "projects_count": 0, "devlogs_count": 0, "votes_count": 0, "ships_count": 0, "projects": [], "coding_time_seconds": 0, "coding_time_seconds_today": 0, "balance": "You need to have a pocket watcher badge to view this.", "badges": [], "created_at": "2025-08-07T17:01:54.914-04:00", "updated_at": "2025-08-08T03:52:09.008-04:00", "avatar": "https://secure.gravatar.com/avatar/93755fa51abcb6f9dbd002d555d43c0b.jpg?s=512&d=https%3A%2F%2Fa.slack-edge.com%2Fdf10d%2Fimg%2Favatars%2Fava_0024-512.png", "custom_css": null}, {"id": 20870, "slack_id": "U099E5MLWP8", "display_name": "Petr Kisselev", "bio": null, "projects_count": 0, "devlogs_count": 0, "votes_count": 0, "ships_count": 0, "projects": [], "coding_time_seconds": 43300, "coding_time_seconds_today": 0, "balance": "You need to have a pocket watcher badge to view this.", "badges": [], "created_at": "2025-08-07T17:09:55.952-04:00", "updated_at": "2025-08-08T03:52:09.093-04:00", "avatar": "https://avatars.slack-edge.com/2025-08-07/9321518342581_b852281dcb16794b7a91_original.jpg", "custom_css": null}, {"id": 20871, "slack_id": "U08TULG8QUS", "display_name": "nivokas", "bio": null, "projects_count": 0, "devlogs_count": 0, "votes_count": 0, "ships_count": 0, "projects": [], "coding_time_seconds": 0, "coding_time_seconds_today": 0, "balance": "You need to have a pocket watcher badge to view this.", "badges": [], "created_at": "2025-08-07T17:11:52.695-04:00", "updated_at": "2025-08-08T03:52:09.202-04:00", "avatar": "https://secure.gravatar.com/avatar/ff0ab309bd796bf714e8ceb68fef979f.jpg?s=512&d=https%3A%2F%2Fa.slack-edge.com%2Fdf10d%2Fimg%2Favatars%2Fava_0005-512.png", "custom_css": null}, {"id": 20872, "slack_id": "U099KUQSGN8", "display_name": "B Qi", "bio": null, "projects_count": 0, "devlogs_count": 0, "votes_count": 1, "ships_count": 0, "projects": [], "coding_time_seconds": 14861, "coding_time_seconds_today": 0, "balance": "You need to have a pocket watcher badge to view this.", "badges": [], "created_at": "2025-08-07T17:28:17.617-04:00", "updated_at": "2025-08-08T03:52:09.308-04:00", "avatar": "https://avatars.slack-edge.com/2025-08-07/9325996111796_4493cdc8bb5dd7b0479e_original.jpg", "custom_css": null}, {"id": 20873, "slack_id": "U07AVAAJWPK", "display_name": "Aritro Ghosh", "bio": null, "projects_count": 0, "devlogs_count": 0, "votes_count": 0, "ships_count": 0, "projects": [], "coding_time_seconds": 4866, "coding_time_seconds_today": 0, "balance": "You need to have a pocket watcher badge to view this.", "badges": [], "created_at": "2025-08-07T18:21:52.560-04:00", "updated_at": "2025-08-08T03:52:09.407-04:00", "avatar": "https://avatars.slack-edge.com/2024-10-28/7939138689797_698dc16a7cde7207fc3d_original.jpg", "custom_css": null}, {"id": 20874, "slack_id": "U099FK2G5KL", "display_name": "Murilo", "bio": null, "projects_count": 0, "devlogs_count": 0, "votes_count": 0, "ships_count": 0, "projects": [], "coding_time_seconds": 0, "coding_time_seconds_today": 0, "balance": "You need to have a pocket watcher badge to view this.", "badges": [], "created_at": "2025-08-07T18:22:03.628-04:00", "updated_at": "2025-08-08T03:52:13.553-04:00", "avatar": "https://secure.gravatar.com/avatar/5c357379ad8f62dd370ee5f2d0d8e70b.jpg?s=512&d=https%3A%2F%2Fa.slack-edge.com%2Fdf10d%2Fimg%2Favatars%2Fava_0000-512.png", "custom_css": null}, {"id": 20875, "slack_id": "U07V2T3QXH9", "display_name": "Hargitt", "bio": null, "projects_count": 0, "devlogs_count": 0, "votes_count": 0, "ships_count": 0, "projects": [], "coding_time_seconds": 83904, "coding_time_seconds_today": 0, "balance": "You need to have a pocket watcher badge to view this.", "badges": [], "created_at": "2025-08-07T19:14:23.126-04:00", "updated_at": "2025-08-10T20:45:52.406-04:00", "avatar": "https://avatars.slack-edge.com/2025-07-25/9250401728277_e97337bc4312b81a9788_original.png", "custom_css": null}, {"id": 20876, "slack_id": "U099EPG0414", "display_name": "artanwani tanwani", "bio": null, "projects_count": 0, "devlogs_count": 0, "votes_count": 0, "ships_count": 0, "projects": [], "coding_time_seconds": 10307, "coding_time_seconds_today": 0, "balance": "You need to have a pocket watcher badge to view this.", "badges": [], "created_at": "2025-08-07T19:16:17.705-04:00", "updated_at": "2025-08-08T03:52:13.716-04:00", "avatar": "https://avatars.slack-edge.com/2025-08-07/9320854521382_c7010fbe844d1ce306c0_original.jpg", "custom_css": null}, {"id": 20877, "slack_id": "U09932MUM5M", "display_name": "Jacob Long", "bio": null, "projects_count": 0, "devlogs_count": 0, "votes_count": 0, "ships_count": 0, "projects": [], "coding_time_seconds": 0, "coding_time_seconds_today": 0, "balance": "You need to have a pocket watcher badge to view this.", "badges": [], "created_at": "2025-08-07T20:43:43.032-04:00", "updated_at": "2025-08-08T03:52:13.860-04:00", "avatar": "https://avatars.slack-edge.com/2025-08-07/9309090317783_1802933f5b501ffbc09c_original.png", "custom_css": null}, {"id": 20878, "slack_id": "U092C7PFWH4", "display_name": "Climatestorm", "bio": null, "projects_count": 0, "devlogs_count": 0, "votes_count": 0, "ships_count": 0, "projects": [], "coding_time_seconds": 0, "coding_time_seconds_today": 0, "balance": "You need to have a pocket watcher badge to view this.", "badges": [], "created_at": "2025-08-07T20:44:13.095-04:00", "updated_at": "2025-08-07T20:44:20.713-04:00", "avatar": "https://avatars.slack-edge.com/2025-08-05/9310673954386_ee4af6a0aaf70c864e13_original.png", "custom_css": null}, {"id": 20879, "slack_id": "U098A6TE3U3", "display_name": "Paula", "bio": null, "projects_count": 0, "devlogs_count": 0, "votes_count": 0, "ships_count": 0, "projects": [], "coding_time_seconds": 23190, "coding_time_seconds_today": 0, "balance": "You need to have a pocket watcher badge to view this.", "badges": [], "created_at": "2025-08-07T20:44:19.171-04:00", "updated_at": "2025-08-08T03:52:14.074-04:00", "avatar": "https://secure.gravatar.com/avatar/0215b18a38c0ad13fffae8af631d5481.jpg?s=512&d=https%3A%2F%2Fa.slack-edge.com%2Fdf10d%2Fimg%2Favatars%2Fava_0003-512.png", "custom_css": null}, {"id": 20880, "slack_id": "U099G4QAQTC", "display_name": "Juan Diego", "bio": null, "projects_count": 0, "devlogs_count": 0, "votes_count": 0, "ships_count": 0, "projects": [], "coding_time_seconds": 0, "coding_time_seconds_today": 0, "balance": "You need to have a pocket watcher badge to view this.", "badges": [], "created_at": "2025-08-07T21:43:08.962-04:00", "updated_at": "2025-08-08T03:52:14.212-04:00", "avatar": "https://secure.gravatar.com/avatar/a2fba4238710f7e53eae0f68077d156b.jpg?s=512&d=https%3A%2F%2Fa.slack-edge.com%2Fdf10d%2Fimg%2Favatars%2Fava_0025-512.png", "custom_css": null}, {"id": 20881, "slack_id": "U099BNT043D", "display_name": "Jose Guillermo Valenzuela Vega", "bio": null, "projects_count": 0, "devlogs_count": 0, "votes_count": 0, "ships_count": 0, "projects": [], "coding_time_seconds": 0, "coding_time_seconds_today": 0, "balance": "You need to have a pocket watcher badge to view this.", "badges": [], "created_at": "2025-08-07T22:17:55.879-04:00", "updated_at": "2025-08-08T22:23:33.883-04:00", "avatar": "https://secure.gravatar.com/avatar/9344757b9426bc6cb9e83ccf19117f54.jpg?s=512&d=https%3A%2F%2Fa.slack-edge.com%2Fdf10d%2Fimg%2Favatars%2Fava_0011-512.png", "custom_css": null}, {"id": 20882, "slack_id": "U097J4GHSS1", "display_name": "Hemamalini Thanapathy", "bio": null, "projects_count": 0, "devlogs_count": 0, "votes_count": 0, "ships_count": 0, "projects": [], "coding_time_seconds": 0, "coding_time_seconds_today": 0, "balance": "You need to have a pocket watcher badge to view this.", "badges": [], "created_at": "2025-08-07T23:07:16.456-04:00", "updated_at": "2025-08-08T10:04:59.584-04:00", "avatar": "https://secure.gravatar.com/avatar/b94c1f7f626a327d25a300785187c13e.jpg?s=512&d=https%3A%2F%2Fa.slack-edge.com%2Fdf10d%2Fimg%2Favatars%2Fava_0004-512.png", "custom_css": null}, {"id": 20883, "slack_id": "U099M33J2UU", "display_name": "Mith Bhaskar", "bio": null, "projects_count": 0, "devlogs_count": 2, "votes_count": 0, "ships_count": 0, "projects": [], "coding_time_seconds": 35601, "coding_time_seconds_today": 0, "balance": "You need to have a pocket watcher badge to view this.", "badges": [], "created_at": "2025-08-07T23:13:25.088-04:00", "updated_at": "2025-09-21T10:35:25.621-04:00", "avatar": "https://avatars.slack-edge.com/2025-08-07/9348296233648_e19e538a34f4bd298ae6_original.png", "custom_css": null}, {"id": 20884, "slack_id": "U099G4DE1EJ", "display_name": "Hatim Daginawala", "bio": null, "projects_count": 0, "devlogs_count": 0, "votes_count": 0, "ships_count": 0, "projects": [], "coding_time_seconds": 0, "coding_time_seconds_today": 0, "balance": "You need to have a pocket watcher badge to view this.", "badges": [], "created_at": "2025-08-08T00:29:52.247-04:00", "updated_at": "2025-08-08T03:52:14.585-04:00", "avatar": "https://secure.gravatar.com/avatar/630a129f41d55c00b3de8cb53c752e4f.jpg?s=512&d=https%3A%2F%2Fa.slack-edge.com%2Fdf10d%2Fimg%2Favatars%2Fava_0026-512.png", "custom_css": null}, {"id": 20885, "slack_id": "U099MA3QSQ4", "display_name": "Shagun S", "bio": null, "projects_count": 0, "devlogs_count": 0, "votes_count": 0, "ships_count": 0, "projects": [], "coding_time_seconds": 0, "coding_time_seconds_today": 0, "balance": "You need to have a pocket watcher badge to view this.", "badges": [], "created_at": "2025-08-08T00:37:53.900-04:00", "updated_at": "2025-08-08T03:52:14.732-04:00", "avatar": "https://secure.gravatar.com/avatar/3dd2e5c0e06af10c2c5a3ea01b346bbc.jpg?s=512&d=https%3A%2F%2Fa.slack-edge.com%2Fdf10d%2Fimg%2Favatars%2Fava_0015-512.png", "custom_css": null}], "pagination": {"page": 1040, "pages": 1192, "count": 23828, "items": 20}}