{"users": [{"id": 20886, "slack_id": "U099H18L3QV", "display_name": "ilanaoluwa omotowa", "bio": null, "projects_count": 0, "devlogs_count": 0, "votes_count": 0, "ships_count": 0, "projects": [], "coding_time_seconds": 0, "coding_time_seconds_today": 0, "balance": "You need to have a pocket watcher badge to view this.", "badges": [], "created_at": "2025-08-08T01:29:23.993-04:00", "updated_at": "2025-08-08T03:52:14.861-04:00", "avatar": "https://secure.gravatar.com/avatar/79fc989b3c7a891168e18eb5a22dbb1f.jpg?s=512&d=https%3A%2F%2Fa.slack-edge.com%2Fdf10d%2Fimg%2Favatars%2Fava_0016-512.png", "custom_css": null}, {"id": 20887, "slack_id": "U099H15EM7F", "display_name": "Thejesh Bhagavanth G", "bio": null, "projects_count": 0, "devlogs_count": 0, "votes_count": 0, "ships_count": 0, "projects": [], "coding_time_seconds": 0, "coding_time_seconds_today": 0, "balance": "You need to have a pocket watcher badge to view this.", "badges": [], "created_at": "2025-08-08T01:31:00.966-04:00", "updated_at": "2025-08-08T03:52:14.971-04:00", "avatar": "https://avatars.slack-edge.com/2025-08-07/9336829237073_228b8cd8053352bfa20b_original.png", "custom_css": null}, {"id": 20888, "slack_id": "U099GHC0XCN", "display_name": "Tam", "bio": null, "projects_count": 0, "devlogs_count": 0, "votes_count": 0, "ships_count": 0, "projects": [], "coding_time_seconds": 0, "coding_time_seconds_today": 0, "balance": "You need to have a pocket watcher badge to view this.", "badges": [], "created_at": "2025-08-08T02:16:23.271-04:00", "updated_at": "2025-08-08T03:52:15.097-04:00", "avatar": "https://secure.gravatar.com/avatar/9d4b2654f7e5feb858ddd155c030b4d8.jpg?s=512&d=https%3A%2F%2Fa.slack-edge.com%2Fdf10d%2Fimg%2Favatars%2Fava_0002-512.png", "custom_css": null}, {"id": 20889, "slack_id": "U099GLVG3B8", "display_name": "moin", "bio": null, "projects_count": 0, "devlogs_count": 0, "votes_count": 0, "ships_count": 0, "projects": [], "coding_time_seconds": 0, "coding_time_seconds_today": 0, "balance": "You need to have a pocket watcher badge to view this.", "badges": [], "created_at": "2025-08-08T02:35:47.536-04:00", "updated_at": "2025-08-08T03:52:15.227-04:00", "avatar": "https://secure.gravatar.com/avatar/1b41e548a76dbc58ecbd7ec1cac66613.jpg?s=512&d=https%3A%2F%2Fa.slack-edge.com%2Fdf10d%2Fimg%2Favatars%2Fava_0011-512.png", "custom_css": null}, {"id": 20890, "slack_id": "U099MMSS1RS", "display_name": "Samyak Raj Subedi", "bio": null, "projects_count": 1, "devlogs_count": 1, "votes_count": 0, "ships_count": 0, "projects": [{"id": 11012, "title": "Chat App ", "devlogs_count": 1, "created_at": "2025-08-12T11:26:38.040-04:00"}], "coding_time_seconds": 223964, "coding_time_seconds_today": 8737, "balance": "You need to have a pocket watcher badge to view this.", "badges": [], "created_at": "2025-08-08T02:37:44.603-04:00", "updated_at": "2025-08-08T04:55:40.421-04:00", "avatar": "https://secure.gravatar.com/avatar/eebb251a6be4149e418ec1a544e1073b.jpg?s=512&d=https%3A%2F%2Fa.slack-edge.com%2Fdf10d%2Fimg%2Favatars%2Fava_0006-512.png", "custom_css": null}, {"id": 20891, "slack_id": "U095GE4UHCZ", "display_name": "ayat", "bio": null, "projects_count": 0, "devlogs_count": 0, "votes_count": 0, "ships_count": 0, "projects": [], "coding_time_seconds": 0, "coding_time_seconds_today": 0, "balance": "You need to have a pocket watcher badge to view this.", "badges": [], "created_at": "2025-08-08T02:54:26.322-04:00", "updated_at": "2025-08-08T03:52:15.485-04:00", "avatar": "https://secure.gravatar.com/avatar/8ee7274f6a48d58354e9e9c7e4810de6.jpg?s=512&d=https%3A%2F%2Fa.slack-edge.com%2Fdf10d%2Fimg%2Favatars%2Fava_0006-512.png", "custom_css": null}, {"id": 20892, "slack_id": "U099MSC3K8U", "display_name": "test", "bio": null, "projects_count": 0, "devlogs_count": 0, "votes_count": 0, "ships_count": 0, "projects": [], "coding_time_seconds": 0, "coding_time_seconds_today": 0, "balance": "You need to have a pocket watcher badge to view this.", "badges": [], "created_at": "2025-08-08T03:16:22.837-04:00", "updated_at": "2025-08-08T03:52:15.621-04:00", "avatar": "https://secure.gravatar.com/avatar/9b254774824a327213ca8513f5218671.jpg?s=512&d=https%3A%2F%2Fa.slack-edge.com%2Fdf10d%2Fimg%2Favatars%2Fava_0016-512.png", "custom_css": null}, {"id": 20893, "slack_id": "U0994M3URUP", "display_name": "Minh Nguy\u1ec5n", "bio": null, "projects_count": 0, "devlogs_count": 0, "votes_count": 0, "ships_count": 0, "projects": [], "coding_time_seconds": 0, "coding_time_seconds_today": 0, "balance": "You need to have a pocket watcher badge to view this.", "badges": [], "created_at": "2025-08-08T03:31:05.916-04:00", "updated_at": "2025-08-08T03:52:19.750-04:00", "avatar": "https://avatars.slack-edge.com/2025-08-08/9349271090352_5305ab84898d21443dfa_original.png", "custom_css": null}, {"id": 20894, "slack_id": "U09A99FTKBJ", "display_name": "Albert", "bio": null, "projects_count": 0, "devlogs_count": 0, "votes_count": 0, "ships_count": 0, "projects": [], "coding_time_seconds": 0, "coding_time_seconds_today": 0, "balance": "You need to have a pocket watcher badge to view this.", "badges": [], "created_at": "2025-08-08T03:44:34.276-04:00", "updated_at": "2025-08-08T03:52:19.852-04:00", "avatar": "https://secure.gravatar.com/avatar/3e63990b09b6f85ad22c772620a23ad1.jpg?s=512&d=https%3A%2F%2Fa.slack-edge.com%2Fdf10d%2Fimg%2Favatars%2Fava_0006-512.png", "custom_css": null}, {"id": 20895, "slack_id": "U099CK79ACB", "display_name": "Tanushree", "bio": null, "projects_count": 0, "devlogs_count": 0, "votes_count": 0, "ships_count": 0, "projects": [], "coding_time_seconds": 0, "coding_time_seconds_today": 0, "balance": "You need to have a pocket watcher badge to view this.", "badges": [], "created_at": "2025-08-08T04:06:24.743-04:00", "updated_at": "2025-08-09T07:03:52.669-04:00", "avatar": "https://secure.gravatar.com/avatar/6f5b64bc98c93c86d62e795d24c779c8.jpg?s=512&d=https%3A%2F%2Fa.slack-edge.com%2Fdf10d%2Fimg%2Favatars%2Fava_0006-512.png", "custom_css": null}, {"id": 20896, "slack_id": "U099N4UK4F6", "display_name": "Jaskaran", "bio": null, "projects_count": 0, "devlogs_count": 0, "votes_count": 0, "ships_count": 0, "projects": [], "coding_time_seconds": 0, "coding_time_seconds_today": 0, "balance": "You need to have a pocket watcher badge to view this.", "badges": [], "created_at": "2025-08-08T04:18:40.258-04:00", "updated_at": "2025-08-09T07:03:52.760-04:00", "avatar": "https://secure.gravatar.com/avatar/284dff353928006d7c6712a44d901eb9.jpg?s=512&d=https%3A%2F%2Fa.slack-edge.com%2Fdf10d%2Fimg%2Favatars%2Fava_0005-512.png", "custom_css": null}, {"id": 20897, "slack_id": "U0994V94831", "display_name": "Alessandro", "bio": null, "projects_count": 0, "devlogs_count": 0, "votes_count": 0, "ships_count": 0, "projects": [], "coding_time_seconds": 0, "coding_time_seconds_today": 0, "balance": "You need to have a pocket watcher badge to view this.", "badges": [], "created_at": "2025-08-08T04:26:08.387-04:00", "updated_at": "2025-08-09T07:03:52.854-04:00", "avatar": "https://secure.gravatar.com/avatar/65f1443bdd590205c924af4b620dbd69.jpg?s=512&d=https%3A%2F%2Fa.slack-edge.com%2Fdf10d%2Fimg%2Favatars%2Fava_0004-512.png", "custom_css": null}, {"id": 20898, "slack_id": "U07GNE5J7C2", "display_name": "MyTxwe", "bio": null, "projects_count": 1, "devlogs_count": 0, "votes_count": 0, "ships_count": 0, "projects": [{"id": 10566, "title": "News-WEBSITE", "devlogs_count": 0, "created_at": "2025-08-08T08:05:13.031-04:00"}], "coding_time_seconds": 20543, "coding_time_seconds_today": 0, "balance": "You need to have a pocket watcher badge to view this.", "badges": [], "created_at": "2025-08-08T04:30:36.023-04:00", "updated_at": "2025-08-09T07:03:52.961-04:00", "avatar": "https://secure.gravatar.com/avatar/63683a8fb73728833c5fc7e9ac6b9789.jpg?s=512&d=https%3A%2F%2Fa.slack-edge.com%2Fdf10d%2Fimg%2Favatars%2Fava_0003-512.png", "custom_css": null}, {"id": 20899, "slack_id": "U09A9JDMSSC", "display_name": "Japleen kaur", "bio": null, "projects_count": 0, "devlogs_count": 0, "votes_count": 0, "ships_count": 0, "projects": [], "coding_time_seconds": 0, "coding_time_seconds_today": 0, "balance": "You need to have a pocket watcher badge to view this.", "badges": [], "created_at": "2025-08-08T04:45:28.865-04:00", "updated_at": "2025-08-09T07:03:53.054-04:00", "avatar": "https://secure.gravatar.com/avatar/0f11f98f73045ff72f49e0ec3215fcd7.jpg?s=512&d=https%3A%2F%2Fa.slack-edge.com%2Fdf10d%2Fimg%2Favatars%2Fava_0016-512.png", "custom_css": null}, {"id": 20900, "slack_id": "U099HJ05ACE", "display_name": "hannah", "bio": null, "projects_count": 0, "devlogs_count": 0, "votes_count": 0, "ships_count": 0, "projects": [], "coding_time_seconds": 0, "coding_time_seconds_today": 0, "balance": "You need to have a pocket watcher badge to view this.", "badges": [], "created_at": "2025-08-08T05:15:40.463-04:00", "updated_at": "2025-08-09T07:03:53.149-04:00", "avatar": "https://secure.gravatar.com/avatar/69b7f7a02db0697ccae933acaac97ad5.jpg?s=512&d=https%3A%2F%2Fa.slack-edge.com%2Fdf10d%2Fimg%2Favatars%2Fava_0008-512.png", "custom_css": null}, {"id": 20901, "slack_id": "U099CTXUVJP", "display_name": "Muba", "bio": null, "projects_count": 0, "devlogs_count": 0, "votes_count": 0, "ships_count": 0, "projects": [], "coding_time_seconds": 0, "coding_time_seconds_today": 0, "balance": "You need to have a pocket watcher badge to view this.", "badges": [], "created_at": "2025-08-08T05:24:33.568-04:00", "updated_at": "2025-08-09T07:03:53.254-04:00", "avatar": "https://secure.gravatar.com/avatar/743755ef5f5e55026670382563b9af9e.jpg?s=512&d=https%3A%2F%2Fa.slack-edge.com%2Fdf10d%2Fimg%2Favatars%2Fava_0023-512.png", "custom_css": null}, {"id": 20902, "slack_id": "U099HN537EE", "display_name": "Kaydence", "bio": null, "projects_count": 0, "devlogs_count": 0, "votes_count": 0, "ships_count": 0, "projects": [], "coding_time_seconds": 795, "coding_time_seconds_today": 0, "balance": "You need to have a pocket watcher badge to view this.", "badges": [], "created_at": "2025-08-08T05:49:43.107-04:00", "updated_at": "2025-08-09T16:47:00.503-04:00", "avatar": "https://avatars.slack-edge.com/2025-08-08/9323805062514_45b2e3906f71b7240255_original.jpg", "custom_css": null}, {"id": 20903, "slack_id": "U099HPA2L8N", "display_name": "Ainul Rihat", "bio": null, "projects_count": 0, "devlogs_count": 0, "votes_count": 0, "ships_count": 0, "projects": [], "coding_time_seconds": 0, "coding_time_seconds_today": 0, "balance": "You need to have a pocket watcher badge to view this.", "badges": [], "created_at": "2025-08-08T05:56:42.562-04:00", "updated_at": "2025-08-09T07:03:53.456-04:00", "avatar": "https://secure.gravatar.com/avatar/591d7f3b3ffde8fade27dcd1930d6554.jpg?s=512&d=https%3A%2F%2Fa.slack-edge.com%2Fdf10d%2Fimg%2Favatars%2Fava_0004-512.png", "custom_css": null}, {"id": 20904, "slack_id": "U099JCD31EH", "display_name": "Nnoabelahman", "bio": null, "projects_count": 0, "devlogs_count": 0, "votes_count": 0, "ships_count": 0, "projects": [], "coding_time_seconds": 0, "coding_time_seconds_today": 0, "balance": "You need to have a pocket watcher badge to view this.", "badges": [], "created_at": "2025-08-08T07:10:11.255-04:00", "updated_at": "2025-08-09T18:10:01.777-04:00", "avatar": "https://avatars.slack-edge.com/2025-08-08/9324439292309_4dbd9c6b637ff68615af_original.png", "custom_css": null}, {"id": 20905, "slack_id": "U09AAA5DFCY", "display_name": "Mostafa", "bio": null, "projects_count": 0, "devlogs_count": 0, "votes_count": 0, "ships_count": 0, "projects": [], "coding_time_seconds": 0, "coding_time_seconds_today": 0, "balance": "You need to have a pocket watcher badge to view this.", "badges": [], "created_at": "2025-08-08T07:24:15.938-04:00", "updated_at": "2025-08-09T07:03:53.660-04:00", "avatar": "https://avatars.slack-edge.com/2025-08-08/9324487817109_542fc45fdd2b0d01a10f_original.png", "custom_css": null}], "pagination": {"page": 1041, "pages": 1192, "count": 23828, "items": 20}}