{"users": [{"id": 20906, "slack_id": "U099JEA0L69", "display_name": "Erinola Oyeladun", "bio": null, "projects_count": 0, "devlogs_count": 0, "votes_count": 0, "ships_count": 0, "projects": [], "coding_time_seconds": 0, "coding_time_seconds_today": 0, "balance": "You need to have a pocket watcher badge to view this.", "badges": [], "created_at": "2025-08-08T07:27:05.255-04:00", "updated_at": "2025-08-09T07:03:53.744-04:00", "avatar": "https://secure.gravatar.com/avatar/16c943e743c46d6b6a67e9a846da375c.jpg?s=512&d=https%3A%2F%2Fa.slack-edge.com%2Fdf10d%2Fimg%2Favatars%2Fava_0017-512.png", "custom_css": null}, {"id": 20907, "slack_id": "U099J6R8010", "display_name": "Bhairavi", "bio": null, "projects_count": 2, "devlogs_count": 3, "votes_count": 20, "ships_count": 1, "projects": [{"id": 12586, "title": "Fake_News_ML_Model", "devlogs_count": 1, "created_at": "2025-08-30T07:28:29.419-04:00"}, {"id": 12641, "title": "AI Plagiarism Checker", "devlogs_count": 1, "created_at": "2025-08-30T22:26:52.898-04:00"}], "coding_time_seconds": 9666, "coding_time_seconds_today": 0, "balance": "You need to have a pocket watcher badge to view this.", "badges": [], "created_at": "2025-08-08T07:52:42.693-04:00", "updated_at": "2025-08-30T07:05:11.250-04:00", "avatar": "https://secure.gravatar.com/avatar/4d94b629c09aaf037888ce695b864538.jpg?s=512&d=https%3A%2F%2Fa.slack-edge.com%2Fdf10d%2Fimg%2Favatars%2Fava_0009-512.png", "custom_css": null}, {"id": 20908, "slack_id": "U0995UVSQKH", "display_name": "Lizy Amaya", "bio": null, "projects_count": 0, "devlogs_count": 0, "votes_count": 0, "ships_count": 0, "projects": [], "coding_time_seconds": 0, "coding_time_seconds_today": 0, "balance": "You need to have a pocket watcher badge to view this.", "badges": [], "created_at": "2025-08-08T08:03:20.645-04:00", "updated_at": "2025-08-19T14:06:03.984-04:00", "avatar": "https://avatars.slack-edge.com/2025-08-18/9384971367873_d61df7774ade7ff0ec2a_original.png", "custom_css": null}, {"id": 20909, "slack_id": "U099JCPPGBG", "display_name": "Conall H", "bio": null, "projects_count": 0, "devlogs_count": 0, "votes_count": 0, "ships_count": 0, "projects": [], "coding_time_seconds": 0, "coding_time_seconds_today": 0, "balance": "You need to have a pocket watcher badge to view this.", "badges": [], "created_at": "2025-08-08T08:19:48.112-04:00", "updated_at": "2025-08-09T07:03:54.034-04:00", "avatar": "https://secure.gravatar.com/avatar/4ead013899081e9879b75cbad0c1c942.jpg?s=512&d=https%3A%2F%2Fa.slack-edge.com%2Fdf10d%2Fimg%2Favatars%2Fava_0000-512.png", "custom_css": null}, {"id": 20910, "slack_id": "U09AAHQFALQ", "display_name": "Akshay Muley", "bio": null, "projects_count": 0, "devlogs_count": 0, "votes_count": 0, "ships_count": 0, "projects": [], "coding_time_seconds": 0, "coding_time_seconds_today": 0, "balance": "You need to have a pocket watcher badge to view this.", "badges": [], "created_at": "2025-08-08T08:22:29.125-04:00", "updated_at": "2025-08-09T07:03:54.192-04:00", "avatar": "https://secure.gravatar.com/avatar/6052f1211674297ba25382a10bb763b6.jpg?s=512&d=https%3A%2F%2Fa.slack-edge.com%2Fdf10d%2Fimg%2Favatars%2Fava_0009-512.png", "custom_css": null}, {"id": 20911, "slack_id": "U09AAKH5B96", "display_name": "Amirtha S.", "bio": null, "projects_count": 0, "devlogs_count": 0, "votes_count": 0, "ships_count": 0, "projects": [], "coding_time_seconds": 0, "coding_time_seconds_today": 0, "balance": "You need to have a pocket watcher badge to view this.", "badges": [], "created_at": "2025-08-08T08:35:46.782-04:00", "updated_at": "2025-08-09T07:03:58.344-04:00", "avatar": "https://secure.gravatar.com/avatar/bfec8c89a545e6f9d6272cddb79e30bb.jpg?s=512&d=https%3A%2F%2Fa.slack-edge.com%2Fdf10d%2Fimg%2Favatars%2Fava_0007-512.png", "custom_css": null}, {"id": 20912, "slack_id": "U099JFA5HL2", "display_name": "outrage", "bio": null, "projects_count": 0, "devlogs_count": 0, "votes_count": 0, "ships_count": 0, "projects": [], "coding_time_seconds": 2310, "coding_time_seconds_today": 0, "balance": "You need to have a pocket watcher badge to view this.", "badges": [], "created_at": "2025-08-08T09:00:59.880-04:00", "updated_at": "2025-08-09T07:03:58.521-04:00", "avatar": "https://secure.gravatar.com/avatar/50d1fbb62bda5c3ceae526bc3c874d2e.jpg?s=512&d=https%3A%2F%2Fa.slack-edge.com%2Fdf10d%2Fimg%2Favatars%2Fava_0005-512.png", "custom_css": null}, {"id": 20913, "slack_id": "U09AARS9STS", "display_name": "avika jain", "bio": null, "projects_count": 0, "devlogs_count": 0, "votes_count": 0, "ships_count": 0, "projects": [], "coding_time_seconds": 0, "coding_time_seconds_today": 0, "balance": "You need to have a pocket watcher badge to view this.", "badges": [], "created_at": "2025-08-08T09:15:16.025-04:00", "updated_at": "2025-08-09T07:03:58.630-04:00", "avatar": "https://secure.gravatar.com/avatar/ce0de49260ba50faf83a96373f50e94c.jpg?s=512&d=https%3A%2F%2Fa.slack-edge.com%2Fdf10d%2Fimg%2Favatars%2Fava_0007-512.png", "custom_css": null}, {"id": 20914, "slack_id": "U099JTU2QBY", "display_name": "naya", "bio": null, "projects_count": 0, "devlogs_count": 0, "votes_count": 0, "ships_count": 0, "projects": [], "coding_time_seconds": 5601, "coding_time_seconds_today": 0, "balance": "You need to have a pocket watcher badge to view this.", "badges": [], "created_at": "2025-08-08T09:32:39.539-04:00", "updated_at": "2025-09-12T22:55:44.836-04:00", "avatar": "https://secure.gravatar.com/avatar/f3a63b8b59807557a1b52d396ba5f25b.jpg?s=512&d=https%3A%2F%2Fa.slack-edge.com%2Fdf10d%2Fimg%2Favatars%2Fava_0012-512.png", "custom_css": null}, {"id": 20915, "slack_id": "U096D13DP8X", "display_name": "Niranjan Naik S", "bio": null, "projects_count": 0, "devlogs_count": 0, "votes_count": 0, "ships_count": 0, "projects": [], "coding_time_seconds": 0, "coding_time_seconds_today": 0, "balance": "You need to have a pocket watcher badge to view this.", "badges": [], "created_at": "2025-08-08T09:50:59.328-04:00", "updated_at": "2025-08-09T07:03:58.860-04:00", "avatar": "https://avatars.slack-edge.com/2025-08-08/9351104017200_a8d69ce1a94e1f624948_original.png", "custom_css": null}, {"id": 20916, "slack_id": "U07EBLUF82V", "display_name": "Noah", "bio": null, "projects_count": 0, "devlogs_count": 4, "votes_count": 17, "ships_count": 0, "projects": [], "coding_time_seconds": 97905, "coding_time_seconds_today": 0, "balance": "You need to have a pocket watcher badge to view this.", "badges": [], "created_at": "2025-08-08T09:54:18.695-04:00", "updated_at": "2025-08-11T00:24:23.650-04:00", "avatar": "https://avatars.slack-edge.com/2024-07-25/7477608343636_6d7ae0bb4b45dd5df346_original.jpg", "custom_css": null}, {"id": 20917, "slack_id": "U09AAGJT8U8", "display_name": "Adalyn S", "bio": null, "projects_count": 0, "devlogs_count": 0, "votes_count": 0, "ships_count": 0, "projects": [], "coding_time_seconds": 6701, "coding_time_seconds_today": 0, "balance": "You need to have a pocket watcher badge to view this.", "badges": [], "created_at": "2025-08-08T09:59:18.321-04:00", "updated_at": "2025-08-11T16:21:56.919-04:00", "avatar": "https://secure.gravatar.com/avatar/e4f25c5cd31f0e17c8efd5d1ca40cf2f.jpg?s=512&d=https%3A%2F%2Fa.slack-edge.com%2Fdf10d%2Fimg%2Favatars%2Fava_0023-512.png", "custom_css": null}, {"id": 20918, "slack_id": "U099JRV4ERY", "display_name": "Archana Muthiah", "bio": null, "projects_count": 0, "devlogs_count": 0, "votes_count": 0, "ships_count": 0, "projects": [], "coding_time_seconds": 0, "coding_time_seconds_today": 0, "balance": "You need to have a pocket watcher badge to view this.", "badges": [], "created_at": "2025-08-08T10:11:36.137-04:00", "updated_at": "2025-08-09T07:03:59.162-04:00", "avatar": "https://secure.gravatar.com/avatar/7522822b134ca97e19fefa4587c95549.jpg?s=512&d=https%3A%2F%2Fa.slack-edge.com%2Fdf10d%2Fimg%2Favatars%2Fava_0006-512.png", "custom_css": null}, {"id": 20919, "slack_id": "U099K6MGRTQ", "display_name": "Elisabet Gonzalez", "bio": null, "projects_count": 0, "devlogs_count": 0, "votes_count": 0, "ships_count": 0, "projects": [], "coding_time_seconds": 0, "coding_time_seconds_today": 0, "balance": "You need to have a pocket watcher badge to view this.", "badges": [], "created_at": "2025-08-08T10:14:08.542-04:00", "updated_at": "2025-08-09T07:03:59.280-04:00", "avatar": "https://secure.gravatar.com/avatar/27c40987217bc50a287bdd1694fe91d2.jpg?s=512&d=https%3A%2F%2Fa.slack-edge.com%2Fdf10d%2Fimg%2Favatars%2Fava_0026-512.png", "custom_css": null}, {"id": 20920, "slack_id": "U099PP15QF6", "display_name": "A", "bio": null, "projects_count": 0, "devlogs_count": 0, "votes_count": 0, "ships_count": 0, "projects": [], "coding_time_seconds": 0, "coding_time_seconds_today": 0, "balance": "You need to have a pocket watcher badge to view this.", "badges": [], "created_at": "2025-08-08T10:14:28.907-04:00", "updated_at": "2025-08-09T07:03:59.390-04:00", "avatar": "https://secure.gravatar.com/avatar/54fe24928bb2e8c98949ca3521dcca32.jpg?s=512&d=https%3A%2F%2Fa.slack-edge.com%2Fdf10d%2Fimg%2Favatars%2Fava_0008-512.png", "custom_css": null}, {"id": 20921, "slack_id": "U099PN6QMMJ", "display_name": "Ananya", "bio": null, "projects_count": 0, "devlogs_count": 0, "votes_count": 0, "ships_count": 0, "projects": [], "coding_time_seconds": 0, "coding_time_seconds_today": 0, "balance": "You need to have a pocket watcher badge to view this.", "badges": [], "created_at": "2025-08-08T10:17:55.651-04:00", "updated_at": "2025-08-15T09:52:37.987-04:00", "avatar": "https://avatars.slack-edge.com/2025-08-15/9362004745236_7e846dbf1bc2dd44ebb5_original.jpg", "custom_css": null}, {"id": 20922, "slack_id": "U099JUDE2RY", "display_name": "Shaneli Wickramanayaka", "bio": null, "projects_count": 0, "devlogs_count": 0, "votes_count": 0, "ships_count": 0, "projects": [], "coding_time_seconds": 0, "coding_time_seconds_today": 0, "balance": "You need to have a pocket watcher badge to view this.", "badges": [], "created_at": "2025-08-08T10:25:24.813-04:00", "updated_at": "2025-08-09T07:04:03.625-04:00", "avatar": "https://secure.gravatar.com/avatar/d06db3f81c0332d3bde3b310d134de24.jpg?s=512&d=https%3A%2F%2Fa.slack-edge.com%2Fdf10d%2Fimg%2Favatars%2Fava_0010-512.png", "custom_css": null}, {"id": 20923, "slack_id": "U099K1YG3NW", "display_name": "Yusuf Kenan Demiray", "bio": null, "projects_count": 0, "devlogs_count": 0, "votes_count": 0, "ships_count": 0, "projects": [], "coding_time_seconds": 650, "coding_time_seconds_today": 0, "balance": "You need to have a pocket watcher badge to view this.", "badges": [], "created_at": "2025-08-08T10:43:52.119-04:00", "updated_at": "2025-08-09T07:04:03.739-04:00", "avatar": "https://secure.gravatar.com/avatar/191fcf0f7b38ca5ce1af61953d21a247.jpg?s=512&d=https%3A%2F%2Fa.slack-edge.com%2Fdf10d%2Fimg%2Favatars%2Fava_0002-512.png", "custom_css": null}, {"id": 20924, "slack_id": "U09ABDJBHG8", "display_name": "Shree Usrete", "bio": null, "projects_count": 0, "devlogs_count": 0, "votes_count": 0, "ships_count": 0, "projects": [], "coding_time_seconds": 0, "coding_time_seconds_today": 0, "balance": "You need to have a pocket watcher badge to view this.", "badges": [], "created_at": "2025-08-08T10:51:07.443-04:00", "updated_at": "2025-08-09T07:04:03.831-04:00", "avatar": "https://avatars.slack-edge.com/2025-08-08/9312930324199_66c3d6d280b08ff2601a_original.png", "custom_css": null}, {"id": 20925, "slack_id": "U07DRREAQUS", "display_name": "Arsenic", "bio": null, "projects_count": 0, "devlogs_count": 0, "votes_count": 0, "ships_count": 0, "projects": [], "coding_time_seconds": 0, "coding_time_seconds_today": 0, "balance": "You need to have a pocket watcher badge to view this.", "badges": [], "created_at": "2025-08-08T11:05:58.205-04:00", "updated_at": "2025-08-09T07:04:03.937-04:00", "avatar": "https://avatars.slack-edge.com/2024-08-27/7622691207927_01c00575181780a01c86_original.jpg", "custom_css": null}], "pagination": {"page": 1042, "pages": 1192, "count": 23828, "items": 20}}