{"users": [{"id": 20926, "slack_id": "U099KJSLQR4", "display_name": "vivio", "bio": null, "projects_count": 0, "devlogs_count": 0, "votes_count": 1, "ships_count": 0, "projects": [], "coding_time_seconds": 41839, "coding_time_seconds_today": 0, "balance": "You need to have a pocket watcher badge to view this.", "badges": [], "created_at": "2025-08-08T11:13:10.398-04:00", "updated_at": "2025-08-09T07:04:04.060-04:00", "avatar": "https://avatars.slack-edge.com/2025-08-08/9326343372597_e4e4bfdfcde5600233fa_original.jpg", "custom_css": null}, {"id": 20927, "slack_id": "U09ABJ3AUF2", "display_name": "Eva Juneja", "bio": null, "projects_count": 0, "devlogs_count": 0, "votes_count": 0, "ships_count": 0, "projects": [], "coding_time_seconds": 0, "coding_time_seconds_today": 0, "balance": "You need to have a pocket watcher badge to view this.", "badges": [], "created_at": "2025-08-08T11:13:39.116-04:00", "updated_at": "2025-08-09T07:04:04.452-04:00", "avatar": "https://secure.gravatar.com/avatar/73565cb4edb9e684902cea833a950f4a.jpg?s=512&d=https%3A%2F%2Fa.slack-edge.com%2Fdf10d%2Fimg%2Favatars%2Fava_0016-512.png", "custom_css": null}, {"id": 20928, "slack_id": "U0997291F9D", "display_name": "Zo\u00e9", "bio": null, "projects_count": 0, "devlogs_count": 0, "votes_count": 0, "ships_count": 0, "projects": [], "coding_time_seconds": 6310, "coding_time_seconds_today": 0, "balance": "You need to have a pocket watcher badge to view this.", "badges": [], "created_at": "2025-08-08T11:17:59.319-04:00", "updated_at": "2025-08-09T07:04:04.593-04:00", "avatar": "https://avatars.slack-edge.com/2025-08-08/9351671494944_62b04dfdf64e44e4bf94_original.png", "custom_css": null}, {"id": 20929, "slack_id": "U09973C3XEK", "display_name": "mary bao", "bio": null, "projects_count": 0, "devlogs_count": 0, "votes_count": 0, "ships_count": 0, "projects": [], "coding_time_seconds": 1809, "coding_time_seconds_today": 0, "balance": "You need to have a pocket watcher badge to view this.", "badges": [], "created_at": "2025-08-08T11:24:24.835-04:00", "updated_at": "2025-08-09T07:04:04.684-04:00", "avatar": "https://secure.gravatar.com/avatar/971085ec6f453f9bbb3df547a18951cc.jpg?s=512&d=https%3A%2F%2Fa.slack-edge.com%2Fdf10d%2Fimg%2Favatars%2Fava_0007-512.png", "custom_css": null}, {"id": 20930, "slack_id": "U09977JERGX", "display_name": "Sophia Lin", "bio": null, "projects_count": 0, "devlogs_count": 0, "votes_count": 0, "ships_count": 0, "projects": [], "coding_time_seconds": 0, "coding_time_seconds_today": 0, "balance": "You need to have a pocket watcher badge to view this.", "badges": [], "created_at": "2025-08-08T11:44:47.331-04:00", "updated_at": "2025-09-05T19:42:30.800-04:00", "avatar": "https://secure.gravatar.com/avatar/ba544ab0b48f858bc1f0ade0a7eb0cd9.jpg?s=512&d=https%3A%2F%2Fa.slack-edge.com%2Fdf10d%2Fimg%2Favatars%2Fava_0023-512.png", "custom_css": null}, {"id": 20931, "slack_id": "U099KRSTP46", "display_name": "Kayla", "bio": null, "projects_count": 0, "devlogs_count": 0, "votes_count": 0, "ships_count": 0, "projects": [], "coding_time_seconds": 8383, "coding_time_seconds_today": 0, "balance": "You need to have a pocket watcher badge to view this.", "badges": [], "created_at": "2025-08-08T11:49:03.604-04:00", "updated_at": "2025-08-10T15:57:18.502-04:00", "avatar": "https://secure.gravatar.com/avatar/ba29a4f50d00625259f1854dfea717f3.jpg?s=512&d=https%3A%2F%2Fa.slack-edge.com%2Fdf10d%2Fimg%2Favatars%2Fava_0003-512.png", "custom_css": null}, {"id": 20932, "slack_id": "U09ABRZDSU8", "display_name": "Mariam Diallo", "bio": null, "projects_count": 0, "devlogs_count": 0, "votes_count": 0, "ships_count": 0, "projects": [], "coding_time_seconds": 0, "coding_time_seconds_today": 0, "balance": "You need to have a pocket watcher badge to view this.", "badges": [], "created_at": "2025-08-08T11:54:31.562-04:00", "updated_at": "2025-08-09T07:04:05.092-04:00", "avatar": "https://avatars.slack-edge.com/2025-08-08/9320524559379_6547da92f6379a3df1c0_original.jpg", "custom_css": null}, {"id": 20933, "slack_id": "U099KDK0NFL", "display_name": "Eshaal Sharjeel", "bio": "17-Year-old, Sixth-form student in the UK", "projects_count": 2, "devlogs_count": 3, "votes_count": 1, "ships_count": 0, "projects": [{"id": 10599, "title": "Personal Portfolio", "devlogs_count": 0, "created_at": "2025-08-08T16:42:02.578-04:00"}, {"id": 10605, "title": "Prism Dispersion", "devlogs_count": 3, "created_at": "2025-08-08T18:57:47.102-04:00"}], "coding_time_seconds": 14059, "coding_time_seconds_today": 0, "balance": "You need to have a pocket watcher badge to view this.", "badges": [], "created_at": "2025-08-08T11:55:46.344-04:00", "updated_at": "2025-08-09T07:04:05.189-04:00", "avatar": "https://avatars.slack-edge.com/2025-08-09/9322148665107_615fa99f6170397375aa_original.png", "custom_css": null}, {"id": 20934, "slack_id": "U099KG4GY1G", "display_name": "Theodora", "bio": null, "projects_count": 2, "devlogs_count": 3, "votes_count": 20, "ships_count": 2, "projects": [{"id": 10807, "title": "Escape Cave", "devlogs_count": 1, "created_at": "2025-08-11T02:20:39.363-04:00"}, {"id": 11670, "title": "Scam Guard", "devlogs_count": 2, "created_at": "2025-08-18T09:05:08.711-04:00"}], "coding_time_seconds": 71699, "coding_time_seconds_today": 0, "balance": "You need to have a pocket watcher badge to view this.", "badges": [], "created_at": "2025-08-08T12:12:51.181-04:00", "updated_at": "2025-08-09T04:53:32.723-04:00", "avatar": "https://secure.gravatar.com/avatar/d6afdb92fbf12c360eb0d41a816abb59.jpg?s=512&d=https%3A%2F%2Fa.slack-edge.com%2Fdf10d%2Fimg%2Favatars%2Fava_0005-512.png", "custom_css": null}, {"id": 20935, "slack_id": "U09AC1VPCN4", "display_name": "Anantika", "bio": null, "projects_count": 0, "devlogs_count": 0, "votes_count": 0, "ships_count": 0, "projects": [], "coding_time_seconds": 0, "coding_time_seconds_today": 0, "balance": "You need to have a pocket watcher badge to view this.", "badges": [], "created_at": "2025-08-08T12:24:57.912-04:00", "updated_at": "2025-08-09T07:04:05.409-04:00", "avatar": "https://secure.gravatar.com/avatar/01cd7893c1d43ef882472d84166dfad4.jpg?s=512&d=https%3A%2F%2Fa.slack-edge.com%2Fdf10d%2Fimg%2Favatars%2Fava_0007-512.png", "custom_css": null}, {"id": 20936, "slack_id": "U099L3FSKPG", "display_name": "Veronica Li", "bio": null, "projects_count": 0, "devlogs_count": 0, "votes_count": 0, "ships_count": 0, "projects": [], "coding_time_seconds": 0, "coding_time_seconds_today": 0, "balance": "You need to have a pocket watcher badge to view this.", "badges": [], "created_at": "2025-08-08T12:26:13.408-04:00", "updated_at": "2025-08-09T07:04:05.501-04:00", "avatar": "https://secure.gravatar.com/avatar/463112339ff09a2ef08b0a96ee9bdfdd.jpg?s=512&d=https%3A%2F%2Fa.slack-edge.com%2Fdf10d%2Fimg%2Favatars%2Fava_0000-512.png", "custom_css": null}, {"id": 20937, "slack_id": "U0996LYQV7H", "display_name": "Manuella", "bio": null, "projects_count": 0, "devlogs_count": 0, "votes_count": 0, "ships_count": 0, "projects": [], "coding_time_seconds": 0, "coding_time_seconds_today": 0, "balance": "You need to have a pocket watcher badge to view this.", "badges": [], "created_at": "2025-08-08T12:31:03.671-04:00", "updated_at": "2025-08-09T07:04:05.607-04:00", "avatar": "https://secure.gravatar.com/avatar/4589057bd0270f156db405faa212fe66.jpg?s=512&d=https%3A%2F%2Fa.slack-edge.com%2Fdf10d%2Fimg%2Favatars%2Fava_0020-512.png", "custom_css": null}, {"id": 20938, "slack_id": "U099EKSAH1R", "display_name": "Almaan Arif Hamirani", "bio": null, "projects_count": 1, "devlogs_count": 0, "votes_count": 0, "ships_count": 0, "projects": [{"id": 10586, "title": "Collapse Protocol", "devlogs_count": 0, "created_at": "2025-08-08T12:54:54.124-04:00"}], "coding_time_seconds": 19917, "coding_time_seconds_today": 0, "balance": "You need to have a pocket watcher badge to view this.", "badges": [], "created_at": "2025-08-08T12:31:09.232-04:00", "updated_at": "2025-08-09T07:04:05.693-04:00", "avatar": "https://avatars.slack-edge.com/2025-08-08/9325678637970_3821b029b6ab229cca0b_original.png", "custom_css": null}, {"id": 20939, "slack_id": "U099L5D57TQ", "display_name": "Srishanth Jakka", "bio": null, "projects_count": 0, "devlogs_count": 0, "votes_count": 0, "ships_count": 0, "projects": [], "coding_time_seconds": 957, "coding_time_seconds_today": 0, "balance": "You need to have a pocket watcher badge to view this.", "badges": [], "created_at": "2025-08-08T12:35:54.884-04:00", "updated_at": "2025-08-09T07:04:05.797-04:00", "avatar": "https://secure.gravatar.com/avatar/64db9b0b5092ffa9248bd2eafdae3bef.jpg?s=512&d=https%3A%2F%2Fa.slack-edge.com%2Fdf10d%2Fimg%2Favatars%2Fava_0012-512.png", "custom_css": null}, {"id": 20940, "slack_id": "U089WH57E05", "display_name": "star", "bio": null, "projects_count": 0, "devlogs_count": 0, "votes_count": 0, "ships_count": 0, "projects": [], "coding_time_seconds": 124200, "coding_time_seconds_today": 0, "balance": "You need to have a pocket watcher badge to view this.", "badges": [], "created_at": "2025-08-08T12:36:57.488-04:00", "updated_at": "2025-08-09T21:12:00.791-04:00", "avatar": "https://secure.gravatar.com/avatar/51b272e9ace8c7afa34c29ce3ef76ab1.jpg?s=512&d=https%3A%2F%2Fa.slack-edge.com%2Fdf10d%2Fimg%2Favatars%2Fava_0014-512.png", "custom_css": null}, {"id": 20941, "slack_id": "U099QK8V6J0", "display_name": "Om Sabe", "bio": null, "projects_count": 0, "devlogs_count": 0, "votes_count": 0, "ships_count": 0, "projects": [], "coding_time_seconds": 29416, "coding_time_seconds_today": 0, "balance": "You need to have a pocket watcher badge to view this.", "badges": [], "created_at": "2025-08-08T12:44:58.259-04:00", "updated_at": "2025-09-12T09:51:29.748-04:00", "avatar": "https://avatars.slack-edge.com/2025-09-12/9520645752529_6cc7f0609e34d202cb59_original.jpg", "custom_css": null}, {"id": 20942, "slack_id": "U099L7M3T62", "display_name": "Avantika Nair", "bio": null, "projects_count": 0, "devlogs_count": 0, "votes_count": 0, "ships_count": 0, "projects": [], "coding_time_seconds": 0, "coding_time_seconds_today": 0, "balance": "You need to have a pocket watcher badge to view this.", "badges": [], "created_at": "2025-08-08T12:47:14.230-04:00", "updated_at": "2025-08-09T07:04:06.086-04:00", "avatar": "https://avatars.slack-edge.com/2025-08-08/9325757312306_f7f47b8e28d149c5b269_original.png", "custom_css": null}, {"id": 20943, "slack_id": "U094YGV12AF", "display_name": "Vyb", "bio": null, "projects_count": 0, "devlogs_count": 0, "votes_count": 0, "ships_count": 0, "projects": [], "coding_time_seconds": 0, "coding_time_seconds_today": 0, "balance": "You need to have a pocket watcher badge to view this.", "badges": [], "created_at": "2025-08-08T13:18:18.987-04:00", "updated_at": "2025-08-09T07:04:06.263-04:00", "avatar": "https://secure.gravatar.com/avatar/96ea66d6ef74ca8f14b724ef9d32ed37.jpg?s=512&d=https%3A%2F%2Fa.slack-edge.com%2Fdf10d%2Fimg%2Favatars%2Fava_0013-512.png", "custom_css": null}, {"id": 20944, "slack_id": "U0997QRM51V", "display_name": "cyberahree", "bio": null, "projects_count": 0, "devlogs_count": 0, "votes_count": 0, "ships_count": 0, "projects": [], "coding_time_seconds": 0, "coding_time_seconds_today": 0, "balance": "You need to have a pocket watcher badge to view this.", "badges": [], "created_at": "2025-08-08T13:21:22.310-04:00", "updated_at": "2025-08-09T07:04:06.371-04:00", "avatar": "https://secure.gravatar.com/avatar/702eb8f6a8c12aa877ec4f2556bf2656.jpg?s=512&d=https%3A%2F%2Fa.slack-edge.com%2Fdf10d%2Fimg%2Favatars%2Fava_0026-512.png", "custom_css": null}, {"id": 20945, "slack_id": "U0997QYG8LX", "display_name": "Dhrumit", "bio": null, "projects_count": 0, "devlogs_count": 0, "votes_count": 0, "ships_count": 0, "projects": [], "coding_time_seconds": 0, "coding_time_seconds_today": 0, "balance": "You need to have a pocket watcher badge to view this.", "badges": [], "created_at": "2025-08-08T13:25:30.545-04:00", "updated_at": "2025-08-09T07:04:06.467-04:00", "avatar": "https://secure.gravatar.com/avatar/6a05b0d4cef4d354874824bcdabeaa4e.jpg?s=512&d=https%3A%2F%2Fa.slack-edge.com%2Fdf10d%2Fimg%2Favatars%2Fava_0021-512.png", "custom_css": null}], "pagination": {"page": 1043, "pages": 1192, "count": 23828, "items": 20}}