{"users": [{"id": 20946, "slack_id": "U099LC8DT0W", "display_name": "Avani Samineni", "bio": null, "projects_count": 0, "devlogs_count": 0, "votes_count": 0, "ships_count": 0, "projects": [], "coding_time_seconds": 0, "coding_time_seconds_today": 0, "balance": "You need to have a pocket watcher badge to view this.", "badges": [], "created_at": "2025-08-08T13:25:32.617-04:00", "updated_at": "2025-08-09T07:04:06.566-04:00", "avatar": "https://avatars.slack-edge.com/2025-08-08/9330894137604_f0a011ab4f4aa3bdf5fb_original.png", "custom_css": null}, {"id": 20947, "slack_id": "U09980R5FT9", "display_name": "Parindraa", "bio": null, "projects_count": 0, "devlogs_count": 0, "votes_count": 0, "ships_count": 0, "projects": [], "coding_time_seconds": 0, "coding_time_seconds_today": 0, "balance": "You need to have a pocket watcher badge to view this.", "badges": [], "created_at": "2025-08-08T13:53:19.043-04:00", "updated_at": "2025-08-09T07:04:06.685-04:00", "avatar": "https://secure.gravatar.com/avatar/8bdd5284bb98d777ffa1724029c2f569.jpg?s=512&d=https%3A%2F%2Fa.slack-edge.com%2Fdf10d%2Fimg%2Favatars%2Fava_0005-512.png", "custom_css": null}, {"id": 20948, "slack_id": "U099F3FMATV", "display_name": "Daniel", "bio": null, "projects_count": 0, "devlogs_count": 0, "votes_count": 0, "ships_count": 0, "projects": [], "coding_time_seconds": 0, "coding_time_seconds_today": 0, "balance": "You need to have a pocket watcher badge to view this.", "badges": [], "created_at": "2025-08-08T14:05:11.369-04:00", "updated_at": "2025-08-09T07:04:06.778-04:00", "avatar": "https://secure.gravatar.com/avatar/47dc8f46c87c9aed623d54aaf8638de5.jpg?s=512&d=https%3A%2F%2Fa.slack-edge.com%2Fdf10d%2Fimg%2Favatars%2Fava_0024-512.png", "custom_css": null}, {"id": 20949, "slack_id": "U07FABP79FV", "display_name": "Aruna Choudhary", "bio": null, "projects_count": 0, "devlogs_count": 0, "votes_count": 0, "ships_count": 0, "projects": [], "coding_time_seconds": 0, "coding_time_seconds_today": 0, "balance": "You need to have a pocket watcher badge to view this.", "badges": [], "created_at": "2025-08-08T14:08:46.557-04:00", "updated_at": "2025-08-08T14:09:03.020-04:00", "avatar": "https://secure.gravatar.com/avatar/603305d7d00a4a53a0af2229a4e3ccf7.jpg?s=512&d=https%3A%2F%2Fa.slack-edge.com%2Fdf10d%2Fimg%2Favatars%2Fava_0003-512.png", "custom_css": null}, {"id": 20950, "slack_id": "U076TKN35RC", "display_name": "Om Raheja", "bio": null, "projects_count": 4, "devlogs_count": 11, "votes_count": 80, "ships_count": 4, "projects": [{"id": 10665, "title": "aquarc", "devlogs_count": 3, "created_at": "2025-08-09T12:42:40.965-04:00"}, {"id": 12800, "title": "i love you - rs", "devlogs_count": 2, "created_at": "2025-09-02T21:55:01.406-04:00"}, {"id": 12802, "title": "SkyBot", "devlogs_count": 2, "created_at": "2025-09-02T21:58:53.768-04:00"}, {"id": 13211, "title": "Codeabode Teaching AI Agents", "devlogs_count": 4, "created_at": "2025-09-11T18:30:48.198-04:00"}], "coding_time_seconds": 220698, "coding_time_seconds_today": 1827, "balance": "You need to have a pocket watcher badge to view this.", "badges": [], "created_at": "2025-08-08T14:23:28.308-04:00", "updated_at": "2025-09-03T03:52:56.646-04:00", "avatar": "https://avatars.slack-edge.com/2025-09-02/9475721735040_e64b7048ae7da4b267b7_original.png", "custom_css": null}, {"id": 20951, "slack_id": "U099LHP1QKF", "display_name": "Priyanshi G", "bio": null, "projects_count": 3, "devlogs_count": 17, "votes_count": 5, "ships_count": 1, "projects": [{"id": 11494, "title": "Your Local Guide to Charlotte, North Carolina", "devlogs_count": 4, "created_at": "2025-08-16T10:52:07.109-04:00"}, {"id": 12123, "title": "Cosmic Conquest", "devlogs_count": 3, "created_at": "2025-08-23T09:21:08.870-04:00"}, {"id": 13039, "title": "Story Haven", "devlogs_count": 10, "created_at": "2025-09-07T11:38:52.951-04:00"}], "coding_time_seconds": 188673, "coding_time_seconds_today": 0, "balance": "You need to have a pocket watcher badge to view this.", "badges": [], "created_at": "2025-08-08T14:26:19.885-04:00", "updated_at": "2025-08-24T18:00:04.325-04:00", "avatar": "https://secure.gravatar.com/avatar/99c7470a38fc40bcdf04ddeaa4b79e15.jpg?s=512&d=https%3A%2F%2Fa.slack-edge.com%2Fdf10d%2Fimg%2Favatars%2Fava_0017-512.png", "custom_css": null}, {"id": 20952, "slack_id": "U09AB8T89EU", "display_name": "Arbab Naseer", "bio": null, "projects_count": 0, "devlogs_count": 0, "votes_count": 0, "ships_count": 0, "projects": [], "coding_time_seconds": 0, "coding_time_seconds_today": 0, "balance": "You need to have a pocket watcher badge to view this.", "badges": [], "created_at": "2025-08-08T14:27:11.764-04:00", "updated_at": "2025-08-09T07:04:11.236-04:00", "avatar": "https://secure.gravatar.com/avatar/2eff821dcf0d9264b3804c4df2e4dc48.jpg?s=512&d=https%3A%2F%2Fa.slack-edge.com%2Fdf10d%2Fimg%2Favatars%2Fava_0002-512.png", "custom_css": null}, {"id": 20953, "slack_id": "U099LJL79QD", "display_name": "Nittilai P", "bio": null, "projects_count": 0, "devlogs_count": 0, "votes_count": 0, "ships_count": 0, "projects": [], "coding_time_seconds": 0, "coding_time_seconds_today": 0, "balance": "You need to have a pocket watcher badge to view this.", "badges": [], "created_at": "2025-08-08T14:31:30.816-04:00", "updated_at": "2025-08-09T07:04:11.342-04:00", "avatar": "https://secure.gravatar.com/avatar/16466433543bc92b0008e9156df742cf.jpg?s=512&d=https%3A%2F%2Fa.slack-edge.com%2Fdf10d%2Fimg%2Favatars%2Fava_0023-512.png", "custom_css": null}, {"id": 20954, "slack_id": "U09ACQ21QC8", "display_name": "Prisha G", "bio": null, "projects_count": 2, "devlogs_count": 7, "votes_count": 7, "ships_count": 1, "projects": [{"id": 12224, "title": "Book Recommendations", "devlogs_count": 5, "created_at": "2025-08-24T14:13:20.709-04:00"}, {"id": 13048, "title": "Travel to Asia", "devlogs_count": 3, "created_at": "2025-09-07T15:29:48.997-04:00"}], "coding_time_seconds": 130362, "coding_time_seconds_today": 0, "balance": "You need to have a pocket watcher badge to view this.", "badges": [], "created_at": "2025-08-08T14:34:10.960-04:00", "updated_at": "2025-09-11T03:51:18.191-04:00", "avatar": "https://avatars.slack-edge.com/2025-09-10/9509663008593_3da625fb56f33ac3d220_original.jpg", "custom_css": null}, {"id": 20955, "slack_id": "U09ACQ83CMN", "display_name": "Shipra Valli Putrevu", "bio": null, "projects_count": 0, "devlogs_count": 0, "votes_count": 0, "ships_count": 0, "projects": [], "coding_time_seconds": 0, "coding_time_seconds_today": 0, "balance": "You need to have a pocket watcher badge to view this.", "badges": [], "created_at": "2025-08-08T14:37:48.080-04:00", "updated_at": "2025-08-09T07:04:11.549-04:00", "avatar": "https://secure.gravatar.com/avatar/7768e6e77d31a0a947755a56c0fe7a87.jpg?s=512&d=https%3A%2F%2Fa.slack-edge.com%2Fdf10d%2Fimg%2Favatars%2Fava_0013-512.png", "custom_css": null}, {"id": 20956, "slack_id": "U0998A25Y5D", "display_name": "Nishita", "bio": null, "projects_count": 0, "devlogs_count": 0, "votes_count": 0, "ships_count": 0, "projects": [], "coding_time_seconds": 0, "coding_time_seconds_today": 0, "balance": "You need to have a pocket watcher badge to view this.", "badges": [], "created_at": "2025-08-08T14:52:28.334-04:00", "updated_at": "2025-08-09T07:04:11.644-04:00", "avatar": "https://secure.gravatar.com/avatar/58655c160c2c23e85c4fbcca8f644230.jpg?s=512&d=https%3A%2F%2Fa.slack-edge.com%2Fdf10d%2Fimg%2Favatars%2Fava_0007-512.png", "custom_css": null}, {"id": 20957, "slack_id": "U0998APRRPH", "display_name": "Pablo Gonzalez Alzola", "bio": null, "projects_count": 0, "devlogs_count": 0, "votes_count": 0, "ships_count": 0, "projects": [], "coding_time_seconds": 0, "coding_time_seconds_today": 0, "balance": "You need to have a pocket watcher badge to view this.", "badges": [], "created_at": "2025-08-08T14:56:01.336-04:00", "updated_at": "2025-08-09T07:04:11.749-04:00", "avatar": "https://secure.gravatar.com/avatar/b5d9b596c3ad89e4859ceb7201709ef7.jpg?s=512&d=https%3A%2F%2Fa.slack-edge.com%2Fdf10d%2Fimg%2Favatars%2Fava_0000-512.png", "custom_css": null}, {"id": 20958, "slack_id": "U09ACTMUVRN", "display_name": "Grace Reggy", "bio": null, "projects_count": 0, "devlogs_count": 0, "votes_count": 0, "ships_count": 0, "projects": [], "coding_time_seconds": 0, "coding_time_seconds_today": 0, "balance": "You need to have a pocket watcher badge to view this.", "badges": [], "created_at": "2025-08-08T15:00:36.181-04:00", "updated_at": "2025-08-09T07:04:11.841-04:00", "avatar": "https://secure.gravatar.com/avatar/67b99de9ad2493826193f6aa0fb4c5c1.jpg?s=512&d=https%3A%2F%2Fa.slack-edge.com%2Fdf10d%2Fimg%2Favatars%2Fava_0017-512.png", "custom_css": null}, {"id": 20959, "slack_id": "U099LASSRT4", "display_name": "Darey Valenzuela", "bio": null, "projects_count": 0, "devlogs_count": 0, "votes_count": 0, "ships_count": 0, "projects": [], "coding_time_seconds": 0, "coding_time_seconds_today": 0, "balance": "You need to have a pocket watcher badge to view this.", "badges": [], "created_at": "2025-08-08T15:02:37.103-04:00", "updated_at": "2025-08-09T07:04:11.943-04:00", "avatar": "https://avatars.slack-edge.com/2025-08-08/9326794491605_9343ff1a127ab622a942_original.png", "custom_css": null}, {"id": 20960, "slack_id": "U0998CRE97Z", "display_name": "Jung Min Lee", "bio": null, "projects_count": 0, "devlogs_count": 0, "votes_count": 0, "ships_count": 0, "projects": [], "coding_time_seconds": 170068, "coding_time_seconds_today": 0, "balance": "You need to have a pocket watcher badge to view this.", "badges": [], "created_at": "2025-08-08T15:08:30.794-04:00", "updated_at": "2025-08-09T07:04:16.065-04:00", "avatar": "https://avatars.slack-edge.com/2025-08-08/9326435970386_ed616c1d1b203d464a9a_original.png", "custom_css": null}, {"id": 20961, "slack_id": "U099MHLJ5K3", "display_name": "Wynter Johsnon", "bio": null, "projects_count": 0, "devlogs_count": 0, "votes_count": 0, "ships_count": 0, "projects": [], "coding_time_seconds": 0, "coding_time_seconds_today": 0, "balance": "You need to have a pocket watcher badge to view this.", "badges": [], "created_at": "2025-08-08T15:22:18.888-04:00", "updated_at": "2025-08-09T07:04:16.149-04:00", "avatar": "https://secure.gravatar.com/avatar/ffa4404083069ce1276d83138f7cc07f.jpg?s=512&d=https%3A%2F%2Fa.slack-edge.com%2Fdf10d%2Fimg%2Favatars%2Fava_0024-512.png", "custom_css": null}, {"id": 20962, "slack_id": "U09AD2QP8AU", "display_name": "Sophia", "bio": null, "projects_count": 0, "devlogs_count": 0, "votes_count": 0, "ships_count": 0, "projects": [], "coding_time_seconds": 0, "coding_time_seconds_today": 0, "balance": "You need to have a pocket watcher badge to view this.", "badges": [], "created_at": "2025-08-08T15:29:51.342-04:00", "updated_at": "2025-08-09T07:04:16.240-04:00", "avatar": "https://secure.gravatar.com/avatar/36413059f63ed065f1f13838e1939cef.jpg?s=512&d=https%3A%2F%2Fa.slack-edge.com%2Fdf10d%2Fimg%2Favatars%2Fava_0024-512.png", "custom_css": null}, {"id": 20963, "slack_id": "U09AD29D6RW", "display_name": "Linh V", "bio": null, "projects_count": 0, "devlogs_count": 0, "votes_count": 0, "ships_count": 0, "projects": [], "coding_time_seconds": 0, "coding_time_seconds_today": 0, "balance": "You need to have a pocket watcher badge to view this.", "badges": [], "created_at": "2025-08-08T15:32:23.296-04:00", "updated_at": "2025-08-11T08:46:02.131-04:00", "avatar": "https://secure.gravatar.com/avatar/301565247631e6c780afa5926950322e.jpg?s=512&d=https%3A%2F%2Fa.slack-edge.com%2Fdf10d%2Fimg%2Favatars%2Fava_0005-512.png", "custom_css": null}, {"id": 20964, "slack_id": "U099YG0C70R", "display_name": "Manya Nagesh", "bio": null, "projects_count": 0, "devlogs_count": 0, "votes_count": 0, "ships_count": 0, "projects": [], "coding_time_seconds": 0, "coding_time_seconds_today": 0, "balance": "You need to have a pocket watcher badge to view this.", "badges": [], "created_at": "2025-08-08T15:33:51.338-04:00", "updated_at": "2025-08-09T07:04:16.523-04:00", "avatar": "https://avatars.slack-edge.com/2025-08-08/9314580988215_6233ca44b895b126e6e6_original.png", "custom_css": null}, {"id": 20965, "slack_id": "U08N7SD84BB", "display_name": "coder", "bio": null, "projects_count": 0, "devlogs_count": 0, "votes_count": 0, "ships_count": 0, "projects": [], "coding_time_seconds": 0, "coding_time_seconds_today": 0, "balance": "You need to have a pocket watcher badge to view this.", "badges": [], "created_at": "2025-08-08T15:40:21.122-04:00", "updated_at": "2025-08-08T15:44:56.019-04:00", "avatar": "https://avatars.slack-edge.com/2025-04-12/8730177763991_a2c104467466677ab1ea_original.png", "custom_css": null}], "pagination": {"page": 1044, "pages": 1192, "count": 23828, "items": 20}}