{"users": [{"id": 20966, "slack_id": "U099LL2LECA", "display_name": "Chibueze Benneth", "bio": null, "projects_count": 1, "devlogs_count": 1, "votes_count": 0, "ships_count": 0, "projects": [{"id": 12160, "title": "A Music Mood Predictor", "devlogs_count": 1, "created_at": "2025-08-23T21:00:07.063-04:00"}], "coding_time_seconds": 4867, "coding_time_seconds_today": 0, "balance": "You need to have a pocket watcher badge to view this.", "badges": [], "created_at": "2025-08-08T16:13:24.941-04:00", "updated_at": "2025-08-09T10:14:55.750-04:00", "avatar": "https://secure.gravatar.com/avatar/dac57680a6fbf0a27ce8b616effad73b.jpg?s=512&d=https%3A%2F%2Fa.slack-edge.com%2Fdf10d%2Fimg%2Favatars%2Fava_0005-512.png", "custom_css": null}, {"id": 20967, "slack_id": "U099LV92G5T", "display_name": "Aleena", "bio": null, "projects_count": 0, "devlogs_count": 0, "votes_count": 0, "ships_count": 0, "projects": [], "coding_time_seconds": 0, "coding_time_seconds_today": 0, "balance": "You need to have a pocket watcher badge to view this.", "badges": [], "created_at": "2025-08-08T16:24:50.959-04:00", "updated_at": "2025-08-09T07:04:20.849-04:00", "avatar": "https://secure.gravatar.com/avatar/fa766ceb38a8a5630cdeb06087497deb.jpg?s=512&d=https%3A%2F%2Fa.slack-edge.com%2Fdf10d%2Fimg%2Favatars%2Fava_0011-512.png", "custom_css": null}, {"id": 20968, "slack_id": "U099LV63RUM", "display_name": "Rushil W", "bio": null, "projects_count": 0, "devlogs_count": 0, "votes_count": 0, "ships_count": 0, "projects": [], "coding_time_seconds": 0, "coding_time_seconds_today": 0, "balance": "You need to have a pocket watcher badge to view this.", "badges": [], "created_at": "2025-08-08T16:26:20.627-04:00", "updated_at": "2025-08-11T11:50:52.302-04:00", "avatar": "https://secure.gravatar.com/avatar/77a0b339fd260c854b079b21ab79b979.jpg?s=512&d=https%3A%2F%2Fa.slack-edge.com%2Fdf10d%2Fimg%2Favatars%2Fava_0020-512.png", "custom_css": null}, {"id": 20969, "slack_id": "U099M49PHRB", "display_name": "Azilamo", "bio": null, "projects_count": 0, "devlogs_count": 0, "votes_count": 0, "ships_count": 0, "projects": [], "coding_time_seconds": 0, "coding_time_seconds_today": 0, "balance": "You need to have a pocket watcher badge to view this.", "badges": [], "created_at": "2025-08-08T16:31:45.742-04:00", "updated_at": "2025-08-09T07:04:21.037-04:00", "avatar": "https://avatars.slack-edge.com/2025-08-08/9314870438247_a7c534c5e5094427fc59_original.jpg", "custom_css": null}, {"id": 20970, "slack_id": "U0998QM27FZ", "display_name": "Delfina", "bio": null, "projects_count": 0, "devlogs_count": 0, "votes_count": 0, "ships_count": 0, "projects": [], "coding_time_seconds": 0, "coding_time_seconds_today": 0, "balance": "You need to have a pocket watcher badge to view this.", "badges": [], "created_at": "2025-08-08T16:31:50.140-04:00", "updated_at": "2025-08-09T07:04:21.135-04:00", "avatar": "https://secure.gravatar.com/avatar/2a631452947bbd1e4b792887ddcc7482.jpg?s=512&d=https%3A%2F%2Fa.slack-edge.com%2Fdf10d%2Fimg%2Favatars%2Fava_0024-512.png", "custom_css": null}, {"id": 20971, "slack_id": "U07GE1M1GCF", "display_name": "Ira Chakraborty", "bio": null, "projects_count": 0, "devlogs_count": 0, "votes_count": 0, "ships_count": 0, "projects": [], "coding_time_seconds": 0, "coding_time_seconds_today": 0, "balance": "You need to have a pocket watcher badge to view this.", "badges": [], "created_at": "2025-08-08T16:36:42.331-04:00", "updated_at": "2025-08-09T07:04:21.230-04:00", "avatar": "https://avatars.slack-edge.com/2025-08-08/9326792319714_8c1054d3923906052f26_original.jpg", "custom_css": null}, {"id": 20972, "slack_id": "U081PHE301M", "display_name": "B4sicallyF0x", "bio": null, "projects_count": 0, "devlogs_count": 0, "votes_count": 0, "ships_count": 0, "projects": [], "coding_time_seconds": 0, "coding_time_seconds_today": 0, "balance": "You need to have a pocket watcher badge to view this.", "badges": [], "created_at": "2025-08-08T16:38:28.239-04:00", "updated_at": "2025-08-09T07:04:21.323-04:00", "avatar": "https://secure.gravatar.com/avatar/1b1d5135ddda38603723271f4e04b4b4.jpg?s=512&d=https%3A%2F%2Fa.slack-edge.com%2Fdf10d%2Fimg%2Favatars%2Fava_0022-512.png", "custom_css": null}, {"id": 20973, "slack_id": "U09977G15D5", "display_name": "Yui Ohnuki", "bio": null, "projects_count": 0, "devlogs_count": 0, "votes_count": 0, "ships_count": 0, "projects": [], "coding_time_seconds": 0, "coding_time_seconds_today": 0, "balance": "You need to have a pocket watcher badge to view this.", "badges": [], "created_at": "2025-08-08T16:43:12.949-04:00", "updated_at": "2025-08-09T07:04:21.409-04:00", "avatar": "https://avatars.slack-edge.com/2025-08-08/9340307261761_3f24a819bfe0e15574e1_original.jpg", "custom_css": null}, {"id": 20974, "slack_id": "U099MHUNWCE", "display_name": "Taylor Council", "bio": null, "projects_count": 0, "devlogs_count": 0, "votes_count": 0, "ships_count": 0, "projects": [], "coding_time_seconds": 2964, "coding_time_seconds_today": 0, "balance": "You need to have a pocket watcher badge to view this.", "badges": [], "created_at": "2025-08-08T16:44:31.446-04:00", "updated_at": "2025-09-12T15:22:07.384-04:00", "avatar": "https://avatars.slack-edge.com/2025-08-08/9314913354263_374ce8bb6d7e134c7f54_original.jpg", "custom_css": null}, {"id": 20975, "slack_id": "U099M7L9LP7", "display_name": "Isabella Ruiz", "bio": null, "projects_count": 0, "devlogs_count": 0, "votes_count": 0, "ships_count": 0, "projects": [], "coding_time_seconds": 0, "coding_time_seconds_today": 0, "balance": "You need to have a pocket watcher badge to view this.", "badges": [], "created_at": "2025-08-08T17:01:04.669-04:00", "updated_at": "2025-08-09T07:04:21.609-04:00", "avatar": "https://secure.gravatar.com/avatar/3200961dcb487a8495d6273ffd04ccdf.jpg?s=512&d=https%3A%2F%2Fa.slack-edge.com%2Fdf10d%2Fimg%2Favatars%2Fava_0008-512.png", "custom_css": null}, {"id": 20976, "slack_id": "U099RRSBPQU", "display_name": "Laya", "bio": null, "projects_count": 0, "devlogs_count": 0, "votes_count": 0, "ships_count": 0, "projects": [], "coding_time_seconds": 0, "coding_time_seconds_today": 0, "balance": "You need to have a pocket watcher badge to view this.", "badges": [], "created_at": "2025-08-08T17:03:54.649-04:00", "updated_at": "2025-08-09T07:04:21.707-04:00", "avatar": "https://secure.gravatar.com/avatar/5a1ca4ea7419ad33d1fcb049204e3035.jpg?s=512&d=https%3A%2F%2Fa.slack-edge.com%2Fdf10d%2Fimg%2Favatars%2Fava_0026-512.png", "custom_css": null}, {"id": 20977, "slack_id": "U099LSNUGTC", "display_name": "Noah", "bio": null, "projects_count": 0, "devlogs_count": 0, "votes_count": 0, "ships_count": 0, "projects": [], "coding_time_seconds": 0, "coding_time_seconds_today": 0, "balance": "You need to have a pocket watcher badge to view this.", "badges": [], "created_at": "2025-08-08T17:12:18.509-04:00", "updated_at": "2025-08-09T21:02:36.557-04:00", "avatar": "https://secure.gravatar.com/avatar/10cf3cc34fc647e4096b2ea1f6e61dd0.jpg?s=512&d=https%3A%2F%2Fa.slack-edge.com%2Fdf10d%2Fimg%2Favatars%2Fava_0008-512.png", "custom_css": null}, {"id": 20978, "slack_id": "U099MMZCE7Q", "display_name": "Jadyn", "bio": null, "projects_count": 0, "devlogs_count": 0, "votes_count": 0, "ships_count": 0, "projects": [], "coding_time_seconds": 0, "coding_time_seconds_today": 0, "balance": "You need to have a pocket watcher badge to view this.", "badges": [], "created_at": "2025-08-08T17:16:05.648-04:00", "updated_at": "2025-08-09T07:04:21.915-04:00", "avatar": "https://secure.gravatar.com/avatar/94caf50d53042b802e658131af56c749.jpg?s=512&d=https%3A%2F%2Fa.slack-edge.com%2Fdf10d%2Fimg%2Favatars%2Fava_0009-512.png", "custom_css": null}, {"id": 20979, "slack_id": "U09ACCS8VG8", "display_name": "Kiara", "bio": null, "projects_count": 1, "devlogs_count": 1, "votes_count": 0, "ships_count": 0, "projects": [{"id": 12248, "title": "Constellation Explorer", "devlogs_count": 1, "created_at": "2025-08-24T20:01:17.924-04:00"}], "coding_time_seconds": 45731, "coding_time_seconds_today": 0, "balance": "You need to have a pocket watcher badge to view this.", "badges": [], "created_at": "2025-08-08T17:17:01.905-04:00", "updated_at": "2025-09-20T10:38:23.546-04:00", "avatar": "https://avatars.slack-edge.com/2025-08-08/9327347331605_19884263cd2f3df4e948_original.jpg", "custom_css": null}, {"id": 20980, "slack_id": "U084BNWSBFX", "display_name": "Ilan Ahmed", "bio": null, "projects_count": 0, "devlogs_count": 0, "votes_count": 0, "ships_count": 0, "projects": [], "coding_time_seconds": 0, "coding_time_seconds_today": 0, "balance": "You need to have a pocket watcher badge to view this.", "badges": [], "created_at": "2025-08-08T18:31:51.979-04:00", "updated_at": "2025-08-08T18:32:22.460-04:00", "avatar": "https://avatars.slack-edge.com/2024-12-10/8136094747751_333d2f56e0d38f0fa705_original.png", "custom_css": null}, {"id": 20981, "slack_id": "U099M4P670S", "display_name": "Arsh", "bio": null, "projects_count": 0, "devlogs_count": 0, "votes_count": 0, "ships_count": 0, "projects": [], "coding_time_seconds": 0, "coding_time_seconds_today": 0, "balance": "You need to have a pocket watcher badge to view this.", "badges": [], "created_at": "2025-08-08T18:41:38.761-04:00", "updated_at": "2025-08-09T07:04:22.236-04:00", "avatar": "https://secure.gravatar.com/avatar/365a1b60e2b1781bc36985cf810c6077.jpg?s=512&d=https%3A%2F%2Fa.slack-edge.com%2Fdf10d%2Fimg%2Favatars%2Fava_0021-512.png", "custom_css": null}, {"id": 20982, "slack_id": "U099N1UA0LE", "display_name": "Awuradeba Mensah", "bio": null, "projects_count": 2, "devlogs_count": 2, "votes_count": 1, "ships_count": 1, "projects": [{"id": 10657, "title": "Interactive Avatar", "devlogs_count": 1, "created_at": "2025-08-09T10:38:46.779-04:00"}, {"id": 10787, "title": "Roll My Heart", "devlogs_count": 1, "created_at": "2025-08-10T20:46:12.230-04:00"}], "coding_time_seconds": 16092, "coding_time_seconds_today": 0, "balance": "You need to have a pocket watcher badge to view this.", "badges": [], "created_at": "2025-08-08T18:42:12.520-04:00", "updated_at": "2025-08-09T15:18:51.938-04:00", "avatar": "https://avatars.slack-edge.com/2025-08-08/9340632352401_ac6fae2f2a396b821713_original.png", "custom_css": null}, {"id": 20983, "slack_id": "U09ADRU7G80", "display_name": "Dika Bangoura", "bio": null, "projects_count": 0, "devlogs_count": 0, "votes_count": 0, "ships_count": 0, "projects": [], "coding_time_seconds": 0, "coding_time_seconds_today": 0, "balance": "You need to have a pocket watcher badge to view this.", "badges": [], "created_at": "2025-08-08T18:57:07.519-04:00", "updated_at": "2025-08-09T07:04:22.439-04:00", "avatar": "https://avatars.slack-edge.com/2025-08-08/9322111240067_15bcac5a072ffe907573_original.png", "custom_css": null}, {"id": 20984, "slack_id": "U099MLDSLSZ", "display_name": "Jasmine", "bio": null, "projects_count": 1, "devlogs_count": 3, "votes_count": 2, "ships_count": 1, "projects": [{"id": 11061, "title": "Level Ground Learning", "devlogs_count": 3, "created_at": "2025-08-12T22:28:47.634-04:00"}], "coding_time_seconds": 46416, "coding_time_seconds_today": 0, "balance": "You need to have a pocket watcher badge to view this.", "badges": [], "created_at": "2025-08-08T19:27:27.541-04:00", "updated_at": "2025-08-13T03:30:00.846-04:00", "avatar": "https://secure.gravatar.com/avatar/a65f75cedaab178c350c2db5416da928.jpg?s=512&d=https%3A%2F%2Fa.slack-edge.com%2Fdf10d%2Fimg%2Favatars%2Fava_0012-512.png", "custom_css": null}, {"id": 20985, "slack_id": "U099NVAB8HJ", "display_name": "Hannah Parker", "bio": null, "projects_count": 0, "devlogs_count": 0, "votes_count": 0, "ships_count": 0, "projects": [], "coding_time_seconds": 0, "coding_time_seconds_today": 0, "balance": "You need to have a pocket watcher badge to view this.", "badges": [], "created_at": "2025-08-08T19:29:44.125-04:00", "updated_at": "2025-08-09T07:04:22.658-04:00", "avatar": "https://secure.gravatar.com/avatar/5a13df6d22f81bf64e342cafa35f4db8.jpg?s=512&d=https%3A%2F%2Fa.slack-edge.com%2Fdf10d%2Fimg%2Favatars%2Fava_0006-512.png", "custom_css": null}], "pagination": {"page": 1045, "pages": 1192, "count": 23828, "items": 20}}