{"users": [{"id": 20986, "slack_id": "U099G5M5MCK", "display_name": "i forgot", "bio": null, "projects_count": 0, "devlogs_count": 0, "votes_count": 0, "ships_count": 0, "projects": [], "coding_time_seconds": 0, "coding_time_seconds_today": 0, "balance": "You need to have a pocket watcher badge to view this.", "badges": [], "created_at": "2025-08-08T19:35:34.550-04:00", "updated_at": "2025-08-09T07:04:22.781-04:00", "avatar": "https://avatars.slack-edge.com/2025-08-08/9327720309733_203c7b7a3d95db2ea108_original.png", "custom_css": null}, {"id": 20987, "slack_id": "U08JN012F7G", "display_name": "Hayden", "bio": null, "projects_count": 0, "devlogs_count": 0, "votes_count": 0, "ships_count": 0, "projects": [], "coding_time_seconds": 27330, "coding_time_seconds_today": 0, "balance": "You need to have a pocket watcher badge to view this.", "badges": [], "created_at": "2025-08-08T19:51:11.516-04:00", "updated_at": "2025-08-26T16:37:35.966-04:00", "avatar": "https://secure.gravatar.com/avatar/12a167ae3253bc7f9ad8ea0794c21c55.jpg?s=512&d=https%3A%2F%2Fa.slack-edge.com%2Fdf10d%2Fimg%2Favatars%2Fava_0013-512.png", "custom_css": null}, {"id": 20988, "slack_id": "U0999A6MR3R", "display_name": "Priscilla", "bio": null, "projects_count": 0, "devlogs_count": 0, "votes_count": 0, "ships_count": 0, "projects": [], "coding_time_seconds": 0, "coding_time_seconds_today": 0, "balance": "You need to have a pocket watcher badge to view this.", "badges": [], "created_at": "2025-08-08T19:51:34.543-04:00", "updated_at": "2025-08-09T07:04:27.538-04:00", "avatar": "https://secure.gravatar.com/avatar/e6e4e3fdde8ea87d84859a7954b14ace.jpg?s=512&d=https%3A%2F%2Fa.slack-edge.com%2Fdf10d%2Fimg%2Favatars%2Fava_0002-512.png", "custom_css": null}, {"id": 20989, "slack_id": "U099MNASNFP", "display_name": "iranoutofemails", "bio": null, "projects_count": 0, "devlogs_count": 0, "votes_count": 0, "ships_count": 0, "projects": [], "coding_time_seconds": 0, "coding_time_seconds_today": 0, "balance": "You need to have a pocket watcher badge to view this.", "badges": [], "created_at": "2025-08-08T19:55:35.257-04:00", "updated_at": "2025-08-09T07:04:27.631-04:00", "avatar": "https://avatars.slack-edge.com/2025-08-08/9327759182501_96c376dcd3970872ff62_original.png", "custom_css": null}, {"id": 20990, "slack_id": "U0999G8T7QF", "display_name": "Ayesha", "bio": null, "projects_count": 0, "devlogs_count": 0, "votes_count": 0, "ships_count": 0, "projects": [], "coding_time_seconds": 0, "coding_time_seconds_today": 0, "balance": "You need to have a pocket watcher badge to view this.", "badges": [], "created_at": "2025-08-08T20:27:11.073-04:00", "updated_at": "2025-08-09T07:04:27.725-04:00", "avatar": "https://secure.gravatar.com/avatar/0c18a31980dfb4765c589f21b51e0854.jpg?s=512&d=https%3A%2F%2Fa.slack-edge.com%2Fdf10d%2Fimg%2Favatars%2Fava_0001-512.png", "custom_css": null}, {"id": 20991, "slack_id": "U099MQ12UH3", "display_name": "Shrawani Raj", "bio": null, "projects_count": 0, "devlogs_count": 0, "votes_count": 0, "ships_count": 0, "projects": [], "coding_time_seconds": 0, "coding_time_seconds_today": 0, "balance": "You need to have a pocket watcher badge to view this.", "badges": [], "created_at": "2025-08-08T20:30:55.207-04:00", "updated_at": "2025-08-09T17:56:40.908-04:00", "avatar": "https://avatars.slack-edge.com/2025-08-08/9322291333859_e406a6421b11676ea6f3_original.png", "custom_css": null}, {"id": 20992, "slack_id": "U09AE31GHQ8", "display_name": "Cherry Zhou", "bio": null, "projects_count": 0, "devlogs_count": 0, "votes_count": 0, "ships_count": 0, "projects": [], "coding_time_seconds": 0, "coding_time_seconds_today": 0, "balance": "You need to have a pocket watcher badge to view this.", "badges": [], "created_at": "2025-08-08T20:36:29.514-04:00", "updated_at": "2025-08-09T07:04:27.907-04:00", "avatar": "https://secure.gravatar.com/avatar/42dedde4e3860e19710bd7bd7ffc855b.jpg?s=512&d=https%3A%2F%2Fa.slack-edge.com%2Fdf10d%2Fimg%2Favatars%2Fava_0008-512.png", "custom_css": null}, {"id": 20993, "slack_id": "U099NB8LF54", "display_name": "Isabella Enriquez", "bio": null, "projects_count": 0, "devlogs_count": 0, "votes_count": 0, "ships_count": 0, "projects": [], "coding_time_seconds": 0, "coding_time_seconds_today": 0, "balance": "You need to have a pocket watcher badge to view this.", "badges": [], "created_at": "2025-08-08T21:16:10.614-04:00", "updated_at": "2025-08-09T07:04:27.994-04:00", "avatar": "https://secure.gravatar.com/avatar/27ab0e1cd3b80d9c73aff264b264accc.jpg?s=512&d=https%3A%2F%2Fa.slack-edge.com%2Fdf10d%2Fimg%2Favatars%2Fava_0005-512.png", "custom_css": null}, {"id": 20994, "slack_id": "U09AE7RP600", "display_name": "Nuha Fatima", "bio": null, "projects_count": 0, "devlogs_count": 0, "votes_count": 0, "ships_count": 0, "projects": [], "coding_time_seconds": 120, "coding_time_seconds_today": 0, "balance": "You need to have a pocket watcher badge to view this.", "badges": [], "created_at": "2025-08-08T22:10:22.845-04:00", "updated_at": "2025-09-07T02:30:03.826-04:00", "avatar": "https://avatars.slack-edge.com/2025-08-08/9328533011142_7540730e20ee27071574_original.jpg", "custom_css": null}, {"id": 20995, "slack_id": "U07SBRSRW9E", "display_name": "russell dlugosz", "bio": null, "projects_count": 0, "devlogs_count": 0, "votes_count": 0, "ships_count": 0, "projects": [], "coding_time_seconds": 0, "coding_time_seconds_today": 0, "balance": "You need to have a pocket watcher badge to view this.", "badges": [], "created_at": "2025-08-08T22:15:23.892-04:00", "updated_at": "2025-08-09T07:04:28.177-04:00", "avatar": "https://avatars.slack-edge.com/2024-10-13/7873083711890_af0c862a88e7e5db3f5c_original.png", "custom_css": null}, {"id": 20996, "slack_id": "U099MV8L7J9", "display_name": "Aditi Jayakumar", "bio": null, "projects_count": 0, "devlogs_count": 0, "votes_count": 0, "ships_count": 0, "projects": [], "coding_time_seconds": 0, "coding_time_seconds_today": 0, "balance": "You need to have a pocket watcher badge to view this.", "badges": [], "created_at": "2025-08-08T22:16:18.426-04:00", "updated_at": "2025-08-09T07:04:28.264-04:00", "avatar": "https://secure.gravatar.com/avatar/c9f46e7750c3bd416206753d19b76f18.jpg?s=512&d=https%3A%2F%2Fa.slack-edge.com%2Fdf10d%2Fimg%2Favatars%2Fava_0012-512.png", "custom_css": null}, {"id": 20997, "slack_id": "U099SG89P1S", "display_name": "Nikki", "bio": null, "projects_count": 0, "devlogs_count": 0, "votes_count": 0, "ships_count": 0, "projects": [], "coding_time_seconds": 107086, "coding_time_seconds_today": 0, "balance": "You need to have a pocket watcher badge to view this.", "badges": [], "created_at": "2025-08-08T22:21:01.196-04:00", "updated_at": "2025-08-16T17:07:01.205-04:00", "avatar": "https://avatars.slack-edge.com/2025-08-14/9356954008210_7dd6175e7f9cacf10458_original.png", "custom_css": null}, {"id": 20998, "slack_id": "U099SGFAVD2", "display_name": "Pragathi Prakash", "bio": null, "projects_count": 0, "devlogs_count": 0, "votes_count": 0, "ships_count": 0, "projects": [], "coding_time_seconds": 0, "coding_time_seconds_today": 0, "balance": "You need to have a pocket watcher badge to view this.", "badges": [], "created_at": "2025-08-08T22:29:09.224-04:00", "updated_at": "2025-08-09T07:04:28.445-04:00", "avatar": "https://avatars.slack-edge.com/2025-08-08/9322473675459_cad67315116d02637290_original.jpg", "custom_css": null}, {"id": 20999, "slack_id": "U07PUNA0UQN", "display_name": "MeBadDev", "bio": null, "projects_count": 0, "devlogs_count": 0, "votes_count": 0, "ships_count": 0, "projects": [], "coding_time_seconds": 56687, "coding_time_seconds_today": 0, "balance": "You need to have a pocket watcher badge to view this.", "badges": [], "created_at": "2025-08-08T22:46:12.187-04:00", "updated_at": "2025-08-22T15:53:02.847-04:00", "avatar": "https://avatars.slack-edge.com/2025-08-22/9397152071398_f789527ad0080a069ec0_original.png", "custom_css": null}, {"id": 21000, "slack_id": "U099MJ191KL", "display_name": "Henry Haegelin", "bio": null, "projects_count": 0, "devlogs_count": 0, "votes_count": 0, "ships_count": 0, "projects": [], "coding_time_seconds": 0, "coding_time_seconds_today": 0, "balance": "You need to have a pocket watcher badge to view this.", "badges": [], "created_at": "2025-08-08T22:58:17.385-04:00", "updated_at": "2025-08-09T07:04:28.620-04:00", "avatar": "https://secure.gravatar.com/avatar/43039a4699638d60794cb7e51ea2e5e3.jpg?s=512&d=https%3A%2F%2Fa.slack-edge.com%2Fdf10d%2Fimg%2Favatars%2Fava_0001-512.png", "custom_css": null}, {"id": 21001, "slack_id": "U09AE9LSKB2", "display_name": "Kim", "bio": null, "projects_count": 0, "devlogs_count": 0, "votes_count": 0, "ships_count": 0, "projects": [], "coding_time_seconds": 0, "coding_time_seconds_today": 0, "balance": "You need to have a pocket watcher badge to view this.", "badges": [], "created_at": "2025-08-09T00:08:52.703-04:00", "updated_at": "2025-08-09T07:04:28.718-04:00", "avatar": "https://secure.gravatar.com/avatar/05188395a3a87f48b71e9797c5e6b88f.jpg?s=512&d=https%3A%2F%2Fa.slack-edge.com%2Fdf10d%2Fimg%2Favatars%2Fava_0010-512.png", "custom_css": null}, {"id": 21002, "slack_id": "U099MM33466", "display_name": "Victoria M", "bio": null, "projects_count": 0, "devlogs_count": 0, "votes_count": 0, "ships_count": 0, "projects": [], "coding_time_seconds": 0, "coding_time_seconds_today": 0, "balance": "You need to have a pocket watcher badge to view this.", "badges": [], "created_at": "2025-08-09T00:15:41.088-04:00", "updated_at": "2025-08-09T07:04:28.809-04:00", "avatar": "https://secure.gravatar.com/avatar/ecedb6c7b390a1914fcb886b72092860.jpg?s=512&d=https%3A%2F%2Fa.slack-edge.com%2Fdf10d%2Fimg%2Favatars%2Fava_0019-512.png", "custom_css": null}, {"id": 21003, "slack_id": "U099NM8AW7Q", "display_name": "Jerry Gong", "bio": null, "projects_count": 0, "devlogs_count": 0, "votes_count": 0, "ships_count": 0, "projects": [], "coding_time_seconds": 0, "coding_time_seconds_today": 0, "balance": "You need to have a pocket watcher badge to view this.", "badges": [], "created_at": "2025-08-09T00:16:19.771-04:00", "updated_at": "2025-08-09T07:04:28.899-04:00", "avatar": "https://secure.gravatar.com/avatar/981764375459c8753c55d5310f277923.jpg?s=512&d=https%3A%2F%2Fa.slack-edge.com%2Fdf10d%2Fimg%2Favatars%2Fava_0011-512.png", "custom_css": null}, {"id": 21004, "slack_id": "U0999T9SK1V", "display_name": "Alexandrina Berjan", "bio": null, "projects_count": 0, "devlogs_count": 0, "votes_count": 0, "ships_count": 0, "projects": [], "coding_time_seconds": 0, "coding_time_seconds_today": 0, "balance": "You need to have a pocket watcher badge to view this.", "badges": [], "created_at": "2025-08-09T00:29:44.631-04:00", "updated_at": "2025-08-09T07:04:28.993-04:00", "avatar": "https://avatars.slack-edge.com/2025-08-08/9332718489892_e6ca8536382bd6577818_original.jpg", "custom_css": null}, {"id": 21005, "slack_id": "U09AEHG394G", "display_name": "w0yd", "bio": null, "projects_count": 0, "devlogs_count": 0, "votes_count": 0, "ships_count": 0, "projects": [], "coding_time_seconds": 0, "coding_time_seconds_today": 0, "balance": "You need to have a pocket watcher badge to view this.", "badges": [], "created_at": "2025-08-09T01:51:59.093-04:00", "updated_at": "2025-08-09T07:04:29.087-04:00", "avatar": "https://secure.gravatar.com/avatar/f5777bb20f01291e24af5351aaa79f00.jpg?s=512&d=https%3A%2F%2Fa.slack-edge.com%2Fdf10d%2Fimg%2Favatars%2Fava_0020-512.png", "custom_css": null}], "pagination": {"page": 1046, "pages": 1192, "count": 23828, "items": 20}}