{"users": [{"id": 21006, "slack_id": "U09AEJ3JU56", "display_name": "Anna Burns", "bio": null, "projects_count": 0, "devlogs_count": 0, "votes_count": 0, "ships_count": 0, "projects": [], "coding_time_seconds": 0, "coding_time_seconds_today": 0, "balance": "You need to have a pocket watcher badge to view this.", "badges": [], "created_at": "2025-08-09T02:11:01.710-04:00", "updated_at": "2025-08-12T19:26:57.997-04:00", "avatar": "https://secure.gravatar.com/avatar/9c5f1ab6c074cde660cd2263a35b5a19.jpg?s=512&d=https%3A%2F%2Fa.slack-edge.com%2Fdf10d%2Fimg%2Favatars%2Fava_0006-512.png", "custom_css": null}, {"id": 21007, "slack_id": "U099MGUSGHX", "display_name": "Vivian", "bio": null, "projects_count": 0, "devlogs_count": 0, "votes_count": 0, "ships_count": 0, "projects": [], "coding_time_seconds": 0, "coding_time_seconds_today": 0, "balance": "You need to have a pocket watcher badge to view this.", "badges": [], "created_at": "2025-08-09T02:29:40.394-04:00", "updated_at": "2025-08-09T07:04:29.279-04:00", "avatar": "https://secure.gravatar.com/avatar/40ca8e345291f6130362f2e702f5b606.jpg?s=512&d=https%3A%2F%2Fa.slack-edge.com%2Fdf10d%2Fimg%2Favatars%2Fava_0024-512.png", "custom_css": null}, {"id": 21008, "slack_id": "U08S8M58YSC", "display_name": "Richard Mendoza Medina", "bio": null, "projects_count": 0, "devlogs_count": 0, "votes_count": 0, "ships_count": 0, "projects": [], "coding_time_seconds": 0, "coding_time_seconds_today": 0, "balance": "You need to have a pocket watcher badge to view this.", "badges": [], "created_at": "2025-08-09T02:34:57.649-04:00", "updated_at": "2025-08-09T07:04:29.371-04:00", "avatar": "https://secure.gravatar.com/avatar/84434b76ac6c078af8d2956f9c5b8281.jpg?s=512&d=https%3A%2F%2Fa.slack-edge.com%2Fdf10d%2Fimg%2Favatars%2Fava_0012-512.png", "custom_css": null}, {"id": 21009, "slack_id": "U099C35G0SH", "display_name": "Samuel Adekoya", "bio": null, "projects_count": 0, "devlogs_count": 0, "votes_count": 0, "ships_count": 0, "projects": [], "coding_time_seconds": 221196, "coding_time_seconds_today": 2099, "balance": "You need to have a pocket watcher badge to view this.", "badges": [], "created_at": "2025-08-09T02:47:20.978-04:00", "updated_at": "2025-08-18T02:09:11.965-04:00", "avatar": "https://secure.gravatar.com/avatar/22c17f678f5d8222719517fd08be29fd.jpg?s=512&d=https%3A%2F%2Fa.slack-edge.com%2Fdf10d%2Fimg%2Favatars%2Fava_0014-512.png", "custom_css": null}, {"id": 21010, "slack_id": "U07CCGDLTN2", "display_name": "Tazmeen", "bio": null, "projects_count": 0, "devlogs_count": 0, "votes_count": 0, "ships_count": 0, "projects": [], "coding_time_seconds": 315608, "coding_time_seconds_today": 0, "balance": "You need to have a pocket watcher badge to view this.", "badges": [], "created_at": "2025-08-09T03:36:15.650-04:00", "updated_at": "2025-08-09T07:04:29.543-04:00", "avatar": "https://secure.gravatar.com/avatar/88481de21c56536a8336622d5340b4f3.jpg?s=512&d=https%3A%2F%2Fa.slack-edge.com%2Fdf10d%2Fimg%2Favatars%2Fava_0026-512.png", "custom_css": null}, {"id": 21011, "slack_id": "U099NFKTECV", "display_name": "Anderson011", "bio": null, "projects_count": 0, "devlogs_count": 0, "votes_count": 0, "ships_count": 0, "projects": [], "coding_time_seconds": 0, "coding_time_seconds_today": 0, "balance": "You need to have a pocket watcher badge to view this.", "badges": [], "created_at": "2025-08-09T04:36:47.555-04:00", "updated_at": "2025-08-09T07:04:33.677-04:00", "avatar": "https://secure.gravatar.com/avatar/78566a3205bd1a6588fd53be9e4fb0d6.jpg?s=512&d=https%3A%2F%2Fa.slack-edge.com%2Fdf10d%2Fimg%2Favatars%2Fava_0019-512.png", "custom_css": null}, {"id": 21012, "slack_id": "U099P5SMEHL", "display_name": "Prakhya", "bio": null, "projects_count": 0, "devlogs_count": 0, "votes_count": 0, "ships_count": 0, "projects": [], "coding_time_seconds": 0, "coding_time_seconds_today": 0, "balance": "You need to have a pocket watcher badge to view this.", "badges": [], "created_at": "2025-08-09T05:36:51.353-04:00", "updated_at": "2025-08-09T07:04:33.773-04:00", "avatar": "https://secure.gravatar.com/avatar/2cb9c4edb155a381df7c6232cb1eda95.jpg?s=512&d=https%3A%2F%2Fa.slack-edge.com%2Fdf10d%2Fimg%2Favatars%2Fava_0003-512.png", "custom_css": null}, {"id": 21013, "slack_id": "U099H31NX8T", "display_name": "Andy", "bio": null, "projects_count": 0, "devlogs_count": 0, "votes_count": 0, "ships_count": 0, "projects": [], "coding_time_seconds": 0, "coding_time_seconds_today": 0, "balance": "You need to have a pocket watcher badge to view this.", "badges": [], "created_at": "2025-08-09T06:09:02.339-04:00", "updated_at": "2025-08-09T07:04:33.870-04:00", "avatar": "https://secure.gravatar.com/avatar/120cddc9253b0aaea3fa4fcf483ba6a8.jpg?s=512&d=https%3A%2F%2Fa.slack-edge.com%2Fdf10d%2Fimg%2Favatars%2Fava_0025-512.png", "custom_css": null}, {"id": 21014, "slack_id": "U099N8Q5ERY", "display_name": "test", "bio": "", "projects_count": 0, "devlogs_count": 0, "votes_count": 0, "ships_count": 0, "projects": [], "coding_time_seconds": 0, "coding_time_seconds_today": 0, "balance": "You need to have a pocket watcher badge to view this.", "badges": [], "created_at": "2025-08-09T07:10:15.033-04:00", "updated_at": "2025-08-09T09:52:27.538-04:00", "avatar": "https://secure.gravatar.com/avatar/c6443ed80fe6188729a51eadf81c7a9c.jpg?s=512&d=https%3A%2F%2Fa.slack-edge.com%2Fdf10d%2Fimg%2Favatars%2Fava_0013-512.png", "custom_css": null}, {"id": 21015, "slack_id": "U099N9TUYBC", "display_name": "0xsharad", "bio": null, "projects_count": 0, "devlogs_count": 0, "votes_count": 0, "ships_count": 0, "projects": [], "coding_time_seconds": 0, "coding_time_seconds_today": 0, "balance": "You need to have a pocket watcher badge to view this.", "badges": [], "created_at": "2025-08-09T07:45:42.060-04:00", "updated_at": "2025-08-09T09:52:27.629-04:00", "avatar": "https://secure.gravatar.com/avatar/506a270535e0d5736aed4df512bf4c49.jpg?s=512&d=https%3A%2F%2Fa.slack-edge.com%2Fdf10d%2Fimg%2Favatars%2Fava_0020-512.png", "custom_css": null}, {"id": 21016, "slack_id": "U099NBU6F34", "display_name": "Shaurya", "bio": null, "projects_count": 1, "devlogs_count": 1, "votes_count": 2, "ships_count": 1, "projects": [{"id": 10855, "title": "DAVFest", "devlogs_count": 1, "created_at": "2025-08-11T10:46:02.250-04:00"}], "coding_time_seconds": 35923, "coding_time_seconds_today": 0, "balance": "You need to have a pocket watcher badge to view this.", "badges": [], "created_at": "2025-08-09T08:27:05.324-04:00", "updated_at": "2025-08-10T09:57:59.038-04:00", "avatar": "https://secure.gravatar.com/avatar/385acbd7f4e0d6e65396ecc94618ecfe.jpg?s=512&d=https%3A%2F%2Fa.slack-edge.com%2Fdf10d%2Fimg%2Favatars%2Fava_0001-512.png", "custom_css": null}, {"id": 21017, "slack_id": "U099TAG6V7E", "display_name": "Kristelle", "bio": null, "projects_count": 0, "devlogs_count": 0, "votes_count": 0, "ships_count": 0, "projects": [], "coding_time_seconds": 22893, "coding_time_seconds_today": 0, "balance": "You need to have a pocket watcher badge to view this.", "badges": [], "created_at": "2025-08-09T09:34:51.771-04:00", "updated_at": "2025-08-09T10:16:59.652-04:00", "avatar": "https://secure.gravatar.com/avatar/ae71460da25afd59cd3ba00c412cf40d.jpg?s=512&d=https%3A%2F%2Fa.slack-edge.com%2Fdf10d%2Fimg%2Favatars%2Fava_0026-512.png", "custom_css": null}, {"id": 21018, "slack_id": "U099HBG89A7", "display_name": "kathlynn", "bio": null, "projects_count": 0, "devlogs_count": 0, "votes_count": 0, "ships_count": 0, "projects": [], "coding_time_seconds": 376503, "coding_time_seconds_today": 0, "balance": "You need to have a pocket watcher badge to view this.", "badges": [], "created_at": "2025-08-09T09:34:59.359-04:00", "updated_at": "2025-08-26T19:45:46.300-04:00", "avatar": "https://avatars.slack-edge.com/2025-08-16/9374823661953_10337c6f12f825b10802_original.png", "custom_css": null}, {"id": 21019, "slack_id": "U09AF88PWUQ", "display_name": "Rice", "bio": null, "projects_count": 1, "devlogs_count": 1, "votes_count": 0, "ships_count": 0, "projects": [{"id": 13684, "title": "AsianMod", "devlogs_count": 1, "created_at": "2025-09-22T21:27:43.692-04:00"}], "coding_time_seconds": 9422, "coding_time_seconds_today": 0, "balance": "You need to have a pocket watcher badge to view this.", "badges": [], "created_at": "2025-08-09T09:37:12.497-04:00", "updated_at": "2025-09-22T20:59:35.359-04:00", "avatar": "https://avatars.slack-edge.com/2025-08-29/9419987547783_34f689c84c3391fbc794_original.jpg", "custom_css": null}, {"id": 21020, "slack_id": "U099AMVC1PH", "display_name": "Judah", "bio": null, "projects_count": 0, "devlogs_count": 0, "votes_count": 0, "ships_count": 0, "projects": [], "coding_time_seconds": 363, "coding_time_seconds_today": 0, "balance": "You need to have a pocket watcher badge to view this.", "badges": [], "created_at": "2025-08-09T10:01:59.325-04:00", "updated_at": "2025-08-09T15:52:56.502-04:00", "avatar": "https://secure.gravatar.com/avatar/5cfeb46a30a1de03eb1047d413b58ea7.jpg?s=512&d=https%3A%2F%2Fa.slack-edge.com%2Fdf10d%2Fimg%2Favatars%2Fava_0020-512.png", "custom_css": null}, {"id": 21021, "slack_id": "U099NUURLSZ", "display_name": "Suleyman Sade", "bio": null, "projects_count": 0, "devlogs_count": 0, "votes_count": 0, "ships_count": 0, "projects": [], "coding_time_seconds": 54507, "coding_time_seconds_today": 0, "balance": "You need to have a pocket watcher badge to view this.", "badges": [], "created_at": "2025-08-09T10:02:56.518-04:00", "updated_at": "2025-09-12T03:51:25.330-04:00", "avatar": "https://avatars.slack-edge.com/2025-09-11/9532380576560_e2b352b1bd3155b8ef73_original.png", "custom_css": null}, {"id": 21022, "slack_id": "U099HD2UZFD", "display_name": "Chinnu B", "bio": null, "projects_count": 0, "devlogs_count": 0, "votes_count": 0, "ships_count": 0, "projects": [], "coding_time_seconds": 0, "coding_time_seconds_today": 0, "balance": "You need to have a pocket watcher badge to view this.", "badges": [], "created_at": "2025-08-09T10:07:00.393-04:00", "updated_at": "2025-08-09T15:52:56.680-04:00", "avatar": "https://avatars.slack-edge.com/2025-08-09/9333431270884_9f4a57a53995d359aefe_original.png", "custom_css": null}, {"id": 21023, "slack_id": "U099ANAMZHV", "display_name": "Youssef Mohamed", "bio": null, "projects_count": 0, "devlogs_count": 0, "votes_count": 0, "ships_count": 0, "projects": [], "coding_time_seconds": 0, "coding_time_seconds_today": 0, "balance": "You need to have a pocket watcher badge to view this.", "badges": [], "created_at": "2025-08-09T10:12:26.659-04:00", "updated_at": "2025-08-09T15:52:56.791-04:00", "avatar": "https://secure.gravatar.com/avatar/7e08d54aa07e3b4f174f9b065c808bf6.jpg?s=512&d=https%3A%2F%2Fa.slack-edge.com%2Fdf10d%2Fimg%2Favatars%2Fava_0004-512.png", "custom_css": null}, {"id": 21024, "slack_id": "U07MTFHCWN6", "display_name": "mohammad", "bio": null, "projects_count": 0, "devlogs_count": 0, "votes_count": 0, "ships_count": 0, "projects": [], "coding_time_seconds": 85730, "coding_time_seconds_today": 0, "balance": "You need to have a pocket watcher badge to view this.", "badges": [], "created_at": "2025-08-09T10:37:48.835-04:00", "updated_at": "2025-08-09T15:52:56.918-04:00", "avatar": "https://secure.gravatar.com/avatar/6d802e1b2b6309bb33ee946eea91905b.jpg?s=512&d=https%3A%2F%2Fa.slack-edge.com%2Fdf10d%2Fimg%2Favatars%2Fava_0004-512.png", "custom_css": null}, {"id": 21025, "slack_id": "U099HFN5B1R", "display_name": "ddededodediamante", "bio": null, "projects_count": 2, "devlogs_count": 5, "votes_count": 8, "ships_count": 1, "projects": [{"id": 11627, "title": "BBTGMOIATFI", "devlogs_count": 2, "created_at": "2025-08-17T22:08:29.938-04:00"}, {"id": 10662, "title": "DisFuse - Discord bot creator with block based coding", "devlogs_count": 3, "created_at": "2025-08-09T12:02:26.297-04:00"}], "coding_time_seconds": 281845, "coding_time_seconds_today": 275, "balance": "You need to have a pocket watcher badge to view this.", "badges": [], "created_at": "2025-08-09T11:10:25.067-04:00", "updated_at": "2025-08-17T22:24:49.400-04:00", "avatar": "https://avatars.slack-edge.com/2025-08-09/9317084341351_1ef0aaf30a6823fe9a74_original.png", "custom_css": null}], "pagination": {"page": 1047, "pages": 1192, "count": 23828, "items": 20}}