{"users": [{"id": 21026, "slack_id": "U099ARS99BR", "display_name": "Najib", "bio": null, "projects_count": 0, "devlogs_count": 0, "votes_count": 0, "ships_count": 0, "projects": [], "coding_time_seconds": 0, "coding_time_seconds_today": 0, "balance": "You need to have a pocket watcher badge to view this.", "badges": [], "created_at": "2025-08-09T11:27:06.188-04:00", "updated_at": "2025-08-09T15:52:57.176-04:00", "avatar": "https://secure.gravatar.com/avatar/8e11a493d347980121a95248635fbb00.jpg?s=512&d=https%3A%2F%2Fa.slack-edge.com%2Fdf10d%2Fimg%2Favatars%2Fava_0012-512.png", "custom_css": null}, {"id": 21027, "slack_id": "U09AC5SJR96", "display_name": "Irene", "bio": null, "projects_count": 0, "devlogs_count": 0, "votes_count": 0, "ships_count": 0, "projects": [], "coding_time_seconds": 218, "coding_time_seconds_today": 0, "balance": "You need to have a pocket watcher badge to view this.", "badges": [], "created_at": "2025-08-09T12:13:35.531-04:00", "updated_at": "2025-08-16T11:30:04.559-04:00", "avatar": "https://secure.gravatar.com/avatar/667dce02d5b9ce1d5d2c2959d0de786a.jpg?s=512&d=https%3A%2F%2Fa.slack-edge.com%2Fdf10d%2Fimg%2Favatars%2Fava_0004-512.png", "custom_css": null}, {"id": 21028, "slack_id": "U08RN7971T6", "display_name": "Luca", "bio": null, "projects_count": 0, "devlogs_count": 0, "votes_count": 0, "ships_count": 0, "projects": [], "coding_time_seconds": 425273, "coding_time_seconds_today": 0, "balance": "You need to have a pocket watcher badge to view this.", "badges": [], "created_at": "2025-08-09T12:14:44.021-04:00", "updated_at": "2025-08-09T15:52:57.387-04:00", "avatar": "https://secure.gravatar.com/avatar/15cd8d98dc89492d1ee6113fb89ac34b.jpg?s=512&d=https%3A%2F%2Fa.slack-edge.com%2Fdf10d%2Fimg%2Favatars%2Fava_0002-512.png", "custom_css": null}, {"id": 21029, "slack_id": "U099PRGAYEA", "display_name": "Ayush Pradhan", "bio": null, "projects_count": 0, "devlogs_count": 0, "votes_count": 0, "ships_count": 0, "projects": [], "coding_time_seconds": 0, "coding_time_seconds_today": 0, "balance": "You need to have a pocket watcher badge to view this.", "badges": [], "created_at": "2025-08-09T12:46:57.547-04:00", "updated_at": "2025-08-09T15:52:57.497-04:00", "avatar": "https://secure.gravatar.com/avatar/86ad127876ecc6af6fcb1a6ce374e93c.jpg?s=512&d=https%3A%2F%2Fa.slack-edge.com%2Fdf10d%2Fimg%2Favatars%2Fava_0021-512.png", "custom_css": null}, {"id": 21030, "slack_id": "U099TJ589LL", "display_name": "Arnav Shinde", "bio": null, "projects_count": 0, "devlogs_count": 0, "votes_count": 0, "ships_count": 0, "projects": [], "coding_time_seconds": 0, "coding_time_seconds_today": 0, "balance": "You need to have a pocket watcher badge to view this.", "badges": [], "created_at": "2025-08-09T12:49:24.841-04:00", "updated_at": "2025-08-10T23:59:01.975-04:00", "avatar": "https://secure.gravatar.com/avatar/0c266bd0d0186b40041199aa2d248d95.jpg?s=512&d=https%3A%2F%2Fa.slack-edge.com%2Fdf10d%2Fimg%2Favatars%2Fava_0009-512.png", "custom_css": null}, {"id": 21031, "slack_id": "U099B0FK37Z", "display_name": "Fatima", "bio": null, "projects_count": 0, "devlogs_count": 0, "votes_count": 0, "ships_count": 0, "projects": [], "coding_time_seconds": 1180, "coding_time_seconds_today": 0, "balance": "You need to have a pocket watcher badge to view this.", "badges": [], "created_at": "2025-08-09T12:56:20.566-04:00", "updated_at": "2025-08-09T15:52:57.685-04:00", "avatar": "https://avatars.slack-edge.com/2025-08-09/9317117455591_e8c50192d5cf83a457d4_original.jpg", "custom_css": null}, {"id": 21032, "slack_id": "U08JC1CKJ78", "display_name": "Abu Talha", "bio": null, "projects_count": 1, "devlogs_count": 0, "votes_count": 0, "ships_count": 0, "projects": [{"id": 12430, "title": "BatVault", "devlogs_count": 0, "created_at": "2025-08-27T10:44:22.802-04:00"}], "coding_time_seconds": 5164, "coding_time_seconds_today": 0, "balance": "You need to have a pocket watcher badge to view this.", "badges": [], "created_at": "2025-08-09T12:59:24.202-04:00", "updated_at": "2025-08-13T11:36:37.947-04:00", "avatar": "https://secure.gravatar.com/avatar/2fee59a57492bc70828b200532891757.jpg?s=512&d=https%3A%2F%2Fa.slack-edge.com%2Fdf10d%2Fimg%2Favatars%2Fava_0019-512.png", "custom_css": null}, {"id": 21033, "slack_id": "U099PSP0J22", "display_name": "Jade", "bio": null, "projects_count": 0, "devlogs_count": 0, "votes_count": 0, "ships_count": 0, "projects": [], "coding_time_seconds": 0, "coding_time_seconds_today": 0, "balance": "You need to have a pocket watcher badge to view this.", "badges": [], "created_at": "2025-08-09T13:11:32.890-04:00", "updated_at": "2025-08-09T15:52:57.841-04:00", "avatar": "https://avatars.slack-edge.com/2025-08-09/9342349638177_02f68dd0d227de8bfe7a_original.jpg", "custom_css": null}, {"id": 21034, "slack_id": "U099TJU5QRJ", "display_name": "shaista", "bio": null, "projects_count": 0, "devlogs_count": 0, "votes_count": 0, "ships_count": 0, "projects": [], "coding_time_seconds": 0, "coding_time_seconds_today": 0, "balance": "You need to have a pocket watcher badge to view this.", "badges": [], "created_at": "2025-08-09T13:11:35.623-04:00", "updated_at": "2025-08-09T15:52:57.927-04:00", "avatar": "https://secure.gravatar.com/avatar/9fffa391372b581998298b9581437bac.jpg?s=512&d=https%3A%2F%2Fa.slack-edge.com%2Fdf10d%2Fimg%2Favatars%2Fava_0009-512.png", "custom_css": null}, {"id": 21035, "slack_id": "U099NRJH24S", "display_name": "Aarika", "bio": null, "projects_count": 0, "devlogs_count": 0, "votes_count": 0, "ships_count": 0, "projects": [], "coding_time_seconds": 0, "coding_time_seconds_today": 0, "balance": "You need to have a pocket watcher badge to view this.", "badges": [], "created_at": "2025-08-09T13:25:05.173-04:00", "updated_at": "2025-08-09T15:52:58.031-04:00", "avatar": "https://secure.gravatar.com/avatar/bbc8d138d1026f6b86bdf654b7f2517b.jpg?s=512&d=https%3A%2F%2Fa.slack-edge.com%2Fdf10d%2Fimg%2Favatars%2Fava_0013-512.png", "custom_css": null}, {"id": 21036, "slack_id": "U099HN0BL2F", "display_name": "Zainab Iqbal", "bio": null, "projects_count": 0, "devlogs_count": 0, "votes_count": 0, "ships_count": 0, "projects": [], "coding_time_seconds": 0, "coding_time_seconds_today": 0, "balance": "You need to have a pocket watcher badge to view this.", "badges": [], "created_at": "2025-08-09T13:36:53.604-04:00", "updated_at": "2025-08-09T15:53:02.193-04:00", "avatar": "https://secure.gravatar.com/avatar/8d53fc87e182fd47ba5861c4de9405f6.jpg?s=512&d=https%3A%2F%2Fa.slack-edge.com%2Fdf10d%2Fimg%2Favatars%2Fava_0018-512.png", "custom_css": null}, {"id": 21037, "slack_id": "U099PNJ5SP8", "display_name": "Paula Guti\u00e9rrez Mart\u00ednez", "bio": null, "projects_count": 0, "devlogs_count": 0, "votes_count": 0, "ships_count": 0, "projects": [], "coding_time_seconds": 0, "coding_time_seconds_today": 0, "balance": "You need to have a pocket watcher badge to view this.", "badges": [], "created_at": "2025-08-09T13:39:02.147-04:00", "updated_at": "2025-08-09T15:53:02.317-04:00", "avatar": "https://secure.gravatar.com/avatar/9acb222a735786e375011dbb08576d4c.jpg?s=512&d=https%3A%2F%2Fa.slack-edge.com%2Fdf10d%2Fimg%2Favatars%2Fava_0014-512.png", "custom_css": null}, {"id": 21038, "slack_id": "U099NTGKGLA", "display_name": "L1L14N", "bio": "", "projects_count": 8, "devlogs_count": 62, "votes_count": 141, "ships_count": 7, "projects": [{"id": 12612, "title": "RandomLink", "devlogs_count": 10, "created_at": "2025-08-30T12:54:21.437-04:00"}, {"id": 12817, "title": "Web Resizer", "devlogs_count": 8, "created_at": "2025-09-03T07:19:50.675-04:00"}, {"id": 13140, "title": "Folder Architecture Viewer", "devlogs_count": 7, "created_at": "2025-09-09T12:44:11.188-04:00"}, {"id": 13142, "title": "Pixelator", "devlogs_count": 7, "created_at": "2025-09-09T13:06:24.856-04:00"}, {"id": 13273, "title": "Twitch Chat simulator", "devlogs_count": 9, "created_at": "2025-09-13T03:43:59.625-04:00"}, {"id": 13482, "title": "Spotify Ticket", "devlogs_count": 10, "created_at": "2025-09-17T13:30:37.279-04:00"}, {"id": 13734, "title": "Fingerprinting Calculator", "devlogs_count": 2, "created_at": "2025-09-24T08:12:08.966-04:00"}, {"id": 11923, "title": "CheckBoard", "devlogs_count": 8, "created_at": "2025-08-21T05:56:04.371-04:00"}], "coding_time_seconds": 731066, "coding_time_seconds_today": 0, "balance": "You need to have a pocket watcher badge to view this.", "badges": [{"name": "Maiden Voyage", "text": "you shipped your first project! the journey begins...", "icon": "\ud83d\udea2"}, {"name": "Ballot Stuffer", "text": "vote 100 times.", "icon": "https://summer.hackclub.com/assets/i_voted-bf851b48.png"}], "created_at": "2025-08-09T14:08:56.732-04:00", "updated_at": "2025-09-12T16:43:14.079-04:00", "avatar": "https://secure.gravatar.com/avatar/53a96bd6a73d4bf0846956f2199d4473.jpg?s=512&d=https%3A%2F%2Fa.slack-edge.com%2Fdf10d%2Fimg%2Favatars%2Fava_0002-512.png", "custom_css": null}, {"id": 21039, "slack_id": "U099PAC37DK", "display_name": "Sara", "bio": null, "projects_count": 0, "devlogs_count": 0, "votes_count": 0, "ships_count": 0, "projects": [], "coding_time_seconds": 0, "coding_time_seconds_today": 0, "balance": "You need to have a pocket watcher badge to view this.", "badges": [], "created_at": "2025-08-09T14:11:59.108-04:00", "updated_at": "2025-08-09T15:53:02.606-04:00", "avatar": "https://secure.gravatar.com/avatar/ef3eaa0267726e2ff0008922a16010d6.jpg?s=512&d=https%3A%2F%2Fa.slack-edge.com%2Fdf10d%2Fimg%2Favatars%2Fava_0003-512.png", "custom_css": null}, {"id": 21040, "slack_id": "U099NTTNHQA", "display_name": "Rudraksh Gupta", "bio": null, "projects_count": 1, "devlogs_count": 0, "votes_count": 0, "ships_count": 0, "projects": [{"id": 10682, "title": "Black Scholes Option Growth Model", "devlogs_count": 0, "created_at": "2025-08-09T14:40:08.719-04:00"}], "coding_time_seconds": 120, "coding_time_seconds_today": 0, "balance": "You need to have a pocket watcher badge to view this.", "badges": [], "created_at": "2025-08-09T14:17:33.069-04:00", "updated_at": "2025-08-09T15:53:02.710-04:00", "avatar": "https://avatars.slack-edge.com/2025-08-09/9323811455219_6cd52a9578d892924864_original.jpg", "custom_css": null}, {"id": 21041, "slack_id": "U09AFMHTXME", "display_name": "Ted He", "bio": null, "projects_count": 0, "devlogs_count": 0, "votes_count": 0, "ships_count": 0, "projects": [], "coding_time_seconds": 0, "coding_time_seconds_today": 0, "balance": "You need to have a pocket watcher badge to view this.", "badges": [], "created_at": "2025-08-09T14:19:54.857-04:00", "updated_at": "2025-08-09T15:53:02.796-04:00", "avatar": "https://avatars.slack-edge.com/2025-08-09/9329029170930_79ccb5c5ece16b717cef_original.png", "custom_css": null}, {"id": 21042, "slack_id": "U099TMLGJ68", "display_name": "jawafa", "bio": null, "projects_count": 1, "devlogs_count": 0, "votes_count": 1, "ships_count": 0, "projects": [{"id": 10691, "title": "Which animal am I thinking about", "devlogs_count": 0, "created_at": "2025-08-09T15:57:08.876-04:00"}], "coding_time_seconds": 2689, "coding_time_seconds_today": 0, "balance": "You need to have a pocket watcher badge to view this.", "badges": [], "created_at": "2025-08-09T14:25:06.795-04:00", "updated_at": "2025-08-12T16:00:17.094-04:00", "avatar": "https://secure.gravatar.com/avatar/db5682fb56bb2f71449972b93e0f11a0.jpg?s=512&d=https%3A%2F%2Fa.slack-edge.com%2Fdf10d%2Fimg%2Favatars%2Fava_0018-512.png", "custom_css": null}, {"id": 21043, "slack_id": "U0997L75CPR", "display_name": "Marwa", "bio": null, "projects_count": 0, "devlogs_count": 0, "votes_count": 0, "ships_count": 0, "projects": [], "coding_time_seconds": 0, "coding_time_seconds_today": 0, "balance": "You need to have a pocket watcher badge to view this.", "badges": [], "created_at": "2025-08-09T14:42:29.234-04:00", "updated_at": "2025-08-09T15:53:02.988-04:00", "avatar": "https://secure.gravatar.com/avatar/a3ea3e2db018f23ac383181b5c24ec0e.jpg?s=512&d=https%3A%2F%2Fa.slack-edge.com%2Fdf10d%2Fimg%2Favatars%2Fava_0017-512.png", "custom_css": null}, {"id": 21044, "slack_id": "U099A0RU97H", "display_name": "Tisha", "bio": null, "projects_count": 0, "devlogs_count": 0, "votes_count": 0, "ships_count": 0, "projects": [], "coding_time_seconds": 0, "coding_time_seconds_today": 0, "balance": "You need to have a pocket watcher badge to view this.", "badges": [], "created_at": "2025-08-09T14:43:12.961-04:00", "updated_at": "2025-08-09T15:53:03.070-04:00", "avatar": "https://secure.gravatar.com/avatar/df69a7d37600030ae087936ff1a94755.jpg?s=512&d=https%3A%2F%2Fa.slack-edge.com%2Fdf10d%2Fimg%2Favatars%2Fava_0001-512.png", "custom_css": null}, {"id": 21045, "slack_id": "U099HRB32D9", "display_name": "Emily", "bio": null, "projects_count": 0, "devlogs_count": 0, "votes_count": 0, "ships_count": 0, "projects": [], "coding_time_seconds": 0, "coding_time_seconds_today": 0, "balance": "You need to have a pocket watcher badge to view this.", "badges": [], "created_at": "2025-08-09T14:55:48.265-04:00", "updated_at": "2025-08-09T15:53:03.183-04:00", "avatar": "https://secure.gravatar.com/avatar/92258bee2ad63914c07c589a4ff6c750.jpg?s=512&d=https%3A%2F%2Fa.slack-edge.com%2Fdf10d%2Fimg%2Favatars%2Fava_0015-512.png", "custom_css": null}], "pagination": {"page": 1048, "pages": 1192, "count": 23828, "items": 20}}