{"users": [{"id": 21046, "slack_id": "U09AFP89LMN", "display_name": "\u0641\u0627\u0631\u0633", "bio": null, "projects_count": 0, "devlogs_count": 0, "votes_count": 0, "ships_count": 0, "projects": [], "coding_time_seconds": 0, "coding_time_seconds_today": 0, "balance": "You need to have a pocket watcher badge to view this.", "badges": [], "created_at": "2025-08-09T15:10:48.888-04:00", "updated_at": "2025-09-15T19:51:26.389-04:00", "avatar": "https://avatars.slack-edge.com/2025-09-16/9518278932339_cba6dede56244599eb2c_original.png", "custom_css": null}, {"id": 21047, "slack_id": "U09AFPZ852L", "display_name": "Kasey G", "bio": null, "projects_count": 0, "devlogs_count": 0, "votes_count": 0, "ships_count": 0, "projects": [], "coding_time_seconds": 5479, "coding_time_seconds_today": 0, "balance": "You need to have a pocket watcher badge to view this.", "badges": [], "created_at": "2025-08-09T15:18:37.682-04:00", "updated_at": "2025-09-22T15:39:34.446-04:00", "avatar": "https://avatars.slack-edge.com/2025-08-09/9329040232226_5ef8451add33b0af8543_original.png", "custom_css": null}, {"id": 21048, "slack_id": "U099ZNM68N5", "display_name": "Marwa", "bio": null, "projects_count": 0, "devlogs_count": 0, "votes_count": 0, "ships_count": 0, "projects": [], "coding_time_seconds": 130911, "coding_time_seconds_today": 0, "balance": "You need to have a pocket watcher badge to view this.", "badges": [], "created_at": "2025-08-09T15:27:03.781-04:00", "updated_at": "2025-08-20T21:49:32.885-04:00", "avatar": "https://avatars.slack-edge.com/2025-08-10/9326616405971_a9322527038661abc850_original.jpg", "custom_css": null}, {"id": 21049, "slack_id": "U099Q35AG3Y", "display_name": "\u0645\u062d\u0645\u062f", "bio": null, "projects_count": 0, "devlogs_count": 0, "votes_count": 0, "ships_count": 0, "projects": [], "coding_time_seconds": 0, "coding_time_seconds_today": 0, "balance": "You need to have a pocket watcher badge to view this.", "badges": [], "created_at": "2025-08-09T15:28:20.368-04:00", "updated_at": "2025-08-11T02:38:02.613-04:00", "avatar": "https://avatars.slack-edge.com/2025-08-09/9330117743398_49b9e3b3ea5427e28759_original.png", "custom_css": null}, {"id": 21050, "slack_id": "U09AFQM7EM6", "display_name": "gusta", "bio": null, "projects_count": 0, "devlogs_count": 0, "votes_count": 0, "ships_count": 0, "projects": [], "coding_time_seconds": 0, "coding_time_seconds_today": 0, "balance": "You need to have a pocket watcher badge to view this.", "badges": [], "created_at": "2025-08-09T15:37:07.837-04:00", "updated_at": "2025-08-09T15:53:07.707-04:00", "avatar": "https://secure.gravatar.com/avatar/f6af23c3982e3eb49a2bbda96d65aeb8.jpg?s=512&d=https%3A%2F%2Fa.slack-edge.com%2Fdf10d%2Fimg%2Favatars%2Fava_0000-512.png", "custom_css": null}, {"id": 21051, "slack_id": "U099B6LJY9M", "display_name": "Ana L\u00edvia da Silva", "bio": null, "projects_count": 0, "devlogs_count": 0, "votes_count": 0, "ships_count": 0, "projects": [], "coding_time_seconds": 0, "coding_time_seconds_today": 0, "balance": "You need to have a pocket watcher badge to view this.", "badges": [], "created_at": "2025-08-09T15:37:59.081-04:00", "updated_at": "2025-09-01T16:21:08.777-04:00", "avatar": "https://secure.gravatar.com/avatar/dc171525846462d85abae2e0bcf03dd4.jpg?s=512&d=https%3A%2F%2Fa.slack-edge.com%2Fdf10d%2Fimg%2Favatars%2Fava_0026-512.png", "custom_css": null}, {"id": 21052, "slack_id": "U09AFQWFN9W", "display_name": "Charlie Richardson", "bio": null, "projects_count": 0, "devlogs_count": 0, "votes_count": 0, "ships_count": 0, "projects": [], "coding_time_seconds": 0, "coding_time_seconds_today": 0, "balance": "You need to have a pocket watcher badge to view this.", "badges": [], "created_at": "2025-08-09T15:40:19.766-04:00", "updated_at": "2025-08-09T16:04:28.088-04:00", "avatar": "https://secure.gravatar.com/avatar/efe2c084d3f87f60cb5fc8c740b9155d.jpg?s=512&d=https%3A%2F%2Fa.slack-edge.com%2Fdf10d%2Fimg%2Favatars%2Fava_0004-512.png", "custom_css": null}, {"id": 21053, "slack_id": "U099Q3RM9AS", "display_name": "\u0645\u062d\u0645\u0648\u062f", "bio": null, "projects_count": 0, "devlogs_count": 0, "votes_count": 0, "ships_count": 0, "projects": [], "coding_time_seconds": 0, "coding_time_seconds_today": 0, "balance": "You need to have a pocket watcher badge to view this.", "badges": [], "created_at": "2025-08-09T15:41:52.457-04:00", "updated_at": "2025-08-11T02:51:02.647-04:00", "avatar": "https://avatars.slack-edge.com/2025-08-09/9355856566896_264c5756d3f6236f7ea3_original.png", "custom_css": null}, {"id": 21054, "slack_id": "U099TQLJ29J", "display_name": "\u0647\u064a\u062b\u0645", "bio": null, "projects_count": 0, "devlogs_count": 0, "votes_count": 0, "ships_count": 0, "projects": [], "coding_time_seconds": 0, "coding_time_seconds_today": 0, "balance": "You need to have a pocket watcher badge to view this.", "badges": [], "created_at": "2025-08-09T15:52:40.906-04:00", "updated_at": "2025-08-11T18:00:03.983-04:00", "avatar": "https://avatars.slack-edge.com/2025-08-09/9329495881941_bea9a0b4d5f4c1e36ca9_original.png", "custom_css": null}, {"id": 21055, "slack_id": "U09AFRF73ME", "display_name": "Nuhamin Michael", "bio": null, "projects_count": 0, "devlogs_count": 0, "votes_count": 0, "ships_count": 0, "projects": [], "coding_time_seconds": 0, "coding_time_seconds_today": 0, "balance": "You need to have a pocket watcher badge to view this.", "badges": [], "created_at": "2025-08-09T15:55:03.436-04:00", "updated_at": "2025-08-10T03:53:12.979-04:00", "avatar": "https://avatars.slack-edge.com/2025-08-09/9330154917910_3ffc81c18b9a06006e61_original.png", "custom_css": null}, {"id": 21056, "slack_id": "U099TRFRCE8", "display_name": "Lindsey M", "bio": null, "projects_count": 0, "devlogs_count": 0, "votes_count": 0, "ships_count": 0, "projects": [], "coding_time_seconds": 0, "coding_time_seconds_today": 0, "balance": "You need to have a pocket watcher badge to view this.", "badges": [], "created_at": "2025-08-09T16:18:34.645-04:00", "updated_at": "2025-08-11T09:40:09.031-04:00", "avatar": "https://avatars.slack-edge.com/2025-08-09/9330189302694_50656692acec1e7e857a_original.png", "custom_css": null}, {"id": 21057, "slack_id": "U07GSA23FTM", "display_name": "Philomusic1", "bio": "", "projects_count": 4, "devlogs_count": 8, "votes_count": 77, "ships_count": 4, "projects": [{"id": 11861, "title": "Quick Count! ", "devlogs_count": 3, "created_at": "2025-08-20T11:52:32.877-04:00"}, {"id": 11962, "title": "Escape The Loop", "devlogs_count": 3, "created_at": "2025-08-21T13:53:30.199-04:00"}, {"id": 12611, "title": "Catch the Falling Stars", "devlogs_count": 1, "created_at": "2025-08-30T12:15:20.487-04:00"}, {"id": 12673, "title": "TFTUD - DigiRead (website)", "devlogs_count": 1, "created_at": "2025-08-31T12:03:10.354-04:00"}], "coding_time_seconds": 45919, "coding_time_seconds_today": 0, "balance": "You need to have a pocket watcher badge to view this.", "badges": [], "created_at": "2025-08-09T16:53:14.119-04:00", "updated_at": "2025-08-14T16:00:02.042-04:00", "avatar": "https://secure.gravatar.com/avatar/e199dde8844a5a4f82545cefc1ac69db.jpg?s=512&d=https%3A%2F%2Fa.slack-edge.com%2Fdf10d%2Fimg%2Favatars%2Fava_0003-512.png", "custom_css": null}, {"id": 21058, "slack_id": "U096DTCEXC0", "display_name": "harshii", "bio": null, "projects_count": 0, "devlogs_count": 0, "votes_count": 0, "ships_count": 0, "projects": [], "coding_time_seconds": 0, "coding_time_seconds_today": 0, "balance": "You need to have a pocket watcher badge to view this.", "badges": [], "created_at": "2025-08-09T16:58:23.946-04:00", "updated_at": "2025-08-10T03:53:13.631-04:00", "avatar": "https://secure.gravatar.com/avatar/1636e575fc4f0e7032543eba34afe72b.jpg?s=512&d=https%3A%2F%2Fa.slack-edge.com%2Fdf10d%2Fimg%2Favatars%2Fava_0024-512.png", "custom_css": null}, {"id": 21059, "slack_id": "U099Q6YT2KY", "display_name": "SOM Monitor", "bio": null, "projects_count": 0, "devlogs_count": 0, "votes_count": 0, "ships_count": 0, "projects": [], "coding_time_seconds": 0, "coding_time_seconds_today": 0, "balance": "You need to have a pocket watcher badge to view this.", "badges": [], "created_at": "2025-08-09T16:59:13.340-04:00", "updated_at": "2025-09-09T15:42:05.771-04:00", "avatar": "https://secure.gravatar.com/avatar/b0f084a304cbd7932154167f2fbdd577.jpg?s=512&d=https%3A%2F%2Fa.slack-edge.com%2Fdf10d%2Fimg%2Favatars%2Fava_0005-512.png", "custom_css": null}, {"id": 21060, "slack_id": "U09A2L3LHB3", "display_name": "Kimberly", "bio": null, "projects_count": 0, "devlogs_count": 0, "votes_count": 0, "ships_count": 0, "projects": [], "coding_time_seconds": 0, "coding_time_seconds_today": 0, "balance": "You need to have a pocket watcher badge to view this.", "badges": [], "created_at": "2025-08-09T17:14:26.639-04:00", "updated_at": "2025-08-10T03:53:13.785-04:00", "avatar": "https://secure.gravatar.com/avatar/c37d01e2e584f7d965f2fb76620689c2.jpg?s=512&d=https%3A%2F%2Fa.slack-edge.com%2Fdf10d%2Fimg%2Favatars%2Fava_0021-512.png", "custom_css": null}, {"id": 21061, "slack_id": "U09A2M2LYUR", "display_name": "muneeza", "bio": null, "projects_count": 0, "devlogs_count": 0, "votes_count": 0, "ships_count": 0, "projects": [], "coding_time_seconds": 57056, "coding_time_seconds_today": 0, "balance": "You need to have a pocket watcher badge to view this.", "badges": [], "created_at": "2025-08-09T17:41:52.428-04:00", "updated_at": "2025-08-13T21:52:54.554-04:00", "avatar": "https://avatars.slack-edge.com/2025-08-14/9337972681031_7764bf73a54829fed8ef_original.jpg", "custom_css": null}, {"id": 21062, "slack_id": "U099Q9L53HU", "display_name": "Ethan Pinto", "bio": null, "projects_count": 0, "devlogs_count": 0, "votes_count": 0, "ships_count": 0, "projects": [], "coding_time_seconds": 0, "coding_time_seconds_today": 0, "balance": "You need to have a pocket watcher badge to view this.", "badges": [], "created_at": "2025-08-09T18:01:16.228-04:00", "updated_at": "2025-08-10T03:53:13.999-04:00", "avatar": "https://secure.gravatar.com/avatar/0b03b06318a7a6bea858433d0b7ff92a.jpg?s=512&d=https%3A%2F%2Fa.slack-edge.com%2Fdf10d%2Fimg%2Favatars%2Fava_0023-512.png", "custom_css": null}, {"id": 21063, "slack_id": "U099BDKAR8X", "display_name": "Lyna", "bio": null, "projects_count": 0, "devlogs_count": 0, "votes_count": 0, "ships_count": 0, "projects": [], "coding_time_seconds": 0, "coding_time_seconds_today": 0, "balance": "You need to have a pocket watcher badge to view this.", "badges": [], "created_at": "2025-08-09T18:12:27.961-04:00", "updated_at": "2025-08-21T10:43:32.729-04:00", "avatar": "https://secure.gravatar.com/avatar/9e7f851110ff68b595d60c2ae89b7179.jpg?s=512&d=https%3A%2F%2Fa.slack-edge.com%2Fdf10d%2Fimg%2Favatars%2Fava_0020-512.png", "custom_css": null}, {"id": 21064, "slack_id": "U099PKW4XNZ", "display_name": "Lutz", "bio": null, "projects_count": 0, "devlogs_count": 0, "votes_count": 0, "ships_count": 0, "projects": [], "coding_time_seconds": 0, "coding_time_seconds_today": 0, "balance": "You need to have a pocket watcher badge to view this.", "badges": [], "created_at": "2025-08-09T18:23:21.318-04:00", "updated_at": "2025-08-10T03:53:14.219-04:00", "avatar": "https://secure.gravatar.com/avatar/bfa4966a6692cc73173daf28fb1aa6bd.jpg?s=512&d=https%3A%2F%2Fa.slack-edge.com%2Fdf10d%2Fimg%2Favatars%2Fava_0003-512.png", "custom_css": null}, {"id": 21065, "slack_id": "U099PKZDXFX", "display_name": "Sam Das", "bio": "", "projects_count": 1, "devlogs_count": 3, "votes_count": 7, "ships_count": 1, "projects": [{"id": 10863, "title": "DisFuse", "devlogs_count": 3, "created_at": "2025-08-11T11:42:50.796-04:00"}], "coding_time_seconds": 107756, "coding_time_seconds_today": 0, "balance": "You need to have a pocket watcher badge to view this.", "badges": [], "created_at": "2025-08-09T18:27:22.411-04:00", "updated_at": "2025-08-11T14:27:39.552-04:00", "avatar": "https://secure.gravatar.com/avatar/29872e4735a2b567b8883e315096dab5.jpg?s=512&d=https%3A%2F%2Fa.slack-edge.com%2Fdf10d%2Fimg%2Favatars%2Fava_0015-512.png", "custom_css": null}], "pagination": {"page": 1049, "pages": 1192, "count": 23828, "items": 20}}