{"users": [{"id": 2081, "slack_id": "U091QCT7F9S", "display_name": "Kazi Mostofa Sakin", "bio": null, "projects_count": 0, "devlogs_count": 0, "votes_count": 0, "ships_count": 0, "projects": [], "coding_time_seconds": 0, "coding_time_seconds_today": 0, "balance": "You need to have a pocket watcher badge to view this.", "badges": [], "created_at": "2025-06-16T14:41:13.827-04:00", "updated_at": "2025-07-03T19:20:38.180-04:00", "avatar": "https://secure.gravatar.com/avatar/f1b0fdf73a6d51b25f2ff1bdb4a7e8c1.jpg?s=512&d=https%3A%2F%2Fa.slack-edge.com%2Fdf10d%2Fimg%2Favatars%2Fava_0018-512.png", "custom_css": null}, {"id": 2082, "slack_id": "U091GV1TJBD", "display_name": "Nigel", "bio": null, "projects_count": 0, "devlogs_count": 0, "votes_count": 0, "ships_count": 0, "projects": [], "coding_time_seconds": 16341, "coding_time_seconds_today": 0, "balance": "You need to have a pocket watcher badge to view this.", "badges": [], "created_at": "2025-06-16T14:41:14.232-04:00", "updated_at": "2025-07-03T19:20:38.457-04:00", "avatar": "https://secure.gravatar.com/avatar/190996376b614ef5bf4cfc164c5de607.jpg?s=512&d=https%3A%2F%2Fa.slack-edge.com%2Fdf10d%2Fimg%2Favatars%2Fava_0000-512.png", "custom_css": null}, {"id": 2083, "slack_id": "U0922HK18GH", "display_name": "Francys S Rodrigues", "bio": null, "projects_count": 0, "devlogs_count": 0, "votes_count": 0, "ships_count": 0, "projects": [], "coding_time_seconds": 0, "coding_time_seconds_today": 0, "balance": "You need to have a pocket watcher badge to view this.", "badges": [], "created_at": "2025-06-16T14:41:20.211-04:00", "updated_at": "2025-07-03T19:20:38.805-04:00", "avatar": "https://avatars.slack-edge.com/2025-06-16/9070611827201_fb174aba9a2087ba92f3_original.png", "custom_css": null}, {"id": 2084, "slack_id": "U089CJXG8SD", "display_name": "Ezaz", "bio": null, "projects_count": 0, "devlogs_count": 0, "votes_count": 0, "ships_count": 0, "projects": [], "coding_time_seconds": 0, "coding_time_seconds_today": 0, "balance": "You need to have a pocket watcher badge to view this.", "badges": [], "created_at": "2025-06-16T14:41:24.633-04:00", "updated_at": "2025-07-03T19:20:39.069-04:00", "avatar": "https://avatars.slack-edge.com/2025-01-17/8308179033475_af5ec8ac5139523b8588_original.jpg", "custom_css": null}, {"id": 2085, "slack_id": "U091FULG0BD", "display_name": "catalin", "bio": null, "projects_count": 0, "devlogs_count": 0, "votes_count": 0, "ships_count": 0, "projects": [], "coding_time_seconds": 0, "coding_time_seconds_today": 0, "balance": "You need to have a pocket watcher badge to view this.", "badges": [], "created_at": "2025-06-16T14:41:26.264-04:00", "updated_at": "2025-07-03T19:20:39.330-04:00", "avatar": "https://secure.gravatar.com/avatar/fc985e50b9b040ff76aa1864a4aebc56.jpg?s=512&d=https%3A%2F%2Fa.slack-edge.com%2Fdf10d%2Fimg%2Favatars%2Fava_0013-512.png", "custom_css": null}, {"id": 2086, "slack_id": "U091N7NJ24V", "display_name": "Israel Zacarias Sanchez", "bio": null, "projects_count": 0, "devlogs_count": 0, "votes_count": 0, "ships_count": 0, "projects": [], "coding_time_seconds": 0, "coding_time_seconds_today": 0, "balance": "You need to have a pocket watcher badge to view this.", "badges": [], "created_at": "2025-06-16T14:41:28.229-04:00", "updated_at": "2025-07-03T19:20:39.596-04:00", "avatar": "https://secure.gravatar.com/avatar/a5fe294d202f44184d75f1a6f9e02cb7.jpg?s=512&d=https%3A%2F%2Fa.slack-edge.com%2Fdf10d%2Fimg%2Favatars%2Fava_0023-512.png", "custom_css": null}, {"id": 2087, "slack_id": "U0922HN9FMF", "display_name": "Charles Steinmetz", "bio": null, "projects_count": 1, "devlogs_count": 0, "votes_count": 0, "ships_count": 0, "projects": [{"id": 168, "title": "geoflutter", "devlogs_count": 0, "created_at": "2025-06-16T14:50:01.194-04:00"}], "coding_time_seconds": 129538, "coding_time_seconds_today": 0, "balance": "You need to have a pocket watcher badge to view this.", "badges": [], "created_at": "2025-06-16T14:41:32.025-04:00", "updated_at": "2025-07-03T19:20:39.861-04:00", "avatar": "https://secure.gravatar.com/avatar/8b5aee3a2c6d32f6c1856353726e8bb7.jpg?s=512&d=https%3A%2F%2Fa.slack-edge.com%2Fdf10d%2Fimg%2Favatars%2Fava_0024-512.png", "custom_css": null}, {"id": 2088, "slack_id": "U091H2V9NSX", "display_name": "GiantNut", "bio": "", "projects_count": 12, "devlogs_count": 51, "votes_count": 101, "ships_count": 2, "projects": [{"id": 7500, "title": "Algorhythm", "devlogs_count": 10, "created_at": "2025-07-22T00:56:41.370-04:00"}, {"id": 7501, "title": "HeartbreakCode", "devlogs_count": 18, "created_at": "2025-07-22T00:57:27.418-04:00"}, {"id": 10155, "title": "BlueprintForge", "devlogs_count": 1, "created_at": "2025-08-04T13:18:58.583-04:00"}, {"id": 10165, "title": "PyArchInsight", "devlogs_count": 0, "created_at": "2025-08-04T14:30:30.259-04:00"}, {"id": 10166, "title": "ApexLink", "devlogs_count": 0, "created_at": "2025-08-04T14:45:05.133-04:00"}, {"id": 10168, "title": "SchemaPilot", "devlogs_count": 0, "created_at": "2025-08-04T14:58:11.164-04:00"}, {"id": 10826, "title": "DotfileShepherd", "devlogs_count": 0, "created_at": "2025-08-11T07:18:28.884-04:00"}, {"id": 10832, "title": "LogSynth", "devlogs_count": 0, "created_at": "2025-08-11T07:55:24.123-04:00"}, {"id": 10833, "title": "DevMindVault", "devlogs_count": 0, "created_at": "2025-08-11T07:56:39.417-04:00"}, {"id": 10834, "title": "ApiDock", "devlogs_count": 0, "created_at": "2025-08-11T07:57:54.467-04:00"}, {"id": 10835, "title": "ProjectFlow", "devlogs_count": 0, "created_at": "2025-08-11T07:59:06.624-04:00"}, {"id": 6707, "title": "Kernel Panick", "devlogs_count": 7, "created_at": "2025-07-15T09:52:50.232-04:00"}], "coding_time_seconds": 744890, "coding_time_seconds_today": 0, "balance": "You need to have a pocket watcher badge to view this.", "badges": [{"name": "Maiden Voyage", "text": "you shipped your first project! the journey begins...", "icon": "\ud83d\udea2"}, {"name": "Ballot Stuffer", "text": "vote 100 times.", "icon": "https://summer.hackclub.com/assets/i_voted-bf851b48.png"}, {"name": "Graphic Design is My Passion", "text": "Oh God How Did This Get Here I Am Not Good With Computer", "icon": "\ud83c\udfa8"}], "created_at": "2025-06-16T14:41:35.849-04:00", "updated_at": "2025-09-10T22:52:12.702-04:00", "avatar": "https://secure.gravatar.com/avatar/7f2c5e15df0d01d1be012d3ed643b750.jpg?s=512&d=https%3A%2F%2Fa.slack-edge.com%2Fdf10d%2Fimg%2Favatars%2Fava_0001-512.png", "custom_css": ""}, {"id": 2089, "slack_id": "U0922HMN9H7", "display_name": "ccsleep", "bio": null, "projects_count": 0, "devlogs_count": 0, "votes_count": 0, "ships_count": 0, "projects": [], "coding_time_seconds": 173263, "coding_time_seconds_today": 0, "balance": "You need to have a pocket watcher badge to view this.", "badges": [], "created_at": "2025-06-16T14:41:59.180-04:00", "updated_at": "2025-07-03T19:20:40.419-04:00", "avatar": "https://secure.gravatar.com/avatar/113f34933afc18724ec9739750917506.jpg?s=512&d=https%3A%2F%2Fa.slack-edge.com%2Fdf10d%2Fimg%2Favatars%2Fava_0019-512.png", "custom_css": null}, {"id": 2090, "slack_id": "U091QCXUGAG", "display_name": "Terence H", "bio": null, "projects_count": 0, "devlogs_count": 0, "votes_count": 0, "ships_count": 0, "projects": [], "coding_time_seconds": 0, "coding_time_seconds_today": 0, "balance": "You need to have a pocket watcher badge to view this.", "badges": [], "created_at": "2025-06-16T14:42:07.666-04:00", "updated_at": "2025-07-03T19:20:40.715-04:00", "avatar": "https://secure.gravatar.com/avatar/8ebdedd0ecff140fd159dc10b77a3d0a.jpg?s=512&d=https%3A%2F%2Fa.slack-edge.com%2Fdf10d%2Fimg%2Favatars%2Fava_0001-512.png", "custom_css": null}, {"id": 2091, "slack_id": "U091H6BU45C", "display_name": "Naren Sirigere", "bio": null, "projects_count": 1, "devlogs_count": 0, "votes_count": 0, "ships_count": 0, "projects": [{"id": 1481, "title": "Cubbies", "devlogs_count": 0, "created_at": "2025-06-18T16:07:58.948-04:00"}], "coding_time_seconds": 7687, "coding_time_seconds_today": 0, "balance": "You need to have a pocket watcher badge to view this.", "badges": [], "created_at": "2025-06-16T14:42:13.464-04:00", "updated_at": "2025-07-03T19:20:40.988-04:00", "avatar": "https://avatars.slack-edge.com/2025-06-16/9042758644279_074894585ce2a778162f_original.png", "custom_css": null}, {"id": 2092, "slack_id": "U0918MPUU79", "display_name": "Timothy Kumm", "bio": null, "projects_count": 0, "devlogs_count": 0, "votes_count": 0, "ships_count": 0, "projects": [], "coding_time_seconds": 0, "coding_time_seconds_today": 0, "balance": "You need to have a pocket watcher badge to view this.", "badges": [], "created_at": "2025-06-16T14:42:36.008-04:00", "updated_at": "2025-07-03T19:20:41.256-04:00", "avatar": "https://avatars.slack-edge.com/2025-06-16/9058071562690_42484ea6e5c4f0fb4b8e_original.png", "custom_css": null}, {"id": 2093, "slack_id": "U0918MYQ68P", "display_name": "jessie", "bio": null, "projects_count": 0, "devlogs_count": 0, "votes_count": 0, "ships_count": 0, "projects": [], "coding_time_seconds": 0, "coding_time_seconds_today": 0, "balance": "You need to have a pocket watcher badge to view this.", "badges": [], "created_at": "2025-06-16T14:42:40.005-04:00", "updated_at": "2025-07-21T18:57:38.508-04:00", "avatar": "https://secure.gravatar.com/avatar/9d0b543a53c14320f6b9447389b7f240.jpg?s=512&d=https%3A%2F%2Fa.slack-edge.com%2Fdf10d%2Fimg%2Favatars%2Fava_0010-512.png", "custom_css": null}, {"id": 2094, "slack_id": "U091N1YKNR3", "display_name": "Jason Oh", "bio": null, "projects_count": 0, "devlogs_count": 0, "votes_count": 0, "ships_count": 0, "projects": [], "coding_time_seconds": 0, "coding_time_seconds_today": 0, "balance": "You need to have a pocket watcher badge to view this.", "badges": [], "created_at": "2025-06-16T14:42:48.130-04:00", "updated_at": "2025-07-03T19:20:41.795-04:00", "avatar": "https://avatars.slack-edge.com/2025-06-16/9058072474146_8390ad72f3ce61852268_original.png", "custom_css": null}, {"id": 2095, "slack_id": "U0918N2J9P1", "display_name": "Joey", "bio": null, "projects_count": 0, "devlogs_count": 0, "votes_count": 0, "ships_count": 0, "projects": [], "coding_time_seconds": 0, "coding_time_seconds_today": 0, "balance": "You need to have a pocket watcher badge to view this.", "badges": [], "created_at": "2025-06-16T14:42:53.593-04:00", "updated_at": "2025-07-03T19:20:42.061-04:00", "avatar": "https://secure.gravatar.com/avatar/ec8a6b90a1f3d704019bbbf53298bd38.jpg?s=512&d=https%3A%2F%2Fa.slack-edge.com%2Fdf10d%2Fimg%2Favatars%2Fava_0000-512.png", "custom_css": null}, {"id": 2096, "slack_id": "U0922HU36D7", "display_name": "Daniel", "bio": null, "projects_count": 0, "devlogs_count": 0, "votes_count": 0, "ships_count": 0, "projects": [], "coding_time_seconds": 6017, "coding_time_seconds_today": 0, "balance": "You need to have a pocket watcher badge to view this.", "badges": [], "created_at": "2025-06-16T14:43:09.648-04:00", "updated_at": "2025-07-03T19:20:42.322-04:00", "avatar": "https://secure.gravatar.com/avatar/db557283377b855f7ed801a2c9f6db68.jpg?s=512&d=https%3A%2F%2Fa.slack-edge.com%2Fdf10d%2Fimg%2Favatars%2Fava_0017-512.png", "custom_css": null}, {"id": 2097, "slack_id": "U08RYHMSL0Z", "display_name": "Alf", "bio": null, "projects_count": 0, "devlogs_count": 0, "votes_count": 0, "ships_count": 0, "projects": [], "coding_time_seconds": 0, "coding_time_seconds_today": 0, "balance": "You need to have a pocket watcher badge to view this.", "badges": [], "created_at": "2025-06-16T14:43:09.698-04:00", "updated_at": "2025-07-03T19:20:42.600-04:00", "avatar": "https://secure.gravatar.com/avatar/a27361aa358fef45e2b3a893080f365f.jpg?s=512&d=https%3A%2F%2Fa.slack-edge.com%2Fdf10d%2Fimg%2Favatars%2Fava_0019-512.png", "custom_css": null}, {"id": 2098, "slack_id": "U091QCTBA6Q", "display_name": "Basheer Ahamed", "bio": null, "projects_count": 0, "devlogs_count": 0, "votes_count": 0, "ships_count": 0, "projects": [], "coding_time_seconds": 0, "coding_time_seconds_today": 0, "balance": "You need to have a pocket watcher badge to view this.", "badges": [], "created_at": "2025-06-16T14:43:11.387-04:00", "updated_at": "2025-07-03T19:20:42.881-04:00", "avatar": "https://secure.gravatar.com/avatar/fb9f2efbb1ee8d09695452f201150a4c.jpg?s=512&d=https%3A%2F%2Fa.slack-edge.com%2Fdf10d%2Fimg%2Favatars%2Fava_0018-512.png", "custom_css": null}, {"id": 2099, "slack_id": "U091H6FAV5L", "display_name": "Raghuraj Yadav", "bio": null, "projects_count": 0, "devlogs_count": 0, "votes_count": 0, "ships_count": 0, "projects": [], "coding_time_seconds": 12857, "coding_time_seconds_today": 0, "balance": "You need to have a pocket watcher badge to view this.", "badges": [], "created_at": "2025-06-16T14:43:55.330-04:00", "updated_at": "2025-07-03T19:20:43.158-04:00", "avatar": "https://avatars.slack-edge.com/2025-06-16/9058078226002_b29c8efdbd282ed4ae53_original.png", "custom_css": null}, {"id": 2100, "slack_id": "U0918MSQ7E3", "display_name": "vair.nooi", "bio": null, "projects_count": 6, "devlogs_count": 71, "votes_count": 139, "ships_count": 6, "projects": [{"id": 6233, "title": "Simple Docker Dashboard", "devlogs_count": 21, "created_at": "2025-07-11T13:15:34.881-04:00"}, {"id": 12029, "title": "Little Adventure", "devlogs_count": 8, "created_at": "2025-08-22T09:10:19.553-04:00"}, {"id": 13056, "title": "Simple Spotify Snake", "devlogs_count": 12, "created_at": "2025-09-07T20:55:32.183-04:00"}, {"id": 12494, "title": "Docker with Node", "devlogs_count": 14, "created_at": "2025-08-28T11:01:14.613-04:00"}, {"id": 9737, "title": "My Profile", "devlogs_count": 2, "created_at": "2025-08-02T06:14:29.421-04:00"}, {"id": 9214, "title": "Hackclub AI UI", "devlogs_count": 10, "created_at": "2025-07-31T02:34:50.973-04:00"}], "coding_time_seconds": 746659, "coding_time_seconds_today": 0, "balance": "You need to have a pocket watcher badge to view this.", "badges": [{"name": "Maiden Voyage", "text": "you shipped your first project! the journey begins...", "icon": "\ud83d\udea2"}, {"name": "Ballot Stuffer", "text": "vote 100 times.", "icon": "https://summer.hackclub.com/assets/i_voted-bf851b48.png"}], "created_at": "2025-06-16T14:44:06.902-04:00", "updated_at": "2025-09-13T13:45:23.220-04:00", "avatar": "https://avatars.slack-edge.com/2025-08-31/9423292740599_3acbe4113f898e7a3e20_original.jpg", "custom_css": null}], "pagination": {"page": 105, "pages": 1192, "count": 23828, "items": 20}}