{"users": [{"id": 21066, "slack_id": "U09AG3XLY7J", "display_name": "Daniel", "bio": null, "projects_count": 0, "devlogs_count": 0, "votes_count": 0, "ships_count": 0, "projects": [], "coding_time_seconds": 166465, "coding_time_seconds_today": 0, "balance": "You need to have a pocket watcher badge to view this.", "badges": [], "created_at": "2025-08-09T19:17:14.570-04:00", "updated_at": "2025-08-11T06:29:02.088-04:00", "avatar": "https://secure.gravatar.com/avatar/4bbb0da44b6ebda6e5371b4b76860944.jpg?s=512&d=https%3A%2F%2Fa.slack-edge.com%2Fdf10d%2Fimg%2Favatars%2Fava_0023-512.png", "custom_css": null}, {"id": 21067, "slack_id": "U08U6AC2XQW", "display_name": "Samanta Saucedo Guijarro", "bio": null, "projects_count": 0, "devlogs_count": 0, "votes_count": 0, "ships_count": 0, "projects": [], "coding_time_seconds": 0, "coding_time_seconds_today": 0, "balance": "You need to have a pocket watcher badge to view this.", "badges": [], "created_at": "2025-08-09T19:23:28.248-04:00", "updated_at": "2025-08-24T21:51:24.031-04:00", "avatar": "https://avatars.slack-edge.com/2025-08-24/9401616992610_1649095a9a79026bb945_original.jpg", "custom_css": null}, {"id": 21068, "slack_id": "U099BJ6MJ23", "display_name": "Suman kadapa", "bio": null, "projects_count": 0, "devlogs_count": 1, "votes_count": 63, "ships_count": 0, "projects": [], "coding_time_seconds": 13158, "coding_time_seconds_today": 0, "balance": "You need to have a pocket watcher badge to view this.", "badges": [], "created_at": "2025-08-09T20:07:27.826-04:00", "updated_at": "2025-08-18T23:56:39.717-04:00", "avatar": "https://avatars.slack-edge.com/2025-08-09/9317619021287_36bb60a01df6ea7f94f2_original.png", "custom_css": null}, {"id": 21069, "slack_id": "U099PPMN545", "display_name": "Prisha Goel", "bio": null, "projects_count": 0, "devlogs_count": 0, "votes_count": 0, "ships_count": 0, "projects": [], "coding_time_seconds": 0, "coding_time_seconds_today": 0, "balance": "You need to have a pocket watcher badge to view this.", "badges": [], "created_at": "2025-08-09T20:08:38.742-04:00", "updated_at": "2025-08-11T15:00:06.887-04:00", "avatar": "https://secure.gravatar.com/avatar/9f41fd9584dabc810cb631f8aa6c522d.jpg?s=512&d=https%3A%2F%2Fa.slack-edge.com%2Fdf10d%2Fimg%2Favatars%2Fava_0003-512.png", "custom_css": null}, {"id": 21070, "slack_id": "U099J7T7GCB", "display_name": "Cora", "bio": null, "projects_count": 0, "devlogs_count": 0, "votes_count": 0, "ships_count": 0, "projects": [], "coding_time_seconds": 0, "coding_time_seconds_today": 0, "balance": "You need to have a pocket watcher badge to view this.", "badges": [], "created_at": "2025-08-09T20:26:55.251-04:00", "updated_at": "2025-08-15T19:10:01.982-04:00", "avatar": "https://secure.gravatar.com/avatar/2ab784121eb8f18fc2a483005206e37d.jpg?s=512&d=https%3A%2F%2Fa.slack-edge.com%2Fdf10d%2Fimg%2Favatars%2Fava_0025-512.png", "custom_css": null}, {"id": 21071, "slack_id": "U099BK4M5RD", "display_name": "Lina", "bio": null, "projects_count": 0, "devlogs_count": 0, "votes_count": 0, "ships_count": 0, "projects": [], "coding_time_seconds": 0, "coding_time_seconds_today": 0, "balance": "You need to have a pocket watcher badge to view this.", "badges": [], "created_at": "2025-08-09T20:38:26.988-04:00", "updated_at": "2025-08-10T03:53:18.959-04:00", "avatar": "https://secure.gravatar.com/avatar/d3ede5540a0ecf5a93fe5ce9e0130cfb.jpg?s=512&d=https%3A%2F%2Fa.slack-edge.com%2Fdf10d%2Fimg%2Favatars%2Fava_0016-512.png", "custom_css": null}, {"id": 21072, "slack_id": "U099QG6D7BQ", "display_name": "Levi Dyksen", "bio": null, "projects_count": 0, "devlogs_count": 0, "votes_count": 0, "ships_count": 0, "projects": [], "coding_time_seconds": 0, "coding_time_seconds_today": 0, "balance": "You need to have a pocket watcher badge to view this.", "badges": [], "created_at": "2025-08-09T20:50:17.371-04:00", "updated_at": "2025-08-10T03:53:19.049-04:00", "avatar": "https://avatars.slack-edge.com/2025-08-09/9330604268742_345bb183f7d01f6e05da_original.jpg", "custom_css": null}, {"id": 21073, "slack_id": "U099J9DC7JP", "display_name": "Rahbe", "bio": null, "projects_count": 0, "devlogs_count": 0, "votes_count": 0, "ships_count": 0, "projects": [], "coding_time_seconds": 0, "coding_time_seconds_today": 0, "balance": "You need to have a pocket watcher badge to view this.", "badges": [], "created_at": "2025-08-09T21:06:46.514-04:00", "updated_at": "2025-08-10T03:53:19.171-04:00", "avatar": "https://avatars.slack-edge.com/2025-08-09/9329885615045_72f9fd8340a3188b1159_original.png", "custom_css": null}, {"id": 21074, "slack_id": "U09AG8Y4K4G", "display_name": "Hannah Bat-Ireedui", "bio": null, "projects_count": 0, "devlogs_count": 0, "votes_count": 0, "ships_count": 0, "projects": [], "coding_time_seconds": 0, "coding_time_seconds_today": 0, "balance": "You need to have a pocket watcher badge to view this.", "badges": [], "created_at": "2025-08-09T21:19:04.324-04:00", "updated_at": "2025-08-10T03:53:19.286-04:00", "avatar": "https://avatars.slack-edge.com/2025-08-09/9317718187223_b26b0b91d5f7997a4768_original.png", "custom_css": null}, {"id": 21075, "slack_id": "U09AG8XV8NL", "display_name": "Joanne Thomas", "bio": null, "projects_count": 0, "devlogs_count": 0, "votes_count": 0, "ships_count": 0, "projects": [], "coding_time_seconds": 0, "coding_time_seconds_today": 0, "balance": "You need to have a pocket watcher badge to view this.", "badges": [], "created_at": "2025-08-09T21:25:14.964-04:00", "updated_at": "2025-08-10T03:53:19.377-04:00", "avatar": "https://avatars.slack-edge.com/2025-08-09/9330605471382_e8c1b328ef10aa6d7b9a_original.jpg", "custom_css": null}, {"id": 21076, "slack_id": "U099U7HL31S", "display_name": "Yiyi Song", "bio": null, "projects_count": 0, "devlogs_count": 0, "votes_count": 0, "ships_count": 0, "projects": [], "coding_time_seconds": 0, "coding_time_seconds_today": 0, "balance": "You need to have a pocket watcher badge to view this.", "badges": [], "created_at": "2025-08-09T22:02:37.574-04:00", "updated_at": "2025-08-10T03:53:19.488-04:00", "avatar": "https://avatars.slack-edge.com/2025-08-09/9330654434102_9e359dbd0dafac99c0e8_original.jpg", "custom_css": null}, {"id": 21077, "slack_id": "U099BNX9MSB", "display_name": "Victoria Guzman", "bio": null, "projects_count": 0, "devlogs_count": 0, "votes_count": 0, "ships_count": 0, "projects": [], "coding_time_seconds": 0, "coding_time_seconds_today": 0, "balance": "You need to have a pocket watcher badge to view this.", "badges": [], "created_at": "2025-08-09T22:15:10.634-04:00", "updated_at": "2025-08-12T17:55:31.909-04:00", "avatar": "https://avatars.slack-edge.com/2025-08-09/9324409986035_024d1f94e94d552367ac_original.jpg", "custom_css": null}, {"id": 21078, "slack_id": "U099QKXB6KY", "display_name": "Yati Manjunath", "bio": null, "projects_count": 0, "devlogs_count": 0, "votes_count": 0, "ships_count": 0, "projects": [], "coding_time_seconds": 0, "coding_time_seconds_today": 0, "balance": "You need to have a pocket watcher badge to view this.", "badges": [], "created_at": "2025-08-09T22:19:58.479-04:00", "updated_at": "2025-08-10T03:53:19.681-04:00", "avatar": "https://avatars.slack-edge.com/2025-08-09/9330677708054_a71dd4a27704e8cc1184_original.png", "custom_css": null}, {"id": 21079, "slack_id": "U099Q03LBEH", "display_name": "Vidyansh Bhatt", "bio": null, "projects_count": 0, "devlogs_count": 0, "votes_count": 0, "ships_count": 0, "projects": [], "coding_time_seconds": 0, "coding_time_seconds_today": 0, "balance": "You need to have a pocket watcher badge to view this.", "badges": [], "created_at": "2025-08-09T22:48:38.592-04:00", "updated_at": "2025-08-10T03:53:23.834-04:00", "avatar": "https://secure.gravatar.com/avatar/e85b9b8e2a7e671fe1c99bbec9113cff.jpg?s=512&d=https%3A%2F%2Fa.slack-edge.com%2Fdf10d%2Fimg%2Favatars%2Fava_0023-512.png", "custom_css": null}, {"id": 21080, "slack_id": "U099PKS86US", "display_name": "Daniel Zhu", "bio": "", "projects_count": 0, "devlogs_count": 0, "votes_count": 0, "ships_count": 0, "projects": [], "coding_time_seconds": 0, "coding_time_seconds_today": 0, "balance": "You need to have a pocket watcher badge to view this.", "badges": [], "created_at": "2025-08-09T23:27:55.895-04:00", "updated_at": "2025-08-10T03:53:23.931-04:00", "avatar": "https://avatars.slack-edge.com/2025-08-09/9317885863543_dcbcd4986540d18a542a_original.png", "custom_css": null}, {"id": 21081, "slack_id": "U09885PHM4Z", "display_name": "Thesandu", "bio": null, "projects_count": 0, "devlogs_count": 0, "votes_count": 0, "ships_count": 0, "projects": [], "coding_time_seconds": 0, "coding_time_seconds_today": 0, "balance": "You need to have a pocket watcher badge to view this.", "badges": [], "created_at": "2025-08-09T23:34:39.063-04:00", "updated_at": "2025-08-10T03:53:24.011-04:00", "avatar": "https://secure.gravatar.com/avatar/6d09c94b89e7ee5e19bb54457ce03a7d.jpg?s=512&d=https%3A%2F%2Fa.slack-edge.com%2Fdf10d%2Fimg%2Favatars%2Fava_0012-512.png", "custom_css": null}, {"id": 21082, "slack_id": "U099QNR2UT0", "display_name": "Sugayi . A", "bio": null, "projects_count": 0, "devlogs_count": 0, "votes_count": 0, "ships_count": 0, "projects": [], "coding_time_seconds": 0, "coding_time_seconds_today": 0, "balance": "You need to have a pocket watcher badge to view this.", "badges": [], "created_at": "2025-08-09T23:41:54.034-04:00", "updated_at": "2025-08-10T00:25:28.310-04:00", "avatar": "https://secure.gravatar.com/avatar/a351d134c06f3e46d762f926d53fc036.jpg?s=512&d=https%3A%2F%2Fa.slack-edge.com%2Fdf10d%2Fimg%2Favatars%2Fava_0015-512.png", "custom_css": null}, {"id": 21083, "slack_id": "U09AGFJS40Y", "display_name": "Akshita Lunia", "bio": null, "projects_count": 1, "devlogs_count": 0, "votes_count": 0, "ships_count": 0, "projects": [{"id": 11040, "title": "Disney Quiz", "devlogs_count": 0, "created_at": "2025-08-12T15:37:17.474-04:00"}], "coding_time_seconds": 3720, "coding_time_seconds_today": 0, "balance": "You need to have a pocket watcher badge to view this.", "badges": [], "created_at": "2025-08-10T00:10:56.944-04:00", "updated_at": "2025-08-12T15:15:02.582-04:00", "avatar": "https://avatars.slack-edge.com/2025-08-09/9334386469844_c37c54172214fba70e52_original.jpg", "custom_css": null}, {"id": 21084, "slack_id": "U09AGG5CHRN", "display_name": "Jessica Chen", "bio": null, "projects_count": 0, "devlogs_count": 0, "votes_count": 0, "ships_count": 0, "projects": [], "coding_time_seconds": 66201, "coding_time_seconds_today": 0, "balance": "You need to have a pocket watcher badge to view this.", "badges": [], "created_at": "2025-08-10T00:27:41.876-04:00", "updated_at": "2025-08-30T21:52:50.697-04:00", "avatar": "https://avatars.slack-edge.com/2025-08-30/9431554192099_f6bd7c368b3184a54181_original.jpg", "custom_css": null}, {"id": 21085, "slack_id": "U099QMGDJ7Q", "display_name": "Parth Tyagi", "bio": null, "projects_count": 0, "devlogs_count": 0, "votes_count": 0, "ships_count": 0, "projects": [], "coding_time_seconds": 0, "coding_time_seconds_today": 0, "balance": "You need to have a pocket watcher badge to view this.", "badges": [], "created_at": "2025-08-10T00:28:52.964-04:00", "updated_at": "2025-08-10T03:53:24.378-04:00", "avatar": "https://secure.gravatar.com/avatar/a7ea8f49630811a9da39732b359aee4b.jpg?s=512&d=https%3A%2F%2Fa.slack-edge.com%2Fdf10d%2Fimg%2Favatars%2Fava_0020-512.png", "custom_css": null}], "pagination": {"page": 1050, "pages": 1192, "count": 23828, "items": 20}}