{"users": [{"id": 21086, "slack_id": "U099PNGKDMG", "display_name": "Nabajyoti Das", "bio": null, "projects_count": 0, "devlogs_count": 0, "votes_count": 0, "ships_count": 0, "projects": [], "coding_time_seconds": 0, "coding_time_seconds_today": 0, "balance": "You need to have a pocket watcher badge to view this.", "badges": [], "created_at": "2025-08-10T00:46:34.784-04:00", "updated_at": "2025-08-10T03:53:24.470-04:00", "avatar": "https://secure.gravatar.com/avatar/907845125f949c419b2c169f610294c9.jpg?s=512&d=https%3A%2F%2Fa.slack-edge.com%2Fdf10d%2Fimg%2Favatars%2Fava_0012-512.png", "custom_css": null}, {"id": 21087, "slack_id": "U099Q4KS7FX", "display_name": "Jeconiah", "bio": null, "projects_count": 0, "devlogs_count": 0, "votes_count": 0, "ships_count": 0, "projects": [], "coding_time_seconds": 0, "coding_time_seconds_today": 0, "balance": "You need to have a pocket watcher badge to view this.", "badges": [], "created_at": "2025-08-10T00:55:27.314-04:00", "updated_at": "2025-08-10T03:53:24.566-04:00", "avatar": "https://secure.gravatar.com/avatar/0ecfad86df0f18c24688d93772614655.jpg?s=512&d=https%3A%2F%2Fa.slack-edge.com%2Fdf10d%2Fimg%2Favatars%2Fava_0001-512.png", "custom_css": null}, {"id": 21088, "slack_id": "U095FH38E9F", "display_name": "johnr", "bio": null, "projects_count": 0, "devlogs_count": 0, "votes_count": 0, "ships_count": 0, "projects": [], "coding_time_seconds": 0, "coding_time_seconds_today": 0, "balance": "You need to have a pocket watcher badge to view this.", "badges": [], "created_at": "2025-08-10T01:05:13.303-04:00", "updated_at": "2025-08-10T03:53:24.658-04:00", "avatar": "https://avatars.slack-edge.com/2025-08-10/9318025720679_782d66b189f363004fd1_original.png", "custom_css": null}, {"id": 21089, "slack_id": "U099JBS3G1L", "display_name": "Ame", "bio": null, "projects_count": 0, "devlogs_count": 0, "votes_count": 0, "ships_count": 0, "projects": [], "coding_time_seconds": 0, "coding_time_seconds_today": 0, "balance": "You need to have a pocket watcher badge to view this.", "badges": [], "created_at": "2025-08-10T01:08:56.587-04:00", "updated_at": "2025-08-10T03:53:24.747-04:00", "avatar": "https://secure.gravatar.com/avatar/863c352fa3dddb8d564a65375a776f20.jpg?s=512&d=https%3A%2F%2Fa.slack-edge.com%2Fdf10d%2Fimg%2Favatars%2Fava_0010-512.png", "custom_css": null}, {"id": 21090, "slack_id": "U099QSRSZKQ", "display_name": "Chen", "bio": null, "projects_count": 0, "devlogs_count": 0, "votes_count": 0, "ships_count": 0, "projects": [], "coding_time_seconds": 0, "coding_time_seconds_today": 0, "balance": "You need to have a pocket watcher badge to view this.", "badges": [], "created_at": "2025-08-10T01:22:59.473-04:00", "updated_at": "2025-08-10T03:53:24.861-04:00", "avatar": "https://secure.gravatar.com/avatar/2361dbdd8c50df20a48ed9d7ebd10245.jpg?s=512&d=https%3A%2F%2Fa.slack-edge.com%2Fdf10d%2Fimg%2Favatars%2Fava_0021-512.png", "custom_css": null}, {"id": 21091, "slack_id": "U099JGRDUG3", "display_name": "Ekampreet Singh", "bio": "Greetings! I'm Ekam. Check out my website: www.teamekam.org.", "projects_count": 2, "devlogs_count": 14, "votes_count": 9, "ships_count": 1, "projects": [{"id": 10714, "title": "Codon", "devlogs_count": 7, "created_at": "2025-08-10T01:48:20.018-04:00"}, {"id": 10763, "title": "Moodoji", "devlogs_count": 7, "created_at": "2025-08-10T13:09:30.217-04:00"}], "coding_time_seconds": 107451, "coding_time_seconds_today": 0, "balance": "You need to have a pocket watcher badge to view this.", "badges": [], "created_at": "2025-08-10T01:23:02.777-04:00", "updated_at": "2025-08-10T12:34:45.637-04:00", "avatar": "https://avatars.slack-edge.com/2025-08-09/9330919455542_23660f4a501f38118c5e_original.jpg", "custom_css": null}, {"id": 21092, "slack_id": "U09AGJKH4F2", "display_name": "imt", "bio": null, "projects_count": 0, "devlogs_count": 0, "votes_count": 1, "ships_count": 0, "projects": [], "coding_time_seconds": 4042, "coding_time_seconds_today": 0, "balance": "You need to have a pocket watcher badge to view this.", "badges": [], "created_at": "2025-08-10T01:31:57.185-04:00", "updated_at": "2025-09-12T22:15:11.413-04:00", "avatar": "https://avatars.slack-edge.com/2025-09-12/9509883502530_6b47f61ad5300f29e179_original.jpg", "custom_css": null}, {"id": 21093, "slack_id": "U09AGGLTY56", "display_name": "Tanush Reddy", "bio": null, "projects_count": 1, "devlogs_count": 1, "votes_count": 10, "ships_count": 1, "projects": [{"id": 10732, "title": "CloudPeek", "devlogs_count": 1, "created_at": "2025-08-10T06:40:45.215-04:00"}], "coding_time_seconds": 10763, "coding_time_seconds_today": 0, "balance": "You need to have a pocket watcher badge to view this.", "badges": [], "created_at": "2025-08-10T01:33:15.613-04:00", "updated_at": "2025-08-10T04:30:55.699-04:00", "avatar": "https://avatars.slack-edge.com/2025-08-10/9343412768129_4bc9867790d2f6c55e6a_original.jpg", "custom_css": null}, {"id": 21094, "slack_id": "U0933K8Q34P", "display_name": "PB", "bio": null, "projects_count": 0, "devlogs_count": 0, "votes_count": 0, "ships_count": 0, "projects": [], "coding_time_seconds": 0, "coding_time_seconds_today": 0, "balance": "You need to have a pocket watcher badge to view this.", "badges": [], "created_at": "2025-08-10T01:39:12.168-04:00", "updated_at": "2025-08-10T01:41:03.028-04:00", "avatar": "https://avatars.slack-edge.com/2025-07-22/9256173905088_49bbd98c164adbd09c93_original.jpg", "custom_css": null}, {"id": 21095, "slack_id": "U099UDZFX5J", "display_name": "Arpan Poudel.", "bio": null, "projects_count": 0, "devlogs_count": 0, "votes_count": 0, "ships_count": 0, "projects": [], "coding_time_seconds": 0, "coding_time_seconds_today": 0, "balance": "You need to have a pocket watcher badge to view this.", "badges": [], "created_at": "2025-08-10T01:41:57.856-04:00", "updated_at": "2025-08-10T03:53:33.379-04:00", "avatar": "https://secure.gravatar.com/avatar/9f2a140419ef3ca121be417738da0828.jpg?s=512&d=https%3A%2F%2Fa.slack-edge.com%2Fdf10d%2Fimg%2Favatars%2Fava_0000-512.png", "custom_css": null}, {"id": 21096, "slack_id": "U099QTQ8486", "display_name": "Divyansh Kr. Yadav", "bio": "dkydivyansh.com\r\nI'm an innovative and tech-driven student with a deep passion for cybersecurity, full-stack development, and AI technologies. With hands-on experience in API development, secure architecture design, and building scalable software solutions, I strive to create systems that are not only powerful, but also ethical and efficient.\r\n\r\nPortfolio: dkydivyansh.com\r\nGitHub: github.com/dkydivyansh\r\nG.dev: g.dev/dkydivyansh\r\nLinkedin: linkedin.com/in/dkydivyansh\r\n\r\nMy interests span across:\r\n-Full-stack development\r\n-Cybersecurity frameworks\r\n-Cloud infrastructure and deployment\r\n-Python for complex problem-solving\r\n-Ethical AI implementation\r\n-Electronics and automation (DIY hardware + microcontrollers)\r\n\r\nI enjoy turning lines of code into playful, interactive experiences\u2014and sharing the magic behind them through writing, demos, and discussions.", "projects_count": 0, "devlogs_count": 8, "votes_count": 11, "ships_count": 0, "projects": [], "coding_time_seconds": 609987, "coding_time_seconds_today": 0, "balance": "You need to have a pocket watcher badge to view this.", "badges": [], "created_at": "2025-08-10T01:58:10.022-04:00", "updated_at": "2025-08-12T11:30:21.518-04:00", "avatar": "https://secure.gravatar.com/avatar/cde8dadc7f8193a14eb2d5974be1ffe4.jpg?s=512&d=https%3A%2F%2Fa.slack-edge.com%2Fdf10d%2Fimg%2Favatars%2Fava_0014-512.png", "custom_css": null}, {"id": 21097, "slack_id": "U099Q70J5V3", "display_name": "Priscila Lopez", "bio": null, "projects_count": 0, "devlogs_count": 0, "votes_count": 0, "ships_count": 0, "projects": [], "coding_time_seconds": 0, "coding_time_seconds_today": 0, "balance": "You need to have a pocket watcher badge to view this.", "badges": [], "created_at": "2025-08-10T02:05:01.296-04:00", "updated_at": "2025-08-10T03:53:33.591-04:00", "avatar": "https://secure.gravatar.com/avatar/f0a2df234dad6c508ec1006e9fc4c46b.jpg?s=512&d=https%3A%2F%2Fa.slack-edge.com%2Fdf10d%2Fimg%2Favatars%2Fava_0013-512.png", "custom_css": null}, {"id": 21098, "slack_id": "U099C2FFVF1", "display_name": "MOON KNIGHT KINGDOM", "bio": null, "projects_count": 1, "devlogs_count": 0, "votes_count": 0, "ships_count": 0, "projects": [{"id": 11448, "title": "Night Slash", "devlogs_count": 0, "created_at": "2025-08-16T01:57:29.924-04:00"}], "coding_time_seconds": 117285, "coding_time_seconds_today": 5391, "balance": "You need to have a pocket watcher badge to view this.", "badges": [], "created_at": "2025-08-10T02:07:26.681-04:00", "updated_at": "2025-08-10T20:50:09.821-04:00", "avatar": "https://avatars.slack-edge.com/2025-08-09/9329876659938_97e5e0b069f2676b7ec1_original.jpg", "custom_css": null}, {"id": 21099, "slack_id": "U099Q7CKJE9", "display_name": "Karthikeyan R", "bio": null, "projects_count": 0, "devlogs_count": 0, "votes_count": 0, "ships_count": 0, "projects": [], "coding_time_seconds": 46585, "coding_time_seconds_today": 0, "balance": "You need to have a pocket watcher badge to view this.", "badges": [], "created_at": "2025-08-10T02:21:57.758-04:00", "updated_at": "2025-08-10T03:53:33.858-04:00", "avatar": "https://secure.gravatar.com/avatar/2538ba04f51a0901e2abaae382b76cfe.jpg?s=512&d=https%3A%2F%2Fa.slack-edge.com%2Fdf10d%2Fimg%2Favatars%2Fava_0015-512.png", "custom_css": null}, {"id": 21100, "slack_id": "U099R0KL0HL", "display_name": "Czarina Bareng", "bio": "", "projects_count": 1, "devlogs_count": 1, "votes_count": 1, "ships_count": 0, "projects": [{"id": 13483, "title": "Everyday Things", "devlogs_count": 1, "created_at": "2025-09-17T14:05:58.217-04:00"}], "coding_time_seconds": 18118, "coding_time_seconds_today": 0, "balance": "You need to have a pocket watcher badge to view this.", "badges": [], "created_at": "2025-08-10T02:51:24.005-04:00", "updated_at": "2025-09-17T15:00:04.940-04:00", "avatar": "https://secure.gravatar.com/avatar/285990c4e4a4a0495d182fa17b3b6c5c.jpg?s=512&d=https%3A%2F%2Fa.slack-edge.com%2Fdf10d%2Fimg%2Favatars%2Fava_0009-512.png", "custom_css": null}, {"id": 21101, "slack_id": "U099Q8VUFCM", "display_name": "Rooney", "bio": null, "projects_count": 0, "devlogs_count": 0, "votes_count": 0, "ships_count": 0, "projects": [], "coding_time_seconds": 0, "coding_time_seconds_today": 0, "balance": "You need to have a pocket watcher badge to view this.", "badges": [], "created_at": "2025-08-10T02:57:31.798-04:00", "updated_at": "2025-08-10T03:53:34.075-04:00", "avatar": "https://secure.gravatar.com/avatar/984da8a413e1d2f75e195094e81e9c27.jpg?s=512&d=https%3A%2F%2Fa.slack-edge.com%2Fdf10d%2Fimg%2Favatars%2Fava_0019-512.png", "custom_css": null}, {"id": 21102, "slack_id": "U099C6PBS3Z", "display_name": "Arsen Ismailov", "bio": null, "projects_count": 0, "devlogs_count": 0, "votes_count": 0, "ships_count": 0, "projects": [], "coding_time_seconds": 0, "coding_time_seconds_today": 0, "balance": "You need to have a pocket watcher badge to view this.", "badges": [], "created_at": "2025-08-10T03:52:05.916-04:00", "updated_at": "2025-08-10T09:53:45.095-04:00", "avatar": "https://avatars.slack-edge.com/2025-08-10/9356834048064_8d7ddf3f198e30aff815_original.jpg", "custom_css": null}, {"id": 21103, "slack_id": "U09AGT1E4SC", "display_name": "black shadow", "bio": null, "projects_count": 0, "devlogs_count": 0, "votes_count": 0, "ships_count": 0, "projects": [], "coding_time_seconds": 5789, "coding_time_seconds_today": 0, "balance": "You need to have a pocket watcher badge to view this.", "badges": [], "created_at": "2025-08-10T04:57:36.269-04:00", "updated_at": "2025-08-10T13:48:24.856-04:00", "avatar": "https://secure.gravatar.com/avatar/9e27a050b93c0757613608428beb286f.jpg?s=512&d=https%3A%2F%2Fa.slack-edge.com%2Fdf10d%2Fimg%2Favatars%2Fava_0026-512.png", "custom_css": null}, {"id": 21104, "slack_id": "U099JTBFESF", "display_name": "joeKody", "bio": null, "projects_count": 2, "devlogs_count": 0, "votes_count": 0, "ships_count": 0, "projects": [{"id": 10726, "title": "VIM Bund 008", "devlogs_count": 0, "created_at": "2025-08-10T05:21:57.857-04:00"}, {"id": 10850, "title": "VIM Tetris", "devlogs_count": 0, "created_at": "2025-08-11T10:12:09.866-04:00"}], "coding_time_seconds": 65391, "coding_time_seconds_today": 0, "balance": "You need to have a pocket watcher badge to view this.", "badges": [], "created_at": "2025-08-10T05:04:00.607-04:00", "updated_at": "2025-08-10T09:53:45.318-04:00", "avatar": "https://secure.gravatar.com/avatar/c593b8744af781b1c60597cd2e2c027d.jpg?s=512&d=https%3A%2F%2Fa.slack-edge.com%2Fdf10d%2Fimg%2Favatars%2Fava_0019-512.png", "custom_css": null}, {"id": 21105, "slack_id": "U099P6ERTT7", "display_name": "divij", "bio": null, "projects_count": 0, "devlogs_count": 0, "votes_count": 0, "ships_count": 0, "projects": [], "coding_time_seconds": 0, "coding_time_seconds_today": 0, "balance": "You need to have a pocket watcher badge to view this.", "badges": [], "created_at": "2025-08-10T05:37:55.657-04:00", "updated_at": "2025-08-10T09:53:45.506-04:00", "avatar": "https://secure.gravatar.com/avatar/f60b5b476b1d35e097f602f686553f09.jpg?s=512&d=https%3A%2F%2Fa.slack-edge.com%2Fdf10d%2Fimg%2Favatars%2Fava_0020-512.png", "custom_css": null}], "pagination": {"page": 1051, "pages": 1192, "count": 23828, "items": 20}}