{"users": [{"id": 21106, "slack_id": "U09AH0TEYG0", "display_name": "Israel", "bio": null, "projects_count": 0, "devlogs_count": 0, "votes_count": 0, "ships_count": 0, "projects": [], "coding_time_seconds": 0, "coding_time_seconds_today": 0, "balance": "You need to have a pocket watcher badge to view this.", "badges": [], "created_at": "2025-08-10T06:09:14.702-04:00", "updated_at": "2025-08-10T09:53:45.595-04:00", "avatar": "https://secure.gravatar.com/avatar/d8773e2ba9144e90d2de4b6191b5a8b7.jpg?s=512&d=https%3A%2F%2Fa.slack-edge.com%2Fdf10d%2Fimg%2Favatars%2Fava_0026-512.png", "custom_css": null}, {"id": 21107, "slack_id": "U099RAMRGDU", "display_name": "Olav", "bio": null, "projects_count": 0, "devlogs_count": 0, "votes_count": 0, "ships_count": 0, "projects": [], "coding_time_seconds": 0, "coding_time_seconds_today": 0, "balance": "You need to have a pocket watcher badge to view this.", "badges": [], "created_at": "2025-08-10T06:41:37.570-04:00", "updated_at": "2025-08-10T09:53:49.731-04:00", "avatar": "https://secure.gravatar.com/avatar/a00ba000c0a54d3b351aa9347806aea0.jpg?s=512&d=https%3A%2F%2Fa.slack-edge.com%2Fdf10d%2Fimg%2Favatars%2Fava_0013-512.png", "custom_css": null}, {"id": 21108, "slack_id": "U099CEJPKL7", "display_name": "Enrico Leandro", "bio": null, "projects_count": 0, "devlogs_count": 0, "votes_count": 0, "ships_count": 0, "projects": [], "coding_time_seconds": 7190, "coding_time_seconds_today": 0, "balance": "You need to have a pocket watcher badge to view this.", "badges": [], "created_at": "2025-08-10T06:58:14.638-04:00", "updated_at": "2025-08-11T12:36:11.650-04:00", "avatar": "https://secure.gravatar.com/avatar/895ef2e35dda9aebb4653e460890638b.jpg?s=512&d=https%3A%2F%2Fa.slack-edge.com%2Fdf10d%2Fimg%2Favatars%2Fava_0003-512.png", "custom_css": null}, {"id": 21109, "slack_id": "U09A3QWMPQ9", "display_name": "Mattiemateo", "bio": null, "projects_count": 0, "devlogs_count": 0, "votes_count": 0, "ships_count": 0, "projects": [], "coding_time_seconds": 0, "coding_time_seconds_today": 0, "balance": "You need to have a pocket watcher badge to view this.", "badges": [], "created_at": "2025-08-10T07:04:06.233-04:00", "updated_at": "2025-08-10T09:53:49.985-04:00", "avatar": "https://secure.gravatar.com/avatar/924889c8a7b46bcf098fc825981b93f8.jpg?s=512&d=https%3A%2F%2Fa.slack-edge.com%2Fdf10d%2Fimg%2Favatars%2Fava_0023-512.png", "custom_css": null}, {"id": 21110, "slack_id": "U09AH3ZJ8NL", "display_name": "Anon", "bio": null, "projects_count": 0, "devlogs_count": 0, "votes_count": 0, "ships_count": 0, "projects": [], "coding_time_seconds": 0, "coding_time_seconds_today": 0, "balance": "You need to have a pocket watcher badge to view this.", "badges": [], "created_at": "2025-08-10T07:21:12.437-04:00", "updated_at": "2025-08-10T09:53:50.117-04:00", "avatar": "https://secure.gravatar.com/avatar/5544654059bff33290bed64a064136c3.jpg?s=512&d=https%3A%2F%2Fa.slack-edge.com%2Fdf10d%2Fimg%2Favatars%2Fava_0011-512.png", "custom_css": null}, {"id": 21111, "slack_id": "U09AG4PLCTS", "display_name": "Graham", "bio": null, "projects_count": 0, "devlogs_count": 0, "votes_count": 0, "ships_count": 0, "projects": [], "coding_time_seconds": 18519, "coding_time_seconds_today": 0, "balance": "You need to have a pocket watcher badge to view this.", "badges": [], "created_at": "2025-08-10T07:31:21.789-04:00", "updated_at": "2025-08-10T09:53:50.262-04:00", "avatar": "https://secure.gravatar.com/avatar/ba2b251c4dd79760d533498e54b9e3e7.jpg?s=512&d=https%3A%2F%2Fa.slack-edge.com%2Fdf10d%2Fimg%2Favatars%2Fava_0016-512.png", "custom_css": null}, {"id": 21112, "slack_id": "U07FY5K9214", "display_name": "Yuri", "bio": null, "projects_count": 0, "devlogs_count": 0, "votes_count": 0, "ships_count": 0, "projects": [], "coding_time_seconds": 2534, "coding_time_seconds_today": 0, "balance": "You need to have a pocket watcher badge to view this.", "badges": [], "created_at": "2025-08-10T08:08:37.382-04:00", "updated_at": "2025-08-10T08:52:52.634-04:00", "avatar": "https://secure.gravatar.com/avatar/f2eb68d0e6e15167556b690520cdfb98.jpg?s=512&d=https%3A%2F%2Fa.slack-edge.com%2Fdf10d%2Fimg%2Favatars%2Fava_0022-512.png", "custom_css": null}, {"id": 21113, "slack_id": "U099NTS9VS9", "display_name": "Meeral", "bio": null, "projects_count": 0, "devlogs_count": 0, "votes_count": 0, "ships_count": 0, "projects": [], "coding_time_seconds": 0, "coding_time_seconds_today": 0, "balance": "You need to have a pocket watcher badge to view this.", "badges": [], "created_at": "2025-08-10T08:29:41.201-04:00", "updated_at": "2025-08-10T09:53:50.487-04:00", "avatar": "https://secure.gravatar.com/avatar/8360a3b83ce11591143ce5864aa882a0.jpg?s=512&d=https%3A%2F%2Fa.slack-edge.com%2Fdf10d%2Fimg%2Favatars%2Fava_0013-512.png", "custom_css": null}, {"id": 21114, "slack_id": "U099UTVDL76", "display_name": "shourya", "bio": "I am a smart contract engineer and a DeFi enthusiast. I like to read non fiction books.", "projects_count": 0, "devlogs_count": 0, "votes_count": 0, "ships_count": 0, "projects": [], "coding_time_seconds": 16769, "coding_time_seconds_today": 0, "balance": "You need to have a pocket watcher badge to view this.", "badges": [], "created_at": "2025-08-10T08:30:45.305-04:00", "updated_at": "2025-08-10T09:53:50.631-04:00", "avatar": "https://secure.gravatar.com/avatar/88abc2d2db01d5c494f6e18817d3b548.jpg?s=512&d=https%3A%2F%2Fa.slack-edge.com%2Fdf10d%2Fimg%2Favatars%2Fava_0004-512.png", "custom_css": null}, {"id": 21115, "slack_id": "U099QBR878S", "display_name": "Sneha Kumari", "bio": null, "projects_count": 1, "devlogs_count": 0, "votes_count": 0, "ships_count": 0, "projects": [{"id": 10806, "title": "Utsav clock", "devlogs_count": 0, "created_at": "2025-08-11T02:10:37.368-04:00"}], "coding_time_seconds": 12293, "coding_time_seconds_today": 0, "balance": "You need to have a pocket watcher badge to view this.", "badges": [], "created_at": "2025-08-10T08:39:17.036-04:00", "updated_at": "2025-08-11T01:24:17.618-04:00", "avatar": "https://avatars.slack-edge.com/2025-08-10/9331549627366_dee6fbe2ed61656f5d13_original.png", "custom_css": null}, {"id": 21116, "slack_id": "U099CKFENS3", "display_name": "Spryzen", "bio": null, "projects_count": 0, "devlogs_count": 0, "votes_count": 0, "ships_count": 0, "projects": [], "coding_time_seconds": 0, "coding_time_seconds_today": 0, "balance": "You need to have a pocket watcher badge to view this.", "badges": [], "created_at": "2025-08-10T08:59:17.053-04:00", "updated_at": "2025-08-11T12:55:13.459-04:00", "avatar": "https://secure.gravatar.com/avatar/598eaa5480a0aee91d811972d410fe85.jpg?s=512&d=https%3A%2F%2Fa.slack-edge.com%2Fdf10d%2Fimg%2Favatars%2Fava_0008-512.png", "custom_css": null}, {"id": 21117, "slack_id": "U099UUS4CUU", "display_name": "OxSecTrack", "bio": null, "projects_count": 0, "devlogs_count": 0, "votes_count": 0, "ships_count": 0, "projects": [], "coding_time_seconds": 0, "coding_time_seconds_today": 0, "balance": "You need to have a pocket watcher badge to view this.", "badges": [], "created_at": "2025-08-10T08:59:29.041-04:00", "updated_at": "2025-08-10T09:53:51.013-04:00", "avatar": "https://avatars.slack-edge.com/2025-08-10/9357291139472_836c827c55fc1d7b613e_original.png", "custom_css": null}, {"id": 21118, "slack_id": "U0820NNJZT8", "display_name": "\u5289\u921e\u6df5", "bio": null, "projects_count": 0, "devlogs_count": 0, "votes_count": 0, "ships_count": 0, "projects": [], "coding_time_seconds": 51348, "coding_time_seconds_today": 0, "balance": "You need to have a pocket watcher badge to view this.", "badges": [], "created_at": "2025-08-10T09:09:44.043-04:00", "updated_at": "2025-08-11T12:36:07.247-04:00", "avatar": "https://secure.gravatar.com/avatar/d27aa3c4840e782d61754b653b50f6f4.jpg?s=512&d=https%3A%2F%2Fa.slack-edge.com%2Fdf10d%2Fimg%2Favatars%2Fava_0005-512.png", "custom_css": null}, {"id": 21119, "slack_id": "U099GCF3S7K", "display_name": "Sophia Oliver", "bio": null, "projects_count": 0, "devlogs_count": 0, "votes_count": 0, "ships_count": 0, "projects": [], "coding_time_seconds": 0, "coding_time_seconds_today": 0, "balance": "You need to have a pocket watcher badge to view this.", "badges": [], "created_at": "2025-08-10T09:13:59.153-04:00", "updated_at": "2025-08-10T09:53:51.191-04:00", "avatar": "https://secure.gravatar.com/avatar/856ac6ef2c6f7289849a699ec1d98a2e.jpg?s=512&d=https%3A%2F%2Fa.slack-edge.com%2Fdf10d%2Fimg%2Favatars%2Fava_0007-512.png", "custom_css": null}, {"id": 21120, "slack_id": "U099K6ZD2R1", "display_name": "David Polt", "bio": "", "projects_count": 0, "devlogs_count": 12, "votes_count": 68, "ships_count": 0, "projects": [], "coding_time_seconds": 326071, "coding_time_seconds_today": 0, "balance": "You need to have a pocket watcher badge to view this.", "badges": [], "created_at": "2025-08-10T09:30:14.382-04:00", "updated_at": "2025-08-17T00:50:41.072-04:00", "avatar": "https://secure.gravatar.com/avatar/cf1968781279cfb4691f25aa951db527.jpg?s=512&d=https%3A%2F%2Fa.slack-edge.com%2Fdf10d%2Fimg%2Favatars%2Fava_0026-512.png", "custom_css": null}, {"id": 21121, "slack_id": "U099RK6SBD4", "display_name": "Fotima", "bio": null, "projects_count": 0, "devlogs_count": 0, "votes_count": 0, "ships_count": 0, "projects": [], "coding_time_seconds": 0, "coding_time_seconds_today": 0, "balance": "You need to have a pocket watcher badge to view this.", "badges": [], "created_at": "2025-08-10T09:51:49.691-04:00", "updated_at": "2025-08-10T15:53:57.817-04:00", "avatar": "https://avatars.slack-edge.com/2025-08-10/9335068020756_6d120bcf5ff6b7784298_original.png", "custom_css": null}, {"id": 21122, "slack_id": "U099T2LLLSY", "display_name": "Dibyendu", "bio": null, "projects_count": 0, "devlogs_count": 0, "votes_count": 0, "ships_count": 0, "projects": [], "coding_time_seconds": 0, "coding_time_seconds_today": 0, "balance": "You need to have a pocket watcher badge to view this.", "badges": [], "created_at": "2025-08-10T09:59:21.106-04:00", "updated_at": "2025-08-10T15:53:57.911-04:00", "avatar": "https://avatars.slack-edge.com/2025-08-10/9325325198595_5f49995f894281889d41_original.png", "custom_css": null}, {"id": 21123, "slack_id": "U09AHAVT080", "display_name": "Ariya", "bio": null, "projects_count": 0, "devlogs_count": 0, "votes_count": 0, "ships_count": 0, "projects": [], "coding_time_seconds": 0, "coding_time_seconds_today": 0, "balance": "You need to have a pocket watcher badge to view this.", "badges": [], "created_at": "2025-08-10T10:01:08.032-04:00", "updated_at": "2025-08-10T15:53:57.992-04:00", "avatar": "https://secure.gravatar.com/avatar/a3eb26abf890e27b720845928e8d105c.jpg?s=512&d=https%3A%2F%2Fa.slack-edge.com%2Fdf10d%2Fimg%2Favatars%2Fava_0002-512.png", "custom_css": null}, {"id": 21124, "slack_id": "U0956S7H15H", "display_name": "Aman Dey", "bio": null, "projects_count": 0, "devlogs_count": 0, "votes_count": 0, "ships_count": 0, "projects": [], "coding_time_seconds": 0, "coding_time_seconds_today": 0, "balance": "You need to have a pocket watcher badge to view this.", "badges": [], "created_at": "2025-08-10T10:30:29.398-04:00", "updated_at": "2025-08-10T15:53:58.101-04:00", "avatar": "https://avatars.slack-edge.com/2025-08-10/9325370648739_bc29ea626c9bf2a212a0_original.jpg", "custom_css": null}, {"id": 21125, "slack_id": "U09AHCSNS64", "display_name": "Ronald Shaw", "bio": null, "projects_count": 0, "devlogs_count": 0, "votes_count": 0, "ships_count": 0, "projects": [], "coding_time_seconds": 0, "coding_time_seconds_today": 0, "balance": "You need to have a pocket watcher badge to view this.", "badges": [], "created_at": "2025-08-10T10:40:43.964-04:00", "updated_at": "2025-08-10T15:53:58.205-04:00", "avatar": "https://secure.gravatar.com/avatar/dc8056124515a5ab57be4e53726e52e6.jpg?s=512&d=https%3A%2F%2Fa.slack-edge.com%2Fdf10d%2Fimg%2Favatars%2Fava_0010-512.png", "custom_css": null}], "pagination": {"page": 1052, "pages": 1192, "count": 23828, "items": 20}}