{"users": [{"id": 21126, "slack_id": "U099QTB7VU5", "display_name": "tunm", "bio": null, "projects_count": 0, "devlogs_count": 0, "votes_count": 0, "ships_count": 0, "projects": [], "coding_time_seconds": 0, "coding_time_seconds_today": 0, "balance": "You need to have a pocket watcher badge to view this.", "badges": [], "created_at": "2025-08-10T10:48:14.509-04:00", "updated_at": "2025-08-11T22:14:01.901-04:00", "avatar": "https://secure.gravatar.com/avatar/6674a4a11249450eefb4e0c23a193890.jpg?s=512&d=https%3A%2F%2Fa.slack-edge.com%2Fdf10d%2Fimg%2Favatars%2Fava_0009-512.png", "custom_css": null}, {"id": 21127, "slack_id": "U099QJDC7U2", "display_name": "mansoor", "bio": null, "projects_count": 0, "devlogs_count": 0, "votes_count": 0, "ships_count": 0, "projects": [], "coding_time_seconds": 0, "coding_time_seconds_today": 0, "balance": "You need to have a pocket watcher badge to view this.", "badges": [], "created_at": "2025-08-10T11:11:34.868-04:00", "updated_at": "2025-08-10T15:53:58.384-04:00", "avatar": "https://secure.gravatar.com/avatar/d2481de031864b9f786e08f8d4ec20a0.jpg?s=512&d=https%3A%2F%2Fa.slack-edge.com%2Fdf10d%2Fimg%2Favatars%2Fava_0019-512.png", "custom_css": null}, {"id": 21128, "slack_id": "U099V4BND6G", "display_name": "Khalia Lewis", "bio": null, "projects_count": 2, "devlogs_count": 2, "votes_count": 0, "ships_count": 0, "projects": [{"id": 13649, "title": "My Mini Calculator (Using Python)", "devlogs_count": 2, "created_at": "2025-09-21T22:40:51.282-04:00"}, {"id": 13541, "title": "Quotes Quest", "devlogs_count": 0, "created_at": "2025-09-18T23:35:43.663-04:00"}], "coding_time_seconds": 54246, "coding_time_seconds_today": 0, "balance": "You need to have a pocket watcher badge to view this.", "badges": [], "created_at": "2025-08-10T11:18:47.507-04:00", "updated_at": "2025-09-19T01:30:01.464-04:00", "avatar": "https://secure.gravatar.com/avatar/342c46e83f62c65bf6e4a9cbb747e259.jpg?s=512&d=https%3A%2F%2Fa.slack-edge.com%2Fdf10d%2Fimg%2Favatars%2Fava_0009-512.png", "custom_css": null}, {"id": 21129, "slack_id": "U099V4VHRU4", "display_name": "Matthew", "bio": null, "projects_count": 0, "devlogs_count": 0, "votes_count": 0, "ships_count": 0, "projects": [], "coding_time_seconds": 0, "coding_time_seconds_today": 0, "balance": "You need to have a pocket watcher badge to view this.", "badges": [], "created_at": "2025-08-10T11:30:42.937-04:00", "updated_at": "2025-08-10T15:53:58.555-04:00", "avatar": "https://secure.gravatar.com/avatar/da4b59830a02d77ba9c2da0356ace394.jpg?s=512&d=https%3A%2F%2Fa.slack-edge.com%2Fdf10d%2Fimg%2Favatars%2Fava_0020-512.png", "custom_css": null}, {"id": 21130, "slack_id": "U099RQ7G49L", "display_name": "Kuo", "bio": null, "projects_count": 0, "devlogs_count": 0, "votes_count": 0, "ships_count": 0, "projects": [], "coding_time_seconds": 0, "coding_time_seconds_today": 0, "balance": "You need to have a pocket watcher badge to view this.", "badges": [], "created_at": "2025-08-10T11:37:03.589-04:00", "updated_at": "2025-08-10T15:53:58.649-04:00", "avatar": "https://secure.gravatar.com/avatar/6f78d900535a7590733e46114179ab32.jpg?s=512&d=https%3A%2F%2Fa.slack-edge.com%2Fdf10d%2Fimg%2Favatars%2Fava_0010-512.png", "custom_css": null}, {"id": 21131, "slack_id": "U099CSKMZF1", "display_name": "Ester Dawod", "bio": null, "projects_count": 0, "devlogs_count": 0, "votes_count": 0, "ships_count": 0, "projects": [], "coding_time_seconds": 0, "coding_time_seconds_today": 0, "balance": "You need to have a pocket watcher badge to view this.", "badges": [], "created_at": "2025-08-10T11:44:14.680-04:00", "updated_at": "2025-08-10T15:53:58.759-04:00", "avatar": "https://avatars.slack-edge.com/2025-08-10/9335187613028_9ede622b8ce0023ad491_original.png", "custom_css": null}, {"id": 21132, "slack_id": "U099QL3JBC2", "display_name": "Sarthak Jindal", "bio": null, "projects_count": 0, "devlogs_count": 0, "votes_count": 0, "ships_count": 0, "projects": [], "coding_time_seconds": 0, "coding_time_seconds_today": 0, "balance": "You need to have a pocket watcher badge to view this.", "badges": [], "created_at": "2025-08-10T11:55:01.530-04:00", "updated_at": "2025-08-10T15:53:58.853-04:00", "avatar": "https://secure.gravatar.com/avatar/058384cfaf3c8220a15d342fe351741a.jpg?s=512&d=https%3A%2F%2Fa.slack-edge.com%2Fdf10d%2Fimg%2Favatars%2Fava_0007-512.png", "custom_css": null}, {"id": 21133, "slack_id": "U09987JQ2P9", "display_name": "Izabela Dumitrescu", "bio": null, "projects_count": 0, "devlogs_count": 0, "votes_count": 0, "ships_count": 0, "projects": [], "coding_time_seconds": 0, "coding_time_seconds_today": 0, "balance": "You need to have a pocket watcher badge to view this.", "badges": [], "created_at": "2025-08-10T12:59:50.557-04:00", "updated_at": "2025-08-11T12:36:03.338-04:00", "avatar": "https://secure.gravatar.com/avatar/decf22d3cf8d7c690d262a68e3636c6c.jpg?s=512&d=https%3A%2F%2Fa.slack-edge.com%2Fdf10d%2Fimg%2Favatars%2Fava_0016-512.png", "custom_css": null}, {"id": 21134, "slack_id": "U09AHKP4ELQ", "display_name": "sudhanshu", "bio": null, "projects_count": 0, "devlogs_count": 0, "votes_count": 0, "ships_count": 0, "projects": [], "coding_time_seconds": 0, "coding_time_seconds_today": 0, "balance": "You need to have a pocket watcher badge to view this.", "badges": [], "created_at": "2025-08-10T13:08:10.206-04:00", "updated_at": "2025-08-10T15:54:03.104-04:00", "avatar": "https://secure.gravatar.com/avatar/17161188fd691c016d98460995861993.jpg?s=512&d=https%3A%2F%2Fa.slack-edge.com%2Fdf10d%2Fimg%2Favatars%2Fava_0017-512.png", "custom_css": null}, {"id": 21135, "slack_id": "U099QPDFE58", "display_name": "Raksha", "bio": null, "projects_count": 0, "devlogs_count": 0, "votes_count": 0, "ships_count": 0, "projects": [], "coding_time_seconds": 13188, "coding_time_seconds_today": 0, "balance": "You need to have a pocket watcher badge to view this.", "badges": [], "created_at": "2025-08-10T13:09:06.769-04:00", "updated_at": "2025-08-10T15:54:03.210-04:00", "avatar": "https://secure.gravatar.com/avatar/082621a946ebe9600f66491f685e14cc.jpg?s=512&d=https%3A%2F%2Fa.slack-edge.com%2Fdf10d%2Fimg%2Favatars%2Fava_0000-512.png", "custom_css": null}, {"id": 21136, "slack_id": "U099KJQMAUT", "display_name": "Awkward", "bio": null, "projects_count": 0, "devlogs_count": 0, "votes_count": 0, "ships_count": 0, "projects": [], "coding_time_seconds": 0, "coding_time_seconds_today": 0, "balance": "You need to have a pocket watcher badge to view this.", "badges": [], "created_at": "2025-08-10T13:48:01.646-04:00", "updated_at": "2025-08-10T15:54:03.328-04:00", "avatar": "https://secure.gravatar.com/avatar/3c13e103f029a4f7f3f7d37a2201eeb7.jpg?s=512&d=https%3A%2F%2Fa.slack-edge.com%2Fdf10d%2Fimg%2Favatars%2Fava_0002-512.png", "custom_css": null}, {"id": 21137, "slack_id": "U099R6EULQ5", "display_name": "Cara Nishino", "bio": null, "projects_count": 0, "devlogs_count": 0, "votes_count": 0, "ships_count": 0, "projects": [], "coding_time_seconds": 0, "coding_time_seconds_today": 0, "balance": "You need to have a pocket watcher badge to view this.", "badges": [], "created_at": "2025-08-10T14:16:39.742-04:00", "updated_at": "2025-08-10T15:54:03.411-04:00", "avatar": "https://secure.gravatar.com/avatar/770e41f385044ebbc43aa0e4235614d4.jpg?s=512&d=https%3A%2F%2Fa.slack-edge.com%2Fdf10d%2Fimg%2Favatars%2Fava_0011-512.png", "custom_css": null}, {"id": 21138, "slack_id": "U099R741SMT", "display_name": "Tushar Singh", "bio": null, "projects_count": 0, "devlogs_count": 0, "votes_count": 0, "ships_count": 0, "projects": [], "coding_time_seconds": 0, "coding_time_seconds_today": 0, "balance": "You need to have a pocket watcher badge to view this.", "badges": [], "created_at": "2025-08-10T14:32:48.268-04:00", "updated_at": "2025-08-10T15:54:03.507-04:00", "avatar": "https://secure.gravatar.com/avatar/50658bf538e95cc8593d96ebbeeaebd9.jpg?s=512&d=https%3A%2F%2Fa.slack-edge.com%2Fdf10d%2Fimg%2Favatars%2Fava_0018-512.png", "custom_css": null}, {"id": 21139, "slack_id": "U099D557DQF", "display_name": "EDWINVANDERSAR58", "bio": null, "projects_count": 0, "devlogs_count": 0, "votes_count": 0, "ships_count": 0, "projects": [], "coding_time_seconds": 0, "coding_time_seconds_today": 0, "balance": "You need to have a pocket watcher badge to view this.", "badges": [], "created_at": "2025-08-10T15:02:38.497-04:00", "updated_at": "2025-08-10T15:54:03.609-04:00", "avatar": "https://secure.gravatar.com/avatar/927aa1c55d565ba230fe4fea2e367690.jpg?s=512&d=https%3A%2F%2Fa.slack-edge.com%2Fdf10d%2Fimg%2Favatars%2Fava_0002-512.png", "custom_css": null}, {"id": 21140, "slack_id": "U099S4DCTSA", "display_name": "Suya", "bio": null, "projects_count": 0, "devlogs_count": 0, "votes_count": 0, "ships_count": 0, "projects": [], "coding_time_seconds": 0, "coding_time_seconds_today": 0, "balance": "You need to have a pocket watcher badge to view this.", "badges": [], "created_at": "2025-08-10T15:34:55.547-04:00", "updated_at": "2025-08-10T15:54:03.695-04:00", "avatar": "https://secure.gravatar.com/avatar/8d269950931a363a3b30262f548c1b26.jpg?s=512&d=https%3A%2F%2Fa.slack-edge.com%2Fdf10d%2Fimg%2Favatars%2Fava_0006-512.png", "custom_css": null}, {"id": 21141, "slack_id": "U099D6Y4JSK", "display_name": "Kylie X", "bio": null, "projects_count": 0, "devlogs_count": 0, "votes_count": 0, "ships_count": 0, "projects": [], "coding_time_seconds": 0, "coding_time_seconds_today": 0, "balance": "You need to have a pocket watcher badge to view this.", "badges": [], "created_at": "2025-08-10T15:41:09.713-04:00", "updated_at": "2025-08-10T16:22:00.904-04:00", "avatar": "https://avatars.slack-edge.com/2025-08-10/9325801043603_665d0461c41b58a55e25_original.jpg", "custom_css": null}, {"id": 21142, "slack_id": "U099BH8JPPZ", "display_name": "Avani Kumar", "bio": null, "projects_count": 0, "devlogs_count": 0, "votes_count": 0, "ships_count": 0, "projects": [], "coding_time_seconds": 0, "coding_time_seconds_today": 0, "balance": "You need to have a pocket watcher badge to view this.", "badges": [], "created_at": "2025-08-10T16:23:07.802-04:00", "updated_at": "2025-08-12T03:54:36.561-04:00", "avatar": "https://avatars.slack-edge.com/2025-08-11/9342076239556_475509f990af34ea4a29_original.png", "custom_css": null}, {"id": 21143, "slack_id": "U099S76AXQE", "display_name": "dragsbruh", "bio": null, "projects_count": 4, "devlogs_count": 18, "votes_count": 38, "ships_count": 2, "projects": [{"id": 11019, "title": "scrobs", "devlogs_count": 1, "created_at": "2025-08-12T12:25:41.491-04:00"}, {"id": 11335, "title": "hypersonic", "devlogs_count": 9, "created_at": "2025-08-15T01:24:43.661-04:00"}, {"id": 12218, "title": "arsonic", "devlogs_count": 0, "created_at": "2025-08-24T12:53:12.544-04:00"}, {"id": 12471, "title": "Grall", "devlogs_count": 8, "created_at": "2025-08-28T04:01:58.156-04:00"}], "coding_time_seconds": 528163, "coding_time_seconds_today": 0, "balance": "You need to have a pocket watcher badge to view this.", "badges": [], "created_at": "2025-08-10T16:30:41.807-04:00", "updated_at": "2025-09-07T08:46:23.802-04:00", "avatar": "https://avatars.slack-edge.com/2025-08-11/9325865824595_c60a77b7ba0d512e9185_original.jpg", "custom_css": null}, {"id": 21144, "slack_id": "U099DA7PDUP", "display_name": "Elia", "bio": "", "projects_count": 1, "devlogs_count": 2, "votes_count": 1, "ships_count": 0, "projects": [{"id": 10887, "title": "zahlen raten", "devlogs_count": 2, "created_at": "2025-08-11T15:11:58.067-04:00"}], "coding_time_seconds": 11447, "coding_time_seconds_today": 0, "balance": "You need to have a pocket watcher badge to view this.", "badges": [], "created_at": "2025-08-10T17:02:44.105-04:00", "updated_at": "2025-08-11T15:02:58.096-04:00", "avatar": "https://secure.gravatar.com/avatar/2a405269993f6710cdf1486a03e74be6.jpg?s=512&d=https%3A%2F%2Fa.slack-edge.com%2Fdf10d%2Fimg%2Favatars%2Fava_0015-512.png", "custom_css": null}, {"id": 21145, "slack_id": "U082WTLK6P6", "display_name": "sanjith yelavarthy", "bio": null, "projects_count": 0, "devlogs_count": 0, "votes_count": 0, "ships_count": 0, "projects": [], "coding_time_seconds": 0, "coding_time_seconds_today": 0, "balance": "You need to have a pocket watcher badge to view this.", "badges": [], "created_at": "2025-08-10T17:28:46.754-04:00", "updated_at": "2025-08-10T17:33:28.753-04:00", "avatar": "https://avatars.slack-edge.com/2024-11-29/8104714068706_915438ec818f852db361_original.png", "custom_css": null}], "pagination": {"page": 1053, "pages": 1192, "count": 23828, "items": 20}}