{"users": [{"id": 21146, "slack_id": "U099VJD2YGL", "display_name": "Yaswitha", "bio": null, "projects_count": 0, "devlogs_count": 0, "votes_count": 0, "ships_count": 0, "projects": [], "coding_time_seconds": 0, "coding_time_seconds_today": 0, "balance": "You need to have a pocket watcher badge to view this.", "badges": [], "created_at": "2025-08-10T18:16:56.117-04:00", "updated_at": "2025-08-10T21:53:08.451-04:00", "avatar": "https://secure.gravatar.com/avatar/bbc10a07d63899d3d9919643d1f10ab8.jpg?s=512&d=https%3A%2F%2Fa.slack-edge.com%2Fdf10d%2Fimg%2Favatars%2Fava_0016-512.png", "custom_css": null}, {"id": 21147, "slack_id": "U09A4UM9P33", "display_name": "Momo", "bio": null, "projects_count": 0, "devlogs_count": 0, "votes_count": 0, "ships_count": 0, "projects": [], "coding_time_seconds": 0, "coding_time_seconds_today": 0, "balance": "You need to have a pocket watcher badge to view this.", "badges": [], "created_at": "2025-08-10T19:11:14.018-04:00", "updated_at": "2025-08-10T21:53:08.568-04:00", "avatar": "https://avatars.slack-edge.com/2025-08-10/9345001546673_2fdd80b06e6179f55a2c_original.png", "custom_css": null}, {"id": 21148, "slack_id": "U099L2RN1KM", "display_name": "Lex", "bio": null, "projects_count": 0, "devlogs_count": 0, "votes_count": 0, "ships_count": 0, "projects": [], "coding_time_seconds": 0, "coding_time_seconds_today": 0, "balance": "You need to have a pocket watcher badge to view this.", "badges": [], "created_at": "2025-08-10T19:19:55.481-04:00", "updated_at": "2025-08-10T21:53:08.682-04:00", "avatar": "https://secure.gravatar.com/avatar/0ca8a89999dbc026e5926d892ede02f2.jpg?s=512&d=https%3A%2F%2Fa.slack-edge.com%2Fdf10d%2Fimg%2Favatars%2Fava_0012-512.png", "custom_css": null}, {"id": 21149, "slack_id": "U08NCJDPSJU", "display_name": "arsen", "bio": null, "projects_count": 1, "devlogs_count": 0, "votes_count": 0, "ships_count": 0, "projects": [{"id": 11301, "title": "WIPSHMUP", "devlogs_count": 0, "created_at": "2025-08-14T19:17:08.290-04:00"}], "coding_time_seconds": 368334, "coding_time_seconds_today": 0, "balance": "You need to have a pocket watcher badge to view this.", "badges": [], "created_at": "2025-08-10T20:35:44.562-04:00", "updated_at": "2025-08-14T19:11:30.826-04:00", "avatar": "https://avatars.slack-edge.com/2025-07-02/9136151764710_6cc4f20f82b3c045dcb1_original.png", "custom_css": null}, {"id": 21150, "slack_id": "U099RMU9HD3", "display_name": "Elroi Eskndir", "bio": null, "projects_count": 0, "devlogs_count": 0, "votes_count": 0, "ships_count": 0, "projects": [], "coding_time_seconds": 115987, "coding_time_seconds_today": 0, "balance": "You need to have a pocket watcher badge to view this.", "badges": [], "created_at": "2025-08-10T20:40:05.766-04:00", "updated_at": "2025-08-19T01:30:14.728-04:00", "avatar": "https://secure.gravatar.com/avatar/4002e531bb9c13e10908f0d2bd25aa18.jpg?s=512&d=https%3A%2F%2Fa.slack-edge.com%2Fdf10d%2Fimg%2Favatars%2Fava_0012-512.png", "custom_css": null}, {"id": 21151, "slack_id": "U099RCY4WMQ", "display_name": "Zhaoxue", "bio": "", "projects_count": 0, "devlogs_count": 0, "votes_count": 0, "ships_count": 0, "projects": [], "coding_time_seconds": 1008, "coding_time_seconds_today": 0, "balance": "You need to have a pocket watcher badge to view this.", "badges": [], "created_at": "2025-08-10T20:40:42.750-04:00", "updated_at": "2025-08-10T21:53:09.109-04:00", "avatar": "https://secure.gravatar.com/avatar/f718ce1cc62dc919b585933d94db7024.jpg?s=512&d=https%3A%2F%2Fa.slack-edge.com%2Fdf10d%2Fimg%2Favatars%2Fava_0013-512.png", "custom_css": null}, {"id": 21152, "slack_id": "U099VQBTT8U", "display_name": "Gerard", "bio": null, "projects_count": 0, "devlogs_count": 0, "votes_count": 0, "ships_count": 0, "projects": [], "coding_time_seconds": 0, "coding_time_seconds_today": 0, "balance": "You need to have a pocket watcher badge to view this.", "badges": [], "created_at": "2025-08-10T20:45:54.581-04:00", "updated_at": "2025-08-10T21:53:09.220-04:00", "avatar": "https://secure.gravatar.com/avatar/bd94a97f11bf9111d8ec477ada7040c1.jpg?s=512&d=https%3A%2F%2Fa.slack-edge.com%2Fdf10d%2Fimg%2Favatars%2Fava_0003-512.png", "custom_css": null}, {"id": 21153, "slack_id": "U099RPARJCD", "display_name": "Cassie G", "bio": null, "projects_count": 0, "devlogs_count": 0, "votes_count": 0, "ships_count": 0, "projects": [], "coding_time_seconds": 0, "coding_time_seconds_today": 0, "balance": "You need to have a pocket watcher badge to view this.", "badges": [], "created_at": "2025-08-10T21:09:01.631-04:00", "updated_at": "2025-08-11T16:59:02.444-04:00", "avatar": "https://avatars.slack-edge.com/2025-08-10/9332737127702_ac909b0196558ff4244f_original.png", "custom_css": null}, {"id": 21154, "slack_id": "U099VUVL9E0", "display_name": "Thusharika S", "bio": null, "projects_count": 0, "devlogs_count": 0, "votes_count": 0, "ships_count": 0, "projects": [], "coding_time_seconds": 0, "coding_time_seconds_today": 0, "balance": "You need to have a pocket watcher badge to view this.", "badges": [], "created_at": "2025-08-10T22:08:39.517-04:00", "updated_at": "2025-08-11T03:54:26.124-04:00", "avatar": "https://avatars.slack-edge.com/2025-08-10/9335981822100_44368facf365f5bb7653_original.png", "custom_css": null}, {"id": 21155, "slack_id": "U099RUZBSAZ", "display_name": "Thisisatestacct", "bio": null, "projects_count": 0, "devlogs_count": 0, "votes_count": 0, "ships_count": 0, "projects": [], "coding_time_seconds": 0, "coding_time_seconds_today": 0, "balance": "You need to have a pocket watcher badge to view this.", "badges": [], "created_at": "2025-08-10T22:37:37.781-04:00", "updated_at": "2025-08-11T03:54:26.231-04:00", "avatar": "https://secure.gravatar.com/avatar/7e87b6c423ab69adda01ebd1da9211af.jpg?s=512&d=https%3A%2F%2Fa.slack-edge.com%2Fdf10d%2Fimg%2Favatars%2Fava_0017-512.png", "custom_css": null}, {"id": 21156, "slack_id": "U099DTY3XJT", "display_name": "deactivateduser", "bio": null, "projects_count": 0, "devlogs_count": 0, "votes_count": 0, "ships_count": 0, "projects": [], "coding_time_seconds": 0, "coding_time_seconds_today": 0, "balance": "You need to have a pocket watcher badge to view this.", "badges": [], "created_at": "2025-08-10T22:55:15.144-04:00", "updated_at": "2025-08-11T03:54:30.372-04:00", "avatar": "https://secure.gravatar.com/avatar/b8315528336017e66c12d3bd584a995d.jpg?s=512&d=https%3A%2F%2Fa.slack-edge.com%2Fdf10d%2Fimg%2Favatars%2Fava_0016-512.png", "custom_css": null}, {"id": 21157, "slack_id": "U08078QDA2C", "display_name": "nulladmin1", "bio": null, "projects_count": 0, "devlogs_count": 0, "votes_count": 0, "ships_count": 0, "projects": [], "coding_time_seconds": 36467, "coding_time_seconds_today": 0, "balance": "You need to have a pocket watcher badge to view this.", "badges": [], "created_at": "2025-08-10T22:57:16.498-04:00", "updated_at": "2025-08-11T12:35:59.499-04:00", "avatar": "https://secure.gravatar.com/avatar/94a1a4ce1519fc8c27eb2cc7da34ad74.jpg?s=512&d=https%3A%2F%2Fa.slack-edge.com%2Fdf10d%2Fimg%2Favatars%2Fava_0019-512.png", "custom_css": null}, {"id": 21158, "slack_id": "U09AJKKK400", "display_name": "qxly", "bio": null, "projects_count": 0, "devlogs_count": 0, "votes_count": 0, "ships_count": 0, "projects": [], "coding_time_seconds": 0, "coding_time_seconds_today": 0, "balance": "You need to have a pocket watcher badge to view this.", "badges": [], "created_at": "2025-08-10T22:57:46.926-04:00", "updated_at": "2025-08-11T03:54:30.543-04:00", "avatar": "https://secure.gravatar.com/avatar/906cbfcbbee0cf22c55c2a7f3ead4724.jpg?s=512&d=https%3A%2F%2Fa.slack-edge.com%2Fdf10d%2Fimg%2Favatars%2Fava_0002-512.png", "custom_css": null}, {"id": 21159, "slack_id": "U099LJAJUDQ", "display_name": "Princess", "bio": null, "projects_count": 0, "devlogs_count": 0, "votes_count": 0, "ships_count": 0, "projects": [], "coding_time_seconds": 0, "coding_time_seconds_today": 0, "balance": "You need to have a pocket watcher badge to view this.", "badges": [], "created_at": "2025-08-10T23:02:30.327-04:00", "updated_at": "2025-08-11T03:54:30.625-04:00", "avatar": "https://avatars.slack-edge.com/2025-08-11/9346237657841_94e5d7164351237ff8f3_original.jpg", "custom_css": null}, {"id": 21160, "slack_id": "U099LCHLKTM", "display_name": "Gael Eduardo Inguanzo Ju\u00e1rez", "bio": null, "projects_count": 0, "devlogs_count": 0, "votes_count": 0, "ships_count": 0, "projects": [], "coding_time_seconds": 0, "coding_time_seconds_today": 0, "balance": "You need to have a pocket watcher badge to view this.", "badges": [], "created_at": "2025-08-10T23:04:08.416-04:00", "updated_at": "2025-08-11T03:54:30.720-04:00", "avatar": "https://avatars.slack-edge.com/2025-08-10/9331771828306_01b15065cf6fce0562c4_original.jpg", "custom_css": null}, {"id": 21161, "slack_id": "U09AJLM9Y9W", "display_name": "samliu (alt egrdfzxc)", "bio": null, "projects_count": 1, "devlogs_count": 1, "votes_count": 0, "ships_count": 0, "projects": [{"id": 10796, "title": "Test", "devlogs_count": 1, "created_at": "2025-08-10T23:18:54.413-04:00"}], "coding_time_seconds": 5873, "coding_time_seconds_today": 0, "balance": "You need to have a pocket watcher badge to view this.", "badges": [], "created_at": "2025-08-10T23:12:55.459-04:00", "updated_at": "2025-08-11T03:54:30.816-04:00", "avatar": "https://secure.gravatar.com/avatar/e1cd330446a9dbc1c51cf41d2d783648.jpg?s=512&d=https%3A%2F%2Fa.slack-edge.com%2Fdf10d%2Fimg%2Favatars%2Fava_0026-512.png", "custom_css": null}, {"id": 21162, "slack_id": "U099SV2KM62", "display_name": "Zarry Binford", "bio": null, "projects_count": 0, "devlogs_count": 0, "votes_count": 0, "ships_count": 0, "projects": [], "coding_time_seconds": 0, "coding_time_seconds_today": 0, "balance": "You need to have a pocket watcher badge to view this.", "badges": [], "created_at": "2025-08-10T23:21:49.715-04:00", "updated_at": "2025-08-11T03:54:30.926-04:00", "avatar": "https://secure.gravatar.com/avatar/2421bbcaecaeb6b103228165786459d3.jpg?s=512&d=https%3A%2F%2Fa.slack-edge.com%2Fdf10d%2Fimg%2Favatars%2Fava_0009-512.png", "custom_css": null}, {"id": 21163, "slack_id": "U09A5EG1ZNV", "display_name": "saanvib", "bio": null, "projects_count": 0, "devlogs_count": 0, "votes_count": 0, "ships_count": 0, "projects": [], "coding_time_seconds": 0, "coding_time_seconds_today": 0, "balance": "You need to have a pocket watcher badge to view this.", "badges": [], "created_at": "2025-08-10T23:25:11.574-04:00", "updated_at": "2025-08-11T03:54:31.254-04:00", "avatar": "https://secure.gravatar.com/avatar/7172a7a21717afc8133a8341f399e24d.jpg?s=512&d=https%3A%2F%2Fa.slack-edge.com%2Fdf10d%2Fimg%2Favatars%2Fava_0007-512.png", "custom_css": null}, {"id": 21164, "slack_id": "U09A5HFFHLH", "display_name": "Tife", "bio": null, "projects_count": 0, "devlogs_count": 0, "votes_count": 0, "ships_count": 0, "projects": [], "coding_time_seconds": 0, "coding_time_seconds_today": 0, "balance": "You need to have a pocket watcher badge to view this.", "badges": [], "created_at": "2025-08-11T00:19:53.189-04:00", "updated_at": "2025-08-11T03:54:31.338-04:00", "avatar": "https://secure.gravatar.com/avatar/3d87e02c9109116f40d5af67397fddb9.jpg?s=512&d=https%3A%2F%2Fa.slack-edge.com%2Fdf10d%2Fimg%2Favatars%2Fava_0009-512.png", "custom_css": null}, {"id": 21165, "slack_id": "U099E4ZHVEK", "display_name": "Aamina Imran", "bio": null, "projects_count": 0, "devlogs_count": 0, "votes_count": 0, "ships_count": 0, "projects": [], "coding_time_seconds": 0, "coding_time_seconds_today": 0, "balance": "You need to have a pocket watcher badge to view this.", "badges": [], "created_at": "2025-08-11T00:42:52.040-04:00", "updated_at": "2025-08-11T03:54:31.433-04:00", "avatar": "https://secure.gravatar.com/avatar/144e30e29f5c117955f4b521bd8106f8.jpg?s=512&d=https%3A%2F%2Fa.slack-edge.com%2Fdf10d%2Fimg%2Favatars%2Fava_0022-512.png", "custom_css": null}], "pagination": {"page": 1054, "pages": 1192, "count": 23828, "items": 20}}