{"users": [{"id": 21166, "slack_id": "U09A5K4BVUH", "display_name": "Siddharth gautam", "bio": null, "projects_count": 0, "devlogs_count": 0, "votes_count": 0, "ships_count": 0, "projects": [], "coding_time_seconds": 0, "coding_time_seconds_today": 0, "balance": "You need to have a pocket watcher badge to view this.", "badges": [], "created_at": "2025-08-11T00:43:13.731-04:00", "updated_at": "2025-08-11T03:54:31.528-04:00", "avatar": "https://secure.gravatar.com/avatar/731123e62e9fb0a09b5af2a44d1dd7c6.jpg?s=512&d=https%3A%2F%2Fa.slack-edge.com%2Fdf10d%2Fimg%2Favatars%2Fava_0022-512.png", "custom_css": null}, {"id": 21167, "slack_id": "U099SDPGQ7P", "display_name": "Gio Kim", "bio": null, "projects_count": 0, "devlogs_count": 0, "votes_count": 0, "ships_count": 0, "projects": [], "coding_time_seconds": 83233, "coding_time_seconds_today": 0, "balance": "You need to have a pocket watcher badge to view this.", "badges": [], "created_at": "2025-08-11T02:15:39.979-04:00", "updated_at": "2025-08-11T03:54:31.644-04:00", "avatar": "https://avatars.slack-edge.com/2025-08-10/9326954317811_2937313694b07e7a2e11_original.png", "custom_css": null}, {"id": 21168, "slack_id": "U099SEC1UG5", "display_name": "Kithmina", "bio": null, "projects_count": 0, "devlogs_count": 0, "votes_count": 0, "ships_count": 0, "projects": [], "coding_time_seconds": 0, "coding_time_seconds_today": 0, "balance": "You need to have a pocket watcher badge to view this.", "badges": [], "created_at": "2025-08-11T02:27:36.448-04:00", "updated_at": "2025-08-11T03:54:31.746-04:00", "avatar": "https://secure.gravatar.com/avatar/1dac60119aff1ff0aa86b7f0b1bd9dc0.jpg?s=512&d=https%3A%2F%2Fa.slack-edge.com%2Fdf10d%2Fimg%2Favatars%2Fava_0017-512.png", "custom_css": null}, {"id": 21169, "slack_id": "U099SGP334M", "display_name": "Muhammad Khurram", "bio": null, "projects_count": 0, "devlogs_count": 0, "votes_count": 0, "ships_count": 0, "projects": [], "coding_time_seconds": 0, "coding_time_seconds_today": 0, "balance": "You need to have a pocket watcher badge to view this.", "badges": [], "created_at": "2025-08-11T02:51:05.829-04:00", "updated_at": "2025-08-12T05:49:26.783-04:00", "avatar": "https://avatars.slack-edge.com/2025-08-10/9359292198560_6e8a28fdf6f4e3725b98_original.png", "custom_css": null}, {"id": 21170, "slack_id": "U099WJ8C0RJ", "display_name": "Muhammad Qasim Naumna", "bio": null, "projects_count": 1, "devlogs_count": 0, "votes_count": 0, "ships_count": 0, "projects": [{"id": 10810, "title": "flexipay", "devlogs_count": 0, "created_at": "2025-08-11T03:26:28.279-04:00"}], "coding_time_seconds": 217684, "coding_time_seconds_today": 2079, "balance": "You need to have a pocket watcher badge to view this.", "badges": [], "created_at": "2025-08-11T03:01:24.959-04:00", "updated_at": "2025-08-11T03:54:32.003-04:00", "avatar": "https://secure.gravatar.com/avatar/1a4aa5683bb352e6ef14c34404a27432.jpg?s=512&d=https%3A%2F%2Fa.slack-edge.com%2Fdf10d%2Fimg%2Favatars%2Fava_0007-512.png", "custom_css": null}, {"id": 21171, "slack_id": "U099EHZJ431", "display_name": "Mohammed Shaiq", "bio": null, "projects_count": 0, "devlogs_count": 0, "votes_count": 0, "ships_count": 0, "projects": [], "coding_time_seconds": 28291, "coding_time_seconds_today": 0, "balance": "You need to have a pocket watcher badge to view this.", "badges": [], "created_at": "2025-08-11T03:11:57.281-04:00", "updated_at": "2025-08-11T10:47:28.104-04:00", "avatar": "https://secure.gravatar.com/avatar/31cdaceef4433039656f80175e0bcd78.jpg?s=512&d=https%3A%2F%2Fa.slack-edge.com%2Fdf10d%2Fimg%2Favatars%2Fava_0017-512.png", "custom_css": null}, {"id": 21172, "slack_id": "U09AKB75CJC", "display_name": "Ajay j s", "bio": null, "projects_count": 0, "devlogs_count": 0, "votes_count": 0, "ships_count": 0, "projects": [], "coding_time_seconds": 0, "coding_time_seconds_today": 0, "balance": "You need to have a pocket watcher badge to view this.", "badges": [], "created_at": "2025-08-11T03:17:24.974-04:00", "updated_at": "2025-08-11T03:54:32.211-04:00", "avatar": "https://secure.gravatar.com/avatar/3d79bbaf0969da43c5c9d122e43a3a1d.jpg?s=512&d=https%3A%2F%2Fa.slack-edge.com%2Fdf10d%2Fimg%2Favatars%2Fava_0023-512.png", "custom_css": null}, {"id": 21173, "slack_id": "U099M4AC9AP", "display_name": "Shaik ismail", "bio": null, "projects_count": 0, "devlogs_count": 0, "votes_count": 0, "ships_count": 0, "projects": [], "coding_time_seconds": 0, "coding_time_seconds_today": 0, "balance": "You need to have a pocket watcher badge to view this.", "badges": [], "created_at": "2025-08-11T03:18:05.489-04:00", "updated_at": "2025-08-11T03:54:32.315-04:00", "avatar": "https://secure.gravatar.com/avatar/b9aacb45f3a8882320d6a7383321d944.jpg?s=512&d=https%3A%2F%2Fa.slack-edge.com%2Fdf10d%2Fimg%2Favatars%2Fava_0024-512.png", "custom_css": null}, {"id": 21174, "slack_id": "U09A63L1D7B", "display_name": "Rani B R", "bio": null, "projects_count": 0, "devlogs_count": 0, "votes_count": 0, "ships_count": 0, "projects": [], "coding_time_seconds": 0, "coding_time_seconds_today": 0, "balance": "You need to have a pocket watcher badge to view this.", "badges": [], "created_at": "2025-08-11T03:23:24.713-04:00", "updated_at": "2025-08-11T03:54:32.428-04:00", "avatar": "https://secure.gravatar.com/avatar/1e15168f0f3c5088296c3c8cb8eca859.jpg?s=512&d=https%3A%2F%2Fa.slack-edge.com%2Fdf10d%2Fimg%2Favatars%2Fava_0026-512.png", "custom_css": null}, {"id": 21175, "slack_id": "U099EHF98UF", "display_name": "Akshaya", "bio": null, "projects_count": 0, "devlogs_count": 0, "votes_count": 0, "ships_count": 0, "projects": [], "coding_time_seconds": 0, "coding_time_seconds_today": 0, "balance": "You need to have a pocket watcher badge to view this.", "badges": [], "created_at": "2025-08-11T03:24:11.626-04:00", "updated_at": "2025-08-11T03:54:32.541-04:00", "avatar": "https://secure.gravatar.com/avatar/58b3a60cb66034054cdd387bc8eb77d0.jpg?s=512&d=https%3A%2F%2Fa.slack-edge.com%2Fdf10d%2Fimg%2Favatars%2Fava_0012-512.png", "custom_css": null}, {"id": 21176, "slack_id": "U099M3NK7NF", "display_name": "chandushree", "bio": null, "projects_count": 0, "devlogs_count": 0, "votes_count": 0, "ships_count": 0, "projects": [], "coding_time_seconds": 0, "coding_time_seconds_today": 0, "balance": "You need to have a pocket watcher badge to view this.", "badges": [], "created_at": "2025-08-11T03:25:42.703-04:00", "updated_at": "2025-08-11T07:58:22.750-04:00", "avatar": "https://secure.gravatar.com/avatar/f82606b35603e865e446a8be2fcb9e71.jpg?s=512&d=https%3A%2F%2Fa.slack-edge.com%2Fdf10d%2Fimg%2Favatars%2Fava_0012-512.png", "custom_css": null}, {"id": 21177, "slack_id": "U099EJ8BR5M", "display_name": "poojashree", "bio": null, "projects_count": 0, "devlogs_count": 0, "votes_count": 0, "ships_count": 0, "projects": [], "coding_time_seconds": 0, "coding_time_seconds_today": 0, "balance": "You need to have a pocket watcher badge to view this.", "badges": [], "created_at": "2025-08-11T03:26:20.871-04:00", "updated_at": "2025-08-11T03:54:32.829-04:00", "avatar": "https://secure.gravatar.com/avatar/20610ed667d47a6ed3a27edb4c04dbb4.jpg?s=512&d=https%3A%2F%2Fa.slack-edge.com%2Fdf10d%2Fimg%2Favatars%2Fava_0023-512.png", "custom_css": null}, {"id": 21178, "slack_id": "U099SBTLBCJ", "display_name": "Preethi kp", "bio": null, "projects_count": 0, "devlogs_count": 0, "votes_count": 0, "ships_count": 0, "projects": [], "coding_time_seconds": 0, "coding_time_seconds_today": 0, "balance": "You need to have a pocket watcher badge to view this.", "badges": [], "created_at": "2025-08-11T03:26:33.126-04:00", "updated_at": "2025-08-11T03:54:32.919-04:00", "avatar": "https://secure.gravatar.com/avatar/f73ed8c62545b31f3a25cd1977d299f6.jpg?s=512&d=https%3A%2F%2Fa.slack-edge.com%2Fdf10d%2Fimg%2Favatars%2Fava_0010-512.png", "custom_css": null}, {"id": 21179, "slack_id": "U09AKBE6NLQ", "display_name": "s", "bio": null, "projects_count": 0, "devlogs_count": 0, "votes_count": 0, "ships_count": 0, "projects": [], "coding_time_seconds": 0, "coding_time_seconds_today": 0, "balance": "You need to have a pocket watcher badge to view this.", "badges": [], "created_at": "2025-08-11T03:26:33.886-04:00", "updated_at": "2025-08-11T03:54:33.005-04:00", "avatar": "https://secure.gravatar.com/avatar/8b95644f94383d0aabb9ed47106ac33b.jpg?s=512&d=https%3A%2F%2Fa.slack-edge.com%2Fdf10d%2Fimg%2Favatars%2Fava_0012-512.png", "custom_css": null}, {"id": 21180, "slack_id": "U099SCF9BKL", "display_name": "Thanushree.H", "bio": null, "projects_count": 0, "devlogs_count": 0, "votes_count": 0, "ships_count": 0, "projects": [], "coding_time_seconds": 0, "coding_time_seconds_today": 0, "balance": "You need to have a pocket watcher badge to view this.", "badges": [], "created_at": "2025-08-11T03:28:41.980-04:00", "updated_at": "2025-08-11T03:54:33.107-04:00", "avatar": "https://secure.gravatar.com/avatar/cba7ebac101347d73fa7f660125fa749.jpg?s=512&d=https%3A%2F%2Fa.slack-edge.com%2Fdf10d%2Fimg%2Favatars%2Fava_0011-512.png", "custom_css": null}, {"id": 21181, "slack_id": "U09AKBQ3J6L", "display_name": "Maheen pasha", "bio": null, "projects_count": 0, "devlogs_count": 0, "votes_count": 0, "ships_count": 0, "projects": [], "coding_time_seconds": 0, "coding_time_seconds_today": 0, "balance": "You need to have a pocket watcher badge to view this.", "badges": [], "created_at": "2025-08-11T03:29:54.441-04:00", "updated_at": "2025-08-11T03:54:33.191-04:00", "avatar": "https://secure.gravatar.com/avatar/955798fe551f19693ba3e0f45b74d4db.jpg?s=512&d=https%3A%2F%2Fa.slack-edge.com%2Fdf10d%2Fimg%2Favatars%2Fava_0020-512.png", "custom_css": null}, {"id": 21182, "slack_id": "U09AKCF8J8Y", "display_name": "Ezekiel", "bio": null, "projects_count": 0, "devlogs_count": 0, "votes_count": 0, "ships_count": 0, "projects": [], "coding_time_seconds": 0, "coding_time_seconds_today": 0, "balance": "You need to have a pocket watcher badge to view this.", "badges": [], "created_at": "2025-08-11T03:31:00.938-04:00", "updated_at": "2025-08-11T03:54:33.279-04:00", "avatar": "https://secure.gravatar.com/avatar/22f6a91788b17317c7d40c136c49c7b8.jpg?s=512&d=https%3A%2F%2Fa.slack-edge.com%2Fdf10d%2Fimg%2Favatars%2Fava_0000-512.png", "custom_css": null}, {"id": 21183, "slack_id": "U09A67MBZB3", "display_name": "Aarush bindod", "bio": null, "projects_count": 0, "devlogs_count": 0, "votes_count": 1, "ships_count": 0, "projects": [], "coding_time_seconds": 68269, "coding_time_seconds_today": 0, "balance": "You need to have a pocket watcher badge to view this.", "badges": [], "created_at": "2025-08-11T03:52:52.749-04:00", "updated_at": "2025-08-11T21:51:30.607-04:00", "avatar": "https://avatars.slack-edge.com/2025-08-11/9359547468960_5d02c2bf48b6fa48097c_original.jpg", "custom_css": null}, {"id": 21184, "slack_id": "U09A5VCM7S5", "display_name": "harshitha.k", "bio": null, "projects_count": 0, "devlogs_count": 0, "votes_count": 0, "ships_count": 0, "projects": [], "coding_time_seconds": 0, "coding_time_seconds_today": 0, "balance": "You need to have a pocket watcher badge to view this.", "badges": [], "created_at": "2025-08-11T04:00:58.285-04:00", "updated_at": "2025-08-18T10:51:45.905-04:00", "avatar": "https://secure.gravatar.com/avatar/ed50c3eb660f829236ebf5ba13a63b4f.jpg?s=512&d=https%3A%2F%2Fa.slack-edge.com%2Fdf10d%2Fimg%2Favatars%2Fava_0017-512.png", "custom_css": null}, {"id": 21185, "slack_id": "U09A69Q80E5", "display_name": "Khaleeq Shah", "bio": null, "projects_count": 0, "devlogs_count": 0, "votes_count": 0, "ships_count": 0, "projects": [], "coding_time_seconds": 0, "coding_time_seconds_today": 0, "balance": "You need to have a pocket watcher badge to view this.", "badges": [], "created_at": "2025-08-11T04:09:45.841-04:00", "updated_at": "2025-08-11T21:51:30.785-04:00", "avatar": "https://secure.gravatar.com/avatar/45f732420d0defafc9d15124c80275ce.jpg?s=512&d=https%3A%2F%2Fa.slack-edge.com%2Fdf10d%2Fimg%2Favatars%2Fava_0024-512.png", "custom_css": null}], "pagination": {"page": 1055, "pages": 1192, "count": 23828, "items": 20}}