{"users": [{"id": 21206, "slack_id": "U099R5KTYH3", "display_name": "Anjani Chakka", "bio": null, "projects_count": 0, "devlogs_count": 0, "votes_count": 0, "ships_count": 0, "projects": [], "coding_time_seconds": 0, "coding_time_seconds_today": 0, "balance": "You need to have a pocket watcher badge to view this.", "badges": [], "created_at": "2025-08-11T08:52:45.785-04:00", "updated_at": "2025-08-11T21:51:32.932-04:00", "avatar": "https://secure.gravatar.com/avatar/f53ca9b6174677da18ce16a83b7f350b.jpg?s=512&d=https%3A%2F%2Fa.slack-edge.com%2Fdf10d%2Fimg%2Favatars%2Fava_0019-512.png", "custom_css": null}, {"id": 21207, "slack_id": "U08S08W8VFB", "display_name": "Eitan", "bio": null, "projects_count": 1, "devlogs_count": 0, "votes_count": 0, "ships_count": 0, "projects": [{"id": 10845, "title": "nBeast", "devlogs_count": 0, "created_at": "2025-08-11T09:33:19.696-04:00"}], "coding_time_seconds": 651827, "coding_time_seconds_today": 0, "balance": "You need to have a pocket watcher badge to view this.", "badges": [], "created_at": "2025-08-11T08:54:21.072-04:00", "updated_at": "2025-08-11T21:51:33.037-04:00", "avatar": "https://secure.gravatar.com/avatar/88018a52690b926d555ad5489ca26361.jpg?s=512&d=https%3A%2F%2Fa.slack-edge.com%2Fdf10d%2Fimg%2Favatars%2Fava_0012-512.png", "custom_css": null}, {"id": 21208, "slack_id": "U099Y1ZKN4C", "display_name": "Nour 404", "bio": null, "projects_count": 0, "devlogs_count": 0, "votes_count": 0, "ships_count": 0, "projects": [], "coding_time_seconds": 69728, "coding_time_seconds_today": 0, "balance": "You need to have a pocket watcher badge to view this.", "badges": [], "created_at": "2025-08-11T08:59:16.465-04:00", "updated_at": "2025-08-11T21:51:33.116-04:00", "avatar": "https://avatars.slack-edge.com/2025-08-11/9347504445329_4808f84bbfabf00dec51_original.jpg", "custom_css": null}, {"id": 21209, "slack_id": "U098V2AQHJ8", "display_name": "Daniel Ja\u0161\u0161o", "bio": null, "projects_count": 0, "devlogs_count": 0, "votes_count": 0, "ships_count": 0, "projects": [], "coding_time_seconds": 0, "coding_time_seconds_today": 0, "balance": "You need to have a pocket watcher badge to view this.", "badges": [], "created_at": "2025-08-11T09:04:27.709-04:00", "updated_at": "2025-08-11T21:51:33.202-04:00", "avatar": "https://secure.gravatar.com/avatar/1dcc70a8f0c177cb2d77ae27f72a3d11.jpg?s=512&d=https%3A%2F%2Fa.slack-edge.com%2Fdf10d%2Fimg%2Favatars%2Fava_0022-512.png", "custom_css": null}, {"id": 21210, "slack_id": "U099Y3YBKFW", "display_name": "Manvith Kumar", "bio": null, "projects_count": 0, "devlogs_count": 0, "votes_count": 0, "ships_count": 0, "projects": [], "coding_time_seconds": 0, "coding_time_seconds_today": 0, "balance": "You need to have a pocket watcher badge to view this.", "badges": [], "created_at": "2025-08-11T09:08:49.941-04:00", "updated_at": "2025-08-11T21:51:33.291-04:00", "avatar": "https://avatars.slack-edge.com/2025-08-11/9347568574385_a8074ca796093e97814a_original.jpg", "custom_css": null}, {"id": 21211, "slack_id": "U099V7RV9PG", "display_name": "sanjay bhandari", "bio": null, "projects_count": 1, "devlogs_count": 0, "votes_count": 10, "ships_count": 0, "projects": [{"id": 12664, "title": "Json editor", "devlogs_count": 0, "created_at": "2025-08-31T10:11:18.682-04:00"}], "coding_time_seconds": 11774, "coding_time_seconds_today": 0, "balance": "You need to have a pocket watcher badge to view this.", "badges": [], "created_at": "2025-08-11T09:10:16.014-04:00", "updated_at": "2025-08-31T10:06:57.056-04:00", "avatar": "https://secure.gravatar.com/avatar/499c261b275d928b36ac7a1ab8c62ad9.jpg?s=512&d=https%3A%2F%2Fa.slack-edge.com%2Fdf10d%2Fimg%2Favatars%2Fava_0011-512.png", "custom_css": null}, {"id": 21212, "slack_id": "U09A7HEVDCZ", "display_name": "ariunbold bold", "bio": "bruv luv u", "projects_count": 0, "devlogs_count": 0, "votes_count": 0, "ships_count": 0, "projects": [], "coding_time_seconds": 39323, "coding_time_seconds_today": 0, "balance": "You need to have a pocket watcher badge to view this.", "badges": [], "created_at": "2025-08-11T09:18:32.814-04:00", "updated_at": "2025-08-11T21:51:37.711-04:00", "avatar": "https://avatars.slack-edge.com/2025-08-11/9338204667796_f36d74b663ae8ee5511e_original.jpg", "custom_css": null}, {"id": 21213, "slack_id": "U08RQ1UCEJE", "display_name": "simon", "bio": null, "projects_count": 0, "devlogs_count": 0, "votes_count": 0, "ships_count": 0, "projects": [], "coding_time_seconds": 331827, "coding_time_seconds_today": 0, "balance": "You need to have a pocket watcher badge to view this.", "badges": [], "created_at": "2025-08-11T09:18:50.065-04:00", "updated_at": "2025-08-11T21:51:37.817-04:00", "avatar": "https://secure.gravatar.com/avatar/c3fb475df912fd0662b5d4f1fbfcc7a1.jpg?s=512&d=https%3A%2F%2Fa.slack-edge.com%2Fdf10d%2Fimg%2Favatars%2Fava_0022-512.png", "custom_css": null}, {"id": 21214, "slack_id": "U099VC90D3Q", "display_name": "Saranya Kavindi", "bio": null, "projects_count": 0, "devlogs_count": 0, "votes_count": 0, "ships_count": 0, "projects": [], "coding_time_seconds": 0, "coding_time_seconds_today": 0, "balance": "You need to have a pocket watcher badge to view this.", "badges": [], "created_at": "2025-08-11T09:33:31.668-04:00", "updated_at": "2025-08-11T21:51:37.930-04:00", "avatar": "https://secure.gravatar.com/avatar/bcdaee11a4e25ce771129019c45b8bf9.jpg?s=512&d=https%3A%2F%2Fa.slack-edge.com%2Fdf10d%2Fimg%2Favatars%2Fava_0004-512.png", "custom_css": null}, {"id": 21215, "slack_id": "U07UBCSSQH3", "display_name": "Leafd", "bio": null, "projects_count": 0, "devlogs_count": 0, "votes_count": 0, "ships_count": 0, "projects": [], "coding_time_seconds": 8646, "coding_time_seconds_today": 0, "balance": "You need to have a pocket watcher badge to view this.", "badges": [], "created_at": "2025-08-11T09:38:53.088-04:00", "updated_at": "2025-09-18T01:52:38.460-04:00", "avatar": "https://secure.gravatar.com/avatar/538ddec73cb7544ceb346eea9854625f.jpg?s=512&d=https%3A%2F%2Fa.slack-edge.com%2Fdf10d%2Fimg%2Favatars%2Fava_0004-512.png", "custom_css": null}, {"id": 21216, "slack_id": "U099YAEC4BE", "display_name": "Elizabeth", "bio": null, "projects_count": 0, "devlogs_count": 0, "votes_count": 0, "ships_count": 0, "projects": [], "coding_time_seconds": 0, "coding_time_seconds_today": 0, "balance": "You need to have a pocket watcher badge to view this.", "badges": [], "created_at": "2025-08-11T09:47:05.054-04:00", "updated_at": "2025-08-13T13:56:51.660-04:00", "avatar": "https://secure.gravatar.com/avatar/b17514b6aed6ea8ac95ee148357aa205.jpg?s=512&d=https%3A%2F%2Fa.slack-edge.com%2Fdf10d%2Fimg%2Favatars%2Fava_0017-512.png", "custom_css": null}, {"id": 21217, "slack_id": "U099U83AK5G", "display_name": "Tang Chee Keong", "bio": null, "projects_count": 0, "devlogs_count": 0, "votes_count": 0, "ships_count": 0, "projects": [], "coding_time_seconds": 0, "coding_time_seconds_today": 0, "balance": "You need to have a pocket watcher badge to view this.", "badges": [], "created_at": "2025-08-11T09:57:41.509-04:00", "updated_at": "2025-08-11T21:51:38.191-04:00", "avatar": "https://avatars.slack-edge.com/2025-08-11/9334341118322_9c117eded396ad4032e1_original.jpg", "custom_css": null}, {"id": 21218, "slack_id": "U099U9SD8LS", "display_name": "Mostafa_3raby", "bio": null, "projects_count": 0, "devlogs_count": 0, "votes_count": 0, "ships_count": 0, "projects": [], "coding_time_seconds": 0, "coding_time_seconds_today": 0, "balance": "You need to have a pocket watcher badge to view this.", "badges": [], "created_at": "2025-08-11T10:04:01.040-04:00", "updated_at": "2025-08-11T21:51:38.286-04:00", "avatar": "https://secure.gravatar.com/avatar/6a64b386ca7c34685019b29fae9d80cc.jpg?s=512&d=https%3A%2F%2Fa.slack-edge.com%2Fdf10d%2Fimg%2Favatars%2Fava_0022-512.png", "custom_css": null}, {"id": 21219, "slack_id": "U099NT3EJTV", "display_name": "Harshit Gautam", "bio": null, "projects_count": 0, "devlogs_count": 0, "votes_count": 0, "ships_count": 0, "projects": [], "coding_time_seconds": 360, "coding_time_seconds_today": 0, "balance": "You need to have a pocket watcher badge to view this.", "badges": [], "created_at": "2025-08-11T10:05:28.871-04:00", "updated_at": "2025-08-11T21:51:38.388-04:00", "avatar": "https://secure.gravatar.com/avatar/894a8252c3210da1a9bf86eac0528cba.jpg?s=512&d=https%3A%2F%2Fa.slack-edge.com%2Fdf10d%2Fimg%2Favatars%2Fava_0010-512.png", "custom_css": null}, {"id": 21220, "slack_id": "U09AM9RCH40", "display_name": "Momen Ali", "bio": null, "projects_count": 0, "devlogs_count": 0, "votes_count": 0, "ships_count": 0, "projects": [], "coding_time_seconds": 0, "coding_time_seconds_today": 0, "balance": "You need to have a pocket watcher badge to view this.", "badges": [], "created_at": "2025-08-11T10:10:40.465-04:00", "updated_at": "2025-08-11T21:51:38.530-04:00", "avatar": "https://secure.gravatar.com/avatar/2fb51eb22a5966e2b2fb87373356d6b9.jpg?s=512&d=https%3A%2F%2Fa.slack-edge.com%2Fdf10d%2Fimg%2Favatars%2Fava_0021-512.png", "custom_css": null}, {"id": 21221, "slack_id": "U099UD6AB2N", "display_name": "GameCreator5544", "bio": null, "projects_count": 0, "devlogs_count": 0, "votes_count": 0, "ships_count": 0, "projects": [], "coding_time_seconds": 5953, "coding_time_seconds_today": 0, "balance": "You need to have a pocket watcher badge to view this.", "badges": [], "created_at": "2025-08-11T10:20:53.906-04:00", "updated_at": "2025-08-11T21:51:38.616-04:00", "avatar": "https://secure.gravatar.com/avatar/3fc9e6631ca2a1ded20ea199e5d3b8e7.jpg?s=512&d=https%3A%2F%2Fa.slack-edge.com%2Fdf10d%2Fimg%2Favatars%2Fava_0009-512.png", "custom_css": null}, {"id": 21222, "slack_id": "U099EK9JWP9", "display_name": "King Nasir", "bio": null, "projects_count": 0, "devlogs_count": 0, "votes_count": 0, "ships_count": 0, "projects": [], "coding_time_seconds": 0, "coding_time_seconds_today": 0, "balance": "You need to have a pocket watcher badge to view this.", "badges": [], "created_at": "2025-08-11T10:38:08.704-04:00", "updated_at": "2025-08-11T21:51:38.760-04:00", "avatar": "https://secure.gravatar.com/avatar/11ba124ecfe8d49fb8d93ed7c5f80a8e.jpg?s=512&d=https%3A%2F%2Fa.slack-edge.com%2Fdf10d%2Fimg%2Favatars%2Fava_0002-512.png", "custom_css": null}, {"id": 21223, "slack_id": "U099GQL92R5", "display_name": "Parker Kac", "bio": null, "projects_count": 2, "devlogs_count": 6, "votes_count": 17, "ships_count": 1, "projects": [{"id": 10860, "title": "DM Atlas", "devlogs_count": 4, "created_at": "2025-08-11T11:19:12.719-04:00"}, {"id": 10917, "title": "PDAV3", "devlogs_count": 2, "created_at": "2025-08-11T19:09:04.387-04:00"}], "coding_time_seconds": 59977, "coding_time_seconds_today": 0, "balance": "You need to have a pocket watcher badge to view this.", "badges": [], "created_at": "2025-08-11T10:54:10.371-04:00", "updated_at": "2025-08-11T21:51:38.862-04:00", "avatar": "https://avatars.slack-edge.com/2025-08-11/9334683414706_a348e48d890faf6c15d1_original.png", "custom_css": null}, {"id": 21224, "slack_id": "U04J5CM3T46", "display_name": "Aaron D'Souza", "bio": null, "projects_count": 2, "devlogs_count": 13, "votes_count": 17, "ships_count": 1, "projects": [{"id": 12789, "title": "Pterodactle", "devlogs_count": 1, "created_at": "2025-09-02T13:10:18.635-04:00"}, {"id": 10879, "title": "Boss Battle Blitz", "devlogs_count": 12, "created_at": "2025-08-11T13:40:00.090-04:00"}], "coding_time_seconds": 64340, "coding_time_seconds_today": 0, "balance": "You need to have a pocket watcher badge to view this.", "badges": [], "created_at": "2025-08-11T11:06:06.790-04:00", "updated_at": "2025-08-13T13:49:09.519-04:00", "avatar": "https://secure.gravatar.com/avatar/bd61f30a8b87e5e5536f366b5cd25781.jpg?s=512&d=https%3A%2F%2Fa.slack-edge.com%2Fdf10d%2Fimg%2Favatars%2Fava_0001-512.png", "custom_css": null}, {"id": 21225, "slack_id": "U04JC0N6ZC2", "display_name": "Brenden D'Souza", "bio": null, "projects_count": 1, "devlogs_count": 12, "votes_count": 16, "ships_count": 1, "projects": [{"id": 10877, "title": "Arena of Doom", "devlogs_count": 12, "created_at": "2025-08-11T13:38:01.996-04:00"}], "coding_time_seconds": 56791, "coding_time_seconds_today": 0, "balance": "You need to have a pocket watcher badge to view this.", "badges": [], "created_at": "2025-08-11T11:06:06.985-04:00", "updated_at": "2025-08-11T12:35:44.342-04:00", "avatar": "https://avatars.slack-edge.com/2023-01-23/4680526989526_808ea67f5f3df0b16da1_original.png", "custom_css": null}], "pagination": {"page": 1057, "pages": 1192, "count": 23828, "items": 20}}