{"users": [{"id": 21246, "slack_id": "U099Q0725D1", "display_name": "Leo", "bio": null, "projects_count": 3, "devlogs_count": 8, "votes_count": 25, "ships_count": 1, "projects": [{"id": 13097, "title": "personal website", "devlogs_count": 1, "created_at": "2025-09-08T13:39:20.679-04:00"}, {"id": 11249, "title": "maskellion", "devlogs_count": 3, "created_at": "2025-08-14T09:33:48.465-04:00"}, {"id": 12613, "title": "database practice", "devlogs_count": 1, "created_at": "2025-08-30T13:05:45.192-04:00"}], "coding_time_seconds": 66048, "coding_time_seconds_today": 0, "balance": "You need to have a pocket watcher badge to view this.", "badges": [], "created_at": "2025-08-11T13:03:35.047-04:00", "updated_at": "2025-09-11T07:44:41.917-04:00", "avatar": "https://avatars.slack-edge.com/2025-08-11/9349159571585_2ffac9f9763dc271990a_original.png", "custom_css": null}, {"id": 21247, "slack_id": "U099Q0CJ935", "display_name": "Yucan You", "bio": null, "projects_count": 1, "devlogs_count": 0, "votes_count": 1, "ships_count": 0, "projects": [{"id": 10880, "title": "Website about Airbus planes", "devlogs_count": 0, "created_at": "2025-08-11T13:45:48.867-04:00"}], "coding_time_seconds": 3908, "coding_time_seconds_today": 0, "balance": "You need to have a pocket watcher badge to view this.", "badges": [], "created_at": "2025-08-11T13:04:30.368-04:00", "updated_at": "2025-08-12T01:41:12.309-04:00", "avatar": "https://secure.gravatar.com/avatar/a52baed5b1415d1309e3b83a28358a34.jpg?s=512&d=https%3A%2F%2Fa.slack-edge.com%2Fdf10d%2Fimg%2Favatars%2Fava_0026-512.png", "custom_css": null}, {"id": 21248, "slack_id": "U099PT67FM1", "display_name": "Max", "bio": null, "projects_count": 0, "devlogs_count": 0, "votes_count": 0, "ships_count": 0, "projects": [], "coding_time_seconds": 0, "coding_time_seconds_today": 0, "balance": "You need to have a pocket watcher badge to view this.", "badges": [], "created_at": "2025-08-11T13:05:50.477-04:00", "updated_at": "2025-08-11T21:51:49.485-04:00", "avatar": "https://secure.gravatar.com/avatar/03cd7547ee71e52a1a4495c7762cdc61.jpg?s=512&d=https%3A%2F%2Fa.slack-edge.com%2Fdf10d%2Fimg%2Favatars%2Fava_0023-512.png", "custom_css": null}, {"id": 21249, "slack_id": "U099VGSRXNW", "display_name": "Fabian Perkasa", "bio": null, "projects_count": 0, "devlogs_count": 0, "votes_count": 0, "ships_count": 0, "projects": [], "coding_time_seconds": 253138, "coding_time_seconds_today": 0, "balance": "You need to have a pocket watcher badge to view this.", "badges": [], "created_at": "2025-08-11T13:11:13.921-04:00", "updated_at": "2025-08-11T21:51:49.566-04:00", "avatar": "https://avatars.slack-edge.com/2025-08-11/9323731456071_4dde1f8229035c39cc36_original.png", "custom_css": null}, {"id": 21250, "slack_id": "U099HLKH93R", "display_name": "Ethan F", "bio": null, "projects_count": 0, "devlogs_count": 0, "votes_count": 0, "ships_count": 0, "projects": [], "coding_time_seconds": 0, "coding_time_seconds_today": 0, "balance": "You need to have a pocket watcher badge to view this.", "badges": [], "created_at": "2025-08-11T13:12:00.248-04:00", "updated_at": "2025-08-11T21:51:49.646-04:00", "avatar": "https://secure.gravatar.com/avatar/cf281e0dfd492a1b2246a73b068ce13c.jpg?s=512&d=https%3A%2F%2Fa.slack-edge.com%2Fdf10d%2Fimg%2Favatars%2Fava_0012-512.png", "custom_css": null}, {"id": 21251, "slack_id": "U09A8UBBCMP", "display_name": "Avie", "bio": null, "projects_count": 1, "devlogs_count": 0, "votes_count": 0, "ships_count": 0, "projects": [{"id": 10891, "title": "Compression Algorithm", "devlogs_count": 0, "created_at": "2025-08-11T15:41:09.701-04:00"}], "coding_time_seconds": 252024, "coding_time_seconds_today": 0, "balance": "You need to have a pocket watcher badge to view this.", "badges": [], "created_at": "2025-08-11T13:13:31.004-04:00", "updated_at": "2025-08-11T21:51:49.736-04:00", "avatar": "https://secure.gravatar.com/avatar/8a8ed8941aa8324d4180f49808dfef6b.jpg?s=512&d=https%3A%2F%2Fa.slack-edge.com%2Fdf10d%2Fimg%2Favatars%2Fava_0016-512.png", "custom_css": null}, {"id": 21252, "slack_id": "U099WS5V8HL", "display_name": "InfinityByte", "bio": null, "projects_count": 0, "devlogs_count": 0, "votes_count": 0, "ships_count": 0, "projects": [], "coding_time_seconds": 0, "coding_time_seconds_today": 0, "balance": "You need to have a pocket watcher badge to view this.", "badges": [], "created_at": "2025-08-11T13:14:20.573-04:00", "updated_at": "2025-08-11T21:51:49.819-04:00", "avatar": "https://secure.gravatar.com/avatar/b23f47af742aa684f43daba0ca339c2e.jpg?s=512&d=https%3A%2F%2Fa.slack-edge.com%2Fdf10d%2Fimg%2Favatars%2Fava_0026-512.png", "custom_css": null}, {"id": 21253, "slack_id": "U099VHM885Q", "display_name": "Burst", "bio": null, "projects_count": 0, "devlogs_count": 0, "votes_count": 0, "ships_count": 0, "projects": [], "coding_time_seconds": 0, "coding_time_seconds_today": 0, "balance": "You need to have a pocket watcher badge to view this.", "badges": [], "created_at": "2025-08-11T13:16:17.623-04:00", "updated_at": "2025-08-12T11:30:09.783-04:00", "avatar": "https://secure.gravatar.com/avatar/f5a64ac071580ae819b6e5c2f98fc1d9.jpg?s=512&d=https%3A%2F%2Fa.slack-edge.com%2Fdf10d%2Fimg%2Favatars%2Fava_0015-512.png", "custom_css": null}, {"id": 21254, "slack_id": "U09A8UUNVQ9", "display_name": "Maciej", "bio": null, "projects_count": 0, "devlogs_count": 0, "votes_count": 0, "ships_count": 0, "projects": [], "coding_time_seconds": 0, "coding_time_seconds_today": 0, "balance": "You need to have a pocket watcher badge to view this.", "badges": [], "created_at": "2025-08-11T13:38:46.992-04:00", "updated_at": "2025-08-11T21:51:50.003-04:00", "avatar": "https://secure.gravatar.com/avatar/d9912635552a8653fb5970730dc24e0e.jpg?s=512&d=https%3A%2F%2Fa.slack-edge.com%2Fdf10d%2Fimg%2Favatars%2Fava_0009-512.png", "custom_css": null}, {"id": 21255, "slack_id": "U099Q5RNMLK", "display_name": "Trivaris", "bio": null, "projects_count": 0, "devlogs_count": 0, "votes_count": 0, "ships_count": 0, "projects": [], "coding_time_seconds": 0, "coding_time_seconds_today": 0, "balance": "You need to have a pocket watcher badge to view this.", "badges": [], "created_at": "2025-08-11T13:38:57.110-04:00", "updated_at": "2025-08-11T21:51:50.106-04:00", "avatar": "https://secure.gravatar.com/avatar/79bfd7e642ffc3e2f7dec847c3f78f83.jpg?s=512&d=https%3A%2F%2Fa.slack-edge.com%2Fdf10d%2Fimg%2Favatars%2Fava_0010-512.png", "custom_css": null}, {"id": 21256, "slack_id": "U099ZNP74EQ", "display_name": "Dhyan", "bio": null, "projects_count": 0, "devlogs_count": 0, "votes_count": 0, "ships_count": 0, "projects": [], "coding_time_seconds": 0, "coding_time_seconds_today": 0, "balance": "You need to have a pocket watcher badge to view this.", "badges": [], "created_at": "2025-08-11T13:40:23.675-04:00", "updated_at": "2025-08-11T21:51:50.201-04:00", "avatar": "https://avatars.slack-edge.com/2025-08-11/9330258092307_78c95d38c89bb4429db6_original.jpg", "custom_css": null}, {"id": 21257, "slack_id": "U099ZFLLQJY", "display_name": "Jolin Cheng", "bio": null, "projects_count": 0, "devlogs_count": 0, "votes_count": 0, "ships_count": 0, "projects": [], "coding_time_seconds": 0, "coding_time_seconds_today": 0, "balance": "You need to have a pocket watcher badge to view this.", "badges": [], "created_at": "2025-08-11T13:46:04.285-04:00", "updated_at": "2025-08-11T21:51:50.288-04:00", "avatar": "https://secure.gravatar.com/avatar/f1ba29a1c2b36ae7ab79fc446e842d82.jpg?s=512&d=https%3A%2F%2Fa.slack-edge.com%2Fdf10d%2Fimg%2Favatars%2Fava_0025-512.png", "custom_css": null}, {"id": 21258, "slack_id": "U08TTRY491N", "display_name": "whippingdot", "bio": "", "projects_count": 0, "devlogs_count": 0, "votes_count": 0, "ships_count": 0, "projects": [], "coding_time_seconds": 5028, "coding_time_seconds_today": 0, "balance": "You need to have a pocket watcher badge to view this.", "badges": [], "created_at": "2025-08-11T13:47:29.320-04:00", "updated_at": "2025-08-11T14:03:47.371-04:00", "avatar": "https://avatars.slack-edge.com/2025-05-20/8924547960050_25f8862ef95c36c94ec2_original.png", "custom_css": null}, {"id": 21259, "slack_id": "U099X33Q4MU", "display_name": "Kyle Padilla", "bio": null, "projects_count": 0, "devlogs_count": 0, "votes_count": 0, "ships_count": 0, "projects": [], "coding_time_seconds": 0, "coding_time_seconds_today": 0, "balance": "You need to have a pocket watcher badge to view this.", "badges": [], "created_at": "2025-08-11T13:53:46.634-04:00", "updated_at": "2025-08-11T21:51:50.451-04:00", "avatar": "https://avatars.slack-edge.com/2025-08-11/9323976024519_852f91360ed9a4f5b36a_original.png", "custom_css": null}, {"id": 21260, "slack_id": "U099X404CLE", "display_name": "Makai", "bio": null, "projects_count": 0, "devlogs_count": 0, "votes_count": 0, "ships_count": 0, "projects": [], "coding_time_seconds": 0, "coding_time_seconds_today": 0, "balance": "You need to have a pocket watcher badge to view this.", "badges": [], "created_at": "2025-08-11T13:57:12.681-04:00", "updated_at": "2025-08-19T21:53:49.776-04:00", "avatar": "https://avatars.slack-edge.com/2025-08-19/9389633464417_666647149e00f2bda63a_original.png", "custom_css": null}, {"id": 21261, "slack_id": "U099VR6V5K4", "display_name": "ArtificialXDev", "bio": null, "projects_count": 1, "devlogs_count": 1, "votes_count": 0, "ships_count": 1, "projects": [{"id": 10885, "title": "BlazeVortex", "devlogs_count": 1, "created_at": "2025-08-11T15:03:44.903-04:00"}], "coding_time_seconds": 19220, "coding_time_seconds_today": 0, "balance": "You need to have a pocket watcher badge to view this.", "badges": [], "created_at": "2025-08-11T14:01:48.887-04:00", "updated_at": "2025-09-20T08:49:34.190-04:00", "avatar": "https://avatars.slack-edge.com/2025-08-14/9346386216387_0fe09201d7963d39799f_original.png", "custom_css": null}, {"id": 21262, "slack_id": "U09989JDZBR", "display_name": "Hanxiao Xu", "bio": null, "projects_count": 0, "devlogs_count": 0, "votes_count": 0, "ships_count": 0, "projects": [], "coding_time_seconds": 0, "coding_time_seconds_today": 0, "balance": "You need to have a pocket watcher badge to view this.", "badges": [], "created_at": "2025-08-11T14:12:02.584-04:00", "updated_at": "2025-08-11T21:51:54.747-04:00", "avatar": "https://secure.gravatar.com/avatar/ae5d9e582872ca5f742cdc80b79240d8.jpg?s=512&d=https%3A%2F%2Fa.slack-edge.com%2Fdf10d%2Fimg%2Favatars%2Fava_0010-512.png", "custom_css": null}, {"id": 21263, "slack_id": "U09A99MAJLR", "display_name": "Andraaal", "bio": null, "projects_count": 0, "devlogs_count": 0, "votes_count": 0, "ships_count": 0, "projects": [], "coding_time_seconds": 63526, "coding_time_seconds_today": 0, "balance": "You need to have a pocket watcher badge to view this.", "badges": [], "created_at": "2025-08-11T14:19:28.531-04:00", "updated_at": "2025-08-11T21:51:54.845-04:00", "avatar": "https://secure.gravatar.com/avatar/c72cb3b1f6f3c02b498d59900af84212.jpg?s=512&d=https%3A%2F%2Fa.slack-edge.com%2Fdf10d%2Fimg%2Favatars%2Fava_0010-512.png", "custom_css": null}, {"id": 21264, "slack_id": "U09ANRZLU00", "display_name": "johni12", "bio": null, "projects_count": 0, "devlogs_count": 0, "votes_count": 0, "ships_count": 0, "projects": [], "coding_time_seconds": 36017, "coding_time_seconds_today": 0, "balance": "You need to have a pocket watcher badge to view this.", "badges": [], "created_at": "2025-08-11T14:33:55.289-04:00", "updated_at": "2025-08-11T21:51:54.935-04:00", "avatar": "https://secure.gravatar.com/avatar/3657058ebca6a1d926c7e4f908198d38.jpg?s=512&d=https%3A%2F%2Fa.slack-edge.com%2Fdf10d%2Fimg%2Favatars%2Fava_0006-512.png", "custom_css": null}, {"id": 21265, "slack_id": "U0907EQQQM8", "display_name": "HutHutHyaaaa", "bio": null, "projects_count": 0, "devlogs_count": 0, "votes_count": 0, "ships_count": 0, "projects": [], "coding_time_seconds": 3838, "coding_time_seconds_today": 0, "balance": "You need to have a pocket watcher badge to view this.", "badges": [], "created_at": "2025-08-11T14:39:17.397-04:00", "updated_at": "2025-08-31T16:26:39.355-04:00", "avatar": "https://avatars.slack-edge.com/2025-07-05/9139844570663_77867bb20217c3946539_original.png", "custom_css": null}], "pagination": {"page": 1059, "pages": 1192, "count": 23828, "items": 20}}