{"users": [{"id": 2101, "slack_id": "U092CEWNB5W", "display_name": "Elias de Jesus Zu\u00f1iga de Leon", "bio": null, "projects_count": 0, "devlogs_count": 0, "votes_count": 0, "ships_count": 0, "projects": [], "coding_time_seconds": 0, "coding_time_seconds_today": 0, "balance": "You need to have a pocket watcher badge to view this.", "badges": [], "created_at": "2025-06-16T14:44:12.919-04:00", "updated_at": "2025-07-03T19:20:43.693-04:00", "avatar": "https://secure.gravatar.com/avatar/060028452744ac31397a38745d303397.jpg?s=512&d=https%3A%2F%2Fa.slack-edge.com%2Fdf10d%2Fimg%2Favatars%2Fava_0014-512.png", "custom_css": null}, {"id": 2102, "slack_id": "U091H6E9SCE", "display_name": "bardin", "bio": null, "projects_count": 0, "devlogs_count": 0, "votes_count": 0, "ships_count": 0, "projects": [], "coding_time_seconds": 161613, "coding_time_seconds_today": 0, "balance": "You need to have a pocket watcher badge to view this.", "badges": [], "created_at": "2025-06-16T14:44:22.900-04:00", "updated_at": "2025-07-03T19:20:43.993-04:00", "avatar": "https://secure.gravatar.com/avatar/9f373cc24be5067202c00767708e0b17.jpg?s=512&d=https%3A%2F%2Fa.slack-edge.com%2Fdf10d%2Fimg%2Favatars%2Fava_0025-512.png", "custom_css": null}, {"id": 2103, "slack_id": "U091GQDQ075", "display_name": "Neixen911", "bio": null, "projects_count": 0, "devlogs_count": 0, "votes_count": 0, "ships_count": 0, "projects": [], "coding_time_seconds": 0, "coding_time_seconds_today": 0, "balance": "You need to have a pocket watcher badge to view this.", "badges": [], "created_at": "2025-06-16T14:44:27.428-04:00", "updated_at": "2025-07-03T19:20:44.274-04:00", "avatar": "https://secure.gravatar.com/avatar/1adca654035317a3b4b4117f337e3045.jpg?s=512&d=https%3A%2F%2Fa.slack-edge.com%2Fdf10d%2Fimg%2Favatars%2Fava_0006-512.png", "custom_css": null}, {"id": 2104, "slack_id": "U091N8G4G8M", "display_name": "vitor", "bio": null, "projects_count": 0, "devlogs_count": 0, "votes_count": 0, "ships_count": 0, "projects": [], "coding_time_seconds": 0, "coding_time_seconds_today": 0, "balance": "You need to have a pocket watcher badge to view this.", "badges": [], "created_at": "2025-06-16T14:44:51.717-04:00", "updated_at": "2025-07-03T19:20:44.543-04:00", "avatar": "https://secure.gravatar.com/avatar/3e03a4cd0fa5f2b5eb66e9252cd87b8a.jpg?s=512&d=https%3A%2F%2Fa.slack-edge.com%2Fdf10d%2Fimg%2Favatars%2Fava_0013-512.png", "custom_css": null}, {"id": 2105, "slack_id": "U092CDUL08G", "display_name": "Victor Rodriguez Cruz", "bio": null, "projects_count": 0, "devlogs_count": 0, "votes_count": 0, "ships_count": 0, "projects": [], "coding_time_seconds": 25106, "coding_time_seconds_today": 0, "balance": "You need to have a pocket watcher badge to view this.", "badges": [], "created_at": "2025-06-16T14:44:58.322-04:00", "updated_at": "2025-07-03T19:20:44.816-04:00", "avatar": "https://avatars.slack-edge.com/2025-06-16/9051241256966_26000c97afc28268921f_original.jpg", "custom_css": null}, {"id": 2106, "slack_id": "U09229M4DMF", "display_name": "fran f", "bio": null, "projects_count": 0, "devlogs_count": 0, "votes_count": 0, "ships_count": 0, "projects": [], "coding_time_seconds": 137, "coding_time_seconds_today": 0, "balance": "You need to have a pocket watcher badge to view this.", "badges": [], "created_at": "2025-06-16T14:45:02.689-04:00", "updated_at": "2025-07-03T19:20:45.095-04:00", "avatar": "https://avatars.slack-edge.com/2025-06-16/9042772919191_54878fae754a441b8d2b_original.png", "custom_css": null}, {"id": 2107, "slack_id": "U092CCG39T2", "display_name": "Tony", "bio": null, "projects_count": 0, "devlogs_count": 0, "votes_count": 0, "ships_count": 0, "projects": [], "coding_time_seconds": 19114, "coding_time_seconds_today": 0, "balance": "You need to have a pocket watcher badge to view this.", "badges": [], "created_at": "2025-06-16T14:45:06.150-04:00", "updated_at": "2025-07-03T19:20:45.361-04:00", "avatar": "https://secure.gravatar.com/avatar/607ee913d5cde9d6670d1bd3905caa90.jpg?s=512&d=https%3A%2F%2Fa.slack-edge.com%2Fdf10d%2Fimg%2Favatars%2Fava_0005-512.png", "custom_css": null}, {"id": 2108, "slack_id": "U079US29R53", "display_name": "Shaurya", "bio": null, "projects_count": 0, "devlogs_count": 0, "votes_count": 1, "ships_count": 0, "projects": [], "coding_time_seconds": 224321, "coding_time_seconds_today": 0, "balance": "You need to have a pocket watcher badge to view this.", "badges": [], "created_at": "2025-06-16T14:45:07.321-04:00", "updated_at": "2025-08-07T13:00:57.138-04:00", "avatar": "https://avatars.slack-edge.com/2024-06-26/7337791563858_c8445256877f567bcc31_original.png", "custom_css": null}, {"id": 2109, "slack_id": "U091N8HSZN1", "display_name": "Sheepearrr", "bio": null, "projects_count": 1, "devlogs_count": 3, "votes_count": 1, "ships_count": 0, "projects": [{"id": 2266, "title": "CordPlanter", "devlogs_count": 3, "created_at": "2025-06-20T15:35:55.964-04:00"}], "coding_time_seconds": 185218, "coding_time_seconds_today": 0, "balance": "You need to have a pocket watcher badge to view this.", "badges": [], "created_at": "2025-06-16T14:45:16.303-04:00", "updated_at": "2025-07-03T19:20:45.890-04:00", "avatar": "https://avatars.slack-edge.com/2025-06-16/9051137357699_d8225a8773f9bb7d12d4_original.png", "custom_css": null}, {"id": 2110, "slack_id": "U091N8E35GD", "display_name": "Shyam Kumar", "bio": null, "projects_count": 0, "devlogs_count": 0, "votes_count": 0, "ships_count": 0, "projects": [], "coding_time_seconds": 85736, "coding_time_seconds_today": 0, "balance": "You need to have a pocket watcher badge to view this.", "badges": [], "created_at": "2025-06-16T14:45:47.921-04:00", "updated_at": "2025-07-03T19:20:46.162-04:00", "avatar": "https://secure.gravatar.com/avatar/fcde9751a218b29af0681a08722d6ad4.jpg?s=512&d=https%3A%2F%2Fa.slack-edge.com%2Fdf10d%2Fimg%2Favatars%2Fava_0016-512.png", "custom_css": null}, {"id": 2111, "slack_id": "U092CFKLAU8", "display_name": "J", "bio": null, "projects_count": 0, "devlogs_count": 0, "votes_count": 0, "ships_count": 0, "projects": [], "coding_time_seconds": 0, "coding_time_seconds_today": 0, "balance": "You need to have a pocket watcher badge to view this.", "badges": [], "created_at": "2025-06-16T14:45:59.916-04:00", "updated_at": "2025-07-03T19:20:46.427-04:00", "avatar": "https://secure.gravatar.com/avatar/c763f9969a2822a5a2940294ad8050b1.jpg?s=512&d=https%3A%2F%2Fa.slack-edge.com%2Fdf10d%2Fimg%2Favatars%2Fava_0003-512.png", "custom_css": null}, {"id": 2112, "slack_id": "U091N8T2TRB", "display_name": "Daniel", "bio": null, "projects_count": 0, "devlogs_count": 0, "votes_count": 0, "ships_count": 0, "projects": [], "coding_time_seconds": 0, "coding_time_seconds_today": 0, "balance": "You need to have a pocket watcher badge to view this.", "badges": [], "created_at": "2025-06-16T14:46:09.178-04:00", "updated_at": "2025-07-03T19:20:46.720-04:00", "avatar": "https://avatars.slack-edge.com/2025-06-16/9056310659093_3aa187799a205cb6933b_original.png", "custom_css": null}, {"id": 2113, "slack_id": "U091QDHD3V2", "display_name": "lazivity", "bio": null, "projects_count": 0, "devlogs_count": 0, "votes_count": 0, "ships_count": 0, "projects": [], "coding_time_seconds": 28038, "coding_time_seconds_today": 0, "balance": "You need to have a pocket watcher badge to view this.", "badges": [], "created_at": "2025-06-16T14:46:33.882-04:00", "updated_at": "2025-07-03T19:20:46.985-04:00", "avatar": "https://secure.gravatar.com/avatar/a605cb5e62d2fea01681fd504ffb07c6.jpg?s=512&d=https%3A%2F%2Fa.slack-edge.com%2Fdf10d%2Fimg%2Favatars%2Fava_0002-512.png", "custom_css": null}, {"id": 2114, "slack_id": "U091H6M4MPY", "display_name": "Tarunkumar", "bio": null, "projects_count": 0, "devlogs_count": 0, "votes_count": 0, "ships_count": 0, "projects": [], "coding_time_seconds": 0, "coding_time_seconds_today": 0, "balance": "You need to have a pocket watcher badge to view this.", "badges": [], "created_at": "2025-06-16T14:46:46.849-04:00", "updated_at": "2025-07-03T19:20:47.248-04:00", "avatar": "https://secure.gravatar.com/avatar/4970d3a9e3b29469f6b9e26ecfa5317b.jpg?s=512&d=https%3A%2F%2Fa.slack-edge.com%2Fdf10d%2Fimg%2Favatars%2Fava_0026-512.png", "custom_css": null}, {"id": 2115, "slack_id": "U0922JB94D7", "display_name": "verchasv garg", "bio": null, "projects_count": 0, "devlogs_count": 0, "votes_count": 0, "ships_count": 0, "projects": [], "coding_time_seconds": 52522, "coding_time_seconds_today": 0, "balance": "You need to have a pocket watcher badge to view this.", "badges": [], "created_at": "2025-06-16T14:46:48.884-04:00", "updated_at": "2025-07-03T19:20:47.516-04:00", "avatar": "https://secure.gravatar.com/avatar/e46cc1350f21bf1f77820ac934e6093f.jpg?s=512&d=https%3A%2F%2Fa.slack-edge.com%2Fdf10d%2Fimg%2Favatars%2Fava_0003-512.png", "custom_css": null}, {"id": 2116, "slack_id": "U0826M0428J", "display_name": "lionel W509", "bio": null, "projects_count": 1, "devlogs_count": 3, "votes_count": 0, "ships_count": 0, "projects": [{"id": 7363, "title": "Overseer", "devlogs_count": 3, "created_at": "2025-07-21T10:23:00.919-04:00"}], "coding_time_seconds": 115981, "coding_time_seconds_today": 0, "balance": "You need to have a pocket watcher badge to view this.", "badges": [], "created_at": "2025-06-16T14:46:55.771-04:00", "updated_at": "2025-08-08T10:16:05.647-04:00", "avatar": "https://avatars.slack-edge.com/2024-11-23/8075544700419_af40216f00bcdb1d39fd_original.jpg", "custom_css": null}, {"id": 2117, "slack_id": "U091H3V8RGT", "display_name": "Aksel Saatci", "bio": null, "projects_count": 0, "devlogs_count": 0, "votes_count": 0, "ships_count": 0, "projects": [], "coding_time_seconds": 0, "coding_time_seconds_today": 0, "balance": "You need to have a pocket watcher badge to view this.", "badges": [], "created_at": "2025-06-16T14:47:03.325-04:00", "updated_at": "2025-07-03T19:20:48.080-04:00", "avatar": "https://avatars.slack-edge.com/2025-06-16/9080552727424_bdd8e3914f08ec6babbe_original.jpg", "custom_css": null}, {"id": 2118, "slack_id": "U092CFXSWGG", "display_name": "Nick Baron", "bio": null, "projects_count": 0, "devlogs_count": 0, "votes_count": 0, "ships_count": 0, "projects": [], "coding_time_seconds": 0, "coding_time_seconds_today": 0, "balance": "You need to have a pocket watcher badge to view this.", "badges": [], "created_at": "2025-06-16T14:47:06.356-04:00", "updated_at": "2025-07-03T19:20:48.358-04:00", "avatar": "https://avatars.slack-edge.com/2025-06-16/9042782980503_791d7f3489bd4d6bef1e_original.jpg", "custom_css": null}, {"id": 2119, "slack_id": "U092CF4LT2L", "display_name": "Gul E Zahra", "bio": null, "projects_count": 0, "devlogs_count": 0, "votes_count": 0, "ships_count": 0, "projects": [], "coding_time_seconds": 0, "coding_time_seconds_today": 0, "balance": "You need to have a pocket watcher badge to view this.", "badges": [], "created_at": "2025-06-16T14:47:14.426-04:00", "updated_at": "2025-07-03T19:20:48.642-04:00", "avatar": "https://secure.gravatar.com/avatar/3daff668fb4a32dbe30e34d7193a95e1.jpg?s=512&d=https%3A%2F%2Fa.slack-edge.com%2Fdf10d%2Fimg%2Favatars%2Fava_0012-512.png", "custom_css": null}, {"id": 2120, "slack_id": "U092C5SJM1N", "display_name": "Kai", "bio": null, "projects_count": 0, "devlogs_count": 0, "votes_count": 0, "ships_count": 0, "projects": [], "coding_time_seconds": 0, "coding_time_seconds_today": 0, "balance": "You need to have a pocket watcher badge to view this.", "badges": [], "created_at": "2025-06-16T14:47:19.846-04:00", "updated_at": "2025-07-03T19:20:48.925-04:00", "avatar": "https://secure.gravatar.com/avatar/ebcb00970ae5d953161c064f14121c86.jpg?s=512&d=https%3A%2F%2Fa.slack-edge.com%2Fdf10d%2Fimg%2Favatars%2Fava_0014-512.png", "custom_css": null}], "pagination": {"page": 106, "pages": 1192, "count": 23828, "items": 20}}