{"users": [{"id": 21286, "slack_id": "U099WSR5F5Y", "display_name": "Slavok", "bio": null, "projects_count": 0, "devlogs_count": 0, "votes_count": 0, "ships_count": 0, "projects": [], "coding_time_seconds": 0, "coding_time_seconds_today": 0, "balance": "You need to have a pocket watcher badge to view this.", "badges": [], "created_at": "2025-08-11T17:16:43.229-04:00", "updated_at": "2025-08-11T17:32:27.687-04:00", "avatar": "https://avatars.slack-edge.com/2025-08-11/9336909503954_b22a7aa6d6125585cb7b_original.png", "custom_css": null}, {"id": 21287, "slack_id": "U09A0RAQ4BW", "display_name": "Giulio Locatelli", "bio": null, "projects_count": 0, "devlogs_count": 0, "votes_count": 0, "ships_count": 0, "projects": [], "coding_time_seconds": 0, "coding_time_seconds_today": 0, "balance": "You need to have a pocket watcher badge to view this.", "badges": [], "created_at": "2025-08-11T17:19:54.118-04:00", "updated_at": "2025-08-11T21:51:57.086-04:00", "avatar": "https://avatars.slack-edge.com/2025-08-11/9363886717376_136c94bfddc615381862_original.png", "custom_css": null}, {"id": 21288, "slack_id": "U099Y69EUEA", "display_name": "MoiBaldenegro", "bio": null, "projects_count": 0, "devlogs_count": 0, "votes_count": 0, "ships_count": 0, "projects": [], "coding_time_seconds": 74792, "coding_time_seconds_today": 0, "balance": "You need to have a pocket watcher badge to view this.", "badges": [], "created_at": "2025-08-11T17:20:06.462-04:00", "updated_at": "2025-08-12T01:22:09.581-04:00", "avatar": "https://secure.gravatar.com/avatar/39500f51ffe927b46c62fc9e6a8aafa6.jpg?s=512&d=https%3A%2F%2Fa.slack-edge.com%2Fdf10d%2Fimg%2Favatars%2Fava_0018-512.png", "custom_css": null}, {"id": 21289, "slack_id": "U099Y6C0TJS", "display_name": "Hiu", "bio": null, "projects_count": 0, "devlogs_count": 0, "votes_count": 0, "ships_count": 0, "projects": [], "coding_time_seconds": 0, "coding_time_seconds_today": 0, "balance": "You need to have a pocket watcher badge to view this.", "badges": [], "created_at": "2025-08-11T17:26:51.793-04:00", "updated_at": "2025-08-11T21:51:57.270-04:00", "avatar": "https://secure.gravatar.com/avatar/21cd5f815d4f44f6401b86ece332a4d2.jpg?s=512&d=https%3A%2F%2Fa.slack-edge.com%2Fdf10d%2Fimg%2Favatars%2Fava_0017-512.png", "custom_css": null}, {"id": 21290, "slack_id": "U09APU47U64", "display_name": "Akshaya", "bio": null, "projects_count": 0, "devlogs_count": 0, "votes_count": 0, "ships_count": 0, "projects": [], "coding_time_seconds": 0, "coding_time_seconds_today": 0, "balance": "You need to have a pocket watcher badge to view this.", "badges": [], "created_at": "2025-08-11T17:40:37.782-04:00", "updated_at": "2025-08-11T21:51:57.370-04:00", "avatar": "https://secure.gravatar.com/avatar/5aabe4d131e3fb0063b4af27074686e7.jpg?s=512&d=https%3A%2F%2Fa.slack-edge.com%2Fdf10d%2Fimg%2Favatars%2Fava_0015-512.png", "custom_css": null}, {"id": 21291, "slack_id": "U09A12G2TE0", "display_name": "strawberryimpasse", "bio": "", "projects_count": 2, "devlogs_count": 2, "votes_count": 7, "ships_count": 0, "projects": [{"id": 11577, "title": "ER:LC Log Integration", "devlogs_count": 2, "created_at": "2025-08-17T06:39:09.687-04:00"}, {"id": 11734, "title": "EMCT Simulator", "devlogs_count": 0, "created_at": "2025-08-19T00:53:41.542-04:00"}], "coding_time_seconds": 111578, "coding_time_seconds_today": 0, "balance": "You need to have a pocket watcher badge to view this.", "badges": [], "created_at": "2025-08-11T18:17:38.103-04:00", "updated_at": "2025-08-19T03:54:48.591-04:00", "avatar": "https://avatars.slack-edge.com/2025-08-19/9367214475651_ae49831b62a56c0a3747_original.jpg", "custom_css": null}, {"id": 21292, "slack_id": "U09AACJ9DJM", "display_name": "Maizah", "bio": null, "projects_count": 2, "devlogs_count": 1, "votes_count": 0, "ships_count": 0, "projects": [{"id": 11049, "title": "AI Desk Bot", "devlogs_count": 0, "created_at": "2025-08-12T18:11:14.161-04:00"}, {"id": 11910, "title": "Calculator", "devlogs_count": 1, "created_at": "2025-08-21T01:31:42.842-04:00"}], "coding_time_seconds": 3777, "coding_time_seconds_today": 0, "balance": "You need to have a pocket watcher badge to view this.", "badges": [], "created_at": "2025-08-11T18:26:06.732-04:00", "updated_at": "2025-08-14T13:16:58.724-04:00", "avatar": "https://secure.gravatar.com/avatar/7158e5d5bbb1b0ffd33c00dcc1226e23.jpg?s=512&d=https%3A%2F%2Fa.slack-edge.com%2Fdf10d%2Fimg%2Favatars%2Fava_0007-512.png", "custom_css": null}, {"id": 21293, "slack_id": "U099K7W4D7H", "display_name": "Harry", "bio": null, "projects_count": 0, "devlogs_count": 0, "votes_count": 0, "ships_count": 0, "projects": [], "coding_time_seconds": 232, "coding_time_seconds_today": 0, "balance": "You need to have a pocket watcher badge to view this.", "badges": [], "created_at": "2025-08-11T18:30:24.336-04:00", "updated_at": "2025-08-11T21:51:57.738-04:00", "avatar": "https://secure.gravatar.com/avatar/0a631517fcce6391dab994045e0b63de.jpg?s=512&d=https%3A%2F%2Fa.slack-edge.com%2Fdf10d%2Fimg%2Favatars%2Fava_0026-512.png", "custom_css": null}, {"id": 21294, "slack_id": "U09A16NS9EY", "display_name": "osama", "bio": null, "projects_count": 0, "devlogs_count": 0, "votes_count": 0, "ships_count": 0, "projects": [], "coding_time_seconds": 0, "coding_time_seconds_today": 0, "balance": "You need to have a pocket watcher badge to view this.", "badges": [], "created_at": "2025-08-11T19:03:39.487-04:00", "updated_at": "2025-08-12T08:26:31.111-04:00", "avatar": "https://avatars.slack-edge.com/2025-08-11/9350550320897_1c4b7810c24972db19fc_original.png", "custom_css": null}, {"id": 21295, "slack_id": "U099RHQ1PMK", "display_name": "Max Edmunds", "bio": null, "projects_count": 1, "devlogs_count": 0, "votes_count": 0, "ships_count": 0, "projects": [{"id": 11812, "title": "The Final Alignment", "devlogs_count": 0, "created_at": "2025-08-19T17:49:24.455-04:00"}], "coding_time_seconds": 60400, "coding_time_seconds_today": 0, "balance": "You need to have a pocket watcher badge to view this.", "badges": [], "created_at": "2025-08-11T19:10:47.453-04:00", "updated_at": "2025-08-18T01:30:17.374-04:00", "avatar": "https://avatars.slack-edge.com/2025-08-11/9338633194870_02bf0b948e293970d7b0_original.jpg", "custom_css": null}, {"id": 21296, "slack_id": "U09AAH39RL1", "display_name": "roanakexe", "bio": null, "projects_count": 0, "devlogs_count": 0, "votes_count": 0, "ships_count": 0, "projects": [], "coding_time_seconds": 0, "coding_time_seconds_today": 0, "balance": "You need to have a pocket watcher badge to view this.", "badges": [], "created_at": "2025-08-11T19:22:44.371-04:00", "updated_at": "2025-08-11T21:52:02.064-04:00", "avatar": "https://secure.gravatar.com/avatar/a9186886959cb42a602c79c451eacafc.jpg?s=512&d=https%3A%2F%2Fa.slack-edge.com%2Fdf10d%2Fimg%2Favatars%2Fava_0013-512.png", "custom_css": null}, {"id": 21297, "slack_id": "U099KD9BPCP", "display_name": "Gavin Rappleye", "bio": null, "projects_count": 0, "devlogs_count": 1, "votes_count": 0, "ships_count": 0, "projects": [], "coding_time_seconds": 1502, "coding_time_seconds_today": 0, "balance": "You need to have a pocket watcher badge to view this.", "badges": [], "created_at": "2025-08-11T19:29:06.980-04:00", "updated_at": "2025-08-16T18:20:58.901-04:00", "avatar": "https://secure.gravatar.com/avatar/1d0dfc2318d9a17f275bbb4c1972ddc9.jpg?s=512&d=https%3A%2F%2Fa.slack-edge.com%2Fdf10d%2Fimg%2Favatars%2Fava_0018-512.png", "custom_css": null}, {"id": 21298, "slack_id": "U08RL8T0HJA", "display_name": "TheusHen", "bio": null, "projects_count": 8, "devlogs_count": 10, "votes_count": 81, "ships_count": 4, "projects": [{"id": 13635, "title": "StudyLight Timer", "devlogs_count": 1, "created_at": "2025-09-21T15:29:43.463-04:00"}, {"id": 11141, "title": "ADB Music Player", "devlogs_count": 0, "created_at": "2025-08-13T13:05:48.223-04:00"}, {"id": 11147, "title": "GymSync", "devlogs_count": 2, "created_at": "2025-08-13T14:09:23.223-04:00"}, {"id": 12138, "title": "Mineflared", "devlogs_count": 1, "created_at": "2025-08-23T13:04:16.094-04:00"}, {"id": 12874, "title": "Portifolio", "devlogs_count": 1, "created_at": "2025-09-04T06:34:22.245-04:00"}, {"id": 12876, "title": "FixMyGadget", "devlogs_count": 1, "created_at": "2025-09-04T07:48:34.084-04:00"}, {"id": 13409, "title": "Roommate AI", "devlogs_count": 1, "created_at": "2025-09-15T16:32:37.528-04:00"}, {"id": 10920, "title": "CEX - Airport Quality Index", "devlogs_count": 3, "created_at": "2025-08-11T20:11:43.966-04:00"}], "coding_time_seconds": 286684, "coding_time_seconds_today": 0, "balance": "You need to have a pocket watcher badge to view this.", "badges": [], "created_at": "2025-08-11T19:30:29.780-04:00", "updated_at": "2025-08-12T13:00:04.756-04:00", "avatar": "https://avatars.slack-edge.com/2025-05-10/8899008411056_8ea4d419bc9845cf47b8_original.jpg", "custom_css": null}, {"id": 21299, "slack_id": "U09A19N6YAY", "display_name": "George", "bio": null, "projects_count": 0, "devlogs_count": 0, "votes_count": 0, "ships_count": 0, "projects": [], "coding_time_seconds": 0, "coding_time_seconds_today": 0, "balance": "You need to have a pocket watcher badge to view this.", "badges": [], "created_at": "2025-08-11T19:38:09.846-04:00", "updated_at": "2025-08-12T01:30:08.816-04:00", "avatar": "https://secure.gravatar.com/avatar/d494f53d2357391f4c0fe066a8729004.jpg?s=512&d=https%3A%2F%2Fa.slack-edge.com%2Fdf10d%2Fimg%2Favatars%2Fava_0014-512.png", "custom_css": null}, {"id": 21300, "slack_id": "U09A19PER8U", "display_name": "Nithya Sree", "bio": null, "projects_count": 0, "devlogs_count": 0, "votes_count": 0, "ships_count": 0, "projects": [], "coding_time_seconds": 0, "coding_time_seconds_today": 0, "balance": "You need to have a pocket watcher badge to view this.", "badges": [], "created_at": "2025-08-11T19:39:44.537-04:00", "updated_at": "2025-08-11T21:52:06.490-04:00", "avatar": "https://secure.gravatar.com/avatar/28ca5d6b7cb7ec980028e5878ea88e85.jpg?s=512&d=https%3A%2F%2Fa.slack-edge.com%2Fdf10d%2Fimg%2Favatars%2Fava_0018-512.png", "custom_css": null}, {"id": 21301, "slack_id": "U099YMXLXSS", "display_name": "lin35", "bio": null, "projects_count": 2, "devlogs_count": 5, "votes_count": 0, "ships_count": 2, "projects": [{"id": 10921, "title": "Warrior Training Ground by AI", "devlogs_count": 4, "created_at": "2025-08-11T20:17:40.804-04:00"}, {"id": 11495, "title": "Password Creater", "devlogs_count": 1, "created_at": "2025-08-16T11:05:41.272-04:00"}], "coding_time_seconds": 13072, "coding_time_seconds_today": 0, "balance": "You need to have a pocket watcher badge to view this.", "badges": [], "created_at": "2025-08-11T19:52:12.162-04:00", "updated_at": "2025-09-02T00:07:32.529-04:00", "avatar": "https://secure.gravatar.com/avatar/d9619073846191c916582781218d9369.jpg?s=512&d=https%3A%2F%2Fa.slack-edge.com%2Fdf10d%2Fimg%2Favatars%2Fava_0001-512.png", "custom_css": null}, {"id": 21302, "slack_id": "U09AQC2JT4G", "display_name": "jasmin razon", "bio": null, "projects_count": 0, "devlogs_count": 0, "votes_count": 0, "ships_count": 0, "projects": [], "coding_time_seconds": 0, "coding_time_seconds_today": 0, "balance": "You need to have a pocket watcher badge to view this.", "badges": [], "created_at": "2025-08-11T20:00:50.815-04:00", "updated_at": "2025-08-11T21:52:06.677-04:00", "avatar": "https://avatars.slack-edge.com/2025-08-11/9364436904000_a821d3f1b1d31700f642_original.png", "custom_css": null}, {"id": 21303, "slack_id": "U099XDLS2MQ", "display_name": "Trash Wolfiez", "bio": null, "projects_count": 0, "devlogs_count": 0, "votes_count": 0, "ships_count": 0, "projects": [], "coding_time_seconds": 0, "coding_time_seconds_today": 0, "balance": "You need to have a pocket watcher badge to view this.", "badges": [], "created_at": "2025-08-11T20:12:37.350-04:00", "updated_at": "2025-08-11T21:52:06.783-04:00", "avatar": "https://avatars.slack-edge.com/2025-08-11/9337482312402_a37ee346da2d87a32325_original.jpg", "custom_css": null}, {"id": 21304, "slack_id": "U09AANF4P17", "display_name": "Mary Whittier", "bio": null, "projects_count": 0, "devlogs_count": 0, "votes_count": 0, "ships_count": 0, "projects": [], "coding_time_seconds": 0, "coding_time_seconds_today": 0, "balance": "You need to have a pocket watcher badge to view this.", "badges": [], "created_at": "2025-08-11T20:17:02.053-04:00", "updated_at": "2025-08-11T21:52:06.870-04:00", "avatar": "https://avatars.slack-edge.com/2025-08-11/9350763384609_2174ee40c9419e80f1d5_original.png", "custom_css": null}, {"id": 21305, "slack_id": "U099XEGJQSW", "display_name": "Priyadarshan Mahankuda", "bio": null, "projects_count": 0, "devlogs_count": 0, "votes_count": 0, "ships_count": 0, "projects": [], "coding_time_seconds": 0, "coding_time_seconds_today": 0, "balance": "You need to have a pocket watcher badge to view this.", "badges": [], "created_at": "2025-08-11T20:21:07.747-04:00", "updated_at": "2025-08-21T04:40:49.275-04:00", "avatar": "https://avatars.slack-edge.com/2025-08-12/9350776678609_3542f61390931ab420dd_original.jpg", "custom_css": null}], "pagination": {"page": 1061, "pages": 1192, "count": 23828, "items": 20}}