{"users": [{"id": 21306, "slack_id": "U099XEEAQCA", "display_name": "Reyna", "bio": null, "projects_count": 0, "devlogs_count": 0, "votes_count": 0, "ships_count": 0, "projects": [], "coding_time_seconds": 0, "coding_time_seconds_today": 0, "balance": "You need to have a pocket watcher badge to view this.", "badges": [], "created_at": "2025-08-11T20:22:52.577-04:00", "updated_at": "2025-08-11T21:52:07.047-04:00", "avatar": "https://secure.gravatar.com/avatar/0d4885f31ad4d23b7b0f1e9848346428.jpg?s=512&d=https%3A%2F%2Fa.slack-edge.com%2Fdf10d%2Fimg%2Favatars%2Fava_0026-512.png", "custom_css": null}, {"id": 21307, "slack_id": "U099XF8SCDQ", "display_name": "Matt", "bio": null, "projects_count": 0, "devlogs_count": 0, "votes_count": 0, "ships_count": 0, "projects": [], "coding_time_seconds": 0, "coding_time_seconds_today": 0, "balance": "You need to have a pocket watcher badge to view this.", "badges": [], "created_at": "2025-08-11T20:34:33.065-04:00", "updated_at": "2025-08-11T21:52:07.154-04:00", "avatar": "https://secure.gravatar.com/avatar/b5c19baaf12f23174289e422fc485327.jpg?s=512&d=https%3A%2F%2Fa.slack-edge.com%2Fdf10d%2Fimg%2Favatars%2Fava_0012-512.png", "custom_css": null}, {"id": 21308, "slack_id": "U099YT6UWHL", "display_name": "Tristan", "bio": null, "projects_count": 0, "devlogs_count": 0, "votes_count": 0, "ships_count": 0, "projects": [], "coding_time_seconds": 0, "coding_time_seconds_today": 0, "balance": "You need to have a pocket watcher badge to view this.", "badges": [], "created_at": "2025-08-11T20:44:37.175-04:00", "updated_at": "2025-08-11T21:52:07.243-04:00", "avatar": "https://secure.gravatar.com/avatar/6a58d784a37e538cdafa7bc5e376a630.jpg?s=512&d=https%3A%2F%2Fa.slack-edge.com%2Fdf10d%2Fimg%2Favatars%2Fava_0014-512.png", "custom_css": null}, {"id": 21309, "slack_id": "U099YT531N2", "display_name": "Raintly", "bio": null, "projects_count": 0, "devlogs_count": 0, "votes_count": 0, "ships_count": 0, "projects": [], "coding_time_seconds": 0, "coding_time_seconds_today": 0, "balance": "You need to have a pocket watcher badge to view this.", "badges": [], "created_at": "2025-08-11T20:45:25.441-04:00", "updated_at": "2025-08-11T21:52:07.341-04:00", "avatar": "https://secure.gravatar.com/avatar/85b1ee2c1c1609b53649731eb4d30b17.jpg?s=512&d=https%3A%2F%2Fa.slack-edge.com%2Fdf10d%2Fimg%2Favatars%2Fava_0016-512.png", "custom_css": null}, {"id": 21310, "slack_id": "U09A1FQ9352", "display_name": "Alexander", "bio": null, "projects_count": 0, "devlogs_count": 0, "votes_count": 0, "ships_count": 0, "projects": [], "coding_time_seconds": 0, "coding_time_seconds_today": 0, "balance": "You need to have a pocket watcher badge to view this.", "badges": [], "created_at": "2025-08-11T20:46:37.244-04:00", "updated_at": "2025-08-11T21:52:07.426-04:00", "avatar": "https://secure.gravatar.com/avatar/118abc9b6ae516a0e6b3ca3a19635973.jpg?s=512&d=https%3A%2F%2Fa.slack-edge.com%2Fdf10d%2Fimg%2Favatars%2Fava_0022-512.png", "custom_css": null}, {"id": 21311, "slack_id": "U099X9B94TF", "display_name": "Kal Sevaptsidis", "bio": null, "projects_count": 1, "devlogs_count": 2, "votes_count": 16, "ships_count": 1, "projects": [{"id": 10933, "title": "LyricJournal", "devlogs_count": 2, "created_at": "2025-08-11T22:29:22.405-04:00"}], "coding_time_seconds": 24234, "coding_time_seconds_today": 0, "balance": "You need to have a pocket watcher badge to view this.", "badges": [], "created_at": "2025-08-11T21:01:01.970-04:00", "updated_at": "2025-08-12T01:30:05.639-04:00", "avatar": "https://secure.gravatar.com/avatar/222b3df3abb2b725743f0d1c06cf1640.jpg?s=512&d=https%3A%2F%2Fa.slack-edge.com%2Fdf10d%2Fimg%2Favatars%2Fava_0001-512.png", "custom_css": null}, {"id": 21312, "slack_id": "U09AAUMGHSM", "display_name": "Richard", "bio": null, "projects_count": 0, "devlogs_count": 0, "votes_count": 0, "ships_count": 0, "projects": [], "coding_time_seconds": 0, "coding_time_seconds_today": 0, "balance": "You need to have a pocket watcher badge to view this.", "badges": [], "created_at": "2025-08-11T21:32:09.660-04:00", "updated_at": "2025-08-11T22:34:52.779-04:00", "avatar": "https://secure.gravatar.com/avatar/9cb7ca28c8c4f8b47ce5ac866f91b857.jpg?s=512&d=https%3A%2F%2Fa.slack-edge.com%2Fdf10d%2Fimg%2Favatars%2Fava_0008-512.png", "custom_css": null}, {"id": 21313, "slack_id": "U09AAV7PF4Z", "display_name": "Alexa", "bio": null, "projects_count": 0, "devlogs_count": 0, "votes_count": 0, "ships_count": 0, "projects": [], "coding_time_seconds": 0, "coding_time_seconds_today": 0, "balance": "You need to have a pocket watcher badge to view this.", "badges": [], "created_at": "2025-08-11T21:42:25.488-04:00", "updated_at": "2025-08-11T21:52:07.768-04:00", "avatar": "https://secure.gravatar.com/avatar/525339fae7cf3e4ffe81940ad7cdaee1.jpg?s=512&d=https%3A%2F%2Fa.slack-edge.com%2Fdf10d%2Fimg%2Favatars%2Fava_0021-512.png", "custom_css": null}, {"id": 21314, "slack_id": "U099KPM3ZF0", "display_name": "Mikaela Beakley", "bio": null, "projects_count": 0, "devlogs_count": 0, "votes_count": 0, "ships_count": 0, "projects": [], "coding_time_seconds": 0, "coding_time_seconds_today": 0, "balance": "You need to have a pocket watcher badge to view this.", "badges": [], "created_at": "2025-08-11T21:44:51.777-04:00", "updated_at": "2025-08-11T21:52:07.914-04:00", "avatar": "https://secure.gravatar.com/avatar/2f533d1e005bdff8d6d7a5e59edced79.jpg?s=512&d=https%3A%2F%2Fa.slack-edge.com%2Fdf10d%2Fimg%2Favatars%2Fava_0024-512.png", "custom_css": null}, {"id": 21315, "slack_id": "U099YPJJ154", "display_name": "MinGamerKing", "bio": "", "projects_count": 1, "devlogs_count": 2, "votes_count": 1, "ships_count": 0, "projects": [{"id": 10936, "title": "Modrinth Search Engine Enhancement", "devlogs_count": 2, "created_at": "2025-08-11T23:40:21.346-04:00"}], "coding_time_seconds": 13157, "coding_time_seconds_today": 0, "balance": "You need to have a pocket watcher badge to view this.", "badges": [], "created_at": "2025-08-11T21:46:29.806-04:00", "updated_at": "2025-08-12T11:49:17.092-04:00", "avatar": "https://secure.gravatar.com/avatar/5667a42f78ba42cd2c6a9db91e56ce6c.jpg?s=512&d=https%3A%2F%2Fa.slack-edge.com%2Fdf10d%2Fimg%2Favatars%2Fava_0004-512.png", "custom_css": null}, {"id": 21316, "slack_id": "U09AB0QL9UH", "display_name": "Jaden", "bio": null, "projects_count": 0, "devlogs_count": 0, "votes_count": 0, "ships_count": 0, "projects": [], "coding_time_seconds": 8432, "coding_time_seconds_today": 0, "balance": "You need to have a pocket watcher badge to view this.", "badges": [], "created_at": "2025-08-11T21:48:38.965-04:00", "updated_at": "2025-08-12T03:55:43.273-04:00", "avatar": "https://secure.gravatar.com/avatar/cef7df73fe1b097377933d321ee5d9d1.jpg?s=512&d=https%3A%2F%2Fa.slack-edge.com%2Fdf10d%2Fimg%2Favatars%2Fava_0011-512.png", "custom_css": null}, {"id": 21317, "slack_id": "U09AQMMA2UQ", "display_name": "Princy Maheshwari", "bio": null, "projects_count": 0, "devlogs_count": 0, "votes_count": 0, "ships_count": 0, "projects": [], "coding_time_seconds": 27236, "coding_time_seconds_today": 4300, "balance": "You need to have a pocket watcher badge to view this.", "badges": [], "created_at": "2025-08-11T21:49:06.884-04:00", "updated_at": "2025-08-30T17:13:43.923-04:00", "avatar": "https://secure.gravatar.com/avatar/f7393489400a2420ac0a603f1144cfc2.jpg?s=512&d=https%3A%2F%2Fa.slack-edge.com%2Fdf10d%2Fimg%2Favatars%2Fava_0022-512.png", "custom_css": null}, {"id": 21318, "slack_id": "U09AB27MLQZ", "display_name": "Mooo", "bio": null, "projects_count": 0, "devlogs_count": 0, "votes_count": 0, "ships_count": 0, "projects": [], "coding_time_seconds": 0, "coding_time_seconds_today": 0, "balance": "You need to have a pocket watcher badge to view this.", "badges": [], "created_at": "2025-08-11T22:05:42.989-04:00", "updated_at": "2025-08-13T09:47:02.059-04:00", "avatar": "https://avatars.slack-edge.com/2025-08-11/9339209423958_48b698237c68de78965d_original.png", "custom_css": null}, {"id": 21319, "slack_id": "U09A1NXDW12", "display_name": "lu", "bio": null, "projects_count": 0, "devlogs_count": 0, "votes_count": 0, "ships_count": 0, "projects": [], "coding_time_seconds": 0, "coding_time_seconds_today": 0, "balance": "You need to have a pocket watcher badge to view this.", "badges": [], "created_at": "2025-08-11T22:06:29.755-04:00", "updated_at": "2025-08-12T03:55:43.550-04:00", "avatar": "https://secure.gravatar.com/avatar/6d6940aaa6de0943068049d39af6b55b.jpg?s=512&d=https%3A%2F%2Fa.slack-edge.com%2Fdf10d%2Fimg%2Favatars%2Fava_0022-512.png", "custom_css": null}, {"id": 21320, "slack_id": "U09AK3YNYRW", "display_name": "G0U7H4M", "bio": null, "projects_count": 0, "devlogs_count": 0, "votes_count": 0, "ships_count": 0, "projects": [], "coding_time_seconds": 0, "coding_time_seconds_today": 0, "balance": "You need to have a pocket watcher badge to view this.", "badges": [], "created_at": "2025-08-11T22:07:35.591-04:00", "updated_at": "2025-08-12T03:55:43.632-04:00", "avatar": "https://secure.gravatar.com/avatar/51c263a6e6b481de15697bb16dcea890.jpg?s=512&d=https%3A%2F%2Fa.slack-edge.com%2Fdf10d%2Fimg%2Favatars%2Fava_0013-512.png", "custom_css": null}, {"id": 21321, "slack_id": "U09AQQ4H0TS", "display_name": "Lee Jun Lei Adam Student", "bio": "", "projects_count": 1, "devlogs_count": 0, "votes_count": 0, "ships_count": 0, "projects": [{"id": 12210, "title": "PClassroom", "devlogs_count": 0, "created_at": "2025-08-24T11:35:16.782-04:00"}], "coding_time_seconds": 1140, "coding_time_seconds_today": 0, "balance": "You need to have a pocket watcher badge to view this.", "badges": [], "created_at": "2025-08-11T22:08:21.463-04:00", "updated_at": "2025-08-12T11:30:07.724-04:00", "avatar": "https://avatars.slack-edge.com/2025-08-11/9337529773125_fba0e973a652f9cd0ca6_original.png", "custom_css": null}, {"id": 21322, "slack_id": "U09AQQHR5Q8", "display_name": "Nick Eldred", "bio": null, "projects_count": 0, "devlogs_count": 0, "votes_count": 0, "ships_count": 0, "projects": [], "coding_time_seconds": 0, "coding_time_seconds_today": 0, "balance": "You need to have a pocket watcher badge to view this.", "badges": [], "created_at": "2025-08-11T22:11:17.655-04:00", "updated_at": "2025-08-12T03:55:43.880-04:00", "avatar": "https://secure.gravatar.com/avatar/d181cc546043735106ed4f6dfd38db80.jpg?s=512&d=https%3A%2F%2Fa.slack-edge.com%2Fdf10d%2Fimg%2Favatars%2Fava_0005-512.png", "custom_css": null}, {"id": 21323, "slack_id": "U09AB2RJ86M", "display_name": "Mhumuid", "bio": null, "projects_count": 0, "devlogs_count": 0, "votes_count": 0, "ships_count": 0, "projects": [], "coding_time_seconds": 0, "coding_time_seconds_today": 0, "balance": "You need to have a pocket watcher badge to view this.", "badges": [], "created_at": "2025-08-11T22:14:01.197-04:00", "updated_at": "2025-08-13T19:43:59.210-04:00", "avatar": "https://avatars.slack-edge.com/2025-08-11/9332246016771_d2bac4828b40576f0dbd_original.png", "custom_css": null}, {"id": 21324, "slack_id": "U08U8TBPFNK", "display_name": "Neetesh prajapati", "bio": null, "projects_count": 0, "devlogs_count": 0, "votes_count": 0, "ships_count": 0, "projects": [], "coding_time_seconds": 0, "coding_time_seconds_today": 0, "balance": "You need to have a pocket watcher badge to view this.", "badges": [], "created_at": "2025-08-11T22:15:42.852-04:00", "updated_at": "2025-08-12T03:55:44.080-04:00", "avatar": "https://avatars.slack-edge.com/2025-05-29/8976713107828_dfc7402eb0c78234c14a_original.jpg", "custom_css": null}, {"id": 21325, "slack_id": "U09A1QC5UG4", "display_name": "Deekshitha kasturi", "bio": null, "projects_count": 0, "devlogs_count": 0, "votes_count": 0, "ships_count": 0, "projects": [], "coding_time_seconds": 0, "coding_time_seconds_today": 0, "balance": "You need to have a pocket watcher badge to view this.", "badges": [], "created_at": "2025-08-11T22:20:04.250-04:00", "updated_at": "2025-08-12T03:55:44.178-04:00", "avatar": "https://avatars.slack-edge.com/2025-08-11/9341828640660_3866d494a601143b6572_original.png", "custom_css": null}], "pagination": {"page": 1062, "pages": 1192, "count": 23828, "items": 20}}