{"users": [{"id": 21326, "slack_id": "U09AQRTNNM6", "display_name": "dan1984", "bio": null, "projects_count": 0, "devlogs_count": 0, "votes_count": 0, "ships_count": 0, "projects": [], "coding_time_seconds": 0, "coding_time_seconds_today": 0, "balance": "You need to have a pocket watcher badge to view this.", "badges": [], "created_at": "2025-08-11T22:40:05.607-04:00", "updated_at": "2025-08-12T03:55:44.316-04:00", "avatar": "https://secure.gravatar.com/avatar/33afc777cf798beb2620e214bae941fb.jpg?s=512&d=https%3A%2F%2Fa.slack-edge.com%2Fdf10d%2Fimg%2Favatars%2Fava_0005-512.png", "custom_css": null}, {"id": 21327, "slack_id": "U099Z92E0A2", "display_name": "Elijah Dumaquita", "bio": null, "projects_count": 0, "devlogs_count": 0, "votes_count": 0, "ships_count": 0, "projects": [], "coding_time_seconds": 0, "coding_time_seconds_today": 0, "balance": "You need to have a pocket watcher badge to view this.", "badges": [], "created_at": "2025-08-11T22:41:23.509-04:00", "updated_at": "2025-08-12T03:55:44.405-04:00", "avatar": "https://secure.gravatar.com/avatar/36d8577624a4275a8e4248e9072649b7.jpg?s=512&d=https%3A%2F%2Fa.slack-edge.com%2Fdf10d%2Fimg%2Favatars%2Fava_0008-512.png", "custom_css": null}, {"id": 21328, "slack_id": "U099XTH8VL2", "display_name": "Nour MK.", "bio": null, "projects_count": 0, "devlogs_count": 0, "votes_count": 0, "ships_count": 0, "projects": [], "coding_time_seconds": 0, "coding_time_seconds_today": 0, "balance": "You need to have a pocket watcher badge to view this.", "badges": [], "created_at": "2025-08-11T23:01:48.702-04:00", "updated_at": "2025-08-12T03:55:44.493-04:00", "avatar": "https://secure.gravatar.com/avatar/e748690100eaf8b1eb2b9ab300ebc596.jpg?s=512&d=https%3A%2F%2Fa.slack-edge.com%2Fdf10d%2Fimg%2Favatars%2Fava_0011-512.png", "custom_css": null}, {"id": 21329, "slack_id": "U099ZB5NS14", "display_name": "terez", "bio": null, "projects_count": 0, "devlogs_count": 0, "votes_count": 0, "ships_count": 0, "projects": [], "coding_time_seconds": 0, "coding_time_seconds_today": 0, "balance": "You need to have a pocket watcher badge to view this.", "badges": [], "created_at": "2025-08-11T23:02:55.763-04:00", "updated_at": "2025-08-12T03:55:44.600-04:00", "avatar": "https://secure.gravatar.com/avatar/ef7d36a1743d537259b4e05050daecf1.jpg?s=512&d=https%3A%2F%2Fa.slack-edge.com%2Fdf10d%2Fimg%2Favatars%2Fava_0002-512.png", "custom_css": null}, {"id": 21330, "slack_id": "U09A1RTPA2Y", "display_name": "SuKi", "bio": null, "projects_count": 2, "devlogs_count": 18, "votes_count": 41, "ships_count": 1, "projects": [{"id": 12838, "title": "HackOchi", "devlogs_count": 11, "created_at": "2025-09-03T13:35:10.957-04:00"}, {"id": 11488, "title": "DoorLogie", "devlogs_count": 7, "created_at": "2025-08-16T09:23:11.495-04:00"}], "coding_time_seconds": 259904, "coding_time_seconds_today": 1334, "balance": "You need to have a pocket watcher badge to view this.", "badges": [], "created_at": "2025-08-11T23:03:46.891-04:00", "updated_at": "2025-09-03T10:04:47.541-04:00", "avatar": "https://avatars.slack-edge.com/2025-08-17/9367443040468_4e27cfb46eb32f399e5e_original.png", "custom_css": null}, {"id": 21331, "slack_id": "U099L36039D", "display_name": "Niki", "bio": null, "projects_count": 0, "devlogs_count": 0, "votes_count": 0, "ships_count": 0, "projects": [], "coding_time_seconds": 0, "coding_time_seconds_today": 0, "balance": "You need to have a pocket watcher badge to view this.", "badges": [], "created_at": "2025-08-11T23:14:13.085-04:00", "updated_at": "2025-08-12T03:55:48.804-04:00", "avatar": "https://secure.gravatar.com/avatar/6ef0f26ae21738cbf38f2db0b3b3c96a.jpg?s=512&d=https%3A%2F%2Fa.slack-edge.com%2Fdf10d%2Fimg%2Favatars%2Fava_0025-512.png", "custom_css": null}, {"id": 21332, "slack_id": "U099L3CE79D", "display_name": "darknight fire", "bio": null, "projects_count": 0, "devlogs_count": 3, "votes_count": 0, "ships_count": 0, "projects": [], "coding_time_seconds": 89081, "coding_time_seconds_today": 0, "balance": "You need to have a pocket watcher badge to view this.", "badges": [], "created_at": "2025-08-11T23:15:13.458-04:00", "updated_at": "2025-08-16T18:21:02.030-04:00", "avatar": "https://avatars.slack-edge.com/2025-08-11/9351274893329_2f918556dafe3742d658_original.png", "custom_css": null}, {"id": 21333, "slack_id": "U099Y0NN2PL", "display_name": "That Unknown Cat", "bio": null, "projects_count": 0, "devlogs_count": 0, "votes_count": 0, "ships_count": 0, "projects": [], "coding_time_seconds": 0, "coding_time_seconds_today": 0, "balance": "You need to have a pocket watcher badge to view this.", "badges": [], "created_at": "2025-08-11T23:26:02.397-04:00", "updated_at": "2025-08-12T03:55:48.989-04:00", "avatar": "https://avatars.slack-edge.com/2025-08-11/9338033236082_4e90abb70fa9c88ebaee_original.png", "custom_css": null}, {"id": 21334, "slack_id": "U091GR18ZT3", "display_name": "Abaan Reshi", "bio": null, "projects_count": 0, "devlogs_count": 0, "votes_count": 0, "ships_count": 0, "projects": [], "coding_time_seconds": 24152, "coding_time_seconds_today": 0, "balance": "You need to have a pocket watcher badge to view this.", "badges": [], "created_at": "2025-08-11T23:36:22.206-04:00", "updated_at": "2025-08-11T23:44:18.268-04:00", "avatar": "https://secure.gravatar.com/avatar/7c26919c2c6158fada24d4da0ae79c15.jpg?s=512&d=https%3A%2F%2Fa.slack-edge.com%2Fdf10d%2Fimg%2Favatars%2Fava_0011-512.png", "custom_css": null}, {"id": 21335, "slack_id": "U099SDX5KS7", "display_name": "Junior Rodriguez", "bio": null, "projects_count": 0, "devlogs_count": 0, "votes_count": 0, "ships_count": 0, "projects": [], "coding_time_seconds": 0, "coding_time_seconds_today": 0, "balance": "You need to have a pocket watcher badge to view this.", "badges": [], "created_at": "2025-08-11T23:45:32.754-04:00", "updated_at": "2025-08-12T03:55:49.166-04:00", "avatar": "https://secure.gravatar.com/avatar/a5e75e7b401272492a5c8033785a8eca.jpg?s=512&d=https%3A%2F%2Fa.slack-edge.com%2Fdf10d%2Fimg%2Favatars%2Fava_0000-512.png", "custom_css": null}, {"id": 21336, "slack_id": "U099ZEMT68N", "display_name": "hoogjj", "bio": null, "projects_count": 0, "devlogs_count": 0, "votes_count": 0, "ships_count": 0, "projects": [], "coding_time_seconds": 0, "coding_time_seconds_today": 0, "balance": "You need to have a pocket watcher badge to view this.", "badges": [], "created_at": "2025-08-11T23:46:29.505-04:00", "updated_at": "2025-08-12T03:55:49.327-04:00", "avatar": "https://secure.gravatar.com/avatar/c008ae4b12b14f2272e8c13df345c6f7.jpg?s=512&d=https%3A%2F%2Fa.slack-edge.com%2Fdf10d%2Fimg%2Favatars%2Fava_0003-512.png", "custom_css": null}, {"id": 21337, "slack_id": "U099XNLHFB7", "display_name": "Jason Phan", "bio": null, "projects_count": 0, "devlogs_count": 0, "votes_count": 0, "ships_count": 0, "projects": [], "coding_time_seconds": 0, "coding_time_seconds_today": 0, "balance": "You need to have a pocket watcher badge to view this.", "badges": [], "created_at": "2025-08-11T23:52:39.680-04:00", "updated_at": "2025-08-12T03:55:49.410-04:00", "avatar": "https://avatars.slack-edge.com/2025-08-11/9332508192323_22b6839557c4d215e36d_original.jpg", "custom_css": null}, {"id": 21338, "slack_id": "U09ABB8PW4R", "display_name": "Matheesha Koralegedara", "bio": null, "projects_count": 0, "devlogs_count": 0, "votes_count": 0, "ships_count": 0, "projects": [], "coding_time_seconds": 0, "coding_time_seconds_today": 0, "balance": "You need to have a pocket watcher badge to view this.", "badges": [], "created_at": "2025-08-12T00:03:00.032-04:00", "updated_at": "2025-08-12T03:55:53.540-04:00", "avatar": "https://secure.gravatar.com/avatar/caa3132dba65b661dfa37374fbe51077.jpg?s=512&d=https%3A%2F%2Fa.slack-edge.com%2Fdf10d%2Fimg%2Favatars%2Fava_0001-512.png", "custom_css": null}, {"id": 21339, "slack_id": "U078JLEB06P", "display_name": "romalescarl", "bio": null, "projects_count": 0, "devlogs_count": 0, "votes_count": 0, "ships_count": 0, "projects": [], "coding_time_seconds": 0, "coding_time_seconds_today": 0, "balance": "You need to have a pocket watcher badge to view this.", "badges": [], "created_at": "2025-08-12T00:03:13.067-04:00", "updated_at": "2025-08-12T03:55:53.648-04:00", "avatar": "https://avatars.slack-edge.com/2024-12-24/8210208319638_e67068f9fb0ab6025ed9_original.jpg", "custom_css": null}, {"id": 21340, "slack_id": "U099Y3APA4S", "display_name": "Johnathan Fraud", "bio": null, "projects_count": 0, "devlogs_count": 0, "votes_count": 0, "ships_count": 0, "projects": [], "coding_time_seconds": 8828, "coding_time_seconds_today": 0, "balance": "You need to have a pocket watcher badge to view this.", "badges": [], "created_at": "2025-08-12T00:03:31.155-04:00", "updated_at": "2025-08-14T22:06:39.150-04:00", "avatar": "https://secure.gravatar.com/avatar/70c98e8166f9f15ec958ebd3b7ffbf33.jpg?s=512&d=https%3A%2F%2Fa.slack-edge.com%2Fdf10d%2Fimg%2Favatars%2Fava_0009-512.png", "custom_css": null}, {"id": 21341, "slack_id": "U099L7K5TMM", "display_name": "\u859b\u53e1\u5b87", "bio": "I should have known about this website earlier.", "projects_count": 3, "devlogs_count": 20, "votes_count": 83, "ships_count": 3, "projects": [{"id": 11618, "title": "BallsDex Config Filler", "devlogs_count": 6, "created_at": "2025-08-17T18:47:08.313-04:00"}, {"id": 11855, "title": "Centring Disaster", "devlogs_count": 8, "created_at": "2025-08-20T10:25:27.694-04:00"}, {"id": 10997, "title": "EXIF Extractor", "devlogs_count": 6, "created_at": "2025-08-12T09:45:52.743-04:00"}], "coding_time_seconds": 181471, "coding_time_seconds_today": 0, "balance": "You need to have a pocket watcher badge to view this.", "badges": [], "created_at": "2025-08-12T00:13:41.225-04:00", "updated_at": "2025-08-12T12:00:06.597-04:00", "avatar": "https://avatars.slack-edge.com/2025-08-11/9339600137286_76795fbc3619b0da7f02_original.jpg", "custom_css": null}, {"id": 21342, "slack_id": "U099L89UGKH", "display_name": "Emory Deere", "bio": null, "projects_count": 0, "devlogs_count": 0, "votes_count": 0, "ships_count": 0, "projects": [], "coding_time_seconds": 0, "coding_time_seconds_today": 0, "balance": "You need to have a pocket watcher badge to view this.", "badges": [], "created_at": "2025-08-12T00:18:53.311-04:00", "updated_at": "2025-08-12T03:55:53.923-04:00", "avatar": "https://avatars.slack-edge.com/2025-08-11/9351440545585_a4d83f8b10c2957e9b27_original.png", "custom_css": null}, {"id": 21343, "slack_id": "U099XSPD07P", "display_name": "SuperCode111", "bio": null, "projects_count": 0, "devlogs_count": 0, "votes_count": 0, "ships_count": 0, "projects": [], "coding_time_seconds": 0, "coding_time_seconds_today": 0, "balance": "You need to have a pocket watcher badge to view this.", "badges": [], "created_at": "2025-08-12T00:35:55.556-04:00", "updated_at": "2025-08-12T03:55:54.003-04:00", "avatar": "https://avatars.slack-edge.com/2025-08-11/9351487961489_0e3db731b4f43ad3d128_original.png", "custom_css": null}, {"id": 21344, "slack_id": "U09A25Z2QQL", "display_name": "Anika Gupta", "bio": null, "projects_count": 0, "devlogs_count": 0, "votes_count": 0, "ships_count": 0, "projects": [], "coding_time_seconds": 0, "coding_time_seconds_today": 0, "balance": "You need to have a pocket watcher badge to view this.", "badges": [], "created_at": "2025-08-12T00:44:27.901-04:00", "updated_at": "2025-08-12T03:55:54.110-04:00", "avatar": "https://secure.gravatar.com/avatar/b8b91cc4f7c92ecf0a976cf37979538a.jpg?s=512&d=https%3A%2F%2Fa.slack-edge.com%2Fdf10d%2Fimg%2Favatars%2Fava_0010-512.png", "custom_css": null}, {"id": 21345, "slack_id": "U099LAY7C6T", "display_name": "Dasini Jayakody", "bio": null, "projects_count": 0, "devlogs_count": 0, "votes_count": 0, "ships_count": 0, "projects": [], "coding_time_seconds": 0, "coding_time_seconds_today": 0, "balance": "You need to have a pocket watcher badge to view this.", "badges": [], "created_at": "2025-08-12T00:54:00.688-04:00", "updated_at": "2025-08-12T03:55:54.208-04:00", "avatar": "https://avatars.slack-edge.com/2025-08-11/9342245712372_6fb0cb8bdd60ab06e69a_original.png", "custom_css": null}], "pagination": {"page": 1063, "pages": 1192, "count": 23828, "items": 20}}