{"users": [{"id": 21346, "slack_id": "U078M913RFW", "display_name": "Kotaro", "bio": "", "projects_count": 2, "devlogs_count": 2, "votes_count": 20, "ships_count": 1, "projects": [{"id": 10948, "title": "VRC Worlds Manager v2", "devlogs_count": 1, "created_at": "2025-08-12T01:31:58.619-04:00"}, {"id": 11456, "title": "Portfolio", "devlogs_count": 1, "created_at": "2025-08-16T04:09:46.669-04:00"}], "coding_time_seconds": 281040, "coding_time_seconds_today": 0, "balance": "You need to have a pocket watcher badge to view this.", "badges": [], "created_at": "2025-08-12T01:19:13.726-04:00", "updated_at": "2025-08-12T02:30:00.755-04:00", "avatar": "https://secure.gravatar.com/avatar/7da156580fa922d1c137a2cd15359a59.jpg?s=512&d=https%3A%2F%2Fa.slack-edge.com%2Fdf10d%2Fimg%2Favatars%2Fava_0019-512.png", "custom_css": null}, {"id": 21347, "slack_id": "U099VFH09PU", "display_name": "AVPDD NIPUNIKA", "bio": null, "projects_count": 0, "devlogs_count": 0, "votes_count": 0, "ships_count": 0, "projects": [], "coding_time_seconds": 56262, "coding_time_seconds_today": 0, "balance": "You need to have a pocket watcher badge to view this.", "badges": [], "created_at": "2025-08-12T01:26:55.745-04:00", "updated_at": "2025-08-12T03:55:54.367-04:00", "avatar": "https://secure.gravatar.com/avatar/e385a3c00bbdc48910a649595e16e32e.jpg?s=512&d=https%3A%2F%2Fa.slack-edge.com%2Fdf10d%2Fimg%2Favatars%2Fava_0009-512.png", "custom_css": null}, {"id": 21348, "slack_id": "U09A2A004P6", "display_name": "Naveen", "bio": null, "projects_count": 0, "devlogs_count": 0, "votes_count": 0, "ships_count": 0, "projects": [], "coding_time_seconds": 0, "coding_time_seconds_today": 0, "balance": "You need to have a pocket watcher badge to view this.", "badges": [], "created_at": "2025-08-12T01:36:33.353-04:00", "updated_at": "2025-08-12T03:55:54.462-04:00", "avatar": "https://avatars.slack-edge.com/2025-08-12/9332841321731_1f63d5255352c49814b8_original.jpg", "custom_css": null}, {"id": 21349, "slack_id": "U099Y31KXV3", "display_name": "Rizal Rorschach", "bio": null, "projects_count": 0, "devlogs_count": 0, "votes_count": 0, "ships_count": 0, "projects": [], "coding_time_seconds": 0, "coding_time_seconds_today": 0, "balance": "You need to have a pocket watcher badge to view this.", "badges": [], "created_at": "2025-08-12T01:41:23.698-04:00", "updated_at": "2025-08-12T03:55:54.559-04:00", "avatar": "https://secure.gravatar.com/avatar/60c3718159cbcae5d142aec0f49da4ea.jpg?s=512&d=https%3A%2F%2Fa.slack-edge.com%2Fdf10d%2Fimg%2Favatars%2Fava_0019-512.png", "custom_css": null}, {"id": 21350, "slack_id": "U099JENAUGP", "display_name": "Jblitzar", "bio": null, "projects_count": 2, "devlogs_count": 2, "votes_count": 22, "ships_count": 2, "projects": [{"id": 13261, "title": "Spotify Guess the Song", "devlogs_count": 1, "created_at": "2025-09-12T20:58:57.508-04:00"}, {"id": 13320, "title": "Bad Apple Tensorboard", "devlogs_count": 1, "created_at": "2025-09-13T23:57:17.109-04:00"}], "coding_time_seconds": 123206, "coding_time_seconds_today": 0, "balance": "You need to have a pocket watcher badge to view this.", "badges": [{"name": "Maiden Voyage", "text": "you shipped your first project! the journey begins...", "icon": "\ud83d\udea2"}], "created_at": "2025-08-12T01:55:52.148-04:00", "updated_at": "2025-09-12T22:58:48.828-04:00", "avatar": "https://secure.gravatar.com/avatar/b74eade1cb5f0435b8e701f71c861f0a.jpg?s=512&d=https%3A%2F%2Fa.slack-edge.com%2Fdf10d%2Fimg%2Favatars%2Fava_0017-512.png", "custom_css": null}, {"id": 21351, "slack_id": "U099ZUJ6RT8", "display_name": "Hadeel Qandeel", "bio": null, "projects_count": 0, "devlogs_count": 0, "votes_count": 0, "ships_count": 0, "projects": [], "coding_time_seconds": 0, "coding_time_seconds_today": 0, "balance": "You need to have a pocket watcher badge to view this.", "badges": [], "created_at": "2025-08-12T02:06:48.595-04:00", "updated_at": "2025-08-12T03:55:54.782-04:00", "avatar": "https://secure.gravatar.com/avatar/beaaac9d772df54384a83a9d6e441992.jpg?s=512&d=https%3A%2F%2Fa.slack-edge.com%2Fdf10d%2Fimg%2Favatars%2Fava_0021-512.png", "custom_css": null}, {"id": 21352, "slack_id": "U099SQTNSN7", "display_name": "gooser", "bio": "hi i dont exsisrt", "projects_count": 0, "devlogs_count": 12, "votes_count": 40, "ships_count": 0, "projects": [], "coding_time_seconds": 152310, "coding_time_seconds_today": 0, "balance": "You need to have a pocket watcher badge to view this.", "badges": [], "created_at": "2025-08-12T02:13:19.541-04:00", "updated_at": "2025-08-29T17:50:42.067-04:00", "avatar": "https://avatars.slack-edge.com/2025-08-17/9361906112741_b4ea72887b6ac264fe4a_original.png", "custom_css": null}, {"id": 21353, "slack_id": "U099YH25LQ2", "display_name": "Nithya Sree", "bio": null, "projects_count": 0, "devlogs_count": 0, "votes_count": 0, "ships_count": 0, "projects": [], "coding_time_seconds": 0, "coding_time_seconds_today": 0, "balance": "You need to have a pocket watcher badge to view this.", "badges": [], "created_at": "2025-08-12T02:30:22.615-04:00", "updated_at": "2025-08-12T03:55:54.970-04:00", "avatar": "https://secure.gravatar.com/avatar/07953d9b8a4529cc5cbdbd9f0ea3dd8f.jpg?s=512&d=https%3A%2F%2Fa.slack-edge.com%2Fdf10d%2Fimg%2Favatars%2Fava_0009-512.png", "custom_css": null}, {"id": 21354, "slack_id": "U099YHY98G2", "display_name": "Nuhansi", "bio": null, "projects_count": 0, "devlogs_count": 0, "votes_count": 0, "ships_count": 0, "projects": [], "coding_time_seconds": 0, "coding_time_seconds_today": 0, "balance": "You need to have a pocket watcher badge to view this.", "badges": [], "created_at": "2025-08-12T02:41:24.559-04:00", "updated_at": "2025-08-12T03:55:55.060-04:00", "avatar": "https://secure.gravatar.com/avatar/db9f6e1ab8f235ee829aa6d13e98f415.jpg?s=512&d=https%3A%2F%2Fa.slack-edge.com%2Fdf10d%2Fimg%2Favatars%2Fava_0023-512.png", "custom_css": null}, {"id": 21355, "slack_id": "U09ABRX9H41", "display_name": "Ashin Jiyo", "bio": null, "projects_count": 0, "devlogs_count": 0, "votes_count": 0, "ships_count": 0, "projects": [], "coding_time_seconds": 0, "coding_time_seconds_today": 0, "balance": "You need to have a pocket watcher badge to view this.", "badges": [], "created_at": "2025-08-12T02:47:11.564-04:00", "updated_at": "2025-08-12T03:55:55.170-04:00", "avatar": "https://avatars.slack-edge.com/2025-08-11/9333055930403_1b69b7ca3eacba5a547d_original.png", "custom_css": null}, {"id": 21356, "slack_id": "U099Y9P738V", "display_name": "Mithran B", "bio": null, "projects_count": 0, "devlogs_count": 0, "votes_count": 0, "ships_count": 0, "projects": [], "coding_time_seconds": 0, "coding_time_seconds_today": 0, "balance": "You need to have a pocket watcher badge to view this.", "badges": [], "created_at": "2025-08-12T02:47:12.086-04:00", "updated_at": "2025-08-12T03:55:55.255-04:00", "avatar": "https://secure.gravatar.com/avatar/e533ade186f49c993794c701ff14c40e.jpg?s=512&d=https%3A%2F%2Fa.slack-edge.com%2Fdf10d%2Fimg%2Favatars%2Fava_0002-512.png", "custom_css": null}, {"id": 21357, "slack_id": "U09A057ECRL", "display_name": "Perr", "bio": null, "projects_count": 0, "devlogs_count": 0, "votes_count": 1, "ships_count": 0, "projects": [], "coding_time_seconds": 23124, "coding_time_seconds_today": 0, "balance": "You need to have a pocket watcher badge to view this.", "badges": [], "created_at": "2025-08-12T02:58:23.298-04:00", "updated_at": "2025-08-12T07:03:19.475-04:00", "avatar": "https://secure.gravatar.com/avatar/4f505db9d5cc083c748e5179dafb3611.jpg?s=512&d=https%3A%2F%2Fa.slack-edge.com%2Fdf10d%2Fimg%2Favatars%2Fava_0008-512.png", "custom_css": null}, {"id": 21358, "slack_id": "U09A2KWTR1A", "display_name": "Pavan N P", "bio": null, "projects_count": 0, "devlogs_count": 0, "votes_count": 0, "ships_count": 0, "projects": [], "coding_time_seconds": 0, "coding_time_seconds_today": 0, "balance": "You need to have a pocket watcher badge to view this.", "badges": [], "created_at": "2025-08-12T03:05:58.150-04:00", "updated_at": "2025-08-12T03:55:55.423-04:00", "avatar": "https://avatars.slack-edge.com/2025-08-12/9340239467670_ab0afb7be3f7aa0cfa87_original.png", "custom_css": null}, {"id": 21359, "slack_id": "U099T7SJ5S7", "display_name": "Nithya Sree", "bio": null, "projects_count": 0, "devlogs_count": 0, "votes_count": 0, "ships_count": 0, "projects": [], "coding_time_seconds": 0, "coding_time_seconds_today": 0, "balance": "You need to have a pocket watcher badge to view this.", "badges": [], "created_at": "2025-08-12T03:38:41.742-04:00", "updated_at": "2025-08-12T03:55:55.519-04:00", "avatar": "https://secure.gravatar.com/avatar/d4cd31433adc6fbd669dacd45c783c34.jpg?s=512&d=https%3A%2F%2Fa.slack-edge.com%2Fdf10d%2Fimg%2Favatars%2Fava_0023-512.png", "custom_css": null}, {"id": 21360, "slack_id": "U07CVGU8CFJ", "display_name": "chrystom", "bio": null, "projects_count": 0, "devlogs_count": 0, "votes_count": 0, "ships_count": 0, "projects": [], "coding_time_seconds": 0, "coding_time_seconds_today": 0, "balance": "You need to have a pocket watcher badge to view this.", "badges": [], "created_at": "2025-08-12T04:23:34.534-04:00", "updated_at": "2025-08-12T11:30:04.503-04:00", "avatar": "https://avatars.slack-edge.com/2024-07-12/7437628364768_ff04af0aa3a07245a2d1_original.png", "custom_css": null}, {"id": 21361, "slack_id": "U09AS357D32", "display_name": "Darsh Agarwal", "bio": null, "projects_count": 0, "devlogs_count": 0, "votes_count": 0, "ships_count": 0, "projects": [], "coding_time_seconds": 0, "coding_time_seconds_today": 0, "balance": "You need to have a pocket watcher badge to view this.", "badges": [], "created_at": "2025-08-12T04:27:18.091-04:00", "updated_at": "2025-08-12T09:55:17.148-04:00", "avatar": "https://avatars.slack-edge.com/2025-08-12/9352346012913_736be981839870a28c96_original.jpg", "custom_css": null}, {"id": 21362, "slack_id": "U099Z32M1S6", "display_name": "kyamoken", "bio": null, "projects_count": 0, "devlogs_count": 0, "votes_count": 0, "ships_count": 0, "projects": [], "coding_time_seconds": 0, "coding_time_seconds_today": 0, "balance": "You need to have a pocket watcher badge to view this.", "badges": [], "created_at": "2025-08-12T04:30:41.419-04:00", "updated_at": "2025-08-12T09:55:17.242-04:00", "avatar": "https://secure.gravatar.com/avatar/e24d09940d9cf1d88a6464cf2fc5208c.jpg?s=512&d=https%3A%2F%2Fa.slack-edge.com%2Fdf10d%2Fimg%2Favatars%2Fava_0012-512.png", "custom_css": null}, {"id": 21363, "slack_id": "U099YP81ME1", "display_name": "nexilo", "bio": null, "projects_count": 0, "devlogs_count": 0, "votes_count": 0, "ships_count": 0, "projects": [], "coding_time_seconds": 0, "coding_time_seconds_today": 0, "balance": "You need to have a pocket watcher badge to view this.", "badges": [], "created_at": "2025-08-12T04:34:49.742-04:00", "updated_at": "2025-08-12T09:55:17.358-04:00", "avatar": "https://secure.gravatar.com/avatar/1da29f982187406730e03d4e5d053909.jpg?s=512&d=https%3A%2F%2Fa.slack-edge.com%2Fdf10d%2Fimg%2Favatars%2Fava_0019-512.png", "custom_css": null}, {"id": 21364, "slack_id": "U079TBG5P7X", "display_name": "navya", "bio": null, "projects_count": 0, "devlogs_count": 0, "votes_count": 0, "ships_count": 0, "projects": [], "coding_time_seconds": 0, "coding_time_seconds_today": 0, "balance": "You need to have a pocket watcher badge to view this.", "badges": [], "created_at": "2025-08-12T04:45:52.405-04:00", "updated_at": "2025-08-12T05:33:05.999-04:00", "avatar": "https://avatars.slack-edge.com/2024-06-27/7346230473908_2cc84f308b3e7fcd73a9_original.jpg", "custom_css": null}, {"id": 21365, "slack_id": "U099YSE1ESZ", "display_name": "aMeow", "bio": null, "projects_count": 0, "devlogs_count": 0, "votes_count": 0, "ships_count": 0, "projects": [], "coding_time_seconds": 49606, "coding_time_seconds_today": 0, "balance": "You need to have a pocket watcher badge to view this.", "badges": [], "created_at": "2025-08-12T04:55:25.359-04:00", "updated_at": "2025-08-12T09:55:17.502-04:00", "avatar": "https://secure.gravatar.com/avatar/b5a44cff9ad5a11404214385fa2aff41.jpg?s=512&d=https%3A%2F%2Fa.slack-edge.com%2Fdf10d%2Fimg%2Favatars%2Fava_0020-512.png", "custom_css": null}], "pagination": {"page": 1064, "pages": 1192, "count": 23828, "items": 20}}