{"users": [{"id": 21366, "slack_id": "U099M9D9Q7R", "display_name": "Dodo", "bio": "Sometimes I think... and then... I... forgor", "projects_count": 0, "devlogs_count": 6, "votes_count": 51, "ships_count": 0, "projects": [], "coding_time_seconds": 56883, "coding_time_seconds_today": 0, "balance": "You need to have a pocket watcher badge to view this.", "badges": [], "created_at": "2025-08-12T04:56:31.385-04:00", "updated_at": "2025-09-21T12:39:23.955-04:00", "avatar": "https://avatars.slack-edge.com/2025-08-12/9339022828805_24977468ffd8b93d4a1f_original.png", "custom_css": null}, {"id": 21367, "slack_id": "U099V9N13CJ", "display_name": "Aloys", "bio": null, "projects_count": 0, "devlogs_count": 0, "votes_count": 0, "ships_count": 0, "projects": [], "coding_time_seconds": 7803, "coding_time_seconds_today": 0, "balance": "You need to have a pocket watcher badge to view this.", "badges": [], "created_at": "2025-08-12T05:07:22.164-04:00", "updated_at": "2025-08-12T09:55:17.689-04:00", "avatar": "https://secure.gravatar.com/avatar/65caac59b9892b6b6283026d4119913c.jpg?s=512&d=https%3A%2F%2Fa.slack-edge.com%2Fdf10d%2Fimg%2Favatars%2Fava_0004-512.png", "custom_css": null}, {"id": 21368, "slack_id": "U09ACFK7Z3K", "display_name": "Harsh Barot", "bio": null, "projects_count": 0, "devlogs_count": 0, "votes_count": 0, "ships_count": 0, "projects": [], "coding_time_seconds": 54204, "coding_time_seconds_today": 0, "balance": "You need to have a pocket watcher badge to view this.", "badges": [], "created_at": "2025-08-12T05:08:15.973-04:00", "updated_at": "2025-08-23T05:00:07.417-04:00", "avatar": "https://avatars.slack-edge.com/2025-08-21/9401449563601_c52176bdceac82f1afb0_original.png", "custom_css": null}, {"id": 21369, "slack_id": "U09ACJM91HP", "display_name": "Daniel", "bio": null, "projects_count": 0, "devlogs_count": 8, "votes_count": 32, "ships_count": 0, "projects": [], "coding_time_seconds": 22753, "coding_time_seconds_today": 0, "balance": "You need to have a pocket watcher badge to view this.", "badges": [], "created_at": "2025-08-12T05:32:45.958-04:00", "updated_at": "2025-08-17T00:50:55.100-04:00", "avatar": "https://secure.gravatar.com/avatar/04d34b9f9a52a943824dd996abccfb0d.jpg?s=512&d=https%3A%2F%2Fa.slack-edge.com%2Fdf10d%2Fimg%2Favatars%2Fava_0017-512.png", "custom_css": null}, {"id": 21370, "slack_id": "U09A10AGS86", "display_name": "TOM", "bio": null, "projects_count": 0, "devlogs_count": 0, "votes_count": 0, "ships_count": 0, "projects": [], "coding_time_seconds": 0, "coding_time_seconds_today": 0, "balance": "You need to have a pocket watcher badge to view this.", "badges": [], "created_at": "2025-08-12T05:42:45.377-04:00", "updated_at": "2025-08-12T09:55:18.039-04:00", "avatar": "https://secure.gravatar.com/avatar/04ce3d30267e6072c9246c95be2b7509.jpg?s=512&d=https%3A%2F%2Fa.slack-edge.com%2Fdf10d%2Fimg%2Favatars%2Fava_0011-512.png", "custom_css": null}, {"id": 21371, "slack_id": "U079ZEHU8Q4", "display_name": "Chicco Carone", "bio": null, "projects_count": 0, "devlogs_count": 0, "votes_count": 0, "ships_count": 0, "projects": [], "coding_time_seconds": 0, "coding_time_seconds_today": 0, "balance": "You need to have a pocket watcher badge to view this.", "badges": [], "created_at": "2025-08-12T05:50:56.874-04:00", "updated_at": "2025-08-12T05:51:25.077-04:00", "avatar": "https://avatars.slack-edge.com/2024-06-26/7322463110199_9399997dfdfd50361c6c_original.png", "custom_css": null}, {"id": 21372, "slack_id": "U09A13NRF3Q", "display_name": "Chaitanya Gaur", "bio": null, "projects_count": 1, "devlogs_count": 1, "votes_count": 11, "ships_count": 1, "projects": [{"id": 10990, "title": "Stock Prediction", "devlogs_count": 1, "created_at": "2025-08-12T08:45:00.506-04:00"}], "coding_time_seconds": 8153, "coding_time_seconds_today": 0, "balance": "You need to have a pocket watcher badge to view this.", "badges": [], "created_at": "2025-08-12T06:06:28.230-04:00", "updated_at": "2025-08-12T12:30:03.187-04:00", "avatar": "https://secure.gravatar.com/avatar/6690225f1b504f386b04f33eeec8d07b.jpg?s=512&d=https%3A%2F%2Fa.slack-edge.com%2Fdf10d%2Fimg%2Favatars%2Fava_0019-512.png", "custom_css": null}, {"id": 21373, "slack_id": "U099ZHQR1QA", "display_name": "Paul", "bio": null, "projects_count": 0, "devlogs_count": 0, "votes_count": 0, "ships_count": 0, "projects": [], "coding_time_seconds": 0, "coding_time_seconds_today": 0, "balance": "You need to have a pocket watcher badge to view this.", "badges": [], "created_at": "2025-08-12T06:12:17.053-04:00", "updated_at": "2025-08-12T09:55:22.349-04:00", "avatar": "https://secure.gravatar.com/avatar/b3e8ec92e8abd8d1c14de997f2aaf855.jpg?s=512&d=https%3A%2F%2Fa.slack-edge.com%2Fdf10d%2Fimg%2Favatars%2Fava_0003-512.png", "custom_css": null}, {"id": 21374, "slack_id": "U09A3GV54QL", "display_name": "Manav", "bio": null, "projects_count": 2, "devlogs_count": 23, "votes_count": 20, "ships_count": 0, "projects": [{"id": 10983, "title": "ClearBuy", "devlogs_count": 21, "created_at": "2025-08-12T07:27:32.602-04:00"}, {"id": 11754, "title": "QuestionFinder", "devlogs_count": 2, "created_at": "2025-08-19T06:52:10.428-04:00"}], "coding_time_seconds": 429593, "coding_time_seconds_today": 0, "balance": "You need to have a pocket watcher badge to view this.", "badges": [], "created_at": "2025-08-12T06:23:58.971-04:00", "updated_at": "2025-08-23T11:47:49.758-04:00", "avatar": "https://avatars.slack-edge.com/2025-08-18/9370535003238_eab9e1ae3bcff77f2123_original.jpg", "custom_css": null}, {"id": 21375, "slack_id": "U099ZNYM0CS", "display_name": "Kavee", "bio": null, "projects_count": 0, "devlogs_count": 0, "votes_count": 0, "ships_count": 0, "projects": [], "coding_time_seconds": 0, "coding_time_seconds_today": 0, "balance": "You need to have a pocket watcher badge to view this.", "badges": [], "created_at": "2025-08-12T06:57:44.300-04:00", "updated_at": "2025-08-12T09:55:22.546-04:00", "avatar": "https://secure.gravatar.com/avatar/a415de299fbe8bbf7d75016d169f000a.jpg?s=512&d=https%3A%2F%2Fa.slack-edge.com%2Fdf10d%2Fimg%2Favatars%2Fava_0014-512.png", "custom_css": null}, {"id": 21376, "slack_id": "U099M81SR3R", "display_name": "Sanjana", "bio": null, "projects_count": 0, "devlogs_count": 0, "votes_count": 0, "ships_count": 0, "projects": [], "coding_time_seconds": 0, "coding_time_seconds_today": 0, "balance": "You need to have a pocket watcher badge to view this.", "badges": [], "created_at": "2025-08-12T06:59:21.438-04:00", "updated_at": "2025-08-12T09:55:22.677-04:00", "avatar": "https://avatars.slack-edge.com/2025-08-12/9353008083137_fbe307c424de26cd7453_original.png", "custom_css": null}, {"id": 21377, "slack_id": "U09A1ANF3KQ", "display_name": "Aarush", "bio": null, "projects_count": 0, "devlogs_count": 0, "votes_count": 0, "ships_count": 0, "projects": [], "coding_time_seconds": 0, "coding_time_seconds_today": 0, "balance": "You need to have a pocket watcher badge to view this.", "badges": [], "created_at": "2025-08-12T07:01:38.952-04:00", "updated_at": "2025-08-12T09:55:22.796-04:00", "avatar": "https://secure.gravatar.com/avatar/c7fc4f6dc19c8e2c9cb1d144a2a8b471.jpg?s=512&d=https%3A%2F%2Fa.slack-edge.com%2Fdf10d%2Fimg%2Favatars%2Fava_0022-512.png", "custom_css": null}, {"id": 21378, "slack_id": "U099V5US3TQ", "display_name": "Hashini", "bio": null, "projects_count": 0, "devlogs_count": 0, "votes_count": 0, "ships_count": 0, "projects": [], "coding_time_seconds": 0, "coding_time_seconds_today": 0, "balance": "You need to have a pocket watcher badge to view this.", "badges": [], "created_at": "2025-08-12T07:19:31.547-04:00", "updated_at": "2025-08-12T09:55:22.900-04:00", "avatar": "https://secure.gravatar.com/avatar/4c9acf8864e42a4193a491c62d2d900e.jpg?s=512&d=https%3A%2F%2Fa.slack-edge.com%2Fdf10d%2Fimg%2Favatars%2Fava_0020-512.png", "custom_css": null}, {"id": 21379, "slack_id": "U099U7TNRT5", "display_name": "Callum Righton", "bio": null, "projects_count": 0, "devlogs_count": 0, "votes_count": 0, "ships_count": 0, "projects": [], "coding_time_seconds": 0, "coding_time_seconds_today": 0, "balance": "You need to have a pocket watcher badge to view this.", "badges": [], "created_at": "2025-08-12T07:28:31.236-04:00", "updated_at": "2025-08-12T09:55:23.007-04:00", "avatar": "https://secure.gravatar.com/avatar/46781c06b57db431cbaadbcdfacdda84.jpg?s=512&d=https%3A%2F%2Fa.slack-edge.com%2Fdf10d%2Fimg%2Favatars%2Fava_0022-512.png", "custom_css": null}, {"id": 21380, "slack_id": "U09A3S1SWE8", "display_name": "Hamza", "bio": null, "projects_count": 0, "devlogs_count": 0, "votes_count": 0, "ships_count": 0, "projects": [], "coding_time_seconds": 27070, "coding_time_seconds_today": 0, "balance": "You need to have a pocket watcher badge to view this.", "badges": [], "created_at": "2025-08-12T07:43:16.616-04:00", "updated_at": "2025-08-12T09:55:23.132-04:00", "avatar": "https://avatars.slack-edge.com/2025-08-12/9334354364579_5bbf70203d19b6cd0eca_original.png", "custom_css": null}, {"id": 21381, "slack_id": "U09ASUA80BS", "display_name": "Thibault", "bio": null, "projects_count": 0, "devlogs_count": 0, "votes_count": 0, "ships_count": 0, "projects": [], "coding_time_seconds": 3803, "coding_time_seconds_today": 0, "balance": "You need to have a pocket watcher badge to view this.", "badges": [], "created_at": "2025-08-12T07:44:22.911-04:00", "updated_at": "2025-08-12T09:55:23.237-04:00", "avatar": "https://secure.gravatar.com/avatar/fce36ca6f165e680f594c16b1bcb434d.jpg?s=512&d=https%3A%2F%2Fa.slack-edge.com%2Fdf10d%2Fimg%2Favatars%2Fava_0024-512.png", "custom_css": null}, {"id": 21382, "slack_id": "U099N19A8EB", "display_name": "abubakr", "bio": null, "projects_count": 0, "devlogs_count": 0, "votes_count": 0, "ships_count": 0, "projects": [], "coding_time_seconds": 0, "coding_time_seconds_today": 0, "balance": "You need to have a pocket watcher badge to view this.", "badges": [], "created_at": "2025-08-12T07:51:18.069-04:00", "updated_at": "2025-08-12T09:55:23.384-04:00", "avatar": "https://secure.gravatar.com/avatar/4191ea58338ec821fe9207ec60a8600d.jpg?s=512&d=https%3A%2F%2Fa.slack-edge.com%2Fdf10d%2Fimg%2Favatars%2Fava_0025-512.png", "custom_css": null}, {"id": 21383, "slack_id": "U099UCH7MA7", "display_name": "Alison", "bio": null, "projects_count": 0, "devlogs_count": 0, "votes_count": 0, "ships_count": 0, "projects": [], "coding_time_seconds": 0, "coding_time_seconds_today": 0, "balance": "You need to have a pocket watcher badge to view this.", "badges": [], "created_at": "2025-08-12T08:02:50.509-04:00", "updated_at": "2025-08-12T09:55:23.486-04:00", "avatar": "https://secure.gravatar.com/avatar/853034053670a16ed4558066fec84498.jpg?s=512&d=https%3A%2F%2Fa.slack-edge.com%2Fdf10d%2Fimg%2Favatars%2Fava_0012-512.png", "custom_css": null}, {"id": 21384, "slack_id": "U099ZHN2A5B", "display_name": "havicmn", "bio": null, "projects_count": 0, "devlogs_count": 0, "votes_count": 0, "ships_count": 0, "projects": [], "coding_time_seconds": 4919, "coding_time_seconds_today": 0, "balance": "You need to have a pocket watcher badge to view this.", "badges": [], "created_at": "2025-08-12T08:04:56.025-04:00", "updated_at": "2025-08-12T09:48:23.214-04:00", "avatar": "https://secure.gravatar.com/avatar/e4688a481f382905e72810cb9f7e7e5a.jpg?s=512&d=https%3A%2F%2Fa.slack-edge.com%2Fdf10d%2Fimg%2Favatars%2Fava_0016-512.png", "custom_css": null}, {"id": 21385, "slack_id": "U099X653HKL", "display_name": "Yunglee", "bio": null, "projects_count": 0, "devlogs_count": 0, "votes_count": 0, "ships_count": 0, "projects": [], "coding_time_seconds": 0, "coding_time_seconds_today": 0, "balance": "You need to have a pocket watcher badge to view this.", "badges": [], "created_at": "2025-08-12T08:05:37.019-04:00", "updated_at": "2025-08-12T09:55:23.634-04:00", "avatar": "https://secure.gravatar.com/avatar/daea2603fb8e895472fa6186a24808d6.jpg?s=512&d=https%3A%2F%2Fa.slack-edge.com%2Fdf10d%2Fimg%2Favatars%2Fava_0002-512.png", "custom_css": null}], "pagination": {"page": 1065, "pages": 1192, "count": 23828, "items": 20}}