{"users": [{"id": 21386, "slack_id": "U099ZMTQ669", "display_name": "Vivaan", "bio": null, "projects_count": 1, "devlogs_count": 0, "votes_count": 2, "ships_count": 0, "projects": [{"id": 11382, "title": "Nyra", "devlogs_count": 0, "created_at": "2025-08-15T11:57:13.989-04:00"}], "coding_time_seconds": 4905, "coding_time_seconds_today": 0, "balance": "You need to have a pocket watcher badge to view this.", "badges": [], "created_at": "2025-08-12T08:07:43.766-04:00", "updated_at": "2025-08-13T15:55:25.663-04:00", "avatar": "https://avatars.slack-edge.com/2025-08-13/9349508314710_db2b5c59cf026c7c080e_original.png", "custom_css": null}, {"id": 21387, "slack_id": "U09A04P2482", "display_name": "Ethan Ma", "bio": null, "projects_count": 0, "devlogs_count": 0, "votes_count": 0, "ships_count": 0, "projects": [], "coding_time_seconds": 0, "coding_time_seconds_today": 0, "balance": "You need to have a pocket watcher badge to view this.", "badges": [], "created_at": "2025-08-12T08:21:05.087-04:00", "updated_at": "2025-08-12T09:55:23.825-04:00", "avatar": "https://secure.gravatar.com/avatar/9f6e6b767f7b2814f405dd41b10ef88d.jpg?s=512&d=https%3A%2F%2Fa.slack-edge.com%2Fdf10d%2Fimg%2Favatars%2Fava_0022-512.png", "custom_css": null}, {"id": 21388, "slack_id": "U099W2YN8JZ", "display_name": "Zehra G\u00fcl B\u00fcy\u00fckarslan", "bio": null, "projects_count": 0, "devlogs_count": 0, "votes_count": 0, "ships_count": 0, "projects": [], "coding_time_seconds": 0, "coding_time_seconds_today": 0, "balance": "You need to have a pocket watcher badge to view this.", "badges": [], "created_at": "2025-08-12T08:25:04.174-04:00", "updated_at": "2025-08-12T09:55:27.962-04:00", "avatar": "https://secure.gravatar.com/avatar/e64b2b2edc1c88f34634a6e2f59a8b7b.jpg?s=512&d=https%3A%2F%2Fa.slack-edge.com%2Fdf10d%2Fimg%2Favatars%2Fava_0024-512.png", "custom_css": null}, {"id": 21389, "slack_id": "U09AP4HCK8Q", "display_name": "mo", "bio": null, "projects_count": 0, "devlogs_count": 0, "votes_count": 0, "ships_count": 0, "projects": [], "coding_time_seconds": 151713, "coding_time_seconds_today": 0, "balance": "You need to have a pocket watcher badge to view this.", "badges": [], "created_at": "2025-08-12T08:42:25.453-04:00", "updated_at": "2025-08-12T09:55:28.075-04:00", "avatar": "https://secure.gravatar.com/avatar/24fbdd6d9285a633ed447767753af837.jpg?s=512&d=https%3A%2F%2Fa.slack-edge.com%2Fdf10d%2Fimg%2Favatars%2Fava_0021-512.png", "custom_css": null}, {"id": 21390, "slack_id": "U099ZTG1UMT", "display_name": "Civan Ure", "bio": null, "projects_count": 0, "devlogs_count": 0, "votes_count": 0, "ships_count": 0, "projects": [], "coding_time_seconds": 0, "coding_time_seconds_today": 0, "balance": "You need to have a pocket watcher badge to view this.", "badges": [], "created_at": "2025-08-12T08:44:33.538-04:00", "updated_at": "2025-08-12T09:55:28.198-04:00", "avatar": "https://secure.gravatar.com/avatar/640cc0ccde7edad4ee8afe39cfc83119.jpg?s=512&d=https%3A%2F%2Fa.slack-edge.com%2Fdf10d%2Fimg%2Favatars%2Fava_0020-512.png", "custom_css": null}, {"id": 21391, "slack_id": "U09A45RRFRA", "display_name": "Mo", "bio": "", "projects_count": 0, "devlogs_count": 0, "votes_count": 0, "ships_count": 0, "projects": [], "coding_time_seconds": 0, "coding_time_seconds_today": 0, "balance": "You need to have a pocket watcher badge to view this.", "badges": [], "created_at": "2025-08-12T08:49:03.432-04:00", "updated_at": "2025-08-12T09:55:28.290-04:00", "avatar": "https://avatars.slack-edge.com/2025-08-12/9353494722369_d8232485cdbe589a7630_original.jpg", "custom_css": null}, {"id": 21392, "slack_id": "U099ZV2K1RB", "display_name": "Heval Dara (Darada'at)", "bio": null, "projects_count": 0, "devlogs_count": 0, "votes_count": 0, "ships_count": 0, "projects": [], "coding_time_seconds": 0, "coding_time_seconds_today": 0, "balance": "You need to have a pocket watcher badge to view this.", "badges": [], "created_at": "2025-08-12T08:55:27.350-04:00", "updated_at": "2025-08-12T09:55:28.393-04:00", "avatar": "https://avatars.slack-edge.com/2025-08-12/9339989054357_f841831ae6cafdd295c2_original.webp", "custom_css": null}, {"id": 21393, "slack_id": "U09A47RU9SQ", "display_name": "Raghav Sharma", "bio": null, "projects_count": 0, "devlogs_count": 0, "votes_count": 0, "ships_count": 0, "projects": [], "coding_time_seconds": 0, "coding_time_seconds_today": 0, "balance": "You need to have a pocket watcher badge to view this.", "badges": [], "created_at": "2025-08-12T09:01:31.544-04:00", "updated_at": "2025-08-12T09:55:28.498-04:00", "avatar": "https://secure.gravatar.com/avatar/e3efdf595d1086dbdb429d171c45bbd5.jpg?s=512&d=https%3A%2F%2Fa.slack-edge.com%2Fdf10d%2Fimg%2Favatars%2Fava_0006-512.png", "custom_css": null}, {"id": 21394, "slack_id": "U09A46M54KE", "display_name": "archita", "bio": null, "projects_count": 0, "devlogs_count": 0, "votes_count": 0, "ships_count": 0, "projects": [], "coding_time_seconds": 0, "coding_time_seconds_today": 0, "balance": "You need to have a pocket watcher badge to view this.", "badges": [], "created_at": "2025-08-12T09:01:37.947-04:00", "updated_at": "2025-08-12T09:55:28.598-04:00", "avatar": "https://secure.gravatar.com/avatar/fff6d36b380d98b7bcdb715b33d94712.jpg?s=512&d=https%3A%2F%2Fa.slack-edge.com%2Fdf10d%2Fimg%2Favatars%2Fava_0024-512.png", "custom_css": null}, {"id": 21395, "slack_id": "U09AT9KQTFA", "display_name": "Pradeesh S", "bio": null, "projects_count": 0, "devlogs_count": 0, "votes_count": 0, "ships_count": 0, "projects": [], "coding_time_seconds": 59962, "coding_time_seconds_today": 0, "balance": "You need to have a pocket watcher badge to view this.", "badges": [], "created_at": "2025-08-12T09:02:34.687-04:00", "updated_at": "2025-08-13T02:56:47.735-04:00", "avatar": "https://secure.gravatar.com/avatar/e9cde84ba1de472e6d18151176ea7611.jpg?s=512&d=https%3A%2F%2Fa.slack-edge.com%2Fdf10d%2Fimg%2Favatars%2Fava_0013-512.png", "custom_css": null}, {"id": 21396, "slack_id": "U099NBQJ3LP", "display_name": "Felix", "bio": "Heya!\r\n\r\nI'm Felix (aka. Kol) and I do web stuff!!\r\nStill pretty new but yea, I'm having fun! And that's all that mattress, right?? :P\r\n\r\nBai\r\n(\u2312\u25bd\u2312)\u2606", "projects_count": 1, "devlogs_count": 21, "votes_count": 29, "ships_count": 1, "projects": [{"id": 13399, "title": "Kournal", "devlogs_count": 20, "created_at": "2025-09-15T11:03:40.620-04:00"}], "coding_time_seconds": 133426, "coding_time_seconds_today": 0, "balance": "You need to have a pocket watcher badge to view this.", "badges": [{"name": "Maiden Voyage", "text": "you shipped your first project! the journey begins...", "icon": "\ud83d\udea2"}, {"name": "Yapper I", "text": "Posted 10 comments on devlogs.", "icon": "\ud83d\udcac"}], "created_at": "2025-08-12T09:03:59.925-04:00", "updated_at": "2025-09-21T14:17:35.870-04:00", "avatar": "https://avatars.slack-edge.com/2025-09-19/9577282930208_211113bda5052f47d86b_original.png", "custom_css": null}, {"id": 21397, "slack_id": "U099UPDAVKM", "display_name": "Omar Ali", "bio": null, "projects_count": 0, "devlogs_count": 0, "votes_count": 0, "ships_count": 0, "projects": [], "coding_time_seconds": 0, "coding_time_seconds_today": 0, "balance": "You need to have a pocket watcher badge to view this.", "badges": [], "created_at": "2025-08-12T09:13:30.515-04:00", "updated_at": "2025-08-12T09:55:29.118-04:00", "avatar": "https://avatars.slack-edge.com/2025-08-12/9334795805091_0c538607978f9c24ee2e_original.png", "custom_css": null}, {"id": 21398, "slack_id": "U09A23ML6TY", "display_name": "Hritish", "bio": null, "projects_count": 0, "devlogs_count": 0, "votes_count": 0, "ships_count": 0, "projects": [], "coding_time_seconds": 0, "coding_time_seconds_today": 0, "balance": "You need to have a pocket watcher badge to view this.", "badges": [], "created_at": "2025-08-12T09:40:20.884-04:00", "updated_at": "2025-08-12T09:55:29.197-04:00", "avatar": "https://secure.gravatar.com/avatar/3855cfcd506fbfc6d2824eac5c5d19cd.jpg?s=512&d=https%3A%2F%2Fa.slack-edge.com%2Fdf10d%2Fimg%2Favatars%2Fava_0016-512.png", "custom_css": null}, {"id": 21399, "slack_id": "U09A256V0J2", "display_name": "alongw", "bio": null, "projects_count": 0, "devlogs_count": 0, "votes_count": 0, "ships_count": 0, "projects": [], "coding_time_seconds": 0, "coding_time_seconds_today": 0, "balance": "You need to have a pocket watcher badge to view this.", "badges": [], "created_at": "2025-08-12T09:42:27.060-04:00", "updated_at": "2025-08-12T09:55:29.276-04:00", "avatar": "https://secure.gravatar.com/avatar/0a42dd696d2a70a0bf4bb042a3111418.jpg?s=512&d=https%3A%2F%2Fa.slack-edge.com%2Fdf10d%2Fimg%2Favatars%2Fava_0007-512.png", "custom_css": null}, {"id": 21400, "slack_id": "U099NK55AQ7", "display_name": "Faiz Khan", "bio": null, "projects_count": 0, "devlogs_count": 0, "votes_count": 0, "ships_count": 0, "projects": [], "coding_time_seconds": 0, "coding_time_seconds_today": 0, "balance": "You need to have a pocket watcher badge to view this.", "badges": [], "created_at": "2025-08-12T09:45:49.838-04:00", "updated_at": "2025-08-12T10:07:16.410-04:00", "avatar": "https://secure.gravatar.com/avatar/00033134c2fb66b5027e1dc39ed0b0e6.jpg?s=512&d=https%3A%2F%2Fa.slack-edge.com%2Fdf10d%2Fimg%2Favatars%2Fava_0004-512.png", "custom_css": null}, {"id": 21401, "slack_id": "U099UUQ7K9R", "display_name": "Layyin", "bio": null, "projects_count": 0, "devlogs_count": 0, "votes_count": 0, "ships_count": 0, "projects": [], "coding_time_seconds": 0, "coding_time_seconds_today": 0, "balance": "You need to have a pocket watcher badge to view this.", "badges": [], "created_at": "2025-08-12T09:47:40.579-04:00", "updated_at": "2025-08-12T09:55:29.535-04:00", "avatar": "https://secure.gravatar.com/avatar/c439185d2f968b58d810ceda3d68dedc.jpg?s=512&d=https%3A%2F%2Fa.slack-edge.com%2Fdf10d%2Fimg%2Favatars%2Fava_0021-512.png", "custom_css": null}, {"id": 21402, "slack_id": "U09ADQ0HDUH", "display_name": "Bisrat Girma", "bio": null, "projects_count": 0, "devlogs_count": 0, "votes_count": 0, "ships_count": 0, "projects": [], "coding_time_seconds": 0, "coding_time_seconds_today": 0, "balance": "You need to have a pocket watcher badge to view this.", "badges": [], "created_at": "2025-08-12T09:51:05.142-04:00", "updated_at": "2025-08-12T21:54:52.445-04:00", "avatar": "https://secure.gravatar.com/avatar/e03b45a084d66a43d754a8b633defbe8.jpg?s=512&d=https%3A%2F%2Fa.slack-edge.com%2Fdf10d%2Fimg%2Favatars%2Fava_0021-512.png", "custom_css": null}, {"id": 21403, "slack_id": "U09A4GWP5AQ", "display_name": "Daniel Gao", "bio": null, "projects_count": 0, "devlogs_count": 0, "votes_count": 0, "ships_count": 0, "projects": [], "coding_time_seconds": 13004, "coding_time_seconds_today": 0, "balance": "You need to have a pocket watcher badge to view this.", "badges": [], "created_at": "2025-08-12T09:53:06.704-04:00", "updated_at": "2025-08-12T21:54:52.570-04:00", "avatar": "https://secure.gravatar.com/avatar/817325a669855bf838f3d041d0a2a011.jpg?s=512&d=https%3A%2F%2Fa.slack-edge.com%2Fdf10d%2Fimg%2Favatars%2Fava_0017-512.png", "custom_css": null}, {"id": 21404, "slack_id": "U09A2BV9AEQ", "display_name": "museekee", "bio": null, "projects_count": 0, "devlogs_count": 0, "votes_count": 0, "ships_count": 0, "projects": [], "coding_time_seconds": 0, "coding_time_seconds_today": 0, "balance": "You need to have a pocket watcher badge to view this.", "badges": [], "created_at": "2025-08-12T10:31:16.447-04:00", "updated_at": "2025-08-12T21:54:52.694-04:00", "avatar": "https://secure.gravatar.com/avatar/ba42b7638cd726194baf20376f9a4109.jpg?s=512&d=https%3A%2F%2Fa.slack-edge.com%2Fdf10d%2Fimg%2Favatars%2Fava_0006-512.png", "custom_css": null}, {"id": 21405, "slack_id": "U09A4RG8UBE", "display_name": "Navraj chauhan", "bio": null, "projects_count": 0, "devlogs_count": 0, "votes_count": 0, "ships_count": 0, "projects": [], "coding_time_seconds": 0, "coding_time_seconds_today": 0, "balance": "You need to have a pocket watcher badge to view this.", "badges": [], "created_at": "2025-08-12T10:35:55.190-04:00", "updated_at": "2025-08-12T21:54:52.831-04:00", "avatar": "https://secure.gravatar.com/avatar/adeb422601a27cb2b49242b5321a0e53.jpg?s=512&d=https%3A%2F%2Fa.slack-edge.com%2Fdf10d%2Fimg%2Favatars%2Fava_0013-512.png", "custom_css": null}], "pagination": {"page": 1066, "pages": 1192, "count": 23828, "items": 20}}