{"users": [{"id": 21426, "slack_id": "U09AV3HDXCG", "display_name": "Corley", "bio": "", "projects_count": 3, "devlogs_count": 16, "votes_count": 58, "ships_count": 2, "projects": [{"id": 12938, "title": "Minecraft Tardis Datapack", "devlogs_count": 4, "created_at": "2025-09-05T17:47:02.604-04:00"}, {"id": 11041, "title": "Multi Purpose Discord Bot", "devlogs_count": 4, "created_at": "2025-08-12T16:01:09.487-04:00"}, {"id": 11609, "title": "Rate Driving Website", "devlogs_count": 8, "created_at": "2025-08-17T16:59:55.059-04:00"}], "coding_time_seconds": 149614, "coding_time_seconds_today": 0, "balance": "You need to have a pocket watcher badge to view this.", "badges": [], "created_at": "2025-08-12T13:45:54.356-04:00", "updated_at": "2025-08-12T21:55:02.908-04:00", "avatar": "https://secure.gravatar.com/avatar/b054e4a3b50b9c898e717d9c6bc5b197.jpg?s=512&d=https%3A%2F%2Fa.slack-edge.com%2Fdf10d%2Fimg%2Favatars%2Fava_0006-512.png", "custom_css": null}, {"id": 21427, "slack_id": "U09A3U4TZGE", "display_name": "Kristian Baraka", "bio": null, "projects_count": 0, "devlogs_count": 0, "votes_count": 0, "ships_count": 0, "projects": [], "coding_time_seconds": 3586, "coding_time_seconds_today": 0, "balance": "You need to have a pocket watcher badge to view this.", "badges": [], "created_at": "2025-08-12T13:49:10.964-04:00", "updated_at": "2025-08-12T21:55:03.002-04:00", "avatar": "https://avatars.slack-edge.com/2025-08-12/9369368740896_875a6a7fc46879bad20b_original.jpg", "custom_css": null}, {"id": 21428, "slack_id": "U09A62NA0FN", "display_name": "Michelle Maduafokwa", "bio": null, "projects_count": 0, "devlogs_count": 0, "votes_count": 0, "ships_count": 0, "projects": [], "coding_time_seconds": 0, "coding_time_seconds_today": 0, "balance": "You need to have a pocket watcher badge to view this.", "badges": [], "created_at": "2025-08-12T13:49:50.186-04:00", "updated_at": "2025-08-12T21:55:03.088-04:00", "avatar": "https://avatars.slack-edge.com/2025-08-12/9341843039093_0d6068acec484fc4e3c8_original.jpg", "custom_css": null}, {"id": 21429, "slack_id": "U09A29GT5DY", "display_name": "Justu", "bio": null, "projects_count": 0, "devlogs_count": 0, "votes_count": 0, "ships_count": 0, "projects": [], "coding_time_seconds": 0, "coding_time_seconds_today": 0, "balance": "You need to have a pocket watcher badge to view this.", "badges": [], "created_at": "2025-08-12T13:51:27.298-04:00", "updated_at": "2025-08-12T21:55:07.274-04:00", "avatar": "https://secure.gravatar.com/avatar/5b20a02997f38fb7ea47926bc1c18d93.jpg?s=512&d=https%3A%2F%2Fa.slack-edge.com%2Fdf10d%2Fimg%2Favatars%2Fava_0020-512.png", "custom_css": null}, {"id": 21430, "slack_id": "U09A62YTSLU", "display_name": "Pranav Ayitha", "bio": null, "projects_count": 0, "devlogs_count": 0, "votes_count": 0, "ships_count": 0, "projects": [], "coding_time_seconds": 0, "coding_time_seconds_today": 0, "balance": "You need to have a pocket watcher badge to view this.", "badges": [], "created_at": "2025-08-12T13:51:45.493-04:00", "updated_at": "2025-08-12T21:55:07.373-04:00", "avatar": "https://avatars.slack-edge.com/2025-08-12/9355309796241_68096db2f058c9f031cd_original.png", "custom_css": null}, {"id": 21431, "slack_id": "U09A41TQ93Q", "display_name": "Adnan", "bio": null, "projects_count": 0, "devlogs_count": 0, "votes_count": 0, "ships_count": 0, "projects": [], "coding_time_seconds": 0, "coding_time_seconds_today": 0, "balance": "You need to have a pocket watcher badge to view this.", "badges": [], "created_at": "2025-08-12T14:09:24.147-04:00", "updated_at": "2025-08-12T21:55:07.535-04:00", "avatar": "https://avatars.slack-edge.com/2025-08-12/9346257003348_f55a5a4ddb48bf1adbd9_original.png", "custom_css": null}, {"id": 21432, "slack_id": "U08NMTN1NG4", "display_name": "Dortuff Ya", "bio": null, "projects_count": 0, "devlogs_count": 0, "votes_count": 0, "ships_count": 0, "projects": [], "coding_time_seconds": 0, "coding_time_seconds_today": 0, "balance": "You need to have a pocket watcher badge to view this.", "badges": [], "created_at": "2025-08-12T14:15:33.433-04:00", "updated_at": "2025-08-12T21:55:07.700-04:00", "avatar": "https://avatars.slack-edge.com/2025-04-16/8751242595687_69ccc9824f7e1f810508_original.jpg", "custom_css": null}, {"id": 21433, "slack_id": "U09A21WH1UM", "display_name": "\u043b\u0435\u0440\u0430 \u0441\u043e\u043b\u043e\u0434\u0443\u0445\u0430", "bio": null, "projects_count": 0, "devlogs_count": 0, "votes_count": 0, "ships_count": 0, "projects": [], "coding_time_seconds": 0, "coding_time_seconds_today": 0, "balance": "You need to have a pocket watcher badge to view this.", "badges": [], "created_at": "2025-08-12T14:31:45.419-04:00", "updated_at": "2025-08-12T21:55:07.797-04:00", "avatar": "https://avatars.slack-edge.com/2025-08-12/9336746816547_95aa50a505c000dde455_original.jpg", "custom_css": null}, {"id": 21434, "slack_id": "U09AVDBD6JU", "display_name": "Himanshu.Mishra", "bio": null, "projects_count": 0, "devlogs_count": 0, "votes_count": 0, "ships_count": 0, "projects": [], "coding_time_seconds": 0, "coding_time_seconds_today": 0, "balance": "You need to have a pocket watcher badge to view this.", "badges": [], "created_at": "2025-08-12T14:46:06.966-04:00", "updated_at": "2025-08-12T21:55:08.011-04:00", "avatar": "https://secure.gravatar.com/avatar/ebdc64e417f3357c0a8e1b315a58a3e0.jpg?s=512&d=https%3A%2F%2Fa.slack-edge.com%2Fdf10d%2Fimg%2Favatars%2Fava_0008-512.png", "custom_css": null}, {"id": 21435, "slack_id": "U09A6FCR2RJ", "display_name": "HK", "bio": null, "projects_count": 0, "devlogs_count": 0, "votes_count": 0, "ships_count": 0, "projects": [], "coding_time_seconds": 0, "coding_time_seconds_today": 0, "balance": "You need to have a pocket watcher badge to view this.", "badges": [], "created_at": "2025-08-12T15:05:51.786-04:00", "updated_at": "2025-08-12T21:55:08.195-04:00", "avatar": "https://secure.gravatar.com/avatar/0a17730804d2a4fa998d7a60a19033bd.jpg?s=512&d=https%3A%2F%2Fa.slack-edge.com%2Fdf10d%2Fimg%2Favatars%2Fava_0019-512.png", "custom_css": null}, {"id": 21436, "slack_id": "U09AFM95SGZ", "display_name": "Tom", "bio": null, "projects_count": 0, "devlogs_count": 0, "votes_count": 0, "ships_count": 0, "projects": [], "coding_time_seconds": 540, "coding_time_seconds_today": 0, "balance": "You need to have a pocket watcher badge to view this.", "badges": [], "created_at": "2025-08-12T15:09:24.650-04:00", "updated_at": "2025-08-12T21:55:08.350-04:00", "avatar": "https://secure.gravatar.com/avatar/861331ae1ec9f95049d8f14c98740520.jpg?s=512&d=https%3A%2F%2Fa.slack-edge.com%2Fdf10d%2Fimg%2Favatars%2Fava_0017-512.png", "custom_css": null}, {"id": 21437, "slack_id": "U09A30BM35G", "display_name": "Haemant", "bio": null, "projects_count": 4, "devlogs_count": 1, "votes_count": 0, "ships_count": 0, "projects": [{"id": 11205, "title": "Manimo", "devlogs_count": 0, "created_at": "2025-08-14T03:59:54.392-04:00"}, {"id": 11206, "title": "EpochNotes", "devlogs_count": 0, "created_at": "2025-08-14T04:06:07.583-04:00"}, {"id": 12189, "title": "Web Marker ", "devlogs_count": 0, "created_at": "2025-08-24T07:03:16.849-04:00"}, {"id": 12389, "title": "A simple Tic Tac Toe game ", "devlogs_count": 1, "created_at": "2025-08-26T15:53:01.234-04:00"}], "coding_time_seconds": 109066, "coding_time_seconds_today": 1493, "balance": "You need to have a pocket watcher badge to view this.", "badges": [], "created_at": "2025-08-12T15:57:07.224-04:00", "updated_at": "2025-08-12T21:55:08.450-04:00", "avatar": "https://secure.gravatar.com/avatar/9b00849731532f65ae2a4ae4ad5ea506.jpg?s=512&d=https%3A%2F%2Fa.slack-edge.com%2Fdf10d%2Fimg%2Favatars%2Fava_0012-512.png", "custom_css": null}, {"id": 21438, "slack_id": "U09A32W4RRQ", "display_name": "Marwan Nady", "bio": null, "projects_count": 0, "devlogs_count": 0, "votes_count": 0, "ships_count": 0, "projects": [], "coding_time_seconds": 0, "coding_time_seconds_today": 0, "balance": "You need to have a pocket watcher badge to view this.", "badges": [], "created_at": "2025-08-12T16:19:17.640-04:00", "updated_at": "2025-08-12T21:55:08.558-04:00", "avatar": "https://secure.gravatar.com/avatar/7bd9e6d8d5ff600361c0c0e8c2e77f38.jpg?s=512&d=https%3A%2F%2Fa.slack-edge.com%2Fdf10d%2Fimg%2Favatars%2Fava_0009-512.png", "custom_css": null}, {"id": 21439, "slack_id": "U09AVTTT3K2", "display_name": "Raul", "bio": null, "projects_count": 0, "devlogs_count": 0, "votes_count": 0, "ships_count": 0, "projects": [], "coding_time_seconds": 0, "coding_time_seconds_today": 0, "balance": "You need to have a pocket watcher badge to view this.", "badges": [], "created_at": "2025-08-12T16:21:25.232-04:00", "updated_at": "2025-08-12T21:55:08.674-04:00", "avatar": "https://secure.gravatar.com/avatar/5b38e0d0fec5e18a6b495204538bfb0f.jpg?s=512&d=https%3A%2F%2Fa.slack-edge.com%2Fdf10d%2Fimg%2Favatars%2Fava_0003-512.png", "custom_css": null}, {"id": 21440, "slack_id": "U09A34D1N74", "display_name": "Emma", "bio": null, "projects_count": 0, "devlogs_count": 0, "votes_count": 0, "ships_count": 0, "projects": [], "coding_time_seconds": 0, "coding_time_seconds_today": 0, "balance": "You need to have a pocket watcher badge to view this.", "badges": [], "created_at": "2025-08-12T16:26:30.234-04:00", "updated_at": "2025-08-12T21:55:08.763-04:00", "avatar": "https://secure.gravatar.com/avatar/6faa5172977276048c0a222b8ba7a184.jpg?s=512&d=https%3A%2F%2Fa.slack-edge.com%2Fdf10d%2Fimg%2Favatars%2Fava_0001-512.png", "custom_css": null}, {"id": 21441, "slack_id": "U09A4VBQ06A", "display_name": "Tanya Shriram", "bio": null, "projects_count": 0, "devlogs_count": 0, "votes_count": 0, "ships_count": 0, "projects": [], "coding_time_seconds": 0, "coding_time_seconds_today": 0, "balance": "You need to have a pocket watcher badge to view this.", "badges": [], "created_at": "2025-08-12T16:47:40.593-04:00", "updated_at": "2025-08-12T21:55:08.871-04:00", "avatar": "https://secure.gravatar.com/avatar/f2d5a3083ddfa5409b5ef83c080eab73.jpg?s=512&d=https%3A%2F%2Fa.slack-edge.com%2Fdf10d%2Fimg%2Favatars%2Fava_0004-512.png", "custom_css": null}, {"id": 21442, "slack_id": "U09A3DQ1X26", "display_name": "aaaaaaaaa", "bio": null, "projects_count": 0, "devlogs_count": 0, "votes_count": 0, "ships_count": 0, "projects": [], "coding_time_seconds": 0, "coding_time_seconds_today": 0, "balance": "You need to have a pocket watcher badge to view this.", "badges": [], "created_at": "2025-08-12T17:32:43.318-04:00", "updated_at": "2025-08-12T21:55:08.972-04:00", "avatar": "https://secure.gravatar.com/avatar/2d566127cf34f4217ce99a900a7a15a1.jpg?s=512&d=https%3A%2F%2Fa.slack-edge.com%2Fdf10d%2Fimg%2Favatars%2Fava_0004-512.png", "custom_css": null}, {"id": 21443, "slack_id": "U099XL562M9", "display_name": "TheShovel", "bio": null, "projects_count": 4, "devlogs_count": 18, "votes_count": 93, "ships_count": 4, "projects": [{"id": 11052, "title": "Block AI", "devlogs_count": 1, "created_at": "2025-08-12T18:27:43.142-04:00"}, {"id": 11079, "title": "The Garden", "devlogs_count": 5, "created_at": "2025-08-13T03:36:08.015-04:00"}, {"id": 11284, "title": "Shaving simulator", "devlogs_count": 5, "created_at": "2025-08-14T15:14:12.998-04:00"}, {"id": 11447, "title": "Brick fishing", "devlogs_count": 7, "created_at": "2025-08-16T01:54:29.537-04:00"}], "coding_time_seconds": 113707, "coding_time_seconds_today": 0, "balance": "You need to have a pocket watcher badge to view this.", "badges": [], "created_at": "2025-08-12T17:44:56.921-04:00", "updated_at": "2025-08-13T03:22:38.212-04:00", "avatar": "https://avatars.slack-edge.com/2025-08-12/9343535827426_d4d34002dbdd8f6fb7a6_original.png", "custom_css": null}, {"id": 21444, "slack_id": "U099RDQNQHM", "display_name": "GOAT", "bio": null, "projects_count": 0, "devlogs_count": 0, "votes_count": 0, "ships_count": 0, "projects": [], "coding_time_seconds": 1808, "coding_time_seconds_today": 0, "balance": "You need to have a pocket watcher badge to view this.", "badges": [], "created_at": "2025-08-12T17:53:50.637-04:00", "updated_at": "2025-08-26T18:41:38.660-04:00", "avatar": "https://secure.gravatar.com/avatar/17452835d1bc5b881daa1bee16e04451.jpg?s=512&d=https%3A%2F%2Fa.slack-edge.com%2Fdf10d%2Fimg%2Favatars%2Fava_0021-512.png", "custom_css": null}, {"id": 21445, "slack_id": "U09A7BAAD0U", "display_name": "Elise Heaton", "bio": "", "projects_count": 1, "devlogs_count": 0, "votes_count": 0, "ships_count": 0, "projects": [{"id": 11179, "title": "sea otter site", "devlogs_count": 0, "created_at": "2025-08-13T21:02:38.794-04:00"}], "coding_time_seconds": 3750, "coding_time_seconds_today": 0, "balance": "You need to have a pocket watcher badge to view this.", "badges": [], "created_at": "2025-08-12T18:09:12.239-04:00", "updated_at": "2025-08-13T16:46:12.756-04:00", "avatar": "https://secure.gravatar.com/avatar/eacde9b5616eba04029ebaa6bf9bee86.jpg?s=512&d=https%3A%2F%2Fa.slack-edge.com%2Fdf10d%2Fimg%2Favatars%2Fava_0003-512.png", "custom_css": null}], "pagination": {"page": 1068, "pages": 1192, "count": 23828, "items": 20}}