{"users": [{"id": 21446, "slack_id": "U09A3JS5Y3C", "display_name": "gle", "bio": null, "projects_count": 0, "devlogs_count": 0, "votes_count": 0, "ships_count": 0, "projects": [], "coding_time_seconds": 0, "coding_time_seconds_today": 0, "balance": "You need to have a pocket watcher badge to view this.", "badges": [], "created_at": "2025-08-12T18:16:07.682-04:00", "updated_at": "2025-09-12T03:53:43.547-04:00", "avatar": "https://secure.gravatar.com/avatar/0b988b178c3ea08e8f4b2615ee9c69db.jpg?s=512&d=https%3A%2F%2Fa.slack-edge.com%2Fdf10d%2Fimg%2Favatars%2Fava_0019-512.png", "custom_css": null}, {"id": 21447, "slack_id": "U099XQCQ29H", "display_name": "Vihan Raman", "bio": null, "projects_count": 1, "devlogs_count": 3, "votes_count": 0, "ships_count": 0, "projects": [{"id": 11272, "title": "OpenBoard", "devlogs_count": 3, "created_at": "2025-08-14T13:08:23.622-04:00"}], "coding_time_seconds": 33329, "coding_time_seconds_today": 0, "balance": "You need to have a pocket watcher badge to view this.", "badges": [], "created_at": "2025-08-12T18:24:06.849-04:00", "updated_at": "2025-08-17T12:52:03.074-04:00", "avatar": "https://secure.gravatar.com/avatar/deb0e21893ce246d2356445d9edc6d8d.jpg?s=512&d=https%3A%2F%2Fa.slack-edge.com%2Fdf10d%2Fimg%2Favatars%2Fava_0007-512.png", "custom_css": null}, {"id": 21448, "slack_id": "U09AGJ17SKT", "display_name": "Afrah", "bio": null, "projects_count": 0, "devlogs_count": 0, "votes_count": 0, "ships_count": 0, "projects": [], "coding_time_seconds": 0, "coding_time_seconds_today": 0, "balance": "You need to have a pocket watcher badge to view this.", "badges": [], "created_at": "2025-08-12T18:31:00.328-04:00", "updated_at": "2025-08-12T21:55:09.537-04:00", "avatar": "https://secure.gravatar.com/avatar/c6417509d253dae87b7f492e314dfaa7.jpg?s=512&d=https%3A%2F%2Fa.slack-edge.com%2Fdf10d%2Fimg%2Favatars%2Fava_0019-512.png", "custom_css": null}, {"id": 21449, "slack_id": "U07R65CNCRW", "display_name": "Alicia", "bio": null, "projects_count": 1, "devlogs_count": 0, "votes_count": 1, "ships_count": 0, "projects": [{"id": 11146, "title": "Beach List", "devlogs_count": 0, "created_at": "2025-08-13T14:07:22.399-04:00"}], "coding_time_seconds": 15986, "coding_time_seconds_today": 0, "balance": "You need to have a pocket watcher badge to view this.", "badges": [], "created_at": "2025-08-12T18:39:29.229-04:00", "updated_at": "2025-08-13T01:13:17.327-04:00", "avatar": "https://secure.gravatar.com/avatar/d09e3fa50b9af7f44e9ee66271175da1.jpg?s=512&d=https%3A%2F%2Fa.slack-edge.com%2Fdf10d%2Fimg%2Favatars%2Fava_0020-512.png", "custom_css": null}, {"id": 21450, "slack_id": "U099XN466NP", "display_name": "unknow", "bio": null, "projects_count": 0, "devlogs_count": 0, "votes_count": 0, "ships_count": 0, "projects": [], "coding_time_seconds": 0, "coding_time_seconds_today": 0, "balance": "You need to have a pocket watcher badge to view this.", "badges": [], "created_at": "2025-08-12T18:48:29.429-04:00", "updated_at": "2025-08-12T21:55:09.705-04:00", "avatar": "https://secure.gravatar.com/avatar/46af37880005d6f29dc7be405a986613.jpg?s=512&d=https%3A%2F%2Fa.slack-edge.com%2Fdf10d%2Fimg%2Favatars%2Fava_0009-512.png", "custom_css": null}, {"id": 21451, "slack_id": "U09A7GEM760", "display_name": "Sadiya M", "bio": null, "projects_count": 2, "devlogs_count": 24, "votes_count": 73, "ships_count": 2, "projects": [{"id": 12601, "title": "\u2728 Motivation App \ud83c\udf1f", "devlogs_count": 7, "created_at": "2025-08-30T09:49:59.445-04:00"}, {"id": 12499, "title": "Tic Tac Toe", "devlogs_count": 17, "created_at": "2025-08-28T13:19:45.059-04:00"}], "coding_time_seconds": 212375, "coding_time_seconds_today": 0, "balance": "You need to have a pocket watcher badge to view this.", "badges": [], "created_at": "2025-08-12T19:01:27.939-04:00", "updated_at": "2025-09-14T15:15:58.498-04:00", "avatar": "https://avatars.slack-edge.com/2025-09-14/9519595228532_607b3e7d1327eee50337_original.png", "custom_css": null}, {"id": 21452, "slack_id": "U09A7H1UFQU", "display_name": "Erin Hua", "bio": null, "projects_count": 0, "devlogs_count": 0, "votes_count": 0, "ships_count": 0, "projects": [], "coding_time_seconds": 0, "coding_time_seconds_today": 0, "balance": "You need to have a pocket watcher badge to view this.", "badges": [], "created_at": "2025-08-12T19:07:35.428-04:00", "updated_at": "2025-08-12T21:55:09.928-04:00", "avatar": "https://avatars.slack-edge.com/2025-08-12/9343380844117_d1f2391ff17b330c8d92_original.jpg", "custom_css": null}, {"id": 21453, "slack_id": "U09A3P79BNE", "display_name": "Jessie Victorino", "bio": null, "projects_count": 0, "devlogs_count": 0, "votes_count": 0, "ships_count": 0, "projects": [], "coding_time_seconds": 0, "coding_time_seconds_today": 0, "balance": "You need to have a pocket watcher badge to view this.", "badges": [], "created_at": "2025-08-12T19:08:40.744-04:00", "updated_at": "2025-08-12T21:55:10.021-04:00", "avatar": "https://secure.gravatar.com/avatar/196e9888f8ac6329151d27e3a0da40d4.jpg?s=512&d=https%3A%2F%2Fa.slack-edge.com%2Fdf10d%2Fimg%2Favatars%2Fava_0026-512.png", "custom_css": null}, {"id": 21454, "slack_id": "U08R9DCCZCG", "display_name": "Kripa Subedi", "bio": null, "projects_count": 0, "devlogs_count": 0, "votes_count": 0, "ships_count": 0, "projects": [], "coding_time_seconds": 0, "coding_time_seconds_today": 0, "balance": "You need to have a pocket watcher badge to view this.", "badges": [], "created_at": "2025-08-12T19:11:22.532-04:00", "updated_at": "2025-08-12T21:55:10.120-04:00", "avatar": "https://avatars.slack-edge.com/2025-05-01/8839892241252_aed05fc5ee27373ddd2c_original.png", "custom_css": null}, {"id": 21455, "slack_id": "U099M9C9L8M", "display_name": "Keyla Hernandez", "bio": null, "projects_count": 0, "devlogs_count": 0, "votes_count": 0, "ships_count": 0, "projects": [], "coding_time_seconds": 0, "coding_time_seconds_today": 0, "balance": "You need to have a pocket watcher badge to view this.", "badges": [], "created_at": "2025-08-12T19:30:54.921-04:00", "updated_at": "2025-08-12T21:55:10.226-04:00", "avatar": "https://avatars.slack-edge.com/2025-08-12/9343881798930_e5d64aa10eee033119c9_original.png", "custom_css": null}, {"id": 21456, "slack_id": "U09A3RMJ1PU", "display_name": "Voxi0", "bio": "16yo computer science, programming and Linux/Nix enthusiast who loves games like DOOM, Half-Life, Ultrakill, Silent Hill 2 and all :D", "projects_count": 3, "devlogs_count": 9, "votes_count": 28, "ships_count": 2, "projects": [{"id": 11198, "title": "thymos", "devlogs_count": 6, "created_at": "2025-08-14T02:17:32.831-04:00"}, {"id": 12823, "title": "NixDots", "devlogs_count": 1, "created_at": "2025-09-03T09:43:22.554-04:00"}, {"id": 11722, "title": "my personal site", "devlogs_count": 2, "created_at": "2025-08-18T19:41:42.813-04:00"}], "coding_time_seconds": 203067, "coding_time_seconds_today": 0, "balance": "You need to have a pocket watcher badge to view this.", "badges": [], "created_at": "2025-08-12T19:32:48.874-04:00", "updated_at": "2025-08-14T18:00:11.453-04:00", "avatar": "https://avatars.slack-edge.com/2025-08-14/9339850299783_8c883db8f1a719cb059f_original.jpg", "custom_css": "/* Profile positioning */\r\nbody {\r\n  font-size: 14px;\r\n  display: flex;\r\n  flex-direction: column;\r\n  align-items: center;\r\n}\r\n\r\n/* \"Edit your profile\" button */\r\n.som-button-primary {\r\n  background: #000 !important;\r\n  border: 3px solid #f00;\r\n  border-radius: 16px;\r\n}\r\n\r\n/* Profile */\r\n.profile-container :is(h1, h2, h3, p, a) {\r\n  color: #fff !important;\r\n}\r\n.profile-container {\r\n  background: #000 !important;\r\n  margin: 1em;\r\n  border-radius: 16px;\r\n}\r\n.profile-container .card-with-gradient {\r\n  border: 3px solid #f00;\r\n  border-radius: 16px;\r\n}\r\n.profile-container div {\r\n  background: #000 !important;\r\n  color: #fff;\r\n}\r\n\r\n/* Profile picture */\r\n.profile-avatar:hover {transform: scale(1.1);}\r\n.profile-avatar {\r\n  width: 120px;\r\n  height: auto;\r\n  border: 2px solid #f00;\r\n  border-radius: 16px;\r\n  filter: drop-shadow(1px 4px 4px #f00);\r\n  transition: transform 0.3s ease;\r\n}"}, {"id": 21457, "slack_id": "U099RR0TXMM", "display_name": "Yurim", "bio": null, "projects_count": 0, "devlogs_count": 0, "votes_count": 0, "ships_count": 0, "projects": [], "coding_time_seconds": 0, "coding_time_seconds_today": 0, "balance": "You need to have a pocket watcher badge to view this.", "badges": [], "created_at": "2025-08-12T19:50:26.762-04:00", "updated_at": "2025-08-12T21:55:10.413-04:00", "avatar": "https://secure.gravatar.com/avatar/96ba2b0c764f735a4ab9845c773553b4.jpg?s=512&d=https%3A%2F%2Fa.slack-edge.com%2Fdf10d%2Fimg%2Favatars%2Fava_0010-512.png", "custom_css": null}, {"id": 21458, "slack_id": "U088B1NMJAX", "display_name": "Parsa", "bio": null, "projects_count": 0, "devlogs_count": 0, "votes_count": 0, "ships_count": 0, "projects": [], "coding_time_seconds": 0, "coding_time_seconds_today": 0, "balance": "You need to have a pocket watcher badge to view this.", "badges": [], "created_at": "2025-08-12T19:56:48.139-04:00", "updated_at": "2025-08-12T21:55:10.505-04:00", "avatar": "https://secure.gravatar.com/avatar/1b15e55c84da98013744da735bf5130b.jpg?s=512&d=https%3A%2F%2Fa.slack-edge.com%2Fdf10d%2Fimg%2Favatars%2Fava_0023-512.png", "custom_css": null}, {"id": 21459, "slack_id": "U09AGSWAS0Z", "display_name": "Liam Melick", "bio": null, "projects_count": 0, "devlogs_count": 0, "votes_count": 0, "ships_count": 0, "projects": [], "coding_time_seconds": 1104, "coding_time_seconds_today": 0, "balance": "You need to have a pocket watcher badge to view this.", "badges": [], "created_at": "2025-08-12T20:07:45.575-04:00", "updated_at": "2025-08-12T21:55:10.602-04:00", "avatar": "https://avatars.slack-edge.com/2025-08-12/9347773117860_de362601274025bcb518_original.png", "custom_css": null}, {"id": 21460, "slack_id": "U09A7Q4HGHJ", "display_name": "THEBleakDisc", "bio": null, "projects_count": 0, "devlogs_count": 0, "votes_count": 0, "ships_count": 0, "projects": [], "coding_time_seconds": 0, "coding_time_seconds_today": 0, "balance": "You need to have a pocket watcher badge to view this.", "badges": [], "created_at": "2025-08-12T20:27:43.727-04:00", "updated_at": "2025-08-12T21:55:10.709-04:00", "avatar": "https://secure.gravatar.com/avatar/454d8b0760908b447b5fbb8ba413a8c9.jpg?s=512&d=https%3A%2F%2Fa.slack-edge.com%2Fdf10d%2Fimg%2Favatars%2Fava_0002-512.png", "custom_css": null}, {"id": 21461, "slack_id": "U099RUG2Z0X", "display_name": "Inam Ul Haq", "bio": null, "projects_count": 0, "devlogs_count": 0, "votes_count": 0, "ships_count": 0, "projects": [], "coding_time_seconds": 202, "coding_time_seconds_today": 0, "balance": "You need to have a pocket watcher badge to view this.", "badges": [], "created_at": "2025-08-12T20:34:10.983-04:00", "updated_at": "2025-08-12T21:55:10.808-04:00", "avatar": "https://secure.gravatar.com/avatar/d81e7f3d9d3e71076a9ca69137a2f5f2.jpg?s=512&d=https%3A%2F%2Fa.slack-edge.com%2Fdf10d%2Fimg%2Favatars%2Fava_0024-512.png", "custom_css": null}, {"id": 21462, "slack_id": "U09A447GAQJ", "display_name": "Qasim Raza", "bio": null, "projects_count": 0, "devlogs_count": 0, "votes_count": 0, "ships_count": 0, "projects": [], "coding_time_seconds": 0, "coding_time_seconds_today": 0, "balance": "You need to have a pocket watcher badge to view this.", "badges": [], "created_at": "2025-08-12T21:05:51.706-04:00", "updated_at": "2025-08-12T21:55:10.920-04:00", "avatar": "https://secure.gravatar.com/avatar/057634a0a2bb3b8125969ae72a4a4566.jpg?s=512&d=https%3A%2F%2Fa.slack-edge.com%2Fdf10d%2Fimg%2Favatars%2Fava_0011-512.png", "custom_css": null}, {"id": 21463, "slack_id": "U09A44N10D8", "display_name": "Harshitha Sadhvi.D", "bio": null, "projects_count": 0, "devlogs_count": 0, "votes_count": 0, "ships_count": 0, "projects": [], "coding_time_seconds": 0, "coding_time_seconds_today": 0, "balance": "You need to have a pocket watcher badge to view this.", "badges": [], "created_at": "2025-08-12T21:14:29.732-04:00", "updated_at": "2025-08-12T21:55:11.015-04:00", "avatar": "https://avatars.slack-edge.com/2025-08-12/9338357133299_687eb1347862b2e2792f_original.png", "custom_css": null}, {"id": 21464, "slack_id": "U09AX0APGL8", "display_name": "Arianna R", "bio": null, "projects_count": 0, "devlogs_count": 0, "votes_count": 0, "ships_count": 0, "projects": [], "coding_time_seconds": 107243, "coding_time_seconds_today": 0, "balance": "You need to have a pocket watcher badge to view this.", "badges": [], "created_at": "2025-08-12T21:18:45.661-04:00", "updated_at": "2025-08-25T11:31:16.277-04:00", "avatar": "https://secure.gravatar.com/avatar/076c29b0ea293295c08d7a723bf9f434.jpg?s=512&d=https%3A%2F%2Fa.slack-edge.com%2Fdf10d%2Fimg%2Favatars%2Fava_0001-512.png", "custom_css": null}, {"id": 21465, "slack_id": "U09A80UE6A0", "display_name": "Zander Coffman", "bio": null, "projects_count": 0, "devlogs_count": 0, "votes_count": 0, "ships_count": 0, "projects": [], "coding_time_seconds": 0, "coding_time_seconds_today": 0, "balance": "You need to have a pocket watcher badge to view this.", "badges": [], "created_at": "2025-08-12T21:32:07.887-04:00", "updated_at": "2025-08-12T21:55:11.207-04:00", "avatar": "https://avatars.slack-edge.com/2025-08-12/9348028900308_7c3f6390562f0ea53c24_original.png", "custom_css": null}], "pagination": {"page": 1069, "pages": 1192, "count": 23828, "items": 20}}