{"users": [{"id": 2121, "slack_id": "U091Q29EWN6", "display_name": "AARCHANA L NICHANI", "bio": null, "projects_count": 1, "devlogs_count": 0, "votes_count": 0, "ships_count": 0, "projects": [{"id": 5924, "title": "LinkStash", "devlogs_count": 0, "created_at": "2025-07-09T06:19:30.939-04:00"}], "coding_time_seconds": 18485, "coding_time_seconds_today": 0, "balance": "You need to have a pocket watcher badge to view this.", "badges": [], "created_at": "2025-06-16T14:47:23.131-04:00", "updated_at": "2025-07-03T19:20:49.193-04:00", "avatar": "https://secure.gravatar.com/avatar/37a558bf6fd6e189db5f29deaac72a25.jpg?s=512&d=https%3A%2F%2Fa.slack-edge.com%2Fdf10d%2Fimg%2Favatars%2Fava_0018-512.png", "custom_css": null}, {"id": 2122, "slack_id": "U0922J8AX7T", "display_name": "demo account", "bio": null, "projects_count": 0, "devlogs_count": 0, "votes_count": 0, "ships_count": 0, "projects": [], "coding_time_seconds": 0, "coding_time_seconds_today": 0, "balance": "You need to have a pocket watcher badge to view this.", "badges": [], "created_at": "2025-06-16T14:47:31.446-04:00", "updated_at": "2025-07-03T19:20:49.456-04:00", "avatar": "https://secure.gravatar.com/avatar/fce001c7331b8c97b2c74997aa52c0dc.jpg?s=512&d=https%3A%2F%2Fa.slack-edge.com%2Fdf10d%2Fimg%2Favatars%2Fava_0015-512.png", "custom_css": null}, {"id": 2123, "slack_id": "U07DZG8LYBZ", "display_name": "Kat", "bio": null, "projects_count": 0, "devlogs_count": 0, "votes_count": 0, "ships_count": 0, "projects": [], "coding_time_seconds": 0, "coding_time_seconds_today": 0, "balance": "You need to have a pocket watcher badge to view this.", "badges": [], "created_at": "2025-06-16T14:47:39.014-04:00", "updated_at": "2025-07-03T19:20:49.788-04:00", "avatar": "https://avatars.slack-edge.com/2024-07-30/7497832874261_b1768822f791474df2dd_original.png", "custom_css": null}, {"id": 2124, "slack_id": "U091N8402TX", "display_name": "Aryan Jangra", "bio": null, "projects_count": 1, "devlogs_count": 0, "votes_count": 0, "ships_count": 0, "projects": [{"id": 179, "title": "ARGON", "devlogs_count": 0, "created_at": "2025-06-16T15:03:34.471-04:00"}], "coding_time_seconds": 2, "coding_time_seconds_today": 0, "balance": "You need to have a pocket watcher badge to view this.", "badges": [], "created_at": "2025-06-16T14:47:55.120-04:00", "updated_at": "2025-07-03T19:20:50.051-04:00", "avatar": "https://avatars.slack-edge.com/2025-06-16/9080556687376_a1c83c61efa7bb233498_original.png", "custom_css": null}, {"id": 2125, "slack_id": "U091H2F3KEF", "display_name": "Wilson Wu", "bio": null, "projects_count": 0, "devlogs_count": 0, "votes_count": 0, "ships_count": 0, "projects": [], "coding_time_seconds": 0, "coding_time_seconds_today": 0, "balance": "You need to have a pocket watcher badge to view this.", "badges": [], "created_at": "2025-06-16T14:47:56.790-04:00", "updated_at": "2025-07-03T19:20:50.314-04:00", "avatar": "https://secure.gravatar.com/avatar/755a1c02cdece68856823f92ba339297.jpg?s=512&d=https%3A%2F%2Fa.slack-edge.com%2Fdf10d%2Fimg%2Favatars%2Fava_0018-512.png", "custom_css": null}, {"id": 2126, "slack_id": "U091N8ZNHK7", "display_name": "Bartek Wrzalski", "bio": null, "projects_count": 0, "devlogs_count": 0, "votes_count": 0, "ships_count": 0, "projects": [], "coding_time_seconds": 0, "coding_time_seconds_today": 0, "balance": "You need to have a pocket watcher badge to view this.", "badges": [], "created_at": "2025-06-16T14:47:59.380-04:00", "updated_at": "2025-07-03T19:20:50.584-04:00", "avatar": "https://avatars.slack-edge.com/2025-06-16/9042787069463_7b62b58d8efb8cc52337_original.png", "custom_css": null}, {"id": 2127, "slack_id": "U092CG163R6", "display_name": "KingsSack Plays", "bio": null, "projects_count": 0, "devlogs_count": 0, "votes_count": 0, "ships_count": 0, "projects": [], "coding_time_seconds": 91975, "coding_time_seconds_today": 0, "balance": "You need to have a pocket watcher badge to view this.", "badges": [], "created_at": "2025-06-16T14:48:38.919-04:00", "updated_at": "2025-07-12T16:46:44.356-04:00", "avatar": "https://avatars.slack-edge.com/2025-06-16/9080560070192_d56bde4b42dc836447eb_original.jpg", "custom_css": null}, {"id": 2128, "slack_id": "U092CFY03S4", "display_name": "captain sam", "bio": null, "projects_count": 0, "devlogs_count": 0, "votes_count": 0, "ships_count": 0, "projects": [], "coding_time_seconds": 0, "coding_time_seconds_today": 0, "balance": "You need to have a pocket watcher badge to view this.", "badges": [], "created_at": "2025-06-16T14:48:46.335-04:00", "updated_at": "2025-07-03T19:20:51.114-04:00", "avatar": "https://avatars.slack-edge.com/2025-06-17/9070662565841_bd2f5b43403608fccdd0_original.jpg", "custom_css": null}, {"id": 2129, "slack_id": "U091H77FD70", "display_name": "Moon", "bio": null, "projects_count": 0, "devlogs_count": 0, "votes_count": 0, "ships_count": 0, "projects": [], "coding_time_seconds": 0, "coding_time_seconds_today": 0, "balance": "You need to have a pocket watcher badge to view this.", "badges": [], "created_at": "2025-06-16T14:49:03.047-04:00", "updated_at": "2025-07-03T19:20:51.385-04:00", "avatar": "https://secure.gravatar.com/avatar/d300824d49811ee304f26adb718b0655.jpg?s=512&d=https%3A%2F%2Fa.slack-edge.com%2Fdf10d%2Fimg%2Favatars%2Fava_0005-512.png", "custom_css": null}, {"id": 2130, "slack_id": "U091H3YUGNP", "display_name": "Adyant Akula", "bio": null, "projects_count": 1, "devlogs_count": 6, "votes_count": 1, "ships_count": 0, "projects": [{"id": 10206, "title": "EcoRoute", "devlogs_count": 6, "created_at": "2025-08-04T23:25:16.104-04:00"}], "coding_time_seconds": 69207, "coding_time_seconds_today": 0, "balance": "You need to have a pocket watcher badge to view this.", "badges": [], "created_at": "2025-06-16T14:49:03.117-04:00", "updated_at": "2025-08-08T17:34:49.973-04:00", "avatar": "https://avatars.slack-edge.com/2025-06-16/9051262161910_963fe2f82ac35e01234b_original.png", "custom_css": null}, {"id": 2131, "slack_id": "U08D2SM0KQX", "display_name": "Julian", "bio": null, "projects_count": 1, "devlogs_count": 12, "votes_count": 17, "ships_count": 1, "projects": [{"id": 7132, "title": "LHSCC Discord Bot Go", "devlogs_count": 12, "created_at": "2025-07-19T10:24:31.243-04:00"}], "coding_time_seconds": 98806, "coding_time_seconds_today": 0, "balance": "You need to have a pocket watcher badge to view this.", "badges": [{"name": "Maiden Voyage", "text": "you shipped your first project! the journey begins...", "icon": "\ud83d\udea2"}], "created_at": "2025-06-16T14:49:10.755-04:00", "updated_at": "2025-09-10T22:52:13.876-04:00", "avatar": "https://avatars.slack-edge.com/2025-07-31/9273344878695_bc4eaee53d52ce9e0d27_original.jpg", "custom_css": null}, {"id": 2132, "slack_id": "U0918NFLR6K", "display_name": "Daniely De Oliveira M\u00e9lo", "bio": null, "projects_count": 0, "devlogs_count": 0, "votes_count": 0, "ships_count": 0, "projects": [], "coding_time_seconds": 179326, "coding_time_seconds_today": 0, "balance": "You need to have a pocket watcher badge to view this.", "badges": [], "created_at": "2025-06-16T14:49:25.367-04:00", "updated_at": "2025-07-03T19:20:52.198-04:00", "avatar": "https://avatars.slack-edge.com/2025-06-16/9059096647044_b65f5945e299160d303d_original.png", "custom_css": null}, {"id": 2133, "slack_id": "U0922EUNKPT", "display_name": "HARSHIT CHAUDHARY", "bio": null, "projects_count": 0, "devlogs_count": 0, "votes_count": 0, "ships_count": 0, "projects": [], "coding_time_seconds": 0, "coding_time_seconds_today": 0, "balance": "You need to have a pocket watcher badge to view this.", "badges": [], "created_at": "2025-06-16T14:49:27.741-04:00", "updated_at": "2025-07-03T19:20:52.476-04:00", "avatar": "https://avatars.slack-edge.com/2025-06-16/9058105344594_0676f31ec73f36f08297_original.jpg", "custom_css": null}, {"id": 2134, "slack_id": "U0922124PFT", "display_name": "PU", "bio": null, "projects_count": 2, "devlogs_count": 0, "votes_count": 0, "ships_count": 0, "projects": [{"id": 220, "title": "Gondeldaten Webseite", "devlogs_count": 0, "created_at": "2025-06-16T15:47:20.840-04:00"}, {"id": 233, "title": "V-Plan", "devlogs_count": 0, "created_at": "2025-06-16T16:01:19.659-04:00"}], "coding_time_seconds": 27863, "coding_time_seconds_today": 0, "balance": "You need to have a pocket watcher badge to view this.", "badges": [], "created_at": "2025-06-16T14:49:38.142-04:00", "updated_at": "2025-07-03T19:20:52.736-04:00", "avatar": "https://secure.gravatar.com/avatar/561054cbb1193775f90506fb5bfafa4e.jpg?s=512&d=https%3A%2F%2Fa.slack-edge.com%2Fdf10d%2Fimg%2Favatars%2Fava_0021-512.png", "custom_css": null}, {"id": 2135, "slack_id": "U091N6PST53", "display_name": "Muzammil Mac", "bio": null, "projects_count": 0, "devlogs_count": 0, "votes_count": 0, "ships_count": 0, "projects": [], "coding_time_seconds": 0, "coding_time_seconds_today": 0, "balance": "You need to have a pocket watcher badge to view this.", "badges": [], "created_at": "2025-06-16T14:49:44.721-04:00", "updated_at": "2025-07-03T19:20:53.016-04:00", "avatar": "https://avatars.slack-edge.com/2025-06-16/9051159594787_2f9049bf0ca7f5c66eac_original.jpg", "custom_css": null}, {"id": 2136, "slack_id": "U079QLTJZ7H", "display_name": "Devarsh", "bio": "", "projects_count": 7, "devlogs_count": 21, "votes_count": 35, "ships_count": 2, "projects": [{"id": 11748, "title": "QuackPack (for Slack)", "devlogs_count": 1, "created_at": "2025-08-19T05:09:55.169-04:00"}, {"id": 12464, "title": "Happybot", "devlogs_count": 0, "created_at": "2025-08-28T00:48:56.921-04:00"}, {"id": 12693, "title": "Hackpaper", "devlogs_count": 1, "created_at": "2025-09-01T01:38:21.282-04:00"}, {"id": 12012, "title": "Devarsh's Maths", "devlogs_count": 2, "created_at": "2025-08-22T05:25:45.904-04:00"}, {"id": 12345, "title": "Devarsh's Trinkets", "devlogs_count": 0, "created_at": "2025-08-26T02:27:22.066-04:00"}, {"id": 5284, "title": "devarsh.me - Devarsh's Personal Website", "devlogs_count": 4, "created_at": "2025-07-04T07:39:53.317-04:00"}, {"id": 6044, "title": "Sticker Bot", "devlogs_count": 13, "created_at": "2025-07-10T07:19:57.157-04:00"}], "coding_time_seconds": 218116, "coding_time_seconds_today": 0, "balance": "You need to have a pocket watcher badge to view this.", "badges": [{"name": "Maiden Voyage", "text": "you shipped your first project! the journey begins...", "icon": "\ud83d\udea2"}], "created_at": "2025-06-16T14:49:48.975-04:00", "updated_at": "2025-09-10T22:52:14.033-04:00", "avatar": "https://secure.gravatar.com/avatar/437967665e4054435add3414bf746a75.jpg?s=512&d=https%3A%2F%2Fa.slack-edge.com%2Fdf10d%2Fimg%2Favatars%2Fava_0009-512.png", "custom_css": null}, {"id": 2137, "slack_id": "U091QE2S736", "display_name": "xdearboy", "bio": null, "projects_count": 0, "devlogs_count": 0, "votes_count": 0, "ships_count": 0, "projects": [], "coding_time_seconds": 0, "coding_time_seconds_today": 0, "balance": "You need to have a pocket watcher badge to view this.", "badges": [], "created_at": "2025-06-16T14:49:51.754-04:00", "updated_at": "2025-07-03T19:20:53.429-04:00", "avatar": "https://secure.gravatar.com/avatar/69ab30fcab4668dee847f4aedcca5915.jpg?s=512&d=https%3A%2F%2Fa.slack-edge.com%2Fdf10d%2Fimg%2Favatars%2Fava_0000-512.png", "custom_css": null}, {"id": 2138, "slack_id": "U091H49D4KV", "display_name": "Luphaestus", "bio": null, "projects_count": 1, "devlogs_count": 2, "votes_count": 0, "ships_count": 1, "projects": [{"id": 989, "title": "Vulcan ROM", "devlogs_count": 2, "created_at": "2025-06-17T13:03:00.214-04:00"}], "coding_time_seconds": 10649, "coding_time_seconds_today": 0, "balance": "You need to have a pocket watcher badge to view this.", "badges": [{"name": "Maiden Voyage", "text": "you shipped your first project! the journey begins...", "icon": "\ud83d\udea2"}], "created_at": "2025-06-16T14:49:52.129-04:00", "updated_at": "2025-09-10T22:52:14.082-04:00", "avatar": "https://secure.gravatar.com/avatar/17f7719695d8bc15986ff6314ce22b01.jpg?s=512&d=https%3A%2F%2Fa.slack-edge.com%2Fdf10d%2Fimg%2Favatars%2Fava_0014-512.png", "custom_css": null}, {"id": 2139, "slack_id": "U07E0LK59DF", "display_name": "Raymond Hsu", "bio": null, "projects_count": 2, "devlogs_count": 3, "votes_count": 0, "ships_count": 0, "projects": [{"id": 6486, "title": "SoundFixer Refresh", "devlogs_count": 1, "created_at": "2025-07-13T18:52:57.045-04:00"}, {"id": 3494, "title": "Docusaurus Website", "devlogs_count": 2, "created_at": "2025-06-24T12:56:51.017-04:00"}], "coding_time_seconds": 23854, "coding_time_seconds_today": 0, "balance": "You need to have a pocket watcher badge to view this.", "badges": [], "created_at": "2025-06-16T14:50:08.899-04:00", "updated_at": "2025-08-25T07:48:46.148-04:00", "avatar": "https://secure.gravatar.com/avatar/4a7e40805989a28cb08a04d29a5442ad.jpg?s=512&d=https%3A%2F%2Fa.slack-edge.com%2Fdf10d%2Fimg%2Favatars%2Fava_0015-512.png", "custom_css": null}, {"id": 2140, "slack_id": "U0922JX3Y8H", "display_name": "moro", "bio": null, "projects_count": 0, "devlogs_count": 0, "votes_count": 0, "ships_count": 0, "projects": [], "coding_time_seconds": 65, "coding_time_seconds_today": 0, "balance": "You need to have a pocket watcher badge to view this.", "badges": [], "created_at": "2025-06-16T14:50:09.200-04:00", "updated_at": "2025-07-03T19:20:54.319-04:00", "avatar": "https://secure.gravatar.com/avatar/fc6ce01dd9bc7e18a6b6f1bba62a97d3.jpg?s=512&d=https%3A%2F%2Fa.slack-edge.com%2Fdf10d%2Fimg%2Favatars%2Fava_0018-512.png", "custom_css": null}], "pagination": {"page": 107, "pages": 1192, "count": 23828, "items": 20}}