{"users": [{"id": 21466, "slack_id": "U09940XAJ3B", "display_name": "Leaper1150", "bio": null, "projects_count": 1, "devlogs_count": 0, "votes_count": 0, "ships_count": 0, "projects": [{"id": 11171, "title": "moji vibe", "devlogs_count": 0, "created_at": "2025-08-13T17:54:32.942-04:00"}], "coding_time_seconds": 14287, "coding_time_seconds_today": 0, "balance": "You need to have a pocket watcher badge to view this.", "badges": [], "created_at": "2025-08-12T21:35:12.361-04:00", "updated_at": "2025-08-13T19:43:59.657-04:00", "avatar": "https://avatars.slack-edge.com/2025-08-12/9371071568848_b23381e7f8d87c81ad8b_original.jpg", "custom_css": null}, {"id": 21467, "slack_id": "U09AH5BJRC1", "display_name": "Kelsey D", "bio": null, "projects_count": 0, "devlogs_count": 0, "votes_count": 0, "ships_count": 0, "projects": [], "coding_time_seconds": 8171, "coding_time_seconds_today": 0, "balance": "You need to have a pocket watcher badge to view this.", "badges": [], "created_at": "2025-08-12T21:44:09.683-04:00", "updated_at": "2025-08-12T22:06:28.698-04:00", "avatar": "https://secure.gravatar.com/avatar/1729879c62eb67f7160bea83a645a65d.jpg?s=512&d=https%3A%2F%2Fa.slack-edge.com%2Fdf10d%2Fimg%2Favatars%2Fava_0020-512.png", "custom_css": null}, {"id": 21468, "slack_id": "U09AH9XCBA5", "display_name": "sai", "bio": null, "projects_count": 0, "devlogs_count": 0, "votes_count": 0, "ships_count": 0, "projects": [], "coding_time_seconds": 0, "coding_time_seconds_today": 0, "balance": "You need to have a pocket watcher badge to view this.", "badges": [], "created_at": "2025-08-12T22:37:27.344-04:00", "updated_at": "2025-08-13T09:55:54.369-04:00", "avatar": "https://secure.gravatar.com/avatar/1a265c9f0e5d5075f7f1d774787a91a4.jpg?s=512&d=https%3A%2F%2Fa.slack-edge.com%2Fdf10d%2Fimg%2Favatars%2Fava_0008-512.png", "custom_css": null}, {"id": 21469, "slack_id": "U099QN7NCQP", "display_name": "James Cerda", "bio": null, "projects_count": 0, "devlogs_count": 0, "votes_count": 0, "ships_count": 0, "projects": [], "coding_time_seconds": 0, "coding_time_seconds_today": 0, "balance": "You need to have a pocket watcher badge to view this.", "badges": [], "created_at": "2025-08-12T22:38:53.268-04:00", "updated_at": "2025-08-14T00:58:03.884-04:00", "avatar": "https://secure.gravatar.com/avatar/ec23862abd63f66ab447616074f62836.jpg?s=512&d=https%3A%2F%2Fa.slack-edge.com%2Fdf10d%2Fimg%2Favatars%2Fava_0006-512.png", "custom_css": null}, {"id": 21470, "slack_id": "U09A6A1QPP0", "display_name": "Faizan Ali", "bio": null, "projects_count": 0, "devlogs_count": 0, "votes_count": 0, "ships_count": 0, "projects": [], "coding_time_seconds": 0, "coding_time_seconds_today": 0, "balance": "You need to have a pocket watcher badge to view this.", "badges": [], "created_at": "2025-08-12T23:09:56.266-04:00", "updated_at": "2025-08-22T14:04:09.978-04:00", "avatar": "https://secure.gravatar.com/avatar/90d1bd72b715c8bf1a41e8ca9fd93923.jpg?s=512&d=https%3A%2F%2Fa.slack-edge.com%2Fdf10d%2Fimg%2Favatars%2Fava_0001-512.png", "custom_css": null}, {"id": 21471, "slack_id": "U09A4EXBFD0", "display_name": "Tasneem Mohamed", "bio": null, "projects_count": 0, "devlogs_count": 0, "votes_count": 0, "ships_count": 0, "projects": [], "coding_time_seconds": 0, "coding_time_seconds_today": 0, "balance": "You need to have a pocket watcher badge to view this.", "badges": [], "created_at": "2025-08-12T23:13:33.946-04:00", "updated_at": "2025-08-13T09:55:54.644-04:00", "avatar": "https://secure.gravatar.com/avatar/7c022f08a039efbc03a8e72a694d05a9.jpg?s=512&d=https%3A%2F%2Fa.slack-edge.com%2Fdf10d%2Fimg%2Favatars%2Fava_0021-512.png", "custom_css": null}, {"id": 21472, "slack_id": "U09A6BTT1TQ", "display_name": "Michael Wang", "bio": null, "projects_count": 1, "devlogs_count": 0, "votes_count": 0, "ships_count": 0, "projects": [{"id": 11067, "title": "prop ai tool", "devlogs_count": 0, "created_at": "2025-08-12T23:43:48.339-04:00"}], "coding_time_seconds": 31473, "coding_time_seconds_today": 0, "balance": "You need to have a pocket watcher badge to view this.", "badges": [], "created_at": "2025-08-12T23:32:38.749-04:00", "updated_at": "2025-08-23T15:55:17.039-04:00", "avatar": "https://avatars.slack-edge.com/2025-08-22/9396441382789_35e605435081e0d97d92_original.jpg", "custom_css": null}, {"id": 21473, "slack_id": "U09A8EUAUJ0", "display_name": "Randy Yee", "bio": null, "projects_count": 0, "devlogs_count": 0, "votes_count": 0, "ships_count": 0, "projects": [], "coding_time_seconds": 0, "coding_time_seconds_today": 0, "balance": "You need to have a pocket watcher badge to view this.", "badges": [], "created_at": "2025-08-13T00:23:20.857-04:00", "updated_at": "2025-08-14T14:38:37.430-04:00", "avatar": "https://secure.gravatar.com/avatar/0287745f5791bab0010769de460c0014.jpg?s=512&d=https%3A%2F%2Fa.slack-edge.com%2Fdf10d%2Fimg%2Favatars%2Fava_0008-512.png", "custom_css": null}, {"id": 21474, "slack_id": "U09A6DV99C6", "display_name": "Dean Jordan", "bio": null, "projects_count": 0, "devlogs_count": 0, "votes_count": 0, "ships_count": 0, "projects": [], "coding_time_seconds": 0, "coding_time_seconds_today": 0, "balance": "You need to have a pocket watcher badge to view this.", "badges": [], "created_at": "2025-08-13T01:28:44.884-04:00", "updated_at": "2025-08-13T09:55:54.927-04:00", "avatar": "https://avatars.slack-edge.com/2025-08-12/9332820646967_b4058928336320f7537f_original.png", "custom_css": null}, {"id": 21475, "slack_id": "U09A4H3FAJZ", "display_name": "Kashyap Srinivasan", "bio": null, "projects_count": 1, "devlogs_count": 1, "votes_count": 4, "ships_count": 0, "projects": [{"id": 11543, "title": "StudyBot Helper", "devlogs_count": 1, "created_at": "2025-08-16T22:27:11.606-04:00"}], "coding_time_seconds": 46343, "coding_time_seconds_today": 0, "balance": "You need to have a pocket watcher badge to view this.", "badges": [], "created_at": "2025-08-13T02:04:49.245-04:00", "updated_at": "2025-08-16T04:30:03.764-04:00", "avatar": "https://avatars.slack-edge.com/2025-08-12/9332941708743_87cafd55ad50435649bd_original.png", "custom_css": null}, {"id": 21476, "slack_id": "U09AHH26LDP", "display_name": "Logith Raju", "bio": null, "projects_count": 1, "devlogs_count": 1, "votes_count": 0, "ships_count": 0, "projects": [{"id": 13229, "title": "Endless dodge", "devlogs_count": 1, "created_at": "2025-09-12T04:48:30.114-04:00"}], "coding_time_seconds": 80844, "coding_time_seconds_today": 0, "balance": "You need to have a pocket watcher badge to view this.", "badges": [], "created_at": "2025-08-13T02:41:50.682-04:00", "updated_at": "2025-09-06T07:00:09.177-04:00", "avatar": "https://avatars.slack-edge.com/2025-08-12/9339322328035_2caa629f2bae53bbfd43_original.png", "custom_css": null}, {"id": 21477, "slack_id": "U09A93C7ZQU", "display_name": "Freddie Beasley", "bio": null, "projects_count": 0, "devlogs_count": 0, "votes_count": 0, "ships_count": 0, "projects": [], "coding_time_seconds": 0, "coding_time_seconds_today": 0, "balance": "You need to have a pocket watcher badge to view this.", "badges": [], "created_at": "2025-08-13T03:17:17.474-04:00", "updated_at": "2025-08-13T09:55:59.276-04:00", "avatar": "https://secure.gravatar.com/avatar/d5e026cb40e87b957f889ebc2cb26405.jpg?s=512&d=https%3A%2F%2Fa.slack-edge.com%2Fdf10d%2Fimg%2Favatars%2Fava_0008-512.png", "custom_css": null}, {"id": 21478, "slack_id": "U09AJ75GGKT", "display_name": "Dylan K", "bio": null, "projects_count": 0, "devlogs_count": 0, "votes_count": 0, "ships_count": 0, "projects": [], "coding_time_seconds": 92207, "coding_time_seconds_today": 0, "balance": "You need to have a pocket watcher badge to view this.", "badges": [], "created_at": "2025-08-13T03:38:03.726-04:00", "updated_at": "2025-08-13T09:55:59.363-04:00", "avatar": "https://secure.gravatar.com/avatar/1124579009e8bb480154aa695fb9653f.jpg?s=512&d=https%3A%2F%2Fa.slack-edge.com%2Fdf10d%2Fimg%2Favatars%2Fava_0018-512.png", "custom_css": null}, {"id": 21479, "slack_id": "U099ZJA8JLB", "display_name": "Earl Denver Balitaan", "bio": null, "projects_count": 1, "devlogs_count": 0, "votes_count": 0, "ships_count": 0, "projects": [{"id": 12505, "title": "Create Your Football Club!", "devlogs_count": 0, "created_at": "2025-08-28T14:35:52.856-04:00"}], "coding_time_seconds": 25948, "coding_time_seconds_today": 0, "balance": "You need to have a pocket watcher badge to view this.", "badges": [], "created_at": "2025-08-13T03:56:06.290-04:00", "updated_at": "2025-08-13T09:55:59.486-04:00", "avatar": "https://secure.gravatar.com/avatar/c6bdf5e10219e0523d905d9544273047.jpg?s=512&d=https%3A%2F%2Fa.slack-edge.com%2Fdf10d%2Fimg%2Favatars%2Fava_0009-512.png", "custom_css": null}, {"id": 21480, "slack_id": "U09A51LNWLD", "display_name": "Vidumali Dahanayake", "bio": null, "projects_count": 0, "devlogs_count": 0, "votes_count": 0, "ships_count": 0, "projects": [], "coding_time_seconds": 0, "coding_time_seconds_today": 0, "balance": "You need to have a pocket watcher badge to view this.", "badges": [], "created_at": "2025-08-13T04:01:58.220-04:00", "updated_at": "2025-08-13T09:55:59.602-04:00", "avatar": "https://secure.gravatar.com/avatar/9e5db293cf32120ba48cb2f2d1973b7d.jpg?s=512&d=https%3A%2F%2Fa.slack-edge.com%2Fdf10d%2Fimg%2Favatars%2Fava_0013-512.png", "custom_css": null}, {"id": 21481, "slack_id": "U09A7B3D44W", "display_name": "Lemon2008", "bio": null, "projects_count": 0, "devlogs_count": 25, "votes_count": 17, "ships_count": 0, "projects": [], "coding_time_seconds": 186888, "coding_time_seconds_today": 0, "balance": "You need to have a pocket watcher badge to view this.", "badges": [], "created_at": "2025-08-13T04:06:59.325-04:00", "updated_at": "2025-09-22T00:19:48.126-04:00", "avatar": "https://secure.gravatar.com/avatar/4defa87d929b24c89c33bfbfc1b69bcc.jpg?s=512&d=https%3A%2F%2Fa.slack-edge.com%2Fdf10d%2Fimg%2Favatars%2Fava_0018-512.png", "custom_css": null}, {"id": 21482, "slack_id": "U09A5N35H34", "display_name": "MJ", "bio": null, "projects_count": 0, "devlogs_count": 0, "votes_count": 0, "ships_count": 0, "projects": [], "coding_time_seconds": 0, "coding_time_seconds_today": 0, "balance": "You need to have a pocket watcher badge to view this.", "badges": [], "created_at": "2025-08-13T04:56:27.668-04:00", "updated_at": "2025-08-13T09:55:59.799-04:00", "avatar": "https://secure.gravatar.com/avatar/7ce1e8e4fff569b5a92c3c85c95942d8.jpg?s=512&d=https%3A%2F%2Fa.slack-edge.com%2Fdf10d%2Fimg%2Favatars%2Fava_0023-512.png", "custom_css": null}, {"id": 21483, "slack_id": "U09A5C9N6LV", "display_name": "Abdullah Maqbool", "bio": null, "projects_count": 0, "devlogs_count": 0, "votes_count": 0, "ships_count": 0, "projects": [], "coding_time_seconds": 0, "coding_time_seconds_today": 0, "balance": "You need to have a pocket watcher badge to view this.", "badges": [], "created_at": "2025-08-13T05:16:56.288-04:00", "updated_at": "2025-08-13T09:55:59.898-04:00", "avatar": "https://secure.gravatar.com/avatar/a11466ea68c78d863de6f910483bd750.jpg?s=512&d=https%3A%2F%2Fa.slack-edge.com%2Fdf10d%2Fimg%2Favatars%2Fava_0005-512.png", "custom_css": null}, {"id": 21484, "slack_id": "U09AZ00B2G0", "display_name": "abdulrahman", "bio": null, "projects_count": 0, "devlogs_count": 0, "votes_count": 0, "ships_count": 0, "projects": [], "coding_time_seconds": 0, "coding_time_seconds_today": 0, "balance": "You need to have a pocket watcher badge to view this.", "badges": [], "created_at": "2025-08-13T06:23:50.786-04:00", "updated_at": "2025-08-13T18:13:23.307-04:00", "avatar": "https://secure.gravatar.com/avatar/767e69aafb295132ede4501d40dd1fc3.jpg?s=512&d=https%3A%2F%2Fa.slack-edge.com%2Fdf10d%2Fimg%2Favatars%2Fava_0002-512.png", "custom_css": null}, {"id": 21485, "slack_id": "U09A6CJEU8J", "display_name": "Chinta Tejaswini", "bio": null, "projects_count": 1, "devlogs_count": 1, "votes_count": 0, "ships_count": 0, "projects": [{"id": 11108, "title": "Aesthetic Daily Motivation Page", "devlogs_count": 1, "created_at": "2025-08-13T08:07:41.072-04:00"}], "coding_time_seconds": 78411, "coding_time_seconds_today": 0, "balance": "You need to have a pocket watcher badge to view this.", "badges": [], "created_at": "2025-08-13T07:30:14.034-04:00", "updated_at": "2025-08-13T09:56:00.109-04:00", "avatar": "https://secure.gravatar.com/avatar/3c73945775add954b68c528348eb7009.jpg?s=512&d=https%3A%2F%2Fa.slack-edge.com%2Fdf10d%2Fimg%2Favatars%2Fava_0011-512.png", "custom_css": null}], "pagination": {"page": 1070, "pages": 1192, "count": 23828, "items": 20}}