{"users": [{"id": 21526, "slack_id": "U09A3GB6R9R", "display_name": "Catalin", "bio": null, "projects_count": 0, "devlogs_count": 0, "votes_count": 0, "ships_count": 0, "projects": [], "coding_time_seconds": 120, "coding_time_seconds_today": 0, "balance": "You need to have a pocket watcher badge to view this.", "badges": [], "created_at": "2025-08-13T15:39:24.322-04:00", "updated_at": "2025-08-13T16:18:56.813-04:00", "avatar": "https://secure.gravatar.com/avatar/9f311225a6d30ef98fdd53ee133a8da5.jpg?s=512&d=https%3A%2F%2Fa.slack-edge.com%2Fdf10d%2Fimg%2Favatars%2Fava_0020-512.png", "custom_css": null}, {"id": 21527, "slack_id": "U09B2BFQJFJ", "display_name": "Hannah", "bio": "", "projects_count": 4, "devlogs_count": 56, "votes_count": 51, "ships_count": 1, "projects": [{"id": 11867, "title": "Drone Game", "devlogs_count": 17, "created_at": "2025-08-20T13:10:14.391-04:00"}, {"id": 12978, "title": "SoM Scenes Website", "devlogs_count": 4, "created_at": "2025-09-06T13:00:23.902-04:00"}, {"id": 13174, "title": "Haunted Home: Invasion", "devlogs_count": 8, "created_at": "2025-09-10T18:03:27.870-04:00"}, {"id": 11225, "title": "poker calculator", "devlogs_count": 26, "created_at": "2025-08-14T06:24:25.038-04:00"}], "coding_time_seconds": 246890, "coding_time_seconds_today": 1496, "balance": "You need to have a pocket watcher badge to view this.", "badges": [{"name": "Maiden Voyage", "text": "you shipped your first project! the journey begins...", "icon": "\ud83d\udea2"}], "created_at": "2025-08-13T15:58:46.773-04:00", "updated_at": "2025-09-17T16:28:47.200-04:00", "avatar": "https://avatars.slack-edge.com/2025-08-20/9384596653301_9c4615b28f2ebdb61bd4_original.jpg", "custom_css": null}, {"id": 21528, "slack_id": "U08CDHJCK1R", "display_name": "Ethan T", "bio": null, "projects_count": 2, "devlogs_count": 2, "votes_count": 3, "ships_count": 1, "projects": [{"id": 11306, "title": "ksedit", "devlogs_count": 2, "created_at": "2025-08-14T20:07:35.471-04:00"}, {"id": 11325, "title": "the offline music player", "devlogs_count": 0, "created_at": "2025-08-14T23:23:37.490-04:00"}], "coding_time_seconds": 9946, "coding_time_seconds_today": 0, "balance": "You need to have a pocket watcher badge to view this.", "badges": [], "created_at": "2025-08-13T16:01:23.905-04:00", "updated_at": "2025-08-14T22:38:11.348-04:00", "avatar": "https://avatars.slack-edge.com/2025-08-14/9369474436865_91316efa221ad8ada0c6_original.jpg", "custom_css": null}, {"id": 21529, "slack_id": "U09A3NK3JDR", "display_name": "Nitya", "bio": null, "projects_count": 0, "devlogs_count": 0, "votes_count": 0, "ships_count": 0, "projects": [], "coding_time_seconds": 0, "coding_time_seconds_today": 0, "balance": "You need to have a pocket watcher badge to view this.", "badges": [], "created_at": "2025-08-13T16:19:41.895-04:00", "updated_at": "2025-08-13T21:55:34.526-04:00", "avatar": "https://secure.gravatar.com/avatar/9e6686cb9a270531c3eca30247f4dc7f.jpg?s=512&d=https%3A%2F%2Fa.slack-edge.com%2Fdf10d%2Fimg%2Favatars%2Fava_0020-512.png", "custom_css": null}, {"id": 21530, "slack_id": "U09B2HHD4KA", "display_name": "saja waleed", "bio": null, "projects_count": 0, "devlogs_count": 0, "votes_count": 0, "ships_count": 0, "projects": [], "coding_time_seconds": 0, "coding_time_seconds_today": 0, "balance": "You need to have a pocket watcher badge to view this.", "badges": [], "created_at": "2025-08-13T16:36:20.931-04:00", "updated_at": "2025-08-13T21:55:35.226-04:00", "avatar": "https://avatars.slack-edge.com/2025-08-13/9351549322790_61dd7011f9caf1db352f_original.png", "custom_css": null}, {"id": 21531, "slack_id": "U09A9M2AZ42", "display_name": "Rokia Tamer", "bio": null, "projects_count": 0, "devlogs_count": 0, "votes_count": 0, "ships_count": 0, "projects": [], "coding_time_seconds": 0, "coding_time_seconds_today": 0, "balance": "You need to have a pocket watcher badge to view this.", "badges": [], "created_at": "2025-08-13T16:48:43.582-04:00", "updated_at": "2025-08-13T21:55:35.421-04:00", "avatar": "https://secure.gravatar.com/avatar/0f2256e44030fcbce7bd574d3018ff2e.jpg?s=512&d=https%3A%2F%2Fa.slack-edge.com%2Fdf10d%2Fimg%2Favatars%2Fava_0025-512.png", "custom_css": null}, {"id": 21532, "slack_id": "U09A9MSUYKC", "display_name": "thundr", "bio": "", "projects_count": 0, "devlogs_count": 0, "votes_count": 0, "ships_count": 0, "projects": [], "coding_time_seconds": 2071, "coding_time_seconds_today": 0, "balance": "You need to have a pocket watcher badge to view this.", "badges": [], "created_at": "2025-08-13T16:57:25.358-04:00", "updated_at": "2025-08-14T03:38:47.750-04:00", "avatar": "https://secure.gravatar.com/avatar/0b316a1f804a920e2ae94b90ba886e0f.jpg?s=512&d=https%3A%2F%2Fa.slack-edge.com%2Fdf10d%2Fimg%2Favatars%2Fava_0022-512.png", "custom_css": null}, {"id": 21533, "slack_id": "U09ADGR5AJG", "display_name": "Josh Higgins", "bio": null, "projects_count": 0, "devlogs_count": 0, "votes_count": 0, "ships_count": 0, "projects": [], "coding_time_seconds": 0, "coding_time_seconds_today": 0, "balance": "You need to have a pocket watcher badge to view this.", "badges": [], "created_at": "2025-08-13T17:06:44.995-04:00", "updated_at": "2025-08-13T21:55:35.773-04:00", "avatar": "https://secure.gravatar.com/avatar/597063394bec2d1fea5a0a8306eb15d0.jpg?s=512&d=https%3A%2F%2Fa.slack-edge.com%2Fdf10d%2Fimg%2Favatars%2Fava_0025-512.png", "custom_css": null}, {"id": 21534, "slack_id": "U09A5RS1NAH", "display_name": "Ruqaya AlZamil", "bio": null, "projects_count": 0, "devlogs_count": 0, "votes_count": 0, "ships_count": 0, "projects": [], "coding_time_seconds": 0, "coding_time_seconds_today": 0, "balance": "You need to have a pocket watcher badge to view this.", "badges": [], "created_at": "2025-08-13T17:08:21.526-04:00", "updated_at": "2025-08-13T21:55:35.883-04:00", "avatar": "https://secure.gravatar.com/avatar/0f9918330372d5a531684bf5413f327b.jpg?s=512&d=https%3A%2F%2Fa.slack-edge.com%2Fdf10d%2Fimg%2Favatars%2Fava_0008-512.png", "custom_css": null}, {"id": 21535, "slack_id": "U09B2U6DMCG", "display_name": "Austen", "bio": "my code is held together with hopes, \r\ndreams, and duct tape.\r\n\r\ngithub.com/LinuxUserDev/GameFile", "projects_count": 0, "devlogs_count": 0, "votes_count": 0, "ships_count": 0, "projects": [], "coding_time_seconds": 75577, "coding_time_seconds_today": 0, "balance": "You need to have a pocket watcher badge to view this.", "badges": [], "created_at": "2025-08-13T17:55:06.548-04:00", "updated_at": "2025-08-13T21:55:35.980-04:00", "avatar": "https://avatars.slack-edge.com/2025-08-13/9352191734582_2ef1543163525642d97e_original.png", "custom_css": null}, {"id": 21536, "slack_id": "U09ANK1E4BT", "display_name": "Shijie Sun", "bio": null, "projects_count": 0, "devlogs_count": 0, "votes_count": 0, "ships_count": 0, "projects": [], "coding_time_seconds": 23597, "coding_time_seconds_today": 0, "balance": "You need to have a pocket watcher badge to view this.", "badges": [], "created_at": "2025-08-13T18:12:22.192-04:00", "updated_at": "2025-08-13T21:55:36.068-04:00", "avatar": "https://secure.gravatar.com/avatar/7add04959d08ad545acd362779d8271c.jpg?s=512&d=https%3A%2F%2Fa.slack-edge.com%2Fdf10d%2Fimg%2Favatars%2Fava_0017-512.png", "custom_css": null}, {"id": 21537, "slack_id": "U09AC0LG9CN", "display_name": "Renata", "bio": null, "projects_count": 0, "devlogs_count": 0, "votes_count": 0, "ships_count": 0, "projects": [], "coding_time_seconds": 0, "coding_time_seconds_today": 0, "balance": "You need to have a pocket watcher badge to view this.", "badges": [], "created_at": "2025-08-13T18:33:51.802-04:00", "updated_at": "2025-08-13T21:55:36.150-04:00", "avatar": "https://secure.gravatar.com/avatar/19f4190f8ed9ea771e6c9584fd26fea7.jpg?s=512&d=https%3A%2F%2Fa.slack-edge.com%2Fdf10d%2Fimg%2Favatars%2Fava_0011-512.png", "custom_css": null}, {"id": 21538, "slack_id": "U09A9N5UK9B", "display_name": "Safa Ali", "bio": null, "projects_count": 0, "devlogs_count": 0, "votes_count": 0, "ships_count": 0, "projects": [], "coding_time_seconds": 17285, "coding_time_seconds_today": 0, "balance": "You need to have a pocket watcher badge to view this.", "badges": [], "created_at": "2025-08-13T19:43:29.965-04:00", "updated_at": "2025-08-13T21:55:36.238-04:00", "avatar": "https://secure.gravatar.com/avatar/b4f493c0aa6591520f5c96c655e40de4.jpg?s=512&d=https%3A%2F%2Fa.slack-edge.com%2Fdf10d%2Fimg%2Favatars%2Fava_0019-512.png", "custom_css": null}, {"id": 21539, "slack_id": "U09ANTYSW3B", "display_name": "z2", "bio": null, "projects_count": 2, "devlogs_count": 7, "votes_count": 0, "ships_count": 0, "projects": [{"id": 11297, "title": "raytracer", "devlogs_count": 0, "created_at": "2025-08-14T17:49:20.053-04:00"}, {"id": 11177, "title": "calculator thing", "devlogs_count": 7, "created_at": "2025-08-13T20:44:06.235-04:00"}], "coding_time_seconds": 164630, "coding_time_seconds_today": 0, "balance": "You need to have a pocket watcher badge to view this.", "badges": [], "created_at": "2025-08-13T19:51:04.989-04:00", "updated_at": "2025-08-15T07:27:09.589-04:00", "avatar": "https://secure.gravatar.com/avatar/50f089a2effeb249e66e1c2c59ae3a8e.jpg?s=512&d=https%3A%2F%2Fa.slack-edge.com%2Fdf10d%2Fimg%2Favatars%2Fava_0001-512.png", "custom_css": null}, {"id": 21540, "slack_id": "U09B3AL8REU", "display_name": "Shlok Bhatt", "bio": null, "projects_count": 0, "devlogs_count": 0, "votes_count": 0, "ships_count": 0, "projects": [], "coding_time_seconds": 0, "coding_time_seconds_today": 0, "balance": "You need to have a pocket watcher badge to view this.", "badges": [], "created_at": "2025-08-13T19:57:15.400-04:00", "updated_at": "2025-08-13T21:55:36.450-04:00", "avatar": "https://avatars.slack-edge.com/2025-08-13/9362981366673_0220699715ef1a534a76_original.jpg", "custom_css": null}, {"id": 21541, "slack_id": "U09AAD2EUV8", "display_name": "epochalypse", "bio": null, "projects_count": 0, "devlogs_count": 0, "votes_count": 0, "ships_count": 0, "projects": [], "coding_time_seconds": 0, "coding_time_seconds_today": 0, "balance": "You need to have a pocket watcher badge to view this.", "badges": [], "created_at": "2025-08-13T20:12:56.101-04:00", "updated_at": "2025-08-13T21:55:36.598-04:00", "avatar": "https://secure.gravatar.com/avatar/e1c40c0f751cd719b8da574b20331d71.jpg?s=512&d=https%3A%2F%2Fa.slack-edge.com%2Fdf10d%2Fimg%2Favatars%2Fava_0013-512.png", "custom_css": null}, {"id": 21542, "slack_id": "U099Y9ZDRSB", "display_name": "Murilo", "bio": null, "projects_count": 0, "devlogs_count": 0, "votes_count": 0, "ships_count": 0, "projects": [], "coding_time_seconds": 0, "coding_time_seconds_today": 0, "balance": "You need to have a pocket watcher badge to view this.", "badges": [], "created_at": "2025-08-13T20:39:33.948-04:00", "updated_at": "2025-08-13T21:55:36.691-04:00", "avatar": "https://secure.gravatar.com/avatar/042371e08235da8a3ea87eeb57870d25.jpg?s=512&d=https%3A%2F%2Fa.slack-edge.com%2Fdf10d%2Fimg%2Favatars%2Fava_0012-512.png", "custom_css": null}, {"id": 21543, "slack_id": "U09A9UA721K", "display_name": "Imyy", "bio": null, "projects_count": 0, "devlogs_count": 0, "votes_count": 0, "ships_count": 0, "projects": [], "coding_time_seconds": 0, "coding_time_seconds_today": 0, "balance": "You need to have a pocket watcher badge to view this.", "badges": [], "created_at": "2025-08-13T20:53:29.162-04:00", "updated_at": "2025-08-14T07:56:50.166-04:00", "avatar": "https://avatars.slack-edge.com/2025-08-13/9352450373558_936c3056ec0e294b1c74_original.png", "custom_css": null}, {"id": 21544, "slack_id": "U06NCV4344X", "display_name": "Jeff", "bio": "", "projects_count": 0, "devlogs_count": 0, "votes_count": 0, "ships_count": 0, "projects": [], "coding_time_seconds": 5479, "coding_time_seconds_today": 0, "balance": "You need to have a pocket watcher badge to view this.", "badges": [], "created_at": "2025-08-13T20:58:51.378-04:00", "updated_at": "2025-08-13T21:05:09.477-04:00", "avatar": "https://avatars.slack-edge.com/2025-07-03/9143894772453_1634707419c35803c205_original.jpg", "custom_css": null}, {"id": 21545, "slack_id": "U09B3GRFJV6", "display_name": "Galia Reveles Ortiz", "bio": null, "projects_count": 0, "devlogs_count": 0, "votes_count": 0, "ships_count": 0, "projects": [], "coding_time_seconds": 0, "coding_time_seconds_today": 0, "balance": "You need to have a pocket watcher badge to view this.", "badges": [], "created_at": "2025-08-13T21:15:09.660-04:00", "updated_at": "2025-08-14T23:21:50.796-04:00", "avatar": "https://secure.gravatar.com/avatar/966e3e07793162f72762ca6019311061.jpg?s=512&d=https%3A%2F%2Fa.slack-edge.com%2Fdf10d%2Fimg%2Favatars%2Fava_0008-512.png", "custom_css": null}], "pagination": {"page": 1073, "pages": 1192, "count": 23828, "items": 20}}