{"users": [{"id": 21546, "slack_id": "U09AAJG8466", "display_name": "Srinivas", "bio": null, "projects_count": 0, "devlogs_count": 0, "votes_count": 0, "ships_count": 0, "projects": [], "coding_time_seconds": 7535, "coding_time_seconds_today": 0, "balance": "You need to have a pocket watcher badge to view this.", "badges": [], "created_at": "2025-08-13T21:19:49.562-04:00", "updated_at": "2025-08-15T07:44:29.469-04:00", "avatar": "https://secure.gravatar.com/avatar/f396693b2f103e8f05971750afb63eca.jpg?s=512&d=https%3A%2F%2Fa.slack-edge.com%2Fdf10d%2Fimg%2Favatars%2Fava_0000-512.png", "custom_css": null}, {"id": 21547, "slack_id": "U099R3KBDJN", "display_name": "Claire Zhu", "bio": null, "projects_count": 0, "devlogs_count": 0, "votes_count": 0, "ships_count": 0, "projects": [], "coding_time_seconds": 0, "coding_time_seconds_today": 0, "balance": "You need to have a pocket watcher badge to view this.", "badges": [], "created_at": "2025-08-13T21:28:51.662-04:00", "updated_at": "2025-08-13T21:55:37.150-04:00", "avatar": "https://secure.gravatar.com/avatar/37260f285d1f4d6d28952c01370fffe2.jpg?s=512&d=https%3A%2F%2Fa.slack-edge.com%2Fdf10d%2Fimg%2Favatars%2Fava_0022-512.png", "custom_css": null}, {"id": 21548, "slack_id": "U09A4TAEQHH", "display_name": "Pranav Kandibanda", "bio": null, "projects_count": 0, "devlogs_count": 0, "votes_count": 0, "ships_count": 0, "projects": [], "coding_time_seconds": 0, "coding_time_seconds_today": 0, "balance": "You need to have a pocket watcher badge to view this.", "badges": [], "created_at": "2025-08-13T21:40:42.906-04:00", "updated_at": "2025-08-13T21:55:37.237-04:00", "avatar": "https://secure.gravatar.com/avatar/21b8f6e8148def127e46fe90b749398d.jpg?s=512&d=https%3A%2F%2Fa.slack-edge.com%2Fdf10d%2Fimg%2Favatars%2Fava_0015-512.png", "custom_css": null}, {"id": 21549, "slack_id": "U09APAMLKGR", "display_name": "Mebius", "bio": null, "projects_count": 0, "devlogs_count": 0, "votes_count": 0, "ships_count": 0, "projects": [], "coding_time_seconds": 0, "coding_time_seconds_today": 0, "balance": "You need to have a pocket watcher badge to view this.", "badges": [], "created_at": "2025-08-13T22:07:08.165-04:00", "updated_at": "2025-08-14T09:56:03.946-04:00", "avatar": "https://secure.gravatar.com/avatar/311be0ddf8c7ab74a4563f97872de1c2.jpg?s=512&d=https%3A%2F%2Fa.slack-edge.com%2Fdf10d%2Fimg%2Favatars%2Fava_0026-512.png", "custom_css": null}, {"id": 21550, "slack_id": "U099RURSW9M", "display_name": "K0miii", "bio": null, "projects_count": 2, "devlogs_count": 3, "votes_count": 0, "ships_count": 0, "projects": [{"id": 11377, "title": "TBD CORNER STORE", "devlogs_count": 0, "created_at": "2025-08-15T11:21:53.092-04:00"}, {"id": 11380, "title": "About Komi", "devlogs_count": 3, "created_at": "2025-08-15T11:40:14.691-04:00"}], "coding_time_seconds": 25065, "coding_time_seconds_today": 0, "balance": "You need to have a pocket watcher badge to view this.", "badges": [], "created_at": "2025-08-13T22:17:19.324-04:00", "updated_at": "2025-08-15T11:37:15.984-04:00", "avatar": "https://avatars.slack-edge.com/2025-08-14/9354605292469_0e9fb308c258920c84c7_original.png", "custom_css": null}, {"id": 21551, "slack_id": "U09ACKVFMC6", "display_name": "Kishi", "bio": null, "projects_count": 1, "devlogs_count": 5, "votes_count": 3, "ships_count": 0, "projects": [{"id": 11421, "title": "Undertale Inspired RPG", "devlogs_count": 5, "created_at": "2025-08-15T19:08:57.491-04:00"}], "coding_time_seconds": 87057, "coding_time_seconds_today": 0, "balance": "You need to have a pocket watcher badge to view this.", "badges": [], "created_at": "2025-08-13T22:40:35.055-04:00", "updated_at": "2025-08-15T19:38:16.821-04:00", "avatar": "https://avatars.slack-edge.com/2025-08-15/9356319525237_dadc5a340bba57712eab_original.jpg", "custom_css": null}, {"id": 21552, "slack_id": "U099YLWJLK1", "display_name": "Bimarsh", "bio": null, "projects_count": 0, "devlogs_count": 0, "votes_count": 0, "ships_count": 0, "projects": [], "coding_time_seconds": 0, "coding_time_seconds_today": 0, "balance": "You need to have a pocket watcher badge to view this.", "badges": [], "created_at": "2025-08-13T22:45:14.145-04:00", "updated_at": "2025-08-14T09:56:04.371-04:00", "avatar": "https://secure.gravatar.com/avatar/4dfeefb318cb76cc307bd032803bd86e.jpg?s=512&d=https%3A%2F%2Fa.slack-edge.com%2Fdf10d%2Fimg%2Favatars%2Fava_0010-512.png", "custom_css": null}, {"id": 21553, "slack_id": "U09AEJY4B52", "display_name": "GMTC Japan", "bio": null, "projects_count": 0, "devlogs_count": 0, "votes_count": 0, "ships_count": 0, "projects": [], "coding_time_seconds": 0, "coding_time_seconds_today": 0, "balance": "You need to have a pocket watcher badge to view this.", "badges": [], "created_at": "2025-08-13T22:48:16.780-04:00", "updated_at": "2025-08-14T09:56:04.561-04:00", "avatar": "https://avatars.slack-edge.com/2025-08-13/9345124739667_3b103d55347501cbd21d_original.png", "custom_css": null}, {"id": 21554, "slack_id": "U07ERSS4YBB", "display_name": "Bimarsh", "bio": null, "projects_count": 0, "devlogs_count": 0, "votes_count": 0, "ships_count": 0, "projects": [], "coding_time_seconds": 4321, "coding_time_seconds_today": 0, "balance": "You need to have a pocket watcher badge to view this.", "badges": [], "created_at": "2025-08-13T22:53:33.291-04:00", "updated_at": "2025-08-14T02:22:05.910-04:00", "avatar": "https://secure.gravatar.com/avatar/d28ea910b1367a5b397b096ae4af1172.jpg?s=512&d=https%3A%2F%2Fa.slack-edge.com%2Fdf10d%2Fimg%2Favatars%2Fava_0013-512.png", "custom_css": null}, {"id": 21555, "slack_id": "U099YMJDB3R", "display_name": "Ryuma Kojima", "bio": "", "projects_count": 0, "devlogs_count": 0, "votes_count": 0, "ships_count": 0, "projects": [], "coding_time_seconds": 1940, "coding_time_seconds_today": 0, "balance": "You need to have a pocket watcher badge to view this.", "badges": [], "created_at": "2025-08-13T22:54:47.428-04:00", "updated_at": "2025-08-14T09:56:04.801-04:00", "avatar": "https://avatars.slack-edge.com/2025-08-13/9350315233685_c2c24536230231d735ee_original.jpg", "custom_css": null}, {"id": 21556, "slack_id": "U09A54C8QPM", "display_name": "Akshara", "bio": null, "projects_count": 0, "devlogs_count": 0, "votes_count": 0, "ships_count": 0, "projects": [], "coding_time_seconds": 0, "coding_time_seconds_today": 0, "balance": "You need to have a pocket watcher badge to view this.", "badges": [], "created_at": "2025-08-13T22:59:58.482-04:00", "updated_at": "2025-08-14T09:56:04.895-04:00", "avatar": "https://secure.gravatar.com/avatar/2342518c33b1a9905bf3d486fc69efaa.jpg?s=512&d=https%3A%2F%2Fa.slack-edge.com%2Fdf10d%2Fimg%2Favatars%2Fava_0019-512.png", "custom_css": null}, {"id": 21557, "slack_id": "U09AAV8EQ9G", "display_name": "Manish Banjara", "bio": "", "projects_count": 0, "devlogs_count": 1, "votes_count": 0, "ships_count": 0, "projects": [], "coding_time_seconds": 79435, "coding_time_seconds_today": 0, "balance": "You need to have a pocket watcher badge to view this.", "badges": [], "created_at": "2025-08-13T23:21:39.109-04:00", "updated_at": "2025-08-31T01:18:43.119-04:00", "avatar": "https://secure.gravatar.com/avatar/d7784cb074868f7e3b04a4414cca893f.jpg?s=512&d=https%3A%2F%2Fa.slack-edge.com%2Fdf10d%2Fimg%2Favatars%2Fava_0012-512.png", "custom_css": null}, {"id": 21558, "slack_id": "U09AB2QGS02", "display_name": "Aarti kumari", "bio": null, "projects_count": 0, "devlogs_count": 0, "votes_count": 0, "ships_count": 0, "projects": [], "coding_time_seconds": 0, "coding_time_seconds_today": 0, "balance": "You need to have a pocket watcher badge to view this.", "badges": [], "created_at": "2025-08-14T00:00:13.620-04:00", "updated_at": "2025-08-14T09:56:05.109-04:00", "avatar": "https://secure.gravatar.com/avatar/71de80575c23325fe19af935de248669.jpg?s=512&d=https%3A%2F%2Fa.slack-edge.com%2Fdf10d%2Fimg%2Favatars%2Fava_0005-512.png", "custom_css": null}, {"id": 21559, "slack_id": "U09A59U78KV", "display_name": "Punkin", "bio": null, "projects_count": 0, "devlogs_count": 0, "votes_count": 0, "ships_count": 0, "projects": [], "coding_time_seconds": 0, "coding_time_seconds_today": 0, "balance": "You need to have a pocket watcher badge to view this.", "badges": [], "created_at": "2025-08-14T00:06:24.007-04:00", "updated_at": "2025-08-14T10:04:25.557-04:00", "avatar": "https://avatars.slack-edge.com/2025-08-13/9352991679990_697b69e5601ae26ae237_original.png", "custom_css": null}, {"id": 21560, "slack_id": "U09AB3AGVEE", "display_name": "Paresh Dhok", "bio": null, "projects_count": 0, "devlogs_count": 0, "votes_count": 0, "ships_count": 0, "projects": [], "coding_time_seconds": 0, "coding_time_seconds_today": 0, "balance": "You need to have a pocket watcher badge to view this.", "badges": [], "created_at": "2025-08-14T00:07:29.531-04:00", "updated_at": "2025-08-14T09:56:05.288-04:00", "avatar": "https://secure.gravatar.com/avatar/71ce9a6a785ad29388bbe8a509c449aa.jpg?s=512&d=https%3A%2F%2Fa.slack-edge.com%2Fdf10d%2Fimg%2Favatars%2Fava_0010-512.png", "custom_css": null}, {"id": 21561, "slack_id": "U06NQRBULF5", "display_name": "Undefined Chang", "bio": null, "projects_count": 1, "devlogs_count": 1, "votes_count": 0, "ships_count": 0, "projects": [{"id": 11584, "title": "Lagra Code", "devlogs_count": 1, "created_at": "2025-08-17T08:41:09.973-04:00"}], "coding_time_seconds": 12329, "coding_time_seconds_today": 0, "balance": "You need to have a pocket watcher badge to view this.", "badges": [], "created_at": "2025-08-14T00:25:18.017-04:00", "updated_at": "2025-08-17T08:29:32.860-04:00", "avatar": "https://avatars.slack-edge.com/2024-03-10/6797441258464_12974f1183d7113ac0a0_original.png", "custom_css": null}, {"id": 21562, "slack_id": "U09A5CBDQQK", "display_name": "fish test", "bio": null, "projects_count": 0, "devlogs_count": 0, "votes_count": 0, "ships_count": 0, "projects": [], "coding_time_seconds": 0, "coding_time_seconds_today": 0, "balance": "You need to have a pocket watcher badge to view this.", "badges": [], "created_at": "2025-08-14T00:36:31.039-04:00", "updated_at": "2025-08-14T09:56:05.483-04:00", "avatar": "https://secure.gravatar.com/avatar/2e6595544e6a472fbbd77def63a43527.jpg?s=512&d=https%3A%2F%2Fa.slack-edge.com%2Fdf10d%2Fimg%2Favatars%2Fava_0005-512.png", "custom_css": null}, {"id": 21563, "slack_id": "U09APPHMA65", "display_name": "Ranveer", "bio": null, "projects_count": 1, "devlogs_count": 3, "votes_count": 0, "ships_count": 0, "projects": [{"id": 11514, "title": "Raina", "devlogs_count": 3, "created_at": "2025-08-16T14:23:27.221-04:00"}], "coding_time_seconds": 100437, "coding_time_seconds_today": 0, "balance": "You need to have a pocket watcher badge to view this.", "badges": [], "created_at": "2025-08-14T00:45:52.092-04:00", "updated_at": "2025-08-15T16:44:20.804-04:00", "avatar": "https://secure.gravatar.com/avatar/9ca4afcbe223e6b1ba33595d89d2ef75.jpg?s=512&d=https%3A%2F%2Fa.slack-edge.com%2Fdf10d%2Fimg%2Favatars%2Fava_0015-512.png", "custom_css": null}, {"id": 21564, "slack_id": "U09A5GLDZ51", "display_name": "Tanitakoh Daniella", "bio": null, "projects_count": 0, "devlogs_count": 0, "votes_count": 0, "ships_count": 0, "projects": [], "coding_time_seconds": 0, "coding_time_seconds_today": 0, "balance": "You need to have a pocket watcher badge to view this.", "badges": [], "created_at": "2025-08-14T01:33:02.745-04:00", "updated_at": "2025-08-14T09:56:09.887-04:00", "avatar": "https://secure.gravatar.com/avatar/c4e7c601bc3d88cecf213502d14409c3.jpg?s=512&d=https%3A%2F%2Fa.slack-edge.com%2Fdf10d%2Fimg%2Favatars%2Fava_0025-512.png", "custom_css": null}, {"id": 21565, "slack_id": "U09A5K5LAG3", "display_name": "Ananya", "bio": null, "projects_count": 0, "devlogs_count": 0, "votes_count": 0, "ships_count": 0, "projects": [], "coding_time_seconds": 0, "coding_time_seconds_today": 0, "balance": "You need to have a pocket watcher badge to view this.", "badges": [], "created_at": "2025-08-14T01:58:55.004-04:00", "updated_at": "2025-08-14T09:56:09.999-04:00", "avatar": "https://secure.gravatar.com/avatar/8c8da11142fb183e0148cb2872b6c7ca.jpg?s=512&d=https%3A%2F%2Fa.slack-edge.com%2Fdf10d%2Fimg%2Favatars%2Fava_0022-512.png", "custom_css": null}], "pagination": {"page": 1074, "pages": 1192, "count": 23828, "items": 20}}