{"users": [{"id": 21566, "slack_id": "U09A5KGTA75", "display_name": "HgW", "bio": null, "projects_count": 0, "devlogs_count": 0, "votes_count": 0, "ships_count": 0, "projects": [], "coding_time_seconds": 0, "coding_time_seconds_today": 0, "balance": "You need to have a pocket watcher badge to view this.", "badges": [], "created_at": "2025-08-14T02:00:49.932-04:00", "updated_at": "2025-08-14T09:56:10.097-04:00", "avatar": "https://secure.gravatar.com/avatar/61c11ed3de16a7a1090368e13695272b.jpg?s=512&d=https%3A%2F%2Fa.slack-edge.com%2Fdf10d%2Fimg%2Favatars%2Fava_0010-512.png", "custom_css": null}, {"id": 21567, "slack_id": "U09ADDBU02J", "display_name": "Red SEX", "bio": null, "projects_count": 0, "devlogs_count": 0, "votes_count": 0, "ships_count": 0, "projects": [], "coding_time_seconds": 0, "coding_time_seconds_today": 0, "balance": "You need to have a pocket watcher badge to view this.", "badges": [], "created_at": "2025-08-14T02:44:14.027-04:00", "updated_at": "2025-08-22T08:34:00.976-04:00", "avatar": "https://avatars.slack-edge.com/2025-08-14/9351661864386_82a1d7232aeba0a1b1b5_original.jpg", "custom_css": null}, {"id": 21568, "slack_id": "U09B4MGUPSL", "display_name": "jhjhjh", "bio": null, "projects_count": 0, "devlogs_count": 0, "votes_count": 0, "ships_count": 0, "projects": [], "coding_time_seconds": 29809, "coding_time_seconds_today": 0, "balance": "You need to have a pocket watcher badge to view this.", "badges": [], "created_at": "2025-08-14T03:20:07.984-04:00", "updated_at": "2025-08-14T09:56:10.317-04:00", "avatar": "https://secure.gravatar.com/avatar/9192da0636482a9a94f3152bd7bd9f07.jpg?s=512&d=https%3A%2F%2Fa.slack-edge.com%2Fdf10d%2Fimg%2Favatars%2Fava_0016-512.png", "custom_css": null}, {"id": 21569, "slack_id": "U09AB3WMXK7", "display_name": "Borge", "bio": null, "projects_count": 1, "devlogs_count": 1, "votes_count": 0, "ships_count": 0, "projects": [{"id": 11218, "title": "Student Registration API", "devlogs_count": 1, "created_at": "2025-08-14T05:26:06.293-04:00"}], "coding_time_seconds": 120352, "coding_time_seconds_today": 0, "balance": "You need to have a pocket watcher badge to view this.", "badges": [], "created_at": "2025-08-14T03:28:34.353-04:00", "updated_at": "2025-08-14T09:56:10.439-04:00", "avatar": "https://avatars.slack-edge.com/2025-08-14/9378790681776_6f34fbd31073e66d487e_original.jpg", "custom_css": null}, {"id": 21570, "slack_id": "U09AFHJEJGL", "display_name": "xtrox21", "bio": null, "projects_count": 0, "devlogs_count": 0, "votes_count": 0, "ships_count": 0, "projects": [], "coding_time_seconds": 0, "coding_time_seconds_today": 0, "balance": "You need to have a pocket watcher badge to view this.", "badges": [], "created_at": "2025-08-14T03:48:59.701-04:00", "updated_at": "2025-08-14T09:56:14.590-04:00", "avatar": "https://secure.gravatar.com/avatar/30b2cd7f5463081d331e36353515773d.jpg?s=512&d=https%3A%2F%2Fa.slack-edge.com%2Fdf10d%2Fimg%2Favatars%2Fava_0005-512.png", "custom_css": null}, {"id": 21571, "slack_id": "U081G6LKSH2", "display_name": "Ibrahim", "bio": null, "projects_count": 0, "devlogs_count": 0, "votes_count": 0, "ships_count": 0, "projects": [], "coding_time_seconds": 0, "coding_time_seconds_today": 0, "balance": "You need to have a pocket watcher badge to view this.", "badges": [], "created_at": "2025-08-14T04:12:08.049-04:00", "updated_at": "2025-08-14T09:56:14.678-04:00", "avatar": "https://avatars.slack-edge.com/2025-08-14/9340052152727_934c7cd1f63941b5bdfb_original.jpg", "custom_css": null}, {"id": 21572, "slack_id": "U0826EBVBU1", "display_name": "Sevastipol", "bio": null, "projects_count": 2, "devlogs_count": 6, "votes_count": 60, "ships_count": 2, "projects": [{"id": 12565, "title": "Fun Blackjack", "devlogs_count": 1, "created_at": "2025-08-29T18:02:11.873-04:00"}, {"id": 12725, "title": "Seegson Bank", "devlogs_count": 5, "created_at": "2025-09-01T15:20:42.228-04:00"}], "coding_time_seconds": 13567, "coding_time_seconds_today": 0, "balance": "You need to have a pocket watcher badge to view this.", "badges": [], "created_at": "2025-08-14T04:19:41.526-04:00", "updated_at": "2025-08-29T17:48:49.103-04:00", "avatar": "https://avatars.slack-edge.com/2025-08-15/9357935513986_85ad090c752a301c9cdd_original.png", "custom_css": null}, {"id": 21573, "slack_id": "U08UTB17VNG", "display_name": "Faisal", "bio": null, "projects_count": 0, "devlogs_count": 0, "votes_count": 0, "ships_count": 0, "projects": [], "coding_time_seconds": 0, "coding_time_seconds_today": 0, "balance": "You need to have a pocket watcher badge to view this.", "badges": [], "created_at": "2025-08-14T04:27:50.063-04:00", "updated_at": "2025-08-14T09:56:14.837-04:00", "avatar": "https://secure.gravatar.com/avatar/c934649e3def33380877279ea72c5bc5.jpg?s=512&d=https%3A%2F%2Fa.slack-edge.com%2Fdf10d%2Fimg%2Favatars%2Fava_0005-512.png", "custom_css": null}, {"id": 21574, "slack_id": "U09AQP2REHF", "display_name": "Nexus", "bio": null, "projects_count": 0, "devlogs_count": 0, "votes_count": 0, "ships_count": 0, "projects": [], "coding_time_seconds": 0, "coding_time_seconds_today": 0, "balance": "You need to have a pocket watcher badge to view this.", "badges": [], "created_at": "2025-08-14T04:51:35.016-04:00", "updated_at": "2025-08-14T09:56:14.949-04:00", "avatar": "https://secure.gravatar.com/avatar/14629ff5bf71872bb39c8a3052b27212.jpg?s=512&d=https%3A%2F%2Fa.slack-edge.com%2Fdf10d%2Fimg%2Favatars%2Fava_0026-512.png", "custom_css": null}, {"id": 21575, "slack_id": "U09AD88RU6S", "display_name": "Batz99", "bio": null, "projects_count": 0, "devlogs_count": 0, "votes_count": 0, "ships_count": 0, "projects": [], "coding_time_seconds": 0, "coding_time_seconds_today": 0, "balance": "You need to have a pocket watcher badge to view this.", "badges": [], "created_at": "2025-08-14T04:52:31.834-04:00", "updated_at": "2025-08-14T09:56:15.191-04:00", "avatar": "https://secure.gravatar.com/avatar/0c9d3b3981bf57e2a2eef2673a6fe88e.jpg?s=512&d=https%3A%2F%2Fa.slack-edge.com%2Fdf10d%2Fimg%2Favatars%2Fava_0001-512.png", "custom_css": null}, {"id": 21576, "slack_id": "U09B5A4P8SU", "display_name": "Taha Moustarziq", "bio": null, "projects_count": 0, "devlogs_count": 0, "votes_count": 0, "ships_count": 0, "projects": [], "coding_time_seconds": 28330, "coding_time_seconds_today": 0, "balance": "You need to have a pocket watcher badge to view this.", "badges": [], "created_at": "2025-08-14T05:35:32.952-04:00", "updated_at": "2025-08-14T17:13:40.617-04:00", "avatar": "https://secure.gravatar.com/avatar/e0470edc84195c4fbb91095f2390fc71.jpg?s=512&d=https%3A%2F%2Fa.slack-edge.com%2Fdf10d%2Fimg%2Favatars%2Fava_0001-512.png", "custom_css": null}, {"id": 21577, "slack_id": "U09AR4BDCGZ", "display_name": "Toby", "bio": "I'm just a silly guy :3\r\nI also love Manga! (and anime)", "projects_count": 1, "devlogs_count": 7, "votes_count": 42, "ships_count": 1, "projects": [{"id": 11913, "title": "Recreating Minesweeper", "devlogs_count": 7, "created_at": "2025-08-21T03:08:51.020-04:00"}], "coding_time_seconds": 64624, "coding_time_seconds_today": 0, "balance": "You need to have a pocket watcher badge to view this.", "badges": [], "created_at": "2025-08-14T06:13:07.162-04:00", "updated_at": "2025-08-21T07:00:04.411-04:00", "avatar": "https://secure.gravatar.com/avatar/c12dc01037eb0904457a4be656b67086.jpg?s=512&d=https%3A%2F%2Fa.slack-edge.com%2Fdf10d%2Fimg%2Favatars%2Fava_0005-512.png", "custom_css": null}, {"id": 21578, "slack_id": "U092T5YC1QB", "display_name": "kitsunesquared", "bio": null, "projects_count": 0, "devlogs_count": 0, "votes_count": 0, "ships_count": 0, "projects": [], "coding_time_seconds": 0, "coding_time_seconds_today": 0, "balance": "You need to have a pocket watcher badge to view this.", "badges": [], "created_at": "2025-08-14T06:15:08.271-04:00", "updated_at": "2025-08-14T21:55:57.787-04:00", "avatar": "https://avatars.slack-edge.com/2025-08-14/9354542684546_65a1ac91cbc3092703f5_original.png", "custom_css": null}, {"id": 21579, "slack_id": "U09ACKT023U", "display_name": "sudhansu yadav", "bio": null, "projects_count": 0, "devlogs_count": 0, "votes_count": 0, "ships_count": 0, "projects": [], "coding_time_seconds": 0, "coding_time_seconds_today": 0, "balance": "You need to have a pocket watcher badge to view this.", "badges": [], "created_at": "2025-08-14T06:47:52.592-04:00", "updated_at": "2025-08-14T09:56:15.605-04:00", "avatar": "https://secure.gravatar.com/avatar/e619abb80a04526e927342f43b5f60ae.jpg?s=512&d=https%3A%2F%2Fa.slack-edge.com%2Fdf10d%2Fimg%2Favatars%2Fava_0024-512.png", "custom_css": null}, {"id": 21580, "slack_id": "U097YS89CPK", "display_name": "feloex", "bio": null, "projects_count": 0, "devlogs_count": 0, "votes_count": 0, "ships_count": 0, "projects": [], "coding_time_seconds": 0, "coding_time_seconds_today": 0, "balance": "You need to have a pocket watcher badge to view this.", "badges": [], "created_at": "2025-08-14T07:00:57.654-04:00", "updated_at": "2025-08-14T09:56:15.839-04:00", "avatar": "https://secure.gravatar.com/avatar/1302f076b11230aaa81b6b72db102bca.jpg?s=512&d=https%3A%2F%2Fa.slack-edge.com%2Fdf10d%2Fimg%2Favatars%2Fava_0012-512.png", "custom_css": null}, {"id": 21581, "slack_id": "U082M7NHW3B", "display_name": "Ciao", "bio": null, "projects_count": 1, "devlogs_count": 4, "votes_count": 31, "ships_count": 1, "projects": [{"id": 11245, "title": "ModBot", "devlogs_count": 4, "created_at": "2025-08-14T09:06:55.231-04:00"}], "coding_time_seconds": 104010, "coding_time_seconds_today": 0, "balance": "You need to have a pocket watcher badge to view this.", "badges": [], "created_at": "2025-08-14T07:03:39.315-04:00", "updated_at": "2025-08-14T09:56:16.073-04:00", "avatar": "https://secure.gravatar.com/avatar/2c3df0886814289531f5e5db4fd95d38.jpg?s=512&d=https%3A%2F%2Fa.slack-edge.com%2Fdf10d%2Fimg%2Favatars%2Fava_0019-512.png", "custom_css": null}, {"id": 21582, "slack_id": "U09AGHRTAN8", "display_name": "mido", "bio": null, "projects_count": 0, "devlogs_count": 0, "votes_count": 0, "ships_count": 0, "projects": [], "coding_time_seconds": 0, "coding_time_seconds_today": 0, "balance": "You need to have a pocket watcher badge to view this.", "badges": [], "created_at": "2025-08-14T07:45:04.829-04:00", "updated_at": "2025-08-14T09:56:16.193-04:00", "avatar": "https://secure.gravatar.com/avatar/1ca7f22d89cd5e6f1745cf73a6c35d38.jpg?s=512&d=https%3A%2F%2Fa.slack-edge.com%2Fdf10d%2Fimg%2Favatars%2Fava_0010-512.png", "custom_css": null}, {"id": 21583, "slack_id": "U09A74X1B5H", "display_name": "Manan", "bio": null, "projects_count": 0, "devlogs_count": 0, "votes_count": 0, "ships_count": 0, "projects": [], "coding_time_seconds": 0, "coding_time_seconds_today": 0, "balance": "You need to have a pocket watcher badge to view this.", "badges": [], "created_at": "2025-08-14T07:50:24.632-04:00", "updated_at": "2025-08-14T09:56:20.325-04:00", "avatar": "https://secure.gravatar.com/avatar/c47668cea26a679ee6e77bc5e676c203.jpg?s=512&d=https%3A%2F%2Fa.slack-edge.com%2Fdf10d%2Fimg%2Favatars%2Fava_0016-512.png", "custom_css": null}, {"id": 21584, "slack_id": "U09B60BNEM6", "display_name": "Piyush Rajbanshi", "bio": null, "projects_count": 0, "devlogs_count": 0, "votes_count": 0, "ships_count": 0, "projects": [], "coding_time_seconds": 0, "coding_time_seconds_today": 0, "balance": "You need to have a pocket watcher badge to view this.", "badges": [], "created_at": "2025-08-14T08:21:24.800-04:00", "updated_at": "2025-08-14T09:56:20.430-04:00", "avatar": "https://secure.gravatar.com/avatar/e1b37baf52622882aef06feea1afc2d4.jpg?s=512&d=https%3A%2F%2Fa.slack-edge.com%2Fdf10d%2Fimg%2Favatars%2Fava_0024-512.png", "custom_css": null}, {"id": 21585, "slack_id": "U09ARM7NR7B", "display_name": "icoverbs", "bio": null, "projects_count": 0, "devlogs_count": 0, "votes_count": 0, "ships_count": 0, "projects": [], "coding_time_seconds": 0, "coding_time_seconds_today": 0, "balance": "You need to have a pocket watcher badge to view this.", "badges": [], "created_at": "2025-08-14T08:31:06.400-04:00", "updated_at": "2025-09-06T06:03:02.860-04:00", "avatar": "https://secure.gravatar.com/avatar/886e18c05573b813e6b1d6d59851818a.jpg?s=512&d=https%3A%2F%2Fa.slack-edge.com%2Fdf10d%2Fimg%2Favatars%2Fava_0023-512.png", "custom_css": null}], "pagination": {"page": 1075, "pages": 1192, "count": 23828, "items": 20}}