{"users": [{"id": 21586, "slack_id": "U09AD756XJN", "display_name": "David Ayliffe", "bio": null, "projects_count": 0, "devlogs_count": 0, "votes_count": 0, "ships_count": 0, "projects": [], "coding_time_seconds": 0, "coding_time_seconds_today": 0, "balance": "You need to have a pocket watcher badge to view this.", "badges": [], "created_at": "2025-08-14T08:55:44.329-04:00", "updated_at": "2025-08-14T09:56:20.731-04:00", "avatar": "https://secure.gravatar.com/avatar/48e38cb8e538635ee6bb8ad7e68b32e4.jpg?s=512&d=https%3A%2F%2Fa.slack-edge.com%2Fdf10d%2Fimg%2Favatars%2Fava_0005-512.png", "custom_css": null}, {"id": 21587, "slack_id": "U09A1650CJK", "display_name": "HC Review 1", "bio": null, "projects_count": 0, "devlogs_count": 0, "votes_count": 0, "ships_count": 0, "projects": [], "coding_time_seconds": 0, "coding_time_seconds_today": 0, "balance": "You need to have a pocket watcher badge to view this.", "badges": [], "created_at": "2025-08-14T09:11:39.143-04:00", "updated_at": "2025-08-14T09:56:20.967-04:00", "avatar": "https://secure.gravatar.com/avatar/900c778858f1b6dcabc9d9957a5d421c.jpg?s=512&d=https%3A%2F%2Fa.slack-edge.com%2Fdf10d%2Fimg%2Favatars%2Fava_0022-512.png", "custom_css": null}, {"id": 21588, "slack_id": "U078H4832PM", "display_name": "_bg", "bio": null, "projects_count": 1, "devlogs_count": 1, "votes_count": 1, "ships_count": 0, "projects": [{"id": 11486, "title": "cheSSH", "devlogs_count": 1, "created_at": "2025-08-16T09:04:48.645-04:00"}], "coding_time_seconds": 16918, "coding_time_seconds_today": 2359, "balance": "You need to have a pocket watcher badge to view this.", "badges": [], "created_at": "2025-08-14T09:37:19.050-04:00", "updated_at": "2025-08-23T07:08:06.230-04:00", "avatar": "https://secure.gravatar.com/avatar/a64ea871a8b4f0e34a75e9d71755e1e2.jpg?s=512&d=https%3A%2F%2Fa.slack-edge.com%2Fdf10d%2Fimg%2Favatars%2Fava_0016-512.png", "custom_css": null}, {"id": 21589, "slack_id": "U09ADKV849Y", "display_name": "Abhirami Ramadas", "bio": null, "projects_count": 0, "devlogs_count": 0, "votes_count": 0, "ships_count": 0, "projects": [], "coding_time_seconds": 0, "coding_time_seconds_today": 0, "balance": "You need to have a pocket watcher badge to view this.", "badges": [], "created_at": "2025-08-14T10:04:56.774-04:00", "updated_at": "2025-08-14T21:55:59.625-04:00", "avatar": "https://avatars.slack-edge.com/2025-08-14/9355474712854_31b561ad59d1885b6105_original.jpg", "custom_css": null}, {"id": 21590, "slack_id": "U09ADL5GJEN", "display_name": "ksob2137", "bio": null, "projects_count": 0, "devlogs_count": 0, "votes_count": 0, "ships_count": 0, "projects": [], "coding_time_seconds": 0, "coding_time_seconds_today": 0, "balance": "You need to have a pocket watcher badge to view this.", "badges": [], "created_at": "2025-08-14T10:06:25.095-04:00", "updated_at": "2025-08-14T21:55:59.842-04:00", "avatar": "https://secure.gravatar.com/avatar/6f5afe7bbfe8847c5a887828e4b904e0.jpg?s=512&d=https%3A%2F%2Fa.slack-edge.com%2Fdf10d%2Fimg%2Favatars%2Fava_0007-512.png", "custom_css": null}, {"id": 21591, "slack_id": "U09ASJ9TTBK", "display_name": "Gabry", "bio": null, "projects_count": 0, "devlogs_count": 0, "votes_count": 0, "ships_count": 0, "projects": [], "coding_time_seconds": 0, "coding_time_seconds_today": 0, "balance": "You need to have a pocket watcher badge to view this.", "badges": [], "created_at": "2025-08-14T10:55:56.022-04:00", "updated_at": "2025-08-14T21:56:00.185-04:00", "avatar": "https://secure.gravatar.com/avatar/6f7423b3800a520010ccca5f5b8e0d35.jpg?s=512&d=https%3A%2F%2Fa.slack-edge.com%2Fdf10d%2Fimg%2Favatars%2Fava_0015-512.png", "custom_css": null}, {"id": 21592, "slack_id": "U09AFRCJB2S", "display_name": "Ammar", "bio": null, "projects_count": 0, "devlogs_count": 0, "votes_count": 0, "ships_count": 0, "projects": [], "coding_time_seconds": 0, "coding_time_seconds_today": 0, "balance": "You need to have a pocket watcher badge to view this.", "badges": [], "created_at": "2025-08-14T11:12:01.390-04:00", "updated_at": "2025-08-14T21:56:00.531-04:00", "avatar": "https://avatars.slack-edge.com/2025-08-14/9367028831921_dd8b310389dabafc1baf_original.jpg", "custom_css": null}, {"id": 21593, "slack_id": "U09A22KPC7R", "display_name": "RandomDroid", "bio": null, "projects_count": 0, "devlogs_count": 0, "votes_count": 0, "ships_count": 0, "projects": [], "coding_time_seconds": 0, "coding_time_seconds_today": 0, "balance": "You need to have a pocket watcher badge to view this.", "badges": [], "created_at": "2025-08-14T11:22:45.404-04:00", "updated_at": "2025-08-14T21:56:00.916-04:00", "avatar": "https://secure.gravatar.com/avatar/753b7cbe25af10602a906e105c394a31.jpg?s=512&d=https%3A%2F%2Fa.slack-edge.com%2Fdf10d%2Fimg%2Favatars%2Fava_0004-512.png", "custom_css": null}, {"id": 21594, "slack_id": "U09A22G7TJT", "display_name": "Daniel Adamek", "bio": null, "projects_count": 0, "devlogs_count": 0, "votes_count": 0, "ships_count": 0, "projects": [], "coding_time_seconds": 0, "coding_time_seconds_today": 0, "balance": "You need to have a pocket watcher badge to view this.", "badges": [], "created_at": "2025-08-14T11:23:20.096-04:00", "updated_at": "2025-08-14T21:56:01.230-04:00", "avatar": "https://secure.gravatar.com/avatar/669696a13a06cba2473f593a85f82a6e.jpg?s=512&d=https%3A%2F%2Fa.slack-edge.com%2Fdf10d%2Fimg%2Favatars%2Fava_0013-512.png", "custom_css": null}, {"id": 21595, "slack_id": "U09AFTT5562", "display_name": "Jabber", "bio": null, "projects_count": 1, "devlogs_count": 2, "votes_count": 3, "ships_count": 0, "projects": [{"id": 11269, "title": "Simple Authorization Tool", "devlogs_count": 2, "created_at": "2025-08-14T12:33:11.989-04:00"}], "coding_time_seconds": 37555, "coding_time_seconds_today": 0, "balance": "You need to have a pocket watcher badge to view this.", "badges": [], "created_at": "2025-08-14T11:23:49.736-04:00", "updated_at": "2025-09-21T16:00:16.700-04:00", "avatar": "https://secure.gravatar.com/avatar/34ab3675f9c1fcac6f18d8a1838359c2.jpg?s=512&d=https%3A%2F%2Fa.slack-edge.com%2Fdf10d%2Fimg%2Favatars%2Fava_0003-512.png", "custom_css": null}, {"id": 21596, "slack_id": "U09ADEDKUNR", "display_name": "Bethany C", "bio": "", "projects_count": 0, "devlogs_count": 0, "votes_count": 0, "ships_count": 0, "projects": [], "coding_time_seconds": 0, "coding_time_seconds_today": 0, "balance": "You need to have a pocket watcher badge to view this.", "badges": [], "created_at": "2025-08-14T11:40:43.978-04:00", "updated_at": "2025-08-14T21:56:01.490-04:00", "avatar": "https://secure.gravatar.com/avatar/dabf4069af9fe61b634f2fe53d9e6cf9.jpg?s=512&d=https%3A%2F%2Fa.slack-edge.com%2Fdf10d%2Fimg%2Favatars%2Fava_0016-512.png", "custom_css": null}, {"id": 21597, "slack_id": "U09AED5DP7C", "display_name": "Marcos Reloaded", "bio": null, "projects_count": 0, "devlogs_count": 0, "votes_count": 0, "ships_count": 0, "projects": [], "coding_time_seconds": 0, "coding_time_seconds_today": 0, "balance": "You need to have a pocket watcher badge to view this.", "badges": [], "created_at": "2025-08-14T12:03:47.312-04:00", "updated_at": "2025-08-14T21:56:01.607-04:00", "avatar": "https://avatars.slack-edge.com/2025-08-14/9381381801168_28010cff9e5d71dd73f7_original.jpg", "custom_css": null}, {"id": 21598, "slack_id": "U09AT3BLGP3", "display_name": "Joe Corporal", "bio": null, "projects_count": 0, "devlogs_count": 0, "votes_count": 0, "ships_count": 0, "projects": [], "coding_time_seconds": 0, "coding_time_seconds_today": 0, "balance": "You need to have a pocket watcher badge to view this.", "badges": [], "created_at": "2025-08-14T12:06:26.708-04:00", "updated_at": "2025-08-14T21:56:01.721-04:00", "avatar": "https://secure.gravatar.com/avatar/64af5a74c7c602888f849b245b03912c.jpg?s=512&d=https%3A%2F%2Fa.slack-edge.com%2Fdf10d%2Fimg%2Favatars%2Fava_0023-512.png", "custom_css": null}, {"id": 21599, "slack_id": "U09A2EA63DM", "display_name": "Anthony", "bio": null, "projects_count": 0, "devlogs_count": 0, "votes_count": 0, "ships_count": 0, "projects": [], "coding_time_seconds": 0, "coding_time_seconds_today": 0, "balance": "You need to have a pocket watcher badge to view this.", "badges": [], "created_at": "2025-08-14T12:23:04.887-04:00", "updated_at": "2025-08-25T15:55:53.674-04:00", "avatar": "https://avatars.slack-edge.com/2025-08-25/9434031055456_994868f323985d24639b_original.jpg", "custom_css": null}, {"id": 21600, "slack_id": "U09AGASKZ54", "display_name": "Arfa Fatima", "bio": null, "projects_count": 0, "devlogs_count": 0, "votes_count": 0, "ships_count": 0, "projects": [], "coding_time_seconds": 0, "coding_time_seconds_today": 0, "balance": "You need to have a pocket watcher badge to view this.", "badges": [], "created_at": "2025-08-14T12:25:37.323-04:00", "updated_at": "2025-08-14T21:56:01.941-04:00", "avatar": "https://secure.gravatar.com/avatar/59fb0895aabe5b8f3a966637eacab738.jpg?s=512&d=https%3A%2F%2Fa.slack-edge.com%2Fdf10d%2Fimg%2Favatars%2Fava_0016-512.png", "custom_css": null}, {"id": 21601, "slack_id": "U09B7EGPFK2", "display_name": "Navi Rachuri", "bio": null, "projects_count": 0, "devlogs_count": 0, "votes_count": 0, "ships_count": 0, "projects": [], "coding_time_seconds": 0, "coding_time_seconds_today": 0, "balance": "You need to have a pocket watcher badge to view this.", "badges": [], "created_at": "2025-08-14T12:26:53.133-04:00", "updated_at": "2025-08-14T21:56:02.067-04:00", "avatar": "https://secure.gravatar.com/avatar/fa0c3ac64beacf9a695bd3ea23122191.jpg?s=512&d=https%3A%2F%2Fa.slack-edge.com%2Fdf10d%2Fimg%2Favatars%2Fava_0014-512.png", "custom_css": null}, {"id": 21602, "slack_id": "U09AJEDTTA8", "display_name": "Kaustubh", "bio": null, "projects_count": 0, "devlogs_count": 0, "votes_count": 0, "ships_count": 0, "projects": [], "coding_time_seconds": 0, "coding_time_seconds_today": 0, "balance": "You need to have a pocket watcher badge to view this.", "badges": [], "created_at": "2025-08-14T13:01:25.702-04:00", "updated_at": "2025-08-14T21:56:02.264-04:00", "avatar": "https://secure.gravatar.com/avatar/3fd80620fb89bf2ae5fbe26d7207473a.jpg?s=512&d=https%3A%2F%2Fa.slack-edge.com%2Fdf10d%2Fimg%2Favatars%2Fava_0024-512.png", "custom_css": null}, {"id": 21603, "slack_id": "U09ATCHPD1P", "display_name": "Vxsdi", "bio": "Hi!, I\u00b4m a Begginer ", "projects_count": 0, "devlogs_count": 0, "votes_count": 0, "ships_count": 0, "projects": [], "coding_time_seconds": 0, "coding_time_seconds_today": 0, "balance": "You need to have a pocket watcher badge to view this.", "badges": [], "created_at": "2025-08-14T13:02:52.121-04:00", "updated_at": "2025-08-14T21:56:02.396-04:00", "avatar": "https://secure.gravatar.com/avatar/ed9daedff3dd7866d094bad6833c2f7d.jpg?s=512&d=https%3A%2F%2Fa.slack-edge.com%2Fdf10d%2Fimg%2Favatars%2Fava_0015-512.png", "custom_css": null}, {"id": 21604, "slack_id": "U09AE23B2UD", "display_name": "arthur", "bio": null, "projects_count": 0, "devlogs_count": 0, "votes_count": 0, "ships_count": 0, "projects": [], "coding_time_seconds": 0, "coding_time_seconds_today": 0, "balance": "You need to have a pocket watcher badge to view this.", "badges": [], "created_at": "2025-08-14T13:20:54.839-04:00", "updated_at": "2025-08-14T21:56:02.514-04:00", "avatar": "https://secure.gravatar.com/avatar/5d8ba7a761550e95de2de824642c47b4.jpg?s=512&d=https%3A%2F%2Fa.slack-edge.com%2Fdf10d%2Fimg%2Favatars%2Fava_0018-512.png", "custom_css": null}, {"id": 21605, "slack_id": "U09AE2NJHJ9", "display_name": "Samaira", "bio": null, "projects_count": 0, "devlogs_count": 0, "votes_count": 0, "ships_count": 0, "projects": [], "coding_time_seconds": 0, "coding_time_seconds_today": 0, "balance": "You need to have a pocket watcher badge to view this.", "badges": [], "created_at": "2025-08-14T13:22:27.894-04:00", "updated_at": "2025-08-14T21:56:02.692-04:00", "avatar": "https://avatars.slack-edge.com/2025-08-14/9354975542786_7aafc7221e7f5c73ca2a_original.jpg", "custom_css": null}], "pagination": {"page": 1076, "pages": 1192, "count": 23828, "items": 20}}