{"users": [{"id": 21626, "slack_id": "U099W2BDU05", "display_name": "shuntia", "bio": null, "projects_count": 2, "devlogs_count": 4, "votes_count": 40, "ships_count": 1, "projects": [{"id": 11510, "title": "lunaris", "devlogs_count": 4, "created_at": "2025-08-16T14:10:57.015-04:00"}, {"id": 11519, "title": "personal website", "devlogs_count": 0, "created_at": "2025-08-16T14:44:56.825-04:00"}], "coding_time_seconds": 197669, "coding_time_seconds_today": 0, "balance": "You need to have a pocket watcher badge to view this.", "badges": [{"name": "Maiden Voyage", "text": "you shipped your first project! the journey begins...", "icon": "\ud83d\udea2"}], "created_at": "2025-08-14T19:11:35.206-04:00", "updated_at": "2025-09-12T18:33:16.444-04:00", "avatar": "https://secure.gravatar.com/avatar/c4ae18ad2c5aad36bcac2affb1fdcde4.jpg?s=512&d=https%3A%2F%2Fa.slack-edge.com%2Fdf10d%2Fimg%2Favatars%2Fava_0016-512.png", "custom_css": null}, {"id": 21627, "slack_id": "U09AGL57X5Y", "display_name": "Tej", "bio": null, "projects_count": 0, "devlogs_count": 0, "votes_count": 0, "ships_count": 0, "projects": [], "coding_time_seconds": 0, "coding_time_seconds_today": 0, "balance": "You need to have a pocket watcher badge to view this.", "badges": [], "created_at": "2025-08-14T19:25:06.917-04:00", "updated_at": "2025-08-14T21:56:15.771-04:00", "avatar": "https://avatars.slack-edge.com/2025-08-14/9383489927568_42e4207a4e1799ad5754_original.jpg", "custom_css": null}, {"id": 21628, "slack_id": "U09AFNYJEAZ", "display_name": "Kayden NA", "bio": null, "projects_count": 0, "devlogs_count": 0, "votes_count": 0, "ships_count": 0, "projects": [], "coding_time_seconds": 0, "coding_time_seconds_today": 0, "balance": "You need to have a pocket watcher badge to view this.", "badges": [], "created_at": "2025-08-14T20:18:06.384-04:00", "updated_at": "2025-08-14T21:56:15.914-04:00", "avatar": "https://avatars.slack-edge.com/2025-08-14/9358631397398_dfcea22c45e9360b9293_original.png", "custom_css": null}, {"id": 21629, "slack_id": "U09AVBSGY81", "display_name": "Saito Ryosuke", "bio": null, "projects_count": 0, "devlogs_count": 0, "votes_count": 0, "ships_count": 0, "projects": [], "coding_time_seconds": 7167, "coding_time_seconds_today": 0, "balance": "You need to have a pocket watcher badge to view this.", "badges": [], "created_at": "2025-08-14T20:23:20.927-04:00", "updated_at": "2025-08-14T21:56:16.038-04:00", "avatar": "https://secure.gravatar.com/avatar/52ba59d52caa1f751fb23ff5c7b3d489.jpg?s=512&d=https%3A%2F%2Fa.slack-edge.com%2Fdf10d%2Fimg%2Favatars%2Fava_0012-512.png", "custom_css": null}, {"id": 21630, "slack_id": "U09B9L009HN", "display_name": "Vikrant Kamat", "bio": null, "projects_count": 0, "devlogs_count": 0, "votes_count": 0, "ships_count": 0, "projects": [], "coding_time_seconds": 0, "coding_time_seconds_today": 0, "balance": "You need to have a pocket watcher badge to view this.", "badges": [], "created_at": "2025-08-14T20:35:15.404-04:00", "updated_at": "2025-08-14T21:56:16.175-04:00", "avatar": "https://secure.gravatar.com/avatar/2008a4eff3332b6b9774f947b2b14099.jpg?s=512&d=https%3A%2F%2Fa.slack-edge.com%2Fdf10d%2Fimg%2Favatars%2Fava_0015-512.png", "custom_css": null}, {"id": 21631, "slack_id": "U09ALJ56LH2", "display_name": "Ashley", "bio": null, "projects_count": 0, "devlogs_count": 0, "votes_count": 0, "ships_count": 0, "projects": [], "coding_time_seconds": 0, "coding_time_seconds_today": 0, "balance": "You need to have a pocket watcher badge to view this.", "badges": [], "created_at": "2025-08-14T20:51:28.393-04:00", "updated_at": "2025-08-14T21:56:21.635-04:00", "avatar": "https://secure.gravatar.com/avatar/61fdea108efb2be52d948377a1cd78de.jpg?s=512&d=https%3A%2F%2Fa.slack-edge.com%2Fdf10d%2Fimg%2Favatars%2Fava_0021-512.png", "custom_css": null}, {"id": 21632, "slack_id": "U099X1LMNQ7", "display_name": "Joseph Roche", "bio": null, "projects_count": 0, "devlogs_count": 0, "votes_count": 0, "ships_count": 0, "projects": [], "coding_time_seconds": 0, "coding_time_seconds_today": 0, "balance": "You need to have a pocket watcher badge to view this.", "badges": [], "created_at": "2025-08-14T21:02:50.688-04:00", "updated_at": "2025-08-14T21:56:21.814-04:00", "avatar": "https://avatars.slack-edge.com/2025-08-14/9383764018336_9a17a87ca263474b6ead_original.png", "custom_css": null}, {"id": 21633, "slack_id": "U09B9RU1C2C", "display_name": "Nathalie Li", "bio": null, "projects_count": 0, "devlogs_count": 0, "votes_count": 0, "ships_count": 0, "projects": [], "coding_time_seconds": 6075, "coding_time_seconds_today": 0, "balance": "You need to have a pocket watcher badge to view this.", "badges": [], "created_at": "2025-08-14T21:55:10.655-04:00", "updated_at": "2025-08-15T03:57:22.790-04:00", "avatar": "https://secure.gravatar.com/avatar/171663f8bbbbdd9abc2807d595d2d281.jpg?s=512&d=https%3A%2F%2Fa.slack-edge.com%2Fdf10d%2Fimg%2Favatars%2Fava_0018-512.png", "custom_css": null}, {"id": 21634, "slack_id": "U09B9SRMYJC", "display_name": "Tasnia Jasim", "bio": null, "projects_count": 0, "devlogs_count": 0, "votes_count": 0, "ships_count": 0, "projects": [], "coding_time_seconds": 0, "coding_time_seconds_today": 0, "balance": "You need to have a pocket watcher badge to view this.", "badges": [], "created_at": "2025-08-14T22:02:45.464-04:00", "updated_at": "2025-08-15T03:57:23.103-04:00", "avatar": "https://avatars.slack-edge.com/2025-08-14/9356050109029_f29140c733f971a98bfe_original.png", "custom_css": null}, {"id": 21635, "slack_id": "U09AH4RDU4A", "display_name": "Addy Bee", "bio": null, "projects_count": 0, "devlogs_count": 0, "votes_count": 0, "ships_count": 0, "projects": [], "coding_time_seconds": 24553, "coding_time_seconds_today": 0, "balance": "You need to have a pocket watcher badge to view this.", "badges": [], "created_at": "2025-08-14T22:22:18.956-04:00", "updated_at": "2025-08-19T21:55:56.001-04:00", "avatar": "https://avatars.slack-edge.com/2025-08-19/9391148300257_2a5bdbb0801970a140b9_original.jpg", "custom_css": null}, {"id": 21636, "slack_id": "U07AVRPK472", "display_name": "Mustafa Alvi", "bio": null, "projects_count": 0, "devlogs_count": 0, "votes_count": 1, "ships_count": 0, "projects": [], "coding_time_seconds": 49804, "coding_time_seconds_today": 0, "balance": "You need to have a pocket watcher badge to view this.", "badges": [], "created_at": "2025-08-14T22:30:55.296-04:00", "updated_at": "2025-08-15T03:57:23.376-04:00", "avatar": "https://avatars.slack-edge.com/2025-07-26/9257674727026_6c9c42f245194d42ac90_original.jpg", "custom_css": null}, {"id": 21637, "slack_id": "U09AGRS2E02", "display_name": "Sean", "bio": null, "projects_count": 0, "devlogs_count": 0, "votes_count": 0, "ships_count": 0, "projects": [], "coding_time_seconds": 0, "coding_time_seconds_today": 0, "balance": "You need to have a pocket watcher badge to view this.", "badges": [], "created_at": "2025-08-14T22:49:55.462-04:00", "updated_at": "2025-08-15T03:57:23.469-04:00", "avatar": "https://secure.gravatar.com/avatar/5a0f717d3cd43a817877c01c5336c8c8.jpg?s=512&d=https%3A%2F%2Fa.slack-edge.com%2Fdf10d%2Fimg%2Favatars%2Fava_0003-512.png", "custom_css": null}, {"id": 21638, "slack_id": "U07B2P2RR0E", "display_name": "marco mars", "bio": null, "projects_count": 0, "devlogs_count": 0, "votes_count": 0, "ships_count": 0, "projects": [], "coding_time_seconds": 0, "coding_time_seconds_today": 0, "balance": "You need to have a pocket watcher badge to view this.", "badges": [], "created_at": "2025-08-14T23:29:35.089-04:00", "updated_at": "2025-08-15T03:57:23.572-04:00", "avatar": "https://avatars.slack-edge.com/2025-08-15/9356260260469_2d3c2db682f956a547ab_original.png", "custom_css": null}, {"id": 21639, "slack_id": "U09ABFQF2CB", "display_name": "Hussain", "bio": null, "projects_count": 0, "devlogs_count": 0, "votes_count": 0, "ships_count": 0, "projects": [], "coding_time_seconds": 0, "coding_time_seconds_today": 0, "balance": "You need to have a pocket watcher badge to view this.", "badges": [], "created_at": "2025-08-14T23:34:07.379-04:00", "updated_at": "2025-08-15T11:23:41.291-04:00", "avatar": "https://avatars.slack-edge.com/2025-08-14/9359070046214_75231ca678e2b6ef87b5_original.png", "custom_css": null}, {"id": 21640, "slack_id": "U09AM1JN6UC", "display_name": "Tom", "bio": null, "projects_count": 1, "devlogs_count": 1, "votes_count": 14, "ships_count": 1, "projects": [{"id": 12418, "title": "Two Player Slime Fighter", "devlogs_count": 1, "created_at": "2025-08-27T07:16:09.564-04:00"}], "coding_time_seconds": 83492, "coding_time_seconds_today": 0, "balance": "You need to have a pocket watcher badge to view this.", "badges": [], "created_at": "2025-08-14T23:34:51.055-04:00", "updated_at": "2025-08-27T08:30:09.421-04:00", "avatar": "https://secure.gravatar.com/avatar/6abe74a158080365492872f483a4affa.jpg?s=512&d=https%3A%2F%2Fa.slack-edge.com%2Fdf10d%2Fimg%2Favatars%2Fava_0017-512.png", "custom_css": null}, {"id": 21641, "slack_id": "U09AVSTTXK3", "display_name": "Joius", "bio": null, "projects_count": 0, "devlogs_count": 0, "votes_count": 0, "ships_count": 0, "projects": [], "coding_time_seconds": 0, "coding_time_seconds_today": 0, "balance": "You need to have a pocket watcher badge to view this.", "badges": [], "created_at": "2025-08-14T23:40:19.977-04:00", "updated_at": "2025-08-15T09:39:22.304-04:00", "avatar": "https://avatars.slack-edge.com/2025-08-14/9356264500533_0300f424ca16a69ff5dc_original.png", "custom_css": null}, {"id": 21642, "slack_id": "U0797PR5UTA", "display_name": "Elly", "bio": null, "projects_count": 2, "devlogs_count": 3, "votes_count": 21, "ships_count": 0, "projects": [{"id": 12382, "title": "void: automata", "devlogs_count": 2, "created_at": "2025-08-26T13:54:24.809-04:00"}, {"id": 11333, "title": "Lola's Lunar Adventure", "devlogs_count": 1, "created_at": "2025-08-15T00:07:37.172-04:00"}], "coding_time_seconds": 897810, "coding_time_seconds_today": 0, "balance": "You need to have a pocket watcher badge to view this.", "badges": [], "created_at": "2025-08-14T23:54:35.726-04:00", "updated_at": "2025-08-15T03:57:24.029-04:00", "avatar": "https://avatars.slack-edge.com/2024-06-17/7291017132082_9cbb14096bbb6a10f24e_original.png", "custom_css": null}, {"id": 21643, "slack_id": "U09AK5XLEJ2", "display_name": "Aziz", "bio": null, "projects_count": 0, "devlogs_count": 0, "votes_count": 0, "ships_count": 0, "projects": [], "coding_time_seconds": 0, "coding_time_seconds_today": 0, "balance": "You need to have a pocket watcher badge to view this.", "badges": [], "created_at": "2025-08-15T00:33:03.194-04:00", "updated_at": "2025-08-15T03:57:24.208-04:00", "avatar": "https://secure.gravatar.com/avatar/6d57e5c27ed0f6295255a7118fa948aa.jpg?s=512&d=https%3A%2F%2Fa.slack-edge.com%2Fdf10d%2Fimg%2Favatars%2Fava_0012-512.png", "custom_css": null}, {"id": 21644, "slack_id": "U09BA85JY1E", "display_name": "Rishik reddy", "bio": null, "projects_count": 1, "devlogs_count": 0, "votes_count": 0, "ships_count": 0, "projects": [{"id": 11337, "title": "hosting website in AWS s3 bucket", "devlogs_count": 0, "created_at": "2025-08-15T01:43:45.369-04:00"}], "coding_time_seconds": 360, "coding_time_seconds_today": 0, "balance": "You need to have a pocket watcher badge to view this.", "badges": [], "created_at": "2025-08-15T00:53:27.558-04:00", "updated_at": "2025-08-15T03:57:24.380-04:00", "avatar": "https://avatars.slack-edge.com/2025-08-14/9361260025156_c328be40ce29df65d392_original.jpg", "custom_css": null}, {"id": 21645, "slack_id": "U09AMCMV2NQ", "display_name": "Arsyad Yudhistira", "bio": null, "projects_count": 0, "devlogs_count": 0, "votes_count": 0, "ships_count": 0, "projects": [], "coding_time_seconds": 0, "coding_time_seconds_today": 0, "balance": "You need to have a pocket watcher badge to view this.", "badges": [], "created_at": "2025-08-15T02:06:20.762-04:00", "updated_at": "2025-08-15T03:57:24.476-04:00", "avatar": "https://avatars.slack-edge.com/2025-08-14/9370275720337_56844467f80ee7ae9a06_original.png", "custom_css": null}], "pagination": {"page": 1078, "pages": 1192, "count": 23828, "items": 20}}