{"users": [{"id": 21646, "slack_id": "U09AYJ4H14G", "display_name": "Nitheesh K 24BEC1459", "bio": null, "projects_count": 0, "devlogs_count": 0, "votes_count": 0, "ships_count": 0, "projects": [], "coding_time_seconds": 64446, "coding_time_seconds_today": 0, "balance": "You need to have a pocket watcher badge to view this.", "badges": [], "created_at": "2025-08-15T02:15:17.917-04:00", "updated_at": "2025-08-15T03:57:24.581-04:00", "avatar": "https://avatars.slack-edge.com/2025-08-14/9345611259159_34e82e68ba04f4cbad18_original.png", "custom_css": null}, {"id": 21647, "slack_id": "U09ALELGDD2", "display_name": "mouna", "bio": null, "projects_count": 0, "devlogs_count": 0, "votes_count": 0, "ships_count": 0, "projects": [], "coding_time_seconds": 0, "coding_time_seconds_today": 0, "balance": "You need to have a pocket watcher badge to view this.", "badges": [], "created_at": "2025-08-15T03:03:04.274-04:00", "updated_at": "2025-08-15T03:57:24.711-04:00", "avatar": "https://secure.gravatar.com/avatar/a2f61559e265b23f2d453bc12dc1d238.jpg?s=512&d=https%3A%2F%2Fa.slack-edge.com%2Fdf10d%2Fimg%2Favatars%2Fava_0002-512.png", "custom_css": null}, {"id": 21648, "slack_id": "U09AGM0BJ69", "display_name": "Xanath Hernandez", "bio": null, "projects_count": 0, "devlogs_count": 0, "votes_count": 0, "ships_count": 0, "projects": [], "coding_time_seconds": 0, "coding_time_seconds_today": 0, "balance": "You need to have a pocket watcher badge to view this.", "badges": [], "created_at": "2025-08-15T03:07:57.404-04:00", "updated_at": "2025-08-15T03:57:28.965-04:00", "avatar": "https://secure.gravatar.com/avatar/99bb86d8ca91419187f3bd26a0fad079.jpg?s=512&d=https%3A%2F%2Fa.slack-edge.com%2Fdf10d%2Fimg%2Favatars%2Fava_0011-512.png", "custom_css": null}, {"id": 21649, "slack_id": "U09AMJUF75J", "display_name": "Arihant Surana", "bio": null, "projects_count": 0, "devlogs_count": 0, "votes_count": 0, "ships_count": 0, "projects": [], "coding_time_seconds": 0, "coding_time_seconds_today": 0, "balance": "You need to have a pocket watcher badge to view this.", "badges": [], "created_at": "2025-08-15T03:17:43.100-04:00", "updated_at": "2025-08-15T03:57:29.059-04:00", "avatar": "https://secure.gravatar.com/avatar/853edebac7617618ce07d589b6cc5bd6.jpg?s=512&d=https%3A%2F%2Fa.slack-edge.com%2Fdf10d%2Fimg%2Favatars%2Fava_0003-512.png", "custom_css": null}, {"id": 21650, "slack_id": "U09A5RL1JVD", "display_name": "Lungu Stefan", "bio": null, "projects_count": 1, "devlogs_count": 1, "votes_count": 1, "ships_count": 0, "projects": [{"id": 11603, "title": "Site for Emi", "devlogs_count": 1, "created_at": "2025-08-17T14:17:23.573-04:00"}], "coding_time_seconds": 16295, "coding_time_seconds_today": 0, "balance": "You need to have a pocket watcher badge to view this.", "badges": [], "created_at": "2025-08-15T03:47:18.058-04:00", "updated_at": "2025-08-17T14:12:20.434-04:00", "avatar": "https://secure.gravatar.com/avatar/b5c1ed3056cd82bf6348d161f8c12aa6.jpg?s=512&d=https%3A%2F%2Fa.slack-edge.com%2Fdf10d%2Fimg%2Favatars%2Fava_0025-512.png", "custom_css": null}, {"id": 21651, "slack_id": "U09A5V3CRTR", "display_name": "Farid Alizada", "bio": null, "projects_count": 0, "devlogs_count": 0, "votes_count": 0, "ships_count": 0, "projects": [], "coding_time_seconds": 0, "coding_time_seconds_today": 0, "balance": "You need to have a pocket watcher badge to view this.", "badges": [], "created_at": "2025-08-15T04:20:32.661-04:00", "updated_at": "2025-08-15T09:56:44.941-04:00", "avatar": "https://secure.gravatar.com/avatar/6d5567572205f0187cc1717f9d7f4550.jpg?s=512&d=https%3A%2F%2Fa.slack-edge.com%2Fdf10d%2Fimg%2Favatars%2Fava_0026-512.png", "custom_css": null}, {"id": 21652, "slack_id": "U09AC91KQ03", "display_name": "Muhammad Abdulqayyum", "bio": null, "projects_count": 0, "devlogs_count": 0, "votes_count": 0, "ships_count": 0, "projects": [], "coding_time_seconds": 0, "coding_time_seconds_today": 0, "balance": "You need to have a pocket watcher badge to view this.", "badges": [], "created_at": "2025-08-15T04:26:53.111-04:00", "updated_at": "2025-08-15T09:56:45.047-04:00", "avatar": "https://secure.gravatar.com/avatar/20a46a4739aca4a2c2258588f9781f01.jpg?s=512&d=https%3A%2F%2Fa.slack-edge.com%2Fdf10d%2Fimg%2Favatars%2Fava_0025-512.png", "custom_css": null}, {"id": 21653, "slack_id": "U096RGX4413", "display_name": "ReinaMacCredy", "bio": null, "projects_count": 0, "devlogs_count": 0, "votes_count": 0, "ships_count": 0, "projects": [], "coding_time_seconds": 0, "coding_time_seconds_today": 0, "balance": "You need to have a pocket watcher badge to view this.", "badges": [], "created_at": "2025-08-15T04:43:46.649-04:00", "updated_at": "2025-08-15T09:56:45.146-04:00", "avatar": "https://avatars.slack-edge.com/2025-08-15/9358250175730_efaaac3198ccee1b7cad_original.jpg", "custom_css": null}, {"id": 21654, "slack_id": "U09ACDRLMMZ", "display_name": "Anselme Garnier", "bio": null, "projects_count": 1, "devlogs_count": 0, "votes_count": 0, "ships_count": 0, "projects": [{"id": 11351, "title": "A spacy Website", "devlogs_count": 0, "created_at": "2025-08-15T05:42:26.445-04:00"}], "coding_time_seconds": 3427, "coding_time_seconds_today": 0, "balance": "You need to have a pocket watcher badge to view this.", "badges": [], "created_at": "2025-08-15T05:00:51.043-04:00", "updated_at": "2025-08-15T09:56:49.304-04:00", "avatar": "https://avatars.slack-edge.com/2025-08-15/9346141808903_6b599561a84162775743_original.jpg", "custom_css": null}, {"id": 21655, "slack_id": "U07DQQ6GKM2", "display_name": "Mostafa", "bio": null, "projects_count": 0, "devlogs_count": 0, "votes_count": 0, "ships_count": 0, "projects": [], "coding_time_seconds": 0, "coding_time_seconds_today": 0, "balance": "You need to have a pocket watcher badge to view this.", "badges": [], "created_at": "2025-08-15T05:31:14.399-04:00", "updated_at": "2025-08-15T09:56:49.404-04:00", "avatar": "https://avatars.slack-edge.com/2025-08-15/9385108060592_8bcb5b3d5445b7f4c04d_original.png", "custom_css": null}, {"id": 21656, "slack_id": "U09ACNRLE59", "display_name": "Aamir Aziz", "bio": null, "projects_count": 0, "devlogs_count": 0, "votes_count": 0, "ships_count": 0, "projects": [], "coding_time_seconds": 0, "coding_time_seconds_today": 0, "balance": "You need to have a pocket watcher badge to view this.", "badges": [], "created_at": "2025-08-15T06:36:47.609-04:00", "updated_at": "2025-08-15T09:56:49.493-04:00", "avatar": "https://avatars.slack-edge.com/2025-08-15/9346448497015_4f5971f187507bc5c487_original.png", "custom_css": null}, {"id": 21657, "slack_id": "U09ALH8KELW", "display_name": "Gamerman", "bio": null, "projects_count": 0, "devlogs_count": 0, "votes_count": 0, "ships_count": 0, "projects": [], "coding_time_seconds": 0, "coding_time_seconds_today": 0, "balance": "You need to have a pocket watcher badge to view this.", "badges": [], "created_at": "2025-08-15T08:42:58.842-04:00", "updated_at": "2025-08-15T09:56:49.664-04:00", "avatar": "https://secure.gravatar.com/avatar/1f4de644471d89e27d0d4a3feaf25968.jpg?s=512&d=https%3A%2F%2Fa.slack-edge.com%2Fdf10d%2Fimg%2Favatars%2Fava_0020-512.png", "custom_css": null}, {"id": 21658, "slack_id": "U09A6LL4DAT", "display_name": "Fahad Anwar", "bio": null, "projects_count": 0, "devlogs_count": 0, "votes_count": 0, "ships_count": 0, "projects": [], "coding_time_seconds": 44955, "coding_time_seconds_today": 0, "balance": "You need to have a pocket watcher badge to view this.", "badges": [], "created_at": "2025-08-15T09:01:44.204-04:00", "updated_at": "2025-08-15T11:11:15.755-04:00", "avatar": "https://avatars.slack-edge.com/2025-08-15/9362772177188_2ffea1e9489dcd826bf9_original.png", "custom_css": null}, {"id": 21659, "slack_id": "U091R390NLU", "display_name": "Surya", "bio": null, "projects_count": 0, "devlogs_count": 0, "votes_count": 0, "ships_count": 0, "projects": [], "coding_time_seconds": 0, "coding_time_seconds_today": 0, "balance": "You need to have a pocket watcher badge to view this.", "badges": [], "created_at": "2025-08-15T09:23:15.585-04:00", "updated_at": "2025-08-15T09:56:49.894-04:00", "avatar": "https://secure.gravatar.com/avatar/b2ae21f667b3891dad4e9fdd4f0519af.jpg?s=512&d=https%3A%2F%2Fa.slack-edge.com%2Fdf10d%2Fimg%2Favatars%2Fava_0001-512.png", "custom_css": null}, {"id": 21660, "slack_id": "U08S8PF85A4", "display_name": "Hannah Tran", "bio": null, "projects_count": 0, "devlogs_count": 0, "votes_count": 0, "ships_count": 0, "projects": [], "coding_time_seconds": 0, "coding_time_seconds_today": 0, "balance": "You need to have a pocket watcher badge to view this.", "badges": [], "created_at": "2025-08-15T09:26:15.978-04:00", "updated_at": "2025-08-15T09:56:49.981-04:00", "avatar": "https://secure.gravatar.com/avatar/9494ad6470653e523c540e10a6f61b8f.jpg?s=512&d=https%3A%2F%2Fa.slack-edge.com%2Fdf10d%2Fimg%2Favatars%2Fava_0000-512.png", "custom_css": null}, {"id": 21661, "slack_id": "U09AK5YJA10", "display_name": "Chandraprakash Bairwa", "bio": null, "projects_count": 0, "devlogs_count": 0, "votes_count": 0, "ships_count": 0, "projects": [], "coding_time_seconds": 0, "coding_time_seconds_today": 0, "balance": "You need to have a pocket watcher badge to view this.", "badges": [], "created_at": "2025-08-15T09:36:38.728-04:00", "updated_at": "2025-08-15T09:56:50.097-04:00", "avatar": "https://secure.gravatar.com/avatar/e7ce5414770c2f91651fdcca89bba86c.jpg?s=512&d=https%3A%2F%2Fa.slack-edge.com%2Fdf10d%2Fimg%2Favatars%2Fava_0008-512.png", "custom_css": null}, {"id": 21662, "slack_id": "U09ALQCDA1L", "display_name": "Phantompulse", "bio": null, "projects_count": 0, "devlogs_count": 0, "votes_count": 0, "ships_count": 0, "projects": [], "coding_time_seconds": 6277, "coding_time_seconds_today": 0, "balance": "You need to have a pocket watcher badge to view this.", "badges": [], "created_at": "2025-08-15T09:39:05.190-04:00", "updated_at": "2025-08-15T12:34:19.434-04:00", "avatar": "https://avatars.slack-edge.com/2025-08-15/9357904238597_028a4e838e0a341f684d_original.png", "custom_css": null}, {"id": 21663, "slack_id": "U09AP0E5Z60", "display_name": "Swaraa", "bio": null, "projects_count": 0, "devlogs_count": 0, "votes_count": 0, "ships_count": 0, "projects": [], "coding_time_seconds": 0, "coding_time_seconds_today": 0, "balance": "You need to have a pocket watcher badge to view this.", "badges": [], "created_at": "2025-08-15T09:58:55.969-04:00", "updated_at": "2025-08-15T15:56:35.259-04:00", "avatar": "https://secure.gravatar.com/avatar/4a9539023df105ab743d01ae93f61735.jpg?s=512&d=https%3A%2F%2Fa.slack-edge.com%2Fdf10d%2Fimg%2Favatars%2Fava_0002-512.png", "custom_css": null}, {"id": 21664, "slack_id": "U084RC0JWN4", "display_name": "BassnotBass", "bio": null, "projects_count": 0, "devlogs_count": 0, "votes_count": 0, "ships_count": 0, "projects": [], "coding_time_seconds": 10444, "coding_time_seconds_today": 0, "balance": "You need to have a pocket watcher badge to view this.", "badges": [], "created_at": "2025-08-15T10:09:35.915-04:00", "updated_at": "2025-08-15T12:40:25.498-04:00", "avatar": "https://secure.gravatar.com/avatar/8f91d72791ce3ac760dca09f6f21090c.jpg?s=512&d=https%3A%2F%2Fa.slack-edge.com%2Fdf10d%2Fimg%2Favatars%2Fava_0017-512.png", "custom_css": null}, {"id": 21665, "slack_id": "U06GDEA5EJX", "display_name": "mara", "bio": null, "projects_count": 0, "devlogs_count": 0, "votes_count": 0, "ships_count": 0, "projects": [], "coding_time_seconds": 8, "coding_time_seconds_today": 0, "balance": "You need to have a pocket watcher badge to view this.", "badges": [], "created_at": "2025-08-15T10:17:49.109-04:00", "updated_at": "2025-08-15T22:51:34.497-04:00", "avatar": "https://avatars.slack-edge.com/2025-08-02/9317830572000_b38a90fdc43381d24bc0_original.png", "custom_css": null}], "pagination": {"page": 1079, "pages": 1192, "count": 23828, "items": 20}}