{"users": [{"id": 2141, "slack_id": "U0922JBASSV", "display_name": "Unil", "bio": null, "projects_count": 0, "devlogs_count": 0, "votes_count": 0, "ships_count": 0, "projects": [], "coding_time_seconds": 0, "coding_time_seconds_today": 0, "balance": "You need to have a pocket watcher badge to view this.", "badges": [], "created_at": "2025-06-16T14:50:12.500-04:00", "updated_at": "2025-07-03T19:20:54.584-04:00", "avatar": "https://secure.gravatar.com/avatar/6701488397a4f6ddf1294441458ed00e.jpg?s=512&d=https%3A%2F%2Fa.slack-edge.com%2Fdf10d%2Fimg%2Favatars%2Fava_0010-512.png", "custom_css": null}, {"id": 2142, "slack_id": "U091PS0F8D8", "display_name": "DevilGamer69", "bio": null, "projects_count": 0, "devlogs_count": 0, "votes_count": 0, "ships_count": 0, "projects": [], "coding_time_seconds": 0, "coding_time_seconds_today": 0, "balance": "You need to have a pocket watcher badge to view this.", "badges": [], "created_at": "2025-06-16T14:50:28.917-04:00", "updated_at": "2025-07-03T19:20:54.852-04:00", "avatar": "https://avatars.slack-edge.com/2025-06-16/9080569253936_958e1428d144ba8f9a69_original.jpg", "custom_css": null}, {"id": 2143, "slack_id": "U05TK2C8L87", "display_name": "Kaiyuran Thavaruban", "bio": null, "projects_count": 0, "devlogs_count": 0, "votes_count": 0, "ships_count": 0, "projects": [], "coding_time_seconds": 0, "coding_time_seconds_today": 0, "balance": "You need to have a pocket watcher badge to view this.", "badges": [], "created_at": "2025-06-16T14:50:38.465-04:00", "updated_at": "2025-07-03T19:20:55.119-04:00", "avatar": "https://avatars.slack-edge.com/2023-09-26/5951626206563_3f04b3f62b0978176c25_original.gif", "custom_css": null}, {"id": 2144, "slack_id": "U0791LFDG94", "display_name": "Daniel B", "bio": "Hi! I'm a 17 year old developer in the UK. I love cybersecurity, hardware hacking, linux, self-hosting, web design and flutter, and I'm also the founder of Runshaw Hack Club. Want to get in touch? Feel free to e-mail me at hi@danieldb.uk!", "projects_count": 1, "devlogs_count": 3, "votes_count": 20, "ships_count": 1, "projects": [{"id": 11815, "title": "My Runshaw app", "devlogs_count": 3, "created_at": "2025-08-19T18:41:37.100-04:00"}], "coding_time_seconds": 193274, "coding_time_seconds_today": 0, "balance": "You need to have a pocket watcher badge to view this.", "badges": [{"name": "Maiden Voyage", "text": "you shipped your first project! the journey begins...", "icon": "\ud83d\udea2"}], "created_at": "2025-06-16T14:50:46.960-04:00", "updated_at": "2025-09-20T13:22:06.716-04:00", "avatar": "https://avatars.slack-edge.com/2024-07-16/7432669811442_36516a5a5c55bcab7ddd_original.png", "custom_css": null}, {"id": 2145, "slack_id": "U08DDHGPBCM", "display_name": "JakeOJeff", "bio": null, "projects_count": 3, "devlogs_count": 9, "votes_count": 4, "ships_count": 1, "projects": [{"id": 201, "title": "OSSint", "devlogs_count": 6, "created_at": "2025-06-16T15:18:39.241-04:00"}, {"id": 13466, "title": "Levelisteria", "devlogs_count": 1, "created_at": "2025-09-17T04:47:58.375-04:00"}, {"id": 13435, "title": "VeloraOS", "devlogs_count": 2, "created_at": "2025-09-16T10:03:00.811-04:00"}], "coding_time_seconds": 757879, "coding_time_seconds_today": 0, "balance": "You need to have a pocket watcher badge to view this.", "badges": [{"name": "Maiden Voyage", "text": "you shipped your first project! the journey begins...", "icon": "\ud83d\udea2"}], "created_at": "2025-06-16T14:51:05.853-04:00", "updated_at": "2025-09-10T22:52:14.245-04:00", "avatar": "https://avatars.slack-edge.com/2025-08-23/9400781753140_97033af2cc4a2c3fe9d4_original.png", "custom_css": null}, {"id": 2146, "slack_id": "U0922JMH5DX", "display_name": "Abhimanyu Jaiswal", "bio": null, "projects_count": 0, "devlogs_count": 0, "votes_count": 0, "ships_count": 0, "projects": [], "coding_time_seconds": 0, "coding_time_seconds_today": 0, "balance": "You need to have a pocket watcher badge to view this.", "badges": [], "created_at": "2025-06-16T14:51:15.569-04:00", "updated_at": "2025-07-03T19:20:55.920-04:00", "avatar": "https://avatars.slack-edge.com/2025-06-16/9058499487668_7b12a96c4f483fd6423f_original.jpg", "custom_css": null}, {"id": 2147, "slack_id": "U091H72JFHC", "display_name": "Minlor", "bio": null, "projects_count": 0, "devlogs_count": 0, "votes_count": 0, "ships_count": 0, "projects": [], "coding_time_seconds": 0, "coding_time_seconds_today": 0, "balance": "You need to have a pocket watcher badge to view this.", "badges": [], "created_at": "2025-06-16T14:51:20.022-04:00", "updated_at": "2025-07-03T19:20:56.187-04:00", "avatar": "https://secure.gravatar.com/avatar/d7c06353ca792c7b882b941442b2035b.jpg?s=512&d=https%3A%2F%2Fa.slack-edge.com%2Fdf10d%2Fimg%2Favatars%2Fava_0002-512.png", "custom_css": null}, {"id": 2148, "slack_id": "U091Q2T5W9Y", "display_name": "DeVaughn Skillern", "bio": null, "projects_count": 0, "devlogs_count": 0, "votes_count": 0, "ships_count": 0, "projects": [], "coding_time_seconds": 0, "coding_time_seconds_today": 0, "balance": "You need to have a pocket watcher badge to view this.", "badges": [], "created_at": "2025-06-16T14:51:28.610-04:00", "updated_at": "2025-07-03T19:20:56.471-04:00", "avatar": "https://secure.gravatar.com/avatar/1e81569d6dd8f608a735613d3b5af286.jpg?s=512&d=https%3A%2F%2Fa.slack-edge.com%2Fdf10d%2Fimg%2Favatars%2Fava_0025-512.png", "custom_css": null}, {"id": 2149, "slack_id": "U0918P88KRD", "display_name": "Patricia Queiroz", "bio": null, "projects_count": 0, "devlogs_count": 0, "votes_count": 0, "ships_count": 0, "projects": [], "coding_time_seconds": 0, "coding_time_seconds_today": 0, "balance": "You need to have a pocket watcher badge to view this.", "badges": [], "created_at": "2025-06-16T14:51:35.945-04:00", "updated_at": "2025-07-03T19:20:56.737-04:00", "avatar": "https://avatars.slack-edge.com/2025-06-16/9051274231334_2bd8eb163e6452182e6e_original.jpg", "custom_css": null}, {"id": 2150, "slack_id": "U091N97FPK7", "display_name": "Muhammad Tauha", "bio": null, "projects_count": 0, "devlogs_count": 0, "votes_count": 0, "ships_count": 0, "projects": [], "coding_time_seconds": 106291, "coding_time_seconds_today": 0, "balance": "You need to have a pocket watcher badge to view this.", "badges": [], "created_at": "2025-06-16T14:51:39.698-04:00", "updated_at": "2025-07-03T19:20:57.010-04:00", "avatar": "https://avatars.slack-edge.com/2025-06-16/9056338640533_0379c8e98a9c2bf4ebb8_original.png", "custom_css": null}, {"id": 2151, "slack_id": "U091QE7T9T6", "display_name": "Lucas", "bio": null, "projects_count": 0, "devlogs_count": 0, "votes_count": 0, "ships_count": 0, "projects": [], "coding_time_seconds": 0, "coding_time_seconds_today": 0, "balance": "You need to have a pocket watcher badge to view this.", "badges": [], "created_at": "2025-06-16T14:51:57.348-04:00", "updated_at": "2025-07-03T19:20:57.282-04:00", "avatar": "https://secure.gravatar.com/avatar/f1afdc28654096597bea700927514867.jpg?s=512&d=https%3A%2F%2Fa.slack-edge.com%2Fdf10d%2Fimg%2Favatars%2Fava_0015-512.png", "custom_css": null}, {"id": 2152, "slack_id": "U091Q2XAAGJ", "display_name": "DaFray31", "bio": null, "projects_count": 0, "devlogs_count": 0, "votes_count": 0, "ships_count": 0, "projects": [], "coding_time_seconds": 0, "coding_time_seconds_today": 0, "balance": "You need to have a pocket watcher badge to view this.", "badges": [], "created_at": "2025-06-16T14:52:07.056-04:00", "updated_at": "2025-07-03T19:20:57.555-04:00", "avatar": "https://secure.gravatar.com/avatar/88ba77dfcc9a481c7ae4c485cb9aec11.jpg?s=512&d=https%3A%2F%2Fa.slack-edge.com%2Fdf10d%2Fimg%2Favatars%2Fava_0021-512.png", "custom_css": null}, {"id": 2153, "slack_id": "U092CGFNGF2", "display_name": "Cody Simons", "bio": null, "projects_count": 0, "devlogs_count": 0, "votes_count": 0, "ships_count": 0, "projects": [], "coding_time_seconds": 889, "coding_time_seconds_today": 0, "balance": "You need to have a pocket watcher badge to view this.", "badges": [], "created_at": "2025-06-16T14:52:24.028-04:00", "updated_at": "2025-07-03T19:20:57.846-04:00", "avatar": "https://secure.gravatar.com/avatar/29f6f50db02f3be3151c0e462b8232c7.jpg?s=512&d=https%3A%2F%2Fa.slack-edge.com%2Fdf10d%2Fimg%2Favatars%2Fava_0007-512.png", "custom_css": null}, {"id": 2154, "slack_id": "U0798PVPA73", "display_name": "ThatOneDev", "bio": null, "projects_count": 0, "devlogs_count": 0, "votes_count": 0, "ships_count": 0, "projects": [], "coding_time_seconds": 0, "coding_time_seconds_today": 0, "balance": "You need to have a pocket watcher badge to view this.", "badges": [], "created_at": "2025-06-16T14:52:37.428-04:00", "updated_at": "2025-07-03T19:20:58.115-04:00", "avatar": "https://avatars.slack-edge.com/2024-06-19/7314843901857_9ce16ebd4e20d08c772f_original.png", "custom_css": null}, {"id": 2155, "slack_id": "U0918PCM7FH", "display_name": "Tariq Hussain", "bio": null, "projects_count": 3, "devlogs_count": 0, "votes_count": 0, "ships_count": 0, "projects": [{"id": 918, "title": "AnimeHeroApp", "devlogs_count": 0, "created_at": "2025-06-17T11:14:19.703-04:00"}, {"id": 919, "title": "Media3MusicPlayerCompose", "devlogs_count": 0, "created_at": "2025-06-17T11:17:01.332-04:00"}, {"id": 921, "title": "ComposeTodoApp", "devlogs_count": 0, "created_at": "2025-06-17T11:18:28.719-04:00"}], "coding_time_seconds": 17936, "coding_time_seconds_today": 0, "balance": "You need to have a pocket watcher badge to view this.", "badges": [], "created_at": "2025-06-16T14:52:41.414-04:00", "updated_at": "2025-07-03T19:20:58.395-04:00", "avatar": "https://secure.gravatar.com/avatar/c55716556e755b4b3167fa221c6e9558.jpg?s=512&d=https%3A%2F%2Fa.slack-edge.com%2Fdf10d%2Fimg%2Favatars%2Fava_0006-512.png", "custom_css": null}, {"id": 2156, "slack_id": "U091N98B0NR", "display_name": "cornstalks_and_telecasters", "bio": null, "projects_count": 0, "devlogs_count": 0, "votes_count": 0, "ships_count": 0, "projects": [], "coding_time_seconds": 0, "coding_time_seconds_today": 0, "balance": "You need to have a pocket watcher badge to view this.", "badges": [], "created_at": "2025-06-16T14:52:42.624-04:00", "updated_at": "2025-07-03T19:20:58.679-04:00", "avatar": "https://secure.gravatar.com/avatar/3ab5d41fcaf263ac21968debb677e7e8.jpg?s=512&d=https%3A%2F%2Fa.slack-edge.com%2Fdf10d%2Fimg%2Favatars%2Fava_0013-512.png", "custom_css": null}, {"id": 2157, "slack_id": "U0918P76HL7", "display_name": "yehor", "bio": "Hi im Yehor. Im from Ukraine and i like programming and technology as a whole. My goal is to get the baofengs and the Flipper Zero!", "projects_count": 7, "devlogs_count": 38, "votes_count": 131, "ships_count": 7, "projects": [{"id": 1419, "title": "Beepcrypt", "devlogs_count": 7, "created_at": "2025-06-18T14:27:52.949-04:00"}, {"id": 3480, "title": "Pirate Play", "devlogs_count": 1, "created_at": "2025-06-24T12:08:53.295-04:00"}, {"id": 4234, "title": "Dashboardy", "devlogs_count": 5, "created_at": "2025-06-28T11:10:38.618-04:00"}, {"id": 6705, "title": "The Terminal News", "devlogs_count": 3, "created_at": "2025-07-15T09:31:38.199-04:00"}, {"id": 7256, "title": "WIBR", "devlogs_count": 5, "created_at": "2025-07-20T11:28:32.871-04:00"}, {"id": 9031, "title": "RssTUI", "devlogs_count": 12, "created_at": "2025-07-30T08:20:15.611-04:00"}, {"id": 10859, "title": "FlipUI", "devlogs_count": 5, "created_at": "2025-08-11T11:12:44.644-04:00"}], "coding_time_seconds": 283868, "coding_time_seconds_today": 0, "balance": "You need to have a pocket watcher badge to view this.", "badges": [{"name": "Maiden Voyage", "text": "you shipped your first project! the journey begins...", "icon": "\ud83d\udea2"}, {"name": "Ballot Stuffer", "text": "vote 100 times.", "icon": "https://summer.hackclub.com/assets/i_voted-bf851b48.png"}, {"name": "Yapper I", "text": "Posted 10 comments on devlogs.", "icon": "\ud83d\udcac"}], "created_at": "2025-06-16T14:52:50.409-04:00", "updated_at": "2025-09-10T22:52:14.643-04:00", "avatar": "https://secure.gravatar.com/avatar/1b354e60fa6a4e63fdb6f9a15fa36ece.jpg?s=512&d=https%3A%2F%2Fa.slack-edge.com%2Fdf10d%2Fimg%2Favatars%2Fava_0017-512.png", "custom_css": null}, {"id": 2158, "slack_id": "U091N9E5U2H", "display_name": "Nicholas Wasmiller", "bio": null, "projects_count": 0, "devlogs_count": 0, "votes_count": 0, "ships_count": 0, "projects": [], "coding_time_seconds": 293928, "coding_time_seconds_today": 0, "balance": "You need to have a pocket watcher badge to view this.", "badges": [], "created_at": "2025-06-16T14:52:52.149-04:00", "updated_at": "2025-07-03T19:20:59.223-04:00", "avatar": "https://secure.gravatar.com/avatar/8f79be58f38218c3822b0fd3320713eb.jpg?s=512&d=https%3A%2F%2Fa.slack-edge.com%2Fdf10d%2Fimg%2Favatars%2Fava_0013-512.png", "custom_css": null}, {"id": 2159, "slack_id": "U091QEN3ACU", "display_name": "MCbabel", "bio": null, "projects_count": 0, "devlogs_count": 0, "votes_count": 0, "ships_count": 0, "projects": [], "coding_time_seconds": 59925, "coding_time_seconds_today": 2454, "balance": "You need to have a pocket watcher badge to view this.", "badges": [], "created_at": "2025-06-16T14:53:00.789-04:00", "updated_at": "2025-07-19T16:14:25.203-04:00", "avatar": "https://avatars.slack-edge.com/2025-06-16/9056344261173_e53c48f62c058c62b55f_original.png", "custom_css": null}, {"id": 2160, "slack_id": "U078KR8QSSY", "display_name": "Chaitanya vaswani", "bio": "", "projects_count": 5, "devlogs_count": 3, "votes_count": 22, "ships_count": 1, "projects": [{"id": 2829, "title": "Return from the abyss", "devlogs_count": 1, "created_at": "2025-06-22T07:14:37.864-04:00"}, {"id": 8753, "title": "Bullet Hell", "devlogs_count": 0, "created_at": "2025-07-29T05:43:28.042-04:00"}, {"id": 12600, "title": "Game Coach AI App", "devlogs_count": 0, "created_at": "2025-08-30T09:24:53.454-04:00"}, {"id": 8752, "title": "Bullet Hell", "devlogs_count": 1, "created_at": "2025-07-29T05:43:27.757-04:00"}, {"id": 4306, "title": "Site", "devlogs_count": 1, "created_at": "2025-06-28T20:29:26.595-04:00"}], "coding_time_seconds": 112972, "coding_time_seconds_today": 0, "balance": "You need to have a pocket watcher badge to view this.", "badges": [{"name": "Maiden Voyage", "text": "you shipped your first project! the journey begins...", "icon": "\ud83d\udea2"}, {"name": "Graphic Design is My Passion", "text": "Oh God How Did This Get Here I Am Not Good With Computer", "icon": "\ud83c\udfa8"}], "created_at": "2025-06-16T14:53:12.145-04:00", "updated_at": "2025-09-10T22:52:14.722-04:00", "avatar": "https://avatars.slack-edge.com/2024-06-17/7274825074599_983e080e7d6484fb70d1_original.jpg", "custom_css": "/* Main container */\r\n.profile-container {\r\n  padding: 20px;\r\n  border-radius: 20px;\r\n  background: rgba(1, 102, 204, 0.2);\r\n  backdrop-filter: blur(12px);\r\n  box-shadow: 0 8px 32px rgba(0, 102, 204, 0.4);\r\n  font-family: 'Segoe UI', Tahoma, sans-serif;\r\n  color: #e6f0ff;\r\n  text-align: center;\r\n}\r\n\r\n/* Header section */\r\n.profile-header {\r\n  margin-bottom: 20px;\r\n}\r\n\r\n/* Avatar */\r\n.profile-avatar {\r\n  border-radius: 50%;\r\n  border: 3px solid rgba(0, 153, 255, 0.4);\r\n  box-shadow: 0 4px 15px rgba(0, 153, 255, 0.3);\r\n  object-fit: cover;\r\n  transition: transform 0.3s ease, box-shadow 0.3s ease;\r\n}\r\n\r\n.profile-avatar:hover {\r\n  transform: scale(1.05);\r\n  box-shadow: 0 6px 20px rgba(0, 153, 255, 0.6);\r\n}\r\n\r\n/* Name */\r\n.profile-name {\r\n  font-weight: bold;\r\n  color: #cce6ff;\r\n}\r\n\r\n/* Bio text */\r\n.profile-bio {\r\n  opacity: 0.85;\r\n  margin-bottom: 20px;\r\n  color: #b3d9ff;\r\n}\r\n\r\n/* Stats section */\r\n.profile-stats {\r\n  display: flex;\r\n  justify-content: space-around;\r\n  background: rgba(0, 102, 204, 0.15);\r\n  padding: 12px;\r\n  border-radius: 12px;\r\n}\r\n\r\n/* Individual stat */\r\n.profile-stat {\r\n  display: flex;\r\n  flex-direction: column;\r\n  font-weight: bold;\r\n  color: #99ccff;\r\n}\r\n\r\n.profile-stat span {\r\n  font-weight: normal;\r\n  opacity: 0.75;\r\n}"}], "pagination": {"page": 108, "pages": 1192, "count": 23828, "items": 20}}