{"users": [{"id": 21666, "slack_id": "U09A78FF14P", "display_name": "TerminalDev2", "bio": null, "projects_count": 0, "devlogs_count": 0, "votes_count": 0, "ships_count": 0, "projects": [], "coding_time_seconds": 0, "coding_time_seconds_today": 0, "balance": "You need to have a pocket watcher badge to view this.", "badges": [], "created_at": "2025-08-15T10:18:46.379-04:00", "updated_at": "2025-08-15T15:56:35.553-04:00", "avatar": "https://secure.gravatar.com/avatar/c3a1d880cded37fda342b5d645720353.jpg?s=512&d=https%3A%2F%2Fa.slack-edge.com%2Fdf10d%2Fimg%2Favatars%2Fava_0022-512.png", "custom_css": null}, {"id": 21667, "slack_id": "U09AM1R0K0W", "display_name": "Zandr Ortiz", "bio": "", "projects_count": 0, "devlogs_count": 0, "votes_count": 0, "ships_count": 0, "projects": [], "coding_time_seconds": 5, "coding_time_seconds_today": 0, "balance": "You need to have a pocket watcher badge to view this.", "badges": [], "created_at": "2025-08-15T10:28:40.848-04:00", "updated_at": "2025-08-15T15:56:35.653-04:00", "avatar": "https://secure.gravatar.com/avatar/0a93f3b0e597cb22b3ef6046609106ab.jpg?s=512&d=https%3A%2F%2Fa.slack-edge.com%2Fdf10d%2Fimg%2Favatars%2Fava_0022-512.png", "custom_css": null}, {"id": 21668, "slack_id": "U07DJ13FUCB", "display_name": "The Gamer3514", "bio": "", "projects_count": 0, "devlogs_count": 1, "votes_count": 1, "ships_count": 0, "projects": [], "coding_time_seconds": 89990, "coding_time_seconds_today": 0, "balance": "You need to have a pocket watcher badge to view this.", "badges": [], "created_at": "2025-08-15T10:48:19.620-04:00", "updated_at": "2025-08-15T12:00:05.586-04:00", "avatar": "https://avatars.slack-edge.com/2024-07-22/7457323313509_d5b30b297719fbdcd689_original.png", "custom_css": null}, {"id": 21669, "slack_id": "U09AKHA323U", "display_name": "Yasamin", "bio": null, "projects_count": 0, "devlogs_count": 0, "votes_count": 0, "ships_count": 0, "projects": [], "coding_time_seconds": 0, "coding_time_seconds_today": 0, "balance": "You need to have a pocket watcher badge to view this.", "badges": [], "created_at": "2025-08-15T10:48:35.079-04:00", "updated_at": "2025-08-15T15:56:35.845-04:00", "avatar": "https://secure.gravatar.com/avatar/eafb0effed258c007f85bc6896868e7f.jpg?s=512&d=https%3A%2F%2Fa.slack-edge.com%2Fdf10d%2Fimg%2Favatars%2Fava_0018-512.png", "custom_css": null}, {"id": 21670, "slack_id": "U09A7MNS615", "display_name": "Anh Quan Ly", "bio": null, "projects_count": 0, "devlogs_count": 0, "votes_count": 0, "ships_count": 0, "projects": [], "coding_time_seconds": 0, "coding_time_seconds_today": 0, "balance": "You need to have a pocket watcher badge to view this.", "badges": [], "created_at": "2025-08-15T11:37:36.331-04:00", "updated_at": "2025-08-15T15:56:35.954-04:00", "avatar": "https://secure.gravatar.com/avatar/863d1e9d73e4b440a7bdec97b12bd0c2.jpg?s=512&d=https%3A%2F%2Fa.slack-edge.com%2Fdf10d%2Fimg%2Favatars%2Fava_0011-512.png", "custom_css": null}, {"id": 21671, "slack_id": "U09APFYNP3N", "display_name": "maverick", "bio": null, "projects_count": 0, "devlogs_count": 0, "votes_count": 0, "ships_count": 0, "projects": [], "coding_time_seconds": 0, "coding_time_seconds_today": 0, "balance": "You need to have a pocket watcher badge to view this.", "badges": [], "created_at": "2025-08-15T11:38:48.131-04:00", "updated_at": "2025-08-15T15:56:36.076-04:00", "avatar": "https://secure.gravatar.com/avatar/dca609f1e560aed7524825a4cf45fe63.jpg?s=512&d=https%3A%2F%2Fa.slack-edge.com%2Fdf10d%2Fimg%2Favatars%2Fava_0004-512.png", "custom_css": null}, {"id": 21672, "slack_id": "U09AKRYLPLJ", "display_name": "ngocvo2511", "bio": null, "projects_count": 0, "devlogs_count": 0, "votes_count": 0, "ships_count": 0, "projects": [], "coding_time_seconds": 0, "coding_time_seconds_today": 0, "balance": "You need to have a pocket watcher badge to view this.", "badges": [], "created_at": "2025-08-15T11:40:00.249-04:00", "updated_at": "2025-08-15T15:56:36.411-04:00", "avatar": "https://secure.gravatar.com/avatar/f450e75f76ed0d9cf01e4de9064420b2.jpg?s=512&d=https%3A%2F%2Fa.slack-edge.com%2Fdf10d%2Fimg%2Favatars%2Fava_0024-512.png", "custom_css": null}, {"id": 21673, "slack_id": "U09AMDRMAJ2", "display_name": "V\u0169 Kh\u1eafc Long", "bio": null, "projects_count": 0, "devlogs_count": 0, "votes_count": 0, "ships_count": 0, "projects": [], "coding_time_seconds": 0, "coding_time_seconds_today": 0, "balance": "You need to have a pocket watcher badge to view this.", "badges": [], "created_at": "2025-08-15T11:48:49.847-04:00", "updated_at": "2025-08-15T15:56:36.662-04:00", "avatar": "https://avatars.slack-edge.com/2025-08-15/9358519685093_f041b9c6c7eaaefdeba1_original.jpg", "custom_css": null}, {"id": 21674, "slack_id": "U09AKTXQRRQ", "display_name": "Nguy\u1ec5n H\u1eefu Nh\u1eadt T\u00f9ng", "bio": null, "projects_count": 0, "devlogs_count": 0, "votes_count": 0, "ships_count": 0, "projects": [], "coding_time_seconds": 0, "coding_time_seconds_today": 0, "balance": "You need to have a pocket watcher badge to view this.", "badges": [], "created_at": "2025-08-15T11:52:14.397-04:00", "updated_at": "2025-08-15T15:56:36.842-04:00", "avatar": "https://avatars.slack-edge.com/2025-08-15/9358544543653_dfcda01327b3f72a39ed_original.jpg", "custom_css": null}, {"id": 21675, "slack_id": "U09AE3KQYM9", "display_name": "huubao", "bio": null, "projects_count": 0, "devlogs_count": 0, "votes_count": 0, "ships_count": 0, "projects": [], "coding_time_seconds": 0, "coding_time_seconds_today": 0, "balance": "You need to have a pocket watcher badge to view this.", "badges": [], "created_at": "2025-08-15T11:52:59.563-04:00", "updated_at": "2025-08-15T15:56:36.943-04:00", "avatar": "https://secure.gravatar.com/avatar/d307ba92f91a308baacec5f0d0bf8d81.jpg?s=512&d=https%3A%2F%2Fa.slack-edge.com%2Fdf10d%2Fimg%2Favatars%2Fava_0005-512.png", "custom_css": null}, {"id": 21676, "slack_id": "U09AMET82JJ", "display_name": "Jason Pham", "bio": null, "projects_count": 0, "devlogs_count": 0, "votes_count": 0, "ships_count": 0, "projects": [], "coding_time_seconds": 9291, "coding_time_seconds_today": 0, "balance": "You need to have a pocket watcher badge to view this.", "badges": [], "created_at": "2025-08-15T11:53:10.066-04:00", "updated_at": "2025-08-15T15:56:37.046-04:00", "avatar": "https://secure.gravatar.com/avatar/44e5754ccf77dc28eb6f896510d346be.jpg?s=512&d=https%3A%2F%2Fa.slack-edge.com%2Fdf10d%2Fimg%2Favatars%2Fava_0013-512.png", "custom_css": null}, {"id": 21677, "slack_id": "U09BCGZASHW", "display_name": "Kichirou", "bio": null, "projects_count": 0, "devlogs_count": 0, "votes_count": 0, "ships_count": 0, "projects": [], "coding_time_seconds": 0, "coding_time_seconds_today": 0, "balance": "You need to have a pocket watcher badge to view this.", "badges": [], "created_at": "2025-08-15T11:55:16.950-04:00", "updated_at": "2025-08-15T15:56:37.150-04:00", "avatar": "https://secure.gravatar.com/avatar/bb165b52d97b12b0b4a8e3018cc1ec27.jpg?s=512&d=https%3A%2F%2Fa.slack-edge.com%2Fdf10d%2Fimg%2Favatars%2Fava_0002-512.png", "custom_css": null}, {"id": 21678, "slack_id": "U09AMF2626S", "display_name": "Hao Hoang", "bio": null, "projects_count": 0, "devlogs_count": 0, "votes_count": 0, "ships_count": 0, "projects": [], "coding_time_seconds": 0, "coding_time_seconds_today": 0, "balance": "You need to have a pocket watcher badge to view this.", "badges": [], "created_at": "2025-08-15T11:56:16.602-04:00", "updated_at": "2025-08-15T15:56:37.248-04:00", "avatar": "https://secure.gravatar.com/avatar/f3d359cb0ec137169d8fc63836b3f90e.jpg?s=512&d=https%3A%2F%2Fa.slack-edge.com%2Fdf10d%2Fimg%2Favatars%2Fava_0004-512.png", "custom_css": null}, {"id": 21679, "slack_id": "U09AJG3FKCM", "display_name": "No.1 Clone", "bio": null, "projects_count": 0, "devlogs_count": 0, "votes_count": 0, "ships_count": 0, "projects": [], "coding_time_seconds": 0, "coding_time_seconds_today": 0, "balance": "You need to have a pocket watcher badge to view this.", "badges": [], "created_at": "2025-08-15T11:58:44.793-04:00", "updated_at": "2025-08-15T15:56:37.382-04:00", "avatar": "https://avatars.slack-edge.com/2025-08-15/9358566141029_2433054b6d48c5b09745_original.png", "custom_css": null}, {"id": 21680, "slack_id": "U09BCJBSBNU", "display_name": "Manoj Saini", "bio": null, "projects_count": 0, "devlogs_count": 0, "votes_count": 0, "ships_count": 0, "projects": [], "coding_time_seconds": 14280, "coding_time_seconds_today": 0, "balance": "You need to have a pocket watcher badge to view this.", "badges": [], "created_at": "2025-08-15T12:01:23.576-04:00", "updated_at": "2025-08-15T15:56:37.529-04:00", "avatar": "https://avatars.slack-edge.com/2025-08-15/9372508464929_ea29ea253545e19e133a_original.jpg", "custom_css": null}, {"id": 21681, "slack_id": "U09AL1422KU", "display_name": "el1te", "bio": null, "projects_count": 0, "devlogs_count": 0, "votes_count": 0, "ships_count": 0, "projects": [], "coding_time_seconds": 0, "coding_time_seconds_today": 0, "balance": "You need to have a pocket watcher badge to view this.", "badges": [], "created_at": "2025-08-15T12:05:26.284-04:00", "updated_at": "2025-08-15T15:56:37.726-04:00", "avatar": "https://secure.gravatar.com/avatar/f8b9b4b49e9eaf2a524dbde6808e186e.jpg?s=512&d=https%3A%2F%2Fa.slack-edge.com%2Fdf10d%2Fimg%2Favatars%2Fava_0015-512.png", "custom_css": null}, {"id": 21682, "slack_id": "U08SZ39U3BP", "display_name": "Anika Rastogi", "bio": null, "projects_count": 0, "devlogs_count": 0, "votes_count": 0, "ships_count": 0, "projects": [], "coding_time_seconds": 302903, "coding_time_seconds_today": 0, "balance": "You need to have a pocket watcher badge to view this.", "badges": [], "created_at": "2025-08-15T12:08:20.364-04:00", "updated_at": "2025-08-15T15:56:37.851-04:00", "avatar": "https://avatars.slack-edge.com/2025-05-19/8910513815859_cdb529c5c7a75e991a75_original.png", "custom_css": null}, {"id": 21683, "slack_id": "U09AE6DKRQB", "display_name": "fLAME", "bio": null, "projects_count": 5, "devlogs_count": 15, "votes_count": 40, "ships_count": 2, "projects": [{"id": 11404, "title": "SwiftS", "devlogs_count": 4, "created_at": "2025-08-15T14:30:44.727-04:00"}, {"id": 11959, "title": "Tic Tac Toe", "devlogs_count": 2, "created_at": "2025-08-21T12:58:42.603-04:00"}, {"id": 12691, "title": "Companion Mod", "devlogs_count": 9, "created_at": "2025-08-31T23:34:36.324-04:00"}, {"id": 13741, "title": "Arcade", "devlogs_count": 0, "created_at": "2025-09-24T11:50:47.707-04:00"}, {"id": 13743, "title": "VYNK", "devlogs_count": 0, "created_at": "2025-09-24T11:54:08.710-04:00"}], "coding_time_seconds": 210887, "coding_time_seconds_today": 0, "balance": "You need to have a pocket watcher badge to view this.", "badges": [], "created_at": "2025-08-15T12:09:23.871-04:00", "updated_at": "2025-08-16T14:24:46.345-04:00", "avatar": "https://secure.gravatar.com/avatar/8eadd6bccabce5358557d18efda6fa80.jpg?s=512&d=https%3A%2F%2Fa.slack-edge.com%2Fdf10d%2Fimg%2Favatars%2Fava_0013-512.png", "custom_css": null}, {"id": 21684, "slack_id": "U09AE6YVBQT", "display_name": "Le Tho", "bio": null, "projects_count": 0, "devlogs_count": 0, "votes_count": 0, "ships_count": 0, "projects": [], "coding_time_seconds": 0, "coding_time_seconds_today": 0, "balance": "You need to have a pocket watcher badge to view this.", "badges": [], "created_at": "2025-08-15T12:09:51.406-04:00", "updated_at": "2025-08-15T15:56:38.342-04:00", "avatar": "https://avatars.slack-edge.com/2025-08-15/9358630299221_acabd2b34ef4cd4a2469_original.jpg", "custom_css": null}, {"id": 21685, "slack_id": "U09BCLJ485N", "display_name": "ihahsjuna", "bio": null, "projects_count": 0, "devlogs_count": 0, "votes_count": 0, "ships_count": 0, "projects": [], "coding_time_seconds": 0, "coding_time_seconds_today": 0, "balance": "You need to have a pocket watcher badge to view this.", "badges": [], "created_at": "2025-08-15T12:17:06.046-04:00", "updated_at": "2025-08-15T15:56:38.454-04:00", "avatar": "https://secure.gravatar.com/avatar/728d6094c9c1d057fa783de5d28c443e.jpg?s=512&d=https%3A%2F%2Fa.slack-edge.com%2Fdf10d%2Fimg%2Favatars%2Fava_0012-512.png", "custom_css": null}], "pagination": {"page": 1080, "pages": 1192, "count": 23828, "items": 20}}