{"users": [{"id": 21686, "slack_id": "U09A807T9CP", "display_name": "Victoria", "bio": null, "projects_count": 0, "devlogs_count": 0, "votes_count": 0, "ships_count": 0, "projects": [], "coding_time_seconds": 0, "coding_time_seconds_today": 0, "balance": "You need to have a pocket watcher badge to view this.", "badges": [], "created_at": "2025-08-15T12:26:54.413-04:00", "updated_at": "2025-08-15T15:56:38.575-04:00", "avatar": "https://secure.gravatar.com/avatar/cfa1cda8800e6b8453455a976a702ca8.jpg?s=512&d=https%3A%2F%2Fa.slack-edge.com%2Fdf10d%2Fimg%2Favatars%2Fava_0008-512.png", "custom_css": null}, {"id": 21687, "slack_id": "U09AYJEJLV7", "display_name": "Kashyap Sukshavasi", "bio": null, "projects_count": 0, "devlogs_count": 0, "votes_count": 0, "ships_count": 0, "projects": [], "coding_time_seconds": 0, "coding_time_seconds_today": 0, "balance": "You need to have a pocket watcher badge to view this.", "badges": [], "created_at": "2025-08-15T12:27:17.461-04:00", "updated_at": "2025-08-15T15:56:38.697-04:00", "avatar": "https://avatars.slack-edge.com/2025-08-15/9363830057492_457493abc76df0262176_original.png", "custom_css": null}, {"id": 21688, "slack_id": "U09APRBEBMJ", "display_name": "Clark Griffin", "bio": null, "projects_count": 0, "devlogs_count": 0, "votes_count": 0, "ships_count": 0, "projects": [], "coding_time_seconds": 1589, "coding_time_seconds_today": 0, "balance": "You need to have a pocket watcher badge to view this.", "badges": [], "created_at": "2025-08-15T12:32:28.989-04:00", "updated_at": "2025-08-15T13:16:02.812-04:00", "avatar": "https://secure.gravatar.com/avatar/393834361e77359ecc1c0ebcecf47367.jpg?s=512&d=https%3A%2F%2Fa.slack-edge.com%2Fdf10d%2Fimg%2Favatars%2Fava_0004-512.png", "custom_css": null}, {"id": 21689, "slack_id": "U09AED4NH9R", "display_name": "Gonk Lover", "bio": null, "projects_count": 0, "devlogs_count": 0, "votes_count": 0, "ships_count": 0, "projects": [], "coding_time_seconds": 0, "coding_time_seconds_today": 0, "balance": "You need to have a pocket watcher badge to view this.", "badges": [], "created_at": "2025-08-15T12:50:52.874-04:00", "updated_at": "2025-08-15T15:56:39.038-04:00", "avatar": "https://secure.gravatar.com/avatar/c9ce0fec4688153e20b2729d42e133d8.jpg?s=512&d=https%3A%2F%2Fa.slack-edge.com%2Fdf10d%2Fimg%2Favatars%2Fava_0016-512.png", "custom_css": null}, {"id": 21690, "slack_id": "U09AED50LSX", "display_name": "12422010 - Tr\u01b0\u01a1ng Qu\u1ed1c Huy", "bio": null, "projects_count": 0, "devlogs_count": 0, "votes_count": 0, "ships_count": 0, "projects": [], "coding_time_seconds": 0, "coding_time_seconds_today": 0, "balance": "You need to have a pocket watcher badge to view this.", "badges": [], "created_at": "2025-08-15T12:51:06.241-04:00", "updated_at": "2025-08-15T15:56:39.222-04:00", "avatar": "https://secure.gravatar.com/avatar/40bc2cd61b814fda4ed1744cb6a16893.jpg?s=512&d=https%3A%2F%2Fa.slack-edge.com%2Fdf10d%2Fimg%2Favatars%2Fava_0017-512.png", "custom_css": null}, {"id": 21691, "slack_id": "U08R4GJ6XLP", "display_name": "chish", "bio": null, "projects_count": 0, "devlogs_count": 0, "votes_count": 0, "ships_count": 0, "projects": [], "coding_time_seconds": 2384, "coding_time_seconds_today": 0, "balance": "You need to have a pocket watcher badge to view this.", "badges": [], "created_at": "2025-08-15T12:51:35.225-04:00", "updated_at": "2025-08-15T13:04:10.624-04:00", "avatar": "https://avatars.slack-edge.com/2025-05-09/8874664624036_ffd18c8542501818c759_original.jpg", "custom_css": null}, {"id": 21692, "slack_id": "U09AYM6H589", "display_name": "Anu", "bio": null, "projects_count": 0, "devlogs_count": 0, "votes_count": 0, "ships_count": 0, "projects": [], "coding_time_seconds": 0, "coding_time_seconds_today": 0, "balance": "You need to have a pocket watcher badge to view this.", "badges": [], "created_at": "2025-08-15T12:54:29.928-04:00", "updated_at": "2025-08-15T15:56:43.513-04:00", "avatar": "https://avatars.slack-edge.com/2025-08-15/9386915228672_2981e19a8639278ee46a_original.jpg", "custom_css": null}, {"id": 21693, "slack_id": "U09AYNEADTK", "display_name": "Nysa", "bio": null, "projects_count": 0, "devlogs_count": 0, "votes_count": 0, "ships_count": 0, "projects": [], "coding_time_seconds": 0, "coding_time_seconds_today": 0, "balance": "You need to have a pocket watcher badge to view this.", "badges": [], "created_at": "2025-08-15T12:57:08.319-04:00", "updated_at": "2025-08-15T15:56:43.808-04:00", "avatar": "https://secure.gravatar.com/avatar/d9a92a624776aaa55370d74f5e8256b9.jpg?s=512&d=https%3A%2F%2Fa.slack-edge.com%2Fdf10d%2Fimg%2Favatars%2Fava_0021-512.png", "custom_css": null}, {"id": 21694, "slack_id": "U09AYNMV117", "display_name": "Gonk Lover II", "bio": null, "projects_count": 0, "devlogs_count": 0, "votes_count": 0, "ships_count": 0, "projects": [], "coding_time_seconds": 0, "coding_time_seconds_today": 0, "balance": "You need to have a pocket watcher badge to view this.", "badges": [], "created_at": "2025-08-15T12:57:21.735-04:00", "updated_at": "2025-08-15T15:56:44.008-04:00", "avatar": "https://secure.gravatar.com/avatar/d87463a3c027f82b0ed4a3b0ab7cc4a0.jpg?s=512&d=https%3A%2F%2Fa.slack-edge.com%2Fdf10d%2Fimg%2Favatars%2Fava_0002-512.png", "custom_css": null}, {"id": 21695, "slack_id": "U09AMRXSE4W", "display_name": "Naomi Phildor", "bio": null, "projects_count": 0, "devlogs_count": 0, "votes_count": 0, "ships_count": 0, "projects": [], "coding_time_seconds": 0, "coding_time_seconds_today": 0, "balance": "You need to have a pocket watcher badge to view this.", "badges": [], "created_at": "2025-08-15T13:06:06.359-04:00", "updated_at": "2025-08-15T15:56:44.260-04:00", "avatar": "https://secure.gravatar.com/avatar/f2cc68043ac1ec3758e42e271f9f0c96.jpg?s=512&d=https%3A%2F%2Fa.slack-edge.com%2Fdf10d%2Fimg%2Favatars%2Fava_0011-512.png", "custom_css": null}, {"id": 21696, "slack_id": "U09AJRQ79C5", "display_name": "Gonk Lover III", "bio": null, "projects_count": 0, "devlogs_count": 0, "votes_count": 0, "ships_count": 0, "projects": [], "coding_time_seconds": 0, "coding_time_seconds_today": 0, "balance": "You need to have a pocket watcher badge to view this.", "badges": [], "created_at": "2025-08-15T13:09:06.421-04:00", "updated_at": "2025-08-15T15:56:44.493-04:00", "avatar": "https://secure.gravatar.com/avatar/c95cdc03db4baea4f13b4e8ec43469e6.jpg?s=512&d=https%3A%2F%2Fa.slack-edge.com%2Fdf10d%2Fimg%2Favatars%2Fava_0012-512.png", "custom_css": null}, {"id": 21697, "slack_id": "U09AJSQ67HT", "display_name": "Gonk Lover IV", "bio": null, "projects_count": 0, "devlogs_count": 0, "votes_count": 0, "ships_count": 0, "projects": [], "coding_time_seconds": 0, "coding_time_seconds_today": 0, "balance": "You need to have a pocket watcher badge to view this.", "badges": [], "created_at": "2025-08-15T13:12:56.495-04:00", "updated_at": "2025-08-15T15:56:44.958-04:00", "avatar": "https://secure.gravatar.com/avatar/bd8ffc6a606534aa510d6013d6e7d6e1.jpg?s=512&d=https%3A%2F%2Fa.slack-edge.com%2Fdf10d%2Fimg%2Favatars%2Fava_0006-512.png", "custom_css": null}, {"id": 21698, "slack_id": "U09AEHLRLKV", "display_name": "Gonk Lover V", "bio": null, "projects_count": 0, "devlogs_count": 0, "votes_count": 0, "ships_count": 0, "projects": [], "coding_time_seconds": 0, "coding_time_seconds_today": 0, "balance": "You need to have a pocket watcher badge to view this.", "badges": [], "created_at": "2025-08-15T13:19:44.270-04:00", "updated_at": "2025-08-15T15:56:45.400-04:00", "avatar": "https://secure.gravatar.com/avatar/0425c4f5b224fbff27d7f0063c2d812c.jpg?s=512&d=https%3A%2F%2Fa.slack-edge.com%2Fdf10d%2Fimg%2Favatars%2Fava_0006-512.png", "custom_css": null}, {"id": 21699, "slack_id": "U09A89CQZJB", "display_name": "Hanna Susan Shaji", "bio": "Loves Cats , Free Stuff ", "projects_count": 0, "devlogs_count": 10, "votes_count": 6, "ships_count": 0, "projects": [], "coding_time_seconds": 124798, "coding_time_seconds_today": 0, "balance": "You need to have a pocket watcher badge to view this.", "badges": [], "created_at": "2025-08-15T13:23:57.309-04:00", "updated_at": "2025-08-17T12:28:44.824-04:00", "avatar": "https://avatars.slack-edge.com/2025-08-16/9374551724449_75b600ba5c39a9c637e2_original.jpg", "custom_css": null}, {"id": 21700, "slack_id": "U09A8AD2G6B", "display_name": "Honeycomb", "bio": null, "projects_count": 0, "devlogs_count": 0, "votes_count": 0, "ships_count": 0, "projects": [], "coding_time_seconds": 0, "coding_time_seconds_today": 0, "balance": "You need to have a pocket watcher badge to view this.", "badges": [], "created_at": "2025-08-15T13:33:20.177-04:00", "updated_at": "2025-08-15T15:56:45.947-04:00", "avatar": "https://secure.gravatar.com/avatar/a1164aaeb72988e0a19670371f665910.jpg?s=512&d=https%3A%2F%2Fa.slack-edge.com%2Fdf10d%2Fimg%2Favatars%2Fava_0002-512.png", "custom_css": null}, {"id": 21701, "slack_id": "U09BD320W9W", "display_name": "thaituanNinja", "bio": null, "projects_count": 0, "devlogs_count": 0, "votes_count": 0, "ships_count": 0, "projects": [], "coding_time_seconds": 0, "coding_time_seconds_today": 0, "balance": "You need to have a pocket watcher badge to view this.", "badges": [], "created_at": "2025-08-15T13:39:12.678-04:00", "updated_at": "2025-08-15T15:56:46.263-04:00", "avatar": "https://secure.gravatar.com/avatar/5bf54a9701e5f1e0564529af3a595f7f.jpg?s=512&d=https%3A%2F%2Fa.slack-edge.com%2Fdf10d%2Fimg%2Favatars%2Fava_0015-512.png", "custom_css": null}, {"id": 21702, "slack_id": "U09AZ2S6GJD", "display_name": "Honeypods II", "bio": null, "projects_count": 0, "devlogs_count": 0, "votes_count": 0, "ships_count": 0, "projects": [], "coding_time_seconds": 0, "coding_time_seconds_today": 0, "balance": "You need to have a pocket watcher badge to view this.", "badges": [], "created_at": "2025-08-15T14:00:26.233-04:00", "updated_at": "2025-08-15T15:56:46.467-04:00", "avatar": "https://secure.gravatar.com/avatar/9f12dcc3761ce61c10e9a328b7652acd.jpg?s=512&d=https%3A%2F%2Fa.slack-edge.com%2Fdf10d%2Fimg%2Favatars%2Fava_0008-512.png", "custom_css": null}, {"id": 21703, "slack_id": "U09BD6Y31A4", "display_name": "21s3", "bio": null, "projects_count": 0, "devlogs_count": 0, "votes_count": 0, "ships_count": 0, "projects": [], "coding_time_seconds": 0, "coding_time_seconds_today": 0, "balance": "You need to have a pocket watcher badge to view this.", "badges": [], "created_at": "2025-08-15T14:05:07.235-04:00", "updated_at": "2025-08-15T15:56:46.819-04:00", "avatar": "https://secure.gravatar.com/avatar/cc94c90470a1bd34e8181f1ad0970558.jpg?s=512&d=https%3A%2F%2Fa.slack-edge.com%2Fdf10d%2Fimg%2Favatars%2Fava_0015-512.png", "custom_css": null}, {"id": 21704, "slack_id": "U09BD8XRPDE", "display_name": "NLTD2010", "bio": null, "projects_count": 1, "devlogs_count": 16, "votes_count": 3, "ships_count": 1, "projects": [{"id": 11467, "title": "TD!40 Keyboard", "devlogs_count": 16, "created_at": "2025-08-16T06:38:46.034-04:00"}], "coding_time_seconds": 351016, "coding_time_seconds_today": 2293, "balance": "You need to have a pocket watcher badge to view this.", "badges": [{"name": "Yapper I", "text": "Posted 10 comments on devlogs.", "icon": "\ud83d\udcac"}, {"name": "Maiden Voyage", "text": "you shipped your first project! the journey begins...", "icon": "\ud83d\udea2"}], "created_at": "2025-08-15T14:20:22.210-04:00", "updated_at": "2025-09-18T13:39:34.452-04:00", "avatar": "https://secure.gravatar.com/avatar/1ddac7ebc7cbf5d2fa9e67e88460dfe0.jpg?s=512&d=https%3A%2F%2Fa.slack-edge.com%2Fdf10d%2Fimg%2Favatars%2Fava_0006-512.png", "custom_css": null}, {"id": 21705, "slack_id": "U09A8M7CD0X", "display_name": "mohit saini", "bio": null, "projects_count": 0, "devlogs_count": 13, "votes_count": 0, "ships_count": 0, "projects": [], "coding_time_seconds": 249902, "coding_time_seconds_today": 0, "balance": "You need to have a pocket watcher badge to view this.", "badges": [], "created_at": "2025-08-15T14:44:41.083-04:00", "updated_at": "2025-08-26T10:39:40.363-04:00", "avatar": "https://avatars.slack-edge.com/2025-08-15/9360870685618_d184fc263fed1b3dba12_original.png", "custom_css": null}], "pagination": {"page": 1081, "pages": 1192, "count": 23828, "items": 20}}