{"users": [{"id": 21706, "slack_id": "U099ZHX0Y91", "display_name": "Dhruv", "bio": null, "projects_count": 0, "devlogs_count": 0, "votes_count": 0, "ships_count": 0, "projects": [], "coding_time_seconds": 19, "coding_time_seconds_today": 0, "balance": "You need to have a pocket watcher badge to view this.", "badges": [], "created_at": "2025-08-15T15:03:29.699-04:00", "updated_at": "2025-08-15T17:30:02.183-04:00", "avatar": "https://secure.gravatar.com/avatar/afcec8d3534332f5b97ecc9576b9d597.jpg?s=512&d=https%3A%2F%2Fa.slack-edge.com%2Fdf10d%2Fimg%2Favatars%2Fava_0015-512.png", "custom_css": null}, {"id": 21707, "slack_id": "U09AZCSAR6V", "display_name": "Arherr", "bio": null, "projects_count": 0, "devlogs_count": 0, "votes_count": 0, "ships_count": 0, "projects": [], "coding_time_seconds": 0, "coding_time_seconds_today": 0, "balance": "You need to have a pocket watcher badge to view this.", "badges": [], "created_at": "2025-08-15T15:12:51.270-04:00", "updated_at": "2025-08-15T15:56:47.349-04:00", "avatar": "https://secure.gravatar.com/avatar/8ee858b19b928cb3d0f926ccf0b0ace6.jpg?s=512&d=https%3A%2F%2Fa.slack-edge.com%2Fdf10d%2Fimg%2Favatars%2Fava_0004-512.png", "custom_css": null}, {"id": 21708, "slack_id": "U09AM1YQNJW", "display_name": "siddharthhjha", "bio": null, "projects_count": 0, "devlogs_count": 0, "votes_count": 0, "ships_count": 0, "projects": [], "coding_time_seconds": 0, "coding_time_seconds_today": 0, "balance": "You need to have a pocket watcher badge to view this.", "badges": [], "created_at": "2025-08-15T15:29:28.381-04:00", "updated_at": "2025-08-15T15:56:47.480-04:00", "avatar": "https://secure.gravatar.com/avatar/2d96160355fd9656d380091f3e52949d.jpg?s=512&d=https%3A%2F%2Fa.slack-edge.com%2Fdf10d%2Fimg%2Favatars%2Fava_0022-512.png", "custom_css": null}, {"id": 21709, "slack_id": "U09A8VCBV0F", "display_name": "CoffeeMachine", "bio": null, "projects_count": 0, "devlogs_count": 0, "votes_count": 0, "ships_count": 0, "projects": [], "coding_time_seconds": 0, "coding_time_seconds_today": 0, "balance": "You need to have a pocket watcher badge to view this.", "badges": [], "created_at": "2025-08-15T15:45:19.896-04:00", "updated_at": "2025-08-15T15:56:47.589-04:00", "avatar": "https://secure.gravatar.com/avatar/64d4457faa1c735e8bc39ad59aa84b70.jpg?s=512&d=https%3A%2F%2Fa.slack-edge.com%2Fdf10d%2Fimg%2Favatars%2Fava_0013-512.png", "custom_css": null}, {"id": 21710, "slack_id": "U09AKKEJGAZ", "display_name": "TO", "bio": null, "projects_count": 0, "devlogs_count": 0, "votes_count": 0, "ships_count": 0, "projects": [], "coding_time_seconds": 486, "coding_time_seconds_today": 0, "balance": "You need to have a pocket watcher badge to view this.", "badges": [], "created_at": "2025-08-15T16:05:52.399-04:00", "updated_at": "2025-08-15T21:54:04.671-04:00", "avatar": "https://avatars.slack-edge.com/2025-08-15/9361252602850_3dc24e80e93b22f85750_original.png", "custom_css": null}, {"id": 21711, "slack_id": "U09AKS8L2N9", "display_name": "naga venkata sai (2000030558 nvsai)", "bio": null, "projects_count": 0, "devlogs_count": 0, "votes_count": 0, "ships_count": 0, "projects": [], "coding_time_seconds": 0, "coding_time_seconds_today": 0, "balance": "You need to have a pocket watcher badge to view this.", "badges": [], "created_at": "2025-08-15T17:13:10.005-04:00", "updated_at": "2025-08-15T21:54:04.809-04:00", "avatar": "https://avatars.slack-edge.com/2025-08-15/9388066509152_6710f7466698a7187ae2_original.png", "custom_css": null}, {"id": 21712, "slack_id": "U080XDDMJ7J", "display_name": "Johnnyboi/CIA", "bio": null, "projects_count": 1, "devlogs_count": 4, "votes_count": 1, "ships_count": 0, "projects": [{"id": 11427, "title": "Age Checker", "devlogs_count": 4, "created_at": "2025-08-15T20:36:25.489-04:00"}], "coding_time_seconds": 6591, "coding_time_seconds_today": 0, "balance": "You need to have a pocket watcher badge to view this.", "badges": [], "created_at": "2025-08-15T17:20:54.751-04:00", "updated_at": "2025-08-16T03:00:10.971-04:00", "avatar": "https://avatars.slack-edge.com/2025-01-14/8285849948374_0286c4e0fe80a59e58a9_original.gif", "custom_css": null}, {"id": 21713, "slack_id": "U09A9DEGTFZ", "display_name": "Henry Z", "bio": null, "projects_count": 0, "devlogs_count": 0, "votes_count": 0, "ships_count": 0, "projects": [], "coding_time_seconds": 199, "coding_time_seconds_today": 0, "balance": "You need to have a pocket watcher badge to view this.", "badges": [], "created_at": "2025-08-15T17:38:36.963-04:00", "updated_at": "2025-08-16T03:00:09.077-04:00", "avatar": "https://secure.gravatar.com/avatar/f15b03c7abdc93e7a63679368dcb1bfc.jpg?s=512&d=https%3A%2F%2Fa.slack-edge.com%2Fdf10d%2Fimg%2Favatars%2Fava_0007-512.png", "custom_css": null}, {"id": 21714, "slack_id": "U09AFNC8N4T", "display_name": "no mother", "bio": null, "projects_count": 0, "devlogs_count": 0, "votes_count": 0, "ships_count": 0, "projects": [], "coding_time_seconds": 0, "coding_time_seconds_today": 0, "balance": "You need to have a pocket watcher badge to view this.", "badges": [], "created_at": "2025-08-15T17:48:10.422-04:00", "updated_at": "2025-08-15T21:54:05.114-04:00", "avatar": "https://avatars.slack-edge.com/2025-08-15/9355775345875_68eba8488de4c0d887b3_original.png", "custom_css": null}, {"id": 21715, "slack_id": "U09BE9UVA9E", "display_name": "sarah Azam", "bio": null, "projects_count": 0, "devlogs_count": 0, "votes_count": 0, "ships_count": 0, "projects": [], "coding_time_seconds": 0, "coding_time_seconds_today": 0, "balance": "You need to have a pocket watcher badge to view this.", "badges": [], "created_at": "2025-08-15T18:50:20.900-04:00", "updated_at": "2025-08-15T21:54:09.272-04:00", "avatar": "https://secure.gravatar.com/avatar/da972157b7f178c5e6e3523ed9598c68.jpg?s=512&d=https%3A%2F%2Fa.slack-edge.com%2Fdf10d%2Fimg%2Favatars%2Fava_0020-512.png", "custom_css": null}, {"id": 21716, "slack_id": "U09AMQ7E9DY", "display_name": "Mahd", "bio": null, "projects_count": 0, "devlogs_count": 0, "votes_count": 0, "ships_count": 0, "projects": [], "coding_time_seconds": 0, "coding_time_seconds_today": 0, "balance": "You need to have a pocket watcher badge to view this.", "badges": [], "created_at": "2025-08-15T18:53:20.076-04:00", "updated_at": "2025-08-15T21:54:09.479-04:00", "avatar": "https://secure.gravatar.com/avatar/904f3e80a8aeb6c6ce80625ce2d954f9.jpg?s=512&d=https%3A%2F%2Fa.slack-edge.com%2Fdf10d%2Fimg%2Favatars%2Fava_0014-512.png", "custom_css": null}, {"id": 21717, "slack_id": "U09BEGLJH7A", "display_name": "DevPros Team", "bio": null, "projects_count": 0, "devlogs_count": 0, "votes_count": 0, "ships_count": 0, "projects": [], "coding_time_seconds": 0, "coding_time_seconds_today": 0, "balance": "You need to have a pocket watcher badge to view this.", "badges": [], "created_at": "2025-08-15T20:39:29.077-04:00", "updated_at": "2025-08-15T21:54:09.623-04:00", "avatar": "https://secure.gravatar.com/avatar/35cb57bee0a3b11635a6649382fd6b1e.jpg?s=512&d=https%3A%2F%2Fa.slack-edge.com%2Fdf10d%2Fimg%2Favatars%2Fava_0013-512.png", "custom_css": null}, {"id": 21718, "slack_id": "U09ARK430BW", "display_name": "Ivy Huang", "bio": null, "projects_count": 0, "devlogs_count": 0, "votes_count": 0, "ships_count": 0, "projects": [], "coding_time_seconds": 2046, "coding_time_seconds_today": 0, "balance": "You need to have a pocket watcher badge to view this.", "badges": [], "created_at": "2025-08-15T20:54:56.153-04:00", "updated_at": "2025-08-16T15:57:13.517-04:00", "avatar": "https://avatars.slack-edge.com/2025-08-16/9351534785927_0dd8a72286f8e72abd68_original.jpg", "custom_css": null}, {"id": 21719, "slack_id": "U09AN41PHS6", "display_name": "Hoang Vu", "bio": null, "projects_count": 0, "devlogs_count": 0, "votes_count": 0, "ships_count": 0, "projects": [], "coding_time_seconds": 0, "coding_time_seconds_today": 0, "balance": "You need to have a pocket watcher badge to view this.", "badges": [], "created_at": "2025-08-15T21:23:25.916-04:00", "updated_at": "2025-08-15T21:54:09.865-04:00", "avatar": "https://secure.gravatar.com/avatar/7bf0a2a8b52b9d064d18897747e6e441.jpg?s=512&d=https%3A%2F%2Fa.slack-edge.com%2Fdf10d%2Fimg%2Favatars%2Fava_0015-512.png", "custom_css": null}, {"id": 21720, "slack_id": "U09AG8RQU6P", "display_name": "Tiffany", "bio": null, "projects_count": 0, "devlogs_count": 0, "votes_count": 0, "ships_count": 0, "projects": [], "coding_time_seconds": 0, "coding_time_seconds_today": 0, "balance": "You need to have a pocket watcher badge to view this.", "badges": [], "created_at": "2025-08-15T21:50:42.600-04:00", "updated_at": "2025-08-17T05:15:32.441-04:00", "avatar": "https://secure.gravatar.com/avatar/10efe0c106d513a2fdf41518e586a1a8.jpg?s=512&d=https%3A%2F%2Fa.slack-edge.com%2Fdf10d%2Fimg%2Favatars%2Fava_0018-512.png", "custom_css": null}, {"id": 21721, "slack_id": "U09AN5KNHPU", "display_name": "Aapti V", "bio": null, "projects_count": 0, "devlogs_count": 0, "votes_count": 0, "ships_count": 0, "projects": [], "coding_time_seconds": 0, "coding_time_seconds_today": 0, "balance": "You need to have a pocket watcher badge to view this.", "badges": [], "created_at": "2025-08-15T21:58:08.222-04:00", "updated_at": "2025-08-16T09:57:14.142-04:00", "avatar": "https://avatars.slack-edge.com/2025-08-15/9374575994001_4a6257f2182056de5d06_original.png", "custom_css": null}, {"id": 21722, "slack_id": "U09ALFTNK1T", "display_name": "shrubby", "bio": null, "projects_count": 0, "devlogs_count": 0, "votes_count": 0, "ships_count": 0, "projects": [], "coding_time_seconds": 0, "coding_time_seconds_today": 0, "balance": "You need to have a pocket watcher badge to view this.", "badges": [], "created_at": "2025-08-15T22:05:05.411-04:00", "updated_at": "2025-08-16T09:57:14.239-04:00", "avatar": "https://avatars.slack-edge.com/2025-08-15/9360538007637_d4005cca2e991a2b3e4d_original.png", "custom_css": null}, {"id": 21723, "slack_id": "U09A9U11TFH", "display_name": "Ronin Gambill", "bio": null, "projects_count": 0, "devlogs_count": 0, "votes_count": 0, "ships_count": 0, "projects": [], "coding_time_seconds": 11911, "coding_time_seconds_today": 0, "balance": "You need to have a pocket watcher badge to view this.", "badges": [], "created_at": "2025-08-15T22:26:59.916-04:00", "updated_at": "2025-08-27T18:46:59.523-04:00", "avatar": "https://secure.gravatar.com/avatar/653936030fa370a89a1353b9b14a4cdc.jpg?s=512&d=https%3A%2F%2Fa.slack-edge.com%2Fdf10d%2Fimg%2Favatars%2Fava_0021-512.png", "custom_css": null}, {"id": 21724, "slack_id": "U09B0KF9J8Z", "display_name": "Ph\u00f9ng Th\u1ebf Anh", "bio": null, "projects_count": 0, "devlogs_count": 0, "votes_count": 0, "ships_count": 0, "projects": [], "coding_time_seconds": 0, "coding_time_seconds_today": 0, "balance": "You need to have a pocket watcher badge to view this.", "badges": [], "created_at": "2025-08-15T23:08:25.725-04:00", "updated_at": "2025-08-16T09:57:14.502-04:00", "avatar": "https://secure.gravatar.com/avatar/6cddb6b0908eb2494bb8a6616f5b02d6.jpg?s=512&d=https%3A%2F%2Fa.slack-edge.com%2Fdf10d%2Fimg%2Favatars%2Fava_0008-512.png", "custom_css": null}, {"id": 21725, "slack_id": "U09ARRBMGAY", "display_name": "Christine", "bio": "I am late now", "projects_count": 0, "devlogs_count": 0, "votes_count": 0, "ships_count": 0, "projects": [], "coding_time_seconds": 0, "coding_time_seconds_today": 0, "balance": "You need to have a pocket watcher badge to view this.", "badges": [], "created_at": "2025-08-15T23:20:08.829-04:00", "updated_at": "2025-08-16T09:57:14.598-04:00", "avatar": "https://secure.gravatar.com/avatar/bb87d8b704332775ef64f43fb43149c3.jpg?s=512&d=https%3A%2F%2Fa.slack-edge.com%2Fdf10d%2Fimg%2Favatars%2Fava_0022-512.png", "custom_css": null}], "pagination": {"page": 1082, "pages": 1192, "count": 23828, "items": 20}}