{"users": [{"id": 21726, "slack_id": "U09ALE8UVFF", "display_name": "Ishaan", "bio": null, "projects_count": 0, "devlogs_count": 0, "votes_count": 0, "ships_count": 0, "projects": [], "coding_time_seconds": 0, "coding_time_seconds_today": 0, "balance": "You need to have a pocket watcher badge to view this.", "badges": [], "created_at": "2025-08-15T23:32:26.491-04:00", "updated_at": "2025-08-16T09:57:14.707-04:00", "avatar": "https://secure.gravatar.com/avatar/f1aa39ad92c3cc54e6f074b372dd7f74.jpg?s=512&d=https%3A%2F%2Fa.slack-edge.com%2Fdf10d%2Fimg%2Favatars%2Fava_0021-512.png", "custom_css": null}, {"id": 21727, "slack_id": "U09B0ME494Z", "display_name": "Keith Mendiola", "bio": null, "projects_count": 0, "devlogs_count": 0, "votes_count": 0, "ships_count": 0, "projects": [], "coding_time_seconds": 0, "coding_time_seconds_today": 0, "balance": "You need to have a pocket watcher badge to view this.", "badges": [], "created_at": "2025-08-15T23:54:14.894-04:00", "updated_at": "2025-08-16T09:57:14.800-04:00", "avatar": "https://secure.gravatar.com/avatar/bb753bc06c7978d3dae1d0eae56c2307.jpg?s=512&d=https%3A%2F%2Fa.slack-edge.com%2Fdf10d%2Fimg%2Favatars%2Fava_0017-512.png", "custom_css": null}, {"id": 21728, "slack_id": "U09ARU4JQN8", "display_name": "Jabez Jena", "bio": null, "projects_count": 0, "devlogs_count": 0, "votes_count": 0, "ships_count": 0, "projects": [], "coding_time_seconds": 0, "coding_time_seconds_today": 0, "balance": "You need to have a pocket watcher badge to view this.", "badges": [], "created_at": "2025-08-16T00:19:12.969-04:00", "updated_at": "2025-08-16T09:57:14.899-04:00", "avatar": "https://avatars.slack-edge.com/2025-08-16/9388908780464_814d0c3dbde6b997caf3_original.jpg", "custom_css": null}, {"id": 21729, "slack_id": "U09ALN5LPU5", "display_name": "Ayaan Mo", "bio": null, "projects_count": 0, "devlogs_count": 0, "votes_count": 0, "ships_count": 0, "projects": [], "coding_time_seconds": 382, "coding_time_seconds_today": 0, "balance": "You need to have a pocket watcher badge to view this.", "badges": [], "created_at": "2025-08-16T00:56:32.889-04:00", "updated_at": "2025-09-19T00:01:21.809-04:00", "avatar": "https://avatars.slack-edge.com/2025-09-18/9540304452594_26ab0f59ec6f43bdee97_original.jpg", "custom_css": null}, {"id": 21730, "slack_id": "U09ANDZ0YFL", "display_name": "DudeSol", "bio": null, "projects_count": 0, "devlogs_count": 0, "votes_count": 0, "ships_count": 0, "projects": [], "coding_time_seconds": 0, "coding_time_seconds_today": 0, "balance": "You need to have a pocket watcher badge to view this.", "badges": [], "created_at": "2025-08-16T01:11:21.695-04:00", "updated_at": "2025-08-16T09:57:15.132-04:00", "avatar": "https://secure.gravatar.com/avatar/52bc95bfd174c9b8d20210c4960f3899.jpg?s=512&d=https%3A%2F%2Fa.slack-edge.com%2Fdf10d%2Fimg%2Favatars%2Fava_0022-512.png", "custom_css": null}, {"id": 21731, "slack_id": "U09AAABD963", "display_name": "Raka Yuda", "bio": null, "projects_count": 0, "devlogs_count": 0, "votes_count": 0, "ships_count": 0, "projects": [], "coding_time_seconds": 0, "coding_time_seconds_today": 0, "balance": "You need to have a pocket watcher badge to view this.", "badges": [], "created_at": "2025-08-16T01:24:28.986-04:00", "updated_at": "2025-08-16T09:57:15.281-04:00", "avatar": "https://avatars.slack-edge.com/2025-08-15/9350359988055_188ebeeebd12ab08a68b_original.png", "custom_css": null}, {"id": 21732, "slack_id": "U09BEVB0RUY", "display_name": "prashant gupta", "bio": null, "projects_count": 0, "devlogs_count": 0, "votes_count": 0, "ships_count": 0, "projects": [], "coding_time_seconds": 0, "coding_time_seconds_today": 0, "balance": "You need to have a pocket watcher badge to view this.", "badges": [], "created_at": "2025-08-16T01:28:16.348-04:00", "updated_at": "2025-08-16T09:57:15.468-04:00", "avatar": "https://secure.gravatar.com/avatar/f44ba0322af1917510164ff92ad5f857.jpg?s=512&d=https%3A%2F%2Fa.slack-edge.com%2Fdf10d%2Fimg%2Favatars%2Fava_0010-512.png", "custom_css": null}, {"id": 21733, "slack_id": "U09ANGBNWHG", "display_name": "ryan", "bio": null, "projects_count": 1, "devlogs_count": 0, "votes_count": 1, "ships_count": 0, "projects": [{"id": 11449, "title": "MathSphere", "devlogs_count": 0, "created_at": "2025-08-16T02:24:43.083-04:00"}], "coding_time_seconds": 26241, "coding_time_seconds_today": 0, "balance": "You need to have a pocket watcher badge to view this.", "badges": [], "created_at": "2025-08-16T02:09:39.125-04:00", "updated_at": "2025-08-16T09:57:15.635-04:00", "avatar": "https://secure.gravatar.com/avatar/a9119964b7e2dd948864cac5eebe258f.jpg?s=512&d=https%3A%2F%2Fa.slack-edge.com%2Fdf10d%2Fimg%2Favatars%2Fava_0022-512.png", "custom_css": null}, {"id": 21734, "slack_id": "U09BF451AD6", "display_name": "kalki 123", "bio": null, "projects_count": 1, "devlogs_count": 0, "votes_count": 0, "ships_count": 0, "projects": [{"id": 12303, "title": "spy ", "devlogs_count": 0, "created_at": "2025-08-25T11:36:03.925-04:00"}], "coding_time_seconds": 16019, "coding_time_seconds_today": 0, "balance": "You need to have a pocket watcher badge to view this.", "badges": [], "created_at": "2025-08-16T03:15:14.743-04:00", "updated_at": "2025-09-04T21:55:25.891-04:00", "avatar": "https://avatars.slack-edge.com/2025-09-04/9488821553792_5ad9c76140ad9e44e971_original.jpg", "custom_css": null}, {"id": 21735, "slack_id": "U08QFQPG2P9", "display_name": "Cronus_19", "bio": null, "projects_count": 2, "devlogs_count": 2, "votes_count": 10, "ships_count": 2, "projects": [{"id": 11461, "title": "The Hidden Labyrinth", "devlogs_count": 1, "created_at": "2025-08-16T05:20:22.679-04:00"}, {"id": 11506, "title": "Court Fee Calculator", "devlogs_count": 1, "created_at": "2025-08-16T13:28:49.434-04:00"}], "coding_time_seconds": 128155, "coding_time_seconds_today": 0, "balance": "You need to have a pocket watcher badge to view this.", "badges": [], "created_at": "2025-08-16T04:00:53.399-04:00", "updated_at": "2025-08-16T12:47:48.117-04:00", "avatar": "https://avatars.slack-edge.com/2025-05-05/8868997865376_217b2d1adcfeca302191_original.jpg", "custom_css": null}, {"id": 21736, "slack_id": "U09ANNAK8DQ", "display_name": "Pranaya", "bio": null, "projects_count": 0, "devlogs_count": 0, "votes_count": 0, "ships_count": 0, "projects": [], "coding_time_seconds": 0, "coding_time_seconds_today": 0, "balance": "You need to have a pocket watcher badge to view this.", "badges": [], "created_at": "2025-08-16T04:26:00.580-04:00", "updated_at": "2025-08-16T09:57:15.964-04:00", "avatar": "https://secure.gravatar.com/avatar/422eab103bdbf84c303a4c851f6032f4.jpg?s=512&d=https%3A%2F%2Fa.slack-edge.com%2Fdf10d%2Fimg%2Favatars%2Fava_0013-512.png", "custom_css": null}, {"id": 21737, "slack_id": "U09ANPAEX34", "display_name": "JThweb", "bio": null, "projects_count": 0, "devlogs_count": 0, "votes_count": 0, "ships_count": 0, "projects": [], "coding_time_seconds": 13934, "coding_time_seconds_today": 0, "balance": "You need to have a pocket watcher badge to view this.", "badges": [], "created_at": "2025-08-16T04:50:50.269-04:00", "updated_at": "2025-08-16T09:57:16.092-04:00", "avatar": "https://secure.gravatar.com/avatar/219ac203d7aed6c57d012374d56c89f0.jpg?s=512&d=https%3A%2F%2Fa.slack-edge.com%2Fdf10d%2Fimg%2Favatars%2Fava_0019-512.png", "custom_css": null}, {"id": 21738, "slack_id": "U06F81ARRPA", "display_name": "Cisco", "bio": "my name is cisco! I had a blast leading my hack club during high school in a very rural area, attended the summit in 2024 (helped a bit with it too) and went to HQ a couple times to do nothing but hang. I've made countless friends from hack club I hope to keep the rest of my life :)", "projects_count": 2, "devlogs_count": 3, "votes_count": 3, "ships_count": 0, "projects": [{"id": 11610, "title": "matchateatime | personal website", "devlogs_count": 1, "created_at": "2025-08-17T17:06:28.681-04:00"}, {"id": 12470, "title": "boblandian passport unlocker", "devlogs_count": 2, "created_at": "2025-08-28T03:17:12.346-04:00"}], "coding_time_seconds": 22002, "coding_time_seconds_today": 0, "balance": "You need to have a pocket watcher badge to view this.", "badges": [], "created_at": "2025-08-16T05:04:03.716-04:00", "updated_at": "2025-08-17T17:05:12.833-04:00", "avatar": "https://avatars.slack-edge.com/2024-01-18/6480760932279_edd13b1a639a50c679c8_original.jpg", "custom_css": null}, {"id": 21739, "slack_id": "U09AGUHDYGK", "display_name": "Shamim Ahmed", "bio": null, "projects_count": 0, "devlogs_count": 0, "votes_count": 0, "ships_count": 0, "projects": [], "coding_time_seconds": 0, "coding_time_seconds_today": 0, "balance": "You need to have a pocket watcher badge to view this.", "badges": [], "created_at": "2025-08-16T05:33:57.048-04:00", "updated_at": "2025-08-16T09:57:16.286-04:00", "avatar": "https://secure.gravatar.com/avatar/03d0d725e8cec3be59a684379427c06d.jpg?s=512&d=https%3A%2F%2Fa.slack-edge.com%2Fdf10d%2Fimg%2Favatars%2Fava_0011-512.png", "custom_css": null}, {"id": 21740, "slack_id": "U09B17B0MAM", "display_name": "Rana", "bio": null, "projects_count": 0, "devlogs_count": 0, "votes_count": 0, "ships_count": 0, "projects": [], "coding_time_seconds": 0, "coding_time_seconds_today": 0, "balance": "You need to have a pocket watcher badge to view this.", "badges": [], "created_at": "2025-08-16T05:40:31.733-04:00", "updated_at": "2025-08-16T09:57:16.389-04:00", "avatar": "https://secure.gravatar.com/avatar/bb1a29ecabc08f683d671902f8bd7a03.jpg?s=512&d=https%3A%2F%2Fa.slack-edge.com%2Fdf10d%2Fimg%2Favatars%2Fava_0004-512.png", "custom_css": null}, {"id": 21741, "slack_id": "U09B179NWF3", "display_name": "Abhijith Velikkakath", "bio": null, "projects_count": 0, "devlogs_count": 0, "votes_count": 0, "ships_count": 0, "projects": [], "coding_time_seconds": 24848, "coding_time_seconds_today": 0, "balance": "You need to have a pocket watcher badge to view this.", "badges": [], "created_at": "2025-08-16T05:44:16.006-04:00", "updated_at": "2025-08-16T09:57:16.495-04:00", "avatar": "https://avatars.slack-edge.com/2025-08-16/9356995741923_3975e45d3475a054d5f4_original.png", "custom_css": null}, {"id": 21742, "slack_id": "U09B17V3K0R", "display_name": "ZaWarudo", "bio": null, "projects_count": 0, "devlogs_count": 0, "votes_count": 0, "ships_count": 0, "projects": [], "coding_time_seconds": 0, "coding_time_seconds_today": 0, "balance": "You need to have a pocket watcher badge to view this.", "badges": [], "created_at": "2025-08-16T06:00:46.109-04:00", "updated_at": "2025-08-16T09:57:16.595-04:00", "avatar": "https://secure.gravatar.com/avatar/3d3033043f7ea57312d28fd3011f6f56.jpg?s=512&d=https%3A%2F%2Fa.slack-edge.com%2Fdf10d%2Fimg%2Favatars%2Fava_0011-512.png", "custom_css": null}, {"id": 21743, "slack_id": "U09ASDNLGG4", "display_name": "Miteigi", "bio": null, "projects_count": 0, "devlogs_count": 0, "votes_count": 0, "ships_count": 0, "projects": [], "coding_time_seconds": 35077, "coding_time_seconds_today": 0, "balance": "You need to have a pocket watcher badge to view this.", "badges": [], "created_at": "2025-08-16T06:07:12.447-04:00", "updated_at": "2025-08-16T09:57:16.728-04:00", "avatar": "https://secure.gravatar.com/avatar/d71c00ae872f54603b4c3bc5bc7b011a.jpg?s=512&d=https%3A%2F%2Fa.slack-edge.com%2Fdf10d%2Fimg%2Favatars%2Fava_0002-512.png", "custom_css": null}, {"id": 21744, "slack_id": "U09B192NGFK", "display_name": "HengLay", "bio": null, "projects_count": 0, "devlogs_count": 0, "votes_count": 0, "ships_count": 0, "projects": [], "coding_time_seconds": 0, "coding_time_seconds_today": 0, "balance": "You need to have a pocket watcher badge to view this.", "badges": [], "created_at": "2025-08-16T06:31:39.349-04:00", "updated_at": "2025-08-16T09:57:16.851-04:00", "avatar": "https://secure.gravatar.com/avatar/8de9b6a8b7f70b4f81f32de2d635ffdf.jpg?s=512&d=https%3A%2F%2Fa.slack-edge.com%2Fdf10d%2Fimg%2Favatars%2Fava_0024-512.png", "custom_css": null}, {"id": 21745, "slack_id": "U09ANTBP350", "display_name": "Dhiraj", "bio": null, "projects_count": 0, "devlogs_count": 0, "votes_count": 0, "ships_count": 0, "projects": [], "coding_time_seconds": 0, "coding_time_seconds_today": 0, "balance": "You need to have a pocket watcher badge to view this.", "badges": [], "created_at": "2025-08-16T06:33:59.414-04:00", "updated_at": "2025-08-16T09:57:16.963-04:00", "avatar": "https://secure.gravatar.com/avatar/f136fbb117d193341ac2fe94218262e8.jpg?s=512&d=https%3A%2F%2Fa.slack-edge.com%2Fdf10d%2Fimg%2Favatars%2Fava_0010-512.png", "custom_css": null}], "pagination": {"page": 1083, "pages": 1192, "count": 23828, "items": 20}}