{"users": [{"id": 21786, "slack_id": "U09B2AWLR8R", "display_name": "Ram", "bio": null, "projects_count": 0, "devlogs_count": 0, "votes_count": 0, "ships_count": 0, "projects": [], "coding_time_seconds": 0, "coding_time_seconds_today": 0, "balance": "You need to have a pocket watcher badge to view this.", "badges": [], "created_at": "2025-08-16T18:18:15.448-04:00", "updated_at": "2025-08-16T21:57:00.817-04:00", "avatar": "https://secure.gravatar.com/avatar/77397e732fa838ba9f8ff52534c7db42.jpg?s=512&d=https%3A%2F%2Fa.slack-edge.com%2Fdf10d%2Fimg%2Favatars%2Fava_0003-512.png", "custom_css": null}, {"id": 21787, "slack_id": "U09AQ0M62Q2", "display_name": "Emily", "bio": null, "projects_count": 0, "devlogs_count": 0, "votes_count": 0, "ships_count": 0, "projects": [], "coding_time_seconds": 0, "coding_time_seconds_today": 0, "balance": "You need to have a pocket watcher badge to view this.", "badges": [], "created_at": "2025-08-16T19:17:43.246-04:00", "updated_at": "2025-08-16T21:57:00.946-04:00", "avatar": "https://secure.gravatar.com/avatar/b1a932cf5c51ae139dfed0d4b9bef8e3.jpg?s=512&d=https%3A%2F%2Fa.slack-edge.com%2Fdf10d%2Fimg%2Favatars%2Fava_0025-512.png", "custom_css": null}, {"id": 21788, "slack_id": "U09ARJ190S2", "display_name": "KRish", "bio": null, "projects_count": 0, "devlogs_count": 0, "votes_count": 0, "ships_count": 0, "projects": [], "coding_time_seconds": 0, "coding_time_seconds_today": 0, "balance": "You need to have a pocket watcher badge to view this.", "badges": [], "created_at": "2025-08-16T19:49:51.959-04:00", "updated_at": "2025-08-16T21:57:01.061-04:00", "avatar": "https://secure.gravatar.com/avatar/0143c3712536996bd5d681432b7fd4e9.jpg?s=512&d=https%3A%2F%2Fa.slack-edge.com%2Fdf10d%2Fimg%2Favatars%2Fava_0004-512.png", "custom_css": null}, {"id": 21789, "slack_id": "U09AN8B6HU5", "display_name": "Vasudeva Ritesh Vallabhajosyula", "bio": null, "projects_count": 0, "devlogs_count": 0, "votes_count": 0, "ships_count": 0, "projects": [], "coding_time_seconds": 0, "coding_time_seconds_today": 0, "balance": "You need to have a pocket watcher badge to view this.", "badges": [], "created_at": "2025-08-16T20:20:21.312-04:00", "updated_at": "2025-08-16T21:57:01.212-04:00", "avatar": "https://secure.gravatar.com/avatar/13031a34a226e2684ba6b41a2271081d.jpg?s=512&d=https%3A%2F%2Fa.slack-edge.com%2Fdf10d%2Fimg%2Favatars%2Fava_0017-512.png", "custom_css": null}, {"id": 21790, "slack_id": "U09AQ3DCKD0", "display_name": "Sadhana K", "bio": null, "projects_count": 0, "devlogs_count": 0, "votes_count": 0, "ships_count": 0, "projects": [], "coding_time_seconds": 0, "coding_time_seconds_today": 0, "balance": "You need to have a pocket watcher badge to view this.", "badges": [], "created_at": "2025-08-16T20:31:47.218-04:00", "updated_at": "2025-08-16T21:57:01.314-04:00", "avatar": "https://secure.gravatar.com/avatar/1e4a6bfe3e0d15a125489a6f344a91ff.jpg?s=512&d=https%3A%2F%2Fa.slack-edge.com%2Fdf10d%2Fimg%2Favatars%2Fava_0005-512.png", "custom_css": null}, {"id": 21791, "slack_id": "U09AC0XR0BZ", "display_name": "Carter", "bio": null, "projects_count": 0, "devlogs_count": 0, "votes_count": 1, "ships_count": 0, "projects": [], "coding_time_seconds": 0, "coding_time_seconds_today": 0, "balance": "You need to have a pocket watcher badge to view this.", "badges": [], "created_at": "2025-08-16T21:03:31.034-04:00", "updated_at": "2025-08-28T21:13:15.976-04:00", "avatar": "https://avatars.slack-edge.com/2025-08-27/9413967765330_363d59e4f3d6c22b6dcb_original.png", "custom_css": null}, {"id": 21792, "slack_id": "U09AC1X8SFR", "display_name": "Albin Anil", "bio": null, "projects_count": 0, "devlogs_count": 0, "votes_count": 0, "ships_count": 0, "projects": [], "coding_time_seconds": 0, "coding_time_seconds_today": 0, "balance": "You need to have a pocket watcher badge to view this.", "badges": [], "created_at": "2025-08-16T21:29:42.880-04:00", "updated_at": "2025-08-21T12:39:21.826-04:00", "avatar": "https://avatars.slack-edge.com/2025-08-16/9376656329697_e49ef5ead18c34294d7f_original.jpg", "custom_css": null}, {"id": 21793, "slack_id": "U09ARNTNJQ6", "display_name": "ethan", "bio": null, "projects_count": 0, "devlogs_count": 0, "votes_count": 0, "ships_count": 0, "projects": [], "coding_time_seconds": 0, "coding_time_seconds_today": 0, "balance": "You need to have a pocket watcher badge to view this.", "badges": [], "created_at": "2025-08-16T21:46:29.011-04:00", "updated_at": "2025-08-16T21:57:01.929-04:00", "avatar": "https://secure.gravatar.com/avatar/82b76e668cd862ba4aecc8e5ea216d5c.jpg?s=512&d=https%3A%2F%2Fa.slack-edge.com%2Fdf10d%2Fimg%2Favatars%2Fava_0022-512.png", "custom_css": null}, {"id": 21794, "slack_id": "U09ARPB00LE", "display_name": "Cora F", "bio": null, "projects_count": 0, "devlogs_count": 0, "votes_count": 0, "ships_count": 0, "projects": [], "coding_time_seconds": 0, "coding_time_seconds_today": 0, "balance": "You need to have a pocket watcher badge to view this.", "badges": [], "created_at": "2025-08-16T21:53:42.480-04:00", "updated_at": "2025-08-17T03:58:00.849-04:00", "avatar": "https://avatars.slack-edge.com/2025-08-16/9365793275558_41cd7d0c0cb91a87d40d_original.jpg", "custom_css": null}, {"id": 21795, "slack_id": "U09AQ6R86BC", "display_name": "Namyanzi Edwards", "bio": null, "projects_count": 0, "devlogs_count": 0, "votes_count": 0, "ships_count": 0, "projects": [], "coding_time_seconds": 0, "coding_time_seconds_today": 0, "balance": "You need to have a pocket watcher badge to view this.", "badges": [], "created_at": "2025-08-16T21:58:37.453-04:00", "updated_at": "2025-08-17T03:58:00.960-04:00", "avatar": "https://secure.gravatar.com/avatar/893b461ca689620e7e0c0d885afe665a.jpg?s=512&d=https%3A%2F%2Fa.slack-edge.com%2Fdf10d%2Fimg%2Favatars%2Fava_0016-512.png", "custom_css": null}, {"id": 21796, "slack_id": "U09ARPHUDT8", "display_name": "korhan", "bio": null, "projects_count": 0, "devlogs_count": 0, "votes_count": 0, "ships_count": 0, "projects": [], "coding_time_seconds": 16676, "coding_time_seconds_today": 0, "balance": "You need to have a pocket watcher badge to view this.", "badges": [], "created_at": "2025-08-16T22:01:33.309-04:00", "updated_at": "2025-08-19T03:30:06.008-04:00", "avatar": "https://avatars.slack-edge.com/2025-08-17/9362671391973_e7841eba33dea842291f_original.jpg", "custom_css": null}, {"id": 21797, "slack_id": "U09BGM8889W", "display_name": "Ostorat", "bio": null, "projects_count": 0, "devlogs_count": 0, "votes_count": 0, "ships_count": 0, "projects": [], "coding_time_seconds": 0, "coding_time_seconds_today": 0, "balance": "You need to have a pocket watcher badge to view this.", "badges": [], "created_at": "2025-08-16T22:04:27.119-04:00", "updated_at": "2025-08-17T03:58:01.135-04:00", "avatar": "https://avatars.slack-edge.com/2025-08-16/9352116298855_edef252a15cc0955356e_original.png", "custom_css": null}, {"id": 21798, "slack_id": "U09AQ7F5U90", "display_name": "theo8", "bio": "", "projects_count": 3, "devlogs_count": 4, "votes_count": 13, "ships_count": 0, "projects": [{"id": 11782, "title": "Runner Game", "devlogs_count": 0, "created_at": "2025-08-19T13:16:25.650-04:00"}, {"id": 11813, "title": "Snake Shooter Game", "devlogs_count": 4, "created_at": "2025-08-19T17:59:32.398-04:00"}, {"id": 11731, "title": "Pygame Particle Simulator", "devlogs_count": 0, "created_at": "2025-08-18T23:59:33.217-04:00"}], "coding_time_seconds": 18714, "coding_time_seconds_today": 0, "balance": "You need to have a pocket watcher badge to view this.", "badges": [], "created_at": "2025-08-16T22:16:13.858-04:00", "updated_at": "2025-08-17T11:40:35.890-04:00", "avatar": "https://secure.gravatar.com/avatar/a051d034e3571249713f7145ba70c6b3.jpg?s=512&d=https%3A%2F%2Fa.slack-edge.com%2Fdf10d%2Fimg%2Favatars%2Fava_0018-512.png", "custom_css": null}, {"id": 21799, "slack_id": "U09ATSVHWGL", "display_name": "Andy", "bio": null, "projects_count": 0, "devlogs_count": 0, "votes_count": 0, "ships_count": 0, "projects": [], "coding_time_seconds": 0, "coding_time_seconds_today": 0, "balance": "You need to have a pocket watcher badge to view this.", "badges": [], "created_at": "2025-08-16T22:55:45.468-04:00", "updated_at": "2025-08-17T03:58:01.316-04:00", "avatar": "https://secure.gravatar.com/avatar/e5ba52492f06473b01f4d56ef5ec6429.jpg?s=512&d=https%3A%2F%2Fa.slack-edge.com%2Fdf10d%2Fimg%2Favatars%2Fava_0011-512.png", "custom_css": null}, {"id": 21800, "slack_id": "U09AC5UC23Z", "display_name": "Emma Amend", "bio": null, "projects_count": 0, "devlogs_count": 0, "votes_count": 0, "ships_count": 0, "projects": [], "coding_time_seconds": 0, "coding_time_seconds_today": 0, "balance": "You need to have a pocket watcher badge to view this.", "badges": [], "created_at": "2025-08-16T23:16:22.182-04:00", "updated_at": "2025-08-17T03:58:01.421-04:00", "avatar": "https://avatars.slack-edge.com/2025-08-16/9358482240419_c06a27ced577bbad9828_original.png", "custom_css": null}, {"id": 21801, "slack_id": "U09AQA4ACLA", "display_name": "Th\u1eafng Tr\u1ea7n Kh\u1eafc", "bio": null, "projects_count": 0, "devlogs_count": 0, "votes_count": 0, "ships_count": 0, "projects": [], "coding_time_seconds": 0, "coding_time_seconds_today": 0, "balance": "You need to have a pocket watcher badge to view this.", "badges": [], "created_at": "2025-08-16T23:32:13.984-04:00", "updated_at": "2025-08-17T03:58:01.523-04:00", "avatar": "https://avatars.slack-edge.com/2025-08-16/9358502143427_936a025ab75910e8fa7d_original.jpg", "custom_css": null}, {"id": 21802, "slack_id": "U09AJEM62D9", "display_name": "nhk181110", "bio": null, "projects_count": 0, "devlogs_count": 0, "votes_count": 0, "ships_count": 0, "projects": [], "coding_time_seconds": 0, "coding_time_seconds_today": 0, "balance": "You need to have a pocket watcher badge to view this.", "badges": [], "created_at": "2025-08-16T23:35:51.532-04:00", "updated_at": "2025-08-17T03:58:01.934-04:00", "avatar": "https://secure.gravatar.com/avatar/0e85e6f67f1801b255963d802b1f9683.jpg?s=512&d=https%3A%2F%2Fa.slack-edge.com%2Fdf10d%2Fimg%2Favatars%2Fava_0009-512.png", "custom_css": null}, {"id": 21803, "slack_id": "U017779MQTY", "display_name": "Abhijith V Ashok", "bio": null, "projects_count": 0, "devlogs_count": 0, "votes_count": 0, "ships_count": 0, "projects": [], "coding_time_seconds": 0, "coding_time_seconds_today": 0, "balance": "You need to have a pocket watcher badge to view this.", "badges": [], "created_at": "2025-08-17T00:31:21.041-04:00", "updated_at": "2025-08-17T03:58:02.092-04:00", "avatar": "https://secure.gravatar.com/avatar/0a6f0e8b28b96587bc5e1786103c1543.jpg?s=512&d=https%3A%2F%2Fa.slack-edge.com%2Fdf10d%2Fimg%2Favatars%2Fava_0014-512.png", "custom_css": null}, {"id": 21804, "slack_id": "U09BGTASN80", "display_name": "Prudence Wamaitha", "bio": null, "projects_count": 0, "devlogs_count": 0, "votes_count": 0, "ships_count": 0, "projects": [], "coding_time_seconds": 0, "coding_time_seconds_today": 0, "balance": "You need to have a pocket watcher badge to view this.", "badges": [], "created_at": "2025-08-17T01:00:41.674-04:00", "updated_at": "2025-08-17T03:58:02.241-04:00", "avatar": "https://avatars.slack-edge.com/2025-08-17/9366070228198_59c658178137ea85eff6_original.jpg", "custom_css": null}, {"id": 21805, "slack_id": "U09AP0Q1W58", "display_name": "lucatn", "bio": null, "projects_count": 0, "devlogs_count": 0, "votes_count": 0, "ships_count": 0, "projects": [], "coding_time_seconds": 0, "coding_time_seconds_today": 0, "balance": "You need to have a pocket watcher badge to view this.", "badges": [], "created_at": "2025-08-17T01:23:12.162-04:00", "updated_at": "2025-08-17T03:58:02.413-04:00", "avatar": "https://secure.gravatar.com/avatar/ae14b37dd22a89ba2b3eec5c3702ab6f.jpg?s=512&d=https%3A%2F%2Fa.slack-edge.com%2Fdf10d%2Fimg%2Favatars%2Fava_0026-512.png", "custom_css": null}], "pagination": {"page": 1086, "pages": 1192, "count": 23828, "items": 20}}