{"users": [{"id": 21806, "slack_id": "U09ANKE8XGV", "display_name": "\u0110an", "bio": null, "projects_count": 0, "devlogs_count": 0, "votes_count": 0, "ships_count": 0, "projects": [], "coding_time_seconds": 0, "coding_time_seconds_today": 0, "balance": "You need to have a pocket watcher badge to view this.", "badges": [], "created_at": "2025-08-17T01:33:09.596-04:00", "updated_at": "2025-08-17T03:58:02.507-04:00", "avatar": "https://secure.gravatar.com/avatar/b49c60e3c5fcd650130fe78961e5155b.jpg?s=512&d=https%3A%2F%2Fa.slack-edge.com%2Fdf10d%2Fimg%2Favatars%2Fava_0012-512.png", "custom_css": null}, {"id": 21807, "slack_id": "U09ACAXC3DM", "display_name": "Jack", "bio": null, "projects_count": 0, "devlogs_count": 0, "votes_count": 0, "ships_count": 0, "projects": [], "coding_time_seconds": 0, "coding_time_seconds_today": 0, "balance": "You need to have a pocket watcher badge to view this.", "badges": [], "created_at": "2025-08-17T01:35:24.401-04:00", "updated_at": "2025-08-17T03:58:02.610-04:00", "avatar": "https://secure.gravatar.com/avatar/7b229ddc6138e83852e141188ea8ef3c.jpg?s=512&d=https%3A%2F%2Fa.slack-edge.com%2Fdf10d%2Fimg%2Favatars%2Fava_0010-512.png", "custom_css": null}, {"id": 21808, "slack_id": "U09BGV5CSU8", "display_name": "DHRUV", "bio": null, "projects_count": 0, "devlogs_count": 0, "votes_count": 0, "ships_count": 0, "projects": [], "coding_time_seconds": 0, "coding_time_seconds_today": 0, "balance": "You need to have a pocket watcher badge to view this.", "badges": [], "created_at": "2025-08-17T01:43:33.232-04:00", "updated_at": "2025-08-17T03:58:02.706-04:00", "avatar": "https://secure.gravatar.com/avatar/3e1706ddc6ebd898eaa4cc60d2ce800c.jpg?s=512&d=https%3A%2F%2Fa.slack-edge.com%2Fdf10d%2Fimg%2Favatars%2Fava_0017-512.png", "custom_css": null}, {"id": 21809, "slack_id": "U09ACBEN0DD", "display_name": "Fernando Artica", "bio": null, "projects_count": 0, "devlogs_count": 0, "votes_count": 0, "ships_count": 0, "projects": [], "coding_time_seconds": 0, "coding_time_seconds_today": 0, "balance": "You need to have a pocket watcher badge to view this.", "badges": [], "created_at": "2025-08-17T01:46:35.649-04:00", "updated_at": "2025-08-17T03:58:02.813-04:00", "avatar": "https://secure.gravatar.com/avatar/ec0b94c1d06fd998b3fe5ed769bf3205.jpg?s=512&d=https%3A%2F%2Fa.slack-edge.com%2Fdf10d%2Fimg%2Favatars%2Fava_0015-512.png", "custom_css": null}, {"id": 21810, "slack_id": "U09AQEX8TCJ", "display_name": "Mike", "bio": null, "projects_count": 0, "devlogs_count": 0, "votes_count": 0, "ships_count": 0, "projects": [], "coding_time_seconds": 0, "coding_time_seconds_today": 0, "balance": "You need to have a pocket watcher badge to view this.", "badges": [], "created_at": "2025-08-17T01:47:23.346-04:00", "updated_at": "2025-08-17T03:58:02.910-04:00", "avatar": "https://secure.gravatar.com/avatar/d0c60882a9f2eb5fbadaa8671575952f.jpg?s=512&d=https%3A%2F%2Fa.slack-edge.com%2Fdf10d%2Fimg%2Favatars%2Fava_0023-512.png", "custom_css": null}, {"id": 21811, "slack_id": "U09ACC9NUEB", "display_name": "Drwn", "bio": null, "projects_count": 0, "devlogs_count": 0, "votes_count": 0, "ships_count": 0, "projects": [], "coding_time_seconds": 103624, "coding_time_seconds_today": 0, "balance": "You need to have a pocket watcher badge to view this.", "badges": [], "created_at": "2025-08-17T02:12:11.776-04:00", "updated_at": "2025-08-17T03:58:03.468-04:00", "avatar": "https://secure.gravatar.com/avatar/83c651d10c607639f1a2b826955d1479.jpg?s=512&d=https%3A%2F%2Fa.slack-edge.com%2Fdf10d%2Fimg%2Favatars%2Fava_0021-512.png", "custom_css": null}, {"id": 21812, "slack_id": "U09ANLSSU93", "display_name": "Faizan Ahmad", "bio": null, "projects_count": 0, "devlogs_count": 0, "votes_count": 0, "ships_count": 0, "projects": [], "coding_time_seconds": 0, "coding_time_seconds_today": 0, "balance": "You need to have a pocket watcher badge to view this.", "badges": [], "created_at": "2025-08-17T02:14:35.221-04:00", "updated_at": "2025-08-17T03:58:03.624-04:00", "avatar": "https://secure.gravatar.com/avatar/f0277b6397b6a61af2db89a1747b9ad0.jpg?s=512&d=https%3A%2F%2Fa.slack-edge.com%2Fdf10d%2Fimg%2Favatars%2Fava_0006-512.png", "custom_css": null}, {"id": 21813, "slack_id": "U09ACJQSHRV", "display_name": "I", "bio": null, "projects_count": 0, "devlogs_count": 4, "votes_count": 1, "ships_count": 0, "projects": [], "coding_time_seconds": 103332, "coding_time_seconds_today": 0, "balance": "You need to have a pocket watcher badge to view this.", "badges": [], "created_at": "2025-08-17T04:59:43.839-04:00", "updated_at": "2025-08-21T16:51:35.107-04:00", "avatar": "https://avatars.slack-edge.com/2025-08-17/9363160881061_9e3aca7eca414b1647e8_original.jpg", "custom_css": null}, {"id": 21814, "slack_id": "U099B90L63S", "display_name": "i221698 Muhammad Haseeb", "bio": null, "projects_count": 0, "devlogs_count": 0, "votes_count": 0, "ships_count": 0, "projects": [], "coding_time_seconds": 0, "coding_time_seconds_today": 0, "balance": "You need to have a pocket watcher badge to view this.", "badges": [], "created_at": "2025-08-17T05:34:03.574-04:00", "updated_at": "2025-08-17T09:57:55.508-04:00", "avatar": "https://avatars.slack-edge.com/2025-08-17/9358967137091_1c8c2eaa09a9bbe11654_original.jpg", "custom_css": null}, {"id": 21815, "slack_id": "U09AK07PG3V", "display_name": "Gaetano", "bio": null, "projects_count": 0, "devlogs_count": 0, "votes_count": 0, "ships_count": 0, "projects": [], "coding_time_seconds": 2591, "coding_time_seconds_today": 0, "balance": "You need to have a pocket watcher badge to view this.", "badges": [], "created_at": "2025-08-17T06:11:08.884-04:00", "updated_at": "2025-08-17T09:57:55.615-04:00", "avatar": "https://secure.gravatar.com/avatar/9cccd6dbdaeecf67586320b7f949d5c3.jpg?s=512&d=https%3A%2F%2Fa.slack-edge.com%2Fdf10d%2Fimg%2Favatars%2Fava_0011-512.png", "custom_css": null}, {"id": 21816, "slack_id": "U09AUETSCR2", "display_name": "Ashutosh Bajpai", "bio": null, "projects_count": 0, "devlogs_count": 0, "votes_count": 0, "ships_count": 0, "projects": [], "coding_time_seconds": 0, "coding_time_seconds_today": 0, "balance": "You need to have a pocket watcher badge to view this.", "badges": [], "created_at": "2025-08-17T06:11:31.845-04:00", "updated_at": "2025-08-17T09:57:55.775-04:00", "avatar": "https://avatars.slack-edge.com/2025-08-17/9391347427984_d88dacd36fd0b5650130_original.png", "custom_css": null}, {"id": 21817, "slack_id": "U09ASDCGV1C", "display_name": "Fede", "bio": null, "projects_count": 1, "devlogs_count": 1, "votes_count": 0, "ships_count": 0, "projects": [{"id": 13627, "title": "D-Desk", "devlogs_count": 1, "created_at": "2025-09-21T10:40:44.261-04:00"}], "coding_time_seconds": 6336, "coding_time_seconds_today": 0, "balance": "You need to have a pocket watcher badge to view this.", "badges": [], "created_at": "2025-08-17T06:15:55.205-04:00", "updated_at": "2025-09-21T10:51:32.229-04:00", "avatar": "https://secure.gravatar.com/avatar/38b9829e3f3dcd9c8f65aca70f2d4556.jpg?s=512&d=https%3A%2F%2Fa.slack-edge.com%2Fdf10d%2Fimg%2Favatars%2Fava_0025-512.png", "custom_css": null}, {"id": 21818, "slack_id": "U09B3AW41KK", "display_name": "Pooja235", "bio": null, "projects_count": 0, "devlogs_count": 0, "votes_count": 0, "ships_count": 0, "projects": [], "coding_time_seconds": 0, "coding_time_seconds_today": 0, "balance": "You need to have a pocket watcher badge to view this.", "badges": [], "created_at": "2025-08-17T06:27:56.287-04:00", "updated_at": "2025-08-17T09:57:55.998-04:00", "avatar": "https://secure.gravatar.com/avatar/ca1243f3c709fe9f925e003e6beda2d6.jpg?s=512&d=https%3A%2F%2Fa.slack-edge.com%2Fdf10d%2Fimg%2Favatars%2Fava_0019-512.png", "custom_css": null}, {"id": 21819, "slack_id": "U09AP1G5CE9", "display_name": "Truong Tran Quang", "bio": null, "projects_count": 0, "devlogs_count": 0, "votes_count": 0, "ships_count": 0, "projects": [], "coding_time_seconds": 0, "coding_time_seconds_today": 0, "balance": "You need to have a pocket watcher badge to view this.", "badges": [], "created_at": "2025-08-17T06:46:52.439-04:00", "updated_at": "2025-08-17T09:57:56.360-04:00", "avatar": "https://secure.gravatar.com/avatar/f723986e5ad086fd071f39596582440b.jpg?s=512&d=https%3A%2F%2Fa.slack-edge.com%2Fdf10d%2Fimg%2Favatars%2Fava_0019-512.png", "custom_css": null}, {"id": 21820, "slack_id": "U09AQSZ9K5Y", "display_name": "Dev Makhijani", "bio": null, "projects_count": 0, "devlogs_count": 0, "votes_count": 0, "ships_count": 0, "projects": [], "coding_time_seconds": 2193, "coding_time_seconds_today": 0, "balance": "You need to have a pocket watcher badge to view this.", "badges": [], "created_at": "2025-08-17T07:14:45.860-04:00", "updated_at": "2025-08-17T09:57:56.494-04:00", "avatar": "https://secure.gravatar.com/avatar/8bb7a14eb4d39c3dea18d717417ff84c.jpg?s=512&d=https%3A%2F%2Fa.slack-edge.com%2Fdf10d%2Fimg%2Favatars%2Fava_0014-512.png", "custom_css": null}, {"id": 21821, "slack_id": "U09ACQLDG5V", "display_name": "Unrealdrip", "bio": null, "projects_count": 0, "devlogs_count": 0, "votes_count": 0, "ships_count": 0, "projects": [], "coding_time_seconds": 33869, "coding_time_seconds_today": 0, "balance": "You need to have a pocket watcher badge to view this.", "badges": [], "created_at": "2025-08-17T07:32:18.273-04:00", "updated_at": "2025-08-28T18:28:21.888-04:00", "avatar": "https://secure.gravatar.com/avatar/a1de9b0101b1a0b7d9223f45a0305c11.jpg?s=512&d=https%3A%2F%2Fa.slack-edge.com%2Fdf10d%2Fimg%2Favatars%2Fava_0009-512.png", "custom_css": null}, {"id": 21822, "slack_id": "U09B3E28C6M", "display_name": "AD", "bio": null, "projects_count": 0, "devlogs_count": 0, "votes_count": 0, "ships_count": 0, "projects": [], "coding_time_seconds": 0, "coding_time_seconds_today": 0, "balance": "You need to have a pocket watcher badge to view this.", "badges": [], "created_at": "2025-08-17T07:58:05.935-04:00", "updated_at": "2025-08-17T09:57:56.739-04:00", "avatar": "https://secure.gravatar.com/avatar/e13013653fb0dedbba228ffc24172b71.jpg?s=512&d=https%3A%2F%2Fa.slack-edge.com%2Fdf10d%2Fimg%2Favatars%2Fava_0023-512.png", "custom_css": null}, {"id": 21823, "slack_id": "U097HC31KHB", "display_name": "Arjan Chakraborty", "bio": null, "projects_count": 0, "devlogs_count": 0, "votes_count": 0, "ships_count": 0, "projects": [], "coding_time_seconds": 0, "coding_time_seconds_today": 0, "balance": "You need to have a pocket watcher badge to view this.", "badges": [], "created_at": "2025-08-17T08:09:02.885-04:00", "updated_at": "2025-08-17T09:57:56.992-04:00", "avatar": "https://secure.gravatar.com/avatar/9fad2b3adb2c4e3d48b2f2e7900a298c.jpg?s=512&d=https%3A%2F%2Fa.slack-edge.com%2Fdf10d%2Fimg%2Favatars%2Fava_0021-512.png", "custom_css": null}, {"id": 21824, "slack_id": "U09AK644H0B", "display_name": "Prasum Shrestha", "bio": null, "projects_count": 0, "devlogs_count": 0, "votes_count": 0, "ships_count": 0, "projects": [], "coding_time_seconds": 0, "coding_time_seconds_today": 0, "balance": "You need to have a pocket watcher badge to view this.", "badges": [], "created_at": "2025-08-17T08:40:04.361-04:00", "updated_at": "2025-08-17T09:57:57.101-04:00", "avatar": "https://avatars.slack-edge.com/2025-08-17/9391546662544_5aa40e6fc45ccc454b48_original.png", "custom_css": null}, {"id": 21825, "slack_id": "U09BHG680Q0", "display_name": "Supraj Bharadwaj", "bio": null, "projects_count": 0, "devlogs_count": 0, "votes_count": 0, "ships_count": 0, "projects": [], "coding_time_seconds": 0, "coding_time_seconds_today": 0, "balance": "You need to have a pocket watcher badge to view this.", "badges": [], "created_at": "2025-08-17T08:53:55.079-04:00", "updated_at": "2025-08-17T09:57:57.244-04:00", "avatar": "https://secure.gravatar.com/avatar/5f8d17e093b2ae1d21e5867b490c3da8.jpg?s=512&d=https%3A%2F%2Fa.slack-edge.com%2Fdf10d%2Fimg%2Favatars%2Fava_0008-512.png", "custom_css": null}], "pagination": {"page": 1087, "pages": 1192, "count": 23828, "items": 20}}