{"users": [{"id": 21826, "slack_id": "U0709HAGUV9", "display_name": "Ghost", "bio": null, "projects_count": 0, "devlogs_count": 0, "votes_count": 0, "ships_count": 0, "projects": [], "coding_time_seconds": 8677, "coding_time_seconds_today": 0, "balance": "You need to have a pocket watcher badge to view this.", "badges": [], "created_at": "2025-08-17T08:57:40.449-04:00", "updated_at": "2025-09-14T07:56:03.322-04:00", "avatar": "https://avatars.slack-edge.com/2025-09-14/9510991816451_6aa9f91543e545231702_original.jpg", "custom_css": null}, {"id": 21827, "slack_id": "U097VGCBLH0", "display_name": "Sagorika Biswas", "bio": "", "projects_count": 0, "devlogs_count": 0, "votes_count": 0, "ships_count": 0, "projects": [], "coding_time_seconds": 0, "coding_time_seconds_today": 0, "balance": "You need to have a pocket watcher badge to view this.", "badges": [], "created_at": "2025-08-17T09:21:58.034-04:00", "updated_at": "2025-09-08T01:00:14.686-04:00", "avatar": "https://avatars.slack-edge.com/2025-08-17/9359274848467_6eacf48fe16a6b0288e8_original.jpg", "custom_css": null}, {"id": 21828, "slack_id": "U099DFM2ESD", "display_name": "Isabella R", "bio": null, "projects_count": 0, "devlogs_count": 0, "votes_count": 0, "ships_count": 0, "projects": [], "coding_time_seconds": 0, "coding_time_seconds_today": 0, "balance": "You need to have a pocket watcher badge to view this.", "badges": [], "created_at": "2025-08-17T10:08:11.476-04:00", "updated_at": "2025-08-17T15:57:39.814-04:00", "avatar": "https://secure.gravatar.com/avatar/6d4989d48ccbb6b1813e744a3c050506.jpg?s=512&d=https%3A%2F%2Fa.slack-edge.com%2Fdf10d%2Fimg%2Favatars%2Fava_0007-512.png", "custom_css": null}, {"id": 21829, "slack_id": "U09AP9M78CV", "display_name": "palla jigisha", "bio": null, "projects_count": 0, "devlogs_count": 0, "votes_count": 0, "ships_count": 0, "projects": [], "coding_time_seconds": 0, "coding_time_seconds_today": 0, "balance": "You need to have a pocket watcher badge to view this.", "badges": [], "created_at": "2025-08-17T10:14:25.348-04:00", "updated_at": "2025-08-17T15:57:39.999-04:00", "avatar": "https://secure.gravatar.com/avatar/3f8d0392861c147d98c9bc3bc5118fad.jpg?s=512&d=https%3A%2F%2Fa.slack-edge.com%2Fdf10d%2Fimg%2Favatars%2Fava_0008-512.png", "custom_css": null}, {"id": 21830, "slack_id": "U09BHL0HY1W", "display_name": "Frost", "bio": null, "projects_count": 0, "devlogs_count": 0, "votes_count": 0, "ships_count": 0, "projects": [], "coding_time_seconds": 0, "coding_time_seconds_today": 0, "balance": "You need to have a pocket watcher badge to view this.", "badges": [], "created_at": "2025-08-17T10:20:01.586-04:00", "updated_at": "2025-08-17T15:57:40.133-04:00", "avatar": "https://secure.gravatar.com/avatar/1a727c2eaae7b6d80835f60cedd9ff81.jpg?s=512&d=https%3A%2F%2Fa.slack-edge.com%2Fdf10d%2Fimg%2Favatars%2Fava_0026-512.png", "custom_css": null}, {"id": 21831, "slack_id": "U09AKAJUAQ3", "display_name": "Tanakorn Arttajin", "bio": null, "projects_count": 1, "devlogs_count": 3, "votes_count": 1, "ships_count": 0, "projects": [{"id": 11676, "title": "CaloriSense", "devlogs_count": 3, "created_at": "2025-08-18T10:22:45.453-04:00"}], "coding_time_seconds": 142479, "coding_time_seconds_today": 5863, "balance": "You need to have a pocket watcher badge to view this.", "badges": [], "created_at": "2025-08-17T10:25:41.723-04:00", "updated_at": "2025-08-18T03:26:55.337-04:00", "avatar": "https://avatars.slack-edge.com/2025-08-17/9363348592165_6ac4a6683bcc046ffeb6_original.jpg", "custom_css": null}, {"id": 21832, "slack_id": "U08235XP5JP", "display_name": "shad0wRoot", "bio": null, "projects_count": 1, "devlogs_count": 0, "votes_count": 0, "ships_count": 0, "projects": [{"id": 11593, "title": "FabricLDAP", "devlogs_count": 0, "created_at": "2025-08-17T11:15:41.820-04:00"}], "coding_time_seconds": 8742, "coding_time_seconds_today": 0, "balance": "You need to have a pocket watcher badge to view this.", "badges": [], "created_at": "2025-08-17T10:48:51.420-04:00", "updated_at": "2025-08-17T15:57:40.481-04:00", "avatar": "https://secure.gravatar.com/avatar/03c2d32a6efe2a14ec3044bd4192802a.jpg?s=512&d=https%3A%2F%2Fa.slack-edge.com%2Fdf10d%2Fimg%2Favatars%2Fava_0018-512.png", "custom_css": null}, {"id": 21833, "slack_id": "U09AKD831K5", "display_name": "Vy Do", "bio": null, "projects_count": 0, "devlogs_count": 0, "votes_count": 0, "ships_count": 0, "projects": [], "coding_time_seconds": 0, "coding_time_seconds_today": 0, "balance": "You need to have a pocket watcher badge to view this.", "badges": [], "created_at": "2025-08-17T11:31:29.676-04:00", "updated_at": "2025-09-02T01:00:03.388-04:00", "avatar": "https://secure.gravatar.com/avatar/405f4c7d9b2dce3c38b8c9eb40aac8c0.jpg?s=512&d=https%3A%2F%2Fa.slack-edge.com%2Fdf10d%2Fimg%2Favatars%2Fava_0025-512.png", "custom_css": null}, {"id": 21834, "slack_id": "U098GULP161", "display_name": "Jahnab Pratim Das", "bio": null, "projects_count": 0, "devlogs_count": 0, "votes_count": 0, "ships_count": 0, "projects": [], "coding_time_seconds": 0, "coding_time_seconds_today": 0, "balance": "You need to have a pocket watcher badge to view this.", "badges": [], "created_at": "2025-08-17T11:56:01.181-04:00", "updated_at": "2025-08-17T15:57:40.856-04:00", "avatar": "https://avatars.slack-edge.com/2025-08-17/9377846955937_beb79e87a80629ba0f1f_original.png", "custom_css": null}, {"id": 21835, "slack_id": "U09B3R5LJAD", "display_name": "Van Huynh", "bio": null, "projects_count": 0, "devlogs_count": 0, "votes_count": 0, "ships_count": 0, "projects": [], "coding_time_seconds": 0, "coding_time_seconds_today": 0, "balance": "You need to have a pocket watcher badge to view this.", "badges": [], "created_at": "2025-08-17T12:07:04.109-04:00", "updated_at": "2025-08-18T03:30:06.514-04:00", "avatar": "https://secure.gravatar.com/avatar/840d9d6c2c9fb8b8bd5f257476d13f57.jpg?s=512&d=https%3A%2F%2Fa.slack-edge.com%2Fdf10d%2Fimg%2Favatars%2Fava_0025-512.png", "custom_css": null}, {"id": 21836, "slack_id": "U09ASUK57K8", "display_name": "itzmetanjim", "bio": "", "projects_count": 4, "devlogs_count": 17, "votes_count": 41, "ships_count": 3, "projects": [{"id": 12337, "title": "The Idea Anvil (MC mod)", "devlogs_count": 9, "created_at": "2025-08-26T00:04:25.360-04:00"}, {"id": 13547, "title": "mkcd", "devlogs_count": 1, "created_at": "2025-09-19T06:12:25.630-04:00"}, {"id": 13705, "title": "life saving tool", "devlogs_count": 0, "created_at": "2025-09-23T10:31:06.876-04:00"}, {"id": 11645, "title": "LLM Dump", "devlogs_count": 5, "created_at": "2025-08-18T03:27:22.935-04:00"}], "coding_time_seconds": 175806, "coding_time_seconds_today": 0, "balance": "You need to have a pocket watcher badge to view this.", "badges": [], "created_at": "2025-08-17T12:15:02.618-04:00", "updated_at": "2025-09-22T08:39:15.006-04:00", "avatar": "https://avatars.slack-edge.com/2025-08-17/9353261346055_c03b1e4852e31751d7a4_original.jpg", "custom_css": null}, {"id": 21837, "slack_id": "U09AD78619D", "display_name": "Minh Khang Truong (Kevin)", "bio": null, "projects_count": 0, "devlogs_count": 0, "votes_count": 0, "ships_count": 0, "projects": [], "coding_time_seconds": 7506, "coding_time_seconds_today": 0, "balance": "You need to have a pocket watcher badge to view this.", "badges": [], "created_at": "2025-08-17T12:28:11.995-04:00", "updated_at": "2025-09-04T19:22:22.826-04:00", "avatar": "https://secure.gravatar.com/avatar/fae5a68f5a2b4ec7801d83d3c4d8d1c5.jpg?s=512&d=https%3A%2F%2Fa.slack-edge.com%2Fdf10d%2Fimg%2Favatars%2Fava_0011-512.png", "custom_css": null}, {"id": 21838, "slack_id": "U09ARAR4S1Y", "display_name": "Yusuf Bouzekri", "bio": null, "projects_count": 0, "devlogs_count": 0, "votes_count": 0, "ships_count": 0, "projects": [], "coding_time_seconds": 55091, "coding_time_seconds_today": 0, "balance": "You need to have a pocket watcher badge to view this.", "badges": [], "created_at": "2025-08-17T12:35:25.869-04:00", "updated_at": "2025-08-17T15:57:45.461-04:00", "avatar": "https://avatars.slack-edge.com/2025-08-17/9391892073136_624cb48ec2c3e48edad8_original.jpg", "custom_css": null}, {"id": 21839, "slack_id": "U09AKG7CRB5", "display_name": "Ben", "bio": null, "projects_count": 0, "devlogs_count": 0, "votes_count": 0, "ships_count": 0, "projects": [], "coding_time_seconds": 0, "coding_time_seconds_today": 0, "balance": "You need to have a pocket watcher badge to view this.", "badges": [], "created_at": "2025-08-17T12:41:31.866-04:00", "updated_at": "2025-08-17T15:57:45.620-04:00", "avatar": "https://secure.gravatar.com/avatar/7126e2d20a432d79fbcf7158e755d814.jpg?s=512&d=https%3A%2F%2Fa.slack-edge.com%2Fdf10d%2Fimg%2Favatars%2Fava_0002-512.png", "custom_css": null}, {"id": 21840, "slack_id": "U09BHT19JEL", "display_name": "David Meyer (Lordgrim)", "bio": null, "projects_count": 0, "devlogs_count": 0, "votes_count": 0, "ships_count": 0, "projects": [], "coding_time_seconds": 45677, "coding_time_seconds_today": 0, "balance": "You need to have a pocket watcher badge to view this.", "badges": [], "created_at": "2025-08-17T13:00:40.824-04:00", "updated_at": "2025-08-17T15:57:45.754-04:00", "avatar": "https://avatars.slack-edge.com/2025-08-17/9369110730852_38018e37239c0c5bdb66_original.png", "custom_css": null}, {"id": 21841, "slack_id": "U09AV43BA1J", "display_name": "Annie Wang", "bio": null, "projects_count": 0, "devlogs_count": 0, "votes_count": 0, "ships_count": 0, "projects": [], "coding_time_seconds": 0, "coding_time_seconds_today": 0, "balance": "You need to have a pocket watcher badge to view this.", "badges": [], "created_at": "2025-08-17T13:23:34.773-04:00", "updated_at": "2025-08-17T15:57:46.156-04:00", "avatar": "https://secure.gravatar.com/avatar/84443280eca3722a9e917ddd6144a1d8.jpg?s=512&d=https%3A%2F%2Fa.slack-edge.com%2Fdf10d%2Fimg%2Favatars%2Fava_0004-512.png", "custom_css": null}, {"id": 21842, "slack_id": "U09ADAK69NK", "display_name": "Harish Nanthan", "bio": null, "projects_count": 0, "devlogs_count": 0, "votes_count": 0, "ships_count": 0, "projects": [], "coding_time_seconds": 0, "coding_time_seconds_today": 0, "balance": "You need to have a pocket watcher badge to view this.", "badges": [], "created_at": "2025-08-17T13:29:09.982-04:00", "updated_at": "2025-08-17T15:57:46.590-04:00", "avatar": "https://avatars.slack-edge.com/2025-08-17/9377981407233_ec9d87f98d7e23d90ff4_original.png", "custom_css": null}, {"id": 21843, "slack_id": "U09B3V6CC4R", "display_name": "Mykhailo", "bio": null, "projects_count": 0, "devlogs_count": 0, "votes_count": 0, "ships_count": 0, "projects": [], "coding_time_seconds": 0, "coding_time_seconds_today": 0, "balance": "You need to have a pocket watcher badge to view this.", "badges": [], "created_at": "2025-08-17T13:40:49.087-04:00", "updated_at": "2025-08-17T15:57:46.856-04:00", "avatar": "https://secure.gravatar.com/avatar/7245cbc14604863688beb5d60fab1268.jpg?s=512&d=https%3A%2F%2Fa.slack-edge.com%2Fdf10d%2Fimg%2Favatars%2Fava_0014-512.png", "custom_css": null}, {"id": 21844, "slack_id": "U09B41Q0RH7", "display_name": "Yaasir Ali", "bio": null, "projects_count": 0, "devlogs_count": 0, "votes_count": 0, "ships_count": 0, "projects": [], "coding_time_seconds": 5898, "coding_time_seconds_today": 0, "balance": "You need to have a pocket watcher badge to view this.", "badges": [], "created_at": "2025-08-17T14:28:17.020-04:00", "updated_at": "2025-08-17T15:57:47.161-04:00", "avatar": "https://avatars.slack-edge.com/2025-08-17/9392046007008_7c4dc425e698176e158c_original.jpg", "custom_css": null}, {"id": 21845, "slack_id": "U09ARFB0DNE", "display_name": "Mustafa Eren Ertekin", "bio": null, "projects_count": 0, "devlogs_count": 0, "votes_count": 0, "ships_count": 0, "projects": [], "coding_time_seconds": 7169, "coding_time_seconds_today": 0, "balance": "You need to have a pocket watcher badge to view this.", "badges": [], "created_at": "2025-08-17T14:35:48.214-04:00", "updated_at": "2025-08-18T04:59:00.602-04:00", "avatar": "https://avatars.slack-edge.com/2025-08-17/9359718965539_47c571481f034e3a7a7b_original.jpg", "custom_css": null}], "pagination": {"page": 1088, "pages": 1192, "count": 23828, "items": 20}}