{"users": [{"id": 21846, "slack_id": "U0787CDSE5V", "display_name": "Marceloni", "bio": null, "projects_count": 0, "devlogs_count": 0, "votes_count": 0, "ships_count": 0, "projects": [], "coding_time_seconds": 12, "coding_time_seconds_today": 0, "balance": "You need to have a pocket watcher badge to view this.", "badges": [], "created_at": "2025-08-17T15:23:00.097-04:00", "updated_at": "2025-08-17T15:52:56.448-04:00", "avatar": "https://avatars.slack-edge.com/2024-06-18/7280180910199_bfed57e7f2b2888e638e_original.png", "custom_css": null}, {"id": 21847, "slack_id": "U09AKQ4AY91", "display_name": "Imed", "bio": null, "projects_count": 0, "devlogs_count": 0, "votes_count": 0, "ships_count": 0, "projects": [], "coding_time_seconds": 0, "coding_time_seconds_today": 0, "balance": "You need to have a pocket watcher badge to view this.", "badges": [], "created_at": "2025-08-17T15:59:46.801-04:00", "updated_at": "2025-08-17T21:58:23.965-04:00", "avatar": "https://secure.gravatar.com/avatar/d4d265efc1f1af914071444e06390751.jpg?s=512&d=https%3A%2F%2Fa.slack-edge.com%2Fdf10d%2Fimg%2Favatars%2Fava_0004-512.png", "custom_css": null}, {"id": 21848, "slack_id": "U09B45MBE7K", "display_name": "pizzahere", "bio": null, "projects_count": 0, "devlogs_count": 0, "votes_count": 0, "ships_count": 0, "projects": [], "coding_time_seconds": 3304, "coding_time_seconds_today": 0, "balance": "You need to have a pocket watcher badge to view this.", "badges": [], "created_at": "2025-08-17T16:31:06.673-04:00", "updated_at": "2025-08-17T21:58:24.071-04:00", "avatar": "https://avatars.slack-edge.com/2025-08-17/9369439924164_0dbe50ace7674264ba0d_original.png", "custom_css": null}, {"id": 21849, "slack_id": "U09BJ6DGV40", "display_name": "Charlie", "bio": null, "projects_count": 0, "devlogs_count": 0, "votes_count": 0, "ships_count": 0, "projects": [], "coding_time_seconds": 1419, "coding_time_seconds_today": 0, "balance": "You need to have a pocket watcher badge to view this.", "badges": [], "created_at": "2025-08-17T16:35:20.299-04:00", "updated_at": "2025-08-19T01:10:25.149-04:00", "avatar": "https://secure.gravatar.com/avatar/bb61b3e675b1d69cb856f788005c6db1.jpg?s=512&d=https%3A%2F%2Fa.slack-edge.com%2Fdf10d%2Fimg%2Favatars%2Fava_0007-512.png", "custom_css": null}, {"id": 21850, "slack_id": "U09BJ6JRN2U", "display_name": "Sarah", "bio": null, "projects_count": 0, "devlogs_count": 0, "votes_count": 0, "ships_count": 0, "projects": [], "coding_time_seconds": 7090, "coding_time_seconds_today": 0, "balance": "You need to have a pocket watcher badge to view this.", "badges": [], "created_at": "2025-08-17T16:40:54.005-04:00", "updated_at": "2025-08-20T04:00:17.063-04:00", "avatar": "https://secure.gravatar.com/avatar/ad627480eefbe786ef4ade05e6e10ba7.jpg?s=512&d=https%3A%2F%2Fa.slack-edge.com%2Fdf10d%2Fimg%2Favatars%2Fava_0023-512.png", "custom_css": null}, {"id": 21851, "slack_id": "U08RM7SJ1PV", "display_name": "Facundo Nair Jarma Urdangarin", "bio": null, "projects_count": 1, "devlogs_count": 0, "votes_count": 0, "ships_count": 0, "projects": [{"id": 11714, "title": "Habits.", "devlogs_count": 0, "created_at": "2025-08-18T16:43:01.960-04:00"}], "coding_time_seconds": 116477, "coding_time_seconds_today": 0, "balance": "You need to have a pocket watcher badge to view this.", "badges": [], "created_at": "2025-08-17T16:57:11.182-04:00", "updated_at": "2025-08-18T16:41:13.622-04:00", "avatar": "https://secure.gravatar.com/avatar/640b016a35da2a441bc987b73910f60d.jpg?s=512&d=https%3A%2F%2Fa.slack-edge.com%2Fdf10d%2Fimg%2Favatars%2Fava_0020-512.png", "custom_css": null}, {"id": 21852, "slack_id": "U09ADLTBBUP", "display_name": "Wiktor", "bio": null, "projects_count": 0, "devlogs_count": 0, "votes_count": 0, "ships_count": 0, "projects": [], "coding_time_seconds": 0, "coding_time_seconds_today": 0, "balance": "You need to have a pocket watcher badge to view this.", "badges": [], "created_at": "2025-08-17T17:41:07.579-04:00", "updated_at": "2025-08-17T21:58:24.491-04:00", "avatar": "https://secure.gravatar.com/avatar/6486c8f013977f4c12fd2a3286f8141d.jpg?s=512&d=https%3A%2F%2Fa.slack-edge.com%2Fdf10d%2Fimg%2Favatars%2Fava_0010-512.png", "custom_css": null}, {"id": 21853, "slack_id": "U09B41N7H5F", "display_name": "Melvin", "bio": null, "projects_count": 0, "devlogs_count": 0, "votes_count": 0, "ships_count": 0, "projects": [], "coding_time_seconds": 0, "coding_time_seconds_today": 0, "balance": "You need to have a pocket watcher badge to view this.", "badges": [], "created_at": "2025-08-17T17:55:03.744-04:00", "updated_at": "2025-08-17T21:58:24.589-04:00", "avatar": "https://secure.gravatar.com/avatar/5696f415e60c5bede4e6bfcfdc5e92c8.jpg?s=512&d=https%3A%2F%2Fa.slack-edge.com%2Fdf10d%2Fimg%2Favatars%2Fava_0008-512.png", "custom_css": null}, {"id": 21854, "slack_id": "U09AQ0KBHE1", "display_name": "Leo", "bio": null, "projects_count": 1, "devlogs_count": 0, "votes_count": 0, "ships_count": 0, "projects": [{"id": 11622, "title": "Mind Mirths", "devlogs_count": 0, "created_at": "2025-08-17T19:12:34.991-04:00"}], "coding_time_seconds": 36369, "coding_time_seconds_today": 0, "balance": "You need to have a pocket watcher badge to view this.", "badges": [], "created_at": "2025-08-17T18:54:30.043-04:00", "updated_at": "2025-08-27T09:48:27.524-04:00", "avatar": "https://secure.gravatar.com/avatar/2d9210ecfd804f03c570953f736aa234.jpg?s=512&d=https%3A%2F%2Fa.slack-edge.com%2Fdf10d%2Fimg%2Favatars%2Fava_0004-512.png", "custom_css": null}, {"id": 21855, "slack_id": "U09B4DXTZKK", "display_name": "User", "bio": null, "projects_count": 0, "devlogs_count": 0, "votes_count": 0, "ships_count": 0, "projects": [], "coding_time_seconds": 0, "coding_time_seconds_today": 0, "balance": "You need to have a pocket watcher badge to view this.", "badges": [], "created_at": "2025-08-17T19:23:06.250-04:00", "updated_at": "2025-08-17T21:58:24.926-04:00", "avatar": "https://avatars.slack-edge.com/2025-08-17/9365927505314_ada7877c953c95f3e151_original.png", "custom_css": null}, {"id": 21856, "slack_id": "U09B4D47UF3", "display_name": "Raj", "bio": null, "projects_count": 0, "devlogs_count": 0, "votes_count": 0, "ships_count": 0, "projects": [], "coding_time_seconds": 0, "coding_time_seconds_today": 0, "balance": "You need to have a pocket watcher badge to view this.", "badges": [], "created_at": "2025-08-17T19:39:56.504-04:00", "updated_at": "2025-08-17T21:58:25.025-04:00", "avatar": "https://secure.gravatar.com/avatar/0aaa91e7bf02b0561e8be6946c632908.jpg?s=512&d=https%3A%2F%2Fa.slack-edge.com%2Fdf10d%2Fimg%2Favatars%2Fava_0023-512.png", "custom_css": null}, {"id": 21857, "slack_id": "U09AL7E5QCT", "display_name": "AYA", "bio": null, "projects_count": 0, "devlogs_count": 0, "votes_count": 0, "ships_count": 0, "projects": [], "coding_time_seconds": 0, "coding_time_seconds_today": 0, "balance": "You need to have a pocket watcher badge to view this.", "badges": [], "created_at": "2025-08-17T20:32:50.317-04:00", "updated_at": "2025-08-17T21:58:25.124-04:00", "avatar": "https://avatars.slack-edge.com/2025-08-17/9354020338343_88d8f975cac393b7392d_original.png", "custom_css": null}, {"id": 21858, "slack_id": "U09BJJEL7CG", "display_name": "Kyle Weatherly", "bio": null, "projects_count": 0, "devlogs_count": 0, "votes_count": 0, "ships_count": 0, "projects": [], "coding_time_seconds": 0, "coding_time_seconds_today": 0, "balance": "You need to have a pocket watcher badge to view this.", "badges": [], "created_at": "2025-08-17T20:40:06.253-04:00", "updated_at": "2025-08-18T13:35:06.311-04:00", "avatar": "https://secure.gravatar.com/avatar/45a25597dd17e421fe01356252e8c3a4.jpg?s=512&d=https%3A%2F%2Fa.slack-edge.com%2Fdf10d%2Fimg%2Favatars%2Fava_0004-512.png", "custom_css": null}, {"id": 21859, "slack_id": "U09BJJNKQ72", "display_name": "Aslam", "bio": null, "projects_count": 0, "devlogs_count": 0, "votes_count": 0, "ships_count": 0, "projects": [], "coding_time_seconds": 0, "coding_time_seconds_today": 0, "balance": "You need to have a pocket watcher badge to view this.", "badges": [], "created_at": "2025-08-17T20:42:27.794-04:00", "updated_at": "2025-08-18T10:12:27.163-04:00", "avatar": "https://avatars.slack-edge.com/2025-08-17/9366074324738_742e48cf4e4c114aab5d_original.png", "custom_css": null}, {"id": 21860, "slack_id": "U09BJKCKSTS", "display_name": "Seif", "bio": null, "projects_count": 0, "devlogs_count": 0, "votes_count": 0, "ships_count": 0, "projects": [], "coding_time_seconds": 0, "coding_time_seconds_today": 0, "balance": "You need to have a pocket watcher badge to view this.", "badges": [], "created_at": "2025-08-17T20:52:35.820-04:00", "updated_at": "2025-08-19T18:37:21.411-04:00", "avatar": "https://avatars.slack-edge.com/2025-08-17/9366098443074_2238813755e28944fb6b_original.png", "custom_css": null}, {"id": 21861, "slack_id": "U09ADKQGZJB", "display_name": "Keri", "bio": null, "projects_count": 0, "devlogs_count": 0, "votes_count": 0, "ships_count": 0, "projects": [], "coding_time_seconds": 0, "coding_time_seconds_today": 0, "balance": "You need to have a pocket watcher badge to view this.", "badges": [], "created_at": "2025-08-17T21:04:57.635-04:00", "updated_at": "2025-08-17T21:58:26.193-04:00", "avatar": "https://secure.gravatar.com/avatar/f95af22dfc0a60c0d7fe9dcde1bfb7b8.jpg?s=512&d=https%3A%2F%2Fa.slack-edge.com%2Fdf10d%2Fimg%2Favatars%2Fava_0012-512.png", "custom_css": null}, {"id": 21862, "slack_id": "U09AW035YMA", "display_name": "HowlingHole", "bio": null, "projects_count": 0, "devlogs_count": 0, "votes_count": 0, "ships_count": 0, "projects": [], "coding_time_seconds": 0, "coding_time_seconds_today": 0, "balance": "You need to have a pocket watcher badge to view this.", "badges": [], "created_at": "2025-08-17T21:43:52.431-04:00", "updated_at": "2025-08-17T21:58:26.470-04:00", "avatar": "https://secure.gravatar.com/avatar/c23ad270f4ff698b46abad0115aa8c14.jpg?s=512&d=https%3A%2F%2Fa.slack-edge.com%2Fdf10d%2Fimg%2Favatars%2Fava_0008-512.png", "custom_css": null}, {"id": 21863, "slack_id": "U09AW13M7HA", "display_name": "Miguel Angel", "bio": null, "projects_count": 0, "devlogs_count": 0, "votes_count": 0, "ships_count": 0, "projects": [], "coding_time_seconds": 0, "coding_time_seconds_today": 0, "balance": "You need to have a pocket watcher badge to view this.", "badges": [], "created_at": "2025-08-17T21:54:52.006-04:00", "updated_at": "2025-08-18T03:59:14.439-04:00", "avatar": "https://secure.gravatar.com/avatar/d4a884335a5fd47c6176d8a8437c234d.jpg?s=512&d=https%3A%2F%2Fa.slack-edge.com%2Fdf10d%2Fimg%2Favatars%2Fava_0013-512.png", "custom_css": null}, {"id": 21864, "slack_id": "U09AG8ZTSTD", "display_name": "nishan", "bio": null, "projects_count": 0, "devlogs_count": 0, "votes_count": 0, "ships_count": 0, "projects": [], "coding_time_seconds": 0, "coding_time_seconds_today": 0, "balance": "You need to have a pocket watcher badge to view this.", "badges": [], "created_at": "2025-08-17T22:27:10.498-04:00", "updated_at": "2025-08-18T03:59:14.565-04:00", "avatar": "https://secure.gravatar.com/avatar/db0a505bf43ed85787cc89776341ef28.jpg?s=512&d=https%3A%2F%2Fa.slack-edge.com%2Fdf10d%2Fimg%2Favatars%2Fava_0012-512.png", "custom_css": null}, {"id": 21865, "slack_id": "U09AE9K96A3", "display_name": "Annika", "bio": null, "projects_count": 0, "devlogs_count": 0, "votes_count": 0, "ships_count": 0, "projects": [], "coding_time_seconds": 0, "coding_time_seconds_today": 0, "balance": "You need to have a pocket watcher badge to view this.", "badges": [], "created_at": "2025-08-17T22:27:48.861-04:00", "updated_at": "2025-08-18T03:59:14.693-04:00", "avatar": "https://secure.gravatar.com/avatar/5d6a818b5b04542c24c09efb1b828571.jpg?s=512&d=https%3A%2F%2Fa.slack-edge.com%2Fdf10d%2Fimg%2Favatars%2Fava_0007-512.png", "custom_css": null}], "pagination": {"page": 1089, "pages": 1192, "count": 23828, "items": 20}}