{"users": [{"id": 2161, "slack_id": "U074K2VPP62", "display_name": "Andromeda", "bio": null, "projects_count": 0, "devlogs_count": 0, "votes_count": 0, "ships_count": 0, "projects": [], "coding_time_seconds": 309145, "coding_time_seconds_today": 121, "balance": "You need to have a pocket watcher badge to view this.", "badges": [], "created_at": "2025-06-16T14:53:14.682-04:00", "updated_at": "2025-08-09T20:07:15.306-04:00", "avatar": "https://avatars.slack-edge.com/2025-08-09/9333729632772_8042e7597e48f6058a22_original.jpg", "custom_css": null}, {"id": 2162, "slack_id": "U092CGSV3RN", "display_name": "ionut", "bio": null, "projects_count": 14, "devlogs_count": 43, "votes_count": 217, "ships_count": 13, "projects": [{"id": 824, "title": "The Trolley Problem (But with infinite AI scenarios)", "devlogs_count": 2, "created_at": "2025-06-17T09:11:49.860-04:00"}, {"id": 970, "title": "Defuse The Bomb!", "devlogs_count": 3, "created_at": "2025-06-17T12:38:19.270-04:00"}, {"id": 2812, "title": "AI Flashcards", "devlogs_count": 4, "created_at": "2025-06-22T06:01:44.339-04:00"}, {"id": 3169, "title": "Japanese Flag Clock", "devlogs_count": 1, "created_at": "2025-06-23T10:12:11.986-04:00"}, {"id": 4459, "title": "Paint Pixels", "devlogs_count": 6, "created_at": "2025-06-30T03:52:12.697-04:00"}, {"id": 5820, "title": "Minesweeper", "devlogs_count": 2, "created_at": "2025-07-08T08:52:42.299-04:00"}, {"id": 2960, "title": "Language Flashcards", "devlogs_count": 2, "created_at": "2025-06-22T15:11:29.189-04:00"}, {"id": 3178, "title": "Typing Speed Test", "devlogs_count": 5, "created_at": "2025-06-23T10:37:30.226-04:00"}, {"id": 3746, "title": "Beat Maker", "devlogs_count": 4, "created_at": "2025-06-25T14:49:19.877-04:00"}, {"id": 2155, "title": "The Impossible Form", "devlogs_count": 2, "created_at": "2025-06-20T09:56:23.241-04:00"}, {"id": 2152, "title": "Higher or Lower: City Population", "devlogs_count": 2, "created_at": "2025-06-20T09:54:48.650-04:00"}, {"id": 4242, "title": "2048", "devlogs_count": 5, "created_at": "2025-06-28T11:43:43.195-04:00"}, {"id": 1535, "title": "Higher or Lower", "devlogs_count": 3, "created_at": "2025-06-18T17:44:33.712-04:00"}, {"id": 2524, "title": "Two Truths and a Lie", "devlogs_count": 2, "created_at": "2025-06-21T07:55:03.538-04:00"}], "coding_time_seconds": 422767, "coding_time_seconds_today": 0, "balance": "You need to have a pocket watcher badge to view this.", "badges": [{"name": "Maiden Voyage", "text": "you shipped your first project! the journey begins...", "icon": "\ud83d\udea2"}, {"name": "Ballot Stuffer", "text": "vote 100 times.", "icon": "https://summer.hackclub.com/assets/i_voted-bf851b48.png"}], "created_at": "2025-06-16T14:53:19.309-04:00", "updated_at": "2025-09-10T22:52:14.861-04:00", "avatar": "https://secure.gravatar.com/avatar/ab10529df0b1558be868baa87a14b399.jpg?s=512&d=https%3A%2F%2Fa.slack-edge.com%2Fdf10d%2Fimg%2Favatars%2Fava_0025-512.png", "custom_css": null}, {"id": 2163, "slack_id": "U0918PBAQQP", "display_name": "milo", "bio": null, "projects_count": 0, "devlogs_count": 0, "votes_count": 0, "ships_count": 0, "projects": [], "coding_time_seconds": 0, "coding_time_seconds_today": 0, "balance": "You need to have a pocket watcher badge to view this.", "badges": [], "created_at": "2025-06-16T14:53:21.442-04:00", "updated_at": "2025-07-03T19:21:00.576-04:00", "avatar": "https://secure.gravatar.com/avatar/894862b8bceafa67e0829b7cb4bfff78.jpg?s=512&d=https%3A%2F%2Fa.slack-edge.com%2Fdf10d%2Fimg%2Favatars%2Fava_0015-512.png", "custom_css": null}, {"id": 2164, "slack_id": "U091Q37U12N", "display_name": "filliravaz", "bio": null, "projects_count": 0, "devlogs_count": 0, "votes_count": 0, "ships_count": 0, "projects": [], "coding_time_seconds": 0, "coding_time_seconds_today": 0, "balance": "You need to have a pocket watcher badge to view this.", "badges": [], "created_at": "2025-06-16T14:53:30.701-04:00", "updated_at": "2025-07-03T19:21:00.838-04:00", "avatar": "https://secure.gravatar.com/avatar/c6360ccd2d79a0ab351426954a5e2a1b.jpg?s=512&d=https%3A%2F%2Fa.slack-edge.com%2Fdf10d%2Fimg%2Favatars%2Fava_0017-512.png", "custom_css": null}, {"id": 2165, "slack_id": "U07UTT0Q8NA", "display_name": "Patrick Martin", "bio": null, "projects_count": 0, "devlogs_count": 0, "votes_count": 0, "ships_count": 0, "projects": [], "coding_time_seconds": 53767, "coding_time_seconds_today": 0, "balance": "You need to have a pocket watcher badge to view this.", "badges": [], "created_at": "2025-06-16T14:53:45.561-04:00", "updated_at": "2025-08-17T16:11:55.727-04:00", "avatar": "https://avatars.slack-edge.com/2025-03-09/8586000163601_e47ae5e95056e64c0e9e_original.png", "custom_css": null}, {"id": 2166, "slack_id": "U091N97SFQD", "display_name": "Phillip Abraham", "bio": null, "projects_count": 0, "devlogs_count": 0, "votes_count": 0, "ships_count": 0, "projects": [], "coding_time_seconds": 0, "coding_time_seconds_today": 0, "balance": "You need to have a pocket watcher badge to view this.", "badges": [], "created_at": "2025-06-16T14:53:45.741-04:00", "updated_at": "2025-07-03T19:21:01.418-04:00", "avatar": "https://secure.gravatar.com/avatar/d6f83d774b870d52212322fc110eba52.jpg?s=512&d=https%3A%2F%2Fa.slack-edge.com%2Fdf10d%2Fimg%2Favatars%2Fava_0000-512.png", "custom_css": null}, {"id": 2167, "slack_id": "U07D46XNUPR", "display_name": "h", "bio": null, "projects_count": 0, "devlogs_count": 0, "votes_count": 0, "ships_count": 0, "projects": [], "coding_time_seconds": 0, "coding_time_seconds_today": 0, "balance": "You need to have a pocket watcher badge to view this.", "badges": [], "created_at": "2025-06-16T14:53:46.185-04:00", "updated_at": "2025-07-03T19:21:01.685-04:00", "avatar": "https://avatars.slack-edge.com/2025-02-23/8483444664343_012d766b0852d63bc3d8_original.jpg", "custom_css": null}, {"id": 2168, "slack_id": "U0922KATH9P", "display_name": "Shivansh Tuteja", "bio": null, "projects_count": 0, "devlogs_count": 0, "votes_count": 0, "ships_count": 0, "projects": [], "coding_time_seconds": 0, "coding_time_seconds_today": 0, "balance": "You need to have a pocket watcher badge to view this.", "badges": [], "created_at": "2025-06-16T14:53:46.517-04:00", "updated_at": "2025-07-03T19:21:01.953-04:00", "avatar": "https://secure.gravatar.com/avatar/7476a36982de3eb61ddf2df909498e55.jpg?s=512&d=https%3A%2F%2Fa.slack-edge.com%2Fdf10d%2Fimg%2Favatars%2Fava_0022-512.png", "custom_css": null}, {"id": 2169, "slack_id": "U091PCKCRU2", "display_name": "Jeevan Bhatta", "bio": null, "projects_count": 0, "devlogs_count": 0, "votes_count": 0, "ships_count": 0, "projects": [], "coding_time_seconds": 0, "coding_time_seconds_today": 0, "balance": "You need to have a pocket watcher badge to view this.", "badges": [], "created_at": "2025-06-16T14:54:29.067-04:00", "updated_at": "2025-07-03T19:21:02.244-04:00", "avatar": "https://secure.gravatar.com/avatar/1ebac00c9944c028a52a6c3d4aa97d6e.jpg?s=512&d=https%3A%2F%2Fa.slack-edge.com%2Fdf10d%2Fimg%2Favatars%2Fava_0010-512.png", "custom_css": null}, {"id": 2170, "slack_id": "U0922KJRGTT", "display_name": "Alberto Linde", "bio": null, "projects_count": 0, "devlogs_count": 0, "votes_count": 0, "ships_count": 0, "projects": [], "coding_time_seconds": 0, "coding_time_seconds_today": 0, "balance": "You need to have a pocket watcher badge to view this.", "badges": [], "created_at": "2025-06-16T14:54:34.630-04:00", "updated_at": "2025-07-03T19:21:02.520-04:00", "avatar": "https://secure.gravatar.com/avatar/260bb3fe9c9a7f534c8984f72dd5e305.jpg?s=512&d=https%3A%2F%2Fa.slack-edge.com%2Fdf10d%2Fimg%2Favatars%2Fava_0002-512.png", "custom_css": null}, {"id": 2171, "slack_id": "U091N9WCD6Z", "display_name": "Jishar Karma", "bio": null, "projects_count": 1, "devlogs_count": 0, "votes_count": 0, "ships_count": 0, "projects": [{"id": 180, "title": "sdsds", "devlogs_count": 0, "created_at": "2025-06-16T15:05:05.788-04:00"}], "coding_time_seconds": 35880, "coding_time_seconds_today": 0, "balance": "You need to have a pocket watcher badge to view this.", "badges": [], "created_at": "2025-06-16T14:54:46.469-04:00", "updated_at": "2025-07-03T19:21:02.779-04:00", "avatar": "https://secure.gravatar.com/avatar/1e420cdc19d05f5c439693579757bc0c.jpg?s=512&d=https%3A%2F%2Fa.slack-edge.com%2Fdf10d%2Fimg%2Favatars%2Fava_0010-512.png", "custom_css": null}, {"id": 2172, "slack_id": "U091H7XMAUW", "display_name": "Muhammed Emin ERDAL", "bio": null, "projects_count": 0, "devlogs_count": 0, "votes_count": 0, "ships_count": 0, "projects": [], "coding_time_seconds": 0, "coding_time_seconds_today": 0, "balance": "You need to have a pocket watcher badge to view this.", "badges": [], "created_at": "2025-06-16T14:54:56.826-04:00", "updated_at": "2025-07-03T19:21:03.061-04:00", "avatar": "https://secure.gravatar.com/avatar/2ac426a96b5ea6982bc41a21943af9be.jpg?s=512&d=https%3A%2F%2Fa.slack-edge.com%2Fdf10d%2Fimg%2Favatars%2Fava_0005-512.png", "custom_css": null}, {"id": 2173, "slack_id": "U0918PKLA31", "display_name": "Sunil Paul", "bio": null, "projects_count": 0, "devlogs_count": 0, "votes_count": 0, "ships_count": 0, "projects": [], "coding_time_seconds": 0, "coding_time_seconds_today": 0, "balance": "You need to have a pocket watcher badge to view this.", "badges": [], "created_at": "2025-06-16T14:54:58.747-04:00", "updated_at": "2025-07-03T19:21:03.338-04:00", "avatar": "https://secure.gravatar.com/avatar/0959f7c7b70929aa89390ab6109cdf22.jpg?s=512&d=https%3A%2F%2Fa.slack-edge.com%2Fdf10d%2Fimg%2Favatars%2Fava_0010-512.png", "custom_css": null}, {"id": 2174, "slack_id": "U091Q3K8VMY", "display_name": "ChristianSalinas", "bio": null, "projects_count": 1, "devlogs_count": 1, "votes_count": 0, "ships_count": 0, "projects": [{"id": 227, "title": "Crystalcards", "devlogs_count": 1, "created_at": "2025-06-16T15:55:44.993-04:00"}], "coding_time_seconds": 4659, "coding_time_seconds_today": 0, "balance": "You need to have a pocket watcher badge to view this.", "badges": [], "created_at": "2025-06-16T14:55:10.837-04:00", "updated_at": "2025-07-03T19:21:03.604-04:00", "avatar": "https://secure.gravatar.com/avatar/463493c6648d39e3351a2c1a6645cc5d.jpg?s=512&d=https%3A%2F%2Fa.slack-edge.com%2Fdf10d%2Fimg%2Favatars%2Fava_0021-512.png", "custom_css": null}, {"id": 2175, "slack_id": "U091MR9GBQV", "display_name": "Kian", "bio": null, "projects_count": 0, "devlogs_count": 0, "votes_count": 0, "ships_count": 0, "projects": [], "coding_time_seconds": 0, "coding_time_seconds_today": 0, "balance": "You need to have a pocket watcher badge to view this.", "badges": [], "created_at": "2025-06-16T14:55:13.742-04:00", "updated_at": "2025-07-03T19:21:03.867-04:00", "avatar": "https://secure.gravatar.com/avatar/4fcce47f213b7f49691c3c570e9da8bb.jpg?s=512&d=https%3A%2F%2Fa.slack-edge.com%2Fdf10d%2Fimg%2Favatars%2Fava_0023-512.png", "custom_css": null}, {"id": 2176, "slack_id": "U091H86AE14", "display_name": "Mohamed Bader Chraibi", "bio": null, "projects_count": 0, "devlogs_count": 0, "votes_count": 0, "ships_count": 0, "projects": [], "coding_time_seconds": 0, "coding_time_seconds_today": 0, "balance": "You need to have a pocket watcher badge to view this.", "badges": [], "created_at": "2025-06-16T14:55:16.125-04:00", "updated_at": "2025-07-03T19:21:04.133-04:00", "avatar": "https://avatars.slack-edge.com/2025-06-16/9080592178992_0fde7a392a172de128da_original.png", "custom_css": null}, {"id": 2177, "slack_id": "U092CH46SHE", "display_name": "Leo Prinz", "bio": null, "projects_count": 0, "devlogs_count": 0, "votes_count": 0, "ships_count": 0, "projects": [], "coding_time_seconds": 4750, "coding_time_seconds_today": 0, "balance": "You need to have a pocket watcher badge to view this.", "badges": [], "created_at": "2025-06-16T14:55:28.673-04:00", "updated_at": "2025-07-03T19:21:04.396-04:00", "avatar": "https://secure.gravatar.com/avatar/9cd6094e9cc7416cfdc9ef100d1f1676.jpg?s=512&d=https%3A%2F%2Fa.slack-edge.com%2Fdf10d%2Fimg%2Favatars%2Fava_0012-512.png", "custom_css": null}, {"id": 2178, "slack_id": "U092CH448MN", "display_name": "Dkb", "bio": null, "projects_count": 0, "devlogs_count": 0, "votes_count": 0, "ships_count": 0, "projects": [], "coding_time_seconds": 0, "coding_time_seconds_today": 0, "balance": "You need to have a pocket watcher badge to view this.", "badges": [], "created_at": "2025-06-16T14:55:32.020-04:00", "updated_at": "2025-07-03T19:21:04.672-04:00", "avatar": "https://secure.gravatar.com/avatar/3fc64b0f96b5b0928a28f68ebd34349c.jpg?s=512&d=https%3A%2F%2Fa.slack-edge.com%2Fdf10d%2Fimg%2Favatars%2Fava_0016-512.png", "custom_css": null}, {"id": 2179, "slack_id": "U091Q3G60Q2", "display_name": "Am\u00e9lie THAI", "bio": null, "projects_count": 0, "devlogs_count": 0, "votes_count": 0, "ships_count": 0, "projects": [], "coding_time_seconds": 41458, "coding_time_seconds_today": 371, "balance": "You need to have a pocket watcher badge to view this.", "badges": [], "created_at": "2025-06-16T14:55:39.562-04:00", "updated_at": "2025-07-07T15:38:43.085-04:00", "avatar": "https://secure.gravatar.com/avatar/334aae66b046bfdcde7a20d2207a1831.jpg?s=512&d=https%3A%2F%2Fa.slack-edge.com%2Fdf10d%2Fimg%2Favatars%2Fava_0023-512.png", "custom_css": null}, {"id": 2180, "slack_id": "U091N9VN6NR", "display_name": "samuelharvey06", "bio": null, "projects_count": 0, "devlogs_count": 0, "votes_count": 0, "ships_count": 0, "projects": [], "coding_time_seconds": 243, "coding_time_seconds_today": 0, "balance": "You need to have a pocket watcher badge to view this.", "badges": [], "created_at": "2025-06-16T14:55:42.328-04:00", "updated_at": "2025-07-03T19:21:05.211-04:00", "avatar": "https://avatars.slack-edge.com/2025-06-16/9080594958528_a62a1ecaeb705cc61f6b_original.png", "custom_css": null}], "pagination": {"page": 109, "pages": 1192, "count": 23828, "items": 20}}