{"users": [{"id": 21866, "slack_id": "U09BJUZNS6L", "display_name": "Ruli Z", "bio": null, "projects_count": 0, "devlogs_count": 0, "votes_count": 0, "ships_count": 0, "projects": [], "coding_time_seconds": 0, "coding_time_seconds_today": 0, "balance": "You need to have a pocket watcher badge to view this.", "badges": [], "created_at": "2025-08-17T22:45:57.987-04:00", "updated_at": "2025-08-18T03:59:14.826-04:00", "avatar": "https://secure.gravatar.com/avatar/0426f15561947910227abbfb18089f9d.jpg?s=512&d=https%3A%2F%2Fa.slack-edge.com%2Fdf10d%2Fimg%2Favatars%2Fava_0026-512.png", "custom_css": null}, {"id": 21867, "slack_id": "U09ALJE5TEX", "display_name": "jessica", "bio": null, "projects_count": 0, "devlogs_count": 0, "votes_count": 0, "ships_count": 0, "projects": [], "coding_time_seconds": 0, "coding_time_seconds_today": 0, "balance": "You need to have a pocket watcher badge to view this.", "badges": [], "created_at": "2025-08-17T22:48:51.182-04:00", "updated_at": "2025-08-22T11:38:32.960-04:00", "avatar": "https://secure.gravatar.com/avatar/dc0c50b8136af0151e0e114af32b93de.jpg?s=512&d=https%3A%2F%2Fa.slack-edge.com%2Fdf10d%2Fimg%2Favatars%2Fava_0002-512.png", "custom_css": null}, {"id": 21868, "slack_id": "U09ASEWEDT4", "display_name": "Diwash Acharya", "bio": null, "projects_count": 0, "devlogs_count": 0, "votes_count": 0, "ships_count": 0, "projects": [], "coding_time_seconds": 0, "coding_time_seconds_today": 0, "balance": "You need to have a pocket watcher badge to view this.", "badges": [], "created_at": "2025-08-17T23:27:36.231-04:00", "updated_at": "2025-08-18T03:59:15.106-04:00", "avatar": "https://secure.gravatar.com/avatar/6cf035d57b4f15657749dec35bd0e9b3.jpg?s=512&d=https%3A%2F%2Fa.slack-edge.com%2Fdf10d%2Fimg%2Favatars%2Fava_0007-512.png", "custom_css": null}, {"id": 21869, "slack_id": "U09AEEFCYS3", "display_name": "Storxenon", "bio": null, "projects_count": 0, "devlogs_count": 2, "votes_count": 0, "ships_count": 0, "projects": [], "coding_time_seconds": 25599, "coding_time_seconds_today": 0, "balance": "You need to have a pocket watcher badge to view this.", "badges": [], "created_at": "2025-08-17T23:31:29.773-04:00", "updated_at": "2025-09-05T23:05:43.691-04:00", "avatar": "https://avatars.slack-edge.com/2025-08-17/9379108722705_929e8c6dc6f1e41a8343_original.png", "custom_css": null}, {"id": 21870, "slack_id": "U099YRZCDAQ", "display_name": "KarunaSri", "bio": null, "projects_count": 0, "devlogs_count": 0, "votes_count": 0, "ships_count": 0, "projects": [], "coding_time_seconds": 0, "coding_time_seconds_today": 0, "balance": "You need to have a pocket watcher badge to view this.", "badges": [], "created_at": "2025-08-17T23:33:08.341-04:00", "updated_at": "2025-08-18T03:59:15.557-04:00", "avatar": "https://secure.gravatar.com/avatar/828dd0658d3930c22d3cc0b3f2462f34.jpg?s=512&d=https%3A%2F%2Fa.slack-edge.com%2Fdf10d%2Fimg%2Favatars%2Fava_0002-512.png", "custom_css": null}, {"id": 21871, "slack_id": "U09AWAFAXSQ", "display_name": "an n", "bio": null, "projects_count": 0, "devlogs_count": 0, "votes_count": 0, "ships_count": 0, "projects": [], "coding_time_seconds": 0, "coding_time_seconds_today": 0, "balance": "You need to have a pocket watcher badge to view this.", "badges": [], "created_at": "2025-08-17T23:47:31.244-04:00", "updated_at": "2025-08-18T03:59:15.791-04:00", "avatar": "https://avatars.slack-edge.com/2025-08-17/9370355526196_fc3236b0e0273e711640_original.png", "custom_css": null}, {"id": 21872, "slack_id": "U09AU8UDX0W", "display_name": "Ryguy", "bio": null, "projects_count": 0, "devlogs_count": 0, "votes_count": 0, "ships_count": 0, "projects": [], "coding_time_seconds": 0, "coding_time_seconds_today": 0, "balance": "You need to have a pocket watcher badge to view this.", "badges": [], "created_at": "2025-08-18T00:04:09.115-04:00", "updated_at": "2025-08-18T03:59:15.990-04:00", "avatar": "https://secure.gravatar.com/avatar/326004c7162cbbf20a66a04a4e2b9605.jpg?s=512&d=https%3A%2F%2Fa.slack-edge.com%2Fdf10d%2Fimg%2Favatars%2Fava_0017-512.png", "custom_css": null}, {"id": 21873, "slack_id": "U09B58HUT0R", "display_name": "Stefano", "bio": "Student at Vocational School 6 Surakarta, Indonesia.", "projects_count": 0, "devlogs_count": 0, "votes_count": 0, "ships_count": 0, "projects": [], "coding_time_seconds": 0, "coding_time_seconds_today": 0, "balance": "You need to have a pocket watcher badge to view this.", "badges": [], "created_at": "2025-08-18T00:44:43.107-04:00", "updated_at": "2025-08-18T05:30:02.259-04:00", "avatar": "https://avatars.slack-edge.com/2025-08-17/9360951886515_5a114128abeed58f66d2_original.png", "custom_css": null}, {"id": 21874, "slack_id": "U09AR1Y2YKF", "display_name": "Santeri Kuusisto", "bio": null, "projects_count": 0, "devlogs_count": 0, "votes_count": 0, "ships_count": 0, "projects": [], "coding_time_seconds": 0, "coding_time_seconds_today": 0, "balance": "You need to have a pocket watcher badge to view this.", "badges": [], "created_at": "2025-08-18T01:53:18.149-04:00", "updated_at": "2025-08-18T03:59:16.210-04:00", "avatar": "https://secure.gravatar.com/avatar/4c44caedac3b9d83c712100a6be6123c.jpg?s=512&d=https%3A%2F%2Fa.slack-edge.com%2Fdf10d%2Fimg%2Favatars%2Fava_0005-512.png", "custom_css": null}, {"id": 21875, "slack_id": "U09AWLCQN0L", "display_name": "Zachary", "bio": null, "projects_count": 1, "devlogs_count": 1, "votes_count": 0, "ships_count": 0, "projects": [{"id": 11643, "title": "Small bank simulator.", "devlogs_count": 1, "created_at": "2025-08-18T02:36:43.019-04:00"}], "coding_time_seconds": 59967, "coding_time_seconds_today": 4813, "balance": "You need to have a pocket watcher badge to view this.", "badges": [], "created_at": "2025-08-18T01:54:36.085-04:00", "updated_at": "2025-08-18T03:59:16.305-04:00", "avatar": "https://secure.gravatar.com/avatar/1efb627c77d5a6f737d9a70036de9fe4.jpg?s=512&d=https%3A%2F%2Fa.slack-edge.com%2Fdf10d%2Fimg%2Favatars%2Fava_0021-512.png", "custom_css": null}, {"id": 21876, "slack_id": "U09AMA1D7UK", "display_name": "Vanya", "bio": null, "projects_count": 0, "devlogs_count": 0, "votes_count": 0, "ships_count": 0, "projects": [], "coding_time_seconds": 0, "coding_time_seconds_today": 0, "balance": "You need to have a pocket watcher badge to view this.", "badges": [], "created_at": "2025-08-18T02:45:09.536-04:00", "updated_at": "2025-08-18T03:59:16.511-04:00", "avatar": "https://secure.gravatar.com/avatar/8ab78aaa9d7337bb1e553640b9648b0e.jpg?s=512&d=https%3A%2F%2Fa.slack-edge.com%2Fdf10d%2Fimg%2Favatars%2Fava_0016-512.png", "custom_css": null}, {"id": 21877, "slack_id": "U09AMFKAHHR", "display_name": "Abhishek Kumar Sah", "bio": null, "projects_count": 0, "devlogs_count": 0, "votes_count": 0, "ships_count": 0, "projects": [], "coding_time_seconds": 0, "coding_time_seconds_today": 0, "balance": "You need to have a pocket watcher badge to view this.", "badges": [], "created_at": "2025-08-18T03:32:12.350-04:00", "updated_at": "2025-08-20T12:37:23.080-04:00", "avatar": "https://secure.gravatar.com/avatar/156ad5d355e4a999fe2ea8ff5200f19a.jpg?s=512&d=https%3A%2F%2Fa.slack-edge.com%2Fdf10d%2Fimg%2Favatars%2Fava_0015-512.png", "custom_css": null}, {"id": 21878, "slack_id": "U09AF8VH7HD", "display_name": "Sifat", "bio": null, "projects_count": 0, "devlogs_count": 0, "votes_count": 0, "ships_count": 0, "projects": [], "coding_time_seconds": 0, "coding_time_seconds_today": 0, "balance": "You need to have a pocket watcher badge to view this.", "badges": [], "created_at": "2025-08-18T03:33:10.062-04:00", "updated_at": "2025-08-18T03:59:20.762-04:00", "avatar": "https://secure.gravatar.com/avatar/e0f9b3f8e1396e797671fc15eddf0390.jpg?s=512&d=https%3A%2F%2Fa.slack-edge.com%2Fdf10d%2Fimg%2Favatars%2Fava_0015-512.png", "custom_css": null}, {"id": 21879, "slack_id": "U09AE6G4T51", "display_name": "Tri\u1ec7u Ng\u1ecdc T\u00e0i", "bio": null, "projects_count": 0, "devlogs_count": 0, "votes_count": 0, "ships_count": 0, "projects": [], "coding_time_seconds": 0, "coding_time_seconds_today": 0, "balance": "You need to have a pocket watcher badge to view this.", "badges": [], "created_at": "2025-08-18T03:51:09.910-04:00", "updated_at": "2025-08-18T09:58:15.105-04:00", "avatar": "https://avatars.slack-edge.com/2025-08-18/9379974558865_f17de8d508b4c052e9fe_original.jpg", "custom_css": null}, {"id": 21880, "slack_id": "U09B68RMFQ9", "display_name": "Japhet", "bio": null, "projects_count": 0, "devlogs_count": 0, "votes_count": 0, "ships_count": 0, "projects": [], "coding_time_seconds": 0, "coding_time_seconds_today": 0, "balance": "You need to have a pocket watcher badge to view this.", "badges": [], "created_at": "2025-08-18T05:01:36.837-04:00", "updated_at": "2025-08-18T09:58:15.205-04:00", "avatar": "https://avatars.slack-edge.com/2025-08-18/9380382681809_5cdd9f3fe69903a99f2d_original.png", "custom_css": null}, {"id": 21881, "slack_id": "U09AKV9PY0K", "display_name": "Jo\u00e3o Vitor", "bio": null, "projects_count": 0, "devlogs_count": 0, "votes_count": 0, "ships_count": 0, "projects": [], "coding_time_seconds": 0, "coding_time_seconds_today": 0, "balance": "You need to have a pocket watcher badge to view this.", "badges": [], "created_at": "2025-08-18T07:11:14.559-04:00", "updated_at": "2025-08-18T09:58:15.339-04:00", "avatar": "https://secure.gravatar.com/avatar/edf2fc936b7302234af5e5b8d46bdb63.jpg?s=512&d=https%3A%2F%2Fa.slack-edge.com%2Fdf10d%2Fimg%2Favatars%2Fava_0023-512.png", "custom_css": null}, {"id": 21882, "slack_id": "U0827EH4B1B", "display_name": "Battak", "bio": null, "projects_count": 0, "devlogs_count": 0, "votes_count": 0, "ships_count": 0, "projects": [], "coding_time_seconds": 157413, "coding_time_seconds_today": 1046, "balance": "You need to have a pocket watcher badge to view this.", "badges": [], "created_at": "2025-08-18T07:58:13.067-04:00", "updated_at": "2025-08-18T09:58:15.556-04:00", "avatar": "https://avatars.slack-edge.com/2024-11-25/8067068825047_e8d25f3b44d5252c3c0e_original.jpg", "custom_css": null}, {"id": 21883, "slack_id": "U09AW8Z5LKY", "display_name": "Utsav", "bio": null, "projects_count": 0, "devlogs_count": 0, "votes_count": 0, "ships_count": 0, "projects": [], "coding_time_seconds": 0, "coding_time_seconds_today": 0, "balance": "You need to have a pocket watcher badge to view this.", "badges": [], "created_at": "2025-08-18T08:07:27.525-04:00", "updated_at": "2025-08-18T09:58:15.660-04:00", "avatar": "https://secure.gravatar.com/avatar/f32815a8689971383d9716308b279593.jpg?s=512&d=https%3A%2F%2Fa.slack-edge.com%2Fdf10d%2Fimg%2Favatars%2Fava_0004-512.png", "custom_css": null}, {"id": 21884, "slack_id": "U09BMC1HA7J", "display_name": "Piper", "bio": null, "projects_count": 0, "devlogs_count": 0, "votes_count": 0, "ships_count": 0, "projects": [], "coding_time_seconds": 0, "coding_time_seconds_today": 0, "balance": "You need to have a pocket watcher badge to view this.", "badges": [], "created_at": "2025-08-18T08:18:55.288-04:00", "updated_at": "2025-08-26T09:04:01.458-04:00", "avatar": "https://avatars.slack-edge.com/2025-08-18/9366779826549_148e86348fcb8bddd575_original.jpg", "custom_css": null}, {"id": 21885, "slack_id": "U09ANNW0HB5", "display_name": "Felix Pelzer", "bio": null, "projects_count": 1, "devlogs_count": 3, "votes_count": 0, "ships_count": 1, "projects": [{"id": 11705, "title": "Neon Highway Racer", "devlogs_count": 3, "created_at": "2025-08-18T15:42:37.669-04:00"}], "coding_time_seconds": 96871, "coding_time_seconds_today": 0, "balance": "You need to have a pocket watcher badge to view this.", "badges": [{"name": "Maiden Voyage", "text": "you shipped your first project! the journey begins...", "icon": "\ud83d\udea2"}], "created_at": "2025-08-18T08:23:43.165-04:00", "updated_at": "2025-09-21T09:09:13.695-04:00", "avatar": "https://secure.gravatar.com/avatar/fa0460ed03ddd6527c197eccb475a667.jpg?s=512&d=https%3A%2F%2Fa.slack-edge.com%2Fdf10d%2Fimg%2Favatars%2Fava_0018-512.png", "custom_css": null}], "pagination": {"page": 1090, "pages": 1192, "count": 23828, "items": 20}}