{"users": [{"id": 21886, "slack_id": "U099DGDG6TH", "display_name": "bumblebee", "bio": null, "projects_count": 0, "devlogs_count": 0, "votes_count": 0, "ships_count": 0, "projects": [], "coding_time_seconds": 0, "coding_time_seconds_today": 0, "balance": "You need to have a pocket watcher badge to view this.", "badges": [], "created_at": "2025-08-18T08:26:49.355-04:00", "updated_at": "2025-08-18T09:58:16.359-04:00", "avatar": "https://secure.gravatar.com/avatar/c19144c959de4dbf27567a017ed8de83.jpg?s=512&d=https%3A%2F%2Fa.slack-edge.com%2Fdf10d%2Fimg%2Favatars%2Fava_0000-512.png", "custom_css": null}, {"id": 21887, "slack_id": "U09BMDCJNQ0", "display_name": "DerArwena", "bio": null, "projects_count": 1, "devlogs_count": 0, "votes_count": 0, "ships_count": 0, "projects": [{"id": 11666, "title": "Trixoa.eu", "devlogs_count": 0, "created_at": "2025-08-18T08:40:55.136-04:00"}], "coding_time_seconds": 4227, "coding_time_seconds_today": 0, "balance": "You need to have a pocket watcher badge to view this.", "badges": [], "created_at": "2025-08-18T08:32:27.089-04:00", "updated_at": "2025-08-18T09:58:16.545-04:00", "avatar": "https://secure.gravatar.com/avatar/e567398e6d34adde9190711b9844d070.jpg?s=512&d=https%3A%2F%2Fa.slack-edge.com%2Fdf10d%2Fimg%2Favatars%2Fava_0019-512.png", "custom_css": null}, {"id": 21888, "slack_id": "U09AUMJSZ0A", "display_name": "Bob R", "bio": null, "projects_count": 0, "devlogs_count": 0, "votes_count": 0, "ships_count": 0, "projects": [], "coding_time_seconds": 0, "coding_time_seconds_today": 0, "balance": "You need to have a pocket watcher badge to view this.", "badges": [], "created_at": "2025-08-18T08:34:21.093-04:00", "updated_at": "2025-08-18T09:58:16.659-04:00", "avatar": "https://secure.gravatar.com/avatar/cecebdb87014bffb237d5d9cf6637675.jpg?s=512&d=https%3A%2F%2Fa.slack-edge.com%2Fdf10d%2Fimg%2Favatars%2Fava_0009-512.png", "custom_css": null}, {"id": 21889, "slack_id": "U09AGJ5RTRD", "display_name": "Nishit", "bio": null, "projects_count": 0, "devlogs_count": 0, "votes_count": 0, "ships_count": 0, "projects": [], "coding_time_seconds": 0, "coding_time_seconds_today": 0, "balance": "You need to have a pocket watcher badge to view this.", "badges": [], "created_at": "2025-08-18T08:35:20.770-04:00", "updated_at": "2025-08-18T09:58:16.799-04:00", "avatar": "https://secure.gravatar.com/avatar/a963d51be17eae5fd1e40da66e24069e.jpg?s=512&d=https%3A%2F%2Fa.slack-edge.com%2Fdf10d%2Fimg%2Favatars%2Fava_0012-512.png", "custom_css": null}, {"id": 21890, "slack_id": "U09ASV00UP7", "display_name": "Eliora", "bio": null, "projects_count": 0, "devlogs_count": 0, "votes_count": 0, "ships_count": 0, "projects": [], "coding_time_seconds": 0, "coding_time_seconds_today": 0, "balance": "You need to have a pocket watcher badge to view this.", "badges": [], "created_at": "2025-08-18T09:02:27.304-04:00", "updated_at": "2025-08-18T09:58:16.950-04:00", "avatar": "https://secure.gravatar.com/avatar/46343a812150e62f1c48223dbe9bdf5b.jpg?s=512&d=https%3A%2F%2Fa.slack-edge.com%2Fdf10d%2Fimg%2Favatars%2Fava_0007-512.png", "custom_css": null}, {"id": 21891, "slack_id": "U09AT3YAKQV", "display_name": "Tanishq", "bio": null, "projects_count": 0, "devlogs_count": 0, "votes_count": 0, "ships_count": 0, "projects": [], "coding_time_seconds": 0, "coding_time_seconds_today": 0, "balance": "You need to have a pocket watcher badge to view this.", "badges": [], "created_at": "2025-08-18T09:29:34.868-04:00", "updated_at": "2025-08-18T09:58:17.074-04:00", "avatar": "https://secure.gravatar.com/avatar/bf28194e792a858c35f17bb9d4b5c59b.jpg?s=512&d=https%3A%2F%2Fa.slack-edge.com%2Fdf10d%2Fimg%2Favatars%2Fava_0016-512.png", "custom_css": null}, {"id": 21892, "slack_id": "U09AV4ST0CA", "display_name": "Edna", "bio": null, "projects_count": 0, "devlogs_count": 0, "votes_count": 0, "ships_count": 0, "projects": [], "coding_time_seconds": 0, "coding_time_seconds_today": 0, "balance": "You need to have a pocket watcher badge to view this.", "badges": [], "created_at": "2025-08-18T09:53:02.784-04:00", "updated_at": "2025-08-18T15:58:08.363-04:00", "avatar": "https://secure.gravatar.com/avatar/f12072d55ea3dc5a6019627cea1bfed2.jpg?s=512&d=https%3A%2F%2Fa.slack-edge.com%2Fdf10d%2Fimg%2Favatars%2Fava_0013-512.png", "custom_css": null}, {"id": 21893, "slack_id": "U09AH3W8QVD", "display_name": "random", "bio": null, "projects_count": 0, "devlogs_count": 0, "votes_count": 0, "ships_count": 0, "projects": [], "coding_time_seconds": 53875, "coding_time_seconds_today": 0, "balance": "You need to have a pocket watcher badge to view this.", "badges": [], "created_at": "2025-08-18T10:06:03.551-04:00", "updated_at": "2025-08-24T06:26:56.060-04:00", "avatar": "https://secure.gravatar.com/avatar/ee6f1fa9b7a723de91e667a5b6ec7ab8.jpg?s=512&d=https%3A%2F%2Fa.slack-edge.com%2Fdf10d%2Fimg%2Favatars%2Fava_0026-512.png", "custom_css": null}, {"id": 21894, "slack_id": "U09BN36UFEU", "display_name": "Luqman Kalembe", "bio": null, "projects_count": 0, "devlogs_count": 0, "votes_count": 0, "ships_count": 0, "projects": [], "coding_time_seconds": 0, "coding_time_seconds_today": 0, "balance": "You need to have a pocket watcher badge to view this.", "badges": [], "created_at": "2025-08-18T10:16:33.978-04:00", "updated_at": "2025-08-18T15:58:09.157-04:00", "avatar": "https://secure.gravatar.com/avatar/378b5e9c9ef6fdff885bc25f77d8e707.jpg?s=512&d=https%3A%2F%2Fa.slack-edge.com%2Fdf10d%2Fimg%2Favatars%2Fava_0013-512.png", "custom_css": null}, {"id": 21895, "slack_id": "U09AZ6AT1NY", "display_name": "Yonatan Abiy", "bio": null, "projects_count": 0, "devlogs_count": 0, "votes_count": 0, "ships_count": 0, "projects": [], "coding_time_seconds": 0, "coding_time_seconds_today": 0, "balance": "You need to have a pocket watcher badge to view this.", "badges": [], "created_at": "2025-08-18T10:47:37.258-04:00", "updated_at": "2025-08-18T15:58:09.564-04:00", "avatar": "https://avatars.slack-edge.com/2025-08-18/9367659719557_7cb3b1851d881b5bccfc_original.png", "custom_css": null}, {"id": 21896, "slack_id": "U09AZDYH5FE", "display_name": "Leo Seidel", "bio": null, "projects_count": 0, "devlogs_count": 0, "votes_count": 0, "ships_count": 0, "projects": [], "coding_time_seconds": 0, "coding_time_seconds_today": 0, "balance": "You need to have a pocket watcher badge to view this.", "badges": [], "created_at": "2025-08-18T11:24:03.479-04:00", "updated_at": "2025-08-18T15:58:13.800-04:00", "avatar": "https://secure.gravatar.com/avatar/bbfd1a02213cf194832b6cf6fea683e7.jpg?s=512&d=https%3A%2F%2Fa.slack-edge.com%2Fdf10d%2Fimg%2Favatars%2Fava_0000-512.png", "custom_css": null}, {"id": 21897, "slack_id": "U09ATULQHNZ", "display_name": "Maksym", "bio": null, "projects_count": 0, "devlogs_count": 0, "votes_count": 0, "ships_count": 0, "projects": [], "coding_time_seconds": 0, "coding_time_seconds_today": 0, "balance": "You need to have a pocket watcher badge to view this.", "badges": [], "created_at": "2025-08-18T11:38:57.312-04:00", "updated_at": "2025-08-18T15:58:13.913-04:00", "avatar": "https://secure.gravatar.com/avatar/20a86e9cf5a240a3ec4fd28c9cbfdba6.jpg?s=512&d=https%3A%2F%2Fa.slack-edge.com%2Fdf10d%2Fimg%2Favatars%2Fava_0021-512.png", "custom_css": null}, {"id": 21898, "slack_id": "U09AU5DALVB", "display_name": "Lucas Reilly", "bio": "", "projects_count": 2, "devlogs_count": 22, "votes_count": 30, "ships_count": 1, "projects": [{"id": 12318, "title": "Mazes", "devlogs_count": 15, "created_at": "2025-08-25T16:00:42.575-04:00"}, {"id": 11789, "title": "Dungeons", "devlogs_count": 7, "created_at": "2025-08-19T14:00:40.410-04:00"}], "coding_time_seconds": 63351, "coding_time_seconds_today": 0, "balance": "You need to have a pocket watcher badge to view this.", "badges": [], "created_at": "2025-08-18T12:10:26.441-04:00", "updated_at": "2025-08-20T14:34:24.719-04:00", "avatar": "https://avatars.slack-edge.com/2025-08-18/9370103402178_a04d0393e6002c9c61a6_original.png", "custom_css": null}, {"id": 21899, "slack_id": "U09AU8RRA4V", "display_name": "Viktoria Molodtsova", "bio": null, "projects_count": 3, "devlogs_count": 4, "votes_count": 26, "ships_count": 2, "projects": [{"id": 13464, "title": "Snake", "devlogs_count": 1, "created_at": "2025-09-17T02:48:55.470-04:00"}, {"id": 11739, "title": "Personal Library", "devlogs_count": 2, "created_at": "2025-08-19T01:51:13.083-04:00"}, {"id": 13398, "title": "Hangman", "devlogs_count": 1, "created_at": "2025-09-15T09:54:58.957-04:00"}], "coding_time_seconds": 15923, "coding_time_seconds_today": 0, "balance": "You need to have a pocket watcher badge to view this.", "badges": [], "created_at": "2025-08-18T12:36:29.448-04:00", "updated_at": "2025-09-16T18:15:13.588-04:00", "avatar": "https://avatars.slack-edge.com/2025-09-16/9533081206516_ce8ed1b81019cedb9514_original.png", "custom_css": null}, {"id": 21900, "slack_id": "U09ATR9CNSH", "display_name": "yay", "bio": null, "projects_count": 0, "devlogs_count": 0, "votes_count": 0, "ships_count": 0, "projects": [], "coding_time_seconds": 0, "coding_time_seconds_today": 0, "balance": "You need to have a pocket watcher badge to view this.", "badges": [], "created_at": "2025-08-18T13:15:03.501-04:00", "updated_at": "2025-08-18T15:58:14.235-04:00", "avatar": "https://secure.gravatar.com/avatar/0ab5afd449383433e2a6fde9c11c60ea.jpg?s=512&d=https%3A%2F%2Fa.slack-edge.com%2Fdf10d%2Fimg%2Favatars%2Fava_0008-512.png", "custom_css": null}, {"id": 21901, "slack_id": "U09BPBPU6V6", "display_name": "Xelly_Yelly", "bio": null, "projects_count": 0, "devlogs_count": 0, "votes_count": 0, "ships_count": 0, "projects": [], "coding_time_seconds": 0, "coding_time_seconds_today": 0, "balance": "You need to have a pocket watcher badge to view this.", "badges": [], "created_at": "2025-08-18T13:26:39.710-04:00", "updated_at": "2025-08-19T13:56:22.840-04:00", "avatar": "https://secure.gravatar.com/avatar/97b29cf9a84b096c19234e1dd2e69195.jpg?s=512&d=https%3A%2F%2Fa.slack-edge.com%2Fdf10d%2Fimg%2Favatars%2Fava_0006-512.png", "custom_css": null}, {"id": 21902, "slack_id": "U09AJASACUX", "display_name": "Aditya Sharma", "bio": null, "projects_count": 0, "devlogs_count": 3, "votes_count": 22, "ships_count": 0, "projects": [], "coding_time_seconds": 117683, "coding_time_seconds_today": 2200, "balance": "You need to have a pocket watcher badge to view this.", "badges": [], "created_at": "2025-08-18T13:30:31.910-04:00", "updated_at": "2025-08-25T14:30:08.731-04:00", "avatar": "https://avatars.slack-edge.com/2025-08-18/9368683651013_9a2802b3d3b7fb4f015c_original.png", "custom_css": null}, {"id": 21903, "slack_id": "U09AUL4Q8QM", "display_name": "Stefan Raducan", "bio": null, "projects_count": 0, "devlogs_count": 0, "votes_count": 0, "ships_count": 0, "projects": [], "coding_time_seconds": 0, "coding_time_seconds_today": 0, "balance": "You need to have a pocket watcher badge to view this.", "badges": [], "created_at": "2025-08-18T13:34:58.352-04:00", "updated_at": "2025-08-18T15:58:14.788-04:00", "avatar": "https://secure.gravatar.com/avatar/2da6e2202407d77e0c599c2cd95b3257.jpg?s=512&d=https%3A%2F%2Fa.slack-edge.com%2Fdf10d%2Fimg%2Favatars%2Fava_0014-512.png", "custom_css": null}, {"id": 21904, "slack_id": "U09B07BC5N0", "display_name": "Jesusemilore Ojo", "bio": null, "projects_count": 0, "devlogs_count": 0, "votes_count": 0, "ships_count": 0, "projects": [], "coding_time_seconds": 0, "coding_time_seconds_today": 0, "balance": "You need to have a pocket watcher badge to view this.", "badges": [], "created_at": "2025-08-18T13:35:15.124-04:00", "updated_at": "2025-08-18T15:58:15.103-04:00", "avatar": "https://avatars.slack-edge.com/2025-08-18/9374269689012_12e20ac7c3b3d654f753_original.png", "custom_css": null}, {"id": 21905, "slack_id": "U09AYCV5G3Y", "display_name": "Alyn", "bio": null, "projects_count": 0, "devlogs_count": 0, "votes_count": 0, "ships_count": 0, "projects": [], "coding_time_seconds": 0, "coding_time_seconds_today": 0, "balance": "You need to have a pocket watcher badge to view this.", "badges": [], "created_at": "2025-08-18T13:52:55.069-04:00", "updated_at": "2025-09-09T17:30:02.438-04:00", "avatar": "https://secure.gravatar.com/avatar/e20db9b68e17152cec162e368e2859a9.jpg?s=512&d=https%3A%2F%2Fa.slack-edge.com%2Fdf10d%2Fimg%2Favatars%2Fava_0023-512.png", "custom_css": null}], "pagination": {"page": 1091, "pages": 1192, "count": 23828, "items": 20}}