{"users": [{"id": 21906, "slack_id": "U08SCRA9T8Q", "display_name": "ok", "bio": null, "projects_count": 0, "devlogs_count": 0, "votes_count": 0, "ships_count": 0, "projects": [], "coding_time_seconds": 4516, "coding_time_seconds_today": 0, "balance": "You need to have a pocket watcher badge to view this.", "badges": [], "created_at": "2025-08-18T14:01:49.865-04:00", "updated_at": "2025-08-18T14:07:59.149-04:00", "avatar": "https://secure.gravatar.com/avatar/a415c8ebc4b72099b66e751e0ca14a85.jpg?s=512&d=https%3A%2F%2Fa.slack-edge.com%2Fdf10d%2Fimg%2Favatars%2Fava_0008-512.png", "custom_css": null}, {"id": 21907, "slack_id": "U09AYEPMQ8N", "display_name": "Deniz Guliyeva", "bio": null, "projects_count": 0, "devlogs_count": 0, "votes_count": 0, "ships_count": 0, "projects": [], "coding_time_seconds": 0, "coding_time_seconds_today": 0, "balance": "You need to have a pocket watcher badge to view this.", "badges": [], "created_at": "2025-08-18T14:04:28.816-04:00", "updated_at": "2025-08-18T15:58:15.894-04:00", "avatar": "https://secure.gravatar.com/avatar/f097183de90f8bff6b167cf6b9b31923.jpg?s=512&d=https%3A%2F%2Fa.slack-edge.com%2Fdf10d%2Fimg%2Favatars%2Fava_0006-512.png", "custom_css": null}, {"id": 21908, "slack_id": "U09B0D9DWVA", "display_name": "TheMasked_Panda Real", "bio": null, "projects_count": 0, "devlogs_count": 0, "votes_count": 0, "ships_count": 0, "projects": [], "coding_time_seconds": 24646, "coding_time_seconds_today": 0, "balance": "You need to have a pocket watcher badge to view this.", "badges": [], "created_at": "2025-08-18T14:11:08.934-04:00", "updated_at": "2025-08-19T01:28:59.386-04:00", "avatar": "https://avatars.slack-edge.com/2025-08-18/9397694517376_b9720113c41f1bb152fd_original.png", "custom_css": null}, {"id": 21909, "slack_id": "U09AQQDTKJP", "display_name": "Stefan", "bio": null, "projects_count": 0, "devlogs_count": 0, "votes_count": 0, "ships_count": 0, "projects": [], "coding_time_seconds": 0, "coding_time_seconds_today": 0, "balance": "You need to have a pocket watcher badge to view this.", "badges": [], "created_at": "2025-08-18T14:16:12.963-04:00", "updated_at": "2025-08-31T14:08:53.810-04:00", "avatar": "https://avatars.slack-edge.com/2025-08-21/9380768244083_cdc47aa378a6ae628119_original.png", "custom_css": null}, {"id": 21910, "slack_id": "U09AYKYP094", "display_name": "Selin Aytekin", "bio": null, "projects_count": 0, "devlogs_count": 0, "votes_count": 0, "ships_count": 0, "projects": [], "coding_time_seconds": 0, "coding_time_seconds_today": 0, "balance": "You need to have a pocket watcher badge to view this.", "badges": [], "created_at": "2025-08-18T14:35:08.228-04:00", "updated_at": "2025-08-18T15:58:16.527-04:00", "avatar": "https://avatars.slack-edge.com/2025-08-18/9369042942005_844cde627bb45d3171ce_original.png", "custom_css": null}, {"id": 21911, "slack_id": "U09AR2TNRNX", "display_name": "B M", "bio": null, "projects_count": 0, "devlogs_count": 0, "votes_count": 0, "ships_count": 0, "projects": [], "coding_time_seconds": 0, "coding_time_seconds_today": 0, "balance": "You need to have a pocket watcher badge to view this.", "badges": [], "created_at": "2025-08-18T15:05:44.904-04:00", "updated_at": "2025-08-18T15:58:17.153-04:00", "avatar": "https://avatars.slack-edge.com/2025-08-18/9383578824065_48a6c8f471a24bcc909a_original.webp", "custom_css": null}, {"id": 21912, "slack_id": "U09B9MLHZED", "display_name": "Guus Bevers", "bio": null, "projects_count": 0, "devlogs_count": 0, "votes_count": 0, "ships_count": 0, "projects": [], "coding_time_seconds": 0, "coding_time_seconds_today": 0, "balance": "You need to have a pocket watcher badge to view this.", "badges": [], "created_at": "2025-08-18T15:40:11.187-04:00", "updated_at": "2025-08-18T15:58:17.310-04:00", "avatar": "https://avatars.slack-edge.com/2025-08-18/9369385986725_522f5232fcc5d0c3b38c_original.png", "custom_css": null}, {"id": 21913, "slack_id": "U09B9N4HXU1", "display_name": "Aymanmoh", "bio": null, "projects_count": 0, "devlogs_count": 0, "votes_count": 0, "ships_count": 0, "projects": [], "coding_time_seconds": 0, "coding_time_seconds_today": 0, "balance": "You need to have a pocket watcher badge to view this.", "badges": [], "created_at": "2025-08-18T15:43:38.864-04:00", "updated_at": "2025-08-18T15:58:17.979-04:00", "avatar": "https://secure.gravatar.com/avatar/37dc3219cb48f37fbb9718f969c6f5a2.jpg?s=512&d=https%3A%2F%2Fa.slack-edge.com%2Fdf10d%2Fimg%2Favatars%2Fava_0023-512.png", "custom_css": null}, {"id": 21914, "slack_id": "U09AYB57DJS", "display_name": "Nicolas Vazquez", "bio": null, "projects_count": 0, "devlogs_count": 0, "votes_count": 0, "ships_count": 0, "projects": [], "coding_time_seconds": 0, "coding_time_seconds_today": 0, "balance": "You need to have a pocket watcher badge to view this.", "badges": [], "created_at": "2025-08-18T15:53:59.307-04:00", "updated_at": "2025-08-18T21:58:09.841-04:00", "avatar": "https://secure.gravatar.com/avatar/802f70f227e5f1c00ae4b176fa253efa.jpg?s=512&d=https%3A%2F%2Fa.slack-edge.com%2Fdf10d%2Fimg%2Favatars%2Fava_0025-512.png", "custom_css": null}, {"id": 21915, "slack_id": "U09AVDFJ8KF", "display_name": "Shubh Saraya", "bio": null, "projects_count": 0, "devlogs_count": 0, "votes_count": 0, "ships_count": 0, "projects": [], "coding_time_seconds": 0, "coding_time_seconds_today": 0, "balance": "You need to have a pocket watcher badge to view this.", "badges": [], "created_at": "2025-08-18T15:55:08.390-04:00", "updated_at": "2025-08-18T21:58:09.963-04:00", "avatar": "https://avatars.slack-edge.com/2025-08-19/9373106016310_db013743b25fb5bfec57_original.jpg", "custom_css": null}, {"id": 21916, "slack_id": "U09B9Q77NLR", "display_name": "Ehan", "bio": null, "projects_count": 0, "devlogs_count": 0, "votes_count": 0, "ships_count": 0, "projects": [], "coding_time_seconds": 0, "coding_time_seconds_today": 0, "balance": "You need to have a pocket watcher badge to view this.", "badges": [], "created_at": "2025-08-18T15:55:41.987-04:00", "updated_at": "2025-08-18T21:58:10.200-04:00", "avatar": "https://secure.gravatar.com/avatar/c43f5a21922274fa105044b63046a1c9.jpg?s=512&d=https%3A%2F%2Fa.slack-edge.com%2Fdf10d%2Fimg%2Favatars%2Fava_0020-512.png", "custom_css": null}, {"id": 21917, "slack_id": "U09AVG0U69K", "display_name": "Sude Nur", "bio": null, "projects_count": 0, "devlogs_count": 0, "votes_count": 0, "ships_count": 0, "projects": [], "coding_time_seconds": 0, "coding_time_seconds_today": 0, "balance": "You need to have a pocket watcher badge to view this.", "badges": [], "created_at": "2025-08-18T16:17:31.330-04:00", "updated_at": "2025-08-18T21:58:10.408-04:00", "avatar": "https://secure.gravatar.com/avatar/7fc05e3d7f0b22608a0f4699e0902054.jpg?s=512&d=https%3A%2F%2Fa.slack-edge.com%2Fdf10d%2Fimg%2Favatars%2Fava_0014-512.png", "custom_css": null}, {"id": 21918, "slack_id": "U09B9TZ5LGH", "display_name": "dogvloppeur", "bio": null, "projects_count": 0, "devlogs_count": 0, "votes_count": 0, "ships_count": 0, "projects": [], "coding_time_seconds": 0, "coding_time_seconds_today": 0, "balance": "You need to have a pocket watcher badge to view this.", "badges": [], "created_at": "2025-08-18T16:19:05.791-04:00", "updated_at": "2025-08-18T21:58:10.513-04:00", "avatar": "https://secure.gravatar.com/avatar/4078574612fe1c12c34b003ab80f7b24.jpg?s=512&d=https%3A%2F%2Fa.slack-edge.com%2Fdf10d%2Fimg%2Favatars%2Fava_0022-512.png", "custom_css": null}, {"id": 21919, "slack_id": "U0798BX4B53", "display_name": "johnwillab", "bio": null, "projects_count": 1, "devlogs_count": 0, "votes_count": 2, "ships_count": 0, "projects": [{"id": 11715, "title": "Platformer", "devlogs_count": 0, "created_at": "2025-08-18T16:56:44.333-04:00"}], "coding_time_seconds": 2106, "coding_time_seconds_today": 0, "balance": "You need to have a pocket watcher badge to view this.", "badges": [], "created_at": "2025-08-18T16:31:18.393-04:00", "updated_at": "2025-08-18T17:22:28.546-04:00", "avatar": "https://secure.gravatar.com/avatar/e054892545112f4ac3508c7b7534cd50.jpg?s=512&d=https%3A%2F%2Fa.slack-edge.com%2Fdf10d%2Fimg%2Favatars%2Fava_0023-512.png", "custom_css": null}, {"id": 21920, "slack_id": "U09AK9K9G07", "display_name": "Alysa Zhang", "bio": null, "projects_count": 0, "devlogs_count": 0, "votes_count": 0, "ships_count": 0, "projects": [], "coding_time_seconds": 0, "coding_time_seconds_today": 0, "balance": "You need to have a pocket watcher badge to view this.", "badges": [], "created_at": "2025-08-18T16:41:09.374-04:00", "updated_at": "2025-08-19T08:30:05.780-04:00", "avatar": "https://secure.gravatar.com/avatar/d25251dd7384af4c2ad379a59107ae00.jpg?s=512&d=https%3A%2F%2Fa.slack-edge.com%2Fdf10d%2Fimg%2Favatars%2Fava_0005-512.png", "custom_css": null}, {"id": 21921, "slack_id": "U09B173H2UU", "display_name": "Erica", "bio": null, "projects_count": 0, "devlogs_count": 0, "votes_count": 0, "ships_count": 0, "projects": [], "coding_time_seconds": 0, "coding_time_seconds_today": 0, "balance": "You need to have a pocket watcher badge to view this.", "badges": [], "created_at": "2025-08-18T16:44:43.246-04:00", "updated_at": "2025-08-18T21:58:10.792-04:00", "avatar": "https://secure.gravatar.com/avatar/bd8e2174d1bc65c8d7747c79c5dd091a.jpg?s=512&d=https%3A%2F%2Fa.slack-edge.com%2Fdf10d%2Fimg%2Favatars%2Fava_0021-512.png", "custom_css": null}, {"id": 21922, "slack_id": "U079SDU863E", "display_name": "Vicky", "bio": null, "projects_count": 0, "devlogs_count": 0, "votes_count": 0, "ships_count": 0, "projects": [], "coding_time_seconds": 0, "coding_time_seconds_today": 0, "balance": "You need to have a pocket watcher badge to view this.", "badges": [], "created_at": "2025-08-18T17:27:51.645-04:00", "updated_at": "2025-08-19T01:30:15.226-04:00", "avatar": "https://secure.gravatar.com/avatar/88e8aa956270083650021551c98e13f7.jpg?s=512&d=https%3A%2F%2Fa.slack-edge.com%2Fdf10d%2Fimg%2Favatars%2Fava_0016-512.png", "custom_css": null}, {"id": 21923, "slack_id": "U081ZBPHBML", "display_name": "Adham Mohamed", "bio": null, "projects_count": 0, "devlogs_count": 0, "votes_count": 0, "ships_count": 0, "projects": [], "coding_time_seconds": 0, "coding_time_seconds_today": 0, "balance": "You need to have a pocket watcher badge to view this.", "badges": [], "created_at": "2025-08-18T18:09:02.378-04:00", "updated_at": "2025-08-18T21:58:11.203-04:00", "avatar": "https://avatars.slack-edge.com/2025-08-18/9384444758737_da89965abb793e0f0e05_original.jpg", "custom_css": null}, {"id": 21924, "slack_id": "U09AW3DNDJR", "display_name": "Shreya", "bio": null, "projects_count": 0, "devlogs_count": 0, "votes_count": 0, "ships_count": 0, "projects": [], "coding_time_seconds": 334, "coding_time_seconds_today": 0, "balance": "You need to have a pocket watcher badge to view this.", "badges": [], "created_at": "2025-08-18T18:27:20.116-04:00", "updated_at": "2025-09-09T14:39:51.522-04:00", "avatar": "https://secure.gravatar.com/avatar/51ed6d3ecabbc6ce5163e980e0476dc7.jpg?s=512&d=https%3A%2F%2Fa.slack-edge.com%2Fdf10d%2Fimg%2Favatars%2Fava_0021-512.png", "custom_css": null}, {"id": 21925, "slack_id": "U09AZSYPRN2", "display_name": "Riri", "bio": "", "projects_count": 0, "devlogs_count": 0, "votes_count": 0, "ships_count": 0, "projects": [], "coding_time_seconds": 123487, "coding_time_seconds_today": 0, "balance": "You need to have a pocket watcher badge to view this.", "badges": [], "created_at": "2025-08-18T19:28:15.569-04:00", "updated_at": "2025-08-25T04:02:31.883-04:00", "avatar": "https://avatars.slack-edge.com/2025-08-25/9405013616646_1940609706c8722786e2_original.jpg", "custom_css": null}], "pagination": {"page": 1092, "pages": 1192, "count": 23828, "items": 20}}