{"users": [{"id": 21926, "slack_id": "U09AS7EPL83", "display_name": "ryzmae", "bio": null, "projects_count": 0, "devlogs_count": 0, "votes_count": 0, "ships_count": 0, "projects": [], "coding_time_seconds": 6209, "coding_time_seconds_today": 0, "balance": "You need to have a pocket watcher badge to view this.", "badges": [], "created_at": "2025-08-18T19:50:08.740-04:00", "updated_at": "2025-08-18T21:58:11.525-04:00", "avatar": "https://secure.gravatar.com/avatar/f237433dd4d0e81793520630338608a7.jpg?s=512&d=https%3A%2F%2Fa.slack-edge.com%2Fdf10d%2Fimg%2Favatars%2Fava_0024-512.png", "custom_css": null}, {"id": 21927, "slack_id": "U09AL2LH0H5", "display_name": "Bear", "bio": null, "projects_count": 0, "devlogs_count": 0, "votes_count": 0, "ships_count": 0, "projects": [], "coding_time_seconds": 0, "coding_time_seconds_today": 0, "balance": "You need to have a pocket watcher badge to view this.", "badges": [], "created_at": "2025-08-18T20:20:28.489-04:00", "updated_at": "2025-09-03T03:58:27.944-04:00", "avatar": "https://avatars.slack-edge.com/2025-09-02/9435997850599_531c64f36cc1cd6be11d_original.png", "custom_css": null}, {"id": 21928, "slack_id": "U091NSUQYR0", "display_name": "0xShadow", "bio": null, "projects_count": 0, "devlogs_count": 0, "votes_count": 0, "ships_count": 0, "projects": [], "coding_time_seconds": 0, "coding_time_seconds_today": 0, "balance": "You need to have a pocket watcher badge to view this.", "badges": [], "created_at": "2025-08-18T20:23:19.251-04:00", "updated_at": "2025-08-18T21:58:11.750-04:00", "avatar": "https://secure.gravatar.com/avatar/e43cd409e84da8e020f4d15340478500.jpg?s=512&d=https%3A%2F%2Fa.slack-edge.com%2Fdf10d%2Fimg%2Favatars%2Fava_0024-512.png", "custom_css": null}, {"id": 21929, "slack_id": "U09B03W3YT0", "display_name": "AnyaTheAngel", "bio": null, "projects_count": 0, "devlogs_count": 0, "votes_count": 1, "ships_count": 0, "projects": [], "coding_time_seconds": 78, "coding_time_seconds_today": 0, "balance": "You need to have a pocket watcher badge to view this.", "badges": [], "created_at": "2025-08-18T20:33:39.231-04:00", "updated_at": "2025-08-20T04:00:10.617-04:00", "avatar": "https://avatars.slack-edge.com/2025-08-18/9384920949617_7738afe597231a2a6fe5_original.jpg", "custom_css": null}, {"id": 21930, "slack_id": "U09B03TV2J2", "display_name": "Tanish Maheswari", "bio": null, "projects_count": 0, "devlogs_count": 0, "votes_count": 0, "ships_count": 0, "projects": [], "coding_time_seconds": 5449, "coding_time_seconds_today": 0, "balance": "You need to have a pocket watcher badge to view this.", "badges": [], "created_at": "2025-08-18T20:34:10.246-04:00", "updated_at": "2025-08-31T00:20:51.915-04:00", "avatar": "https://avatars.slack-edge.com/2025-08-18/9399364981152_1119369d4493790b4fe8_original.png", "custom_css": null}, {"id": 21931, "slack_id": "U09AL4ZRT8F", "display_name": "Adi", "bio": null, "projects_count": 0, "devlogs_count": 0, "votes_count": 0, "ships_count": 0, "projects": [], "coding_time_seconds": 0, "coding_time_seconds_today": 0, "balance": "You need to have a pocket watcher badge to view this.", "badges": [], "created_at": "2025-08-18T20:46:34.270-04:00", "updated_at": "2025-08-18T21:58:12.063-04:00", "avatar": "https://secure.gravatar.com/avatar/227702fb7d0857d1564aea0a8974e7a7.jpg?s=512&d=https%3A%2F%2Fa.slack-edge.com%2Fdf10d%2Fimg%2Favatars%2Fava_0003-512.png", "custom_css": null}, {"id": 21932, "slack_id": "U09AL5TKG8P", "display_name": "Joyce", "bio": null, "projects_count": 0, "devlogs_count": 0, "votes_count": 0, "ships_count": 0, "projects": [], "coding_time_seconds": 0, "coding_time_seconds_today": 0, "balance": "You need to have a pocket watcher badge to view this.", "badges": [], "created_at": "2025-08-18T20:57:09.659-04:00", "updated_at": "2025-08-18T21:58:12.163-04:00", "avatar": "https://secure.gravatar.com/avatar/f4d86086df677491617c220b55f08d7b.jpg?s=512&d=https%3A%2F%2Fa.slack-edge.com%2Fdf10d%2Fimg%2Favatars%2Fava_0012-512.png", "custom_css": null}, {"id": 21933, "slack_id": "U09BAURH88Z", "display_name": "David", "bio": null, "projects_count": 0, "devlogs_count": 0, "votes_count": 0, "ships_count": 0, "projects": [], "coding_time_seconds": 0, "coding_time_seconds_today": 0, "balance": "You need to have a pocket watcher badge to view this.", "badges": [], "created_at": "2025-08-18T20:57:33.459-04:00", "updated_at": "2025-08-20T14:37:01.871-04:00", "avatar": "https://avatars.slack-edge.com/2025-08-18/9399499835168_4be4e430236a7f2cc1b3_original.png", "custom_css": null}, {"id": 21934, "slack_id": "U079DDX4K4L", "display_name": "Samrudh", "bio": null, "projects_count": 0, "devlogs_count": 0, "votes_count": 0, "ships_count": 0, "projects": [], "coding_time_seconds": 0, "coding_time_seconds_today": 0, "balance": "You need to have a pocket watcher badge to view this.", "badges": [], "created_at": "2025-08-18T21:12:10.695-04:00", "updated_at": "2025-08-18T21:58:12.454-04:00", "avatar": "https://secure.gravatar.com/avatar/fa9a9c3873868a31fe05b27c5adc45d6.jpg?s=512&d=https%3A%2F%2Fa.slack-edge.com%2Fdf10d%2Fimg%2Favatars%2Fava_0014-512.png", "custom_css": null}, {"id": 21935, "slack_id": "U09AL7KQD7Z", "display_name": "Liliana Barcenas", "bio": null, "projects_count": 0, "devlogs_count": 0, "votes_count": 0, "ships_count": 0, "projects": [], "coding_time_seconds": 0, "coding_time_seconds_today": 0, "balance": "You need to have a pocket watcher badge to view this.", "badges": [], "created_at": "2025-08-18T21:14:07.703-04:00", "updated_at": "2025-08-18T21:58:12.558-04:00", "avatar": "https://secure.gravatar.com/avatar/17356d92570c654039719fc0c2855b18.jpg?s=512&d=https%3A%2F%2Fa.slack-edge.com%2Fdf10d%2Fimg%2Favatars%2Fava_0020-512.png", "custom_css": null}, {"id": 21936, "slack_id": "U082WQ3SU3E", "display_name": "wahab_the_hacker", "bio": null, "projects_count": 0, "devlogs_count": 0, "votes_count": 0, "ships_count": 0, "projects": [], "coding_time_seconds": 0, "coding_time_seconds_today": 0, "balance": "You need to have a pocket watcher badge to view this.", "badges": [], "created_at": "2025-08-18T21:16:13.317-04:00", "updated_at": "2025-08-18T21:58:12.676-04:00", "avatar": "https://secure.gravatar.com/avatar/3a64ac811107ff8bbcabd7ac9efef993.jpg?s=512&d=https%3A%2F%2Fa.slack-edge.com%2Fdf10d%2Fimg%2Favatars%2Fava_0002-512.png", "custom_css": null}, {"id": 21937, "slack_id": "U09AWJXA9T7", "display_name": "Nikhil", "bio": null, "projects_count": 0, "devlogs_count": 0, "votes_count": 0, "ships_count": 0, "projects": [], "coding_time_seconds": 0, "coding_time_seconds_today": 0, "balance": "You need to have a pocket watcher badge to view this.", "badges": [], "created_at": "2025-08-18T21:16:35.518-04:00", "updated_at": "2025-08-18T21:58:12.810-04:00", "avatar": "https://secure.gravatar.com/avatar/c7ccb88fefbfb4cf3d874af927fa88b3.jpg?s=512&d=https%3A%2F%2Fa.slack-edge.com%2Fdf10d%2Fimg%2Favatars%2Fava_0005-512.png", "custom_css": null}, {"id": 21938, "slack_id": "U09B0880S9L", "display_name": "Shailika", "bio": null, "projects_count": 0, "devlogs_count": 0, "votes_count": 0, "ships_count": 0, "projects": [], "coding_time_seconds": 0, "coding_time_seconds_today": 0, "balance": "You need to have a pocket watcher badge to view this.", "badges": [], "created_at": "2025-08-18T21:20:05.024-04:00", "updated_at": "2025-08-18T21:58:12.909-04:00", "avatar": "https://secure.gravatar.com/avatar/e0899f5e706f546e2db31611a39c610c.jpg?s=512&d=https%3A%2F%2Fa.slack-edge.com%2Fdf10d%2Fimg%2Favatars%2Fava_0001-512.png", "custom_css": null}, {"id": 21939, "slack_id": "U08307E21FH", "display_name": "BoyBoxer", "bio": null, "projects_count": 0, "devlogs_count": 0, "votes_count": 0, "ships_count": 0, "projects": [], "coding_time_seconds": 0, "coding_time_seconds_today": 0, "balance": "You need to have a pocket watcher badge to view this.", "badges": [], "created_at": "2025-08-18T21:20:44.018-04:00", "updated_at": "2025-08-18T21:58:13.009-04:00", "avatar": "https://secure.gravatar.com/avatar/d39b0722caf1f07f0270e7f25a0e538d.jpg?s=512&d=https%3A%2F%2Fa.slack-edge.com%2Fdf10d%2Fimg%2Favatars%2Fava_0002-512.png", "custom_css": null}, {"id": 21940, "slack_id": "U09AY8838KC", "display_name": "San", "bio": null, "projects_count": 0, "devlogs_count": 0, "votes_count": 0, "ships_count": 0, "projects": [], "coding_time_seconds": 0, "coding_time_seconds_today": 0, "balance": "You need to have a pocket watcher badge to view this.", "badges": [], "created_at": "2025-08-18T21:25:02.059-04:00", "updated_at": "2025-08-18T21:58:13.106-04:00", "avatar": "https://secure.gravatar.com/avatar/ad0c4bc2390c88dae99fc173c5b2c3af.jpg?s=512&d=https%3A%2F%2Fa.slack-edge.com%2Fdf10d%2Fimg%2Favatars%2Fava_0012-512.png", "custom_css": null}, {"id": 21941, "slack_id": "U09BB20M77B", "display_name": "Angelika", "bio": null, "projects_count": 0, "devlogs_count": 0, "votes_count": 0, "ships_count": 0, "projects": [], "coding_time_seconds": 0, "coding_time_seconds_today": 0, "balance": "You need to have a pocket watcher badge to view this.", "badges": [], "created_at": "2025-08-18T21:26:23.102-04:00", "updated_at": "2025-08-18T21:58:13.231-04:00", "avatar": "https://secure.gravatar.com/avatar/1376a4758d0172d17cdc9cf12d3d38c8.jpg?s=512&d=https%3A%2F%2Fa.slack-edge.com%2Fdf10d%2Fimg%2Favatars%2Fava_0025-512.png", "custom_css": null}, {"id": 21942, "slack_id": "U09B09779GW", "display_name": "Abubkr", "bio": null, "projects_count": 0, "devlogs_count": 0, "votes_count": 0, "ships_count": 0, "projects": [], "coding_time_seconds": 0, "coding_time_seconds_today": 0, "balance": "You need to have a pocket watcher badge to view this.", "badges": [], "created_at": "2025-08-18T21:30:06.022-04:00", "updated_at": "2025-08-18T21:58:13.549-04:00", "avatar": "https://secure.gravatar.com/avatar/a4d2ec4c09d857f6f2e4aa3452a9e4f2.jpg?s=512&d=https%3A%2F%2Fa.slack-edge.com%2Fdf10d%2Fimg%2Favatars%2Fava_0011-512.png", "custom_css": null}, {"id": 21943, "slack_id": "U09BRF8FMPS", "display_name": "Molly", "bio": null, "projects_count": 0, "devlogs_count": 0, "votes_count": 0, "ships_count": 0, "projects": [], "coding_time_seconds": 1330, "coding_time_seconds_today": 0, "balance": "You need to have a pocket watcher badge to view this.", "badges": [], "created_at": "2025-08-18T21:34:51.557-04:00", "updated_at": "2025-08-22T15:58:23.541-04:00", "avatar": "https://avatars.slack-edge.com/2025-08-22/9395319035458_9ce7cbea981fd3d5abf7_original.jpg", "custom_css": null}, {"id": 21944, "slack_id": "U09B08TEVQE", "display_name": "BlazingBooyah", "bio": null, "projects_count": 0, "devlogs_count": 0, "votes_count": 0, "ships_count": 0, "projects": [], "coding_time_seconds": 0, "coding_time_seconds_today": 0, "balance": "You need to have a pocket watcher badge to view this.", "badges": [], "created_at": "2025-08-18T21:36:56.158-04:00", "updated_at": "2025-09-16T01:55:14.798-04:00", "avatar": "https://avatars.slack-edge.com/2025-09-16/9537058579329_517e0096addb6ca18a02_original.png", "custom_css": null}, {"id": 21945, "slack_id": "U09ASDP8F2P", "display_name": "Maique", "bio": null, "projects_count": 0, "devlogs_count": 0, "votes_count": 0, "ships_count": 0, "projects": [], "coding_time_seconds": 0, "coding_time_seconds_today": 0, "balance": "You need to have a pocket watcher badge to view this.", "badges": [], "created_at": "2025-08-18T21:37:10.340-04:00", "updated_at": "2025-08-18T21:58:14.022-04:00", "avatar": "https://avatars.slack-edge.com/2025-08-18/9374349518470_806e921fe040201a4c87_original.png", "custom_css": null}], "pagination": {"page": 1093, "pages": 1192, "count": 23828, "items": 20}}