{"users": [{"id": 21946, "slack_id": "U099YJGB8EA", "display_name": "Lekha", "bio": null, "projects_count": 0, "devlogs_count": 0, "votes_count": 0, "ships_count": 0, "projects": [], "coding_time_seconds": 0, "coding_time_seconds_today": 0, "balance": "You need to have a pocket watcher badge to view this.", "badges": [], "created_at": "2025-08-18T21:38:15.053-04:00", "updated_at": "2025-08-18T21:58:14.122-04:00", "avatar": "https://secure.gravatar.com/avatar/73f864dc351dcd7cc55307b9df548e33.jpg?s=512&d=https%3A%2F%2Fa.slack-edge.com%2Fdf10d%2Fimg%2Favatars%2Fava_0004-512.png", "custom_css": null}, {"id": 21947, "slack_id": "U09ASHM9RBM", "display_name": "Emmanuel Jimenez", "bio": null, "projects_count": 0, "devlogs_count": 0, "votes_count": 0, "ships_count": 0, "projects": [], "coding_time_seconds": 0, "coding_time_seconds_today": 0, "balance": "You need to have a pocket watcher badge to view this.", "badges": [], "created_at": "2025-08-18T21:38:33.394-04:00", "updated_at": "2025-08-18T21:58:14.284-04:00", "avatar": "https://avatars.slack-edge.com/2025-08-18/9366623807219_9c8a9464130b969cf769_original.png", "custom_css": null}, {"id": 21948, "slack_id": "U09BEV03YL8", "display_name": "Ivanna Guerra", "bio": null, "projects_count": 0, "devlogs_count": 0, "votes_count": 0, "ships_count": 0, "projects": [], "coding_time_seconds": 0, "coding_time_seconds_today": 0, "balance": "You need to have a pocket watcher badge to view this.", "badges": [], "created_at": "2025-08-18T21:39:02.007-04:00", "updated_at": "2025-08-18T21:58:14.407-04:00", "avatar": "https://secure.gravatar.com/avatar/26d94de4c6a5e62226024a6402e9c02a.jpg?s=512&d=https%3A%2F%2Fa.slack-edge.com%2Fdf10d%2Fimg%2Favatars%2Fava_0012-512.png", "custom_css": null}, {"id": 21949, "slack_id": "U09AL9Z3MT9", "display_name": "Abdullah", "bio": null, "projects_count": 0, "devlogs_count": 0, "votes_count": 0, "ships_count": 0, "projects": [], "coding_time_seconds": 172245, "coding_time_seconds_today": 13320, "balance": "You need to have a pocket watcher badge to view this.", "badges": [], "created_at": "2025-08-18T21:39:31.169-04:00", "updated_at": "2025-08-19T01:30:12.978-04:00", "avatar": "https://secure.gravatar.com/avatar/7f9e3cee400d7410bfa8497cc982242d.jpg?s=512&d=https%3A%2F%2Fa.slack-edge.com%2Fdf10d%2Fimg%2Favatars%2Fava_0024-512.png", "custom_css": null}, {"id": 21950, "slack_id": "U09ALA21E6B", "display_name": "Andrew Hu", "bio": null, "projects_count": 0, "devlogs_count": 0, "votes_count": 0, "ships_count": 0, "projects": [], "coding_time_seconds": 66665, "coding_time_seconds_today": 0, "balance": "You need to have a pocket watcher badge to view this.", "badges": [], "created_at": "2025-08-18T21:40:15.869-04:00", "updated_at": "2025-08-19T01:30:10.997-04:00", "avatar": "https://secure.gravatar.com/avatar/452911d3e4b074db98ddeeec2b807dfb.jpg?s=512&d=https%3A%2F%2Fa.slack-edge.com%2Fdf10d%2Fimg%2Favatars%2Fava_0020-512.png", "custom_css": null}, {"id": 21951, "slack_id": "U09B28S3FNG", "display_name": "Angelika A", "bio": null, "projects_count": 0, "devlogs_count": 0, "votes_count": 0, "ships_count": 0, "projects": [], "coding_time_seconds": 471568, "coding_time_seconds_today": 0, "balance": "You need to have a pocket watcher badge to view this.", "badges": [], "created_at": "2025-08-18T21:44:38.872-04:00", "updated_at": "2025-09-01T09:56:41.356-04:00", "avatar": "https://avatars.slack-edge.com/2025-09-01/9445467166308_34c8380fb6dd8c1cac11_original.png", "custom_css": null}, {"id": 21952, "slack_id": "U0976KH036V", "display_name": "Alberth Perez", "bio": null, "projects_count": 0, "devlogs_count": 0, "votes_count": 0, "ships_count": 0, "projects": [], "coding_time_seconds": 0, "coding_time_seconds_today": 0, "balance": "You need to have a pocket watcher badge to view this.", "badges": [], "created_at": "2025-08-18T21:52:54.932-04:00", "updated_at": "2025-08-19T03:58:22.952-04:00", "avatar": "https://avatars.slack-edge.com/2025-08-18/9372522238610_459adc55c5d9ed6a889e_original.png", "custom_css": null}, {"id": 21953, "slack_id": "U096TAWKATU", "display_name": "Siddhartha Shibi", "bio": null, "projects_count": 0, "devlogs_count": 0, "votes_count": 0, "ships_count": 0, "projects": [], "coding_time_seconds": 0, "coding_time_seconds_today": 0, "balance": "You need to have a pocket watcher badge to view this.", "badges": [], "created_at": "2025-08-18T22:03:52.559-04:00", "updated_at": "2025-08-19T03:58:27.190-04:00", "avatar": "https://secure.gravatar.com/avatar/ddb706212cb3dcc11929c1da6461f587.jpg?s=512&d=https%3A%2F%2Fa.slack-edge.com%2Fdf10d%2Fimg%2Favatars%2Fava_0009-512.png", "custom_css": null}, {"id": 21954, "slack_id": "U0919V1PG8P", "display_name": "Harsh Raj Anand", "bio": null, "projects_count": 0, "devlogs_count": 0, "votes_count": 0, "ships_count": 0, "projects": [], "coding_time_seconds": 0, "coding_time_seconds_today": 557, "balance": "You need to have a pocket watcher badge to view this.", "badges": [], "created_at": "2025-08-18T22:06:56.368-04:00", "updated_at": "2025-08-21T04:21:52.367-04:00", "avatar": "https://secure.gravatar.com/avatar/83609d673c3dc2121123f1fe56a54528.jpg?s=512&d=https%3A%2F%2Fa.slack-edge.com%2Fdf10d%2Fimg%2Favatars%2Fava_0013-512.png", "custom_css": null}, {"id": 21955, "slack_id": "U09B2B7TZJQ", "display_name": "Olivia Guo", "bio": null, "projects_count": 0, "devlogs_count": 0, "votes_count": 0, "ships_count": 0, "projects": [], "coding_time_seconds": 0, "coding_time_seconds_today": 0, "balance": "You need to have a pocket watcher badge to view this.", "badges": [], "created_at": "2025-08-18T22:09:49.967-04:00", "updated_at": "2025-08-19T03:58:27.631-04:00", "avatar": "https://secure.gravatar.com/avatar/f0bf27408d21d05f997ec51b621360cb.jpg?s=512&d=https%3A%2F%2Fa.slack-edge.com%2Fdf10d%2Fimg%2Favatars%2Fava_0021-512.png", "custom_css": null}, {"id": 21956, "slack_id": "U01FN278XAP", "display_name": "Dilian Us", "bio": null, "projects_count": 0, "devlogs_count": 0, "votes_count": 0, "ships_count": 0, "projects": [], "coding_time_seconds": 0, "coding_time_seconds_today": 0, "balance": "You need to have a pocket watcher badge to view this.", "badges": [], "created_at": "2025-08-18T22:15:43.109-04:00", "updated_at": "2025-08-19T03:58:27.792-04:00", "avatar": "https://avatars.slack-edge.com/2025-08-18/9399715573456_a6d1d0a4e5926b185ef1_original.jpg", "custom_css": null}, {"id": 21957, "slack_id": "U09ASM046TD", "display_name": "elmostafa", "bio": null, "projects_count": 0, "devlogs_count": 0, "votes_count": 0, "ships_count": 0, "projects": [], "coding_time_seconds": 0, "coding_time_seconds_today": 0, "balance": "You need to have a pocket watcher badge to view this.", "badges": [], "created_at": "2025-08-18T22:16:30.287-04:00", "updated_at": "2025-08-19T03:58:27.902-04:00", "avatar": "https://avatars.slack-edge.com/2025-08-19/9374487738662_07ed26be5714cbacfba8_original.jpg", "custom_css": null}, {"id": 21958, "slack_id": "U09BRK8QGBS", "display_name": "Zain ul abideen", "bio": null, "projects_count": 0, "devlogs_count": 0, "votes_count": 0, "ships_count": 0, "projects": [], "coding_time_seconds": 346686, "coding_time_seconds_today": 0, "balance": "You need to have a pocket watcher badge to view this.", "badges": [], "created_at": "2025-08-18T22:24:17.472-04:00", "updated_at": "2025-08-19T03:58:28.042-04:00", "avatar": "https://secure.gravatar.com/avatar/d153f4bdb07521b5c5d824c04fb2a0b1.jpg?s=512&d=https%3A%2F%2Fa.slack-edge.com%2Fdf10d%2Fimg%2Favatars%2Fava_0017-512.png", "custom_css": null}, {"id": 21959, "slack_id": "U08QJB670R3", "display_name": "Mellot", "bio": null, "projects_count": 0, "devlogs_count": 0, "votes_count": 0, "ships_count": 0, "projects": [], "coding_time_seconds": 0, "coding_time_seconds_today": 0, "balance": "You need to have a pocket watcher badge to view this.", "badges": [], "created_at": "2025-08-18T22:34:58.658-04:00", "updated_at": "2025-08-19T03:58:28.283-04:00", "avatar": "https://secure.gravatar.com/avatar/df76b66a0a149e97ec8789478e21f8d3.jpg?s=512&d=https%3A%2F%2Fa.slack-edge.com%2Fdf10d%2Fimg%2Favatars%2Fava_0011-512.png", "custom_css": null}, {"id": 21960, "slack_id": "U09ALF73ZF1", "display_name": "Sriranjini KS", "bio": null, "projects_count": 0, "devlogs_count": 0, "votes_count": 0, "ships_count": 0, "projects": [], "coding_time_seconds": 0, "coding_time_seconds_today": 0, "balance": "You need to have a pocket watcher badge to view this.", "badges": [], "created_at": "2025-08-18T22:36:01.591-04:00", "updated_at": "2025-08-19T03:58:28.408-04:00", "avatar": "https://secure.gravatar.com/avatar/eb37fe9a05295425d8465644d9e20cc0.jpg?s=512&d=https%3A%2F%2Fa.slack-edge.com%2Fdf10d%2Fimg%2Favatars%2Fava_0025-512.png", "custom_css": null}, {"id": 21961, "slack_id": "U09AWSHRN2H", "display_name": "Jannathul Firthouse Alaudeen", "bio": null, "projects_count": 0, "devlogs_count": 0, "votes_count": 0, "ships_count": 0, "projects": [], "coding_time_seconds": 0, "coding_time_seconds_today": 0, "balance": "You need to have a pocket watcher badge to view this.", "badges": [], "created_at": "2025-08-18T22:37:54.399-04:00", "updated_at": "2025-08-19T03:58:28.508-04:00", "avatar": "https://avatars.slack-edge.com/2025-08-18/9385310010017_298edaa28804d594898c_original.jpg", "custom_css": null}, {"id": 21962, "slack_id": "U09AYK9FVUJ", "display_name": "Tania", "bio": null, "projects_count": 0, "devlogs_count": 0, "votes_count": 0, "ships_count": 0, "projects": [], "coding_time_seconds": 0, "coding_time_seconds_today": 0, "balance": "You need to have a pocket watcher badge to view this.", "badges": [], "created_at": "2025-08-18T22:40:43.460-04:00", "updated_at": "2025-08-21T22:33:28.060-04:00", "avatar": "https://avatars.slack-edge.com/2025-08-18/9399721649552_3b96370d4b58b22b8c6a_original.jpg", "custom_css": null}, {"id": 21963, "slack_id": "U09B0FVGBML", "display_name": "ruijing", "bio": null, "projects_count": 0, "devlogs_count": 0, "votes_count": 0, "ships_count": 0, "projects": [], "coding_time_seconds": 49562, "coding_time_seconds_today": 0, "balance": "You need to have a pocket watcher badge to view this.", "badges": [], "created_at": "2025-08-18T22:43:27.372-04:00", "updated_at": "2025-08-20T19:38:04.961-04:00", "avatar": "https://secure.gravatar.com/avatar/8da99a4d7b6588894d9d04d0fbae501d.jpg?s=512&d=https%3A%2F%2Fa.slack-edge.com%2Fdf10d%2Fimg%2Favatars%2Fava_0020-512.png", "custom_css": null}, {"id": 21964, "slack_id": "U09B2EEQTT6", "display_name": "Aj", "bio": null, "projects_count": 0, "devlogs_count": 0, "votes_count": 0, "ships_count": 0, "projects": [], "coding_time_seconds": 0, "coding_time_seconds_today": 0, "balance": "You need to have a pocket watcher badge to view this.", "badges": [], "created_at": "2025-08-18T22:43:46.337-04:00", "updated_at": "2025-08-19T03:58:28.896-04:00", "avatar": "https://secure.gravatar.com/avatar/45b226b942591a149cacb67952b80d6c.jpg?s=512&d=https%3A%2F%2Fa.slack-edge.com%2Fdf10d%2Fimg%2Favatars%2Fava_0012-512.png", "custom_css": null}, {"id": 21965, "slack_id": "U09AHG5KKGS", "display_name": "Sofia", "bio": null, "projects_count": 0, "devlogs_count": 0, "votes_count": 0, "ships_count": 0, "projects": [], "coding_time_seconds": 0, "coding_time_seconds_today": 0, "balance": "You need to have a pocket watcher badge to view this.", "badges": [], "created_at": "2025-08-18T22:44:07.188-04:00", "updated_at": "2025-08-20T17:03:25.825-04:00", "avatar": "https://secure.gravatar.com/avatar/74a2c94cf2d5db71007b9bedc01d500c.jpg?s=512&d=https%3A%2F%2Fa.slack-edge.com%2Fdf10d%2Fimg%2Favatars%2Fava_0020-512.png", "custom_css": null}], "pagination": {"page": 1094, "pages": 1192, "count": 23828, "items": 20}}