{"users": [{"id": 21966, "slack_id": "U09B2E9F0FN", "display_name": "Oliver Thompson", "bio": null, "projects_count": 0, "devlogs_count": 0, "votes_count": 0, "ships_count": 0, "projects": [], "coding_time_seconds": 0, "coding_time_seconds_today": 0, "balance": "You need to have a pocket watcher badge to view this.", "badges": [], "created_at": "2025-08-18T22:46:52.828-04:00", "updated_at": "2025-08-19T05:15:22.034-04:00", "avatar": "https://secure.gravatar.com/avatar/78f765775699cfa7f880d88572a0bae8.jpg?s=512&d=https%3A%2F%2Fa.slack-edge.com%2Fdf10d%2Fimg%2Favatars%2Fava_0016-512.png", "custom_css": null}, {"id": 21967, "slack_id": "U09B0FWAKPY", "display_name": "Mia", "bio": null, "projects_count": 0, "devlogs_count": 0, "votes_count": 0, "ships_count": 0, "projects": [], "coding_time_seconds": 0, "coding_time_seconds_today": 0, "balance": "You need to have a pocket watcher badge to view this.", "badges": [], "created_at": "2025-08-18T22:49:16.060-04:00", "updated_at": "2025-08-19T03:58:29.232-04:00", "avatar": "https://secure.gravatar.com/avatar/46fa8d36029da23bd6ce072510016e9c.jpg?s=512&d=https%3A%2F%2Fa.slack-edge.com%2Fdf10d%2Fimg%2Favatars%2Fava_0012-512.png", "custom_css": null}, {"id": 21968, "slack_id": "U09BRML7MK2", "display_name": "Javes Monidea", "bio": null, "projects_count": 0, "devlogs_count": 0, "votes_count": 0, "ships_count": 0, "projects": [], "coding_time_seconds": 0, "coding_time_seconds_today": 0, "balance": "You need to have a pocket watcher badge to view this.", "badges": [], "created_at": "2025-08-18T22:50:20.972-04:00", "updated_at": "2025-08-19T03:58:29.321-04:00", "avatar": "https://secure.gravatar.com/avatar/e75320def7636e00855384e2dafa9368.jpg?s=512&d=https%3A%2F%2Fa.slack-edge.com%2Fdf10d%2Fimg%2Favatars%2Fava_0016-512.png", "custom_css": null}, {"id": 21969, "slack_id": "U09B0FC3Q6A", "display_name": "sourabh", "bio": null, "projects_count": 0, "devlogs_count": 0, "votes_count": 0, "ships_count": 0, "projects": [], "coding_time_seconds": 0, "coding_time_seconds_today": 0, "balance": "You need to have a pocket watcher badge to view this.", "badges": [], "created_at": "2025-08-18T22:54:13.968-04:00", "updated_at": "2025-08-19T03:58:29.414-04:00", "avatar": "https://secure.gravatar.com/avatar/28761458f5edf66dd5b5fa2d3dc71830.jpg?s=512&d=https%3A%2F%2Fa.slack-edge.com%2Fdf10d%2Fimg%2Favatars%2Fava_0016-512.png", "custom_css": null}, {"id": 21970, "slack_id": "U09AYLAUABC", "display_name": "Aryan Awati", "bio": null, "projects_count": 2, "devlogs_count": 3, "votes_count": 20, "ships_count": 1, "projects": [{"id": 12083, "title": "Personal Portfolio", "devlogs_count": 2, "created_at": "2025-08-22T21:15:56.451-04:00"}, {"id": 13045, "title": "Happy Birthday Email Website!", "devlogs_count": 1, "created_at": "2025-09-07T14:53:01.079-04:00"}], "coding_time_seconds": 18629, "coding_time_seconds_today": 0, "balance": "You need to have a pocket watcher badge to view this.", "badges": [], "created_at": "2025-08-18T22:56:36.848-04:00", "updated_at": "2025-08-23T03:00:04.458-04:00", "avatar": "https://avatars.slack-edge.com/2025-08-18/9372711663682_8e51494506e19377639c_original.jpg", "custom_css": null}, {"id": 21971, "slack_id": "U09BRN4JJSU", "display_name": "Rozeen Baniya", "bio": null, "projects_count": 0, "devlogs_count": 0, "votes_count": 0, "ships_count": 0, "projects": [], "coding_time_seconds": 57738, "coding_time_seconds_today": 1020, "balance": "You need to have a pocket watcher badge to view this.", "badges": [], "created_at": "2025-08-18T22:57:16.787-04:00", "updated_at": "2025-08-19T03:58:29.611-04:00", "avatar": "https://avatars.slack-edge.com/2025-08-18/9385365973873_10c4c4990c9a9fa57b32_original.jpg", "custom_css": null}, {"id": 21972, "slack_id": "U09ALG35Q31", "display_name": "Camilo Cruz", "bio": null, "projects_count": 0, "devlogs_count": 0, "votes_count": 0, "ships_count": 0, "projects": [], "coding_time_seconds": 0, "coding_time_seconds_today": 0, "balance": "You need to have a pocket watcher badge to view this.", "badges": [], "created_at": "2025-08-18T23:01:38.349-04:00", "updated_at": "2025-08-19T03:58:29.866-04:00", "avatar": "https://secure.gravatar.com/avatar/1284e2958ec0e399400cc4a306ea51db.jpg?s=512&d=https%3A%2F%2Fa.slack-edge.com%2Fdf10d%2Fimg%2Favatars%2Fava_0000-512.png", "custom_css": null}, {"id": 21973, "slack_id": "U09B0H7BRNJ", "display_name": "Eric Liu", "bio": null, "projects_count": 0, "devlogs_count": 0, "votes_count": 0, "ships_count": 0, "projects": [], "coding_time_seconds": 245, "coding_time_seconds_today": 0, "balance": "You need to have a pocket watcher badge to view this.", "badges": [], "created_at": "2025-08-18T23:04:04.979-04:00", "updated_at": "2025-08-19T03:58:30.034-04:00", "avatar": "https://avatars.slack-edge.com/2025-08-18/9372735920034_4fdc72f8bed401ea0df7_original.jpg", "custom_css": null}, {"id": 21974, "slack_id": "U09ASRQMHNX", "display_name": "Samanyu", "bio": null, "projects_count": 0, "devlogs_count": 0, "votes_count": 0, "ships_count": 0, "projects": [], "coding_time_seconds": 0, "coding_time_seconds_today": 0, "balance": "You need to have a pocket watcher badge to view this.", "badges": [], "created_at": "2025-08-18T23:04:19.768-04:00", "updated_at": "2025-08-19T03:58:30.357-04:00", "avatar": "https://secure.gravatar.com/avatar/7c4701afe373420654e3bc88f09df39b.jpg?s=512&d=https%3A%2F%2Fa.slack-edge.com%2Fdf10d%2Fimg%2Favatars%2Fava_0025-512.png", "custom_css": null}, {"id": 21975, "slack_id": "U09AX06DKFF", "display_name": "dheeraj", "bio": null, "projects_count": 0, "devlogs_count": 0, "votes_count": 0, "ships_count": 0, "projects": [], "coding_time_seconds": 8794, "coding_time_seconds_today": 0, "balance": "You need to have a pocket watcher badge to view this.", "badges": [], "created_at": "2025-08-18T23:29:01.479-04:00", "updated_at": "2025-08-19T03:58:30.446-04:00", "avatar": "https://secure.gravatar.com/avatar/c0e97205d85bdb543a8601182713a594.jpg?s=512&d=https%3A%2F%2Fa.slack-edge.com%2Fdf10d%2Fimg%2Favatars%2Fava_0014-512.png", "custom_css": null}, {"id": 21976, "slack_id": "U09ASTNCDM1", "display_name": "Master", "bio": null, "projects_count": 0, "devlogs_count": 0, "votes_count": 0, "ships_count": 0, "projects": [], "coding_time_seconds": 0, "coding_time_seconds_today": 0, "balance": "You need to have a pocket watcher badge to view this.", "badges": [], "created_at": "2025-08-18T23:30:45.249-04:00", "updated_at": "2025-08-25T03:58:56.362-04:00", "avatar": "https://avatars.slack-edge.com/2025-08-25/9389133831751_410aac74b626d6326667_original.png", "custom_css": null}, {"id": 21977, "slack_id": "U09ALKLEBGF", "display_name": "caixiumei", "bio": null, "projects_count": 0, "devlogs_count": 0, "votes_count": 0, "ships_count": 0, "projects": [], "coding_time_seconds": 0, "coding_time_seconds_today": 0, "balance": "You need to have a pocket watcher badge to view this.", "badges": [], "created_at": "2025-08-18T23:30:52.129-04:00", "updated_at": "2025-08-19T03:58:30.633-04:00", "avatar": "https://secure.gravatar.com/avatar/5e27130a57e9f58de7fe5011dc7ab592.jpg?s=512&d=https%3A%2F%2Fa.slack-edge.com%2Fdf10d%2Fimg%2Favatars%2Fava_0020-512.png", "custom_css": null}, {"id": 21978, "slack_id": "U07F0954PP0", "display_name": "Anoj Dangampola", "bio": null, "projects_count": 0, "devlogs_count": 0, "votes_count": 0, "ships_count": 0, "projects": [], "coding_time_seconds": 0, "coding_time_seconds_today": 0, "balance": "You need to have a pocket watcher badge to view this.", "badges": [], "created_at": "2025-08-18T23:32:04.838-04:00", "updated_at": "2025-08-19T03:58:30.744-04:00", "avatar": "https://secure.gravatar.com/avatar/1d431729849456ce8f9e265b7d2cdf7d.jpg?s=512&d=https%3A%2F%2Fa.slack-edge.com%2Fdf10d%2Fimg%2Favatars%2Fava_0023-512.png", "custom_css": null}, {"id": 21979, "slack_id": "U091S6RBSCF", "display_name": "rj", "bio": null, "projects_count": 0, "devlogs_count": 0, "votes_count": 0, "ships_count": 0, "projects": [], "coding_time_seconds": 0, "coding_time_seconds_today": 0, "balance": "You need to have a pocket watcher badge to view this.", "badges": [], "created_at": "2025-08-18T23:39:33.474-04:00", "updated_at": "2025-08-19T03:58:30.933-04:00", "avatar": "https://secure.gravatar.com/avatar/da354d66cb9fc64b1bbb4644354ad9bc.jpg?s=512&d=https%3A%2F%2Fa.slack-edge.com%2Fdf10d%2Fimg%2Favatars%2Fava_0013-512.png", "custom_css": null}, {"id": 21980, "slack_id": "U09ASUCK4D9", "display_name": "Tanisha", "bio": null, "projects_count": 0, "devlogs_count": 0, "votes_count": 0, "ships_count": 0, "projects": [], "coding_time_seconds": 0, "coding_time_seconds_today": 0, "balance": "You need to have a pocket watcher badge to view this.", "badges": [], "created_at": "2025-08-18T23:40:05.974-04:00", "updated_at": "2025-08-20T01:33:51.918-04:00", "avatar": "https://secure.gravatar.com/avatar/6ce1a47836c9e5f20aebe8b37bed60b3.jpg?s=512&d=https%3A%2F%2Fa.slack-edge.com%2Fdf10d%2Fimg%2Favatars%2Fava_0021-512.png", "custom_css": null}, {"id": 21981, "slack_id": "U09AYRCLE3U", "display_name": "Krishna", "bio": null, "projects_count": 0, "devlogs_count": 0, "votes_count": 0, "ships_count": 0, "projects": [], "coding_time_seconds": 0, "coding_time_seconds_today": 0, "balance": "You need to have a pocket watcher badge to view this.", "badges": [], "created_at": "2025-08-18T23:55:14.087-04:00", "updated_at": "2025-08-19T03:58:31.259-04:00", "avatar": "https://secure.gravatar.com/avatar/8389ba780d21dd1e49fb0bca5df0d51c.jpg?s=512&d=https%3A%2F%2Fa.slack-edge.com%2Fdf10d%2Fimg%2Favatars%2Fava_0014-512.png", "custom_css": null}, {"id": 21982, "slack_id": "U09ALGREYRM", "display_name": "Ishaan", "bio": null, "projects_count": 0, "devlogs_count": 0, "votes_count": 0, "ships_count": 0, "projects": [], "coding_time_seconds": 0, "coding_time_seconds_today": 0, "balance": "You need to have a pocket watcher badge to view this.", "badges": [], "created_at": "2025-08-18T23:56:22.379-04:00", "updated_at": "2025-08-25T05:24:46.532-04:00", "avatar": "https://avatars.slack-edge.com/2025-08-18/9374770643062_bc8a97e51b93a447246d_original.png", "custom_css": null}, {"id": 21983, "slack_id": "U09BRSL2NJU", "display_name": "Ryan Panda", "bio": null, "projects_count": 0, "devlogs_count": 0, "votes_count": 0, "ships_count": 0, "projects": [], "coding_time_seconds": 0, "coding_time_seconds_today": 0, "balance": "You need to have a pocket watcher badge to view this.", "badges": [], "created_at": "2025-08-19T00:00:35.208-04:00", "updated_at": "2025-08-19T03:58:31.445-04:00", "avatar": "https://avatars.slack-edge.com/2025-08-18/9385548260577_01bad6921ad37b2ca39c_original.png", "custom_css": null}, {"id": 21984, "slack_id": "U09B2LLHYR2", "display_name": "Sachin", "bio": null, "projects_count": 0, "devlogs_count": 0, "votes_count": 0, "ships_count": 0, "projects": [], "coding_time_seconds": 0, "coding_time_seconds_today": 0, "balance": "You need to have a pocket watcher badge to view this.", "badges": [], "created_at": "2025-08-19T00:03:34.940-04:00", "updated_at": "2025-08-19T03:58:31.544-04:00", "avatar": "https://secure.gravatar.com/avatar/d287dcba775befdd0e5f7b6dcee7418d.jpg?s=512&d=https%3A%2F%2Fa.slack-edge.com%2Fdf10d%2Fimg%2Favatars%2Fava_0004-512.png", "custom_css": null}, {"id": 21985, "slack_id": "U09B0NZDT3Q", "display_name": "Alan Cee", "bio": null, "projects_count": 0, "devlogs_count": 0, "votes_count": 0, "ships_count": 0, "projects": [], "coding_time_seconds": 0, "coding_time_seconds_today": 0, "balance": "You need to have a pocket watcher badge to view this.", "badges": [], "created_at": "2025-08-19T00:04:28.789-04:00", "updated_at": "2025-08-19T03:58:31.850-04:00", "avatar": "https://avatars.slack-edge.com/2025-08-18/9372906160226_7242ddf057fdde85ed33_original.png", "custom_css": null}], "pagination": {"page": 1095, "pages": 1192, "count": 23828, "items": 20}}