{"users": [{"id": 22006, "slack_id": "U09AXF2196Z", "display_name": "Galactic", "bio": null, "projects_count": 0, "devlogs_count": 0, "votes_count": 0, "ships_count": 0, "projects": [], "coding_time_seconds": 0, "coding_time_seconds_today": 0, "balance": "You need to have a pocket watcher badge to view this.", "badges": [], "created_at": "2025-08-19T01:57:14.885-04:00", "updated_at": "2025-08-19T03:58:39.328-04:00", "avatar": "https://avatars.slack-edge.com/2025-08-19/9361143901591_3c11ae54744dd21a951a_original.png", "custom_css": null}, {"id": 22007, "slack_id": "U09B14GFCB0", "display_name": "Shikha", "bio": null, "projects_count": 0, "devlogs_count": 0, "votes_count": 0, "ships_count": 0, "projects": [], "coding_time_seconds": 0, "coding_time_seconds_today": 0, "balance": "You need to have a pocket watcher badge to view this.", "badges": [], "created_at": "2025-08-19T01:58:15.642-04:00", "updated_at": "2025-08-19T03:58:39.569-04:00", "avatar": "https://secure.gravatar.com/avatar/4efbc041a27c3d5c46592eaa7e43bace.jpg?s=512&d=https%3A%2F%2Fa.slack-edge.com%2Fdf10d%2Fimg%2Favatars%2Fava_0005-512.png", "custom_css": null}, {"id": 22008, "slack_id": "U09BBSR5N0H", "display_name": "QuillX Gaming", "bio": null, "projects_count": 0, "devlogs_count": 0, "votes_count": 0, "ships_count": 0, "projects": [], "coding_time_seconds": 0, "coding_time_seconds_today": 0, "balance": "You need to have a pocket watcher badge to view this.", "badges": [], "created_at": "2025-08-19T01:58:18.343-04:00", "updated_at": "2025-08-19T03:58:39.710-04:00", "avatar": "https://avatars.slack-edge.com/2025-08-19/9400307351376_2f1c28fa5b0b69193b5c_original.png", "custom_css": null}, {"id": 22009, "slack_id": "U09ATBNFPU3", "display_name": "Aisha", "bio": null, "projects_count": 0, "devlogs_count": 0, "votes_count": 0, "ships_count": 0, "projects": [], "coding_time_seconds": 0, "coding_time_seconds_today": 0, "balance": "You need to have a pocket watcher badge to view this.", "badges": [], "created_at": "2025-08-19T01:59:26.275-04:00", "updated_at": "2025-08-19T03:58:39.820-04:00", "avatar": "https://secure.gravatar.com/avatar/9386217b2626538fc2c8ffdf998ec602.jpg?s=512&d=https%3A%2F%2Fa.slack-edge.com%2Fdf10d%2Fimg%2Favatars%2Fava_0003-512.png", "custom_css": null}, {"id": 22010, "slack_id": "U09AXEJ7TD3", "display_name": "Retaj", "bio": null, "projects_count": 0, "devlogs_count": 0, "votes_count": 0, "ships_count": 0, "projects": [], "coding_time_seconds": 0, "coding_time_seconds_today": 0, "balance": "You need to have a pocket watcher badge to view this.", "badges": [], "created_at": "2025-08-19T02:10:41.253-04:00", "updated_at": "2025-08-19T03:58:39.953-04:00", "avatar": "https://secure.gravatar.com/avatar/043cca996e2d4b5100f4cc0f0084d13d.jpg?s=512&d=https%3A%2F%2Fa.slack-edge.com%2Fdf10d%2Fimg%2Favatars%2Fava_0008-512.png", "custom_css": null}, {"id": 22011, "slack_id": "U09AZ92UG74", "display_name": "Preston", "bio": null, "projects_count": 0, "devlogs_count": 0, "votes_count": 0, "ships_count": 0, "projects": [], "coding_time_seconds": 0, "coding_time_seconds_today": 0, "balance": "You need to have a pocket watcher badge to view this.", "badges": [], "created_at": "2025-08-19T02:13:08.705-04:00", "updated_at": "2025-08-19T03:58:40.038-04:00", "avatar": "https://secure.gravatar.com/avatar/132ab8004138f8d377398bce572bfacb.jpg?s=512&d=https%3A%2F%2Fa.slack-edge.com%2Fdf10d%2Fimg%2Favatars%2Fava_0022-512.png", "custom_css": null}, {"id": 22012, "slack_id": "U091W5SN2PM", "display_name": "Jacob Herout", "bio": null, "projects_count": 0, "devlogs_count": 0, "votes_count": 0, "ships_count": 0, "projects": [], "coding_time_seconds": 2109, "coding_time_seconds_today": 0, "balance": "You need to have a pocket watcher badge to view this.", "badges": [], "created_at": "2025-08-19T02:15:31.058-04:00", "updated_at": "2025-08-20T21:58:36.485-04:00", "avatar": "https://avatars.slack-edge.com/2025-08-20/9386684098902_b569d6dafe6c4c87bb6e_original.png", "custom_css": null}, {"id": 22013, "slack_id": "U09B16L8VQW", "display_name": "Pramish Adhikari", "bio": null, "projects_count": 0, "devlogs_count": 0, "votes_count": 0, "ships_count": 0, "projects": [], "coding_time_seconds": 0, "coding_time_seconds_today": 0, "balance": "You need to have a pocket watcher badge to view this.", "badges": [], "created_at": "2025-08-19T02:16:28.471-04:00", "updated_at": "2025-08-19T03:58:44.423-04:00", "avatar": "https://avatars.slack-edge.com/2025-08-18/9367497908787_6517a66dac4d625cb225_original.png", "custom_css": null}, {"id": 22014, "slack_id": "U091R0GD3PE", "display_name": "Aryan", "bio": null, "projects_count": 0, "devlogs_count": 0, "votes_count": 0, "ships_count": 0, "projects": [], "coding_time_seconds": 0, "coding_time_seconds_today": 0, "balance": "You need to have a pocket watcher badge to view this.", "badges": [], "created_at": "2025-08-19T02:18:19.917-04:00", "updated_at": "2025-08-19T03:58:44.750-04:00", "avatar": "https://secure.gravatar.com/avatar/dcc3f9f887ca802c1a79c95a6024c375.jpg?s=512&d=https%3A%2F%2Fa.slack-edge.com%2Fdf10d%2Fimg%2Favatars%2Fava_0026-512.png", "custom_css": null}, {"id": 22015, "slack_id": "U09B166LK7Y", "display_name": "Lakshya Pratap Singh", "bio": null, "projects_count": 0, "devlogs_count": 0, "votes_count": 0, "ships_count": 0, "projects": [], "coding_time_seconds": 0, "coding_time_seconds_today": 0, "balance": "You need to have a pocket watcher badge to view this.", "badges": [], "created_at": "2025-08-19T02:20:17.452-04:00", "updated_at": "2025-08-19T03:58:44.897-04:00", "avatar": "https://avatars.slack-edge.com/2025-08-18/9386008039777_e4852bf92b21399d18c7_original.jpg", "custom_css": null}, {"id": 22016, "slack_id": "U097MRWA0KU", "display_name": "Dhruv Bansal", "bio": null, "projects_count": 0, "devlogs_count": 0, "votes_count": 0, "ships_count": 0, "projects": [], "coding_time_seconds": 0, "coding_time_seconds_today": 0, "balance": "You need to have a pocket watcher badge to view this.", "badges": [], "created_at": "2025-08-19T02:24:00.938-04:00", "updated_at": "2025-08-19T04:44:23.038-04:00", "avatar": "https://secure.gravatar.com/avatar/24a3e2d5ae5bc971c9ea3861a4a46ade.jpg?s=512&d=https%3A%2F%2Fa.slack-edge.com%2Fdf10d%2Fimg%2Favatars%2Fava_0015-512.png", "custom_css": null}, {"id": 22017, "slack_id": "U09AZB822G2", "display_name": "Avyukth Nunna", "bio": null, "projects_count": 0, "devlogs_count": 0, "votes_count": 0, "ships_count": 0, "projects": [], "coding_time_seconds": 0, "coding_time_seconds_today": 0, "balance": "You need to have a pocket watcher badge to view this.", "badges": [], "created_at": "2025-08-19T02:32:00.823-04:00", "updated_at": "2025-08-19T03:58:45.124-04:00", "avatar": "https://avatars.slack-edge.com/2025-08-18/9367559631731_458616e88163a5e6fa8d_original.png", "custom_css": null}, {"id": 22018, "slack_id": "U080VADGR4Y", "display_name": "Niklas Wojtkowiak", "bio": null, "projects_count": 0, "devlogs_count": 0, "votes_count": 0, "ships_count": 0, "projects": [], "coding_time_seconds": 104084, "coding_time_seconds_today": 0, "balance": "You need to have a pocket watcher badge to view this.", "badges": [], "created_at": "2025-08-19T02:57:29.304-04:00", "updated_at": "2025-08-19T03:58:45.257-04:00", "avatar": "https://avatars.slack-edge.com/2024-11-09/7999942383286_0f16c68f8a4ecdb85f19_original.png", "custom_css": null}, {"id": 22019, "slack_id": "U07EQGJ8SQZ", "display_name": "harsh kumar", "bio": null, "projects_count": 0, "devlogs_count": 0, "votes_count": 0, "ships_count": 0, "projects": [], "coding_time_seconds": 0, "coding_time_seconds_today": 0, "balance": "You need to have a pocket watcher badge to view this.", "badges": [], "created_at": "2025-08-19T03:00:36.285-04:00", "updated_at": "2025-08-19T03:58:45.539-04:00", "avatar": "https://secure.gravatar.com/avatar/645ff3fea37df61eb2410495f580a1d5.jpg?s=512&d=https%3A%2F%2Fa.slack-edge.com%2Fdf10d%2Fimg%2Favatars%2Fava_0013-512.png", "custom_css": null}, {"id": 22020, "slack_id": "U09ATKZLTS7", "display_name": "Aditya A.", "bio": null, "projects_count": 0, "devlogs_count": 0, "votes_count": 0, "ships_count": 0, "projects": [], "coding_time_seconds": 0, "coding_time_seconds_today": 0, "balance": "You need to have a pocket watcher badge to view this.", "badges": [], "created_at": "2025-08-19T03:04:10.474-04:00", "updated_at": "2025-08-19T03:58:45.703-04:00", "avatar": "https://secure.gravatar.com/avatar/f9149a360fa7f6c198d0271355596c0e.jpg?s=512&d=https%3A%2F%2Fa.slack-edge.com%2Fdf10d%2Fimg%2Favatars%2Fava_0005-512.png", "custom_css": null}, {"id": 22021, "slack_id": "U09ATJQSQ9Z", "display_name": "Aditya Maurya", "bio": null, "projects_count": 1, "devlogs_count": 0, "votes_count": 1, "ships_count": 0, "projects": [{"id": 12092, "title": "School Hellway", "devlogs_count": 0, "created_at": "2025-08-23T00:31:27.382-04:00"}], "coding_time_seconds": 92643, "coding_time_seconds_today": 0, "balance": "You need to have a pocket watcher badge to view this.", "badges": [], "created_at": "2025-08-19T03:10:31.603-04:00", "updated_at": "2025-08-24T15:56:43.537-04:00", "avatar": "https://avatars.slack-edge.com/2025-08-24/9414616871617_c185fbec97046e10512e_original.jpg", "custom_css": null}, {"id": 22022, "slack_id": "U09B3CST75J", "display_name": "SujalMaheshwari", "bio": null, "projects_count": 0, "devlogs_count": 0, "votes_count": 0, "ships_count": 0, "projects": [], "coding_time_seconds": 0, "coding_time_seconds_today": 0, "balance": "You need to have a pocket watcher badge to view this.", "badges": [], "created_at": "2025-08-19T03:23:04.773-04:00", "updated_at": "2025-08-19T03:58:45.915-04:00", "avatar": "https://secure.gravatar.com/avatar/03826ce3a9b1d2359e8f16cbaa178e85.jpg?s=512&d=https%3A%2F%2Fa.slack-edge.com%2Fdf10d%2Fimg%2Favatars%2Fava_0006-512.png", "custom_css": null}, {"id": 22023, "slack_id": "U097Q462KV1", "display_name": "Summer Calimlim", "bio": null, "projects_count": 0, "devlogs_count": 0, "votes_count": 0, "ships_count": 0, "projects": [], "coding_time_seconds": 0, "coding_time_seconds_today": 0, "balance": "You need to have a pocket watcher badge to view this.", "badges": [], "created_at": "2025-08-19T03:28:42.190-04:00", "updated_at": "2025-08-19T03:58:46.028-04:00", "avatar": "https://avatars.slack-edge.com/2025-08-19/9361635121639_c71d4c801311e7db2adb_original.png", "custom_css": null}, {"id": 22024, "slack_id": "U09BCBKFGFK", "display_name": "omar", "bio": null, "projects_count": 0, "devlogs_count": 0, "votes_count": 0, "ships_count": 0, "projects": [], "coding_time_seconds": 0, "coding_time_seconds_today": 0, "balance": "You need to have a pocket watcher badge to view this.", "badges": [], "created_at": "2025-08-19T03:52:40.434-04:00", "updated_at": "2025-08-19T14:01:43.861-04:00", "avatar": "https://secure.gravatar.com/avatar/484ac575afec56aa42873cc0a2f925b2.jpg?s=512&d=https%3A%2F%2Fa.slack-edge.com%2Fdf10d%2Fimg%2Favatars%2Fava_0002-512.png", "custom_css": null}, {"id": 22025, "slack_id": "U09B2JA2MMJ", "display_name": "Divyaansh Kumar", "bio": null, "projects_count": 0, "devlogs_count": 0, "votes_count": 0, "ships_count": 0, "projects": [], "coding_time_seconds": 0, "coding_time_seconds_today": 0, "balance": "You need to have a pocket watcher badge to view this.", "badges": [], "created_at": "2025-08-19T03:53:55.468-04:00", "updated_at": "2025-08-19T09:59:17.217-04:00", "avatar": "https://secure.gravatar.com/avatar/3dd62aa649f21102b48d0879542eea99.jpg?s=512&d=https%3A%2F%2Fa.slack-edge.com%2Fdf10d%2Fimg%2Favatars%2Fava_0011-512.png", "custom_css": null}], "pagination": {"page": 1097, "pages": 1192, "count": 23828, "items": 20}}