{"users": [{"id": 22026, "slack_id": "U09BSQD0XLG", "display_name": "Aditya Tyagi", "bio": "Hi! I\u2019m Aditya \u2014 a curious hacker who enjoys turning ideas into projects. After completing my B.Tech in 2024, I\u2019m focusing on data analysis, visualization, and AI.\r\n\r\nSome of my favorite tools: Python, SQL, Power BI. Some of my favorite spaces: hackathons, GitHub, and late-night coding sprints.\r\n\r\nI\u2019m here to learn, share, and build cool things with the Hack Club community \u2728", "projects_count": 0, "devlogs_count": 0, "votes_count": 0, "ships_count": 0, "projects": [], "coding_time_seconds": 0, "coding_time_seconds_today": 0, "balance": "You need to have a pocket watcher badge to view this.", "badges": [], "created_at": "2025-08-19T04:01:04.983-04:00", "updated_at": "2025-08-19T09:59:17.338-04:00", "avatar": "https://secure.gravatar.com/avatar/3f14f2dc9d30aaa451aa8956cf28fc67.jpg?s=512&d=https%3A%2F%2Fa.slack-edge.com%2Fdf10d%2Fimg%2Favatars%2Fava_0025-512.png", "custom_css": null}, {"id": 22027, "slack_id": "U09B1Q1RSES", "display_name": "pwningshit", "bio": null, "projects_count": 0, "devlogs_count": 0, "votes_count": 0, "ships_count": 0, "projects": [], "coding_time_seconds": 0, "coding_time_seconds_today": 0, "balance": "You need to have a pocket watcher badge to view this.", "badges": [], "created_at": "2025-08-19T04:24:25.098-04:00", "updated_at": "2025-08-19T09:59:17.493-04:00", "avatar": "https://secure.gravatar.com/avatar/3fa4c4365023a3b869ee57381ae1c033.jpg?s=512&d=https%3A%2F%2Fa.slack-edge.com%2Fdf10d%2Fimg%2Favatars%2Fava_0001-512.png", "custom_css": null}, {"id": 22028, "slack_id": "U09BCHWALEM", "display_name": "Matt L", "bio": "", "projects_count": 0, "devlogs_count": 0, "votes_count": 0, "ships_count": 0, "projects": [], "coding_time_seconds": 0, "coding_time_seconds_today": 0, "balance": "You need to have a pocket watcher badge to view this.", "badges": [], "created_at": "2025-08-19T04:35:49.310-04:00", "updated_at": "2025-08-20T03:37:18.261-04:00", "avatar": "https://secure.gravatar.com/avatar/1c64749f14ef8b47c77f67f69eb511c8.jpg?s=512&d=https%3A%2F%2Fa.slack-edge.com%2Fdf10d%2Fimg%2Favatars%2Fava_0020-512.png", "custom_css": null}, {"id": 22029, "slack_id": "U09AMRGMX71", "display_name": "suw", "bio": null, "projects_count": 0, "devlogs_count": 0, "votes_count": 0, "ships_count": 0, "projects": [], "coding_time_seconds": 0, "coding_time_seconds_today": 0, "balance": "You need to have a pocket watcher badge to view this.", "badges": [], "created_at": "2025-08-19T04:42:27.892-04:00", "updated_at": "2025-08-19T09:59:17.748-04:00", "avatar": "https://avatars.slack-edge.com/2025-08-19/9372305550549_7cc221e165d36a36a30d_original.gif", "custom_css": null}, {"id": 22030, "slack_id": "U09AU4P3CE7", "display_name": "femur dev", "bio": null, "projects_count": 6, "devlogs_count": 15, "votes_count": 45, "ships_count": 2, "projects": [{"id": 11908, "title": "Fluffy Spoon Search Enginge", "devlogs_count": 7, "created_at": "2025-08-21T00:26:15.576-04:00"}, {"id": 11985, "title": "Respectfully, Read the Flippin Manual", "devlogs_count": 5, "created_at": "2025-08-21T21:06:11.812-04:00"}, {"id": 12282, "title": "AiExtra", "devlogs_count": 1, "created_at": "2025-08-25T08:31:57.211-04:00"}, {"id": 12302, "title": "Food Fight", "devlogs_count": 0, "created_at": "2025-08-25T11:31:08.415-04:00"}, {"id": 12087, "title": "Umberlight", "devlogs_count": 1, "created_at": "2025-08-22T23:07:09.384-04:00"}, {"id": 12244, "title": "Potential", "devlogs_count": 1, "created_at": "2025-08-24T19:36:53.616-04:00"}], "coding_time_seconds": 94946, "coding_time_seconds_today": 0, "balance": "You need to have a pocket watcher badge to view this.", "badges": [], "created_at": "2025-08-19T04:42:33.261-04:00", "updated_at": "2025-08-21T00:02:57.977-04:00", "avatar": "https://avatars.slack-edge.com/2025-08-19/9361888827143_8cc7a4daa8f806b722b1_original.png", "custom_css": null}, {"id": 22031, "slack_id": "U09BCKZQ1G9", "display_name": "Emin", "bio": null, "projects_count": 0, "devlogs_count": 0, "votes_count": 0, "ships_count": 0, "projects": [], "coding_time_seconds": 0, "coding_time_seconds_today": 0, "balance": "You need to have a pocket watcher badge to view this.", "badges": [], "created_at": "2025-08-19T04:50:30.069-04:00", "updated_at": "2025-08-19T09:59:18.038-04:00", "avatar": "https://avatars.slack-edge.com/2025-08-19/9374299530466_7ec26a949d62e673a80c_original.png", "custom_css": null}, {"id": 22032, "slack_id": "U09BT3MGV96", "display_name": "Lemon", "bio": null, "projects_count": 0, "devlogs_count": 0, "votes_count": 0, "ships_count": 0, "projects": [], "coding_time_seconds": 0, "coding_time_seconds_today": 0, "balance": "You need to have a pocket watcher badge to view this.", "badges": [], "created_at": "2025-08-19T05:00:53.410-04:00", "updated_at": "2025-08-19T09:59:18.227-04:00", "avatar": "https://secure.gravatar.com/avatar/3a995a01c6a6e2c4d9b9de1571e11685.jpg?s=512&d=https%3A%2F%2Fa.slack-edge.com%2Fdf10d%2Fimg%2Favatars%2Fava_0021-512.png", "custom_css": null}, {"id": 22033, "slack_id": "U08PF7D4RD3", "display_name": "greatm3", "bio": null, "projects_count": 0, "devlogs_count": 0, "votes_count": 0, "ships_count": 0, "projects": [], "coding_time_seconds": 0, "coding_time_seconds_today": 0, "balance": "You need to have a pocket watcher badge to view this.", "badges": [], "created_at": "2025-08-19T05:07:52.954-04:00", "updated_at": "2025-08-19T09:59:18.343-04:00", "avatar": "https://avatars.slack-edge.com/2025-07-25/9256324780165_9cf63343186921b9c473_original.jpg", "custom_css": null}, {"id": 22034, "slack_id": "U09B01YRUBU", "display_name": "AFASA", "bio": null, "projects_count": 0, "devlogs_count": 0, "votes_count": 0, "ships_count": 0, "projects": [], "coding_time_seconds": 0, "coding_time_seconds_today": 0, "balance": "You need to have a pocket watcher badge to view this.", "badges": [], "created_at": "2025-08-19T05:08:15.142-04:00", "updated_at": "2025-08-19T09:59:18.505-04:00", "avatar": "https://avatars.slack-edge.com/2025-08-19/9401197354288_fbf79b694052669443d2_original.png", "custom_css": null}, {"id": 22035, "slack_id": "U09BT50FZKJ", "display_name": "Reet Kaur Saini", "bio": null, "projects_count": 0, "devlogs_count": 0, "votes_count": 0, "ships_count": 0, "projects": [], "coding_time_seconds": 0, "coding_time_seconds_today": 0, "balance": "You need to have a pocket watcher badge to view this.", "badges": [], "created_at": "2025-08-19T05:11:50.937-04:00", "updated_at": "2025-08-19T09:59:18.857-04:00", "avatar": "https://avatars.slack-edge.com/2025-08-19/9401243321232_572fef017763aa59cb38_original.png", "custom_css": null}, {"id": 22036, "slack_id": "U09AYEC6MKP", "display_name": "Arya-f4", "bio": null, "projects_count": 0, "devlogs_count": 0, "votes_count": 0, "ships_count": 0, "projects": [], "coding_time_seconds": 37693, "coding_time_seconds_today": 847, "balance": "You need to have a pocket watcher badge to view this.", "badges": [], "created_at": "2025-08-19T05:24:26.742-04:00", "updated_at": "2025-08-19T09:59:23.199-04:00", "avatar": "https://secure.gravatar.com/avatar/161a9474cb39a052dd5a94f8272789f8.jpg?s=512&d=https%3A%2F%2Fa.slack-edge.com%2Fdf10d%2Fimg%2Favatars%2Fava_0003-512.png", "custom_css": null}, {"id": 22037, "slack_id": "U09B40KMLDA", "display_name": "Stella Yek", "bio": null, "projects_count": 0, "devlogs_count": 0, "votes_count": 0, "ships_count": 0, "projects": [], "coding_time_seconds": 0, "coding_time_seconds_today": 0, "balance": "You need to have a pocket watcher badge to view this.", "badges": [], "created_at": "2025-08-19T05:27:45.254-04:00", "updated_at": "2025-08-19T09:59:23.335-04:00", "avatar": "https://avatars.slack-edge.com/2025-08-19/9386882902049_b681e144ef205456f442_original.png", "custom_css": null}, {"id": 22038, "slack_id": "U09B08NSYE6", "display_name": "Kunru Li", "bio": null, "projects_count": 0, "devlogs_count": 0, "votes_count": 0, "ships_count": 0, "projects": [], "coding_time_seconds": 0, "coding_time_seconds_today": 0, "balance": "You need to have a pocket watcher badge to view this.", "badges": [], "created_at": "2025-08-19T05:41:50.873-04:00", "updated_at": "2025-08-19T09:59:23.450-04:00", "avatar": "https://avatars.slack-edge.com/2025-08-19/9374295162130_678e50690de50c64b59b_original.jpg", "custom_css": null}, {"id": 22039, "slack_id": "U09BTBP3ATS", "display_name": "Kushagra", "bio": null, "projects_count": 0, "devlogs_count": 0, "votes_count": 0, "ships_count": 0, "projects": [], "coding_time_seconds": 0, "coding_time_seconds_today": 0, "balance": "You need to have a pocket watcher badge to view this.", "badges": [], "created_at": "2025-08-19T05:54:31.754-04:00", "updated_at": "2025-08-19T09:59:23.564-04:00", "avatar": "https://secure.gravatar.com/avatar/0f70f689b27fdf99bdc63793e425b365.jpg?s=512&d=https%3A%2F%2Fa.slack-edge.com%2Fdf10d%2Fimg%2Favatars%2Fava_0003-512.png", "custom_css": null}, {"id": 22040, "slack_id": "U09AX9FMMU5", "display_name": "Aquib", "bio": null, "projects_count": 0, "devlogs_count": 0, "votes_count": 0, "ships_count": 0, "projects": [], "coding_time_seconds": 0, "coding_time_seconds_today": 0, "balance": "You need to have a pocket watcher badge to view this.", "badges": [], "created_at": "2025-08-19T06:57:39.761-04:00", "updated_at": "2025-08-19T09:59:23.693-04:00", "avatar": "https://secure.gravatar.com/avatar/ecfcfe2d5e473815d2160f23fba2a9d6.jpg?s=512&d=https%3A%2F%2Fa.slack-edge.com%2Fdf10d%2Fimg%2Favatars%2Fava_0018-512.png", "custom_css": null}, {"id": 22041, "slack_id": "U09B27ECY30", "display_name": "shila", "bio": null, "projects_count": 0, "devlogs_count": 0, "votes_count": 0, "ships_count": 0, "projects": [], "coding_time_seconds": 0, "coding_time_seconds_today": 0, "balance": "You need to have a pocket watcher badge to view this.", "badges": [], "created_at": "2025-08-19T07:08:50.505-04:00", "updated_at": "2025-08-28T10:56:02.248-04:00", "avatar": "https://secure.gravatar.com/avatar/0a9951d1914ead269b26af4593a5f66c.jpg?s=512&d=https%3A%2F%2Fa.slack-edge.com%2Fdf10d%2Fimg%2Favatars%2Fava_0002-512.png", "custom_css": null}, {"id": 22042, "slack_id": "U07UDVDNYSF", "display_name": "Alex Williams", "bio": null, "projects_count": 0, "devlogs_count": 0, "votes_count": 0, "ships_count": 0, "projects": [], "coding_time_seconds": 175, "coding_time_seconds_today": 0, "balance": "You need to have a pocket watcher badge to view this.", "badges": [], "created_at": "2025-08-19T07:17:27.732-04:00", "updated_at": "2025-08-21T19:42:05.612-04:00", "avatar": "https://secure.gravatar.com/avatar/1ec9a31034661abe8e2dbabcee175d15.jpg?s=512&d=https%3A%2F%2Fa.slack-edge.com%2Fdf10d%2Fimg%2Favatars%2Fava_0005-512.png", "custom_css": null}, {"id": 22043, "slack_id": "U09AUQU2WR1", "display_name": "Anjana", "bio": null, "projects_count": 0, "devlogs_count": 0, "votes_count": 0, "ships_count": 0, "projects": [], "coding_time_seconds": 0, "coding_time_seconds_today": 0, "balance": "You need to have a pocket watcher badge to view this.", "badges": [], "created_at": "2025-08-19T07:26:19.116-04:00", "updated_at": "2025-08-19T09:59:24.094-04:00", "avatar": "https://secure.gravatar.com/avatar/e392ea6f322250b31b220a5be80443f6.jpg?s=512&d=https%3A%2F%2Fa.slack-edge.com%2Fdf10d%2Fimg%2Favatars%2Fava_0004-512.png", "custom_css": null}, {"id": 22044, "slack_id": "U09AUTEC8RH", "display_name": "Chill", "bio": null, "projects_count": 0, "devlogs_count": 0, "votes_count": 0, "ships_count": 0, "projects": [], "coding_time_seconds": 0, "coding_time_seconds_today": 0, "balance": "You need to have a pocket watcher badge to view this.", "badges": [], "created_at": "2025-08-19T07:39:18.210-04:00", "updated_at": "2025-09-16T15:16:13.717-04:00", "avatar": "https://secure.gravatar.com/avatar/6a26a863d42ae8f54199fefd02de4eae.jpg?s=512&d=https%3A%2F%2Fa.slack-edge.com%2Fdf10d%2Fimg%2Favatars%2Fava_0014-512.png", "custom_css": null}, {"id": 22045, "slack_id": "U09BTR4RVB2", "display_name": "Tejas S", "bio": null, "projects_count": 0, "devlogs_count": 0, "votes_count": 0, "ships_count": 0, "projects": [], "coding_time_seconds": 16785, "coding_time_seconds_today": 0, "balance": "You need to have a pocket watcher badge to view this.", "badges": [], "created_at": "2025-08-19T07:45:57.210-04:00", "updated_at": "2025-08-19T09:59:24.493-04:00", "avatar": "https://secure.gravatar.com/avatar/38a20f34a35f6567565e9859cc60d5c2.jpg?s=512&d=https%3A%2F%2Fa.slack-edge.com%2Fdf10d%2Fimg%2Favatars%2Fava_0013-512.png", "custom_css": null}], "pagination": {"page": 1098, "pages": 1192, "count": 23828, "items": 20}}