{"users": [{"id": 22046, "slack_id": "U09AGSBUU59", "display_name": "Tamego", "bio": null, "projects_count": 0, "devlogs_count": 0, "votes_count": 0, "ships_count": 0, "projects": [], "coding_time_seconds": 0, "coding_time_seconds_today": 0, "balance": "You need to have a pocket watcher badge to view this.", "badges": [], "created_at": "2025-08-19T07:46:31.623-04:00", "updated_at": "2025-08-19T09:59:24.589-04:00", "avatar": "https://secure.gravatar.com/avatar/f1a49c1b88881e65cc66be885f9409ab.jpg?s=512&d=https%3A%2F%2Fa.slack-edge.com%2Fdf10d%2Fimg%2Favatars%2Fava_0025-512.png", "custom_css": null}, {"id": 22047, "slack_id": "U079R9MBBC1", "display_name": "Ankush Roy", "bio": null, "projects_count": 0, "devlogs_count": 0, "votes_count": 0, "ships_count": 0, "projects": [], "coding_time_seconds": 267987, "coding_time_seconds_today": 2437, "balance": "You need to have a pocket watcher badge to view this.", "badges": [], "created_at": "2025-08-19T07:56:19.057-04:00", "updated_at": "2025-08-27T02:30:02.742-04:00", "avatar": "https://avatars.slack-edge.com/2025-06-07/8999261452087_f2f9aa266938ad37c6ea_original.png", "custom_css": null}, {"id": 22048, "slack_id": "U09BTTZ4EP2", "display_name": "batates", "bio": null, "projects_count": 0, "devlogs_count": 0, "votes_count": 0, "ships_count": 0, "projects": [], "coding_time_seconds": 0, "coding_time_seconds_today": 0, "balance": "You need to have a pocket watcher badge to view this.", "badges": [], "created_at": "2025-08-19T08:07:10.809-04:00", "updated_at": "2025-08-19T09:59:24.918-04:00", "avatar": "https://secure.gravatar.com/avatar/2f4f1c64c8af9cb4b4653544f0047b7a.jpg?s=512&d=https%3A%2F%2Fa.slack-edge.com%2Fdf10d%2Fimg%2Favatars%2Fava_0016-512.png", "custom_css": null}, {"id": 22049, "slack_id": "U09B0T18ZC2", "display_name": "KingWaffleIII", "bio": "Avgeek and dev.", "projects_count": 1, "devlogs_count": 0, "votes_count": 0, "ships_count": 0, "projects": [{"id": 12215, "title": "Ticket Checker", "devlogs_count": 0, "created_at": "2025-08-24T12:38:57.050-04:00"}], "coding_time_seconds": 48700, "coding_time_seconds_today": 0, "balance": "You need to have a pocket watcher badge to view this.", "badges": [], "created_at": "2025-08-19T08:11:46.889-04:00", "updated_at": "2025-08-19T09:01:33.500-04:00", "avatar": "https://secure.gravatar.com/avatar/e8c10a28ca507a8fb12506c7060c536b.jpg?s=512&d=https%3A%2F%2Fa.slack-edge.com%2Fdf10d%2Fimg%2Favatars%2Fava_0013-512.png", "custom_css": null}, {"id": 22050, "slack_id": "U09B43DDQ84", "display_name": "Ma", "bio": null, "projects_count": 0, "devlogs_count": 0, "votes_count": 0, "ships_count": 0, "projects": [], "coding_time_seconds": 0, "coding_time_seconds_today": 0, "balance": "You need to have a pocket watcher badge to view this.", "badges": [], "created_at": "2025-08-19T08:12:51.707-04:00", "updated_at": "2025-08-19T09:59:25.272-04:00", "avatar": "https://secure.gravatar.com/avatar/5f40e1b54f9e66390de07dcbf475fe14.jpg?s=512&d=https%3A%2F%2Fa.slack-edge.com%2Fdf10d%2Fimg%2Favatars%2Fava_0013-512.png", "custom_css": null}, {"id": 22051, "slack_id": "U09BTUCQVDE", "display_name": "imusingwindowsxp", "bio": null, "projects_count": 0, "devlogs_count": 0, "votes_count": 0, "ships_count": 0, "projects": [], "coding_time_seconds": 0, "coding_time_seconds_today": 0, "balance": "You need to have a pocket watcher badge to view this.", "badges": [], "created_at": "2025-08-19T08:14:40.396-04:00", "updated_at": "2025-08-19T09:59:25.503-04:00", "avatar": "https://secure.gravatar.com/avatar/025976c419dd766f5754529171b6e80d.jpg?s=512&d=https%3A%2F%2Fa.slack-edge.com%2Fdf10d%2Fimg%2Favatars%2Fava_0005-512.png", "custom_css": null}, {"id": 22052, "slack_id": "U09BDJRMGC9", "display_name": "Oliver Antony Felix", "bio": null, "projects_count": 0, "devlogs_count": 0, "votes_count": 0, "ships_count": 0, "projects": [], "coding_time_seconds": 0, "coding_time_seconds_today": 0, "balance": "You need to have a pocket watcher badge to view this.", "badges": [], "created_at": "2025-08-19T08:23:30.860-04:00", "updated_at": "2025-08-19T09:59:25.796-04:00", "avatar": "https://avatars.slack-edge.com/2025-08-19/9402045025648_ab4db73434b884374f39_original.jpg", "custom_css": null}, {"id": 22053, "slack_id": "U09BDPAAZDX", "display_name": "Oskar", "bio": null, "projects_count": 0, "devlogs_count": 0, "votes_count": 0, "ships_count": 0, "projects": [], "coding_time_seconds": 0, "coding_time_seconds_today": 0, "balance": "You need to have a pocket watcher badge to view this.", "badges": [], "created_at": "2025-08-19T08:55:23.179-04:00", "updated_at": "2025-08-19T09:59:26.018-04:00", "avatar": "https://secure.gravatar.com/avatar/1896cfd4637a1d9943b2204989806772.jpg?s=512&d=https%3A%2F%2Fa.slack-edge.com%2Fdf10d%2Fimg%2Favatars%2Fava_0009-512.png", "custom_css": null}, {"id": 22054, "slack_id": "U09AP4HLLBZ", "display_name": "Dark Horse", "bio": null, "projects_count": 0, "devlogs_count": 0, "votes_count": 0, "ships_count": 0, "projects": [], "coding_time_seconds": 0, "coding_time_seconds_today": 0, "balance": "You need to have a pocket watcher badge to view this.", "badges": [], "created_at": "2025-08-19T09:11:59.496-04:00", "updated_at": "2025-08-19T09:59:26.108-04:00", "avatar": "https://secure.gravatar.com/avatar/8b1163b1b66a066e022d59f0c0030573.jpg?s=512&d=https%3A%2F%2Fa.slack-edge.com%2Fdf10d%2Fimg%2Favatars%2Fava_0000-512.png", "custom_css": null}, {"id": 22055, "slack_id": "U09AVCSB96X", "display_name": "swati", "bio": null, "projects_count": 0, "devlogs_count": 0, "votes_count": 0, "ships_count": 0, "projects": [], "coding_time_seconds": 0, "coding_time_seconds_today": 0, "balance": "You need to have a pocket watcher badge to view this.", "badges": [], "created_at": "2025-08-19T09:16:19.953-04:00", "updated_at": "2025-08-19T09:59:26.384-04:00", "avatar": "https://secure.gravatar.com/avatar/b5b5041a5e3d616c6dde06cb28428910.jpg?s=512&d=https%3A%2F%2Fa.slack-edge.com%2Fdf10d%2Fimg%2Favatars%2Fava_0024-512.png", "custom_css": null}, {"id": 22056, "slack_id": "U09AP721S07", "display_name": "Thomas", "bio": null, "projects_count": 0, "devlogs_count": 0, "votes_count": 0, "ships_count": 0, "projects": [], "coding_time_seconds": 0, "coding_time_seconds_today": 0, "balance": "You need to have a pocket watcher badge to view this.", "badges": [], "created_at": "2025-08-19T09:28:43.690-04:00", "updated_at": "2025-08-19T09:59:26.482-04:00", "avatar": "https://secure.gravatar.com/avatar/bf31476011a7d741e60418d30d91bd60.jpg?s=512&d=https%3A%2F%2Fa.slack-edge.com%2Fdf10d%2Fimg%2Favatars%2Fava_0013-512.png", "custom_css": null}, {"id": 22057, "slack_id": "U09AVJ2GQD9", "display_name": "D3R3K", "bio": null, "projects_count": 0, "devlogs_count": 0, "votes_count": 0, "ships_count": 0, "projects": [], "coding_time_seconds": 0, "coding_time_seconds_today": 0, "balance": "You need to have a pocket watcher badge to view this.", "badges": [], "created_at": "2025-08-19T09:39:35.619-04:00", "updated_at": "2025-08-19T09:59:26.593-04:00", "avatar": "https://secure.gravatar.com/avatar/7bf2dd6655bd9c5a95a7626a4761953c.jpg?s=512&d=https%3A%2F%2Fa.slack-edge.com%2Fdf10d%2Fimg%2Favatars%2Fava_0020-512.png", "custom_css": null}, {"id": 22058, "slack_id": "U099P7KFJCV", "display_name": "Kiritish", "bio": null, "projects_count": 0, "devlogs_count": 0, "votes_count": 0, "ships_count": 0, "projects": [], "coding_time_seconds": 0, "coding_time_seconds_today": 0, "balance": "You need to have a pocket watcher badge to view this.", "badges": [], "created_at": "2025-08-19T09:50:06.089-04:00", "updated_at": "2025-08-19T21:58:19.942-04:00", "avatar": "https://secure.gravatar.com/avatar/3feb4102a899cd6fcdd999eeee3e88ed.jpg?s=512&d=https%3A%2F%2Fa.slack-edge.com%2Fdf10d%2Fimg%2Favatars%2Fava_0020-512.png", "custom_css": null}, {"id": 22059, "slack_id": "U09B1E8EUMQ", "display_name": "Nathan", "bio": null, "projects_count": 0, "devlogs_count": 0, "votes_count": 0, "ships_count": 0, "projects": [], "coding_time_seconds": 0, "coding_time_seconds_today": 0, "balance": "You need to have a pocket watcher badge to view this.", "badges": [], "created_at": "2025-08-19T09:55:19.012-04:00", "updated_at": "2025-08-19T21:58:20.056-04:00", "avatar": "https://secure.gravatar.com/avatar/c37aa1cd89edb214205b6986e6c7e3ea.jpg?s=512&d=https%3A%2F%2Fa.slack-edge.com%2Fdf10d%2Fimg%2Favatars%2Fava_0000-512.png", "custom_css": null}, {"id": 22060, "slack_id": "U09B3GY6YCE", "display_name": "Ray Liu", "bio": null, "projects_count": 0, "devlogs_count": 0, "votes_count": 0, "ships_count": 0, "projects": [], "coding_time_seconds": 0, "coding_time_seconds_today": 0, "balance": "You need to have a pocket watcher badge to view this.", "badges": [], "created_at": "2025-08-19T10:13:17.845-04:00", "updated_at": "2025-08-19T21:58:20.177-04:00", "avatar": "https://secure.gravatar.com/avatar/1970f4e44170b03f26dcb43420f7ff0d.jpg?s=512&d=https%3A%2F%2Fa.slack-edge.com%2Fdf10d%2Fimg%2Favatars%2Fava_0010-512.png", "custom_css": null}, {"id": 22061, "slack_id": "U09B3FXL9NJ", "display_name": "Antonin LMarxer", "bio": null, "projects_count": 0, "devlogs_count": 0, "votes_count": 0, "ships_count": 0, "projects": [], "coding_time_seconds": 449545, "coding_time_seconds_today": 2103, "balance": "You need to have a pocket watcher badge to view this.", "badges": [], "created_at": "2025-08-19T10:20:58.981-04:00", "updated_at": "2025-08-19T21:58:20.288-04:00", "avatar": "https://avatars.slack-edge.com/2025-08-19/9377642641382_6387682daf5b0895b112_original.jpg", "custom_css": null}, {"id": 22062, "slack_id": "U07EW23D1CL", "display_name": "Ryan", "bio": null, "projects_count": 0, "devlogs_count": 0, "votes_count": 0, "ships_count": 0, "projects": [], "coding_time_seconds": 62547, "coding_time_seconds_today": 0, "balance": "You need to have a pocket watcher badge to view this.", "badges": [], "created_at": "2025-08-19T10:45:25.725-04:00", "updated_at": "2025-08-19T14:00:08.622-04:00", "avatar": "https://avatars.slack-edge.com/2025-08-19/9370121913011_1ed9d0c8e17850281035_original.png", "custom_css": null}, {"id": 22063, "slack_id": "U09B1R9JBJN", "display_name": "Maggie", "bio": null, "projects_count": 0, "devlogs_count": 0, "votes_count": 0, "ships_count": 0, "projects": [], "coding_time_seconds": 0, "coding_time_seconds_today": 0, "balance": "You need to have a pocket watcher badge to view this.", "badges": [], "created_at": "2025-08-19T10:52:11.586-04:00", "updated_at": "2025-08-19T21:58:20.588-04:00", "avatar": "https://secure.gravatar.com/avatar/e9007b51ff37628cf18fff7f57dc4524.jpg?s=512&d=https%3A%2F%2Fa.slack-edge.com%2Fdf10d%2Fimg%2Favatars%2Fava_0015-512.png", "custom_css": null}, {"id": 22064, "slack_id": "U09B1QRTTJN", "display_name": "Muhammad Taha", "bio": null, "projects_count": 0, "devlogs_count": 0, "votes_count": 0, "ships_count": 0, "projects": [], "coding_time_seconds": 0, "coding_time_seconds_today": 0, "balance": "You need to have a pocket watcher badge to view this.", "badges": [], "created_at": "2025-08-19T10:58:46.385-04:00", "updated_at": "2025-08-19T21:58:20.783-04:00", "avatar": "https://secure.gravatar.com/avatar/3ce54686f07a54c98f411ddbab260754.jpg?s=512&d=https%3A%2F%2Fa.slack-edge.com%2Fdf10d%2Fimg%2Favatars%2Fava_0013-512.png", "custom_css": null}, {"id": 22065, "slack_id": "U09APPDKHK9", "display_name": "Bhuvan", "bio": null, "projects_count": 0, "devlogs_count": 0, "votes_count": 0, "ships_count": 0, "projects": [], "coding_time_seconds": 0, "coding_time_seconds_today": 0, "balance": "You need to have a pocket watcher badge to view this.", "badges": [], "created_at": "2025-08-19T10:59:45.270-04:00", "updated_at": "2025-08-19T21:58:20.872-04:00", "avatar": "https://avatars.slack-edge.com/2025-08-19/9377896735030_ed3595eaf53e8b7d8318_original.jpg", "custom_css": null}], "pagination": {"page": 1099, "pages": 1192, "count": 23828, "items": 20}}