{"users": [{"id": 201, "slack_id": "U08GZ4R62E8", "display_name": "Aref", "bio": null, "projects_count": 8, "devlogs_count": 13, "votes_count": 56, "ships_count": 7, "projects": [{"id": 1946, "title": "Personal Portfolio", "devlogs_count": 2, "created_at": "2025-06-19T17:04:40.303-04:00"}, {"id": 2373, "title": "Old School terminal Design", "devlogs_count": 1, "created_at": "2025-06-20T21:19:47.689-04:00"}, {"id": 3587, "title": "Christmas Memories website", "devlogs_count": 1, "created_at": "2025-06-24T20:18:23.560-04:00"}, {"id": 12021, "title": "A termnial devtool project made with python", "devlogs_count": 1, "created_at": "2025-08-22T08:37:36.109-04:00"}, {"id": 12660, "title": "Your Silly Interpreter!", "devlogs_count": 1, "created_at": "2025-08-31T08:54:34.007-04:00"}, {"id": 10372, "title": "website mood changer!", "devlogs_count": 1, "created_at": "2025-08-06T11:29:45.348-04:00"}, {"id": 4199, "title": "CSC - Hard Task", "devlogs_count": 2, "created_at": "2025-06-28T06:02:43.883-04:00"}, {"id": 2975, "title": "Wordle - The hackclub version", "devlogs_count": 4, "created_at": "2025-06-22T16:07:32.775-04:00"}], "coding_time_seconds": 379892, "coding_time_seconds_today": 0, "balance": "You need to have a pocket watcher badge to view this.", "badges": [{"name": "Maiden Voyage", "text": "you shipped your first project! the journey begins...", "icon": "\ud83d\udea2"}, {"name": "Graphic Design is My Passion", "text": "Oh God How Did This Get Here I Am Not Good With Computer", "icon": "\ud83c\udfa8"}, {"name": "Spider", "text": "this user has a pet!", "icon": "\ud83d\udd77\ufe0f"}], "created_at": "2025-06-16T07:39:05.500-04:00", "updated_at": "2025-09-10T22:51:12.496-04:00", "avatar": "https://avatars.slack-edge.com/2025-06-18/9062009932291_d8a3e1738b14ab7e5788_original.jpg", "custom_css": null}, {"id": 202, "slack_id": "U091EHBSWJF", "display_name": "A", "bio": "", "projects_count": 0, "devlogs_count": 0, "votes_count": 0, "ships_count": 0, "projects": [], "coding_time_seconds": 0, "coding_time_seconds_today": 0, "balance": "You need to have a pocket watcher badge to view this.", "badges": [], "created_at": "2025-06-16T07:40:09.683-04:00", "updated_at": "2025-07-03T19:11:54.959-04:00", "avatar": "https://secure.gravatar.com/avatar/725098d80d4cc2d438ffdf4f1c62fadb.jpg?s=512&d=https%3A%2F%2Fa.slack-edge.com%2Fdf10d%2Fimg%2Favatars%2Fava_0002-512.png", "custom_css": null}, {"id": 203, "slack_id": "U09206SD03B", "display_name": "Random Guy", "bio": null, "projects_count": 1, "devlogs_count": 2, "votes_count": 20, "ships_count": 1, "projects": [{"id": 3901, "title": "Vulnscanner", "devlogs_count": 2, "created_at": "2025-06-26T07:46:45.559-04:00"}], "coding_time_seconds": 66487, "coding_time_seconds_today": 0, "balance": "You need to have a pocket watcher badge to view this.", "badges": [{"name": "Maiden Voyage", "text": "you shipped your first project! the journey begins...", "icon": "\ud83d\udea2"}], "created_at": "2025-06-16T07:42:57.894-04:00", "updated_at": "2025-09-10T22:51:12.572-04:00", "avatar": "https://avatars.slack-edge.com/2025-06-16/9078133487456_3d0b9e4950b7e28c4266_original.png", "custom_css": null}, {"id": 204, "slack_id": "U059VC0UDEU", "display_name": "mahad", "bio": "", "projects_count": 4, "devlogs_count": 15, "votes_count": 62, "ships_count": 3, "projects": [{"id": 10551, "title": "Test", "devlogs_count": 0, "created_at": "2025-08-08T03:20:44.486-04:00"}, {"id": 12523, "title": "HCB-API", "devlogs_count": 3, "created_at": "2025-08-29T00:50:55.357-04:00"}, {"id": 11185, "title": "Converge", "devlogs_count": 1, "created_at": "2025-08-13T23:17:29.282-04:00"}, {"id": 239, "title": "Summer of Making Monitor", "devlogs_count": 11, "created_at": "2025-06-16T16:08:40.198-04:00"}], "coding_time_seconds": 198852, "coding_time_seconds_today": 0, "balance": "You need to have a pocket watcher badge to view this.", "badges": [{"name": "Verified", "text": "this user is verified (i.e. gave us $8)", "icon": "https://summer.hackclub.com/assets/verified-c9457a9f.png"}, {"name": "<%= admin_tool do %>", "text": "with great power comes great responsibility... and a ban hammer.", "icon": "\ud83d\udd28"}, {"name": "Maiden Voyage", "text": "you shipped your first project! the journey begins...", "icon": "\ud83d\udea2"}, {"name": "Graphic Design is My Passion", "text": "Oh God How Did This Get Here I Am Not Good With Computer", "icon": "\ud83c\udfa8"}, {"name": "Lived Mas", "text": "you know what you did.", "icon": "https://summer.hackclub.com/assets/bong-2a18e50d.png"}], "created_at": "2025-06-16T07:44:54.541-04:00", "updated_at": "2025-09-10T22:51:12.614-04:00", "avatar": "https://avatars.slack-edge.com/2025-09-02/9449467630628_fea29f5538ecfe92c25d_original.jpg", "custom_css": "@import url('https://fonts.googleapis.com/css2?family=Instrument+Sans:ital,wght@0,400..700;1,400..700&display=swap');\n\nbody {\n  font-family: \"Instrument Sans\", sans-serif !important;\n}"}, {"id": 205, "slack_id": "U091MJCRYH0", "display_name": "malted test", "bio": null, "projects_count": 0, "devlogs_count": 0, "votes_count": 0, "ships_count": 0, "projects": [], "coding_time_seconds": 0, "coding_time_seconds_today": 0, "balance": "You need to have a pocket watcher badge to view this.", "badges": [], "created_at": "2025-06-16T07:47:16.970-04:00", "updated_at": "2025-07-03T19:11:55.775-04:00", "avatar": "https://secure.gravatar.com/avatar/bb887642bcc8bc7eee3890e0b135d2f7.jpg?s=512&d=https%3A%2F%2Fa.slack-edge.com%2Fdf10d%2Fimg%2Favatars%2Fava_0002-512.png", "custom_css": null}, {"id": 206, "slack_id": "U09207CN401", "display_name": "Aasem", "bio": null, "projects_count": 0, "devlogs_count": 0, "votes_count": 0, "ships_count": 0, "projects": [], "coding_time_seconds": 76680, "coding_time_seconds_today": 0, "balance": "You need to have a pocket watcher badge to view this.", "badges": [], "created_at": "2025-06-16T07:47:38.027-04:00", "updated_at": "2025-09-03T21:18:16.414-04:00", "avatar": "https://secure.gravatar.com/avatar/f79a9c3516430389cf6a8d3ab86d92fa.jpg?s=512&d=https%3A%2F%2Fa.slack-edge.com%2Fdf10d%2Fimg%2Favatars%2Fava_0024-512.png", "custom_css": null}, {"id": 207, "slack_id": "U07BMK9NSDB", "display_name": "Elijah Spitzer", "bio": "", "projects_count": 1, "devlogs_count": 5, "votes_count": 40, "ships_count": 1, "projects": [{"id": 2740, "title": "scam-website-templates", "devlogs_count": 2, "created_at": "2025-06-21T23:27:39.838-04:00"}], "coding_time_seconds": 207792, "coding_time_seconds_today": 0, "balance": "You need to have a pocket watcher badge to view this.", "badges": [{"name": "Maiden Voyage", "text": "you shipped your first project! the journey begins...", "icon": "\ud83d\udea2"}], "created_at": "2025-06-16T07:49:28.786-04:00", "updated_at": "2025-09-10T22:51:12.716-04:00", "avatar": "https://avatars.slack-edge.com/2025-04-19/8800769359920_ee2596c8fc14a192a8b3_original.png", "custom_css": null}, {"id": 208, "slack_id": "U09207ULRQR", "display_name": "malted test", "bio": null, "projects_count": 0, "devlogs_count": 0, "votes_count": 0, "ships_count": 0, "projects": [], "coding_time_seconds": 0, "coding_time_seconds_today": 0, "balance": "You need to have a pocket watcher badge to view this.", "badges": [], "created_at": "2025-06-16T07:51:49.107-04:00", "updated_at": "2025-07-03T19:11:56.606-04:00", "avatar": "https://secure.gravatar.com/avatar/bce21753f136cedf096271a155b17839.jpg?s=512&d=https%3A%2F%2Fa.slack-edge.com%2Fdf10d%2Fimg%2Favatars%2Fava_0007-512.png", "custom_css": null}, {"id": 209, "slack_id": "U08DC7ZJWKY", "display_name": "Yahia Haggag", "bio": null, "projects_count": 3, "devlogs_count": 10, "votes_count": 90, "ships_count": 3, "projects": [{"id": 2272, "title": "Mandelbrot Synthesizer\ud83c\udfb9", "devlogs_count": 6, "created_at": "2025-06-20T15:49:35.917-04:00"}, {"id": 4841, "title": "SaturnVPCB", "devlogs_count": 1, "created_at": "2025-07-01T21:02:08.536-04:00"}, {"id": 6089, "title": "SouthScript", "devlogs_count": 3, "created_at": "2025-07-10T13:31:50.363-04:00"}], "coding_time_seconds": 212300, "coding_time_seconds_today": 0, "balance": "You need to have a pocket watcher badge to view this.", "badges": [{"name": "Maiden Voyage", "text": "you shipped your first project! the journey begins...", "icon": "\ud83d\udea2"}, {"name": "Ballot Stuffer", "text": "vote 100 times.", "icon": "https://summer.hackclub.com/assets/i_voted-bf851b48.png"}], "created_at": "2025-06-16T07:51:52.932-04:00", "updated_at": "2025-09-10T22:51:12.771-04:00", "avatar": "https://avatars.slack-edge.com/2025-08-05/9293464963431_c0215c22263bf7318f2a_original.png", "custom_css": null}, {"id": 210, "slack_id": "U091ME8PMQS", "display_name": "Seif Ahmed", "bio": null, "projects_count": 8, "devlogs_count": 23, "votes_count": 98, "ships_count": 5, "projects": [{"id": 6649, "title": "Trivia.io", "devlogs_count": 1, "created_at": "2025-07-14T19:56:31.041-04:00"}, {"id": 6754, "title": "Ori", "devlogs_count": 5, "created_at": "2025-07-15T20:19:35.946-04:00"}, {"id": 12598, "title": "Netflix Clone", "devlogs_count": 1, "created_at": "2025-08-30T09:07:48.744-04:00"}, {"id": 1129, "title": "Data analyzer", "devlogs_count": 6, "created_at": "2025-06-17T17:08:00.980-04:00"}, {"id": 7429, "title": "Union's website", "devlogs_count": 1, "created_at": "2025-07-21T18:09:27.655-04:00"}, {"id": 10694, "title": "Calculus Calc", "devlogs_count": 3, "created_at": "2025-08-09T18:02:17.636-04:00"}, {"id": 4355, "title": "Notes & Games", "devlogs_count": 3, "created_at": "2025-06-29T09:46:54.025-04:00"}, {"id": 4134, "title": "easy webdev task", "devlogs_count": 1, "created_at": "2025-06-27T17:21:52.252-04:00"}], "coding_time_seconds": 375859, "coding_time_seconds_today": 0, "balance": "You need to have a pocket watcher badge to view this.", "badges": [{"name": "Maiden Voyage", "text": "you shipped your first project! the journey begins...", "icon": "\ud83d\udea2"}, {"name": "Ballot Stuffer", "text": "vote 100 times.", "icon": "https://summer.hackclub.com/assets/i_voted-bf851b48.png"}], "created_at": "2025-06-16T07:53:09.641-04:00", "updated_at": "2025-09-25T00:00:28.511-04:00", "avatar": "https://avatars.slack-edge.com/2025-09-25/9575410227653_dcb212aa66c10e387be1_original.jpg", "custom_css": null}, {"id": 211, "slack_id": "U091EK3GQ2F", "display_name": "malted test", "bio": null, "projects_count": 0, "devlogs_count": 0, "votes_count": 0, "ships_count": 0, "projects": [], "coding_time_seconds": 0, "coding_time_seconds_today": 0, "balance": "You need to have a pocket watcher badge to view this.", "badges": [], "created_at": "2025-06-16T07:53:53.223-04:00", "updated_at": "2025-07-03T19:11:57.457-04:00", "avatar": "https://secure.gravatar.com/avatar/043f76358a31e3171868926dedd77824.jpg?s=512&d=https%3A%2F%2Fa.slack-edge.com%2Fdf10d%2Fimg%2Favatars%2Fava_0003-512.png", "custom_css": null}, {"id": 212, "slack_id": "U091ENGGZGW", "display_name": "malted test", "bio": null, "projects_count": 0, "devlogs_count": 0, "votes_count": 0, "ships_count": 0, "projects": [], "coding_time_seconds": 0, "coding_time_seconds_today": 0, "balance": "You need to have a pocket watcher badge to view this.", "badges": [], "created_at": "2025-06-16T07:55:53.464-04:00", "updated_at": "2025-07-03T19:11:57.733-04:00", "avatar": "https://secure.gravatar.com/avatar/029ec62a679c5bd5c50b0ae3ef72832f.jpg?s=512&d=https%3A%2F%2Fa.slack-edge.com%2Fdf10d%2Fimg%2Favatars%2Fava_0017-512.png", "custom_css": null}, {"id": 213, "slack_id": "U066LL4JBDL", "display_name": "arthur", "bio": null, "projects_count": 5, "devlogs_count": 10, "votes_count": 7, "ships_count": 1, "projects": [{"id": 287, "title": "NESt-emu", "devlogs_count": 0, "created_at": "2025-06-16T17:10:22.224-04:00"}, {"id": 1519, "title": "Wakadoctor", "devlogs_count": 1, "created_at": "2025-06-18T17:06:10.005-04:00"}, {"id": 4577, "title": "3D Rasterizer", "devlogs_count": 1, "created_at": "2025-06-30T18:14:28.027-04:00"}, {"id": 7708, "title": "Aggrevator", "devlogs_count": 0, "created_at": "2025-07-22T16:21:54.817-04:00"}, {"id": 10746, "title": "notation", "devlogs_count": 8, "created_at": "2025-08-10T10:22:47.065-04:00"}], "coding_time_seconds": 515932, "coding_time_seconds_today": 0, "balance": "You need to have a pocket watcher badge to view this.", "badges": [{"name": "Maiden Voyage", "text": "you shipped your first project! the journey begins...", "icon": "\ud83d\udea2"}], "created_at": "2025-06-16T08:07:04.409-04:00", "updated_at": "2025-09-16T00:00:27.203-04:00", "avatar": "https://avatars.slack-edge.com/2025-09-15/9550390690608_e8d4e9c6f049b96d25bb_original.jpg", "custom_css": null}, {"id": 214, "slack_id": "U082UPTRQU8", "display_name": "Adhyys", "bio": null, "projects_count": 0, "devlogs_count": 35, "votes_count": 81, "ships_count": 0, "projects": [], "coding_time_seconds": 191284, "coding_time_seconds_today": 0, "balance": "You need to have a pocket watcher badge to view this.", "badges": [{"name": "Maiden Voyage", "text": "you shipped your first project! the journey begins...", "icon": "\ud83d\udea2"}, {"name": "Lived Mas", "text": "you know what you did.", "icon": "https://summer.hackclub.com/assets/bong-2a18e50d.png"}, {"name": "Ballot Stuffer", "text": "vote 100 times.", "icon": "https://summer.hackclub.com/assets/i_voted-bf851b48.png"}], "created_at": "2025-06-16T08:27:07.745-04:00", "updated_at": "2025-09-10T22:51:13.047-04:00", "avatar": "https://avatars.slack-edge.com/2025-07-20/9220922723411_77b5657506d5c607a606_original.jpg", "custom_css": null}, {"id": 215, "slack_id": "U08QKDF6F9B", "display_name": "Khaled", "bio": null, "projects_count": 0, "devlogs_count": 20, "votes_count": 33, "ships_count": 0, "projects": [], "coding_time_seconds": 961595, "coding_time_seconds_today": 0, "balance": "You need to have a pocket watcher badge to view this.", "badges": [{"name": "Maiden Voyage", "text": "you shipped your first project! the journey begins...", "icon": "\ud83d\udea2"}], "created_at": "2025-06-16T08:28:20.171-04:00", "updated_at": "2025-09-10T22:51:13.081-04:00", "avatar": "https://avatars.slack-edge.com/2025-08-16/9365437802340_b734d6363a62574a696e_original.jpg", "custom_css": null}, {"id": 216, "slack_id": "U086DM4FD0Q", "display_name": "Nick", "bio": null, "projects_count": 0, "devlogs_count": 0, "votes_count": 0, "ships_count": 0, "projects": [], "coding_time_seconds": 686466, "coding_time_seconds_today": 0, "balance": "You need to have a pocket watcher badge to view this.", "badges": [], "created_at": "2025-06-16T08:29:34.582-04:00", "updated_at": "2025-08-15T20:00:31.428-04:00", "avatar": "https://avatars.slack-edge.com/2025-08-15/9387945203008_b57022cd151906e545d5_original.png", "custom_css": null}, {"id": 217, "slack_id": "U082VP0QX46", "display_name": "gabriel [gbtsui]", "bio": null, "projects_count": 0, "devlogs_count": 0, "votes_count": 0, "ships_count": 0, "projects": [], "coding_time_seconds": 321366, "coding_time_seconds_today": 0, "balance": "You need to have a pocket watcher badge to view this.", "badges": [], "created_at": "2025-06-16T08:35:56.553-04:00", "updated_at": "2025-08-23T02:00:22.420-04:00", "avatar": "https://avatars.slack-edge.com/2025-08-22/9384718737527_78c3f05b521db1b7b742_original.jpg", "custom_css": null}, {"id": 218, "slack_id": "U0916G7FHAT", "display_name": "malted test", "bio": null, "projects_count": 0, "devlogs_count": 0, "votes_count": 0, "ships_count": 0, "projects": [], "coding_time_seconds": 0, "coding_time_seconds_today": 0, "balance": "You need to have a pocket watcher badge to view this.", "badges": [], "created_at": "2025-06-16T08:40:26.138-04:00", "updated_at": "2025-07-03T19:11:59.371-04:00", "avatar": "https://secure.gravatar.com/avatar/0dcbc019926d2265314ec1e111ed3915.jpg?s=512&d=https%3A%2F%2Fa.slack-edge.com%2Fdf10d%2Fimg%2Favatars%2Fava_0003-512.png", "custom_css": null}, {"id": 219, "slack_id": "U06CRF4DLSU", "display_name": "mpk", "bio": null, "projects_count": 0, "devlogs_count": 0, "votes_count": 0, "ships_count": 0, "projects": [], "coding_time_seconds": 244611, "coding_time_seconds_today": 0, "balance": "You need to have a pocket watcher badge to view this.", "badges": [], "created_at": "2025-06-16T08:41:36.671-04:00", "updated_at": "2025-09-24T00:00:24.856-04:00", "avatar": "https://avatars.slack-edge.com/2025-09-23/9584530144321_905cdc4738c256545f57_original.png", "custom_css": null}, {"id": 220, "slack_id": "U07SU9F50MT", "display_name": "kzlpndx", "bio": null, "projects_count": 4, "devlogs_count": 8, "votes_count": 0, "ships_count": 0, "projects": [{"id": 4235, "title": "GameCube", "devlogs_count": 1, "created_at": "2025-06-28T11:12:08.557-04:00"}, {"id": 8642, "title": "HsConnect (TBD)", "devlogs_count": 6, "created_at": "2025-07-28T18:21:59.350-04:00"}, {"id": 9810, "title": "ne0pi", "devlogs_count": 0, "created_at": "2025-08-02T11:08:02.392-04:00"}, {"id": 9811, "title": "The game", "devlogs_count": 1, "created_at": "2025-08-02T11:08:02.405-04:00"}], "coding_time_seconds": 83416, "coding_time_seconds_today": 0, "balance": "You need to have a pocket watcher badge to view this.", "badges": [], "created_at": "2025-06-16T08:42:13.849-04:00", "updated_at": "2025-08-07T17:06:52.356-04:00", "avatar": "https://avatars.slack-edge.com/2024-10-23/7924599981906_8ee733a99e0d052ab678_original.png", "custom_css": null}], "pagination": {"page": 11, "pages": 1192, "count": 23827, "items": 20}}