{"users": [{"id": 2181, "slack_id": "U091QBE64A0", "display_name": "Sumit", "bio": null, "projects_count": 0, "devlogs_count": 0, "votes_count": 0, "ships_count": 0, "projects": [], "coding_time_seconds": 0, "coding_time_seconds_today": 0, "balance": "You need to have a pocket watcher badge to view this.", "badges": [], "created_at": "2025-06-16T14:55:50.210-04:00", "updated_at": "2025-07-03T19:21:05.487-04:00", "avatar": "https://secure.gravatar.com/avatar/ba6d5e9ecedc5b46826779778e56acfc.jpg?s=512&d=https%3A%2F%2Fa.slack-edge.com%2Fdf10d%2Fimg%2Favatars%2Fava_0008-512.png", "custom_css": null}, {"id": 2182, "slack_id": "U091Q3KUDD0", "display_name": "Richa R", "bio": null, "projects_count": 0, "devlogs_count": 0, "votes_count": 0, "ships_count": 0, "projects": [], "coding_time_seconds": 0, "coding_time_seconds_today": 0, "balance": "You need to have a pocket watcher badge to view this.", "badges": [], "created_at": "2025-06-16T14:55:51.071-04:00", "updated_at": "2025-07-03T19:21:05.758-04:00", "avatar": "https://secure.gravatar.com/avatar/998031770404c58074d8755100bce299.jpg?s=512&d=https%3A%2F%2Fa.slack-edge.com%2Fdf10d%2Fimg%2Favatars%2Fava_0003-512.png", "custom_css": null}, {"id": 2183, "slack_id": "U0921E8BATT", "display_name": "Prateek Kumar", "bio": null, "projects_count": 0, "devlogs_count": 0, "votes_count": 0, "ships_count": 0, "projects": [], "coding_time_seconds": 0, "coding_time_seconds_today": 0, "balance": "You need to have a pocket watcher badge to view this.", "badges": [], "created_at": "2025-06-16T14:55:55.099-04:00", "updated_at": "2025-07-03T19:21:06.029-04:00", "avatar": "https://secure.gravatar.com/avatar/19407480ccee91fd7dd07fa2fe6185e4.jpg?s=512&d=https%3A%2F%2Fa.slack-edge.com%2Fdf10d%2Fimg%2Favatars%2Fava_0006-512.png", "custom_css": null}, {"id": 2184, "slack_id": "U091Q3PKW1G", "display_name": "Malte", "bio": null, "projects_count": 1, "devlogs_count": 1, "votes_count": 0, "ships_count": 0, "projects": [{"id": 10497, "title": "Project FreeGames API", "devlogs_count": 1, "created_at": "2025-08-07T14:19:33.041-04:00"}], "coding_time_seconds": 79329, "coding_time_seconds_today": 0, "balance": "You need to have a pocket watcher badge to view this.", "badges": [], "created_at": "2025-06-16T14:55:58.105-04:00", "updated_at": "2025-07-27T13:05:50.417-04:00", "avatar": "https://secure.gravatar.com/avatar/3424905df815d3b993bc542a4d0a420d.jpg?s=512&d=https%3A%2F%2Fa.slack-edge.com%2Fdf10d%2Fimg%2Favatars%2Fava_0024-512.png", "custom_css": null}, {"id": 2185, "slack_id": "U0851D8GSQP", "display_name": "tervicke", "bio": null, "projects_count": 0, "devlogs_count": 0, "votes_count": 0, "ships_count": 0, "projects": [], "coding_time_seconds": 0, "coding_time_seconds_today": 0, "balance": "You need to have a pocket watcher badge to view this.", "badges": [], "created_at": "2025-06-16T14:56:03.436-04:00", "updated_at": "2025-07-03T19:21:06.553-04:00", "avatar": "https://secure.gravatar.com/avatar/dbcf89a0b2b9ff6d8c16b0024a5200d0.jpg?s=512&d=https%3A%2F%2Fa.slack-edge.com%2Fdf10d%2Fimg%2Favatars%2Fava_0005-512.png", "custom_css": null}, {"id": 2186, "slack_id": "U0874FV7ZA7", "display_name": "Anvay Ajmera", "bio": null, "projects_count": 1, "devlogs_count": 2, "votes_count": 7, "ships_count": 1, "projects": [{"id": 1115, "title": "Panther Venue", "devlogs_count": 2, "created_at": "2025-06-17T16:42:39.760-04:00"}], "coding_time_seconds": 170320, "coding_time_seconds_today": 0, "balance": "You need to have a pocket watcher badge to view this.", "badges": [{"name": "Maiden Voyage", "text": "you shipped your first project! the journey begins...", "icon": "\ud83d\udea2"}], "created_at": "2025-06-16T14:56:05.041-04:00", "updated_at": "2025-09-10T22:52:15.504-04:00", "avatar": "https://avatars.slack-edge.com/2025-06-22/9108117090336_c8b862cf4fd15b935b67_original.png", "custom_css": null}, {"id": 2187, "slack_id": "U091NA0RF1T", "display_name": "Hiddenduck", "bio": null, "projects_count": 0, "devlogs_count": 0, "votes_count": 0, "ships_count": 0, "projects": [], "coding_time_seconds": 0, "coding_time_seconds_today": 0, "balance": "You need to have a pocket watcher badge to view this.", "badges": [], "created_at": "2025-06-16T14:56:09.838-04:00", "updated_at": "2025-07-03T19:21:07.090-04:00", "avatar": "https://secure.gravatar.com/avatar/da40e4dd567a901cf71cd20823da86fe.jpg?s=512&d=https%3A%2F%2Fa.slack-edge.com%2Fdf10d%2Fimg%2Favatars%2Fava_0008-512.png", "custom_css": null}, {"id": 2188, "slack_id": "U091H89RK6J", "display_name": "ANKIT SINGH", "bio": null, "projects_count": 0, "devlogs_count": 0, "votes_count": 0, "ships_count": 0, "projects": [], "coding_time_seconds": 0, "coding_time_seconds_today": 0, "balance": "You need to have a pocket watcher badge to view this.", "badges": [], "created_at": "2025-06-16T14:56:14.309-04:00", "updated_at": "2025-07-03T19:21:07.357-04:00", "avatar": "https://avatars.slack-edge.com/2025-06-16/9058523042324_5fd5f98b3b9c18b6f15b_original.png", "custom_css": null}, {"id": 2189, "slack_id": "U091H54M7B5", "display_name": "Montek Kundan", "bio": null, "projects_count": 0, "devlogs_count": 0, "votes_count": 0, "ships_count": 0, "projects": [], "coding_time_seconds": 398159, "coding_time_seconds_today": 0, "balance": "You need to have a pocket watcher badge to view this.", "badges": [], "created_at": "2025-06-16T14:56:31.225-04:00", "updated_at": "2025-07-03T19:21:07.629-04:00", "avatar": "https://secure.gravatar.com/avatar/687a214b602c0db2f5589e4c2e0fb691.jpg?s=512&d=https%3A%2F%2Fa.slack-edge.com%2Fdf10d%2Fimg%2Favatars%2Fava_0020-512.png", "custom_css": null}, {"id": 2190, "slack_id": "U091H55FXQB", "display_name": "Victor Sanz", "bio": null, "projects_count": 0, "devlogs_count": 0, "votes_count": 0, "ships_count": 0, "projects": [], "coding_time_seconds": 0, "coding_time_seconds_today": 0, "balance": "You need to have a pocket watcher badge to view this.", "badges": [], "created_at": "2025-06-16T14:56:35.621-04:00", "updated_at": "2025-07-03T19:21:07.906-04:00", "avatar": "https://avatars.slack-edge.com/2025-06-16/9070685810753_ae8a09cbfbac2e8c6392_original.png", "custom_css": null}, {"id": 2191, "slack_id": "U088Z65TDRN", "display_name": "sabio", "bio": "hi im sabio hi im sabio hi im sabio hi im sabio hi im sabio hi im sabio hi im sabio hi im sabio hi im sabio hi im sabio hi im sabio hi im sabio hi im sabio hi im sabio hi im sabio hi im sabio hi im sabio hi im sabio hi im sabio hi im sabio hi im sabio hi im sabio hi im sabio hi im sabio hi im sabio hi im sabio hi im sabio hi im sabio hi im sabio hi im sabio hi im sabio hi im sabio hi im sabio hi im sabio hi im sabio hi im sabio hi im sabio hi im sabio hi im sabio hi im sabio hi im sabio hi im sabio hi im sabio hi im sabio hi im sabio hi im sabio hi im sabio hi im sabio hi im sabio hi im sabio hi im sabio hi im sabio hi im sabio hi im sabio hi im sabio hi im sabio hi im sabio hi im sabio hi im sabio hi im sabio hi im sabio hi im sabio hi im sabio hi im sabio hi im sabio hi im sabio hi im sabio hi im sabio hi im sabio hi im sabio hi im sabio hi im sabio hi im sabio hi im sabio hi im sabio hi im sabio hi im sabio hi im sabio hi im sabio hi im sabio hi im sabio hi im sabio hi im sabio hi i", "projects_count": 16, "devlogs_count": 58, "votes_count": 64, "ships_count": 4, "projects": [{"id": 231, "title": "Quirky Chess Engine (QCE)", "devlogs_count": 8, "created_at": "2025-06-16T15:59:41.410-04:00"}, {"id": 1553, "title": "GotUrSys", "devlogs_count": 1, "created_at": "2025-06-18T18:20:03.651-04:00"}, {"id": 2054, "title": "Client of Making", "devlogs_count": 17, "created_at": "2025-06-20T02:17:23.504-04:00"}, {"id": 5357, "title": "Obserpoint", "devlogs_count": 7, "created_at": "2025-07-04T18:00:34.720-04:00"}, {"id": 5420, "title": "Notebook", "devlogs_count": 0, "created_at": "2025-07-05T07:05:12.467-04:00"}, {"id": 6528, "title": "TMaR - The Master at Roasting", "devlogs_count": 0, "created_at": "2025-07-14T02:17:14.999-04:00"}, {"id": 7400, "title": "Timeset", "devlogs_count": 1, "created_at": "2025-07-21T15:55:37.962-04:00"}, {"id": 8026, "title": "Localtest", "devlogs_count": 7, "created_at": "2025-07-24T05:39:53.224-04:00"}, {"id": 11607, "title": "UserRate", "devlogs_count": 2, "created_at": "2025-08-17T16:33:46.593-04:00"}, {"id": 12350, "title": "Hackaforum", "devlogs_count": 2, "created_at": "2025-08-26T04:30:18.863-04:00"}, {"id": 12540, "title": "the worst way to listen to music", "devlogs_count": 1, "created_at": "2025-08-29T06:54:15.943-04:00"}, {"id": 12682, "title": "Clatter", "devlogs_count": 1, "created_at": "2025-08-31T17:30:33.239-04:00"}, {"id": 13449, "title": "Argon QuickEnv", "devlogs_count": 1, "created_at": "2025-09-16T17:10:26.792-04:00"}, {"id": 13719, "title": "Blubberhill", "devlogs_count": 1, "created_at": "2025-09-23T16:47:50.213-04:00"}, {"id": 12961, "title": "Caecodux", "devlogs_count": 7, "created_at": "2025-09-06T06:52:21.532-04:00"}, {"id": 10604, "title": "a personal website from sabio", "devlogs_count": 1, "created_at": "2025-08-08T18:08:52.246-04:00"}], "coding_time_seconds": 793226, "coding_time_seconds_today": 0, "balance": "You need to have a pocket watcher badge to view this.", "badges": [{"name": "Maiden Voyage", "text": "you shipped your first project! the journey begins...", "icon": "\ud83d\udea2"}], "created_at": "2025-06-16T14:56:49.126-04:00", "updated_at": "2025-09-16T17:09:54.988-04:00", "avatar": "https://avatars.slack-edge.com/2025-08-29/9431406462486_c86b3b5123926c10a077_original.gif", "custom_css": null}, {"id": 2192, "slack_id": "U091P2UGWTU", "display_name": "aadi", "bio": null, "projects_count": 0, "devlogs_count": 0, "votes_count": 0, "ships_count": 0, "projects": [], "coding_time_seconds": 0, "coding_time_seconds_today": 0, "balance": "You need to have a pocket watcher badge to view this.", "badges": [], "created_at": "2025-06-16T14:56:51.766-04:00", "updated_at": "2025-07-03T19:21:08.429-04:00", "avatar": "https://secure.gravatar.com/avatar/ad09f17853ef133e54e7a0922912901f.jpg?s=512&d=https%3A%2F%2Fa.slack-edge.com%2Fdf10d%2Fimg%2Favatars%2Fava_0008-512.png", "custom_css": null}, {"id": 2193, "slack_id": "U0817GVPKUK", "display_name": "nox", "bio": null, "projects_count": 3, "devlogs_count": 10, "votes_count": 15, "ships_count": 1, "projects": [{"id": 4774, "title": "World of Dune - Webdev Project", "devlogs_count": 1, "created_at": "2025-07-01T12:46:31.670-04:00"}, {"id": 7033, "title": "Zealotical - Symbol Cipher identifier ", "devlogs_count": 1, "created_at": "2025-07-18T12:49:25.597-04:00"}, {"id": 4909, "title": "GIRLIELANG - girltok esolang", "devlogs_count": 8, "created_at": "2025-07-02T06:28:30.940-04:00"}], "coding_time_seconds": 90782, "coding_time_seconds_today": 0, "balance": "You need to have a pocket watcher badge to view this.", "badges": [{"name": "Maiden Voyage", "text": "you shipped your first project! the journey begins...", "icon": "\ud83d\udea2"}, {"name": "Spider", "text": "this user has a pet!", "icon": "\ud83d\udd77\ufe0f"}], "created_at": "2025-06-16T14:57:07.032-04:00", "updated_at": "2025-09-10T22:52:15.673-04:00", "avatar": "https://avatars.slack-edge.com/2025-02-24/8523575453600_0671cf9c0aa02a9abfd7_original.png", "custom_css": null}, {"id": 2194, "slack_id": "U092CFP733J", "display_name": "Eurydice Anderson", "bio": null, "projects_count": 0, "devlogs_count": 0, "votes_count": 0, "ships_count": 0, "projects": [], "coding_time_seconds": 0, "coding_time_seconds_today": 0, "balance": "You need to have a pocket watcher badge to view this.", "badges": [], "created_at": "2025-06-16T14:57:19.420-04:00", "updated_at": "2025-07-03T19:21:08.963-04:00", "avatar": "https://secure.gravatar.com/avatar/bebc323d5f273d96bc8157af0316b50a.jpg?s=512&d=https%3A%2F%2Fa.slack-edge.com%2Fdf10d%2Fimg%2Favatars%2Fava_0010-512.png", "custom_css": null}, {"id": 2195, "slack_id": "U091Q3TBL66", "display_name": "Hussain Habib", "bio": null, "projects_count": 0, "devlogs_count": 0, "votes_count": 0, "ships_count": 0, "projects": [], "coding_time_seconds": 0, "coding_time_seconds_today": 0, "balance": "You need to have a pocket watcher badge to view this.", "badges": [], "created_at": "2025-06-16T14:57:46.560-04:00", "updated_at": "2025-07-03T19:21:09.262-04:00", "avatar": "https://secure.gravatar.com/avatar/fce6a069f273a63ec80354cdf3f23299.jpg?s=512&d=https%3A%2F%2Fa.slack-edge.com%2Fdf10d%2Fimg%2Favatars%2Fava_0010-512.png", "custom_css": null}, {"id": 2196, "slack_id": "U091H584GD9", "display_name": "Redouane", "bio": null, "projects_count": 0, "devlogs_count": 0, "votes_count": 0, "ships_count": 0, "projects": [], "coding_time_seconds": 0, "coding_time_seconds_today": 0, "balance": "You need to have a pocket watcher badge to view this.", "badges": [], "created_at": "2025-06-16T14:57:55.850-04:00", "updated_at": "2025-07-03T19:21:09.532-04:00", "avatar": "https://secure.gravatar.com/avatar/020f96e5a9f3fb067029919d98887428.jpg?s=512&d=https%3A%2F%2Fa.slack-edge.com%2Fdf10d%2Fimg%2Favatars%2Fava_0009-512.png", "custom_css": null}, {"id": 2197, "slack_id": "U0922K5AGL9", "display_name": "Ankit Singh", "bio": null, "projects_count": 0, "devlogs_count": 0, "votes_count": 0, "ships_count": 0, "projects": [], "coding_time_seconds": 0, "coding_time_seconds_today": 0, "balance": "You need to have a pocket watcher badge to view this.", "badges": [], "created_at": "2025-06-16T14:58:08.636-04:00", "updated_at": "2025-07-03T19:21:09.819-04:00", "avatar": "https://secure.gravatar.com/avatar/9dd6dfde73e1ce8f3c2453b9be408f2b.jpg?s=512&d=https%3A%2F%2Fa.slack-edge.com%2Fdf10d%2Fimg%2Favatars%2Fava_0019-512.png", "custom_css": null}, {"id": 2198, "slack_id": "U092CHEBVFA", "display_name": "Zexi", "bio": null, "projects_count": 0, "devlogs_count": 0, "votes_count": 0, "ships_count": 0, "projects": [], "coding_time_seconds": 0, "coding_time_seconds_today": 0, "balance": "You need to have a pocket watcher badge to view this.", "badges": [], "created_at": "2025-06-16T14:58:38.984-04:00", "updated_at": "2025-07-03T19:21:10.098-04:00", "avatar": "https://secure.gravatar.com/avatar/ffc8de18d1b56a814506c73555ef0219.jpg?s=512&d=https%3A%2F%2Fa.slack-edge.com%2Fdf10d%2Fimg%2Favatars%2Fava_0005-512.png", "custom_css": null}, {"id": 2199, "slack_id": "U091N4RPWTX", "display_name": "HB", "bio": null, "projects_count": 0, "devlogs_count": 0, "votes_count": 0, "ships_count": 0, "projects": [], "coding_time_seconds": 0, "coding_time_seconds_today": 0, "balance": "You need to have a pocket watcher badge to view this.", "badges": [], "created_at": "2025-06-16T14:58:39.393-04:00", "updated_at": "2025-07-03T19:21:10.375-04:00", "avatar": "https://secure.gravatar.com/avatar/a610cc086d62948efc2d53659eb39caa.jpg?s=512&d=https%3A%2F%2Fa.slack-edge.com%2Fdf10d%2Fimg%2Favatars%2Fava_0006-512.png", "custom_css": null}, {"id": 2200, "slack_id": "U0918Q6TB7Z", "display_name": "Simon", "bio": null, "projects_count": 0, "devlogs_count": 0, "votes_count": 0, "ships_count": 0, "projects": [], "coding_time_seconds": 0, "coding_time_seconds_today": 0, "balance": "You need to have a pocket watcher badge to view this.", "badges": [], "created_at": "2025-06-16T14:58:42.277-04:00", "updated_at": "2025-07-03T19:21:10.655-04:00", "avatar": "https://secure.gravatar.com/avatar/7ca954103255a99ef34fcc28610c509c.jpg?s=512&d=https%3A%2F%2Fa.slack-edge.com%2Fdf10d%2Fimg%2Favatars%2Fava_0012-512.png", "custom_css": null}], "pagination": {"page": 110, "pages": 1192, "count": 23828, "items": 20}}