{"users": [{"id": 22066, "slack_id": "U09B3S7TZ4N", "display_name": "Hiral Singhal", "bio": null, "projects_count": 0, "devlogs_count": 0, "votes_count": 0, "ships_count": 0, "projects": [], "coding_time_seconds": 0, "coding_time_seconds_today": 0, "balance": "You need to have a pocket watcher badge to view this.", "badges": [], "created_at": "2025-08-19T11:01:30.352-04:00", "updated_at": "2025-09-19T14:00:04.532-04:00", "avatar": "https://secure.gravatar.com/avatar/3e4b6dcd62942cce3ee0b68b914706c5.jpg?s=512&d=https%3A%2F%2Fa.slack-edge.com%2Fdf10d%2Fimg%2Favatars%2Fava_0002-512.png", "custom_css": null}, {"id": 22067, "slack_id": "U09AQ05M6HM", "display_name": "C B Sajan", "bio": null, "projects_count": 0, "devlogs_count": 0, "votes_count": 0, "ships_count": 0, "projects": [], "coding_time_seconds": 1728, "coding_time_seconds_today": 0, "balance": "You need to have a pocket watcher badge to view this.", "badges": [], "created_at": "2025-08-19T11:23:03.533-04:00", "updated_at": "2025-08-19T21:58:21.099-04:00", "avatar": "https://secure.gravatar.com/avatar/a421b09baa00e23ebd2eb44fb2ca040c.jpg?s=512&d=https%3A%2F%2Fa.slack-edge.com%2Fdf10d%2Fimg%2Favatars%2Fava_0023-512.png", "custom_css": null}, {"id": 22068, "slack_id": "U082TU5A2UF", "display_name": "Wika", "bio": null, "projects_count": 0, "devlogs_count": 0, "votes_count": 0, "ships_count": 0, "projects": [], "coding_time_seconds": 0, "coding_time_seconds_today": 0, "balance": "You need to have a pocket watcher badge to view this.", "badges": [], "created_at": "2025-08-19T11:25:41.214-04:00", "updated_at": "2025-09-04T23:08:48.178-04:00", "avatar": "https://avatars.slack-edge.com/2025-01-13/8298836491089_b88d3fb33228b0d21e6b_original.png", "custom_css": null}, {"id": 22069, "slack_id": "U08K09766H1", "display_name": "ZZIanis", "bio": null, "projects_count": 0, "devlogs_count": 0, "votes_count": 0, "ships_count": 0, "projects": [], "coding_time_seconds": 0, "coding_time_seconds_today": 0, "balance": "You need to have a pocket watcher badge to view this.", "badges": [], "created_at": "2025-08-19T11:26:24.758-04:00", "updated_at": "2025-08-19T21:58:21.334-04:00", "avatar": "https://secure.gravatar.com/avatar/603736e5e2d8a67c2439fc0c395e427b.jpg?s=512&d=https%3A%2F%2Fa.slack-edge.com%2Fdf10d%2Fimg%2Favatars%2Fava_0006-512.png", "custom_css": null}, {"id": 22070, "slack_id": "U09B5UWBPA8", "display_name": "Ian Chen", "bio": null, "projects_count": 0, "devlogs_count": 0, "votes_count": 0, "ships_count": 0, "projects": [], "coding_time_seconds": 0, "coding_time_seconds_today": 0, "balance": "You need to have a pocket watcher badge to view this.", "badges": [], "created_at": "2025-08-19T11:45:33.512-04:00", "updated_at": "2025-08-19T21:58:21.434-04:00", "avatar": "https://secure.gravatar.com/avatar/930026eedc202be7ab1fcc81e7c8554b.jpg?s=512&d=https%3A%2F%2Fa.slack-edge.com%2Fdf10d%2Fimg%2Favatars%2Fava_0016-512.png", "custom_css": null}, {"id": 22071, "slack_id": "U09AQ5ANPUP", "display_name": "drew_wys", "bio": null, "projects_count": 0, "devlogs_count": 0, "votes_count": 0, "ships_count": 0, "projects": [], "coding_time_seconds": 0, "coding_time_seconds_today": 0, "balance": "You need to have a pocket watcher badge to view this.", "badges": [], "created_at": "2025-08-19T11:49:46.427-04:00", "updated_at": "2025-08-19T21:58:21.541-04:00", "avatar": "https://secure.gravatar.com/avatar/a883d362a02b3887ad699831b952f547.jpg?s=512&d=https%3A%2F%2Fa.slack-edge.com%2Fdf10d%2Fimg%2Favatars%2Fava_0018-512.png", "custom_css": null}, {"id": 22072, "slack_id": "U09BER6CK7T", "display_name": "Arahsay Zijlstra", "bio": null, "projects_count": 0, "devlogs_count": 0, "votes_count": 0, "ships_count": 0, "projects": [], "coding_time_seconds": 0, "coding_time_seconds_today": 0, "balance": "You need to have a pocket watcher badge to view this.", "badges": [], "created_at": "2025-08-19T12:04:59.845-04:00", "updated_at": "2025-08-19T21:58:21.627-04:00", "avatar": "https://secure.gravatar.com/avatar/2ce09057e1d11a66daad414111cff6b5.jpg?s=512&d=https%3A%2F%2Fa.slack-edge.com%2Fdf10d%2Fimg%2Favatars%2Fava_0017-512.png", "custom_css": null}, {"id": 22073, "slack_id": "U09B4C67MML", "display_name": "k", "bio": null, "projects_count": 0, "devlogs_count": 0, "votes_count": 0, "ships_count": 0, "projects": [], "coding_time_seconds": 0, "coding_time_seconds_today": 0, "balance": "You need to have a pocket watcher badge to view this.", "badges": [], "created_at": "2025-08-19T12:17:42.513-04:00", "updated_at": "2025-08-19T21:58:21.746-04:00", "avatar": "https://secure.gravatar.com/avatar/f12febbb03b31fb95e1357a913c6e0a7.jpg?s=512&d=https%3A%2F%2Fa.slack-edge.com%2Fdf10d%2Fimg%2Favatars%2Fava_0021-512.png", "custom_css": null}, {"id": 22074, "slack_id": "U09B2BN5LHY", "display_name": "Arjun Singh", "bio": null, "projects_count": 0, "devlogs_count": 0, "votes_count": 0, "ships_count": 0, "projects": [], "coding_time_seconds": 0, "coding_time_seconds_today": 0, "balance": "You need to have a pocket watcher badge to view this.", "badges": [], "created_at": "2025-08-19T12:24:58.684-04:00", "updated_at": "2025-08-19T21:58:21.845-04:00", "avatar": "https://avatars.slack-edge.com/2025-08-19/9378475044262_ba99df4c1e1dccf6379d_original.png", "custom_css": null}, {"id": 22075, "slack_id": "U09B4DEC4TY", "display_name": "Cem Karagoz", "bio": null, "projects_count": 0, "devlogs_count": 0, "votes_count": 0, "ships_count": 0, "projects": [], "coding_time_seconds": 0, "coding_time_seconds_today": 0, "balance": "You need to have a pocket watcher badge to view this.", "badges": [], "created_at": "2025-08-19T12:25:20.425-04:00", "updated_at": "2025-08-19T21:58:21.933-04:00", "avatar": "https://secure.gravatar.com/avatar/4fea7fab942dc7110eded9b90e21b687.jpg?s=512&d=https%3A%2F%2Fa.slack-edge.com%2Fdf10d%2Fimg%2Favatars%2Fava_0012-512.png", "custom_css": null}, {"id": 22076, "slack_id": "U09B68GART6", "display_name": "Shah", "bio": null, "projects_count": 0, "devlogs_count": 0, "votes_count": 0, "ships_count": 0, "projects": [], "coding_time_seconds": 0, "coding_time_seconds_today": 0, "balance": "You need to have a pocket watcher badge to view this.", "badges": [], "created_at": "2025-08-19T12:29:32.540-04:00", "updated_at": "2025-08-19T21:58:22.038-04:00", "avatar": "https://secure.gravatar.com/avatar/9a720b0d4903f6c290244999f7e8778e.jpg?s=512&d=https%3A%2F%2Fa.slack-edge.com%2Fdf10d%2Fimg%2Favatars%2Fava_0020-512.png", "custom_css": null}, {"id": 22077, "slack_id": "U09BVGLUQTA", "display_name": "Gabriel", "bio": null, "projects_count": 0, "devlogs_count": 0, "votes_count": 0, "ships_count": 0, "projects": [], "coding_time_seconds": 1278, "coding_time_seconds_today": 0, "balance": "You need to have a pocket watcher badge to view this.", "badges": [], "created_at": "2025-08-19T12:30:43.427-04:00", "updated_at": "2025-08-19T21:58:22.266-04:00", "avatar": "https://secure.gravatar.com/avatar/650ac1aa41faec4d5c2c916ffd6f8ad9.jpg?s=512&d=https%3A%2F%2Fa.slack-edge.com%2Fdf10d%2Fimg%2Favatars%2Fava_0014-512.png", "custom_css": null}, {"id": 22078, "slack_id": "U09B4EVS494", "display_name": "Tushar", "bio": null, "projects_count": 0, "devlogs_count": 0, "votes_count": 0, "ships_count": 0, "projects": [], "coding_time_seconds": 0, "coding_time_seconds_today": 0, "balance": "You need to have a pocket watcher badge to view this.", "badges": [], "created_at": "2025-08-19T12:31:26.104-04:00", "updated_at": "2025-08-19T21:58:22.362-04:00", "avatar": "https://avatars.slack-edge.com/2025-08-19/9389208355233_28badf70f681e2bc9464_original.jpg", "custom_css": null}, {"id": 22079, "slack_id": "U09B4EQ3Z7G", "display_name": "Hrishabh", "bio": null, "projects_count": 0, "devlogs_count": 0, "votes_count": 0, "ships_count": 0, "projects": [], "coding_time_seconds": 0, "coding_time_seconds_today": 0, "balance": "You need to have a pocket watcher badge to view this.", "badges": [], "created_at": "2025-08-19T12:32:06.189-04:00", "updated_at": "2025-08-19T21:58:22.450-04:00", "avatar": "https://secure.gravatar.com/avatar/5801aeb32814851af9bd7784305ee945.jpg?s=512&d=https%3A%2F%2Fa.slack-edge.com%2Fdf10d%2Fimg%2Favatars%2Fava_0011-512.png", "custom_css": null}, {"id": 22080, "slack_id": "U09B4F0AJA2", "display_name": "Vikash", "bio": null, "projects_count": 0, "devlogs_count": 0, "votes_count": 0, "ships_count": 0, "projects": [], "coding_time_seconds": 0, "coding_time_seconds_today": 0, "balance": "You need to have a pocket watcher badge to view this.", "badges": [], "created_at": "2025-08-19T12:34:49.331-04:00", "updated_at": "2025-08-19T21:58:22.544-04:00", "avatar": "https://secure.gravatar.com/avatar/28c34e494ef6a9533c69069b13770736.jpg?s=512&d=https%3A%2F%2Fa.slack-edge.com%2Fdf10d%2Fimg%2Favatars%2Fava_0025-512.png", "custom_css": null}, {"id": 22081, "slack_id": "U089Q3HQQ6M", "display_name": "TC", "bio": null, "projects_count": 0, "devlogs_count": 0, "votes_count": 0, "ships_count": 0, "projects": [], "coding_time_seconds": 191208, "coding_time_seconds_today": 0, "balance": "You need to have a pocket watcher badge to view this.", "badges": [], "created_at": "2025-08-19T12:35:27.671-04:00", "updated_at": "2025-09-23T19:57:07.356-04:00", "avatar": "https://avatars.slack-edge.com/2025-09-23/9554422292983_74bb359a093d491b97d7_original.png", "custom_css": null}, {"id": 22082, "slack_id": "U09AWQRRYNP", "display_name": "Soman", "bio": null, "projects_count": 0, "devlogs_count": 0, "votes_count": 0, "ships_count": 0, "projects": [], "coding_time_seconds": 0, "coding_time_seconds_today": 0, "balance": "You need to have a pocket watcher badge to view this.", "badges": [], "created_at": "2025-08-19T12:36:54.483-04:00", "updated_at": "2025-08-19T21:58:22.743-04:00", "avatar": "https://avatars.slack-edge.com/2025-08-19/9364512144535_9e406dbf34b554e8fa55_original.jpg", "custom_css": null}, {"id": 22083, "slack_id": "U09B4E9JV3Q", "display_name": "Sofia Soares", "bio": null, "projects_count": 0, "devlogs_count": 0, "votes_count": 0, "ships_count": 0, "projects": [], "coding_time_seconds": 0, "coding_time_seconds_today": 0, "balance": "You need to have a pocket watcher badge to view this.", "badges": [], "created_at": "2025-08-19T12:37:51.970-04:00", "updated_at": "2025-08-19T21:58:26.872-04:00", "avatar": "https://avatars.slack-edge.com/2025-08-19/9380357816052_ad887fcebaa4e692f11d_original.jpg", "custom_css": null}, {"id": 22084, "slack_id": "U09B1052L4V", "display_name": "Malte", "bio": null, "projects_count": 1, "devlogs_count": 0, "votes_count": 0, "ships_count": 0, "projects": [{"id": 11783, "title": "Neural Network", "devlogs_count": 0, "created_at": "2025-08-19T13:16:31.523-04:00"}], "coding_time_seconds": 6217, "coding_time_seconds_today": 0, "balance": "You need to have a pocket watcher badge to view this.", "badges": [], "created_at": "2025-08-19T12:40:10.457-04:00", "updated_at": "2025-08-19T21:58:26.961-04:00", "avatar": "https://avatars.slack-edge.com/2025-08-19/9370877417475_725f2279cc5bb8f9620b_original.png", "custom_css": null}, {"id": 22085, "slack_id": "U09B4GG5AQ6", "display_name": "Pranika", "bio": "Drawn to ideas that don\u2019t yet have answers, I enjoy working with quiet focus and a curious mind. I think best in patterns, build with intention, and find meaning in solving what others might overlook.", "projects_count": 0, "devlogs_count": 0, "votes_count": 0, "ships_count": 0, "projects": [], "coding_time_seconds": 0, "coding_time_seconds_today": 0, "balance": "You need to have a pocket watcher badge to view this.", "badges": [], "created_at": "2025-08-19T12:41:52.237-04:00", "updated_at": "2025-09-13T00:23:44.647-04:00", "avatar": "https://avatars.slack-edge.com/2025-08-19/9380607725428_19114fe6b1d70d67fede_original.jpg", "custom_css": null}], "pagination": {"page": 1100, "pages": 1192, "count": 23828, "items": 20}}