{"users": [{"id": 22086, "slack_id": "U09BF6J07QR", "display_name": "ali roodaki", "bio": null, "projects_count": 0, "devlogs_count": 0, "votes_count": 0, "ships_count": 0, "projects": [], "coding_time_seconds": 0, "coding_time_seconds_today": 0, "balance": "You need to have a pocket watcher badge to view this.", "badges": [], "created_at": "2025-08-19T12:42:26.140-04:00", "updated_at": "2025-08-19T21:58:27.198-04:00", "avatar": "https://secure.gravatar.com/avatar/94ac9f4a872040a6853a7c8b93c416cb.jpg?s=512&d=https%3A%2F%2Fa.slack-edge.com%2Fdf10d%2Fimg%2Favatars%2Fava_0011-512.png", "custom_css": null}, {"id": 22087, "slack_id": "U09BVL57C48", "display_name": "Aman Verma", "bio": null, "projects_count": 1, "devlogs_count": 2, "votes_count": 18, "ships_count": 1, "projects": [{"id": 11793, "title": "Focus Timer", "devlogs_count": 2, "created_at": "2025-08-19T14:20:26.130-04:00"}], "coding_time_seconds": 21351, "coding_time_seconds_today": 2209, "balance": "You need to have a pocket watcher badge to view this.", "badges": [], "created_at": "2025-08-19T12:45:00.249-04:00", "updated_at": "2025-08-19T21:58:27.289-04:00", "avatar": "https://avatars.slack-edge.com/2025-08-19/9376597504482_711842b6db1d95a85f41_original.png", "custom_css": null}, {"id": 22088, "slack_id": "U09B110BBRB", "display_name": "Aniket", "bio": null, "projects_count": 0, "devlogs_count": 0, "votes_count": 0, "ships_count": 0, "projects": [], "coding_time_seconds": 124813, "coding_time_seconds_today": 1992, "balance": "You need to have a pocket watcher badge to view this.", "badges": [], "created_at": "2025-08-19T12:46:12.478-04:00", "updated_at": "2025-08-19T21:58:27.385-04:00", "avatar": "https://secure.gravatar.com/avatar/6583685ff29f389c9de871d77c8cbdf2.jpg?s=512&d=https%3A%2F%2Fa.slack-edge.com%2Fdf10d%2Fimg%2Favatars%2Fava_0004-512.png", "custom_css": null}, {"id": 22089, "slack_id": "U09BVLNUT5E", "display_name": "Pragathi", "bio": null, "projects_count": 0, "devlogs_count": 0, "votes_count": 0, "ships_count": 0, "projects": [], "coding_time_seconds": 0, "coding_time_seconds_today": 0, "balance": "You need to have a pocket watcher badge to view this.", "badges": [], "created_at": "2025-08-19T12:48:32.840-04:00", "updated_at": "2025-08-19T21:58:27.477-04:00", "avatar": "https://secure.gravatar.com/avatar/ed31ebc18beab19a320344715390e6f6.jpg?s=512&d=https%3A%2F%2Fa.slack-edge.com%2Fdf10d%2Fimg%2Favatars%2Fava_0002-512.png", "custom_css": null}, {"id": 22090, "slack_id": "U09B2J07L3U", "display_name": "Agneay B Nair", "bio": null, "projects_count": 0, "devlogs_count": 0, "votes_count": 0, "ships_count": 0, "projects": [], "coding_time_seconds": 0, "coding_time_seconds_today": 0, "balance": "You need to have a pocket watcher badge to view this.", "badges": [], "created_at": "2025-08-19T12:49:24.660-04:00", "updated_at": "2025-08-19T21:58:27.571-04:00", "avatar": "https://avatars.slack-edge.com/2025-08-19/9376622966306_ee86395e8fef08d680ec_original.png", "custom_css": null}, {"id": 22091, "slack_id": "U09BVLSS6M6", "display_name": "samliu (alt efdoichfd)", "bio": null, "projects_count": 0, "devlogs_count": 1, "votes_count": 0, "ships_count": 0, "projects": [], "coding_time_seconds": 4412, "coding_time_seconds_today": 0, "balance": "You need to have a pocket watcher badge to view this.", "badges": [], "created_at": "2025-08-19T12:49:37.714-04:00", "updated_at": "2025-08-19T21:58:27.746-04:00", "avatar": "https://secure.gravatar.com/avatar/cc1b3d33bbce1382d5e1babb3ac56f2f.jpg?s=512&d=https%3A%2F%2Fa.slack-edge.com%2Fdf10d%2Fimg%2Favatars%2Fava_0017-512.png", "custom_css": null}, {"id": 22092, "slack_id": "U09B4DZCGPQ", "display_name": "Ramakrishnaa R", "bio": null, "projects_count": 0, "devlogs_count": 0, "votes_count": 0, "ships_count": 0, "projects": [], "coding_time_seconds": 0, "coding_time_seconds_today": 0, "balance": "You need to have a pocket watcher badge to view this.", "badges": [], "created_at": "2025-08-19T12:53:56.740-04:00", "updated_at": "2025-08-19T21:58:27.862-04:00", "avatar": "https://secure.gravatar.com/avatar/9d9d12808ad6e58a5216c822e5d99af5.jpg?s=512&d=https%3A%2F%2Fa.slack-edge.com%2Fdf10d%2Fimg%2Favatars%2Fava_0015-512.png", "custom_css": null}, {"id": 22093, "slack_id": "U09AWTWSVFV", "display_name": "sureshyarava", "bio": null, "projects_count": 0, "devlogs_count": 0, "votes_count": 0, "ships_count": 0, "projects": [], "coding_time_seconds": 25165, "coding_time_seconds_today": 0, "balance": "You need to have a pocket watcher badge to view this.", "badges": [], "created_at": "2025-08-19T12:55:53.589-04:00", "updated_at": "2025-08-19T21:58:27.962-04:00", "avatar": "https://secure.gravatar.com/avatar/0218440a3a3f5a4f7f717975a51b5e4c.jpg?s=512&d=https%3A%2F%2Fa.slack-edge.com%2Fdf10d%2Fimg%2Favatars%2Fava_0021-512.png", "custom_css": null}, {"id": 22094, "slack_id": "U09B6CXKN20", "display_name": "loheeshan", "bio": null, "projects_count": 0, "devlogs_count": 0, "votes_count": 0, "ships_count": 0, "projects": [], "coding_time_seconds": 0, "coding_time_seconds_today": 0, "balance": "You need to have a pocket watcher badge to view this.", "badges": [], "created_at": "2025-08-19T12:56:26.088-04:00", "updated_at": "2025-08-19T21:58:28.062-04:00", "avatar": "https://secure.gravatar.com/avatar/412cb8ef433c5fb6d46c4316f8fe8c0a.jpg?s=512&d=https%3A%2F%2Fa.slack-edge.com%2Fdf10d%2Fimg%2Favatars%2Fava_0007-512.png", "custom_css": null}, {"id": 22095, "slack_id": "U09B6D8B9S8", "display_name": "VISHALBHAI BARAIYA (baraiya79)", "bio": null, "projects_count": 0, "devlogs_count": 0, "votes_count": 0, "ships_count": 0, "projects": [], "coding_time_seconds": 0, "coding_time_seconds_today": 0, "balance": "You need to have a pocket watcher badge to view this.", "badges": [], "created_at": "2025-08-19T12:57:40.733-04:00", "updated_at": "2025-08-19T21:58:28.197-04:00", "avatar": "https://avatars.slack-edge.com/2025-08-19/9380469417300_d44d322310740510352f_original.jpg", "custom_css": null}, {"id": 22096, "slack_id": "U091R9409DY", "display_name": "Almesa Metohu", "bio": null, "projects_count": 0, "devlogs_count": 0, "votes_count": 0, "ships_count": 0, "projects": [], "coding_time_seconds": 0, "coding_time_seconds_today": 0, "balance": "You need to have a pocket watcher badge to view this.", "badges": [], "created_at": "2025-08-19T12:57:54.197-04:00", "updated_at": "2025-08-19T21:58:28.299-04:00", "avatar": "https://secure.gravatar.com/avatar/c8236b526222d34881a251e5f6e850d4.jpg?s=512&d=https%3A%2F%2Fa.slack-edge.com%2Fdf10d%2Fimg%2Favatars%2Fava_0024-512.png", "custom_css": null}, {"id": 22097, "slack_id": "U09B2KZASDQ", "display_name": "ProCoder", "bio": null, "projects_count": 0, "devlogs_count": 0, "votes_count": 0, "ships_count": 0, "projects": [], "coding_time_seconds": 0, "coding_time_seconds_today": 0, "balance": "You need to have a pocket watcher badge to view this.", "badges": [], "created_at": "2025-08-19T13:01:39.490-04:00", "updated_at": "2025-08-19T21:58:32.567-04:00", "avatar": "https://secure.gravatar.com/avatar/0b39c0a87cdb682e13673cdfe92b2c36.jpg?s=512&d=https%3A%2F%2Fa.slack-edge.com%2Fdf10d%2Fimg%2Favatars%2Fava_0022-512.png", "custom_css": null}, {"id": 22098, "slack_id": "U09B14G7VQV", "display_name": "adarsh tripathi", "bio": null, "projects_count": 1, "devlogs_count": 0, "votes_count": 1, "ships_count": 0, "projects": [{"id": 11785, "title": "self driving car using neural netwrok", "devlogs_count": 0, "created_at": "2025-08-19T13:27:15.801-04:00"}], "coding_time_seconds": 28559, "coding_time_seconds_today": 0, "balance": "You need to have a pocket watcher badge to view this.", "badges": [], "created_at": "2025-08-19T13:02:25.507-04:00", "updated_at": "2025-08-23T12:39:23.126-04:00", "avatar": "https://avatars.slack-edge.com/2025-08-19/9378711341238_16645572739fd3329e8c_original.jpg", "custom_css": null}, {"id": 22099, "slack_id": "U09B4LGTCKY", "display_name": "TAY KAI SHENG _", "bio": null, "projects_count": 0, "devlogs_count": 0, "votes_count": 0, "ships_count": 0, "projects": [], "coding_time_seconds": 160387, "coding_time_seconds_today": 5242, "balance": "You need to have a pocket watcher badge to view this.", "badges": [], "created_at": "2025-08-19T13:02:54.679-04:00", "updated_at": "2025-08-19T21:58:32.775-04:00", "avatar": "https://avatars.slack-edge.com/2025-08-19/9403809671296_6389da8d9448e3167944_original.png", "custom_css": null}, {"id": 22100, "slack_id": "U09B14NR71B", "display_name": "Neksha DeSilva", "bio": "CF. I run CF.", "projects_count": 2, "devlogs_count": 7, "votes_count": 20, "ships_count": 2, "projects": [{"id": 11802, "title": "OpenRockets Developer Network - WEB", "devlogs_count": 6, "created_at": "2025-08-19T16:20:50.098-04:00"}, {"id": 11826, "title": "CityofGits (Minecraft Lite)", "devlogs_count": 1, "created_at": "2025-08-20T01:37:07.769-04:00"}], "coding_time_seconds": 51709, "coding_time_seconds_today": 0, "balance": "You need to have a pocket watcher badge to view this.", "badges": [], "created_at": "2025-08-19T13:04:15.117-04:00", "updated_at": "2025-09-06T15:57:23.451-04:00", "avatar": "https://avatars.slack-edge.com/2025-09-06/9472946920166_6d8095599c75485b2280_original.jpg", "custom_css": null}, {"id": 22101, "slack_id": "U061778D74K", "display_name": "Kokonico", "bio": "", "projects_count": 0, "devlogs_count": 0, "votes_count": 0, "ships_count": 0, "projects": [], "coding_time_seconds": 13168, "coding_time_seconds_today": 0, "balance": "You need to have a pocket watcher badge to view this.", "badges": [], "created_at": "2025-08-19T13:04:41.166-04:00", "updated_at": "2025-08-19T21:58:32.982-04:00", "avatar": "https://avatars.slack-edge.com/2024-08-16/7584547648597_b7e749cd23f224059369_original.jpg", "custom_css": null}, {"id": 22102, "slack_id": "U09B6F8ST44", "display_name": "AARUSH MASTER", "bio": null, "projects_count": 0, "devlogs_count": 0, "votes_count": 6, "ships_count": 0, "projects": [], "coding_time_seconds": 89929, "coding_time_seconds_today": 0, "balance": "You need to have a pocket watcher badge to view this.", "badges": [], "created_at": "2025-08-19T13:06:22.150-04:00", "updated_at": "2025-08-20T10:16:54.179-04:00", "avatar": "https://secure.gravatar.com/avatar/7a14f8ef13bdbb0ebf990fc34a166c1c.jpg?s=512&d=https%3A%2F%2Fa.slack-edge.com%2Fdf10d%2Fimg%2Favatars%2Fava_0025-512.png", "custom_css": null}, {"id": 22103, "slack_id": "U09AWTYTG1H", "display_name": "windfork", "bio": null, "projects_count": 0, "devlogs_count": 0, "votes_count": 0, "ships_count": 0, "projects": [], "coding_time_seconds": 0, "coding_time_seconds_today": 0, "balance": "You need to have a pocket watcher badge to view this.", "badges": [], "created_at": "2025-08-19T13:06:22.726-04:00", "updated_at": "2025-08-19T21:58:33.299-04:00", "avatar": "https://secure.gravatar.com/avatar/6409084fef558c07857337468d577ef4.jpg?s=512&d=https%3A%2F%2Fa.slack-edge.com%2Fdf10d%2Fimg%2Favatars%2Fava_0013-512.png", "custom_css": null}, {"id": 22104, "slack_id": "U09B4LH8YJJ", "display_name": "TXO R", "bio": null, "projects_count": 0, "devlogs_count": 0, "votes_count": 0, "ships_count": 0, "projects": [], "coding_time_seconds": 0, "coding_time_seconds_today": 0, "balance": "You need to have a pocket watcher badge to view this.", "badges": [], "created_at": "2025-08-19T13:06:31.513-04:00", "updated_at": "2025-08-19T21:58:33.416-04:00", "avatar": "https://secure.gravatar.com/avatar/09245b7c4a62a9c0a75d17199b88cf04.jpg?s=512&d=https%3A%2F%2Fa.slack-edge.com%2Fdf10d%2Fimg%2Favatars%2Fava_0016-512.png", "custom_css": null}, {"id": 22105, "slack_id": "U09B6DM102G", "display_name": "lahneji", "bio": null, "projects_count": 0, "devlogs_count": 0, "votes_count": 0, "ships_count": 0, "projects": [], "coding_time_seconds": 0, "coding_time_seconds_today": 0, "balance": "You need to have a pocket watcher badge to view this.", "badges": [], "created_at": "2025-08-19T13:07:16.962-04:00", "updated_at": "2025-08-19T21:58:33.536-04:00", "avatar": "https://avatars.slack-edge.com/2025-08-19/9403846325792_25debf513531b6674da8_original.jpg", "custom_css": null}], "pagination": {"page": 1101, "pages": 1192, "count": 23828, "items": 20}}