{"users": [{"id": 22106, "slack_id": "U09BVQ9MZCG", "display_name": "Neetigya shah", "bio": null, "projects_count": 0, "devlogs_count": 0, "votes_count": 0, "ships_count": 0, "projects": [], "coding_time_seconds": 0, "coding_time_seconds_today": 0, "balance": "You need to have a pocket watcher badge to view this.", "badges": [], "created_at": "2025-08-19T13:07:56.276-04:00", "updated_at": "2025-08-19T21:58:33.675-04:00", "avatar": "https://avatars.slack-edge.com/2025-08-19/9376737341442_76ad89a52221051c3988_original.jpg", "custom_css": null}, {"id": 22107, "slack_id": "U09B6FQANN8", "display_name": "Hafiz Kharboutly", "bio": "", "projects_count": 0, "devlogs_count": 0, "votes_count": 0, "ships_count": 0, "projects": [], "coding_time_seconds": 27, "coding_time_seconds_today": 0, "balance": "You need to have a pocket watcher badge to view this.", "badges": [], "created_at": "2025-08-19T13:10:48.220-04:00", "updated_at": "2025-08-19T21:58:33.801-04:00", "avatar": "https://secure.gravatar.com/avatar/05872f48c3a022e0a738dcfdad331e52.jpg?s=512&d=https%3A%2F%2Fa.slack-edge.com%2Fdf10d%2Fimg%2Favatars%2Fava_0011-512.png", "custom_css": null}, {"id": 22108, "slack_id": "U07GQ5UV90Q", "display_name": "Gaia", "bio": null, "projects_count": 1, "devlogs_count": 1, "votes_count": 4, "ships_count": 0, "projects": [{"id": 11947, "title": "cicly", "devlogs_count": 1, "created_at": "2025-08-21T11:15:05.805-04:00"}], "coding_time_seconds": 164225, "coding_time_seconds_today": 0, "balance": "You need to have a pocket watcher badge to view this.", "badges": [], "created_at": "2025-08-19T13:11:27.617-04:00", "updated_at": "2025-08-21T14:30:05.730-04:00", "avatar": "https://avatars.slack-edge.com/2025-08-19/9375431728214_a24bebece264bedf6fc6_original.jpg", "custom_css": null}, {"id": 22109, "slack_id": "U09B4N95W7Q", "display_name": "arife", "bio": null, "projects_count": 0, "devlogs_count": 0, "votes_count": 0, "ships_count": 0, "projects": [], "coding_time_seconds": 3573, "coding_time_seconds_today": 0, "balance": "You need to have a pocket watcher badge to view this.", "badges": [], "created_at": "2025-08-19T13:13:12.461-04:00", "updated_at": "2025-08-19T21:58:34.065-04:00", "avatar": "https://secure.gravatar.com/avatar/324ab3dda32d3214731afc98cff1b0a1.jpg?s=512&d=https%3A%2F%2Fa.slack-edge.com%2Fdf10d%2Fimg%2Favatars%2Fava_0003-512.png", "custom_css": null}, {"id": 22110, "slack_id": "U09BVQZE1AL", "display_name": "Montassar Taieb", "bio": null, "projects_count": 0, "devlogs_count": 0, "votes_count": 0, "ships_count": 0, "projects": [], "coding_time_seconds": 0, "coding_time_seconds_today": 0, "balance": "You need to have a pocket watcher badge to view this.", "badges": [], "created_at": "2025-08-19T13:13:53.542-04:00", "updated_at": "2025-08-19T21:58:34.160-04:00", "avatar": "https://secure.gravatar.com/avatar/1b0e84b664ad29c648b7f8db7ee4533b.jpg?s=512&d=https%3A%2F%2Fa.slack-edge.com%2Fdf10d%2Fimg%2Favatars%2Fava_0000-512.png", "custom_css": null}, {"id": 22111, "slack_id": "U09AX2EDWKV", "display_name": "montassar", "bio": null, "projects_count": 0, "devlogs_count": 0, "votes_count": 0, "ships_count": 0, "projects": [], "coding_time_seconds": 0, "coding_time_seconds_today": 0, "balance": "You need to have a pocket watcher badge to view this.", "badges": [], "created_at": "2025-08-19T13:14:57.718-04:00", "updated_at": "2025-08-19T21:58:34.291-04:00", "avatar": "https://secure.gravatar.com/avatar/c9158b4e13293ab7b0c98fd71af74550.jpg?s=512&d=https%3A%2F%2Fa.slack-edge.com%2Fdf10d%2Fimg%2Favatars%2Fava_0013-512.png", "custom_css": null}, {"id": 22112, "slack_id": "U09AWQMFW7M", "display_name": "Aliyu", "bio": null, "projects_count": 0, "devlogs_count": 0, "votes_count": 0, "ships_count": 0, "projects": [], "coding_time_seconds": 29993, "coding_time_seconds_today": 0, "balance": "You need to have a pocket watcher badge to view this.", "badges": [], "created_at": "2025-08-19T13:17:32.590-04:00", "updated_at": "2025-08-19T21:58:34.500-04:00", "avatar": "https://secure.gravatar.com/avatar/58d38b70b656b1f8d3990f0027ad1d58.jpg?s=512&d=https%3A%2F%2Fa.slack-edge.com%2Fdf10d%2Fimg%2Favatars%2Fava_0016-512.png", "custom_css": null}, {"id": 22113, "slack_id": "U09AQPA3N87", "display_name": "BlackDiamond", "bio": null, "projects_count": 0, "devlogs_count": 0, "votes_count": 0, "ships_count": 0, "projects": [], "coding_time_seconds": 1673, "coding_time_seconds_today": 0, "balance": "You need to have a pocket watcher badge to view this.", "badges": [], "created_at": "2025-08-19T13:25:27.115-04:00", "updated_at": "2025-08-19T21:58:34.668-04:00", "avatar": "https://secure.gravatar.com/avatar/89aadc8570e66b310718e4da5dbfa3bc.jpg?s=512&d=https%3A%2F%2Fa.slack-edge.com%2Fdf10d%2Fimg%2Favatars%2Fava_0025-512.png", "custom_css": null}, {"id": 22114, "slack_id": "U09B3U09RC6", "display_name": "Pranav", "bio": null, "projects_count": 0, "devlogs_count": 0, "votes_count": 0, "ships_count": 0, "projects": [], "coding_time_seconds": 2078, "coding_time_seconds_today": 0, "balance": "You need to have a pocket watcher badge to view this.", "badges": [], "created_at": "2025-08-19T13:31:30.314-04:00", "updated_at": "2025-08-20T06:11:19.266-04:00", "avatar": "https://secure.gravatar.com/avatar/9658517147a416e15850f1ef3cc3401c.jpg?s=512&d=https%3A%2F%2Fa.slack-edge.com%2Fdf10d%2Fimg%2Favatars%2Fava_0016-512.png", "custom_css": null}, {"id": 22115, "slack_id": "U09AQQ001M5", "display_name": "yasa jaber", "bio": null, "projects_count": 0, "devlogs_count": 0, "votes_count": 0, "ships_count": 0, "projects": [], "coding_time_seconds": 0, "coding_time_seconds_today": 0, "balance": "You need to have a pocket watcher badge to view this.", "badges": [], "created_at": "2025-08-19T13:31:52.998-04:00", "updated_at": "2025-08-19T21:58:35.017-04:00", "avatar": "https://secure.gravatar.com/avatar/665c0677fcfbd92f4a5ed0ea03f681f6.jpg?s=512&d=https%3A%2F%2Fa.slack-edge.com%2Fdf10d%2Fimg%2Favatars%2Fava_0018-512.png", "custom_css": null}, {"id": 22116, "slack_id": "U09B6L21T36", "display_name": "rjd", "bio": null, "projects_count": 0, "devlogs_count": 0, "votes_count": 0, "ships_count": 0, "projects": [], "coding_time_seconds": 459, "coding_time_seconds_today": 0, "balance": "You need to have a pocket watcher badge to view this.", "badges": [], "created_at": "2025-08-19T13:34:31.580-04:00", "updated_at": "2025-08-20T17:59:52.295-04:00", "avatar": "https://avatars.slack-edge.com/2025-08-19/9371224759043_48d3fa6deec6b3db7217_original.png", "custom_css": null}, {"id": 22117, "slack_id": "U09BW0DM080", "display_name": "Abhi Nash", "bio": null, "projects_count": 0, "devlogs_count": 0, "votes_count": 0, "ships_count": 0, "projects": [], "coding_time_seconds": 0, "coding_time_seconds_today": 0, "balance": "You need to have a pocket watcher badge to view this.", "badges": [], "created_at": "2025-08-19T13:39:14.647-04:00", "updated_at": "2025-08-19T21:58:35.219-04:00", "avatar": "https://avatars.slack-edge.com/2025-08-19/9404014171824_c1eecdf4ceaaab0da41d_original.png", "custom_css": null}, {"id": 22118, "slack_id": "U09B4TTEGSJ", "display_name": "Nirajan Bhandari", "bio": null, "projects_count": 0, "devlogs_count": 0, "votes_count": 0, "ships_count": 0, "projects": [], "coding_time_seconds": 0, "coding_time_seconds_today": 0, "balance": "You need to have a pocket watcher badge to view this.", "badges": [], "created_at": "2025-08-19T13:44:35.025-04:00", "updated_at": "2025-08-19T21:58:35.325-04:00", "avatar": "https://secure.gravatar.com/avatar/ce58e489994bf000b7f456610ec68bbd.jpg?s=512&d=https%3A%2F%2Fa.slack-edge.com%2Fdf10d%2Fimg%2Favatars%2Fava_0017-512.png", "custom_css": null}, {"id": 22119, "slack_id": "U09B2SEDD6E", "display_name": "Evelyn Han", "bio": null, "projects_count": 0, "devlogs_count": 0, "votes_count": 0, "ships_count": 0, "projects": [], "coding_time_seconds": 0, "coding_time_seconds_today": 0, "balance": "You need to have a pocket watcher badge to view this.", "badges": [], "created_at": "2025-08-19T13:46:40.917-04:00", "updated_at": "2025-08-23T15:58:53.385-04:00", "avatar": "https://avatars.slack-edge.com/2025-08-23/9385651847735_0ef6c029200e8d4db0bb_original.png", "custom_css": null}, {"id": 22120, "slack_id": "U09B4TYKEP8", "display_name": "Aayush Sharma", "bio": null, "projects_count": 0, "devlogs_count": 0, "votes_count": 0, "ships_count": 0, "projects": [], "coding_time_seconds": 0, "coding_time_seconds_today": 0, "balance": "You need to have a pocket watcher badge to view this.", "badges": [], "created_at": "2025-08-19T13:46:49.095-04:00", "updated_at": "2025-08-19T21:58:35.531-04:00", "avatar": "https://secure.gravatar.com/avatar/abb0018d072822d60d4993d6cab5037b.jpg?s=512&d=https%3A%2F%2Fa.slack-edge.com%2Fdf10d%2Fimg%2Favatars%2Fava_0019-512.png", "custom_css": null}, {"id": 22121, "slack_id": "U09BFJSSXFT", "display_name": "Ajor Saha", "bio": null, "projects_count": 1, "devlogs_count": 0, "votes_count": 0, "ships_count": 0, "projects": [{"id": 11791, "title": "AI Content Studio", "devlogs_count": 0, "created_at": "2025-08-19T14:12:59.587-04:00"}], "coding_time_seconds": 120, "coding_time_seconds_today": 0, "balance": "You need to have a pocket watcher badge to view this.", "badges": [], "created_at": "2025-08-19T13:47:42.096-04:00", "updated_at": "2025-08-19T21:58:35.640-04:00", "avatar": "https://secure.gravatar.com/avatar/74319d3b35b04013949b3cba41097b43.jpg?s=512&d=https%3A%2F%2Fa.slack-edge.com%2Fdf10d%2Fimg%2Favatars%2Fava_0021-512.png", "custom_css": null}, {"id": 22122, "slack_id": "U09BW16T1FS", "display_name": "Pranay", "bio": null, "projects_count": 0, "devlogs_count": 0, "votes_count": 0, "ships_count": 0, "projects": [], "coding_time_seconds": 0, "coding_time_seconds_today": 0, "balance": "You need to have a pocket watcher badge to view this.", "badges": [], "created_at": "2025-08-19T13:47:42.290-04:00", "updated_at": "2025-08-19T21:58:35.781-04:00", "avatar": "https://secure.gravatar.com/avatar/317a8f30bd964dc239c5ed7cdd47dea3.jpg?s=512&d=https%3A%2F%2Fa.slack-edge.com%2Fdf10d%2Fimg%2Favatars%2Fava_0024-512.png", "custom_css": null}, {"id": 22123, "slack_id": "U09APERBVMM", "display_name": "Bal\u00e1zs", "bio": null, "projects_count": 0, "devlogs_count": 0, "votes_count": 0, "ships_count": 0, "projects": [], "coding_time_seconds": 0, "coding_time_seconds_today": 0, "balance": "You need to have a pocket watcher badge to view this.", "badges": [], "created_at": "2025-08-19T13:48:17.064-04:00", "updated_at": "2025-08-19T21:58:35.875-04:00", "avatar": "https://secure.gravatar.com/avatar/3f1a5c7610838f8a346c6ba968bbe351.jpg?s=512&d=https%3A%2F%2Fa.slack-edge.com%2Fdf10d%2Fimg%2Favatars%2Fava_0004-512.png", "custom_css": null}, {"id": 22124, "slack_id": "U09BW0KGFL0", "display_name": "Ananya Nagar", "bio": null, "projects_count": 0, "devlogs_count": 0, "votes_count": 0, "ships_count": 0, "projects": [], "coding_time_seconds": 0, "coding_time_seconds_today": 0, "balance": "You need to have a pocket watcher badge to view this.", "badges": [], "created_at": "2025-08-19T13:48:19.174-04:00", "updated_at": "2025-08-19T21:58:36.008-04:00", "avatar": "https://secure.gravatar.com/avatar/228eceb9a5527e429489cb7ba4bb1c34.jpg?s=512&d=https%3A%2F%2Fa.slack-edge.com%2Fdf10d%2Fimg%2Favatars%2Fava_0024-512.png", "custom_css": null}, {"id": 22125, "slack_id": "U09B2TQGHPU", "display_name": "Ameya Sakpal", "bio": "", "projects_count": 1, "devlogs_count": 1, "votes_count": 1, "ships_count": 0, "projects": [{"id": 11833, "title": "Unit Convertor", "devlogs_count": 1, "created_at": "2025-08-20T04:50:38.157-04:00"}], "coding_time_seconds": 1501, "coding_time_seconds_today": 0, "balance": "You need to have a pocket watcher badge to view this.", "badges": [], "created_at": "2025-08-19T13:49:25.312-04:00", "updated_at": "2025-09-04T21:57:26.821-04:00", "avatar": "https://avatars.slack-edge.com/2025-09-04/9445427880535_1ad0556155697895f4e9_original.jpg", "custom_css": null}], "pagination": {"page": 1102, "pages": 1192, "count": 23828, "items": 20}}