{"users": [{"id": 22126, "slack_id": "U09BW1WNN00", "display_name": "biratdev", "bio": null, "projects_count": 0, "devlogs_count": 0, "votes_count": 0, "ships_count": 0, "projects": [], "coding_time_seconds": 0, "coding_time_seconds_today": 0, "balance": "You need to have a pocket watcher badge to view this.", "badges": [], "created_at": "2025-08-19T13:53:53.461-04:00", "updated_at": "2025-08-25T05:20:41.593-04:00", "avatar": "https://secure.gravatar.com/avatar/6d2a2936c54da7e569d4093a295e9d89.jpg?s=512&d=https%3A%2F%2Fa.slack-edge.com%2Fdf10d%2Fimg%2Favatars%2Fava_0014-512.png", "custom_css": null}, {"id": 22127, "slack_id": "U09AQU83ZNK", "display_name": "Neil Chauhan", "bio": null, "projects_count": 0, "devlogs_count": 0, "votes_count": 0, "ships_count": 0, "projects": [], "coding_time_seconds": 0, "coding_time_seconds_today": 0, "balance": "You need to have a pocket watcher badge to view this.", "badges": [], "created_at": "2025-08-19T13:55:14.034-04:00", "updated_at": "2025-08-19T21:58:36.377-04:00", "avatar": "https://secure.gravatar.com/avatar/09a1a5bb675761b969c01d37f43c2129.jpg?s=512&d=https%3A%2F%2Fa.slack-edge.com%2Fdf10d%2Fimg%2Favatars%2Fava_0011-512.png", "custom_css": null}, {"id": 22128, "slack_id": "U09B4RRTJJJ", "display_name": "Shaikh Mohammadtofik", "bio": null, "projects_count": 0, "devlogs_count": 0, "votes_count": 0, "ships_count": 0, "projects": [], "coding_time_seconds": 0, "coding_time_seconds_today": 0, "balance": "You need to have a pocket watcher badge to view this.", "badges": [], "created_at": "2025-08-19T13:56:32.206-04:00", "updated_at": "2025-08-19T21:58:36.497-04:00", "avatar": "https://secure.gravatar.com/avatar/d79e7ef552dafa7757db054391875634.jpg?s=512&d=https%3A%2F%2Fa.slack-edge.com%2Fdf10d%2Fimg%2Favatars%2Fava_0000-512.png", "custom_css": null}, {"id": 22129, "slack_id": "U09B6P7BR0U", "display_name": "Lakshya Vashisth", "bio": null, "projects_count": 0, "devlogs_count": 0, "votes_count": 0, "ships_count": 0, "projects": [], "coding_time_seconds": 0, "coding_time_seconds_today": 0, "balance": "You need to have a pocket watcher badge to view this.", "badges": [], "created_at": "2025-08-19T13:57:01.971-04:00", "updated_at": "2025-08-19T21:58:36.608-04:00", "avatar": "https://avatars.slack-edge.com/2025-08-19/9380816477972_7fb0a11a0039cdcfcf69_original.jpg", "custom_css": null}, {"id": 22130, "slack_id": "U09AX9YPK43", "display_name": "H\u00f9ng B\u00f9i", "bio": null, "projects_count": 0, "devlogs_count": 0, "votes_count": 0, "ships_count": 0, "projects": [], "coding_time_seconds": 208181, "coding_time_seconds_today": 4167, "balance": "You need to have a pocket watcher badge to view this.", "badges": [], "created_at": "2025-08-19T13:59:54.945-04:00", "updated_at": "2025-08-21T05:15:40.458-04:00", "avatar": "https://avatars.slack-edge.com/2025-08-19/9404124488832_4ec8610082f1edbc534c_original.png", "custom_css": null}, {"id": 22131, "slack_id": "U09BW3VQ0D6", "display_name": "Saurabh Shukla", "bio": null, "projects_count": 0, "devlogs_count": 0, "votes_count": 2, "ships_count": 0, "projects": [], "coding_time_seconds": 18, "coding_time_seconds_today": 0, "balance": "You need to have a pocket watcher badge to view this.", "badges": [], "created_at": "2025-08-19T14:02:42.463-04:00", "updated_at": "2025-08-19T21:58:36.852-04:00", "avatar": "https://avatars.slack-edge.com/2025-08-19/9379068691718_b3b4dbc0b90d9aef522e_original.png", "custom_css": null}, {"id": 22132, "slack_id": "U09B5221DFY", "display_name": "Aryan kumar Singh", "bio": null, "projects_count": 0, "devlogs_count": 0, "votes_count": 0, "ships_count": 0, "projects": [], "coding_time_seconds": 0, "coding_time_seconds_today": 0, "balance": "You need to have a pocket watcher badge to view this.", "badges": [], "created_at": "2025-08-19T14:05:44.948-04:00", "updated_at": "2025-08-19T21:58:36.967-04:00", "avatar": "https://avatars.slack-edge.com/2025-08-19/9389761233153_ed55372ba37ac43be101_original.jpg", "custom_css": null}, {"id": 22133, "slack_id": "U09AR2A3AS3", "display_name": "Thainara", "bio": null, "projects_count": 0, "devlogs_count": 0, "votes_count": 0, "ships_count": 0, "projects": [], "coding_time_seconds": 0, "coding_time_seconds_today": 0, "balance": "You need to have a pocket watcher badge to view this.", "badges": [], "created_at": "2025-08-19T14:12:27.565-04:00", "updated_at": "2025-08-19T21:58:37.096-04:00", "avatar": "https://secure.gravatar.com/avatar/ca2d6f86453b8841873157f067578ef0.jpg?s=512&d=https%3A%2F%2Fa.slack-edge.com%2Fdf10d%2Fimg%2Favatars%2Fava_0000-512.png", "custom_css": null}, {"id": 22134, "slack_id": "U09B53CS1JA", "display_name": "Nimesh Imantha", "bio": null, "projects_count": 0, "devlogs_count": 0, "votes_count": 0, "ships_count": 0, "projects": [], "coding_time_seconds": 0, "coding_time_seconds_today": 0, "balance": "You need to have a pocket watcher badge to view this.", "badges": [], "created_at": "2025-08-19T14:14:34.920-04:00", "updated_at": "2025-08-19T21:58:37.223-04:00", "avatar": "https://secure.gravatar.com/avatar/0b0ff78ff642da18eced2ac7c5faeb7a.jpg?s=512&d=https%3A%2F%2Fa.slack-edge.com%2Fdf10d%2Fimg%2Favatars%2Fava_0022-512.png", "custom_css": null}, {"id": 22135, "slack_id": "U09B1K50Q6R", "display_name": "oyindamola", "bio": null, "projects_count": 0, "devlogs_count": 0, "votes_count": 0, "ships_count": 0, "projects": [], "coding_time_seconds": 0, "coding_time_seconds_today": 0, "balance": "You need to have a pocket watcher badge to view this.", "badges": [], "created_at": "2025-08-19T14:27:39.535-04:00", "updated_at": "2025-08-19T21:58:37.342-04:00", "avatar": "https://secure.gravatar.com/avatar/f7bef919ee6f6b3f042c55afc18d92e1.jpg?s=512&d=https%3A%2F%2Fa.slack-edge.com%2Fdf10d%2Fimg%2Favatars%2Fava_0010-512.png", "custom_css": null}, {"id": 22136, "slack_id": "U09BFRNKQMP", "display_name": "Rishabh Kumar Singh", "bio": null, "projects_count": 0, "devlogs_count": 0, "votes_count": 0, "ships_count": 0, "projects": [], "coding_time_seconds": 0, "coding_time_seconds_today": 0, "balance": "You need to have a pocket watcher badge to view this.", "badges": [], "created_at": "2025-08-19T14:31:01.607-04:00", "updated_at": "2025-08-19T21:58:37.438-04:00", "avatar": "https://secure.gravatar.com/avatar/81d4da974bb0228ed56f8e5a37a3a8c7.jpg?s=512&d=https%3A%2F%2Fa.slack-edge.com%2Fdf10d%2Fimg%2Favatars%2Fava_0003-512.png", "custom_css": null}, {"id": 22137, "slack_id": "U09AR7V0PSB", "display_name": "Michael Umeokoli", "bio": null, "projects_count": 0, "devlogs_count": 0, "votes_count": 0, "ships_count": 0, "projects": [], "coding_time_seconds": 47574, "coding_time_seconds_today": 0, "balance": "You need to have a pocket watcher badge to view this.", "badges": [], "created_at": "2025-08-19T14:47:21.080-04:00", "updated_at": "2025-08-19T21:58:37.948-04:00", "avatar": "https://avatars.slack-edge.com/2025-08-19/9365291965623_c5d53f0f706c5ae20a1d_original.png", "custom_css": null}, {"id": 22138, "slack_id": "U09B2BQ9MFC", "display_name": "Dupai \u00c1kos Ferenc", "bio": null, "projects_count": 0, "devlogs_count": 0, "votes_count": 0, "ships_count": 0, "projects": [], "coding_time_seconds": 0, "coding_time_seconds_today": 0, "balance": "You need to have a pocket watcher badge to view this.", "badges": [], "created_at": "2025-08-19T14:49:50.210-04:00", "updated_at": "2025-08-19T21:58:38.135-04:00", "avatar": "https://secure.gravatar.com/avatar/0182135a7d514df6cb86b049565c228c.jpg?s=512&d=https%3A%2F%2Fa.slack-edge.com%2Fdf10d%2Fimg%2Favatars%2Fava_0012-512.png", "custom_css": null}, {"id": 22139, "slack_id": "U09B73UHE8L", "display_name": "VIJAY REDDY LATTUPALLY", "bio": null, "projects_count": 0, "devlogs_count": 0, "votes_count": 0, "ships_count": 0, "projects": [], "coding_time_seconds": 0, "coding_time_seconds_today": 0, "balance": "You need to have a pocket watcher badge to view this.", "badges": [], "created_at": "2025-08-19T14:55:35.319-04:00", "updated_at": "2025-08-19T21:58:38.506-04:00", "avatar": "https://avatars.slack-edge.com/2025-08-19/9375835150389_28f7245a17b684fee76e_original.png", "custom_css": null}, {"id": 22140, "slack_id": "U09B5BQ0T8W", "display_name": "Ben", "bio": null, "projects_count": 0, "devlogs_count": 0, "votes_count": 0, "ships_count": 0, "projects": [], "coding_time_seconds": 0, "coding_time_seconds_today": 0, "balance": "You need to have a pocket watcher badge to view this.", "badges": [], "created_at": "2025-08-19T15:03:59.034-04:00", "updated_at": "2025-08-20T21:59:31.783-04:00", "avatar": "https://avatars.slack-edge.com/2025-08-20/9392840813489_49f026f2a72779068dc8_original.jpg", "custom_css": null}, {"id": 22141, "slack_id": "U09B1RU4SQ5", "display_name": "R", "bio": null, "projects_count": 0, "devlogs_count": 0, "votes_count": 0, "ships_count": 0, "projects": [], "coding_time_seconds": 0, "coding_time_seconds_today": 0, "balance": "You need to have a pocket watcher badge to view this.", "badges": [], "created_at": "2025-08-19T15:05:14.948-04:00", "updated_at": "2025-08-19T21:58:39.227-04:00", "avatar": "https://secure.gravatar.com/avatar/55a1abee804319fb3f49d21932067064.jpg?s=512&d=https%3A%2F%2Fa.slack-edge.com%2Fdf10d%2Fimg%2Favatars%2Fava_0011-512.png", "custom_css": null}, {"id": 22142, "slack_id": "U09B74ZSPJ8", "display_name": "Ashley Patterson", "bio": null, "projects_count": 0, "devlogs_count": 0, "votes_count": 0, "ships_count": 0, "projects": [], "coding_time_seconds": 0, "coding_time_seconds_today": 0, "balance": "You need to have a pocket watcher badge to view this.", "badges": [], "created_at": "2025-08-19T15:05:40.176-04:00", "updated_at": "2025-08-21T14:29:21.245-04:00", "avatar": "https://secure.gravatar.com/avatar/d51d51defc84eae72bf2e068b11754a4.jpg?s=512&d=https%3A%2F%2Fa.slack-edge.com%2Fdf10d%2Fimg%2Favatars%2Fava_0015-512.png", "custom_css": null}, {"id": 22143, "slack_id": "U09B76D0Q2Y", "display_name": "Arijit Debnath", "bio": null, "projects_count": 0, "devlogs_count": 0, "votes_count": 0, "ships_count": 0, "projects": [], "coding_time_seconds": 0, "coding_time_seconds_today": 0, "balance": "You need to have a pocket watcher badge to view this.", "badges": [], "created_at": "2025-08-19T15:11:37.366-04:00", "updated_at": "2025-08-19T21:58:39.703-04:00", "avatar": "https://secure.gravatar.com/avatar/4534780dd5ec73318083ea1de78186b9.jpg?s=512&d=https%3A%2F%2Fa.slack-edge.com%2Fdf10d%2Fimg%2Favatars%2Fava_0016-512.png", "custom_css": null}, {"id": 22144, "slack_id": "U09B3BZD1PC", "display_name": "Alphamoris", "bio": null, "projects_count": 1, "devlogs_count": 1, "votes_count": 0, "ships_count": 0, "projects": [{"id": 11799, "title": "Website", "devlogs_count": 1, "created_at": "2025-08-19T16:13:28.839-04:00"}], "coding_time_seconds": 12111, "coding_time_seconds_today": 0, "balance": "You need to have a pocket watcher badge to view this.", "badges": [], "created_at": "2025-08-19T15:14:15.294-04:00", "updated_at": "2025-08-19T21:58:39.806-04:00", "avatar": "https://secure.gravatar.com/avatar/7325bf707a0d3b69f62d67bff0bbd68f.jpg?s=512&d=https%3A%2F%2Fa.slack-edge.com%2Fdf10d%2Fimg%2Favatars%2Fava_0022-512.png", "custom_css": null}, {"id": 22145, "slack_id": "U096CRJQP7H", "display_name": "Arnab", "bio": null, "projects_count": 0, "devlogs_count": 0, "votes_count": 0, "ships_count": 0, "projects": [], "coding_time_seconds": 0, "coding_time_seconds_today": 0, "balance": "You need to have a pocket watcher badge to view this.", "badges": [], "created_at": "2025-08-19T15:19:36.940-04:00", "updated_at": "2025-08-19T21:58:39.988-04:00", "avatar": "https://secure.gravatar.com/avatar/b1c644c228019c823ba427d3d0ed9a71.jpg?s=512&d=https%3A%2F%2Fa.slack-edge.com%2Fdf10d%2Fimg%2Favatars%2Fava_0014-512.png", "custom_css": null}], "pagination": {"page": 1103, "pages": 1192, "count": 23828, "items": 20}}