{"users": [{"id": 22146, "slack_id": "U09BG5DUXED", "display_name": "Navin Suman", "bio": null, "projects_count": 0, "devlogs_count": 0, "votes_count": 0, "ships_count": 0, "projects": [], "coding_time_seconds": 0, "coding_time_seconds_today": 0, "balance": "You need to have a pocket watcher badge to view this.", "badges": [], "created_at": "2025-08-19T15:27:17.423-04:00", "updated_at": "2025-08-19T21:58:44.261-04:00", "avatar": "https://secure.gravatar.com/avatar/f3e49bd1d36d7496b9d50114eb24951c.jpg?s=512&d=https%3A%2F%2Fa.slack-edge.com%2Fdf10d%2Fimg%2Favatars%2Fava_0014-512.png", "custom_css": null}, {"id": 22147, "slack_id": "U096BTD44UX", "display_name": "Nylah Johnson", "bio": null, "projects_count": 0, "devlogs_count": 0, "votes_count": 0, "ships_count": 0, "projects": [], "coding_time_seconds": 0, "coding_time_seconds_today": 0, "balance": "You need to have a pocket watcher badge to view this.", "badges": [], "created_at": "2025-08-19T15:30:18.951-04:00", "updated_at": "2025-08-19T21:58:44.590-04:00", "avatar": "https://avatars.slack-edge.com/2025-08-19/9381329859812_ccbe2ea5618d838b85cd_original.png", "custom_css": null}, {"id": 22148, "slack_id": "U082XTDMVJQ", "display_name": "James Hollingsworth", "bio": null, "projects_count": 1, "devlogs_count": 1, "votes_count": 4, "ships_count": 1, "projects": [{"id": 12922, "title": "Government Fact Checker", "devlogs_count": 1, "created_at": "2025-09-05T11:38:39.534-04:00"}], "coding_time_seconds": 59790, "coding_time_seconds_today": 0, "balance": "You need to have a pocket watcher badge to view this.", "badges": [], "created_at": "2025-08-19T15:42:32.722-04:00", "updated_at": "2025-08-19T16:39:23.644-04:00", "avatar": "https://secure.gravatar.com/avatar/1681730d7c8a062c90a28210f3802bd5.jpg?s=512&d=https%3A%2F%2Fa.slack-edge.com%2Fdf10d%2Fimg%2Favatars%2Fava_0002-512.png", "custom_css": null}, {"id": 22149, "slack_id": "U09BG85U3U1", "display_name": "hamzaband4", "bio": null, "projects_count": 0, "devlogs_count": 0, "votes_count": 0, "ships_count": 0, "projects": [], "coding_time_seconds": 0, "coding_time_seconds_today": 0, "balance": "You need to have a pocket watcher badge to view this.", "badges": [], "created_at": "2025-08-19T15:45:11.424-04:00", "updated_at": "2025-08-19T21:58:45.012-04:00", "avatar": "https://secure.gravatar.com/avatar/c567f021c4d8b4bc5bfd62128f70b75c.jpg?s=512&d=https%3A%2F%2Fa.slack-edge.com%2Fdf10d%2Fimg%2Favatars%2Fava_0018-512.png", "custom_css": null}, {"id": 22150, "slack_id": "U09AL654Q5D", "display_name": "Meerthegamer09z Editor", "bio": null, "projects_count": 0, "devlogs_count": 0, "votes_count": 0, "ships_count": 0, "projects": [], "coding_time_seconds": 0, "coding_time_seconds_today": 0, "balance": "You need to have a pocket watcher badge to view this.", "badges": [], "created_at": "2025-08-19T15:48:50.824-04:00", "updated_at": "2025-08-21T10:23:10.073-04:00", "avatar": "https://avatars.slack-edge.com/2025-08-19/9381422042932_955753190b2e75df9419_original.png", "custom_css": null}, {"id": 22151, "slack_id": "U096DGHFP1V", "display_name": "Hieu Tran", "bio": null, "projects_count": 0, "devlogs_count": 0, "votes_count": 0, "ships_count": 0, "projects": [], "coding_time_seconds": 0, "coding_time_seconds_today": 0, "balance": "You need to have a pocket watcher badge to view this.", "badges": [], "created_at": "2025-08-19T15:49:54.780-04:00", "updated_at": "2025-08-19T21:58:45.519-04:00", "avatar": "https://secure.gravatar.com/avatar/f4d7ea26db2279d2f4b6ad0c957cab00.jpg?s=512&d=https%3A%2F%2Fa.slack-edge.com%2Fdf10d%2Fimg%2Favatars%2Fava_0002-512.png", "custom_css": null}, {"id": 22152, "slack_id": "U09B7FQCTUL", "display_name": "samliu (alt efdcxqdwa)", "bio": null, "projects_count": 1, "devlogs_count": 0, "votes_count": 0, "ships_count": 0, "projects": [{"id": 11804, "title": "Test project", "devlogs_count": 0, "created_at": "2025-08-19T16:40:21.077-04:00"}], "coding_time_seconds": 1367, "coding_time_seconds_today": 0, "balance": "You need to have a pocket watcher badge to view this.", "badges": [], "created_at": "2025-08-19T16:12:41.175-04:00", "updated_at": "2025-08-19T21:58:45.753-04:00", "avatar": "https://secure.gravatar.com/avatar/021b98f7ddcbace9ec67fc24cdaa8366.jpg?s=512&d=https%3A%2F%2Fa.slack-edge.com%2Fdf10d%2Fimg%2Favatars%2Fava_0003-512.png", "custom_css": null}, {"id": 22153, "slack_id": "U09B27J73E1", "display_name": "Gopi Banoth", "bio": null, "projects_count": 1, "devlogs_count": 1, "votes_count": 21, "ships_count": 1, "projects": [{"id": 12013, "title": "AI Study Buddy", "devlogs_count": 1, "created_at": "2025-08-22T06:21:24.199-04:00"}], "coding_time_seconds": 29691, "coding_time_seconds_today": 0, "balance": "You need to have a pocket watcher badge to view this.", "badges": [], "created_at": "2025-08-19T16:14:39.097-04:00", "updated_at": "2025-08-22T06:55:07.225-04:00", "avatar": "https://avatars.slack-edge.com/2025-08-21/9390170028388_ec75913d65fcc851f73f_original.jpg", "custom_css": null}, {"id": 22154, "slack_id": "U09BGD85DLZ", "display_name": "Sakketh Rao Juvvadi", "bio": null, "projects_count": 0, "devlogs_count": 0, "votes_count": 0, "ships_count": 0, "projects": [], "coding_time_seconds": 0, "coding_time_seconds_today": 0, "balance": "You need to have a pocket watcher badge to view this.", "badges": [], "created_at": "2025-08-19T16:17:47.140-04:00", "updated_at": "2025-08-19T21:58:46.476-04:00", "avatar": "https://secure.gravatar.com/avatar/ff68903a7b216148f0613c2640dcfa56.jpg?s=512&d=https%3A%2F%2Fa.slack-edge.com%2Fdf10d%2Fimg%2Favatars%2Fava_0005-512.png", "custom_css": null}, {"id": 22155, "slack_id": "U09B3NC9H5Y", "display_name": "Ani Hartzok", "bio": null, "projects_count": 0, "devlogs_count": 0, "votes_count": 0, "ships_count": 0, "projects": [], "coding_time_seconds": 0, "coding_time_seconds_today": 0, "balance": "You need to have a pocket watcher badge to view this.", "badges": [], "created_at": "2025-08-19T16:25:04.492-04:00", "updated_at": "2025-08-19T21:58:46.559-04:00", "avatar": "https://secure.gravatar.com/avatar/e9824ea577b3c8e6cf1345950b4345bc.jpg?s=512&d=https%3A%2F%2Fa.slack-edge.com%2Fdf10d%2Fimg%2Favatars%2Fava_0012-512.png", "custom_css": null}, {"id": 22156, "slack_id": "U09B5QCQ738", "display_name": "Kat Stan", "bio": null, "projects_count": 0, "devlogs_count": 0, "votes_count": 0, "ships_count": 0, "projects": [], "coding_time_seconds": 0, "coding_time_seconds_today": 0, "balance": "You need to have a pocket watcher badge to view this.", "badges": [], "created_at": "2025-08-19T16:26:25.491-04:00", "updated_at": "2025-08-19T21:58:46.676-04:00", "avatar": "https://secure.gravatar.com/avatar/3096edfc344fb33343a517e4b51abe14.jpg?s=512&d=https%3A%2F%2Fa.slack-edge.com%2Fdf10d%2Fimg%2Favatars%2Fava_0015-512.png", "custom_css": null}, {"id": 22157, "slack_id": "U09ARQUU63H", "display_name": "Ariana Fern\u00e1ndez Zanoni", "bio": null, "projects_count": 0, "devlogs_count": 0, "votes_count": 0, "ships_count": 0, "projects": [], "coding_time_seconds": 0, "coding_time_seconds_today": 0, "balance": "You need to have a pocket watcher badge to view this.", "badges": [], "created_at": "2025-08-19T16:32:01.840-04:00", "updated_at": "2025-08-19T21:58:46.789-04:00", "avatar": "https://secure.gravatar.com/avatar/8a9f2b22f25fc7d9cd384760fa94e5de.jpg?s=512&d=https%3A%2F%2Fa.slack-edge.com%2Fdf10d%2Fimg%2Favatars%2Fava_0024-512.png", "custom_css": null}, {"id": 22158, "slack_id": "U09ARTBBS07", "display_name": "Shyaam Nanthan", "bio": "I\u2019m Shyaam, a high school student passionate about aerospace, fluid dynamics, MechE, and engineering design. I love building and experimenting - whether it\u2019s about simulating fluid flow, creating CAD projects, or working on Formula 1 in Schools (F1 fan btw). I\u2019m always looking for ways to connect what I learn in physics and math class to real-world problems, and I see engineering as a path to turn curiosity into solutions that make an impact.", "projects_count": 1, "devlogs_count": 3, "votes_count": 3, "ships_count": 0, "projects": [{"id": 11810, "title": "Str\u00f6mX", "devlogs_count": 3, "created_at": "2025-08-19T17:07:08.720-04:00"}], "coding_time_seconds": 28122, "coding_time_seconds_today": 0, "balance": "You need to have a pocket watcher badge to view this.", "badges": [], "created_at": "2025-08-19T16:48:26.931-04:00", "updated_at": "2025-08-21T03:00:18.503-04:00", "avatar": "https://secure.gravatar.com/avatar/c0077727ff51ef12423601a8d0255c4e.jpg?s=512&d=https%3A%2F%2Fa.slack-edge.com%2Fdf10d%2Fimg%2Favatars%2Fava_0002-512.png", "custom_css": null}, {"id": 22159, "slack_id": "U09AY8NN127", "display_name": "Kenil Gopani", "bio": null, "projects_count": 0, "devlogs_count": 0, "votes_count": 0, "ships_count": 0, "projects": [], "coding_time_seconds": 0, "coding_time_seconds_today": 0, "balance": "You need to have a pocket watcher badge to view this.", "badges": [], "created_at": "2025-08-19T16:51:38.116-04:00", "updated_at": "2025-08-19T21:58:46.994-04:00", "avatar": "https://secure.gravatar.com/avatar/a5d9352b1a34b1750175caf46e232743.jpg?s=512&d=https%3A%2F%2Fa.slack-edge.com%2Fdf10d%2Fimg%2Favatars%2Fava_0014-512.png", "custom_css": null}, {"id": 22160, "slack_id": "U09B5P026PQ", "display_name": "Zoe", "bio": null, "projects_count": 0, "devlogs_count": 0, "votes_count": 0, "ships_count": 0, "projects": [], "coding_time_seconds": 44586, "coding_time_seconds_today": 0, "balance": "You need to have a pocket watcher badge to view this.", "badges": [], "created_at": "2025-08-19T16:51:54.978-04:00", "updated_at": "2025-08-19T21:58:47.101-04:00", "avatar": "https://secure.gravatar.com/avatar/fdb63cdca56dbe1b44951a0311048eed.jpg?s=512&d=https%3A%2F%2Fa.slack-edge.com%2Fdf10d%2Fimg%2Favatars%2Fava_0016-512.png", "custom_css": null}, {"id": 22161, "slack_id": "U096NB50RNF", "display_name": "Blessing Emejulu", "bio": null, "projects_count": 0, "devlogs_count": 0, "votes_count": 0, "ships_count": 0, "projects": [], "coding_time_seconds": 0, "coding_time_seconds_today": 0, "balance": "You need to have a pocket watcher badge to view this.", "badges": [], "created_at": "2025-08-19T17:00:17.096-04:00", "updated_at": "2025-08-19T21:58:47.230-04:00", "avatar": "https://secure.gravatar.com/avatar/a4c16a439667f8a0a0eb368de9a8adb1.jpg?s=512&d=https%3A%2F%2Fa.slack-edge.com%2Fdf10d%2Fimg%2Favatars%2Fava_0005-512.png", "custom_css": null}, {"id": 22162, "slack_id": "U09BGJXRYRX", "display_name": "Pascal Nitschke", "bio": null, "projects_count": 0, "devlogs_count": 0, "votes_count": 0, "ships_count": 0, "projects": [], "coding_time_seconds": 0, "coding_time_seconds_today": 0, "balance": "You need to have a pocket watcher badge to view this.", "badges": [], "created_at": "2025-08-19T17:12:54.862-04:00", "updated_at": "2025-08-19T21:58:47.374-04:00", "avatar": "https://secure.gravatar.com/avatar/aafc0f07bcdb7ac197f7fcd64d0cc413.jpg?s=512&d=https%3A%2F%2Fa.slack-edge.com%2Fdf10d%2Fimg%2Favatars%2Fava_0008-512.png", "custom_css": null}, {"id": 22163, "slack_id": "U09B7QHNGCC", "display_name": "Noga L.", "bio": null, "projects_count": 0, "devlogs_count": 0, "votes_count": 0, "ships_count": 0, "projects": [], "coding_time_seconds": 261051, "coding_time_seconds_today": 0, "balance": "You need to have a pocket watcher badge to view this.", "badges": [], "created_at": "2025-08-19T17:14:06.814-04:00", "updated_at": "2025-09-13T02:14:20.829-04:00", "avatar": "https://avatars.slack-edge.com/2025-08-19/9381900780260_7a14b97e0fac06c932e2_original.png", "custom_css": null}, {"id": 22164, "slack_id": "U096QBTC58E", "display_name": "Anson Kirkland", "bio": null, "projects_count": 0, "devlogs_count": 0, "votes_count": 0, "ships_count": 0, "projects": [], "coding_time_seconds": 0, "coding_time_seconds_today": 0, "balance": "You need to have a pocket watcher badge to view this.", "badges": [], "created_at": "2025-08-19T17:18:38.472-04:00", "updated_at": "2025-08-19T21:58:51.677-04:00", "avatar": "https://secure.gravatar.com/avatar/990a6e2e3a72e7d90ff1773441cdaa42.jpg?s=512&d=https%3A%2F%2Fa.slack-edge.com%2Fdf10d%2Fimg%2Favatars%2Fava_0024-512.png", "custom_css": null}, {"id": 22165, "slack_id": "U08SBP57872", "display_name": "sip", "bio": null, "projects_count": 0, "devlogs_count": 0, "votes_count": 0, "ships_count": 0, "projects": [], "coding_time_seconds": 4743, "coding_time_seconds_today": 0, "balance": "You need to have a pocket watcher badge to view this.", "badges": [], "created_at": "2025-08-19T17:32:50.575-04:00", "updated_at": "2025-08-19T21:58:51.802-04:00", "avatar": "https://secure.gravatar.com/avatar/6632dcc99278042c7145f345d904e126.jpg?s=512&d=https%3A%2F%2Fa.slack-edge.com%2Fdf10d%2Fimg%2Favatars%2Fava_0000-512.png", "custom_css": null}], "pagination": {"page": 1104, "pages": 1192, "count": 23828, "items": 20}}