{"users": [{"id": 22166, "slack_id": "U09B43UCJ1Y", "display_name": "nicole", "bio": null, "projects_count": 0, "devlogs_count": 0, "votes_count": 0, "ships_count": 0, "projects": [], "coding_time_seconds": 0, "coding_time_seconds_today": 0, "balance": "You need to have a pocket watcher badge to view this.", "badges": [], "created_at": "2025-08-19T17:53:30.252-04:00", "updated_at": "2025-08-20T07:57:44.813-04:00", "avatar": "https://secure.gravatar.com/avatar/c6f8347e8f5dcdbc64ef1106c9acb1bf.jpg?s=512&d=https%3A%2F%2Fa.slack-edge.com%2Fdf10d%2Fimg%2Favatars%2Fava_0006-512.png", "custom_css": null}, {"id": 22167, "slack_id": "U09BX8LSJSC", "display_name": "justin", "bio": null, "projects_count": 0, "devlogs_count": 0, "votes_count": 0, "ships_count": 0, "projects": [], "coding_time_seconds": 0, "coding_time_seconds_today": 0, "balance": "You need to have a pocket watcher badge to view this.", "badges": [], "created_at": "2025-08-19T18:00:55.913-04:00", "updated_at": "2025-08-19T21:58:56.537-04:00", "avatar": "https://avatars.slack-edge.com/2025-08-19/9382050785748_39f76e41497ff29ba2b0_original.jpg", "custom_css": null}, {"id": 22168, "slack_id": "U09B821SYJY", "display_name": "Evelyn Garcia", "bio": null, "projects_count": 0, "devlogs_count": 0, "votes_count": 0, "ships_count": 0, "projects": [], "coding_time_seconds": 0, "coding_time_seconds_today": 0, "balance": "You need to have a pocket watcher badge to view this.", "badges": [], "created_at": "2025-08-19T18:12:02.237-04:00", "updated_at": "2025-08-19T21:58:56.658-04:00", "avatar": "https://avatars.slack-edge.com/2025-08-19/9380311728998_78fc9b1a8beb482d12e5_original.jpg", "custom_css": null}, {"id": 22169, "slack_id": "U09B833S5A8", "display_name": "BIG B.", "bio": null, "projects_count": 0, "devlogs_count": 0, "votes_count": 0, "ships_count": 0, "projects": [], "coding_time_seconds": 0, "coding_time_seconds_today": 0, "balance": "You need to have a pocket watcher badge to view this.", "badges": [], "created_at": "2025-08-19T18:19:15.377-04:00", "updated_at": "2025-08-19T21:58:56.898-04:00", "avatar": "https://secure.gravatar.com/avatar/ca0430862cadf4588cf504273718c679.jpg?s=512&d=https%3A%2F%2Fa.slack-edge.com%2Fdf10d%2Fimg%2Favatars%2Fava_0022-512.png", "custom_css": null}, {"id": 22170, "slack_id": "U07U0ERH71V", "display_name": "Ananda", "bio": null, "projects_count": 1, "devlogs_count": 0, "votes_count": 0, "ships_count": 0, "projects": [{"id": 13139, "title": "RSA-encryption", "devlogs_count": 0, "created_at": "2025-09-09T12:44:10.128-04:00"}], "coding_time_seconds": 29481, "coding_time_seconds_today": 0, "balance": "You need to have a pocket watcher badge to view this.", "badges": [], "created_at": "2025-08-19T18:26:21.829-04:00", "updated_at": "2025-09-09T12:40:34.136-04:00", "avatar": "https://secure.gravatar.com/avatar/568256b721378830c70071694a98c0e7.jpg?s=512&d=https%3A%2F%2Fa.slack-edge.com%2Fdf10d%2Fimg%2Favatars%2Fava_0000-512.png", "custom_css": null}, {"id": 22171, "slack_id": "U09BH0LHCMP", "display_name": "M K", "bio": null, "projects_count": 0, "devlogs_count": 0, "votes_count": 0, "ships_count": 0, "projects": [], "coding_time_seconds": 61370, "coding_time_seconds_today": 0, "balance": "You need to have a pocket watcher badge to view this.", "badges": [], "created_at": "2025-08-19T18:29:43.871-04:00", "updated_at": "2025-08-19T21:58:57.351-04:00", "avatar": "https://secure.gravatar.com/avatar/2386cbb523c1ffe2ce1a6e87a27fa65c.jpg?s=512&d=https%3A%2F%2Fa.slack-edge.com%2Fdf10d%2Fimg%2Favatars%2Fava_0004-512.png", "custom_css": null}, {"id": 22172, "slack_id": "U09BH0XSAF3", "display_name": "Patrick To", "bio": null, "projects_count": 0, "devlogs_count": 0, "votes_count": 0, "ships_count": 0, "projects": [], "coding_time_seconds": 0, "coding_time_seconds_today": 0, "balance": "You need to have a pocket watcher badge to view this.", "badges": [], "created_at": "2025-08-19T18:32:24.997-04:00", "updated_at": "2025-08-19T21:59:01.635-04:00", "avatar": "https://secure.gravatar.com/avatar/a1bed5ae173353d20fb38cbee3684308.jpg?s=512&d=https%3A%2F%2Fa.slack-edge.com%2Fdf10d%2Fimg%2Favatars%2Fava_0003-512.png", "custom_css": null}, {"id": 22173, "slack_id": "U09BXC187FS", "display_name": "MinaT", "bio": null, "projects_count": 0, "devlogs_count": 0, "votes_count": 0, "ships_count": 0, "projects": [], "coding_time_seconds": 0, "coding_time_seconds_today": 0, "balance": "You need to have a pocket watcher badge to view this.", "badges": [], "created_at": "2025-08-19T18:35:13.669-04:00", "updated_at": "2025-08-19T21:59:01.716-04:00", "avatar": "https://avatars.slack-edge.com/2025-08-19/9391053763233_43723c3e33e36b02790f_original.png", "custom_css": null}, {"id": 22174, "slack_id": "U09BH13RZR7", "display_name": "Prajay", "bio": null, "projects_count": 0, "devlogs_count": 0, "votes_count": 0, "ships_count": 0, "projects": [], "coding_time_seconds": 0, "coding_time_seconds_today": 0, "balance": "You need to have a pocket watcher badge to view this.", "badges": [], "created_at": "2025-08-19T18:40:07.441-04:00", "updated_at": "2025-08-19T23:23:14.334-04:00", "avatar": "https://avatars.slack-edge.com/2025-08-19/9391069337457_b18a6df3220601288414_original.png", "custom_css": null}, {"id": 22175, "slack_id": "U09ASBWBAVD", "display_name": "Punith N S", "bio": null, "projects_count": 0, "devlogs_count": 0, "votes_count": 0, "ships_count": 0, "projects": [], "coding_time_seconds": 0, "coding_time_seconds_today": 0, "balance": "You need to have a pocket watcher badge to view this.", "badges": [], "created_at": "2025-08-19T18:47:56.954-04:00", "updated_at": "2025-08-19T21:59:01.938-04:00", "avatar": "https://secure.gravatar.com/avatar/fe15aabb32c8a2b753cb4010d241075d.jpg?s=512&d=https%3A%2F%2Fa.slack-edge.com%2Fdf10d%2Fimg%2Favatars%2Fava_0006-512.png", "custom_css": null}, {"id": 22176, "slack_id": "U09B2T1JV8D", "display_name": "Toby", "bio": null, "projects_count": 1, "devlogs_count": 1, "votes_count": 1, "ships_count": 0, "projects": [{"id": 11818, "title": "Wifi Key", "devlogs_count": 1, "created_at": "2025-08-19T20:29:33.810-04:00"}], "coding_time_seconds": 7502, "coding_time_seconds_today": 0, "balance": "You need to have a pocket watcher badge to view this.", "badges": [], "created_at": "2025-08-19T18:51:22.188-04:00", "updated_at": "2025-08-20T03:55:52.885-04:00", "avatar": "https://secure.gravatar.com/avatar/447e720318ff67542e2d197fb2fa1280.jpg?s=512&d=https%3A%2F%2Fa.slack-edge.com%2Fdf10d%2Fimg%2Favatars%2Fava_0008-512.png", "custom_css": null}, {"id": 22177, "slack_id": "U09B86X43DJ", "display_name": "Faisal Alabdullateef", "bio": null, "projects_count": 0, "devlogs_count": 0, "votes_count": 0, "ships_count": 0, "projects": [], "coding_time_seconds": 0, "coding_time_seconds_today": 0, "balance": "You need to have a pocket watcher badge to view this.", "badges": [], "created_at": "2025-08-19T18:59:14.299-04:00", "updated_at": "2025-08-19T21:59:02.214-04:00", "avatar": "https://avatars.slack-edge.com/2025-08-19/9378395904466_f17dfba2b14853cb6d51_original.jpg", "custom_css": null}, {"id": 22178, "slack_id": "U09B85Z35HS", "display_name": "Shimmer", "bio": null, "projects_count": 0, "devlogs_count": 0, "votes_count": 0, "ships_count": 0, "projects": [], "coding_time_seconds": 0, "coding_time_seconds_today": 0, "balance": "You need to have a pocket watcher badge to view this.", "badges": [], "created_at": "2025-08-19T19:00:28.331-04:00", "updated_at": "2025-08-19T21:59:02.315-04:00", "avatar": "https://secure.gravatar.com/avatar/13f63ab6ed5138e8bbfcc0db9187c8d2.jpg?s=512&d=https%3A%2F%2Fa.slack-edge.com%2Fdf10d%2Fimg%2Favatars%2Fava_0009-512.png", "custom_css": null}, {"id": 22179, "slack_id": "U09B6DWPPNJ", "display_name": "Nick Kosty", "bio": null, "projects_count": 0, "devlogs_count": 0, "votes_count": 0, "ships_count": 0, "projects": [], "coding_time_seconds": 3, "coding_time_seconds_today": 0, "balance": "You need to have a pocket watcher badge to view this.", "badges": [], "created_at": "2025-08-19T19:09:41.486-04:00", "updated_at": "2025-08-19T21:59:02.433-04:00", "avatar": "https://avatars.slack-edge.com/2025-08-19/9380483788294_3b8e5e3a4d3a317bfd79_original.png", "custom_css": null}, {"id": 22180, "slack_id": "U09ASB4JSBH", "display_name": "Karthik .R", "bio": null, "projects_count": 0, "devlogs_count": 0, "votes_count": 0, "ships_count": 0, "projects": [], "coding_time_seconds": 0, "coding_time_seconds_today": 0, "balance": "You need to have a pocket watcher badge to view this.", "badges": [], "created_at": "2025-08-19T19:12:41.779-04:00", "updated_at": "2025-08-19T21:59:02.531-04:00", "avatar": "https://avatars.slack-edge.com/2025-08-19/9372887087139_471ea8fd8b855dbcc2af_original.jpg", "custom_css": null}, {"id": 22181, "slack_id": "U09BXGYE31N", "display_name": "Max", "bio": null, "projects_count": 0, "devlogs_count": 0, "votes_count": 0, "ships_count": 0, "projects": [], "coding_time_seconds": 0, "coding_time_seconds_today": 0, "balance": "You need to have a pocket watcher badge to view this.", "badges": [], "created_at": "2025-08-19T19:26:54.171-04:00", "updated_at": "2025-08-19T21:59:02.630-04:00", "avatar": "https://secure.gravatar.com/avatar/866040ca1b09836e50cda50274935f29.jpg?s=512&d=https%3A%2F%2Fa.slack-edge.com%2Fdf10d%2Fimg%2Favatars%2Fava_0022-512.png", "custom_css": null}, {"id": 22182, "slack_id": "U09ASDYQVHD", "display_name": "Hannah Yoon", "bio": null, "projects_count": 0, "devlogs_count": 0, "votes_count": 0, "ships_count": 0, "projects": [], "coding_time_seconds": 72256, "coding_time_seconds_today": 0, "balance": "You need to have a pocket watcher badge to view this.", "badges": [], "created_at": "2025-08-19T19:33:29.551-04:00", "updated_at": "2025-08-27T21:58:57.333-04:00", "avatar": "https://avatars.slack-edge.com/2025-08-27/9402428228823_dfbde54a71bf45b168d3_original.png", "custom_css": null}, {"id": 22183, "slack_id": "U09AYG61SR1", "display_name": "Esia Ghaisy", "bio": null, "projects_count": 0, "devlogs_count": 0, "votes_count": 0, "ships_count": 0, "projects": [], "coding_time_seconds": 555517, "coding_time_seconds_today": 0, "balance": "You need to have a pocket watcher badge to view this.", "badges": [], "created_at": "2025-08-19T19:55:42.618-04:00", "updated_at": "2025-09-05T13:50:46.052-04:00", "avatar": "https://avatars.slack-edge.com/2025-08-19/9373365770259_015b72ec2b1a0dbdf868_original.png", "custom_css": null}, {"id": 22184, "slack_id": "U09B34GSLN9", "display_name": "Ankit Kumar", "bio": null, "projects_count": 0, "devlogs_count": 0, "votes_count": 0, "ships_count": 0, "projects": [], "coding_time_seconds": 0, "coding_time_seconds_today": 0, "balance": "You need to have a pocket watcher badge to view this.", "badges": [], "created_at": "2025-08-19T20:11:19.455-04:00", "updated_at": "2025-08-19T21:59:03.557-04:00", "avatar": "https://secure.gravatar.com/avatar/9d074df0dad2d7263b5baa6e325ccdc4.jpg?s=512&d=https%3A%2F%2Fa.slack-edge.com%2Fdf10d%2Fimg%2Favatars%2Fava_0014-512.png", "custom_css": null}, {"id": 22185, "slack_id": "U09B34XRDSR", "display_name": "Vismai Nair", "bio": null, "projects_count": 0, "devlogs_count": 0, "votes_count": 0, "ships_count": 0, "projects": [], "coding_time_seconds": 0, "coding_time_seconds_today": 0, "balance": "You need to have a pocket watcher badge to view this.", "badges": [], "created_at": "2025-08-19T20:15:28.749-04:00", "updated_at": "2025-08-19T21:59:04.055-04:00", "avatar": "https://secure.gravatar.com/avatar/c62a450486bf2a24c2ecdc6ef63961c1.jpg?s=512&d=https%3A%2F%2Fa.slack-edge.com%2Fdf10d%2Fimg%2Favatars%2Fava_0017-512.png", "custom_css": null}], "pagination": {"page": 1105, "pages": 1192, "count": 23828, "items": 20}}