{"users": [{"id": 22186, "slack_id": "U09B4JGUGFL", "display_name": "LeoMa33453", "bio": null, "projects_count": 0, "devlogs_count": 0, "votes_count": 0, "ships_count": 0, "projects": [], "coding_time_seconds": 0, "coding_time_seconds_today": 0, "balance": "You need to have a pocket watcher badge to view this.", "badges": [], "created_at": "2025-08-19T20:19:03.965-04:00", "updated_at": "2025-08-19T21:59:04.221-04:00", "avatar": "https://secure.gravatar.com/avatar/e9ab51fc3fd81f3e0c8e21775775aa89.jpg?s=512&d=https%3A%2F%2Fa.slack-edge.com%2Fdf10d%2Fimg%2Favatars%2Fava_0013-512.png", "custom_css": null}, {"id": 22187, "slack_id": "U09B1EUJKMK", "display_name": "Thuo Simonpeter Karanja", "bio": null, "projects_count": 0, "devlogs_count": 0, "votes_count": 0, "ships_count": 0, "projects": [], "coding_time_seconds": 0, "coding_time_seconds_today": 0, "balance": "You need to have a pocket watcher badge to view this.", "badges": [], "created_at": "2025-08-19T20:21:29.452-04:00", "updated_at": "2025-08-19T21:59:04.527-04:00", "avatar": "https://avatars.slack-edge.com/2025-08-20/9382537448452_3ae77e6d704b52e20d16_original.jpg", "custom_css": null}, {"id": 22188, "slack_id": "U09AZ1A7VM1", "display_name": "Bhavika Injarapu", "bio": null, "projects_count": 0, "devlogs_count": 0, "votes_count": 0, "ships_count": 0, "projects": [], "coding_time_seconds": 0, "coding_time_seconds_today": 0, "balance": "You need to have a pocket watcher badge to view this.", "badges": [], "created_at": "2025-08-19T20:29:11.619-04:00", "updated_at": "2025-08-19T21:59:04.721-04:00", "avatar": "https://avatars.slack-edge.com/2025-08-19/9378680152402_304d249f289a539f1661_original.png", "custom_css": null}, {"id": 22189, "slack_id": "U09BHFMELD7", "display_name": "James", "bio": null, "projects_count": 0, "devlogs_count": 0, "votes_count": 0, "ships_count": 0, "projects": [], "coding_time_seconds": 0, "coding_time_seconds_today": 0, "balance": "You need to have a pocket watcher badge to view this.", "badges": [], "created_at": "2025-08-19T21:15:24.123-04:00", "updated_at": "2025-08-19T21:59:04.813-04:00", "avatar": "https://secure.gravatar.com/avatar/1efc05fbf3181dd7c67306bef1945024.jpg?s=512&d=https%3A%2F%2Fa.slack-edge.com%2Fdf10d%2Fimg%2Favatars%2Fava_0000-512.png", "custom_css": null}, {"id": 22190, "slack_id": "U08SWJAS2K1", "display_name": "Andy", "bio": null, "projects_count": 0, "devlogs_count": 0, "votes_count": 0, "ships_count": 0, "projects": [], "coding_time_seconds": 137553, "coding_time_seconds_today": 0, "balance": "You need to have a pocket watcher badge to view this.", "badges": [], "created_at": "2025-08-19T21:16:28.954-04:00", "updated_at": "2025-08-23T16:31:00.918-04:00", "avatar": "https://secure.gravatar.com/avatar/62f339c92d4fac9db3bdaa2dfab0204a.jpg?s=512&d=https%3A%2F%2Fa.slack-edge.com%2Fdf10d%2Fimg%2Favatars%2Fava_0021-512.png", "custom_css": null}, {"id": 22191, "slack_id": "U09B3AWV6G5", "display_name": "Mandip Chhetri", "bio": null, "projects_count": 0, "devlogs_count": 0, "votes_count": 0, "ships_count": 0, "projects": [], "coding_time_seconds": 351, "coding_time_seconds_today": 0, "balance": "You need to have a pocket watcher badge to view this.", "badges": [], "created_at": "2025-08-19T21:21:45.635-04:00", "updated_at": "2025-08-20T04:00:08.214-04:00", "avatar": "https://avatars.slack-edge.com/2025-08-19/9366884090135_645ceb3e153264d87c57_original.png", "custom_css": null}, {"id": 22192, "slack_id": "U09AZ8YAHNX", "display_name": "Ashley", "bio": null, "projects_count": 0, "devlogs_count": 0, "votes_count": 0, "ships_count": 0, "projects": [], "coding_time_seconds": 0, "coding_time_seconds_today": 0, "balance": "You need to have a pocket watcher badge to view this.", "badges": [], "created_at": "2025-08-19T21:26:05.870-04:00", "updated_at": "2025-08-19T21:59:09.235-04:00", "avatar": "https://secure.gravatar.com/avatar/ced4ba7958aa32b4b8bf679f9f89831b.jpg?s=512&d=https%3A%2F%2Fa.slack-edge.com%2Fdf10d%2Fimg%2Favatars%2Fava_0002-512.png", "custom_css": null}, {"id": 22193, "slack_id": "U09B6S27B3Q", "display_name": "William Leslie", "bio": null, "projects_count": 0, "devlogs_count": 0, "votes_count": 1, "ships_count": 0, "projects": [], "coding_time_seconds": 44310, "coding_time_seconds_today": 0, "balance": "You need to have a pocket watcher badge to view this.", "badges": [], "created_at": "2025-08-19T21:30:58.500-04:00", "updated_at": "2025-08-24T21:57:55.157-04:00", "avatar": "https://avatars.slack-edge.com/2025-08-24/9401319341730_1c1a172ddd6faa395e28_original.jpg", "custom_css": null}, {"id": 22194, "slack_id": "U09B8MXC2AY", "display_name": "Planster", "bio": null, "projects_count": 0, "devlogs_count": 0, "votes_count": 0, "ships_count": 0, "projects": [], "coding_time_seconds": 0, "coding_time_seconds_today": 0, "balance": "You need to have a pocket watcher badge to view this.", "badges": [], "created_at": "2025-08-19T21:34:55.607-04:00", "updated_at": "2025-08-19T21:59:09.455-04:00", "avatar": "https://secure.gravatar.com/avatar/71d943b14866961ea673009547c83a4c.jpg?s=512&d=https%3A%2F%2Fa.slack-edge.com%2Fdf10d%2Fimg%2Favatars%2Fava_0026-512.png", "custom_css": null}, {"id": 22195, "slack_id": "U09B4T9TKBL", "display_name": "Darshan satishbhai Parekh", "bio": null, "projects_count": 0, "devlogs_count": 0, "votes_count": 0, "ships_count": 0, "projects": [], "coding_time_seconds": 0, "coding_time_seconds_today": 0, "balance": "You need to have a pocket watcher badge to view this.", "badges": [], "created_at": "2025-08-19T21:59:35.343-04:00", "updated_at": "2025-08-20T21:59:46.532-04:00", "avatar": "https://avatars.slack-edge.com/2025-08-19/9380976738118_034d366c10088bf6a6c1_original.jpg", "custom_css": null}, {"id": 22196, "slack_id": "U09BY17J8TA", "display_name": "Zydo", "bio": null, "projects_count": 0, "devlogs_count": 0, "votes_count": 0, "ships_count": 0, "projects": [], "coding_time_seconds": 0, "coding_time_seconds_today": 0, "balance": "You need to have a pocket watcher badge to view this.", "badges": [], "created_at": "2025-08-19T22:00:29.232-04:00", "updated_at": "2025-08-20T21:59:46.678-04:00", "avatar": "https://secure.gravatar.com/avatar/88381d9ccf8f87feed07ce19d556744f.jpg?s=512&d=https%3A%2F%2Fa.slack-edge.com%2Fdf10d%2Fimg%2Favatars%2Fava_0009-512.png", "custom_css": null}, {"id": 22197, "slack_id": "U09BHLEP4CR", "display_name": "Harish Satagopam", "bio": null, "projects_count": 0, "devlogs_count": 0, "votes_count": 0, "ships_count": 0, "projects": [], "coding_time_seconds": 0, "coding_time_seconds_today": 0, "balance": "You need to have a pocket watcher badge to view this.", "badges": [], "created_at": "2025-08-19T22:00:33.531-04:00", "updated_at": "2025-08-20T21:59:46.826-04:00", "avatar": "https://avatars.slack-edge.com/2025-08-19/9373459882883_1cbd01ffdc9113216bf2_original.png", "custom_css": null}, {"id": 22198, "slack_id": "U09B8QFT1QC", "display_name": "the Slayer", "bio": null, "projects_count": 0, "devlogs_count": 0, "votes_count": 0, "ships_count": 0, "projects": [], "coding_time_seconds": 0, "coding_time_seconds_today": 0, "balance": "You need to have a pocket watcher badge to view this.", "badges": [], "created_at": "2025-08-19T22:02:15.963-04:00", "updated_at": "2025-08-20T21:59:46.928-04:00", "avatar": "https://secure.gravatar.com/avatar/af2cbfd563a9514c3a1c1c221a1c2bc4.jpg?s=512&d=https%3A%2F%2Fa.slack-edge.com%2Fdf10d%2Fimg%2Favatars%2Fava_0019-512.png", "custom_css": null}, {"id": 22199, "slack_id": "U09AZEEEV1R", "display_name": "Vu Dang Khoa", "bio": null, "projects_count": 0, "devlogs_count": 0, "votes_count": 0, "ships_count": 0, "projects": [], "coding_time_seconds": 84564, "coding_time_seconds_today": 2377, "balance": "You need to have a pocket watcher badge to view this.", "badges": [], "created_at": "2025-08-19T22:12:14.654-04:00", "updated_at": "2025-08-20T21:59:47.054-04:00", "avatar": "https://secure.gravatar.com/avatar/4ce0d2b447a85d2e83d12391b1b18515.jpg?s=512&d=https%3A%2F%2Fa.slack-edge.com%2Fdf10d%2Fimg%2Favatars%2Fava_0024-512.png", "custom_css": null}, {"id": 22200, "slack_id": "U093T0PMQKG", "display_name": "Bri", "bio": null, "projects_count": 0, "devlogs_count": 0, "votes_count": 0, "ships_count": 0, "projects": [], "coding_time_seconds": 29424, "coding_time_seconds_today": 0, "balance": "You need to have a pocket watcher badge to view this.", "badges": [], "created_at": "2025-08-19T22:15:24.843-04:00", "updated_at": "2025-09-05T17:53:43.069-04:00", "avatar": "https://avatars.slack-edge.com/2025-07-02/9148821554273_d07e2561d331bdf491d4_original.png", "custom_css": null}, {"id": 22201, "slack_id": "U0827SFQ9GC", "display_name": "moth", "bio": null, "projects_count": 1, "devlogs_count": 0, "votes_count": 0, "ships_count": 0, "projects": [{"id": 11820, "title": "midi to minecraft mod", "devlogs_count": 0, "created_at": "2025-08-19T22:38:04.916-04:00"}], "coding_time_seconds": 3511, "coding_time_seconds_today": 0, "balance": "You need to have a pocket watcher badge to view this.", "badges": [], "created_at": "2025-08-19T22:20:46.285-04:00", "updated_at": "2025-08-20T21:59:47.240-04:00", "avatar": "https://avatars.slack-edge.com/2024-11-22/8073411290194_49d12944a654a10f19ee_original.gif", "custom_css": null}, {"id": 22202, "slack_id": "U09B4TYDV54", "display_name": "Prabin Basnet", "bio": null, "projects_count": 0, "devlogs_count": 0, "votes_count": 0, "ships_count": 0, "projects": [], "coding_time_seconds": 0, "coding_time_seconds_today": 0, "balance": "You need to have a pocket watcher badge to view this.", "badges": [], "created_at": "2025-08-19T22:29:07.826-04:00", "updated_at": "2025-08-20T21:59:47.349-04:00", "avatar": "https://secure.gravatar.com/avatar/a8487fb6e2f7243201b3f2d2f36896ff.jpg?s=512&d=https%3A%2F%2Fa.slack-edge.com%2Fdf10d%2Fimg%2Favatars%2Fava_0024-512.png", "custom_css": null}, {"id": 22203, "slack_id": "U09B4TYBADU", "display_name": "Rakesh Sharma", "bio": null, "projects_count": 0, "devlogs_count": 0, "votes_count": 0, "ships_count": 0, "projects": [], "coding_time_seconds": 0, "coding_time_seconds_today": 0, "balance": "You need to have a pocket watcher badge to view this.", "badges": [], "created_at": "2025-08-19T22:29:57.106-04:00", "updated_at": "2025-08-20T21:59:47.474-04:00", "avatar": "https://secure.gravatar.com/avatar/11d53e93ed1aee0791dbaa21f29308f4.jpg?s=512&d=https%3A%2F%2Fa.slack-edge.com%2Fdf10d%2Fimg%2Favatars%2Fava_0017-512.png", "custom_css": null}, {"id": 22204, "slack_id": "U09B51MAH34", "display_name": "Sandeep", "bio": null, "projects_count": 0, "devlogs_count": 0, "votes_count": 0, "ships_count": 0, "projects": [], "coding_time_seconds": 59989, "coding_time_seconds_today": 0, "balance": "You need to have a pocket watcher badge to view this.", "badges": [], "created_at": "2025-08-19T22:32:11.831-04:00", "updated_at": "2025-08-20T21:59:47.564-04:00", "avatar": "https://secure.gravatar.com/avatar/625912c74d34711bc290b0195be29a71.jpg?s=512&d=https%3A%2F%2Fa.slack-edge.com%2Fdf10d%2Fimg%2Favatars%2Fava_0004-512.png", "custom_css": null}, {"id": 22205, "slack_id": "U09B4TY4DJA", "display_name": "Ritesh KC", "bio": null, "projects_count": 0, "devlogs_count": 0, "votes_count": 0, "ships_count": 0, "projects": [], "coding_time_seconds": 0, "coding_time_seconds_today": 0, "balance": "You need to have a pocket watcher badge to view this.", "badges": [], "created_at": "2025-08-19T22:32:23.138-04:00", "updated_at": "2025-08-20T21:59:47.662-04:00", "avatar": "https://secure.gravatar.com/avatar/8cdb25fbb6897bf1f8bf1ad4b9f2c4c6.jpg?s=512&d=https%3A%2F%2Fa.slack-edge.com%2Fdf10d%2Fimg%2Favatars%2Fava_0015-512.png", "custom_css": null}], "pagination": {"page": 1106, "pages": 1192, "count": 23828, "items": 20}}