{"users": [{"id": 22206, "slack_id": "U09B4TXJHSA", "display_name": "Anisha Karki", "bio": null, "projects_count": 0, "devlogs_count": 0, "votes_count": 0, "ships_count": 0, "projects": [], "coding_time_seconds": 0, "coding_time_seconds_today": 0, "balance": "You need to have a pocket watcher badge to view this.", "badges": [], "created_at": "2025-08-19T22:34:25.178-04:00", "updated_at": "2025-08-20T21:59:47.780-04:00", "avatar": "https://secure.gravatar.com/avatar/1c30458b9819c1e491790a32cc746dbd.jpg?s=512&d=https%3A%2F%2Fa.slack-edge.com%2Fdf10d%2Fimg%2Favatars%2Fava_0011-512.png", "custom_css": null}, {"id": 22207, "slack_id": "U09B4TWNM2A", "display_name": "Saurav Shrestha", "bio": null, "projects_count": 0, "devlogs_count": 0, "votes_count": 0, "ships_count": 0, "projects": [], "coding_time_seconds": 0, "coding_time_seconds_today": 0, "balance": "You need to have a pocket watcher badge to view this.", "badges": [], "created_at": "2025-08-19T22:35:19.589-04:00", "updated_at": "2025-08-20T21:59:48.629-04:00", "avatar": "https://secure.gravatar.com/avatar/56b40e095378b9e28838a1bbab0e89bb.jpg?s=512&d=https%3A%2F%2Fa.slack-edge.com%2Fdf10d%2Fimg%2Favatars%2Fava_0010-512.png", "custom_css": null}, {"id": 22208, "slack_id": "U09B3J33Z9B", "display_name": "Lucas", "bio": null, "projects_count": 0, "devlogs_count": 0, "votes_count": 0, "ships_count": 0, "projects": [], "coding_time_seconds": 0, "coding_time_seconds_today": 0, "balance": "You need to have a pocket watcher badge to view this.", "badges": [], "created_at": "2025-08-19T22:37:11.700-04:00", "updated_at": "2025-08-20T21:59:48.986-04:00", "avatar": "https://secure.gravatar.com/avatar/6c78407569bbb43ff08c4450d5fa0477.jpg?s=512&d=https%3A%2F%2Fa.slack-edge.com%2Fdf10d%2Fimg%2Favatars%2Fava_0020-512.png", "custom_css": null}, {"id": 22209, "slack_id": "U09B4TPM6BY", "display_name": "Prerana Poudel", "bio": null, "projects_count": 0, "devlogs_count": 0, "votes_count": 0, "ships_count": 0, "projects": [], "coding_time_seconds": 0, "coding_time_seconds_today": 0, "balance": "You need to have a pocket watcher badge to view this.", "badges": [], "created_at": "2025-08-19T22:38:10.082-04:00", "updated_at": "2025-08-20T21:59:49.417-04:00", "avatar": "https://secure.gravatar.com/avatar/d85aace76d9ab5db2d6e4103bfbec175.jpg?s=512&d=https%3A%2F%2Fa.slack-edge.com%2Fdf10d%2Fimg%2Favatars%2Fava_0019-512.png", "custom_css": null}, {"id": 22210, "slack_id": "U09B8USDGEQ", "display_name": "Kaustubh Durgade", "bio": null, "projects_count": 1, "devlogs_count": 0, "votes_count": 0, "ships_count": 0, "projects": [{"id": 12512, "title": "Spotify Sleeve", "devlogs_count": 0, "created_at": "2025-08-28T20:22:08.903-04:00"}], "coding_time_seconds": 28344, "coding_time_seconds_today": 0, "balance": "You need to have a pocket watcher badge to view this.", "badges": [], "created_at": "2025-08-19T22:38:30.960-04:00", "updated_at": "2025-08-28T20:20:30.866-04:00", "avatar": "https://avatars.slack-edge.com/2025-08-19/9382989891060_d263789126a9e5e2d847_original.jpg", "custom_css": null}, {"id": 22211, "slack_id": "U096FRRSSRK", "display_name": "Madalyn P.", "bio": null, "projects_count": 0, "devlogs_count": 0, "votes_count": 0, "ships_count": 0, "projects": [], "coding_time_seconds": 0, "coding_time_seconds_today": 0, "balance": "You need to have a pocket watcher badge to view this.", "badges": [], "created_at": "2025-08-19T22:39:01.353-04:00", "updated_at": "2025-08-20T22:05:13.464-04:00", "avatar": "https://secure.gravatar.com/avatar/d2ceb3b653728e593d37000b2d12c23b.jpg?s=512&d=https%3A%2F%2Fa.slack-edge.com%2Fdf10d%2Fimg%2Favatars%2Fava_0024-512.png", "custom_css": null}, {"id": 22212, "slack_id": "U09B4TP6606", "display_name": "Sujan Pandey", "bio": null, "projects_count": 0, "devlogs_count": 0, "votes_count": 0, "ships_count": 0, "projects": [], "coding_time_seconds": 0, "coding_time_seconds_today": 0, "balance": "You need to have a pocket watcher badge to view this.", "badges": [], "created_at": "2025-08-19T22:39:28.708-04:00", "updated_at": "2025-08-20T21:59:50.288-04:00", "avatar": "https://secure.gravatar.com/avatar/325db7618691439fe7a23a629092ad05.jpg?s=512&d=https%3A%2F%2Fa.slack-edge.com%2Fdf10d%2Fimg%2Favatars%2Fava_0000-512.png", "custom_css": null}, {"id": 22213, "slack_id": "U09B4TMD85C", "display_name": "Manish Bhatta", "bio": null, "projects_count": 0, "devlogs_count": 0, "votes_count": 0, "ships_count": 0, "projects": [], "coding_time_seconds": 0, "coding_time_seconds_today": 0, "balance": "You need to have a pocket watcher badge to view this.", "badges": [], "created_at": "2025-08-19T22:41:09.577-04:00", "updated_at": "2025-08-20T21:59:50.634-04:00", "avatar": "https://secure.gravatar.com/avatar/30032a8468721b451080d7b660a0e2c0.jpg?s=512&d=https%3A%2F%2Fa.slack-edge.com%2Fdf10d%2Fimg%2Favatars%2Fava_0011-512.png", "custom_css": null}, {"id": 22214, "slack_id": "U09B4THNHE2", "display_name": "Roshan Gurung", "bio": null, "projects_count": 0, "devlogs_count": 0, "votes_count": 0, "ships_count": 0, "projects": [], "coding_time_seconds": 0, "coding_time_seconds_today": 0, "balance": "You need to have a pocket watcher badge to view this.", "badges": [], "created_at": "2025-08-19T22:42:17.637-04:00", "updated_at": "2025-08-20T21:59:50.816-04:00", "avatar": "https://secure.gravatar.com/avatar/2da2009f3191573ff60c5a52ba7f2367.jpg?s=512&d=https%3A%2F%2Fa.slack-edge.com%2Fdf10d%2Fimg%2Favatars%2Fava_0001-512.png", "custom_css": null}, {"id": 22215, "slack_id": "U097FPERH24", "display_name": "Rahul Sahani", "bio": null, "projects_count": 0, "devlogs_count": 0, "votes_count": 0, "ships_count": 0, "projects": [], "coding_time_seconds": 12020, "coding_time_seconds_today": 0, "balance": "You need to have a pocket watcher badge to view this.", "badges": [], "created_at": "2025-08-19T22:43:46.263-04:00", "updated_at": "2025-08-20T21:59:50.942-04:00", "avatar": "https://secure.gravatar.com/avatar/421140238960439b3928ccf91afb87c6.jpg?s=512&d=https%3A%2F%2Fa.slack-edge.com%2Fdf10d%2Fimg%2Favatars%2Fava_0021-512.png", "custom_css": null}, {"id": 22216, "slack_id": "U09B4TF7Z7G", "display_name": "Barsha Bista", "bio": null, "projects_count": 0, "devlogs_count": 0, "votes_count": 0, "ships_count": 0, "projects": [], "coding_time_seconds": 0, "coding_time_seconds_today": 0, "balance": "You need to have a pocket watcher badge to view this.", "badges": [], "created_at": "2025-08-19T22:44:07.096-04:00", "updated_at": "2025-08-20T21:59:51.030-04:00", "avatar": "https://secure.gravatar.com/avatar/0a0803173e193234b476205ea475fa74.jpg?s=512&d=https%3A%2F%2Fa.slack-edge.com%2Fdf10d%2Fimg%2Favatars%2Fava_0012-512.png", "custom_css": null}, {"id": 22217, "slack_id": "U09B4TB820N", "display_name": "Santosh Maharjan", "bio": null, "projects_count": 0, "devlogs_count": 0, "votes_count": 0, "ships_count": 0, "projects": [], "coding_time_seconds": 0, "coding_time_seconds_today": 0, "balance": "You need to have a pocket watcher badge to view this.", "badges": [], "created_at": "2025-08-19T22:45:31.087-04:00", "updated_at": "2025-08-20T21:59:51.155-04:00", "avatar": "https://secure.gravatar.com/avatar/a2ce1a63079e2f7dcfb68151c50cc61b.jpg?s=512&d=https%3A%2F%2Fa.slack-edge.com%2Fdf10d%2Fimg%2Favatars%2Fava_0026-512.png", "custom_css": null}, {"id": 22218, "slack_id": "U09BY6EJK96", "display_name": "Praveen Kumar Saravanan", "bio": null, "projects_count": 0, "devlogs_count": 0, "votes_count": 0, "ships_count": 0, "projects": [], "coding_time_seconds": 91009, "coding_time_seconds_today": 0, "balance": "You need to have a pocket watcher badge to view this.", "badges": [], "created_at": "2025-08-19T22:48:52.807-04:00", "updated_at": "2025-08-20T21:59:51.280-04:00", "avatar": "https://secure.gravatar.com/avatar/a59022ab0e54bc580d80b3603b102a8b.jpg?s=512&d=https%3A%2F%2Fa.slack-edge.com%2Fdf10d%2Fimg%2Favatars%2Fava_0025-512.png", "custom_css": null}, {"id": 22219, "slack_id": "U09BHRHCXFT", "display_name": "Andrew", "bio": null, "projects_count": 0, "devlogs_count": 0, "votes_count": 0, "ships_count": 0, "projects": [], "coding_time_seconds": 0, "coding_time_seconds_today": 0, "balance": "You need to have a pocket watcher badge to view this.", "badges": [], "created_at": "2025-08-19T22:56:15.394-04:00", "updated_at": "2025-08-20T21:59:52.410-04:00", "avatar": "https://secure.gravatar.com/avatar/ec33552cb5cf1e6955d7b9ac527403cf.jpg?s=512&d=https%3A%2F%2Fa.slack-edge.com%2Fdf10d%2Fimg%2Favatars%2Fava_0004-512.png", "custom_css": null}, {"id": 22220, "slack_id": "U09AR660XAB", "display_name": "Balaji Nayak Bardawal", "bio": null, "projects_count": 0, "devlogs_count": 0, "votes_count": 0, "ships_count": 0, "projects": [], "coding_time_seconds": 0, "coding_time_seconds_today": 0, "balance": "You need to have a pocket watcher badge to view this.", "badges": [], "created_at": "2025-08-19T23:07:21.069-04:00", "updated_at": "2025-08-20T21:59:52.529-04:00", "avatar": "https://secure.gravatar.com/avatar/1a42584bec922195425755368849fb1e.jpg?s=512&d=https%3A%2F%2Fa.slack-edge.com%2Fdf10d%2Fimg%2Favatars%2Fava_0004-512.png", "custom_css": null}, {"id": 22221, "slack_id": "U079E4MKCF9", "display_name": "PIYUSH KUMAR", "bio": null, "projects_count": 0, "devlogs_count": 0, "votes_count": 0, "ships_count": 0, "projects": [], "coding_time_seconds": 0, "coding_time_seconds_today": 0, "balance": "You need to have a pocket watcher badge to view this.", "badges": [], "created_at": "2025-08-19T23:30:15.049-04:00", "updated_at": "2025-08-20T21:59:52.629-04:00", "avatar": "https://secure.gravatar.com/avatar/937076471c208ad249791c1e6fb120b7.jpg?s=512&d=https%3A%2F%2Fa.slack-edge.com%2Fdf10d%2Fimg%2Favatars%2Fava_0016-512.png", "custom_css": null}, {"id": 22222, "slack_id": "U09B9217V52", "display_name": "Rupesh Kumar Yadav", "bio": null, "projects_count": 0, "devlogs_count": 0, "votes_count": 0, "ships_count": 0, "projects": [], "coding_time_seconds": 0, "coding_time_seconds_today": 0, "balance": "You need to have a pocket watcher badge to view this.", "badges": [], "created_at": "2025-08-19T23:36:47.554-04:00", "updated_at": "2025-08-20T21:59:52.742-04:00", "avatar": "https://avatars.slack-edge.com/2025-08-19/9406369407968_81ec56804899bc522c11_original.png", "custom_css": null}, {"id": 22223, "slack_id": "U09AT7YK6A3", "display_name": "Katchy Ysabel", "bio": null, "projects_count": 0, "devlogs_count": 0, "votes_count": 0, "ships_count": 0, "projects": [], "coding_time_seconds": 0, "coding_time_seconds_today": 0, "balance": "You need to have a pocket watcher badge to view this.", "badges": [], "created_at": "2025-08-19T23:42:00.771-04:00", "updated_at": "2025-08-20T21:59:52.855-04:00", "avatar": "https://avatars.slack-edge.com/2025-08-19/9381262508646_909f8574ad60ddd2b727_original.png", "custom_css": null}, {"id": 22224, "slack_id": "U09B77S84GN", "display_name": "Karan S", "bio": null, "projects_count": 1, "devlogs_count": 0, "votes_count": 0, "ships_count": 0, "projects": [{"id": 11823, "title": "LOR request website", "devlogs_count": 0, "created_at": "2025-08-20T00:06:46.880-04:00"}], "coding_time_seconds": 4560, "coding_time_seconds_today": 0, "balance": "You need to have a pocket watcher badge to view this.", "badges": [], "created_at": "2025-08-19T23:43:10.521-04:00", "updated_at": "2025-08-20T21:59:52.964-04:00", "avatar": "https://secure.gravatar.com/avatar/e957b295fff5886137a8e8e079c65fbc.jpg?s=512&d=https%3A%2F%2Fa.slack-edge.com%2Fdf10d%2Fimg%2Favatars%2Fava_0005-512.png", "custom_css": null}, {"id": 22225, "slack_id": "U09B95XJCEQ", "display_name": "pratham bhavsar", "bio": null, "projects_count": 0, "devlogs_count": 0, "votes_count": 0, "ships_count": 0, "projects": [], "coding_time_seconds": 0, "coding_time_seconds_today": 0, "balance": "You need to have a pocket watcher badge to view this.", "badges": [], "created_at": "2025-08-19T23:53:42.166-04:00", "updated_at": "2025-08-20T21:59:53.067-04:00", "avatar": "https://avatars.slack-edge.com/2025-08-19/9383213445220_d45e7ee29c2ee713747b_original.png", "custom_css": null}], "pagination": {"page": 1107, "pages": 1192, "count": 23828, "items": 20}}