{"users": [{"id": 22226, "slack_id": "U09B7A08T62", "display_name": "bailey stewart", "bio": null, "projects_count": 0, "devlogs_count": 0, "votes_count": 0, "ships_count": 0, "projects": [], "coding_time_seconds": 0, "coding_time_seconds_today": 0, "balance": "You need to have a pocket watcher badge to view this.", "badges": [], "created_at": "2025-08-20T00:09:52.397-04:00", "updated_at": "2025-08-20T21:59:53.181-04:00", "avatar": "https://secure.gravatar.com/avatar/355a3056058d60234908b1dd6925b193.jpg?s=512&d=https%3A%2F%2Fa.slack-edge.com%2Fdf10d%2Fimg%2Favatars%2Fava_0019-512.png", "custom_css": null}, {"id": 22227, "slack_id": "U09B79L7206", "display_name": "JasonRobert", "bio": null, "projects_count": 0, "devlogs_count": 0, "votes_count": 0, "ships_count": 0, "projects": [], "coding_time_seconds": 0, "coding_time_seconds_today": 0, "balance": "You need to have a pocket watcher badge to view this.", "badges": [], "created_at": "2025-08-20T00:09:58.017-04:00", "updated_at": "2025-08-20T21:59:53.285-04:00", "avatar": "https://secure.gravatar.com/avatar/29da58be5860721f8029e2461068f62f.jpg?s=512&d=https%3A%2F%2Fa.slack-edge.com%2Fdf10d%2Fimg%2Favatars%2Fava_0003-512.png", "custom_css": null}, {"id": 22228, "slack_id": "U09B3S3JMTP", "display_name": "Jagaa", "bio": null, "projects_count": 0, "devlogs_count": 0, "votes_count": 0, "ships_count": 0, "projects": [], "coding_time_seconds": 17217, "coding_time_seconds_today": 0, "balance": "You need to have a pocket watcher badge to view this.", "badges": [], "created_at": "2025-08-20T00:11:55.933-04:00", "updated_at": "2025-08-20T21:59:53.385-04:00", "avatar": "https://secure.gravatar.com/avatar/20ba92a5d4e093ba393cc517dd768177.jpg?s=512&d=https%3A%2F%2Fa.slack-edge.com%2Fdf10d%2Fimg%2Favatars%2Fava_0008-512.png", "custom_css": null}, {"id": 22229, "slack_id": "U09B3S6JH7F", "display_name": "Soumen", "bio": null, "projects_count": 0, "devlogs_count": 0, "votes_count": 0, "ships_count": 0, "projects": [], "coding_time_seconds": 0, "coding_time_seconds_today": 0, "balance": "You need to have a pocket watcher badge to view this.", "badges": [], "created_at": "2025-08-20T00:17:45.449-04:00", "updated_at": "2025-08-20T21:59:53.474-04:00", "avatar": "https://secure.gravatar.com/avatar/0190e82b58d6b466b39e8daab9c19bcc.jpg?s=512&d=https%3A%2F%2Fa.slack-edge.com%2Fdf10d%2Fimg%2Favatars%2Fava_0018-512.png", "custom_css": null}, {"id": 22230, "slack_id": "U09B989CD28", "display_name": "adidev", "bio": null, "projects_count": 1, "devlogs_count": 0, "votes_count": 0, "ships_count": 0, "projects": [{"id": 11825, "title": "CraftGenesis", "devlogs_count": 0, "created_at": "2025-08-20T00:43:54.740-04:00"}], "coding_time_seconds": 29611, "coding_time_seconds_today": 0, "balance": "You need to have a pocket watcher badge to view this.", "badges": [], "created_at": "2025-08-20T00:18:51.736-04:00", "updated_at": "2025-08-20T21:59:53.586-04:00", "avatar": "https://avatars.slack-edge.com/2025-08-20/9367388588007_11cff72bbe81796ea7c9_original.jpg", "custom_css": null}, {"id": 22231, "slack_id": "U09B99344GL", "display_name": "Elias", "bio": null, "projects_count": 0, "devlogs_count": 0, "votes_count": 0, "ships_count": 0, "projects": [], "coding_time_seconds": 0, "coding_time_seconds_today": 0, "balance": "You need to have a pocket watcher badge to view this.", "badges": [], "created_at": "2025-08-20T00:29:08.449-04:00", "updated_at": "2025-08-20T21:59:53.708-04:00", "avatar": "https://secure.gravatar.com/avatar/47c303ce7d0e45ce4a6fb609ec42aae4.jpg?s=512&d=https%3A%2F%2Fa.slack-edge.com%2Fdf10d%2Fimg%2Favatars%2Fava_0002-512.png", "custom_css": null}, {"id": 22232, "slack_id": "U09B00EEP43", "display_name": "Michael Zhang Ivanov", "bio": null, "projects_count": 0, "devlogs_count": 0, "votes_count": 0, "ships_count": 0, "projects": [], "coding_time_seconds": 0, "coding_time_seconds_today": 0, "balance": "You need to have a pocket watcher badge to view this.", "badges": [], "created_at": "2025-08-20T00:51:04.834-04:00", "updated_at": "2025-08-20T21:59:53.822-04:00", "avatar": "https://secure.gravatar.com/avatar/86cca6426faf6c556c6d96c6a96f9360.jpg?s=512&d=https%3A%2F%2Fa.slack-edge.com%2Fdf10d%2Fimg%2Favatars%2Fava_0017-512.png", "custom_css": null}, {"id": 22233, "slack_id": "U09AZ1GJ66N", "display_name": "Krutarth (kay)", "bio": null, "projects_count": 1, "devlogs_count": 1, "votes_count": 0, "ships_count": 0, "projects": [{"id": 11859, "title": "not-so-cool-Game", "devlogs_count": 1, "created_at": "2025-08-20T11:18:11.577-04:00"}], "coding_time_seconds": 46140, "coding_time_seconds_today": 0, "balance": "You need to have a pocket watcher badge to view this.", "badges": [], "created_at": "2025-08-20T01:01:21.898-04:00", "updated_at": "2025-08-20T21:59:58.124-04:00", "avatar": "https://avatars.slack-edge.com/2025-08-20/9383444128628_42c524a691366e6adc3d_original.png", "custom_css": null}, {"id": 22234, "slack_id": "U09AWR8T1FV", "display_name": "Manish Reddy", "bio": null, "projects_count": 0, "devlogs_count": 0, "votes_count": 0, "ships_count": 0, "projects": [], "coding_time_seconds": 0, "coding_time_seconds_today": 0, "balance": "You need to have a pocket watcher badge to view this.", "badges": [], "created_at": "2025-08-20T01:06:44.167-04:00", "updated_at": "2025-08-20T21:59:58.461-04:00", "avatar": "https://secure.gravatar.com/avatar/40cad45f994b148be62de7cbf9f5d412.jpg?s=512&d=https%3A%2F%2Fa.slack-edge.com%2Fdf10d%2Fimg%2Favatars%2Fava_0000-512.png", "custom_css": null}, {"id": 22235, "slack_id": "U09B41C3353", "display_name": "Akhmad Khudri", "bio": null, "projects_count": 0, "devlogs_count": 0, "votes_count": 0, "ships_count": 0, "projects": [], "coding_time_seconds": 23588, "coding_time_seconds_today": 0, "balance": "You need to have a pocket watcher badge to view this.", "badges": [], "created_at": "2025-08-20T01:07:28.535-04:00", "updated_at": "2025-08-20T21:59:58.809-04:00", "avatar": "https://avatars.slack-edge.com/2025-08-19/9374075445667_87bf9931d2f5c3d31149_original.jpg", "custom_css": null}, {"id": 22236, "slack_id": "U09ATGZV6DV", "display_name": "Koi", "bio": null, "projects_count": 0, "devlogs_count": 0, "votes_count": 0, "ships_count": 0, "projects": [], "coding_time_seconds": 0, "coding_time_seconds_today": 0, "balance": "You need to have a pocket watcher badge to view this.", "badges": [], "created_at": "2025-08-20T01:28:00.491-04:00", "updated_at": "2025-09-03T04:49:02.370-04:00", "avatar": "https://secure.gravatar.com/avatar/4f6c1208ed3a83ec9d13a587b75d0f6d.jpg?s=512&d=https%3A%2F%2Fa.slack-edge.com%2Fdf10d%2Fimg%2Favatars%2Fava_0005-512.png", "custom_css": null}, {"id": 22237, "slack_id": "U09BYLLES8Y", "display_name": "Zimeng", "bio": null, "projects_count": 0, "devlogs_count": 0, "votes_count": 0, "ships_count": 0, "projects": [], "coding_time_seconds": 0, "coding_time_seconds_today": 0, "balance": "You need to have a pocket watcher badge to view this.", "badges": [], "created_at": "2025-08-20T01:28:38.246-04:00", "updated_at": "2025-08-20T21:59:59.713-04:00", "avatar": "https://secure.gravatar.com/avatar/85ebb1257508f7e6e2f3ea085d873c83.jpg?s=512&d=https%3A%2F%2Fa.slack-edge.com%2Fdf10d%2Fimg%2Favatars%2Fava_0023-512.png", "custom_css": null}, {"id": 22238, "slack_id": "U096T9ZU526", "display_name": "Brooks", "bio": null, "projects_count": 0, "devlogs_count": 0, "votes_count": 0, "ships_count": 0, "projects": [], "coding_time_seconds": 759, "coding_time_seconds_today": 0, "balance": "You need to have a pocket watcher badge to view this.", "badges": [], "created_at": "2025-08-20T01:30:36.235-04:00", "updated_at": "2025-08-20T22:00:01.034-04:00", "avatar": "https://secure.gravatar.com/avatar/7cca6584edbe3b641c319e31ae49b4b0.jpg?s=512&d=https%3A%2F%2Fa.slack-edge.com%2Fdf10d%2Fimg%2Favatars%2Fava_0005-512.png", "custom_css": null}, {"id": 22239, "slack_id": "U096UK43XEG", "display_name": "VJ", "bio": null, "projects_count": 0, "devlogs_count": 0, "votes_count": 0, "ships_count": 0, "projects": [], "coding_time_seconds": 0, "coding_time_seconds_today": 0, "balance": "You need to have a pocket watcher badge to view this.", "badges": [], "created_at": "2025-08-20T01:32:52.873-04:00", "updated_at": "2025-08-20T22:00:01.262-04:00", "avatar": "https://secure.gravatar.com/avatar/299b79d99ccd10a2a920c1fc95700a85.jpg?s=512&d=https%3A%2F%2Fa.slack-edge.com%2Fdf10d%2Fimg%2Favatars%2Fava_0004-512.png", "custom_css": null}, {"id": 22240, "slack_id": "U09B7H79B2A", "display_name": "Ash", "bio": null, "projects_count": 0, "devlogs_count": 0, "votes_count": 0, "ships_count": 0, "projects": [], "coding_time_seconds": 0, "coding_time_seconds_today": 0, "balance": "You need to have a pocket watcher badge to view this.", "badges": [], "created_at": "2025-08-20T01:38:22.800-04:00", "updated_at": "2025-08-20T22:00:01.747-04:00", "avatar": "https://avatars.slack-edge.com/2025-08-19/9381604190550_f3f7087fadee7b6a1440_original.jpg", "custom_css": null}, {"id": 22241, "slack_id": "U09B9FB1P1A", "display_name": "J", "bio": null, "projects_count": 0, "devlogs_count": 0, "votes_count": 0, "ships_count": 0, "projects": [], "coding_time_seconds": 478, "coding_time_seconds_today": 0, "balance": "You need to have a pocket watcher badge to view this.", "badges": [], "created_at": "2025-08-20T01:46:53.847-04:00", "updated_at": "2025-08-20T22:00:01.881-04:00", "avatar": "https://secure.gravatar.com/avatar/439376fbf08b2995c5df91d432945ed3.jpg?s=512&d=https%3A%2F%2Fa.slack-edge.com%2Fdf10d%2Fimg%2Favatars%2Fava_0020-512.png", "custom_css": null}, {"id": 22242, "slack_id": "U09B5LYG34J", "display_name": "Gurnoordeep Singh", "bio": null, "projects_count": 0, "devlogs_count": 0, "votes_count": 0, "ships_count": 0, "projects": [], "coding_time_seconds": 0, "coding_time_seconds_today": 0, "balance": "You need to have a pocket watcher badge to view this.", "badges": [], "created_at": "2025-08-20T02:02:55.947-04:00", "updated_at": "2025-08-21T00:12:34.486-04:00", "avatar": "https://secure.gravatar.com/avatar/274b827aa8736838aa87b6ee6105f64e.jpg?s=512&d=https%3A%2F%2Fa.slack-edge.com%2Fdf10d%2Fimg%2Favatars%2Fava_0026-512.png", "custom_css": null}, {"id": 22243, "slack_id": "U09B08JQVGB", "display_name": "Shuhaab", "bio": null, "projects_count": 0, "devlogs_count": 0, "votes_count": 0, "ships_count": 0, "projects": [], "coding_time_seconds": 38222, "coding_time_seconds_today": 0, "balance": "You need to have a pocket watcher badge to view this.", "badges": [], "created_at": "2025-08-20T02:08:47.235-04:00", "updated_at": "2025-08-20T22:00:02.155-04:00", "avatar": "https://secure.gravatar.com/avatar/e765d9df581c8463517455087a7e4efb.jpg?s=512&d=https%3A%2F%2Fa.slack-edge.com%2Fdf10d%2Fimg%2Favatars%2Fava_0023-512.png", "custom_css": null}, {"id": 22244, "slack_id": "U09B08T1BMZ", "display_name": "Sudhanshu Sah", "bio": null, "projects_count": 1, "devlogs_count": 0, "votes_count": 0, "ships_count": 0, "projects": [{"id": 12001, "title": "Browser", "devlogs_count": 0, "created_at": "2025-08-22T01:56:13.058-04:00"}], "coding_time_seconds": 1997, "coding_time_seconds_today": 0, "balance": "You need to have a pocket watcher badge to view this.", "badges": [], "created_at": "2025-08-20T02:11:03.725-04:00", "updated_at": "2025-08-20T22:00:02.299-04:00", "avatar": "https://avatars.slack-edge.com/2025-08-19/9406868787952_9b457dba062f386cc426_original.png", "custom_css": null}, {"id": 22245, "slack_id": "U09B9MF6A7N", "display_name": "Kushal Dahal", "bio": null, "projects_count": 0, "devlogs_count": 0, "votes_count": 0, "ships_count": 0, "projects": [], "coding_time_seconds": 0, "coding_time_seconds_today": 0, "balance": "You need to have a pocket watcher badge to view this.", "badges": [], "created_at": "2025-08-20T02:35:39.442-04:00", "updated_at": "2025-08-20T22:00:02.452-04:00", "avatar": "https://avatars.slack-edge.com/2025-08-19/9406965857024_eb0640e00e797a08233f_original.jpg", "custom_css": null}], "pagination": {"page": 1108, "pages": 1192, "count": 23828, "items": 20}}