{"users": [{"id": 22246, "slack_id": "U09B7PJ6KJA", "display_name": "Sisira Kumara", "bio": null, "projects_count": 0, "devlogs_count": 0, "votes_count": 0, "ships_count": 0, "projects": [], "coding_time_seconds": 0, "coding_time_seconds_today": 0, "balance": "You need to have a pocket watcher badge to view this.", "badges": [], "created_at": "2025-08-20T02:37:18.553-04:00", "updated_at": "2025-08-20T22:00:02.596-04:00", "avatar": "https://avatars.slack-edge.com/2025-08-19/9383784332932_bd073de2451d03fc8c75_original.png", "custom_css": null}, {"id": 22247, "slack_id": "U09B4ADALF7", "display_name": "lochana", "bio": null, "projects_count": 0, "devlogs_count": 0, "votes_count": 0, "ships_count": 0, "projects": [], "coding_time_seconds": 0, "coding_time_seconds_today": 0, "balance": "You need to have a pocket watcher badge to view this.", "badges": [], "created_at": "2025-08-20T02:37:32.316-04:00", "updated_at": "2025-08-20T22:00:03.225-04:00", "avatar": "https://secure.gravatar.com/avatar/bd850c67cb1a2b2052a2ed36b92b25c8.jpg?s=512&d=https%3A%2F%2Fa.slack-edge.com%2Fdf10d%2Fimg%2Favatars%2Fava_0013-512.png", "custom_css": null}, {"id": 22248, "slack_id": "U09B9NFNC3W", "display_name": "Heshan tharusha", "bio": null, "projects_count": 0, "devlogs_count": 0, "votes_count": 0, "ships_count": 0, "projects": [], "coding_time_seconds": 0, "coding_time_seconds_today": 0, "balance": "You need to have a pocket watcher badge to view this.", "badges": [], "created_at": "2025-08-20T02:38:47.503-04:00", "updated_at": "2025-08-20T22:00:03.365-04:00", "avatar": "https://avatars.slack-edge.com/2025-08-19/9374430392051_a0a684c5367cef491b1d_original.png", "custom_css": null}, {"id": 22249, "slack_id": "U09B4DWCA5B", "display_name": "Timothy", "bio": null, "projects_count": 0, "devlogs_count": 0, "votes_count": 0, "ships_count": 0, "projects": [], "coding_time_seconds": 0, "coding_time_seconds_today": 0, "balance": "You need to have a pocket watcher badge to view this.", "badges": [], "created_at": "2025-08-20T03:02:10.690-04:00", "updated_at": "2025-08-20T22:00:03.861-04:00", "avatar": "https://avatars.slack-edge.com/2025-08-20/9392728268721_3fce28d89a662447ab4d_original.jpg", "custom_css": null}, {"id": 22250, "slack_id": "U09ATTUKUK1", "display_name": "Oliver James Gorvett", "bio": null, "projects_count": 0, "devlogs_count": 0, "votes_count": 0, "ships_count": 0, "projects": [], "coding_time_seconds": 0, "coding_time_seconds_today": 0, "balance": "You need to have a pocket watcher badge to view this.", "badges": [], "created_at": "2025-08-20T03:04:28.446-04:00", "updated_at": "2025-08-20T22:00:04.207-04:00", "avatar": "https://avatars.slack-edge.com/2025-08-20/9367954016343_6dc6af92bf38e196ab15_original.png", "custom_css": null}, {"id": 22251, "slack_id": "U09BGL2BQTT", "display_name": "Abhijat", "bio": null, "projects_count": 0, "devlogs_count": 0, "votes_count": 0, "ships_count": 0, "projects": [], "coding_time_seconds": 0, "coding_time_seconds_today": 0, "balance": "You need to have a pocket watcher badge to view this.", "badges": [], "created_at": "2025-08-20T03:05:44.700-04:00", "updated_at": "2025-08-20T22:00:04.521-04:00", "avatar": "https://secure.gravatar.com/avatar/6511ab91bae17391b415ffec596543a4.jpg?s=512&d=https%3A%2F%2Fa.slack-edge.com%2Fdf10d%2Fimg%2Favatars%2Fava_0020-512.png", "custom_css": null}, {"id": 22252, "slack_id": "U09B5UHBY4S", "display_name": "Jiayu Wu", "bio": null, "projects_count": 0, "devlogs_count": 0, "votes_count": 0, "ships_count": 0, "projects": [], "coding_time_seconds": 48399, "coding_time_seconds_today": 0, "balance": "You need to have a pocket watcher badge to view this.", "badges": [], "created_at": "2025-08-20T03:06:48.110-04:00", "updated_at": "2025-08-22T02:00:05.138-04:00", "avatar": "https://secure.gravatar.com/avatar/565a5d6814727ff1f92ddd1f5452d03c.jpg?s=512&d=https%3A%2F%2Fa.slack-edge.com%2Fdf10d%2Fimg%2Favatars%2Fava_0001-512.png", "custom_css": null}, {"id": 22253, "slack_id": "U09B9SD4FHA", "display_name": "wolfwolfnuke", "bio": null, "projects_count": 0, "devlogs_count": 0, "votes_count": 0, "ships_count": 0, "projects": [], "coding_time_seconds": 120, "coding_time_seconds_today": 0, "balance": "You need to have a pocket watcher badge to view this.", "badges": [], "created_at": "2025-08-20T03:07:36.356-04:00", "updated_at": "2025-08-20T22:00:05.481-04:00", "avatar": "https://secure.gravatar.com/avatar/581df7bc701b7f4ddba028b175f32bc5.jpg?s=512&d=https%3A%2F%2Fa.slack-edge.com%2Fdf10d%2Fimg%2Favatars%2Fava_0010-512.png", "custom_css": null}, {"id": 22254, "slack_id": "U09BJNJJV6V", "display_name": "Tarun Mittal", "bio": null, "projects_count": 0, "devlogs_count": 0, "votes_count": 0, "ships_count": 0, "projects": [], "coding_time_seconds": 0, "coding_time_seconds_today": 0, "balance": "You need to have a pocket watcher badge to view this.", "badges": [], "created_at": "2025-08-20T03:17:11.463-04:00", "updated_at": "2025-08-20T22:00:05.869-04:00", "avatar": "https://secure.gravatar.com/avatar/e5ed5c2b2f7794da51ddd5b10d106337.jpg?s=512&d=https%3A%2F%2Fa.slack-edge.com%2Fdf10d%2Fimg%2Favatars%2Fava_0010-512.png", "custom_css": null}, {"id": 22255, "slack_id": "U09BGEHM601", "display_name": "Zsombor", "bio": null, "projects_count": 1, "devlogs_count": 1, "votes_count": 0, "ships_count": 0, "projects": [{"id": 13369, "title": "Survive the undead", "devlogs_count": 1, "created_at": "2025-09-14T16:24:10.728-04:00"}], "coding_time_seconds": 55176, "coding_time_seconds_today": 0, "balance": "You need to have a pocket watcher badge to view this.", "badges": [], "created_at": "2025-08-20T03:36:19.285-04:00", "updated_at": "2025-09-14T16:20:11.139-04:00", "avatar": "https://secure.gravatar.com/avatar/1d313c6e183a39debf70d51d04b5abe0.jpg?s=512&d=https%3A%2F%2Fa.slack-edge.com%2Fdf10d%2Fimg%2Favatars%2Fava_0019-512.png", "custom_css": null}, {"id": 22256, "slack_id": "U09AU26N0MV", "display_name": "rey", "bio": null, "projects_count": 0, "devlogs_count": 0, "votes_count": 0, "ships_count": 0, "projects": [], "coding_time_seconds": 0, "coding_time_seconds_today": 0, "balance": "You need to have a pocket watcher badge to view this.", "badges": [], "created_at": "2025-08-20T03:39:09.297-04:00", "updated_at": "2025-08-20T22:00:06.621-04:00", "avatar": "https://secure.gravatar.com/avatar/97764af2f2c07c6209f10f6bfa751944.jpg?s=512&d=https%3A%2F%2Fa.slack-edge.com%2Fdf10d%2Fimg%2Favatars%2Fava_0006-512.png", "custom_css": null}, {"id": 22257, "slack_id": "U09B82GBHRU", "display_name": "Elizabeth", "bio": null, "projects_count": 0, "devlogs_count": 0, "votes_count": 0, "ships_count": 0, "projects": [], "coding_time_seconds": 0, "coding_time_seconds_today": 0, "balance": "You need to have a pocket watcher badge to view this.", "badges": [], "created_at": "2025-08-20T03:44:02.078-04:00", "updated_at": "2025-08-20T22:00:07.045-04:00", "avatar": "https://secure.gravatar.com/avatar/7fc0d151f4e25b8aa21bea0d408bdca9.jpg?s=512&d=https%3A%2F%2Fa.slack-edge.com%2Fdf10d%2Fimg%2Favatars%2Fava_0000-512.png", "custom_css": null}, {"id": 22258, "slack_id": "U09BA523DK6", "display_name": "tatar55", "bio": null, "projects_count": 0, "devlogs_count": 0, "votes_count": 0, "ships_count": 0, "projects": [], "coding_time_seconds": 0, "coding_time_seconds_today": 0, "balance": "You need to have a pocket watcher badge to view this.", "badges": [], "created_at": "2025-08-20T04:03:47.791-04:00", "updated_at": "2025-08-20T22:00:07.461-04:00", "avatar": "https://secure.gravatar.com/avatar/1202bd1dc8425ed3bd3cf1e6584cedfd.jpg?s=512&d=https%3A%2F%2Fa.slack-edge.com%2Fdf10d%2Fimg%2Favatars%2Fava_0011-512.png", "custom_css": null}, {"id": 22259, "slack_id": "U09BA6PCF7W", "display_name": "marvelmd", "bio": null, "projects_count": 0, "devlogs_count": 0, "votes_count": 0, "ships_count": 0, "projects": [], "coding_time_seconds": 0, "coding_time_seconds_today": 0, "balance": "You need to have a pocket watcher badge to view this.", "badges": [], "created_at": "2025-08-20T04:15:28.866-04:00", "updated_at": "2025-08-20T22:00:07.759-04:00", "avatar": "https://secure.gravatar.com/avatar/dbaa0cf3b7b751ca660fd9460185ecd5.jpg?s=512&d=https%3A%2F%2Fa.slack-edge.com%2Fdf10d%2Fimg%2Favatars%2Fava_0016-512.png", "custom_css": null}, {"id": 22260, "slack_id": "U09BZC45KLG", "display_name": "Samar Ali", "bio": "i am a first year engg student , i have always been interested in programming, i have tried game dev before though i am not a pro , i started with scratch when i was a kid and then created some projects in python, godot, unity - i am looking forward to grow as a developer and making good use of this platform.", "projects_count": 1, "devlogs_count": 0, "votes_count": 0, "ships_count": 0, "projects": [{"id": 11838, "title": "proj_1", "devlogs_count": 0, "created_at": "2025-08-20T06:24:12.622-04:00"}], "coding_time_seconds": 4436, "coding_time_seconds_today": 0, "balance": "You need to have a pocket watcher badge to view this.", "badges": [], "created_at": "2025-08-20T04:15:58.605-04:00", "updated_at": "2025-08-20T22:00:07.906-04:00", "avatar": "https://avatars.slack-edge.com/2025-08-20/9368292508631_66f00af09641bbce7d91_original.jpg", "custom_css": null}, {"id": 22261, "slack_id": "U09BW66D7S4", "display_name": "Aakarshit", "bio": null, "projects_count": 0, "devlogs_count": 0, "votes_count": 0, "ships_count": 0, "projects": [], "coding_time_seconds": 0, "coding_time_seconds_today": 0, "balance": "You need to have a pocket watcher badge to view this.", "badges": [], "created_at": "2025-08-20T04:49:31.059-04:00", "updated_at": "2025-08-20T22:00:08.068-04:00", "avatar": "https://secure.gravatar.com/avatar/ddbc53f9c7800ed05edb8846794184e5.jpg?s=512&d=https%3A%2F%2Fa.slack-edge.com%2Fdf10d%2Fimg%2Favatars%2Fava_0014-512.png", "custom_css": null}, {"id": 22262, "slack_id": "U09BAEYSA4U", "display_name": "Sebastian Benavides Madrigal", "bio": null, "projects_count": 0, "devlogs_count": 0, "votes_count": 0, "ships_count": 0, "projects": [], "coding_time_seconds": 0, "coding_time_seconds_today": 0, "balance": "You need to have a pocket watcher badge to view this.", "badges": [], "created_at": "2025-08-20T05:12:38.008-04:00", "updated_at": "2025-08-20T22:00:08.201-04:00", "avatar": "https://secure.gravatar.com/avatar/15f61afb13e1096e5877e485e30f94a6.jpg?s=512&d=https%3A%2F%2Fa.slack-edge.com%2Fdf10d%2Fimg%2Favatars%2Fava_0005-512.png", "custom_css": null}, {"id": 22263, "slack_id": "U09B528RE0M", "display_name": "Aymen-Fkir", "bio": null, "projects_count": 0, "devlogs_count": 0, "votes_count": 0, "ships_count": 0, "projects": [], "coding_time_seconds": 281, "coding_time_seconds_today": 0, "balance": "You need to have a pocket watcher badge to view this.", "badges": [], "created_at": "2025-08-20T05:12:39.714-04:00", "updated_at": "2025-08-20T22:00:08.331-04:00", "avatar": "https://secure.gravatar.com/avatar/1a1352b977eaef2ed386009a3bcbdd50.jpg?s=512&d=https%3A%2F%2Fa.slack-edge.com%2Fdf10d%2Fimg%2Favatars%2Fava_0021-512.png", "custom_css": null}, {"id": 22264, "slack_id": "U09B8FXUS78", "display_name": "Saurabh Tiwari", "bio": "17", "projects_count": 3, "devlogs_count": 18, "votes_count": 62, "ships_count": 3, "projects": [{"id": 12409, "title": "Auxo", "devlogs_count": 7, "created_at": "2025-08-27T04:22:58.840-04:00"}, {"id": 13709, "title": "Eros", "devlogs_count": 4, "created_at": "2025-09-23T12:02:24.507-04:00"}, {"id": 12273, "title": "Apollo", "devlogs_count": 7, "created_at": "2025-08-25T06:02:03.577-04:00"}], "coding_time_seconds": 99543, "coding_time_seconds_today": 1048, "balance": "You need to have a pocket watcher badge to view this.", "badges": [], "created_at": "2025-08-20T05:20:37.958-04:00", "updated_at": "2025-09-21T09:53:20.120-04:00", "avatar": "https://avatars.slack-edge.com/2025-08-20/9379127775013_aa75a99cab7c2f9eaa5a_original.jpg", "custom_css": null}, {"id": 22265, "slack_id": "U096RVARJF7", "display_name": "Pascal", "bio": null, "projects_count": 0, "devlogs_count": 0, "votes_count": 0, "ships_count": 0, "projects": [], "coding_time_seconds": 0, "coding_time_seconds_today": 0, "balance": "You need to have a pocket watcher badge to view this.", "badges": [], "created_at": "2025-08-20T05:31:57.637-04:00", "updated_at": "2025-08-20T22:00:08.811-04:00", "avatar": "https://secure.gravatar.com/avatar/768cd702c48a8a75c255ab2ae88ee8c6.jpg?s=512&d=https%3A%2F%2Fa.slack-edge.com%2Fdf10d%2Fimg%2Favatars%2Fava_0008-512.png", "custom_css": null}], "pagination": {"page": 1109, "pages": 1192, "count": 23828, "items": 20}}