{"users": [{"id": 2201, "slack_id": "U091P9U1DHS", "display_name": "Naman Garg", "bio": null, "projects_count": 0, "devlogs_count": 0, "votes_count": 0, "ships_count": 0, "projects": [], "coding_time_seconds": 30612, "coding_time_seconds_today": 0, "balance": "You need to have a pocket watcher badge to view this.", "badges": [], "created_at": "2025-06-16T14:58:54.700-04:00", "updated_at": "2025-07-03T19:21:10.928-04:00", "avatar": "https://secure.gravatar.com/avatar/8dc4002637906160f3b15045f2a7bc7c.jpg?s=512&d=https%3A%2F%2Fa.slack-edge.com%2Fdf10d%2Fimg%2Favatars%2Fava_0003-512.png", "custom_css": null}, {"id": 2202, "slack_id": "U0918Q76H39", "display_name": "Owen2k6", "bio": null, "projects_count": 2, "devlogs_count": 10, "votes_count": 20, "ships_count": 1, "projects": [{"id": 5445, "title": "GoplexMC Client", "devlogs_count": 2, "created_at": "2025-07-05T10:51:01.976-04:00"}, {"id": 5449, "title": "GoOS", "devlogs_count": 8, "created_at": "2025-07-05T11:06:00.445-04:00"}], "coding_time_seconds": 262051, "coding_time_seconds_today": 0, "balance": "You need to have a pocket watcher badge to view this.", "badges": [{"name": "Maiden Voyage", "text": "you shipped your first project! the journey begins...", "icon": "\ud83d\udea2"}], "created_at": "2025-06-16T14:59:00.655-04:00", "updated_at": "2025-09-10T22:52:15.893-04:00", "avatar": "https://secure.gravatar.com/avatar/baec2e92c541848ced7da12129c5acf3.jpg?s=512&d=https%3A%2F%2Fa.slack-edge.com%2Fdf10d%2Fimg%2Favatars%2Fava_0008-512.png", "custom_css": null}, {"id": 2203, "slack_id": "U0918PW4PLP", "display_name": "Minionguyjpro", "bio": null, "projects_count": 0, "devlogs_count": 0, "votes_count": 0, "ships_count": 0, "projects": [], "coding_time_seconds": 0, "coding_time_seconds_today": 0, "balance": "You need to have a pocket watcher badge to view this.", "badges": [], "created_at": "2025-06-16T14:59:10.256-04:00", "updated_at": "2025-07-03T19:21:11.463-04:00", "avatar": "https://secure.gravatar.com/avatar/4239a8f3f3c83398ad60516e359c6e00.jpg?s=512&d=https%3A%2F%2Fa.slack-edge.com%2Fdf10d%2Fimg%2Favatars%2Fava_0025-512.png", "custom_css": null}, {"id": 2204, "slack_id": "U091H5G9QUB", "display_name": "BopoH_L", "bio": null, "projects_count": 0, "devlogs_count": 0, "votes_count": 0, "ships_count": 0, "projects": [], "coding_time_seconds": 393289, "coding_time_seconds_today": 0, "balance": "You need to have a pocket watcher badge to view this.", "badges": [], "created_at": "2025-06-16T14:59:12.853-04:00", "updated_at": "2025-07-03T19:21:11.734-04:00", "avatar": "https://secure.gravatar.com/avatar/a2f925a06d157a25ecb95fee3653ae21.jpg?s=512&d=https%3A%2F%2Fa.slack-edge.com%2Fdf10d%2Fimg%2Favatars%2Fava_0024-512.png", "custom_css": null}, {"id": 2205, "slack_id": "U074PB2E95Z", "display_name": "patrick mcnaughton", "bio": null, "projects_count": 0, "devlogs_count": 0, "votes_count": 0, "ships_count": 0, "projects": [], "coding_time_seconds": 0, "coding_time_seconds_today": 0, "balance": "You need to have a pocket watcher badge to view this.", "badges": [], "created_at": "2025-06-16T14:59:15.705-04:00", "updated_at": "2025-07-03T19:21:12.000-04:00", "avatar": "https://avatars.slack-edge.com/2024-05-22/7182399061248_69ecc56697ab809a4eb5_original.png", "custom_css": null}, {"id": 2206, "slack_id": "U092CHMLB24", "display_name": "parth", "bio": null, "projects_count": 3, "devlogs_count": 11, "votes_count": 95, "ships_count": 2, "projects": [{"id": 9941, "title": "Hackclub CDN", "devlogs_count": 1, "created_at": "2025-08-03T03:06:50.088-04:00"}, {"id": 9573, "title": "Pikolang", "devlogs_count": 2, "created_at": "2025-08-01T17:27:12.157-04:00"}, {"id": 7217, "title": "Summer the Explorer", "devlogs_count": 6, "created_at": "2025-07-20T02:18:25.668-04:00"}], "coding_time_seconds": 580854, "coding_time_seconds_today": 0, "balance": "You need to have a pocket watcher badge to view this.", "badges": [{"name": "Maiden Voyage", "text": "you shipped your first project! the journey begins...", "icon": "\ud83d\udea2"}, {"name": "Ballot Stuffer", "text": "vote 100 times.", "icon": "https://summer.hackclub.com/assets/i_voted-bf851b48.png"}, {"name": "Graphic Design is My Passion", "text": "Oh God How Did This Get Here I Am Not Good With Computer", "icon": "\ud83c\udfa8"}, {"name": "Lived Mas", "text": "you know what you did.", "icon": "https://summer.hackclub.com/assets/bong-2a18e50d.png"}], "created_at": "2025-06-16T14:59:40.762-04:00", "updated_at": "2025-09-10T22:52:16.019-04:00", "avatar": "https://secure.gravatar.com/avatar/60a96a202d31620e9154ed2c0357cac0.jpg?s=512&d=https%3A%2F%2Fa.slack-edge.com%2Fdf10d%2Fimg%2Favatars%2Fava_0007-512.png", "custom_css": null}, {"id": 2207, "slack_id": "U0918Q44NEB", "display_name": "helena", "bio": null, "projects_count": 0, "devlogs_count": 0, "votes_count": 0, "ships_count": 0, "projects": [], "coding_time_seconds": 4221, "coding_time_seconds_today": 0, "balance": "You need to have a pocket watcher badge to view this.", "badges": [], "created_at": "2025-06-16T15:00:09.179-04:00", "updated_at": "2025-07-03T19:21:12.539-04:00", "avatar": "https://secure.gravatar.com/avatar/2bc49b2170fe3061bb6d66d14cd8e76a.jpg?s=512&d=https%3A%2F%2Fa.slack-edge.com%2Fdf10d%2Fimg%2Favatars%2Fava_0024-512.png", "custom_css": null}, {"id": 2208, "slack_id": "U0922L61F0R", "display_name": "Gvol", "bio": null, "projects_count": 0, "devlogs_count": 0, "votes_count": 0, "ships_count": 0, "projects": [], "coding_time_seconds": 0, "coding_time_seconds_today": 0, "balance": "You need to have a pocket watcher badge to view this.", "badges": [], "created_at": "2025-06-16T15:00:20.846-04:00", "updated_at": "2025-07-03T19:21:12.809-04:00", "avatar": "https://secure.gravatar.com/avatar/8cc8cd7bcc1ba44317b1d2e804fcfa86.jpg?s=512&d=https%3A%2F%2Fa.slack-edge.com%2Fdf10d%2Fimg%2Favatars%2Fava_0020-512.png", "custom_css": null}, {"id": 2209, "slack_id": "U091NAM4D9T", "display_name": "Experiences", "bio": null, "projects_count": 1, "devlogs_count": 0, "votes_count": 0, "ships_count": 0, "projects": [{"id": 192, "title": "Senior Developer Review", "devlogs_count": 0, "created_at": "2025-06-16T15:12:45.430-04:00"}], "coding_time_seconds": 53325, "coding_time_seconds_today": 0, "balance": "You need to have a pocket watcher badge to view this.", "badges": [], "created_at": "2025-06-16T15:00:24.382-04:00", "updated_at": "2025-07-03T19:21:13.092-04:00", "avatar": "https://avatars.slack-edge.com/2025-06-16/9058296753234_293a5c2a69f9212a5005_original.jpg", "custom_css": null}, {"id": 2210, "slack_id": "U091H2SGQ83", "display_name": "rinaldots", "bio": null, "projects_count": 0, "devlogs_count": 0, "votes_count": 0, "ships_count": 0, "projects": [], "coding_time_seconds": 158731, "coding_time_seconds_today": 0, "balance": "You need to have a pocket watcher badge to view this.", "badges": [], "created_at": "2025-06-16T15:00:50.223-04:00", "updated_at": "2025-07-03T19:21:13.366-04:00", "avatar": "https://secure.gravatar.com/avatar/8b3367bac44fe0e6255eda7bb36e7740.jpg?s=512&d=https%3A%2F%2Fa.slack-edge.com%2Fdf10d%2Fimg%2Favatars%2Fava_0006-512.png", "custom_css": null}, {"id": 2211, "slack_id": "U0922LGGSSD", "display_name": "Marwan", "bio": null, "projects_count": 0, "devlogs_count": 0, "votes_count": 0, "ships_count": 0, "projects": [], "coding_time_seconds": 0, "coding_time_seconds_today": 0, "balance": "You need to have a pocket watcher badge to view this.", "badges": [], "created_at": "2025-06-16T15:01:09.416-04:00", "updated_at": "2025-07-03T19:21:13.637-04:00", "avatar": "https://secure.gravatar.com/avatar/9dccd80104adea9ace0b21dea509ebca.jpg?s=512&d=https%3A%2F%2Fa.slack-edge.com%2Fdf10d%2Fimg%2Favatars%2Fava_0009-512.png", "custom_css": null}, {"id": 2212, "slack_id": "U0918MAF1DM", "display_name": "Vasilis", "bio": null, "projects_count": 0, "devlogs_count": 0, "votes_count": 0, "ships_count": 0, "projects": [], "coding_time_seconds": 0, "coding_time_seconds_today": 0, "balance": "You need to have a pocket watcher badge to view this.", "badges": [], "created_at": "2025-06-16T15:01:27.521-04:00", "updated_at": "2025-07-03T19:21:13.913-04:00", "avatar": "https://secure.gravatar.com/avatar/9fc106632c024a9271fafca4d01a01e8.jpg?s=512&d=https%3A%2F%2Fa.slack-edge.com%2Fdf10d%2Fimg%2Favatars%2Fava_0002-512.png", "custom_css": null}, {"id": 2213, "slack_id": "U091GNAAR46", "display_name": "Daniel Araya Carmona (Daikoo0)", "bio": null, "projects_count": 0, "devlogs_count": 0, "votes_count": 0, "ships_count": 0, "projects": [], "coding_time_seconds": 0, "coding_time_seconds_today": 0, "balance": "You need to have a pocket watcher badge to view this.", "badges": [], "created_at": "2025-06-16T15:01:30.491-04:00", "updated_at": "2025-07-03T19:21:14.190-04:00", "avatar": "https://avatars.slack-edge.com/2025-06-16/9070717564353_d9633c83f85e2dea442c_original.jpg", "custom_css": null}, {"id": 2214, "slack_id": "U08270RJ07M", "display_name": "VyrCZ", "bio": null, "projects_count": 2, "devlogs_count": 13, "votes_count": 16, "ships_count": 2, "projects": [{"id": 1915, "title": "Spectraforge", "devlogs_count": 10, "created_at": "2025-06-19T15:58:07.800-04:00"}, {"id": 8454, "title": "Fried Egg (KTANE mod)", "devlogs_count": 3, "created_at": "2025-07-27T09:43:36.293-04:00"}], "coding_time_seconds": 353853, "coding_time_seconds_today": 0, "balance": "You need to have a pocket watcher badge to view this.", "badges": [{"name": "Maiden Voyage", "text": "you shipped your first project! the journey begins...", "icon": "\ud83d\udea2"}], "created_at": "2025-06-16T15:01:33.282-04:00", "updated_at": "2025-09-10T22:52:16.253-04:00", "avatar": "https://secure.gravatar.com/avatar/ff2ee04afb23aa2db0cccd7a1b5780f8.jpg?s=512&d=https%3A%2F%2Fa.slack-edge.com%2Fdf10d%2Fimg%2Favatars%2Fava_0007-512.png", "custom_css": null}, {"id": 2215, "slack_id": "U092CHMPKPA", "display_name": "Adriano Silva", "bio": null, "projects_count": 0, "devlogs_count": 0, "votes_count": 0, "ships_count": 0, "projects": [], "coding_time_seconds": 0, "coding_time_seconds_today": 0, "balance": "You need to have a pocket watcher badge to view this.", "badges": [], "created_at": "2025-06-16T15:01:37.749-04:00", "updated_at": "2025-07-03T19:21:14.806-04:00", "avatar": "https://secure.gravatar.com/avatar/60963adc1ec64b615de594c95d4c352c.jpg?s=512&d=https%3A%2F%2Fa.slack-edge.com%2Fdf10d%2Fimg%2Favatars%2Fava_0000-512.png", "custom_css": null}, {"id": 2216, "slack_id": "U091H9K487Q", "display_name": "Alisha F", "bio": null, "projects_count": 0, "devlogs_count": 0, "votes_count": 0, "ships_count": 0, "projects": [], "coding_time_seconds": 0, "coding_time_seconds_today": 0, "balance": "You need to have a pocket watcher badge to view this.", "badges": [], "created_at": "2025-06-16T15:01:54.448-04:00", "updated_at": "2025-07-03T19:21:15.081-04:00", "avatar": "https://secure.gravatar.com/avatar/654d953a4aee12dbef6e8c7f1fca13ac.jpg?s=512&d=https%3A%2F%2Fa.slack-edge.com%2Fdf10d%2Fimg%2Favatars%2Fava_0001-512.png", "custom_css": null}, {"id": 2217, "slack_id": "U0918QQJBDM", "display_name": "Mohammad Shayan", "bio": null, "projects_count": 0, "devlogs_count": 0, "votes_count": 0, "ships_count": 0, "projects": [], "coding_time_seconds": 0, "coding_time_seconds_today": 0, "balance": "You need to have a pocket watcher badge to view this.", "badges": [], "created_at": "2025-06-16T15:02:01.651-04:00", "updated_at": "2025-07-03T19:21:15.353-04:00", "avatar": "https://secure.gravatar.com/avatar/068c30026aa4a1bd292d940ba9e4a57e.jpg?s=512&d=https%3A%2F%2Fa.slack-edge.com%2Fdf10d%2Fimg%2Favatars%2Fava_0006-512.png", "custom_css": null}, {"id": 2218, "slack_id": "U0918QRD6MV", "display_name": "Mir Abidi", "bio": null, "projects_count": 0, "devlogs_count": 0, "votes_count": 0, "ships_count": 0, "projects": [], "coding_time_seconds": 0, "coding_time_seconds_today": 0, "balance": "You need to have a pocket watcher badge to view this.", "badges": [], "created_at": "2025-06-16T15:02:16.290-04:00", "updated_at": "2025-07-03T19:21:15.627-04:00", "avatar": "https://secure.gravatar.com/avatar/d05d118770165c100233ef8caeb4f590.jpg?s=512&d=https%3A%2F%2Fa.slack-edge.com%2Fdf10d%2Fimg%2Favatars%2Fava_0003-512.png", "custom_css": null}, {"id": 2219, "slack_id": "U0922LQ7EAD", "display_name": "Jihed Mrouki", "bio": null, "projects_count": 0, "devlogs_count": 0, "votes_count": 0, "ships_count": 0, "projects": [], "coding_time_seconds": 0, "coding_time_seconds_today": 0, "balance": "You need to have a pocket watcher badge to view this.", "badges": [], "created_at": "2025-06-16T15:02:24.255-04:00", "updated_at": "2025-07-03T19:21:15.906-04:00", "avatar": "https://avatars.slack-edge.com/2025-06-16/9051231995155_9da3b8d69639541e5dd0_original.jpg", "custom_css": null}, {"id": 2220, "slack_id": "U092CHZAG6L", "display_name": "Reyna Amarynth", "bio": null, "projects_count": 0, "devlogs_count": 0, "votes_count": 0, "ships_count": 0, "projects": [], "coding_time_seconds": 0, "coding_time_seconds_today": 0, "balance": "You need to have a pocket watcher badge to view this.", "badges": [], "created_at": "2025-06-16T15:02:30.865-04:00", "updated_at": "2025-07-03T19:21:16.182-04:00", "avatar": "https://secure.gravatar.com/avatar/812d11e228efc85875829252efc75e41.jpg?s=512&d=https%3A%2F%2Fa.slack-edge.com%2Fdf10d%2Fimg%2Favatars%2Fava_0013-512.png", "custom_css": null}], "pagination": {"page": 111, "pages": 1192, "count": 23828, "items": 20}}