{"users": [{"id": 22266, "slack_id": "U09BRKXBEP2", "display_name": "koushik", "bio": null, "projects_count": 0, "devlogs_count": 0, "votes_count": 0, "ships_count": 0, "projects": [], "coding_time_seconds": 0, "coding_time_seconds_today": 0, "balance": "You need to have a pocket watcher badge to view this.", "badges": [], "created_at": "2025-08-20T05:39:43.901-04:00", "updated_at": "2025-08-20T22:00:09.473-04:00", "avatar": "https://secure.gravatar.com/avatar/d80139b48138495c0b71366ef26f8590.jpg?s=512&d=https%3A%2F%2Fa.slack-edge.com%2Fdf10d%2Fimg%2Favatars%2Fava_0011-512.png", "custom_css": null}, {"id": 22267, "slack_id": "U09BAL6JLLC", "display_name": "JustZvan", "bio": "programmer\r\ncroatia\r\nhe/him", "projects_count": 4, "devlogs_count": 15, "votes_count": 80, "ships_count": 3, "projects": [{"id": 11968, "title": "stupid login", "devlogs_count": 1, "created_at": "2025-08-21T15:05:29.967-04:00"}, {"id": 12387, "title": "osu.js", "devlogs_count": 5, "created_at": "2025-08-26T14:45:11.024-04:00"}, {"id": 13190, "title": "Motus - Motion for All", "devlogs_count": 0, "created_at": "2025-09-11T09:36:36.021-04:00"}, {"id": 11971, "title": "GWEM", "devlogs_count": 9, "created_at": "2025-08-21T15:36:43.900-04:00"}], "coding_time_seconds": 103666, "coding_time_seconds_today": 0, "balance": "You need to have a pocket watcher badge to view this.", "badges": [], "created_at": "2025-08-20T06:03:17.485-04:00", "updated_at": "2025-09-22T12:23:02.101-04:00", "avatar": "https://avatars.slack-edge.com/2025-08-22/9404978269969_ae472f0a15fdab065006_original.png", "custom_css": ""}, {"id": 22268, "slack_id": "U09B8NDMPT8", "display_name": "Oussama Kefi", "bio": null, "projects_count": 0, "devlogs_count": 0, "votes_count": 0, "ships_count": 0, "projects": [], "coding_time_seconds": 0, "coding_time_seconds_today": 0, "balance": "You need to have a pocket watcher badge to view this.", "badges": [], "created_at": "2025-08-20T06:07:21.608-04:00", "updated_at": "2025-08-20T22:00:14.384-04:00", "avatar": "https://secure.gravatar.com/avatar/d93a1a65422b1e156309009a79e760d9.jpg?s=512&d=https%3A%2F%2Fa.slack-edge.com%2Fdf10d%2Fimg%2Favatars%2Fava_0016-512.png", "custom_css": null}, {"id": 22269, "slack_id": "U08RHCGFFK9", "display_name": "f", "bio": null, "projects_count": 0, "devlogs_count": 0, "votes_count": 0, "ships_count": 0, "projects": [], "coding_time_seconds": 0, "coding_time_seconds_today": 0, "balance": "You need to have a pocket watcher badge to view this.", "badges": [], "created_at": "2025-08-20T06:37:54.553-04:00", "updated_at": "2025-08-20T22:00:14.550-04:00", "avatar": "https://secure.gravatar.com/avatar/bf213ef3fe948c268665d729f3c4aae6.jpg?s=512&d=https%3A%2F%2Fa.slack-edge.com%2Fdf10d%2Fimg%2Favatars%2Fava_0019-512.png", "custom_css": null}, {"id": 22270, "slack_id": "U08N972KLD8", "display_name": "OffsetMonkey538", "bio": null, "projects_count": 0, "devlogs_count": 0, "votes_count": 0, "ships_count": 0, "projects": [], "coding_time_seconds": 504852, "coding_time_seconds_today": 0, "balance": "You need to have a pocket watcher badge to view this.", "badges": [], "created_at": "2025-08-20T06:54:23.588-04:00", "updated_at": "2025-08-20T22:00:14.703-04:00", "avatar": "https://avatars.slack-edge.com/2025-04-14/8750651483365_f5e2b6916dadc61f5bd6_original.jpg", "custom_css": null}, {"id": 22271, "slack_id": "U09B0A0ARM4", "display_name": "Naitik", "bio": null, "projects_count": 0, "devlogs_count": 0, "votes_count": 0, "ships_count": 0, "projects": [], "coding_time_seconds": 0, "coding_time_seconds_today": 0, "balance": "You need to have a pocket watcher badge to view this.", "badges": [], "created_at": "2025-08-20T07:14:32.493-04:00", "updated_at": "2025-08-20T22:00:14.958-04:00", "avatar": "https://avatars.slack-edge.com/2025-08-20/9383046014566_d041afcc3f17dcc3d30c_original.png", "custom_css": null}, {"id": 22272, "slack_id": "U09B1NW5PCK", "display_name": "LockingIN", "bio": null, "projects_count": 0, "devlogs_count": 0, "votes_count": 0, "ships_count": 0, "projects": [], "coding_time_seconds": 0, "coding_time_seconds_today": 0, "balance": "You need to have a pocket watcher badge to view this.", "badges": [], "created_at": "2025-08-20T07:16:50.371-04:00", "updated_at": "2025-08-20T22:00:15.189-04:00", "avatar": "https://secure.gravatar.com/avatar/ad4c3570586ec18f6a6c969284837b54.jpg?s=512&d=https%3A%2F%2Fa.slack-edge.com%2Fdf10d%2Fimg%2Favatars%2Fava_0026-512.png", "custom_css": null}, {"id": 22273, "slack_id": "U09C08SRNV6", "display_name": "Sahitya Kushwaha", "bio": null, "projects_count": 0, "devlogs_count": 0, "votes_count": 0, "ships_count": 0, "projects": [], "coding_time_seconds": 0, "coding_time_seconds_today": 0, "balance": "You need to have a pocket watcher badge to view this.", "badges": [], "created_at": "2025-08-20T07:22:22.972-04:00", "updated_at": "2025-08-20T22:00:15.364-04:00", "avatar": "https://avatars.slack-edge.com/2025-08-20/9379661088741_31ca5cdfe477e05e74a8_original.jpg", "custom_css": null}, {"id": 22274, "slack_id": "U09BB2YB292", "display_name": "Om", "bio": null, "projects_count": 1, "devlogs_count": 0, "votes_count": 0, "ships_count": 0, "projects": [{"id": 12536, "title": "Web builder", "devlogs_count": 0, "created_at": "2025-08-29T05:24:20.629-04:00"}], "coding_time_seconds": 86528, "coding_time_seconds_today": 1794, "balance": "You need to have a pocket watcher badge to view this.", "badges": [], "created_at": "2025-08-20T07:28:41.140-04:00", "updated_at": "2025-08-20T22:00:15.519-04:00", "avatar": "https://secure.gravatar.com/avatar/bb4aa932c4e663e54b7803890e2267b5.jpg?s=512&d=https%3A%2F%2Fa.slack-edge.com%2Fdf10d%2Fimg%2Favatars%2Fava_0009-512.png", "custom_css": null}, {"id": 22275, "slack_id": "U09B75N2U74", "display_name": "ChardXBT", "bio": null, "projects_count": 0, "devlogs_count": 0, "votes_count": 0, "ships_count": 0, "projects": [], "coding_time_seconds": 0, "coding_time_seconds_today": 0, "balance": "You need to have a pocket watcher badge to view this.", "badges": [], "created_at": "2025-08-20T07:33:03.479-04:00", "updated_at": "2025-08-20T22:00:15.685-04:00", "avatar": "https://secure.gravatar.com/avatar/5628571470f0284bfa7dc0bd866af63f.jpg?s=512&d=https%3A%2F%2Fa.slack-edge.com%2Fdf10d%2Fimg%2Favatars%2Fava_0014-512.png", "custom_css": null}, {"id": 22276, "slack_id": "U09B1QWC2LT", "display_name": "Abraham John", "bio": null, "projects_count": 0, "devlogs_count": 0, "votes_count": 0, "ships_count": 0, "projects": [], "coding_time_seconds": 0, "coding_time_seconds_today": 0, "balance": "You need to have a pocket watcher badge to view this.", "badges": [], "created_at": "2025-08-20T07:40:19.236-04:00", "updated_at": "2025-08-20T22:00:15.806-04:00", "avatar": "https://avatars.slack-edge.com/2025-08-20/9379735558533_dd0577bc58f8a486f36b_original.jpg", "custom_css": null}, {"id": 22277, "slack_id": "U09B77QRYV8", "display_name": "Naroz yonan", "bio": null, "projects_count": 0, "devlogs_count": 0, "votes_count": 0, "ships_count": 0, "projects": [], "coding_time_seconds": 0, "coding_time_seconds_today": 0, "balance": "You need to have a pocket watcher badge to view this.", "badges": [], "created_at": "2025-08-20T07:55:12.540-04:00", "updated_at": "2025-08-20T22:00:15.925-04:00", "avatar": "https://avatars.slack-edge.com/2025-08-20/9394136045937_2c53704d7557721762c4_original.jpg", "custom_css": null}, {"id": 22278, "slack_id": "U09AYPR7B61", "display_name": "Yuhaj She", "bio": null, "projects_count": 0, "devlogs_count": 0, "votes_count": 0, "ships_count": 0, "projects": [], "coding_time_seconds": 0, "coding_time_seconds_today": 0, "balance": "You need to have a pocket watcher badge to view this.", "badges": [], "created_at": "2025-08-20T08:05:49.957-04:00", "updated_at": "2025-08-20T22:00:16.045-04:00", "avatar": "https://secure.gravatar.com/avatar/14a9715fd9becf7612e3e85ab274c820.jpg?s=512&d=https%3A%2F%2Fa.slack-edge.com%2Fdf10d%2Fimg%2Favatars%2Fava_0022-512.png", "custom_css": null}, {"id": 22279, "slack_id": "U09B2AEE868", "display_name": "Sujal", "bio": null, "projects_count": 0, "devlogs_count": 0, "votes_count": 0, "ships_count": 0, "projects": [], "coding_time_seconds": 0, "coding_time_seconds_today": 0, "balance": "You need to have a pocket watcher badge to view this.", "badges": [], "created_at": "2025-08-20T08:07:24.943-04:00", "updated_at": "2025-08-20T22:00:16.175-04:00", "avatar": "https://secure.gravatar.com/avatar/da7f49654a5110355a66fdcd96987648.jpg?s=512&d=https%3A%2F%2Fa.slack-edge.com%2Fdf10d%2Fimg%2Favatars%2Fava_0021-512.png", "custom_css": null}, {"id": 22280, "slack_id": "U09C0FDE3G8", "display_name": "Ahmet Erdem Pamuk", "bio": null, "projects_count": 0, "devlogs_count": 0, "votes_count": 0, "ships_count": 0, "projects": [], "coding_time_seconds": 156341, "coding_time_seconds_today": 0, "balance": "You need to have a pocket watcher badge to view this.", "badges": [], "created_at": "2025-08-20T08:13:42.725-04:00", "updated_at": "2025-08-20T22:00:16.303-04:00", "avatar": "https://secure.gravatar.com/avatar/f1562431c45ae46fe15cd605186458de.jpg?s=512&d=https%3A%2F%2Fa.slack-edge.com%2Fdf10d%2Fimg%2Favatars%2Fava_0005-512.png", "custom_css": null}, {"id": 22281, "slack_id": "U09BVB2CNQY", "display_name": "UTKARSH SINGH", "bio": null, "projects_count": 0, "devlogs_count": 0, "votes_count": 0, "ships_count": 0, "projects": [], "coding_time_seconds": 0, "coding_time_seconds_today": 0, "balance": "You need to have a pocket watcher badge to view this.", "badges": [], "created_at": "2025-08-20T08:40:20.706-04:00", "updated_at": "2025-08-20T22:00:16.434-04:00", "avatar": "https://secure.gravatar.com/avatar/d5a7172d82808285d5720c6cd77db948.jpg?s=512&d=https%3A%2F%2Fa.slack-edge.com%2Fdf10d%2Fimg%2Favatars%2Fava_0009-512.png", "custom_css": null}, {"id": 22282, "slack_id": "U09BBCK9YTE", "display_name": "Anton Delima", "bio": null, "projects_count": 0, "devlogs_count": 0, "votes_count": 0, "ships_count": 0, "projects": [], "coding_time_seconds": 0, "coding_time_seconds_today": 0, "balance": "You need to have a pocket watcher badge to view this.", "badges": [], "created_at": "2025-08-20T08:41:54.689-04:00", "updated_at": "2025-08-20T22:00:17.014-04:00", "avatar": "https://secure.gravatar.com/avatar/3e77dee6ce53bd0df45491b87f81807f.jpg?s=512&d=https%3A%2F%2Fa.slack-edge.com%2Fdf10d%2Fimg%2Favatars%2Fava_0001-512.png", "custom_css": null}, {"id": 22283, "slack_id": "U09B60JELAH", "display_name": "MK", "bio": null, "projects_count": 0, "devlogs_count": 0, "votes_count": 0, "ships_count": 0, "projects": [], "coding_time_seconds": 0, "coding_time_seconds_today": 0, "balance": "You need to have a pocket watcher badge to view this.", "badges": [], "created_at": "2025-08-20T08:46:37.175-04:00", "updated_at": "2025-08-20T22:00:17.553-04:00", "avatar": "https://secure.gravatar.com/avatar/f1582e1260229e3d86a78513bae70f9e.jpg?s=512&d=https%3A%2F%2Fa.slack-edge.com%2Fdf10d%2Fimg%2Favatars%2Fava_0016-512.png", "custom_css": null}, {"id": 22284, "slack_id": "U09B9CZRUDU", "display_name": "Junior Cabral", "bio": null, "projects_count": 0, "devlogs_count": 0, "votes_count": 0, "ships_count": 0, "projects": [], "coding_time_seconds": 0, "coding_time_seconds_today": 0, "balance": "You need to have a pocket watcher badge to view this.", "badges": [], "created_at": "2025-08-20T08:47:41.269-04:00", "updated_at": "2025-08-20T22:00:17.879-04:00", "avatar": "https://avatars.slack-edge.com/2025-08-20/9369444783735_88d266d09bfff4faea46_original.jpg", "custom_css": null}, {"id": 22285, "slack_id": "U09AV967FF1", "display_name": "Bhaumik", "bio": null, "projects_count": 0, "devlogs_count": 0, "votes_count": 0, "ships_count": 0, "projects": [], "coding_time_seconds": 0, "coding_time_seconds_today": 0, "balance": "You need to have a pocket watcher badge to view this.", "badges": [], "created_at": "2025-08-20T08:47:57.629-04:00", "updated_at": "2025-08-20T22:00:18.617-04:00", "avatar": "https://secure.gravatar.com/avatar/dea36d54995a4dea9d821d887cac097d.jpg?s=512&d=https%3A%2F%2Fa.slack-edge.com%2Fdf10d%2Fimg%2Favatars%2Fava_0008-512.png", "custom_css": null}], "pagination": {"page": 1110, "pages": 1192, "count": 23828, "items": 20}}