{"users": [{"id": 22286, "slack_id": "U09C0KE2YQG", "display_name": "Maxwell", "bio": null, "projects_count": 0, "devlogs_count": 0, "votes_count": 0, "ships_count": 0, "projects": [], "coding_time_seconds": 0, "coding_time_seconds_today": 0, "balance": "You need to have a pocket watcher badge to view this.", "badges": [], "created_at": "2025-08-20T08:50:11.193-04:00", "updated_at": "2025-08-20T22:00:18.765-04:00", "avatar": "https://secure.gravatar.com/avatar/6681f861a90411fe6895cf1fbcf8125f.jpg?s=512&d=https%3A%2F%2Fa.slack-edge.com%2Fdf10d%2Fimg%2Favatars%2Fava_0014-512.png", "custom_css": null}, {"id": 22287, "slack_id": "U09C0QMFW80", "display_name": "Yugal", "bio": null, "projects_count": 0, "devlogs_count": 0, "votes_count": 0, "ships_count": 0, "projects": [], "coding_time_seconds": 39976, "coding_time_seconds_today": 0, "balance": "You need to have a pocket watcher badge to view this.", "badges": [], "created_at": "2025-08-20T09:30:28.637-04:00", "updated_at": "2025-08-20T22:00:18.898-04:00", "avatar": "https://secure.gravatar.com/avatar/d6407de9baa0aa103e28177d5b62278f.jpg?s=512&d=https%3A%2F%2Fa.slack-edge.com%2Fdf10d%2Fimg%2Favatars%2Fava_0002-512.png", "custom_css": null}, {"id": 22288, "slack_id": "U09BBN7P3CL", "display_name": "Marshall Watson", "bio": null, "projects_count": 0, "devlogs_count": 0, "votes_count": 0, "ships_count": 0, "projects": [], "coding_time_seconds": 0, "coding_time_seconds_today": 0, "balance": "You need to have a pocket watcher badge to view this.", "badges": [], "created_at": "2025-08-20T09:38:45.840-04:00", "updated_at": "2025-08-20T22:00:19.047-04:00", "avatar": "https://secure.gravatar.com/avatar/09cc61d4ec3e9b4e01ac4a862c0596ba.jpg?s=512&d=https%3A%2F%2Fa.slack-edge.com%2Fdf10d%2Fimg%2Favatars%2Fava_0025-512.png", "custom_css": null}, {"id": 22289, "slack_id": "U09BG59D6AD", "display_name": "Shobhit Raj", "bio": null, "projects_count": 0, "devlogs_count": 0, "votes_count": 0, "ships_count": 0, "projects": [], "coding_time_seconds": 0, "coding_time_seconds_today": 0, "balance": "You need to have a pocket watcher badge to view this.", "badges": [], "created_at": "2025-08-20T09:51:16.514-04:00", "updated_at": "2025-08-20T22:00:23.853-04:00", "avatar": "https://secure.gravatar.com/avatar/8e86cb96e84b331e4aa2df0c9f61ff91.jpg?s=512&d=https%3A%2F%2Fa.slack-edge.com%2Fdf10d%2Fimg%2Favatars%2Fava_0018-512.png", "custom_css": null}, {"id": 22290, "slack_id": "U09B9R81N6A", "display_name": "aah a", "bio": null, "projects_count": 0, "devlogs_count": 0, "votes_count": 0, "ships_count": 0, "projects": [], "coding_time_seconds": 0, "coding_time_seconds_today": 0, "balance": "You need to have a pocket watcher badge to view this.", "badges": [], "created_at": "2025-08-20T09:58:31.917-04:00", "updated_at": "2025-08-20T22:00:24.148-04:00", "avatar": "https://avatars.slack-edge.com/2025-08-20/9372608354951_f670b47e89472b85ed98_original.png", "custom_css": null}, {"id": 22291, "slack_id": "U09B6F78BS9", "display_name": "Nils Isberg", "bio": null, "projects_count": 0, "devlogs_count": 0, "votes_count": 0, "ships_count": 0, "projects": [], "coding_time_seconds": 6656, "coding_time_seconds_today": 0, "balance": "You need to have a pocket watcher badge to view this.", "badges": [], "created_at": "2025-08-20T10:04:26.590-04:00", "updated_at": "2025-08-21T23:29:01.626-04:00", "avatar": "https://secure.gravatar.com/avatar/1cd16cf3d730eba0646304448a73d2bf.jpg?s=512&d=https%3A%2F%2Fa.slack-edge.com%2Fdf10d%2Fimg%2Favatars%2Fava_0015-512.png", "custom_css": null}, {"id": 22292, "slack_id": "U09B2KFU6JX", "display_name": "Deepanshi Patel", "bio": null, "projects_count": 0, "devlogs_count": 0, "votes_count": 0, "ships_count": 0, "projects": [], "coding_time_seconds": 0, "coding_time_seconds_today": 0, "balance": "You need to have a pocket watcher badge to view this.", "badges": [], "created_at": "2025-08-20T10:05:29.059-04:00", "updated_at": "2025-08-20T22:00:24.837-04:00", "avatar": "https://avatars.slack-edge.com/2025-08-20/9385964570740_92443df119aa38d66444_original.jpg", "custom_css": null}, {"id": 22293, "slack_id": "U09C166BQL8", "display_name": "Hansal", "bio": null, "projects_count": 0, "devlogs_count": 0, "votes_count": 0, "ships_count": 0, "projects": [], "coding_time_seconds": 0, "coding_time_seconds_today": 0, "balance": "You need to have a pocket watcher badge to view this.", "badges": [], "created_at": "2025-08-20T10:10:19.725-04:00", "updated_at": "2025-08-20T22:00:25.011-04:00", "avatar": "https://secure.gravatar.com/avatar/8cfa6364397ede1c3844a50b41b3fe0d.jpg?s=512&d=https%3A%2F%2Fa.slack-edge.com%2Fdf10d%2Fimg%2Favatars%2Fava_0006-512.png", "custom_css": null}, {"id": 22294, "slack_id": "U09BLUE14KB", "display_name": "Shubham", "bio": null, "projects_count": 0, "devlogs_count": 0, "votes_count": 0, "ships_count": 0, "projects": [], "coding_time_seconds": 57594, "coding_time_seconds_today": 0, "balance": "You need to have a pocket watcher badge to view this.", "badges": [], "created_at": "2025-08-20T10:14:06.612-04:00", "updated_at": "2025-08-20T22:00:25.623-04:00", "avatar": "https://secure.gravatar.com/avatar/6cfc1ad5795399e8b8977e074c1abd68.jpg?s=512&d=https%3A%2F%2Fa.slack-edge.com%2Fdf10d%2Fimg%2Favatars%2Fava_0020-512.png", "custom_css": null}, {"id": 22295, "slack_id": "U09B82ZTH8A", "display_name": "\ubcc0\uc0c1\ud638", "bio": null, "projects_count": 0, "devlogs_count": 0, "votes_count": 0, "ships_count": 0, "projects": [], "coding_time_seconds": 0, "coding_time_seconds_today": 0, "balance": "You need to have a pocket watcher badge to view this.", "badges": [], "created_at": "2025-08-20T10:20:37.236-04:00", "updated_at": "2025-08-20T22:00:26.077-04:00", "avatar": "https://secure.gravatar.com/avatar/d8d160782bb7c2fa6cfe8eaa55790ef7.jpg?s=512&d=https%3A%2F%2Fa.slack-edge.com%2Fdf10d%2Fimg%2Favatars%2Fava_0002-512.png", "custom_css": null}, {"id": 22296, "slack_id": "U09AW044NB1", "display_name": "varma", "bio": null, "projects_count": 0, "devlogs_count": 0, "votes_count": 0, "ships_count": 0, "projects": [], "coding_time_seconds": 230174, "coding_time_seconds_today": 0, "balance": "You need to have a pocket watcher badge to view this.", "badges": [], "created_at": "2025-08-20T10:47:53.113-04:00", "updated_at": "2025-08-20T22:00:26.574-04:00", "avatar": "https://secure.gravatar.com/avatar/f33606562f59a815218f4c1df45442b8.jpg?s=512&d=https%3A%2F%2Fa.slack-edge.com%2Fdf10d%2Fimg%2Favatars%2Fava_0020-512.png", "custom_css": null}, {"id": 22297, "slack_id": "U09BA5ZHLTG", "display_name": "Jaswanth", "bio": null, "projects_count": 0, "devlogs_count": 0, "votes_count": 0, "ships_count": 0, "projects": [], "coding_time_seconds": 0, "coding_time_seconds_today": 0, "balance": "You need to have a pocket watcher badge to view this.", "badges": [], "created_at": "2025-08-20T10:51:11.191-04:00", "updated_at": "2025-08-20T22:00:26.990-04:00", "avatar": "https://secure.gravatar.com/avatar/31f6ef84e6d04d9ec86a43babbc97390.jpg?s=512&d=https%3A%2F%2Fa.slack-edge.com%2Fdf10d%2Fimg%2Favatars%2Fava_0020-512.png", "custom_css": null}, {"id": 22298, "slack_id": "U09AW6EV7HV", "display_name": "Chethan Kumar Uppu", "bio": null, "projects_count": 0, "devlogs_count": 0, "votes_count": 0, "ships_count": 0, "projects": [], "coding_time_seconds": 0, "coding_time_seconds_today": 0, "balance": "You need to have a pocket watcher badge to view this.", "badges": [], "created_at": "2025-08-20T11:01:00.520-04:00", "updated_at": "2025-08-20T22:00:27.309-04:00", "avatar": "https://secure.gravatar.com/avatar/f27032e847f6126cf20b1c380293f5f2.jpg?s=512&d=https%3A%2F%2Fa.slack-edge.com%2Fdf10d%2Fimg%2Favatars%2Fava_0007-512.png", "custom_css": null}, {"id": 22299, "slack_id": "U078K2ADF42", "display_name": "Zerui", "bio": null, "projects_count": 0, "devlogs_count": 0, "votes_count": 0, "ships_count": 0, "projects": [], "coding_time_seconds": 0, "coding_time_seconds_today": 0, "balance": "You need to have a pocket watcher badge to view this.", "badges": [], "created_at": "2025-08-20T11:11:10.089-04:00", "updated_at": "2025-08-20T22:00:27.462-04:00", "avatar": "https://secure.gravatar.com/avatar/a2efb0bf5c6dfc3c10cf841aeac9a22c.jpg?s=512&d=https%3A%2F%2Fa.slack-edge.com%2Fdf10d%2Fimg%2Favatars%2Fava_0001-512.png", "custom_css": null}, {"id": 22300, "slack_id": "U09B6UQAEBF", "display_name": "Atharva", "bio": null, "projects_count": 0, "devlogs_count": 0, "votes_count": 0, "ships_count": 0, "projects": [], "coding_time_seconds": 0, "coding_time_seconds_today": 0, "balance": "You need to have a pocket watcher badge to view this.", "badges": [], "created_at": "2025-08-20T11:12:08.578-04:00", "updated_at": "2025-08-20T22:00:27.615-04:00", "avatar": "https://avatars.slack-edge.com/2025-08-20/9409659543808_a80379cd45bb175fbcca_original.png", "custom_css": null}, {"id": 22301, "slack_id": "U09C1K7ACCQ", "display_name": "aurvik", "bio": null, "projects_count": 0, "devlogs_count": 0, "votes_count": 0, "ships_count": 0, "projects": [], "coding_time_seconds": 0, "coding_time_seconds_today": 0, "balance": "You need to have a pocket watcher badge to view this.", "badges": [], "created_at": "2025-08-20T11:13:59.730-04:00", "updated_at": "2025-09-14T09:53:29.795-04:00", "avatar": "https://secure.gravatar.com/avatar/9380f0b704cdb7e3fe3d40e846f0995d.jpg?s=512&d=https%3A%2F%2Fa.slack-edge.com%2Fdf10d%2Fimg%2Favatars%2Fava_0001-512.png", "custom_css": null}, {"id": 22302, "slack_id": "U09B1C6FTL5", "display_name": "Asma", "bio": null, "projects_count": 0, "devlogs_count": 0, "votes_count": 0, "ships_count": 0, "projects": [], "coding_time_seconds": 0, "coding_time_seconds_today": 0, "balance": "You need to have a pocket watcher badge to view this.", "badges": [], "created_at": "2025-08-20T11:14:43.033-04:00", "updated_at": "2025-08-20T22:00:27.970-04:00", "avatar": "https://secure.gravatar.com/avatar/0839056133719f126c9c920ddbb491e9.jpg?s=512&d=https%3A%2F%2Fa.slack-edge.com%2Fdf10d%2Fimg%2Favatars%2Fava_0007-512.png", "custom_css": null}, {"id": 22303, "slack_id": "U09BCBT8QUC", "display_name": "emily", "bio": null, "projects_count": 1, "devlogs_count": 1, "votes_count": 2, "ships_count": 0, "projects": [{"id": 12261, "title": "hello emily", "devlogs_count": 1, "created_at": "2025-08-25T02:00:10.540-04:00"}], "coding_time_seconds": 8969, "coding_time_seconds_today": 0, "balance": "You need to have a pocket watcher badge to view this.", "badges": [], "created_at": "2025-08-20T11:16:31.983-04:00", "updated_at": "2025-09-01T22:38:37.796-04:00", "avatar": "https://avatars.slack-edge.com/2025-08-20/9410499381872_79d4024e36158c6e8766_original.jpg", "custom_css": null}, {"id": 22304, "slack_id": "U09B1TW90SW", "display_name": "Jack Huang", "bio": null, "projects_count": 0, "devlogs_count": 0, "votes_count": 0, "ships_count": 0, "projects": [], "coding_time_seconds": 0, "coding_time_seconds_today": 0, "balance": "You need to have a pocket watcher badge to view this.", "badges": [], "created_at": "2025-08-20T11:19:41.446-04:00", "updated_at": "2025-08-20T22:00:28.222-04:00", "avatar": "https://secure.gravatar.com/avatar/6362d9260fa4b6bd822d3622dcdb1ae4.jpg?s=512&d=https%3A%2F%2Fa.slack-edge.com%2Fdf10d%2Fimg%2Favatars%2Fava_0005-512.png", "custom_css": null}, {"id": 22305, "slack_id": "U09BMEJ3F0R", "display_name": "Vats Alwadhi", "bio": null, "projects_count": 0, "devlogs_count": 0, "votes_count": 0, "ships_count": 0, "projects": [], "coding_time_seconds": 0, "coding_time_seconds_today": 0, "balance": "You need to have a pocket watcher badge to view this.", "badges": [], "created_at": "2025-08-20T11:28:49.211-04:00", "updated_at": "2025-08-20T22:00:28.470-04:00", "avatar": "https://secure.gravatar.com/avatar/81eb0cc146f9ed300b82671d08be0a95.jpg?s=512&d=https%3A%2F%2Fa.slack-edge.com%2Fdf10d%2Fimg%2Favatars%2Fava_0007-512.png", "custom_css": null}], "pagination": {"page": 1111, "pages": 1192, "count": 23828, "items": 20}}