{"users": [{"id": 22326, "slack_id": "U09B8P8525B", "display_name": "Mradul Umrao", "bio": null, "projects_count": 1, "devlogs_count": 1, "votes_count": 5, "ships_count": 1, "projects": [{"id": 11881, "title": "AegisVCS", "devlogs_count": 1, "created_at": "2025-08-20T16:52:08.908-04:00"}], "coding_time_seconds": 35273, "coding_time_seconds_today": 0, "balance": "You need to have a pocket watcher badge to view this.", "badges": [], "created_at": "2025-08-20T16:21:28.208-04:00", "updated_at": "2025-08-21T09:57:37.612-04:00", "avatar": "https://secure.gravatar.com/avatar/5b247801e9277274f858bb160869cb22.jpg?s=512&d=https%3A%2F%2Fa.slack-edge.com%2Fdf10d%2Fimg%2Favatars%2Fava_0002-512.png", "custom_css": null}, {"id": 22327, "slack_id": "U09BPD18ENM", "display_name": "Anango Prabhat", "bio": null, "projects_count": 0, "devlogs_count": 0, "votes_count": 0, "ships_count": 0, "projects": [], "coding_time_seconds": 0, "coding_time_seconds_today": 0, "balance": "You need to have a pocket watcher badge to view this.", "badges": [], "created_at": "2025-08-20T16:51:24.968-04:00", "updated_at": "2025-08-20T22:00:38.192-04:00", "avatar": "https://avatars.slack-edge.com/2025-08-20/9372182847127_683d96cf986ce948ca1b_original.png", "custom_css": null}, {"id": 22328, "slack_id": "U09BDRJLBKN", "display_name": "Andres P", "bio": null, "projects_count": 0, "devlogs_count": 0, "votes_count": 0, "ships_count": 0, "projects": [], "coding_time_seconds": 0, "coding_time_seconds_today": 0, "balance": "You need to have a pocket watcher badge to view this.", "badges": [], "created_at": "2025-08-20T16:57:20.528-04:00", "updated_at": "2025-08-20T22:00:38.487-04:00", "avatar": "https://secure.gravatar.com/avatar/d1d0dcfc94bbf354e1ccd4a4ea62720a.jpg?s=512&d=https%3A%2F%2Fa.slack-edge.com%2Fdf10d%2Fimg%2Favatars%2Fava_0009-512.png", "custom_css": null}, {"id": 22329, "slack_id": "U07S0A44B2B", "display_name": "aiden", "bio": null, "projects_count": 0, "devlogs_count": 0, "votes_count": 0, "ships_count": 0, "projects": [], "coding_time_seconds": 164199, "coding_time_seconds_today": 0, "balance": "You need to have a pocket watcher badge to view this.", "badges": [], "created_at": "2025-08-20T17:15:28.671-04:00", "updated_at": "2025-08-21T03:00:11.879-04:00", "avatar": "https://avatars.slack-edge.com/2024-10-17/7884345530695_b5ce6aa139a788f2f267_original.png", "custom_css": null}, {"id": 22330, "slack_id": "U081E50SZEY", "display_name": "jaden martin", "bio": null, "projects_count": 0, "devlogs_count": 0, "votes_count": 0, "ships_count": 0, "projects": [], "coding_time_seconds": 0, "coding_time_seconds_today": 0, "balance": "You need to have a pocket watcher badge to view this.", "badges": [], "created_at": "2025-08-20T17:33:30.477-04:00", "updated_at": "2025-08-21T03:00:12.266-04:00", "avatar": "https://avatars.slack-edge.com/2024-12-02/8114237511874_0bc35442069c4f19b739_original.png", "custom_css": null}, {"id": 22331, "slack_id": "U09BPJSDJ0H", "display_name": "Isabelle Hollingworth", "bio": null, "projects_count": 0, "devlogs_count": 0, "votes_count": 0, "ships_count": 0, "projects": [], "coding_time_seconds": 0, "coding_time_seconds_today": 0, "balance": "You need to have a pocket watcher badge to view this.", "badges": [], "created_at": "2025-08-20T17:33:54.312-04:00", "updated_at": "2025-08-20T22:00:38.868-04:00", "avatar": "https://secure.gravatar.com/avatar/5d10c6a55876efdf438cceb34efde160.jpg?s=512&d=https%3A%2F%2Fa.slack-edge.com%2Fdf10d%2Fimg%2Favatars%2Fava_0018-512.png", "custom_css": null}, {"id": 22332, "slack_id": "U09BCFB4TSS", "display_name": "Max Zeng", "bio": null, "projects_count": 1, "devlogs_count": 0, "votes_count": 2, "ships_count": 0, "projects": [{"id": 11888, "title": "BloxBlog", "devlogs_count": 0, "created_at": "2025-08-20T18:34:42.246-04:00"}], "coding_time_seconds": 2300, "coding_time_seconds_today": 0, "balance": "You need to have a pocket watcher badge to view this.", "badges": [], "created_at": "2025-08-20T17:36:50.035-04:00", "updated_at": "2025-08-21T03:00:14.148-04:00", "avatar": "https://secure.gravatar.com/avatar/ac1ec5bb243505e3eebadf7a1f758cb4.jpg?s=512&d=https%3A%2F%2Fa.slack-edge.com%2Fdf10d%2Fimg%2Favatars%2Fava_0020-512.png", "custom_css": null}, {"id": 22333, "slack_id": "U09BPJWC25P", "display_name": "eeee", "bio": null, "projects_count": 0, "devlogs_count": 0, "votes_count": 0, "ships_count": 0, "projects": [], "coding_time_seconds": 0, "coding_time_seconds_today": 0, "balance": "You need to have a pocket watcher badge to view this.", "badges": [], "created_at": "2025-08-20T17:39:34.712-04:00", "updated_at": "2025-08-20T22:00:39.189-04:00", "avatar": "https://secure.gravatar.com/avatar/f244fc54f15559e28e72e604cf33ddf2.jpg?s=512&d=https%3A%2F%2Fa.slack-edge.com%2Fdf10d%2Fimg%2Favatars%2Fava_0009-512.png", "custom_css": null}, {"id": 22334, "slack_id": "U09BCFPEN86", "display_name": "madddieh", "bio": null, "projects_count": 0, "devlogs_count": 0, "votes_count": 0, "ships_count": 0, "projects": [], "coding_time_seconds": 0, "coding_time_seconds_today": 0, "balance": "You need to have a pocket watcher badge to view this.", "badges": [], "created_at": "2025-08-20T17:40:40.704-04:00", "updated_at": "2025-08-20T22:00:39.452-04:00", "avatar": "https://secure.gravatar.com/avatar/27ae011d3fd09ac012172344db809b54.jpg?s=512&d=https%3A%2F%2Fa.slack-edge.com%2Fdf10d%2Fimg%2Favatars%2Fava_0020-512.png", "custom_css": null}, {"id": 22335, "slack_id": "U09C3RT36BS", "display_name": "Siddhi Agarwal", "bio": null, "projects_count": 0, "devlogs_count": 0, "votes_count": 0, "ships_count": 0, "projects": [], "coding_time_seconds": 0, "coding_time_seconds_today": 0, "balance": "You need to have a pocket watcher badge to view this.", "badges": [], "created_at": "2025-08-20T17:42:14.110-04:00", "updated_at": "2025-08-20T22:00:39.564-04:00", "avatar": "https://secure.gravatar.com/avatar/943b4d2af9e340a9e0bfa40bfc7617db.jpg?s=512&d=https%3A%2F%2Fa.slack-edge.com%2Fdf10d%2Fimg%2Favatars%2Fava_0022-512.png", "custom_css": null}, {"id": 22336, "slack_id": "U09BPJSUA73", "display_name": "Owen Jones", "bio": null, "projects_count": 0, "devlogs_count": 0, "votes_count": 0, "ships_count": 0, "projects": [], "coding_time_seconds": 0, "coding_time_seconds_today": 0, "balance": "You need to have a pocket watcher badge to view this.", "badges": [], "created_at": "2025-08-20T17:42:14.765-04:00", "updated_at": "2025-08-20T22:00:40.123-04:00", "avatar": "https://secure.gravatar.com/avatar/d4cb0629c9a03796b76689851c8bcaa8.jpg?s=512&d=https%3A%2F%2Fa.slack-edge.com%2Fdf10d%2Fimg%2Favatars%2Fava_0015-512.png", "custom_css": null}, {"id": 22337, "slack_id": "U09BPMMQDPT", "display_name": "Sarah Li", "bio": null, "projects_count": 0, "devlogs_count": 0, "votes_count": 0, "ships_count": 0, "projects": [], "coding_time_seconds": 0, "coding_time_seconds_today": 0, "balance": "You need to have a pocket watcher badge to view this.", "badges": [], "created_at": "2025-08-20T17:59:19.965-04:00", "updated_at": "2025-08-21T03:00:11.223-04:00", "avatar": "https://avatars.slack-edge.com/2025-08-20/9372459344295_ca583a4a5a0191dc1985_original.jpg", "custom_css": null}, {"id": 22338, "slack_id": "U09C3UM6FBJ", "display_name": "Satvik Kumar", "bio": null, "projects_count": 0, "devlogs_count": 0, "votes_count": 0, "ships_count": 0, "projects": [], "coding_time_seconds": 8766, "coding_time_seconds_today": 0, "balance": "You need to have a pocket watcher badge to view this.", "badges": [], "created_at": "2025-08-20T18:00:44.770-04:00", "updated_at": "2025-08-20T22:00:40.588-04:00", "avatar": "https://avatars.slack-edge.com/2025-08-20/9384744783266_ad0459ee572c5ea81021_original.png", "custom_css": null}, {"id": 22339, "slack_id": "U09AGMCAYMB", "display_name": "Emilia Rempala", "bio": "Silly guy. \r\nThey/them. ", "projects_count": 1, "devlogs_count": 0, "votes_count": 0, "ships_count": 0, "projects": [{"id": 11894, "title": "Silly Kitty Personality Quiz", "devlogs_count": 0, "created_at": "2025-08-20T19:36:00.048-04:00"}], "coding_time_seconds": 10084, "coding_time_seconds_today": 0, "balance": "You need to have a pocket watcher badge to view this.", "badges": [], "created_at": "2025-08-20T18:24:28.997-04:00", "updated_at": "2025-08-21T03:00:09.323-04:00", "avatar": "https://avatars.slack-edge.com/2025-08-20/9397870067937_fa7945d06a191fcdf0c1_original.jpg", "custom_css": null}, {"id": 22340, "slack_id": "U09B5KLDVU3", "display_name": "Laksh", "bio": null, "projects_count": 0, "devlogs_count": 0, "votes_count": 0, "ships_count": 0, "projects": [], "coding_time_seconds": 0, "coding_time_seconds_today": 0, "balance": "You need to have a pocket watcher badge to view this.", "badges": [], "created_at": "2025-08-20T18:46:43.410-04:00", "updated_at": "2025-08-20T22:00:40.806-04:00", "avatar": "https://secure.gravatar.com/avatar/bd184f6215770c04ac88946a7628e9eb.jpg?s=512&d=https%3A%2F%2Fa.slack-edge.com%2Fdf10d%2Fimg%2Favatars%2Fava_0022-512.png", "custom_css": null}, {"id": 22341, "slack_id": "U08JJTD0YV6", "display_name": "Evan Le", "bio": null, "projects_count": 0, "devlogs_count": 0, "votes_count": 0, "ships_count": 0, "projects": [], "coding_time_seconds": 0, "coding_time_seconds_today": 0, "balance": "You need to have a pocket watcher badge to view this.", "badges": [], "created_at": "2025-08-20T18:48:14.815-04:00", "updated_at": "2025-08-20T18:53:04.576-04:00", "avatar": "https://avatars.slack-edge.com/2025-08-07/9320298607685_7002824a388a0bf9c3e4_original.png", "custom_css": null}, {"id": 22342, "slack_id": "U09AYGZNG3H", "display_name": "Idil", "bio": null, "projects_count": 0, "devlogs_count": 0, "votes_count": 0, "ships_count": 0, "projects": [], "coding_time_seconds": 0, "coding_time_seconds_today": 0, "balance": "You need to have a pocket watcher badge to view this.", "badges": [], "created_at": "2025-08-20T18:50:31.556-04:00", "updated_at": "2025-08-20T22:00:41.075-04:00", "avatar": "https://secure.gravatar.com/avatar/e2ab4bca8b8ae81e9c2d0d66d881b40d.jpg?s=512&d=https%3A%2F%2Fa.slack-edge.com%2Fdf10d%2Fimg%2Favatars%2Fava_0019-512.png", "custom_css": null}, {"id": 22343, "slack_id": "U09AYMHQ5FH", "display_name": "Tyler Sika", "bio": null, "projects_count": 0, "devlogs_count": 0, "votes_count": 0, "ships_count": 0, "projects": [], "coding_time_seconds": 0, "coding_time_seconds_today": 0, "balance": "You need to have a pocket watcher badge to view this.", "badges": [], "created_at": "2025-08-20T19:27:33.334-04:00", "updated_at": "2025-08-20T22:00:41.192-04:00", "avatar": "https://secure.gravatar.com/avatar/30d4f559bfc94a80862a839b38883547.jpg?s=512&d=https%3A%2F%2Fa.slack-edge.com%2Fdf10d%2Fimg%2Favatars%2Fava_0025-512.png", "custom_css": null}, {"id": 22344, "slack_id": "U08BBJD7KNF", "display_name": "matthew", "bio": null, "projects_count": 1, "devlogs_count": 0, "votes_count": 1, "ships_count": 0, "projects": [{"id": 11900, "title": "Big Ships", "devlogs_count": 0, "created_at": "2025-08-20T21:11:59.230-04:00"}], "coding_time_seconds": 293278, "coding_time_seconds_today": 0, "balance": "You need to have a pocket watcher badge to view this.", "badges": [], "created_at": "2025-08-20T19:37:58.105-04:00", "updated_at": "2025-08-21T21:04:53.308-04:00", "avatar": "https://secure.gravatar.com/avatar/df4d9368d93375c7cacdd6a408ee2beb.jpg?s=512&d=https%3A%2F%2Fa.slack-edge.com%2Fdf10d%2Fimg%2Favatars%2Fava_0021-512.png", "custom_css": null}, {"id": 22345, "slack_id": "U09BB2L5UM8", "display_name": "amy nix", "bio": null, "projects_count": 0, "devlogs_count": 0, "votes_count": 0, "ships_count": 0, "projects": [], "coding_time_seconds": 0, "coding_time_seconds_today": 0, "balance": "You need to have a pocket watcher badge to view this.", "badges": [], "created_at": "2025-08-20T19:53:52.058-04:00", "updated_at": "2025-08-20T22:00:41.789-04:00", "avatar": "https://secure.gravatar.com/avatar/0424dd371d11cdf0ac428216fea6ce3b.jpg?s=512&d=https%3A%2F%2Fa.slack-edge.com%2Fdf10d%2Fimg%2Favatars%2Fava_0002-512.png", "custom_css": null}], "pagination": {"page": 1113, "pages": 1192, "count": 23828, "items": 20}}