{"users": [{"id": 22346, "slack_id": "U09B9M244CV", "display_name": "Barrett Staples", "bio": null, "projects_count": 0, "devlogs_count": 0, "votes_count": 0, "ships_count": 0, "projects": [], "coding_time_seconds": 17376, "coding_time_seconds_today": 0, "balance": "You need to have a pocket watcher badge to view this.", "badges": [], "created_at": "2025-08-20T20:20:54.807-04:00", "updated_at": "2025-08-20T22:00:41.927-04:00", "avatar": "https://avatars.slack-edge.com/2025-08-20/9385190341394_9faed55f90a187217662_original.jpg", "custom_css": null}, {"id": 22347, "slack_id": "U09BD4CR43Y", "display_name": "Rieken", "bio": null, "projects_count": 0, "devlogs_count": 0, "votes_count": 0, "ships_count": 0, "projects": [], "coding_time_seconds": 64992, "coding_time_seconds_today": 0, "balance": "You need to have a pocket watcher badge to view this.", "badges": [], "created_at": "2025-08-20T20:46:06.656-04:00", "updated_at": "2025-08-20T22:00:46.449-04:00", "avatar": "https://secure.gravatar.com/avatar/00b28eaa7c89eec730a2aff3ca75656f.jpg?s=512&d=https%3A%2F%2Fa.slack-edge.com%2Fdf10d%2Fimg%2Favatars%2Fava_0016-512.png", "custom_css": null}, {"id": 22348, "slack_id": "U09BD6WQQ7Q", "display_name": "Reese", "bio": null, "projects_count": 0, "devlogs_count": 0, "votes_count": 0, "ships_count": 0, "projects": [], "coding_time_seconds": 29682, "coding_time_seconds_today": 0, "balance": "You need to have a pocket watcher badge to view this.", "badges": [], "created_at": "2025-08-20T21:11:41.331-04:00", "updated_at": "2025-08-29T22:30:25.135-04:00", "avatar": "https://secure.gravatar.com/avatar/b478a8c3e49edd2e2c2a23e0cc519982.jpg?s=512&d=https%3A%2F%2Fa.slack-edge.com%2Fdf10d%2Fimg%2Favatars%2Fava_0022-512.png", "custom_css": null}, {"id": 22349, "slack_id": "U09BAUVB0LE", "display_name": "Nissan", "bio": null, "projects_count": 0, "devlogs_count": 0, "votes_count": 0, "ships_count": 0, "projects": [], "coding_time_seconds": 0, "coding_time_seconds_today": 0, "balance": "You need to have a pocket watcher badge to view this.", "badges": [], "created_at": "2025-08-20T21:12:47.680-04:00", "updated_at": "2025-08-21T03:00:09.055-04:00", "avatar": "https://secure.gravatar.com/avatar/10526e44d93792764a08ac57e02b3283.jpg?s=512&d=https%3A%2F%2Fa.slack-edge.com%2Fdf10d%2Fimg%2Favatars%2Fava_0015-512.png", "custom_css": null}, {"id": 22350, "slack_id": "U09BBB4ED6E", "display_name": "Dean Triguero", "bio": null, "projects_count": 0, "devlogs_count": 0, "votes_count": 0, "ships_count": 0, "projects": [], "coding_time_seconds": 0, "coding_time_seconds_today": 0, "balance": "You need to have a pocket watcher badge to view this.", "badges": [], "created_at": "2025-08-20T21:26:02.757-04:00", "updated_at": "2025-08-20T22:00:47.366-04:00", "avatar": "https://secure.gravatar.com/avatar/44a76427d2dd1af0235938b4060c099e.jpg?s=512&d=https%3A%2F%2Fa.slack-edge.com%2Fdf10d%2Fimg%2Favatars%2Fava_0005-512.png", "custom_css": null}, {"id": 22351, "slack_id": "U09C4MS8WBA", "display_name": "Vishnu Vaddi", "bio": null, "projects_count": 0, "devlogs_count": 0, "votes_count": 0, "ships_count": 0, "projects": [], "coding_time_seconds": 0, "coding_time_seconds_today": 0, "balance": "You need to have a pocket watcher badge to view this.", "badges": [], "created_at": "2025-08-20T21:49:51.719-04:00", "updated_at": "2025-08-22T04:01:19.451-04:00", "avatar": "https://avatars.slack-edge.com/2025-08-20/9412749530176_67085a20b66f415332a0_original.jpg", "custom_css": null}, {"id": 22352, "slack_id": "U091Z2GEPPY", "display_name": "Priyanshu Singh Chouhan", "bio": null, "projects_count": 1, "devlogs_count": 1, "votes_count": 1, "ships_count": 1, "projects": [{"id": 11903, "title": "Football-Quiz-App", "devlogs_count": 1, "created_at": "2025-08-20T22:59:55.697-04:00"}], "coding_time_seconds": 25179, "coding_time_seconds_today": 0, "balance": "You need to have a pocket watcher badge to view this.", "badges": [], "created_at": "2025-08-20T22:32:45.825-04:00", "updated_at": "2025-08-22T04:01:19.564-04:00", "avatar": "https://avatars.slack-edge.com/2025-08-21/9412988369184_eb8b2ab67ea050ba4ccd_original.png", "custom_css": null}, {"id": 22353, "slack_id": "U09C4P72QCQ", "display_name": "MavScript.blu", "bio": null, "projects_count": 0, "devlogs_count": 0, "votes_count": 0, "ships_count": 0, "projects": [], "coding_time_seconds": 154149, "coding_time_seconds_today": 5548, "balance": "You need to have a pocket watcher badge to view this.", "badges": [], "created_at": "2025-08-20T22:44:40.594-04:00", "updated_at": "2025-08-22T04:01:19.688-04:00", "avatar": "https://secure.gravatar.com/avatar/a92ce975abb5d8988a6b459245c4c1df.jpg?s=512&d=https%3A%2F%2Fa.slack-edge.com%2Fdf10d%2Fimg%2Favatars%2Fava_0011-512.png", "custom_css": null}, {"id": 22354, "slack_id": "U09BDK7QY2J", "display_name": "Samuel", "bio": null, "projects_count": 0, "devlogs_count": 0, "votes_count": 0, "ships_count": 0, "projects": [], "coding_time_seconds": 0, "coding_time_seconds_today": 0, "balance": "You need to have a pocket watcher badge to view this.", "badges": [], "created_at": "2025-08-20T23:26:32.321-04:00", "updated_at": "2025-08-22T04:01:23.850-04:00", "avatar": "https://secure.gravatar.com/avatar/659e4b4175e8245b582438970a13800f.jpg?s=512&d=https%3A%2F%2Fa.slack-edge.com%2Fdf10d%2Fimg%2Favatars%2Fava_0016-512.png", "custom_css": null}, {"id": 22355, "slack_id": "U09BDKV47UN", "display_name": "Tergel", "bio": null, "projects_count": 0, "devlogs_count": 0, "votes_count": 0, "ships_count": 0, "projects": [], "coding_time_seconds": 0, "coding_time_seconds_today": 0, "balance": "You need to have a pocket watcher badge to view this.", "badges": [], "created_at": "2025-08-20T23:34:17.733-04:00", "updated_at": "2025-08-22T04:01:23.970-04:00", "avatar": "https://secure.gravatar.com/avatar/a1e2f1573569e0ca9695dc1534c5db7a.jpg?s=512&d=https%3A%2F%2Fa.slack-edge.com%2Fdf10d%2Fimg%2Favatars%2Fava_0010-512.png", "custom_css": null}, {"id": 22356, "slack_id": "U0970FLQ4LU", "display_name": "Prasoon Rai", "bio": null, "projects_count": 0, "devlogs_count": 0, "votes_count": 0, "ships_count": 0, "projects": [], "coding_time_seconds": 0, "coding_time_seconds_today": 0, "balance": "You need to have a pocket watcher badge to view this.", "badges": [], "created_at": "2025-08-20T23:59:15.640-04:00", "updated_at": "2025-08-22T04:01:24.075-04:00", "avatar": "https://secure.gravatar.com/avatar/f7066d7bdd26f965b52a4ef8cbd8d496.jpg?s=512&d=https%3A%2F%2Fa.slack-edge.com%2Fdf10d%2Fimg%2Favatars%2Fava_0016-512.png", "custom_css": null}, {"id": 22357, "slack_id": "U06JNPXQRU0", "display_name": "chinh4thepro", "bio": null, "projects_count": 2, "devlogs_count": 4, "votes_count": 6, "ships_count": 0, "projects": [{"id": 11986, "title": "usbc data splitter", "devlogs_count": 3, "created_at": "2025-08-21T21:39:35.540-04:00"}, {"id": 12335, "title": "J(ust) A(nother) K(eyboard)", "devlogs_count": 1, "created_at": "2025-08-25T22:58:50.611-04:00"}], "coding_time_seconds": 20621, "coding_time_seconds_today": 0, "balance": "You need to have a pocket watcher badge to view this.", "badges": [], "created_at": "2025-08-21T00:02:40.291-04:00", "updated_at": "2025-08-21T04:30:08.012-04:00", "avatar": "https://avatars.slack-edge.com/2024-02-08/6605452987670_b9c95e8bebb9f85134f3_original.jpg", "custom_css": null}, {"id": 22358, "slack_id": "U09BR3R9Y0Z", "display_name": "Icenindra", "bio": null, "projects_count": 1, "devlogs_count": 0, "votes_count": 0, "ships_count": 0, "projects": [{"id": 11999, "title": "Gotcha, Family Therapy APP", "devlogs_count": 0, "created_at": "2025-08-22T01:16:41.619-04:00"}], "coding_time_seconds": 1, "coding_time_seconds_today": 0, "balance": "You need to have a pocket watcher badge to view this.", "badges": [], "created_at": "2025-08-21T00:50:34.101-04:00", "updated_at": "2025-08-22T04:01:24.274-04:00", "avatar": "https://secure.gravatar.com/avatar/c127a93ed5dae485cbf4a7434f07d0ae.jpg?s=512&d=https%3A%2F%2Fa.slack-edge.com%2Fdf10d%2Fimg%2Favatars%2Fava_0020-512.png", "custom_css": null}, {"id": 22359, "slack_id": "U09BFUZQN76", "display_name": "Niranju", "bio": null, "projects_count": 0, "devlogs_count": 0, "votes_count": 0, "ships_count": 0, "projects": [], "coding_time_seconds": 380, "coding_time_seconds_today": 0, "balance": "You need to have a pocket watcher badge to view this.", "badges": [], "created_at": "2025-08-21T01:09:17.734-04:00", "updated_at": "2025-08-22T04:01:24.594-04:00", "avatar": "https://secure.gravatar.com/avatar/174766f9dd0067153d96d32b9fed9240.jpg?s=512&d=https%3A%2F%2Fa.slack-edge.com%2Fdf10d%2Fimg%2Favatars%2Fava_0002-512.png", "custom_css": null}, {"id": 22360, "slack_id": "U09B6R906QK", "display_name": "Grant", "bio": null, "projects_count": 0, "devlogs_count": 0, "votes_count": 0, "ships_count": 0, "projects": [], "coding_time_seconds": 91930, "coding_time_seconds_today": 0, "balance": "You need to have a pocket watcher badge to view this.", "badges": [], "created_at": "2025-08-21T01:09:50.543-04:00", "updated_at": "2025-08-22T04:01:24.715-04:00", "avatar": "https://secure.gravatar.com/avatar/9974460857c8755754ff3fd23f2c35bf.jpg?s=512&d=https%3A%2F%2Fa.slack-edge.com%2Fdf10d%2Fimg%2Favatars%2Fava_0004-512.png", "custom_css": null}, {"id": 22361, "slack_id": "U09BC3GH34J", "display_name": "Qasim Shaikh", "bio": null, "projects_count": 0, "devlogs_count": 0, "votes_count": 0, "ships_count": 0, "projects": [], "coding_time_seconds": 0, "coding_time_seconds_today": 0, "balance": "You need to have a pocket watcher badge to view this.", "badges": [], "created_at": "2025-08-21T01:39:55.583-04:00", "updated_at": "2025-08-22T04:01:24.818-04:00", "avatar": "https://avatars.slack-edge.com/2025-08-21/9381015232979_e13f59a937db07a12293_original.jpg", "custom_css": null}, {"id": 22362, "slack_id": "U09BAN20F53", "display_name": "Aungg", "bio": null, "projects_count": 0, "devlogs_count": 0, "votes_count": 0, "ships_count": 0, "projects": [], "coding_time_seconds": 0, "coding_time_seconds_today": 0, "balance": "You need to have a pocket watcher badge to view this.", "badges": [], "created_at": "2025-08-21T01:40:37.777-04:00", "updated_at": "2025-08-24T06:30:06.124-04:00", "avatar": "https://avatars.slack-edge.com/2025-08-20/9399315652513_825eba97fce8e2270348_original.png", "custom_css": null}, {"id": 22363, "slack_id": "U09C5DX2V0Q", "display_name": "Saueabh", "bio": null, "projects_count": 0, "devlogs_count": 0, "votes_count": 0, "ships_count": 0, "projects": [], "coding_time_seconds": 0, "coding_time_seconds_today": 0, "balance": "You need to have a pocket watcher badge to view this.", "badges": [], "created_at": "2025-08-21T01:54:24.486-04:00", "updated_at": "2025-08-22T04:01:25.023-04:00", "avatar": "https://secure.gravatar.com/avatar/f65c36b8e02e92fb5b0bfc12adf8ea4c.jpg?s=512&d=https%3A%2F%2Fa.slack-edge.com%2Fdf10d%2Fimg%2Favatars%2Fava_0013-512.png", "custom_css": null}, {"id": 22364, "slack_id": "U09BC71THEE", "display_name": "689 oscar", "bio": null, "projects_count": 2, "devlogs_count": 1, "votes_count": 0, "ships_count": 0, "projects": [{"id": 12179, "title": "My Portfolio", "devlogs_count": 1, "created_at": "2025-08-24T03:30:56.725-04:00"}, {"id": 12348, "title": "Tictactoe", "devlogs_count": 0, "created_at": "2025-08-26T03:13:57.838-04:00"}], "coding_time_seconds": 212077, "coding_time_seconds_today": 2195, "balance": "You need to have a pocket watcher badge to view this.", "badges": [], "created_at": "2025-08-21T02:13:33.260-04:00", "updated_at": "2025-08-22T04:01:25.118-04:00", "avatar": "https://avatars.slack-edge.com/2025-08-20/9381094806275_0225d42965d42fe32d5a_original.png", "custom_css": null}, {"id": 22365, "slack_id": "U0993BDJNQ5", "display_name": "teuku muhammad fauzan", "bio": "I am a student in indonesia, my hobby is coding and make something such as poster design, school project and anything else, my school is so famous in indonesia\r\n", "projects_count": 0, "devlogs_count": 0, "votes_count": 0, "ships_count": 0, "projects": [], "coding_time_seconds": 17323, "coding_time_seconds_today": 0, "balance": "You need to have a pocket watcher badge to view this.", "badges": [], "created_at": "2025-08-21T02:44:43.844-04:00", "updated_at": "2025-08-22T04:01:25.210-04:00", "avatar": "https://avatars.slack-edge.com/2025-08-21/9385155784021_c4026b8eb7e0a4e5b1f0_original.jpg", "custom_css": null}], "pagination": {"page": 1114, "pages": 1192, "count": 23828, "items": 20}}