{"users": [{"id": 22366, "slack_id": "U09BEAD3DSA", "display_name": "Aaradhya Barnwal", "bio": null, "projects_count": 0, "devlogs_count": 0, "votes_count": 0, "ships_count": 0, "projects": [], "coding_time_seconds": 0, "coding_time_seconds_today": 0, "balance": "You need to have a pocket watcher badge to view this.", "badges": [], "created_at": "2025-08-21T02:57:30.106-04:00", "updated_at": "2025-08-22T04:01:25.331-04:00", "avatar": "https://secure.gravatar.com/avatar/4db26932108b592d840aa0bf09af6ac6.jpg?s=512&d=https%3A%2F%2Fa.slack-edge.com%2Fdf10d%2Fimg%2Favatars%2Fava_0010-512.png", "custom_css": null}, {"id": 22367, "slack_id": "U09BGCSJZ0U", "display_name": "Akshat", "bio": null, "projects_count": 0, "devlogs_count": 0, "votes_count": 0, "ships_count": 0, "projects": [], "coding_time_seconds": 0, "coding_time_seconds_today": 0, "balance": "You need to have a pocket watcher badge to view this.", "badges": [], "created_at": "2025-08-21T03:10:24.612-04:00", "updated_at": "2025-09-10T11:30:16.793-04:00", "avatar": "https://secure.gravatar.com/avatar/d7696a16e2a4b67b998ee20f0c199df1.jpg?s=512&d=https%3A%2F%2Fa.slack-edge.com%2Fdf10d%2Fimg%2Favatars%2Fava_0025-512.png", "custom_css": null}, {"id": 22368, "slack_id": "U09BGDD4YCU", "display_name": "Marvin", "bio": null, "projects_count": 0, "devlogs_count": 0, "votes_count": 0, "ships_count": 0, "projects": [], "coding_time_seconds": 0, "coding_time_seconds_today": 0, "balance": "You need to have a pocket watcher badge to view this.", "badges": [], "created_at": "2025-08-21T03:15:47.166-04:00", "updated_at": "2025-08-22T04:01:25.527-04:00", "avatar": "https://secure.gravatar.com/avatar/3cc709f61d711ce62da4239291e82269.jpg?s=512&d=https%3A%2F%2Fa.slack-edge.com%2Fdf10d%2Fimg%2Favatars%2Fava_0010-512.png", "custom_css": null}, {"id": 22369, "slack_id": "U09BGEWLMRS", "display_name": "pujan Neupane", "bio": null, "projects_count": 0, "devlogs_count": 0, "votes_count": 0, "ships_count": 0, "projects": [], "coding_time_seconds": 1616, "coding_time_seconds_today": 0, "balance": "You need to have a pocket watcher badge to view this.", "badges": [], "created_at": "2025-08-21T03:26:42.839-04:00", "updated_at": "2025-08-22T04:01:25.634-04:00", "avatar": "https://avatars.slack-edge.com/2025-08-21/9385196578405_6142496b571c648f729a_original.png", "custom_css": null}, {"id": 22370, "slack_id": "U09BGEPPP0C", "display_name": "MrEAT", "bio": null, "projects_count": 0, "devlogs_count": 0, "votes_count": 0, "ships_count": 0, "projects": [], "coding_time_seconds": 0, "coding_time_seconds_today": 0, "balance": "You need to have a pocket watcher badge to view this.", "badges": [], "created_at": "2025-08-21T03:27:41.332-04:00", "updated_at": "2025-08-22T04:01:25.719-04:00", "avatar": "https://secure.gravatar.com/avatar/baf9602a11550ec37e91029dfa68406b.jpg?s=512&d=https%3A%2F%2Fa.slack-edge.com%2Fdf10d%2Fimg%2Favatars%2Fava_0007-512.png", "custom_css": null}, {"id": 22371, "slack_id": "U09C5UJ3C6L", "display_name": "AMBIL DENIE", "bio": null, "projects_count": 0, "devlogs_count": 0, "votes_count": 0, "ships_count": 0, "projects": [], "coding_time_seconds": 0, "coding_time_seconds_today": 0, "balance": "You need to have a pocket watcher badge to view this.", "badges": [], "created_at": "2025-08-21T03:48:05.446-04:00", "updated_at": "2025-08-22T04:01:25.818-04:00", "avatar": "https://avatars.slack-edge.com/2025-08-21/9390618718068_803c3a6cecc57f4b2e5c_original.png", "custom_css": null}, {"id": 22372, "slack_id": "U09B0AN4GBZ", "display_name": "Eldiiar Bekbolotov", "bio": null, "projects_count": 0, "devlogs_count": 0, "votes_count": 0, "ships_count": 0, "projects": [], "coding_time_seconds": 27573, "coding_time_seconds_today": 0, "balance": "You need to have a pocket watcher badge to view this.", "badges": [], "created_at": "2025-08-21T03:58:54.884-04:00", "updated_at": "2025-08-22T04:01:25.914-04:00", "avatar": "https://avatars.slack-edge.com/2025-08-21/9399931470705_d7760e829512b5c60722_original.png", "custom_css": null}, {"id": 22373, "slack_id": "U09BRJXR43B", "display_name": "VigersRay", "bio": null, "projects_count": 0, "devlogs_count": 0, "votes_count": 0, "ships_count": 0, "projects": [], "coding_time_seconds": 0, "coding_time_seconds_today": 0, "balance": "You need to have a pocket watcher badge to view this.", "badges": [], "created_at": "2025-08-21T03:59:10.976-04:00", "updated_at": "2025-08-22T04:01:26.007-04:00", "avatar": "https://secure.gravatar.com/avatar/fea0be6faf6b22e6fc5c6fe9ac583f71.jpg?s=512&d=https%3A%2F%2Fa.slack-edge.com%2Fdf10d%2Fimg%2Favatars%2Fava_0022-512.png", "custom_css": null}, {"id": 22374, "slack_id": "U09BN0UKWRF", "display_name": "John", "bio": null, "projects_count": 2, "devlogs_count": 3, "votes_count": 2, "ships_count": 1, "projects": [{"id": 13519, "title": "Alfred!", "devlogs_count": 0, "created_at": "2025-09-18T11:59:18.186-04:00"}, {"id": 13521, "title": "LearnTree", "devlogs_count": 3, "created_at": "2025-09-18T12:21:43.447-04:00"}], "coding_time_seconds": 19481, "coding_time_seconds_today": 0, "balance": "You need to have a pocket watcher badge to view this.", "badges": [{"name": "Maiden Voyage", "text": "you shipped your first project! the journey begins...", "icon": "\ud83d\udea2"}], "created_at": "2025-08-21T04:01:05.656-04:00", "updated_at": "2025-09-19T12:00:06.172-04:00", "avatar": "https://secure.gravatar.com/avatar/682c5af7a9239ed4a1ae29995ff7bda1.jpg?s=512&d=https%3A%2F%2Fa.slack-edge.com%2Fdf10d%2Fimg%2Favatars%2Fava_0002-512.png", "custom_css": null}, {"id": 22375, "slack_id": "U09BGL0PL84", "display_name": "yoel", "bio": null, "projects_count": 0, "devlogs_count": 0, "votes_count": 0, "ships_count": 0, "projects": [], "coding_time_seconds": 0, "coding_time_seconds_today": 0, "balance": "You need to have a pocket watcher badge to view this.", "badges": [], "created_at": "2025-08-21T04:03:01.980-04:00", "updated_at": "2025-08-22T04:01:26.228-04:00", "avatar": "https://secure.gravatar.com/avatar/9a7c3bd617df0ba005668546653b1db9.jpg?s=512&d=https%3A%2F%2Fa.slack-edge.com%2Fdf10d%2Fimg%2Favatars%2Fava_0025-512.png", "custom_css": null}, {"id": 22376, "slack_id": "U09BCMYLW0J", "display_name": "Neilansh", "bio": null, "projects_count": 0, "devlogs_count": 0, "votes_count": 0, "ships_count": 0, "projects": [], "coding_time_seconds": 0, "coding_time_seconds_today": 0, "balance": "You need to have a pocket watcher badge to view this.", "badges": [], "created_at": "2025-08-21T04:11:34.886-04:00", "updated_at": "2025-08-22T04:01:26.365-04:00", "avatar": "https://secure.gravatar.com/avatar/39700758c15e52416a3884730f201cb8.jpg?s=512&d=https%3A%2F%2Fa.slack-edge.com%2Fdf10d%2Fimg%2Favatars%2Fava_0026-512.png", "custom_css": null}, {"id": 22377, "slack_id": "U09BCEF116E", "display_name": "DM", "bio": null, "projects_count": 0, "devlogs_count": 0, "votes_count": 0, "ships_count": 0, "projects": [], "coding_time_seconds": 0, "coding_time_seconds_today": 0, "balance": "You need to have a pocket watcher badge to view this.", "badges": [], "created_at": "2025-08-21T05:09:24.122-04:00", "updated_at": "2025-08-22T04:01:26.468-04:00", "avatar": "https://secure.gravatar.com/avatar/68e35807600803b4e78e46707797b4f3.jpg?s=512&d=https%3A%2F%2Fa.slack-edge.com%2Fdf10d%2Fimg%2Favatars%2Fava_0010-512.png", "custom_css": null}, {"id": 22378, "slack_id": "U0972LNG4Q4", "display_name": "Muhammad Ali Arif", "bio": null, "projects_count": 0, "devlogs_count": 0, "votes_count": 0, "ships_count": 0, "projects": [], "coding_time_seconds": 2449, "coding_time_seconds_today": 0, "balance": "You need to have a pocket watcher badge to view this.", "badges": [], "created_at": "2025-08-21T05:43:46.133-04:00", "updated_at": "2025-08-22T04:01:26.601-04:00", "avatar": "https://secure.gravatar.com/avatar/ae08ffb31a1005462e97f96dd66b0e5f.jpg?s=512&d=https%3A%2F%2Fa.slack-edge.com%2Fdf10d%2Fimg%2Favatars%2Fava_0018-512.png", "custom_css": null}, {"id": 22379, "slack_id": "U09BSKSJRL1", "display_name": "Ranjan Shetty", "bio": null, "projects_count": 0, "devlogs_count": 0, "votes_count": 0, "ships_count": 0, "projects": [], "coding_time_seconds": 0, "coding_time_seconds_today": 0, "balance": "You need to have a pocket watcher badge to view this.", "badges": [], "created_at": "2025-08-21T06:29:25.970-04:00", "updated_at": "2025-08-28T15:23:50.341-04:00", "avatar": "https://avatars.slack-edge.com/2025-08-21/9386086443381_48462fc961bbfd1790eb_original.jpg", "custom_css": null}, {"id": 22380, "slack_id": "U08HZMU30RH", "display_name": "Minh Anh", "bio": null, "projects_count": 1, "devlogs_count": 0, "votes_count": 0, "ships_count": 0, "projects": [{"id": 11932, "title": "runner game", "devlogs_count": 0, "created_at": "2025-08-21T07:25:47.606-04:00"}], "coding_time_seconds": 17817, "coding_time_seconds_today": 0, "balance": "You need to have a pocket watcher badge to view this.", "badges": [], "created_at": "2025-08-21T07:16:51.656-04:00", "updated_at": "2025-08-22T04:01:30.875-04:00", "avatar": "https://avatars.slack-edge.com/2025-03-16/8603029441766_c3a6d86c0911c5697e89_original.png", "custom_css": null}, {"id": 22381, "slack_id": "U09C764FSKA", "display_name": "Navneet", "bio": null, "projects_count": 1, "devlogs_count": 0, "votes_count": 0, "ships_count": 0, "projects": [{"id": 12091, "title": "stone , paper , scissor", "devlogs_count": 0, "created_at": "2025-08-23T00:27:52.463-04:00"}], "coding_time_seconds": 6792, "coding_time_seconds_today": 0, "balance": "You need to have a pocket watcher badge to view this.", "badges": [], "created_at": "2025-08-21T08:22:10.108-04:00", "updated_at": "2025-08-22T12:16:53.602-04:00", "avatar": "https://secure.gravatar.com/avatar/23444287dd5dac899d87cc3e1f6cba06.jpg?s=512&d=https%3A%2F%2Fa.slack-edge.com%2Fdf10d%2Fimg%2Favatars%2Fava_0004-512.png", "custom_css": null}, {"id": 22382, "slack_id": "U09B1JNNW31", "display_name": "Oliwier fr\u0105ckiewicz", "bio": null, "projects_count": 1, "devlogs_count": 0, "votes_count": 0, "ships_count": 0, "projects": [{"id": 11940, "title": "GalaxyBlox", "devlogs_count": 0, "created_at": "2025-08-21T09:13:53.128-04:00"}], "coding_time_seconds": 16150, "coding_time_seconds_today": 0, "balance": "You need to have a pocket watcher badge to view this.", "badges": [], "created_at": "2025-08-21T08:44:58.993-04:00", "updated_at": "2025-08-22T04:01:31.858-04:00", "avatar": "https://avatars.slack-edge.com/2025-08-21/9386688112629_c27464c69251182f33cf_original.png", "custom_css": null}, {"id": 22383, "slack_id": "U09BCQQHYHK", "display_name": "lokmane", "bio": null, "projects_count": 2, "devlogs_count": 6, "votes_count": 43, "ships_count": 1, "projects": [{"id": 11973, "title": "snake game", "devlogs_count": 5, "created_at": "2025-08-21T15:44:03.379-04:00"}, {"id": 12366, "title": "calculator", "devlogs_count": 1, "created_at": "2025-08-26T08:29:24.182-04:00"}], "coding_time_seconds": 25094, "coding_time_seconds_today": 0, "balance": "You need to have a pocket watcher badge to view this.", "badges": [], "created_at": "2025-08-21T09:18:07.236-04:00", "updated_at": "2025-08-26T16:00:15.990-04:00", "avatar": "https://avatars.slack-edge.com/2025-08-26/9440464311840_a4cdc71c8abe2630e5bc_original.png", "custom_css": null}, {"id": 22384, "slack_id": "U09C7MTV3JL", "display_name": "Devin Hu", "bio": null, "projects_count": 0, "devlogs_count": 8, "votes_count": 112, "ships_count": 0, "projects": [], "coding_time_seconds": 259663, "coding_time_seconds_today": 0, "balance": "You need to have a pocket watcher badge to view this.", "badges": [], "created_at": "2025-08-21T09:55:06.105-04:00", "updated_at": "2025-08-30T23:07:05.150-04:00", "avatar": "https://secure.gravatar.com/avatar/3ef8d2e143cfa8dc4b991d3d3b6a16eb.jpg?s=512&d=https%3A%2F%2Fa.slack-edge.com%2Fdf10d%2Fimg%2Favatars%2Fava_0001-512.png", "custom_css": null}, {"id": 22385, "slack_id": "U09BBPDD0R0", "display_name": "chamathTG", "bio": "I love tech :)", "projects_count": 0, "devlogs_count": 0, "votes_count": 0, "ships_count": 0, "projects": [], "coding_time_seconds": 257, "coding_time_seconds_today": 0, "balance": "You need to have a pocket watcher badge to view this.", "badges": [], "created_at": "2025-08-21T10:16:22.595-04:00", "updated_at": "2025-08-22T09:00:06.232-04:00", "avatar": "https://secure.gravatar.com/avatar/27d38ca04cb0bb56b195c63dde55cd77.jpg?s=512&d=https%3A%2F%2Fa.slack-edge.com%2Fdf10d%2Fimg%2Favatars%2Fava_0023-512.png", "custom_css": null}], "pagination": {"page": 1115, "pages": 1192, "count": 23828, "items": 20}}