{"users": [{"id": 22406, "slack_id": "U09BR902E94", "display_name": "Allison Kim", "bio": null, "projects_count": 0, "devlogs_count": 0, "votes_count": 0, "ships_count": 0, "projects": [], "coding_time_seconds": 0, "coding_time_seconds_today": 0, "balance": "You need to have a pocket watcher badge to view this.", "badges": [], "created_at": "2025-08-22T19:39:35.136-04:00", "updated_at": "2025-08-28T02:00:06.907-04:00", "avatar": "https://secure.gravatar.com/avatar/25f05062ded21dbbcba59a9a8119fe27.jpg?s=512&d=https%3A%2F%2Fa.slack-edge.com%2Fdf10d%2Fimg%2Favatars%2Fava_0014-512.png", "custom_css": null}, {"id": 22407, "slack_id": "U09C30936KB", "display_name": "Adyant Bhavsar", "bio": null, "projects_count": 0, "devlogs_count": 0, "votes_count": 0, "ships_count": 0, "projects": [], "coding_time_seconds": 0, "coding_time_seconds_today": 0, "balance": "You need to have a pocket watcher badge to view this.", "badges": [], "created_at": "2025-08-22T20:16:14.175-04:00", "updated_at": "2025-08-24T01:30:03.907-04:00", "avatar": "https://secure.gravatar.com/avatar/9129820961c74651bfe33534607f4b3d.jpg?s=512&d=https%3A%2F%2Fa.slack-edge.com%2Fdf10d%2Fimg%2Favatars%2Fava_0009-512.png", "custom_css": null}, {"id": 22408, "slack_id": "U085H8WJB6H", "display_name": "Mark", "bio": null, "projects_count": 0, "devlogs_count": 0, "votes_count": 0, "ships_count": 0, "projects": [], "coding_time_seconds": 27956, "coding_time_seconds_today": 0, "balance": "You need to have a pocket watcher badge to view this.", "badges": [], "created_at": "2025-08-22T20:48:52.183-04:00", "updated_at": "2025-08-22T22:00:47.507-04:00", "avatar": "https://secure.gravatar.com/avatar/05cdcf30a984d061aa0aafcde2f6720c.jpg?s=512&d=https%3A%2F%2Fa.slack-edge.com%2Fdf10d%2Fimg%2Favatars%2Fava_0007-512.png", "custom_css": null}, {"id": 22409, "slack_id": "U09C35GT7K3", "display_name": "Domenic", "bio": null, "projects_count": 0, "devlogs_count": 0, "votes_count": 0, "ships_count": 0, "projects": [], "coding_time_seconds": 0, "coding_time_seconds_today": 0, "balance": "You need to have a pocket watcher badge to view this.", "badges": [], "created_at": "2025-08-22T21:02:02.031-04:00", "updated_at": "2025-08-22T22:00:47.618-04:00", "avatar": "https://secure.gravatar.com/avatar/e60f4f3766e720ef78bc00a88dbc5dd3.jpg?s=512&d=https%3A%2F%2Fa.slack-edge.com%2Fdf10d%2Fimg%2Favatars%2Fava_0008-512.png", "custom_css": null}, {"id": 22410, "slack_id": "U0822J40DPG", "display_name": "Zunair", "bio": "", "projects_count": 1, "devlogs_count": 0, "votes_count": 2, "ships_count": 0, "projects": [{"id": 12313, "title": "EQ for Android", "devlogs_count": 0, "created_at": "2025-08-25T13:27:14.379-04:00"}], "coding_time_seconds": 14188, "coding_time_seconds_today": 0, "balance": "You need to have a pocket watcher badge to view this.", "badges": [], "created_at": "2025-08-22T21:04:42.287-04:00", "updated_at": "2025-08-27T14:45:48.238-04:00", "avatar": "https://secure.gravatar.com/avatar/bcad0d08664796478dcb563b86134bb6.jpg?s=512&d=https%3A%2F%2Fa.slack-edge.com%2Fdf10d%2Fimg%2Favatars%2Fava_0001-512.png", "custom_css": null}, {"id": 22411, "slack_id": "U09BTBGLGGL", "display_name": "Isha Reddy Chitteti", "bio": null, "projects_count": 0, "devlogs_count": 0, "votes_count": 0, "ships_count": 0, "projects": [], "coding_time_seconds": 0, "coding_time_seconds_today": 0, "balance": "You need to have a pocket watcher badge to view this.", "badges": [], "created_at": "2025-08-22T21:52:24.696-04:00", "updated_at": "2025-09-19T03:00:08.102-04:00", "avatar": "https://secure.gravatar.com/avatar/e3af9671d81e375a2b20374d4dde0009.jpg?s=512&d=https%3A%2F%2Fa.slack-edge.com%2Fdf10d%2Fimg%2Favatars%2Fava_0018-512.png", "custom_css": null}, {"id": 22412, "slack_id": "U09BJSRMHEX", "display_name": "Messi Super", "bio": null, "projects_count": 1, "devlogs_count": 1, "votes_count": 0, "ships_count": 0, "projects": [{"id": 13116, "title": "Expense Tracker App", "devlogs_count": 1, "created_at": "2025-09-08T22:33:11.241-04:00"}], "coding_time_seconds": 260302, "coding_time_seconds_today": 8074, "balance": "You need to have a pocket watcher badge to view this.", "badges": [], "created_at": "2025-08-22T22:04:46.909-04:00", "updated_at": "2025-09-08T22:50:51.515-04:00", "avatar": "https://secure.gravatar.com/avatar/b5c2dfc6e1eb8e3f8bccd85c0eb0fc43.jpg?s=512&d=https%3A%2F%2Fa.slack-edge.com%2Fdf10d%2Fimg%2Favatars%2Fava_0023-512.png", "custom_css": null}, {"id": 22413, "slack_id": "U09CHBZR9JL", "display_name": "frandorturtles", "bio": null, "projects_count": 0, "devlogs_count": 0, "votes_count": 0, "ships_count": 0, "projects": [], "coding_time_seconds": 0, "coding_time_seconds_today": 0, "balance": "You need to have a pocket watcher badge to view this.", "badges": [], "created_at": "2025-08-22T22:35:30.493-04:00", "updated_at": "2025-09-10T10:00:44.009-04:00", "avatar": "https://avatars.slack-edge.com/2025-09-10/9489811145427_9a936d9c560a00f9b3d0_original.png", "custom_css": null}, {"id": 22414, "slack_id": "U09BTDUAPRS", "display_name": "Gilbert", "bio": null, "projects_count": 0, "devlogs_count": 0, "votes_count": 0, "ships_count": 0, "projects": [], "coding_time_seconds": 0, "coding_time_seconds_today": 0, "balance": "You need to have a pocket watcher badge to view this.", "badges": [], "created_at": "2025-08-22T22:47:00.812-04:00", "updated_at": "2025-08-23T20:23:19.949-04:00", "avatar": "https://secure.gravatar.com/avatar/2a8c2ed7145a4fab7689aec1d8dc2d39.jpg?s=512&d=https%3A%2F%2Fa.slack-edge.com%2Fdf10d%2Fimg%2Favatars%2Fava_0024-512.png", "custom_css": null}, {"id": 22415, "slack_id": "U09BBF0UM0T", "display_name": "Agrin Fauzi", "bio": null, "projects_count": 0, "devlogs_count": 0, "votes_count": 0, "ships_count": 0, "projects": [], "coding_time_seconds": 397, "coding_time_seconds_today": 0, "balance": "You need to have a pocket watcher badge to view this.", "badges": [], "created_at": "2025-08-22T23:28:46.149-04:00", "updated_at": "2025-08-23T16:00:30.256-04:00", "avatar": "https://avatars.slack-edge.com/2025-08-22/9396544681877_940c2b73166a8d9a9cc9_original.jpg", "custom_css": null}, {"id": 22416, "slack_id": "U09C3EWULSV", "display_name": "peter le", "bio": null, "projects_count": 0, "devlogs_count": 0, "votes_count": 0, "ships_count": 0, "projects": [], "coding_time_seconds": 0, "coding_time_seconds_today": 0, "balance": "You need to have a pocket watcher badge to view this.", "badges": [], "created_at": "2025-08-23T00:17:36.517-04:00", "updated_at": "2025-08-23T16:00:30.355-04:00", "avatar": "https://avatars.slack-edge.com/2025-08-22/9397822205250_e6ac4d70db86b699ac28_original.png", "custom_css": null}, {"id": 22417, "slack_id": "U09BGF4AN4V", "display_name": "Qube Q.", "bio": null, "projects_count": 0, "devlogs_count": 0, "votes_count": 0, "ships_count": 0, "projects": [], "coding_time_seconds": 0, "coding_time_seconds_today": 0, "balance": "You need to have a pocket watcher badge to view this.", "badges": [], "created_at": "2025-08-23T00:44:39.592-04:00", "updated_at": "2025-08-23T16:00:30.482-04:00", "avatar": "https://secure.gravatar.com/avatar/23f28b235cab17ed12a28d044100d17b.jpg?s=512&d=https%3A%2F%2Fa.slack-edge.com%2Fdf10d%2Fimg%2Favatars%2Fava_0014-512.png", "custom_css": null}, {"id": 22418, "slack_id": "U0979JAB32P", "display_name": "Sridhar Tuli", "bio": null, "projects_count": 1, "devlogs_count": 0, "votes_count": 0, "ships_count": 0, "projects": [{"id": 12094, "title": "MyCodes", "devlogs_count": 0, "created_at": "2025-08-23T01:19:11.394-04:00"}], "coding_time_seconds": 9299, "coding_time_seconds_today": 0, "balance": "You need to have a pocket watcher badge to view this.", "badges": [], "created_at": "2025-08-23T00:51:30.513-04:00", "updated_at": "2025-08-23T16:00:34.626-04:00", "avatar": "https://avatars.slack-edge.com/2025-08-22/9401808080548_5fd30b8b68ac69759dc8_original.jpg", "custom_css": null}, {"id": 22419, "slack_id": "U09BRR3DFML", "display_name": "Lena Hawver", "bio": null, "projects_count": 0, "devlogs_count": 0, "votes_count": 0, "ships_count": 0, "projects": [], "coding_time_seconds": 0, "coding_time_seconds_today": 0, "balance": "You need to have a pocket watcher badge to view this.", "badges": [], "created_at": "2025-08-23T01:28:25.660-04:00", "updated_at": "2025-08-23T16:00:34.729-04:00", "avatar": "https://avatars.slack-edge.com/2025-08-22/9393223128499_13f0649dc1e577138c91_original.jpg", "custom_css": null}, {"id": 22420, "slack_id": "U098TQBQQ4R", "display_name": "Matemilola Samuel", "bio": null, "projects_count": 0, "devlogs_count": 0, "votes_count": 0, "ships_count": 0, "projects": [], "coding_time_seconds": 0, "coding_time_seconds_today": 0, "balance": "You need to have a pocket watcher badge to view this.", "badges": [], "created_at": "2025-08-23T02:41:31.483-04:00", "updated_at": "2025-08-23T16:00:34.893-04:00", "avatar": "https://secure.gravatar.com/avatar/90e88a677156b7534afdcf7b9902c4dc.jpg?s=512&d=https%3A%2F%2Fa.slack-edge.com%2Fdf10d%2Fimg%2Favatars%2Fava_0002-512.png", "custom_css": null}, {"id": 22421, "slack_id": "U096DCN0ZLK", "display_name": "a", "bio": null, "projects_count": 0, "devlogs_count": 0, "votes_count": 0, "ships_count": 0, "projects": [], "coding_time_seconds": 0, "coding_time_seconds_today": 0, "balance": "You need to have a pocket watcher badge to view this.", "badges": [], "created_at": "2025-08-23T02:44:46.811-04:00", "updated_at": "2025-09-19T22:27:51.401-04:00", "avatar": "https://secure.gravatar.com/avatar/e718be957ed339aef09b78bd0c72401c.jpg?s=512&d=https%3A%2F%2Fa.slack-edge.com%2Fdf10d%2Fimg%2Favatars%2Fava_0003-512.png", "custom_css": null}, {"id": 22422, "slack_id": "U09BQ337S66", "display_name": "BobTheBuilderB", "bio": null, "projects_count": 0, "devlogs_count": 0, "votes_count": 0, "ships_count": 0, "projects": [], "coding_time_seconds": 0, "coding_time_seconds_today": 0, "balance": "You need to have a pocket watcher badge to view this.", "badges": [], "created_at": "2025-08-23T03:38:53.161-04:00", "updated_at": "2025-08-23T16:00:35.121-04:00", "avatar": "https://secure.gravatar.com/avatar/7eb41125c075d0f1c64e5a8f33eaa799.jpg?s=512&d=https%3A%2F%2Fa.slack-edge.com%2Fdf10d%2Fimg%2Favatars%2Fava_0015-512.png", "custom_css": null}, {"id": 22423, "slack_id": "U09BS1XRVBQ", "display_name": "laxmi Chalise", "bio": null, "projects_count": 0, "devlogs_count": 0, "votes_count": 0, "ships_count": 0, "projects": [], "coding_time_seconds": 0, "coding_time_seconds_today": 0, "balance": "You need to have a pocket watcher badge to view this.", "badges": [], "created_at": "2025-08-23T03:56:27.544-04:00", "updated_at": "2025-08-23T16:00:35.236-04:00", "avatar": "https://avatars.slack-edge.com/2025-08-23/9400077592566_c7cf7e9c035df4a14ba1_original.jpg", "custom_css": null}, {"id": 22424, "slack_id": "U09BQ3UH9KL", "display_name": "G.Mohana Vamsi", "bio": null, "projects_count": 0, "devlogs_count": 0, "votes_count": 0, "ships_count": 0, "projects": [], "coding_time_seconds": 109272, "coding_time_seconds_today": 0, "balance": "You need to have a pocket watcher badge to view this.", "badges": [], "created_at": "2025-08-23T04:00:43.428-04:00", "updated_at": "2025-08-23T16:00:35.340-04:00", "avatar": "https://avatars.slack-edge.com/2025-08-23/9393447664019_aa5c3ad411951fa298ad_original.jpg", "custom_css": null}, {"id": 22425, "slack_id": "U09BBB54TC7", "display_name": "King", "bio": null, "projects_count": 0, "devlogs_count": 0, "votes_count": 0, "ships_count": 0, "projects": [], "coding_time_seconds": 0, "coding_time_seconds_today": 0, "balance": "You need to have a pocket watcher badge to view this.", "badges": [], "created_at": "2025-08-23T04:41:02.468-04:00", "updated_at": "2025-08-23T16:00:35.460-04:00", "avatar": "https://secure.gravatar.com/avatar/bfc1d5de941e0ed05a27efcc07b8297a.jpg?s=512&d=https%3A%2F%2Fa.slack-edge.com%2Fdf10d%2Fimg%2Favatars%2Fava_0011-512.png", "custom_css": null}], "pagination": {"page": 1117, "pages": 1192, "count": 23828, "items": 20}}