{"users": [{"id": 22426, "slack_id": "U09BS78SKFY", "display_name": "Noumi", "bio": null, "projects_count": 0, "devlogs_count": 0, "votes_count": 0, "ships_count": 0, "projects": [], "coding_time_seconds": 0, "coding_time_seconds_today": 0, "balance": "You need to have a pocket watcher badge to view this.", "badges": [], "created_at": "2025-08-23T05:58:28.014-04:00", "updated_at": "2025-08-23T16:00:35.591-04:00", "avatar": "https://secure.gravatar.com/avatar/47c27e77fb28ee7076e62393fb7a4bc3.jpg?s=512&d=https%3A%2F%2Fa.slack-edge.com%2Fdf10d%2Fimg%2Favatars%2Fava_0014-512.png", "custom_css": null}, {"id": 22427, "slack_id": "U07TDUCJ150", "display_name": "Atharva Sonawane", "bio": null, "projects_count": 1, "devlogs_count": 1, "votes_count": 2, "ships_count": 0, "projects": [{"id": 12196, "title": "Calculator Plus", "devlogs_count": 1, "created_at": "2025-08-24T08:20:55.998-04:00"}], "coding_time_seconds": 8098, "coding_time_seconds_today": 0, "balance": "You need to have a pocket watcher badge to view this.", "badges": [], "created_at": "2025-08-23T06:06:48.134-04:00", "updated_at": "2025-08-24T08:56:47.526-04:00", "avatar": "https://avatars.slack-edge.com/2024-10-24/7917450422039_d47cd01f2090f2d19a22_original.png", "custom_css": null}, {"id": 22428, "slack_id": "U09BP1W6PT7", "display_name": "Ravi", "bio": null, "projects_count": 0, "devlogs_count": 0, "votes_count": 0, "ships_count": 0, "projects": [], "coding_time_seconds": 0, "coding_time_seconds_today": 0, "balance": "You need to have a pocket watcher badge to view this.", "badges": [], "created_at": "2025-08-23T06:21:13.703-04:00", "updated_at": "2025-08-23T16:00:35.765-04:00", "avatar": "https://secure.gravatar.com/avatar/4775ae9773aad88c14774e807fa80057.jpg?s=512&d=https%3A%2F%2Fa.slack-edge.com%2Fdf10d%2Fimg%2Favatars%2Fava_0018-512.png", "custom_css": null}, {"id": 22429, "slack_id": "U09B8AM3M4P", "display_name": "CyberShade", "bio": null, "projects_count": 0, "devlogs_count": 0, "votes_count": 0, "ships_count": 0, "projects": [], "coding_time_seconds": 14903, "coding_time_seconds_today": 0, "balance": "You need to have a pocket watcher badge to view this.", "badges": [], "created_at": "2025-08-23T06:37:02.458-04:00", "updated_at": "2025-08-24T17:47:35.371-04:00", "avatar": "https://secure.gravatar.com/avatar/b7116a204e3b35fa04988ecc7510598c.jpg?s=512&d=https%3A%2F%2Fa.slack-edge.com%2Fdf10d%2Fimg%2Favatars%2Fava_0012-512.png", "custom_css": null}, {"id": 22430, "slack_id": "U097DETLGTD", "display_name": "Deepak Rajput", "bio": null, "projects_count": 0, "devlogs_count": 0, "votes_count": 0, "ships_count": 0, "projects": [], "coding_time_seconds": 0, "coding_time_seconds_today": 0, "balance": "You need to have a pocket watcher badge to view this.", "badges": [], "created_at": "2025-08-23T06:39:34.310-04:00", "updated_at": "2025-08-23T16:00:35.980-04:00", "avatar": "https://secure.gravatar.com/avatar/2a0f913c34f450dd8abee8f15066acda.jpg?s=512&d=https%3A%2F%2Fa.slack-edge.com%2Fdf10d%2Fimg%2Favatars%2Fava_0007-512.png", "custom_css": null}, {"id": 22431, "slack_id": "U09BQAMPMBL", "display_name": "Komoire Ashiraf", "bio": null, "projects_count": 0, "devlogs_count": 0, "votes_count": 0, "ships_count": 0, "projects": [], "coding_time_seconds": 24020, "coding_time_seconds_today": 493, "balance": "You need to have a pocket watcher badge to view this.", "badges": [], "created_at": "2025-08-23T06:53:14.935-04:00", "updated_at": "2025-08-23T16:00:36.079-04:00", "avatar": "https://avatars.slack-edge.com/2025-08-23/9397125038885_36faf3366f7ed5146278_original.jpg", "custom_css": null}, {"id": 22432, "slack_id": "U09BNK2BG66", "display_name": "Fahad Abdullah", "bio": null, "projects_count": 0, "devlogs_count": 0, "votes_count": 0, "ships_count": 0, "projects": [], "coding_time_seconds": 0, "coding_time_seconds_today": 0, "balance": "You need to have a pocket watcher badge to view this.", "badges": [], "created_at": "2025-08-23T07:06:30.902-04:00", "updated_at": "2025-08-23T16:00:36.184-04:00", "avatar": "https://avatars.slack-edge.com/2025-08-23/9400339884262_41181c1c53aefc68aa96_original.jpg", "custom_css": null}, {"id": 22433, "slack_id": "U09CJAKCRCG", "display_name": "Dulmina Jayaru Geeganage", "bio": "\u26a1 Student | \ud83d\udcbb Tech Nerd\r\nAlways learning. Always building.\r\nTurning caffeine + code into ideas \ud83d\ude80\r\n#FutureReady", "projects_count": 2, "devlogs_count": 1, "votes_count": 20, "ships_count": 0, "projects": [{"id": 12198, "title": "JobFind", "devlogs_count": 1, "created_at": "2025-08-24T09:10:12.991-04:00"}, {"id": 12202, "title": "Personal Portfolio", "devlogs_count": 0, "created_at": "2025-08-24T09:55:46.767-04:00"}], "coding_time_seconds": 11190, "coding_time_seconds_today": 0, "balance": "You need to have a pocket watcher badge to view this.", "badges": [], "created_at": "2025-08-23T08:37:16.369-04:00", "updated_at": "2025-08-23T16:00:36.283-04:00", "avatar": "https://secure.gravatar.com/avatar/886587adb2a028ad58cc8294788ae3d4.jpg?s=512&d=https%3A%2F%2Fa.slack-edge.com%2Fdf10d%2Fimg%2Favatars%2Fava_0020-512.png", "custom_css": null}, {"id": 22434, "slack_id": "U09B20A6LCX", "display_name": "Clark Clark", "bio": null, "projects_count": 0, "devlogs_count": 0, "votes_count": 0, "ships_count": 0, "projects": [], "coding_time_seconds": 0, "coding_time_seconds_today": 0, "balance": "You need to have a pocket watcher badge to view this.", "badges": [], "created_at": "2025-08-23T08:57:11.464-04:00", "updated_at": "2025-08-23T16:00:36.382-04:00", "avatar": "https://secure.gravatar.com/avatar/cbdc88f14619340b6439aa032b5f281b.jpg?s=512&d=https%3A%2F%2Fa.slack-edge.com%2Fdf10d%2Fimg%2Favatars%2Fava_0015-512.png", "custom_css": null}, {"id": 22435, "slack_id": "U086Y66RZAA", "display_name": "Nam H\u1ed3 S\u1ef9 K\u1ef3", "bio": null, "projects_count": 0, "devlogs_count": 0, "votes_count": 0, "ships_count": 0, "projects": [], "coding_time_seconds": 0, "coding_time_seconds_today": 0, "balance": "You need to have a pocket watcher badge to view this.", "badges": [], "created_at": "2025-08-23T09:07:32.270-04:00", "updated_at": "2025-08-23T10:02:22.540-04:00", "avatar": "https://avatars.slack-edge.com/2025-01-02/8245347492948_5228ca7e47c26e6b3afe_original.jpg", "custom_css": null}, {"id": 22436, "slack_id": "U09C49P2PB3", "display_name": "SJ", "bio": null, "projects_count": 0, "devlogs_count": 0, "votes_count": 0, "ships_count": 0, "projects": [], "coding_time_seconds": 34080, "coding_time_seconds_today": 0, "balance": "You need to have a pocket watcher badge to view this.", "badges": [], "created_at": "2025-08-23T09:28:02.322-04:00", "updated_at": "2025-08-23T16:00:36.587-04:00", "avatar": "https://secure.gravatar.com/avatar/7761353098cd5e379bfe1c436b76eacd.jpg?s=512&d=https%3A%2F%2Fa.slack-edge.com%2Fdf10d%2Fimg%2Favatars%2Fava_0009-512.png", "custom_css": null}, {"id": 22437, "slack_id": "U09BSH5CW6A", "display_name": "DP BOSS", "bio": null, "projects_count": 0, "devlogs_count": 0, "votes_count": 0, "ships_count": 0, "projects": [], "coding_time_seconds": 0, "coding_time_seconds_today": 0, "balance": "You need to have a pocket watcher badge to view this.", "badges": [], "created_at": "2025-08-23T09:50:28.348-04:00", "updated_at": "2025-08-23T16:00:36.732-04:00", "avatar": "https://secure.gravatar.com/avatar/0c10ccfa766d6ba7e8e7453fc7c144b2.jpg?s=512&d=https%3A%2F%2Fa.slack-edge.com%2Fdf10d%2Fimg%2Favatars%2Fava_0004-512.png", "custom_css": null}, {"id": 22438, "slack_id": "U09BBRG2MJP", "display_name": "Daniel Ebu", "bio": null, "projects_count": 0, "devlogs_count": 0, "votes_count": 0, "ships_count": 0, "projects": [], "coding_time_seconds": 0, "coding_time_seconds_today": 0, "balance": "You need to have a pocket watcher badge to view this.", "badges": [], "created_at": "2025-08-23T09:51:08.234-04:00", "updated_at": "2025-08-23T16:00:36.831-04:00", "avatar": "https://secure.gravatar.com/avatar/02130f01b508bff83a5b2bae6dc18972.jpg?s=512&d=https%3A%2F%2Fa.slack-edge.com%2Fdf10d%2Fimg%2Favatars%2Fava_0022-512.png", "custom_css": null}, {"id": 22439, "slack_id": "U09BPAP4ZE1", "display_name": "Sijan Thapa", "bio": null, "projects_count": 0, "devlogs_count": 0, "votes_count": 0, "ships_count": 0, "projects": [], "coding_time_seconds": 0, "coding_time_seconds_today": 0, "balance": "You need to have a pocket watcher badge to view this.", "badges": [], "created_at": "2025-08-23T09:51:45.419-04:00", "updated_at": "2025-08-23T16:00:36.976-04:00", "avatar": "https://avatars.slack-edge.com/2025-08-23/9412373049521_b4aa1b5f7ce83a3e5fb7_original.png", "custom_css": null}, {"id": 22440, "slack_id": "U09BUHLPFAQ", "display_name": "Yashraj Dhamale", "bio": null, "projects_count": 0, "devlogs_count": 0, "votes_count": 0, "ships_count": 0, "projects": [], "coding_time_seconds": 4012, "coding_time_seconds_today": 0, "balance": "You need to have a pocket watcher badge to view this.", "badges": [], "created_at": "2025-08-23T10:22:57.332-04:00", "updated_at": "2025-08-23T16:00:37.170-04:00", "avatar": "https://secure.gravatar.com/avatar/9ab626889f641653b4cc41a1ec4278f4.jpg?s=512&d=https%3A%2F%2Fa.slack-edge.com%2Fdf10d%2Fimg%2Favatars%2Fava_0000-512.png", "custom_css": null}, {"id": 22441, "slack_id": "U09BSJDN4DU", "display_name": "Jordan Martin", "bio": null, "projects_count": 0, "devlogs_count": 0, "votes_count": 0, "ships_count": 0, "projects": [], "coding_time_seconds": 345, "coding_time_seconds_today": 0, "balance": "You need to have a pocket watcher badge to view this.", "badges": [], "created_at": "2025-08-23T10:34:42.809-04:00", "updated_at": "2025-08-23T16:00:41.328-04:00", "avatar": "https://avatars.slack-edge.com/2025-08-23/9426568732528_cb9eae86de4898d7c978_original.jpg", "custom_css": null}, {"id": 22442, "slack_id": "U08TDUD8WN7", "display_name": "Alvina", "bio": null, "projects_count": 0, "devlogs_count": 0, "votes_count": 0, "ships_count": 0, "projects": [], "coding_time_seconds": 3725, "coding_time_seconds_today": 0, "balance": "You need to have a pocket watcher badge to view this.", "badges": [], "created_at": "2025-08-23T10:50:47.699-04:00", "updated_at": "2025-09-20T07:59:24.564-04:00", "avatar": "https://avatars.slack-edge.com/2025-09-20/9550350319237_835ef16f7c1d47ae1ce3_original.jpg", "custom_css": null}, {"id": 22443, "slack_id": "U09BPJH35PX", "display_name": "Sankalp", "bio": "", "projects_count": 0, "devlogs_count": 0, "votes_count": 3, "ships_count": 0, "projects": [], "coding_time_seconds": 845, "coding_time_seconds_today": 0, "balance": "You need to have a pocket watcher badge to view this.", "badges": [], "created_at": "2025-08-23T12:55:01.956-04:00", "updated_at": "2025-08-25T02:19:02.363-04:00", "avatar": "https://secure.gravatar.com/avatar/de9b95dc9afed53b1ab4dcc297ad15a8.jpg?s=512&d=https%3A%2F%2Fa.slack-edge.com%2Fdf10d%2Fimg%2Favatars%2Fava_0002-512.png", "custom_css": null}, {"id": 22444, "slack_id": "U09CJQGNVFA", "display_name": "Souptik", "bio": null, "projects_count": 0, "devlogs_count": 0, "votes_count": 0, "ships_count": 0, "projects": [], "coding_time_seconds": 0, "coding_time_seconds_today": 0, "balance": "You need to have a pocket watcher badge to view this.", "badges": [], "created_at": "2025-08-23T13:11:30.310-04:00", "updated_at": "2025-08-26T16:00:37.999-04:00", "avatar": "https://avatars.slack-edge.com/2025-08-26/9412195365682_02b87f820e8dc4ff8da5_original.png", "custom_css": null}, {"id": 22445, "slack_id": "U08M237LWBV", "display_name": "Margouta", "bio": null, "projects_count": 1, "devlogs_count": 0, "votes_count": 1, "ships_count": 0, "projects": [{"id": 12326, "title": "WePoll / WeForm", "devlogs_count": 0, "created_at": "2025-08-25T18:29:50.387-04:00"}], "coding_time_seconds": 22600, "coding_time_seconds_today": 0, "balance": "You need to have a pocket watcher badge to view this.", "badges": [], "created_at": "2025-08-23T13:25:33.952-04:00", "updated_at": "2025-08-26T16:47:23.141-04:00", "avatar": "https://avatars.slack-edge.com/2025-04-06/8706381402630_b9f860f54415053e03ea_original.png", "custom_css": null}], "pagination": {"page": 1118, "pages": 1192, "count": 23828, "items": 20}}