{"users": [{"id": 22446, "slack_id": "U09BR01N258", "display_name": "Alcor", "bio": null, "projects_count": 0, "devlogs_count": 0, "votes_count": 0, "ships_count": 0, "projects": [], "coding_time_seconds": 3475, "coding_time_seconds_today": 0, "balance": "You need to have a pocket watcher badge to view this.", "badges": [], "created_at": "2025-08-23T13:48:45.485-04:00", "updated_at": "2025-08-24T03:57:09.517-04:00", "avatar": "https://secure.gravatar.com/avatar/de72e24797708e1a91e8645a426acf46.jpg?s=512&d=https%3A%2F%2Fa.slack-edge.com%2Fdf10d%2Fimg%2Favatars%2Fava_0010-512.png", "custom_css": null}, {"id": 22447, "slack_id": "U09CJS69WUQ", "display_name": "tehcnerd", "bio": null, "projects_count": 0, "devlogs_count": 0, "votes_count": 0, "ships_count": 0, "projects": [], "coding_time_seconds": 0, "coding_time_seconds_today": 0, "balance": "You need to have a pocket watcher badge to view this.", "badges": [], "created_at": "2025-08-23T13:51:46.311-04:00", "updated_at": "2025-08-23T16:00:42.133-04:00", "avatar": "https://secure.gravatar.com/avatar/7a645cfddecb3ad807e40f966849fb94.jpg?s=512&d=https%3A%2F%2Fa.slack-edge.com%2Fdf10d%2Fimg%2Favatars%2Fava_0016-512.png", "custom_css": null}, {"id": 22448, "slack_id": "U09BUTB9L5S", "display_name": "Michelle", "bio": null, "projects_count": 0, "devlogs_count": 0, "votes_count": 0, "ships_count": 0, "projects": [], "coding_time_seconds": 0, "coding_time_seconds_today": 0, "balance": "You need to have a pocket watcher badge to view this.", "badges": [], "created_at": "2025-08-23T13:56:37.346-04:00", "updated_at": "2025-08-23T16:00:42.231-04:00", "avatar": "https://secure.gravatar.com/avatar/9cb131f081308ac6e85d3112bf54fa74.jpg?s=512&d=https%3A%2F%2Fa.slack-edge.com%2Fdf10d%2Fimg%2Favatars%2Fava_0009-512.png", "custom_css": null}, {"id": 22449, "slack_id": "U08RQTYGEEP", "display_name": "benitaukaegbu", "bio": null, "projects_count": 0, "devlogs_count": 0, "votes_count": 0, "ships_count": 0, "projects": [], "coding_time_seconds": 0, "coding_time_seconds_today": 0, "balance": "You need to have a pocket watcher badge to view this.", "badges": [], "created_at": "2025-08-23T14:01:21.481-04:00", "updated_at": "2025-08-23T16:00:42.328-04:00", "avatar": "https://secure.gravatar.com/avatar/78e87522e933285dc4fa1aa494a3a24e.jpg?s=512&d=https%3A%2F%2Fa.slack-edge.com%2Fdf10d%2Fimg%2Favatars%2Fava_0004-512.png", "custom_css": null}, {"id": 22450, "slack_id": "U097XDCQ5R7", "display_name": "Precious Nwachokor", "bio": null, "projects_count": 0, "devlogs_count": 0, "votes_count": 0, "ships_count": 0, "projects": [], "coding_time_seconds": 7850, "coding_time_seconds_today": 1112, "balance": "You need to have a pocket watcher badge to view this.", "badges": [], "created_at": "2025-08-23T14:03:24.611-04:00", "updated_at": "2025-08-23T19:56:36.624-04:00", "avatar": "https://secure.gravatar.com/avatar/56ed5405b36eeeeab55945b92d85c051.jpg?s=512&d=https%3A%2F%2Fa.slack-edge.com%2Fdf10d%2Fimg%2Favatars%2Fava_0004-512.png", "custom_css": null}, {"id": 22451, "slack_id": "U05QR2VPYL8", "display_name": "Evah Shaji", "bio": null, "projects_count": 0, "devlogs_count": 0, "votes_count": 0, "ships_count": 0, "projects": [], "coding_time_seconds": 1, "coding_time_seconds_today": 0, "balance": "You need to have a pocket watcher badge to view this.", "badges": [], "created_at": "2025-08-23T14:30:58.298-04:00", "updated_at": "2025-08-23T16:00:42.532-04:00", "avatar": "https://secure.gravatar.com/avatar/46cc0563f7c34048d7ef7021e17fdf48.jpg?s=512&d=https%3A%2F%2Fa.slack-edge.com%2Fdf10d%2Fimg%2Favatars%2Fava_0017-512.png", "custom_css": null}, {"id": 22452, "slack_id": "U09BR2U3PSN", "display_name": "Vedant", "bio": null, "projects_count": 2, "devlogs_count": 11, "votes_count": 86, "ships_count": 2, "projects": [{"id": 12333, "title": "Bionic Reader", "devlogs_count": 5, "created_at": "2025-08-25T22:43:43.275-04:00"}, {"id": 12455, "title": "Python Mini Projects", "devlogs_count": 5, "created_at": "2025-08-27T20:17:17.673-04:00"}], "coding_time_seconds": 43057, "coding_time_seconds_today": 0, "balance": "You need to have a pocket watcher badge to view this.", "badges": [], "created_at": "2025-08-23T15:02:34.977-04:00", "updated_at": "2025-08-26T04:00:04.331-04:00", "avatar": "https://secure.gravatar.com/avatar/786e1418a406a286fcb2bd4f08a4f4ee.jpg?s=512&d=https%3A%2F%2Fa.slack-edge.com%2Fdf10d%2Fimg%2Favatars%2Fava_0005-512.png", "custom_css": null}, {"id": 22453, "slack_id": "U07P12KAYRY", "display_name": "Salar Mohammad Uzair", "bio": null, "projects_count": 1, "devlogs_count": 0, "votes_count": 0, "ships_count": 0, "projects": [{"id": 12699, "title": "RunToDie", "devlogs_count": 0, "created_at": "2025-09-01T04:56:48.418-04:00"}], "coding_time_seconds": 9031, "coding_time_seconds_today": 0, "balance": "You need to have a pocket watcher badge to view this.", "badges": [], "created_at": "2025-08-23T15:46:46.919-04:00", "updated_at": "2025-08-24T15:59:15.177-04:00", "avatar": "https://avatars.slack-edge.com/2025-08-25/9403087781270_3dc1bc5f657e623e8a88_original.jpg", "custom_css": null}, {"id": 22454, "slack_id": "U09BLGS5FTM", "display_name": "Vignesh Naik", "bio": null, "projects_count": 0, "devlogs_count": 0, "votes_count": 0, "ships_count": 0, "projects": [], "coding_time_seconds": 0, "coding_time_seconds_today": 0, "balance": "You need to have a pocket watcher badge to view this.", "badges": [], "created_at": "2025-08-23T16:24:41.874-04:00", "updated_at": "2025-08-23T22:01:04.554-04:00", "avatar": "https://avatars.slack-edge.com/2025-08-23/9427140111856_f056aeed2343b9c9ce02_original.jpg", "custom_css": null}, {"id": 22455, "slack_id": "U09C4V1AWBT", "display_name": "Pranav Polisetti", "bio": null, "projects_count": 0, "devlogs_count": 0, "votes_count": 0, "ships_count": 0, "projects": [], "coding_time_seconds": 0, "coding_time_seconds_today": 0, "balance": "You need to have a pocket watcher badge to view this.", "badges": [], "created_at": "2025-08-23T16:32:03.424-04:00", "updated_at": "2025-08-23T22:01:04.662-04:00", "avatar": "https://secure.gravatar.com/avatar/722fc19c36b4875041825756b841bc4f.jpg?s=512&d=https%3A%2F%2Fa.slack-edge.com%2Fdf10d%2Fimg%2Favatars%2Fava_0015-512.png", "custom_css": null}, {"id": 22456, "slack_id": "U09CG7EBNM6", "display_name": "jina mohammad", "bio": null, "projects_count": 0, "devlogs_count": 0, "votes_count": 0, "ships_count": 0, "projects": [], "coding_time_seconds": 400, "coding_time_seconds_today": 0, "balance": "You need to have a pocket watcher badge to view this.", "badges": [], "created_at": "2025-08-23T16:35:22.229-04:00", "updated_at": "2025-08-23T19:00:01.306-04:00", "avatar": "https://secure.gravatar.com/avatar/8d217a45f5890a5a71a59dd4e1ec3e9f.jpg?s=512&d=https%3A%2F%2Fa.slack-edge.com%2Fdf10d%2Fimg%2Favatars%2Fava_0009-512.png", "custom_css": null}, {"id": 22457, "slack_id": "U09BR837N74", "display_name": "Finn", "bio": null, "projects_count": 0, "devlogs_count": 0, "votes_count": 0, "ships_count": 0, "projects": [], "coding_time_seconds": 0, "coding_time_seconds_today": 0, "balance": "You need to have a pocket watcher badge to view this.", "badges": [], "created_at": "2025-08-23T17:04:14.344-04:00", "updated_at": "2025-08-23T22:01:04.824-04:00", "avatar": "https://secure.gravatar.com/avatar/fb053b013defee98f25f1f3a233fd53d.jpg?s=512&d=https%3A%2F%2Fa.slack-edge.com%2Fdf10d%2Fimg%2Favatars%2Fava_0016-512.png", "custom_css": null}, {"id": 22458, "slack_id": "U09BT7JS64E", "display_name": "Kushagra Nagar", "bio": null, "projects_count": 0, "devlogs_count": 0, "votes_count": 0, "ships_count": 0, "projects": [], "coding_time_seconds": 53590, "coding_time_seconds_today": 0, "balance": "You need to have a pocket watcher badge to view this.", "badges": [], "created_at": "2025-08-23T17:14:19.616-04:00", "updated_at": "2025-08-24T22:46:38.192-04:00", "avatar": "https://avatars.slack-edge.com/2025-08-23/9399296199042_cad0aed6fb599290e1ac_original.png", "custom_css": null}, {"id": 22459, "slack_id": "U09BV93QNFN", "display_name": "Bobby Apple", "bio": null, "projects_count": 0, "devlogs_count": 0, "votes_count": 0, "ships_count": 0, "projects": [], "coding_time_seconds": 0, "coding_time_seconds_today": 0, "balance": "You need to have a pocket watcher badge to view this.", "badges": [], "created_at": "2025-08-23T18:33:25.213-04:00", "updated_at": "2025-08-23T22:01:09.124-04:00", "avatar": "https://secure.gravatar.com/avatar/89d9e6dacf4b9f4e2e21e660d80ec5df.jpg?s=512&d=https%3A%2F%2Fa.slack-edge.com%2Fdf10d%2Fimg%2Favatars%2Fava_0020-512.png", "custom_css": null}, {"id": 22460, "slack_id": "U09BCGL8Q15", "display_name": "lefishe", "bio": null, "projects_count": 0, "devlogs_count": 0, "votes_count": 0, "ships_count": 0, "projects": [], "coding_time_seconds": 0, "coding_time_seconds_today": 0, "balance": "You need to have a pocket watcher badge to view this.", "badges": [], "created_at": "2025-08-23T18:55:20.930-04:00", "updated_at": "2025-08-23T22:01:09.347-04:00", "avatar": "https://avatars.slack-edge.com/2025-08-24/9399425957042_aed38a0c723e1e8fc564_original.jpg", "custom_css": null}, {"id": 22461, "slack_id": "U09C57D7H17", "display_name": "muhammed", "bio": null, "projects_count": 3, "devlogs_count": 0, "votes_count": 2, "ships_count": 0, "projects": [{"id": 12403, "title": "Svelte & TailwindCSS Admin Panel Design", "devlogs_count": 0, "created_at": "2025-08-27T01:21:54.628-04:00"}, {"id": 12404, "title": "Fake E-Commerce APP with React", "devlogs_count": 0, "created_at": "2025-08-27T01:38:57.093-04:00"}, {"id": 12933, "title": "an App for helping Students", "devlogs_count": 0, "created_at": "2025-09-05T15:27:05.428-04:00"}], "coding_time_seconds": 67286, "coding_time_seconds_today": 0, "balance": "You need to have a pocket watcher badge to view this.", "badges": [], "created_at": "2025-08-23T19:50:17.193-04:00", "updated_at": "2025-08-27T01:55:21.392-04:00", "avatar": "https://secure.gravatar.com/avatar/1ded2580f9effa7775f80c528239866e.jpg?s=512&d=https%3A%2F%2Fa.slack-edge.com%2Fdf10d%2Fimg%2Favatars%2Fava_0026-512.png", "custom_css": null}, {"id": 22462, "slack_id": "U08ADGKSJF6", "display_name": "Isabella", "bio": null, "projects_count": 0, "devlogs_count": 0, "votes_count": 0, "ships_count": 0, "projects": [], "coding_time_seconds": 0, "coding_time_seconds_today": 0, "balance": "You need to have a pocket watcher badge to view this.", "badges": [], "created_at": "2025-08-23T19:58:37.229-04:00", "updated_at": "2025-08-23T19:58:45.752-04:00", "avatar": "https://avatars.slack-edge.com/2025-01-26/8344424811622_307bec033c1b16949e44_original.png", "custom_css": null}, {"id": 22463, "slack_id": "U09BVD01FBN", "display_name": "Bonheur", "bio": null, "projects_count": 0, "devlogs_count": 0, "votes_count": 0, "ships_count": 0, "projects": [], "coding_time_seconds": 0, "coding_time_seconds_today": 0, "balance": "You need to have a pocket watcher badge to view this.", "badges": [], "created_at": "2025-08-23T20:10:37.653-04:00", "updated_at": "2025-08-23T22:01:09.915-04:00", "avatar": "https://avatars.slack-edge.com/2025-08-24/9403450823188_cbbe943556c06cf8e5e6_original.jpg", "custom_css": null}, {"id": 22464, "slack_id": "U09BRGLMKTL", "display_name": "xxmariahcareyxx", "bio": null, "projects_count": 0, "devlogs_count": 0, "votes_count": 0, "ships_count": 0, "projects": [], "coding_time_seconds": 0, "coding_time_seconds_today": 0, "balance": "You need to have a pocket watcher badge to view this.", "badges": [], "created_at": "2025-08-23T20:50:18.034-04:00", "updated_at": "2025-08-23T22:01:10.024-04:00", "avatar": "https://secure.gravatar.com/avatar/afb00158174e4f3ba88bef54a2c3185d.jpg?s=512&d=https%3A%2F%2Fa.slack-edge.com%2Fdf10d%2Fimg%2Favatars%2Fava_0024-512.png", "custom_css": null}, {"id": 22465, "slack_id": "U09BLTEKYD9", "display_name": "Manash Koirala", "bio": null, "projects_count": 0, "devlogs_count": 0, "votes_count": 0, "ships_count": 0, "projects": [], "coding_time_seconds": 0, "coding_time_seconds_today": 0, "balance": "You need to have a pocket watcher badge to view this.", "badges": [], "created_at": "2025-08-23T20:57:17.292-04:00", "updated_at": "2025-08-23T22:01:10.128-04:00", "avatar": "https://secure.gravatar.com/avatar/97df6eca255d45c4a139e81d0b82d9ed.jpg?s=512&d=https%3A%2F%2Fa.slack-edge.com%2Fdf10d%2Fimg%2Favatars%2Fava_0022-512.png", "custom_css": null}], "pagination": {"page": 1119, "pages": 1192, "count": 23828, "items": 20}}