{"users": [{"id": 2221, "slack_id": "U091H5RC7QT", "display_name": "James", "bio": null, "projects_count": 0, "devlogs_count": 0, "votes_count": 0, "ships_count": 0, "projects": [], "coding_time_seconds": 0, "coding_time_seconds_today": 0, "balance": "You need to have a pocket watcher badge to view this.", "badges": [], "created_at": "2025-06-16T15:02:39.730-04:00", "updated_at": "2025-07-03T19:21:16.454-04:00", "avatar": "https://secure.gravatar.com/avatar/d864806507180cea383c56794fbec853.jpg?s=512&d=https%3A%2F%2Fa.slack-edge.com%2Fdf10d%2Fimg%2Favatars%2Fava_0016-512.png", "custom_css": null}, {"id": 2222, "slack_id": "U0922LFC789", "display_name": "esileo", "bio": null, "projects_count": 0, "devlogs_count": 0, "votes_count": 0, "ships_count": 0, "projects": [], "coding_time_seconds": 21630, "coding_time_seconds_today": 0, "balance": "You need to have a pocket watcher badge to view this.", "badges": [], "created_at": "2025-06-16T15:02:42.207-04:00", "updated_at": "2025-07-03T19:21:16.719-04:00", "avatar": "https://secure.gravatar.com/avatar/d1713a34857bc0df65c1851b24fb0ff6.jpg?s=512&d=https%3A%2F%2Fa.slack-edge.com%2Fdf10d%2Fimg%2Favatars%2Fava_0021-512.png", "custom_css": null}, {"id": 2223, "slack_id": "U05B3QTK34Y", "display_name": "strifedeeno", "bio": null, "projects_count": 1, "devlogs_count": 1, "votes_count": 0, "ships_count": 0, "projects": [{"id": 2765, "title": "AI Digital Twin", "devlogs_count": 1, "created_at": "2025-06-22T02:22:48.782-04:00"}], "coding_time_seconds": 18139, "coding_time_seconds_today": 0, "balance": "You need to have a pocket watcher badge to view this.", "badges": [], "created_at": "2025-06-16T15:02:42.248-04:00", "updated_at": "2025-07-03T19:21:16.990-04:00", "avatar": "https://avatars.slack-edge.com/2023-06-01/5347568858183_dc4ed338b2ab583a5f2f_original.jpg", "custom_css": null}, {"id": 2224, "slack_id": "U091QEQTCEQ", "display_name": "Erick Giffoni", "bio": null, "projects_count": 0, "devlogs_count": 0, "votes_count": 0, "ships_count": 0, "projects": [], "coding_time_seconds": 0, "coding_time_seconds_today": 0, "balance": "You need to have a pocket watcher badge to view this.", "badges": [], "created_at": "2025-06-16T15:02:46.450-04:00", "updated_at": "2025-07-03T19:21:17.258-04:00", "avatar": "https://secure.gravatar.com/avatar/f9ab832a8c2147b982ffa00614d38c8d.jpg?s=512&d=https%3A%2F%2Fa.slack-edge.com%2Fdf10d%2Fimg%2Favatars%2Fava_0026-512.png", "custom_css": null}, {"id": 2225, "slack_id": "U0918Q931GF", "display_name": "youcef", "bio": null, "projects_count": 0, "devlogs_count": 0, "votes_count": 0, "ships_count": 0, "projects": [], "coding_time_seconds": 0, "coding_time_seconds_today": 0, "balance": "You need to have a pocket watcher badge to view this.", "badges": [], "created_at": "2025-06-16T15:02:49.478-04:00", "updated_at": "2025-07-03T19:21:17.597-04:00", "avatar": "https://secure.gravatar.com/avatar/25da4e0a9b6f95c7061737a917e0b40b.jpg?s=512&d=https%3A%2F%2Fa.slack-edge.com%2Fdf10d%2Fimg%2Favatars%2Fava_0014-512.png", "custom_css": null}, {"id": 2226, "slack_id": "U091H6FDZH9", "display_name": "Samuel", "bio": null, "projects_count": 0, "devlogs_count": 0, "votes_count": 0, "ships_count": 0, "projects": [], "coding_time_seconds": 224176, "coding_time_seconds_today": 0, "balance": "You need to have a pocket watcher badge to view this.", "badges": [], "created_at": "2025-06-16T15:03:08.525-04:00", "updated_at": "2025-07-03T19:21:17.872-04:00", "avatar": "https://secure.gravatar.com/avatar/91514ca239924d52eba717e80ba0a5ef.jpg?s=512&d=https%3A%2F%2Fa.slack-edge.com%2Fdf10d%2Fimg%2Favatars%2Fava_0009-512.png", "custom_css": null}, {"id": 2227, "slack_id": "U0918RBHWNT", "display_name": "Daksh", "bio": null, "projects_count": 0, "devlogs_count": 0, "votes_count": 0, "ships_count": 0, "projects": [], "coding_time_seconds": 0, "coding_time_seconds_today": 0, "balance": "You need to have a pocket watcher badge to view this.", "badges": [], "created_at": "2025-06-16T15:03:35.781-04:00", "updated_at": "2025-07-03T19:21:18.157-04:00", "avatar": "https://secure.gravatar.com/avatar/a95e57b1833f7c5157d7a9703eb37a63.jpg?s=512&d=https%3A%2F%2Fa.slack-edge.com%2Fdf10d%2Fimg%2Favatars%2Fava_0006-512.png", "custom_css": null}, {"id": 2228, "slack_id": "U091QGDGQ9J", "display_name": "Coco", "bio": null, "projects_count": 0, "devlogs_count": 0, "votes_count": 0, "ships_count": 0, "projects": [], "coding_time_seconds": 0, "coding_time_seconds_today": 0, "balance": "You need to have a pocket watcher badge to view this.", "badges": [], "created_at": "2025-06-16T15:03:59.282-04:00", "updated_at": "2025-07-03T19:21:18.434-04:00", "avatar": "https://secure.gravatar.com/avatar/f52e8ae932f983573b137ad62cc3a216.jpg?s=512&d=https%3A%2F%2Fa.slack-edge.com%2Fdf10d%2Fimg%2Favatars%2Fava_0001-512.png", "custom_css": null}, {"id": 2229, "slack_id": "U092CJLUYD6", "display_name": "Octave", "bio": null, "projects_count": 1, "devlogs_count": 1, "votes_count": 0, "ships_count": 1, "projects": [{"id": 7830, "title": "CuistoVoice", "devlogs_count": 1, "created_at": "2025-07-23T07:40:45.751-04:00"}], "coding_time_seconds": 262211, "coding_time_seconds_today": 0, "balance": "You need to have a pocket watcher badge to view this.", "badges": [{"name": "Maiden Voyage", "text": "you shipped your first project! the journey begins...", "icon": "\ud83d\udea2"}], "created_at": "2025-06-16T15:04:13.447-04:00", "updated_at": "2025-09-14T08:17:03.617-04:00", "avatar": "https://secure.gravatar.com/avatar/b9b69d65ca90e9d0e56919df233b3a8e.jpg?s=512&d=https%3A%2F%2Fa.slack-edge.com%2Fdf10d%2Fimg%2Favatars%2Fava_0001-512.png", "custom_css": null}, {"id": 2230, "slack_id": "U09228ZRE9X", "display_name": "Melodic", "bio": null, "projects_count": 2, "devlogs_count": 9, "votes_count": 2, "ships_count": 0, "projects": [{"id": 212, "title": "SSOQL", "devlogs_count": 6, "created_at": "2025-06-16T15:34:46.697-04:00"}, {"id": 1032, "title": "Personal Website", "devlogs_count": 3, "created_at": "2025-06-17T14:06:03.472-04:00"}], "coding_time_seconds": 30186, "coding_time_seconds_today": 0, "balance": "You need to have a pocket watcher badge to view this.", "badges": [], "created_at": "2025-06-16T15:04:14.952-04:00", "updated_at": "2025-08-14T14:31:52.879-04:00", "avatar": "https://avatars.slack-edge.com/2025-06-30/9113446513287_7ed56e0b06a779c3191a_original.jpg", "custom_css": null}, {"id": 2231, "slack_id": "U086DSM28UC", "display_name": "Shariq", "bio": null, "projects_count": 0, "devlogs_count": 16, "votes_count": 24, "ships_count": 0, "projects": [], "coding_time_seconds": 1141695, "coding_time_seconds_today": 0, "balance": "You need to have a pocket watcher badge to view this.", "badges": [{"name": "Maiden Voyage", "text": "you shipped your first project! the journey begins...", "icon": "\ud83d\udea2"}], "created_at": "2025-06-16T15:04:21.920-04:00", "updated_at": "2025-09-10T22:52:16.691-04:00", "avatar": "https://secure.gravatar.com/avatar/40ebb49669fa1ac42e84e247715f2d0e.jpg?s=512&d=https%3A%2F%2Fa.slack-edge.com%2Fdf10d%2Fimg%2Favatars%2Fava_0014-512.png", "custom_css": null}, {"id": 2232, "slack_id": "U04JG4J6BQD", "display_name": "andrea", "bio": null, "projects_count": 0, "devlogs_count": 0, "votes_count": 0, "ships_count": 0, "projects": [], "coding_time_seconds": 19458, "coding_time_seconds_today": 0, "balance": "You need to have a pocket watcher badge to view this.", "badges": [], "created_at": "2025-06-16T15:04:28.877-04:00", "updated_at": "2025-08-09T14:07:24.473-04:00", "avatar": "https://avatars.slack-edge.com/2025-08-09/9329249426581_0cbab4d18e88b864156c_original.png", "custom_css": null}, {"id": 2233, "slack_id": "U0922M75YJV", "display_name": "Yevhen", "bio": null, "projects_count": 0, "devlogs_count": 0, "votes_count": 0, "ships_count": 0, "projects": [], "coding_time_seconds": 27796, "coding_time_seconds_today": 0, "balance": "You need to have a pocket watcher badge to view this.", "badges": [], "created_at": "2025-06-16T15:04:50.516-04:00", "updated_at": "2025-07-03T19:21:19.774-04:00", "avatar": "https://secure.gravatar.com/avatar/f8a689c5ee0c8e0c8861d51d516622a2.jpg?s=512&d=https%3A%2F%2Fa.slack-edge.com%2Fdf10d%2Fimg%2Favatars%2Fava_0006-512.png", "custom_css": null}, {"id": 2234, "slack_id": "U091QGJC2FN", "display_name": "Nima", "bio": null, "projects_count": 0, "devlogs_count": 0, "votes_count": 0, "ships_count": 0, "projects": [], "coding_time_seconds": 0, "coding_time_seconds_today": 0, "balance": "You need to have a pocket watcher badge to view this.", "badges": [], "created_at": "2025-06-16T15:04:50.836-04:00", "updated_at": "2025-07-03T19:21:20.055-04:00", "avatar": "https://secure.gravatar.com/avatar/33d3403e1dc49a2fc6216af38d0c8d80.jpg?s=512&d=https%3A%2F%2Fa.slack-edge.com%2Fdf10d%2Fimg%2Favatars%2Fava_0024-512.png", "custom_css": null}, {"id": 2235, "slack_id": "U091QG3CN7N", "display_name": "Charli", "bio": null, "projects_count": 0, "devlogs_count": 0, "votes_count": 0, "ships_count": 0, "projects": [], "coding_time_seconds": 0, "coding_time_seconds_today": 0, "balance": "You need to have a pocket watcher badge to view this.", "badges": [], "created_at": "2025-06-16T15:04:50.951-04:00", "updated_at": "2025-07-03T19:21:20.328-04:00", "avatar": "https://secure.gravatar.com/avatar/2a66d591c97732f387d7706770339042.jpg?s=512&d=https%3A%2F%2Fa.slack-edge.com%2Fdf10d%2Fimg%2Favatars%2Fava_0015-512.png", "custom_css": null}, {"id": 2236, "slack_id": "U091H9XFU3Y", "display_name": "Dimitrios Spanakis", "bio": null, "projects_count": 0, "devlogs_count": 0, "votes_count": 0, "ships_count": 0, "projects": [], "coding_time_seconds": 0, "coding_time_seconds_today": 0, "balance": "You need to have a pocket watcher badge to view this.", "badges": [], "created_at": "2025-06-16T15:04:55.766-04:00", "updated_at": "2025-07-03T19:21:20.598-04:00", "avatar": "https://secure.gravatar.com/avatar/a619ab909b67198c9596e69bc091e4b1.jpg?s=512&d=https%3A%2F%2Fa.slack-edge.com%2Fdf10d%2Fimg%2Favatars%2Fava_0024-512.png", "custom_css": null}, {"id": 2237, "slack_id": "U091H9XP8VC", "display_name": "spk", "bio": null, "projects_count": 1, "devlogs_count": 0, "votes_count": 0, "ships_count": 0, "projects": [{"id": 11797, "title": "ARGENT LUNG (PROTOTYPE/DEMO?)", "devlogs_count": 0, "created_at": "2025-08-19T16:03:20.978-04:00"}], "coding_time_seconds": 36573, "coding_time_seconds_today": 0, "balance": "You need to have a pocket watcher badge to view this.", "badges": [], "created_at": "2025-06-16T15:05:02.268-04:00", "updated_at": "2025-08-19T16:17:26.990-04:00", "avatar": "https://secure.gravatar.com/avatar/a9bf76f2fbe3efdaf5d79a4726d04268.jpg?s=512&d=https%3A%2F%2Fa.slack-edge.com%2Fdf10d%2Fimg%2Favatars%2Fava_0006-512.png", "custom_css": null}, {"id": 2238, "slack_id": "U092CJMP08Y", "display_name": "anudeep", "bio": null, "projects_count": 1, "devlogs_count": 0, "votes_count": 0, "ships_count": 0, "projects": [{"id": 211, "title": "project-k", "devlogs_count": 0, "created_at": "2025-06-16T15:32:55.394-04:00"}], "coding_time_seconds": 181, "coding_time_seconds_today": 0, "balance": "You need to have a pocket watcher badge to view this.", "badges": [], "created_at": "2025-06-16T15:05:03.284-04:00", "updated_at": "2025-07-03T19:21:21.138-04:00", "avatar": "https://secure.gravatar.com/avatar/53442088428dcfa90f49bea6f0624008.jpg?s=512&d=https%3A%2F%2Fa.slack-edge.com%2Fdf10d%2Fimg%2Favatars%2Fava_0006-512.png", "custom_css": null}, {"id": 2239, "slack_id": "U092CGZQ6AC", "display_name": "Dharani Neelapuram", "bio": null, "projects_count": 0, "devlogs_count": 0, "votes_count": 0, "ships_count": 0, "projects": [], "coding_time_seconds": 0, "coding_time_seconds_today": 0, "balance": "You need to have a pocket watcher badge to view this.", "badges": [], "created_at": "2025-06-16T15:05:08.951-04:00", "updated_at": "2025-07-03T19:21:21.405-04:00", "avatar": "https://secure.gravatar.com/avatar/604fbaf834eb5959004415a956bac37e.jpg?s=512&d=https%3A%2F%2Fa.slack-edge.com%2Fdf10d%2Fimg%2Favatars%2Fava_0013-512.png", "custom_css": null}, {"id": 2240, "slack_id": "U092CJSNZNC", "display_name": "Rohan Mittal", "bio": null, "projects_count": 1, "devlogs_count": 3, "votes_count": 0, "ships_count": 0, "projects": [{"id": 4170, "title": "flying higher", "devlogs_count": 3, "created_at": "2025-06-28T01:46:25.040-04:00"}], "coding_time_seconds": 114401, "coding_time_seconds_today": 0, "balance": "You need to have a pocket watcher badge to view this.", "badges": [], "created_at": "2025-06-16T15:05:16.360-04:00", "updated_at": "2025-08-09T04:15:01.475-04:00", "avatar": "https://avatars.slack-edge.com/2025-06-16/9051247785731_f547b1fd0f5bf554c4e0_original.png", "custom_css": null}], "pagination": {"page": 112, "pages": 1192, "count": 23828, "items": 20}}