{"users": [{"id": 22466, "slack_id": "U09BQ8W748M", "display_name": "Canopii", "bio": null, "projects_count": 3, "devlogs_count": 2, "votes_count": 20, "ships_count": 1, "projects": [{"id": 12245, "title": "Daily-Destiny", "devlogs_count": 0, "created_at": "2025-08-24T19:44:08.387-04:00"}, {"id": 12450, "title": "To-Do-List", "devlogs_count": 1, "created_at": "2025-08-27T18:21:01.792-04:00"}, {"id": 12681, "title": "Personal Website", "devlogs_count": 1, "created_at": "2025-08-31T16:42:02.134-04:00"}], "coding_time_seconds": 22270, "coding_time_seconds_today": 0, "balance": "You need to have a pocket watcher badge to view this.", "badges": [], "created_at": "2025-08-23T21:48:28.949-04:00", "updated_at": "2025-08-24T04:00:49.831-04:00", "avatar": "https://secure.gravatar.com/avatar/04fb728884e322cef514f55d09f9fea7.jpg?s=512&d=https%3A%2F%2Fa.slack-edge.com%2Fdf10d%2Fimg%2Favatars%2Fava_0022-512.png", "custom_css": null}, {"id": 22467, "slack_id": "U09C5C9FED7", "display_name": "Lincoln Jolley", "bio": null, "projects_count": 0, "devlogs_count": 0, "votes_count": 0, "ships_count": 0, "projects": [], "coding_time_seconds": 3306, "coding_time_seconds_today": 0, "balance": "You need to have a pocket watcher badge to view this.", "badges": [], "created_at": "2025-08-23T21:51:35.857-04:00", "updated_at": "2025-08-24T04:00:53.994-04:00", "avatar": "https://secure.gravatar.com/avatar/270aa2b80b806f0aa39eeed7822b13d6.jpg?s=512&d=https%3A%2F%2Fa.slack-edge.com%2Fdf10d%2Fimg%2Favatars%2Fava_0001-512.png", "custom_css": null}, {"id": 22468, "slack_id": "U09BM27FASF", "display_name": "Sujal Gautam", "bio": null, "projects_count": 0, "devlogs_count": 0, "votes_count": 0, "ships_count": 0, "projects": [], "coding_time_seconds": 0, "coding_time_seconds_today": 0, "balance": "You need to have a pocket watcher badge to view this.", "badges": [], "created_at": "2025-08-23T22:46:45.935-04:00", "updated_at": "2025-08-28T10:03:53.645-04:00", "avatar": "https://secure.gravatar.com/avatar/63fe0a103308fe2ad072f524813347a4.jpg?s=512&d=https%3A%2F%2Fa.slack-edge.com%2Fdf10d%2Fimg%2Favatars%2Fava_0015-512.png", "custom_css": null}, {"id": 22469, "slack_id": "U09BCR3GAQP", "display_name": "Renan", "bio": null, "projects_count": 1, "devlogs_count": 1, "votes_count": 9, "ships_count": 0, "projects": [{"id": 12308, "title": "UltraCalculator", "devlogs_count": 1, "created_at": "2025-08-25T12:44:32.765-04:00"}], "coding_time_seconds": 104333, "coding_time_seconds_today": 0, "balance": "You need to have a pocket watcher badge to view this.", "badges": [], "created_at": "2025-08-23T22:56:37.480-04:00", "updated_at": "2025-08-24T08:31:20.169-04:00", "avatar": "https://secure.gravatar.com/avatar/f2902af04a9df9428756b2c89999c381.jpg?s=512&d=https%3A%2F%2Fa.slack-edge.com%2Fdf10d%2Fimg%2Favatars%2Fava_0016-512.png", "custom_css": null}, {"id": 22470, "slack_id": "U09BTMHH84E", "display_name": "Sushant Gaire", "bio": null, "projects_count": 0, "devlogs_count": 0, "votes_count": 0, "ships_count": 0, "projects": [], "coding_time_seconds": 0, "coding_time_seconds_today": 0, "balance": "You need to have a pocket watcher badge to view this.", "badges": [], "created_at": "2025-08-23T23:22:58.683-04:00", "updated_at": "2025-08-24T04:00:56.362-04:00", "avatar": "https://secure.gravatar.com/avatar/750a222fd0e40acecc7cfcd8196bc031.jpg?s=512&d=https%3A%2F%2Fa.slack-edge.com%2Fdf10d%2Fimg%2Favatars%2Fava_0007-512.png", "custom_css": null}, {"id": 22471, "slack_id": "U09BTMXAF70", "display_name": "Aston", "bio": null, "projects_count": 0, "devlogs_count": 0, "votes_count": 0, "ships_count": 0, "projects": [], "coding_time_seconds": 0, "coding_time_seconds_today": 0, "balance": "You need to have a pocket watcher badge to view this.", "badges": [], "created_at": "2025-08-23T23:23:03.051-04:00", "updated_at": "2025-08-24T04:00:56.461-04:00", "avatar": "https://secure.gravatar.com/avatar/58967c2444d65639058a62b1c5a956bf.jpg?s=512&d=https%3A%2F%2Fa.slack-edge.com%2Fdf10d%2Fimg%2Favatars%2Fava_0026-512.png", "custom_css": null}, {"id": 22472, "slack_id": "U09CKNBPU6L", "display_name": "Benjamin Frankson (God's Witness)", "bio": null, "projects_count": 0, "devlogs_count": 0, "votes_count": 0, "ships_count": 0, "projects": [], "coding_time_seconds": 0, "coding_time_seconds_today": 0, "balance": "You need to have a pocket watcher badge to view this.", "badges": [], "created_at": "2025-08-23T23:34:27.733-04:00", "updated_at": "2025-08-24T04:00:56.575-04:00", "avatar": "https://avatars.slack-edge.com/2025-08-23/9403703525988_0fd3a5998dbe42406b2c_original.png", "custom_css": null}, {"id": 22473, "slack_id": "U09CKNJRQRE", "display_name": "Sushant Gaire", "bio": null, "projects_count": 0, "devlogs_count": 0, "votes_count": 0, "ships_count": 0, "projects": [], "coding_time_seconds": 0, "coding_time_seconds_today": 0, "balance": "You need to have a pocket watcher badge to view this.", "badges": [], "created_at": "2025-08-23T23:39:35.153-04:00", "updated_at": "2025-08-24T04:00:56.665-04:00", "avatar": "https://avatars.slack-edge.com/2025-08-23/9427773400896_cadeb6633cd592bce0d1_original.png", "custom_css": null}, {"id": 22474, "slack_id": "U09BM4NCD27", "display_name": "Eyal Zwigenbom", "bio": null, "projects_count": 1, "devlogs_count": 0, "votes_count": 0, "ships_count": 0, "projects": [{"id": 12176, "title": "My Awsome Project", "devlogs_count": 0, "created_at": "2025-08-24T01:55:13.348-04:00"}], "coding_time_seconds": 106983, "coding_time_seconds_today": 6054, "balance": "You need to have a pocket watcher badge to view this.", "badges": [], "created_at": "2025-08-23T23:53:10.283-04:00", "updated_at": "2025-08-24T04:00:56.796-04:00", "avatar": "https://secure.gravatar.com/avatar/e7b4b6fe5c95021a3065374d2c9459c6.jpg?s=512&d=https%3A%2F%2Fa.slack-edge.com%2Fdf10d%2Fimg%2Favatars%2Fava_0010-512.png", "custom_css": null}, {"id": 22475, "slack_id": "U09C5JT02M7", "display_name": "Clark-cn", "bio": null, "projects_count": 6, "devlogs_count": 40, "votes_count": 63, "ships_count": 3, "projects": [{"id": 13018, "title": "easy-ksp", "devlogs_count": 1, "created_at": "2025-09-07T01:23:05.923-04:00"}, {"id": 13421, "title": "Pawsome-Adventure", "devlogs_count": 1, "created_at": "2025-09-16T01:02:44.204-04:00"}, {"id": 13019, "title": "Hollow-Katana", "devlogs_count": 6, "created_at": "2025-09-07T01:30:04.461-04:00"}, {"id": 12965, "title": "Plant-Tournament", "devlogs_count": 20, "created_at": "2025-09-06T08:47:06.209-04:00"}, {"id": 13745, "title": "Tapa Tapa Legend", "devlogs_count": 1, "created_at": "2025-09-24T13:53:56.711-04:00"}, {"id": 13405, "title": "chicken-killer", "devlogs_count": 4, "created_at": "2025-09-15T13:20:09.399-04:00"}], "coding_time_seconds": 596674, "coding_time_seconds_today": 7425, "balance": "You need to have a pocket watcher badge to view this.", "badges": [], "created_at": "2025-08-24T00:33:59.422-04:00", "updated_at": "2025-09-13T08:33:08.308-04:00", "avatar": "https://secure.gravatar.com/avatar/b6d3034f91b403a604b2bb96eecb121e.jpg?s=512&d=https%3A%2F%2Fa.slack-edge.com%2Fdf10d%2Fimg%2Favatars%2Fava_0021-512.png", "custom_css": null}, {"id": 22476, "slack_id": "U09BRRC2S66", "display_name": "William Barnett", "bio": null, "projects_count": 0, "devlogs_count": 0, "votes_count": 0, "ships_count": 0, "projects": [], "coding_time_seconds": 0, "coding_time_seconds_today": 0, "balance": "You need to have a pocket watcher badge to view this.", "badges": [], "created_at": "2025-08-24T00:43:20.040-04:00", "updated_at": "2025-08-24T04:00:57.066-04:00", "avatar": "https://secure.gravatar.com/avatar/1d207ea501ffc723aa38ed8760ff91b7.jpg?s=512&d=https%3A%2F%2Fa.slack-edge.com%2Fdf10d%2Fimg%2Favatars%2Fava_0007-512.png", "custom_css": null}, {"id": 22477, "slack_id": "U09BD0JHV55", "display_name": "Sidharth", "bio": null, "projects_count": 0, "devlogs_count": 0, "votes_count": 0, "ships_count": 0, "projects": [], "coding_time_seconds": 0, "coding_time_seconds_today": 0, "balance": "You need to have a pocket watcher badge to view this.", "badges": [], "created_at": "2025-08-24T01:17:12.489-04:00", "updated_at": "2025-08-24T10:01:31.855-04:00", "avatar": "https://avatars.slack-edge.com/2025-08-24/9402214479078_46d2b57579cadafaae64_original.png", "custom_css": null}, {"id": 22478, "slack_id": "U080TMMQKAL", "display_name": "Natsumi", "bio": null, "projects_count": 0, "devlogs_count": 0, "votes_count": 0, "ships_count": 0, "projects": [], "coding_time_seconds": 0, "coding_time_seconds_today": 0, "balance": "You need to have a pocket watcher badge to view this.", "badges": [], "created_at": "2025-08-24T01:43:00.925-04:00", "updated_at": "2025-08-24T04:00:57.278-04:00", "avatar": "https://avatars.slack-edge.com/2024-11-08/7998790834566_146ec3be801962ab82fc_original.jpg", "custom_css": null}, {"id": 22479, "slack_id": "U09BM97MRRR", "display_name": "Sushant Bhandari", "bio": null, "projects_count": 0, "devlogs_count": 0, "votes_count": 0, "ships_count": 0, "projects": [], "coding_time_seconds": 0, "coding_time_seconds_today": 0, "balance": "You need to have a pocket watcher badge to view this.", "badges": [], "created_at": "2025-08-24T01:58:48.091-04:00", "updated_at": "2025-08-24T04:01:01.576-04:00", "avatar": "https://secure.gravatar.com/avatar/ddd8c40655468ddb7923c8f79073dc53.jpg?s=512&d=https%3A%2F%2Fa.slack-edge.com%2Fdf10d%2Fimg%2Favatars%2Fava_0021-512.png", "custom_css": null}, {"id": 22480, "slack_id": "U09BM9848SF", "display_name": "Mousa Naeem", "bio": null, "projects_count": 0, "devlogs_count": 0, "votes_count": 0, "ships_count": 0, "projects": [], "coding_time_seconds": 0, "coding_time_seconds_today": 0, "balance": "You need to have a pocket watcher badge to view this.", "badges": [], "created_at": "2025-08-24T01:59:57.725-04:00", "updated_at": "2025-08-24T04:01:01.848-04:00", "avatar": "https://secure.gravatar.com/avatar/c2d76ba7095f171e58b97da2718d349d.jpg?s=512&d=https%3A%2F%2Fa.slack-edge.com%2Fdf10d%2Fimg%2Favatars%2Fava_0017-512.png", "custom_css": null}, {"id": 22481, "slack_id": "U09BD3BQE3H", "display_name": "cousdev", "bio": null, "projects_count": 0, "devlogs_count": 0, "votes_count": 0, "ships_count": 0, "projects": [], "coding_time_seconds": 0, "coding_time_seconds_today": 0, "balance": "You need to have a pocket watcher badge to view this.", "badges": [], "created_at": "2025-08-24T02:27:37.591-04:00", "updated_at": "2025-08-24T04:01:01.971-04:00", "avatar": "https://secure.gravatar.com/avatar/fabc1d9bcfc693e00ca25a9f96e0f282.jpg?s=512&d=https%3A%2F%2Fa.slack-edge.com%2Fdf10d%2Fimg%2Favatars%2Fava_0004-512.png", "custom_css": null}, {"id": 22482, "slack_id": "U09C5PPHUJD", "display_name": "Neyrux", "bio": null, "projects_count": 0, "devlogs_count": 0, "votes_count": 0, "ships_count": 0, "projects": [], "coding_time_seconds": 0, "coding_time_seconds_today": 0, "balance": "You need to have a pocket watcher badge to view this.", "badges": [], "created_at": "2025-08-24T02:38:09.797-04:00", "updated_at": "2025-08-24T04:45:00.869-04:00", "avatar": "https://secure.gravatar.com/avatar/960a677f1fd3241e1b70d87fcf0e7622.jpg?s=512&d=https%3A%2F%2Fa.slack-edge.com%2Fdf10d%2Fimg%2Favatars%2Fava_0016-512.png", "custom_css": null}, {"id": 22483, "slack_id": "U09BU003WKY", "display_name": "MD ZISHAN", "bio": null, "projects_count": 0, "devlogs_count": 0, "votes_count": 0, "ships_count": 0, "projects": [], "coding_time_seconds": 0, "coding_time_seconds_today": 0, "balance": "You need to have a pocket watcher badge to view this.", "badges": [], "created_at": "2025-08-24T02:45:14.256-04:00", "updated_at": "2025-08-24T07:27:01.015-04:00", "avatar": "https://secure.gravatar.com/avatar/23835b30d80d5c8b371e4e8c0c6bcbff.jpg?s=512&d=https%3A%2F%2Fa.slack-edge.com%2Fdf10d%2Fimg%2Favatars%2Fava_0000-512.png", "custom_css": null}, {"id": 22484, "slack_id": "U09BU0KN8UW", "display_name": "Muin Momin", "bio": null, "projects_count": 3, "devlogs_count": 4, "votes_count": 20, "ships_count": 1, "projects": [{"id": 12298, "title": "Something simple", "devlogs_count": 3, "created_at": "2025-08-25T11:15:13.173-04:00"}, {"id": 12491, "title": "Squid", "devlogs_count": 1, "created_at": "2025-08-28T10:24:47.320-04:00"}, {"id": 13544, "title": "Yime", "devlogs_count": 0, "created_at": "2025-09-19T02:00:03.405-04:00"}], "coding_time_seconds": 57841, "coding_time_seconds_today": 0, "balance": "You need to have a pocket watcher badge to view this.", "badges": [], "created_at": "2025-08-24T03:02:48.815-04:00", "updated_at": "2025-08-24T06:30:01.905-04:00", "avatar": "https://avatars.slack-edge.com/2025-08-24/9413849178097_4783de9b65918716cdab_original.png", "custom_css": null}, {"id": 22485, "slack_id": "U09BRMT4SBU", "display_name": "Aayush kc", "bio": null, "projects_count": 0, "devlogs_count": 0, "votes_count": 0, "ships_count": 0, "projects": [], "coding_time_seconds": 0, "coding_time_seconds_today": 0, "balance": "You need to have a pocket watcher badge to view this.", "badges": [], "created_at": "2025-08-24T03:55:05.518-04:00", "updated_at": "2025-08-24T10:01:33.160-04:00", "avatar": "https://secure.gravatar.com/avatar/89efa116d17325ae489f94395b1a2318.jpg?s=512&d=https%3A%2F%2Fa.slack-edge.com%2Fdf10d%2Fimg%2Favatars%2Fava_0024-512.png", "custom_css": null}], "pagination": {"page": 1120, "pages": 1192, "count": 23828, "items": 20}}