{"users": [{"id": 22486, "slack_id": "U09BD85159V", "display_name": "curious", "bio": null, "projects_count": 0, "devlogs_count": 0, "votes_count": 0, "ships_count": 0, "projects": [], "coding_time_seconds": 0, "coding_time_seconds_today": 0, "balance": "You need to have a pocket watcher badge to view this.", "badges": [], "created_at": "2025-08-24T04:31:37.050-04:00", "updated_at": "2025-08-26T17:15:10.000-04:00", "avatar": "https://secure.gravatar.com/avatar/eae4a44343e950b101d92f19f4e1a95e.jpg?s=512&d=https%3A%2F%2Fa.slack-edge.com%2Fdf10d%2Fimg%2Favatars%2Fava_0023-512.png", "custom_css": null}, {"id": 22487, "slack_id": "U09BW66NBM2", "display_name": "Muhammad umar", "bio": null, "projects_count": 0, "devlogs_count": 0, "votes_count": 0, "ships_count": 0, "projects": [], "coding_time_seconds": 0, "coding_time_seconds_today": 0, "balance": "You need to have a pocket watcher badge to view this.", "badges": [], "created_at": "2025-08-24T06:01:23.366-04:00", "updated_at": "2025-09-02T10:17:42.694-04:00", "avatar": "https://secure.gravatar.com/avatar/b3ff353316685ffa23d7ec4269379407.jpg?s=512&d=https%3A%2F%2Fa.slack-edge.com%2Fdf10d%2Fimg%2Favatars%2Fava_0017-512.png", "custom_css": null}, {"id": 22488, "slack_id": "U09BDD4TJMD", "display_name": "Ubaid Attiq", "bio": null, "projects_count": 0, "devlogs_count": 0, "votes_count": 0, "ships_count": 0, "projects": [], "coding_time_seconds": 0, "coding_time_seconds_today": 0, "balance": "You need to have a pocket watcher badge to view this.", "badges": [], "created_at": "2025-08-24T06:37:36.855-04:00", "updated_at": "2025-08-24T10:01:33.604-04:00", "avatar": "https://secure.gravatar.com/avatar/029f22337927dd070480a24b79a6055b.jpg?s=512&d=https%3A%2F%2Fa.slack-edge.com%2Fdf10d%2Fimg%2Favatars%2Fava_0016-512.png", "custom_css": null}, {"id": 22489, "slack_id": "U09C64FC7B3", "display_name": "Muhammad Shayan", "bio": null, "projects_count": 2, "devlogs_count": 2, "votes_count": 20, "ships_count": 1, "projects": [{"id": 13629, "title": "Learning Website", "devlogs_count": 1, "created_at": "2025-09-21T11:30:00.007-04:00"}, {"id": 12953, "title": "Game - Jungle Rush", "devlogs_count": 1, "created_at": "2025-09-06T05:19:25.128-04:00"}], "coding_time_seconds": 21005, "coding_time_seconds_today": 0, "balance": "You need to have a pocket watcher badge to view this.", "badges": [], "created_at": "2025-08-24T06:45:23.675-04:00", "updated_at": "2025-08-24T15:12:17.787-04:00", "avatar": "https://secure.gravatar.com/avatar/2d30855dc725d30d003ddfd0bf181c89.jpg?s=512&d=https%3A%2F%2Fa.slack-edge.com%2Fdf10d%2Fimg%2Favatars%2Fava_0009-512.png", "custom_css": null}, {"id": 22490, "slack_id": "U098154UDUH", "display_name": "Hari Dev", "bio": null, "projects_count": 1, "devlogs_count": 0, "votes_count": 2, "ships_count": 0, "projects": [{"id": 12194, "title": "Boxes Simulation", "devlogs_count": 0, "created_at": "2025-08-24T08:09:03.034-04:00"}], "coding_time_seconds": 11594, "coding_time_seconds_today": 0, "balance": "You need to have a pocket watcher badge to view this.", "badges": [], "created_at": "2025-08-24T07:27:11.670-04:00", "updated_at": "2025-08-25T00:12:36.154-04:00", "avatar": "https://secure.gravatar.com/avatar/112baeea260e197710a4cda52322a2ca.jpg?s=512&d=https%3A%2F%2Fa.slack-edge.com%2Fdf10d%2Fimg%2Favatars%2Fava_0017-512.png", "custom_css": null}, {"id": 22491, "slack_id": "U09BDF8VA6B", "display_name": "Md Azharuddin", "bio": null, "projects_count": 0, "devlogs_count": 0, "votes_count": 0, "ships_count": 0, "projects": [], "coding_time_seconds": 0, "coding_time_seconds_today": 0, "balance": "You need to have a pocket watcher badge to view this.", "badges": [], "created_at": "2025-08-24T07:32:32.018-04:00", "updated_at": "2025-08-24T10:01:34.560-04:00", "avatar": "https://secure.gravatar.com/avatar/615a3eb1331c98b377706f11501dc477.jpg?s=512&d=https%3A%2F%2Fa.slack-edge.com%2Fdf10d%2Fimg%2Favatars%2Fava_0023-512.png", "custom_css": null}, {"id": 22492, "slack_id": "U09BWBV19K6", "display_name": "BRIGHT INFO TECH", "bio": null, "projects_count": 0, "devlogs_count": 0, "votes_count": 0, "ships_count": 0, "projects": [], "coding_time_seconds": 0, "coding_time_seconds_today": 0, "balance": "You need to have a pocket watcher badge to view this.", "badges": [], "created_at": "2025-08-24T08:21:50.858-04:00", "updated_at": "2025-08-24T10:01:34.666-04:00", "avatar": "https://avatars.slack-edge.com/2025-08-24/9399038379845_aee1bf17cc353722c76f_original.png", "custom_css": null}, {"id": 22493, "slack_id": "U09BSEF6T3L", "display_name": "BrunoGC13", "bio": null, "projects_count": 5, "devlogs_count": 9, "votes_count": 7, "ships_count": 1, "projects": [{"id": 12216, "title": "Nexa", "devlogs_count": 3, "created_at": "2025-08-24T12:46:50.919-04:00"}, {"id": 12442, "title": "How to center a div", "devlogs_count": 2, "created_at": "2025-08-27T13:01:44.180-04:00"}, {"id": 12779, "title": "Saldo", "devlogs_count": 4, "created_at": "2025-09-02T11:15:23.909-04:00"}, {"id": 13104, "title": "GitCommiter", "devlogs_count": 0, "created_at": "2025-09-08T16:30:29.884-04:00"}, {"id": 13207, "title": "SafeScan", "devlogs_count": 0, "created_at": "2025-09-11T16:22:20.010-04:00"}], "coding_time_seconds": 115697, "coding_time_seconds_today": 1127, "balance": "You need to have a pocket watcher badge to view this.", "badges": [], "created_at": "2025-08-24T08:37:06.779-04:00", "updated_at": "2025-09-11T16:21:17.745-04:00", "avatar": "https://secure.gravatar.com/avatar/71f67c970e4b9a6cdc6978d24cc54b5b.jpg?s=512&d=https%3A%2F%2Fa.slack-edge.com%2Fdf10d%2Fimg%2Favatars%2Fava_0002-512.png", "custom_css": null}, {"id": 22494, "slack_id": "U085SSU1EMT", "display_name": "Cl4r1ty", "bio": "", "projects_count": 1, "devlogs_count": 0, "votes_count": 0, "ships_count": 0, "projects": [{"id": 13392, "title": "Lispy", "devlogs_count": 0, "created_at": "2025-09-15T07:00:38.625-04:00"}], "coding_time_seconds": 248, "coding_time_seconds_today": 0, "balance": "You need to have a pocket watcher badge to view this.", "badges": [], "created_at": "2025-08-24T08:44:30.403-04:00", "updated_at": "2025-09-15T06:46:14.272-04:00", "avatar": "https://avatars.slack-edge.com/2025-08-25/9397339976419_89148499e5debab574dc_original.png", "custom_css": null}, {"id": 22495, "slack_id": "U09C69MDQAD", "display_name": "vinoca", "bio": null, "projects_count": 0, "devlogs_count": 0, "votes_count": 0, "ships_count": 0, "projects": [], "coding_time_seconds": 0, "coding_time_seconds_today": 0, "balance": "You need to have a pocket watcher badge to view this.", "badges": [], "created_at": "2025-08-24T08:54:31.557-04:00", "updated_at": "2025-08-24T12:32:30.597-04:00", "avatar": "https://secure.gravatar.com/avatar/7e52e6def2b54eaa04c920aff7dfe2de.jpg?s=512&d=https%3A%2F%2Fa.slack-edge.com%2Fdf10d%2Fimg%2Favatars%2Fava_0009-512.png", "custom_css": null}, {"id": 22496, "slack_id": "U07D8G53E21", "display_name": "Pal patel", "bio": null, "projects_count": 0, "devlogs_count": 0, "votes_count": 0, "ships_count": 0, "projects": [], "coding_time_seconds": 0, "coding_time_seconds_today": 0, "balance": "You need to have a pocket watcher badge to view this.", "badges": [], "created_at": "2025-08-24T09:42:11.026-04:00", "updated_at": "2025-08-24T09:43:07.776-04:00", "avatar": "https://avatars.slack-edge.com/2024-07-20/7453449811538_3b032974bce5c40670df_original.jpg", "custom_css": null}, {"id": 22497, "slack_id": "U09BWH7S70C", "display_name": "KingG08", "bio": null, "projects_count": 0, "devlogs_count": 0, "votes_count": 0, "ships_count": 0, "projects": [], "coding_time_seconds": 240, "coding_time_seconds_today": 0, "balance": "You need to have a pocket watcher badge to view this.", "badges": [], "created_at": "2025-08-24T10:25:12.681-04:00", "updated_at": "2025-09-15T18:17:16.835-04:00", "avatar": "https://secure.gravatar.com/avatar/f5e1ce3e19ccd7e8c784674e77b733d7.jpg?s=512&d=https%3A%2F%2Fa.slack-edge.com%2Fdf10d%2Fimg%2Favatars%2Fava_0012-512.png", "custom_css": null}, {"id": 22498, "slack_id": "U09BUK89DCN", "display_name": "Archisman Pal", "bio": null, "projects_count": 2, "devlogs_count": 1, "votes_count": 1, "ships_count": 0, "projects": [{"id": 12208, "title": "Codigo", "devlogs_count": 0, "created_at": "2025-08-24T11:31:46.354-04:00"}, {"id": 12289, "title": "ChainTorque", "devlogs_count": 1, "created_at": "2025-08-25T09:48:46.498-04:00"}], "coding_time_seconds": 55852, "coding_time_seconds_today": 0, "balance": "You need to have a pocket watcher badge to view this.", "badges": [], "created_at": "2025-08-24T10:28:25.817-04:00", "updated_at": "2025-08-25T10:51:06.761-04:00", "avatar": "https://secure.gravatar.com/avatar/4dc1cc7058d3c701bca26cd37a4f4aa0.jpg?s=512&d=https%3A%2F%2Fa.slack-edge.com%2Fdf10d%2Fimg%2Favatars%2Fava_0020-512.png", "custom_css": null}, {"id": 22499, "slack_id": "U09CLNE101E", "display_name": "Alex Shen", "bio": null, "projects_count": 0, "devlogs_count": 0, "votes_count": 0, "ships_count": 0, "projects": [], "coding_time_seconds": 0, "coding_time_seconds_today": 0, "balance": "You need to have a pocket watcher badge to view this.", "badges": [], "created_at": "2025-08-24T10:48:33.169-04:00", "updated_at": "2025-08-24T15:59:31.583-04:00", "avatar": "https://secure.gravatar.com/avatar/59deb1fe5e845cbdedf6821589072d4d.jpg?s=512&d=https%3A%2F%2Fa.slack-edge.com%2Fdf10d%2Fimg%2Favatars%2Fava_0001-512.png", "custom_css": null}, {"id": 22500, "slack_id": "U09BDPPPZ7H", "display_name": "\u99ac\u5b8f\u9298\u81fa\u4e2d\u4e00\u4e2d", "bio": null, "projects_count": 0, "devlogs_count": 0, "votes_count": 0, "ships_count": 0, "projects": [], "coding_time_seconds": 0, "coding_time_seconds_today": 0, "balance": "You need to have a pocket watcher badge to view this.", "badges": [], "created_at": "2025-08-24T10:57:15.859-04:00", "updated_at": "2025-08-24T15:59:31.696-04:00", "avatar": "https://avatars.slack-edge.com/2025-08-24/9402710387350_6364ead8a53d68ff4f7e_original.webp", "custom_css": null}, {"id": 22501, "slack_id": "U09BSLY0L74", "display_name": "Arafin", "bio": null, "projects_count": 2, "devlogs_count": 16, "votes_count": 41, "ships_count": 1, "projects": [{"id": 12374, "title": "OceanVR", "devlogs_count": 9, "created_at": "2025-08-26T11:39:46.050-04:00"}, {"id": 12579, "title": "TimeScape \u2014 Journey Through Cosmic Time", "devlogs_count": 7, "created_at": "2025-08-30T04:09:03.410-04:00"}], "coding_time_seconds": 74160, "coding_time_seconds_today": 0, "balance": "You need to have a pocket watcher badge to view this.", "badges": [], "created_at": "2025-08-24T11:12:29.505-04:00", "updated_at": "2025-08-27T09:46:15.992-04:00", "avatar": "https://secure.gravatar.com/avatar/33c6c5eef609e9129f6d7c56854bfcef.jpg?s=512&d=https%3A%2F%2Fa.slack-edge.com%2Fdf10d%2Fimg%2Favatars%2Fava_0019-512.png", "custom_css": null}, {"id": 22502, "slack_id": "U09CLQCM5UG", "display_name": "Happy Singh", "bio": null, "projects_count": 0, "devlogs_count": 0, "votes_count": 0, "ships_count": 0, "projects": [], "coding_time_seconds": 0, "coding_time_seconds_today": 0, "balance": "You need to have a pocket watcher badge to view this.", "badges": [], "created_at": "2025-08-24T11:35:15.171-04:00", "updated_at": "2025-08-24T15:59:32.181-04:00", "avatar": "https://secure.gravatar.com/avatar/3842cabd550feb821a809f4fa2777b39.jpg?s=512&d=https%3A%2F%2Fa.slack-edge.com%2Fdf10d%2Fimg%2Favatars%2Fava_0013-512.png", "custom_css": null}, {"id": 22503, "slack_id": "U09BDS2L57Z", "display_name": "Darius Preduca", "bio": null, "projects_count": 0, "devlogs_count": 0, "votes_count": 0, "ships_count": 0, "projects": [], "coding_time_seconds": 452, "coding_time_seconds_today": 0, "balance": "You need to have a pocket watcher badge to view this.", "badges": [], "created_at": "2025-08-24T11:51:58.035-04:00", "updated_at": "2025-08-24T15:59:32.315-04:00", "avatar": "https://avatars.slack-edge.com/2025-08-24/9399314674133_171f7207b39b6b788bfd_original.jpg", "custom_css": null}, {"id": 22504, "slack_id": "U09CJ1A1BK2", "display_name": "zzz123", "bio": null, "projects_count": 0, "devlogs_count": 0, "votes_count": 0, "ships_count": 0, "projects": [], "coding_time_seconds": 40372, "coding_time_seconds_today": 0, "balance": "You need to have a pocket watcher badge to view this.", "badges": [], "created_at": "2025-08-24T11:56:46.374-04:00", "updated_at": "2025-08-24T15:59:32.452-04:00", "avatar": "https://secure.gravatar.com/avatar/680ccbc1e356242562362f23db38354d.jpg?s=512&d=https%3A%2F%2Fa.slack-edge.com%2Fdf10d%2Fimg%2Favatars%2Fava_0018-512.png", "custom_css": null}, {"id": 22505, "slack_id": "U09BRAQAW69", "display_name": "Thiva", "bio": null, "projects_count": 0, "devlogs_count": 0, "votes_count": 0, "ships_count": 0, "projects": [], "coding_time_seconds": 13449, "coding_time_seconds_today": 2100, "balance": "You need to have a pocket watcher badge to view this.", "badges": [], "created_at": "2025-08-24T12:34:45.741-04:00", "updated_at": "2025-08-24T15:59:32.589-04:00", "avatar": "https://avatars.slack-edge.com/2025-08-24/9396231675459_b49985b939e5b2f6fec0_original.jpg", "custom_css": null}], "pagination": {"page": 1121, "pages": 1192, "count": 23828, "items": 20}}