{"users": [{"id": 22506, "slack_id": "U09BSQL7Q10", "display_name": "Shaun Mathew", "bio": null, "projects_count": 1, "devlogs_count": 0, "votes_count": 0, "ships_count": 0, "projects": [{"id": 12217, "title": "SoulHunter", "devlogs_count": 0, "created_at": "2025-08-24T12:47:59.676-04:00"}], "coding_time_seconds": 53565, "coding_time_seconds_today": 0, "balance": "You need to have a pocket watcher badge to view this.", "badges": [], "created_at": "2025-08-24T12:38:15.569-04:00", "updated_at": "2025-08-24T15:59:32.699-04:00", "avatar": "https://avatars.slack-edge.com/2025-08-24/9396236516227_5448d12ee7eb04134060_original.png", "custom_css": null}, {"id": 22507, "slack_id": "U09C6LPD3PB", "display_name": "rahul_sah1818", "bio": null, "projects_count": 0, "devlogs_count": 0, "votes_count": 0, "ships_count": 0, "projects": [], "coding_time_seconds": 0, "coding_time_seconds_today": 0, "balance": "You need to have a pocket watcher badge to view this.", "badges": [], "created_at": "2025-08-24T12:58:56.837-04:00", "updated_at": "2025-08-24T15:59:32.814-04:00", "avatar": "https://secure.gravatar.com/avatar/a5813bea1b50164c46e2d9a10b2412f6.jpg?s=512&d=https%3A%2F%2Fa.slack-edge.com%2Fdf10d%2Fimg%2Favatars%2Fava_0023-512.png", "custom_css": null}, {"id": 22508, "slack_id": "U09CLUJK95E", "display_name": "Bijay Rouniyar", "bio": null, "projects_count": 0, "devlogs_count": 0, "votes_count": 0, "ships_count": 0, "projects": [], "coding_time_seconds": 40596, "coding_time_seconds_today": 1809, "balance": "You need to have a pocket watcher badge to view this.", "badges": [], "created_at": "2025-08-24T13:01:06.812-04:00", "updated_at": "2025-08-24T15:59:32.947-04:00", "avatar": "https://secure.gravatar.com/avatar/23a1cae8ac2a557989ca52e39140891b.jpg?s=512&d=https%3A%2F%2Fa.slack-edge.com%2Fdf10d%2Fimg%2Favatars%2Fava_0002-512.png", "custom_css": null}, {"id": 22509, "slack_id": "U09C6MCUA2V", "display_name": "bree", "bio": null, "projects_count": 0, "devlogs_count": 0, "votes_count": 0, "ships_count": 0, "projects": [], "coding_time_seconds": 0, "coding_time_seconds_today": 0, "balance": "You need to have a pocket watcher badge to view this.", "badges": [], "created_at": "2025-08-24T13:13:45.353-04:00", "updated_at": "2025-08-24T15:59:33.060-04:00", "avatar": "https://secure.gravatar.com/avatar/97f9c26df518f5246c2054d9406b366c.jpg?s=512&d=https%3A%2F%2Fa.slack-edge.com%2Fdf10d%2Fimg%2Favatars%2Fava_0006-512.png", "custom_css": null}, {"id": 22510, "slack_id": "U09BN9V2KGT", "display_name": "Pragya Agarwal", "bio": null, "projects_count": 0, "devlogs_count": 0, "votes_count": 0, "ships_count": 0, "projects": [], "coding_time_seconds": 0, "coding_time_seconds_today": 0, "balance": "You need to have a pocket watcher badge to view this.", "badges": [], "created_at": "2025-08-24T13:52:34.467-04:00", "updated_at": "2025-08-24T15:59:33.173-04:00", "avatar": "https://avatars.slack-edge.com/2025-08-24/9402971309718_677dbcf2ec4d2cbc8a82_original.png", "custom_css": null}, {"id": 22511, "slack_id": "U09C6QFMFEV", "display_name": "Badal Chaudhary", "bio": null, "projects_count": 0, "devlogs_count": 0, "votes_count": 0, "ships_count": 0, "projects": [], "coding_time_seconds": 0, "coding_time_seconds_today": 0, "balance": "You need to have a pocket watcher badge to view this.", "badges": [], "created_at": "2025-08-24T14:28:36.140-04:00", "updated_at": "2025-08-24T15:59:33.294-04:00", "avatar": "https://secure.gravatar.com/avatar/796f7d8bc3e031ac81a02bd315f0585d.jpg?s=512&d=https%3A%2F%2Fa.slack-edge.com%2Fdf10d%2Fimg%2Favatars%2Fava_0019-512.png", "custom_css": null}, {"id": 22512, "slack_id": "U09BV1H9YJJ", "display_name": "Gobert Sama\u00ebl", "bio": null, "projects_count": 0, "devlogs_count": 0, "votes_count": 0, "ships_count": 0, "projects": [], "coding_time_seconds": 223, "coding_time_seconds_today": 0, "balance": "You need to have a pocket watcher badge to view this.", "badges": [], "created_at": "2025-08-24T14:53:29.898-04:00", "updated_at": "2025-08-24T15:59:33.449-04:00", "avatar": "https://secure.gravatar.com/avatar/1aa4801eb905aa8bb42486ee8d14f09c.jpg?s=512&d=https%3A%2F%2Fa.slack-edge.com%2Fdf10d%2Fimg%2Favatars%2Fava_0023-512.png", "custom_css": null}, {"id": 22513, "slack_id": "U09BE4THSQP", "display_name": "Adil Rahimov", "bio": null, "projects_count": 0, "devlogs_count": 0, "votes_count": 0, "ships_count": 0, "projects": [], "coding_time_seconds": 0, "coding_time_seconds_today": 0, "balance": "You need to have a pocket watcher badge to view this.", "badges": [], "created_at": "2025-08-24T15:17:23.849-04:00", "updated_at": "2025-08-24T15:59:33.561-04:00", "avatar": "https://avatars.slack-edge.com/2025-08-24/9405009889796_c67abdce18fda0501d31_original.png", "custom_css": null}, {"id": 22514, "slack_id": "U09CM5P8E80", "display_name": "logvan", "bio": null, "projects_count": 0, "devlogs_count": 0, "votes_count": 0, "ships_count": 0, "projects": [], "coding_time_seconds": 0, "coding_time_seconds_today": 0, "balance": "You need to have a pocket watcher badge to view this.", "badges": [], "created_at": "2025-08-24T15:31:32.014-04:00", "updated_at": "2025-08-24T15:59:33.706-04:00", "avatar": "https://secure.gravatar.com/avatar/4c00c327c8f8dd703683d04352f3005d.jpg?s=512&d=https%3A%2F%2Fa.slack-edge.com%2Fdf10d%2Fimg%2Favatars%2Fava_0018-512.png", "custom_css": null}, {"id": 22515, "slack_id": "U09BRHYPW4D", "display_name": "Devraaj Dey Talukdar", "bio": null, "projects_count": 0, "devlogs_count": 0, "votes_count": 0, "ships_count": 0, "projects": [], "coding_time_seconds": 0, "coding_time_seconds_today": 0, "balance": "You need to have a pocket watcher badge to view this.", "badges": [], "created_at": "2025-08-24T15:55:21.546-04:00", "updated_at": "2025-08-24T21:59:28.505-04:00", "avatar": "https://secure.gravatar.com/avatar/f1845ff3847f579db76e50f553b65e1e.jpg?s=512&d=https%3A%2F%2Fa.slack-edge.com%2Fdf10d%2Fimg%2Favatars%2Fava_0016-512.png", "custom_css": null}, {"id": 22516, "slack_id": "U08V4FSBAQY", "display_name": "Ryan Yu", "bio": null, "projects_count": 0, "devlogs_count": 0, "votes_count": 0, "ships_count": 0, "projects": [], "coding_time_seconds": 0, "coding_time_seconds_today": 0, "balance": "You need to have a pocket watcher badge to view this.", "badges": [], "created_at": "2025-08-24T16:01:43.650-04:00", "updated_at": "2025-08-24T16:02:39.722-04:00", "avatar": "https://secure.gravatar.com/avatar/41a1fbc585d5c1de00e2aebadfbfeaf5.jpg?s=512&d=https%3A%2F%2Fa.slack-edge.com%2Fdf10d%2Fimg%2Favatars%2Fava_0017-512.png", "custom_css": null}, {"id": 22517, "slack_id": "U09BX42DC4U", "display_name": "Dwait Pandhi", "bio": null, "projects_count": 0, "devlogs_count": 0, "votes_count": 0, "ships_count": 0, "projects": [], "coding_time_seconds": 0, "coding_time_seconds_today": 0, "balance": "You need to have a pocket watcher badge to view this.", "badges": [], "created_at": "2025-08-24T16:59:41.313-04:00", "updated_at": "2025-08-24T21:59:28.689-04:00", "avatar": "https://secure.gravatar.com/avatar/2783366f17c085447d9bf2d59e1479da.jpg?s=512&d=https%3A%2F%2Fa.slack-edge.com%2Fdf10d%2Fimg%2Favatars%2Fava_0024-512.png", "custom_css": null}, {"id": 22518, "slack_id": "U09BT7H9R7U", "display_name": "Chase Reed", "bio": null, "projects_count": 0, "devlogs_count": 0, "votes_count": 0, "ships_count": 0, "projects": [], "coding_time_seconds": 0, "coding_time_seconds_today": 0, "balance": "You need to have a pocket watcher badge to view this.", "badges": [], "created_at": "2025-08-24T17:59:27.306-04:00", "updated_at": "2025-08-24T21:59:28.823-04:00", "avatar": "https://secure.gravatar.com/avatar/00330d50785542b9e5de1dad9538d042.jpg?s=512&d=https%3A%2F%2Fa.slack-edge.com%2Fdf10d%2Fimg%2Favatars%2Fava_0003-512.png", "custom_css": null}, {"id": 22519, "slack_id": "U09BRP3V7S9", "display_name": "John", "bio": null, "projects_count": 0, "devlogs_count": 0, "votes_count": 0, "ships_count": 0, "projects": [], "coding_time_seconds": 0, "coding_time_seconds_today": 0, "balance": "You need to have a pocket watcher badge to view this.", "badges": [], "created_at": "2025-08-24T18:17:59.941-04:00", "updated_at": "2025-08-24T21:59:28.917-04:00", "avatar": "https://secure.gravatar.com/avatar/0f0335b655e8596dc02a88818bb5ff5f.jpg?s=512&d=https%3A%2F%2Fa.slack-edge.com%2Fdf10d%2Fimg%2Favatars%2Fava_0023-512.png", "custom_css": null}, {"id": 22520, "slack_id": "U09BRPAE621", "display_name": "Maria Clara", "bio": null, "projects_count": 0, "devlogs_count": 0, "votes_count": 0, "ships_count": 0, "projects": [], "coding_time_seconds": 0, "coding_time_seconds_today": 0, "balance": "You need to have a pocket watcher badge to view this.", "badges": [], "created_at": "2025-08-24T18:25:42.462-04:00", "updated_at": "2025-08-24T21:59:29.034-04:00", "avatar": "https://secure.gravatar.com/avatar/aaf437b090a32b291cdba61b67f3d269.jpg?s=512&d=https%3A%2F%2Fa.slack-edge.com%2Fdf10d%2Fimg%2Favatars%2Fava_0011-512.png", "custom_css": null}, {"id": 22521, "slack_id": "U08RKAGR2UD", "display_name": "Shawnx", "bio": null, "projects_count": 0, "devlogs_count": 0, "votes_count": 0, "ships_count": 0, "projects": [], "coding_time_seconds": 0, "coding_time_seconds_today": 0, "balance": "You need to have a pocket watcher badge to view this.", "badges": [], "created_at": "2025-08-24T19:20:33.499-04:00", "updated_at": "2025-08-27T08:46:12.874-04:00", "avatar": "https://secure.gravatar.com/avatar/c77bdc40073f93a385bf8817dc59d516.jpg?s=512&d=https%3A%2F%2Fa.slack-edge.com%2Fdf10d%2Fimg%2Favatars%2Fava_0008-512.png", "custom_css": null}, {"id": 22522, "slack_id": "U09BXB51XRS", "display_name": "Donald Onabajo", "bio": null, "projects_count": 0, "devlogs_count": 0, "votes_count": 0, "ships_count": 0, "projects": [], "coding_time_seconds": 0, "coding_time_seconds_today": 0, "balance": "You need to have a pocket watcher badge to view this.", "badges": [], "created_at": "2025-08-24T19:44:09.109-04:00", "updated_at": "2025-08-24T21:59:29.226-04:00", "avatar": "https://avatars.slack-edge.com/2025-08-24/9399916938661_257422fcb0f90e996ee9_original.png", "custom_css": null}, {"id": 22523, "slack_id": "U09BRUHA537", "display_name": "Hillary He", "bio": null, "projects_count": 0, "devlogs_count": 0, "votes_count": 0, "ships_count": 0, "projects": [], "coding_time_seconds": 0, "coding_time_seconds_today": 0, "balance": "You need to have a pocket watcher badge to view this.", "badges": [], "created_at": "2025-08-24T20:12:14.751-04:00", "updated_at": "2025-08-24T21:59:29.349-04:00", "avatar": "https://avatars.slack-edge.com/2025-08-24/9429657154832_2a00883ebfc509723631_original.jpg", "custom_css": null}, {"id": 22524, "slack_id": "U09CEF2S5L0", "display_name": "cont", "bio": null, "projects_count": 0, "devlogs_count": 0, "votes_count": 0, "ships_count": 0, "projects": [], "coding_time_seconds": 0, "coding_time_seconds_today": 0, "balance": "You need to have a pocket watcher badge to view this.", "badges": [], "created_at": "2025-08-24T21:20:37.668-04:00", "updated_at": "2025-08-25T11:00:13.335-04:00", "avatar": "https://secure.gravatar.com/avatar/2c31d60612d0f5d199cd04e7c6b36a34.jpg?s=512&d=https%3A%2F%2Fa.slack-edge.com%2Fdf10d%2Fimg%2Favatars%2Fava_0003-512.png", "custom_css": null}, {"id": 22525, "slack_id": "U099R012326", "display_name": "Briana Blount", "bio": null, "projects_count": 0, "devlogs_count": 0, "votes_count": 0, "ships_count": 0, "projects": [], "coding_time_seconds": 0, "coding_time_seconds_today": 0, "balance": "You need to have a pocket watcher badge to view this.", "badges": [], "created_at": "2025-08-24T21:36:20.732-04:00", "updated_at": "2025-08-24T21:59:29.747-04:00", "avatar": "https://avatars.slack-edge.com/2025-08-24/9415603624561_39087b824a7fe357d296_original.png", "custom_css": null}], "pagination": {"page": 1122, "pages": 1192, "count": 23828, "items": 20}}