{"users": [{"id": 22526, "slack_id": "U09BDRZ9695", "display_name": "Jatan Singh", "bio": null, "projects_count": 0, "devlogs_count": 0, "votes_count": 0, "ships_count": 0, "projects": [], "coding_time_seconds": 0, "coding_time_seconds_today": 0, "balance": "You need to have a pocket watcher badge to view this.", "badges": [], "created_at": "2025-08-24T22:38:37.783-04:00", "updated_at": "2025-09-06T04:46:48.310-04:00", "avatar": "https://avatars.slack-edge.com/2025-09-06/9468781453573_32cd636428c4a7805693_original.jpg", "custom_css": null}, {"id": 22527, "slack_id": "U08FSJ6GE1J", "display_name": "Calvin Hung", "bio": null, "projects_count": 0, "devlogs_count": 0, "votes_count": 0, "ships_count": 0, "projects": [], "coding_time_seconds": 0, "coding_time_seconds_today": 0, "balance": "You need to have a pocket watcher badge to view this.", "badges": [], "created_at": "2025-08-24T22:55:40.417-04:00", "updated_at": "2025-08-24T22:55:48.704-04:00", "avatar": "https://secure.gravatar.com/avatar/a63f0c8e1b478d352b5c6f4fea2f00a2.jpg?s=512&d=https%3A%2F%2Fa.slack-edge.com%2Fdf10d%2Fimg%2Favatars%2Fava_0016-512.png", "custom_css": null}, {"id": 22528, "slack_id": "U09C7TZ9VRP", "display_name": "Palak", "bio": null, "projects_count": 0, "devlogs_count": 0, "votes_count": 0, "ships_count": 0, "projects": [], "coding_time_seconds": 0, "coding_time_seconds_today": 0, "balance": "You need to have a pocket watcher badge to view this.", "badges": [], "created_at": "2025-08-24T23:51:29.468-04:00", "updated_at": "2025-08-30T10:41:38.400-04:00", "avatar": "https://secure.gravatar.com/avatar/3c408be366cb20fc952c4c309f1d01be.jpg?s=512&d=https%3A%2F%2Fa.slack-edge.com%2Fdf10d%2Fimg%2Favatars%2Fava_0020-512.png", "custom_css": null}, {"id": 22529, "slack_id": "U09CN9BVBQQ", "display_name": "Nilay", "bio": null, "projects_count": 0, "devlogs_count": 0, "votes_count": 0, "ships_count": 0, "projects": [], "coding_time_seconds": 0, "coding_time_seconds_today": 0, "balance": "You need to have a pocket watcher badge to view this.", "badges": [], "created_at": "2025-08-25T00:19:23.114-04:00", "updated_at": "2025-08-25T04:01:42.927-04:00", "avatar": "https://avatars.slack-edge.com/2025-08-24/9397613774227_66c9fcf329e1f141fb82_original.jpg", "custom_css": null}, {"id": 22530, "slack_id": "U09BWH3NHB8", "display_name": "Anshu Kumar Shah", "bio": null, "projects_count": 0, "devlogs_count": 0, "votes_count": 0, "ships_count": 0, "projects": [], "coding_time_seconds": 0, "coding_time_seconds_today": 0, "balance": "You need to have a pocket watcher badge to view this.", "badges": [], "created_at": "2025-08-25T02:18:45.262-04:00", "updated_at": "2025-08-25T04:01:43.038-04:00", "avatar": "https://secure.gravatar.com/avatar/c6463dc1001cd875f5dbc61913192735.jpg?s=512&d=https%3A%2F%2Fa.slack-edge.com%2Fdf10d%2Fimg%2Favatars%2Fava_0013-512.png", "custom_css": null}, {"id": 22531, "slack_id": "U09C8FR7DMF", "display_name": "Tisherra Morris", "bio": null, "projects_count": 0, "devlogs_count": 0, "votes_count": 0, "ships_count": 0, "projects": [], "coding_time_seconds": 0, "coding_time_seconds_today": 0, "balance": "You need to have a pocket watcher badge to view this.", "badges": [], "created_at": "2025-08-25T02:45:47.109-04:00", "updated_at": "2025-08-25T04:01:43.154-04:00", "avatar": "https://secure.gravatar.com/avatar/ca6406a107fe4fe5d1d73f6dc7a3a84a.jpg?s=512&d=https%3A%2F%2Fa.slack-edge.com%2Fdf10d%2Fimg%2Favatars%2Fava_0008-512.png", "custom_css": null}, {"id": 22532, "slack_id": "U09BT38GA8M", "display_name": "raasikh hashmi", "bio": null, "projects_count": 0, "devlogs_count": 0, "votes_count": 0, "ships_count": 0, "projects": [], "coding_time_seconds": 22635, "coding_time_seconds_today": 0, "balance": "You need to have a pocket watcher badge to view this.", "badges": [], "created_at": "2025-08-25T02:57:59.350-04:00", "updated_at": "2025-08-25T05:30:02.846-04:00", "avatar": "https://avatars.slack-edge.com/2025-08-24/9406630502340_bde6c3feee2bb90ea7c9_original.jpg", "custom_css": null}, {"id": 22533, "slack_id": "U09BQBBAR9R", "display_name": "vikram", "bio": null, "projects_count": 0, "devlogs_count": 1, "votes_count": 0, "ships_count": 0, "projects": [], "coding_time_seconds": 289458, "coding_time_seconds_today": 2279, "balance": "You need to have a pocket watcher badge to view this.", "badges": [], "created_at": "2025-08-25T03:47:56.667-04:00", "updated_at": "2025-08-28T13:25:08.834-04:00", "avatar": "https://secure.gravatar.com/avatar/87c3f660b05080260314fa05ae55b620.jpg?s=512&d=https%3A%2F%2Fa.slack-edge.com%2Fdf10d%2Fimg%2Favatars%2Fava_0021-512.png", "custom_css": null}, {"id": 22534, "slack_id": "U09BX2CM946", "display_name": "Yuvraj Kumar", "bio": null, "projects_count": 0, "devlogs_count": 0, "votes_count": 0, "ships_count": 0, "projects": [], "coding_time_seconds": 0, "coding_time_seconds_today": 0, "balance": "You need to have a pocket watcher badge to view this.", "badges": [], "created_at": "2025-08-25T04:08:35.049-04:00", "updated_at": "2025-08-25T10:01:56.987-04:00", "avatar": "https://secure.gravatar.com/avatar/b17b5b72dc93437ef1cc3de89435295f.jpg?s=512&d=https%3A%2F%2Fa.slack-edge.com%2Fdf10d%2Fimg%2Favatars%2Fava_0001-512.png", "custom_css": null}, {"id": 22535, "slack_id": "U09BX8SGNH4", "display_name": "SamoZ256", "bio": null, "projects_count": 2, "devlogs_count": 6, "votes_count": 1, "ships_count": 1, "projects": [{"id": 12269, "title": "Hydra website", "devlogs_count": 0, "created_at": "2025-08-25T05:12:16.041-04:00"}, {"id": 12271, "title": "Hydra Switch emulator", "devlogs_count": 6, "created_at": "2025-08-25T05:15:28.606-04:00"}], "coding_time_seconds": 181642, "coding_time_seconds_today": 2750, "balance": "You need to have a pocket watcher badge to view this.", "badges": [], "created_at": "2025-08-25T04:57:03.830-04:00", "updated_at": "2025-09-06T02:32:07.822-04:00", "avatar": "https://secure.gravatar.com/avatar/0f1b39d2f0cf881b8732ce5cb84c0cf2.jpg?s=512&d=https%3A%2F%2Fa.slack-edge.com%2Fdf10d%2Fimg%2Favatars%2Fava_0014-512.png", "custom_css": null}, {"id": 22536, "slack_id": "U09BR0GC003", "display_name": "Loshith", "bio": null, "projects_count": 0, "devlogs_count": 0, "votes_count": 0, "ships_count": 0, "projects": [], "coding_time_seconds": 0, "coding_time_seconds_today": 0, "balance": "You need to have a pocket watcher badge to view this.", "badges": [], "created_at": "2025-08-25T06:02:04.012-04:00", "updated_at": "2025-08-25T10:01:57.223-04:00", "avatar": "https://secure.gravatar.com/avatar/eb97dd8bc814ed6c569deee29cc79991.jpg?s=512&d=https%3A%2F%2Fa.slack-edge.com%2Fdf10d%2Fimg%2Favatars%2Fava_0006-512.png", "custom_css": null}, {"id": 22537, "slack_id": "U09C9EQQFG9", "display_name": "katsugachi", "bio": null, "projects_count": 0, "devlogs_count": 0, "votes_count": 0, "ships_count": 0, "projects": [], "coding_time_seconds": 0, "coding_time_seconds_today": 0, "balance": "You need to have a pocket watcher badge to view this.", "badges": [], "created_at": "2025-08-25T06:08:39.626-04:00", "updated_at": "2025-08-25T10:01:57.351-04:00", "avatar": "https://secure.gravatar.com/avatar/e26c781e165f0e3816854006937629e4.jpg?s=512&d=https%3A%2F%2Fa.slack-edge.com%2Fdf10d%2Fimg%2Favatars%2Fava_0007-512.png", "custom_css": null}, {"id": 22538, "slack_id": "U09BZEBBRDJ", "display_name": "Leela Krishna K", "bio": null, "projects_count": 0, "devlogs_count": 0, "votes_count": 0, "ships_count": 0, "projects": [], "coding_time_seconds": 0, "coding_time_seconds_today": 0, "balance": "You need to have a pocket watcher badge to view this.", "badges": [], "created_at": "2025-08-25T06:08:42.625-04:00", "updated_at": "2025-08-25T10:01:57.460-04:00", "avatar": "https://secure.gravatar.com/avatar/41ab77acbeddf296856f5563381dd8db.jpg?s=512&d=https%3A%2F%2Fa.slack-edge.com%2Fdf10d%2Fimg%2Favatars%2Fava_0022-512.png", "custom_css": null}, {"id": 22539, "slack_id": "U09BU7WK1K6", "display_name": "Aeef", "bio": null, "projects_count": 1, "devlogs_count": 0, "votes_count": 0, "ships_count": 0, "projects": [{"id": 12801, "title": "ShellClicker", "devlogs_count": 0, "created_at": "2025-09-02T21:56:04.781-04:00"}], "coding_time_seconds": 1698, "coding_time_seconds_today": 0, "balance": "You need to have a pocket watcher badge to view this.", "badges": [], "created_at": "2025-08-25T06:10:14.734-04:00", "updated_at": "2025-08-27T08:30:06.237-04:00", "avatar": "https://secure.gravatar.com/avatar/f5f8b8ed108f50bac1da63fb1adec209.jpg?s=512&d=https%3A%2F%2Fa.slack-edge.com%2Fdf10d%2Fimg%2Favatars%2Fava_0003-512.png", "custom_css": null}, {"id": 22540, "slack_id": "U09BU4QSL5B", "display_name": "Aysha", "bio": null, "projects_count": 0, "devlogs_count": 0, "votes_count": 0, "ships_count": 0, "projects": [], "coding_time_seconds": 0, "coding_time_seconds_today": 0, "balance": "You need to have a pocket watcher badge to view this.", "badges": [], "created_at": "2025-08-25T06:56:57.980-04:00", "updated_at": "2025-08-25T10:01:57.678-04:00", "avatar": "https://secure.gravatar.com/avatar/be1f5783eba8bd462a7ab9aa01f6fe86.jpg?s=512&d=https%3A%2F%2Fa.slack-edge.com%2Fdf10d%2Fimg%2Favatars%2Fava_0005-512.png", "custom_css": null}, {"id": 22541, "slack_id": "U09BVLJLP42", "display_name": "Raunak", "bio": null, "projects_count": 0, "devlogs_count": 2, "votes_count": 1, "ships_count": 0, "projects": [], "coding_time_seconds": 22852, "coding_time_seconds_today": 0, "balance": "You need to have a pocket watcher badge to view this.", "badges": [{"name": "Maiden Voyage", "text": "you shipped your first project! the journey begins...", "icon": "\ud83d\udea2"}], "created_at": "2025-08-25T07:23:35.394-04:00", "updated_at": "2025-09-21T04:32:53.879-04:00", "avatar": "https://secure.gravatar.com/avatar/26cd2f50a8524297eecae5f4faf24864.jpg?s=512&d=https%3A%2F%2Fa.slack-edge.com%2Fdf10d%2Fimg%2Favatars%2Fava_0004-512.png", "custom_css": null}, {"id": 22542, "slack_id": "U09CMUGURCG", "display_name": "Everton", "bio": null, "projects_count": 0, "devlogs_count": 0, "votes_count": 0, "ships_count": 0, "projects": [], "coding_time_seconds": 0, "coding_time_seconds_today": 0, "balance": "You need to have a pocket watcher badge to view this.", "badges": [], "created_at": "2025-08-25T07:51:47.566-04:00", "updated_at": "2025-08-25T10:01:57.913-04:00", "avatar": "https://secure.gravatar.com/avatar/354eea10dbeebdee817e3841eae0ec00.jpg?s=512&d=https%3A%2F%2Fa.slack-edge.com%2Fdf10d%2Fimg%2Favatars%2Fava_0024-512.png", "custom_css": null}, {"id": 22543, "slack_id": "U09AUNN8NBC", "display_name": "Ananya Giri", "bio": null, "projects_count": 0, "devlogs_count": 0, "votes_count": 0, "ships_count": 0, "projects": [], "coding_time_seconds": 0, "coding_time_seconds_today": 0, "balance": "You need to have a pocket watcher badge to view this.", "badges": [], "created_at": "2025-08-25T08:38:51.571-04:00", "updated_at": "2025-08-25T10:01:58.018-04:00", "avatar": "https://secure.gravatar.com/avatar/33079893789a007dd58df972b8eae7e8.jpg?s=512&d=https%3A%2F%2Fa.slack-edge.com%2Fdf10d%2Fimg%2Favatars%2Fava_0005-512.png", "custom_css": null}, {"id": 22544, "slack_id": "U09BHBKEWLX", "display_name": "Bhanu", "bio": null, "projects_count": 0, "devlogs_count": 0, "votes_count": 0, "ships_count": 0, "projects": [], "coding_time_seconds": 0, "coding_time_seconds_today": 0, "balance": "You need to have a pocket watcher badge to view this.", "badges": [], "created_at": "2025-08-25T09:09:50.596-04:00", "updated_at": "2025-08-25T10:01:58.111-04:00", "avatar": "https://secure.gravatar.com/avatar/cfd0b083e4ac26b03c0b7a33c42a8f9a.jpg?s=512&d=https%3A%2F%2Fa.slack-edge.com%2Fdf10d%2Fimg%2Favatars%2Fava_0002-512.png", "custom_css": null}, {"id": 22545, "slack_id": "U09BYB2270W", "display_name": "AlphaCoders", "bio": null, "projects_count": 0, "devlogs_count": 0, "votes_count": 0, "ships_count": 0, "projects": [], "coding_time_seconds": 840, "coding_time_seconds_today": 0, "balance": "You need to have a pocket watcher badge to view this.", "badges": [], "created_at": "2025-08-25T09:10:06.675-04:00", "updated_at": "2025-09-15T18:17:20.935-04:00", "avatar": "https://secure.gravatar.com/avatar/ed1a83c46995138ce3d4910f5c4bbd38.jpg?s=512&d=https%3A%2F%2Fa.slack-edge.com%2Fdf10d%2Fimg%2Favatars%2Fava_0024-512.png", "custom_css": null}], "pagination": {"page": 1123, "pages": 1192, "count": 23828, "items": 20}}