{"users": [{"id": 22566, "slack_id": "U07P41D43B4", "display_name": "Tracy C", "bio": null, "projects_count": 1, "devlogs_count": 1, "votes_count": 23, "ships_count": 1, "projects": [{"id": 12328, "title": "Mission: Survive", "devlogs_count": 1, "created_at": "2025-08-25T19:35:09.490-04:00"}], "coding_time_seconds": 180211, "coding_time_seconds_today": 0, "balance": "You need to have a pocket watcher badge to view this.", "badges": [], "created_at": "2025-08-25T19:21:58.611-04:00", "updated_at": "2025-09-01T01:00:07.883-04:00", "avatar": "https://avatars.slack-edge.com/2025-08-17/9366292589042_551adfe0211c70d26e75_original.png", "custom_css": null}, {"id": 22567, "slack_id": "U09C3ER6P6Y", "display_name": "Ruhaan", "bio": null, "projects_count": 0, "devlogs_count": 0, "votes_count": 0, "ships_count": 0, "projects": [], "coding_time_seconds": 0, "coding_time_seconds_today": 0, "balance": "You need to have a pocket watcher badge to view this.", "badges": [], "created_at": "2025-08-25T20:14:49.853-04:00", "updated_at": "2025-08-25T22:01:53.861-04:00", "avatar": "https://secure.gravatar.com/avatar/704d42b243a5b90b2a3ba08b3aebd165.jpg?s=512&d=https%3A%2F%2Fa.slack-edge.com%2Fdf10d%2Fimg%2Favatars%2Fava_0004-512.png", "custom_css": null}, {"id": 22568, "slack_id": "U09BV6WDFJP", "display_name": "Andy Liu", "bio": null, "projects_count": 0, "devlogs_count": 0, "votes_count": 0, "ships_count": 0, "projects": [], "coding_time_seconds": 51365, "coding_time_seconds_today": 0, "balance": "You need to have a pocket watcher badge to view this.", "badges": [], "created_at": "2025-08-25T20:16:08.167-04:00", "updated_at": "2025-08-25T22:01:58.091-04:00", "avatar": "https://secure.gravatar.com/avatar/a82eb4e2c6128b5dc14d30777225dc5f.jpg?s=512&d=https%3A%2F%2Fa.slack-edge.com%2Fdf10d%2Fimg%2Favatars%2Fava_0012-512.png", "custom_css": null}, {"id": 22569, "slack_id": "U09BVA9LUDR", "display_name": "Jacob Faulkenberry", "bio": null, "projects_count": 0, "devlogs_count": 0, "votes_count": 0, "ships_count": 0, "projects": [], "coding_time_seconds": 0, "coding_time_seconds_today": 0, "balance": "You need to have a pocket watcher badge to view this.", "badges": [], "created_at": "2025-08-25T20:51:04.041-04:00", "updated_at": "2025-08-25T22:01:58.307-04:00", "avatar": "https://avatars.slack-edge.com/2025-08-25/9407571416210_6bdf279afcfd9f255cec_original.jpg", "custom_css": null}, {"id": 22570, "slack_id": "U09C1S509UN", "display_name": "aubymori", "bio": null, "projects_count": 0, "devlogs_count": 0, "votes_count": 0, "ships_count": 0, "projects": [], "coding_time_seconds": 0, "coding_time_seconds_today": 0, "balance": "You need to have a pocket watcher badge to view this.", "badges": [], "created_at": "2025-08-25T21:26:42.918-04:00", "updated_at": "2025-08-25T22:01:58.603-04:00", "avatar": "https://secure.gravatar.com/avatar/44f34e47f022279e27137b9a42902841.jpg?s=512&d=https%3A%2F%2Fa.slack-edge.com%2Fdf10d%2Fimg%2Favatars%2Fava_0011-512.png", "custom_css": null}, {"id": 22571, "slack_id": "U09BVFJHSFM", "display_name": "Atharv Sharma", "bio": null, "projects_count": 0, "devlogs_count": 0, "votes_count": 0, "ships_count": 0, "projects": [], "coding_time_seconds": 6624, "coding_time_seconds_today": 0, "balance": "You need to have a pocket watcher badge to view this.", "badges": [], "created_at": "2025-08-25T21:46:38.003-04:00", "updated_at": "2025-08-25T22:01:58.755-04:00", "avatar": "https://avatars.slack-edge.com/2025-08-25/9403540144291_9f4b69350dfae986be2e_original.png", "custom_css": null}, {"id": 22572, "slack_id": "U09BM53SNUX", "display_name": "Camille", "bio": null, "projects_count": 0, "devlogs_count": 0, "votes_count": 0, "ships_count": 0, "projects": [], "coding_time_seconds": 0, "coding_time_seconds_today": 0, "balance": "You need to have a pocket watcher badge to view this.", "badges": [], "created_at": "2025-08-25T22:10:21.378-04:00", "updated_at": "2025-08-26T04:02:04.703-04:00", "avatar": "https://secure.gravatar.com/avatar/97817228fc2bd84d423b533d1f549416.jpg?s=512&d=https%3A%2F%2Fa.slack-edge.com%2Fdf10d%2Fimg%2Favatars%2Fava_0026-512.png", "custom_css": null}, {"id": 22573, "slack_id": "U09BVLLKMEF", "display_name": "Balaskanda Sivanandame", "bio": null, "projects_count": 0, "devlogs_count": 0, "votes_count": 0, "ships_count": 0, "projects": [], "coding_time_seconds": 2280, "coding_time_seconds_today": 0, "balance": "You need to have a pocket watcher badge to view this.", "badges": [], "created_at": "2025-08-25T22:41:28.840-04:00", "updated_at": "2025-08-27T12:23:02.262-04:00", "avatar": "https://secure.gravatar.com/avatar/3b899d57628d8c3c494bb77ae6f6a11b.jpg?s=512&d=https%3A%2F%2Fa.slack-edge.com%2Fdf10d%2Fimg%2Favatars%2Fava_0024-512.png", "custom_css": null}, {"id": 22574, "slack_id": "U09BC2SFCCX", "display_name": "Harsh Jangid", "bio": null, "projects_count": 0, "devlogs_count": 0, "votes_count": 0, "ships_count": 0, "projects": [], "coding_time_seconds": 0, "coding_time_seconds_today": 0, "balance": "You need to have a pocket watcher badge to view this.", "badges": [], "created_at": "2025-08-25T22:55:49.386-04:00", "updated_at": "2025-08-26T04:02:04.933-04:00", "avatar": "https://secure.gravatar.com/avatar/6d23cc855c69bdb7218884ed05d94fb2.jpg?s=512&d=https%3A%2F%2Fa.slack-edge.com%2Fdf10d%2Fimg%2Favatars%2Fava_0016-512.png", "custom_css": null}, {"id": 22575, "slack_id": "U09BYQ4S1S9", "display_name": "Ali", "bio": null, "projects_count": 0, "devlogs_count": 0, "votes_count": 0, "ships_count": 0, "projects": [], "coding_time_seconds": 0, "coding_time_seconds_today": 0, "balance": "You need to have a pocket watcher badge to view this.", "badges": [], "created_at": "2025-08-25T23:35:36.179-04:00", "updated_at": "2025-09-03T01:00:06.483-04:00", "avatar": "https://secure.gravatar.com/avatar/04cf12575229402ef67dc3e336e93c9a.jpg?s=512&d=https%3A%2F%2Fa.slack-edge.com%2Fdf10d%2Fimg%2Favatars%2Fava_0023-512.png", "custom_css": null}, {"id": 22576, "slack_id": "U09BYV64129", "display_name": "esmuiict", "bio": null, "projects_count": 0, "devlogs_count": 0, "votes_count": 0, "ships_count": 0, "projects": [], "coding_time_seconds": 0, "coding_time_seconds_today": 0, "balance": "You need to have a pocket watcher badge to view this.", "badges": [], "created_at": "2025-08-26T00:34:09.861-04:00", "updated_at": "2025-08-26T04:02:05.151-04:00", "avatar": "https://secure.gravatar.com/avatar/c628217d3418e90a82ee4378f1717a58.jpg?s=512&d=https%3A%2F%2Fa.slack-edge.com%2Fdf10d%2Fimg%2Favatars%2Fava_0025-512.png", "custom_css": null}, {"id": 22577, "slack_id": "U09BASV0HP1", "display_name": "Bach Nguyen", "bio": null, "projects_count": 0, "devlogs_count": 0, "votes_count": 0, "ships_count": 0, "projects": [], "coding_time_seconds": 0, "coding_time_seconds_today": 0, "balance": "You need to have a pocket watcher badge to view this.", "badges": [], "created_at": "2025-08-26T01:17:23.546-04:00", "updated_at": "2025-08-26T04:02:05.260-04:00", "avatar": "https://secure.gravatar.com/avatar/2d537d5d60095da7ae826584b16479c3.jpg?s=512&d=https%3A%2F%2Fa.slack-edge.com%2Fdf10d%2Fimg%2Favatars%2Fava_0017-512.png", "custom_css": null}, {"id": 22578, "slack_id": "U09C4HCHF0U", "display_name": "Do Linh Chi Nguyen", "bio": null, "projects_count": 0, "devlogs_count": 0, "votes_count": 0, "ships_count": 0, "projects": [], "coding_time_seconds": 0, "coding_time_seconds_today": 0, "balance": "You need to have a pocket watcher badge to view this.", "badges": [], "created_at": "2025-08-26T02:01:37.401-04:00", "updated_at": "2025-08-26T04:02:05.369-04:00", "avatar": "https://avatars.slack-edge.com/2025-08-25/9436838758976_acc109280be00849f00b_original.png", "custom_css": null}, {"id": 22579, "slack_id": "U079D0WMN2W", "display_name": "Richard B", "bio": "I am bad at coding", "projects_count": 2, "devlogs_count": 2, "votes_count": 5, "ships_count": 0, "projects": [{"id": 12351, "title": "Terminal FNAF", "devlogs_count": 2, "created_at": "2025-08-26T05:13:57.111-04:00"}, {"id": 13685, "title": "The-IsMyCatPlottingMyDemise-inator", "devlogs_count": 0, "created_at": "2025-09-22T21:47:18.004-04:00"}], "coding_time_seconds": 42718, "coding_time_seconds_today": 0, "balance": "You need to have a pocket watcher badge to view this.", "badges": [], "created_at": "2025-08-26T04:18:29.861-04:00", "updated_at": "2025-08-26T16:01:34.960-04:00", "avatar": "https://avatars.slack-edge.com/2025-08-26/9412044239030_6205c7057a534283a3b5_original.png", "custom_css": null}, {"id": 22580, "slack_id": "U09BBA86VAB", "display_name": "Alfian", "bio": null, "projects_count": 0, "devlogs_count": 0, "votes_count": 0, "ships_count": 0, "projects": [], "coding_time_seconds": 0, "coding_time_seconds_today": 0, "balance": "You need to have a pocket watcher badge to view this.", "badges": [], "created_at": "2025-08-26T05:14:14.286-04:00", "updated_at": "2025-08-26T16:01:35.070-04:00", "avatar": "https://secure.gravatar.com/avatar/3701f62b03914617842cf53cdfa010d1.jpg?s=512&d=https%3A%2F%2Fa.slack-edge.com%2Fdf10d%2Fimg%2Favatars%2Fava_0017-512.png", "custom_css": null}, {"id": 22581, "slack_id": "U09C1KA2B0A", "display_name": "Emma Afumbom Nadine", "bio": null, "projects_count": 0, "devlogs_count": 0, "votes_count": 0, "ships_count": 0, "projects": [], "coding_time_seconds": 0, "coding_time_seconds_today": 0, "balance": "You need to have a pocket watcher badge to view this.", "badges": [], "created_at": "2025-08-26T05:59:11.147-04:00", "updated_at": "2025-08-26T16:01:35.171-04:00", "avatar": "https://avatars.slack-edge.com/2025-08-26/9413768689444_5484257052f1ec767402_original.jpg", "custom_css": null}, {"id": 22582, "slack_id": "U09C5NWTRLL", "display_name": "merkwurdichliebe", "bio": null, "projects_count": 0, "devlogs_count": 0, "votes_count": 0, "ships_count": 0, "projects": [], "coding_time_seconds": 0, "coding_time_seconds_today": 0, "balance": "You need to have a pocket watcher badge to view this.", "badges": [], "created_at": "2025-08-26T06:03:14.093-04:00", "updated_at": "2025-08-26T16:01:35.277-04:00", "avatar": "https://secure.gravatar.com/avatar/cbdf89c285c07eecd05dd67f68befdaa.jpg?s=512&d=https%3A%2F%2Fa.slack-edge.com%2Fdf10d%2Fimg%2Favatars%2Fava_0023-512.png", "custom_css": null}, {"id": 22583, "slack_id": "U07C3LEJV28", "display_name": "Esoh Faith Ngemenyi", "bio": null, "projects_count": 0, "devlogs_count": 0, "votes_count": 0, "ships_count": 0, "projects": [], "coding_time_seconds": 0, "coding_time_seconds_today": 0, "balance": "You need to have a pocket watcher badge to view this.", "badges": [], "created_at": "2025-08-26T06:09:45.756-04:00", "updated_at": "2025-08-26T16:01:35.398-04:00", "avatar": "https://avatars.slack-edge.com/2025-08-26/9411853668166_ce5b8060dd652bdf788c_original.png", "custom_css": null}, {"id": 22584, "slack_id": "U09C3QZEA14", "display_name": "kartik", "bio": null, "projects_count": 0, "devlogs_count": 0, "votes_count": 0, "ships_count": 0, "projects": [], "coding_time_seconds": 965, "coding_time_seconds_today": 0, "balance": "You need to have a pocket watcher badge to view this.", "badges": [], "created_at": "2025-08-26T06:12:35.488-04:00", "updated_at": "2025-08-27T05:24:44.743-04:00", "avatar": "https://secure.gravatar.com/avatar/139b42a52560bcf4b92e930d0e4290d0.jpg?s=512&d=https%3A%2F%2Fa.slack-edge.com%2Fdf10d%2Fimg%2Favatars%2Fava_0011-512.png", "custom_css": null}, {"id": 22585, "slack_id": "U09CFTY5KA5", "display_name": "Obam Banga Samuel", "bio": null, "projects_count": 0, "devlogs_count": 0, "votes_count": 0, "ships_count": 0, "projects": [], "coding_time_seconds": 0, "coding_time_seconds_today": 0, "balance": "You need to have a pocket watcher badge to view this.", "badges": [], "created_at": "2025-08-26T06:20:12.456-04:00", "updated_at": "2025-08-26T16:01:39.672-04:00", "avatar": "https://secure.gravatar.com/avatar/6d165fea20c952d16564eef5a163b3de.jpg?s=512&d=https%3A%2F%2Fa.slack-edge.com%2Fdf10d%2Fimg%2Favatars%2Fava_0021-512.png", "custom_css": null}], "pagination": {"page": 1125, "pages": 1192, "count": 23828, "items": 20}}