{"users": [{"id": 22606, "slack_id": "U09CG7TBVAM", "display_name": "Ntenkia Leticia Ayimboh", "bio": null, "projects_count": 0, "devlogs_count": 0, "votes_count": 0, "ships_count": 0, "projects": [], "coding_time_seconds": 0, "coding_time_seconds_today": 0, "balance": "You need to have a pocket watcher badge to view this.", "badges": [], "created_at": "2025-08-26T07:29:26.596-04:00", "updated_at": "2025-08-26T16:01:45.887-04:00", "avatar": "https://secure.gravatar.com/avatar/a5b702eb71bef73720639b79b7d12515.jpg?s=512&d=https%3A%2F%2Fa.slack-edge.com%2Fdf10d%2Fimg%2Favatars%2Fava_0008-512.png", "custom_css": null}, {"id": 22607, "slack_id": "U09C21RQ8MQ", "display_name": "LAYIBE MOUBANE MATTHIEU CEDRIC", "bio": null, "projects_count": 0, "devlogs_count": 0, "votes_count": 0, "ships_count": 0, "projects": [], "coding_time_seconds": 0, "coding_time_seconds_today": 0, "balance": "You need to have a pocket watcher badge to view this.", "badges": [], "created_at": "2025-08-26T07:30:35.948-04:00", "updated_at": "2025-08-26T16:01:45.998-04:00", "avatar": "https://secure.gravatar.com/avatar/92b9ece190a96d35bece53b1cad34848.jpg?s=512&d=https%3A%2F%2Fa.slack-edge.com%2Fdf10d%2Fimg%2Favatars%2Fava_0023-512.png", "custom_css": null}, {"id": 22608, "slack_id": "U09C44R132S", "display_name": "mehwish afsa", "bio": null, "projects_count": 0, "devlogs_count": 0, "votes_count": 0, "ships_count": 0, "projects": [], "coding_time_seconds": 0, "coding_time_seconds_today": 0, "balance": "You need to have a pocket watcher badge to view this.", "badges": [], "created_at": "2025-08-26T07:35:36.417-04:00", "updated_at": "2025-08-26T16:01:46.105-04:00", "avatar": "https://secure.gravatar.com/avatar/3b76ba0c628f904f4aeda9703a1d4d29.jpg?s=512&d=https%3A%2F%2Fa.slack-edge.com%2Fdf10d%2Fimg%2Favatars%2Fava_0023-512.png", "custom_css": null}, {"id": 22609, "slack_id": "U09BPB689HD", "display_name": "Veyu Marie_vina Javnyuy", "bio": null, "projects_count": 0, "devlogs_count": 0, "votes_count": 0, "ships_count": 0, "projects": [], "coding_time_seconds": 0, "coding_time_seconds_today": 0, "balance": "You need to have a pocket watcher badge to view this.", "badges": [], "created_at": "2025-08-26T07:46:09.051-04:00", "updated_at": "2025-08-26T16:01:50.251-04:00", "avatar": "https://avatars.slack-edge.com/2025-08-26/9424362393089_0834f6292a56c4992b48_original.png", "custom_css": null}, {"id": 22610, "slack_id": "U09CWFFC1BJ", "display_name": "Nada", "bio": null, "projects_count": 0, "devlogs_count": 0, "votes_count": 0, "ships_count": 0, "projects": [], "coding_time_seconds": 3254, "coding_time_seconds_today": 0, "balance": "You need to have a pocket watcher badge to view this.", "badges": [], "created_at": "2025-08-26T08:08:33.938-04:00", "updated_at": "2025-08-26T16:01:50.366-04:00", "avatar": "https://secure.gravatar.com/avatar/a882d1b932962c40ee720db3bb9f4559.jpg?s=512&d=https%3A%2F%2Fa.slack-edge.com%2Fdf10d%2Fimg%2Favatars%2Fava_0018-512.png", "custom_css": null}, {"id": 22611, "slack_id": "U09C6DAKK8C", "display_name": "Undertaker", "bio": null, "projects_count": 4, "devlogs_count": 8, "votes_count": 59, "ships_count": 4, "projects": [{"id": 12383, "title": "SLIME SIMULATOR ", "devlogs_count": 2, "created_at": "2025-08-26T14:15:12.200-04:00"}, {"id": 12439, "title": "MindForge", "devlogs_count": 2, "created_at": "2025-08-27T12:28:12.420-04:00"}, {"id": 12930, "title": "uOS", "devlogs_count": 1, "created_at": "2025-09-05T14:47:43.210-04:00"}, {"id": 13083, "title": "The Particle Engine.", "devlogs_count": 3, "created_at": "2025-09-08T08:36:02.555-04:00"}], "coding_time_seconds": 136124, "coding_time_seconds_today": 0, "balance": "You need to have a pocket watcher badge to view this.", "badges": [], "created_at": "2025-08-26T08:40:10.868-04:00", "updated_at": "2025-09-15T04:02:01.472-04:00", "avatar": "https://secure.gravatar.com/avatar/3ec62cd24de18455da49297412258732.jpg?s=512&d=https%3A%2F%2Fa.slack-edge.com%2Fdf10d%2Fimg%2Favatars%2Fava_0004-512.png", "custom_css": null}, {"id": 22612, "slack_id": "U09C2CWTND8", "display_name": "QledGaming", "bio": null, "projects_count": 0, "devlogs_count": 0, "votes_count": 0, "ships_count": 0, "projects": [], "coding_time_seconds": 0, "coding_time_seconds_today": 0, "balance": "You need to have a pocket watcher badge to view this.", "badges": [], "created_at": "2025-08-26T08:49:40.385-04:00", "updated_at": "2025-08-26T16:01:50.580-04:00", "avatar": "https://secure.gravatar.com/avatar/fdf492a30243592ee0de2b3fe3254fe9.jpg?s=512&d=https%3A%2F%2Fa.slack-edge.com%2Fdf10d%2Fimg%2Favatars%2Fava_0013-512.png", "custom_css": null}, {"id": 22613, "slack_id": "U09C29U5KPE", "display_name": "Max", "bio": null, "projects_count": 1, "devlogs_count": 0, "votes_count": 2, "ships_count": 0, "projects": [{"id": 12448, "title": "HotDogClassifier", "devlogs_count": 0, "created_at": "2025-08-27T17:32:52.035-04:00"}], "coding_time_seconds": 1336, "coding_time_seconds_today": 0, "balance": "You need to have a pocket watcher badge to view this.", "badges": [], "created_at": "2025-08-26T08:50:30.723-04:00", "updated_at": "2025-08-28T01:00:04.006-04:00", "avatar": "https://secure.gravatar.com/avatar/b78887080e82b2f1bce00343bfddaca0.jpg?s=512&d=https%3A%2F%2Fa.slack-edge.com%2Fdf10d%2Fimg%2Favatars%2Fava_0013-512.png", "custom_css": null}, {"id": 22614, "slack_id": "U09C16VJYQ5", "display_name": "Gooncode", "bio": null, "projects_count": 0, "devlogs_count": 0, "votes_count": 0, "ships_count": 0, "projects": [], "coding_time_seconds": 0, "coding_time_seconds_today": 0, "balance": "You need to have a pocket watcher badge to view this.", "badges": [], "created_at": "2025-08-26T09:16:13.818-04:00", "updated_at": "2025-09-03T04:02:23.812-04:00", "avatar": "https://avatars.slack-edge.com/2025-09-02/9459381293185_7e3998a23c8cf1335e77_original.jpg", "custom_css": null}, {"id": 22615, "slack_id": "U09CX0T35K2", "display_name": "Shemar", "bio": null, "projects_count": 0, "devlogs_count": 0, "votes_count": 0, "ships_count": 0, "projects": [], "coding_time_seconds": 0, "coding_time_seconds_today": 0, "balance": "You need to have a pocket watcher badge to view this.", "badges": [], "created_at": "2025-08-26T09:36:13.631-04:00", "updated_at": "2025-08-26T16:01:50.861-04:00", "avatar": "https://secure.gravatar.com/avatar/5d3402054acef533ba63edcb182469c2.jpg?s=512&d=https%3A%2F%2Fa.slack-edge.com%2Fdf10d%2Fimg%2Favatars%2Fava_0026-512.png", "custom_css": null}, {"id": 22616, "slack_id": "U09BYKE59R9", "display_name": "deltha", "bio": null, "projects_count": 0, "devlogs_count": 0, "votes_count": 0, "ships_count": 0, "projects": [], "coding_time_seconds": 0, "coding_time_seconds_today": 0, "balance": "You need to have a pocket watcher badge to view this.", "badges": [], "created_at": "2025-08-26T09:51:27.987-04:00", "updated_at": "2025-09-10T13:08:51.446-04:00", "avatar": "https://secure.gravatar.com/avatar/482ee1c4bd913021fff6f7c39d10a813.jpg?s=512&d=https%3A%2F%2Fa.slack-edge.com%2Fdf10d%2Fimg%2Favatars%2Fava_0012-512.png", "custom_css": null}, {"id": 22617, "slack_id": "U09CX3HJQ4Q", "display_name": "FULI ELIOT NCHONGTAKANG", "bio": null, "projects_count": 0, "devlogs_count": 0, "votes_count": 0, "ships_count": 0, "projects": [], "coding_time_seconds": 0, "coding_time_seconds_today": 0, "balance": "You need to have a pocket watcher badge to view this.", "badges": [], "created_at": "2025-08-26T09:51:37.528-04:00", "updated_at": "2025-08-26T16:01:51.067-04:00", "avatar": "https://secure.gravatar.com/avatar/0a90661c4eb70cd74ae90947547f84bc.jpg?s=512&d=https%3A%2F%2Fa.slack-edge.com%2Fdf10d%2Fimg%2Favatars%2Fava_0013-512.png", "custom_css": null}, {"id": 22618, "slack_id": "U09BW9XPMKN", "display_name": "ranime", "bio": null, "projects_count": 2, "devlogs_count": 0, "votes_count": 0, "ships_count": 0, "projects": [{"id": 12713, "title": "fashion_game", "devlogs_count": 0, "created_at": "2025-09-01T09:26:57.970-04:00"}, {"id": 12685, "title": "me", "devlogs_count": 0, "created_at": "2025-08-31T19:14:32.900-04:00"}], "coding_time_seconds": 16364, "coding_time_seconds_today": 0, "balance": "You need to have a pocket watcher badge to view this.", "badges": [], "created_at": "2025-08-26T10:08:13.155-04:00", "updated_at": "2025-08-31T19:15:13.009-04:00", "avatar": "https://secure.gravatar.com/avatar/ab1986ce10de7a91049305a38f769668.jpg?s=512&d=https%3A%2F%2Fa.slack-edge.com%2Fdf10d%2Fimg%2Favatars%2Fava_0013-512.png", "custom_css": null}, {"id": 22619, "slack_id": "U09C54C0AHL", "display_name": "Nidhi Kumari", "bio": null, "projects_count": 0, "devlogs_count": 0, "votes_count": 0, "ships_count": 0, "projects": [], "coding_time_seconds": 0, "coding_time_seconds_today": 0, "balance": "You need to have a pocket watcher badge to view this.", "badges": [], "created_at": "2025-08-26T10:34:04.530-04:00", "updated_at": "2025-08-26T16:01:51.256-04:00", "avatar": "https://secure.gravatar.com/avatar/feb79f9735dfbfbbed42e4a07dc12438.jpg?s=512&d=https%3A%2F%2Fa.slack-edge.com%2Fdf10d%2Fimg%2Favatars%2Fava_0014-512.png", "custom_css": null}, {"id": 22620, "slack_id": "U09CH9VG12M", "display_name": "Edvat", "bio": null, "projects_count": 0, "devlogs_count": 0, "votes_count": 0, "ships_count": 0, "projects": [], "coding_time_seconds": 0, "coding_time_seconds_today": 0, "balance": "You need to have a pocket watcher badge to view this.", "badges": [], "created_at": "2025-08-26T10:39:06.156-04:00", "updated_at": "2025-08-26T16:01:51.394-04:00", "avatar": "https://secure.gravatar.com/avatar/886cd5b381c02c63ed6a6141e867e47e.jpg?s=512&d=https%3A%2F%2Fa.slack-edge.com%2Fdf10d%2Fimg%2Favatars%2Fava_0013-512.png", "custom_css": null}, {"id": 22621, "slack_id": "U09C56ZBVJS", "display_name": "Mithilessh Bhasker", "bio": null, "projects_count": 0, "devlogs_count": 0, "votes_count": 0, "ships_count": 0, "projects": [], "coding_time_seconds": 0, "coding_time_seconds_today": 0, "balance": "You need to have a pocket watcher badge to view this.", "badges": [], "created_at": "2025-08-26T10:42:59.329-04:00", "updated_at": "2025-08-26T16:01:51.503-04:00", "avatar": "https://avatars.slack-edge.com/2025-08-26/9411186991330_6ff7e666633692325b22_original.png", "custom_css": null}, {"id": 22622, "slack_id": "U082WSR123F", "display_name": "Nicky Buurstee", "bio": null, "projects_count": 0, "devlogs_count": 0, "votes_count": 0, "ships_count": 0, "projects": [], "coding_time_seconds": 48769, "coding_time_seconds_today": 0, "balance": "You need to have a pocket watcher badge to view this.", "badges": [], "created_at": "2025-08-26T11:06:44.501-04:00", "updated_at": "2025-08-26T16:01:51.671-04:00", "avatar": "https://secure.gravatar.com/avatar/22f3a38e08ca4ef0a139fe22c05912a6.jpg?s=512&d=https%3A%2F%2Fa.slack-edge.com%2Fdf10d%2Fimg%2Favatars%2Fava_0018-512.png", "custom_css": null}, {"id": 22623, "slack_id": "U08SYQ0QYMQ", "display_name": "Abdullah Hasware", "bio": null, "projects_count": 0, "devlogs_count": 0, "votes_count": 0, "ships_count": 0, "projects": [], "coding_time_seconds": 19100, "coding_time_seconds_today": 0, "balance": "You need to have a pocket watcher badge to view this.", "badges": [], "created_at": "2025-08-26T11:52:28.995-04:00", "updated_at": "2025-08-26T16:01:51.765-04:00", "avatar": "https://secure.gravatar.com/avatar/5c9194bf78f5663895a9412a7c7407c6.jpg?s=512&d=https%3A%2F%2Fa.slack-edge.com%2Fdf10d%2Fimg%2Favatars%2Fava_0020-512.png", "custom_css": null}, {"id": 22624, "slack_id": "U09CY0NRED6", "display_name": "nico", "bio": null, "projects_count": 1, "devlogs_count": 1, "votes_count": 0, "ships_count": 0, "projects": [{"id": 12510, "title": "niconotpig ace attorney", "devlogs_count": 1, "created_at": "2025-08-28T18:26:40.934-04:00"}], "coding_time_seconds": 89037, "coding_time_seconds_today": 0, "balance": "You need to have a pocket watcher badge to view this.", "badges": [], "created_at": "2025-08-26T12:02:12.419-04:00", "updated_at": "2025-08-27T02:00:09.082-04:00", "avatar": "https://avatars.slack-edge.com/2025-08-26/9401684768167_9429670ed3e7f13e2e3d_original.png", "custom_css": null}, {"id": 22625, "slack_id": "U09BZP0TKPV", "display_name": "Haider", "bio": null, "projects_count": 0, "devlogs_count": 0, "votes_count": 0, "ships_count": 0, "projects": [], "coding_time_seconds": 0, "coding_time_seconds_today": 0, "balance": "You need to have a pocket watcher badge to view this.", "badges": [], "created_at": "2025-08-26T12:38:55.128-04:00", "updated_at": "2025-08-26T16:01:51.998-04:00", "avatar": "https://secure.gravatar.com/avatar/b0f36614dc110b33f47dc1d60e7379db.jpg?s=512&d=https%3A%2F%2Fa.slack-edge.com%2Fdf10d%2Fimg%2Favatars%2Fava_0020-512.png", "custom_css": null}], "pagination": {"page": 1127, "pages": 1192, "count": 23828, "items": 20}}