{"users": [{"id": 22626, "slack_id": "U09C04CG4G3", "display_name": "Robel Mekbib", "bio": null, "projects_count": 0, "devlogs_count": 0, "votes_count": 0, "ships_count": 0, "projects": [], "coding_time_seconds": 0, "coding_time_seconds_today": 0, "balance": "You need to have a pocket watcher badge to view this.", "badges": [], "created_at": "2025-08-26T13:37:51.977-04:00", "updated_at": "2025-08-26T16:01:52.095-04:00", "avatar": "https://secure.gravatar.com/avatar/c2e357d3969479058e19c3b8fe0afa07.jpg?s=512&d=https%3A%2F%2Fa.slack-edge.com%2Fdf10d%2Fimg%2Favatars%2Fava_0015-512.png", "custom_css": null}, {"id": 22627, "slack_id": "U06D7NTBDCY", "display_name": "michelle", "bio": null, "projects_count": 0, "devlogs_count": 0, "votes_count": 0, "ships_count": 0, "projects": [], "coding_time_seconds": 0, "coding_time_seconds_today": 0, "balance": "You need to have a pocket watcher badge to view this.", "badges": [], "created_at": "2025-08-26T13:39:34.547-04:00", "updated_at": "2025-08-26T16:01:52.211-04:00", "avatar": "https://avatars.slack-edge.com/2025-03-17/8620036321652_24760c5cbc6a69549bb1_original.jpg", "custom_css": null}, {"id": 22628, "slack_id": "U09CJLFRGRF", "display_name": "Vaishnavi", "bio": null, "projects_count": 0, "devlogs_count": 0, "votes_count": 0, "ships_count": 0, "projects": [], "coding_time_seconds": 0, "coding_time_seconds_today": 0, "balance": "You need to have a pocket watcher badge to view this.", "badges": [], "created_at": "2025-08-26T14:07:08.967-04:00", "updated_at": "2025-08-26T16:01:52.313-04:00", "avatar": "https://avatars.slack-edge.com/2025-08-26/9440798043216_99dfa3aef3b994dfa94d_original.png", "custom_css": null}, {"id": 22629, "slack_id": "U09C6L7JUS2", "display_name": "Jilani", "bio": null, "projects_count": 0, "devlogs_count": 0, "votes_count": 0, "ships_count": 0, "projects": [], "coding_time_seconds": 0, "coding_time_seconds_today": 0, "balance": "You need to have a pocket watcher badge to view this.", "badges": [], "created_at": "2025-08-26T14:40:42.375-04:00", "updated_at": "2025-08-26T16:01:52.549-04:00", "avatar": "https://secure.gravatar.com/avatar/9f7e618233f95dc96362814bd863c65c.jpg?s=512&d=https%3A%2F%2Fa.slack-edge.com%2Fdf10d%2Fimg%2Favatars%2Fava_0014-512.png", "custom_css": null}, {"id": 22630, "slack_id": "U09C78PBF7G", "display_name": "Ben", "bio": null, "projects_count": 0, "devlogs_count": 0, "votes_count": 0, "ships_count": 0, "projects": [], "coding_time_seconds": 0, "coding_time_seconds_today": 0, "balance": "You need to have a pocket watcher badge to view this.", "badges": [], "created_at": "2025-08-26T16:35:42.640-04:00", "updated_at": "2025-08-26T22:01:36.006-04:00", "avatar": "https://secure.gravatar.com/avatar/728496ddc633307079e2a0069627726d.jpg?s=512&d=https%3A%2F%2Fa.slack-edge.com%2Fdf10d%2Fimg%2Favatars%2Fava_0022-512.png", "custom_css": null}, {"id": 22631, "slack_id": "U09C57SNU58", "display_name": "Cammy", "bio": null, "projects_count": 0, "devlogs_count": 0, "votes_count": 0, "ships_count": 0, "projects": [], "coding_time_seconds": 392, "coding_time_seconds_today": 0, "balance": "You need to have a pocket watcher badge to view this.", "badges": [], "created_at": "2025-08-26T16:36:19.576-04:00", "updated_at": "2025-08-26T22:01:36.199-04:00", "avatar": "https://avatars.slack-edge.com/2025-08-26/9417563888404_6be3a1ee33e95a4811a3_original.jpg", "custom_css": null}, {"id": 22632, "slack_id": "U09BSSMH0G7", "display_name": "Regna", "bio": null, "projects_count": 0, "devlogs_count": 0, "votes_count": 0, "ships_count": 0, "projects": [], "coding_time_seconds": 0, "coding_time_seconds_today": 0, "balance": "You need to have a pocket watcher badge to view this.", "badges": [], "created_at": "2025-08-26T16:59:20.465-04:00", "updated_at": "2025-08-26T22:01:40.338-04:00", "avatar": "https://secure.gravatar.com/avatar/13700fa73f99f0e6f433fea3f933e92a.jpg?s=512&d=https%3A%2F%2Fa.slack-edge.com%2Fdf10d%2Fimg%2Favatars%2Fava_0022-512.png", "custom_css": null}, {"id": 22633, "slack_id": "U09C7CEA4JJ", "display_name": "Polokalap", "bio": null, "projects_count": 0, "devlogs_count": 0, "votes_count": 1, "ships_count": 0, "projects": [], "coding_time_seconds": 105711, "coding_time_seconds_today": 0, "balance": "You need to have a pocket watcher badge to view this.", "badges": [], "created_at": "2025-08-26T17:11:27.078-04:00", "updated_at": "2025-08-28T06:56:01.858-04:00", "avatar": "https://secure.gravatar.com/avatar/831b8aed4749f329a0daf320842a2a62.jpg?s=512&d=https%3A%2F%2Fa.slack-edge.com%2Fdf10d%2Fimg%2Favatars%2Fava_0002-512.png", "custom_css": null}, {"id": 22634, "slack_id": "U09C5DJHLH0", "display_name": "Viraj Shah", "bio": null, "projects_count": 0, "devlogs_count": 0, "votes_count": 0, "ships_count": 0, "projects": [], "coding_time_seconds": 0, "coding_time_seconds_today": 0, "balance": "You need to have a pocket watcher badge to view this.", "badges": [], "created_at": "2025-08-26T17:16:16.825-04:00", "updated_at": "2025-08-26T22:01:40.574-04:00", "avatar": "https://secure.gravatar.com/avatar/09e042017a65ec663d2fb03911b794e6.jpg?s=512&d=https%3A%2F%2Fa.slack-edge.com%2Fdf10d%2Fimg%2Favatars%2Fava_0015-512.png", "custom_css": null}, {"id": 22635, "slack_id": "U09BJ2REMGB", "display_name": "monke3y", "bio": null, "projects_count": 0, "devlogs_count": 0, "votes_count": 0, "ships_count": 0, "projects": [], "coding_time_seconds": 988, "coding_time_seconds_today": 0, "balance": "You need to have a pocket watcher badge to view this.", "badges": [], "created_at": "2025-08-26T17:58:06.942-04:00", "updated_at": "2025-08-27T02:00:08.365-04:00", "avatar": "https://avatars.slack-edge.com/2025-08-26/9417745668900_f60c58c40979f46459b0_original.jpg", "custom_css": null}, {"id": 22636, "slack_id": "U09C5J8TY3C", "display_name": "meow", "bio": null, "projects_count": 0, "devlogs_count": 0, "votes_count": 0, "ships_count": 0, "projects": [], "coding_time_seconds": 0, "coding_time_seconds_today": 0, "balance": "You need to have a pocket watcher badge to view this.", "badges": [], "created_at": "2025-08-26T18:00:27.571-04:00", "updated_at": "2025-08-26T22:01:40.798-04:00", "avatar": "https://secure.gravatar.com/avatar/745cbb63664a1eff028af5868901e6f7.jpg?s=512&d=https%3A%2F%2Fa.slack-edge.com%2Fdf10d%2Fimg%2Favatars%2Fava_0011-512.png", "custom_css": null}, {"id": 22637, "slack_id": "U09C4CQ73J9", "display_name": "David", "bio": null, "projects_count": 0, "devlogs_count": 0, "votes_count": 0, "ships_count": 0, "projects": [], "coding_time_seconds": 0, "coding_time_seconds_today": 0, "balance": "You need to have a pocket watcher badge to view this.", "badges": [], "created_at": "2025-08-26T18:11:29.713-04:00", "updated_at": "2025-08-26T22:01:40.889-04:00", "avatar": "https://secure.gravatar.com/avatar/8e35031123962815826f9f7d216a527e.jpg?s=512&d=https%3A%2F%2Fa.slack-edge.com%2Fdf10d%2Fimg%2Favatars%2Fava_0025-512.png", "custom_css": null}, {"id": 22638, "slack_id": "U09CL3ATVU1", "display_name": "Random Person", "bio": null, "projects_count": 0, "devlogs_count": 0, "votes_count": 0, "ships_count": 0, "projects": [], "coding_time_seconds": 0, "coding_time_seconds_today": 0, "balance": "You need to have a pocket watcher badge to view this.", "badges": [], "created_at": "2025-08-26T19:12:40.585-04:00", "updated_at": "2025-08-26T22:01:40.984-04:00", "avatar": "https://avatars.slack-edge.com/2025-08-26/9401434643847_c9dddcfc92cf8389018b_original.png", "custom_css": null}, {"id": 22639, "slack_id": "U09C7F8KLL9", "display_name": "Syon", "bio": null, "projects_count": 0, "devlogs_count": 0, "votes_count": 0, "ships_count": 0, "projects": [], "coding_time_seconds": 0, "coding_time_seconds_today": 0, "balance": "You need to have a pocket watcher badge to view this.", "badges": [], "created_at": "2025-08-26T19:50:25.121-04:00", "updated_at": "2025-08-26T22:01:41.090-04:00", "avatar": "https://avatars.slack-edge.com/2025-08-26/9409861864211_e35e18c841e8b8b672b2_original.png", "custom_css": null}, {"id": 22640, "slack_id": "U09D0FY78KS", "display_name": "Arghya Vyas", "bio": "Hey! I'm Arghya. A 16 year old from Toronto, Canada. I like to work with frontend and I am currently building an open source flight search engine!", "projects_count": 3, "devlogs_count": 16, "votes_count": 80, "ships_count": 2, "projects": [{"id": 12444, "title": "Flyte: The Simple, Open-Source Flight Search Engine", "devlogs_count": 13, "created_at": "2025-08-27T13:48:31.700-04:00"}, {"id": 13001, "title": "Summer of Making Grand Survey Expedition Scene 46! ", "devlogs_count": 2, "created_at": "2025-09-06T18:30:05.857-04:00"}, {"id": 13300, "title": "Flyte Mobile App", "devlogs_count": 1, "created_at": "2025-09-13T16:30:38.877-04:00"}], "coding_time_seconds": 76023, "coding_time_seconds_today": 0, "balance": "You need to have a pocket watcher badge to view this.", "badges": [], "created_at": "2025-08-26T21:00:19.878-04:00", "updated_at": "2025-08-28T17:05:01.734-04:00", "avatar": "https://avatars.slack-edge.com/2025-08-26/9442553165120_27d307bbb7089ec07a66_original.jpg", "custom_css": null}, {"id": 22641, "slack_id": "U09CAGGQXT6", "display_name": "Ethan", "bio": null, "projects_count": 0, "devlogs_count": 0, "votes_count": 0, "ships_count": 0, "projects": [], "coding_time_seconds": 0, "coding_time_seconds_today": 0, "balance": "You need to have a pocket watcher badge to view this.", "badges": [], "created_at": "2025-08-26T21:06:42.357-04:00", "updated_at": "2025-08-26T22:01:41.468-04:00", "avatar": "https://secure.gravatar.com/avatar/06ef675567b9830f3e06cbf1aba268f4.jpg?s=512&d=https%3A%2F%2Fa.slack-edge.com%2Fdf10d%2Fimg%2Favatars%2Fava_0016-512.png", "custom_css": null}, {"id": 22642, "slack_id": "U04JBN6MZ9R", "display_name": "Thanatos", "bio": null, "projects_count": 0, "devlogs_count": 0, "votes_count": 0, "ships_count": 0, "projects": [], "coding_time_seconds": 2484, "coding_time_seconds_today": 0, "balance": "You need to have a pocket watcher badge to view this.", "badges": [], "created_at": "2025-08-26T21:10:51.928-04:00", "updated_at": "2025-09-05T07:17:33.974-04:00", "avatar": "https://avatars.slack-edge.com/2023-01-14/4629335297975_e09508a5ae145c0848a3_original.png", "custom_css": null}, {"id": 22643, "slack_id": "U09CLEE7XRP", "display_name": "Hitanshee Sheth", "bio": null, "projects_count": 0, "devlogs_count": 0, "votes_count": 0, "ships_count": 0, "projects": [], "coding_time_seconds": 0, "coding_time_seconds_today": 0, "balance": "You need to have a pocket watcher badge to view this.", "badges": [], "created_at": "2025-08-26T21:10:55.164-04:00", "updated_at": "2025-08-26T22:01:45.707-04:00", "avatar": "https://secure.gravatar.com/avatar/0d17ab643156624161b63c3b9bc7c828.jpg?s=512&d=https%3A%2F%2Fa.slack-edge.com%2Fdf10d%2Fimg%2Favatars%2Fava_0008-512.png", "custom_css": null}, {"id": 22644, "slack_id": "U09BTQHKSS3", "display_name": "Ethan", "bio": null, "projects_count": 0, "devlogs_count": 0, "votes_count": 2, "ships_count": 0, "projects": [], "coding_time_seconds": 0, "coding_time_seconds_today": 0, "balance": "You need to have a pocket watcher badge to view this.", "badges": [], "created_at": "2025-08-26T21:19:31.086-04:00", "updated_at": "2025-08-28T02:00:04.232-04:00", "avatar": "https://secure.gravatar.com/avatar/e8576f3cb6e04d3eef55696bb24bd074.jpg?s=512&d=https%3A%2F%2Fa.slack-edge.com%2Fdf10d%2Fimg%2Favatars%2Fava_0020-512.png", "custom_css": null}, {"id": 22645, "slack_id": "U09C8BSUPP0", "display_name": "Constanza Eugenia Perez", "bio": null, "projects_count": 0, "devlogs_count": 0, "votes_count": 0, "ships_count": 0, "projects": [], "coding_time_seconds": 0, "coding_time_seconds_today": 0, "balance": "You need to have a pocket watcher badge to view this.", "badges": [], "created_at": "2025-08-26T21:42:18.008-04:00", "updated_at": "2025-08-29T13:00:58.726-04:00", "avatar": "https://secure.gravatar.com/avatar/da6ac0e8886cc99252faf3752dfa81f0.jpg?s=512&d=https%3A%2F%2Fa.slack-edge.com%2Fdf10d%2Fimg%2Favatars%2Fava_0002-512.png", "custom_css": null}], "pagination": {"page": 1128, "pages": 1192, "count": 23828, "items": 20}}