{"users": [{"id": 22646, "slack_id": "U09CALB4468", "display_name": "Max Rosenthal", "bio": null, "projects_count": 0, "devlogs_count": 0, "votes_count": 0, "ships_count": 0, "projects": [], "coding_time_seconds": 0, "coding_time_seconds_today": 0, "balance": "You need to have a pocket watcher badge to view this.", "badges": [], "created_at": "2025-08-26T21:43:56.077-04:00", "updated_at": "2025-09-01T01:16:59.767-04:00", "avatar": "https://avatars.slack-edge.com/2025-08-26/9410226725475_d72eb95cb6f409884b38_original.png", "custom_css": null}, {"id": 22647, "slack_id": "U09CAV0R728", "display_name": "Eli", "bio": null, "projects_count": 0, "devlogs_count": 0, "votes_count": 0, "ships_count": 0, "projects": [], "coding_time_seconds": 0, "coding_time_seconds_today": 0, "balance": "You need to have a pocket watcher badge to view this.", "badges": [], "created_at": "2025-08-26T23:17:12.279-04:00", "updated_at": "2025-08-27T22:01:31.689-04:00", "avatar": "https://secure.gravatar.com/avatar/f580f1226bbdff7b2d6aaa2cfce44944.jpg?s=512&d=https%3A%2F%2Fa.slack-edge.com%2Fdf10d%2Fimg%2Favatars%2Fava_0015-512.png", "custom_css": null}, {"id": 22648, "slack_id": "U09CB36HCGL", "display_name": "Youjia Wee", "bio": null, "projects_count": 0, "devlogs_count": 0, "votes_count": 0, "ships_count": 0, "projects": [], "coding_time_seconds": 0, "coding_time_seconds_today": 0, "balance": "You need to have a pocket watcher badge to view this.", "badges": [], "created_at": "2025-08-27T00:05:50.706-04:00", "updated_at": "2025-08-27T22:01:31.791-04:00", "avatar": "https://avatars.slack-edge.com/2025-08-26/9429033949169_af65fae338ba81365d4e_original.png", "custom_css": null}, {"id": 22649, "slack_id": "U09C6Q6M3L2", "display_name": "Manjesh Chaudhary", "bio": null, "projects_count": 0, "devlogs_count": 0, "votes_count": 0, "ships_count": 0, "projects": [], "coding_time_seconds": 0, "coding_time_seconds_today": 0, "balance": "You need to have a pocket watcher badge to view this.", "badges": [], "created_at": "2025-08-27T00:22:54.131-04:00", "updated_at": "2025-08-27T22:01:31.922-04:00", "avatar": "https://avatars.slack-edge.com/2025-08-26/9402409381399_a7a5fcacd9204ad050f2_original.jpg", "custom_css": null}, {"id": 22650, "slack_id": "U098LH55CM6", "display_name": "Shantanu Swami", "bio": null, "projects_count": 0, "devlogs_count": 0, "votes_count": 0, "ships_count": 0, "projects": [], "coding_time_seconds": 0, "coding_time_seconds_today": 0, "balance": "You need to have a pocket watcher badge to view this.", "badges": [], "created_at": "2025-08-27T01:10:20.289-04:00", "updated_at": "2025-08-27T22:01:32.109-04:00", "avatar": "https://avatars.slack-edge.com/2025-08-26/9410830461747_3838b768b9eac2671ab4_original.jpg", "custom_css": null}, {"id": 22651, "slack_id": "U09C5DAG361", "display_name": "Ethan", "bio": "Just Like making things out of nothing", "projects_count": 1, "devlogs_count": 3, "votes_count": 20, "ships_count": 1, "projects": [{"id": 12445, "title": "EAS Fetcher", "devlogs_count": 3, "created_at": "2025-08-27T14:07:54.761-04:00"}], "coding_time_seconds": 4151, "coding_time_seconds_today": 0, "balance": "You need to have a pocket watcher badge to view this.", "badges": [], "created_at": "2025-08-27T01:39:18.487-04:00", "updated_at": "2025-08-27T22:01:32.296-04:00", "avatar": "https://secure.gravatar.com/avatar/b76ee2251feadf64d717930cd7a7052d.jpg?s=512&d=https%3A%2F%2Fa.slack-edge.com%2Fdf10d%2Fimg%2Favatars%2Fava_0023-512.png", "custom_css": null}, {"id": 22652, "slack_id": "U09BUK4ESTH", "display_name": "Raaghav Manivel", "bio": null, "projects_count": 2, "devlogs_count": 0, "votes_count": 0, "ships_count": 0, "projects": [{"id": 12405, "title": "Kadena scaffold", "devlogs_count": 0, "created_at": "2025-08-27T02:17:57.822-04:00"}, {"id": 12406, "title": "NeuraForge", "devlogs_count": 0, "created_at": "2025-08-27T02:27:10.673-04:00"}], "coding_time_seconds": 34990, "coding_time_seconds_today": 1841, "balance": "You need to have a pocket watcher badge to view this.", "badges": [], "created_at": "2025-08-27T01:44:48.684-04:00", "updated_at": "2025-08-27T22:01:32.574-04:00", "avatar": "https://avatars.slack-edge.com/2025-08-26/9443425867232_a7ee99d2ab6aadb54538_original.png", "custom_css": null}, {"id": 22653, "slack_id": "U09BULCNHTR", "display_name": "Saif Ur Rasool", "bio": null, "projects_count": 0, "devlogs_count": 0, "votes_count": 0, "ships_count": 0, "projects": [], "coding_time_seconds": 0, "coding_time_seconds_today": 0, "balance": "You need to have a pocket watcher badge to view this.", "badges": [], "created_at": "2025-08-27T01:57:46.537-04:00", "updated_at": "2025-08-27T22:01:32.716-04:00", "avatar": "https://secure.gravatar.com/avatar/616bd452b97dde322ee76ba298777dec.jpg?s=512&d=https%3A%2F%2Fa.slack-edge.com%2Fdf10d%2Fimg%2Favatars%2Fava_0007-512.png", "custom_css": null}, {"id": 22654, "slack_id": "U09D1CWELU8", "display_name": "naki", "bio": "", "projects_count": 0, "devlogs_count": 0, "votes_count": 0, "ships_count": 0, "projects": [], "coding_time_seconds": 13528, "coding_time_seconds_today": 0, "balance": "You need to have a pocket watcher badge to view this.", "badges": [], "created_at": "2025-08-27T02:05:37.969-04:00", "updated_at": "2025-09-01T10:00:50.041-04:00", "avatar": "https://avatars.slack-edge.com/2025-09-01/9438754072277_35da29bb2f91c3b3c88e_original.png", "custom_css": null}, {"id": 22655, "slack_id": "U09C95D005U", "display_name": "Karan Kumar", "bio": null, "projects_count": 0, "devlogs_count": 0, "votes_count": 0, "ships_count": 0, "projects": [], "coding_time_seconds": 0, "coding_time_seconds_today": 0, "balance": "You need to have a pocket watcher badge to view this.", "badges": [], "created_at": "2025-08-27T02:05:39.446-04:00", "updated_at": "2025-08-27T22:01:32.945-04:00", "avatar": "https://secure.gravatar.com/avatar/e399c8a099455d2b4c243a3319fc2c57.jpg?s=512&d=https%3A%2F%2Fa.slack-edge.com%2Fdf10d%2Fimg%2Favatars%2Fava_0009-512.png", "custom_css": null}, {"id": 22656, "slack_id": "U07PDF72WQ0", "display_name": "Darcy Wang", "bio": null, "projects_count": 0, "devlogs_count": 0, "votes_count": 0, "ships_count": 0, "projects": [], "coding_time_seconds": 0, "coding_time_seconds_today": 0, "balance": "You need to have a pocket watcher badge to view this.", "badges": [], "created_at": "2025-08-27T03:01:44.590-04:00", "updated_at": "2025-08-27T03:02:41.832-04:00", "avatar": "https://avatars.slack-edge.com/2024-09-25/7780758786101_3cb0226f1b4c5bc883d5_original.jpg", "custom_css": null}, {"id": 22657, "slack_id": "U08UMNKPVSR", "display_name": "Ian Osorio", "bio": null, "projects_count": 1, "devlogs_count": 0, "votes_count": 1, "ships_count": 0, "projects": [{"id": 12556, "title": "ObsidianGPT", "devlogs_count": 0, "created_at": "2025-08-29T12:46:31.514-04:00"}], "coding_time_seconds": 8924, "coding_time_seconds_today": 2300, "balance": "You need to have a pocket watcher badge to view this.", "badges": [], "created_at": "2025-08-27T04:03:13.904-04:00", "updated_at": "2025-08-27T07:00:05.194-04:00", "avatar": "https://secure.gravatar.com/avatar/d2986510bc215f7d85d96db51190d6d6.jpg?s=512&d=https%3A%2F%2Fa.slack-edge.com%2Fdf10d%2Fimg%2Favatars%2Fava_0019-512.png", "custom_css": null}, {"id": 22658, "slack_id": "U09BV8210K1", "display_name": "Manuela", "bio": null, "projects_count": 0, "devlogs_count": 0, "votes_count": 0, "ships_count": 0, "projects": [], "coding_time_seconds": 0, "coding_time_seconds_today": 0, "balance": "You need to have a pocket watcher badge to view this.", "badges": [], "created_at": "2025-08-27T04:18:56.602-04:00", "updated_at": "2025-08-27T22:01:33.299-04:00", "avatar": "https://secure.gravatar.com/avatar/c2758e31bb8d545730d030e3a68559b2.jpg?s=512&d=https%3A%2F%2Fa.slack-edge.com%2Fdf10d%2Fimg%2Favatars%2Fava_0006-512.png", "custom_css": null}, {"id": 22659, "slack_id": "U09C832RGJW", "display_name": "William", "bio": null, "projects_count": 1, "devlogs_count": 1, "votes_count": 20, "ships_count": 1, "projects": [{"id": 12416, "title": "Gemeni Screen Capture", "devlogs_count": 1, "created_at": "2025-08-27T06:14:58.353-04:00"}], "coding_time_seconds": 10284, "coding_time_seconds_today": 0, "balance": "You need to have a pocket watcher badge to view this.", "badges": [], "created_at": "2025-08-27T05:34:04.850-04:00", "updated_at": "2025-08-27T07:00:37.211-04:00", "avatar": "https://secure.gravatar.com/avatar/b6c19ceecefebe55b1e089a8d52c15d9.jpg?s=512&d=https%3A%2F%2Fa.slack-edge.com%2Fdf10d%2Fimg%2Favatars%2Fava_0023-512.png", "custom_css": null}, {"id": 22660, "slack_id": "U0793CJ9W4E", "display_name": "Adarsh Gupta", "bio": null, "projects_count": 0, "devlogs_count": 0, "votes_count": 0, "ships_count": 0, "projects": [], "coding_time_seconds": 0, "coding_time_seconds_today": 0, "balance": "You need to have a pocket watcher badge to view this.", "badges": [], "created_at": "2025-08-27T05:40:41.893-04:00", "updated_at": "2025-08-27T06:33:24.198-04:00", "avatar": "https://avatars.slack-edge.com/2024-06-21/7315946477827_ac8ada82872214595568_original.jpg", "custom_css": null}, {"id": 22661, "slack_id": "U09CN9DH8L9", "display_name": "Ngufor Zijong", "bio": null, "projects_count": 0, "devlogs_count": 0, "votes_count": 0, "ships_count": 0, "projects": [], "coding_time_seconds": 0, "coding_time_seconds_today": 0, "balance": "You need to have a pocket watcher badge to view this.", "badges": [], "created_at": "2025-08-27T05:51:58.945-04:00", "updated_at": "2025-08-27T22:01:37.889-04:00", "avatar": "https://secure.gravatar.com/avatar/f43f5ff979fe7a63d3902fce5afc79d0.jpg?s=512&d=https%3A%2F%2Fa.slack-edge.com%2Fdf10d%2Fimg%2Favatars%2Fava_0006-512.png", "custom_css": null}, {"id": 22662, "slack_id": "U09C41C87QT", "display_name": "ssk", "bio": null, "projects_count": 0, "devlogs_count": 0, "votes_count": 0, "ships_count": 0, "projects": [], "coding_time_seconds": 0, "coding_time_seconds_today": 0, "balance": "You need to have a pocket watcher badge to view this.", "badges": [], "created_at": "2025-08-27T06:06:14.031-04:00", "updated_at": "2025-08-27T22:01:37.998-04:00", "avatar": "https://secure.gravatar.com/avatar/dfe61e551f6bc83e9fdbdde7c77d78fc.jpg?s=512&d=https%3A%2F%2Fa.slack-edge.com%2Fdf10d%2Fimg%2Favatars%2Fava_0015-512.png", "custom_css": null}, {"id": 22663, "slack_id": "U09D2LEHGAC", "display_name": "samrat", "bio": "hello i am a ", "projects_count": 0, "devlogs_count": 0, "votes_count": 1, "ships_count": 0, "projects": [], "coding_time_seconds": 0, "coding_time_seconds_today": 0, "balance": "You need to have a pocket watcher badge to view this.", "badges": [], "created_at": "2025-08-27T06:52:00.964-04:00", "updated_at": "2025-08-27T22:01:38.095-04:00", "avatar": "https://secure.gravatar.com/avatar/6bda3db1e07f8597537d8b8be40646e8.jpg?s=512&d=https%3A%2F%2Fa.slack-edge.com%2Fdf10d%2Fimg%2Favatars%2Fava_0001-512.png", "custom_css": null}, {"id": 22664, "slack_id": "U09C73G6P61", "display_name": "Utkarsh Gautam", "bio": null, "projects_count": 0, "devlogs_count": 0, "votes_count": 0, "ships_count": 0, "projects": [], "coding_time_seconds": 0, "coding_time_seconds_today": 0, "balance": "You need to have a pocket watcher badge to view this.", "badges": [], "created_at": "2025-08-27T07:01:14.050-04:00", "updated_at": "2025-08-27T22:01:38.208-04:00", "avatar": "https://secure.gravatar.com/avatar/5691ae23d16aa00cd32a1bc6ef938a8d.jpg?s=512&d=https%3A%2F%2Fa.slack-edge.com%2Fdf10d%2Fimg%2Favatars%2Fava_0000-512.png", "custom_css": null}, {"id": 22665, "slack_id": "U09C742QZ6H", "display_name": "Tanveer Qasim", "bio": null, "projects_count": 0, "devlogs_count": 0, "votes_count": 0, "ships_count": 0, "projects": [], "coding_time_seconds": 0, "coding_time_seconds_today": 0, "balance": "You need to have a pocket watcher badge to view this.", "badges": [], "created_at": "2025-08-27T07:05:42.166-04:00", "updated_at": "2025-08-27T22:01:38.310-04:00", "avatar": "https://avatars.slack-edge.com/2025-08-27/9444767516544_3008a5e681f490e2392f_original.jpg", "custom_css": null}], "pagination": {"page": 1129, "pages": 1192, "count": 23828, "items": 20}}