{"users": [{"id": 2241, "slack_id": "U091Q5B70UA", "display_name": "Chatchawan von Illyes", "bio": null, "projects_count": 0, "devlogs_count": 0, "votes_count": 0, "ships_count": 0, "projects": [], "coding_time_seconds": 0, "coding_time_seconds_today": 0, "balance": "You need to have a pocket watcher badge to view this.", "badges": [], "created_at": "2025-06-16T15:05:18.452-04:00", "updated_at": "2025-07-03T19:21:21.963-04:00", "avatar": "https://avatars.slack-edge.com/2025-06-16/9056414153861_fab694730b25e7fa65c7_original.png", "custom_css": null}, {"id": 2242, "slack_id": "U091EDVA6HH", "display_name": "Mahad", "bio": null, "projects_count": 0, "devlogs_count": 0, "votes_count": 0, "ships_count": 0, "projects": [], "coding_time_seconds": 0, "coding_time_seconds_today": 0, "balance": "You need to have a pocket watcher badge to view this.", "badges": [], "created_at": "2025-06-16T15:05:30.108-04:00", "updated_at": "2025-07-03T19:21:22.231-04:00", "avatar": "https://secure.gravatar.com/avatar/2b3de474cec4cc4ce281d791af212808.jpg?s=512&d=https%3A%2F%2Fa.slack-edge.com%2Fdf10d%2Fimg%2Favatars%2Fava_0023-512.png", "custom_css": null}, {"id": 2243, "slack_id": "U091H9LFM1U", "display_name": "Ayan Bhowmik", "bio": null, "projects_count": 0, "devlogs_count": 0, "votes_count": 0, "ships_count": 0, "projects": [], "coding_time_seconds": 3352, "coding_time_seconds_today": 0, "balance": "You need to have a pocket watcher badge to view this.", "badges": [], "created_at": "2025-06-16T15:05:37.019-04:00", "updated_at": "2025-07-03T19:21:22.498-04:00", "avatar": "https://secure.gravatar.com/avatar/054a9fd346f73d183b79186579aa7a43.jpg?s=512&d=https%3A%2F%2Fa.slack-edge.com%2Fdf10d%2Fimg%2Favatars%2Fava_0026-512.png", "custom_css": null}, {"id": 2244, "slack_id": "U091H6Y7HDH", "display_name": "Amin Chaloukh El Mohammadi", "bio": null, "projects_count": 0, "devlogs_count": 0, "votes_count": 0, "ships_count": 0, "projects": [], "coding_time_seconds": 0, "coding_time_seconds_today": 0, "balance": "You need to have a pocket watcher badge to view this.", "badges": [], "created_at": "2025-06-16T15:05:45.741-04:00", "updated_at": "2025-07-03T19:21:22.780-04:00", "avatar": "https://avatars.slack-edge.com/2025-06-16/9051358784726_88ee5f1307e62a1990f6_original.jpg", "custom_css": null}, {"id": 2245, "slack_id": "U091H6R9K1R", "display_name": "Joash Biji", "bio": null, "projects_count": 0, "devlogs_count": 0, "votes_count": 0, "ships_count": 0, "projects": [], "coding_time_seconds": 383, "coding_time_seconds_today": 0, "balance": "You need to have a pocket watcher badge to view this.", "badges": [], "created_at": "2025-06-16T15:05:52.013-04:00", "updated_at": "2025-07-03T19:21:23.072-04:00", "avatar": "https://avatars.slack-edge.com/2025-06-16/9056434962517_b81d3999614dd0c41038_original.jpg", "custom_css": null}, {"id": 2246, "slack_id": "U0918RGSX7Z", "display_name": "Shikhar Mani Tripathi", "bio": null, "projects_count": 0, "devlogs_count": 0, "votes_count": 0, "ships_count": 0, "projects": [], "coding_time_seconds": 0, "coding_time_seconds_today": 0, "balance": "You need to have a pocket watcher badge to view this.", "badges": [], "created_at": "2025-06-16T15:06:18.605-04:00", "updated_at": "2025-07-03T19:21:23.343-04:00", "avatar": "https://secure.gravatar.com/avatar/cc36434a63fbcd7bffd64ab8f29b000e.jpg?s=512&d=https%3A%2F%2Fa.slack-edge.com%2Fdf10d%2Fimg%2Favatars%2Fava_0025-512.png", "custom_css": null}, {"id": 2247, "slack_id": "U0922LM9WG1", "display_name": "Olga", "bio": null, "projects_count": 0, "devlogs_count": 0, "votes_count": 0, "ships_count": 0, "projects": [], "coding_time_seconds": 0, "coding_time_seconds_today": 0, "balance": "You need to have a pocket watcher badge to view this.", "badges": [], "created_at": "2025-06-16T15:06:26.157-04:00", "updated_at": "2025-07-03T19:21:23.622-04:00", "avatar": "https://secure.gravatar.com/avatar/b604229aace7e8da518d244d5876e19f.jpg?s=512&d=https%3A%2F%2Fa.slack-edge.com%2Fdf10d%2Fimg%2Favatars%2Fava_0017-512.png", "custom_css": null}, {"id": 2248, "slack_id": "U092CJVC7L0", "display_name": "Jannetta Steyn", "bio": null, "projects_count": 0, "devlogs_count": 0, "votes_count": 0, "ships_count": 0, "projects": [], "coding_time_seconds": 0, "coding_time_seconds_today": 0, "balance": "You need to have a pocket watcher badge to view this.", "badges": [], "created_at": "2025-06-16T15:06:27.060-04:00", "updated_at": "2025-07-03T19:21:23.893-04:00", "avatar": "https://secure.gravatar.com/avatar/f70e8cc0f08fdb41fceecb6f7637008a.jpg?s=512&d=https%3A%2F%2Fa.slack-edge.com%2Fdf10d%2Fimg%2Favatars%2Fava_0015-512.png", "custom_css": null}, {"id": 2249, "slack_id": "U08261344EQ", "display_name": "Cristi", "bio": null, "projects_count": 0, "devlogs_count": 0, "votes_count": 0, "ships_count": 0, "projects": [], "coding_time_seconds": 276190, "coding_time_seconds_today": 0, "balance": "You need to have a pocket watcher badge to view this.", "badges": [], "created_at": "2025-06-16T15:06:27.968-04:00", "updated_at": "2025-08-22T12:37:39.544-04:00", "avatar": "https://avatars.slack-edge.com/2025-03-02/8520348289047_7a1791900bed91674174_original.png", "custom_css": null}, {"id": 2250, "slack_id": "U092CJH6DB2", "display_name": "Anas Khalid", "bio": null, "projects_count": 0, "devlogs_count": 0, "votes_count": 0, "ships_count": 0, "projects": [], "coding_time_seconds": 0, "coding_time_seconds_today": 0, "balance": "You need to have a pocket watcher badge to view this.", "badges": [], "created_at": "2025-06-16T15:06:28.579-04:00", "updated_at": "2025-07-03T19:21:24.511-04:00", "avatar": "https://secure.gravatar.com/avatar/171404b59f4ae393fe6afe216b74fe27.jpg?s=512&d=https%3A%2F%2Fa.slack-edge.com%2Fdf10d%2Fimg%2Favatars%2Fava_0026-512.png", "custom_css": null}, {"id": 2251, "slack_id": "U091HA56F1C", "display_name": "p233049 Abrar Nasir Jaffari", "bio": null, "projects_count": 0, "devlogs_count": 0, "votes_count": 0, "ships_count": 0, "projects": [], "coding_time_seconds": 0, "coding_time_seconds_today": 0, "balance": "You need to have a pocket watcher badge to view this.", "badges": [], "created_at": "2025-06-16T15:06:50.616-04:00", "updated_at": "2025-07-03T19:21:24.784-04:00", "avatar": "https://avatars.slack-edge.com/2025-06-16/9051363622006_746893353b04238b907f_original.png", "custom_css": null}, {"id": 2252, "slack_id": "U091NBQAE2H", "display_name": "Croissant", "bio": null, "projects_count": 0, "devlogs_count": 0, "votes_count": 0, "ships_count": 0, "projects": [], "coding_time_seconds": 0, "coding_time_seconds_today": 0, "balance": "You need to have a pocket watcher badge to view this.", "badges": [], "created_at": "2025-06-16T15:06:59.595-04:00", "updated_at": "2025-07-03T19:21:25.061-04:00", "avatar": "https://secure.gravatar.com/avatar/ac7f21b94ee2da47281f0f923b654b26.jpg?s=512&d=https%3A%2F%2Fa.slack-edge.com%2Fdf10d%2Fimg%2Favatars%2Fava_0007-512.png", "custom_css": null}, {"id": 2253, "slack_id": "U0918RQS65D", "display_name": "Milo thorngage", "bio": null, "projects_count": 0, "devlogs_count": 0, "votes_count": 0, "ships_count": 0, "projects": [], "coding_time_seconds": 15540, "coding_time_seconds_today": 0, "balance": "You need to have a pocket watcher badge to view this.", "badges": [], "created_at": "2025-06-16T15:07:09.140-04:00", "updated_at": "2025-07-03T19:21:25.329-04:00", "avatar": "https://secure.gravatar.com/avatar/5f2102f2fc178e5ab8604444512e824f.jpg?s=512&d=https%3A%2F%2Fa.slack-edge.com%2Fdf10d%2Fimg%2Favatars%2Fava_0020-512.png", "custom_css": null}, {"id": 2254, "slack_id": "U091Q5JFJG2", "display_name": "Thien", "bio": null, "projects_count": 0, "devlogs_count": 0, "votes_count": 0, "ships_count": 0, "projects": [], "coding_time_seconds": 0, "coding_time_seconds_today": 0, "balance": "You need to have a pocket watcher badge to view this.", "badges": [], "created_at": "2025-06-16T15:07:13.146-04:00", "updated_at": "2025-07-03T19:21:25.600-04:00", "avatar": "https://secure.gravatar.com/avatar/8e35b9cb06599a3425d2bc148aacd562.jpg?s=512&d=https%3A%2F%2Fa.slack-edge.com%2Fdf10d%2Fimg%2Favatars%2Fava_0021-512.png", "custom_css": null}, {"id": 2255, "slack_id": "U0918RTHR4P", "display_name": "Yusen Jiao", "bio": null, "projects_count": 0, "devlogs_count": 0, "votes_count": 0, "ships_count": 0, "projects": [], "coding_time_seconds": 0, "coding_time_seconds_today": 0, "balance": "You need to have a pocket watcher badge to view this.", "badges": [], "created_at": "2025-06-16T15:07:28.062-04:00", "updated_at": "2025-07-03T19:21:25.867-04:00", "avatar": "https://secure.gravatar.com/avatar/50af10add51be2745a8448afef899394.jpg?s=512&d=https%3A%2F%2Fa.slack-edge.com%2Fdf10d%2Fimg%2Favatars%2Fava_0006-512.png", "custom_css": null}, {"id": 2256, "slack_id": "U0918RUHNMV", "display_name": "ANGELO TORELLA", "bio": null, "projects_count": 0, "devlogs_count": 0, "votes_count": 0, "ships_count": 0, "projects": [], "coding_time_seconds": 0, "coding_time_seconds_today": 0, "balance": "You need to have a pocket watcher badge to view this.", "badges": [], "created_at": "2025-06-16T15:07:28.236-04:00", "updated_at": "2025-07-03T19:21:26.133-04:00", "avatar": "https://avatars.slack-edge.com/2025-06-16/9042892169447_85efe6259fe7c8574695_original.jpg", "custom_css": null}, {"id": 2257, "slack_id": "U091Q5FL1DG", "display_name": "Florian", "bio": null, "projects_count": 1, "devlogs_count": 0, "votes_count": 0, "ships_count": 0, "projects": [{"id": 4042, "title": "TaxDOM", "devlogs_count": 0, "created_at": "2025-06-27T03:10:38.485-04:00"}], "coding_time_seconds": 4728, "coding_time_seconds_today": 0, "balance": "You need to have a pocket watcher badge to view this.", "badges": [], "created_at": "2025-06-16T15:07:37.862-04:00", "updated_at": "2025-07-03T19:21:26.411-04:00", "avatar": "https://secure.gravatar.com/avatar/f3e9e819b7deb0cb6f250be49de937de.jpg?s=512&d=https%3A%2F%2Fa.slack-edge.com%2Fdf10d%2Fimg%2Favatars%2Fava_0005-512.png", "custom_css": null}, {"id": 2258, "slack_id": "U091QGG7GJ0", "display_name": "iris", "bio": null, "projects_count": 0, "devlogs_count": 0, "votes_count": 0, "ships_count": 0, "projects": [], "coding_time_seconds": 0, "coding_time_seconds_today": 0, "balance": "You need to have a pocket watcher badge to view this.", "badges": [], "created_at": "2025-06-16T15:07:42.422-04:00", "updated_at": "2025-07-03T19:21:26.676-04:00", "avatar": "https://secure.gravatar.com/avatar/ca21d86bef459d2f631b851e26dcf2be.jpg?s=512&d=https%3A%2F%2Fa.slack-edge.com%2Fdf10d%2Fimg%2Favatars%2Fava_0002-512.png", "custom_css": null}, {"id": 2259, "slack_id": "U091QGRKHHS", "display_name": "outsparkled", "bio": null, "projects_count": 0, "devlogs_count": 0, "votes_count": 0, "ships_count": 0, "projects": [], "coding_time_seconds": 0, "coding_time_seconds_today": 0, "balance": "You need to have a pocket watcher badge to view this.", "badges": [], "created_at": "2025-06-16T15:08:07.584-04:00", "updated_at": "2025-07-03T19:21:26.959-04:00", "avatar": "https://secure.gravatar.com/avatar/856e5919dc8125092446b9e3e056d224.jpg?s=512&d=https%3A%2F%2Fa.slack-edge.com%2Fdf10d%2Fimg%2Favatars%2Fava_0025-512.png", "custom_css": null}, {"id": 2260, "slack_id": "U091H59CETV", "display_name": "Vikas Mishra", "bio": null, "projects_count": 0, "devlogs_count": 0, "votes_count": 0, "ships_count": 0, "projects": [], "coding_time_seconds": 0, "coding_time_seconds_today": 0, "balance": "You need to have a pocket watcher badge to view this.", "badges": [], "created_at": "2025-06-16T15:08:17.364-04:00", "updated_at": "2025-07-03T19:21:27.233-04:00", "avatar": "https://avatars.slack-edge.com/2025-06-16/9058209262178_6157df04fb6aa2b24cf3_original.jpg", "custom_css": null}], "pagination": {"page": 113, "pages": 1192, "count": 23828, "items": 20}}