{"users": [{"id": 22666, "slack_id": "U09C8HK6YCA", "display_name": "sri", "bio": null, "projects_count": 0, "devlogs_count": 0, "votes_count": 0, "ships_count": 0, "projects": [], "coding_time_seconds": 0, "coding_time_seconds_today": 0, "balance": "You need to have a pocket watcher badge to view this.", "badges": [], "created_at": "2025-08-27T07:28:29.644-04:00", "updated_at": "2025-08-27T22:01:38.456-04:00", "avatar": "https://avatars.slack-edge.com/2025-08-27/9418563821686_3af9e26182caa1dd2927_original.jpg", "custom_css": null}, {"id": 22667, "slack_id": "U09CD1RBE9J", "display_name": "bitpbl_", "bio": null, "projects_count": 0, "devlogs_count": 0, "votes_count": 0, "ships_count": 0, "projects": [], "coding_time_seconds": 0, "coding_time_seconds_today": 0, "balance": "You need to have a pocket watcher badge to view this.", "badges": [], "created_at": "2025-08-27T07:51:21.062-04:00", "updated_at": "2025-08-27T22:01:38.596-04:00", "avatar": "https://secure.gravatar.com/avatar/ff784664657a530365dedb5e8e72d9ee.jpg?s=512&d=https%3A%2F%2Fa.slack-edge.com%2Fdf10d%2Fimg%2Favatars%2Fava_0010-512.png", "custom_css": null}, {"id": 22668, "slack_id": "U09C4E07YQ3", "display_name": "Subhrajit Sain", "bio": "I am an Indian who likes to make stuff.\r\nhttps://anw.is-a.dev", "projects_count": 0, "devlogs_count": 0, "votes_count": 0, "ships_count": 0, "projects": [], "coding_time_seconds": 38193, "coding_time_seconds_today": 1220, "balance": "You need to have a pocket watcher badge to view this.", "badges": [], "created_at": "2025-08-27T07:59:25.199-04:00", "updated_at": "2025-08-27T22:01:38.708-04:00", "avatar": "https://avatars.slack-edge.com/2025-08-27/9421110072164_00fe91a105f65f2522a5_original.png", "custom_css": null}, {"id": 22669, "slack_id": "U09C7H69KGD", "display_name": "AJAY JOSEPH", "bio": null, "projects_count": 0, "devlogs_count": 0, "votes_count": 0, "ships_count": 0, "projects": [], "coding_time_seconds": 0, "coding_time_seconds_today": 0, "balance": "You need to have a pocket watcher badge to view this.", "badges": [], "created_at": "2025-08-27T08:49:44.991-04:00", "updated_at": "2025-08-28T03:08:04.663-04:00", "avatar": "https://secure.gravatar.com/avatar/01fb65d4937c8cbffb22cf22f0dd6f51.jpg?s=512&d=https%3A%2F%2Fa.slack-edge.com%2Fdf10d%2Fimg%2Favatars%2Fava_0018-512.png", "custom_css": null}, {"id": 22670, "slack_id": "U09CARXL87Q", "display_name": "OTHMAN", "bio": null, "projects_count": 0, "devlogs_count": 0, "votes_count": 0, "ships_count": 0, "projects": [], "coding_time_seconds": 0, "coding_time_seconds_today": 0, "balance": "You need to have a pocket watcher badge to view this.", "badges": [], "created_at": "2025-08-27T08:51:19.978-04:00", "updated_at": "2025-08-27T22:01:38.922-04:00", "avatar": "https://secure.gravatar.com/avatar/ec754d5afb6f0038eac448d9e4325425.jpg?s=512&d=https%3A%2F%2Fa.slack-edge.com%2Fdf10d%2Fimg%2Favatars%2Fava_0005-512.png", "custom_css": null}, {"id": 22671, "slack_id": "U09C4QSL14K", "display_name": "Andrew F", "bio": null, "projects_count": 0, "devlogs_count": 0, "votes_count": 0, "ships_count": 0, "projects": [], "coding_time_seconds": 44180, "coding_time_seconds_today": 0, "balance": "You need to have a pocket watcher badge to view this.", "badges": [], "created_at": "2025-08-27T09:12:10.840-04:00", "updated_at": "2025-08-27T22:01:39.016-04:00", "avatar": "https://secure.gravatar.com/avatar/5f64d8537201f3859de3b097765e827d.jpg?s=512&d=https%3A%2F%2Fa.slack-edge.com%2Fdf10d%2Fimg%2Favatars%2Fava_0026-512.png", "custom_css": null}, {"id": 22672, "slack_id": "U09CD7ZRN04", "display_name": "Ashish Anand", "bio": null, "projects_count": 0, "devlogs_count": 0, "votes_count": 0, "ships_count": 0, "projects": [], "coding_time_seconds": 0, "coding_time_seconds_today": 0, "balance": "You need to have a pocket watcher badge to view this.", "badges": [], "created_at": "2025-08-27T09:14:19.418-04:00", "updated_at": "2025-08-27T22:01:39.110-04:00", "avatar": "https://secure.gravatar.com/avatar/ad848286efc596450d2f61abb206c2a2.jpg?s=512&d=https%3A%2F%2Fa.slack-edge.com%2Fdf10d%2Fimg%2Favatars%2Fava_0012-512.png", "custom_css": null}, {"id": 22673, "slack_id": "U08AM1ESV8A", "display_name": "Bhavika Gulati", "bio": null, "projects_count": 0, "devlogs_count": 0, "votes_count": 0, "ships_count": 0, "projects": [], "coding_time_seconds": 0, "coding_time_seconds_today": 0, "balance": "You need to have a pocket watcher badge to view this.", "badges": [], "created_at": "2025-08-27T09:24:12.029-04:00", "updated_at": "2025-08-27T09:27:31.075-04:00", "avatar": "https://avatars.slack-edge.com/2025-01-28/8363583176196_993a5ae55d9cd00f7633_original.png", "custom_css": null}, {"id": 22674, "slack_id": "U09D3GUD92L", "display_name": "Arshiya Imran", "bio": null, "projects_count": 0, "devlogs_count": 0, "votes_count": 0, "ships_count": 0, "projects": [], "coding_time_seconds": 0, "coding_time_seconds_today": 0, "balance": "You need to have a pocket watcher badge to view this.", "badges": [], "created_at": "2025-08-27T10:02:28.840-04:00", "updated_at": "2025-08-27T22:01:39.279-04:00", "avatar": "https://secure.gravatar.com/avatar/f0004ccec585ff674357b9ee7acb31af.jpg?s=512&d=https%3A%2F%2Fa.slack-edge.com%2Fdf10d%2Fimg%2Favatars%2Fava_0026-512.png", "custom_css": null}, {"id": 22675, "slack_id": "U09BWJQCARM", "display_name": "marin", "bio": null, "projects_count": 0, "devlogs_count": 0, "votes_count": 0, "ships_count": 0, "projects": [], "coding_time_seconds": 0, "coding_time_seconds_today": 0, "balance": "You need to have a pocket watcher badge to view this.", "badges": [], "created_at": "2025-08-27T10:04:02.544-04:00", "updated_at": "2025-08-27T22:01:39.374-04:00", "avatar": "https://secure.gravatar.com/avatar/337e1a9964ab26bd7945d313866a6fdc.jpg?s=512&d=https%3A%2F%2Fa.slack-edge.com%2Fdf10d%2Fimg%2Favatars%2Fava_0020-512.png", "custom_css": null}, {"id": 22676, "slack_id": "U09C9HYSURG", "display_name": "linus", "bio": null, "projects_count": 0, "devlogs_count": 0, "votes_count": 0, "ships_count": 0, "projects": [], "coding_time_seconds": 0, "coding_time_seconds_today": 0, "balance": "You need to have a pocket watcher badge to view this.", "badges": [], "created_at": "2025-08-27T10:25:17.587-04:00", "updated_at": "2025-08-27T22:01:43.596-04:00", "avatar": "https://secure.gravatar.com/avatar/1df9ef918dc1067137561d291e194c6c.jpg?s=512&d=https%3A%2F%2Fa.slack-edge.com%2Fdf10d%2Fimg%2Favatars%2Fava_0023-512.png", "custom_css": null}, {"id": 22677, "slack_id": "U09BNK03A3V", "display_name": "Ahmed Mohamed Farouk", "bio": null, "projects_count": 0, "devlogs_count": 0, "votes_count": 0, "ships_count": 0, "projects": [], "coding_time_seconds": 0, "coding_time_seconds_today": 0, "balance": "You need to have a pocket watcher badge to view this.", "badges": [], "created_at": "2025-08-27T10:26:53.735-04:00", "updated_at": "2025-08-27T22:01:43.694-04:00", "avatar": "https://secure.gravatar.com/avatar/4189b74cc3345a883aa4b59ef9e37f7d.jpg?s=512&d=https%3A%2F%2Fa.slack-edge.com%2Fdf10d%2Fimg%2Favatars%2Fava_0000-512.png", "custom_css": null}, {"id": 22678, "slack_id": "U09CPNJ94AV", "display_name": "ckaichen", "bio": null, "projects_count": 0, "devlogs_count": 0, "votes_count": 0, "ships_count": 0, "projects": [], "coding_time_seconds": 120, "coding_time_seconds_today": 0, "balance": "You need to have a pocket watcher badge to view this.", "badges": [], "created_at": "2025-08-27T10:28:49.591-04:00", "updated_at": "2025-08-27T22:01:43.793-04:00", "avatar": "https://secure.gravatar.com/avatar/59e1fdb05aaae07490108d9881a054c9.jpg?s=512&d=https%3A%2F%2Fa.slack-edge.com%2Fdf10d%2Fimg%2Favatars%2Fava_0004-512.png", "custom_css": null}, {"id": 22679, "slack_id": "U09CE27UCUC", "display_name": "Manjesh Bhaskar", "bio": "", "projects_count": 1, "devlogs_count": 2, "votes_count": 0, "ships_count": 0, "projects": [{"id": 13063, "title": "Self Made Drone", "devlogs_count": 2, "created_at": "2025-09-08T00:06:21.991-04:00"}], "coding_time_seconds": 17801, "coding_time_seconds_today": 0, "balance": "You need to have a pocket watcher badge to view this.", "badges": [], "created_at": "2025-08-27T10:42:48.719-04:00", "updated_at": "2025-09-08T00:09:12.049-04:00", "avatar": "https://avatars.slack-edge.com/2025-08-27/9419571711366_844b67fbd1463a145ace_original.png", "custom_css": null}, {"id": 22680, "slack_id": "U09D3TPJ6JU", "display_name": "Rajesh", "bio": null, "projects_count": 0, "devlogs_count": 0, "votes_count": 0, "ships_count": 0, "projects": [], "coding_time_seconds": 0, "coding_time_seconds_today": 0, "balance": "You need to have a pocket watcher badge to view this.", "badges": [], "created_at": "2025-08-27T10:58:17.127-04:00", "updated_at": "2025-08-27T22:01:44.233-04:00", "avatar": "https://secure.gravatar.com/avatar/386a2c6e96653818968182a634f5df22.jpg?s=512&d=https%3A%2F%2Fa.slack-edge.com%2Fdf10d%2Fimg%2Favatars%2Fava_0016-512.png", "custom_css": null}, {"id": 22681, "slack_id": "U09CBNC7DM4", "display_name": "Tone00", "bio": null, "projects_count": 0, "devlogs_count": 0, "votes_count": 0, "ships_count": 0, "projects": [], "coding_time_seconds": 0, "coding_time_seconds_today": 0, "balance": "You need to have a pocket watcher badge to view this.", "badges": [], "created_at": "2025-08-27T11:17:54.084-04:00", "updated_at": "2025-08-27T22:01:44.573-04:00", "avatar": "https://secure.gravatar.com/avatar/ee0874056bc9b7ef9d8ba7a0e221129b.jpg?s=512&d=https%3A%2F%2Fa.slack-edge.com%2Fdf10d%2Fimg%2Favatars%2Fava_0024-512.png", "custom_css": null}, {"id": 22682, "slack_id": "U09BXAX5JKH", "display_name": "KIO2gamer", "bio": null, "projects_count": 1, "devlogs_count": 0, "votes_count": 0, "ships_count": 0, "projects": [{"id": 12436, "title": "Discord bot with extensive features", "devlogs_count": 0, "created_at": "2025-08-27T11:43:57.790-04:00"}], "coding_time_seconds": 39849, "coding_time_seconds_today": 0, "balance": "You need to have a pocket watcher badge to view this.", "badges": [], "created_at": "2025-08-27T11:18:20.464-04:00", "updated_at": "2025-09-20T07:00:17.970-04:00", "avatar": "https://secure.gravatar.com/avatar/e964a4cc06c309df3a5e3b641d823bb6.jpg?s=512&d=https%3A%2F%2Fa.slack-edge.com%2Fdf10d%2Fimg%2Favatars%2Fava_0014-512.png", "custom_css": null}, {"id": 22683, "slack_id": "U09CBPYLUDU", "display_name": "Marcell Nagy", "bio": null, "projects_count": 0, "devlogs_count": 0, "votes_count": 0, "ships_count": 0, "projects": [], "coding_time_seconds": 0, "coding_time_seconds_today": 0, "balance": "You need to have a pocket watcher badge to view this.", "badges": [], "created_at": "2025-08-27T11:27:23.391-04:00", "updated_at": "2025-08-28T09:52:28.368-04:00", "avatar": "https://secure.gravatar.com/avatar/d777ba14f3a772f9300db3869b048d9f.jpg?s=512&d=https%3A%2F%2Fa.slack-edge.com%2Fdf10d%2Fimg%2Favatars%2Fava_0017-512.png", "custom_css": null}, {"id": 22684, "slack_id": "U09CBRLR0DC", "display_name": "Shreya Garai", "bio": null, "projects_count": 0, "devlogs_count": 0, "votes_count": 0, "ships_count": 0, "projects": [], "coding_time_seconds": 0, "coding_time_seconds_today": 0, "balance": "You need to have a pocket watcher badge to view this.", "badges": [], "created_at": "2025-08-27T12:04:11.270-04:00", "updated_at": "2025-08-28T03:56:42.907-04:00", "avatar": "https://secure.gravatar.com/avatar/2f5526237ca06d5026fd3aa493e33977.jpg?s=512&d=https%3A%2F%2Fa.slack-edge.com%2Fdf10d%2Fimg%2Favatars%2Fava_0008-512.png", "custom_css": null}, {"id": 22685, "slack_id": "U09C5PSLW2X", "display_name": "Pranamya Shrinarasi", "bio": null, "projects_count": 0, "devlogs_count": 0, "votes_count": 0, "ships_count": 0, "projects": [], "coding_time_seconds": 0, "coding_time_seconds_today": 0, "balance": "You need to have a pocket watcher badge to view this.", "badges": [], "created_at": "2025-08-27T12:25:52.001-04:00", "updated_at": "2025-08-31T13:30:16.211-04:00", "avatar": "https://secure.gravatar.com/avatar/b587040ff77fd451f7f3a17c561e4d95.jpg?s=512&d=https%3A%2F%2Fa.slack-edge.com%2Fdf10d%2Fimg%2Favatars%2Fava_0026-512.png", "custom_css": null}], "pagination": {"page": 1130, "pages": 1192, "count": 23828, "items": 20}}