{"users": [{"id": 22686, "slack_id": "U09BXR0M60P", "display_name": "Jackson Long", "bio": null, "projects_count": 0, "devlogs_count": 0, "votes_count": 0, "ships_count": 0, "projects": [], "coding_time_seconds": 0, "coding_time_seconds_today": 0, "balance": "You need to have a pocket watcher badge to view this.", "badges": [], "created_at": "2025-08-27T12:36:29.054-04:00", "updated_at": "2025-08-27T22:01:45.168-04:00", "avatar": "https://secure.gravatar.com/avatar/45d30b1ceae27c8b450e12b3087dedb2.jpg?s=512&d=https%3A%2F%2Fa.slack-edge.com%2Fdf10d%2Fimg%2Favatars%2Fava_0014-512.png", "custom_css": null}, {"id": 22687, "slack_id": "U09CF4772TE", "display_name": "shireen", "bio": null, "projects_count": 0, "devlogs_count": 0, "votes_count": 0, "ships_count": 0, "projects": [], "coding_time_seconds": 0, "coding_time_seconds_today": 0, "balance": "You need to have a pocket watcher badge to view this.", "badges": [], "created_at": "2025-08-27T13:21:51.994-04:00", "updated_at": "2025-08-27T22:17:29.945-04:00", "avatar": "https://secure.gravatar.com/avatar/222c3a26675ebdb289e8e256e3617312.jpg?s=512&d=https%3A%2F%2Fa.slack-edge.com%2Fdf10d%2Fimg%2Favatars%2Fava_0011-512.png", "custom_css": null}, {"id": 22688, "slack_id": "U09D4RR0UL8", "display_name": "Madhav Agarwal", "bio": null, "projects_count": 0, "devlogs_count": 0, "votes_count": 0, "ships_count": 0, "projects": [], "coding_time_seconds": 0, "coding_time_seconds_today": 0, "balance": "You need to have a pocket watcher badge to view this.", "badges": [], "created_at": "2025-08-27T13:25:32.758-04:00", "updated_at": "2025-08-27T22:01:45.389-04:00", "avatar": "https://avatars.slack-edge.com/2025-08-27/9423187098164_a8b95ef0f703e692adce_original.jpg", "custom_css": null}, {"id": 22689, "slack_id": "U09BY46FE9M", "display_name": "Anushka Parwal", "bio": null, "projects_count": 0, "devlogs_count": 0, "votes_count": 0, "ships_count": 0, "projects": [], "coding_time_seconds": 0, "coding_time_seconds_today": 0, "balance": "You need to have a pocket watcher badge to view this.", "badges": [], "created_at": "2025-08-27T13:27:30.774-04:00", "updated_at": "2025-08-27T22:01:45.717-04:00", "avatar": "https://secure.gravatar.com/avatar/0b24c0bd29c5467b8f84b8b748dbd19a.jpg?s=512&d=https%3A%2F%2Fa.slack-edge.com%2Fdf10d%2Fimg%2Favatars%2Fava_0014-512.png", "custom_css": null}, {"id": 22690, "slack_id": "U09CAQXQCSE", "display_name": "Shrey Agrawal", "bio": null, "projects_count": 0, "devlogs_count": 0, "votes_count": 0, "ships_count": 0, "projects": [], "coding_time_seconds": 0, "coding_time_seconds_today": 0, "balance": "You need to have a pocket watcher badge to view this.", "badges": [], "created_at": "2025-08-27T13:30:36.008-04:00", "updated_at": "2025-08-27T22:01:45.816-04:00", "avatar": "https://secure.gravatar.com/avatar/aa5123598344d63eaea7600d3b11c9d6.jpg?s=512&d=https%3A%2F%2Fa.slack-edge.com%2Fdf10d%2Fimg%2Favatars%2Fava_0025-512.png", "custom_css": null}, {"id": 22691, "slack_id": "U09C873C9E1", "display_name": "Mahnoor Magsi", "bio": null, "projects_count": 0, "devlogs_count": 0, "votes_count": 0, "ships_count": 0, "projects": [], "coding_time_seconds": 0, "coding_time_seconds_today": 0, "balance": "You need to have a pocket watcher badge to view this.", "badges": [], "created_at": "2025-08-27T13:40:16.195-04:00", "updated_at": "2025-08-27T22:01:46.066-04:00", "avatar": "https://secure.gravatar.com/avatar/47b19fd2269cb0f1da3310ac5d50d43e.jpg?s=512&d=https%3A%2F%2Fa.slack-edge.com%2Fdf10d%2Fimg%2Favatars%2Fava_0003-512.png", "custom_css": null}, {"id": 22692, "slack_id": "U09CCK8HFN2", "display_name": "Kartik Nayak", "bio": null, "projects_count": 0, "devlogs_count": 0, "votes_count": 0, "ships_count": 0, "projects": [], "coding_time_seconds": 0, "coding_time_seconds_today": 0, "balance": "You need to have a pocket watcher badge to view this.", "badges": [], "created_at": "2025-08-27T13:46:51.791-04:00", "updated_at": "2025-08-27T22:01:46.295-04:00", "avatar": "https://secure.gravatar.com/avatar/e93aefefcff26297e4302efb804c9115.jpg?s=512&d=https%3A%2F%2Fa.slack-edge.com%2Fdf10d%2Fimg%2Favatars%2Fava_0020-512.png", "custom_css": null}, {"id": 22693, "slack_id": "U09CCMJCQUE", "display_name": "01pranab", "bio": null, "projects_count": 0, "devlogs_count": 0, "votes_count": 0, "ships_count": 0, "projects": [], "coding_time_seconds": 0, "coding_time_seconds_today": 0, "balance": "You need to have a pocket watcher badge to view this.", "badges": [], "created_at": "2025-08-27T14:00:59.751-04:00", "updated_at": "2025-08-27T22:01:46.386-04:00", "avatar": "https://secure.gravatar.com/avatar/47e2369f8a507f0f02345269cc09e7dc.jpg?s=512&d=https%3A%2F%2Fa.slack-edge.com%2Fdf10d%2Fimg%2Favatars%2Fava_0021-512.png", "custom_css": null}, {"id": 22694, "slack_id": "U09CFECB1GC", "display_name": "Sean Greeley", "bio": null, "projects_count": 0, "devlogs_count": 0, "votes_count": 0, "ships_count": 0, "projects": [], "coding_time_seconds": 0, "coding_time_seconds_today": 0, "balance": "You need to have a pocket watcher badge to view this.", "badges": [], "created_at": "2025-08-27T14:17:24.370-04:00", "updated_at": "2025-08-27T22:01:46.484-04:00", "avatar": "https://secure.gravatar.com/avatar/5f3ee67c82ef88aba35dbc17e775f2d3.jpg?s=512&d=https%3A%2F%2Fa.slack-edge.com%2Fdf10d%2Fimg%2Favatars%2Fava_0013-512.png", "custom_css": null}, {"id": 22695, "slack_id": "U09CCQGTMAA", "display_name": "Nick Allen", "bio": null, "projects_count": 0, "devlogs_count": 0, "votes_count": 0, "ships_count": 0, "projects": [], "coding_time_seconds": 0, "coding_time_seconds_today": 0, "balance": "You need to have a pocket watcher badge to view this.", "badges": [], "created_at": "2025-08-27T14:19:23.086-04:00", "updated_at": "2025-08-27T22:01:46.589-04:00", "avatar": "https://avatars.slack-edge.com/2025-08-27/9417640300549_3e06d5062ac759c3db7a_original.png", "custom_css": null}, {"id": 22696, "slack_id": "U09BYJ3RENT", "display_name": "Muzakkir", "bio": null, "projects_count": 0, "devlogs_count": 0, "votes_count": 0, "ships_count": 0, "projects": [], "coding_time_seconds": 9647, "coding_time_seconds_today": 0, "balance": "You need to have a pocket watcher badge to view this.", "badges": [], "created_at": "2025-08-27T14:48:35.310-04:00", "updated_at": "2025-09-03T05:53:57.190-04:00", "avatar": "https://secure.gravatar.com/avatar/c1f782f9f327069d895bdbb096969ebd.jpg?s=512&d=https%3A%2F%2Fa.slack-edge.com%2Fdf10d%2Fimg%2Favatars%2Fava_0019-512.png", "custom_css": null}, {"id": 22697, "slack_id": "U09CB9P9KPU", "display_name": "Sam Gordon", "bio": null, "projects_count": 0, "devlogs_count": 0, "votes_count": 0, "ships_count": 0, "projects": [], "coding_time_seconds": 0, "coding_time_seconds_today": 0, "balance": "You need to have a pocket watcher badge to view this.", "badges": [], "created_at": "2025-08-27T14:49:18.410-04:00", "updated_at": "2025-08-27T22:01:46.887-04:00", "avatar": "https://secure.gravatar.com/avatar/ad27d94db12531600178cf0cfe04b2b3.jpg?s=512&d=https%3A%2F%2Fa.slack-edge.com%2Fdf10d%2Fimg%2Favatars%2Fava_0001-512.png", "custom_css": null}, {"id": 22698, "slack_id": "U09CFMAT64U", "display_name": "Bal", "bio": null, "projects_count": 0, "devlogs_count": 0, "votes_count": 0, "ships_count": 0, "projects": [], "coding_time_seconds": 1229, "coding_time_seconds_today": 0, "balance": "You need to have a pocket watcher badge to view this.", "badges": [], "created_at": "2025-08-27T14:58:10.013-04:00", "updated_at": "2025-08-27T22:01:51.021-04:00", "avatar": "https://secure.gravatar.com/avatar/fa0d1443dbe07654193b4312a723af53.jpg?s=512&d=https%3A%2F%2Fa.slack-edge.com%2Fdf10d%2Fimg%2Favatars%2Fava_0008-512.png", "custom_css": null}, {"id": 22699, "slack_id": "U09CEKH54BW", "display_name": "Kanishk", "bio": null, "projects_count": 0, "devlogs_count": 0, "votes_count": 0, "ships_count": 0, "projects": [], "coding_time_seconds": 0, "coding_time_seconds_today": 0, "balance": "You need to have a pocket watcher badge to view this.", "badges": [], "created_at": "2025-08-27T15:25:45.492-04:00", "updated_at": "2025-08-27T22:01:51.244-04:00", "avatar": "https://secure.gravatar.com/avatar/cff6f32b339289112266314a192b70c5.jpg?s=512&d=https%3A%2F%2Fa.slack-edge.com%2Fdf10d%2Fimg%2Favatars%2Fava_0011-512.png", "custom_css": null}, {"id": 22700, "slack_id": "U09CA04RZC5", "display_name": "Ben", "bio": null, "projects_count": 0, "devlogs_count": 0, "votes_count": 0, "ships_count": 0, "projects": [], "coding_time_seconds": 0, "coding_time_seconds_today": 0, "balance": "You need to have a pocket watcher badge to view this.", "badges": [], "created_at": "2025-08-27T15:28:51.903-04:00", "updated_at": "2025-08-27T22:01:51.471-04:00", "avatar": "https://secure.gravatar.com/avatar/a07563a88ef5c20f568b51d04dbecf53.jpg?s=512&d=https%3A%2F%2Fa.slack-edge.com%2Fdf10d%2Fimg%2Favatars%2Fava_0000-512.png", "custom_css": null}, {"id": 22701, "slack_id": "U09CBJ5HAV8", "display_name": "Ahmad", "bio": null, "projects_count": 0, "devlogs_count": 0, "votes_count": 0, "ships_count": 0, "projects": [], "coding_time_seconds": 0, "coding_time_seconds_today": 0, "balance": "You need to have a pocket watcher badge to view this.", "badges": [], "created_at": "2025-08-27T15:43:11.289-04:00", "updated_at": "2025-09-03T16:56:53.154-04:00", "avatar": "https://avatars.slack-edge.com/2025-08-27/9423994097876_d0a5a0c2d2eccadf7b59_original.png", "custom_css": null}, {"id": 22702, "slack_id": "U06R60LRB9P", "display_name": "Josh", "bio": null, "projects_count": 0, "devlogs_count": 0, "votes_count": 0, "ships_count": 0, "projects": [], "coding_time_seconds": 0, "coding_time_seconds_today": 0, "balance": "You need to have a pocket watcher badge to view this.", "badges": [], "created_at": "2025-08-27T16:22:30.376-04:00", "updated_at": "2025-09-03T22:02:18.464-04:00", "avatar": "https://avatars.slack-edge.com/2025-09-03/9455198687346_c95db4c65b5f04eeb978_original.png", "custom_css": null}, {"id": 22703, "slack_id": "U09BZ892B63", "display_name": "Jackson Woods", "bio": null, "projects_count": 0, "devlogs_count": 0, "votes_count": 0, "ships_count": 0, "projects": [], "coding_time_seconds": 0, "coding_time_seconds_today": 0, "balance": "You need to have a pocket watcher badge to view this.", "badges": [], "created_at": "2025-08-27T16:59:37.296-04:00", "updated_at": "2025-08-27T22:01:52.043-04:00", "avatar": "https://avatars.slack-edge.com/2025-08-27/9407581248391_73c41ffbbdd63333979d_original.jpg", "custom_css": null}, {"id": 22704, "slack_id": "U09BZKWPNFR", "display_name": "ninjasteelblade", "bio": null, "projects_count": 0, "devlogs_count": 0, "votes_count": 0, "ships_count": 0, "projects": [], "coding_time_seconds": 0, "coding_time_seconds_today": 0, "balance": "You need to have a pocket watcher badge to view this.", "badges": [], "created_at": "2025-08-27T18:39:48.417-04:00", "updated_at": "2025-08-27T22:01:52.150-04:00", "avatar": "https://secure.gravatar.com/avatar/8b963c0c5d6bd19f49758ebb626485ab.jpg?s=512&d=https%3A%2F%2Fa.slack-edge.com%2Fdf10d%2Fimg%2Favatars%2Fava_0016-512.png", "custom_css": null}, {"id": 22705, "slack_id": "U09BZUUH0B1", "display_name": "Seif", "bio": null, "projects_count": 2, "devlogs_count": 11, "votes_count": 21, "ships_count": 2, "projects": [{"id": 12511, "title": "Cyclosecure", "devlogs_count": 5, "created_at": "2025-08-28T18:27:47.876-04:00"}, {"id": 13242, "title": "Open-source Graphic designer Portfolio Website", "devlogs_count": 6, "created_at": "2025-09-12T12:03:23.228-04:00"}], "coding_time_seconds": 86479, "coding_time_seconds_today": 0, "balance": "You need to have a pocket watcher badge to view this.", "badges": [], "created_at": "2025-08-27T20:25:29.181-04:00", "updated_at": "2025-09-03T12:00:07.641-04:00", "avatar": "https://secure.gravatar.com/avatar/e03d9ce5997611df4c00e0c868ffed3f.jpg?s=512&d=https%3A%2F%2Fa.slack-edge.com%2Fdf10d%2Fimg%2Favatars%2Fava_0008-512.png", "custom_css": null}], "pagination": {"page": 1131, "pages": 1192, "count": 23828, "items": 20}}