{"users": [{"id": 22706, "slack_id": "U09D6QC56JC", "display_name": "Roseann", "bio": null, "projects_count": 0, "devlogs_count": 0, "votes_count": 0, "ships_count": 0, "projects": [], "coding_time_seconds": 0, "coding_time_seconds_today": 0, "balance": "You need to have a pocket watcher badge to view this.", "badges": [], "created_at": "2025-08-27T21:00:06.984-04:00", "updated_at": "2025-08-28T05:22:08.438-04:00", "avatar": "https://secure.gravatar.com/avatar/aba12cae42bbcd5de6ec64fefe6e5d4c.jpg?s=512&d=https%3A%2F%2Fa.slack-edge.com%2Fdf10d%2Fimg%2Favatars%2Fava_0017-512.png", "custom_css": null}, {"id": 22707, "slack_id": "U07BK4VFTHA", "display_name": "Yusuf Khan", "bio": null, "projects_count": 1, "devlogs_count": 0, "votes_count": 1, "ships_count": 0, "projects": [{"id": 12457, "title": "check", "devlogs_count": 0, "created_at": "2025-08-27T21:44:59.627-04:00"}], "coding_time_seconds": 6812, "coding_time_seconds_today": 0, "balance": "You need to have a pocket watcher badge to view this.", "badges": [], "created_at": "2025-08-27T21:15:20.513-04:00", "updated_at": "2025-08-28T02:00:06.766-04:00", "avatar": "https://avatars.slack-edge.com/2024-07-08/7393201967428_94c67b7eea6e00237f8e_original.jpg", "custom_css": null}, {"id": 22708, "slack_id": "U09CH9U19MJ", "display_name": "Selokow", "bio": null, "projects_count": 0, "devlogs_count": 0, "votes_count": 0, "ships_count": 0, "projects": [], "coding_time_seconds": 0, "coding_time_seconds_today": 0, "balance": "You need to have a pocket watcher badge to view this.", "badges": [], "created_at": "2025-08-27T21:20:08.941-04:00", "updated_at": "2025-08-27T22:01:52.608-04:00", "avatar": "https://secure.gravatar.com/avatar/aeee5122d72723eaf85c77fa81ef501c.jpg?s=512&d=https%3A%2F%2Fa.slack-edge.com%2Fdf10d%2Fimg%2Favatars%2Fava_0019-512.png", "custom_css": null}, {"id": 22709, "slack_id": "U079A05B4G4", "display_name": "Darren Jacob", "bio": null, "projects_count": 1, "devlogs_count": 0, "votes_count": 0, "ships_count": 0, "projects": [{"id": 12459, "title": "Drone Custom Flight Controller PCB", "devlogs_count": 0, "created_at": "2025-08-27T22:00:05.204-04:00"}], "coding_time_seconds": 0, "coding_time_seconds_today": 0, "balance": "You need to have a pocket watcher badge to view this.", "badges": [], "created_at": "2025-08-27T21:40:50.953-04:00", "updated_at": "2025-08-28T02:00:06.591-04:00", "avatar": "https://secure.gravatar.com/avatar/fae0f2c104fb5c2d5eb7dfedf88a6cac.jpg?s=512&d=https%3A%2F%2Fa.slack-edge.com%2Fdf10d%2Fimg%2Favatars%2Fava_0008-512.png", "custom_css": null}, {"id": 22710, "slack_id": "U09BZ3NE62H", "display_name": "Kate", "bio": null, "projects_count": 0, "devlogs_count": 0, "votes_count": 0, "ships_count": 0, "projects": [], "coding_time_seconds": 0, "coding_time_seconds_today": 0, "balance": "You need to have a pocket watcher badge to view this.", "badges": [], "created_at": "2025-08-27T22:25:06.132-04:00", "updated_at": "2025-08-28T04:02:58.704-04:00", "avatar": "https://avatars.slack-edge.com/2025-08-27/9435199703089_4fe2d4f862f228e9178d_original.jpg", "custom_css": null}, {"id": 22711, "slack_id": "U09CD6YHFFC", "display_name": "Jack Fellers", "bio": null, "projects_count": 0, "devlogs_count": 0, "votes_count": 0, "ships_count": 0, "projects": [], "coding_time_seconds": 26497, "coding_time_seconds_today": 0, "balance": "You need to have a pocket watcher badge to view this.", "badges": [], "created_at": "2025-08-27T22:35:48.656-04:00", "updated_at": "2025-08-28T04:02:58.801-04:00", "avatar": "https://avatars.slack-edge.com/2025-08-27/9422785454758_515bb0092477cd64cd52_original.png", "custom_css": null}, {"id": 22712, "slack_id": "U09CBKKER2R", "display_name": "James Donovan", "bio": null, "projects_count": 0, "devlogs_count": 0, "votes_count": 0, "ships_count": 0, "projects": [], "coding_time_seconds": 0, "coding_time_seconds_today": 0, "balance": "You need to have a pocket watcher badge to view this.", "badges": [], "created_at": "2025-08-27T22:59:30.423-04:00", "updated_at": "2025-08-28T04:02:58.962-04:00", "avatar": "https://secure.gravatar.com/avatar/548e2244e71891e546f6d44c5ef28860.jpg?s=512&d=https%3A%2F%2Fa.slack-edge.com%2Fdf10d%2Fimg%2Favatars%2Fava_0000-512.png", "custom_css": null}, {"id": 22713, "slack_id": "U09C0E7N4ET", "display_name": "Misato K", "bio": null, "projects_count": 0, "devlogs_count": 0, "votes_count": 0, "ships_count": 0, "projects": [], "coding_time_seconds": 0, "coding_time_seconds_today": 0, "balance": "You need to have a pocket watcher badge to view this.", "badges": [], "created_at": "2025-08-27T23:01:27.167-04:00", "updated_at": "2025-08-28T04:02:59.061-04:00", "avatar": "https://secure.gravatar.com/avatar/89c7e66adfbbd8de2332fd5e7e6fd252.jpg?s=512&d=https%3A%2F%2Fa.slack-edge.com%2Fdf10d%2Fimg%2Favatars%2Fava_0013-512.png", "custom_css": null}, {"id": 22714, "slack_id": "U09CBMST9K7", "display_name": "Anish Senthilarasu", "bio": null, "projects_count": 0, "devlogs_count": 0, "votes_count": 0, "ships_count": 0, "projects": [], "coding_time_seconds": 0, "coding_time_seconds_today": 0, "balance": "You need to have a pocket watcher badge to view this.", "badges": [], "created_at": "2025-08-27T23:24:42.858-04:00", "updated_at": "2025-08-28T04:02:59.168-04:00", "avatar": "https://avatars.slack-edge.com/2025-08-27/9435375058449_10bd843aa27ac7865c58_original.jpg", "custom_css": null}, {"id": 22715, "slack_id": "U03G176GL23", "display_name": "aditya", "bio": null, "projects_count": 0, "devlogs_count": 0, "votes_count": 0, "ships_count": 0, "projects": [], "coding_time_seconds": 0, "coding_time_seconds_today": 0, "balance": "You need to have a pocket watcher badge to view this.", "badges": [], "created_at": "2025-08-28T00:11:52.813-04:00", "updated_at": "2025-08-28T02:00:04.670-04:00", "avatar": "https://avatars.slack-edge.com/2023-06-12/5414179344931_d4856bbb1b4362ca301e_original.png", "custom_css": null}, {"id": 22716, "slack_id": "U09CF4Q5CCW", "display_name": "karem", "bio": null, "projects_count": 0, "devlogs_count": 0, "votes_count": 0, "ships_count": 0, "projects": [], "coding_time_seconds": 0, "coding_time_seconds_today": 0, "balance": "You need to have a pocket watcher badge to view this.", "badges": [], "created_at": "2025-08-28T00:52:40.847-04:00", "updated_at": "2025-08-28T04:02:59.344-04:00", "avatar": "https://secure.gravatar.com/avatar/d0094cdf7af4602fe458718fb5568ab6.jpg?s=512&d=https%3A%2F%2Fa.slack-edge.com%2Fdf10d%2Fimg%2Favatars%2Fava_0026-512.png", "custom_css": null}, {"id": 22717, "slack_id": "U082SCUDR8Q", "display_name": "jan", "bio": null, "projects_count": 0, "devlogs_count": 0, "votes_count": 0, "ships_count": 0, "projects": [], "coding_time_seconds": 0, "coding_time_seconds_today": 0, "balance": "You need to have a pocket watcher badge to view this.", "badges": [], "created_at": "2025-08-28T02:40:18.719-04:00", "updated_at": "2025-08-28T04:02:59.450-04:00", "avatar": "https://secure.gravatar.com/avatar/9fde1ae665944fcce684f0269e2e4284.jpg?s=512&d=https%3A%2F%2Fa.slack-edge.com%2Fdf10d%2Fimg%2Favatars%2Fava_0007-512.png", "custom_css": null}, {"id": 22718, "slack_id": "U09C1CDA5MM", "display_name": "Charl", "bio": null, "projects_count": 0, "devlogs_count": 0, "votes_count": 0, "ships_count": 0, "projects": [], "coding_time_seconds": 0, "coding_time_seconds_today": 0, "balance": "You need to have a pocket watcher badge to view this.", "badges": [], "created_at": "2025-08-28T03:34:44.580-04:00", "updated_at": "2025-08-28T04:02:59.558-04:00", "avatar": "https://secure.gravatar.com/avatar/cd65c5d0e3307e74fa7fa0a92277a8b2.jpg?s=512&d=https%3A%2F%2Fa.slack-edge.com%2Fdf10d%2Fimg%2Favatars%2Fava_0000-512.png", "custom_css": null}, {"id": 22719, "slack_id": "U09CCMCAX8V", "display_name": "Aaquib", "bio": null, "projects_count": 0, "devlogs_count": 0, "votes_count": 0, "ships_count": 0, "projects": [], "coding_time_seconds": 0, "coding_time_seconds_today": 0, "balance": "You need to have a pocket watcher badge to view this.", "badges": [], "created_at": "2025-08-28T03:59:28.974-04:00", "updated_at": "2025-08-28T22:02:46.223-04:00", "avatar": "https://secure.gravatar.com/avatar/f7909dcc410a21fb05bfd5a28a722778.jpg?s=512&d=https%3A%2F%2Fa.slack-edge.com%2Fdf10d%2Fimg%2Favatars%2Fava_0024-512.png", "custom_css": null}, {"id": 22720, "slack_id": "U09D8EGHWQG", "display_name": "Rubrangso Kri", "bio": null, "projects_count": 0, "devlogs_count": 0, "votes_count": 0, "ships_count": 0, "projects": [], "coding_time_seconds": 15793, "coding_time_seconds_today": 0, "balance": "You need to have a pocket watcher badge to view this.", "badges": [], "created_at": "2025-08-28T04:34:38.093-04:00", "updated_at": "2025-08-28T22:02:46.318-04:00", "avatar": "https://avatars.slack-edge.com/2025-08-28/9450519281040_c36ee8bd8178ba666358_original.jpg", "custom_css": null}, {"id": 22721, "slack_id": "U09CA7GJXHR", "display_name": "Sanath. S. Kutsa", "bio": null, "projects_count": 0, "devlogs_count": 0, "votes_count": 0, "ships_count": 0, "projects": [], "coding_time_seconds": 0, "coding_time_seconds_today": 0, "balance": "You need to have a pocket watcher badge to view this.", "badges": [], "created_at": "2025-08-28T04:42:28.642-04:00", "updated_at": "2025-08-28T22:02:46.470-04:00", "avatar": "https://secure.gravatar.com/avatar/ddb9d3b796039c21cf60df9ea6485581.jpg?s=512&d=https%3A%2F%2Fa.slack-edge.com%2Fdf10d%2Fimg%2Favatars%2Fava_0004-512.png", "custom_css": null}, {"id": 22722, "slack_id": "U09CG33T1RU", "display_name": "Vesh", "bio": null, "projects_count": 0, "devlogs_count": 0, "votes_count": 0, "ships_count": 0, "projects": [], "coding_time_seconds": 27737, "coding_time_seconds_today": 0, "balance": "You need to have a pocket watcher badge to view this.", "badges": [], "created_at": "2025-08-28T04:47:52.992-04:00", "updated_at": "2025-09-06T13:22:58.662-04:00", "avatar": "https://avatars.slack-edge.com/2025-08-28/9418320372163_777d0e86b2c51602b997_original.jpg", "custom_css": null}, {"id": 22723, "slack_id": "U09CUQE1Q49", "display_name": "Sadananda Paul", "bio": null, "projects_count": 0, "devlogs_count": 0, "votes_count": 0, "ships_count": 0, "projects": [], "coding_time_seconds": 0, "coding_time_seconds_today": 0, "balance": "You need to have a pocket watcher badge to view this.", "badges": [], "created_at": "2025-08-28T05:21:57.292-04:00", "updated_at": "2025-08-28T22:02:46.701-04:00", "avatar": "https://secure.gravatar.com/avatar/c3a61bb338be69886940633749cd3ee0.jpg?s=512&d=https%3A%2F%2Fa.slack-edge.com%2Fdf10d%2Fimg%2Favatars%2Fava_0014-512.png", "custom_css": null}, {"id": 22724, "slack_id": "U093J4LKLE8", "display_name": "Yash", "bio": null, "projects_count": 0, "devlogs_count": 0, "votes_count": 0, "ships_count": 0, "projects": [], "coding_time_seconds": 0, "coding_time_seconds_today": 0, "balance": "You need to have a pocket watcher badge to view this.", "badges": [], "created_at": "2025-08-28T05:28:59.459-04:00", "updated_at": "2025-08-31T04:00:57.906-04:00", "avatar": "https://avatars.slack-edge.com/2025-08-31/9431760798099_e97dd9819cb98633a40c_original.png", "custom_css": null}, {"id": 22725, "slack_id": "U09CEUP3VB4", "display_name": "Jainam Doshi", "bio": null, "projects_count": 0, "devlogs_count": 0, "votes_count": 0, "ships_count": 0, "projects": [], "coding_time_seconds": 0, "coding_time_seconds_today": 0, "balance": "You need to have a pocket watcher badge to view this.", "badges": [], "created_at": "2025-08-28T05:40:53.507-04:00", "updated_at": "2025-09-05T21:59:58.122-04:00", "avatar": "https://avatars.slack-edge.com/2025-09-06/9466534950195_ca57c3f45ecc44b00567_original.png", "custom_css": null}], "pagination": {"page": 1132, "pages": 1192, "count": 23828, "items": 20}}