{"users": [{"id": 22726, "slack_id": "U09CF1MG23C", "display_name": "PuppyTransGirl", "bio": null, "projects_count": 0, "devlogs_count": 0, "votes_count": 0, "ships_count": 0, "projects": [], "coding_time_seconds": 0, "coding_time_seconds_today": 0, "balance": "You need to have a pocket watcher badge to view this.", "badges": [], "created_at": "2025-08-28T05:56:54.018-04:00", "updated_at": "2025-08-28T22:02:47.001-04:00", "avatar": "https://secure.gravatar.com/avatar/28f464b9ebf9cc0263a65189d0468127.jpg?s=512&d=https%3A%2F%2Fa.slack-edge.com%2Fdf10d%2Fimg%2Favatars%2Fava_0012-512.png", "custom_css": null}, {"id": 22727, "slack_id": "U09CK949AKE", "display_name": "vinyas adiga", "bio": null, "projects_count": 0, "devlogs_count": 1, "votes_count": 24, "ships_count": 0, "projects": [], "coding_time_seconds": 101547, "coding_time_seconds_today": 0, "balance": "You need to have a pocket watcher badge to view this.", "badges": [], "created_at": "2025-08-28T07:52:29.809-04:00", "updated_at": "2025-09-01T23:41:26.239-04:00", "avatar": "https://secure.gravatar.com/avatar/2e7d13904826f2b36c4bdd94844569d6.jpg?s=512&d=https%3A%2F%2Fa.slack-edge.com%2Fdf10d%2Fimg%2Favatars%2Fava_0004-512.png", "custom_css": null}, {"id": 22728, "slack_id": "U09D9C0SXRN", "display_name": "Mike", "bio": null, "projects_count": 1, "devlogs_count": 1, "votes_count": 2, "ships_count": 0, "projects": [{"id": 12481, "title": "ServiceMate", "devlogs_count": 2, "created_at": "2025-08-28T08:07:03.781-04:00"}], "coding_time_seconds": 62085, "coding_time_seconds_today": 398, "balance": "You need to have a pocket watcher badge to view this.", "badges": [], "created_at": "2025-08-28T07:53:16.666-04:00", "updated_at": "2025-08-28T22:02:47.271-04:00", "avatar": "https://secure.gravatar.com/avatar/b080760d9a3963aef55045d8645f1309.jpg?s=512&d=https%3A%2F%2Fa.slack-edge.com%2Fdf10d%2Fimg%2Favatars%2Fava_0005-512.png", "custom_css": null}, {"id": 22729, "slack_id": "U09CFJMN610", "display_name": "Dave", "bio": null, "projects_count": 0, "devlogs_count": 0, "votes_count": 0, "ships_count": 0, "projects": [], "coding_time_seconds": 0, "coding_time_seconds_today": 0, "balance": "You need to have a pocket watcher badge to view this.", "badges": [], "created_at": "2025-08-28T08:03:24.707-04:00", "updated_at": "2025-08-28T22:02:47.391-04:00", "avatar": "https://avatars.slack-edge.com/2025-08-28/9424075866261_ac370493416d6604254d_original.jpg", "custom_css": null}, {"id": 22730, "slack_id": "U09C2HYPQF9", "display_name": "Karam Kassam Alhinnawi", "bio": null, "projects_count": 0, "devlogs_count": 0, "votes_count": 0, "ships_count": 0, "projects": [], "coding_time_seconds": 0, "coding_time_seconds_today": 0, "balance": "You need to have a pocket watcher badge to view this.", "badges": [], "created_at": "2025-08-28T08:05:45.614-04:00", "updated_at": "2025-08-28T22:02:47.650-04:00", "avatar": "https://secure.gravatar.com/avatar/1aa3ea4f72b468162a3861c8b4ce6e85.jpg?s=512&d=https%3A%2F%2Fa.slack-edge.com%2Fdf10d%2Fimg%2Favatars%2Fava_0002-512.png", "custom_css": null}, {"id": 22731, "slack_id": "U09CFMGA95Y", "display_name": "Jke", "bio": null, "projects_count": 0, "devlogs_count": 0, "votes_count": 0, "ships_count": 0, "projects": [], "coding_time_seconds": 0, "coding_time_seconds_today": 0, "balance": "You need to have a pocket watcher badge to view this.", "badges": [], "created_at": "2025-08-28T08:24:04.219-04:00", "updated_at": "2025-08-28T22:02:48.004-04:00", "avatar": "https://secure.gravatar.com/avatar/8c0631b5662baa595ed555662de234d2.jpg?s=512&d=https%3A%2F%2Fa.slack-edge.com%2Fdf10d%2Fimg%2Favatars%2Fava_0011-512.png", "custom_css": null}, {"id": 22732, "slack_id": "U09CB9RLVKM", "display_name": "Nh\u1eadt Anh Nguy\u1ec5n Mai", "bio": null, "projects_count": 0, "devlogs_count": 0, "votes_count": 0, "ships_count": 0, "projects": [], "coding_time_seconds": 0, "coding_time_seconds_today": 0, "balance": "You need to have a pocket watcher badge to view this.", "badges": [], "created_at": "2025-08-28T08:24:43.261-04:00", "updated_at": "2025-08-28T22:02:48.205-04:00", "avatar": "https://avatars.slack-edge.com/2025-08-28/9410772168663_b61a0df3a8084b9d35e9_original.jpg", "custom_css": null}, {"id": 22733, "slack_id": "U09D9KFMAGG", "display_name": "Ege Uysal", "bio": null, "projects_count": 0, "devlogs_count": 0, "votes_count": 0, "ships_count": 0, "projects": [], "coding_time_seconds": 32308, "coding_time_seconds_today": 0, "balance": "You need to have a pocket watcher badge to view this.", "badges": [], "created_at": "2025-08-28T08:44:23.639-04:00", "updated_at": "2025-09-12T23:11:53.695-04:00", "avatar": "https://avatars.slack-edge.com/2025-08-29/9431877025701_18218aa1984352cc9e91_original.png", "custom_css": null}, {"id": 22734, "slack_id": "U09CL6ABLLC", "display_name": "Greg", "bio": null, "projects_count": 0, "devlogs_count": 0, "votes_count": 0, "ships_count": 0, "projects": [], "coding_time_seconds": 0, "coding_time_seconds_today": 0, "balance": "You need to have a pocket watcher badge to view this.", "badges": [], "created_at": "2025-08-28T08:44:26.296-04:00", "updated_at": "2025-08-28T22:02:48.454-04:00", "avatar": "https://secure.gravatar.com/avatar/84ebf208c626b8772413c8ef31db3bdb.jpg?s=512&d=https%3A%2F%2Fa.slack-edge.com%2Fdf10d%2Fimg%2Favatars%2Fava_0006-512.png", "custom_css": null}, {"id": 22735, "slack_id": "U09BZ55L5P0", "display_name": "duskaura", "bio": null, "projects_count": 0, "devlogs_count": 1, "votes_count": 21, "ships_count": 0, "projects": [], "coding_time_seconds": 11884, "coding_time_seconds_today": 0, "balance": "You need to have a pocket watcher badge to view this.", "badges": [{"name": "Maiden Voyage", "text": "you shipped your first project! the journey begins...", "icon": "\ud83d\udea2"}], "created_at": "2025-08-28T08:51:59.129-04:00", "updated_at": "2025-09-19T15:29:22.974-04:00", "avatar": "https://avatars.slack-edge.com/2025-09-19/9577635206720_602b639c6a6405f20046_original.png", "custom_css": null}, {"id": 22736, "slack_id": "U09CL8MN57E", "display_name": "Manh Bui", "bio": null, "projects_count": 0, "devlogs_count": 0, "votes_count": 0, "ships_count": 0, "projects": [], "coding_time_seconds": 1310, "coding_time_seconds_today": 0, "balance": "You need to have a pocket watcher badge to view this.", "badges": [], "created_at": "2025-08-28T08:55:50.975-04:00", "updated_at": "2025-08-28T22:02:48.768-04:00", "avatar": "https://secure.gravatar.com/avatar/8c7c1a28ca56861dcb7b92108f23b967.jpg?s=512&d=https%3A%2F%2Fa.slack-edge.com%2Fdf10d%2Fimg%2Favatars%2Fava_0006-512.png", "custom_css": null}, {"id": 22737, "slack_id": "U09C32ELT2B", "display_name": "Amshu G.C.", "bio": null, "projects_count": 0, "devlogs_count": 0, "votes_count": 0, "ships_count": 0, "projects": [], "coding_time_seconds": 0, "coding_time_seconds_today": 0, "balance": "You need to have a pocket watcher badge to view this.", "badges": [], "created_at": "2025-08-28T09:36:41.550-04:00", "updated_at": "2025-08-28T22:02:49.022-04:00", "avatar": "https://secure.gravatar.com/avatar/d506c6820c23b23e6ba1ad5ded12d97e.jpg?s=512&d=https%3A%2F%2Fa.slack-edge.com%2Fdf10d%2Fimg%2Favatars%2Fava_0003-512.png", "custom_css": null}, {"id": 22738, "slack_id": "U09CEB4Q7JR", "display_name": "HoangLong", "bio": null, "projects_count": 0, "devlogs_count": 0, "votes_count": 0, "ships_count": 0, "projects": [], "coding_time_seconds": 0, "coding_time_seconds_today": 0, "balance": "You need to have a pocket watcher badge to view this.", "badges": [], "created_at": "2025-08-28T09:53:54.436-04:00", "updated_at": "2025-08-28T22:02:49.149-04:00", "avatar": "https://secure.gravatar.com/avatar/aa7f51c6c0545743970ca2d9e3aed1dc.jpg?s=512&d=https%3A%2F%2Fa.slack-edge.com%2Fdf10d%2Fimg%2Favatars%2Fava_0002-512.png", "custom_css": null}, {"id": 22739, "slack_id": "U09CGDQPKAN", "display_name": "Alex W", "bio": null, "projects_count": 0, "devlogs_count": 0, "votes_count": 0, "ships_count": 0, "projects": [], "coding_time_seconds": 0, "coding_time_seconds_today": 0, "balance": "You need to have a pocket watcher badge to view this.", "badges": [], "created_at": "2025-08-28T10:26:24.005-04:00", "updated_at": "2025-08-28T22:02:49.281-04:00", "avatar": "https://secure.gravatar.com/avatar/7f56646cbf5a8aaad07c9a07d0c75a9a.jpg?s=512&d=https%3A%2F%2Fa.slack-edge.com%2Fdf10d%2Fimg%2Favatars%2Fava_0002-512.png", "custom_css": null}, {"id": 22740, "slack_id": "U09CM8U8360", "display_name": "Jaroslav Sivakov", "bio": null, "projects_count": 0, "devlogs_count": 0, "votes_count": 0, "ships_count": 0, "projects": [], "coding_time_seconds": 0, "coding_time_seconds_today": 0, "balance": "You need to have a pocket watcher badge to view this.", "badges": [], "created_at": "2025-08-28T11:17:34.123-04:00", "updated_at": "2025-08-28T22:02:49.489-04:00", "avatar": "https://avatars.slack-edge.com/2025-08-28/9420475108963_de3fb9134bd1db79d9dc_original.png", "custom_css": null}, {"id": 22741, "slack_id": "U09CJ7TL6K0", "display_name": "Sergei", "bio": null, "projects_count": 0, "devlogs_count": 0, "votes_count": 0, "ships_count": 0, "projects": [], "coding_time_seconds": 14262, "coding_time_seconds_today": 0, "balance": "You need to have a pocket watcher badge to view this.", "badges": [], "created_at": "2025-08-28T11:34:30.015-04:00", "updated_at": "2025-09-24T14:01:12.875-04:00", "avatar": "https://avatars.slack-edge.com/2025-09-24/9560137884487_a907ad8a7275486edd90_original.png", "custom_css": null}, {"id": 22742, "slack_id": "U09CF0WU813", "display_name": "Enduyt", "bio": null, "projects_count": 1, "devlogs_count": 0, "votes_count": 0, "ships_count": 0, "projects": [{"id": 12537, "title": "Projekt S.A.P.V.M", "devlogs_count": 0, "created_at": "2025-08-29T05:40:49.002-04:00"}], "coding_time_seconds": 4128, "coding_time_seconds_today": 0, "balance": "You need to have a pocket watcher badge to view this.", "badges": [], "created_at": "2025-08-28T11:35:18.139-04:00", "updated_at": "2025-08-28T22:02:49.786-04:00", "avatar": "https://avatars.slack-edge.com/2025-08-28/9438906469521_92952a915a94b45b2663_original.png", "custom_css": null}, {"id": 22743, "slack_id": "U09DAKWDK6U", "display_name": "brn-maker", "bio": null, "projects_count": 0, "devlogs_count": 0, "votes_count": 0, "ships_count": 0, "projects": [], "coding_time_seconds": 0, "coding_time_seconds_today": 0, "balance": "You need to have a pocket watcher badge to view this.", "badges": [], "created_at": "2025-08-28T11:38:24.488-04:00", "updated_at": "2025-08-28T22:02:49.895-04:00", "avatar": "https://secure.gravatar.com/avatar/1e88ee190d8b5273c1f83e8a3141924b.jpg?s=512&d=https%3A%2F%2Fa.slack-edge.com%2Fdf10d%2Fimg%2Favatars%2Fava_0018-512.png", "custom_css": null}, {"id": 22744, "slack_id": "U09CMFDH85S", "display_name": "RoboHub", "bio": "RoboHub aimiming to build a Robotics communiuty in Tunisia ", "projects_count": 4, "devlogs_count": 9, "votes_count": 61, "ships_count": 2, "projects": [{"id": 12509, "title": "Motion-Controlled Sword Mouse", "devlogs_count": 2, "created_at": "2025-08-28T17:24:18.152-04:00"}, {"id": 12560, "title": "Open-Source PID Line Follower Robot", "devlogs_count": 2, "created_at": "2025-08-29T15:47:15.428-04:00"}, {"id": 12607, "title": "electronics for everyone", "devlogs_count": 4, "created_at": "2025-08-30T11:45:51.857-04:00"}, {"id": 12913, "title": "WakaTime for Fusion 360", "devlogs_count": 2, "created_at": "2025-09-05T06:43:19.729-04:00"}], "coding_time_seconds": 124769, "coding_time_seconds_today": 0, "balance": "You need to have a pocket watcher badge to view this.", "badges": [], "created_at": "2025-08-28T11:50:15.661-04:00", "updated_at": "2025-09-04T19:21:04.438-04:00", "avatar": "https://avatars.slack-edge.com/2025-08-29/9443920245201_f086b32b9f1e6cbaad2e_original.png", "custom_css": null}, {"id": 22745, "slack_id": "U09C4UK9B9R", "display_name": "Tanishq Parate", "bio": null, "projects_count": 0, "devlogs_count": 0, "votes_count": 0, "ships_count": 0, "projects": [], "coding_time_seconds": 0, "coding_time_seconds_today": 0, "balance": "You need to have a pocket watcher badge to view this.", "badges": [], "created_at": "2025-08-28T11:51:57.247-04:00", "updated_at": "2025-08-28T22:02:50.124-04:00", "avatar": "https://secure.gravatar.com/avatar/bda1640ca36d84d574f1c675caff844e.jpg?s=512&d=https%3A%2F%2Fa.slack-edge.com%2Fdf10d%2Fimg%2Favatars%2Fava_0000-512.png", "custom_css": null}], "pagination": {"page": 1133, "pages": 1192, "count": 23828, "items": 20}}