{"users": [{"id": 22746, "slack_id": "U09C43GLKCP", "display_name": "V", "bio": null, "projects_count": 1, "devlogs_count": 1, "votes_count": 8, "ships_count": 1, "projects": [{"id": 13154, "title": "Rock Paper Scissors", "devlogs_count": 1, "created_at": "2025-09-09T23:34:22.647-04:00"}], "coding_time_seconds": 21265, "coding_time_seconds_today": 0, "balance": "You need to have a pocket watcher badge to view this.", "badges": [], "created_at": "2025-08-28T12:06:11.750-04:00", "updated_at": "2025-08-28T22:02:50.221-04:00", "avatar": "https://secure.gravatar.com/avatar/0f795837bb9a2ed1d8dce495142de0e5.jpg?s=512&d=https%3A%2F%2Fa.slack-edge.com%2Fdf10d%2Fimg%2Favatars%2Fava_0023-512.png", "custom_css": null}, {"id": 22747, "slack_id": "U09CH48TMC2", "display_name": "Gamer Ezio", "bio": null, "projects_count": 0, "devlogs_count": 0, "votes_count": 0, "ships_count": 0, "projects": [], "coding_time_seconds": 0, "coding_time_seconds_today": 0, "balance": "You need to have a pocket watcher badge to view this.", "badges": [], "created_at": "2025-08-28T12:11:36.128-04:00", "updated_at": "2025-08-31T05:55:09.772-04:00", "avatar": "https://avatars.slack-edge.com/2025-08-28/9412173717431_6176a8a38449abac16b0_original.png", "custom_css": null}, {"id": 22748, "slack_id": "U09DB2F50JC", "display_name": "Lakshay", "bio": null, "projects_count": 0, "devlogs_count": 0, "votes_count": 2, "ships_count": 0, "projects": [], "coding_time_seconds": 0, "coding_time_seconds_today": 0, "balance": "You need to have a pocket watcher badge to view this.", "badges": [], "created_at": "2025-08-28T12:21:22.826-04:00", "updated_at": "2025-08-28T22:02:50.599-04:00", "avatar": "https://secure.gravatar.com/avatar/493619608c9b2b3db01f14f1a73cc2cb.jpg?s=512&d=https%3A%2F%2Fa.slack-edge.com%2Fdf10d%2Fimg%2Favatars%2Fava_0011-512.png", "custom_css": null}, {"id": 22749, "slack_id": "U09DB4AST6C", "display_name": "Cyclohexatriene", "bio": null, "projects_count": 0, "devlogs_count": 0, "votes_count": 0, "ships_count": 0, "projects": [], "coding_time_seconds": 0, "coding_time_seconds_today": 0, "balance": "You need to have a pocket watcher badge to view this.", "badges": [], "created_at": "2025-08-28T12:32:44.492-04:00", "updated_at": "2025-08-28T22:02:50.816-04:00", "avatar": "https://avatars.slack-edge.com/2025-08-28/9425342225986_7c3d5b4f55b2ee49f754_original.png", "custom_css": null}, {"id": 22750, "slack_id": "U09CXAB0HB3", "display_name": "deep", "bio": null, "projects_count": 0, "devlogs_count": 0, "votes_count": 0, "ships_count": 0, "projects": [], "coding_time_seconds": 0, "coding_time_seconds_today": 0, "balance": "You need to have a pocket watcher badge to view this.", "badges": [], "created_at": "2025-08-28T12:50:51.915-04:00", "updated_at": "2025-08-28T22:02:50.930-04:00", "avatar": "https://secure.gravatar.com/avatar/716cebbd8b6c59bd619e47e00b4e001a.jpg?s=512&d=https%3A%2F%2Fa.slack-edge.com%2Fdf10d%2Fimg%2Favatars%2Fava_0016-512.png", "custom_css": null}, {"id": 22751, "slack_id": "U09CN1E5D9S", "display_name": "Umar Azam", "bio": null, "projects_count": 1, "devlogs_count": 1, "votes_count": 0, "ships_count": 0, "projects": [{"id": 12765, "title": "Data Science RoadMap", "devlogs_count": 1, "created_at": "2025-09-02T06:34:58.926-04:00"}], "coding_time_seconds": 26187, "coding_time_seconds_today": 0, "balance": "You need to have a pocket watcher badge to view this.", "badges": [], "created_at": "2025-08-28T13:11:14.614-04:00", "updated_at": "2025-09-02T06:26:54.839-04:00", "avatar": "https://secure.gravatar.com/avatar/271352320e1af3bc2c68640e1aeda508.jpg?s=512&d=https%3A%2F%2Fa.slack-edge.com%2Fdf10d%2Fimg%2Favatars%2Fava_0002-512.png", "custom_css": null}, {"id": 22752, "slack_id": "U09CN2T6P6Y", "display_name": "nikola", "bio": null, "projects_count": 0, "devlogs_count": 0, "votes_count": 0, "ships_count": 0, "projects": [], "coding_time_seconds": 120, "coding_time_seconds_today": 0, "balance": "You need to have a pocket watcher badge to view this.", "badges": [], "created_at": "2025-08-28T13:18:57.207-04:00", "updated_at": "2025-08-28T23:57:16.779-04:00", "avatar": "https://secure.gravatar.com/avatar/e2c675da0f34fa2cc1af460131ef5b51.jpg?s=512&d=https%3A%2F%2Fa.slack-edge.com%2Fdf10d%2Fimg%2Favatars%2Fava_0004-512.png", "custom_css": null}, {"id": 22753, "slack_id": "U09CK6C04G6", "display_name": "Mahmoud Kaddour", "bio": null, "projects_count": 0, "devlogs_count": 0, "votes_count": 0, "ships_count": 0, "projects": [], "coding_time_seconds": 0, "coding_time_seconds_today": 0, "balance": "You need to have a pocket watcher badge to view this.", "badges": [], "created_at": "2025-08-28T14:13:48.511-04:00", "updated_at": "2025-08-28T22:02:51.266-04:00", "avatar": "https://secure.gravatar.com/avatar/3a62dd7cd7c697a99f7be45ce10be13f.jpg?s=512&d=https%3A%2F%2Fa.slack-edge.com%2Fdf10d%2Fimg%2Favatars%2Fava_0014-512.png", "custom_css": null}, {"id": 22754, "slack_id": "U09CDLDK8KD", "display_name": "Vinson", "bio": null, "projects_count": 0, "devlogs_count": 0, "votes_count": 0, "ships_count": 0, "projects": [], "coding_time_seconds": 0, "coding_time_seconds_today": 0, "balance": "You need to have a pocket watcher badge to view this.", "badges": [], "created_at": "2025-08-28T14:35:43.615-04:00", "updated_at": "2025-08-28T22:02:51.416-04:00", "avatar": "https://secure.gravatar.com/avatar/912c54e5fbe9d965c6bd97093d2280c5.jpg?s=512&d=https%3A%2F%2Fa.slack-edge.com%2Fdf10d%2Fimg%2Favatars%2Fava_0017-512.png", "custom_css": null}, {"id": 22755, "slack_id": "U09CX2JAXND", "display_name": "Syed Muhammad Haris", "bio": null, "projects_count": 1, "devlogs_count": 0, "votes_count": 0, "ships_count": 0, "projects": [{"id": 12508, "title": "Space Shooter", "devlogs_count": 0, "created_at": "2025-08-28T15:29:41.210-04:00"}], "coding_time_seconds": 7121, "coding_time_seconds_today": 0, "balance": "You need to have a pocket watcher badge to view this.", "badges": [], "created_at": "2025-08-28T14:36:58.837-04:00", "updated_at": "2025-08-28T15:25:07.725-04:00", "avatar": "https://secure.gravatar.com/avatar/3f1db766e8a8692bfb78c896a316763a.jpg?s=512&d=https%3A%2F%2Fa.slack-edge.com%2Fdf10d%2Fimg%2Favatars%2Fava_0025-512.png", "custom_css": null}, {"id": 22756, "slack_id": "U09CGEBDBMK", "display_name": "ice", "bio": null, "projects_count": 0, "devlogs_count": 0, "votes_count": 0, "ships_count": 0, "projects": [], "coding_time_seconds": 0, "coding_time_seconds_today": 0, "balance": "You need to have a pocket watcher badge to view this.", "badges": [], "created_at": "2025-08-28T15:44:29.689-04:00", "updated_at": "2025-08-28T22:02:51.693-04:00", "avatar": "https://avatars.slack-edge.com/2025-08-28/9426407792402_cb3403532c20daacf375_original.png", "custom_css": null}, {"id": 22757, "slack_id": "U09CE2LFTSP", "display_name": "Param", "bio": null, "projects_count": 0, "devlogs_count": 0, "votes_count": 0, "ships_count": 0, "projects": [], "coding_time_seconds": 0, "coding_time_seconds_today": 0, "balance": "You need to have a pocket watcher badge to view this.", "badges": [], "created_at": "2025-08-28T15:50:00.431-04:00", "updated_at": "2025-08-28T22:02:51.833-04:00", "avatar": "https://secure.gravatar.com/avatar/504b17571da68d7c3a5c6852f4ab958c.jpg?s=512&d=https%3A%2F%2Fa.slack-edge.com%2Fdf10d%2Fimg%2Favatars%2Fava_0013-512.png", "custom_css": null}, {"id": 22758, "slack_id": "U09CPAJJE2G", "display_name": "Deepesh", "bio": null, "projects_count": 0, "devlogs_count": 0, "votes_count": 0, "ships_count": 0, "projects": [], "coding_time_seconds": 0, "coding_time_seconds_today": 0, "balance": "You need to have a pocket watcher badge to view this.", "badges": [], "created_at": "2025-08-28T17:07:26.827-04:00", "updated_at": "2025-08-28T22:02:51.949-04:00", "avatar": "https://secure.gravatar.com/avatar/785a20c3c1bd481934e978609bda3055.jpg?s=512&d=https%3A%2F%2Fa.slack-edge.com%2Fdf10d%2Fimg%2Favatars%2Fava_0008-512.png", "custom_css": null}, {"id": 22759, "slack_id": "U09C5NEGQLF", "display_name": "dumo", "bio": "", "projects_count": 1, "devlogs_count": 4, "votes_count": 21, "ships_count": 1, "projects": [{"id": 12631, "title": "Drok", "devlogs_count": 4, "created_at": "2025-08-30T18:46:58.406-04:00"}], "coding_time_seconds": 88417, "coding_time_seconds_today": 0, "balance": "You need to have a pocket watcher badge to view this.", "badges": [], "created_at": "2025-08-28T17:20:33.683-04:00", "updated_at": "2025-09-05T17:41:28.695-04:00", "avatar": "https://avatars.slack-edge.com/2025-08-28/9441030707873_5f81386623a4a21428f3_original.jpg", "custom_css": null}, {"id": 22760, "slack_id": "U09DD0BP42U", "display_name": "Avery Stewart", "bio": null, "projects_count": 0, "devlogs_count": 0, "votes_count": 0, "ships_count": 0, "projects": [], "coding_time_seconds": 0, "coding_time_seconds_today": 0, "balance": "You need to have a pocket watcher badge to view this.", "badges": [], "created_at": "2025-08-28T18:16:21.695-04:00", "updated_at": "2025-08-28T22:02:52.151-04:00", "avatar": "https://secure.gravatar.com/avatar/8003964bb23743522091b28d1ce109b9.jpg?s=512&d=https%3A%2F%2Fa.slack-edge.com%2Fdf10d%2Fimg%2Favatars%2Fava_0018-512.png", "custom_css": null}, {"id": 22761, "slack_id": "U09C6222PC7", "display_name": "atf", "bio": null, "projects_count": 0, "devlogs_count": 0, "votes_count": 0, "ships_count": 0, "projects": [], "coding_time_seconds": 7224, "coding_time_seconds_today": 0, "balance": "You need to have a pocket watcher badge to view this.", "badges": [], "created_at": "2025-08-28T18:50:44.537-04:00", "updated_at": "2025-08-28T22:02:52.272-04:00", "avatar": "https://secure.gravatar.com/avatar/4479fd75b6f63d6959ca4c417b218319.jpg?s=512&d=https%3A%2F%2Fa.slack-edge.com%2Fdf10d%2Fimg%2Favatars%2Fava_0020-512.png", "custom_css": null}, {"id": 22762, "slack_id": "U09CZ9RMCHF", "display_name": "Mr flourish", "bio": null, "projects_count": 0, "devlogs_count": 0, "votes_count": 0, "ships_count": 0, "projects": [], "coding_time_seconds": 85634, "coding_time_seconds_today": 0, "balance": "You need to have a pocket watcher badge to view this.", "badges": [], "created_at": "2025-08-28T19:49:21.432-04:00", "updated_at": "2025-08-28T22:02:52.378-04:00", "avatar": "https://secure.gravatar.com/avatar/69e61f46941bad580f119654e8e42e54.jpg?s=512&d=https%3A%2F%2Fa.slack-edge.com%2Fdf10d%2Fimg%2Favatars%2Fava_0023-512.png", "custom_css": null}, {"id": 22763, "slack_id": "U09CF330F3M", "display_name": "0997udan", "bio": null, "projects_count": 0, "devlogs_count": 0, "votes_count": 0, "ships_count": 0, "projects": [], "coding_time_seconds": 1008, "coding_time_seconds_today": 0, "balance": "You need to have a pocket watcher badge to view this.", "badges": [], "created_at": "2025-08-28T19:56:57.548-04:00", "updated_at": "2025-08-28T22:02:52.479-04:00", "avatar": "https://avatars.slack-edge.com/2025-08-28/9455357281904_4aa9a7f81d317469d912_original.jpg", "custom_css": null}, {"id": 22764, "slack_id": "U09CZE5HC65", "display_name": "Daniel Henrique", "bio": null, "projects_count": 0, "devlogs_count": 0, "votes_count": 0, "ships_count": 0, "projects": [], "coding_time_seconds": 69454, "coding_time_seconds_today": 0, "balance": "You need to have a pocket watcher badge to view this.", "badges": [], "created_at": "2025-08-28T20:29:37.492-04:00", "updated_at": "2025-08-28T22:02:52.583-04:00", "avatar": "https://avatars.slack-edge.com/2025-08-28/9423227918355_2c3e23522a8277c74563_original.jpg", "custom_css": null}, {"id": 22765, "slack_id": "U09DDEY1P6U", "display_name": "Vihaan Rao", "bio": null, "projects_count": 0, "devlogs_count": 0, "votes_count": 0, "ships_count": 0, "projects": [], "coding_time_seconds": 0, "coding_time_seconds_today": 0, "balance": "You need to have a pocket watcher badge to view this.", "badges": [], "created_at": "2025-08-28T20:45:54.556-04:00", "updated_at": "2025-09-11T23:24:33.708-04:00", "avatar": "https://secure.gravatar.com/avatar/2de37ebb70baac7ba7c2c171eb16eff6.jpg?s=512&d=https%3A%2F%2Fa.slack-edge.com%2Fdf10d%2Fimg%2Favatars%2Fava_0019-512.png", "custom_css": null}], "pagination": {"page": 1134, "pages": 1192, "count": 23828, "items": 20}}