{"users": [{"id": 22766, "slack_id": "U09CZFY32BT", "display_name": "Vihan", "bio": null, "projects_count": 0, "devlogs_count": 0, "votes_count": 0, "ships_count": 0, "projects": [], "coding_time_seconds": 0, "coding_time_seconds_today": 0, "balance": "You need to have a pocket watcher badge to view this.", "badges": [], "created_at": "2025-08-28T20:47:29.408-04:00", "updated_at": "2025-08-28T22:02:52.802-04:00", "avatar": "https://secure.gravatar.com/avatar/aef11f7a9c473af36928ec83ed0ba07b.jpg?s=512&d=https%3A%2F%2Fa.slack-edge.com%2Fdf10d%2Fimg%2Favatars%2Fava_0019-512.png", "custom_css": null}, {"id": 22767, "slack_id": "U09CHMN69MK", "display_name": "Saif Q.", "bio": "", "projects_count": 0, "devlogs_count": 0, "votes_count": 0, "ships_count": 0, "projects": [], "coding_time_seconds": 0, "coding_time_seconds_today": 0, "balance": "You need to have a pocket watcher badge to view this.", "badges": [], "created_at": "2025-08-28T21:05:17.851-04:00", "updated_at": "2025-08-29T04:03:28.558-04:00", "avatar": "https://avatars.slack-edge.com/2025-08-28/9455887053024_334ee28b20a1c51e9b16_original.png", "custom_css": null}, {"id": 22768, "slack_id": "U08QH9R8HU7", "display_name": "Eshani Ghatak", "bio": null, "projects_count": 0, "devlogs_count": 0, "votes_count": 0, "ships_count": 0, "projects": [], "coding_time_seconds": 0, "coding_time_seconds_today": 0, "balance": "You need to have a pocket watcher badge to view this.", "badges": [], "created_at": "2025-08-28T21:32:42.607-04:00", "updated_at": "2025-08-28T22:02:53.062-04:00", "avatar": "https://avatars.slack-edge.com/2025-05-05/8840726124694_da846e234156676806ab_original.png", "custom_css": null}, {"id": 22769, "slack_id": "U09DDHSBJV6", "display_name": "Esther Joseph", "bio": null, "projects_count": 0, "devlogs_count": 0, "votes_count": 0, "ships_count": 0, "projects": [], "coding_time_seconds": 0, "coding_time_seconds_today": 0, "balance": "You need to have a pocket watcher badge to view this.", "badges": [], "created_at": "2025-08-28T21:39:59.832-04:00", "updated_at": "2025-08-28T22:02:53.152-04:00", "avatar": "https://secure.gravatar.com/avatar/44894c1297b1b2caf1f69dee5eda8ea6.jpg?s=512&d=https%3A%2F%2Fa.slack-edge.com%2Fdf10d%2Fimg%2Favatars%2Fava_0007-512.png", "custom_css": null}, {"id": 22770, "slack_id": "U09C6KSEPL7", "display_name": "Eshaan", "bio": null, "projects_count": 0, "devlogs_count": 0, "votes_count": 0, "ships_count": 0, "projects": [], "coding_time_seconds": 0, "coding_time_seconds_today": 0, "balance": "You need to have a pocket watcher badge to view this.", "badges": [], "created_at": "2025-08-28T22:13:18.665-04:00", "updated_at": "2025-08-29T04:03:29.056-04:00", "avatar": "https://secure.gravatar.com/avatar/2889b257a5312baf09ba7a5e1a846157.jpg?s=512&d=https%3A%2F%2Fa.slack-edge.com%2Fdf10d%2Fimg%2Favatars%2Fava_0025-512.png", "custom_css": null}, {"id": 22771, "slack_id": "U09CJ08KPL5", "display_name": "Karthik Konduri", "bio": null, "projects_count": 0, "devlogs_count": 0, "votes_count": 0, "ships_count": 0, "projects": [], "coding_time_seconds": 0, "coding_time_seconds_today": 0, "balance": "You need to have a pocket watcher badge to view this.", "badges": [], "created_at": "2025-08-28T22:32:25.693-04:00", "updated_at": "2025-08-29T04:03:29.219-04:00", "avatar": "https://secure.gravatar.com/avatar/9510b0342f6389e376c87f0f64b38958.jpg?s=512&d=https%3A%2F%2Fa.slack-edge.com%2Fdf10d%2Fimg%2Favatars%2Fava_0004-512.png", "custom_css": null}, {"id": 22772, "slack_id": "U09C6MF7QHM", "display_name": "Omri Weinmann", "bio": "Hey guys, it\u2019s me, studios.", "projects_count": 4, "devlogs_count": 27, "votes_count": 91, "ships_count": 4, "projects": [{"id": 12571, "title": "Survive The Guys and Kill Them With Gilgamesh From Civ 6", "devlogs_count": 1, "created_at": "2025-08-29T21:57:28.013-04:00"}, {"id": 12648, "title": "TileMapEngine - Procedural Map Generation", "devlogs_count": 1, "created_at": "2025-08-31T02:02:01.341-04:00"}, {"id": 12687, "title": "Omri Weinmann's Road and Rail Tycoon", "devlogs_count": 26, "created_at": "2025-08-31T20:59:50.844-04:00"}, {"id": 13752, "title": "Gilgamesh Praise - Boba Drop Website", "devlogs_count": 1, "created_at": "2025-09-24T23:13:48.123-04:00"}], "coding_time_seconds": 241508, "coding_time_seconds_today": 0, "balance": "You need to have a pocket watcher badge to view this.", "badges": [], "created_at": "2025-08-28T22:35:05.782-04:00", "updated_at": "2025-09-06T02:26:43.008-04:00", "avatar": "https://avatars.slack-edge.com/2025-08-28/9429167135286_10724c3398e16cc3a2ef_original.png", "custom_css": null}, {"id": 22773, "slack_id": "U09BXE63HP1", "display_name": "Sheerin", "bio": null, "projects_count": 0, "devlogs_count": 0, "votes_count": 0, "ships_count": 0, "projects": [], "coding_time_seconds": 0, "coding_time_seconds_today": 0, "balance": "You need to have a pocket watcher badge to view this.", "badges": [], "created_at": "2025-08-29T00:11:44.671-04:00", "updated_at": "2025-08-29T04:03:29.422-04:00", "avatar": "https://secure.gravatar.com/avatar/50afa4ea45497f79e71ad8a36ce6cd68.jpg?s=512&d=https%3A%2F%2Fa.slack-edge.com%2Fdf10d%2Fimg%2Favatars%2Fava_0011-512.png", "custom_css": null}, {"id": 22774, "slack_id": "U09DEBLLCQG", "display_name": "Maria Nikola", "bio": null, "projects_count": 0, "devlogs_count": 0, "votes_count": 0, "ships_count": 0, "projects": [], "coding_time_seconds": 870, "coding_time_seconds_today": 0, "balance": "You need to have a pocket watcher badge to view this.", "badges": [], "created_at": "2025-08-29T01:26:32.807-04:00", "updated_at": "2025-08-29T04:03:29.528-04:00", "avatar": "https://avatars.slack-edge.com/2025-08-28/9426568931685_dc3cf93ebe7ef2e6ff70_original.png", "custom_css": null}, {"id": 22775, "slack_id": "U09D0GJH28H", "display_name": "Anisha", "bio": null, "projects_count": 0, "devlogs_count": 0, "votes_count": 0, "ships_count": 0, "projects": [], "coding_time_seconds": 0, "coding_time_seconds_today": 0, "balance": "You need to have a pocket watcher badge to view this.", "badges": [], "created_at": "2025-08-29T02:09:37.649-04:00", "updated_at": "2025-08-29T04:03:29.653-04:00", "avatar": "https://secure.gravatar.com/avatar/aac15abd1a8ec1b218f6fca0cdbe4afa.jpg?s=512&d=https%3A%2F%2Fa.slack-edge.com%2Fdf10d%2Fimg%2Favatars%2Fava_0005-512.png", "custom_css": null}, {"id": 22776, "slack_id": "U09CLH7856W", "display_name": "SHLOK SHAH", "bio": null, "projects_count": 0, "devlogs_count": 0, "votes_count": 0, "ships_count": 0, "projects": [], "coding_time_seconds": 0, "coding_time_seconds_today": 0, "balance": "You need to have a pocket watcher badge to view this.", "badges": [], "created_at": "2025-08-29T02:15:01.307-04:00", "updated_at": "2025-08-29T04:03:29.760-04:00", "avatar": "https://secure.gravatar.com/avatar/a14a0af2ee57a602375bcfc7536c46a1.jpg?s=512&d=https%3A%2F%2Fa.slack-edge.com%2Fdf10d%2Fimg%2Favatars%2Fava_0025-512.png", "custom_css": null}, {"id": 22777, "slack_id": "U09C7BZ5H6K", "display_name": "sssscccc210", "bio": null, "projects_count": 1, "devlogs_count": 3, "votes_count": 0, "ships_count": 0, "projects": [{"id": 13010, "title": "Mini Games", "devlogs_count": 3, "created_at": "2025-09-06T20:33:36.350-04:00"}], "coding_time_seconds": 51164, "coding_time_seconds_today": 0, "balance": "You need to have a pocket watcher badge to view this.", "badges": [], "created_at": "2025-08-29T02:15:56.324-04:00", "updated_at": "2025-09-07T03:22:01.928-04:00", "avatar": "https://secure.gravatar.com/avatar/d25a552b0395d6ea31a290d3011bae0a.jpg?s=512&d=https%3A%2F%2Fa.slack-edge.com%2Fdf10d%2Fimg%2Favatars%2Fava_0005-512.png", "custom_css": null}, {"id": 22778, "slack_id": "U09CGF1L6PM", "display_name": "Vedant Tyagi", "bio": null, "projects_count": 1, "devlogs_count": 5, "votes_count": 20, "ships_count": 1, "projects": [{"id": 12535, "title": "Task Manager", "devlogs_count": 5, "created_at": "2025-08-29T04:48:20.945-04:00"}], "coding_time_seconds": 23028, "coding_time_seconds_today": 0, "balance": "You need to have a pocket watcher badge to view this.", "badges": [], "created_at": "2025-08-29T03:00:03.129-04:00", "updated_at": "2025-08-29T04:03:34.022-04:00", "avatar": "https://avatars.slack-edge.com/2025-08-28/9426940034069_7e1f5682ed0b4d421cef_original.jpg", "custom_css": null}, {"id": 22779, "slack_id": "U09DETEB82C", "display_name": "Abhishek Kumar", "bio": null, "projects_count": 1, "devlogs_count": 0, "votes_count": 0, "ships_count": 0, "projects": [{"id": 12547, "title": "project1", "devlogs_count": 0, "created_at": "2025-08-29T09:40:33.787-04:00"}], "coding_time_seconds": 56227, "coding_time_seconds_today": 590, "balance": "You need to have a pocket watcher badge to view this.", "badges": [], "created_at": "2025-08-29T03:32:19.791-04:00", "updated_at": "2025-08-29T05:30:02.067-04:00", "avatar": "https://secure.gravatar.com/avatar/2e4664b4fc60eebb097b56d46ea17c94.jpg?s=512&d=https%3A%2F%2Fa.slack-edge.com%2Fdf10d%2Fimg%2Favatars%2Fava_0003-512.png", "custom_css": null}, {"id": 22780, "slack_id": "U09D14AEDUZ", "display_name": "Samir Ghimire", "bio": null, "projects_count": 4, "devlogs_count": 15, "votes_count": 140, "ships_count": 4, "projects": [{"id": 13458, "title": "Fitness/Workout Tracker", "devlogs_count": 1, "created_at": "2025-09-17T00:16:56.474-04:00"}, {"id": 12771, "title": "Bookmarklets", "devlogs_count": 4, "created_at": "2025-09-02T08:59:28.277-04:00"}, {"id": 12772, "title": "Real Installs Viewer", "devlogs_count": 8, "created_at": "2025-09-02T09:19:12.228-04:00"}, {"id": 12576, "title": "spot finder", "devlogs_count": 2, "created_at": "2025-08-30T02:40:57.836-04:00"}], "coding_time_seconds": 75097, "coding_time_seconds_today": 0, "balance": "You need to have a pocket watcher badge to view this.", "badges": [{"name": "Maiden Voyage", "text": "you shipped your first project! the journey begins...", "icon": "\ud83d\udea2"}, {"name": "Ballot Stuffer", "text": "vote 100 times.", "icon": "https://summer.hackclub.com/assets/i_voted-bf851b48.png"}], "created_at": "2025-08-29T04:18:01.367-04:00", "updated_at": "2025-09-16T12:26:42.153-04:00", "avatar": "https://secure.gravatar.com/avatar/d2b4be9784c0180439fe2b0ad3f9059b.jpg?s=512&d=https%3A%2F%2Fa.slack-edge.com%2Fdf10d%2Fimg%2Favatars%2Fava_0016-512.png", "custom_css": null}, {"id": 22781, "slack_id": "U09CHADBUUT", "display_name": "kimzu", "bio": null, "projects_count": 0, "devlogs_count": 0, "votes_count": 0, "ships_count": 0, "projects": [], "coding_time_seconds": 0, "coding_time_seconds_today": 0, "balance": "You need to have a pocket watcher badge to view this.", "badges": [], "created_at": "2025-08-29T05:53:31.856-04:00", "updated_at": "2025-09-15T08:01:57.866-04:00", "avatar": "https://avatars.slack-edge.com/2025-09-15/9544952675888_4f0d097e908138f51808_original.jpg", "custom_css": null}, {"id": 22782, "slack_id": "U088DA71DBQ", "display_name": "Freddy", "bio": null, "projects_count": 0, "devlogs_count": 0, "votes_count": 0, "ships_count": 0, "projects": [], "coding_time_seconds": 0, "coding_time_seconds_today": 0, "balance": "You need to have a pocket watcher badge to view this.", "badges": [], "created_at": "2025-08-29T06:47:40.792-04:00", "updated_at": "2025-08-29T13:00:04.081-04:00", "avatar": "https://secure.gravatar.com/avatar/c9b119e681c94821f07c943efdc88d47.jpg?s=512&d=https%3A%2F%2Fa.slack-edge.com%2Fdf10d%2Fimg%2Favatars%2Fava_0013-512.png", "custom_css": null}, {"id": 22783, "slack_id": "U09CL27Q8UD", "display_name": "Mustafa Albareh", "bio": null, "projects_count": 0, "devlogs_count": 0, "votes_count": 0, "ships_count": 0, "projects": [], "coding_time_seconds": 0, "coding_time_seconds_today": 0, "balance": "You need to have a pocket watcher badge to view this.", "badges": [], "created_at": "2025-08-29T07:01:43.551-04:00", "updated_at": "2025-09-01T13:08:55.429-04:00", "avatar": "https://avatars.slack-edge.com/2025-08-29/9457993032496_b0f2874fa9b2e28dbb3b_original.jpg", "custom_css": null}, {"id": 22784, "slack_id": "U09CQ0DPZ9U", "display_name": "RYAN", "bio": null, "projects_count": 0, "devlogs_count": 0, "votes_count": 0, "ships_count": 0, "projects": [], "coding_time_seconds": 12910, "coding_time_seconds_today": 346, "balance": "You need to have a pocket watcher badge to view this.", "badges": [], "created_at": "2025-08-29T10:17:40.809-04:00", "updated_at": "2025-08-29T16:03:10.078-04:00", "avatar": "https://secure.gravatar.com/avatar/b42166cd1b4e325d36850f770e8337af.jpg?s=512&d=https%3A%2F%2Fa.slack-edge.com%2Fdf10d%2Fimg%2Favatars%2Fava_0015-512.png", "custom_css": null}, {"id": 22785, "slack_id": "U09D2TBQC01", "display_name": "gaia", "bio": null, "projects_count": 0, "devlogs_count": 0, "votes_count": 0, "ships_count": 0, "projects": [], "coding_time_seconds": 0, "coding_time_seconds_today": 0, "balance": "You need to have a pocket watcher badge to view this.", "badges": [], "created_at": "2025-08-29T10:33:53.677-04:00", "updated_at": "2025-08-29T16:03:10.188-04:00", "avatar": "https://secure.gravatar.com/avatar/956efe0c81764b471df2502a0bc6c342.jpg?s=512&d=https%3A%2F%2Fa.slack-edge.com%2Fdf10d%2Fimg%2Favatars%2Fava_0019-512.png", "custom_css": null}], "pagination": {"page": 1135, "pages": 1192, "count": 23828, "items": 20}}