{"users": [{"id": 22786, "slack_id": "U09D0MAJDLG", "display_name": "Dazel", "bio": null, "projects_count": 0, "devlogs_count": 0, "votes_count": 0, "ships_count": 0, "projects": [], "coding_time_seconds": 0, "coding_time_seconds_today": 0, "balance": "You need to have a pocket watcher badge to view this.", "badges": [], "created_at": "2025-08-29T10:42:12.119-04:00", "updated_at": "2025-08-29T16:03:10.317-04:00", "avatar": "https://secure.gravatar.com/avatar/8b5044638493a0b38feebb4f92aa719d.jpg?s=512&d=https%3A%2F%2Fa.slack-edge.com%2Fdf10d%2Fimg%2Favatars%2Fava_0025-512.png", "custom_css": null}, {"id": 22787, "slack_id": "U09CM644EUD", "display_name": "Landon Hurley", "bio": null, "projects_count": 0, "devlogs_count": 0, "votes_count": 0, "ships_count": 0, "projects": [], "coding_time_seconds": 0, "coding_time_seconds_today": 0, "balance": "You need to have a pocket watcher badge to view this.", "badges": [], "created_at": "2025-08-29T10:45:08.923-04:00", "updated_at": "2025-08-29T16:03:10.413-04:00", "avatar": "https://secure.gravatar.com/avatar/0751aa335bfd9973208657bc7cc5692c.jpg?s=512&d=https%3A%2F%2Fa.slack-edge.com%2Fdf10d%2Fimg%2Favatars%2Fava_0008-512.png", "custom_css": null}, {"id": 22788, "slack_id": "U09CK1Z10BD", "display_name": "Spread", "bio": null, "projects_count": 0, "devlogs_count": 0, "votes_count": 0, "ships_count": 0, "projects": [], "coding_time_seconds": 0, "coding_time_seconds_today": 0, "balance": "You need to have a pocket watcher badge to view this.", "badges": [], "created_at": "2025-08-29T11:31:34.073-04:00", "updated_at": "2025-08-29T16:03:10.517-04:00", "avatar": "https://secure.gravatar.com/avatar/247d0fa8fddaf3dd8301181bc12f5801.jpg?s=512&d=https%3A%2F%2Fa.slack-edge.com%2Fdf10d%2Fimg%2Favatars%2Fava_0016-512.png", "custom_css": null}, {"id": 22789, "slack_id": "U09CU7JEN4U", "display_name": "Sandor", "bio": null, "projects_count": 0, "devlogs_count": 0, "votes_count": 0, "ships_count": 0, "projects": [], "coding_time_seconds": 76, "coding_time_seconds_today": 0, "balance": "You need to have a pocket watcher badge to view this.", "badges": [], "created_at": "2025-08-29T12:38:18.956-04:00", "updated_at": "2025-08-29T16:03:10.610-04:00", "avatar": "https://avatars.slack-edge.com/2025-08-29/9431604423330_daf6d433eb08e777deb4_original.png", "custom_css": null}, {"id": 22790, "slack_id": "U09D3LH8FFT", "display_name": "Gehendraraj Pyakurel", "bio": null, "projects_count": 0, "devlogs_count": 0, "votes_count": 0, "ships_count": 0, "projects": [], "coding_time_seconds": 0, "coding_time_seconds_today": 0, "balance": "You need to have a pocket watcher badge to view this.", "badges": [], "created_at": "2025-08-29T12:38:23.855-04:00", "updated_at": "2025-08-29T16:03:10.716-04:00", "avatar": "https://secure.gravatar.com/avatar/11ca6b11513c6f669fb37aa88b2608ec.jpg?s=512&d=https%3A%2F%2Fa.slack-edge.com%2Fdf10d%2Fimg%2Favatars%2Fava_0014-512.png", "custom_css": null}, {"id": 22791, "slack_id": "U09D3LKCHS5", "display_name": "Esha haroon", "bio": null, "projects_count": 0, "devlogs_count": 0, "votes_count": 0, "ships_count": 0, "projects": [], "coding_time_seconds": 33260, "coding_time_seconds_today": 1083, "balance": "You need to have a pocket watcher badge to view this.", "badges": [], "created_at": "2025-08-29T12:42:07.823-04:00", "updated_at": "2025-09-01T13:10:11.800-04:00", "avatar": "https://secure.gravatar.com/avatar/a1fc862535abc099c5f51710f2a4eeb3.jpg?s=512&d=https%3A%2F%2Fa.slack-edge.com%2Fdf10d%2Fimg%2Favatars%2Fava_0018-512.png", "custom_css": null}, {"id": 22792, "slack_id": "U09CAS6F3C7", "display_name": "Jayden Le", "bio": null, "projects_count": 0, "devlogs_count": 0, "votes_count": 0, "ships_count": 0, "projects": [], "coding_time_seconds": 0, "coding_time_seconds_today": 0, "balance": "You need to have a pocket watcher badge to view this.", "badges": [], "created_at": "2025-08-29T14:32:16.401-04:00", "updated_at": "2025-08-30T01:15:14.354-04:00", "avatar": "https://secure.gravatar.com/avatar/a9580ec5407681f3b331b7c8b03db641.jpg?s=512&d=https%3A%2F%2Fa.slack-edge.com%2Fdf10d%2Fimg%2Favatars%2Fava_0010-512.png", "custom_css": null}, {"id": 22793, "slack_id": "U09CPRYUMKL", "display_name": "Jo\u00e3o Rodrigo H. Luckow", "bio": null, "projects_count": 1, "devlogs_count": 2, "votes_count": 20, "ships_count": 1, "projects": [{"id": 12593, "title": "Classroom System in Java", "devlogs_count": 2, "created_at": "2025-08-30T08:18:06.804-04:00"}], "coding_time_seconds": 30038, "coding_time_seconds_today": 0, "balance": "You need to have a pocket watcher badge to view this.", "badges": [], "created_at": "2025-08-29T15:17:27.038-04:00", "updated_at": "2025-08-29T17:30:02.762-04:00", "avatar": "https://secure.gravatar.com/avatar/7e477cd5405c8a4f7c91a3c337745306.jpg?s=512&d=https%3A%2F%2Fa.slack-edge.com%2Fdf10d%2Fimg%2Favatars%2Fava_0019-512.png", "custom_css": null}, {"id": 22794, "slack_id": "U07JCEA65HQ", "display_name": "Kareem Elkassas", "bio": null, "projects_count": 0, "devlogs_count": 0, "votes_count": 0, "ships_count": 0, "projects": [], "coding_time_seconds": 179, "coding_time_seconds_today": 0, "balance": "You need to have a pocket watcher badge to view this.", "badges": [], "created_at": "2025-08-29T16:43:46.518-04:00", "updated_at": "2025-08-29T16:51:18.990-04:00", "avatar": "https://avatars.slack-edge.com/2024-08-24/7624381866419_11dcc02ab6dfeed8c4d8_original.png", "custom_css": null}, {"id": 22795, "slack_id": "U09CP3ZE945", "display_name": "amogusreal", "bio": null, "projects_count": 0, "devlogs_count": 0, "votes_count": 0, "ships_count": 0, "projects": [], "coding_time_seconds": 0, "coding_time_seconds_today": 0, "balance": "You need to have a pocket watcher badge to view this.", "badges": [], "created_at": "2025-08-29T16:54:02.136-04:00", "updated_at": "2025-08-29T22:03:05.099-04:00", "avatar": "https://secure.gravatar.com/avatar/ab300d3264d96d11855ecccc1bcf6c1a.jpg?s=512&d=https%3A%2F%2Fa.slack-edge.com%2Fdf10d%2Fimg%2Favatars%2Fava_0005-512.png", "custom_css": null}, {"id": 22796, "slack_id": "U09D4EL3717", "display_name": "Alan Tao", "bio": null, "projects_count": 0, "devlogs_count": 0, "votes_count": 0, "ships_count": 0, "projects": [], "coding_time_seconds": 67146, "coding_time_seconds_today": 0, "balance": "You need to have a pocket watcher badge to view this.", "badges": [], "created_at": "2025-08-29T16:59:52.315-04:00", "updated_at": "2025-08-30T02:00:02.276-04:00", "avatar": "https://avatars.slack-edge.com/2025-08-29/9419136107463_988f7bb3c9ba200e3685_original.jpg", "custom_css": null}, {"id": 22797, "slack_id": "U09CBF0DS4F", "display_name": "lolodotzip", "bio": "Hey! I'm formely known as lolodotzip online- and I like to code to solve issues I have in my daily life. \r\nI'm a video editor (that does bad anime edits), and someone who just loves animes in general.\r\nHit me up if you wanna talk!", "projects_count": 2, "devlogs_count": 9, "votes_count": 40, "ships_count": 2, "projects": [{"id": 12616, "title": "Weather Station", "devlogs_count": 3, "created_at": "2025-08-30T14:29:28.092-04:00"}, {"id": 12819, "title": "Hackatime for Discord", "devlogs_count": 6, "created_at": "2025-09-03T08:15:46.738-04:00"}], "coding_time_seconds": 92857, "coding_time_seconds_today": 0, "balance": "You need to have a pocket watcher badge to view this.", "badges": [], "created_at": "2025-08-29T17:02:08.980-04:00", "updated_at": "2025-08-31T05:28:59.156-04:00", "avatar": "https://avatars.slack-edge.com/2025-08-29/9437612891652_0ba535ae6f08fc0344f8_original.jpg", "custom_css": null}, {"id": 22798, "slack_id": "U09CQPY4SAW", "display_name": "kei", "bio": null, "projects_count": 0, "devlogs_count": 0, "votes_count": 0, "ships_count": 0, "projects": [], "coding_time_seconds": 0, "coding_time_seconds_today": 0, "balance": "You need to have a pocket watcher badge to view this.", "badges": [], "created_at": "2025-08-29T17:23:44.310-04:00", "updated_at": "2025-08-29T22:03:09.415-04:00", "avatar": "https://secure.gravatar.com/avatar/76d091a02d58c0fafb1a5492fe66595d.jpg?s=512&d=https%3A%2F%2Fa.slack-edge.com%2Fdf10d%2Fimg%2Favatars%2Fava_0019-512.png", "custom_css": null}, {"id": 22799, "slack_id": "U09CBHNEASK", "display_name": "Yuvraj Singh", "bio": null, "projects_count": 0, "devlogs_count": 0, "votes_count": 0, "ships_count": 0, "projects": [], "coding_time_seconds": 0, "coding_time_seconds_today": 0, "balance": "You need to have a pocket watcher badge to view this.", "badges": [], "created_at": "2025-08-29T17:24:06.148-04:00", "updated_at": "2025-08-29T22:03:09.522-04:00", "avatar": "https://secure.gravatar.com/avatar/4cc13896befac92ee7eaacd7fc3dc7ab.jpg?s=512&d=https%3A%2F%2Fa.slack-edge.com%2Fdf10d%2Fimg%2Favatars%2Fava_0012-512.png", "custom_css": null}, {"id": 22800, "slack_id": "U09CS1JQSUW", "display_name": "AJ", "bio": null, "projects_count": 0, "devlogs_count": 0, "votes_count": 0, "ships_count": 0, "projects": [], "coding_time_seconds": 0, "coding_time_seconds_today": 0, "balance": "You need to have a pocket watcher badge to view this.", "badges": [], "created_at": "2025-08-29T17:30:56.455-04:00", "updated_at": "2025-08-29T22:03:09.624-04:00", "avatar": "https://secure.gravatar.com/avatar/783a57f43fb8cfbcf92e12636c69b162.jpg?s=512&d=https%3A%2F%2Fa.slack-edge.com%2Fdf10d%2Fimg%2Favatars%2Fava_0015-512.png", "custom_css": null}, {"id": 22801, "slack_id": "U07U6PZMZT9", "display_name": "Star", "bio": null, "projects_count": 1, "devlogs_count": 1, "votes_count": 1, "ships_count": 0, "projects": [{"id": 13148, "title": "Ghost Website", "devlogs_count": 1, "created_at": "2025-09-09T17:57:58.768-04:00"}], "coding_time_seconds": 23215, "coding_time_seconds_today": 0, "balance": "You need to have a pocket watcher badge to view this.", "badges": [], "created_at": "2025-08-29T17:48:38.917-04:00", "updated_at": "2025-09-09T16:04:53.999-04:00", "avatar": "https://avatars.slack-edge.com/2024-11-04/8004260499552_79519b0ddef2d1aacb7c_original.png", "custom_css": null}, {"id": 22802, "slack_id": "U09CPKGU3QD", "display_name": "Handa", "bio": null, "projects_count": 1, "devlogs_count": 2, "votes_count": 0, "ships_count": 0, "projects": [{"id": 13599, "title": "obsera", "devlogs_count": 1, "created_at": "2025-09-20T13:08:12.025-04:00"}], "coding_time_seconds": 35548, "coding_time_seconds_today": 0, "balance": "You need to have a pocket watcher badge to view this.", "badges": [], "created_at": "2025-08-29T20:05:11.120-04:00", "updated_at": "2025-08-30T02:30:05.877-04:00", "avatar": "https://secure.gravatar.com/avatar/2cc871ac35aa3ed33f36b5e2360dc7d4.jpg?s=512&d=https%3A%2F%2Fa.slack-edge.com%2Fdf10d%2Fimg%2Favatars%2Fava_0002-512.png", "custom_css": null}, {"id": 22803, "slack_id": "U09CW2VKQJG", "display_name": "Cali", "bio": null, "projects_count": 0, "devlogs_count": 0, "votes_count": 0, "ships_count": 0, "projects": [], "coding_time_seconds": 0, "coding_time_seconds_today": 0, "balance": "You need to have a pocket watcher badge to view this.", "badges": [], "created_at": "2025-08-29T20:38:54.341-04:00", "updated_at": "2025-08-31T10:29:20.740-04:00", "avatar": "https://secure.gravatar.com/avatar/590038df7f274341222fb152728d3903.jpg?s=512&d=https%3A%2F%2Fa.slack-edge.com%2Fdf10d%2Fimg%2Favatars%2Fava_0002-512.png", "custom_css": null}, {"id": 22804, "slack_id": "U09DKHG4UQG", "display_name": "lavender_ana", "bio": null, "projects_count": 0, "devlogs_count": 0, "votes_count": 0, "ships_count": 0, "projects": [], "coding_time_seconds": 0, "coding_time_seconds_today": 0, "balance": "You need to have a pocket watcher badge to view this.", "badges": [], "created_at": "2025-08-29T21:08:12.265-04:00", "updated_at": "2025-08-29T22:03:10.062-04:00", "avatar": "https://secure.gravatar.com/avatar/3b65d77bb1800f8fc5c0f5c74698c390.jpg?s=512&d=https%3A%2F%2Fa.slack-edge.com%2Fdf10d%2Fimg%2Favatars%2Fava_0024-512.png", "custom_css": null}, {"id": 22805, "slack_id": "U09D5HH0881", "display_name": "Wind Surfer", "bio": null, "projects_count": 1, "devlogs_count": 9, "votes_count": 0, "ships_count": 0, "projects": [{"id": 13127, "title": "Eartle", "devlogs_count": 9, "created_at": "2025-09-09T07:36:46.059-04:00"}], "coding_time_seconds": 143923, "coding_time_seconds_today": 0, "balance": "You need to have a pocket watcher badge to view this.", "badges": [], "created_at": "2025-08-29T22:00:09.783-04:00", "updated_at": "2025-09-06T21:48:07.598-04:00", "avatar": "https://avatars.slack-edge.com/2025-08-29/9434625444054_9e8b431b5d58207a99cf_original.png", "custom_css": null}], "pagination": {"page": 1136, "pages": 1192, "count": 23828, "items": 20}}