{"users": [{"id": 22806, "slack_id": "U09CT9J0VB3", "display_name": "Lucille", "bio": null, "projects_count": 0, "devlogs_count": 0, "votes_count": 0, "ships_count": 0, "projects": [], "coding_time_seconds": 0, "coding_time_seconds_today": 0, "balance": "You need to have a pocket watcher badge to view this.", "badges": [], "created_at": "2025-08-29T23:07:35.295-04:00", "updated_at": "2025-08-30T04:03:04.206-04:00", "avatar": "https://secure.gravatar.com/avatar/ae22f83538fdda81b6aeec962e55b86e.jpg?s=512&d=https%3A%2F%2Fa.slack-edge.com%2Fdf10d%2Fimg%2Favatars%2Fava_0001-512.png", "custom_css": null}, {"id": 22807, "slack_id": "U09DKPPGHFS", "display_name": "sage", "bio": null, "projects_count": 0, "devlogs_count": 0, "votes_count": 0, "ships_count": 0, "projects": [], "coding_time_seconds": 0, "coding_time_seconds_today": 0, "balance": "You need to have a pocket watcher badge to view this.", "badges": [], "created_at": "2025-08-29T23:38:28.771-04:00", "updated_at": "2025-08-30T04:03:04.299-04:00", "avatar": "https://secure.gravatar.com/avatar/2954786f1ea38c4fb642dfd66124355a.jpg?s=512&d=https%3A%2F%2Fa.slack-edge.com%2Fdf10d%2Fimg%2Favatars%2Fava_0017-512.png", "custom_css": null}, {"id": 22808, "slack_id": "U09DKPTAYN4", "display_name": "nfnaaice", "bio": "", "projects_count": 3, "devlogs_count": 17, "votes_count": 31, "ships_count": 1, "projects": [{"id": 13080, "title": "The Zerowaste Hero", "devlogs_count": 1, "created_at": "2025-09-08T08:26:26.328-04:00"}, {"id": 13428, "title": "nfnaa portofolio's", "devlogs_count": 6, "created_at": "2025-09-16T06:32:44.527-04:00"}, {"id": 13283, "title": "dad i want this <3", "devlogs_count": 10, "created_at": "2025-09-13T08:50:20.146-04:00"}], "coding_time_seconds": 156400, "coding_time_seconds_today": 1502, "balance": "You need to have a pocket watcher badge to view this.", "badges": [{"name": "Maiden Voyage", "text": "you shipped your first project! the journey begins...", "icon": "\ud83d\udea2"}], "created_at": "2025-08-29T23:50:37.759-04:00", "updated_at": "2025-09-13T11:09:40.381-04:00", "avatar": "https://avatars.slack-edge.com/2025-09-13/9509794441989_31ceff485dcde1466722_original.jpg", "custom_css": null}, {"id": 22809, "slack_id": "U09CQ35TN77", "display_name": "Lina", "bio": null, "projects_count": 0, "devlogs_count": 0, "votes_count": 0, "ships_count": 0, "projects": [], "coding_time_seconds": 0, "coding_time_seconds_today": 0, "balance": "You need to have a pocket watcher badge to view this.", "badges": [], "created_at": "2025-08-30T00:18:00.198-04:00", "updated_at": "2025-08-30T17:04:08.344-04:00", "avatar": "https://secure.gravatar.com/avatar/c64c4ba2309315c55941a20a88d6ad2c.jpg?s=512&d=https%3A%2F%2Fa.slack-edge.com%2Fdf10d%2Fimg%2Favatars%2Fava_0024-512.png", "custom_css": null}, {"id": 22810, "slack_id": "U09CCDNL9PZ", "display_name": "RiseUpEra", "bio": null, "projects_count": 0, "devlogs_count": 0, "votes_count": 0, "ships_count": 0, "projects": [], "coding_time_seconds": 0, "coding_time_seconds_today": 0, "balance": "You need to have a pocket watcher badge to view this.", "badges": [], "created_at": "2025-08-30T01:12:14.325-04:00", "updated_at": "2025-09-09T07:53:04.190-04:00", "avatar": "https://avatars.slack-edge.com/2025-08-29/9429701293555_9e1df1131c8503494271_original.png", "custom_css": null}, {"id": 22811, "slack_id": "U09CRPT101Y", "display_name": "Agastya Mandal", "bio": null, "projects_count": 0, "devlogs_count": 0, "votes_count": 1, "ships_count": 0, "projects": [], "coding_time_seconds": 0, "coding_time_seconds_today": 0, "balance": "You need to have a pocket watcher badge to view this.", "badges": [], "created_at": "2025-08-30T01:54:53.430-04:00", "updated_at": "2025-08-30T04:03:08.761-04:00", "avatar": "https://secure.gravatar.com/avatar/7323ab87e4c12f9d2420eab3d58d4529.jpg?s=512&d=https%3A%2F%2Fa.slack-edge.com%2Fdf10d%2Fimg%2Favatars%2Fava_0019-512.png", "custom_css": null}, {"id": 22812, "slack_id": "U07ENPJEG0G", "display_name": "Sujal Suhaas", "bio": "", "projects_count": 0, "devlogs_count": 0, "votes_count": 0, "ships_count": 0, "projects": [], "coding_time_seconds": 0, "coding_time_seconds_today": 0, "balance": "You need to have a pocket watcher badge to view this.", "badges": [], "created_at": "2025-08-30T02:11:25.500-04:00", "updated_at": "2025-08-30T02:42:01.782-04:00", "avatar": "https://avatars.slack-edge.com/2024-07-25/7478514976484_2da8f6f71bea15538999_original.png", "custom_css": null}, {"id": 22813, "slack_id": "U09CCJ5SP2T", "display_name": "Shashank Ghimire", "bio": null, "projects_count": 0, "devlogs_count": 0, "votes_count": 0, "ships_count": 0, "projects": [], "coding_time_seconds": 0, "coding_time_seconds_today": 0, "balance": "You need to have a pocket watcher badge to view this.", "badges": [], "created_at": "2025-08-30T03:00:42.453-04:00", "updated_at": "2025-08-30T04:03:08.944-04:00", "avatar": "https://secure.gravatar.com/avatar/5e69c8232fb625add36db6c75b4a6c06.jpg?s=512&d=https%3A%2F%2Fa.slack-edge.com%2Fdf10d%2Fimg%2Favatars%2Fava_0003-512.png", "custom_css": null}, {"id": 22814, "slack_id": "U09CCKVHRPH", "display_name": "versha", "bio": null, "projects_count": 0, "devlogs_count": 0, "votes_count": 0, "ships_count": 0, "projects": [], "coding_time_seconds": 0, "coding_time_seconds_today": 0, "balance": "You need to have a pocket watcher badge to view this.", "badges": [], "created_at": "2025-08-30T03:43:20.455-04:00", "updated_at": "2025-08-30T04:03:09.040-04:00", "avatar": "https://secure.gravatar.com/avatar/b059719a94e241798ad45ad1c124b1f7.jpg?s=512&d=https%3A%2F%2Fa.slack-edge.com%2Fdf10d%2Fimg%2Favatars%2Fava_0025-512.png", "custom_css": null}, {"id": 22815, "slack_id": "U09CMV0FJGK", "display_name": "MV Sashi Vardhan Reddy", "bio": null, "projects_count": 0, "devlogs_count": 0, "votes_count": 0, "ships_count": 0, "projects": [], "coding_time_seconds": 0, "coding_time_seconds_today": 0, "balance": "You need to have a pocket watcher badge to view this.", "badges": [], "created_at": "2025-08-30T04:26:04.023-04:00", "updated_at": "2025-08-30T16:03:08.998-04:00", "avatar": "https://secure.gravatar.com/avatar/0f9503990c08d9ffe9abba108cab086a.jpg?s=512&d=https%3A%2F%2Fa.slack-edge.com%2Fdf10d%2Fimg%2Favatars%2Fava_0011-512.png", "custom_css": null}, {"id": 22816, "slack_id": "U09CQEK33RT", "display_name": "naitik", "bio": null, "projects_count": 0, "devlogs_count": 0, "votes_count": 0, "ships_count": 0, "projects": [], "coding_time_seconds": 99221, "coding_time_seconds_today": 11429, "balance": "You need to have a pocket watcher badge to view this.", "badges": [], "created_at": "2025-08-30T04:42:03.305-04:00", "updated_at": "2025-09-05T05:15:10.988-04:00", "avatar": "https://secure.gravatar.com/avatar/e7c90844a5591d9bc7de03ab2a844c46.jpg?s=512&d=https%3A%2F%2Fa.slack-edge.com%2Fdf10d%2Fimg%2Favatars%2Fava_0010-512.png", "custom_css": null}, {"id": 22817, "slack_id": "U09CCQWEPFZ", "display_name": "codex", "bio": null, "projects_count": 0, "devlogs_count": 0, "votes_count": 0, "ships_count": 0, "projects": [], "coding_time_seconds": 0, "coding_time_seconds_today": 0, "balance": "You need to have a pocket watcher badge to view this.", "badges": [], "created_at": "2025-08-30T05:41:50.786-04:00", "updated_at": "2025-08-30T16:03:09.188-04:00", "avatar": "https://secure.gravatar.com/avatar/9ccbbb31af31addae62441d10f258f89.jpg?s=512&d=https%3A%2F%2Fa.slack-edge.com%2Fdf10d%2Fimg%2Favatars%2Fava_0016-512.png", "custom_css": null}, {"id": 22818, "slack_id": "U09CS6YFQNN", "display_name": "rubypiec", "bio": null, "projects_count": 1, "devlogs_count": 4, "votes_count": 8, "ships_count": 0, "projects": [{"id": 12602, "title": "Completionist's Trial", "devlogs_count": 4, "created_at": "2025-08-30T10:16:21.419-04:00"}], "coding_time_seconds": 24595, "coding_time_seconds_today": 0, "balance": "You need to have a pocket watcher badge to view this.", "badges": [], "created_at": "2025-08-30T06:56:03.965-04:00", "updated_at": "2025-09-18T12:10:49.187-04:00", "avatar": "https://secure.gravatar.com/avatar/3d00cfeaa50025500097f5afcd365b9b.jpg?s=512&d=https%3A%2F%2Fa.slack-edge.com%2Fdf10d%2Fimg%2Favatars%2Fava_0008-512.png", "custom_css": null}, {"id": 22819, "slack_id": "U095X11P5BL", "display_name": "Tilly", "bio": null, "projects_count": 0, "devlogs_count": 0, "votes_count": 0, "ships_count": 0, "projects": [], "coding_time_seconds": 0, "coding_time_seconds_today": 0, "balance": "You need to have a pocket watcher badge to view this.", "badges": [], "created_at": "2025-08-30T07:09:50.451-04:00", "updated_at": "2025-08-30T16:03:13.474-04:00", "avatar": "https://secure.gravatar.com/avatar/eab2fb26617a916157ddbfd9b395a9a8.jpg?s=512&d=https%3A%2F%2Fa.slack-edge.com%2Fdf10d%2Fimg%2Favatars%2Fava_0020-512.png", "custom_css": null}, {"id": 22820, "slack_id": "U09CCUH7Y15", "display_name": "Arnav Mudgal", "bio": null, "projects_count": 0, "devlogs_count": 0, "votes_count": 0, "ships_count": 0, "projects": [], "coding_time_seconds": 0, "coding_time_seconds_today": 0, "balance": "You need to have a pocket watcher badge to view this.", "badges": [], "created_at": "2025-08-30T07:26:42.046-04:00", "updated_at": "2025-08-30T16:03:13.626-04:00", "avatar": "https://avatars.slack-edge.com/2025-08-30/9430254543571_edefdd1978ce668e4344_original.png", "custom_css": null}, {"id": 22821, "slack_id": "U09D6C3V4TT", "display_name": "kevin", "bio": null, "projects_count": 0, "devlogs_count": 0, "votes_count": 0, "ships_count": 0, "projects": [], "coding_time_seconds": 0, "coding_time_seconds_today": 0, "balance": "You need to have a pocket watcher badge to view this.", "badges": [], "created_at": "2025-08-30T07:29:24.557-04:00", "updated_at": "2025-08-30T16:03:13.733-04:00", "avatar": "https://secure.gravatar.com/avatar/de3d3389bb892637556a03322e744a64.jpg?s=512&d=https%3A%2F%2Fa.slack-edge.com%2Fdf10d%2Fimg%2Favatars%2Fava_0018-512.png", "custom_css": null}, {"id": 22822, "slack_id": "U09CTDWC39U", "display_name": "protonuser", "bio": null, "projects_count": 0, "devlogs_count": 0, "votes_count": 0, "ships_count": 0, "projects": [], "coding_time_seconds": 0, "coding_time_seconds_today": 0, "balance": "You need to have a pocket watcher badge to view this.", "badges": [], "created_at": "2025-08-30T08:17:40.532-04:00", "updated_at": "2025-08-31T03:42:15.090-04:00", "avatar": "https://secure.gravatar.com/avatar/7158cf0aa6508f417a67b308ce6fa958.jpg?s=512&d=https%3A%2F%2Fa.slack-edge.com%2Fdf10d%2Fimg%2Favatars%2Fava_0016-512.png", "custom_css": null}, {"id": 22823, "slack_id": "U09CTGQ7SBY", "display_name": "Kaushal J", "bio": null, "projects_count": 0, "devlogs_count": 0, "votes_count": 0, "ships_count": 0, "projects": [], "coding_time_seconds": 0, "coding_time_seconds_today": 0, "balance": "You need to have a pocket watcher badge to view this.", "badges": [], "created_at": "2025-08-30T09:22:24.184-04:00", "updated_at": "2025-08-30T16:03:13.981-04:00", "avatar": "https://avatars.slack-edge.com/2025-08-30/9432922231349_3b131d0e7408b90ec456_original.png", "custom_css": null}, {"id": 22824, "slack_id": "U09D6LCFP41", "display_name": "Sarah", "bio": null, "projects_count": 0, "devlogs_count": 0, "votes_count": 0, "ships_count": 0, "projects": [], "coding_time_seconds": 49763, "coding_time_seconds_today": 0, "balance": "You need to have a pocket watcher badge to view this.", "badges": [], "created_at": "2025-08-30T10:43:57.616-04:00", "updated_at": "2025-08-30T16:03:14.087-04:00", "avatar": "https://secure.gravatar.com/avatar/d8e2af658316ee4afb12041f66552d80.jpg?s=512&d=https%3A%2F%2Fa.slack-edge.com%2Fdf10d%2Fimg%2Favatars%2Fava_0022-512.png", "custom_css": null}, {"id": 22825, "slack_id": "U09CNHA14UT", "display_name": "Narasimha Prasad", "bio": null, "projects_count": 0, "devlogs_count": 0, "votes_count": 0, "ships_count": 0, "projects": [], "coding_time_seconds": 0, "coding_time_seconds_today": 0, "balance": "You need to have a pocket watcher badge to view this.", "badges": [], "created_at": "2025-08-30T11:01:49.595-04:00", "updated_at": "2025-08-30T16:03:18.223-04:00", "avatar": "https://secure.gravatar.com/avatar/5099b651f385415e78b61885ccbfb3d7.jpg?s=512&d=https%3A%2F%2Fa.slack-edge.com%2Fdf10d%2Fimg%2Favatars%2Fava_0018-512.png", "custom_css": null}], "pagination": {"page": 1137, "pages": 1192, "count": 23828, "items": 20}}