{"users": [{"id": 22826, "slack_id": "U09DLRMBW9W", "display_name": "Sujal Bhati", "bio": null, "projects_count": 0, "devlogs_count": 0, "votes_count": 0, "ships_count": 0, "projects": [], "coding_time_seconds": 0, "coding_time_seconds_today": 0, "balance": "You need to have a pocket watcher badge to view this.", "badges": [], "created_at": "2025-08-30T12:11:50.890-04:00", "updated_at": "2025-09-05T16:14:21.684-04:00", "avatar": "https://secure.gravatar.com/avatar/d793e9dbb8694b44ef5ebe40e5361b72.jpg?s=512&d=https%3A%2F%2Fa.slack-edge.com%2Fdf10d%2Fimg%2Favatars%2Fava_0011-512.png", "custom_css": null}, {"id": 22827, "slack_id": "U09CSMMPR4J", "display_name": "Rahul", "bio": null, "projects_count": 0, "devlogs_count": 0, "votes_count": 0, "ships_count": 0, "projects": [], "coding_time_seconds": 0, "coding_time_seconds_today": 0, "balance": "You need to have a pocket watcher badge to view this.", "badges": [], "created_at": "2025-08-30T12:33:14.807-04:00", "updated_at": "2025-08-30T16:03:18.417-04:00", "avatar": "https://secure.gravatar.com/avatar/dcd5acf0fe47abf3746dd73ede69dc45.jpg?s=512&d=https%3A%2F%2Fa.slack-edge.com%2Fdf10d%2Fimg%2Favatars%2Fava_0016-512.png", "custom_css": null}, {"id": 22828, "slack_id": "U09CR862YHK", "display_name": "wired", "bio": "couldn't be me", "projects_count": 0, "devlogs_count": 0, "votes_count": 0, "ships_count": 0, "projects": [], "coding_time_seconds": 0, "coding_time_seconds_today": 0, "balance": "You need to have a pocket watcher badge to view this.", "badges": [], "created_at": "2025-08-30T13:10:05.570-04:00", "updated_at": "2025-08-30T16:03:18.511-04:00", "avatar": "https://avatars.slack-edge.com/2025-08-30/9439761300532_b22903d3946dbf0d3699_original.png", "custom_css": null}, {"id": 22829, "slack_id": "U09CU22LTAA", "display_name": "carol", "bio": null, "projects_count": 0, "devlogs_count": 0, "votes_count": 0, "ships_count": 0, "projects": [], "coding_time_seconds": 0, "coding_time_seconds_today": 0, "balance": "You need to have a pocket watcher badge to view this.", "badges": [], "created_at": "2025-08-30T14:51:52.494-04:00", "updated_at": "2025-08-30T16:03:18.601-04:00", "avatar": "https://secure.gravatar.com/avatar/f06727bba671fe578c5d2dae006c98b3.jpg?s=512&d=https%3A%2F%2Fa.slack-edge.com%2Fdf10d%2Fimg%2Favatars%2Fava_0004-512.png", "custom_css": null}, {"id": 22830, "slack_id": "U09CRF23DL5", "display_name": "Sade Lopez", "bio": null, "projects_count": 0, "devlogs_count": 0, "votes_count": 0, "ships_count": 0, "projects": [], "coding_time_seconds": 0, "coding_time_seconds_today": 0, "balance": "You need to have a pocket watcher badge to view this.", "badges": [], "created_at": "2025-08-30T15:37:18.655-04:00", "updated_at": "2025-08-31T22:01:28.325-04:00", "avatar": "https://avatars.slack-edge.com/2025-08-31/9441762448788_a340413bf0a50414226c_original.jpg", "custom_css": null}, {"id": 22831, "slack_id": "U09CDLB0KD5", "display_name": "reyansh", "bio": null, "projects_count": 0, "devlogs_count": 0, "votes_count": 0, "ships_count": 0, "projects": [], "coding_time_seconds": 0, "coding_time_seconds_today": 0, "balance": "You need to have a pocket watcher badge to view this.", "badges": [], "created_at": "2025-08-30T15:43:28.362-04:00", "updated_at": "2025-08-30T16:03:18.783-04:00", "avatar": "https://secure.gravatar.com/avatar/54c8f467de2cef1fca3b8d645242c29a.jpg?s=512&d=https%3A%2F%2Fa.slack-edge.com%2Fdf10d%2Fimg%2Favatars%2Fava_0007-512.png", "custom_css": null}, {"id": 22832, "slack_id": "U09CY2QAZMJ", "display_name": "Tony Hsu", "bio": "High school dev building cool stuff with React \u269b\ufe0f\r\nSTEM enthusiast \u2022 Gamer \u2022 Action & animation fan \ud83e\udde0", "projects_count": 3, "devlogs_count": 17, "votes_count": 63, "ships_count": 1, "projects": [{"id": 12624, "title": "Lightning", "devlogs_count": 10, "created_at": "2025-08-30T17:19:30.331-04:00"}, {"id": 13216, "title": "TonyMac129", "devlogs_count": 5, "created_at": "2025-09-11T21:05:43.130-04:00"}, {"id": 13009, "title": "67", "devlogs_count": 2, "created_at": "2025-09-06T20:11:39.918-04:00"}], "coding_time_seconds": 80484, "coding_time_seconds_today": 0, "balance": "You need to have a pocket watcher badge to view this.", "badges": [], "created_at": "2025-08-30T16:56:49.767-04:00", "updated_at": "2025-08-31T13:30:14.010-04:00", "avatar": "https://avatars.slack-edge.com/2025-08-30/9435109142610_6f4e99dea3af26a46cd2_original.png", "custom_css": null}, {"id": 22833, "slack_id": "U09CRJH34UV", "display_name": "Ray", "bio": null, "projects_count": 0, "devlogs_count": 0, "votes_count": 0, "ships_count": 0, "projects": [], "coding_time_seconds": 0, "coding_time_seconds_today": 0, "balance": "You need to have a pocket watcher badge to view this.", "badges": [], "created_at": "2025-08-30T17:00:19.563-04:00", "updated_at": "2025-08-30T22:02:36.959-04:00", "avatar": "https://secure.gravatar.com/avatar/61e811dfaabc4ab06e829f1c28a27aec.jpg?s=512&d=https%3A%2F%2Fa.slack-edge.com%2Fdf10d%2Fimg%2Favatars%2Fava_0007-512.png", "custom_css": null}, {"id": 22834, "slack_id": "U09DLJG0Q00", "display_name": "sachin", "bio": null, "projects_count": 0, "devlogs_count": 0, "votes_count": 0, "ships_count": 0, "projects": [], "coding_time_seconds": 0, "coding_time_seconds_today": 0, "balance": "You need to have a pocket watcher badge to view this.", "badges": [], "created_at": "2025-08-30T17:20:17.601-04:00", "updated_at": "2025-08-30T22:02:37.067-04:00", "avatar": "https://secure.gravatar.com/avatar/3bc8136918af757621c82920338b4d7b.jpg?s=512&d=https%3A%2F%2Fa.slack-edge.com%2Fdf10d%2Fimg%2Favatars%2Fava_0024-512.png", "custom_css": null}, {"id": 22835, "slack_id": "U08HC7N4JJW", "display_name": "simon", "bio": null, "projects_count": 0, "devlogs_count": 0, "votes_count": 0, "ships_count": 0, "projects": [], "coding_time_seconds": 583238, "coding_time_seconds_today": 1338, "balance": "You need to have a pocket watcher badge to view this.", "badges": [], "created_at": "2025-08-30T17:22:05.062-04:00", "updated_at": "2025-09-24T14:01:35.735-04:00", "avatar": "https://avatars.slack-edge.com/2025-09-24/9574645931650_4e7f3345f4920d6fd8c9_original.jpg", "custom_css": null}, {"id": 22836, "slack_id": "U09CU6D42Q6", "display_name": "day", "bio": null, "projects_count": 0, "devlogs_count": 0, "votes_count": 0, "ships_count": 0, "projects": [], "coding_time_seconds": 0, "coding_time_seconds_today": 0, "balance": "You need to have a pocket watcher badge to view this.", "badges": [], "created_at": "2025-08-30T17:23:33.964-04:00", "updated_at": "2025-08-30T22:02:37.277-04:00", "avatar": "https://secure.gravatar.com/avatar/60dcf0f16bc6670dac3a8827767732ad.jpg?s=512&d=https%3A%2F%2Fa.slack-edge.com%2Fdf10d%2Fimg%2Favatars%2Fava_0015-512.png", "custom_css": null}, {"id": 22837, "slack_id": "U09B782H17Y", "display_name": "harrison", "bio": null, "projects_count": 0, "devlogs_count": 0, "votes_count": 0, "ships_count": 0, "projects": [], "coding_time_seconds": 0, "coding_time_seconds_today": 0, "balance": "You need to have a pocket watcher badge to view this.", "badges": [], "created_at": "2025-08-30T17:40:05.693-04:00", "updated_at": "2025-08-30T22:02:37.371-04:00", "avatar": "https://secure.gravatar.com/avatar/6286e80a2115140e6703fb44ccc82b48.jpg?s=512&d=https%3A%2F%2Fa.slack-edge.com%2Fdf10d%2Fimg%2Favatars%2Fava_0012-512.png", "custom_css": null}, {"id": 22838, "slack_id": "U09CDTNBB3R", "display_name": "Sam P.", "bio": null, "projects_count": 0, "devlogs_count": 0, "votes_count": 0, "ships_count": 0, "projects": [], "coding_time_seconds": 0, "coding_time_seconds_today": 0, "balance": "You need to have a pocket watcher badge to view this.", "badges": [], "created_at": "2025-08-30T19:02:56.356-04:00", "updated_at": "2025-08-30T22:02:41.519-04:00", "avatar": "https://avatars.slack-edge.com/2025-08-30/9431350278659_14ad834d9685f0941494_original.jpg", "custom_css": null}, {"id": 22839, "slack_id": "U09CDU2BVRV", "display_name": "gameing", "bio": "", "projects_count": 0, "devlogs_count": 0, "votes_count": 3, "ships_count": 0, "projects": [], "coding_time_seconds": 0, "coding_time_seconds_today": 0, "balance": "You need to have a pocket watcher badge to view this.", "badges": [], "created_at": "2025-08-30T19:14:07.029-04:00", "updated_at": "2025-08-31T01:30:02.869-04:00", "avatar": "https://avatars.slack-edge.com/2025-08-30/9463436146960_3187738a95d0ce103ad0_original.png", "custom_css": null}, {"id": 22840, "slack_id": "U0749PVAELF", "display_name": "amk", "bio": null, "projects_count": 1, "devlogs_count": 8, "votes_count": 60, "ships_count": 1, "projects": [{"id": 12635, "title": "First Person Parkour Game", "devlogs_count": 8, "created_at": "2025-08-30T19:36:22.834-04:00"}], "coding_time_seconds": 331783, "coding_time_seconds_today": 0, "balance": "You need to have a pocket watcher badge to view this.", "badges": [], "created_at": "2025-08-30T19:33:22.617-04:00", "updated_at": "2025-08-30T22:02:41.721-04:00", "avatar": "https://avatars.slack-edge.com/2025-05-21/8935894532084_0d167ce5e4ea88656b00_original.png", "custom_css": null}, {"id": 22841, "slack_id": "U09CRQKSZ9T", "display_name": "Froggo", "bio": null, "projects_count": 0, "devlogs_count": 0, "votes_count": 0, "ships_count": 0, "projects": [], "coding_time_seconds": 672, "coding_time_seconds_today": 0, "balance": "You need to have a pocket watcher badge to view this.", "badges": [], "created_at": "2025-08-30T19:36:19.472-04:00", "updated_at": "2025-09-04T22:01:36.132-04:00", "avatar": "https://avatars.slack-edge.com/2025-09-04/9460309410210_75c6278d758f224bcdee_original.jpg", "custom_css": null}, {"id": 22842, "slack_id": "U08TZC7G2LQ", "display_name": "sillygoose", "bio": null, "projects_count": 0, "devlogs_count": 0, "votes_count": 0, "ships_count": 0, "projects": [], "coding_time_seconds": 0, "coding_time_seconds_today": 0, "balance": "You need to have a pocket watcher badge to view this.", "badges": [], "created_at": "2025-08-30T21:26:06.230-04:00", "updated_at": "2025-08-30T21:26:40.535-04:00", "avatar": "https://secure.gravatar.com/avatar/f35a667ededf93865609bde0f9dd4665.jpg?s=512&d=https%3A%2F%2Fa.slack-edge.com%2Fdf10d%2Fimg%2Favatars%2Fava_0008-512.png", "custom_css": null}, {"id": 22843, "slack_id": "U0826SD6X4L", "display_name": "Danny", "bio": null, "projects_count": 0, "devlogs_count": 0, "votes_count": 0, "ships_count": 0, "projects": [], "coding_time_seconds": 0, "coding_time_seconds_today": 0, "balance": "You need to have a pocket watcher badge to view this.", "badges": [], "created_at": "2025-08-30T21:52:07.653-04:00", "updated_at": "2025-08-31T04:01:25.717-04:00", "avatar": "https://secure.gravatar.com/avatar/6c0686446244f8e4bfbc9f721293bdbf.jpg?s=512&d=https%3A%2F%2Fa.slack-edge.com%2Fdf10d%2Fimg%2Favatars%2Fava_0013-512.png", "custom_css": null}, {"id": 22844, "slack_id": "U09DMK1D396", "display_name": "chris", "bio": null, "projects_count": 0, "devlogs_count": 0, "votes_count": 0, "ships_count": 0, "projects": [], "coding_time_seconds": 0, "coding_time_seconds_today": 0, "balance": "You need to have a pocket watcher badge to view this.", "badges": [], "created_at": "2025-08-30T22:09:31.937-04:00", "updated_at": "2025-08-31T04:01:25.815-04:00", "avatar": "https://secure.gravatar.com/avatar/5449a0a388c4bed1d174b0f486011a01.jpg?s=512&d=https%3A%2F%2Fa.slack-edge.com%2Fdf10d%2Fimg%2Favatars%2Fava_0001-512.png", "custom_css": null}, {"id": 22845, "slack_id": "U09CYGTJHKN", "display_name": "Vaibhav", "bio": null, "projects_count": 0, "devlogs_count": 0, "votes_count": 0, "ships_count": 0, "projects": [], "coding_time_seconds": 0, "coding_time_seconds_today": 0, "balance": "You need to have a pocket watcher badge to view this.", "badges": [], "created_at": "2025-08-30T22:32:50.452-04:00", "updated_at": "2025-08-31T04:01:25.920-04:00", "avatar": "https://secure.gravatar.com/avatar/e5a14a6f9565f363adda8e2a54d88ca7.jpg?s=512&d=https%3A%2F%2Fa.slack-edge.com%2Fdf10d%2Fimg%2Favatars%2Fava_0001-512.png", "custom_css": null}], "pagination": {"page": 1138, "pages": 1192, "count": 23828, "items": 20}}