{"users": [{"id": 22846, "slack_id": "U09D7KY694Z", "display_name": "onwuemenyi joshua", "bio": null, "projects_count": 0, "devlogs_count": 0, "votes_count": 0, "ships_count": 0, "projects": [], "coding_time_seconds": 11571, "coding_time_seconds_today": 0, "balance": "You need to have a pocket watcher badge to view this.", "badges": [], "created_at": "2025-08-30T23:02:38.176-04:00", "updated_at": "2025-08-31T04:01:26.032-04:00", "avatar": "https://avatars.slack-edge.com/2025-08-30/9463729928960_f7034a4f2a0df0b98be2_original.png", "custom_css": null}, {"id": 22847, "slack_id": "U09CUN9GYJ2", "display_name": "Xavier", "bio": null, "projects_count": 0, "devlogs_count": 0, "votes_count": 0, "ships_count": 0, "projects": [], "coding_time_seconds": 0, "coding_time_seconds_today": 0, "balance": "You need to have a pocket watcher badge to view this.", "badges": [], "created_at": "2025-08-30T23:52:48.365-04:00", "updated_at": "2025-08-31T04:01:26.159-04:00", "avatar": "https://secure.gravatar.com/avatar/27ce049aad771c31878dd02c726752de.jpg?s=512&d=https%3A%2F%2Fa.slack-edge.com%2Fdf10d%2Fimg%2Favatars%2Fava_0002-512.png", "custom_css": null}, {"id": 22848, "slack_id": "U091PGDCH36", "display_name": "R W", "bio": null, "projects_count": 0, "devlogs_count": 0, "votes_count": 0, "ships_count": 0, "projects": [], "coding_time_seconds": 0, "coding_time_seconds_today": 0, "balance": "You need to have a pocket watcher badge to view this.", "badges": [], "created_at": "2025-08-31T00:03:37.725-04:00", "updated_at": "2025-08-31T04:01:26.288-04:00", "avatar": "https://secure.gravatar.com/avatar/311265b3fe1054f69d4b89de13e818a7.jpg?s=512&d=https%3A%2F%2Fa.slack-edge.com%2Fdf10d%2Fimg%2Favatars%2Fava_0020-512.png", "custom_css": null}, {"id": 22849, "slack_id": "U09CPP4UPFD", "display_name": "Gibran", "bio": null, "projects_count": 0, "devlogs_count": 0, "votes_count": 0, "ships_count": 0, "projects": [], "coding_time_seconds": 0, "coding_time_seconds_today": 0, "balance": "You need to have a pocket watcher badge to view this.", "badges": [], "created_at": "2025-08-31T00:46:09.899-04:00", "updated_at": "2025-08-31T04:01:26.406-04:00", "avatar": "https://secure.gravatar.com/avatar/e8377af690ac10957b5f339a9ade5fe1.jpg?s=512&d=https%3A%2F%2Fa.slack-edge.com%2Fdf10d%2Fimg%2Favatars%2Fava_0013-512.png", "custom_css": null}, {"id": 22850, "slack_id": "U09C086FBQF", "display_name": "Nickolai", "bio": null, "projects_count": 0, "devlogs_count": 0, "votes_count": 0, "ships_count": 0, "projects": [], "coding_time_seconds": 0, "coding_time_seconds_today": 0, "balance": "You need to have a pocket watcher badge to view this.", "badges": [], "created_at": "2025-08-31T01:51:43.287-04:00", "updated_at": "2025-08-31T04:01:26.502-04:00", "avatar": "https://secure.gravatar.com/avatar/a3ed4708f413ffc680f3de0f3c963af6.jpg?s=512&d=https%3A%2F%2Fa.slack-edge.com%2Fdf10d%2Fimg%2Favatars%2Fava_0002-512.png", "custom_css": null}, {"id": 22851, "slack_id": "U09CQ0SP6LT", "display_name": "Avni", "bio": null, "projects_count": 0, "devlogs_count": 0, "votes_count": 0, "ships_count": 0, "projects": [], "coding_time_seconds": 0, "coding_time_seconds_today": 0, "balance": "You need to have a pocket watcher badge to view this.", "badges": [], "created_at": "2025-08-31T03:32:17.223-04:00", "updated_at": "2025-08-31T04:01:26.615-04:00", "avatar": "https://avatars.slack-edge.com/2025-08-31/9437051290790_197fabfa7e17adf49d75_original.png", "custom_css": null}, {"id": 22852, "slack_id": "U09D81D82N5", "display_name": "Muhammad Mazhar Saeed", "bio": null, "projects_count": 1, "devlogs_count": 0, "votes_count": 0, "ships_count": 0, "projects": [{"id": 12654, "title": "Parlant-Agents", "devlogs_count": 0, "created_at": "2025-08-31T04:28:29.763-04:00"}], "coding_time_seconds": 117107, "coding_time_seconds_today": 1260, "balance": "You need to have a pocket watcher badge to view this.", "badges": [], "created_at": "2025-08-31T03:58:03.676-04:00", "updated_at": "2025-08-31T10:01:59.624-04:00", "avatar": "https://secure.gravatar.com/avatar/6d48599688035a20fa0c7fa79f67fcef.jpg?s=512&d=https%3A%2F%2Fa.slack-edge.com%2Fdf10d%2Fimg%2Favatars%2Fava_0001-512.png", "custom_css": null}, {"id": 22853, "slack_id": "U091PNWH4AY", "display_name": "CJ", "bio": null, "projects_count": 0, "devlogs_count": 0, "votes_count": 0, "ships_count": 0, "projects": [], "coding_time_seconds": 0, "coding_time_seconds_today": 0, "balance": "You need to have a pocket watcher badge to view this.", "badges": [], "created_at": "2025-08-31T04:20:44.700-04:00", "updated_at": "2025-08-31T10:01:59.738-04:00", "avatar": "https://secure.gravatar.com/avatar/e1198cebf148d18b541e96b0291f3538.jpg?s=512&d=https%3A%2F%2Fa.slack-edge.com%2Fdf10d%2Fimg%2Favatars%2Fava_0009-512.png", "custom_css": null}, {"id": 22854, "slack_id": "U09CV3N4ZUN", "display_name": "Aakash", "bio": null, "projects_count": 0, "devlogs_count": 0, "votes_count": 0, "ships_count": 0, "projects": [], "coding_time_seconds": 0, "coding_time_seconds_today": 0, "balance": "You need to have a pocket watcher badge to view this.", "badges": [], "created_at": "2025-08-31T04:31:05.436-04:00", "updated_at": "2025-08-31T10:01:59.837-04:00", "avatar": "https://secure.gravatar.com/avatar/b51de800e2e4589c0eb14f2ac501ad50.jpg?s=512&d=https%3A%2F%2Fa.slack-edge.com%2Fdf10d%2Fimg%2Favatars%2Fava_0009-512.png", "custom_css": null}, {"id": 22855, "slack_id": "U09CZ6AF1N0", "display_name": "Adam Mahmoud", "bio": null, "projects_count": 0, "devlogs_count": 0, "votes_count": 0, "ships_count": 0, "projects": [], "coding_time_seconds": 0, "coding_time_seconds_today": 0, "balance": "You need to have a pocket watcher badge to view this.", "badges": [], "created_at": "2025-08-31T06:15:34.588-04:00", "updated_at": "2025-08-31T10:01:59.960-04:00", "avatar": "https://secure.gravatar.com/avatar/1562305b319d1396367ff996bc4100a2.jpg?s=512&d=https%3A%2F%2Fa.slack-edge.com%2Fdf10d%2Fimg%2Favatars%2Fava_0017-512.png", "custom_css": null}, {"id": 22856, "slack_id": "U080VQN1D9R", "display_name": "GGTaha", "bio": null, "projects_count": 0, "devlogs_count": 0, "votes_count": 0, "ships_count": 0, "projects": [], "coding_time_seconds": 12446, "coding_time_seconds_today": 0, "balance": "You need to have a pocket watcher badge to view this.", "badges": [], "created_at": "2025-08-31T06:16:50.455-04:00", "updated_at": "2025-09-04T13:38:44.171-04:00", "avatar": "https://avatars.slack-edge.com/2024-11-21/8048623624039_0c61ecc2c8fe7b67e43b_original.png", "custom_css": null}, {"id": 22857, "slack_id": "U09CSMZ7RPF", "display_name": "jailman.", "bio": null, "projects_count": 0, "devlogs_count": 0, "votes_count": 0, "ships_count": 0, "projects": [], "coding_time_seconds": 41640, "coding_time_seconds_today": 2576, "balance": "You need to have a pocket watcher badge to view this.", "badges": [], "created_at": "2025-08-31T06:33:47.474-04:00", "updated_at": "2025-08-31T10:02:00.200-04:00", "avatar": "https://secure.gravatar.com/avatar/d52ae2086ae7d8ad9a8956632160be0f.jpg?s=512&d=https%3A%2F%2Fa.slack-edge.com%2Fdf10d%2Fimg%2Favatars%2Fava_0007-512.png", "custom_css": null}, {"id": 22858, "slack_id": "U09C89U9ML7", "display_name": "Palash Shukla", "bio": null, "projects_count": 1, "devlogs_count": 1, "votes_count": 20, "ships_count": 1, "projects": [{"id": 12884, "title": "Python Mind Reader", "devlogs_count": 1, "created_at": "2025-09-04T11:54:08.772-04:00"}], "coding_time_seconds": 29236, "coding_time_seconds_today": 0, "balance": "You need to have a pocket watcher badge to view this.", "badges": [], "created_at": "2025-08-31T06:55:08.533-04:00", "updated_at": "2025-09-01T11:30:06.242-04:00", "avatar": "https://avatars.slack-edge.com/2025-08-31/9437341038246_16d09f6081f34cc91611_original.jpg", "custom_css": null}, {"id": 22859, "slack_id": "U09CU6K4LRG", "display_name": "Omar Imo", "bio": null, "projects_count": 0, "devlogs_count": 0, "votes_count": 0, "ships_count": 0, "projects": [], "coding_time_seconds": 0, "coding_time_seconds_today": 0, "balance": "You need to have a pocket watcher badge to view this.", "badges": [], "created_at": "2025-08-31T07:20:13.735-04:00", "updated_at": "2025-08-31T22:01:39.278-04:00", "avatar": "https://avatars.slack-edge.com/2025-08-31/9464878484896_4a331bcf256fbf433d7f_original.jpg", "custom_css": null}, {"id": 22860, "slack_id": "U09CZ96FD60", "display_name": "joku", "bio": null, "projects_count": 0, "devlogs_count": 0, "votes_count": 0, "ships_count": 0, "projects": [], "coding_time_seconds": 0, "coding_time_seconds_today": 0, "balance": "You need to have a pocket watcher badge to view this.", "badges": [], "created_at": "2025-08-31T07:25:20.740-04:00", "updated_at": "2025-08-31T10:02:04.704-04:00", "avatar": "https://secure.gravatar.com/avatar/507d73e662ef3e7fd6f4eccb123998e2.jpg?s=512&d=https%3A%2F%2Fa.slack-edge.com%2Fdf10d%2Fimg%2Favatars%2Fava_0025-512.png", "custom_css": null}, {"id": 22861, "slack_id": "U09DNCSMVCY", "display_name": "rokaya ELmekkawy", "bio": null, "projects_count": 2, "devlogs_count": 2, "votes_count": 23, "ships_count": 2, "projects": [{"id": 12988, "title": "pong game", "devlogs_count": 1, "created_at": "2025-09-06T15:35:06.131-04:00"}, {"id": 13549, "title": "Lord", "devlogs_count": 1, "created_at": "2025-09-19T07:30:20.789-04:00"}], "coding_time_seconds": 66693, "coding_time_seconds_today": 0, "balance": "You need to have a pocket watcher badge to view this.", "badges": [], "created_at": "2025-08-31T07:56:22.827-04:00", "updated_at": "2025-09-06T15:25:02.747-04:00", "avatar": "https://avatars.slack-edge.com/2025-08-31/9434870267845_d2e7438ea5ea3b8edcf9_original.jpg", "custom_css": null}, {"id": 22862, "slack_id": "U09CQE30DEF", "display_name": "SB", "bio": null, "projects_count": 0, "devlogs_count": 0, "votes_count": 0, "ships_count": 0, "projects": [], "coding_time_seconds": 2385, "coding_time_seconds_today": 0, "balance": "You need to have a pocket watcher badge to view this.", "badges": [], "created_at": "2025-08-31T08:44:04.301-04:00", "updated_at": "2025-08-31T10:02:04.948-04:00", "avatar": "https://secure.gravatar.com/avatar/da9ac64ac9bc1768128bb023939bc2ec.jpg?s=512&d=https%3A%2F%2Fa.slack-edge.com%2Fdf10d%2Fimg%2Favatars%2Fava_0018-512.png", "custom_css": null}, {"id": 22863, "slack_id": "U09CVELM746", "display_name": "Jonas van Leeuwen", "bio": "I'm a programmer from the Netherlands. I like to do things with HTML, CSS, Node.js, Python, and PHP. I'm also a Linux user.", "projects_count": 2, "devlogs_count": 2, "votes_count": 21, "ships_count": 1, "projects": [{"id": 12667, "title": "Local Minigames", "devlogs_count": 1, "created_at": "2025-08-31T11:05:43.751-04:00"}, {"id": 12704, "title": "Python YouTube Player", "devlogs_count": 1, "created_at": "2025-09-01T06:07:25.396-04:00"}], "coding_time_seconds": 2169, "coding_time_seconds_today": 0, "balance": "You need to have a pocket watcher badge to view this.", "badges": [], "created_at": "2025-08-31T09:07:28.337-04:00", "updated_at": "2025-09-01T10:01:50.710-04:00", "avatar": "https://avatars.slack-edge.com/2025-09-01/9425733745511_7017fc70bfb6d9067dd4_original.png", "custom_css": null}, {"id": 22864, "slack_id": "U09CVGCC9LN", "display_name": "Munira", "bio": null, "projects_count": 0, "devlogs_count": 0, "votes_count": 0, "ships_count": 0, "projects": [], "coding_time_seconds": 32578, "coding_time_seconds_today": 0, "balance": "You need to have a pocket watcher badge to view this.", "badges": [], "created_at": "2025-08-31T09:45:46.832-04:00", "updated_at": "2025-09-03T14:05:03.251-04:00", "avatar": "https://secure.gravatar.com/avatar/62a092e91cccbf4bec0c1bc56afea292.jpg?s=512&d=https%3A%2F%2Fa.slack-edge.com%2Fdf10d%2Fimg%2Favatars%2Fava_0012-512.png", "custom_css": null}, {"id": 22865, "slack_id": "U09D8G4TWTB", "display_name": "prabod pubudu", "bio": null, "projects_count": 0, "devlogs_count": 0, "votes_count": 0, "ships_count": 0, "projects": [], "coding_time_seconds": 90514, "coding_time_seconds_today": 11225, "balance": "You need to have a pocket watcher badge to view this.", "badges": [], "created_at": "2025-08-31T09:57:48.213-04:00", "updated_at": "2025-08-31T22:01:39.850-04:00", "avatar": "https://secure.gravatar.com/avatar/9092bb2984ba6c32c70c277285ccd65a.jpg?s=512&d=https%3A%2F%2Fa.slack-edge.com%2Fdf10d%2Fimg%2Favatars%2Fava_0014-512.png", "custom_css": null}], "pagination": {"page": 1139, "pages": 1192, "count": 23828, "items": 20}}