{"users": [{"id": 2261, "slack_id": "U0918S2P50F", "display_name": "Jhon", "bio": null, "projects_count": 0, "devlogs_count": 0, "votes_count": 0, "ships_count": 0, "projects": [], "coding_time_seconds": 0, "coding_time_seconds_today": 0, "balance": "You need to have a pocket watcher badge to view this.", "badges": [], "created_at": "2025-06-16T15:08:40.661-04:00", "updated_at": "2025-07-03T19:21:27.505-04:00", "avatar": "https://secure.gravatar.com/avatar/8e9fba7b00d4b377f4f8fa4c644ebb95.jpg?s=512&d=https%3A%2F%2Fa.slack-edge.com%2Fdf10d%2Fimg%2Favatars%2Fava_0019-512.png", "custom_css": null}, {"id": 2262, "slack_id": "U01MPHKFZ7S", "display_name": "radioblahaj", "bio": "", "projects_count": 3, "devlogs_count": 8, "votes_count": 6, "ships_count": 1, "projects": [{"id": 6625, "title": "Airport Stats in the Terminal", "devlogs_count": 1, "created_at": "2025-07-14T15:57:54.037-04:00"}, {"id": 10417, "title": "Musings -- journaling and feelings tracker", "devlogs_count": 2, "created_at": "2025-08-06T19:47:55.603-04:00"}, {"id": 9822, "title": "Personal Website", "devlogs_count": 5, "created_at": "2025-08-02T11:48:09.004-04:00"}], "coding_time_seconds": 88273, "coding_time_seconds_today": 0, "balance": "You need to have a pocket watcher badge to view this.", "badges": [{"name": "<%= admin_tool do %>", "text": "with great power comes great responsibility... and a ban hammer.", "icon": "\ud83d\udd28"}, {"name": "Lived Mas", "text": "you know what you did.", "icon": "https://summer.hackclub.com/assets/bong-2a18e50d.png"}, {"name": "Maiden Voyage", "text": "you shipped your first project! the journey begins...", "icon": "\ud83d\udea2"}, {"name": "Spider", "text": "this user has a pet!", "icon": "\ud83d\udd77\ufe0f"}], "created_at": "2025-06-16T15:08:49.484-04:00", "updated_at": "2025-09-10T22:16:26.087-04:00", "avatar": "https://avatars.slack-edge.com/2025-09-02/9444210244710_8f0b40b081c4e71fb03a_original.jpg", "custom_css": null}, {"id": 2263, "slack_id": "U092CK04J48", "display_name": "redSnake", "bio": null, "projects_count": 0, "devlogs_count": 0, "votes_count": 0, "ships_count": 0, "projects": [], "coding_time_seconds": 3, "coding_time_seconds_today": 0, "balance": "You need to have a pocket watcher badge to view this.", "badges": [], "created_at": "2025-06-16T15:08:52.523-04:00", "updated_at": "2025-07-03T19:21:28.043-04:00", "avatar": "https://secure.gravatar.com/avatar/3881a0ba8ec244fd05ec5e096fa88cd5.jpg?s=512&d=https%3A%2F%2Fa.slack-edge.com%2Fdf10d%2Fimg%2Favatars%2Fava_0001-512.png", "custom_css": null}, {"id": 2264, "slack_id": "U091NC9U45B", "display_name": "Ifc", "bio": null, "projects_count": 0, "devlogs_count": 0, "votes_count": 0, "ships_count": 0, "projects": [], "coding_time_seconds": 0, "coding_time_seconds_today": 0, "balance": "You need to have a pocket watcher badge to view this.", "badges": [], "created_at": "2025-06-16T15:09:30.721-04:00", "updated_at": "2025-07-03T19:21:28.325-04:00", "avatar": "https://secure.gravatar.com/avatar/24a4cf5a52e921e3542ee2803447b163.jpg?s=512&d=https%3A%2F%2Fa.slack-edge.com%2Fdf10d%2Fimg%2Favatars%2Fava_0003-512.png", "custom_css": null}, {"id": 2265, "slack_id": "U0922N0D4M7", "display_name": "Flashbad", "bio": null, "projects_count": 1, "devlogs_count": 0, "votes_count": 0, "ships_count": 0, "projects": [{"id": 504, "title": "System Cleaner", "devlogs_count": 0, "created_at": "2025-06-16T23:47:42.110-04:00"}], "coding_time_seconds": 263252, "coding_time_seconds_today": 0, "balance": "You need to have a pocket watcher badge to view this.", "badges": [], "created_at": "2025-06-16T15:10:02.004-04:00", "updated_at": "2025-07-03T19:21:28.602-04:00", "avatar": "https://secure.gravatar.com/avatar/5dda6171f6bd34cb1f5d81caf866eace.jpg?s=512&d=https%3A%2F%2Fa.slack-edge.com%2Fdf10d%2Fimg%2Favatars%2Fava_0006-512.png", "custom_css": null}, {"id": 2266, "slack_id": "U091QGLVBDJ", "display_name": "melike", "bio": null, "projects_count": 0, "devlogs_count": 0, "votes_count": 0, "ships_count": 0, "projects": [], "coding_time_seconds": 0, "coding_time_seconds_today": 0, "balance": "You need to have a pocket watcher badge to view this.", "badges": [], "created_at": "2025-06-16T15:10:04.896-04:00", "updated_at": "2025-07-03T19:21:28.874-04:00", "avatar": "https://secure.gravatar.com/avatar/7c7dd759a56dcb8b660b6b064c86ee5d.jpg?s=512&d=https%3A%2F%2Fa.slack-edge.com%2Fdf10d%2Fimg%2Favatars%2Fava_0026-512.png", "custom_css": null}, {"id": 2267, "slack_id": "U091GR6129Z", "display_name": "BluePhi09", "bio": null, "projects_count": 3, "devlogs_count": 7, "votes_count": 1, "ships_count": 1, "projects": [{"id": 315, "title": "containerized QDevice", "devlogs_count": 1, "created_at": "2025-06-16T17:55:31.915-04:00"}, {"id": 2233, "title": "Terminalize", "devlogs_count": 3, "created_at": "2025-06-20T13:54:15.040-04:00"}, {"id": 2143, "title": "car game", "devlogs_count": 3, "created_at": "2025-06-20T09:15:31.184-04:00"}], "coding_time_seconds": 44557, "coding_time_seconds_today": 0, "balance": "You need to have a pocket watcher badge to view this.", "badges": [{"name": "Maiden Voyage", "text": "you shipped your first project! the journey begins...", "icon": "\ud83d\udea2"}], "created_at": "2025-06-16T15:10:10.157-04:00", "updated_at": "2025-09-15T16:21:50.424-04:00", "avatar": "https://secure.gravatar.com/avatar/bf5a24231288ccec7f48175853ce4eea.jpg?s=512&d=https%3A%2F%2Fa.slack-edge.com%2Fdf10d%2Fimg%2Favatars%2Fava_0024-512.png", "custom_css": null}, {"id": 2268, "slack_id": "U091QH6KRCL", "display_name": "techs-sus", "bio": null, "projects_count": 0, "devlogs_count": 0, "votes_count": 0, "ships_count": 0, "projects": [], "coding_time_seconds": 0, "coding_time_seconds_today": 0, "balance": "You need to have a pocket watcher badge to view this.", "badges": [], "created_at": "2025-06-16T15:10:28.438-04:00", "updated_at": "2025-07-03T19:21:29.469-04:00", "avatar": "https://secure.gravatar.com/avatar/6d1a2ff6e75711e070e621b1b65d8527.jpg?s=512&d=https%3A%2F%2Fa.slack-edge.com%2Fdf10d%2Fimg%2Favatars%2Fava_0019-512.png", "custom_css": null}, {"id": 2269, "slack_id": "U091QGUPAFN", "display_name": "Ali yahia abdulsalam", "bio": null, "projects_count": 0, "devlogs_count": 0, "votes_count": 0, "ships_count": 0, "projects": [], "coding_time_seconds": 0, "coding_time_seconds_today": 0, "balance": "You need to have a pocket watcher badge to view this.", "badges": [], "created_at": "2025-06-16T15:10:35.225-04:00", "updated_at": "2025-07-03T19:21:29.766-04:00", "avatar": "https://secure.gravatar.com/avatar/3bacf22f57b86cfc9d6b7469ab5d2fb9.jpg?s=512&d=https%3A%2F%2Fa.slack-edge.com%2Fdf10d%2Fimg%2Favatars%2Fava_0001-512.png", "custom_css": null}, {"id": 2270, "slack_id": "U091NCJN3DK", "display_name": "Max Clemetsen", "bio": null, "projects_count": 1, "devlogs_count": 5, "votes_count": 53, "ships_count": 1, "projects": [{"id": 471, "title": "Astrolabe 2.0", "devlogs_count": 5, "created_at": "2025-06-16T22:43:10.895-04:00"}], "coding_time_seconds": 216123, "coding_time_seconds_today": 0, "balance": "You need to have a pocket watcher badge to view this.", "badges": [{"name": "Maiden Voyage", "text": "you shipped your first project! the journey begins...", "icon": "\ud83d\udea2"}], "created_at": "2025-06-16T15:10:37.021-04:00", "updated_at": "2025-09-10T22:52:17.833-04:00", "avatar": "https://secure.gravatar.com/avatar/841ea200f2897748eddf542299372ade.jpg?s=512&d=https%3A%2F%2Fa.slack-edge.com%2Fdf10d%2Fimg%2Favatars%2Fava_0024-512.png", "custom_css": null}, {"id": 2271, "slack_id": "U0918CPDQRM", "display_name": "Arturo Tropa Gutierrez", "bio": null, "projects_count": 0, "devlogs_count": 0, "votes_count": 0, "ships_count": 0, "projects": [], "coding_time_seconds": 0, "coding_time_seconds_today": 0, "balance": "You need to have a pocket watcher badge to view this.", "badges": [], "created_at": "2025-06-16T15:10:42.987-04:00", "updated_at": "2025-07-03T19:21:30.313-04:00", "avatar": "https://avatars.slack-edge.com/2025-06-16/9080677018064_d565765b6c1d2ead5094_original.jpg", "custom_css": null}, {"id": 2272, "slack_id": "U091HAQQTEJ", "display_name": "Petro", "bio": null, "projects_count": 0, "devlogs_count": 0, "votes_count": 0, "ships_count": 0, "projects": [], "coding_time_seconds": 43154, "coding_time_seconds_today": 0, "balance": "You need to have a pocket watcher badge to view this.", "badges": [], "created_at": "2025-06-16T15:10:44.785-04:00", "updated_at": "2025-07-03T19:21:30.657-04:00", "avatar": "https://secure.gravatar.com/avatar/d45a99e2259ba5699ceb7d8e7c23ddb4.jpg?s=512&d=https%3A%2F%2Fa.slack-edge.com%2Fdf10d%2Fimg%2Favatars%2Fava_0014-512.png", "custom_css": null}, {"id": 2273, "slack_id": "U091H7Q45CK", "display_name": "Vlad", "bio": null, "projects_count": 0, "devlogs_count": 0, "votes_count": 0, "ships_count": 0, "projects": [], "coding_time_seconds": 0, "coding_time_seconds_today": 0, "balance": "You need to have a pocket watcher badge to view this.", "badges": [], "created_at": "2025-06-16T15:11:05.917-04:00", "updated_at": "2025-07-03T19:21:30.923-04:00", "avatar": "https://secure.gravatar.com/avatar/8b9e2cbbc8be62982617d5038b358a00.jpg?s=512&d=https%3A%2F%2Fa.slack-edge.com%2Fdf10d%2Fimg%2Favatars%2Fava_0001-512.png", "custom_css": null}, {"id": 2274, "slack_id": "U092CKAJDAL", "display_name": "Miguelki", "bio": null, "projects_count": 1, "devlogs_count": 0, "votes_count": 0, "ships_count": 0, "projects": [{"id": 254, "title": "Blueberry cheesecake", "devlogs_count": 0, "created_at": "2025-06-16T16:21:44.080-04:00"}], "coding_time_seconds": 3882, "coding_time_seconds_today": 0, "balance": "You need to have a pocket watcher badge to view this.", "badges": [], "created_at": "2025-06-16T15:11:17.773-04:00", "updated_at": "2025-07-03T19:21:31.191-04:00", "avatar": "https://secure.gravatar.com/avatar/bd1acb1da63b6a86ef227cceadc22ee9.jpg?s=512&d=https%3A%2F%2Fa.slack-edge.com%2Fdf10d%2Fimg%2Favatars%2Fava_0013-512.png", "custom_css": null}, {"id": 2275, "slack_id": "U091NCFKFGV", "display_name": "Plinio Zanini", "bio": null, "projects_count": 0, "devlogs_count": 0, "votes_count": 0, "ships_count": 0, "projects": [], "coding_time_seconds": 7936, "coding_time_seconds_today": 0, "balance": "You need to have a pocket watcher badge to view this.", "badges": [], "created_at": "2025-06-16T15:11:26.761-04:00", "updated_at": "2025-07-03T19:21:31.471-04:00", "avatar": "https://avatars.slack-edge.com/2025-06-16/9042911194567_78964f010985262c5bfe_original.png", "custom_css": null}, {"id": 2276, "slack_id": "U091NCJF90V", "display_name": "Arfan.", "bio": null, "projects_count": 0, "devlogs_count": 0, "votes_count": 0, "ships_count": 0, "projects": [], "coding_time_seconds": 0, "coding_time_seconds_today": 0, "balance": "You need to have a pocket watcher badge to view this.", "badges": [], "created_at": "2025-06-16T15:11:27.078-04:00", "updated_at": "2025-07-03T19:21:31.752-04:00", "avatar": "https://avatars.slack-edge.com/2025-06-16/9070767731041_51094c5bd6719780d7b2_original.jpg", "custom_css": null}, {"id": 2277, "slack_id": "U091H7T205R", "display_name": "Valentin Ch\u00eane", "bio": null, "projects_count": 0, "devlogs_count": 0, "votes_count": 0, "ships_count": 0, "projects": [], "coding_time_seconds": 0, "coding_time_seconds_today": 0, "balance": "You need to have a pocket watcher badge to view this.", "badges": [], "created_at": "2025-06-16T15:11:39.584-04:00", "updated_at": "2025-07-03T19:21:32.028-04:00", "avatar": "https://avatars.slack-edge.com/2025-06-16/9058604701748_9463bf08e197b889c072_original.png", "custom_css": null}, {"id": 2278, "slack_id": "U091NCGSVNZ", "display_name": "Herbert Komlan Afangnikossou", "bio": null, "projects_count": 0, "devlogs_count": 0, "votes_count": 0, "ships_count": 0, "projects": [], "coding_time_seconds": 0, "coding_time_seconds_today": 0, "balance": "You need to have a pocket watcher badge to view this.", "badges": [], "created_at": "2025-06-16T15:11:40.796-04:00", "updated_at": "2025-07-03T19:21:32.325-04:00", "avatar": "https://avatars.slack-edge.com/2025-06-16/9070769360577_7a9756a64ffb50ad3d34_original.jpg", "custom_css": null}, {"id": 2279, "slack_id": "U091QH4NQGL", "display_name": "Nampally Harish", "bio": null, "projects_count": 0, "devlogs_count": 0, "votes_count": 0, "ships_count": 0, "projects": [], "coding_time_seconds": 0, "coding_time_seconds_today": 0, "balance": "You need to have a pocket watcher badge to view this.", "badges": [], "created_at": "2025-06-16T15:11:50.692-04:00", "updated_at": "2025-07-03T19:21:32.604-04:00", "avatar": "https://secure.gravatar.com/avatar/13e621c07c93744b863fbd607fc556a2.jpg?s=512&d=https%3A%2F%2Fa.slack-edge.com%2Fdf10d%2Fimg%2Favatars%2Fava_0013-512.png", "custom_css": null}, {"id": 2280, "slack_id": "U091PTHT71Q", "display_name": "Diony HackClub", "bio": null, "projects_count": 0, "devlogs_count": 0, "votes_count": 0, "ships_count": 0, "projects": [], "coding_time_seconds": 0, "coding_time_seconds_today": 0, "balance": "You need to have a pocket watcher badge to view this.", "badges": [], "created_at": "2025-06-16T15:12:17.334-04:00", "updated_at": "2025-07-03T19:21:32.882-04:00", "avatar": "https://secure.gravatar.com/avatar/df96d37fbd40ea26b00e6796f36e949f.jpg?s=512&d=https%3A%2F%2Fa.slack-edge.com%2Fdf10d%2Fimg%2Favatars%2Fava_0011-512.png", "custom_css": null}], "pagination": {"page": 114, "pages": 1192, "count": 23828, "items": 20}}