{"users": [{"id": 22866, "slack_id": "U09CUDKJCMQ", "display_name": "Syed Hasan Jafry", "bio": null, "projects_count": 0, "devlogs_count": 0, "votes_count": 0, "ships_count": 0, "projects": [], "coding_time_seconds": 8067, "coding_time_seconds_today": 0, "balance": "You need to have a pocket watcher badge to view this.", "badges": [], "created_at": "2025-08-31T10:04:27.313-04:00", "updated_at": "2025-09-03T22:03:20.485-04:00", "avatar": "https://avatars.slack-edge.com/2025-09-03/9455432764470_3f60e3b7e35ca9ad3b9e_original.jpg", "custom_css": null}, {"id": 22867, "slack_id": "U09CT3K52JZ", "display_name": "Gevorg", "bio": null, "projects_count": 0, "devlogs_count": 0, "votes_count": 0, "ships_count": 0, "projects": [], "coding_time_seconds": 0, "coding_time_seconds_today": 0, "balance": "You need to have a pocket watcher badge to view this.", "badges": [], "created_at": "2025-08-31T10:39:55.081-04:00", "updated_at": "2025-08-31T22:01:40.142-04:00", "avatar": "https://secure.gravatar.com/avatar/21e2df442f76174448f13256a9c87820.jpg?s=512&d=https%3A%2F%2Fa.slack-edge.com%2Fdf10d%2Fimg%2Favatars%2Fava_0007-512.png", "custom_css": null}, {"id": 22868, "slack_id": "U09CVKB5DV4", "display_name": "Omnia", "bio": null, "projects_count": 0, "devlogs_count": 0, "votes_count": 0, "ships_count": 0, "projects": [], "coding_time_seconds": 0, "coding_time_seconds_today": 0, "balance": "You need to have a pocket watcher badge to view this.", "badges": [], "created_at": "2025-08-31T10:53:51.042-04:00", "updated_at": "2025-08-31T22:01:40.296-04:00", "avatar": "https://avatars.slack-edge.com/2025-08-31/9437665986406_065b3208f55e5077d67d_original.jpg", "custom_css": null}, {"id": 22869, "slack_id": "U09D8L314SD", "display_name": "Valdtaniem", "bio": null, "projects_count": 1, "devlogs_count": 0, "votes_count": 0, "ships_count": 0, "projects": [{"id": 12890, "title": "simple cube ai", "devlogs_count": 0, "created_at": "2025-09-04T13:04:45.788-04:00"}], "coding_time_seconds": 443, "coding_time_seconds_today": 0, "balance": "You need to have a pocket watcher badge to view this.", "badges": [], "created_at": "2025-08-31T11:28:21.882-04:00", "updated_at": "2025-09-04T13:01:45.327-04:00", "avatar": "https://secure.gravatar.com/avatar/f7c6b335342bbadb254bafcfd7092efe.jpg?s=512&d=https%3A%2F%2Fa.slack-edge.com%2Fdf10d%2Fimg%2Favatars%2Fava_0017-512.png", "custom_css": null}, {"id": 22870, "slack_id": "U09CT7S7BRB", "display_name": "Vinay Kumar Goyal", "bio": null, "projects_count": 0, "devlogs_count": 0, "votes_count": 0, "ships_count": 0, "projects": [], "coding_time_seconds": 0, "coding_time_seconds_today": 0, "balance": "You need to have a pocket watcher badge to view this.", "badges": [], "created_at": "2025-08-31T12:10:30.697-04:00", "updated_at": "2025-08-31T22:01:40.538-04:00", "avatar": "https://secure.gravatar.com/avatar/25544654e7cf7e3730e4444289f097cb.jpg?s=512&d=https%3A%2F%2Fa.slack-edge.com%2Fdf10d%2Fimg%2Favatars%2Fava_0003-512.png", "custom_css": null}, {"id": 22871, "slack_id": "U09DNUWLT32", "display_name": "techwizard", "bio": null, "projects_count": 1, "devlogs_count": 0, "votes_count": 0, "ships_count": 0, "projects": [{"id": 13296, "title": "Generative Qr_Code", "devlogs_count": 0, "created_at": "2025-09-13T15:45:17.443-04:00"}], "coding_time_seconds": 26704, "coding_time_seconds_today": 0, "balance": "You need to have a pocket watcher badge to view this.", "badges": [], "created_at": "2025-08-31T14:36:42.951-04:00", "updated_at": "2025-09-07T15:19:20.593-04:00", "avatar": "https://secure.gravatar.com/avatar/84c5b093edf68c8f576c5bc0888a26b5.jpg?s=512&d=https%3A%2F%2Fa.slack-edge.com%2Fdf10d%2Fimg%2Favatars%2Fava_0001-512.png", "custom_css": null}, {"id": 22872, "slack_id": "U015HRC40H4", "display_name": "carlosdafarmer", "bio": null, "projects_count": 0, "devlogs_count": 0, "votes_count": 0, "ships_count": 0, "projects": [], "coding_time_seconds": 0, "coding_time_seconds_today": 0, "balance": "You need to have a pocket watcher badge to view this.", "badges": [], "created_at": "2025-08-31T14:46:28.464-04:00", "updated_at": "2025-08-31T22:01:40.750-04:00", "avatar": "https://avatars.slack-edge.com/2022-12-13/4513751650227_d2d436d2bf0119fc5656_original.jpg", "custom_css": null}, {"id": 22873, "slack_id": "U08Q6HZ8NR5", "display_name": "sunshine", "bio": null, "projects_count": 0, "devlogs_count": 0, "votes_count": 0, "ships_count": 0, "projects": [], "coding_time_seconds": 20607, "coding_time_seconds_today": 0, "balance": "You need to have a pocket watcher badge to view this.", "badges": [], "created_at": "2025-08-31T15:09:52.114-04:00", "updated_at": "2025-08-31T22:01:45.003-04:00", "avatar": "https://secure.gravatar.com/avatar/173834ae9d95a7532717e1a4a27c20b9.jpg?s=512&d=https%3A%2F%2Fa.slack-edge.com%2Fdf10d%2Fimg%2Favatars%2Fava_0015-512.png", "custom_css": null}, {"id": 22874, "slack_id": "U09CTJSUBEH", "display_name": "Adi", "bio": null, "projects_count": 0, "devlogs_count": 0, "votes_count": 0, "ships_count": 0, "projects": [], "coding_time_seconds": 0, "coding_time_seconds_today": 0, "balance": "You need to have a pocket watcher badge to view this.", "badges": [], "created_at": "2025-08-31T16:51:04.256-04:00", "updated_at": "2025-08-31T22:01:45.228-04:00", "avatar": "https://secure.gravatar.com/avatar/971bdbd87fad7c6935a2153ee495d903.jpg?s=512&d=https%3A%2F%2Fa.slack-edge.com%2Fdf10d%2Fimg%2Favatars%2Fava_0025-512.png", "custom_css": null}, {"id": 22875, "slack_id": "U09CTU4GU0M", "display_name": "Joshua Emedi", "bio": null, "projects_count": 0, "devlogs_count": 0, "votes_count": 0, "ships_count": 0, "projects": [], "coding_time_seconds": 0, "coding_time_seconds_today": 0, "balance": "You need to have a pocket watcher badge to view this.", "badges": [], "created_at": "2025-08-31T20:00:27.423-04:00", "updated_at": "2025-08-31T22:01:45.490-04:00", "avatar": "https://secure.gravatar.com/avatar/6ae36343fe7a6a281e2c798f65a5bb63.jpg?s=512&d=https%3A%2F%2Fa.slack-edge.com%2Fdf10d%2Fimg%2Favatars%2Fava_0026-512.png", "custom_css": null}, {"id": 22876, "slack_id": "U09CTMHK18A", "display_name": "Aksh Jain", "bio": null, "projects_count": 0, "devlogs_count": 0, "votes_count": 0, "ships_count": 0, "projects": [], "coding_time_seconds": 0, "coding_time_seconds_today": 0, "balance": "You need to have a pocket watcher badge to view this.", "badges": [], "created_at": "2025-08-31T20:33:06.703-04:00", "updated_at": "2025-08-31T22:01:45.619-04:00", "avatar": "https://avatars.slack-edge.com/2025-08-31/9451524384609_9639578c71e35870b1aa_original.png", "custom_css": null}, {"id": 22877, "slack_id": "U08SND61W3D", "display_name": "r58", "bio": null, "projects_count": 0, "devlogs_count": 0, "votes_count": 0, "ships_count": 0, "projects": [], "coding_time_seconds": 0, "coding_time_seconds_today": 0, "balance": "You need to have a pocket watcher badge to view this.", "badges": [], "created_at": "2025-08-31T21:43:10.867-04:00", "updated_at": "2025-08-31T21:44:27.236-04:00", "avatar": "https://secure.gravatar.com/avatar/ddb77aa2deb861dccd14883bb80ec8de.jpg?s=512&d=https%3A%2F%2Fa.slack-edge.com%2Fdf10d%2Fimg%2Favatars%2Fava_0017-512.png", "custom_css": null}, {"id": 22878, "slack_id": "U09D0N51ZGU", "display_name": "Nguyen Tuong Phat", "bio": "bratislava", "projects_count": 1, "devlogs_count": 4, "votes_count": 2, "ships_count": 0, "projects": [{"id": 12742, "title": "cbp", "devlogs_count": 4, "created_at": "2025-09-01T21:26:06.467-04:00"}], "coding_time_seconds": 137929, "coding_time_seconds_today": 0, "balance": "You need to have a pocket watcher badge to view this.", "badges": [], "created_at": "2025-08-31T21:53:12.030-04:00", "updated_at": "2025-09-01T20:50:55.840-04:00", "avatar": "https://avatars.slack-edge.com/2025-08-31/9436269785429_0014d63073fde26ff3eb_original.png", "custom_css": null}, {"id": 22879, "slack_id": "U09CVM4EXGA", "display_name": "Mary", "bio": null, "projects_count": 0, "devlogs_count": 0, "votes_count": 2, "ships_count": 0, "projects": [], "coding_time_seconds": 0, "coding_time_seconds_today": 0, "balance": "You need to have a pocket watcher badge to view this.", "badges": [], "created_at": "2025-08-31T22:13:27.751-04:00", "updated_at": "2025-09-18T20:01:31.705-04:00", "avatar": "https://avatars.slack-edge.com/2025-09-18/9529594775927_69767a9d753e9bbe9c5a_original.jpg", "custom_css": null}, {"id": 22880, "slack_id": "U09CG83AJ31", "display_name": "Bishal", "bio": null, "projects_count": 0, "devlogs_count": 0, "votes_count": 0, "ships_count": 0, "projects": [], "coding_time_seconds": 0, "coding_time_seconds_today": 0, "balance": "You need to have a pocket watcher badge to view this.", "badges": [], "created_at": "2025-08-31T22:29:33.848-04:00", "updated_at": "2025-09-01T04:01:46.247-04:00", "avatar": "https://secure.gravatar.com/avatar/75020b44d68f69ac8ba7c1b633254775.jpg?s=512&d=https%3A%2F%2Fa.slack-edge.com%2Fdf10d%2Fimg%2Favatars%2Fava_0002-512.png", "custom_css": null}, {"id": 22881, "slack_id": "U09CG8E0DTR", "display_name": "Safety Hazard", "bio": null, "projects_count": 0, "devlogs_count": 0, "votes_count": 0, "ships_count": 0, "projects": [], "coding_time_seconds": 0, "coding_time_seconds_today": 0, "balance": "You need to have a pocket watcher badge to view this.", "badges": [], "created_at": "2025-08-31T22:33:07.453-04:00", "updated_at": "2025-09-01T04:01:46.344-04:00", "avatar": "https://secure.gravatar.com/avatar/07c7fa31be95336113724d4c9dc2e356.jpg?s=512&d=https%3A%2F%2Fa.slack-edge.com%2Fdf10d%2Fimg%2Favatars%2Fava_0011-512.png", "custom_css": null}, {"id": 22882, "slack_id": "U09DPR4QEL8", "display_name": "scarlett", "bio": null, "projects_count": 0, "devlogs_count": 0, "votes_count": 0, "ships_count": 0, "projects": [], "coding_time_seconds": 0, "coding_time_seconds_today": 0, "balance": "You need to have a pocket watcher badge to view this.", "badges": [], "created_at": "2025-08-31T22:42:57.396-04:00", "updated_at": "2025-09-01T04:01:46.446-04:00", "avatar": "https://secure.gravatar.com/avatar/758f6d5698c694cee4ee69df67d33330.jpg?s=512&d=https%3A%2F%2Fa.slack-edge.com%2Fdf10d%2Fimg%2Favatars%2Fava_0006-512.png", "custom_css": null}, {"id": 22883, "slack_id": "U09DA0GU9MX", "display_name": "Sri Akshara Kanuparthi", "bio": null, "projects_count": 0, "devlogs_count": 0, "votes_count": 0, "ships_count": 0, "projects": [], "coding_time_seconds": 0, "coding_time_seconds_today": 0, "balance": "You need to have a pocket watcher badge to view this.", "badges": [], "created_at": "2025-08-31T23:37:14.170-04:00", "updated_at": "2025-09-01T04:01:46.623-04:00", "avatar": "https://avatars.slack-edge.com/2025-08-31/9452026646289_f0207ce4f3929b151c81_original.png", "custom_css": null}, {"id": 22884, "slack_id": "U09DA8C9XS5", "display_name": "Alisha Perween", "bio": null, "projects_count": 0, "devlogs_count": 0, "votes_count": 0, "ships_count": 0, "projects": [], "coding_time_seconds": 9834, "coding_time_seconds_today": 0, "balance": "You need to have a pocket watcher badge to view this.", "badges": [], "created_at": "2025-09-01T01:15:14.695-04:00", "updated_at": "2025-09-01T11:30:04.115-04:00", "avatar": "https://secure.gravatar.com/avatar/dc16b74cbd7b4e2e7714b801297c5cfb.jpg?s=512&d=https%3A%2F%2Fa.slack-edge.com%2Fdf10d%2Fimg%2Favatars%2Fava_0011-512.png", "custom_css": null}, {"id": 22885, "slack_id": "U089Z8Z8YSX", "display_name": "Md Shahid", "bio": null, "projects_count": 0, "devlogs_count": 0, "votes_count": 0, "ships_count": 0, "projects": [], "coding_time_seconds": 795, "coding_time_seconds_today": 675, "balance": "You need to have a pocket watcher badge to view this.", "badges": [], "created_at": "2025-09-01T01:15:57.566-04:00", "updated_at": "2025-09-02T11:00:18.461-04:00", "avatar": "https://secure.gravatar.com/avatar/29f353539971dc9af0690ca92984b0c2.jpg?s=512&d=https%3A%2F%2Fa.slack-edge.com%2Fdf10d%2Fimg%2Favatars%2Fava_0004-512.png", "custom_css": null}], "pagination": {"page": 1140, "pages": 1192, "count": 23828, "items": 20}}