{"users": [{"id": 22886, "slack_id": "U09CURQBRE1", "display_name": "Shareefa", "bio": null, "projects_count": 0, "devlogs_count": 0, "votes_count": 0, "ships_count": 0, "projects": [], "coding_time_seconds": 0, "coding_time_seconds_today": 0, "balance": "You need to have a pocket watcher badge to view this.", "badges": [], "created_at": "2025-09-01T01:30:22.111-04:00", "updated_at": "2025-09-01T04:01:47.002-04:00", "avatar": "https://secure.gravatar.com/avatar/eb16b2eb1f389ae0e53f1754a0e302fe.jpg?s=512&d=https%3A%2F%2Fa.slack-edge.com%2Fdf10d%2Fimg%2Favatars%2Fava_0012-512.png", "custom_css": null}, {"id": 22887, "slack_id": "U09CH9QRW3H", "display_name": "Jonathan Skrla", "bio": null, "projects_count": 0, "devlogs_count": 0, "votes_count": 0, "ships_count": 0, "projects": [], "coding_time_seconds": 0, "coding_time_seconds_today": 0, "balance": "You need to have a pocket watcher badge to view this.", "badges": [], "created_at": "2025-09-01T03:50:10.095-04:00", "updated_at": "2025-09-01T10:01:57.002-04:00", "avatar": "https://secure.gravatar.com/avatar/de876c69cbc0c0894ebb80242bd99b8c.jpg?s=512&d=https%3A%2F%2Fa.slack-edge.com%2Fdf10d%2Fimg%2Favatars%2Fava_0000-512.png", "custom_css": null}, {"id": 22888, "slack_id": "U09CY8T6BCN", "display_name": "Praphanjan Praveen Kumar", "bio": null, "projects_count": 0, "devlogs_count": 0, "votes_count": 0, "ships_count": 0, "projects": [], "coding_time_seconds": 0, "coding_time_seconds_today": 0, "balance": "You need to have a pocket watcher badge to view this.", "badges": [], "created_at": "2025-09-01T04:34:31.912-04:00", "updated_at": "2025-09-01T10:01:57.162-04:00", "avatar": "https://avatars.slack-edge.com/2025-09-01/9435334163507_391988e676c1fff5174d_original.png", "custom_css": null}, {"id": 22889, "slack_id": "U09CHKFMMUP", "display_name": "rugero", "bio": null, "projects_count": 0, "devlogs_count": 0, "votes_count": 0, "ships_count": 0, "projects": [], "coding_time_seconds": 0, "coding_time_seconds_today": 0, "balance": "You need to have a pocket watcher badge to view this.", "badges": [], "created_at": "2025-09-01T05:06:25.565-04:00", "updated_at": "2025-09-11T04:01:51.715-04:00", "avatar": "https://avatars.slack-edge.com/2025-09-10/9499920286116_54cac71bdce47f17f412_original.png", "custom_css": null}, {"id": 22890, "slack_id": "U083A3525FT", "display_name": "ddd", "bio": null, "projects_count": 0, "devlogs_count": 0, "votes_count": 0, "ships_count": 0, "projects": [], "coding_time_seconds": 0, "coding_time_seconds_today": 0, "balance": "You need to have a pocket watcher badge to view this.", "badges": [], "created_at": "2025-09-01T05:16:04.055-04:00", "updated_at": "2025-09-01T05:16:23.983-04:00", "avatar": "https://secure.gravatar.com/avatar/8625b5805805ca37dd49d59d9fb946fa.jpg?s=512&d=https%3A%2F%2Fa.slack-edge.com%2Fdf10d%2Fimg%2Favatars%2Fava_0016-512.png", "custom_css": null}, {"id": 22891, "slack_id": "U09CHS5D3EK", "display_name": "Kartik Pawar", "bio": null, "projects_count": 1, "devlogs_count": 2, "votes_count": 5, "ships_count": 0, "projects": [{"id": 12707, "title": "Crawl4", "devlogs_count": 2, "created_at": "2025-09-01T08:04:37.490-04:00"}], "coding_time_seconds": 4946, "coding_time_seconds_today": 0, "balance": "You need to have a pocket watcher badge to view this.", "badges": [], "created_at": "2025-09-01T05:39:41.964-04:00", "updated_at": "2025-09-04T22:01:59.178-04:00", "avatar": "https://avatars.slack-edge.com/2025-09-04/9475629109153_9341b1f0a85830958ff9_original.jpg", "custom_css": null}, {"id": 22892, "slack_id": "U09CW56J2G5", "display_name": "Novak", "bio": null, "projects_count": 0, "devlogs_count": 0, "votes_count": 0, "ships_count": 0, "projects": [], "coding_time_seconds": 0, "coding_time_seconds_today": 0, "balance": "You need to have a pocket watcher badge to view this.", "badges": [], "created_at": "2025-09-01T06:08:47.703-04:00", "updated_at": "2025-09-01T10:01:57.623-04:00", "avatar": "https://secure.gravatar.com/avatar/94d41c060a818ab906e4c3068769771e.jpg?s=512&d=https%3A%2F%2Fa.slack-edge.com%2Fdf10d%2Fimg%2Favatars%2Fava_0002-512.png", "custom_css": null}, {"id": 22893, "slack_id": "U09CXKRA9MG", "display_name": "Ktn Superdog", "bio": null, "projects_count": 0, "devlogs_count": 0, "votes_count": 0, "ships_count": 0, "projects": [], "coding_time_seconds": 0, "coding_time_seconds_today": 0, "balance": "You need to have a pocket watcher badge to view this.", "badges": [], "created_at": "2025-09-01T06:12:39.097-04:00", "updated_at": "2025-09-01T10:01:57.730-04:00", "avatar": "https://avatars.slack-edge.com/2025-09-01/9467623661216_af5295b0460c954599da_original.png", "custom_css": null}, {"id": 22894, "slack_id": "U09DBQP6MC1", "display_name": "pierrot gatete", "bio": null, "projects_count": 0, "devlogs_count": 0, "votes_count": 0, "ships_count": 0, "projects": [], "coding_time_seconds": 0, "coding_time_seconds_today": 0, "balance": "You need to have a pocket watcher badge to view this.", "badges": [], "created_at": "2025-09-01T06:50:50.463-04:00", "updated_at": "2025-09-01T10:01:57.925-04:00", "avatar": "https://avatars.slack-edge.com/2025-09-01/9439861060802_f9a8af52771faaddd303_original.jpg", "custom_css": null}, {"id": 22895, "slack_id": "U0934QRBBLG", "display_name": "priyanshubej", "bio": null, "projects_count": 0, "devlogs_count": 0, "votes_count": 0, "ships_count": 0, "projects": [], "coding_time_seconds": 0, "coding_time_seconds_today": 0, "balance": "You need to have a pocket watcher badge to view this.", "badges": [], "created_at": "2025-09-01T07:06:49.322-04:00", "updated_at": "2025-09-01T10:01:58.133-04:00", "avatar": "https://secure.gravatar.com/avatar/e7736708522a3ad38cc928b5d8e84888.jpg?s=512&d=https%3A%2F%2Fa.slack-edge.com%2Fdf10d%2Fimg%2Favatars%2Fava_0001-512.png", "custom_css": null}, {"id": 22896, "slack_id": "U09CXUVTB42", "display_name": "Arda Can", "bio": null, "projects_count": 0, "devlogs_count": 0, "votes_count": 0, "ships_count": 0, "projects": [], "coding_time_seconds": 668, "coding_time_seconds_today": 0, "balance": "You need to have a pocket watcher badge to view this.", "badges": [], "created_at": "2025-09-01T07:21:56.923-04:00", "updated_at": "2025-09-01T11:30:02.379-04:00", "avatar": "https://secure.gravatar.com/avatar/f400dbe9359aa51a8d43fcd252c199ad.jpg?s=512&d=https%3A%2F%2Fa.slack-edge.com%2Fdf10d%2Fimg%2Favatars%2Fava_0014-512.png", "custom_css": null}, {"id": 22897, "slack_id": "U09CU85G8MR", "display_name": "Mateus Prestes", "bio": null, "projects_count": 0, "devlogs_count": 0, "votes_count": 0, "ships_count": 0, "projects": [], "coding_time_seconds": 0, "coding_time_seconds_today": 0, "balance": "You need to have a pocket watcher badge to view this.", "badges": [], "created_at": "2025-09-01T07:59:51.702-04:00", "updated_at": "2025-09-01T10:01:58.408-04:00", "avatar": "https://secure.gravatar.com/avatar/c2f67dfd2427ea8d194a9d00bb3b561e.jpg?s=512&d=https%3A%2F%2Fa.slack-edge.com%2Fdf10d%2Fimg%2Favatars%2Fava_0022-512.png", "custom_css": null}, {"id": 22898, "slack_id": "U09CUBURAUT", "display_name": "Aditya", "bio": null, "projects_count": 0, "devlogs_count": 0, "votes_count": 0, "ships_count": 0, "projects": [], "coding_time_seconds": 0, "coding_time_seconds_today": 0, "balance": "You need to have a pocket watcher badge to view this.", "badges": [], "created_at": "2025-09-01T08:26:51.722-04:00", "updated_at": "2025-09-01T10:01:58.558-04:00", "avatar": "https://secure.gravatar.com/avatar/e535e515301bfaa5e59bceab8fdc4f47.jpg?s=512&d=https%3A%2F%2Fa.slack-edge.com%2Fdf10d%2Fimg%2Favatars%2Fava_0003-512.png", "custom_css": null}, {"id": 22899, "slack_id": "U09DS9537ME", "display_name": "srbarzz", "bio": null, "projects_count": 0, "devlogs_count": 0, "votes_count": 0, "ships_count": 0, "projects": [], "coding_time_seconds": 0, "coding_time_seconds_today": 0, "balance": "You need to have a pocket watcher badge to view this.", "badges": [], "created_at": "2025-09-01T08:57:49.945-04:00", "updated_at": "2025-09-01T10:01:58.686-04:00", "avatar": "https://secure.gravatar.com/avatar/4e593c17301fc36fe411979d5b72b946.jpg?s=512&d=https%3A%2F%2Fa.slack-edge.com%2Fdf10d%2Fimg%2Favatars%2Fava_0000-512.png", "custom_css": null}, {"id": 22900, "slack_id": "U099C96T8SU", "display_name": "Kritika Adhikari", "bio": null, "projects_count": 0, "devlogs_count": 0, "votes_count": 0, "ships_count": 0, "projects": [], "coding_time_seconds": 0, "coding_time_seconds_today": 0, "balance": "You need to have a pocket watcher badge to view this.", "badges": [], "created_at": "2025-09-01T09:01:04.256-04:00", "updated_at": "2025-09-01T10:01:58.824-04:00", "avatar": "https://secure.gravatar.com/avatar/c507b45bf4100ae5db4abaca04ab7540.jpg?s=512&d=https%3A%2F%2Fa.slack-edge.com%2Fdf10d%2Fimg%2Favatars%2Fava_0002-512.png", "custom_css": null}, {"id": 22901, "slack_id": "U09CK4WGQUF", "display_name": "stuart", "bio": null, "projects_count": 0, "devlogs_count": 0, "votes_count": 0, "ships_count": 0, "projects": [], "coding_time_seconds": 0, "coding_time_seconds_today": 0, "balance": "You need to have a pocket watcher badge to view this.", "badges": [], "created_at": "2025-09-01T10:46:02.910-04:00", "updated_at": "2025-09-14T04:16:41.200-04:00", "avatar": "https://secure.gravatar.com/avatar/4f852cf87ac76f23f17de6e1cdfda2a6.jpg?s=512&d=https%3A%2F%2Fa.slack-edge.com%2Fdf10d%2Fimg%2Favatars%2Fava_0023-512.png", "custom_css": null}, {"id": 22902, "slack_id": "U09CV1U6RDZ", "display_name": "Carlos Espinoza III", "bio": null, "projects_count": 0, "devlogs_count": 0, "votes_count": 0, "ships_count": 0, "projects": [], "coding_time_seconds": 0, "coding_time_seconds_today": 0, "balance": "You need to have a pocket watcher badge to view this.", "badges": [], "created_at": "2025-09-01T10:49:24.432-04:00", "updated_at": "2025-09-01T16:01:40.159-04:00", "avatar": "https://secure.gravatar.com/avatar/a61b0ab9f7c0efc84716c1e93e623a96.jpg?s=512&d=https%3A%2F%2Fa.slack-edge.com%2Fdf10d%2Fimg%2Favatars%2Fava_0002-512.png", "custom_css": null}, {"id": 22903, "slack_id": "U09CXD3NY21", "display_name": "Rahma Naqui", "bio": null, "projects_count": 0, "devlogs_count": 0, "votes_count": 0, "ships_count": 0, "projects": [], "coding_time_seconds": 0, "coding_time_seconds_today": 0, "balance": "You need to have a pocket watcher badge to view this.", "badges": [], "created_at": "2025-09-01T10:59:34.860-04:00", "updated_at": "2025-09-01T16:01:40.295-04:00", "avatar": "https://secure.gravatar.com/avatar/0e5719bdb781aa1a01231a7e5cf314b3.jpg?s=512&d=https%3A%2F%2Fa.slack-edge.com%2Fdf10d%2Fimg%2Favatars%2Fava_0012-512.png", "custom_css": null}, {"id": 22904, "slack_id": "U09CKAL8355", "display_name": "Paravi Jain", "bio": null, "projects_count": 0, "devlogs_count": 0, "votes_count": 0, "ships_count": 0, "projects": [], "coding_time_seconds": 0, "coding_time_seconds_today": 0, "balance": "You need to have a pocket watcher badge to view this.", "badges": [], "created_at": "2025-09-01T11:25:01.672-04:00", "updated_at": "2025-09-03T17:58:52.011-04:00", "avatar": "https://secure.gravatar.com/avatar/74a83c3c6f97cb2769de482b3a887654.jpg?s=512&d=https%3A%2F%2Fa.slack-edge.com%2Fdf10d%2Fimg%2Favatars%2Fava_0018-512.png", "custom_css": null}, {"id": 22905, "slack_id": "U09CT7YTYEQ", "display_name": "Gayatri", "bio": null, "projects_count": 0, "devlogs_count": 0, "votes_count": 0, "ships_count": 0, "projects": [], "coding_time_seconds": 0, "coding_time_seconds_today": 0, "balance": "You need to have a pocket watcher badge to view this.", "badges": [], "created_at": "2025-09-01T11:35:49.710-04:00", "updated_at": "2025-09-01T16:01:40.665-04:00", "avatar": "https://secure.gravatar.com/avatar/009191671806f9c6d053b9c21fe21294.jpg?s=512&d=https%3A%2F%2Fa.slack-edge.com%2Fdf10d%2Fimg%2Favatars%2Fava_0019-512.png", "custom_css": null}], "pagination": {"page": 1141, "pages": 1192, "count": 23828, "items": 20}}