{"users": [{"id": 22906, "slack_id": "U09CVEX0SRJ", "display_name": "samourai", "bio": null, "projects_count": 0, "devlogs_count": 0, "votes_count": 0, "ships_count": 0, "projects": [], "coding_time_seconds": 57469, "coding_time_seconds_today": 0, "balance": "You need to have a pocket watcher badge to view this.", "badges": [], "created_at": "2025-09-01T11:44:30.961-04:00", "updated_at": "2025-09-01T16:01:40.782-04:00", "avatar": "https://avatars.slack-edge.com/2025-09-01/9437346742515_3528da098b0e8f9f0eb5_original.jpg", "custom_css": null}, {"id": 22907, "slack_id": "U09D42Q0ARJ", "display_name": "yaygideon", "bio": null, "projects_count": 2, "devlogs_count": 7, "votes_count": 0, "ships_count": 1, "projects": [{"id": 13472, "title": "flowboard", "devlogs_count": 1, "created_at": "2025-09-17T09:11:34.121-04:00"}, {"id": 12722, "title": "youthacks", "devlogs_count": 6, "created_at": "2025-09-01T13:21:41.800-04:00"}], "coding_time_seconds": 136793, "coding_time_seconds_today": 3075, "balance": "You need to have a pocket watcher badge to view this.", "badges": [{"name": "Maiden Voyage", "text": "you shipped your first project! the journey begins...", "icon": "\ud83d\udea2"}], "created_at": "2025-09-01T12:05:30.394-04:00", "updated_at": "2025-09-24T21:10:21.241-04:00", "avatar": "https://avatars.slack-edge.com/2025-09-22/9561433069812_eeaeaa92d7b617ca08fa_original.png", "custom_css": null}, {"id": 22908, "slack_id": "U09CKQGEP8A", "display_name": "Anushka Pandey", "bio": null, "projects_count": 0, "devlogs_count": 0, "votes_count": 0, "ships_count": 0, "projects": [], "coding_time_seconds": 0, "coding_time_seconds_today": 0, "balance": "You need to have a pocket watcher badge to view this.", "badges": [], "created_at": "2025-09-01T12:08:51.590-04:00", "updated_at": "2025-09-01T16:01:41.038-04:00", "avatar": "https://secure.gravatar.com/avatar/e4675613f9c798bc2f5462aec7267cd5.jpg?s=512&d=https%3A%2F%2Fa.slack-edge.com%2Fdf10d%2Fimg%2Favatars%2Fava_0025-512.png", "custom_css": null}, {"id": 22909, "slack_id": "U09CX6THU8L", "display_name": "israel emmanuel d'oliveira", "bio": null, "projects_count": 0, "devlogs_count": 0, "votes_count": 0, "ships_count": 0, "projects": [], "coding_time_seconds": 0, "coding_time_seconds_today": 0, "balance": "You need to have a pocket watcher badge to view this.", "badges": [], "created_at": "2025-09-01T12:20:15.282-04:00", "updated_at": "2025-09-01T16:01:41.154-04:00", "avatar": "https://secure.gravatar.com/avatar/c66190842b5ad7de779cd18fe1b58f7d.jpg?s=512&d=https%3A%2F%2Fa.slack-edge.com%2Fdf10d%2Fimg%2Favatars%2Fava_0007-512.png", "custom_css": null}, {"id": 22910, "slack_id": "U07H2A55DNC", "display_name": "Dewmini Jayasinghe", "bio": null, "projects_count": 0, "devlogs_count": 0, "votes_count": 0, "ships_count": 0, "projects": [], "coding_time_seconds": 0, "coding_time_seconds_today": 0, "balance": "You need to have a pocket watcher badge to view this.", "badges": [], "created_at": "2025-09-01T12:27:47.716-04:00", "updated_at": "2025-09-01T16:01:41.290-04:00", "avatar": "https://avatars.slack-edge.com/2024-08-10/7570225407569_6c20e31ae39b475eab4f_original.png", "custom_css": null}, {"id": 22911, "slack_id": "U09D8HYFYN5", "display_name": "Manish Tamang", "bio": null, "projects_count": 0, "devlogs_count": 0, "votes_count": 0, "ships_count": 0, "projects": [], "coding_time_seconds": 44521, "coding_time_seconds_today": 0, "balance": "You need to have a pocket watcher badge to view this.", "badges": [], "created_at": "2025-09-01T12:40:58.884-04:00", "updated_at": "2025-09-13T12:31:29.973-04:00", "avatar": "https://avatars.slack-edge.com/2025-09-01/9442454666582_44bc29d9922c8e848b64_original.png", "custom_css": null}, {"id": 22912, "slack_id": "U09D4BD6NNQ", "display_name": "ayuu", "bio": null, "projects_count": 0, "devlogs_count": 0, "votes_count": 0, "ships_count": 0, "projects": [], "coding_time_seconds": 0, "coding_time_seconds_today": 0, "balance": "You need to have a pocket watcher badge to view this.", "badges": [], "created_at": "2025-09-01T12:41:51.340-04:00", "updated_at": "2025-09-01T16:01:41.523-04:00", "avatar": "https://secure.gravatar.com/avatar/5d1e02d967ea52db544de382c209a0e8.jpg?s=512&d=https%3A%2F%2Fa.slack-edge.com%2Fdf10d%2Fimg%2Favatars%2Fava_0026-512.png", "custom_css": null}, {"id": 22913, "slack_id": "U09D4C03H7W", "display_name": "Jason", "bio": null, "projects_count": 0, "devlogs_count": 0, "votes_count": 0, "ships_count": 0, "projects": [], "coding_time_seconds": 0, "coding_time_seconds_today": 0, "balance": "You need to have a pocket watcher badge to view this.", "badges": [], "created_at": "2025-09-01T12:47:16.751-04:00", "updated_at": "2025-09-01T16:01:41.633-04:00", "avatar": "https://secure.gravatar.com/avatar/f6168fbb2bb40ec1657a9da8cb383014.jpg?s=512&d=https%3A%2F%2Fa.slack-edge.com%2Fdf10d%2Fimg%2Favatars%2Fava_0009-512.png", "custom_css": null}, {"id": 22914, "slack_id": "U09DD9ZJDPB", "display_name": "Constantin", "bio": null, "projects_count": 0, "devlogs_count": 0, "votes_count": 0, "ships_count": 0, "projects": [], "coding_time_seconds": 0, "coding_time_seconds_today": 0, "balance": "You need to have a pocket watcher badge to view this.", "badges": [], "created_at": "2025-09-01T12:48:39.834-04:00", "updated_at": "2025-09-02T09:44:37.487-04:00", "avatar": "https://secure.gravatar.com/avatar/ca919a97235e8e28467bb776dc17b571.jpg?s=512&d=https%3A%2F%2Fa.slack-edge.com%2Fdf10d%2Fimg%2Favatars%2Fava_0014-512.png", "custom_css": null}, {"id": 22915, "slack_id": "U09D0NU81P0", "display_name": "Jay Patel", "bio": null, "projects_count": 0, "devlogs_count": 0, "votes_count": 0, "ships_count": 0, "projects": [], "coding_time_seconds": 0, "coding_time_seconds_today": 0, "balance": "You need to have a pocket watcher badge to view this.", "badges": [], "created_at": "2025-09-01T14:47:36.854-04:00", "updated_at": "2025-09-01T16:01:41.898-04:00", "avatar": "https://secure.gravatar.com/avatar/ceed3fb480024e806436f005efbf6e52.jpg?s=512&d=https%3A%2F%2Fa.slack-edge.com%2Fdf10d%2Fimg%2Favatars%2Fava_0002-512.png", "custom_css": null}, {"id": 22916, "slack_id": "U09CZMXFNAE", "display_name": "Aditya Bang", "bio": null, "projects_count": 0, "devlogs_count": 0, "votes_count": 0, "ships_count": 0, "projects": [], "coding_time_seconds": 0, "coding_time_seconds_today": 0, "balance": "You need to have a pocket watcher badge to view this.", "badges": [], "created_at": "2025-09-01T15:03:21.787-04:00", "updated_at": "2025-09-01T16:01:42.233-04:00", "avatar": "https://secure.gravatar.com/avatar/da6d598c28342d02c43462ebb819249e.jpg?s=512&d=https%3A%2F%2Fa.slack-edge.com%2Fdf10d%2Fimg%2Favatars%2Fava_0022-512.png", "custom_css": null}, {"id": 22917, "slack_id": "U09CVSJ2YUT", "display_name": "Suhas K", "bio": null, "projects_count": 0, "devlogs_count": 0, "votes_count": 0, "ships_count": 0, "projects": [], "coding_time_seconds": 0, "coding_time_seconds_today": 0, "balance": "You need to have a pocket watcher badge to view this.", "badges": [], "created_at": "2025-09-01T15:35:13.299-04:00", "updated_at": "2025-09-01T16:01:42.538-04:00", "avatar": "https://secure.gravatar.com/avatar/c373f2c38cfb8771669de47e5026c5d4.jpg?s=512&d=https%3A%2F%2Fa.slack-edge.com%2Fdf10d%2Fimg%2Favatars%2Fava_0026-512.png", "custom_css": null}, {"id": 22918, "slack_id": "U09CW2PJPPV", "display_name": "Sai Pranav Varanasi", "bio": null, "projects_count": 0, "devlogs_count": 0, "votes_count": 0, "ships_count": 0, "projects": [], "coding_time_seconds": 22318, "coding_time_seconds_today": 0, "balance": "You need to have a pocket watcher badge to view this.", "badges": [], "created_at": "2025-09-01T16:44:01.965-04:00", "updated_at": "2025-09-01T22:01:57.115-04:00", "avatar": "https://secure.gravatar.com/avatar/2562aa5fea706c8de61fcefcf3314b58.jpg?s=512&d=https%3A%2F%2Fa.slack-edge.com%2Fdf10d%2Fimg%2Favatars%2Fava_0015-512.png", "custom_css": null}, {"id": 22919, "slack_id": "U09D12G6KB8", "display_name": "adic", "bio": null, "projects_count": 0, "devlogs_count": 0, "votes_count": 0, "ships_count": 0, "projects": [], "coding_time_seconds": 0, "coding_time_seconds_today": 0, "balance": "You need to have a pocket watcher badge to view this.", "badges": [], "created_at": "2025-09-01T17:03:27.344-04:00", "updated_at": "2025-09-01T22:01:57.367-04:00", "avatar": "https://secure.gravatar.com/avatar/b6978838ab6ca37544d2524f11b07abf.jpg?s=512&d=https%3A%2F%2Fa.slack-edge.com%2Fdf10d%2Fimg%2Favatars%2Fava_0011-512.png", "custom_css": null}, {"id": 22920, "slack_id": "U09DU2AJU00", "display_name": "burnt toast cat", "bio": null, "projects_count": 0, "devlogs_count": 0, "votes_count": 0, "ships_count": 0, "projects": [], "coding_time_seconds": 0, "coding_time_seconds_today": 0, "balance": "You need to have a pocket watcher badge to view this.", "badges": [], "created_at": "2025-09-01T18:41:38.115-04:00", "updated_at": "2025-09-01T22:01:57.609-04:00", "avatar": "https://secure.gravatar.com/avatar/590f218943d54a4e2e39435ecf758429.jpg?s=512&d=https%3A%2F%2Fa.slack-edge.com%2Fdf10d%2Fimg%2Favatars%2Fava_0019-512.png", "custom_css": null}, {"id": 22921, "slack_id": "U09DUA3CCJC", "display_name": "mayank saini", "bio": null, "projects_count": 0, "devlogs_count": 0, "votes_count": 0, "ships_count": 0, "projects": [], "coding_time_seconds": 46200, "coding_time_seconds_today": 0, "balance": "You need to have a pocket watcher badge to view this.", "badges": [], "created_at": "2025-09-01T20:33:46.542-04:00", "updated_at": "2025-09-01T22:01:57.850-04:00", "avatar": "https://avatars.slack-edge.com/2025-09-01/9443527597382_609e7d8572535525a083_original.png", "custom_css": null}, {"id": 22922, "slack_id": "U081RE6GQ1M", "display_name": "Tara Wang", "bio": null, "projects_count": 0, "devlogs_count": 0, "votes_count": 0, "ships_count": 0, "projects": [], "coding_time_seconds": 0, "coding_time_seconds_today": 0, "balance": "You need to have a pocket watcher badge to view this.", "badges": [], "created_at": "2025-09-01T21:30:08.034-04:00", "updated_at": "2025-09-01T22:01:57.956-04:00", "avatar": "https://secure.gravatar.com/avatar/099abf7afd700c374d09e995771d441c.jpg?s=512&d=https%3A%2F%2Fa.slack-edge.com%2Fdf10d%2Fimg%2Favatars%2Fava_0002-512.png", "custom_css": null}, {"id": 22923, "slack_id": "U09CZ34183F", "display_name": "Mika", "bio": null, "projects_count": 0, "devlogs_count": 0, "votes_count": 0, "ships_count": 0, "projects": [], "coding_time_seconds": 0, "coding_time_seconds_today": 0, "balance": "You need to have a pocket watcher badge to view this.", "badges": [], "created_at": "2025-09-01T21:47:29.989-04:00", "updated_at": "2025-09-02T04:04:10.394-04:00", "avatar": "https://secure.gravatar.com/avatar/c0572798e4c3ba16c6b09c81caa73ee2.jpg?s=512&d=https%3A%2F%2Fa.slack-edge.com%2Fdf10d%2Fimg%2Favatars%2Fava_0024-512.png", "custom_css": null}, {"id": 22924, "slack_id": "U09D0L56ZR8", "display_name": "Kripa", "bio": "", "projects_count": 0, "devlogs_count": 0, "votes_count": 0, "ships_count": 0, "projects": [], "coding_time_seconds": 0, "coding_time_seconds_today": 0, "balance": "You need to have a pocket watcher badge to view this.", "badges": [], "created_at": "2025-09-01T21:53:16.412-04:00", "updated_at": "2025-09-02T04:04:10.513-04:00", "avatar": "https://secure.gravatar.com/avatar/30d7ee765a2ef3b216a8148e8de231c8.jpg?s=512&d=https%3A%2F%2Fa.slack-edge.com%2Fdf10d%2Fimg%2Favatars%2Fava_0015-512.png", "custom_css": null}, {"id": 22925, "slack_id": "U017JRCBSFQ", "display_name": "Kevin Lu", "bio": null, "projects_count": 0, "devlogs_count": 0, "votes_count": 0, "ships_count": 0, "projects": [], "coding_time_seconds": 0, "coding_time_seconds_today": 0, "balance": "You need to have a pocket watcher badge to view this.", "badges": [], "created_at": "2025-09-01T22:32:04.939-04:00", "updated_at": "2025-09-01T22:32:15.991-04:00", "avatar": "https://avatars.slack-edge.com/2025-04-03/8707062650324_e3564571ab1b204331f3_original.png", "custom_css": null}], "pagination": {"page": 1142, "pages": 1192, "count": 23828, "items": 20}}