{"users": [{"id": 22926, "slack_id": "U09CA0SS8UF", "display_name": "Shouryan", "bio": null, "projects_count": 0, "devlogs_count": 0, "votes_count": 0, "ships_count": 0, "projects": [], "coding_time_seconds": 89953, "coding_time_seconds_today": 0, "balance": "You need to have a pocket watcher badge to view this.", "badges": [], "created_at": "2025-09-02T00:04:13.259-04:00", "updated_at": "2025-09-06T07:00:06.598-04:00", "avatar": "https://avatars.slack-edge.com/2025-09-06/9485348960129_baec2094d716ef22ac68_original.jpg", "custom_css": null}, {"id": 22927, "slack_id": "U09DF0Y7JD7", "display_name": "abderaouf", "bio": null, "projects_count": 0, "devlogs_count": 0, "votes_count": 0, "ships_count": 0, "projects": [], "coding_time_seconds": 0, "coding_time_seconds_today": 0, "balance": "You need to have a pocket watcher badge to view this.", "badges": [], "created_at": "2025-09-02T00:44:42.092-04:00", "updated_at": "2025-09-02T04:04:10.871-04:00", "avatar": "https://secure.gravatar.com/avatar/1900f44131b9819f75e19b2c18f9dd76.jpg?s=512&d=https%3A%2F%2Fa.slack-edge.com%2Fdf10d%2Fimg%2Favatars%2Fava_0003-512.png", "custom_css": null}, {"id": 22928, "slack_id": "U09CVRFPPEX", "display_name": "Lucas Freitag", "bio": null, "projects_count": 0, "devlogs_count": 0, "votes_count": 0, "ships_count": 0, "projects": [], "coding_time_seconds": 34119, "coding_time_seconds_today": 0, "balance": "You need to have a pocket watcher badge to view this.", "badges": [], "created_at": "2025-09-02T00:45:32.689-04:00", "updated_at": "2025-09-09T22:02:06.381-04:00", "avatar": "https://secure.gravatar.com/avatar/fdb993f193f1a3ef974c4183104a97fa.jpg?s=512&d=https%3A%2F%2Fa.slack-edge.com%2Fdf10d%2Fimg%2Favatars%2Fava_0016-512.png", "custom_css": null}, {"id": 22929, "slack_id": "U09CXAG6YKD", "display_name": "Shad C T", "bio": null, "projects_count": 0, "devlogs_count": 0, "votes_count": 0, "ships_count": 0, "projects": [], "coding_time_seconds": 18344, "coding_time_seconds_today": 0, "balance": "You need to have a pocket watcher badge to view this.", "badges": [], "created_at": "2025-09-02T01:09:14.462-04:00", "updated_at": "2025-09-02T04:04:11.071-04:00", "avatar": "https://secure.gravatar.com/avatar/36cc56f56e3922d4522830e6a76ccbba.jpg?s=512&d=https%3A%2F%2Fa.slack-edge.com%2Fdf10d%2Fimg%2Favatars%2Fava_0004-512.png", "custom_css": null}, {"id": 22930, "slack_id": "U09CZR3HY69", "display_name": "someone", "bio": null, "projects_count": 0, "devlogs_count": 0, "votes_count": 0, "ships_count": 0, "projects": [], "coding_time_seconds": 0, "coding_time_seconds_today": 0, "balance": "You need to have a pocket watcher badge to view this.", "badges": [], "created_at": "2025-09-02T02:00:24.851-04:00", "updated_at": "2025-09-02T04:04:11.193-04:00", "avatar": "https://secure.gravatar.com/avatar/68f9a9dbb00a9b8c8eccff01db8ca713.jpg?s=512&d=https%3A%2F%2Fa.slack-edge.com%2Fdf10d%2Fimg%2Favatars%2Fava_0013-512.png", "custom_css": null}, {"id": 22931, "slack_id": "U09D6DSD34L", "display_name": "Duaa Sherief", "bio": null, "projects_count": 0, "devlogs_count": 0, "votes_count": 0, "ships_count": 0, "projects": [], "coding_time_seconds": 0, "coding_time_seconds_today": 0, "balance": "You need to have a pocket watcher badge to view this.", "badges": [], "created_at": "2025-09-02T02:51:51.192-04:00", "updated_at": "2025-09-02T04:04:11.302-04:00", "avatar": "https://secure.gravatar.com/avatar/aa47d65cfab12a0f785ea9420090d17b.jpg?s=512&d=https%3A%2F%2Fa.slack-edge.com%2Fdf10d%2Fimg%2Favatars%2Fava_0007-512.png", "custom_css": null}, {"id": 22932, "slack_id": "U09D082VBJR", "display_name": "Jannis Dobler", "bio": null, "projects_count": 4, "devlogs_count": 24, "votes_count": 20, "ships_count": 2, "projects": [{"id": 12783, "title": "CoolOs", "devlogs_count": 10, "created_at": "2025-09-02T11:35:18.823-04:00"}, {"id": 12846, "title": "Snake", "devlogs_count": 6, "created_at": "2025-09-03T14:14:39.366-04:00"}, {"id": 13485, "title": "Great Frozen Wall", "devlogs_count": 0, "created_at": "2025-09-17T14:10:58.457-04:00"}, {"id": 13444, "title": "AnyFile", "devlogs_count": 8, "created_at": "2025-09-16T15:09:13.636-04:00"}], "coding_time_seconds": 143055, "coding_time_seconds_today": 0, "balance": "You need to have a pocket watcher badge to view this.", "badges": [], "created_at": "2025-09-02T03:38:02.489-04:00", "updated_at": "2025-09-02T11:20:37.056-04:00", "avatar": "https://secure.gravatar.com/avatar/7612ec531d4dc333f78491a596ba0254.jpg?s=512&d=https%3A%2F%2Fa.slack-edge.com%2Fdf10d%2Fimg%2Favatars%2Fava_0014-512.png", "custom_css": null}, {"id": 22933, "slack_id": "U09DFQM70C9", "display_name": "Julian Sinn", "bio": null, "projects_count": 0, "devlogs_count": 0, "votes_count": 0, "ships_count": 0, "projects": [], "coding_time_seconds": 0, "coding_time_seconds_today": 0, "balance": "You need to have a pocket watcher badge to view this.", "badges": [], "created_at": "2025-09-02T03:59:33.761-04:00", "updated_at": "2025-09-03T04:04:22.934-04:00", "avatar": "https://avatars.slack-edge.com/2025-09-02/9444071005394_383d8bcc06500b8c491d_original.png", "custom_css": null}, {"id": 22934, "slack_id": "U09CY1P512P", "display_name": "Krishnaa", "bio": null, "projects_count": 0, "devlogs_count": 0, "votes_count": 0, "ships_count": 0, "projects": [], "coding_time_seconds": 0, "coding_time_seconds_today": 0, "balance": "You need to have a pocket watcher badge to view this.", "badges": [], "created_at": "2025-09-02T04:03:51.030-04:00", "updated_at": "2025-09-03T04:04:23.041-04:00", "avatar": "https://secure.gravatar.com/avatar/96f12242934d794b99625cd0774ee042.jpg?s=512&d=https%3A%2F%2Fa.slack-edge.com%2Fdf10d%2Fimg%2Favatars%2Fava_0019-512.png", "custom_css": null}, {"id": 22935, "slack_id": "U09D27L8G2W", "display_name": "Spud", "bio": null, "projects_count": 0, "devlogs_count": 0, "votes_count": 0, "ships_count": 0, "projects": [], "coding_time_seconds": 0, "coding_time_seconds_today": 0, "balance": "You need to have a pocket watcher badge to view this.", "badges": [], "created_at": "2025-09-02T04:42:12.080-04:00", "updated_at": "2025-09-03T04:04:23.143-04:00", "avatar": "https://secure.gravatar.com/avatar/bd0d12bd1205ec955bcacf1c757c5635.jpg?s=512&d=https%3A%2F%2Fa.slack-edge.com%2Fdf10d%2Fimg%2Favatars%2Fava_0008-512.png", "custom_css": null}, {"id": 22936, "slack_id": "U0828FFU4DA", "display_name": "Adam", "bio": null, "projects_count": 0, "devlogs_count": 0, "votes_count": 0, "ships_count": 0, "projects": [], "coding_time_seconds": 156277, "coding_time_seconds_today": 0, "balance": "You need to have a pocket watcher badge to view this.", "badges": [], "created_at": "2025-09-02T04:44:57.270-04:00", "updated_at": "2025-09-07T17:59:14.417-04:00", "avatar": "https://secure.gravatar.com/avatar/c08b812400666f8bbbd91fcf6b9f39b2.jpg?s=512&d=https%3A%2F%2Fa.slack-edge.com%2Fdf10d%2Fimg%2Favatars%2Fava_0004-512.png", "custom_css": null}, {"id": 22937, "slack_id": "U09D0MVCG5T", "display_name": "Optimus populus", "bio": null, "projects_count": 0, "devlogs_count": 0, "votes_count": 0, "ships_count": 0, "projects": [], "coding_time_seconds": 0, "coding_time_seconds_today": 0, "balance": "You need to have a pocket watcher badge to view this.", "badges": [], "created_at": "2025-09-02T05:08:57.790-04:00", "updated_at": "2025-09-05T02:33:17.153-04:00", "avatar": "https://avatars.slack-edge.com/2025-09-02/9449264105540_40c8054cff5d7a7128dd_original.png", "custom_css": null}, {"id": 22938, "slack_id": "U09CNHJA5D5", "display_name": "Divyansh", "bio": null, "projects_count": 4, "devlogs_count": 20, "votes_count": 45, "ships_count": 4, "projects": [{"id": 13493, "title": "Phantom Hack Club Web ", "devlogs_count": 2, "created_at": "2025-09-17T19:59:10.431-04:00"}, {"id": 13657, "title": "MindSync \u2013 Real-Time Collaborative Knowledge Map", "devlogs_count": 4, "created_at": "2025-09-22T07:28:25.564-04:00"}, {"id": 13028, "title": "LSE: LifeSim Economy", "devlogs_count": 6, "created_at": "2025-09-07T04:40:18.215-04:00"}, {"id": 12877, "title": "sunrise city", "devlogs_count": 3, "created_at": "2025-09-04T08:51:34.661-04:00"}], "coding_time_seconds": 405714, "coding_time_seconds_today": 6120, "balance": "You need to have a pocket watcher badge to view this.", "badges": [], "created_at": "2025-09-02T05:15:45.150-04:00", "updated_at": "2025-09-04T00:30:02.518-04:00", "avatar": "https://avatars.slack-edge.com/2025-09-02/9472249298048_d8311d6b040ca60acac3_original.png", "custom_css": null}, {"id": 22939, "slack_id": "U09D0P9H5J9", "display_name": "Bhavya", "bio": null, "projects_count": 0, "devlogs_count": 0, "votes_count": 0, "ships_count": 0, "projects": [], "coding_time_seconds": 0, "coding_time_seconds_today": 0, "balance": "You need to have a pocket watcher badge to view this.", "badges": [], "created_at": "2025-09-02T05:20:09.287-04:00", "updated_at": "2025-09-03T04:04:23.569-04:00", "avatar": "https://secure.gravatar.com/avatar/cb3d7d9abddfb01c592c470750beb4e6.jpg?s=512&d=https%3A%2F%2Fa.slack-edge.com%2Fdf10d%2Fimg%2Favatars%2Fava_0016-512.png", "custom_css": null}, {"id": 22940, "slack_id": "U09D2R1GC82", "display_name": "Pluz One", "bio": null, "projects_count": 0, "devlogs_count": 0, "votes_count": 0, "ships_count": 0, "projects": [], "coding_time_seconds": 0, "coding_time_seconds_today": 0, "balance": "You need to have a pocket watcher badge to view this.", "badges": [], "created_at": "2025-09-02T06:41:14.800-04:00", "updated_at": "2025-09-03T04:04:23.719-04:00", "avatar": "https://avatars.slack-edge.com/2025-09-02/9443187604517_9e9387a989c3319c94a5_original.png", "custom_css": null}, {"id": 22941, "slack_id": "U09D152FNAH", "display_name": "Akshai", "bio": null, "projects_count": 0, "devlogs_count": 0, "votes_count": 0, "ships_count": 0, "projects": [], "coding_time_seconds": 0, "coding_time_seconds_today": 0, "balance": "You need to have a pocket watcher badge to view this.", "badges": [], "created_at": "2025-09-02T06:42:36.344-04:00", "updated_at": "2025-09-03T04:04:23.830-04:00", "avatar": "https://avatars.slack-edge.com/2025-09-02/9440896508419_9197e208e38264affb96_original.jpg", "custom_css": null}, {"id": 22942, "slack_id": "U09D43UJVK8", "display_name": "Navyasree", "bio": null, "projects_count": 0, "devlogs_count": 0, "votes_count": 0, "ships_count": 0, "projects": [], "coding_time_seconds": 0, "coding_time_seconds_today": 0, "balance": "You need to have a pocket watcher badge to view this.", "badges": [], "created_at": "2025-09-02T07:25:05.692-04:00", "updated_at": "2025-09-03T04:04:23.938-04:00", "avatar": "https://secure.gravatar.com/avatar/b1b5877204b7f68d6e365d7af6e6010e.jpg?s=512&d=https%3A%2F%2Fa.slack-edge.com%2Fdf10d%2Fimg%2Favatars%2Fava_0026-512.png", "custom_css": null}, {"id": 22943, "slack_id": "U09D34F0G1G", "display_name": "William Amarna", "bio": null, "projects_count": 0, "devlogs_count": 0, "votes_count": 0, "ships_count": 0, "projects": [], "coding_time_seconds": 0, "coding_time_seconds_today": 0, "balance": "You need to have a pocket watcher badge to view this.", "badges": [], "created_at": "2025-09-02T07:47:04.004-04:00", "updated_at": "2025-09-03T04:04:24.069-04:00", "avatar": "https://secure.gravatar.com/avatar/6a2b545572e5019514f8dc38969aef8e.jpg?s=512&d=https%3A%2F%2Fa.slack-edge.com%2Fdf10d%2Fimg%2Favatars%2Fava_0012-512.png", "custom_css": null}, {"id": 22944, "slack_id": "U09D7AV758Q", "display_name": "weayo", "bio": "", "projects_count": 0, "devlogs_count": 0, "votes_count": 0, "ships_count": 0, "projects": [], "coding_time_seconds": 0, "coding_time_seconds_today": 0, "balance": "You need to have a pocket watcher badge to view this.", "badges": [], "created_at": "2025-09-02T08:26:56.095-04:00", "updated_at": "2025-09-03T02:59:06.205-04:00", "avatar": "https://avatars.slack-edge.com/2025-09-02/9450548170388_180082767f85d72fc663_original.jpg", "custom_css": null}, {"id": 22945, "slack_id": "U09D4NN3ZU6", "display_name": "Lucas Do", "bio": null, "projects_count": 0, "devlogs_count": 0, "votes_count": 0, "ships_count": 0, "projects": [], "coding_time_seconds": 0, "coding_time_seconds_today": 0, "balance": "You need to have a pocket watcher badge to view this.", "badges": [], "created_at": "2025-09-02T09:20:07.456-04:00", "updated_at": "2025-09-03T04:04:24.270-04:00", "avatar": "https://secure.gravatar.com/avatar/62967319a2b10a6a1db477085536e553.jpg?s=512&d=https%3A%2F%2Fa.slack-edge.com%2Fdf10d%2Fimg%2Favatars%2Fava_0013-512.png", "custom_css": null}], "pagination": {"page": 1143, "pages": 1192, "count": 23828, "items": 20}}