{"users": [{"id": 22946, "slack_id": "U09D4QU80DU", "display_name": "ACzVIBEz", "bio": null, "projects_count": 0, "devlogs_count": 0, "votes_count": 0, "ships_count": 0, "projects": [], "coding_time_seconds": 0, "coding_time_seconds_today": 0, "balance": "You need to have a pocket watcher badge to view this.", "badges": [], "created_at": "2025-09-02T09:37:38.944-04:00", "updated_at": "2025-09-03T04:04:24.491-04:00", "avatar": "https://avatars.slack-edge.com/2025-09-02/9473538794320_d1e5da1597beea564680_original.jpg", "custom_css": null}, {"id": 22947, "slack_id": "U09DXLCUQJU", "display_name": "shweta", "bio": null, "projects_count": 0, "devlogs_count": 0, "votes_count": 0, "ships_count": 0, "projects": [], "coding_time_seconds": 0, "coding_time_seconds_today": 0, "balance": "You need to have a pocket watcher badge to view this.", "badges": [], "created_at": "2025-09-02T10:06:31.861-04:00", "updated_at": "2025-09-03T04:04:24.764-04:00", "avatar": "https://secure.gravatar.com/avatar/43cd33e812db73b5c493ba2eff9adbca.jpg?s=512&d=https%3A%2F%2Fa.slack-edge.com%2Fdf10d%2Fimg%2Favatars%2Fava_0023-512.png", "custom_css": null}, {"id": 22948, "slack_id": "U09DJ37RRRP", "display_name": "samliu (alt rfdscfewsdc)", "bio": null, "projects_count": 1, "devlogs_count": 1, "votes_count": 0, "ships_count": 0, "projects": [{"id": 12776, "title": "Test project", "devlogs_count": 1, "created_at": "2025-09-02T10:46:52.054-04:00"}], "coding_time_seconds": 9248, "coding_time_seconds_today": 0, "balance": "You need to have a pocket watcher badge to view this.", "badges": [], "created_at": "2025-09-02T10:41:30.826-04:00", "updated_at": "2025-09-03T04:04:24.897-04:00", "avatar": "https://secure.gravatar.com/avatar/cd21d71f7de7c158f500bf21e5a0c50f.jpg?s=512&d=https%3A%2F%2Fa.slack-edge.com%2Fdf10d%2Fimg%2Favatars%2Fava_0020-512.png", "custom_css": null}, {"id": 22949, "slack_id": "U09CQHLM10F", "display_name": "Kunal Sharma", "bio": null, "projects_count": 0, "devlogs_count": 0, "votes_count": 0, "ships_count": 0, "projects": [], "coding_time_seconds": 0, "coding_time_seconds_today": 0, "balance": "You need to have a pocket watcher badge to view this.", "badges": [], "created_at": "2025-09-02T11:10:43.167-04:00", "updated_at": "2025-09-03T04:04:25.016-04:00", "avatar": "https://avatars.slack-edge.com/2025-09-02/9442370120307_01369fcbde575c091ab1_original.jpg", "custom_css": null}, {"id": 22950, "slack_id": "U09D0A0TLCB", "display_name": "yanis", "bio": null, "projects_count": 0, "devlogs_count": 0, "votes_count": 0, "ships_count": 0, "projects": [], "coding_time_seconds": 0, "coding_time_seconds_today": 0, "balance": "You need to have a pocket watcher badge to view this.", "badges": [], "created_at": "2025-09-02T11:11:14.712-04:00", "updated_at": "2025-09-03T04:04:25.249-04:00", "avatar": "https://secure.gravatar.com/avatar/b9961ee1175ca956677540dcca11df6b.jpg?s=512&d=https%3A%2F%2Fa.slack-edge.com%2Fdf10d%2Fimg%2Favatars%2Fava_0007-512.png", "custom_css": null}, {"id": 22951, "slack_id": "U09DY9Q20MN", "display_name": "Syed", "bio": null, "projects_count": 0, "devlogs_count": 0, "votes_count": 0, "ships_count": 0, "projects": [], "coding_time_seconds": 0, "coding_time_seconds_today": 0, "balance": "You need to have a pocket watcher badge to view this.", "badges": [], "created_at": "2025-09-02T11:41:05.338-04:00", "updated_at": "2025-09-03T04:04:25.432-04:00", "avatar": "https://secure.gravatar.com/avatar/59a22f48b3df4163124d8536a2c327ca.jpg?s=512&d=https%3A%2F%2Fa.slack-edge.com%2Fdf10d%2Fimg%2Favatars%2Fava_0021-512.png", "custom_css": null}, {"id": 22952, "slack_id": "U09D4RQSW0J", "display_name": "Rudhro", "bio": null, "projects_count": 0, "devlogs_count": 0, "votes_count": 0, "ships_count": 0, "projects": [], "coding_time_seconds": 0, "coding_time_seconds_today": 0, "balance": "You need to have a pocket watcher badge to view this.", "badges": [], "created_at": "2025-09-02T12:04:07.060-04:00", "updated_at": "2025-09-08T12:30:01.897-04:00", "avatar": "https://secure.gravatar.com/avatar/bac333975407fbf5dce3ef810e16e233.jpg?s=512&d=https%3A%2F%2Fa.slack-edge.com%2Fdf10d%2Fimg%2Favatars%2Fava_0014-512.png", "custom_css": null}, {"id": 22953, "slack_id": "U09CR2JL13R", "display_name": "Mohammad Abaan Reshi", "bio": null, "projects_count": 1, "devlogs_count": 6, "votes_count": 21, "ships_count": 1, "projects": [{"id": 12807, "title": "Chat-App 2.0", "devlogs_count": 6, "created_at": "2025-09-03T01:52:47.504-04:00"}], "coding_time_seconds": 21953, "coding_time_seconds_today": 0, "balance": "You need to have a pocket watcher badge to view this.", "badges": [], "created_at": "2025-09-02T12:19:26.097-04:00", "updated_at": "2025-09-03T04:04:30.009-04:00", "avatar": "https://secure.gravatar.com/avatar/9dd6261964250a5677169441455def3f.jpg?s=512&d=https%3A%2F%2Fa.slack-edge.com%2Fdf10d%2Fimg%2Favatars%2Fava_0025-512.png", "custom_css": null}, {"id": 22954, "slack_id": "U098GUY8SLF", "display_name": "samina", "bio": null, "projects_count": 0, "devlogs_count": 0, "votes_count": 0, "ships_count": 0, "projects": [], "coding_time_seconds": 0, "coding_time_seconds_today": 0, "balance": "You need to have a pocket watcher badge to view this.", "badges": [], "created_at": "2025-09-02T13:13:16.042-04:00", "updated_at": "2025-09-03T04:04:30.175-04:00", "avatar": "https://secure.gravatar.com/avatar/5ba0f467fc78e0e8d861dbd9ebf76d40.jpg?s=512&d=https%3A%2F%2Fa.slack-edge.com%2Fdf10d%2Fimg%2Favatars%2Fava_0021-512.png", "custom_css": null}, {"id": 22955, "slack_id": "U09D6CDLPQW", "display_name": "holtsimo", "bio": null, "projects_count": 0, "devlogs_count": 0, "votes_count": 0, "ships_count": 0, "projects": [], "coding_time_seconds": 0, "coding_time_seconds_today": 0, "balance": "You need to have a pocket watcher badge to view this.", "badges": [], "created_at": "2025-09-02T13:18:35.181-04:00", "updated_at": "2025-09-03T04:04:30.344-04:00", "avatar": "https://secure.gravatar.com/avatar/c35f400c6af7f1d37ed83129a94f065d.jpg?s=512&d=https%3A%2F%2Fa.slack-edge.com%2Fdf10d%2Fimg%2Favatars%2Fava_0010-512.png", "custom_css": null}, {"id": 22956, "slack_id": "U09D5BH0YSW", "display_name": "Azel Achmad", "bio": null, "projects_count": 0, "devlogs_count": 0, "votes_count": 0, "ships_count": 0, "projects": [], "coding_time_seconds": 0, "coding_time_seconds_today": 0, "balance": "You need to have a pocket watcher badge to view this.", "badges": [], "created_at": "2025-09-02T13:22:31.496-04:00", "updated_at": "2025-09-03T04:04:30.459-04:00", "avatar": "https://secure.gravatar.com/avatar/d55498c686ec8eacdcfd35b3cfccd7f0.jpg?s=512&d=https%3A%2F%2Fa.slack-edge.com%2Fdf10d%2Fimg%2Favatars%2Fava_0001-512.png", "custom_css": null}, {"id": 22957, "slack_id": "U09D3DEGL05", "display_name": "mujib malik", "bio": null, "projects_count": 0, "devlogs_count": 0, "votes_count": 0, "ships_count": 0, "projects": [], "coding_time_seconds": 0, "coding_time_seconds_today": 0, "balance": "You need to have a pocket watcher badge to view this.", "badges": [], "created_at": "2025-09-02T13:24:33.542-04:00", "updated_at": "2025-09-03T04:04:30.609-04:00", "avatar": "https://secure.gravatar.com/avatar/2d20f1bbe23996eeb0e2abcdff2d3e09.jpg?s=512&d=https%3A%2F%2Fa.slack-edge.com%2Fdf10d%2Fimg%2Favatars%2Fava_0002-512.png", "custom_css": null}, {"id": 22958, "slack_id": "U09DYT6C8C8", "display_name": "9iota", "bio": "I code sometimes...", "projects_count": 0, "devlogs_count": 4, "votes_count": 3, "ships_count": 0, "projects": [], "coding_time_seconds": 270889, "coding_time_seconds_today": 0, "balance": "You need to have a pocket watcher badge to view this.", "badges": [], "created_at": "2025-09-02T13:47:38.694-04:00", "updated_at": "2025-09-11T13:38:50.373-04:00", "avatar": "https://avatars.slack-edge.com/2025-09-02/9448411532550_d5e783a629a9296f5e26_original.jpg", "custom_css": null}, {"id": 22959, "slack_id": "U09D6L889RU", "display_name": "Bhavishya Singla", "bio": null, "projects_count": 0, "devlogs_count": 0, "votes_count": 0, "ships_count": 0, "projects": [], "coding_time_seconds": 0, "coding_time_seconds_today": 0, "balance": "You need to have a pocket watcher badge to view this.", "badges": [], "created_at": "2025-09-02T14:01:29.701-04:00", "updated_at": "2025-09-03T04:04:30.798-04:00", "avatar": "https://avatars.slack-edge.com/2025-09-02/9475209708192_d28a927f65978d541e7c_original.png", "custom_css": null}, {"id": 22960, "slack_id": "U09D3S68Z2R", "display_name": "Yael Rodr\u00edguez Escobar", "bio": null, "projects_count": 0, "devlogs_count": 0, "votes_count": 0, "ships_count": 0, "projects": [], "coding_time_seconds": 0, "coding_time_seconds_today": 0, "balance": "You need to have a pocket watcher badge to view this.", "badges": [], "created_at": "2025-09-02T14:30:56.053-04:00", "updated_at": "2025-09-03T04:04:30.945-04:00", "avatar": "https://avatars.slack-edge.com/2025-09-02/9445909198853_5c6301c4022676eea34d_original.jpg", "custom_css": null}, {"id": 22961, "slack_id": "U07RX6QDD09", "display_name": "Satindar", "bio": null, "projects_count": 1, "devlogs_count": 3, "votes_count": 1, "ships_count": 1, "projects": [{"id": 12794, "title": "Paper Bazaar", "devlogs_count": 3, "created_at": "2025-09-02T14:59:22.400-04:00"}], "coding_time_seconds": 78739, "coding_time_seconds_today": 0, "balance": "You need to have a pocket watcher badge to view this.", "badges": [], "created_at": "2025-09-02T14:52:49.594-04:00", "updated_at": "2025-09-03T04:04:31.209-04:00", "avatar": "https://secure.gravatar.com/avatar/c071ada8042488fd87a8d09a1b574411.jpg?s=512&d=https%3A%2F%2Fa.slack-edge.com%2Fdf10d%2Fimg%2Favatars%2Fava_0005-512.png", "custom_css": null}, {"id": 22962, "slack_id": "U08S7BE9R25", "display_name": "Arihant Jain", "bio": null, "projects_count": 0, "devlogs_count": 0, "votes_count": 0, "ships_count": 0, "projects": [], "coding_time_seconds": 0, "coding_time_seconds_today": 0, "balance": "You need to have a pocket watcher badge to view this.", "badges": [], "created_at": "2025-09-02T15:13:40.929-04:00", "updated_at": "2025-09-02T15:14:48.606-04:00", "avatar": "https://avatars.slack-edge.com/2025-05-21/8952578482256_6475c017bffc9bedc520_original.png", "custom_css": null}, {"id": 22963, "slack_id": "U09D4557MB7", "display_name": "Saayuj Sajith", "bio": "", "projects_count": 1, "devlogs_count": 0, "votes_count": 1, "ships_count": 0, "projects": [{"id": 12872, "title": "Webnovel App", "devlogs_count": 0, "created_at": "2025-09-04T06:01:35.352-04:00"}], "coding_time_seconds": 54728, "coding_time_seconds_today": 304, "balance": "You need to have a pocket watcher badge to view this.", "badges": [], "created_at": "2025-09-02T15:14:00.875-04:00", "updated_at": "2025-09-04T10:07:24.088-04:00", "avatar": "https://secure.gravatar.com/avatar/4554772de207534b9eb58d53d7058815.jpg?s=512&d=https%3A%2F%2Fa.slack-edge.com%2Fdf10d%2Fimg%2Favatars%2Fava_0019-512.png", "custom_css": null}, {"id": 22964, "slack_id": "U09D29D9SLB", "display_name": "Bryan Gao", "bio": null, "projects_count": 0, "devlogs_count": 0, "votes_count": 0, "ships_count": 0, "projects": [], "coding_time_seconds": 925, "coding_time_seconds_today": 0, "balance": "You need to have a pocket watcher badge to view this.", "badges": [], "created_at": "2025-09-02T17:07:24.421-04:00", "updated_at": "2025-09-03T04:04:31.678-04:00", "avatar": "https://secure.gravatar.com/avatar/fdd7420b0df6340e04102735759dd9fa.jpg?s=512&d=https%3A%2F%2Fa.slack-edge.com%2Fdf10d%2Fimg%2Favatars%2Fava_0024-512.png", "custom_css": null}, {"id": 22965, "slack_id": "U09DB4H0876", "display_name": "Alfred", "bio": null, "projects_count": 1, "devlogs_count": 2, "votes_count": 2, "ships_count": 1, "projects": [{"id": 12829, "title": "Prebrief", "devlogs_count": 2, "created_at": "2025-09-03T11:36:21.531-04:00"}], "coding_time_seconds": 16344, "coding_time_seconds_today": 0, "balance": "You need to have a pocket watcher badge to view this.", "badges": [], "created_at": "2025-09-02T17:24:23.790-04:00", "updated_at": "2025-09-09T13:15:11.661-04:00", "avatar": "https://secure.gravatar.com/avatar/7154c7b3631d2db67fbe400e971d3854.jpg?s=512&d=https%3A%2F%2Fa.slack-edge.com%2Fdf10d%2Fimg%2Favatars%2Fava_0009-512.png", "custom_css": null}], "pagination": {"page": 1144, "pages": 1192, "count": 23828, "items": 20}}