{"users": [{"id": 22966, "slack_id": "U09D6NBJ926", "display_name": "Tim", "bio": null, "projects_count": 0, "devlogs_count": 0, "votes_count": 0, "ships_count": 0, "projects": [], "coding_time_seconds": 0, "coding_time_seconds_today": 0, "balance": "You need to have a pocket watcher badge to view this.", "badges": [], "created_at": "2025-09-02T17:28:18.393-04:00", "updated_at": "2025-09-03T04:04:32.155-04:00", "avatar": "https://secure.gravatar.com/avatar/a3e2f02439279cf4a229a8ac5e5d1bc7.jpg?s=512&d=https%3A%2F%2Fa.slack-edge.com%2Fdf10d%2Fimg%2Favatars%2Fava_0020-512.png", "custom_css": null}, {"id": 22967, "slack_id": "U09E07H0GRW", "display_name": "ding", "bio": null, "projects_count": 0, "devlogs_count": 0, "votes_count": 0, "ships_count": 0, "projects": [], "coding_time_seconds": 0, "coding_time_seconds_today": 0, "balance": "You need to have a pocket watcher badge to view this.", "badges": [], "created_at": "2025-09-02T17:30:40.780-04:00", "updated_at": "2025-09-03T04:04:32.308-04:00", "avatar": "https://secure.gravatar.com/avatar/5cd1e47a5a20ba83b5f593756f740774.jpg?s=512&d=https%3A%2F%2Fa.slack-edge.com%2Fdf10d%2Fimg%2Favatars%2Fava_0005-512.png", "custom_css": null}, {"id": 22968, "slack_id": "U09CSP92SVD", "display_name": "James B", "bio": null, "projects_count": 0, "devlogs_count": 0, "votes_count": 0, "ships_count": 0, "projects": [], "coding_time_seconds": 0, "coding_time_seconds_today": 0, "balance": "You need to have a pocket watcher badge to view this.", "badges": [], "created_at": "2025-09-02T17:33:54.092-04:00", "updated_at": "2025-09-07T10:02:09.954-04:00", "avatar": "https://avatars.slack-edge.com/2025-09-07/9488079530353_7fc1c144cfee771d69c4_original.jpg", "custom_css": null}, {"id": 22969, "slack_id": "U09D5JBBPF0", "display_name": "Qwerty", "bio": null, "projects_count": 0, "devlogs_count": 0, "votes_count": 0, "ships_count": 0, "projects": [], "coding_time_seconds": 120, "coding_time_seconds_today": 0, "balance": "You need to have a pocket watcher badge to view this.", "badges": [], "created_at": "2025-09-02T19:19:05.469-04:00", "updated_at": "2025-09-06T09:41:06.500-04:00", "avatar": "https://secure.gravatar.com/avatar/dd1c777618bed1a99920bd4dac68207b.jpg?s=512&d=https%3A%2F%2Fa.slack-edge.com%2Fdf10d%2Fimg%2Favatars%2Fava_0016-512.png", "custom_css": null}, {"id": 22970, "slack_id": "U09D76J1L5Q", "display_name": "Pranav K", "bio": null, "projects_count": 0, "devlogs_count": 0, "votes_count": 2, "ships_count": 0, "projects": [], "coding_time_seconds": 801, "coding_time_seconds_today": 0, "balance": "You need to have a pocket watcher badge to view this.", "badges": [], "created_at": "2025-09-02T19:30:49.981-04:00", "updated_at": "2025-09-03T18:36:12.454-04:00", "avatar": "https://secure.gravatar.com/avatar/b8e0cf27e1eb7f6983352763cacbd398.jpg?s=512&d=https%3A%2F%2Fa.slack-edge.com%2Fdf10d%2Fimg%2Favatars%2Fava_0005-512.png", "custom_css": null}, {"id": 22971, "slack_id": "U07DKAWH6N7", "display_name": "Kaz", "bio": null, "projects_count": 0, "devlogs_count": 0, "votes_count": 0, "ships_count": 0, "projects": [], "coding_time_seconds": 0, "coding_time_seconds_today": 0, "balance": "You need to have a pocket watcher badge to view this.", "badges": [], "created_at": "2025-09-02T19:39:55.685-04:00", "updated_at": "2025-09-02T19:41:34.514-04:00", "avatar": "https://avatars.slack-edge.com/2024-07-23/7462406921621_6f67e441faf72f7fbb9a_original.png", "custom_css": null}, {"id": 22972, "slack_id": "U09D3041RFV", "display_name": "Constint", "bio": "", "projects_count": 2, "devlogs_count": 5, "votes_count": 26, "ships_count": 1, "projects": [{"id": 12831, "title": "Studently", "devlogs_count": 2, "created_at": "2025-09-03T12:40:05.734-04:00"}, {"id": 13044, "title": "Button", "devlogs_count": 3, "created_at": "2025-09-07T14:23:58.283-04:00"}], "coding_time_seconds": 126522, "coding_time_seconds_today": 0, "balance": "You need to have a pocket watcher badge to view this.", "badges": [], "created_at": "2025-09-02T20:21:18.070-04:00", "updated_at": "2025-09-03T08:17:02.841-04:00", "avatar": "https://secure.gravatar.com/avatar/47870b303bbd55f32297f78877dcc416.jpg?s=512&d=https%3A%2F%2Fa.slack-edge.com%2Fdf10d%2Fimg%2Favatars%2Fava_0004-512.png", "custom_css": null}, {"id": 22973, "slack_id": "U09D5CJPT5K", "display_name": "Rishi Swamy", "bio": null, "projects_count": 0, "devlogs_count": 0, "votes_count": 0, "ships_count": 0, "projects": [], "coding_time_seconds": 0, "coding_time_seconds_today": 0, "balance": "You need to have a pocket watcher badge to view this.", "badges": [], "created_at": "2025-09-02T20:27:34.267-04:00", "updated_at": "2025-09-09T22:01:00.767-04:00", "avatar": "https://avatars.slack-edge.com/2025-09-02/9476850097232_a828a1025685ac440798_original.jpg", "custom_css": null}, {"id": 22974, "slack_id": "U09D7DDSNRL", "display_name": "saad", "bio": null, "projects_count": 0, "devlogs_count": 0, "votes_count": 0, "ships_count": 0, "projects": [], "coding_time_seconds": 114460, "coding_time_seconds_today": 1681, "balance": "You need to have a pocket watcher badge to view this.", "badges": [], "created_at": "2025-09-02T20:39:19.108-04:00", "updated_at": "2025-09-03T04:04:33.495-04:00", "avatar": "https://secure.gravatar.com/avatar/21d67f1437fa4a5bc3440b7a24bfa227.jpg?s=512&d=https%3A%2F%2Fa.slack-edge.com%2Fdf10d%2Fimg%2Favatars%2Fava_0021-512.png", "custom_css": null}, {"id": 22975, "slack_id": "U09D32EK1L3", "display_name": "anhhd", "bio": null, "projects_count": 0, "devlogs_count": 0, "votes_count": 0, "ships_count": 0, "projects": [], "coding_time_seconds": 0, "coding_time_seconds_today": 0, "balance": "You need to have a pocket watcher badge to view this.", "badges": [], "created_at": "2025-09-02T20:47:31.458-04:00", "updated_at": "2025-09-03T04:04:33.630-04:00", "avatar": "https://avatars.slack-edge.com/2025-09-03/9449558613506_d556e509d32442f14feb_original.png", "custom_css": null}, {"id": 22976, "slack_id": "U09D7F6GC2E", "display_name": "crude", "bio": null, "projects_count": 0, "devlogs_count": 0, "votes_count": 0, "ships_count": 0, "projects": [], "coding_time_seconds": 321, "coding_time_seconds_today": 0, "balance": "You need to have a pocket watcher badge to view this.", "badges": [], "created_at": "2025-09-02T20:57:09.660-04:00", "updated_at": "2025-09-03T04:04:33.740-04:00", "avatar": "https://secure.gravatar.com/avatar/9ae6517a703eab681bb67477f29004f8.jpg?s=512&d=https%3A%2F%2Fa.slack-edge.com%2Fdf10d%2Fimg%2Favatars%2Fava_0017-512.png", "custom_css": null}, {"id": 22977, "slack_id": "U09DC0470QL", "display_name": "ny64", "bio": null, "projects_count": 0, "devlogs_count": 0, "votes_count": 0, "ships_count": 0, "projects": [], "coding_time_seconds": 0, "coding_time_seconds_today": 0, "balance": "You need to have a pocket watcher badge to view this.", "badges": [], "created_at": "2025-09-02T21:18:56.109-04:00", "updated_at": "2025-09-06T12:30:03.997-04:00", "avatar": "https://secure.gravatar.com/avatar/7e15cdbc0ca22c763442dd1999b8efbf.jpg?s=512&d=https%3A%2F%2Fa.slack-edge.com%2Fdf10d%2Fimg%2Favatars%2Fava_0021-512.png", "custom_css": null}, {"id": 22978, "slack_id": "U09E132V7J4", "display_name": "himi", "bio": null, "projects_count": 0, "devlogs_count": 0, "votes_count": 0, "ships_count": 0, "projects": [], "coding_time_seconds": 0, "coding_time_seconds_today": 0, "balance": "You need to have a pocket watcher badge to view this.", "badges": [], "created_at": "2025-09-02T21:51:36.701-04:00", "updated_at": "2025-09-03T04:04:34.026-04:00", "avatar": "https://secure.gravatar.com/avatar/363b09fc2eb47176bb2ab1ebaf4a09b9.jpg?s=512&d=https%3A%2F%2Fa.slack-edge.com%2Fdf10d%2Fimg%2Favatars%2Fava_0016-512.png", "custom_css": null}, {"id": 22979, "slack_id": "U09DMKP6T09", "display_name": "hritvik", "bio": null, "projects_count": 0, "devlogs_count": 0, "votes_count": 0, "ships_count": 0, "projects": [], "coding_time_seconds": 0, "coding_time_seconds_today": 0, "balance": "You need to have a pocket watcher badge to view this.", "badges": [], "created_at": "2025-09-02T21:56:03.694-04:00", "updated_at": "2025-09-04T13:57:43.812-04:00", "avatar": "https://secure.gravatar.com/avatar/8ddce59cb6442e772686a7c6201f806e.jpg?s=512&d=https%3A%2F%2Fa.slack-edge.com%2Fdf10d%2Fimg%2Favatars%2Fava_0024-512.png", "custom_css": null}, {"id": 22980, "slack_id": "U09D8LF312S", "display_name": "Betzy Salinas Reyna", "bio": null, "projects_count": 0, "devlogs_count": 0, "votes_count": 0, "ships_count": 0, "projects": [], "coding_time_seconds": 0, "coding_time_seconds_today": 0, "balance": "You need to have a pocket watcher badge to view this.", "badges": [], "created_at": "2025-09-02T22:00:59.191-04:00", "updated_at": "2025-09-06T22:18:32.701-04:00", "avatar": "https://avatars.slack-edge.com/2025-09-02/9449770110754_1b40dfda0aa48f6233b3_original.png", "custom_css": null}, {"id": 22981, "slack_id": "U09E1CM8UF2", "display_name": "Utheya Nithi", "bio": null, "projects_count": 0, "devlogs_count": 0, "votes_count": 0, "ships_count": 0, "projects": [], "coding_time_seconds": 0, "coding_time_seconds_today": 0, "balance": "You need to have a pocket watcher badge to view this.", "badges": [], "created_at": "2025-09-02T23:33:09.756-04:00", "updated_at": "2025-09-03T04:04:38.546-04:00", "avatar": "https://avatars.slack-edge.com/2025-09-02/9435946036791_a18d22c9008b22330984_original.jpg", "custom_css": null}, {"id": 22982, "slack_id": "U09DZ9WK3LY", "display_name": "yash", "bio": null, "projects_count": 0, "devlogs_count": 0, "votes_count": 0, "ships_count": 0, "projects": [], "coding_time_seconds": 0, "coding_time_seconds_today": 0, "balance": "You need to have a pocket watcher badge to view this.", "badges": [], "created_at": "2025-09-03T00:15:32.293-04:00", "updated_at": "2025-09-03T04:04:38.648-04:00", "avatar": "https://secure.gravatar.com/avatar/862a3bbb74f88baee11035fe785bd4c7.jpg?s=512&d=https%3A%2F%2Fa.slack-edge.com%2Fdf10d%2Fimg%2Favatars%2Fava_0011-512.png", "custom_css": null}, {"id": 22983, "slack_id": "U09DCH0D8CU", "display_name": "Sebin Mathew", "bio": null, "projects_count": 0, "devlogs_count": 0, "votes_count": 0, "ships_count": 0, "projects": [], "coding_time_seconds": 1922, "coding_time_seconds_today": 0, "balance": "You need to have a pocket watcher badge to view this.", "badges": [], "created_at": "2025-09-03T00:20:07.072-04:00", "updated_at": "2025-09-05T08:06:04.022-04:00", "avatar": "https://avatars.slack-edge.com/2025-09-02/9445777577971_76076b452d9a86568e3f_original.png", "custom_css": null}, {"id": 22984, "slack_id": "U09D3RRBSNP", "display_name": "Maithil", "bio": null, "projects_count": 0, "devlogs_count": 0, "votes_count": 0, "ships_count": 0, "projects": [], "coding_time_seconds": 26058, "coding_time_seconds_today": 0, "balance": "You need to have a pocket watcher badge to view this.", "badges": [], "created_at": "2025-09-03T00:55:17.075-04:00", "updated_at": "2025-09-13T07:17:08.432-04:00", "avatar": "https://secure.gravatar.com/avatar/3fabf09087db3aba78a2fcca2916a120.jpg?s=512&d=https%3A%2F%2Fa.slack-edge.com%2Fdf10d%2Fimg%2Favatars%2Fava_0010-512.png", "custom_css": null}, {"id": 22985, "slack_id": "U09D3SYQQ3D", "display_name": "Manognya Kumar", "bio": null, "projects_count": 0, "devlogs_count": 0, "votes_count": 0, "ships_count": 0, "projects": [], "coding_time_seconds": 0, "coding_time_seconds_today": 0, "balance": "You need to have a pocket watcher badge to view this.", "badges": [], "created_at": "2025-09-03T01:04:37.091-04:00", "updated_at": "2025-09-03T04:04:39.001-04:00", "avatar": "https://secure.gravatar.com/avatar/004eaaa41b851929d8891196d6303eba.jpg?s=512&d=https%3A%2F%2Fa.slack-edge.com%2Fdf10d%2Fimg%2Favatars%2Fava_0010-512.png", "custom_css": null}], "pagination": {"page": 1145, "pages": 1192, "count": 23828, "items": 20}}