{"users": [{"id": 23006, "slack_id": "U09E43F3J00", "display_name": "Loy", "bio": null, "projects_count": 0, "devlogs_count": 0, "votes_count": 0, "ships_count": 0, "projects": [], "coding_time_seconds": 0, "coding_time_seconds_today": 0, "balance": "You need to have a pocket watcher badge to view this.", "badges": [], "created_at": "2025-09-03T09:20:09.549-04:00", "updated_at": "2025-09-03T12:07:57.242-04:00", "avatar": "https://avatars.slack-edge.com/2025-09-03/9450731256421_80200706ac118809ea4a_original.png", "custom_css": null}, {"id": 23007, "slack_id": "U09E44KA1FS", "display_name": "Dodobear", "bio": null, "projects_count": 0, "devlogs_count": 0, "votes_count": 0, "ships_count": 0, "projects": [], "coding_time_seconds": 0, "coding_time_seconds_today": 0, "balance": "You need to have a pocket watcher badge to view this.", "badges": [], "created_at": "2025-09-03T09:25:27.184-04:00", "updated_at": "2025-09-03T10:04:46.656-04:00", "avatar": "https://avatars.slack-edge.com/2025-09-03/9453045178306_f4ef33bfc5af2cf6b2ba_original.jpg", "custom_css": null}, {"id": 23008, "slack_id": "U09DR6FHEQH", "display_name": "Ashish", "bio": null, "projects_count": 0, "devlogs_count": 0, "votes_count": 0, "ships_count": 0, "projects": [], "coding_time_seconds": 42542, "coding_time_seconds_today": 0, "balance": "You need to have a pocket watcher badge to view this.", "badges": [], "created_at": "2025-09-03T09:51:04.876-04:00", "updated_at": "2025-09-03T22:04:06.436-04:00", "avatar": "https://secure.gravatar.com/avatar/769c5fdbc6828530fcc76e9726104b37.jpg?s=512&d=https%3A%2F%2Fa.slack-edge.com%2Fdf10d%2Fimg%2Favatars%2Fava_0021-512.png", "custom_css": null}, {"id": 23009, "slack_id": "U09D6NP7TDZ", "display_name": "samliu (alt wefhcdddw)", "bio": null, "projects_count": 1, "devlogs_count": 1, "votes_count": 1, "ships_count": 1, "projects": [{"id": 12824, "title": "Summer of Making Test", "devlogs_count": 1, "created_at": "2025-09-03T10:07:16.784-04:00"}], "coding_time_seconds": 1420, "coding_time_seconds_today": 0, "balance": "You need to have a pocket watcher badge to view this.", "badges": [], "created_at": "2025-09-03T10:01:36.993-04:00", "updated_at": "2025-09-03T22:04:06.870-04:00", "avatar": "https://secure.gravatar.com/avatar/06ca4d033f96ef67a1a43c496ae64ee7.jpg?s=512&d=https%3A%2F%2Fa.slack-edge.com%2Fdf10d%2Fimg%2Favatars%2Fava_0011-512.png", "custom_css": null}, {"id": 23010, "slack_id": "U09DRK5SFPT", "display_name": "samliu (alt egdc)", "bio": null, "projects_count": 1, "devlogs_count": 1, "votes_count": 0, "ships_count": 1, "projects": [{"id": 12827, "title": "Summer of Making", "devlogs_count": 1, "created_at": "2025-09-03T10:52:57.674-04:00"}], "coding_time_seconds": 383, "coding_time_seconds_today": 0, "balance": "You need to have a pocket watcher badge to view this.", "badges": [], "created_at": "2025-09-03T10:48:42.572-04:00", "updated_at": "2025-09-03T22:04:07.159-04:00", "avatar": "https://secure.gravatar.com/avatar/b3b895e635b7fbd467dc11ac0e7d914c.jpg?s=512&d=https%3A%2F%2Fa.slack-edge.com%2Fdf10d%2Fimg%2Favatars%2Fava_0007-512.png", "custom_css": null}, {"id": 23011, "slack_id": "U09DFU0A336", "display_name": "Wojo", "bio": null, "projects_count": 0, "devlogs_count": 0, "votes_count": 0, "ships_count": 0, "projects": [], "coding_time_seconds": 0, "coding_time_seconds_today": 0, "balance": "You need to have a pocket watcher badge to view this.", "badges": [], "created_at": "2025-09-03T10:57:51.882-04:00", "updated_at": "2025-09-03T22:04:07.396-04:00", "avatar": "https://secure.gravatar.com/avatar/b857f9f25994860088a3b18ea5b4ebc1.jpg?s=512&d=https%3A%2F%2Fa.slack-edge.com%2Fdf10d%2Fimg%2Favatars%2Fava_0019-512.png", "custom_css": null}, {"id": 23012, "slack_id": "U09DBNZV118", "display_name": "Mohamed Mahmoud", "bio": null, "projects_count": 0, "devlogs_count": 0, "votes_count": 1, "ships_count": 0, "projects": [], "coding_time_seconds": 2076, "coding_time_seconds_today": 0, "balance": "You need to have a pocket watcher badge to view this.", "badges": [], "created_at": "2025-09-03T11:09:26.419-04:00", "updated_at": "2025-09-03T22:04:07.637-04:00", "avatar": "https://avatars.slack-edge.com/2025-09-03/9467833970065_8404748a7f9bf9e7dc65_original.png", "custom_css": null}, {"id": 23013, "slack_id": "U09DBRPM6CA", "display_name": "Caleb Rubio", "bio": null, "projects_count": 0, "devlogs_count": 0, "votes_count": 0, "ships_count": 0, "projects": [], "coding_time_seconds": 0, "coding_time_seconds_today": 0, "balance": "You need to have a pocket watcher badge to view this.", "badges": [], "created_at": "2025-09-03T11:21:06.619-04:00", "updated_at": "2025-09-03T22:04:07.746-04:00", "avatar": "https://avatars.slack-edge.com/2025-09-03/9453923106946_c373785be21091d902af_original.png", "custom_css": null}, {"id": 23014, "slack_id": "U09DC1N25KL", "display_name": "Meich\u014d", "bio": null, "projects_count": 0, "devlogs_count": 0, "votes_count": 0, "ships_count": 0, "projects": [], "coding_time_seconds": 0, "coding_time_seconds_today": 0, "balance": "You need to have a pocket watcher badge to view this.", "badges": [], "created_at": "2025-09-03T11:41:08.404-04:00", "updated_at": "2025-09-03T22:04:07.863-04:00", "avatar": "https://secure.gravatar.com/avatar/63fe3f780d8e1277d73a587287c8adae.jpg?s=512&d=https%3A%2F%2Fa.slack-edge.com%2Fdf10d%2Fimg%2Favatars%2Fava_0010-512.png", "custom_css": null}, {"id": 23015, "slack_id": "U09D9P1CDT7", "display_name": "Ubarry official", "bio": null, "projects_count": 1, "devlogs_count": 0, "votes_count": 0, "ships_count": 0, "projects": [{"id": 12832, "title": "AI Expenses tracker", "devlogs_count": 0, "created_at": "2025-09-03T12:53:41.462-04:00"}], "coding_time_seconds": 28, "coding_time_seconds_today": 0, "balance": "You need to have a pocket watcher badge to view this.", "badges": [], "created_at": "2025-09-03T11:52:57.239-04:00", "updated_at": "2025-09-12T08:15:46.273-04:00", "avatar": "https://avatars.slack-edge.com/2025-09-03/9481237653728_b772f41990c7124d494b_original.jpg", "custom_css": null}, {"id": 23016, "slack_id": "U09E59KLP88", "display_name": "A.H hmaidi", "bio": null, "projects_count": 0, "devlogs_count": 0, "votes_count": 0, "ships_count": 0, "projects": [], "coding_time_seconds": 0, "coding_time_seconds_today": 0, "balance": "You need to have a pocket watcher badge to view this.", "badges": [], "created_at": "2025-09-03T12:07:58.221-04:00", "updated_at": "2025-09-03T22:04:12.307-04:00", "avatar": "https://avatars.slack-edge.com/2025-09-03/9455334048854_d5aa1a8d58b3605bf20c_original.png", "custom_css": null}, {"id": 23017, "slack_id": "U09CXSJTBC7", "display_name": "Kaushal Pratury", "bio": null, "projects_count": 0, "devlogs_count": 0, "votes_count": 0, "ships_count": 0, "projects": [], "coding_time_seconds": 0, "coding_time_seconds_today": 0, "balance": "You need to have a pocket watcher badge to view this.", "badges": [], "created_at": "2025-09-03T12:11:45.602-04:00", "updated_at": "2025-09-03T22:04:12.617-04:00", "avatar": "https://secure.gravatar.com/avatar/eecd910bc47668dfb4a72112723fa46b.jpg?s=512&d=https%3A%2F%2Fa.slack-edge.com%2Fdf10d%2Fimg%2Favatars%2Fava_0021-512.png", "custom_css": null}, {"id": 23018, "slack_id": "U09E5K4S8V6", "display_name": "Aanya Agha", "bio": null, "projects_count": 1, "devlogs_count": 0, "votes_count": 0, "ships_count": 0, "projects": [{"id": 12955, "title": "Rush", "devlogs_count": 0, "created_at": "2025-09-06T05:40:25.640-04:00"}], "coding_time_seconds": 27598, "coding_time_seconds_today": 0, "balance": "You need to have a pocket watcher badge to view this.", "badges": [], "created_at": "2025-09-03T12:56:40.133-04:00", "updated_at": "2025-09-06T03:51:30.405-04:00", "avatar": "https://avatars.slack-edge.com/2025-09-03/9458809655876_6cd45a54fc026a726ae6_original.png", "custom_css": null}, {"id": 23019, "slack_id": "U09DGSY4U0L", "display_name": "janaranjani", "bio": null, "projects_count": 0, "devlogs_count": 0, "votes_count": 0, "ships_count": 0, "projects": [], "coding_time_seconds": 0, "coding_time_seconds_today": 0, "balance": "You need to have a pocket watcher badge to view this.", "badges": [], "created_at": "2025-09-03T13:18:54.584-04:00", "updated_at": "2025-09-03T22:04:13.011-04:00", "avatar": "https://secure.gravatar.com/avatar/e7610fad43af559c4bb8bfdabb9df35e.jpg?s=512&d=https%3A%2F%2Fa.slack-edge.com%2Fdf10d%2Fimg%2Favatars%2Fava_0022-512.png", "custom_css": null}, {"id": 23020, "slack_id": "U09DE1KNCQ6", "display_name": "Aryan", "bio": null, "projects_count": 2, "devlogs_count": 1, "votes_count": 0, "ships_count": 0, "projects": [{"id": 12847, "title": "FLOODWATCH - a flood alerts app", "devlogs_count": 1, "created_at": "2025-09-03T14:39:48.111-04:00"}, {"id": 12850, "title": "FLOODWATCH - a flood alerts app", "devlogs_count": 0, "created_at": "2025-09-03T14:49:24.418-04:00"}], "coding_time_seconds": 70187, "coding_time_seconds_today": 0, "balance": "You need to have a pocket watcher badge to view this.", "badges": [], "created_at": "2025-09-03T13:59:53.132-04:00", "updated_at": "2025-09-04T16:16:00.328-04:00", "avatar": "https://avatars.slack-edge.com/2025-09-03/9455027260434_144f13ecfe8e7af4c4eb_original.jpg", "custom_css": null}, {"id": 23021, "slack_id": "U09DE9F794N", "display_name": "Rana Sakr", "bio": null, "projects_count": 0, "devlogs_count": 0, "votes_count": 0, "ships_count": 0, "projects": [], "coding_time_seconds": 0, "coding_time_seconds_today": 0, "balance": "You need to have a pocket watcher badge to view this.", "badges": [], "created_at": "2025-09-03T14:41:38.574-04:00", "updated_at": "2025-09-03T22:04:17.632-04:00", "avatar": "https://avatars.slack-edge.com/2025-09-03/9469275376897_9875290f4a07c8bb7d3f_original.jpg", "custom_css": null}, {"id": 23022, "slack_id": "U09DATRF1MK", "display_name": "Fabri", "bio": null, "projects_count": 0, "devlogs_count": 0, "votes_count": 0, "ships_count": 0, "projects": [], "coding_time_seconds": 0, "coding_time_seconds_today": 0, "balance": "You need to have a pocket watcher badge to view this.", "badges": [], "created_at": "2025-09-03T14:53:26.448-04:00", "updated_at": "2025-09-03T22:04:17.819-04:00", "avatar": "https://secure.gravatar.com/avatar/584d9eb16e4ed25764aba5ecedddce96.jpg?s=512&d=https%3A%2F%2Fa.slack-edge.com%2Fdf10d%2Fimg%2Favatars%2Fava_0002-512.png", "custom_css": null}, {"id": 23023, "slack_id": "U09DTBJ2725", "display_name": "Flame", "bio": null, "projects_count": 0, "devlogs_count": 0, "votes_count": 0, "ships_count": 0, "projects": [], "coding_time_seconds": 0, "coding_time_seconds_today": 0, "balance": "You need to have a pocket watcher badge to view this.", "badges": [], "created_at": "2025-09-03T15:04:25.378-04:00", "updated_at": "2025-09-03T22:04:18.075-04:00", "avatar": "https://secure.gravatar.com/avatar/c39cbdabec25c2d86603f242da8ed154.jpg?s=512&d=https%3A%2F%2Fa.slack-edge.com%2Fdf10d%2Fimg%2Favatars%2Fava_0013-512.png", "custom_css": null}, {"id": 23024, "slack_id": "U09DEF23Q7Q", "display_name": "Edward L", "bio": null, "projects_count": 0, "devlogs_count": 0, "votes_count": 0, "ships_count": 0, "projects": [], "coding_time_seconds": 0, "coding_time_seconds_today": 0, "balance": "You need to have a pocket watcher badge to view this.", "badges": [], "created_at": "2025-09-03T15:13:01.202-04:00", "updated_at": "2025-09-03T22:04:18.326-04:00", "avatar": "https://secure.gravatar.com/avatar/931eaedd19e39f2cc2b6606e28c5f565.jpg?s=512&d=https%3A%2F%2Fa.slack-edge.com%2Fdf10d%2Fimg%2Favatars%2Fava_0010-512.png", "custom_css": null}, {"id": 23025, "slack_id": "U08JSA8861E", "display_name": "Adit Gupta", "bio": null, "projects_count": 0, "devlogs_count": 0, "votes_count": 0, "ships_count": 0, "projects": [], "coding_time_seconds": 0, "coding_time_seconds_today": 0, "balance": "You need to have a pocket watcher badge to view this.", "badges": [], "created_at": "2025-09-03T16:11:55.698-04:00", "updated_at": "2025-09-03T22:04:18.528-04:00", "avatar": "https://secure.gravatar.com/avatar/85318eee681f3c4d2ae2d3bbf59d69a6.jpg?s=512&d=https%3A%2F%2Fa.slack-edge.com%2Fdf10d%2Fimg%2Favatars%2Fava_0002-512.png", "custom_css": null}], "pagination": {"page": 1147, "pages": 1192, "count": 23828, "items": 20}}