{"users": [{"id": 23026, "slack_id": "U09DBFC6C69", "display_name": "Kenny", "bio": "Hi \r\nI try to make games", "projects_count": 0, "devlogs_count": 0, "votes_count": 0, "ships_count": 0, "projects": [], "coding_time_seconds": 830, "coding_time_seconds_today": 0, "balance": "You need to have a pocket watcher badge to view this.", "badges": [], "created_at": "2025-09-03T16:37:28.197-04:00", "updated_at": "2025-09-03T22:04:18.660-04:00", "avatar": "https://secure.gravatar.com/avatar/917a380e46b99f34786d1d694565c983.jpg?s=512&d=https%3A%2F%2Fa.slack-edge.com%2Fdf10d%2Fimg%2Favatars%2Fava_0024-512.png", "custom_css": null}, {"id": 23027, "slack_id": "U09DF0QG18E", "display_name": "Danny", "bio": null, "projects_count": 0, "devlogs_count": 0, "votes_count": 0, "ships_count": 0, "projects": [], "coding_time_seconds": 0, "coding_time_seconds_today": 0, "balance": "You need to have a pocket watcher badge to view this.", "badges": [], "created_at": "2025-09-03T16:37:52.608-04:00", "updated_at": "2025-09-04T01:00:05.179-04:00", "avatar": "https://secure.gravatar.com/avatar/2950a574af29479043d0e9d3ac4ec6c3.jpg?s=512&d=https%3A%2F%2Fa.slack-edge.com%2Fdf10d%2Fimg%2Favatars%2Fava_0021-512.png", "custom_css": null}, {"id": 23028, "slack_id": "U09DTUPJXNV", "display_name": "Maisie Mikoluk", "bio": null, "projects_count": 0, "devlogs_count": 0, "votes_count": 0, "ships_count": 0, "projects": [], "coding_time_seconds": 0, "coding_time_seconds_today": 0, "balance": "You need to have a pocket watcher badge to view this.", "badges": [], "created_at": "2025-09-03T16:46:02.068-04:00", "updated_at": "2025-09-03T22:04:18.895-04:00", "avatar": "https://secure.gravatar.com/avatar/d140a04ba13884374fda0f084ade65c8.jpg?s=512&d=https%3A%2F%2Fa.slack-edge.com%2Fdf10d%2Fimg%2Favatars%2Fava_0016-512.png", "custom_css": null}, {"id": 23029, "slack_id": "U0992BEJZ9A", "display_name": "Ammar", "bio": null, "projects_count": 0, "devlogs_count": 0, "votes_count": 0, "ships_count": 0, "projects": [], "coding_time_seconds": 0, "coding_time_seconds_today": 0, "balance": "You need to have a pocket watcher badge to view this.", "badges": [], "created_at": "2025-09-03T16:55:07.778-04:00", "updated_at": "2025-09-03T22:04:19.040-04:00", "avatar": "https://secure.gravatar.com/avatar/8e1014be08494ccea872e51f1c071700.jpg?s=512&d=https%3A%2F%2Fa.slack-edge.com%2Fdf10d%2Fimg%2Favatars%2Fava_0016-512.png", "custom_css": null}, {"id": 23030, "slack_id": "U09DU11GGDP", "display_name": "Manish Shahu", "bio": null, "projects_count": 0, "devlogs_count": 0, "votes_count": 0, "ships_count": 0, "projects": [], "coding_time_seconds": 0, "coding_time_seconds_today": 0, "balance": "You need to have a pocket watcher badge to view this.", "badges": [], "created_at": "2025-09-03T16:59:35.973-04:00", "updated_at": "2025-09-03T22:04:19.178-04:00", "avatar": "https://secure.gravatar.com/avatar/d6a7ac425edeb066fb5dd4897699089b.jpg?s=512&d=https%3A%2F%2Fa.slack-edge.com%2Fdf10d%2Fimg%2Favatars%2Fava_0026-512.png", "custom_css": null}, {"id": 23031, "slack_id": "U09CZMYQE6T", "display_name": "Sathya Sunkara", "bio": null, "projects_count": 0, "devlogs_count": 0, "votes_count": 0, "ships_count": 0, "projects": [], "coding_time_seconds": 0, "coding_time_seconds_today": 0, "balance": "You need to have a pocket watcher badge to view this.", "badges": [], "created_at": "2025-09-03T17:19:23.245-04:00", "updated_at": "2025-09-03T22:04:19.390-04:00", "avatar": "https://secure.gravatar.com/avatar/305a3bdd661065e41590db41de0fb3a6.jpg?s=512&d=https%3A%2F%2Fa.slack-edge.com%2Fdf10d%2Fimg%2Favatars%2Fava_0008-512.png", "custom_css": null}, {"id": 23032, "slack_id": "U09DE4B85EW", "display_name": "Varshi Ram", "bio": null, "projects_count": 0, "devlogs_count": 0, "votes_count": 0, "ships_count": 0, "projects": [], "coding_time_seconds": 0, "coding_time_seconds_today": 0, "balance": "You need to have a pocket watcher badge to view this.", "badges": [], "created_at": "2025-09-03T17:23:43.502-04:00", "updated_at": "2025-09-03T22:04:19.475-04:00", "avatar": "https://secure.gravatar.com/avatar/b6c05c9441f12ae4e6cfcf61e2b2ac91.jpg?s=512&d=https%3A%2F%2Fa.slack-edge.com%2Fdf10d%2Fimg%2Favatars%2Fava_0000-512.png", "custom_css": null}, {"id": 23033, "slack_id": "U09CZU6R7B9", "display_name": "Serena Herrera", "bio": null, "projects_count": 0, "devlogs_count": 0, "votes_count": 0, "ships_count": 0, "projects": [], "coding_time_seconds": 0, "coding_time_seconds_today": 0, "balance": "You need to have a pocket watcher badge to view this.", "badges": [], "created_at": "2025-09-03T18:06:38.829-04:00", "updated_at": "2025-09-03T22:04:19.566-04:00", "avatar": "https://secure.gravatar.com/avatar/3a90c060578ecf8489fe98f3744efe13.jpg?s=512&d=https%3A%2F%2Fa.slack-edge.com%2Fdf10d%2Fimg%2Favatars%2Fava_0025-512.png", "custom_css": null}, {"id": 23034, "slack_id": "U09DUCR6S8Z", "display_name": "Shivam Maurya", "bio": null, "projects_count": 0, "devlogs_count": 0, "votes_count": 0, "ships_count": 0, "projects": [], "coding_time_seconds": 0, "coding_time_seconds_today": 0, "balance": "You need to have a pocket watcher badge to view this.", "badges": [], "created_at": "2025-09-03T18:23:13.587-04:00", "updated_at": "2025-09-03T22:04:19.668-04:00", "avatar": "https://avatars.slack-edge.com/2025-09-03/9452036641987_25f39a712f11b65f94e1_original.jpg", "custom_css": null}, {"id": 23035, "slack_id": "U09DSNH6BNV", "display_name": "VeryCoolBugatti", "bio": null, "projects_count": 0, "devlogs_count": 0, "votes_count": 0, "ships_count": 0, "projects": [], "coding_time_seconds": 0, "coding_time_seconds_today": 0, "balance": "You need to have a pocket watcher badge to view this.", "badges": [], "created_at": "2025-09-03T18:27:54.649-04:00", "updated_at": "2025-09-03T22:04:23.934-04:00", "avatar": "https://secure.gravatar.com/avatar/73ebc2a6af2a89783ad7dad318535d0e.jpg?s=512&d=https%3A%2F%2Fa.slack-edge.com%2Fdf10d%2Fimg%2Favatars%2Fava_0020-512.png", "custom_css": null}, {"id": 23036, "slack_id": "U09E7EZ643S", "display_name": "Saksham Tripathi", "bio": null, "projects_count": 0, "devlogs_count": 0, "votes_count": 0, "ships_count": 0, "projects": [], "coding_time_seconds": 0, "coding_time_seconds_today": 0, "balance": "You need to have a pocket watcher badge to view this.", "badges": [], "created_at": "2025-09-03T18:44:59.341-04:00", "updated_at": "2025-09-03T22:04:24.170-04:00", "avatar": "https://secure.gravatar.com/avatar/9b50bf5e050223f8fec3315bf9e41101.jpg?s=512&d=https%3A%2F%2Fa.slack-edge.com%2Fdf10d%2Fimg%2Favatars%2Fava_0012-512.png", "custom_css": null}, {"id": 23037, "slack_id": "U09DFKSMLTG", "display_name": "Rocco Scarcella", "bio": null, "projects_count": 0, "devlogs_count": 0, "votes_count": 0, "ships_count": 0, "projects": [], "coding_time_seconds": 0, "coding_time_seconds_today": 0, "balance": "You need to have a pocket watcher badge to view this.", "badges": [], "created_at": "2025-09-03T19:02:25.275-04:00", "updated_at": "2025-09-03T22:04:24.278-04:00", "avatar": "https://secure.gravatar.com/avatar/a2dbb0be24d94dfce3e96af7cb6d4683.jpg?s=512&d=https%3A%2F%2Fa.slack-edge.com%2Fdf10d%2Fimg%2Favatars%2Fava_0021-512.png", "custom_css": null}, {"id": 23038, "slack_id": "U09DC584M7X", "display_name": "Aiden Young", "bio": null, "projects_count": 0, "devlogs_count": 0, "votes_count": 0, "ships_count": 0, "projects": [], "coding_time_seconds": 0, "coding_time_seconds_today": 0, "balance": "You need to have a pocket watcher badge to view this.", "badges": [], "created_at": "2025-09-03T19:12:54.397-04:00", "updated_at": "2025-09-03T22:04:24.399-04:00", "avatar": "https://secure.gravatar.com/avatar/1784bc5618ff79e08e88c6be364a77f8.jpg?s=512&d=https%3A%2F%2Fa.slack-edge.com%2Fdf10d%2Fimg%2Favatars%2Fava_0021-512.png", "custom_css": null}, {"id": 23039, "slack_id": "U09DC667A9K", "display_name": "bond", "bio": null, "projects_count": 0, "devlogs_count": 0, "votes_count": 0, "ships_count": 0, "projects": [], "coding_time_seconds": 0, "coding_time_seconds_today": 0, "balance": "You need to have a pocket watcher badge to view this.", "badges": [], "created_at": "2025-09-03T19:28:27.647-04:00", "updated_at": "2025-09-03T22:04:24.537-04:00", "avatar": "https://secure.gravatar.com/avatar/6a329ee8ed891574eaa808b31952b1bc.jpg?s=512&d=https%3A%2F%2Fa.slack-edge.com%2Fdf10d%2Fimg%2Favatars%2Fava_0006-512.png", "custom_css": null}, {"id": 23040, "slack_id": "U09DA7FQCHZ", "display_name": "Saheed Dela crus", "bio": null, "projects_count": 0, "devlogs_count": 0, "votes_count": 0, "ships_count": 0, "projects": [], "coding_time_seconds": 0, "coding_time_seconds_today": 0, "balance": "You need to have a pocket watcher badge to view this.", "badges": [], "created_at": "2025-09-03T19:29:49.092-04:00", "updated_at": "2025-09-03T22:04:24.651-04:00", "avatar": "https://secure.gravatar.com/avatar/87b388deb8f0ff6759c17d63386cc102.jpg?s=512&d=https%3A%2F%2Fa.slack-edge.com%2Fdf10d%2Fimg%2Favatars%2Fava_0008-512.png", "custom_css": null}, {"id": 23041, "slack_id": "U07KKHT7HU1", "display_name": "BlahajFromIkea", "bio": null, "projects_count": 0, "devlogs_count": 0, "votes_count": 0, "ships_count": 0, "projects": [], "coding_time_seconds": 0, "coding_time_seconds_today": 0, "balance": "You need to have a pocket watcher badge to view this.", "badges": [], "created_at": "2025-09-03T19:38:12.900-04:00", "updated_at": "2025-09-03T19:38:22.371-04:00", "avatar": "https://avatars.slack-edge.com/2024-08-30/7658370316322_29c979a22ef58a44f7c4_original.png", "custom_css": null}, {"id": 23042, "slack_id": "U09DEKJMTU2", "display_name": "andrew", "bio": null, "projects_count": 0, "devlogs_count": 0, "votes_count": 0, "ships_count": 0, "projects": [], "coding_time_seconds": 0, "coding_time_seconds_today": 0, "balance": "You need to have a pocket watcher badge to view this.", "badges": [], "created_at": "2025-09-03T19:41:11.394-04:00", "updated_at": "2025-09-03T22:04:31.239-04:00", "avatar": "https://secure.gravatar.com/avatar/dd33c9f5008b15b85bf195a36063861e.jpg?s=512&d=https%3A%2F%2Fa.slack-edge.com%2Fdf10d%2Fimg%2Favatars%2Fava_0021-512.png", "custom_css": null}, {"id": 23043, "slack_id": "U09BNNE2YD8", "display_name": "Andrew Yang", "bio": null, "projects_count": 0, "devlogs_count": 0, "votes_count": 0, "ships_count": 0, "projects": [], "coding_time_seconds": 0, "coding_time_seconds_today": 0, "balance": "You need to have a pocket watcher badge to view this.", "badges": [], "created_at": "2025-09-03T19:42:30.436-04:00", "updated_at": "2025-09-03T22:04:31.682-04:00", "avatar": "https://secure.gravatar.com/avatar/969fc901984193a002ef6e44f30c7462.jpg?s=512&d=https%3A%2F%2Fa.slack-edge.com%2Fdf10d%2Fimg%2Favatars%2Fava_0010-512.png", "custom_css": null}, {"id": 23044, "slack_id": "U07RMCDR2SY", "display_name": "X-tower", "bio": null, "projects_count": 1, "devlogs_count": 4, "votes_count": 0, "ships_count": 0, "projects": [{"id": 12862, "title": "WebUI Launcher", "devlogs_count": 4, "created_at": "2025-09-03T21:26:43.088-04:00"}], "coding_time_seconds": 25799, "coding_time_seconds_today": 3049, "balance": "You need to have a pocket watcher badge to view this.", "badges": [], "created_at": "2025-09-03T20:35:53.310-04:00", "updated_at": "2025-09-04T15:30:02.773-04:00", "avatar": "https://avatars.slack-edge.com/2024-10-12/7882680916145_c314c336ace43c70daab_original.jpg", "custom_css": null}, {"id": 23045, "slack_id": "U09E85H4588", "display_name": "Levi McDonald", "bio": null, "projects_count": 0, "devlogs_count": 0, "votes_count": 0, "ships_count": 0, "projects": [], "coding_time_seconds": 0, "coding_time_seconds_today": 0, "balance": "You need to have a pocket watcher badge to view this.", "badges": [], "created_at": "2025-09-03T22:01:45.855-04:00", "updated_at": "2025-09-04T04:04:03.854-04:00", "avatar": "https://secure.gravatar.com/avatar/a1ba78092976e2bd66845b4f29ad160d.jpg?s=512&d=https%3A%2F%2Fa.slack-edge.com%2Fdf10d%2Fimg%2Favatars%2Fava_0016-512.png", "custom_css": null}], "pagination": {"page": 1148, "pages": 1192, "count": 23828, "items": 20}}