{"users": [{"id": 23046, "slack_id": "U09DV8JEFCZ", "display_name": "Emma He", "bio": null, "projects_count": 0, "devlogs_count": 0, "votes_count": 0, "ships_count": 0, "projects": [], "coding_time_seconds": 0, "coding_time_seconds_today": 0, "balance": "You need to have a pocket watcher badge to view this.", "badges": [], "created_at": "2025-09-03T22:19:52.550-04:00", "updated_at": "2025-09-04T04:04:04.093-04:00", "avatar": "https://avatars.slack-edge.com/2025-09-03/9484273820848_5183d803d82f2ed5d39b_original.png", "custom_css": null}, {"id": 23047, "slack_id": "U09E89CDXG8", "display_name": "Xavier Garcia", "bio": null, "projects_count": 0, "devlogs_count": 0, "votes_count": 0, "ships_count": 0, "projects": [], "coding_time_seconds": 0, "coding_time_seconds_today": 0, "balance": "You need to have a pocket watcher badge to view this.", "badges": [], "created_at": "2025-09-03T22:37:15.202-04:00", "updated_at": "2025-09-04T04:04:04.217-04:00", "avatar": "https://avatars.slack-edge.com/2025-09-03/9471364048961_5640dd88d0c2e05ca074_original.jpg", "custom_css": null}, {"id": 23048, "slack_id": "U09D86TCRR9", "display_name": "Isaac Gomez", "bio": null, "projects_count": 0, "devlogs_count": 0, "votes_count": 0, "ships_count": 0, "projects": [], "coding_time_seconds": 0, "coding_time_seconds_today": 0, "balance": "You need to have a pocket watcher badge to view this.", "badges": [], "created_at": "2025-09-03T23:10:13.074-04:00", "updated_at": "2025-09-05T02:01:18.966-04:00", "avatar": "https://secure.gravatar.com/avatar/5e6d0056ec068e3b2d09e05f6aae60dc.jpg?s=512&d=https%3A%2F%2Fa.slack-edge.com%2Fdf10d%2Fimg%2Favatars%2Fava_0023-512.png", "custom_css": null}, {"id": 23049, "slack_id": "U09DKL7BH4L", "display_name": "Riley Gross", "bio": null, "projects_count": 2, "devlogs_count": 0, "votes_count": 7, "ships_count": 0, "projects": [{"id": 13650, "title": "Lyricism", "devlogs_count": 0, "created_at": "2025-09-21T23:39:28.766-04:00"}, {"id": 13053, "title": "TalkBox", "devlogs_count": 0, "created_at": "2025-09-07T19:17:02.572-04:00"}], "coding_time_seconds": 12764, "coding_time_seconds_today": 0, "balance": "You need to have a pocket watcher badge to view this.", "badges": [], "created_at": "2025-09-03T23:59:45.675-04:00", "updated_at": "2025-09-04T23:03:52.376-04:00", "avatar": "https://avatars.slack-edge.com/2025-09-03/9443205097831_11effc66600b26b171ae_original.png", "custom_css": null}, {"id": 23050, "slack_id": "U09E8GVBTPA", "display_name": "Gabriel Estrella", "bio": null, "projects_count": 0, "devlogs_count": 0, "votes_count": 0, "ships_count": 0, "projects": [], "coding_time_seconds": 0, "coding_time_seconds_today": 0, "balance": "You need to have a pocket watcher badge to view this.", "badges": [], "created_at": "2025-09-04T00:00:32.017-04:00", "updated_at": "2025-09-04T04:04:08.751-04:00", "avatar": "https://secure.gravatar.com/avatar/1866ffcf05982a370ea1a9e409856da9.jpg?s=512&d=https%3A%2F%2Fa.slack-edge.com%2Fdf10d%2Fimg%2Favatars%2Fava_0005-512.png", "custom_css": null}, {"id": 23051, "slack_id": "U09DBJAHT8T", "display_name": "sichael", "bio": null, "projects_count": 0, "devlogs_count": 0, "votes_count": 0, "ships_count": 0, "projects": [], "coding_time_seconds": 0, "coding_time_seconds_today": 0, "balance": "You need to have a pocket watcher badge to view this.", "badges": [], "created_at": "2025-09-04T01:40:42.046-04:00", "updated_at": "2025-09-04T04:04:08.877-04:00", "avatar": "https://secure.gravatar.com/avatar/3fd47e80b4d9659f56531bb890258c97.jpg?s=512&d=https%3A%2F%2Fa.slack-edge.com%2Fdf10d%2Fimg%2Favatars%2Fava_0013-512.png", "custom_css": null}, {"id": 23052, "slack_id": "U09E8UKUQG0", "display_name": "SURAY VANSH", "bio": null, "projects_count": 0, "devlogs_count": 0, "votes_count": 0, "ships_count": 0, "projects": [], "coding_time_seconds": 0, "coding_time_seconds_today": 0, "balance": "You need to have a pocket watcher badge to view this.", "badges": [], "created_at": "2025-09-04T01:45:17.369-04:00", "updated_at": "2025-09-04T09:15:38.427-04:00", "avatar": "https://secure.gravatar.com/avatar/7c3c9d023de00862610ef57f2797c890.jpg?s=512&d=https%3A%2F%2Fa.slack-edge.com%2Fdf10d%2Fimg%2Favatars%2Fava_0008-512.png", "custom_css": null}, {"id": 23053, "slack_id": "U09DG19KHJN", "display_name": "Darkray", "bio": null, "projects_count": 0, "devlogs_count": 0, "votes_count": 0, "ships_count": 0, "projects": [], "coding_time_seconds": 0, "coding_time_seconds_today": 0, "balance": "You need to have a pocket watcher badge to view this.", "badges": [], "created_at": "2025-09-04T02:11:23.766-04:00", "updated_at": "2025-09-04T04:04:09.253-04:00", "avatar": "https://secure.gravatar.com/avatar/7460bc47ee285a2249a094e3dd7a2228.jpg?s=512&d=https%3A%2F%2Fa.slack-edge.com%2Fdf10d%2Fimg%2Favatars%2Fava_0001-512.png", "custom_css": null}, {"id": 23054, "slack_id": "U09DL60UCEQ", "display_name": "rosew0od", "bio": "You can find my main project on https://git.sr.ht/~rosew0od/ms.", "projects_count": 0, "devlogs_count": 0, "votes_count": 0, "ships_count": 0, "projects": [], "coding_time_seconds": 41747, "coding_time_seconds_today": 0, "balance": "You need to have a pocket watcher badge to view this.", "badges": [], "created_at": "2025-09-04T02:18:11.212-04:00", "updated_at": "2025-09-05T01:37:52.167-04:00", "avatar": "https://secure.gravatar.com/avatar/d32496aca1759aa87c1f8797fdeb5bfa.jpg?s=512&d=https%3A%2F%2Fa.slack-edge.com%2Fdf10d%2Fimg%2Favatars%2Fava_0006-512.png", "custom_css": null}, {"id": 23055, "slack_id": "U09DL697FJ8", "display_name": "fadilm", "bio": null, "projects_count": 0, "devlogs_count": 0, "votes_count": 0, "ships_count": 0, "projects": [], "coding_time_seconds": 0, "coding_time_seconds_today": 0, "balance": "You need to have a pocket watcher badge to view this.", "badges": [], "created_at": "2025-09-04T02:22:11.434-04:00", "updated_at": "2025-09-04T04:04:10.985-04:00", "avatar": "https://secure.gravatar.com/avatar/18985e18e0ef53e94235a723f522b5da.jpg?s=512&d=https%3A%2F%2Fa.slack-edge.com%2Fdf10d%2Fimg%2Favatars%2Fava_0009-512.png", "custom_css": null}, {"id": 23056, "slack_id": "U08RNPBQCH1", "display_name": "Jason", "bio": null, "projects_count": 0, "devlogs_count": 0, "votes_count": 0, "ships_count": 0, "projects": [], "coding_time_seconds": 0, "coding_time_seconds_today": 0, "balance": "You need to have a pocket watcher badge to view this.", "badges": [], "created_at": "2025-09-04T02:33:37.168-04:00", "updated_at": "2025-09-04T04:04:11.205-04:00", "avatar": "https://secure.gravatar.com/avatar/f231fc8fdb077b98de294db9832f33f3.jpg?s=512&d=https%3A%2F%2Fa.slack-edge.com%2Fdf10d%2Fimg%2Favatars%2Fava_0003-512.png", "custom_css": null}, {"id": 23057, "slack_id": "U09DM16CJSY", "display_name": "Abhishek Rajput", "bio": null, "projects_count": 0, "devlogs_count": 0, "votes_count": 0, "ships_count": 0, "projects": [], "coding_time_seconds": 0, "coding_time_seconds_today": 0, "balance": "You need to have a pocket watcher badge to view this.", "badges": [], "created_at": "2025-09-04T04:53:12.204-04:00", "updated_at": "2025-09-04T22:02:39.300-04:00", "avatar": "https://secure.gravatar.com/avatar/9d91e7916d9b9610daff66f38c28f449.jpg?s=512&d=https%3A%2F%2Fa.slack-edge.com%2Fdf10d%2Fimg%2Favatars%2Fava_0019-512.png", "custom_css": null}, {"id": 23058, "slack_id": "U09DCLV1G0K", "display_name": "Abhishek Rajput", "bio": null, "projects_count": 0, "devlogs_count": 0, "votes_count": 0, "ships_count": 0, "projects": [], "coding_time_seconds": 0, "coding_time_seconds_today": 0, "balance": "You need to have a pocket watcher badge to view this.", "badges": [], "created_at": "2025-09-04T04:57:48.816-04:00", "updated_at": "2025-09-04T22:02:39.399-04:00", "avatar": "https://secure.gravatar.com/avatar/448a65a3ad34a63184fb3b7d84ba3a58.jpg?s=512&d=https%3A%2F%2Fa.slack-edge.com%2Fdf10d%2Fimg%2Favatars%2Fava_0015-512.png", "custom_css": null}, {"id": 23059, "slack_id": "U09DEHV1L6R", "display_name": "EnN", "bio": null, "projects_count": 0, "devlogs_count": 0, "votes_count": 0, "ships_count": 0, "projects": [], "coding_time_seconds": 0, "coding_time_seconds_today": 0, "balance": "You need to have a pocket watcher badge to view this.", "badges": [], "created_at": "2025-09-04T05:08:02.035-04:00", "updated_at": "2025-09-04T22:02:39.497-04:00", "avatar": "https://secure.gravatar.com/avatar/e20f5d2cab23adb35c96f7f721440d1c.jpg?s=512&d=https%3A%2F%2Fa.slack-edge.com%2Fdf10d%2Fimg%2Favatars%2Fava_0013-512.png", "custom_css": null}, {"id": 23060, "slack_id": "U09EAR1A8SU", "display_name": "keerthan", "bio": null, "projects_count": 0, "devlogs_count": 0, "votes_count": 0, "ships_count": 0, "projects": [], "coding_time_seconds": 0, "coding_time_seconds_today": 0, "balance": "You need to have a pocket watcher badge to view this.", "badges": [], "created_at": "2025-09-04T07:30:34.906-04:00", "updated_at": "2025-09-04T22:02:39.757-04:00", "avatar": "https://secure.gravatar.com/avatar/a4422d4558d3dcb2e03f21153ca8081d.jpg?s=512&d=https%3A%2F%2Fa.slack-edge.com%2Fdf10d%2Fimg%2Favatars%2Fava_0018-512.png", "custom_css": null}, {"id": 23061, "slack_id": "U09DF9NSZTP", "display_name": "nischay", "bio": null, "projects_count": 0, "devlogs_count": 0, "votes_count": 0, "ships_count": 0, "projects": [], "coding_time_seconds": 0, "coding_time_seconds_today": 0, "balance": "You need to have a pocket watcher badge to view this.", "badges": [], "created_at": "2025-09-04T07:37:44.499-04:00", "updated_at": "2025-09-04T22:02:40.068-04:00", "avatar": "https://secure.gravatar.com/avatar/94714b08c4cd6257c87530cebed88d6d.jpg?s=512&d=https%3A%2F%2Fa.slack-edge.com%2Fdf10d%2Fimg%2Favatars%2Fava_0022-512.png", "custom_css": null}, {"id": 23062, "slack_id": "U09DDSNDXPG", "display_name": "therealdark_", "bio": null, "projects_count": 1, "devlogs_count": 2, "votes_count": 2, "ships_count": 0, "projects": [{"id": 12958, "title": "Summer Sweep", "devlogs_count": 2, "created_at": "2025-09-06T06:05:31.466-04:00"}], "coding_time_seconds": 50655, "coding_time_seconds_today": 2043, "balance": "You need to have a pocket watcher badge to view this.", "badges": [], "created_at": "2025-09-04T07:40:37.980-04:00", "updated_at": "2025-09-04T15:30:02.097-04:00", "avatar": "https://avatars.slack-edge.com/2025-09-04/9452525892549_ecbb42f9e79ee8d80fd8_original.gif", "custom_css": null}, {"id": 23063, "slack_id": "U09DDJZNA9H", "display_name": "Jordan", "bio": null, "projects_count": 0, "devlogs_count": 0, "votes_count": 0, "ships_count": 0, "projects": [], "coding_time_seconds": 0, "coding_time_seconds_today": 0, "balance": "You need to have a pocket watcher badge to view this.", "badges": [], "created_at": "2025-09-04T07:54:32.144-04:00", "updated_at": "2025-09-04T22:02:40.342-04:00", "avatar": "https://secure.gravatar.com/avatar/e6f716c596b953f4515b53b309e6d465.jpg?s=512&d=https%3A%2F%2Fa.slack-edge.com%2Fdf10d%2Fimg%2Favatars%2Fava_0001-512.png", "custom_css": null}, {"id": 23064, "slack_id": "U08NCJCN7G8", "display_name": "nischay", "bio": null, "projects_count": 0, "devlogs_count": 0, "votes_count": 0, "ships_count": 0, "projects": [], "coding_time_seconds": 0, "coding_time_seconds_today": 0, "balance": "You need to have a pocket watcher badge to view this.", "badges": [], "created_at": "2025-09-04T08:12:08.626-04:00", "updated_at": "2025-09-04T08:12:21.898-04:00", "avatar": "https://secure.gravatar.com/avatar/99c0891420e772eaa7648f63900a0336.jpg?s=512&d=https%3A%2F%2Fa.slack-edge.com%2Fdf10d%2Fimg%2Favatars%2Fava_0011-512.png", "custom_css": null}, {"id": 23065, "slack_id": "U09D3KTTPB9", "display_name": "Bendeg\u00faz", "bio": null, "projects_count": 0, "devlogs_count": 0, "votes_count": 0, "ships_count": 0, "projects": [], "coding_time_seconds": 0, "coding_time_seconds_today": 0, "balance": "You need to have a pocket watcher badge to view this.", "badges": [], "created_at": "2025-09-04T08:52:05.690-04:00", "updated_at": "2025-09-04T22:02:40.531-04:00", "avatar": "https://secure.gravatar.com/avatar/5dd7aff4244def35ef931dc449f5472c.jpg?s=512&d=https%3A%2F%2Fa.slack-edge.com%2Fdf10d%2Fimg%2Favatars%2Fava_0001-512.png", "custom_css": null}], "pagination": {"page": 1149, "pages": 1192, "count": 23828, "items": 20}}