{"users": [{"id": 2281, "slack_id": "U0918RSPAUX", "display_name": "Anmolmeet Singh", "bio": null, "projects_count": 0, "devlogs_count": 0, "votes_count": 0, "ships_count": 0, "projects": [], "coding_time_seconds": 0, "coding_time_seconds_today": 0, "balance": "You need to have a pocket watcher badge to view this.", "badges": [], "created_at": "2025-06-16T15:12:34.982-04:00", "updated_at": "2025-07-03T19:21:33.153-04:00", "avatar": "https://avatars.slack-edge.com/2025-06-16/9058608496820_aa55e269f51b0fbd93af_original.jpg", "custom_css": null}, {"id": 2282, "slack_id": "U092CKLK8D6", "display_name": "Jonas", "bio": null, "projects_count": 1, "devlogs_count": 1, "votes_count": 0, "ships_count": 0, "projects": [{"id": 258, "title": "GlobeGuessr", "devlogs_count": 1, "created_at": "2025-06-16T16:24:29.284-04:00"}], "coding_time_seconds": 24972, "coding_time_seconds_today": 0, "balance": "You need to have a pocket watcher badge to view this.", "badges": [], "created_at": "2025-06-16T15:12:36.042-04:00", "updated_at": "2025-07-03T19:21:33.439-04:00", "avatar": "https://secure.gravatar.com/avatar/18cbfed05a3d0bfca4faa8ff791a3373.jpg?s=512&d=https%3A%2F%2Fa.slack-edge.com%2Fdf10d%2Fimg%2Favatars%2Fava_0022-512.png", "custom_css": null}, {"id": 2283, "slack_id": "U091QHFJJR2", "display_name": "Rosangel", "bio": null, "projects_count": 0, "devlogs_count": 0, "votes_count": 0, "ships_count": 0, "projects": [], "coding_time_seconds": 0, "coding_time_seconds_today": 0, "balance": "You need to have a pocket watcher badge to view this.", "badges": [], "created_at": "2025-06-16T15:13:08.199-04:00", "updated_at": "2025-07-03T19:21:33.715-04:00", "avatar": "https://secure.gravatar.com/avatar/40341cee260670bc0f7a5a21ec6a87b6.jpg?s=512&d=https%3A%2F%2Fa.slack-edge.com%2Fdf10d%2Fimg%2Favatars%2Fava_0024-512.png", "custom_css": null}, {"id": 2284, "slack_id": "U088GTXEURX", "display_name": "kasatga", "bio": null, "projects_count": 0, "devlogs_count": 0, "votes_count": 0, "ships_count": 0, "projects": [], "coding_time_seconds": 0, "coding_time_seconds_today": 0, "balance": "You need to have a pocket watcher badge to view this.", "badges": [], "created_at": "2025-06-16T15:13:21.723-04:00", "updated_at": "2025-07-03T19:21:33.989-04:00", "avatar": "https://avatars.slack-edge.com/2025-01-28/8362928482612_4cca44649de46bc6f75e_original.png", "custom_css": null}, {"id": 2285, "slack_id": "U091QHQKY84", "display_name": "Karun Pai", "bio": null, "projects_count": 0, "devlogs_count": 0, "votes_count": 0, "ships_count": 0, "projects": [], "coding_time_seconds": 0, "coding_time_seconds_today": 0, "balance": "You need to have a pocket watcher badge to view this.", "badges": [], "created_at": "2025-06-16T15:14:01.497-04:00", "updated_at": "2025-07-03T19:21:34.255-04:00", "avatar": "https://avatars.slack-edge.com/2025-06-16/9080691884432_9b3ccb539879ba1e6584_original.jpg", "custom_css": null}, {"id": 2286, "slack_id": "U091HAPQWQN", "display_name": "chen xie", "bio": null, "projects_count": 0, "devlogs_count": 0, "votes_count": 0, "ships_count": 0, "projects": [], "coding_time_seconds": 11154, "coding_time_seconds_today": 0, "balance": "You need to have a pocket watcher badge to view this.", "badges": [], "created_at": "2025-06-16T15:14:24.071-04:00", "updated_at": "2025-07-03T19:21:34.518-04:00", "avatar": "https://avatars.slack-edge.com/2025-06-16/9051292164227_254c51f9314d03f4a409_original.jpg", "custom_css": null}, {"id": 2287, "slack_id": "U091Q6LE45Q", "display_name": "Naiteek", "bio": null, "projects_count": 0, "devlogs_count": 0, "votes_count": 0, "ships_count": 0, "projects": [], "coding_time_seconds": 106, "coding_time_seconds_today": 0, "balance": "You need to have a pocket watcher badge to view this.", "badges": [], "created_at": "2025-06-16T15:14:25.055-04:00", "updated_at": "2025-07-03T19:21:34.785-04:00", "avatar": "https://secure.gravatar.com/avatar/45c494b5d17298a3b34aa025a912a85e.jpg?s=512&d=https%3A%2F%2Fa.slack-edge.com%2Fdf10d%2Fimg%2Favatars%2Fava_0026-512.png", "custom_css": null}, {"id": 2288, "slack_id": "U091Q6K7RHQ", "display_name": "Vishal Kumar", "bio": null, "projects_count": 0, "devlogs_count": 0, "votes_count": 0, "ships_count": 0, "projects": [], "coding_time_seconds": 0, "coding_time_seconds_today": 0, "balance": "You need to have a pocket watcher badge to view this.", "badges": [], "created_at": "2025-06-16T15:14:34.919-04:00", "updated_at": "2025-07-03T19:21:35.054-04:00", "avatar": "https://secure.gravatar.com/avatar/d99dbff1d9475f5f767454f167c4b490.jpg?s=512&d=https%3A%2F%2Fa.slack-edge.com%2Fdf10d%2Fimg%2Favatars%2Fava_0001-512.png", "custom_css": null}, {"id": 2289, "slack_id": "U0918SUVCKH", "display_name": "Durlav Parajuli", "bio": null, "projects_count": 1, "devlogs_count": 0, "votes_count": 0, "ships_count": 0, "projects": [{"id": 208, "title": "todo", "devlogs_count": 0, "created_at": "2025-06-16T15:29:42.569-04:00"}], "coding_time_seconds": 22171, "coding_time_seconds_today": 0, "balance": "You need to have a pocket watcher badge to view this.", "badges": [], "created_at": "2025-06-16T15:15:19.226-04:00", "updated_at": "2025-07-03T19:21:35.323-04:00", "avatar": "https://avatars.slack-edge.com/2025-06-16/9058621429124_ef098db4bc8ae313d855_original.png", "custom_css": null}, {"id": 2290, "slack_id": "U091H861X3M", "display_name": "Johari Kuppam", "bio": null, "projects_count": 0, "devlogs_count": 0, "votes_count": 0, "ships_count": 0, "projects": [], "coding_time_seconds": 0, "coding_time_seconds_today": 0, "balance": "You need to have a pocket watcher badge to view this.", "badges": [], "created_at": "2025-06-16T15:15:23.593-04:00", "updated_at": "2025-07-03T19:21:35.589-04:00", "avatar": "https://secure.gravatar.com/avatar/3318c1896e0532c0af39d91d00ce64d0.jpg?s=512&d=https%3A%2F%2Fa.slack-edge.com%2Fdf10d%2Fimg%2Favatars%2Fava_0026-512.png", "custom_css": null}, {"id": 2291, "slack_id": "U092CKQP9JL", "display_name": "romit", "bio": null, "projects_count": 0, "devlogs_count": 0, "votes_count": 0, "ships_count": 0, "projects": [], "coding_time_seconds": 0, "coding_time_seconds_today": 0, "balance": "You need to have a pocket watcher badge to view this.", "badges": [], "created_at": "2025-06-16T15:15:33.117-04:00", "updated_at": "2025-07-03T19:21:35.859-04:00", "avatar": "https://secure.gravatar.com/avatar/7c47fe77c8ab9ce0ad53f0003e34e471.jpg?s=512&d=https%3A%2F%2Fa.slack-edge.com%2Fdf10d%2Fimg%2Favatars%2Fava_0019-512.png", "custom_css": null}, {"id": 2292, "slack_id": "U091Q5V6SDS", "display_name": "Julissa", "bio": null, "projects_count": 0, "devlogs_count": 0, "votes_count": 0, "ships_count": 0, "projects": [], "coding_time_seconds": 0, "coding_time_seconds_today": 0, "balance": "You need to have a pocket watcher badge to view this.", "badges": [], "created_at": "2025-06-16T15:15:35.666-04:00", "updated_at": "2025-07-03T19:21:36.138-04:00", "avatar": "https://avatars.slack-edge.com/2025-06-16/9058243786930_be28fdbc2d48e9912381_original.png", "custom_css": null}, {"id": 2293, "slack_id": "U091NDAL6AZ", "display_name": "Ryan Mai", "bio": null, "projects_count": 16, "devlogs_count": 114, "votes_count": 130, "ships_count": 8, "projects": [{"id": 4603, "title": "Visualize", "devlogs_count": 4, "created_at": "2025-06-30T20:47:24.930-04:00"}, {"id": 4813, "title": "Stacked", "devlogs_count": 4, "created_at": "2025-07-01T16:58:27.896-04:00"}, {"id": 5347, "title": "A Very Fun Game", "devlogs_count": 1, "created_at": "2025-07-04T16:15:01.023-04:00"}, {"id": 5878, "title": "A Very Fun 2D Game", "devlogs_count": 13, "created_at": "2025-07-08T18:41:58.168-04:00"}, {"id": 10695, "title": "Koko VR", "devlogs_count": 12, "created_at": "2025-08-09T18:17:39.116-04:00"}, {"id": 12323, "title": "Fast", "devlogs_count": 1, "created_at": "2025-08-25T17:22:38.654-04:00"}, {"id": 12398, "title": "The Guy Who Cried HOG RIDERRR!", "devlogs_count": 11, "created_at": "2025-08-26T19:58:50.403-04:00"}, {"id": 12992, "title": "Cantada", "devlogs_count": 2, "created_at": "2025-09-06T16:09:00.708-04:00"}, {"id": 13109, "title": "Would You RATHER!?", "devlogs_count": 4, "created_at": "2025-09-08T17:29:09.052-04:00"}, {"id": 13321, "title": "Minecraft & About Me!", "devlogs_count": 6, "created_at": "2025-09-14T00:16:15.866-04:00"}, {"id": 13720, "title": "Tennish", "devlogs_count": 2, "created_at": "2025-09-23T16:50:48.492-04:00"}, {"id": 11887, "title": "Railgun", "devlogs_count": 16, "created_at": "2025-08-20T18:20:08.083-04:00"}, {"id": 10591, "title": "Sharp Shoota", "devlogs_count": 2, "created_at": "2025-08-08T13:59:01.076-04:00"}, {"id": 6647, "title": "Corporate Translator", "devlogs_count": 9, "created_at": "2025-07-14T19:37:38.065-04:00"}, {"id": 5988, "title": "6ix Esolang", "devlogs_count": 18, "created_at": "2025-07-09T17:39:44.169-04:00"}, {"id": 4861, "title": "University Requirement Scraper", "devlogs_count": 8, "created_at": "2025-07-02T00:25:40.558-04:00"}], "coding_time_seconds": 954615, "coding_time_seconds_today": 0, "balance": "You need to have a pocket watcher badge to view this.", "badges": [{"name": "Maiden Voyage", "text": "you shipped your first project! the journey begins...", "icon": "\ud83d\udea2"}, {"name": "Yapper I", "text": "Posted 10 comments on devlogs.", "icon": "\ud83d\udcac"}, {"name": "Ballot Stuffer", "text": "vote 100 times.", "icon": "https://summer.hackclub.com/assets/i_voted-bf851b48.png"}], "created_at": "2025-06-16T15:15:59.711-04:00", "updated_at": "2025-09-10T22:52:18.536-04:00", "avatar": "https://avatars.slack-edge.com/2025-06-16/9070789602337_3250a31c08afb0f4dcfb_original.png", "custom_css": null}, {"id": 2294, "slack_id": "U092CKVRNBS", "display_name": "Wallid", "bio": null, "projects_count": 2, "devlogs_count": 2, "votes_count": 2, "ships_count": 1, "projects": [{"id": 1134, "title": "Italy Troll Bot", "devlogs_count": 0, "created_at": "2025-06-17T17:23:01.392-04:00"}, {"id": 10054, "title": "Zach web css", "devlogs_count": 2, "created_at": "2025-08-03T17:58:59.130-04:00"}], "coding_time_seconds": 29308, "coding_time_seconds_today": 0, "balance": "You need to have a pocket watcher badge to view this.", "badges": [{"name": "Maiden Voyage", "text": "you shipped your first project! the journey begins...", "icon": "\ud83d\udea2"}], "created_at": "2025-06-16T15:16:07.844-04:00", "updated_at": "2025-09-10T22:52:18.577-04:00", "avatar": "https://secure.gravatar.com/avatar/cf4949865797e8f4f275c61d17b27350.jpg?s=512&d=https%3A%2F%2Fa.slack-edge.com%2Fdf10d%2Fimg%2Favatars%2Fava_0003-512.png", "custom_css": null}, {"id": 2295, "slack_id": "U091Q4HK70A", "display_name": "Johan", "bio": "moo!", "projects_count": 2, "devlogs_count": 19, "votes_count": 41, "ships_count": 2, "projects": [{"id": 5039, "title": "YourDownloader", "devlogs_count": 7, "created_at": "2025-07-02T21:24:00.910-04:00"}, {"id": 755, "title": "eScive", "devlogs_count": 12, "created_at": "2025-06-17T07:21:35.049-04:00"}], "coding_time_seconds": 962713, "coding_time_seconds_today": 0, "balance": "You need to have a pocket watcher badge to view this.", "badges": [{"name": "Maiden Voyage", "text": "you shipped your first project! the journey begins...", "icon": "\ud83d\udea2"}], "created_at": "2025-06-16T15:16:09.916-04:00", "updated_at": "2025-09-10T22:52:18.642-04:00", "avatar": "https://avatars.slack-edge.com/2025-06-24/9093180303634_5e857921deaf3a77bc89_original.jpg", "custom_css": null}, {"id": 2296, "slack_id": "U091H84C7A7", "display_name": "SimonaB", "bio": null, "projects_count": 0, "devlogs_count": 0, "votes_count": 0, "ships_count": 0, "projects": [], "coding_time_seconds": 0, "coding_time_seconds_today": 0, "balance": "You need to have a pocket watcher badge to view this.", "badges": [], "created_at": "2025-06-16T15:16:13.329-04:00", "updated_at": "2025-07-03T19:21:37.253-04:00", "avatar": "https://secure.gravatar.com/avatar/1327c65f413a1acc06efba7778ef97d1.jpg?s=512&d=https%3A%2F%2Fa.slack-edge.com%2Fdf10d%2Fimg%2Favatars%2Fava_0006-512.png", "custom_css": null}, {"id": 2297, "slack_id": "U0922NS85LH", "display_name": "bkmnst", "bio": null, "projects_count": 0, "devlogs_count": 0, "votes_count": 0, "ships_count": 0, "projects": [], "coding_time_seconds": 0, "coding_time_seconds_today": 0, "balance": "You need to have a pocket watcher badge to view this.", "badges": [], "created_at": "2025-06-16T15:16:25.100-04:00", "updated_at": "2025-07-03T19:21:37.526-04:00", "avatar": "https://secure.gravatar.com/avatar/c8c97969098736e72173c6ac7757d067.jpg?s=512&d=https%3A%2F%2Fa.slack-edge.com%2Fdf10d%2Fimg%2Favatars%2Fava_0002-512.png", "custom_css": null}, {"id": 2298, "slack_id": "U091H7YB4KV", "display_name": "AYUSH RAJ", "bio": null, "projects_count": 0, "devlogs_count": 0, "votes_count": 0, "ships_count": 0, "projects": [], "coding_time_seconds": 0, "coding_time_seconds_today": 0, "balance": "You need to have a pocket watcher badge to view this.", "badges": [], "created_at": "2025-06-16T15:16:29.219-04:00", "updated_at": "2025-07-03T19:21:37.798-04:00", "avatar": "https://avatars.slack-edge.com/2025-06-16/9042934629607_860fbf67cd86aa35e4e3_original.jpg", "custom_css": null}, {"id": 2299, "slack_id": "U091QJ4TA4C", "display_name": "Hamid", "bio": null, "projects_count": 0, "devlogs_count": 0, "votes_count": 0, "ships_count": 0, "projects": [], "coding_time_seconds": 0, "coding_time_seconds_today": 0, "balance": "You need to have a pocket watcher badge to view this.", "badges": [], "created_at": "2025-06-16T15:16:30.063-04:00", "updated_at": "2025-07-21T23:59:04.006-04:00", "avatar": "https://secure.gravatar.com/avatar/4c95de92ab81c8116ff24a1761015526.jpg?s=512&d=https%3A%2F%2Fa.slack-edge.com%2Fdf10d%2Fimg%2Favatars%2Fava_0023-512.png", "custom_css": null}, {"id": 2300, "slack_id": "U092C44B6AU", "display_name": "Sesan Adeniyi Adedeji", "bio": null, "projects_count": 0, "devlogs_count": 0, "votes_count": 0, "ships_count": 0, "projects": [], "coding_time_seconds": 0, "coding_time_seconds_today": 0, "balance": "You need to have a pocket watcher badge to view this.", "badges": [], "created_at": "2025-06-16T15:16:31.130-04:00", "updated_at": "2025-07-03T19:21:38.350-04:00", "avatar": "https://secure.gravatar.com/avatar/08137bc8a0bbabe98551a33407193f46.jpg?s=512&d=https%3A%2F%2Fa.slack-edge.com%2Fdf10d%2Fimg%2Favatars%2Fava_0019-512.png", "custom_css": null}], "pagination": {"page": 115, "pages": 1192, "count": 23828, "items": 20}}