{"users": [{"id": 23066, "slack_id": "U09DYJRE8MP", "display_name": "manash verma", "bio": null, "projects_count": 0, "devlogs_count": 0, "votes_count": 0, "ships_count": 0, "projects": [], "coding_time_seconds": 0, "coding_time_seconds_today": 0, "balance": "You need to have a pocket watcher badge to view this.", "badges": [], "created_at": "2025-09-04T09:25:31.525-04:00", "updated_at": "2025-09-04T22:02:40.619-04:00", "avatar": "https://secure.gravatar.com/avatar/c883a2dd7bd1dde0e37bcfc40d4353bc.jpg?s=512&d=https%3A%2F%2Fa.slack-edge.com%2Fdf10d%2Fimg%2Favatars%2Fava_0006-512.png", "custom_css": null}, {"id": 23067, "slack_id": "U09D3RJSF71", "display_name": "bhuvan", "bio": null, "projects_count": 0, "devlogs_count": 0, "votes_count": 0, "ships_count": 0, "projects": [], "coding_time_seconds": 0, "coding_time_seconds_today": 0, "balance": "You need to have a pocket watcher badge to view this.", "badges": [], "created_at": "2025-09-04T09:31:01.275-04:00", "updated_at": "2025-09-04T22:02:40.729-04:00", "avatar": "https://secure.gravatar.com/avatar/0dc327113f1f50643cc3119aa724524b.jpg?s=512&d=https%3A%2F%2Fa.slack-edge.com%2Fdf10d%2Fimg%2Favatars%2Fava_0004-512.png", "custom_css": null}, {"id": 23068, "slack_id": "U09DAHXK9V1", "display_name": "Ari Osimboni", "bio": null, "projects_count": 0, "devlogs_count": 0, "votes_count": 0, "ships_count": 0, "projects": [], "coding_time_seconds": 0, "coding_time_seconds_today": 0, "balance": "You need to have a pocket watcher badge to view this.", "badges": [], "created_at": "2025-09-04T09:36:56.611-04:00", "updated_at": "2025-09-14T01:10:54.773-04:00", "avatar": "https://avatars.slack-edge.com/2025-09-13/9526962137169_0d70a231f74d6ced1d65_original.png", "custom_css": null}, {"id": 23069, "slack_id": "U09DGDBM6MB", "display_name": "Georges", "bio": null, "projects_count": 0, "devlogs_count": 0, "votes_count": 0, "ships_count": 0, "projects": [], "coding_time_seconds": 28687, "coding_time_seconds_today": 0, "balance": "You need to have a pocket watcher badge to view this.", "badges": [], "created_at": "2025-09-04T10:38:55.952-04:00", "updated_at": "2025-09-08T22:02:58.362-04:00", "avatar": "https://avatars.slack-edge.com/2025-09-08/9492704184961_2810263672908a94c2d6_original.jpg", "custom_css": null}, {"id": 23070, "slack_id": "U09DJTS9F3L", "display_name": "Vishnu Teja Garlapati", "bio": null, "projects_count": 0, "devlogs_count": 0, "votes_count": 0, "ships_count": 0, "projects": [], "coding_time_seconds": 0, "coding_time_seconds_today": 0, "balance": "You need to have a pocket watcher badge to view this.", "badges": [], "created_at": "2025-09-04T11:05:49.397-04:00", "updated_at": "2025-09-07T07:17:27.822-04:00", "avatar": "https://secure.gravatar.com/avatar/b9dcddd719230e7bb7964db43d6babfd.jpg?s=512&d=https%3A%2F%2Fa.slack-edge.com%2Fdf10d%2Fimg%2Favatars%2Fava_0011-512.png", "custom_css": null}, {"id": 23071, "slack_id": "U09DHMTDK1S", "display_name": "KARTIKFANBOY001", "bio": null, "projects_count": 0, "devlogs_count": 0, "votes_count": 0, "ships_count": 0, "projects": [], "coding_time_seconds": 0, "coding_time_seconds_today": 0, "balance": "You need to have a pocket watcher badge to view this.", "badges": [], "created_at": "2025-09-04T11:09:42.730-04:00", "updated_at": "2025-09-04T22:02:45.275-04:00", "avatar": "https://secure.gravatar.com/avatar/923e4937cf650336a039d0d902aab660.jpg?s=512&d=https%3A%2F%2Fa.slack-edge.com%2Fdf10d%2Fimg%2Favatars%2Fava_0008-512.png", "custom_css": null}, {"id": 23072, "slack_id": "U09DZCP84V7", "display_name": "Jolly", "bio": null, "projects_count": 0, "devlogs_count": 0, "votes_count": 0, "ships_count": 0, "projects": [], "coding_time_seconds": 0, "coding_time_seconds_today": 0, "balance": "You need to have a pocket watcher badge to view this.", "badges": [], "created_at": "2025-09-04T11:10:09.223-04:00", "updated_at": "2025-09-04T22:02:45.506-04:00", "avatar": "https://secure.gravatar.com/avatar/f0c2ee139d79994fee6d82ab6648781b.jpg?s=512&d=https%3A%2F%2Fa.slack-edge.com%2Fdf10d%2Fimg%2Favatars%2Fava_0000-512.png", "custom_css": null}, {"id": 23073, "slack_id": "U09DPAS6LCU", "display_name": "Benjamin Sullivan", "bio": null, "projects_count": 0, "devlogs_count": 0, "votes_count": 0, "ships_count": 0, "projects": [], "coding_time_seconds": 0, "coding_time_seconds_today": 0, "balance": "You need to have a pocket watcher badge to view this.", "badges": [], "created_at": "2025-09-04T11:25:44.574-04:00", "updated_at": "2025-09-04T22:02:45.693-04:00", "avatar": "https://avatars.slack-edge.com/2025-09-04/9457113444291_566e20d6ac81db79e04b_original.jpg", "custom_css": null}, {"id": 23074, "slack_id": "U09D4RB9M0X", "display_name": "Nils Leijdekker", "bio": null, "projects_count": 0, "devlogs_count": 0, "votes_count": 0, "ships_count": 0, "projects": [], "coding_time_seconds": 0, "coding_time_seconds_today": 0, "balance": "You need to have a pocket watcher badge to view this.", "badges": [], "created_at": "2025-09-04T11:43:43.831-04:00", "updated_at": "2025-09-04T22:02:45.968-04:00", "avatar": "https://secure.gravatar.com/avatar/715dc7f9760509c10531c1bc6313398a.jpg?s=512&d=https%3A%2F%2Fa.slack-edge.com%2Fdf10d%2Fimg%2Favatars%2Fava_0007-512.png", "custom_css": null}, {"id": 23075, "slack_id": "U09D4S5E4CF", "display_name": "Prajna", "bio": "Started coding for school but now have learned to enjoy it!!", "projects_count": 1, "devlogs_count": 6, "votes_count": 0, "ships_count": 0, "projects": [{"id": 13284, "title": "Pomodoro Timer", "devlogs_count": 7, "created_at": "2025-09-13T09:52:29.985-04:00"}], "coding_time_seconds": 31913, "coding_time_seconds_today": 0, "balance": "You need to have a pocket watcher badge to view this.", "badges": [], "created_at": "2025-09-04T11:47:33.702-04:00", "updated_at": "2025-09-13T10:14:05.204-04:00", "avatar": "https://secure.gravatar.com/avatar/ec7de2f88a3a9b12aea22074c6e30dad.jpg?s=512&d=https%3A%2F%2Fa.slack-edge.com%2Fdf10d%2Fimg%2Favatars%2Fava_0012-512.png", "custom_css": null}, {"id": 23076, "slack_id": "U08SNFCH38V", "display_name": "le-chuga", "bio": null, "projects_count": 0, "devlogs_count": 0, "votes_count": 0, "ships_count": 0, "projects": [], "coding_time_seconds": 4591, "coding_time_seconds_today": 0, "balance": "You need to have a pocket watcher badge to view this.", "badges": [], "created_at": "2025-09-04T11:51:35.690-04:00", "updated_at": "2025-09-04T22:02:46.416-04:00", "avatar": "https://secure.gravatar.com/avatar/d389d6c71de9bebdcacc3494b0930d1a.jpg?s=512&d=https%3A%2F%2Fa.slack-edge.com%2Fdf10d%2Fimg%2Favatars%2Fava_0018-512.png", "custom_css": null}, {"id": 23077, "slack_id": "U09D4TPHLPR", "display_name": "Omarr", "bio": null, "projects_count": 0, "devlogs_count": 0, "votes_count": 0, "ships_count": 0, "projects": [], "coding_time_seconds": 0, "coding_time_seconds_today": 0, "balance": "You need to have a pocket watcher badge to view this.", "badges": [], "created_at": "2025-09-04T11:55:47.689-04:00", "updated_at": "2025-09-09T22:02:50.361-04:00", "avatar": "https://avatars.slack-edge.com/2025-09-09/9473072777127_98ff6240762aacd8d401_original.png", "custom_css": null}, {"id": 23078, "slack_id": "U09DF91BS9Z", "display_name": "Dolkip", "bio": null, "projects_count": 1, "devlogs_count": 0, "votes_count": 0, "ships_count": 0, "projects": [{"id": 12888, "title": "TheTower", "devlogs_count": 0, "created_at": "2025-09-04T12:57:13.517-04:00"}], "coding_time_seconds": 10307, "coding_time_seconds_today": 0, "balance": "You need to have a pocket watcher badge to view this.", "badges": [], "created_at": "2025-09-04T12:00:50.761-04:00", "updated_at": "2025-09-04T22:02:50.835-04:00", "avatar": "https://avatars.slack-edge.com/2025-09-04/9475848026641_2037e660615f259fbf66_original.png", "custom_css": null}, {"id": 23079, "slack_id": "U09DFFWPV8B", "display_name": "BurntCowIsTasty", "bio": null, "projects_count": 0, "devlogs_count": 0, "votes_count": 0, "ships_count": 0, "projects": [], "coding_time_seconds": 0, "coding_time_seconds_today": 0, "balance": "You need to have a pocket watcher badge to view this.", "badges": [], "created_at": "2025-09-04T12:28:14.664-04:00", "updated_at": "2025-09-04T22:02:51.062-04:00", "avatar": "https://secure.gravatar.com/avatar/6b6f44b11d7ad6a1d74399da4d9826e5.jpg?s=512&d=https%3A%2F%2Fa.slack-edge.com%2Fdf10d%2Fimg%2Favatars%2Fava_0014-512.png", "custom_css": null}, {"id": 23080, "slack_id": "U09DPU68UH2", "display_name": "Unlisted", "bio": null, "projects_count": 0, "devlogs_count": 0, "votes_count": 0, "ships_count": 0, "projects": [], "coding_time_seconds": 0, "coding_time_seconds_today": 0, "balance": "You need to have a pocket watcher badge to view this.", "badges": [], "created_at": "2025-09-04T12:49:32.718-04:00", "updated_at": "2025-09-04T22:02:51.209-04:00", "avatar": "https://secure.gravatar.com/avatar/d9895a1991673c0e8a9edfe5577c9ca3.jpg?s=512&d=https%3A%2F%2Fa.slack-edge.com%2Fdf10d%2Fimg%2Favatars%2Fava_0016-512.png", "custom_css": null}, {"id": 23081, "slack_id": "U09D5A6PQ87", "display_name": "bart", "bio": "", "projects_count": 0, "devlogs_count": 0, "votes_count": 0, "ships_count": 0, "projects": [], "coding_time_seconds": 0, "coding_time_seconds_today": 0, "balance": "You need to have a pocket watcher badge to view this.", "badges": [], "created_at": "2025-09-04T12:57:41.730-04:00", "updated_at": "2025-09-04T22:02:51.404-04:00", "avatar": "https://secure.gravatar.com/avatar/53e5b737d5e577aa7ebfeb0e169e9b74.jpg?s=512&d=https%3A%2F%2Fa.slack-edge.com%2Fdf10d%2Fimg%2Favatars%2Fava_0005-512.png", "custom_css": null}, {"id": 23082, "slack_id": "U09DL3S2M50", "display_name": "Som test", "bio": null, "projects_count": 0, "devlogs_count": 0, "votes_count": 0, "ships_count": 0, "projects": [], "coding_time_seconds": 0, "coding_time_seconds_today": 0, "balance": "You need to have a pocket watcher badge to view this.", "badges": [], "created_at": "2025-09-04T13:27:41.609-04:00", "updated_at": "2025-09-06T04:51:03.246-04:00", "avatar": "https://secure.gravatar.com/avatar/5dd14306895cae90b2f3e5a71937f79d.jpg?s=512&d=https%3A%2F%2Fa.slack-edge.com%2Fdf10d%2Fimg%2Favatars%2Fava_0016-512.png", "custom_css": null}, {"id": 23083, "slack_id": "U09EDCUP8JU", "display_name": "joy johnson", "bio": null, "projects_count": 0, "devlogs_count": 0, "votes_count": 0, "ships_count": 0, "projects": [], "coding_time_seconds": 0, "coding_time_seconds_today": 0, "balance": "You need to have a pocket watcher badge to view this.", "badges": [], "created_at": "2025-09-04T13:54:11.374-04:00", "updated_at": "2025-09-04T13:54:30.786-04:00", "avatar": "https://secure.gravatar.com/avatar/10c1ec6541f19b0d3b4c3dded05c064a.jpg?s=512&d=https%3A%2F%2Fa.slack-edge.com%2Fdf10d%2Fimg%2Favatars%2Fava_0026-512.png", "custom_css": null}, {"id": 23084, "slack_id": "U09E0PSCFA5", "display_name": "derek", "bio": null, "projects_count": 0, "devlogs_count": 0, "votes_count": 1, "ships_count": 0, "projects": [], "coding_time_seconds": 0, "coding_time_seconds_today": 0, "balance": "You need to have a pocket watcher badge to view this.", "badges": [], "created_at": "2025-09-04T14:30:25.300-04:00", "updated_at": "2025-09-04T22:02:51.983-04:00", "avatar": "https://secure.gravatar.com/avatar/8739253306fc7f21f6c5a627a8cde1ee.jpg?s=512&d=https%3A%2F%2Fa.slack-edge.com%2Fdf10d%2Fimg%2Favatars%2Fava_0012-512.png", "custom_css": null}, {"id": 23085, "slack_id": "U09DQL5PCBW", "display_name": "Sonan Gudina", "bio": null, "projects_count": 0, "devlogs_count": 0, "votes_count": 0, "ships_count": 0, "projects": [], "coding_time_seconds": 0, "coding_time_seconds_today": 0, "balance": "You need to have a pocket watcher badge to view this.", "badges": [], "created_at": "2025-09-04T14:48:45.900-04:00", "updated_at": "2025-09-04T22:02:52.124-04:00", "avatar": "https://secure.gravatar.com/avatar/817bef2b4e5b55402ba662462bd93ddb.jpg?s=512&d=https%3A%2F%2Fa.slack-edge.com%2Fdf10d%2Fimg%2Favatars%2Fava_0010-512.png", "custom_css": null}], "pagination": {"page": 1150, "pages": 1192, "count": 23828, "items": 20}}