{"users": [{"id": 23086, "slack_id": "U09EDSLD69W", "display_name": "miwi", "bio": null, "projects_count": 0, "devlogs_count": 0, "votes_count": 0, "ships_count": 0, "projects": [], "coding_time_seconds": 0, "coding_time_seconds_today": 0, "balance": "You need to have a pocket watcher badge to view this.", "badges": [], "created_at": "2025-09-04T15:04:14.479-04:00", "updated_at": "2025-09-05T05:52:01.471-04:00", "avatar": "https://secure.gravatar.com/avatar/80e021c3eed69a980de656ed6bd0db1a.jpg?s=512&d=https%3A%2F%2Fa.slack-edge.com%2Fdf10d%2Fimg%2Favatars%2Fava_0001-512.png", "custom_css": null}, {"id": 23087, "slack_id": "U09DN1B0YES", "display_name": "Matyas Lukacs", "bio": null, "projects_count": 0, "devlogs_count": 0, "votes_count": 0, "ships_count": 0, "projects": [], "coding_time_seconds": 0, "coding_time_seconds_today": 0, "balance": "You need to have a pocket watcher badge to view this.", "badges": [], "created_at": "2025-09-04T15:23:30.026-04:00", "updated_at": "2025-09-04T22:02:56.645-04:00", "avatar": "https://avatars.slack-edge.com/2025-09-04/9490035036272_2eea4c381cdcae1a6240_original.jpg", "custom_css": null}, {"id": 23088, "slack_id": "U09DGR38T0T", "display_name": "Salma Ahmed", "bio": null, "projects_count": 0, "devlogs_count": 0, "votes_count": 0, "ships_count": 0, "projects": [], "coding_time_seconds": 0, "coding_time_seconds_today": 0, "balance": "You need to have a pocket watcher badge to view this.", "badges": [], "created_at": "2025-09-04T15:51:13.336-04:00", "updated_at": "2025-09-04T22:02:56.777-04:00", "avatar": "https://avatars.slack-edge.com/2025-09-04/9460467755013_3f264b4eea4d6da2b853_original.jpg", "custom_css": null}, {"id": 23089, "slack_id": "U09DND8FXGW", "display_name": "Harshith Chem", "bio": null, "projects_count": 0, "devlogs_count": 0, "votes_count": 0, "ships_count": 0, "projects": [], "coding_time_seconds": 120, "coding_time_seconds_today": 0, "balance": "You need to have a pocket watcher badge to view this.", "badges": [], "created_at": "2025-09-04T16:35:48.758-04:00", "updated_at": "2025-09-05T04:05:29.168-04:00", "avatar": "https://avatars.slack-edge.com/2025-09-04/9477538060641_34640b7b5a5c74a66cd2_original.png", "custom_css": null}, {"id": 23090, "slack_id": "U09DMBYASKU", "display_name": "Kieran B", "bio": null, "projects_count": 0, "devlogs_count": 0, "votes_count": 0, "ships_count": 0, "projects": [], "coding_time_seconds": 19592, "coding_time_seconds_today": 0, "balance": "You need to have a pocket watcher badge to view this.", "badges": [], "created_at": "2025-09-04T16:55:57.401-04:00", "updated_at": "2025-09-05T01:30:09.346-04:00", "avatar": "https://secure.gravatar.com/avatar/1807366f1c4b3340eec15d6ed870c858.jpg?s=512&d=https%3A%2F%2Fa.slack-edge.com%2Fdf10d%2Fimg%2Favatars%2Fava_0014-512.png", "custom_css": null}, {"id": 23091, "slack_id": "U09DRCMK9RS", "display_name": "Madeline", "bio": null, "projects_count": 0, "devlogs_count": 0, "votes_count": 0, "ships_count": 0, "projects": [], "coding_time_seconds": 0, "coding_time_seconds_today": 0, "balance": "You need to have a pocket watcher badge to view this.", "badges": [], "created_at": "2025-09-04T16:56:54.536-04:00", "updated_at": "2025-09-04T22:02:57.348-04:00", "avatar": "https://avatars.slack-edge.com/2025-09-04/9448799171783_74757ca3c6641abd86f0_original.jpg", "custom_css": null}, {"id": 23092, "slack_id": "U09DRDHJPCL", "display_name": "Liam Minnis", "bio": null, "projects_count": 1, "devlogs_count": 2, "votes_count": 1, "ships_count": 0, "projects": [{"id": 12897, "title": "Snake", "devlogs_count": 2, "created_at": "2025-09-04T17:35:56.315-04:00"}], "coding_time_seconds": 9579, "coding_time_seconds_today": 0, "balance": "You need to have a pocket watcher badge to view this.", "badges": [], "created_at": "2025-09-04T17:01:08.221-04:00", "updated_at": "2025-09-05T01:30:07.615-04:00", "avatar": "https://secure.gravatar.com/avatar/13830528c0b798ff3e016ba309963183.jpg?s=512&d=https%3A%2F%2Fa.slack-edge.com%2Fdf10d%2Fimg%2Favatars%2Fava_0010-512.png", "custom_css": null}, {"id": 23093, "slack_id": "U09D6UFB1U7", "display_name": "Jayden Alarcon", "bio": null, "projects_count": 1, "devlogs_count": 2, "votes_count": 2, "ships_count": 1, "projects": [{"id": 12899, "title": "Untitled PvPvE Class Game", "devlogs_count": 2, "created_at": "2025-09-04T21:30:39.724-04:00"}], "coding_time_seconds": 53258, "coding_time_seconds_today": 0, "balance": "You need to have a pocket watcher badge to view this.", "badges": [], "created_at": "2025-09-04T17:41:46.707-04:00", "updated_at": "2025-09-05T01:30:02.650-04:00", "avatar": "https://avatars.slack-edge.com/2025-09-04/9465554273814_d5fd17406d001e1dc00c_original.jpg", "custom_css": null}, {"id": 23094, "slack_id": "U09DK157D37", "display_name": "Cameron", "bio": null, "projects_count": 0, "devlogs_count": 0, "votes_count": 0, "ships_count": 0, "projects": [], "coding_time_seconds": 0, "coding_time_seconds_today": 0, "balance": "You need to have a pocket watcher badge to view this.", "badges": [], "created_at": "2025-09-04T17:44:31.175-04:00", "updated_at": "2025-09-04T22:02:57.764-04:00", "avatar": "https://secure.gravatar.com/avatar/fc061c876c9915427a9fa3926aa8b687.jpg?s=512&d=https%3A%2F%2Fa.slack-edge.com%2Fdf10d%2Fimg%2Favatars%2Fava_0009-512.png", "custom_css": null}, {"id": 23095, "slack_id": "U09DHT5GBFV", "display_name": "Reet", "bio": null, "projects_count": 0, "devlogs_count": 0, "votes_count": 0, "ships_count": 0, "projects": [], "coding_time_seconds": 0, "coding_time_seconds_today": 0, "balance": "You need to have a pocket watcher badge to view this.", "badges": [], "created_at": "2025-09-04T19:48:30.812-04:00", "updated_at": "2025-09-05T16:03:33.807-04:00", "avatar": "https://avatars.slack-edge.com/2025-09-05/9473840294068_7777a132ba88cbf00b8d_original.jpg", "custom_css": null}, {"id": 23096, "slack_id": "U09D7FN1G15", "display_name": "Daniel Hu", "bio": null, "projects_count": 0, "devlogs_count": 0, "votes_count": 0, "ships_count": 0, "projects": [], "coding_time_seconds": 0, "coding_time_seconds_today": 0, "balance": "You need to have a pocket watcher badge to view this.", "badges": [], "created_at": "2025-09-04T20:14:58.430-04:00", "updated_at": "2025-09-05T01:30:05.810-04:00", "avatar": "https://secure.gravatar.com/avatar/3c8cc7245e5920d1b0acefe4f85c062a.jpg?s=512&d=https%3A%2F%2Fa.slack-edge.com%2Fdf10d%2Fimg%2Favatars%2Fava_0008-512.png", "custom_css": null}, {"id": 23097, "slack_id": "U09DN6B996W", "display_name": "klaiyu", "bio": null, "projects_count": 0, "devlogs_count": 0, "votes_count": 0, "ships_count": 0, "projects": [], "coding_time_seconds": 14319, "coding_time_seconds_today": 0, "balance": "You need to have a pocket watcher badge to view this.", "badges": [], "created_at": "2025-09-04T20:24:44.907-04:00", "updated_at": "2025-09-07T11:18:02.379-04:00", "avatar": "https://secure.gravatar.com/avatar/9e654648d25c5d22442b13d4febe3145.jpg?s=512&d=https%3A%2F%2Fa.slack-edge.com%2Fdf10d%2Fimg%2Favatars%2Fava_0009-512.png", "custom_css": null}, {"id": 23098, "slack_id": "U09DN841C6N", "display_name": "eastern", "bio": null, "projects_count": 0, "devlogs_count": 0, "votes_count": 0, "ships_count": 0, "projects": [], "coding_time_seconds": 0, "coding_time_seconds_today": 0, "balance": "You need to have a pocket watcher badge to view this.", "badges": [], "created_at": "2025-09-04T20:31:10.865-04:00", "updated_at": "2025-09-05T08:47:18.047-04:00", "avatar": "https://secure.gravatar.com/avatar/d6cd7abe2f32be442f7d213247ee3e64.jpg?s=512&d=https%3A%2F%2Fa.slack-edge.com%2Fdf10d%2Fimg%2Favatars%2Fava_0002-512.png", "custom_css": null}, {"id": 23099, "slack_id": "U09EFQ994UQ", "display_name": "Venkat", "bio": null, "projects_count": 0, "devlogs_count": 0, "votes_count": 0, "ships_count": 0, "projects": [], "coding_time_seconds": 0, "coding_time_seconds_today": 0, "balance": "You need to have a pocket watcher badge to view this.", "badges": [], "created_at": "2025-09-04T22:49:36.784-04:00", "updated_at": "2025-09-05T04:02:58.099-04:00", "avatar": "https://secure.gravatar.com/avatar/fc02387e765660ba5bbc9a0842cc552e.jpg?s=512&d=https%3A%2F%2Fa.slack-edge.com%2Fdf10d%2Fimg%2Favatars%2Fava_0017-512.png", "custom_css": null}, {"id": 23100, "slack_id": "U09EFSYRG8Y", "display_name": "Soroush", "bio": null, "projects_count": 0, "devlogs_count": 0, "votes_count": 0, "ships_count": 0, "projects": [], "coding_time_seconds": 0, "coding_time_seconds_today": 0, "balance": "You need to have a pocket watcher badge to view this.", "badges": [], "created_at": "2025-09-04T23:19:17.122-04:00", "updated_at": "2025-09-05T04:02:58.313-04:00", "avatar": "https://secure.gravatar.com/avatar/4732b56518168875c04e59348ace8994.jpg?s=512&d=https%3A%2F%2Fa.slack-edge.com%2Fdf10d%2Fimg%2Favatars%2Fava_0009-512.png", "custom_css": null}, {"id": 23101, "slack_id": "U09DJ0BHFMH", "display_name": "Chin ray Kong", "bio": null, "projects_count": 0, "devlogs_count": 0, "votes_count": 0, "ships_count": 0, "projects": [], "coding_time_seconds": 0, "coding_time_seconds_today": 0, "balance": "You need to have a pocket watcher badge to view this.", "badges": [], "created_at": "2025-09-05T00:51:49.151-04:00", "updated_at": "2025-09-05T04:02:58.661-04:00", "avatar": "https://avatars.slack-edge.com/2025-09-04/9460934002115_66789ce3805f44491df7_original.png", "custom_css": null}, {"id": 23102, "slack_id": "U080LSWJPV0", "display_name": "pooja", "bio": null, "projects_count": 0, "devlogs_count": 0, "votes_count": 0, "ships_count": 0, "projects": [], "coding_time_seconds": 0, "coding_time_seconds_today": 0, "balance": "You need to have a pocket watcher badge to view this.", "badges": [], "created_at": "2025-09-05T01:10:49.029-04:00", "updated_at": "2025-09-05T04:02:58.809-04:00", "avatar": "https://secure.gravatar.com/avatar/4ca170b8d250b7470e0914bc9c4e081a.jpg?s=512&d=https%3A%2F%2Fa.slack-edge.com%2Fdf10d%2Fimg%2Favatars%2Fava_0001-512.png", "custom_css": null}, {"id": 23103, "slack_id": "U09DJV8K17D", "display_name": "Muluh Azilnwi Success", "bio": null, "projects_count": 0, "devlogs_count": 0, "votes_count": 0, "ships_count": 0, "projects": [], "coding_time_seconds": 0, "coding_time_seconds_today": 0, "balance": "You need to have a pocket watcher badge to view this.", "badges": [], "created_at": "2025-09-05T01:13:00.467-04:00", "updated_at": "2025-09-05T04:02:58.940-04:00", "avatar": "https://secure.gravatar.com/avatar/619d9a5775b3a6b355cef450fc809356.jpg?s=512&d=https%3A%2F%2Fa.slack-edge.com%2Fdf10d%2Fimg%2Favatars%2Fava_0007-512.png", "custom_css": null}, {"id": 23104, "slack_id": "U09DQ6VE2CW", "display_name": "Harry", "bio": null, "projects_count": 0, "devlogs_count": 0, "votes_count": 0, "ships_count": 0, "projects": [], "coding_time_seconds": 1101, "coding_time_seconds_today": 0, "balance": "You need to have a pocket watcher badge to view this.", "badges": [], "created_at": "2025-09-05T01:26:12.456-04:00", "updated_at": "2025-09-05T15:17:58.299-04:00", "avatar": "https://secure.gravatar.com/avatar/ea430fb37dd1e699d040bf355026f383.jpg?s=512&d=https%3A%2F%2Fa.slack-edge.com%2Fdf10d%2Fimg%2Favatars%2Fava_0025-512.png", "custom_css": null}, {"id": 23105, "slack_id": "U09DQJUEQG2", "display_name": "Jakub Bogusiewicz", "bio": null, "projects_count": 0, "devlogs_count": 0, "votes_count": 0, "ships_count": 0, "projects": [], "coding_time_seconds": 0, "coding_time_seconds_today": 0, "balance": "You need to have a pocket watcher badge to view this.", "badges": [], "created_at": "2025-09-05T06:10:35.294-04:00", "updated_at": "2025-09-05T14:56:55.173-04:00", "avatar": "https://secure.gravatar.com/avatar/d591347534d417a65f04060e9aaf3d62.jpg?s=512&d=https%3A%2F%2Fa.slack-edge.com%2Fdf10d%2Fimg%2Favatars%2Fava_0020-512.png", "custom_css": null}], "pagination": {"page": 1151, "pages": 1192, "count": 23828, "items": 20}}