{"users": [{"id": 23126, "slack_id": "U09DNQGV6RZ", "display_name": "Sajal Shrestha", "bio": null, "projects_count": 0, "devlogs_count": 0, "votes_count": 0, "ships_count": 0, "projects": [], "coding_time_seconds": 657, "coding_time_seconds_today": 0, "balance": "You need to have a pocket watcher badge to view this.", "badges": [], "created_at": "2025-09-05T13:21:02.667-04:00", "updated_at": "2025-09-05T16:03:43.245-04:00", "avatar": "https://secure.gravatar.com/avatar/fb15e7d103a00556db6f2ebddeee0ed2.jpg?s=512&d=https%3A%2F%2Fa.slack-edge.com%2Fdf10d%2Fimg%2Favatars%2Fava_0012-512.png", "custom_css": null}, {"id": 23127, "slack_id": "U09DC9NSB8F", "display_name": "Haran", "bio": null, "projects_count": 0, "devlogs_count": 0, "votes_count": 0, "ships_count": 0, "projects": [], "coding_time_seconds": 0, "coding_time_seconds_today": 0, "balance": "You need to have a pocket watcher badge to view this.", "badges": [], "created_at": "2025-09-05T13:38:52.280-04:00", "updated_at": "2025-09-05T16:03:43.733-04:00", "avatar": "https://secure.gravatar.com/avatar/3e0c3ac126bdb20621c356e1b8b5f293.jpg?s=512&d=https%3A%2F%2Fa.slack-edge.com%2Fdf10d%2Fimg%2Favatars%2Fava_0021-512.png", "custom_css": null}, {"id": 23128, "slack_id": "U09ELD211G8", "display_name": "Keshav", "bio": null, "projects_count": 3, "devlogs_count": 8, "votes_count": 20, "ships_count": 2, "projects": [{"id": 13488, "title": "UniLog", "devlogs_count": 0, "created_at": "2025-09-17T15:35:47.989-04:00"}, {"id": 13489, "title": "Winter Notes App", "devlogs_count": 4, "created_at": "2025-09-17T15:36:40.573-04:00"}, {"id": 13656, "title": "Parallax Website", "devlogs_count": 4, "created_at": "2025-09-22T07:11:35.903-04:00"}], "coding_time_seconds": 18198, "coding_time_seconds_today": 0, "balance": "You need to have a pocket watcher badge to view this.", "badges": [{"name": "Maiden Voyage", "text": "you shipped your first project! the journey begins...", "icon": "\ud83d\udea2"}], "created_at": "2025-09-05T14:31:03.904-04:00", "updated_at": "2025-09-18T14:43:48.871-04:00", "avatar": "https://secure.gravatar.com/avatar/2a240fbbf8f029b8b60e2ccab770bcb7.jpg?s=512&d=https%3A%2F%2Fa.slack-edge.com%2Fdf10d%2Fimg%2Favatars%2Fava_0020-512.png", "custom_css": null}, {"id": 23129, "slack_id": "U09DQNU6VUM", "display_name": "minemaster2012", "bio": null, "projects_count": 0, "devlogs_count": 0, "votes_count": 0, "ships_count": 0, "projects": [], "coding_time_seconds": 0, "coding_time_seconds_today": 0, "balance": "You need to have a pocket watcher badge to view this.", "badges": [], "created_at": "2025-09-05T14:42:27.833-04:00", "updated_at": "2025-09-08T22:03:15.189-04:00", "avatar": "https://avatars.slack-edge.com/2025-09-08/9507066551888_da45b0eedbce80f25a4f_original.png", "custom_css": null}, {"id": 23130, "slack_id": "U09E738V92M", "display_name": "Aryan Gupta", "bio": null, "projects_count": 0, "devlogs_count": 0, "votes_count": 0, "ships_count": 0, "projects": [], "coding_time_seconds": 0, "coding_time_seconds_today": 0, "balance": "You need to have a pocket watcher badge to view this.", "badges": [], "created_at": "2025-09-05T15:00:19.943-04:00", "updated_at": "2025-09-05T16:03:44.299-04:00", "avatar": "https://secure.gravatar.com/avatar/a5a206e1d6b7937750446ff3f0fa295a.jpg?s=512&d=https%3A%2F%2Fa.slack-edge.com%2Fdf10d%2Fimg%2Favatars%2Fava_0004-512.png", "custom_css": null}, {"id": 23131, "slack_id": "U09DPCN4V3M", "display_name": "Dimeji", "bio": null, "projects_count": 0, "devlogs_count": 0, "votes_count": 0, "ships_count": 0, "projects": [], "coding_time_seconds": 0, "coding_time_seconds_today": 0, "balance": "You need to have a pocket watcher badge to view this.", "badges": [], "created_at": "2025-09-05T15:05:55.376-04:00", "updated_at": "2025-09-05T16:03:44.473-04:00", "avatar": "https://secure.gravatar.com/avatar/082a4b15802b04745686860305575e28.jpg?s=512&d=https%3A%2F%2Fa.slack-edge.com%2Fdf10d%2Fimg%2Favatars%2Fava_0018-512.png", "custom_css": null}, {"id": 23132, "slack_id": "U08DF9WAJSE", "display_name": "Bianca Ivanova", "bio": null, "projects_count": 0, "devlogs_count": 0, "votes_count": 0, "ships_count": 0, "projects": [], "coding_time_seconds": 0, "coding_time_seconds_today": 0, "balance": "You need to have a pocket watcher badge to view this.", "badges": [], "created_at": "2025-09-05T15:07:14.774-04:00", "updated_at": "2025-09-05T15:08:07.731-04:00", "avatar": "https://secure.gravatar.com/avatar/2b632075165350bbda2429bbba729e28.jpg?s=512&d=https%3A%2F%2Fa.slack-edge.com%2Fdf10d%2Fimg%2Favatars%2Fava_0014-512.png", "custom_css": null}, {"id": 23133, "slack_id": "U09DUDCDNUE", "display_name": "Z Bouk", "bio": null, "projects_count": 0, "devlogs_count": 0, "votes_count": 0, "ships_count": 0, "projects": [], "coding_time_seconds": 0, "coding_time_seconds_today": 0, "balance": "You need to have a pocket watcher badge to view this.", "badges": [], "created_at": "2025-09-05T15:15:06.016-04:00", "updated_at": "2025-09-05T16:03:45.371-04:00", "avatar": "https://avatars.slack-edge.com/2025-09-05/9473873229572_cb4539c74eed7ef452d6_original.png", "custom_css": null}, {"id": 23134, "slack_id": "U08N3DUA47L", "display_name": "nullptr", "bio": null, "projects_count": 0, "devlogs_count": 0, "votes_count": 0, "ships_count": 0, "projects": [], "coding_time_seconds": 0, "coding_time_seconds_today": 0, "balance": "You need to have a pocket watcher badge to view this.", "badges": [], "created_at": "2025-09-05T15:58:04.213-04:00", "updated_at": "2025-09-05T15:59:11.240-04:00", "avatar": "https://avatars.slack-edge.com/2025-04-13/8751478772370_4fba3376fa01c12c51b6_original.jpg", "custom_css": null}, {"id": 23135, "slack_id": "U09DR8K6JJ1", "display_name": "infinity", "bio": null, "projects_count": 0, "devlogs_count": 0, "votes_count": 0, "ships_count": 0, "projects": [], "coding_time_seconds": 0, "coding_time_seconds_today": 0, "balance": "You need to have a pocket watcher badge to view this.", "badges": [], "created_at": "2025-09-05T16:22:46.813-04:00", "updated_at": "2025-09-05T22:02:36.077-04:00", "avatar": "https://secure.gravatar.com/avatar/87d20da0e2f8b4a8518ba9787dd1475b.jpg?s=512&d=https%3A%2F%2Fa.slack-edge.com%2Fdf10d%2Fimg%2Favatars%2Fava_0025-512.png", "custom_css": null}, {"id": 23136, "slack_id": "U09DR6F8H9T", "display_name": "AP - 09ZZ 981234 The Woodlands SS", "bio": null, "projects_count": 0, "devlogs_count": 0, "votes_count": 0, "ships_count": 0, "projects": [], "coding_time_seconds": 0, "coding_time_seconds_today": 0, "balance": "You need to have a pocket watcher badge to view this.", "badges": [], "created_at": "2025-09-05T16:30:08.484-04:00", "updated_at": "2025-09-05T22:02:36.220-04:00", "avatar": "https://avatars.slack-edge.com/2025-09-05/9484040018465_cf9f083a068a7d59a1b4_original.png", "custom_css": null}, {"id": 23137, "slack_id": "U08RSL8RHPV", "display_name": "Dimzy", "bio": null, "projects_count": 0, "devlogs_count": 0, "votes_count": 0, "ships_count": 0, "projects": [], "coding_time_seconds": 0, "coding_time_seconds_today": 0, "balance": "You need to have a pocket watcher badge to view this.", "badges": [], "created_at": "2025-09-05T16:55:23.969-04:00", "updated_at": "2025-09-05T16:57:52.910-04:00", "avatar": "https://secure.gravatar.com/avatar/5752f96da11482723576cbd56d3da638.jpg?s=512&d=https%3A%2F%2Fa.slack-edge.com%2Fdf10d%2Fimg%2Favatars%2Fava_0004-512.png", "custom_css": null}, {"id": 23138, "slack_id": "U09E89PU59P", "display_name": "olivia", "bio": null, "projects_count": 0, "devlogs_count": 0, "votes_count": 0, "ships_count": 0, "projects": [], "coding_time_seconds": 0, "coding_time_seconds_today": 0, "balance": "You need to have a pocket watcher badge to view this.", "badges": [], "created_at": "2025-09-05T17:20:44.616-04:00", "updated_at": "2025-09-06T04:30:04.538-04:00", "avatar": "https://secure.gravatar.com/avatar/c0bc7c9a54e9c39609a2cc9f5b3c6c8e.jpg?s=512&d=https%3A%2F%2Fa.slack-edge.com%2Fdf10d%2Fimg%2Favatars%2Fava_0017-512.png", "custom_css": null}, {"id": 23139, "slack_id": "U09DV16363Y", "display_name": "Ahmed Aboelmaaty", "bio": null, "projects_count": 0, "devlogs_count": 0, "votes_count": 0, "ships_count": 0, "projects": [], "coding_time_seconds": 78783, "coding_time_seconds_today": 0, "balance": "You need to have a pocket watcher badge to view this.", "badges": [], "created_at": "2025-09-05T17:22:45.582-04:00", "updated_at": "2025-09-05T22:02:36.527-04:00", "avatar": "https://secure.gravatar.com/avatar/26f99e162ba486fc1540fff84ebb222c.jpg?s=512&d=https%3A%2F%2Fa.slack-edge.com%2Fdf10d%2Fimg%2Favatars%2Fava_0026-512.png", "custom_css": null}, {"id": 23140, "slack_id": "U09E7H0M1HP", "display_name": "Bella", "bio": null, "projects_count": 0, "devlogs_count": 0, "votes_count": 0, "ships_count": 0, "projects": [], "coding_time_seconds": 118706, "coding_time_seconds_today": 0, "balance": "You need to have a pocket watcher badge to view this.", "badges": [], "created_at": "2025-09-05T17:43:24.766-04:00", "updated_at": "2025-09-05T17:45:08.985-04:00", "avatar": "https://secure.gravatar.com/avatar/b66d7f3ecbb99ef3cd69c74c264f1cc6.jpg?s=512&d=https%3A%2F%2Fa.slack-edge.com%2Fdf10d%2Fimg%2Favatars%2Fava_0020-512.png", "custom_css": null}, {"id": 23141, "slack_id": "U086VDEHXFC", "display_name": "Ammar", "bio": null, "projects_count": 1, "devlogs_count": 8, "votes_count": 0, "ships_count": 0, "projects": [{"id": 13050, "title": "TMYGTMYT", "devlogs_count": 8, "created_at": "2025-09-07T17:35:25.629-04:00"}], "coding_time_seconds": 46978, "coding_time_seconds_today": 7014, "balance": "You need to have a pocket watcher badge to view this.", "badges": [], "created_at": "2025-09-05T18:17:38.163-04:00", "updated_at": "2025-09-07T16:21:42.662-04:00", "avatar": "https://secure.gravatar.com/avatar/5254e5e6c6019cb7acd3a9ba376e1e12.jpg?s=512&d=https%3A%2F%2Fa.slack-edge.com%2Fdf10d%2Fimg%2Favatars%2Fava_0024-512.png", "custom_css": null}, {"id": 23142, "slack_id": "U09E8P2R0SD", "display_name": "Asim", "bio": null, "projects_count": 0, "devlogs_count": 0, "votes_count": 0, "ships_count": 0, "projects": [], "coding_time_seconds": 0, "coding_time_seconds_today": 0, "balance": "You need to have a pocket watcher badge to view this.", "badges": [], "created_at": "2025-09-05T19:41:26.141-04:00", "updated_at": "2025-09-05T22:02:37.155-04:00", "avatar": "https://secure.gravatar.com/avatar/c9cc5c2176543e2df22ccc443a332bcf.jpg?s=512&d=https%3A%2F%2Fa.slack-edge.com%2Fdf10d%2Fimg%2Favatars%2Fava_0019-512.png", "custom_css": null}, {"id": 23143, "slack_id": "U09DQFUHAM9", "display_name": "Elliott Childs", "bio": null, "projects_count": 0, "devlogs_count": 0, "votes_count": 0, "ships_count": 0, "projects": [], "coding_time_seconds": 0, "coding_time_seconds_today": 0, "balance": "You need to have a pocket watcher badge to view this.", "badges": [], "created_at": "2025-09-05T19:50:29.614-04:00", "updated_at": "2025-09-06T16:03:12.190-04:00", "avatar": "https://avatars.slack-edge.com/2025-09-06/9457565795959_03080a7609e6f824e84e_original.png", "custom_css": null}, {"id": 23144, "slack_id": "U09DS3T16PP", "display_name": "Jack", "bio": null, "projects_count": 0, "devlogs_count": 0, "votes_count": 0, "ships_count": 0, "projects": [], "coding_time_seconds": 0, "coding_time_seconds_today": 0, "balance": "You need to have a pocket watcher badge to view this.", "badges": [], "created_at": "2025-09-05T20:11:15.334-04:00", "updated_at": "2025-09-08T01:00:17.479-04:00", "avatar": "https://avatars.slack-edge.com/2025-09-05/9484947786241_7589b4c8daab4f3eb399_original.png", "custom_css": null}, {"id": 23145, "slack_id": "U09DV3SBM1Q", "display_name": "George Hodgkins", "bio": null, "projects_count": 0, "devlogs_count": 0, "votes_count": 0, "ships_count": 0, "projects": [], "coding_time_seconds": 0, "coding_time_seconds_today": 0, "balance": "You need to have a pocket watcher badge to view this.", "badges": [], "created_at": "2025-09-05T21:22:09.426-04:00", "updated_at": "2025-09-05T22:02:37.906-04:00", "avatar": "https://secure.gravatar.com/avatar/1332e825dc54aaddfb255ece8bff13ff.jpg?s=512&d=https%3A%2F%2Fa.slack-edge.com%2Fdf10d%2Fimg%2Favatars%2Fava_0021-512.png", "custom_css": null}], "pagination": {"page": 1153, "pages": 1192, "count": 23828, "items": 20}}