{"users": [{"id": 23146, "slack_id": "U09D34WQ9BM", "display_name": "Joyanto Barmon", "bio": null, "projects_count": 0, "devlogs_count": 0, "votes_count": 0, "ships_count": 0, "projects": [], "coding_time_seconds": 0, "coding_time_seconds_today": 0, "balance": "You need to have a pocket watcher badge to view this.", "badges": [], "created_at": "2025-09-05T22:02:32.754-04:00", "updated_at": "2025-09-06T04:50:02.270-04:00", "avatar": "https://secure.gravatar.com/avatar/33011cb3fcc67e0b0179122704b62d2d.jpg?s=512&d=https%3A%2F%2Fa.slack-edge.com%2Fdf10d%2Fimg%2Favatars%2Fava_0005-512.png", "custom_css": null}, {"id": 23147, "slack_id": "U09D8QPUE3U", "display_name": "Swaraj Satyam", "bio": null, "projects_count": 0, "devlogs_count": 0, "votes_count": 0, "ships_count": 0, "projects": [], "coding_time_seconds": 1644, "coding_time_seconds_today": 0, "balance": "You need to have a pocket watcher badge to view this.", "badges": [], "created_at": "2025-09-06T01:36:16.891-04:00", "updated_at": "2025-09-07T02:20:47.518-04:00", "avatar": "https://secure.gravatar.com/avatar/1cb9ad3f0b1f793b8b9aeee768da8703.jpg?s=512&d=https%3A%2F%2Fa.slack-edge.com%2Fdf10d%2Fimg%2Favatars%2Fava_0016-512.png", "custom_css": null}, {"id": 23148, "slack_id": "U09DZL84ZM2", "display_name": "Tawer", "bio": null, "projects_count": 0, "devlogs_count": 0, "votes_count": 0, "ships_count": 0, "projects": [], "coding_time_seconds": 0, "coding_time_seconds_today": 0, "balance": "You need to have a pocket watcher badge to view this.", "badges": [], "created_at": "2025-09-06T02:43:49.474-04:00", "updated_at": "2025-09-06T04:50:02.657-04:00", "avatar": "https://secure.gravatar.com/avatar/9442641d3e954cbddbd382c143d6dd09.jpg?s=512&d=https%3A%2F%2Fa.slack-edge.com%2Fdf10d%2Fimg%2Favatars%2Fava_0021-512.png", "custom_css": null}, {"id": 23149, "slack_id": "U09DRC8CXMH", "display_name": "Calypso", "bio": null, "projects_count": 0, "devlogs_count": 0, "votes_count": 0, "ships_count": 0, "projects": [], "coding_time_seconds": 0, "coding_time_seconds_today": 0, "balance": "You need to have a pocket watcher badge to view this.", "badges": [], "created_at": "2025-09-06T03:57:51.423-04:00", "updated_at": "2025-09-06T04:50:02.912-04:00", "avatar": "https://secure.gravatar.com/avatar/1f54eadcdb3bd1aff2ff6570f376fb3a.jpg?s=512&d=https%3A%2F%2Fa.slack-edge.com%2Fdf10d%2Fimg%2Favatars%2Fava_0009-512.png", "custom_css": null}, {"id": 23150, "slack_id": "U09ENJ4JDHN", "display_name": "kajal", "bio": null, "projects_count": 0, "devlogs_count": 0, "votes_count": 0, "ships_count": 0, "projects": [], "coding_time_seconds": 0, "coding_time_seconds_today": 0, "balance": "You need to have a pocket watcher badge to view this.", "badges": [], "created_at": "2025-09-06T04:10:50.644-04:00", "updated_at": "2025-09-06T04:50:03.378-04:00", "avatar": "https://secure.gravatar.com/avatar/5f3cad16a03d25324bccccefb60717da.jpg?s=512&d=https%3A%2F%2Fa.slack-edge.com%2Fdf10d%2Fimg%2Favatars%2Fava_0010-512.png", "custom_css": null}, {"id": 23151, "slack_id": "U09DW9E62SJ", "display_name": "kairoshi", "bio": null, "projects_count": 0, "devlogs_count": 0, "votes_count": 0, "ships_count": 0, "projects": [], "coding_time_seconds": 0, "coding_time_seconds_today": 0, "balance": "You need to have a pocket watcher badge to view this.", "badges": [], "created_at": "2025-09-06T04:41:50.556-04:00", "updated_at": "2025-09-06T10:03:53.052-04:00", "avatar": "https://secure.gravatar.com/avatar/742938d060945b11238255e40db298af.jpg?s=512&d=https%3A%2F%2Fa.slack-edge.com%2Fdf10d%2Fimg%2Favatars%2Fava_0001-512.png", "custom_css": null}, {"id": 23152, "slack_id": "U09DVSPEC7L", "display_name": "Emmanuel George", "bio": null, "projects_count": 0, "devlogs_count": 0, "votes_count": 0, "ships_count": 0, "projects": [], "coding_time_seconds": 0, "coding_time_seconds_today": 0, "balance": "You need to have a pocket watcher badge to view this.", "badges": [], "created_at": "2025-09-06T04:41:54.062-04:00", "updated_at": "2025-09-06T10:03:53.396-04:00", "avatar": "https://secure.gravatar.com/avatar/289b63253f414252428c314dd034c0b0.jpg?s=512&d=https%3A%2F%2Fa.slack-edge.com%2Fdf10d%2Fimg%2Favatars%2Fava_0017-512.png", "custom_css": null}, {"id": 23153, "slack_id": "U09DT4FH2N9", "display_name": "Calypso", "bio": null, "projects_count": 1, "devlogs_count": 0, "votes_count": 0, "ships_count": 0, "projects": [{"id": 13168, "title": "quiz app", "devlogs_count": 0, "created_at": "2025-09-10T11:43:57.924-04:00"}], "coding_time_seconds": 28487, "coding_time_seconds_today": 0, "balance": "You need to have a pocket watcher badge to view this.", "badges": [], "created_at": "2025-09-06T05:13:04.966-04:00", "updated_at": "2025-09-06T10:03:53.883-04:00", "avatar": "https://secure.gravatar.com/avatar/e1e374b840c01179043b0b1fca5ff1ba.jpg?s=512&d=https%3A%2F%2Fa.slack-edge.com%2Fdf10d%2Fimg%2Favatars%2Fava_0014-512.png", "custom_css": null}, {"id": 23154, "slack_id": "U09E9PKCQC9", "display_name": "Rrita Canolli", "bio": null, "projects_count": 2, "devlogs_count": 0, "votes_count": 0, "ships_count": 0, "projects": [{"id": 12960, "title": "AstraNova AI LAB", "devlogs_count": 0, "created_at": "2025-09-06T06:29:26.078-04:00"}, {"id": 13030, "title": "timecapsule", "devlogs_count": 0, "created_at": "2025-09-07T08:49:51.893-04:00"}], "coding_time_seconds": 12618, "coding_time_seconds_today": 0, "balance": "You need to have a pocket watcher badge to view this.", "badges": [], "created_at": "2025-09-06T05:33:52.589-04:00", "updated_at": "2025-09-06T10:03:54.153-04:00", "avatar": "https://avatars.slack-edge.com/2025-09-06/9457073930791_e9cf98d54f044e11728e_original.jpg", "custom_css": null}, {"id": 23155, "slack_id": "U09DT7APP2R", "display_name": "Bhavesh Kumar", "bio": null, "projects_count": 0, "devlogs_count": 0, "votes_count": 0, "ships_count": 0, "projects": [], "coding_time_seconds": 0, "coding_time_seconds_today": 0, "balance": "You need to have a pocket watcher badge to view this.", "badges": [], "created_at": "2025-09-06T06:05:31.419-04:00", "updated_at": "2025-09-06T10:03:54.299-04:00", "avatar": "https://secure.gravatar.com/avatar/6175b003a38f7d570dcde41cc996e461.jpg?s=512&d=https%3A%2F%2Fa.slack-edge.com%2Fdf10d%2Fimg%2Favatars%2Fava_0007-512.png", "custom_css": null}, {"id": 23156, "slack_id": "U09E9R76J8H", "display_name": "NA Sakib", "bio": null, "projects_count": 0, "devlogs_count": 0, "votes_count": 0, "ships_count": 0, "projects": [], "coding_time_seconds": 0, "coding_time_seconds_today": 0, "balance": "You need to have a pocket watcher badge to view this.", "badges": [], "created_at": "2025-09-06T06:09:14.620-04:00", "updated_at": "2025-09-06T10:03:54.430-04:00", "avatar": "https://secure.gravatar.com/avatar/d1579a343b7aa1a107ef84b14ed64975.jpg?s=512&d=https%3A%2F%2Fa.slack-edge.com%2Fdf10d%2Fimg%2Favatars%2Fava_0025-512.png", "custom_css": null}, {"id": 23157, "slack_id": "U09DW4F60EN", "display_name": "Bob", "bio": null, "projects_count": 0, "devlogs_count": 0, "votes_count": 0, "ships_count": 0, "projects": [], "coding_time_seconds": 0, "coding_time_seconds_today": 0, "balance": "You need to have a pocket watcher badge to view this.", "badges": [], "created_at": "2025-09-06T07:06:43.483-04:00", "updated_at": "2025-09-06T10:03:54.553-04:00", "avatar": "https://secure.gravatar.com/avatar/f21ad0138a6670bfee423b8ad6e3063c.jpg?s=512&d=https%3A%2F%2Fa.slack-edge.com%2Fdf10d%2Fimg%2Favatars%2Fava_0000-512.png", "custom_css": null}, {"id": 23158, "slack_id": "U092KJB9999", "display_name": "Sathish Dusharla", "bio": null, "projects_count": 0, "devlogs_count": 0, "votes_count": 0, "ships_count": 0, "projects": [], "coding_time_seconds": 0, "coding_time_seconds_today": 0, "balance": "You need to have a pocket watcher badge to view this.", "badges": [], "created_at": "2025-09-06T07:08:36.973-04:00", "updated_at": "2025-09-06T10:03:54.709-04:00", "avatar": "https://secure.gravatar.com/avatar/f2a9301b75583ef2ebf71385291717dd.jpg?s=512&d=https%3A%2F%2Fa.slack-edge.com%2Fdf10d%2Fimg%2Favatars%2Fava_0009-512.png", "custom_css": null}, {"id": 23159, "slack_id": "U09DRRC3Z8B", "display_name": "Ethan", "bio": null, "projects_count": 0, "devlogs_count": 0, "votes_count": 0, "ships_count": 0, "projects": [], "coding_time_seconds": 0, "coding_time_seconds_today": 0, "balance": "You need to have a pocket watcher badge to view this.", "badges": [], "created_at": "2025-09-06T07:56:58.346-04:00", "updated_at": "2025-09-06T10:03:54.824-04:00", "avatar": "https://secure.gravatar.com/avatar/a052ad125c18431149baa1f6a1f07144.jpg?s=512&d=https%3A%2F%2Fa.slack-edge.com%2Fdf10d%2Fimg%2Favatars%2Fava_0013-512.png", "custom_css": null}, {"id": 23160, "slack_id": "U09EA3U7AC9", "display_name": "Sanjeeb J", "bio": null, "projects_count": 0, "devlogs_count": 0, "votes_count": 0, "ships_count": 0, "projects": [], "coding_time_seconds": 0, "coding_time_seconds_today": 0, "balance": "You need to have a pocket watcher badge to view this.", "badges": [], "created_at": "2025-09-06T08:59:31.901-04:00", "updated_at": "2025-09-06T10:03:54.939-04:00", "avatar": "https://avatars.slack-edge.com/2025-09-06/9476385063540_fa7241b34bddecd69131_original.jpg", "custom_css": null}, {"id": 23161, "slack_id": "U09E0B8REP6", "display_name": "Suraj Kumar H M", "bio": null, "projects_count": 0, "devlogs_count": 0, "votes_count": 0, "ships_count": 0, "projects": [], "coding_time_seconds": 0, "coding_time_seconds_today": 0, "balance": "You need to have a pocket watcher badge to view this.", "badges": [], "created_at": "2025-09-06T09:03:43.003-04:00", "updated_at": "2025-09-06T10:03:55.037-04:00", "avatar": "https://avatars.slack-edge.com/2025-09-06/9469591231845_164bb7c010da292a3af9_original.png", "custom_css": null}, {"id": 23162, "slack_id": "U09DVCU6QRL", "display_name": "mohamed", "bio": null, "projects_count": 0, "devlogs_count": 0, "votes_count": 0, "ships_count": 0, "projects": [], "coding_time_seconds": 53162, "coding_time_seconds_today": 0, "balance": "You need to have a pocket watcher badge to view this.", "badges": [], "created_at": "2025-09-06T10:15:06.403-04:00", "updated_at": "2025-09-13T13:34:15.307-04:00", "avatar": "https://secure.gravatar.com/avatar/050cd09a049dd2342a6cb79ee1349a09.jpg?s=512&d=https%3A%2F%2Fa.slack-edge.com%2Fdf10d%2Fimg%2Favatars%2Fava_0018-512.png", "custom_css": null}, {"id": 23163, "slack_id": "U09DW81DRPU", "display_name": "Ben Healey", "bio": null, "projects_count": 0, "devlogs_count": 0, "votes_count": 0, "ships_count": 0, "projects": [], "coding_time_seconds": 0, "coding_time_seconds_today": 0, "balance": "You need to have a pocket watcher badge to view this.", "badges": [], "created_at": "2025-09-06T10:47:14.933-04:00", "updated_at": "2025-09-12T04:03:13.789-04:00", "avatar": "https://avatars.slack-edge.com/2025-09-11/9505069500578_1fb3360f0b0fc9fc348a_original.png", "custom_css": null}, {"id": 23164, "slack_id": "U09DS5NSFUK", "display_name": "naman", "bio": null, "projects_count": 0, "devlogs_count": 0, "votes_count": 0, "ships_count": 0, "projects": [], "coding_time_seconds": 0, "coding_time_seconds_today": 0, "balance": "You need to have a pocket watcher badge to view this.", "badges": [], "created_at": "2025-09-06T10:50:55.477-04:00", "updated_at": "2025-09-06T16:03:22.294-04:00", "avatar": "https://secure.gravatar.com/avatar/63a6f0938709b8949158f90f7784c340.jpg?s=512&d=https%3A%2F%2Fa.slack-edge.com%2Fdf10d%2Fimg%2Favatars%2Fava_0007-512.png", "custom_css": null}, {"id": 23165, "slack_id": "U09DB7VAA07", "display_name": "raveha", "bio": null, "projects_count": 0, "devlogs_count": 0, "votes_count": 0, "ships_count": 0, "projects": [], "coding_time_seconds": 0, "coding_time_seconds_today": 0, "balance": "You need to have a pocket watcher badge to view this.", "badges": [], "created_at": "2025-09-06T11:32:50.094-04:00", "updated_at": "2025-09-06T16:03:22.429-04:00", "avatar": "https://secure.gravatar.com/avatar/793d9b2597f34f3dc25de35d38773a5c.jpg?s=512&d=https%3A%2F%2Fa.slack-edge.com%2Fdf10d%2Fimg%2Favatars%2Fava_0006-512.png", "custom_css": null}], "pagination": {"page": 1154, "pages": 1192, "count": 23828, "items": 20}}