{"users": [{"id": 23166, "slack_id": "U09D45WJ17D", "display_name": "Afeef Irfan", "bio": null, "projects_count": 0, "devlogs_count": 0, "votes_count": 0, "ships_count": 0, "projects": [], "coding_time_seconds": 135228, "coding_time_seconds_today": 0, "balance": "You need to have a pocket watcher badge to view this.", "badges": [], "created_at": "2025-09-06T12:31:47.054-04:00", "updated_at": "2025-09-06T16:03:26.824-04:00", "avatar": "https://avatars.slack-edge.com/2025-09-06/9467798354547_2ccfd21b527f6ebc57e0_original.png", "custom_css": null}, {"id": 23167, "slack_id": "U09DWMY40DQ", "display_name": "Santiago Taboada", "bio": null, "projects_count": 0, "devlogs_count": 0, "votes_count": 0, "ships_count": 0, "projects": [], "coding_time_seconds": 2430, "coding_time_seconds_today": 0, "balance": "You need to have a pocket watcher badge to view this.", "badges": [], "created_at": "2025-09-06T12:42:39.816-04:00", "updated_at": "2025-09-20T12:18:39.812-04:00", "avatar": "https://avatars.slack-edge.com/2025-09-06/9468421858019_8dcf4cb06036011cb9dd_original.png", "custom_css": null}, {"id": 23168, "slack_id": "U09DWM5REPL", "display_name": "0xCathie", "bio": null, "projects_count": 0, "devlogs_count": 0, "votes_count": 0, "ships_count": 0, "projects": [], "coding_time_seconds": 17541, "coding_time_seconds_today": 0, "balance": "You need to have a pocket watcher badge to view this.", "badges": [], "created_at": "2025-09-06T12:45:12.242-04:00", "updated_at": "2025-09-06T16:03:27.059-04:00", "avatar": "https://secure.gravatar.com/avatar/47f7bbaf69d55372196c85f92cb27f32.jpg?s=512&d=https%3A%2F%2Fa.slack-edge.com%2Fdf10d%2Fimg%2Favatars%2Fava_0019-512.png", "custom_css": null}, {"id": 23169, "slack_id": "U09E0PMSNS0", "display_name": "Hermen Dhaliwal", "bio": null, "projects_count": 0, "devlogs_count": 0, "votes_count": 0, "ships_count": 0, "projects": [], "coding_time_seconds": 0, "coding_time_seconds_today": 0, "balance": "You need to have a pocket watcher badge to view this.", "badges": [], "created_at": "2025-09-06T12:46:09.246-04:00", "updated_at": "2025-09-06T16:03:27.205-04:00", "avatar": "https://secure.gravatar.com/avatar/b4a52a8858ee1c9cca950800b90afbe2.jpg?s=512&d=https%3A%2F%2Fa.slack-edge.com%2Fdf10d%2Fimg%2Favatars%2Fava_0008-512.png", "custom_css": null}, {"id": 23170, "slack_id": "U09EPF8UKC0", "display_name": "Kathleen", "bio": null, "projects_count": 0, "devlogs_count": 0, "votes_count": 0, "ships_count": 0, "projects": [], "coding_time_seconds": 0, "coding_time_seconds_today": 0, "balance": "You need to have a pocket watcher badge to view this.", "badges": [], "created_at": "2025-09-06T13:05:47.499-04:00", "updated_at": "2025-09-09T22:03:22.798-04:00", "avatar": "https://avatars.slack-edge.com/2025-09-09/9474795724711_78a2591eddd3552d2e06_original.png", "custom_css": null}, {"id": 23171, "slack_id": "U08H2BFAB1Q", "display_name": "Raqeeb", "bio": null, "projects_count": 1, "devlogs_count": 3, "votes_count": 6, "ships_count": 1, "projects": [{"id": 13335, "title": "Secure Password Generator", "devlogs_count": 1, "created_at": "2025-09-14T08:26:24.561-04:00"}], "coding_time_seconds": 477447, "coding_time_seconds_today": 1868, "balance": "You need to have a pocket watcher badge to view this.", "badges": [], "created_at": "2025-09-06T13:16:53.346-04:00", "updated_at": "2025-09-09T07:11:20.530-04:00", "avatar": "https://avatars.slack-edge.com/2025-08-22/9407004863809_f48bdfedb6a672a2e652_original.jpg", "custom_css": null}, {"id": 23204, "slack_id": "U09E0UB1C04", "display_name": "DEV", "bio": null, "projects_count": 0, "devlogs_count": 0, "votes_count": 0, "ships_count": 0, "projects": [], "coding_time_seconds": 0, "coding_time_seconds_today": 0, "balance": "You need to have a pocket watcher badge to view this.", "badges": [], "created_at": "2025-09-06T14:33:57.631-04:00", "updated_at": "2025-09-06T16:03:27.505-04:00", "avatar": "https://secure.gravatar.com/avatar/63717a6d2acd16d29a81bdd998875682.jpg?s=512&d=https%3A%2F%2Fa.slack-edge.com%2Fdf10d%2Fimg%2Favatars%2Fava_0023-512.png", "custom_css": null}, {"id": 23205, "slack_id": "U09E70X7TJL", "display_name": "Ivy", "bio": "", "projects_count": 1, "devlogs_count": 3, "votes_count": 23, "ships_count": 1, "projects": [{"id": 12987, "title": "my website", "devlogs_count": 3, "created_at": "2025-09-06T15:24:55.811-04:00"}], "coding_time_seconds": 16112, "coding_time_seconds_today": 553, "balance": "You need to have a pocket watcher badge to view this.", "badges": [], "created_at": "2025-09-06T14:52:26.296-04:00", "updated_at": "2025-09-08T04:03:19.179-04:00", "avatar": "https://avatars.slack-edge.com/2025-09-07/9476488234390_55ff7e41d060415cddfa_original.jpg", "custom_css": null}, {"id": 23206, "slack_id": "U09DSMD0LTD", "display_name": "Yashika garg", "bio": null, "projects_count": 0, "devlogs_count": 0, "votes_count": 0, "ships_count": 0, "projects": [], "coding_time_seconds": 0, "coding_time_seconds_today": 0, "balance": "You need to have a pocket watcher badge to view this.", "badges": [], "created_at": "2025-09-06T15:22:48.570-04:00", "updated_at": "2025-09-06T16:03:27.713-04:00", "avatar": "https://secure.gravatar.com/avatar/b4245ffbcf335facea77be67fee7138e.jpg?s=512&d=https%3A%2F%2Fa.slack-edge.com%2Fdf10d%2Fimg%2Favatars%2Fava_0006-512.png", "custom_css": null}, {"id": 23207, "slack_id": "U09DX2UFNHG", "display_name": "TS", "bio": null, "projects_count": 0, "devlogs_count": 0, "votes_count": 0, "ships_count": 0, "projects": [], "coding_time_seconds": 0, "coding_time_seconds_today": 0, "balance": "You need to have a pocket watcher badge to view this.", "badges": [], "created_at": "2025-09-06T16:02:12.696-04:00", "updated_at": "2025-09-06T22:03:24.016-04:00", "avatar": "https://secure.gravatar.com/avatar/c42bf34b99439fa0db1a95be0a109b2e.jpg?s=512&d=https%3A%2F%2Fa.slack-edge.com%2Fdf10d%2Fimg%2Favatars%2Fava_0019-512.png", "custom_css": null}, {"id": 23208, "slack_id": "U041S1E2BL5", "display_name": "Ayaan", "bio": null, "projects_count": 0, "devlogs_count": 0, "votes_count": 0, "ships_count": 0, "projects": [], "coding_time_seconds": 0, "coding_time_seconds_today": 0, "balance": "You need to have a pocket watcher badge to view this.", "badges": [], "created_at": "2025-09-06T16:10:54.188-04:00", "updated_at": "2025-09-06T16:25:47.584-04:00", "avatar": "https://avatars.slack-edge.com/2022-09-10/4076551629745_ebb8123ba9cdfcd1630b_original.png", "custom_css": null}, {"id": 23209, "slack_id": "U09DG1NA7LP", "display_name": "Sptrect", "bio": null, "projects_count": 0, "devlogs_count": 0, "votes_count": 0, "ships_count": 0, "projects": [], "coding_time_seconds": 0, "coding_time_seconds_today": 0, "balance": "You need to have a pocket watcher badge to view this.", "badges": [], "created_at": "2025-09-06T16:11:32.193-04:00", "updated_at": "2025-09-06T22:03:24.218-04:00", "avatar": "https://secure.gravatar.com/avatar/da6bf6348bb162fb141fe4ca78e8a301.jpg?s=512&d=https%3A%2F%2Fa.slack-edge.com%2Fdf10d%2Fimg%2Favatars%2Fava_0024-512.png", "custom_css": null}, {"id": 23210, "slack_id": "U09DG1NPV7Z", "display_name": "Samuel", "bio": null, "projects_count": 0, "devlogs_count": 0, "votes_count": 0, "ships_count": 0, "projects": [], "coding_time_seconds": 0, "coding_time_seconds_today": 0, "balance": "You need to have a pocket watcher badge to view this.", "badges": [], "created_at": "2025-09-06T16:21:43.221-04:00", "updated_at": "2025-09-07T02:00:06.338-04:00", "avatar": "https://avatars.slack-edge.com/2025-09-06/9473279330706_357e40c727d3dcf044d3_original.jpg", "custom_css": null}, {"id": 23211, "slack_id": "U09DU2LNE1G", "display_name": "happi", "bio": null, "projects_count": 0, "devlogs_count": 0, "votes_count": 0, "ships_count": 0, "projects": [], "coding_time_seconds": 0, "coding_time_seconds_today": 0, "balance": "You need to have a pocket watcher badge to view this.", "badges": [], "created_at": "2025-09-06T16:38:51.629-04:00", "updated_at": "2025-09-06T22:03:24.430-04:00", "avatar": "https://secure.gravatar.com/avatar/e0cf42fdad128ce329cd41ece621e0a8.jpg?s=512&d=https%3A%2F%2Fa.slack-edge.com%2Fdf10d%2Fimg%2Favatars%2Fava_0002-512.png", "custom_css": null}, {"id": 23212, "slack_id": "U092TP8QECR", "display_name": "Abhishek Sharma", "bio": null, "projects_count": 0, "devlogs_count": 0, "votes_count": 0, "ships_count": 0, "projects": [], "coding_time_seconds": 0, "coding_time_seconds_today": 0, "balance": "You need to have a pocket watcher badge to view this.", "badges": [], "created_at": "2025-09-06T16:42:04.536-04:00", "updated_at": "2025-09-06T22:03:24.535-04:00", "avatar": "https://secure.gravatar.com/avatar/8fcc136def0f0cc80ac2325d3acbcb3b.jpg?s=512&d=https%3A%2F%2Fa.slack-edge.com%2Fdf10d%2Fimg%2Favatars%2Fava_0021-512.png", "custom_css": null}, {"id": 23213, "slack_id": "U09EASRPDR7", "display_name": "Sunjot", "bio": null, "projects_count": 1, "devlogs_count": 0, "votes_count": 1, "ships_count": 0, "projects": [{"id": 13003, "title": "Reaction Time Game", "devlogs_count": 0, "created_at": "2025-09-06T18:40:37.470-04:00"}], "coding_time_seconds": 19724, "coding_time_seconds_today": 0, "balance": "You need to have a pocket watcher badge to view this.", "badges": [], "created_at": "2025-09-06T16:42:58.403-04:00", "updated_at": "2025-09-16T20:25:47.271-04:00", "avatar": "https://avatars.slack-edge.com/2025-09-16/9529825192774_9bd6644a61df49b1b17a_original.jpg", "custom_css": null}, {"id": 23214, "slack_id": "U09DSRG9543", "display_name": "Samah", "bio": null, "projects_count": 0, "devlogs_count": 0, "votes_count": 0, "ships_count": 0, "projects": [], "coding_time_seconds": 0, "coding_time_seconds_today": 0, "balance": "You need to have a pocket watcher badge to view this.", "badges": [], "created_at": "2025-09-06T16:43:29.830-04:00", "updated_at": "2025-09-07T08:18:08.275-04:00", "avatar": "https://avatars.slack-edge.com/2025-09-06/9499908699040_6f3bf67013fbe5afd03b_original.png", "custom_css": null}, {"id": 23215, "slack_id": "U09DXFHJB1C", "display_name": "Smahiuh", "bio": null, "projects_count": 0, "devlogs_count": 0, "votes_count": 0, "ships_count": 0, "projects": [], "coding_time_seconds": 0, "coding_time_seconds_today": 0, "balance": "You need to have a pocket watcher badge to view this.", "badges": [], "created_at": "2025-09-06T16:52:04.525-04:00", "updated_at": "2025-09-08T22:03:35.904-04:00", "avatar": "https://avatars.slack-edge.com/2025-09-09/9468511050151_0440582d5b6131c07baf_original.jpg", "custom_css": null}, {"id": 23216, "slack_id": "U09EATE3W8H", "display_name": "SoM Test", "bio": null, "projects_count": 0, "devlogs_count": 0, "votes_count": 0, "ships_count": 0, "projects": [], "coding_time_seconds": 0, "coding_time_seconds_today": 0, "balance": "You need to have a pocket watcher badge to view this.", "badges": [], "created_at": "2025-09-06T16:58:48.300-04:00", "updated_at": "2025-09-06T17:00:14.506-04:00", "avatar": "https://secure.gravatar.com/avatar/1a53ed0faa696fe11ca6837b1c5fe308.jpg?s=512&d=https%3A%2F%2Fa.slack-edge.com%2Fdf10d%2Fimg%2Favatars%2Fava_0016-512.png", "custom_css": null}, {"id": 23217, "slack_id": "U09E10FS7FE", "display_name": "L.L", "bio": null, "projects_count": 0, "devlogs_count": 0, "votes_count": 0, "ships_count": 0, "projects": [], "coding_time_seconds": 0, "coding_time_seconds_today": 0, "balance": "You need to have a pocket watcher badge to view this.", "badges": [], "created_at": "2025-09-06T17:26:51.900-04:00", "updated_at": "2025-09-06T22:03:29.159-04:00", "avatar": "https://secure.gravatar.com/avatar/f3c82f13402699448786acc1b7956877.jpg?s=512&d=https%3A%2F%2Fa.slack-edge.com%2Fdf10d%2Fimg%2Favatars%2Fava_0011-512.png", "custom_css": null}], "pagination": {"page": 1155, "pages": 1192, "count": 23828, "items": 20}}