{"users": [{"id": 23238, "slack_id": "U09DYDJPYLS", "display_name": "Jayadeep", "bio": null, "projects_count": 0, "devlogs_count": 0, "votes_count": 0, "ships_count": 0, "projects": [], "coding_time_seconds": 0, "coding_time_seconds_today": 0, "balance": "You need to have a pocket watcher badge to view this.", "badges": [], "created_at": "2025-09-07T07:14:15.722-04:00", "updated_at": "2025-09-07T23:34:56.946-04:00", "avatar": "https://secure.gravatar.com/avatar/f1698f6bf66fcf22b2505bcf5b840277.jpg?s=512&d=https%3A%2F%2Fa.slack-edge.com%2Fdf10d%2Fimg%2Favatars%2Fava_0008-512.png", "custom_css": null}, {"id": 23239, "slack_id": "U09DHE7135M", "display_name": "Taha mad", "bio": null, "projects_count": 0, "devlogs_count": 0, "votes_count": 0, "ships_count": 0, "projects": [], "coding_time_seconds": 0, "coding_time_seconds_today": 0, "balance": "You need to have a pocket watcher badge to view this.", "badges": [], "created_at": "2025-09-07T07:16:29.177-04:00", "updated_at": "2025-09-07T14:45:21.220-04:00", "avatar": "https://secure.gravatar.com/avatar/7d7564a9e273b951f572e450b7003f18.jpg?s=512&d=https%3A%2F%2Fa.slack-edge.com%2Fdf10d%2Fimg%2Favatars%2Fava_0012-512.png", "custom_css": null}, {"id": 23240, "slack_id": "U09DU8AJSPM", "display_name": "srikal", "bio": null, "projects_count": 0, "devlogs_count": 0, "votes_count": 0, "ships_count": 0, "projects": [], "coding_time_seconds": 0, "coding_time_seconds_today": 0, "balance": "You need to have a pocket watcher badge to view this.", "badges": [], "created_at": "2025-09-07T07:36:00.168-04:00", "updated_at": "2025-09-07T10:03:34.418-04:00", "avatar": "https://secure.gravatar.com/avatar/5cf19828c0f714aa767af0dba4a7fbc5.jpg?s=512&d=https%3A%2F%2Fa.slack-edge.com%2Fdf10d%2Fimg%2Favatars%2Fava_0010-512.png", "custom_css": null}, {"id": 23241, "slack_id": "U09DYFFDT6E", "display_name": "Xmorinori", "bio": null, "projects_count": 0, "devlogs_count": 0, "votes_count": 0, "ships_count": 0, "projects": [], "coding_time_seconds": 0, "coding_time_seconds_today": 0, "balance": "You need to have a pocket watcher badge to view this.", "badges": [], "created_at": "2025-09-07T07:55:57.536-04:00", "updated_at": "2025-09-07T12:00:05.444-04:00", "avatar": "https://avatars.slack-edge.com/2025-09-07/9459559858727_eda770a1bb63ef637259_original.jpg", "custom_css": null}, {"id": 23242, "slack_id": "U087NTKEGV6", "display_name": "Tijme", "bio": null, "projects_count": 0, "devlogs_count": 0, "votes_count": 0, "ships_count": 0, "projects": [], "coding_time_seconds": 0, "coding_time_seconds_today": 0, "balance": "You need to have a pocket watcher badge to view this.", "badges": [], "created_at": "2025-09-07T08:19:41.875-04:00", "updated_at": "2025-09-07T10:03:38.734-04:00", "avatar": "https://secure.gravatar.com/avatar/e7929035a6ec9b446ac5c1e6149fa926.jpg?s=512&d=https%3A%2F%2Fa.slack-edge.com%2Fdf10d%2Fimg%2Favatars%2Fava_0026-512.png", "custom_css": null}, {"id": 23243, "slack_id": "U09DTK13AG3", "display_name": "Srikar Kovvali", "bio": null, "projects_count": 0, "devlogs_count": 0, "votes_count": 0, "ships_count": 0, "projects": [], "coding_time_seconds": 0, "coding_time_seconds_today": 0, "balance": "You need to have a pocket watcher badge to view this.", "badges": [], "created_at": "2025-09-07T08:37:44.709-04:00", "updated_at": "2025-09-07T10:03:38.889-04:00", "avatar": "https://secure.gravatar.com/avatar/49852f721c4d20e46bfe3345bde1c0b4.jpg?s=512&d=https%3A%2F%2Fa.slack-edge.com%2Fdf10d%2Fimg%2Favatars%2Fava_0011-512.png", "custom_css": null}, {"id": 23244, "slack_id": "U09B0RSSBC0", "display_name": "semmarus", "bio": null, "projects_count": 0, "devlogs_count": 0, "votes_count": 0, "ships_count": 0, "projects": [], "coding_time_seconds": 0, "coding_time_seconds_today": 0, "balance": "You need to have a pocket watcher badge to view this.", "badges": [], "created_at": "2025-09-07T08:45:19.347-04:00", "updated_at": "2025-09-07T10:03:39.092-04:00", "avatar": "https://avatars.slack-edge.com/2025-09-07/9459660568519_f304ce0e599f1175754b_original.jpg", "custom_css": null}, {"id": 23245, "slack_id": "U08R29RNQ0Z", "display_name": "Afonso Ingl\u00eas (ALT)", "bio": null, "projects_count": 0, "devlogs_count": 0, "votes_count": 0, "ships_count": 0, "projects": [], "coding_time_seconds": 0, "coding_time_seconds_today": 0, "balance": "You need to have a pocket watcher badge to view this.", "badges": [], "created_at": "2025-09-07T09:25:05.261-04:00", "updated_at": "2025-09-07T10:03:39.305-04:00", "avatar": "https://secure.gravatar.com/avatar/392e83c05107a6ad13b9e9e0b1c988cb.jpg?s=512&d=https%3A%2F%2Fa.slack-edge.com%2Fdf10d%2Fimg%2Favatars%2Fava_0022-512.png", "custom_css": null}, {"id": 23246, "slack_id": "U099QB0BJNA", "display_name": "Seun", "bio": null, "projects_count": 0, "devlogs_count": 0, "votes_count": 0, "ships_count": 0, "projects": [], "coding_time_seconds": 0, "coding_time_seconds_today": 0, "balance": "You need to have a pocket watcher badge to view this.", "badges": [], "created_at": "2025-09-07T09:31:25.990-04:00", "updated_at": "2025-09-07T10:03:39.484-04:00", "avatar": "https://secure.gravatar.com/avatar/9728606f9768d4c0ff3f22c96c84a156.jpg?s=512&d=https%3A%2F%2Fa.slack-edge.com%2Fdf10d%2Fimg%2Favatars%2Fava_0016-512.png", "custom_css": null}, {"id": 23247, "slack_id": "U09DHMA50B1", "display_name": "Monish Gore", "bio": null, "projects_count": 0, "devlogs_count": 0, "votes_count": 0, "ships_count": 0, "projects": [], "coding_time_seconds": 182, "coding_time_seconds_today": 0, "balance": "You need to have a pocket watcher badge to view this.", "badges": [], "created_at": "2025-09-07T09:36:33.505-04:00", "updated_at": "2025-09-07T10:03:39.580-04:00", "avatar": "https://secure.gravatar.com/avatar/c480141b857f3f70383eb9ad21073c7f.jpg?s=512&d=https%3A%2F%2Fa.slack-edge.com%2Fdf10d%2Fimg%2Favatars%2Fava_0005-512.png", "custom_css": null}, {"id": 23248, "slack_id": "U09DWEF492S", "display_name": "Harshavardhan L", "bio": null, "projects_count": 0, "devlogs_count": 0, "votes_count": 0, "ships_count": 0, "projects": [], "coding_time_seconds": 0, "coding_time_seconds_today": 0, "balance": "You need to have a pocket watcher badge to view this.", "badges": [], "created_at": "2025-09-07T10:24:09.602-04:00", "updated_at": "2025-09-07T16:03:37.360-04:00", "avatar": "https://secure.gravatar.com/avatar/d5c6453f8b9e337caec741b917ba67b0.jpg?s=512&d=https%3A%2F%2Fa.slack-edge.com%2Fdf10d%2Fimg%2Favatars%2Fava_0023-512.png", "custom_css": null}, {"id": 23249, "slack_id": "U09DHRUUZC7", "display_name": "PONDURI VIJAY SATHWIK", "bio": null, "projects_count": 0, "devlogs_count": 0, "votes_count": 0, "ships_count": 0, "projects": [], "coding_time_seconds": 0, "coding_time_seconds_today": 0, "balance": "You need to have a pocket watcher badge to view this.", "badges": [], "created_at": "2025-09-07T10:55:49.096-04:00", "updated_at": "2025-09-07T16:03:37.474-04:00", "avatar": "https://secure.gravatar.com/avatar/4af789cf2eebccdcb80903dc80fe202e.jpg?s=512&d=https%3A%2F%2Fa.slack-edge.com%2Fdf10d%2Fimg%2Favatars%2Fava_0023-512.png", "custom_css": null}, {"id": 23250, "slack_id": "U09DYR8CSBC", "display_name": "Ahmad Mahmood Malhi", "bio": null, "projects_count": 1, "devlogs_count": 0, "votes_count": 1, "ships_count": 0, "projects": [{"id": 13451, "title": "My Testing For CS", "devlogs_count": 0, "created_at": "2025-09-16T18:01:21.254-04:00"}], "coding_time_seconds": 13484, "coding_time_seconds_today": 0, "balance": "You need to have a pocket watcher badge to view this.", "badges": [], "created_at": "2025-09-07T11:00:42.847-04:00", "updated_at": "2025-09-07T16:03:37.595-04:00", "avatar": "https://secure.gravatar.com/avatar/729395f2dcc78c2d04a004c012e776df.jpg?s=512&d=https%3A%2F%2Fa.slack-edge.com%2Fdf10d%2Fimg%2Favatars%2Fava_0010-512.png", "custom_css": null}, {"id": 23251, "slack_id": "U09DHSV6XD5", "display_name": "youu", "bio": "", "projects_count": 1, "devlogs_count": 6, "votes_count": 1, "ships_count": 0, "projects": [{"id": 13193, "title": "Minecraft Modding", "devlogs_count": 6, "created_at": "2025-09-11T10:51:51.961-04:00"}], "coding_time_seconds": 42430, "coding_time_seconds_today": 0, "balance": "You need to have a pocket watcher badge to view this.", "badges": [], "created_at": "2025-09-07T11:11:42.559-04:00", "updated_at": "2025-09-08T02:16:07.689-04:00", "avatar": "https://secure.gravatar.com/avatar/fe0045fb92fc07c75db7941b6c4f687e.jpg?s=512&d=https%3A%2F%2Fa.slack-edge.com%2Fdf10d%2Fimg%2Favatars%2Fava_0007-512.png", "custom_css": null}, {"id": 23252, "slack_id": "U09DULLM8CB", "display_name": "Kary Lin", "bio": null, "projects_count": 0, "devlogs_count": 0, "votes_count": 0, "ships_count": 0, "projects": [], "coding_time_seconds": 0, "coding_time_seconds_today": 0, "balance": "You need to have a pocket watcher badge to view this.", "badges": [], "created_at": "2025-09-07T11:27:48.307-04:00", "updated_at": "2025-09-07T16:03:37.869-04:00", "avatar": "https://secure.gravatar.com/avatar/737c1a214f5e3444d01b75764f25fdbd.jpg?s=512&d=https%3A%2F%2Fa.slack-edge.com%2Fdf10d%2Fimg%2Favatars%2Fava_0007-512.png", "custom_css": null}, {"id": 23253, "slack_id": "U09DWFF6L85", "display_name": "Kiran", "bio": null, "projects_count": 0, "devlogs_count": 0, "votes_count": 0, "ships_count": 0, "projects": [], "coding_time_seconds": 0, "coding_time_seconds_today": 0, "balance": "You need to have a pocket watcher badge to view this.", "badges": [], "created_at": "2025-09-07T11:35:22.301-04:00", "updated_at": "2025-09-07T16:03:37.993-04:00", "avatar": "https://secure.gravatar.com/avatar/9b4232b4a6e720a49134bbda0874138e.jpg?s=512&d=https%3A%2F%2Fa.slack-edge.com%2Fdf10d%2Fimg%2Favatars%2Fava_0015-512.png", "custom_css": null}, {"id": 23254, "slack_id": "U09CXDK9X2A", "display_name": "Muhammad Salman", "bio": null, "projects_count": 0, "devlogs_count": 0, "votes_count": 0, "ships_count": 0, "projects": [], "coding_time_seconds": 7725, "coding_time_seconds_today": 0, "balance": "You need to have a pocket watcher badge to view this.", "badges": [], "created_at": "2025-09-07T11:46:32.289-04:00", "updated_at": "2025-09-08T07:14:57.359-04:00", "avatar": "https://secure.gravatar.com/avatar/a2cb3ea46bd03f5ee13384707a8a3042.jpg?s=512&d=https%3A%2F%2Fa.slack-edge.com%2Fdf10d%2Fimg%2Favatars%2Fava_0010-512.png", "custom_css": null}, {"id": 23255, "slack_id": "U09ERL4LFPS", "display_name": "Moki", "bio": "", "projects_count": 2, "devlogs_count": 3, "votes_count": 5, "ships_count": 0, "projects": [{"id": 13165, "title": "Product landing page", "devlogs_count": 0, "created_at": "2025-09-10T10:37:36.054-04:00"}, {"id": 13487, "title": "sCalc - Simple Calculator", "devlogs_count": 3, "created_at": "2025-09-17T15:16:09.336-04:00"}], "coding_time_seconds": 81018, "coding_time_seconds_today": 265, "balance": "You need to have a pocket watcher badge to view this.", "badges": [], "created_at": "2025-09-07T12:01:14.927-04:00", "updated_at": "2025-09-07T16:03:38.248-04:00", "avatar": "https://avatars.slack-edge.com/2025-09-07/9479202935076_32a5d8e4aefb9b945982_original.jpg", "custom_css": null}, {"id": 23256, "slack_id": "U09ERLV7BS4", "display_name": "Olivia Emad", "bio": null, "projects_count": 0, "devlogs_count": 0, "votes_count": 0, "ships_count": 0, "projects": [], "coding_time_seconds": 0, "coding_time_seconds_today": 0, "balance": "You need to have a pocket watcher badge to view this.", "badges": [], "created_at": "2025-09-07T12:11:43.982-04:00", "updated_at": "2025-09-07T19:19:41.217-04:00", "avatar": "https://secure.gravatar.com/avatar/e9f39a743073b11b4a14be832e00a9f6.jpg?s=512&d=https%3A%2F%2Fa.slack-edge.com%2Fdf10d%2Fimg%2Favatars%2Fava_0003-512.png", "custom_css": null}, {"id": 23257, "slack_id": "U09DZ1Q9866", "display_name": "lansky1228", "bio": null, "projects_count": 0, "devlogs_count": 0, "votes_count": 0, "ships_count": 0, "projects": [], "coding_time_seconds": 0, "coding_time_seconds_today": 0, "balance": "You need to have a pocket watcher badge to view this.", "badges": [], "created_at": "2025-09-07T12:48:58.247-04:00", "updated_at": "2025-09-11T04:03:57.865-04:00", "avatar": "https://avatars.slack-edge.com/2025-09-10/9521987469216_c91a3d058b67828c9663_original.jpg", "custom_css": null}], "pagination": {"page": 1157, "pages": 1192, "count": 23828, "items": 20}}