{"users": [{"id": 23258, "slack_id": "U09DZ3AFWFL", "display_name": "Mostafa AbdelMoneim", "bio": "I am a passionate developer that specializes at Web Development and also like Game Development as a hobby and for fun", "projects_count": 0, "devlogs_count": 0, "votes_count": 0, "ships_count": 0, "projects": [], "coding_time_seconds": 92221, "coding_time_seconds_today": 0, "balance": "You need to have a pocket watcher badge to view this.", "badges": [], "created_at": "2025-09-07T13:13:26.609-04:00", "updated_at": "2025-09-15T13:03:32.559-04:00", "avatar": "https://avatars.slack-edge.com/2025-09-07/9479312155732_916bd1f60fd978a6f3b9_original.png", "custom_css": null}, {"id": 23259, "slack_id": "U09DZ3E0VTL", "display_name": "Larissa Brasil", "bio": null, "projects_count": 0, "devlogs_count": 0, "votes_count": 0, "ships_count": 0, "projects": [], "coding_time_seconds": 0, "coding_time_seconds_today": 0, "balance": "You need to have a pocket watcher badge to view this.", "badges": [], "created_at": "2025-09-07T13:16:29.977-04:00", "updated_at": "2025-09-07T16:03:38.718-04:00", "avatar": "https://secure.gravatar.com/avatar/4095561d4046efd0811ff24ef45f930a.jpg?s=512&d=https%3A%2F%2Fa.slack-edge.com%2Fdf10d%2Fimg%2Favatars%2Fava_0022-512.png", "custom_css": null}, {"id": 23260, "slack_id": "U09ECM896U9", "display_name": "sms", "bio": null, "projects_count": 0, "devlogs_count": 0, "votes_count": 0, "ships_count": 0, "projects": [], "coding_time_seconds": 0, "coding_time_seconds_today": 0, "balance": "You need to have a pocket watcher badge to view this.", "badges": [], "created_at": "2025-09-07T13:23:20.918-04:00", "updated_at": "2025-09-07T16:03:38.907-04:00", "avatar": "https://secure.gravatar.com/avatar/bc3ae980674b9d8f4f228cd5be4a5526.jpg?s=512&d=https%3A%2F%2Fa.slack-edge.com%2Fdf10d%2Fimg%2Favatars%2Fava_0004-512.png", "custom_css": null}, {"id": 23261, "slack_id": "U09E3AZJUDS", "display_name": "Gleb", "bio": null, "projects_count": 0, "devlogs_count": 0, "votes_count": 0, "ships_count": 0, "projects": [], "coding_time_seconds": 0, "coding_time_seconds_today": 0, "balance": "You need to have a pocket watcher badge to view this.", "badges": [], "created_at": "2025-09-07T14:14:47.891-04:00", "updated_at": "2025-09-07T16:03:39.063-04:00", "avatar": "https://secure.gravatar.com/avatar/6dc21b7239b43fd48781cf779a255ae5.jpg?s=512&d=https%3A%2F%2Fa.slack-edge.com%2Fdf10d%2Fimg%2Favatars%2Fava_0001-512.png", "custom_css": null}, {"id": 23262, "slack_id": "U09DV11NQKD", "display_name": "Rohit", "bio": null, "projects_count": 0, "devlogs_count": 0, "votes_count": 0, "ships_count": 0, "projects": [], "coding_time_seconds": 157, "coding_time_seconds_today": 0, "balance": "You need to have a pocket watcher badge to view this.", "badges": [], "created_at": "2025-09-07T14:29:31.809-04:00", "updated_at": "2025-09-07T16:03:39.194-04:00", "avatar": "https://secure.gravatar.com/avatar/f8d68ce31191a86f7f846080c8621b48.jpg?s=512&d=https%3A%2F%2Fa.slack-edge.com%2Fdf10d%2Fimg%2Favatars%2Fava_0000-512.png", "custom_css": null}, {"id": 23263, "slack_id": "U09DJ87H6KH", "display_name": "Robs", "bio": null, "projects_count": 0, "devlogs_count": 0, "votes_count": 0, "ships_count": 0, "projects": [], "coding_time_seconds": 0, "coding_time_seconds_today": 0, "balance": "You need to have a pocket watcher badge to view this.", "badges": [], "created_at": "2025-09-07T14:31:52.344-04:00", "updated_at": "2025-09-07T16:03:39.345-04:00", "avatar": "https://secure.gravatar.com/avatar/c83cdea38d80b3b423925e550777d965.jpg?s=512&d=https%3A%2F%2Fa.slack-edge.com%2Fdf10d%2Fimg%2Favatars%2Fava_0005-512.png", "custom_css": null}, {"id": 23264, "slack_id": "U09DJ8BNECX", "display_name": "Aarav Chokshi", "bio": null, "projects_count": 0, "devlogs_count": 0, "votes_count": 0, "ships_count": 0, "projects": [], "coding_time_seconds": 0, "coding_time_seconds_today": 0, "balance": "You need to have a pocket watcher badge to view this.", "badges": [], "created_at": "2025-09-07T14:36:06.280-04:00", "updated_at": "2025-09-07T16:03:39.468-04:00", "avatar": "https://avatars.slack-edge.com/2025-09-07/9471053038899_b889c7ee4a1805f59856_original.jpg", "custom_css": null}, {"id": 23265, "slack_id": "U09DUHTFB9P", "display_name": "Nkosazanajobe", "bio": null, "projects_count": 0, "devlogs_count": 0, "votes_count": 0, "ships_count": 0, "projects": [], "coding_time_seconds": 0, "coding_time_seconds_today": 0, "balance": "You need to have a pocket watcher badge to view this.", "badges": [], "created_at": "2025-09-07T14:47:43.629-04:00", "updated_at": "2025-09-07T16:03:40.047-04:00", "avatar": "https://secure.gravatar.com/avatar/eb7bcfb193d777e07fa063268d63dd21.jpg?s=512&d=https%3A%2F%2Fa.slack-edge.com%2Fdf10d%2Fimg%2Favatars%2Fava_0013-512.png", "custom_css": null}, {"id": 23266, "slack_id": "U091CMM9NBH", "display_name": "Yusha", "bio": null, "projects_count": 0, "devlogs_count": 0, "votes_count": 0, "ships_count": 0, "projects": [], "coding_time_seconds": 0, "coding_time_seconds_today": 0, "balance": "You need to have a pocket watcher badge to view this.", "badges": [], "created_at": "2025-09-07T15:20:10.563-04:00", "updated_at": "2025-09-07T16:03:40.156-04:00", "avatar": "https://secure.gravatar.com/avatar/eb9933f37953b4e6b04d8ed0e5c1956a.jpg?s=512&d=https%3A%2F%2Fa.slack-edge.com%2Fdf10d%2Fimg%2Favatars%2Fava_0017-512.png", "custom_css": null}, {"id": 23267, "slack_id": "U09DWUB7F5K", "display_name": "Adweik", "bio": null, "projects_count": 0, "devlogs_count": 0, "votes_count": 0, "ships_count": 0, "projects": [], "coding_time_seconds": 0, "coding_time_seconds_today": 0, "balance": "You need to have a pocket watcher badge to view this.", "badges": [], "created_at": "2025-09-07T15:27:30.527-04:00", "updated_at": "2025-09-07T20:38:58.311-04:00", "avatar": "https://secure.gravatar.com/avatar/38c68346ca31a7a43f087012ebb569a7.jpg?s=512&d=https%3A%2F%2Fa.slack-edge.com%2Fdf10d%2Fimg%2Favatars%2Fava_0010-512.png", "custom_css": null}, {"id": 23268, "slack_id": "U09ES0RC8HE", "display_name": "AB", "bio": null, "projects_count": 0, "devlogs_count": 0, "votes_count": 0, "ships_count": 0, "projects": [], "coding_time_seconds": 0, "coding_time_seconds_today": 0, "balance": "You need to have a pocket watcher badge to view this.", "badges": [], "created_at": "2025-09-07T15:27:50.825-04:00", "updated_at": "2025-09-07T16:03:40.406-04:00", "avatar": "https://secure.gravatar.com/avatar/9018f044d425c1f9ec71dfdab88abf72.jpg?s=512&d=https%3A%2F%2Fa.slack-edge.com%2Fdf10d%2Fimg%2Favatars%2Fava_0009-512.png", "custom_css": null}, {"id": 23269, "slack_id": "U09DJGRAM6K", "display_name": "Evan", "bio": null, "projects_count": 1, "devlogs_count": 2, "votes_count": 1, "ships_count": 0, "projects": [{"id": 13051, "title": "Everything Space and Air", "devlogs_count": 2, "created_at": "2025-09-07T17:50:29.281-04:00"}], "coding_time_seconds": 15218, "coding_time_seconds_today": 0, "balance": "You need to have a pocket watcher badge to view this.", "badges": [], "created_at": "2025-09-07T17:20:05.407-04:00", "updated_at": "2025-09-08T01:00:09.951-04:00", "avatar": "https://secure.gravatar.com/avatar/be33903a9454ac9e320fc606c08063c0.jpg?s=512&d=https%3A%2F%2Fa.slack-edge.com%2Fdf10d%2Fimg%2Favatars%2Fava_0017-512.png", "custom_css": null}, {"id": 23270, "slack_id": "U09ED3HCWJD", "display_name": "Tolu Adewuyi", "bio": null, "projects_count": 0, "devlogs_count": 0, "votes_count": 0, "ships_count": 0, "projects": [], "coding_time_seconds": 0, "coding_time_seconds_today": 0, "balance": "You need to have a pocket watcher badge to view this.", "badges": [], "created_at": "2025-09-07T17:50:04.142-04:00", "updated_at": "2025-09-07T22:03:56.715-04:00", "avatar": "https://avatars.slack-edge.com/2025-09-07/9475601878034_45bbe02a87f5fe636371_original.png", "custom_css": null}, {"id": 23271, "slack_id": "U09DVCYDKFV", "display_name": "Arjun N", "bio": null, "projects_count": 0, "devlogs_count": 0, "votes_count": 0, "ships_count": 0, "projects": [], "coding_time_seconds": 49, "coding_time_seconds_today": 0, "balance": "You need to have a pocket watcher badge to view this.", "badges": [], "created_at": "2025-09-07T18:46:20.838-04:00", "updated_at": "2025-09-07T22:03:56.848-04:00", "avatar": "https://secure.gravatar.com/avatar/c05b64ce5cd01073a6cd6395f29a6ef6.jpg?s=512&d=https%3A%2F%2Fa.slack-edge.com%2Fdf10d%2Fimg%2Favatars%2Fava_0001-512.png", "custom_css": null}, {"id": 23272, "slack_id": "U06T7JH2ULC", "display_name": "Roshan Sathish", "bio": null, "projects_count": 0, "devlogs_count": 0, "votes_count": 0, "ships_count": 0, "projects": [], "coding_time_seconds": 9994, "coding_time_seconds_today": 0, "balance": "You need to have a pocket watcher badge to view this.", "badges": [], "created_at": "2025-09-07T18:49:42.479-04:00", "updated_at": "2025-09-08T01:00:06.473-04:00", "avatar": "https://avatars.slack-edge.com/2024-04-06/6920247476853_ef55d16c6825d4aa7131_original.jpg", "custom_css": null}, {"id": 23273, "slack_id": "U09DJMWTL07", "display_name": "Shreemahor Sivakumar", "bio": null, "projects_count": 1, "devlogs_count": 0, "votes_count": 2, "ships_count": 0, "projects": [{"id": 13217, "title": "The AI Comedian \ud83d\ude39", "devlogs_count": 0, "created_at": "2025-09-11T23:27:00.765-04:00"}], "coding_time_seconds": 46822, "coding_time_seconds_today": 0, "balance": "You need to have a pocket watcher badge to view this.", "badges": [], "created_at": "2025-09-07T19:01:53.780-04:00", "updated_at": "2025-09-11T21:42:19.380-04:00", "avatar": "https://secure.gravatar.com/avatar/18d6290607effc6e85d50d92411940f3.jpg?s=512&d=https%3A%2F%2Fa.slack-edge.com%2Fdf10d%2Fimg%2Favatars%2Fava_0000-512.png", "custom_css": null}, {"id": 23274, "slack_id": "U09DZS74X1Q", "display_name": "Ashley", "bio": null, "projects_count": 0, "devlogs_count": 0, "votes_count": 0, "ships_count": 0, "projects": [], "coding_time_seconds": 0, "coding_time_seconds_today": 0, "balance": "You need to have a pocket watcher badge to view this.", "badges": [], "created_at": "2025-09-07T20:14:10.252-04:00", "updated_at": "2025-09-07T22:03:57.179-04:00", "avatar": "https://secure.gravatar.com/avatar/b4fb95d1d88d89a0847226781279fbb3.jpg?s=512&d=https%3A%2F%2Fa.slack-edge.com%2Fdf10d%2Fimg%2Favatars%2Fava_0009-512.png", "custom_css": null}, {"id": 23275, "slack_id": "U09APC689T6", "display_name": "holmes", "bio": null, "projects_count": 0, "devlogs_count": 0, "votes_count": 0, "ships_count": 0, "projects": [], "coding_time_seconds": 0, "coding_time_seconds_today": 0, "balance": "You need to have a pocket watcher badge to view this.", "badges": [], "created_at": "2025-09-07T20:25:32.289-04:00", "updated_at": "2025-09-07T22:03:57.311-04:00", "avatar": "https://secure.gravatar.com/avatar/c47d181b733eb9725a38fde0d2f9f036.jpg?s=512&d=https%3A%2F%2Fa.slack-edge.com%2Fdf10d%2Fimg%2Favatars%2Fava_0017-512.png", "custom_css": null}, {"id": 23276, "slack_id": "U09DZTR3ZD0", "display_name": "Srini", "bio": null, "projects_count": 0, "devlogs_count": 0, "votes_count": 0, "ships_count": 0, "projects": [], "coding_time_seconds": 0, "coding_time_seconds_today": 0, "balance": "You need to have a pocket watcher badge to view this.", "badges": [], "created_at": "2025-09-07T20:29:43.792-04:00", "updated_at": "2025-09-07T22:03:57.463-04:00", "avatar": "https://secure.gravatar.com/avatar/c3e659dc218971f2fbdd53ef8fa90b10.jpg?s=512&d=https%3A%2F%2Fa.slack-edge.com%2Fdf10d%2Fimg%2Favatars%2Fava_0010-512.png", "custom_css": null}, {"id": 23277, "slack_id": "U07LKN7R0EM", "display_name": "Divyansh", "bio": null, "projects_count": 0, "devlogs_count": 0, "votes_count": 0, "ships_count": 0, "projects": [], "coding_time_seconds": 0, "coding_time_seconds_today": 0, "balance": "You need to have a pocket watcher badge to view this.", "badges": [], "created_at": "2025-09-07T20:38:04.878-04:00", "updated_at": "2025-09-07T20:38:17.091-04:00", "avatar": "https://secure.gravatar.com/avatar/732694e10a6e44c9e76d974e49544e3e.jpg?s=512&d=https%3A%2F%2Fa.slack-edge.com%2Fdf10d%2Fimg%2Favatars%2Fava_0024-512.png", "custom_css": null}], "pagination": {"page": 1158, "pages": 1192, "count": 23828, "items": 20}}