{"users": [{"id": 2301, "slack_id": "U0922NWE1ND", "display_name": "Martha", "bio": null, "projects_count": 0, "devlogs_count": 0, "votes_count": 0, "ships_count": 0, "projects": [], "coding_time_seconds": 0, "coding_time_seconds_today": 0, "balance": "You need to have a pocket watcher badge to view this.", "badges": [], "created_at": "2025-06-16T15:16:57.804-04:00", "updated_at": "2025-07-03T19:21:38.627-04:00", "avatar": "https://secure.gravatar.com/avatar/8fa0673b703006391552e529c4396fd2.jpg?s=512&d=https%3A%2F%2Fa.slack-edge.com%2Fdf10d%2Fimg%2Favatars%2Fava_0023-512.png", "custom_css": null}, {"id": 2302, "slack_id": "U0922NXJXRP", "display_name": "D\u0101niels Puzulis", "bio": null, "projects_count": 1, "devlogs_count": 0, "votes_count": 0, "ships_count": 0, "projects": [{"id": 5344, "title": "Movie sercher", "devlogs_count": 0, "created_at": "2025-07-04T15:45:17.093-04:00"}], "coding_time_seconds": 10149, "coding_time_seconds_today": 0, "balance": "You need to have a pocket watcher badge to view this.", "badges": [], "created_at": "2025-06-16T15:17:14.433-04:00", "updated_at": "2025-08-08T09:56:24.481-04:00", "avatar": "https://avatars.slack-edge.com/2025-06-16/9080707470224_4f41de178e41588c8bd9_original.png", "custom_css": null}, {"id": 2303, "slack_id": "U0918T1G42K", "display_name": "gaming spud", "bio": null, "projects_count": 0, "devlogs_count": 0, "votes_count": 0, "ships_count": 0, "projects": [], "coding_time_seconds": 0, "coding_time_seconds_today": 0, "balance": "You need to have a pocket watcher badge to view this.", "badges": [], "created_at": "2025-06-16T15:17:15.939-04:00", "updated_at": "2025-07-03T19:21:39.226-04:00", "avatar": "https://avatars.slack-edge.com/2025-06-16/9058629063140_f74fad0cced7ec4e8125_original.jpg", "custom_css": null}, {"id": 2304, "slack_id": "U092CL3L28G", "display_name": "Jumalaw98", "bio": null, "projects_count": 0, "devlogs_count": 0, "votes_count": 0, "ships_count": 0, "projects": [], "coding_time_seconds": 200972, "coding_time_seconds_today": 0, "balance": "You need to have a pocket watcher badge to view this.", "badges": [], "created_at": "2025-06-16T15:17:18.209-04:00", "updated_at": "2025-07-03T19:21:39.646-04:00", "avatar": "https://secure.gravatar.com/avatar/0e5e4108238e3f829d6202b063fdb663.jpg?s=512&d=https%3A%2F%2Fa.slack-edge.com%2Fdf10d%2Fimg%2Favatars%2Fava_0025-512.png", "custom_css": null}, {"id": 2305, "slack_id": "U091Q6XL5R8", "display_name": "Janosch", "bio": null, "projects_count": 2, "devlogs_count": 8, "votes_count": 22, "ships_count": 1, "projects": [{"id": 1930, "title": "ImposterGame with AI", "devlogs_count": 7, "created_at": "2025-06-19T16:29:09.005-04:00"}, {"id": 13563, "title": "Pausenbrot App", "devlogs_count": 1, "created_at": "2025-09-19T14:55:09.385-04:00"}], "coding_time_seconds": 187971, "coding_time_seconds_today": 0, "balance": "You need to have a pocket watcher badge to view this.", "badges": [{"name": "Maiden Voyage", "text": "you shipped your first project! the journey begins...", "icon": "\ud83d\udea2"}], "created_at": "2025-06-16T15:17:43.692-04:00", "updated_at": "2025-09-19T15:22:38.088-04:00", "avatar": "https://avatars.slack-edge.com/2025-06-19/9077328268596_aa980d83cf1da8486894_original.jpg", "custom_css": null}, {"id": 2306, "slack_id": "U09228H7ZJM", "display_name": "Rainy", "bio": null, "projects_count": 0, "devlogs_count": 0, "votes_count": 0, "ships_count": 0, "projects": [], "coding_time_seconds": 5729, "coding_time_seconds_today": 0, "balance": "You need to have a pocket watcher badge to view this.", "badges": [], "created_at": "2025-06-16T15:17:48.052-04:00", "updated_at": "2025-07-03T19:21:40.180-04:00", "avatar": "https://secure.gravatar.com/avatar/32fbe5b2bd2171fc6fbd1767264ade34.jpg?s=512&d=https%3A%2F%2Fa.slack-edge.com%2Fdf10d%2Fimg%2Favatars%2Fava_0013-512.png", "custom_css": null}, {"id": 2307, "slack_id": "U07GPJ6V3UZ", "display_name": "Anicetus", "bio": null, "projects_count": 0, "devlogs_count": 0, "votes_count": 0, "ships_count": 0, "projects": [], "coding_time_seconds": 11412, "coding_time_seconds_today": 0, "balance": "You need to have a pocket watcher badge to view this.", "badges": [], "created_at": "2025-06-16T15:17:58.454-04:00", "updated_at": "2025-09-09T16:24:49.351-04:00", "avatar": "https://avatars.slack-edge.com/2025-06-05/9000888869587_d1bea2e8680545c30386_original.png", "custom_css": null}, {"id": 2308, "slack_id": "U091QJ4RSQL", "display_name": "michele", "bio": null, "projects_count": 2, "devlogs_count": 0, "votes_count": 0, "ships_count": 0, "projects": [{"id": 214, "title": "orange pi zero 2w dht 11 google home api", "devlogs_count": 0, "created_at": "2025-06-16T15:37:56.716-04:00"}, {"id": 5499, "title": "crypto/wallet/mining pool watcher", "devlogs_count": 0, "created_at": "2025-07-05T18:01:33.025-04:00"}], "coding_time_seconds": 10032, "coding_time_seconds_today": 0, "balance": "You need to have a pocket watcher badge to view this.", "badges": [], "created_at": "2025-06-16T15:18:32.962-04:00", "updated_at": "2025-07-03T19:21:40.720-04:00", "avatar": "https://secure.gravatar.com/avatar/0477cdd5837127d0a7718e1c4b19e0d1.jpg?s=512&d=https%3A%2F%2Fa.slack-edge.com%2Fdf10d%2Fimg%2Favatars%2Fava_0011-512.png", "custom_css": null}, {"id": 2309, "slack_id": "U092CLHDUJC", "display_name": "samarth kuchya", "bio": null, "projects_count": 0, "devlogs_count": 0, "votes_count": 0, "ships_count": 0, "projects": [], "coding_time_seconds": 0, "coding_time_seconds_today": 0, "balance": "You need to have a pocket watcher badge to view this.", "badges": [], "created_at": "2025-06-16T15:18:36.442-04:00", "updated_at": "2025-07-03T19:21:40.995-04:00", "avatar": "https://secure.gravatar.com/avatar/44595a8acfeddcc12836a42421c56673.jpg?s=512&d=https%3A%2F%2Fa.slack-edge.com%2Fdf10d%2Fimg%2Favatars%2Fava_0014-512.png", "custom_css": null}, {"id": 2310, "slack_id": "U079YLMNBM1", "display_name": "Josh", "bio": null, "projects_count": 0, "devlogs_count": 0, "votes_count": 0, "ships_count": 0, "projects": [], "coding_time_seconds": 8190, "coding_time_seconds_today": 0, "balance": "You need to have a pocket watcher badge to view this.", "badges": [], "created_at": "2025-06-16T15:18:58.314-04:00", "updated_at": "2025-09-01T23:29:22.204-04:00", "avatar": "https://avatars.slack-edge.com/2024-06-26/7338952438098_5566084fb919ea4ecc76_original.png", "custom_css": null}, {"id": 2311, "slack_id": "U081XRKC2PQ", "display_name": "Laky2k8", "bio": "I'm a programmer and gamedev from Hungary, studying software development in my technical secondary school.", "projects_count": 5, "devlogs_count": 22, "votes_count": 51, "ships_count": 2, "projects": [{"id": 3218, "title": "Laky's Incredible Isometric Renderer (and maybe also RPG Engine if I have time)", "devlogs_count": 6, "created_at": "2025-06-23T13:40:53.825-04:00"}, {"id": 5870, "title": "Puszta Browser", "devlogs_count": 10, "created_at": "2025-07-08T16:18:37.805-04:00"}, {"id": 7285, "title": "Laky2k8's Site Rewrite", "devlogs_count": 1, "created_at": "2025-07-20T15:47:54.032-04:00"}, {"id": 12121, "title": "Dancing Letter GIF Generator", "devlogs_count": 4, "created_at": "2025-08-23T09:01:51.322-04:00"}, {"id": 12581, "title": "VoxVista", "devlogs_count": 1, "created_at": "2025-08-30T06:19:39.279-04:00"}], "coding_time_seconds": 420490, "coding_time_seconds_today": 0, "balance": "You need to have a pocket watcher badge to view this.", "badges": [{"name": "Maiden Voyage", "text": "you shipped your first project! the journey begins...", "icon": "\ud83d\udea2"}, {"name": "Graphic Design is My Passion", "text": "Oh God How Did This Get Here I Am Not Good With Computer", "icon": "\ud83c\udfa8"}], "created_at": "2025-06-16T15:19:09.324-04:00", "updated_at": "2025-09-12T10:56:11.944-04:00", "avatar": "https://avatars.slack-edge.com/2025-01-18/8314789098178_270254fbf15f0a40b1c1_original.png", "custom_css": "body::before {\r\n  background: url(\"https://dn721309.ca.archive.org/0/items/theoriginalfilesofsomewindowswallpapers/bliss%20600dpi.jpg\");\r\n  background-size: cover;\r\n  background-repeat: no-repeat;\r\n  background-position: center center;\r\n}\r\n\r\n.container\r\n{\r\nfont-family: Arial, Helvetica, sans-serif !important;\r\n}\r\n\r\n.rounded-md {\r\n  background: rgb(236, 233, 216) !important;\r\n  box-shadow: inset -1px -1px #00138c,inset 1px 1px #0831d9,inset -2px -2px #001ea0,inset 2px 2px #166aee,inset -3px -3px #003bda,inset 3px 3px #0855dd;\r\n  border-top-left-radius: 8px;\r\n  border-top-right-radius: 8px;\r\n  border-width: 0px;\r\n  border-top: 32px solid #003dd7 !important;\r\n  position: relative;\r\n}\r\n\r\n/* Window title */\r\n.rounded-md::before {\r\n  content: \"Project\";\r\n  position: absolute;\r\n  top: -28px;\r\n  left: 8px;\r\n  color: white;\r\n  font-family: \"Trebuchet MS\", Tahoma, sans-serif !important;\r\n  font-size: 16px;\r\n  font-weight: bold;\r\n  text-shadow: 1px 1px 0px rgba(0, 0, 0, 0.5);\r\n  z-index: 10;\r\n}\r\n\r\n/* Special titles :) */\r\n.lg\\:col-span-1.space-y-6 > .rounded-md:first-of-type::before {\r\n  content: \"Profile Info\" !important;\r\n}\r\n\r\n.rounded-md:nth-of-type(2)::before {\r\n  content: \"Badges\";\r\n}\r\n\r\n.rounded-md:nth-of-type(3)::before {\r\n  content: \"All projects\";\r\n}\r\n\r\n.rounded-md::after {\r\n  content: \"_ \u2610 \u2715\";\r\n  position: absolute;\r\n  top: -28px;\r\n  right: 8px;\r\n  color: white;\r\n  font-family: \"Trebuchet MS\", Tahoma, sans-serif !important;\r\n  font-size: 16px;\r\n  letter-spacing: 8px;\r\n  text-shadow: 1px 1px 0px rgba(0, 0, 0, 0.5);\r\n  z-index: 10;\r\n  pointer-events: none;\r\n}\r\n\r\n.rounded-md:hover::after {\r\n  filter: brightness(1.2);\r\n}\r\n\r\n.text-[#865c39]\r\n{\r\n  color: #222;\r\n}\r\n\r\nh2.text-gray-800\r\n{\r\n  display: none;\r\n}\r\n\r\na.no-underline\r\n{\r\n   font-family: font-family: Tahoma, \"Trebuchet MS\", sans-serif !important;\r\n}\r\n\r\np\r\n{\r\n  font-weight: 400;\r\n  color: black\r\n}\r\n\r\n.som-button-primary {\r\n    -webkit-font-smoothing: antialiased;\r\n    font-size: 15px;\r\n    box-sizing: border-box;\r\n    border: 1px solid #003c74;\r\n    background: linear-gradient(180deg, #fff, #ecebe5 86%, #d8d0c4);\r\n    box-shadow: none;\r\n    border-radius: 3px;\r\n}\r\n\r\n.som-button-primary:hover\r\n{\r\n    -webkit-font-smoothing: antialiased;\r\n    font-size: 15px;\r\n    box-sizing: border-box;\r\n    border: 1px solid #003c74;\r\n    background: linear-gradient(180deg, #fff, #ecebe5 86%, #d8d0c4) !important;\r\n    transform: scale(1) !important;\r\n    box-shadow: none;\r\n    border-radius: 3px;\r\n   box-shadow: inset -1px 1px #fff0cf, inset 1px 2px #fdd889, inset -2px 2px #fbc761, inset 2px -2px #e5a01a;\r\n}\r\n\r\n.som-button-primary:active\r\n{\r\n    -webkit-font-smoothing: antialiased;\r\n    font-size: 15px;\r\n    box-sizing: border-box;\r\n    border: 1px solid #003c74;\r\n    background: linear-gradient(180deg, #fff, #ecebe5 86%, #d8d0c4) !important;\r\n    transform: scale(1) !important;\r\n    box-shadow: none;\r\n    border-radius: 3px;\r\n    box-shadow: inset -1px 1px #cee7ff, inset 1px 2px #98b8ea, inset -2px 2px #bcd4f6, inset 1px -1px #89ade4, inset 2px -2px #89ade4;\r\n}\r\n\r\n.profile-avatar\r\n{\r\n   border-radius: 25px;\r\n}"}, {"id": 2312, "slack_id": "U091H8VULRH", "display_name": "Alexa", "bio": null, "projects_count": 0, "devlogs_count": 0, "votes_count": 0, "ships_count": 0, "projects": [], "coding_time_seconds": 0, "coding_time_seconds_today": 0, "balance": "You need to have a pocket watcher badge to view this.", "badges": [], "created_at": "2025-06-16T15:19:24.445-04:00", "updated_at": "2025-07-03T19:21:41.842-04:00", "avatar": "https://secure.gravatar.com/avatar/dd4a38f37bde56178bc1eb3eb1439261.jpg?s=512&d=https%3A%2F%2Fa.slack-edge.com%2Fdf10d%2Fimg%2Favatars%2Fava_0003-512.png", "custom_css": null}, {"id": 2313, "slack_id": "U091QJ095MJ", "display_name": "Wallace", "bio": null, "projects_count": 0, "devlogs_count": 0, "votes_count": 0, "ships_count": 0, "projects": [], "coding_time_seconds": 0, "coding_time_seconds_today": 0, "balance": "You need to have a pocket watcher badge to view this.", "badges": [], "created_at": "2025-06-16T15:19:41.856-04:00", "updated_at": "2025-07-03T19:21:42.127-04:00", "avatar": "https://secure.gravatar.com/avatar/6c418ff5c095722631c0999ecf945e47.jpg?s=512&d=https%3A%2F%2Fa.slack-edge.com%2Fdf10d%2Fimg%2Favatars%2Fava_0017-512.png", "custom_css": null}, {"id": 2314, "slack_id": "U091QJFM2SG", "display_name": "Lucas Garzuze Cordeiro", "bio": null, "projects_count": 0, "devlogs_count": 0, "votes_count": 0, "ships_count": 0, "projects": [], "coding_time_seconds": 809021, "coding_time_seconds_today": 0, "balance": "You need to have a pocket watcher badge to view this.", "badges": [], "created_at": "2025-06-16T15:20:24.001-04:00", "updated_at": "2025-07-03T19:21:42.401-04:00", "avatar": "https://avatars.slack-edge.com/2025-06-16/9051430778774_93728519376ab4ab4ec3_original.jpg", "custom_css": null}, {"id": 2315, "slack_id": "U091H8Z1U67", "display_name": "\u51a0\u6770\u5289", "bio": null, "projects_count": 0, "devlogs_count": 0, "votes_count": 0, "ships_count": 0, "projects": [], "coding_time_seconds": 0, "coding_time_seconds_today": 0, "balance": "You need to have a pocket watcher badge to view this.", "badges": [], "created_at": "2025-06-16T15:20:52.884-04:00", "updated_at": "2025-07-03T19:21:42.691-04:00", "avatar": "https://avatars.slack-edge.com/2025-06-16/9056486662677_6515e70350bffd4a6837_original.png", "custom_css": null}, {"id": 2316, "slack_id": "U091NDH8R1B", "display_name": "Evening", "bio": null, "projects_count": 1, "devlogs_count": 0, "votes_count": 0, "ships_count": 0, "projects": [{"id": 740, "title": "FasterProxy", "devlogs_count": 0, "created_at": "2025-06-17T07:06:37.717-04:00"}], "coding_time_seconds": 4389, "coding_time_seconds_today": 0, "balance": "You need to have a pocket watcher badge to view this.", "badges": [], "created_at": "2025-06-16T15:20:56.525-04:00", "updated_at": "2025-07-03T19:21:42.956-04:00", "avatar": "https://secure.gravatar.com/avatar/5ed4bfd565e7e52a970387cae8e0a8d6.jpg?s=512&d=https%3A%2F%2Fa.slack-edge.com%2Fdf10d%2Fimg%2Favatars%2Fava_0018-512.png", "custom_css": null}, {"id": 2317, "slack_id": "U091NDWKB45", "display_name": "somesh choudhary", "bio": null, "projects_count": 0, "devlogs_count": 0, "votes_count": 0, "ships_count": 0, "projects": [], "coding_time_seconds": 0, "coding_time_seconds_today": 0, "balance": "You need to have a pocket watcher badge to view this.", "badges": [], "created_at": "2025-06-16T15:21:10.214-04:00", "updated_at": "2025-07-03T19:21:43.232-04:00", "avatar": "https://secure.gravatar.com/avatar/6b5532bc4e2db8c3c1664103094e0742.jpg?s=512&d=https%3A%2F%2Fa.slack-edge.com%2Fdf10d%2Fimg%2Favatars%2Fava_0015-512.png", "custom_css": null}, {"id": 2318, "slack_id": "U0922PG17PT", "display_name": "Kyan", "bio": null, "projects_count": 0, "devlogs_count": 0, "votes_count": 0, "ships_count": 0, "projects": [], "coding_time_seconds": 62837, "coding_time_seconds_today": 0, "balance": "You need to have a pocket watcher badge to view this.", "badges": [], "created_at": "2025-06-16T15:21:16.050-04:00", "updated_at": "2025-07-03T19:21:43.503-04:00", "avatar": "https://secure.gravatar.com/avatar/d8b59491f8b877b7dd5467cb2a4f0081.jpg?s=512&d=https%3A%2F%2Fa.slack-edge.com%2Fdf10d%2Fimg%2Favatars%2Fava_0013-512.png", "custom_css": null}, {"id": 2319, "slack_id": "U091Q7GV2R0", "display_name": "pep", "bio": null, "projects_count": 1, "devlogs_count": 14, "votes_count": 50, "ships_count": 1, "projects": [{"id": 9323, "title": "Open Housing", "devlogs_count": 14, "created_at": "2025-07-31T15:11:15.009-04:00"}], "coding_time_seconds": 451412, "coding_time_seconds_today": 0, "balance": "You need to have a pocket watcher badge to view this.", "badges": [{"name": "Maiden Voyage", "text": "you shipped your first project! the journey begins...", "icon": "\ud83d\udea2"}], "created_at": "2025-06-16T15:21:46.214-04:00", "updated_at": "2025-09-10T22:52:19.324-04:00", "avatar": "https://secure.gravatar.com/avatar/617e89cacc86c0b0c0844fa7ef0b1339.jpg?s=512&d=https%3A%2F%2Fa.slack-edge.com%2Fdf10d%2Fimg%2Favatars%2Fava_0002-512.png", "custom_css": null}, {"id": 2320, "slack_id": "U0922PE8FMF", "display_name": "yabibal", "bio": null, "projects_count": 0, "devlogs_count": 0, "votes_count": 0, "ships_count": 0, "projects": [], "coding_time_seconds": 0, "coding_time_seconds_today": 0, "balance": "You need to have a pocket watcher badge to view this.", "badges": [], "created_at": "2025-06-16T15:21:48.862-04:00", "updated_at": "2025-07-03T19:21:44.085-04:00", "avatar": "https://secure.gravatar.com/avatar/c4b3e4006afa423d490935080c76f02a.jpg?s=512&d=https%3A%2F%2Fa.slack-edge.com%2Fdf10d%2Fimg%2Favatars%2Fava_0017-512.png", "custom_css": null}], "pagination": {"page": 116, "pages": 1192, "count": 23828, "items": 20}}