{"users": [{"id": 23298, "slack_id": "U07UZ3SE73P", "display_name": "Nathan", "bio": null, "projects_count": 0, "devlogs_count": 0, "votes_count": 0, "ships_count": 0, "projects": [], "coding_time_seconds": 16648, "coding_time_seconds_today": 0, "balance": "You need to have a pocket watcher badge to view this.", "badges": [], "created_at": "2025-09-08T13:38:52.642-04:00", "updated_at": "2025-09-17T12:00:34.851-04:00", "avatar": "https://secure.gravatar.com/avatar/ed92d72b76d6279dbc2babe05ea93e34.jpg?s=512&d=https%3A%2F%2Fa.slack-edge.com%2Fdf10d%2Fimg%2Favatars%2Fava_0014-512.png", "custom_css": null}, {"id": 23299, "slack_id": "U09EXSTSSC8", "display_name": "Tin", "bio": null, "projects_count": 0, "devlogs_count": 0, "votes_count": 0, "ships_count": 0, "projects": [], "coding_time_seconds": 0, "coding_time_seconds_today": 0, "balance": "You need to have a pocket watcher badge to view this.", "badges": [], "created_at": "2025-09-08T13:40:35.058-04:00", "updated_at": "2025-09-08T22:03:59.145-04:00", "avatar": "https://secure.gravatar.com/avatar/e9090ca6672170c44455fd3fbd8521e9.jpg?s=512&d=https%3A%2F%2Fa.slack-edge.com%2Fdf10d%2Fimg%2Favatars%2Fava_0003-512.png", "custom_css": null}, {"id": 23300, "slack_id": "U09EY0VQ996", "display_name": "Shaurya Grover", "bio": null, "projects_count": 0, "devlogs_count": 0, "votes_count": 0, "ships_count": 0, "projects": [], "coding_time_seconds": 331, "coding_time_seconds_today": 0, "balance": "You need to have a pocket watcher badge to view this.", "badges": [], "created_at": "2025-09-08T13:55:17.315-04:00", "updated_at": "2025-09-09T14:30:03.904-04:00", "avatar": "https://secure.gravatar.com/avatar/ca333bd3f35b0be0f378d03ae5304f7d.jpg?s=512&d=https%3A%2F%2Fa.slack-edge.com%2Fdf10d%2Fimg%2Favatars%2Fava_0003-512.png", "custom_css": null}, {"id": 23301, "slack_id": "U09DE5C6L3T", "display_name": "Mostafa.S", "bio": null, "projects_count": 2, "devlogs_count": 2, "votes_count": 20, "ships_count": 2, "projects": [{"id": 13637, "title": "InfiniteSlime", "devlogs_count": 1, "created_at": "2025-09-21T15:37:40.374-04:00"}, {"id": 13100, "title": "SPG", "devlogs_count": 1, "created_at": "2025-09-08T14:51:37.531-04:00"}], "coding_time_seconds": 89293, "coding_time_seconds_today": 0, "balance": "You need to have a pocket watcher badge to view this.", "badges": [], "created_at": "2025-09-08T14:03:14.940-04:00", "updated_at": "2025-09-19T15:32:30.388-04:00", "avatar": "https://avatars.slack-edge.com/2025-09-19/9576034823408_78bd981a3824da1b0fbe_original.jpg", "custom_css": null}, {"id": 23302, "slack_id": "U09DQLYH0A3", "display_name": "Izzy", "bio": null, "projects_count": 0, "devlogs_count": 0, "votes_count": 0, "ships_count": 0, "projects": [], "coding_time_seconds": 0, "coding_time_seconds_today": 0, "balance": "You need to have a pocket watcher badge to view this.", "badges": [], "created_at": "2025-09-08T14:15:11.448-04:00", "updated_at": "2025-09-08T22:03:59.459-04:00", "avatar": "https://secure.gravatar.com/avatar/c8ddd265220a67ddcd1d551a6dae7d47.jpg?s=512&d=https%3A%2F%2Fa.slack-edge.com%2Fdf10d%2Fimg%2Favatars%2Fava_0003-512.png", "custom_css": null}, {"id": 23303, "slack_id": "U09E5AVQKHQ", "display_name": "Ahadiat Sudirman", "bio": null, "projects_count": 0, "devlogs_count": 0, "votes_count": 0, "ships_count": 0, "projects": [], "coding_time_seconds": 0, "coding_time_seconds_today": 0, "balance": "You need to have a pocket watcher badge to view this.", "badges": [], "created_at": "2025-09-08T14:20:30.030-04:00", "updated_at": "2025-09-08T22:03:59.571-04:00", "avatar": "https://avatars.slack-edge.com/2025-09-08/9481497759202_cd8e2be6397a958696c9_original.jpg", "custom_css": null}, {"id": 23304, "slack_id": "U09E1BR6DEX", "display_name": "Benjamin", "bio": null, "projects_count": 0, "devlogs_count": 0, "votes_count": 0, "ships_count": 0, "projects": [], "coding_time_seconds": 0, "coding_time_seconds_today": 0, "balance": "You need to have a pocket watcher badge to view this.", "badges": [], "created_at": "2025-09-08T14:57:51.262-04:00", "updated_at": "2025-09-09T13:34:09.322-04:00", "avatar": "https://secure.gravatar.com/avatar/7095767349329ed9080b99086c04d269.jpg?s=512&d=https%3A%2F%2Fa.slack-edge.com%2Fdf10d%2Fimg%2Favatars%2Fava_0022-512.png", "custom_css": null}, {"id": 23305, "slack_id": "U09E3E2RTRB", "display_name": "Luna", "bio": null, "projects_count": 0, "devlogs_count": 0, "votes_count": 0, "ships_count": 0, "projects": [], "coding_time_seconds": 0, "coding_time_seconds_today": 0, "balance": "You need to have a pocket watcher badge to view this.", "badges": [], "created_at": "2025-09-08T16:13:15.052-04:00", "updated_at": "2025-09-08T22:03:59.756-04:00", "avatar": "https://secure.gravatar.com/avatar/d0b9621692340c7e85d0eb3021ed12bc.jpg?s=512&d=https%3A%2F%2Fa.slack-edge.com%2Fdf10d%2Fimg%2Favatars%2Fava_0010-512.png", "custom_css": null}, {"id": 23306, "slack_id": "U097TM14FRN", "display_name": "Hamna", "bio": null, "projects_count": 0, "devlogs_count": 0, "votes_count": 0, "ships_count": 0, "projects": [], "coding_time_seconds": 18189, "coding_time_seconds_today": 0, "balance": "You need to have a pocket watcher badge to view this.", "badges": [], "created_at": "2025-09-08T16:41:01.611-04:00", "updated_at": "2025-09-09T01:00:36.458-04:00", "avatar": "https://secure.gravatar.com/avatar/ee984b725408228de3155b1fd76a04a7.jpg?s=512&d=https%3A%2F%2Fa.slack-edge.com%2Fdf10d%2Fimg%2Favatars%2Fava_0024-512.png", "custom_css": null}, {"id": 23307, "slack_id": "U09E2245EAX", "display_name": "Vienna Zhao", "bio": null, "projects_count": 0, "devlogs_count": 0, "votes_count": 0, "ships_count": 0, "projects": [], "coding_time_seconds": 0, "coding_time_seconds_today": 0, "balance": "You need to have a pocket watcher badge to view this.", "badges": [], "created_at": "2025-09-08T16:52:55.032-04:00", "updated_at": "2025-09-08T22:03:59.966-04:00", "avatar": "https://avatars.slack-edge.com/2025-09-08/9486159762532_fc253a356342fcdacb28_original.jpg", "custom_css": null}, {"id": 23308, "slack_id": "U03U380TSNT", "display_name": "Omay", "bio": null, "projects_count": 0, "devlogs_count": 0, "votes_count": 0, "ships_count": 0, "projects": [], "coding_time_seconds": 230550, "coding_time_seconds_today": 0, "balance": "You need to have a pocket watcher badge to view this.", "badges": [], "created_at": "2025-09-08T22:29:56.140-04:00", "updated_at": "2025-09-09T04:03:54.775-04:00", "avatar": "https://avatars.slack-edge.com/2025-04-23/8801699766532_baecbce67b4f4f21843d_original.png", "custom_css": null}, {"id": 23309, "slack_id": "U07PWKPM05C", "display_name": "Max Miles", "bio": "", "projects_count": 0, "devlogs_count": 0, "votes_count": 0, "ships_count": 0, "projects": [], "coding_time_seconds": 0, "coding_time_seconds_today": 0, "balance": "You need to have a pocket watcher badge to view this.", "badges": [], "created_at": "2025-09-08T23:05:05.870-04:00", "updated_at": "2025-09-12T22:27:09.578-04:00", "avatar": "https://avatars.slack-edge.com/2025-09-12/9508007983811_65b536202256c54c23be_original.jpg", "custom_css": null}, {"id": 23310, "slack_id": "U09D3FU9Z2R", "display_name": "tejas", "bio": null, "projects_count": 0, "devlogs_count": 0, "votes_count": 0, "ships_count": 0, "projects": [], "coding_time_seconds": 0, "coding_time_seconds_today": 0, "balance": "You need to have a pocket watcher badge to view this.", "badges": [], "created_at": "2025-09-09T00:04:40.802-04:00", "updated_at": "2025-09-09T04:03:54.977-04:00", "avatar": "https://secure.gravatar.com/avatar/c6442dec0038ab8e322a6fe389917e7c.jpg?s=512&d=https%3A%2F%2Fa.slack-edge.com%2Fdf10d%2Fimg%2Favatars%2Fava_0000-512.png", "custom_css": null}, {"id": 23311, "slack_id": "U09EBKN31N0", "display_name": "prajwal U", "bio": null, "projects_count": 3, "devlogs_count": 9, "votes_count": 51, "ships_count": 3, "projects": [{"id": 13191, "title": "Sticker Generator", "devlogs_count": 1, "created_at": "2025-09-11T09:41:32.496-04:00"}, {"id": 13274, "title": "Brainrot level test", "devlogs_count": 2, "created_at": "2025-09-13T03:51:08.554-04:00"}, {"id": 13332, "title": "Squid game Dalgona 2D", "devlogs_count": 6, "created_at": "2025-09-14T06:42:21.109-04:00"}], "coding_time_seconds": 57055, "coding_time_seconds_today": 131, "balance": "You need to have a pocket watcher badge to view this.", "badges": [{"name": "Maiden Voyage", "text": "you shipped your first project! the journey begins...", "icon": "\ud83d\udea2"}], "created_at": "2025-09-09T00:15:58.644-04:00", "updated_at": "2025-09-13T04:06:28.035-04:00", "avatar": "https://avatars.slack-edge.com/2025-09-08/9510761570272_f1ef3ca4c6f0a96cb8b3_original.jpg", "custom_css": null}, {"id": 23312, "slack_id": "U09E83W3CB0", "display_name": "Susan", "bio": null, "projects_count": 1, "devlogs_count": 0, "votes_count": 1, "ships_count": 0, "projects": [{"id": 13132, "title": "AI assistant", "devlogs_count": 0, "created_at": "2025-09-09T10:20:16.624-04:00"}], "coding_time_seconds": 27069, "coding_time_seconds_today": 0, "balance": "You need to have a pocket watcher badge to view this.", "badges": [], "created_at": "2025-09-09T01:12:47.798-04:00", "updated_at": "2025-09-09T04:20:42.525-04:00", "avatar": "https://secure.gravatar.com/avatar/4c20cac51f03fa1576cba6adca9dee9c.jpg?s=512&d=https%3A%2F%2Fa.slack-edge.com%2Fdf10d%2Fimg%2Favatars%2Fava_0002-512.png", "custom_css": null}, {"id": 23313, "slack_id": "U07UFKDCXBQ", "display_name": "Hariy", "bio": null, "projects_count": 0, "devlogs_count": 0, "votes_count": 0, "ships_count": 0, "projects": [], "coding_time_seconds": 0, "coding_time_seconds_today": 0, "balance": "You need to have a pocket watcher badge to view this.", "badges": [], "created_at": "2025-09-09T01:49:21.932-04:00", "updated_at": "2025-09-09T01:50:13.803-04:00", "avatar": "https://secure.gravatar.com/avatar/6d74e4b84fc9973453e940dcd9c76368.jpg?s=512&d=https%3A%2F%2Fa.slack-edge.com%2Fdf10d%2Fimg%2Favatars%2Fava_0000-512.png", "custom_css": null}, {"id": 23314, "slack_id": "U09ECGT2NKW", "display_name": "Eitan", "bio": null, "projects_count": 0, "devlogs_count": 0, "votes_count": 0, "ships_count": 0, "projects": [], "coding_time_seconds": 884, "coding_time_seconds_today": 0, "balance": "You need to have a pocket watcher badge to view this.", "badges": [], "created_at": "2025-09-09T03:18:13.933-04:00", "updated_at": "2025-09-09T04:11:13.071-04:00", "avatar": "https://secure.gravatar.com/avatar/8e016ce17fc4cf786a2d8cb5f5fc5f0d.jpg?s=512&d=https%3A%2F%2Fa.slack-edge.com%2Fdf10d%2Fimg%2Favatars%2Fava_0010-512.png", "custom_css": null}, {"id": 23315, "slack_id": "U09E72S8Y8M", "display_name": "Shaswat", "bio": null, "projects_count": 0, "devlogs_count": 0, "votes_count": 0, "ships_count": 0, "projects": [], "coding_time_seconds": 0, "coding_time_seconds_today": 0, "balance": "You need to have a pocket watcher badge to view this.", "badges": [], "created_at": "2025-09-09T07:05:32.418-04:00", "updated_at": "2025-09-09T10:03:49.515-04:00", "avatar": "https://secure.gravatar.com/avatar/8f210d78b1600188b3972c7fa266e898.jpg?s=512&d=https%3A%2F%2Fa.slack-edge.com%2Fdf10d%2Fimg%2Favatars%2Fava_0003-512.png", "custom_css": null}, {"id": 23316, "slack_id": "U09EA1BJQ4W", "display_name": "Arian Von Wendorff", "bio": null, "projects_count": 1, "devlogs_count": 1, "votes_count": 0, "ships_count": 0, "projects": [{"id": 13198, "title": "Dungeon explore", "devlogs_count": 1, "created_at": "2025-09-11T11:58:52.464-04:00"}], "coding_time_seconds": 16317, "coding_time_seconds_today": 0, "balance": "You need to have a pocket watcher badge to view this.", "badges": [], "created_at": "2025-09-09T07:29:52.642-04:00", "updated_at": "2025-09-15T08:04:51.074-04:00", "avatar": "https://avatars.slack-edge.com/2025-09-15/9545247785232_6a2036a595de1ae1f4ac_original.png", "custom_css": null}, {"id": 23317, "slack_id": "U09EDU2JJ0L", "display_name": "Pranav Bhalerao", "bio": null, "projects_count": 0, "devlogs_count": 0, "votes_count": 0, "ships_count": 0, "projects": [], "coding_time_seconds": 0, "coding_time_seconds_today": 0, "balance": "You need to have a pocket watcher badge to view this.", "badges": [], "created_at": "2025-09-09T07:33:27.659-04:00", "updated_at": "2025-09-09T10:03:49.769-04:00", "avatar": "https://avatars.slack-edge.com/2025-09-09/9486088009142_d775528c2e7717103962_original.jpg", "custom_css": null}], "pagination": {"page": 1160, "pages": 1192, "count": 23828, "items": 20}}