{"users": [{"id": 23318, "slack_id": "U09E7BHLN6R", "display_name": "Valery Macena", "bio": null, "projects_count": 0, "devlogs_count": 0, "votes_count": 0, "ships_count": 0, "projects": [], "coding_time_seconds": 0, "coding_time_seconds_today": 0, "balance": "You need to have a pocket watcher badge to view this.", "badges": [], "created_at": "2025-09-09T08:08:37.524-04:00", "updated_at": "2025-09-09T10:03:49.875-04:00", "avatar": "https://secure.gravatar.com/avatar/e430ee441fa228fa3a3feeeb80396e76.jpg?s=512&d=https%3A%2F%2Fa.slack-edge.com%2Fdf10d%2Fimg%2Favatars%2Fava_0013-512.png", "custom_css": null}, {"id": 23319, "slack_id": "U09EA2VKVNW", "display_name": "Vivaan K", "bio": null, "projects_count": 0, "devlogs_count": 0, "votes_count": 0, "ships_count": 0, "projects": [], "coding_time_seconds": 2508, "coding_time_seconds_today": 0, "balance": "You need to have a pocket watcher badge to view this.", "badges": [], "created_at": "2025-09-09T09:36:35.895-04:00", "updated_at": "2025-09-09T10:03:49.984-04:00", "avatar": "https://secure.gravatar.com/avatar/23b293200f37ddc6911508f4e3a11614.jpg?s=512&d=https%3A%2F%2Fa.slack-edge.com%2Fdf10d%2Fimg%2Favatars%2Fava_0022-512.png", "custom_css": null}, {"id": 23320, "slack_id": "U09EENK9GCC", "display_name": "Luis Alfonso Herrera Herrera", "bio": null, "projects_count": 0, "devlogs_count": 0, "votes_count": 0, "ships_count": 0, "projects": [], "coding_time_seconds": 0, "coding_time_seconds_today": 0, "balance": "You need to have a pocket watcher badge to view this.", "badges": [], "created_at": "2025-09-09T09:40:54.834-04:00", "updated_at": "2025-09-09T15:34:28.516-04:00", "avatar": "https://secure.gravatar.com/avatar/baa508b2d0b12fb3f658779946e2c7aa.jpg?s=512&d=https%3A%2F%2Fa.slack-edge.com%2Fdf10d%2Fimg%2Favatars%2Fava_0013-512.png", "custom_css": null}, {"id": 23321, "slack_id": "U087V98HWGP", "display_name": "Dhruva", "bio": "tis a wee lil boi", "projects_count": 2, "devlogs_count": 12, "votes_count": 63, "ships_count": 2, "projects": [{"id": 13134, "title": "Pomodoro-timer", "devlogs_count": 9, "created_at": "2025-09-09T11:51:46.860-04:00"}, {"id": 13475, "title": "BBB: Boring Blog Biblography", "devlogs_count": 3, "created_at": "2025-09-17T10:03:21.035-04:00"}], "coding_time_seconds": 62230, "coding_time_seconds_today": 6959, "balance": "You need to have a pocket watcher badge to view this.", "badges": [{"name": "Maiden Voyage", "text": "you shipped your first project! the journey begins...", "icon": "\ud83d\udea2"}], "created_at": "2025-09-09T11:12:29.335-04:00", "updated_at": "2025-09-18T07:12:10.149-04:00", "avatar": "https://avatars.slack-edge.com/2025-01-14/8292410851476_b8bb0cc0c5c3fc8f1804_original.jpg", "custom_css": null}, {"id": 23322, "slack_id": "U09DCL1NA23", "display_name": "Antoni Wrzesinski", "bio": null, "projects_count": 0, "devlogs_count": 0, "votes_count": 0, "ships_count": 0, "projects": [], "coding_time_seconds": 0, "coding_time_seconds_today": 0, "balance": "You need to have a pocket watcher badge to view this.", "badges": [], "created_at": "2025-09-09T12:02:25.575-04:00", "updated_at": "2025-09-09T22:04:07.639-04:00", "avatar": "https://secure.gravatar.com/avatar/28cb302a3744129adceada3f1aeabf5d.jpg?s=512&d=https%3A%2F%2Fa.slack-edge.com%2Fdf10d%2Fimg%2Favatars%2Fava_0019-512.png", "custom_css": null}, {"id": 23323, "slack_id": "U09E9AXEV9B", "display_name": "Brandon", "bio": null, "projects_count": 0, "devlogs_count": 0, "votes_count": 0, "ships_count": 0, "projects": [], "coding_time_seconds": 0, "coding_time_seconds_today": 0, "balance": "You need to have a pocket watcher badge to view this.", "badges": [], "created_at": "2025-09-09T12:56:46.607-04:00", "updated_at": "2025-09-17T15:37:07.090-04:00", "avatar": "https://secure.gravatar.com/avatar/7bfc2339b2f3ab390fff6e05c0c18dc5.jpg?s=512&d=https%3A%2F%2Fa.slack-edge.com%2Fdf10d%2Fimg%2Favatars%2Fava_0012-512.png", "custom_css": null}, {"id": 23324, "slack_id": "U09DXRNNWQP", "display_name": "Jacob", "bio": null, "projects_count": 0, "devlogs_count": 0, "votes_count": 0, "ships_count": 0, "projects": [], "coding_time_seconds": 0, "coding_time_seconds_today": 0, "balance": "You need to have a pocket watcher badge to view this.", "badges": [], "created_at": "2025-09-09T12:56:48.607-04:00", "updated_at": "2025-09-12T12:52:11.076-04:00", "avatar": "https://secure.gravatar.com/avatar/ec4d8836a225c298cdf5214e761e7da0.jpg?s=512&d=https%3A%2F%2Fa.slack-edge.com%2Fdf10d%2Fimg%2Favatars%2Fava_0024-512.png", "custom_css": null}, {"id": 23325, "slack_id": "U09E9BJ3NKX", "display_name": "Ary", "bio": "I'm not just here to be a \"programmer\". I see coding as a way to channel my creativity and passion for building things.", "projects_count": 2, "devlogs_count": 11, "votes_count": 28, "ships_count": 1, "projects": [{"id": 13290, "title": "Sonora Music", "devlogs_count": 6, "created_at": "2025-09-13T13:40:31.726-04:00"}, {"id": 13388, "title": "Echoes of the End", "devlogs_count": 5, "created_at": "2025-09-15T04:33:51.738-04:00"}], "coding_time_seconds": 104139, "coding_time_seconds_today": 0, "balance": "You need to have a pocket watcher badge to view this.", "badges": [{"name": "Maiden Voyage", "text": "you shipped your first project! the journey begins...", "icon": "\ud83d\udea2"}], "created_at": "2025-09-09T13:00:47.375-04:00", "updated_at": "2025-09-17T09:15:22.397-04:00", "avatar": "https://avatars.slack-edge.com/2025-09-13/9498249692503_7da78a9f120885e124f4_original.png", "custom_css": null}, {"id": 23326, "slack_id": "U09EC9SUP1C", "display_name": "Yashraj", "bio": null, "projects_count": 0, "devlogs_count": 0, "votes_count": 0, "ships_count": 0, "projects": [], "coding_time_seconds": 0, "coding_time_seconds_today": 0, "balance": "You need to have a pocket watcher badge to view this.", "badges": [], "created_at": "2025-09-09T13:08:06.687-04:00", "updated_at": "2025-09-09T22:04:08.084-04:00", "avatar": "https://secure.gravatar.com/avatar/319c142ba6d18139cab4f055b319fd3a.jpg?s=512&d=https%3A%2F%2Fa.slack-edge.com%2Fdf10d%2Fimg%2Favatars%2Fava_0022-512.png", "custom_css": null}, {"id": 23327, "slack_id": "U09F58YQ524", "display_name": "Naes Nart", "bio": null, "projects_count": 3, "devlogs_count": 1, "votes_count": 0, "ships_count": 0, "projects": [{"id": 13623, "title": "MIDI Tiles Goodies", "devlogs_count": 0, "created_at": "2025-09-21T10:03:51.736-04:00"}, {"id": 13630, "title": "Physics Puzzle Adventure Game", "devlogs_count": 0, "created_at": "2025-09-21T12:24:40.845-04:00"}, {"id": 13663, "title": "AudioVerse DAW (Digital Audio Workstation inspired from Cockos Reaper)", "devlogs_count": 1, "created_at": "2025-09-22T09:56:03.558-04:00"}], "coding_time_seconds": 49920, "coding_time_seconds_today": 0, "balance": "You need to have a pocket watcher badge to view this.", "badges": [], "created_at": "2025-09-09T13:17:04.734-04:00", "updated_at": "2025-09-21T10:06:17.642-04:00", "avatar": "https://secure.gravatar.com/avatar/da10912383ad8c763989fc5adc8c572a.jpg?s=512&d=https%3A%2F%2Fa.slack-edge.com%2Fdf10d%2Fimg%2Favatars%2Fava_0002-512.png", "custom_css": null}, {"id": 23328, "slack_id": "U09E9GMP2TX", "display_name": "Shaswat", "bio": null, "projects_count": 2, "devlogs_count": 4, "votes_count": 21, "ships_count": 2, "projects": [{"id": 13509, "title": "Image Compresser", "devlogs_count": 2, "created_at": "2025-09-18T07:58:57.277-04:00"}, {"id": 13189, "title": "Fitness Website", "devlogs_count": 2, "created_at": "2025-09-11T09:32:12.806-04:00"}], "coding_time_seconds": 45418, "coding_time_seconds_today": 0, "balance": "You need to have a pocket watcher badge to view this.", "badges": [{"name": "Maiden Voyage", "text": "you shipped your first project! the journey begins...", "icon": "\ud83d\udea2"}], "created_at": "2025-09-09T13:27:12.598-04:00", "updated_at": "2025-09-16T13:46:18.490-04:00", "avatar": "https://secure.gravatar.com/avatar/58897fd0c1f7f1e734834443d103ee41.jpg?s=512&d=https%3A%2F%2Fa.slack-edge.com%2Fdf10d%2Fimg%2Favatars%2Fava_0005-512.png", "custom_css": null}, {"id": 23329, "slack_id": "U07J3U1GGJ3", "display_name": "Ishaan Kejriwal", "bio": null, "projects_count": 0, "devlogs_count": 0, "votes_count": 0, "ships_count": 0, "projects": [], "coding_time_seconds": 0, "coding_time_seconds_today": 0, "balance": "You need to have a pocket watcher badge to view this.", "badges": [], "created_at": "2025-09-09T13:56:06.364-04:00", "updated_at": "2025-09-09T14:07:27.159-04:00", "avatar": "https://avatars.slack-edge.com/2024-08-26/7623895743830_26e5048be68913be0b30_original.png", "custom_css": null}, {"id": 23330, "slack_id": "U09E8FG8727", "display_name": "reetpaal", "bio": null, "projects_count": 0, "devlogs_count": 0, "votes_count": 0, "ships_count": 0, "projects": [], "coding_time_seconds": 0, "coding_time_seconds_today": 0, "balance": "You need to have a pocket watcher badge to view this.", "badges": [], "created_at": "2025-09-09T13:56:50.419-04:00", "updated_at": "2025-09-09T22:04:08.496-04:00", "avatar": "https://secure.gravatar.com/avatar/1c4bc373941a9420370a6f604f5b2cbc.jpg?s=512&d=https%3A%2F%2Fa.slack-edge.com%2Fdf10d%2Fimg%2Favatars%2Fava_0003-512.png", "custom_css": null}, {"id": 23331, "slack_id": "U09E8HSPQNP", "display_name": "Mushroom", "bio": null, "projects_count": 0, "devlogs_count": 0, "votes_count": 0, "ships_count": 0, "projects": [], "coding_time_seconds": 500, "coding_time_seconds_today": 0, "balance": "You need to have a pocket watcher badge to view this.", "badges": [], "created_at": "2025-09-09T14:06:32.326-04:00", "updated_at": "2025-09-18T14:04:14.177-04:00", "avatar": "https://avatars.slack-edge.com/2025-09-18/9537819815331_c8f9cc9128484e32c201_original.png", "custom_css": null}, {"id": 23332, "slack_id": "U09ES7HE9ND", "display_name": "omar", "bio": null, "projects_count": 0, "devlogs_count": 0, "votes_count": 0, "ships_count": 0, "projects": [], "coding_time_seconds": 0, "coding_time_seconds_today": 0, "balance": "You need to have a pocket watcher badge to view this.", "badges": [], "created_at": "2025-09-09T15:06:17.050-04:00", "updated_at": "2025-09-09T22:04:12.757-04:00", "avatar": "https://secure.gravatar.com/avatar/3cbd10705146294c9cbcafce1da4d6d3.jpg?s=512&d=https%3A%2F%2Fa.slack-edge.com%2Fdf10d%2Fimg%2Favatars%2Fava_0004-512.png", "custom_css": null}, {"id": 23333, "slack_id": "U09DYPW4HTR", "display_name": "Reyansh Bansal", "bio": null, "projects_count": 0, "devlogs_count": 0, "votes_count": 0, "ships_count": 0, "projects": [], "coding_time_seconds": 0, "coding_time_seconds_today": 0, "balance": "You need to have a pocket watcher badge to view this.", "badges": [], "created_at": "2025-09-09T15:19:35.087-04:00", "updated_at": "2025-09-09T22:04:12.887-04:00", "avatar": "https://avatars.slack-edge.com/2025-09-09/9489152335186_22f5d85352d5b2ea0cba_original.png", "custom_css": null}, {"id": 23334, "slack_id": "U09E5SLCJKV", "display_name": "4rgon", "bio": "", "projects_count": 0, "devlogs_count": 0, "votes_count": 0, "ships_count": 0, "projects": [], "coding_time_seconds": 0, "coding_time_seconds_today": 120, "balance": "You need to have a pocket watcher badge to view this.", "badges": [], "created_at": "2025-09-09T16:33:45.808-04:00", "updated_at": "2025-09-12T22:30:03.570-04:00", "avatar": "https://secure.gravatar.com/avatar/ea92417497bf4c5f83a19d3839325ed8.jpg?s=512&d=https%3A%2F%2Fa.slack-edge.com%2Fdf10d%2Fimg%2Favatars%2Fava_0021-512.png", "custom_css": null}, {"id": 23335, "slack_id": "U09EDUJGR2S", "display_name": "Mahmoud Ahmed Fathy", "bio": null, "projects_count": 0, "devlogs_count": 0, "votes_count": 0, "ships_count": 0, "projects": [], "coding_time_seconds": 0, "coding_time_seconds_today": 0, "balance": "You need to have a pocket watcher badge to view this.", "badges": [], "created_at": "2025-09-09T17:58:15.894-04:00", "updated_at": "2025-09-09T22:04:13.139-04:00", "avatar": "https://secure.gravatar.com/avatar/81c734300f940690ede5c878dacc9ba7.jpg?s=512&d=https%3A%2F%2Fa.slack-edge.com%2Fdf10d%2Fimg%2Favatars%2Fava_0015-512.png", "custom_css": null}, {"id": 23336, "slack_id": "U09E0A34G5D", "display_name": "Annika", "bio": null, "projects_count": 0, "devlogs_count": 0, "votes_count": 0, "ships_count": 0, "projects": [], "coding_time_seconds": 0, "coding_time_seconds_today": 0, "balance": "You need to have a pocket watcher badge to view this.", "badges": [], "created_at": "2025-09-09T20:57:18.219-04:00", "updated_at": "2025-09-09T22:04:13.262-04:00", "avatar": "https://secure.gravatar.com/avatar/c9d063cd1fe40fb980749394321edb51.jpg?s=512&d=https%3A%2F%2Fa.slack-edge.com%2Fdf10d%2Fimg%2Favatars%2Fava_0011-512.png", "custom_css": null}, {"id": 23337, "slack_id": "U09D6MS33UK", "display_name": "Ashritha", "bio": null, "projects_count": 0, "devlogs_count": 0, "votes_count": 0, "ships_count": 0, "projects": [], "coding_time_seconds": 0, "coding_time_seconds_today": 0, "balance": "You need to have a pocket watcher badge to view this.", "badges": [], "created_at": "2025-09-09T21:30:45.437-04:00", "updated_at": "2025-09-09T21:30:52.984-04:00", "avatar": "https://secure.gravatar.com/avatar/bf486caad3578489fe9d698fd71de02a.jpg?s=512&d=https%3A%2F%2Fa.slack-edge.com%2Fdf10d%2Fimg%2Favatars%2Fava_0023-512.png", "custom_css": null}], "pagination": {"page": 1161, "pages": 1192, "count": 23828, "items": 20}}