{"users": [{"id": 23338, "slack_id": "U05N2C2EZ47", "display_name": "alexis andrew", "bio": null, "projects_count": 0, "devlogs_count": 0, "votes_count": 0, "ships_count": 0, "projects": [], "coding_time_seconds": 0, "coding_time_seconds_today": 0, "balance": "You need to have a pocket watcher badge to view this.", "badges": [], "created_at": "2025-09-09T21:55:35.426-04:00", "updated_at": "2025-09-10T04:03:58.380-04:00", "avatar": "https://avatars.slack-edge.com/2023-12-14/6370870131312_2ce18ca34b9afbc2bd7d_original.png", "custom_css": null}, {"id": 23339, "slack_id": "U09EEUY34NN", "display_name": "Aadhya Mamillapalli", "bio": null, "projects_count": 0, "devlogs_count": 0, "votes_count": 0, "ships_count": 0, "projects": [], "coding_time_seconds": 0, "coding_time_seconds_today": 0, "balance": "You need to have a pocket watcher badge to view this.", "badges": [], "created_at": "2025-09-09T22:17:53.420-04:00", "updated_at": "2025-09-10T04:03:58.512-04:00", "avatar": "https://secure.gravatar.com/avatar/eecadc57836bb901876632c876ff1a58.jpg?s=512&d=https%3A%2F%2Fa.slack-edge.com%2Fdf10d%2Fimg%2Favatars%2Fava_0012-512.png", "custom_css": null}, {"id": 23340, "slack_id": "U09EF4LNH46", "display_name": "Julian Mifta Yama Fauzan", "bio": null, "projects_count": 0, "devlogs_count": 0, "votes_count": 0, "ships_count": 0, "projects": [], "coding_time_seconds": 0, "coding_time_seconds_today": 0, "balance": "You need to have a pocket watcher badge to view this.", "badges": [], "created_at": "2025-09-09T23:35:46.042-04:00", "updated_at": "2025-09-10T04:03:58.613-04:00", "avatar": "https://secure.gravatar.com/avatar/042cfbcdd15c7775a1b1566d070e296f.jpg?s=512&d=https%3A%2F%2Fa.slack-edge.com%2Fdf10d%2Fimg%2Favatars%2Fava_0016-512.png", "custom_css": null}, {"id": 23341, "slack_id": "U09ECB96TEZ", "display_name": "Samruddhi Sunanda", "bio": null, "projects_count": 0, "devlogs_count": 0, "votes_count": 0, "ships_count": 0, "projects": [], "coding_time_seconds": 0, "coding_time_seconds_today": 0, "balance": "You need to have a pocket watcher badge to view this.", "badges": [], "created_at": "2025-09-10T00:35:08.919-04:00", "updated_at": "2025-09-10T04:03:58.704-04:00", "avatar": "https://avatars.slack-edge.com/2025-09-09/9495407513572_426eb176f3bc175daeab_original.jpg", "custom_css": null}, {"id": 23342, "slack_id": "U09F8E90MSL", "display_name": "Prakash Chand Jain", "bio": null, "projects_count": 0, "devlogs_count": 0, "votes_count": 0, "ships_count": 0, "projects": [], "coding_time_seconds": 0, "coding_time_seconds_today": 0, "balance": "You need to have a pocket watcher badge to view this.", "badges": [], "created_at": "2025-09-10T01:01:07.030-04:00", "updated_at": "2025-09-10T04:03:58.817-04:00", "avatar": "https://avatars.slack-edge.com/2025-09-09/9477189212807_ec98516d090206fd6ec2_original.png", "custom_css": null}, {"id": 23343, "slack_id": "U09EFJJNNBC", "display_name": "mui", "bio": null, "projects_count": 1, "devlogs_count": 0, "votes_count": 0, "ships_count": 0, "projects": [{"id": 13156, "title": "test ", "devlogs_count": 0, "created_at": "2025-09-10T02:19:49.365-04:00"}], "coding_time_seconds": 120, "coding_time_seconds_today": 0, "balance": "You need to have a pocket watcher badge to view this.", "badges": [], "created_at": "2025-09-10T01:27:49.080-04:00", "updated_at": "2025-09-10T02:38:46.532-04:00", "avatar": "https://avatars.slack-edge.com/2025-09-10/9504855251665_2243e67d419ed83b1b25_original.jpg", "custom_css": null}, {"id": 23344, "slack_id": "U09DY7UNWPJ", "display_name": "Kata", "bio": null, "projects_count": 0, "devlogs_count": 0, "votes_count": 0, "ships_count": 0, "projects": [], "coding_time_seconds": 0, "coding_time_seconds_today": 0, "balance": "You need to have a pocket watcher badge to view this.", "badges": [], "created_at": "2025-09-10T03:37:34.680-04:00", "updated_at": "2025-09-10T10:05:38.198-04:00", "avatar": "https://avatars.slack-edge.com/2025-09-10/9489289739941_0c93759f9282d021b1b4_original.jpg", "custom_css": null}, {"id": 23345, "slack_id": "U09EGKJN066", "display_name": "Reanicka Beckford", "bio": null, "projects_count": 0, "devlogs_count": 0, "votes_count": 2, "ships_count": 0, "projects": [], "coding_time_seconds": 0, "coding_time_seconds_today": 0, "balance": "You need to have a pocket watcher badge to view this.", "badges": [], "created_at": "2025-09-10T04:56:12.790-04:00", "updated_at": "2025-09-10T10:24:33.801-04:00", "avatar": "https://avatars.slack-edge.com/2025-09-10/9489801221045_48c1b1499566202d4bf0_original.jpg", "custom_css": null}, {"id": 23346, "slack_id": "U09EGJTCJPQ", "display_name": "Lifegoeson", "bio": null, "projects_count": 0, "devlogs_count": 0, "votes_count": 0, "ships_count": 0, "projects": [], "coding_time_seconds": 52366, "coding_time_seconds_today": 500, "balance": "You need to have a pocket watcher badge to view this.", "badges": [], "created_at": "2025-09-10T05:08:31.689-04:00", "updated_at": "2025-09-18T15:33:06.538-04:00", "avatar": "https://secure.gravatar.com/avatar/66f189f398c0b17a3db6df90564870d1.jpg?s=512&d=https%3A%2F%2Fa.slack-edge.com%2Fdf10d%2Fimg%2Favatars%2Fava_0017-512.png", "custom_css": null}, {"id": 23347, "slack_id": "U09E2FFMH39", "display_name": "Jaskaran Singh", "bio": null, "projects_count": 2, "devlogs_count": 3, "votes_count": 4, "ships_count": 1, "projects": [{"id": 13355, "title": "chroma-correct", "devlogs_count": 1, "created_at": "2025-09-14T12:38:20.162-04:00"}, {"id": 13360, "title": "chroma-correct(website)", "devlogs_count": 2, "created_at": "2025-09-14T13:43:55.302-04:00"}], "coding_time_seconds": 10952, "coding_time_seconds_today": 0, "balance": "You need to have a pocket watcher badge to view this.", "badges": [{"name": "Maiden Voyage", "text": "you shipped your first project! the journey begins...", "icon": "\ud83d\udea2"}], "created_at": "2025-09-10T05:27:15.170-04:00", "updated_at": "2025-09-14T13:48:03.265-04:00", "avatar": "https://secure.gravatar.com/avatar/009eb471490853886f59ec38d65f12d5.jpg?s=512&d=https%3A%2F%2Fa.slack-edge.com%2Fdf10d%2Fimg%2Favatars%2Fava_0005-512.png", "custom_css": null}, {"id": 23348, "slack_id": "U09E2G91PE3", "display_name": "s8nrays", "bio": null, "projects_count": 0, "devlogs_count": 0, "votes_count": 0, "ships_count": 0, "projects": [], "coding_time_seconds": 0, "coding_time_seconds_today": 0, "balance": "You need to have a pocket watcher badge to view this.", "badges": [], "created_at": "2025-09-10T05:35:27.073-04:00", "updated_at": "2025-09-10T10:05:38.588-04:00", "avatar": "https://secure.gravatar.com/avatar/f518c93570320d8c178a65fed309e171.jpg?s=512&d=https%3A%2F%2Fa.slack-edge.com%2Fdf10d%2Fimg%2Favatars%2Fava_0023-512.png", "custom_css": null}, {"id": 23349, "slack_id": "U09EKH3L6KW", "display_name": "Geetansh Goyal", "bio": null, "projects_count": 0, "devlogs_count": 0, "votes_count": 0, "ships_count": 0, "projects": [], "coding_time_seconds": 0, "coding_time_seconds_today": 0, "balance": "You need to have a pocket watcher badge to view this.", "badges": [], "created_at": "2025-09-10T06:16:02.501-04:00", "updated_at": "2025-09-10T10:05:38.719-04:00", "avatar": "https://secure.gravatar.com/avatar/d8203ec339e8de5d30318f1d627d794a.jpg?s=512&d=https%3A%2F%2Fa.slack-edge.com%2Fdf10d%2Fimg%2Favatars%2Fava_0012-512.png", "custom_css": null}, {"id": 23350, "slack_id": "U09BABPAP6E", "display_name": "Luca Che", "bio": null, "projects_count": 0, "devlogs_count": 0, "votes_count": 0, "ships_count": 0, "projects": [], "coding_time_seconds": 0, "coding_time_seconds_today": 0, "balance": "You need to have a pocket watcher badge to view this.", "badges": [], "created_at": "2025-09-10T06:52:43.961-04:00", "updated_at": "2025-09-14T05:44:16.077-04:00", "avatar": "https://avatars.slack-edge.com/2025-09-10/9478990003527_d1fcb25ad09ab6693a99_original.png", "custom_css": null}, {"id": 23351, "slack_id": "U09EHTGQ14L", "display_name": "Florian", "bio": null, "projects_count": 2, "devlogs_count": 5, "votes_count": 8, "ships_count": 1, "projects": [{"id": 13654, "title": "chess", "devlogs_count": 0, "created_at": "2025-09-22T06:32:01.597-04:00"}, {"id": 13422, "title": "Pancake Clicker", "devlogs_count": 5, "created_at": "2025-09-16T02:28:58.722-04:00"}], "coding_time_seconds": 26950, "coding_time_seconds_today": 0, "balance": "You need to have a pocket watcher badge to view this.", "badges": [{"name": "Maiden Voyage", "text": "you shipped your first project! the journey begins...", "icon": "\ud83d\udea2"}], "created_at": "2025-09-10T07:10:30.243-04:00", "updated_at": "2025-09-20T08:28:43.239-04:00", "avatar": "https://secure.gravatar.com/avatar/022c4b2ddf2417357c380fd2a5e25af7.jpg?s=512&d=https%3A%2F%2Fa.slack-edge.com%2Fdf10d%2Fimg%2Favatars%2Fava_0001-512.png", "custom_css": null}, {"id": 23352, "slack_id": "U09FADFNVJL", "display_name": "Texas Flange", "bio": null, "projects_count": 0, "devlogs_count": 0, "votes_count": 0, "ships_count": 0, "projects": [], "coding_time_seconds": 0, "coding_time_seconds_today": 0, "balance": "You need to have a pocket watcher badge to view this.", "badges": [], "created_at": "2025-09-10T07:31:40.602-04:00", "updated_at": "2025-09-10T10:05:43.344-04:00", "avatar": "https://avatars.slack-edge.com/2025-09-10/9497509197028_0de0ea711c42675440c4_original.jpg", "custom_css": null}, {"id": 23353, "slack_id": "U09ELT3L5AQ", "display_name": "Sadhana Sitaram", "bio": null, "projects_count": 0, "devlogs_count": 0, "votes_count": 0, "ships_count": 0, "projects": [], "coding_time_seconds": 0, "coding_time_seconds_today": 0, "balance": "You need to have a pocket watcher badge to view this.", "badges": [], "created_at": "2025-09-10T09:48:53.412-04:00", "updated_at": "2025-09-11T04:04:34.029-04:00", "avatar": "https://avatars.slack-edge.com/2025-09-10/9498153784292_be5db8a04b23b348aaf6_original.jpg", "custom_css": null}, {"id": 23354, "slack_id": "U09ENFHQHQU", "display_name": "Soham Rath", "bio": null, "projects_count": 0, "devlogs_count": 0, "votes_count": 2, "ships_count": 0, "projects": [], "coding_time_seconds": 852, "coding_time_seconds_today": 0, "balance": "You need to have a pocket watcher badge to view this.", "badges": [], "created_at": "2025-09-10T10:11:56.190-04:00", "updated_at": "2025-09-11T04:04:34.166-04:00", "avatar": "https://secure.gravatar.com/avatar/cdf8e95ec7f94a9629ed3d21ab907a9f.jpg?s=512&d=https%3A%2F%2Fa.slack-edge.com%2Fdf10d%2Fimg%2Favatars%2Fava_0003-512.png", "custom_css": null}, {"id": 23355, "slack_id": "U09EE8WEPGT", "display_name": "Zolt\u00e1n L\u00e9r\u00e1nt", "bio": null, "projects_count": 0, "devlogs_count": 0, "votes_count": 0, "ships_count": 0, "projects": [], "coding_time_seconds": 0, "coding_time_seconds_today": 0, "balance": "You need to have a pocket watcher badge to view this.", "badges": [], "created_at": "2025-09-10T10:19:55.830-04:00", "updated_at": "2025-09-11T04:04:34.267-04:00", "avatar": "https://avatars.slack-edge.com/2025-09-10/9494561998754_dd388b1bd6c88ce8f39a_original.png", "custom_css": null}, {"id": 23356, "slack_id": "U09EF8NEXHT", "display_name": "kanak Tirpude", "bio": null, "projects_count": 0, "devlogs_count": 0, "votes_count": 0, "ships_count": 0, "projects": [], "coding_time_seconds": 0, "coding_time_seconds_today": 0, "balance": "You need to have a pocket watcher badge to view this.", "badges": [], "created_at": "2025-09-10T10:21:42.530-04:00", "updated_at": "2025-09-11T04:04:34.449-04:00", "avatar": "https://secure.gravatar.com/avatar/92d29907d7cb1d4567ca4f7ce6f99793.jpg?s=512&d=https%3A%2F%2Fa.slack-edge.com%2Fdf10d%2Fimg%2Favatars%2Fava_0005-512.png", "custom_css": null}, {"id": 23357, "slack_id": "U09FBSQG2E4", "display_name": "Chiranjeevi Rao D V", "bio": null, "projects_count": 0, "devlogs_count": 0, "votes_count": 0, "ships_count": 0, "projects": [], "coding_time_seconds": 0, "coding_time_seconds_today": 0, "balance": "You need to have a pocket watcher badge to view this.", "badges": [], "created_at": "2025-09-10T11:13:07.385-04:00", "updated_at": "2025-09-11T04:04:34.618-04:00", "avatar": "https://avatars.slack-edge.com/2025-09-10/9495133059650_1cdab6f11d96f149e8be_original.png", "custom_css": null}], "pagination": {"page": 1162, "pages": 1192, "count": 23828, "items": 20}}