{"users": [{"id": 23358, "slack_id": "U09EFMKUHK7", "display_name": "Nadew Rajapaksha", "bio": null, "projects_count": 0, "devlogs_count": 0, "votes_count": 0, "ships_count": 0, "projects": [], "coding_time_seconds": 0, "coding_time_seconds_today": 0, "balance": "You need to have a pocket watcher badge to view this.", "badges": [], "created_at": "2025-09-10T11:26:32.251-04:00", "updated_at": "2025-09-11T04:04:34.809-04:00", "avatar": "https://secure.gravatar.com/avatar/ac5892dae646237329067780c4d7afe5.jpg?s=512&d=https%3A%2F%2Fa.slack-edge.com%2Fdf10d%2Fimg%2Favatars%2Fava_0002-512.png", "custom_css": null}, {"id": 23359, "slack_id": "U09EP56NH9A", "display_name": "Daniele", "bio": null, "projects_count": 0, "devlogs_count": 0, "votes_count": 0, "ships_count": 0, "projects": [], "coding_time_seconds": 0, "coding_time_seconds_today": 0, "balance": "You need to have a pocket watcher badge to view this.", "badges": [], "created_at": "2025-09-10T11:33:20.735-04:00", "updated_at": "2025-09-13T09:09:23.760-04:00", "avatar": "https://secure.gravatar.com/avatar/a17c88650adcdf981d862550a58b402e.jpg?s=512&d=https%3A%2F%2Fa.slack-edge.com%2Fdf10d%2Fimg%2Favatars%2Fava_0001-512.png", "custom_css": null}, {"id": 23360, "slack_id": "U09EK698D0E", "display_name": "Matthew Anderson", "bio": null, "projects_count": 0, "devlogs_count": 0, "votes_count": 0, "ships_count": 0, "projects": [], "coding_time_seconds": 0, "coding_time_seconds_today": 0, "balance": "You need to have a pocket watcher badge to view this.", "badges": [], "created_at": "2025-09-10T12:02:56.571-04:00", "updated_at": "2025-09-11T04:04:35.609-04:00", "avatar": "https://avatars.slack-edge.com/2025-09-10/9508605713857_de1197ff7fade5e5f284_original.jpg", "custom_css": null}, {"id": 23361, "slack_id": "U090XJF4NSD", "display_name": "Ibrahim Malas", "bio": null, "projects_count": 1, "devlogs_count": 0, "votes_count": 1, "ships_count": 0, "projects": [{"id": 13328, "title": "Spellcaster", "devlogs_count": 0, "created_at": "2025-09-14T05:59:26.654-04:00"}], "coding_time_seconds": 11890, "coding_time_seconds_today": 0, "balance": "You need to have a pocket watcher badge to view this.", "badges": [], "created_at": "2025-09-10T12:05:01.865-04:00", "updated_at": "2025-09-14T05:53:40.926-04:00", "avatar": "https://avatars.slack-edge.com/2025-06-09/9020487880196_42d2f06d2aecea35d9ad_original.png", "custom_css": null}, {"id": 23362, "slack_id": "U09EPCQSLCC", "display_name": "Rayan", "bio": null, "projects_count": 0, "devlogs_count": 0, "votes_count": 0, "ships_count": 0, "projects": [], "coding_time_seconds": 0, "coding_time_seconds_today": 0, "balance": "You need to have a pocket watcher badge to view this.", "badges": [], "created_at": "2025-09-10T12:06:18.400-04:00", "updated_at": "2025-09-11T04:04:36.054-04:00", "avatar": "https://secure.gravatar.com/avatar/23a4d574f3cc9e986d9c7c85862c2935.jpg?s=512&d=https%3A%2F%2Fa.slack-edge.com%2Fdf10d%2Fimg%2Favatars%2Fava_0001-512.png", "custom_css": null}, {"id": 23363, "slack_id": "U09EKAQQ53L", "display_name": "Yannik", "bio": null, "projects_count": 0, "devlogs_count": 0, "votes_count": 0, "ships_count": 0, "projects": [], "coding_time_seconds": 0, "coding_time_seconds_today": 0, "balance": "You need to have a pocket watcher badge to view this.", "badges": [], "created_at": "2025-09-10T12:06:20.560-04:00", "updated_at": "2025-09-11T04:04:36.242-04:00", "avatar": "https://secure.gravatar.com/avatar/14edd44716fd3fd7ec04d762bec2e844.jpg?s=512&d=https%3A%2F%2Fa.slack-edge.com%2Fdf10d%2Fimg%2Favatars%2Fava_0025-512.png", "custom_css": null}, {"id": 23364, "slack_id": "U09EG2BE285", "display_name": "cris", "bio": null, "projects_count": 0, "devlogs_count": 0, "votes_count": 0, "ships_count": 0, "projects": [], "coding_time_seconds": 0, "coding_time_seconds_today": 0, "balance": "You need to have a pocket watcher badge to view this.", "badges": [], "created_at": "2025-09-10T12:07:02.404-04:00", "updated_at": "2025-09-11T04:04:36.477-04:00", "avatar": "https://secure.gravatar.com/avatar/93b6d19b8f1ecab6c7b34068c3119c86.jpg?s=512&d=https%3A%2F%2Fa.slack-edge.com%2Fdf10d%2Fimg%2Favatars%2Fava_0026-512.png", "custom_css": null}, {"id": 23365, "slack_id": "U09EF3CQGGK", "display_name": "Nguy\u1ec5n V\u0103n \u0110\u1ea1t", "bio": null, "projects_count": 0, "devlogs_count": 0, "votes_count": 0, "ships_count": 0, "projects": [], "coding_time_seconds": 0, "coding_time_seconds_today": 0, "balance": "You need to have a pocket watcher badge to view this.", "badges": [], "created_at": "2025-09-10T12:08:05.811-04:00", "updated_at": "2025-09-11T04:04:36.820-04:00", "avatar": "https://secure.gravatar.com/avatar/9e6e3d842fb62c3fbf6d2fef5600b0dd.jpg?s=512&d=https%3A%2F%2Fa.slack-edge.com%2Fdf10d%2Fimg%2Favatars%2Fava_0018-512.png", "custom_css": null}, {"id": 23366, "slack_id": "U09EKB8MT7U", "display_name": "Nonthapat Jamjai", "bio": null, "projects_count": 0, "devlogs_count": 0, "votes_count": 0, "ships_count": 0, "projects": [], "coding_time_seconds": 0, "coding_time_seconds_today": 0, "balance": "You need to have a pocket watcher badge to view this.", "badges": [], "created_at": "2025-09-10T12:09:09.143-04:00", "updated_at": "2025-09-11T04:04:37.120-04:00", "avatar": "https://secure.gravatar.com/avatar/0b819024466bcd70cb113c56d4eff74b.jpg?s=512&d=https%3A%2F%2Fa.slack-edge.com%2Fdf10d%2Fimg%2Favatars%2Fava_0008-512.png", "custom_css": null}, {"id": 23367, "slack_id": "U09EF3Y88PM", "display_name": "Lionel", "bio": null, "projects_count": 0, "devlogs_count": 0, "votes_count": 0, "ships_count": 0, "projects": [], "coding_time_seconds": 0, "coding_time_seconds_today": 0, "balance": "You need to have a pocket watcher badge to view this.", "badges": [], "created_at": "2025-09-10T12:09:57.575-04:00", "updated_at": "2025-09-11T04:04:37.303-04:00", "avatar": "https://secure.gravatar.com/avatar/a990655cd5f9189ccfec23cd62c63c0a.jpg?s=512&d=https%3A%2F%2Fa.slack-edge.com%2Fdf10d%2Fimg%2Favatars%2Fava_0003-512.png", "custom_css": null}, {"id": 23368, "slack_id": "U09EKBKNC3U", "display_name": "mr_nightwatch", "bio": null, "projects_count": 0, "devlogs_count": 0, "votes_count": 0, "ships_count": 0, "projects": [], "coding_time_seconds": 1545, "coding_time_seconds_today": 0, "balance": "You need to have a pocket watcher badge to view this.", "badges": [], "created_at": "2025-09-10T12:11:07.775-04:00", "updated_at": "2025-09-11T04:04:37.432-04:00", "avatar": "https://secure.gravatar.com/avatar/c84ceb52b81da6a14550962f61b00e98.jpg?s=512&d=https%3A%2F%2Fa.slack-edge.com%2Fdf10d%2Fimg%2Favatars%2Fava_0026-512.png", "custom_css": null}, {"id": 23369, "slack_id": "U09EKBYER9Q", "display_name": "Tej Singh Grover", "bio": null, "projects_count": 0, "devlogs_count": 0, "votes_count": 0, "ships_count": 0, "projects": [], "coding_time_seconds": 0, "coding_time_seconds_today": 0, "balance": "You need to have a pocket watcher badge to view this.", "badges": [], "created_at": "2025-09-10T12:11:37.723-04:00", "updated_at": "2025-09-11T04:04:37.707-04:00", "avatar": "https://avatars.slack-edge.com/2025-09-10/9495288247238_dd514eaca27d06dd628e_original.png", "custom_css": null}, {"id": 23370, "slack_id": "U09EF49RPKM", "display_name": "Prajwol", "bio": null, "projects_count": 0, "devlogs_count": 0, "votes_count": 0, "ships_count": 0, "projects": [], "coding_time_seconds": 0, "coding_time_seconds_today": 0, "balance": "You need to have a pocket watcher badge to view this.", "badges": [], "created_at": "2025-09-10T12:11:40.627-04:00", "updated_at": "2025-09-11T04:04:37.975-04:00", "avatar": "https://secure.gravatar.com/avatar/ae3495be0ff698a67b158580d571ed30.jpg?s=512&d=https%3A%2F%2Fa.slack-edge.com%2Fdf10d%2Fimg%2Favatars%2Fava_0001-512.png", "custom_css": null}, {"id": 23371, "slack_id": "U09EYL1TTNV", "display_name": "Matthew", "bio": null, "projects_count": 0, "devlogs_count": 0, "votes_count": 0, "ships_count": 0, "projects": [], "coding_time_seconds": 7678, "coding_time_seconds_today": 0, "balance": "You need to have a pocket watcher badge to view this.", "badges": [], "created_at": "2025-09-10T12:14:19.027-04:00", "updated_at": "2025-09-11T04:04:38.138-04:00", "avatar": "https://secure.gravatar.com/avatar/bd10c4143b0de1d29dbd2e7b3c6e47ad.jpg?s=512&d=https%3A%2F%2Fa.slack-edge.com%2Fdf10d%2Fimg%2Favatars%2Fava_0021-512.png", "custom_css": null}, {"id": 23372, "slack_id": "U09EG3TB7M3", "display_name": "Lotan", "bio": null, "projects_count": 1, "devlogs_count": 1, "votes_count": 1, "ships_count": 1, "projects": [{"id": 13206, "title": "The Kirk Tribute Hub", "devlogs_count": 1, "created_at": "2025-09-11T16:15:32.379-04:00"}], "coding_time_seconds": 6871, "coding_time_seconds_today": 0, "balance": "You need to have a pocket watcher badge to view this.", "badges": [{"name": "Maiden Voyage", "text": "you shipped your first project! the journey begins...", "icon": "\ud83d\udea2"}], "created_at": "2025-09-10T12:14:21.080-04:00", "updated_at": "2025-09-13T20:28:48.900-04:00", "avatar": "https://secure.gravatar.com/avatar/078b4cc79e34373b91a3885abcc82a86.jpg?s=512&d=https%3A%2F%2Fa.slack-edge.com%2Fdf10d%2Fimg%2Favatars%2Fava_0018-512.png", "custom_css": null}, {"id": 23373, "slack_id": "U09EK8XEJDU", "display_name": "Maria Vizitiu", "bio": null, "projects_count": 0, "devlogs_count": 0, "votes_count": 0, "ships_count": 0, "projects": [], "coding_time_seconds": 0, "coding_time_seconds_today": 0, "balance": "You need to have a pocket watcher badge to view this.", "badges": [], "created_at": "2025-09-10T12:15:52.385-04:00", "updated_at": "2025-09-11T04:04:38.572-04:00", "avatar": "https://secure.gravatar.com/avatar/e5d56ebe425aaead9f272574b7ae4b55.jpg?s=512&d=https%3A%2F%2Fa.slack-edge.com%2Fdf10d%2Fimg%2Favatars%2Fava_0019-512.png", "custom_css": null}, {"id": 23374, "slack_id": "U09EF5130LB", "display_name": "Yannik", "bio": null, "projects_count": 0, "devlogs_count": 0, "votes_count": 0, "ships_count": 0, "projects": [], "coding_time_seconds": 34955, "coding_time_seconds_today": 0, "balance": "You need to have a pocket watcher badge to view this.", "badges": [], "created_at": "2025-09-10T12:15:52.829-04:00", "updated_at": "2025-09-11T04:04:38.687-04:00", "avatar": "https://secure.gravatar.com/avatar/30347711074e045021bdaeb6a829ad23.jpg?s=512&d=https%3A%2F%2Fa.slack-edge.com%2Fdf10d%2Fimg%2Favatars%2Fava_0010-512.png", "custom_css": null}, {"id": 23375, "slack_id": "U09EG4WF961", "display_name": "Ethan Rubenstein", "bio": null, "projects_count": 0, "devlogs_count": 0, "votes_count": 0, "ships_count": 0, "projects": [], "coding_time_seconds": 1964, "coding_time_seconds_today": 0, "balance": "You need to have a pocket watcher badge to view this.", "badges": [], "created_at": "2025-09-10T12:18:19.733-04:00", "updated_at": "2025-09-11T04:04:38.799-04:00", "avatar": "https://avatars.slack-edge.com/2025-09-10/9499544871796_c31fad61e3247ba264f1_original.png", "custom_css": null}, {"id": 23376, "slack_id": "U09EF5W6QAF", "display_name": "Rian Chadha", "bio": null, "projects_count": 0, "devlogs_count": 0, "votes_count": 0, "ships_count": 0, "projects": [], "coding_time_seconds": 0, "coding_time_seconds_today": 0, "balance": "You need to have a pocket watcher badge to view this.", "badges": [], "created_at": "2025-09-10T12:20:32.813-04:00", "updated_at": "2025-09-11T04:04:38.920-04:00", "avatar": "https://avatars.slack-edge.com/2025-09-10/9495349823526_de132882d6fb69f01683_original.png", "custom_css": null}, {"id": 23377, "slack_id": "U09E57KEHDM", "display_name": "Faye", "bio": null, "projects_count": 0, "devlogs_count": 0, "votes_count": 0, "ships_count": 0, "projects": [], "coding_time_seconds": 1452, "coding_time_seconds_today": 0, "balance": "You need to have a pocket watcher badge to view this.", "badges": [], "created_at": "2025-09-10T12:24:45.708-04:00", "updated_at": "2025-09-11T04:04:39.017-04:00", "avatar": "https://avatars.slack-edge.com/2025-09-10/9496412989110_c656206595beffe725f6_original.jpg", "custom_css": null}], "pagination": {"page": 1163, "pages": 1192, "count": 23828, "items": 20}}