{"users": [{"id": 23378, "slack_id": "U09EPGYL6LU", "display_name": "Aaditya Shrestha", "bio": null, "projects_count": 1, "devlogs_count": 0, "votes_count": 0, "ships_count": 0, "projects": [{"id": 13349, "title": "US ", "devlogs_count": 0, "created_at": "2025-09-14T11:22:55.312-04:00"}], "coding_time_seconds": 1435, "coding_time_seconds_today": 0, "balance": "You need to have a pocket watcher badge to view this.", "badges": [], "created_at": "2025-09-10T12:26:54.612-04:00", "updated_at": "2025-09-12T01:00:10.754-04:00", "avatar": "https://secure.gravatar.com/avatar/7873ef7d1fe9779f2f511277513978aa.jpg?s=512&d=https%3A%2F%2Fa.slack-edge.com%2Fdf10d%2Fimg%2Favatars%2Fava_0017-512.png", "custom_css": null}, {"id": 23379, "slack_id": "U09EK815V5L", "display_name": "Rudra Bhardwaj", "bio": null, "projects_count": 0, "devlogs_count": 0, "votes_count": 0, "ships_count": 0, "projects": [], "coding_time_seconds": 0, "coding_time_seconds_today": 0, "balance": "You need to have a pocket watcher badge to view this.", "badges": [], "created_at": "2025-09-10T12:28:42.714-04:00", "updated_at": "2025-09-11T04:04:39.242-04:00", "avatar": "https://secure.gravatar.com/avatar/90ce92e4027fc742e2e76e1337ac33d8.jpg?s=512&d=https%3A%2F%2Fa.slack-edge.com%2Fdf10d%2Fimg%2Favatars%2Fava_0011-512.png", "custom_css": null}, {"id": 23380, "slack_id": "U09FCDLUD2L", "display_name": "Julian Speckmann", "bio": null, "projects_count": 0, "devlogs_count": 0, "votes_count": 0, "ships_count": 0, "projects": [], "coding_time_seconds": 85742, "coding_time_seconds_today": 0, "balance": "You need to have a pocket watcher badge to view this.", "badges": [], "created_at": "2025-09-10T12:30:09.236-04:00", "updated_at": "2025-09-11T04:04:39.356-04:00", "avatar": "https://secure.gravatar.com/avatar/86d04b8bd6fe59ef6c1f9a5ecd70621b.jpg?s=512&d=https%3A%2F%2Fa.slack-edge.com%2Fdf10d%2Fimg%2Favatars%2Fava_0000-512.png", "custom_css": null}, {"id": 23381, "slack_id": "U07LH75FPK2", "display_name": "Kareem Mukbil", "bio": null, "projects_count": 0, "devlogs_count": 0, "votes_count": 0, "ships_count": 0, "projects": [], "coding_time_seconds": 0, "coding_time_seconds_today": 0, "balance": "You need to have a pocket watcher badge to view this.", "badges": [], "created_at": "2025-09-10T12:30:46.946-04:00", "updated_at": "2025-09-11T04:04:39.451-04:00", "avatar": "https://secure.gravatar.com/avatar/4409825c0a94b01d5d0f1a2acba8c4f8.jpg?s=512&d=https%3A%2F%2Fa.slack-edge.com%2Fdf10d%2Fimg%2Favatars%2Fava_0020-512.png", "custom_css": null}, {"id": 23382, "slack_id": "U09EYNT2ZG9", "display_name": "Dragonblz64", "bio": null, "projects_count": 1, "devlogs_count": 3, "votes_count": 8, "ships_count": 1, "projects": [{"id": 13249, "title": "Tasks Follower", "devlogs_count": 3, "created_at": "2025-09-12T13:44:42.066-04:00"}], "coding_time_seconds": 9279, "coding_time_seconds_today": 0, "balance": "You need to have a pocket watcher badge to view this.", "badges": [{"name": "Maiden Voyage", "text": "you shipped your first project! the journey begins...", "icon": "\ud83d\udea2"}], "created_at": "2025-09-10T12:31:19.973-04:00", "updated_at": "2025-09-12T18:35:09.302-04:00", "avatar": "https://avatars.slack-edge.com/2025-09-10/9492469224005_59d56e4370a1706f1ab4_original.jpg", "custom_css": null}, {"id": 23383, "slack_id": "U09EF8HUX1R", "display_name": "Aiden Hicks", "bio": null, "projects_count": 0, "devlogs_count": 0, "votes_count": 0, "ships_count": 0, "projects": [], "coding_time_seconds": 0, "coding_time_seconds_today": 0, "balance": "You need to have a pocket watcher badge to view this.", "badges": [], "created_at": "2025-09-10T12:33:02.390-04:00", "updated_at": "2025-09-11T04:04:39.668-04:00", "avatar": "https://secure.gravatar.com/avatar/56d9bff1ba97aafe45d6ce6436f3b188.jpg?s=512&d=https%3A%2F%2Fa.slack-edge.com%2Fdf10d%2Fimg%2Favatars%2Fava_0016-512.png", "custom_css": null}, {"id": 23384, "slack_id": "U09EKHRS4NN", "display_name": "John J", "bio": null, "projects_count": 0, "devlogs_count": 0, "votes_count": 0, "ships_count": 0, "projects": [], "coding_time_seconds": 144103, "coding_time_seconds_today": 0, "balance": "You need to have a pocket watcher badge to view this.", "badges": [], "created_at": "2025-09-10T12:46:19.811-04:00", "updated_at": "2025-09-11T04:04:39.778-04:00", "avatar": "https://secure.gravatar.com/avatar/a0158aec1582f75259efa1e6cbd60842.jpg?s=512&d=https%3A%2F%2Fa.slack-edge.com%2Fdf10d%2Fimg%2Favatars%2Fava_0011-512.png", "custom_css": null}, {"id": 23385, "slack_id": "U09EKGHADQW", "display_name": "Faran Raheem", "bio": null, "projects_count": 0, "devlogs_count": 0, "votes_count": 0, "ships_count": 0, "projects": [], "coding_time_seconds": 0, "coding_time_seconds_today": 0, "balance": "You need to have a pocket watcher badge to view this.", "badges": [], "created_at": "2025-09-10T12:54:05.409-04:00", "updated_at": "2025-09-11T04:04:39.892-04:00", "avatar": "https://avatars.slack-edge.com/2025-09-10/9495578489030_60568f42069af27fc902_original.jpg", "custom_css": null}, {"id": 23386, "slack_id": "U09EKNPCVSN", "display_name": "Luis P\u00e9rez Refojo", "bio": null, "projects_count": 0, "devlogs_count": 0, "votes_count": 0, "ships_count": 0, "projects": [], "coding_time_seconds": 0, "coding_time_seconds_today": 0, "balance": "You need to have a pocket watcher badge to view this.", "badges": [], "created_at": "2025-09-10T13:05:03.446-04:00", "updated_at": "2025-09-11T04:04:40.121-04:00", "avatar": "https://avatars.slack-edge.com/2025-09-10/9481564388327_7850146bb17b5506d559_original.png", "custom_css": null}, {"id": 23387, "slack_id": "U09FBBTLXDW", "display_name": "aayat", "bio": null, "projects_count": 0, "devlogs_count": 0, "votes_count": 0, "ships_count": 0, "projects": [], "coding_time_seconds": 0, "coding_time_seconds_today": 0, "balance": "You need to have a pocket watcher badge to view this.", "badges": [], "created_at": "2025-09-10T13:07:59.184-04:00", "updated_at": "2025-09-11T04:04:40.352-04:00", "avatar": "https://secure.gravatar.com/avatar/33968273c6e93dc09cd43f579f0866be.jpg?s=512&d=https%3A%2F%2Fa.slack-edge.com%2Fdf10d%2Fimg%2Favatars%2Fava_0022-512.png", "custom_css": null}, {"id": 23388, "slack_id": "U09EPSZBA6Q", "display_name": "Alejandro", "bio": null, "projects_count": 0, "devlogs_count": 0, "votes_count": 0, "ships_count": 0, "projects": [], "coding_time_seconds": 0, "coding_time_seconds_today": 0, "balance": "You need to have a pocket watcher badge to view this.", "badges": [], "created_at": "2025-09-10T13:12:18.514-04:00", "updated_at": "2025-09-11T04:04:40.463-04:00", "avatar": "https://secure.gravatar.com/avatar/1a111d34b2b85d5e9d7b66da167f38c1.jpg?s=512&d=https%3A%2F%2Fa.slack-edge.com%2Fdf10d%2Fimg%2Favatars%2Fava_0018-512.png", "custom_css": null}, {"id": 23389, "slack_id": "U09EPTQAF7W", "display_name": "Hayyan Ather", "bio": null, "projects_count": 0, "devlogs_count": 0, "votes_count": 0, "ships_count": 0, "projects": [], "coding_time_seconds": 0, "coding_time_seconds_today": 0, "balance": "You need to have a pocket watcher badge to view this.", "badges": [], "created_at": "2025-09-10T13:17:21.100-04:00", "updated_at": "2025-09-11T04:04:40.610-04:00", "avatar": "https://avatars.slack-edge.com/2025-09-10/9509124117025_b1148793baa37c771e0e_original.png", "custom_css": null}, {"id": 23390, "slack_id": "U09EKS68KRQ", "display_name": "Sadman Abid", "bio": null, "projects_count": 0, "devlogs_count": 0, "votes_count": 0, "ships_count": 0, "projects": [], "coding_time_seconds": 2926, "coding_time_seconds_today": 0, "balance": "You need to have a pocket watcher badge to view this.", "badges": [], "created_at": "2025-09-10T13:23:58.891-04:00", "updated_at": "2025-09-11T04:04:40.764-04:00", "avatar": "https://avatars.slack-edge.com/2025-09-10/9509169716881_da3dd7ed502f5816d1f5_original.png", "custom_css": null}, {"id": 23391, "slack_id": "U09FCR26KNU", "display_name": "Abhinav Sajeev", "bio": null, "projects_count": 0, "devlogs_count": 0, "votes_count": 0, "ships_count": 0, "projects": [], "coding_time_seconds": 0, "coding_time_seconds_today": 0, "balance": "You need to have a pocket watcher badge to view this.", "badges": [], "created_at": "2025-09-10T13:27:15.061-04:00", "updated_at": "2025-09-11T04:04:40.870-04:00", "avatar": "https://secure.gravatar.com/avatar/b1d29afc52d667dadb8bd6ef695d4200.jpg?s=512&d=https%3A%2F%2Fa.slack-edge.com%2Fdf10d%2Fimg%2Favatars%2Fava_0000-512.png", "custom_css": null}, {"id": 23392, "slack_id": "U09FCRHDFCY", "display_name": "Daniel", "bio": null, "projects_count": 2, "devlogs_count": 0, "votes_count": 0, "ships_count": 0, "projects": [{"id": 13171, "title": "Golang and C projects", "devlogs_count": 0, "created_at": "2025-09-10T16:14:26.825-04:00"}, {"id": 13173, "title": "Reddit Stories Video Maker.", "devlogs_count": 0, "created_at": "2025-09-10T17:28:50.988-04:00"}], "coding_time_seconds": 7597, "coding_time_seconds_today": 0, "balance": "You need to have a pocket watcher badge to view this.", "badges": [], "created_at": "2025-09-10T13:30:13.803-04:00", "updated_at": "2025-09-11T04:04:40.975-04:00", "avatar": "https://secure.gravatar.com/avatar/4a5cde2b0225230524d282fd23d02973.jpg?s=512&d=https%3A%2F%2Fa.slack-edge.com%2Fdf10d%2Fimg%2Favatars%2Fava_0006-512.png", "custom_css": null}, {"id": 23393, "slack_id": "U09EQ2V7W68", "display_name": "Sherlock", "bio": null, "projects_count": 0, "devlogs_count": 0, "votes_count": 0, "ships_count": 0, "projects": [], "coding_time_seconds": 0, "coding_time_seconds_today": 0, "balance": "You need to have a pocket watcher badge to view this.", "badges": [], "created_at": "2025-09-10T13:39:19.191-04:00", "updated_at": "2025-09-11T04:04:41.092-04:00", "avatar": "https://secure.gravatar.com/avatar/bcb1161e3b841f7f1a89443d254e80e7.jpg?s=512&d=https%3A%2F%2Fa.slack-edge.com%2Fdf10d%2Fimg%2Favatars%2Fava_0021-512.png", "custom_css": null}, {"id": 23394, "slack_id": "U09E5N5UQ3Z", "display_name": "Florian", "bio": null, "projects_count": 0, "devlogs_count": 0, "votes_count": 0, "ships_count": 0, "projects": [], "coding_time_seconds": 0, "coding_time_seconds_today": 0, "balance": "You need to have a pocket watcher badge to view this.", "badges": [], "created_at": "2025-09-10T13:45:17.650-04:00", "updated_at": "2025-09-11T04:04:45.436-04:00", "avatar": "https://secure.gravatar.com/avatar/fd17ac17bbf460f22ca6744c6d8b38a8.jpg?s=512&d=https%3A%2F%2Fa.slack-edge.com%2Fdf10d%2Fimg%2Favatars%2Fava_0004-512.png", "custom_css": null}, {"id": 23395, "slack_id": "U09FD0BRV32", "display_name": "Albert", "bio": null, "projects_count": 0, "devlogs_count": 0, "votes_count": 0, "ships_count": 0, "projects": [], "coding_time_seconds": 0, "coding_time_seconds_today": 0, "balance": "You need to have a pocket watcher badge to view this.", "badges": [], "created_at": "2025-09-10T13:55:16.736-04:00", "updated_at": "2025-09-11T04:04:45.541-04:00", "avatar": "https://secure.gravatar.com/avatar/8bc6f3a5bcaa8c1e636131c8071654d1.jpg?s=512&d=https%3A%2F%2Fa.slack-edge.com%2Fdf10d%2Fimg%2Favatars%2Fava_0011-512.png", "custom_css": null}, {"id": 23396, "slack_id": "U09EL3ACK8S", "display_name": "Marc Van Der Velden", "bio": null, "projects_count": 1, "devlogs_count": 7, "votes_count": 0, "ships_count": 0, "projects": [{"id": 13230, "title": "Discord Core Bot", "devlogs_count": 8, "created_at": "2025-09-12T06:16:38.095-04:00"}], "coding_time_seconds": 12889, "coding_time_seconds_today": 0, "balance": "You need to have a pocket watcher badge to view this.", "badges": [], "created_at": "2025-09-10T14:00:36.270-04:00", "updated_at": "2025-09-12T06:01:38.735-04:00", "avatar": "https://avatars.slack-edge.com/2025-09-10/9481928269479_b70f37a4a3bd29dbc6b0_original.jpg", "custom_css": null}, {"id": 23397, "slack_id": "U09EQ5W28H2", "display_name": "Arthur", "bio": null, "projects_count": 0, "devlogs_count": 0, "votes_count": 0, "ships_count": 0, "projects": [], "coding_time_seconds": 0, "coding_time_seconds_today": 0, "balance": "You need to have a pocket watcher badge to view this.", "badges": [], "created_at": "2025-09-10T14:02:56.991-04:00", "updated_at": "2025-09-11T11:52:37.276-04:00", "avatar": "https://secure.gravatar.com/avatar/9564ea897a36c2765944e25e8c43d3f2.jpg?s=512&d=https%3A%2F%2Fa.slack-edge.com%2Fdf10d%2Fimg%2Favatars%2Fava_0008-512.png", "custom_css": null}], "pagination": {"page": 1164, "pages": 1192, "count": 23828, "items": 20}}