{"users": [{"id": 23398, "slack_id": "U09FD3CR73J", "display_name": "Franklin Rigoutsos", "bio": "", "projects_count": 0, "devlogs_count": 0, "votes_count": 0, "ships_count": 0, "projects": [], "coding_time_seconds": 0, "coding_time_seconds_today": 0, "balance": "You need to have a pocket watcher badge to view this.", "badges": [], "created_at": "2025-09-10T14:07:15.833-04:00", "updated_at": "2025-09-11T04:04:49.985-04:00", "avatar": "https://secure.gravatar.com/avatar/5bb0232331f57cafa950524c9308dc45.jpg?s=512&d=https%3A%2F%2Fa.slack-edge.com%2Fdf10d%2Fimg%2Favatars%2Fava_0005-512.png", "custom_css": null}, {"id": 23399, "slack_id": "U09EL5FTD8A", "display_name": "valerio", "bio": null, "projects_count": 0, "devlogs_count": 0, "votes_count": 0, "ships_count": 0, "projects": [], "coding_time_seconds": 375, "coding_time_seconds_today": 0, "balance": "You need to have a pocket watcher badge to view this.", "badges": [], "created_at": "2025-09-10T14:10:10.116-04:00", "updated_at": "2025-09-11T04:04:50.213-04:00", "avatar": "https://secure.gravatar.com/avatar/b70e81379bddbfdfd5aa7c1de74b70c6.jpg?s=512&d=https%3A%2F%2Fa.slack-edge.com%2Fdf10d%2Fimg%2Favatars%2Fava_0025-512.png", "custom_css": null}, {"id": 23400, "slack_id": "U09EFUW24Q3", "display_name": "Luis Fernando Morales", "bio": null, "projects_count": 0, "devlogs_count": 0, "votes_count": 0, "ships_count": 0, "projects": [], "coding_time_seconds": 0, "coding_time_seconds_today": 0, "balance": "You need to have a pocket watcher badge to view this.", "badges": [], "created_at": "2025-09-10T14:18:07.244-04:00", "updated_at": "2025-09-11T04:04:50.402-04:00", "avatar": "https://secure.gravatar.com/avatar/e26665ac9c4cbd8c0c3e891113220bd4.jpg?s=512&d=https%3A%2F%2Fa.slack-edge.com%2Fdf10d%2Fimg%2Favatars%2Fava_0000-512.png", "custom_css": null}, {"id": 23401, "slack_id": "U09EG1ZJ9B5", "display_name": "Zichi Baravalle", "bio": null, "projects_count": 0, "devlogs_count": 0, "votes_count": 0, "ships_count": 0, "projects": [], "coding_time_seconds": 9947, "coding_time_seconds_today": 0, "balance": "You need to have a pocket watcher badge to view this.", "badges": [], "created_at": "2025-09-10T14:43:11.313-04:00", "updated_at": "2025-09-11T04:04:50.552-04:00", "avatar": "https://secure.gravatar.com/avatar/9db51fbd6f80075addd240f3c96cd345.jpg?s=512&d=https%3A%2F%2Fa.slack-edge.com%2Fdf10d%2Fimg%2Favatars%2Fava_0001-512.png", "custom_css": null}, {"id": 23402, "slack_id": "U09EG4USAD9", "display_name": "svpandya", "bio": null, "projects_count": 1, "devlogs_count": 4, "votes_count": 1, "ships_count": 1, "projects": [{"id": 13302, "title": "Personal Website", "devlogs_count": 4, "created_at": "2025-09-13T16:39:02.410-04:00"}], "coding_time_seconds": 79549, "coding_time_seconds_today": 0, "balance": "You need to have a pocket watcher badge to view this.", "badges": [{"name": "Maiden Voyage", "text": "you shipped your first project! the journey begins...", "icon": "\ud83d\udea2"}], "created_at": "2025-09-10T14:47:42.056-04:00", "updated_at": "2025-09-14T16:09:56.984-04:00", "avatar": "https://secure.gravatar.com/avatar/bda277280f66ec7fee66a37ce10ce730.jpg?s=512&d=https%3A%2F%2Fa.slack-edge.com%2Fdf10d%2Fimg%2Favatars%2Fava_0022-512.png", "custom_css": null}, {"id": 23403, "slack_id": "U09EQJPLD2Q", "display_name": "Aristu Sachdev", "bio": null, "projects_count": 0, "devlogs_count": 0, "votes_count": 0, "ships_count": 0, "projects": [], "coding_time_seconds": 5542, "coding_time_seconds_today": 0, "balance": "You need to have a pocket watcher badge to view this.", "badges": [], "created_at": "2025-09-10T15:01:07.405-04:00", "updated_at": "2025-09-11T04:04:51.060-04:00", "avatar": "https://avatars.slack-edge.com/2025-09-10/9492263203811_5e98a4c596cfc4dd16f6_original.png", "custom_css": null}, {"id": 23404, "slack_id": "U09ELFQJJS2", "display_name": "Abhishek Gopal Ramshanker", "bio": null, "projects_count": 0, "devlogs_count": 0, "votes_count": 0, "ships_count": 0, "projects": [], "coding_time_seconds": 1771, "coding_time_seconds_today": 0, "balance": "You need to have a pocket watcher badge to view this.", "badges": [], "created_at": "2025-09-10T15:21:23.012-04:00", "updated_at": "2025-09-11T04:04:51.359-04:00", "avatar": "https://avatars.slack-edge.com/2025-09-10/9496622347858_f7cfaab7985bb7eef016_original.png", "custom_css": null}, {"id": 23405, "slack_id": "U09EDPTS12A", "display_name": "somya", "bio": null, "projects_count": 0, "devlogs_count": 0, "votes_count": 0, "ships_count": 0, "projects": [], "coding_time_seconds": 0, "coding_time_seconds_today": 0, "balance": "You need to have a pocket watcher badge to view this.", "badges": [], "created_at": "2025-09-10T15:25:56.824-04:00", "updated_at": "2025-09-11T04:04:51.528-04:00", "avatar": "https://secure.gravatar.com/avatar/45e896538721372f90fd18c19472e23e.jpg?s=512&d=https%3A%2F%2Fa.slack-edge.com%2Fdf10d%2Fimg%2Favatars%2Fava_0018-512.png", "custom_css": null}, {"id": 23406, "slack_id": "U09EGNWGXQB", "display_name": "Patryk", "bio": null, "projects_count": 0, "devlogs_count": 0, "votes_count": 0, "ships_count": 0, "projects": [], "coding_time_seconds": 0, "coding_time_seconds_today": 0, "balance": "You need to have a pocket watcher badge to view this.", "badges": [], "created_at": "2025-09-10T16:32:34.971-04:00", "updated_at": "2025-09-11T04:04:52.031-04:00", "avatar": "https://secure.gravatar.com/avatar/c05b791af880e70ee2aec75f8b29e069.jpg?s=512&d=https%3A%2F%2Fa.slack-edge.com%2Fdf10d%2Fimg%2Favatars%2Fava_0025-512.png", "custom_css": null}, {"id": 23407, "slack_id": "U09EGSCUPUK", "display_name": "Lee Macri", "bio": null, "projects_count": 0, "devlogs_count": 0, "votes_count": 0, "ships_count": 0, "projects": [], "coding_time_seconds": 0, "coding_time_seconds_today": 0, "balance": "You need to have a pocket watcher badge to view this.", "badges": [], "created_at": "2025-09-10T16:55:34.612-04:00", "updated_at": "2025-09-11T04:04:52.144-04:00", "avatar": "https://avatars.slack-edge.com/2025-09-10/9482973599239_a194a04ea0b0099966da_original.png", "custom_css": null}, {"id": 23408, "slack_id": "U09ERDTNRS8", "display_name": "Hayden Williams", "bio": null, "projects_count": 1, "devlogs_count": 1, "votes_count": 1, "ships_count": 0, "projects": [{"id": 13176, "title": "Flatstick Stats", "devlogs_count": 1, "created_at": "2025-09-10T18:31:06.415-04:00"}], "coding_time_seconds": 76573, "coding_time_seconds_today": 0, "balance": "You need to have a pocket watcher badge to view this.", "badges": [], "created_at": "2025-09-10T17:25:45.853-04:00", "updated_at": "2025-09-11T04:04:52.238-04:00", "avatar": "https://avatars.slack-edge.com/2025-09-10/9497280013682_08585b6ff04f643e9ec5_original.png", "custom_css": null}, {"id": 23409, "slack_id": "U09E72WFEDV", "display_name": "Joseph", "bio": null, "projects_count": 0, "devlogs_count": 0, "votes_count": 0, "ships_count": 0, "projects": [], "coding_time_seconds": 0, "coding_time_seconds_today": 0, "balance": "You need to have a pocket watcher badge to view this.", "badges": [], "created_at": "2025-09-10T17:27:20.190-04:00", "updated_at": "2025-09-11T04:04:52.335-04:00", "avatar": "https://secure.gravatar.com/avatar/e08e8517d0af2341027af719d2b69453.jpg?s=512&d=https%3A%2F%2Fa.slack-edge.com%2Fdf10d%2Fimg%2Favatars%2Fava_0023-512.png", "custom_css": null}, {"id": 23410, "slack_id": "U09F0KEAG4R", "display_name": "Callie", "bio": null, "projects_count": 1, "devlogs_count": 0, "votes_count": 0, "ships_count": 0, "projects": [{"id": 13177, "title": "Archaeology Game", "devlogs_count": 0, "created_at": "2025-09-10T20:05:04.682-04:00"}], "coding_time_seconds": 4859, "coding_time_seconds_today": 0, "balance": "You need to have a pocket watcher badge to view this.", "badges": [], "created_at": "2025-09-10T17:37:45.281-04:00", "updated_at": "2025-09-11T04:04:52.429-04:00", "avatar": "https://secure.gravatar.com/avatar/5db0b79ce58202aaf301782056c3018d.jpg?s=512&d=https%3A%2F%2Fa.slack-edge.com%2Fdf10d%2Fimg%2Favatars%2Fava_0004-512.png", "custom_css": null}, {"id": 23411, "slack_id": "U09EJ3X23KP", "display_name": "Dhiyaan Nirmal", "bio": null, "projects_count": 0, "devlogs_count": 0, "votes_count": 0, "ships_count": 0, "projects": [], "coding_time_seconds": 0, "coding_time_seconds_today": 0, "balance": "You need to have a pocket watcher badge to view this.", "badges": [], "created_at": "2025-09-10T17:52:41.360-04:00", "updated_at": "2025-09-11T04:04:52.552-04:00", "avatar": "https://secure.gravatar.com/avatar/4482d374b73c5372116de336aa245fde.jpg?s=512&d=https%3A%2F%2Fa.slack-edge.com%2Fdf10d%2Fimg%2Favatars%2Fava_0011-512.png", "custom_css": null}, {"id": 23412, "slack_id": "U09EJ8Q3EVB", "display_name": "Chaitra", "bio": null, "projects_count": 0, "devlogs_count": 0, "votes_count": 0, "ships_count": 0, "projects": [], "coding_time_seconds": 0, "coding_time_seconds_today": 0, "balance": "You need to have a pocket watcher badge to view this.", "badges": [], "created_at": "2025-09-10T18:34:07.807-04:00", "updated_at": "2025-09-11T04:04:52.664-04:00", "avatar": "https://secure.gravatar.com/avatar/ac2cb3595c4923e18326977f77670001.jpg?s=512&d=https%3A%2F%2Fa.slack-edge.com%2Fdf10d%2Fimg%2Favatars%2Fava_0006-512.png", "custom_css": null}, {"id": 23413, "slack_id": "U09E7GHLFE3", "display_name": "ToyMobi", "bio": null, "projects_count": 0, "devlogs_count": 0, "votes_count": 0, "ships_count": 0, "projects": [], "coding_time_seconds": 0, "coding_time_seconds_today": 0, "balance": "You need to have a pocket watcher badge to view this.", "badges": [], "created_at": "2025-09-10T19:21:42.940-04:00", "updated_at": "2025-09-11T04:04:52.762-04:00", "avatar": "https://avatars.slack-edge.com/2025-09-10/9501943510724_2433b03d7a126fde70f9_original.png", "custom_css": null}, {"id": 23414, "slack_id": "U09EGASSA3D", "display_name": "Abigail", "bio": null, "projects_count": 0, "devlogs_count": 0, "votes_count": 0, "ships_count": 0, "projects": [], "coding_time_seconds": 0, "coding_time_seconds_today": 0, "balance": "You need to have a pocket watcher badge to view this.", "badges": [], "created_at": "2025-09-10T19:39:19.678-04:00", "updated_at": "2025-09-11T04:04:52.857-04:00", "avatar": "https://secure.gravatar.com/avatar/b407bf5838c2600f9e70cacc987c869d.jpg?s=512&d=https%3A%2F%2Fa.slack-edge.com%2Fdf10d%2Fimg%2Favatars%2Fava_0010-512.png", "custom_css": null}, {"id": 23415, "slack_id": "U08NYCWPRCG", "display_name": "Caleb", "bio": null, "projects_count": 0, "devlogs_count": 0, "votes_count": 0, "ships_count": 0, "projects": [], "coding_time_seconds": 3356, "coding_time_seconds_today": 0, "balance": "You need to have a pocket watcher badge to view this.", "badges": [], "created_at": "2025-09-10T21:17:15.249-04:00", "updated_at": "2025-09-10T21:19:16.002-04:00", "avatar": "https://secure.gravatar.com/avatar/ad47fed5a9c08f177cab3462aa952cb7.jpg?s=512&d=https%3A%2F%2Fa.slack-edge.com%2Fdf10d%2Fimg%2Favatars%2Fava_0016-512.png", "custom_css": null}, {"id": 23416, "slack_id": "U09EK565421", "display_name": "Amadeus Alexander Theodore", "bio": null, "projects_count": 0, "devlogs_count": 0, "votes_count": 0, "ships_count": 0, "projects": [], "coding_time_seconds": 0, "coding_time_seconds_today": 0, "balance": "You need to have a pocket watcher badge to view this.", "badges": [], "created_at": "2025-09-10T22:46:41.775-04:00", "updated_at": "2025-09-11T04:04:53.043-04:00", "avatar": "https://secure.gravatar.com/avatar/18c3a14a8d9cfa79bcd41a83e566d0d5.jpg?s=512&d=https%3A%2F%2Fa.slack-edge.com%2Fdf10d%2Fimg%2Favatars%2Fava_0000-512.png", "custom_css": null}, {"id": 23417, "slack_id": "U09EK8CM1E1", "display_name": "Enigma", "bio": null, "projects_count": 0, "devlogs_count": 0, "votes_count": 0, "ships_count": 0, "projects": [], "coding_time_seconds": 4652, "coding_time_seconds_today": 0, "balance": "You need to have a pocket watcher badge to view this.", "badges": [], "created_at": "2025-09-10T23:19:51.605-04:00", "updated_at": "2025-09-11T08:44:06.614-04:00", "avatar": "https://secure.gravatar.com/avatar/7b9e5ba803ecd0ada563ecb04c161446.jpg?s=512&d=https%3A%2F%2Fa.slack-edge.com%2Fdf10d%2Fimg%2Favatars%2Fava_0004-512.png", "custom_css": null}], "pagination": {"page": 1165, "pages": 1192, "count": 23828, "items": 20}}