{"users": [{"id": 23418, "slack_id": "U09ESNZ9NJ0", "display_name": "King Solo", "bio": null, "projects_count": 0, "devlogs_count": 0, "votes_count": 0, "ships_count": 0, "projects": [], "coding_time_seconds": 0, "coding_time_seconds_today": 0, "balance": "You need to have a pocket watcher badge to view this.", "badges": [], "created_at": "2025-09-10T23:37:53.006-04:00", "updated_at": "2025-09-11T04:04:53.295-04:00", "avatar": "https://secure.gravatar.com/avatar/a961bc74bde9708b4b572b5369a742e7.jpg?s=512&d=https%3A%2F%2Fa.slack-edge.com%2Fdf10d%2Fimg%2Favatars%2Fava_0022-512.png", "custom_css": null}, {"id": 23419, "slack_id": "U09F1U30XB3", "display_name": "Adam", "bio": "", "projects_count": 0, "devlogs_count": 0, "votes_count": 0, "ships_count": 0, "projects": [], "coding_time_seconds": 0, "coding_time_seconds_today": 0, "balance": "You need to have a pocket watcher badge to view this.", "badges": [], "created_at": "2025-09-10T23:38:16.610-04:00", "updated_at": "2025-09-11T08:45:56.853-04:00", "avatar": "https://avatars.slack-edge.com/2025-09-10/9495357044405_cc7d8a51a641fb3e4150_original.png", "custom_css": null}, {"id": 23420, "slack_id": "U08P9LQ7AQP", "display_name": "Tanvith Poojary", "bio": null, "projects_count": 0, "devlogs_count": 0, "votes_count": 0, "ships_count": 0, "projects": [], "coding_time_seconds": 0, "coding_time_seconds_today": 0, "balance": "You need to have a pocket watcher badge to view this.", "badges": [], "created_at": "2025-09-10T23:41:44.708-04:00", "updated_at": "2025-09-11T04:04:53.497-04:00", "avatar": "https://secure.gravatar.com/avatar/a9e2019a6e6adb6a2d8e67500844b177.jpg?s=512&d=https%3A%2F%2Fa.slack-edge.com%2Fdf10d%2Fimg%2Favatars%2Fava_0007-512.png", "custom_css": null}, {"id": 23421, "slack_id": "U09E5657M4J", "display_name": "Umakant Gaur", "bio": null, "projects_count": 0, "devlogs_count": 0, "votes_count": 0, "ships_count": 0, "projects": [], "coding_time_seconds": 0, "coding_time_seconds_today": 0, "balance": "You need to have a pocket watcher badge to view this.", "badges": [], "created_at": "2025-09-11T00:04:51.044-04:00", "updated_at": "2025-09-11T04:04:53.600-04:00", "avatar": "https://secure.gravatar.com/avatar/ae4f4aa7a72429de96bc6280b213752e.jpg?s=512&d=https%3A%2F%2Fa.slack-edge.com%2Fdf10d%2Fimg%2Favatars%2Fava_0008-512.png", "custom_css": null}, {"id": 23422, "slack_id": "U09EJF39SH1", "display_name": "Prayansh", "bio": null, "projects_count": 0, "devlogs_count": 0, "votes_count": 0, "ships_count": 0, "projects": [], "coding_time_seconds": 0, "coding_time_seconds_today": 0, "balance": "You need to have a pocket watcher badge to view this.", "badges": [], "created_at": "2025-09-11T00:20:48.244-04:00", "updated_at": "2025-09-11T04:04:53.720-04:00", "avatar": "https://secure.gravatar.com/avatar/3763217bc5616fb2e3f264f7a6c4a596.jpg?s=512&d=https%3A%2F%2Fa.slack-edge.com%2Fdf10d%2Fimg%2Favatars%2Fava_0020-512.png", "custom_css": null}, {"id": 23423, "slack_id": "U09ET00MHKN", "display_name": "yakin nsanzumuhire", "bio": null, "projects_count": 1, "devlogs_count": 0, "votes_count": 0, "ships_count": 0, "projects": [{"id": 13186, "title": "droptube", "devlogs_count": 0, "created_at": "2025-09-11T08:30:21.228-04:00"}], "coding_time_seconds": 55167, "coding_time_seconds_today": 0, "balance": "You need to have a pocket watcher badge to view this.", "badges": [], "created_at": "2025-09-11T00:33:33.793-04:00", "updated_at": "2025-09-11T04:04:53.814-04:00", "avatar": "https://secure.gravatar.com/avatar/793bc68b7cc43a62d55ae93cd98d9d52.jpg?s=512&d=https%3A%2F%2Fa.slack-edge.com%2Fdf10d%2Fimg%2Favatars%2Fava_0022-512.png", "custom_css": null}, {"id": 23424, "slack_id": "U09EJH5JJ1Z", "display_name": "Lumi", "bio": null, "projects_count": 0, "devlogs_count": 0, "votes_count": 0, "ships_count": 0, "projects": [], "coding_time_seconds": 0, "coding_time_seconds_today": 0, "balance": "You need to have a pocket watcher badge to view this.", "badges": [], "created_at": "2025-09-11T00:41:16.993-04:00", "updated_at": "2025-09-11T04:04:53.912-04:00", "avatar": "https://secure.gravatar.com/avatar/fc7f70bcf058691a1f1ae5784f4dd4d6.jpg?s=512&d=https%3A%2F%2Fa.slack-edge.com%2Fdf10d%2Fimg%2Favatars%2Fava_0022-512.png", "custom_css": null}, {"id": 23425, "slack_id": "U08SGS771S8", "display_name": "Yash", "bio": null, "projects_count": 0, "devlogs_count": 0, "votes_count": 0, "ships_count": 0, "projects": [], "coding_time_seconds": 0, "coding_time_seconds_today": 0, "balance": "You need to have a pocket watcher badge to view this.", "badges": [], "created_at": "2025-09-11T00:57:14.298-04:00", "updated_at": "2025-09-11T04:04:54.023-04:00", "avatar": "https://secure.gravatar.com/avatar/d2937cdf511aea770faa75add88b95d6.jpg?s=512&d=https%3A%2F%2Fa.slack-edge.com%2Fdf10d%2Fimg%2Favatars%2Fava_0024-512.png", "custom_css": null}, {"id": 23426, "slack_id": "U09ET3X0G3W", "display_name": "Kynan", "bio": null, "projects_count": 0, "devlogs_count": 0, "votes_count": 0, "ships_count": 0, "projects": [], "coding_time_seconds": 19418, "coding_time_seconds_today": 0, "balance": "You need to have a pocket watcher badge to view this.", "badges": [], "created_at": "2025-09-11T01:09:57.404-04:00", "updated_at": "2025-09-11T04:04:54.123-04:00", "avatar": "https://secure.gravatar.com/avatar/46bdccb9bed9f88d48cc9a1ec0ef8d2e.jpg?s=512&d=https%3A%2F%2Fa.slack-edge.com%2Fdf10d%2Fimg%2Favatars%2Fava_0013-512.png", "custom_css": null}, {"id": 23427, "slack_id": "U09ETFJ9ZC4", "display_name": "alex", "bio": null, "projects_count": 1, "devlogs_count": 0, "votes_count": 0, "ships_count": 0, "projects": [{"id": 13202, "title": "Universal Console Controller Tester", "devlogs_count": 0, "created_at": "2025-09-11T13:21:04.194-04:00"}], "coding_time_seconds": 1271, "coding_time_seconds_today": 0, "balance": "You need to have a pocket watcher badge to view this.", "badges": [], "created_at": "2025-09-11T02:49:18.948-04:00", "updated_at": "2025-09-11T13:21:52.566-04:00", "avatar": "https://secure.gravatar.com/avatar/9639053efa0ffafcef6ffc5d1bf5fae8.jpg?s=512&d=https%3A%2F%2Fa.slack-edge.com%2Fdf10d%2Fimg%2Favatars%2Fava_0022-512.png", "custom_css": null}, {"id": 23428, "slack_id": "U09F2LLU0JD", "display_name": "Alex H", "bio": null, "projects_count": 0, "devlogs_count": 0, "votes_count": 0, "ships_count": 0, "projects": [], "coding_time_seconds": 0, "coding_time_seconds_today": 0, "balance": "You need to have a pocket watcher badge to view this.", "badges": [], "created_at": "2025-09-11T02:55:27.325-04:00", "updated_at": "2025-09-11T04:04:54.311-04:00", "avatar": "https://secure.gravatar.com/avatar/ddfce11a68d2b8b0ad1f4ad91688af45.jpg?s=512&d=https%3A%2F%2Fa.slack-edge.com%2Fdf10d%2Fimg%2Favatars%2Fava_0011-512.png", "custom_css": null}, {"id": 23429, "slack_id": "U09E96Q0W4X", "display_name": "Pyromagie", "bio": null, "projects_count": 0, "devlogs_count": 0, "votes_count": 0, "ships_count": 0, "projects": [], "coding_time_seconds": 9574, "coding_time_seconds_today": 0, "balance": "You need to have a pocket watcher badge to view this.", "badges": [], "created_at": "2025-09-11T03:03:05.504-04:00", "updated_at": "2025-09-11T16:57:25.589-04:00", "avatar": "https://secure.gravatar.com/avatar/949747e3f12bc362d73804c4dfb96164.jpg?s=512&d=https%3A%2F%2Fa.slack-edge.com%2Fdf10d%2Fimg%2Favatars%2Fava_0008-512.png", "custom_css": null}, {"id": 23430, "slack_id": "U09F2MSLMJ5", "display_name": "Pyromagie", "bio": null, "projects_count": 0, "devlogs_count": 0, "votes_count": 0, "ships_count": 0, "projects": [], "coding_time_seconds": 0, "coding_time_seconds_today": 0, "balance": "You need to have a pocket watcher badge to view this.", "badges": [], "created_at": "2025-09-11T03:21:41.220-04:00", "updated_at": "2025-09-11T04:04:59.549-04:00", "avatar": "https://secure.gravatar.com/avatar/0fc290a6b1b402ef49d7551e3ea4a575.jpg?s=512&d=https%3A%2F%2Fa.slack-edge.com%2Fdf10d%2Fimg%2Favatars%2Fava_0022-512.png", "custom_css": null}, {"id": 23431, "slack_id": "U09EK7TPGDR", "display_name": "Mahi", "bio": null, "projects_count": 1, "devlogs_count": 0, "votes_count": 0, "ships_count": 0, "projects": [{"id": 13184, "title": "Basic 3D Solar System Simulation", "devlogs_count": 0, "created_at": "2025-09-11T03:45:55.206-04:00"}], "coding_time_seconds": 46640, "coding_time_seconds_today": 2598, "balance": "You need to have a pocket watcher badge to view this.", "badges": [], "created_at": "2025-09-11T03:22:40.334-04:00", "updated_at": "2025-09-11T07:30:03.386-04:00", "avatar": "https://secure.gravatar.com/avatar/69b0d65a3513772dd7966e4ac84aeda2.jpg?s=512&d=https%3A%2F%2Fa.slack-edge.com%2Fdf10d%2Fimg%2Favatars%2Fava_0023-512.png", "custom_css": null}, {"id": 23432, "slack_id": "U09FD1E3F6C", "display_name": "Burian Hunor", "bio": null, "projects_count": 0, "devlogs_count": 0, "votes_count": 0, "ships_count": 0, "projects": [], "coding_time_seconds": 0, "coding_time_seconds_today": 0, "balance": "You need to have a pocket watcher badge to view this.", "badges": [], "created_at": "2025-09-11T03:22:41.978-04:00", "updated_at": "2025-09-11T04:05:00.226-04:00", "avatar": "https://secure.gravatar.com/avatar/ce33cb10fb85f1268c1835dcee559437.jpg?s=512&d=https%3A%2F%2Fa.slack-edge.com%2Fdf10d%2Fimg%2Favatars%2Fava_0009-512.png", "custom_css": null}, {"id": 23433, "slack_id": "U09EPCS8TGA", "display_name": "Jodies Lee", "bio": null, "projects_count": 0, "devlogs_count": 0, "votes_count": 0, "ships_count": 0, "projects": [], "coding_time_seconds": 0, "coding_time_seconds_today": 0, "balance": "You need to have a pocket watcher badge to view this.", "badges": [], "created_at": "2025-09-11T03:30:48.603-04:00", "updated_at": "2025-09-11T04:05:00.467-04:00", "avatar": "https://avatars.slack-edge.com/2025-09-11/9512901834977_6c3137d5e3a52fade655_original.jpg", "custom_css": null}, {"id": 23434, "slack_id": "U09ETMY64SY", "display_name": "Deepak Kandel", "bio": null, "projects_count": 0, "devlogs_count": 0, "votes_count": 0, "ships_count": 0, "projects": [], "coding_time_seconds": 0, "coding_time_seconds_today": 0, "balance": "You need to have a pocket watcher badge to view this.", "badges": [], "created_at": "2025-09-11T03:31:32.182-04:00", "updated_at": "2025-09-11T04:05:00.892-04:00", "avatar": "https://secure.gravatar.com/avatar/d30de44c6596e67ca7f6484e0da3a76a.jpg?s=512&d=https%3A%2F%2Fa.slack-edge.com%2Fdf10d%2Fimg%2Favatars%2Fava_0017-512.png", "custom_css": null}, {"id": 23435, "slack_id": "U09F2SML2TB", "display_name": "Shashwat Singh", "bio": null, "projects_count": 0, "devlogs_count": 0, "votes_count": 0, "ships_count": 0, "projects": [], "coding_time_seconds": 0, "coding_time_seconds_today": 0, "balance": "You need to have a pocket watcher badge to view this.", "badges": [], "created_at": "2025-09-11T03:36:28.734-04:00", "updated_at": "2025-09-11T04:05:02.674-04:00", "avatar": "https://secure.gravatar.com/avatar/75455ad7000b6cc87c51a20c81804915.jpg?s=512&d=https%3A%2F%2Fa.slack-edge.com%2Fdf10d%2Fimg%2Favatars%2Fava_0018-512.png", "custom_css": null}, {"id": 23436, "slack_id": "U09FJ0N484Q", "display_name": "robertoo", "bio": null, "projects_count": 0, "devlogs_count": 0, "votes_count": 0, "ships_count": 0, "projects": [], "coding_time_seconds": 0, "coding_time_seconds_today": 0, "balance": "You need to have a pocket watcher badge to view this.", "badges": [], "created_at": "2025-09-11T09:02:22.284-04:00", "updated_at": "2025-09-12T04:04:35.270-04:00", "avatar": "https://secure.gravatar.com/avatar/70a86d6c2f36ed9700636c2591d72514.jpg?s=512&d=https%3A%2F%2Fa.slack-edge.com%2Fdf10d%2Fimg%2Favatars%2Fava_0007-512.png", "custom_css": null}, {"id": 23437, "slack_id": "U09ENBPLC85", "display_name": "Emil", "bio": null, "projects_count": 0, "devlogs_count": 0, "votes_count": 0, "ships_count": 0, "projects": [], "coding_time_seconds": 0, "coding_time_seconds_today": 0, "balance": "You need to have a pocket watcher badge to view this.", "badges": [], "created_at": "2025-09-11T09:42:13.856-04:00", "updated_at": "2025-09-12T04:04:35.377-04:00", "avatar": "https://secure.gravatar.com/avatar/869611e6df44ae611bbebec79bc65913.jpg?s=512&d=https%3A%2F%2Fa.slack-edge.com%2Fdf10d%2Fimg%2Favatars%2Fava_0024-512.png", "custom_css": null}], "pagination": {"page": 1166, "pages": 1192, "count": 23828, "items": 20}}