{"users": [{"id": 23438, "slack_id": "U09EW7XJJBW", "display_name": "Abdulqader Al-aidaros", "bio": null, "projects_count": 0, "devlogs_count": 0, "votes_count": 0, "ships_count": 0, "projects": [], "coding_time_seconds": 0, "coding_time_seconds_today": 0, "balance": "You need to have a pocket watcher badge to view this.", "badges": [], "created_at": "2025-09-11T11:01:57.553-04:00", "updated_at": "2025-09-12T04:04:35.497-04:00", "avatar": "https://secure.gravatar.com/avatar/2e0858ab37cd6a2b0dce4eb27435fad0.jpg?s=512&d=https%3A%2F%2Fa.slack-edge.com%2Fdf10d%2Fimg%2Favatars%2Fava_0008-512.png", "custom_css": null}, {"id": 23439, "slack_id": "U09ES24TV70", "display_name": "Neil Revin", "bio": null, "projects_count": 1, "devlogs_count": 0, "votes_count": 1, "ships_count": 0, "projects": [{"id": 13505, "title": "Modern Status", "devlogs_count": 0, "created_at": "2025-09-18T03:49:28.617-04:00"}], "coding_time_seconds": 68442, "coding_time_seconds_today": 66, "balance": "You need to have a pocket watcher badge to view this.", "badges": [], "created_at": "2025-09-11T11:19:47.110-04:00", "updated_at": "2025-09-17T04:14:05.136-04:00", "avatar": "https://secure.gravatar.com/avatar/6e1b705672484acc5a23a07463a5fd5e.jpg?s=512&d=https%3A%2F%2Fa.slack-edge.com%2Fdf10d%2Fimg%2Favatars%2Fava_0024-512.png", "custom_css": null}, {"id": 23440, "slack_id": "U09ECG3CEFR", "display_name": "Theo Wimber", "bio": null, "projects_count": 1, "devlogs_count": 0, "votes_count": 5, "ships_count": 0, "projects": [{"id": 13336, "title": "UniLog - Universal C++ Logging System", "devlogs_count": 0, "created_at": "2025-09-14T08:43:46.529-04:00"}], "coding_time_seconds": 28918, "coding_time_seconds_today": 0, "balance": "You need to have a pocket watcher badge to view this.", "badges": [], "created_at": "2025-09-11T12:33:59.843-04:00", "updated_at": "2025-09-12T04:04:35.712-04:00", "avatar": "https://secure.gravatar.com/avatar/947e22dca561249c8f4bc242295a9fc1.jpg?s=512&d=https%3A%2F%2Fa.slack-edge.com%2Fdf10d%2Fimg%2Favatars%2Fava_0012-512.png", "custom_css": null}, {"id": 23441, "slack_id": "U09EPSNCXRB", "display_name": "Griffin McLaughlin", "bio": null, "projects_count": 0, "devlogs_count": 0, "votes_count": 0, "ships_count": 0, "projects": [], "coding_time_seconds": 763, "coding_time_seconds_today": 0, "balance": "You need to have a pocket watcher badge to view this.", "badges": [], "created_at": "2025-09-11T13:07:36.305-04:00", "updated_at": "2025-09-22T14:30:04.322-04:00", "avatar": "https://secure.gravatar.com/avatar/82d92145d50e9f5ec58497c8b28b8de5.jpg?s=512&d=https%3A%2F%2Fa.slack-edge.com%2Fdf10d%2Fimg%2Favatars%2Fava_0004-512.png", "custom_css": null}, {"id": 23442, "slack_id": "U09F6FN4J7K", "display_name": "zalnars", "bio": null, "projects_count": 2, "devlogs_count": 10, "votes_count": 50, "ships_count": 2, "projects": [{"id": 13676, "title": "SimplePresenter", "devlogs_count": 4, "created_at": "2025-09-22T13:58:07.821-04:00"}, {"id": 13252, "title": "Web Capture", "devlogs_count": 6, "created_at": "2025-09-12T14:04:02.364-04:00"}], "coding_time_seconds": 88823, "coding_time_seconds_today": 0, "balance": "You need to have a pocket watcher badge to view this.", "badges": [{"name": "Maiden Voyage", "text": "you shipped your first project! the journey begins...", "icon": "\ud83d\udea2"}], "created_at": "2025-09-11T13:21:03.482-04:00", "updated_at": "2025-09-13T08:58:16.088-04:00", "avatar": "https://secure.gravatar.com/avatar/445387922d2bbc0f85073e76e1eb64ce.jpg?s=512&d=https%3A%2F%2Fa.slack-edge.com%2Fdf10d%2Fimg%2Favatars%2Fava_0006-512.png", "custom_css": null}, {"id": 23443, "slack_id": "U09FKSDTPL0", "display_name": "N", "bio": null, "projects_count": 0, "devlogs_count": 0, "votes_count": 0, "ships_count": 0, "projects": [], "coding_time_seconds": 0, "coding_time_seconds_today": 0, "balance": "You need to have a pocket watcher badge to view this.", "badges": [], "created_at": "2025-09-11T13:26:36.823-04:00", "updated_at": "2025-09-12T04:04:36.107-04:00", "avatar": "https://secure.gravatar.com/avatar/91eaa74a8a072f63caa93e0e61346223.jpg?s=512&d=https%3A%2F%2Fa.slack-edge.com%2Fdf10d%2Fimg%2Favatars%2Fava_0001-512.png", "custom_css": null}, {"id": 23444, "slack_id": "U09ET9PN3R8", "display_name": "Piotr", "bio": null, "projects_count": 1, "devlogs_count": 2, "votes_count": 6, "ships_count": 1, "projects": [{"id": 13366, "title": "Discord Task Bot", "devlogs_count": 2, "created_at": "2025-09-14T15:27:51.395-04:00"}], "coding_time_seconds": 63911, "coding_time_seconds_today": 0, "balance": "You need to have a pocket watcher badge to view this.", "badges": [{"name": "Maiden Voyage", "text": "you shipped your first project! the journey begins...", "icon": "\ud83d\udea2"}], "created_at": "2025-09-11T14:10:24.846-04:00", "updated_at": "2025-09-14T17:26:23.412-04:00", "avatar": "https://secure.gravatar.com/avatar/e6bca0e46f4900f4bcc549ab8af11a9d.jpg?s=512&d=https%3A%2F%2Fa.slack-edge.com%2Fdf10d%2Fimg%2Favatars%2Fava_0016-512.png", "custom_css": null}, {"id": 23445, "slack_id": "U09ETA712Q2", "display_name": "Ryszard", "bio": null, "projects_count": 0, "devlogs_count": 0, "votes_count": 0, "ships_count": 0, "projects": [], "coding_time_seconds": 0, "coding_time_seconds_today": 0, "balance": "You need to have a pocket watcher badge to view this.", "badges": [], "created_at": "2025-09-11T14:12:15.783-04:00", "updated_at": "2025-09-12T04:04:36.317-04:00", "avatar": "https://secure.gravatar.com/avatar/9805e130ec880b85ca445ce7ee39bde9.jpg?s=512&d=https%3A%2F%2Fa.slack-edge.com%2Fdf10d%2Fimg%2Favatars%2Fava_0017-512.png", "custom_css": null}, {"id": 23446, "slack_id": "U09ERDCMFRA", "display_name": "Lucas", "bio": null, "projects_count": 0, "devlogs_count": 0, "votes_count": 0, "ships_count": 0, "projects": [], "coding_time_seconds": 0, "coding_time_seconds_today": 0, "balance": "You need to have a pocket watcher badge to view this.", "badges": [], "created_at": "2025-09-11T14:30:20.952-04:00", "updated_at": "2025-09-12T04:04:40.511-04:00", "avatar": "https://secure.gravatar.com/avatar/8c3ade4c137bd27fc4bbc4423de61dca.jpg?s=512&d=https%3A%2F%2Fa.slack-edge.com%2Fdf10d%2Fimg%2Favatars%2Fava_0023-512.png", "custom_css": null}, {"id": 23447, "slack_id": "U09EDEG9TUP", "display_name": "Anjanette Zhao", "bio": null, "projects_count": 0, "devlogs_count": 0, "votes_count": 0, "ships_count": 0, "projects": [], "coding_time_seconds": 0, "coding_time_seconds_today": 0, "balance": "You need to have a pocket watcher badge to view this.", "badges": [], "created_at": "2025-09-11T15:02:09.930-04:00", "updated_at": "2025-09-12T04:04:40.655-04:00", "avatar": "https://avatars.slack-edge.com/2025-09-11/9503664345890_9e84a6db0b5630cf37d7_original.jpg", "custom_css": null}, {"id": 23448, "slack_id": "U09ETKVQSV8", "display_name": "Alec Piepergerdes", "bio": null, "projects_count": 0, "devlogs_count": 0, "votes_count": 0, "ships_count": 0, "projects": [], "coding_time_seconds": 0, "coding_time_seconds_today": 0, "balance": "You need to have a pocket watcher badge to view this.", "badges": [], "created_at": "2025-09-11T15:05:01.721-04:00", "updated_at": "2025-09-12T04:04:40.770-04:00", "avatar": "https://secure.gravatar.com/avatar/2a4c7fc0c4dfbcaa4648da9bea64b458.jpg?s=512&d=https%3A%2F%2Fa.slack-edge.com%2Fdf10d%2Fimg%2Favatars%2Fava_0000-512.png", "custom_css": null}, {"id": 23449, "slack_id": "U09FLHCE6TA", "display_name": "Dylan Haas", "bio": null, "projects_count": 0, "devlogs_count": 0, "votes_count": 0, "ships_count": 0, "projects": [], "coding_time_seconds": 0, "coding_time_seconds_today": 0, "balance": "You need to have a pocket watcher badge to view this.", "badges": [], "created_at": "2025-09-11T15:21:51.704-04:00", "updated_at": "2025-09-18T04:10:02.415-04:00", "avatar": "https://secure.gravatar.com/avatar/6bac5ed9974daf0c3282c25c17166682.jpg?s=512&d=https%3A%2F%2Fa.slack-edge.com%2Fdf10d%2Fimg%2Favatars%2Fava_0006-512.png", "custom_css": null}, {"id": 23450, "slack_id": "U09EPN79L2F", "display_name": "Yuan Acolito", "bio": null, "projects_count": 0, "devlogs_count": 0, "votes_count": 0, "ships_count": 0, "projects": [], "coding_time_seconds": 0, "coding_time_seconds_today": 0, "balance": "You need to have a pocket watcher badge to view this.", "badges": [], "created_at": "2025-09-11T15:24:44.240-04:00", "updated_at": "2025-09-12T04:04:41.024-04:00", "avatar": "https://secure.gravatar.com/avatar/5d2de8a070eee890aad994674f8d5063.jpg?s=512&d=https%3A%2F%2Fa.slack-edge.com%2Fdf10d%2Fimg%2Favatars%2Fava_0004-512.png", "custom_css": null}, {"id": 23451, "slack_id": "U09ETL7JPMY", "display_name": "\u0410\u043d\u0430\u0441\u0442\u0430\u0441\u0438\u044f \u041b\u0443\u0449\u0438\u043d\u0441\u043a\u0430\u044f", "bio": null, "projects_count": 0, "devlogs_count": 0, "votes_count": 0, "ships_count": 0, "projects": [], "coding_time_seconds": 0, "coding_time_seconds_today": 0, "balance": "You need to have a pocket watcher badge to view this.", "badges": [], "created_at": "2025-09-11T15:29:34.716-04:00", "updated_at": "2025-09-18T20:04:56.002-04:00", "avatar": "https://avatars.slack-edge.com/2025-09-18/9528792194135_303ab11d170a3da5aab1_original.jpg", "custom_css": null}, {"id": 23452, "slack_id": "U09EQNZMP6Z", "display_name": "Tommaso Crespi", "bio": null, "projects_count": 0, "devlogs_count": 0, "votes_count": 0, "ships_count": 0, "projects": [], "coding_time_seconds": 261, "coding_time_seconds_today": 0, "balance": "You need to have a pocket watcher badge to view this.", "badges": [], "created_at": "2025-09-11T15:31:38.298-04:00", "updated_at": "2025-09-12T04:04:41.230-04:00", "avatar": "https://avatars.slack-edge.com/2025-09-11/9530664749280_483d945c941b516295d4_original.png", "custom_css": null}, {"id": 23453, "slack_id": "U09EDT0EB8X", "display_name": "hodq", "bio": null, "projects_count": 2, "devlogs_count": 11, "votes_count": 0, "ships_count": 0, "projects": [{"id": 13222, "title": "Universal Controller Tester", "devlogs_count": 0, "created_at": "2025-09-12T01:06:44.671-04:00"}, {"id": 13225, "title": "Flexible portfolio ", "devlogs_count": 11, "created_at": "2025-09-12T03:04:50.650-04:00"}], "coding_time_seconds": 521541, "coding_time_seconds_today": 10146, "balance": "You need to have a pocket watcher badge to view this.", "badges": [], "created_at": "2025-09-11T16:18:08.247-04:00", "updated_at": "2025-09-12T04:04:41.345-04:00", "avatar": "https://secure.gravatar.com/avatar/e43f7b1a055a3c310f527a2e0b34575f.jpg?s=512&d=https%3A%2F%2Fa.slack-edge.com%2Fdf10d%2Fimg%2Favatars%2Fava_0007-512.png", "custom_css": null}, {"id": 23454, "slack_id": "U09EU1UTMRC", "display_name": "Eric Tanase", "bio": null, "projects_count": 0, "devlogs_count": 0, "votes_count": 0, "ships_count": 0, "projects": [], "coding_time_seconds": 0, "coding_time_seconds_today": 0, "balance": "You need to have a pocket watcher badge to view this.", "badges": [], "created_at": "2025-09-11T16:37:29.015-04:00", "updated_at": "2025-09-12T04:04:41.593-04:00", "avatar": "https://avatars.slack-edge.com/2025-09-11/9531031410960_4680f329642be2f0666c_original.jpg", "custom_css": null}, {"id": 23455, "slack_id": "U09FMED81MW", "display_name": "Remy Welch", "bio": null, "projects_count": 1, "devlogs_count": 1, "votes_count": 0, "ships_count": 0, "projects": [{"id": 13215, "title": "Random Rythmn Generator", "devlogs_count": 1, "created_at": "2025-09-11T21:04:06.604-04:00"}], "coding_time_seconds": 1486, "coding_time_seconds_today": 0, "balance": "You need to have a pocket watcher badge to view this.", "badges": [], "created_at": "2025-09-11T18:23:39.941-04:00", "updated_at": "2025-09-12T04:04:45.774-04:00", "avatar": "https://secure.gravatar.com/avatar/d939830ae61c8edec09dd6f08bd8cc8c.jpg?s=512&d=https%3A%2F%2Fa.slack-edge.com%2Fdf10d%2Fimg%2Favatars%2Fava_0018-512.png", "custom_css": null}, {"id": 23456, "slack_id": "U09EUQ6PUQJ", "display_name": "Aditya Arun Kumar", "bio": null, "projects_count": 0, "devlogs_count": 0, "votes_count": 0, "ships_count": 0, "projects": [], "coding_time_seconds": 0, "coding_time_seconds_today": 0, "balance": "You need to have a pocket watcher badge to view this.", "badges": [], "created_at": "2025-09-11T19:06:15.417-04:00", "updated_at": "2025-09-12T04:04:45.903-04:00", "avatar": "https://secure.gravatar.com/avatar/0cc6d2f408b2771e047af898f2da3cc3.jpg?s=512&d=https%3A%2F%2Fa.slack-edge.com%2Fdf10d%2Fimg%2Favatars%2Fava_0024-512.png", "custom_css": null}, {"id": 23457, "slack_id": "U09ERUAAYS1", "display_name": "Awais", "bio": null, "projects_count": 1, "devlogs_count": 0, "votes_count": 0, "ships_count": 0, "projects": [{"id": 13219, "title": "Universal Console Controller Tester", "devlogs_count": 0, "created_at": "2025-09-11T23:46:05.430-04:00"}], "coding_time_seconds": 4807, "coding_time_seconds_today": 0, "balance": "You need to have a pocket watcher badge to view this.", "badges": [], "created_at": "2025-09-11T19:58:32.083-04:00", "updated_at": "2025-09-12T04:04:46.017-04:00", "avatar": "https://secure.gravatar.com/avatar/43fefeac0d44368213b6560c6a107fd9.jpg?s=512&d=https%3A%2F%2Fa.slack-edge.com%2Fdf10d%2Fimg%2Favatars%2Fava_0015-512.png", "custom_css": null}], "pagination": {"page": 1167, "pages": 1192, "count": 23828, "items": 20}}