{"users": [{"id": 23458, "slack_id": "U09EV1T38KC", "display_name": "Carson Forbes", "bio": null, "projects_count": 0, "devlogs_count": 0, "votes_count": 0, "ships_count": 0, "projects": [], "coding_time_seconds": 0, "coding_time_seconds_today": 0, "balance": "You need to have a pocket watcher badge to view this.", "badges": [], "created_at": "2025-09-11T20:33:28.706-04:00", "updated_at": "2025-09-12T04:04:46.132-04:00", "avatar": "https://secure.gravatar.com/avatar/642c5d4ac5d21e9823f1401ebcfe0ce1.jpg?s=512&d=https%3A%2F%2Fa.slack-edge.com%2Fdf10d%2Fimg%2Favatars%2Fava_0012-512.png", "custom_css": null}, {"id": 23459, "slack_id": "U09EETWA6CF", "display_name": "Dawit Beljig", "bio": null, "projects_count": 0, "devlogs_count": 0, "votes_count": 0, "ships_count": 0, "projects": [], "coding_time_seconds": 0, "coding_time_seconds_today": 0, "balance": "You need to have a pocket watcher badge to view this.", "badges": [], "created_at": "2025-09-11T20:45:43.460-04:00", "updated_at": "2025-09-12T04:04:46.241-04:00", "avatar": "https://secure.gravatar.com/avatar/50b78dbc67db84fd019df47c1eb540c9.jpg?s=512&d=https%3A%2F%2Fa.slack-edge.com%2Fdf10d%2Fimg%2Favatars%2Fava_0013-512.png", "custom_css": null}, {"id": 23460, "slack_id": "U09E7GJRYDV", "display_name": "Hassan H. A. (Hasganter)", "bio": "", "projects_count": 0, "devlogs_count": 0, "votes_count": 0, "ships_count": 0, "projects": [], "coding_time_seconds": 5805, "coding_time_seconds_today": 0, "balance": "You need to have a pocket watcher badge to view this.", "badges": [], "created_at": "2025-09-11T20:51:56.661-04:00", "updated_at": "2025-09-17T01:30:06.590-04:00", "avatar": "https://avatars.slack-edge.com/2025-09-11/9531963452704_0486a47a14216b058dca_original.png", "custom_css": null}, {"id": 23461, "slack_id": "U09EZGFSHLL", "display_name": "Eric Wang", "bio": null, "projects_count": 0, "devlogs_count": 0, "votes_count": 0, "ships_count": 0, "projects": [], "coding_time_seconds": 0, "coding_time_seconds_today": 0, "balance": "You need to have a pocket watcher badge to view this.", "badges": [], "created_at": "2025-09-11T21:19:27.299-04:00", "updated_at": "2025-09-13T12:21:03.521-04:00", "avatar": "https://avatars.slack-edge.com/2025-09-11/9505149429158_f6f9a1a2de358c792e6a_original.jpg", "custom_css": null}, {"id": 23462, "slack_id": "U08TJGLDUQN", "display_name": "Ava", "bio": null, "projects_count": 0, "devlogs_count": 0, "votes_count": 0, "ships_count": 0, "projects": [], "coding_time_seconds": 0, "coding_time_seconds_today": 0, "balance": "You need to have a pocket watcher badge to view this.", "badges": [], "created_at": "2025-09-11T21:27:17.015-04:00", "updated_at": "2025-09-12T04:04:46.614-04:00", "avatar": "https://avatars.slack-edge.com/2025-08-17/9368423333078_0f2b023aeb855eaef7a9_original.jpg", "custom_css": null}, {"id": 23463, "slack_id": "U09ERAU4MFV", "display_name": "Lathish", "bio": null, "projects_count": 0, "devlogs_count": 0, "votes_count": 0, "ships_count": 0, "projects": [], "coding_time_seconds": 0, "coding_time_seconds_today": 0, "balance": "You need to have a pocket watcher badge to view this.", "badges": [], "created_at": "2025-09-11T21:36:19.524-04:00", "updated_at": "2025-09-12T04:04:46.707-04:00", "avatar": "https://secure.gravatar.com/avatar/aceebdcecc42e0938b6b5914a708e356.jpg?s=512&d=https%3A%2F%2Fa.slack-edge.com%2Fdf10d%2Fimg%2Favatars%2Fava_0021-512.png", "custom_css": null}, {"id": 23464, "slack_id": "U09ES9SL1E1", "display_name": "arnv", "bio": null, "projects_count": 0, "devlogs_count": 0, "votes_count": 0, "ships_count": 0, "projects": [], "coding_time_seconds": 0, "coding_time_seconds_today": 0, "balance": "You need to have a pocket watcher badge to view this.", "badges": [], "created_at": "2025-09-11T21:48:09.489-04:00", "updated_at": "2025-09-13T06:45:24.009-04:00", "avatar": "https://secure.gravatar.com/avatar/e74c3bdf435201b8d3c8d9e70990e6aa.jpg?s=512&d=https%3A%2F%2Fa.slack-edge.com%2Fdf10d%2Fimg%2Favatars%2Fava_0024-512.png", "custom_css": null}, {"id": 23465, "slack_id": "U09D08X525A", "display_name": "luffy", "bio": null, "projects_count": 0, "devlogs_count": 0, "votes_count": 0, "ships_count": 0, "projects": [], "coding_time_seconds": 0, "coding_time_seconds_today": 0, "balance": "You need to have a pocket watcher badge to view this.", "badges": [], "created_at": "2025-09-11T22:17:18.769-04:00", "updated_at": "2025-09-14T01:14:59.741-04:00", "avatar": "https://avatars.slack-edge.com/2025-09-13/9517414602836_49b71c11b77511914499_original.jpg", "custom_css": null}, {"id": 23466, "slack_id": "U09ERV7EZV1", "display_name": "Gimhani", "bio": null, "projects_count": 0, "devlogs_count": 0, "votes_count": 0, "ships_count": 0, "projects": [], "coding_time_seconds": 0, "coding_time_seconds_today": 0, "balance": "You need to have a pocket watcher badge to view this.", "badges": [], "created_at": "2025-09-12T00:39:14.495-04:00", "updated_at": "2025-09-12T04:04:47.033-04:00", "avatar": "https://secure.gravatar.com/avatar/a3bbd51ef153b71b2dace35325e27652.jpg?s=512&d=https%3A%2F%2Fa.slack-edge.com%2Fdf10d%2Fimg%2Favatars%2Fava_0011-512.png", "custom_css": null}, {"id": 23467, "slack_id": "U09ED8MDL7R", "display_name": "Kareem Salman", "bio": null, "projects_count": 0, "devlogs_count": 0, "votes_count": 0, "ships_count": 0, "projects": [], "coding_time_seconds": 0, "coding_time_seconds_today": 0, "balance": "You need to have a pocket watcher badge to view this.", "badges": [], "created_at": "2025-09-12T01:10:29.332-04:00", "updated_at": "2025-09-12T05:29:08.945-04:00", "avatar": "https://secure.gravatar.com/avatar/cb6a4ce480749e0099440fea30949798.jpg?s=512&d=https%3A%2F%2Fa.slack-edge.com%2Fdf10d%2Fimg%2Favatars%2Fava_0023-512.png", "custom_css": null}, {"id": 23468, "slack_id": "U09B7KKM9QQ", "display_name": "Moritz", "bio": null, "projects_count": 0, "devlogs_count": 0, "votes_count": 0, "ships_count": 0, "projects": [], "coding_time_seconds": 0, "coding_time_seconds_today": 0, "balance": "You need to have a pocket watcher badge to view this.", "badges": [], "created_at": "2025-09-12T02:11:36.144-04:00", "updated_at": "2025-09-12T04:04:47.583-04:00", "avatar": "https://secure.gravatar.com/avatar/bcb11f487fcf6675b038c79f62909264.jpg?s=512&d=https%3A%2F%2Fa.slack-edge.com%2Fdf10d%2Fimg%2Favatars%2Fava_0024-512.png", "custom_css": null}, {"id": 23469, "slack_id": "U09F0LMM13N", "display_name": "anmol yadav", "bio": null, "projects_count": 0, "devlogs_count": 0, "votes_count": 0, "ships_count": 0, "projects": [], "coding_time_seconds": 0, "coding_time_seconds_today": 0, "balance": "You need to have a pocket watcher badge to view this.", "badges": [], "created_at": "2025-09-12T02:57:59.541-04:00", "updated_at": "2025-09-12T04:04:47.675-04:00", "avatar": "https://avatars.slack-edge.com/2025-09-11/9503451349813_a526c6610c761625a497_original.png", "custom_css": null}, {"id": 23470, "slack_id": "U09EG2CG6LF", "display_name": "Vikas Rathore", "bio": null, "projects_count": 0, "devlogs_count": 0, "votes_count": 0, "ships_count": 0, "projects": [], "coding_time_seconds": 0, "coding_time_seconds_today": 0, "balance": "You need to have a pocket watcher badge to view this.", "badges": [], "created_at": "2025-09-12T03:37:19.531-04:00", "updated_at": "2025-09-12T04:10:05.900-04:00", "avatar": "https://avatars.slack-edge.com/2025-09-12/9492424974183_a6888290640baafbaa3b_original.png", "custom_css": null}, {"id": 23471, "slack_id": "U09EDL7KJ1Z", "display_name": "GVR", "bio": null, "projects_count": 2, "devlogs_count": 4, "votes_count": 13, "ships_count": 1, "projects": [{"id": 13282, "title": "Wolfenstein's DOOM", "devlogs_count": 4, "created_at": "2025-09-13T08:12:19.224-04:00"}, {"id": 13662, "title": "Untitled", "devlogs_count": 0, "created_at": "2025-09-22T09:01:49.534-04:00"}], "coding_time_seconds": 44083, "coding_time_seconds_today": 0, "balance": "You need to have a pocket watcher badge to view this.", "badges": [{"name": "Maiden Voyage", "text": "you shipped your first project! the journey begins...", "icon": "\ud83d\udea2"}], "created_at": "2025-09-12T03:53:06.603-04:00", "updated_at": "2025-09-22T09:00:01.382-04:00", "avatar": "https://avatars.slack-edge.com/2025-09-10/9494473039426_bcb4b776fdc425a5c3c5_original.png", "custom_css": null}, {"id": 23472, "slack_id": "U09EWQT5CSW", "display_name": "Rithvik", "bio": null, "projects_count": 0, "devlogs_count": 0, "votes_count": 0, "ships_count": 0, "projects": [], "coding_time_seconds": 0, "coding_time_seconds_today": 0, "balance": "You need to have a pocket watcher badge to view this.", "badges": [], "created_at": "2025-09-12T04:02:14.989-04:00", "updated_at": "2025-09-12T16:00:09.485-04:00", "avatar": "https://secure.gravatar.com/avatar/142b53b5c84301feb11b3e53a0703f49.jpg?s=512&d=https%3A%2F%2Fa.slack-edge.com%2Fdf10d%2Fimg%2Favatars%2Fava_0016-512.png", "custom_css": null}, {"id": 23473, "slack_id": "U09EPTAGQQL", "display_name": "laughout", "bio": null, "projects_count": 0, "devlogs_count": 0, "votes_count": 0, "ships_count": 0, "projects": [], "coding_time_seconds": 0, "coding_time_seconds_today": 0, "balance": "You need to have a pocket watcher badge to view this.", "badges": [], "created_at": "2025-09-12T05:24:20.719-04:00", "updated_at": "2025-09-12T10:04:59.519-04:00", "avatar": "https://secure.gravatar.com/avatar/b395b57527d6514525532a648b959a84.jpg?s=512&d=https%3A%2F%2Fa.slack-edge.com%2Fdf10d%2Fimg%2Favatars%2Fava_0000-512.png", "custom_css": null}, {"id": 23474, "slack_id": "U09EXAZVC58", "display_name": "nicola", "bio": null, "projects_count": 0, "devlogs_count": 0, "votes_count": 0, "ships_count": 0, "projects": [], "coding_time_seconds": 0, "coding_time_seconds_today": 0, "balance": "You need to have a pocket watcher badge to view this.", "badges": [], "created_at": "2025-09-12T05:40:53.052-04:00", "updated_at": "2025-09-12T10:04:59.626-04:00", "avatar": "https://secure.gravatar.com/avatar/7034d9a77d7f59b462427e5fc2b5050d.jpg?s=512&d=https%3A%2F%2Fa.slack-edge.com%2Fdf10d%2Fimg%2Favatars%2Fava_0015-512.png", "custom_css": null}, {"id": 23475, "slack_id": "U08S634QXPY", "display_name": "Halla", "bio": null, "projects_count": 0, "devlogs_count": 0, "votes_count": 0, "ships_count": 0, "projects": [], "coding_time_seconds": 0, "coding_time_seconds_today": 0, "balance": "You need to have a pocket watcher badge to view this.", "badges": [], "created_at": "2025-09-12T05:41:44.933-04:00", "updated_at": "2025-09-12T10:04:59.827-04:00", "avatar": "https://secure.gravatar.com/avatar/78e8052c4a600c26a587449858944c28.jpg?s=512&d=https%3A%2F%2Fa.slack-edge.com%2Fdf10d%2Fimg%2Favatars%2Fava_0014-512.png", "custom_css": null}, {"id": 23476, "slack_id": "U09EWS8T5DG", "display_name": "LonleySailor", "bio": null, "projects_count": 1, "devlogs_count": 2, "votes_count": 17, "ships_count": 1, "projects": [{"id": 13402, "title": "PrivatePaste", "devlogs_count": 2, "created_at": "2025-09-15T12:09:13.469-04:00"}], "coding_time_seconds": 31308, "coding_time_seconds_today": 372, "balance": "You need to have a pocket watcher badge to view this.", "badges": [{"name": "Maiden Voyage", "text": "you shipped your first project! the journey begins...", "icon": "\ud83d\udea2"}], "created_at": "2025-09-12T05:55:00.547-04:00", "updated_at": "2025-09-15T12:19:09.725-04:00", "avatar": "https://secure.gravatar.com/avatar/e0c8ee9c87589c6b2402eacccbf4b0fc.jpg?s=512&d=https%3A%2F%2Fa.slack-edge.com%2Fdf10d%2Fimg%2Favatars%2Fava_0004-512.png", "custom_css": null}, {"id": 23477, "slack_id": "U09EX5NAPK8", "display_name": "Kyton", "bio": null, "projects_count": 0, "devlogs_count": 0, "votes_count": 0, "ships_count": 0, "projects": [], "coding_time_seconds": 0, "coding_time_seconds_today": 0, "balance": "You need to have a pocket watcher badge to view this.", "badges": [], "created_at": "2025-09-12T05:57:14.416-04:00", "updated_at": "2025-09-12T10:05:00.097-04:00", "avatar": "https://secure.gravatar.com/avatar/303767ae6db22dfb20fd2583b0a908ac.jpg?s=512&d=https%3A%2F%2Fa.slack-edge.com%2Fdf10d%2Fimg%2Favatars%2Fava_0018-512.png", "custom_css": null}], "pagination": {"page": 1168, "pages": 1192, "count": 23828, "items": 20}}