{"users": [{"id": 23478, "slack_id": "U09EC30397U", "display_name": "onlyth3best", "bio": null, "projects_count": 0, "devlogs_count": 0, "votes_count": 0, "ships_count": 0, "projects": [], "coding_time_seconds": 125887, "coding_time_seconds_today": 2594, "balance": "You need to have a pocket watcher badge to view this.", "badges": [], "created_at": "2025-09-12T06:02:06.745-04:00", "updated_at": "2025-09-13T10:05:07.690-04:00", "avatar": "https://avatars.slack-edge.com/2025-09-13/9509195529331_3167012d0bdd5fce7fe8_original.jpg", "custom_css": null}, {"id": 23479, "slack_id": "U09FB0GLPLZ", "display_name": "nicola", "bio": null, "projects_count": 0, "devlogs_count": 0, "votes_count": 0, "ships_count": 0, "projects": [], "coding_time_seconds": 0, "coding_time_seconds_today": 0, "balance": "You need to have a pocket watcher badge to view this.", "badges": [], "created_at": "2025-09-12T06:09:34.630-04:00", "updated_at": "2025-09-12T10:05:00.876-04:00", "avatar": "https://secure.gravatar.com/avatar/240fa4737c70b0f4f904350eb873c5aa.jpg?s=512&d=https%3A%2F%2Fa.slack-edge.com%2Fdf10d%2Fimg%2Favatars%2Fava_0012-512.png", "custom_css": null}, {"id": 23480, "slack_id": "U09FQ6TQSBS", "display_name": "supercool viber", "bio": null, "projects_count": 0, "devlogs_count": 0, "votes_count": 0, "ships_count": 0, "projects": [], "coding_time_seconds": 0, "coding_time_seconds_today": 0, "balance": "You need to have a pocket watcher badge to view this.", "badges": [], "created_at": "2025-09-12T06:37:41.356-04:00", "updated_at": "2025-09-12T10:05:01.012-04:00", "avatar": "https://secure.gravatar.com/avatar/9dbd5781b5d16d7b0b1d0f6a7c6b2de7.jpg?s=512&d=https%3A%2F%2Fa.slack-edge.com%2Fdf10d%2Fimg%2Favatars%2Fava_0000-512.png", "custom_css": null}, {"id": 23481, "slack_id": "U09EU3LGHPD", "display_name": "Aayush", "bio": null, "projects_count": 0, "devlogs_count": 0, "votes_count": 0, "ships_count": 0, "projects": [], "coding_time_seconds": 0, "coding_time_seconds_today": 0, "balance": "You need to have a pocket watcher badge to view this.", "badges": [], "created_at": "2025-09-12T08:09:20.717-04:00", "updated_at": "2025-09-12T10:05:01.118-04:00", "avatar": "https://avatars.slack-edge.com/2025-09-12/9507818541318_4a6497465b0ca43cd456_original.jpg", "custom_css": null}, {"id": 23482, "slack_id": "U09EU6RE7EF", "display_name": "Youssef Gamil", "bio": null, "projects_count": 0, "devlogs_count": 0, "votes_count": 0, "ships_count": 0, "projects": [], "coding_time_seconds": 0, "coding_time_seconds_today": 0, "balance": "You need to have a pocket watcher badge to view this.", "badges": [], "created_at": "2025-09-12T08:53:30.694-04:00", "updated_at": "2025-09-19T16:16:08.776-04:00", "avatar": "https://avatars.slack-edge.com/2025-09-12/9512453867252_d6cecc64b1508c23d132_original.png", "custom_css": null}, {"id": 23483, "slack_id": "U08J87PC8KG", "display_name": "coast", "bio": null, "projects_count": 0, "devlogs_count": 0, "votes_count": 0, "ships_count": 0, "projects": [], "coding_time_seconds": 16131, "coding_time_seconds_today": 0, "balance": "You need to have a pocket watcher badge to view this.", "badges": [], "created_at": "2025-09-12T08:57:42.959-04:00", "updated_at": "2025-09-12T09:05:18.640-04:00", "avatar": "https://avatars.slack-edge.com/2025-08-08/9322970071509_3364f46f42780a7b1f5c_original.jpg", "custom_css": null}, {"id": 23484, "slack_id": "U09BM4JRR8D", "display_name": "Shassh", "bio": null, "projects_count": 0, "devlogs_count": 0, "votes_count": 0, "ships_count": 0, "projects": [], "coding_time_seconds": 0, "coding_time_seconds_today": 0, "balance": "You need to have a pocket watcher badge to view this.", "badges": [], "created_at": "2025-09-12T09:31:47.605-04:00", "updated_at": "2025-09-12T10:05:01.531-04:00", "avatar": "https://secure.gravatar.com/avatar/49c4437c51389cd1dc9bc683b90a75af.jpg?s=512&d=https%3A%2F%2Fa.slack-edge.com%2Fdf10d%2Fimg%2Favatars%2Fava_0026-512.png", "custom_css": null}, {"id": 23485, "slack_id": "U09EYQUR3B4", "display_name": "Vidhika", "bio": null, "projects_count": 0, "devlogs_count": 0, "votes_count": 0, "ships_count": 0, "projects": [], "coding_time_seconds": 0, "coding_time_seconds_today": 0, "balance": "You need to have a pocket watcher badge to view this.", "badges": [], "created_at": "2025-09-12T10:22:43.466-04:00", "updated_at": "2025-09-12T22:28:07.372-04:00", "avatar": "https://secure.gravatar.com/avatar/c93d1895639b5aed3f4038d5ee266a80.jpg?s=512&d=https%3A%2F%2Fa.slack-edge.com%2Fdf10d%2Fimg%2Favatars%2Fava_0016-512.png", "custom_css": null}, {"id": 23486, "slack_id": "U09EW3E1M9B", "display_name": "Jakub", "bio": null, "projects_count": 1, "devlogs_count": 1, "votes_count": 1, "ships_count": 0, "projects": [{"id": 13244, "title": "Feed the Panda", "devlogs_count": 1, "created_at": "2025-09-12T12:29:06.168-04:00"}], "coding_time_seconds": 25473, "coding_time_seconds_today": 0, "balance": "You need to have a pocket watcher badge to view this.", "badges": [], "created_at": "2025-09-12T11:04:12.592-04:00", "updated_at": "2025-09-12T22:28:07.472-04:00", "avatar": "https://secure.gravatar.com/avatar/7fa2fb40a228d640634b0626ed375489.jpg?s=512&d=https%3A%2F%2Fa.slack-edge.com%2Fdf10d%2Fimg%2Favatars%2Fava_0021-512.png", "custom_css": null}, {"id": 23487, "slack_id": "U09FS08DMKJ", "display_name": "Zainn Abdaqqa", "bio": null, "projects_count": 0, "devlogs_count": 0, "votes_count": 0, "ships_count": 0, "projects": [], "coding_time_seconds": 0, "coding_time_seconds_today": 0, "balance": "You need to have a pocket watcher badge to view this.", "badges": [], "created_at": "2025-09-12T11:52:40.002-04:00", "updated_at": "2025-09-12T22:28:07.577-04:00", "avatar": "https://avatars.slack-edge.com/2025-09-12/9505646889603_72b397657bb9451dae3e_original.png", "custom_css": null}, {"id": 23488, "slack_id": "U09EWFFCY6R", "display_name": "Maryam", "bio": null, "projects_count": 0, "devlogs_count": 0, "votes_count": 0, "ships_count": 0, "projects": [], "coding_time_seconds": 0, "coding_time_seconds_today": 0, "balance": "You need to have a pocket watcher badge to view this.", "badges": [], "created_at": "2025-09-12T12:02:38.713-04:00", "updated_at": "2025-09-12T22:28:07.675-04:00", "avatar": "https://secure.gravatar.com/avatar/edea36d11e1a9273fb788805e91ead9d.jpg?s=512&d=https%3A%2F%2Fa.slack-edge.com%2Fdf10d%2Fimg%2Favatars%2Fava_0021-512.png", "custom_css": null}, {"id": 23489, "slack_id": "U09FS4TPZME", "display_name": "Joshua Rosenthal", "bio": null, "projects_count": 0, "devlogs_count": 0, "votes_count": 0, "ships_count": 0, "projects": [], "coding_time_seconds": 0, "coding_time_seconds_today": 0, "balance": "You need to have a pocket watcher badge to view this.", "badges": [], "created_at": "2025-09-12T12:15:23.744-04:00", "updated_at": "2025-09-12T22:28:07.818-04:00", "avatar": "https://avatars.slack-edge.com/2025-09-12/9513829774996_ed98757f15a67581b3e5_original.jpg", "custom_css": null}, {"id": 23490, "slack_id": "U09EZHQ6MUJ", "display_name": "Tomiwa", "bio": null, "projects_count": 0, "devlogs_count": 0, "votes_count": 0, "ships_count": 0, "projects": [], "coding_time_seconds": 0, "coding_time_seconds_today": 0, "balance": "You need to have a pocket watcher badge to view this.", "badges": [], "created_at": "2025-09-12T12:16:52.970-04:00", "updated_at": "2025-09-12T22:28:07.967-04:00", "avatar": "https://avatars.slack-edge.com/2025-09-12/9495472963703_2e52619179a23482bcde_original.jpg", "custom_css": null}, {"id": 23491, "slack_id": "U09EZE157AS", "display_name": "TUSHAR INGLE", "bio": null, "projects_count": 0, "devlogs_count": 0, "votes_count": 0, "ships_count": 0, "projects": [], "coding_time_seconds": 0, "coding_time_seconds_today": 0, "balance": "You need to have a pocket watcher badge to view this.", "badges": [], "created_at": "2025-09-12T12:36:31.619-04:00", "updated_at": "2025-09-12T22:28:08.056-04:00", "avatar": "https://avatars.slack-edge.com/2025-09-12/9523191675185_45871ba7ef87db85b161_original.png", "custom_css": null}, {"id": 23492, "slack_id": "U09EZP30HDG", "display_name": "Brutus", "bio": null, "projects_count": 0, "devlogs_count": 0, "votes_count": 0, "ships_count": 0, "projects": [], "coding_time_seconds": 40501, "coding_time_seconds_today": 0, "balance": "You need to have a pocket watcher badge to view this.", "badges": [], "created_at": "2025-09-12T12:45:45.400-04:00", "updated_at": "2025-09-17T20:14:05.354-04:00", "avatar": "https://avatars.slack-edge.com/2025-09-12/9506880473333_6458c7ea4a1e158882ec_original.png", "custom_css": null}, {"id": 23493, "slack_id": "U09EZFMGBB8", "display_name": "AndrewAlt", "bio": null, "projects_count": 0, "devlogs_count": 0, "votes_count": 0, "ships_count": 0, "projects": [], "coding_time_seconds": 0, "coding_time_seconds_today": 0, "balance": "You need to have a pocket watcher badge to view this.", "badges": [], "created_at": "2025-09-12T12:45:47.789-04:00", "updated_at": "2025-09-12T22:28:12.988-04:00", "avatar": "https://secure.gravatar.com/avatar/09008669313fb04eddc14aabc3ed15bc.jpg?s=512&d=https%3A%2F%2Fa.slack-edge.com%2Fdf10d%2Fimg%2Favatars%2Fava_0019-512.png", "custom_css": null}, {"id": 23494, "slack_id": "U09EVL5P4KE", "display_name": "Nadine", "bio": null, "projects_count": 0, "devlogs_count": 0, "votes_count": 0, "ships_count": 0, "projects": [], "coding_time_seconds": 9660, "coding_time_seconds_today": 0, "balance": "You need to have a pocket watcher badge to view this.", "badges": [], "created_at": "2025-09-12T13:14:32.522-04:00", "updated_at": "2025-09-12T22:28:13.107-04:00", "avatar": "https://secure.gravatar.com/avatar/0b70d0da5f47d595cacb52cff9513f69.jpg?s=512&d=https%3A%2F%2Fa.slack-edge.com%2Fdf10d%2Fimg%2Favatars%2Fava_0015-512.png", "custom_css": null}, {"id": 23495, "slack_id": "U09F00TMB2N", "display_name": "Shreyansh Purohit", "bio": null, "projects_count": 0, "devlogs_count": 0, "votes_count": 0, "ships_count": 0, "projects": [], "coding_time_seconds": 0, "coding_time_seconds_today": 0, "balance": "You need to have a pocket watcher badge to view this.", "badges": [], "created_at": "2025-09-12T13:26:34.521-04:00", "updated_at": "2025-09-12T22:28:13.207-04:00", "avatar": "https://avatars.slack-edge.com/2025-09-12/9507082544933_d513f12224054ae284a6_original.png", "custom_css": null}, {"id": 23496, "slack_id": "U09FACDJTJM", "display_name": "Iftekhar Syed", "bio": null, "projects_count": 0, "devlogs_count": 0, "votes_count": 0, "ships_count": 0, "projects": [], "coding_time_seconds": 0, "coding_time_seconds_today": 0, "balance": "You need to have a pocket watcher badge to view this.", "badges": [], "created_at": "2025-09-12T13:58:22.242-04:00", "updated_at": "2025-09-12T22:28:13.345-04:00", "avatar": "https://secure.gravatar.com/avatar/429a9f564ec482e7cdecd0e1f40b909c.jpg?s=512&d=https%3A%2F%2Fa.slack-edge.com%2Fdf10d%2Fimg%2Favatars%2Fava_0003-512.png", "custom_css": null}, {"id": 23497, "slack_id": "U09EX9EKUS1", "display_name": "Ravi Sharma", "bio": null, "projects_count": 0, "devlogs_count": 0, "votes_count": 0, "ships_count": 0, "projects": [], "coding_time_seconds": 0, "coding_time_seconds_today": 0, "balance": "You need to have a pocket watcher badge to view this.", "badges": [], "created_at": "2025-09-12T14:07:35.906-04:00", "updated_at": "2025-09-12T22:28:13.451-04:00", "avatar": "https://secure.gravatar.com/avatar/f725c3d3b4f37ca604ca8d9b8765481d.jpg?s=512&d=https%3A%2F%2Fa.slack-edge.com%2Fdf10d%2Fimg%2Favatars%2Fava_0020-512.png", "custom_css": null}], "pagination": {"page": 1169, "pages": 1192, "count": 23828, "items": 20}}