{"users": [{"id": 2321, "slack_id": "U091NDQS95K", "display_name": "Martin Dahlgren", "bio": null, "projects_count": 0, "devlogs_count": 0, "votes_count": 0, "ships_count": 0, "projects": [], "coding_time_seconds": 0, "coding_time_seconds_today": 0, "balance": "You need to have a pocket watcher badge to view this.", "badges": [], "created_at": "2025-06-16T15:21:54.031-04:00", "updated_at": "2025-07-03T19:21:44.356-04:00", "avatar": "https://avatars.slack-edge.com/2025-06-16/9070816986529_5ee9d1b0911a2a1ae589_original.jpg", "custom_css": null}, {"id": 2322, "slack_id": "U092CKY1X7S", "display_name": "Yahia Naim", "bio": null, "projects_count": 0, "devlogs_count": 0, "votes_count": 0, "ships_count": 0, "projects": [], "coding_time_seconds": 0, "coding_time_seconds_today": 0, "balance": "You need to have a pocket watcher badge to view this.", "badges": [], "created_at": "2025-06-16T15:21:58.236-04:00", "updated_at": "2025-07-03T19:21:44.622-04:00", "avatar": "https://secure.gravatar.com/avatar/df096d92f9e38c501bbc9aba303a65dc.jpg?s=512&d=https%3A%2F%2Fa.slack-edge.com%2Fdf10d%2Fimg%2Favatars%2Fava_0005-512.png", "custom_css": null}, {"id": 2323, "slack_id": "U091HCDQ8J2", "display_name": "Mayank Raj", "bio": null, "projects_count": 0, "devlogs_count": 0, "votes_count": 0, "ships_count": 0, "projects": [], "coding_time_seconds": 26826, "coding_time_seconds_today": 0, "balance": "You need to have a pocket watcher badge to view this.", "badges": [], "created_at": "2025-06-16T15:22:01.398-04:00", "updated_at": "2025-07-03T19:21:44.890-04:00", "avatar": "https://secure.gravatar.com/avatar/ab91a17abd0961870738e703482de266.jpg?s=512&d=https%3A%2F%2Fa.slack-edge.com%2Fdf10d%2Fimg%2Favatars%2Fava_0007-512.png", "custom_css": null}, {"id": 2324, "slack_id": "U091FT4638W", "display_name": "Gabriel Henrique Lamb", "bio": null, "projects_count": 0, "devlogs_count": 0, "votes_count": 0, "ships_count": 0, "projects": [], "coding_time_seconds": 0, "coding_time_seconds_today": 0, "balance": "You need to have a pocket watcher badge to view this.", "badges": [], "created_at": "2025-06-16T15:22:08.945-04:00", "updated_at": "2025-07-03T19:21:45.176-04:00", "avatar": "https://secure.gravatar.com/avatar/90af0553440b3aa4ca2f2dbc2bd5c9e0.jpg?s=512&d=https%3A%2F%2Fa.slack-edge.com%2Fdf10d%2Fimg%2Favatars%2Fava_0023-512.png", "custom_css": null}, {"id": 2325, "slack_id": "U091NE01TFX", "display_name": "Manas Mhatre", "bio": null, "projects_count": 0, "devlogs_count": 0, "votes_count": 0, "ships_count": 0, "projects": [], "coding_time_seconds": 33, "coding_time_seconds_today": 0, "balance": "You need to have a pocket watcher badge to view this.", "badges": [], "created_at": "2025-06-16T15:22:30.567-04:00", "updated_at": "2025-07-03T19:21:45.440-04:00", "avatar": "https://secure.gravatar.com/avatar/733c1081dc25946888cd3f107fc5c8aa.jpg?s=512&d=https%3A%2F%2Fa.slack-edge.com%2Fdf10d%2Fimg%2Favatars%2Fava_0008-512.png", "custom_css": null}, {"id": 2326, "slack_id": "U091QJU2GQ4", "display_name": "Nicol\u00e1s FP", "bio": null, "projects_count": 0, "devlogs_count": 0, "votes_count": 0, "ships_count": 0, "projects": [], "coding_time_seconds": 0, "coding_time_seconds_today": 0, "balance": "You need to have a pocket watcher badge to view this.", "badges": [], "created_at": "2025-06-16T15:22:42.974-04:00", "updated_at": "2025-07-03T19:21:45.700-04:00", "avatar": "https://secure.gravatar.com/avatar/37fbecd2b674ec27740af6c9e75f266a.jpg?s=512&d=https%3A%2F%2Fa.slack-edge.com%2Fdf10d%2Fimg%2Favatars%2Fava_0013-512.png", "custom_css": null}, {"id": 2327, "slack_id": "U0922PCFN9F", "display_name": "kutzer", "bio": null, "projects_count": 0, "devlogs_count": 0, "votes_count": 0, "ships_count": 0, "projects": [], "coding_time_seconds": 0, "coding_time_seconds_today": 0, "balance": "You need to have a pocket watcher badge to view this.", "badges": [], "created_at": "2025-06-16T15:23:06.124-04:00", "updated_at": "2025-07-03T19:21:45.967-04:00", "avatar": "https://secure.gravatar.com/avatar/ca364948e4136c2e41709126c99f8546.jpg?s=512&d=https%3A%2F%2Fa.slack-edge.com%2Fdf10d%2Fimg%2Favatars%2Fava_0016-512.png", "custom_css": null}, {"id": 2328, "slack_id": "U09227R475X", "display_name": "Sai Vaishnavi Chundru", "bio": null, "projects_count": 0, "devlogs_count": 0, "votes_count": 0, "ships_count": 0, "projects": [], "coding_time_seconds": 0, "coding_time_seconds_today": 0, "balance": "You need to have a pocket watcher badge to view this.", "badges": [], "created_at": "2025-06-16T15:23:27.721-04:00", "updated_at": "2025-07-03T19:21:46.237-04:00", "avatar": "https://secure.gravatar.com/avatar/bfc7d46865864d58d0823875d88a7a52.jpg?s=512&d=https%3A%2F%2Fa.slack-edge.com%2Fdf10d%2Fimg%2Favatars%2Fava_0020-512.png", "custom_css": null}, {"id": 2329, "slack_id": "U091G2QRLG6", "display_name": "Ali Tahir", "bio": null, "projects_count": 0, "devlogs_count": 0, "votes_count": 0, "ships_count": 0, "projects": [], "coding_time_seconds": 0, "coding_time_seconds_today": 0, "balance": "You need to have a pocket watcher badge to view this.", "badges": [], "created_at": "2025-06-16T15:23:36.394-04:00", "updated_at": "2025-07-03T19:21:46.508-04:00", "avatar": "https://avatars.slack-edge.com/2025-06-16/9058280636386_d68823081969346a3f14_original.jpg", "custom_css": null}, {"id": 2330, "slack_id": "U0918U3FBSB", "display_name": "Ana Beatriz", "bio": null, "projects_count": 0, "devlogs_count": 0, "votes_count": 0, "ships_count": 0, "projects": [], "coding_time_seconds": 0, "coding_time_seconds_today": 0, "balance": "You need to have a pocket watcher badge to view this.", "badges": [], "created_at": "2025-06-16T15:23:48.393-04:00", "updated_at": "2025-07-03T19:21:46.776-04:00", "avatar": "https://secure.gravatar.com/avatar/dd759de4654a50d41e5abd5a78cdeba4.jpg?s=512&d=https%3A%2F%2Fa.slack-edge.com%2Fdf10d%2Fimg%2Favatars%2Fava_0012-512.png", "custom_css": null}, {"id": 2331, "slack_id": "U091Q7UFCNN", "display_name": "ES", "bio": null, "projects_count": 0, "devlogs_count": 0, "votes_count": 0, "ships_count": 0, "projects": [], "coding_time_seconds": 0, "coding_time_seconds_today": 0, "balance": "You need to have a pocket watcher badge to view this.", "badges": [], "created_at": "2025-06-16T15:23:53.091-04:00", "updated_at": "2025-07-03T19:21:47.046-04:00", "avatar": "https://secure.gravatar.com/avatar/ffa8786e74fdb8c47917590564b1f98d.jpg?s=512&d=https%3A%2F%2Fa.slack-edge.com%2Fdf10d%2Fimg%2Favatars%2Fava_0023-512.png", "custom_css": null}, {"id": 2332, "slack_id": "U091HBKM5JA", "display_name": "Pavan Kumar Barman", "bio": null, "projects_count": 0, "devlogs_count": 0, "votes_count": 0, "ships_count": 0, "projects": [], "coding_time_seconds": 0, "coding_time_seconds_today": 0, "balance": "You need to have a pocket watcher badge to view this.", "badges": [], "created_at": "2025-06-16T15:24:14.069-04:00", "updated_at": "2025-07-03T19:21:47.320-04:00", "avatar": "https://secure.gravatar.com/avatar/c44a09ed3d1157ac47d6c775d51eb721.jpg?s=512&d=https%3A%2F%2Fa.slack-edge.com%2Fdf10d%2Fimg%2Favatars%2Fava_0018-512.png", "custom_css": null}, {"id": 2333, "slack_id": "U091NEDJVE1", "display_name": "Marcello Martini", "bio": null, "projects_count": 0, "devlogs_count": 0, "votes_count": 0, "ships_count": 0, "projects": [], "coding_time_seconds": 374, "coding_time_seconds_today": 0, "balance": "You need to have a pocket watcher badge to view this.", "badges": [], "created_at": "2025-06-16T15:24:18.178-04:00", "updated_at": "2025-08-15T16:25:38.582-04:00", "avatar": "https://avatars.slack-edge.com/2025-06-16/9080739326176_c73547d4db8993c6906a_original.png", "custom_css": null}, {"id": 2334, "slack_id": "U091QJN0F7W", "display_name": "\u0160imon Krhut", "bio": null, "projects_count": 0, "devlogs_count": 0, "votes_count": 0, "ships_count": 0, "projects": [], "coding_time_seconds": 0, "coding_time_seconds_today": 0, "balance": "You need to have a pocket watcher badge to view this.", "badges": [], "created_at": "2025-06-16T15:24:30.743-04:00", "updated_at": "2025-07-03T19:21:47.874-04:00", "avatar": "https://avatars.slack-edge.com/2025-06-16/9056502972757_f795147a27b09bf820db_original.png", "custom_css": null}, {"id": 2335, "slack_id": "U091QK5LEPN", "display_name": "Leonardo Buares", "bio": null, "projects_count": 0, "devlogs_count": 0, "votes_count": 0, "ships_count": 0, "projects": [], "coding_time_seconds": 0, "coding_time_seconds_today": 0, "balance": "You need to have a pocket watcher badge to view this.", "badges": [], "created_at": "2025-06-16T15:24:50.393-04:00", "updated_at": "2025-07-03T19:21:48.141-04:00", "avatar": "https://secure.gravatar.com/avatar/e84a6a3b4b5583e1b87b456efcb711c1.jpg?s=512&d=https%3A%2F%2Fa.slack-edge.com%2Fdf10d%2Fimg%2Favatars%2Fava_0013-512.png", "custom_css": null}, {"id": 2336, "slack_id": "U0918U871F1", "display_name": "Alejandro Rodriguez", "bio": null, "projects_count": 0, "devlogs_count": 0, "votes_count": 0, "ships_count": 0, "projects": [], "coding_time_seconds": 0, "coding_time_seconds_today": 0, "balance": "You need to have a pocket watcher badge to view this.", "badges": [], "created_at": "2025-06-16T15:24:50.817-04:00", "updated_at": "2025-07-03T19:21:48.495-04:00", "avatar": "https://avatars.slack-edge.com/2025-06-16/9051451342870_0e25fd553f11862a2639_original.jpg", "custom_css": null}, {"id": 2337, "slack_id": "U082SUVP27J", "display_name": "Maty", "bio": null, "projects_count": 0, "devlogs_count": 0, "votes_count": 0, "ships_count": 0, "projects": [], "coding_time_seconds": 0, "coding_time_seconds_today": 0, "balance": "You need to have a pocket watcher badge to view this.", "badges": [], "created_at": "2025-06-16T15:24:51.053-04:00", "updated_at": "2025-08-28T05:04:51.047-04:00", "avatar": "https://secure.gravatar.com/avatar/51eb4a5113dde5d99f4a71e6e8aea6f0.jpg?s=512&d=https%3A%2F%2Fa.slack-edge.com%2Fdf10d%2Fimg%2Favatars%2Fava_0014-512.png", "custom_css": null}, {"id": 2338, "slack_id": "U091Q7NL5L2", "display_name": "Rachid", "bio": null, "projects_count": 0, "devlogs_count": 0, "votes_count": 0, "ships_count": 0, "projects": [], "coding_time_seconds": 0, "coding_time_seconds_today": 0, "balance": "You need to have a pocket watcher badge to view this.", "badges": [], "created_at": "2025-06-16T15:24:52.446-04:00", "updated_at": "2025-07-03T19:21:49.048-04:00", "avatar": "https://secure.gravatar.com/avatar/71a2d17ff880cfd5905c8304fe18fbaa.jpg?s=512&d=https%3A%2F%2Fa.slack-edge.com%2Fdf10d%2Fimg%2Favatars%2Fava_0017-512.png", "custom_css": null}, {"id": 2339, "slack_id": "U09185KRBC7", "display_name": "swapn", "bio": null, "projects_count": 0, "devlogs_count": 0, "votes_count": 0, "ships_count": 0, "projects": [], "coding_time_seconds": 0, "coding_time_seconds_today": 0, "balance": "You need to have a pocket watcher badge to view this.", "badges": [], "created_at": "2025-06-16T15:24:59.749-04:00", "updated_at": "2025-07-03T19:21:49.319-04:00", "avatar": "https://secure.gravatar.com/avatar/792d81ac37aa441e13de118ee86e2eea.jpg?s=512&d=https%3A%2F%2Fa.slack-edge.com%2Fdf10d%2Fimg%2Favatars%2Fava_0007-512.png", "custom_css": null}, {"id": 2340, "slack_id": "U092CBVDPAL", "display_name": "\u00cdcaro Xenofonte", "bio": null, "projects_count": 0, "devlogs_count": 0, "votes_count": 0, "ships_count": 0, "projects": [], "coding_time_seconds": 0, "coding_time_seconds_today": 0, "balance": "You need to have a pocket watcher badge to view this.", "badges": [], "created_at": "2025-06-16T15:25:02.703-04:00", "updated_at": "2025-07-03T19:21:49.610-04:00", "avatar": "https://avatars.slack-edge.com/2025-06-16/9058287707394_fe7062d6943e4a554857_original.jpg", "custom_css": null}], "pagination": {"page": 117, "pages": 1192, "count": 23828, "items": 20}}