{"users": [{"id": 23518, "slack_id": "U09F6UXGB6Y", "display_name": "Saanu Sivathasan", "bio": null, "projects_count": 0, "devlogs_count": 0, "votes_count": 0, "ships_count": 0, "projects": [], "coding_time_seconds": 0, "coding_time_seconds_today": 0, "balance": "You need to have a pocket watcher badge to view this.", "badges": [], "created_at": "2025-09-13T06:12:07.985-04:00", "updated_at": "2025-09-13T10:05:20.615-04:00", "avatar": "https://secure.gravatar.com/avatar/689f8f56f7800021dc309aa4114a075e.jpg?s=512&d=https%3A%2F%2Fa.slack-edge.com%2Fdf10d%2Fimg%2Favatars%2Fava_0008-512.png", "custom_css": null}, {"id": 23519, "slack_id": "U09E3JJEC10", "display_name": "percy visiy", "bio": null, "projects_count": 0, "devlogs_count": 0, "votes_count": 0, "ships_count": 0, "projects": [], "coding_time_seconds": 0, "coding_time_seconds_today": 0, "balance": "You need to have a pocket watcher badge to view this.", "badges": [], "created_at": "2025-09-13T07:10:11.182-04:00", "updated_at": "2025-09-13T10:05:20.722-04:00", "avatar": "https://secure.gravatar.com/avatar/8cf321b249ef427a75c060317e839243.jpg?s=512&d=https%3A%2F%2Fa.slack-edge.com%2Fdf10d%2Fimg%2Favatars%2Fava_0009-512.png", "custom_css": null}, {"id": 23520, "slack_id": "U09FVDK7YKS", "display_name": "Severin", "bio": null, "projects_count": 0, "devlogs_count": 0, "votes_count": 0, "ships_count": 0, "projects": [], "coding_time_seconds": 0, "coding_time_seconds_today": 0, "balance": "You need to have a pocket watcher badge to view this.", "badges": [], "created_at": "2025-09-13T07:24:33.653-04:00", "updated_at": "2025-09-13T10:05:20.827-04:00", "avatar": "https://secure.gravatar.com/avatar/17eed379ef9307f5a5871cbe81ba03ed.jpg?s=512&d=https%3A%2F%2Fa.slack-edge.com%2Fdf10d%2Fimg%2Favatars%2Fava_0024-512.png", "custom_css": null}, {"id": 23521, "slack_id": "U09F00G8605", "display_name": "Neven", "bio": "", "projects_count": 1, "devlogs_count": 0, "votes_count": 0, "ships_count": 0, "projects": [{"id": 13348, "title": "WebCue", "devlogs_count": 0, "created_at": "2025-09-14T11:06:23.640-04:00"}], "coding_time_seconds": 4691, "coding_time_seconds_today": 0, "balance": "You need to have a pocket watcher badge to view this.", "badges": [], "created_at": "2025-09-13T07:31:03.486-04:00", "updated_at": "2025-09-14T15:27:19.324-04:00", "avatar": "https://avatars.slack-edge.com/2025-09-14/9512404693653_7525aeabaa941905b64a_original.png", "custom_css": null}, {"id": 23522, "slack_id": "U09F2KTU98E", "display_name": "Jakub Wolborski", "bio": null, "projects_count": 0, "devlogs_count": 0, "votes_count": 0, "ships_count": 0, "projects": [], "coding_time_seconds": 0, "coding_time_seconds_today": 0, "balance": "You need to have a pocket watcher badge to view this.", "badges": [], "created_at": "2025-09-13T07:36:53.078-04:00", "updated_at": "2025-09-14T07:32:44.707-04:00", "avatar": "https://secure.gravatar.com/avatar/d3c45377271070f61eb0606ac0471003.jpg?s=512&d=https%3A%2F%2Fa.slack-edge.com%2Fdf10d%2Fimg%2Favatars%2Fava_0005-512.png", "custom_css": null}, {"id": 23523, "slack_id": "U09F74LLQBE", "display_name": "Brady", "bio": null, "projects_count": 0, "devlogs_count": 0, "votes_count": 0, "ships_count": 0, "projects": [], "coding_time_seconds": 0, "coding_time_seconds_today": 0, "balance": "You need to have a pocket watcher badge to view this.", "badges": [], "created_at": "2025-09-13T08:06:54.572-04:00", "updated_at": "2025-09-13T10:05:25.430-04:00", "avatar": "https://secure.gravatar.com/avatar/ffbc81e9f23ce5db871935b6b7029417.jpg?s=512&d=https%3A%2F%2Fa.slack-edge.com%2Fdf10d%2Fimg%2Favatars%2Fava_0012-512.png", "custom_css": null}, {"id": 23524, "slack_id": "U09F2PB1KAN", "display_name": "SANJAY MANI S", "bio": null, "projects_count": 0, "devlogs_count": 0, "votes_count": 0, "ships_count": 0, "projects": [], "coding_time_seconds": 0, "coding_time_seconds_today": 0, "balance": "You need to have a pocket watcher badge to view this.", "badges": [], "created_at": "2025-09-13T08:10:54.544-04:00", "updated_at": "2025-09-13T10:05:25.552-04:00", "avatar": "https://secure.gravatar.com/avatar/a7a5bff8851fee6b485a085dee504049.jpg?s=512&d=https%3A%2F%2Fa.slack-edge.com%2Fdf10d%2Fimg%2Favatars%2Fava_0010-512.png", "custom_css": null}, {"id": 23525, "slack_id": "U09EA2TDN0P", "display_name": "Matthew", "bio": null, "projects_count": 0, "devlogs_count": 0, "votes_count": 0, "ships_count": 0, "projects": [], "coding_time_seconds": 130, "coding_time_seconds_today": 0, "balance": "You need to have a pocket watcher badge to view this.", "badges": [], "created_at": "2025-09-13T10:37:56.825-04:00", "updated_at": "2025-09-14T01:15:47.148-04:00", "avatar": "https://secure.gravatar.com/avatar/1e24c639baf1db40080280c1db8213cc.jpg?s=512&d=https%3A%2F%2Fa.slack-edge.com%2Fdf10d%2Fimg%2Favatars%2Fava_0001-512.png", "custom_css": null}, {"id": 23526, "slack_id": "U09F34AJFQE", "display_name": "Shahil Roy", "bio": null, "projects_count": 0, "devlogs_count": 0, "votes_count": 0, "ships_count": 0, "projects": [], "coding_time_seconds": 24125, "coding_time_seconds_today": 0, "balance": "You need to have a pocket watcher badge to view this.", "badges": [], "created_at": "2025-09-13T11:54:15.467-04:00", "updated_at": "2025-09-14T09:23:47.386-04:00", "avatar": "https://avatars.slack-edge.com/2025-09-13/9513151947318_db4a91d89064a6462b65_original.png", "custom_css": null}, {"id": 23527, "slack_id": "U09F35M3PQE", "display_name": "Mohammad Mujtaba", "bio": null, "projects_count": 0, "devlogs_count": 0, "votes_count": 0, "ships_count": 0, "projects": [], "coding_time_seconds": 0, "coding_time_seconds_today": 0, "balance": "You need to have a pocket watcher badge to view this.", "badges": [], "created_at": "2025-09-13T12:16:03.081-04:00", "updated_at": "2025-09-14T01:15:47.378-04:00", "avatar": "https://secure.gravatar.com/avatar/5b27cf2dd0d39297223f6b4113991761.jpg?s=512&d=https%3A%2F%2Fa.slack-edge.com%2Fdf10d%2Fimg%2Favatars%2Fava_0010-512.png", "custom_css": null}, {"id": 23528, "slack_id": "U09FVURQ9NU", "display_name": "fallentyno", "bio": null, "projects_count": 0, "devlogs_count": 0, "votes_count": 0, "ships_count": 0, "projects": [], "coding_time_seconds": 0, "coding_time_seconds_today": 0, "balance": "You need to have a pocket watcher badge to view this.", "badges": [], "created_at": "2025-09-13T12:28:25.871-04:00", "updated_at": "2025-09-14T01:15:47.497-04:00", "avatar": "https://secure.gravatar.com/avatar/525dcff2a69c266e501e211a655bef92.jpg?s=512&d=https%3A%2F%2Fa.slack-edge.com%2Fdf10d%2Fimg%2Favatars%2Fava_0008-512.png", "custom_css": null}, {"id": 23529, "slack_id": "U09F0GC9GFP", "display_name": "Ahmed Amer", "bio": null, "projects_count": 0, "devlogs_count": 0, "votes_count": 0, "ships_count": 0, "projects": [], "coding_time_seconds": 0, "coding_time_seconds_today": 0, "balance": "You need to have a pocket watcher badge to view this.", "badges": [], "created_at": "2025-09-13T12:43:29.110-04:00", "updated_at": "2025-09-14T01:15:47.626-04:00", "avatar": "https://secure.gravatar.com/avatar/66e8b98b5ddc174267fc135ce185d0fa.jpg?s=512&d=https%3A%2F%2Fa.slack-edge.com%2Fdf10d%2Fimg%2Favatars%2Fava_0018-512.png", "custom_css": null}, {"id": 23530, "slack_id": "U09ENUBGK0F", "display_name": "AlphaCode", "bio": null, "projects_count": 0, "devlogs_count": 0, "votes_count": 0, "ships_count": 0, "projects": [], "coding_time_seconds": 0, "coding_time_seconds_today": 0, "balance": "You need to have a pocket watcher badge to view this.", "badges": [], "created_at": "2025-09-13T13:27:56.564-04:00", "updated_at": "2025-09-14T01:15:47.815-04:00", "avatar": "https://secure.gravatar.com/avatar/1decf51ee9561bb7b658fca8f94fb0ec.jpg?s=512&d=https%3A%2F%2Fa.slack-edge.com%2Fdf10d%2Fimg%2Favatars%2Fava_0011-512.png", "custom_css": null}, {"id": 23531, "slack_id": "U09FGU6E073", "display_name": "D\u00f6rzsi", "bio": null, "projects_count": 0, "devlogs_count": 0, "votes_count": 0, "ships_count": 0, "projects": [], "coding_time_seconds": 0, "coding_time_seconds_today": 0, "balance": "You need to have a pocket watcher badge to view this.", "badges": [], "created_at": "2025-09-13T13:42:17.570-04:00", "updated_at": "2025-09-14T06:23:11.328-04:00", "avatar": "https://secure.gravatar.com/avatar/8a4e07db1b3fba0c94ad340c3e406721.jpg?s=512&d=https%3A%2F%2Fa.slack-edge.com%2Fdf10d%2Fimg%2Favatars%2Fava_0015-512.png", "custom_css": null}, {"id": 23532, "slack_id": "U09F3ATBVH8", "display_name": "Ahmed", "bio": null, "projects_count": 0, "devlogs_count": 0, "votes_count": 0, "ships_count": 0, "projects": [], "coding_time_seconds": 5510, "coding_time_seconds_today": 0, "balance": "You need to have a pocket watcher badge to view this.", "badges": [], "created_at": "2025-09-13T13:59:56.826-04:00", "updated_at": "2025-09-15T20:05:10.793-04:00", "avatar": "https://avatars.slack-edge.com/2025-09-15/9522848153782_38472e0eb4735bfa52bd_original.png", "custom_css": null}, {"id": 23533, "slack_id": "U09F3ADQWQ2", "display_name": "Anass Zakar", "bio": null, "projects_count": 0, "devlogs_count": 0, "votes_count": 0, "ships_count": 0, "projects": [], "coding_time_seconds": 0, "coding_time_seconds_today": 0, "balance": "You need to have a pocket watcher badge to view this.", "badges": [], "created_at": "2025-09-13T14:19:21.039-04:00", "updated_at": "2025-09-14T01:15:58.615-04:00", "avatar": "https://avatars.slack-edge.com/2025-09-13/9513424905270_a539c28aea7b562a22b7_original.png", "custom_css": null}, {"id": 23534, "slack_id": "U09F0J65QF7", "display_name": "Cyborg4032", "bio": null, "projects_count": 0, "devlogs_count": 0, "votes_count": 0, "ships_count": 0, "projects": [], "coding_time_seconds": 0, "coding_time_seconds_today": 0, "balance": "You need to have a pocket watcher badge to view this.", "badges": [], "created_at": "2025-09-13T14:35:49.744-04:00", "updated_at": "2025-09-14T01:15:58.934-04:00", "avatar": "https://secure.gravatar.com/avatar/d9c1033a6b386c16d609fd88da34d027.jpg?s=512&d=https%3A%2F%2Fa.slack-edge.com%2Fdf10d%2Fimg%2Favatars%2Fava_0009-512.png", "custom_css": null}, {"id": 23535, "slack_id": "U09FW636L9E", "display_name": "PaperTarsier", "bio": "16 y/o Austrian high schooler that likes to program in Python & C", "projects_count": 0, "devlogs_count": 0, "votes_count": 0, "ships_count": 0, "projects": [], "coding_time_seconds": 70982, "coding_time_seconds_today": 1475, "balance": "You need to have a pocket watcher badge to view this.", "badges": [], "created_at": "2025-09-13T14:45:35.815-04:00", "updated_at": "2025-09-15T05:54:05.114-04:00", "avatar": "https://avatars.slack-edge.com/2025-09-13/9513480198594_da38681f83e66f6dd406_original.jpg", "custom_css": null}, {"id": 23536, "slack_id": "U09EP3103K9", "display_name": "Lw_zeo", "bio": null, "projects_count": 0, "devlogs_count": 0, "votes_count": 0, "ships_count": 0, "projects": [], "coding_time_seconds": 0, "coding_time_seconds_today": 0, "balance": "You need to have a pocket watcher badge to view this.", "badges": [], "created_at": "2025-09-13T15:01:57.881-04:00", "updated_at": "2025-09-14T01:15:59.495-04:00", "avatar": "https://secure.gravatar.com/avatar/e9106448300f9e051f40bcf48001d3c3.jpg?s=512&d=https%3A%2F%2Fa.slack-edge.com%2Fdf10d%2Fimg%2Favatars%2Fava_0010-512.png", "custom_css": null}, {"id": 23537, "slack_id": "U07N4BHMG1J", "display_name": "Giuseppe Volpe", "bio": null, "projects_count": 0, "devlogs_count": 0, "votes_count": 0, "ships_count": 0, "projects": [], "coding_time_seconds": 0, "coding_time_seconds_today": 0, "balance": "You need to have a pocket watcher badge to view this.", "badges": [], "created_at": "2025-09-13T16:25:57.610-04:00", "updated_at": "2025-09-13T16:26:29.112-04:00", "avatar": "https://avatars.slack-edge.com/2024-09-18/7762577300081_5e88455e9d485ec8cfa2_original.jpg", "custom_css": null}], "pagination": {"page": 1171, "pages": 1192, "count": 23828, "items": 20}}