{"users": [{"id": 23538, "slack_id": "U09F814HSLC", "display_name": "Emma B.", "bio": null, "projects_count": 0, "devlogs_count": 0, "votes_count": 0, "ships_count": 0, "projects": [], "coding_time_seconds": 0, "coding_time_seconds_today": 0, "balance": "You need to have a pocket watcher badge to view this.", "badges": [], "created_at": "2025-09-13T16:39:49.282-04:00", "updated_at": "2025-09-14T01:15:59.943-04:00", "avatar": "https://secure.gravatar.com/avatar/36cca8fb9e94be392d32ff80f6e97f50.jpg?s=512&d=https%3A%2F%2Fa.slack-edge.com%2Fdf10d%2Fimg%2Favatars%2Fava_0000-512.png", "custom_css": null}, {"id": 23539, "slack_id": "U09FHAQCL6M", "display_name": "patty", "bio": null, "projects_count": 0, "devlogs_count": 0, "votes_count": 0, "ships_count": 0, "projects": [], "coding_time_seconds": 20382, "coding_time_seconds_today": 0, "balance": "You need to have a pocket watcher badge to view this.", "badges": [], "created_at": "2025-09-13T18:08:43.200-04:00", "updated_at": "2025-09-14T01:16:00.063-04:00", "avatar": "https://secure.gravatar.com/avatar/b4e4a8e94593ac6a6ddc0cba240a6e79.jpg?s=512&d=https%3A%2F%2Fa.slack-edge.com%2Fdf10d%2Fimg%2Favatars%2Fava_0005-512.png", "custom_css": null}, {"id": 23540, "slack_id": "U09F16U6EBX", "display_name": "mikaella", "bio": null, "projects_count": 0, "devlogs_count": 0, "votes_count": 0, "ships_count": 0, "projects": [], "coding_time_seconds": 0, "coding_time_seconds_today": 0, "balance": "You need to have a pocket watcher badge to view this.", "badges": [], "created_at": "2025-09-13T19:58:46.190-04:00", "updated_at": "2025-09-14T01:16:00.183-04:00", "avatar": "https://secure.gravatar.com/avatar/134a27a0f3e95ca65df7ac24957a0a29.jpg?s=512&d=https%3A%2F%2Fa.slack-edge.com%2Fdf10d%2Fimg%2Favatars%2Fava_0002-512.png", "custom_css": null}, {"id": 23541, "slack_id": "U09EPP2BBFZ", "display_name": "Arthur Chen", "bio": null, "projects_count": 0, "devlogs_count": 0, "votes_count": 0, "ships_count": 0, "projects": [], "coding_time_seconds": 0, "coding_time_seconds_today": 0, "balance": "You need to have a pocket watcher badge to view this.", "badges": [], "created_at": "2025-09-13T23:06:01.681-04:00", "updated_at": "2025-09-14T01:16:00.295-04:00", "avatar": "https://secure.gravatar.com/avatar/346d38502efc60ac8b830ebe00badc52.jpg?s=512&d=https%3A%2F%2Fa.slack-edge.com%2Fdf10d%2Fimg%2Favatars%2Fava_0010-512.png", "custom_css": null}, {"id": 23542, "slack_id": "U09F0MZU2Q3", "display_name": "Sarthak Jain", "bio": null, "projects_count": 0, "devlogs_count": 0, "votes_count": 0, "ships_count": 0, "projects": [], "coding_time_seconds": 40553, "coding_time_seconds_today": 0, "balance": "You need to have a pocket watcher badge to view this.", "badges": [], "created_at": "2025-09-14T01:16:08.429-04:00", "updated_at": "2025-09-14T08:05:23.019-04:00", "avatar": "https://avatars.slack-edge.com/2025-09-13/9514350697666_a592548851af4fd34496_original.png", "custom_css": null}, {"id": 23543, "slack_id": "U09F47Q42PL", "display_name": "beboppp", "bio": null, "projects_count": 0, "devlogs_count": 0, "votes_count": 0, "ships_count": 0, "projects": [], "coding_time_seconds": 0, "coding_time_seconds_today": 0, "balance": "You need to have a pocket watcher badge to view this.", "badges": [], "created_at": "2025-09-14T01:24:36.686-04:00", "updated_at": "2025-09-14T08:05:23.144-04:00", "avatar": "https://secure.gravatar.com/avatar/65c3af7531138cefdfbc078e602eb81a.jpg?s=512&d=https%3A%2F%2Fa.slack-edge.com%2Fdf10d%2Fimg%2Favatars%2Fava_0022-512.png", "custom_css": null}, {"id": 23544, "slack_id": "U09F1MMHZRB", "display_name": "Adam", "bio": null, "projects_count": 1, "devlogs_count": 0, "votes_count": 0, "ships_count": 0, "projects": [{"id": 13380, "title": "210Z Push Back", "devlogs_count": 0, "created_at": "2025-09-15T00:53:25.695-04:00"}], "coding_time_seconds": 4173, "coding_time_seconds_today": 0, "balance": "You need to have a pocket watcher badge to view this.", "badges": [], "created_at": "2025-09-14T01:40:35.193-04:00", "updated_at": "2025-09-14T08:05:23.262-04:00", "avatar": "https://secure.gravatar.com/avatar/196dfed37de7841b7ca63ca10f19765d.jpg?s=512&d=https%3A%2F%2Fa.slack-edge.com%2Fdf10d%2Fimg%2Favatars%2Fava_0014-512.png", "custom_css": null}, {"id": 23545, "slack_id": "U09FJ2Z8C7K", "display_name": "earth", "bio": null, "projects_count": 0, "devlogs_count": 0, "votes_count": 0, "ships_count": 0, "projects": [], "coding_time_seconds": 0, "coding_time_seconds_today": 0, "balance": "You need to have a pocket watcher badge to view this.", "badges": [], "created_at": "2025-09-14T02:57:34.165-04:00", "updated_at": "2025-09-14T08:05:23.385-04:00", "avatar": "https://secure.gravatar.com/avatar/b3ff14eb0a2530a6caf5b84feb6f7360.jpg?s=512&d=https%3A%2F%2Fa.slack-edge.com%2Fdf10d%2Fimg%2Favatars%2Fava_0001-512.png", "custom_css": null}, {"id": 23546, "slack_id": "U09F4EPL9H8", "display_name": "vincent", "bio": null, "projects_count": 0, "devlogs_count": 0, "votes_count": 0, "ships_count": 0, "projects": [], "coding_time_seconds": 0, "coding_time_seconds_today": 0, "balance": "You need to have a pocket watcher badge to view this.", "badges": [], "created_at": "2025-09-14T03:02:58.516-04:00", "updated_at": "2025-09-14T08:05:23.501-04:00", "avatar": "https://secure.gravatar.com/avatar/ce5cb999ea48dcc26bc7461463fe8d1c.jpg?s=512&d=https%3A%2F%2Fa.slack-edge.com%2Fdf10d%2Fimg%2Favatars%2Fava_0006-512.png", "custom_css": null}, {"id": 23547, "slack_id": "U09F0U79PBM", "display_name": "Adarsh", "bio": null, "projects_count": 1, "devlogs_count": 1, "votes_count": 0, "ships_count": 0, "projects": [{"id": 13607, "title": "Critters", "devlogs_count": 1, "created_at": "2025-09-20T18:27:11.326-04:00"}], "coding_time_seconds": 50736, "coding_time_seconds_today": 0, "balance": "You need to have a pocket watcher badge to view this.", "badges": [], "created_at": "2025-09-14T03:38:17.614-04:00", "updated_at": "2025-09-14T15:00:09.933-04:00", "avatar": "https://secure.gravatar.com/avatar/f0bb2a91ea1dc311a8867c0c611cf9fa.jpg?s=512&d=https%3A%2F%2Fa.slack-edge.com%2Fdf10d%2Fimg%2Favatars%2Fava_0022-512.png", "custom_css": null}, {"id": 23548, "slack_id": "U09F91SPSKE", "display_name": "Bhavya", "bio": null, "projects_count": 0, "devlogs_count": 0, "votes_count": 0, "ships_count": 0, "projects": [], "coding_time_seconds": 0, "coding_time_seconds_today": 0, "balance": "You need to have a pocket watcher badge to view this.", "badges": [], "created_at": "2025-09-14T04:18:40.895-04:00", "updated_at": "2025-09-14T08:05:23.756-04:00", "avatar": "https://avatars.slack-edge.com/2025-09-14/9514624724802_c42e8cd4bd8054318b89_original.png", "custom_css": null}, {"id": 23549, "slack_id": "U09EQ7NFSDD", "display_name": "Nuaim Aahamed", "bio": null, "projects_count": 0, "devlogs_count": 0, "votes_count": 0, "ships_count": 0, "projects": [], "coding_time_seconds": 0, "coding_time_seconds_today": 0, "balance": "You need to have a pocket watcher badge to view this.", "badges": [], "created_at": "2025-09-14T04:25:05.248-04:00", "updated_at": "2025-09-14T08:05:23.883-04:00", "avatar": "https://avatars.slack-edge.com/2025-09-14/9500266366471_c1b270b1317dd808688b_original.png", "custom_css": null}, {"id": 23550, "slack_id": "U09F94R6PNG", "display_name": "Prabhdeep", "bio": null, "projects_count": 0, "devlogs_count": 0, "votes_count": 0, "ships_count": 0, "projects": [], "coding_time_seconds": 0, "coding_time_seconds_today": 0, "balance": "You need to have a pocket watcher badge to view this.", "badges": [], "created_at": "2025-09-14T05:25:23.922-04:00", "updated_at": "2025-09-14T08:05:23.998-04:00", "avatar": "https://secure.gravatar.com/avatar/36d7ab34ccbf4f45f32a52c695c6681e.jpg?s=512&d=https%3A%2F%2Fa.slack-edge.com%2Fdf10d%2Fimg%2Favatars%2Fava_0019-512.png", "custom_css": null}, {"id": 23551, "slack_id": "U09F4UQKL5U", "display_name": "Aryan Raj keshri", "bio": null, "projects_count": 0, "devlogs_count": 0, "votes_count": 0, "ships_count": 0, "projects": [], "coding_time_seconds": 0, "coding_time_seconds_today": 0, "balance": "You need to have a pocket watcher badge to view this.", "badges": [], "created_at": "2025-09-14T06:28:46.355-04:00", "updated_at": "2025-09-14T08:05:24.124-04:00", "avatar": "https://secure.gravatar.com/avatar/a93c66d4bb94626ed3c19cfb8a017e40.jpg?s=512&d=https%3A%2F%2Fa.slack-edge.com%2Fdf10d%2Fimg%2Favatars%2Fava_0000-512.png", "custom_css": null}, {"id": 23552, "slack_id": "U09F5047N30", "display_name": "Psycho_Shinigami", "bio": null, "projects_count": 0, "devlogs_count": 0, "votes_count": 0, "ships_count": 0, "projects": [], "coding_time_seconds": 0, "coding_time_seconds_today": 0, "balance": "You need to have a pocket watcher badge to view this.", "badges": [], "created_at": "2025-09-14T06:45:23.781-04:00", "updated_at": "2025-09-14T08:05:24.264-04:00", "avatar": "https://secure.gravatar.com/avatar/38cc35116c3b997d32719095e7bf5d67.jpg?s=512&d=https%3A%2F%2Fa.slack-edge.com%2Fdf10d%2Fimg%2Favatars%2Fava_0011-512.png", "custom_css": null}, {"id": 23553, "slack_id": "U08R12AT2FK", "display_name": "Khalid IBN FKIH", "bio": null, "projects_count": 0, "devlogs_count": 0, "votes_count": 2, "ships_count": 0, "projects": [], "coding_time_seconds": 3686, "coding_time_seconds_today": 0, "balance": "You need to have a pocket watcher badge to view this.", "badges": [], "created_at": "2025-09-14T09:37:00.029-04:00", "updated_at": "2025-09-14T11:00:06.564-04:00", "avatar": "https://avatars.slack-edge.com/2025-05-02/8852409259873_7c46d42fa14f6082350c_original.jpg", "custom_css": null}, {"id": 23554, "slack_id": "U09F9GF8F36", "display_name": "yatharth prakash", "bio": null, "projects_count": 0, "devlogs_count": 0, "votes_count": 0, "ships_count": 0, "projects": [], "coding_time_seconds": 0, "coding_time_seconds_today": 0, "balance": "You need to have a pocket watcher badge to view this.", "badges": [], "created_at": "2025-09-14T09:57:40.321-04:00", "updated_at": "2025-09-14T15:27:28.525-04:00", "avatar": "https://avatars.slack-edge.com/2025-09-14/9515329596870_44b60c6a4efcf5c3073f_original.png", "custom_css": null}, {"id": 23555, "slack_id": "U09EQRQBZE3", "display_name": "Benyamin Gladkov", "bio": null, "projects_count": 0, "devlogs_count": 0, "votes_count": 0, "ships_count": 0, "projects": [], "coding_time_seconds": 0, "coding_time_seconds_today": 0, "balance": "You need to have a pocket watcher badge to view this.", "badges": [], "created_at": "2025-09-14T11:07:09.326-04:00", "updated_at": "2025-09-14T15:27:28.739-04:00", "avatar": "https://avatars.slack-edge.com/2025-09-14/9512608966661_b3a0f34a5b9552dd4314_original.jpg", "custom_css": null}, {"id": 23556, "slack_id": "U09DZHM7TRQ", "display_name": "Shreyasi K", "bio": null, "projects_count": 0, "devlogs_count": 0, "votes_count": 0, "ships_count": 0, "projects": [], "coding_time_seconds": 48474, "coding_time_seconds_today": 0, "balance": "You need to have a pocket watcher badge to view this.", "badges": [], "created_at": "2025-09-14T11:07:58.670-04:00", "updated_at": "2025-09-21T20:05:17.030-04:00", "avatar": "https://avatars.slack-edge.com/2025-09-21/9584077699952_4285c5d99858bbbf37d8_original.png", "custom_css": null}, {"id": 23557, "slack_id": "U09F1NBBX6X", "display_name": "Cau\u00e3", "bio": null, "projects_count": 1, "devlogs_count": 0, "votes_count": 0, "ships_count": 0, "projects": [{"id": 13354, "title": "Redaciona", "devlogs_count": 0, "created_at": "2025-09-14T12:38:14.883-04:00"}], "coding_time_seconds": 91926, "coding_time_seconds_today": 0, "balance": "You need to have a pocket watcher badge to view this.", "badges": [], "created_at": "2025-09-14T12:13:30.285-04:00", "updated_at": "2025-09-14T15:27:29.055-04:00", "avatar": "https://secure.gravatar.com/avatar/7e569647d6207976624e23fa336a143e.jpg?s=512&d=https%3A%2F%2Fa.slack-edge.com%2Fdf10d%2Fimg%2Favatars%2Fava_0019-512.png", "custom_css": null}], "pagination": {"page": 1172, "pages": 1192, "count": 23828, "items": 20}}