{"users": [{"id": 23558, "slack_id": "U07UZ2AEEEM", "display_name": "Callum F", "bio": null, "projects_count": 0, "devlogs_count": 0, "votes_count": 0, "ships_count": 0, "projects": [], "coding_time_seconds": 44098, "coding_time_seconds_today": 0, "balance": "You need to have a pocket watcher badge to view this.", "badges": [], "created_at": "2025-09-14T12:42:04.865-04:00", "updated_at": "2025-09-16T04:02:00.480-04:00", "avatar": "https://avatars.slack-edge.com/2024-11-02/7974903712324_e3f3e73819f282bd47e8_original.jpg", "custom_css": null}, {"id": 23559, "slack_id": "U09F2JVELHK", "display_name": "Lucia", "bio": null, "projects_count": 0, "devlogs_count": 0, "votes_count": 0, "ships_count": 0, "projects": [], "coding_time_seconds": 0, "coding_time_seconds_today": 0, "balance": "You need to have a pocket watcher badge to view this.", "badges": [], "created_at": "2025-09-14T13:05:23.007-04:00", "updated_at": "2025-09-14T15:27:29.258-04:00", "avatar": "https://secure.gravatar.com/avatar/0064d904eb834b0b742ded3499537640.jpg?s=512&d=https%3A%2F%2Fa.slack-edge.com%2Fdf10d%2Fimg%2Favatars%2Fava_0013-512.png", "custom_css": null}, {"id": 23560, "slack_id": "U09F2PQEZ45", "display_name": "Mr.A", "bio": null, "projects_count": 0, "devlogs_count": 0, "votes_count": 0, "ships_count": 0, "projects": [], "coding_time_seconds": 0, "coding_time_seconds_today": 0, "balance": "You need to have a pocket watcher badge to view this.", "badges": [], "created_at": "2025-09-14T13:10:53.574-04:00", "updated_at": "2025-09-14T15:27:29.373-04:00", "avatar": "https://secure.gravatar.com/avatar/ee701bbf4b7a7c70e6b4badcd87e0f34.jpg?s=512&d=https%3A%2F%2Fa.slack-edge.com%2Fdf10d%2Fimg%2Favatars%2Fava_0002-512.png", "custom_css": null}, {"id": 23561, "slack_id": "U09F2V7K2BC", "display_name": "Ziad Salah", "bio": null, "projects_count": 0, "devlogs_count": 0, "votes_count": 0, "ships_count": 0, "projects": [], "coding_time_seconds": 0, "coding_time_seconds_today": 0, "balance": "You need to have a pocket watcher badge to view this.", "badges": [], "created_at": "2025-09-14T13:24:51.090-04:00", "updated_at": "2025-09-14T15:27:29.505-04:00", "avatar": "https://avatars.slack-edge.com/2025-09-14/9501097024231_206af289136a0c77a564_original.png", "custom_css": null}, {"id": 23562, "slack_id": "U09FY955XB2", "display_name": "Vishi", "bio": null, "projects_count": 0, "devlogs_count": 0, "votes_count": 0, "ships_count": 0, "projects": [], "coding_time_seconds": 0, "coding_time_seconds_today": 0, "balance": "You need to have a pocket watcher badge to view this.", "badges": [], "created_at": "2025-09-14T13:26:35.971-04:00", "updated_at": "2025-09-14T15:27:29.599-04:00", "avatar": "https://secure.gravatar.com/avatar/ca446349dfdae278ee3e6abfc64f0fbb.jpg?s=512&d=https%3A%2F%2Fa.slack-edge.com%2Fdf10d%2Fimg%2Favatars%2Fava_0010-512.png", "custom_css": null}, {"id": 23563, "slack_id": "U09FYA7KH40", "display_name": "Skye", "bio": null, "projects_count": 0, "devlogs_count": 0, "votes_count": 0, "ships_count": 0, "projects": [], "coding_time_seconds": 0, "coding_time_seconds_today": 0, "balance": "You need to have a pocket watcher badge to view this.", "badges": [], "created_at": "2025-09-14T13:48:34.189-04:00", "updated_at": "2025-09-14T15:27:29.711-04:00", "avatar": "https://secure.gravatar.com/avatar/3109f2a68c8fd4bba4307275bad46220.jpg?s=512&d=https%3A%2F%2Fa.slack-edge.com%2Fdf10d%2Fimg%2Favatars%2Fava_0016-512.png", "custom_css": null}, {"id": 23564, "slack_id": "U05RLT1DX9Q", "display_name": "Riley", "bio": null, "projects_count": 1, "devlogs_count": 1, "votes_count": 0, "ships_count": 0, "projects": [{"id": 13459, "title": "TrackFish", "devlogs_count": 1, "created_at": "2025-09-17T00:18:29.338-04:00"}], "coding_time_seconds": 156457, "coding_time_seconds_today": 11268, "balance": "You need to have a pocket watcher badge to view this.", "badges": [], "created_at": "2025-09-14T15:53:24.029-04:00", "updated_at": "2025-09-19T00:26:30.923-04:00", "avatar": "https://avatars.slack-edge.com/2024-09-26/7809696549168_d6ba11965e04891433a2_original.png", "custom_css": null}, {"id": 23565, "slack_id": "U09F31RMZEH", "display_name": "Michal", "bio": null, "projects_count": 0, "devlogs_count": 0, "votes_count": 0, "ships_count": 0, "projects": [], "coding_time_seconds": 160, "coding_time_seconds_today": 0, "balance": "You need to have a pocket watcher badge to view this.", "badges": [], "created_at": "2025-09-14T15:54:06.865-04:00", "updated_at": "2025-09-14T20:05:31.938-04:00", "avatar": "https://secure.gravatar.com/avatar/113dad0e28f801a9cebea98e8226c184.jpg?s=512&d=https%3A%2F%2Fa.slack-edge.com%2Fdf10d%2Fimg%2Favatars%2Fava_0025-512.png", "custom_css": null}, {"id": 23566, "slack_id": "U09FA5DLEVA", "display_name": "Sahil Kasaudhan", "bio": null, "projects_count": 0, "devlogs_count": 0, "votes_count": 0, "ships_count": 0, "projects": [], "coding_time_seconds": 0, "coding_time_seconds_today": 0, "balance": "You need to have a pocket watcher badge to view this.", "badges": [], "created_at": "2025-09-14T15:58:30.717-04:00", "updated_at": "2025-09-14T20:05:32.047-04:00", "avatar": "https://secure.gravatar.com/avatar/492ea009bdb716cc09c48d82880e18ca.jpg?s=512&d=https%3A%2F%2Fa.slack-edge.com%2Fdf10d%2Fimg%2Favatars%2Fava_0016-512.png", "custom_css": null}, {"id": 23567, "slack_id": "U09FYGEHQTS", "display_name": "mar", "bio": null, "projects_count": 0, "devlogs_count": 0, "votes_count": 0, "ships_count": 0, "projects": [], "coding_time_seconds": 0, "coding_time_seconds_today": 0, "balance": "You need to have a pocket watcher badge to view this.", "badges": [], "created_at": "2025-09-14T15:59:08.716-04:00", "updated_at": "2025-09-14T20:05:32.153-04:00", "avatar": "https://secure.gravatar.com/avatar/5ab6c1bea4c2c4d4de92351804a434df.jpg?s=512&d=https%3A%2F%2Fa.slack-edge.com%2Fdf10d%2Fimg%2Favatars%2Fava_0007-512.png", "custom_css": null}, {"id": 23568, "slack_id": "U09ERAXBE23", "display_name": "Yusuf Yamen", "bio": null, "projects_count": 0, "devlogs_count": 0, "votes_count": 0, "ships_count": 0, "projects": [], "coding_time_seconds": 0, "coding_time_seconds_today": 0, "balance": "You need to have a pocket watcher badge to view this.", "badges": [], "created_at": "2025-09-14T16:26:07.557-04:00", "updated_at": "2025-09-21T09:48:38.072-04:00", "avatar": "https://secure.gravatar.com/avatar/b1bb219ac4fa4329ab0e07ceea827ed6.jpg?s=512&d=https%3A%2F%2Fa.slack-edge.com%2Fdf10d%2Fimg%2Favatars%2Fava_0000-512.png", "custom_css": null}, {"id": 23569, "slack_id": "U09F6303VV4", "display_name": "Matthew H Zhang", "bio": null, "projects_count": 0, "devlogs_count": 0, "votes_count": 0, "ships_count": 0, "projects": [], "coding_time_seconds": 0, "coding_time_seconds_today": 0, "balance": "You need to have a pocket watcher badge to view this.", "badges": [], "created_at": "2025-09-14T17:41:41.139-04:00", "updated_at": "2025-09-14T20:05:32.579-04:00", "avatar": "https://avatars.slack-edge.com/2025-09-14/9542725344800_66fd23890a0831adad71_original.png", "custom_css": null}, {"id": 23570, "slack_id": "U09F63FFYP8", "display_name": "zaid", "bio": null, "projects_count": 0, "devlogs_count": 0, "votes_count": 0, "ships_count": 0, "projects": [], "coding_time_seconds": 0, "coding_time_seconds_today": 0, "balance": "You need to have a pocket watcher badge to view this.", "badges": [], "created_at": "2025-09-14T17:48:52.449-04:00", "updated_at": "2025-09-14T20:05:32.692-04:00", "avatar": "https://secure.gravatar.com/avatar/86dc38ddb47ca9395f1ce8654ee2b9e4.jpg?s=512&d=https%3A%2F%2Fa.slack-edge.com%2Fdf10d%2Fimg%2Favatars%2Fava_0009-512.png", "custom_css": null}, {"id": 23571, "slack_id": "U09FF036C5P", "display_name": "Brenton Graham", "bio": null, "projects_count": 2, "devlogs_count": 2, "votes_count": 2, "ships_count": 0, "projects": [{"id": 13530, "title": "VOLT-VIEW (Flask Application", "devlogs_count": 1, "created_at": "2025-09-18T17:24:26.778-04:00"}, {"id": 13386, "title": "BYTE-BEAST (Flask Application)", "devlogs_count": 1, "created_at": "2025-09-15T03:28:50.443-04:00"}], "coding_time_seconds": 9559, "coding_time_seconds_today": 0, "balance": "You need to have a pocket watcher badge to view this.", "badges": [], "created_at": "2025-09-14T17:53:42.356-04:00", "updated_at": "2025-09-15T04:30:03.558-04:00", "avatar": "https://secure.gravatar.com/avatar/26940a771a58d187cb7f91b1b1bd6cc8.jpg?s=512&d=https%3A%2F%2Fa.slack-edge.com%2Fdf10d%2Fimg%2Favatars%2Fava_0004-512.png", "custom_css": null}, {"id": 23572, "slack_id": "U09FABQCB44", "display_name": "Ryan McKay", "bio": null, "projects_count": 0, "devlogs_count": 0, "votes_count": 2, "ships_count": 0, "projects": [], "coding_time_seconds": 4395, "coding_time_seconds_today": 0, "balance": "You need to have a pocket watcher badge to view this.", "badges": [], "created_at": "2025-09-14T18:15:24.282-04:00", "updated_at": "2025-09-16T09:37:02.976-04:00", "avatar": "https://secure.gravatar.com/avatar/d5fa96cee0dc4e077193bff7ce813bd5.jpg?s=512&d=https%3A%2F%2Fa.slack-edge.com%2Fdf10d%2Fimg%2Favatars%2Fava_0019-512.png", "custom_css": null}, {"id": 23573, "slack_id": "U0705A0MPLK", "display_name": "LiquidPixel101", "bio": null, "projects_count": 0, "devlogs_count": 0, "votes_count": 0, "ships_count": 0, "projects": [], "coding_time_seconds": 0, "coding_time_seconds_today": 0, "balance": "You need to have a pocket watcher badge to view this.", "badges": [], "created_at": "2025-09-14T18:17:28.829-04:00", "updated_at": "2025-09-14T18:22:04.187-04:00", "avatar": "https://avatars.slack-edge.com/2024-04-22/7007951991924_89c5986cd8c42d106b13_original.gif", "custom_css": null}, {"id": 23574, "slack_id": "U09F3A58AJZ", "display_name": "Alexander Vargas", "bio": null, "projects_count": 0, "devlogs_count": 0, "votes_count": 0, "ships_count": 0, "projects": [], "coding_time_seconds": 0, "coding_time_seconds_today": 0, "balance": "You need to have a pocket watcher badge to view this.", "badges": [], "created_at": "2025-09-14T18:42:37.644-04:00", "updated_at": "2025-09-15T00:30:04.335-04:00", "avatar": "https://secure.gravatar.com/avatar/d9a2e6befe7c9225c5c41bd22543571a.jpg?s=512&d=https%3A%2F%2Fa.slack-edge.com%2Fdf10d%2Fimg%2Favatars%2Fava_0009-512.png", "custom_css": null}, {"id": 23575, "slack_id": "U09FYRPDVQ8", "display_name": "Fatokunbo Isaac", "bio": null, "projects_count": 0, "devlogs_count": 0, "votes_count": 0, "ships_count": 0, "projects": [], "coding_time_seconds": 0, "coding_time_seconds_today": 0, "balance": "You need to have a pocket watcher badge to view this.", "badges": [], "created_at": "2025-09-14T19:20:12.506-04:00", "updated_at": "2025-09-15T02:27:12.452-04:00", "avatar": "https://avatars.slack-edge.com/2025-09-14/9512406024771_cdea12e5d81d16394303_original.png", "custom_css": null}, {"id": 23576, "slack_id": "U09FKKVGVCH", "display_name": "Farhan Hossain", "bio": null, "projects_count": 0, "devlogs_count": 0, "votes_count": 0, "ships_count": 0, "projects": [], "coding_time_seconds": 0, "coding_time_seconds_today": 0, "balance": "You need to have a pocket watcher badge to view this.", "badges": [], "created_at": "2025-09-14T19:22:39.696-04:00", "updated_at": "2025-09-14T20:05:34.555-04:00", "avatar": "https://secure.gravatar.com/avatar/96d6cd53b168dae7cc7da468d0873098.jpg?s=512&d=https%3A%2F%2Fa.slack-edge.com%2Fdf10d%2Fimg%2Favatars%2Fava_0026-512.png", "custom_css": null}, {"id": 23577, "slack_id": "U08SHQEAEL8", "display_name": "bobby", "bio": null, "projects_count": 0, "devlogs_count": 0, "votes_count": 0, "ships_count": 0, "projects": [], "coding_time_seconds": 283, "coding_time_seconds_today": 0, "balance": "You need to have a pocket watcher badge to view this.", "badges": [], "created_at": "2025-09-14T19:26:44.732-04:00", "updated_at": "2025-09-14T20:03:11.532-04:00", "avatar": "https://avatars.slack-edge.com/2025-05-14/8919997904160_d5a5df28e92654122294_original.jpg", "custom_css": null}], "pagination": {"page": 1173, "pages": 1192, "count": 23828, "items": 20}}