{"users": [{"id": 23578, "slack_id": "U09F2E9SY3V", "display_name": "Dheepak Barnela", "bio": null, "projects_count": 0, "devlogs_count": 0, "votes_count": 0, "ships_count": 0, "projects": [], "coding_time_seconds": 0, "coding_time_seconds_today": 0, "balance": "You need to have a pocket watcher badge to view this.", "badges": [], "created_at": "2025-09-14T20:07:44.680-04:00", "updated_at": "2025-09-15T02:05:26.882-04:00", "avatar": "https://avatars.slack-edge.com/2025-09-14/9516392923574_8b05020508480000f032_original.jpg", "custom_css": null}, {"id": 23579, "slack_id": "U09FZ69RSJC", "display_name": "Neil Rachapudi", "bio": null, "projects_count": 0, "devlogs_count": 0, "votes_count": 0, "ships_count": 0, "projects": [], "coding_time_seconds": 0, "coding_time_seconds_today": 0, "balance": "You need to have a pocket watcher badge to view this.", "badges": [], "created_at": "2025-09-14T21:58:14.549-04:00", "updated_at": "2025-09-15T02:05:27.015-04:00", "avatar": "https://secure.gravatar.com/avatar/f98c69dabeb725cae847d8b5113907d9.jpg?s=512&d=https%3A%2F%2Fa.slack-edge.com%2Fdf10d%2Fimg%2Favatars%2Fava_0015-512.png", "custom_css": null}, {"id": 23580, "slack_id": "U09F3PVH4F7", "display_name": "William", "bio": "", "projects_count": 3, "devlogs_count": 13, "votes_count": 51, "ships_count": 3, "projects": [{"id": 13498, "title": "Breakout Game", "devlogs_count": 4, "created_at": "2025-09-17T23:30:27.294-04:00"}, {"id": 13543, "title": "Learnify", "devlogs_count": 6, "created_at": "2025-09-19T01:39:00.486-04:00"}, {"id": 13379, "title": "Countdown Timer", "devlogs_count": 3, "created_at": "2025-09-15T00:47:05.705-04:00"}], "coding_time_seconds": 74989, "coding_time_seconds_today": 0, "balance": "You need to have a pocket watcher badge to view this.", "badges": [{"name": "Maiden Voyage", "text": "you shipped your first project! the journey begins...", "icon": "\ud83d\udea2"}], "created_at": "2025-09-14T22:18:14.798-04:00", "updated_at": "2025-09-20T14:03:45.906-04:00", "avatar": "https://secure.gravatar.com/avatar/cc6ac0ecc7bdb80d23ea8025bb2ef9f6.jpg?s=512&d=https%3A%2F%2Fa.slack-edge.com%2Fdf10d%2Fimg%2Favatars%2Fava_0019-512.png", "custom_css": null}, {"id": 23581, "slack_id": "U09F2P6A73M", "display_name": "Nguyen Gia Truong (K16_HL)", "bio": null, "projects_count": 0, "devlogs_count": 0, "votes_count": 0, "ships_count": 0, "projects": [], "coding_time_seconds": 0, "coding_time_seconds_today": 0, "balance": "You need to have a pocket watcher badge to view this.", "badges": [], "created_at": "2025-09-14T22:38:40.965-04:00", "updated_at": "2025-09-15T02:05:27.334-04:00", "avatar": "https://avatars.slack-edge.com/2025-09-14/9530120736513_862c210986c6289cb8fd_original.jpg", "custom_css": null}, {"id": 23582, "slack_id": "U09F2QHQS3V", "display_name": "Saadhya Vijayvargiya", "bio": null, "projects_count": 2, "devlogs_count": 7, "votes_count": 12, "ships_count": 1, "projects": [{"id": 13417, "title": "Branchless", "devlogs_count": 6, "created_at": "2025-09-15T21:17:51.151-04:00"}, {"id": 13381, "title": "Dash Quest", "devlogs_count": 1, "created_at": "2025-09-15T00:54:53.154-04:00"}], "coding_time_seconds": 277080, "coding_time_seconds_today": 11620, "balance": "You need to have a pocket watcher badge to view this.", "badges": [{"name": "Maiden Voyage", "text": "you shipped your first project! the journey begins...", "icon": "\ud83d\udea2"}], "created_at": "2025-09-14T22:50:51.963-04:00", "updated_at": "2025-09-15T22:03:09.453-04:00", "avatar": "https://secure.gravatar.com/avatar/4779aafc18376eff9fa2b176995e031b.jpg?s=512&d=https%3A%2F%2Fa.slack-edge.com%2Fdf10d%2Fimg%2Favatars%2Fava_0001-512.png", "custom_css": null}, {"id": 23583, "slack_id": "U09F2QT9RPV", "display_name": "Kevin Yang", "bio": null, "projects_count": 0, "devlogs_count": 0, "votes_count": 1, "ships_count": 0, "projects": [], "coding_time_seconds": 0, "coding_time_seconds_today": 0, "balance": "You need to have a pocket watcher badge to view this.", "badges": [], "created_at": "2025-09-14T22:55:45.435-04:00", "updated_at": "2025-09-15T02:05:27.750-04:00", "avatar": "https://avatars.slack-edge.com/2025-09-14/9516749629558_2b21279707318738f587_original.jpg", "custom_css": null}, {"id": 23584, "slack_id": "U09F6FERH7U", "display_name": "Abdalll", "bio": null, "projects_count": 0, "devlogs_count": 0, "votes_count": 0, "ships_count": 0, "projects": [], "coding_time_seconds": 0, "coding_time_seconds_today": 0, "balance": "You need to have a pocket watcher badge to view this.", "badges": [], "created_at": "2025-09-14T23:16:28.481-04:00", "updated_at": "2025-09-20T02:04:41.817-04:00", "avatar": "https://avatars.slack-edge.com/2025-09-20/9565665670209_4b42afb2c7a28312c541_original.jpg", "custom_css": null}, {"id": 23585, "slack_id": "U08T075A7PW", "display_name": "Treyson Brown", "bio": null, "projects_count": 0, "devlogs_count": 0, "votes_count": 0, "ships_count": 0, "projects": [], "coding_time_seconds": 0, "coding_time_seconds_today": 0, "balance": "You need to have a pocket watcher badge to view this.", "badges": [], "created_at": "2025-09-14T23:22:09.013-04:00", "updated_at": "2025-09-14T23:22:34.467-04:00", "avatar": "https://avatars.slack-edge.com/2025-05-18/8906250493715_120a765ac56403662a26_original.png", "custom_css": null}, {"id": 23586, "slack_id": "U09F2SFDVHR", "display_name": "Sahdala", "bio": null, "projects_count": 0, "devlogs_count": 0, "votes_count": 0, "ships_count": 0, "projects": [], "coding_time_seconds": 0, "coding_time_seconds_today": 0, "balance": "You need to have a pocket watcher badge to view this.", "badges": [], "created_at": "2025-09-14T23:22:16.151-04:00", "updated_at": "2025-09-15T02:05:28.343-04:00", "avatar": "https://avatars.slack-edge.com/2025-09-14/9543417114160_f88a703199dd09005a32_original.png", "custom_css": null}, {"id": 23587, "slack_id": "U09ESC2JS7R", "display_name": "Sam MG Harish", "bio": "Student with skills in Android reversing and working in both team-based and independent projects. Software Developer equipped with secure coding, debugging, and project management abilities. Performing project goals consistently with elegant and scalable code.", "projects_count": 2, "devlogs_count": 0, "votes_count": 1, "ships_count": 0, "projects": [{"id": 13383, "title": "pplSafer", "devlogs_count": 0, "created_at": "2025-09-15T02:04:01.866-04:00"}, {"id": 13384, "title": "BodhaNet", "devlogs_count": 0, "created_at": "2025-09-15T02:05:38.273-04:00"}], "coding_time_seconds": 13024, "coding_time_seconds_today": 0, "balance": "You need to have a pocket watcher badge to view this.", "badges": [], "created_at": "2025-09-15T01:11:00.718-04:00", "updated_at": "2025-09-15T02:05:28.547-04:00", "avatar": "https://secure.gravatar.com/avatar/13744d3bf242faf9a072238c6f43f775.jpg?s=512&d=https%3A%2F%2Fa.slack-edge.com%2Fdf10d%2Fimg%2Favatars%2Fava_0010-512.png", "custom_css": null}, {"id": 23588, "slack_id": "U09FBHBLS04", "display_name": "Subhadeep Das", "bio": "The one kid sitting in the back of the classroom and probably thinking something different", "projects_count": 0, "devlogs_count": 0, "votes_count": 0, "ships_count": 0, "projects": [], "coding_time_seconds": 0, "coding_time_seconds_today": 0, "balance": "You need to have a pocket watcher badge to view this.", "badges": [], "created_at": "2025-09-15T02:37:45.082-04:00", "updated_at": "2025-09-23T11:30:07.588-04:00", "avatar": "https://secure.gravatar.com/avatar/f8de64959d58ead12502754ca2c77bed.jpg?s=512&d=https%3A%2F%2Fa.slack-edge.com%2Fdf10d%2Fimg%2Favatars%2Fava_0008-512.png", "custom_css": null}, {"id": 23589, "slack_id": "U09FMAD4ZFT", "display_name": "Filippo Crespi", "bio": null, "projects_count": 0, "devlogs_count": 0, "votes_count": 0, "ships_count": 0, "projects": [], "coding_time_seconds": 0, "coding_time_seconds_today": 0, "balance": "You need to have a pocket watcher badge to view this.", "badges": [], "created_at": "2025-09-15T04:29:22.629-04:00", "updated_at": "2025-09-15T10:07:18.319-04:00", "avatar": "https://secure.gravatar.com/avatar/198122585b9872560021f687ea5c774d.jpg?s=512&d=https%3A%2F%2Fa.slack-edge.com%2Fdf10d%2Fimg%2Favatars%2Fava_0004-512.png", "custom_css": null}, {"id": 23590, "slack_id": "U09G0GG1AKA", "display_name": "Sevindu Damsara", "bio": null, "projects_count": 0, "devlogs_count": 0, "votes_count": 0, "ships_count": 0, "projects": [], "coding_time_seconds": 0, "coding_time_seconds_today": 0, "balance": "You need to have a pocket watcher badge to view this.", "badges": [], "created_at": "2025-09-15T04:45:41.325-04:00", "updated_at": "2025-09-15T08:06:12.682-04:00", "avatar": "https://secure.gravatar.com/avatar/1b24e50f71d31ccb038f483388bc8b65.jpg?s=512&d=https%3A%2F%2Fa.slack-edge.com%2Fdf10d%2Fimg%2Favatars%2Fava_0025-512.png", "custom_css": null}, {"id": 23591, "slack_id": "U09F7ND6E74", "display_name": "leasx189", "bio": null, "projects_count": 0, "devlogs_count": 0, "votes_count": 0, "ships_count": 0, "projects": [], "coding_time_seconds": 0, "coding_time_seconds_today": 0, "balance": "You need to have a pocket watcher badge to view this.", "badges": [], "created_at": "2025-09-15T05:03:19.089-04:00", "updated_at": "2025-09-15T15:24:19.421-04:00", "avatar": "https://avatars.slack-edge.com/2025-09-15/9504318883575_84e7662f3e977745b52b_original.jpg", "custom_css": null}, {"id": 23592, "slack_id": "U09ETFUFTEK", "display_name": "Furkan Sivis", "bio": null, "projects_count": 0, "devlogs_count": 0, "votes_count": 0, "ships_count": 0, "projects": [], "coding_time_seconds": 0, "coding_time_seconds_today": 0, "balance": "You need to have a pocket watcher badge to view this.", "badges": [], "created_at": "2025-09-15T05:40:37.118-04:00", "updated_at": "2025-09-15T08:06:13.188-04:00", "avatar": "https://secure.gravatar.com/avatar/1d87a1c5b37593e43f8cbb56382faf7c.jpg?s=512&d=https%3A%2F%2Fa.slack-edge.com%2Fdf10d%2Fimg%2Favatars%2Fava_0006-512.png", "custom_css": null}, {"id": 23593, "slack_id": "U09F8NVUKN2", "display_name": "Monkey D. Luffy", "bio": null, "projects_count": 0, "devlogs_count": 0, "votes_count": 0, "ships_count": 0, "projects": [], "coding_time_seconds": 266, "coding_time_seconds_today": 0, "balance": "You need to have a pocket watcher badge to view this.", "badges": [], "created_at": "2025-09-15T07:45:07.738-04:00", "updated_at": "2025-09-15T08:06:13.471-04:00", "avatar": "https://avatars.slack-edge.com/2025-09-15/9532362338817_ad5c995a06ab357f8d04_original.png", "custom_css": null}, {"id": 23594, "slack_id": "U09EUCN917Z", "display_name": "Shaurya Mishra", "bio": null, "projects_count": 0, "devlogs_count": 0, "votes_count": 0, "ships_count": 0, "projects": [], "coding_time_seconds": 0, "coding_time_seconds_today": 0, "balance": "You need to have a pocket watcher badge to view this.", "badges": [], "created_at": "2025-09-15T08:55:22.593-04:00", "updated_at": "2025-09-15T15:24:20.297-04:00", "avatar": "https://secure.gravatar.com/avatar/21015232ded2705f9fe14635381c6aea.jpg?s=512&d=https%3A%2F%2Fa.slack-edge.com%2Fdf10d%2Fimg%2Favatars%2Fava_0011-512.png", "custom_css": null}, {"id": 23595, "slack_id": "U09EUE4T9K9", "display_name": "matthew dover", "bio": null, "projects_count": 0, "devlogs_count": 0, "votes_count": 0, "ships_count": 0, "projects": [], "coding_time_seconds": 0, "coding_time_seconds_today": 0, "balance": "You need to have a pocket watcher badge to view this.", "badges": [], "created_at": "2025-09-15T09:18:03.664-04:00", "updated_at": "2025-09-15T15:24:20.466-04:00", "avatar": "https://secure.gravatar.com/avatar/786eee06d0eb5e5d0eb8a8610c8a47a5.jpg?s=512&d=https%3A%2F%2Fa.slack-edge.com%2Fdf10d%2Fimg%2Favatars%2Fava_0016-512.png", "custom_css": null}, {"id": 23596, "slack_id": "U09F5FV7875", "display_name": "Youssef", "bio": null, "projects_count": 0, "devlogs_count": 0, "votes_count": 0, "ships_count": 0, "projects": [], "coding_time_seconds": 0, "coding_time_seconds_today": 0, "balance": "You need to have a pocket watcher badge to view this.", "badges": [], "created_at": "2025-09-15T09:47:23.015-04:00", "updated_at": "2025-09-15T15:24:20.864-04:00", "avatar": "https://secure.gravatar.com/avatar/e8e10887bcaeaef5a6e60b9d84262928.jpg?s=512&d=https%3A%2F%2Fa.slack-edge.com%2Fdf10d%2Fimg%2Favatars%2Fava_0003-512.png", "custom_css": null}, {"id": 23597, "slack_id": "U07GVL74JHM", "display_name": "mstonjek", "bio": null, "projects_count": 0, "devlogs_count": 0, "votes_count": 0, "ships_count": 0, "projects": [], "coding_time_seconds": 0, "coding_time_seconds_today": 0, "balance": "You need to have a pocket watcher badge to view this.", "badges": [], "created_at": "2025-09-15T10:26:21.030-04:00", "updated_at": "2025-09-15T10:32:50.082-04:00", "avatar": "https://avatars.slack-edge.com/2024-08-16/7581611532470_8dbfce0af67adc5c03d4_original.png", "custom_css": null}], "pagination": {"page": 1174, "pages": 1192, "count": 23828, "items": 20}}