{"users": [{"id": 23598, "slack_id": "U09F654M9D1", "display_name": "Varchar", "bio": null, "projects_count": 0, "devlogs_count": 0, "votes_count": 0, "ships_count": 0, "projects": [], "coding_time_seconds": 0, "coding_time_seconds_today": 0, "balance": "You need to have a pocket watcher badge to view this.", "badges": [], "created_at": "2025-09-15T11:20:02.171-04:00", "updated_at": "2025-09-15T15:24:21.359-04:00", "avatar": "https://secure.gravatar.com/avatar/629e0ee1c64b5a638b002d317cdf702f.jpg?s=512&d=https%3A%2F%2Fa.slack-edge.com%2Fdf10d%2Fimg%2Favatars%2Fava_0005-512.png", "custom_css": null}, {"id": 23599, "slack_id": "U09F7PPUVEZ", "display_name": "LitSkull", "bio": null, "projects_count": 1, "devlogs_count": 0, "votes_count": 0, "ships_count": 0, "projects": [{"id": 13714, "title": "Voidrea", "devlogs_count": 0, "created_at": "2025-09-23T14:02:27.941-04:00"}], "coding_time_seconds": 9346, "coding_time_seconds_today": 127, "balance": "You need to have a pocket watcher badge to view this.", "badges": [], "created_at": "2025-09-15T12:09:35.176-04:00", "updated_at": "2025-09-22T11:30:40.108-04:00", "avatar": "https://secure.gravatar.com/avatar/ab95646a74cc2a218a8d51b8e02289fc.jpg?s=512&d=https%3A%2F%2Fa.slack-edge.com%2Fdf10d%2Fimg%2Favatars%2Fava_0005-512.png", "custom_css": null}, {"id": 23600, "slack_id": "U09G37DC7PS", "display_name": "Vinx", "bio": null, "projects_count": 0, "devlogs_count": 0, "votes_count": 0, "ships_count": 0, "projects": [], "coding_time_seconds": 0, "coding_time_seconds_today": 0, "balance": "You need to have a pocket watcher badge to view this.", "badges": [], "created_at": "2025-09-15T12:26:07.093-04:00", "updated_at": "2025-09-15T15:24:22.394-04:00", "avatar": "https://secure.gravatar.com/avatar/f3e8042575b600ff00c5d5ef63b6ac11.jpg?s=512&d=https%3A%2F%2Fa.slack-edge.com%2Fdf10d%2Fimg%2Favatars%2Fava_0008-512.png", "custom_css": null}, {"id": 23601, "slack_id": "U09FAL45SVC", "display_name": "UjjuG", "bio": null, "projects_count": 1, "devlogs_count": 1, "votes_count": 1, "ships_count": 1, "projects": [{"id": 13523, "title": "Message Encrypter", "devlogs_count": 1, "created_at": "2025-09-18T12:49:46.067-04:00"}], "coding_time_seconds": 17968, "coding_time_seconds_today": 240, "balance": "You need to have a pocket watcher badge to view this.", "badges": [{"name": "Maiden Voyage", "text": "you shipped your first project! the journey begins...", "icon": "\ud83d\udea2"}], "created_at": "2025-09-15T12:34:30.963-04:00", "updated_at": "2025-09-24T22:54:25.038-04:00", "avatar": "https://avatars.slack-edge.com/2025-09-17/9544698300705_51fad8cb99a6589f2ded_original.jpg", "custom_css": null}, {"id": 23602, "slack_id": "U08SS87AWHF", "display_name": "Nora Tamer Elsayed", "bio": null, "projects_count": 0, "devlogs_count": 0, "votes_count": 0, "ships_count": 0, "projects": [], "coding_time_seconds": 0, "coding_time_seconds_today": 0, "balance": "You need to have a pocket watcher badge to view this.", "badges": [], "created_at": "2025-09-15T12:44:26.519-04:00", "updated_at": "2025-09-15T15:24:28.038-04:00", "avatar": "https://secure.gravatar.com/avatar/13d9c42858ab6b7418f362861a0db7a1.jpg?s=512&d=https%3A%2F%2Fa.slack-edge.com%2Fdf10d%2Fimg%2Favatars%2Fava_0018-512.png", "custom_css": null}, {"id": 23603, "slack_id": "U09EW7G5S7M", "display_name": "Vinisha", "bio": null, "projects_count": 0, "devlogs_count": 0, "votes_count": 0, "ships_count": 0, "projects": [], "coding_time_seconds": 0, "coding_time_seconds_today": 0, "balance": "You need to have a pocket watcher badge to view this.", "badges": [], "created_at": "2025-09-15T12:57:56.979-04:00", "updated_at": "2025-09-15T15:24:28.824-04:00", "avatar": "https://secure.gravatar.com/avatar/fb8d774473e15453f5e35c4ee943599c.jpg?s=512&d=https%3A%2F%2Fa.slack-edge.com%2Fdf10d%2Fimg%2Favatars%2Fava_0023-512.png", "custom_css": null}, {"id": 23604, "slack_id": "U09AD49D3JB", "display_name": "Augustine Williams", "bio": null, "projects_count": 0, "devlogs_count": 0, "votes_count": 0, "ships_count": 0, "projects": [], "coding_time_seconds": 0, "coding_time_seconds_today": 0, "balance": "You need to have a pocket watcher badge to view this.", "badges": [], "created_at": "2025-09-15T13:11:57.424-04:00", "updated_at": "2025-09-15T15:24:29.472-04:00", "avatar": "https://avatars.slack-edge.com/2025-09-15/9520946088406_cfff4c7061d2d7a98c53_original.jpg", "custom_css": null}, {"id": 23605, "slack_id": "U09G3KV10JU", "display_name": "Samar", "bio": null, "projects_count": 0, "devlogs_count": 0, "votes_count": 0, "ships_count": 0, "projects": [], "coding_time_seconds": 0, "coding_time_seconds_today": 0, "balance": "You need to have a pocket watcher badge to view this.", "badges": [], "created_at": "2025-09-15T13:24:01.235-04:00", "updated_at": "2025-09-15T15:24:33.684-04:00", "avatar": "https://secure.gravatar.com/avatar/ee091de1958ffc279693e0caaaaa1db3.jpg?s=512&d=https%3A%2F%2Fa.slack-edge.com%2Fdf10d%2Fimg%2Favatars%2Fava_0026-512.png", "custom_css": null}, {"id": 23606, "slack_id": "U091NNJ1Z9B", "display_name": "maryam", "bio": null, "projects_count": 0, "devlogs_count": 0, "votes_count": 0, "ships_count": 0, "projects": [], "coding_time_seconds": 30989, "coding_time_seconds_today": 0, "balance": "You need to have a pocket watcher badge to view this.", "badges": [], "created_at": "2025-09-15T16:18:55.664-04:00", "updated_at": "2025-09-15T20:05:33.319-04:00", "avatar": "https://avatars.slack-edge.com/2025-09-12/9524992809153_9a9ed577e9840d926779_original.png", "custom_css": null}, {"id": 23607, "slack_id": "U09EXA6ME6B", "display_name": "Hudson Yang", "bio": null, "projects_count": 0, "devlogs_count": 0, "votes_count": 0, "ships_count": 0, "projects": [], "coding_time_seconds": 0, "coding_time_seconds_today": 0, "balance": "You need to have a pocket watcher badge to view this.", "badges": [], "created_at": "2025-09-15T16:23:18.076-04:00", "updated_at": "2025-09-15T20:05:33.441-04:00", "avatar": "https://secure.gravatar.com/avatar/71000304175384e6d128a4b86b4c4e87.jpg?s=512&d=https%3A%2F%2Fa.slack-edge.com%2Fdf10d%2Fimg%2Favatars%2Fava_0025-512.png", "custom_css": null}, {"id": 23608, "slack_id": "U09EXPTG4LF", "display_name": "Analeigh", "bio": null, "projects_count": 0, "devlogs_count": 0, "votes_count": 0, "ships_count": 0, "projects": [], "coding_time_seconds": 0, "coding_time_seconds_today": 0, "balance": "You need to have a pocket watcher badge to view this.", "badges": [], "created_at": "2025-09-15T18:01:24.025-04:00", "updated_at": "2025-09-15T20:05:37.606-04:00", "avatar": "https://secure.gravatar.com/avatar/36f464b7dc6f9ff9abe12d319154f78c.jpg?s=512&d=https%3A%2F%2Fa.slack-edge.com%2Fdf10d%2Fimg%2Favatars%2Fava_0001-512.png", "custom_css": null}, {"id": 23609, "slack_id": "U08232513UG", "display_name": "Zander Lewis", "bio": "", "projects_count": 3, "devlogs_count": 10, "votes_count": 85, "ships_count": 3, "projects": [{"id": 13456, "title": "Lectern", "devlogs_count": 4, "created_at": "2025-09-16T23:47:27.762-04:00"}, {"id": 13477, "title": "Wasteland", "devlogs_count": 2, "created_at": "2025-09-17T11:39:16.708-04:00"}, {"id": 13490, "title": "Hyperlight", "devlogs_count": 4, "created_at": "2025-09-17T15:53:11.487-04:00"}], "coding_time_seconds": 439208, "coding_time_seconds_today": 0, "balance": "You need to have a pocket watcher badge to view this.", "badges": [{"name": "Maiden Voyage", "text": "you shipped your first project! the journey begins...", "icon": "\ud83d\udea2"}], "created_at": "2025-09-15T18:17:58.975-04:00", "updated_at": "2025-09-17T14:05:38.887-04:00", "avatar": "https://avatars.slack-edge.com/2025-09-17/9531274664883_d1b5fce8ef75d574cca7_original.png", "custom_css": null}, {"id": 23610, "slack_id": "U09FH4L0UMS", "display_name": "Adel Al Jumaily", "bio": null, "projects_count": 0, "devlogs_count": 0, "votes_count": 0, "ships_count": 0, "projects": [], "coding_time_seconds": 0, "coding_time_seconds_today": 0, "balance": "You need to have a pocket watcher badge to view this.", "badges": [], "created_at": "2025-09-15T18:56:44.579-04:00", "updated_at": "2025-09-15T20:05:37.842-04:00", "avatar": "https://avatars.slack-edge.com/2025-09-15/9520096960965_29c8ecfc3a38cbc39547_original.jpg", "custom_css": null}, {"id": 23611, "slack_id": "U09EXTKRW95", "display_name": "fishtesting", "bio": null, "projects_count": 0, "devlogs_count": 0, "votes_count": 0, "ships_count": 0, "projects": [], "coding_time_seconds": 0, "coding_time_seconds_today": 0, "balance": "You need to have a pocket watcher badge to view this.", "badges": [], "created_at": "2025-09-15T19:03:26.371-04:00", "updated_at": "2025-09-15T20:05:37.945-04:00", "avatar": "https://secure.gravatar.com/avatar/ac6d9721108b2bb0ebc4f8177aa23b0a.jpg?s=512&d=https%3A%2F%2Fa.slack-edge.com%2Fdf10d%2Fimg%2Favatars%2Fava_0003-512.png", "custom_css": null}, {"id": 23612, "slack_id": "U09FCFT86R0", "display_name": "PaulVu113", "bio": null, "projects_count": 0, "devlogs_count": 0, "votes_count": 0, "ships_count": 0, "projects": [], "coding_time_seconds": 0, "coding_time_seconds_today": 0, "balance": "You need to have a pocket watcher badge to view this.", "badges": [], "created_at": "2025-09-15T19:20:55.878-04:00", "updated_at": "2025-09-15T20:05:38.070-04:00", "avatar": "https://secure.gravatar.com/avatar/68035ed3ea8b2e9b938d1befb0851419.jpg?s=512&d=https%3A%2F%2Fa.slack-edge.com%2Fdf10d%2Fimg%2Favatars%2Fava_0021-512.png", "custom_css": null}, {"id": 23613, "slack_id": "U09F8L8NQ83", "display_name": "june", "bio": null, "projects_count": 0, "devlogs_count": 0, "votes_count": 0, "ships_count": 0, "projects": [], "coding_time_seconds": 2348, "coding_time_seconds_today": 0, "balance": "You need to have a pocket watcher badge to view this.", "badges": [], "created_at": "2025-09-15T19:37:14.570-04:00", "updated_at": "2025-09-15T20:05:38.179-04:00", "avatar": "https://secure.gravatar.com/avatar/45fca886fb66f2b76b0e3876c9b4f48a.jpg?s=512&d=https%3A%2F%2Fa.slack-edge.com%2Fdf10d%2Fimg%2Favatars%2Fava_0021-512.png", "custom_css": null}, {"id": 23614, "slack_id": "U09EY8DDBRD", "display_name": "Shoykot Khan", "bio": null, "projects_count": 0, "devlogs_count": 0, "votes_count": 0, "ships_count": 0, "projects": [], "coding_time_seconds": 0, "coding_time_seconds_today": 0, "balance": "You need to have a pocket watcher badge to view this.", "badges": [], "created_at": "2025-09-15T20:21:07.993-04:00", "updated_at": "2025-09-16T02:04:01.538-04:00", "avatar": "https://avatars.slack-edge.com/2025-09-15/9527470160884_dbf41bec670114ab9312_original.png", "custom_css": null}, {"id": 23615, "slack_id": "U09FADA9LR3", "display_name": "Ava Zarkesh", "bio": null, "projects_count": 0, "devlogs_count": 0, "votes_count": 0, "ships_count": 0, "projects": [], "coding_time_seconds": 0, "coding_time_seconds_today": 0, "balance": "You need to have a pocket watcher badge to view this.", "badges": [], "created_at": "2025-09-15T20:38:06.817-04:00", "updated_at": "2025-09-16T02:04:01.665-04:00", "avatar": "https://avatars.slack-edge.com/2025-09-15/9523056092422_6475e1eb0962c608e6d7_original.png", "custom_css": null}, {"id": 23616, "slack_id": "U09FG0JFX1S", "display_name": "Nabil Almofti", "bio": null, "projects_count": 0, "devlogs_count": 0, "votes_count": 0, "ships_count": 0, "projects": [], "coding_time_seconds": 0, "coding_time_seconds_today": 0, "balance": "You need to have a pocket watcher badge to view this.", "badges": [], "created_at": "2025-09-15T21:06:11.899-04:00", "updated_at": "2025-09-16T02:04:01.789-04:00", "avatar": "https://secure.gravatar.com/avatar/b017e20317cc1b63f9183cc43d1803a0.jpg?s=512&d=https%3A%2F%2Fa.slack-edge.com%2Fdf10d%2Fimg%2Favatars%2Fava_0007-512.png", "custom_css": null}, {"id": 23617, "slack_id": "U07MM9UT77Z", "display_name": "Jaylene W", "bio": null, "projects_count": 0, "devlogs_count": 0, "votes_count": 0, "ships_count": 0, "projects": [], "coding_time_seconds": 2049, "coding_time_seconds_today": 0, "balance": "You need to have a pocket watcher badge to view this.", "badges": [], "created_at": "2025-09-15T21:21:28.495-04:00", "updated_at": "2025-09-16T02:04:01.924-04:00", "avatar": "https://secure.gravatar.com/avatar/063ed7cf83b554fe63cb6d989d931016.jpg?s=512&d=https%3A%2F%2Fa.slack-edge.com%2Fdf10d%2Fimg%2Favatars%2Fava_0008-512.png", "custom_css": null}], "pagination": {"page": 1175, "pages": 1192, "count": 23828, "items": 20}}