{"users": [{"id": 23638, "slack_id": "U09F22LMRDM", "display_name": "alief", "bio": null, "projects_count": 1, "devlogs_count": 4, "votes_count": 0, "ships_count": 0, "projects": [{"id": 13455, "title": "top up website", "devlogs_count": 4, "created_at": "2025-09-16T23:23:36.811-04:00"}], "coding_time_seconds": 84574, "coding_time_seconds_today": 8801, "balance": "You need to have a pocket watcher badge to view this.", "badges": [], "created_at": "2025-09-16T10:12:56.415-04:00", "updated_at": "2025-09-17T05:20:06.538-04:00", "avatar": "https://avatars.slack-edge.com/2025-09-17/9558043687936_e721c4325102d51d0d88_original.jpg", "custom_css": null}, {"id": 23639, "slack_id": "U09FGU81A4E", "display_name": "Piper Mack", "bio": "", "projects_count": 0, "devlogs_count": 0, "votes_count": 0, "ships_count": 0, "projects": [], "coding_time_seconds": 0, "coding_time_seconds_today": 0, "balance": "You need to have a pocket watcher badge to view this.", "badges": [], "created_at": "2025-09-16T10:45:17.515-04:00", "updated_at": "2025-09-16T21:10:08.926-04:00", "avatar": "https://avatars.slack-edge.com/2025-09-16/9527736038322_feb53aa270f0cd2cd9b7_original.png", "custom_css": null}, {"id": 23640, "slack_id": "U09FGU14A5C", "display_name": "Patricia", "bio": "", "projects_count": 0, "devlogs_count": 0, "votes_count": 0, "ships_count": 0, "projects": [], "coding_time_seconds": 26199, "coding_time_seconds_today": 0, "balance": "You need to have a pocket watcher badge to view this.", "badges": [], "created_at": "2025-09-16T11:04:34.850-04:00", "updated_at": "2025-09-22T16:13:28.885-04:00", "avatar": "https://avatars.slack-edge.com/2025-09-17/9535262214770_8352e98757573264842f_original.png", "custom_css": null}, {"id": 23641, "slack_id": "U09FH2C44P4", "display_name": "Kai Baker", "bio": null, "projects_count": 0, "devlogs_count": 0, "votes_count": 0, "ships_count": 0, "projects": [], "coding_time_seconds": 0, "coding_time_seconds_today": 0, "balance": "You need to have a pocket watcher badge to view this.", "badges": [], "created_at": "2025-09-16T11:14:40.389-04:00", "updated_at": "2025-09-16T18:34:10.752-04:00", "avatar": "https://secure.gravatar.com/avatar/12ab380c9e26b047ae09d535b134ba57.jpg?s=512&d=https%3A%2F%2Fa.slack-edge.com%2Fdf10d%2Fimg%2Favatars%2Fava_0008-512.png", "custom_css": null}, {"id": 23642, "slack_id": "UBMLT410C", "display_name": "Vighnesh", "bio": null, "projects_count": 0, "devlogs_count": 0, "votes_count": 0, "ships_count": 0, "projects": [], "coding_time_seconds": 0, "coding_time_seconds_today": 0, "balance": "You need to have a pocket watcher badge to view this.", "badges": [], "created_at": "2025-09-16T12:15:36.517-04:00", "updated_at": "2025-09-16T12:15:55.877-04:00", "avatar": "https://avatars.slack-edge.com/2021-05-14/2071966397524_e82027759e1ebe929b52_original.jpg", "custom_css": null}, {"id": 23643, "slack_id": "U09G23RBFLG", "display_name": "tebibu", "bio": null, "projects_count": 0, "devlogs_count": 0, "votes_count": 0, "ships_count": 0, "projects": [], "coding_time_seconds": 0, "coding_time_seconds_today": 0, "balance": "You need to have a pocket watcher badge to view this.", "badges": [], "created_at": "2025-09-16T12:31:02.571-04:00", "updated_at": "2025-09-16T18:34:10.937-04:00", "avatar": "https://secure.gravatar.com/avatar/b8d37a2b4dfdadb925c19cfcd7e0cc14.jpg?s=512&d=https%3A%2F%2Fa.slack-edge.com%2Fdf10d%2Fimg%2Favatars%2Fava_0005-512.png", "custom_css": null}, {"id": 23644, "slack_id": "U09GAUH6WAU", "display_name": "Emil", "bio": null, "projects_count": 0, "devlogs_count": 0, "votes_count": 0, "ships_count": 0, "projects": [], "coding_time_seconds": 0, "coding_time_seconds_today": 0, "balance": "You need to have a pocket watcher badge to view this.", "badges": [], "created_at": "2025-09-16T12:37:40.225-04:00", "updated_at": "2025-09-16T18:34:11.091-04:00", "avatar": "https://secure.gravatar.com/avatar/d10f488b601237b4c4558962df926048.jpg?s=512&d=https%3A%2F%2Fa.slack-edge.com%2Fdf10d%2Fimg%2Favatars%2Fava_0008-512.png", "custom_css": null}, {"id": 23645, "slack_id": "U08234V66JZ", "display_name": "Bakkar", "bio": null, "projects_count": 0, "devlogs_count": 0, "votes_count": 0, "ships_count": 0, "projects": [], "coding_time_seconds": 0, "coding_time_seconds_today": 0, "balance": "You need to have a pocket watcher badge to view this.", "badges": [], "created_at": "2025-09-16T14:57:59.388-04:00", "updated_at": "2025-09-16T18:34:11.199-04:00", "avatar": "https://secure.gravatar.com/avatar/03a43bfc45cc1683954f613480a985d6.jpg?s=512&d=https%3A%2F%2Fa.slack-edge.com%2Fdf10d%2Fimg%2Favatars%2Fava_0018-512.png", "custom_css": null}, {"id": 23646, "slack_id": "U09FBSQG0F2", "display_name": "Sahar Eshiba", "bio": null, "projects_count": 0, "devlogs_count": 0, "votes_count": 0, "ships_count": 0, "projects": [], "coding_time_seconds": 0, "coding_time_seconds_today": 0, "balance": "You need to have a pocket watcher badge to view this.", "badges": [], "created_at": "2025-09-16T15:30:29.708-04:00", "updated_at": "2025-09-16T18:34:11.323-04:00", "avatar": "https://secure.gravatar.com/avatar/00574d3fb56ab901c613e88a7644c666.jpg?s=512&d=https%3A%2F%2Fa.slack-edge.com%2Fdf10d%2Fimg%2Favatars%2Fava_0003-512.png", "custom_css": null}, {"id": 23647, "slack_id": "U09FERBV74K", "display_name": "Valytia", "bio": null, "projects_count": 1, "devlogs_count": 1, "votes_count": 0, "ships_count": 0, "projects": [{"id": 13447, "title": "Tildoro", "devlogs_count": 1, "created_at": "2025-09-16T16:41:07.208-04:00"}], "coding_time_seconds": 13412, "coding_time_seconds_today": 0, "balance": "You need to have a pocket watcher badge to view this.", "badges": [], "created_at": "2025-09-16T15:53:21.370-04:00", "updated_at": "2025-09-17T08:29:58.074-04:00", "avatar": "https://secure.gravatar.com/avatar/43f278e50fb7d04ebc8ad033658eec02.jpg?s=512&d=https%3A%2F%2Fa.slack-edge.com%2Fdf10d%2Fimg%2Favatars%2Fava_0014-512.png", "custom_css": null}, {"id": 23648, "slack_id": "U09EX5WUDHR", "display_name": "Lizeth Orozco", "bio": null, "projects_count": 0, "devlogs_count": 0, "votes_count": 0, "ships_count": 0, "projects": [], "coding_time_seconds": 0, "coding_time_seconds_today": 0, "balance": "You need to have a pocket watcher badge to view this.", "badges": [], "created_at": "2025-09-16T16:32:08.917-04:00", "updated_at": "2025-09-16T16:34:14.789-04:00", "avatar": "https://secure.gravatar.com/avatar/96945e6640975d7c8f8c906d1a1a8363.jpg?s=512&d=https%3A%2F%2Fa.slack-edge.com%2Fdf10d%2Fimg%2Favatars%2Fava_0002-512.png", "custom_css": null}, {"id": 23649, "slack_id": "U09FKD3HW2E", "display_name": "Luna Jim\u00e9nez", "bio": null, "projects_count": 0, "devlogs_count": 0, "votes_count": 0, "ships_count": 0, "projects": [], "coding_time_seconds": 0, "coding_time_seconds_today": 0, "balance": "You need to have a pocket watcher badge to view this.", "badges": [], "created_at": "2025-09-16T17:27:34.240-04:00", "updated_at": "2025-09-16T18:34:11.722-04:00", "avatar": "https://avatars.slack-edge.com/2025-09-16/9543595960449_e324698e246ce8019fb6_original.jpg", "custom_css": null}, {"id": 23650, "slack_id": "U09FZV089H7", "display_name": "Menna", "bio": null, "projects_count": 0, "devlogs_count": 0, "votes_count": 0, "ships_count": 0, "projects": [], "coding_time_seconds": 0, "coding_time_seconds_today": 0, "balance": "You need to have a pocket watcher badge to view this.", "badges": [], "created_at": "2025-09-16T19:16:44.184-04:00", "updated_at": "2025-09-17T20:05:58.033-04:00", "avatar": "https://avatars.slack-edge.com/2025-09-17/9536133655074_6c76874ae7a1c3a88da5_original.jpg", "custom_css": null}, {"id": 23651, "slack_id": "U09GD9MK2U8", "display_name": "Ashmeet Singh", "bio": null, "projects_count": 0, "devlogs_count": 0, "votes_count": 0, "ships_count": 0, "projects": [], "coding_time_seconds": 0, "coding_time_seconds_today": 0, "balance": "You need to have a pocket watcher badge to view this.", "badges": [], "created_at": "2025-09-16T19:54:51.446-04:00", "updated_at": "2025-09-16T20:28:19.492-04:00", "avatar": "https://secure.gravatar.com/avatar/68f6836ecdea1de6afe54eed5303e3f1.jpg?s=512&d=https%3A%2F%2Fa.slack-edge.com%2Fdf10d%2Fimg%2Favatars%2Fava_0015-512.png", "custom_css": null}, {"id": 23652, "slack_id": "U09FHP326J1", "display_name": "Noah Walsh", "bio": null, "projects_count": 0, "devlogs_count": 0, "votes_count": 0, "ships_count": 0, "projects": [], "coding_time_seconds": 0, "coding_time_seconds_today": 0, "balance": "You need to have a pocket watcher badge to view this.", "badges": [], "created_at": "2025-09-16T20:07:32.647-04:00", "updated_at": "2025-09-16T20:28:19.635-04:00", "avatar": "https://secure.gravatar.com/avatar/61ba136808b2abf3da7f47943e37ef87.jpg?s=512&d=https%3A%2F%2Fa.slack-edge.com%2Fdf10d%2Fimg%2Favatars%2Fava_0012-512.png", "custom_css": null}, {"id": 23653, "slack_id": "U08JKHGBH8B", "display_name": "JIngtong Guo", "bio": null, "projects_count": 0, "devlogs_count": 0, "votes_count": 0, "ships_count": 0, "projects": [], "coding_time_seconds": 0, "coding_time_seconds_today": 0, "balance": "You need to have a pocket watcher badge to view this.", "badges": [], "created_at": "2025-09-16T20:15:29.668-04:00", "updated_at": "2025-09-16T20:15:44.165-04:00", "avatar": "https://secure.gravatar.com/avatar/4984d336481caa08d6598bfc387520fa.jpg?s=512&d=https%3A%2F%2Fa.slack-edge.com%2Fdf10d%2Fimg%2Favatars%2Fava_0026-512.png", "custom_css": null}, {"id": 23654, "slack_id": "U07915JL7P0", "display_name": "Water Malone", "bio": null, "projects_count": 0, "devlogs_count": 0, "votes_count": 0, "ships_count": 0, "projects": [], "coding_time_seconds": 0, "coding_time_seconds_today": 0, "balance": "You need to have a pocket watcher badge to view this.", "badges": [], "created_at": "2025-09-16T23:15:34.701-04:00", "updated_at": "2025-09-16T23:17:17.498-04:00", "avatar": "https://avatars.slack-edge.com/2024-07-17/7427406927718_5f030caa765ad84b8200_original.jpg", "custom_css": null}, {"id": 23655, "slack_id": "U02B9MV5B27", "display_name": "Mughees MB", "bio": null, "projects_count": 0, "devlogs_count": 0, "votes_count": 0, "ships_count": 0, "projects": [], "coding_time_seconds": 0, "coding_time_seconds_today": 0, "balance": "You need to have a pocket watcher badge to view this.", "badges": [], "created_at": "2025-09-17T00:41:40.252-04:00", "updated_at": "2025-09-17T02:03:44.167-04:00", "avatar": "https://avatars.slack-edge.com/2021-08-16/2377118645126_01e0120636807e83336b_original.jpg", "custom_css": null}, {"id": 23656, "slack_id": "U09G1452LHX", "display_name": "Sumaya Zaman", "bio": null, "projects_count": 0, "devlogs_count": 0, "votes_count": 0, "ships_count": 0, "projects": [], "coding_time_seconds": 0, "coding_time_seconds_today": 0, "balance": "You need to have a pocket watcher badge to view this.", "badges": [], "created_at": "2025-09-17T01:17:19.048-04:00", "updated_at": "2025-09-17T02:03:44.280-04:00", "avatar": "https://secure.gravatar.com/avatar/c73de5ddd06d12a521c51e844581c820.jpg?s=512&d=https%3A%2F%2Fa.slack-edge.com%2Fdf10d%2Fimg%2Favatars%2Fava_0022-512.png", "custom_css": null}, {"id": 23657, "slack_id": "U0918T03W8P", "display_name": "Daisy", "bio": null, "projects_count": 0, "devlogs_count": 0, "votes_count": 0, "ships_count": 0, "projects": [], "coding_time_seconds": 0, "coding_time_seconds_today": 0, "balance": "You need to have a pocket watcher badge to view this.", "badges": [], "created_at": "2025-09-17T03:58:23.158-04:00", "updated_at": "2025-09-17T08:06:07.044-04:00", "avatar": "https://secure.gravatar.com/avatar/867271ad8438510acc14a36b9e08a703.jpg?s=512&d=https%3A%2F%2Fa.slack-edge.com%2Fdf10d%2Fimg%2Favatars%2Fava_0022-512.png", "custom_css": null}], "pagination": {"page": 1177, "pages": 1192, "count": 23828, "items": 20}}