{"users": [{"id": 23658, "slack_id": "U09GFCTFV24", "display_name": "ANISH KUMAR", "bio": null, "projects_count": 0, "devlogs_count": 0, "votes_count": 0, "ships_count": 0, "projects": [], "coding_time_seconds": 0, "coding_time_seconds_today": 0, "balance": "You need to have a pocket watcher badge to view this.", "badges": [], "created_at": "2025-09-17T04:36:01.449-04:00", "updated_at": "2025-09-17T08:06:07.149-04:00", "avatar": "https://secure.gravatar.com/avatar/3a7561d8ec304563e6912a6dadbe78bf.jpg?s=512&d=https%3A%2F%2Fa.slack-edge.com%2Fdf10d%2Fimg%2Favatars%2Fava_0017-512.png", "custom_css": null}, {"id": 23659, "slack_id": "U08TLDDHXTN", "display_name": "isthisaperson", "bio": null, "projects_count": 0, "devlogs_count": 0, "votes_count": 0, "ships_count": 0, "projects": [], "coding_time_seconds": 0, "coding_time_seconds_today": 0, "balance": "You need to have a pocket watcher badge to view this.", "badges": [], "created_at": "2025-09-17T05:27:01.708-04:00", "updated_at": "2025-09-17T06:19:07.991-04:00", "avatar": "https://avatars.slack-edge.com/2025-05-21/8948001107729_195a1685bf4ea9de3878_original.jpg", "custom_css": null}, {"id": 23660, "slack_id": "U09GFTW3W9E", "display_name": "Ayman", "bio": null, "projects_count": 0, "devlogs_count": 0, "votes_count": 0, "ships_count": 0, "projects": [], "coding_time_seconds": 0, "coding_time_seconds_today": 0, "balance": "You need to have a pocket watcher badge to view this.", "badges": [], "created_at": "2025-09-17T06:06:50.925-04:00", "updated_at": "2025-09-17T08:06:07.365-04:00", "avatar": "https://secure.gravatar.com/avatar/c7b80273adc11fed0f010a2e6432fabe.jpg?s=512&d=https%3A%2F%2Fa.slack-edge.com%2Fdf10d%2Fimg%2Favatars%2Fava_0020-512.png", "custom_css": null}, {"id": 23661, "slack_id": "U09FP8UJXRC", "display_name": "Yasin", "bio": null, "projects_count": 0, "devlogs_count": 0, "votes_count": 0, "ships_count": 0, "projects": [], "coding_time_seconds": 0, "coding_time_seconds_today": 0, "balance": "You need to have a pocket watcher badge to view this.", "badges": [], "created_at": "2025-09-17T08:10:08.031-04:00", "updated_at": "2025-09-17T14:05:56.110-04:00", "avatar": "https://secure.gravatar.com/avatar/42af49e6535d523695a111838271a680.jpg?s=512&d=https%3A%2F%2Fa.slack-edge.com%2Fdf10d%2Fimg%2Favatars%2Fava_0020-512.png", "custom_css": null}, {"id": 23662, "slack_id": "U09G3A3UK9P", "display_name": "Thigal T", "bio": null, "projects_count": 0, "devlogs_count": 0, "votes_count": 0, "ships_count": 0, "projects": [], "coding_time_seconds": 0, "coding_time_seconds_today": 0, "balance": "You need to have a pocket watcher badge to view this.", "badges": [], "created_at": "2025-09-17T08:40:18.124-04:00", "updated_at": "2025-09-17T14:05:56.240-04:00", "avatar": "https://avatars.slack-edge.com/2025-09-17/9529304484611_f15c4ea6af12c526e6b5_original.png", "custom_css": null}, {"id": 23663, "slack_id": "U09G3ADJU3B", "display_name": "Legend1999", "bio": null, "projects_count": 1, "devlogs_count": 0, "votes_count": 0, "ships_count": 0, "projects": [{"id": 13479, "title": "cyTask", "devlogs_count": 0, "created_at": "2025-09-17T12:03:57.848-04:00"}], "coding_time_seconds": 93889, "coding_time_seconds_today": 20019, "balance": "You need to have a pocket watcher badge to view this.", "badges": [], "created_at": "2025-09-17T08:43:23.170-04:00", "updated_at": "2025-09-17T14:05:56.368-04:00", "avatar": "https://secure.gravatar.com/avatar/319b03bbfe6a73e2dc2a5dc5ceff5152.jpg?s=512&d=https%3A%2F%2Fa.slack-edge.com%2Fdf10d%2Fimg%2Favatars%2Fava_0024-512.png", "custom_css": null}, {"id": 23664, "slack_id": "U0825TMAF4K", "display_name": "Akshansh", "bio": null, "projects_count": 0, "devlogs_count": 0, "votes_count": 0, "ships_count": 0, "projects": [], "coding_time_seconds": 0, "coding_time_seconds_today": 0, "balance": "You need to have a pocket watcher badge to view this.", "badges": [], "created_at": "2025-09-17T08:50:30.255-04:00", "updated_at": "2025-09-17T08:50:41.295-04:00", "avatar": "https://secure.gravatar.com/avatar/f794df4ee86402be39541c617bf223dc.jpg?s=512&d=https%3A%2F%2Fa.slack-edge.com%2Fdf10d%2Fimg%2Favatars%2Fava_0024-512.png", "custom_css": null}, {"id": 23665, "slack_id": "U09FKEMUC4T", "display_name": "Zainab Caratela", "bio": null, "projects_count": 0, "devlogs_count": 0, "votes_count": 0, "ships_count": 0, "projects": [], "coding_time_seconds": 0, "coding_time_seconds_today": 0, "balance": "You need to have a pocket watcher badge to view this.", "badges": [], "created_at": "2025-09-17T09:11:30.152-04:00", "updated_at": "2025-09-17T14:05:56.565-04:00", "avatar": "https://secure.gravatar.com/avatar/40af1a2b96fdd2390de5b5a719a3355f.jpg?s=512&d=https%3A%2F%2Fa.slack-edge.com%2Fdf10d%2Fimg%2Favatars%2Fava_0020-512.png", "custom_css": null}, {"id": 23666, "slack_id": "U09FHMLJFFY", "display_name": "kaviiiyy", "bio": null, "projects_count": 0, "devlogs_count": 0, "votes_count": 0, "ships_count": 0, "projects": [], "coding_time_seconds": 0, "coding_time_seconds_today": 0, "balance": "You need to have a pocket watcher badge to view this.", "badges": [], "created_at": "2025-09-17T09:49:04.388-04:00", "updated_at": "2025-09-17T14:06:00.753-04:00", "avatar": "https://secure.gravatar.com/avatar/12086c0d5c5ddaae84065db0be4b353e.jpg?s=512&d=https%3A%2F%2Fa.slack-edge.com%2Fdf10d%2Fimg%2Favatars%2Fava_0008-512.png", "custom_css": null}, {"id": 23667, "slack_id": "U09FUTR216G", "display_name": "Aditya Mittal", "bio": null, "projects_count": 1, "devlogs_count": 0, "votes_count": 0, "ships_count": 0, "projects": [{"id": 13580, "title": "To do list", "devlogs_count": 0, "created_at": "2025-09-20T02:32:28.593-04:00"}], "coding_time_seconds": 996, "coding_time_seconds_today": 0, "balance": "You need to have a pocket watcher badge to view this.", "badges": [], "created_at": "2025-09-17T10:32:34.274-04:00", "updated_at": "2025-09-18T12:31:50.850-04:00", "avatar": "https://avatars.slack-edge.com/2025-09-17/9561507225600_6e358f6ddd458e8a4940_original.png", "custom_css": null}, {"id": 23668, "slack_id": "U09FV5C1H7E", "display_name": "Mr.Robot", "bio": null, "projects_count": 0, "devlogs_count": 0, "votes_count": 0, "ships_count": 0, "projects": [], "coding_time_seconds": 0, "coding_time_seconds_today": 0, "balance": "You need to have a pocket watcher badge to view this.", "badges": [], "created_at": "2025-09-17T11:04:27.711-04:00", "updated_at": "2025-09-17T14:06:01.002-04:00", "avatar": "https://secure.gravatar.com/avatar/b1cf0e829304982ccb4734ebb7880d89.jpg?s=512&d=https%3A%2F%2Fa.slack-edge.com%2Fdf10d%2Fimg%2Favatars%2Fava_0006-512.png", "custom_css": null}, {"id": 23669, "slack_id": "U0823L8GY02", "display_name": "Matthew Yakligian", "bio": null, "projects_count": 0, "devlogs_count": 0, "votes_count": 0, "ships_count": 0, "projects": [], "coding_time_seconds": 0, "coding_time_seconds_today": 0, "balance": "You need to have a pocket watcher badge to view this.", "badges": [], "created_at": "2025-09-17T12:56:27.825-04:00", "updated_at": "2025-09-17T12:57:58.963-04:00", "avatar": "https://secure.gravatar.com/avatar/f7c5c6de6dc8fcc8aa92f5758140c8be.jpg?s=512&d=https%3A%2F%2Fa.slack-edge.com%2Fdf10d%2Fimg%2Favatars%2Fava_0011-512.png", "custom_css": null}, {"id": 23670, "slack_id": "U09G59XFWJD", "display_name": "jayjay", "bio": null, "projects_count": 0, "devlogs_count": 0, "votes_count": 0, "ships_count": 0, "projects": [], "coding_time_seconds": 0, "coding_time_seconds_today": 0, "balance": "You need to have a pocket watcher badge to view this.", "badges": [], "created_at": "2025-09-17T13:12:22.741-04:00", "updated_at": "2025-09-17T14:06:01.191-04:00", "avatar": "https://secure.gravatar.com/avatar/430e912fa102283c20f164a9e2436f75.jpg?s=512&d=https%3A%2F%2Fa.slack-edge.com%2Fdf10d%2Fimg%2Favatars%2Fava_0004-512.png", "custom_css": null}, {"id": 23671, "slack_id": "U09FATK21K9", "display_name": "Jeet Rachwani", "bio": null, "projects_count": 0, "devlogs_count": 0, "votes_count": 0, "ships_count": 0, "projects": [], "coding_time_seconds": 0, "coding_time_seconds_today": 0, "balance": "You need to have a pocket watcher badge to view this.", "badges": [], "created_at": "2025-09-17T13:20:11.152-04:00", "updated_at": "2025-09-17T14:06:01.339-04:00", "avatar": "https://secure.gravatar.com/avatar/1ff9a54d445d4fd4c244a54ff1f265f4.jpg?s=512&d=https%3A%2F%2Fa.slack-edge.com%2Fdf10d%2Fimg%2Favatars%2Fava_0022-512.png", "custom_css": null}, {"id": 23672, "slack_id": "U09FM8SKHEF", "display_name": "umesh", "bio": null, "projects_count": 0, "devlogs_count": 0, "votes_count": 0, "ships_count": 0, "projects": [], "coding_time_seconds": 0, "coding_time_seconds_today": 0, "balance": "You need to have a pocket watcher badge to view this.", "badges": [], "created_at": "2025-09-17T13:22:18.763-04:00", "updated_at": "2025-09-17T14:06:01.450-04:00", "avatar": "https://secure.gravatar.com/avatar/3f4a0911f60520a1431e31d76ac4f2b9.jpg?s=512&d=https%3A%2F%2Fa.slack-edge.com%2Fdf10d%2Fimg%2Favatars%2Fava_0020-512.png", "custom_css": null}, {"id": 23673, "slack_id": "U08S629SZ9C", "display_name": "Vinisha", "bio": null, "projects_count": 0, "devlogs_count": 0, "votes_count": 0, "ships_count": 0, "projects": [], "coding_time_seconds": 33974, "coding_time_seconds_today": 0, "balance": "You need to have a pocket watcher badge to view this.", "badges": [], "created_at": "2025-09-17T13:23:41.990-04:00", "updated_at": "2025-09-17T17:36:47.282-04:00", "avatar": "https://secure.gravatar.com/avatar/050dd8947085275a5bb401c4884889ea.jpg?s=512&d=https%3A%2F%2Fa.slack-edge.com%2Fdf10d%2Fimg%2Favatars%2Fava_0020-512.png", "custom_css": null}, {"id": 23674, "slack_id": "U09FRGE081Y", "display_name": "Chaitanya Raj", "bio": null, "projects_count": 0, "devlogs_count": 0, "votes_count": 0, "ships_count": 0, "projects": [], "coding_time_seconds": 0, "coding_time_seconds_today": 0, "balance": "You need to have a pocket watcher badge to view this.", "badges": [], "created_at": "2025-09-17T13:34:01.374-04:00", "updated_at": "2025-09-17T14:46:55.490-04:00", "avatar": "https://secure.gravatar.com/avatar/382c5732e8c2197ce7143be286e92618.jpg?s=512&d=https%3A%2F%2Fa.slack-edge.com%2Fdf10d%2Fimg%2Favatars%2Fava_0020-512.png", "custom_css": null}, {"id": 23675, "slack_id": "U09ERQ48DR9", "display_name": "Eslam Osama", "bio": null, "projects_count": 0, "devlogs_count": 0, "votes_count": 0, "ships_count": 0, "projects": [], "coding_time_seconds": 0, "coding_time_seconds_today": 0, "balance": "You need to have a pocket watcher badge to view this.", "badges": [], "created_at": "2025-09-17T13:50:26.514-04:00", "updated_at": "2025-09-17T20:06:08.249-04:00", "avatar": "https://avatars.slack-edge.com/2025-09-17/9531502163491_570c0c62f21d279484e9_original.png", "custom_css": null}, {"id": 23676, "slack_id": "U09GK3UFXCG", "display_name": "Newbie", "bio": null, "projects_count": 0, "devlogs_count": 0, "votes_count": 0, "ships_count": 0, "projects": [], "coding_time_seconds": 855, "coding_time_seconds_today": 0, "balance": "You need to have a pocket watcher badge to view this.", "badges": [], "created_at": "2025-09-17T14:25:19.120-04:00", "updated_at": "2025-09-17T20:06:08.348-04:00", "avatar": "https://secure.gravatar.com/avatar/2b1aa3e5b065819c240d40715f9a152d.jpg?s=512&d=https%3A%2F%2Fa.slack-edge.com%2Fdf10d%2Fimg%2Favatars%2Fava_0020-512.png", "custom_css": null}, {"id": 23677, "slack_id": "U09FPJC8E77", "display_name": "William", "bio": "", "projects_count": 0, "devlogs_count": 0, "votes_count": 0, "ships_count": 0, "projects": [], "coding_time_seconds": 0, "coding_time_seconds_today": 0, "balance": "You need to have a pocket watcher badge to view this.", "badges": [], "created_at": "2025-09-17T14:38:40.362-04:00", "updated_at": "2025-09-17T20:06:08.466-04:00", "avatar": "https://secure.gravatar.com/avatar/eed472febb3ab8bcd641a6353b311000.jpg?s=512&d=https%3A%2F%2Fa.slack-edge.com%2Fdf10d%2Fimg%2Favatars%2Fava_0018-512.png", "custom_css": null}], "pagination": {"page": 1178, "pages": 1192, "count": 23828, "items": 20}}