{"users": [{"id": 23678, "slack_id": "U09FS327T1C", "display_name": "felipe oliveira", "bio": null, "projects_count": 0, "devlogs_count": 0, "votes_count": 0, "ships_count": 0, "projects": [], "coding_time_seconds": 0, "coding_time_seconds_today": 0, "balance": "You need to have a pocket watcher badge to view this.", "badges": [], "created_at": "2025-09-17T14:50:10.696-04:00", "updated_at": "2025-09-17T20:06:08.574-04:00", "avatar": "https://avatars.slack-edge.com/2025-09-17/9536114925734_9dd5fe0f7124b49b70d9_original.png", "custom_css": null}, {"id": 23679, "slack_id": "U09FLTYE9FF", "display_name": "Sujal Negi", "bio": null, "projects_count": 1, "devlogs_count": 1, "votes_count": 0, "ships_count": 0, "projects": [{"id": 13702, "title": "Portfolio Template", "devlogs_count": 1, "created_at": "2025-09-23T08:40:10.222-04:00"}], "coding_time_seconds": 9480, "coding_time_seconds_today": 0, "balance": "You need to have a pocket watcher badge to view this.", "badges": [], "created_at": "2025-09-17T14:54:27.159-04:00", "updated_at": "2025-09-23T11:30:03.080-04:00", "avatar": "https://avatars.slack-edge.com/2025-09-23/9563959091237_d98f42e7a992db00feb8_original.jpg", "custom_css": null}, {"id": 23680, "slack_id": "U0898LQEPGF", "display_name": "Emiliano Valdez", "bio": null, "projects_count": 0, "devlogs_count": 0, "votes_count": 0, "ships_count": 0, "projects": [], "coding_time_seconds": 56064, "coding_time_seconds_today": 0, "balance": "You need to have a pocket watcher badge to view this.", "badges": [], "created_at": "2025-09-17T15:56:11.241-04:00", "updated_at": "2025-09-17T15:59:13.841-04:00", "avatar": "https://secure.gravatar.com/avatar/d54745da592bcb83fb6f70d542d9a0c3.jpg?s=512&d=https%3A%2F%2Fa.slack-edge.com%2Fdf10d%2Fimg%2Favatars%2Fava_0005-512.png", "custom_css": null}, {"id": 23681, "slack_id": "U09FX76F2H2", "display_name": "Max Preston", "bio": "", "projects_count": 0, "devlogs_count": 0, "votes_count": 0, "ships_count": 0, "projects": [], "coding_time_seconds": 0, "coding_time_seconds_today": 0, "balance": "You need to have a pocket watcher badge to view this.", "badges": [], "created_at": "2025-09-17T16:15:53.086-04:00", "updated_at": "2025-09-17T20:06:08.838-04:00", "avatar": "https://secure.gravatar.com/avatar/f459546b8af832002cd57f1c6b658335.jpg?s=512&d=https%3A%2F%2Fa.slack-edge.com%2Fdf10d%2Fimg%2Favatars%2Fava_0012-512.png", "custom_css": null}, {"id": 23682, "slack_id": "U09GHFJGBEC", "display_name": "Maria Clara", "bio": null, "projects_count": 0, "devlogs_count": 0, "votes_count": 0, "ships_count": 0, "projects": [], "coding_time_seconds": 0, "coding_time_seconds_today": 0, "balance": "You need to have a pocket watcher badge to view this.", "badges": [], "created_at": "2025-09-17T17:13:12.709-04:00", "updated_at": "2025-09-17T20:06:08.939-04:00", "avatar": "https://avatars.slack-edge.com/2025-09-17/9534559550853_eac2cd8f581b31e26956_original.jpg", "custom_css": null}, {"id": 23683, "slack_id": "U09G4EVHV16", "display_name": "Abdulaziz", "bio": null, "projects_count": 0, "devlogs_count": 0, "votes_count": 0, "ships_count": 0, "projects": [], "coding_time_seconds": 0, "coding_time_seconds_today": 0, "balance": "You need to have a pocket watcher badge to view this.", "badges": [], "created_at": "2025-09-17T18:25:43.960-04:00", "updated_at": "2025-09-17T18:26:28.186-04:00", "avatar": "https://avatars.slack-edge.com/2025-09-15/9526228453668_8ebd2c0a1ca8ac47b590_original.png", "custom_css": null}, {"id": 23684, "slack_id": "U09FT582W3U", "display_name": "Janat", "bio": null, "projects_count": 0, "devlogs_count": 0, "votes_count": 0, "ships_count": 0, "projects": [], "coding_time_seconds": 0, "coding_time_seconds_today": 0, "balance": "You need to have a pocket watcher badge to view this.", "badges": [], "created_at": "2025-09-17T18:37:03.354-04:00", "updated_at": "2025-09-17T20:06:09.109-04:00", "avatar": "https://avatars.slack-edge.com/2025-09-17/9534919435541_77b4a5becbcdcdb4981b_original.jpg", "custom_css": null}, {"id": 23685, "slack_id": "U09FP0JEF5H", "display_name": "Vadim", "bio": null, "projects_count": 0, "devlogs_count": 0, "votes_count": 0, "ships_count": 0, "projects": [], "coding_time_seconds": 0, "coding_time_seconds_today": 0, "balance": "You need to have a pocket watcher badge to view this.", "badges": [], "created_at": "2025-09-17T18:53:06.539-04:00", "updated_at": "2025-09-17T20:06:09.210-04:00", "avatar": "https://secure.gravatar.com/avatar/9d514202fe1340add067207033b6d26c.jpg?s=512&d=https%3A%2F%2Fa.slack-edge.com%2Fdf10d%2Fimg%2Favatars%2Fava_0003-512.png", "custom_css": null}, {"id": 23686, "slack_id": "U09FTBAFSQ6", "display_name": "Winston", "bio": null, "projects_count": 0, "devlogs_count": 0, "votes_count": 0, "ships_count": 0, "projects": [], "coding_time_seconds": 0, "coding_time_seconds_today": 0, "balance": "You need to have a pocket watcher badge to view this.", "badges": [], "created_at": "2025-09-17T18:55:06.373-04:00", "updated_at": "2025-09-17T20:06:09.316-04:00", "avatar": "https://secure.gravatar.com/avatar/13fee5a11c7caaf6fe0593bdcf224de0.jpg?s=512&d=https%3A%2F%2Fa.slack-edge.com%2Fdf10d%2Fimg%2Favatars%2Fava_0008-512.png", "custom_css": null}, {"id": 23687, "slack_id": "U09FRABMLMT", "display_name": "Gustavo Castillo", "bio": null, "projects_count": 0, "devlogs_count": 0, "votes_count": 0, "ships_count": 0, "projects": [], "coding_time_seconds": 0, "coding_time_seconds_today": 0, "balance": "You need to have a pocket watcher badge to view this.", "badges": [], "created_at": "2025-09-17T20:40:33.731-04:00", "updated_at": "2025-09-18T02:05:54.426-04:00", "avatar": "https://secure.gravatar.com/avatar/1cd4e92180dcb6b596cc4b4af917b190.jpg?s=512&d=https%3A%2F%2Fa.slack-edge.com%2Fdf10d%2Fimg%2Favatars%2Fava_0017-512.png", "custom_css": null}, {"id": 23688, "slack_id": "U09FTJHSETU", "display_name": "Belal Mostafa", "bio": null, "projects_count": 0, "devlogs_count": 0, "votes_count": 0, "ships_count": 0, "projects": [], "coding_time_seconds": 0, "coding_time_seconds_today": 0, "balance": "You need to have a pocket watcher badge to view this.", "badges": [], "created_at": "2025-09-17T20:55:44.852-04:00", "updated_at": "2025-09-18T02:05:54.530-04:00", "avatar": "https://secure.gravatar.com/avatar/b4f3fe4ec0a36b90ea57fe4c3a9e7972.jpg?s=512&d=https%3A%2F%2Fa.slack-edge.com%2Fdf10d%2Fimg%2Favatars%2Fava_0008-512.png", "custom_css": null}, {"id": 23689, "slack_id": "U090ZMY4YP9", "display_name": "Lucas Skyy", "bio": null, "projects_count": 0, "devlogs_count": 0, "votes_count": 0, "ships_count": 0, "projects": [], "coding_time_seconds": 29, "coding_time_seconds_today": 0, "balance": "You need to have a pocket watcher badge to view this.", "badges": [], "created_at": "2025-09-17T21:14:26.672-04:00", "updated_at": "2025-09-19T12:00:02.392-04:00", "avatar": "https://avatars.slack-edge.com/2025-06-13/9033777362359_ad3ceb0f725c02fd3f08_original.jpg", "custom_css": null}, {"id": 23690, "slack_id": "U09F8N1LWH2", "display_name": "ayo", "bio": null, "projects_count": 0, "devlogs_count": 0, "votes_count": 0, "ships_count": 0, "projects": [], "coding_time_seconds": 0, "coding_time_seconds_today": 0, "balance": "You need to have a pocket watcher badge to view this.", "badges": [], "created_at": "2025-09-17T21:38:07.928-04:00", "updated_at": "2025-09-18T02:05:54.755-04:00", "avatar": "https://avatars.slack-edge.com/2025-09-14/9541117983728_301f8233b7ff45603ed0_original.jpg", "custom_css": null}, {"id": 23691, "slack_id": "U09GM4H208G", "display_name": "Oliver Minin", "bio": null, "projects_count": 0, "devlogs_count": 0, "votes_count": 0, "ships_count": 0, "projects": [], "coding_time_seconds": 0, "coding_time_seconds_today": 0, "balance": "You need to have a pocket watcher badge to view this.", "badges": [], "created_at": "2025-09-17T21:39:59.645-04:00", "updated_at": "2025-09-18T02:05:54.866-04:00", "avatar": "https://secure.gravatar.com/avatar/73dd356265057dad9101d9da1825b325.jpg?s=512&d=https%3A%2F%2Fa.slack-edge.com%2Fdf10d%2Fimg%2Favatars%2Fava_0005-512.png", "custom_css": null}, {"id": 23692, "slack_id": "U09FTJPQ6EN", "display_name": "Gideon", "bio": null, "projects_count": 0, "devlogs_count": 0, "votes_count": 0, "ships_count": 0, "projects": [], "coding_time_seconds": 0, "coding_time_seconds_today": 0, "balance": "You need to have a pocket watcher badge to view this.", "badges": [], "created_at": "2025-09-17T21:49:08.574-04:00", "updated_at": "2025-09-18T02:05:54.991-04:00", "avatar": "https://secure.gravatar.com/avatar/36b21d6684574704954633e02e028b39.jpg?s=512&d=https%3A%2F%2Fa.slack-edge.com%2Fdf10d%2Fimg%2Favatars%2Fava_0024-512.png", "custom_css": null}, {"id": 23693, "slack_id": "U09GMF8M6DN", "display_name": "Morgan", "bio": null, "projects_count": 0, "devlogs_count": 0, "votes_count": 0, "ships_count": 0, "projects": [], "coding_time_seconds": 0, "coding_time_seconds_today": 0, "balance": "You need to have a pocket watcher badge to view this.", "badges": [], "created_at": "2025-09-17T23:27:04.445-04:00", "updated_at": "2025-09-18T02:05:55.114-04:00", "avatar": "https://secure.gravatar.com/avatar/0c4ef45c068ef478099140ff4297cb46.jpg?s=512&d=https%3A%2F%2Fa.slack-edge.com%2Fdf10d%2Fimg%2Favatars%2Fava_0023-512.png", "custom_css": null}, {"id": 23694, "slack_id": "U09FU5QHSGJ", "display_name": "horus27", "bio": null, "projects_count": 0, "devlogs_count": 0, "votes_count": 0, "ships_count": 0, "projects": [], "coding_time_seconds": 0, "coding_time_seconds_today": 0, "balance": "You need to have a pocket watcher badge to view this.", "badges": [], "created_at": "2025-09-17T23:54:25.992-04:00", "updated_at": "2025-09-18T02:05:55.227-04:00", "avatar": "https://secure.gravatar.com/avatar/0b47bfa1a432bb4296d075b028df284a.jpg?s=512&d=https%3A%2F%2Fa.slack-edge.com%2Fdf10d%2Fimg%2Favatars%2Fava_0005-512.png", "custom_css": null}, {"id": 23695, "slack_id": "U09G89V1Y3T", "display_name": "slink", "bio": null, "projects_count": 1, "devlogs_count": 0, "votes_count": 4, "ships_count": 0, "projects": [{"id": 13636, "title": "Zurgbot - a simple Discord download bot", "devlogs_count": 0, "created_at": "2025-09-21T15:32:56.076-04:00"}], "coding_time_seconds": 11745, "coding_time_seconds_today": 0, "balance": "You need to have a pocket watcher badge to view this.", "badges": [], "created_at": "2025-09-18T00:01:12.306-04:00", "updated_at": "2025-09-23T14:59:18.077-04:00", "avatar": "https://avatars.slack-edge.com/2025-09-21/9554989464821_7369a604efae515c37b6_original.jpg", "custom_css": null}, {"id": 23696, "slack_id": "U09FS3V3J0M", "display_name": "Kevin", "bio": null, "projects_count": 0, "devlogs_count": 0, "votes_count": 0, "ships_count": 0, "projects": [], "coding_time_seconds": 0, "coding_time_seconds_today": 0, "balance": "You need to have a pocket watcher badge to view this.", "badges": [], "created_at": "2025-09-18T00:27:09.718-04:00", "updated_at": "2025-09-23T01:30:18.052-04:00", "avatar": "https://secure.gravatar.com/avatar/79d26a82f75ccfcfd163a5b8c0f2465e.jpg?s=512&d=https%3A%2F%2Fa.slack-edge.com%2Fdf10d%2Fimg%2Favatars%2Fava_0006-512.png", "custom_css": null}, {"id": 23697, "slack_id": "U09FUH5T2SJ", "display_name": "Arush_jain", "bio": null, "projects_count": 0, "devlogs_count": 0, "votes_count": 0, "ships_count": 0, "projects": [], "coding_time_seconds": 0, "coding_time_seconds_today": 0, "balance": "You need to have a pocket watcher badge to view this.", "badges": [], "created_at": "2025-09-18T00:41:51.217-04:00", "updated_at": "2025-09-18T02:05:55.546-04:00", "avatar": "https://secure.gravatar.com/avatar/bf0058de085d7cb8cc69f6bd24a5aac7.jpg?s=512&d=https%3A%2F%2Fa.slack-edge.com%2Fdf10d%2Fimg%2Favatars%2Fava_0013-512.png", "custom_css": null}], "pagination": {"page": 1179, "pages": 1192, "count": 23828, "items": 20}}