{"users": [{"id": 2341, "slack_id": "U08UPD4U9B6", "display_name": "julian espino", "bio": null, "projects_count": 0, "devlogs_count": 0, "votes_count": 0, "ships_count": 0, "projects": [], "coding_time_seconds": 0, "coding_time_seconds_today": 0, "balance": "You need to have a pocket watcher badge to view this.", "badges": [], "created_at": "2025-06-16T15:25:08.288-04:00", "updated_at": "2025-07-03T19:21:49.876-04:00", "avatar": "https://avatars.slack-edge.com/2025-05-30/8977510729186_19bfb6142a9a56b0dd9a_original.jpg", "custom_css": null}, {"id": 2342, "slack_id": "U091Q8DEBJQ", "display_name": "hi, i Open you team", "bio": null, "projects_count": 0, "devlogs_count": 0, "votes_count": 0, "ships_count": 0, "projects": [], "coding_time_seconds": 0, "coding_time_seconds_today": 0, "balance": "You need to have a pocket watcher badge to view this.", "badges": [], "created_at": "2025-06-16T15:25:08.884-04:00", "updated_at": "2025-07-03T19:21:50.157-04:00", "avatar": "https://secure.gravatar.com/avatar/77568258d46cfdc8103bd4472a5ef974.jpg?s=512&d=https%3A%2F%2Fa.slack-edge.com%2Fdf10d%2Fimg%2Favatars%2Fava_0016-512.png", "custom_css": null}, {"id": 2343, "slack_id": "U07V87SQ9NK", "display_name": "Sofia G.", "bio": null, "projects_count": 0, "devlogs_count": 0, "votes_count": 1, "ships_count": 0, "projects": [], "coding_time_seconds": 263852, "coding_time_seconds_today": 0, "balance": "You need to have a pocket watcher badge to view this.", "badges": [], "created_at": "2025-06-16T15:25:25.296-04:00", "updated_at": "2025-08-18T20:08:31.073-04:00", "avatar": "https://avatars.slack-edge.com/2025-08-18/9373261732982_9ad0adb0a1bfca8d1ccb_original.png", "custom_css": null}, {"id": 2344, "slack_id": "U0918U8MZM5", "display_name": "vlad tsepesh", "bio": null, "projects_count": 0, "devlogs_count": 0, "votes_count": 0, "ships_count": 0, "projects": [], "coding_time_seconds": 0, "coding_time_seconds_today": 0, "balance": "You need to have a pocket watcher badge to view this.", "badges": [], "created_at": "2025-06-16T15:25:33.963-04:00", "updated_at": "2025-07-03T19:21:50.700-04:00", "avatar": "https://secure.gravatar.com/avatar/dadfa4f094d4d4b5f1e5de5b060c166f.jpg?s=512&d=https%3A%2F%2Fa.slack-edge.com%2Fdf10d%2Fimg%2Favatars%2Fava_0008-512.png", "custom_css": null}, {"id": 2345, "slack_id": "U0922Q6NYKT", "display_name": "Rev", "bio": null, "projects_count": 0, "devlogs_count": 0, "votes_count": 0, "ships_count": 0, "projects": [], "coding_time_seconds": 0, "coding_time_seconds_today": 0, "balance": "You need to have a pocket watcher badge to view this.", "badges": [], "created_at": "2025-06-16T15:25:57.909-04:00", "updated_at": "2025-07-03T19:21:50.974-04:00", "avatar": "https://secure.gravatar.com/avatar/90e623fddf85715381eed53d591324fc.jpg?s=512&d=https%3A%2F%2Fa.slack-edge.com%2Fdf10d%2Fimg%2Favatars%2Fava_0022-512.png", "custom_css": null}, {"id": 2346, "slack_id": "U0918SFCU95", "display_name": "Lucas Jin", "bio": null, "projects_count": 0, "devlogs_count": 0, "votes_count": 0, "ships_count": 0, "projects": [], "coding_time_seconds": 553, "coding_time_seconds_today": 0, "balance": "You need to have a pocket watcher badge to view this.", "badges": [], "created_at": "2025-06-16T15:26:11.500-04:00", "updated_at": "2025-07-03T19:21:51.239-04:00", "avatar": "https://secure.gravatar.com/avatar/c747abcb4423eec4e00e6425e8210ff2.jpg?s=512&d=https%3A%2F%2Fa.slack-edge.com%2Fdf10d%2Fimg%2Favatars%2Fava_0018-512.png", "custom_css": null}, {"id": 2347, "slack_id": "U0918TJK04F", "display_name": "Kiran Das", "bio": null, "projects_count": 0, "devlogs_count": 0, "votes_count": 0, "ships_count": 0, "projects": [], "coding_time_seconds": 120, "coding_time_seconds_today": 0, "balance": "You need to have a pocket watcher badge to view this.", "badges": [], "created_at": "2025-06-16T15:26:32.600-04:00", "updated_at": "2025-07-03T19:21:51.516-04:00", "avatar": "https://secure.gravatar.com/avatar/811cb956a4de14011ae894ef76361d6e.jpg?s=512&d=https%3A%2F%2Fa.slack-edge.com%2Fdf10d%2Fimg%2Favatars%2Fava_0014-512.png", "custom_css": null}, {"id": 2348, "slack_id": "U091Q85HYGJ", "display_name": "Josiah", "bio": null, "projects_count": 0, "devlogs_count": 0, "votes_count": 0, "ships_count": 0, "projects": [], "coding_time_seconds": 0, "coding_time_seconds_today": 0, "balance": "You need to have a pocket watcher badge to view this.", "badges": [], "created_at": "2025-06-16T15:26:45.116-04:00", "updated_at": "2025-07-03T19:21:51.814-04:00", "avatar": "https://secure.gravatar.com/avatar/83f426d9add33f4885c5aee8ee916012.jpg?s=512&d=https%3A%2F%2Fa.slack-edge.com%2Fdf10d%2Fimg%2Favatars%2Fava_0011-512.png", "custom_css": null}, {"id": 2349, "slack_id": "U091HD0USEA", "display_name": "Nils-B\u00f6rge Margotti", "bio": null, "projects_count": 0, "devlogs_count": 0, "votes_count": 0, "ships_count": 0, "projects": [], "coding_time_seconds": 5256, "coding_time_seconds_today": 0, "balance": "You need to have a pocket watcher badge to view this.", "badges": [], "created_at": "2025-06-16T15:26:54.148-04:00", "updated_at": "2025-07-03T19:21:52.088-04:00", "avatar": "https://secure.gravatar.com/avatar/289e5476061fb740fa5a84a326b05243.jpg?s=512&d=https%3A%2F%2Fa.slack-edge.com%2Fdf10d%2Fimg%2Favatars%2Fava_0006-512.png", "custom_css": null}, {"id": 2350, "slack_id": "U091HBJLQS2", "display_name": "SuperNinjaCat5", "bio": "", "projects_count": 6, "devlogs_count": 18, "votes_count": 109, "ships_count": 6, "projects": [{"id": 4631, "title": "Ear Trainer", "devlogs_count": 8, "created_at": "2025-06-30T23:26:59.649-04:00"}, {"id": 7915, "title": "Awsome Quacker Backend", "devlogs_count": 1, "created_at": "2025-07-23T15:14:47.036-04:00"}, {"id": 332, "title": "Tic Tac Tkinter", "devlogs_count": 3, "created_at": "2025-06-16T18:18:05.456-04:00"}, {"id": 10330, "title": "Time Fix", "devlogs_count": 1, "created_at": "2025-08-06T00:11:10.804-04:00"}, {"id": 8145, "title": "SuperNinjaCat5.us", "devlogs_count": 2, "created_at": "2025-07-24T23:02:26.315-04:00"}, {"id": 1117, "title": "Terminal Tamagotchi", "devlogs_count": 3, "created_at": "2025-06-17T16:50:08.958-04:00"}], "coding_time_seconds": 297958, "coding_time_seconds_today": 0, "balance": "You need to have a pocket watcher badge to view this.", "badges": [{"name": "Maiden Voyage", "text": "you shipped your first project! the journey begins...", "icon": "\ud83d\udea2"}, {"name": "Ballot Stuffer", "text": "vote 100 times.", "icon": "https://summer.hackclub.com/assets/i_voted-bf851b48.png"}], "created_at": "2025-06-16T15:27:18.194-04:00", "updated_at": "2025-09-20T00:08:23.049-04:00", "avatar": "https://avatars.slack-edge.com/2025-09-19/9565750267537_66f8001905f8ea48765a_original.png", "custom_css": null}, {"id": 2351, "slack_id": "U091Q87EDLJ", "display_name": "Maxime All", "bio": null, "projects_count": 0, "devlogs_count": 0, "votes_count": 0, "ships_count": 0, "projects": [], "coding_time_seconds": 319010, "coding_time_seconds_today": 0, "balance": "You need to have a pocket watcher badge to view this.", "badges": [], "created_at": "2025-06-16T15:27:21.189-04:00", "updated_at": "2025-07-03T19:21:52.620-04:00", "avatar": "https://avatars.slack-edge.com/2025-06-16/9051464035446_10c80c53096956b5c02f_original.jpg", "custom_css": null}, {"id": 2352, "slack_id": "U080S9AKW1L", "display_name": "Oscar May", "bio": null, "projects_count": 11, "devlogs_count": 37, "votes_count": 20, "ships_count": 2, "projects": [{"id": 2491, "title": "AIChat", "devlogs_count": 1, "created_at": "2025-06-21T06:09:17.156-04:00"}, {"id": 2528, "title": "KeyStone", "devlogs_count": 3, "created_at": "2025-06-21T08:00:50.831-04:00"}, {"id": 2664, "title": "Spark", "devlogs_count": 1, "created_at": "2025-06-21T15:45:01.942-04:00"}, {"id": 2856, "title": "thetabar", "devlogs_count": 0, "created_at": "2025-06-22T08:37:56.191-04:00"}, {"id": 3873, "title": "KappaTV", "devlogs_count": 4, "created_at": "2025-06-26T04:37:33.150-04:00"}, {"id": 4342, "title": "Notebook", "devlogs_count": 1, "created_at": "2025-06-29T07:38:17.270-04:00"}, {"id": 12105, "title": "Clatter", "devlogs_count": 1, "created_at": "2025-08-23T05:20:20.258-04:00"}, {"id": 13526, "title": "minimost", "devlogs_count": 1, "created_at": "2025-09-18T15:16:27.669-04:00"}, {"id": 3301, "title": "PartyMode", "devlogs_count": 3, "created_at": "2025-06-23T18:09:53.278-04:00"}, {"id": 5101, "title": "Bit200", "devlogs_count": 2, "created_at": "2025-07-03T08:37:18.558-04:00"}, {"id": 3630, "title": "OpenSpace", "devlogs_count": 20, "created_at": "2025-06-25T03:38:19.271-04:00"}], "coding_time_seconds": 1039587, "coding_time_seconds_today": 782, "balance": "You need to have a pocket watcher badge to view this.", "badges": [{"name": "Maiden Voyage", "text": "you shipped your first project! the journey begins...", "icon": "\ud83d\udea2"}], "created_at": "2025-06-16T15:27:43.691-04:00", "updated_at": "2025-09-10T22:52:20.122-04:00", "avatar": "https://avatars.slack-edge.com/2024-11-14/8055812627344_2552bce81d6f233e53ef_original.png", "custom_css": null}, {"id": 2353, "slack_id": "U091HD1HS8N", "display_name": "Slash", "bio": null, "projects_count": 0, "devlogs_count": 0, "votes_count": 0, "ships_count": 0, "projects": [], "coding_time_seconds": 0, "coding_time_seconds_today": 0, "balance": "You need to have a pocket watcher badge to view this.", "badges": [], "created_at": "2025-06-16T15:27:48.948-04:00", "updated_at": "2025-07-03T19:21:53.155-04:00", "avatar": "https://secure.gravatar.com/avatar/36b5112a01de1aa91849fc6e67186088.jpg?s=512&d=https%3A%2F%2Fa.slack-edge.com%2Fdf10d%2Fimg%2Favatars%2Fava_0007-512.png", "custom_css": null}, {"id": 2354, "slack_id": "U08L7671TDG", "display_name": "Venco", "bio": null, "projects_count": 4, "devlogs_count": 21, "votes_count": 32, "ships_count": 2, "projects": [{"id": 8596, "title": "Blahaj Chaos", "devlogs_count": 1, "created_at": "2025-07-28T12:40:15.956-04:00"}, {"id": 13347, "title": "Flipper Control", "devlogs_count": 5, "created_at": "2025-09-14T11:05:56.809-04:00"}, {"id": 225, "title": "Venco's Corner of the Internet", "devlogs_count": 10, "created_at": "2025-06-16T15:51:54.392-04:00"}, {"id": 4112, "title": "Hackclub Universal Turing Complete Language", "devlogs_count": 5, "created_at": "2025-06-27T14:30:40.154-04:00"}], "coding_time_seconds": 354895, "coding_time_seconds_today": 120, "balance": "You need to have a pocket watcher badge to view this.", "badges": [{"name": "Maiden Voyage", "text": "you shipped your first project! the journey begins...", "icon": "\ud83d\udea2"}, {"name": "Yapper I", "text": "Posted 10 comments on devlogs.", "icon": "\ud83d\udcac"}], "created_at": "2025-06-16T15:27:55.957-04:00", "updated_at": "2025-09-10T22:52:20.177-04:00", "avatar": "https://avatars.slack-edge.com/2025-08-08/9312619171047_9e888f0229c71ea2b547_original.png", "custom_css": null}, {"id": 2355, "slack_id": "U092CMV9MCG", "display_name": "Aditya Chaudhary", "bio": null, "projects_count": 0, "devlogs_count": 0, "votes_count": 0, "ships_count": 0, "projects": [], "coding_time_seconds": 0, "coding_time_seconds_today": 0, "balance": "You need to have a pocket watcher badge to view this.", "badges": [], "created_at": "2025-06-16T15:27:57.623-04:00", "updated_at": "2025-07-03T19:21:53.732-04:00", "avatar": "https://secure.gravatar.com/avatar/f064f7d041cf5dea4dfd14516db2014c.jpg?s=512&d=https%3A%2F%2Fa.slack-edge.com%2Fdf10d%2Fimg%2Favatars%2Fava_0022-512.png", "custom_css": null}, {"id": 2356, "slack_id": "U091QKG0RKN", "display_name": "Nishant Kumar", "bio": null, "projects_count": 0, "devlogs_count": 0, "votes_count": 0, "ships_count": 0, "projects": [], "coding_time_seconds": 0, "coding_time_seconds_today": 0, "balance": "You need to have a pocket watcher badge to view this.", "badges": [], "created_at": "2025-06-16T15:28:09.626-04:00", "updated_at": "2025-07-03T19:21:54.018-04:00", "avatar": "https://secure.gravatar.com/avatar/0a10141df1fd4cf8207a105b477291f1.jpg?s=512&d=https%3A%2F%2Fa.slack-edge.com%2Fdf10d%2Fimg%2Favatars%2Fava_0018-512.png", "custom_css": null}, {"id": 2357, "slack_id": "U0922Q01GJV", "display_name": "Benny", "bio": null, "projects_count": 0, "devlogs_count": 0, "votes_count": 0, "ships_count": 0, "projects": [], "coding_time_seconds": 0, "coding_time_seconds_today": 0, "balance": "You need to have a pocket watcher badge to view this.", "badges": [], "created_at": "2025-06-16T15:28:17.044-04:00", "updated_at": "2025-07-03T19:21:54.278-04:00", "avatar": "https://secure.gravatar.com/avatar/f0ac2d659cab36d27632e5a5a7896e79.jpg?s=512&d=https%3A%2F%2Fa.slack-edge.com%2Fdf10d%2Fimg%2Favatars%2Fava_0016-512.png", "custom_css": null}, {"id": 2358, "slack_id": "U091QK6CNG4", "display_name": "Mac Smith", "bio": null, "projects_count": 0, "devlogs_count": 0, "votes_count": 0, "ships_count": 0, "projects": [], "coding_time_seconds": 0, "coding_time_seconds_today": 0, "balance": "You need to have a pocket watcher badge to view this.", "badges": [], "created_at": "2025-06-16T15:28:45.730-04:00", "updated_at": "2025-07-03T19:21:54.552-04:00", "avatar": "https://secure.gravatar.com/avatar/9ab642aeb3edc5c3536d0914432f0c90.jpg?s=512&d=https%3A%2F%2Fa.slack-edge.com%2Fdf10d%2Fimg%2Favatars%2Fava_0006-512.png", "custom_css": null}, {"id": 2359, "slack_id": "U0918U2NV2B", "display_name": "Aditya", "bio": null, "projects_count": 0, "devlogs_count": 0, "votes_count": 0, "ships_count": 0, "projects": [], "coding_time_seconds": 0, "coding_time_seconds_today": 0, "balance": "You need to have a pocket watcher badge to view this.", "badges": [], "created_at": "2025-06-16T15:28:48.383-04:00", "updated_at": "2025-07-03T19:21:55.212-04:00", "avatar": "https://avatars.slack-edge.com/2025-06-17/9043004303223_966e5f4620a0c5f7759a_original.png", "custom_css": null}, {"id": 2360, "slack_id": "U0918UJA27R", "display_name": "Hassin", "bio": null, "projects_count": 0, "devlogs_count": 0, "votes_count": 0, "ships_count": 0, "projects": [], "coding_time_seconds": 0, "coding_time_seconds_today": 0, "balance": "You need to have a pocket watcher badge to view this.", "badges": [], "created_at": "2025-06-16T15:28:50.561-04:00", "updated_at": "2025-07-03T19:21:55.485-04:00", "avatar": "https://secure.gravatar.com/avatar/90e80425d0c9840ace31e9ddf5a7772e.jpg?s=512&d=https%3A%2F%2Fa.slack-edge.com%2Fdf10d%2Fimg%2Favatars%2Fava_0011-512.png", "custom_css": null}], "pagination": {"page": 118, "pages": 1192, "count": 23828, "items": 20}}