{"users": [{"id": 23698, "slack_id": "U09GMQKV17A", "display_name": "Kiera Langridge", "bio": null, "projects_count": 0, "devlogs_count": 0, "votes_count": 0, "ships_count": 0, "projects": [], "coding_time_seconds": 0, "coding_time_seconds_today": 0, "balance": "You need to have a pocket watcher badge to view this.", "badges": [], "created_at": "2025-09-18T00:57:03.811-04:00", "updated_at": "2025-09-18T08:06:08.525-04:00", "avatar": "https://avatars.slack-edge.com/2025-09-18/9544152232500_cfb83a8bf592987f7b14_original.jpg", "custom_css": null}, {"id": 23699, "slack_id": "U09FZD137NY", "display_name": "Sama alaa", "bio": null, "projects_count": 0, "devlogs_count": 0, "votes_count": 0, "ships_count": 0, "projects": [], "coding_time_seconds": 0, "coding_time_seconds_today": 0, "balance": "You need to have a pocket watcher badge to view this.", "badges": [], "created_at": "2025-09-18T01:59:41.942-04:00", "updated_at": "2025-09-18T08:06:08.724-04:00", "avatar": "https://secure.gravatar.com/avatar/7fc0473426a496ff7ef3c8eb4f18406d.jpg?s=512&d=https%3A%2F%2Fa.slack-edge.com%2Fdf10d%2Fimg%2Favatars%2Fava_0025-512.png", "custom_css": null}, {"id": 23700, "slack_id": "U06HFUG0MFG", "display_name": "tor", "bio": null, "projects_count": 0, "devlogs_count": 0, "votes_count": 0, "ships_count": 0, "projects": [], "coding_time_seconds": 0, "coding_time_seconds_today": 0, "balance": "You need to have a pocket watcher badge to view this.", "badges": [], "created_at": "2025-09-18T02:23:26.826-04:00", "updated_at": "2025-09-18T08:06:08.869-04:00", "avatar": "https://secure.gravatar.com/avatar/9500bb048ba5dc0ae92f5eb3bb088753.jpg?s=512&d=https%3A%2F%2Fa.slack-edge.com%2Fdf10d%2Fimg%2Favatars%2Fava_0007-512.png", "custom_css": null}, {"id": 23701, "slack_id": "U09FSP4EDFX", "display_name": "Junseo Lee", "bio": null, "projects_count": 0, "devlogs_count": 0, "votes_count": 0, "ships_count": 0, "projects": [], "coding_time_seconds": 0, "coding_time_seconds_today": 0, "balance": "You need to have a pocket watcher badge to view this.", "badges": [], "created_at": "2025-09-18T02:58:25.302-04:00", "updated_at": "2025-09-18T08:06:09.143-04:00", "avatar": "https://secure.gravatar.com/avatar/a44e8ba2969d673b2b870f6fca663062.jpg?s=512&d=https%3A%2F%2Fa.slack-edge.com%2Fdf10d%2Fimg%2Favatars%2Fava_0004-512.png", "custom_css": null}, {"id": 23702, "slack_id": "U09EDB6U22Y", "display_name": "pk", "bio": "nothing to show off... just few servers", "projects_count": 1, "devlogs_count": 8, "votes_count": 30, "ships_count": 1, "projects": [{"id": 13550, "title": "QuickTemp", "devlogs_count": 8, "created_at": "2025-09-19T07:36:48.281-04:00"}], "coding_time_seconds": 189392, "coding_time_seconds_today": 9544, "balance": "You need to have a pocket watcher badge to view this.", "badges": [{"name": "Maiden Voyage", "text": "you shipped your first project! the journey begins...", "icon": "\ud83d\udea2"}], "created_at": "2025-09-18T03:12:04.404-04:00", "updated_at": "2025-09-23T13:29:41.665-04:00", "avatar": "https://avatars.slack-edge.com/2025-09-19/9545913105429_ca68fa4ef8c3c3c1dc04_original.jpg", "custom_css": null}, {"id": 23703, "slack_id": "U09G063A3UL", "display_name": "Stacie Ganguly", "bio": null, "projects_count": 0, "devlogs_count": 0, "votes_count": 0, "ships_count": 0, "projects": [], "coding_time_seconds": 0, "coding_time_seconds_today": 0, "balance": "You need to have a pocket watcher badge to view this.", "badges": [], "created_at": "2025-09-18T04:26:25.250-04:00", "updated_at": "2025-09-18T08:06:09.482-04:00", "avatar": "https://avatars.slack-edge.com/2025-09-18/9539628228358_423c7f1dc86ee56c0387_original.png", "custom_css": null}, {"id": 23704, "slack_id": "U09FVKPV022", "display_name": "Coxo", "bio": null, "projects_count": 0, "devlogs_count": 0, "votes_count": 0, "ships_count": 0, "projects": [], "coding_time_seconds": 0, "coding_time_seconds_today": 0, "balance": "You need to have a pocket watcher badge to view this.", "badges": [], "created_at": "2025-09-18T04:36:30.050-04:00", "updated_at": "2025-09-18T08:06:09.647-04:00", "avatar": "https://secure.gravatar.com/avatar/4284cc7b951dd6f842ab2ab915f109eb.jpg?s=512&d=https%3A%2F%2Fa.slack-edge.com%2Fdf10d%2Fimg%2Favatars%2Fava_0003-512.png", "custom_css": null}, {"id": 23705, "slack_id": "U09FVN3T23C", "display_name": "Tejas", "bio": null, "projects_count": 0, "devlogs_count": 0, "votes_count": 0, "ships_count": 0, "projects": [], "coding_time_seconds": 0, "coding_time_seconds_today": 0, "balance": "You need to have a pocket watcher badge to view this.", "badges": [], "created_at": "2025-09-18T05:33:15.726-04:00", "updated_at": "2025-09-18T08:06:09.801-04:00", "avatar": "https://secure.gravatar.com/avatar/3d3edf596622c709a320a8f0afd0ad0a.jpg?s=512&d=https%3A%2F%2Fa.slack-edge.com%2Fdf10d%2Fimg%2Favatars%2Fava_0008-512.png", "custom_css": null}, {"id": 23706, "slack_id": "U09D14U7WMR", "display_name": "Manas Doshi", "bio": null, "projects_count": 1, "devlogs_count": 1, "votes_count": 0, "ships_count": 0, "projects": [{"id": 13522, "title": "Modern Portfolio", "devlogs_count": 1, "created_at": "2025-09-18T12:35:26.825-04:00"}], "coding_time_seconds": 49606, "coding_time_seconds_today": 3566, "balance": "You need to have a pocket watcher badge to view this.", "badges": [], "created_at": "2025-09-18T05:41:22.861-04:00", "updated_at": "2025-09-18T11:39:01.953-04:00", "avatar": "https://avatars.slack-edge.com/2025-09-02/9445549364165_d2cdcc1f35fd5f7f354f_original.png", "custom_css": null}, {"id": 23707, "slack_id": "U09FTRW2N5T", "display_name": "Dark", "bio": null, "projects_count": 0, "devlogs_count": 0, "votes_count": 0, "ships_count": 0, "projects": [], "coding_time_seconds": 0, "coding_time_seconds_today": 0, "balance": "You need to have a pocket watcher badge to view this.", "badges": [], "created_at": "2025-09-18T06:06:22.615-04:00", "updated_at": "2025-09-18T08:06:10.025-04:00", "avatar": "https://avatars.slack-edge.com/2025-09-18/9554112403921_28bab57c571d10fa2aa1_original.jpg", "custom_css": null}, {"id": 23708, "slack_id": "U09GPEXPHMW", "display_name": "virtualfuzz's alt", "bio": null, "projects_count": 0, "devlogs_count": 0, "votes_count": 0, "ships_count": 0, "projects": [], "coding_time_seconds": 0, "coding_time_seconds_today": 0, "balance": "You need to have a pocket watcher badge to view this.", "badges": [], "created_at": "2025-09-18T06:09:12.820-04:00", "updated_at": "2025-09-18T08:06:10.140-04:00", "avatar": "https://secure.gravatar.com/avatar/fe02d5e888ba5e5317bd1e1cfbd9f17a.jpg?s=512&d=https%3A%2F%2Fa.slack-edge.com%2Fdf10d%2Fimg%2Favatars%2Fava_0004-512.png", "custom_css": null}, {"id": 23709, "slack_id": "U09FD9M4BEC", "display_name": "Audir8", "bio": null, "projects_count": 1, "devlogs_count": 1, "votes_count": 0, "ships_count": 0, "projects": [{"id": 13517, "title": "RRHosting-Server-manager", "devlogs_count": 1, "created_at": "2025-09-18T10:35:48.642-04:00"}], "coding_time_seconds": 7060, "coding_time_seconds_today": 0, "balance": "You need to have a pocket watcher badge to view this.", "badges": [], "created_at": "2025-09-18T07:10:08.310-04:00", "updated_at": "2025-09-18T10:36:27.924-04:00", "avatar": "https://secure.gravatar.com/avatar/5977f216618de879a863fadd06f1d3ec.jpg?s=512&d=https%3A%2F%2Fa.slack-edge.com%2Fdf10d%2Fimg%2Favatars%2Fava_0014-512.png", "custom_css": null}, {"id": 23710, "slack_id": "U09FWJ2U2TG", "display_name": "birbprod", "bio": null, "projects_count": 0, "devlogs_count": 0, "votes_count": 0, "ships_count": 0, "projects": [], "coding_time_seconds": 0, "coding_time_seconds_today": 0, "balance": "You need to have a pocket watcher badge to view this.", "badges": [], "created_at": "2025-09-18T07:44:57.956-04:00", "updated_at": "2025-09-18T08:06:10.348-04:00", "avatar": "https://secure.gravatar.com/avatar/09916d6988d1f37a43dce7948addd7c4.jpg?s=512&d=https%3A%2F%2Fa.slack-edge.com%2Fdf10d%2Fimg%2Favatars%2Fava_0025-512.png", "custom_css": null}, {"id": 23711, "slack_id": "U09FUC1RSN9", "display_name": "Yash Grewal", "bio": null, "projects_count": 0, "devlogs_count": 0, "votes_count": 0, "ships_count": 0, "projects": [], "coding_time_seconds": 0, "coding_time_seconds_today": 0, "balance": "You need to have a pocket watcher badge to view this.", "badges": [], "created_at": "2025-09-18T07:53:03.352-04:00", "updated_at": "2025-09-18T14:06:27.831-04:00", "avatar": "https://secure.gravatar.com/avatar/eb4ca26444464dea5104d5ac68776b51.jpg?s=512&d=https%3A%2F%2Fa.slack-edge.com%2Fdf10d%2Fimg%2Favatars%2Fava_0013-512.png", "custom_css": null}, {"id": 23712, "slack_id": "U09FUFUF83F", "display_name": "Arthur", "bio": null, "projects_count": 0, "devlogs_count": 0, "votes_count": 0, "ships_count": 0, "projects": [], "coding_time_seconds": 0, "coding_time_seconds_today": 0, "balance": "You need to have a pocket watcher badge to view this.", "badges": [], "created_at": "2025-09-18T08:17:57.599-04:00", "updated_at": "2025-09-18T14:06:27.940-04:00", "avatar": "https://secure.gravatar.com/avatar/665ac7a197a5503175ccef482a4a3112.jpg?s=512&d=https%3A%2F%2Fa.slack-edge.com%2Fdf10d%2Fimg%2Favatars%2Fava_0014-512.png", "custom_css": null}, {"id": 23713, "slack_id": "U09GP83HG80", "display_name": "Benjamin Sanders", "bio": null, "projects_count": 0, "devlogs_count": 0, "votes_count": 0, "ships_count": 0, "projects": [], "coding_time_seconds": 0, "coding_time_seconds_today": 0, "balance": "You need to have a pocket watcher badge to view this.", "badges": [], "created_at": "2025-09-18T09:05:04.784-04:00", "updated_at": "2025-09-18T14:06:28.050-04:00", "avatar": "https://avatars.slack-edge.com/2025-09-18/9541063203270_43a9e1d8601cd903a4d2_original.jpg", "custom_css": null}, {"id": 23714, "slack_id": "U09GB3H2RB3", "display_name": "Devam", "bio": "", "projects_count": 0, "devlogs_count": 0, "votes_count": 0, "ships_count": 0, "projects": [], "coding_time_seconds": 0, "coding_time_seconds_today": 0, "balance": "You need to have a pocket watcher badge to view this.", "badges": [], "created_at": "2025-09-18T09:14:52.507-04:00", "updated_at": "2025-09-18T14:06:28.199-04:00", "avatar": "https://secure.gravatar.com/avatar/5c7e327e8785bf42bd8d760df8bebfba.jpg?s=512&d=https%3A%2F%2Fa.slack-edge.com%2Fdf10d%2Fimg%2Favatars%2Fava_0011-512.png", "custom_css": null}, {"id": 23715, "slack_id": "U09FXAWLHLN", "display_name": "Isaac Kaawoan", "bio": null, "projects_count": 0, "devlogs_count": 0, "votes_count": 0, "ships_count": 0, "projects": [], "coding_time_seconds": 0, "coding_time_seconds_today": 0, "balance": "You need to have a pocket watcher badge to view this.", "badges": [], "created_at": "2025-09-18T09:53:52.124-04:00", "updated_at": "2025-09-18T14:06:28.323-04:00", "avatar": "https://avatars.slack-edge.com/2025-09-18/9555408316177_fe98215cce5e7d941802_original.png", "custom_css": null}, {"id": 23716, "slack_id": "U09FV70NPC5", "display_name": "Siddharth Pandit", "bio": null, "projects_count": 0, "devlogs_count": 0, "votes_count": 0, "ships_count": 0, "projects": [], "coding_time_seconds": 0, "coding_time_seconds_today": 0, "balance": "You need to have a pocket watcher badge to view this.", "badges": [], "created_at": "2025-09-18T09:58:01.187-04:00", "updated_at": "2025-09-18T14:06:28.435-04:00", "avatar": "https://secure.gravatar.com/avatar/7246ecad7e33a4a02aef345c6aab6b27.jpg?s=512&d=https%3A%2F%2Fa.slack-edge.com%2Fdf10d%2Fimg%2Favatars%2Fava_0023-512.png", "custom_css": null}, {"id": 23717, "slack_id": "U07ALN75TLJ", "display_name": "Saihajbir Singh", "bio": null, "projects_count": 0, "devlogs_count": 0, "votes_count": 0, "ships_count": 0, "projects": [], "coding_time_seconds": 0, "coding_time_seconds_today": 0, "balance": "You need to have a pocket watcher badge to view this.", "badges": [], "created_at": "2025-09-18T10:11:12.887-04:00", "updated_at": "2025-09-18T14:06:28.575-04:00", "avatar": "https://secure.gravatar.com/avatar/76626ff4400f4897627832816e367cf5.jpg?s=512&d=https%3A%2F%2Fa.slack-edge.com%2Fdf10d%2Fimg%2Favatars%2Fava_0004-512.png", "custom_css": null}], "pagination": {"page": 1180, "pages": 1192, "count": 23828, "items": 20}}