{"users": [{"id": 23778, "slack_id": "U09GZJV561W", "display_name": "Miguel Angel Rodr\u00edguez Salmer\u00f3n", "bio": null, "projects_count": 0, "devlogs_count": 0, "votes_count": 0, "ships_count": 0, "projects": [], "coding_time_seconds": 0, "coding_time_seconds_today": 0, "balance": "You need to have a pocket watcher badge to view this.", "badges": [], "created_at": "2025-09-19T13:57:05.974-04:00", "updated_at": "2025-09-19T15:35:01.108-04:00", "avatar": "https://secure.gravatar.com/avatar/193082a79c6b418a86f2d630091d915d.jpg?s=512&d=https%3A%2F%2Fa.slack-edge.com%2Fdf10d%2Fimg%2Favatars%2Fava_0024-512.png", "custom_css": null}, {"id": 23779, "slack_id": "U09GL95ULHX", "display_name": "prootv", "bio": null, "projects_count": 0, "devlogs_count": 0, "votes_count": 0, "ships_count": 0, "projects": [], "coding_time_seconds": 0, "coding_time_seconds_today": 0, "balance": "You need to have a pocket watcher badge to view this.", "badges": [], "created_at": "2025-09-19T14:27:38.940-04:00", "updated_at": "2025-09-19T15:35:01.212-04:00", "avatar": "https://secure.gravatar.com/avatar/63fbd82587b3d6e22ee1549b4810649f.jpg?s=512&d=https%3A%2F%2Fa.slack-edge.com%2Fdf10d%2Fimg%2Favatars%2Fava_0015-512.png", "custom_css": null}, {"id": 23780, "slack_id": "U09GBD88WF6", "display_name": "\u15e9\u03c7\u025b\u14aa", "bio": null, "projects_count": 0, "devlogs_count": 0, "votes_count": 0, "ships_count": 0, "projects": [], "coding_time_seconds": 0, "coding_time_seconds_today": 0, "balance": "You need to have a pocket watcher badge to view this.", "badges": [], "created_at": "2025-09-19T14:56:30.271-04:00", "updated_at": "2025-09-19T15:35:01.545-04:00", "avatar": "https://secure.gravatar.com/avatar/b6a83d3e97ed7a4f3cd085bfd4cf9a93.jpg?s=512&d=https%3A%2F%2Fa.slack-edge.com%2Fdf10d%2Fimg%2Favatars%2Fava_0008-512.png", "custom_css": null}, {"id": 23781, "slack_id": "U09GLKNH3UZ", "display_name": "Nadia yeasmin", "bio": null, "projects_count": 0, "devlogs_count": 0, "votes_count": 0, "ships_count": 0, "projects": [], "coding_time_seconds": 0, "coding_time_seconds_today": 0, "balance": "You need to have a pocket watcher badge to view this.", "badges": [], "created_at": "2025-09-19T15:33:57.113-04:00", "updated_at": "2025-09-19T20:06:23.077-04:00", "avatar": "https://secure.gravatar.com/avatar/60f75971dfc4a3b0790e7b55706db149.jpg?s=512&d=https%3A%2F%2Fa.slack-edge.com%2Fdf10d%2Fimg%2Favatars%2Fava_0000-512.png", "custom_css": null}, {"id": 23782, "slack_id": "U05T6CCB06B", "display_name": "Patitotective", "bio": null, "projects_count": 0, "devlogs_count": 0, "votes_count": 0, "ships_count": 0, "projects": [], "coding_time_seconds": 0, "coding_time_seconds_today": 0, "balance": "You need to have a pocket watcher badge to view this.", "badges": [], "created_at": "2025-09-19T15:41:04.728-04:00", "updated_at": "2025-09-19T15:41:22.424-04:00", "avatar": "https://secure.gravatar.com/avatar/cc7dd7701b341b4a05ed7f3f5ef6f42c.jpg?s=512&d=https%3A%2F%2Fa.slack-edge.com%2Fdf10d%2Fimg%2Favatars%2Fava_0022-512.png", "custom_css": null}, {"id": 23783, "slack_id": "U09EXSYFMJ4", "display_name": "Saketh ram Pragnapuram", "bio": null, "projects_count": 0, "devlogs_count": 0, "votes_count": 0, "ships_count": 0, "projects": [], "coding_time_seconds": 0, "coding_time_seconds_today": 0, "balance": "You need to have a pocket watcher badge to view this.", "badges": [], "created_at": "2025-09-19T16:24:36.801-04:00", "updated_at": "2025-09-19T20:06:23.314-04:00", "avatar": "https://avatars.slack-edge.com/2025-09-19/9578462834304_8f6edfcd42cb6e19bbce_original.png", "custom_css": null}, {"id": 23784, "slack_id": "U09G6HY7ERL", "display_name": "Jacob", "bio": null, "projects_count": 0, "devlogs_count": 0, "votes_count": 0, "ships_count": 0, "projects": [], "coding_time_seconds": 0, "coding_time_seconds_today": 0, "balance": "You need to have a pocket watcher badge to view this.", "badges": [], "created_at": "2025-09-19T16:26:10.084-04:00", "updated_at": "2025-09-19T20:06:23.409-04:00", "avatar": "https://avatars.slack-edge.com/2025-09-19/9555931725764_c630e0c95d2dbc39a2a1_original.jpg", "custom_css": null}, {"id": 23785, "slack_id": "U09G70XHUHG", "display_name": "Firat Tunch", "bio": null, "projects_count": 0, "devlogs_count": 0, "votes_count": 0, "ships_count": 0, "projects": [], "coding_time_seconds": 0, "coding_time_seconds_today": 0, "balance": "You need to have a pocket watcher badge to view this.", "badges": [], "created_at": "2025-09-19T16:30:59.811-04:00", "updated_at": "2025-09-19T20:06:23.508-04:00", "avatar": "https://avatars.slack-edge.com/2025-09-19/9536382048983_6b1804e64b29c0f2cd74_original.jpg", "custom_css": null}, {"id": 23786, "slack_id": "U07QT5C6LDC", "display_name": "Kira Ritcey", "bio": null, "projects_count": 0, "devlogs_count": 0, "votes_count": 0, "ships_count": 0, "projects": [], "coding_time_seconds": 0, "coding_time_seconds_today": 0, "balance": "You need to have a pocket watcher badge to view this.", "badges": [], "created_at": "2025-09-19T16:35:07.083-04:00", "updated_at": "2025-09-19T20:06:23.815-04:00", "avatar": "https://avatars.slack-edge.com/2024-10-15/7907307185456_8a9da77145a5beda55db_original.jpg", "custom_css": null}, {"id": 23787, "slack_id": "U09G9K6SHHS", "display_name": "Alex Infanti", "bio": null, "projects_count": 0, "devlogs_count": 0, "votes_count": 0, "ships_count": 0, "projects": [], "coding_time_seconds": 0, "coding_time_seconds_today": 0, "balance": "You need to have a pocket watcher badge to view this.", "badges": [], "created_at": "2025-09-19T16:58:48.641-04:00", "updated_at": "2025-09-19T20:06:23.942-04:00", "avatar": "https://avatars.slack-edge.com/2025-09-19/9578619291664_b5bf044d9db6325fc2c1_original.png", "custom_css": null}, {"id": 23788, "slack_id": "U09G59NTWQ5", "display_name": "mahin mubarik", "bio": null, "projects_count": 0, "devlogs_count": 0, "votes_count": 0, "ships_count": 0, "projects": [], "coding_time_seconds": 0, "coding_time_seconds_today": 0, "balance": "You need to have a pocket watcher badge to view this.", "badges": [], "created_at": "2025-09-19T17:25:26.371-04:00", "updated_at": "2025-09-19T20:06:24.046-04:00", "avatar": "https://secure.gravatar.com/avatar/39525ae4d9336e1d6fa8ed6b8174be8e.jpg?s=512&d=https%3A%2F%2Fa.slack-edge.com%2Fdf10d%2Fimg%2Favatars%2Fava_0014-512.png", "custom_css": null}, {"id": 23789, "slack_id": "U09G2FSL81Z", "display_name": "Ash", "bio": null, "projects_count": 0, "devlogs_count": 0, "votes_count": 0, "ships_count": 0, "projects": [], "coding_time_seconds": 0, "coding_time_seconds_today": 0, "balance": "You need to have a pocket watcher badge to view this.", "badges": [], "created_at": "2025-09-19T17:32:01.660-04:00", "updated_at": "2025-09-19T20:06:24.139-04:00", "avatar": "https://secure.gravatar.com/avatar/8f64672471facf920a8d2b794298239d.jpg?s=512&d=https%3A%2F%2Fa.slack-edge.com%2Fdf10d%2Fimg%2Favatars%2Fava_0026-512.png", "custom_css": null}, {"id": 23790, "slack_id": "U091PUNA2JG", "display_name": "Ritu Raj", "bio": null, "projects_count": 0, "devlogs_count": 0, "votes_count": 0, "ships_count": 0, "projects": [], "coding_time_seconds": 0, "coding_time_seconds_today": 0, "balance": "You need to have a pocket watcher badge to view this.", "badges": [], "created_at": "2025-09-19T22:11:40.259-04:00", "updated_at": "2025-09-20T02:05:43.892-04:00", "avatar": "https://secure.gravatar.com/avatar/411cdf85b4da42601b93897dc97abf37.jpg?s=512&d=https%3A%2F%2Fa.slack-edge.com%2Fdf10d%2Fimg%2Favatars%2Fava_0025-512.png", "custom_css": null}, {"id": 23791, "slack_id": "U09G7KHLQQN", "display_name": "e", "bio": null, "projects_count": 0, "devlogs_count": 0, "votes_count": 0, "ships_count": 0, "projects": [], "coding_time_seconds": 0, "coding_time_seconds_today": 0, "balance": "You need to have a pocket watcher badge to view this.", "badges": [], "created_at": "2025-09-19T22:16:08.492-04:00", "updated_at": "2025-09-20T02:05:44.079-04:00", "avatar": "https://secure.gravatar.com/avatar/5738fe5fbed4e732254d087c3a9bf32b.jpg?s=512&d=https%3A%2F%2Fa.slack-edge.com%2Fdf10d%2Fimg%2Favatars%2Fava_0003-512.png", "custom_css": null}, {"id": 23792, "slack_id": "U09FU7JMBU3", "display_name": "Vaughn", "bio": null, "projects_count": 0, "devlogs_count": 0, "votes_count": 1, "ships_count": 0, "projects": [], "coding_time_seconds": 5630, "coding_time_seconds_today": 0, "balance": "You need to have a pocket watcher badge to view this.", "badges": [], "created_at": "2025-09-20T01:32:51.652-04:00", "updated_at": "2025-09-20T01:42:51.042-04:00", "avatar": "https://avatars.slack-edge.com/2025-09-18/9570445408752_7b4b9cb0925935632444_original.png", "custom_css": null}, {"id": 23793, "slack_id": "U09FTLAJ0R5", "display_name": "SHARVYIASH S K", "bio": null, "projects_count": 0, "devlogs_count": 0, "votes_count": 0, "ships_count": 0, "projects": [], "coding_time_seconds": 0, "coding_time_seconds_today": 0, "balance": "You need to have a pocket watcher badge to view this.", "badges": [], "created_at": "2025-09-20T01:39:29.893-04:00", "updated_at": "2025-09-20T02:05:44.349-04:00", "avatar": "https://avatars.slack-edge.com/2025-09-19/9552023149510_19940cdcee8333845ad9_original.png", "custom_css": null}, {"id": 23794, "slack_id": "U09G3LJBPFV", "display_name": "Harry Chen", "bio": null, "projects_count": 0, "devlogs_count": 0, "votes_count": 0, "ships_count": 0, "projects": [], "coding_time_seconds": 0, "coding_time_seconds_today": 0, "balance": "You need to have a pocket watcher badge to view this.", "badges": [], "created_at": "2025-09-20T02:41:28.859-04:00", "updated_at": "2025-09-20T08:07:01.420-04:00", "avatar": "https://secure.gravatar.com/avatar/28580667b42d81f67ea97b39bf25cbb1.jpg?s=512&d=https%3A%2F%2Fa.slack-edge.com%2Fdf10d%2Fimg%2Favatars%2Fava_0018-512.png", "custom_css": null}, {"id": 23795, "slack_id": "U09G6C0NSPP", "display_name": "Krishna Yadav", "bio": null, "projects_count": 0, "devlogs_count": 0, "votes_count": 0, "ships_count": 0, "projects": [], "coding_time_seconds": 0, "coding_time_seconds_today": 0, "balance": "You need to have a pocket watcher badge to view this.", "badges": [], "created_at": "2025-09-20T02:45:57.839-04:00", "updated_at": "2025-09-20T08:07:01.624-04:00", "avatar": "https://secure.gravatar.com/avatar/1af4a2cccd1521a502fe499746503909.jpg?s=512&d=https%3A%2F%2Fa.slack-edge.com%2Fdf10d%2Fimg%2Favatars%2Fava_0013-512.png", "custom_css": null}, {"id": 23796, "slack_id": "U09GDC31Z60", "display_name": "Leander S.", "bio": null, "projects_count": 0, "devlogs_count": 0, "votes_count": 0, "ships_count": 0, "projects": [], "coding_time_seconds": 0, "coding_time_seconds_today": 0, "balance": "You need to have a pocket watcher badge to view this.", "badges": [], "created_at": "2025-09-20T03:00:31.458-04:00", "updated_at": "2025-09-20T08:07:01.733-04:00", "avatar": "https://secure.gravatar.com/avatar/7ddf36bdf4ac6338558dc953f899a5e5.jpg?s=512&d=https%3A%2F%2Fa.slack-edge.com%2Fdf10d%2Fimg%2Favatars%2Fava_0001-512.png", "custom_css": null}, {"id": 23797, "slack_id": "U09G84VHBUN", "display_name": "tenny", "bio": null, "projects_count": 0, "devlogs_count": 0, "votes_count": 0, "ships_count": 0, "projects": [], "coding_time_seconds": 0, "coding_time_seconds_today": 0, "balance": "You need to have a pocket watcher badge to view this.", "badges": [], "created_at": "2025-09-20T03:09:05.625-04:00", "updated_at": "2025-09-20T08:07:01.873-04:00", "avatar": "https://secure.gravatar.com/avatar/b9a35ca361127d4be1064606a8440780.jpg?s=512&d=https%3A%2F%2Fa.slack-edge.com%2Fdf10d%2Fimg%2Favatars%2Fava_0024-512.png", "custom_css": null}], "pagination": {"page": 1184, "pages": 1192, "count": 23828, "items": 20}}