{"users": [{"id": 23798, "slack_id": "U09H2D49E1W", "display_name": "Md Sazid Ali", "bio": null, "projects_count": 0, "devlogs_count": 0, "votes_count": 0, "ships_count": 0, "projects": [], "coding_time_seconds": 0, "coding_time_seconds_today": 0, "balance": "You need to have a pocket watcher badge to view this.", "badges": [], "created_at": "2025-09-20T08:00:38.064-04:00", "updated_at": "2025-09-20T14:07:03.433-04:00", "avatar": "https://secure.gravatar.com/avatar/14be0b8b239b9b91d0495b1c9e8a2e67.jpg?s=512&d=https%3A%2F%2Fa.slack-edge.com%2Fdf10d%2Fimg%2Favatars%2Fava_0006-512.png", "custom_css": null}, {"id": 23799, "slack_id": "U09G99P07FU", "display_name": "TheYinSaiDada", "bio": null, "projects_count": 0, "devlogs_count": 0, "votes_count": 0, "ships_count": 0, "projects": [], "coding_time_seconds": 0, "coding_time_seconds_today": 0, "balance": "You need to have a pocket watcher badge to view this.", "badges": [], "created_at": "2025-09-20T10:46:21.549-04:00", "updated_at": "2025-09-23T00:26:02.187-04:00", "avatar": "https://avatars.slack-edge.com/2025-09-20/9548563464083_8bc52d890a7a90182c0e_original.png", "custom_css": null}, {"id": 23800, "slack_id": "U09EJPK1C4C", "display_name": "Pramith Avadhani H R", "bio": null, "projects_count": 0, "devlogs_count": 0, "votes_count": 0, "ships_count": 0, "projects": [], "coding_time_seconds": 0, "coding_time_seconds_today": 0, "balance": "You need to have a pocket watcher badge to view this.", "badges": [], "created_at": "2025-09-20T11:12:26.984-04:00", "updated_at": "2025-09-20T14:07:03.634-04:00", "avatar": "https://secure.gravatar.com/avatar/72de6eb17724e9fa617d356fae4212a3.jpg?s=512&d=https%3A%2F%2Fa.slack-edge.com%2Fdf10d%2Fimg%2Favatars%2Fava_0005-512.png", "custom_css": null}, {"id": 23801, "slack_id": "U09G8MPT9F0", "display_name": "NITISH R.G.", "bio": null, "projects_count": 0, "devlogs_count": 0, "votes_count": 0, "ships_count": 0, "projects": [], "coding_time_seconds": 0, "coding_time_seconds_today": 0, "balance": "You need to have a pocket watcher badge to view this.", "badges": [], "created_at": "2025-09-20T11:42:12.844-04:00", "updated_at": "2025-09-20T14:07:03.751-04:00", "avatar": "https://secure.gravatar.com/avatar/610be20f1154ec2801a58632a1f54ab6.jpg?s=512&d=https%3A%2F%2Fa.slack-edge.com%2Fdf10d%2Fimg%2Favatars%2Fava_0006-512.png", "custom_css": null}, {"id": 23802, "slack_id": "U09GEBDNWCU", "display_name": "Anurag", "bio": null, "projects_count": 0, "devlogs_count": 0, "votes_count": 0, "ships_count": 0, "projects": [], "coding_time_seconds": 0, "coding_time_seconds_today": 0, "balance": "You need to have a pocket watcher badge to view this.", "badges": [], "created_at": "2025-09-20T12:29:26.630-04:00", "updated_at": "2025-09-20T14:07:03.877-04:00", "avatar": "https://secure.gravatar.com/avatar/6a8a67479906ac8b0a6fd69527401f28.jpg?s=512&d=https%3A%2F%2Fa.slack-edge.com%2Fdf10d%2Fimg%2Favatars%2Fava_0026-512.png", "custom_css": null}, {"id": 23803, "slack_id": "U09G4NUFLDR", "display_name": "Kaled", "bio": null, "projects_count": 0, "devlogs_count": 0, "votes_count": 0, "ships_count": 0, "projects": [], "coding_time_seconds": 0, "coding_time_seconds_today": 0, "balance": "You need to have a pocket watcher badge to view this.", "badges": [], "created_at": "2025-09-20T12:32:24.962-04:00", "updated_at": "2025-09-20T16:00:05.488-04:00", "avatar": "https://avatars.slack-edge.com/2025-09-20/9567196699857_b353fa78e45617570e1a_original.png", "custom_css": null}, {"id": 23804, "slack_id": "U09G4PCRX7V", "display_name": "Mos", "bio": null, "projects_count": 0, "devlogs_count": 0, "votes_count": 0, "ships_count": 0, "projects": [], "coding_time_seconds": 0, "coding_time_seconds_today": 0, "balance": "You need to have a pocket watcher badge to view this.", "badges": [], "created_at": "2025-09-20T12:42:16.378-04:00", "updated_at": "2025-09-20T14:07:04.120-04:00", "avatar": "https://avatars.slack-edge.com/2025-09-20/9551380828917_9a5ed2a152735e23fd5e_original.png", "custom_css": null}, {"id": 23805, "slack_id": "U09G96L8W5U", "display_name": "Bybo", "bio": null, "projects_count": 0, "devlogs_count": 0, "votes_count": 0, "ships_count": 0, "projects": [], "coding_time_seconds": 0, "coding_time_seconds_today": 0, "balance": "You need to have a pocket watcher badge to view this.", "badges": [], "created_at": "2025-09-20T12:56:02.595-04:00", "updated_at": "2025-09-23T16:49:05.756-04:00", "avatar": "https://avatars.slack-edge.com/2025-09-20/9551402415445_6f5a03f2b317ca11470f_original.png", "custom_css": null}, {"id": 23806, "slack_id": "U09D7BDUE3U", "display_name": "Manish Rathore", "bio": null, "projects_count": 0, "devlogs_count": 0, "votes_count": 0, "ships_count": 0, "projects": [], "coding_time_seconds": 0, "coding_time_seconds_today": 0, "balance": "You need to have a pocket watcher badge to view this.", "badges": [], "created_at": "2025-09-20T13:30:17.436-04:00", "updated_at": "2025-09-20T14:07:04.331-04:00", "avatar": "https://avatars.slack-edge.com/2025-09-20/9567289100273_7c38f01abb40645ebfeb_original.jpg", "custom_css": null}, {"id": 23807, "slack_id": "U09G55CUX7D", "display_name": "Chase", "bio": "", "projects_count": 0, "devlogs_count": 0, "votes_count": 0, "ships_count": 0, "projects": [], "coding_time_seconds": 0, "coding_time_seconds_today": 0, "balance": "You need to have a pocket watcher badge to view this.", "badges": [], "created_at": "2025-09-20T16:41:49.677-04:00", "updated_at": "2025-09-20T20:59:35.702-04:00", "avatar": "https://secure.gravatar.com/avatar/ce2cdda623ce587177b27e4ba4ff4a1c.jpg?s=512&d=https%3A%2F%2Fa.slack-edge.com%2Fdf10d%2Fimg%2Favatars%2Fava_0019-512.png", "custom_css": null}, {"id": 23808, "slack_id": "U09G56S3ZKM", "display_name": "Rubem", "bio": null, "projects_count": 0, "devlogs_count": 0, "votes_count": 0, "ships_count": 0, "projects": [], "coding_time_seconds": 0, "coding_time_seconds_today": 0, "balance": "You need to have a pocket watcher badge to view this.", "badges": [], "created_at": "2025-09-20T16:58:39.743-04:00", "updated_at": "2025-09-20T20:59:35.814-04:00", "avatar": "https://secure.gravatar.com/avatar/c6106f644eb74d8c113d1f445fc1d4e6.jpg?s=512&d=https%3A%2F%2Fa.slack-edge.com%2Fdf10d%2Fimg%2Favatars%2Fava_0019-512.png", "custom_css": null}, {"id": 23809, "slack_id": "U09FCTCCL3A", "display_name": "Valery", "bio": null, "projects_count": 0, "devlogs_count": 0, "votes_count": 0, "ships_count": 0, "projects": [], "coding_time_seconds": 0, "coding_time_seconds_today": 0, "balance": "You need to have a pocket watcher badge to view this.", "badges": [], "created_at": "2025-09-20T17:01:28.274-04:00", "updated_at": "2025-09-20T20:59:35.913-04:00", "avatar": "https://secure.gravatar.com/avatar/2913740dd6c63f29971b51f1a56ac272.jpg?s=512&d=https%3A%2F%2Fa.slack-edge.com%2Fdf10d%2Fimg%2Favatars%2Fava_0000-512.png", "custom_css": null}, {"id": 23810, "slack_id": "U091G7Q9BQB", "display_name": "Chengez Ahmad", "bio": null, "projects_count": 0, "devlogs_count": 0, "votes_count": 0, "ships_count": 0, "projects": [], "coding_time_seconds": 0, "coding_time_seconds_today": 0, "balance": "You need to have a pocket watcher badge to view this.", "badges": [], "created_at": "2025-09-20T17:11:39.520-04:00", "updated_at": "2025-09-20T20:59:36.028-04:00", "avatar": "https://secure.gravatar.com/avatar/312576ccb0cf0605dec3411eab4976ff.jpg?s=512&d=https%3A%2F%2Fa.slack-edge.com%2Fdf10d%2Fimg%2Favatars%2Fava_0010-512.png", "custom_css": null}, {"id": 23811, "slack_id": "U09A6RA04KY", "display_name": "Mandey Kim", "bio": null, "projects_count": 0, "devlogs_count": 0, "votes_count": 0, "ships_count": 0, "projects": [], "coding_time_seconds": 0, "coding_time_seconds_today": 0, "balance": "You need to have a pocket watcher badge to view this.", "badges": [], "created_at": "2025-09-20T19:35:06.741-04:00", "updated_at": "2025-09-21T01:30:01.061-04:00", "avatar": "https://avatars.slack-edge.com/2025-09-20/9549493736067_29267f73530dba975fbb_original.jpg", "custom_css": null}, {"id": 23812, "slack_id": "U09G9SGA7RU", "display_name": "lag", "bio": null, "projects_count": 0, "devlogs_count": 0, "votes_count": 0, "ships_count": 0, "projects": [], "coding_time_seconds": 0, "coding_time_seconds_today": 0, "balance": "You need to have a pocket watcher badge to view this.", "badges": [], "created_at": "2025-09-20T19:53:07.775-04:00", "updated_at": "2025-09-20T20:59:36.236-04:00", "avatar": "https://secure.gravatar.com/avatar/73c4e0d1de29041423b6f58b35922cc8.jpg?s=512&d=https%3A%2F%2Fa.slack-edge.com%2Fdf10d%2Fimg%2Favatars%2Fava_0010-512.png", "custom_css": null}, {"id": 23813, "slack_id": "U09CG36R98X", "display_name": "Teresa", "bio": "This is my second attempt at using HTML. Please be nice?", "projects_count": 1, "devlogs_count": 0, "votes_count": 0, "ships_count": 0, "projects": [{"id": 13614, "title": "Yet another ugly website", "devlogs_count": 0, "created_at": "2025-09-20T23:47:55.990-04:00"}], "coding_time_seconds": 12197, "coding_time_seconds_today": 0, "balance": "You need to have a pocket watcher badge to view this.", "badges": [], "created_at": "2025-09-20T22:18:48.730-04:00", "updated_at": "2025-09-20T23:09:14.469-04:00", "avatar": "https://avatars.slack-edge.com/2025-09-06/9469097597747_667d8b1b5461188e37bc_original.jpg", "custom_css": null}, {"id": 23814, "slack_id": "U09GAEEAU5Q", "display_name": "MUHAMMAD KASHIF", "bio": null, "projects_count": 0, "devlogs_count": 0, "votes_count": 0, "ships_count": 0, "projects": [], "coding_time_seconds": 0, "coding_time_seconds_today": 0, "balance": "You need to have a pocket watcher badge to view this.", "badges": [], "created_at": "2025-09-20T22:54:24.733-04:00", "updated_at": "2025-09-21T02:07:00.671-04:00", "avatar": "https://avatars.slack-edge.com/2025-09-20/9559375417572_6a035db40292594df946_original.jpg", "custom_css": null}, {"id": 23815, "slack_id": "U09H40A5HDW", "display_name": "sushan ghimire", "bio": null, "projects_count": 0, "devlogs_count": 0, "votes_count": 0, "ships_count": 0, "projects": [], "coding_time_seconds": 0, "coding_time_seconds_today": 0, "balance": "You need to have a pocket watcher badge to view this.", "badges": [], "created_at": "2025-09-20T22:59:37.314-04:00", "updated_at": "2025-09-21T02:07:01.006-04:00", "avatar": "https://secure.gravatar.com/avatar/aebf3215c8b6a11ba0c3bba49b39d602.jpg?s=512&d=https%3A%2F%2Fa.slack-edge.com%2Fdf10d%2Fimg%2Favatars%2Fava_0011-512.png", "custom_css": null}, {"id": 23816, "slack_id": "U09GQ4YNS65", "display_name": "PK", "bio": null, "projects_count": 0, "devlogs_count": 0, "votes_count": 0, "ships_count": 0, "projects": [], "coding_time_seconds": 0, "coding_time_seconds_today": 0, "balance": "You need to have a pocket watcher badge to view this.", "badges": [], "created_at": "2025-09-20T23:56:47.546-04:00", "updated_at": "2025-09-21T02:07:01.125-04:00", "avatar": "https://secure.gravatar.com/avatar/57555dd3dbd24a9d5b9ae6d353d9e6e5.jpg?s=512&d=https%3A%2F%2Fa.slack-edge.com%2Fdf10d%2Fimg%2Favatars%2Fava_0011-512.png", "custom_css": null}, {"id": 23817, "slack_id": "U09G5TD8HPD", "display_name": "Christopher Hoover", "bio": "", "projects_count": 1, "devlogs_count": 1, "votes_count": 2, "ships_count": 0, "projects": [{"id": 13631, "title": "Study Vault", "devlogs_count": 1, "created_at": "2025-09-21T12:49:35.279-04:00"}], "coding_time_seconds": 7414, "coding_time_seconds_today": 0, "balance": "You need to have a pocket watcher badge to view this.", "badges": [], "created_at": "2025-09-21T00:20:03.961-04:00", "updated_at": "2025-09-21T11:55:41.532-04:00", "avatar": "https://avatars.slack-edge.com/2025-09-20/9554625807042_a218264e4e77ff6ff466_original.png", "custom_css": null}], "pagination": {"page": 1185, "pages": 1192, "count": 23828, "items": 20}}