{"users": [{"id": 23818, "slack_id": "U09GAJVGSMQ", "display_name": "Sarvesh", "bio": null, "projects_count": 0, "devlogs_count": 0, "votes_count": 0, "ships_count": 0, "projects": [], "coding_time_seconds": 0, "coding_time_seconds_today": 0, "balance": "You need to have a pocket watcher badge to view this.", "badges": [], "created_at": "2025-09-21T00:39:19.097-04:00", "updated_at": "2025-09-21T02:07:01.616-04:00", "avatar": "https://secure.gravatar.com/avatar/76fc94a87a465954694ae19f23e843fd.jpg?s=512&d=https%3A%2F%2Fa.slack-edge.com%2Fdf10d%2Fimg%2Favatars%2Fava_0012-512.png", "custom_css": null}, {"id": 23819, "slack_id": "U09G7261A4W", "display_name": "kerem", "bio": null, "projects_count": 0, "devlogs_count": 0, "votes_count": 0, "ships_count": 0, "projects": [], "coding_time_seconds": 0, "coding_time_seconds_today": 0, "balance": "You need to have a pocket watcher badge to view this.", "badges": [], "created_at": "2025-09-21T01:03:50.175-04:00", "updated_at": "2025-09-21T02:07:01.721-04:00", "avatar": "https://secure.gravatar.com/avatar/11e4a35968ee4ab1c12b47b7eb4ca873.jpg?s=512&d=https%3A%2F%2Fa.slack-edge.com%2Fdf10d%2Fimg%2Favatars%2Fava_0021-512.png", "custom_css": null}, {"id": 23820, "slack_id": "U09GAU1AKU2", "display_name": "Debottam", "bio": null, "projects_count": 2, "devlogs_count": 9, "votes_count": 4, "ships_count": 1, "projects": [{"id": 13689, "title": "Plant Doctor", "devlogs_count": 9, "created_at": "2025-09-23T00:58:47.375-04:00"}, {"id": 13757, "title": "My Personal Website", "devlogs_count": 0, "created_at": "2025-09-25T03:53:25.617-04:00"}], "coding_time_seconds": 29106, "coding_time_seconds_today": 9264, "balance": "You need to have a pocket watcher badge to view this.", "badges": [{"name": "Maiden Voyage", "text": "you shipped your first project! the journey begins...", "icon": "\ud83d\udea2"}], "created_at": "2025-09-21T04:00:16.984-04:00", "updated_at": "2025-09-24T00:01:36.261-04:00", "avatar": "https://secure.gravatar.com/avatar/f50946ff08a7a33bfc64a0550033e23c.jpg?s=512&d=https%3A%2F%2Fa.slack-edge.com%2Fdf10d%2Fimg%2Favatars%2Fava_0017-512.png", "custom_css": null}, {"id": 23821, "slack_id": "U0542K1C09Z", "display_name": "Vulcan", "bio": null, "projects_count": 0, "devlogs_count": 0, "votes_count": 0, "ships_count": 0, "projects": [], "coding_time_seconds": 0, "coding_time_seconds_today": 0, "balance": "You need to have a pocket watcher badge to view this.", "badges": [], "created_at": "2025-09-21T04:29:20.334-04:00", "updated_at": "2025-09-21T04:29:26.454-04:00", "avatar": "https://avatars.slack-edge.com/2023-04-22/5152534816818_3fe16bff7304e74d527c_original.png", "custom_css": null}, {"id": 23822, "slack_id": "U09FWH3HRQX", "display_name": "\u7d05\u72d0\u8207\u9ed1\u72d0", "bio": null, "projects_count": 0, "devlogs_count": 0, "votes_count": 0, "ships_count": 0, "projects": [], "coding_time_seconds": 0, "coding_time_seconds_today": 0, "balance": "You need to have a pocket watcher badge to view this.", "badges": [], "created_at": "2025-09-21T05:12:21.030-04:00", "updated_at": "2025-09-21T08:07:06.479-04:00", "avatar": "https://avatars.slack-edge.com/2025-09-21/9555078918226_ba9413afa56c3d6dd542_original.jpg", "custom_css": null}, {"id": 23823, "slack_id": "U09FWH71J3Z", "display_name": "Anish", "bio": null, "projects_count": 0, "devlogs_count": 0, "votes_count": 0, "ships_count": 0, "projects": [], "coding_time_seconds": 0, "coding_time_seconds_today": 0, "balance": "You need to have a pocket watcher badge to view this.", "badges": [], "created_at": "2025-09-21T05:14:02.413-04:00", "updated_at": "2025-09-21T08:07:06.747-04:00", "avatar": "https://secure.gravatar.com/avatar/28905de901af9018ac641e0568982c1c.jpg?s=512&d=https%3A%2F%2Fa.slack-edge.com%2Fdf10d%2Fimg%2Favatars%2Fava_0025-512.png", "custom_css": null}, {"id": 23824, "slack_id": "U09FWMKS6K1", "display_name": "Keerthi Balan", "bio": null, "projects_count": 0, "devlogs_count": 0, "votes_count": 0, "ships_count": 0, "projects": [], "coding_time_seconds": 0, "coding_time_seconds_today": 0, "balance": "You need to have a pocket watcher badge to view this.", "badges": [], "created_at": "2025-09-21T06:45:23.686-04:00", "updated_at": "2025-09-21T08:07:06.967-04:00", "avatar": "https://avatars.slack-edge.com/2025-09-21/9568754400161_2b295fa1cecfaef36f4d_original.jpg", "custom_css": null}, {"id": 23825, "slack_id": "U09GAT0EU86", "display_name": "Mrs.Nithya's kitchen", "bio": null, "projects_count": 0, "devlogs_count": 0, "votes_count": 0, "ships_count": 0, "projects": [], "coding_time_seconds": 0, "coding_time_seconds_today": 0, "balance": "You need to have a pocket watcher badge to view this.", "badges": [], "created_at": "2025-09-21T06:50:13.706-04:00", "updated_at": "2025-09-21T08:07:07.064-04:00", "avatar": "https://avatars.slack-edge.com/2025-09-21/9555229682050_80fe3e78f94f2dffb4eb_original.png", "custom_css": null}, {"id": 23826, "slack_id": "U09FWP35MRD", "display_name": "Atharv", "bio": null, "projects_count": 0, "devlogs_count": 0, "votes_count": 0, "ships_count": 0, "projects": [], "coding_time_seconds": 0, "coding_time_seconds_today": 0, "balance": "You need to have a pocket watcher badge to view this.", "badges": [], "created_at": "2025-09-21T07:08:54.267-04:00", "updated_at": "2025-09-21T08:07:07.172-04:00", "avatar": "https://secure.gravatar.com/avatar/96d7347b4af9c7137cb1c1ab11c7672c.jpg?s=512&d=https%3A%2F%2Fa.slack-edge.com%2Fdf10d%2Fimg%2Favatars%2Fava_0001-512.png", "custom_css": null}, {"id": 23827, "slack_id": "U09G6JDSNJX", "display_name": "baishnabi", "bio": null, "projects_count": 0, "devlogs_count": 0, "votes_count": 0, "ships_count": 0, "projects": [], "coding_time_seconds": 0, "coding_time_seconds_today": 0, "balance": "You need to have a pocket watcher badge to view this.", "badges": [], "created_at": "2025-09-21T07:24:58.939-04:00", "updated_at": "2025-09-21T10:03:56.252-04:00", "avatar": "https://secure.gravatar.com/avatar/a95ac1146a16694e599fa72406d95a00.jpg?s=512&d=https%3A%2F%2Fa.slack-edge.com%2Fdf10d%2Fimg%2Favatars%2Fava_0010-512.png", "custom_css": null}, {"id": 23828, "slack_id": "U09DSMC3YCT", "display_name": "ange", "bio": null, "projects_count": 0, "devlogs_count": 0, "votes_count": 0, "ships_count": 0, "projects": [], "coding_time_seconds": 0, "coding_time_seconds_today": 0, "balance": "You need to have a pocket watcher badge to view this.", "badges": [], "created_at": "2025-09-21T07:37:54.946-04:00", "updated_at": "2025-09-21T08:07:07.408-04:00", "avatar": "https://secure.gravatar.com/avatar/e89580d2ff55983912dcc67abc0078e5.jpg?s=512&d=https%3A%2F%2Fa.slack-edge.com%2Fdf10d%2Fimg%2Favatars%2Fava_0002-512.png", "custom_css": null}, {"id": 23829, "slack_id": "U09H4TV44JC", "display_name": "theo", "bio": null, "projects_count": 0, "devlogs_count": 0, "votes_count": 0, "ships_count": 0, "projects": [], "coding_time_seconds": 0, "coding_time_seconds_today": 0, "balance": "You need to have a pocket watcher badge to view this.", "badges": [], "created_at": "2025-09-21T08:29:21.738-04:00", "updated_at": "2025-09-21T14:07:12.342-04:00", "avatar": "https://avatars.slack-edge.com/2025-09-21/9568906139713_eb27519b21b33e732ece_original.jpg", "custom_css": null}, {"id": 23830, "slack_id": "U08M9LE60JK", "display_name": "Deep", "bio": null, "projects_count": 0, "devlogs_count": 0, "votes_count": 0, "ships_count": 0, "projects": [], "coding_time_seconds": 375460, "coding_time_seconds_today": 796, "balance": "You need to have a pocket watcher badge to view this.", "badges": [], "created_at": "2025-09-21T09:18:11.553-04:00", "updated_at": "2025-09-21T14:07:12.463-04:00", "avatar": "https://avatars.slack-edge.com/2025-08-22/9408082376785_86640a400012146ff938_original.jpg", "custom_css": null}, {"id": 23831, "slack_id": "U09FPUABN6B", "display_name": "Bhavesh", "bio": null, "projects_count": 0, "devlogs_count": 0, "votes_count": 0, "ships_count": 0, "projects": [], "coding_time_seconds": 0, "coding_time_seconds_today": 0, "balance": "You need to have a pocket watcher badge to view this.", "badges": [], "created_at": "2025-09-21T09:47:52.292-04:00", "updated_at": "2025-09-21T14:07:12.653-04:00", "avatar": "https://secure.gravatar.com/avatar/9a5689e97d897fb1c84a6cb6e9fb7574.jpg?s=512&d=https%3A%2F%2Fa.slack-edge.com%2Fdf10d%2Fimg%2Favatars%2Fava_0017-512.png", "custom_css": null}, {"id": 23832, "slack_id": "U095T663LE6", "display_name": "Valen Verhoeven-Tan", "bio": null, "projects_count": 0, "devlogs_count": 0, "votes_count": 0, "ships_count": 0, "projects": [], "coding_time_seconds": 1445, "coding_time_seconds_today": 0, "balance": "You need to have a pocket watcher badge to view this.", "badges": [], "created_at": "2025-09-21T10:18:32.499-04:00", "updated_at": "2025-09-21T14:07:17.627-04:00", "avatar": "https://avatars.slack-edge.com/2025-07-15/9197299212754_8153564cfff3262e934b_original.jpg", "custom_css": null}, {"id": 23833, "slack_id": "U09GZAZ7NC8", "display_name": "Atharv", "bio": null, "projects_count": 0, "devlogs_count": 0, "votes_count": 0, "ships_count": 0, "projects": [], "coding_time_seconds": 0, "coding_time_seconds_today": 0, "balance": "You need to have a pocket watcher badge to view this.", "badges": [], "created_at": "2025-09-21T10:24:03.823-04:00", "updated_at": "2025-09-21T14:07:17.746-04:00", "avatar": "https://secure.gravatar.com/avatar/5de2ef71b19dfc57fa93b44faacc150a.jpg?s=512&d=https%3A%2F%2Fa.slack-edge.com%2Fdf10d%2Fimg%2Favatars%2Fava_0001-512.png", "custom_css": null}, {"id": 23834, "slack_id": "U09G9A0RJJZ", "display_name": "Avlont", "bio": null, "projects_count": 0, "devlogs_count": 0, "votes_count": 0, "ships_count": 0, "projects": [], "coding_time_seconds": 0, "coding_time_seconds_today": 0, "balance": "You need to have a pocket watcher badge to view this.", "badges": [], "created_at": "2025-09-21T11:02:58.783-04:00", "updated_at": "2025-09-21T14:07:18.488-04:00", "avatar": "https://secure.gravatar.com/avatar/d9f3099ec2b064c5f71fd9862bd616ce.jpg?s=512&d=https%3A%2F%2Fa.slack-edge.com%2Fdf10d%2Fimg%2Favatars%2Fava_0001-512.png", "custom_css": null}, {"id": 23835, "slack_id": "U09GGK1JTC4", "display_name": "Ky\u00f6sti Ahti", "bio": null, "projects_count": 0, "devlogs_count": 0, "votes_count": 0, "ships_count": 0, "projects": [], "coding_time_seconds": 45285, "coding_time_seconds_today": 2394, "balance": "You need to have a pocket watcher badge to view this.", "badges": [], "created_at": "2025-09-21T11:57:30.136-04:00", "updated_at": "2025-09-22T11:07:51.515-04:00", "avatar": "https://secure.gravatar.com/avatar/c58c319fd2fceeec71221ef49c48ac9c.jpg?s=512&d=https%3A%2F%2Fa.slack-edge.com%2Fdf10d%2Fimg%2Favatars%2Fava_0025-512.png", "custom_css": null}, {"id": 23836, "slack_id": "U09H5BDH2SU", "display_name": "\u6731\u79b9\u540c", "bio": null, "projects_count": 0, "devlogs_count": 0, "votes_count": 0, "ships_count": 0, "projects": [], "coding_time_seconds": 0, "coding_time_seconds_today": 0, "balance": "You need to have a pocket watcher badge to view this.", "badges": [], "created_at": "2025-09-21T12:28:36.182-04:00", "updated_at": "2025-09-21T14:07:19.030-04:00", "avatar": "https://avatars.slack-edge.com/2025-09-21/9560713815396_bbb752bcb50894ee5935_original.png", "custom_css": null}, {"id": 23837, "slack_id": "U09G9FRF1UM", "display_name": "Rishi Bansal", "bio": null, "projects_count": 0, "devlogs_count": 0, "votes_count": 0, "ships_count": 0, "projects": [], "coding_time_seconds": 0, "coding_time_seconds_today": 0, "balance": "You need to have a pocket watcher badge to view this.", "badges": [], "created_at": "2025-09-21T12:57:04.795-04:00", "updated_at": "2025-09-21T14:07:19.210-04:00", "avatar": "https://avatars.slack-edge.com/2025-09-21/9541390398423_b275a85bb146c33e1bf9_original.jpg", "custom_css": null}], "pagination": {"page": 1186, "pages": 1192, "count": 23828, "items": 20}}