{"users": [{"id": 23878, "slack_id": "U09G5FY8TNK", "display_name": "DarkDivision_X", "bio": null, "projects_count": 0, "devlogs_count": 0, "votes_count": 0, "ships_count": 0, "projects": [], "coding_time_seconds": 0, "coding_time_seconds_today": 0, "balance": "You need to have a pocket watcher badge to view this.", "badges": [], "created_at": "2025-09-22T22:40:13.298-04:00", "updated_at": "2025-09-23T02:06:59.204-04:00", "avatar": "https://secure.gravatar.com/avatar/e4787870bb9d23e6604ab41dba8d9f46.jpg?s=512&d=https%3A%2F%2Fa.slack-edge.com%2Fdf10d%2Fimg%2Favatars%2Fava_0013-512.png", "custom_css": null}, {"id": 23879, "slack_id": "U09GKQ0V77Y", "display_name": "M. Wahajul Hasan", "bio": null, "projects_count": 0, "devlogs_count": 0, "votes_count": 0, "ships_count": 0, "projects": [], "coding_time_seconds": 0, "coding_time_seconds_today": 0, "balance": "You need to have a pocket watcher badge to view this.", "badges": [], "created_at": "2025-09-22T23:01:09.196-04:00", "updated_at": "2025-09-23T02:06:59.316-04:00", "avatar": "https://secure.gravatar.com/avatar/fe23ecd4b3fe85f8411ae2b486bb87a9.jpg?s=512&d=https%3A%2F%2Fa.slack-edge.com%2Fdf10d%2Fimg%2Favatars%2Fava_0021-512.png", "custom_css": null}, {"id": 23880, "slack_id": "U09G9DH1P4J", "display_name": "sushan47", "bio": null, "projects_count": 0, "devlogs_count": 0, "votes_count": 0, "ships_count": 0, "projects": [], "coding_time_seconds": 0, "coding_time_seconds_today": 0, "balance": "You need to have a pocket watcher badge to view this.", "badges": [], "created_at": "2025-09-22T23:08:40.071-04:00", "updated_at": "2025-09-23T02:06:59.416-04:00", "avatar": "https://secure.gravatar.com/avatar/1e6c720ec6af9d41e38e68794ff60aa2.jpg?s=512&d=https%3A%2F%2Fa.slack-edge.com%2Fdf10d%2Fimg%2Favatars%2Fava_0022-512.png", "custom_css": null}, {"id": 23881, "slack_id": "U0947SL6AKB", "display_name": "lraj23", "bio": null, "projects_count": 0, "devlogs_count": 0, "votes_count": 0, "ships_count": 0, "projects": [], "coding_time_seconds": 141085, "coding_time_seconds_today": 0, "balance": "You need to have a pocket watcher badge to view this.", "badges": [], "created_at": "2025-09-23T00:32:09.112-04:00", "updated_at": "2025-09-23T02:06:59.567-04:00", "avatar": "https://avatars.slack-edge.com/2025-09-16/9534500768756_8e08c653884669230390_original.png", "custom_css": null}, {"id": 23882, "slack_id": "U090FB75J1G", "display_name": "Max", "bio": null, "projects_count": 2, "devlogs_count": 0, "votes_count": 0, "ships_count": 0, "projects": [{"id": 13746, "title": "\u2728\u2728\u2728 Sierpi\u0144ski's triangle \u2728\u2728\u2728", "devlogs_count": 0, "created_at": "2025-09-24T16:11:57.367-04:00"}, {"id": 13749, "title": "First website", "devlogs_count": 0, "created_at": "2025-09-24T18:03:13.246-04:00"}], "coding_time_seconds": 26060, "coding_time_seconds_today": 0, "balance": "You need to have a pocket watcher badge to view this.", "badges": [], "created_at": "2025-09-23T01:17:30.665-04:00", "updated_at": "2025-09-24T14:38:09.123-04:00", "avatar": "https://secure.gravatar.com/avatar/c2c5640c5fd341d48373b47cdf925caf.jpg?s=512&d=https%3A%2F%2Fa.slack-edge.com%2Fdf10d%2Fimg%2Favatars%2Fava_0022-512.png", "custom_css": null}, {"id": 23883, "slack_id": "U09GJN849JR", "display_name": "janhvi", "bio": null, "projects_count": 0, "devlogs_count": 0, "votes_count": 0, "ships_count": 0, "projects": [], "coding_time_seconds": 0, "coding_time_seconds_today": 0, "balance": "You need to have a pocket watcher badge to view this.", "badges": [], "created_at": "2025-09-23T03:45:23.501-04:00", "updated_at": "2025-09-23T08:07:20.337-04:00", "avatar": "https://secure.gravatar.com/avatar/13412722f85b7bc2b5040a75c03ab52f.jpg?s=512&d=https%3A%2F%2Fa.slack-edge.com%2Fdf10d%2Fimg%2Favatars%2Fava_0026-512.png", "custom_css": null}, {"id": 23884, "slack_id": "U09GT04P248", "display_name": "Tharun K", "bio": null, "projects_count": 2, "devlogs_count": 0, "votes_count": 0, "ships_count": 0, "projects": [{"id": 13696, "title": "VenAura ", "devlogs_count": 0, "created_at": "2025-09-23T06:00:30.874-04:00"}, {"id": 13698, "title": "Jarvis", "devlogs_count": 0, "created_at": "2025-09-23T06:34:07.660-04:00"}], "coding_time_seconds": 6775, "coding_time_seconds_today": 0, "balance": "You need to have a pocket watcher badge to view this.", "badges": [], "created_at": "2025-09-23T05:30:45.241-04:00", "updated_at": "2025-09-24T15:00:06.735-04:00", "avatar": "https://secure.gravatar.com/avatar/0690518e9724cc446b20c78d6583853d.jpg?s=512&d=https%3A%2F%2Fa.slack-edge.com%2Fdf10d%2Fimg%2Favatars%2Fava_0010-512.png", "custom_css": null}, {"id": 23885, "slack_id": "U09GT6SCV6G", "display_name": "Ishimwe Yves", "bio": null, "projects_count": 0, "devlogs_count": 0, "votes_count": 0, "ships_count": 0, "projects": [], "coding_time_seconds": 0, "coding_time_seconds_today": 0, "balance": "You need to have a pocket watcher badge to view this.", "badges": [], "created_at": "2025-09-23T07:09:41.988-04:00", "updated_at": "2025-09-23T08:07:20.611-04:00", "avatar": "https://avatars.slack-edge.com/2025-09-23/9579630022097_c2383a72a7f1250be54c_original.jpg", "custom_css": null}, {"id": 23886, "slack_id": "U09G7LENVP1", "display_name": "Samvel", "bio": null, "projects_count": 0, "devlogs_count": 0, "votes_count": 0, "ships_count": 0, "projects": [], "coding_time_seconds": 0, "coding_time_seconds_today": 0, "balance": "You need to have a pocket watcher badge to view this.", "badges": [], "created_at": "2025-09-23T07:52:31.969-04:00", "updated_at": "2025-09-23T14:18:08.798-04:00", "avatar": "https://secure.gravatar.com/avatar/dfa354ba81d2014a1dc00ec2bd26409c.jpg?s=512&d=https%3A%2F%2Fa.slack-edge.com%2Fdf10d%2Fimg%2Favatars%2Fava_0021-512.png", "custom_css": null}, {"id": 23887, "slack_id": "U09GNAQJ602", "display_name": "Saad Sourid", "bio": null, "projects_count": 0, "devlogs_count": 0, "votes_count": 0, "ships_count": 0, "projects": [], "coding_time_seconds": 0, "coding_time_seconds_today": 0, "balance": "You need to have a pocket watcher badge to view this.", "badges": [], "created_at": "2025-09-23T08:16:59.439-04:00", "updated_at": "2025-09-23T14:18:08.926-04:00", "avatar": "https://avatars.slack-edge.com/2025-09-23/9561904141843_e75d8206dc362e91d141_original.png", "custom_css": null}, {"id": 23888, "slack_id": "U09GHSH278B", "display_name": "Sarthak Suri", "bio": "", "projects_count": 0, "devlogs_count": 0, "votes_count": 0, "ships_count": 0, "projects": [], "coding_time_seconds": 0, "coding_time_seconds_today": 0, "balance": "You need to have a pocket watcher badge to view this.", "badges": [], "created_at": "2025-09-23T08:18:05.722-04:00", "updated_at": "2025-09-23T14:18:09.074-04:00", "avatar": "https://avatars.slack-edge.com/2025-09-23/9566293848374_e7c0cca11d7e8dbc30a5_original.jpg", "custom_css": null}, {"id": 23889, "slack_id": "U09G7Q8KJGP", "display_name": "Priyansh dugar", "bio": null, "projects_count": 0, "devlogs_count": 0, "votes_count": 0, "ships_count": 0, "projects": [], "coding_time_seconds": 0, "coding_time_seconds_today": 0, "balance": "You need to have a pocket watcher badge to view this.", "badges": [], "created_at": "2025-09-23T08:18:30.390-04:00", "updated_at": "2025-09-23T14:18:09.213-04:00", "avatar": "https://avatars.slack-edge.com/2025-09-23/9571575333316_30164d5cb1cd8a722c09_original.png", "custom_css": null}, {"id": 23890, "slack_id": "U09HGE5JTNU", "display_name": "jayesh jain", "bio": null, "projects_count": 0, "devlogs_count": 0, "votes_count": 0, "ships_count": 0, "projects": [], "coding_time_seconds": 0, "coding_time_seconds_today": 0, "balance": "You need to have a pocket watcher badge to view this.", "badges": [], "created_at": "2025-09-23T08:19:57.797-04:00", "updated_at": "2025-09-23T14:18:09.386-04:00", "avatar": "https://avatars.slack-edge.com/2025-09-23/9564080610613_d9c8d6306dbe393edd61_original.png", "custom_css": null}, {"id": 23891, "slack_id": "U09GNGQ77V4", "display_name": "Ghunk09", "bio": null, "projects_count": 0, "devlogs_count": 0, "votes_count": 0, "ships_count": 0, "projects": [], "coding_time_seconds": 0, "coding_time_seconds_today": 0, "balance": "You need to have a pocket watcher badge to view this.", "badges": [], "created_at": "2025-09-23T09:12:03.489-04:00", "updated_at": "2025-09-23T14:18:09.490-04:00", "avatar": "https://avatars.slack-edge.com/2025-09-23/9564425842533_0e743139e8340a3bdc87_original.png", "custom_css": null}, {"id": 23892, "slack_id": "U09G84K1N31", "display_name": "Umesh Siraj Adabala", "bio": null, "projects_count": 0, "devlogs_count": 0, "votes_count": 0, "ships_count": 0, "projects": [], "coding_time_seconds": 0, "coding_time_seconds_today": 0, "balance": "You need to have a pocket watcher badge to view this.", "badges": [], "created_at": "2025-09-23T09:16:49.091-04:00", "updated_at": "2025-09-24T07:34:13.741-04:00", "avatar": "https://secure.gravatar.com/avatar/2dfff81cacabf7d1cf72546d589268d0.jpg?s=512&d=https%3A%2F%2Fa.slack-edge.com%2Fdf10d%2Fimg%2Favatars%2Fava_0024-512.png", "custom_css": null}, {"id": 23893, "slack_id": "U09FCJ2NASY", "display_name": "pixelart.dd", "bio": null, "projects_count": 0, "devlogs_count": 0, "votes_count": 0, "ships_count": 0, "projects": [], "coding_time_seconds": 0, "coding_time_seconds_today": 0, "balance": "You need to have a pocket watcher badge to view this.", "badges": [], "created_at": "2025-09-23T10:14:55.263-04:00", "updated_at": "2025-09-23T14:18:09.723-04:00", "avatar": "https://avatars.slack-edge.com/2025-09-23/9595259177472_a05ab407129c7db5d5ca_original.jpg", "custom_css": null}, {"id": 23894, "slack_id": "U09HH9G2USC", "display_name": "Chinmay Nagar", "bio": null, "projects_count": 0, "devlogs_count": 0, "votes_count": 1, "ships_count": 0, "projects": [], "coding_time_seconds": 0, "coding_time_seconds_today": 0, "balance": "You need to have a pocket watcher badge to view this.", "badges": [], "created_at": "2025-09-23T10:25:10.753-04:00", "updated_at": "2025-09-24T13:49:28.646-04:00", "avatar": "https://avatars.slack-edge.com/2025-09-23/9567148233766_c0ae26c759c3cfedcc50_original.gif", "custom_css": null}, {"id": 23895, "slack_id": "U09GP68894J", "display_name": "Nowell Strite", "bio": null, "projects_count": 0, "devlogs_count": 0, "votes_count": 0, "ships_count": 0, "projects": [], "coding_time_seconds": 0, "coding_time_seconds_today": 0, "balance": "You need to have a pocket watcher badge to view this.", "badges": [], "created_at": "2025-09-23T10:34:12.674-04:00", "updated_at": "2025-09-23T14:18:09.921-04:00", "avatar": "https://avatars.slack-edge.com/2025-09-23/9572495454788_d67ee7d5ef3b739a42f9_original.jpg", "custom_css": null}, {"id": 23896, "slack_id": "U092QA6SDC3", "display_name": "Yassen Ahmed Eid", "bio": null, "projects_count": 0, "devlogs_count": 0, "votes_count": 0, "ships_count": 0, "projects": [], "coding_time_seconds": 0, "coding_time_seconds_today": 0, "balance": "You need to have a pocket watcher badge to view this.", "badges": [], "created_at": "2025-09-23T11:21:37.010-04:00", "updated_at": "2025-09-23T14:18:10.022-04:00", "avatar": "https://secure.gravatar.com/avatar/7367d8ac3ca0b607ab49d7abd5be3eaf.jpg?s=512&d=https%3A%2F%2Fa.slack-edge.com%2Fdf10d%2Fimg%2Favatars%2Fava_0012-512.png", "custom_css": null}, {"id": 23897, "slack_id": "U09HHS6S3EU", "display_name": "Aditi", "bio": null, "projects_count": 0, "devlogs_count": 0, "votes_count": 0, "ships_count": 0, "projects": [], "coding_time_seconds": 0, "coding_time_seconds_today": 0, "balance": "You need to have a pocket watcher badge to view this.", "badges": [], "created_at": "2025-09-23T11:42:49.353-04:00", "updated_at": "2025-09-23T14:18:10.126-04:00", "avatar": "https://secure.gravatar.com/avatar/988d330ca843c3adcb3419da4cbea2c1.jpg?s=512&d=https%3A%2F%2Fa.slack-edge.com%2Fdf10d%2Fimg%2Favatars%2Fava_0014-512.png", "custom_css": null}], "pagination": {"page": 1189, "pages": 1192, "count": 23828, "items": 20}}