{"users": [{"id": 2361, "slack_id": "U081H9HBHDH", "display_name": "Ziad Tamer", "bio": null, "projects_count": 0, "devlogs_count": 0, "votes_count": 0, "ships_count": 0, "projects": [], "coding_time_seconds": 0, "coding_time_seconds_today": 0, "balance": "You need to have a pocket watcher badge to view this.", "badges": [], "created_at": "2025-06-16T15:29:09.051-04:00", "updated_at": "2025-07-03T19:21:55.753-04:00", "avatar": "https://secure.gravatar.com/avatar/8134c6ac4abecfd233876e9cc24f2c45.jpg?s=512&d=https%3A%2F%2Fa.slack-edge.com%2Fdf10d%2Fimg%2Favatars%2Fava_0013-512.png", "custom_css": null}, {"id": 2362, "slack_id": "U091Q8E8AKC", "display_name": "Mohamed Aziz Mosbah", "bio": null, "projects_count": 2, "devlogs_count": 0, "votes_count": 0, "ships_count": 0, "projects": [{"id": 235, "title": "web trip", "devlogs_count": 0, "created_at": "2025-06-16T16:03:59.263-04:00"}, {"id": 238, "title": "xo", "devlogs_count": 0, "created_at": "2025-06-16T16:06:03.534-04:00"}], "coding_time_seconds": 607, "coding_time_seconds_today": 0, "balance": "You need to have a pocket watcher badge to view this.", "badges": [], "created_at": "2025-06-16T15:29:11.280-04:00", "updated_at": "2025-07-03T19:21:56.018-04:00", "avatar": "https://secure.gravatar.com/avatar/bc1650b8683479afebc5371d5ecea782.jpg?s=512&d=https%3A%2F%2Fa.slack-edge.com%2Fdf10d%2Fimg%2Favatars%2Fava_0022-512.png", "custom_css": null}, {"id": 2363, "slack_id": "U092CMYK4JU", "display_name": "Aleksandre Gordeladze", "bio": null, "projects_count": 0, "devlogs_count": 0, "votes_count": 0, "ships_count": 0, "projects": [], "coding_time_seconds": 9690, "coding_time_seconds_today": 0, "balance": "You need to have a pocket watcher badge to view this.", "badges": [], "created_at": "2025-06-16T15:29:14.349-04:00", "updated_at": "2025-07-03T19:21:56.291-04:00", "avatar": "https://secure.gravatar.com/avatar/89ab5e76296e76fce3de9fa9c22f39bf.jpg?s=512&d=https%3A%2F%2Fa.slack-edge.com%2Fdf10d%2Fimg%2Favatars%2Fava_0021-512.png", "custom_css": null}, {"id": 2364, "slack_id": "U091Q88RF5G", "display_name": "Timothy", "bio": null, "projects_count": 0, "devlogs_count": 0, "votes_count": 0, "ships_count": 0, "projects": [], "coding_time_seconds": 0, "coding_time_seconds_today": 0, "balance": "You need to have a pocket watcher badge to view this.", "badges": [], "created_at": "2025-06-16T15:29:32.415-04:00", "updated_at": "2025-07-03T19:21:56.574-04:00", "avatar": "https://secure.gravatar.com/avatar/612841d0b3bdbbe1c3fa6de3c1dcdec4.jpg?s=512&d=https%3A%2F%2Fa.slack-edge.com%2Fdf10d%2Fimg%2Favatars%2Fava_0025-512.png", "custom_css": null}, {"id": 2365, "slack_id": "U0918UUPUG7", "display_name": "MARCO ANTONIO MIRANDA MU\u00d1OZ", "bio": null, "projects_count": 0, "devlogs_count": 0, "votes_count": 0, "ships_count": 0, "projects": [], "coding_time_seconds": 0, "coding_time_seconds_today": 0, "balance": "You need to have a pocket watcher badge to view this.", "badges": [], "created_at": "2025-06-16T15:29:45.548-04:00", "updated_at": "2025-07-03T19:21:56.855-04:00", "avatar": "https://avatars.slack-edge.com/2025-06-16/9058309911346_53b81928285dcd638fc7_original.jpg", "custom_css": null}, {"id": 2366, "slack_id": "U091HA999B5", "display_name": "Samolocik46", "bio": null, "projects_count": 1, "devlogs_count": 0, "votes_count": 0, "ships_count": 0, "projects": [{"id": 1869, "title": "RealityCheck AI", "devlogs_count": 0, "created_at": "2025-06-19T13:30:04.868-04:00"}], "coding_time_seconds": 24128, "coding_time_seconds_today": 0, "balance": "You need to have a pocket watcher badge to view this.", "badges": [], "created_at": "2025-06-16T15:30:09.715-04:00", "updated_at": "2025-07-03T19:21:57.122-04:00", "avatar": "https://secure.gravatar.com/avatar/d9afbbc1d74581ae548f4fff61a863db.jpg?s=512&d=https%3A%2F%2Fa.slack-edge.com%2Fdf10d%2Fimg%2Favatars%2Fava_0019-512.png", "custom_css": null}, {"id": 2367, "slack_id": "U091HA6MPD1", "display_name": "Bhoomy Singh", "bio": null, "projects_count": 0, "devlogs_count": 0, "votes_count": 0, "ships_count": 0, "projects": [], "coding_time_seconds": 0, "coding_time_seconds_today": 0, "balance": "You need to have a pocket watcher badge to view this.", "badges": [], "created_at": "2025-06-16T15:30:10.008-04:00", "updated_at": "2025-07-03T19:21:57.389-04:00", "avatar": "https://secure.gravatar.com/avatar/358b2475e03a19e652be0a538ef86b5c.jpg?s=512&d=https%3A%2F%2Fa.slack-edge.com%2Fdf10d%2Fimg%2Favatars%2Fava_0019-512.png", "custom_css": null}, {"id": 2368, "slack_id": "U081SDX2K6K", "display_name": "jsw08", "bio": null, "projects_count": 1, "devlogs_count": 2, "votes_count": 0, "ships_count": 0, "projects": [{"id": 3375, "title": "Wishthat", "devlogs_count": 2, "created_at": "2025-06-24T02:47:51.519-04:00"}], "coding_time_seconds": 401633, "coding_time_seconds_today": 120, "balance": "You need to have a pocket watcher badge to view this.", "badges": [], "created_at": "2025-06-16T15:30:17.015-04:00", "updated_at": "2025-07-31T09:14:12.703-04:00", "avatar": "https://avatars.slack-edge.com/2024-11-24/8073870105653_de17ebdd7b5214c9bbf5_original.png", "custom_css": null}, {"id": 2369, "slack_id": "U091FSX2J6A", "display_name": "Apurva Kumar", "bio": null, "projects_count": 0, "devlogs_count": 0, "votes_count": 0, "ships_count": 0, "projects": [], "coding_time_seconds": 0, "coding_time_seconds_today": 0, "balance": "You need to have a pocket watcher badge to view this.", "badges": [], "created_at": "2025-06-16T15:30:29.404-04:00", "updated_at": "2025-07-03T19:21:57.979-04:00", "avatar": "https://secure.gravatar.com/avatar/6e3d642341cf79647df55ccc49976081.jpg?s=512&d=https%3A%2F%2Fa.slack-edge.com%2Fdf10d%2Fimg%2Favatars%2Fava_0003-512.png", "custom_css": null}, {"id": 2370, "slack_id": "U091QKP2HFE", "display_name": "epsilon", "bio": null, "projects_count": 0, "devlogs_count": 0, "votes_count": 0, "ships_count": 0, "projects": [], "coding_time_seconds": 0, "coding_time_seconds_today": 0, "balance": "You need to have a pocket watcher badge to view this.", "badges": [], "created_at": "2025-06-16T15:30:38.782-04:00", "updated_at": "2025-07-03T19:21:58.257-04:00", "avatar": "https://secure.gravatar.com/avatar/0c60b3eaf259701494e139252a6261fd.jpg?s=512&d=https%3A%2F%2Fa.slack-edge.com%2Fdf10d%2Fimg%2Favatars%2Fava_0015-512.png", "custom_css": null}, {"id": 2371, "slack_id": "U091QKWNLKW", "display_name": "ChaitanyaPy", "bio": null, "projects_count": 2, "devlogs_count": 5, "votes_count": 7, "ships_count": 1, "projects": [{"id": 2241, "title": "bugbrekr.dev", "devlogs_count": 1, "created_at": "2025-06-20T14:30:45.642-04:00"}, {"id": 6872, "title": "LyricOverlay", "devlogs_count": 4, "created_at": "2025-07-17T02:24:37.086-04:00"}], "coding_time_seconds": 47469, "coding_time_seconds_today": 0, "balance": "You need to have a pocket watcher badge to view this.", "badges": [{"name": "Maiden Voyage", "text": "you shipped your first project! the journey begins...", "icon": "\ud83d\udea2"}], "created_at": "2025-06-16T15:30:50.566-04:00", "updated_at": "2025-09-10T22:52:20.614-04:00", "avatar": "https://avatars.slack-edge.com/2025-06-20/9081178510788_baace31b78ad619a3e25_original.jpg", "custom_css": null}, {"id": 2372, "slack_id": "U082H054S31", "display_name": "William Plays0402", "bio": null, "projects_count": 1, "devlogs_count": 2, "votes_count": 20, "ships_count": 1, "projects": [{"id": 7113, "title": "William's Homepage", "devlogs_count": 2, "created_at": "2025-07-19T05:39:02.823-04:00"}], "coding_time_seconds": 76891, "coding_time_seconds_today": 0, "balance": "You need to have a pocket watcher badge to view this.", "badges": [{"name": "Maiden Voyage", "text": "you shipped your first project! the journey begins...", "icon": "\ud83d\udea2"}], "created_at": "2025-06-16T15:30:58.049-04:00", "updated_at": "2025-09-10T22:52:20.641-04:00", "avatar": "https://secure.gravatar.com/avatar/bca5167aac0affc7f538203274c896fc.jpg?s=512&d=https%3A%2F%2Fa.slack-edge.com%2Fdf10d%2Fimg%2Favatars%2Fava_0022-512.png", "custom_css": null}, {"id": 2373, "slack_id": "U091NF5E3M3", "display_name": "Giga Ginger", "bio": null, "projects_count": 0, "devlogs_count": 0, "votes_count": 0, "ships_count": 0, "projects": [], "coding_time_seconds": 0, "coding_time_seconds_today": 0, "balance": "You need to have a pocket watcher badge to view this.", "badges": [], "created_at": "2025-06-16T15:31:51.563-04:00", "updated_at": "2025-07-03T19:21:59.126-04:00", "avatar": "https://secure.gravatar.com/avatar/09d2a56812c8e3adce1814b746d715c3.jpg?s=512&d=https%3A%2F%2Fa.slack-edge.com%2Fdf10d%2Fimg%2Favatars%2Fava_0008-512.png", "custom_css": null}, {"id": 2374, "slack_id": "U08PDGDPR0F", "display_name": "Anika A", "bio": null, "projects_count": 5, "devlogs_count": 35, "votes_count": 20, "ships_count": 2, "projects": [{"id": 1182, "title": "Mind & Method", "devlogs_count": 2, "created_at": "2025-06-17T20:46:06.225-04:00"}, {"id": 1376, "title": "Scioly-Club", "devlogs_count": 3, "created_at": "2025-06-18T12:39:17.602-04:00"}, {"id": 11039, "title": "Dice Game", "devlogs_count": 4, "created_at": "2025-08-12T15:33:51.392-04:00"}, {"id": 8878, "title": "Guess The Jam", "devlogs_count": 21, "created_at": "2025-07-29T14:36:16.697-04:00"}, {"id": 1403, "title": "Anika's Website", "devlogs_count": 5, "created_at": "2025-06-18T13:44:04.712-04:00"}], "coding_time_seconds": 958771, "coding_time_seconds_today": 0, "balance": "You need to have a pocket watcher badge to view this.", "badges": [{"name": "Maiden Voyage", "text": "you shipped your first project! the journey begins...", "icon": "\ud83d\udea2"}], "created_at": "2025-06-16T15:32:06.740-04:00", "updated_at": "2025-09-10T22:52:20.692-04:00", "avatar": "https://avatars.slack-edge.com/2025-07-13/9187211695542_20dfee9369b33ce9e63c_original.jpg", "custom_css": null}, {"id": 2375, "slack_id": "U091900FFGF", "display_name": "Elias", "bio": null, "projects_count": 0, "devlogs_count": 0, "votes_count": 0, "ships_count": 0, "projects": [], "coding_time_seconds": 0, "coding_time_seconds_today": 0, "balance": "You need to have a pocket watcher badge to view this.", "badges": [], "created_at": "2025-06-16T15:32:21.040-04:00", "updated_at": "2025-07-03T19:21:59.681-04:00", "avatar": "https://secure.gravatar.com/avatar/f02d39389fc7d6c7947042f9fc028297.jpg?s=512&d=https%3A%2F%2Fa.slack-edge.com%2Fdf10d%2Fimg%2Favatars%2Fava_0004-512.png", "custom_css": null}, {"id": 2376, "slack_id": "U092CNF531N", "display_name": "Solomon Nderitu", "bio": null, "projects_count": 2, "devlogs_count": 3, "votes_count": 0, "ships_count": 0, "projects": [{"id": 2624, "title": "Python To-Do-Cli", "devlogs_count": 3, "created_at": "2025-06-21T13:45:50.656-04:00"}, {"id": 13660, "title": "Quikka", "devlogs_count": 0, "created_at": "2025-09-22T08:04:35.911-04:00"}], "coding_time_seconds": 268169, "coding_time_seconds_today": 0, "balance": "You need to have a pocket watcher badge to view this.", "badges": [], "created_at": "2025-06-16T15:32:31.044-04:00", "updated_at": "2025-08-27T07:40:15.213-04:00", "avatar": "https://secure.gravatar.com/avatar/d38d7da65e66272a668b0cd035c19944.jpg?s=512&d=https%3A%2F%2Fa.slack-edge.com%2Fdf10d%2Fimg%2Favatars%2Fava_0013-512.png", "custom_css": null}, {"id": 2377, "slack_id": "U0921UYT4QZ", "display_name": "Tracy", "bio": null, "projects_count": 0, "devlogs_count": 0, "votes_count": 0, "ships_count": 0, "projects": [], "coding_time_seconds": 0, "coding_time_seconds_today": 0, "balance": "You need to have a pocket watcher badge to view this.", "badges": [], "created_at": "2025-06-16T15:32:45.087-04:00", "updated_at": "2025-07-03T19:22:00.220-04:00", "avatar": "https://secure.gravatar.com/avatar/e9dc6abc6f0eb3e71127171491bad85e.jpg?s=512&d=https%3A%2F%2Fa.slack-edge.com%2Fdf10d%2Fimg%2Favatars%2Fava_0016-512.png", "custom_css": null}, {"id": 2378, "slack_id": "U082464QNPP", "display_name": "Hooded", "bio": null, "projects_count": 2, "devlogs_count": 7, "votes_count": 2, "ships_count": 0, "projects": [{"id": 999, "title": "Discord webhook updater", "devlogs_count": 0, "created_at": "2025-06-17T13:16:15.394-04:00"}, {"id": 13433, "title": "Planner to homework parser", "devlogs_count": 7, "created_at": "2025-09-16T09:42:25.504-04:00"}], "coding_time_seconds": 79864, "coding_time_seconds_today": 2906, "balance": "You need to have a pocket watcher badge to view this.", "badges": [], "created_at": "2025-06-16T15:32:47.830-04:00", "updated_at": "2025-08-15T05:16:42.731-04:00", "avatar": "https://avatars.slack-edge.com/2024-11-23/8068447766582_1c265d6e9b230a8f3985_original.jpg", "custom_css": null}, {"id": 2379, "slack_id": "U08RP1Z64EN", "display_name": "Cristian Mihai", "bio": null, "projects_count": 2, "devlogs_count": 6, "votes_count": 21, "ships_count": 2, "projects": [{"id": 10141, "title": "JustTouch", "devlogs_count": 1, "created_at": "2025-08-04T10:26:27.023-04:00"}, {"id": 7050, "title": "HAtui", "devlogs_count": 5, "created_at": "2025-07-18T14:39:38.510-04:00"}], "coding_time_seconds": 185165, "coding_time_seconds_today": 0, "balance": "You need to have a pocket watcher badge to view this.", "badges": [{"name": "Maiden Voyage", "text": "you shipped your first project! the journey begins...", "icon": "\ud83d\udea2"}], "created_at": "2025-06-16T15:32:58.052-04:00", "updated_at": "2025-09-14T07:07:47.033-04:00", "avatar": "https://avatars.slack-edge.com/2025-05-09/8869132021317_2fcc2507da5cab9f6f67_original.jpg", "custom_css": null}, {"id": 2380, "slack_id": "U0917ERDL5D", "display_name": "Esteban", "bio": null, "projects_count": 0, "devlogs_count": 0, "votes_count": 0, "ships_count": 0, "projects": [], "coding_time_seconds": 0, "coding_time_seconds_today": 0, "balance": "You need to have a pocket watcher badge to view this.", "badges": [], "created_at": "2025-06-16T15:33:15.868-04:00", "updated_at": "2025-07-03T19:22:01.069-04:00", "avatar": "https://secure.gravatar.com/avatar/d728e0ac389371cae66b6575fcf2f10a.jpg?s=512&d=https%3A%2F%2Fa.slack-edge.com%2Fdf10d%2Fimg%2Favatars%2Fava_0024-512.png", "custom_css": null}], "pagination": {"page": 119, "pages": 1192, "count": 23828, "items": 20}}