{"users": [{"id": 23898, "slack_id": "U09G96R8QFR", "display_name": "Kate Libby", "bio": null, "projects_count": 0, "devlogs_count": 0, "votes_count": 0, "ships_count": 0, "projects": [], "coding_time_seconds": 0, "coding_time_seconds_today": 0, "balance": "You need to have a pocket watcher badge to view this.", "badges": [], "created_at": "2025-09-23T11:47:53.233-04:00", "updated_at": "2025-09-23T14:18:10.232-04:00", "avatar": "https://secure.gravatar.com/avatar/45143a2b55fbab7639d0bdd70536a6f0.jpg?s=512&d=https%3A%2F%2Fa.slack-edge.com%2Fdf10d%2Fimg%2Favatars%2Fava_0021-512.png", "custom_css": null}, {"id": 23899, "slack_id": "U09GV7VA9V2", "display_name": "Kevin Chen", "bio": null, "projects_count": 0, "devlogs_count": 0, "votes_count": 0, "ships_count": 0, "projects": [], "coding_time_seconds": 0, "coding_time_seconds_today": 0, "balance": "You need to have a pocket watcher badge to view this.", "badges": [], "created_at": "2025-09-23T12:14:26.514-04:00", "updated_at": "2025-09-23T14:18:10.337-04:00", "avatar": "https://avatars.slack-edge.com/2025-09-23/9565779067205_fce60b60e3d48a14691e_original.png", "custom_css": null}, {"id": 23900, "slack_id": "U09HJHDQ40Y", "display_name": "Elba", "bio": null, "projects_count": 0, "devlogs_count": 0, "votes_count": 0, "ships_count": 0, "projects": [], "coding_time_seconds": 0, "coding_time_seconds_today": 0, "balance": "You need to have a pocket watcher badge to view this.", "badges": [], "created_at": "2025-09-23T13:23:29.677-04:00", "updated_at": "2025-09-23T14:18:14.518-04:00", "avatar": "https://secure.gravatar.com/avatar/491bb5c3dd2233eb6541d73893ce9fba.jpg?s=512&d=https%3A%2F%2Fa.slack-edge.com%2Fdf10d%2Fimg%2Favatars%2Fava_0015-512.png", "custom_css": null}, {"id": 23901, "slack_id": "U09GLG46XTM", "display_name": "Lucas Ferguson", "bio": null, "projects_count": 0, "devlogs_count": 0, "votes_count": 0, "ships_count": 0, "projects": [], "coding_time_seconds": 0, "coding_time_seconds_today": 0, "balance": "You need to have a pocket watcher badge to view this.", "badges": [], "created_at": "2025-09-23T14:33:00.646-04:00", "updated_at": "2025-09-23T20:07:34.126-04:00", "avatar": "https://secure.gravatar.com/avatar/2902bddf11645dfc65dc956ad499134b.jpg?s=512&d=https%3A%2F%2Fa.slack-edge.com%2Fdf10d%2Fimg%2Favatars%2Fava_0013-512.png", "custom_css": null}, {"id": 23902, "slack_id": "U09GDJ88S59", "display_name": "Hassan slack", "bio": null, "projects_count": 0, "devlogs_count": 0, "votes_count": 0, "ships_count": 0, "projects": [], "coding_time_seconds": 0, "coding_time_seconds_today": 0, "balance": "You need to have a pocket watcher badge to view this.", "badges": [], "created_at": "2025-09-23T14:44:44.590-04:00", "updated_at": "2025-09-23T20:07:34.244-04:00", "avatar": "https://secure.gravatar.com/avatar/48dd1b998c588c53c81dbb4acf274595.jpg?s=512&d=https%3A%2F%2Fa.slack-edge.com%2Fdf10d%2Fimg%2Favatars%2Fava_0018-512.png", "custom_css": null}, {"id": 23903, "slack_id": "U09GLJG05EX", "display_name": "Aditya Gopi", "bio": null, "projects_count": 0, "devlogs_count": 0, "votes_count": 0, "ships_count": 0, "projects": [], "coding_time_seconds": 0, "coding_time_seconds_today": 0, "balance": "You need to have a pocket watcher badge to view this.", "badges": [], "created_at": "2025-09-23T14:47:02.832-04:00", "updated_at": "2025-09-23T20:07:34.433-04:00", "avatar": "https://secure.gravatar.com/avatar/ee52632f3336fd7542dea0ef2063685c.jpg?s=512&d=https%3A%2F%2Fa.slack-edge.com%2Fdf10d%2Fimg%2Favatars%2Fava_0026-512.png", "custom_css": null}, {"id": 23904, "slack_id": "U09GR8X4L10", "display_name": "ToasterPanic", "bio": null, "projects_count": 0, "devlogs_count": 0, "votes_count": 0, "ships_count": 0, "projects": [], "coding_time_seconds": 0, "coding_time_seconds_today": 0, "balance": "You need to have a pocket watcher badge to view this.", "badges": [], "created_at": "2025-09-23T15:07:07.197-04:00", "updated_at": "2025-09-23T20:07:34.542-04:00", "avatar": "https://secure.gravatar.com/avatar/9e92cabd3456e68f71342b5c65fdbfa7.jpg?s=512&d=https%3A%2F%2Fa.slack-edge.com%2Fdf10d%2Fimg%2Favatars%2Fava_0001-512.png", "custom_css": null}, {"id": 23905, "slack_id": "U09HL3RE53J", "display_name": "Brian Nguyen", "bio": null, "projects_count": 0, "devlogs_count": 0, "votes_count": 0, "ships_count": 0, "projects": [], "coding_time_seconds": 2497, "coding_time_seconds_today": 0, "balance": "You need to have a pocket watcher badge to view this.", "badges": [], "created_at": "2025-09-23T17:55:40.534-04:00", "updated_at": "2025-09-23T20:07:34.672-04:00", "avatar": "https://avatars.slack-edge.com/2025-09-23/9570281876674_2ff20829560f086892b2_original.png", "custom_css": null}, {"id": 23906, "slack_id": "U092Y0PT70T", "display_name": "Sakshi Kanwar", "bio": null, "projects_count": 0, "devlogs_count": 0, "votes_count": 0, "ships_count": 0, "projects": [], "coding_time_seconds": 0, "coding_time_seconds_today": 0, "balance": "You need to have a pocket watcher badge to view this.", "badges": [], "created_at": "2025-09-23T19:53:46.510-04:00", "updated_at": "2025-09-24T02:06:24.387-04:00", "avatar": "https://secure.gravatar.com/avatar/db6bc959b2aebcf1dc3d2c92c9d7f66d.jpg?s=512&d=https%3A%2F%2Fa.slack-edge.com%2Fdf10d%2Fimg%2Favatars%2Fava_0007-512.png", "custom_css": null}, {"id": 23907, "slack_id": "U09GST58422", "display_name": "William Wallace", "bio": null, "projects_count": 0, "devlogs_count": 0, "votes_count": 0, "ships_count": 0, "projects": [], "coding_time_seconds": 0, "coding_time_seconds_today": 0, "balance": "You need to have a pocket watcher badge to view this.", "badges": [], "created_at": "2025-09-23T21:36:54.238-04:00", "updated_at": "2025-09-24T02:06:24.497-04:00", "avatar": "https://avatars.slack-edge.com/2025-09-23/9598929121840_d8ddaad59439be3c27cf_original.png", "custom_css": null}, {"id": 23908, "slack_id": "U09AX2F6MLK", "display_name": "arslaan_11", "bio": null, "projects_count": 0, "devlogs_count": 0, "votes_count": 0, "ships_count": 0, "projects": [], "coding_time_seconds": 0, "coding_time_seconds_today": 0, "balance": "You need to have a pocket watcher badge to view this.", "badges": [], "created_at": "2025-09-23T22:30:16.075-04:00", "updated_at": "2025-09-24T02:06:24.602-04:00", "avatar": "https://secure.gravatar.com/avatar/f911f102976fb22656a9ab92ad9ccd20.jpg?s=512&d=https%3A%2F%2Fa.slack-edge.com%2Fdf10d%2Fimg%2Favatars%2Fava_0006-512.png", "custom_css": null}, {"id": 23909, "slack_id": "U09HM42DB7A", "display_name": "Gavin Geller", "bio": null, "projects_count": 0, "devlogs_count": 0, "votes_count": 0, "ships_count": 0, "projects": [], "coding_time_seconds": 0, "coding_time_seconds_today": 0, "balance": "You need to have a pocket watcher badge to view this.", "badges": [], "created_at": "2025-09-23T22:42:52.231-04:00", "updated_at": "2025-09-24T02:06:24.713-04:00", "avatar": "https://avatars.slack-edge.com/2025-09-23/9599147918912_22ea153207e49b795284_original.png", "custom_css": null}, {"id": 23910, "slack_id": "U09GTF70AH0", "display_name": "Divyansh Raj Soni", "bio": null, "projects_count": 0, "devlogs_count": 0, "votes_count": 0, "ships_count": 0, "projects": [], "coding_time_seconds": 0, "coding_time_seconds_today": 0, "balance": "You need to have a pocket watcher badge to view this.", "badges": [], "created_at": "2025-09-23T23:19:39.222-04:00", "updated_at": "2025-09-24T02:06:24.828-04:00", "avatar": "https://avatars.slack-edge.com/2025-09-23/9568900940853_073347d6d6b62ad129a7_original.jpg", "custom_css": null}, {"id": 23911, "slack_id": "U09GRD2SC7L", "display_name": "Dlaavz Vregslich", "bio": null, "projects_count": 0, "devlogs_count": 0, "votes_count": 0, "ships_count": 0, "projects": [], "coding_time_seconds": 0, "coding_time_seconds_today": 0, "balance": "You need to have a pocket watcher badge to view this.", "badges": [], "created_at": "2025-09-24T00:40:54.367-04:00", "updated_at": "2025-09-24T02:06:24.947-04:00", "avatar": "https://avatars.slack-edge.com/2025-09-23/9567244717891_39cead4fd06e6ff6885e_original.png", "custom_css": null}, {"id": 23912, "slack_id": "U09G8MYTJBH", "display_name": "catwearingcoat", "bio": null, "projects_count": 0, "devlogs_count": 0, "votes_count": 0, "ships_count": 0, "projects": [], "coding_time_seconds": 0, "coding_time_seconds_today": 0, "balance": "You need to have a pocket watcher badge to view this.", "badges": [], "created_at": "2025-09-24T00:59:21.752-04:00", "updated_at": "2025-09-24T02:06:25.064-04:00", "avatar": "https://secure.gravatar.com/avatar/e4757ba4e0bfbe381fe71acbc9d56dbc.jpg?s=512&d=https%3A%2F%2Fa.slack-edge.com%2Fdf10d%2Fimg%2Favatars%2Fava_0004-512.png", "custom_css": null}, {"id": 23913, "slack_id": "U09D6R9MBCZ", "display_name": "PROJECT TE", "bio": null, "projects_count": 0, "devlogs_count": 0, "votes_count": 0, "ships_count": 0, "projects": [], "coding_time_seconds": 0, "coding_time_seconds_today": 0, "balance": "You need to have a pocket watcher badge to view this.", "badges": [], "created_at": "2025-09-24T04:57:03.632-04:00", "updated_at": "2025-09-24T14:07:23.633-04:00", "avatar": "https://secure.gravatar.com/avatar/2815874f2a7b2e3a9a6b13e0e8df18a8.jpg?s=512&d=https%3A%2F%2Fa.slack-edge.com%2Fdf10d%2Fimg%2Favatars%2Fava_0005-512.png", "custom_css": null}, {"id": 23914, "slack_id": "U08B0F2LVRP", "display_name": "Haiqa Shahzad", "bio": null, "projects_count": 0, "devlogs_count": 0, "votes_count": 0, "ships_count": 0, "projects": [], "coding_time_seconds": 9292, "coding_time_seconds_today": 4994, "balance": "You need to have a pocket watcher badge to view this.", "badges": [], "created_at": "2025-09-24T06:35:29.433-04:00", "updated_at": "2025-09-24T06:38:24.689-04:00", "avatar": "https://secure.gravatar.com/avatar/f015b9172f2a387d746eaea94fdb85bf.jpg?s=512&d=https%3A%2F%2Fa.slack-edge.com%2Fdf10d%2Fimg%2Favatars%2Fava_0016-512.png", "custom_css": null}, {"id": 23915, "slack_id": "U09GT65JGNR", "display_name": "ishaan", "bio": null, "projects_count": 0, "devlogs_count": 0, "votes_count": 0, "ships_count": 0, "projects": [], "coding_time_seconds": 0, "coding_time_seconds_today": 0, "balance": "You need to have a pocket watcher badge to view this.", "badges": [], "created_at": "2025-09-24T08:04:41.255-04:00", "updated_at": "2025-09-24T14:07:23.842-04:00", "avatar": "https://secure.gravatar.com/avatar/565ca46efe2847767229f8c40e5863dc.jpg?s=512&d=https%3A%2F%2Fa.slack-edge.com%2Fdf10d%2Fimg%2Favatars%2Fava_0024-512.png", "custom_css": null}, {"id": 23916, "slack_id": "U09D9QRPP24", "display_name": "Praneel Shanmugam", "bio": null, "projects_count": 0, "devlogs_count": 0, "votes_count": 0, "ships_count": 0, "projects": [], "coding_time_seconds": 0, "coding_time_seconds_today": 0, "balance": "You need to have a pocket watcher badge to view this.", "badges": [], "created_at": "2025-09-24T08:53:10.362-04:00", "updated_at": "2025-09-24T14:07:23.932-04:00", "avatar": "https://avatars.slack-edge.com/2025-09-24/9574429406642_c8f6c0dbb272e733c6f5_original.png", "custom_css": null}, {"id": 23917, "slack_id": "U09GS1QBY3V", "display_name": "Sanjok Karki", "bio": null, "projects_count": 0, "devlogs_count": 0, "votes_count": 0, "ships_count": 0, "projects": [], "coding_time_seconds": 0, "coding_time_seconds_today": 0, "balance": "You need to have a pocket watcher badge to view this.", "badges": [], "created_at": "2025-09-24T09:29:35.826-04:00", "updated_at": "2025-09-24T09:29:46.047-04:00", "avatar": "https://secure.gravatar.com/avatar/68990d52fd42d8db8ce4ee8cc310a81e.jpg?s=512&d=https%3A%2F%2Fa.slack-edge.com%2Fdf10d%2Fimg%2Favatars%2Fava_0024-512.png", "custom_css": null}], "pagination": {"page": 1190, "pages": 1192, "count": 23828, "items": 20}}