{"users": [{"id": 23918, "slack_id": "U09HJ4T7LJU", "display_name": "Madelyn K", "bio": null, "projects_count": 0, "devlogs_count": 0, "votes_count": 0, "ships_count": 0, "projects": [], "coding_time_seconds": 0, "coding_time_seconds_today": 0, "balance": "You need to have a pocket watcher badge to view this.", "badges": [], "created_at": "2025-09-24T11:42:29.183-04:00", "updated_at": "2025-09-24T14:07:24.118-04:00", "avatar": "https://secure.gravatar.com/avatar/72b196197f37cd585527e0763525752f.jpg?s=512&d=https%3A%2F%2Fa.slack-edge.com%2Fdf10d%2Fimg%2Favatars%2Fava_0007-512.png", "custom_css": null}, {"id": 23919, "slack_id": "U09HBBB6R09", "display_name": "maxpixels", "bio": null, "projects_count": 0, "devlogs_count": 0, "votes_count": 0, "ships_count": 0, "projects": [], "coding_time_seconds": 0, "coding_time_seconds_today": 0, "balance": "You need to have a pocket watcher badge to view this.", "badges": [], "created_at": "2025-09-24T12:25:43.477-04:00", "updated_at": "2025-09-24T14:07:24.228-04:00", "avatar": "https://secure.gravatar.com/avatar/2b7dfd3bf6cbead3d8135ccb0391e2e3.jpg?s=512&d=https%3A%2F%2Fa.slack-edge.com%2Fdf10d%2Fimg%2Favatars%2Fava_0022-512.png", "custom_css": null}, {"id": 23920, "slack_id": "U09GTKP5TSP", "display_name": "Ali Salman", "bio": null, "projects_count": 0, "devlogs_count": 0, "votes_count": 0, "ships_count": 0, "projects": [], "coding_time_seconds": 0, "coding_time_seconds_today": 0, "balance": "You need to have a pocket watcher badge to view this.", "badges": [], "created_at": "2025-09-24T12:49:38.210-04:00", "updated_at": "2025-09-24T14:07:24.336-04:00", "avatar": "https://avatars.slack-edge.com/2025-09-24/9589556713233_2222b58adc4b76fc0d35_original.jpg", "custom_css": null}, {"id": 23921, "slack_id": "U09GRMX06BA", "display_name": "Coolbean", "bio": null, "projects_count": 0, "devlogs_count": 0, "votes_count": 0, "ships_count": 0, "projects": [], "coding_time_seconds": 0, "coding_time_seconds_today": 0, "balance": "You need to have a pocket watcher badge to view this.", "badges": [], "created_at": "2025-09-24T13:02:13.186-04:00", "updated_at": "2025-09-24T14:07:24.436-04:00", "avatar": "https://secure.gravatar.com/avatar/5dac84aca9753538609d6177d85dc9ec.jpg?s=512&d=https%3A%2F%2Fa.slack-edge.com%2Fdf10d%2Fimg%2Favatars%2Fava_0012-512.png", "custom_css": null}, {"id": 23922, "slack_id": "U09GYAJ83RQ", "display_name": "Charlie Meier", "bio": null, "projects_count": 0, "devlogs_count": 0, "votes_count": 0, "ships_count": 0, "projects": [], "coding_time_seconds": 0, "coding_time_seconds_today": 0, "balance": "You need to have a pocket watcher badge to view this.", "badges": [], "created_at": "2025-09-24T13:07:56.201-04:00", "updated_at": "2025-09-24T14:07:24.539-04:00", "avatar": "https://secure.gravatar.com/avatar/caf018164b460fc534c64b141e2f55ff.jpg?s=512&d=https%3A%2F%2Fa.slack-edge.com%2Fdf10d%2Fimg%2Favatars%2Fava_0015-512.png", "custom_css": null}, {"id": 23923, "slack_id": "U09GTPYEECB", "display_name": "Levi Carson", "bio": null, "projects_count": 0, "devlogs_count": 0, "votes_count": 0, "ships_count": 0, "projects": [], "coding_time_seconds": 5, "coding_time_seconds_today": 0, "balance": "You need to have a pocket watcher badge to view this.", "badges": [], "created_at": "2025-09-24T13:08:10.296-04:00", "updated_at": "2025-09-24T14:07:24.643-04:00", "avatar": "https://avatars.slack-edge.com/2025-09-24/9603846781584_87be0e6c64ddf9742e90_original.png", "custom_css": null}, {"id": 23924, "slack_id": "U09HBLB3WQZ", "display_name": "Emily", "bio": null, "projects_count": 0, "devlogs_count": 0, "votes_count": 0, "ships_count": 0, "projects": [], "coding_time_seconds": 0, "coding_time_seconds_today": 0, "balance": "You need to have a pocket watcher badge to view this.", "badges": [], "created_at": "2025-09-24T13:09:43.673-04:00", "updated_at": "2025-09-24T14:07:24.743-04:00", "avatar": "https://secure.gravatar.com/avatar/9b9bf3c38488ca5b1b8aa8a616a74318.jpg?s=512&d=https%3A%2F%2Fa.slack-edge.com%2Fdf10d%2Fimg%2Favatars%2Fava_0009-512.png", "custom_css": null}, {"id": 23925, "slack_id": "U09H34MGX2Q", "display_name": "Frances Hegouaburu", "bio": null, "projects_count": 0, "devlogs_count": 0, "votes_count": 0, "ships_count": 0, "projects": [], "coding_time_seconds": 0, "coding_time_seconds_today": 0, "balance": "You need to have a pocket watcher badge to view this.", "badges": [], "created_at": "2025-09-24T13:09:58.887-04:00", "updated_at": "2025-09-24T14:07:24.852-04:00", "avatar": "https://avatars.slack-edge.com/2025-09-24/9575931084630_6ca0582b8a373f43b8b4_original.jpg", "custom_css": null}, {"id": 23926, "slack_id": "U09HBNUB36V", "display_name": "Ethan", "bio": null, "projects_count": 0, "devlogs_count": 0, "votes_count": 0, "ships_count": 0, "projects": [], "coding_time_seconds": 0, "coding_time_seconds_today": 0, "balance": "You need to have a pocket watcher badge to view this.", "badges": [], "created_at": "2025-09-24T13:22:54.778-04:00", "updated_at": "2025-09-24T14:07:28.986-04:00", "avatar": "https://secure.gravatar.com/avatar/386f0d151cf41468c36ac51dda69cac8.jpg?s=512&d=https%3A%2F%2Fa.slack-edge.com%2Fdf10d%2Fimg%2Favatars%2Fava_0016-512.png", "custom_css": null}, {"id": 23927, "slack_id": "U08495YHQ1L", "display_name": "Arvind Techguy", "bio": null, "projects_count": 0, "devlogs_count": 0, "votes_count": 0, "ships_count": 0, "projects": [], "coding_time_seconds": 96, "coding_time_seconds_today": 614, "balance": "You need to have a pocket watcher badge to view this.", "badges": [], "created_at": "2025-09-24T13:30:48.253-04:00", "updated_at": "2025-09-24T22:04:32.943-04:00", "avatar": "https://avatars.slack-edge.com/2025-09-19/9575543964496_c07e4b5beefc1eaadc50_original.png", "custom_css": null}, {"id": 23928, "slack_id": "U09GSM7NQJX", "display_name": "Maedot Ayalew", "bio": null, "projects_count": 0, "devlogs_count": 0, "votes_count": 0, "ships_count": 0, "projects": [], "coding_time_seconds": 0, "coding_time_seconds_today": 0, "balance": "You need to have a pocket watcher badge to view this.", "badges": [], "created_at": "2025-09-24T15:59:48.326-04:00", "updated_at": "2025-09-24T15:59:48.326-04:00", "avatar": "https://secure.gravatar.com/avatar/8514e41a4b2d04b30e22eaad09b131cd.jpg?s=192&d=https%3A%2F%2Fa.slack-edge.com%2Fdf10d%2Fimg%2Favatars%2Fava_0011-192.png", "custom_css": null}, {"id": 23929, "slack_id": "U09GZUFGD34", "display_name": "Sahil Ghosh", "bio": null, "projects_count": 1, "devlogs_count": 0, "votes_count": 1, "ships_count": 0, "projects": [{"id": 13748, "title": "rippl", "devlogs_count": 0, "created_at": "2025-09-24T17:52:59.989-04:00"}], "coding_time_seconds": 299, "coding_time_seconds_today": 0, "balance": "You need to have a pocket watcher badge to view this.", "badges": [], "created_at": "2025-09-24T17:21:54.225-04:00", "updated_at": "2025-09-24T17:44:07.793-04:00", "avatar": "https://avatars.slack-edge.com/2025-09-24/9577973459010_1fcd26f9229c007465fb_192.jpg", "custom_css": null}, {"id": 23930, "slack_id": "U09EGR4KL3G", "display_name": "Nada", "bio": null, "projects_count": 0, "devlogs_count": 0, "votes_count": 0, "ships_count": 0, "projects": [], "coding_time_seconds": 0, "coding_time_seconds_today": 0, "balance": "You need to have a pocket watcher badge to view this.", "badges": [], "created_at": "2025-09-24T17:46:25.074-04:00", "updated_at": "2025-09-24T17:46:25.074-04:00", "avatar": "https://secure.gravatar.com/avatar/617c4eff4e4b8d02edb451b727d2dc6e.jpg?s=192&d=https%3A%2F%2Fa.slack-edge.com%2Fdf10d%2Fimg%2Favatars%2Fava_0001-192.png", "custom_css": null}, {"id": 23931, "slack_id": "U09HB35KPPB", "display_name": "Nishka", "bio": null, "projects_count": 0, "devlogs_count": 0, "votes_count": 0, "ships_count": 0, "projects": [], "coding_time_seconds": 0, "coding_time_seconds_today": 0, "balance": "You need to have a pocket watcher badge to view this.", "badges": [], "created_at": "2025-09-24T18:06:39.233-04:00", "updated_at": "2025-09-24T18:06:39.545-04:00", "avatar": "https://secure.gravatar.com/avatar/77b7f7d21dffac2b14ad4fcc69433943.jpg?s=192&d=https%3A%2F%2Fa.slack-edge.com%2Fdf10d%2Fimg%2Favatars%2Fava_0004-192.png", "custom_css": null}, {"id": 23932, "slack_id": "U09HLBG377S", "display_name": "Mrs.Quan", "bio": null, "projects_count": 0, "devlogs_count": 0, "votes_count": 0, "ships_count": 0, "projects": [], "coding_time_seconds": 0, "coding_time_seconds_today": 0, "balance": "You need to have a pocket watcher badge to view this.", "badges": [], "created_at": "2025-09-24T18:46:33.256-04:00", "updated_at": "2025-09-24T18:46:33.256-04:00", "avatar": "https://secure.gravatar.com/avatar/a5cfdbd4d68fe133c383e7d188ff7901.jpg?s=192&d=https%3A%2F%2Fa.slack-edge.com%2Fdf10d%2Fimg%2Favatars%2Fava_0022-192.png", "custom_css": null}, {"id": 23933, "slack_id": "U09FRSYLB50", "display_name": "Goteilor", "bio": null, "projects_count": 0, "devlogs_count": 0, "votes_count": 0, "ships_count": 0, "projects": [], "coding_time_seconds": 0, "coding_time_seconds_today": 0, "balance": "You need to have a pocket watcher badge to view this.", "badges": [], "created_at": "2025-09-24T19:54:13.774-04:00", "updated_at": "2025-09-24T19:54:13.774-04:00", "avatar": "https://secure.gravatar.com/avatar/2daf27a2e5bcea6711271d4d6ceb1e6f.jpg?s=192&d=https%3A%2F%2Fa.slack-edge.com%2Fdf10d%2Fimg%2Favatars%2Fava_0024-192.png", "custom_css": null}, {"id": 23934, "slack_id": "U09HDR1EN1F", "display_name": "Kavin Prabhakaran", "bio": null, "projects_count": 0, "devlogs_count": 0, "votes_count": 0, "ships_count": 0, "projects": [], "coding_time_seconds": 0, "coding_time_seconds_today": 0, "balance": "You need to have a pocket watcher badge to view this.", "badges": [], "created_at": "2025-09-24T20:08:59.472-04:00", "updated_at": "2025-09-24T20:08:59.472-04:00", "avatar": "https://secure.gravatar.com/avatar/ae8b506de9a51957905072312c430953.jpg?s=192&d=https%3A%2F%2Fa.slack-edge.com%2Fdf10d%2Fimg%2Favatars%2Fava_0007-192.png", "custom_css": null}, {"id": 23935, "slack_id": "U09H03F06DU", "display_name": "Pranav Srikar Shivva", "bio": null, "projects_count": 0, "devlogs_count": 0, "votes_count": 0, "ships_count": 0, "projects": [], "coding_time_seconds": 0, "coding_time_seconds_today": 0, "balance": "You need to have a pocket watcher badge to view this.", "badges": [], "created_at": "2025-09-24T20:46:14.140-04:00", "updated_at": "2025-09-24T20:53:45.967-04:00", "avatar": "https://avatars.slack-edge.com/2025-09-24/9574004905155_6c18bdea738687f25482_192.jpg", "custom_css": null}, {"id": 23936, "slack_id": "U09H09ANPGE", "display_name": "Nhat Nguyen", "bio": null, "projects_count": 0, "devlogs_count": 0, "votes_count": 0, "ships_count": 0, "projects": [], "coding_time_seconds": 3243, "coding_time_seconds_today": 0, "balance": "You need to have a pocket watcher badge to view this.", "badges": [], "created_at": "2025-09-24T21:07:15.329-04:00", "updated_at": "2025-09-24T21:21:31.636-04:00", "avatar": "https://secure.gravatar.com/avatar/733879379df7a90d780f382aa3a2fbd6.jpg?s=192&d=https%3A%2F%2Fa.slack-edge.com%2Fdf10d%2Fimg%2Favatars%2Fava_0006-192.png", "custom_css": null}, {"id": 23937, "slack_id": "U09FXRKT7AB", "display_name": "Arsalan Khan", "bio": null, "projects_count": 0, "devlogs_count": 0, "votes_count": 0, "ships_count": 0, "projects": [], "coding_time_seconds": 0, "coding_time_seconds_today": 0, "balance": "You need to have a pocket watcher badge to view this.", "badges": [], "created_at": "2025-09-24T21:36:48.031-04:00", "updated_at": "2025-09-24T22:44:13.811-04:00", "avatar": "https://avatars.slack-edge.com/2025-09-24/9592173855361_369aa37d676224179b5b_192.jpg", "custom_css": null}], "pagination": {"page": 1191, "pages": 1192, "count": 23828, "items": 20}}