{"users": [{"id": 23938, "slack_id": "U09FM5QKB5E", "display_name": "larry", "bio": null, "projects_count": 0, "devlogs_count": 0, "votes_count": 0, "ships_count": 0, "projects": [], "coding_time_seconds": 240, "coding_time_seconds_today": 0, "balance": "You need to have a pocket watcher badge to view this.", "badges": [], "created_at": "2025-09-24T21:55:35.395-04:00", "updated_at": "2025-09-24T21:56:15.485-04:00", "avatar": "https://secure.gravatar.com/avatar/b6bb0bfce1b0644cbfd67c7a82da3dc5.jpg?s=512&d=https%3A%2F%2Fa.slack-edge.com%2Fdf10d%2Fimg%2Favatars%2Fava_0004-512.png", "custom_css": null}, {"id": 23939, "slack_id": "U09GCQ3H4P9", "display_name": "David Mejia", "bio": null, "projects_count": 0, "devlogs_count": 0, "votes_count": 0, "ships_count": 0, "projects": [], "coding_time_seconds": 0, "coding_time_seconds_today": 0, "balance": "You need to have a pocket watcher badge to view this.", "badges": [], "created_at": "2025-09-24T23:11:33.781-04:00", "updated_at": "2025-09-24T23:11:33.781-04:00", "avatar": "https://secure.gravatar.com/avatar/8787cdd75fc3dec720262ede789d5366.jpg?s=192&d=https%3A%2F%2Fa.slack-edge.com%2Fdf10d%2Fimg%2Favatars%2Fava_0023-192.png", "custom_css": null}, {"id": 23940, "slack_id": "U09H15KPC06", "display_name": "Ashvika Sharma", "bio": null, "projects_count": 0, "devlogs_count": 0, "votes_count": 0, "ships_count": 0, "projects": [], "coding_time_seconds": 0, "coding_time_seconds_today": 0, "balance": "You need to have a pocket watcher badge to view this.", "badges": [], "created_at": "2025-09-25T01:26:29.336-04:00", "updated_at": "2025-09-25T01:26:29.336-04:00", "avatar": "https://secure.gravatar.com/avatar/ed67903f8a7b3a915e467131c1f9cd94.jpg?s=192&d=https%3A%2F%2Fa.slack-edge.com%2Fdf10d%2Fimg%2Favatars%2Fava_0017-192.png", "custom_css": null}, {"id": 23941, "slack_id": "U09GYM6BLR3", "display_name": "shivam Kumar", "bio": null, "projects_count": 0, "devlogs_count": 0, "votes_count": 0, "ships_count": 0, "projects": [], "coding_time_seconds": 0, "coding_time_seconds_today": 0, "balance": "You need to have a pocket watcher badge to view this.", "badges": [], "created_at": "2025-09-25T02:05:09.776-04:00", "updated_at": "2025-09-25T02:05:09.776-04:00", "avatar": "https://avatars.slack-edge.com/2025-09-24/9564544939463_d22cf2b2ac324006cc70_192.jpg", "custom_css": null}, {"id": 23942, "slack_id": "U09GYNDR50V", "display_name": "Debanshu", "bio": null, "projects_count": 0, "devlogs_count": 0, "votes_count": 0, "ships_count": 0, "projects": [], "coding_time_seconds": 0, "coding_time_seconds_today": 0, "balance": "You need to have a pocket watcher badge to view this.", "badges": [], "created_at": "2025-09-25T02:13:25.063-04:00", "updated_at": "2025-09-25T02:13:25.063-04:00", "avatar": "https://secure.gravatar.com/avatar/a3b8a8bfd3c8ce0183391f1e6b8f9972.jpg?s=192&d=https%3A%2F%2Fa.slack-edge.com%2Fdf10d%2Fimg%2Favatars%2Fava_0020-192.png", "custom_css": null}, {"id": 23943, "slack_id": "U09H6QFQ05A", "display_name": "Nicholas", "bio": null, "projects_count": 0, "devlogs_count": 0, "votes_count": 0, "ships_count": 0, "projects": [], "coding_time_seconds": 0, "coding_time_seconds_today": 0, "balance": "You need to have a pocket watcher badge to view this.", "badges": [], "created_at": "2025-09-25T02:35:09.078-04:00", "updated_at": "2025-09-25T02:35:09.078-04:00", "avatar": "https://secure.gravatar.com/avatar/7a2a2a4767800128f25ccc1a233ff79e.jpg?s=192&d=https%3A%2F%2Fa.slack-edge.com%2Fdf10d%2Fimg%2Favatars%2Fava_0024-192.png", "custom_css": null}, {"id": 23944, "slack_id": "U09H29S2CBU", "display_name": "Maciej Michniewski", "bio": null, "projects_count": 0, "devlogs_count": 0, "votes_count": 0, "ships_count": 0, "projects": [], "coding_time_seconds": 0, "coding_time_seconds_today": 0, "balance": "You need to have a pocket watcher badge to view this.", "badges": [], "created_at": "2025-09-25T03:36:59.886-04:00", "updated_at": "2025-09-25T03:36:59.886-04:00", "avatar": "https://avatars.slack-edge.com/2025-09-25/9607905428048_f9793d39c091863b9f3e_192.png", "custom_css": null}, {"id": 23945, "slack_id": "U09H7BB4VNY", "display_name": "Pratap", "bio": null, "projects_count": 0, "devlogs_count": 0, "votes_count": 0, "ships_count": 0, "projects": [], "coding_time_seconds": 0, "coding_time_seconds_today": 459, "balance": "You need to have a pocket watcher badge to view this.", "badges": [], "created_at": "2025-09-25T04:15:47.560-04:00", "updated_at": "2025-09-25T04:24:26.892-04:00", "avatar": "https://secure.gravatar.com/avatar/8e8c4b83389e9552e9900e635611bedb.jpg?s=192&d=https%3A%2F%2Fa.slack-edge.com%2Fdf10d%2Fimg%2Favatars%2Fava_0000-192.png", "custom_css": null}], "pagination": {"page": 1192, "pages": 1192, "count": 23828, "items": 20}}