{"users": [{"id": 2381, "slack_id": "U05PYCJQT1R", "display_name": "Sam Cheng", "bio": null, "projects_count": 2, "devlogs_count": 15, "votes_count": 40, "ships_count": 2, "projects": [{"id": 336, "title": "Overlay", "devlogs_count": 1, "created_at": "2025-06-16T18:22:19.830-04:00"}, {"id": 4854, "title": "Classmate", "devlogs_count": 14, "created_at": "2025-07-01T23:39:35.100-04:00"}], "coding_time_seconds": 312396, "coding_time_seconds_today": 0, "balance": "You need to have a pocket watcher badge to view this.", "badges": [{"name": "Maiden Voyage", "text": "you shipped your first project! the journey begins...", "icon": "\ud83d\udea2"}], "created_at": "2025-06-16T15:33:19.406-04:00", "updated_at": "2025-09-10T22:52:20.946-04:00", "avatar": "https://avatars.slack-edge.com/2023-08-31/5828201519398_16e8088579c6487c1404_original.png", "custom_css": null}, {"id": 2382, "slack_id": "U091Q91DVUJ", "display_name": "koorosh", "bio": null, "projects_count": 1, "devlogs_count": 0, "votes_count": 0, "ships_count": 0, "projects": [{"id": 268, "title": "trackpad-mapper", "devlogs_count": 0, "created_at": "2025-06-16T16:41:19.875-04:00"}], "coding_time_seconds": 957, "coding_time_seconds_today": 0, "balance": "You need to have a pocket watcher badge to view this.", "badges": [], "created_at": "2025-06-16T15:33:21.281-04:00", "updated_at": "2025-07-03T19:22:01.606-04:00", "avatar": "https://secure.gravatar.com/avatar/6e00f536019e9aae62aecc33a485b8b0.jpg?s=512&d=https%3A%2F%2Fa.slack-edge.com%2Fdf10d%2Fimg%2Favatars%2Fava_0010-512.png", "custom_css": null}, {"id": 2383, "slack_id": "U086GU92DPX", "display_name": "joks_1", "bio": null, "projects_count": 1, "devlogs_count": 1, "votes_count": 0, "ships_count": 1, "projects": [{"id": 896, "title": "Fish Catching Game \ud83d\udc1f", "devlogs_count": 1, "created_at": "2025-06-17T10:44:10.099-04:00"}], "coding_time_seconds": 25393, "coding_time_seconds_today": 0, "balance": "You need to have a pocket watcher badge to view this.", "badges": [{"name": "Maiden Voyage", "text": "you shipped your first project! the journey begins...", "icon": "\ud83d\udea2"}], "created_at": "2025-06-16T15:33:25.691-04:00", "updated_at": "2025-09-10T22:52:21.015-04:00", "avatar": "https://avatars.slack-edge.com/2025-01-06/8250060507989_7d1612242cb27d282ff1_original.jpg", "custom_css": null}, {"id": 2384, "slack_id": "U07CRGN8BCP", "display_name": "mzums", "bio": null, "projects_count": 5, "devlogs_count": 28, "votes_count": 9, "ships_count": 1, "projects": [{"id": 3217, "title": "macroquad", "devlogs_count": 2, "created_at": "2025-06-23T13:37:30.197-04:00"}, {"id": 6030, "title": "Collaborative Snake", "devlogs_count": 4, "created_at": "2025-07-10T05:12:49.625-04:00"}, {"id": 9527, "title": "Lucid Dreamer", "devlogs_count": 7, "created_at": "2025-08-01T15:19:42.158-04:00"}, {"id": 6340, "title": "Esolang", "devlogs_count": 4, "created_at": "2025-07-12T14:10:06.723-04:00"}, {"id": 3227, "title": "TypeMan", "devlogs_count": 11, "created_at": "2025-06-23T14:00:06.121-04:00"}], "coding_time_seconds": 850402, "coding_time_seconds_today": 0, "balance": "You need to have a pocket watcher badge to view this.", "badges": [{"name": "Maiden Voyage", "text": "you shipped your first project! the journey begins...", "icon": "\ud83d\udea2"}], "created_at": "2025-06-16T15:33:33.377-04:00", "updated_at": "2025-09-10T22:52:21.043-04:00", "avatar": "https://avatars.slack-edge.com/2024-12-28/8228416389843_cca5198cc8fa5df4e709_original.png", "custom_css": null}, {"id": 2385, "slack_id": "U092CNT69H6", "display_name": "Amber", "bio": null, "projects_count": 0, "devlogs_count": 62, "votes_count": 39, "ships_count": 0, "projects": [], "coding_time_seconds": 638753, "coding_time_seconds_today": 0, "balance": "You need to have a pocket watcher badge to view this.", "badges": [{"name": "Maiden Voyage", "text": "you shipped your first project! the journey begins...", "icon": "\ud83d\udea2"}], "created_at": "2025-06-16T15:34:02.376-04:00", "updated_at": "2025-09-10T22:52:21.069-04:00", "avatar": "https://avatars.slack-edge.com/2025-06-16/9080788427744_bb055a31dba55f4eea36_original.png", "custom_css": null}, {"id": 2386, "slack_id": "U091HB6DT35", "display_name": "Elinor Reyher", "bio": null, "projects_count": 0, "devlogs_count": 0, "votes_count": 0, "ships_count": 0, "projects": [], "coding_time_seconds": 6143, "coding_time_seconds_today": 0, "balance": "You need to have a pocket watcher badge to view this.", "badges": [], "created_at": "2025-06-16T15:34:28.152-04:00", "updated_at": "2025-07-03T19:22:02.828-04:00", "avatar": "https://secure.gravatar.com/avatar/40773427598c6bc544b3bede1061f69e.jpg?s=512&d=https%3A%2F%2Fa.slack-edge.com%2Fdf10d%2Fimg%2Favatars%2Fava_0009-512.png", "custom_css": null}, {"id": 2387, "slack_id": "U091Q9DKW3C", "display_name": "ioan", "bio": null, "projects_count": 0, "devlogs_count": 0, "votes_count": 0, "ships_count": 0, "projects": [], "coding_time_seconds": 269, "coding_time_seconds_today": 0, "balance": "You need to have a pocket watcher badge to view this.", "badges": [], "created_at": "2025-06-16T15:34:33.038-04:00", "updated_at": "2025-07-03T19:22:03.173-04:00", "avatar": "https://secure.gravatar.com/avatar/5b3f1a01d4fca85e7800f6362a1ed309.jpg?s=512&d=https%3A%2F%2Fa.slack-edge.com%2Fdf10d%2Fimg%2Favatars%2Fava_0007-512.png", "custom_css": null}, {"id": 2388, "slack_id": "U08CRHSQYTX", "display_name": "themathnight", "bio": null, "projects_count": 0, "devlogs_count": 30, "votes_count": 27, "ships_count": 0, "projects": [], "coding_time_seconds": 711346, "coding_time_seconds_today": 0, "balance": "You need to have a pocket watcher badge to view this.", "badges": [{"name": "Maiden Voyage", "text": "you shipped your first project! the journey begins...", "icon": "\ud83d\udea2"}], "created_at": "2025-06-16T15:34:51.119-04:00", "updated_at": "2025-09-10T22:52:21.143-04:00", "avatar": "https://avatars.slack-edge.com/2025-05-30/8991407415057_ab6ca4c9572d6ab18165_original.png", "custom_css": null}, {"id": 2389, "slack_id": "U0922RJ6MPT", "display_name": "Ermias", "bio": null, "projects_count": 0, "devlogs_count": 0, "votes_count": 0, "ships_count": 0, "projects": [], "coding_time_seconds": 0, "coding_time_seconds_today": 0, "balance": "You need to have a pocket watcher badge to view this.", "badges": [], "created_at": "2025-06-16T15:34:57.488-04:00", "updated_at": "2025-07-03T19:22:03.708-04:00", "avatar": "https://secure.gravatar.com/avatar/e80552b2400ec56750698c5735a1e29a.jpg?s=512&d=https%3A%2F%2Fa.slack-edge.com%2Fdf10d%2Fimg%2Favatars%2Fava_0008-512.png", "custom_css": null}, {"id": 2390, "slack_id": "U092CMYHW80", "display_name": "Mr Ali", "bio": null, "projects_count": 0, "devlogs_count": 0, "votes_count": 0, "ships_count": 0, "projects": [], "coding_time_seconds": 5499, "coding_time_seconds_today": 0, "balance": "You need to have a pocket watcher badge to view this.", "badges": [], "created_at": "2025-06-16T15:35:42.496-04:00", "updated_at": "2025-07-03T19:22:04.003-04:00", "avatar": "https://secure.gravatar.com/avatar/c8f7a12b8a55441972156e300a1600a8.jpg?s=512&d=https%3A%2F%2Fa.slack-edge.com%2Fdf10d%2Fimg%2Favatars%2Fava_0016-512.png", "custom_css": null}, {"id": 2391, "slack_id": "U07B21TQA9E", "display_name": "Grace", "bio": null, "projects_count": 2, "devlogs_count": 2, "votes_count": 0, "ships_count": 1, "projects": [{"id": 6158, "title": "Stats Tracker", "devlogs_count": 1, "created_at": "2025-07-11T01:45:20.264-04:00"}, {"id": 6159, "title": "Pixel Diary", "devlogs_count": 1, "created_at": "2025-07-11T02:01:33.225-04:00"}], "coding_time_seconds": 26278, "coding_time_seconds_today": 0, "balance": "You need to have a pocket watcher badge to view this.", "badges": [{"name": "Maiden Voyage", "text": "you shipped your first project! the journey begins...", "icon": "\ud83d\udea2"}], "created_at": "2025-06-16T15:35:53.519-04:00", "updated_at": "2025-09-10T22:52:21.210-04:00", "avatar": "https://secure.gravatar.com/avatar/a66f5870319488d78a93bf037171f20c.jpg?s=512&d=https%3A%2F%2Fa.slack-edge.com%2Fdf10d%2Fimg%2Favatars%2Fava_0012-512.png", "custom_css": null}, {"id": 2392, "slack_id": "U091NG42U13", "display_name": "Lucas Areco", "bio": null, "projects_count": 0, "devlogs_count": 0, "votes_count": 0, "ships_count": 0, "projects": [], "coding_time_seconds": 0, "coding_time_seconds_today": 0, "balance": "You need to have a pocket watcher badge to view this.", "badges": [], "created_at": "2025-06-16T15:35:59.753-04:00", "updated_at": "2025-07-03T19:22:04.540-04:00", "avatar": "https://secure.gravatar.com/avatar/d420f0a96abe5ba0e635d5b77d6b1d7f.jpg?s=512&d=https%3A%2F%2Fa.slack-edge.com%2Fdf10d%2Fimg%2Favatars%2Fava_0025-512.png", "custom_css": null}, {"id": 2393, "slack_id": "U0922RSHVFB", "display_name": "Lukas", "bio": null, "projects_count": 0, "devlogs_count": 0, "votes_count": 0, "ships_count": 0, "projects": [], "coding_time_seconds": 0, "coding_time_seconds_today": 0, "balance": "You need to have a pocket watcher badge to view this.", "badges": [], "created_at": "2025-06-16T15:36:28.473-04:00", "updated_at": "2025-07-03T19:22:04.813-04:00", "avatar": "https://secure.gravatar.com/avatar/b76ede845dbe65061a9c56b125fec3af.jpg?s=512&d=https%3A%2F%2Fa.slack-edge.com%2Fdf10d%2Fimg%2Favatars%2Fava_0021-512.png", "custom_css": null}, {"id": 2394, "slack_id": "U091HEVPADU", "display_name": "AchrefJr", "bio": null, "projects_count": 0, "devlogs_count": 0, "votes_count": 0, "ships_count": 0, "projects": [], "coding_time_seconds": 0, "coding_time_seconds_today": 0, "balance": "You need to have a pocket watcher badge to view this.", "badges": [], "created_at": "2025-06-16T15:36:48.310-04:00", "updated_at": "2025-07-03T19:22:05.075-04:00", "avatar": "https://secure.gravatar.com/avatar/c0a306ed1d4ca504e37adcd465fe87c1.jpg?s=512&d=https%3A%2F%2Fa.slack-edge.com%2Fdf10d%2Fimg%2Favatars%2Fava_0020-512.png", "custom_css": null}, {"id": 2395, "slack_id": "U092CP76QN4", "display_name": "Abdul Fatah", "bio": null, "projects_count": 0, "devlogs_count": 0, "votes_count": 0, "ships_count": 0, "projects": [], "coding_time_seconds": 0, "coding_time_seconds_today": 0, "balance": "You need to have a pocket watcher badge to view this.", "badges": [], "created_at": "2025-06-16T15:36:56.848-04:00", "updated_at": "2025-07-03T19:22:05.339-04:00", "avatar": "https://secure.gravatar.com/avatar/19dfd3d7704990f81cd99a0b604c31f1.jpg?s=512&d=https%3A%2F%2Fa.slack-edge.com%2Fdf10d%2Fimg%2Favatars%2Fava_0008-512.png", "custom_css": null}, {"id": 2396, "slack_id": "U09190J1Z5M", "display_name": "Sam R.", "bio": null, "projects_count": 2, "devlogs_count": 1, "votes_count": 0, "ships_count": 0, "projects": [{"id": 1881, "title": "RemoteRadio", "devlogs_count": 1, "created_at": "2025-06-19T14:08:31.486-04:00"}, {"id": 4975, "title": "TilingPad", "devlogs_count": 0, "created_at": "2025-07-02T13:35:46.004-04:00"}], "coding_time_seconds": 10561, "coding_time_seconds_today": 0, "balance": "You need to have a pocket watcher badge to view this.", "badges": [], "created_at": "2025-06-16T15:37:08.841-04:00", "updated_at": "2025-07-03T19:22:05.629-04:00", "avatar": "https://secure.gravatar.com/avatar/d5db1ee06203ab9f9d1e06b679c5b3f0.jpg?s=512&d=https%3A%2F%2Fa.slack-edge.com%2Fdf10d%2Fimg%2Favatars%2Fava_0015-512.png", "custom_css": null}, {"id": 2397, "slack_id": "U091PGH3M7W", "display_name": "Nico", "bio": "", "projects_count": 5, "devlogs_count": 69, "votes_count": 38, "ships_count": 2, "projects": [{"id": 871, "title": "Clash of Bytes", "devlogs_count": 22, "created_at": "2025-06-17T10:13:51.592-04:00"}, {"id": 13103, "title": "Falcon 9 landing simulator", "devlogs_count": 2, "created_at": "2025-09-08T15:40:15.341-04:00"}, {"id": 2981, "title": "Space Flight Simulator", "devlogs_count": 4, "created_at": "2025-06-22T16:28:06.992-04:00"}, {"id": 4340, "title": "GoofyOS", "devlogs_count": 36, "created_at": "2025-06-29T07:06:34.870-04:00"}, {"id": 5926, "title": "Electronics Simulator", "devlogs_count": 5, "created_at": "2025-07-09T06:41:13.848-04:00"}], "coding_time_seconds": 601306, "coding_time_seconds_today": 0, "balance": "You need to have a pocket watcher badge to view this.", "badges": [{"name": "Maiden Voyage", "text": "you shipped your first project! the journey begins...", "icon": "\ud83d\udea2"}], "created_at": "2025-06-16T15:37:09.110-04:00", "updated_at": "2025-09-20T08:59:08.621-04:00", "avatar": "https://avatars.slack-edge.com/2025-06-17/9063114132820_48ad584efa9a13aa8c47_original.jpg", "custom_css": null}, {"id": 2398, "slack_id": "U092CNYENN4", "display_name": "Jorge Luis Roa", "bio": null, "projects_count": 0, "devlogs_count": 0, "votes_count": 0, "ships_count": 0, "projects": [], "coding_time_seconds": 0, "coding_time_seconds_today": 0, "balance": "You need to have a pocket watcher badge to view this.", "badges": [], "created_at": "2025-06-16T15:37:40.795-04:00", "updated_at": "2025-07-03T19:22:06.173-04:00", "avatar": "https://secure.gravatar.com/avatar/4f1a5bc33a56c73da2094f062b698384.jpg?s=512&d=https%3A%2F%2Fa.slack-edge.com%2Fdf10d%2Fimg%2Favatars%2Fava_0008-512.png", "custom_css": null}, {"id": 2399, "slack_id": "U08SS8P65CZ", "display_name": "ila", "bio": null, "projects_count": 0, "devlogs_count": 0, "votes_count": 0, "ships_count": 0, "projects": [], "coding_time_seconds": 18903, "coding_time_seconds_today": 0, "balance": "You need to have a pocket watcher badge to view this.", "badges": [], "created_at": "2025-06-16T15:37:47.052-04:00", "updated_at": "2025-09-22T17:53:06.104-04:00", "avatar": "https://avatars.slack-edge.com/2025-06-13/9034035472663_b72b400150fd6f2793a0_original.png", "custom_css": null}, {"id": 2400, "slack_id": "U091HF1TUDU", "display_name": "Nathan Zou", "bio": null, "projects_count": 0, "devlogs_count": 0, "votes_count": 0, "ships_count": 0, "projects": [], "coding_time_seconds": 0, "coding_time_seconds_today": 0, "balance": "You need to have a pocket watcher badge to view this.", "badges": [], "created_at": "2025-06-16T15:38:04.052-04:00", "updated_at": "2025-07-03T19:22:06.711-04:00", "avatar": "https://avatars.slack-edge.com/2025-06-16/9043039672519_cbecea6aea7d94f6133d_original.jpg", "custom_css": null}], "pagination": {"page": 120, "pages": 1192, "count": 23828, "items": 20}}