{"users": [{"id": 2401, "slack_id": "U091QA0DMD0", "display_name": "Fauzi", "bio": null, "projects_count": 0, "devlogs_count": 0, "votes_count": 0, "ships_count": 0, "projects": [], "coding_time_seconds": 0, "coding_time_seconds_today": 0, "balance": "You need to have a pocket watcher badge to view this.", "badges": [], "created_at": "2025-06-16T15:38:06.176-04:00", "updated_at": "2025-07-03T19:22:06.979-04:00", "avatar": "https://secure.gravatar.com/avatar/592b8e7014a9fa1658c625c30ce7e728.jpg?s=512&d=https%3A%2F%2Fa.slack-edge.com%2Fdf10d%2Fimg%2Favatars%2Fava_0014-512.png", "custom_css": null}, {"id": 2402, "slack_id": "U082DPYT4JU", "display_name": "Gabe Jimenez", "bio": null, "projects_count": 0, "devlogs_count": 0, "votes_count": 0, "ships_count": 0, "projects": [], "coding_time_seconds": 0, "coding_time_seconds_today": 0, "balance": "You need to have a pocket watcher badge to view this.", "badges": [], "created_at": "2025-06-16T15:38:11.641-04:00", "updated_at": "2025-07-03T19:22:07.253-04:00", "avatar": "https://secure.gravatar.com/avatar/b5be2298cab4e4618b4370b44ee886d8.jpg?s=512&d=https%3A%2F%2Fa.slack-edge.com%2Fdf10d%2Fimg%2Favatars%2Fava_0023-512.png", "custom_css": null}, {"id": 2403, "slack_id": "U091HEHBYR4", "display_name": "Rajniacik", "bio": null, "projects_count": 0, "devlogs_count": 0, "votes_count": 0, "ships_count": 0, "projects": [], "coding_time_seconds": 0, "coding_time_seconds_today": 0, "balance": "You need to have a pocket watcher badge to view this.", "badges": [], "created_at": "2025-06-16T15:38:28.859-04:00", "updated_at": "2025-07-03T19:22:07.589-04:00", "avatar": "https://secure.gravatar.com/avatar/f6659f9d04919548a5708e6e0373e8e6.jpg?s=512&d=https%3A%2F%2Fa.slack-edge.com%2Fdf10d%2Fimg%2Favatars%2Fava_0018-512.png", "custom_css": null}, {"id": 2404, "slack_id": "U07UJ230763", "display_name": "MHanak", "bio": "", "projects_count": 2, "devlogs_count": 20, "votes_count": 28, "ships_count": 1, "projects": [{"id": 1704, "title": "MCManager", "devlogs_count": 20, "created_at": "2025-06-19T04:01:14.697-04:00"}, {"id": 5119, "title": "Security testing", "devlogs_count": 0, "created_at": "2025-07-03T10:59:26.054-04:00"}], "coding_time_seconds": 937928, "coding_time_seconds_today": 0, "balance": "You need to have a pocket watcher badge to view this.", "badges": [{"name": "Maiden Voyage", "text": "you shipped your first project! the journey begins...", "icon": "\ud83d\udea2"}, {"name": "Graphic Design is My Passion", "text": "Oh God How Did This Get Here I Am Not Good With Computer", "icon": "\ud83c\udfa8"}, {"name": "Yapper I", "text": "Posted 10 comments on devlogs.", "icon": "\ud83d\udcac"}, {"name": "Lived Mas", "text": "you know what you did.", "icon": "https://summer.hackclub.com/assets/bong-2a18e50d.png"}], "created_at": "2025-06-16T15:38:30.774-04:00", "updated_at": "2025-09-22T08:46:23.314-04:00", "avatar": "https://avatars.slack-edge.com/2025-08-20/9383428316966_06f57e0e84d6cead8473_original.jpg", "custom_css": "/* latin */\r\n@font-face {\r\n  font-family: 'Geist Mono';\r\n  font-style: normal;\r\n  font-weight: 100 900;\r\n  font-display: swap;\r\n  src: url(https://fonts.gstatic.com/s/geistmono/v3/or3nQ6H-1_WfwkMZI_qYFrcdmhHijks9bA.woff2) format('woff2');\r\n  /* stupid SOM deleting my stupid font definition */ \r\n}\r\n\r\n\r\nbody::before {\r\n    content: '';\r\n    position: fixed;\r\n    top: 0;\r\n    left: 0;\r\n    width: 100vw;\r\n    height: 100vh;\r\n    z-index: -1;\r\n    background: rgb(38, 38, 38);\r\n    pointer-events: none;\r\n}\r\n\r\n.font-national-park {\r\n  font-family: \"Courier New\" !important;\r\n}\r\n\r\n.text-gray-800, .text-gray-900, .text-som-dark, body, text-blue-600, .text-\\[\\#865c39\\] {\r\n  color: white;\r\n}\r\n\r\na:hover {\r\n  color:rgb(209 0 233)\r\n}\r\n.text-som-detail, .text-green-600, .text-blue-600, .text-orange-600, .text-purple-600 {\r\n  color:rgb(209 0 233);\r\n}\r\n\r\n.card-with-gradient {\r\n  background: rgb(23, 23, 23) !important;\r\n  outline: 0;\r\n  box-shadow: 0 10px 15px -3px black,0 4px 6px -4px black !important;\r\n}\r\n\r\n#activities-list {\r\n  margin: -50px;\r\n  padding: 50px;\r\n}\r\n\r\n#activities-list > .card-with-gradient {\r\n  transition-property: all;\r\n  transition-timing-function: cubic-bezier(.4,0,.2,1);\r\n  transition-duration: .15s;\r\n}\r\n#activities-list > .card-with-gradient:hover {\r\n  transform: scale(1.02);\r\n}\r\n\r\n\r\npath {\r\n  fill: rgb(200, 200, 200) !important;\r\n}\r\n\r\n\r\ndiv.flex.flex-col.p-4 > .w-full\r\n{\r\n  display: none;\r\n}\r\n\r\ndiv.flex.relative.h-full:not(.transition-all) > :not(.bg-linear-to-b) {\r\n  display: none;\r\n}\r\n\r\ndiv.bg-linear-to-b.h-full.w-full.flex-1 {\r\n  background: rgb(23, 23, 23) !important;\r\n  padding: 8px;\r\n  border-radius: .75rem;\r\n}\u200b\r\n\r\n/*\r\n#flash-container::after {\r\n  content: \"HOT FISH IN YOUR AREA: https://mhanak.net/fish\";\r\n  background-color: #ff3333;\r\n  position: fixed;\r\n  width: 100%;\r\n  left: 0;\r\n  display: block;\r\n  padding: 4px;\r\n  font-size: 20px;\r\n  z-index: 100;\r\n}*/\r\n\r\ndiv {}\r\n\r\n#flash-container::before {\r\n   content: \"Profile visitor live feed\";\r\n   position: fixed;\r\n   right: 0;\r\n   bottom: 255px;\r\n   z-index: 100;\r\n   padding: 4px;\r\n   font-size: 20px;\r\n}\r\n\r\n#flash-container::after {\r\n content: \" \";\r\n  background-image: url(\"https://hc-cdn.hel1.your-objectstorage.com/s/v3/4446e7d45362b86c2de2fe893aa98bcbce1a7323_image.png\");\r\n  width: 376px;\r\n  height: 255px;\r\n   position: fixed;\r\n   right: 0;\r\n   bottom: 0;\r\n   z-index: 100;\r\n}"}, {"id": 2405, "slack_id": "U0922RW6U81", "display_name": "BIGODE0497", "bio": null, "projects_count": 0, "devlogs_count": 0, "votes_count": 0, "ships_count": 0, "projects": [], "coding_time_seconds": 0, "coding_time_seconds_today": 0, "balance": "You need to have a pocket watcher badge to view this.", "badges": [], "created_at": "2025-06-16T15:38:52.367-04:00", "updated_at": "2025-07-03T19:22:08.359-04:00", "avatar": "https://secure.gravatar.com/avatar/140c9ba10280c188ac6052b295318e78.jpg?s=512&d=https%3A%2F%2Fa.slack-edge.com%2Fdf10d%2Fimg%2Favatars%2Fava_0019-512.png", "custom_css": null}, {"id": 2406, "slack_id": "U091NGH1H3P", "display_name": "kits", "bio": null, "projects_count": 0, "devlogs_count": 0, "votes_count": 0, "ships_count": 0, "projects": [], "coding_time_seconds": 0, "coding_time_seconds_today": 0, "balance": "You need to have a pocket watcher badge to view this.", "badges": [], "created_at": "2025-06-16T15:39:08.688-04:00", "updated_at": "2025-07-03T19:22:08.636-04:00", "avatar": "https://secure.gravatar.com/avatar/d1afe97d24caebc669536fb978dabd9a.jpg?s=512&d=https%3A%2F%2Fa.slack-edge.com%2Fdf10d%2Fimg%2Favatars%2Fava_0014-512.png", "custom_css": null}, {"id": 2407, "slack_id": "U087D8597EC", "display_name": "Ahmed", "bio": null, "projects_count": 0, "devlogs_count": 0, "votes_count": 0, "ships_count": 0, "projects": [], "coding_time_seconds": 227321, "coding_time_seconds_today": 0, "balance": "You need to have a pocket watcher badge to view this.", "badges": [], "created_at": "2025-06-16T15:39:28.397-04:00", "updated_at": "2025-08-27T11:29:47.231-04:00", "avatar": "https://avatars.slack-edge.com/2025-05-12/8892218332449_547b8273eec10e9d3fb4_original.jpg", "custom_css": null}, {"id": 2408, "slack_id": "U091QM52YKW", "display_name": "ultronreal", "bio": null, "projects_count": 0, "devlogs_count": 0, "votes_count": 0, "ships_count": 0, "projects": [], "coding_time_seconds": 0, "coding_time_seconds_today": 0, "balance": "You need to have a pocket watcher badge to view this.", "badges": [], "created_at": "2025-06-16T15:39:40.605-04:00", "updated_at": "2025-07-03T19:22:09.170-04:00", "avatar": "https://secure.gravatar.com/avatar/b7a357d12553751e91091d26b1d897db.jpg?s=512&d=https%3A%2F%2Fa.slack-edge.com%2Fdf10d%2Fimg%2Favatars%2Fava_0020-512.png", "custom_css": null}, {"id": 2409, "slack_id": "U091NGGT16H", "display_name": "Cs\u00e1sz\u00e1r D\u00e1niel", "bio": null, "projects_count": 1, "devlogs_count": 10, "votes_count": 1, "ships_count": 0, "projects": [{"id": 700, "title": "Debugged", "devlogs_count": 10, "created_at": "2025-06-17T05:44:10.813-04:00"}], "coding_time_seconds": 219069, "coding_time_seconds_today": 0, "balance": "You need to have a pocket watcher badge to view this.", "badges": [], "created_at": "2025-06-16T15:39:46.818-04:00", "updated_at": "2025-08-05T16:09:34.608-04:00", "avatar": "https://secure.gravatar.com/avatar/b960312f23b1c8d0d5699b9cf044d4b8.jpg?s=512&d=https%3A%2F%2Fa.slack-edge.com%2Fdf10d%2Fimg%2Favatars%2Fava_0006-512.png", "custom_css": null}, {"id": 2410, "slack_id": "U07D59XCG4U", "display_name": "tobycm", "bio": null, "projects_count": 8, "devlogs_count": 28, "votes_count": 58, "ships_count": 4, "projects": [{"id": 3363, "title": "nRF52840 with nPM1300 devboard", "devlogs_count": 2, "created_at": "2025-06-24T00:53:55.452-04:00"}, {"id": 13323, "title": "dfm - last.fm rich presence for discord", "devlogs_count": 3, "created_at": "2025-09-14T02:31:15.342-04:00"}, {"id": 10713, "title": "silly tools", "devlogs_count": 2, "created_at": "2025-08-10T01:37:23.969-04:00"}, {"id": 4007, "title": "meowsic", "devlogs_count": 10, "created_at": "2025-06-26T19:38:51.813-04:00"}, {"id": 4622, "title": "mea bot - a powerful media downloader bot", "devlogs_count": 5, "created_at": "2025-06-30T22:06:31.259-04:00"}, {"id": 3603, "title": "foloplace mcybot", "devlogs_count": 1, "created_at": "2025-06-24T22:21:39.371-04:00"}, {"id": 5737, "title": "Pushup counter for VS Code", "devlogs_count": 2, "created_at": "2025-07-07T16:15:40.681-04:00"}, {"id": 4447, "title": "raspberry-pi-power-hub", "devlogs_count": 3, "created_at": "2025-06-29T23:52:01.653-04:00"}], "coding_time_seconds": 287280, "coding_time_seconds_today": 0, "balance": "You need to have a pocket watcher badge to view this.", "badges": [{"name": "Maiden Voyage", "text": "you shipped your first project! the journey begins...", "icon": "\ud83d\udea2"}, {"name": "Yapper I", "text": "Posted 10 comments on devlogs.", "icon": "\ud83d\udcac"}], "created_at": "2025-06-16T15:39:58.881-04:00", "updated_at": "2025-09-10T22:52:21.758-04:00", "avatar": "https://avatars.slack-edge.com/2025-08-31/9438118310082_465e18404e286627060a_original.png", "custom_css": null}, {"id": 2411, "slack_id": "U091NGKQSVB", "display_name": "ApiRich", "bio": null, "projects_count": 0, "devlogs_count": 0, "votes_count": 0, "ships_count": 0, "projects": [], "coding_time_seconds": 0, "coding_time_seconds_today": 0, "balance": "You need to have a pocket watcher badge to view this.", "badges": [], "created_at": "2025-06-16T15:40:17.610-04:00", "updated_at": "2025-07-03T19:22:10.002-04:00", "avatar": "https://secure.gravatar.com/avatar/4ccf69acafd7aa0f5539e70056c27d0b.jpg?s=512&d=https%3A%2F%2Fa.slack-edge.com%2Fdf10d%2Fimg%2Favatars%2Fava_0003-512.png", "custom_css": null}, {"id": 2412, "slack_id": "U0918VAC0DD", "display_name": "Shlok Muley", "bio": null, "projects_count": 1, "devlogs_count": 0, "votes_count": 1, "ships_count": 0, "projects": [{"id": 5137, "title": "Budget Tracking Project", "devlogs_count": 0, "created_at": "2025-07-03T12:23:04.222-04:00"}], "coding_time_seconds": 11121, "coding_time_seconds_today": 0, "balance": "You need to have a pocket watcher badge to view this.", "badges": [], "created_at": "2025-06-16T15:40:17.841-04:00", "updated_at": "2025-07-03T19:22:10.284-04:00", "avatar": "https://secure.gravatar.com/avatar/87e23fbd122f2b1fed67421cbf5be9f4.jpg?s=512&d=https%3A%2F%2Fa.slack-edge.com%2Fdf10d%2Fimg%2Favatars%2Fava_0026-512.png", "custom_css": null}, {"id": 2413, "slack_id": "U091GDM7J9H", "display_name": "Landry KF", "bio": null, "projects_count": 0, "devlogs_count": 0, "votes_count": 0, "ships_count": 0, "projects": [], "coding_time_seconds": 0, "coding_time_seconds_today": 0, "balance": "You need to have a pocket watcher badge to view this.", "badges": [], "created_at": "2025-06-16T15:40:56.287-04:00", "updated_at": "2025-07-03T19:22:10.667-04:00", "avatar": "https://avatars.slack-edge.com/2025-06-16/9058739668692_c5fc989687bf5b344fb5_original.jpg", "custom_css": null}, {"id": 2414, "slack_id": "U091Q9U7L74", "display_name": "Lieno", "bio": null, "projects_count": 0, "devlogs_count": 0, "votes_count": 0, "ships_count": 0, "projects": [], "coding_time_seconds": 0, "coding_time_seconds_today": 0, "balance": "You need to have a pocket watcher badge to view this.", "badges": [], "created_at": "2025-06-16T15:41:03.936-04:00", "updated_at": "2025-07-03T19:22:10.938-04:00", "avatar": "https://secure.gravatar.com/avatar/a19bc94d7f1c665b425fe09b860a96ab.jpg?s=512&d=https%3A%2F%2Fa.slack-edge.com%2Fdf10d%2Fimg%2Favatars%2Fava_0014-512.png", "custom_css": null}, {"id": 2415, "slack_id": "U091NGNC3DK", "display_name": "Kasio", "bio": null, "projects_count": 1, "devlogs_count": 0, "votes_count": 0, "ships_count": 0, "projects": [{"id": 224, "title": "BolderFit", "devlogs_count": 0, "created_at": "2025-06-16T15:50:49.697-04:00"}], "coding_time_seconds": 35, "coding_time_seconds_today": 0, "balance": "You need to have a pocket watcher badge to view this.", "badges": [], "created_at": "2025-06-16T15:41:04.278-04:00", "updated_at": "2025-07-03T19:22:11.212-04:00", "avatar": "https://secure.gravatar.com/avatar/c1ef10e28b05f5ea5d4388d7f699fc97.jpg?s=512&d=https%3A%2F%2Fa.slack-edge.com%2Fdf10d%2Fimg%2Favatars%2Fava_0008-512.png", "custom_css": null}, {"id": 2416, "slack_id": "U078H1EK882", "display_name": "Chris", "bio": null, "projects_count": 9, "devlogs_count": 89, "votes_count": 138, "ships_count": 7, "projects": [{"id": 1169, "title": "Karatasi | Command Line Web Browser", "devlogs_count": 28, "created_at": "2025-06-17T20:06:48.028-04:00"}, {"id": 13260, "title": "Fonts", "devlogs_count": 3, "created_at": "2025-09-12T19:59:40.107-04:00"}, {"id": 8532, "title": "NameColor", "devlogs_count": 2, "created_at": "2025-07-28T02:03:46.848-04:00"}, {"id": 1128, "title": "Strings Lite", "devlogs_count": 1, "created_at": "2025-06-17T17:07:44.413-04:00"}, {"id": 12804, "title": "Haraka", "devlogs_count": 0, "created_at": "2025-09-02T22:56:50.406-04:00"}, {"id": 6731, "title": "Enchanted Happy Ghast Harnesses", "devlogs_count": 5, "created_at": "2025-07-15T15:43:32.190-04:00"}, {"id": 7178, "title": "CartCommands Framework", "devlogs_count": 6, "created_at": "2025-07-19T17:01:43.737-04:00"}, {"id": 10390, "title": "C Calculator", "devlogs_count": 2, "created_at": "2025-08-06T14:34:04.413-04:00"}, {"id": 221, "title": "Strings", "devlogs_count": 42, "created_at": "2025-06-16T15:48:35.107-04:00"}], "coding_time_seconds": 712475, "coding_time_seconds_today": 0, "balance": "You need to have a pocket watcher badge to view this.", "badges": [{"name": "Maiden Voyage", "text": "you shipped your first project! the journey begins...", "icon": "\ud83d\udea2"}, {"name": "Ballot Stuffer", "text": "vote 100 times.", "icon": "https://summer.hackclub.com/assets/i_voted-bf851b48.png"}], "created_at": "2025-06-16T15:41:09.931-04:00", "updated_at": "2025-09-10T22:52:21.901-04:00", "avatar": "https://secure.gravatar.com/avatar/97f79097e080a828c9ac04638da14b84.jpg?s=512&d=https%3A%2F%2Fa.slack-edge.com%2Fdf10d%2Fimg%2Favatars%2Fava_0010-512.png", "custom_css": null}, {"id": 2417, "slack_id": "U092293TFT3", "display_name": "aureliodeboa", "bio": null, "projects_count": 0, "devlogs_count": 0, "votes_count": 0, "ships_count": 0, "projects": [], "coding_time_seconds": 0, "coding_time_seconds_today": 0, "balance": "You need to have a pocket watcher badge to view this.", "badges": [], "created_at": "2025-06-16T15:41:13.440-04:00", "updated_at": "2025-07-03T19:22:11.733-04:00", "avatar": "https://secure.gravatar.com/avatar/a010b08c0866f0252def584b9585fbd7.jpg?s=512&d=https%3A%2F%2Fa.slack-edge.com%2Fdf10d%2Fimg%2Favatars%2Fava_0018-512.png", "custom_css": null}, {"id": 2418, "slack_id": "U08JE1Z4HT4", "display_name": "Mikolaj", "bio": "I like engine and graphics programming", "projects_count": 1, "devlogs_count": 47, "votes_count": 32, "ships_count": 1, "projects": [{"id": 2130, "title": "ende - 3D Procedural Generator", "devlogs_count": 47, "created_at": "2025-06-20T08:13:05.675-04:00"}], "coding_time_seconds": 410669, "coding_time_seconds_today": 0, "balance": "You need to have a pocket watcher badge to view this.", "badges": [{"name": "Maiden Voyage", "text": "you shipped your first project! the journey begins...", "icon": "\ud83d\udea2"}], "created_at": "2025-06-16T15:41:49.627-04:00", "updated_at": "2025-09-10T22:52:21.949-04:00", "avatar": "https://avatars.slack-edge.com/2025-07-17/9198543971879_7cc264610ab372a2ae30_original.png", "custom_css": null}, {"id": 2419, "slack_id": "U092BS36MQQ", "display_name": "Tony Miranda", "bio": null, "projects_count": 0, "devlogs_count": 0, "votes_count": 0, "ships_count": 0, "projects": [], "coding_time_seconds": 0, "coding_time_seconds_today": 0, "balance": "You need to have a pocket watcher badge to view this.", "badges": [], "created_at": "2025-06-16T15:41:57.832-04:00", "updated_at": "2025-07-03T19:22:12.266-04:00", "avatar": "https://secure.gravatar.com/avatar/84c4a0e2981b8521249c11bbe0df5ff5.jpg?s=512&d=https%3A%2F%2Fa.slack-edge.com%2Fdf10d%2Fimg%2Favatars%2Fava_0012-512.png", "custom_css": null}, {"id": 2420, "slack_id": "U091QMB1YAY", "display_name": "Francisca Portugal", "bio": null, "projects_count": 0, "devlogs_count": 0, "votes_count": 0, "ships_count": 0, "projects": [], "coding_time_seconds": 304060, "coding_time_seconds_today": 0, "balance": "You need to have a pocket watcher badge to view this.", "badges": [], "created_at": "2025-06-16T15:42:07.765-04:00", "updated_at": "2025-07-03T19:22:12.538-04:00", "avatar": "https://avatars.slack-edge.com/2025-06-16/9058745067812_f9f122df8e74729771e8_original.jpg", "custom_css": null}], "pagination": {"page": 121, "pages": 1192, "count": 23828, "items": 20}}