{"users": [{"id": 2441, "slack_id": "U091HCS1GN7", "display_name": "Derek P", "bio": null, "projects_count": 0, "devlogs_count": 48, "votes_count": 69, "ships_count": 0, "projects": [], "coding_time_seconds": 1094859, "coding_time_seconds_today": 0, "balance": "You need to have a pocket watcher badge to view this.", "badges": [{"name": "Maiden Voyage", "text": "you shipped your first project! the journey begins...", "icon": "\ud83d\udea2"}], "created_at": "2025-06-16T15:47:13.664-04:00", "updated_at": "2025-09-10T22:52:22.612-04:00", "avatar": "https://secure.gravatar.com/avatar/982aa2e0486fe22bbeb81a4779d0b88b.jpg?s=512&d=https%3A%2F%2Fa.slack-edge.com%2Fdf10d%2Fimg%2Favatars%2Fava_0022-512.png", "custom_css": null}, {"id": 2442, "slack_id": "U091QN12Z2Q", "display_name": "Tejaram Chaudhari", "bio": null, "projects_count": 1, "devlogs_count": 0, "votes_count": 0, "ships_count": 0, "projects": [{"id": 230, "title": "Kalyug", "devlogs_count": 0, "created_at": "2025-06-16T15:58:55.319-04:00"}], "coding_time_seconds": 1222, "coding_time_seconds_today": 0, "balance": "You need to have a pocket watcher badge to view this.", "badges": [], "created_at": "2025-06-16T15:47:19.317-04:00", "updated_at": "2025-07-03T19:22:18.585-04:00", "avatar": "https://secure.gravatar.com/avatar/00e91477982784fbae1a7b18af6e707b.jpg?s=512&d=https%3A%2F%2Fa.slack-edge.com%2Fdf10d%2Fimg%2Favatars%2Fava_0004-512.png", "custom_css": null}, {"id": 2443, "slack_id": "U0922T2TRMF", "display_name": "Misbah Ansari", "bio": null, "projects_count": 0, "devlogs_count": 0, "votes_count": 0, "ships_count": 0, "projects": [], "coding_time_seconds": 104522, "coding_time_seconds_today": 0, "balance": "You need to have a pocket watcher badge to view this.", "badges": [], "created_at": "2025-06-16T15:47:21.736-04:00", "updated_at": "2025-07-03T19:22:18.847-04:00", "avatar": "https://avatars.slack-edge.com/2025-06-16/9070939930369_588cd7a71fa2005167d8_original.jpg", "custom_css": null}, {"id": 2444, "slack_id": "U091QB202HY", "display_name": "ALBERTO JUNIOR", "bio": null, "projects_count": 0, "devlogs_count": 0, "votes_count": 0, "ships_count": 0, "projects": [], "coding_time_seconds": 0, "coding_time_seconds_today": 0, "balance": "You need to have a pocket watcher badge to view this.", "badges": [], "created_at": "2025-06-16T15:47:25.165-04:00", "updated_at": "2025-07-03T19:22:19.125-04:00", "avatar": "https://avatars.slack-edge.com/2025-06-16/9056612838597_6e408a5d2466b7fa5b9b_original.png", "custom_css": null}, {"id": 2445, "slack_id": "U091HCR6W11", "display_name": "Katarina", "bio": null, "projects_count": 0, "devlogs_count": 0, "votes_count": 0, "ships_count": 0, "projects": [], "coding_time_seconds": 0, "coding_time_seconds_today": 0, "balance": "You need to have a pocket watcher badge to view this.", "badges": [], "created_at": "2025-06-16T15:47:25.254-04:00", "updated_at": "2025-07-03T19:22:19.476-04:00", "avatar": "https://secure.gravatar.com/avatar/95be252165d1a69a2b78d9a4a63946b7.jpg?s=512&d=https%3A%2F%2Fa.slack-edge.com%2Fdf10d%2Fimg%2Favatars%2Fava_0026-512.png", "custom_css": null}, {"id": 2446, "slack_id": "U091QB6MEQ2", "display_name": "MINMOY DUTTA", "bio": null, "projects_count": 0, "devlogs_count": 0, "votes_count": 0, "ships_count": 0, "projects": [], "coding_time_seconds": 0, "coding_time_seconds_today": 0, "balance": "You need to have a pocket watcher badge to view this.", "badges": [], "created_at": "2025-06-16T15:47:34.334-04:00", "updated_at": "2025-07-03T19:22:19.773-04:00", "avatar": "https://secure.gravatar.com/avatar/a70bf90b07f5c005672e1e4fad6b2851.jpg?s=512&d=https%3A%2F%2Fa.slack-edge.com%2Fdf10d%2Fimg%2Favatars%2Fava_0007-512.png", "custom_css": null}, {"id": 2447, "slack_id": "U091NHEKN3X", "display_name": "Dylan", "bio": null, "projects_count": 0, "devlogs_count": 0, "votes_count": 0, "ships_count": 0, "projects": [], "coding_time_seconds": 0, "coding_time_seconds_today": 0, "balance": "You need to have a pocket watcher badge to view this.", "badges": [], "created_at": "2025-06-16T15:47:36.181-04:00", "updated_at": "2025-07-03T19:22:20.058-04:00", "avatar": "https://avatars.slack-edge.com/2025-06-16/9051453830275_7843b85ebd30cbb501ad_original.png", "custom_css": null}, {"id": 2448, "slack_id": "U091HG6JC5U", "display_name": "Guido", "bio": null, "projects_count": 0, "devlogs_count": 0, "votes_count": 0, "ships_count": 0, "projects": [], "coding_time_seconds": 0, "coding_time_seconds_today": 0, "balance": "You need to have a pocket watcher badge to view this.", "badges": [], "created_at": "2025-06-16T15:47:42.890-04:00", "updated_at": "2025-07-03T19:22:20.370-04:00", "avatar": "https://secure.gravatar.com/avatar/74888847923b7f57bf0953687c1b3b3e.jpg?s=512&d=https%3A%2F%2Fa.slack-edge.com%2Fdf10d%2Fimg%2Favatars%2Fava_0012-512.png", "custom_css": null}, {"id": 2449, "slack_id": "U091NHANJE9", "display_name": "Taha Butt", "bio": null, "projects_count": 0, "devlogs_count": 0, "votes_count": 0, "ships_count": 0, "projects": [], "coding_time_seconds": 0, "coding_time_seconds_today": 0, "balance": "You need to have a pocket watcher badge to view this.", "badges": [], "created_at": "2025-06-16T15:47:58.512-04:00", "updated_at": "2025-07-03T19:22:20.652-04:00", "avatar": "https://secure.gravatar.com/avatar/30553c19a360696d90786ac0477c980d.jpg?s=512&d=https%3A%2F%2Fa.slack-edge.com%2Fdf10d%2Fimg%2Favatars%2Fava_0009-512.png", "custom_css": null}, {"id": 2450, "slack_id": "U081LLJPF8E", "display_name": "Alkhemrt", "bio": "", "projects_count": 0, "devlogs_count": 60, "votes_count": 107, "ships_count": 0, "projects": [], "coding_time_seconds": 1231361, "coding_time_seconds_today": 0, "balance": "You need to have a pocket watcher badge to view this.", "badges": [{"name": "Maiden Voyage", "text": "you shipped your first project! the journey begins...", "icon": "\ud83d\udea2"}, {"name": "Ballot Stuffer", "text": "vote 100 times.", "icon": "https://summer.hackclub.com/assets/i_voted-bf851b48.png"}], "created_at": "2025-06-16T15:48:30.090-04:00", "updated_at": "2025-09-10T22:52:22.841-04:00", "avatar": "https://avatars.slack-edge.com/2025-07-05/9174917642816_cad3472d961dbb97f720_original.jpg", "custom_css": null}, {"id": 2451, "slack_id": "U091HCYC5RR", "display_name": "Gavaskar Ganeshalingam", "bio": null, "projects_count": 0, "devlogs_count": 0, "votes_count": 0, "ships_count": 0, "projects": [], "coding_time_seconds": 0, "coding_time_seconds_today": 0, "balance": "You need to have a pocket watcher badge to view this.", "badges": [], "created_at": "2025-06-16T15:48:32.690-04:00", "updated_at": "2025-07-03T19:22:21.198-04:00", "avatar": "https://secure.gravatar.com/avatar/bbc4233acd640606d1644a9baba27333.jpg?s=512&d=https%3A%2F%2Fa.slack-edge.com%2Fdf10d%2Fimg%2Favatars%2Fava_0019-512.png", "custom_css": null}, {"id": 2452, "slack_id": "U0922TCLG7K", "display_name": "Viraj Verma", "bio": null, "projects_count": 2, "devlogs_count": 0, "votes_count": 0, "ships_count": 0, "projects": [{"id": 580, "title": "My Everything Website", "devlogs_count": 0, "created_at": "2025-06-17T01:53:26.137-04:00"}, {"id": 3759, "title": "Web browser (Codename: Bob)", "devlogs_count": 0, "created_at": "2025-06-25T16:07:40.072-04:00"}], "coding_time_seconds": 15188, "coding_time_seconds_today": 0, "balance": "You need to have a pocket watcher badge to view this.", "badges": [], "created_at": "2025-06-16T15:48:32.944-04:00", "updated_at": "2025-07-03T19:22:21.476-04:00", "avatar": "https://secure.gravatar.com/avatar/6581fdaa651158e108dcb60dbd510abf.jpg?s=512&d=https%3A%2F%2Fa.slack-edge.com%2Fdf10d%2Fimg%2Favatars%2Fava_0008-512.png", "custom_css": null}, {"id": 2453, "slack_id": "U092CQNKGSC", "display_name": "RayanZak", "bio": null, "projects_count": 0, "devlogs_count": 0, "votes_count": 0, "ships_count": 0, "projects": [], "coding_time_seconds": 0, "coding_time_seconds_today": 0, "balance": "You need to have a pocket watcher badge to view this.", "badges": [], "created_at": "2025-06-16T15:48:38.474-04:00", "updated_at": "2025-07-03T19:22:21.749-04:00", "avatar": "https://secure.gravatar.com/avatar/1e3b2b3752212df161f1a19348030094.jpg?s=512&d=https%3A%2F%2Fa.slack-edge.com%2Fdf10d%2Fimg%2Favatars%2Fava_0019-512.png", "custom_css": null}, {"id": 2454, "slack_id": "U091HG91CEA", "display_name": "Hubert", "bio": null, "projects_count": 0, "devlogs_count": 0, "votes_count": 0, "ships_count": 0, "projects": [], "coding_time_seconds": 0, "coding_time_seconds_today": 0, "balance": "You need to have a pocket watcher badge to view this.", "badges": [], "created_at": "2025-06-16T15:49:10.290-04:00", "updated_at": "2025-07-03T19:22:22.023-04:00", "avatar": "https://secure.gravatar.com/avatar/36404e99e75dca8a6284cbaf1d70e044.jpg?s=512&d=https%3A%2F%2Fa.slack-edge.com%2Fdf10d%2Fimg%2Favatars%2Fava_0019-512.png", "custom_css": null}, {"id": 2455, "slack_id": "U07A150R5UG", "display_name": "Yoav Mlotok", "bio": null, "projects_count": 1, "devlogs_count": 1, "votes_count": 2, "ships_count": 0, "projects": [{"id": 9756, "title": "Pacman File", "devlogs_count": 1, "created_at": "2025-08-02T07:21:55.466-04:00"}], "coding_time_seconds": 240942, "coding_time_seconds_today": 0, "balance": "You need to have a pocket watcher badge to view this.", "badges": [], "created_at": "2025-06-16T15:49:16.564-04:00", "updated_at": "2025-09-21T18:08:43.490-04:00", "avatar": "https://avatars.slack-edge.com/2025-09-21/9551354271299_ccc195d6e9781f960576_original.png", "custom_css": null}, {"id": 2456, "slack_id": "U09192704Q7", "display_name": "Arca", "bio": "", "projects_count": 6, "devlogs_count": 75, "votes_count": 100, "ships_count": 4, "projects": [{"id": 5858, "title": "8 bit CPU", "devlogs_count": 8, "created_at": "2025-07-08T14:01:54.962-04:00"}, {"id": 10923, "title": "ESP32-CNC", "devlogs_count": 8, "created_at": "2025-08-11T20:51:28.641-04:00"}, {"id": 11832, "title": "Embedded Engine", "devlogs_count": 35, "created_at": "2025-08-20T04:26:05.457-04:00"}, {"id": 13590, "title": "Yet another personal site", "devlogs_count": 5, "created_at": "2025-09-20T09:40:05.387-04:00"}, {"id": 5735, "title": "pOSt", "devlogs_count": 4, "created_at": "2025-07-07T16:05:48.060-04:00"}, {"id": 2181, "title": "flappy", "devlogs_count": 15, "created_at": "2025-06-20T11:31:29.969-04:00"}], "coding_time_seconds": 601447, "coding_time_seconds_today": 0, "balance": "You need to have a pocket watcher badge to view this.", "badges": [{"name": "Maiden Voyage", "text": "you shipped your first project! the journey begins...", "icon": "\ud83d\udea2"}, {"name": "Yapper I", "text": "Posted 10 comments on devlogs.", "icon": "\ud83d\udcac"}, {"name": "Ballot Stuffer", "text": "vote 100 times.", "icon": "https://summer.hackclub.com/assets/i_voted-bf851b48.png"}], "created_at": "2025-06-16T15:49:32.286-04:00", "updated_at": "2025-09-17T18:05:12.187-04:00", "avatar": "https://avatars.slack-edge.com/2025-08-09/9333922275732_c6055c7916cae6ff8a80_original.png", "custom_css": null}, {"id": 2457, "slack_id": "U091NHQGVGV", "display_name": "Emilio Cardillo-Schrader", "bio": null, "projects_count": 0, "devlogs_count": 0, "votes_count": 0, "ships_count": 0, "projects": [], "coding_time_seconds": 0, "coding_time_seconds_today": 0, "balance": "You need to have a pocket watcher badge to view this.", "badges": [], "created_at": "2025-06-16T15:49:35.067-04:00", "updated_at": "2025-07-03T19:22:23.529-04:00", "avatar": "https://secure.gravatar.com/avatar/5f267a771ebea64b7fede9d08bfa6685.jpg?s=512&d=https%3A%2F%2Fa.slack-edge.com%2Fdf10d%2Fimg%2Favatars%2Fava_0012-512.png", "custom_css": null}, {"id": 2458, "slack_id": "U091QBN3WQJ", "display_name": "Nishant Singh", "bio": null, "projects_count": 0, "devlogs_count": 0, "votes_count": 0, "ships_count": 0, "projects": [], "coding_time_seconds": 0, "coding_time_seconds_today": 0, "balance": "You need to have a pocket watcher badge to view this.", "badges": [], "created_at": "2025-06-16T15:49:43.423-04:00", "updated_at": "2025-07-03T19:22:23.810-04:00", "avatar": "https://secure.gravatar.com/avatar/e61dffa8ece252e18a8819ebba7ad75f.jpg?s=512&d=https%3A%2F%2Fa.slack-edge.com%2Fdf10d%2Fimg%2Favatars%2Fava_0021-512.png", "custom_css": null}, {"id": 2459, "slack_id": "U091Q7VD6V8", "display_name": "Luke Collingridge", "bio": null, "projects_count": 1, "devlogs_count": 8, "votes_count": 9, "ships_count": 0, "projects": [{"id": 3062, "title": "GroupMe Plus", "devlogs_count": 8, "created_at": "2025-06-23T00:14:34.206-04:00"}], "coding_time_seconds": 94122, "coding_time_seconds_today": 0, "balance": "You need to have a pocket watcher badge to view this.", "badges": [], "created_at": "2025-06-16T15:50:12.897-04:00", "updated_at": "2025-08-07T02:03:02.536-04:00", "avatar": "https://avatars.slack-edge.com/2025-06-16/9058780092836_d9144b525850390a6dee_original.png", "custom_css": null}, {"id": 2460, "slack_id": "U091HD7LPM1", "display_name": "bugs-creator", "bio": null, "projects_count": 0, "devlogs_count": 0, "votes_count": 0, "ships_count": 0, "projects": [], "coding_time_seconds": 0, "coding_time_seconds_today": 0, "balance": "You need to have a pocket watcher badge to view this.", "badges": [], "created_at": "2025-06-16T15:50:14.481-04:00", "updated_at": "2025-07-03T19:22:24.361-04:00", "avatar": "https://secure.gravatar.com/avatar/acdbcce5661c474c0f0c9d52fd4ce1c5.jpg?s=512&d=https%3A%2F%2Fa.slack-edge.com%2Fdf10d%2Fimg%2Favatars%2Fava_0014-512.png", "custom_css": null}], "pagination": {"page": 123, "pages": 1192, "count": 23828, "items": 20}}