{"users": [{"id": 2461, "slack_id": "U092CQSNN64", "display_name": "Bonamy", "bio": null, "projects_count": 0, "devlogs_count": 0, "votes_count": 0, "ships_count": 0, "projects": [], "coding_time_seconds": 0, "coding_time_seconds_today": 0, "balance": "You need to have a pocket watcher badge to view this.", "badges": [], "created_at": "2025-06-16T15:50:21.973-04:00", "updated_at": "2025-07-03T19:22:24.647-04:00", "avatar": "https://secure.gravatar.com/avatar/e557cc10e327e34784bd06eb0e7ef4b7.jpg?s=512&d=https%3A%2F%2Fa.slack-edge.com%2Fdf10d%2Fimg%2Favatars%2Fava_0006-512.png", "custom_css": null}, {"id": 2462, "slack_id": "U092CQHJE0Y", "display_name": "Nahuel Pajon", "bio": null, "projects_count": 1, "devlogs_count": 0, "votes_count": 0, "ships_count": 0, "projects": [{"id": 244, "title": "QuizMobileApp", "devlogs_count": 0, "created_at": "2025-06-16T16:17:15.954-04:00"}], "coding_time_seconds": 221038, "coding_time_seconds_today": 0, "balance": "You need to have a pocket watcher badge to view this.", "badges": [], "created_at": "2025-06-16T15:50:25.861-04:00", "updated_at": "2025-08-13T13:11:19.772-04:00", "avatar": "https://secure.gravatar.com/avatar/ad307ad9927517c9efdbc8f3422a185c.jpg?s=512&d=https%3A%2F%2Fa.slack-edge.com%2Fdf10d%2Fimg%2Favatars%2Fava_0010-512.png", "custom_css": null}, {"id": 2463, "slack_id": "U0922TFUK09", "display_name": "Juliana Jaime", "bio": null, "projects_count": 1, "devlogs_count": 1, "votes_count": 0, "ships_count": 0, "projects": [{"id": 256, "title": "BARCS Vaccination Clinic", "devlogs_count": 1, "created_at": "2025-06-16T16:23:12.654-04:00"}], "coding_time_seconds": 165500, "coding_time_seconds_today": 0, "balance": "You need to have a pocket watcher badge to view this.", "badges": [], "created_at": "2025-06-16T15:50:30.631-04:00", "updated_at": "2025-07-22T17:41:41.968-04:00", "avatar": "https://secure.gravatar.com/avatar/c0e246fd32a277ab2aff0e50ad139a3a.jpg?s=512&d=https%3A%2F%2Fa.slack-edge.com%2Fdf10d%2Fimg%2Favatars%2Fava_0008-512.png", "custom_css": null}, {"id": 2464, "slack_id": "U0922U08NAD", "display_name": "James van Someren", "bio": null, "projects_count": 0, "devlogs_count": 0, "votes_count": 0, "ships_count": 0, "projects": [], "coding_time_seconds": 0, "coding_time_seconds_today": 0, "balance": "You need to have a pocket watcher badge to view this.", "badges": [], "created_at": "2025-06-16T15:50:53.493-04:00", "updated_at": "2025-07-03T19:22:25.474-04:00", "avatar": "https://avatars.slack-edge.com/2025-06-17/9043156120567_bff2e31c6022e4e1638b_original.jpg", "custom_css": null}, {"id": 2465, "slack_id": "U0823J5N1TM", "display_name": "a-username-user", "bio": null, "projects_count": 0, "devlogs_count": 0, "votes_count": 0, "ships_count": 0, "projects": [], "coding_time_seconds": 0, "coding_time_seconds_today": 0, "balance": "You need to have a pocket watcher badge to view this.", "badges": [], "created_at": "2025-06-16T15:51:26.416-04:00", "updated_at": "2025-07-03T19:22:25.736-04:00", "avatar": "https://secure.gravatar.com/avatar/82357ee6425cdcba0bead377adfde311.jpg?s=512&d=https%3A%2F%2Fa.slack-edge.com%2Fdf10d%2Fimg%2Favatars%2Fava_0014-512.png", "custom_css": null}, {"id": 2466, "slack_id": "U091QNNRDMJ", "display_name": "pragganandhaa", "bio": null, "projects_count": 0, "devlogs_count": 0, "votes_count": 0, "ships_count": 0, "projects": [], "coding_time_seconds": 0, "coding_time_seconds_today": 0, "balance": "You need to have a pocket watcher badge to view this.", "badges": [], "created_at": "2025-06-16T15:51:27.692-04:00", "updated_at": "2025-07-03T19:22:26.010-04:00", "avatar": "https://secure.gravatar.com/avatar/98d9a94d1bbe2ab7daa7893f5024d12a.jpg?s=512&d=https%3A%2F%2Fa.slack-edge.com%2Fdf10d%2Fimg%2Favatars%2Fava_0002-512.png", "custom_css": null}, {"id": 2467, "slack_id": "U091HDF03NF", "display_name": "Sahanav Ramesh", "bio": null, "projects_count": 0, "devlogs_count": 0, "votes_count": 0, "ships_count": 0, "projects": [], "coding_time_seconds": 0, "coding_time_seconds_today": 0, "balance": "You need to have a pocket watcher badge to view this.", "badges": [], "created_at": "2025-06-16T15:51:36.422-04:00", "updated_at": "2025-07-03T19:22:26.281-04:00", "avatar": "https://avatars.slack-edge.com/2025-06-16/9051585536054_367c2badd43c9a5531bb_original.png", "custom_css": null}, {"id": 2468, "slack_id": "U091HDFDD0T", "display_name": "AHAN CHATTERJEE", "bio": null, "projects_count": 0, "devlogs_count": 0, "votes_count": 0, "ships_count": 0, "projects": [], "coding_time_seconds": 0, "coding_time_seconds_today": 0, "balance": "You need to have a pocket watcher badge to view this.", "badges": [], "created_at": "2025-06-16T15:51:39.591-04:00", "updated_at": "2025-07-03T19:22:26.558-04:00", "avatar": "https://avatars.slack-edge.com/2025-06-16/9070960003105_046e808bc0fd567aadd7_original.jpg", "custom_css": null}, {"id": 2469, "slack_id": "U091NJ778TX", "display_name": "warddeb", "bio": null, "projects_count": 0, "devlogs_count": 0, "votes_count": 0, "ships_count": 0, "projects": [], "coding_time_seconds": 8421, "coding_time_seconds_today": 0, "balance": "You need to have a pocket watcher badge to view this.", "badges": [], "created_at": "2025-06-16T15:51:39.993-04:00", "updated_at": "2025-07-07T05:28:16.262-04:00", "avatar": "https://secure.gravatar.com/avatar/17c070496dac1b7630f91baac3210309.jpg?s=512&d=https%3A%2F%2Fa.slack-edge.com%2Fdf10d%2Fimg%2Favatars%2Fava_0007-512.png", "custom_css": null}, {"id": 2470, "slack_id": "U0922T7JARX", "display_name": "Chaithanya", "bio": null, "projects_count": 0, "devlogs_count": 0, "votes_count": 0, "ships_count": 0, "projects": [], "coding_time_seconds": 0, "coding_time_seconds_today": 0, "balance": "You need to have a pocket watcher badge to view this.", "badges": [], "created_at": "2025-06-16T15:51:41.194-04:00", "updated_at": "2025-07-03T19:22:27.118-04:00", "avatar": "https://secure.gravatar.com/avatar/70d29fdfbd72016a0a835b9ced329bb4.jpg?s=512&d=https%3A%2F%2Fa.slack-edge.com%2Fdf10d%2Fimg%2Favatars%2Fava_0018-512.png", "custom_css": null}, {"id": 2471, "slack_id": "U091Q5EFJ04", "display_name": "Mads", "bio": null, "projects_count": 0, "devlogs_count": 0, "votes_count": 0, "ships_count": 0, "projects": [], "coding_time_seconds": 0, "coding_time_seconds_today": 0, "balance": "You need to have a pocket watcher badge to view this.", "badges": [], "created_at": "2025-06-16T15:51:54.968-04:00", "updated_at": "2025-07-03T19:22:27.387-04:00", "avatar": "https://secure.gravatar.com/avatar/518798aa1f0bfd1b13bfe4563dc20956.jpg?s=512&d=https%3A%2F%2Fa.slack-edge.com%2Fdf10d%2Fimg%2Favatars%2Fava_0019-512.png", "custom_css": null}, {"id": 2472, "slack_id": "U092CR30V24", "display_name": "Mrpookie", "bio": null, "projects_count": 0, "devlogs_count": 0, "votes_count": 0, "ships_count": 0, "projects": [], "coding_time_seconds": 0, "coding_time_seconds_today": 0, "balance": "You need to have a pocket watcher badge to view this.", "badges": [], "created_at": "2025-06-16T15:52:21.807-04:00", "updated_at": "2025-07-03T19:22:27.661-04:00", "avatar": "https://secure.gravatar.com/avatar/9080e5c4aa34a87458aaa1b66dd208e6.jpg?s=512&d=https%3A%2F%2Fa.slack-edge.com%2Fdf10d%2Fimg%2Favatars%2Fava_0020-512.png", "custom_css": null}, {"id": 2473, "slack_id": "U091HGQ6WVC", "display_name": "sunjid", "bio": null, "projects_count": 0, "devlogs_count": 0, "votes_count": 0, "ships_count": 0, "projects": [], "coding_time_seconds": 0, "coding_time_seconds_today": 0, "balance": "You need to have a pocket watcher badge to view this.", "badges": [], "created_at": "2025-06-16T15:52:29.263-04:00", "updated_at": "2025-07-03T19:22:28.007-04:00", "avatar": "https://secure.gravatar.com/avatar/e12623943a058b5fc2e645bda83768bf.jpg?s=512&d=https%3A%2F%2Fa.slack-edge.com%2Fdf10d%2Fimg%2Favatars%2Fava_0017-512.png", "custom_css": null}, {"id": 2474, "slack_id": "U0922TS5BJM", "display_name": "Anubhav", "bio": null, "projects_count": 0, "devlogs_count": 0, "votes_count": 0, "ships_count": 0, "projects": [], "coding_time_seconds": 0, "coding_time_seconds_today": 0, "balance": "You need to have a pocket watcher badge to view this.", "badges": [], "created_at": "2025-06-16T15:52:45.984-04:00", "updated_at": "2025-07-03T19:22:28.277-04:00", "avatar": "https://secure.gravatar.com/avatar/17d59a1bfd4216d9625e8130e8777541.jpg?s=512&d=https%3A%2F%2Fa.slack-edge.com%2Fdf10d%2Fimg%2Favatars%2Fava_0004-512.png", "custom_css": null}, {"id": 2475, "slack_id": "U09192LTUKZ", "display_name": "Tony Jiang", "bio": null, "projects_count": 0, "devlogs_count": 0, "votes_count": 0, "ships_count": 0, "projects": [], "coding_time_seconds": 0, "coding_time_seconds_today": 0, "balance": "You need to have a pocket watcher badge to view this.", "badges": [], "created_at": "2025-06-16T15:53:04.088-04:00", "updated_at": "2025-07-03T19:22:28.546-04:00", "avatar": "https://secure.gravatar.com/avatar/e8653fdf2ac7568a2b6f63e5c7ed4457.jpg?s=512&d=https%3A%2F%2Fa.slack-edge.com%2Fdf10d%2Fimg%2Favatars%2Fava_0005-512.png", "custom_css": null}, {"id": 2476, "slack_id": "U091HD9B8TG", "display_name": "Saksham Gupta", "bio": null, "projects_count": 0, "devlogs_count": 0, "votes_count": 0, "ships_count": 0, "projects": [], "coding_time_seconds": 0, "coding_time_seconds_today": 0, "balance": "You need to have a pocket watcher badge to view this.", "badges": [], "created_at": "2025-06-16T15:53:22.062-04:00", "updated_at": "2025-07-03T19:22:28.807-04:00", "avatar": "https://avatars.slack-edge.com/2025-06-16/9058423120130_486c76b66cd9add104a6_original.png", "custom_css": null}, {"id": 2477, "slack_id": "U091HDPPTR9", "display_name": "Primus", "bio": null, "projects_count": 0, "devlogs_count": 0, "votes_count": 0, "ships_count": 0, "projects": [], "coding_time_seconds": 0, "coding_time_seconds_today": 0, "balance": "You need to have a pocket watcher badge to view this.", "badges": [], "created_at": "2025-06-16T15:53:31.669-04:00", "updated_at": "2025-07-03T19:22:29.098-04:00", "avatar": "https://secure.gravatar.com/avatar/fba404e9a100a1f90ade53f50cb2a5bf.jpg?s=512&d=https%3A%2F%2Fa.slack-edge.com%2Fdf10d%2Fimg%2Favatars%2Fava_0021-512.png", "custom_css": null}, {"id": 2478, "slack_id": "U0922TX5WSD", "display_name": "abdur rehman", "bio": null, "projects_count": 0, "devlogs_count": 0, "votes_count": 0, "ships_count": 0, "projects": [], "coding_time_seconds": 36366, "coding_time_seconds_today": 0, "balance": "You need to have a pocket watcher badge to view this.", "badges": [], "created_at": "2025-06-16T15:53:47.096-04:00", "updated_at": "2025-07-03T19:22:29.364-04:00", "avatar": "https://secure.gravatar.com/avatar/9ffeea76cf584fe862e35d1276beaf65.jpg?s=512&d=https%3A%2F%2Fa.slack-edge.com%2Fdf10d%2Fimg%2Favatars%2Fava_0017-512.png", "custom_css": null}, {"id": 2479, "slack_id": "U091HGMBAB0", "display_name": "KONDRU CHARWICK HAMESH", "bio": null, "projects_count": 0, "devlogs_count": 0, "votes_count": 0, "ships_count": 0, "projects": [], "coding_time_seconds": 0, "coding_time_seconds_today": 0, "balance": "You need to have a pocket watcher badge to view this.", "badges": [], "created_at": "2025-06-16T15:54:04.678-04:00", "updated_at": "2025-07-03T19:22:29.638-04:00", "avatar": "https://secure.gravatar.com/avatar/d0f7acaf40013365d8f650b2214f23ec.jpg?s=512&d=https%3A%2F%2Fa.slack-edge.com%2Fdf10d%2Fimg%2Favatars%2Fava_0002-512.png", "custom_css": null}, {"id": 2480, "slack_id": "U07U6USMZL7", "display_name": "Hanush", "bio": null, "projects_count": 1, "devlogs_count": 10, "votes_count": 0, "ships_count": 1, "projects": [{"id": 8298, "title": "SAT Tutoring Website", "devlogs_count": 10, "created_at": "2025-07-26T03:18:40.214-04:00"}], "coding_time_seconds": 170908, "coding_time_seconds_today": 0, "balance": "You need to have a pocket watcher badge to view this.", "badges": [{"name": "Maiden Voyage", "text": "you shipped your first project! the journey begins...", "icon": "\ud83d\udea2"}], "created_at": "2025-06-16T15:54:05.146-04:00", "updated_at": "2025-09-10T22:52:23.664-04:00", "avatar": "https://avatars.slack-edge.com/2024-11-02/7986286838337_6b44db1384c4d1ddeda0_original.jpg", "custom_css": null}], "pagination": {"page": 124, "pages": 1192, "count": 23828, "items": 20}}