{"users": [{"id": 2501, "slack_id": "U092CRQ7EKS", "display_name": "Ben", "bio": null, "projects_count": 4, "devlogs_count": 26, "votes_count": 38, "ships_count": 2, "projects": [{"id": 3225, "title": "Language Learning App", "devlogs_count": 12, "created_at": "2025-06-23T13:56:47.679-04:00"}, {"id": 3240, "title": "Machine Learning Song Recognition Tool", "devlogs_count": 2, "created_at": "2025-06-23T14:35:28.278-04:00"}, {"id": 5578, "title": "HTML Gen3rate", "devlogs_count": 11, "created_at": "2025-07-06T10:40:38.002-04:00"}, {"id": 5415, "title": "Dots on graviton", "devlogs_count": 1, "created_at": "2025-07-05T06:38:58.044-04:00"}], "coding_time_seconds": 212219, "coding_time_seconds_today": 0, "balance": "You need to have a pocket watcher badge to view this.", "badges": [{"name": "Maiden Voyage", "text": "you shipped your first project! the journey begins...", "icon": "\ud83d\udea2"}], "created_at": "2025-06-16T15:57:58.942-04:00", "updated_at": "2025-09-10T22:52:24.376-04:00", "avatar": "https://secure.gravatar.com/avatar/08988797104d03505845e7cc20944177.jpg?s=512&d=https%3A%2F%2Fa.slack-edge.com%2Fdf10d%2Fimg%2Favatars%2Fava_0006-512.png", "custom_css": null}, {"id": 2502, "slack_id": "U082PHDMTRU", "display_name": "Stephen McAllister", "bio": null, "projects_count": 0, "devlogs_count": 0, "votes_count": 0, "ships_count": 0, "projects": [], "coding_time_seconds": 25522, "coding_time_seconds_today": 0, "balance": "You need to have a pocket watcher badge to view this.", "badges": [], "created_at": "2025-06-16T15:58:03.250-04:00", "updated_at": "2025-07-03T19:22:36.038-04:00", "avatar": "https://secure.gravatar.com/avatar/a714144068e3818a484249b76d9a7e67.jpg?s=512&d=https%3A%2F%2Fa.slack-edge.com%2Fdf10d%2Fimg%2Favatars%2Fava_0026-512.png", "custom_css": null}, {"id": 2503, "slack_id": "U091NJSASTX", "display_name": "Rayan Dua", "bio": null, "projects_count": 1, "devlogs_count": 5, "votes_count": 21, "ships_count": 1, "projects": [{"id": 273, "title": "Better Status Page", "devlogs_count": 5, "created_at": "2025-06-16T16:54:28.851-04:00"}], "coding_time_seconds": 77834, "coding_time_seconds_today": 0, "balance": "You need to have a pocket watcher badge to view this.", "badges": [{"name": "Maiden Voyage", "text": "you shipped your first project! the journey begins...", "icon": "\ud83d\udea2"}, {"name": "Spider", "text": "this user has a pet!", "icon": "\ud83d\udd77\ufe0f"}], "created_at": "2025-06-16T15:58:53.092-04:00", "updated_at": "2025-09-16T00:16:10.696-04:00", "avatar": "https://secure.gravatar.com/avatar/1bef73ff77d66dc1cca91bd8f06dca95.jpg?s=512&d=https%3A%2F%2Fa.slack-edge.com%2Fdf10d%2Fimg%2Favatars%2Fava_0019-512.png", "custom_css": null}, {"id": 2504, "slack_id": "U09193BKMKR", "display_name": "\u0415\u043b\u0438\u0441\u0435\u0439 \u0411\u0438\u0433\u0443\u043d", "bio": null, "projects_count": 0, "devlogs_count": 0, "votes_count": 0, "ships_count": 0, "projects": [], "coding_time_seconds": 0, "coding_time_seconds_today": 0, "balance": "You need to have a pocket watcher badge to view this.", "badges": [], "created_at": "2025-06-16T15:59:07.560-04:00", "updated_at": "2025-07-03T19:22:36.597-04:00", "avatar": "https://avatars.slack-edge.com/2025-06-16/9058819566884_7c247f36fc39974968d1_original.png", "custom_css": null}, {"id": 2505, "slack_id": "U091QCU20KC", "display_name": "Victor", "bio": null, "projects_count": 0, "devlogs_count": 0, "votes_count": 0, "ships_count": 0, "projects": [], "coding_time_seconds": 0, "coding_time_seconds_today": 0, "balance": "You need to have a pocket watcher badge to view this.", "badges": [], "created_at": "2025-06-16T16:00:02.533-04:00", "updated_at": "2025-07-03T19:22:36.860-04:00", "avatar": "https://secure.gravatar.com/avatar/fb3c8638aae7f987238596c48635a852.jpg?s=512&d=https%3A%2F%2Fa.slack-edge.com%2Fdf10d%2Fimg%2Favatars%2Fava_0024-512.png", "custom_css": null}, {"id": 2506, "slack_id": "U09193KD97H", "display_name": "Abba M", "bio": null, "projects_count": 0, "devlogs_count": 0, "votes_count": 0, "ships_count": 0, "projects": [], "coding_time_seconds": 0, "coding_time_seconds_today": 0, "balance": "You need to have a pocket watcher badge to view this.", "badges": [], "created_at": "2025-06-16T16:00:45.596-04:00", "updated_at": "2025-07-03T19:22:37.122-04:00", "avatar": "https://secure.gravatar.com/avatar/b3348bf3e7c21e46e4ee0d45e4b13a43.jpg?s=512&d=https%3A%2F%2Fa.slack-edge.com%2Fdf10d%2Fimg%2Favatars%2Fava_0004-512.png", "custom_css": null}, {"id": 2507, "slack_id": "U091QCX0SBU", "display_name": "Bedlessdeus", "bio": null, "projects_count": 1, "devlogs_count": 6, "votes_count": 0, "ships_count": 0, "projects": [{"id": 289, "title": "CheckDaWeb", "devlogs_count": 6, "created_at": "2025-06-16T17:12:02.653-04:00"}], "coding_time_seconds": 95064, "coding_time_seconds_today": 0, "balance": "You need to have a pocket watcher badge to view this.", "badges": [], "created_at": "2025-06-16T16:01:10.368-04:00", "updated_at": "2025-07-03T19:22:37.400-04:00", "avatar": "https://secure.gravatar.com/avatar/836cfd8c2d3fb577ab6eedff774b0ea0.jpg?s=512&d=https%3A%2F%2Fa.slack-edge.com%2Fdf10d%2Fimg%2Favatars%2Fava_0023-512.png", "custom_css": null}, {"id": 2508, "slack_id": "U079W50K3NW", "display_name": "Ramcharan", "bio": null, "projects_count": 0, "devlogs_count": 0, "votes_count": 0, "ships_count": 0, "projects": [], "coding_time_seconds": 275398, "coding_time_seconds_today": 0, "balance": "You need to have a pocket watcher badge to view this.", "badges": [], "created_at": "2025-06-16T16:01:13.718-04:00", "updated_at": "2025-08-09T19:57:32.634-04:00", "avatar": "https://avatars.slack-edge.com/2025-02-22/8518952549984_39f9c6028f3a1ec9360f_original.png", "custom_css": null}, {"id": 2509, "slack_id": "U091QPW9U9J", "display_name": "Kasun Chanuka Fernando", "bio": null, "projects_count": 0, "devlogs_count": 0, "votes_count": 0, "ships_count": 0, "projects": [], "coding_time_seconds": 309671, "coding_time_seconds_today": 0, "balance": "You need to have a pocket watcher badge to view this.", "badges": [], "created_at": "2025-06-16T16:01:21.757-04:00", "updated_at": "2025-07-03T19:22:37.935-04:00", "avatar": "https://avatars.slack-edge.com/2025-06-16/9051640354070_133d8aec1a56a111bb42_original.jpg", "custom_css": null}, {"id": 2510, "slack_id": "U091QC50QHY", "display_name": "Craig Barnett", "bio": null, "projects_count": 0, "devlogs_count": 0, "votes_count": 0, "ships_count": 0, "projects": [], "coding_time_seconds": 0, "coding_time_seconds_today": 0, "balance": "You need to have a pocket watcher badge to view this.", "badges": [], "created_at": "2025-06-16T16:02:30.687-04:00", "updated_at": "2025-07-03T19:22:38.197-04:00", "avatar": "https://avatars.slack-edge.com/2025-06-16/9051647952566_39f8e0f9df945eecfbd4_original.jpg", "custom_css": null}, {"id": 2511, "slack_id": "U092307DF2M", "display_name": "CJ Dawson", "bio": null, "projects_count": 1, "devlogs_count": 0, "votes_count": 0, "ships_count": 0, "projects": [{"id": 557, "title": "Cmdly", "devlogs_count": 0, "created_at": "2025-06-17T01:08:48.929-04:00"}], "coding_time_seconds": 86358, "coding_time_seconds_today": 0, "balance": "You need to have a pocket watcher badge to view this.", "badges": [], "created_at": "2025-06-16T16:02:44.854-04:00", "updated_at": "2025-07-03T19:22:38.508-04:00", "avatar": "https://avatars.slack-edge.com/2025-06-16/9051534433891_6cfdce1e2ad5434b8c23_original.png", "custom_css": null}, {"id": 2512, "slack_id": "U091HJLUCR4", "display_name": "Divyansh Gupta", "bio": null, "projects_count": 0, "devlogs_count": 0, "votes_count": 0, "ships_count": 0, "projects": [], "coding_time_seconds": 0, "coding_time_seconds_today": 0, "balance": "You need to have a pocket watcher badge to view this.", "badges": [], "created_at": "2025-06-16T16:02:51.172-04:00", "updated_at": "2025-07-03T19:22:38.777-04:00", "avatar": "https://avatars.slack-edge.com/2025-06-16/9058475855986_539f66a675811b2b30c6_original.png", "custom_css": null}, {"id": 2513, "slack_id": "U092CSYC8AC", "display_name": "josue gomes lopes", "bio": null, "projects_count": 0, "devlogs_count": 0, "votes_count": 0, "ships_count": 0, "projects": [], "coding_time_seconds": 10935, "coding_time_seconds_today": 0, "balance": "You need to have a pocket watcher badge to view this.", "badges": [], "created_at": "2025-06-16T16:04:13.004-04:00", "updated_at": "2025-08-31T01:40:10.445-04:00", "avatar": "https://secure.gravatar.com/avatar/4301b98fa33c8de0bc793093015d25f2.jpg?s=512&d=https%3A%2F%2Fa.slack-edge.com%2Fdf10d%2Fimg%2Favatars%2Fava_0012-512.png", "custom_css": null}, {"id": 2514, "slack_id": "U08RGDQ85T7", "display_name": "Quercy", "bio": null, "projects_count": 0, "devlogs_count": 0, "votes_count": 0, "ships_count": 0, "projects": [], "coding_time_seconds": 0, "coding_time_seconds_today": 0, "balance": "You need to have a pocket watcher badge to view this.", "badges": [], "created_at": "2025-06-16T16:04:29.796-04:00", "updated_at": "2025-07-03T19:22:39.314-04:00", "avatar": "https://avatars.slack-edge.com/2025-05-08/8890947913312_dd4b4d89c931b39a5528_original.jpg", "custom_css": null}, {"id": 2515, "slack_id": "U091HFM0BMH", "display_name": "Caleb Fynewever", "bio": null, "projects_count": 0, "devlogs_count": 0, "votes_count": 0, "ships_count": 0, "projects": [], "coding_time_seconds": 1723, "coding_time_seconds_today": 0, "balance": "You need to have a pocket watcher badge to view this.", "badges": [], "created_at": "2025-06-16T16:04:32.983-04:00", "updated_at": "2025-07-03T19:22:39.583-04:00", "avatar": "https://avatars.slack-edge.com/2025-06-16/9056701526805_e9d3f47e960a5ae9592f_original.png", "custom_css": null}, {"id": 2516, "slack_id": "U091MF4FFEZ", "display_name": "Syed Ahnaf Raza", "bio": null, "projects_count": 0, "devlogs_count": 0, "votes_count": 0, "ships_count": 0, "projects": [], "coding_time_seconds": 0, "coding_time_seconds_today": 0, "balance": "You need to have a pocket watcher badge to view this.", "badges": [], "created_at": "2025-06-16T16:04:50.315-04:00", "updated_at": "2025-07-03T19:22:39.860-04:00", "avatar": "https://avatars.slack-edge.com/2025-06-16/9058855157844_14bb110713ac194ac13d_original.png", "custom_css": null}, {"id": 2517, "slack_id": "U091NKCELMB", "display_name": "tchebychev", "bio": null, "projects_count": 0, "devlogs_count": 0, "votes_count": 0, "ships_count": 0, "projects": [], "coding_time_seconds": 0, "coding_time_seconds_today": 0, "balance": "You need to have a pocket watcher badge to view this.", "badges": [], "created_at": "2025-06-16T16:05:12.683-04:00", "updated_at": "2025-07-03T19:22:40.134-04:00", "avatar": "https://secure.gravatar.com/avatar/03e9a2ff04894cfce149b7a40f730d85.jpg?s=512&d=https%3A%2F%2Fa.slack-edge.com%2Fdf10d%2Fimg%2Favatars%2Fava_0006-512.png", "custom_css": null}, {"id": 2518, "slack_id": "U092CSW4FGQ", "display_name": "Solar", "bio": "how's it going?", "projects_count": 13, "devlogs_count": 183, "votes_count": 206, "ships_count": 10, "projects": [{"id": 2390, "title": "ConvertBox", "devlogs_count": 9, "created_at": "2025-06-20T22:40:04.276-04:00"}, {"id": 4587, "title": "Cascade Browser", "devlogs_count": 9, "created_at": "2025-06-30T19:29:07.701-04:00"}, {"id": 10616, "title": "BitRender", "devlogs_count": 23, "created_at": "2025-08-09T00:45:00.975-04:00"}, {"id": 11575, "title": "Soar (i386)", "devlogs_count": 1, "created_at": "2025-08-17T06:29:55.311-04:00"}, {"id": 13055, "title": "Spanky's (SoM Survey)", "devlogs_count": 9, "created_at": "2025-09-07T19:30:30.172-04:00"}, {"id": 13690, "title": "Wavepoint", "devlogs_count": 14, "created_at": "2025-09-23T01:24:28.288-04:00"}, {"id": 13070, "title": "Solar's Magnificent Pizza Collecting Game!", "devlogs_count": 21, "created_at": "2025-09-08T02:34:16.270-04:00"}, {"id": 3655, "title": "ExplainThat!", "devlogs_count": 9, "created_at": "2025-06-25T05:32:51.083-04:00"}, {"id": 5256, "title": "WordGuessr", "devlogs_count": 9, "created_at": "2025-07-04T03:22:09.248-04:00"}, {"id": 6393, "title": "ConvertThat", "devlogs_count": 6, "created_at": "2025-07-13T01:43:59.704-04:00"}, {"id": 4885, "title": "ExplainThat! Discord Edition", "devlogs_count": 5, "created_at": "2025-07-02T03:16:14.283-04:00"}, {"id": 5522, "title": "EsoHype", "devlogs_count": 8, "created_at": "2025-07-05T22:26:07.595-04:00"}, {"id": 7492, "title": "Orb Browser", "devlogs_count": 60, "created_at": "2025-07-22T00:36:55.574-04:00"}], "coding_time_seconds": 689811, "coding_time_seconds_today": 12048, "balance": "You need to have a pocket watcher badge to view this.", "badges": [{"name": "Maiden Voyage", "text": "you shipped your first project! the journey begins...", "icon": "\ud83d\udea2"}, {"name": "Ballot Stuffer", "text": "vote 100 times.", "icon": "https://summer.hackclub.com/assets/i_voted-bf851b48.png"}, {"name": "Spider", "text": "this user has a pet!", "icon": "\ud83d\udd77\ufe0f"}, {"name": "Verified", "text": "this user is verified (i.e. gave us $8)", "icon": "https://summer.hackclub.com/assets/verified-c9457a9f.png"}, {"name": "Graphic Design is My Passion", "text": "Oh God How Did This Get Here I Am Not Good With Computer", "icon": "\ud83c\udfa8"}], "created_at": "2025-06-16T16:05:16.384-04:00", "updated_at": "2025-09-10T22:52:24.938-04:00", "avatar": "https://avatars.slack-edge.com/2025-06-21/9068272987223_35b65ddc5af042b8bbfa_original.png", "custom_css": "* {\r\n    color: #ffffff;\r\n    fill: #ffffff;\r\n}\r\n\r\nbody::before {\r\n    background: #000000;\r\n}\r\n\r\n.card-with-gradient, div.absolute.-inset-0.rounded-lg, .som-button-primary {\r\n    background: #000000 !important;\r\n    border-color: #ffffff !important;\r\n}\r\n    [src=\"/assets/container/container-tl-588612b5.svg\"] {\r\n        display: none;\r\n    }\r\n\r\n    [src=\"/assets/container/container-tm-b678f005.svg\"] {\r\n        display: none;\r\n    }\r\n\r\n    [src=\"/assets/container/container-ml-61c63452.svg\"] {\r\n        display: none;\r\n    }\r\n\r\n    [src=\"/assets/container/container-mr-bf6da02e.svg\"] {\r\n        display: none;\r\n    }\r\n\r\n    [src=\"/assets/container/container-tr-0a17f012.svg\"] {\r\n        display: none;\r\n    }\r\n\r\n    [src=\"/assets/container/container-br-259cfcee.svg\"] {\r\n        display: none;\r\n    }\r\n    [src=\"/assets/container/container-bm-6ff3aaf2.svg\"] {\r\n        display: none;\r\n    }\r\n    [src=\"/assets/container/container-bl-379861a1.svg\"] {\r\n        display: none;\r\n    }\r\n    [src=\"/assets/container/container-mr-bf6da02e.svg\"] {\r\n        display: none;\r\n    }\r\n\r\n[data-sidebar-target=\"sidebar\"] {\r\n    background-color: #000000 !important;\r\n    padding: 10px 10px;\r\n}\r\n\r\nspan.text-xs.px-2.py-1.bg-green-100.text-green-800.rounded-full::before {\r\n    content: \"\u2705\";\r\n}\r\n\r\nspan.text-xs.px-2.py-1.bg-green-100.text-green-800.rounded-full {\r\n    background-color: #000000 !important;\r\n}\r\n\r\n.bug {\r\ndisplay: none;\r\n}\r\n\r\n.bg-\\[radial-gradient\\(circle_at_50\\%_50\\%\\,_\\#F6DBBA\\,_\\#E6D4BE\\)\\] {\r\n\tbackground: #000000;\r\n}"}, {"id": 2519, "slack_id": "U092CSXLLTA", "display_name": "LarsMinth", "bio": null, "projects_count": 0, "devlogs_count": 0, "votes_count": 0, "ships_count": 0, "projects": [], "coding_time_seconds": 0, "coding_time_seconds_today": 0, "balance": "You need to have a pocket watcher badge to view this.", "badges": [], "created_at": "2025-06-16T16:05:22.020-04:00", "updated_at": "2025-07-03T19:22:40.658-04:00", "avatar": "https://secure.gravatar.com/avatar/4932d02f20a5b3dbe117231f82bd4825.jpg?s=512&d=https%3A%2F%2Fa.slack-edge.com%2Fdf10d%2Fimg%2Favatars%2Fava_0008-512.png", "custom_css": null}, {"id": 2520, "slack_id": "U09230HPDTK", "display_name": "Pedro Mesquita", "bio": null, "projects_count": 0, "devlogs_count": 0, "votes_count": 0, "ships_count": 0, "projects": [], "coding_time_seconds": 0, "coding_time_seconds_today": 0, "balance": "You need to have a pocket watcher badge to view this.", "badges": [], "created_at": "2025-06-16T16:05:38.104-04:00", "updated_at": "2025-07-03T19:22:40.930-04:00", "avatar": "https://secure.gravatar.com/avatar/c4b691c081f854a70b3f390878f7e643.jpg?s=512&d=https%3A%2F%2Fa.slack-edge.com%2Fdf10d%2Fimg%2Favatars%2Fava_0004-512.png", "custom_css": null}], "pagination": {"page": 126, "pages": 1192, "count": 23828, "items": 20}}