{"users": [{"id": 2521, "slack_id": "U091QDZSGCS", "display_name": "Robert Q", "bio": null, "projects_count": 1, "devlogs_count": 1, "votes_count": 0, "ships_count": 1, "projects": [{"id": 385, "title": "Web site for your favorite movies", "devlogs_count": 1, "created_at": "2025-06-16T19:51:49.178-04:00"}], "coding_time_seconds": 232973, "coding_time_seconds_today": 0, "balance": "You need to have a pocket watcher badge to view this.", "badges": [{"name": "Maiden Voyage", "text": "you shipped your first project! the journey begins...", "icon": "\ud83d\udea2"}], "created_at": "2025-06-16T16:05:51.195-04:00", "updated_at": "2025-09-10T22:52:25.040-04:00", "avatar": "https://secure.gravatar.com/avatar/62c2676abf90c7f555c730e9c949fc56.jpg?s=512&d=https%3A%2F%2Fa.slack-edge.com%2Fdf10d%2Fimg%2Favatars%2Fava_0011-512.png", "custom_css": null}, {"id": 2522, "slack_id": "U082AL5N9FC", "display_name": "nihaal (neon443)", "bio": null, "projects_count": 0, "devlogs_count": 0, "votes_count": 0, "ships_count": 0, "projects": [], "coding_time_seconds": 797955, "coding_time_seconds_today": 0, "balance": "You need to have a pocket watcher badge to view this.", "badges": [], "created_at": "2025-06-16T16:05:54.483-04:00", "updated_at": "2025-08-18T20:09:29.680-04:00", "avatar": "https://avatars.slack-edge.com/2025-08-18/9373184930646_86376abc1498ec10cbab_original.png", "custom_css": null}, {"id": 2523, "slack_id": "U091NL8T3AR", "display_name": "Hasnain", "bio": null, "projects_count": 0, "devlogs_count": 0, "votes_count": 0, "ships_count": 0, "projects": [], "coding_time_seconds": 0, "coding_time_seconds_today": 0, "balance": "You need to have a pocket watcher badge to view this.", "badges": [], "created_at": "2025-06-16T16:05:57.217-04:00", "updated_at": "2025-07-03T19:22:41.747-04:00", "avatar": "https://secure.gravatar.com/avatar/53153b75f2a7347b1882ec0bdaf4a6bf.jpg?s=512&d=https%3A%2F%2Fa.slack-edge.com%2Fdf10d%2Fimg%2Favatars%2Fava_0017-512.png", "custom_css": null}, {"id": 2524, "slack_id": "U0921KK6D6V", "display_name": "Findlay", "bio": null, "projects_count": 0, "devlogs_count": 0, "votes_count": 0, "ships_count": 0, "projects": [], "coding_time_seconds": 0, "coding_time_seconds_today": 0, "balance": "You need to have a pocket watcher badge to view this.", "badges": [], "created_at": "2025-06-16T16:06:01.336-04:00", "updated_at": "2025-07-03T19:22:42.011-04:00", "avatar": "https://secure.gravatar.com/avatar/e92357fa31d1caac80f9156d14422295.jpg?s=512&d=https%3A%2F%2Fa.slack-edge.com%2Fdf10d%2Fimg%2Favatars%2Fava_0018-512.png", "custom_css": null}, {"id": 2525, "slack_id": "U08MX9GNDST", "display_name": "pj", "bio": null, "projects_count": 2, "devlogs_count": 5, "votes_count": 5, "ships_count": 0, "projects": [{"id": 10162, "title": "Meridian Education", "devlogs_count": 3, "created_at": "2025-08-04T13:58:42.655-04:00"}, {"id": 10782, "title": "Evently", "devlogs_count": 0, "created_at": "2025-08-10T18:54:44.712-04:00"}], "coding_time_seconds": 379638, "coding_time_seconds_today": 0, "balance": "You need to have a pocket watcher badge to view this.", "badges": [], "created_at": "2025-06-16T16:06:08.769-04:00", "updated_at": "2025-08-07T09:18:59.344-04:00", "avatar": "https://avatars.slack-edge.com/2025-05-30/8976622459938_5c7fb6cdcab09f4e4fdb_original.png", "custom_css": null}, {"id": 2526, "slack_id": "U0808AQTWAF", "display_name": "Ond\u0159ej Pacovsk\u00fd", "bio": null, "projects_count": 0, "devlogs_count": 0, "votes_count": 0, "ships_count": 0, "projects": [], "coding_time_seconds": 0, "coding_time_seconds_today": 0, "balance": "You need to have a pocket watcher badge to view this.", "badges": [], "created_at": "2025-06-16T16:06:40.267-04:00", "updated_at": "2025-07-03T19:22:42.552-04:00", "avatar": "https://avatars.slack-edge.com/2024-12-21/8193884878103_d3d4b4f8db869390e3f0_original.png", "custom_css": null}, {"id": 2527, "slack_id": "U09194PL3EK", "display_name": "Nour Eldeen", "bio": null, "projects_count": 0, "devlogs_count": 0, "votes_count": 0, "ships_count": 0, "projects": [], "coding_time_seconds": 0, "coding_time_seconds_today": 0, "balance": "You need to have a pocket watcher badge to view this.", "badges": [], "created_at": "2025-06-16T16:06:50.465-04:00", "updated_at": "2025-07-03T19:22:42.820-04:00", "avatar": "https://secure.gravatar.com/avatar/faab6682b5e5b234eba8a3c4a684234b.jpg?s=512&d=https%3A%2F%2Fa.slack-edge.com%2Fdf10d%2Fimg%2Favatars%2Fava_0017-512.png", "custom_css": null}, {"id": 2528, "slack_id": "U091QE6DJE6", "display_name": "Belema Roberts", "bio": null, "projects_count": 0, "devlogs_count": 0, "votes_count": 0, "ships_count": 0, "projects": [], "coding_time_seconds": 23741, "coding_time_seconds_today": 0, "balance": "You need to have a pocket watcher badge to view this.", "badges": [], "created_at": "2025-06-16T16:06:51.105-04:00", "updated_at": "2025-07-03T19:22:43.081-04:00", "avatar": "https://avatars.slack-edge.com/2025-06-16/9058496318114_a3a87e4ed82ea96e1328_original.png", "custom_css": null}, {"id": 2529, "slack_id": "U091QQXHM44", "display_name": "Mario Pereira", "bio": null, "projects_count": 0, "devlogs_count": 0, "votes_count": 0, "ships_count": 0, "projects": [], "coding_time_seconds": 0, "coding_time_seconds_today": 0, "balance": "You need to have a pocket watcher badge to view this.", "badges": [], "created_at": "2025-06-16T16:06:53.764-04:00", "updated_at": "2025-07-03T19:22:43.356-04:00", "avatar": "https://avatars.slack-edge.com/2025-06-16/9080944802976_c9538d41227f7c050d23_original.png", "custom_css": null}, {"id": 2530, "slack_id": "U092CQSHD2L", "display_name": "Lachlan", "bio": null, "projects_count": 0, "devlogs_count": 0, "votes_count": 0, "ships_count": 0, "projects": [], "coding_time_seconds": 45139, "coding_time_seconds_today": 0, "balance": "You need to have a pocket watcher badge to view this.", "badges": [], "created_at": "2025-06-16T16:07:43.650-04:00", "updated_at": "2025-07-03T19:22:43.638-04:00", "avatar": "https://secure.gravatar.com/avatar/700ab545503c9a159893dbe06f857134.jpg?s=512&d=https%3A%2F%2Fa.slack-edge.com%2Fdf10d%2Fimg%2Favatars%2Fava_0004-512.png", "custom_css": null}, {"id": 2531, "slack_id": "U091954GXN3", "display_name": "mvidal", "bio": null, "projects_count": 0, "devlogs_count": 0, "votes_count": 0, "ships_count": 0, "projects": [], "coding_time_seconds": 0, "coding_time_seconds_today": 0, "balance": "You need to have a pocket watcher badge to view this.", "badges": [], "created_at": "2025-06-16T16:08:06.401-04:00", "updated_at": "2025-07-03T19:22:43.911-04:00", "avatar": "https://secure.gravatar.com/avatar/5516166c61b8037fe8047857f8aa68c7.jpg?s=512&d=https%3A%2F%2Fa.slack-edge.com%2Fdf10d%2Fimg%2Favatars%2Fava_0003-512.png", "custom_css": null}, {"id": 2532, "slack_id": "U091HKG9TJS", "display_name": "Alessandro Di Liberti", "bio": null, "projects_count": 0, "devlogs_count": 0, "votes_count": 0, "ships_count": 0, "projects": [], "coding_time_seconds": 83, "coding_time_seconds_today": 0, "balance": "You need to have a pocket watcher badge to view this.", "badges": [], "created_at": "2025-06-16T16:08:29.107-04:00", "updated_at": "2025-07-03T19:22:44.182-04:00", "avatar": "https://avatars.slack-edge.com/2025-06-16/9056720040645_8617a55743b02693edc8_original.png", "custom_css": null}, {"id": 2533, "slack_id": "U092BGL0UUQ", "display_name": "i-am-unknown-81514525", "bio": null, "projects_count": 4, "devlogs_count": 42, "votes_count": 121, "ships_count": 3, "projects": [{"id": 393, "title": "Signals", "devlogs_count": 1, "created_at": "2025-06-16T19:59:40.062-04:00"}, {"id": 9147, "title": "FileShare", "devlogs_count": 5, "created_at": "2025-07-30T19:01:56.528-04:00"}, {"id": 952, "title": "C# consoleUI", "devlogs_count": 30, "created_at": "2025-06-17T12:12:12.495-04:00"}, {"id": 10692, "title": "CodeCAPTCHA", "devlogs_count": 6, "created_at": "2025-08-09T17:20:52.314-04:00"}], "coding_time_seconds": 608277, "coding_time_seconds_today": 0, "balance": "You need to have a pocket watcher badge to view this.", "badges": [{"name": "Maiden Voyage", "text": "you shipped your first project! the journey begins...", "icon": "\ud83d\udea2"}, {"name": "Ballot Stuffer", "text": "vote 100 times.", "icon": "https://summer.hackclub.com/assets/i_voted-bf851b48.png"}], "created_at": "2025-06-16T16:08:41.558-04:00", "updated_at": "2025-09-10T22:52:25.588-04:00", "avatar": "https://secure.gravatar.com/avatar/a78fcb1486ec48ef10df47d4edee78ac.jpg?s=512&d=https%3A%2F%2Fa.slack-edge.com%2Fdf10d%2Fimg%2Favatars%2Fava_0005-512.png", "custom_css": null}, {"id": 2534, "slack_id": "U091GHBE7T5", "display_name": "SAMANTHA ALEJANDRE", "bio": null, "projects_count": 0, "devlogs_count": 0, "votes_count": 0, "ships_count": 0, "projects": [], "coding_time_seconds": 53068, "coding_time_seconds_today": 0, "balance": "You need to have a pocket watcher badge to view this.", "badges": [], "created_at": "2025-06-16T16:08:46.634-04:00", "updated_at": "2025-07-03T19:22:44.732-04:00", "avatar": "https://avatars.slack-edge.com/2025-06-16/9056721037621_0bb9b84089357dae0abe_original.png", "custom_css": null}, {"id": 2535, "slack_id": "U091QRB00A0", "display_name": "Dahana", "bio": null, "projects_count": 0, "devlogs_count": 0, "votes_count": 0, "ships_count": 0, "projects": [], "coding_time_seconds": 0, "coding_time_seconds_today": 0, "balance": "You need to have a pocket watcher badge to view this.", "badges": [], "created_at": "2025-06-16T16:08:48.661-04:00", "updated_at": "2025-07-03T19:22:45.036-04:00", "avatar": "https://secure.gravatar.com/avatar/4f2dba017f650d25923eda779ebc0082.jpg?s=512&d=https%3A%2F%2Fa.slack-edge.com%2Fdf10d%2Fimg%2Favatars%2Fava_0016-512.png", "custom_css": null}, {"id": 2536, "slack_id": "U091HK9D170", "display_name": "Vanessa Retegu\u00edn", "bio": null, "projects_count": 0, "devlogs_count": 0, "votes_count": 0, "ships_count": 0, "projects": [], "coding_time_seconds": 0, "coding_time_seconds_today": 0, "balance": "You need to have a pocket watcher badge to view this.", "badges": [], "created_at": "2025-06-16T16:09:04.294-04:00", "updated_at": "2025-07-03T19:22:45.308-04:00", "avatar": "https://secure.gravatar.com/avatar/debb45b92601e7a161b3b8a43737083d.jpg?s=512&d=https%3A%2F%2Fa.slack-edge.com%2Fdf10d%2Fimg%2Favatars%2Fava_0006-512.png", "custom_css": null}, {"id": 2537, "slack_id": "U092310MYLR", "display_name": "Alec Levy", "bio": null, "projects_count": 0, "devlogs_count": 0, "votes_count": 0, "ships_count": 0, "projects": [], "coding_time_seconds": 0, "coding_time_seconds_today": 0, "balance": "You need to have a pocket watcher badge to view this.", "badges": [], "created_at": "2025-06-16T16:09:13.324-04:00", "updated_at": "2025-07-03T19:22:45.597-04:00", "avatar": "https://secure.gravatar.com/avatar/a22e5b2320585b9e8e4538871b261a38.jpg?s=512&d=https%3A%2F%2Fa.slack-edge.com%2Fdf10d%2Fimg%2Favatars%2Fava_0020-512.png", "custom_css": null}, {"id": 2538, "slack_id": "U091HKN0KU6", "display_name": "Lex", "bio": null, "projects_count": 0, "devlogs_count": 0, "votes_count": 0, "ships_count": 0, "projects": [], "coding_time_seconds": 862, "coding_time_seconds_today": 0, "balance": "You need to have a pocket watcher badge to view this.", "badges": [], "created_at": "2025-06-16T16:09:14.191-04:00", "updated_at": "2025-07-03T19:22:45.875-04:00", "avatar": "https://secure.gravatar.com/avatar/6f092b805ae187b7c464f580a17b2a7a.jpg?s=512&d=https%3A%2F%2Fa.slack-edge.com%2Fdf10d%2Fimg%2Favatars%2Fava_0005-512.png", "custom_css": null}, {"id": 2539, "slack_id": "U0919571ABH", "display_name": "Tam\u00e1s", "bio": null, "projects_count": 0, "devlogs_count": 0, "votes_count": 0, "ships_count": 0, "projects": [], "coding_time_seconds": 0, "coding_time_seconds_today": 0, "balance": "You need to have a pocket watcher badge to view this.", "badges": [], "created_at": "2025-06-16T16:09:21.568-04:00", "updated_at": "2025-07-03T19:22:46.162-04:00", "avatar": "https://secure.gravatar.com/avatar/c51271ba7f5e38c7980bd20d6d7de1e4.jpg?s=512&d=https%3A%2F%2Fa.slack-edge.com%2Fdf10d%2Fimg%2Favatars%2Fava_0003-512.png", "custom_css": null}, {"id": 2540, "slack_id": "U091GK4V067", "display_name": "Ismael Dom\u00ednguez Jim\u00e9nez", "bio": null, "projects_count": 0, "devlogs_count": 0, "votes_count": 0, "ships_count": 0, "projects": [], "coding_time_seconds": 0, "coding_time_seconds_today": 0, "balance": "You need to have a pocket watcher badge to view this.", "badges": [], "created_at": "2025-06-16T16:09:47.189-04:00", "updated_at": "2025-07-03T19:22:46.433-04:00", "avatar": "https://avatars.slack-edge.com/2025-06-16/9080958144928_3936983c78db27620691_original.png", "custom_css": null}], "pagination": {"page": 127, "pages": 1192, "count": 23828, "items": 20}}