{"users": [{"id": 2541, "slack_id": "U091QELP7C2", "display_name": "Emaan Hookey", "bio": null, "projects_count": 1, "devlogs_count": 0, "votes_count": 0, "ships_count": 0, "projects": [{"id": 261, "title": "ScriptLab", "devlogs_count": 0, "created_at": "2025-06-16T16:33:09.179-04:00"}], "coding_time_seconds": 273057, "coding_time_seconds_today": 0, "balance": "You need to have a pocket watcher badge to view this.", "badges": [], "created_at": "2025-06-16T16:09:54.766-04:00", "updated_at": "2025-07-03T19:22:46.693-04:00", "avatar": "https://secure.gravatar.com/avatar/dd8d277a1d8e443d7206d08fd98e8683.jpg?s=512&d=https%3A%2F%2Fa.slack-edge.com%2Fdf10d%2Fimg%2Favatars%2Fava_0011-512.png", "custom_css": null}, {"id": 2542, "slack_id": "U091QR9S91S", "display_name": "docfips", "bio": null, "projects_count": 0, "devlogs_count": 0, "votes_count": 0, "ships_count": 0, "projects": [], "coding_time_seconds": 0, "coding_time_seconds_today": 0, "balance": "You need to have a pocket watcher badge to view this.", "badges": [], "created_at": "2025-06-16T16:10:10.089-04:00", "updated_at": "2025-07-03T19:22:46.967-04:00", "avatar": "https://secure.gravatar.com/avatar/63619e93602e74c394f566a3371cb188.jpg?s=512&d=https%3A%2F%2Fa.slack-edge.com%2Fdf10d%2Fimg%2Favatars%2Fava_0008-512.png", "custom_css": null}, {"id": 2543, "slack_id": "U091QQZ78HJ", "display_name": "Salman Khan", "bio": null, "projects_count": 0, "devlogs_count": 0, "votes_count": 0, "ships_count": 0, "projects": [], "coding_time_seconds": 0, "coding_time_seconds_today": 0, "balance": "You need to have a pocket watcher badge to view this.", "badges": [], "created_at": "2025-06-16T16:10:16.767-04:00", "updated_at": "2025-07-03T19:22:47.238-04:00", "avatar": "https://secure.gravatar.com/avatar/b83a543c6855897a95bc5aec06cd1d8e.jpg?s=512&d=https%3A%2F%2Fa.slack-edge.com%2Fdf10d%2Fimg%2Favatars%2Fava_0005-512.png", "custom_css": null}, {"id": 2544, "slack_id": "U092BG77HFS", "display_name": "Andres Ore Soto", "bio": null, "projects_count": 0, "devlogs_count": 0, "votes_count": 0, "ships_count": 0, "projects": [], "coding_time_seconds": 0, "coding_time_seconds_today": 0, "balance": "You need to have a pocket watcher badge to view this.", "badges": [], "created_at": "2025-06-16T16:10:30.490-04:00", "updated_at": "2025-07-03T19:22:47.506-04:00", "avatar": "https://secure.gravatar.com/avatar/0657a18a8f27b33b5239c985f9bf44bf.jpg?s=512&d=https%3A%2F%2Fa.slack-edge.com%2Fdf10d%2Fimg%2Favatars%2Fava_0008-512.png", "custom_css": null}, {"id": 2545, "slack_id": "U079A6KNYB1", "display_name": "adrian", "bio": null, "projects_count": 0, "devlogs_count": 0, "votes_count": 0, "ships_count": 0, "projects": [], "coding_time_seconds": 2908, "coding_time_seconds_today": 0, "balance": "You need to have a pocket watcher badge to view this.", "badges": [], "created_at": "2025-06-16T16:10:39.294-04:00", "updated_at": "2025-07-03T19:22:47.777-04:00", "avatar": "https://avatars.slack-edge.com/2024-10-07/7829332898711_f5e96a823856fbd5fd9f_original.png", "custom_css": null}, {"id": 2546, "slack_id": "U09195BQU9M", "display_name": "H E", "bio": null, "projects_count": 0, "devlogs_count": 0, "votes_count": 0, "ships_count": 0, "projects": [], "coding_time_seconds": 0, "coding_time_seconds_today": 0, "balance": "You need to have a pocket watcher badge to view this.", "badges": [], "created_at": "2025-06-16T16:10:46.931-04:00", "updated_at": "2025-07-03T19:22:48.045-04:00", "avatar": "https://avatars.slack-edge.com/2025-06-16/9051573706899_c4d321de55e55c10c852_original.png", "custom_css": null}, {"id": 2547, "slack_id": "U091HG3CY11", "display_name": "Tymonoman", "bio": null, "projects_count": 0, "devlogs_count": 0, "votes_count": 0, "ships_count": 0, "projects": [], "coding_time_seconds": 0, "coding_time_seconds_today": 0, "balance": "You need to have a pocket watcher badge to view this.", "badges": [], "created_at": "2025-06-16T16:10:54.179-04:00", "updated_at": "2025-07-03T19:22:48.419-04:00", "avatar": "https://secure.gravatar.com/avatar/feb2574bd3a82f383bf46b18c5daf675.jpg?s=512&d=https%3A%2F%2Fa.slack-edge.com%2Fdf10d%2Fimg%2Favatars%2Fava_0016-512.png", "custom_css": null}, {"id": 2548, "slack_id": "U091HEY19C3", "display_name": "Aadarsh", "bio": null, "projects_count": 0, "devlogs_count": 0, "votes_count": 0, "ships_count": 0, "projects": [], "coding_time_seconds": 60172, "coding_time_seconds_today": 0, "balance": "You need to have a pocket watcher badge to view this.", "badges": [], "created_at": "2025-06-16T16:11:00.362-04:00", "updated_at": "2025-07-03T19:22:48.685-04:00", "avatar": "https://avatars.slack-edge.com/2025-06-16/9058515837394_0be450c8865b63974729_original.png", "custom_css": null}, {"id": 2549, "slack_id": "U091NL81RK7", "display_name": "Sriyaanvy", "bio": null, "projects_count": 0, "devlogs_count": 0, "votes_count": 0, "ships_count": 0, "projects": [], "coding_time_seconds": 0, "coding_time_seconds_today": 0, "balance": "You need to have a pocket watcher badge to view this.", "badges": [], "created_at": "2025-06-16T16:11:19.089-04:00", "updated_at": "2025-07-03T19:22:49.005-04:00", "avatar": "https://secure.gravatar.com/avatar/e064aad2d08d66594cb16e548ed582ac.jpg?s=512&d=https%3A%2F%2Fa.slack-edge.com%2Fdf10d%2Fimg%2Favatars%2Fava_0010-512.png", "custom_css": null}, {"id": 2550, "slack_id": "U091QEWCXH8", "display_name": "sleepingzzs", "bio": null, "projects_count": 1, "devlogs_count": 0, "votes_count": 0, "ships_count": 0, "projects": [{"id": 264, "title": "MCRemote", "devlogs_count": 0, "created_at": "2025-06-16T16:35:14.232-04:00"}], "coding_time_seconds": 3921, "coding_time_seconds_today": 0, "balance": "You need to have a pocket watcher badge to view this.", "badges": [], "created_at": "2025-06-16T16:11:22.001-04:00", "updated_at": "2025-07-03T19:22:49.270-04:00", "avatar": "https://secure.gravatar.com/avatar/be07667a94f31c334f6cdb20ba97f062.jpg?s=512&d=https%3A%2F%2Fa.slack-edge.com%2Fdf10d%2Fimg%2Favatars%2Fava_0026-512.png", "custom_css": null}, {"id": 2551, "slack_id": "U092CTVMY80", "display_name": "Mohammed Hit", "bio": null, "projects_count": 0, "devlogs_count": 0, "votes_count": 0, "ships_count": 0, "projects": [], "coding_time_seconds": 0, "coding_time_seconds_today": 0, "balance": "You need to have a pocket watcher badge to view this.", "badges": [], "created_at": "2025-06-16T16:11:36.421-04:00", "updated_at": "2025-07-03T19:22:49.544-04:00", "avatar": "https://secure.gravatar.com/avatar/2e512d525252cb7dfb64b8ef10b71098.jpg?s=512&d=https%3A%2F%2Fa.slack-edge.com%2Fdf10d%2Fimg%2Favatars%2Fava_0019-512.png", "custom_css": null}, {"id": 2552, "slack_id": "U091HGHP8LB", "display_name": "MIGUEL \u00c1NGEL GONZ\u00c1LEZ SANTAMARTA", "bio": null, "projects_count": 1, "devlogs_count": 0, "votes_count": 0, "ships_count": 0, "projects": [{"id": 269, "title": "YASMIN (Yet Another State MachINe)", "devlogs_count": 0, "created_at": "2025-06-16T16:45:05.938-04:00"}], "coding_time_seconds": 92283, "coding_time_seconds_today": 0, "balance": "You need to have a pocket watcher badge to view this.", "badges": [], "created_at": "2025-06-16T16:12:13.839-04:00", "updated_at": "2025-07-03T19:22:49.838-04:00", "avatar": "https://avatars.slack-edge.com/2025-06-16/9071066695537_2909c301bfe74db27239_original.png", "custom_css": null}, {"id": 2553, "slack_id": "U09230U1RNV", "display_name": "Samikhya", "bio": null, "projects_count": 0, "devlogs_count": 0, "votes_count": 0, "ships_count": 0, "projects": [], "coding_time_seconds": 0, "coding_time_seconds_today": 0, "balance": "You need to have a pocket watcher badge to view this.", "badges": [], "created_at": "2025-06-16T16:12:19.741-04:00", "updated_at": "2025-07-03T19:22:50.121-04:00", "avatar": "https://secure.gravatar.com/avatar/8e7ab2fcca469786add8015c68b67dd9.jpg?s=512&d=https%3A%2F%2Fa.slack-edge.com%2Fdf10d%2Fimg%2Favatars%2Fava_0026-512.png", "custom_css": null}, {"id": 2554, "slack_id": "U091NM5PM1T", "display_name": "D S", "bio": null, "projects_count": 0, "devlogs_count": 0, "votes_count": 0, "ships_count": 0, "projects": [], "coding_time_seconds": 367, "coding_time_seconds_today": 0, "balance": "You need to have a pocket watcher badge to view this.", "badges": [], "created_at": "2025-06-16T16:12:51.323-04:00", "updated_at": "2025-07-03T19:22:50.391-04:00", "avatar": "https://avatars.slack-edge.com/2025-06-17/9056750319093_c03475c490a62e228cf9_original.jpg", "custom_css": null}, {"id": 2555, "slack_id": "U08TLAS5YAZ", "display_name": "Prakhar", "bio": "Hi", "projects_count": 2, "devlogs_count": 7, "votes_count": 25, "ships_count": 2, "projects": [{"id": 313, "title": "ImageSaver", "devlogs_count": 5, "created_at": "2025-06-16T17:49:51.918-04:00"}, {"id": 6768, "title": "Event Scheduler", "devlogs_count": 2, "created_at": "2025-07-16T01:06:01.376-04:00"}], "coding_time_seconds": 62214, "coding_time_seconds_today": 0, "balance": "You need to have a pocket watcher badge to view this.", "badges": [{"name": "Maiden Voyage", "text": "you shipped your first project! the journey begins...", "icon": "\ud83d\udea2"}], "created_at": "2025-06-16T16:13:00.199-04:00", "updated_at": "2025-09-10T22:52:26.227-04:00", "avatar": "https://secure.gravatar.com/avatar/6e690a0bd24b5f8bee3930968719cfeb.jpg?s=512&d=https%3A%2F%2Fa.slack-edge.com%2Fdf10d%2Fimg%2Favatars%2Fava_0008-512.png", "custom_css": null}, {"id": 2556, "slack_id": "U092CU867HN", "display_name": "krithika", "bio": null, "projects_count": 0, "devlogs_count": 0, "votes_count": 0, "ships_count": 0, "projects": [], "coding_time_seconds": 0, "coding_time_seconds_today": 0, "balance": "You need to have a pocket watcher badge to view this.", "badges": [], "created_at": "2025-06-16T16:13:11.905-04:00", "updated_at": "2025-07-03T19:22:50.929-04:00", "avatar": "https://secure.gravatar.com/avatar/e0a00c75420928054eecc5085d00e6f1.jpg?s=512&d=https%3A%2F%2Fa.slack-edge.com%2Fdf10d%2Fimg%2Favatars%2Fava_0001-512.png", "custom_css": null}, {"id": 2557, "slack_id": "U092CU7363S", "display_name": "Ebenezer Olaleye", "bio": null, "projects_count": 0, "devlogs_count": 0, "votes_count": 0, "ships_count": 0, "projects": [], "coding_time_seconds": 1, "coding_time_seconds_today": 0, "balance": "You need to have a pocket watcher badge to view this.", "badges": [], "created_at": "2025-06-16T16:13:52.179-04:00", "updated_at": "2025-07-03T19:22:51.209-04:00", "avatar": "https://avatars.slack-edge.com/2025-06-16/9043212924247_15cfbc8af0865d377d18_original.png", "custom_css": null}, {"id": 2558, "slack_id": "U091QEGGC1G", "display_name": "Mubarak Ahmed", "bio": null, "projects_count": 0, "devlogs_count": 0, "votes_count": 0, "ships_count": 0, "projects": [], "coding_time_seconds": 523, "coding_time_seconds_today": 0, "balance": "You need to have a pocket watcher badge to view this.", "badges": [], "created_at": "2025-06-16T16:13:54.669-04:00", "updated_at": "2025-07-03T19:22:51.487-04:00", "avatar": "https://avatars.slack-edge.com/2025-06-16/9058895433588_3ac0c82d4a88594e4880_original.png", "custom_css": null}, {"id": 2559, "slack_id": "U0834AVTNSG", "display_name": "Samuel K", "bio": null, "projects_count": 0, "devlogs_count": 0, "votes_count": 0, "ships_count": 0, "projects": [], "coding_time_seconds": 0, "coding_time_seconds_today": 0, "balance": "You need to have a pocket watcher badge to view this.", "badges": [], "created_at": "2025-06-16T16:14:04.132-04:00", "updated_at": "2025-07-03T19:22:51.757-04:00", "avatar": "https://secure.gravatar.com/avatar/301085fb1cf45e9fd6c85e39774b9e18.jpg?s=512&d=https%3A%2F%2Fa.slack-edge.com%2Fdf10d%2Fimg%2Favatars%2Fava_0004-512.png", "custom_css": null}, {"id": 2560, "slack_id": "U091P3SQ9GS", "display_name": "Siaw Henry Nartey", "bio": null, "projects_count": 0, "devlogs_count": 0, "votes_count": 0, "ships_count": 0, "projects": [], "coding_time_seconds": 0, "coding_time_seconds_today": 0, "balance": "You need to have a pocket watcher badge to view this.", "badges": [], "created_at": "2025-06-16T16:14:04.153-04:00", "updated_at": "2025-07-03T19:22:52.027-04:00", "avatar": "https://secure.gravatar.com/avatar/78ade03bf66a06159fe6362e4c59986a.jpg?s=512&d=https%3A%2F%2Fa.slack-edge.com%2Fdf10d%2Fimg%2Favatars%2Fava_0018-512.png", "custom_css": null}], "pagination": {"page": 128, "pages": 1192, "count": 23828, "items": 20}}