{"users": [{"id": 241, "slack_id": "U08CJ3DF6UX", "display_name": "Karim Ahmad", "bio": null, "projects_count": 9, "devlogs_count": 34, "votes_count": 112, "ships_count": 7, "projects": [{"id": 2371, "title": "Sweet land", "devlogs_count": 2, "created_at": "2025-06-20T21:11:22.309-04:00"}, {"id": 3152, "title": "EcoEnergy", "devlogs_count": 5, "created_at": "2025-06-23T08:44:42.783-04:00"}, {"id": 4265, "title": "fitness pro", "devlogs_count": 5, "created_at": "2025-06-28T14:40:33.144-04:00"}, {"id": 11271, "title": "valorant page", "devlogs_count": 3, "created_at": "2025-08-14T13:04:17.123-04:00"}, {"id": 11977, "title": "protofolio", "devlogs_count": 6, "created_at": "2025-08-21T18:31:31.187-04:00"}, {"id": 12225, "title": "pupg turnoment site", "devlogs_count": 5, "created_at": "2025-08-24T14:23:46.845-04:00"}, {"id": 12513, "title": "netflix clone", "devlogs_count": 6, "created_at": "2025-08-28T20:51:21.208-04:00"}, {"id": 12514, "title": "weather forecast", "devlogs_count": 1, "created_at": "2025-08-28T20:52:20.336-04:00"}, {"id": 6283, "title": "Eco-vipe", "devlogs_count": 1, "created_at": "2025-07-12T01:07:31.902-04:00"}], "coding_time_seconds": 353282, "coding_time_seconds_today": 0, "balance": "You need to have a pocket watcher badge to view this.", "badges": [{"name": "Maiden Voyage", "text": "you shipped your first project! the journey begins...", "icon": "\ud83d\udea2"}, {"name": "Ballot Stuffer", "text": "vote 100 times.", "icon": "https://summer.hackclub.com/assets/i_voted-bf851b48.png"}], "created_at": "2025-06-16T09:22:46.616-04:00", "updated_at": "2025-09-10T22:51:14.108-04:00", "avatar": "https://avatars.slack-edge.com/2025-02-12/8437819260629_32ed7e1ee1521a6ad132_original.png", "custom_css": null}, {"id": 242, "slack_id": "U092AHHC3LY", "display_name": "Tenpoooo", "bio": null, "projects_count": 0, "devlogs_count": 0, "votes_count": 0, "ships_count": 0, "projects": [], "coding_time_seconds": 12448, "coding_time_seconds_today": 0, "balance": "You need to have a pocket watcher badge to view this.", "badges": [], "created_at": "2025-06-16T09:23:19.136-04:00", "updated_at": "2025-07-03T19:12:05.956-04:00", "avatar": "https://secure.gravatar.com/avatar/46ad3a974544d9c4420c6ff398ae7c9a.jpg?s=512&d=https%3A%2F%2Fa.slack-edge.com%2Fdf10d%2Fimg%2Favatars%2Fava_0016-512.png", "custom_css": null}, {"id": 243, "slack_id": "U0801T6959D", "display_name": "dracula", "bio": null, "projects_count": 0, "devlogs_count": 0, "votes_count": 0, "ships_count": 0, "projects": [], "coding_time_seconds": 0, "coding_time_seconds_today": 0, "balance": "You need to have a pocket watcher badge to view this.", "badges": [], "created_at": "2025-06-16T09:23:29.837-04:00", "updated_at": "2025-07-03T19:12:06.264-04:00", "avatar": "https://avatars.slack-edge.com/2025-01-18/8312015816341_1504c3a6b368d75c2561_original.jpg", "custom_css": null}, {"id": 244, "slack_id": "U07LKN2HXT3", "display_name": "Obay", "bio": null, "projects_count": 10, "devlogs_count": 27, "votes_count": 53, "ships_count": 3, "projects": [{"id": 5573, "title": "GameThemed Portfolio", "devlogs_count": 4, "created_at": "2025-07-06T09:41:35.800-04:00"}, {"id": 8737, "title": "Glassy UI", "devlogs_count": 5, "created_at": "2025-07-29T04:22:27.895-04:00"}, {"id": 8837, "title": "HabitTogether", "devlogs_count": 1, "created_at": "2025-07-29T12:22:15.530-04:00"}, {"id": 8843, "title": "Obay's universe", "devlogs_count": 0, "created_at": "2025-07-29T12:25:56.454-04:00"}, {"id": 8846, "title": "Diyaa (Radiance)", "devlogs_count": 0, "created_at": "2025-07-29T12:31:14.677-04:00"}, {"id": 8851, "title": "Tweakly", "devlogs_count": 0, "created_at": "2025-07-29T12:32:57.595-04:00"}, {"id": 11938, "title": "Shop Website", "devlogs_count": 0, "created_at": "2025-08-21T08:09:33.013-04:00"}, {"id": 12767, "title": "Flow Typing", "devlogs_count": 1, "created_at": "2025-09-02T07:42:37.806-04:00"}, {"id": 5304, "title": "Coding Program ", "devlogs_count": 9, "created_at": "2025-07-04T11:13:39.362-04:00"}, {"id": 5774, "title": "Q&A bot", "devlogs_count": 7, "created_at": "2025-07-07T22:57:07.303-04:00"}], "coding_time_seconds": 382180, "coding_time_seconds_today": 0, "balance": "You need to have a pocket watcher badge to view this.", "badges": [{"name": "Maiden Voyage", "text": "you shipped your first project! the journey begins...", "icon": "\ud83d\udea2"}], "created_at": "2025-06-16T09:23:45.722-04:00", "updated_at": "2025-09-10T22:51:14.211-04:00", "avatar": "https://avatars.slack-edge.com/2025-07-11/9197346921489_3d30b6b0c45509930354_original.png", "custom_css": null}, {"id": 245, "slack_id": "U0916MXEAHM", "display_name": "KittyCat testing", "bio": null, "projects_count": 0, "devlogs_count": 0, "votes_count": 0, "ships_count": 0, "projects": [], "coding_time_seconds": 0, "coding_time_seconds_today": 0, "balance": "You need to have a pocket watcher badge to view this.", "badges": [], "created_at": "2025-06-16T09:24:42.163-04:00", "updated_at": "2025-07-03T19:12:06.892-04:00", "avatar": "https://secure.gravatar.com/avatar/56a64b6a3c38febf5e8d9dbb099c34c9.jpg?s=512&d=https%3A%2F%2Fa.slack-edge.com%2Fdf10d%2Fimg%2Favatars%2Fava_0005-512.png", "custom_css": null}, {"id": 246, "slack_id": "U08E6NPQWRX", "display_name": "Kerlos Maged", "bio": null, "projects_count": 2, "devlogs_count": 2, "votes_count": 0, "ships_count": 0, "projects": [{"id": 3205, "title": "Runeria", "devlogs_count": 2, "created_at": "2025-06-23T12:48:30.204-04:00"}, {"id": 5138, "title": "ATSNEE Physics Club", "devlogs_count": 0, "created_at": "2025-07-03T12:29:39.550-04:00"}], "coding_time_seconds": 171506, "coding_time_seconds_today": 0, "balance": "You need to have a pocket watcher badge to view this.", "badges": [], "created_at": "2025-06-16T09:25:38.569-04:00", "updated_at": "2025-08-23T07:39:48.342-04:00", "avatar": "https://avatars.slack-edge.com/2025-02-18/8482771958913_da9dd19b9bf9637ee8ca_original.jpg", "custom_css": null}, {"id": 247, "slack_id": "U092AJS7316", "display_name": "Moataz ahmed", "bio": null, "projects_count": 0, "devlogs_count": 0, "votes_count": 0, "ships_count": 0, "projects": [], "coding_time_seconds": 1578, "coding_time_seconds_today": 0, "balance": "You need to have a pocket watcher badge to view this.", "badges": [], "created_at": "2025-06-16T09:26:58.637-04:00", "updated_at": "2025-07-03T19:12:07.436-04:00", "avatar": "https://secure.gravatar.com/avatar/8986011ea465329b2f2c50cb32eeaf42.jpg?s=512&d=https%3A%2F%2Fa.slack-edge.com%2Fdf10d%2Fimg%2Favatars%2Fava_0011-512.png", "custom_css": null}, {"id": 248, "slack_id": "U082UPU33H6", "display_name": "Faissel", "bio": null, "projects_count": 0, "devlogs_count": 0, "votes_count": 0, "ships_count": 0, "projects": [], "coding_time_seconds": 19211, "coding_time_seconds_today": 0, "balance": "You need to have a pocket watcher badge to view this.", "badges": [], "created_at": "2025-06-16T09:27:09.705-04:00", "updated_at": "2025-07-03T19:12:07.717-04:00", "avatar": "https://secure.gravatar.com/avatar/3ff4fb822603ad42dd8215a18b6eb870.jpg?s=512&d=https%3A%2F%2Fa.slack-edge.com%2Fdf10d%2Fimg%2Favatars%2Fava_0014-512.png", "custom_css": null}, {"id": 249, "slack_id": "U04AK830QLW", "display_name": "Aarav", "bio": null, "projects_count": 0, "devlogs_count": 0, "votes_count": 0, "ships_count": 0, "projects": [], "coding_time_seconds": 577, "coding_time_seconds_today": 0, "balance": "You need to have a pocket watcher badge to view this.", "badges": [], "created_at": "2025-06-16T09:28:00.486-04:00", "updated_at": "2025-08-26T06:55:24.038-04:00", "avatar": "https://avatars.slack-edge.com/2025-05-31/8967016813479_c35625b3298f7d4ba26d_original.png", "custom_css": null}, {"id": 250, "slack_id": "U08B0QXRRE3", "display_name": "hamza dahi ghareab", "bio": null, "projects_count": 1, "devlogs_count": 0, "votes_count": 0, "ships_count": 0, "projects": [{"id": 4930, "title": "venv", "devlogs_count": 0, "created_at": "2025-07-02T08:57:34.457-04:00"}], "coding_time_seconds": 2881, "coding_time_seconds_today": 0, "balance": "You need to have a pocket watcher badge to view this.", "badges": [], "created_at": "2025-06-16T09:28:36.204-04:00", "updated_at": "2025-07-03T19:12:08.275-04:00", "avatar": "https://secure.gravatar.com/avatar/04d32d9d42ec75e5eb205a2735b5572e.jpg?s=512&d=https%3A%2F%2Fa.slack-edge.com%2Fdf10d%2Fimg%2Favatars%2Fava_0004-512.png", "custom_css": null}, {"id": 251, "slack_id": "U080M3MG8P8", "display_name": "Mohamed Hassan", "bio": null, "projects_count": 2, "devlogs_count": 18, "votes_count": 18, "ships_count": 1, "projects": [{"id": 9271, "title": "Arcane Accents", "devlogs_count": 2, "created_at": "2025-07-31T09:45:30.228-04:00"}, {"id": 59, "title": "Dentel", "devlogs_count": 16, "created_at": "2025-06-16T10:26:04.963-04:00"}], "coding_time_seconds": 291227, "coding_time_seconds_today": 0, "balance": "You need to have a pocket watcher badge to view this.", "badges": [{"name": "Maiden Voyage", "text": "you shipped your first project! the journey begins...", "icon": "\ud83d\udea2"}], "created_at": "2025-06-16T09:28:41.098-04:00", "updated_at": "2025-09-10T22:51:14.407-04:00", "avatar": "https://avatars.slack-edge.com/2025-06-19/9094167652672_ce8fb85a8190e753f899_original.jpg", "custom_css": null}, {"id": 252, "slack_id": "U080E6Z5PK7", "display_name": "Opusp", "bio": null, "projects_count": 0, "devlogs_count": 0, "votes_count": 0, "ships_count": 0, "projects": [], "coding_time_seconds": 0, "coding_time_seconds_today": 0, "balance": "You need to have a pocket watcher badge to view this.", "badges": [], "created_at": "2025-06-16T09:29:18.069-04:00", "updated_at": "2025-07-03T19:12:08.816-04:00", "avatar": "https://avatars.slack-edge.com/2024-11-12/8017019752931_e54dddf142a0a5288b3f_original.png", "custom_css": null}, {"id": 253, "slack_id": "U08UTCRBL84", "display_name": "Omar Fayez", "bio": null, "projects_count": 0, "devlogs_count": 0, "votes_count": 0, "ships_count": 0, "projects": [], "coding_time_seconds": 169, "coding_time_seconds_today": 0, "balance": "You need to have a pocket watcher badge to view this.", "badges": [], "created_at": "2025-06-16T09:29:48.379-04:00", "updated_at": "2025-07-03T19:12:09.088-04:00", "avatar": "https://secure.gravatar.com/avatar/89dd426184e6dcd5fdeb6fde188b4787.jpg?s=512&d=https%3A%2F%2Fa.slack-edge.com%2Fdf10d%2Fimg%2Favatars%2Fava_0022-512.png", "custom_css": null}, {"id": 254, "slack_id": "U08DF5PB5M3", "display_name": "Mohamed Eltokhy", "bio": null, "projects_count": 8, "devlogs_count": 15, "votes_count": 110, "ships_count": 8, "projects": [{"id": 6982, "title": "Christmasitaa", "devlogs_count": 1, "created_at": "2025-07-17T23:22:33.774-04:00"}, {"id": 13542, "title": "Babe, hurry before the deadline!!!!!", "devlogs_count": 2, "created_at": "2025-09-19T00:37:27.109-04:00"}, {"id": 10569, "title": "Hollow of Light", "devlogs_count": 1, "created_at": "2025-08-08T08:50:24.612-04:00"}, {"id": 6873, "title": "Loana-To-Be-Accountant", "devlogs_count": 1, "created_at": "2025-07-17T02:28:53.915-04:00"}, {"id": 7810, "title": "Tasky", "devlogs_count": 1, "created_at": "2025-07-23T05:44:51.196-04:00"}, {"id": 7065, "title": "Eco-Energing", "devlogs_count": 1, "created_at": "2025-07-18T17:08:40.243-04:00"}, {"id": 10334, "title": "Physiquaa Guide", "devlogs_count": 1, "created_at": "2025-08-06T02:32:25.037-04:00"}, {"id": 10755, "title": "Unity", "devlogs_count": 2, "created_at": "2025-08-10T12:00:04.420-04:00"}], "coding_time_seconds": 364263, "coding_time_seconds_today": 2050, "balance": "You need to have a pocket watcher badge to view this.", "badges": [{"name": "Maiden Voyage", "text": "you shipped your first project! the journey begins...", "icon": "\ud83d\udea2"}, {"name": "Ballot Stuffer", "text": "vote 100 times.", "icon": "https://summer.hackclub.com/assets/i_voted-bf851b48.png"}], "created_at": "2025-06-16T09:33:53.646-04:00", "updated_at": "2025-09-10T22:51:14.487-04:00", "avatar": "https://secure.gravatar.com/avatar/ff7ed404aa4b9a91c5b12a9e4de34a86.jpg?s=512&d=https%3A%2F%2Fa.slack-edge.com%2Fdf10d%2Fimg%2Favatars%2Fava_0016-512.png", "custom_css": null}, {"id": 255, "slack_id": "U07JPDWP5A5", "display_name": "Mostafa Ahmed", "bio": null, "projects_count": 0, "devlogs_count": 0, "votes_count": 0, "ships_count": 0, "projects": [], "coding_time_seconds": 4772, "coding_time_seconds_today": 0, "balance": "You need to have a pocket watcher badge to view this.", "badges": [], "created_at": "2025-06-16T09:34:22.305-04:00", "updated_at": "2025-07-21T09:28:56.813-04:00", "avatar": "https://avatars.slack-edge.com/2024-12-29/8215082353319_e11820a8cc41055d1502_original.jpg", "custom_css": null}, {"id": 256, "slack_id": "U07JYUHJ5J4", "display_name": "Basel Mahmoud", "bio": null, "projects_count": 0, "devlogs_count": 0, "votes_count": 0, "ships_count": 0, "projects": [], "coding_time_seconds": 0, "coding_time_seconds_today": 0, "balance": "You need to have a pocket watcher badge to view this.", "badges": [], "created_at": "2025-06-16T09:35:50.201-04:00", "updated_at": "2025-07-03T19:12:09.894-04:00", "avatar": "https://secure.gravatar.com/avatar/56835de03d0bbd618f88620958525b6f.jpg?s=512&d=https%3A%2F%2Fa.slack-edge.com%2Fdf10d%2Fimg%2Favatars%2Fava_0018-512.png", "custom_css": null}, {"id": 257, "slack_id": "U08234VAB5K", "display_name": "Abdallah Ahmed", "bio": null, "projects_count": 0, "devlogs_count": 0, "votes_count": 0, "ships_count": 0, "projects": [], "coding_time_seconds": 0, "coding_time_seconds_today": 0, "balance": "You need to have a pocket watcher badge to view this.", "badges": [], "created_at": "2025-06-16T09:35:56.356-04:00", "updated_at": "2025-07-03T19:12:10.154-04:00", "avatar": "https://secure.gravatar.com/avatar/a3dca0f5f09bc868ae7159dea3c6f65e.jpg?s=512&d=https%3A%2F%2Fa.slack-edge.com%2Fdf10d%2Fimg%2Favatars%2Fava_0000-512.png", "custom_css": null}, {"id": 258, "slack_id": "U0261EB1EG7", "display_name": "Deven", "bio": null, "projects_count": 0, "devlogs_count": 0, "votes_count": 0, "ships_count": 0, "projects": [], "coding_time_seconds": 42148, "coding_time_seconds_today": 0, "balance": "You need to have a pocket watcher badge to view this.", "badges": [], "created_at": "2025-06-16T09:36:14.889-04:00", "updated_at": "2025-09-09T20:00:31.219-04:00", "avatar": "https://avatars.slack-edge.com/2025-09-09/9489000859858_e6836ca4121208cfdac0_original.png", "custom_css": null}, {"id": 259, "slack_id": "U07K3PTJSUU", "display_name": "TIFA", "bio": null, "projects_count": 1, "devlogs_count": 1, "votes_count": 20, "ships_count": 1, "projects": [{"id": 1932, "title": "About TIFA", "devlogs_count": 1, "created_at": "2025-06-19T16:32:13.343-04:00"}], "coding_time_seconds": 98840, "coding_time_seconds_today": 0, "balance": "You need to have a pocket watcher badge to view this.", "badges": [{"name": "Maiden Voyage", "text": "you shipped your first project! the journey begins...", "icon": "\ud83d\udea2"}], "created_at": "2025-06-16T09:37:48.526-04:00", "updated_at": "2025-09-10T22:51:14.614-04:00", "avatar": "https://avatars.slack-edge.com/2024-08-28/7647229460835_51fb3557c9ad6f0577a8_original.jpg", "custom_css": null}, {"id": 260, "slack_id": "U0916S6D7KR", "display_name": "Yasmin", "bio": null, "projects_count": 0, "devlogs_count": 0, "votes_count": 0, "ships_count": 0, "projects": [], "coding_time_seconds": 0, "coding_time_seconds_today": 0, "balance": "You need to have a pocket watcher badge to view this.", "badges": [], "created_at": "2025-06-16T09:39:41.447-04:00", "updated_at": "2025-07-03T19:12:10.982-04:00", "avatar": "https://secure.gravatar.com/avatar/f08e92cc507a896c9e54bc7283b5b7ca.jpg?s=512&d=https%3A%2F%2Fa.slack-edge.com%2Fdf10d%2Fimg%2Favatars%2Fava_0013-512.png", "custom_css": null}], "pagination": {"page": 13, "pages": 1192, "count": 23827, "items": 20}}