{"users": [{"id": 2581, "slack_id": "U09231W7A9F", "display_name": "Ahmed", "bio": null, "projects_count": 0, "devlogs_count": 0, "votes_count": 0, "ships_count": 0, "projects": [], "coding_time_seconds": 0, "coding_time_seconds_today": 0, "balance": "You need to have a pocket watcher badge to view this.", "badges": [], "created_at": "2025-06-16T16:19:35.042-04:00", "updated_at": "2025-07-03T19:22:57.863-04:00", "avatar": "https://secure.gravatar.com/avatar/128571b7d7a4d8e010aa61b52280e300.jpg?s=512&d=https%3A%2F%2Fa.slack-edge.com%2Fdf10d%2Fimg%2Favatars%2Fava_0002-512.png", "custom_css": null}, {"id": 2582, "slack_id": "U091HM1RUKY", "display_name": "Shantanu Chakrawarty", "bio": null, "projects_count": 0, "devlogs_count": 0, "votes_count": 0, "ships_count": 0, "projects": [], "coding_time_seconds": 11551, "coding_time_seconds_today": 0, "balance": "You need to have a pocket watcher badge to view this.", "badges": [], "created_at": "2025-06-16T16:19:40.335-04:00", "updated_at": "2025-07-03T19:22:58.131-04:00", "avatar": "https://avatars.slack-edge.com/2025-06-17/9056938081877_1e5c2d4edd1174e7b806_original.png", "custom_css": null}, {"id": 2583, "slack_id": "U091NMYE7A9", "display_name": "Emilien", "bio": null, "projects_count": 8, "devlogs_count": 34, "votes_count": 95, "ships_count": 7, "projects": [{"id": 5375, "title": "Edos", "devlogs_count": 13, "created_at": "2025-07-04T22:06:16.418-04:00"}, {"id": 8403, "title": "CTF Helper", "devlogs_count": 3, "created_at": "2025-07-26T21:45:44.302-04:00"}, {"id": 10911, "title": "Barista", "devlogs_count": 1, "created_at": "2025-08-11T18:13:19.167-04:00"}, {"id": 13257, "title": "Mysticord", "devlogs_count": 1, "created_at": "2025-09-12T14:58:44.518-04:00"}, {"id": 8065, "title": "Portfolio", "devlogs_count": 5, "created_at": "2025-07-24T11:14:58.853-04:00"}, {"id": 7441, "title": "Queer", "devlogs_count": 6, "created_at": "2025-07-21T19:06:15.155-04:00"}, {"id": 9847, "title": "HackClub Mail", "devlogs_count": 4, "created_at": "2025-08-02T12:46:27.586-04:00"}, {"id": 11053, "title": "EasyHASS", "devlogs_count": 1, "created_at": "2025-08-12T18:32:51.543-04:00"}], "coding_time_seconds": 517208, "coding_time_seconds_today": 1555, "balance": "You need to have a pocket watcher badge to view this.", "badges": [{"name": "Maiden Voyage", "text": "you shipped your first project! the journey begins...", "icon": "\ud83d\udea2"}, {"name": "Ballot Stuffer", "text": "vote 100 times.", "icon": "https://summer.hackclub.com/assets/i_voted-bf851b48.png"}], "created_at": "2025-06-16T16:19:44.602-04:00", "updated_at": "2025-09-10T22:52:27.073-04:00", "avatar": "https://secure.gravatar.com/avatar/cb0720688a3a914392e64eb2f41318bd.jpg?s=512&d=https%3A%2F%2Fa.slack-edge.com%2Fdf10d%2Fimg%2Favatars%2Fava_0022-512.png", "custom_css": null}, {"id": 2584, "slack_id": "U092CV0HE2C", "display_name": "Josiah Bigras", "bio": null, "projects_count": 0, "devlogs_count": 0, "votes_count": 0, "ships_count": 0, "projects": [], "coding_time_seconds": 1163, "coding_time_seconds_today": 0, "balance": "You need to have a pocket watcher badge to view this.", "badges": [], "created_at": "2025-06-16T16:20:09.100-04:00", "updated_at": "2025-07-03T19:22:58.671-04:00", "avatar": "https://avatars.slack-edge.com/2025-06-16/9043241370343_3de782816038d04a5ad4_original.jpg", "custom_css": null}, {"id": 2585, "slack_id": "U082G91V8MP", "display_name": "Unredix", "bio": null, "projects_count": 1, "devlogs_count": 2, "votes_count": 2, "ships_count": 0, "projects": [{"id": 894, "title": "Court Finder", "devlogs_count": 2, "created_at": "2025-06-17T10:39:35.660-04:00"}], "coding_time_seconds": 78714, "coding_time_seconds_today": 0, "balance": "You need to have a pocket watcher badge to view this.", "badges": [], "created_at": "2025-06-16T16:20:24.833-04:00", "updated_at": "2025-09-05T14:41:38.758-04:00", "avatar": "https://avatars.slack-edge.com/2024-11-22/8065357434774_5c0400942ca50713b388_original.png", "custom_css": null}, {"id": 2586, "slack_id": "U091QFYSE9Y", "display_name": "Roshan Lamichhane", "bio": null, "projects_count": 0, "devlogs_count": 0, "votes_count": 0, "ships_count": 0, "projects": [], "coding_time_seconds": 0, "coding_time_seconds_today": 0, "balance": "You need to have a pocket watcher badge to view this.", "badges": [], "created_at": "2025-06-16T16:20:28.487-04:00", "updated_at": "2025-07-03T19:22:59.216-04:00", "avatar": "https://avatars.slack-edge.com/2025-06-16/9043242859687_76c7537314ebaaa6c6b1_original.png", "custom_css": null}, {"id": 2587, "slack_id": "U091QAX1C7N", "display_name": "Pl8o", "bio": null, "projects_count": 0, "devlogs_count": 0, "votes_count": 0, "ships_count": 0, "projects": [], "coding_time_seconds": 0, "coding_time_seconds_today": 0, "balance": "You need to have a pocket watcher badge to view this.", "badges": [], "created_at": "2025-06-16T16:21:12.071-04:00", "updated_at": "2025-07-03T19:22:59.489-04:00", "avatar": "https://secure.gravatar.com/avatar/fca1ab6263d0ac3c0360ca917ba11cb2.jpg?s=512&d=https%3A%2F%2Fa.slack-edge.com%2Fdf10d%2Fimg%2Favatars%2Fava_0009-512.png", "custom_css": null}, {"id": 2588, "slack_id": "U091QFWU6KC", "display_name": "JensOle", "bio": null, "projects_count": 0, "devlogs_count": 0, "votes_count": 0, "ships_count": 0, "projects": [], "coding_time_seconds": 0, "coding_time_seconds_today": 0, "balance": "You need to have a pocket watcher badge to view this.", "badges": [], "created_at": "2025-06-16T16:21:20.920-04:00", "updated_at": "2025-07-03T19:22:59.761-04:00", "avatar": "https://secure.gravatar.com/avatar/d54c86600ac741b4353c8ecc54de1f4c.jpg?s=512&d=https%3A%2F%2Fa.slack-edge.com%2Fdf10d%2Fimg%2Favatars%2Fava_0023-512.png", "custom_css": null}, {"id": 2589, "slack_id": "U09232Q84AD", "display_name": "Sylvie Aylin Zabetoglu Gonz\u00e1lez", "bio": null, "projects_count": 0, "devlogs_count": 0, "votes_count": 0, "ships_count": 0, "projects": [], "coding_time_seconds": 67874, "coding_time_seconds_today": 0, "balance": "You need to have a pocket watcher badge to view this.", "badges": [], "created_at": "2025-06-16T16:21:21.984-04:00", "updated_at": "2025-07-03T19:23:00.079-04:00", "avatar": "https://secure.gravatar.com/avatar/79063535d88fb94249968d84ffd269ae.jpg?s=512&d=https%3A%2F%2Fa.slack-edge.com%2Fdf10d%2Fimg%2Favatars%2Fava_0008-512.png", "custom_css": null}, {"id": 2590, "slack_id": "U07TPN8BJ0L", "display_name": "Moksh S", "bio": null, "projects_count": 4, "devlogs_count": 5, "votes_count": 0, "ships_count": 2, "projects": [{"id": 4273, "title": "Procedurally generating racing game", "devlogs_count": 4, "created_at": "2025-06-28T15:26:31.525-04:00"}, {"id": 9146, "title": "Grade Calculator \u2013 Multi-Platform Academic Tracker", "devlogs_count": 0, "created_at": "2025-07-30T18:59:02.439-04:00"}, {"id": 9150, "title": "AUTO-TUNE 3000 PRO EDITOR", "devlogs_count": 1, "created_at": "2025-07-30T19:02:42.821-04:00"}, {"id": 9161, "title": "Offensive age guessing", "devlogs_count": 0, "created_at": "2025-07-30T19:48:27.090-04:00"}], "coding_time_seconds": 511160, "coding_time_seconds_today": 0, "balance": "You need to have a pocket watcher badge to view this.", "badges": [{"name": "Maiden Voyage", "text": "you shipped your first project! the journey begins...", "icon": "\ud83d\udea2"}], "created_at": "2025-06-16T16:21:24.305-04:00", "updated_at": "2025-09-10T22:52:27.258-04:00", "avatar": "https://avatars.slack-edge.com/2025-08-02/9292621778038_93045f9ff3c3797f8c8e_original.png", "custom_css": null}, {"id": 2591, "slack_id": "U09232REQ2D", "display_name": "vidit2345", "bio": null, "projects_count": 2, "devlogs_count": 92, "votes_count": 92, "ships_count": 2, "projects": [{"id": 2317, "title": "MihanSolo Chess Engine", "devlogs_count": 91, "created_at": "2025-06-20T17:17:23.135-04:00"}, {"id": 2653, "title": "Terminal Of Hanoi", "devlogs_count": 1, "created_at": "2025-06-21T14:57:28.844-04:00"}], "coding_time_seconds": 551737, "coding_time_seconds_today": 0, "balance": "You need to have a pocket watcher badge to view this.", "badges": [{"name": "Maiden Voyage", "text": "you shipped your first project! the journey begins...", "icon": "\ud83d\udea2"}, {"name": "Yapper I", "text": "Posted 10 comments on devlogs.", "icon": "\ud83d\udcac"}], "created_at": "2025-06-16T16:21:45.214-04:00", "updated_at": "2025-09-14T17:22:52.296-04:00", "avatar": "https://secure.gravatar.com/avatar/a1ef90a376da75e042228c4b538540cb.jpg?s=512&d=https%3A%2F%2Fa.slack-edge.com%2Fdf10d%2Fimg%2Favatars%2Fava_0014-512.png", "custom_css": null}, {"id": 2592, "slack_id": "U07BHUMT6UT", "display_name": "Surya", "bio": "", "projects_count": 3, "devlogs_count": 4, "votes_count": 20, "ships_count": 1, "projects": [{"id": 858, "title": "LearnLog", "devlogs_count": 0, "created_at": "2025-06-17T09:55:31.529-04:00"}, {"id": 9460, "title": "Yearbook Website", "devlogs_count": 0, "created_at": "2025-08-01T10:11:03.277-04:00"}, {"id": 6976, "title": "Portfolio CMS", "devlogs_count": 4, "created_at": "2025-07-17T22:24:01.806-04:00"}], "coding_time_seconds": 74253, "coding_time_seconds_today": 0, "balance": "You need to have a pocket watcher badge to view this.", "badges": [{"name": "Maiden Voyage", "text": "you shipped your first project! the journey begins...", "icon": "\ud83d\udea2"}], "created_at": "2025-06-16T16:22:28.724-04:00", "updated_at": "2025-09-10T22:52:27.307-04:00", "avatar": "https://secure.gravatar.com/avatar/ba57a86bf6773455598e1a8cca6bbf73.jpg?s=512&d=https%3A%2F%2Fa.slack-edge.com%2Fdf10d%2Fimg%2Favatars%2Fava_0013-512.png", "custom_css": null}, {"id": 2593, "slack_id": "U091QT2BDQC", "display_name": "Jun Xi", "bio": null, "projects_count": 0, "devlogs_count": 0, "votes_count": 0, "ships_count": 0, "projects": [], "coding_time_seconds": 0, "coding_time_seconds_today": 0, "balance": "You need to have a pocket watcher badge to view this.", "badges": [], "created_at": "2025-06-16T16:22:44.750-04:00", "updated_at": "2025-07-03T19:23:01.177-04:00", "avatar": "https://secure.gravatar.com/avatar/f7291200ad92784d3bc5c5756f15a15e.jpg?s=512&d=https%3A%2F%2Fa.slack-edge.com%2Fdf10d%2Fimg%2Favatars%2Fava_0000-512.png", "custom_css": null}, {"id": 2594, "slack_id": "U091HHZBNN7", "display_name": "Arjun", "bio": null, "projects_count": 0, "devlogs_count": 0, "votes_count": 0, "ships_count": 0, "projects": [], "coding_time_seconds": 201463, "coding_time_seconds_today": 0, "balance": "You need to have a pocket watcher badge to view this.", "badges": [], "created_at": "2025-06-16T16:22:44.784-04:00", "updated_at": "2025-07-03T19:23:01.441-04:00", "avatar": "https://secure.gravatar.com/avatar/39813f79ec5a19b63f34d90546b54a38.jpg?s=512&d=https%3A%2F%2Fa.slack-edge.com%2Fdf10d%2Fimg%2Favatars%2Fava_0017-512.png", "custom_css": null}, {"id": 2595, "slack_id": "U091QSZB9RA", "display_name": "Alison Emilien", "bio": null, "projects_count": 0, "devlogs_count": 0, "votes_count": 0, "ships_count": 0, "projects": [], "coding_time_seconds": 0, "coding_time_seconds_today": 0, "balance": "You need to have a pocket watcher badge to view this.", "badges": [], "created_at": "2025-06-16T16:22:48.215-04:00", "updated_at": "2025-07-03T19:23:01.710-04:00", "avatar": "https://secure.gravatar.com/avatar/925f3b4887bda0795593616b7b8228b1.jpg?s=512&d=https%3A%2F%2Fa.slack-edge.com%2Fdf10d%2Fimg%2Favatars%2Fava_0001-512.png", "custom_css": null}, {"id": 2596, "slack_id": "U091QGC9TT4", "display_name": "Wiktor Marsop", "bio": null, "projects_count": 0, "devlogs_count": 0, "votes_count": 0, "ships_count": 0, "projects": [], "coding_time_seconds": 0, "coding_time_seconds_today": 0, "balance": "You need to have a pocket watcher badge to view this.", "badges": [], "created_at": "2025-06-16T16:23:41.937-04:00", "updated_at": "2025-07-03T19:23:01.974-04:00", "avatar": "https://secure.gravatar.com/avatar/724fee9718f182019a9f78eb34a2ecca.jpg?s=512&d=https%3A%2F%2Fa.slack-edge.com%2Fdf10d%2Fimg%2Favatars%2Fava_0013-512.png", "custom_css": null}, {"id": 2597, "slack_id": "U09232V6XUH", "display_name": "Pedro B.", "bio": null, "projects_count": 7, "devlogs_count": 22, "votes_count": 28, "ships_count": 2, "projects": [{"id": 358, "title": "Smudge", "devlogs_count": 1, "created_at": "2025-06-16T19:04:09.176-04:00"}, {"id": 1174, "title": "How Did We Get Here?", "devlogs_count": 0, "created_at": "2025-06-17T20:26:36.030-04:00"}, {"id": 1995, "title": "edit", "devlogs_count": 10, "created_at": "2025-06-19T20:56:28.337-04:00"}, {"id": 4830, "title": "WAVE", "devlogs_count": 0, "created_at": "2025-07-01T18:41:47.321-04:00"}, {"id": 7190, "title": "FRAME", "devlogs_count": 6, "created_at": "2025-07-19T20:07:54.862-04:00"}, {"id": 12994, "title": "The Far Northeast Extremity", "devlogs_count": 4, "created_at": "2025-09-06T17:19:16.204-04:00"}, {"id": 12166, "title": "Crossy", "devlogs_count": 1, "created_at": "2025-08-23T22:10:34.268-04:00"}], "coding_time_seconds": 347457, "coding_time_seconds_today": 0, "balance": "You need to have a pocket watcher badge to view this.", "badges": [{"name": "Maiden Voyage", "text": "you shipped your first project! the journey begins...", "icon": "\ud83d\udea2"}], "created_at": "2025-06-16T16:23:52.780-04:00", "updated_at": "2025-09-10T22:52:27.409-04:00", "avatar": "https://avatars.slack-edge.com/2025-06-16/9071249189697_067d5e6d90a7c5ba39a0_original.jpg", "custom_css": null}, {"id": 2598, "slack_id": "U07D81NEASK", "display_name": "impawsible", "bio": null, "projects_count": 7, "devlogs_count": 9, "votes_count": 1, "ships_count": 0, "projects": [{"id": 391, "title": "salping.github.io", "devlogs_count": 0, "created_at": "2025-06-16T19:57:26.300-04:00"}, {"id": 584, "title": "Dotty", "devlogs_count": 6, "created_at": "2025-06-17T02:00:45.076-04:00"}, {"id": 7931, "title": "blue'nix", "devlogs_count": 0, "created_at": "2025-07-23T17:25:19.816-04:00"}, {"id": 10413, "title": "Platformer Engine", "devlogs_count": 1, "created_at": "2025-08-06T19:19:01.804-04:00"}, {"id": 8108, "title": "Unshuffled", "devlogs_count": 1, "created_at": "2025-07-24T16:53:40.831-04:00"}, {"id": 9154, "title": "Overstepped", "devlogs_count": 1, "created_at": "2025-07-30T19:20:49.632-04:00"}, {"id": 4020, "title": "Gruy\u00e9re", "devlogs_count": 0, "created_at": "2025-06-26T22:36:54.200-04:00"}], "coding_time_seconds": 75328, "coding_time_seconds_today": 0, "balance": "You need to have a pocket watcher badge to view this.", "badges": [], "created_at": "2025-06-16T16:24:00.281-04:00", "updated_at": "2025-08-06T19:18:22.088-04:00", "avatar": "https://secure.gravatar.com/avatar/c605d0cc6ee48c407bb123c273c45e16.jpg?s=512&d=https%3A%2F%2Fa.slack-edge.com%2Fdf10d%2Fimg%2Favatars%2Fava_0012-512.png", "custom_css": null}, {"id": 2599, "slack_id": "U078QP0J4EM", "display_name": "Brody", "bio": null, "projects_count": 3, "devlogs_count": 7, "votes_count": 0, "ships_count": 2, "projects": [{"id": 5898, "title": "FOC motor controller", "devlogs_count": 2, "created_at": "2025-07-09T00:16:51.238-04:00"}, {"id": 7200, "title": "Discord Plays Celeste", "devlogs_count": 4, "created_at": "2025-07-19T22:14:59.727-04:00"}, {"id": 9350, "title": "RogueEdit", "devlogs_count": 1, "created_at": "2025-07-31T18:14:00.713-04:00"}], "coding_time_seconds": 1494592, "coding_time_seconds_today": 0, "balance": "You need to have a pocket watcher badge to view this.", "badges": [{"name": "Maiden Voyage", "text": "you shipped your first project! the journey begins...", "icon": "\ud83d\udea2"}], "created_at": "2025-06-16T16:24:11.460-04:00", "updated_at": "2025-09-10T22:52:27.455-04:00", "avatar": "https://avatars.slack-edge.com/2024-11-19/8057321986692_6315b8319e245c50c136_original.png", "custom_css": null}, {"id": 2600, "slack_id": "U09197C6M2B", "display_name": "Eli Nelson", "bio": null, "projects_count": 9, "devlogs_count": 27, "votes_count": 50, "ships_count": 5, "projects": [{"id": 1397, "title": "Turtle Casino", "devlogs_count": 1, "created_at": "2025-06-18T13:33:16.454-04:00"}, {"id": 2377, "title": "FishByte", "devlogs_count": 9, "created_at": "2025-06-20T21:35:36.639-04:00"}, {"id": 5335, "title": "DriftCLI", "devlogs_count": 1, "created_at": "2025-07-04T14:00:44.797-04:00"}, {"id": 5893, "title": "EmpireForge Discord Bot", "devlogs_count": 1, "created_at": "2025-07-08T23:03:14.272-04:00"}, {"id": 6983, "title": "PyEvolve", "devlogs_count": 1, "created_at": "2025-07-17T23:23:46.069-04:00"}, {"id": 7206, "title": "Git Pull News", "devlogs_count": 1, "created_at": "2025-07-19T23:40:20.756-04:00"}, {"id": 13597, "title": "Rubber Mod", "devlogs_count": 4, "created_at": "2025-09-20T12:05:07.993-04:00"}, {"id": 13006, "title": "Once-Upon-a-D-j-Vu", "devlogs_count": 2, "created_at": "2025-09-06T19:30:43.086-04:00"}, {"id": 7934, "title": "Personal Project", "devlogs_count": 7, "created_at": "2025-07-23T17:41:40.489-04:00"}], "coding_time_seconds": 184302, "coding_time_seconds_today": 0, "balance": "You need to have a pocket watcher badge to view this.", "badges": [{"name": "Maiden Voyage", "text": "you shipped your first project! the journey begins...", "icon": "\ud83d\udea2"}, {"name": "Yapper I", "text": "Posted 10 comments on devlogs.", "icon": "\ud83d\udcac"}], "created_at": "2025-06-16T16:24:39.725-04:00", "updated_at": "2025-09-16T19:02:49.250-04:00", "avatar": "https://avatars.slack-edge.com/2025-06-16/9058577823282_e8f40110b065f7119cf8_original.png", "custom_css": null}], "pagination": {"page": 130, "pages": 1192, "count": 23828, "items": 20}}