{"users": [{"id": 2601, "slack_id": "U07R6DCCPP0", "display_name": "Broodierlake140", "bio": null, "projects_count": 0, "devlogs_count": 0, "votes_count": 0, "ships_count": 0, "projects": [], "coding_time_seconds": 0, "coding_time_seconds_today": 0, "balance": "You need to have a pocket watcher badge to view this.", "badges": [], "created_at": "2025-06-16T16:24:44.831-04:00", "updated_at": "2025-07-03T19:23:03.347-04:00", "avatar": "https://avatars.slack-edge.com/2024-10-10/7863339271171_a01c021043e1d21a4aa9_original.jpg", "custom_css": null}, {"id": 2602, "slack_id": "U088H2P5TDZ", "display_name": "Arush Basliyal", "bio": null, "projects_count": 0, "devlogs_count": 66, "votes_count": 75, "ships_count": 0, "projects": [], "coding_time_seconds": 929583, "coding_time_seconds_today": 0, "balance": "You need to have a pocket watcher badge to view this.", "badges": [{"name": "Maiden Voyage", "text": "you shipped your first project! the journey begins...", "icon": "\ud83d\udea2"}], "created_at": "2025-06-16T16:24:47.601-04:00", "updated_at": "2025-09-10T22:52:27.543-04:00", "avatar": "https://avatars.slack-edge.com/2025-01-13/8274664721991_c5077aa7ea5d3ebea4b9_original.png", "custom_css": null}, {"id": 2603, "slack_id": "U09197D3LQP", "display_name": "Anmol Sharma", "bio": null, "projects_count": 0, "devlogs_count": 0, "votes_count": 0, "ships_count": 0, "projects": [], "coding_time_seconds": 165042, "coding_time_seconds_today": 0, "balance": "You need to have a pocket watcher badge to view this.", "badges": [], "created_at": "2025-06-16T16:24:50.793-04:00", "updated_at": "2025-07-03T19:23:03.890-04:00", "avatar": "https://avatars.slack-edge.com/2025-06-16/9071123435409_a43078a8f1437194a930_original.png", "custom_css": null}, {"id": 2604, "slack_id": "U09197B7HCP", "display_name": "Rezov", "bio": null, "projects_count": 0, "devlogs_count": 0, "votes_count": 0, "ships_count": 0, "projects": [], "coding_time_seconds": 26358, "coding_time_seconds_today": 0, "balance": "You need to have a pocket watcher badge to view this.", "badges": [], "created_at": "2025-06-16T16:24:52.376-04:00", "updated_at": "2025-07-10T09:26:22.923-04:00", "avatar": "https://secure.gravatar.com/avatar/04fc72d67809ec862f49589dcd80c79f.jpg?s=512&d=https%3A%2F%2Fa.slack-edge.com%2Fdf10d%2Fimg%2Favatars%2Fava_0011-512.png", "custom_css": null}, {"id": 2605, "slack_id": "U092D06E23S", "display_name": "Emil", "bio": "", "projects_count": 2, "devlogs_count": 2, "votes_count": 1, "ships_count": 2, "projects": [{"id": 4740, "title": "Advanced Vertretungsplan", "devlogs_count": 1, "created_at": "2025-07-01T10:05:26.005-04:00"}, {"id": 4866, "title": "Byteflow Reutershagen Website", "devlogs_count": 1, "created_at": "2025-07-02T00:54:42.224-04:00"}], "coding_time_seconds": 48052, "coding_time_seconds_today": 0, "balance": "You need to have a pocket watcher badge to view this.", "badges": [{"name": "Maiden Voyage", "text": "you shipped your first project! the journey begins...", "icon": "\ud83d\udea2"}], "created_at": "2025-06-16T16:24:52.951-04:00", "updated_at": "2025-09-10T22:52:27.618-04:00", "avatar": "https://secure.gravatar.com/avatar/e68315d1c979db7b47c2ea77d678e92f.jpg?s=512&d=https%3A%2F%2Fa.slack-edge.com%2Fdf10d%2Fimg%2Favatars%2Fava_0012-512.png", "custom_css": null}, {"id": 2606, "slack_id": "U07AGD8HJ9J", "display_name": "SebDaBaBo", "bio": null, "projects_count": 0, "devlogs_count": 0, "votes_count": 0, "ships_count": 0, "projects": [], "coding_time_seconds": 0, "coding_time_seconds_today": 0, "balance": "You need to have a pocket watcher badge to view this.", "badges": [], "created_at": "2025-06-16T16:25:04.962-04:00", "updated_at": "2025-07-03T19:23:04.757-04:00", "avatar": "https://avatars.slack-edge.com/2024-06-30/7339426179031_3ae79c9c10fe4bc6a9d1_original.png", "custom_css": null}, {"id": 2607, "slack_id": "U09197D0FB9", "display_name": "Muhammad Hasan", "bio": null, "projects_count": 0, "devlogs_count": 0, "votes_count": 0, "ships_count": 0, "projects": [], "coding_time_seconds": 0, "coding_time_seconds_today": 0, "balance": "You need to have a pocket watcher badge to view this.", "badges": [], "created_at": "2025-06-16T16:25:19.593-04:00", "updated_at": "2025-07-03T19:23:05.024-04:00", "avatar": "https://secure.gravatar.com/avatar/c47708b3fac0c5329f659c4b69102f99.jpg?s=512&d=https%3A%2F%2Fa.slack-edge.com%2Fdf10d%2Fimg%2Favatars%2Fava_0020-512.png", "custom_css": null}, {"id": 2608, "slack_id": "U091QGKFKFC", "display_name": "Videocraft", "bio": null, "projects_count": 2, "devlogs_count": 4, "votes_count": 6, "ships_count": 1, "projects": [{"id": 5626, "title": "Discord Video Notification Bot", "devlogs_count": 3, "created_at": "2025-07-06T17:14:21.797-04:00"}, {"id": 4117, "title": "Project Delta", "devlogs_count": 1, "created_at": "2025-06-27T15:11:25.847-04:00"}], "coding_time_seconds": 56581, "coding_time_seconds_today": 0, "balance": "You need to have a pocket watcher badge to view this.", "badges": [{"name": "Maiden Voyage", "text": "you shipped your first project! the journey begins...", "icon": "\ud83d\udea2"}], "created_at": "2025-06-16T16:25:22.440-04:00", "updated_at": "2025-09-10T22:52:27.717-04:00", "avatar": "https://avatars.slack-edge.com/2025-07-18/9245303460640_11a5842aaf360fa350eb_original.png", "custom_css": null}, {"id": 2609, "slack_id": "U08RE4WKQ4E", "display_name": "Oscar", "bio": null, "projects_count": 0, "devlogs_count": 0, "votes_count": 0, "ships_count": 0, "projects": [], "coding_time_seconds": 79317, "coding_time_seconds_today": 0, "balance": "You need to have a pocket watcher badge to view this.", "badges": [], "created_at": "2025-06-16T16:25:29.983-04:00", "updated_at": "2025-07-03T19:23:05.552-04:00", "avatar": "https://secure.gravatar.com/avatar/121461b373b1a7de9efe6b68a1ed07bf.jpg?s=512&d=https%3A%2F%2Fa.slack-edge.com%2Fdf10d%2Fimg%2Favatars%2Fava_0010-512.png", "custom_css": null}, {"id": 2610, "slack_id": "U091QDDD282", "display_name": "Johannes Buchner", "bio": null, "projects_count": 0, "devlogs_count": 0, "votes_count": 0, "ships_count": 0, "projects": [], "coding_time_seconds": 0, "coding_time_seconds_today": 0, "balance": "You need to have a pocket watcher badge to view this.", "badges": [], "created_at": "2025-06-16T16:25:46.025-04:00", "updated_at": "2025-07-03T19:23:05.891-04:00", "avatar": "https://secure.gravatar.com/avatar/9fe0df0e2f5aad07f677706c58105e39.jpg?s=512&d=https%3A%2F%2Fa.slack-edge.com%2Fdf10d%2Fimg%2Favatars%2Fava_0016-512.png", "custom_css": null}, {"id": 2611, "slack_id": "U08BZGJBAAY", "display_name": "neha", "bio": null, "projects_count": 0, "devlogs_count": 0, "votes_count": 0, "ships_count": 0, "projects": [], "coding_time_seconds": 40669, "coding_time_seconds_today": 0, "balance": "You need to have a pocket watcher badge to view this.", "badges": [], "created_at": "2025-06-16T16:26:12.764-04:00", "updated_at": "2025-07-24T09:03:45.360-04:00", "avatar": "https://avatars.slack-edge.com/2025-07-24/9248377687874_99ab5e9b2b49bf4d6482_original.png", "custom_css": null}, {"id": 2612, "slack_id": "U09233C2W57", "display_name": "Don W", "bio": null, "projects_count": 4, "devlogs_count": 21, "votes_count": 103, "ships_count": 3, "projects": [{"id": 11899, "title": "DaBois Portal", "devlogs_count": 1, "created_at": "2025-08-20T21:04:14.090-04:00"}, {"id": 12095, "title": "KioskManager", "devlogs_count": 1, "created_at": "2025-08-23T02:18:04.212-04:00"}, {"id": 12079, "title": "Gold Rush", "devlogs_count": 3, "created_at": "2025-08-22T19:42:47.906-04:00"}, {"id": 10631, "title": "MyRobocon Portal", "devlogs_count": 11, "created_at": "2025-08-09T06:20:21.849-04:00"}], "coding_time_seconds": 321831, "coding_time_seconds_today": 8279, "balance": "You need to have a pocket watcher badge to view this.", "badges": [{"name": "Maiden Voyage", "text": "you shipped your first project! the journey begins...", "icon": "\ud83d\udea2"}, {"name": "Ballot Stuffer", "text": "vote 100 times.", "icon": "https://summer.hackclub.com/assets/i_voted-bf851b48.png"}], "created_at": "2025-06-16T16:26:24.875-04:00", "updated_at": "2025-09-15T16:05:52.861-04:00", "avatar": "https://avatars.slack-edge.com/2025-06-16/9081031788224_ca64b9e1f79d705b41fd_original.jpg", "custom_css": null}, {"id": 2613, "slack_id": "U09233HBF5X", "display_name": "Oriol Miro", "bio": null, "projects_count": 0, "devlogs_count": 0, "votes_count": 0, "ships_count": 0, "projects": [], "coding_time_seconds": 0, "coding_time_seconds_today": 0, "balance": "You need to have a pocket watcher badge to view this.", "badges": [], "created_at": "2025-06-16T16:26:35.062-04:00", "updated_at": "2025-07-03T19:23:06.726-04:00", "avatar": "https://secure.gravatar.com/avatar/637fd21e55b3ba0530531097f247717d.jpg?s=512&d=https%3A%2F%2Fa.slack-edge.com%2Fdf10d%2Fimg%2Favatars%2Fava_0023-512.png", "custom_css": null}, {"id": 2614, "slack_id": "U09197J9FGF", "display_name": "Preston", "bio": null, "projects_count": 0, "devlogs_count": 0, "votes_count": 0, "ships_count": 0, "projects": [], "coding_time_seconds": 0, "coding_time_seconds_today": 0, "balance": "You need to have a pocket watcher badge to view this.", "badges": [], "created_at": "2025-06-16T16:27:03.197-04:00", "updated_at": "2025-07-03T19:23:06.990-04:00", "avatar": "https://secure.gravatar.com/avatar/360aacd3b75cd2340f9ec1e2fcffd00b.jpg?s=512&d=https%3A%2F%2Fa.slack-edge.com%2Fdf10d%2Fimg%2Favatars%2Fava_0016-512.png", "custom_css": null}, {"id": 2615, "slack_id": "U08RQEP53HA", "display_name": "ketr4x", "bio": null, "projects_count": 0, "devlogs_count": 0, "votes_count": 0, "ships_count": 0, "projects": [], "coding_time_seconds": 2999, "coding_time_seconds_today": 0, "balance": "You need to have a pocket watcher badge to view this.", "badges": [], "created_at": "2025-06-16T16:27:17.315-04:00", "updated_at": "2025-07-09T17:56:25.482-04:00", "avatar": "https://secure.gravatar.com/avatar/eca40accca1b18fb70b35e2e1dcbaf80.jpg?s=512&d=https%3A%2F%2Fa.slack-edge.com%2Fdf10d%2Fimg%2Favatars%2Fava_0005-512.png", "custom_css": null}, {"id": 2616, "slack_id": "U091HJN23CK", "display_name": "Indronil", "bio": null, "projects_count": 0, "devlogs_count": 0, "votes_count": 0, "ships_count": 0, "projects": [], "coding_time_seconds": 0, "coding_time_seconds_today": 0, "balance": "You need to have a pocket watcher badge to view this.", "badges": [], "created_at": "2025-06-16T16:27:30.097-04:00", "updated_at": "2025-07-03T19:23:07.558-04:00", "avatar": "https://secure.gravatar.com/avatar/ee68b442192cf3e977da5ee06a4ecdb9.jpg?s=512&d=https%3A%2F%2Fa.slack-edge.com%2Fdf10d%2Fimg%2Favatars%2Fava_0012-512.png", "custom_css": null}, {"id": 2617, "slack_id": "U087605CWJZ", "display_name": "lj3954", "bio": null, "projects_count": 1, "devlogs_count": 1, "votes_count": 0, "ships_count": 0, "projects": [{"id": 576, "title": "quickemu-rs", "devlogs_count": 1, "created_at": "2025-06-17T01:44:03.974-04:00"}], "coding_time_seconds": 110370, "coding_time_seconds_today": 0, "balance": "You need to have a pocket watcher badge to view this.", "badges": [], "created_at": "2025-06-16T16:27:37.188-04:00", "updated_at": "2025-08-29T20:46:50.268-04:00", "avatar": "https://secure.gravatar.com/avatar/830b7404cd0527d1d37b5f8891a4c171.jpg?s=512&d=https%3A%2F%2Fa.slack-edge.com%2Fdf10d%2Fimg%2Favatars%2Fava_0003-512.png", "custom_css": null}, {"id": 2618, "slack_id": "U091HMN0YMC", "display_name": "Kateryna Shapoval", "bio": null, "projects_count": 0, "devlogs_count": 0, "votes_count": 0, "ships_count": 0, "projects": [], "coding_time_seconds": 0, "coding_time_seconds_today": 0, "balance": "You need to have a pocket watcher badge to view this.", "badges": [], "created_at": "2025-06-16T16:27:43.834-04:00", "updated_at": "2025-07-03T19:23:08.092-04:00", "avatar": "https://avatars.slack-edge.com/2025-06-16/9056805391381_7231d9b81bcbfff17f47_original.jpg", "custom_css": null}, {"id": 2619, "slack_id": "U07910NQ23G", "display_name": "Srivathsan", "bio": null, "projects_count": 0, "devlogs_count": 0, "votes_count": 0, "ships_count": 0, "projects": [], "coding_time_seconds": 0, "coding_time_seconds_today": 0, "balance": "You need to have a pocket watcher badge to view this.", "badges": [], "created_at": "2025-06-16T16:27:52.257-04:00", "updated_at": "2025-07-03T19:23:08.361-04:00", "avatar": "https://secure.gravatar.com/avatar/5bce33664cbc81cbbd19cec91c64c393.jpg?s=512&d=https%3A%2F%2Fa.slack-edge.com%2Fdf10d%2Fimg%2Favatars%2Fava_0018-512.png", "custom_css": null}, {"id": 2620, "slack_id": "U0851QHKU2Y", "display_name": "Jan Lukasiak", "bio": null, "projects_count": 2, "devlogs_count": 13, "votes_count": 39, "ships_count": 2, "projects": [{"id": 2771, "title": "sparxTool", "devlogs_count": 7, "created_at": "2025-06-22T03:11:36.597-04:00"}, {"id": 2645, "title": "C++ platformer", "devlogs_count": 7, "created_at": "2025-06-21T14:50:22.407-04:00"}], "coding_time_seconds": 257447, "coding_time_seconds_today": 0, "balance": "You need to have a pocket watcher badge to view this.", "badges": [{"name": "Maiden Voyage", "text": "you shipped your first project! the journey begins...", "icon": "\ud83d\udea2"}], "created_at": "2025-06-16T16:28:04.592-04:00", "updated_at": "2025-09-10T22:52:28.040-04:00", "avatar": "https://avatars.slack-edge.com/2024-12-19/8191169721270_b120eb24ff027077e9f8_original.png", "custom_css": null}], "pagination": {"page": 131, "pages": 1192, "count": 23828, "items": 20}}