{"users": [{"id": 2621, "slack_id": "U091NPKSM6Z", "display_name": "Kristaps Mui\u017enieks", "bio": null, "projects_count": 0, "devlogs_count": 0, "votes_count": 0, "ships_count": 0, "projects": [], "coding_time_seconds": 0, "coding_time_seconds_today": 0, "balance": "You need to have a pocket watcher badge to view this.", "badges": [], "created_at": "2025-06-16T16:29:43.235-04:00", "updated_at": "2025-07-03T19:23:08.906-04:00", "avatar": "https://secure.gravatar.com/avatar/f6441d0b06f50ab121d27137beb7fc02.jpg?s=512&d=https%3A%2F%2Fa.slack-edge.com%2Fdf10d%2Fimg%2Favatars%2Fava_0008-512.png", "custom_css": null}, {"id": 2622, "slack_id": "U09233W22D7", "display_name": "JaggedGem", "bio": null, "projects_count": 0, "devlogs_count": 0, "votes_count": 0, "ships_count": 0, "projects": [], "coding_time_seconds": 0, "coding_time_seconds_today": 0, "balance": "You need to have a pocket watcher badge to view this.", "badges": [], "created_at": "2025-06-16T16:30:11.333-04:00", "updated_at": "2025-07-03T19:23:09.230-04:00", "avatar": "https://secure.gravatar.com/avatar/3a745e96976f064e26cc912df83ae614.jpg?s=512&d=https%3A%2F%2Fa.slack-edge.com%2Fdf10d%2Fimg%2Favatars%2Fava_0006-512.png", "custom_css": null}, {"id": 2623, "slack_id": "U092D0ZPA8Y", "display_name": "comba", "bio": null, "projects_count": 1, "devlogs_count": 1, "votes_count": 0, "ships_count": 0, "projects": [{"id": 1035, "title": "cityBike", "devlogs_count": 1, "created_at": "2025-06-17T14:07:04.210-04:00"}], "coding_time_seconds": 49877, "coding_time_seconds_today": 0, "balance": "You need to have a pocket watcher badge to view this.", "badges": [], "created_at": "2025-06-16T16:30:21.685-04:00", "updated_at": "2025-07-03T19:23:09.513-04:00", "avatar": "https://secure.gravatar.com/avatar/f0028c594803cfeb3110a287e096de4c.jpg?s=512&d=https%3A%2F%2Fa.slack-edge.com%2Fdf10d%2Fimg%2Favatars%2Fava_0016-512.png", "custom_css": null}, {"id": 2624, "slack_id": "U091HK169T5", "display_name": "Arya Kesarwani", "bio": null, "projects_count": 0, "devlogs_count": 0, "votes_count": 0, "ships_count": 0, "projects": [], "coding_time_seconds": 5125, "coding_time_seconds_today": 0, "balance": "You need to have a pocket watcher badge to view this.", "badges": [], "created_at": "2025-06-16T16:30:28.499-04:00", "updated_at": "2025-07-03T19:23:09.775-04:00", "avatar": "https://secure.gravatar.com/avatar/69d12eb9b4ea4d3905efd75167559f9c.jpg?s=512&d=https%3A%2F%2Fa.slack-edge.com%2Fdf10d%2Fimg%2Favatars%2Fava_0002-512.png", "custom_css": null}, {"id": 2625, "slack_id": "U09197UDMSB", "display_name": "Hussain", "bio": null, "projects_count": 0, "devlogs_count": 0, "votes_count": 0, "ships_count": 0, "projects": [], "coding_time_seconds": 0, "coding_time_seconds_today": 0, "balance": "You need to have a pocket watcher badge to view this.", "badges": [], "created_at": "2025-06-16T16:31:10.547-04:00", "updated_at": "2025-07-03T19:23:10.044-04:00", "avatar": "https://secure.gravatar.com/avatar/b725b65de70f36bfc54a9aeb8d6956a8.jpg?s=512&d=https%3A%2F%2Fa.slack-edge.com%2Fdf10d%2Fimg%2Favatars%2Fava_0008-512.png", "custom_css": null}, {"id": 2626, "slack_id": "U091NPLTL93", "display_name": "Shunleviz", "bio": null, "projects_count": 1, "devlogs_count": 2, "votes_count": 0, "ships_count": 1, "projects": [{"id": 723, "title": "Ai compiler ", "devlogs_count": 2, "created_at": "2025-06-17T06:29:06.300-04:00"}], "coding_time_seconds": 104050, "coding_time_seconds_today": 0, "balance": "You need to have a pocket watcher badge to view this.", "badges": [{"name": "Maiden Voyage", "text": "you shipped your first project! the journey begins...", "icon": "\ud83d\udea2"}], "created_at": "2025-06-16T16:31:19.491-04:00", "updated_at": "2025-09-10T22:52:28.192-04:00", "avatar": "https://secure.gravatar.com/avatar/ed822eff834a3b9e8bca9835a5c59a5f.jpg?s=512&d=https%3A%2F%2Fa.slack-edge.com%2Fdf10d%2Fimg%2Favatars%2Fava_0005-512.png", "custom_css": null}, {"id": 2627, "slack_id": "U091HK2JUPM", "display_name": "Random", "bio": null, "projects_count": 0, "devlogs_count": 0, "votes_count": 0, "ships_count": 0, "projects": [], "coding_time_seconds": 0, "coding_time_seconds_today": 0, "balance": "You need to have a pocket watcher badge to view this.", "badges": [], "created_at": "2025-06-16T16:31:20.689-04:00", "updated_at": "2025-07-03T19:23:10.595-04:00", "avatar": "https://secure.gravatar.com/avatar/5150b8e3e5c1a5fb0b29dc654407d547.jpg?s=512&d=https%3A%2F%2Fa.slack-edge.com%2Fdf10d%2Fimg%2Favatars%2Fava_0012-512.png", "custom_css": null}, {"id": 2628, "slack_id": "U091QHL1Y8J", "display_name": "KittyGirlRed", "bio": null, "projects_count": 1, "devlogs_count": 1, "votes_count": 1, "ships_count": 0, "projects": [{"id": 5165, "title": "Catelia", "devlogs_count": 1, "created_at": "2025-07-03T14:37:37.890-04:00"}], "coding_time_seconds": 42104, "coding_time_seconds_today": 0, "balance": "You need to have a pocket watcher badge to view this.", "badges": [], "created_at": "2025-06-16T16:31:22.755-04:00", "updated_at": "2025-07-03T19:23:10.855-04:00", "avatar": "https://avatars.slack-edge.com/2025-06-29/9134880339681_d48df19078200eb1d312_original.png", "custom_css": null}, {"id": 2629, "slack_id": "U09233X915X", "display_name": "Abdul Wasay", "bio": null, "projects_count": 0, "devlogs_count": 0, "votes_count": 0, "ships_count": 0, "projects": [], "coding_time_seconds": 0, "coding_time_seconds_today": 0, "balance": "You need to have a pocket watcher badge to view this.", "badges": [], "created_at": "2025-06-16T16:31:54.657-04:00", "updated_at": "2025-07-03T19:23:11.129-04:00", "avatar": "https://avatars.slack-edge.com/2025-06-16/9056829347093_598a52a55006db807bf6_original.png", "custom_css": null}, {"id": 2630, "slack_id": "U091NPKCH8V", "display_name": "Maxime Sanciaume", "bio": null, "projects_count": 0, "devlogs_count": 0, "votes_count": 0, "ships_count": 0, "projects": [], "coding_time_seconds": 0, "coding_time_seconds_today": 0, "balance": "You need to have a pocket watcher badge to view this.", "badges": [], "created_at": "2025-06-16T16:31:56.749-04:00", "updated_at": "2025-07-03T19:23:11.400-04:00", "avatar": "https://secure.gravatar.com/avatar/a394e5c1461fbc74d00731b70993d74e.jpg?s=512&d=https%3A%2F%2Fa.slack-edge.com%2Fdf10d%2Fimg%2Favatars%2Fava_0024-512.png", "custom_css": null}, {"id": 2631, "slack_id": "U08S0LWH27P", "display_name": "Zsombor Kukucska", "bio": null, "projects_count": 1, "devlogs_count": 13, "votes_count": 38, "ships_count": 1, "projects": [{"id": 1487, "title": "MindPilot", "devlogs_count": 13, "created_at": "2025-06-18T16:13:52.618-04:00"}], "coding_time_seconds": 60666, "coding_time_seconds_today": 0, "balance": "You need to have a pocket watcher badge to view this.", "badges": [{"name": "Maiden Voyage", "text": "you shipped your first project! the journey begins...", "icon": "\ud83d\udea2"}], "created_at": "2025-06-16T16:31:57.805-04:00", "updated_at": "2025-09-10T22:52:28.329-04:00", "avatar": "https://avatars.slack-edge.com/2025-05-13/8909534064960_b2bfd4b083379e777798_original.png", "custom_css": null}, {"id": 2632, "slack_id": "U092341EKSM", "display_name": "Fiona Hasib", "bio": null, "projects_count": 0, "devlogs_count": 0, "votes_count": 0, "ships_count": 0, "projects": [], "coding_time_seconds": 6364, "coding_time_seconds_today": 0, "balance": "You need to have a pocket watcher badge to view this.", "badges": [], "created_at": "2025-06-16T16:32:05.440-04:00", "updated_at": "2025-07-03T19:23:11.937-04:00", "avatar": "https://secure.gravatar.com/avatar/0bbad48062c2ff3874cf50b19b365854.jpg?s=512&d=https%3A%2F%2Fa.slack-edge.com%2Fdf10d%2Fimg%2Favatars%2Fava_0023-512.png", "custom_css": null}, {"id": 2633, "slack_id": "U078X8653SR", "display_name": "MNT", "bio": null, "projects_count": 4, "devlogs_count": 9, "votes_count": 0, "ships_count": 0, "projects": [{"id": 11612, "title": "FRC API", "devlogs_count": 5, "created_at": "2025-08-17T18:01:57.266-04:00"}, {"id": 11613, "title": "NoPoint - The Pointless Language (esolang)", "devlogs_count": 0, "created_at": "2025-08-17T18:16:06.885-04:00"}, {"id": 11614, "title": "ProcessPrision - A HackDucky Script", "devlogs_count": 0, "created_at": "2025-08-17T18:29:00.138-04:00"}, {"id": 11883, "title": "DesktopBuddy - A Desktop App", "devlogs_count": 3, "created_at": "2025-08-20T17:11:10.847-04:00"}], "coding_time_seconds": 207391, "coding_time_seconds_today": 0, "balance": "You need to have a pocket watcher badge to view this.", "badges": [], "created_at": "2025-06-16T16:32:09.844-04:00", "updated_at": "2025-08-12T21:32:39.249-04:00", "avatar": "https://avatars.slack-edge.com/2024-07-02/7367563034403_20d2828ef5030211e6a1_original.png", "custom_css": null}, {"id": 2634, "slack_id": "U091QUA1S68", "display_name": "Levyn", "bio": null, "projects_count": 1, "devlogs_count": 2, "votes_count": 0, "ships_count": 0, "projects": [{"id": 650, "title": "rentro", "devlogs_count": 2, "created_at": "2025-06-17T04:08:00.864-04:00"}], "coding_time_seconds": 50171, "coding_time_seconds_today": 0, "balance": "You need to have a pocket watcher badge to view this.", "badges": [], "created_at": "2025-06-16T16:32:27.541-04:00", "updated_at": "2025-07-03T19:23:12.472-04:00", "avatar": "https://secure.gravatar.com/avatar/e1bc5d49f88d1619bba66cd3922f1282.jpg?s=512&d=https%3A%2F%2Fa.slack-edge.com%2Fdf10d%2Fimg%2Favatars%2Fava_0002-512.png", "custom_css": null}, {"id": 2635, "slack_id": "U07GEV8L7EG", "display_name": "supersketchy", "bio": "", "projects_count": 1, "devlogs_count": 4, "votes_count": 1, "ships_count": 1, "projects": [{"id": 3049, "title": "Jimm", "devlogs_count": 4, "created_at": "2025-06-22T23:14:10.219-04:00"}], "coding_time_seconds": 433955, "coding_time_seconds_today": 0, "balance": "You need to have a pocket watcher badge to view this.", "badges": [{"name": "Maiden Voyage", "text": "you shipped your first project! the journey begins...", "icon": "\ud83d\udea2"}], "created_at": "2025-06-16T16:32:32.876-04:00", "updated_at": "2025-09-18T02:10:36.688-04:00", "avatar": "https://secure.gravatar.com/avatar/94929867709b0c09089dd625097dcdcb.jpg?s=512&d=https%3A%2F%2Fa.slack-edge.com%2Fdf10d%2Fimg%2Favatars%2Fava_0018-512.png", "custom_css": null}, {"id": 2636, "slack_id": "U084RT5K678", "display_name": "Ritvik Goyal", "bio": null, "projects_count": 2, "devlogs_count": 0, "votes_count": 0, "ships_count": 0, "projects": [{"id": 3828, "title": "mapStem", "devlogs_count": 0, "created_at": "2025-06-25T22:50:28.312-04:00"}, {"id": 13376, "title": "Automations-Dashboard", "devlogs_count": 0, "created_at": "2025-09-14T21:24:57.832-04:00"}], "coding_time_seconds": 71085, "coding_time_seconds_today": 0, "balance": "You need to have a pocket watcher badge to view this.", "badges": [], "created_at": "2025-06-16T16:32:46.526-04:00", "updated_at": "2025-07-03T19:23:13.039-04:00", "avatar": "https://avatars.slack-edge.com/2025-02-06/8417426464596_67fbec26f05eb80e15d8_original.jpg", "custom_css": null}, {"id": 2637, "slack_id": "U091NPR11T7", "display_name": "Previn.B", "bio": null, "projects_count": 0, "devlogs_count": 0, "votes_count": 0, "ships_count": 0, "projects": [], "coding_time_seconds": 1003448, "coding_time_seconds_today": 5685, "balance": "You need to have a pocket watcher badge to view this.", "badges": [], "created_at": "2025-06-16T16:32:49.797-04:00", "updated_at": "2025-07-03T19:23:13.305-04:00", "avatar": "https://secure.gravatar.com/avatar/f51b109841fa8da7d19eb8a3641ce41e.jpg?s=512&d=https%3A%2F%2Fa.slack-edge.com%2Fdf10d%2Fimg%2Favatars%2Fava_0015-512.png", "custom_css": null}, {"id": 2638, "slack_id": "U0919895F7H", "display_name": "Srivathsan", "bio": null, "projects_count": 4, "devlogs_count": 14, "votes_count": 10, "ships_count": 1, "projects": [{"id": 4810, "title": "Aurum", "devlogs_count": 4, "created_at": "2025-07-01T16:48:00.985-04:00"}, {"id": 9176, "title": "Lax", "devlogs_count": 3, "created_at": "2025-07-30T20:49:48.901-04:00"}, {"id": 9177, "title": "Lax`", "devlogs_count": 1, "created_at": "2025-07-30T20:49:49.021-04:00"}, {"id": 278, "title": "Portfolio", "devlogs_count": 6, "created_at": "2025-06-16T17:02:20.478-04:00"}], "coding_time_seconds": 184198, "coding_time_seconds_today": 0, "balance": "You need to have a pocket watcher badge to view this.", "badges": [{"name": "Maiden Voyage", "text": "you shipped your first project! the journey begins...", "icon": "\ud83d\udea2"}], "created_at": "2025-06-16T16:33:14.121-04:00", "updated_at": "2025-09-10T22:52:28.550-04:00", "avatar": "https://secure.gravatar.com/avatar/e1380498a0f0bf9a79708a6e949a911e.jpg?s=512&d=https%3A%2F%2Fa.slack-edge.com%2Fdf10d%2Fimg%2Favatars%2Fava_0008-512.png", "custom_css": null}, {"id": 2639, "slack_id": "U091HKKKJRH", "display_name": "Some1", "bio": null, "projects_count": 2, "devlogs_count": 4, "votes_count": 25, "ships_count": 2, "projects": [{"id": 429, "title": "Train to Atlassa", "devlogs_count": 3, "created_at": "2025-06-16T21:08:32.786-04:00"}, {"id": 7983, "title": "HackyDucky (Payload)", "devlogs_count": 1, "created_at": "2025-07-23T23:13:53.524-04:00"}], "coding_time_seconds": 591059, "coding_time_seconds_today": 0, "balance": "You need to have a pocket watcher badge to view this.", "badges": [{"name": "Maiden Voyage", "text": "you shipped your first project! the journey begins...", "icon": "\ud83d\udea2"}], "created_at": "2025-06-16T16:33:20.531-04:00", "updated_at": "2025-09-12T20:09:44.215-04:00", "avatar": "https://avatars.slack-edge.com/2025-09-13/9505878372053_50c31cd54a46b8e6d969_original.png", "custom_css": null}, {"id": 2640, "slack_id": "U0240D69VJT", "display_name": "ItsKareem", "bio": null, "projects_count": 0, "devlogs_count": 0, "votes_count": 0, "ships_count": 0, "projects": [], "coding_time_seconds": 13257, "coding_time_seconds_today": 0, "balance": "You need to have a pocket watcher badge to view this.", "badges": [], "created_at": "2025-06-16T16:33:24.207-04:00", "updated_at": "2025-09-22T12:09:36.128-04:00", "avatar": "https://avatars.slack-edge.com/2025-09-22/9558021197861_e6c175e2634703af9132_original.png", "custom_css": null}], "pagination": {"page": 132, "pages": 1192, "count": 23828, "items": 20}}