{"users": [{"id": 2641, "slack_id": "U09234AM5DF", "display_name": "FraRomeo", "bio": null, "projects_count": 0, "devlogs_count": 0, "votes_count": 0, "ships_count": 0, "projects": [], "coding_time_seconds": 0, "coding_time_seconds_today": 0, "balance": "You need to have a pocket watcher badge to view this.", "badges": [], "created_at": "2025-06-16T16:33:55.645-04:00", "updated_at": "2025-07-03T19:23:14.384-04:00", "avatar": "https://secure.gravatar.com/avatar/626ca085dbddb3d04dcf63dcb4325ac1.jpg?s=512&d=https%3A%2F%2Fa.slack-edge.com%2Fdf10d%2Fimg%2Favatars%2Fava_0015-512.png", "custom_css": null}, {"id": 2642, "slack_id": "U091QUSKFAQ", "display_name": "kbora", "bio": null, "projects_count": 0, "devlogs_count": 0, "votes_count": 0, "ships_count": 0, "projects": [], "coding_time_seconds": 0, "coding_time_seconds_today": 0, "balance": "You need to have a pocket watcher badge to view this.", "badges": [], "created_at": "2025-06-16T16:34:02.291-04:00", "updated_at": "2025-07-03T19:23:14.664-04:00", "avatar": "https://secure.gravatar.com/avatar/70f58104a1c8d855bed988f61eb7647b.jpg?s=512&d=https%3A%2F%2Fa.slack-edge.com%2Fdf10d%2Fimg%2Favatars%2Fava_0026-512.png", "custom_css": null}, {"id": 2643, "slack_id": "U091HKRHC91", "display_name": "Julian Z", "bio": null, "projects_count": 2, "devlogs_count": 2, "votes_count": 2, "ships_count": 0, "projects": [{"id": 8823, "title": "Obrazy - Paintings", "devlogs_count": 0, "created_at": "2025-07-29T11:32:04.614-04:00"}, {"id": 8824, "title": "Obrazy - Paintings", "devlogs_count": 2, "created_at": "2025-07-29T11:32:04.890-04:00"}], "coding_time_seconds": 24172, "coding_time_seconds_today": 0, "balance": "You need to have a pocket watcher badge to view this.", "badges": [], "created_at": "2025-06-16T16:34:10.713-04:00", "updated_at": "2025-08-22T16:35:31.027-04:00", "avatar": "https://secure.gravatar.com/avatar/f808b401b49eaa93810a476d9dfeb057.jpg?s=512&d=https%3A%2F%2Fa.slack-edge.com%2Fdf10d%2Fimg%2Favatars%2Fava_0006-512.png", "custom_css": null}, {"id": 2644, "slack_id": "U092D1N9XQQ", "display_name": "Franciszek", "bio": null, "projects_count": 1, "devlogs_count": 5, "votes_count": 20, "ships_count": 1, "projects": [{"id": 635, "title": "SpotifySorter", "devlogs_count": 5, "created_at": "2025-06-17T03:43:26.513-04:00"}], "coding_time_seconds": 100419, "coding_time_seconds_today": 0, "balance": "You need to have a pocket watcher badge to view this.", "badges": [{"name": "Maiden Voyage", "text": "you shipped your first project! the journey begins...", "icon": "\ud83d\udea2"}], "created_at": "2025-06-16T16:34:15.676-04:00", "updated_at": "2025-09-10T22:52:28.700-04:00", "avatar": "https://secure.gravatar.com/avatar/16ee5be9783e123de8ab1355558324ae.jpg?s=512&d=https%3A%2F%2Fa.slack-edge.com%2Fdf10d%2Fimg%2Favatars%2Fava_0016-512.png", "custom_css": null}, {"id": 2645, "slack_id": "U091HP0MCSJ", "display_name": "Gnarty", "bio": null, "projects_count": 0, "devlogs_count": 0, "votes_count": 0, "ships_count": 0, "projects": [], "coding_time_seconds": 0, "coding_time_seconds_today": 0, "balance": "You need to have a pocket watcher badge to view this.", "badges": [], "created_at": "2025-06-16T16:34:17.853-04:00", "updated_at": "2025-07-03T19:23:15.549-04:00", "avatar": "https://secure.gravatar.com/avatar/6657f975aa972a28e53651ea4fc2de23.jpg?s=512&d=https%3A%2F%2Fa.slack-edge.com%2Fdf10d%2Fimg%2Favatars%2Fava_0008-512.png", "custom_css": null}, {"id": 2646, "slack_id": "U092D1J0JN4", "display_name": "Gustavo Canales", "bio": null, "projects_count": 0, "devlogs_count": 0, "votes_count": 0, "ships_count": 0, "projects": [], "coding_time_seconds": 2743, "coding_time_seconds_today": 0, "balance": "You need to have a pocket watcher badge to view this.", "badges": [], "created_at": "2025-06-16T16:34:41.775-04:00", "updated_at": "2025-07-03T19:23:15.818-04:00", "avatar": "https://avatars.slack-edge.com/2025-06-16/9056843091093_45c329b8e6e999c56ac9_original.png", "custom_css": null}, {"id": 2647, "slack_id": "U092CK9V1LY", "display_name": "Arben40", "bio": null, "projects_count": 0, "devlogs_count": 0, "votes_count": 0, "ships_count": 0, "projects": [], "coding_time_seconds": 46868, "coding_time_seconds_today": 0, "balance": "You need to have a pocket watcher badge to view this.", "badges": [], "created_at": "2025-06-16T16:35:21.813-04:00", "updated_at": "2025-07-03T19:23:16.102-04:00", "avatar": "https://avatars.slack-edge.com/2025-06-16/9059025109076_0aa55cd8027e6fb796c6_original.png", "custom_css": null}, {"id": 2648, "slack_id": "U091HL0KJ2F", "display_name": "Andrew Su", "bio": null, "projects_count": 0, "devlogs_count": 0, "votes_count": 0, "ships_count": 0, "projects": [], "coding_time_seconds": 0, "coding_time_seconds_today": 0, "balance": "You need to have a pocket watcher badge to view this.", "badges": [], "created_at": "2025-06-16T16:35:42.805-04:00", "updated_at": "2025-07-03T19:23:16.377-04:00", "avatar": "https://avatars.slack-edge.com/2025-06-16/9081076778880_878be4680c05271410fe_original.jpg", "custom_css": null}, {"id": 2649, "slack_id": "U08E3UAUHFS", "display_name": "Avogato", "bio": null, "projects_count": 7, "devlogs_count": 23, "votes_count": 38, "ships_count": 3, "projects": [{"id": 300, "title": "HCR", "devlogs_count": 1, "created_at": "2025-06-16T17:31:09.747-04:00"}, {"id": 9991, "title": "coiniania", "devlogs_count": 2, "created_at": "2025-08-03T10:24:47.116-04:00"}, {"id": 11873, "title": "Weight off the Chess", "devlogs_count": 0, "created_at": "2025-08-20T14:09:43.409-04:00"}, {"id": 12883, "title": "rpg game with a gimmic ", "devlogs_count": 7, "created_at": "2025-09-04T11:46:32.981-04:00"}, {"id": 10179, "title": "2048 Scuffed", "devlogs_count": 3, "created_at": "2025-08-04T17:10:58.943-04:00"}, {"id": 11372, "title": "Generic Racing Game", "devlogs_count": 9, "created_at": "2025-08-15T10:34:16.589-04:00"}, {"id": 11880, "title": "personal website", "devlogs_count": 1, "created_at": "2025-08-20T15:52:05.674-04:00"}], "coding_time_seconds": 68584, "coding_time_seconds_today": 0, "balance": "You need to have a pocket watcher badge to view this.", "badges": [{"name": "Maiden Voyage", "text": "you shipped your first project! the journey begins...", "icon": "\ud83d\udea2"}], "created_at": "2025-06-16T16:35:51.405-04:00", "updated_at": "2025-09-23T18:09:52.697-04:00", "avatar": "https://avatars.slack-edge.com/2025-09-23/9555294247783_62cfbcd1e86bcfbfa193_original.png", "custom_css": null}, {"id": 2650, "slack_id": "U091QUVT49J", "display_name": "Rayyan", "bio": null, "projects_count": 0, "devlogs_count": 0, "votes_count": 0, "ships_count": 0, "projects": [], "coding_time_seconds": 26426, "coding_time_seconds_today": 0, "balance": "You need to have a pocket watcher badge to view this.", "badges": [], "created_at": "2025-06-16T16:35:54.916-04:00", "updated_at": "2025-07-03T19:23:16.997-04:00", "avatar": "https://secure.gravatar.com/avatar/cb90ef7a6fbae0d365235bc0399ea0b5.jpg?s=512&d=https%3A%2F%2Fa.slack-edge.com%2Fdf10d%2Fimg%2Favatars%2Fava_0004-512.png", "custom_css": null}, {"id": 2651, "slack_id": "U091NQESW13", "display_name": "Jayson Fierri", "bio": null, "projects_count": 0, "devlogs_count": 0, "votes_count": 0, "ships_count": 0, "projects": [], "coding_time_seconds": 0, "coding_time_seconds_today": 0, "balance": "You need to have a pocket watcher badge to view this.", "badges": [], "created_at": "2025-06-16T16:36:12.123-04:00", "updated_at": "2025-07-03T19:23:17.305-04:00", "avatar": "https://secure.gravatar.com/avatar/b8c8fefcaad2b057f0b9d4fba706ec55.jpg?s=512&d=https%3A%2F%2Fa.slack-edge.com%2Fdf10d%2Fimg%2Favatars%2Fava_0006-512.png", "custom_css": null}, {"id": 2652, "slack_id": "U091NQLTP7X", "display_name": "wIceh", "bio": null, "projects_count": 0, "devlogs_count": 0, "votes_count": 0, "ships_count": 0, "projects": [], "coding_time_seconds": 0, "coding_time_seconds_today": 0, "balance": "You need to have a pocket watcher badge to view this.", "badges": [], "created_at": "2025-06-16T16:36:13.645-04:00", "updated_at": "2025-07-03T19:23:17.576-04:00", "avatar": "https://secure.gravatar.com/avatar/48aafeaf0f4d74568b9fb3d9ca631001.jpg?s=512&d=https%3A%2F%2Fa.slack-edge.com%2Fdf10d%2Fimg%2Favatars%2Fava_0022-512.png", "custom_css": null}, {"id": 2653, "slack_id": "U091GHJL30B", "display_name": "Cjr", "bio": null, "projects_count": 0, "devlogs_count": 0, "votes_count": 0, "ships_count": 0, "projects": [], "coding_time_seconds": 0, "coding_time_seconds_today": 0, "balance": "You need to have a pocket watcher badge to view this.", "badges": [], "created_at": "2025-06-16T16:36:22.696-04:00", "updated_at": "2025-07-03T19:23:17.851-04:00", "avatar": "https://secure.gravatar.com/avatar/5c0bb1216d5976885a64bbd2e26f3e87.jpg?s=512&d=https%3A%2F%2Fa.slack-edge.com%2Fdf10d%2Fimg%2Favatars%2Fava_0019-512.png", "custom_css": null}, {"id": 2654, "slack_id": "U09198SU63Z", "display_name": "Surya Pratama (XzByte)", "bio": null, "projects_count": 0, "devlogs_count": 0, "votes_count": 0, "ships_count": 0, "projects": [], "coding_time_seconds": 0, "coding_time_seconds_today": 0, "balance": "You need to have a pocket watcher badge to view this.", "badges": [], "created_at": "2025-06-16T16:36:25.762-04:00", "updated_at": "2025-08-06T14:09:27.276-04:00", "avatar": "https://avatars.slack-edge.com/2025-06-16/9043318255223_8afa9d44f1a75081fb8a_original.jpg", "custom_css": null}, {"id": 2655, "slack_id": "U091QD4F3GU", "display_name": "Shishir Gajurel", "bio": null, "projects_count": 0, "devlogs_count": 0, "votes_count": 0, "ships_count": 0, "projects": [], "coding_time_seconds": 0, "coding_time_seconds_today": 0, "balance": "You need to have a pocket watcher badge to view this.", "badges": [], "created_at": "2025-06-16T16:36:28.896-04:00", "updated_at": "2025-07-03T19:23:18.382-04:00", "avatar": "https://secure.gravatar.com/avatar/7bdde3118d5d8c6d23607440f713927e.jpg?s=512&d=https%3A%2F%2Fa.slack-edge.com%2Fdf10d%2Fimg%2Favatars%2Fava_0005-512.png", "custom_css": null}, {"id": 2656, "slack_id": "U091992BFF1", "display_name": "Illia Siutkin", "bio": null, "projects_count": 0, "devlogs_count": 0, "votes_count": 0, "ships_count": 0, "projects": [], "coding_time_seconds": 0, "coding_time_seconds_today": 0, "balance": "You need to have a pocket watcher badge to view this.", "badges": [], "created_at": "2025-06-16T16:36:40.469-04:00", "updated_at": "2025-07-03T19:23:18.650-04:00", "avatar": "https://avatars.slack-edge.com/2025-06-16/9071182604417_6afa7076805b613946f3_original.jpg", "custom_css": null}, {"id": 2657, "slack_id": "U082AEBD4AC", "display_name": "William Chapin", "bio": null, "projects_count": 0, "devlogs_count": 0, "votes_count": 0, "ships_count": 0, "projects": [], "coding_time_seconds": 0, "coding_time_seconds_today": 0, "balance": "You need to have a pocket watcher badge to view this.", "badges": [], "created_at": "2025-06-16T16:36:48.241-04:00", "updated_at": "2025-07-03T19:23:18.913-04:00", "avatar": "https://avatars.slack-edge.com/2025-01-19/8330202082993_14ed2bee5e05ab38bc4c_original.jpg", "custom_css": null}, {"id": 2658, "slack_id": "U0919925WB1", "display_name": "Jaykumar Suthar", "bio": null, "projects_count": 1, "devlogs_count": 1, "votes_count": 0, "ships_count": 0, "projects": [{"id": 276, "title": "ComicSonic", "devlogs_count": 1, "created_at": "2025-06-16T16:56:12.036-04:00"}], "coding_time_seconds": 59378, "coding_time_seconds_today": 0, "balance": "You need to have a pocket watcher badge to view this.", "badges": [], "created_at": "2025-06-16T16:36:56.901-04:00", "updated_at": "2025-07-03T19:23:19.183-04:00", "avatar": "https://secure.gravatar.com/avatar/3ecf7e367bcff62e1cab3ed619235f60.jpg?s=512&d=https%3A%2F%2Fa.slack-edge.com%2Fdf10d%2Fimg%2Favatars%2Fava_0008-512.png", "custom_css": null}, {"id": 2659, "slack_id": "U091HPQ20VC", "display_name": "Jaden", "bio": null, "projects_count": 0, "devlogs_count": 0, "votes_count": 0, "ships_count": 0, "projects": [], "coding_time_seconds": 269524, "coding_time_seconds_today": 0, "balance": "You need to have a pocket watcher badge to view this.", "badges": [], "created_at": "2025-06-16T16:37:06.563-04:00", "updated_at": "2025-07-03T19:23:19.447-04:00", "avatar": "https://secure.gravatar.com/avatar/90bdba4f12d88ee53b164e332d52dfdd.jpg?s=512&d=https%3A%2F%2Fa.slack-edge.com%2Fdf10d%2Fimg%2Favatars%2Fava_0013-512.png", "custom_css": null}, {"id": 2660, "slack_id": "U091HPMS0BG", "display_name": "Csaba Bartos", "bio": null, "projects_count": 0, "devlogs_count": 0, "votes_count": 0, "ships_count": 0, "projects": [], "coding_time_seconds": 0, "coding_time_seconds_today": 0, "balance": "You need to have a pocket watcher badge to view this.", "badges": [], "created_at": "2025-06-16T16:37:14.133-04:00", "updated_at": "2025-07-03T19:23:19.721-04:00", "avatar": "https://secure.gravatar.com/avatar/ac5a007ea0371d9db956b4308d40ce97.jpg?s=512&d=https%3A%2F%2Fa.slack-edge.com%2Fdf10d%2Fimg%2Favatars%2Fava_0005-512.png", "custom_css": null}], "pagination": {"page": 133, "pages": 1192, "count": 23828, "items": 20}}