{"users": [{"id": 2661, "slack_id": "U092D1W68RE", "display_name": "Krystal", "bio": null, "projects_count": 1, "devlogs_count": 0, "votes_count": 0, "ships_count": 0, "projects": [{"id": 742, "title": "Metallurgica", "devlogs_count": 0, "created_at": "2025-06-17T07:07:44.095-04:00"}], "coding_time_seconds": 6665, "coding_time_seconds_today": 0, "balance": "You need to have a pocket watcher badge to view this.", "badges": [], "created_at": "2025-06-16T16:37:17.814-04:00", "updated_at": "2025-07-03T19:23:19.992-04:00", "avatar": "https://secure.gravatar.com/avatar/2ad4b565509073450fb4c05942125e8e.jpg?s=512&d=https%3A%2F%2Fa.slack-edge.com%2Fdf10d%2Fimg%2Favatars%2Fava_0023-512.png", "custom_css": null}, {"id": 2662, "slack_id": "U091QUS9YAY", "display_name": "Atom_Blastoid", "bio": null, "projects_count": 0, "devlogs_count": 0, "votes_count": 0, "ships_count": 0, "projects": [], "coding_time_seconds": 65, "coding_time_seconds_today": 0, "balance": "You need to have a pocket watcher badge to view this.", "badges": [], "created_at": "2025-06-16T16:37:21.004-04:00", "updated_at": "2025-07-03T19:23:20.256-04:00", "avatar": "https://avatars.slack-edge.com/2025-06-16/9056965894229_bcb64f6daeea9a94c6e0_original.png", "custom_css": null}, {"id": 2663, "slack_id": "U091QJEHV8A", "display_name": "Liam Sherwin", "bio": null, "projects_count": 2, "devlogs_count": 2, "votes_count": 0, "ships_count": 0, "projects": [{"id": 3111, "title": "Spectrum Client", "devlogs_count": 1, "created_at": "2025-06-23T06:02:21.385-04:00"}, {"id": 3112, "title": "Spectrum Server", "devlogs_count": 1, "created_at": "2025-06-23T06:03:25.016-04:00"}], "coding_time_seconds": 215455, "coding_time_seconds_today": 120, "balance": "You need to have a pocket watcher badge to view this.", "badges": [], "created_at": "2025-06-16T16:37:24.421-04:00", "updated_at": "2025-07-03T19:23:20.521-04:00", "avatar": "https://secure.gravatar.com/avatar/646d53d2df48a38ed6850ee2c5a630b7.jpg?s=512&d=https%3A%2F%2Fa.slack-edge.com%2Fdf10d%2Fimg%2Favatars%2Fava_0025-512.png", "custom_css": null}, {"id": 2664, "slack_id": "U092D1T5H0Q", "display_name": "Marvin Douve", "bio": null, "projects_count": 0, "devlogs_count": 0, "votes_count": 0, "ships_count": 0, "projects": [], "coding_time_seconds": 55101, "coding_time_seconds_today": 0, "balance": "You need to have a pocket watcher badge to view this.", "badges": [], "created_at": "2025-06-16T16:37:24.833-04:00", "updated_at": "2025-07-03T19:23:20.783-04:00", "avatar": "https://secure.gravatar.com/avatar/c201ac429e288fd20cac7be1e171e1ee.jpg?s=512&d=https%3A%2F%2Fa.slack-edge.com%2Fdf10d%2Fimg%2Favatars%2Fava_0022-512.png", "custom_css": null}, {"id": 2665, "slack_id": "U091HP4KUKG", "display_name": "lomination", "bio": null, "projects_count": 1, "devlogs_count": 0, "votes_count": 1, "ships_count": 0, "projects": [{"id": 9853, "title": "Powerrules", "devlogs_count": 0, "created_at": "2025-08-02T13:02:01.759-04:00"}], "coding_time_seconds": 121758, "coding_time_seconds_today": 0, "balance": "You need to have a pocket watcher badge to view this.", "badges": [], "created_at": "2025-06-16T16:37:46.375-04:00", "updated_at": "2025-07-31T21:43:01.673-04:00", "avatar": "https://secure.gravatar.com/avatar/b9bb7fca5a068e14c6439a34529f6126.jpg?s=512&d=https%3A%2F%2Fa.slack-edge.com%2Fdf10d%2Fimg%2Favatars%2Fava_0013-512.png", "custom_css": null}, {"id": 2666, "slack_id": "U091QNG0H3N", "display_name": "Dylan H", "bio": null, "projects_count": 0, "devlogs_count": 0, "votes_count": 0, "ships_count": 0, "projects": [], "coding_time_seconds": 0, "coding_time_seconds_today": 0, "balance": "You need to have a pocket watcher badge to view this.", "badges": [], "created_at": "2025-06-16T16:38:01.158-04:00", "updated_at": "2025-07-03T19:23:21.316-04:00", "avatar": "https://secure.gravatar.com/avatar/81dce5a7fa8db4245e400c8bbfaf9018.jpg?s=512&d=https%3A%2F%2Fa.slack-edge.com%2Fdf10d%2Fimg%2Favatars%2Fava_0006-512.png", "custom_css": null}, {"id": 2667, "slack_id": "U091QUTMSMA", "display_name": "William Mcmullan", "bio": null, "projects_count": 1, "devlogs_count": 0, "votes_count": 0, "ships_count": 0, "projects": [{"id": 334, "title": "CTF-ToolKit", "devlogs_count": 0, "created_at": "2025-06-16T18:19:32.640-04:00"}], "coding_time_seconds": 788, "coding_time_seconds_today": 0, "balance": "You need to have a pocket watcher badge to view this.", "badges": [], "created_at": "2025-06-16T16:38:03.948-04:00", "updated_at": "2025-07-03T19:23:21.602-04:00", "avatar": "https://avatars.slack-edge.com/2025-06-16/9071188354913_f31653611e558c03a677_original.png", "custom_css": null}, {"id": 2668, "slack_id": "U091NQK28CV", "display_name": "Eldhose Chackochan", "bio": null, "projects_count": 0, "devlogs_count": 0, "votes_count": 0, "ships_count": 0, "projects": [], "coding_time_seconds": 0, "coding_time_seconds_today": 0, "balance": "You need to have a pocket watcher badge to view this.", "badges": [], "created_at": "2025-06-16T16:38:04.675-04:00", "updated_at": "2025-07-03T19:23:21.876-04:00", "avatar": "https://avatars.slack-edge.com/2025-06-19/9071133159428_93ad5909d66c523bfda6_original.png", "custom_css": null}, {"id": 2669, "slack_id": "U091GQH0G0K", "display_name": "sandroputraa", "bio": null, "projects_count": 0, "devlogs_count": 0, "votes_count": 0, "ships_count": 0, "projects": [], "coding_time_seconds": 0, "coding_time_seconds_today": 0, "balance": "You need to have a pocket watcher badge to view this.", "badges": [], "created_at": "2025-06-16T16:38:21.134-04:00", "updated_at": "2025-07-03T19:23:22.143-04:00", "avatar": "https://secure.gravatar.com/avatar/b8a9df21aa217afdc8cec4f81d259e9d.jpg?s=512&d=https%3A%2F%2Fa.slack-edge.com%2Fdf10d%2Fimg%2Favatars%2Fava_0008-512.png", "custom_css": null}, {"id": 2670, "slack_id": "U091M5QSREH", "display_name": "Ulrich Pouani", "bio": null, "projects_count": 0, "devlogs_count": 0, "votes_count": 0, "ships_count": 0, "projects": [], "coding_time_seconds": 0, "coding_time_seconds_today": 0, "balance": "You need to have a pocket watcher badge to view this.", "badges": [], "created_at": "2025-06-16T16:38:24.591-04:00", "updated_at": "2025-07-03T19:23:22.426-04:00", "avatar": "https://avatars.slack-edge.com/2025-06-16/9043326484231_e6a5d2e93b0834b35364_original.png", "custom_css": null}, {"id": 2671, "slack_id": "U091997DAB1", "display_name": "Gabriel Gallo", "bio": null, "projects_count": 0, "devlogs_count": 0, "votes_count": 0, "ships_count": 0, "projects": [], "coding_time_seconds": 0, "coding_time_seconds_today": 0, "balance": "You need to have a pocket watcher badge to view this.", "badges": [], "created_at": "2025-06-16T16:38:33.635-04:00", "updated_at": "2025-07-03T19:23:22.711-04:00", "avatar": "https://secure.gravatar.com/avatar/f5157f161e8071c386392462e81db4f9.jpg?s=512&d=https%3A%2F%2Fa.slack-edge.com%2Fdf10d%2Fimg%2Favatars%2Fava_0017-512.png", "custom_css": null}, {"id": 2672, "slack_id": "U091QVC48JG", "display_name": "Salah Kaifas", "bio": null, "projects_count": 0, "devlogs_count": 0, "votes_count": 0, "ships_count": 0, "projects": [], "coding_time_seconds": 0, "coding_time_seconds_today": 0, "balance": "You need to have a pocket watcher badge to view this.", "badges": [], "created_at": "2025-06-16T16:39:10.482-04:00", "updated_at": "2025-07-03T19:23:22.976-04:00", "avatar": "https://avatars.slack-edge.com/2025-06-16/9071193721537_5f5a937e2212f2306285_original.png", "custom_css": null}, {"id": 2673, "slack_id": "U091QN3RX9A", "display_name": "Zachary Reinblatt", "bio": null, "projects_count": 0, "devlogs_count": 0, "votes_count": 0, "ships_count": 0, "projects": [], "coding_time_seconds": 0, "coding_time_seconds_today": 0, "balance": "You need to have a pocket watcher badge to view this.", "badges": [], "created_at": "2025-06-16T16:39:31.139-04:00", "updated_at": "2025-07-03T19:23:23.248-04:00", "avatar": "https://avatars.slack-edge.com/2025-06-16/9051829541382_1fd0cdb245a790cf9fe4_original.jpg", "custom_css": null}, {"id": 2674, "slack_id": "U092D29U4RE", "display_name": "Abhishek Biswas", "bio": null, "projects_count": 0, "devlogs_count": 0, "votes_count": 0, "ships_count": 0, "projects": [], "coding_time_seconds": 0, "coding_time_seconds_today": 0, "balance": "You need to have a pocket watcher badge to view this.", "badges": [], "created_at": "2025-06-16T16:40:07.873-04:00", "updated_at": "2025-07-03T19:23:23.525-04:00", "avatar": "https://secure.gravatar.com/avatar/c4da06247897e87728fe6517e64045b0.jpg?s=512&d=https%3A%2F%2Fa.slack-edge.com%2Fdf10d%2Fimg%2Favatars%2Fava_0011-512.png", "custom_css": null}, {"id": 2675, "slack_id": "U091QJZT7H8", "display_name": "zami", "bio": null, "projects_count": 0, "devlogs_count": 0, "votes_count": 0, "ships_count": 0, "projects": [], "coding_time_seconds": 28773, "coding_time_seconds_today": 0, "balance": "You need to have a pocket watcher badge to view this.", "badges": [], "created_at": "2025-06-16T16:40:15.048-04:00", "updated_at": "2025-07-03T19:23:23.795-04:00", "avatar": "https://secure.gravatar.com/avatar/eef5f8e88e42dd8272bc66a7c4abe716.jpg?s=512&d=https%3A%2F%2Fa.slack-edge.com%2Fdf10d%2Fimg%2Favatars%2Fava_0026-512.png", "custom_css": null}, {"id": 2676, "slack_id": "U091NR1NBQV", "display_name": "\u00d6mer K. Irmak", "bio": null, "projects_count": 0, "devlogs_count": 0, "votes_count": 0, "ships_count": 0, "projects": [], "coding_time_seconds": 0, "coding_time_seconds_today": 0, "balance": "You need to have a pocket watcher badge to view this.", "badges": [], "created_at": "2025-06-16T16:40:27.081-04:00", "updated_at": "2025-07-03T19:23:24.057-04:00", "avatar": "https://avatars.slack-edge.com/2025-06-16/9051834202710_ad27036b5aa82bf795f6_original.png", "custom_css": null}, {"id": 2677, "slack_id": "U07DEBE2RUL", "display_name": "adishree", "bio": null, "projects_count": 0, "devlogs_count": 0, "votes_count": 0, "ships_count": 0, "projects": [], "coding_time_seconds": 308778, "coding_time_seconds_today": 0, "balance": "You need to have a pocket watcher badge to view this.", "badges": [], "created_at": "2025-06-16T16:40:31.419-04:00", "updated_at": "2025-07-03T19:23:24.322-04:00", "avatar": "https://avatars.slack-edge.com/2025-05-06/8854994597493_78aa3b920206cafd81f5_original.png", "custom_css": null}, {"id": 2678, "slack_id": "U091NQYFX3P", "display_name": "V\u00edctor Garc\u00eda Casta\u00f1eda", "bio": null, "projects_count": 0, "devlogs_count": 0, "votes_count": 0, "ships_count": 0, "projects": [], "coding_time_seconds": 0, "coding_time_seconds_today": 0, "balance": "You need to have a pocket watcher badge to view this.", "badges": [], "created_at": "2025-06-16T16:40:36.819-04:00", "updated_at": "2025-07-03T19:23:24.605-04:00", "avatar": "https://avatars.slack-edge.com/2025-06-16/9058654274626_ea29e8c8112f7f2ff96e_original.jpg", "custom_css": null}, {"id": 2679, "slack_id": "U09235FEH97", "display_name": "Kashif Raza", "bio": null, "projects_count": 0, "devlogs_count": 0, "votes_count": 0, "ships_count": 0, "projects": [], "coding_time_seconds": 0, "coding_time_seconds_today": 0, "balance": "You need to have a pocket watcher badge to view this.", "badges": [], "created_at": "2025-06-16T16:40:50.555-04:00", "updated_at": "2025-07-03T19:23:24.874-04:00", "avatar": "https://secure.gravatar.com/avatar/cdb5565471e4213f8312cf4c3c5d1851.jpg?s=512&d=https%3A%2F%2Fa.slack-edge.com%2Fdf10d%2Fimg%2Favatars%2Fava_0023-512.png", "custom_css": null}, {"id": 2680, "slack_id": "U091HLS4Q0K", "display_name": "Jorim", "bio": null, "projects_count": 1, "devlogs_count": 5, "votes_count": 0, "ships_count": 0, "projects": [{"id": 1342, "title": "ESP32 Framework: Modular MIDI CC Input device driver (Go and C++)", "devlogs_count": 5, "created_at": "2025-06-18T10:10:40.208-04:00"}], "coding_time_seconds": 82054, "coding_time_seconds_today": 0, "balance": "You need to have a pocket watcher badge to view this.", "badges": [], "created_at": "2025-06-16T16:41:46.587-04:00", "updated_at": "2025-09-12T03:42:48.340-04:00", "avatar": "https://avatars.slack-edge.com/2025-06-17/9061109350354_d0fd64199d4d85d8cf98_original.jpg", "custom_css": null}], "pagination": {"page": 134, "pages": 1192, "count": 23828, "items": 20}}