{"users": [{"id": 2681, "slack_id": "U09199K957H", "display_name": "DG x", "bio": null, "projects_count": 0, "devlogs_count": 0, "votes_count": 0, "ships_count": 0, "projects": [], "coding_time_seconds": 92747, "coding_time_seconds_today": 0, "balance": "You need to have a pocket watcher badge to view this.", "badges": [], "created_at": "2025-06-16T16:41:49.921-04:00", "updated_at": "2025-07-03T19:23:25.406-04:00", "avatar": "https://avatars.slack-edge.com/2025-06-16/9051838775798_0e0f610efe3020a5892b_original.png", "custom_css": null}, {"id": 2682, "slack_id": "U0921792PPT", "display_name": "Anmol", "bio": null, "projects_count": 0, "devlogs_count": 0, "votes_count": 0, "ships_count": 0, "projects": [], "coding_time_seconds": 4803, "coding_time_seconds_today": 0, "balance": "You need to have a pocket watcher badge to view this.", "badges": [], "created_at": "2025-06-16T16:41:51.781-04:00", "updated_at": "2025-08-13T12:51:51.143-04:00", "avatar": "https://secure.gravatar.com/avatar/6c050ef5a11eba35a3cda98a97d13fb9.jpg?s=512&d=https%3A%2F%2Fa.slack-edge.com%2Fdf10d%2Fimg%2Favatars%2Fava_0009-512.png", "custom_css": null}, {"id": 2683, "slack_id": "U091R09G9FE", "display_name": "Declan Buckley", "bio": null, "projects_count": 0, "devlogs_count": 0, "votes_count": 0, "ships_count": 0, "projects": [], "coding_time_seconds": 2628, "coding_time_seconds_today": 0, "balance": "You need to have a pocket watcher badge to view this.", "badges": [], "created_at": "2025-06-16T16:42:15.659-04:00", "updated_at": "2025-07-03T19:23:25.960-04:00", "avatar": "https://secure.gravatar.com/avatar/897c2add9a2148ff7744043162ed47dd.jpg?s=512&d=https%3A%2F%2Fa.slack-edge.com%2Fdf10d%2Fimg%2Favatars%2Fava_0024-512.png", "custom_css": null}, {"id": 2684, "slack_id": "U08B4PNMPD5", "display_name": "Shaurya Chauhan", "bio": null, "projects_count": 5, "devlogs_count": 8, "votes_count": 20, "ships_count": 1, "projects": [{"id": 1356, "title": "Music Player", "devlogs_count": 1, "created_at": "2025-06-18T11:25:52.732-04:00"}, {"id": 1457, "title": "Octopod Robot", "devlogs_count": 2, "created_at": "2025-06-18T15:30:40.498-04:00"}, {"id": 3026, "title": "Waterproof Vtol Drone", "devlogs_count": 0, "created_at": "2025-06-22T20:24:36.464-04:00"}, {"id": 1099, "title": "3d Sphere visualizer", "devlogs_count": 1, "created_at": "2025-06-17T16:07:23.377-04:00"}, {"id": 384, "title": "Personal Website", "devlogs_count": 4, "created_at": "2025-06-16T19:50:31.318-04:00"}], "coding_time_seconds": 115516, "coding_time_seconds_today": 0, "balance": "You need to have a pocket watcher badge to view this.", "badges": [{"name": "Maiden Voyage", "text": "you shipped your first project! the journey begins...", "icon": "\ud83d\udea2"}], "created_at": "2025-06-16T16:42:47.688-04:00", "updated_at": "2025-09-10T22:52:29.835-04:00", "avatar": "https://secure.gravatar.com/avatar/b4c41b697c1d11f413860ac00e121c03.jpg?s=512&d=https%3A%2F%2Fa.slack-edge.com%2Fdf10d%2Fimg%2Favatars%2Fava_0023-512.png", "custom_css": null}, {"id": 2685, "slack_id": "U0845SR4E8M", "display_name": "Piernik", "bio": null, "projects_count": 6, "devlogs_count": 23, "votes_count": 26, "ships_count": 1, "projects": [{"id": 3401, "title": "Musicguessr", "devlogs_count": 7, "created_at": "2025-06-24T04:44:44.424-04:00"}, {"id": 4969, "title": "Lawyer Site", "devlogs_count": 6, "created_at": "2025-07-02T12:52:30.259-04:00"}, {"id": 6028, "title": "Agin TV", "devlogs_count": 5, "created_at": "2025-07-10T04:30:57.436-04:00"}, {"id": 6543, "title": "Agin Requests", "devlogs_count": 2, "created_at": "2025-07-14T05:57:55.376-04:00"}, {"id": 8864, "title": "Agin Sensors", "devlogs_count": 3, "created_at": "2025-07-29T13:32:24.131-04:00"}, {"id": 12833, "title": "Agin Class Manager", "devlogs_count": 0, "created_at": "2025-09-03T13:00:06.231-04:00"}], "coding_time_seconds": 689162, "coding_time_seconds_today": 0, "balance": "You need to have a pocket watcher badge to view this.", "badges": [{"name": "Maiden Voyage", "text": "you shipped your first project! the journey begins...", "icon": "\ud83d\udea2"}], "created_at": "2025-06-16T16:42:58.284-04:00", "updated_at": "2025-09-10T22:52:29.949-04:00", "avatar": "https://avatars.slack-edge.com/2024-12-27/8223748379525_daafe59c3422a737776b_original.jpg", "custom_css": null}, {"id": 2686, "slack_id": "U07ATTVPPHA", "display_name": "Minecraftchest2", "bio": null, "projects_count": 5, "devlogs_count": 15, "votes_count": 44, "ships_count": 3, "projects": [{"id": 469, "title": "Pixel Art Soul", "devlogs_count": 2, "created_at": "2025-06-16T22:35:45.575-04:00"}, {"id": 3934, "title": "HDM-mod", "devlogs_count": 1, "created_at": "2025-06-26T11:48:54.522-04:00"}, {"id": 8815, "title": "Emberborn", "devlogs_count": 5, "created_at": "2025-07-29T10:49:07.929-04:00"}, {"id": 12710, "title": "Game organiser", "devlogs_count": 3, "created_at": "2025-09-01T08:52:39.368-04:00"}, {"id": 4736, "title": "B.E.E.P. (Bomb Emergency Extraction Protocol)", "devlogs_count": 4, "created_at": "2025-07-01T09:44:37.050-04:00"}], "coding_time_seconds": 165714, "coding_time_seconds_today": 0, "balance": "You need to have a pocket watcher badge to view this.", "badges": [{"name": "Maiden Voyage", "text": "you shipped your first project! the journey begins...", "icon": "\ud83d\udea2"}], "created_at": "2025-06-16T16:43:52.938-04:00", "updated_at": "2025-09-10T22:52:29.992-04:00", "avatar": "https://avatars.slack-edge.com/2025-08-17/9365908839298_7009effd26845729ea8d_original.jpg", "custom_css": null}, {"id": 2687, "slack_id": "U07A1J0UUUA", "display_name": "xiaobo", "bio": null, "projects_count": 1, "devlogs_count": 3, "votes_count": 0, "ships_count": 0, "projects": [{"id": 1167, "title": "Joury", "devlogs_count": 3, "created_at": "2025-06-17T19:57:33.050-04:00"}], "coding_time_seconds": 89463, "coding_time_seconds_today": 0, "balance": "You need to have a pocket watcher badge to view this.", "badges": [], "created_at": "2025-06-16T16:44:06.763-04:00", "updated_at": "2025-09-01T09:44:54.318-04:00", "avatar": "https://avatars.slack-edge.com/2024-06-27/7341623739586_e66a74fa1ff677008e0f_original.png", "custom_css": null}, {"id": 2688, "slack_id": "U089V3FL2EM", "display_name": "WilliamWallace", "bio": null, "projects_count": 0, "devlogs_count": 0, "votes_count": 0, "ships_count": 0, "projects": [], "coding_time_seconds": 39064, "coding_time_seconds_today": 0, "balance": "You need to have a pocket watcher badge to view this.", "badges": [], "created_at": "2025-06-16T16:44:10.945-04:00", "updated_at": "2025-08-13T14:10:04.319-04:00", "avatar": "https://avatars.slack-edge.com/2025-08-13/9347685538261_17dd06d8588db891c326_original.png", "custom_css": null}, {"id": 2689, "slack_id": "U08372BA5LH", "display_name": "ryan", "bio": "just your cute neighborhood kitty cat who loves rust", "projects_count": 4, "devlogs_count": 20, "votes_count": 12, "ships_count": 1, "projects": [{"id": 523, "title": "RC Robot in Rust", "devlogs_count": 4, "created_at": "2025-06-17T00:15:37.574-04:00"}, {"id": 2379, "title": "Better Project Explorer", "devlogs_count": 14, "created_at": "2025-06-20T21:41:17.386-04:00"}, {"id": 2724, "title": "Turn Images Into Bad Apple", "devlogs_count": 1, "created_at": "2025-06-21T21:25:31.075-04:00"}, {"id": 9188, "title": "Test Project", "devlogs_count": 0, "created_at": "2025-07-30T22:45:19.712-04:00"}], "coding_time_seconds": 335229, "coding_time_seconds_today": 0, "balance": "You need to have a pocket watcher badge to view this.", "badges": [{"name": "Maiden Voyage", "text": "you shipped your first project! the journey begins...", "icon": "\ud83d\udea2"}, {"name": "Verified", "text": "this user is verified (i.e. gave us $8)", "icon": "https://summer.hackclub.com/assets/verified-c9457a9f.png"}], "created_at": "2025-06-16T16:44:14.089-04:00", "updated_at": "2025-09-10T22:52:30.091-04:00", "avatar": "https://avatars.slack-edge.com/2024-11-29/8101693432693_bf1bbc60502f83202e50_original.jpg", "custom_css": null}, {"id": 2690, "slack_id": "U092D2TFFBJ", "display_name": "Ardil", "bio": null, "projects_count": 0, "devlogs_count": 0, "votes_count": 0, "ships_count": 0, "projects": [], "coding_time_seconds": 0, "coding_time_seconds_today": 0, "balance": "You need to have a pocket watcher badge to view this.", "badges": [], "created_at": "2025-06-16T16:44:14.629-04:00", "updated_at": "2025-07-03T19:23:27.902-04:00", "avatar": "https://secure.gravatar.com/avatar/303659d0c4da4da2c08f0cfc1b6723ab.jpg?s=512&d=https%3A%2F%2Fa.slack-edge.com%2Fdf10d%2Fimg%2Favatars%2Fava_0026-512.png", "custom_css": null}, {"id": 2691, "slack_id": "U078M8Q8RNF", "display_name": "lu2000luk", "bio": null, "projects_count": 0, "devlogs_count": 0, "votes_count": 0, "ships_count": 0, "projects": [], "coding_time_seconds": 31125, "coding_time_seconds_today": 0, "balance": "You need to have a pocket watcher badge to view this.", "badges": [], "created_at": "2025-06-16T16:44:18.189-04:00", "updated_at": "2025-07-03T19:23:28.169-04:00", "avatar": "https://avatars.slack-edge.com/2024-10-02/7803102071271_9acc1bdf6425236cded1_original.jpg", "custom_css": null}, {"id": 2692, "slack_id": "U0912HML4L8", "display_name": "Pauline", "bio": null, "projects_count": 0, "devlogs_count": 0, "votes_count": 0, "ships_count": 0, "projects": [], "coding_time_seconds": 82568, "coding_time_seconds_today": 0, "balance": "You need to have a pocket watcher badge to view this.", "badges": [], "created_at": "2025-06-16T16:44:28.532-04:00", "updated_at": "2025-07-03T19:23:28.425-04:00", "avatar": "https://avatars.slack-edge.com/2025-06-06/8997350148823_069f5de14741372b3be3_original.png", "custom_css": null}, {"id": 2693, "slack_id": "U04GKTLT2MR", "display_name": "kaushik ch", "bio": null, "projects_count": 0, "devlogs_count": 0, "votes_count": 1, "ships_count": 0, "projects": [], "coding_time_seconds": 0, "coding_time_seconds_today": 0, "balance": "You need to have a pocket watcher badge to view this.", "badges": [], "created_at": "2025-06-16T16:44:30.339-04:00", "updated_at": "2025-09-03T22:53:47.048-04:00", "avatar": "https://avatars.slack-edge.com/2022-12-24/4587758937408_5bbb90a646d64d060d13_original.jpg", "custom_css": null}, {"id": 2694, "slack_id": "U07BWS2LPE2", "display_name": "MadRobin13", "bio": null, "projects_count": 1, "devlogs_count": 0, "votes_count": 0, "ships_count": 0, "projects": [{"id": 285, "title": "Alertr", "devlogs_count": 0, "created_at": "2025-06-16T17:05:31.057-04:00"}], "coding_time_seconds": 81559, "coding_time_seconds_today": 0, "balance": "You need to have a pocket watcher badge to view this.", "badges": [], "created_at": "2025-06-16T16:44:31.986-04:00", "updated_at": "2025-08-08T13:58:20.112-04:00", "avatar": "https://avatars.slack-edge.com/2024-07-11/7434310382416_3cfd208dfbcac720a91f_original.png", "custom_css": null}, {"id": 2695, "slack_id": "U07BAB1KT61", "display_name": "Brandon Kirbyson", "bio": null, "projects_count": 0, "devlogs_count": 0, "votes_count": 0, "ships_count": 0, "projects": [], "coding_time_seconds": 107406, "coding_time_seconds_today": 0, "balance": "You need to have a pocket watcher badge to view this.", "badges": [], "created_at": "2025-06-16T16:44:32.634-04:00", "updated_at": "2025-07-27T15:16:19.573-04:00", "avatar": "https://avatars.slack-edge.com/2024-09-01/7674325569601_df68eb29df6296c0d702_original.jpg", "custom_css": null}, {"id": 2696, "slack_id": "U082FM2ADJS", "display_name": "Kevin", "bio": null, "projects_count": 0, "devlogs_count": 0, "votes_count": 0, "ships_count": 0, "projects": [], "coding_time_seconds": 0, "coding_time_seconds_today": 0, "balance": "You need to have a pocket watcher badge to view this.", "badges": [], "created_at": "2025-06-16T16:44:34.595-04:00", "updated_at": "2025-07-03T19:23:29.494-04:00", "avatar": "https://avatars.slack-edge.com/2024-11-27/8093514004386_11de76bafc30135d4734_original.jpg", "custom_css": null}, {"id": 2697, "slack_id": "U07NU7DKY9K", "display_name": "ilikebananas", "bio": null, "projects_count": 1, "devlogs_count": 0, "votes_count": 1, "ships_count": 0, "projects": [{"id": 1499, "title": "Pomodoro Timer", "devlogs_count": 0, "created_at": "2025-06-18T16:33:03.640-04:00"}], "coding_time_seconds": 46832, "coding_time_seconds_today": 0, "balance": "You need to have a pocket watcher badge to view this.", "badges": [], "created_at": "2025-06-16T16:44:41.963-04:00", "updated_at": "2025-07-03T19:23:29.761-04:00", "avatar": "https://secure.gravatar.com/avatar/1e1eb8384a1fa1c6166fae4136bfabf4.jpg?s=512&d=https%3A%2F%2Fa.slack-edge.com%2Fdf10d%2Fimg%2Favatars%2Fava_0004-512.png", "custom_css": null}, {"id": 2698, "slack_id": "U08260XMTGC", "display_name": "boki", "bio": null, "projects_count": 0, "devlogs_count": 0, "votes_count": 0, "ships_count": 0, "projects": [], "coding_time_seconds": 2319, "coding_time_seconds_today": 0, "balance": "You need to have a pocket watcher badge to view this.", "badges": [], "created_at": "2025-06-16T16:44:44.350-04:00", "updated_at": "2025-07-03T19:23:30.029-04:00", "avatar": "https://avatars.slack-edge.com/2025-03-06/8568058234705_1088a31bee19f55c0612_original.jpg", "custom_css": null}, {"id": 2699, "slack_id": "U091G5Y70S2", "display_name": "breca", "bio": null, "projects_count": 0, "devlogs_count": 0, "votes_count": 0, "ships_count": 0, "projects": [], "coding_time_seconds": 0, "coding_time_seconds_today": 0, "balance": "You need to have a pocket watcher badge to view this.", "badges": [], "created_at": "2025-06-16T16:44:55.007-04:00", "updated_at": "2025-07-03T19:23:30.291-04:00", "avatar": "https://secure.gravatar.com/avatar/201bfc2da0844df973c88f9409e9e369.jpg?s=512&d=https%3A%2F%2Fa.slack-edge.com%2Fdf10d%2Fimg%2Favatars%2Fava_0017-512.png", "custom_css": null}, {"id": 2700, "slack_id": "U07METEA28H", "display_name": "Ruby", "bio": null, "projects_count": 0, "devlogs_count": 0, "votes_count": 0, "ships_count": 0, "projects": [], "coding_time_seconds": 37454, "coding_time_seconds_today": 0, "balance": "You need to have a pocket watcher badge to view this.", "badges": [], "created_at": "2025-06-16T16:44:57.097-04:00", "updated_at": "2025-07-03T19:23:30.554-04:00", "avatar": "https://avatars.slack-edge.com/2025-06-04/9000516162834_260cd389583f78b04cdb_original.png", "custom_css": null}], "pagination": {"page": 135, "pages": 1192, "count": 23828, "items": 20}}