{"users": [{"id": 2701, "slack_id": "U078H9QQK8B", "display_name": "Liam", "bio": null, "projects_count": 0, "devlogs_count": 0, "votes_count": 1, "ships_count": 0, "projects": [], "coding_time_seconds": 13378, "coding_time_seconds_today": 0, "balance": "You need to have a pocket watcher badge to view this.", "badges": [], "created_at": "2025-06-16T16:45:04.820-04:00", "updated_at": "2025-07-19T02:48:50.315-04:00", "avatar": "https://secure.gravatar.com/avatar/d5ec3ff767665ccff87361e492abf2b4.jpg?s=512&d=https%3A%2F%2Fa.slack-edge.com%2Fdf10d%2Fimg%2Favatars%2Fava_0011-512.png", "custom_css": null}, {"id": 2702, "slack_id": "U08FNN5D9PC", "display_name": "Jackson", "bio": null, "projects_count": 4, "devlogs_count": 1, "votes_count": 1, "ships_count": 0, "projects": [{"id": 1929, "title": "Mcreator Wakatime", "devlogs_count": 0, "created_at": "2025-06-19T16:28:49.455-04:00"}, {"id": 2974, "title": "Devlogger", "devlogs_count": 1, "created_at": "2025-06-22T16:00:55.324-04:00"}, {"id": 6460, "title": "GridLock", "devlogs_count": 0, "created_at": "2025-07-13T14:23:38.251-04:00"}, {"id": 6712, "title": "create flask app", "devlogs_count": 0, "created_at": "2025-07-15T12:06:17.690-04:00"}], "coding_time_seconds": 159410, "coding_time_seconds_today": 0, "balance": "You need to have a pocket watcher badge to view this.", "badges": [], "created_at": "2025-06-16T16:45:05.217-04:00", "updated_at": "2025-07-03T19:23:31.199-04:00", "avatar": "https://avatars.slack-edge.com/2025-05-31/8967116410183_a184398fb8c7d0023dab_original.png", "custom_css": null}, {"id": 2703, "slack_id": "U092362HA49", "display_name": "jk135", "bio": null, "projects_count": 0, "devlogs_count": 0, "votes_count": 0, "ships_count": 0, "projects": [], "coding_time_seconds": 3660, "coding_time_seconds_today": 0, "balance": "You need to have a pocket watcher badge to view this.", "badges": [], "created_at": "2025-06-16T16:45:05.497-04:00", "updated_at": "2025-07-03T19:23:31.487-04:00", "avatar": "https://secure.gravatar.com/avatar/015e5b1d0a19bac2ee6998e7758fc6ff.jpg?s=512&d=https%3A%2F%2Fa.slack-edge.com%2Fdf10d%2Fimg%2Favatars%2Fava_0004-512.png", "custom_css": null}, {"id": 2704, "slack_id": "U091QK10SRG", "display_name": "valenrc", "bio": null, "projects_count": 0, "devlogs_count": 0, "votes_count": 0, "ships_count": 0, "projects": [], "coding_time_seconds": 0, "coding_time_seconds_today": 0, "balance": "You need to have a pocket watcher badge to view this.", "badges": [], "created_at": "2025-06-16T16:45:05.695-04:00", "updated_at": "2025-07-03T19:23:31.787-04:00", "avatar": "https://secure.gravatar.com/avatar/29fd4739fd08212b166395a50ba12a9f.jpg?s=512&d=https%3A%2F%2Fa.slack-edge.com%2Fdf10d%2Fimg%2Favatars%2Fava_0001-512.png", "custom_css": null}, {"id": 2705, "slack_id": "U091HQBPU14", "display_name": "Nevir", "bio": null, "projects_count": 0, "devlogs_count": 0, "votes_count": 0, "ships_count": 0, "projects": [], "coding_time_seconds": 286, "coding_time_seconds_today": 0, "balance": "You need to have a pocket watcher badge to view this.", "badges": [], "created_at": "2025-06-16T16:45:07.956-04:00", "updated_at": "2025-07-03T19:23:32.086-04:00", "avatar": "https://secure.gravatar.com/avatar/c25676e7dc63d762959218d4423fc4a1.jpg?s=512&d=https%3A%2F%2Fa.slack-edge.com%2Fdf10d%2Fimg%2Favatars%2Fava_0011-512.png", "custom_css": null}, {"id": 2706, "slack_id": "U0829JYRVA9", "display_name": "Sriman Aryasomayajula", "bio": null, "projects_count": 2, "devlogs_count": 2, "votes_count": 2, "ships_count": 1, "projects": [{"id": 807, "title": "MannV2.1", "devlogs_count": 1, "created_at": "2025-06-17T08:37:36.722-04:00"}, {"id": 12929, "title": "TheReflexGame", "devlogs_count": 1, "created_at": "2025-09-05T14:27:02.795-04:00"}], "coding_time_seconds": 152157, "coding_time_seconds_today": 0, "balance": "You need to have a pocket watcher badge to view this.", "badges": [{"name": "Maiden Voyage", "text": "you shipped your first project! the journey begins...", "icon": "\ud83d\udea2"}], "created_at": "2025-06-16T16:45:11.702-04:00", "updated_at": "2025-09-10T22:52:30.725-04:00", "avatar": "https://avatars.slack-edge.com/2024-11-25/8082302865939_edb7a8fa803eedb413b4_original.png", "custom_css": null}, {"id": 2707, "slack_id": "U05UAD1SLQ0", "display_name": "Karthick Arun", "bio": null, "projects_count": 0, "devlogs_count": 0, "votes_count": 0, "ships_count": 0, "projects": [], "coding_time_seconds": 9658, "coding_time_seconds_today": 0, "balance": "You need to have a pocket watcher badge to view this.", "badges": [], "created_at": "2025-06-16T16:45:21.079-04:00", "updated_at": "2025-07-03T19:23:32.682-04:00", "avatar": "https://avatars.slack-edge.com/2023-09-30/5972721339059_039d7f2826cbe0393e87_original.png", "custom_css": null}, {"id": 2708, "slack_id": "U091NR6MR0V", "display_name": "Harrison Fluck", "bio": null, "projects_count": 1, "devlogs_count": 2, "votes_count": 0, "ships_count": 0, "projects": [{"id": 277, "title": "Vision Valley Blog Website", "devlogs_count": 2, "created_at": "2025-06-16T17:01:10.420-04:00"}], "coding_time_seconds": 13366, "coding_time_seconds_today": 0, "balance": "You need to have a pocket watcher badge to view this.", "badges": [], "created_at": "2025-06-16T16:45:24.673-04:00", "updated_at": "2025-07-03T19:23:32.947-04:00", "avatar": "https://secure.gravatar.com/avatar/b68eb78c4cc8a087e98079d98ab91626.jpg?s=512&d=https%3A%2F%2Fa.slack-edge.com%2Fdf10d%2Fimg%2Favatars%2Fava_0012-512.png", "custom_css": null}, {"id": 2709, "slack_id": "U082SUKK401", "display_name": "Jackson", "bio": null, "projects_count": 5, "devlogs_count": 8, "votes_count": 20, "ships_count": 1, "projects": [{"id": 1171, "title": "UniPlay - a unified music serving platform!", "devlogs_count": 3, "created_at": "2025-06-17T20:16:37.677-04:00"}, {"id": 6759, "title": "TimeDash - Time tracking made easy", "devlogs_count": 0, "created_at": "2025-07-15T22:55:08.572-04:00"}, {"id": 10424, "title": "NanoController", "devlogs_count": 0, "created_at": "2025-08-06T23:21:56.886-04:00"}, {"id": 12076, "title": "Generic Drift Game", "devlogs_count": 0, "created_at": "2025-08-22T19:14:50.393-04:00"}, {"id": 4400, "title": "PokeGuess - Pokemon Guessing Game", "devlogs_count": 5, "created_at": "2025-06-29T16:10:55.709-04:00"}], "coding_time_seconds": 177659, "coding_time_seconds_today": 0, "balance": "You need to have a pocket watcher badge to view this.", "badges": [{"name": "Maiden Voyage", "text": "you shipped your first project! the journey begins...", "icon": "\ud83d\udea2"}], "created_at": "2025-06-16T16:45:26.069-04:00", "updated_at": "2025-09-10T22:52:30.807-04:00", "avatar": "https://avatars.slack-edge.com/2024-11-25/8082390794402_e03743275e339b80482d_original.jpg", "custom_css": null}, {"id": 2710, "slack_id": "U091R0KP30U", "display_name": "pirc", "bio": null, "projects_count": 0, "devlogs_count": 0, "votes_count": 0, "ships_count": 0, "projects": [], "coding_time_seconds": 0, "coding_time_seconds_today": 0, "balance": "You need to have a pocket watcher badge to view this.", "badges": [], "created_at": "2025-06-16T16:45:35.133-04:00", "updated_at": "2025-07-03T19:23:33.473-04:00", "avatar": "https://secure.gravatar.com/avatar/ac7027fae46569018abe3e9037b1c16a.jpg?s=512&d=https%3A%2F%2Fa.slack-edge.com%2Fdf10d%2Fimg%2Favatars%2Fava_0003-512.png", "custom_css": null}, {"id": 2711, "slack_id": "U074R9DGELB", "display_name": "melncat", "bio": null, "projects_count": 5, "devlogs_count": 10, "votes_count": 15, "ships_count": 1, "projects": [{"id": 1663, "title": "Myriad: An Unorthodox Balatro Mod", "devlogs_count": 1, "created_at": "2025-06-19T01:04:57.489-04:00"}, {"id": 2059, "title": "Litris - Crossing Tetris and Lights Out", "devlogs_count": 7, "created_at": "2025-06-20T03:02:58.487-04:00"}, {"id": 5197, "title": "Mewtilities: Advanced Pixel Cat's End Utilities", "devlogs_count": 1, "created_at": "2025-07-03T17:18:33.574-04:00"}, {"id": 9886, "title": "NUTDEALER: A recreation of the Deltarune battle system on the web", "devlogs_count": 0, "created_at": "2025-08-02T16:37:33.491-04:00"}, {"id": 1662, "title": "Overused Puzzle Solver", "devlogs_count": 1, "created_at": "2025-06-19T00:56:19.579-04:00"}], "coding_time_seconds": 211249, "coding_time_seconds_today": 0, "balance": "You need to have a pocket watcher badge to view this.", "badges": [{"name": "Maiden Voyage", "text": "you shipped your first project! the journey begins...", "icon": "\ud83d\udea2"}], "created_at": "2025-06-16T16:45:40.354-04:00", "updated_at": "2025-09-10T22:52:30.866-04:00", "avatar": "https://secure.gravatar.com/avatar/f21e6c55ef0b5e37653132d85e5606e7.jpg?s=512&d=https%3A%2F%2Fa.slack-edge.com%2Fdf10d%2Fimg%2Favatars%2Fava_0007-512.png", "custom_css": null}, {"id": 2712, "slack_id": "U07Q4K6RHM5", "display_name": "Hubert", "bio": "\u304a\u306f\u3088\u3046\uff01", "projects_count": 1, "devlogs_count": 4, "votes_count": 26, "ships_count": 1, "projects": [{"id": 6740, "title": "Wishing Wall Revamped [v. 1.0 Beta]", "devlogs_count": 4, "created_at": "2025-07-15T16:36:46.967-04:00"}], "coding_time_seconds": 190988, "coding_time_seconds_today": 0, "balance": "You need to have a pocket watcher badge to view this.", "badges": [{"name": "<%= admin_tool do %>", "text": "with great power comes great responsibility... and a ban hammer.", "icon": "\ud83d\udd28"}, {"name": "Maiden Voyage", "text": "you shipped your first project! the journey begins...", "icon": "\ud83d\udea2"}], "created_at": "2025-06-16T16:46:03.799-04:00", "updated_at": "2025-09-10T22:52:30.902-04:00", "avatar": "https://avatars.slack-edge.com/2025-07-22/9230277938613_001363d69766c10bec41_original.jpg", "custom_css": null}, {"id": 2713, "slack_id": "U091R0LMAAY", "display_name": "Yehor", "bio": null, "projects_count": 0, "devlogs_count": 0, "votes_count": 0, "ships_count": 0, "projects": [], "coding_time_seconds": 0, "coding_time_seconds_today": 0, "balance": "You need to have a pocket watcher badge to view this.", "badges": [], "created_at": "2025-06-16T16:46:08.310-04:00", "updated_at": "2025-07-03T19:23:34.279-04:00", "avatar": "https://secure.gravatar.com/avatar/13c6cef02099ccf8a620e218433b3a8d.jpg?s=512&d=https%3A%2F%2Fa.slack-edge.com%2Fdf10d%2Fimg%2Favatars%2Fava_0016-512.png", "custom_css": null}, {"id": 2714, "slack_id": "U09236797A5", "display_name": "Anderson Bernardo", "bio": null, "projects_count": 0, "devlogs_count": 0, "votes_count": 0, "ships_count": 0, "projects": [], "coding_time_seconds": 0, "coding_time_seconds_today": 0, "balance": "You need to have a pocket watcher badge to view this.", "badges": [], "created_at": "2025-06-16T16:46:09.079-04:00", "updated_at": "2025-07-03T19:23:34.543-04:00", "avatar": "https://secure.gravatar.com/avatar/c2ff2bcee4342c47bf75996e8f73d858.jpg?s=512&d=https%3A%2F%2Fa.slack-edge.com%2Fdf10d%2Fimg%2Favatars%2Fava_0010-512.png", "custom_css": null}, {"id": 2715, "slack_id": "U078LNQ49K7", "display_name": "Vish M", "bio": null, "projects_count": 0, "devlogs_count": 0, "votes_count": 0, "ships_count": 0, "projects": [], "coding_time_seconds": 412494, "coding_time_seconds_today": 0, "balance": "You need to have a pocket watcher badge to view this.", "badges": [], "created_at": "2025-06-16T16:46:14.505-04:00", "updated_at": "2025-07-03T19:23:34.804-04:00", "avatar": "https://secure.gravatar.com/avatar/c9effc51b220237618c127d74cdca904.jpg?s=512&d=https%3A%2F%2Fa.slack-edge.com%2Fdf10d%2Fimg%2Favatars%2Fava_0015-512.png", "custom_css": null}, {"id": 2716, "slack_id": "U07U6TVJ0NB", "display_name": "Orion", "bio": null, "projects_count": 0, "devlogs_count": 7, "votes_count": 36, "ships_count": 0, "projects": [], "coding_time_seconds": 94615, "coding_time_seconds_today": 0, "balance": "You need to have a pocket watcher badge to view this.", "badges": [{"name": "Maiden Voyage", "text": "you shipped your first project! the journey begins...", "icon": "\ud83d\udea2"}], "created_at": "2025-06-16T16:46:18.095-04:00", "updated_at": "2025-09-22T16:20:24.797-04:00", "avatar": "https://avatars.slack-edge.com/2025-01-22/8336765449634_08466342fd853faa21ad_original.jpg", "custom_css": null}, {"id": 2717, "slack_id": "U08AZBA9NFJ", "display_name": "Madhav", "bio": null, "projects_count": 5, "devlogs_count": 40, "votes_count": 60, "ships_count": 3, "projects": [{"id": 12856, "title": "PyCalc", "devlogs_count": 10, "created_at": "2025-09-03T17:24:08.916-04:00"}, {"id": 13536, "title": "Custom Watch", "devlogs_count": 8, "created_at": "2025-09-18T20:48:51.051-04:00"}, {"id": 12741, "title": "Monopoly / The Castle Game money calculator", "devlogs_count": 5, "created_at": "2025-09-01T21:09:56.259-04:00"}, {"id": 5034, "title": "Calculator", "devlogs_count": 4, "created_at": "2025-07-02T20:34:58.330-04:00"}, {"id": 12942, "title": "Web Game", "devlogs_count": 13, "created_at": "2025-09-05T19:27:05.640-04:00"}], "coding_time_seconds": 149909, "coding_time_seconds_today": 0, "balance": "You need to have a pocket watcher badge to view this.", "badges": [{"name": "Maiden Voyage", "text": "you shipped your first project! the journey begins...", "icon": "\ud83d\udea2"}], "created_at": "2025-06-16T16:46:26.195-04:00", "updated_at": "2025-09-10T22:52:31.079-04:00", "avatar": "https://avatars.slack-edge.com/2025-06-21/9077419814931_1ad5bdac1706389c8484_original.png", "custom_css": null}, {"id": 2718, "slack_id": "U0809F94J5S", "display_name": "Yo", "bio": null, "projects_count": 1, "devlogs_count": 1, "votes_count": 17, "ships_count": 1, "projects": [{"id": 2987, "title": "Around The World", "devlogs_count": 1, "created_at": "2025-06-22T16:44:09.407-04:00"}], "coding_time_seconds": 37660, "coding_time_seconds_today": 0, "balance": "You need to have a pocket watcher badge to view this.", "badges": [{"name": "Maiden Voyage", "text": "you shipped your first project! the journey begins...", "icon": "\ud83d\udea2"}], "created_at": "2025-06-16T16:46:38.095-04:00", "updated_at": "2025-09-10T22:52:31.111-04:00", "avatar": "https://avatars.slack-edge.com/2025-01-24/8367084559264_8468d900f026d838cbf8_original.jpg", "custom_css": null}, {"id": 2719, "slack_id": "U091HQU4TE2", "display_name": "Tomin", "bio": null, "projects_count": 0, "devlogs_count": 0, "votes_count": 0, "ships_count": 0, "projects": [], "coding_time_seconds": 0, "coding_time_seconds_today": 0, "balance": "You need to have a pocket watcher badge to view this.", "badges": [], "created_at": "2025-06-16T16:46:49.194-04:00", "updated_at": "2025-07-03T19:23:35.873-04:00", "avatar": "https://secure.gravatar.com/avatar/8e67eb33393c50f3ba9b477f49504cb8.jpg?s=512&d=https%3A%2F%2Fa.slack-edge.com%2Fdf10d%2Fimg%2Favatars%2Fava_0020-512.png", "custom_css": null}, {"id": 2720, "slack_id": "U092369H7J5", "display_name": "rvidan", "bio": null, "projects_count": 0, "devlogs_count": 0, "votes_count": 0, "ships_count": 0, "projects": [], "coding_time_seconds": 0, "coding_time_seconds_today": 0, "balance": "You need to have a pocket watcher badge to view this.", "badges": [], "created_at": "2025-06-16T16:46:54.370-04:00", "updated_at": "2025-07-03T19:23:36.130-04:00", "avatar": "https://secure.gravatar.com/avatar/9253cec5372f6139c6dbda46408d1fe7.jpg?s=512&d=https%3A%2F%2Fa.slack-edge.com%2Fdf10d%2Fimg%2Favatars%2Fava_0014-512.png", "custom_css": null}], "pagination": {"page": 136, "pages": 1192, "count": 23828, "items": 20}}