{"users": [{"id": 2721, "slack_id": "U08S8U1HUGG", "display_name": "Oliver Cingl", "bio": null, "projects_count": 0, "devlogs_count": 0, "votes_count": 0, "ships_count": 0, "projects": [], "coding_time_seconds": 732064, "coding_time_seconds_today": 0, "balance": "You need to have a pocket watcher badge to view this.", "badges": [], "created_at": "2025-06-16T16:47:16.670-04:00", "updated_at": "2025-07-03T19:23:36.410-04:00", "avatar": "https://avatars.slack-edge.com/2025-05-21/8913894432551_3240bfe69fcb7090b3f1_original.png", "custom_css": null}, {"id": 2722, "slack_id": "U07AATSTMEF", "display_name": "meepodeep", "bio": null, "projects_count": 2, "devlogs_count": 4, "votes_count": 20, "ships_count": 1, "projects": [{"id": 7744, "title": "Redshift", "devlogs_count": 1, "created_at": "2025-07-22T20:11:35.888-04:00"}, {"id": 6836, "title": "Personal Website", "devlogs_count": 3, "created_at": "2025-07-16T18:05:24.447-04:00"}], "coding_time_seconds": 157013, "coding_time_seconds_today": 0, "balance": "You need to have a pocket watcher badge to view this.", "badges": [{"name": "Maiden Voyage", "text": "you shipped your first project! the journey begins...", "icon": "\ud83d\udea2"}], "created_at": "2025-06-16T16:47:19.637-04:00", "updated_at": "2025-09-10T22:52:31.214-04:00", "avatar": "https://avatars.slack-edge.com/2025-08-13/9354653589396_549fa1a7d8c947e94411_original.png", "custom_css": null}, {"id": 2723, "slack_id": "U07EQ2QGVK2", "display_name": "Piotlus", "bio": null, "projects_count": 0, "devlogs_count": 12, "votes_count": 35, "ships_count": 0, "projects": [], "coding_time_seconds": 426251, "coding_time_seconds_today": 0, "balance": "You need to have a pocket watcher badge to view this.", "badges": [{"name": "Maiden Voyage", "text": "you shipped your first project! the journey begins...", "icon": "\ud83d\udea2"}], "created_at": "2025-06-16T16:47:22.983-04:00", "updated_at": "2025-09-10T22:52:31.254-04:00", "avatar": "https://secure.gravatar.com/avatar/25fa6ffb664170c51e65967a69bad827.jpg?s=512&d=https%3A%2F%2Fa.slack-edge.com%2Fdf10d%2Fimg%2Favatars%2Fava_0006-512.png", "custom_css": null}, {"id": 2724, "slack_id": "U08GPNU4E0N", "display_name": "Aarush", "bio": null, "projects_count": 0, "devlogs_count": 1, "votes_count": 0, "ships_count": 0, "projects": [], "coding_time_seconds": 293086, "coding_time_seconds_today": 0, "balance": "You need to have a pocket watcher badge to view this.", "badges": [{"name": "Maiden Voyage", "text": "you shipped your first project! the journey begins...", "icon": "\ud83d\udea2"}], "created_at": "2025-06-16T16:47:31.750-04:00", "updated_at": "2025-09-10T22:52:31.292-04:00", "avatar": "https://avatars.slack-edge.com/2025-03-09/8567781357478_07eb08654e89297c6111_original.png", "custom_css": null}, {"id": 2725, "slack_id": "U092D39C14G", "display_name": "Lenny", "bio": null, "projects_count": 0, "devlogs_count": 0, "votes_count": 0, "ships_count": 0, "projects": [], "coding_time_seconds": 0, "coding_time_seconds_today": 0, "balance": "You need to have a pocket watcher badge to view this.", "badges": [], "created_at": "2025-06-16T16:47:32.257-04:00", "updated_at": "2025-07-03T19:23:38.185-04:00", "avatar": "https://secure.gravatar.com/avatar/daeebfa793a35472709efcc9a179f6ed.jpg?s=512&d=https%3A%2F%2Fa.slack-edge.com%2Fdf10d%2Fimg%2Favatars%2Fava_0021-512.png", "custom_css": null}, {"id": 2726, "slack_id": "U06RWM6HH1R", "display_name": "Cedric", "bio": null, "projects_count": 0, "devlogs_count": 0, "votes_count": 0, "ships_count": 0, "projects": [], "coding_time_seconds": 0, "coding_time_seconds_today": 0, "balance": "You need to have a pocket watcher badge to view this.", "badges": [], "created_at": "2025-06-16T16:47:34.313-04:00", "updated_at": "2025-07-03T19:23:38.457-04:00", "avatar": "https://avatars.slack-edge.com/2025-05-21/8932286949221_0789195c0b1400643cd4_original.png", "custom_css": null}, {"id": 2727, "slack_id": "U07B9NMJ6TY", "display_name": "Cyclic", "bio": null, "projects_count": 1, "devlogs_count": 0, "votes_count": 0, "ships_count": 0, "projects": [{"id": 6922, "title": "Duat", "devlogs_count": 0, "created_at": "2025-07-17T11:23:13.792-04:00"}], "coding_time_seconds": 5479, "coding_time_seconds_today": 0, "balance": "You need to have a pocket watcher badge to view this.", "badges": [], "created_at": "2025-06-16T16:47:49.910-04:00", "updated_at": "2025-07-22T02:10:28.499-04:00", "avatar": "https://avatars.slack-edge.com/2025-07-21/9232560485458_35516d52195c8515114a_original.jpg", "custom_css": null}, {"id": 2728, "slack_id": "U0919A4P0ET", "display_name": "John", "bio": null, "projects_count": 0, "devlogs_count": 0, "votes_count": 0, "ships_count": 0, "projects": [], "coding_time_seconds": 0, "coding_time_seconds_today": 0, "balance": "You need to have a pocket watcher badge to view this.", "badges": [], "created_at": "2025-06-16T16:47:51.316-04:00", "updated_at": "2025-07-03T19:23:38.992-04:00", "avatar": "https://secure.gravatar.com/avatar/e91af8c5e6f488152f0de7a1334ef83c.jpg?s=512&d=https%3A%2F%2Fa.slack-edge.com%2Fdf10d%2Fimg%2Favatars%2Fava_0016-512.png", "custom_css": null}, {"id": 2729, "slack_id": "U091QKM09GA", "display_name": "Joanna", "bio": null, "projects_count": 1, "devlogs_count": 0, "votes_count": 0, "ships_count": 0, "projects": [{"id": 295, "title": "MoodAtlas \u2013 Interactive Emotion Mapping App", "devlogs_count": 0, "created_at": "2025-06-16T17:22:29.412-04:00"}], "coding_time_seconds": 38817, "coding_time_seconds_today": 0, "balance": "You need to have a pocket watcher badge to view this.", "badges": [], "created_at": "2025-06-16T16:48:02.531-04:00", "updated_at": "2025-07-03T19:23:39.266-04:00", "avatar": "https://secure.gravatar.com/avatar/3c1e50e91b7262f5b131cb3466025732.jpg?s=512&d=https%3A%2F%2Fa.slack-edge.com%2Fdf10d%2Fimg%2Favatars%2Fava_0023-512.png", "custom_css": null}, {"id": 2730, "slack_id": "U07HSJL9U1F", "display_name": "aster42", "bio": null, "projects_count": 11, "devlogs_count": 23, "votes_count": 100, "ships_count": 7, "projects": [{"id": 7762, "title": "To Do List with React", "devlogs_count": 0, "created_at": "2025-07-22T22:54:07.132-04:00"}, {"id": 9659, "title": "Github Profile Search", "devlogs_count": 0, "created_at": "2025-08-02T01:21:58.880-04:00"}, {"id": 10715, "title": "Verifier -Sentiment Anlysis Web Application", "devlogs_count": 4, "created_at": "2025-08-10T02:08:48.301-04:00"}, {"id": 11277, "title": "Catchify- Twist Game of Catching", "devlogs_count": 1, "created_at": "2025-08-14T14:02:52.730-04:00"}, {"id": 13155, "title": "AnimalFlash Game", "devlogs_count": 2, "created_at": "2025-09-09T23:56:29.700-04:00"}, {"id": 8493, "title": "shell calculator with validation and Responsiveness", "devlogs_count": 1, "created_at": "2025-07-27T14:43:58.156-04:00"}, {"id": 9658, "title": "Github Profile Search", "devlogs_count": 3, "created_at": "2025-08-02T01:21:58.880-04:00"}, {"id": 8491, "title": "Anime-Quiz-with-Background-Animation", "devlogs_count": 1, "created_at": "2025-07-27T14:34:31.163-04:00"}, {"id": 9934, "title": "Foodify: Mode Based Food Suggester and Life Balancer", "devlogs_count": 2, "created_at": "2025-08-03T01:56:37.834-04:00"}, {"id": 10438, "title": "Cookery -  AI Based find You meal with what is in Your Pantry", "devlogs_count": 3, "created_at": "2025-08-07T01:58:25.207-04:00"}, {"id": 10084, "title": "Dynamic Page Notifier with Browsers API Engine", "devlogs_count": 6, "created_at": "2025-08-03T23:44:35.426-04:00"}], "coding_time_seconds": 464549, "coding_time_seconds_today": 8573, "balance": "You need to have a pocket watcher badge to view this.", "badges": [{"name": "Maiden Voyage", "text": "you shipped your first project! the journey begins...", "icon": "\ud83d\udea2"}, {"name": "Ballot Stuffer", "text": "vote 100 times.", "icon": "https://summer.hackclub.com/assets/i_voted-bf851b48.png"}], "created_at": "2025-06-16T16:48:11.370-04:00", "updated_at": "2025-09-10T22:52:31.482-04:00", "avatar": "https://secure.gravatar.com/avatar/113f81399ae45534ce1b1957ce12a5df.jpg?s=512&d=https%3A%2F%2Fa.slack-edge.com%2Fdf10d%2Fimg%2Favatars%2Fava_0005-512.png", "custom_css": null}, {"id": 2731, "slack_id": "U091HMKDNRH", "display_name": "Instinct", "bio": null, "projects_count": 0, "devlogs_count": 0, "votes_count": 0, "ships_count": 0, "projects": [], "coding_time_seconds": 0, "coding_time_seconds_today": 0, "balance": "You need to have a pocket watcher badge to view this.", "badges": [], "created_at": "2025-06-16T16:48:16.734-04:00", "updated_at": "2025-07-03T19:23:39.812-04:00", "avatar": "https://avatars.slack-edge.com/2025-06-16/9051752396787_72f4f2dd04faccff648f_original.png", "custom_css": null}, {"id": 2732, "slack_id": "U081Z7D7YJK", "display_name": "Linus Y. Schneeberg", "bio": null, "projects_count": 0, "devlogs_count": 0, "votes_count": 0, "ships_count": 0, "projects": [], "coding_time_seconds": 273744, "coding_time_seconds_today": 0, "balance": "You need to have a pocket watcher badge to view this.", "badges": [], "created_at": "2025-06-16T16:48:19.391-04:00", "updated_at": "2025-07-03T19:23:40.072-04:00", "avatar": "https://avatars.slack-edge.com/2025-01-21/8312661374103_692b2c9e6dba3f1de6fb_original.jpg", "custom_css": null}, {"id": 2733, "slack_id": "U091R11CQ84", "display_name": "Charlotte Wayment", "bio": null, "projects_count": 0, "devlogs_count": 0, "votes_count": 0, "ships_count": 0, "projects": [], "coding_time_seconds": 0, "coding_time_seconds_today": 0, "balance": "You need to have a pocket watcher badge to view this.", "badges": [], "created_at": "2025-06-16T16:48:50.608-04:00", "updated_at": "2025-07-03T19:23:40.343-04:00", "avatar": "https://avatars.slack-edge.com/2025-06-16/9056904051893_685452b56b9ce491fada_original.png", "custom_css": null}, {"id": 2734, "slack_id": "U083N21RM9D", "display_name": "Shailee", "bio": null, "projects_count": 0, "devlogs_count": 0, "votes_count": 0, "ships_count": 0, "projects": [], "coding_time_seconds": 0, "coding_time_seconds_today": 0, "balance": "You need to have a pocket watcher badge to view this.", "badges": [], "created_at": "2025-06-16T16:48:53.968-04:00", "updated_at": "2025-07-03T19:23:40.601-04:00", "avatar": "https://secure.gravatar.com/avatar/75675b0cfc897b0a99bcce4fb3761286.jpg?s=512&d=https%3A%2F%2Fa.slack-edge.com%2Fdf10d%2Fimg%2Favatars%2Fava_0002-512.png", "custom_css": null}, {"id": 2735, "slack_id": "U0820QDTS69", "display_name": "spacefall", "bio": null, "projects_count": 1, "devlogs_count": 2, "votes_count": 0, "ships_count": 0, "projects": [{"id": 5275, "title": "Spring", "devlogs_count": 2, "created_at": "2025-07-04T06:25:44.836-04:00"}], "coding_time_seconds": 58245, "coding_time_seconds_today": 0, "balance": "You need to have a pocket watcher badge to view this.", "badges": [], "created_at": "2025-06-16T16:49:08.714-04:00", "updated_at": "2025-07-03T19:23:40.875-04:00", "avatar": "https://avatars.slack-edge.com/2024-11-27/8117675151024_59ce0a4e33dd038afa05_original.png", "custom_css": null}, {"id": 2736, "slack_id": "U0824T0T353", "display_name": "Taz", "bio": null, "projects_count": 2, "devlogs_count": 10, "votes_count": 52, "ships_count": 1, "projects": [{"id": 10843, "title": "ComposeWebPreviewer", "devlogs_count": 6, "created_at": "2025-08-11T09:18:08.993-04:00"}, {"id": 6064, "title": "Matrix Calculator", "devlogs_count": 4, "created_at": "2025-07-10T10:42:02.278-04:00"}], "coding_time_seconds": 579906, "coding_time_seconds_today": 2829, "balance": "You need to have a pocket watcher badge to view this.", "badges": [{"name": "Maiden Voyage", "text": "you shipped your first project! the journey begins...", "icon": "\ud83d\udea2"}], "created_at": "2025-06-16T16:49:17.012-04:00", "updated_at": "2025-09-10T22:52:31.655-04:00", "avatar": "https://avatars.slack-edge.com/2024-11-23/8078284261652_94f1bb2da99fe549fcb0_original.jpg", "custom_css": null}, {"id": 2737, "slack_id": "U089C4HM7EW", "display_name": "Ana", "bio": null, "projects_count": 0, "devlogs_count": 0, "votes_count": 0, "ships_count": 0, "projects": [], "coding_time_seconds": 39454, "coding_time_seconds_today": 0, "balance": "You need to have a pocket watcher badge to view this.", "badges": [], "created_at": "2025-06-16T16:49:31.346-04:00", "updated_at": "2025-07-03T19:23:41.403-04:00", "avatar": "https://secure.gravatar.com/avatar/8ba41faad5e8d48fe2a6eb8a2f67d00a.jpg?s=512&d=https%3A%2F%2Fa.slack-edge.com%2Fdf10d%2Fimg%2Favatars%2Fava_0012-512.png", "custom_css": null}, {"id": 2738, "slack_id": "U081C47SYP9", "display_name": "owais", "bio": null, "projects_count": 0, "devlogs_count": 32, "votes_count": 60, "ships_count": 0, "projects": [], "coding_time_seconds": 689566, "coding_time_seconds_today": 0, "balance": "You need to have a pocket watcher badge to view this.", "badges": [{"name": "Maiden Voyage", "text": "you shipped your first project! the journey begins...", "icon": "\ud83d\udea2"}], "created_at": "2025-06-16T16:49:35.409-04:00", "updated_at": "2025-09-10T22:52:31.708-04:00", "avatar": "https://secure.gravatar.com/avatar/22fc9ba9c088d42bdfd988a847012ddb.jpg?s=512&d=https%3A%2F%2Fa.slack-edge.com%2Fdf10d%2Fimg%2Favatars%2Fava_0006-512.png", "custom_css": null}, {"id": 2739, "slack_id": "U085K8WJDAA", "display_name": "Chloe", "bio": null, "projects_count": 2, "devlogs_count": 3, "votes_count": 9, "ships_count": 2, "projects": [{"id": 8122, "title": "Fermat's Near Misses", "devlogs_count": 2, "created_at": "2025-07-24T18:31:37.482-04:00"}, {"id": 11183, "title": "Loched In Website", "devlogs_count": 1, "created_at": "2025-08-13T22:18:52.637-04:00"}], "coding_time_seconds": 103023, "coding_time_seconds_today": 0, "balance": "You need to have a pocket watcher badge to view this.", "badges": [{"name": "Maiden Voyage", "text": "you shipped your first project! the journey begins...", "icon": "\ud83d\udea2"}], "created_at": "2025-06-16T16:49:44.411-04:00", "updated_at": "2025-09-10T22:52:31.748-04:00", "avatar": "https://secure.gravatar.com/avatar/346926028646507397bc3612f0df2997.jpg?s=512&d=https%3A%2F%2Fa.slack-edge.com%2Fdf10d%2Fimg%2Favatars%2Fava_0003-512.png", "custom_css": null}, {"id": 2740, "slack_id": "U07V771GD0A", "display_name": "Muyao Lu", "bio": null, "projects_count": 3, "devlogs_count": 13, "votes_count": 9, "ships_count": 1, "projects": [{"id": 2755, "title": "TosAutomation ", "devlogs_count": 9, "created_at": "2025-06-22T01:01:31.958-04:00"}, {"id": 11590, "title": "Annoying virtual assistant", "devlogs_count": 2, "created_at": "2025-08-17T10:57:53.893-04:00"}, {"id": 12674, "title": "Better Voting", "devlogs_count": 1, "created_at": "2025-08-31T12:21:10.112-04:00"}], "coding_time_seconds": 476064, "coding_time_seconds_today": 0, "balance": "You need to have a pocket watcher badge to view this.", "badges": [{"name": "Maiden Voyage", "text": "you shipped your first project! the journey begins...", "icon": "\ud83d\udea2"}], "created_at": "2025-06-16T16:49:51.687-04:00", "updated_at": "2025-09-10T22:52:31.780-04:00", "avatar": "https://avatars.slack-edge.com/2025-01-22/8337499854676_ae1a986a481832b4aeb5_original.png", "custom_css": null}], "pagination": {"page": 137, "pages": 1192, "count": 23828, "items": 20}}