{"users": [{"id": 2741, "slack_id": "U0716D1341J", "display_name": "Slippy", "bio": null, "projects_count": 1, "devlogs_count": 4, "votes_count": 2, "ships_count": 0, "projects": [{"id": 10282, "title": "Focus", "devlogs_count": 4, "created_at": "2025-08-05T14:18:46.584-04:00"}], "coding_time_seconds": 375437, "coding_time_seconds_today": 0, "balance": "You need to have a pocket watcher badge to view this.", "badges": [], "created_at": "2025-06-16T16:49:53.285-04:00", "updated_at": "2025-08-14T04:08:26.348-04:00", "avatar": "https://avatars.slack-edge.com/2025-07-26/9258595300500_ceb76cd6ad2ab21e750e_original.jpg", "custom_css": null}, {"id": 2742, "slack_id": "U091HMTSJCB", "display_name": "Uelkli", "bio": null, "projects_count": 1, "devlogs_count": 8, "votes_count": 0, "ships_count": 0, "projects": [{"id": 1155, "title": "Unknown minecraft mod", "devlogs_count": 8, "created_at": "2025-06-17T18:43:41.785-04:00"}], "coding_time_seconds": 336624, "coding_time_seconds_today": 0, "balance": "You need to have a pocket watcher badge to view this.", "badges": [], "created_at": "2025-06-16T16:49:54.795-04:00", "updated_at": "2025-07-03T19:23:42.720-04:00", "avatar": "https://avatars.slack-edge.com/2025-06-30/9123769711221_1663e97cacf2d5a7dfa6_original.png", "custom_css": null}, {"id": 2743, "slack_id": "U08NCJE6WN4", "display_name": "Ismail", "bio": "tying ", "projects_count": 1, "devlogs_count": 3, "votes_count": 4, "ships_count": 0, "projects": [{"id": 8324, "title": "prometheus", "devlogs_count": 3, "created_at": "2025-07-26T07:39:09.749-04:00"}], "coding_time_seconds": 13384, "coding_time_seconds_today": 0, "balance": "You need to have a pocket watcher badge to view this.", "badges": [], "created_at": "2025-06-16T16:49:59.714-04:00", "updated_at": "2025-08-27T08:10:25.763-04:00", "avatar": "https://avatars.slack-edge.com/2025-08-27/9417994981526_4d93916436a762e02195_original.jpg", "custom_css": null}, {"id": 2744, "slack_id": "U092D3L884Q", "display_name": "Niklas Wild", "bio": null, "projects_count": 2, "devlogs_count": 1, "votes_count": 0, "ships_count": 0, "projects": [{"id": 1086, "title": "Dezimal zu Bin\u00e4r Umrechner", "devlogs_count": 0, "created_at": "2025-06-17T15:42:28.824-04:00"}, {"id": 1348, "title": "Snapstage", "devlogs_count": 1, "created_at": "2025-06-18T10:55:37.198-04:00"}], "coding_time_seconds": 61855, "coding_time_seconds_today": 0, "balance": "You need to have a pocket watcher badge to view this.", "badges": [], "created_at": "2025-06-16T16:50:05.000-04:00", "updated_at": "2025-07-03T19:23:43.247-04:00", "avatar": "https://secure.gravatar.com/avatar/934166c735b66d9c4d93de3d449b553b.jpg?s=512&d=https%3A%2F%2Fa.slack-edge.com%2Fdf10d%2Fimg%2Favatars%2Fava_0008-512.png", "custom_css": null}, {"id": 2745, "slack_id": "U06MCHA590E", "display_name": "ari", "bio": "", "projects_count": 1, "devlogs_count": 1, "votes_count": 0, "ships_count": 0, "projects": [{"id": 7929, "title": "voidset", "devlogs_count": 1, "created_at": "2025-07-23T16:56:41.487-04:00"}], "coding_time_seconds": 23625, "coding_time_seconds_today": 0, "balance": "You need to have a pocket watcher badge to view this.", "badges": [], "created_at": "2025-06-16T16:50:08.699-04:00", "updated_at": "2025-07-03T19:23:43.523-04:00", "avatar": "https://avatars.slack-edge.com/2024-03-03/6758676472528_6b3c7275b1e1a0ee578c_original.png", "custom_css": null}, {"id": 2746, "slack_id": "U081X6EUWE4", "display_name": "Ayo", "bio": null, "projects_count": 0, "devlogs_count": 0, "votes_count": 0, "ships_count": 0, "projects": [], "coding_time_seconds": 75568, "coding_time_seconds_today": 0, "balance": "You need to have a pocket watcher badge to view this.", "badges": [], "created_at": "2025-06-16T16:50:17.830-04:00", "updated_at": "2025-09-09T02:10:06.087-04:00", "avatar": "https://avatars.slack-edge.com/2025-09-08/9483451274610_72bbf1fdca2770464e9d_original.png", "custom_css": null}, {"id": 2747, "slack_id": "U079JRQL6F9", "display_name": "Neelesh Chevuri", "bio": null, "projects_count": 0, "devlogs_count": 0, "votes_count": 0, "ships_count": 0, "projects": [], "coding_time_seconds": 0, "coding_time_seconds_today": 0, "balance": "You need to have a pocket watcher badge to view this.", "badges": [], "created_at": "2025-06-16T16:50:24.910-04:00", "updated_at": "2025-07-03T19:23:44.053-04:00", "avatar": "https://avatars.slack-edge.com/2024-07-03/7370876039924_598b970e0a6d9b9aeb1e_original.png", "custom_css": null}, {"id": 2748, "slack_id": "U07F8HBRC94", "display_name": "Omar4life", "bio": null, "projects_count": 2, "devlogs_count": 0, "votes_count": 0, "ships_count": 0, "projects": [{"id": 9719, "title": "ImprovEats", "devlogs_count": 0, "created_at": "2025-08-02T04:51:46.702-04:00"}, {"id": 9720, "title": "ImprovEats App", "devlogs_count": 0, "created_at": "2025-08-02T04:51:46.736-04:00"}], "coding_time_seconds": 207192, "coding_time_seconds_today": 0, "balance": "You need to have a pocket watcher badge to view this.", "badges": [], "created_at": "2025-06-16T16:50:38.937-04:00", "updated_at": "2025-08-11T16:34:05.827-04:00", "avatar": "https://avatars.slack-edge.com/2024-08-04/7527708732676_ac98a1093fd215c9cb84_original.jpg", "custom_css": null}, {"id": 2749, "slack_id": "U091NRH3213", "display_name": "Manuel Hernandez", "bio": null, "projects_count": 0, "devlogs_count": 0, "votes_count": 0, "ships_count": 0, "projects": [], "coding_time_seconds": 0, "coding_time_seconds_today": 0, "balance": "You need to have a pocket watcher badge to view this.", "badges": [], "created_at": "2025-06-16T16:50:39.210-04:00", "updated_at": "2025-07-03T19:23:44.593-04:00", "avatar": "https://avatars.slack-edge.com/2025-06-16/9056911011525_3a995dc794d7de6037c9_original.png", "custom_css": null}, {"id": 2750, "slack_id": "U091QL45Z42", "display_name": "Carlos Marin", "bio": null, "projects_count": 0, "devlogs_count": 0, "votes_count": 0, "ships_count": 0, "projects": [], "coding_time_seconds": 3106, "coding_time_seconds_today": 0, "balance": "You need to have a pocket watcher badge to view this.", "badges": [], "created_at": "2025-06-16T16:50:53.331-04:00", "updated_at": "2025-07-03T19:23:44.860-04:00", "avatar": "https://avatars.slack-edge.com/2025-06-17/9056766159686_72253b2ec717ff2db7a8_original.jpg", "custom_css": null}, {"id": 2751, "slack_id": "U07KSFHTBRD", "display_name": "Adya S", "bio": null, "projects_count": 0, "devlogs_count": 0, "votes_count": 0, "ships_count": 0, "projects": [], "coding_time_seconds": 1782, "coding_time_seconds_today": 0, "balance": "You need to have a pocket watcher badge to view this.", "badges": [], "created_at": "2025-06-16T16:50:58.320-04:00", "updated_at": "2025-07-03T19:23:45.125-04:00", "avatar": "https://secure.gravatar.com/avatar/fb581633ad98ef68b17b022a2afccb4e.jpg?s=512&d=https%3A%2F%2Fa.slack-edge.com%2Fdf10d%2Fimg%2Favatars%2Fava_0010-512.png", "custom_css": null}, {"id": 2752, "slack_id": "U04PUUE7XR6", "display_name": "Pat/Patcybermind", "bio": null, "projects_count": 3, "devlogs_count": 8, "votes_count": 0, "ships_count": 0, "projects": [{"id": 286, "title": "#Apex SkyCell wheater Balloon team Flight Computer code", "devlogs_count": 4, "created_at": "2025-06-16T17:05:32.402-04:00"}, {"id": 3242, "title": "Space MMO game", "devlogs_count": 3, "created_at": "2025-06-23T14:40:45.073-04:00"}, {"id": 4617, "title": "NOMAD Laptop", "devlogs_count": 1, "created_at": "2025-06-30T21:47:34.533-04:00"}], "coding_time_seconds": 125263, "coding_time_seconds_today": 0, "balance": "You need to have a pocket watcher badge to view this.", "badges": [], "created_at": "2025-06-16T16:51:10.791-04:00", "updated_at": "2025-08-22T10:37:51.298-04:00", "avatar": "https://avatars.slack-edge.com/2025-08-04/9288448303399_1aa80c1c9025dc9ae5a2_original.jpg", "custom_css": null}, {"id": 2753, "slack_id": "U09192QPC5D", "display_name": "Angelica Fiona Lesiapeto", "bio": null, "projects_count": 0, "devlogs_count": 0, "votes_count": 0, "ships_count": 0, "projects": [], "coding_time_seconds": 8364, "coding_time_seconds_today": 240, "balance": "You need to have a pocket watcher badge to view this.", "badges": [], "created_at": "2025-06-16T16:51:23.154-04:00", "updated_at": "2025-07-03T19:23:45.668-04:00", "avatar": "https://secure.gravatar.com/avatar/53d65ebca53c6e93a29dff04204e9a51.jpg?s=512&d=https%3A%2F%2Fa.slack-edge.com%2Fdf10d%2Fimg%2Favatars%2Fava_0005-512.png", "custom_css": null}, {"id": 2754, "slack_id": "U091HMSS4MR", "display_name": "Ahmed El Gendy", "bio": null, "projects_count": 0, "devlogs_count": 0, "votes_count": 0, "ships_count": 0, "projects": [], "coding_time_seconds": 36047, "coding_time_seconds_today": 0, "balance": "You need to have a pocket watcher badge to view this.", "badges": [], "created_at": "2025-06-16T16:51:24.725-04:00", "updated_at": "2025-07-03T19:23:45.932-04:00", "avatar": "https://avatars.slack-edge.com/2025-06-16/9081142261920_9e42dfa71b36123efb23_original.jpg", "custom_css": null}, {"id": 2755, "slack_id": "U08FRM5HC68", "display_name": "Max Mittelst\u00e4dt", "bio": null, "projects_count": 0, "devlogs_count": 5, "votes_count": 5, "ships_count": 0, "projects": [], "coding_time_seconds": 123270, "coding_time_seconds_today": 0, "balance": "You need to have a pocket watcher badge to view this.", "badges": [{"name": "Maiden Voyage", "text": "you shipped your first project! the journey begins...", "icon": "\ud83d\udea2"}], "created_at": "2025-06-16T16:51:26.679-04:00", "updated_at": "2025-09-10T22:52:32.189-04:00", "avatar": "https://avatars.slack-edge.com/2025-05-17/8904402780678_f6b560d485ab09bba858_original.png", "custom_css": null}, {"id": 2756, "slack_id": "U08HR8S757G", "display_name": "angela", "bio": null, "projects_count": 0, "devlogs_count": 0, "votes_count": 0, "ships_count": 0, "projects": [], "coding_time_seconds": 45266, "coding_time_seconds_today": 0, "balance": "You need to have a pocket watcher badge to view this.", "badges": [], "created_at": "2025-06-16T16:51:35.296-04:00", "updated_at": "2025-07-03T19:23:46.459-04:00", "avatar": "https://avatars.slack-edge.com/2025-03-16/8620703775665_41a4575d39f1e3b4f1dc_original.jpg", "custom_css": null}, {"id": 2757, "slack_id": "U091QKZHV34", "display_name": "lewis", "bio": null, "projects_count": 2, "devlogs_count": 1, "votes_count": 0, "ships_count": 0, "projects": [{"id": 3022, "title": "Polystats", "devlogs_count": 0, "created_at": "2025-06-22T20:02:45.603-04:00"}, {"id": 3023, "title": "Drone FPS", "devlogs_count": 1, "created_at": "2025-06-22T20:05:23.598-04:00"}], "coding_time_seconds": 23294, "coding_time_seconds_today": 0, "balance": "You need to have a pocket watcher badge to view this.", "badges": [], "created_at": "2025-06-16T16:51:57.395-04:00", "updated_at": "2025-07-03T19:23:46.724-04:00", "avatar": "https://secure.gravatar.com/avatar/b1ae2254b37ab508616186fc9b639bd5.jpg?s=512&d=https%3A%2F%2Fa.slack-edge.com%2Fdf10d%2Fimg%2Favatars%2Fava_0011-512.png", "custom_css": null}, {"id": 2758, "slack_id": "U0826QC5Q3W", "display_name": "Nick A", "bio": null, "projects_count": 0, "devlogs_count": 0, "votes_count": 0, "ships_count": 0, "projects": [], "coding_time_seconds": 333400, "coding_time_seconds_today": 0, "balance": "You need to have a pocket watcher badge to view this.", "badges": [], "created_at": "2025-06-16T16:52:01.380-04:00", "updated_at": "2025-07-03T19:23:46.996-04:00", "avatar": "https://secure.gravatar.com/avatar/31b4626765fdd4fc58bd2a062235c845.jpg?s=512&d=https%3A%2F%2Fa.slack-edge.com%2Fdf10d%2Fimg%2Favatars%2Fava_0002-512.png", "custom_css": null}, {"id": 2759, "slack_id": "U05T5GXBUBZ", "display_name": "Nicholas West", "bio": null, "projects_count": 3, "devlogs_count": 19, "votes_count": 20, "ships_count": 1, "projects": [{"id": 4151, "title": "Website refresh", "devlogs_count": 3, "created_at": "2025-06-27T22:33:03.137-04:00"}, {"id": 10803, "title": "Custom Hardware GPU", "devlogs_count": 7, "created_at": "2025-08-11T00:53:49.783-04:00"}, {"id": 1095, "title": "Hardware SPI implementation", "devlogs_count": 9, "created_at": "2025-06-17T15:58:44.594-04:00"}], "coding_time_seconds": 245519, "coding_time_seconds_today": 0, "balance": "You need to have a pocket watcher badge to view this.", "badges": [{"name": "Maiden Voyage", "text": "you shipped your first project! the journey begins...", "icon": "\ud83d\udea2"}], "created_at": "2025-06-16T16:52:01.962-04:00", "updated_at": "2025-09-12T17:14:21.948-04:00", "avatar": "https://avatars.slack-edge.com/2024-11-03/7997555101120_96766ed45578e320326b_original.png", "custom_css": null}, {"id": 2760, "slack_id": "U08JB9FMA3S", "display_name": "meli", "bio": null, "projects_count": 1, "devlogs_count": 1, "votes_count": 8, "ships_count": 0, "projects": [{"id": 2414, "title": "Meli's Website", "devlogs_count": 1, "created_at": "2025-06-21T01:06:43.919-04:00"}], "coding_time_seconds": 27028, "coding_time_seconds_today": 0, "balance": "You need to have a pocket watcher badge to view this.", "badges": [], "created_at": "2025-06-16T16:52:24.345-04:00", "updated_at": "2025-07-03T19:23:47.564-04:00", "avatar": "https://avatars.slack-edge.com/2025-03-13/8612341399713_e3842b5c11837ac77fdd_original.png", "custom_css": null}], "pagination": {"page": 138, "pages": 1192, "count": 23828, "items": 20}}