{"users": [{"id": 2761, "slack_id": "U091HN5UPL3", "display_name": "Frederik", "bio": null, "projects_count": 0, "devlogs_count": 0, "votes_count": 0, "ships_count": 0, "projects": [], "coding_time_seconds": 0, "coding_time_seconds_today": 0, "balance": "You need to have a pocket watcher badge to view this.", "badges": [], "created_at": "2025-06-16T16:52:34.196-04:00", "updated_at": "2025-07-03T19:23:47.840-04:00", "avatar": "https://secure.gravatar.com/avatar/8a68a776e1746d2cfc6f22c2f8153c8a.jpg?s=512&d=https%3A%2F%2Fa.slack-edge.com%2Fdf10d%2Fimg%2Favatars%2Fava_0011-512.png", "custom_css": null}, {"id": 2762, "slack_id": "U092C6YRMLY", "display_name": "Ryan Kawas", "bio": null, "projects_count": 0, "devlogs_count": 0, "votes_count": 0, "ships_count": 0, "projects": [], "coding_time_seconds": 323, "coding_time_seconds_today": 0, "balance": "You need to have a pocket watcher badge to view this.", "badges": [], "created_at": "2025-06-16T16:52:43.065-04:00", "updated_at": "2025-07-03T19:23:48.107-04:00", "avatar": "https://avatars.slack-edge.com/2025-06-16/9071254983425_94307ec51454c450a933_original.png", "custom_css": null}, {"id": 2763, "slack_id": "U0919AXQSAK", "display_name": "Jorge Erick Garcia Moron", "bio": null, "projects_count": 0, "devlogs_count": 0, "votes_count": 0, "ships_count": 0, "projects": [], "coding_time_seconds": 2901, "coding_time_seconds_today": 0, "balance": "You need to have a pocket watcher badge to view this.", "badges": [], "created_at": "2025-06-16T16:52:45.667-04:00", "updated_at": "2025-07-03T19:23:48.381-04:00", "avatar": "https://avatars.slack-edge.com/2025-06-16/9071255029073_f3f9b6f58df2e5379459_original.png", "custom_css": null}, {"id": 2764, "slack_id": "U08SE33ESBA", "display_name": "Aryan Ashta", "bio": null, "projects_count": 1, "devlogs_count": 0, "votes_count": 0, "ships_count": 0, "projects": [{"id": 348, "title": "pleasePlan", "devlogs_count": 0, "created_at": "2025-06-16T18:44:14.088-04:00"}], "coding_time_seconds": 2847, "coding_time_seconds_today": 0, "balance": "You need to have a pocket watcher badge to view this.", "badges": [], "created_at": "2025-06-16T16:52:47.797-04:00", "updated_at": "2025-07-03T19:23:48.643-04:00", "avatar": "https://secure.gravatar.com/avatar/252bfbdc9b07a290623e36b67056be04.jpg?s=512&d=https%3A%2F%2Fa.slack-edge.com%2Fdf10d%2Fimg%2Favatars%2Fava_0022-512.png", "custom_css": null}, {"id": 2765, "slack_id": "U091R1C74SG", "display_name": "arthckr", "bio": null, "projects_count": 0, "devlogs_count": 0, "votes_count": 0, "ships_count": 0, "projects": [], "coding_time_seconds": 113744, "coding_time_seconds_today": 0, "balance": "You need to have a pocket watcher badge to view this.", "badges": [], "created_at": "2025-06-16T16:52:50.219-04:00", "updated_at": "2025-07-03T19:23:48.922-04:00", "avatar": "https://secure.gravatar.com/avatar/4240cad18b652c72c94121f7a236e59a.jpg?s=512&d=https%3A%2F%2Fa.slack-edge.com%2Fdf10d%2Fimg%2Favatars%2Fava_0008-512.png", "custom_css": null}, {"id": 2766, "slack_id": "U082RF4ULS1", "display_name": "Titanmarek", "bio": null, "projects_count": 0, "devlogs_count": 0, "votes_count": 0, "ships_count": 0, "projects": [], "coding_time_seconds": 0, "coding_time_seconds_today": 0, "balance": "You need to have a pocket watcher badge to view this.", "badges": [], "created_at": "2025-06-16T16:52:53.742-04:00", "updated_at": "2025-07-03T19:23:49.190-04:00", "avatar": "https://secure.gravatar.com/avatar/550780c9c9751fcd5dcc4819d69674c3.jpg?s=512&d=https%3A%2F%2Fa.slack-edge.com%2Fdf10d%2Fimg%2Favatars%2Fava_0021-512.png", "custom_css": null}, {"id": 2767, "slack_id": "U074C9BE604", "display_name": "Rayan ( Ryan's rare version )", "bio": null, "projects_count": 2, "devlogs_count": 7, "votes_count": 28, "ships_count": 2, "projects": [{"id": 10265, "title": "Breast Tumor predictive model with Logistic Regression", "devlogs_count": 5, "created_at": "2025-08-05T12:33:05.690-04:00"}, {"id": 10740, "title": "Practice Exercise Generator", "devlogs_count": 2, "created_at": "2025-08-10T09:26:27.874-04:00"}], "coding_time_seconds": 50124, "coding_time_seconds_today": 0, "balance": "You need to have a pocket watcher badge to view this.", "badges": [{"name": "Maiden Voyage", "text": "you shipped your first project! the journey begins...", "icon": "\ud83d\udea2"}], "created_at": "2025-06-16T16:53:06.497-04:00", "updated_at": "2025-09-10T22:52:32.576-04:00", "avatar": "https://avatars.slack-edge.com/2024-10-20/7904808841093_44f165b694da49949096_original.png", "custom_css": null}, {"id": 2768, "slack_id": "U0919AU7CBZ", "display_name": "YEKENE SOFIANE", "bio": null, "projects_count": 0, "devlogs_count": 0, "votes_count": 0, "ships_count": 0, "projects": [], "coding_time_seconds": 0, "coding_time_seconds_today": 0, "balance": "You need to have a pocket watcher badge to view this.", "badges": [], "created_at": "2025-06-16T16:53:09.988-04:00", "updated_at": "2025-07-03T19:23:49.717-04:00", "avatar": "https://avatars.slack-edge.com/2025-06-16/9051893874582_b29b2556650a1b9cd96a_original.png", "custom_css": null}, {"id": 2769, "slack_id": "U091R1NSBPW", "display_name": "elament", "bio": null, "projects_count": 1, "devlogs_count": 1, "votes_count": 0, "ships_count": 0, "projects": [{"id": 3373, "title": "Food Stamps", "devlogs_count": 1, "created_at": "2025-06-24T02:28:07.910-04:00"}], "coding_time_seconds": 17987, "coding_time_seconds_today": 0, "balance": "You need to have a pocket watcher badge to view this.", "badges": [], "created_at": "2025-06-16T16:53:32.724-04:00", "updated_at": "2025-07-03T19:23:49.986-04:00", "avatar": "https://secure.gravatar.com/avatar/07e237c432d0a26e67714bd69018d874.jpg?s=512&d=https%3A%2F%2Fa.slack-edge.com%2Fdf10d%2Fimg%2Favatars%2Fava_0006-512.png", "custom_css": null}, {"id": 2770, "slack_id": "U079JDRMBFZ", "display_name": "henry", "bio": null, "projects_count": 1, "devlogs_count": 16, "votes_count": 1, "ships_count": 0, "projects": [{"id": 10328, "title": "Vectors", "devlogs_count": 16, "created_at": "2025-08-05T23:31:46.754-04:00"}], "coding_time_seconds": 314575, "coding_time_seconds_today": 2305, "balance": "You need to have a pocket watcher badge to view this.", "badges": [], "created_at": "2025-06-16T16:53:38.777-04:00", "updated_at": "2025-08-12T22:03:23.876-04:00", "avatar": "https://avatars.slack-edge.com/2025-02-03/8389010878914_72d378a6cbb7b08f855a_original.png", "custom_css": null}, {"id": 2771, "slack_id": "U054JRXUNG0", "display_name": "crn", "bio": null, "projects_count": 1, "devlogs_count": 1, "votes_count": 0, "ships_count": 0, "projects": [{"id": 10285, "title": "ACBuy Product Finder", "devlogs_count": 1, "created_at": "2025-08-05T14:36:39.586-04:00"}], "coding_time_seconds": 210972, "coding_time_seconds_today": 0, "balance": "You need to have a pocket watcher badge to view this.", "badges": [], "created_at": "2025-06-16T16:54:29.641-04:00", "updated_at": "2025-08-15T20:10:07.989-04:00", "avatar": "https://avatars.slack-edge.com/2025-08-15/9364977464596_ab1d6fe00b7374f9f837_original.png", "custom_css": null}, {"id": 2772, "slack_id": "U08LL2B7FEG", "display_name": "Charlotte", "bio": null, "projects_count": 0, "devlogs_count": 0, "votes_count": 0, "ships_count": 0, "projects": [], "coding_time_seconds": 44732, "coding_time_seconds_today": 0, "balance": "You need to have a pocket watcher badge to view this.", "badges": [], "created_at": "2025-06-16T16:54:39.391-04:00", "updated_at": "2025-07-03T19:23:50.765-04:00", "avatar": "https://secure.gravatar.com/avatar/f2d229a3ec1f7c3bcfd6cd5b8555b473.jpg?s=512&d=https%3A%2F%2Fa.slack-edge.com%2Fdf10d%2Fimg%2Favatars%2Fava_0016-512.png", "custom_css": null}, {"id": 2773, "slack_id": "U03SP89P2F6", "display_name": "Akshat S", "bio": null, "projects_count": 0, "devlogs_count": 0, "votes_count": 0, "ships_count": 0, "projects": [], "coding_time_seconds": 188718, "coding_time_seconds_today": 0, "balance": "You need to have a pocket watcher badge to view this.", "badges": [], "created_at": "2025-06-16T16:54:47.864-04:00", "updated_at": "2025-07-03T19:23:51.022-04:00", "avatar": "https://avatars.slack-edge.com/2022-08-05/3904841632642_6a99ce5967a1c6935745_original.jpg", "custom_css": null}, {"id": 2774, "slack_id": "U0919B5CAR5", "display_name": "Patrick", "bio": null, "projects_count": 0, "devlogs_count": 0, "votes_count": 0, "ships_count": 0, "projects": [], "coding_time_seconds": 0, "coding_time_seconds_today": 0, "balance": "You need to have a pocket watcher badge to view this.", "badges": [], "created_at": "2025-06-16T16:54:49.940-04:00", "updated_at": "2025-07-03T19:23:51.283-04:00", "avatar": "https://secure.gravatar.com/avatar/102375e7f351e6b75e0499a644240989.jpg?s=512&d=https%3A%2F%2Fa.slack-edge.com%2Fdf10d%2Fimg%2Favatars%2Fava_0004-512.png", "custom_css": null}, {"id": 2775, "slack_id": "U091HNAP75Z", "display_name": "Trenton Fisher", "bio": null, "projects_count": 0, "devlogs_count": 0, "votes_count": 0, "ships_count": 0, "projects": [], "coding_time_seconds": 0, "coding_time_seconds_today": 0, "balance": "You need to have a pocket watcher badge to view this.", "badges": [], "created_at": "2025-06-16T16:54:55.552-04:00", "updated_at": "2025-07-03T19:23:51.555-04:00", "avatar": "https://secure.gravatar.com/avatar/f1a7a054934fc90ed3f666dedb009310.jpg?s=512&d=https%3A%2F%2Fa.slack-edge.com%2Fdf10d%2Fimg%2Favatars%2Fava_0020-512.png", "custom_css": null}, {"id": 2776, "slack_id": "U082W89BEG0", "display_name": "PakKid", "bio": null, "projects_count": 0, "devlogs_count": 1, "votes_count": 0, "ships_count": 0, "projects": [], "coding_time_seconds": 30081, "coding_time_seconds_today": 0, "balance": "You need to have a pocket watcher badge to view this.", "badges": [], "created_at": "2025-06-16T16:54:57.882-04:00", "updated_at": "2025-08-23T22:31:48.644-04:00", "avatar": "https://avatars.slack-edge.com/2024-11-27/8101424511025_ca2da112b9a2d4d0f0e0_original.png", "custom_css": null}, {"id": 2777, "slack_id": "U08RN7WKG0N", "display_name": "Isaac", "bio": null, "projects_count": 0, "devlogs_count": 0, "votes_count": 0, "ships_count": 0, "projects": [], "coding_time_seconds": 0, "coding_time_seconds_today": 0, "balance": "You need to have a pocket watcher badge to view this.", "badges": [], "created_at": "2025-06-16T16:55:05.387-04:00", "updated_at": "2025-08-13T13:09:56.752-04:00", "avatar": "https://secure.gravatar.com/avatar/f9ac4108741ddccb57aeebe7eb543d39.jpg?s=512&d=https%3A%2F%2Fa.slack-edge.com%2Fdf10d%2Fimg%2Favatars%2Fava_0009-512.png", "custom_css": null}, {"id": 2778, "slack_id": "U07B91HTHJR", "display_name": "Fabio", "bio": null, "projects_count": 1, "devlogs_count": 1, "votes_count": 1, "ships_count": 0, "projects": [{"id": 5745, "title": "MTG Winchester Draft Simulator", "devlogs_count": 1, "created_at": "2025-07-07T16:58:43.713-04:00"}], "coding_time_seconds": 53872, "coding_time_seconds_today": 0, "balance": "You need to have a pocket watcher badge to view this.", "badges": [], "created_at": "2025-06-16T16:55:08.401-04:00", "updated_at": "2025-07-03T19:23:52.334-04:00", "avatar": "https://secure.gravatar.com/avatar/3426b15099c4975062b17c681ffd8a0e.jpg?s=512&d=https%3A%2F%2Fa.slack-edge.com%2Fdf10d%2Fimg%2Favatars%2Fava_0006-512.png", "custom_css": null}, {"id": 2779, "slack_id": "U091NSYL77F", "display_name": "k", "bio": null, "projects_count": 0, "devlogs_count": 0, "votes_count": 0, "ships_count": 0, "projects": [], "coding_time_seconds": 0, "coding_time_seconds_today": 0, "balance": "You need to have a pocket watcher badge to view this.", "badges": [], "created_at": "2025-06-16T16:55:09.155-04:00", "updated_at": "2025-07-03T19:23:52.592-04:00", "avatar": "https://secure.gravatar.com/avatar/282a99bd03216d4e19626854ec35c4ce.jpg?s=512&d=https%3A%2F%2Fa.slack-edge.com%2Fdf10d%2Fimg%2Favatars%2Fava_0022-512.png", "custom_css": null}, {"id": 2780, "slack_id": "U09237CFVC1", "display_name": "Joshua Thomas", "bio": null, "projects_count": 0, "devlogs_count": 0, "votes_count": 0, "ships_count": 0, "projects": [], "coding_time_seconds": 0, "coding_time_seconds_today": 0, "balance": "You need to have a pocket watcher badge to view this.", "badges": [], "created_at": "2025-06-16T16:55:09.978-04:00", "updated_at": "2025-07-03T19:23:52.853-04:00", "avatar": "https://secure.gravatar.com/avatar/660af991744b618df352f85b23dba439.jpg?s=512&d=https%3A%2F%2Fa.slack-edge.com%2Fdf10d%2Fimg%2Favatars%2Fava_0003-512.png", "custom_css": null}], "pagination": {"page": 139, "pages": 1192, "count": 23828, "items": 20}}