{"users": [{"id": 2781, "slack_id": "U08AB8DUBGF", "display_name": "Atrocious", "bio": null, "projects_count": 0, "devlogs_count": 0, "votes_count": 0, "ships_count": 0, "projects": [], "coding_time_seconds": 56629, "coding_time_seconds_today": 0, "balance": "You need to have a pocket watcher badge to view this.", "badges": [], "created_at": "2025-06-16T16:55:15.898-04:00", "updated_at": "2025-08-06T22:52:21.103-04:00", "avatar": "https://avatars.slack-edge.com/2025-06-02/8991168897858_314458fc80a40908e418_original.png", "custom_css": null}, {"id": 2782, "slack_id": "U07GMSDBRGC", "display_name": "sarah landtable", "bio": null, "projects_count": 1, "devlogs_count": 1, "votes_count": 0, "ships_count": 0, "projects": [{"id": 5212, "title": "idv", "devlogs_count": 1, "created_at": "2025-07-03T19:30:44.990-04:00"}], "coding_time_seconds": 80903, "coding_time_seconds_today": 0, "balance": "You need to have a pocket watcher badge to view this.", "badges": [], "created_at": "2025-06-16T16:55:29.045-04:00", "updated_at": "2025-07-05T20:03:28.241-04:00", "avatar": "https://avatars.slack-edge.com/2025-07-06/9166260422353_a27673eeb4d10c7f018a_original.jpg", "custom_css": null}, {"id": 2783, "slack_id": "U091R1UTR1S", "display_name": "snoper dz", "bio": null, "projects_count": 0, "devlogs_count": 0, "votes_count": 0, "ships_count": 0, "projects": [], "coding_time_seconds": 0, "coding_time_seconds_today": 0, "balance": "You need to have a pocket watcher badge to view this.", "badges": [], "created_at": "2025-06-16T16:55:34.314-04:00", "updated_at": "2025-07-03T19:23:53.658-04:00", "avatar": "https://secure.gravatar.com/avatar/17d3956159625856f691c2a87e5cdc96.jpg?s=512&d=https%3A%2F%2Fa.slack-edge.com%2Fdf10d%2Fimg%2Favatars%2Fava_0004-512.png", "custom_css": null}, {"id": 2784, "slack_id": "U07BU8HHTF0", "display_name": "Marvin T", "bio": null, "projects_count": 0, "devlogs_count": 0, "votes_count": 0, "ships_count": 0, "projects": [], "coding_time_seconds": 0, "coding_time_seconds_today": 0, "balance": "You need to have a pocket watcher badge to view this.", "badges": [], "created_at": "2025-06-16T16:55:36.636-04:00", "updated_at": "2025-07-03T19:23:53.918-04:00", "avatar": "https://avatars.slack-edge.com/2025-06-17/9055543956838_db72ab16b543667f1dec_original.png", "custom_css": null}, {"id": 2785, "slack_id": "U0919BHMDBR", "display_name": "furky", "bio": null, "projects_count": 1, "devlogs_count": 0, "votes_count": 0, "ships_count": 0, "projects": [{"id": 290, "title": "Ai-Driven Cyber Attack Simulation and Response Tool", "devlogs_count": 0, "created_at": "2025-06-16T17:12:51.807-04:00"}], "coding_time_seconds": 140822, "coding_time_seconds_today": 0, "balance": "You need to have a pocket watcher badge to view this.", "badges": [], "created_at": "2025-06-16T16:55:41.248-04:00", "updated_at": "2025-07-03T19:23:54.176-04:00", "avatar": "https://secure.gravatar.com/avatar/ecd86e64325a46098ac562658aa29943.jpg?s=512&d=https%3A%2F%2Fa.slack-edge.com%2Fdf10d%2Fimg%2Favatars%2Fava_0019-512.png", "custom_css": null}, {"id": 2786, "slack_id": "U077824TJD8", "display_name": "aryanzafer", "bio": null, "projects_count": 2, "devlogs_count": 2, "votes_count": 1, "ships_count": 0, "projects": [{"id": 10527, "title": "Flock", "devlogs_count": 2, "created_at": "2025-08-07T20:17:20.585-04:00"}, {"id": 3503, "title": "Disk", "devlogs_count": 0, "created_at": "2025-06-24T13:29:56.757-04:00"}], "coding_time_seconds": 247383, "coding_time_seconds_today": 0, "balance": "You need to have a pocket watcher badge to view this.", "badges": [], "created_at": "2025-06-16T16:56:12.504-04:00", "updated_at": "2025-08-07T20:15:55.242-04:00", "avatar": "https://secure.gravatar.com/avatar/ccff750cca43cab96e79b91b5b52f557.jpg?s=512&d=https%3A%2F%2Fa.slack-edge.com%2Fdf10d%2Fimg%2Favatars%2Fava_0009-512.png", "custom_css": null}, {"id": 2787, "slack_id": "U08R4KDL6UF", "display_name": "Raygen Rupe", "bio": null, "projects_count": 2, "devlogs_count": 2, "votes_count": 2, "ships_count": 0, "projects": [{"id": 3008, "title": "Bagel22 - A cheap and tiny keyboard", "devlogs_count": 0, "created_at": "2025-06-22T18:13:22.997-04:00"}, {"id": 4153, "title": "Dual Rail Pancakeron", "devlogs_count": 2, "created_at": "2025-06-27T22:51:53.380-04:00"}], "coding_time_seconds": 456030, "coding_time_seconds_today": 0, "balance": "You need to have a pocket watcher badge to view this.", "badges": [], "created_at": "2025-06-16T16:56:15.226-04:00", "updated_at": "2025-09-19T12:55:07.966-04:00", "avatar": "https://avatars.slack-edge.com/2025-08-12/9348641668516_f8e389068f155da02c3f_original.png", "custom_css": null}, {"id": 2788, "slack_id": "U09237F27C1", "display_name": "Rahman", "bio": null, "projects_count": 0, "devlogs_count": 0, "votes_count": 0, "ships_count": 0, "projects": [], "coding_time_seconds": 88, "coding_time_seconds_today": 0, "balance": "You need to have a pocket watcher badge to view this.", "badges": [], "created_at": "2025-06-16T16:56:28.755-04:00", "updated_at": "2025-07-03T19:23:55.015-04:00", "avatar": "https://secure.gravatar.com/avatar/aface7da2f3f17ceeba8d5ebe5e8cd0e.jpg?s=512&d=https%3A%2F%2Fa.slack-edge.com%2Fdf10d%2Fimg%2Favatars%2Fava_0025-512.png", "custom_css": null}, {"id": 2789, "slack_id": "U091HS769PY", "display_name": "Caleb", "bio": null, "projects_count": 0, "devlogs_count": 0, "votes_count": 0, "ships_count": 0, "projects": [], "coding_time_seconds": 0, "coding_time_seconds_today": 0, "balance": "You need to have a pocket watcher badge to view this.", "badges": [], "created_at": "2025-06-16T16:56:33.310-04:00", "updated_at": "2025-07-03T19:23:55.285-04:00", "avatar": "https://secure.gravatar.com/avatar/d903641feb38f94a9c302e777c432001.jpg?s=512&d=https%3A%2F%2Fa.slack-edge.com%2Fdf10d%2Fimg%2Favatars%2Fava_0001-512.png", "custom_css": null}, {"id": 2790, "slack_id": "U0919BL4JS3", "display_name": "Chinmay Tiwari", "bio": null, "projects_count": 1, "devlogs_count": 4, "votes_count": 0, "ships_count": 0, "projects": [{"id": 319, "title": "Nexus", "devlogs_count": 4, "created_at": "2025-06-16T17:58:16.378-04:00"}], "coding_time_seconds": 32263, "coding_time_seconds_today": 0, "balance": "You need to have a pocket watcher badge to view this.", "badges": [], "created_at": "2025-06-16T16:56:34.498-04:00", "updated_at": "2025-07-03T19:23:55.548-04:00", "avatar": "https://avatars.slack-edge.com/2025-06-16/9043405476391_80c2aff52ae4765d8bfa_original.jpg", "custom_css": null}, {"id": 2791, "slack_id": "U0825MB0G9H", "display_name": "DynamicWhiteHat", "bio": null, "projects_count": 2, "devlogs_count": 2, "votes_count": 3, "ships_count": 0, "projects": [{"id": 13621, "title": "FRC Java Docs", "devlogs_count": 1, "created_at": "2025-09-21T08:39:28.239-04:00"}, {"id": 10178, "title": "Astro V2", "devlogs_count": 1, "created_at": "2025-08-04T16:59:38.830-04:00"}], "coding_time_seconds": 68931, "coding_time_seconds_today": 0, "balance": "You need to have a pocket watcher badge to view this.", "badges": [], "created_at": "2025-06-16T16:56:39.875-04:00", "updated_at": "2025-07-03T19:23:55.811-04:00", "avatar": "https://avatars.slack-edge.com/2025-03-04/8550992417330_8cf59e51589375e49ae8_original.jpg", "custom_css": null}, {"id": 2792, "slack_id": "U08SS3M7DA7", "display_name": "Mikuel", "bio": "Currently developing RUNTIME: a complete reimagining of what a programming language could and should be. https://github.com/Mikuel210/RUNTIME", "projects_count": 4, "devlogs_count": 11, "votes_count": 20, "ships_count": 2, "projects": [{"id": 7353, "title": "Sandbox of Making", "devlogs_count": 1, "created_at": "2025-07-21T07:48:12.844-04:00"}, {"id": 8577, "title": "RUNTIME: A language with no rules, no types, just vibes", "devlogs_count": 7, "created_at": "2025-07-28T09:21:15.125-04:00"}, {"id": 9511, "title": "Agar I/O", "devlogs_count": 2, "created_at": "2025-08-01T14:13:09.420-04:00"}, {"id": 13105, "title": "RUNTIME 2: A language with no rules, no types, just vibes", "devlogs_count": 1, "created_at": "2025-09-08T16:34:18.843-04:00"}], "coding_time_seconds": 976707, "coding_time_seconds_today": 0, "balance": "You need to have a pocket watcher badge to view this.", "badges": [{"name": "Maiden Voyage", "text": "you shipped your first project! the journey begins...", "icon": "\ud83d\udea2"}], "created_at": "2025-06-16T16:56:47.854-04:00", "updated_at": "2025-09-10T22:52:33.393-04:00", "avatar": "https://avatars.slack-edge.com/2025-06-03/8979233564855_70b7af5c5757785f5041_original.png", "custom_css": null}, {"id": 2793, "slack_id": "U09237LSWD7", "display_name": "junaid9248", "bio": null, "projects_count": 1, "devlogs_count": 0, "votes_count": 0, "ships_count": 0, "projects": [{"id": 6152, "title": "CISA vulnrichment CI/CD pipeline", "devlogs_count": 0, "created_at": "2025-07-11T00:35:09.751-04:00"}], "coding_time_seconds": 119271, "coding_time_seconds_today": 0, "balance": "You need to have a pocket watcher badge to view this.", "badges": [], "created_at": "2025-06-16T16:57:03.235-04:00", "updated_at": "2025-07-11T00:29:03.739-04:00", "avatar": "https://secure.gravatar.com/avatar/c35fa77795eff7e9e7a8da5719cf94f8.jpg?s=512&d=https%3A%2F%2Fa.slack-edge.com%2Fdf10d%2Fimg%2Favatars%2Fava_0013-512.png", "custom_css": null}, {"id": 2794, "slack_id": "U07UGN8HCN9", "display_name": "Zayn", "bio": null, "projects_count": 5, "devlogs_count": 59, "votes_count": 23, "ships_count": 2, "projects": [{"id": 1475, "title": "Portfolio Website", "devlogs_count": 5, "created_at": "2025-06-18T15:56:28.642-04:00"}, {"id": 4831, "title": "Chat Journal", "devlogs_count": 1, "created_at": "2025-07-01T18:44:57.047-04:00"}, {"id": 5219, "title": "File Manager", "devlogs_count": 25, "created_at": "2025-07-03T21:03:34.260-04:00"}, {"id": 5022, "title": "Secure Photos", "devlogs_count": 2, "created_at": "2025-07-02T18:46:23.010-04:00"}, {"id": 3770, "title": "MajorMatch", "devlogs_count": 26, "created_at": "2025-06-25T16:54:00.299-04:00"}], "coding_time_seconds": 350130, "coding_time_seconds_today": 0, "balance": "You need to have a pocket watcher badge to view this.", "badges": [{"name": "Maiden Voyage", "text": "you shipped your first project! the journey begins...", "icon": "\ud83d\udea2"}], "created_at": "2025-06-16T16:57:11.116-04:00", "updated_at": "2025-09-10T22:52:33.447-04:00", "avatar": "https://avatars.slack-edge.com/2024-11-02/7975332864260_e9b3d320c473e70e4b69_original.png", "custom_css": null}, {"id": 2795, "slack_id": "U07H0E962KH", "display_name": "MohammedMMc", "bio": null, "projects_count": 1, "devlogs_count": 0, "votes_count": 0, "ships_count": 0, "projects": [{"id": 4380, "title": "My Portfolio (moma.dev)", "devlogs_count": 0, "created_at": "2025-06-29T12:39:36.665-04:00"}], "coding_time_seconds": 164141, "coding_time_seconds_today": 843, "balance": "You need to have a pocket watcher badge to view this.", "badges": [], "created_at": "2025-06-16T16:57:14.502-04:00", "updated_at": "2025-08-20T04:53:54.768-04:00", "avatar": "https://avatars.slack-edge.com/2024-08-18/7593035381970_d9566c321d9192847a06_original.png", "custom_css": null}, {"id": 2796, "slack_id": "U08734ZKDSA", "display_name": "christian Games", "bio": null, "projects_count": 3, "devlogs_count": 42, "votes_count": 20, "ships_count": 1, "projects": [{"id": 5577, "title": "The NameLess Hero - A Platform game :)", "devlogs_count": 21, "created_at": "2025-07-06T10:27:01.976-04:00"}, {"id": 12395, "title": "Space Information", "devlogs_count": 5, "created_at": "2025-08-26T19:22:40.204-04:00"}, {"id": 813, "title": "Anime Quiz ", "devlogs_count": 16, "created_at": "2025-06-17T08:50:15.528-04:00"}], "coding_time_seconds": 616720, "coding_time_seconds_today": 0, "balance": "You need to have a pocket watcher badge to view this.", "badges": [{"name": "Maiden Voyage", "text": "you shipped your first project! the journey begins...", "icon": "\ud83d\udea2"}], "created_at": "2025-06-16T16:57:17.280-04:00", "updated_at": "2025-09-10T22:52:33.502-04:00", "avatar": "https://avatars.slack-edge.com/2025-01-04/8247703583587_259e6a4c5f8b365a54d0_original.png", "custom_css": null}, {"id": 2797, "slack_id": "U091HNKV919", "display_name": "Octa", "bio": null, "projects_count": 0, "devlogs_count": 0, "votes_count": 0, "ships_count": 0, "projects": [], "coding_time_seconds": 0, "coding_time_seconds_today": 0, "balance": "You need to have a pocket watcher badge to view this.", "badges": [], "created_at": "2025-06-16T16:57:18.511-04:00", "updated_at": "2025-07-03T19:23:57.322-04:00", "avatar": "https://secure.gravatar.com/avatar/0ba92584128555ab824a1d77d93321cc.jpg?s=512&d=https%3A%2F%2Fa.slack-edge.com%2Fdf10d%2Fimg%2Favatars%2Fava_0012-512.png", "custom_css": null}, {"id": 2798, "slack_id": "U0794RQS38T", "display_name": "George Vazakas", "bio": "", "projects_count": 5, "devlogs_count": 21, "votes_count": 80, "ships_count": 4, "projects": [{"id": 2550, "title": "Quote Site", "devlogs_count": 2, "created_at": "2025-06-21T09:46:52.224-04:00"}, {"id": 4893, "title": "HexaBit", "devlogs_count": 4, "created_at": "2025-07-02T04:04:10.978-04:00"}, {"id": 12782, "title": "Coding Poll", "devlogs_count": 3, "created_at": "2025-09-02T11:30:02.461-04:00"}, {"id": 12885, "title": "Game-site", "devlogs_count": 1, "created_at": "2025-09-04T12:06:45.659-04:00"}, {"id": 7260, "title": "Games on MY Programming Language (Quanta)", "devlogs_count": 11, "created_at": "2025-07-20T12:48:49.186-04:00"}], "coding_time_seconds": 87853, "coding_time_seconds_today": 0, "balance": "You need to have a pocket watcher badge to view this.", "badges": [{"name": "Maiden Voyage", "text": "you shipped your first project! the journey begins...", "icon": "\ud83d\udea2"}], "created_at": "2025-06-16T16:57:57.993-04:00", "updated_at": "2025-09-10T22:52:33.571-04:00", "avatar": "https://avatars.slack-edge.com/2025-06-19/9067153371587_61ffad00fdde290a0c6c_original.jpg", "custom_css": null}, {"id": 2799, "slack_id": "U0806QAPT3L", "display_name": "Nicholas", "bio": null, "projects_count": 1, "devlogs_count": 3, "votes_count": 20, "ships_count": 1, "projects": [{"id": 9931, "title": "Drone Part Picker", "devlogs_count": 3, "created_at": "2025-08-03T01:25:07.208-04:00"}], "coding_time_seconds": 217378, "coding_time_seconds_today": 0, "balance": "You need to have a pocket watcher badge to view this.", "badges": [{"name": "Maiden Voyage", "text": "you shipped your first project! the journey begins...", "icon": "\ud83d\udea2"}], "created_at": "2025-06-16T16:58:09.627-04:00", "updated_at": "2025-09-17T17:51:54.363-04:00", "avatar": "https://avatars.slack-edge.com/2025-04-13/8744170775493_6e9dd33ee59f2f18e5a5_original.webp", "custom_css": null}, {"id": 2800, "slack_id": "U081DK1FJHH", "display_name": "Meowkewok", "bio": null, "projects_count": 0, "devlogs_count": 0, "votes_count": 0, "ships_count": 0, "projects": [], "coding_time_seconds": 0, "coding_time_seconds_today": 0, "balance": "You need to have a pocket watcher badge to view this.", "badges": [], "created_at": "2025-06-16T16:58:18.756-04:00", "updated_at": "2025-07-03T19:23:57.998-04:00", "avatar": "https://avatars.slack-edge.com/2025-04-02/8717497084992_7b03ec83df1e76f0ba17_original.png", "custom_css": null}], "pagination": {"page": 140, "pages": 1192, "count": 23828, "items": 20}}