{"users": [{"id": 2801, "slack_id": "U07F85K1G1Y", "display_name": "Snipeur060", "bio": null, "projects_count": 0, "devlogs_count": 0, "votes_count": 0, "ships_count": 0, "projects": [], "coding_time_seconds": 0, "coding_time_seconds_today": 0, "balance": "You need to have a pocket watcher badge to view this.", "badges": [], "created_at": "2025-06-16T16:58:23.008-04:00", "updated_at": "2025-07-20T08:21:22.239-04:00", "avatar": "https://secure.gravatar.com/avatar/6abe2cb1e0f228021ea9c9fec9fe4cf8.jpg?s=512&d=https%3A%2F%2Fa.slack-edge.com%2Fdf10d%2Fimg%2Favatars%2Fava_0008-512.png", "custom_css": null}, {"id": 2802, "slack_id": "U091R29PC2G", "display_name": "Tirth Joshi", "bio": null, "projects_count": 0, "devlogs_count": 0, "votes_count": 0, "ships_count": 0, "projects": [], "coding_time_seconds": 103056, "coding_time_seconds_today": 0, "balance": "You need to have a pocket watcher badge to view this.", "badges": [], "created_at": "2025-06-16T16:58:29.732-04:00", "updated_at": "2025-07-03T19:23:58.551-04:00", "avatar": "https://secure.gravatar.com/avatar/05555e32778adcb6b7f485d099288cc3.jpg?s=512&d=https%3A%2F%2Fa.slack-edge.com%2Fdf10d%2Fimg%2Favatars%2Fava_0014-512.png", "custom_css": null}, {"id": 2803, "slack_id": "U078A7LAR3Q", "display_name": "Warmpigman", "bio": null, "projects_count": 0, "devlogs_count": 0, "votes_count": 0, "ships_count": 0, "projects": [], "coding_time_seconds": 33957, "coding_time_seconds_today": 0, "balance": "You need to have a pocket watcher badge to view this.", "badges": [], "created_at": "2025-06-16T16:58:32.216-04:00", "updated_at": "2025-07-03T19:23:58.815-04:00", "avatar": "https://secure.gravatar.com/avatar/6732949a9bb22eb26c80ec9a99ca1519.jpg?s=512&d=https%3A%2F%2Fa.slack-edge.com%2Fdf10d%2Fimg%2Favatars%2Fava_0005-512.png", "custom_css": null}, {"id": 2804, "slack_id": "U091HSCKCES", "display_name": "Qasim", "bio": null, "projects_count": 0, "devlogs_count": 0, "votes_count": 0, "ships_count": 0, "projects": [], "coding_time_seconds": 32003, "coding_time_seconds_today": 0, "balance": "You need to have a pocket watcher badge to view this.", "badges": [], "created_at": "2025-06-16T16:58:34.286-04:00", "updated_at": "2025-07-03T19:23:59.078-04:00", "avatar": "https://avatars.slack-edge.com/2025-06-17/9071398885953_849bc0e20851cd69445e_original.jpg", "custom_css": null}, {"id": 2805, "slack_id": "U078J6R0VCN", "display_name": "Pikacnu", "bio": "A Web developer I think?\r\nFinding next cool project to make", "projects_count": 9, "devlogs_count": 83, "votes_count": 151, "ships_count": 7, "projects": [{"id": 8294, "title": "Message Combine and sender", "devlogs_count": 5, "created_at": "2025-07-26T03:08:29.359-04:00"}, {"id": 12226, "title": "Mplace", "devlogs_count": 21, "created_at": "2025-08-24T14:24:16.701-04:00"}, {"id": 13345, "title": "Minecraft-Color-Picker", "devlogs_count": 6, "created_at": "2025-09-14T10:41:24.547-04:00"}, {"id": 9604, "title": "Mahjong", "devlogs_count": 13, "created_at": "2025-08-01T20:54:24.717-04:00"}, {"id": 1583, "title": "Cardlisher - A english flashcard app", "devlogs_count": 8, "created_at": "2025-06-18T19:53:12.803-04:00"}, {"id": 8987, "title": "Taiwan Typhoon Day Off status Display", "devlogs_count": 3, "created_at": "2025-07-30T05:05:48.026-04:00"}, {"id": 10614, "title": "Would You Rather", "devlogs_count": 9, "created_at": "2025-08-09T00:15:24.329-04:00"}, {"id": 2894, "title": "Ranked UTA", "devlogs_count": 15, "created_at": "2025-06-22T11:34:33.430-04:00"}, {"id": 11602, "title": "Bahamut Embed Bot", "devlogs_count": 2, "created_at": "2025-08-17T13:20:10.371-04:00"}], "coding_time_seconds": 935403, "coding_time_seconds_today": 1856, "balance": "You need to have a pocket watcher badge to view this.", "badges": [{"name": "Maiden Voyage", "text": "you shipped your first project! the journey begins...", "icon": "\ud83d\udea2"}, {"name": "Ballot Stuffer", "text": "vote 100 times.", "icon": "https://summer.hackclub.com/assets/i_voted-bf851b48.png"}, {"name": "No Fun", "text": "opt-out added for the whimsy-impaired", "icon": "\ud83d\udeab"}], "created_at": "2025-06-16T16:58:37.870-04:00", "updated_at": "2025-09-10T22:52:33.773-04:00", "avatar": "https://secure.gravatar.com/avatar/53371cfe43d5487613690739319e0ecb.jpg?s=512&d=https%3A%2F%2Fa.slack-edge.com%2Fdf10d%2Fimg%2Favatars%2Fava_0000-512.png", "custom_css": null}, {"id": 2806, "slack_id": "U091NT6NPTP", "display_name": "elliot", "bio": null, "projects_count": 0, "devlogs_count": 0, "votes_count": 0, "ships_count": 0, "projects": [], "coding_time_seconds": 166314, "coding_time_seconds_today": 0, "balance": "You need to have a pocket watcher badge to view this.", "badges": [], "created_at": "2025-06-16T16:58:44.371-04:00", "updated_at": "2025-07-03T19:23:59.599-04:00", "avatar": "https://secure.gravatar.com/avatar/c8b15d7b6102be419c3115efd37c7e5e.jpg?s=512&d=https%3A%2F%2Fa.slack-edge.com%2Fdf10d%2Fimg%2Favatars%2Fava_0011-512.png", "custom_css": null}, {"id": 2807, "slack_id": "U091HSJMQTG", "display_name": "Aaron", "bio": null, "projects_count": 0, "devlogs_count": 0, "votes_count": 0, "ships_count": 0, "projects": [], "coding_time_seconds": 4235, "coding_time_seconds_today": 0, "balance": "You need to have a pocket watcher badge to view this.", "badges": [], "created_at": "2025-06-16T16:58:45.063-04:00", "updated_at": "2025-07-03T19:23:59.861-04:00", "avatar": "https://avatars.slack-edge.com/2025-06-16/9043415129991_438919c92d116be5241d_original.png", "custom_css": null}, {"id": 2808, "slack_id": "U07FJB391R7", "display_name": "Amino", "bio": null, "projects_count": 1, "devlogs_count": 3, "votes_count": 19, "ships_count": 1, "projects": [{"id": 11166, "title": "ashellm.net", "devlogs_count": 3, "created_at": "2025-08-13T17:12:06.979-04:00"}], "coding_time_seconds": 12271, "coding_time_seconds_today": 0, "balance": "You need to have a pocket watcher badge to view this.", "badges": [{"name": "Maiden Voyage", "text": "you shipped your first project! the journey begins...", "icon": "\ud83d\udea2"}], "created_at": "2025-06-16T16:59:24.943-04:00", "updated_at": "2025-09-10T22:52:33.844-04:00", "avatar": "https://avatars.slack-edge.com/2025-05-18/8901797849879_8239d11c9abcf9446ff1_original.png", "custom_css": null}, {"id": 2809, "slack_id": "U091QM5HBBL", "display_name": "Amazoona", "bio": null, "projects_count": 0, "devlogs_count": 0, "votes_count": 0, "ships_count": 0, "projects": [], "coding_time_seconds": 0, "coding_time_seconds_today": 0, "balance": "You need to have a pocket watcher badge to view this.", "badges": [], "created_at": "2025-06-16T16:59:26.508-04:00", "updated_at": "2025-07-03T19:24:00.398-04:00", "avatar": "https://secure.gravatar.com/avatar/fc3fd525fdd554d1804ab514779774b4.jpg?s=512&d=https%3A%2F%2Fa.slack-edge.com%2Fdf10d%2Fimg%2Favatars%2Fava_0011-512.png", "custom_css": null}, {"id": 2810, "slack_id": "U092D4V1RTJ", "display_name": "Daniela", "bio": null, "projects_count": 0, "devlogs_count": 0, "votes_count": 0, "ships_count": 0, "projects": [], "coding_time_seconds": 0, "coding_time_seconds_today": 0, "balance": "You need to have a pocket watcher badge to view this.", "badges": [], "created_at": "2025-06-16T16:59:31.152-04:00", "updated_at": "2025-07-03T19:24:00.660-04:00", "avatar": "https://secure.gravatar.com/avatar/46888c3092898a57a4a09f89779e1f98.jpg?s=512&d=https%3A%2F%2Fa.slack-edge.com%2Fdf10d%2Fimg%2Favatars%2Fava_0023-512.png", "custom_css": null}, {"id": 2811, "slack_id": "U091HSL72BY", "display_name": "Timothy Pearman", "bio": null, "projects_count": 0, "devlogs_count": 0, "votes_count": 0, "ships_count": 0, "projects": [], "coding_time_seconds": 0, "coding_time_seconds_today": 0, "balance": "You need to have a pocket watcher badge to view this.", "badges": [], "created_at": "2025-06-16T16:59:50.600-04:00", "updated_at": "2025-07-03T19:24:00.919-04:00", "avatar": "https://avatars.slack-edge.com/2025-06-16/9051803813971_7ce698af0a63757f5277_original.gif", "custom_css": null}, {"id": 2812, "slack_id": "U0919BRSF63", "display_name": "Ryan Le Bras", "bio": null, "projects_count": 0, "devlogs_count": 0, "votes_count": 0, "ships_count": 0, "projects": [], "coding_time_seconds": 0, "coding_time_seconds_today": 0, "balance": "You need to have a pocket watcher badge to view this.", "badges": [], "created_at": "2025-06-16T16:59:56.657-04:00", "updated_at": "2025-07-03T19:24:01.186-04:00", "avatar": "https://secure.gravatar.com/avatar/abbc0ae41a2892fd745d4e1c2429c894.jpg?s=512&d=https%3A%2F%2Fa.slack-edge.com%2Fdf10d%2Fimg%2Favatars%2Fava_0026-512.png", "custom_css": null}, {"id": 2813, "slack_id": "U091HSE09B8", "display_name": "Anjula Meegalla", "bio": null, "projects_count": 0, "devlogs_count": 0, "votes_count": 0, "ships_count": 0, "projects": [], "coding_time_seconds": 0, "coding_time_seconds_today": 0, "balance": "You need to have a pocket watcher badge to view this.", "badges": [], "created_at": "2025-06-16T17:00:07.441-04:00", "updated_at": "2025-07-03T19:24:01.457-04:00", "avatar": "https://avatars.slack-edge.com/2025-06-16/9059098980020_0bd72bd781ceed151a39_original.png", "custom_css": null}, {"id": 2814, "slack_id": "U09237U0ND7", "display_name": "Ahmed Nasser Desouky", "bio": null, "projects_count": 0, "devlogs_count": 0, "votes_count": 0, "ships_count": 0, "projects": [], "coding_time_seconds": 0, "coding_time_seconds_today": 0, "balance": "You need to have a pocket watcher badge to view this.", "badges": [], "created_at": "2025-06-16T17:00:33.707-04:00", "updated_at": "2025-07-03T19:24:01.723-04:00", "avatar": "https://secure.gravatar.com/avatar/f7ff1745bce25632bbdafcbdf0cd10f3.jpg?s=512&d=https%3A%2F%2Fa.slack-edge.com%2Fdf10d%2Fimg%2Favatars%2Fava_0012-512.png", "custom_css": null}, {"id": 2815, "slack_id": "U091QM50SKU", "display_name": "Patrick Zieli\u0144ski", "bio": null, "projects_count": 0, "devlogs_count": 0, "votes_count": 0, "ships_count": 0, "projects": [], "coding_time_seconds": 0, "coding_time_seconds_today": 0, "balance": "You need to have a pocket watcher badge to view this.", "badges": [], "created_at": "2025-06-16T17:00:56.615-04:00", "updated_at": "2025-07-03T19:24:01.986-04:00", "avatar": "https://avatars.slack-edge.com/2025-06-16/9081189779680_7dbd6358da6ddbd957d3_original.png", "custom_css": null}, {"id": 2816, "slack_id": "U079RRXRMPF", "display_name": "Nedimark", "bio": "", "projects_count": 3, "devlogs_count": 24, "votes_count": 65, "ships_count": 3, "projects": [{"id": 13128, "title": "Survey Island", "devlogs_count": 1, "created_at": "2025-09-09T07:43:51.436-04:00"}, {"id": 1700, "title": "Canis.lab", "devlogs_count": 19, "created_at": "2025-06-19T03:31:26.569-04:00"}, {"id": 10400, "title": "POP-ASCII", "devlogs_count": 2, "created_at": "2025-08-06T15:53:36.414-04:00"}], "coding_time_seconds": 382896, "coding_time_seconds_today": 0, "balance": "You need to have a pocket watcher badge to view this.", "badges": [{"name": "Maiden Voyage", "text": "you shipped your first project! the journey begins...", "icon": "\ud83d\udea2"}], "created_at": "2025-06-16T17:01:02.878-04:00", "updated_at": "2025-09-10T22:52:34.058-04:00", "avatar": "https://avatars.slack-edge.com/2025-08-10/9325793090675_38db4f196e8731e2e9da_original.png", "custom_css": null}, {"id": 2817, "slack_id": "U091R2SPUDS", "display_name": "Quentin DUVAL", "bio": null, "projects_count": 0, "devlogs_count": 0, "votes_count": 0, "ships_count": 0, "projects": [], "coding_time_seconds": 0, "coding_time_seconds_today": 0, "balance": "You need to have a pocket watcher badge to view this.", "badges": [], "created_at": "2025-06-16T17:01:49.630-04:00", "updated_at": "2025-07-03T19:24:02.522-04:00", "avatar": "https://secure.gravatar.com/avatar/3189cd4adcdb6182a55e3cda832034dd.jpg?s=512&d=https%3A%2F%2Fa.slack-edge.com%2Fdf10d%2Fimg%2Favatars%2Fava_0009-512.png", "custom_css": null}, {"id": 2818, "slack_id": "U08QQRWJM24", "display_name": "Zia", "bio": null, "projects_count": 0, "devlogs_count": 0, "votes_count": 0, "ships_count": 0, "projects": [], "coding_time_seconds": 0, "coding_time_seconds_today": 0, "balance": "You need to have a pocket watcher badge to view this.", "badges": [], "created_at": "2025-06-16T17:02:21.623-04:00", "updated_at": "2025-07-03T19:24:02.795-04:00", "avatar": "https://avatars.slack-edge.com/2025-06-25/9105553371172_167b2db9150debf6195e_original.png", "custom_css": null}, {"id": 2819, "slack_id": "U0919BZEU5V", "display_name": "Julian Wanjiru", "bio": null, "projects_count": 0, "devlogs_count": 0, "votes_count": 0, "ships_count": 0, "projects": [], "coding_time_seconds": 0, "coding_time_seconds_today": 0, "balance": "You need to have a pocket watcher badge to view this.", "badges": [], "created_at": "2025-06-16T17:02:24.725-04:00", "updated_at": "2025-07-03T19:24:03.058-04:00", "avatar": "https://avatars.slack-edge.com/2025-06-16/9043435638375_55d1996fb4724b2e26de_original.png", "custom_css": null}, {"id": 2820, "slack_id": "U091NTQ311T", "display_name": "CZsolt", "bio": null, "projects_count": 1, "devlogs_count": 0, "votes_count": 0, "ships_count": 0, "projects": [{"id": 1746, "title": "ShaRecipe", "devlogs_count": 0, "created_at": "2025-06-19T06:42:58.866-04:00"}], "coding_time_seconds": 27076, "coding_time_seconds_today": 0, "balance": "You need to have a pocket watcher badge to view this.", "badges": [], "created_at": "2025-06-16T17:02:41.880-04:00", "updated_at": "2025-07-03T19:24:03.331-04:00", "avatar": "https://secure.gravatar.com/avatar/e48da1e414f785af84837b9a397c26a0.jpg?s=512&d=https%3A%2F%2Fa.slack-edge.com%2Fdf10d%2Fimg%2Favatars%2Fava_0002-512.png", "custom_css": null}], "pagination": {"page": 141, "pages": 1192, "count": 23828, "items": 20}}