{"users": [{"id": 2821, "slack_id": "U0813Q61KFF", "display_name": "Tishya", "bio": null, "projects_count": 1, "devlogs_count": 1, "votes_count": 20, "ships_count": 1, "projects": [{"id": 6335, "title": "Meme to Dream", "devlogs_count": 1, "created_at": "2025-07-12T13:09:04.872-04:00"}], "coding_time_seconds": 31615, "coding_time_seconds_today": 0, "balance": "You need to have a pocket watcher badge to view this.", "badges": [{"name": "Maiden Voyage", "text": "you shipped your first project! the journey begins...", "icon": "\ud83d\udea2"}], "created_at": "2025-06-16T17:02:57.721-04:00", "updated_at": "2025-09-10T22:52:34.175-04:00", "avatar": "https://secure.gravatar.com/avatar/fdac42fc8065c5c08357b40d5d10b574.jpg?s=512&d=https%3A%2F%2Fa.slack-edge.com%2Fdf10d%2Fimg%2Favatars%2Fava_0011-512.png", "custom_css": null}, {"id": 2822, "slack_id": "U091QM0KTEE", "display_name": "YM", "bio": null, "projects_count": 1, "devlogs_count": 9, "votes_count": 4, "ships_count": 1, "projects": [{"id": 3256, "title": "3D Game From Scratch", "devlogs_count": 9, "created_at": "2025-06-23T15:45:21.286-04:00"}], "coding_time_seconds": 101511, "coding_time_seconds_today": 0, "balance": "You need to have a pocket watcher badge to view this.", "badges": [{"name": "Maiden Voyage", "text": "you shipped your first project! the journey begins...", "icon": "\ud83d\udea2"}], "created_at": "2025-06-16T17:03:40.797-04:00", "updated_at": "2025-09-10T22:52:34.204-04:00", "avatar": "https://secure.gravatar.com/avatar/e4810db96e8e8b9f285b55ba0c9b9ef1.jpg?s=512&d=https%3A%2F%2Fa.slack-edge.com%2Fdf10d%2Fimg%2Favatars%2Fava_0002-512.png", "custom_css": null}, {"id": 2823, "slack_id": "U091HNXHPR9", "display_name": "Luis Carlos", "bio": null, "projects_count": 0, "devlogs_count": 0, "votes_count": 0, "ships_count": 0, "projects": [], "coding_time_seconds": 0, "coding_time_seconds_today": 0, "balance": "You need to have a pocket watcher badge to view this.", "badges": [], "created_at": "2025-06-16T17:04:00.984-04:00", "updated_at": "2025-07-03T19:24:04.129-04:00", "avatar": "https://secure.gravatar.com/avatar/a680b59bb95c6ff13de96ad9bc506daf.jpg?s=512&d=https%3A%2F%2Fa.slack-edge.com%2Fdf10d%2Fimg%2Favatars%2Fava_0002-512.png", "custom_css": null}, {"id": 2824, "slack_id": "U092D52HGBA", "display_name": "Nat\u00e1lia Ara\u00fajo", "bio": null, "projects_count": 2, "devlogs_count": 0, "votes_count": 0, "ships_count": 0, "projects": [{"id": 320, "title": "Poe na Conta", "devlogs_count": 0, "created_at": "2025-06-16T17:58:16.428-04:00"}, {"id": 351, "title": "API Gerenciamento de Salas", "devlogs_count": 0, "created_at": "2025-06-16T18:54:48.310-04:00"}], "coding_time_seconds": 4353, "coding_time_seconds_today": 0, "balance": "You need to have a pocket watcher badge to view this.", "badges": [], "created_at": "2025-06-16T17:04:12.893-04:00", "updated_at": "2025-07-03T19:24:04.386-04:00", "avatar": "https://avatars.slack-edge.com/2025-06-16/9071312594625_cc7ba459339f166cbd2c_original.jpg", "custom_css": null}, {"id": 2825, "slack_id": "U091QN1A742", "display_name": "Jonah", "bio": null, "projects_count": 3, "devlogs_count": 5, "votes_count": 7, "ships_count": 1, "projects": [{"id": 830, "title": "Double Pendulum Simulator", "devlogs_count": 4, "created_at": "2025-06-17T09:25:39.869-04:00"}, {"id": 6373, "title": "DSD to DSD-Wide", "devlogs_count": 1, "created_at": "2025-07-12T19:03:36.157-04:00"}, {"id": 3187, "title": "Subnautica In Game terrain editor", "devlogs_count": 0, "created_at": "2025-06-23T11:23:35.227-04:00"}], "coding_time_seconds": 163242, "coding_time_seconds_today": 0, "balance": "You need to have a pocket watcher badge to view this.", "badges": [{"name": "Maiden Voyage", "text": "you shipped your first project! the journey begins...", "icon": "\ud83d\udea2"}], "created_at": "2025-06-16T17:04:36.300-04:00", "updated_at": "2025-09-10T22:52:34.291-04:00", "avatar": "https://secure.gravatar.com/avatar/32076d2970c56be092d8a38a4f4d012b.jpg?s=512&d=https%3A%2F%2Fa.slack-edge.com%2Fdf10d%2Fimg%2Favatars%2Fava_0026-512.png", "custom_css": null}, {"id": 2826, "slack_id": "U08QMMUH86P", "display_name": "Gunap Sriganesh", "bio": null, "projects_count": 0, "devlogs_count": 0, "votes_count": 0, "ships_count": 0, "projects": [], "coding_time_seconds": 0, "coding_time_seconds_today": 0, "balance": "You need to have a pocket watcher badge to view this.", "badges": [], "created_at": "2025-06-16T17:04:54.382-04:00", "updated_at": "2025-07-03T19:24:04.908-04:00", "avatar": "https://avatars.slack-edge.com/2025-05-04/8857769358001_58a3e3f320bb8ab798f3_original.jpg", "custom_css": null}, {"id": 2827, "slack_id": "U091NUJRK8V", "display_name": "Kariuki", "bio": null, "projects_count": 0, "devlogs_count": 0, "votes_count": 0, "ships_count": 0, "projects": [], "coding_time_seconds": 0, "coding_time_seconds_today": 0, "balance": "You need to have a pocket watcher badge to view this.", "badges": [], "created_at": "2025-06-16T17:05:49.724-04:00", "updated_at": "2025-07-03T19:24:05.160-04:00", "avatar": "https://secure.gravatar.com/avatar/4121c846d10a9b4d965fe6c82ad548b5.jpg?s=512&d=https%3A%2F%2Fa.slack-edge.com%2Fdf10d%2Fimg%2Favatars%2Fava_0009-512.png", "custom_css": null}, {"id": 2828, "slack_id": "U04K92TF2LD", "display_name": "sonicx180", "bio": "web dev", "projects_count": 4, "devlogs_count": 13, "votes_count": 10, "ships_count": 2, "projects": [{"id": 6250, "title": "Personal Website ", "devlogs_count": 0, "created_at": "2025-07-11T15:32:19.640-04:00"}, {"id": 7309, "title": "Hackclub Mail Bot", "devlogs_count": 1, "created_at": "2025-07-20T20:25:31.109-04:00"}, {"id": 2341, "title": "FindYourCut Backend", "devlogs_count": 3, "created_at": "2025-06-20T18:28:07.115-04:00"}, {"id": 1061, "title": "FindYourCut", "devlogs_count": 9, "created_at": "2025-06-17T15:02:51.389-04:00"}], "coding_time_seconds": 92363, "coding_time_seconds_today": 0, "balance": "You need to have a pocket watcher badge to view this.", "badges": [{"name": "Maiden Voyage", "text": "you shipped your first project! the journey begins...", "icon": "\ud83d\udea2"}], "created_at": "2025-06-16T17:05:56.092-04:00", "updated_at": "2025-09-10T22:52:34.381-04:00", "avatar": "https://avatars.slack-edge.com/2023-02-04/4751407497442_e514cafcfd3f7711ac67_original.png", "custom_css": null}, {"id": 2829, "slack_id": "U08V1QXRS6L", "display_name": "north-river", "bio": null, "projects_count": 0, "devlogs_count": 0, "votes_count": 0, "ships_count": 0, "projects": [], "coding_time_seconds": 50476, "coding_time_seconds_today": 0, "balance": "You need to have a pocket watcher badge to view this.", "badges": [], "created_at": "2025-06-16T17:06:04.357-04:00", "updated_at": "2025-07-03T19:24:05.692-04:00", "avatar": "https://avatars.slack-edge.com/2025-06-08/9019430700322_e72da50723df4d6e5afd_original.jpg", "custom_css": null}, {"id": 2830, "slack_id": "U092D5YARMW", "display_name": "Matteo", "bio": null, "projects_count": 0, "devlogs_count": 0, "votes_count": 0, "ships_count": 0, "projects": [], "coding_time_seconds": 0, "coding_time_seconds_today": 0, "balance": "You need to have a pocket watcher badge to view this.", "badges": [], "created_at": "2025-06-16T17:06:07.533-04:00", "updated_at": "2025-07-03T19:24:05.955-04:00", "avatar": "https://secure.gravatar.com/avatar/459250fe3b7d6c4be3927180488f0299.jpg?s=512&d=https%3A%2F%2Fa.slack-edge.com%2Fdf10d%2Fimg%2Favatars%2Fava_0002-512.png", "custom_css": null}, {"id": 2831, "slack_id": "U078DDZ2TGE", "display_name": "Nick", "bio": null, "projects_count": 1, "devlogs_count": 2, "votes_count": 21, "ships_count": 1, "projects": [{"id": 11691, "title": "Gramophone", "devlogs_count": 2, "created_at": "2025-08-18T13:05:51.440-04:00"}], "coding_time_seconds": 375064, "coding_time_seconds_today": 0, "balance": "You need to have a pocket watcher badge to view this.", "badges": [{"name": "Maiden Voyage", "text": "you shipped your first project! the journey begins...", "icon": "\ud83d\udea2"}], "created_at": "2025-06-16T17:06:12.945-04:00", "updated_at": "2025-09-10T22:52:34.457-04:00", "avatar": "https://avatars.slack-edge.com/2024-08-11/7582074525456_15b8e13ad5207bd58529_original.jpg", "custom_css": null}, {"id": 2832, "slack_id": "U091QN92B8A", "display_name": "Khizar Alam", "bio": null, "projects_count": 0, "devlogs_count": 0, "votes_count": 2, "ships_count": 0, "projects": [], "coding_time_seconds": 380814, "coding_time_seconds_today": 0, "balance": "You need to have a pocket watcher badge to view this.", "badges": [], "created_at": "2025-06-16T17:06:13.743-04:00", "updated_at": "2025-09-18T05:42:01.942-04:00", "avatar": "https://secure.gravatar.com/avatar/1dd0b66142ec1284a4f2b8a4e82bbf0b.jpg?s=512&d=https%3A%2F%2Fa.slack-edge.com%2Fdf10d%2Fimg%2Favatars%2Fava_0010-512.png", "custom_css": null}, {"id": 2833, "slack_id": "U0833P4ADQT", "display_name": "MARTY Cl\u00e9ment", "bio": null, "projects_count": 1, "devlogs_count": 4, "votes_count": 22, "ships_count": 1, "projects": [{"id": 3129, "title": "LabBuddy", "devlogs_count": 4, "created_at": "2025-06-23T07:23:26.804-04:00"}], "coding_time_seconds": 155398, "coding_time_seconds_today": 0, "balance": "You need to have a pocket watcher badge to view this.", "badges": [{"name": "Maiden Voyage", "text": "you shipped your first project! the journey begins...", "icon": "\ud83d\udea2"}], "created_at": "2025-06-16T17:06:25.284-04:00", "updated_at": "2025-09-10T22:52:34.508-04:00", "avatar": "https://secure.gravatar.com/avatar/382fd362f556d27fcdd3f8802b91d595.jpg?s=512&d=https%3A%2F%2Fa.slack-edge.com%2Fdf10d%2Fimg%2Favatars%2Fava_0008-512.png", "custom_css": null}, {"id": 2834, "slack_id": "U091R3NHRCL", "display_name": "Rafikg", "bio": null, "projects_count": 0, "devlogs_count": 0, "votes_count": 0, "ships_count": 0, "projects": [], "coding_time_seconds": 0, "coding_time_seconds_today": 0, "balance": "You need to have a pocket watcher badge to view this.", "badges": [], "created_at": "2025-06-16T17:06:56.353-04:00", "updated_at": "2025-07-03T19:24:06.998-04:00", "avatar": "https://secure.gravatar.com/avatar/98c6a553d333065b6ed66e72cb7e25fa.jpg?s=512&d=https%3A%2F%2Fa.slack-edge.com%2Fdf10d%2Fimg%2Favatars%2Fava_0005-512.png", "custom_css": null}, {"id": 2835, "slack_id": "U091NULJSKF", "display_name": "Ben Boonstra", "bio": null, "projects_count": 1, "devlogs_count": 0, "votes_count": 0, "ships_count": 0, "projects": [{"id": 303, "title": "SOLAR", "devlogs_count": 0, "created_at": "2025-06-16T17:35:15.213-04:00"}], "coding_time_seconds": 146205, "coding_time_seconds_today": 0, "balance": "You need to have a pocket watcher badge to view this.", "badges": [], "created_at": "2025-06-16T17:07:50.064-04:00", "updated_at": "2025-07-03T19:24:07.261-04:00", "avatar": "https://secure.gravatar.com/avatar/bd87d4ef3f5f711e91256507e38c722a.jpg?s=512&d=https%3A%2F%2Fa.slack-edge.com%2Fdf10d%2Fimg%2Favatars%2Fava_0003-512.png", "custom_css": null}, {"id": 2836, "slack_id": "U07JH9LU1NC", "display_name": "Heliodex", "bio": "https://heliodex.cf", "projects_count": 2, "devlogs_count": 16, "votes_count": 36, "ships_count": 1, "projects": [{"id": 6853, "title": "Coputer", "devlogs_count": 11, "created_at": "2025-07-16T21:23:52.475-04:00"}, {"id": 6980, "title": "Mercury", "devlogs_count": 5, "created_at": "2025-07-17T22:57:37.210-04:00"}], "coding_time_seconds": 860374, "coding_time_seconds_today": 1622, "balance": "You need to have a pocket watcher badge to view this.", "badges": [{"name": "Maiden Voyage", "text": "you shipped your first project! the journey begins...", "icon": "\ud83d\udea2"}], "created_at": "2025-06-16T17:07:57.167-04:00", "updated_at": "2025-09-10T22:52:34.610-04:00", "avatar": "https://secure.gravatar.com/avatar/85cba188fb5d1f2d9a52ce266fd20007.jpg?s=512&d=https%3A%2F%2Fa.slack-edge.com%2Fdf10d%2Fimg%2Favatars%2Fava_0012-512.png", "custom_css": null}, {"id": 2837, "slack_id": "U091R3KM1FW", "display_name": "Shuvo", "bio": null, "projects_count": 0, "devlogs_count": 0, "votes_count": 0, "ships_count": 0, "projects": [], "coding_time_seconds": 74730, "coding_time_seconds_today": 0, "balance": "You need to have a pocket watcher badge to view this.", "badges": [], "created_at": "2025-06-16T17:08:07.939-04:00", "updated_at": "2025-07-03T19:24:07.813-04:00", "avatar": "https://secure.gravatar.com/avatar/1c54cca8d4b2bc661bfa3e5b967d13b0.jpg?s=512&d=https%3A%2F%2Fa.slack-edge.com%2Fdf10d%2Fimg%2Favatars%2Fava_0013-512.png", "custom_css": null}, {"id": 2838, "slack_id": "U0791U2F9RU", "display_name": "Rany", "bio": null, "projects_count": 0, "devlogs_count": 0, "votes_count": 0, "ships_count": 0, "projects": [], "coding_time_seconds": 142, "coding_time_seconds_today": 0, "balance": "You need to have a pocket watcher badge to view this.", "badges": [], "created_at": "2025-06-16T17:08:29.434-04:00", "updated_at": "2025-08-19T14:11:21.119-04:00", "avatar": "https://avatars.slack-edge.com/2025-08-19/9389543317489_89e83a84528dc31ac026_original.jpg", "custom_css": null}, {"id": 2839, "slack_id": "U08EJ303Q4U", "display_name": "veds", "bio": null, "projects_count": 2, "devlogs_count": 2, "votes_count": 4, "ships_count": 2, "projects": [{"id": 2358, "title": "EcoPantry", "devlogs_count": 1, "created_at": "2025-06-20T19:58:05.928-04:00"}, {"id": 5327, "title": "Clipd", "devlogs_count": 1, "created_at": "2025-07-04T13:00:54.076-04:00"}], "coding_time_seconds": 119016, "coding_time_seconds_today": 0, "balance": "You need to have a pocket watcher badge to view this.", "badges": [{"name": "Maiden Voyage", "text": "you shipped your first project! the journey begins...", "icon": "\ud83d\udea2"}, {"name": "Spider", "text": "this user has a pet!", "icon": "\ud83d\udd77\ufe0f"}], "created_at": "2025-06-16T17:08:58.461-04:00", "updated_at": "2025-09-10T22:52:34.686-04:00", "avatar": "https://avatars.slack-edge.com/2025-06-04/8997970655348_6dcffa8f56392903b2e3_original.png", "custom_css": null}, {"id": 2840, "slack_id": "U09239GJTQ9", "display_name": "Valentina", "bio": null, "projects_count": 0, "devlogs_count": 0, "votes_count": 0, "ships_count": 0, "projects": [], "coding_time_seconds": 0, "coding_time_seconds_today": 0, "balance": "You need to have a pocket watcher badge to view this.", "badges": [], "created_at": "2025-06-16T17:09:18.648-04:00", "updated_at": "2025-07-03T19:24:08.613-04:00", "avatar": "https://secure.gravatar.com/avatar/5e1470de33e72a9162de979feb1e142b.jpg?s=512&d=https%3A%2F%2Fa.slack-edge.com%2Fdf10d%2Fimg%2Favatars%2Fava_0006-512.png", "custom_css": null}], "pagination": {"page": 142, "pages": 1192, "count": 23828, "items": 20}}