{"users": [{"id": 2901, "slack_id": "U073Q4F60LQ", "display_name": "Ducc", "bio": null, "projects_count": 0, "devlogs_count": 0, "votes_count": 0, "ships_count": 0, "projects": [], "coding_time_seconds": 211313, "coding_time_seconds_today": 0, "balance": "You need to have a pocket watcher badge to view this.", "badges": [], "created_at": "2025-06-16T17:21:51.514-04:00", "updated_at": "2025-08-07T14:11:35.643-04:00", "avatar": "https://avatars.slack-edge.com/2025-08-07/9316161705011_20f02e8e5eb6644f5033_original.jpg", "custom_css": null}, {"id": 2902, "slack_id": "U08172EUHSQ", "display_name": "Richard Ya", "bio": null, "projects_count": 0, "devlogs_count": 0, "votes_count": 0, "ships_count": 0, "projects": [], "coding_time_seconds": 0, "coding_time_seconds_today": 0, "balance": "You need to have a pocket watcher badge to view this.", "badges": [], "created_at": "2025-06-16T17:21:57.274-04:00", "updated_at": "2025-07-03T19:24:26.100-04:00", "avatar": "https://secure.gravatar.com/avatar/561e0068e2bed1bac7ee3e8495df6b8b.jpg?s=512&d=https%3A%2F%2Fa.slack-edge.com%2Fdf10d%2Fimg%2Favatars%2Fava_0014-512.png", "custom_css": null}, {"id": 2903, "slack_id": "U091J0C0QSJ", "display_name": "Freddie", "bio": null, "projects_count": 4, "devlogs_count": 36, "votes_count": 20, "ships_count": 2, "projects": [{"id": 1529, "title": "Golf.py", "devlogs_count": 11, "created_at": "2025-06-18T17:24:53.707-04:00"}, {"id": 3465, "title": "The Algorithm Lab", "devlogs_count": 11, "created_at": "2025-06-24T11:13:52.571-04:00"}, {"id": 7887, "title": "Synk", "devlogs_count": 6, "created_at": "2025-07-23T12:32:26.771-04:00"}, {"id": 5333, "title": "My Portfolio Website", "devlogs_count": 7, "created_at": "2025-07-04T13:44:10.508-04:00"}], "coding_time_seconds": 240600, "coding_time_seconds_today": 0, "balance": "You need to have a pocket watcher badge to view this.", "badges": [{"name": "Maiden Voyage", "text": "you shipped your first project! the journey begins...", "icon": "\ud83d\udea2"}], "created_at": "2025-06-16T17:22:11.869-04:00", "updated_at": "2025-09-10T22:52:36.712-04:00", "avatar": "https://avatars.slack-edge.com/2025-06-20/9075498103683_c070d0604986650773c4_original.png", "custom_css": null}, {"id": 2904, "slack_id": "U078VEX14CB", "display_name": "Colin", "bio": ":3", "projects_count": 2, "devlogs_count": 20, "votes_count": 89, "ships_count": 2, "projects": [{"id": 6629, "title": "Personal Website", "devlogs_count": 5, "created_at": "2025-07-14T16:16:51.707-04:00"}, {"id": 6849, "title": "Sprig Fishing", "devlogs_count": 15, "created_at": "2025-07-16T20:45:09.901-04:00"}], "coding_time_seconds": 192026, "coding_time_seconds_today": 0, "balance": "You need to have a pocket watcher badge to view this.", "badges": [{"name": "Maiden Voyage", "text": "you shipped your first project! the journey begins...", "icon": "\ud83d\udea2"}], "created_at": "2025-06-16T17:22:22.526-04:00", "updated_at": "2025-09-10T22:52:36.743-04:00", "avatar": "https://avatars.slack-edge.com/2025-03-13/8621652028544_6a0a7e02407337c562a8_original.png", "custom_css": null}, {"id": 2905, "slack_id": "U0919EXCPPH", "display_name": "Tatiana Hanada", "bio": null, "projects_count": 0, "devlogs_count": 0, "votes_count": 0, "ships_count": 0, "projects": [], "coding_time_seconds": 0, "coding_time_seconds_today": 0, "balance": "You need to have a pocket watcher badge to view this.", "badges": [], "created_at": "2025-06-16T17:22:29.875-04:00", "updated_at": "2025-07-03T19:24:26.962-04:00", "avatar": "https://avatars.slack-edge.com/2025-06-16/9071385732465_21bb18182d4393bbb610_original.jpg", "custom_css": null}, {"id": 2906, "slack_id": "U0923B0EK4H", "display_name": "Bruno Ortega", "bio": null, "projects_count": 0, "devlogs_count": 0, "votes_count": 0, "ships_count": 0, "projects": [], "coding_time_seconds": 45601, "coding_time_seconds_today": 0, "balance": "You need to have a pocket watcher badge to view this.", "badges": [], "created_at": "2025-06-16T17:22:30.045-04:00", "updated_at": "2025-07-03T19:24:27.227-04:00", "avatar": "https://avatars.slack-edge.com/2025-06-16/9043516767863_33bb85ae2e6a5cdd4b32_original.png", "custom_css": null}, {"id": 2907, "slack_id": "U091HS1NDEX", "display_name": "mokhtari mohamed amine", "bio": null, "projects_count": 0, "devlogs_count": 0, "votes_count": 0, "ships_count": 0, "projects": [], "coding_time_seconds": 0, "coding_time_seconds_today": 0, "balance": "You need to have a pocket watcher badge to view this.", "badges": [], "created_at": "2025-06-16T17:22:39.767-04:00", "updated_at": "2025-07-03T19:24:27.486-04:00", "avatar": "https://secure.gravatar.com/avatar/3a076fb3e6e55f0565dea7ee2cf64d18.jpg?s=512&d=https%3A%2F%2Fa.slack-edge.com%2Fdf10d%2Fimg%2Favatars%2Fava_0026-512.png", "custom_css": null}, {"id": 2908, "slack_id": "U0923B28LSD", "display_name": "Chingching Lean", "bio": null, "projects_count": 0, "devlogs_count": 0, "votes_count": 0, "ships_count": 0, "projects": [], "coding_time_seconds": 0, "coding_time_seconds_today": 0, "balance": "You need to have a pocket watcher badge to view this.", "badges": [], "created_at": "2025-06-16T17:22:44.100-04:00", "updated_at": "2025-07-03T19:24:27.768-04:00", "avatar": "https://avatars.slack-edge.com/2025-06-16/9081280041840_6ffa2be0d6f9861908d7_original.png", "custom_css": null}, {"id": 2909, "slack_id": "U08160NAQ79", "display_name": "Goose", "bio": null, "projects_count": 1, "devlogs_count": 1, "votes_count": 0, "ships_count": 0, "projects": [{"id": 11426, "title": "Pok\u00e9blue", "devlogs_count": 1, "created_at": "2025-08-15T20:30:11.993-04:00"}], "coding_time_seconds": 31330, "coding_time_seconds_today": 0, "balance": "You need to have a pocket watcher badge to view this.", "badges": [], "created_at": "2025-06-16T17:22:45.118-04:00", "updated_at": "2025-08-09T21:55:01.577-04:00", "avatar": "https://avatars.slack-edge.com/2024-12-15/8170167725142_f97804c6c7bfa2e24eed_original.png", "custom_css": null}, {"id": 2910, "slack_id": "U0923B47PK3", "display_name": "jou", "bio": null, "projects_count": 1, "devlogs_count": 4, "votes_count": 0, "ships_count": 0, "projects": [{"id": 396, "title": "Market Crash Detector", "devlogs_count": 4, "created_at": "2025-06-16T20:08:38.966-04:00"}], "coding_time_seconds": 121449, "coding_time_seconds_today": 0, "balance": "You need to have a pocket watcher badge to view this.", "badges": [], "created_at": "2025-06-16T17:22:50.672-04:00", "updated_at": "2025-07-03T19:24:28.309-04:00", "avatar": "https://secure.gravatar.com/avatar/636bc71456bcecc11999ebbe67a6db29.jpg?s=512&d=https%3A%2F%2Fa.slack-edge.com%2Fdf10d%2Fimg%2Favatars%2Fava_0019-512.png", "custom_css": null}, {"id": 2911, "slack_id": "U08SF8MVC82", "display_name": "niko", "bio": null, "projects_count": 0, "devlogs_count": 0, "votes_count": 0, "ships_count": 0, "projects": [], "coding_time_seconds": 490195, "coding_time_seconds_today": 0, "balance": "You need to have a pocket watcher badge to view this.", "badges": [], "created_at": "2025-06-16T17:22:59.455-04:00", "updated_at": "2025-08-17T20:11:54.511-04:00", "avatar": "https://avatars.slack-edge.com/2025-08-17/9367493878166_b34f1f529f97a5650dec_original.jpg", "custom_css": null}, {"id": 2912, "slack_id": "U091QQE2X26", "display_name": "Alicia Estrada", "bio": "Hii, I'm Alicia Estrada. I like to draw, paint and to discover new things. ", "projects_count": 1, "devlogs_count": 1, "votes_count": 2, "ships_count": 1, "projects": [{"id": 7040, "title": "Quicksort Efficiency Analysis", "devlogs_count": 1, "created_at": "2025-07-18T13:29:48.026-04:00"}], "coding_time_seconds": 111879, "coding_time_seconds_today": 0, "balance": "You need to have a pocket watcher badge to view this.", "badges": [{"name": "Maiden Voyage", "text": "you shipped your first project! the journey begins...", "icon": "\ud83d\udea2"}], "created_at": "2025-06-16T17:23:17.021-04:00", "updated_at": "2025-09-10T22:52:36.983-04:00", "avatar": "https://secure.gravatar.com/avatar/4701b34a7ece362b3761b36ff5226853.jpg?s=512&d=https%3A%2F%2Fa.slack-edge.com%2Fdf10d%2Fimg%2Favatars%2Fava_0011-512.png", "custom_css": null}, {"id": 2913, "slack_id": "U092D81PE48", "display_name": "CAPS123987", "bio": null, "projects_count": 0, "devlogs_count": 0, "votes_count": 0, "ships_count": 0, "projects": [], "coding_time_seconds": 0, "coding_time_seconds_today": 0, "balance": "You need to have a pocket watcher badge to view this.", "badges": [], "created_at": "2025-06-16T17:23:29.121-04:00", "updated_at": "2025-07-03T19:24:29.139-04:00", "avatar": "https://secure.gravatar.com/avatar/fd791962a38247c457cfd29aa6083c3c.jpg?s=512&d=https%3A%2F%2Fa.slack-edge.com%2Fdf10d%2Fimg%2Favatars%2Fava_0022-512.png", "custom_css": null}, {"id": 2914, "slack_id": "U091DU3K2FP", "display_name": "Devansh Malhotra", "bio": null, "projects_count": 2, "devlogs_count": 1, "votes_count": 9, "ships_count": 1, "projects": [{"id": 13500, "title": "EchoChambers", "devlogs_count": 0, "created_at": "2025-09-18T00:17:18.858-04:00"}, {"id": 12342, "title": "AI ProductFinder", "devlogs_count": 1, "created_at": "2025-08-26T01:15:45.608-04:00"}], "coding_time_seconds": 183425, "coding_time_seconds_today": 0, "balance": "You need to have a pocket watcher badge to view this.", "badges": [{"name": "Maiden Voyage", "text": "you shipped your first project! the journey begins...", "icon": "\ud83d\udea2"}], "created_at": "2025-06-16T17:23:42.836-04:00", "updated_at": "2025-09-17T19:23:39.444-04:00", "avatar": "https://secure.gravatar.com/avatar/e99cf3d15c10aa5f433f4f96f94922c8.jpg?s=512&d=https%3A%2F%2Fa.slack-edge.com%2Fdf10d%2Fimg%2Favatars%2Fava_0020-512.png", "custom_css": null}, {"id": 2915, "slack_id": "U091QQJ10PL", "display_name": "Joshua K.", "bio": null, "projects_count": 0, "devlogs_count": 0, "votes_count": 0, "ships_count": 0, "projects": [], "coding_time_seconds": 0, "coding_time_seconds_today": 0, "balance": "You need to have a pocket watcher badge to view this.", "badges": [], "created_at": "2025-06-16T17:23:47.092-04:00", "updated_at": "2025-07-03T19:24:29.687-04:00", "avatar": "https://avatars.slack-edge.com/2025-06-16/9043523195207_f317f5fbe4aef11dfbd7_original.png", "custom_css": null}, {"id": 2916, "slack_id": "U06MDFSPQKG", "display_name": "Jose Moran Urena", "bio": null, "projects_count": 3, "devlogs_count": 3, "votes_count": 4, "ships_count": 2, "projects": [{"id": 9915, "title": "NYCRP Management Bot", "devlogs_count": 2, "created_at": "2025-08-02T22:06:25.793-04:00"}, {"id": 9917, "title": "JMU Personal Website", "devlogs_count": 1, "created_at": "2025-08-02T22:14:15.469-04:00"}, {"id": 11285, "title": "Northca MDT", "devlogs_count": 0, "created_at": "2025-08-14T15:20:05.870-04:00"}], "coding_time_seconds": 150342, "coding_time_seconds_today": 0, "balance": "You need to have a pocket watcher badge to view this.", "badges": [{"name": "Maiden Voyage", "text": "you shipped your first project! the journey begins...", "icon": "\ud83d\udea2"}], "created_at": "2025-06-16T17:23:56.584-04:00", "updated_at": "2025-09-10T22:52:37.104-04:00", "avatar": "https://secure.gravatar.com/avatar/6546a617495d22180d144d82aafb78e6.jpg?s=512&d=https%3A%2F%2Fa.slack-edge.com%2Fdf10d%2Fimg%2Favatars%2Fava_0010-512.png", "custom_css": null}, {"id": 2917, "slack_id": "U0796NLKNQY", "display_name": "thebread", "bio": null, "projects_count": 0, "devlogs_count": 0, "votes_count": 0, "ships_count": 0, "projects": [], "coding_time_seconds": 7234, "coding_time_seconds_today": 0, "balance": "You need to have a pocket watcher badge to view this.", "badges": [], "created_at": "2025-06-16T17:23:59.803-04:00", "updated_at": "2025-07-03T19:24:30.225-04:00", "avatar": "https://avatars.slack-edge.com/2024-06-17/7275455450983_76bf1dc90a7586b9e8b4_original.png", "custom_css": null}, {"id": 2918, "slack_id": "U091HSAG7JP", "display_name": "Mike O\u2019Leary", "bio": null, "projects_count": 0, "devlogs_count": 0, "votes_count": 0, "ships_count": 0, "projects": [], "coding_time_seconds": 1274, "coding_time_seconds_today": 0, "balance": "You need to have a pocket watcher badge to view this.", "badges": [], "created_at": "2025-06-16T17:24:36.409-04:00", "updated_at": "2025-07-03T19:24:30.488-04:00", "avatar": "https://avatars.slack-edge.com/2025-06-16/9052051092662_87238d4354617dec9947_original.png", "custom_css": null}, {"id": 2919, "slack_id": "U0919F5PANB", "display_name": "Francis", "bio": null, "projects_count": 0, "devlogs_count": 0, "votes_count": 0, "ships_count": 0, "projects": [], "coding_time_seconds": 60107, "coding_time_seconds_today": 0, "balance": "You need to have a pocket watcher badge to view this.", "badges": [], "created_at": "2025-06-16T17:24:49.800-04:00", "updated_at": "2025-07-03T19:24:30.791-04:00", "avatar": "https://secure.gravatar.com/avatar/d626d8c81e60466827dc29ebef82e70d.jpg?s=512&d=https%3A%2F%2Fa.slack-edge.com%2Fdf10d%2Fimg%2Favatars%2Fava_0012-512.png", "custom_css": null}, {"id": 2920, "slack_id": "U091R5RVB7W", "display_name": "Desouky", "bio": null, "projects_count": 0, "devlogs_count": 0, "votes_count": 0, "ships_count": 0, "projects": [], "coding_time_seconds": 0, "coding_time_seconds_today": 0, "balance": "You need to have a pocket watcher badge to view this.", "badges": [], "created_at": "2025-06-16T17:25:22.754-04:00", "updated_at": "2025-07-03T19:24:31.072-04:00", "avatar": "https://secure.gravatar.com/avatar/af41285f93ee68670f55b2bb5ca50498.jpg?s=512&d=https%3A%2F%2Fa.slack-edge.com%2Fdf10d%2Fimg%2Favatars%2Fava_0023-512.png", "custom_css": null}], "pagination": {"page": 146, "pages": 1192, "count": 23828, "items": 20}}