{"users": [{"id": 2921, "slack_id": "U0725R62BTK", "display_name": "Nat", "bio": null, "projects_count": 3, "devlogs_count": 36, "votes_count": 41, "ships_count": 1, "projects": [{"id": 374, "title": "ste-rip addon", "devlogs_count": 8, "created_at": "2025-06-16T19:37:16.157-04:00"}, {"id": 3067, "title": "falto", "devlogs_count": 2, "created_at": "2025-06-23T00:45:47.271-04:00"}, {"id": 423, "title": "OpenGameInstaller v2.0", "devlogs_count": 26, "created_at": "2025-06-16T20:59:37.524-04:00"}], "coding_time_seconds": 548174, "coding_time_seconds_today": 0, "balance": "You need to have a pocket watcher badge to view this.", "badges": [{"name": "Maiden Voyage", "text": "you shipped your first project! the journey begins...", "icon": "\ud83d\udea2"}], "created_at": "2025-06-16T17:25:36.158-04:00", "updated_at": "2025-09-10T22:52:37.248-04:00", "avatar": "https://avatars.slack-edge.com/2024-05-26/7176433257890_21bf01d724d43ee192eb_original.jpg", "custom_css": null}, {"id": 2922, "slack_id": "U086LEPFDC5", "display_name": "Youssef Tech", "bio": null, "projects_count": 0, "devlogs_count": 0, "votes_count": 0, "ships_count": 0, "projects": [], "coding_time_seconds": 72599, "coding_time_seconds_today": 0, "balance": "You need to have a pocket watcher badge to view this.", "badges": [], "created_at": "2025-06-16T17:25:55.063-04:00", "updated_at": "2025-07-13T20:11:12.323-04:00", "avatar": "https://avatars.slack-edge.com/2025-07-13/9191678260340_a826216805d0742110c9_original.jpg", "custom_css": null}, {"id": 2923, "slack_id": "U091R5UPVEG", "display_name": "Farshad", "bio": null, "projects_count": 0, "devlogs_count": 0, "votes_count": 0, "ships_count": 0, "projects": [], "coding_time_seconds": 0, "coding_time_seconds_today": 0, "balance": "You need to have a pocket watcher badge to view this.", "badges": [], "created_at": "2025-06-16T17:25:56.482-04:00", "updated_at": "2025-07-03T19:24:31.877-04:00", "avatar": "https://secure.gravatar.com/avatar/24e7b4f70cda5e04072f27a82bef2626.jpg?s=512&d=https%3A%2F%2Fa.slack-edge.com%2Fdf10d%2Fimg%2Favatars%2Fava_0007-512.png", "custom_css": null}, {"id": 2924, "slack_id": "U092D8AG9FA", "display_name": "Aris", "bio": null, "projects_count": 0, "devlogs_count": 0, "votes_count": 0, "ships_count": 0, "projects": [], "coding_time_seconds": 0, "coding_time_seconds_today": 0, "balance": "You need to have a pocket watcher badge to view this.", "badges": [], "created_at": "2025-06-16T17:26:00.128-04:00", "updated_at": "2025-07-03T19:24:32.143-04:00", "avatar": "https://secure.gravatar.com/avatar/e7007f1f89a6492d54df629a35a931af.jpg?s=512&d=https%3A%2F%2Fa.slack-edge.com%2Fdf10d%2Fimg%2Favatars%2Fava_0020-512.png", "custom_css": null}, {"id": 2925, "slack_id": "U092D6H3ZSL", "display_name": "Vloxin.", "bio": null, "projects_count": 0, "devlogs_count": 0, "votes_count": 0, "ships_count": 0, "projects": [], "coding_time_seconds": 0, "coding_time_seconds_today": 0, "balance": "You need to have a pocket watcher badge to view this.", "badges": [], "created_at": "2025-06-16T17:26:01.183-04:00", "updated_at": "2025-07-03T19:24:32.409-04:00", "avatar": "https://secure.gravatar.com/avatar/ac1650d0d6cdfc5e423b753e2e1aeca3.jpg?s=512&d=https%3A%2F%2Fa.slack-edge.com%2Fdf10d%2Fimg%2Favatars%2Fava_0013-512.png", "custom_css": null}, {"id": 2926, "slack_id": "U079GQJNUH3", "display_name": "Aditya", "bio": null, "projects_count": 0, "devlogs_count": 0, "votes_count": 0, "ships_count": 0, "projects": [], "coding_time_seconds": 39032, "coding_time_seconds_today": 0, "balance": "You need to have a pocket watcher badge to view this.", "badges": [], "created_at": "2025-06-16T17:26:07.124-04:00", "updated_at": "2025-07-03T19:24:32.748-04:00", "avatar": "https://avatars.slack-edge.com/2025-04-23/8819152507168_07ba081d92db884f1d34_original.png", "custom_css": null}, {"id": 2927, "slack_id": "U091HSRF8AX", "display_name": "Husnain Mustafa", "bio": null, "projects_count": 0, "devlogs_count": 0, "votes_count": 0, "ships_count": 0, "projects": [], "coding_time_seconds": 0, "coding_time_seconds_today": 0, "balance": "You need to have a pocket watcher badge to view this.", "badges": [], "created_at": "2025-06-16T17:26:24.803-04:00", "updated_at": "2025-07-03T19:24:33.024-04:00", "avatar": "https://secure.gravatar.com/avatar/9dc9503cc5d56b320ea1e6d364a33c8c.jpg?s=512&d=https%3A%2F%2Fa.slack-edge.com%2Fdf10d%2Fimg%2Favatars%2Fava_0025-512.png", "custom_css": null}, {"id": 2928, "slack_id": "U091QQSEL9G", "display_name": "Tired Porkupine", "bio": null, "projects_count": 1, "devlogs_count": 0, "votes_count": 0, "ships_count": 0, "projects": [{"id": 2225, "title": "CAP Automated Meeting Scheduler", "devlogs_count": 0, "created_at": "2025-06-20T13:36:02.344-04:00"}], "coding_time_seconds": 56882, "coding_time_seconds_today": 0, "balance": "You need to have a pocket watcher badge to view this.", "badges": [], "created_at": "2025-06-16T17:26:41.377-04:00", "updated_at": "2025-07-03T19:24:33.289-04:00", "avatar": "https://secure.gravatar.com/avatar/16233105bb90ffdac81a39f6cfcb0200.jpg?s=512&d=https%3A%2F%2Fa.slack-edge.com%2Fdf10d%2Fimg%2Favatars%2Fava_0008-512.png", "custom_css": null}, {"id": 2929, "slack_id": "U07A1PR6XBP", "display_name": "Ibrahim Shahid", "bio": null, "projects_count": 2, "devlogs_count": 1, "votes_count": 0, "ships_count": 0, "projects": [{"id": 377, "title": "Achernar", "devlogs_count": 1, "created_at": "2025-06-16T19:38:54.158-04:00"}, {"id": 2830, "title": "Rao Rocket Nozzle Geometry Optimizer and Rocket Thrust Simulator", "devlogs_count": 0, "created_at": "2025-06-22T07:15:27.471-04:00"}], "coding_time_seconds": 6598, "coding_time_seconds_today": 0, "balance": "You need to have a pocket watcher badge to view this.", "badges": [], "created_at": "2025-06-16T17:26:45.305-04:00", "updated_at": "2025-07-03T19:24:33.561-04:00", "avatar": "https://avatars.slack-edge.com/2024-06-27/7344729980242_c99d14818cd6481de9b6_original.jpg", "custom_css": null}, {"id": 2930, "slack_id": "U091HSUUQ0K", "display_name": "Alexandra Martinez", "bio": null, "projects_count": 0, "devlogs_count": 0, "votes_count": 0, "ships_count": 0, "projects": [], "coding_time_seconds": 0, "coding_time_seconds_today": 0, "balance": "You need to have a pocket watcher badge to view this.", "badges": [], "created_at": "2025-06-16T17:26:54.955-04:00", "updated_at": "2025-07-03T19:24:33.836-04:00", "avatar": "https://secure.gravatar.com/avatar/4264817fbf06f2651f1bf16969d0fa5e.jpg?s=512&d=https%3A%2F%2Fa.slack-edge.com%2Fdf10d%2Fimg%2Favatars%2Fava_0023-512.png", "custom_css": null}, {"id": 2931, "slack_id": "U0923BFL95F", "display_name": "Tushar Burla", "bio": null, "projects_count": 0, "devlogs_count": 0, "votes_count": 0, "ships_count": 0, "projects": [], "coding_time_seconds": 0, "coding_time_seconds_today": 0, "balance": "You need to have a pocket watcher badge to view this.", "badges": [], "created_at": "2025-06-16T17:26:55.888-04:00", "updated_at": "2025-07-03T19:24:34.114-04:00", "avatar": "https://avatars.slack-edge.com/2025-06-16/9043536190151_a60eb74ef96ebe1a9b26_original.png", "custom_css": null}, {"id": 2932, "slack_id": "U078J17EJJZ", "display_name": "Krazy Hacker", "bio": null, "projects_count": 0, "devlogs_count": 0, "votes_count": 0, "ships_count": 0, "projects": [], "coding_time_seconds": 464598, "coding_time_seconds_today": 0, "balance": "You need to have a pocket watcher badge to view this.", "badges": [], "created_at": "2025-06-16T17:27:02.682-04:00", "updated_at": "2025-08-15T23:10:37.581-04:00", "avatar": "https://avatars.slack-edge.com/2025-07-07/9178912941712_8908b6c16a2d88a11bc4_original.png", "custom_css": null}, {"id": 2933, "slack_id": "U091HSTFRM1", "display_name": "carnechon", "bio": null, "projects_count": 0, "devlogs_count": 0, "votes_count": 0, "ships_count": 0, "projects": [], "coding_time_seconds": 0, "coding_time_seconds_today": 0, "balance": "You need to have a pocket watcher badge to view this.", "badges": [], "created_at": "2025-06-16T17:27:15.416-04:00", "updated_at": "2025-07-03T19:24:34.672-04:00", "avatar": "https://secure.gravatar.com/avatar/cf4b0fa7f6bbd5dd763d2479f1152512.jpg?s=512&d=https%3A%2F%2Fa.slack-edge.com%2Fdf10d%2Fimg%2Favatars%2Fava_0008-512.png", "custom_css": null}, {"id": 2934, "slack_id": "U091HR27D19", "display_name": "BananaGuy", "bio": null, "projects_count": 0, "devlogs_count": 0, "votes_count": 0, "ships_count": 0, "projects": [], "coding_time_seconds": 0, "coding_time_seconds_today": 0, "balance": "You need to have a pocket watcher badge to view this.", "badges": [], "created_at": "2025-06-16T17:27:38.301-04:00", "updated_at": "2025-07-03T19:24:34.982-04:00", "avatar": "https://avatars.slack-edge.com/2025-06-17/9043702296215_04c0410c3eb0e4eed2f3_original.jpg", "custom_css": null}, {"id": 2935, "slack_id": "U078DFX40A2", "display_name": "Emma", "bio": null, "projects_count": 0, "devlogs_count": 19, "votes_count": 0, "ships_count": 0, "projects": [], "coding_time_seconds": 56598, "coding_time_seconds_today": 0, "balance": "You need to have a pocket watcher badge to view this.", "badges": [{"name": "Maiden Voyage", "text": "you shipped your first project! the journey begins...", "icon": "\ud83d\udea2"}], "created_at": "2025-06-16T17:27:39.635-04:00", "updated_at": "2025-09-10T22:52:37.613-04:00", "avatar": "https://avatars.slack-edge.com/2025-05-29/8962460239286_860860f0ffebf29c17ab_original.jpg", "custom_css": null}, {"id": 2936, "slack_id": "U064H67CJ5N", "display_name": "AR", "bio": null, "projects_count": 0, "devlogs_count": 0, "votes_count": 0, "ships_count": 0, "projects": [], "coding_time_seconds": 0, "coding_time_seconds_today": 0, "balance": "You need to have a pocket watcher badge to view this.", "badges": [], "created_at": "2025-06-16T17:28:28.981-04:00", "updated_at": "2025-07-03T19:24:35.518-04:00", "avatar": "https://avatars.slack-edge.com/2025-02-02/8400922842721_03b58b308a71195a89c7_original.png", "custom_css": null}, {"id": 2937, "slack_id": "U05QA2ZCY8K", "display_name": "esemv", "bio": null, "projects_count": 2, "devlogs_count": 2, "votes_count": 0, "ships_count": 0, "projects": [{"id": 6185, "title": "Desmos Game", "devlogs_count": 2, "created_at": "2025-07-11T06:16:19.472-04:00"}, {"id": 6017, "title": "Image Tools", "devlogs_count": 0, "created_at": "2025-07-10T01:42:55.610-04:00"}], "coding_time_seconds": 143690, "coding_time_seconds_today": 0, "balance": "You need to have a pocket watcher badge to view this.", "badges": [], "created_at": "2025-06-16T17:28:31.345-04:00", "updated_at": "2025-07-03T19:24:35.778-04:00", "avatar": "https://avatars.slack-edge.com/2025-06-04/8997275897732_79df5f84a951926af153_original.png", "custom_css": null}, {"id": 2938, "slack_id": "U078MCA4Y13", "display_name": "Arjun Puninchittaya", "bio": null, "projects_count": 1, "devlogs_count": 1, "votes_count": 2, "ships_count": 0, "projects": [{"id": 1196, "title": "Chrome Dino", "devlogs_count": 1, "created_at": "2025-06-17T21:45:06.685-04:00"}], "coding_time_seconds": 25318, "coding_time_seconds_today": 0, "balance": "You need to have a pocket watcher badge to view this.", "badges": [], "created_at": "2025-06-16T17:28:32.076-04:00", "updated_at": "2025-08-10T13:19:18.166-04:00", "avatar": "https://secure.gravatar.com/avatar/bd0b2ca63f087de008853b640a74a533.jpg?s=512&d=https%3A%2F%2Fa.slack-edge.com%2Fdf10d%2Fimg%2Favatars%2Fava_0016-512.png", "custom_css": null}, {"id": 2939, "slack_id": "U07AMP7C28Y", "display_name": "spyguy", "bio": "", "projects_count": 3, "devlogs_count": 14, "votes_count": 22, "ships_count": 2, "projects": [{"id": 6742, "title": "Quasar", "devlogs_count": 6, "created_at": "2025-07-15T16:54:04.833-04:00"}, {"id": 6864, "title": "Media Toolbox", "devlogs_count": 6, "created_at": "2025-07-17T00:17:14.826-04:00"}, {"id": 5879, "title": "Quasar App Website", "devlogs_count": 2, "created_at": "2025-07-08T18:47:11.167-04:00"}], "coding_time_seconds": 266074, "coding_time_seconds_today": 0, "balance": "You need to have a pocket watcher badge to view this.", "badges": [{"name": "Maiden Voyage", "text": "you shipped your first project! the journey begins...", "icon": "\ud83d\udea2"}], "created_at": "2025-06-16T17:28:33.235-04:00", "updated_at": "2025-09-10T22:52:37.705-04:00", "avatar": "https://avatars.slack-edge.com/2024-06-26/7351666672081_47ed5a96ed11ce944043_original.jpg", "custom_css": null}, {"id": 2940, "slack_id": "U091P1VJ0MB", "display_name": "Zeenia Pirani", "bio": null, "projects_count": 0, "devlogs_count": 0, "votes_count": 0, "ships_count": 0, "projects": [], "coding_time_seconds": 188824, "coding_time_seconds_today": 0, "balance": "You need to have a pocket watcher badge to view this.", "badges": [], "created_at": "2025-06-16T17:28:52.589-04:00", "updated_at": "2025-07-03T19:24:36.589-04:00", "avatar": "https://avatars.slack-edge.com/2025-06-16/9071411473905_8ae5c89f3921f8bbe00e_original.jpg", "custom_css": null}], "pagination": {"page": 147, "pages": 1192, "count": 23828, "items": 20}}