{"users": [{"id": 2941, "slack_id": "U091R1YFTKN", "display_name": "Saleh Eddine Touil", "bio": null, "projects_count": 0, "devlogs_count": 0, "votes_count": 0, "ships_count": 0, "projects": [], "coding_time_seconds": 0, "coding_time_seconds_today": 0, "balance": "You need to have a pocket watcher badge to view this.", "badges": [], "created_at": "2025-06-16T17:29:25.457-04:00", "updated_at": "2025-07-03T19:24:36.852-04:00", "avatar": "https://secure.gravatar.com/avatar/5ea945581a1a5cf547ba645f7088c05a.jpg?s=512&d=https%3A%2F%2Fa.slack-edge.com%2Fdf10d%2Fimg%2Favatars%2Fava_0017-512.png", "custom_css": null}, {"id": 2942, "slack_id": "U091HSVJJCB", "display_name": "Lucas de Oliveira Macedo", "bio": null, "projects_count": 0, "devlogs_count": 0, "votes_count": 0, "ships_count": 0, "projects": [], "coding_time_seconds": 0, "coding_time_seconds_today": 0, "balance": "You need to have a pocket watcher badge to view this.", "badges": [], "created_at": "2025-06-16T17:29:35.690-04:00", "updated_at": "2025-07-03T19:24:37.152-04:00", "avatar": "https://secure.gravatar.com/avatar/2d5f6969bcd326e321c56c55ce7a13ba.jpg?s=512&d=https%3A%2F%2Fa.slack-edge.com%2Fdf10d%2Fimg%2Favatars%2Fava_0023-512.png", "custom_css": null}, {"id": 2943, "slack_id": "U07LDM48K7X", "display_name": "Bear Tyree", "bio": null, "projects_count": 3, "devlogs_count": 3, "votes_count": 4, "ships_count": 2, "projects": [{"id": 309, "title": "Rizz Quotient Test", "devlogs_count": 0, "created_at": "2025-06-16T17:39:36.844-04:00"}, {"id": 4441, "title": "IO Game", "devlogs_count": 1, "created_at": "2025-06-29T22:16:13.074-04:00"}, {"id": 311, "title": "Flash Royale", "devlogs_count": 2, "created_at": "2025-06-16T17:42:48.763-04:00"}], "coding_time_seconds": 243616, "coding_time_seconds_today": 0, "balance": "You need to have a pocket watcher badge to view this.", "badges": [{"name": "Maiden Voyage", "text": "you shipped your first project! the journey begins...", "icon": "\ud83d\udea2"}], "created_at": "2025-06-16T17:29:59.254-04:00", "updated_at": "2025-09-10T22:52:37.783-04:00", "avatar": "https://secure.gravatar.com/avatar/dbfed536cb2b96544ba2ba0674487478.jpg?s=512&d=https%3A%2F%2Fa.slack-edge.com%2Fdf10d%2Fimg%2Favatars%2Fava_0020-512.png", "custom_css": null}, {"id": 2944, "slack_id": "U0923BX6Y0Z", "display_name": "Irahan Jos\u00e9", "bio": null, "projects_count": 0, "devlogs_count": 0, "votes_count": 0, "ships_count": 0, "projects": [], "coding_time_seconds": 0, "coding_time_seconds_today": 0, "balance": "You need to have a pocket watcher badge to view this.", "badges": [], "created_at": "2025-06-16T17:30:00.722-04:00", "updated_at": "2025-07-03T19:24:37.703-04:00", "avatar": "https://avatars.slack-edge.com/2025-06-16/9057082064773_0901ab31ee6137db4b70_original.png", "custom_css": null}, {"id": 2945, "slack_id": "U091P1WCFV3", "display_name": "Yousaf", "bio": null, "projects_count": 0, "devlogs_count": 0, "votes_count": 0, "ships_count": 0, "projects": [], "coding_time_seconds": 0, "coding_time_seconds_today": 0, "balance": "You need to have a pocket watcher badge to view this.", "badges": [], "created_at": "2025-06-16T17:30:00.814-04:00", "updated_at": "2025-07-03T19:24:37.973-04:00", "avatar": "https://secure.gravatar.com/avatar/b5a455c4c30745deaa4aad7a251153ec.jpg?s=512&d=https%3A%2F%2Fa.slack-edge.com%2Fdf10d%2Fimg%2Favatars%2Fava_0008-512.png", "custom_css": null}, {"id": 2946, "slack_id": "U091QR7MFGA", "display_name": "Enes Kav\u00e7akar", "bio": null, "projects_count": 7, "devlogs_count": 26, "votes_count": 0, "ships_count": 0, "projects": [{"id": 654, "title": "Collager", "devlogs_count": 5, "created_at": "2025-06-17T04:18:36.825-04:00"}, {"id": 1308, "title": "Ligature", "devlogs_count": 2, "created_at": "2025-06-18T07:27:04.553-04:00"}, {"id": 1335, "title": "Tether", "devlogs_count": 4, "created_at": "2025-06-18T09:31:05.876-04:00"}, {"id": 1467, "title": "TrackDuel", "devlogs_count": 8, "created_at": "2025-06-18T15:46:32.400-04:00"}, {"id": 1749, "title": "Serendipity", "devlogs_count": 2, "created_at": "2025-06-19T06:51:10.697-04:00"}, {"id": 1150, "title": "Burnernote", "devlogs_count": 4, "created_at": "2025-06-17T18:21:12.177-04:00"}, {"id": 1300, "title": "Unprompted", "devlogs_count": 1, "created_at": "2025-06-18T06:54:38.513-04:00"}], "coding_time_seconds": 170806, "coding_time_seconds_today": 0, "balance": "You need to have a pocket watcher badge to view this.", "badges": [], "created_at": "2025-06-16T17:30:05.642-04:00", "updated_at": "2025-07-03T19:24:38.235-04:00", "avatar": "https://avatars.slack-edge.com/2025-06-16/9058871889106_5ac1a15901867c2dc73d_original.jpg", "custom_css": null}, {"id": 2947, "slack_id": "U05V634V6GZ", "display_name": "Will", "bio": null, "projects_count": 0, "devlogs_count": 0, "votes_count": 0, "ships_count": 0, "projects": [], "coding_time_seconds": 20651, "coding_time_seconds_today": 0, "balance": "You need to have a pocket watcher badge to view this.", "badges": [], "created_at": "2025-06-16T17:30:10.191-04:00", "updated_at": "2025-07-03T19:24:38.502-04:00", "avatar": "https://avatars.slack-edge.com/2023-10-02/5992133314225_2559a50de282f9cdc209_original.jpg", "custom_css": null}, {"id": 2948, "slack_id": "U0923BP21PT", "display_name": "Genevieve Hayes", "bio": null, "projects_count": 0, "devlogs_count": 0, "votes_count": 0, "ships_count": 0, "projects": [], "coding_time_seconds": 0, "coding_time_seconds_today": 0, "balance": "You need to have a pocket watcher badge to view this.", "badges": [], "created_at": "2025-06-16T17:30:15.499-04:00", "updated_at": "2025-07-03T19:24:38.761-04:00", "avatar": "https://avatars.slack-edge.com/2025-06-16/9052060018134_a7f3dde673b198bd8a60_original.png", "custom_css": null}, {"id": 2949, "slack_id": "U07873N68ET", "display_name": "Jane", "bio": null, "projects_count": 4, "devlogs_count": 9, "votes_count": 34, "ships_count": 3, "projects": [{"id": 5714, "title": "Pixelate UI", "devlogs_count": 1, "created_at": "2025-07-07T12:04:41.940-04:00"}, {"id": 6667, "title": "Mediblob", "devlogs_count": 5, "created_at": "2025-07-14T23:53:51.371-04:00"}, {"id": 3342, "title": "Landing page template", "devlogs_count": 2, "created_at": "2025-06-23T22:22:49.040-04:00"}, {"id": 1372, "title": "MealHopper", "devlogs_count": 1, "created_at": "2025-06-18T12:34:48.831-04:00"}], "coding_time_seconds": 401656, "coding_time_seconds_today": 0, "balance": "You need to have a pocket watcher badge to view this.", "badges": [{"name": "Maiden Voyage", "text": "you shipped your first project! the journey begins...", "icon": "\ud83d\udea2"}], "created_at": "2025-06-16T17:30:20.690-04:00", "updated_at": "2025-09-10T22:52:37.964-04:00", "avatar": "https://avatars.slack-edge.com/2024-06-18/7293688367282_26be5471950a9c753e7d_original.png", "custom_css": null}, {"id": 2950, "slack_id": "U091J1ASEUE", "display_name": "Vikraman SP", "bio": null, "projects_count": 0, "devlogs_count": 0, "votes_count": 0, "ships_count": 0, "projects": [], "coding_time_seconds": 58523, "coding_time_seconds_today": 0, "balance": "You need to have a pocket watcher badge to view this.", "badges": [], "created_at": "2025-06-16T17:30:23.198-04:00", "updated_at": "2025-07-03T19:24:39.278-04:00", "avatar": "https://secure.gravatar.com/avatar/1d4a58ab78d314336b50b8a0b69c8710.jpg?s=512&d=https%3A%2F%2Fa.slack-edge.com%2Fdf10d%2Fimg%2Favatars%2Fava_0001-512.png", "custom_css": null}, {"id": 2951, "slack_id": "U07A3LL590V", "display_name": "kayla", "bio": null, "projects_count": 0, "devlogs_count": 2, "votes_count": 40, "ships_count": 0, "projects": [], "coding_time_seconds": 93666, "coding_time_seconds_today": 0, "balance": "You need to have a pocket watcher badge to view this.", "badges": [{"name": "Maiden Voyage", "text": "you shipped your first project! the journey begins...", "icon": "\ud83d\udea2"}], "created_at": "2025-06-16T17:30:25.927-04:00", "updated_at": "2025-09-10T22:52:38.018-04:00", "avatar": "https://avatars.slack-edge.com/2024-07-16/7426504132998_f1c439ce18fdaf3cd44b_original.png", "custom_css": null}, {"id": 2952, "slack_id": "U091HT2LPEF", "display_name": "Hugo ARNAL", "bio": null, "projects_count": 0, "devlogs_count": 0, "votes_count": 0, "ships_count": 0, "projects": [], "coding_time_seconds": 0, "coding_time_seconds_today": 0, "balance": "You need to have a pocket watcher badge to view this.", "badges": [], "created_at": "2025-06-16T17:30:27.350-04:00", "updated_at": "2025-07-03T19:24:39.805-04:00", "avatar": "https://avatars.slack-edge.com/2025-06-20/9080194750725_6ec9e894fd6cf744929d_original.jpg", "custom_css": null}, {"id": 2953, "slack_id": "U092D8M9JG0", "display_name": "Prakhar Gupta", "bio": null, "projects_count": 1, "devlogs_count": 3, "votes_count": 2, "ships_count": 1, "projects": [{"id": 2714, "title": "Grubby Project", "devlogs_count": 3, "created_at": "2025-06-21T20:14:23.947-04:00"}], "coding_time_seconds": 23303, "coding_time_seconds_today": 0, "balance": "You need to have a pocket watcher badge to view this.", "badges": [{"name": "Maiden Voyage", "text": "you shipped your first project! the journey begins...", "icon": "\ud83d\udea2"}], "created_at": "2025-06-16T17:30:29.621-04:00", "updated_at": "2025-09-10T22:52:38.064-04:00", "avatar": "https://secure.gravatar.com/avatar/126d84d289f1dfeac506d6c66f1862d1.jpg?s=512&d=https%3A%2F%2Fa.slack-edge.com%2Fdf10d%2Fimg%2Favatars%2Fava_0004-512.png", "custom_css": null}, {"id": 2954, "slack_id": "U07ARGEF0EM", "display_name": "Lermonade", "bio": null, "projects_count": 2, "devlogs_count": 5, "votes_count": 1, "ships_count": 0, "projects": [{"id": 9089, "title": "Space Debris Removal Simulation", "devlogs_count": 1, "created_at": "2025-07-30T14:19:54.477-04:00"}, {"id": 12152, "title": "PVP Update - Minecraft Mod", "devlogs_count": 4, "created_at": "2025-08-23T19:27:21.867-04:00"}], "coding_time_seconds": 98095, "coding_time_seconds_today": 0, "balance": "You need to have a pocket watcher badge to view this.", "badges": [], "created_at": "2025-06-16T17:30:31.454-04:00", "updated_at": "2025-08-12T01:50:09.748-04:00", "avatar": "https://avatars.slack-edge.com/2024-08-02/7506524055239_9077c370fa4f01199d40_original.png", "custom_css": null}, {"id": 2955, "slack_id": "U091R5M03HS", "display_name": "Henrique Ant\u00f4nio Guanais Corneau", "bio": null, "projects_count": 0, "devlogs_count": 0, "votes_count": 0, "ships_count": 0, "projects": [], "coding_time_seconds": 0, "coding_time_seconds_today": 0, "balance": "You need to have a pocket watcher badge to view this.", "badges": [], "created_at": "2025-06-16T17:30:39.551-04:00", "updated_at": "2025-07-03T19:24:40.597-04:00", "avatar": "https://secure.gravatar.com/avatar/374d9283c306d26e06f645f42f73b6fc.jpg?s=512&d=https%3A%2F%2Fa.slack-edge.com%2Fdf10d%2Fimg%2Favatars%2Fava_0013-512.png", "custom_css": null}, {"id": 2956, "slack_id": "U091R67TJCC", "display_name": "ulysses andrade leal", "bio": null, "projects_count": 0, "devlogs_count": 0, "votes_count": 0, "ships_count": 0, "projects": [], "coding_time_seconds": 0, "coding_time_seconds_today": 0, "balance": "You need to have a pocket watcher badge to view this.", "badges": [], "created_at": "2025-06-16T17:30:46.686-04:00", "updated_at": "2025-07-03T19:24:40.869-04:00", "avatar": "https://avatars.slack-edge.com/2025-06-16/9051941184707_4efdde18dc2c9b2c081b_original.png", "custom_css": null}, {"id": 2957, "slack_id": "U0919FPGMNK", "display_name": "7502220014 CRISTIAN ENRIQUE PAEZ VALENCIA ESTUDIANTE ACTIVO", "bio": null, "projects_count": 0, "devlogs_count": 0, "votes_count": 0, "ships_count": 0, "projects": [], "coding_time_seconds": 0, "coding_time_seconds_today": 0, "balance": "You need to have a pocket watcher badge to view this.", "badges": [], "created_at": "2025-06-16T17:30:48.363-04:00", "updated_at": "2025-07-03T19:24:41.136-04:00", "avatar": "https://avatars.slack-edge.com/2025-06-16/9052065468262_15b774abca795a187926_original.png", "custom_css": null}, {"id": 2958, "slack_id": "U091P27FB8V", "display_name": "Joe Hachem", "bio": null, "projects_count": 1, "devlogs_count": 0, "votes_count": 0, "ships_count": 0, "projects": [{"id": 312, "title": "Sofia", "devlogs_count": 0, "created_at": "2025-06-16T17:45:22.968-04:00"}], "coding_time_seconds": 56792, "coding_time_seconds_today": 0, "balance": "You need to have a pocket watcher badge to view this.", "badges": [], "created_at": "2025-06-16T17:30:50.431-04:00", "updated_at": "2025-07-03T19:24:41.407-04:00", "avatar": "https://secure.gravatar.com/avatar/a3ab3ef33fdf0a38ee9e0a21577d1a78.jpg?s=512&d=https%3A%2F%2Fa.slack-edge.com%2Fdf10d%2Fimg%2Favatars%2Fava_0012-512.png", "custom_css": null}, {"id": 2959, "slack_id": "U07DWUN6J1F", "display_name": "Ivy", "bio": null, "projects_count": 0, "devlogs_count": 0, "votes_count": 0, "ships_count": 0, "projects": [], "coding_time_seconds": 2289, "coding_time_seconds_today": 0, "balance": "You need to have a pocket watcher badge to view this.", "badges": [], "created_at": "2025-06-16T17:30:56.146-04:00", "updated_at": "2025-07-03T19:24:41.672-04:00", "avatar": "https://avatars.slack-edge.com/2025-03-07/8571673810900_f3ff4ea0774ddbc14ef0_original.jpg", "custom_css": null}, {"id": 2960, "slack_id": "U091R63NAS0", "display_name": "B", "bio": null, "projects_count": 0, "devlogs_count": 0, "votes_count": 0, "ships_count": 0, "projects": [], "coding_time_seconds": 31271, "coding_time_seconds_today": 0, "balance": "You need to have a pocket watcher badge to view this.", "badges": [], "created_at": "2025-06-16T17:31:09.352-04:00", "updated_at": "2025-07-03T19:24:41.942-04:00", "avatar": "https://secure.gravatar.com/avatar/8b35a1e1600bb5694e91669dda751c2f.jpg?s=512&d=https%3A%2F%2Fa.slack-edge.com%2Fdf10d%2Fimg%2Favatars%2Fava_0022-512.png", "custom_css": null}], "pagination": {"page": 148, "pages": 1192, "count": 23828, "items": 20}}