{"users": [{"id": 2961, "slack_id": "U091P1WQLBX", "display_name": "Vlad", "bio": null, "projects_count": 0, "devlogs_count": 0, "votes_count": 0, "ships_count": 0, "projects": [], "coding_time_seconds": 0, "coding_time_seconds_today": 0, "balance": "You need to have a pocket watcher badge to view this.", "badges": [], "created_at": "2025-06-16T17:31:27.789-04:00", "updated_at": "2025-07-03T19:24:42.205-04:00", "avatar": "https://secure.gravatar.com/avatar/1749438ea59fd27a4b7be1b7d5f3ba6d.jpg?s=512&d=https%3A%2F%2Fa.slack-edge.com%2Fdf10d%2Fimg%2Favatars%2Fava_0026-512.png", "custom_css": null}, {"id": 2962, "slack_id": "U091QRBFP9Q", "display_name": "Alexandre", "bio": null, "projects_count": 0, "devlogs_count": 0, "votes_count": 0, "ships_count": 0, "projects": [], "coding_time_seconds": 0, "coding_time_seconds_today": 0, "balance": "You need to have a pocket watcher badge to view this.", "badges": [], "created_at": "2025-06-16T17:31:33.492-04:00", "updated_at": "2025-07-03T19:24:42.469-04:00", "avatar": "https://secure.gravatar.com/avatar/0688d8376b34a365d0c523ee8e7c180b.jpg?s=512&d=https%3A%2F%2Fa.slack-edge.com%2Fdf10d%2Fimg%2Favatars%2Fava_0026-512.png", "custom_css": null}, {"id": 2963, "slack_id": "U091R6H42H2", "display_name": "Pradnya Kadam", "bio": null, "projects_count": 0, "devlogs_count": 0, "votes_count": 0, "ships_count": 0, "projects": [], "coding_time_seconds": 15230, "coding_time_seconds_today": 0, "balance": "You need to have a pocket watcher badge to view this.", "badges": [], "created_at": "2025-06-16T17:31:42.762-04:00", "updated_at": "2025-07-03T19:24:42.736-04:00", "avatar": "https://avatars.slack-edge.com/2025-06-16/9052068792486_3538627abde27394f61b_original.jpg", "custom_css": null}, {"id": 2964, "slack_id": "U07BZCERTQR", "display_name": "omarkoo", "bio": null, "projects_count": 0, "devlogs_count": 0, "votes_count": 0, "ships_count": 0, "projects": [], "coding_time_seconds": 304217, "coding_time_seconds_today": 0, "balance": "You need to have a pocket watcher badge to view this.", "badges": [], "created_at": "2025-06-16T17:31:43.538-04:00", "updated_at": "2025-08-18T07:49:08.154-04:00", "avatar": "https://avatars.slack-edge.com/2024-12-01/8129999842960_ea51f1b273e3e8b3751d_original.png", "custom_css": null}, {"id": 2965, "slack_id": "U072UTFG02D", "display_name": "Mahit Marri", "bio": null, "projects_count": 2, "devlogs_count": 20, "votes_count": 42, "ships_count": 2, "projects": [{"id": 8517, "title": "Prey&Predator simulation (also a project to help me introduce my self to neural networks)", "devlogs_count": 6, "created_at": "2025-07-27T19:18:26.837-04:00"}, {"id": 2385, "title": "Sand simulator", "devlogs_count": 14, "created_at": "2025-06-20T22:31:04.931-04:00"}], "coding_time_seconds": 189678, "coding_time_seconds_today": 0, "balance": "You need to have a pocket watcher badge to view this.", "badges": [{"name": "Maiden Voyage", "text": "you shipped your first project! the journey begins...", "icon": "\ud83d\udea2"}, {"name": "Yapper I", "text": "Posted 10 comments on devlogs.", "icon": "\ud83d\udcac"}], "created_at": "2025-06-16T17:31:48.485-04:00", "updated_at": "2025-09-10T22:52:38.382-04:00", "avatar": "https://secure.gravatar.com/avatar/17617536d28911de44f7eeb55b2fe3ab.jpg?s=512&d=https%3A%2F%2Fa.slack-edge.com%2Fdf10d%2Fimg%2Favatars%2Fava_0004-512.png", "custom_css": null}, {"id": 2966, "slack_id": "U078ENFLLKX", "display_name": "Mudasir", "bio": null, "projects_count": 1, "devlogs_count": 5, "votes_count": 20, "ships_count": 1, "projects": [{"id": 6615, "title": "JS Tokenizer", "devlogs_count": 5, "created_at": "2025-07-14T14:51:39.135-04:00"}], "coding_time_seconds": 174734, "coding_time_seconds_today": 0, "balance": "You need to have a pocket watcher badge to view this.", "badges": [{"name": "Maiden Voyage", "text": "you shipped your first project! the journey begins...", "icon": "\ud83d\udea2"}], "created_at": "2025-06-16T17:31:50.792-04:00", "updated_at": "2025-09-10T22:52:38.416-04:00", "avatar": "https://avatars.slack-edge.com/2024-07-11/7407541312165_9a134107b0944612810c_original.jpg", "custom_css": null}, {"id": 2967, "slack_id": "U091QRBQ1T4", "display_name": "Cupwalk1", "bio": null, "projects_count": 1, "devlogs_count": 0, "votes_count": 0, "ships_count": 0, "projects": [{"id": 990, "title": "Moto Arena", "devlogs_count": 0, "created_at": "2025-06-17T13:06:22.882-04:00"}], "coding_time_seconds": 41300, "coding_time_seconds_today": 0, "balance": "You need to have a pocket watcher badge to view this.", "badges": [], "created_at": "2025-06-16T17:32:19.204-04:00", "updated_at": "2025-07-03T19:24:43.877-04:00", "avatar": "https://secure.gravatar.com/avatar/7bc2cf38d21d2d718c7d71c432f6f78b.jpg?s=512&d=https%3A%2F%2Fa.slack-edge.com%2Fdf10d%2Fimg%2Favatars%2Fava_0011-512.png", "custom_css": null}, {"id": 2968, "slack_id": "U091HTGE6JX", "display_name": "Lia", "bio": null, "projects_count": 0, "devlogs_count": 0, "votes_count": 0, "ships_count": 0, "projects": [], "coding_time_seconds": 0, "coding_time_seconds_today": 0, "balance": "You need to have a pocket watcher badge to view this.", "badges": [], "created_at": "2025-06-16T17:32:31.360-04:00", "updated_at": "2025-07-03T19:24:44.141-04:00", "avatar": "https://secure.gravatar.com/avatar/8799ab622c24b1e8f0c27b5fc81170f8.jpg?s=512&d=https%3A%2F%2Fa.slack-edge.com%2Fdf10d%2Fimg%2Favatars%2Fava_0018-512.png", "custom_css": null}, {"id": 2969, "slack_id": "U091PG927GC", "display_name": "VI", "bio": null, "projects_count": 2, "devlogs_count": 0, "votes_count": 0, "ships_count": 0, "projects": [{"id": 5602, "title": "CashXChain Website", "devlogs_count": 0, "created_at": "2025-07-06T13:20:32.441-04:00"}, {"id": 10128, "title": "CashXChain WebApp", "devlogs_count": 0, "created_at": "2025-08-04T08:04:26.829-04:00"}], "coding_time_seconds": 93389, "coding_time_seconds_today": 0, "balance": "You need to have a pocket watcher badge to view this.", "badges": [], "created_at": "2025-06-16T17:32:56.141-04:00", "updated_at": "2025-08-04T07:58:18.605-04:00", "avatar": "https://secure.gravatar.com/avatar/9a24eae82041e6c70fe94a1268c7ac43.jpg?s=512&d=https%3A%2F%2Fa.slack-edge.com%2Fdf10d%2Fimg%2Favatars%2Fava_0010-512.png", "custom_css": null}, {"id": 2970, "slack_id": "U07BQH3SHGB", "display_name": "Anant Raj", "bio": null, "projects_count": 0, "devlogs_count": 0, "votes_count": 0, "ships_count": 0, "projects": [], "coding_time_seconds": 39000, "coding_time_seconds_today": 0, "balance": "You need to have a pocket watcher badge to view this.", "badges": [], "created_at": "2025-06-16T17:32:58.162-04:00", "updated_at": "2025-08-06T22:42:40.510-04:00", "avatar": "https://avatars.slack-edge.com/2024-07-09/7392064719158_7db91dc9ff574dfc8518_original.png", "custom_css": null}, {"id": 2971, "slack_id": "U091R6LG1NY", "display_name": "Dennis", "bio": null, "projects_count": 1, "devlogs_count": 7, "votes_count": 3, "ships_count": 1, "projects": [{"id": 307, "title": "Boids", "devlogs_count": 7, "created_at": "2025-06-16T17:38:17.929-04:00"}], "coding_time_seconds": 78708, "coding_time_seconds_today": 0, "balance": "You need to have a pocket watcher badge to view this.", "badges": [{"name": "Maiden Voyage", "text": "you shipped your first project! the journey begins...", "icon": "\ud83d\udea2"}], "created_at": "2025-06-16T17:33:10.248-04:00", "updated_at": "2025-09-10T22:52:38.595-04:00", "avatar": "https://avatars.slack-edge.com/2025-06-16/9059239429892_ded4c310235f7f22761c_original.jpg", "custom_css": null}, {"id": 2972, "slack_id": "U0923C1K7DX", "display_name": "Trevon", "bio": null, "projects_count": 0, "devlogs_count": 0, "votes_count": 0, "ships_count": 0, "projects": [], "coding_time_seconds": 94948, "coding_time_seconds_today": 0, "balance": "You need to have a pocket watcher badge to view this.", "badges": [], "created_at": "2025-06-16T17:33:11.288-04:00", "updated_at": "2025-07-03T19:24:45.262-04:00", "avatar": "https://secure.gravatar.com/avatar/546d4c7b6b5a0307b5a3e1620e072b30.jpg?s=512&d=https%3A%2F%2Fa.slack-edge.com%2Fdf10d%2Fimg%2Favatars%2Fava_0019-512.png", "custom_css": null}, {"id": 2973, "slack_id": "U092D8WN188", "display_name": "William", "bio": null, "projects_count": 0, "devlogs_count": 0, "votes_count": 0, "ships_count": 0, "projects": [], "coding_time_seconds": 0, "coding_time_seconds_today": 0, "balance": "You need to have a pocket watcher badge to view this.", "badges": [], "created_at": "2025-06-16T17:33:33.228-04:00", "updated_at": "2025-07-03T19:24:45.532-04:00", "avatar": "https://secure.gravatar.com/avatar/f69f3c1001c041858107b5dbc2d6a8df.jpg?s=512&d=https%3A%2F%2Fa.slack-edge.com%2Fdf10d%2Fimg%2Favatars%2Fava_0003-512.png", "custom_css": null}, {"id": 2974, "slack_id": "U06CHEJ7P6U", "display_name": "Aiden", "bio": null, "projects_count": 0, "devlogs_count": 0, "votes_count": 0, "ships_count": 0, "projects": [], "coding_time_seconds": 0, "coding_time_seconds_today": 0, "balance": "You need to have a pocket watcher badge to view this.", "badges": [], "created_at": "2025-06-16T17:33:38.321-04:00", "updated_at": "2025-07-03T19:24:45.794-04:00", "avatar": "https://avatars.slack-edge.com/2024-12-20/8205452494499_c454c57fc4ccad80ecee_original.png", "custom_css": null}, {"id": 2975, "slack_id": "U091P291G7P", "display_name": "Javier-lz", "bio": null, "projects_count": 0, "devlogs_count": 0, "votes_count": 0, "ships_count": 0, "projects": [], "coding_time_seconds": 0, "coding_time_seconds_today": 0, "balance": "You need to have a pocket watcher badge to view this.", "badges": [], "created_at": "2025-06-16T17:33:44.598-04:00", "updated_at": "2025-07-03T19:24:46.051-04:00", "avatar": "https://secure.gravatar.com/avatar/c68f3b95a5aa43b71f6c40007d4bd79d.jpg?s=512&d=https%3A%2F%2Fa.slack-edge.com%2Fdf10d%2Fimg%2Favatars%2Fava_0014-512.png", "custom_css": null}, {"id": 2976, "slack_id": "U07A46MN684", "display_name": "Denis 5959", "bio": null, "projects_count": 1, "devlogs_count": 0, "votes_count": 2, "ships_count": 0, "projects": [{"id": 10062, "title": "collatz sequence visualizer", "devlogs_count": 0, "created_at": "2025-08-03T19:11:51.327-04:00"}], "coding_time_seconds": 804, "coding_time_seconds_today": 0, "balance": "You need to have a pocket watcher badge to view this.", "badges": [], "created_at": "2025-06-16T17:34:27.406-04:00", "updated_at": "2025-07-03T19:24:46.311-04:00", "avatar": "https://avatars.slack-edge.com/2025-05-25/8951317031602_d54f9e4e399ded2e402b_original.jpg", "custom_css": null}, {"id": 2977, "slack_id": "U078VG9JDH9", "display_name": "Annabella Du", "bio": null, "projects_count": 1, "devlogs_count": 0, "votes_count": 0, "ships_count": 0, "projects": [{"id": 925, "title": "2D Platformer Game", "devlogs_count": 0, "created_at": "2025-06-17T11:26:03.892-04:00"}], "coding_time_seconds": 473, "coding_time_seconds_today": 0, "balance": "You need to have a pocket watcher badge to view this.", "badges": [], "created_at": "2025-06-16T17:34:31.393-04:00", "updated_at": "2025-07-03T19:24:46.583-04:00", "avatar": "https://secure.gravatar.com/avatar/b2c68ab448c2d514712f0b7bd18d5b8a.jpg?s=512&d=https%3A%2F%2Fa.slack-edge.com%2Fdf10d%2Fimg%2Favatars%2Fava_0024-512.png", "custom_css": null}, {"id": 2978, "slack_id": "U0923CEDLU9", "display_name": "Joseph Varghese", "bio": null, "projects_count": 0, "devlogs_count": 0, "votes_count": 0, "ships_count": 0, "projects": [], "coding_time_seconds": 652, "coding_time_seconds_today": 0, "balance": "You need to have a pocket watcher badge to view this.", "badges": [], "created_at": "2025-06-16T17:34:41.438-04:00", "updated_at": "2025-07-03T19:24:46.864-04:00", "avatar": "https://avatars.slack-edge.com/2025-06-16/9057100836677_d52a7d64e21371d87d27_original.jpg", "custom_css": null}, {"id": 2979, "slack_id": "U07MJ75J4PK", "display_name": "basil_squared", "bio": null, "projects_count": 3, "devlogs_count": 18, "votes_count": 19, "ships_count": 1, "projects": [{"id": 11056, "title": "Overclock API", "devlogs_count": 0, "created_at": "2025-08-12T19:46:11.867-04:00"}, {"id": 13246, "title": "Despawner", "devlogs_count": 1, "created_at": "2025-09-12T12:45:23.149-04:00"}, {"id": 314, "title": "Charcuterie", "devlogs_count": 17, "created_at": "2025-06-16T17:53:39.082-04:00"}], "coding_time_seconds": 315260, "coding_time_seconds_today": 0, "balance": "You need to have a pocket watcher badge to view this.", "badges": [{"name": "Maiden Voyage", "text": "you shipped your first project! the journey begins...", "icon": "\ud83d\udea2"}], "created_at": "2025-06-16T17:34:44.444-04:00", "updated_at": "2025-09-10T22:52:38.803-04:00", "avatar": "https://secure.gravatar.com/avatar/6e8ff5627d2bb4af0aaf5b6633139f99.jpg?s=512&d=https%3A%2F%2Fa.slack-edge.com%2Fdf10d%2Fimg%2Favatars%2Fava_0013-512.png", "custom_css": null}, {"id": 2980, "slack_id": "U06VCPU0JSG", "display_name": "Bob", "bio": null, "projects_count": 0, "devlogs_count": 0, "votes_count": 0, "ships_count": 0, "projects": [], "coding_time_seconds": 58528, "coding_time_seconds_today": 0, "balance": "You need to have a pocket watcher badge to view this.", "badges": [], "created_at": "2025-06-16T17:34:46.950-04:00", "updated_at": "2025-07-03T19:24:47.451-04:00", "avatar": "https://avatars.slack-edge.com/2024-04-20/6996346305106_9df953649627a40b8802_original.png", "custom_css": null}], "pagination": {"page": 149, "pages": 1192, "count": 23828, "items": 20}}