{"users": [{"id": 281, "slack_id": "U083L25T929", "display_name": "Rikhav", "bio": null, "projects_count": 2, "devlogs_count": 5, "votes_count": 0, "ships_count": 0, "projects": [{"id": 3332, "title": "Gear Generator", "devlogs_count": 1, "created_at": "2025-06-23T21:25:42.632-04:00"}, {"id": 4217, "title": "Quizzier", "devlogs_count": 1, "created_at": "2025-06-28T08:48:11.736-04:00"}], "coding_time_seconds": 233323, "coding_time_seconds_today": 0, "balance": "You need to have a pocket watcher badge to view this.", "badges": [], "created_at": "2025-06-16T10:17:51.113-04:00", "updated_at": "2025-08-13T12:16:29.326-04:00", "avatar": "https://avatars.slack-edge.com/2025-06-01/8983237320498_d1d17899da82e9ece44b_original.png", "custom_css": null}, {"id": 282, "slack_id": "U08ST4CEXCN", "display_name": "Ben Markendorf", "bio": null, "projects_count": 3, "devlogs_count": 5, "votes_count": 0, "ships_count": 0, "projects": [{"id": 1015, "title": "GhostPen", "devlogs_count": 4, "created_at": "2025-06-17T13:43:01.214-04:00"}, {"id": 3722, "title": "imageterm", "devlogs_count": 1, "created_at": "2025-06-25T11:29:55.765-04:00"}, {"id": 1693, "title": "tarah", "devlogs_count": 0, "created_at": "2025-06-19T03:12:24.889-04:00"}], "coding_time_seconds": 148244, "coding_time_seconds_today": 0, "balance": "You need to have a pocket watcher badge to view this.", "badges": [], "created_at": "2025-06-16T10:19:38.015-04:00", "updated_at": "2025-08-12T14:24:15.016-04:00", "avatar": "https://avatars.slack-edge.com/2025-06-29/9107263112951_ab75ddc595d6616ad369_original.png", "custom_css": null}, {"id": 283, "slack_id": "U09211VC1AM", "display_name": "meow", "bio": null, "projects_count": 0, "devlogs_count": 0, "votes_count": 0, "ships_count": 0, "projects": [], "coding_time_seconds": 0, "coding_time_seconds_today": 0, "balance": "You need to have a pocket watcher badge to view this.", "badges": [], "created_at": "2025-06-16T10:21:20.465-04:00", "updated_at": "2025-07-03T19:12:17.285-04:00", "avatar": "https://secure.gravatar.com/avatar/f37521f4989fb8ae4db39514d7093c1d.jpg?s=512&d=https%3A%2F%2Fa.slack-edge.com%2Fdf10d%2Fimg%2Favatars%2Fava_0014-512.png", "custom_css": null}, {"id": 284, "slack_id": "U088VHAT5B8", "display_name": "Negm", "bio": null, "projects_count": 0, "devlogs_count": 0, "votes_count": 0, "ships_count": 0, "projects": [], "coding_time_seconds": 12246, "coding_time_seconds_today": 0, "balance": "You need to have a pocket watcher badge to view this.", "badges": [], "created_at": "2025-06-16T10:21:41.419-04:00", "updated_at": "2025-07-03T19:12:17.551-04:00", "avatar": "https://avatars.slack-edge.com/2025-06-19/9065289940838_1cf7ee9a714dcd8c07c8_original.jpg", "custom_css": null}, {"id": 285, "slack_id": "U091C2KTH46", "display_name": "omar mahmoud", "bio": null, "projects_count": 1, "devlogs_count": 0, "votes_count": 0, "ships_count": 0, "projects": [{"id": 3601, "title": "Pizza_Club", "devlogs_count": 0, "created_at": "2025-06-24T22:10:03.631-04:00"}], "coding_time_seconds": 23494, "coding_time_seconds_today": 0, "balance": "You need to have a pocket watcher badge to view this.", "badges": [], "created_at": "2025-06-16T10:23:05.514-04:00", "updated_at": "2025-07-03T19:12:17.824-04:00", "avatar": "https://secure.gravatar.com/avatar/8b4a32ae64049d6042c7210cb09c2161.jpg?s=512&d=https%3A%2F%2Fa.slack-edge.com%2Fdf10d%2Fimg%2Favatars%2Fava_0024-512.png", "custom_css": null}, {"id": 286, "slack_id": "U04QH1TTMBP", "display_name": "graham", "bio": null, "projects_count": 0, "devlogs_count": 0, "votes_count": 0, "ships_count": 0, "projects": [], "coding_time_seconds": 315015, "coding_time_seconds_today": 0, "balance": "You need to have a pocket watcher badge to view this.", "badges": [], "created_at": "2025-06-16T10:24:12.740-04:00", "updated_at": "2025-07-03T19:12:18.152-04:00", "avatar": "https://avatars.slack-edge.com/2025-04-21/8794581751969_f8ec5148f2f6c81923c9_original.png", "custom_css": null}, {"id": 287, "slack_id": "U08AX9JC695", "display_name": "Tarek Ismail", "bio": null, "projects_count": 0, "devlogs_count": 0, "votes_count": 0, "ships_count": 0, "projects": [], "coding_time_seconds": 0, "coding_time_seconds_today": 0, "balance": "You need to have a pocket watcher badge to view this.", "badges": [], "created_at": "2025-06-16T10:26:50.728-04:00", "updated_at": "2025-07-03T19:12:18.420-04:00", "avatar": "https://avatars.slack-edge.com/2025-02-01/8385855737362_3c846e3a270e3c69afb1_original.png", "custom_css": null}, {"id": 288, "slack_id": "U091LR0K3S9", "display_name": "kalana", "bio": null, "projects_count": 0, "devlogs_count": 0, "votes_count": 0, "ships_count": 0, "projects": [], "coding_time_seconds": 0, "coding_time_seconds_today": 0, "balance": "You need to have a pocket watcher badge to view this.", "badges": [], "created_at": "2025-06-16T10:40:00.009-04:00", "updated_at": "2025-07-03T19:12:18.693-04:00", "avatar": "https://secure.gravatar.com/avatar/45c023e68b693b2290ced5c6467db1de.jpg?s=512&d=https%3A%2F%2Fa.slack-edge.com%2Fdf10d%2Fimg%2Favatars%2Fava_0003-512.png", "custom_css": null}, {"id": 289, "slack_id": "U092158TAD7", "display_name": "am.usman", "bio": null, "projects_count": 0, "devlogs_count": 0, "votes_count": 0, "ships_count": 0, "projects": [], "coding_time_seconds": 0, "coding_time_seconds_today": 0, "balance": "You need to have a pocket watcher badge to view this.", "badges": [], "created_at": "2025-06-16T10:45:49.318-04:00", "updated_at": "2025-07-03T19:12:18.961-04:00", "avatar": "https://avatars.slack-edge.com/2025-06-16/9057136264180_1a22f9f239a93922b0a1_original.jpg", "custom_css": null}, {"id": 290, "slack_id": "U079YUX7220", "display_name": "Lenny", "bio": "", "projects_count": 0, "devlogs_count": 0, "votes_count": 1, "ships_count": 0, "projects": [], "coding_time_seconds": 773, "coding_time_seconds_today": 0, "balance": "You need to have a pocket watcher badge to view this.", "badges": [], "created_at": "2025-06-16T10:46:30.867-04:00", "updated_at": "2025-08-18T14:00:47.684-04:00", "avatar": "https://avatars.slack-edge.com/2025-08-18/9381228340913_bc7628ff7d4cfa861865_original.jpg", "custom_css": null}, {"id": 291, "slack_id": "U091NJUEN82", "display_name": "Bergschaf", "bio": null, "projects_count": 0, "devlogs_count": 0, "votes_count": 0, "ships_count": 0, "projects": [], "coding_time_seconds": 25238, "coding_time_seconds_today": 0, "balance": "You need to have a pocket watcher badge to view this.", "badges": [], "created_at": "2025-06-16T10:46:31.124-04:00", "updated_at": "2025-07-03T19:12:19.496-04:00", "avatar": "https://secure.gravatar.com/avatar/e20d4b26d72446d75c8d8a39beebadda.jpg?s=512&d=https%3A%2F%2Fa.slack-edge.com%2Fdf10d%2Fimg%2Favatars%2Fava_0016-512.png", "custom_css": null}, {"id": 292, "slack_id": "U091LS2TL8M", "display_name": "glutesha", "bio": null, "projects_count": 5, "devlogs_count": 34, "votes_count": 38, "ships_count": 5, "projects": [{"id": 6472, "title": "BitBusy", "devlogs_count": 11, "created_at": "2025-07-13T16:16:33.497-04:00"}, {"id": 10560, "title": "Picomorse", "devlogs_count": 4, "created_at": "2025-08-08T06:25:34.251-04:00"}, {"id": 101, "title": "glutesha.me", "devlogs_count": 1, "created_at": "2025-06-16T13:21:49.527-04:00"}, {"id": 5588, "title": "SteadyHaystack", "devlogs_count": 4, "created_at": "2025-07-06T11:50:53.984-04:00"}, {"id": 61, "title": "BitLace", "devlogs_count": 14, "created_at": "2025-06-16T11:11:28.014-04:00"}], "coding_time_seconds": 323578, "coding_time_seconds_today": 0, "balance": "You need to have a pocket watcher badge to view this.", "badges": [{"name": "Maiden Voyage", "text": "you shipped your first project! the journey begins...", "icon": "\ud83d\udea2"}, {"name": "Ballot Stuffer", "text": "vote 100 times.", "icon": "https://summer.hackclub.com/assets/i_voted-bf851b48.png"}], "created_at": "2025-06-16T10:46:34.680-04:00", "updated_at": "2025-09-10T22:51:15.756-04:00", "avatar": "https://avatars.slack-edge.com/2025-06-16/9057146973028_abb221fbe3eb88580752_original.png", "custom_css": null}, {"id": 293, "slack_id": "U091NJTDJ02", "display_name": "Giri", "bio": null, "projects_count": 0, "devlogs_count": 0, "votes_count": 0, "ships_count": 0, "projects": [], "coding_time_seconds": 0, "coding_time_seconds_today": 0, "balance": "You need to have a pocket watcher badge to view this.", "badges": [], "created_at": "2025-06-16T10:46:35.698-04:00", "updated_at": "2025-07-03T19:12:20.039-04:00", "avatar": "https://secure.gravatar.com/avatar/84413233cd2668ec2c488fc25adefc4c.jpg?s=512&d=https%3A%2F%2Fa.slack-edge.com%2Fdf10d%2Fimg%2Favatars%2Fava_0003-512.png", "custom_css": null}, {"id": 294, "slack_id": "U0823F7Q4QK", "display_name": "udontur", "bio": null, "projects_count": 4, "devlogs_count": 14, "votes_count": 16, "ships_count": 2, "projects": [{"id": 6569, "title": "Generic Mock Paper Generator", "devlogs_count": 1, "created_at": "2025-07-14T10:00:22.127-04:00"}, {"id": 6875, "title": "nixos", "devlogs_count": 1, "created_at": "2025-07-17T03:19:50.975-04:00"}, {"id": 2454, "title": "LeetCode Dark Fix", "devlogs_count": 4, "created_at": "2025-06-21T04:21:54.439-04:00"}, {"id": 2574, "title": "Umpire", "devlogs_count": 8, "created_at": "2025-06-21T11:02:10.461-04:00"}], "coding_time_seconds": 168538, "coding_time_seconds_today": 0, "balance": "You need to have a pocket watcher badge to view this.", "badges": [{"name": "Maiden Voyage", "text": "you shipped your first project! the journey begins...", "icon": "\ud83d\udea2"}], "created_at": "2025-06-16T10:46:37.689-04:00", "updated_at": "2025-09-10T22:51:15.814-04:00", "avatar": "https://avatars.slack-edge.com/2024-11-23/8067320311494_a073e3a563acf97c03f8_original.png", "custom_css": null}, {"id": 295, "slack_id": "U091NJUEE9G", "display_name": "Samir", "bio": null, "projects_count": 0, "devlogs_count": 0, "votes_count": 0, "ships_count": 0, "projects": [], "coding_time_seconds": 76373, "coding_time_seconds_today": 0, "balance": "You need to have a pocket watcher badge to view this.", "badges": [], "created_at": "2025-06-16T10:46:50.247-04:00", "updated_at": "2025-07-03T19:12:20.611-04:00", "avatar": "https://secure.gravatar.com/avatar/aef01272d81e9b0280483bbd22fe5829.jpg?s=512&d=https%3A%2F%2Fa.slack-edge.com%2Fdf10d%2Fimg%2Favatars%2Fava_0002-512.png", "custom_css": null}, {"id": 296, "slack_id": "U091P3A80PN", "display_name": "Happihound", "bio": null, "projects_count": 0, "devlogs_count": 0, "votes_count": 0, "ships_count": 0, "projects": [], "coding_time_seconds": 0, "coding_time_seconds_today": 0, "balance": "You need to have a pocket watcher badge to view this.", "badges": [], "created_at": "2025-06-16T10:46:50.248-04:00", "updated_at": "2025-07-03T19:12:20.881-04:00", "avatar": "https://secure.gravatar.com/avatar/3df36b94a489a6be0d85023eec02a1ad.jpg?s=512&d=https%3A%2F%2Fa.slack-edge.com%2Fdf10d%2Fimg%2Favatars%2Fava_0023-512.png", "custom_css": null}, {"id": 297, "slack_id": "U0876LJRAMT", "display_name": "jar", "bio": null, "projects_count": 0, "devlogs_count": 5, "votes_count": 14, "ships_count": 0, "projects": [], "coding_time_seconds": 275752, "coding_time_seconds_today": 0, "balance": "You need to have a pocket watcher badge to view this.", "badges": [{"name": "Maiden Voyage", "text": "you shipped your first project! the journey begins...", "icon": "\ud83d\udea2"}], "created_at": "2025-06-16T10:46:54.120-04:00", "updated_at": "2025-09-10T22:51:15.887-04:00", "avatar": "https://avatars.slack-edge.com/2025-06-24/9080655533319_b61ef68546322116ff8d_original.jpg", "custom_css": null}, {"id": 298, "slack_id": "U091FNWDYA2", "display_name": "Anton", "bio": null, "projects_count": 0, "devlogs_count": 0, "votes_count": 0, "ships_count": 0, "projects": [], "coding_time_seconds": 12431, "coding_time_seconds_today": 0, "balance": "You need to have a pocket watcher badge to view this.", "badges": [], "created_at": "2025-06-16T10:47:18.246-04:00", "updated_at": "2025-07-03T19:12:21.424-04:00", "avatar": "https://secure.gravatar.com/avatar/3d38a509d96e1f0e77f5e010825fe9b8.jpg?s=512&d=https%3A%2F%2Fa.slack-edge.com%2Fdf10d%2Fimg%2Favatars%2Fava_0006-512.png", "custom_css": null}, {"id": 299, "slack_id": "U082MJNT5U2", "display_name": "Ethan", "bio": null, "projects_count": 7, "devlogs_count": 34, "votes_count": 42, "ships_count": 5, "projects": [{"id": 6378, "title": "API Tester (Remix)", "devlogs_count": 1, "created_at": "2025-07-12T22:14:41.538-04:00"}, {"id": 13317, "title": "birthday ysws", "devlogs_count": 7, "created_at": "2025-09-13T22:43:08.344-04:00"}, {"id": 9139, "title": "Theme System Tracker", "devlogs_count": 10, "created_at": "2025-07-30T18:29:25.963-04:00"}, {"id": 6438, "title": "Hackclub Eso Lang", "devlogs_count": 10, "created_at": "2025-07-13T09:52:56.386-04:00"}, {"id": 3535, "title": "Time Tracker v2", "devlogs_count": 1, "created_at": "2025-06-24T15:43:55.673-04:00"}, {"id": 1886, "title": "Reactive", "devlogs_count": 2, "created_at": "2025-06-19T14:27:55.372-04:00"}, {"id": 87, "title": "Swirl", "devlogs_count": 3, "created_at": "2025-06-16T12:29:56.905-04:00"}], "coding_time_seconds": 206227, "coding_time_seconds_today": 0, "balance": "You need to have a pocket watcher badge to view this.", "badges": [{"name": "Maiden Voyage", "text": "you shipped your first project! the journey begins...", "icon": "\ud83d\udea2"}], "created_at": "2025-06-16T10:47:31.438-04:00", "updated_at": "2025-09-23T16:11:44.106-04:00", "avatar": "https://secure.gravatar.com/avatar/1772ea4a26ff02385e556b759f6eb7be.jpg?s=512&d=https%3A%2F%2Fa.slack-edge.com%2Fdf10d%2Fimg%2Favatars%2Fava_0014-512.png", "custom_css": null}, {"id": 300, "slack_id": "U06344WSZUL", "display_name": "Scalar", "bio": null, "projects_count": 0, "devlogs_count": 1, "votes_count": 1, "ships_count": 0, "projects": [], "coding_time_seconds": 235180, "coding_time_seconds_today": 0, "balance": "You need to have a pocket watcher badge to view this.", "badges": [], "created_at": "2025-06-16T10:47:35.314-04:00", "updated_at": "2025-08-31T02:18:28.122-04:00", "avatar": "https://avatars.slack-edge.com/2025-07-29/9254154965591_68b3514eabf965ab2b1c_original.png", "custom_css": null}], "pagination": {"page": 15, "pages": 1192, "count": 23827, "items": 20}}