{"users": [{"id": 2981, "slack_id": "U07BDUYDKN1", "display_name": "Nia", "bio": null, "projects_count": 4, "devlogs_count": 27, "votes_count": 78, "ships_count": 2, "projects": [{"id": 2743, "title": "Image Encoder", "devlogs_count": 2, "created_at": "2025-06-21T23:38:43.246-04:00"}, {"id": 3048, "title": "Alien Planet", "devlogs_count": 1, "created_at": "2025-06-22T23:07:40.777-04:00"}, {"id": 368, "title": "Personal Website", "devlogs_count": 18, "created_at": "2025-06-16T19:22:42.570-04:00"}, {"id": 10316, "title": "My Random Dog", "devlogs_count": 6, "created_at": "2025-08-05T20:46:33.329-04:00"}], "coding_time_seconds": 153385, "coding_time_seconds_today": 0, "balance": "You need to have a pocket watcher badge to view this.", "badges": [{"name": "Maiden Voyage", "text": "you shipped your first project! the journey begins...", "icon": "\ud83d\udea2"}], "created_at": "2025-06-16T17:34:53.455-04:00", "updated_at": "2025-09-10T22:52:38.868-04:00", "avatar": "https://avatars.slack-edge.com/2025-07-08/9179348633873_6202220d1c86f302f8e2_original.jpg", "custom_css": null}, {"id": 2982, "slack_id": "U07F9BJDYP3", "display_name": "Rafi13082007", "bio": null, "projects_count": 0, "devlogs_count": 0, "votes_count": 0, "ships_count": 0, "projects": [], "coding_time_seconds": 0, "coding_time_seconds_today": 0, "balance": "You need to have a pocket watcher badge to view this.", "badges": [], "created_at": "2025-06-16T17:34:57.837-04:00", "updated_at": "2025-07-03T19:24:48.038-04:00", "avatar": "https://avatars.slack-edge.com/2024-08-15/7595194885249_11d43f3712077feb8c5c_original.png", "custom_css": null}, {"id": 2983, "slack_id": "U091GN1JM0W", "display_name": "Mikkel Maae \u00d8stergaard", "bio": null, "projects_count": 0, "devlogs_count": 0, "votes_count": 0, "ships_count": 0, "projects": [], "coding_time_seconds": 0, "coding_time_seconds_today": 0, "balance": "You need to have a pocket watcher badge to view this.", "badges": [], "created_at": "2025-06-16T17:35:23.363-04:00", "updated_at": "2025-07-03T19:24:48.306-04:00", "avatar": "https://avatars.slack-edge.com/2025-06-16/9057103823829_e8c0c298d982b58b2ad0_original.png", "custom_css": null}, {"id": 2984, "slack_id": "U07PKLR7PQ8", "display_name": "ashton", "bio": null, "projects_count": 0, "devlogs_count": 0, "votes_count": 0, "ships_count": 0, "projects": [], "coding_time_seconds": 0, "coding_time_seconds_today": 0, "balance": "You need to have a pocket watcher badge to view this.", "badges": [], "created_at": "2025-06-16T17:35:23.515-04:00", "updated_at": "2025-07-03T19:24:48.575-04:00", "avatar": "https://avatars.slack-edge.com/2024-09-27/7777652045607_c6e321bb05ed88873b12_original.png", "custom_css": null}, {"id": 2985, "slack_id": "U091P2NTPPX", "display_name": "David Cai", "bio": null, "projects_count": 0, "devlogs_count": 0, "votes_count": 0, "ships_count": 0, "projects": [], "coding_time_seconds": 26227, "coding_time_seconds_today": 0, "balance": "You need to have a pocket watcher badge to view this.", "badges": [], "created_at": "2025-06-16T17:35:33.213-04:00", "updated_at": "2025-07-03T19:24:48.843-04:00", "avatar": "https://avatars.slack-edge.com/2025-06-16/9051961182899_2c46d1e06bcc047975bc_original.png", "custom_css": null}, {"id": 2986, "slack_id": "U07JMGC0VE0", "display_name": "Ron Kan", "bio": null, "projects_count": 0, "devlogs_count": 0, "votes_count": 1, "ships_count": 0, "projects": [], "coding_time_seconds": 58372, "coding_time_seconds_today": 0, "balance": "You need to have a pocket watcher badge to view this.", "badges": [], "created_at": "2025-06-16T17:35:42.494-04:00", "updated_at": "2025-08-13T15:31:48.315-04:00", "avatar": "https://avatars.slack-edge.com/2024-08-26/7644514884593_ec818a9d6bcaeff01352_original.png", "custom_css": null}, {"id": 2987, "slack_id": "U07E4EXGR6W", "display_name": "Louis van Liefland", "bio": null, "projects_count": 0, "devlogs_count": 0, "votes_count": 0, "ships_count": 0, "projects": [], "coding_time_seconds": 0, "coding_time_seconds_today": 0, "balance": "You need to have a pocket watcher badge to view this.", "badges": [], "created_at": "2025-06-16T17:36:14.259-04:00", "updated_at": "2025-07-03T19:24:49.444-04:00", "avatar": "https://avatars.slack-edge.com/2024-07-27/7487448015826_4251c95db3c7527fa4e3_original.jpg", "custom_css": null}, {"id": 2988, "slack_id": "U092D9D5F88", "display_name": "peerson Jitty", "bio": null, "projects_count": 0, "devlogs_count": 0, "votes_count": 0, "ships_count": 0, "projects": [], "coding_time_seconds": 254, "coding_time_seconds_today": 0, "balance": "You need to have a pocket watcher badge to view this.", "badges": [], "created_at": "2025-06-16T17:36:20.420-04:00", "updated_at": "2025-07-03T19:24:49.778-04:00", "avatar": "https://secure.gravatar.com/avatar/62d1f2ba32a2c7e6bb3d9da356a84c70.jpg?s=512&d=https%3A%2F%2Fa.slack-edge.com%2Fdf10d%2Fimg%2Favatars%2Fava_0006-512.png", "custom_css": null}, {"id": 2989, "slack_id": "U091P2METEH", "display_name": "mSarheed", "bio": null, "projects_count": 0, "devlogs_count": 0, "votes_count": 0, "ships_count": 0, "projects": [], "coding_time_seconds": 0, "coding_time_seconds_today": 0, "balance": "You need to have a pocket watcher badge to view this.", "badges": [], "created_at": "2025-06-16T17:36:33.213-04:00", "updated_at": "2025-07-03T19:24:50.043-04:00", "avatar": "https://secure.gravatar.com/avatar/aed0c29719d3945bd04602d700306e5a.jpg?s=512&d=https%3A%2F%2Fa.slack-edge.com%2Fdf10d%2Fimg%2Favatars%2Fava_0024-512.png", "custom_css": null}, {"id": 2990, "slack_id": "U091J1KTKPY", "display_name": "Rushil Dhingra", "bio": null, "projects_count": 0, "devlogs_count": 0, "votes_count": 0, "ships_count": 0, "projects": [], "coding_time_seconds": 0, "coding_time_seconds_today": 0, "balance": "You need to have a pocket watcher badge to view this.", "badges": [], "created_at": "2025-06-16T17:37:14.262-04:00", "updated_at": "2025-07-03T19:24:50.305-04:00", "avatar": "https://secure.gravatar.com/avatar/802ff3c33af10c8d2b895bc31961e46d.jpg?s=512&d=https%3A%2F%2Fa.slack-edge.com%2Fdf10d%2Fimg%2Favatars%2Fava_0023-512.png", "custom_css": null}, {"id": 2991, "slack_id": "U079RUHBC5P", "display_name": "Baron", "bio": null, "projects_count": 0, "devlogs_count": 0, "votes_count": 0, "ships_count": 0, "projects": [], "coding_time_seconds": 506669, "coding_time_seconds_today": 0, "balance": "You need to have a pocket watcher badge to view this.", "badges": [], "created_at": "2025-06-16T17:37:46.731-04:00", "updated_at": "2025-07-03T19:24:50.565-04:00", "avatar": "https://avatars.slack-edge.com/2024-06-23/7304745668903_22a6bfc09428f90d3cb6_original.jpg", "custom_css": null}, {"id": 2992, "slack_id": "U0919GLLHTR", "display_name": "Ture Hansson", "bio": null, "projects_count": 1, "devlogs_count": 0, "votes_count": 0, "ships_count": 0, "projects": [{"id": 1156, "title": "Arduino ESP Smarthome", "devlogs_count": 0, "created_at": "2025-06-17T18:45:30.470-04:00"}], "coding_time_seconds": 19480, "coding_time_seconds_today": 0, "balance": "You need to have a pocket watcher badge to view this.", "badges": [], "created_at": "2025-06-16T17:37:53.884-04:00", "updated_at": "2025-07-03T19:24:50.829-04:00", "avatar": "https://avatars.slack-edge.com/2025-06-16/9071448026401_1f09b8bf5138f23172ee_original.gif", "custom_css": null}, {"id": 2993, "slack_id": "U0919GKBM55", "display_name": "Ayoub Kassraoui", "bio": null, "projects_count": 0, "devlogs_count": 0, "votes_count": 0, "ships_count": 0, "projects": [], "coding_time_seconds": 0, "coding_time_seconds_today": 0, "balance": "You need to have a pocket watcher badge to view this.", "badges": [], "created_at": "2025-06-16T17:37:57.864-04:00", "updated_at": "2025-07-03T19:24:51.085-04:00", "avatar": "https://secure.gravatar.com/avatar/de113daab2cbaeef785754e2c9d96287.jpg?s=512&d=https%3A%2F%2Fa.slack-edge.com%2Fdf10d%2Fimg%2Favatars%2Fava_0003-512.png", "custom_css": null}, {"id": 2994, "slack_id": "U07UJ245HUP", "display_name": "domka", "bio": null, "projects_count": 2, "devlogs_count": 8, "votes_count": 18, "ships_count": 1, "projects": [{"id": 6084, "title": "neighborville", "devlogs_count": 8, "created_at": "2025-07-10T12:57:28.356-04:00"}, {"id": 6330, "title": "packer", "devlogs_count": 0, "created_at": "2025-07-12T11:21:46.840-04:00"}], "coding_time_seconds": 305188, "coding_time_seconds_today": 0, "balance": "You need to have a pocket watcher badge to view this.", "badges": [{"name": "Maiden Voyage", "text": "you shipped your first project! the journey begins...", "icon": "\ud83d\udea2"}], "created_at": "2025-06-16T17:38:06.905-04:00", "updated_at": "2025-09-10T22:52:39.389-04:00", "avatar": "https://secure.gravatar.com/avatar/1515b9f2a9778b33739f57f4f27b4f4f.jpg?s=512&d=https%3A%2F%2Fa.slack-edge.com%2Fdf10d%2Fimg%2Favatars%2Fava_0001-512.png", "custom_css": null}, {"id": 2995, "slack_id": "U0923CTNY49", "display_name": "twig", "bio": null, "projects_count": 0, "devlogs_count": 0, "votes_count": 0, "ships_count": 0, "projects": [], "coding_time_seconds": 0, "coding_time_seconds_today": 0, "balance": "You need to have a pocket watcher badge to view this.", "badges": [], "created_at": "2025-06-16T17:38:11.517-04:00", "updated_at": "2025-07-03T19:24:51.602-04:00", "avatar": "https://avatars.slack-edge.com/2025-06-16/9058917728178_a518bfcf94c7ffc7c9e4_original.png", "custom_css": null}, {"id": 2996, "slack_id": "U091J2BD6H4", "display_name": "Jerry Lin", "bio": null, "projects_count": 0, "devlogs_count": 0, "votes_count": 0, "ships_count": 0, "projects": [], "coding_time_seconds": 0, "coding_time_seconds_today": 0, "balance": "You need to have a pocket watcher badge to view this.", "badges": [], "created_at": "2025-06-16T17:38:12.336-04:00", "updated_at": "2025-07-03T19:24:51.860-04:00", "avatar": "https://secure.gravatar.com/avatar/1c0602aa08a20b50faac35b56a28ec8b.jpg?s=512&d=https%3A%2F%2Fa.slack-edge.com%2Fdf10d%2Fimg%2Favatars%2Fava_0004-512.png", "custom_css": null}, {"id": 2997, "slack_id": "U07A31XRCRZ", "display_name": "Finn", "bio": "", "projects_count": 4, "devlogs_count": 22, "votes_count": 20, "ships_count": 2, "projects": [{"id": 11709, "title": "improveMint", "devlogs_count": 4, "created_at": "2025-08-18T16:20:25.517-04:00"}, {"id": 3270, "title": "Better Axe Progression", "devlogs_count": 0, "created_at": "2025-06-23T16:14:35.286-04:00"}, {"id": 5026, "title": "SolidaOptimized", "devlogs_count": 2, "created_at": "2025-07-02T19:28:20.501-04:00"}, {"id": 3513, "title": "Minerals And Fossils", "devlogs_count": 16, "created_at": "2025-06-24T14:44:11.762-04:00"}], "coding_time_seconds": 128011, "coding_time_seconds_today": 0, "balance": "You need to have a pocket watcher badge to view this.", "badges": [{"name": "Maiden Voyage", "text": "you shipped your first project! the journey begins...", "icon": "\ud83d\udea2"}, {"name": "Verified", "text": "this user is verified (i.e. gave us $8)", "icon": "https://summer.hackclub.com/assets/verified-c9457a9f.png"}], "created_at": "2025-06-16T17:38:32.188-04:00", "updated_at": "2025-09-10T22:52:39.470-04:00", "avatar": "https://secure.gravatar.com/avatar/eeceebb81c850166d89a15bd2322c624.jpg?s=512&d=https%3A%2F%2Fa.slack-edge.com%2Fdf10d%2Fimg%2Favatars%2Fava_0017-512.png", "custom_css": null}, {"id": 2998, "slack_id": "U079A2DLT8R", "display_name": "Wosca", "bio": null, "projects_count": 1, "devlogs_count": 3, "votes_count": 0, "ships_count": 0, "projects": [{"id": 759, "title": "Tennis Scoring App", "devlogs_count": 3, "created_at": "2025-06-17T07:33:48.911-04:00"}], "coding_time_seconds": 159443, "coding_time_seconds_today": 0, "balance": "You need to have a pocket watcher badge to view this.", "badges": [], "created_at": "2025-06-16T17:38:44.058-04:00", "updated_at": "2025-07-03T19:24:52.391-04:00", "avatar": "https://secure.gravatar.com/avatar/fc7d5bc65019fe7d30f00b783b612cf3.jpg?s=512&d=https%3A%2F%2Fa.slack-edge.com%2Fdf10d%2Fimg%2Favatars%2Fava_0005-512.png", "custom_css": null}, {"id": 2999, "slack_id": "U0796TP2RG8", "display_name": "Iris", "bio": null, "projects_count": 1, "devlogs_count": 0, "votes_count": 0, "ships_count": 0, "projects": [{"id": 326, "title": "FTC27971 Robot", "devlogs_count": 0, "created_at": "2025-06-16T18:02:55.292-04:00"}], "coding_time_seconds": 89876, "coding_time_seconds_today": 0, "balance": "You need to have a pocket watcher badge to view this.", "badges": [], "created_at": "2025-06-16T17:38:50.026-04:00", "updated_at": "2025-07-03T19:24:52.654-04:00", "avatar": "https://avatars.slack-edge.com/2024-06-17/7290050436243_15d5f0d29183e32ace42_original.png", "custom_css": null}, {"id": 3000, "slack_id": "U091QS83KSN", "display_name": "Nishant", "bio": null, "projects_count": 0, "devlogs_count": 0, "votes_count": 0, "ships_count": 0, "projects": [], "coding_time_seconds": 0, "coding_time_seconds_today": 0, "balance": "You need to have a pocket watcher badge to view this.", "badges": [], "created_at": "2025-06-16T17:38:58.773-04:00", "updated_at": "2025-07-03T19:24:52.932-04:00", "avatar": "https://secure.gravatar.com/avatar/35a35de30ce683b0e797e7bc92cc1ced.jpg?s=512&d=https%3A%2F%2Fa.slack-edge.com%2Fdf10d%2Fimg%2Favatars%2Fava_0001-512.png", "custom_css": null}], "pagination": {"page": 150, "pages": 1192, "count": 23828, "items": 20}}