{"users": [{"id": 3021, "slack_id": "U062Z8FQA6S", "display_name": "Rowan", "bio": null, "projects_count": 0, "devlogs_count": 0, "votes_count": 0, "ships_count": 0, "projects": [], "coding_time_seconds": 0, "coding_time_seconds_today": 0, "balance": "You need to have a pocket watcher badge to view this.", "badges": [], "created_at": "2025-06-16T17:42:07.385-04:00", "updated_at": "2025-07-03T19:24:58.838-04:00", "avatar": "https://avatars.slack-edge.com/2023-10-27/6121426188561_031f54963e4100bc7ad2_original.png", "custom_css": null}, {"id": 3022, "slack_id": "U07UY3ZTEEM", "display_name": "Pratyush Mahadevaiah", "bio": null, "projects_count": 1, "devlogs_count": 6, "votes_count": 1, "ships_count": 1, "projects": [{"id": 3330, "title": "FOXY HEARS YOU", "devlogs_count": 6, "created_at": "2025-06-23T20:57:07.735-04:00"}], "coding_time_seconds": 99904, "coding_time_seconds_today": 0, "balance": "You need to have a pocket watcher badge to view this.", "badges": [{"name": "Maiden Voyage", "text": "you shipped your first project! the journey begins...", "icon": "\ud83d\udea2"}], "created_at": "2025-06-16T17:42:09.777-04:00", "updated_at": "2025-09-10T22:52:40.165-04:00", "avatar": "https://avatars.slack-edge.com/2024-11-01/7971364225331_67d57413a9d870a7a561_original.png", "custom_css": null}, {"id": 3023, "slack_id": "U091QSJSUUS", "display_name": "zechen", "bio": null, "projects_count": 0, "devlogs_count": 0, "votes_count": 0, "ships_count": 0, "projects": [], "coding_time_seconds": 59624, "coding_time_seconds_today": 0, "balance": "You need to have a pocket watcher badge to view this.", "badges": [], "created_at": "2025-06-16T17:42:17.394-04:00", "updated_at": "2025-07-03T19:24:59.387-04:00", "avatar": "https://secure.gravatar.com/avatar/0bca0f2c6743bfefe41db3c1b27b42cd.jpg?s=512&d=https%3A%2F%2Fa.slack-edge.com%2Fdf10d%2Fimg%2Favatars%2Fava_0000-512.png", "custom_css": null}, {"id": 3024, "slack_id": "U0919GT77DM", "display_name": "Shrekie", "bio": null, "projects_count": 0, "devlogs_count": 0, "votes_count": 0, "ships_count": 0, "projects": [], "coding_time_seconds": 9361, "coding_time_seconds_today": 0, "balance": "You need to have a pocket watcher badge to view this.", "badges": [], "created_at": "2025-06-16T17:42:19.054-04:00", "updated_at": "2025-07-03T19:24:59.647-04:00", "avatar": "https://secure.gravatar.com/avatar/3a7575a69a3eefb1575259bac9a39580.jpg?s=512&d=https%3A%2F%2Fa.slack-edge.com%2Fdf10d%2Fimg%2Favatars%2Fava_0006-512.png", "custom_css": null}, {"id": 3025, "slack_id": "U07VC7T59JS", "display_name": "hrik", "bio": null, "projects_count": 0, "devlogs_count": 0, "votes_count": 0, "ships_count": 0, "projects": [], "coding_time_seconds": 14916, "coding_time_seconds_today": 0, "balance": "You need to have a pocket watcher badge to view this.", "badges": [], "created_at": "2025-06-16T17:42:24.126-04:00", "updated_at": "2025-09-12T18:17:34.999-04:00", "avatar": "https://avatars.slack-edge.com/2025-04-24/8819630285392_7cda0ca9d6bf86162cf4_original.png", "custom_css": null}, {"id": 3026, "slack_id": "U07APP9A728", "display_name": "Bailey Coulter", "bio": null, "projects_count": 0, "devlogs_count": 0, "votes_count": 0, "ships_count": 0, "projects": [], "coding_time_seconds": 0, "coding_time_seconds_today": 0, "balance": "You need to have a pocket watcher badge to view this.", "badges": [], "created_at": "2025-06-16T17:42:26.012-04:00", "updated_at": "2025-07-03T19:25:00.166-04:00", "avatar": "https://avatars.slack-edge.com/2024-07-01/7373979523713_0284d2aa401a96cda4f2_original.jpg", "custom_css": null}, {"id": 3027, "slack_id": "U0923D8HTFT", "display_name": "Joshua", "bio": null, "projects_count": 0, "devlogs_count": 0, "votes_count": 0, "ships_count": 0, "projects": [], "coding_time_seconds": 0, "coding_time_seconds_today": 0, "balance": "You need to have a pocket watcher badge to view this.", "badges": [], "created_at": "2025-06-16T17:42:40.175-04:00", "updated_at": "2025-07-03T19:25:00.432-04:00", "avatar": "https://avatars.slack-edge.com/2025-06-16/9058941680418_d38f2e4eeef7f9c112fc_original.png", "custom_css": null}, {"id": 3028, "slack_id": "U091P3DNBLM", "display_name": "sitaras", "bio": null, "projects_count": 0, "devlogs_count": 0, "votes_count": 0, "ships_count": 0, "projects": [], "coding_time_seconds": 0, "coding_time_seconds_today": 0, "balance": "You need to have a pocket watcher badge to view this.", "badges": [], "created_at": "2025-06-16T17:42:52.095-04:00", "updated_at": "2025-07-03T19:25:00.720-04:00", "avatar": "https://secure.gravatar.com/avatar/52060dbdcc29fe77e2bb64ca444777f6.jpg?s=512&d=https%3A%2F%2Fa.slack-edge.com%2Fdf10d%2Fimg%2Favatars%2Fava_0002-512.png", "custom_css": null}, {"id": 3029, "slack_id": "U0923CWS681", "display_name": "555 timer", "bio": null, "projects_count": 1, "devlogs_count": 6, "votes_count": 10, "ships_count": 0, "projects": [{"id": 10648, "title": "DOOMkey", "devlogs_count": 6, "created_at": "2025-08-09T09:37:41.742-04:00"}], "coding_time_seconds": 67826, "coding_time_seconds_today": 0, "balance": "You need to have a pocket watcher badge to view this.", "badges": [], "created_at": "2025-06-16T17:42:54.460-04:00", "updated_at": "2025-08-09T09:05:47.122-04:00", "avatar": "https://avatars.slack-edge.com/2025-06-16/9058946997842_a00ee1ac3562e1bb6973_original.jpg", "custom_css": null}, {"id": 3030, "slack_id": "U07E6U3C48G", "display_name": "Alex", "bio": null, "projects_count": 1, "devlogs_count": 5, "votes_count": 0, "ships_count": 0, "projects": [{"id": 349, "title": "Spotify To YTMusic Converter", "devlogs_count": 5, "created_at": "2025-06-16T18:49:02.189-04:00"}], "coding_time_seconds": 434194, "coding_time_seconds_today": 0, "balance": "You need to have a pocket watcher badge to view this.", "badges": [], "created_at": "2025-06-16T17:43:03.318-04:00", "updated_at": "2025-07-03T19:25:01.280-04:00", "avatar": "https://avatars.slack-edge.com/2024-07-22/7457270024229_3efd3c8b62a32e617aa8_original.jpg", "custom_css": null}, {"id": 3031, "slack_id": "U08273M9L3E", "display_name": "Ori", "bio": null, "projects_count": 0, "devlogs_count": 31, "votes_count": 149, "ships_count": 0, "projects": [], "coding_time_seconds": 192590, "coding_time_seconds_today": 0, "balance": "You need to have a pocket watcher badge to view this.", "badges": [{"name": "Maiden Voyage", "text": "you shipped your first project! the journey begins...", "icon": "\ud83d\udea2"}, {"name": "Ballot Stuffer", "text": "vote 100 times.", "icon": "https://summer.hackclub.com/assets/i_voted-bf851b48.png"}], "created_at": "2025-06-16T17:43:03.668-04:00", "updated_at": "2025-09-15T11:22:32.963-04:00", "avatar": "https://avatars.slack-edge.com/2024-12-14/8196315255504_cbbbd647260ae00641ba_original.jpg", "custom_css": null}, {"id": 3032, "slack_id": "U081XG0P6TH", "display_name": "\u534e\u5f67\u8d61", "bio": null, "projects_count": 2, "devlogs_count": 25, "votes_count": 20, "ships_count": 1, "projects": [{"id": 12069, "title": "LLM Chatbot", "devlogs_count": 2, "created_at": "2025-08-22T16:32:22.335-04:00"}, {"id": 12071, "title": "Documentation Library", "devlogs_count": 0, "created_at": "2025-08-22T16:51:57.704-04:00"}], "coding_time_seconds": 1336714, "coding_time_seconds_today": 0, "balance": "You need to have a pocket watcher badge to view this.", "badges": [{"name": "Maiden Voyage", "text": "you shipped your first project! the journey begins...", "icon": "\ud83d\udea2"}], "created_at": "2025-06-16T17:43:10.157-04:00", "updated_at": "2025-09-10T22:52:40.426-04:00", "avatar": "https://secure.gravatar.com/avatar/519c34f284f910226c2fcd4cedcc2c44.jpg?s=512&d=https%3A%2F%2Fa.slack-edge.com%2Fdf10d%2Fimg%2Favatars%2Fava_0022-512.png", "custom_css": null}, {"id": 3033, "slack_id": "U08J4GJD410", "display_name": "greninja44", "bio": null, "projects_count": 0, "devlogs_count": 0, "votes_count": 0, "ships_count": 0, "projects": [], "coding_time_seconds": 50001, "coding_time_seconds_today": 0, "balance": "You need to have a pocket watcher badge to view this.", "badges": [], "created_at": "2025-06-16T17:43:20.833-04:00", "updated_at": "2025-09-15T11:22:33.492-04:00", "avatar": "https://avatars.slack-edge.com/2025-06-17/9061889585172_95c122a21247e1a11ce0_original.jpg", "custom_css": null}, {"id": 3034, "slack_id": "U07BJCC5HHT", "display_name": "Sophie Z", "bio": null, "projects_count": 0, "devlogs_count": 0, "votes_count": 0, "ships_count": 0, "projects": [], "coding_time_seconds": 10175, "coding_time_seconds_today": 0, "balance": "You need to have a pocket watcher badge to view this.", "badges": [], "created_at": "2025-06-16T17:43:22.974-04:00", "updated_at": "2025-07-03T19:25:02.396-04:00", "avatar": "https://avatars.slack-edge.com/2024-07-09/7418204578144_5dcaf6f8bee603a4d681_original.jpg", "custom_css": null}, {"id": 3035, "slack_id": "U091P3KSX53", "display_name": "Tomasz Bednarek", "bio": null, "projects_count": 0, "devlogs_count": 0, "votes_count": 0, "ships_count": 0, "projects": [], "coding_time_seconds": 0, "coding_time_seconds_today": 0, "balance": "You need to have a pocket watcher badge to view this.", "badges": [], "created_at": "2025-06-16T17:43:26.545-04:00", "updated_at": "2025-07-03T19:25:02.664-04:00", "avatar": "https://avatars.slack-edge.com/2025-06-16/9043596547895_61eb54f41147de9618b2_original.png", "custom_css": null}, {"id": 3036, "slack_id": "U0919H8HPTR", "display_name": "Luka", "bio": null, "projects_count": 0, "devlogs_count": 0, "votes_count": 0, "ships_count": 0, "projects": [], "coding_time_seconds": 0, "coding_time_seconds_today": 0, "balance": "You need to have a pocket watcher badge to view this.", "badges": [], "created_at": "2025-06-16T17:43:50.181-04:00", "updated_at": "2025-07-03T19:25:02.934-04:00", "avatar": "https://avatars.slack-edge.com/2025-06-16/9051991268003_1e2e8c36f9f6d9cb4314_original.png", "custom_css": null}, {"id": 3037, "slack_id": "U064QDP8TRQ", "display_name": "Abraham Mora-Tadeo", "bio": null, "projects_count": 0, "devlogs_count": 0, "votes_count": 0, "ships_count": 0, "projects": [], "coding_time_seconds": 0, "coding_time_seconds_today": 0, "balance": "You need to have a pocket watcher badge to view this.", "badges": [], "created_at": "2025-06-16T17:43:58.251-04:00", "updated_at": "2025-07-03T19:25:03.210-04:00", "avatar": "https://avatars.slack-edge.com/2023-11-11/6181850566723_3e8a149bf3f743902fcf_original.png", "custom_css": null}, {"id": 3038, "slack_id": "U07HY92M9GA", "display_name": "Kayla", "bio": null, "projects_count": 1, "devlogs_count": 1, "votes_count": 0, "ships_count": 1, "projects": [{"id": 10087, "title": "50 Transit Journeys", "devlogs_count": 1, "created_at": "2025-08-03T23:58:59.847-04:00"}], "coding_time_seconds": 340433, "coding_time_seconds_today": 0, "balance": "You need to have a pocket watcher badge to view this.", "badges": [{"name": "Maiden Voyage", "text": "you shipped your first project! the journey begins...", "icon": "\ud83d\udea2"}], "created_at": "2025-06-16T17:44:04.648-04:00", "updated_at": "2025-09-10T22:52:40.590-04:00", "avatar": "https://avatars.slack-edge.com/2025-08-04/9284066494023_1743bcdf643c76abc8f2_original.png", "custom_css": null}, {"id": 3039, "slack_id": "U0923DD3S57", "display_name": "Austin Barriere", "bio": null, "projects_count": 3, "devlogs_count": 3, "votes_count": 1, "ships_count": 0, "projects": [{"id": 442, "title": "VEX Robotics Push Back Basic Autonomous and Drive Controls", "devlogs_count": 0, "created_at": "2025-06-16T21:28:48.730-04:00"}, {"id": 3854, "title": "Web Development Portfolio", "devlogs_count": 2, "created_at": "2025-06-26T02:43:07.235-04:00"}, {"id": 4188, "title": "Three JS Test Site using Vite", "devlogs_count": 1, "created_at": "2025-06-28T04:38:28.585-04:00"}], "coding_time_seconds": 10782, "coding_time_seconds_today": 0, "balance": "You need to have a pocket watcher badge to view this.", "badges": [], "created_at": "2025-06-16T17:44:10.191-04:00", "updated_at": "2025-07-03T19:25:03.783-04:00", "avatar": "https://secure.gravatar.com/avatar/d76bf3685519cee635bbe335a6470684.jpg?s=512&d=https%3A%2F%2Fa.slack-edge.com%2Fdf10d%2Fimg%2Favatars%2Fava_0008-512.png", "custom_css": null}, {"id": 3040, "slack_id": "U06AJRVQH1A", "display_name": "Shahzeb wali", "bio": null, "projects_count": 0, "devlogs_count": 0, "votes_count": 0, "ships_count": 0, "projects": [], "coding_time_seconds": 0, "coding_time_seconds_today": 0, "balance": "You need to have a pocket watcher badge to view this.", "badges": [], "created_at": "2025-06-16T17:44:14.002-04:00", "updated_at": "2025-07-03T19:25:04.158-04:00", "avatar": "https://secure.gravatar.com/avatar/9e751733a70778c212defc3f1bcda235.jpg?s=512&d=https%3A%2F%2Fa.slack-edge.com%2Fdf10d%2Fimg%2Favatars%2Fava_0013-512.png", "custom_css": null}], "pagination": {"page": 152, "pages": 1192, "count": 23828, "items": 20}}