{"users": [{"id": 3041, "slack_id": "U083WRL1DM5", "display_name": "BaconWaffleDonut", "bio": null, "projects_count": 1, "devlogs_count": 3, "votes_count": 1, "ships_count": 0, "projects": [{"id": 1620, "title": "Budget Thing", "devlogs_count": 3, "created_at": "2025-06-18T21:48:32.167-04:00"}], "coding_time_seconds": 65027, "coding_time_seconds_today": 0, "balance": "You need to have a pocket watcher badge to view this.", "badges": [], "created_at": "2025-06-16T17:44:42.480-04:00", "updated_at": "2025-07-03T19:25:04.453-04:00", "avatar": "https://secure.gravatar.com/avatar/fcdba559c232d0a6329bfa52a288db89.jpg?s=512&d=https%3A%2F%2Fa.slack-edge.com%2Fdf10d%2Fimg%2Favatars%2Fava_0010-512.png", "custom_css": null}, {"id": 3042, "slack_id": "U092D9LNG2U", "display_name": "Alejandro S\u00e1nchez Infantes", "bio": null, "projects_count": 0, "devlogs_count": 0, "votes_count": 0, "ships_count": 0, "projects": [], "coding_time_seconds": 0, "coding_time_seconds_today": 0, "balance": "You need to have a pocket watcher badge to view this.", "badges": [], "created_at": "2025-06-16T17:44:57.486-04:00", "updated_at": "2025-07-03T19:25:04.725-04:00", "avatar": "https://secure.gravatar.com/avatar/0761ea577de8d687f1aed070c2e7b70e.jpg?s=512&d=https%3A%2F%2Fa.slack-edge.com%2Fdf10d%2Fimg%2Favatars%2Fava_0023-512.png", "custom_css": null}, {"id": 3043, "slack_id": "U083BR7J6SW", "display_name": "Maverick C", "bio": null, "projects_count": 1, "devlogs_count": 0, "votes_count": 0, "ships_count": 0, "projects": [{"id": 1847, "title": "Qota", "devlogs_count": 0, "created_at": "2025-06-19T12:08:51.718-04:00"}], "coding_time_seconds": 26849, "coding_time_seconds_today": 0, "balance": "You need to have a pocket watcher badge to view this.", "badges": [], "created_at": "2025-06-16T17:45:02.755-04:00", "updated_at": "2025-07-03T19:25:05.003-04:00", "avatar": "https://secure.gravatar.com/avatar/7d0b7b61f08ec77870dae5c3c40b9452.jpg?s=512&d=https%3A%2F%2Fa.slack-edge.com%2Fdf10d%2Fimg%2Favatars%2Fava_0020-512.png", "custom_css": null}, {"id": 3044, "slack_id": "U08T115CRB9", "display_name": "Jerry Hu", "bio": null, "projects_count": 0, "devlogs_count": 0, "votes_count": 0, "ships_count": 0, "projects": [], "coding_time_seconds": 0, "coding_time_seconds_today": 0, "balance": "You need to have a pocket watcher badge to view this.", "badges": [], "created_at": "2025-06-16T17:45:03.298-04:00", "updated_at": "2025-07-03T19:25:05.309-04:00", "avatar": "https://avatars.slack-edge.com/2025-05-21/8926247934918_bd19d4ce472fcaee925e_original.png", "custom_css": null}, {"id": 3045, "slack_id": "U08PCF8MCLV", "display_name": "NoNo055", "bio": null, "projects_count": 0, "devlogs_count": 0, "votes_count": 0, "ships_count": 0, "projects": [], "coding_time_seconds": 3322, "coding_time_seconds_today": 0, "balance": "You need to have a pocket watcher badge to view this.", "badges": [], "created_at": "2025-06-16T17:45:09.784-04:00", "updated_at": "2025-07-03T19:25:05.868-04:00", "avatar": "https://secure.gravatar.com/avatar/d849073cc46cfad1d9508439d8bd332e.jpg?s=512&d=https%3A%2F%2Fa.slack-edge.com%2Fdf10d%2Fimg%2Favatars%2Fava_0004-512.png", "custom_css": null}, {"id": 3046, "slack_id": "U08U2HGS72B", "display_name": "Goldendragon63", "bio": null, "projects_count": 1, "devlogs_count": 0, "votes_count": 0, "ships_count": 0, "projects": [{"id": 1352, "title": "HackPad", "devlogs_count": 0, "created_at": "2025-06-18T11:04:36.332-04:00"}], "coding_time_seconds": 13516, "coding_time_seconds_today": 0, "balance": "You need to have a pocket watcher badge to view this.", "badges": [], "created_at": "2025-06-16T17:45:13.725-04:00", "updated_at": "2025-07-03T19:25:06.149-04:00", "avatar": "https://avatars.slack-edge.com/2025-06-12/9036442377123_c8c267d8433b89c4496b_original.png", "custom_css": null}, {"id": 3047, "slack_id": "U091J2ZB50E", "display_name": "Alba", "bio": null, "projects_count": 0, "devlogs_count": 0, "votes_count": 0, "ships_count": 0, "projects": [], "coding_time_seconds": 0, "coding_time_seconds_today": 0, "balance": "You need to have a pocket watcher badge to view this.", "badges": [], "created_at": "2025-06-16T17:45:22.076-04:00", "updated_at": "2025-07-03T19:25:06.417-04:00", "avatar": "https://secure.gravatar.com/avatar/676115077f4cadcbb67485c90d6285ad.jpg?s=512&d=https%3A%2F%2Fa.slack-edge.com%2Fdf10d%2Fimg%2Favatars%2Fava_0015-512.png", "custom_css": null}, {"id": 3048, "slack_id": "U091P3PLF1T", "display_name": "Guilherme de Almeida Gasque", "bio": null, "projects_count": 0, "devlogs_count": 0, "votes_count": 0, "ships_count": 0, "projects": [], "coding_time_seconds": 0, "coding_time_seconds_today": 0, "balance": "You need to have a pocket watcher badge to view this.", "badges": [], "created_at": "2025-06-16T17:45:29.158-04:00", "updated_at": "2025-07-03T19:25:06.700-04:00", "avatar": "https://avatars.slack-edge.com/2025-06-16/9059282343252_3fcf8b073ced82c96ac5_original.jpg", "custom_css": null}, {"id": 3049, "slack_id": "U07BMNNGUN9", "display_name": "Edward Hesketh", "bio": "github:headblockhead", "projects_count": 2, "devlogs_count": 34, "votes_count": 0, "ships_count": 1, "projects": [{"id": 5842, "title": "Rail Regard", "devlogs_count": 30, "created_at": "2025-07-08T11:59:37.248-04:00"}, {"id": 10505, "title": "edwardh.dev", "devlogs_count": 4, "created_at": "2025-08-07T15:02:36.855-04:00"}], "coding_time_seconds": 720876, "coding_time_seconds_today": 0, "balance": "You need to have a pocket watcher badge to view this.", "badges": [{"name": "Maiden Voyage", "text": "you shipped your first project! the journey begins...", "icon": "\ud83d\udea2"}], "created_at": "2025-06-16T17:45:44.816-04:00", "updated_at": "2025-09-10T22:52:40.944-04:00", "avatar": "https://avatars.slack-edge.com/2025-09-09/9475126298663_c841bfc8f5fb960da347_original.png", "custom_css": null}, {"id": 3050, "slack_id": "U091J2RRM1C", "display_name": "Aeris Chan", "bio": null, "projects_count": 0, "devlogs_count": 0, "votes_count": 0, "ships_count": 0, "projects": [], "coding_time_seconds": 0, "coding_time_seconds_today": 0, "balance": "You need to have a pocket watcher badge to view this.", "badges": [], "created_at": "2025-06-16T17:45:46.192-04:00", "updated_at": "2025-07-03T19:25:07.239-04:00", "avatar": "https://avatars.slack-edge.com/2025-06-16/9071476025665_b30f8ee3949a1f0742ae_original.png", "custom_css": null}, {"id": 3051, "slack_id": "U078BAN5M8E", "display_name": "Bingley", "bio": "", "projects_count": 0, "devlogs_count": 0, "votes_count": 0, "ships_count": 0, "projects": [], "coding_time_seconds": 2571, "coding_time_seconds_today": 0, "balance": "You need to have a pocket watcher badge to view this.", "badges": [], "created_at": "2025-06-16T17:45:48.356-04:00", "updated_at": "2025-08-09T05:29:09.430-04:00", "avatar": "https://secure.gravatar.com/avatar/2a2516ab6e41c69cf60e8b8c42986565.jpg?s=512&d=https%3A%2F%2Fa.slack-edge.com%2Fdf10d%2Fimg%2Favatars%2Fava_0018-512.png", "custom_css": null}, {"id": 3052, "slack_id": "U091R7VQSMA", "display_name": "Roger Zhu", "bio": null, "projects_count": 0, "devlogs_count": 0, "votes_count": 0, "ships_count": 0, "projects": [], "coding_time_seconds": 0, "coding_time_seconds_today": 0, "balance": "You need to have a pocket watcher badge to view this.", "badges": [], "created_at": "2025-06-16T17:46:00.080-04:00", "updated_at": "2025-07-03T19:25:07.788-04:00", "avatar": "https://secure.gravatar.com/avatar/a28b67f9e1ea8275287275ca75d66a7c.jpg?s=512&d=https%3A%2F%2Fa.slack-edge.com%2Fdf10d%2Fimg%2Favatars%2Fava_0000-512.png", "custom_css": null}, {"id": 3053, "slack_id": "U091R7S57C4", "display_name": "Arup", "bio": null, "projects_count": 0, "devlogs_count": 0, "votes_count": 0, "ships_count": 0, "projects": [], "coding_time_seconds": 0, "coding_time_seconds_today": 0, "balance": "You need to have a pocket watcher badge to view this.", "badges": [], "created_at": "2025-06-16T17:46:07.183-04:00", "updated_at": "2025-07-03T19:25:08.052-04:00", "avatar": "https://secure.gravatar.com/avatar/a288602ab4e1f1b832bfb85336e2d776.jpg?s=512&d=https%3A%2F%2Fa.slack-edge.com%2Fdf10d%2Fimg%2Favatars%2Fava_0022-512.png", "custom_css": null}, {"id": 3054, "slack_id": "U092DAC5A5N", "display_name": "Pranav N", "bio": null, "projects_count": 2, "devlogs_count": 18, "votes_count": 1, "ships_count": 0, "projects": [{"id": 325, "title": "Cybersecurity Homelab Website (reminder to name)", "devlogs_count": 3, "created_at": "2025-06-16T18:02:10.765-04:00"}, {"id": 479, "title": "SIVRAJ", "devlogs_count": 15, "created_at": "2025-06-16T23:09:38.333-04:00"}], "coding_time_seconds": 141099, "coding_time_seconds_today": 0, "balance": "You need to have a pocket watcher badge to view this.", "badges": [], "created_at": "2025-06-16T17:46:07.750-04:00", "updated_at": "2025-07-03T19:25:08.325-04:00", "avatar": "https://secure.gravatar.com/avatar/20992e115e6854d4d3354bfec2ef927a.jpg?s=512&d=https%3A%2F%2Fa.slack-edge.com%2Fdf10d%2Fimg%2Favatars%2Fava_0021-512.png", "custom_css": null}, {"id": 3055, "slack_id": "U05RF62G79U", "display_name": "Ren", "bio": null, "projects_count": 0, "devlogs_count": 0, "votes_count": 0, "ships_count": 0, "projects": [], "coding_time_seconds": 10665, "coding_time_seconds_today": 0, "balance": "You need to have a pocket watcher badge to view this.", "badges": [], "created_at": "2025-06-16T17:46:09.255-04:00", "updated_at": "2025-07-03T19:25:08.674-04:00", "avatar": "https://avatars.slack-edge.com/2024-08-17/7587980302373_24e2043ead3a1cc1b5be_original.jpg", "custom_css": null}, {"id": 3056, "slack_id": "U07S9N4T3HA", "display_name": "Raj", "bio": null, "projects_count": 0, "devlogs_count": 0, "votes_count": 0, "ships_count": 0, "projects": [], "coding_time_seconds": 21072, "coding_time_seconds_today": 0, "balance": "You need to have a pocket watcher badge to view this.", "badges": [], "created_at": "2025-06-16T17:46:26.526-04:00", "updated_at": "2025-07-03T19:25:08.948-04:00", "avatar": "https://secure.gravatar.com/avatar/6a987749f3c86159637c2322444bd82a.jpg?s=512&d=https%3A%2F%2Fa.slack-edge.com%2Fdf10d%2Fimg%2Favatars%2Fava_0024-512.png", "custom_css": null}, {"id": 3057, "slack_id": "U092DADCXEC", "display_name": "Vincent Chen", "bio": null, "projects_count": 3, "devlogs_count": 2, "votes_count": 0, "ships_count": 0, "projects": [{"id": 330, "title": "Testing", "devlogs_count": 0, "created_at": "2025-06-16T18:11:27.327-04:00"}, {"id": 367, "title": "Find GCF", "devlogs_count": 1, "created_at": "2025-06-16T19:22:14.051-04:00"}, {"id": 1017, "title": "Adventure of Fantasy", "devlogs_count": 1, "created_at": "2025-06-17T13:44:12.850-04:00"}], "coding_time_seconds": 34108, "coding_time_seconds_today": 0, "balance": "You need to have a pocket watcher badge to view this.", "badges": [], "created_at": "2025-06-16T17:46:29.054-04:00", "updated_at": "2025-07-03T19:25:09.229-04:00", "avatar": "https://secure.gravatar.com/avatar/2ccbb091de6567aa9e3c53224eced096.jpg?s=512&d=https%3A%2F%2Fa.slack-edge.com%2Fdf10d%2Fimg%2Favatars%2Fava_0009-512.png", "custom_css": null}, {"id": 3058, "slack_id": "U0476KJ0CLD", "display_name": "Pranav Behal", "bio": null, "projects_count": 0, "devlogs_count": 0, "votes_count": 0, "ships_count": 0, "projects": [], "coding_time_seconds": 0, "coding_time_seconds_today": 0, "balance": "You need to have a pocket watcher badge to view this.", "badges": [], "created_at": "2025-06-16T17:46:32.568-04:00", "updated_at": "2025-07-03T19:25:09.497-04:00", "avatar": "https://secure.gravatar.com/avatar/ae2f757edd3e4518a17f366db8b9983c.jpg?s=512&d=https%3A%2F%2Fa.slack-edge.com%2Fdf10d%2Fimg%2Favatars%2Fava_0003-512.png", "custom_css": null}, {"id": 3059, "slack_id": "U0822TP7D3P", "display_name": "Maddie S", "bio": null, "projects_count": 1, "devlogs_count": 0, "votes_count": 1, "ships_count": 0, "projects": [{"id": 4986, "title": "The Pop Culture Newsletter", "devlogs_count": 0, "created_at": "2025-07-02T14:36:53.181-04:00"}], "coding_time_seconds": 6858, "coding_time_seconds_today": 0, "balance": "You need to have a pocket watcher badge to view this.", "badges": [], "created_at": "2025-06-16T17:46:34.077-04:00", "updated_at": "2025-07-03T19:25:09.766-04:00", "avatar": "https://avatars.slack-edge.com/2024-11-22/8059327017031_a55c7fc1136b73795296_original.jpg", "custom_css": null}, {"id": 3060, "slack_id": "U092DA495UY", "display_name": "V3AI7", "bio": null, "projects_count": 0, "devlogs_count": 0, "votes_count": 0, "ships_count": 0, "projects": [], "coding_time_seconds": 40320, "coding_time_seconds_today": 0, "balance": "You need to have a pocket watcher badge to view this.", "badges": [], "created_at": "2025-06-16T17:46:39.726-04:00", "updated_at": "2025-08-17T08:26:10.174-04:00", "avatar": "https://secure.gravatar.com/avatar/df931fefa210cab6cfe13ec722110900.jpg?s=512&d=https%3A%2F%2Fa.slack-edge.com%2Fdf10d%2Fimg%2Favatars%2Fava_0026-512.png", "custom_css": null}], "pagination": {"page": 153, "pages": 1192, "count": 23828, "items": 20}}