{"users": [{"id": 3061, "slack_id": "U0919HJQ73R", "display_name": "Jahnvi", "bio": null, "projects_count": 0, "devlogs_count": 0, "votes_count": 0, "ships_count": 0, "projects": [], "coding_time_seconds": 0, "coding_time_seconds_today": 0, "balance": "You need to have a pocket watcher badge to view this.", "badges": [], "created_at": "2025-06-16T17:46:42.331-04:00", "updated_at": "2025-07-03T19:25:10.304-04:00", "avatar": "https://secure.gravatar.com/avatar/8e0e25380cd6406c3b9e5050eb6f2c45.jpg?s=512&d=https%3A%2F%2Fa.slack-edge.com%2Fdf10d%2Fimg%2Favatars%2Fava_0005-512.png", "custom_css": null}, {"id": 3062, "slack_id": "U08234VU09K", "display_name": "superheroyrr", "bio": null, "projects_count": 3, "devlogs_count": 7, "votes_count": 16, "ships_count": 1, "projects": [{"id": 436, "title": "Conqorial", "devlogs_count": 0, "created_at": "2025-06-16T21:23:12.775-04:00"}, {"id": 7194, "title": "Call of War Calculator", "devlogs_count": 6, "created_at": "2025-07-19T21:36:06.227-04:00"}, {"id": 13149, "title": "RD++", "devlogs_count": 1, "created_at": "2025-09-09T18:10:54.130-04:00"}], "coding_time_seconds": 282533, "coding_time_seconds_today": 0, "balance": "You need to have a pocket watcher badge to view this.", "badges": [{"name": "Maiden Voyage", "text": "you shipped your first project! the journey begins...", "icon": "\ud83d\udea2"}], "created_at": "2025-06-16T17:46:46.648-04:00", "updated_at": "2025-09-10T22:52:41.283-04:00", "avatar": "https://avatars.slack-edge.com/2025-07-02/9134630911062_c2d5e114912a0fe836f2_original.jpg", "custom_css": null}, {"id": 3063, "slack_id": "U07U6A0DC31", "display_name": "Layan", "bio": null, "projects_count": 3, "devlogs_count": 4, "votes_count": 20, "ships_count": 2, "projects": [{"id": 13620, "title": "Fourier series drawing", "devlogs_count": 1, "created_at": "2025-09-21T08:26:20.231-04:00"}, {"id": 13732, "title": "Mandelbrot set visualiser", "devlogs_count": 1, "created_at": "2025-09-24T05:14:49.679-04:00"}, {"id": 8191, "title": "Homeric Scansion calculator", "devlogs_count": 1, "created_at": "2025-07-25T06:57:30.652-04:00"}], "coding_time_seconds": 113372, "coding_time_seconds_today": 0, "balance": "You need to have a pocket watcher badge to view this.", "badges": [{"name": "Maiden Voyage", "text": "you shipped your first project! the journey begins...", "icon": "\ud83d\udea2"}], "created_at": "2025-06-16T17:46:47.966-04:00", "updated_at": "2025-09-10T22:52:41.314-04:00", "avatar": "https://avatars.slack-edge.com/2024-11-02/7973171176019_ea6456bb1f59c2a997a7_original.jpg", "custom_css": null}, {"id": 3064, "slack_id": "U09196FS0J3", "display_name": "calum taylor", "bio": null, "projects_count": 0, "devlogs_count": 0, "votes_count": 0, "ships_count": 0, "projects": [], "coding_time_seconds": 55283, "coding_time_seconds_today": 0, "balance": "You need to have a pocket watcher badge to view this.", "badges": [], "created_at": "2025-06-16T17:46:48.780-04:00", "updated_at": "2025-07-03T19:25:11.117-04:00", "avatar": "https://avatars.slack-edge.com/2025-06-16/9052001693891_20b8e721fdeb47914894_original.jpg", "custom_css": null}, {"id": 3065, "slack_id": "U091P3XCEJH", "display_name": "Daniel Ye", "bio": null, "projects_count": 0, "devlogs_count": 0, "votes_count": 0, "ships_count": 0, "projects": [], "coding_time_seconds": 89456, "coding_time_seconds_today": 0, "balance": "You need to have a pocket watcher badge to view this.", "badges": [], "created_at": "2025-06-16T17:46:48.971-04:00", "updated_at": "2025-07-03T19:25:11.388-04:00", "avatar": "https://secure.gravatar.com/avatar/f45a50ff955b8f4bed6ff440be655aad.jpg?s=512&d=https%3A%2F%2Fa.slack-edge.com%2Fdf10d%2Fimg%2Favatars%2Fava_0025-512.png", "custom_css": null}, {"id": 3066, "slack_id": "U0919HKKV9D", "display_name": "Andr", "bio": null, "projects_count": 0, "devlogs_count": 0, "votes_count": 0, "ships_count": 0, "projects": [], "coding_time_seconds": 0, "coding_time_seconds_today": 0, "balance": "You need to have a pocket watcher badge to view this.", "badges": [], "created_at": "2025-06-16T17:46:54.228-04:00", "updated_at": "2025-07-03T19:25:11.655-04:00", "avatar": "https://secure.gravatar.com/avatar/40825e2b93d7c3ada8ee90b5d82688a8.jpg?s=512&d=https%3A%2F%2Fa.slack-edge.com%2Fdf10d%2Fimg%2Favatars%2Fava_0022-512.png", "custom_css": null}, {"id": 3067, "slack_id": "U091R83CMV2", "display_name": "Protik", "bio": null, "projects_count": 0, "devlogs_count": 0, "votes_count": 0, "ships_count": 0, "projects": [], "coding_time_seconds": 0, "coding_time_seconds_today": 0, "balance": "You need to have a pocket watcher badge to view this.", "badges": [], "created_at": "2025-06-16T17:46:55.954-04:00", "updated_at": "2025-07-03T19:25:11.919-04:00", "avatar": "https://secure.gravatar.com/avatar/2941880c63aae8a5d5945660df62b742.jpg?s=512&d=https%3A%2F%2Fa.slack-edge.com%2Fdf10d%2Fimg%2Favatars%2Fava_0013-512.png", "custom_css": null}, {"id": 3068, "slack_id": "U0723A59D5H", "display_name": "Mikhail Shalashov", "bio": "Just a coder haha", "projects_count": 1, "devlogs_count": 2, "votes_count": 11, "ships_count": 0, "projects": [{"id": 10356, "title": "TraceThis", "devlogs_count": 0, "created_at": "2025-08-06T08:28:28.439-04:00"}], "coding_time_seconds": 52928, "coding_time_seconds_today": 0, "balance": "You need to have a pocket watcher badge to view this.", "badges": [{"name": "Maiden Voyage", "text": "you shipped your first project! the journey begins...", "icon": "\ud83d\udea2"}], "created_at": "2025-06-16T17:47:01.763-04:00", "updated_at": "2025-09-10T22:52:41.494-04:00", "avatar": "https://secure.gravatar.com/avatar/c2b75b5715a7efbf65e0657d6387f083.jpg?s=512&d=https%3A%2F%2Fa.slack-edge.com%2Fdf10d%2Fimg%2Favatars%2Fava_0020-512.png", "custom_css": null}, {"id": 3069, "slack_id": "U091R83EF60", "display_name": "Bart\u0142omiej Piekarz", "bio": null, "projects_count": 0, "devlogs_count": 0, "votes_count": 0, "ships_count": 0, "projects": [], "coding_time_seconds": 0, "coding_time_seconds_today": 0, "balance": "You need to have a pocket watcher badge to view this.", "badges": [], "created_at": "2025-06-16T17:47:03.327-04:00", "updated_at": "2025-07-03T19:25:12.454-04:00", "avatar": "https://avatars.slack-edge.com/2025-06-16/9043609740839_c3e049663070eb84847f_original.jpg", "custom_css": null}, {"id": 3070, "slack_id": "U06MCM2EY3F", "display_name": "mohemmat (Bandit's version)", "bio": null, "projects_count": 0, "devlogs_count": 0, "votes_count": 0, "ships_count": 0, "projects": [], "coding_time_seconds": 0, "coding_time_seconds_today": 0, "balance": "You need to have a pocket watcher badge to view this.", "badges": [], "created_at": "2025-06-16T17:47:10.326-04:00", "updated_at": "2025-07-11T20:12:06.130-04:00", "avatar": "https://secure.gravatar.com/avatar/b816dfb21d281a2d71ed0a5de8539605.jpg?s=512&d=https%3A%2F%2Fa.slack-edge.com%2Fdf10d%2Fimg%2Favatars%2Fava_0004-512.png", "custom_css": null}, {"id": 3071, "slack_id": "U0919HKBANB", "display_name": "ES", "bio": null, "projects_count": 0, "devlogs_count": 0, "votes_count": 0, "ships_count": 0, "projects": [], "coding_time_seconds": 2393, "coding_time_seconds_today": 0, "balance": "You need to have a pocket watcher badge to view this.", "badges": [], "created_at": "2025-06-16T17:47:15.126-04:00", "updated_at": "2025-07-03T19:25:12.985-04:00", "avatar": "https://secure.gravatar.com/avatar/ef0c6215ae0dcba25bf6ca38ff2473d8.jpg?s=512&d=https%3A%2F%2Fa.slack-edge.com%2Fdf10d%2Fimg%2Favatars%2Fava_0009-512.png", "custom_css": null}, {"id": 3072, "slack_id": "U091QT7MQ74", "display_name": "K U S B E R", "bio": null, "projects_count": 1, "devlogs_count": 0, "votes_count": 20, "ships_count": 0, "projects": [{"id": 602, "title": "My personal blog", "devlogs_count": 0, "created_at": "2025-06-17T02:32:00.184-04:00"}], "coding_time_seconds": 241, "coding_time_seconds_today": 0, "balance": "You need to have a pocket watcher badge to view this.", "badges": [], "created_at": "2025-06-16T17:47:59.501-04:00", "updated_at": "2025-08-23T14:37:45.375-04:00", "avatar": "https://avatars.slack-edge.com/2025-06-17/9053790590102_4624827981643ef1e099_original.jpg", "custom_css": null}, {"id": 3073, "slack_id": "U084P9CVDC6", "display_name": "Veracles", "bio": "Depressed, stupid, and definitely autistic.", "projects_count": 0, "devlogs_count": 11, "votes_count": 44, "ships_count": 0, "projects": [], "coding_time_seconds": 640132, "coding_time_seconds_today": 0, "balance": "You need to have a pocket watcher badge to view this.", "badges": [{"name": "Maiden Voyage", "text": "you shipped your first project! the journey begins...", "icon": "\ud83d\udea2"}], "created_at": "2025-06-16T17:48:21.289-04:00", "updated_at": "2025-09-10T22:52:41.657-04:00", "avatar": "https://avatars.slack-edge.com/2025-05-19/8934362296385_893e45a1bd214897f34c_original.png", "custom_css": null}, {"id": 3074, "slack_id": "U091J3DLH2A", "display_name": "Anand", "bio": null, "projects_count": 0, "devlogs_count": 0, "votes_count": 0, "ships_count": 0, "projects": [], "coding_time_seconds": 0, "coding_time_seconds_today": 0, "balance": "You need to have a pocket watcher badge to view this.", "badges": [], "created_at": "2025-06-16T17:48:24.647-04:00", "updated_at": "2025-07-03T19:25:13.790-04:00", "avatar": "https://secure.gravatar.com/avatar/9edac3b0c3b392cccef4eb91b4e8d7e6.jpg?s=512&d=https%3A%2F%2Fa.slack-edge.com%2Fdf10d%2Fimg%2Favatars%2Fava_0019-512.png", "custom_css": null}, {"id": 3075, "slack_id": "U080DP3DWRE", "display_name": "turtle boi", "bio": null, "projects_count": 0, "devlogs_count": 0, "votes_count": 0, "ships_count": 0, "projects": [], "coding_time_seconds": 3465, "coding_time_seconds_today": 0, "balance": "You need to have a pocket watcher badge to view this.", "badges": [], "created_at": "2025-06-16T17:48:30.086-04:00", "updated_at": "2025-07-03T19:25:14.061-04:00", "avatar": "https://avatars.slack-edge.com/2024-11-07/8009561687233_c2f534b77d3b5e70382c_original.png", "custom_css": null}, {"id": 3076, "slack_id": "U091HV4J3FD", "display_name": "Sullivan Rowe", "bio": null, "projects_count": 0, "devlogs_count": 0, "votes_count": 0, "ships_count": 0, "projects": [], "coding_time_seconds": 0, "coding_time_seconds_today": 0, "balance": "You need to have a pocket watcher badge to view this.", "badges": [], "created_at": "2025-06-16T17:48:34.504-04:00", "updated_at": "2025-07-03T19:25:14.323-04:00", "avatar": "https://secure.gravatar.com/avatar/c2cbadc07fd01d31338fc3cf4802c936.jpg?s=512&d=https%3A%2F%2Fa.slack-edge.com%2Fdf10d%2Fimg%2Favatars%2Fava_0004-512.png", "custom_css": null}, {"id": 3077, "slack_id": "U078U51SYLV", "display_name": "Dew", "bio": null, "projects_count": 1, "devlogs_count": 1, "votes_count": 0, "ships_count": 0, "projects": [{"id": 564, "title": "Trackly", "devlogs_count": 1, "created_at": "2025-06-17T01:26:26.146-04:00"}], "coding_time_seconds": 15688, "coding_time_seconds_today": 0, "balance": "You need to have a pocket watcher badge to view this.", "badges": [], "created_at": "2025-06-16T17:48:51.068-04:00", "updated_at": "2025-07-03T19:25:14.588-04:00", "avatar": "https://secure.gravatar.com/avatar/8bfced9ba60a9ffe9a38e1a9920a9107.jpg?s=512&d=https%3A%2F%2Fa.slack-edge.com%2Fdf10d%2Fimg%2Favatars%2Fava_0005-512.png", "custom_css": null}, {"id": 3078, "slack_id": "U078HE4Q44A", "display_name": "solicht", "bio": null, "projects_count": 0, "devlogs_count": 0, "votes_count": 0, "ships_count": 0, "projects": [], "coding_time_seconds": 0, "coding_time_seconds_today": 0, "balance": "You need to have a pocket watcher badge to view this.", "badges": [], "created_at": "2025-06-16T17:48:56.345-04:00", "updated_at": "2025-07-03T19:25:14.850-04:00", "avatar": "https://avatars.slack-edge.com/2024-06-17/7283049386406_3d3468cdc12f0f11bf80_original.png", "custom_css": null}, {"id": 3079, "slack_id": "U08NZRH4W3V", "display_name": "ReRe", "bio": null, "projects_count": 0, "devlogs_count": 0, "votes_count": 0, "ships_count": 0, "projects": [], "coding_time_seconds": 0, "coding_time_seconds_today": 0, "balance": "You need to have a pocket watcher badge to view this.", "badges": [], "created_at": "2025-06-16T17:48:57.849-04:00", "updated_at": "2025-07-03T19:25:15.124-04:00", "avatar": "https://avatars.slack-edge.com/2025-06-14/9073246664000_7054efe0090beec03227_original.png", "custom_css": null}, {"id": 3080, "slack_id": "U083H0FD29X", "display_name": "Sophia Pu", "bio": null, "projects_count": 5, "devlogs_count": 36, "votes_count": 78, "ships_count": 4, "projects": [{"id": 2312, "title": "Competitive Programming Progress", "devlogs_count": 15, "created_at": "2025-06-20T17:01:49.016-04:00"}, {"id": 5105, "title": "Desert Dunes", "devlogs_count": 2, "created_at": "2025-07-03T09:35:04.763-04:00"}, {"id": 11413, "title": "WhiskIt", "devlogs_count": 5, "created_at": "2025-08-15T16:02:01.133-04:00"}, {"id": 6002, "title": "Rewardify", "devlogs_count": 6, "created_at": "2025-07-09T21:50:18.388-04:00"}, {"id": 4513, "title": "Sophia's Space", "devlogs_count": 8, "created_at": "2025-06-30T11:23:59.911-04:00"}], "coding_time_seconds": 438974, "coding_time_seconds_today": 0, "balance": "You need to have a pocket watcher badge to view this.", "badges": [{"name": "Maiden Voyage", "text": "you shipped your first project! the journey begins...", "icon": "\ud83d\udea2"}], "created_at": "2025-06-16T17:48:57.877-04:00", "updated_at": "2025-09-10T22:52:41.833-04:00", "avatar": "https://avatars.slack-edge.com/2025-08-13/9352782627460_32e805f19e99637f4100_original.webp", "custom_css": null}], "pagination": {"page": 154, "pages": 1192, "count": 23828, "items": 20}}