{"users": [{"id": 3101, "slack_id": "U092DAVJJ80", "display_name": "jimmy", "bio": null, "projects_count": 1, "devlogs_count": 22, "votes_count": 7, "ships_count": 0, "projects": [{"id": 690, "title": "Networking Game", "devlogs_count": 22, "created_at": "2025-06-17T05:28:13.494-04:00"}], "coding_time_seconds": 384927, "coding_time_seconds_today": 0, "balance": "You need to have a pocket watcher badge to view this.", "badges": [], "created_at": "2025-06-16T17:50:57.233-04:00", "updated_at": "2025-08-07T12:45:01.886-04:00", "avatar": "https://avatars.slack-edge.com/2025-06-16/9071491778705_bb16f6e536a06ad747ce_original.png", "custom_css": null}, {"id": 3102, "slack_id": "U08L21Q59UZ", "display_name": "dohyun", "bio": null, "projects_count": 4, "devlogs_count": 8, "votes_count": 0, "ships_count": 1, "projects": [{"id": 3338, "title": "my home page", "devlogs_count": 3, "created_at": "2025-06-23T22:13:46.891-04:00"}, {"id": 5770, "title": "Linko", "devlogs_count": 0, "created_at": "2025-07-07T21:43:37.600-04:00"}, {"id": 11561, "title": "qwerty-web", "devlogs_count": 4, "created_at": "2025-08-17T05:18:45.706-04:00"}, {"id": 12786, "title": "partiz", "devlogs_count": 1, "created_at": "2025-09-02T12:06:02.659-04:00"}], "coding_time_seconds": 162496, "coding_time_seconds_today": 1296, "balance": "You need to have a pocket watcher badge to view this.", "badges": [{"name": "Maiden Voyage", "text": "you shipped your first project! the journey begins...", "icon": "\ud83d\udea2"}], "created_at": "2025-06-16T17:51:19.127-04:00", "updated_at": "2025-09-10T22:52:42.476-04:00", "avatar": "https://avatars.slack-edge.com/2025-03-27/8693042100080_c2d67312fe90585b1864_original.jpg", "custom_css": null}, {"id": 3103, "slack_id": "U05LYQRHE0N", "display_name": "Ethan Xie", "bio": null, "projects_count": 0, "devlogs_count": 0, "votes_count": 0, "ships_count": 0, "projects": [], "coding_time_seconds": 50937, "coding_time_seconds_today": 0, "balance": "You need to have a pocket watcher badge to view this.", "badges": [], "created_at": "2025-06-16T17:51:31.033-04:00", "updated_at": "2025-07-03T19:25:22.418-04:00", "avatar": "https://avatars.slack-edge.com/2023-08-09/5721941658260_b2a5e3800e6e6e8d7e99_original.jpg", "custom_css": null}, {"id": 3104, "slack_id": "U091QTN2RM0", "display_name": "Derek Chen", "bio": null, "projects_count": 1, "devlogs_count": 0, "votes_count": 0, "ships_count": 0, "projects": [{"id": 933, "title": "APStudy", "devlogs_count": 0, "created_at": "2025-06-17T11:42:52.261-04:00"}], "coding_time_seconds": 0, "coding_time_seconds_today": 0, "balance": "You need to have a pocket watcher badge to view this.", "badges": [], "created_at": "2025-06-16T17:51:34.497-04:00", "updated_at": "2025-07-03T19:25:22.721-04:00", "avatar": "https://secure.gravatar.com/avatar/7150b5dd1fb827f3a054b9c18c3aa440.jpg?s=512&d=https%3A%2F%2Fa.slack-edge.com%2Fdf10d%2Fimg%2Favatars%2Fava_0024-512.png", "custom_css": null}, {"id": 3105, "slack_id": "U0919HQ81QF", "display_name": "Harsh Malakar", "bio": null, "projects_count": 0, "devlogs_count": 0, "votes_count": 0, "ships_count": 0, "projects": [], "coding_time_seconds": 26827, "coding_time_seconds_today": 0, "balance": "You need to have a pocket watcher badge to view this.", "badges": [], "created_at": "2025-06-16T17:51:40.311-04:00", "updated_at": "2025-07-03T19:25:22.992-04:00", "avatar": "https://secure.gravatar.com/avatar/a8dc2fef4113eff79316a9e318a86363.jpg?s=512&d=https%3A%2F%2Fa.slack-edge.com%2Fdf10d%2Fimg%2Favatars%2Fava_0024-512.png", "custom_css": null}, {"id": 3106, "slack_id": "U07AFA2J3EY", "display_name": "Bob", "bio": "Boo!", "projects_count": 3, "devlogs_count": 19, "votes_count": 40, "ships_count": 2, "projects": [{"id": 3839, "title": "Blackjack", "devlogs_count": 3, "created_at": "2025-06-26T00:05:25.852-04:00"}, {"id": 1963, "title": "Custom Homepage", "devlogs_count": 10, "created_at": "2025-06-19T18:09:26.217-04:00"}, {"id": 8146, "title": "Typehere++", "devlogs_count": 6, "created_at": "2025-07-24T23:05:39.003-04:00"}], "coding_time_seconds": 280572, "coding_time_seconds_today": 0, "balance": "You need to have a pocket watcher badge to view this.", "badges": [{"name": "Maiden Voyage", "text": "you shipped your first project! the journey begins...", "icon": "\ud83d\udea2"}], "created_at": "2025-06-16T17:51:42.494-04:00", "updated_at": "2025-09-10T22:52:42.590-04:00", "avatar": "https://secure.gravatar.com/avatar/404491cf47bd051cc0603285dd900214.jpg?s=512&d=https%3A%2F%2Fa.slack-edge.com%2Fdf10d%2Fimg%2Favatars%2Fava_0016-512.png", "custom_css": null}, {"id": 3107, "slack_id": "U082YF0PUTY", "display_name": "Matthew", "bio": null, "projects_count": 0, "devlogs_count": 0, "votes_count": 0, "ships_count": 0, "projects": [], "coding_time_seconds": 0, "coding_time_seconds_today": 0, "balance": "You need to have a pocket watcher badge to view this.", "badges": [], "created_at": "2025-06-16T17:51:59.126-04:00", "updated_at": "2025-07-03T19:25:23.575-04:00", "avatar": "https://secure.gravatar.com/avatar/b9b04d13bb45e3e4eb63dfbca80b0746.jpg?s=512&d=https%3A%2F%2Fa.slack-edge.com%2Fdf10d%2Fimg%2Favatars%2Fava_0005-512.png", "custom_css": null}, {"id": 3108, "slack_id": "U0741Q95Y02", "display_name": "Prisca Chien", "bio": null, "projects_count": 0, "devlogs_count": 0, "votes_count": 0, "ships_count": 0, "projects": [], "coding_time_seconds": 0, "coding_time_seconds_today": 0, "balance": "You need to have a pocket watcher badge to view this.", "badges": [], "created_at": "2025-06-16T17:52:04.274-04:00", "updated_at": "2025-07-03T19:25:23.839-04:00", "avatar": "https://avatars.slack-edge.com/2025-06-18/9065586198054_751cf0cae3652ee5ecf6_original.png", "custom_css": null}, {"id": 3109, "slack_id": "U092DAZHE2C", "display_name": "Sam Magri", "bio": null, "projects_count": 0, "devlogs_count": 0, "votes_count": 0, "ships_count": 0, "projects": [], "coding_time_seconds": 0, "coding_time_seconds_today": 0, "balance": "You need to have a pocket watcher badge to view this.", "badges": [], "created_at": "2025-06-16T17:52:08.945-04:00", "updated_at": "2025-07-03T19:25:24.107-04:00", "avatar": "https://secure.gravatar.com/avatar/026eb141797ba5f9f916f6bdecd2d24e.jpg?s=512&d=https%3A%2F%2Fa.slack-edge.com%2Fdf10d%2Fimg%2Favatars%2Fava_0024-512.png", "custom_css": null}, {"id": 3110, "slack_id": "U07F798D3NF", "display_name": "Timoo", "bio": "", "projects_count": 2, "devlogs_count": 12, "votes_count": 24, "ships_count": 1, "projects": [{"id": 1937, "title": "Simple midi controller", "devlogs_count": 7, "created_at": "2025-06-19T16:51:18.185-04:00"}, {"id": 3778, "title": "Pico Artnet Node", "devlogs_count": 5, "created_at": "2025-06-25T17:35:58.522-04:00"}], "coding_time_seconds": 336052, "coding_time_seconds_today": 2063, "balance": "You need to have a pocket watcher badge to view this.", "badges": [{"name": "Maiden Voyage", "text": "you shipped your first project! the journey begins...", "icon": "\ud83d\udea2"}], "created_at": "2025-06-16T17:52:11.208-04:00", "updated_at": "2025-09-10T22:52:42.697-04:00", "avatar": "https://secure.gravatar.com/avatar/ebd69618653397a59159ead0cb69ca3c.jpg?s=512&d=https%3A%2F%2Fa.slack-edge.com%2Fdf10d%2Fimg%2Favatars%2Fava_0020-512.png", "custom_css": null}, {"id": 3111, "slack_id": "U07L9SPT0NM", "display_name": "aziz", "bio": null, "projects_count": 0, "devlogs_count": 0, "votes_count": 0, "ships_count": 0, "projects": [], "coding_time_seconds": 0, "coding_time_seconds_today": 0, "balance": "You need to have a pocket watcher badge to view this.", "badges": [], "created_at": "2025-06-16T17:52:11.653-04:00", "updated_at": "2025-07-03T19:25:24.669-04:00", "avatar": "https://secure.gravatar.com/avatar/d1ad552bf6aab801c36b0fa1d81ff291.jpg?s=512&d=https%3A%2F%2Fa.slack-edge.com%2Fdf10d%2Fimg%2Favatars%2Fava_0013-512.png", "custom_css": null}, {"id": 3112, "slack_id": "U08G2MMB1NV", "display_name": "alexx", "bio": null, "projects_count": 0, "devlogs_count": 0, "votes_count": 1, "ships_count": 0, "projects": [], "coding_time_seconds": 1357, "coding_time_seconds_today": 0, "balance": "You need to have a pocket watcher badge to view this.", "badges": [], "created_at": "2025-06-16T17:52:22.966-04:00", "updated_at": "2025-07-03T19:25:24.952-04:00", "avatar": "https://secure.gravatar.com/avatar/5ad0f1cc0b6f0285a590b127428c6f0a.jpg?s=512&d=https%3A%2F%2Fa.slack-edge.com%2Fdf10d%2Fimg%2Favatars%2Fava_0018-512.png", "custom_css": null}, {"id": 3113, "slack_id": "U04FRJN0J82", "display_name": "Antoine", "bio": null, "projects_count": 0, "devlogs_count": 0, "votes_count": 0, "ships_count": 0, "projects": [], "coding_time_seconds": 3, "coding_time_seconds_today": 0, "balance": "You need to have a pocket watcher badge to view this.", "badges": [], "created_at": "2025-06-16T17:52:25.905-04:00", "updated_at": "2025-08-07T18:20:05.964-04:00", "avatar": "https://avatars.slack-edge.com/2024-12-14/8187144786993_0599e1b647ab56923872_original.png", "custom_css": null}, {"id": 3114, "slack_id": "U0919HWL60P", "display_name": "Shashank Mechana", "bio": null, "projects_count": 0, "devlogs_count": 0, "votes_count": 0, "ships_count": 0, "projects": [], "coding_time_seconds": 0, "coding_time_seconds_today": 0, "balance": "You need to have a pocket watcher badge to view this.", "badges": [], "created_at": "2025-06-16T17:52:27.870-04:00", "updated_at": "2025-07-03T19:25:25.619-04:00", "avatar": "https://secure.gravatar.com/avatar/7737c78e916ba8c56874c6414beb3ad7.jpg?s=512&d=https%3A%2F%2Fa.slack-edge.com%2Fdf10d%2Fimg%2Favatars%2Fava_0007-512.png", "custom_css": null}, {"id": 3115, "slack_id": "U0826MVFG20", "display_name": "Alexander Berman", "bio": null, "projects_count": 1, "devlogs_count": 0, "votes_count": 0, "ships_count": 0, "projects": [{"id": 327, "title": "Coding The Future Website", "devlogs_count": 0, "created_at": "2025-06-16T18:04:25.435-04:00"}], "coding_time_seconds": 65653, "coding_time_seconds_today": 0, "balance": "You need to have a pocket watcher badge to view this.", "badges": [], "created_at": "2025-06-16T17:52:47.195-04:00", "updated_at": "2025-07-03T19:25:25.895-04:00", "avatar": "https://avatars.slack-edge.com/2024-11-22/8095052667856_2a892611433a29d061a1_original.jpg", "custom_css": null}, {"id": 3116, "slack_id": "U0923EC4ABB", "display_name": "Gustavo Moraes", "bio": null, "projects_count": 0, "devlogs_count": 0, "votes_count": 0, "ships_count": 0, "projects": [], "coding_time_seconds": 0, "coding_time_seconds_today": 0, "balance": "You need to have a pocket watcher badge to view this.", "badges": [], "created_at": "2025-06-16T17:52:52.392-04:00", "updated_at": "2025-07-03T19:25:26.179-04:00", "avatar": "https://secure.gravatar.com/avatar/9231482a77dd2eeb1d821c1091e44c7a.jpg?s=512&d=https%3A%2F%2Fa.slack-edge.com%2Fdf10d%2Fimg%2Favatars%2Fava_0018-512.png", "custom_css": null}, {"id": 3117, "slack_id": "U079WLY0HLY", "display_name": "Logan Peterson", "bio": null, "projects_count": 0, "devlogs_count": 0, "votes_count": 0, "ships_count": 0, "projects": [], "coding_time_seconds": 54856, "coding_time_seconds_today": 0, "balance": "You need to have a pocket watcher badge to view this.", "badges": [], "created_at": "2025-06-16T17:53:01.676-04:00", "updated_at": "2025-07-23T14:12:24.741-04:00", "avatar": "https://avatars.slack-edge.com/2025-07-23/9238610895363_7e847f7c15a5756fa3be_original.png", "custom_css": null}, {"id": 3118, "slack_id": "U07FKJZLX19", "display_name": "Nabeel (YouthHalo)", "bio": null, "projects_count": 5, "devlogs_count": 27, "votes_count": 68, "ships_count": 5, "projects": [{"id": 13611, "title": "Grave Operator Tech Demo (AI speech to speech within a basic game, submitted to Hack the North 2025", "devlogs_count": 2, "created_at": "2025-09-20T21:46:57.071-04:00"}, {"id": 11025, "title": "Winlatch window manager", "devlogs_count": 1, "created_at": "2025-08-12T13:07:42.804-04:00"}, {"id": 11270, "title": "Bountiful Amethyst", "devlogs_count": 6, "created_at": "2025-08-14T12:38:07.989-04:00"}, {"id": 5968, "title": "Remaking Portfolio Website", "devlogs_count": 4, "created_at": "2025-07-09T13:34:11.597-04:00"}, {"id": 4496, "title": "A Fast Paced Boomer Shooter with an emphasis on air movement", "devlogs_count": 14, "created_at": "2025-06-30T10:27:08.497-04:00"}], "coding_time_seconds": 206971, "coding_time_seconds_today": 0, "balance": "You need to have a pocket watcher badge to view this.", "badges": [{"name": "Maiden Voyage", "text": "you shipped your first project! the journey begins...", "icon": "\ud83d\udea2"}], "created_at": "2025-06-16T17:53:02.604-04:00", "updated_at": "2025-09-19T22:50:45.218-04:00", "avatar": "https://avatars.slack-edge.com/2024-08-05/7515216426743_64c6a0f7081f58b37472_original.jpg", "custom_css": null}, {"id": 3119, "slack_id": "U091J3Z1EA2", "display_name": "bimoluk", "bio": null, "projects_count": 0, "devlogs_count": 0, "votes_count": 0, "ships_count": 0, "projects": [], "coding_time_seconds": 0, "coding_time_seconds_today": 0, "balance": "You need to have a pocket watcher badge to view this.", "badges": [], "created_at": "2025-06-16T17:53:32.587-04:00", "updated_at": "2025-07-03T19:25:26.983-04:00", "avatar": "https://secure.gravatar.com/avatar/0f2e63b54939331b4a7e905b110bf382.jpg?s=512&d=https%3A%2F%2Fa.slack-edge.com%2Fdf10d%2Fimg%2Favatars%2Fava_0012-512.png", "custom_css": null}, {"id": 3120, "slack_id": "U08M1BG2YNQ", "display_name": "Simon Wilke", "bio": "", "projects_count": 1, "devlogs_count": 5, "votes_count": 8, "ships_count": 0, "projects": [{"id": 356, "title": "Rochester Radar ", "devlogs_count": 5, "created_at": "2025-06-16T19:00:35.091-04:00"}], "coding_time_seconds": 190792, "coding_time_seconds_today": 0, "balance": "You need to have a pocket watcher badge to view this.", "badges": [], "created_at": "2025-06-16T17:53:37.289-04:00", "updated_at": "2025-08-29T11:26:25.698-04:00", "avatar": "https://secure.gravatar.com/avatar/9521406e61c0785f9cbbace08b34609d.jpg?s=512&d=https%3A%2F%2Fa.slack-edge.com%2Fdf10d%2Fimg%2Favatars%2Fava_0008-512.png", "custom_css": null}], "pagination": {"page": 156, "pages": 1192, "count": 23828, "items": 20}}