{"users": [{"id": 3121, "slack_id": "U091J3ZJNNS", "display_name": "przychlast", "bio": null, "projects_count": 0, "devlogs_count": 0, "votes_count": 0, "ships_count": 0, "projects": [], "coding_time_seconds": 27056, "coding_time_seconds_today": 0, "balance": "You need to have a pocket watcher badge to view this.", "badges": [], "created_at": "2025-06-16T17:53:48.667-04:00", "updated_at": "2025-07-03T19:25:27.536-04:00", "avatar": "https://avatars.slack-edge.com/2025-06-16/9057168665301_9b1b155145d5673dec60_original.jpg", "custom_css": null}, {"id": 3122, "slack_id": "U091J3S6UKY", "display_name": "Hollovv", "bio": null, "projects_count": 0, "devlogs_count": 0, "votes_count": 0, "ships_count": 0, "projects": [], "coding_time_seconds": 0, "coding_time_seconds_today": 0, "balance": "You need to have a pocket watcher badge to view this.", "badges": [], "created_at": "2025-06-16T17:53:49.438-04:00", "updated_at": "2025-07-03T19:25:27.806-04:00", "avatar": "https://secure.gravatar.com/avatar/0c505b901ba954ecb59781fc5a940add.jpg?s=512&d=https%3A%2F%2Fa.slack-edge.com%2Fdf10d%2Fimg%2Favatars%2Fava_0019-512.png", "custom_css": null}, {"id": 3123, "slack_id": "U08N37Y0XTN", "display_name": "Pritikaa V", "bio": null, "projects_count": 0, "devlogs_count": 0, "votes_count": 0, "ships_count": 0, "projects": [], "coding_time_seconds": 2304, "coding_time_seconds_today": 0, "balance": "You need to have a pocket watcher badge to view this.", "badges": [], "created_at": "2025-06-16T17:54:10.008-04:00", "updated_at": "2025-07-03T19:25:28.079-04:00", "avatar": "https://secure.gravatar.com/avatar/b5fdd6a2997f9bb3ebd5cc049ff730f0.jpg?s=512&d=https%3A%2F%2Fa.slack-edge.com%2Fdf10d%2Fimg%2Favatars%2Fava_0026-512.png", "custom_css": null}, {"id": 3124, "slack_id": "U080HGG7JF3", "display_name": "freshlemon", "bio": null, "projects_count": 1, "devlogs_count": 2, "votes_count": 0, "ships_count": 0, "projects": [{"id": 3623, "title": "Arganda", "devlogs_count": 2, "created_at": "2025-06-25T02:04:24.379-04:00"}], "coding_time_seconds": 52537, "coding_time_seconds_today": 9106, "balance": "You need to have a pocket watcher badge to view this.", "badges": [], "created_at": "2025-06-16T17:54:10.351-04:00", "updated_at": "2025-08-26T17:46:15.887-04:00", "avatar": "https://secure.gravatar.com/avatar/c1ddfa6ec1db673220256587f355035e.jpg?s=512&d=https%3A%2F%2Fa.slack-edge.com%2Fdf10d%2Fimg%2Favatars%2Fava_0013-512.png", "custom_css": null}, {"id": 3125, "slack_id": "U0836K9FJS0", "display_name": "acise03", "bio": null, "projects_count": 1, "devlogs_count": 12, "votes_count": 32, "ships_count": 1, "projects": [{"id": 4985, "title": "Share Your Code", "devlogs_count": 12, "created_at": "2025-07-02T14:33:25.902-04:00"}], "coding_time_seconds": 457858, "coding_time_seconds_today": 0, "balance": "You need to have a pocket watcher badge to view this.", "badges": [{"name": "Maiden Voyage", "text": "you shipped your first project! the journey begins...", "icon": "\ud83d\udea2"}], "created_at": "2025-06-16T17:54:16.318-04:00", "updated_at": "2025-09-10T22:52:43.105-04:00", "avatar": "https://avatars.slack-edge.com/2024-12-04/8127356124387_0df1b253bf448ec42db7_original.jpg", "custom_css": null}, {"id": 3126, "slack_id": "U08LXTG7R6H", "display_name": "dekai", "bio": null, "projects_count": 0, "devlogs_count": 0, "votes_count": 0, "ships_count": 0, "projects": [], "coding_time_seconds": 33890, "coding_time_seconds_today": 0, "balance": "You need to have a pocket watcher badge to view this.", "badges": [], "created_at": "2025-06-16T17:54:22.332-04:00", "updated_at": "2025-07-03T19:25:28.771-04:00", "avatar": "https://avatars.slack-edge.com/2025-05-02/8853127246401_6874d9f93b2170b6350e_original.jpg", "custom_css": null}, {"id": 3127, "slack_id": "U07AQAW3REH", "display_name": "Ishaan Ahuja", "bio": null, "projects_count": 3, "devlogs_count": 25, "votes_count": 70, "ships_count": 2, "projects": [{"id": 1920, "title": "AI Robot Camera", "devlogs_count": 9, "created_at": "2025-06-19T16:09:32.393-04:00"}, {"id": 10337, "title": "Chess Non-Stop", "devlogs_count": 2, "created_at": "2025-08-06T03:07:59.968-04:00"}, {"id": 2374, "title": "Custom Dog Playing Fetch with ML", "devlogs_count": 14, "created_at": "2025-06-20T21:26:01.359-04:00"}], "coding_time_seconds": 584549, "coding_time_seconds_today": 0, "balance": "You need to have a pocket watcher badge to view this.", "badges": [{"name": "Maiden Voyage", "text": "you shipped your first project! the journey begins...", "icon": "\ud83d\udea2"}], "created_at": "2025-06-16T17:54:27.190-04:00", "updated_at": "2025-09-10T22:52:43.166-04:00", "avatar": "https://secure.gravatar.com/avatar/a20bd84cf39ad4facf309632191ad08f.jpg?s=512&d=https%3A%2F%2Fa.slack-edge.com%2Fdf10d%2Fimg%2Favatars%2Fava_0026-512.png", "custom_css": null}, {"id": 3128, "slack_id": "U092DBADTL0", "display_name": "Marta", "bio": null, "projects_count": 0, "devlogs_count": 0, "votes_count": 0, "ships_count": 0, "projects": [], "coding_time_seconds": 0, "coding_time_seconds_today": 0, "balance": "You need to have a pocket watcher badge to view this.", "badges": [], "created_at": "2025-06-16T17:54:33.782-04:00", "updated_at": "2025-07-03T19:25:29.325-04:00", "avatar": "https://secure.gravatar.com/avatar/321733494b57aa7d227b58fb98b347c9.jpg?s=512&d=https%3A%2F%2Fa.slack-edge.com%2Fdf10d%2Fimg%2Favatars%2Fava_0015-512.png", "custom_css": null}, {"id": 3129, "slack_id": "U082UA5FSEN", "display_name": "Luke G", "bio": null, "projects_count": 1, "devlogs_count": 2, "votes_count": 0, "ships_count": 0, "projects": [{"id": 2115, "title": "Render Engine", "devlogs_count": 2, "created_at": "2025-06-20T07:14:50.300-04:00"}], "coding_time_seconds": 226053, "coding_time_seconds_today": 0, "balance": "You need to have a pocket watcher badge to view this.", "badges": [], "created_at": "2025-06-16T17:54:34.301-04:00", "updated_at": "2025-07-03T19:25:29.591-04:00", "avatar": "https://avatars.slack-edge.com/2024-11-30/8104672705491_f15083369799b328b001_original.png", "custom_css": null}, {"id": 3130, "slack_id": "U08LX7762F7", "display_name": "Chroma", "bio": null, "projects_count": 1, "devlogs_count": 1, "votes_count": 1, "ships_count": 1, "projects": [{"id": 3434, "title": "Boba Drops", "devlogs_count": 1, "created_at": "2025-06-24T08:25:48.525-04:00"}], "coding_time_seconds": 19241, "coding_time_seconds_today": 0, "balance": "You need to have a pocket watcher badge to view this.", "badges": [{"name": "Maiden Voyage", "text": "you shipped your first project! the journey begins...", "icon": "\ud83d\udea2"}], "created_at": "2025-06-16T17:54:43.820-04:00", "updated_at": "2025-09-15T18:12:15.075-04:00", "avatar": "https://avatars.slack-edge.com/2025-09-15/9526477948276_8dc7b126bcf88f1b21e6_original.png", "custom_css": null}, {"id": 3131, "slack_id": "U091J4B22PQ", "display_name": "G", "bio": null, "projects_count": 0, "devlogs_count": 0, "votes_count": 2, "ships_count": 0, "projects": [], "coding_time_seconds": 15793, "coding_time_seconds_today": 0, "balance": "You need to have a pocket watcher badge to view this.", "badges": [], "created_at": "2025-06-16T17:54:50.207-04:00", "updated_at": "2025-07-03T19:25:30.124-04:00", "avatar": "https://avatars.slack-edge.com/2025-06-16/9059354082676_1d42d27833a5ef183274_original.jpg", "custom_css": null}, {"id": 3132, "slack_id": "U0732JC670W", "display_name": "Elijah DeBusk", "bio": null, "projects_count": 4, "devlogs_count": 5, "votes_count": 0, "ships_count": 1, "projects": [{"id": 3359, "title": "Lodes and Leaps", "devlogs_count": 2, "created_at": "2025-06-24T00:33:42.090-04:00"}, {"id": 12339, "title": "Miniverse", "devlogs_count": 1, "created_at": "2025-08-26T00:41:03.637-04:00"}, {"id": 12644, "title": "Character Connection Graph", "devlogs_count": 1, "created_at": "2025-08-31T00:11:25.318-04:00"}, {"id": 12341, "title": "P5 UI Library", "devlogs_count": 1, "created_at": "2025-08-26T00:51:12.187-04:00"}], "coding_time_seconds": 291445, "coding_time_seconds_today": 0, "balance": "You need to have a pocket watcher badge to view this.", "badges": [{"name": "Maiden Voyage", "text": "you shipped your first project! the journey begins...", "icon": "\ud83d\udea2"}], "created_at": "2025-06-16T17:54:52.009-04:00", "updated_at": "2025-09-16T23:27:46.878-04:00", "avatar": "https://avatars.slack-edge.com/2024-05-13/7108348037861_f82ff4c3ad182361677c_original.jpg", "custom_css": null}, {"id": 3133, "slack_id": "U091R8TRE76", "display_name": "CJ M", "bio": null, "projects_count": 0, "devlogs_count": 0, "votes_count": 0, "ships_count": 0, "projects": [], "coding_time_seconds": 0, "coding_time_seconds_today": 0, "balance": "You need to have a pocket watcher badge to view this.", "badges": [], "created_at": "2025-06-16T17:54:53.656-04:00", "updated_at": "2025-07-03T19:25:30.656-04:00", "avatar": "https://secure.gravatar.com/avatar/93f9ad8ee175a748aedd811ed96b9cf7.jpg?s=512&d=https%3A%2F%2Fa.slack-edge.com%2Fdf10d%2Fimg%2Favatars%2Fava_0001-512.png", "custom_css": null}, {"id": 3134, "slack_id": "U092DB9PJGG", "display_name": "Shuzhou Liu", "bio": null, "projects_count": 0, "devlogs_count": 0, "votes_count": 0, "ships_count": 0, "projects": [], "coding_time_seconds": 0, "coding_time_seconds_today": 0, "balance": "You need to have a pocket watcher badge to view this.", "badges": [], "created_at": "2025-06-16T17:55:29.806-04:00", "updated_at": "2025-07-03T19:25:30.925-04:00", "avatar": "https://secure.gravatar.com/avatar/9ff2f0925a1ce7b86b5870b2e4f93e55.jpg?s=512&d=https%3A%2F%2Fa.slack-edge.com%2Fdf10d%2Fimg%2Favatars%2Fava_0010-512.png", "custom_css": null}, {"id": 3135, "slack_id": "U091J40F7JS", "display_name": "Relik403", "bio": null, "projects_count": 2, "devlogs_count": 3, "votes_count": 0, "ships_count": 0, "projects": [{"id": 754, "title": "RelikSite / CTF Tools", "devlogs_count": 3, "created_at": "2025-06-17T07:20:40.168-04:00"}, {"id": 6556, "title": "boykizzer", "devlogs_count": 0, "created_at": "2025-07-14T07:52:43.538-04:00"}], "coding_time_seconds": 53745, "coding_time_seconds_today": 0, "balance": "You need to have a pocket watcher badge to view this.", "badges": [], "created_at": "2025-06-16T17:55:35.425-04:00", "updated_at": "2025-08-06T12:44:13.110-04:00", "avatar": "https://avatars.slack-edge.com/2025-06-17/9059344096388_ee837305310cff78074f_original.jpg", "custom_css": null}, {"id": 3136, "slack_id": "U08RNN1ANTW", "display_name": "Rahul", "bio": null, "projects_count": 0, "devlogs_count": 40, "votes_count": 9, "ships_count": 0, "projects": [], "coding_time_seconds": 547876, "coding_time_seconds_today": 0, "balance": "You need to have a pocket watcher badge to view this.", "badges": [{"name": "Maiden Voyage", "text": "you shipped your first project! the journey begins...", "icon": "\ud83d\udea2"}], "created_at": "2025-06-16T17:55:44.961-04:00", "updated_at": "2025-09-10T22:52:43.412-04:00", "avatar": "https://avatars.slack-edge.com/2025-05-08/8881182589985_040b01252068c119ae48_original.jpg", "custom_css": null}, {"id": 3137, "slack_id": "U091J0DU5SP", "display_name": "Adam Steven", "bio": null, "projects_count": 2, "devlogs_count": 6, "votes_count": 30, "ships_count": 2, "projects": [{"id": 12193, "title": "Yeeps Record Player", "devlogs_count": 3, "created_at": "2025-08-24T08:06:37.270-04:00"}, {"id": 6576, "title": "Summer of Scavenging", "devlogs_count": 3, "created_at": "2025-07-14T10:40:17.113-04:00"}], "coding_time_seconds": 129167, "coding_time_seconds_today": 0, "balance": "You need to have a pocket watcher badge to view this.", "badges": [{"name": "Maiden Voyage", "text": "you shipped your first project! the journey begins...", "icon": "\ud83d\udea2"}], "created_at": "2025-06-16T17:55:45.011-04:00", "updated_at": "2025-09-10T22:52:43.440-04:00", "avatar": "https://secure.gravatar.com/avatar/4e40fe00cd780e6d2ab8f3f40b89ff85.jpg?s=512&d=https%3A%2F%2Fa.slack-edge.com%2Fdf10d%2Fimg%2Favatars%2Fava_0001-512.png", "custom_css": null}, {"id": 3138, "slack_id": "U0919F8UNAK", "display_name": "tk", "bio": null, "projects_count": 0, "devlogs_count": 0, "votes_count": 0, "ships_count": 0, "projects": [], "coding_time_seconds": 0, "coding_time_seconds_today": 0, "balance": "You need to have a pocket watcher badge to view this.", "badges": [], "created_at": "2025-06-16T17:55:47.162-04:00", "updated_at": "2025-07-03T19:25:32.016-04:00", "avatar": "https://secure.gravatar.com/avatar/545100518e12464c5890518a3bbc2368.jpg?s=512&d=https%3A%2F%2Fa.slack-edge.com%2Fdf10d%2Fimg%2Favatars%2Fava_0010-512.png", "custom_css": null}, {"id": 3139, "slack_id": "U0923EK8YF3", "display_name": "Sujay Chava", "bio": null, "projects_count": 0, "devlogs_count": 0, "votes_count": 0, "ships_count": 0, "projects": [], "coding_time_seconds": 0, "coding_time_seconds_today": 0, "balance": "You need to have a pocket watcher badge to view this.", "badges": [], "created_at": "2025-06-16T17:55:47.204-04:00", "updated_at": "2025-07-03T19:25:32.283-04:00", "avatar": "https://secure.gravatar.com/avatar/6b628cd5b39c28be816dfb56c025cd01.jpg?s=512&d=https%3A%2F%2Fa.slack-edge.com%2Fdf10d%2Fimg%2Favatars%2Fava_0007-512.png", "custom_css": null}, {"id": 3140, "slack_id": "U07B12MLR4G", "display_name": "Orhan Yi\u011fit Durmaz", "bio": null, "projects_count": 0, "devlogs_count": 0, "votes_count": 0, "ships_count": 0, "projects": [], "coding_time_seconds": 0, "coding_time_seconds_today": 0, "balance": "You need to have a pocket watcher badge to view this.", "badges": [], "created_at": "2025-06-16T17:55:51.275-04:00", "updated_at": "2025-07-03T19:25:32.550-04:00", "avatar": "https://avatars.slack-edge.com/2024-07-05/7363610200615_ab2b25d4153d09a6319b_original.jpg", "custom_css": null}], "pagination": {"page": 157, "pages": 1192, "count": 23828, "items": 20}}