{"users": [{"id": 301, "slack_id": "U091FKWJL4T", "display_name": "dat", "bio": null, "projects_count": 0, "devlogs_count": 0, "votes_count": 0, "ships_count": 0, "projects": [], "coding_time_seconds": 0, "coding_time_seconds_today": 0, "balance": "You need to have a pocket watcher badge to view this.", "badges": [], "created_at": "2025-06-16T10:47:55.009-04:00", "updated_at": "2025-07-03T19:12:22.248-04:00", "avatar": "https://secure.gravatar.com/avatar/ca3b7f2cd440b23819dbe1f8ae1577bf.jpg?s=512&d=https%3A%2F%2Fa.slack-edge.com%2Fdf10d%2Fimg%2Favatars%2Fava_0012-512.png", "custom_css": null}, {"id": 302, "slack_id": "U07958H05B2", "display_name": "Draggie306", "bio": null, "projects_count": 0, "devlogs_count": 0, "votes_count": 0, "ships_count": 0, "projects": [], "coding_time_seconds": 0, "coding_time_seconds_today": 0, "balance": "You need to have a pocket watcher badge to view this.", "badges": [], "created_at": "2025-06-16T10:48:05.255-04:00", "updated_at": "2025-07-03T19:12:22.510-04:00", "avatar": "https://avatars.slack-edge.com/2024-06-26/7322839383991_3ee8d13c5cd7eb217816_original.jpg", "custom_css": null}, {"id": 303, "slack_id": "U0917A2JU4X", "display_name": "Abhijeet Kumar Singh", "bio": null, "projects_count": 0, "devlogs_count": 0, "votes_count": 0, "ships_count": 0, "projects": [], "coding_time_seconds": 91714, "coding_time_seconds_today": 0, "balance": "You need to have a pocket watcher badge to view this.", "badges": [], "created_at": "2025-06-16T10:48:08.902-04:00", "updated_at": "2025-07-03T19:12:22.790-04:00", "avatar": "https://secure.gravatar.com/avatar/d65bea3961dec024cdb978ab9cdca3ea.jpg?s=512&d=https%3A%2F%2Fa.slack-edge.com%2Fdf10d%2Fimg%2Favatars%2Fava_0024-512.png", "custom_css": null}, {"id": 304, "slack_id": "U08NCJCSM7S", "display_name": "Arnav", "bio": null, "projects_count": 0, "devlogs_count": 0, "votes_count": 0, "ships_count": 0, "projects": [], "coding_time_seconds": 0, "coding_time_seconds_today": 0, "balance": "You need to have a pocket watcher badge to view this.", "badges": [], "created_at": "2025-06-16T10:48:11.275-04:00", "updated_at": "2025-07-03T19:12:23.069-04:00", "avatar": "https://secure.gravatar.com/avatar/a2563f25c964a7a9062150d551988442.jpg?s=512&d=https%3A%2F%2Fa.slack-edge.com%2Fdf10d%2Fimg%2Favatars%2Fava_0008-512.png", "custom_css": null}, {"id": 305, "slack_id": "U091LS89VK7", "display_name": "CoCoSol", "bio": null, "projects_count": 0, "devlogs_count": 0, "votes_count": 0, "ships_count": 0, "projects": [], "coding_time_seconds": 0, "coding_time_seconds_today": 0, "balance": "You need to have a pocket watcher badge to view this.", "badges": [], "created_at": "2025-06-16T10:48:13.700-04:00", "updated_at": "2025-07-03T19:12:23.338-04:00", "avatar": "https://secure.gravatar.com/avatar/a7942845be95211969be1f821d85368c.jpg?s=512&d=https%3A%2F%2Fa.slack-edge.com%2Fdf10d%2Fimg%2Favatars%2Fava_0016-512.png", "custom_css": null}, {"id": 306, "slack_id": "U0921700ABT", "display_name": "HashPai", "bio": null, "projects_count": 0, "devlogs_count": 0, "votes_count": 0, "ships_count": 0, "projects": [], "coding_time_seconds": 89197, "coding_time_seconds_today": 0, "balance": "You need to have a pocket watcher badge to view this.", "badges": [], "created_at": "2025-06-16T10:48:15.093-04:00", "updated_at": "2025-07-03T19:12:23.608-04:00", "avatar": "https://secure.gravatar.com/avatar/542bfc7c47fdae993cc029304b01d402.jpg?s=512&d=https%3A%2F%2Fa.slack-edge.com%2Fdf10d%2Fimg%2Favatars%2Fava_0006-512.png", "custom_css": null}, {"id": 307, "slack_id": "U078LR508E7", "display_name": "artur33", "bio": null, "projects_count": 1, "devlogs_count": 12, "votes_count": 11, "ships_count": 1, "projects": [{"id": 2256, "title": "PyOs-Bash", "devlogs_count": 12, "created_at": "2025-06-20T15:13:41.754-04:00"}], "coding_time_seconds": 132193, "coding_time_seconds_today": 0, "balance": "You need to have a pocket watcher badge to view this.", "badges": [{"name": "Maiden Voyage", "text": "you shipped your first project! the journey begins...", "icon": "\ud83d\udea2"}], "created_at": "2025-06-16T10:48:27.937-04:00", "updated_at": "2025-09-10T22:51:16.203-04:00", "avatar": "https://avatars.slack-edge.com/2024-11-01/7965965994053_f49d6bf5750bb5f1a141_original.png", "custom_css": null}, {"id": 308, "slack_id": "U092174PURF", "display_name": "rekas", "bio": null, "projects_count": 0, "devlogs_count": 0, "votes_count": 0, "ships_count": 0, "projects": [], "coding_time_seconds": 7371, "coding_time_seconds_today": 0, "balance": "You need to have a pocket watcher badge to view this.", "badges": [], "created_at": "2025-06-16T10:48:28.309-04:00", "updated_at": "2025-07-03T19:12:24.137-04:00", "avatar": "https://secure.gravatar.com/avatar/7dff8c81669a889e9fd29a4d8e80a9db.jpg?s=512&d=https%3A%2F%2Fa.slack-edge.com%2Fdf10d%2Fimg%2Favatars%2Fava_0001-512.png", "custom_css": null}, {"id": 309, "slack_id": "U091FKVKHJP", "display_name": "Stefan Dumitriu", "bio": null, "projects_count": 1, "devlogs_count": 11, "votes_count": 20, "ships_count": 1, "projects": [{"id": 1377, "title": "Hide and Seek App", "devlogs_count": 11, "created_at": "2025-06-18T12:40:24.577-04:00"}], "coding_time_seconds": 186102, "coding_time_seconds_today": 0, "balance": "You need to have a pocket watcher badge to view this.", "badges": [{"name": "Maiden Voyage", "text": "you shipped your first project! the journey begins...", "icon": "\ud83d\udea2"}], "created_at": "2025-06-16T10:48:31.138-04:00", "updated_at": "2025-09-10T22:51:16.256-04:00", "avatar": "https://secure.gravatar.com/avatar/9bdc1d8cf99fe25df94f160514733c2d.jpg?s=512&d=https%3A%2F%2Fa.slack-edge.com%2Fdf10d%2Fimg%2Favatars%2Fava_0002-512.png", "custom_css": null}, {"id": 310, "slack_id": "U092177BWBT", "display_name": "Binh Minh", "bio": null, "projects_count": 0, "devlogs_count": 0, "votes_count": 0, "ships_count": 0, "projects": [], "coding_time_seconds": 252034, "coding_time_seconds_today": 0, "balance": "You need to have a pocket watcher badge to view this.", "badges": [], "created_at": "2025-06-16T10:48:36.106-04:00", "updated_at": "2025-07-03T19:12:24.673-04:00", "avatar": "https://secure.gravatar.com/avatar/4d0e0190c938f11b039fe2cf5817006f.jpg?s=512&d=https%3A%2F%2Fa.slack-edge.com%2Fdf10d%2Fimg%2Favatars%2Fava_0022-512.png", "custom_css": null}, {"id": 311, "slack_id": "U082G7255EV", "display_name": "Bai", "bio": null, "projects_count": 6, "devlogs_count": 49, "votes_count": 163, "ships_count": 5, "projects": [{"id": 10680, "title": "Chaos Poker", "devlogs_count": 10, "created_at": "2025-08-09T14:33:57.963-04:00"}, {"id": 13494, "title": "Data structures", "devlogs_count": 2, "created_at": "2025-09-17T20:09:42.931-04:00"}, {"id": 6737, "title": "Quantum Chess", "devlogs_count": 17, "created_at": "2025-07-15T16:26:26.563-04:00"}, {"id": 7754, "title": "Website Price Notifier", "devlogs_count": 1, "created_at": "2025-07-22T21:55:55.482-04:00"}, {"id": 9560, "title": "Quantum Random Number Generator", "devlogs_count": 1, "created_at": "2025-08-01T16:43:21.960-04:00"}, {"id": 1803, "title": "Web App Mafia with AI Bots", "devlogs_count": 15, "created_at": "2025-06-19T09:23:28.163-04:00"}], "coding_time_seconds": 313394, "coding_time_seconds_today": 0, "balance": "You need to have a pocket watcher badge to view this.", "badges": [{"name": "Maiden Voyage", "text": "you shipped your first project! the journey begins...", "icon": "\ud83d\udea2"}, {"name": "Ballot Stuffer", "text": "vote 100 times.", "icon": "https://summer.hackclub.com/assets/i_voted-bf851b48.png"}], "created_at": "2025-06-16T10:48:37.442-04:00", "updated_at": "2025-09-10T22:51:16.329-04:00", "avatar": "https://avatars.slack-edge.com/2025-02-01/8379501834902_de410e222550cea5a3fd_original.jpg", "custom_css": null}, {"id": 312, "slack_id": "U079ENZ215M", "display_name": "HTaamas", "bio": null, "projects_count": 2, "devlogs_count": 6, "votes_count": 8, "ships_count": 1, "projects": [{"id": 294, "title": "Redesign of personal site", "devlogs_count": 1, "created_at": "2025-06-16T17:21:07.980-04:00"}, {"id": 1292, "title": "Basic cli tools", "devlogs_count": 5, "created_at": "2025-06-18T06:28:23.551-04:00"}], "coding_time_seconds": 84787, "coding_time_seconds_today": 616, "balance": "You need to have a pocket watcher badge to view this.", "badges": [{"name": "Maiden Voyage", "text": "you shipped your first project! the journey begins...", "icon": "\ud83d\udea2"}], "created_at": "2025-06-16T10:48:54.581-04:00", "updated_at": "2025-09-10T22:51:16.360-04:00", "avatar": "https://secure.gravatar.com/avatar/87bc093c10fd6fae8cde5e3e09dd1c93.jpg?s=512&d=https%3A%2F%2Fa.slack-edge.com%2Fdf10d%2Fimg%2Favatars%2Fava_0017-512.png", "custom_css": null}, {"id": 313, "slack_id": "U09217CMVLZ", "display_name": "Sruthi balasubramaniam", "bio": null, "projects_count": 0, "devlogs_count": 0, "votes_count": 0, "ships_count": 0, "projects": [], "coding_time_seconds": 0, "coding_time_seconds_today": 0, "balance": "You need to have a pocket watcher badge to view this.", "badges": [], "created_at": "2025-06-16T10:48:57.980-04:00", "updated_at": "2025-07-03T19:12:25.481-04:00", "avatar": "https://secure.gravatar.com/avatar/be0eafdfb9dbc7cda368ad9c566bac10.jpg?s=512&d=https%3A%2F%2Fa.slack-edge.com%2Fdf10d%2Fimg%2Favatars%2Fava_0025-512.png", "custom_css": null}, {"id": 314, "slack_id": "U091P3HE42Y", "display_name": "Aryan", "bio": null, "projects_count": 0, "devlogs_count": 0, "votes_count": 0, "ships_count": 0, "projects": [], "coding_time_seconds": 0, "coding_time_seconds_today": 0, "balance": "You need to have a pocket watcher badge to view this.", "badges": [], "created_at": "2025-06-16T10:49:25.377-04:00", "updated_at": "2025-07-03T19:12:25.740-04:00", "avatar": "https://secure.gravatar.com/avatar/115c7611f42a9a4ae3e560509e8459b5.jpg?s=512&d=https%3A%2F%2Fa.slack-edge.com%2Fdf10d%2Fimg%2Favatars%2Fava_0013-512.png", "custom_css": null}, {"id": 315, "slack_id": "U0917AFR9DM", "display_name": "Laeth English", "bio": "", "projects_count": 2, "devlogs_count": 24, "votes_count": 49, "ships_count": 1, "projects": [{"id": 537, "title": "3DRenderer", "devlogs_count": 9, "created_at": "2025-06-17T00:43:47.413-04:00"}, {"id": 7885, "title": "Universe Simulator", "devlogs_count": 15, "created_at": "2025-07-23T12:29:56.057-04:00"}], "coding_time_seconds": 285405, "coding_time_seconds_today": 0, "balance": "You need to have a pocket watcher badge to view this.", "badges": [{"name": "Maiden Voyage", "text": "you shipped your first project! the journey begins...", "icon": "\ud83d\udea2"}], "created_at": "2025-06-16T10:49:33.139-04:00", "updated_at": "2025-09-10T22:51:16.670-04:00", "avatar": "https://secure.gravatar.com/avatar/661a632ceff1e62dc6a3348f24ea6bf2.jpg?s=512&d=https%3A%2F%2Fa.slack-edge.com%2Fdf10d%2Fimg%2Favatars%2Fava_0026-512.png", "custom_css": null}, {"id": 316, "slack_id": "U0917AJ2GR5", "display_name": "Anuja Mishra", "bio": null, "projects_count": 1, "devlogs_count": 0, "votes_count": 0, "ships_count": 0, "projects": [{"id": 157, "title": "true feeback", "devlogs_count": 0, "created_at": "2025-06-16T14:39:26.031-04:00"}], "coding_time_seconds": 58277, "coding_time_seconds_today": 0, "balance": "You need to have a pocket watcher badge to view this.", "badges": [], "created_at": "2025-06-16T10:49:36.351-04:00", "updated_at": "2025-07-03T19:12:26.275-04:00", "avatar": "https://secure.gravatar.com/avatar/a2fd06a221c53886658ce1fdfc31cbec.jpg?s=512&d=https%3A%2F%2Fa.slack-edge.com%2Fdf10d%2Fimg%2Favatars%2Fava_0021-512.png", "custom_css": null}, {"id": 317, "slack_id": "U092B4NBRJL", "display_name": "dadodasyra", "bio": null, "projects_count": 2, "devlogs_count": 3, "votes_count": 20, "ships_count": 1, "projects": [{"id": 6889, "title": "Histeria", "devlogs_count": 2, "created_at": "2025-07-17T05:03:38.988-04:00"}, {"id": 3557, "title": "Atlas du Royaume", "devlogs_count": 1, "created_at": "2025-06-24T17:00:35.295-04:00"}], "coding_time_seconds": 335609, "coding_time_seconds_today": 0, "balance": "You need to have a pocket watcher badge to view this.", "badges": [{"name": "Maiden Voyage", "text": "you shipped your first project! the journey begins...", "icon": "\ud83d\udea2"}], "created_at": "2025-06-16T10:49:54.957-04:00", "updated_at": "2025-09-10T22:51:16.729-04:00", "avatar": "https://secure.gravatar.com/avatar/e2a4c97fe6ca33d7f7bbfd6b7db3e111.jpg?s=512&d=https%3A%2F%2Fa.slack-edge.com%2Fdf10d%2Fimg%2Favatars%2Fava_0005-512.png", "custom_css": null}, {"id": 318, "slack_id": "U091NKDD8GJ", "display_name": "Elias Schaffer", "bio": null, "projects_count": 2, "devlogs_count": 14, "votes_count": 0, "ships_count": 0, "projects": [{"id": 587, "title": "mfa application", "devlogs_count": 8, "created_at": "2025-06-17T02:09:57.516-04:00"}, {"id": 3073, "title": "mfa GUI", "devlogs_count": 6, "created_at": "2025-06-23T01:58:07.639-04:00"}], "coding_time_seconds": 62348, "coding_time_seconds_today": 0, "balance": "You need to have a pocket watcher badge to view this.", "badges": [], "created_at": "2025-06-16T10:49:57.682-04:00", "updated_at": "2025-07-03T19:12:26.799-04:00", "avatar": "https://secure.gravatar.com/avatar/7c9718ce1ca4a262e51200a8e64241b9.jpg?s=512&d=https%3A%2F%2Fa.slack-edge.com%2Fdf10d%2Fimg%2Favatars%2Fava_0013-512.png", "custom_css": null}, {"id": 319, "slack_id": "U091P3RCVGC", "display_name": "ismail harmanda", "bio": null, "projects_count": 0, "devlogs_count": 0, "votes_count": 0, "ships_count": 0, "projects": [], "coding_time_seconds": 0, "coding_time_seconds_today": 0, "balance": "You need to have a pocket watcher badge to view this.", "badges": [], "created_at": "2025-06-16T10:50:16.302-04:00", "updated_at": "2025-07-03T19:12:27.063-04:00", "avatar": "https://secure.gravatar.com/avatar/58ea38db6f6bcae759bcecbc17f68afb.jpg?s=512&d=https%3A%2F%2Fa.slack-edge.com%2Fdf10d%2Fimg%2Favatars%2Fava_0021-512.png", "custom_css": null}, {"id": 320, "slack_id": "U07RQC9RXA8", "display_name": "Hafsah", "bio": null, "projects_count": 0, "devlogs_count": 0, "votes_count": 0, "ships_count": 0, "projects": [], "coding_time_seconds": 2200, "coding_time_seconds_today": 0, "balance": "You need to have a pocket watcher badge to view this.", "badges": [], "created_at": "2025-06-16T10:50:31.687-04:00", "updated_at": "2025-07-03T19:12:27.332-04:00", "avatar": "https://secure.gravatar.com/avatar/d733a9f18692432a53911e1d8aaa0aa6.jpg?s=512&d=https%3A%2F%2Fa.slack-edge.com%2Fdf10d%2Fimg%2Favatars%2Fava_0014-512.png", "custom_css": null}], "pagination": {"page": 16, "pages": 1192, "count": 23827, "items": 20}}