{"users": [{"id": 3181, "slack_id": "U0826VDTK4K", "display_name": "blob blobbing", "bio": null, "projects_count": 1, "devlogs_count": 7, "votes_count": 0, "ships_count": 0, "projects": [{"id": 5497, "title": "Neural Network", "devlogs_count": 7, "created_at": "2025-07-05T17:49:41.552-04:00"}], "coding_time_seconds": 261955, "coding_time_seconds_today": 0, "balance": "You need to have a pocket watcher badge to view this.", "badges": [], "created_at": "2025-06-16T18:00:18.650-04:00", "updated_at": "2025-08-07T14:06:02.752-04:00", "avatar": "https://avatars.slack-edge.com/2024-11-23/8075088129186_d187b8380b9c7f254518_original.png", "custom_css": null}, {"id": 3182, "slack_id": "U091QUJ9SE6", "display_name": "cadabra", "bio": null, "projects_count": 1, "devlogs_count": 4, "votes_count": 2, "ships_count": 0, "projects": [{"id": 388, "title": "Egress", "devlogs_count": 4, "created_at": "2025-06-16T19:55:06.068-04:00"}], "coding_time_seconds": 207219, "coding_time_seconds_today": 0, "balance": "You need to have a pocket watcher badge to view this.", "badges": [], "created_at": "2025-06-16T18:00:33.923-04:00", "updated_at": "2025-08-12T02:05:59.847-04:00", "avatar": "https://secure.gravatar.com/avatar/32ac30c27b4d30c7ea46a4c521233642.jpg?s=512&d=https%3A%2F%2Fa.slack-edge.com%2Fdf10d%2Fimg%2Favatars%2Fava_0004-512.png", "custom_css": null}, {"id": 3183, "slack_id": "U082UBRL5NE", "display_name": "Richard Huberjohn", "bio": null, "projects_count": 0, "devlogs_count": 0, "votes_count": 0, "ships_count": 0, "projects": [], "coding_time_seconds": 0, "coding_time_seconds_today": 0, "balance": "You need to have a pocket watcher badge to view this.", "badges": [], "created_at": "2025-06-16T18:00:36.483-04:00", "updated_at": "2025-07-03T19:25:44.241-04:00", "avatar": "https://secure.gravatar.com/avatar/c5ff621ee6fad392d7dfe2a152ce7ea4.jpg?s=512&d=https%3A%2F%2Fa.slack-edge.com%2Fdf10d%2Fimg%2Favatars%2Fava_0016-512.png", "custom_css": null}, {"id": 3184, "slack_id": "U091QUP0GTC", "display_name": "David Cho", "bio": null, "projects_count": 0, "devlogs_count": 0, "votes_count": 0, "ships_count": 0, "projects": [], "coding_time_seconds": 0, "coding_time_seconds_today": 0, "balance": "You need to have a pocket watcher badge to view this.", "badges": [], "created_at": "2025-06-16T18:00:47.053-04:00", "updated_at": "2025-07-03T19:25:44.515-04:00", "avatar": "https://avatars.slack-edge.com/2025-06-16/9052051076755_159f2fa10ae85db3238f_original.png", "custom_css": null}, {"id": 3185, "slack_id": "U091J4TU5E2", "display_name": "Leon", "bio": null, "projects_count": 0, "devlogs_count": 0, "votes_count": 0, "ships_count": 0, "projects": [], "coding_time_seconds": 0, "coding_time_seconds_today": 0, "balance": "You need to have a pocket watcher badge to view this.", "badges": [], "created_at": "2025-06-16T18:00:58.197-04:00", "updated_at": "2025-07-03T19:25:44.785-04:00", "avatar": "https://secure.gravatar.com/avatar/b875adbbf3c35cf99079306fa2ee26e8.jpg?s=512&d=https%3A%2F%2Fa.slack-edge.com%2Fdf10d%2Fimg%2Favatars%2Fava_0004-512.png", "custom_css": null}, {"id": 3186, "slack_id": "U07E88L3272", "display_name": "gabdevele", "bio": null, "projects_count": 3, "devlogs_count": 9, "votes_count": 50, "ships_count": 1, "projects": [{"id": 9360, "title": "Musichord API", "devlogs_count": 0, "created_at": "2025-07-31T19:39:53.100-04:00"}, {"id": 13353, "title": "DexOnLinux", "devlogs_count": 4, "created_at": "2025-09-14T12:35:48.908-04:00"}, {"id": 9602, "title": "LinkedIn Job Insights", "devlogs_count": 5, "created_at": "2025-08-01T20:35:19.980-04:00"}], "coding_time_seconds": 269724, "coding_time_seconds_today": 0, "balance": "You need to have a pocket watcher badge to view this.", "badges": [{"name": "Maiden Voyage", "text": "you shipped your first project! the journey begins...", "icon": "\ud83d\udea2"}], "created_at": "2025-06-16T18:01:06.092-04:00", "updated_at": "2025-09-10T22:52:44.746-04:00", "avatar": "https://avatars.slack-edge.com/2024-08-13/7570351745636_53705c0b975d1f9ffe58_original.jpg", "custom_css": null}, {"id": 3187, "slack_id": "U0881EMRXFC", "display_name": "Ziad Ahmed Elkafoury", "bio": null, "projects_count": 0, "devlogs_count": 0, "votes_count": 0, "ships_count": 0, "projects": [], "coding_time_seconds": 0, "coding_time_seconds_today": 0, "balance": "You need to have a pocket watcher badge to view this.", "badges": [], "created_at": "2025-06-16T18:01:17.597-04:00", "updated_at": "2025-07-03T19:25:45.403-04:00", "avatar": "https://secure.gravatar.com/avatar/d207d16f5fc2b998e019f924ed1a99b8.jpg?s=512&d=https%3A%2F%2Fa.slack-edge.com%2Fdf10d%2Fimg%2Favatars%2Fava_0026-512.png", "custom_css": null}, {"id": 3188, "slack_id": "U0919K3N31D", "display_name": "Evelyn", "bio": null, "projects_count": 2, "devlogs_count": 1, "votes_count": 0, "ships_count": 0, "projects": [{"id": 477, "title": "Personal Website!", "devlogs_count": 1, "created_at": "2025-06-16T23:05:54.812-04:00"}, {"id": 1660, "title": "CT Segmentation project", "devlogs_count": 0, "created_at": "2025-06-19T00:39:37.754-04:00"}], "coding_time_seconds": 93850, "coding_time_seconds_today": 0, "balance": "You need to have a pocket watcher badge to view this.", "badges": [], "created_at": "2025-06-16T18:01:25.756-04:00", "updated_at": "2025-08-12T14:49:33.631-04:00", "avatar": "https://secure.gravatar.com/avatar/4f2e27d722caf04e4bf740925e320a96.jpg?s=512&d=https%3A%2F%2Fa.slack-edge.com%2Fdf10d%2Fimg%2Favatars%2Fava_0015-512.png", "custom_css": null}, {"id": 3189, "slack_id": "U08F8JTRMGD", "display_name": "Aslesh Sura", "bio": null, "projects_count": 0, "devlogs_count": 0, "votes_count": 0, "ships_count": 0, "projects": [], "coding_time_seconds": 348533, "coding_time_seconds_today": 0, "balance": "You need to have a pocket watcher badge to view this.", "badges": [], "created_at": "2025-06-16T18:01:30.369-04:00", "updated_at": "2025-09-02T16:03:21.124-04:00", "avatar": "https://avatars.slack-edge.com/2025-07-09/9167603081859_27c53d04631ae61aff0a_original.png", "custom_css": null}, {"id": 3190, "slack_id": "U08SFNJ2CTS", "display_name": "rm rf /", "bio": null, "projects_count": 1, "devlogs_count": 1, "votes_count": 5, "ships_count": 1, "projects": [{"id": 9502, "title": "Osint News Scraper", "devlogs_count": 1, "created_at": "2025-08-01T13:30:34.667-04:00"}], "coding_time_seconds": 185047, "coding_time_seconds_today": 0, "balance": "You need to have a pocket watcher badge to view this.", "badges": [{"name": "Maiden Voyage", "text": "you shipped your first project! the journey begins...", "icon": "\ud83d\udea2"}], "created_at": "2025-06-16T18:01:31.834-04:00", "updated_at": "2025-09-10T22:52:44.905-04:00", "avatar": "https://secure.gravatar.com/avatar/2bc553781cecd02a316c59729e84e33e.jpg?s=512&d=https%3A%2F%2Fa.slack-edge.com%2Fdf10d%2Fimg%2Favatars%2Fava_0025-512.png", "custom_css": null}, {"id": 3191, "slack_id": "U07H0GVM50U", "display_name": "Anon15683", "bio": null, "projects_count": 3, "devlogs_count": 4, "votes_count": 5, "ships_count": 0, "projects": [{"id": 758, "title": "Remote shell", "devlogs_count": 1, "created_at": "2025-06-17T07:33:07.686-04:00"}, {"id": 1327, "title": "Expenses Tracker", "devlogs_count": 1, "created_at": "2025-06-18T08:45:56.410-04:00"}, {"id": 4698, "title": "ImageComparisonOfSEMOutputData", "devlogs_count": 2, "created_at": "2025-07-01T06:20:03.934-04:00"}], "coding_time_seconds": 45377, "coding_time_seconds_today": 0, "balance": "You need to have a pocket watcher badge to view this.", "badges": [], "created_at": "2025-06-16T18:01:33.605-04:00", "updated_at": "2025-08-19T05:31:19.901-04:00", "avatar": "https://avatars.slack-edge.com/2024-08-15/7580004178786_20c678197356cce93c2c_original.jpg", "custom_css": null}, {"id": 3192, "slack_id": "U091J53CQDU", "display_name": "Dorian", "bio": null, "projects_count": 0, "devlogs_count": 0, "votes_count": 0, "ships_count": 0, "projects": [], "coding_time_seconds": 0, "coding_time_seconds_today": 0, "balance": "You need to have a pocket watcher badge to view this.", "badges": [], "created_at": "2025-06-16T18:01:37.395-04:00", "updated_at": "2025-07-03T19:25:46.730-04:00", "avatar": "https://secure.gravatar.com/avatar/f2615adf4a984516f87aef8ee80857b1.jpg?s=512&d=https%3A%2F%2Fa.slack-edge.com%2Fdf10d%2Fimg%2Favatars%2Fava_0011-512.png", "custom_css": null}, {"id": 3193, "slack_id": "U092DC41SQ0", "display_name": "Krithi Gaddam", "bio": null, "projects_count": 0, "devlogs_count": 0, "votes_count": 0, "ships_count": 0, "projects": [], "coding_time_seconds": 0, "coding_time_seconds_today": 0, "balance": "You need to have a pocket watcher badge to view this.", "badges": [], "created_at": "2025-06-16T18:01:37.576-04:00", "updated_at": "2025-07-03T19:25:47.005-04:00", "avatar": "https://secure.gravatar.com/avatar/4f89434ff28564aba1fb1cf75f46f78e.jpg?s=512&d=https%3A%2F%2Fa.slack-edge.com%2Fdf10d%2Fimg%2Favatars%2Fava_0012-512.png", "custom_css": null}, {"id": 3194, "slack_id": "U0919K4TZN3", "display_name": "Sreemedha", "bio": null, "projects_count": 0, "devlogs_count": 0, "votes_count": 0, "ships_count": 0, "projects": [], "coding_time_seconds": 16443, "coding_time_seconds_today": 0, "balance": "You need to have a pocket watcher badge to view this.", "badges": [], "created_at": "2025-06-16T18:01:39.397-04:00", "updated_at": "2025-07-03T19:25:47.272-04:00", "avatar": "https://secure.gravatar.com/avatar/84923649d22e13c385d0382123ab3312.jpg?s=512&d=https%3A%2F%2Fa.slack-edge.com%2Fdf10d%2Fimg%2Favatars%2Fava_0001-512.png", "custom_css": null}, {"id": 3195, "slack_id": "U091R8TBQKW", "display_name": "Bet\u00fcl", "bio": null, "projects_count": 0, "devlogs_count": 0, "votes_count": 0, "ships_count": 0, "projects": [], "coding_time_seconds": 0, "coding_time_seconds_today": 0, "balance": "You need to have a pocket watcher badge to view this.", "badges": [], "created_at": "2025-06-16T18:02:02.637-04:00", "updated_at": "2025-07-03T19:25:47.532-04:00", "avatar": "https://secure.gravatar.com/avatar/f9fd90011fa29f4f5443888480080bb7.jpg?s=512&d=https%3A%2F%2Fa.slack-edge.com%2Fdf10d%2Fimg%2Favatars%2Fava_0021-512.png", "custom_css": null}, {"id": 3196, "slack_id": "U091P5M8PM3", "display_name": "Shan", "bio": null, "projects_count": 0, "devlogs_count": 0, "votes_count": 0, "ships_count": 0, "projects": [], "coding_time_seconds": 0, "coding_time_seconds_today": 0, "balance": "You need to have a pocket watcher badge to view this.", "badges": [], "created_at": "2025-06-16T18:02:30.903-04:00", "updated_at": "2025-07-03T19:25:47.808-04:00", "avatar": "https://secure.gravatar.com/avatar/d391cba3456a39a05bb0978a40ef2bec.jpg?s=512&d=https%3A%2F%2Fa.slack-edge.com%2Fdf10d%2Fimg%2Favatars%2Fava_0013-512.png", "custom_css": null}, {"id": 3197, "slack_id": "U0919R6RGS2", "display_name": "Rahdeen S.", "bio": null, "projects_count": 0, "devlogs_count": 0, "votes_count": 0, "ships_count": 0, "projects": [], "coding_time_seconds": 0, "coding_time_seconds_today": 0, "balance": "You need to have a pocket watcher badge to view this.", "badges": [], "created_at": "2025-06-16T18:02:34.026-04:00", "updated_at": "2025-07-03T19:25:48.064-04:00", "avatar": "https://secure.gravatar.com/avatar/df19f2ca536c0c12002fca576ff3b19e.jpg?s=512&d=https%3A%2F%2Fa.slack-edge.com%2Fdf10d%2Fimg%2Favatars%2Fava_0024-512.png", "custom_css": null}, {"id": 3198, "slack_id": "U0923CX9XL1", "display_name": "Erik Rospo", "bio": null, "projects_count": 5, "devlogs_count": 14, "votes_count": 40, "ships_count": 2, "projects": [{"id": 1118, "title": "Cyberfire", "devlogs_count": 4, "created_at": "2025-06-17T16:50:24.866-04:00"}, {"id": 1119, "title": "BadCodec", "devlogs_count": 0, "created_at": "2025-06-17T16:54:49.202-04:00"}, {"id": 6507, "title": "TESTPROGRAMIGNORE", "devlogs_count": 0, "created_at": "2025-07-13T23:26:07.382-04:00"}, {"id": 3508, "title": "MCTaichi", "devlogs_count": 2, "created_at": "2025-06-24T14:23:28.220-04:00"}, {"id": 5038, "title": "Mini-8", "devlogs_count": 8, "created_at": "2025-07-02T21:17:46.084-04:00"}], "coding_time_seconds": 230027, "coding_time_seconds_today": 0, "balance": "You need to have a pocket watcher badge to view this.", "badges": [{"name": "Maiden Voyage", "text": "you shipped your first project! the journey begins...", "icon": "\ud83d\udea2"}], "created_at": "2025-06-16T18:02:34.863-04:00", "updated_at": "2025-09-10T22:52:45.111-04:00", "avatar": "https://secure.gravatar.com/avatar/10f402c58f9b391439d721ecdfe98385.jpg?s=512&d=https%3A%2F%2Fa.slack-edge.com%2Fdf10d%2Fimg%2Favatars%2Fava_0019-512.png", "custom_css": null}, {"id": 3199, "slack_id": "U0919JSPEVD", "display_name": "Amir", "bio": null, "projects_count": 0, "devlogs_count": 0, "votes_count": 0, "ships_count": 0, "projects": [], "coding_time_seconds": 0, "coding_time_seconds_today": 0, "balance": "You need to have a pocket watcher badge to view this.", "badges": [], "created_at": "2025-06-16T18:02:47.601-04:00", "updated_at": "2025-07-03T19:25:48.593-04:00", "avatar": "https://secure.gravatar.com/avatar/7d67d0cf5ab453c5a2e911339d41e056.jpg?s=512&d=https%3A%2F%2Fa.slack-edge.com%2Fdf10d%2Fimg%2Favatars%2Fava_0013-512.png", "custom_css": null}, {"id": 3200, "slack_id": "U081AQKDJLD", "display_name": "Reuvie Marcus", "bio": null, "projects_count": 0, "devlogs_count": 0, "votes_count": 0, "ships_count": 0, "projects": [], "coding_time_seconds": 0, "coding_time_seconds_today": 0, "balance": "You need to have a pocket watcher badge to view this.", "badges": [], "created_at": "2025-06-16T18:02:54.700-04:00", "updated_at": "2025-07-03T19:25:48.855-04:00", "avatar": "https://avatars.slack-edge.com/2024-11-18/8044887246997_e68e8983f053129f6ca2_original.jpg", "custom_css": null}], "pagination": {"page": 160, "pages": 1192, "count": 23828, "items": 20}}