{"users": [{"id": 3221, "slack_id": "U078GHGUYD8", "display_name": "Philip", "bio": null, "projects_count": 0, "devlogs_count": 0, "votes_count": 0, "ships_count": 0, "projects": [], "coding_time_seconds": 0, "coding_time_seconds_today": 0, "balance": "You need to have a pocket watcher badge to view this.", "badges": [], "created_at": "2025-06-16T18:06:29.237-04:00", "updated_at": "2025-07-03T19:25:54.501-04:00", "avatar": "https://secure.gravatar.com/avatar/0dee14240846850fa70bd640ad1ed94f.jpg?s=512&d=https%3A%2F%2Fa.slack-edge.com%2Fdf10d%2Fimg%2Favatars%2Fava_0003-512.png", "custom_css": null}, {"id": 3222, "slack_id": "U0823DVME5R", "display_name": "technical_.", "bio": null, "projects_count": 0, "devlogs_count": 0, "votes_count": 0, "ships_count": 0, "projects": [], "coding_time_seconds": 18243, "coding_time_seconds_today": 0, "balance": "You need to have a pocket watcher badge to view this.", "badges": [], "created_at": "2025-06-16T18:06:35.320-04:00", "updated_at": "2025-08-09T21:07:50.198-04:00", "avatar": "https://avatars.slack-edge.com/2024-11-28/8102125592964_f503dfc5507f97c67fca_original.jpg", "custom_css": null}, {"id": 3223, "slack_id": "U091QVD617C", "display_name": "AntonDev", "bio": null, "projects_count": 0, "devlogs_count": 0, "votes_count": 0, "ships_count": 0, "projects": [], "coding_time_seconds": 0, "coding_time_seconds_today": 0, "balance": "You need to have a pocket watcher badge to view this.", "badges": [], "created_at": "2025-06-16T18:06:42.054-04:00", "updated_at": "2025-07-03T19:25:55.069-04:00", "avatar": "https://secure.gravatar.com/avatar/e84b1f8d019ffd4b29c0611396a92eee.jpg?s=512&d=https%3A%2F%2Fa.slack-edge.com%2Fdf10d%2Fimg%2Favatars%2Fava_0023-512.png", "custom_css": null}, {"id": 3224, "slack_id": "U07BYPYV8C8", "display_name": "thepianoman", "bio": null, "projects_count": 0, "devlogs_count": 0, "votes_count": 0, "ships_count": 0, "projects": [], "coding_time_seconds": 0, "coding_time_seconds_today": 0, "balance": "You need to have a pocket watcher badge to view this.", "badges": [], "created_at": "2025-06-16T18:06:42.959-04:00", "updated_at": "2025-07-03T19:25:55.327-04:00", "avatar": "https://avatars.slack-edge.com/2024-07-06/7384032773794_5115ae9178b428f8cc29_original.png", "custom_css": null}, {"id": 3225, "slack_id": "U092DCJMXNU", "display_name": "vaggos_dev", "bio": null, "projects_count": 0, "devlogs_count": 0, "votes_count": 0, "ships_count": 0, "projects": [], "coding_time_seconds": 360, "coding_time_seconds_today": 0, "balance": "You need to have a pocket watcher badge to view this.", "badges": [], "created_at": "2025-06-16T18:06:45.362-04:00", "updated_at": "2025-07-03T19:25:55.585-04:00", "avatar": "https://secure.gravatar.com/avatar/b321bfc6469287824e6f9dfce8383b71.jpg?s=512&d=https%3A%2F%2Fa.slack-edge.com%2Fdf10d%2Fimg%2Favatars%2Fava_0009-512.png", "custom_css": null}, {"id": 3226, "slack_id": "U07KGEWAQBE", "display_name": "idk", "bio": null, "projects_count": 0, "devlogs_count": 0, "votes_count": 0, "ships_count": 0, "projects": [], "coding_time_seconds": 11681, "coding_time_seconds_today": 0, "balance": "You need to have a pocket watcher badge to view this.", "badges": [], "created_at": "2025-06-16T18:07:01.016-04:00", "updated_at": "2025-07-03T19:25:55.862-04:00", "avatar": "https://avatars.slack-edge.com/2024-08-31/7653404932102_f7594529a1c8b600da6a_original.jpg", "custom_css": null}, {"id": 3227, "slack_id": "U08V6B1N0KF", "display_name": "Vivaan Rajpurohit", "bio": null, "projects_count": 0, "devlogs_count": 0, "votes_count": 0, "ships_count": 0, "projects": [], "coding_time_seconds": 0, "coding_time_seconds_today": 0, "balance": "You need to have a pocket watcher badge to view this.", "badges": [], "created_at": "2025-06-16T18:07:10.340-04:00", "updated_at": "2025-07-29T22:49:10.046-04:00", "avatar": "https://avatars.slack-edge.com/2025-06-03/8987934119171_92b313051f0b6ca33255_original.jpg", "custom_css": null}, {"id": 3228, "slack_id": "U088PPFHRPY", "display_name": "mihranrazaa", "bio": null, "projects_count": 1, "devlogs_count": 0, "votes_count": 0, "ships_count": 0, "projects": [{"id": 8067, "title": "Terbium", "devlogs_count": 0, "created_at": "2025-07-24T11:23:37.223-04:00"}], "coding_time_seconds": 8743, "coding_time_seconds_today": 0, "balance": "You need to have a pocket watcher badge to view this.", "badges": [], "created_at": "2025-06-16T18:07:11.391-04:00", "updated_at": "2025-08-26T07:04:27.695-04:00", "avatar": "https://avatars.slack-edge.com/2025-06-15/9050253101573_b2cf67e01d421a8b608d_original.jpg", "custom_css": null}, {"id": 3229, "slack_id": "U091J5J9B62", "display_name": "Jamie Poznanski", "bio": null, "projects_count": 1, "devlogs_count": 2, "votes_count": 0, "ships_count": 0, "projects": [{"id": 719, "title": "flash", "devlogs_count": 2, "created_at": "2025-06-17T06:19:04.853-04:00"}], "coding_time_seconds": 7565, "coding_time_seconds_today": 0, "balance": "You need to have a pocket watcher badge to view this.", "badges": [], "created_at": "2025-06-16T18:07:16.904-04:00", "updated_at": "2025-07-03T19:25:56.688-04:00", "avatar": "https://secure.gravatar.com/avatar/74faaeb13cd97790fdb256326cfe9c72.jpg?s=512&d=https%3A%2F%2Fa.slack-edge.com%2Fdf10d%2Fimg%2Favatars%2Fava_0010-512.png", "custom_css": null}, {"id": 3230, "slack_id": "U07BRH1GGJF", "display_name": "Tanush Chauhan", "bio": null, "projects_count": 0, "devlogs_count": 0, "votes_count": 0, "ships_count": 0, "projects": [], "coding_time_seconds": 20910, "coding_time_seconds_today": 0, "balance": "You need to have a pocket watcher badge to view this.", "badges": [], "created_at": "2025-06-16T18:07:20.953-04:00", "updated_at": "2025-07-03T19:25:56.956-04:00", "avatar": "https://avatars.slack-edge.com/2024-08-28/7659513491521_81f3f75cd5e31c67110f_original.png", "custom_css": null}, {"id": 3231, "slack_id": "U0923G23JJD", "display_name": "Xernas", "bio": null, "projects_count": 0, "devlogs_count": 0, "votes_count": 0, "ships_count": 0, "projects": [], "coding_time_seconds": 20983, "coding_time_seconds_today": 0, "balance": "You need to have a pocket watcher badge to view this.", "badges": [], "created_at": "2025-06-16T18:07:30.704-04:00", "updated_at": "2025-07-03T19:25:57.266-04:00", "avatar": "https://secure.gravatar.com/avatar/12593f81304966988677e7a4c7970978.jpg?s=512&d=https%3A%2F%2Fa.slack-edge.com%2Fdf10d%2Fimg%2Favatars%2Fava_0016-512.png", "custom_css": null}, {"id": 3232, "slack_id": "U07RDF7GBFV", "display_name": "Ray", "bio": null, "projects_count": 6, "devlogs_count": 16, "votes_count": 17, "ships_count": 4, "projects": [{"id": 3317, "title": "California Housing Median House Value vs Median Income", "devlogs_count": 2, "created_at": "2025-06-23T19:47:21.931-04:00"}, {"id": 3786, "title": "Credit Card Fraud Detector", "devlogs_count": 1, "created_at": "2025-06-25T18:26:47.977-04:00"}, {"id": 5365, "title": "Personal Website", "devlogs_count": 4, "created_at": "2025-07-04T19:31:26.795-04:00"}, {"id": 9392, "title": "Park n Slide", "devlogs_count": 3, "created_at": "2025-08-01T00:18:39.615-04:00"}, {"id": 13026, "title": "Ingredia", "devlogs_count": 0, "created_at": "2025-09-07T03:26:52.680-04:00"}, {"id": 4450, "title": "Music recommender", "devlogs_count": 5, "created_at": "2025-06-30T00:43:46.800-04:00"}], "coding_time_seconds": 199210, "coding_time_seconds_today": 0, "balance": "You need to have a pocket watcher badge to view this.", "badges": [{"name": "Maiden Voyage", "text": "you shipped your first project! the journey begins...", "icon": "\ud83d\udea2"}], "created_at": "2025-06-16T18:07:34.109-04:00", "updated_at": "2025-09-10T22:52:45.974-04:00", "avatar": "https://secure.gravatar.com/avatar/d69b8e78082108594ca9d99521de0723.jpg?s=512&d=https%3A%2F%2Fa.slack-edge.com%2Fdf10d%2Fimg%2Favatars%2Fava_0014-512.png", "custom_css": null}, {"id": 3233, "slack_id": "U091MGRRMU5", "display_name": "Lucas Lazarini", "bio": null, "projects_count": 0, "devlogs_count": 0, "votes_count": 0, "ships_count": 0, "projects": [], "coding_time_seconds": 0, "coding_time_seconds_today": 0, "balance": "You need to have a pocket watcher badge to view this.", "badges": [], "created_at": "2025-06-16T18:07:36.058-04:00", "updated_at": "2025-07-03T19:25:57.790-04:00", "avatar": "https://secure.gravatar.com/avatar/7fa09a4c577b5a221b408e9c6408309b.jpg?s=512&d=https%3A%2F%2Fa.slack-edge.com%2Fdf10d%2Fimg%2Favatars%2Fava_0019-512.png", "custom_css": null}, {"id": 3234, "slack_id": "U091P5CKR1Q", "display_name": "Muzz", "bio": null, "projects_count": 0, "devlogs_count": 0, "votes_count": 0, "ships_count": 0, "projects": [], "coding_time_seconds": 0, "coding_time_seconds_today": 0, "balance": "You need to have a pocket watcher badge to view this.", "badges": [], "created_at": "2025-06-16T18:07:39.820-04:00", "updated_at": "2025-07-03T19:25:58.066-04:00", "avatar": "https://secure.gravatar.com/avatar/93273d21114896205fbd94425fd6a5df.jpg?s=512&d=https%3A%2F%2Fa.slack-edge.com%2Fdf10d%2Fimg%2Favatars%2Fava_0000-512.png", "custom_css": null}, {"id": 3235, "slack_id": "U062F8WBEF5", "display_name": "shazel", "bio": null, "projects_count": 1, "devlogs_count": 1, "votes_count": 4, "ships_count": 0, "projects": [{"id": 8865, "title": "Solitaire", "devlogs_count": 1, "created_at": "2025-07-29T13:52:41.323-04:00"}], "coding_time_seconds": 140349, "coding_time_seconds_today": 0, "balance": "You need to have a pocket watcher badge to view this.", "badges": [], "created_at": "2025-06-16T18:07:40.694-04:00", "updated_at": "2025-08-21T21:28:34.475-04:00", "avatar": "https://avatars.slack-edge.com/2025-04-12/8731446715991_97d4f51788b3148aecb6_original.jpg", "custom_css": null}, {"id": 3236, "slack_id": "U092DCNU116", "display_name": "Pro Ismael", "bio": null, "projects_count": 0, "devlogs_count": 0, "votes_count": 0, "ships_count": 0, "projects": [], "coding_time_seconds": 0, "coding_time_seconds_today": 0, "balance": "You need to have a pocket watcher badge to view this.", "badges": [], "created_at": "2025-06-16T18:08:06.968-04:00", "updated_at": "2025-07-03T19:25:58.597-04:00", "avatar": "https://avatars.slack-edge.com/2025-06-16/9043685201319_6ba7c8f6a9f7cb410555_original.png", "custom_css": null}, {"id": 3237, "slack_id": "U08M0R1HE03", "display_name": "Kcoder", "bio": "Just another teenager coding away and trying to get a 3d printer!", "projects_count": 10, "devlogs_count": 105, "votes_count": 234, "ships_count": 9, "projects": [{"id": 10205, "title": "AI Generator", "devlogs_count": 17, "created_at": "2025-08-04T23:14:06.867-04:00"}, {"id": 11600, "title": "Project Idea Generator", "devlogs_count": 12, "created_at": "2025-08-17T12:12:36.993-04:00"}, {"id": 13113, "title": "SoM Survey Expedition Scene 8", "devlogs_count": 1, "created_at": "2025-09-08T21:16:03.086-04:00"}, {"id": 12053, "title": "Community Calendar", "devlogs_count": 17, "created_at": "2025-08-22T12:24:50.093-04:00"}, {"id": 10147, "title": "promt-quest", "devlogs_count": 10, "created_at": "2025-08-04T12:11:56.756-04:00"}, {"id": 11162, "title": "Snack Shop", "devlogs_count": 8, "created_at": "2025-08-13T16:46:59.387-04:00"}, {"id": 10902, "title": "Retro-Checkers", "devlogs_count": 11, "created_at": "2025-08-11T17:06:11.923-04:00"}, {"id": 10426, "title": "Resume Builder", "devlogs_count": 13, "created_at": "2025-08-06T23:33:11.466-04:00"}, {"id": 11394, "title": "FlaskTube", "devlogs_count": 8, "created_at": "2025-08-15T12:54:08.345-04:00"}, {"id": 11904, "title": "Data Scraper", "devlogs_count": 4, "created_at": "2025-08-20T23:04:48.798-04:00"}], "coding_time_seconds": 449732, "coding_time_seconds_today": 0, "balance": "You need to have a pocket watcher badge to view this.", "badges": [{"name": "Maiden Voyage", "text": "you shipped your first project! the journey begins...", "icon": "\ud83d\udea2"}, {"name": "Ballot Stuffer", "text": "vote 100 times.", "icon": "https://summer.hackclub.com/assets/i_voted-bf851b48.png"}, {"name": "Yapper I", "text": "Posted 10 comments on devlogs.", "icon": "\ud83d\udcac"}], "created_at": "2025-06-16T18:08:15.290-04:00", "updated_at": "2025-09-10T22:52:46.143-04:00", "avatar": "https://avatars.slack-edge.com/2025-05-31/8974869899350_ba8658a2aa2a20c36dac_original.png", "custom_css": null}, {"id": 3238, "slack_id": "U07FDD163FV", "display_name": "Ian", "bio": null, "projects_count": 5, "devlogs_count": 26, "votes_count": 99, "ships_count": 4, "projects": [{"id": 3318, "title": "BuildMyDistro", "devlogs_count": 10, "created_at": "2025-06-23T19:51:05.181-04:00"}, {"id": 10750, "title": "QuackScript!", "devlogs_count": 7, "created_at": "2025-08-10T11:12:55.670-04:00"}, {"id": 9800, "title": "Portfolio", "devlogs_count": 1, "created_at": "2025-08-02T10:24:44.224-04:00"}, {"id": 9910, "title": "ImageTerminal", "devlogs_count": 6, "created_at": "2025-08-02T20:49:26.350-04:00"}, {"id": 11439, "title": "Portfolio V2", "devlogs_count": 2, "created_at": "2025-08-15T22:57:03.223-04:00"}], "coding_time_seconds": 178079, "coding_time_seconds_today": 0, "balance": "You need to have a pocket watcher badge to view this.", "badges": [{"name": "Maiden Voyage", "text": "you shipped your first project! the journey begins...", "icon": "\ud83d\udea2"}], "created_at": "2025-06-16T18:08:27.142-04:00", "updated_at": "2025-09-10T22:52:46.199-04:00", "avatar": "https://avatars.slack-edge.com/2024-08-03/7516938380214_d0cc7b4de3a4dd146c80_original.jpg", "custom_css": null}, {"id": 3239, "slack_id": "U07UKQTFP9S", "display_name": "axolotl", "bio": null, "projects_count": 2, "devlogs_count": 4, "votes_count": 0, "ships_count": 0, "projects": [{"id": 5126, "title": "Catfinder", "devlogs_count": 0, "created_at": "2025-07-03T11:34:43.507-04:00"}, {"id": 4271, "title": "Audiofake Detector", "devlogs_count": 4, "created_at": "2025-06-28T15:23:00.370-04:00"}], "coding_time_seconds": 97207, "coding_time_seconds_today": 0, "balance": "You need to have a pocket watcher badge to view this.", "badges": [], "created_at": "2025-06-16T18:08:29.447-04:00", "updated_at": "2025-07-03T19:25:59.395-04:00", "avatar": "https://avatars.slack-edge.com/2024-11-22/8071101774467_3458365a430a2ae2f724_original.png", "custom_css": null}, {"id": 3240, "slack_id": "U0923F5BS7K", "display_name": "Maria Fujisawa", "bio": null, "projects_count": 2, "devlogs_count": 4, "votes_count": 1, "ships_count": 0, "projects": [{"id": 5564, "title": "Personal Website", "devlogs_count": 0, "created_at": "2025-07-06T07:58:55.885-04:00"}, {"id": 10620, "title": "VOLTRA- Volleyball feedback program", "devlogs_count": 4, "created_at": "2025-08-09T02:19:25.346-04:00"}], "coding_time_seconds": 15712, "coding_time_seconds_today": 0, "balance": "You need to have a pocket watcher badge to view this.", "badges": [], "created_at": "2025-06-16T18:08:38.752-04:00", "updated_at": "2025-08-09T03:12:03.351-04:00", "avatar": "https://secure.gravatar.com/avatar/2df70d2dfb3e8f497ce667a474af144c.jpg?s=512&d=https%3A%2F%2Fa.slack-edge.com%2Fdf10d%2Fimg%2Favatars%2Fava_0009-512.png", "custom_css": null}], "pagination": {"page": 162, "pages": 1192, "count": 23828, "items": 20}}