{"users": [{"id": 3241, "slack_id": "U0919KVKHRD", "display_name": "Feris_Reptilium", "bio": null, "projects_count": 0, "devlogs_count": 0, "votes_count": 0, "ships_count": 0, "projects": [], "coding_time_seconds": 0, "coding_time_seconds_today": 0, "balance": "You need to have a pocket watcher badge to view this.", "badges": [], "created_at": "2025-06-16T18:08:41.031-04:00", "updated_at": "2025-07-03T19:25:59.917-04:00", "avatar": "https://secure.gravatar.com/avatar/808df23c01516c0be8dd0bd5ce15346e.jpg?s=512&d=https%3A%2F%2Fa.slack-edge.com%2Fdf10d%2Fimg%2Favatars%2Fava_0014-512.png", "custom_css": null}, {"id": 3242, "slack_id": "U07TCV0RE7L", "display_name": "elving574", "bio": null, "projects_count": 0, "devlogs_count": 0, "votes_count": 0, "ships_count": 0, "projects": [], "coding_time_seconds": 135462, "coding_time_seconds_today": 0, "balance": "You need to have a pocket watcher badge to view this.", "badges": [], "created_at": "2025-06-16T18:08:52.957-04:00", "updated_at": "2025-07-03T19:26:00.208-04:00", "avatar": "https://avatars.slack-edge.com/2024-10-24/7916479990631_9f663c3634d45a707556_original.jpg", "custom_css": null}, {"id": 3243, "slack_id": "U091J1PEDV1", "display_name": "Kumar Aditya", "bio": null, "projects_count": 0, "devlogs_count": 0, "votes_count": 0, "ships_count": 0, "projects": [], "coding_time_seconds": 0, "coding_time_seconds_today": 0, "balance": "You need to have a pocket watcher badge to view this.", "badges": [], "created_at": "2025-06-16T18:09:02.291-04:00", "updated_at": "2025-07-03T19:26:00.466-04:00", "avatar": "https://avatars.slack-edge.com/2025-06-16/9057226683365_e69603b66b052c5c116e_original.jpg", "custom_css": null}, {"id": 3244, "slack_id": "U07LJHKUZ6Y", "display_name": "Lucas", "bio": null, "projects_count": 0, "devlogs_count": 0, "votes_count": 0, "ships_count": 0, "projects": [], "coding_time_seconds": 23094, "coding_time_seconds_today": 0, "balance": "You need to have a pocket watcher badge to view this.", "badges": [], "created_at": "2025-06-16T18:09:12.521-04:00", "updated_at": "2025-07-03T19:26:00.732-04:00", "avatar": "https://avatars.slack-edge.com/2024-09-09/7703788300436_2d66b6fb51534de99244_original.png", "custom_css": null}, {"id": 3245, "slack_id": "U091RA07WSY", "display_name": "Alejo Reascos", "bio": null, "projects_count": 0, "devlogs_count": 0, "votes_count": 0, "ships_count": 0, "projects": [], "coding_time_seconds": 0, "coding_time_seconds_today": 0, "balance": "You need to have a pocket watcher badge to view this.", "badges": [], "created_at": "2025-06-16T18:09:33.149-04:00", "updated_at": "2025-07-03T19:26:00.995-04:00", "avatar": "https://secure.gravatar.com/avatar/e34ebbe09302db0d8dcc8eb0dfcbb2ec.jpg?s=512&d=https%3A%2F%2Fa.slack-edge.com%2Fdf10d%2Fimg%2Favatars%2Fava_0023-512.png", "custom_css": null}, {"id": 3246, "slack_id": "U0923GA2N0H", "display_name": "Neal", "bio": null, "projects_count": 0, "devlogs_count": 0, "votes_count": 0, "ships_count": 0, "projects": [], "coding_time_seconds": 0, "coding_time_seconds_today": 0, "balance": "You need to have a pocket watcher badge to view this.", "badges": [], "created_at": "2025-06-16T18:09:40.616-04:00", "updated_at": "2025-07-03T19:26:01.270-04:00", "avatar": "https://secure.gravatar.com/avatar/05ea463156be0c23da736bd0f6223555.jpg?s=512&d=https%3A%2F%2Fa.slack-edge.com%2Fdf10d%2Fimg%2Favatars%2Fava_0026-512.png", "custom_css": null}, {"id": 3247, "slack_id": "U092DCDUK7S", "display_name": "xeiras", "bio": null, "projects_count": 0, "devlogs_count": 0, "votes_count": 0, "ships_count": 0, "projects": [], "coding_time_seconds": 0, "coding_time_seconds_today": 0, "balance": "You need to have a pocket watcher badge to view this.", "badges": [], "created_at": "2025-06-16T18:09:41.765-04:00", "updated_at": "2025-07-03T19:26:01.530-04:00", "avatar": "https://secure.gravatar.com/avatar/c96eee88033e1f5101f4a6d268693338.jpg?s=512&d=https%3A%2F%2Fa.slack-edge.com%2Fdf10d%2Fimg%2Favatars%2Fava_0020-512.png", "custom_css": null}, {"id": 3248, "slack_id": "U091J273S75", "display_name": "Huda Hussain Taha", "bio": null, "projects_count": 0, "devlogs_count": 0, "votes_count": 0, "ships_count": 0, "projects": [], "coding_time_seconds": 0, "coding_time_seconds_today": 0, "balance": "You need to have a pocket watcher badge to view this.", "badges": [], "created_at": "2025-06-16T18:10:29.211-04:00", "updated_at": "2025-07-03T19:26:01.792-04:00", "avatar": "https://secure.gravatar.com/avatar/ab22178a6bed6ab1a806ba953deda02d.jpg?s=512&d=https%3A%2F%2Fa.slack-edge.com%2Fdf10d%2Fimg%2Favatars%2Fava_0020-512.png", "custom_css": null}, {"id": 3249, "slack_id": "U091P6F8Y5T", "display_name": "Phedona", "bio": null, "projects_count": 0, "devlogs_count": 0, "votes_count": 0, "ships_count": 0, "projects": [], "coding_time_seconds": 0, "coding_time_seconds_today": 0, "balance": "You need to have a pocket watcher badge to view this.", "badges": [], "created_at": "2025-06-16T18:10:48.633-04:00", "updated_at": "2025-07-03T19:26:02.068-04:00", "avatar": "https://secure.gravatar.com/avatar/5cad2d99aa2aebdd9127f908bbec6846.jpg?s=512&d=https%3A%2F%2Fa.slack-edge.com%2Fdf10d%2Fimg%2Favatars%2Fava_0015-512.png", "custom_css": null}, {"id": 3250, "slack_id": "U091RAM70BW", "display_name": "Conner Luzier", "bio": null, "projects_count": 0, "devlogs_count": 0, "votes_count": 0, "ships_count": 0, "projects": [], "coding_time_seconds": 0, "coding_time_seconds_today": 0, "balance": "You need to have a pocket watcher badge to view this.", "badges": [], "created_at": "2025-06-16T18:10:54.136-04:00", "updated_at": "2025-07-03T19:26:02.333-04:00", "avatar": "https://avatars.slack-edge.com/2025-06-16/9057241797429_415428d514ef9e300f54_original.png", "custom_css": null}, {"id": 3251, "slack_id": "U07N4P5BKA4", "display_name": "Anjali Kumar", "bio": null, "projects_count": 0, "devlogs_count": 0, "votes_count": 0, "ships_count": 0, "projects": [], "coding_time_seconds": 0, "coding_time_seconds_today": 0, "balance": "You need to have a pocket watcher badge to view this.", "badges": [], "created_at": "2025-06-16T18:10:58.015-04:00", "updated_at": "2025-07-03T19:26:02.605-04:00", "avatar": "https://secure.gravatar.com/avatar/9408cac8498a3e21eacf91763275252c.jpg?s=512&d=https%3A%2F%2Fa.slack-edge.com%2Fdf10d%2Fimg%2Favatars%2Fava_0008-512.png", "custom_css": null}, {"id": 3252, "slack_id": "U0923GB7RA5", "display_name": "Ansel Stanik", "bio": null, "projects_count": 0, "devlogs_count": 0, "votes_count": 0, "ships_count": 0, "projects": [], "coding_time_seconds": 82051, "coding_time_seconds_today": 0, "balance": "You need to have a pocket watcher badge to view this.", "badges": [], "created_at": "2025-06-16T18:11:08.439-04:00", "updated_at": "2025-07-03T19:26:02.894-04:00", "avatar": "https://secure.gravatar.com/avatar/8ab5f0c137773b3b23236042a41d9830.jpg?s=512&d=https%3A%2F%2Fa.slack-edge.com%2Fdf10d%2Fimg%2Favatars%2Fava_0014-512.png", "custom_css": null}, {"id": 3253, "slack_id": "U06UATPC9FW", "display_name": "Berto", "bio": null, "projects_count": 0, "devlogs_count": 0, "votes_count": 0, "ships_count": 0, "projects": [], "coding_time_seconds": 0, "coding_time_seconds_today": 0, "balance": "You need to have a pocket watcher badge to view this.", "badges": [], "created_at": "2025-06-16T18:11:22.861-04:00", "updated_at": "2025-07-03T19:26:03.167-04:00", "avatar": "https://avatars.slack-edge.com/2024-04-14/6983266454864_72a12a196d2021640ae4_original.jpg", "custom_css": null}, {"id": 3254, "slack_id": "U091R0G6VT4", "display_name": "Inconspicuous", "bio": null, "projects_count": 0, "devlogs_count": 0, "votes_count": 0, "ships_count": 0, "projects": [], "coding_time_seconds": 0, "coding_time_seconds_today": 0, "balance": "You need to have a pocket watcher badge to view this.", "badges": [], "created_at": "2025-06-16T18:11:51.744-04:00", "updated_at": "2025-07-03T19:26:03.440-04:00", "avatar": "https://secure.gravatar.com/avatar/234668e68442163b9fe8c304988e69e2.jpg?s=512&d=https%3A%2F%2Fa.slack-edge.com%2Fdf10d%2Fimg%2Favatars%2Fava_0021-512.png", "custom_css": null}, {"id": 3255, "slack_id": "U091J2D3AAF", "display_name": "Sans", "bio": null, "projects_count": 0, "devlogs_count": 0, "votes_count": 0, "ships_count": 0, "projects": [], "coding_time_seconds": 0, "coding_time_seconds_today": 0, "balance": "You need to have a pocket watcher badge to view this.", "badges": [], "created_at": "2025-06-16T18:12:06.562-04:00", "updated_at": "2025-07-03T19:26:03.707-04:00", "avatar": "https://secure.gravatar.com/avatar/b19f4548e03c8d3a61337a3b5eee560e.jpg?s=512&d=https%3A%2F%2Fa.slack-edge.com%2Fdf10d%2Fimg%2Favatars%2Fava_0008-512.png", "custom_css": null}, {"id": 3256, "slack_id": "U091R8NS36Y", "display_name": "Yo Makes", "bio": null, "projects_count": 0, "devlogs_count": 0, "votes_count": 0, "ships_count": 0, "projects": [], "coding_time_seconds": 3011, "coding_time_seconds_today": 0, "balance": "You need to have a pocket watcher badge to view this.", "badges": [], "created_at": "2025-06-16T18:12:24.451-04:00", "updated_at": "2025-07-03T19:26:03.972-04:00", "avatar": "https://avatars.slack-edge.com/2025-06-16/9071573164385_d977bed8ad48e9c4a37e_original.jpg", "custom_css": null}, {"id": 3257, "slack_id": "U091R0HUMMG", "display_name": "Vishal K", "bio": null, "projects_count": 2, "devlogs_count": 2, "votes_count": 2, "ships_count": 0, "projects": [{"id": 4600, "title": "PORTAL", "devlogs_count": 1, "created_at": "2025-06-30T20:36:37.923-04:00"}, {"id": 4607, "title": "Software Devloper Essentials", "devlogs_count": 1, "created_at": "2025-06-30T20:51:03.900-04:00"}], "coding_time_seconds": 53939, "coding_time_seconds_today": 0, "balance": "You need to have a pocket watcher badge to view this.", "badges": [], "created_at": "2025-06-16T18:12:50.605-04:00", "updated_at": "2025-07-03T19:26:04.233-04:00", "avatar": "https://secure.gravatar.com/avatar/0f87c8f15904e64bd9ef963cee316a5f.jpg?s=512&d=https%3A%2F%2Fa.slack-edge.com%2Fdf10d%2Fimg%2Favatars%2Fava_0002-512.png", "custom_css": null}, {"id": 3258, "slack_id": "U091RAT933N", "display_name": "Sean Malanowski", "bio": null, "projects_count": 0, "devlogs_count": 0, "votes_count": 0, "ships_count": 0, "projects": [], "coding_time_seconds": 0, "coding_time_seconds_today": 0, "balance": "You need to have a pocket watcher badge to view this.", "badges": [], "created_at": "2025-06-16T18:12:50.882-04:00", "updated_at": "2025-07-03T19:26:04.503-04:00", "avatar": "https://avatars.slack-edge.com/2025-06-16/9071574937361_dcece066e0a874af61e4_original.jpg", "custom_css": null}, {"id": 3259, "slack_id": "U0842DUPBU3", "display_name": "HeatedNoob", "bio": null, "projects_count": 0, "devlogs_count": 0, "votes_count": 0, "ships_count": 0, "projects": [], "coding_time_seconds": 3015, "coding_time_seconds_today": 0, "balance": "You need to have a pocket watcher badge to view this.", "badges": [], "created_at": "2025-06-16T18:12:58.824-04:00", "updated_at": "2025-07-03T19:26:04.773-04:00", "avatar": "https://avatars.slack-edge.com/2024-12-09/8147910731155_f3114cf482f8be637c16_original.jpg", "custom_css": null}, {"id": 3260, "slack_id": "U081ZBTRY06", "display_name": "Salem_Ahmed", "bio": null, "projects_count": 0, "devlogs_count": 0, "votes_count": 0, "ships_count": 0, "projects": [], "coding_time_seconds": 0, "coding_time_seconds_today": 0, "balance": "You need to have a pocket watcher badge to view this.", "badges": [], "created_at": "2025-06-16T18:13:10.545-04:00", "updated_at": "2025-08-22T04:05:19.807-04:00", "avatar": "https://secure.gravatar.com/avatar/72a0b4c2bf3dfb0b3a13ce22ad8630c8.jpg?s=512&d=https%3A%2F%2Fa.slack-edge.com%2Fdf10d%2Fimg%2Favatars%2Fava_0024-512.png", "custom_css": null}], "pagination": {"page": 163, "pages": 1192, "count": 23828, "items": 20}}