{"users": [{"id": 3261, "slack_id": "U08S6UP3A8G", "display_name": "Patrick Huynh", "bio": null, "projects_count": 0, "devlogs_count": 0, "votes_count": 0, "ships_count": 0, "projects": [], "coding_time_seconds": 0, "coding_time_seconds_today": 0, "balance": "You need to have a pocket watcher badge to view this.", "badges": [], "created_at": "2025-06-16T18:13:15.130-04:00", "updated_at": "2025-07-03T19:26:05.308-04:00", "avatar": "https://secure.gravatar.com/avatar/4a84ad88ddd4b9905b801f856910ee9a.jpg?s=512&d=https%3A%2F%2Fa.slack-edge.com%2Fdf10d%2Fimg%2Favatars%2Fava_0022-512.png", "custom_css": null}, {"id": 3262, "slack_id": "U04APB1ES1M", "display_name": "hephaestushex", "bio": null, "projects_count": 0, "devlogs_count": 0, "votes_count": 0, "ships_count": 0, "projects": [], "coding_time_seconds": 15081, "coding_time_seconds_today": 0, "balance": "You need to have a pocket watcher badge to view this.", "badges": [], "created_at": "2025-06-16T18:13:30.350-04:00", "updated_at": "2025-09-02T18:59:26.873-04:00", "avatar": "https://avatars.slack-edge.com/2022-11-15/4377839149747_3c594ced613216840fff_original.png", "custom_css": null}, {"id": 3263, "slack_id": "U05RRLMN82U", "display_name": "Varshith Gude", "bio": null, "projects_count": 0, "devlogs_count": 0, "votes_count": 0, "ships_count": 0, "projects": [], "coding_time_seconds": 493275, "coding_time_seconds_today": 0, "balance": "You need to have a pocket watcher badge to view this.", "badges": [], "created_at": "2025-06-16T18:13:57.974-04:00", "updated_at": "2025-07-24T15:43:57.208-04:00", "avatar": "https://secure.gravatar.com/avatar/194c80ae92d5c15cbc956d7578cbd29f.jpg?s=512&d=https%3A%2F%2Fa.slack-edge.com%2Fdf10d%2Fimg%2Favatars%2Fava_0015-512.png", "custom_css": null}, {"id": 3264, "slack_id": "U091J2NMVL3", "display_name": "Jafet", "bio": null, "projects_count": 0, "devlogs_count": 0, "votes_count": 0, "ships_count": 0, "projects": [], "coding_time_seconds": 0, "coding_time_seconds_today": 0, "balance": "You need to have a pocket watcher badge to view this.", "badges": [], "created_at": "2025-06-16T18:13:59.269-04:00", "updated_at": "2025-07-03T19:26:06.140-04:00", "avatar": "https://secure.gravatar.com/avatar/05b74788063fa56e92cfed55b9a4a53c.jpg?s=512&d=https%3A%2F%2Fa.slack-edge.com%2Fdf10d%2Fimg%2Favatars%2Fava_0022-512.png", "custom_css": null}, {"id": 3265, "slack_id": "U091P6N4R37", "display_name": "James", "bio": null, "projects_count": 0, "devlogs_count": 0, "votes_count": 0, "ships_count": 0, "projects": [], "coding_time_seconds": 0, "coding_time_seconds_today": 0, "balance": "You need to have a pocket watcher badge to view this.", "badges": [], "created_at": "2025-06-16T18:13:59.692-04:00", "updated_at": "2025-07-03T19:26:06.413-04:00", "avatar": "https://secure.gravatar.com/avatar/583e4241aa496a3154ece5a81bdd050d.jpg?s=512&d=https%3A%2F%2Fa.slack-edge.com%2Fdf10d%2Fimg%2Favatars%2Fava_0000-512.png", "custom_css": null}, {"id": 3266, "slack_id": "U08TG939MJT", "display_name": "KavEn06", "bio": null, "projects_count": 0, "devlogs_count": 0, "votes_count": 0, "ships_count": 0, "projects": [], "coding_time_seconds": 12126, "coding_time_seconds_today": 0, "balance": "You need to have a pocket watcher badge to view this.", "badges": [], "created_at": "2025-06-16T18:14:06.473-04:00", "updated_at": "2025-07-22T01:23:57.713-04:00", "avatar": "https://avatars.slack-edge.com/2025-05-24/8934309611879_ed858027c9f0fab887df_original.png", "custom_css": null}, {"id": 3267, "slack_id": "U07AC4YN1DK", "display_name": "k754a", "bio": null, "projects_count": 0, "devlogs_count": 0, "votes_count": 0, "ships_count": 0, "projects": [], "coding_time_seconds": 26358, "coding_time_seconds_today": 0, "balance": "You need to have a pocket watcher badge to view this.", "badges": [], "created_at": "2025-06-16T18:14:07.880-04:00", "updated_at": "2025-07-03T19:26:06.950-04:00", "avatar": "https://avatars.slack-edge.com/2024-07-03/7385851462529_7fd1d4aa79bd5d75cd30_original.png", "custom_css": null}, {"id": 3268, "slack_id": "U0877N9R32P", "display_name": "Eric", "bio": null, "projects_count": 0, "devlogs_count": 0, "votes_count": 0, "ships_count": 0, "projects": [], "coding_time_seconds": 281653, "coding_time_seconds_today": 1472, "balance": "You need to have a pocket watcher badge to view this.", "badges": [], "created_at": "2025-06-16T18:14:10.445-04:00", "updated_at": "2025-07-03T19:26:07.212-04:00", "avatar": "https://secure.gravatar.com/avatar/201aa567148fb82e4750f787ca404499.jpg?s=512&d=https%3A%2F%2Fa.slack-edge.com%2Fdf10d%2Fimg%2Favatars%2Fava_0026-512.png", "custom_css": null}, {"id": 3269, "slack_id": "U092DB59HDE", "display_name": "Sadick Issaka", "bio": null, "projects_count": 0, "devlogs_count": 0, "votes_count": 0, "ships_count": 0, "projects": [], "coding_time_seconds": 0, "coding_time_seconds_today": 0, "balance": "You need to have a pocket watcher badge to view this.", "badges": [], "created_at": "2025-06-16T18:14:20.907-04:00", "updated_at": "2025-07-03T19:26:07.474-04:00", "avatar": "https://secure.gravatar.com/avatar/c702aa3340283b8da47049a2c23de736.jpg?s=512&d=https%3A%2F%2Fa.slack-edge.com%2Fdf10d%2Fimg%2Favatars%2Fava_0023-512.png", "custom_css": null}, {"id": 3270, "slack_id": "U078C8RV65U", "display_name": "AamirA", "bio": "", "projects_count": 4, "devlogs_count": 9, "votes_count": 60, "ships_count": 4, "projects": [{"id": 3302, "title": "Zulip Moderation Bot", "devlogs_count": 5, "created_at": "2025-06-23T18:10:45.551-04:00"}, {"id": 3753, "title": "Personal Site", "devlogs_count": 1, "created_at": "2025-06-25T15:41:07.770-04:00"}, {"id": 12857, "title": "Portfolio and Blog", "devlogs_count": 1, "created_at": "2025-09-03T17:26:58.880-04:00"}, {"id": 3991, "title": "History Club Information Website", "devlogs_count": 2, "created_at": "2025-06-26T17:58:38.187-04:00"}], "coding_time_seconds": 217072, "coding_time_seconds_today": 0, "balance": "You need to have a pocket watcher badge to view this.", "badges": [{"name": "Maiden Voyage", "text": "you shipped your first project! the journey begins...", "icon": "\ud83d\udea2"}], "created_at": "2025-06-16T18:14:26.778-04:00", "updated_at": "2025-09-19T15:53:20.977-04:00", "avatar": "https://avatars.slack-edge.com/2024-06-23/7330315457857_596105ab9a6f59a9e9df_original.jpg", "custom_css": null}, {"id": 3271, "slack_id": "U092DD3QFLG", "display_name": "Neha Kumari", "bio": null, "projects_count": 0, "devlogs_count": 0, "votes_count": 0, "ships_count": 0, "projects": [], "coding_time_seconds": 0, "coding_time_seconds_today": 0, "balance": "You need to have a pocket watcher badge to view this.", "badges": [], "created_at": "2025-06-16T18:14:33.183-04:00", "updated_at": "2025-07-03T19:26:08.011-04:00", "avatar": "https://secure.gravatar.com/avatar/1fd73594ead7f967721c8c0dba181348.jpg?s=512&d=https%3A%2F%2Fa.slack-edge.com%2Fdf10d%2Fimg%2Favatars%2Fava_0015-512.png", "custom_css": null}, {"id": 3272, "slack_id": "U091P6M4D8V", "display_name": "Syed Kifayat", "bio": null, "projects_count": 0, "devlogs_count": 0, "votes_count": 0, "ships_count": 0, "projects": [], "coding_time_seconds": 0, "coding_time_seconds_today": 0, "balance": "You need to have a pocket watcher badge to view this.", "badges": [], "created_at": "2025-06-16T18:14:39.070-04:00", "updated_at": "2025-07-03T19:26:08.273-04:00", "avatar": "https://secure.gravatar.com/avatar/1cc32f4009500791eb9536696e9cc31a.jpg?s=512&d=https%3A%2F%2Fa.slack-edge.com%2Fdf10d%2Fimg%2Favatars%2Fava_0018-512.png", "custom_css": null}, {"id": 3273, "slack_id": "U091J2L2F9R", "display_name": "Matthe815", "bio": null, "projects_count": 0, "devlogs_count": 0, "votes_count": 0, "ships_count": 0, "projects": [], "coding_time_seconds": 0, "coding_time_seconds_today": 0, "balance": "You need to have a pocket watcher badge to view this.", "badges": [], "created_at": "2025-06-16T18:14:43.086-04:00", "updated_at": "2025-07-03T19:26:08.532-04:00", "avatar": "https://secure.gravatar.com/avatar/ed6902b46d0226102e5d57a31941541a.jpg?s=512&d=https%3A%2F%2Fa.slack-edge.com%2Fdf10d%2Fimg%2Favatars%2Fava_0009-512.png", "custom_css": null}, {"id": 3274, "slack_id": "U0919LE1R1D", "display_name": "Raymon", "bio": null, "projects_count": 0, "devlogs_count": 0, "votes_count": 0, "ships_count": 0, "projects": [], "coding_time_seconds": 0, "coding_time_seconds_today": 0, "balance": "You need to have a pocket watcher badge to view this.", "badges": [], "created_at": "2025-06-16T18:14:48.557-04:00", "updated_at": "2025-07-03T19:26:08.888-04:00", "avatar": "https://secure.gravatar.com/avatar/28983c657be87d39f0699f2bf00bce47.jpg?s=512&d=https%3A%2F%2Fa.slack-edge.com%2Fdf10d%2Fimg%2Favatars%2Fava_0025-512.png", "custom_css": null}, {"id": 3275, "slack_id": "U091J5EFJ8N", "display_name": "Sasha Muravyev", "bio": null, "projects_count": 0, "devlogs_count": 0, "votes_count": 0, "ships_count": 0, "projects": [], "coding_time_seconds": 0, "coding_time_seconds_today": 0, "balance": "You need to have a pocket watcher badge to view this.", "badges": [], "created_at": "2025-06-16T18:14:53.529-04:00", "updated_at": "2025-07-03T19:26:09.156-04:00", "avatar": "https://secure.gravatar.com/avatar/bcaca8e6d01c07e41e1bd6fa5af28197.jpg?s=512&d=https%3A%2F%2Fa.slack-edge.com%2Fdf10d%2Fimg%2Favatars%2Fava_0012-512.png", "custom_css": null}, {"id": 3276, "slack_id": "U07N51Q5HFE", "display_name": "ayushi", "bio": null, "projects_count": 0, "devlogs_count": 0, "votes_count": 0, "ships_count": 0, "projects": [], "coding_time_seconds": 48485, "coding_time_seconds_today": 0, "balance": "You need to have a pocket watcher badge to view this.", "badges": [], "created_at": "2025-06-16T18:14:59.169-04:00", "updated_at": "2025-09-08T02:13:25.025-04:00", "avatar": "https://avatars.slack-edge.com/2025-09-07/9480087465524_e78798a0a5a6cec4bcbb_original.png", "custom_css": null}, {"id": 3277, "slack_id": "U091J6D53AS", "display_name": "Anirudh", "bio": null, "projects_count": 0, "devlogs_count": 0, "votes_count": 0, "ships_count": 0, "projects": [], "coding_time_seconds": 0, "coding_time_seconds_today": 0, "balance": "You need to have a pocket watcher badge to view this.", "badges": [], "created_at": "2025-06-16T18:15:06.368-04:00", "updated_at": "2025-07-03T19:26:09.689-04:00", "avatar": "https://secure.gravatar.com/avatar/b1049126ab613fafa48f1fcd39f8d4de.jpg?s=512&d=https%3A%2F%2Fa.slack-edge.com%2Fdf10d%2Fimg%2Favatars%2Fava_0026-512.png", "custom_css": null}, {"id": 3278, "slack_id": "U091PB2DM52", "display_name": "CharlesWithC", "bio": null, "projects_count": 0, "devlogs_count": 0, "votes_count": 0, "ships_count": 0, "projects": [], "coding_time_seconds": 113523, "coding_time_seconds_today": 0, "balance": "You need to have a pocket watcher badge to view this.", "badges": [], "created_at": "2025-06-16T18:15:13.267-04:00", "updated_at": "2025-07-03T19:26:09.949-04:00", "avatar": "https://avatars.slack-edge.com/2025-06-16/9057254183957_e3f8200fdd33e222ef24_original.png", "custom_css": null}, {"id": 3279, "slack_id": "U081REH4QF9", "display_name": "moataz Ahmed", "bio": null, "projects_count": 0, "devlogs_count": 0, "votes_count": 0, "ships_count": 0, "projects": [], "coding_time_seconds": 47890, "coding_time_seconds_today": 0, "balance": "You need to have a pocket watcher badge to view this.", "badges": [], "created_at": "2025-06-16T18:15:26.294-04:00", "updated_at": "2025-07-03T19:26:10.210-04:00", "avatar": "https://secure.gravatar.com/avatar/f768ac2734c4fa3cfbcdc84e1c795fc1.jpg?s=512&d=https%3A%2F%2Fa.slack-edge.com%2Fdf10d%2Fimg%2Favatars%2Fava_0004-512.png", "custom_css": null}, {"id": 3280, "slack_id": "U091J6FL7PG", "display_name": "Lucas Xie", "bio": null, "projects_count": 0, "devlogs_count": 0, "votes_count": 0, "ships_count": 0, "projects": [], "coding_time_seconds": 256800, "coding_time_seconds_today": 0, "balance": "You need to have a pocket watcher badge to view this.", "badges": [], "created_at": "2025-06-16T18:15:29.226-04:00", "updated_at": "2025-07-03T19:26:10.470-04:00", "avatar": "https://avatars.slack-edge.com/2025-06-16/9071585535873_05f61dc5bd8e581a0561_original.png", "custom_css": null}], "pagination": {"page": 164, "pages": 1192, "count": 23828, "items": 20}}