{"users": [{"id": 3281, "slack_id": "U09230GGXQR", "display_name": "Daniel Duarte Moraes", "bio": null, "projects_count": 0, "devlogs_count": 0, "votes_count": 0, "ships_count": 0, "projects": [], "coding_time_seconds": 0, "coding_time_seconds_today": 0, "balance": "You need to have a pocket watcher badge to view this.", "badges": [], "created_at": "2025-06-16T18:16:27.170-04:00", "updated_at": "2025-07-03T19:26:10.734-04:00", "avatar": "https://avatars.slack-edge.com/2025-06-16/9071586818241_e6211c1ddb53d7bbb279_original.jpg", "custom_css": null}, {"id": 3282, "slack_id": "U08QZ54G6HX", "display_name": "Joshua Zhao", "bio": null, "projects_count": 1, "devlogs_count": 0, "votes_count": 0, "ships_count": 0, "projects": [{"id": 6366, "title": "Ecovoyage", "devlogs_count": 0, "created_at": "2025-07-12T18:11:37.971-04:00"}], "coding_time_seconds": 149951, "coding_time_seconds_today": 0, "balance": "You need to have a pocket watcher badge to view this.", "badges": [], "created_at": "2025-06-16T18:16:39.538-04:00", "updated_at": "2025-07-03T19:26:11.012-04:00", "avatar": "https://avatars.slack-edge.com/2025-05-01/8822861585527_7da9f12b94168a1ebb79_original.png", "custom_css": null}, {"id": 3283, "slack_id": "U06GL5GN8E6", "display_name": "Ram\u00f3n de Le\u00f3n", "bio": null, "projects_count": 6, "devlogs_count": 18, "votes_count": 34, "ships_count": 3, "projects": [{"id": 373, "title": "MechaTag - Apriltag localization for MechaLeague and small robots.", "devlogs_count": 2, "created_at": "2025-06-16T19:35:21.520-04:00"}, {"id": 2044, "title": "MechaLeague MMS - Match Management System for MechaLeague Tournaments", "devlogs_count": 4, "created_at": "2025-06-20T01:25:57.290-04:00"}, {"id": 6866, "title": "DECK", "devlogs_count": 3, "created_at": "2025-07-17T00:46:14.249-04:00"}, {"id": 10798, "title": "Roblox Studio Wakatime (With Hackatime support!)", "devlogs_count": 1, "created_at": "2025-08-10T23:28:21.510-04:00"}, {"id": 10940, "title": "Spotidry - Freze dry your songs \ud83e\udd76", "devlogs_count": 2, "created_at": "2025-08-12T00:34:42.485-04:00"}, {"id": 7722, "title": "MechaLeague - The robotics competition for everyone.", "devlogs_count": 6, "created_at": "2025-07-22T17:40:50.834-04:00"}], "coding_time_seconds": 383191, "coding_time_seconds_today": 0, "balance": "You need to have a pocket watcher badge to view this.", "badges": [{"name": "Maiden Voyage", "text": "you shipped your first project! the journey begins...", "icon": "\ud83d\udea2"}], "created_at": "2025-06-16T18:16:47.866-04:00", "updated_at": "2025-09-10T22:52:47.331-04:00", "avatar": "https://avatars.slack-edge.com/2024-08-31/7660175426995_ad0c03d9a310f9d31dc1_original.jpg", "custom_css": null}, {"id": 3284, "slack_id": "U080HG5D3MX", "display_name": "Fatih", "bio": null, "projects_count": 0, "devlogs_count": 0, "votes_count": 0, "ships_count": 0, "projects": [], "coding_time_seconds": 0, "coding_time_seconds_today": 0, "balance": "You need to have a pocket watcher badge to view this.", "badges": [], "created_at": "2025-06-16T18:16:48.665-04:00", "updated_at": "2025-07-03T19:26:11.611-04:00", "avatar": "https://secure.gravatar.com/avatar/33566e712be430ed5c2a33e7edd4c94c.jpg?s=512&d=https%3A%2F%2Fa.slack-edge.com%2Fdf10d%2Fimg%2Favatars%2Fava_0002-512.png", "custom_css": null}, {"id": 3285, "slack_id": "U091P74C9M3", "display_name": "Ezra Aslan", "bio": null, "projects_count": 5, "devlogs_count": 49, "votes_count": 112, "ships_count": 5, "projects": [{"id": 6736, "title": "Gravity", "devlogs_count": 11, "created_at": "2025-07-15T16:00:52.115-04:00"}, {"id": 7296, "title": "The Inscribed Square Problem Solver", "devlogs_count": 1, "created_at": "2025-07-20T17:35:27.600-04:00"}, {"id": 8361, "title": "Markov Chain Text Generator", "devlogs_count": 34, "created_at": "2025-07-26T14:37:44.095-04:00"}, {"id": 7298, "title": "Flame", "devlogs_count": 2, "created_at": "2025-07-20T17:54:36.333-04:00"}, {"id": 7288, "title": "Hendrix 3000", "devlogs_count": 1, "created_at": "2025-07-20T16:34:25.151-04:00"}], "coding_time_seconds": 142064, "coding_time_seconds_today": 0, "balance": "You need to have a pocket watcher badge to view this.", "badges": [{"name": "Maiden Voyage", "text": "you shipped your first project! the journey begins...", "icon": "\ud83d\udea2"}, {"name": "Yapper I", "text": "Posted 10 comments on devlogs.", "icon": "\ud83d\udcac"}, {"name": "Ballot Stuffer", "text": "vote 100 times.", "icon": "https://summer.hackclub.com/assets/i_voted-bf851b48.png"}], "created_at": "2025-06-16T18:17:03.583-04:00", "updated_at": "2025-09-10T22:52:47.385-04:00", "avatar": "https://secure.gravatar.com/avatar/49fb55eae9f6513f67d90d07daf23768.jpg?s=512&d=https%3A%2F%2Fa.slack-edge.com%2Fdf10d%2Fimg%2Favatars%2Fava_0000-512.png", "custom_css": null}, {"id": 3286, "slack_id": "U07A2PHTL3B", "display_name": "plop", "bio": null, "projects_count": 1, "devlogs_count": 4, "votes_count": 4, "ships_count": 0, "projects": [{"id": 3311, "title": "Avium", "devlogs_count": 4, "created_at": "2025-06-23T19:05:41.948-04:00"}], "coding_time_seconds": 336975, "coding_time_seconds_today": 0, "balance": "You need to have a pocket watcher badge to view this.", "badges": [], "created_at": "2025-06-16T18:17:04.804-04:00", "updated_at": "2025-08-21T13:53:12.841-04:00", "avatar": "https://avatars.slack-edge.com/2025-04-21/8775757183462_1e5cdefec15079558150_original.webp", "custom_css": null}, {"id": 3287, "slack_id": "U091P6VSZK7", "display_name": "asuna", "bio": null, "projects_count": 0, "devlogs_count": 0, "votes_count": 0, "ships_count": 0, "projects": [], "coding_time_seconds": 0, "coding_time_seconds_today": 0, "balance": "You need to have a pocket watcher badge to view this.", "badges": [], "created_at": "2025-06-16T18:17:05.455-04:00", "updated_at": "2025-07-03T19:26:12.468-04:00", "avatar": "https://secure.gravatar.com/avatar/52945ee90e2e9d3764d1bc1696f7e3ff.jpg?s=512&d=https%3A%2F%2Fa.slack-edge.com%2Fdf10d%2Fimg%2Favatars%2Fava_0004-512.png", "custom_css": null}, {"id": 3288, "slack_id": "U0923H02Y3B", "display_name": "Ingo", "bio": "web dev", "projects_count": 12, "devlogs_count": 68, "votes_count": 121, "ships_count": 6, "projects": [{"id": 8976, "title": "mapsle", "devlogs_count": 1, "created_at": "2025-07-30T03:43:42.893-04:00"}, {"id": 11356, "title": "Wordsearch Solver", "devlogs_count": 4, "created_at": "2025-08-15T07:40:31.494-04:00"}, {"id": 11586, "title": "Brandkit", "devlogs_count": 1, "created_at": "2025-08-17T09:26:30.606-04:00"}, {"id": 11926, "title": "webdev-tools", "devlogs_count": 0, "created_at": "2025-08-21T06:11:23.007-04:00"}, {"id": 12175, "title": "Clippy", "devlogs_count": 1, "created_at": "2025-08-24T01:03:52.719-04:00"}, {"id": 12477, "title": "How well do you know your playlist?", "devlogs_count": 1, "created_at": "2025-08-28T06:21:47.502-04:00"}, {"id": 12590, "title": "Temporary Website", "devlogs_count": 3, "created_at": "2025-08-30T08:04:58.505-04:00"}, {"id": 12901, "title": "AI Calculator", "devlogs_count": 3, "created_at": "2025-09-04T21:32:56.241-04:00"}, {"id": 8023, "title": "xkcd-webapp", "devlogs_count": 23, "created_at": "2025-07-24T05:11:32.379-04:00"}, {"id": 5652, "title": "My Website", "devlogs_count": 10, "created_at": "2025-07-06T21:34:17.984-04:00"}, {"id": 11644, "title": "Noe Co. Website (next.js migration & redesign)", "devlogs_count": 12, "created_at": "2025-08-18T02:46:14.907-04:00"}, {"id": 5650, "title": "Wordleeeeeeee", "devlogs_count": 3, "created_at": "2025-07-06T21:29:16.304-04:00"}], "coding_time_seconds": 412614, "coding_time_seconds_today": 120, "balance": "You need to have a pocket watcher badge to view this.", "badges": [{"name": "Maiden Voyage", "text": "you shipped your first project! the journey begins...", "icon": "\ud83d\udea2"}, {"name": "Ballot Stuffer", "text": "vote 100 times.", "icon": "https://summer.hackclub.com/assets/i_voted-bf851b48.png"}], "created_at": "2025-06-16T18:17:08.394-04:00", "updated_at": "2025-09-10T22:52:47.481-04:00", "avatar": "https://avatars.slack-edge.com/2025-06-21/9083671066050_a6803bbb825d474abff9_original.jpg", "custom_css": null}, {"id": 3289, "slack_id": "U070X3W3GBD", "display_name": "sprext", "bio": null, "projects_count": 4, "devlogs_count": 8, "votes_count": 20, "ships_count": 1, "projects": [{"id": 3728, "title": "LumoGPT", "devlogs_count": 0, "created_at": "2025-06-25T12:09:25.551-04:00"}, {"id": 4393, "title": "Vibe Scribe", "devlogs_count": 4, "created_at": "2025-06-29T15:38:49.583-04:00"}, {"id": 4939, "title": "GitGarden", "devlogs_count": 0, "created_at": "2025-07-02T10:21:21.486-04:00"}, {"id": 4123, "title": "FocusFlow", "devlogs_count": 4, "created_at": "2025-06-27T16:19:06.547-04:00"}], "coding_time_seconds": 158797, "coding_time_seconds_today": 0, "balance": "You need to have a pocket watcher badge to view this.", "badges": [{"name": "Maiden Voyage", "text": "you shipped your first project! the journey begins...", "icon": "\ud83d\udea2"}], "created_at": "2025-06-16T18:17:19.801-04:00", "updated_at": "2025-09-10T22:52:47.516-04:00", "avatar": "https://avatars.slack-edge.com/2024-10-25/7922503745559_c2b33f37496cf1b4e678_original.png", "custom_css": null}, {"id": 3290, "slack_id": "U091P6W9FNZ", "display_name": "cribiking", "bio": null, "projects_count": 0, "devlogs_count": 0, "votes_count": 0, "ships_count": 0, "projects": [], "coding_time_seconds": 0, "coding_time_seconds_today": 0, "balance": "You need to have a pocket watcher badge to view this.", "badges": [], "created_at": "2025-06-16T18:17:26.522-04:00", "updated_at": "2025-07-03T19:26:13.267-04:00", "avatar": "https://secure.gravatar.com/avatar/081211e338d58b2de6c279602da2aae8.jpg?s=512&d=https%3A%2F%2Fa.slack-edge.com%2Fdf10d%2Fimg%2Favatars%2Fava_0022-512.png", "custom_css": null}, {"id": 3291, "slack_id": "U092DDJFA00", "display_name": "Gael", "bio": null, "projects_count": 0, "devlogs_count": 0, "votes_count": 0, "ships_count": 0, "projects": [], "coding_time_seconds": 0, "coding_time_seconds_today": 0, "balance": "You need to have a pocket watcher badge to view this.", "badges": [], "created_at": "2025-06-16T18:17:54.261-04:00", "updated_at": "2025-07-03T19:26:13.533-04:00", "avatar": "https://avatars.slack-edge.com/2025-06-16/9057257555125_93b9b8cf110c4fa49d97_original.jpg", "custom_css": null}, {"id": 3292, "slack_id": "U07RZG0SVBK", "display_name": "woodsa007", "bio": null, "projects_count": 3, "devlogs_count": 10, "votes_count": 40, "ships_count": 2, "projects": [{"id": 1524, "title": "Soul seeker", "devlogs_count": 3, "created_at": "2025-06-18T17:18:36.309-04:00"}, {"id": 10465, "title": "Colour Picker", "devlogs_count": 2, "created_at": "2025-08-07T09:18:02.136-04:00"}, {"id": 9083, "title": "Loopz", "devlogs_count": 5, "created_at": "2025-07-30T13:56:57.361-04:00"}], "coding_time_seconds": 251612, "coding_time_seconds_today": 0, "balance": "You need to have a pocket watcher badge to view this.", "badges": [{"name": "Maiden Voyage", "text": "you shipped your first project! the journey begins...", "icon": "\ud83d\udea2"}], "created_at": "2025-06-16T18:18:08.570-04:00", "updated_at": "2025-09-10T22:52:47.603-04:00", "avatar": "https://secure.gravatar.com/avatar/8187c91581171764f995b156a4bdef9f.jpg?s=512&d=https%3A%2F%2Fa.slack-edge.com%2Fdf10d%2Fimg%2Favatars%2Fava_0010-512.png", "custom_css": null}, {"id": 3293, "slack_id": "U08TLPKKL48", "display_name": "Levi Skaggs", "bio": null, "projects_count": 0, "devlogs_count": 0, "votes_count": 0, "ships_count": 0, "projects": [], "coding_time_seconds": 0, "coding_time_seconds_today": 0, "balance": "You need to have a pocket watcher badge to view this.", "badges": [], "created_at": "2025-06-16T18:18:18.671-04:00", "updated_at": "2025-07-03T19:26:14.061-04:00", "avatar": "https://secure.gravatar.com/avatar/5c9a55eff4a64c946f84a241b8aebfb2.jpg?s=512&d=https%3A%2F%2Fa.slack-edge.com%2Fdf10d%2Fimg%2Favatars%2Fava_0000-512.png", "custom_css": null}, {"id": 3294, "slack_id": "U092DDECK88", "display_name": "Muhammad Sufiyan", "bio": null, "projects_count": 0, "devlogs_count": 0, "votes_count": 0, "ships_count": 0, "projects": [], "coding_time_seconds": 444065, "coding_time_seconds_today": 0, "balance": "You need to have a pocket watcher badge to view this.", "badges": [], "created_at": "2025-06-16T18:18:26.476-04:00", "updated_at": "2025-07-07T17:30:55.699-04:00", "avatar": "https://secure.gravatar.com/avatar/88c614f2e7b408b83184e68b5ac4a736.jpg?s=512&d=https%3A%2F%2Fa.slack-edge.com%2Fdf10d%2Fimg%2Favatars%2Fava_0005-512.png", "custom_css": null}, {"id": 3295, "slack_id": "U092DDR8KS4", "display_name": "FavourTy", "bio": null, "projects_count": 0, "devlogs_count": 0, "votes_count": 0, "ships_count": 0, "projects": [], "coding_time_seconds": 0, "coding_time_seconds_today": 0, "balance": "You need to have a pocket watcher badge to view this.", "badges": [], "created_at": "2025-06-16T18:18:28.513-04:00", "updated_at": "2025-07-03T19:26:14.601-04:00", "avatar": "https://secure.gravatar.com/avatar/eb8ce3750a6dd3996ea6f404afcfd151.jpg?s=512&d=https%3A%2F%2Fa.slack-edge.com%2Fdf10d%2Fimg%2Favatars%2Fava_0018-512.png", "custom_css": null}, {"id": 3296, "slack_id": "U084K35L37V", "display_name": "Definitely Not A Dolphin", "bio": null, "projects_count": 3, "devlogs_count": 15, "votes_count": 20, "ships_count": 1, "projects": [{"id": 1116, "title": "Geen-Dolfijn (personal website)", "devlogs_count": 5, "created_at": "2025-06-17T16:47:05.902-04:00"}, {"id": 1542, "title": "The Breadener", "devlogs_count": 8, "created_at": "2025-06-18T17:54:19.660-04:00"}, {"id": 2954, "title": "Finnish Language Trainer V5", "devlogs_count": 2, "created_at": "2025-06-22T14:43:31.015-04:00"}], "coding_time_seconds": 311562, "coding_time_seconds_today": 1127, "balance": "You need to have a pocket watcher badge to view this.", "badges": [{"name": "Maiden Voyage", "text": "you shipped your first project! the journey begins...", "icon": "\ud83d\udea2"}], "created_at": "2025-06-16T18:18:34.664-04:00", "updated_at": "2025-09-10T22:52:47.716-04:00", "avatar": "https://avatars.slack-edge.com/2025-04-07/8740825217248_6caecd79bff7fbbf7b09_original.png", "custom_css": null}, {"id": 3297, "slack_id": "U08U68WA0CR", "display_name": "shreyaluu", "bio": null, "projects_count": 0, "devlogs_count": 0, "votes_count": 0, "ships_count": 0, "projects": [], "coding_time_seconds": 176117, "coding_time_seconds_today": 0, "balance": "You need to have a pocket watcher badge to view this.", "badges": [], "created_at": "2025-06-16T18:18:38.424-04:00", "updated_at": "2025-09-11T14:13:53.778-04:00", "avatar": "https://avatars.slack-edge.com/2025-09-11/9502694069974_fafc300780d37783e86f_original.png", "custom_css": null}, {"id": 3298, "slack_id": "U07K3HF9WN5", "display_name": "Kaya", "bio": null, "projects_count": 0, "devlogs_count": 0, "votes_count": 0, "ships_count": 0, "projects": [], "coding_time_seconds": 0, "coding_time_seconds_today": 0, "balance": "You need to have a pocket watcher badge to view this.", "badges": [], "created_at": "2025-06-16T18:18:49.698-04:00", "updated_at": "2025-07-03T19:26:16.333-04:00", "avatar": "https://secure.gravatar.com/avatar/3b99ce34fff457c6dd823661c019e7c0.jpg?s=512&d=https%3A%2F%2Fa.slack-edge.com%2Fdf10d%2Fimg%2Favatars%2Fava_0009-512.png", "custom_css": null}, {"id": 3299, "slack_id": "U08TNNH5NBV", "display_name": "Igrok10", "bio": null, "projects_count": 0, "devlogs_count": 0, "votes_count": 1, "ships_count": 0, "projects": [], "coding_time_seconds": 868, "coding_time_seconds_today": 0, "balance": "You need to have a pocket watcher badge to view this.", "badges": [], "created_at": "2025-06-16T18:18:55.514-04:00", "updated_at": "2025-08-11T19:13:21.018-04:00", "avatar": "https://secure.gravatar.com/avatar/6b54867f845d37ea4d07977a0cdd0383.jpg?s=512&d=https%3A%2F%2Fa.slack-edge.com%2Fdf10d%2Fimg%2Favatars%2Fava_0001-512.png", "custom_css": null}, {"id": 3300, "slack_id": "U06EG073S1J", "display_name": "Rangel", "bio": null, "projects_count": 4, "devlogs_count": 16, "votes_count": 31, "ships_count": 2, "projects": [{"id": 4863, "title": "3D Connect4", "devlogs_count": 4, "created_at": "2025-07-02T00:39:43.590-04:00"}, {"id": 3627, "title": "SummerOM Shopping Cart", "devlogs_count": 6, "created_at": "2025-06-25T02:49:28.982-04:00"}, {"id": 13060, "title": "Inverse Kinematics", "devlogs_count": 2, "created_at": "2025-09-07T22:03:16.220-04:00"}, {"id": 6510, "title": "SAPP", "devlogs_count": 4, "created_at": "2025-07-13T23:37:51.131-04:00"}], "coding_time_seconds": 272656, "coding_time_seconds_today": 0, "balance": "You need to have a pocket watcher badge to view this.", "badges": [{"name": "Maiden Voyage", "text": "you shipped your first project! the journey begins...", "icon": "\ud83d\udea2"}], "created_at": "2025-06-16T18:19:00.438-04:00", "updated_at": "2025-09-10T22:52:47.810-04:00", "avatar": "https://avatars.slack-edge.com/2024-08-15/7580356989269_08da12768f0ceda4131b_original.jpg", "custom_css": null}], "pagination": {"page": 165, "pages": 1192, "count": 23828, "items": 20}}