{"users": [{"id": 3321, "slack_id": "U092DE30724", "display_name": "Jo\u00e3o Ot\u00e1vio Stivi", "bio": null, "projects_count": 0, "devlogs_count": 0, "votes_count": 0, "ships_count": 0, "projects": [], "coding_time_seconds": 0, "coding_time_seconds_today": 0, "balance": "You need to have a pocket watcher badge to view this.", "badges": [], "created_at": "2025-06-16T18:23:07.052-04:00", "updated_at": "2025-07-03T19:26:22.741-04:00", "avatar": "https://avatars.slack-edge.com/2025-06-16/9081491442768_0b80fba3917bee22d8f5_original.jpg", "custom_css": null}, {"id": 3322, "slack_id": "U07V73EEF42", "display_name": "Jiayang", "bio": null, "projects_count": 0, "devlogs_count": 0, "votes_count": 1, "ships_count": 0, "projects": [], "coding_time_seconds": 93394, "coding_time_seconds_today": 0, "balance": "You need to have a pocket watcher badge to view this.", "badges": [], "created_at": "2025-06-16T18:23:11.027-04:00", "updated_at": "2025-07-14T12:07:00.327-04:00", "avatar": "https://avatars.slack-edge.com/2024-11-21/8081123181169_dd7576f1c7dae19bc8eb_original.png", "custom_css": null}, {"id": 3323, "slack_id": "U091RBNFVPW", "display_name": "Ryan Cheung", "bio": null, "projects_count": 0, "devlogs_count": 0, "votes_count": 0, "ships_count": 0, "projects": [], "coding_time_seconds": 0, "coding_time_seconds_today": 0, "balance": "You need to have a pocket watcher badge to view this.", "badges": [], "created_at": "2025-06-16T18:23:14.505-04:00", "updated_at": "2025-07-03T19:26:23.281-04:00", "avatar": "https://secure.gravatar.com/avatar/b9cc0198cf80fd4d9b237a9e9a28c1cd.jpg?s=512&d=https%3A%2F%2Fa.slack-edge.com%2Fdf10d%2Fimg%2Favatars%2Fava_0001-512.png", "custom_css": null}, {"id": 3324, "slack_id": "U08AA6HA82F", "display_name": "Jay", "bio": "meeee", "projects_count": 7, "devlogs_count": 61, "votes_count": 124, "ships_count": 6, "projects": [{"id": 4307, "title": "Personal Site - Jay!", "devlogs_count": 6, "created_at": "2025-06-28T20:36:57.281-04:00"}, {"id": 1621, "title": "BusyBob", "devlogs_count": 26, "created_at": "2025-06-18T21:49:16.896-04:00"}, {"id": 13491, "title": "Home Lab Dashbord", "devlogs_count": 5, "created_at": "2025-09-17T17:08:26.264-04:00"}, {"id": 13412, "title": "Elevate Gen website", "devlogs_count": 1, "created_at": "2025-09-15T18:50:49.325-04:00"}, {"id": 5875, "title": "meow", "devlogs_count": 5, "created_at": "2025-07-08T16:36:29.306-04:00"}, {"id": 5053, "title": "HealthPulse", "devlogs_count": 9, "created_at": "2025-07-03T00:31:49.666-04:00"}, {"id": 456, "title": "HealthSathi Website", "devlogs_count": 9, "created_at": "2025-06-16T22:10:12.472-04:00"}], "coding_time_seconds": 491071, "coding_time_seconds_today": 0, "balance": "You need to have a pocket watcher badge to view this.", "badges": [{"name": "Maiden Voyage", "text": "you shipped your first project! the journey begins...", "icon": "\ud83d\udea2"}, {"name": "Yapper I", "text": "Posted 10 comments on devlogs.", "icon": "\ud83d\udcac"}, {"name": "Ballot Stuffer", "text": "vote 100 times.", "icon": "https://summer.hackclub.com/assets/i_voted-bf851b48.png"}], "created_at": "2025-06-16T18:23:15.830-04:00", "updated_at": "2025-09-15T19:05:53.285-04:00", "avatar": "https://avatars.slack-edge.com/2025-07-27/9263233198532_c3999d9e4dc74e9b0314_original.png", "custom_css": null}, {"id": 3325, "slack_id": "U05EZRFKRV4", "display_name": "NotARoomba", "bio": null, "projects_count": 0, "devlogs_count": 0, "votes_count": 0, "ships_count": 0, "projects": [], "coding_time_seconds": 257565, "coding_time_seconds_today": 2455, "balance": "You need to have a pocket watcher badge to view this.", "badges": [], "created_at": "2025-06-16T18:23:16.407-04:00", "updated_at": "2025-07-26T09:41:53.513-04:00", "avatar": "https://avatars.slack-edge.com/2023-07-02/5529703603825_c285f6cabe83e7fc7999_original.jpg", "custom_css": null}, {"id": 3326, "slack_id": "U078DHJG6BX", "display_name": "Jaiden G", "bio": null, "projects_count": 0, "devlogs_count": 0, "votes_count": 0, "ships_count": 0, "projects": [], "coding_time_seconds": 2157, "coding_time_seconds_today": 653, "balance": "You need to have a pocket watcher badge to view this.", "badges": [], "created_at": "2025-06-16T18:23:38.414-04:00", "updated_at": "2025-07-03T19:26:24.086-04:00", "avatar": "https://avatars.slack-edge.com/2024-10-11/7868842688067_4419fc7dca2adc4804e2_original.png", "custom_css": null}, {"id": 3327, "slack_id": "U06TZNQQHD0", "display_name": "Harold", "bio": null, "projects_count": 0, "devlogs_count": 0, "votes_count": 0, "ships_count": 0, "projects": [], "coding_time_seconds": 14234, "coding_time_seconds_today": 0, "balance": "You need to have a pocket watcher badge to view this.", "badges": [], "created_at": "2025-06-16T18:24:01.970-04:00", "updated_at": "2025-07-03T19:26:24.364-04:00", "avatar": "https://secure.gravatar.com/avatar/dfec30393aaf8300a64382c2b4ba001f.jpg?s=512&d=https%3A%2F%2Fa.slack-edge.com%2Fdf10d%2Fimg%2Favatars%2Fava_0006-512.png", "custom_css": null}, {"id": 3328, "slack_id": "U08Q75EBX53", "display_name": "mattseq", "bio": null, "projects_count": 4, "devlogs_count": 110, "votes_count": 111, "ships_count": 3, "projects": [{"id": 12200, "title": "Item Holograms (Minecraft Mod)", "devlogs_count": 7, "created_at": "2025-08-24T09:35:16.863-04:00"}, {"id": 12517, "title": "Inhabitants (Minecraft Mod)", "devlogs_count": 22, "created_at": "2025-08-28T22:12:25.554-04:00"}, {"id": 12453, "title": "Quotient", "devlogs_count": 12, "created_at": "2025-08-27T19:43:09.083-04:00"}, {"id": 12276, "title": "Vibe (GIF Chat App)", "devlogs_count": 10, "created_at": "2025-08-25T07:10:55.153-04:00"}], "coding_time_seconds": 782068, "coding_time_seconds_today": 0, "balance": "You need to have a pocket watcher badge to view this.", "badges": [{"name": "Maiden Voyage", "text": "you shipped your first project! the journey begins...", "icon": "\ud83d\udea2"}, {"name": "Yapper I", "text": "Posted 10 comments on devlogs.", "icon": "\ud83d\udcac"}, {"name": "Ballot Stuffer", "text": "vote 100 times.", "icon": "https://summer.hackclub.com/assets/i_voted-bf851b48.png"}], "created_at": "2025-06-16T18:24:23.140-04:00", "updated_at": "2025-09-10T22:52:48.795-04:00", "avatar": "https://avatars.slack-edge.com/2025-06-19/9099542398496_686de8eb53df145a992c_original.png", "custom_css": null}, {"id": 3329, "slack_id": "U091J72FXSA", "display_name": "Kelsey", "bio": null, "projects_count": 2, "devlogs_count": 2, "votes_count": 0, "ships_count": 0, "projects": [{"id": 1643, "title": "Secret Messages", "devlogs_count": 1, "created_at": "2025-06-18T23:31:04.606-04:00"}, {"id": 10063, "title": "Personal Website", "devlogs_count": 1, "created_at": "2025-08-03T19:18:51.509-04:00"}], "coding_time_seconds": 20719, "coding_time_seconds_today": 0, "balance": "You need to have a pocket watcher badge to view this.", "badges": [], "created_at": "2025-06-16T18:24:30.294-04:00", "updated_at": "2025-07-03T19:26:24.908-04:00", "avatar": "https://secure.gravatar.com/avatar/c319b22c617d18266d35b0ce44c654dd.jpg?s=512&d=https%3A%2F%2Fa.slack-edge.com%2Fdf10d%2Fimg%2Favatars%2Fava_0004-512.png", "custom_css": null}, {"id": 3330, "slack_id": "U091J7AQUF8", "display_name": "Compile Warrior", "bio": null, "projects_count": 0, "devlogs_count": 0, "votes_count": 0, "ships_count": 0, "projects": [], "coding_time_seconds": 0, "coding_time_seconds_today": 0, "balance": "You need to have a pocket watcher badge to view this.", "badges": [], "created_at": "2025-06-16T18:24:33.223-04:00", "updated_at": "2025-07-03T19:26:25.189-04:00", "avatar": "https://secure.gravatar.com/avatar/0734472fec997bf0c344e4d4e71b6aa8.jpg?s=512&d=https%3A%2F%2Fa.slack-edge.com%2Fdf10d%2Fimg%2Favatars%2Fava_0012-512.png", "custom_css": null}, {"id": 3331, "slack_id": "U091R1KHLKU", "display_name": "nada abel", "bio": null, "projects_count": 0, "devlogs_count": 0, "votes_count": 0, "ships_count": 0, "projects": [], "coding_time_seconds": 0, "coding_time_seconds_today": 0, "balance": "You need to have a pocket watcher badge to view this.", "badges": [], "created_at": "2025-06-16T18:24:45.877-04:00", "updated_at": "2025-07-03T19:26:25.463-04:00", "avatar": "https://avatars.slack-edge.com/2025-06-16/9081496709120_d120cf42eb02626f089b_original.png", "custom_css": null}, {"id": 3332, "slack_id": "U0919M700FR", "display_name": "Mois\u00e9s Corbellari", "bio": null, "projects_count": 0, "devlogs_count": 0, "votes_count": 0, "ships_count": 0, "projects": [], "coding_time_seconds": 0, "coding_time_seconds_today": 0, "balance": "You need to have a pocket watcher badge to view this.", "badges": [], "created_at": "2025-06-16T18:24:48.910-04:00", "updated_at": "2025-07-03T19:26:25.736-04:00", "avatar": "https://secure.gravatar.com/avatar/33a01e7bc2d64d4a355e4c7aa8382879.jpg?s=512&d=https%3A%2F%2Fa.slack-edge.com%2Fdf10d%2Fimg%2Favatars%2Fava_0022-512.png", "custom_css": null}, {"id": 3333, "slack_id": "U0923HPNB3K", "display_name": "Nina", "bio": null, "projects_count": 0, "devlogs_count": 0, "votes_count": 0, "ships_count": 0, "projects": [], "coding_time_seconds": 0, "coding_time_seconds_today": 0, "balance": "You need to have a pocket watcher badge to view this.", "badges": [], "created_at": "2025-06-16T18:25:03.369-04:00", "updated_at": "2025-07-03T19:26:26.019-04:00", "avatar": "https://secure.gravatar.com/avatar/a936db91932b529a45f5a4b96fd4a905.jpg?s=512&d=https%3A%2F%2Fa.slack-edge.com%2Fdf10d%2Fimg%2Favatars%2Fava_0016-512.png", "custom_css": null}, {"id": 3334, "slack_id": "U091J3MEYSF", "display_name": "AlexanderCarlisi", "bio": null, "projects_count": 0, "devlogs_count": 0, "votes_count": 0, "ships_count": 0, "projects": [], "coding_time_seconds": 0, "coding_time_seconds_today": 0, "balance": "You need to have a pocket watcher badge to view this.", "badges": [], "created_at": "2025-06-16T18:25:08.963-04:00", "updated_at": "2025-07-03T19:26:26.297-04:00", "avatar": "https://secure.gravatar.com/avatar/ef1dbb3d91ce4d2cbee878948cffd06a.jpg?s=512&d=https%3A%2F%2Fa.slack-edge.com%2Fdf10d%2Fimg%2Favatars%2Fava_0003-512.png", "custom_css": null}, {"id": 3335, "slack_id": "U079RMS1CTT", "display_name": "CoffeeDev", "bio": null, "projects_count": 4, "devlogs_count": 6, "votes_count": 0, "ships_count": 0, "projects": [{"id": 3769, "title": "QControlRouter", "devlogs_count": 0, "created_at": "2025-06-25T16:53:52.542-04:00"}, {"id": 8252, "title": "Mixing Station Flatpak", "devlogs_count": 4, "created_at": "2025-07-25T17:15:30.144-04:00"}, {"id": 9324, "title": "2024 Robot Code Rewrite", "devlogs_count": 1, "created_at": "2025-07-31T15:25:40.977-04:00"}, {"id": 4988, "title": "Tuna Flatpak", "devlogs_count": 1, "created_at": "2025-07-02T14:44:54.740-04:00"}], "coding_time_seconds": 117360, "coding_time_seconds_today": 0, "balance": "You need to have a pocket watcher badge to view this.", "badges": [], "created_at": "2025-06-16T18:25:37.792-04:00", "updated_at": "2025-07-03T18:16:39.420-04:00", "avatar": "https://avatars.slack-edge.com/2025-06-21/9069507203399_20241c5b551d28d2a404_original.png", "custom_css": null}, {"id": 3336, "slack_id": "U05DAU4HBV2", "display_name": "Swayam Sahoo", "bio": null, "projects_count": 0, "devlogs_count": 6, "votes_count": 15, "ships_count": 0, "projects": [], "coding_time_seconds": 748297, "coding_time_seconds_today": 0, "balance": "You need to have a pocket watcher badge to view this.", "badges": [{"name": "Maiden Voyage", "text": "you shipped your first project! the journey begins...", "icon": "\ud83d\udea2"}], "created_at": "2025-06-16T18:25:37.931-04:00", "updated_at": "2025-09-10T22:52:49.037-04:00", "avatar": "https://avatars.slack-edge.com/2023-06-19/5447596478917_a4c78f54b68e2a4493f3_original.png", "custom_css": null}, {"id": 3337, "slack_id": "U092DED31J4", "display_name": "Mithun Prakash", "bio": null, "projects_count": 0, "devlogs_count": 0, "votes_count": 0, "ships_count": 0, "projects": [], "coding_time_seconds": 203, "coding_time_seconds_today": 0, "balance": "You need to have a pocket watcher badge to view this.", "badges": [], "created_at": "2025-06-16T18:26:01.447-04:00", "updated_at": "2025-07-03T19:26:26.990-04:00", "avatar": "https://secure.gravatar.com/avatar/97a3ffe5db7cf40a759d799d2fd44c66.jpg?s=512&d=https%3A%2F%2Fa.slack-edge.com%2Fdf10d%2Fimg%2Favatars%2Fava_0017-512.png", "custom_css": null}, {"id": 3338, "slack_id": "U082WUGKP7W", "display_name": "suhreeth23", "bio": null, "projects_count": 0, "devlogs_count": 0, "votes_count": 0, "ships_count": 0, "projects": [], "coding_time_seconds": 0, "coding_time_seconds_today": 0, "balance": "You need to have a pocket watcher badge to view this.", "badges": [], "created_at": "2025-06-16T18:26:09.996-04:00", "updated_at": "2025-07-03T19:26:27.277-04:00", "avatar": "https://secure.gravatar.com/avatar/8458c2ecf4e0ccf0b41d3220fcc923d0.jpg?s=512&d=https%3A%2F%2Fa.slack-edge.com%2Fdf10d%2Fimg%2Favatars%2Fava_0019-512.png", "custom_css": null}, {"id": 3339, "slack_id": "U091P80UL77", "display_name": "Angel Gustavo Ortu\u00f1o Rogel", "bio": null, "projects_count": 0, "devlogs_count": 0, "votes_count": 0, "ships_count": 0, "projects": [], "coding_time_seconds": 0, "coding_time_seconds_today": 0, "balance": "You need to have a pocket watcher badge to view this.", "badges": [], "created_at": "2025-06-16T18:26:16.036-04:00", "updated_at": "2025-07-03T19:26:27.543-04:00", "avatar": "https://avatars.slack-edge.com/2025-06-16/9052265779702_d7843c272f315795f380_original.png", "custom_css": null}, {"id": 3340, "slack_id": "U0923HX6TA5", "display_name": "YJ", "bio": null, "projects_count": 0, "devlogs_count": 0, "votes_count": 0, "ships_count": 0, "projects": [], "coding_time_seconds": 0, "coding_time_seconds_today": 0, "balance": "You need to have a pocket watcher badge to view this.", "badges": [], "created_at": "2025-06-16T18:26:20.924-04:00", "updated_at": "2025-07-03T19:26:27.805-04:00", "avatar": "https://secure.gravatar.com/avatar/3ceec0be5c4c249f8fb1a775ba66c52f.jpg?s=512&d=https%3A%2F%2Fa.slack-edge.com%2Fdf10d%2Fimg%2Favatars%2Fava_0009-512.png", "custom_css": null}], "pagination": {"page": 167, "pages": 1192, "count": 23828, "items": 20}}