{"users": [{"id": 3341, "slack_id": "U091J3KF82X", "display_name": "Aaron", "bio": null, "projects_count": 0, "devlogs_count": 0, "votes_count": 0, "ships_count": 0, "projects": [], "coding_time_seconds": 0, "coding_time_seconds_today": 0, "balance": "You need to have a pocket watcher badge to view this.", "badges": [], "created_at": "2025-06-16T18:26:23.319-04:00", "updated_at": "2025-07-03T19:26:28.081-04:00", "avatar": "https://secure.gravatar.com/avatar/929bf892ad299e6a12721aad22a0aead.jpg?s=512&d=https%3A%2F%2Fa.slack-edge.com%2Fdf10d%2Fimg%2Favatars%2Fava_0023-512.png", "custom_css": null}, {"id": 3342, "slack_id": "U0919LJUV8X", "display_name": "David Racovan", "bio": null, "projects_count": 1, "devlogs_count": 1, "votes_count": 0, "ships_count": 0, "projects": [{"id": 1136, "title": "jupyter-notebooks", "devlogs_count": 1, "created_at": "2025-06-17T17:28:42.383-04:00"}], "coding_time_seconds": 446669, "coding_time_seconds_today": 0, "balance": "You need to have a pocket watcher badge to view this.", "badges": [], "created_at": "2025-06-16T18:26:34.527-04:00", "updated_at": "2025-07-03T19:26:28.369-04:00", "avatar": "https://secure.gravatar.com/avatar/20c31ada01ba6f526b9abd094e2757ef.jpg?s=512&d=https%3A%2F%2Fa.slack-edge.com%2Fdf10d%2Fimg%2Favatars%2Fava_0015-512.png", "custom_css": null}, {"id": 3343, "slack_id": "U092DEB8RH6", "display_name": "Sohum Wadhwani", "bio": null, "projects_count": 0, "devlogs_count": 0, "votes_count": 0, "ships_count": 0, "projects": [], "coding_time_seconds": 0, "coding_time_seconds_today": 0, "balance": "You need to have a pocket watcher badge to view this.", "badges": [], "created_at": "2025-06-16T18:26:40.164-04:00", "updated_at": "2025-07-03T19:26:28.657-04:00", "avatar": "https://avatars.slack-edge.com/2025-06-16/9059418925188_7f0ceb562282f4def110_original.png", "custom_css": null}, {"id": 3344, "slack_id": "U091J3NGDLK", "display_name": "Stuart428", "bio": null, "projects_count": 0, "devlogs_count": 0, "votes_count": 0, "ships_count": 0, "projects": [], "coding_time_seconds": 0, "coding_time_seconds_today": 0, "balance": "You need to have a pocket watcher badge to view this.", "badges": [], "created_at": "2025-06-16T18:26:43.755-04:00", "updated_at": "2025-07-03T19:26:28.929-04:00", "avatar": "https://secure.gravatar.com/avatar/c9351e0edec57b6f427afc053c15208b.jpg?s=512&d=https%3A%2F%2Fa.slack-edge.com%2Fdf10d%2Fimg%2Favatars%2Fava_0014-512.png", "custom_css": null}, {"id": 3345, "slack_id": "U092DEBS97S", "display_name": "anon.", "bio": null, "projects_count": 0, "devlogs_count": 0, "votes_count": 1, "ships_count": 0, "projects": [], "coding_time_seconds": 17321, "coding_time_seconds_today": 0, "balance": "You need to have a pocket watcher badge to view this.", "badges": [], "created_at": "2025-06-16T18:26:48.297-04:00", "updated_at": "2025-08-09T22:56:35.706-04:00", "avatar": "https://secure.gravatar.com/avatar/78ff7c60bf925af6f4123fa09ca8c540.jpg?s=512&d=https%3A%2F%2Fa.slack-edge.com%2Fdf10d%2Fimg%2Favatars%2Fava_0023-512.png", "custom_css": null}, {"id": 3346, "slack_id": "U079KPKBUSW", "display_name": "Caitlyn Pickerel", "bio": null, "projects_count": 0, "devlogs_count": 0, "votes_count": 0, "ships_count": 0, "projects": [], "coding_time_seconds": 0, "coding_time_seconds_today": 0, "balance": "You need to have a pocket watcher badge to view this.", "badges": [], "created_at": "2025-06-16T18:27:06.931-04:00", "updated_at": "2025-07-03T19:26:29.464-04:00", "avatar": "https://secure.gravatar.com/avatar/5bfe0b4fa04e6a787f7134fa13c4a6e2.jpg?s=512&d=https%3A%2F%2Fa.slack-edge.com%2Fdf10d%2Fimg%2Favatars%2Fava_0020-512.png", "custom_css": null}, {"id": 3347, "slack_id": "U091P7ZBCNR", "display_name": "Filippo", "bio": null, "projects_count": 0, "devlogs_count": 0, "votes_count": 0, "ships_count": 0, "projects": [], "coding_time_seconds": 0, "coding_time_seconds_today": 0, "balance": "You need to have a pocket watcher badge to view this.", "badges": [], "created_at": "2025-06-16T18:27:07.491-04:00", "updated_at": "2025-07-03T19:26:29.724-04:00", "avatar": "https://secure.gravatar.com/avatar/33accec26ec1a614885fda8bcd7fd643.jpg?s=512&d=https%3A%2F%2Fa.slack-edge.com%2Fdf10d%2Fimg%2Favatars%2Fava_0025-512.png", "custom_css": null}, {"id": 3348, "slack_id": "U08RHEAA90E", "display_name": "mariam mostafa", "bio": null, "projects_count": 0, "devlogs_count": 0, "votes_count": 0, "ships_count": 0, "projects": [], "coding_time_seconds": 0, "coding_time_seconds_today": 0, "balance": "You need to have a pocket watcher badge to view this.", "badges": [], "created_at": "2025-06-16T18:27:23.817-04:00", "updated_at": "2025-07-03T19:26:29.990-04:00", "avatar": "https://avatars.slack-edge.com/2025-05-10/8879789801444_73d2035d5ddfdcf99c79_original.jpg", "custom_css": null}, {"id": 3349, "slack_id": "U07UCQ6UTR8", "display_name": "EinJOJO", "bio": null, "projects_count": 0, "devlogs_count": 0, "votes_count": 0, "ships_count": 0, "projects": [], "coding_time_seconds": 0, "coding_time_seconds_today": 0, "balance": "You need to have a pocket watcher badge to view this.", "badges": [], "created_at": "2025-06-16T18:27:34.884-04:00", "updated_at": "2025-07-03T19:26:30.245-04:00", "avatar": "https://secure.gravatar.com/avatar/3d0ebf6d98ad4ebc8e5ea7f22400c752.jpg?s=512&d=https%3A%2F%2Fa.slack-edge.com%2Fdf10d%2Fimg%2Favatars%2Fava_0001-512.png", "custom_css": null}, {"id": 3350, "slack_id": "U08FPPB3C2H", "display_name": "Mambuco", "bio": null, "projects_count": 1, "devlogs_count": 25, "votes_count": 60, "ships_count": 1, "projects": [{"id": 5985, "title": "Mambuco's Website", "devlogs_count": 18, "created_at": "2025-07-09T17:26:02.990-04:00"}], "coding_time_seconds": 141745, "coding_time_seconds_today": 0, "balance": "You need to have a pocket watcher badge to view this.", "badges": [{"name": "Maiden Voyage", "text": "you shipped your first project! the journey begins...", "icon": "\ud83d\udea2"}], "created_at": "2025-06-16T18:27:47.696-04:00", "updated_at": "2025-09-20T18:13:27.950-04:00", "avatar": "https://avatars.slack-edge.com/2025-09-21/9539490744791_28096a61361a099c5fd2_original.png", "custom_css": null}, {"id": 3351, "slack_id": "U092BR69TUY", "display_name": "Juan Diego", "bio": null, "projects_count": 0, "devlogs_count": 0, "votes_count": 0, "ships_count": 0, "projects": [], "coding_time_seconds": 0, "coding_time_seconds_today": 0, "balance": "You need to have a pocket watcher badge to view this.", "badges": [], "created_at": "2025-06-16T18:28:36.972-04:00", "updated_at": "2025-07-03T19:26:30.777-04:00", "avatar": "https://secure.gravatar.com/avatar/175c6f85c5b11bf5c24c646cac9e239e.jpg?s=512&d=https%3A%2F%2Fa.slack-edge.com%2Fdf10d%2Fimg%2Favatars%2Fava_0021-512.png", "custom_css": null}, {"id": 3352, "slack_id": "U08S624R31U", "display_name": "TY", "bio": null, "projects_count": 0, "devlogs_count": 0, "votes_count": 0, "ships_count": 0, "projects": [], "coding_time_seconds": 0, "coding_time_seconds_today": 0, "balance": "You need to have a pocket watcher badge to view this.", "badges": [], "created_at": "2025-06-16T18:29:13.472-04:00", "updated_at": "2025-07-03T19:26:31.054-04:00", "avatar": "https://secure.gravatar.com/avatar/848f12b035223f4bfbd008d5a0459d3d.jpg?s=512&d=https%3A%2F%2Fa.slack-edge.com%2Fdf10d%2Fimg%2Favatars%2Fava_0024-512.png", "custom_css": null}, {"id": 3353, "slack_id": "U091J44ECNP", "display_name": "sarada", "bio": null, "projects_count": 0, "devlogs_count": 0, "votes_count": 0, "ships_count": 0, "projects": [], "coding_time_seconds": 0, "coding_time_seconds_today": 0, "balance": "You need to have a pocket watcher badge to view this.", "badges": [], "created_at": "2025-06-16T18:29:23.010-04:00", "updated_at": "2025-07-03T19:26:31.909-04:00", "avatar": "https://secure.gravatar.com/avatar/55e3e517b2061647ecf5bf4074eb11bb.jpg?s=512&d=https%3A%2F%2Fa.slack-edge.com%2Fdf10d%2Fimg%2Favatars%2Fava_0017-512.png", "custom_css": null}, {"id": 3354, "slack_id": "U0923J0SG8H", "display_name": "Lucas", "bio": null, "projects_count": 1, "devlogs_count": 0, "votes_count": 0, "ships_count": 0, "projects": [{"id": 643, "title": "Learning", "devlogs_count": 0, "created_at": "2025-06-17T03:59:55.320-04:00"}], "coding_time_seconds": 20747, "coding_time_seconds_today": 0, "balance": "You need to have a pocket watcher badge to view this.", "badges": [], "created_at": "2025-06-16T18:29:44.121-04:00", "updated_at": "2025-07-03T19:26:32.187-04:00", "avatar": "https://secure.gravatar.com/avatar/e341e776d38cc0bf1dd6736837445a25.jpg?s=512&d=https%3A%2F%2Fa.slack-edge.com%2Fdf10d%2Fimg%2Favatars%2Fava_0001-512.png", "custom_css": null}, {"id": 3355, "slack_id": "U06VC8346KE", "display_name": "Andrew D", "bio": null, "projects_count": 0, "devlogs_count": 0, "votes_count": 0, "ships_count": 0, "projects": [], "coding_time_seconds": 8003, "coding_time_seconds_today": 0, "balance": "You need to have a pocket watcher badge to view this.", "badges": [], "created_at": "2025-06-16T18:29:45.776-04:00", "updated_at": "2025-07-03T19:26:32.456-04:00", "avatar": "https://avatars.slack-edge.com/2024-08-19/7582049552151_c8a66857f13d8c968106_original.png", "custom_css": null}, {"id": 3356, "slack_id": "U091RC94FEY", "display_name": "Achintya Akula", "bio": null, "projects_count": 0, "devlogs_count": 0, "votes_count": 0, "ships_count": 0, "projects": [], "coding_time_seconds": 0, "coding_time_seconds_today": 0, "balance": "You need to have a pocket watcher badge to view this.", "badges": [], "created_at": "2025-06-16T18:29:51.303-04:00", "updated_at": "2025-07-03T19:26:32.724-04:00", "avatar": "https://secure.gravatar.com/avatar/3be75b2f827630839cfbceecd09e668b.jpg?s=512&d=https%3A%2F%2Fa.slack-edge.com%2Fdf10d%2Fimg%2Favatars%2Fava_0011-512.png", "custom_css": null}, {"id": 3357, "slack_id": "U092DEP8Z40", "display_name": "Constance", "bio": null, "projects_count": 0, "devlogs_count": 0, "votes_count": 0, "ships_count": 0, "projects": [], "coding_time_seconds": 0, "coding_time_seconds_today": 0, "balance": "You need to have a pocket watcher badge to view this.", "badges": [], "created_at": "2025-06-16T18:29:52.001-04:00", "updated_at": "2025-07-03T19:26:32.985-04:00", "avatar": "https://secure.gravatar.com/avatar/a727ed287f4ac595885a9a7ce077dc21.jpg?s=512&d=https%3A%2F%2Fa.slack-edge.com%2Fdf10d%2Fimg%2Favatars%2Fava_0009-512.png", "custom_css": null}, {"id": 3358, "slack_id": "U091J7SHBAA", "display_name": "Nils", "bio": null, "projects_count": 6, "devlogs_count": 62, "votes_count": 140, "ships_count": 5, "projects": [{"id": 1056, "title": "jpackageTUI", "devlogs_count": 12, "created_at": "2025-06-17T14:42:04.688-04:00"}, {"id": 4992, "title": "ConnTest", "devlogs_count": 10, "created_at": "2025-07-02T14:58:45.174-04:00"}, {"id": 7074, "title": "Explorer", "devlogs_count": 15, "created_at": "2025-07-18T18:18:43.119-04:00"}, {"id": 13126, "title": "Spooky Tomb", "devlogs_count": 11, "created_at": "2025-09-09T07:19:00.106-04:00"}, {"id": 2193, "title": "TrustScanner", "devlogs_count": 3, "created_at": "2025-06-20T11:57:45.268-04:00"}, {"id": 5632, "title": "DJ Controller", "devlogs_count": 11, "created_at": "2025-07-06T18:41:46.707-04:00"}], "coding_time_seconds": 426889, "coding_time_seconds_today": 0, "balance": "You need to have a pocket watcher badge to view this.", "badges": [{"name": "Maiden Voyage", "text": "you shipped your first project! the journey begins...", "icon": "\ud83d\udea2"}, {"name": "Ballot Stuffer", "text": "vote 100 times.", "icon": "https://summer.hackclub.com/assets/i_voted-bf851b48.png"}], "created_at": "2025-06-16T18:30:00.565-04:00", "updated_at": "2025-09-10T22:52:49.661-04:00", "avatar": "https://avatars.slack-edge.com/2025-08-03/9297906894340_43f0bcb28a6eeac7ece0_original.png", "custom_css": null}, {"id": 3359, "slack_id": "U091R23H5MG", "display_name": "Aanya", "bio": null, "projects_count": 0, "devlogs_count": 0, "votes_count": 0, "ships_count": 0, "projects": [], "coding_time_seconds": 0, "coding_time_seconds_today": 0, "balance": "You need to have a pocket watcher badge to view this.", "badges": [], "created_at": "2025-06-16T18:30:10.066-04:00", "updated_at": "2025-07-03T19:26:33.529-04:00", "avatar": "https://secure.gravatar.com/avatar/46416c17e08a50644e7f2acd61c92856.jpg?s=512&d=https%3A%2F%2Fa.slack-edge.com%2Fdf10d%2Fimg%2Favatars%2Fava_0017-512.png", "custom_css": null}, {"id": 3360, "slack_id": "U091J46A98T", "display_name": "phill king", "bio": null, "projects_count": 0, "devlogs_count": 0, "votes_count": 0, "ships_count": 0, "projects": [], "coding_time_seconds": 0, "coding_time_seconds_today": 0, "balance": "You need to have a pocket watcher badge to view this.", "badges": [], "created_at": "2025-06-16T18:30:28.667-04:00", "updated_at": "2025-07-03T19:26:33.797-04:00", "avatar": "https://avatars.slack-edge.com/2025-06-16/9057295553605_ec9a5dc162e6a7865746_original.jpg", "custom_css": null}], "pagination": {"page": 168, "pages": 1192, "count": 23828, "items": 20}}