{"users": [{"id": 3361, "slack_id": "U091P87TC4D", "display_name": "maksales", "bio": null, "projects_count": 1, "devlogs_count": 4, "votes_count": 2, "ships_count": 0, "projects": [{"id": 2880, "title": "Cryap", "devlogs_count": 4, "created_at": "2025-06-22T10:37:31.169-04:00"}], "coding_time_seconds": 73925, "coding_time_seconds_today": 0, "balance": "You need to have a pocket watcher badge to view this.", "badges": [], "created_at": "2025-06-16T18:30:39.051-04:00", "updated_at": "2025-08-11T15:19:11.721-04:00", "avatar": "https://secure.gravatar.com/avatar/2f81aa3d96d7adf3a5018ee81bce1e1f.jpg?s=512&d=https%3A%2F%2Fa.slack-edge.com%2Fdf10d%2Fimg%2Favatars%2Fava_0026-512.png", "custom_css": null}, {"id": 3362, "slack_id": "U091P7TTTPX", "display_name": "Anonymous Person", "bio": null, "projects_count": 0, "devlogs_count": 0, "votes_count": 0, "ships_count": 0, "projects": [], "coding_time_seconds": 5093, "coding_time_seconds_today": 0, "balance": "You need to have a pocket watcher badge to view this.", "badges": [], "created_at": "2025-06-16T18:30:39.138-04:00", "updated_at": "2025-08-06T20:13:35.637-04:00", "avatar": "https://avatars.slack-edge.com/2025-08-06/9339303459936_ccedf103797af80f5900_original.png", "custom_css": null}, {"id": 3363, "slack_id": "U091R18AN0J", "display_name": "Harshaa Anand", "bio": null, "projects_count": 0, "devlogs_count": 0, "votes_count": 0, "ships_count": 0, "projects": [], "coding_time_seconds": 0, "coding_time_seconds_today": 0, "balance": "You need to have a pocket watcher badge to view this.", "badges": [], "created_at": "2025-06-16T18:30:45.304-04:00", "updated_at": "2025-07-03T19:26:34.599-04:00", "avatar": "https://avatars.slack-edge.com/2025-06-16/9081514658896_bbe65d31e15027b3b063_original.jpg", "custom_css": null}, {"id": 3364, "slack_id": "U08S2J8CG9Z", "display_name": "Hudson Mitchell-Pullman", "bio": null, "projects_count": 2, "devlogs_count": 6, "votes_count": 34, "ships_count": 1, "projects": [{"id": 12689, "title": "School lesson planner", "devlogs_count": 1, "created_at": "2025-08-31T22:09:26.846-04:00"}, {"id": 7977, "title": "PHHS Events", "devlogs_count": 5, "created_at": "2025-07-23T22:38:45.020-04:00"}], "coding_time_seconds": 119615, "coding_time_seconds_today": 0, "balance": "You need to have a pocket watcher badge to view this.", "badges": [{"name": "Maiden Voyage", "text": "you shipped your first project! the journey begins...", "icon": "\ud83d\udea2"}], "created_at": "2025-06-16T18:30:58.864-04:00", "updated_at": "2025-09-10T22:52:49.817-04:00", "avatar": "https://secure.gravatar.com/avatar/2c69ae02f38e0e94dc23fa30ec3d6652.jpg?s=512&d=https%3A%2F%2Fa.slack-edge.com%2Fdf10d%2Fimg%2Favatars%2Fava_0007-512.png", "custom_css": null}, {"id": 3365, "slack_id": "U08NKQZ3BK2", "display_name": "Kavin", "bio": null, "projects_count": 0, "devlogs_count": 0, "votes_count": 0, "ships_count": 0, "projects": [], "coding_time_seconds": 0, "coding_time_seconds_today": 0, "balance": "You need to have a pocket watcher badge to view this.", "badges": [], "created_at": "2025-06-16T18:31:03.344-04:00", "updated_at": "2025-07-03T19:26:35.125-04:00", "avatar": "https://avatars.slack-edge.com/2025-04-12/8749956732674_206b69c4fee53306100d_original.jpg", "custom_css": null}, {"id": 3366, "slack_id": "U07UFARF884", "display_name": "James", "bio": null, "projects_count": 0, "devlogs_count": 0, "votes_count": 0, "ships_count": 0, "projects": [], "coding_time_seconds": 0, "coding_time_seconds_today": 0, "balance": "You need to have a pocket watcher badge to view this.", "badges": [], "created_at": "2025-06-16T18:31:29.997-04:00", "updated_at": "2025-07-03T19:26:35.379-04:00", "avatar": "https://avatars.slack-edge.com/2025-03-09/8558954000519_44a0a842318cbf84f7f6_original.jpg", "custom_css": null}, {"id": 3367, "slack_id": "U091P8D4PS9", "display_name": "jmh0989", "bio": null, "projects_count": 1, "devlogs_count": 0, "votes_count": 0, "ships_count": 0, "projects": [{"id": 458, "title": "Calculated risk", "devlogs_count": 0, "created_at": "2025-06-16T22:17:18.464-04:00"}], "coding_time_seconds": 472, "coding_time_seconds_today": 0, "balance": "You need to have a pocket watcher badge to view this.", "badges": [], "created_at": "2025-06-16T18:31:30.793-04:00", "updated_at": "2025-07-03T19:26:35.644-04:00", "avatar": "https://secure.gravatar.com/avatar/1615aebceca7a21b5e9980bfe9aca980.jpg?s=512&d=https%3A%2F%2Fa.slack-edge.com%2Fdf10d%2Fimg%2Favatars%2Fava_0026-512.png", "custom_css": null}, {"id": 3368, "slack_id": "U091R29LTA6", "display_name": "NL", "bio": null, "projects_count": 0, "devlogs_count": 0, "votes_count": 0, "ships_count": 0, "projects": [], "coding_time_seconds": 0, "coding_time_seconds_today": 0, "balance": "You need to have a pocket watcher badge to view this.", "badges": [], "created_at": "2025-06-16T18:31:32.866-04:00", "updated_at": "2025-07-03T19:26:35.911-04:00", "avatar": "https://secure.gravatar.com/avatar/1a30093b242dbfe6de1fd8dd85ae4712.jpg?s=512&d=https%3A%2F%2Fa.slack-edge.com%2Fdf10d%2Fimg%2Favatars%2Fava_0000-512.png", "custom_css": null}, {"id": 3369, "slack_id": "U0923A5J917", "display_name": "Sukhraj Sandhar", "bio": null, "projects_count": 0, "devlogs_count": 0, "votes_count": 0, "ships_count": 0, "projects": [], "coding_time_seconds": 0, "coding_time_seconds_today": 0, "balance": "You need to have a pocket watcher badge to view this.", "badges": [], "created_at": "2025-06-16T18:31:51.992-04:00", "updated_at": "2025-07-03T19:26:36.177-04:00", "avatar": "https://avatars.slack-edge.com/2025-06-16/9052160502995_2a57e2dc908c98ac0de8_original.png", "custom_css": null}, {"id": 3370, "slack_id": "U091RC57W9J", "display_name": "allison", "bio": null, "projects_count": 0, "devlogs_count": 0, "votes_count": 0, "ships_count": 0, "projects": [], "coding_time_seconds": 0, "coding_time_seconds_today": 0, "balance": "You need to have a pocket watcher badge to view this.", "badges": [], "created_at": "2025-06-16T18:31:54.664-04:00", "updated_at": "2025-07-03T19:26:36.451-04:00", "avatar": "https://secure.gravatar.com/avatar/c5ebe356fb4cc14a7c63aa7bf163c384.jpg?s=512&d=https%3A%2F%2Fa.slack-edge.com%2Fdf10d%2Fimg%2Favatars%2Fava_0025-512.png", "custom_css": null}, {"id": 3371, "slack_id": "U08Q50DVD8R", "display_name": "Yassine Moustarziq", "bio": null, "projects_count": 2, "devlogs_count": 8, "votes_count": 39, "ships_count": 2, "projects": [{"id": 11425, "title": "GravityBallWebsite", "devlogs_count": 1, "created_at": "2025-08-15T20:19:33.348-04:00"}, {"id": 400, "title": "GravityBall (mobile game)", "devlogs_count": 7, "created_at": "2025-06-16T20:17:16.349-04:00"}], "coding_time_seconds": 59159, "coding_time_seconds_today": 0, "balance": "You need to have a pocket watcher badge to view this.", "badges": [{"name": "Maiden Voyage", "text": "you shipped your first project! the journey begins...", "icon": "\ud83d\udea2"}], "created_at": "2025-06-16T18:31:54.883-04:00", "updated_at": "2025-09-10T22:52:50.005-04:00", "avatar": "https://secure.gravatar.com/avatar/984097f6dd9f30b0f30d530ffdb8ff22.jpg?s=512&d=https%3A%2F%2Fa.slack-edge.com%2Fdf10d%2Fimg%2Favatars%2Fava_0000-512.png", "custom_css": null}, {"id": 3372, "slack_id": "U091J208NMR", "display_name": "Faiz Ramadhan", "bio": null, "projects_count": 0, "devlogs_count": 0, "votes_count": 0, "ships_count": 0, "projects": [], "coding_time_seconds": 52938, "coding_time_seconds_today": 0, "balance": "You need to have a pocket watcher badge to view this.", "badges": [], "created_at": "2025-06-16T18:32:12.759-04:00", "updated_at": "2025-07-03T19:26:36.978-04:00", "avatar": "https://avatars.slack-edge.com/2025-06-16/9059437648932_37e3b22431c4842d4305_original.jpg", "custom_css": null}, {"id": 3373, "slack_id": "U08S7U1881W", "display_name": "Asher Kadet", "bio": null, "projects_count": 0, "devlogs_count": 0, "votes_count": 0, "ships_count": 0, "projects": [], "coding_time_seconds": 21107, "coding_time_seconds_today": 0, "balance": "You need to have a pocket watcher badge to view this.", "badges": [], "created_at": "2025-06-16T18:32:41.991-04:00", "updated_at": "2025-07-03T19:26:37.248-04:00", "avatar": "https://avatars.slack-edge.com/2025-05-15/8893783374723_c44b8ebab389663544e1_original.png", "custom_css": null}, {"id": 3374, "slack_id": "U063B2ELNDQ", "display_name": "joanna", "bio": null, "projects_count": 2, "devlogs_count": 3, "votes_count": 0, "ships_count": 0, "projects": [{"id": 4246, "title": "Portfolio Website", "devlogs_count": 2, "created_at": "2025-06-28T12:38:16.764-04:00"}, {"id": 4326, "title": "blipyboard", "devlogs_count": 1, "created_at": "2025-06-29T00:38:20.073-04:00"}], "coding_time_seconds": 54141, "coding_time_seconds_today": 0, "balance": "You need to have a pocket watcher badge to view this.", "badges": [], "created_at": "2025-06-16T18:32:52.943-04:00", "updated_at": "2025-07-03T19:26:37.509-04:00", "avatar": "https://avatars.slack-edge.com/2024-08-10/7570561653649_35c449b2671c01053434_original.jpg", "custom_css": null}, {"id": 3375, "slack_id": "U091R2G73MY", "display_name": "Sujay Suribhotla", "bio": null, "projects_count": 0, "devlogs_count": 0, "votes_count": 0, "ships_count": 0, "projects": [], "coding_time_seconds": 0, "coding_time_seconds_today": 0, "balance": "You need to have a pocket watcher badge to view this.", "badges": [], "created_at": "2025-06-16T18:33:18.199-04:00", "updated_at": "2025-07-03T19:26:37.775-04:00", "avatar": "https://avatars.slack-edge.com/2025-06-16/9057306311893_9d9abc1c9718365df623_original.png", "custom_css": null}, {"id": 3376, "slack_id": "U07HB6P11ED", "display_name": "Armaan", "bio": null, "projects_count": 0, "devlogs_count": 0, "votes_count": 0, "ships_count": 0, "projects": [], "coding_time_seconds": 0, "coding_time_seconds_today": 0, "balance": "You need to have a pocket watcher badge to view this.", "badges": [], "created_at": "2025-06-16T18:33:28.203-04:00", "updated_at": "2025-07-03T19:26:38.033-04:00", "avatar": "https://avatars.slack-edge.com/2025-05-08/8867620753397_5355b86114b2bce0b207_original.png", "custom_css": null}, {"id": 3377, "slack_id": "U08TU92QGHM", "display_name": "Alex", "bio": null, "projects_count": 1, "devlogs_count": 9, "votes_count": 14, "ships_count": 1, "projects": [{"id": 466, "title": "StudyMe", "devlogs_count": 9, "created_at": "2025-06-16T22:28:23.685-04:00"}], "coding_time_seconds": 47050, "coding_time_seconds_today": 0, "balance": "You need to have a pocket watcher badge to view this.", "badges": [{"name": "Maiden Voyage", "text": "you shipped your first project! the journey begins...", "icon": "\ud83d\udea2"}], "created_at": "2025-06-16T18:33:30.185-04:00", "updated_at": "2025-09-10T22:52:50.200-04:00", "avatar": "https://avatars.slack-edge.com/2025-05-27/8962590078676_07bb770f5192c1409c4e_original.png", "custom_css": null}, {"id": 3378, "slack_id": "U091RCR2MHA", "display_name": "Angie Espinoza", "bio": null, "projects_count": 0, "devlogs_count": 0, "votes_count": 0, "ships_count": 0, "projects": [], "coding_time_seconds": 0, "coding_time_seconds_today": 0, "balance": "You need to have a pocket watcher badge to view this.", "badges": [], "created_at": "2025-06-16T18:33:34.572-04:00", "updated_at": "2025-07-03T19:26:38.572-04:00", "avatar": "https://avatars.slack-edge.com/2025-06-16/9052289690358_6892ad96daee27dc3b24_original.png", "custom_css": null}, {"id": 3379, "slack_id": "U091R29S68J", "display_name": "Kenshu Dieguez", "bio": null, "projects_count": 0, "devlogs_count": 0, "votes_count": 0, "ships_count": 0, "projects": [], "coding_time_seconds": 0, "coding_time_seconds_today": 0, "balance": "You need to have a pocket watcher badge to view this.", "badges": [], "created_at": "2025-06-16T18:33:48.748-04:00", "updated_at": "2025-07-03T19:26:38.840-04:00", "avatar": "https://secure.gravatar.com/avatar/6746d3618b0400476165f5808830983b.jpg?s=512&d=https%3A%2F%2Fa.slack-edge.com%2Fdf10d%2Fimg%2Favatars%2Fava_0019-512.png", "custom_css": null}, {"id": 3380, "slack_id": "U0923JEF601", "display_name": "Jorge", "bio": null, "projects_count": 0, "devlogs_count": 0, "votes_count": 0, "ships_count": 0, "projects": [], "coding_time_seconds": 0, "coding_time_seconds_today": 0, "balance": "You need to have a pocket watcher badge to view this.", "badges": [], "created_at": "2025-06-16T18:33:55.715-04:00", "updated_at": "2025-07-03T19:26:39.205-04:00", "avatar": "https://secure.gravatar.com/avatar/c7ca7884d7bb1088ab18fabdc01f7f09.jpg?s=512&d=https%3A%2F%2Fa.slack-edge.com%2Fdf10d%2Fimg%2Favatars%2Fava_0004-512.png", "custom_css": null}], "pagination": {"page": 169, "pages": 1192, "count": 23828, "items": 20}}