{"users": [{"id": 321, "slack_id": "U092B4EKD96", "display_name": "yuita", "bio": null, "projects_count": 0, "devlogs_count": 0, "votes_count": 0, "ships_count": 0, "projects": [], "coding_time_seconds": 0, "coding_time_seconds_today": 0, "balance": "You need to have a pocket watcher badge to view this.", "badges": [], "created_at": "2025-06-16T10:50:43.360-04:00", "updated_at": "2025-07-03T19:12:27.606-04:00", "avatar": "https://secure.gravatar.com/avatar/e5f4891894cece9eb0f071cacacc745d.jpg?s=512&d=https%3A%2F%2Fa.slack-edge.com%2Fdf10d%2Fimg%2Favatars%2Fava_0026-512.png", "custom_css": null}, {"id": 322, "slack_id": "U07DHR6J57U", "display_name": "Gigi Cat", "bio": null, "projects_count": 3, "devlogs_count": 18, "votes_count": 19, "ships_count": 1, "projects": [{"id": 10000, "title": "Gigi's Banking Tools", "devlogs_count": 1, "created_at": "2025-08-03T11:29:05.051-04:00"}, {"id": 13309, "title": "ClassChartsAndroid", "devlogs_count": 4, "created_at": "2025-09-13T17:49:30.336-04:00"}, {"id": 9999, "title": "Fitbit Slack Integration", "devlogs_count": 13, "created_at": "2025-08-03T11:25:29.072-04:00"}], "coding_time_seconds": 167327, "coding_time_seconds_today": 0, "balance": "You need to have a pocket watcher badge to view this.", "badges": [{"name": "Maiden Voyage", "text": "you shipped your first project! the journey begins...", "icon": "\ud83d\udea2"}], "created_at": "2025-06-16T10:50:53.157-04:00", "updated_at": "2025-09-10T22:51:16.933-04:00", "avatar": "https://avatars.slack-edge.com/2025-03-01/8526076344294_43df1c10852833a3552f_original.png", "custom_css": null}, {"id": 323, "slack_id": "U078DJR6YJZ", "display_name": "Lorenzo", "bio": null, "projects_count": 2, "devlogs_count": 1, "votes_count": 0, "ships_count": 0, "projects": [{"id": 182, "title": "NextTravel Rewrite", "devlogs_count": 0, "created_at": "2025-06-16T15:06:24.296-04:00"}, {"id": 4776, "title": "WakaProxy", "devlogs_count": 1, "created_at": "2025-07-01T12:58:53.988-04:00"}], "coding_time_seconds": 741126, "coding_time_seconds_today": 0, "balance": "You need to have a pocket watcher badge to view this.", "badges": [], "created_at": "2025-06-16T10:50:58.873-04:00", "updated_at": "2025-08-11T15:46:19.862-04:00", "avatar": "https://avatars.slack-edge.com/2024-12-15/8162102487847_ea2d0bb8a70690d9e65f_original.png", "custom_css": null}, {"id": 324, "slack_id": "U091NKGUD8A", "display_name": "Prasoon Asati", "bio": null, "projects_count": 0, "devlogs_count": 0, "votes_count": 0, "ships_count": 0, "projects": [], "coding_time_seconds": 0, "coding_time_seconds_today": 0, "balance": "You need to have a pocket watcher badge to view this.", "badges": [], "created_at": "2025-06-16T10:51:20.361-04:00", "updated_at": "2025-07-03T19:12:28.404-04:00", "avatar": "https://avatars.slack-edge.com/2025-06-16/9069273545601_b11535f930d1d5a84743_original.jpg", "custom_css": null}, {"id": 325, "slack_id": "U07UVDG2SQ2", "display_name": "mashoor", "bio": "\r\nhttps://incognitotgt.me", "projects_count": 2, "devlogs_count": 9, "votes_count": 41, "ships_count": 2, "projects": [{"id": 3314, "title": "Schoology Frontend", "devlogs_count": 3, "created_at": "2025-06-23T19:32:34.258-04:00"}, {"id": 8820, "title": "Stardust", "devlogs_count": 4, "created_at": "2025-07-29T11:22:23.942-04:00"}], "coding_time_seconds": 393756, "coding_time_seconds_today": 0, "balance": "You need to have a pocket watcher badge to view this.", "badges": [{"name": "Maiden Voyage", "text": "you shipped your first project! the journey begins...", "icon": "\ud83d\udea2"}], "created_at": "2025-06-16T10:52:19.490-04:00", "updated_at": "2025-09-10T22:51:17.092-04:00", "avatar": "https://avatars.slack-edge.com/2025-08-17/9390906930272_a1ed18de53f53a64a354_original.png", "custom_css": null}, {"id": 326, "slack_id": "U078L1ETM6E", "display_name": "Barxilly", "bio": "I'm English, I'm awesome, I'm gayyyyy", "projects_count": 11, "devlogs_count": 57, "votes_count": 152, "ships_count": 6, "projects": [{"id": 435, "title": "RevisedLM", "devlogs_count": 0, "created_at": "2025-06-16T21:22:13.009-04:00"}, {"id": 915, "title": "Tech Personality Quiz 2", "devlogs_count": 6, "created_at": "2025-06-17T11:06:20.647-04:00"}, {"id": 3003, "title": "BenJSfood", "devlogs_count": 4, "created_at": "2025-06-22T17:50:09.316-04:00"}, {"id": 6034, "title": "QwkSpd", "devlogs_count": 18, "created_at": "2025-07-10T05:50:29.970-04:00"}, {"id": 10650, "title": "PortfolioRank", "devlogs_count": 1, "created_at": "2025-08-09T09:51:51.703-04:00"}, {"id": 12223, "title": "What X For Me", "devlogs_count": 3, "created_at": "2025-08-24T13:52:59.651-04:00"}, {"id": 12474, "title": "BarxYTDL", "devlogs_count": 1, "created_at": "2025-08-28T04:57:42.319-04:00"}, {"id": 12712, "title": "Refine", "devlogs_count": 6, "created_at": "2025-09-01T09:19:49.080-04:00"}, {"id": 11589, "title": "BenJS", "devlogs_count": 7, "created_at": "2025-08-17T10:21:11.807-04:00"}, {"id": 5630, "title": "BenJS Journal Web App", "devlogs_count": 7, "created_at": "2025-07-06T17:43:50.711-04:00"}, {"id": 4403, "title": "Open WebUI macOS Wrapper", "devlogs_count": 4, "created_at": "2025-06-29T16:19:55.648-04:00"}], "coding_time_seconds": 247797, "coding_time_seconds_today": 0, "balance": "You need to have a pocket watcher badge to view this.", "badges": [{"name": "Maiden Voyage", "text": "you shipped your first project! the journey begins...", "icon": "\ud83d\udea2"}, {"name": "Ballot Stuffer", "text": "vote 100 times.", "icon": "https://summer.hackclub.com/assets/i_voted-bf851b48.png"}], "created_at": "2025-06-16T10:53:15.304-04:00", "updated_at": "2025-09-13T10:23:57.895-04:00", "avatar": "https://avatars.slack-edge.com/2025-08-21/9391551413542_a00763d92690cef9061a_original.jpg", "custom_css": null}, {"id": 327, "slack_id": "U091FM29DH9", "display_name": "Darkoyd", "bio": null, "projects_count": 0, "devlogs_count": 0, "votes_count": 0, "ships_count": 0, "projects": [], "coding_time_seconds": 0, "coding_time_seconds_today": 0, "balance": "You need to have a pocket watcher badge to view this.", "badges": [], "created_at": "2025-06-16T10:55:22.920-04:00", "updated_at": "2025-07-03T19:12:29.213-04:00", "avatar": "https://avatars.slack-edge.com/2025-06-16/9056717705666_63b57ef47e7991e3cee0_original.jpg", "custom_css": null}, {"id": 328, "slack_id": "U091FPX7LK0", "display_name": "PeterAshraf", "bio": null, "projects_count": 0, "devlogs_count": 0, "votes_count": 0, "ships_count": 0, "projects": [], "coding_time_seconds": 0, "coding_time_seconds_today": 0, "balance": "You need to have a pocket watcher badge to view this.", "badges": [], "created_at": "2025-06-16T10:55:42.376-04:00", "updated_at": "2025-07-03T19:12:29.498-04:00", "avatar": "https://secure.gravatar.com/avatar/caba8bb368762505fcf2b896d98bb5f9.jpg?s=512&d=https%3A%2F%2Fa.slack-edge.com%2Fdf10d%2Fimg%2Favatars%2Fava_0013-512.png", "custom_css": null}, {"id": 329, "slack_id": "U0826R42R98", "display_name": "JovannMC", "bio": "dumb idiot on the internet that codes random stuff, does content creation, and exist. i work on many projects including SlimeVR, SlimeTora, and VERT.sh!", "projects_count": 2, "devlogs_count": 16, "votes_count": 40, "ships_count": 2, "projects": [{"id": 4786, "title": "Haritora Firmware Site", "devlogs_count": 4, "created_at": "2025-07-01T13:53:55.202-04:00"}, {"id": 8245, "title": "VERT.sh", "devlogs_count": 12, "created_at": "2025-07-25T16:06:22.937-04:00"}], "coding_time_seconds": 576899, "coding_time_seconds_today": 0, "balance": "You need to have a pocket watcher badge to view this.", "badges": [{"name": "Maiden Voyage", "text": "you shipped your first project! the journey begins...", "icon": "\ud83d\udea2"}], "created_at": "2025-06-16T10:57:25.988-04:00", "updated_at": "2025-09-10T22:51:17.205-04:00", "avatar": "https://avatars.slack-edge.com/2025-07-29/9266381785030_5f75d5d88b9b3487ff44_original.png", "custom_css": null}, {"id": 330, "slack_id": "U0917C6PWS3", "display_name": "Jheanlucas Damaceno Dias", "bio": null, "projects_count": 0, "devlogs_count": 0, "votes_count": 0, "ships_count": 0, "projects": [], "coding_time_seconds": 0, "coding_time_seconds_today": 0, "balance": "You need to have a pocket watcher badge to view this.", "badges": [], "created_at": "2025-06-16T10:57:59.553-04:00", "updated_at": "2025-07-03T19:12:30.045-04:00", "avatar": "https://secure.gravatar.com/avatar/3fb911039566aaac06af9942520fe3bd.jpg?s=512&d=https%3A%2F%2Fa.slack-edge.com%2Fdf10d%2Fimg%2Favatars%2Fava_0025-512.png", "custom_css": null}, {"id": 331, "slack_id": "U091NM2MKUJ", "display_name": "Isaac", "bio": null, "projects_count": 0, "devlogs_count": 0, "votes_count": 0, "ships_count": 0, "projects": [], "coding_time_seconds": 0, "coding_time_seconds_today": 0, "balance": "You need to have a pocket watcher badge to view this.", "badges": [], "created_at": "2025-06-16T10:58:27.340-04:00", "updated_at": "2025-07-03T19:12:30.321-04:00", "avatar": "https://secure.gravatar.com/avatar/d67373e93154b4869450a33a64503882.jpg?s=512&d=https%3A%2F%2Fa.slack-edge.com%2Fdf10d%2Fimg%2Favatars%2Fava_0002-512.png", "custom_css": null}, {"id": 332, "slack_id": "U07KT0H77EZ", "display_name": "Cloudy", "bio": null, "projects_count": 1, "devlogs_count": 1, "votes_count": 0, "ships_count": 0, "projects": [{"id": 1903, "title": "luma.io", "devlogs_count": 1, "created_at": "2025-06-19T15:10:06.677-04:00"}], "coding_time_seconds": 61348, "coding_time_seconds_today": 0, "balance": "You need to have a pocket watcher badge to view this.", "badges": [], "created_at": "2025-06-16T10:58:56.831-04:00", "updated_at": "2025-08-08T09:04:04.262-04:00", "avatar": "https://avatars.slack-edge.com/2024-09-04/7698738390352_c2bb54afd5dc0f55581f_original.png", "custom_css": null}, {"id": 333, "slack_id": "U091FNKTFS7", "display_name": "Aathil Felix", "bio": null, "projects_count": 8, "devlogs_count": 33, "votes_count": 140, "ships_count": 5, "projects": [{"id": 9930, "title": "Telegram Weather Bot", "devlogs_count": 3, "created_at": "2025-08-03T00:58:28.286-04:00"}, {"id": 9959, "title": "Study AI Bot", "devlogs_count": 5, "created_at": "2025-08-03T06:50:38.215-04:00"}, {"id": 11138, "title": "AI Meme Generator", "devlogs_count": 1, "created_at": "2025-08-13T12:27:48.397-04:00"}, {"id": 12263, "title": "AI Prompt Engineering Toolkit", "devlogs_count": 8, "created_at": "2025-08-25T03:44:27.686-04:00"}, {"id": 12357, "title": "Pomodoro Web", "devlogs_count": 2, "created_at": "2025-08-26T06:52:54.962-04:00"}, {"id": 13322, "title": "Scholarclip-Atlas", "devlogs_count": 2, "created_at": "2025-09-14T01:27:05.936-04:00"}, {"id": 12610, "title": "read-it-now", "devlogs_count": 10, "created_at": "2025-08-30T12:02:24.321-04:00"}, {"id": 3680, "title": "FSWD Learning", "devlogs_count": 2, "created_at": "2025-06-25T07:27:32.145-04:00"}], "coding_time_seconds": 156682, "coding_time_seconds_today": 0, "balance": "You need to have a pocket watcher badge to view this.", "badges": [{"name": "Maiden Voyage", "text": "you shipped your first project! the journey begins...", "icon": "\ud83d\udea2"}, {"name": "Ballot Stuffer", "text": "vote 100 times.", "icon": "https://summer.hackclub.com/assets/i_voted-bf851b48.png"}], "created_at": "2025-06-16T11:01:14.537-04:00", "updated_at": "2025-09-10T22:51:17.285-04:00", "avatar": "https://secure.gravatar.com/avatar/b5451cecd143d4d9544b0d04cf668b27.jpg?s=512&d=https%3A%2F%2Fa.slack-edge.com%2Fdf10d%2Fimg%2Favatars%2Fava_0015-512.png", "custom_css": null}, {"id": 334, "slack_id": "U091FRRV8G6", "display_name": "Vachaspathi Gnaneswar Garlapati", "bio": null, "projects_count": 0, "devlogs_count": 0, "votes_count": 0, "ships_count": 0, "projects": [], "coding_time_seconds": 13634, "coding_time_seconds_today": 0, "balance": "You need to have a pocket watcher badge to view this.", "badges": [], "created_at": "2025-06-16T11:02:03.015-04:00", "updated_at": "2025-07-03T19:12:31.147-04:00", "avatar": "https://avatars.slack-edge.com/2025-06-16/9049790797779_d34423f2d1f0c77f0272_original.png", "custom_css": null}, {"id": 335, "slack_id": "U091FS1DULE", "display_name": "Tuan Nguyen Duc", "bio": null, "projects_count": 0, "devlogs_count": 0, "votes_count": 0, "ships_count": 0, "projects": [], "coding_time_seconds": 0, "coding_time_seconds_today": 0, "balance": "You need to have a pocket watcher badge to view this.", "badges": [], "created_at": "2025-06-16T11:03:32.706-04:00", "updated_at": "2025-07-03T19:12:31.422-04:00", "avatar": "https://secure.gravatar.com/avatar/2ddd88c49bb023daf1a94692877f7fdf.jpg?s=512&d=https%3A%2F%2Fa.slack-edge.com%2Fdf10d%2Fimg%2Favatars%2Fava_0003-512.png", "custom_css": null}, {"id": 336, "slack_id": "U0921ADPSBB", "display_name": "Nadwey", "bio": null, "projects_count": 0, "devlogs_count": 0, "votes_count": 0, "ships_count": 0, "projects": [], "coding_time_seconds": 0, "coding_time_seconds_today": 0, "balance": "You need to have a pocket watcher badge to view this.", "badges": [], "created_at": "2025-06-16T11:04:25.250-04:00", "updated_at": "2025-07-03T19:12:31.704-04:00", "avatar": "https://avatars.slack-edge.com/2025-06-16/9079277763264_357c8e38138608328a13_original.png", "custom_css": null}, {"id": 337, "slack_id": "U0917DEJ3FH", "display_name": "nosime", "bio": null, "projects_count": 0, "devlogs_count": 0, "votes_count": 0, "ships_count": 0, "projects": [], "coding_time_seconds": 0, "coding_time_seconds_today": 0, "balance": "You need to have a pocket watcher badge to view this.", "badges": [], "created_at": "2025-06-16T11:04:34.003-04:00", "updated_at": "2025-07-03T19:12:31.975-04:00", "avatar": "https://secure.gravatar.com/avatar/ac61a374e35c0e228cc167ac3aa31bf6.jpg?s=512&d=https%3A%2F%2Fa.slack-edge.com%2Fdf10d%2Fimg%2Favatars%2Fava_0008-512.png", "custom_css": null}, {"id": 338, "slack_id": "U091FPAPX0T", "display_name": "Rugved", "bio": null, "projects_count": 0, "devlogs_count": 0, "votes_count": 0, "ships_count": 0, "projects": [], "coding_time_seconds": 341, "coding_time_seconds_today": 0, "balance": "You need to have a pocket watcher badge to view this.", "badges": [], "created_at": "2025-06-16T11:04:44.874-04:00", "updated_at": "2025-07-03T19:12:32.252-04:00", "avatar": "https://secure.gravatar.com/avatar/cd5e38bcec8b49dcd41ff8f9b83a77b9.jpg?s=512&d=https%3A%2F%2Fa.slack-edge.com%2Fdf10d%2Fimg%2Favatars%2Fava_0003-512.png", "custom_css": null}, {"id": 339, "slack_id": "U091M03E05T", "display_name": "Ederson Lucas", "bio": null, "projects_count": 0, "devlogs_count": 0, "votes_count": 0, "ships_count": 0, "projects": [], "coding_time_seconds": 0, "coding_time_seconds_today": 0, "balance": "You need to have a pocket watcher badge to view this.", "badges": [], "created_at": "2025-06-16T11:04:50.161-04:00", "updated_at": "2025-07-03T19:12:32.587-04:00", "avatar": "https://secure.gravatar.com/avatar/d77ca138f422d5fbccb587e49d28c36e.jpg?s=512&d=https%3A%2F%2Fa.slack-edge.com%2Fdf10d%2Fimg%2Favatars%2Fava_0025-512.png", "custom_css": null}, {"id": 340, "slack_id": "U079SNC1PFF", "display_name": "Arnav", "bio": null, "projects_count": 6, "devlogs_count": 10, "votes_count": 75, "ships_count": 5, "projects": [{"id": 3378, "title": "Annova X75 Firmware", "devlogs_count": 1, "created_at": "2025-06-24T03:04:35.328-04:00"}, {"id": 4984, "title": "Dir Launcher", "devlogs_count": 3, "created_at": "2025-07-02T14:28:45.534-04:00"}, {"id": 2814, "title": "Annova X75 Website", "devlogs_count": 2, "created_at": "2025-06-22T06:07:47.839-04:00"}, {"id": 12543, "title": "Hackatime VR Client", "devlogs_count": 1, "created_at": "2025-08-29T07:52:59.467-04:00"}, {"id": 5623, "title": "The Dot - A canvas animated hangman with story telling", "devlogs_count": 1, "created_at": "2025-07-06T16:37:13.537-04:00"}, {"id": 11088, "title": "Wordle Draw", "devlogs_count": 2, "created_at": "2025-08-13T05:51:22.950-04:00"}], "coding_time_seconds": 439032, "coding_time_seconds_today": 0, "balance": "You need to have a pocket watcher badge to view this.", "badges": [{"name": "Maiden Voyage", "text": "you shipped your first project! the journey begins...", "icon": "\ud83d\udea2"}], "created_at": "2025-06-16T11:04:55.422-04:00", "updated_at": "2025-09-10T22:51:17.473-04:00", "avatar": "https://secure.gravatar.com/avatar/b59e3f65e367f1f55d6e3f1591916e63.jpg?s=512&d=https%3A%2F%2Fa.slack-edge.com%2Fdf10d%2Fimg%2Favatars%2Fava_0015-512.png", "custom_css": null}], "pagination": {"page": 17, "pages": 1192, "count": 23827, "items": 20}}