{"users": [{"id": 3381, "slack_id": "U091J8CRYBG", "display_name": "Srinithi Mohan", "bio": null, "projects_count": 0, "devlogs_count": 0, "votes_count": 0, "ships_count": 0, "projects": [], "coding_time_seconds": 11844, "coding_time_seconds_today": 0, "balance": "You need to have a pocket watcher badge to view this.", "badges": [], "created_at": "2025-06-16T18:34:17.747-04:00", "updated_at": "2025-07-03T19:26:39.622-04:00", "avatar": "https://avatars.slack-edge.com/2025-06-16/9043765432151_f51b2285f4ea610f6517_original.png", "custom_css": null}, {"id": 3382, "slack_id": "U091RCRF292", "display_name": "Jonathan Yu", "bio": null, "projects_count": 0, "devlogs_count": 0, "votes_count": 0, "ships_count": 0, "projects": [], "coding_time_seconds": 0, "coding_time_seconds_today": 0, "balance": "You need to have a pocket watcher badge to view this.", "badges": [], "created_at": "2025-06-16T18:34:28.920-04:00", "updated_at": "2025-07-03T19:26:39.905-04:00", "avatar": "https://secure.gravatar.com/avatar/c7a2c8ee03228c10b295462cf3cff14d.jpg?s=512&d=https%3A%2F%2Fa.slack-edge.com%2Fdf10d%2Fimg%2Favatars%2Fava_0010-512.png", "custom_css": null}, {"id": 3383, "slack_id": "U091J4NCH3M", "display_name": "Gordon", "bio": null, "projects_count": 0, "devlogs_count": 0, "votes_count": 0, "ships_count": 0, "projects": [], "coding_time_seconds": 0, "coding_time_seconds_today": 0, "balance": "You need to have a pocket watcher badge to view this.", "badges": [], "created_at": "2025-06-16T18:34:42.068-04:00", "updated_at": "2025-07-03T19:26:40.163-04:00", "avatar": "https://secure.gravatar.com/avatar/64e06c8fd392b214b27714182e9d7922.jpg?s=512&d=https%3A%2F%2Fa.slack-edge.com%2Fdf10d%2Fimg%2Favatars%2Fava_0008-512.png", "custom_css": null}, {"id": 3384, "slack_id": "U092DF7CDQQ", "display_name": "bhavi", "bio": null, "projects_count": 0, "devlogs_count": 0, "votes_count": 0, "ships_count": 0, "projects": [], "coding_time_seconds": 0, "coding_time_seconds_today": 0, "balance": "You need to have a pocket watcher badge to view this.", "badges": [], "created_at": "2025-06-16T18:34:51.564-04:00", "updated_at": "2025-07-03T19:26:40.440-04:00", "avatar": "https://secure.gravatar.com/avatar/4b18af1d3174259e7c424f4cd40d1490.jpg?s=512&d=https%3A%2F%2Fa.slack-edge.com%2Fdf10d%2Fimg%2Favatars%2Fava_0019-512.png", "custom_css": null}, {"id": 3385, "slack_id": "U0919N8EVRV", "display_name": "Fauzan Ghazi", "bio": null, "projects_count": 0, "devlogs_count": 0, "votes_count": 0, "ships_count": 0, "projects": [], "coding_time_seconds": 0, "coding_time_seconds_today": 0, "balance": "You need to have a pocket watcher badge to view this.", "badges": [], "created_at": "2025-06-16T18:34:52.104-04:00", "updated_at": "2025-07-03T19:26:40.710-04:00", "avatar": "https://secure.gravatar.com/avatar/98d9fc5339017fd83fe6bb2715cfa8c2.jpg?s=512&d=https%3A%2F%2Fa.slack-edge.com%2Fdf10d%2Fimg%2Favatars%2Fava_0007-512.png", "custom_css": null}, {"id": 3386, "slack_id": "U091J4LG0LT", "display_name": "Malek Labidi", "bio": null, "projects_count": 0, "devlogs_count": 0, "votes_count": 0, "ships_count": 0, "projects": [], "coding_time_seconds": 0, "coding_time_seconds_today": 0, "balance": "You need to have a pocket watcher badge to view this.", "badges": [], "created_at": "2025-06-16T18:34:56.197-04:00", "updated_at": "2025-07-03T19:26:41.074-04:00", "avatar": "https://avatars.slack-edge.com/2025-06-16/9052292237894_9fa8dc5c34add3e62759_original.png", "custom_css": null}, {"id": 3387, "slack_id": "U07A928DDJQ", "display_name": "Dhyan99", "bio": null, "projects_count": 1, "devlogs_count": 1, "votes_count": 1, "ships_count": 0, "projects": [{"id": 7207, "title": "Schedule Printer", "devlogs_count": 1, "created_at": "2025-07-19T23:41:08.918-04:00"}], "coding_time_seconds": 63728, "coding_time_seconds_today": 0, "balance": "You need to have a pocket watcher badge to view this.", "badges": [], "created_at": "2025-06-16T18:34:59.658-04:00", "updated_at": "2025-09-11T08:13:45.237-04:00", "avatar": "https://avatars.slack-edge.com/2025-09-11/9500076469046_d938ed36d285021a6404_original.jpg", "custom_css": null}, {"id": 3388, "slack_id": "U090PEWF117", "display_name": "EEEYeSeong", "bio": null, "projects_count": 0, "devlogs_count": 0, "votes_count": 0, "ships_count": 0, "projects": [], "coding_time_seconds": 0, "coding_time_seconds_today": 0, "balance": "You need to have a pocket watcher badge to view this.", "badges": [], "created_at": "2025-06-16T18:35:08.852-04:00", "updated_at": "2025-07-03T19:26:41.656-04:00", "avatar": "https://avatars.slack-edge.com/2025-06-06/9004782879606_49822a4564e721214d06_original.jpg", "custom_css": null}, {"id": 3389, "slack_id": "U081VJKBNBS", "display_name": "Duro", "bio": null, "projects_count": 2, "devlogs_count": 2, "votes_count": 19, "ships_count": 2, "projects": [{"id": 2004, "title": "Crony", "devlogs_count": 1, "created_at": "2025-06-19T21:45:08.713-04:00"}, {"id": 6529, "title": "pkgder", "devlogs_count": 1, "created_at": "2025-07-14T02:26:22.434-04:00"}], "coding_time_seconds": 454400, "coding_time_seconds_today": 2688, "balance": "You need to have a pocket watcher badge to view this.", "badges": [{"name": "Maiden Voyage", "text": "you shipped your first project! the journey begins...", "icon": "\ud83d\udea2"}], "created_at": "2025-06-16T18:35:16.436-04:00", "updated_at": "2025-09-10T22:52:50.748-04:00", "avatar": "https://avatars.slack-edge.com/2024-11-23/8068925861766_8fb212c1e6113f014b1e_original.jpg", "custom_css": null}, {"id": 3390, "slack_id": "U092DF6GPPA", "display_name": "Parra", "bio": null, "projects_count": 0, "devlogs_count": 0, "votes_count": 0, "ships_count": 0, "projects": [], "coding_time_seconds": 0, "coding_time_seconds_today": 0, "balance": "You need to have a pocket watcher badge to view this.", "badges": [], "created_at": "2025-06-16T18:35:29.388-04:00", "updated_at": "2025-07-03T19:26:42.185-04:00", "avatar": "https://secure.gravatar.com/avatar/b42b89fc1c28b873da443e2cb127fa58.jpg?s=512&d=https%3A%2F%2Fa.slack-edge.com%2Fdf10d%2Fimg%2Favatars%2Fava_0009-512.png", "custom_css": null}, {"id": 3391, "slack_id": "U091R2PTCF4", "display_name": "KaneryU", "bio": null, "projects_count": 0, "devlogs_count": 0, "votes_count": 0, "ships_count": 0, "projects": [], "coding_time_seconds": 0, "coding_time_seconds_today": 0, "balance": "You need to have a pocket watcher badge to view this.", "badges": [], "created_at": "2025-06-16T18:35:37.735-04:00", "updated_at": "2025-07-03T19:26:42.449-04:00", "avatar": "https://avatars.slack-edge.com/2025-06-16/9081530455600_a546a8f5cd2baaf0c873_original.png", "custom_css": null}, {"id": 3392, "slack_id": "U091R2RK0BU", "display_name": "Adithya Alex", "bio": null, "projects_count": 0, "devlogs_count": 0, "votes_count": 0, "ships_count": 0, "projects": [], "coding_time_seconds": 0, "coding_time_seconds_today": 0, "balance": "You need to have a pocket watcher badge to view this.", "badges": [], "created_at": "2025-06-16T18:35:39.000-04:00", "updated_at": "2025-07-03T19:26:42.715-04:00", "avatar": "https://secure.gravatar.com/avatar/68701b526b4c01b574c06d27c75f9c79.jpg?s=512&d=https%3A%2F%2Fa.slack-edge.com%2Fdf10d%2Fimg%2Favatars%2Fava_0022-512.png", "custom_css": null}, {"id": 3393, "slack_id": "U089RUY4EBW", "display_name": "Aryn", "bio": null, "projects_count": 0, "devlogs_count": 0, "votes_count": 0, "ships_count": 0, "projects": [], "coding_time_seconds": 11309, "coding_time_seconds_today": 0, "balance": "You need to have a pocket watcher badge to view this.", "badges": [], "created_at": "2025-06-16T18:35:48.358-04:00", "updated_at": "2025-07-03T19:26:42.974-04:00", "avatar": "https://avatars.slack-edge.com/2025-06-06/9006099194614_a284ef483b9dbdf80c9e_original.jpg", "custom_css": null}, {"id": 3394, "slack_id": "U08R4Q00E90", "display_name": "Adam Essemaali", "bio": null, "projects_count": 0, "devlogs_count": 0, "votes_count": 0, "ships_count": 0, "projects": [], "coding_time_seconds": 0, "coding_time_seconds_today": 0, "balance": "You need to have a pocket watcher badge to view this.", "badges": [], "created_at": "2025-06-16T18:36:27.509-04:00", "updated_at": "2025-07-03T19:26:43.231-04:00", "avatar": "https://avatars.slack-edge.com/2025-05-13/8873661549959_d0641a7e66e7bc483fe9_original.png", "custom_css": null}, {"id": 3395, "slack_id": "U091J8H4NR4", "display_name": "Luke", "bio": null, "projects_count": 0, "devlogs_count": 0, "votes_count": 0, "ships_count": 0, "projects": [], "coding_time_seconds": 0, "coding_time_seconds_today": 0, "balance": "You need to have a pocket watcher badge to view this.", "badges": [], "created_at": "2025-06-16T18:36:36.257-04:00", "updated_at": "2025-07-03T19:26:43.513-04:00", "avatar": "https://secure.gravatar.com/avatar/2a68bee531357e2bba56d2fc557f2504.jpg?s=512&d=https%3A%2F%2Fa.slack-edge.com%2Fdf10d%2Fimg%2Favatars%2Fava_0013-512.png", "custom_css": null}, {"id": 3396, "slack_id": "U091J4WECHH", "display_name": "Aditi Datla", "bio": null, "projects_count": 0, "devlogs_count": 0, "votes_count": 0, "ships_count": 0, "projects": [], "coding_time_seconds": 0, "coding_time_seconds_today": 0, "balance": "You need to have a pocket watcher badge to view this.", "badges": [], "created_at": "2025-06-16T18:36:51.090-04:00", "updated_at": "2025-07-03T19:26:43.779-04:00", "avatar": "https://secure.gravatar.com/avatar/aba5e2b40773aeda8fd9fc4847c8a995.jpg?s=512&d=https%3A%2F%2Fa.slack-edge.com%2Fdf10d%2Fimg%2Favatars%2Fava_0003-512.png", "custom_css": null}, {"id": 3397, "slack_id": "U091J4U8RPV", "display_name": "Tanvir Rahman", "bio": null, "projects_count": 0, "devlogs_count": 0, "votes_count": 0, "ships_count": 0, "projects": [], "coding_time_seconds": 68924, "coding_time_seconds_today": 0, "balance": "You need to have a pocket watcher badge to view this.", "badges": [], "created_at": "2025-06-16T18:37:03.905-04:00", "updated_at": "2025-07-03T19:26:44.047-04:00", "avatar": "https://avatars.slack-edge.com/2025-06-17/9043780538551_5f0fed87b190ae89ac82_original.png", "custom_css": null}, {"id": 3398, "slack_id": "U08KK4VTS93", "display_name": "Alexander Jameson", "bio": null, "projects_count": 0, "devlogs_count": 0, "votes_count": 0, "ships_count": 0, "projects": [], "coding_time_seconds": 0, "coding_time_seconds_today": 0, "balance": "You need to have a pocket watcher badge to view this.", "badges": [], "created_at": "2025-06-16T18:37:18.148-04:00", "updated_at": "2025-07-03T19:26:44.306-04:00", "avatar": "https://secure.gravatar.com/avatar/124fb3798452ce56e5b8691b666f167c.jpg?s=512&d=https%3A%2F%2Fa.slack-edge.com%2Fdf10d%2Fimg%2Favatars%2Fava_0011-512.png", "custom_css": null}, {"id": 3399, "slack_id": "U057F3JE951", "display_name": "Alice", "bio": null, "projects_count": 1, "devlogs_count": 1, "votes_count": 0, "ships_count": 0, "projects": [{"id": 3347, "title": "Explorer Mini Game", "devlogs_count": 1, "created_at": "2025-06-23T23:14:18.340-04:00"}], "coding_time_seconds": 7104, "coding_time_seconds_today": 0, "balance": "You need to have a pocket watcher badge to view this.", "badges": [], "created_at": "2025-06-16T18:37:30.297-04:00", "updated_at": "2025-07-03T19:26:44.703-04:00", "avatar": "https://avatars.slack-edge.com/2023-05-13/5262835364068_a3d7286f57fea1bdda3a_original.png", "custom_css": null}, {"id": 3400, "slack_id": "U091N70AK1B", "display_name": "Matheus Dantas", "bio": null, "projects_count": 0, "devlogs_count": 0, "votes_count": 0, "ships_count": 0, "projects": [], "coding_time_seconds": 0, "coding_time_seconds_today": 0, "balance": "You need to have a pocket watcher badge to view this.", "badges": [], "created_at": "2025-06-16T18:38:29.048-04:00", "updated_at": "2025-07-03T19:26:44.957-04:00", "avatar": "https://avatars.slack-edge.com/2025-06-16/9081538079104_0c4bc80feb5c4b7358fa_original.jpg", "custom_css": null}], "pagination": {"page": 170, "pages": 1192, "count": 23828, "items": 20}}