{"users": [{"id": 3401, "slack_id": "U092DFEVBDW", "display_name": "Nassim", "bio": null, "projects_count": 0, "devlogs_count": 0, "votes_count": 0, "ships_count": 0, "projects": [], "coding_time_seconds": 0, "coding_time_seconds_today": 0, "balance": "You need to have a pocket watcher badge to view this.", "badges": [], "created_at": "2025-06-16T18:38:31.260-04:00", "updated_at": "2025-09-02T13:13:20.060-04:00", "avatar": "https://secure.gravatar.com/avatar/0db52f1ebd3060560e3b273501dc293e.jpg?s=512&d=https%3A%2F%2Fa.slack-edge.com%2Fdf10d%2Fimg%2Favatars%2Fava_0011-512.png", "custom_css": null}, {"id": 3402, "slack_id": "U08261FLK2M", "display_name": "elslie", "bio": "", "projects_count": 1, "devlogs_count": 1, "votes_count": 21, "ships_count": 1, "projects": [{"id": 9909, "title": "Personal Website", "devlogs_count": 1, "created_at": "2025-08-02T20:39:46.292-04:00"}], "coding_time_seconds": 3786, "coding_time_seconds_today": 0, "balance": "You need to have a pocket watcher badge to view this.", "badges": [{"name": "Maiden Voyage", "text": "you shipped your first project! the journey begins...", "icon": "\ud83d\udea2"}], "created_at": "2025-06-16T18:38:43.387-04:00", "updated_at": "2025-09-10T22:52:51.101-04:00", "avatar": "https://secure.gravatar.com/avatar/d82cae78106ea74c08ef18b7e35ccb6c.jpg?s=512&d=https%3A%2F%2Fa.slack-edge.com%2Fdf10d%2Fimg%2Favatars%2Fava_0005-512.png", "custom_css": null}, {"id": 3403, "slack_id": "U091R2YMRMY", "display_name": "Sol", "bio": null, "projects_count": 0, "devlogs_count": 0, "votes_count": 0, "ships_count": 0, "projects": [], "coding_time_seconds": 0, "coding_time_seconds_today": 0, "balance": "You need to have a pocket watcher badge to view this.", "badges": [], "created_at": "2025-06-16T18:39:20.824-04:00", "updated_at": "2025-07-03T19:26:45.775-04:00", "avatar": "https://secure.gravatar.com/avatar/cbab5639da89bdf645671e24335f4852.jpg?s=512&d=https%3A%2F%2Fa.slack-edge.com%2Fdf10d%2Fimg%2Favatars%2Fava_0000-512.png", "custom_css": null}, {"id": 3404, "slack_id": "U091J8QLA6A", "display_name": "Rian Butala", "bio": null, "projects_count": 0, "devlogs_count": 0, "votes_count": 0, "ships_count": 0, "projects": [], "coding_time_seconds": 0, "coding_time_seconds_today": 0, "balance": "You need to have a pocket watcher badge to view this.", "badges": [], "created_at": "2025-06-16T18:39:44.427-04:00", "updated_at": "2025-07-03T19:26:46.033-04:00", "avatar": "https://avatars.slack-edge.com/2025-06-16/9052184478355_cd9419477e634bb0bcaa_original.png", "custom_css": null}, {"id": 3405, "slack_id": "U07BUPELXR6", "display_name": "njfdev", "bio": "I am a high-schooler who has been programming for almost 10 years, and loves to make hardware projects!\n\nFavorite programming language: Rust\nFavorite food: Tacos", "projects_count": 2, "devlogs_count": 18, "votes_count": 15, "ships_count": 1, "projects": [{"id": 12165, "title": "NJF's Personal Webpage", "devlogs_count": 2, "created_at": "2025-08-23T21:59:02.766-04:00"}, {"id": 1496, "title": "TacoCopter", "devlogs_count": 16, "created_at": "2025-06-18T16:29:20.209-04:00"}], "coding_time_seconds": 331058, "coding_time_seconds_today": 0, "balance": "You need to have a pocket watcher badge to view this.", "badges": [{"name": "Maiden Voyage", "text": "you shipped your first project! the journey begins...", "icon": "\ud83d\udea2"}], "created_at": "2025-06-16T18:39:58.449-04:00", "updated_at": "2025-09-10T22:52:51.181-04:00", "avatar": "https://secure.gravatar.com/avatar/345cc8e84ccd5959d3ded78f67c66f66.jpg?s=512&d=https%3A%2F%2Fa.slack-edge.com%2Fdf10d%2Fimg%2Favatars%2Fava_0001-512.png", "custom_css": null}, {"id": 3406, "slack_id": "U078JCFHQ3D", "display_name": "lola", "bio": null, "projects_count": 2, "devlogs_count": 7, "votes_count": 18, "ships_count": 1, "projects": [{"id": 4806, "title": "journalcli", "devlogs_count": 6, "created_at": "2025-07-01T16:29:21.441-04:00"}, {"id": 13414, "title": "Ntwatch", "devlogs_count": 1, "created_at": "2025-09-15T19:36:53.092-04:00"}], "coding_time_seconds": 282081, "coding_time_seconds_today": 0, "balance": "You need to have a pocket watcher badge to view this.", "badges": [{"name": "Maiden Voyage", "text": "you shipped your first project! the journey begins...", "icon": "\ud83d\udea2"}], "created_at": "2025-06-16T18:40:02.181-04:00", "updated_at": "2025-09-10T22:52:51.210-04:00", "avatar": "https://avatars.slack-edge.com/2024-06-17/7275981792935_eca522202f5399effb19_original.jpg", "custom_css": null}, {"id": 3407, "slack_id": "U091P99EJ9K", "display_name": "Gustavo Louren\u00e7o da Silva", "bio": null, "projects_count": 0, "devlogs_count": 0, "votes_count": 0, "ships_count": 0, "projects": [], "coding_time_seconds": 0, "coding_time_seconds_today": 0, "balance": "You need to have a pocket watcher badge to view this.", "badges": [], "created_at": "2025-06-16T18:40:04.062-04:00", "updated_at": "2025-07-03T19:26:46.841-04:00", "avatar": "https://avatars.slack-edge.com/2025-06-16/9059126521010_49e4240e11daf0bad7dc_original.png", "custom_css": null}, {"id": 3408, "slack_id": "U092DFR4ZEC", "display_name": "Max Resch", "bio": null, "projects_count": 0, "devlogs_count": 0, "votes_count": 0, "ships_count": 0, "projects": [], "coding_time_seconds": 0, "coding_time_seconds_today": 0, "balance": "You need to have a pocket watcher badge to view this.", "badges": [], "created_at": "2025-06-16T18:40:38.228-04:00", "updated_at": "2025-07-03T19:26:47.111-04:00", "avatar": "https://avatars.slack-edge.com/2025-06-16/9057327671285_7283289e4680e85738ad_original.png", "custom_css": null}, {"id": 3409, "slack_id": "U0923K4VCGH", "display_name": "Orion", "bio": null, "projects_count": 0, "devlogs_count": 0, "votes_count": 0, "ships_count": 0, "projects": [], "coding_time_seconds": 0, "coding_time_seconds_today": 0, "balance": "You need to have a pocket watcher badge to view this.", "badges": [], "created_at": "2025-06-16T18:40:46.190-04:00", "updated_at": "2025-07-03T19:26:47.373-04:00", "avatar": "https://secure.gravatar.com/avatar/33f9de85d6e4e5ae27ef90cfd83f083e.jpg?s=512&d=https%3A%2F%2Fa.slack-edge.com%2Fdf10d%2Fimg%2Favatars%2Fava_0020-512.png", "custom_css": null}, {"id": 3410, "slack_id": "U091R2KK9PU", "display_name": "Dishant B", "bio": null, "projects_count": 0, "devlogs_count": 0, "votes_count": 0, "ships_count": 0, "projects": [], "coding_time_seconds": 0, "coding_time_seconds_today": 0, "balance": "You need to have a pocket watcher badge to view this.", "badges": [], "created_at": "2025-06-16T18:40:58.761-04:00", "updated_at": "2025-07-03T19:26:47.660-04:00", "avatar": "https://avatars.slack-edge.com/2025-06-16/9059461971076_7194dc699e64c0d26c2b_original.png", "custom_css": null}, {"id": 3411, "slack_id": "U07RMG2DPQC", "display_name": "afia ava", "bio": null, "projects_count": 0, "devlogs_count": 0, "votes_count": 0, "ships_count": 0, "projects": [], "coding_time_seconds": 469534, "coding_time_seconds_today": 0, "balance": "You need to have a pocket watcher badge to view this.", "badges": [], "created_at": "2025-06-16T18:41:59.653-04:00", "updated_at": "2025-07-04T08:18:26.210-04:00", "avatar": "https://avatars.slack-edge.com/2025-07-03/9134579874007_2dfd34dbc11c98c1e91d_original.png", "custom_css": null}, {"id": 3412, "slack_id": "U0860D8SPPC", "display_name": "Sharaf Hossain", "bio": null, "projects_count": 0, "devlogs_count": 0, "votes_count": 0, "ships_count": 0, "projects": [], "coding_time_seconds": 0, "coding_time_seconds_today": 0, "balance": "You need to have a pocket watcher badge to view this.", "badges": [], "created_at": "2025-06-16T18:42:04.523-04:00", "updated_at": "2025-07-03T19:26:48.189-04:00", "avatar": "https://secure.gravatar.com/avatar/33ed8beef7a4a7788d41e4d61d3edc60.jpg?s=512&d=https%3A%2F%2Fa.slack-edge.com%2Fdf10d%2Fimg%2Favatars%2Fava_0000-512.png", "custom_css": null}, {"id": 3413, "slack_id": "U0919NTF4S3", "display_name": "Harry Haghany", "bio": null, "projects_count": 0, "devlogs_count": 0, "votes_count": 0, "ships_count": 0, "projects": [], "coding_time_seconds": 0, "coding_time_seconds_today": 0, "balance": "You need to have a pocket watcher badge to view this.", "badges": [], "created_at": "2025-06-16T18:42:05.153-04:00", "updated_at": "2025-07-03T19:26:48.459-04:00", "avatar": "https://avatars.slack-edge.com/2025-06-16/9057331707973_9f41098e25953967a591_original.jpg", "custom_css": null}, {"id": 3414, "slack_id": "U091J52JEAX", "display_name": "Daniel Klepenko", "bio": null, "projects_count": 0, "devlogs_count": 0, "votes_count": 0, "ships_count": 0, "projects": [], "coding_time_seconds": 268604, "coding_time_seconds_today": 0, "balance": "You need to have a pocket watcher badge to view this.", "badges": [], "created_at": "2025-06-16T18:43:01.482-04:00", "updated_at": "2025-07-03T19:26:48.724-04:00", "avatar": "https://secure.gravatar.com/avatar/d8c63c174c338cc2a5f8dd6ff0f48623.jpg?s=512&d=https%3A%2F%2Fa.slack-edge.com%2Fdf10d%2Fimg%2Favatars%2Fava_0025-512.png", "custom_css": null}, {"id": 3415, "slack_id": "U0923K94M17", "display_name": "Arnav Kavoori", "bio": null, "projects_count": 0, "devlogs_count": 0, "votes_count": 0, "ships_count": 0, "projects": [], "coding_time_seconds": 0, "coding_time_seconds_today": 0, "balance": "You need to have a pocket watcher badge to view this.", "badges": [], "created_at": "2025-06-16T18:43:05.037-04:00", "updated_at": "2025-07-03T19:26:48.984-04:00", "avatar": "https://avatars.slack-edge.com/2025-06-16/9059468399332_cc3e36de271bdd005fb7_original.png", "custom_css": null}, {"id": 3416, "slack_id": "U092DFCGK24", "display_name": "Jordan Chang", "bio": null, "projects_count": 0, "devlogs_count": 0, "votes_count": 0, "ships_count": 0, "projects": [], "coding_time_seconds": 0, "coding_time_seconds_today": 0, "balance": "You need to have a pocket watcher badge to view this.", "badges": [], "created_at": "2025-06-16T18:43:09.211-04:00", "updated_at": "2025-07-03T19:26:49.259-04:00", "avatar": "https://avatars.slack-edge.com/2025-06-16/9059468978900_99aecfaa743cae320feb_original.png", "custom_css": null}, {"id": 3417, "slack_id": "U091J5DJTHR", "display_name": "Hanks", "bio": null, "projects_count": 0, "devlogs_count": 0, "votes_count": 0, "ships_count": 0, "projects": [], "coding_time_seconds": 0, "coding_time_seconds_today": 0, "balance": "You need to have a pocket watcher badge to view this.", "badges": [], "created_at": "2025-06-16T18:43:09.780-04:00", "updated_at": "2025-07-03T19:26:49.518-04:00", "avatar": "https://secure.gravatar.com/avatar/a386a1259ee643beea4632611ff0b8f8.jpg?s=512&d=https%3A%2F%2Fa.slack-edge.com%2Fdf10d%2Fimg%2Favatars%2Fava_0000-512.png", "custom_css": null}, {"id": 3418, "slack_id": "U091P90DDT7", "display_name": "SC", "bio": null, "projects_count": 1, "devlogs_count": 1, "votes_count": 12, "ships_count": 1, "projects": [{"id": 4596, "title": "Website for the hackathon I'm hosting", "devlogs_count": 1, "created_at": "2025-06-30T20:14:00.190-04:00"}], "coding_time_seconds": 84245, "coding_time_seconds_today": 0, "balance": "You need to have a pocket watcher badge to view this.", "badges": [{"name": "Maiden Voyage", "text": "you shipped your first project! the journey begins...", "icon": "\ud83d\udea2"}], "created_at": "2025-06-16T18:43:11.530-04:00", "updated_at": "2025-09-10T22:52:51.492-04:00", "avatar": "https://secure.gravatar.com/avatar/f820b37c71072e2f824ddcdfcfc541a7.jpg?s=512&d=https%3A%2F%2Fa.slack-edge.com%2Fdf10d%2Fimg%2Favatars%2Fava_0003-512.png", "custom_css": null}, {"id": 3419, "slack_id": "U08RD789KPY", "display_name": "Kobe", "bio": null, "projects_count": 0, "devlogs_count": 0, "votes_count": 0, "ships_count": 0, "projects": [], "coding_time_seconds": 1300385, "coding_time_seconds_today": 0, "balance": "You need to have a pocket watcher badge to view this.", "badges": [], "created_at": "2025-06-16T18:43:36.982-04:00", "updated_at": "2025-08-03T17:13:40.670-04:00", "avatar": "https://avatars.slack-edge.com/2025-05-08/8871607071058_de65c4c4cbc6cb5b6ff4_original.png", "custom_css": null}, {"id": 3420, "slack_id": "U071JHBEJ7R", "display_name": "hex4", "bio": null, "projects_count": 2, "devlogs_count": 9, "votes_count": 20, "ships_count": 1, "projects": [{"id": 12671, "title": "hexOS", "devlogs_count": 5, "created_at": "2025-08-31T12:00:06.902-04:00"}, {"id": 9167, "title": "Circuits", "devlogs_count": 4, "created_at": "2025-07-30T20:33:00.120-04:00"}], "coding_time_seconds": 244392, "coding_time_seconds_today": 0, "balance": "You need to have a pocket watcher badge to view this.", "badges": [{"name": "Maiden Voyage", "text": "you shipped your first project! the journey begins...", "icon": "\ud83d\udea2"}], "created_at": "2025-06-16T18:43:42.865-04:00", "updated_at": "2025-09-10T22:52:51.541-04:00", "avatar": "https://avatars.slack-edge.com/2025-05-31/8967251696583_ccc2d594b26e9944a7a2_original.png", "custom_css": null}], "pagination": {"page": 171, "pages": 1192, "count": 23828, "items": 20}}