{"users": [{"id": 3421, "slack_id": "U07AKRABB32", "display_name": "yakov", "bio": null, "projects_count": 0, "devlogs_count": 0, "votes_count": 0, "ships_count": 0, "projects": [], "coding_time_seconds": 0, "coding_time_seconds_today": 0, "balance": "You need to have a pocket watcher badge to view this.", "badges": [], "created_at": "2025-06-16T18:43:53.938-04:00", "updated_at": "2025-07-03T19:26:50.582-04:00", "avatar": "https://secure.gravatar.com/avatar/8ea6dc993378d69b4df3355387f27b88.jpg?s=512&d=https%3A%2F%2Fa.slack-edge.com%2Fdf10d%2Fimg%2Favatars%2Fava_0003-512.png", "custom_css": null}, {"id": 3422, "slack_id": "U091J92CBM4", "display_name": "Charles Finklestein", "bio": null, "projects_count": 0, "devlogs_count": 0, "votes_count": 0, "ships_count": 0, "projects": [], "coding_time_seconds": 10030, "coding_time_seconds_today": 0, "balance": "You need to have a pocket watcher badge to view this.", "badges": [], "created_at": "2025-06-16T18:44:15.075-04:00", "updated_at": "2025-07-03T19:26:50.929-04:00", "avatar": "https://secure.gravatar.com/avatar/591f847868b113f84e8952ad45ce8d96.jpg?s=512&d=https%3A%2F%2Fa.slack-edge.com%2Fdf10d%2Fimg%2Favatars%2Fava_0003-512.png", "custom_css": null}, {"id": 3423, "slack_id": "U08E2DG5UMN", "display_name": "Dmytro", "bio": null, "projects_count": 0, "devlogs_count": 0, "votes_count": 0, "ships_count": 0, "projects": [], "coding_time_seconds": 0, "coding_time_seconds_today": 0, "balance": "You need to have a pocket watcher badge to view this.", "badges": [], "created_at": "2025-06-16T18:44:38.210-04:00", "updated_at": "2025-07-03T19:26:51.211-04:00", "avatar": "https://avatars.slack-edge.com/2025-02-14/8448987822566_0881fa2830e63360494b_original.jpg", "custom_css": null}, {"id": 3424, "slack_id": "U085SFSR0NT", "display_name": "Amaya", "bio": null, "projects_count": 1, "devlogs_count": 3, "votes_count": 0, "ships_count": 0, "projects": [{"id": 6372, "title": "StaffCLI", "devlogs_count": 3, "created_at": "2025-07-12T18:57:14.380-04:00"}], "coding_time_seconds": 54560, "coding_time_seconds_today": 0, "balance": "You need to have a pocket watcher badge to view this.", "badges": [], "created_at": "2025-06-16T18:44:45.377-04:00", "updated_at": "2025-07-13T13:23:00.483-04:00", "avatar": "https://avatars.slack-edge.com/2025-02-04/8424708125856_4f6376353b639da0f852_original.jpg", "custom_css": null}, {"id": 3425, "slack_id": "U08UEMAF7E3", "display_name": "Allan", "bio": null, "projects_count": 0, "devlogs_count": 0, "votes_count": 2, "ships_count": 0, "projects": [], "coding_time_seconds": 30105, "coding_time_seconds_today": 0, "balance": "You need to have a pocket watcher badge to view this.", "badges": [], "created_at": "2025-06-16T18:44:59.055-04:00", "updated_at": "2025-09-05T17:11:25.069-04:00", "avatar": "https://avatars.slack-edge.com/2025-06-26/9134434704848_68d37c0bdc48f8d1d6ef_original.png", "custom_css": null}, {"id": 3426, "slack_id": "U07UH9S8RMJ", "display_name": "SG", "bio": null, "projects_count": 0, "devlogs_count": 0, "votes_count": 0, "ships_count": 0, "projects": [], "coding_time_seconds": 28142, "coding_time_seconds_today": 0, "balance": "You need to have a pocket watcher badge to view this.", "badges": [], "created_at": "2025-06-16T18:45:40.999-04:00", "updated_at": "2025-07-03T19:26:52.222-04:00", "avatar": "https://avatars.slack-edge.com/2024-11-01/7954489214615_52688cfe65d91b23c29f_original.png", "custom_css": null}, {"id": 3427, "slack_id": "U091J8GU71C", "display_name": "Lorenzo", "bio": null, "projects_count": 0, "devlogs_count": 0, "votes_count": 0, "ships_count": 0, "projects": [], "coding_time_seconds": 0, "coding_time_seconds_today": 0, "balance": "You need to have a pocket watcher badge to view this.", "badges": [], "created_at": "2025-06-16T18:45:47.746-04:00", "updated_at": "2025-07-03T19:26:52.507-04:00", "avatar": "https://secure.gravatar.com/avatar/77f5bd5fed4783fde197f13cf891421d.jpg?s=512&d=https%3A%2F%2Fa.slack-edge.com%2Fdf10d%2Fimg%2Favatars%2Fava_0006-512.png", "custom_css": null}, {"id": 3428, "slack_id": "U091RDMUJRJ", "display_name": "toast", "bio": null, "projects_count": 0, "devlogs_count": 0, "votes_count": 0, "ships_count": 0, "projects": [], "coding_time_seconds": 127981, "coding_time_seconds_today": 2007, "balance": "You need to have a pocket watcher badge to view this.", "badges": [], "created_at": "2025-06-16T18:46:06.873-04:00", "updated_at": "2025-08-07T01:25:14.618-04:00", "avatar": "https://secure.gravatar.com/avatar/8f3b59d01d51319b1e746a679c5753fb.jpg?s=512&d=https%3A%2F%2Fa.slack-edge.com%2Fdf10d%2Fimg%2Favatars%2Fava_0002-512.png", "custom_css": null}, {"id": 3429, "slack_id": "U0798J35E0Z", "display_name": "tuesday", "bio": null, "projects_count": 0, "devlogs_count": 0, "votes_count": 0, "ships_count": 0, "projects": [], "coding_time_seconds": 0, "coding_time_seconds_today": 0, "balance": "You need to have a pocket watcher badge to view this.", "badges": [], "created_at": "2025-06-16T18:46:18.173-04:00", "updated_at": "2025-07-03T19:26:53.049-04:00", "avatar": "https://avatars.slack-edge.com/2024-07-19/7454142527380_105e74d16b3c7985b485_original.jpg", "custom_css": null}, {"id": 3430, "slack_id": "U082VKCGLCQ", "display_name": "Syam paladugu", "bio": null, "projects_count": 0, "devlogs_count": 0, "votes_count": 0, "ships_count": 0, "projects": [], "coding_time_seconds": 0, "coding_time_seconds_today": 0, "balance": "You need to have a pocket watcher badge to view this.", "badges": [], "created_at": "2025-06-16T18:47:43.177-04:00", "updated_at": "2025-07-03T19:26:53.312-04:00", "avatar": "https://avatars.slack-edge.com/2024-11-23/8077378073012_e434a9d81b411e6ae4b2_original.gif", "custom_css": null}, {"id": 3431, "slack_id": "U091P9VFGJH", "display_name": "Yansheng", "bio": null, "projects_count": 0, "devlogs_count": 0, "votes_count": 0, "ships_count": 0, "projects": [], "coding_time_seconds": 0, "coding_time_seconds_today": 0, "balance": "You need to have a pocket watcher badge to view this.", "badges": [], "created_at": "2025-06-16T18:47:51.133-04:00", "updated_at": "2025-07-03T19:26:53.581-04:00", "avatar": "https://secure.gravatar.com/avatar/ebaf0ff9956b78c17e0291c454911093.jpg?s=512&d=https%3A%2F%2Fa.slack-edge.com%2Fdf10d%2Fimg%2Favatars%2Fava_0021-512.png", "custom_css": null}, {"id": 3432, "slack_id": "U07G4PA90AC", "display_name": "Jaxx7594", "bio": null, "projects_count": 0, "devlogs_count": 0, "votes_count": 0, "ships_count": 0, "projects": [], "coding_time_seconds": 0, "coding_time_seconds_today": 0, "balance": "You need to have a pocket watcher badge to view this.", "badges": [], "created_at": "2025-06-16T18:47:51.246-04:00", "updated_at": "2025-07-03T19:26:53.849-04:00", "avatar": "https://secure.gravatar.com/avatar/de02d88b044832e92f156db2ca02836f.jpg?s=512&d=https%3A%2F%2Fa.slack-edge.com%2Fdf10d%2Fimg%2Favatars%2Fava_0010-512.png", "custom_css": null}, {"id": 3433, "slack_id": "U091J9K49PY", "display_name": "Vijay Karthikeyan", "bio": null, "projects_count": 0, "devlogs_count": 0, "votes_count": 0, "ships_count": 0, "projects": [], "coding_time_seconds": 0, "coding_time_seconds_today": 0, "balance": "You need to have a pocket watcher badge to view this.", "badges": [], "created_at": "2025-06-16T18:47:51.835-04:00", "updated_at": "2025-07-03T19:26:54.117-04:00", "avatar": "https://secure.gravatar.com/avatar/048d95b2e566a60677140b0ab8c2daf9.jpg?s=512&d=https%3A%2F%2Fa.slack-edge.com%2Fdf10d%2Fimg%2Favatars%2Fava_0014-512.png", "custom_css": null}, {"id": 3434, "slack_id": "U091J90EUNA", "display_name": "imran", "bio": null, "projects_count": 0, "devlogs_count": 0, "votes_count": 0, "ships_count": 0, "projects": [], "coding_time_seconds": 0, "coding_time_seconds_today": 0, "balance": "You need to have a pocket watcher badge to view this.", "badges": [], "created_at": "2025-06-16T18:48:31.434-04:00", "updated_at": "2025-07-03T19:26:54.390-04:00", "avatar": "https://avatars.slack-edge.com/2025-06-17/9060075229778_bb7403844cf015adb3fe_original.png", "custom_css": null}, {"id": 3435, "slack_id": "U08HF58BWUX", "display_name": "Salvador", "bio": null, "projects_count": 3, "devlogs_count": 1, "votes_count": 0, "ships_count": 0, "projects": [{"id": 11102, "title": "automatic vegetable garden", "devlogs_count": 0, "created_at": "2025-08-13T07:13:40.523-04:00"}, {"id": 13721, "title": "HACKCLUB SITE", "devlogs_count": 0, "created_at": "2025-09-23T17:03:15.988-04:00"}, {"id": 11136, "title": "Game for Jumpstart", "devlogs_count": 1, "created_at": "2025-08-13T11:58:04.528-04:00"}], "coding_time_seconds": 30380, "coding_time_seconds_today": 0, "balance": "You need to have a pocket watcher badge to view this.", "badges": [], "created_at": "2025-06-16T18:48:36.264-04:00", "updated_at": "2025-08-12T18:04:37.736-04:00", "avatar": "https://secure.gravatar.com/avatar/a6646f61ecbc5d5f6433321f4074cc32.jpg?s=512&d=https%3A%2F%2Fa.slack-edge.com%2Fdf10d%2Fimg%2Favatars%2Fava_0010-512.png", "custom_css": null}, {"id": 3436, "slack_id": "U091R3WDLH0", "display_name": "Matheus Torquato", "bio": null, "projects_count": 0, "devlogs_count": 0, "votes_count": 0, "ships_count": 0, "projects": [], "coding_time_seconds": 0, "coding_time_seconds_today": 0, "balance": "You need to have a pocket watcher badge to view this.", "badges": [], "created_at": "2025-06-16T18:48:38.520-04:00", "updated_at": "2025-07-03T19:26:54.912-04:00", "avatar": "https://secure.gravatar.com/avatar/8ca16a208a18e8809033cbc05c372c49.jpg?s=512&d=https%3A%2F%2Fa.slack-edge.com%2Fdf10d%2Fimg%2Favatars%2Fava_0014-512.png", "custom_css": null}, {"id": 3437, "slack_id": "U092DGEV78Q", "display_name": "Nicholas Sharp", "bio": null, "projects_count": 2, "devlogs_count": 66, "votes_count": 43, "ships_count": 2, "projects": [{"id": 1550, "title": "CrossCode (Build iPhone apps on Windows and Linux!)", "devlogs_count": 58, "created_at": "2025-06-18T18:09:53.388-04:00"}, {"id": 420, "title": "Portfolio - nabdev", "devlogs_count": 8, "created_at": "2025-06-16T20:58:30.724-04:00"}], "coding_time_seconds": 496309, "coding_time_seconds_today": 0, "balance": "You need to have a pocket watcher badge to view this.", "badges": [{"name": "Maiden Voyage", "text": "you shipped your first project! the journey begins...", "icon": "\ud83d\udea2"}], "created_at": "2025-06-16T18:48:43.556-04:00", "updated_at": "2025-09-10T22:52:52.037-04:00", "avatar": "https://secure.gravatar.com/avatar/c5c66be27008274401f26776c331e9d2.jpg?s=512&d=https%3A%2F%2Fa.slack-edge.com%2Fdf10d%2Fimg%2Favatars%2Fava_0020-512.png", "custom_css": null}, {"id": 3438, "slack_id": "U0923KXMGUR", "display_name": "_FN10_", "bio": "creator of bedrockR https://summer.hackclub.com/projects/703", "projects_count": 4, "devlogs_count": 71, "votes_count": 54, "ships_count": 2, "projects": [{"id": 12976, "title": "Grand Survey - Area 54 (Hotland)", "devlogs_count": 14, "created_at": "2025-09-06T12:41:58.458-04:00"}, {"id": 12206, "title": "RISK IT FOR THE BISCUITS", "devlogs_count": 8, "created_at": "2025-08-24T10:58:24.015-04:00"}, {"id": 10186, "title": "File2Img", "devlogs_count": 7, "created_at": "2025-08-04T17:50:23.595-04:00"}, {"id": 703, "title": "bedrockR: Minecraft Bedrock GUI Addon Maker", "devlogs_count": 35, "created_at": "2025-06-17T05:46:04.334-04:00"}], "coding_time_seconds": 970526, "coding_time_seconds_today": 0, "balance": "You need to have a pocket watcher badge to view this.", "badges": [{"name": "Maiden Voyage", "text": "you shipped your first project! the journey begins...", "icon": "\ud83d\udea2"}], "created_at": "2025-06-16T18:50:16.939-04:00", "updated_at": "2025-09-10T22:52:52.094-04:00", "avatar": "https://avatars.slack-edge.com/2025-08-03/9295106914389_7daba3e74ddbaf58bb1c_original.png", "custom_css": null}, {"id": 3439, "slack_id": "U091J5Z98LT", "display_name": "SupahGuy", "bio": null, "projects_count": 0, "devlogs_count": 0, "votes_count": 0, "ships_count": 0, "projects": [], "coding_time_seconds": 0, "coding_time_seconds_today": 0, "balance": "You need to have a pocket watcher badge to view this.", "badges": [], "created_at": "2025-06-16T18:50:17.773-04:00", "updated_at": "2025-07-03T19:26:55.718-04:00", "avatar": "https://avatars.slack-edge.com/2025-06-17/9059536229812_5179c984759d2c6aca1c_original.jpg", "custom_css": null}, {"id": 3440, "slack_id": "U091RDXPXS8", "display_name": "Caleb", "bio": null, "projects_count": 0, "devlogs_count": 0, "votes_count": 0, "ships_count": 0, "projects": [], "coding_time_seconds": 0, "coding_time_seconds_today": 0, "balance": "You need to have a pocket watcher badge to view this.", "badges": [], "created_at": "2025-06-16T18:50:33.180-04:00", "updated_at": "2025-07-03T19:26:55.986-04:00", "avatar": "https://secure.gravatar.com/avatar/535a2e9fe83e41351765680967dd871e.jpg?s=512&d=https%3A%2F%2Fa.slack-edge.com%2Fdf10d%2Fimg%2Favatars%2Fava_0004-512.png", "custom_css": null}], "pagination": {"page": 172, "pages": 1192, "count": 23828, "items": 20}}