{"users": [{"id": 3441, "slack_id": "U091P9YA08M", "display_name": "Keejay Kim", "bio": null, "projects_count": 0, "devlogs_count": 0, "votes_count": 0, "ships_count": 0, "projects": [], "coding_time_seconds": 356, "coding_time_seconds_today": 0, "balance": "You need to have a pocket watcher badge to view this.", "badges": [], "created_at": "2025-06-16T18:50:46.918-04:00", "updated_at": "2025-07-03T19:26:56.273-04:00", "avatar": "https://avatars.slack-edge.com/2025-06-16/9059491135572_68e3c2ae4c3a2b98d059_original.png", "custom_css": null}, {"id": 3442, "slack_id": "U091J53FVRR", "display_name": "Jamie morris", "bio": null, "projects_count": 0, "devlogs_count": 0, "votes_count": 0, "ships_count": 0, "projects": [], "coding_time_seconds": 0, "coding_time_seconds_today": 0, "balance": "You need to have a pocket watcher badge to view this.", "badges": [], "created_at": "2025-06-16T18:50:54.808-04:00", "updated_at": "2025-07-03T19:26:56.548-04:00", "avatar": "https://secure.gravatar.com/avatar/44a2a029b38032db90ae8e34959c3d8b.jpg?s=512&d=https%3A%2F%2Fa.slack-edge.com%2Fdf10d%2Fimg%2Favatars%2Fava_0010-512.png", "custom_css": null}, {"id": 3443, "slack_id": "U08T6HC6DMW", "display_name": "Arnav", "bio": null, "projects_count": 0, "devlogs_count": 0, "votes_count": 0, "ships_count": 0, "projects": [], "coding_time_seconds": 0, "coding_time_seconds_today": 0, "balance": "You need to have a pocket watcher badge to view this.", "badges": [], "created_at": "2025-06-16T18:51:17.845-04:00", "updated_at": "2025-07-03T19:26:56.944-04:00", "avatar": "https://secure.gravatar.com/avatar/d107b3514507d7b9aa3e94e8dd7b5326.jpg?s=512&d=https%3A%2F%2Fa.slack-edge.com%2Fdf10d%2Fimg%2Favatars%2Fava_0016-512.png", "custom_css": null}, {"id": 3444, "slack_id": "U07VBDH06BZ", "display_name": "Muhaba", "bio": null, "projects_count": 0, "devlogs_count": 0, "votes_count": 0, "ships_count": 0, "projects": [], "coding_time_seconds": 0, "coding_time_seconds_today": 0, "balance": "You need to have a pocket watcher badge to view this.", "badges": [], "created_at": "2025-06-16T18:51:19.530-04:00", "updated_at": "2025-07-29T16:12:19.795-04:00", "avatar": "https://avatars.slack-edge.com/2024-11-11/8012210808483_99dbf562388f8d0ce93c_original.jpg", "custom_css": null}, {"id": 3445, "slack_id": "U08DYDU17MG", "display_name": "\ubc15\uac74\ubbfc", "bio": null, "projects_count": 1, "devlogs_count": 0, "votes_count": 0, "ships_count": 0, "projects": [{"id": 1657, "title": "pokemon realstats", "devlogs_count": 0, "created_at": "2025-06-19T00:27:26.423-04:00"}], "coding_time_seconds": 38135, "coding_time_seconds_today": 1193, "balance": "You need to have a pocket watcher badge to view this.", "badges": [], "created_at": "2025-06-16T18:51:42.688-04:00", "updated_at": "2025-07-03T19:26:57.479-04:00", "avatar": "https://avatars.slack-edge.com/2025-06-18/9059880395363_f8eae2ea86c639b4cef4_original.png", "custom_css": null}, {"id": 3446, "slack_id": "U08T5TUSM18", "display_name": "Saketh Baddam", "bio": null, "projects_count": 0, "devlogs_count": 15, "votes_count": 377, "ships_count": 0, "projects": [], "coding_time_seconds": 277628, "coding_time_seconds_today": 0, "balance": "You need to have a pocket watcher badge to view this.", "badges": [{"name": "Maiden Voyage", "text": "you shipped your first project! the journey begins...", "icon": "\ud83d\udea2"}, {"name": "Ballot Stuffer", "text": "vote 100 times.", "icon": "https://summer.hackclub.com/assets/i_voted-bf851b48.png"}], "created_at": "2025-06-16T18:51:53.871-04:00", "updated_at": "2025-09-10T22:52:52.293-04:00", "avatar": "https://avatars.slack-edge.com/2025-05-19/8924976193620_ae93dcb9b534dc706506_original.png", "custom_css": null}, {"id": 3447, "slack_id": "U091J61MG6P", "display_name": "Guilherme dos Santos", "bio": null, "projects_count": 0, "devlogs_count": 0, "votes_count": 0, "ships_count": 0, "projects": [], "coding_time_seconds": 0, "coding_time_seconds_today": 0, "balance": "You need to have a pocket watcher badge to view this.", "badges": [], "created_at": "2025-06-16T18:51:55.328-04:00", "updated_at": "2025-07-03T19:26:58.295-04:00", "avatar": "https://secure.gravatar.com/avatar/b40cf0932634e3edac691a39a3b54ca1.jpg?s=512&d=https%3A%2F%2Fa.slack-edge.com%2Fdf10d%2Fimg%2Favatars%2Fava_0012-512.png", "custom_css": null}, {"id": 3448, "slack_id": "U092DGFLXCG", "display_name": "Lucas", "bio": null, "projects_count": 0, "devlogs_count": 0, "votes_count": 0, "ships_count": 0, "projects": [], "coding_time_seconds": 0, "coding_time_seconds_today": 0, "balance": "You need to have a pocket watcher badge to view this.", "badges": [], "created_at": "2025-06-16T18:52:11.816-04:00", "updated_at": "2025-07-03T19:26:58.568-04:00", "avatar": "https://secure.gravatar.com/avatar/096dd223876f244505afb0a4c38cfc57.jpg?s=512&d=https%3A%2F%2Fa.slack-edge.com%2Fdf10d%2Fimg%2Favatars%2Fava_0001-512.png", "custom_css": null}, {"id": 3449, "slack_id": "U07V3475FEC", "display_name": "Gabbs", "bio": "Ambitiuos but unlucky", "projects_count": 2, "devlogs_count": 26, "votes_count": 20, "ships_count": 1, "projects": [{"id": 13204, "title": "Pixel Browl", "devlogs_count": 3, "created_at": "2025-09-11T13:30:57.053-04:00"}, {"id": 2569, "title": "Panimator", "devlogs_count": 23, "created_at": "2025-06-21T10:50:39.773-04:00"}], "coding_time_seconds": 230275, "coding_time_seconds_today": 0, "balance": "You need to have a pocket watcher badge to view this.", "badges": [{"name": "Maiden Voyage", "text": "you shipped your first project! the journey begins...", "icon": "\ud83d\udea2"}], "created_at": "2025-06-16T18:52:16.281-04:00", "updated_at": "2025-09-13T08:54:51.052-04:00", "avatar": "https://avatars.slack-edge.com/2024-10-31/7966258796851_8ffff422dc53604f6471_original.jpg", "custom_css": null}, {"id": 3450, "slack_id": "U0923L35B4H", "display_name": "Sean E", "bio": null, "projects_count": 1, "devlogs_count": 0, "votes_count": 1, "ships_count": 0, "projects": [{"id": 5620, "title": "Shift Setup Generator", "devlogs_count": 0, "created_at": "2025-07-06T16:22:40.287-04:00"}], "coding_time_seconds": 56392, "coding_time_seconds_today": 0, "balance": "You need to have a pocket watcher badge to view this.", "badges": [], "created_at": "2025-06-16T18:52:22.776-04:00", "updated_at": "2025-07-05T23:27:42.533-04:00", "avatar": "https://secure.gravatar.com/avatar/376b73a57fe90e49828e89fa9bbb551a.jpg?s=512&d=https%3A%2F%2Fa.slack-edge.com%2Fdf10d%2Fimg%2Favatars%2Fava_0010-512.png", "custom_css": null}, {"id": 3451, "slack_id": "U08EPH9UNPL", "display_name": "Yuchan Han", "bio": null, "projects_count": 5, "devlogs_count": 12, "votes_count": 41, "ships_count": 3, "projects": [{"id": 6430, "title": "Roblox MCP Server", "devlogs_count": 4, "created_at": "2025-07-13T08:31:37.648-04:00"}, {"id": 11553, "title": "Callies", "devlogs_count": 0, "created_at": "2025-08-17T01:46:47.019-04:00"}, {"id": 12651, "title": "Tableturn Backend", "devlogs_count": 0, "created_at": "2025-08-31T03:54:05.305-04:00"}, {"id": 10223, "title": "Krost", "devlogs_count": 6, "created_at": "2025-08-05T05:36:22.033-04:00"}, {"id": 5548, "title": "Sparkle", "devlogs_count": 2, "created_at": "2025-07-06T04:47:51.592-04:00"}], "coding_time_seconds": 283560, "coding_time_seconds_today": 17931, "balance": "You need to have a pocket watcher badge to view this.", "badges": [{"name": "Maiden Voyage", "text": "you shipped your first project! the journey begins...", "icon": "\ud83d\udea2"}], "created_at": "2025-06-16T18:53:33.488-04:00", "updated_at": "2025-09-10T22:52:52.472-04:00", "avatar": "https://avatars.slack-edge.com/2025-07-04/9170324355088_bf5f51dd1c11971a52cd_original.png", "custom_css": null}, {"id": 3452, "slack_id": "U091R4CMXQS", "display_name": "Waydia McLeod", "bio": null, "projects_count": 0, "devlogs_count": 0, "votes_count": 0, "ships_count": 0, "projects": [], "coding_time_seconds": 0, "coding_time_seconds_today": 0, "balance": "You need to have a pocket watcher badge to view this.", "badges": [], "created_at": "2025-06-16T18:53:37.771-04:00", "updated_at": "2025-07-03T19:26:59.507-04:00", "avatar": "https://avatars.slack-edge.com/2025-06-16/9071733218593_ffe760e6c844e18d8d74_original.jpg", "custom_css": null}, {"id": 3453, "slack_id": "U091HJJ8T7G", "display_name": "Samida", "bio": null, "projects_count": 0, "devlogs_count": 0, "votes_count": 0, "ships_count": 0, "projects": [], "coding_time_seconds": 0, "coding_time_seconds_today": 0, "balance": "You need to have a pocket watcher badge to view this.", "badges": [], "created_at": "2025-06-16T18:53:39.728-04:00", "updated_at": "2025-07-03T19:26:59.767-04:00", "avatar": "https://secure.gravatar.com/avatar/788d26d0c1ab290d3c548815528f042c.jpg?s=512&d=https%3A%2F%2Fa.slack-edge.com%2Fdf10d%2Fimg%2Favatars%2Fava_0013-512.png", "custom_css": null}, {"id": 3454, "slack_id": "U079ENF5TEK", "display_name": "parris", "bio": null, "projects_count": 0, "devlogs_count": 0, "votes_count": 0, "ships_count": 0, "projects": [], "coding_time_seconds": 41008, "coding_time_seconds_today": 0, "balance": "You need to have a pocket watcher badge to view this.", "badges": [], "created_at": "2025-06-16T18:54:11.245-04:00", "updated_at": "2025-07-03T19:27:00.029-04:00", "avatar": "https://avatars.slack-edge.com/2024-07-12/7405221885814_d9a33131a0d7f4c0b5a1_original.jpg", "custom_css": null}, {"id": 3455, "slack_id": "U07F79E4B39", "display_name": "Xinyang Wang", "bio": null, "projects_count": 0, "devlogs_count": 0, "votes_count": 0, "ships_count": 0, "projects": [], "coding_time_seconds": 162976, "coding_time_seconds_today": 0, "balance": "You need to have a pocket watcher badge to view this.", "badges": [], "created_at": "2025-06-16T18:54:17.569-04:00", "updated_at": "2025-07-03T19:27:00.298-04:00", "avatar": "https://secure.gravatar.com/avatar/ea75ba10d9094eba462121e460df56dd.jpg?s=512&d=https%3A%2F%2Fa.slack-edge.com%2Fdf10d%2Fimg%2Favatars%2Fava_0015-512.png", "custom_css": null}, {"id": 3456, "slack_id": "U091R4BHFNW", "display_name": "Yago Otero", "bio": null, "projects_count": 0, "devlogs_count": 0, "votes_count": 0, "ships_count": 0, "projects": [], "coding_time_seconds": 23595, "coding_time_seconds_today": 0, "balance": "You need to have a pocket watcher badge to view this.", "badges": [], "created_at": "2025-06-16T18:54:20.353-04:00", "updated_at": "2025-07-03T19:27:00.572-04:00", "avatar": "https://avatars.slack-edge.com/2025-06-16/9059498659092_4c8bf2ad4012b6029fd0_original.png", "custom_css": null}, {"id": 3457, "slack_id": "U07A5MMN4QN", "display_name": "pretzel", "bio": null, "projects_count": 6, "devlogs_count": 53, "votes_count": 60, "ships_count": 4, "projects": [{"id": 4314, "title": "My Task Online", "devlogs_count": 2, "created_at": "2025-06-28T22:19:07.520-04:00"}, {"id": 4795, "title": "Infinite Dimensions Website", "devlogs_count": 6, "created_at": "2025-07-01T14:44:31.897-04:00"}, {"id": 5366, "title": "Game Main Menu ", "devlogs_count": 0, "created_at": "2025-07-04T19:44:44.690-04:00"}, {"id": 5627, "title": "CADPath", "devlogs_count": 11, "created_at": "2025-07-06T17:15:25.062-04:00"}, {"id": 1194, "title": "Study Guide Website", "devlogs_count": 12, "created_at": "2025-06-17T21:32:23.608-04:00"}, {"id": 2322, "title": "Project Portfolio", "devlogs_count": 22, "created_at": "2025-06-20T17:27:53.083-04:00"}], "coding_time_seconds": 143839, "coding_time_seconds_today": 0, "balance": "You need to have a pocket watcher badge to view this.", "badges": [{"name": "Maiden Voyage", "text": "you shipped your first project! the journey begins...", "icon": "\ud83d\udea2"}], "created_at": "2025-06-16T18:54:41.690-04:00", "updated_at": "2025-09-10T22:52:52.624-04:00", "avatar": "https://avatars.slack-edge.com/2024-06-29/7352378056499_83545bab677320a817c1_original.jpg", "custom_css": null}, {"id": 3458, "slack_id": "U0923L70YKB", "display_name": "Levi Szantosi", "bio": null, "projects_count": 0, "devlogs_count": 0, "votes_count": 0, "ships_count": 0, "projects": [], "coding_time_seconds": 0, "coding_time_seconds_today": 0, "balance": "You need to have a pocket watcher badge to view this.", "badges": [], "created_at": "2025-06-16T18:54:52.491-04:00", "updated_at": "2025-07-03T19:27:01.090-04:00", "avatar": "https://secure.gravatar.com/avatar/2e354ccdfdb913667daab3161a439e2e.jpg?s=512&d=https%3A%2F%2Fa.slack-edge.com%2Fdf10d%2Fimg%2Favatars%2Fava_0014-512.png", "custom_css": null}, {"id": 3459, "slack_id": "U078DG6QNQ5", "display_name": "Shaum Debnath", "bio": null, "projects_count": 0, "devlogs_count": 0, "votes_count": 0, "ships_count": 0, "projects": [], "coding_time_seconds": 0, "coding_time_seconds_today": 0, "balance": "You need to have a pocket watcher badge to view this.", "badges": [], "created_at": "2025-06-16T18:54:58.861-04:00", "updated_at": "2025-07-03T19:27:01.380-04:00", "avatar": "https://avatars.slack-edge.com/2025-06-16/9071709562097_01f48c1284d6345331a7_original.jpg", "custom_css": null}, {"id": 3460, "slack_id": "U08LEHUPSCR", "display_name": "breynard", "bio": null, "projects_count": 3, "devlogs_count": 53, "votes_count": 31, "ships_count": 1, "projects": [{"id": 12894, "title": "breynard's Personal Site", "devlogs_count": 1, "created_at": "2025-09-04T15:10:14.125-04:00"}, {"id": 13415, "title": "16-Bit Font", "devlogs_count": 6, "created_at": "2025-09-15T19:45:17.445-04:00"}, {"id": 1160, "title": "Zero-dependency Algebra Calculator", "devlogs_count": 46, "created_at": "2025-06-17T19:12:56.981-04:00"}], "coding_time_seconds": 578439, "coding_time_seconds_today": 0, "balance": "You need to have a pocket watcher badge to view this.", "badges": [{"name": "Yapper I", "text": "Posted 10 comments on devlogs.", "icon": "\ud83d\udcac"}, {"name": "Maiden Voyage", "text": "you shipped your first project! the journey begins...", "icon": "\ud83d\udea2"}], "created_at": "2025-06-16T18:55:13.558-04:00", "updated_at": "2025-09-10T22:52:52.718-04:00", "avatar": "https://secure.gravatar.com/avatar/5ab235f469723c1197456502d8651857.jpg?s=512&d=https%3A%2F%2Fa.slack-edge.com%2Fdf10d%2Fimg%2Favatars%2Fava_0026-512.png", "custom_css": null}], "pagination": {"page": 173, "pages": 1192, "count": 23828, "items": 20}}