{"users": [{"id": 3461, "slack_id": "U0923L64CE5", "display_name": "Abel", "bio": null, "projects_count": 0, "devlogs_count": 0, "votes_count": 0, "ships_count": 0, "projects": [], "coding_time_seconds": 0, "coding_time_seconds_today": 0, "balance": "You need to have a pocket watcher badge to view this.", "badges": [], "created_at": "2025-06-16T18:55:17.478-04:00", "updated_at": "2025-07-03T19:27:01.912-04:00", "avatar": "https://secure.gravatar.com/avatar/6e36d4194b542c47c039f36a99565774.jpg?s=512&d=https%3A%2F%2Fa.slack-edge.com%2Fdf10d%2Fimg%2Favatars%2Fava_0008-512.png", "custom_css": null}, {"id": 3462, "slack_id": "U0793KKG70W", "display_name": "Nixo", "bio": null, "projects_count": 0, "devlogs_count": 0, "votes_count": 0, "ships_count": 0, "projects": [], "coding_time_seconds": 97355, "coding_time_seconds_today": 0, "balance": "You need to have a pocket watcher badge to view this.", "badges": [], "created_at": "2025-06-16T18:55:40.407-04:00", "updated_at": "2025-07-03T19:27:02.184-04:00", "avatar": "https://avatars.slack-edge.com/2024-07-20/7476272535328_1b116ed71303598a9e41_original.gif", "custom_css": null}, {"id": 3463, "slack_id": "U07GXEVL48P", "display_name": "Hardik Gupta", "bio": null, "projects_count": 0, "devlogs_count": 0, "votes_count": 1, "ships_count": 0, "projects": [], "coding_time_seconds": 1459, "coding_time_seconds_today": 0, "balance": "You need to have a pocket watcher badge to view this.", "badges": [], "created_at": "2025-06-16T18:55:48.717-04:00", "updated_at": "2025-07-03T19:27:02.451-04:00", "avatar": "https://avatars.slack-edge.com/2024-08-17/7612850027936_6c1939f2ea7720f7a6bb_original.png", "custom_css": null}, {"id": 3464, "slack_id": "U091RDS8Z8U", "display_name": "Kshitij Sharma", "bio": null, "projects_count": 0, "devlogs_count": 0, "votes_count": 0, "ships_count": 0, "projects": [], "coding_time_seconds": 0, "coding_time_seconds_today": 0, "balance": "You need to have a pocket watcher badge to view this.", "badges": [], "created_at": "2025-06-16T18:56:16.565-04:00", "updated_at": "2025-07-03T19:27:02.713-04:00", "avatar": "https://secure.gravatar.com/avatar/f61afd067582e8cf0345f10340e96d39.jpg?s=512&d=https%3A%2F%2Fa.slack-edge.com%2Fdf10d%2Fimg%2Favatars%2Fava_0011-512.png", "custom_css": null}, {"id": 3465, "slack_id": "U0919PZ3CNB", "display_name": "Sanchit Jakhetia", "bio": null, "projects_count": 0, "devlogs_count": 0, "votes_count": 0, "ships_count": 0, "projects": [], "coding_time_seconds": 0, "coding_time_seconds_today": 0, "balance": "You need to have a pocket watcher badge to view this.", "badges": [], "created_at": "2025-06-16T18:56:46.184-04:00", "updated_at": "2025-07-03T19:27:02.982-04:00", "avatar": "https://secure.gravatar.com/avatar/1df10ba0b8f8c467f5bf9368badf203a.jpg?s=512&d=https%3A%2F%2Fa.slack-edge.com%2Fdf10d%2Fimg%2Favatars%2Fava_0009-512.png", "custom_css": null}, {"id": 3466, "slack_id": "U091PAMPSRK", "display_name": "Muhammad Alwan", "bio": null, "projects_count": 0, "devlogs_count": 0, "votes_count": 0, "ships_count": 0, "projects": [], "coding_time_seconds": 0, "coding_time_seconds_today": 0, "balance": "You need to have a pocket watcher badge to view this.", "badges": [], "created_at": "2025-06-16T18:56:48.291-04:00", "updated_at": "2025-07-03T19:27:03.287-04:00", "avatar": "https://avatars.slack-edge.com/2025-06-16/9043827017383_5f62ff5878fc9b5c3a6e_original.jpg", "custom_css": null}, {"id": 3467, "slack_id": "U091PAL5AKF", "display_name": "totally_not_throwaway", "bio": null, "projects_count": 0, "devlogs_count": 0, "votes_count": 0, "ships_count": 0, "projects": [], "coding_time_seconds": 0, "coding_time_seconds_today": 0, "balance": "You need to have a pocket watcher badge to view this.", "badges": [], "created_at": "2025-06-16T18:57:02.529-04:00", "updated_at": "2025-07-03T19:27:03.545-04:00", "avatar": "https://secure.gravatar.com/avatar/b9a8eaf8e369909667629d7c002f2233.jpg?s=512&d=https%3A%2F%2Fa.slack-edge.com%2Fdf10d%2Fimg%2Favatars%2Fava_0004-512.png", "custom_css": null}, {"id": 3468, "slack_id": "U07E0LKLYRW", "display_name": "Alex Li", "bio": null, "projects_count": 2, "devlogs_count": 1, "votes_count": 1, "ships_count": 0, "projects": [{"id": 1334, "title": "Outro Music Player", "devlogs_count": 1, "created_at": "2025-06-18T09:19:55.010-04:00"}, {"id": 3684, "title": "Oblivion", "devlogs_count": 0, "created_at": "2025-06-25T08:07:07.910-04:00"}], "coding_time_seconds": 135090, "coding_time_seconds_today": 0, "balance": "You need to have a pocket watcher badge to view this.", "badges": [], "created_at": "2025-06-16T18:57:05.698-04:00", "updated_at": "2025-07-03T19:27:03.811-04:00", "avatar": "https://avatars.slack-edge.com/2025-05-16/8914718310196_36793e21a53db374845f_original.png", "custom_css": null}, {"id": 3469, "slack_id": "U091J0Z6DN2", "display_name": "Karan", "bio": null, "projects_count": 0, "devlogs_count": 0, "votes_count": 0, "ships_count": 0, "projects": [], "coding_time_seconds": 0, "coding_time_seconds_today": 0, "balance": "You need to have a pocket watcher badge to view this.", "badges": [], "created_at": "2025-06-16T18:57:08.139-04:00", "updated_at": "2025-07-03T19:27:04.084-04:00", "avatar": "https://secure.gravatar.com/avatar/ba92702ce4a185de0fc4e53448229cb6.jpg?s=512&d=https%3A%2F%2Fa.slack-edge.com%2Fdf10d%2Fimg%2Favatars%2Fava_0022-512.png", "custom_css": null}, {"id": 3470, "slack_id": "U0923LC56Q1", "display_name": "Raad Zyoud", "bio": null, "projects_count": 0, "devlogs_count": 0, "votes_count": 0, "ships_count": 0, "projects": [], "coding_time_seconds": 0, "coding_time_seconds_today": 0, "balance": "You need to have a pocket watcher badge to view this.", "badges": [], "created_at": "2025-06-16T18:58:00.931-04:00", "updated_at": "2025-07-03T19:27:04.348-04:00", "avatar": "https://secure.gravatar.com/avatar/cc2d8bad37525f1a5b5a9b070f121022.jpg?s=512&d=https%3A%2F%2Fa.slack-edge.com%2Fdf10d%2Fimg%2Favatars%2Fava_0021-512.png", "custom_css": null}, {"id": 3471, "slack_id": "U091J9DCM38", "display_name": "Anubhav", "bio": null, "projects_count": 0, "devlogs_count": 0, "votes_count": 0, "ships_count": 0, "projects": [], "coding_time_seconds": 0, "coding_time_seconds_today": 0, "balance": "You need to have a pocket watcher badge to view this.", "badges": [], "created_at": "2025-06-16T18:58:00.958-04:00", "updated_at": "2025-07-03T19:27:04.613-04:00", "avatar": "https://secure.gravatar.com/avatar/9a04c73339c73ded14a6d5d223c0e63e.jpg?s=512&d=https%3A%2F%2Fa.slack-edge.com%2Fdf10d%2Fimg%2Favatars%2Fava_0026-512.png", "custom_css": null}, {"id": 3472, "slack_id": "U0829UH557E", "display_name": "Jade Kuehnel", "bio": null, "projects_count": 1, "devlogs_count": 1, "votes_count": 0, "ships_count": 1, "projects": [{"id": 12006, "title": "My Personal Website", "devlogs_count": 1, "created_at": "2025-08-22T03:16:17.302-04:00"}], "coding_time_seconds": 47315, "coding_time_seconds_today": 0, "balance": "You need to have a pocket watcher badge to view this.", "badges": [{"name": "Maiden Voyage", "text": "you shipped your first project! the journey begins...", "icon": "\ud83d\udea2"}], "created_at": "2025-06-16T18:58:02.757-04:00", "updated_at": "2025-09-10T22:52:52.993-04:00", "avatar": "https://avatars.slack-edge.com/2024-11-24/8098892680320_bc4796062ad9942fd388_original.jpg", "custom_css": null}, {"id": 3473, "slack_id": "U091JA8RXPY", "display_name": "Jo", "bio": null, "projects_count": 0, "devlogs_count": 0, "votes_count": 0, "ships_count": 0, "projects": [], "coding_time_seconds": 0, "coding_time_seconds_today": 0, "balance": "You need to have a pocket watcher badge to view this.", "badges": [], "created_at": "2025-06-16T18:58:18.970-04:00", "updated_at": "2025-07-03T19:27:05.135-04:00", "avatar": "https://secure.gravatar.com/avatar/1cefbc3dbbd054d66e86be4f31f6f6f8.jpg?s=512&d=https%3A%2F%2Fa.slack-edge.com%2Fdf10d%2Fimg%2Favatars%2Fava_0021-512.png", "custom_css": null}, {"id": 3474, "slack_id": "U08TR7TPB0E", "display_name": "Eason", "bio": "Minecraft player, SvelteKit lover, Python ex-enthusiast, Java reader\u2615, and avid Rustacean\ud83e\udd80", "projects_count": 0, "devlogs_count": 16, "votes_count": 20, "ships_count": 0, "projects": [], "coding_time_seconds": 409992, "coding_time_seconds_today": 0, "balance": "You need to have a pocket watcher badge to view this.", "badges": [{"name": "Maiden Voyage", "text": "you shipped your first project! the journey begins...", "icon": "\ud83d\udea2"}], "created_at": "2025-06-16T18:58:28.058-04:00", "updated_at": "2025-09-10T22:52:53.062-04:00", "avatar": "https://avatars.slack-edge.com/2025-08-13/9344845543507_6ca5adf9545cb36797c0_original.png", "custom_css": null}, {"id": 3475, "slack_id": "U08J20C7GBW", "display_name": "Krish Jain", "bio": null, "projects_count": 2, "devlogs_count": 15, "votes_count": 27, "ships_count": 2, "projects": [{"id": 398, "title": "Thinkboard", "devlogs_count": 6, "created_at": "2025-06-16T20:14:49.099-04:00"}, {"id": 6587, "title": "Krish Jain Personal Website", "devlogs_count": 2, "created_at": "2025-07-14T11:47:19.445-04:00"}], "coding_time_seconds": 137022, "coding_time_seconds_today": 0, "balance": "You need to have a pocket watcher badge to view this.", "badges": [{"name": "Maiden Voyage", "text": "you shipped your first project! the journey begins...", "icon": "\ud83d\udea2"}], "created_at": "2025-06-16T18:58:30.150-04:00", "updated_at": "2025-09-10T22:52:53.097-04:00", "avatar": "https://avatars.slack-edge.com/2025-06-04/9013659836273_274319a5996cb677a823_original.png", "custom_css": null}, {"id": 3476, "slack_id": "U091R4R2U4A", "display_name": "Ahmed Hany", "bio": null, "projects_count": 0, "devlogs_count": 0, "votes_count": 0, "ships_count": 0, "projects": [], "coding_time_seconds": 0, "coding_time_seconds_today": 0, "balance": "You need to have a pocket watcher badge to view this.", "badges": [], "created_at": "2025-06-16T18:58:44.617-04:00", "updated_at": "2025-07-03T19:27:05.951-04:00", "avatar": "https://secure.gravatar.com/avatar/679061873f6d7c9daed3b29320739b80.jpg?s=512&d=https%3A%2F%2Fa.slack-edge.com%2Fdf10d%2Fimg%2Favatars%2Fava_0026-512.png", "custom_css": null}, {"id": 3477, "slack_id": "U0875F3AGG6", "display_name": "NT", "bio": null, "projects_count": 0, "devlogs_count": 0, "votes_count": 1, "ships_count": 0, "projects": [], "coding_time_seconds": 0, "coding_time_seconds_today": 0, "balance": "You need to have a pocket watcher badge to view this.", "badges": [], "created_at": "2025-06-16T18:59:17.609-04:00", "updated_at": "2025-07-10T06:00:01.260-04:00", "avatar": "https://secure.gravatar.com/avatar/43d130ed08c8eaa360fb3bbc54481086.jpg?s=512&d=https%3A%2F%2Fa.slack-edge.com%2Fdf10d%2Fimg%2Favatars%2Fava_0015-512.png", "custom_css": null}, {"id": 3478, "slack_id": "U082U8N45B5", "display_name": "fily", "bio": "javascript:alert('XSS')", "projects_count": 5, "devlogs_count": 12, "votes_count": 43, "ships_count": 2, "projects": [{"id": 3763, "title": "MKSync", "devlogs_count": 1, "created_at": "2025-06-25T16:18:02.336-04:00"}, {"id": 4094, "title": "bnuuy", "devlogs_count": 5, "created_at": "2025-06-27T12:32:54.690-04:00"}, {"id": 6276, "title": "(title pending)", "devlogs_count": 2, "created_at": "2025-07-11T23:32:54.563-04:00"}, {"id": 11054, "title": "Cats are Liquid (alits) Speedrun Timer (frontend)", "devlogs_count": 0, "created_at": "2025-08-12T18:37:06.977-04:00"}, {"id": 1188, "title": "GNUrdle", "devlogs_count": 4, "created_at": "2025-06-17T21:15:54.418-04:00"}], "coding_time_seconds": 108377, "coding_time_seconds_today": 0, "balance": "You need to have a pocket watcher badge to view this.", "badges": [{"name": "Maiden Voyage", "text": "you shipped your first project! the journey begins...", "icon": "\ud83d\udea2"}], "created_at": "2025-06-16T18:59:22.120-04:00", "updated_at": "2025-09-10T22:52:53.181-04:00", "avatar": "https://avatars.slack-edge.com/2025-08-12/9343738381061_95fcad23336c23155caf_original.png", "custom_css": null}, {"id": 3479, "slack_id": "U091PAHK36H", "display_name": "P A", "bio": null, "projects_count": 0, "devlogs_count": 0, "votes_count": 0, "ships_count": 0, "projects": [], "coding_time_seconds": 248, "coding_time_seconds_today": 0, "balance": "You need to have a pocket watcher badge to view this.", "badges": [], "created_at": "2025-06-16T18:59:33.877-04:00", "updated_at": "2025-07-03T19:27:06.773-04:00", "avatar": "https://avatars.slack-edge.com/2025-06-16/9057381575061_554a44be12aec6308a95_original.png", "custom_css": null}, {"id": 3480, "slack_id": "U08N2EMER6E", "display_name": "Eric", "bio": null, "projects_count": 0, "devlogs_count": 0, "votes_count": 0, "ships_count": 0, "projects": [], "coding_time_seconds": 0, "coding_time_seconds_today": 0, "balance": "You need to have a pocket watcher badge to view this.", "badges": [], "created_at": "2025-06-16T18:59:41.348-04:00", "updated_at": "2025-07-07T13:47:39.825-04:00", "avatar": "https://secure.gravatar.com/avatar/18078d4715b04750f70f1404521c3b1b.jpg?s=512&d=https%3A%2F%2Fa.slack-edge.com%2Fdf10d%2Fimg%2Favatars%2Fava_0017-512.png", "custom_css": null}], "pagination": {"page": 174, "pages": 1192, "count": 23828, "items": 20}}