{"users": [{"id": 3481, "slack_id": "U091PGAKYGL", "display_name": "Matthew Dinh", "bio": null, "projects_count": 2, "devlogs_count": 5, "votes_count": 0, "ships_count": 0, "projects": [{"id": 2347, "title": "Integrand", "devlogs_count": 5, "created_at": "2025-06-20T18:55:43.003-04:00"}, {"id": 2749, "title": "Pong With Cards", "devlogs_count": 0, "created_at": "2025-06-21T23:49:13.046-04:00"}], "coding_time_seconds": 126098, "coding_time_seconds_today": 0, "balance": "You need to have a pocket watcher badge to view this.", "badges": [], "created_at": "2025-06-16T18:59:42.091-04:00", "updated_at": "2025-07-03T19:27:07.328-04:00", "avatar": "https://avatars.slack-edge.com/2025-06-16/9059175155394_2eb6dd245cec5bc70849_original.jpg", "custom_css": null}, {"id": 3482, "slack_id": "U0919Q7GU6T", "display_name": "Abir Deol", "bio": null, "projects_count": 0, "devlogs_count": 0, "votes_count": 0, "ships_count": 0, "projects": [], "coding_time_seconds": 0, "coding_time_seconds_today": 0, "balance": "You need to have a pocket watcher badge to view this.", "badges": [], "created_at": "2025-06-16T18:59:45.649-04:00", "updated_at": "2025-07-03T19:27:07.598-04:00", "avatar": "https://avatars.slack-edge.com/2025-06-16/9081597315504_f2e76cc393f3aaca51d4_original.jpg", "custom_css": null}, {"id": 3483, "slack_id": "U0815122KGS", "display_name": "Segfault", "bio": null, "projects_count": 2, "devlogs_count": 9, "votes_count": 1, "ships_count": 0, "projects": [{"id": 1063, "title": "Nim OSDev", "devlogs_count": 9, "created_at": "2025-06-17T15:05:33.813-04:00"}, {"id": 13570, "title": "A custom programming language and compiler in Rust", "devlogs_count": 0, "created_at": "2025-09-19T17:21:08.888-04:00"}], "coding_time_seconds": 415297, "coding_time_seconds_today": 0, "balance": "You need to have a pocket watcher badge to view this.", "badges": [], "created_at": "2025-06-16T18:59:51.869-04:00", "updated_at": "2025-08-22T14:14:40.953-04:00", "avatar": "https://avatars.slack-edge.com/2025-08-22/9381598798535_2ec6b0f86fda6258431a_original.png", "custom_css": null}, {"id": 3484, "slack_id": "U0923LVGD6V", "display_name": "Sabin Ranabhat", "bio": null, "projects_count": 0, "devlogs_count": 0, "votes_count": 0, "ships_count": 0, "projects": [], "coding_time_seconds": 0, "coding_time_seconds_today": 0, "balance": "You need to have a pocket watcher badge to view this.", "badges": [], "created_at": "2025-06-16T18:59:54.416-04:00", "updated_at": "2025-07-03T19:27:08.125-04:00", "avatar": "https://secure.gravatar.com/avatar/c937402240e5f1651ee92185c22ac7e7.jpg?s=512&d=https%3A%2F%2Fa.slack-edge.com%2Fdf10d%2Fimg%2Favatars%2Fava_0007-512.png", "custom_css": null}, {"id": 3485, "slack_id": "U0923LMPVT3", "display_name": "Sam Gordom", "bio": null, "projects_count": 0, "devlogs_count": 0, "votes_count": 0, "ships_count": 0, "projects": [], "coding_time_seconds": 0, "coding_time_seconds_today": 0, "balance": "You need to have a pocket watcher badge to view this.", "badges": [], "created_at": "2025-06-16T19:00:27.798-04:00", "updated_at": "2025-07-03T19:27:08.386-04:00", "avatar": "https://secure.gravatar.com/avatar/d965250223b82c2d01605a3cab1eb340.jpg?s=512&d=https%3A%2F%2Fa.slack-edge.com%2Fdf10d%2Fimg%2Favatars%2Fava_0004-512.png", "custom_css": null}, {"id": 3486, "slack_id": "U091PAYBV53", "display_name": "Hassan Ali", "bio": null, "projects_count": 0, "devlogs_count": 0, "votes_count": 0, "ships_count": 0, "projects": [], "coding_time_seconds": 0, "coding_time_seconds_today": 0, "balance": "You need to have a pocket watcher badge to view this.", "badges": [], "created_at": "2025-06-16T19:00:51.321-04:00", "updated_at": "2025-07-03T19:27:08.654-04:00", "avatar": "https://secure.gravatar.com/avatar/aa6c05d2505a3221537b0e9aee8d7f85.jpg?s=512&d=https%3A%2F%2Fa.slack-edge.com%2Fdf10d%2Fimg%2Favatars%2Fava_0009-512.png", "custom_css": null}, {"id": 3487, "slack_id": "U0919QJBPJT", "display_name": "Sarvajit", "bio": null, "projects_count": 0, "devlogs_count": 0, "votes_count": 0, "ships_count": 0, "projects": [], "coding_time_seconds": 0, "coding_time_seconds_today": 0, "balance": "You need to have a pocket watcher badge to view this.", "badges": [], "created_at": "2025-06-16T19:01:22.207-04:00", "updated_at": "2025-07-03T19:27:08.930-04:00", "avatar": "https://secure.gravatar.com/avatar/28ab2d05a9aaabd93de8b308cf5de658.jpg?s=512&d=https%3A%2F%2Fa.slack-edge.com%2Fdf10d%2Fimg%2Favatars%2Fava_0010-512.png", "custom_css": null}, {"id": 3488, "slack_id": "U092DH4HLLQ", "display_name": "Bruno", "bio": null, "projects_count": 0, "devlogs_count": 0, "votes_count": 0, "ships_count": 0, "projects": [], "coding_time_seconds": 0, "coding_time_seconds_today": 0, "balance": "You need to have a pocket watcher badge to view this.", "badges": [], "created_at": "2025-06-16T19:01:23.162-04:00", "updated_at": "2025-07-03T19:27:09.211-04:00", "avatar": "https://secure.gravatar.com/avatar/d0b4ceb144783a0c8a408b87c3a7b47b.jpg?s=512&d=https%3A%2F%2Fa.slack-edge.com%2Fdf10d%2Fimg%2Favatars%2Fava_0006-512.png", "custom_css": null}, {"id": 3489, "slack_id": "U07BB1RGZN0", "display_name": "Guana", "bio": null, "projects_count": 2, "devlogs_count": 1, "votes_count": 1, "ships_count": 0, "projects": [{"id": 371, "title": "A Sparrow's Quest", "devlogs_count": 1, "created_at": "2025-06-16T19:33:33.888-04:00"}, {"id": 13267, "title": "ChessMD", "devlogs_count": 0, "created_at": "2025-09-12T23:38:02.740-04:00"}], "coding_time_seconds": 319487, "coding_time_seconds_today": 0, "balance": "You need to have a pocket watcher badge to view this.", "badges": [], "created_at": "2025-06-16T19:01:25.925-04:00", "updated_at": "2025-08-14T20:44:33.855-04:00", "avatar": "https://secure.gravatar.com/avatar/386ccb3edbe5fc1a13aaab6a5c661fd2.jpg?s=512&d=https%3A%2F%2Fa.slack-edge.com%2Fdf10d%2Fimg%2Favatars%2Fava_0002-512.png", "custom_css": null}, {"id": 3490, "slack_id": "U0878K0L352", "display_name": "grldni", "bio": null, "projects_count": 7, "devlogs_count": 20, "votes_count": 37, "ships_count": 5, "projects": [{"id": 1346, "title": "Rocks&Space", "devlogs_count": 3, "created_at": "2025-06-18T10:41:42.062-04:00"}, {"id": 9264, "title": "The Greatest Programmer That Has Ever Lived!", "devlogs_count": 3, "created_at": "2025-07-31T08:54:45.069-04:00"}, {"id": 11055, "title": "SimpleRPG", "devlogs_count": 0, "created_at": "2025-08-12T18:42:50.510-04:00"}, {"id": 12766, "title": "sidebar.nvim", "devlogs_count": 1, "created_at": "2025-09-02T07:01:42.779-04:00"}, {"id": 2182, "title": "SiteBlock", "devlogs_count": 1, "created_at": "2025-06-20T11:34:48.328-04:00"}, {"id": 6051, "title": "DivineC", "devlogs_count": 10, "created_at": "2025-07-10T08:35:02.648-04:00"}, {"id": 3452, "title": "My own text editor!", "devlogs_count": 2, "created_at": "2025-06-24T10:29:26.364-04:00"}], "coding_time_seconds": 263865, "coding_time_seconds_today": 1894, "balance": "You need to have a pocket watcher badge to view this.", "badges": [{"name": "Maiden Voyage", "text": "you shipped your first project! the journey begins...", "icon": "\ud83d\udea2"}, {"name": "Ballot Stuffer", "text": "vote 100 times.", "icon": "https://summer.hackclub.com/assets/i_voted-bf851b48.png"}, {"name": "Verified", "text": "this user is verified (i.e. gave us $8)", "icon": "https://summer.hackclub.com/assets/verified-c9457a9f.png"}], "created_at": "2025-06-16T19:01:28.380-04:00", "updated_at": "2025-09-23T17:36:24.054-04:00", "avatar": "https://avatars.slack-edge.com/2025-07-09/9189221314784_090cfa120467d316e6cf_original.jpg", "custom_css": null}, {"id": 3491, "slack_id": "U07S9H9GL4Q", "display_name": "Larl", "bio": null, "projects_count": 0, "devlogs_count": 0, "votes_count": 0, "ships_count": 0, "projects": [], "coding_time_seconds": 0, "coding_time_seconds_today": 0, "balance": "You need to have a pocket watcher badge to view this.", "badges": [], "created_at": "2025-06-16T19:01:30.734-04:00", "updated_at": "2025-08-28T08:03:58.910-04:00", "avatar": "https://avatars.slack-edge.com/2025-06-16/9052344425574_08557b8587a4980f6dbe_original.png", "custom_css": null}, {"id": 3492, "slack_id": "U091P826PK4", "display_name": "Tomash Mikulevich", "bio": null, "projects_count": 0, "devlogs_count": 0, "votes_count": 0, "ships_count": 0, "projects": [], "coding_time_seconds": 0, "coding_time_seconds_today": 0, "balance": "You need to have a pocket watcher badge to view this.", "badges": [], "created_at": "2025-06-16T19:01:59.110-04:00", "updated_at": "2025-07-03T19:27:10.296-04:00", "avatar": "https://secure.gravatar.com/avatar/1e115d2a443e257dd9fc712e08442300.jpg?s=512&d=https%3A%2F%2Fa.slack-edge.com%2Fdf10d%2Fimg%2Favatars%2Fava_0013-512.png", "custom_css": null}, {"id": 3493, "slack_id": "U092DHHS09E", "display_name": "Axel Clark", "bio": null, "projects_count": 0, "devlogs_count": 0, "votes_count": 0, "ships_count": 0, "projects": [], "coding_time_seconds": 20595, "coding_time_seconds_today": 0, "balance": "You need to have a pocket watcher badge to view this.", "badges": [], "created_at": "2025-06-16T19:02:55.671-04:00", "updated_at": "2025-07-03T19:27:10.578-04:00", "avatar": "https://secure.gravatar.com/avatar/ac50b60190b13787e73e23709a35e55d.jpg?s=512&d=https%3A%2F%2Fa.slack-edge.com%2Fdf10d%2Fimg%2Favatars%2Fava_0016-512.png", "custom_css": null}, {"id": 3494, "slack_id": "U07914NME9F", "display_name": "Tony Kan", "bio": null, "projects_count": 3, "devlogs_count": 34, "votes_count": 57, "ships_count": 2, "projects": [{"id": 5317, "title": "Tridecco Game", "devlogs_count": 4, "created_at": "2025-07-04T12:06:29.513-04:00"}, {"id": 6477, "title": "SCREAM (Docker): The official version will be released soon (built with Rust)", "devlogs_count": 1, "created_at": "2025-07-13T17:10:33.346-04:00"}, {"id": 4304, "title": "SCREAM++ | Protein Structure & Drug Design", "devlogs_count": 29, "created_at": "2025-06-28T20:19:14.530-04:00"}], "coding_time_seconds": 1087964, "coding_time_seconds_today": 0, "balance": "You need to have a pocket watcher badge to view this.", "badges": [{"name": "Maiden Voyage", "text": "you shipped your first project! the journey begins...", "icon": "\ud83d\udea2"}], "created_at": "2025-06-16T19:03:23.928-04:00", "updated_at": "2025-09-10T22:52:53.693-04:00", "avatar": "https://avatars.slack-edge.com/2024-06-24/7324916025570_eb53c189d5c7cbbde7cf_original.png", "custom_css": null}, {"id": 3495, "slack_id": "U0798A9P63T", "display_name": "Saket T", "bio": null, "projects_count": 1, "devlogs_count": 1, "votes_count": 0, "ships_count": 0, "projects": [{"id": 2052, "title": "SolversLib", "devlogs_count": 1, "created_at": "2025-06-20T02:16:01.619-04:00"}], "coding_time_seconds": 347872, "coding_time_seconds_today": 329, "balance": "You need to have a pocket watcher badge to view this.", "badges": [], "created_at": "2025-06-16T19:03:37.382-04:00", "updated_at": "2025-07-03T19:27:11.107-04:00", "avatar": "https://avatars.slack-edge.com/2024-06-19/7287128382055_878dd78c88f7dcd003a2_original.png", "custom_css": null}, {"id": 3496, "slack_id": "U091RF8TEH2", "display_name": "Wesley Showalter", "bio": null, "projects_count": 0, "devlogs_count": 0, "votes_count": 0, "ships_count": 0, "projects": [], "coding_time_seconds": 0, "coding_time_seconds_today": 0, "balance": "You need to have a pocket watcher badge to view this.", "badges": [], "created_at": "2025-06-16T19:03:37.614-04:00", "updated_at": "2025-07-03T19:27:11.377-04:00", "avatar": "https://avatars.slack-edge.com/2025-06-16/9081612466176_32eeccf5341231fe3fbf_original.png", "custom_css": null}, {"id": 3497, "slack_id": "U091J7BKEGK", "display_name": "Baconman", "bio": null, "projects_count": 0, "devlogs_count": 0, "votes_count": 0, "ships_count": 0, "projects": [], "coding_time_seconds": 0, "coding_time_seconds_today": 0, "balance": "You need to have a pocket watcher badge to view this.", "badges": [], "created_at": "2025-06-16T19:03:38.334-04:00", "updated_at": "2025-07-03T19:27:11.655-04:00", "avatar": "https://secure.gravatar.com/avatar/aaa0649406089d6dfd6abfa138856b98.jpg?s=512&d=https%3A%2F%2Fa.slack-edge.com%2Fdf10d%2Fimg%2Favatars%2Fava_0008-512.png", "custom_css": null}, {"id": 3498, "slack_id": "U091R59TMPU", "display_name": "jecy felipe da luz lorena", "bio": null, "projects_count": 0, "devlogs_count": 0, "votes_count": 0, "ships_count": 0, "projects": [], "coding_time_seconds": 12730, "coding_time_seconds_today": 0, "balance": "You need to have a pocket watcher badge to view this.", "badges": [], "created_at": "2025-06-16T19:04:21.471-04:00", "updated_at": "2025-07-03T19:27:11.928-04:00", "avatar": "https://secure.gravatar.com/avatar/90a187a54832396cf00833b9154f7bb6.jpg?s=512&d=https%3A%2F%2Fa.slack-edge.com%2Fdf10d%2Fimg%2Favatars%2Fava_0021-512.png", "custom_css": null}, {"id": 3499, "slack_id": "U0923M9LH5X", "display_name": "Ryan Fortner", "bio": null, "projects_count": 0, "devlogs_count": 0, "votes_count": 0, "ships_count": 0, "projects": [], "coding_time_seconds": 0, "coding_time_seconds_today": 0, "balance": "You need to have a pocket watcher badge to view this.", "badges": [], "created_at": "2025-06-16T19:04:24.900-04:00", "updated_at": "2025-07-03T19:27:12.197-04:00", "avatar": "https://secure.gravatar.com/avatar/1f08ed69532acc91a600f653fef06cd0.jpg?s=512&d=https%3A%2F%2Fa.slack-edge.com%2Fdf10d%2Fimg%2Favatars%2Fava_0007-512.png", "custom_css": null}, {"id": 3500, "slack_id": "U091R2E6UR2", "display_name": "Rehber Singh", "bio": null, "projects_count": 0, "devlogs_count": 0, "votes_count": 0, "ships_count": 0, "projects": [], "coding_time_seconds": 0, "coding_time_seconds_today": 0, "balance": "You need to have a pocket watcher badge to view this.", "badges": [], "created_at": "2025-06-16T19:04:32.704-04:00", "updated_at": "2025-07-03T19:27:12.482-04:00", "avatar": "https://avatars.slack-edge.com/2025-06-16/9081615090816_b7fb39baa20ecfe9a339_original.png", "custom_css": null}], "pagination": {"page": 175, "pages": 1192, "count": 23828, "items": 20}}