{"users": [{"id": 3501, "slack_id": "U081F2ADW1W", "display_name": "James", "bio": null, "projects_count": 3, "devlogs_count": 20, "votes_count": 40, "ships_count": 3, "projects": [{"id": 12107, "title": "Visualise Timings", "devlogs_count": 1, "created_at": "2025-08-23T06:43:48.593-04:00"}, {"id": 13495, "title": "Disappointment Island Scene", "devlogs_count": 3, "created_at": "2025-09-17T20:10:25.603-04:00"}, {"id": 6399, "title": "Operation Won", "devlogs_count": 16, "created_at": "2025-07-13T02:46:05.167-04:00"}], "coding_time_seconds": 226033, "coding_time_seconds_today": 11108, "balance": "You need to have a pocket watcher badge to view this.", "badges": [{"name": "Maiden Voyage", "text": "you shipped your first project! the journey begins...", "icon": "\ud83d\udea2"}], "created_at": "2025-06-16T19:04:38.676-04:00", "updated_at": "2025-09-10T22:52:53.877-04:00", "avatar": "https://secure.gravatar.com/avatar/2e63de1bc19cecdfae080fcf68dea589.jpg?s=512&d=https%3A%2F%2Fa.slack-edge.com%2Fdf10d%2Fimg%2Favatars%2Fava_0023-512.png", "custom_css": null}, {"id": 3502, "slack_id": "U07FDKQDVL2", "display_name": "Katherine", "bio": null, "projects_count": 0, "devlogs_count": 0, "votes_count": 0, "ships_count": 0, "projects": [], "coding_time_seconds": 0, "coding_time_seconds_today": 0, "balance": "You need to have a pocket watcher badge to view this.", "badges": [], "created_at": "2025-06-16T19:04:45.253-04:00", "updated_at": "2025-07-03T19:27:13.020-04:00", "avatar": "https://secure.gravatar.com/avatar/1966e2e8cbb5e75940e03ea6c219114f.jpg?s=512&d=https%3A%2F%2Fa.slack-edge.com%2Fdf10d%2Fimg%2Favatars%2Fava_0019-512.png", "custom_css": null}, {"id": 3503, "slack_id": "U091R5DKV8S", "display_name": "Rian Thomas", "bio": null, "projects_count": 0, "devlogs_count": 0, "votes_count": 0, "ships_count": 0, "projects": [], "coding_time_seconds": 0, "coding_time_seconds_today": 0, "balance": "You need to have a pocket watcher badge to view this.", "badges": [], "created_at": "2025-06-16T19:05:34.636-04:00", "updated_at": "2025-07-03T19:27:13.281-04:00", "avatar": "https://avatars.slack-edge.com/2025-06-16/9052389424582_bce42923e37777f2f17f_original.jpg", "custom_css": null}, {"id": 3504, "slack_id": "U091PBLPDU5", "display_name": "Shoshi Iida", "bio": null, "projects_count": 0, "devlogs_count": 0, "votes_count": 0, "ships_count": 0, "projects": [], "coding_time_seconds": 0, "coding_time_seconds_today": 0, "balance": "You need to have a pocket watcher badge to view this.", "badges": [], "created_at": "2025-06-16T19:05:41.879-04:00", "updated_at": "2025-07-03T19:27:13.551-04:00", "avatar": "https://avatars.slack-edge.com/2025-06-16/9057405488789_ae342c9d170fa6e6c473_original.png", "custom_css": null}, {"id": 3505, "slack_id": "U082B37M760", "display_name": "mei", "bio": null, "projects_count": 0, "devlogs_count": 0, "votes_count": 0, "ships_count": 0, "projects": [], "coding_time_seconds": 0, "coding_time_seconds_today": 0, "balance": "You need to have a pocket watcher badge to view this.", "badges": [], "created_at": "2025-06-16T19:07:00.711-04:00", "updated_at": "2025-07-03T19:27:13.809-04:00", "avatar": "https://avatars.slack-edge.com/2025-05-14/8884720840135_c862250ccc8a4844f319_original.png", "custom_css": null}, {"id": 3506, "slack_id": "U092DHZP80G", "display_name": "Alvaro", "bio": null, "projects_count": 0, "devlogs_count": 0, "votes_count": 0, "ships_count": 0, "projects": [], "coding_time_seconds": 49386, "coding_time_seconds_today": 0, "balance": "You need to have a pocket watcher badge to view this.", "badges": [], "created_at": "2025-06-16T19:07:17.228-04:00", "updated_at": "2025-07-03T19:27:14.075-04:00", "avatar": "https://secure.gravatar.com/avatar/e5d5c993e499267a2ce2f9c769377cee.jpg?s=512&d=https%3A%2F%2Fa.slack-edge.com%2Fdf10d%2Fimg%2Favatars%2Fava_0023-512.png", "custom_css": null}, {"id": 3507, "slack_id": "U0804RR02M8", "display_name": "hannah", "bio": null, "projects_count": 0, "devlogs_count": 0, "votes_count": 0, "ships_count": 0, "projects": [], "coding_time_seconds": 0, "coding_time_seconds_today": 0, "balance": "You need to have a pocket watcher badge to view this.", "badges": [], "created_at": "2025-06-16T19:07:31.669-04:00", "updated_at": "2025-07-03T19:27:14.340-04:00", "avatar": "https://avatars.slack-edge.com/2025-06-20/9076311246310_f9b65efdf119e4329141_original.png", "custom_css": null}, {"id": 3508, "slack_id": "U091J7M6667", "display_name": "Michael", "bio": null, "projects_count": 2, "devlogs_count": 14, "votes_count": 22, "ships_count": 1, "projects": [{"id": 3287, "title": "\u22c6Skytyper!\u22c6", "devlogs_count": 4, "created_at": "2025-06-23T17:01:26.686-04:00"}, {"id": 4002, "title": "HoloNight", "devlogs_count": 10, "created_at": "2025-06-26T19:22:01.236-04:00"}], "coding_time_seconds": 447342, "coding_time_seconds_today": 0, "balance": "You need to have a pocket watcher badge to view this.", "badges": [{"name": "Maiden Voyage", "text": "you shipped your first project! the journey begins...", "icon": "\ud83d\udea2"}], "created_at": "2025-06-16T19:07:44.580-04:00", "updated_at": "2025-09-10T22:52:54.099-04:00", "avatar": "https://avatars.slack-edge.com/2025-06-16/9052457770838_8e7a26fe840c10b6c7c3_original.jpg", "custom_css": null}, {"id": 3509, "slack_id": "U0919QYV3F1", "display_name": "Mario Ak.", "bio": null, "projects_count": 0, "devlogs_count": 0, "votes_count": 0, "ships_count": 0, "projects": [], "coding_time_seconds": 0, "coding_time_seconds_today": 0, "balance": "You need to have a pocket watcher badge to view this.", "badges": [], "created_at": "2025-06-16T19:07:59.106-04:00", "updated_at": "2025-07-03T19:27:14.865-04:00", "avatar": "https://secure.gravatar.com/avatar/9acd99123a09e6a7f4cce4ecb554cbf8.jpg?s=512&d=https%3A%2F%2Fa.slack-edge.com%2Fdf10d%2Fimg%2Favatars%2Fava_0015-512.png", "custom_css": null}, {"id": 3510, "slack_id": "U091R5QPB50", "display_name": "Chime Gyeltshen Dorji", "bio": null, "projects_count": 0, "devlogs_count": 0, "votes_count": 0, "ships_count": 0, "projects": [], "coding_time_seconds": 0, "coding_time_seconds_today": 0, "balance": "You need to have a pocket watcher badge to view this.", "badges": [], "created_at": "2025-06-16T19:08:16.204-04:00", "updated_at": "2025-07-03T19:27:15.133-04:00", "avatar": "https://avatars.slack-edge.com/2025-06-16/9052397847222_46fcb5cc08f379fcc5c1_original.jpg", "custom_css": null}, {"id": 3511, "slack_id": "U082UPNNVR6", "display_name": "Dhairya", "bio": null, "projects_count": 0, "devlogs_count": 0, "votes_count": 0, "ships_count": 0, "projects": [], "coding_time_seconds": 361257, "coding_time_seconds_today": 0, "balance": "You need to have a pocket watcher badge to view this.", "badges": [], "created_at": "2025-06-16T19:08:47.972-04:00", "updated_at": "2025-07-03T19:27:15.387-04:00", "avatar": "https://secure.gravatar.com/avatar/04368040b4dc17e30eb48483f5406fa1.jpg?s=512&d=https%3A%2F%2Fa.slack-edge.com%2Fdf10d%2Fimg%2Favatars%2Fava_0013-512.png", "custom_css": null}, {"id": 3512, "slack_id": "U091RFL1GUU", "display_name": "Valmar", "bio": null, "projects_count": 0, "devlogs_count": 0, "votes_count": 0, "ships_count": 0, "projects": [], "coding_time_seconds": 0, "coding_time_seconds_today": 0, "balance": "You need to have a pocket watcher badge to view this.", "badges": [], "created_at": "2025-06-16T19:08:54.201-04:00", "updated_at": "2025-07-03T19:27:15.648-04:00", "avatar": "https://secure.gravatar.com/avatar/57070f8c71cd9d4f7989a05bf63a1d9c.jpg?s=512&d=https%3A%2F%2Fa.slack-edge.com%2Fdf10d%2Fimg%2Favatars%2Fava_0004-512.png", "custom_css": null}, {"id": 3513, "slack_id": "U091JBFMRCN", "display_name": "nhea", "bio": null, "projects_count": 0, "devlogs_count": 0, "votes_count": 0, "ships_count": 0, "projects": [], "coding_time_seconds": 20712, "coding_time_seconds_today": 0, "balance": "You need to have a pocket watcher badge to view this.", "badges": [], "created_at": "2025-06-16T19:09:00.806-04:00", "updated_at": "2025-07-03T19:27:15.914-04:00", "avatar": "https://secure.gravatar.com/avatar/ae6a5b316c76dd38eefcd9bd598766ee.jpg?s=512&d=https%3A%2F%2Fa.slack-edge.com%2Fdf10d%2Fimg%2Favatars%2Fava_0008-512.png", "custom_css": null}, {"id": 3514, "slack_id": "U07TRLT913J", "display_name": "Matthew", "bio": null, "projects_count": 0, "devlogs_count": 0, "votes_count": 0, "ships_count": 0, "projects": [], "coding_time_seconds": 0, "coding_time_seconds_today": 0, "balance": "You need to have a pocket watcher badge to view this.", "badges": [], "created_at": "2025-06-16T19:09:02.571-04:00", "updated_at": "2025-07-03T19:27:16.168-04:00", "avatar": "https://secure.gravatar.com/avatar/98963a1e397eae59b2ad25ecebb4d540.jpg?s=512&d=https%3A%2F%2Fa.slack-edge.com%2Fdf10d%2Fimg%2Favatars%2Fava_0022-512.png", "custom_css": null}, {"id": 3515, "slack_id": "U091PBWDR8D", "display_name": "Elliot", "bio": null, "projects_count": 5, "devlogs_count": 20, "votes_count": 2, "ships_count": 0, "projects": [{"id": 2222, "title": "Website", "devlogs_count": 3, "created_at": "2025-06-20T13:30:06.182-04:00"}, {"id": 2275, "title": "WeatherWidget", "devlogs_count": 4, "created_at": "2025-06-20T16:00:24.722-04:00"}, {"id": 3011, "title": "2D Game", "devlogs_count": 8, "created_at": "2025-06-22T18:23:00.991-04:00"}, {"id": 3789, "title": "Piano Game", "devlogs_count": 2, "created_at": "2025-06-25T18:35:53.918-04:00"}, {"id": 4292, "title": "Website for 2D game", "devlogs_count": 3, "created_at": "2025-06-28T17:30:02.219-04:00"}], "coding_time_seconds": 276892, "coding_time_seconds_today": 0, "balance": "You need to have a pocket watcher badge to view this.", "badges": [], "created_at": "2025-06-16T19:09:07.062-04:00", "updated_at": "2025-07-03T19:27:16.430-04:00", "avatar": "https://secure.gravatar.com/avatar/3f5fbd1c14673a2cb8e83ee6e47bd0fe.jpg?s=512&d=https%3A%2F%2Fa.slack-edge.com%2Fdf10d%2Fimg%2Favatars%2Fava_0023-512.png", "custom_css": null}, {"id": 3516, "slack_id": "U08RMB3F2TA", "display_name": "HappyCloud", "bio": null, "projects_count": 0, "devlogs_count": 0, "votes_count": 0, "ships_count": 0, "projects": [], "coding_time_seconds": 12791, "coding_time_seconds_today": 0, "balance": "You need to have a pocket watcher badge to view this.", "badges": [], "created_at": "2025-06-16T19:09:11.208-04:00", "updated_at": "2025-07-03T19:27:16.695-04:00", "avatar": "https://secure.gravatar.com/avatar/19523c7887ea92628174b3297a9c5aa2.jpg?s=512&d=https%3A%2F%2Fa.slack-edge.com%2Fdf10d%2Fimg%2Favatars%2Fava_0009-512.png", "custom_css": null}, {"id": 3517, "slack_id": "U091PBSTH37", "display_name": "Ravi Teja Reddy", "bio": null, "projects_count": 0, "devlogs_count": 0, "votes_count": 0, "ships_count": 0, "projects": [], "coding_time_seconds": 119084, "coding_time_seconds_today": 0, "balance": "You need to have a pocket watcher badge to view this.", "badges": [], "created_at": "2025-06-16T19:09:19.847-04:00", "updated_at": "2025-07-03T19:27:16.953-04:00", "avatar": "https://secure.gravatar.com/avatar/97fc3b4bf84b40c554b9d42acd85a956.jpg?s=512&d=https%3A%2F%2Fa.slack-edge.com%2Fdf10d%2Fimg%2Favatars%2Fava_0018-512.png", "custom_css": null}, {"id": 3518, "slack_id": "U06M71772UX", "display_name": "noxi", "bio": null, "projects_count": 2, "devlogs_count": 0, "votes_count": 0, "ships_count": 0, "projects": [{"id": 362, "title": "youtube_vidgen", "devlogs_count": 0, "created_at": "2025-06-16T19:16:55.311-04:00"}, {"id": 381, "title": "Browser Extension", "devlogs_count": 0, "created_at": "2025-06-16T19:44:27.935-04:00"}], "coding_time_seconds": 202078, "coding_time_seconds_today": 0, "balance": "You need to have a pocket watcher badge to view this.", "badges": [], "created_at": "2025-06-16T19:09:37.556-04:00", "updated_at": "2025-07-03T19:27:17.230-04:00", "avatar": "https://avatars.slack-edge.com/2024-07-04/7389411210337_26c9c6399603e7c62d1d_original.jpg", "custom_css": null}, {"id": 3519, "slack_id": "U0923MEB9NV", "display_name": "Grai Rudolf", "bio": null, "projects_count": 0, "devlogs_count": 0, "votes_count": 0, "ships_count": 0, "projects": [], "coding_time_seconds": 0, "coding_time_seconds_today": 0, "balance": "You need to have a pocket watcher badge to view this.", "badges": [], "created_at": "2025-06-16T19:10:07.770-04:00", "updated_at": "2025-07-03T19:27:17.490-04:00", "avatar": "https://avatars.slack-edge.com/2025-06-19/9085603419505_0168300d9d6fe2185959_original.jpg", "custom_css": null}, {"id": 3520, "slack_id": "U092CFB9PA4", "display_name": "Kevin Tan", "bio": null, "projects_count": 0, "devlogs_count": 0, "votes_count": 0, "ships_count": 0, "projects": [], "coding_time_seconds": 0, "coding_time_seconds_today": 0, "balance": "You need to have a pocket watcher badge to view this.", "badges": [], "created_at": "2025-06-16T19:10:17.844-04:00", "updated_at": "2025-07-03T19:27:17.748-04:00", "avatar": "https://secure.gravatar.com/avatar/b1adf804640ee69924337fec38809a3f.jpg?s=512&d=https%3A%2F%2Fa.slack-edge.com%2Fdf10d%2Fimg%2Favatars%2Fava_0025-512.png", "custom_css": null}], "pagination": {"page": 176, "pages": 1192, "count": 23828, "items": 20}}