{"users": [{"id": 3541, "slack_id": "U091J3K4ZDZ", "display_name": "Emilia Lupean", "bio": null, "projects_count": 0, "devlogs_count": 0, "votes_count": 0, "ships_count": 0, "projects": [], "coding_time_seconds": 0, "coding_time_seconds_today": 0, "balance": "You need to have a pocket watcher badge to view this.", "badges": [], "created_at": "2025-06-16T19:14:24.661-04:00", "updated_at": "2025-07-03T19:27:23.432-04:00", "avatar": "https://secure.gravatar.com/avatar/6cfb7596e501ab0c0775f3f7fe699907.jpg?s=512&d=https%3A%2F%2Fa.slack-edge.com%2Fdf10d%2Fimg%2Favatars%2Fava_0023-512.png", "custom_css": null}, {"id": 3542, "slack_id": "U091JBJDZL6", "display_name": "Laura Coelho", "bio": null, "projects_count": 0, "devlogs_count": 0, "votes_count": 0, "ships_count": 0, "projects": [], "coding_time_seconds": 0, "coding_time_seconds_today": 0, "balance": "You need to have a pocket watcher badge to view this.", "badges": [], "created_at": "2025-06-16T19:14:35.172-04:00", "updated_at": "2025-07-03T19:27:23.700-04:00", "avatar": "https://secure.gravatar.com/avatar/dde3e08155c8e8a63e31b99dde5af2ef.jpg?s=512&d=https%3A%2F%2Fa.slack-edge.com%2Fdf10d%2Fimg%2Favatars%2Fava_0000-512.png", "custom_css": null}, {"id": 3543, "slack_id": "U081RDTKN5D", "display_name": "Erin", "bio": null, "projects_count": 0, "devlogs_count": 0, "votes_count": 0, "ships_count": 0, "projects": [], "coding_time_seconds": 28680, "coding_time_seconds_today": 0, "balance": "You need to have a pocket watcher badge to view this.", "badges": [], "created_at": "2025-06-16T19:14:36.519-04:00", "updated_at": "2025-07-08T23:16:04.185-04:00", "avatar": "https://avatars.slack-edge.com/2025-06-10/9031878616658_eb8844185f0fb579176f_original.jpg", "custom_css": null}, {"id": 3544, "slack_id": "U091J8EG8KD", "display_name": "Mehmet", "bio": null, "projects_count": 0, "devlogs_count": 0, "votes_count": 0, "ships_count": 0, "projects": [], "coding_time_seconds": 0, "coding_time_seconds_today": 0, "balance": "You need to have a pocket watcher badge to view this.", "badges": [], "created_at": "2025-06-16T19:15:01.265-04:00", "updated_at": "2025-07-03T19:27:24.226-04:00", "avatar": "https://secure.gravatar.com/avatar/cdbae8229950c04928eb6402126f1601.jpg?s=512&d=https%3A%2F%2Fa.slack-edge.com%2Fdf10d%2Fimg%2Favatars%2Fava_0023-512.png", "custom_css": null}, {"id": 3545, "slack_id": "U091PC9TM61", "display_name": "Arthur Berti Petersen Scholze", "bio": null, "projects_count": 0, "devlogs_count": 0, "votes_count": 0, "ships_count": 0, "projects": [], "coding_time_seconds": 0, "coding_time_seconds_today": 0, "balance": "You need to have a pocket watcher badge to view this.", "badges": [], "created_at": "2025-06-16T19:15:02.860-04:00", "updated_at": "2025-07-03T19:27:24.485-04:00", "avatar": "https://secure.gravatar.com/avatar/79b532d5443d24ded9d2200f2bf96f62.jpg?s=512&d=https%3A%2F%2Fa.slack-edge.com%2Fdf10d%2Fimg%2Favatars%2Fava_0010-512.png", "custom_css": null}, {"id": 3546, "slack_id": "U0822M1FAMB", "display_name": "Hong Yu Lai", "bio": null, "projects_count": 2, "devlogs_count": 7, "votes_count": 38, "ships_count": 2, "projects": [{"id": 3791, "title": "RollWise", "devlogs_count": 2, "created_at": "2025-06-25T19:13:15.577-04:00"}, {"id": 13582, "title": "Koko Student Life Management Portal", "devlogs_count": 5, "created_at": "2025-09-20T03:38:47.527-04:00"}], "coding_time_seconds": 329550, "coding_time_seconds_today": 949, "balance": "You need to have a pocket watcher badge to view this.", "badges": [{"name": "Maiden Voyage", "text": "you shipped your first project! the journey begins...", "icon": "\ud83d\udea2"}], "created_at": "2025-06-16T19:15:51.508-04:00", "updated_at": "2025-09-10T22:52:55.276-04:00", "avatar": "https://avatars.slack-edge.com/2025-06-26/9104354806901_8dfc527dcb9966be6630_original.png", "custom_css": null}, {"id": 3547, "slack_id": "U08FQEADNT0", "display_name": "OrigamiKing3612", "bio": "", "projects_count": 7, "devlogs_count": 56, "votes_count": 253, "ships_count": 5, "projects": [{"id": 459, "title": "Terminal Kingdom 2.0", "devlogs_count": 20, "created_at": "2025-06-16T22:18:51.438-04:00"}, {"id": 9143, "title": "Vulnerable Linux images", "devlogs_count": 0, "created_at": "2025-07-30T18:48:57.583-04:00"}, {"id": 12637, "title": "Origami Systems Website", "devlogs_count": 0, "created_at": "2025-08-30T19:55:56.264-04:00"}, {"id": 7413, "title": "My dotfiles", "devlogs_count": 7, "created_at": "2025-07-21T17:32:45.812-04:00"}, {"id": 460, "title": "Terminal Kingdom", "devlogs_count": 1, "created_at": "2025-06-16T22:22:24.528-04:00"}, {"id": 6332, "title": "The House App", "devlogs_count": 25, "created_at": "2025-07-12T11:58:16.329-04:00"}, {"id": 11902, "title": "My Personal Website", "devlogs_count": 3, "created_at": "2025-08-20T22:50:13.125-04:00"}], "coding_time_seconds": 1362209, "coding_time_seconds_today": 0, "balance": "You need to have a pocket watcher badge to view this.", "badges": [{"name": "Maiden Voyage", "text": "you shipped your first project! the journey begins...", "icon": "\ud83d\udea2"}, {"name": "Ballot Stuffer", "text": "vote 100 times.", "icon": "https://summer.hackclub.com/assets/i_voted-bf851b48.png"}], "created_at": "2025-06-16T19:15:52.323-04:00", "updated_at": "2025-09-10T22:52:55.309-04:00", "avatar": "https://secure.gravatar.com/avatar/fcea678228cec5ddcfe7deb46411693d.jpg?s=512&d=https%3A%2F%2Fa.slack-edge.com%2Fdf10d%2Fimg%2Favatars%2Fava_0005-512.png", "custom_css": null}, {"id": 3548, "slack_id": "U07A6JX3N0P", "display_name": "Sehaj Singh", "bio": null, "projects_count": 1, "devlogs_count": 0, "votes_count": 0, "ships_count": 0, "projects": [{"id": 967, "title": "SBFabric", "devlogs_count": 0, "created_at": "2025-06-17T12:29:45.391-04:00"}], "coding_time_seconds": 22760, "coding_time_seconds_today": 0, "balance": "You need to have a pocket watcher badge to view this.", "badges": [], "created_at": "2025-06-16T19:16:03.269-04:00", "updated_at": "2025-07-03T19:27:25.288-04:00", "avatar": "https://avatars.slack-edge.com/2024-07-01/7346645038199_f6837c41381268a2ef98_original.png", "custom_css": null}, {"id": 3549, "slack_id": "U091PCLU6KX", "display_name": "deep", "bio": null, "projects_count": 0, "devlogs_count": 0, "votes_count": 0, "ships_count": 0, "projects": [], "coding_time_seconds": 0, "coding_time_seconds_today": 0, "balance": "You need to have a pocket watcher badge to view this.", "badges": [], "created_at": "2025-06-16T19:16:24.560-04:00", "updated_at": "2025-07-03T19:27:25.559-04:00", "avatar": "https://secure.gravatar.com/avatar/f1fa2d6c3d5ec5dbe264506616ac3609.jpg?s=512&d=https%3A%2F%2Fa.slack-edge.com%2Fdf10d%2Fimg%2Favatars%2Fava_0015-512.png", "custom_css": null}, {"id": 3550, "slack_id": "U07CYB7UFV4", "display_name": "Anay Prabhakar", "bio": null, "projects_count": 0, "devlogs_count": 0, "votes_count": 0, "ships_count": 0, "projects": [], "coding_time_seconds": 0, "coding_time_seconds_today": 0, "balance": "You need to have a pocket watcher badge to view this.", "badges": [], "created_at": "2025-06-16T19:16:28.143-04:00", "updated_at": "2025-07-03T19:27:25.825-04:00", "avatar": "https://avatars.slack-edge.com/2024-07-18/7440383098406_8bac353af4f5fac89bab_original.png", "custom_css": null}, {"id": 3551, "slack_id": "U07F5NKTZ54", "display_name": "MinaSayed", "bio": null, "projects_count": 0, "devlogs_count": 0, "votes_count": 0, "ships_count": 0, "projects": [], "coding_time_seconds": 0, "coding_time_seconds_today": 0, "balance": "You need to have a pocket watcher badge to view this.", "badges": [], "created_at": "2025-06-16T19:16:49.279-04:00", "updated_at": "2025-07-03T19:27:26.094-04:00", "avatar": "https://secure.gravatar.com/avatar/849423256a8c2e473005f50b1f4c85e0.jpg?s=512&d=https%3A%2F%2Fa.slack-edge.com%2Fdf10d%2Fimg%2Favatars%2Fava_0018-512.png", "custom_css": null}, {"id": 3552, "slack_id": "U0923ND573K", "display_name": "Marwan", "bio": null, "projects_count": 0, "devlogs_count": 0, "votes_count": 0, "ships_count": 0, "projects": [], "coding_time_seconds": 0, "coding_time_seconds_today": 0, "balance": "You need to have a pocket watcher badge to view this.", "badges": [], "created_at": "2025-06-16T19:17:02.219-04:00", "updated_at": "2025-07-03T19:27:26.356-04:00", "avatar": "https://secure.gravatar.com/avatar/2ccd434092caf3a88d9b3b613ac35d00.jpg?s=512&d=https%3A%2F%2Fa.slack-edge.com%2Fdf10d%2Fimg%2Favatars%2Fava_0001-512.png", "custom_css": null}, {"id": 3553, "slack_id": "U091PBD8145", "display_name": "Matthew Lynn", "bio": null, "projects_count": 0, "devlogs_count": 0, "votes_count": 0, "ships_count": 0, "projects": [], "coding_time_seconds": 0, "coding_time_seconds_today": 0, "balance": "You need to have a pocket watcher badge to view this.", "badges": [], "created_at": "2025-06-16T19:17:33.311-04:00", "updated_at": "2025-07-03T19:27:26.611-04:00", "avatar": "https://secure.gravatar.com/avatar/bc501417072a4045fdfa4e47414d7411.jpg?s=512&d=https%3A%2F%2Fa.slack-edge.com%2Fdf10d%2Fimg%2Favatars%2Fava_0009-512.png", "custom_css": null}, {"id": 3554, "slack_id": "U0923NF15BK", "display_name": "\uac15\ud574", "bio": null, "projects_count": 0, "devlogs_count": 0, "votes_count": 0, "ships_count": 0, "projects": [], "coding_time_seconds": 0, "coding_time_seconds_today": 0, "balance": "You need to have a pocket watcher badge to view this.", "badges": [], "created_at": "2025-06-16T19:17:46.954-04:00", "updated_at": "2025-07-03T19:27:26.890-04:00", "avatar": "https://secure.gravatar.com/avatar/1490f030b4eb9dd46560409507adb4ae.jpg?s=512&d=https%3A%2F%2Fa.slack-edge.com%2Fdf10d%2Fimg%2Favatars%2Fava_0000-512.png", "custom_css": null}, {"id": 3555, "slack_id": "U07BDQP6XLH", "display_name": "Chaos", "bio": null, "projects_count": 2, "devlogs_count": 1, "votes_count": 9, "ships_count": 1, "projects": [{"id": 13209, "title": "ML Models", "devlogs_count": 0, "created_at": "2025-09-11T17:54:03.960-04:00"}, {"id": 12178, "title": "Fury Engine", "devlogs_count": 1, "created_at": "2025-08-24T02:22:32.663-04:00"}], "coding_time_seconds": 233853, "coding_time_seconds_today": 0, "balance": "You need to have a pocket watcher badge to view this.", "badges": [{"name": "Maiden Voyage", "text": "you shipped your first project! the journey begins...", "icon": "\ud83d\udea2"}], "created_at": "2025-06-16T19:18:14.834-04:00", "updated_at": "2025-09-10T22:52:55.488-04:00", "avatar": "https://avatars.slack-edge.com/2024-08-31/7671920090945_b3edf2aa8a5ed6cb2333_original.jpg", "custom_css": null}, {"id": 3556, "slack_id": "U089DDUG03X", "display_name": "awsome-webdev", "bio": null, "projects_count": 1, "devlogs_count": 14, "votes_count": 13, "ships_count": 1, "projects": [{"id": 1166, "title": "Open Cloud", "devlogs_count": 14, "created_at": "2025-06-17T19:47:39.806-04:00"}], "coding_time_seconds": 196867, "coding_time_seconds_today": 0, "balance": "You need to have a pocket watcher badge to view this.", "badges": [{"name": "Maiden Voyage", "text": "you shipped your first project! the journey begins...", "icon": "\ud83d\udea2"}], "created_at": "2025-06-16T19:19:06.087-04:00", "updated_at": "2025-09-10T22:52:55.519-04:00", "avatar": "https://avatars.slack-edge.com/2025-02-07/8406330816295_63b7b8ef68aa940756cc_original.png", "custom_css": null}, {"id": 3557, "slack_id": "U092DGJLTDE", "display_name": "Yinlin Chen", "bio": null, "projects_count": 0, "devlogs_count": 0, "votes_count": 0, "ships_count": 0, "projects": [], "coding_time_seconds": 194, "coding_time_seconds_today": 0, "balance": "You need to have a pocket watcher badge to view this.", "badges": [], "created_at": "2025-06-16T19:19:06.818-04:00", "updated_at": "2025-07-03T19:27:27.609-04:00", "avatar": "https://secure.gravatar.com/avatar/1d2a87f5e6a357f4cfbfe28673c56d2e.jpg?s=512&d=https%3A%2F%2Fa.slack-edge.com%2Fdf10d%2Fimg%2Favatars%2Fava_0002-512.png", "custom_css": null}, {"id": 3558, "slack_id": "U091JCEV954", "display_name": "Aidan", "bio": null, "projects_count": 0, "devlogs_count": 0, "votes_count": 0, "ships_count": 0, "projects": [], "coding_time_seconds": 1396, "coding_time_seconds_today": 0, "balance": "You need to have a pocket watcher badge to view this.", "badges": [], "created_at": "2025-06-16T19:20:04.133-04:00", "updated_at": "2025-07-03T19:27:27.892-04:00", "avatar": "https://secure.gravatar.com/avatar/2a5486de8cd078556d3d315e661feecd.jpg?s=512&d=https%3A%2F%2Fa.slack-edge.com%2Fdf10d%2Fimg%2Favatars%2Fava_0008-512.png", "custom_css": null}, {"id": 3559, "slack_id": "U0830LP1AE7", "display_name": "PyroProtato", "bio": null, "projects_count": 3, "devlogs_count": 16, "votes_count": 39, "ships_count": 2, "projects": [{"id": 4144, "title": "Journey to Java Game Development", "devlogs_count": 0, "created_at": "2025-06-27T19:53:06.520-04:00"}, {"id": 4437, "title": "Godot Starter Project", "devlogs_count": 3, "created_at": "2025-06-29T21:03:32.481-04:00"}, {"id": 6496, "title": "Surviving the Waves", "devlogs_count": 13, "created_at": "2025-07-13T20:40:15.279-04:00"}], "coding_time_seconds": 288372, "coding_time_seconds_today": 0, "balance": "You need to have a pocket watcher badge to view this.", "badges": [{"name": "Maiden Voyage", "text": "you shipped your first project! the journey begins...", "icon": "\ud83d\udea2"}], "created_at": "2025-06-16T19:20:27.023-04:00", "updated_at": "2025-09-10T22:52:55.614-04:00", "avatar": "https://secure.gravatar.com/avatar/fbfa726af2703f579b3c8d54fc97a634.jpg?s=512&d=https%3A%2F%2Fa.slack-edge.com%2Fdf10d%2Fimg%2Favatars%2Fava_0014-512.png", "custom_css": null}, {"id": 3560, "slack_id": "U0923NJMNTB", "display_name": "Rhys Pounder", "bio": null, "projects_count": 1, "devlogs_count": 1, "votes_count": 0, "ships_count": 0, "projects": [{"id": 950, "title": "Multi-Region Disaster Recovery", "devlogs_count": 1, "created_at": "2025-06-17T12:11:08.641-04:00"}], "coding_time_seconds": 22223, "coding_time_seconds_today": 0, "balance": "You need to have a pocket watcher badge to view this.", "badges": [], "created_at": "2025-06-16T19:20:34.546-04:00", "updated_at": "2025-07-03T19:27:28.335-04:00", "avatar": "https://secure.gravatar.com/avatar/73428e117c04a7ec9a9d9f31e149f170.jpg?s=512&d=https%3A%2F%2Fa.slack-edge.com%2Fdf10d%2Fimg%2Favatars%2Fava_0018-512.png", "custom_css": null}], "pagination": {"page": 178, "pages": 1192, "count": 23828, "items": 20}}