{"users": [{"id": 3561, "slack_id": "U091RGJ4TS8", "display_name": "Sara Raquel", "bio": null, "projects_count": 0, "devlogs_count": 0, "votes_count": 0, "ships_count": 0, "projects": [], "coding_time_seconds": 13334, "coding_time_seconds_today": 0, "balance": "You need to have a pocket watcher badge to view this.", "badges": [], "created_at": "2025-06-16T19:20:39.996-04:00", "updated_at": "2025-07-03T19:27:28.638-04:00", "avatar": "https://avatars.slack-edge.com/2025-06-16/9043898499703_ba86c90829093d9a2b0d_original.jpg", "custom_css": null}, {"id": 3562, "slack_id": "U091PCYV82Z", "display_name": "fujicsso", "bio": null, "projects_count": 0, "devlogs_count": 0, "votes_count": 0, "ships_count": 0, "projects": [], "coding_time_seconds": 347, "coding_time_seconds_today": 0, "balance": "You need to have a pocket watcher badge to view this.", "badges": [], "created_at": "2025-06-16T19:20:43.690-04:00", "updated_at": "2025-07-03T19:27:28.916-04:00", "avatar": "https://secure.gravatar.com/avatar/00360ee9ccf8f5eb608d4e400a3c7777.jpg?s=512&d=https%3A%2F%2Fa.slack-edge.com%2Fdf10d%2Fimg%2Favatars%2Fava_0015-512.png", "custom_css": null}, {"id": 3563, "slack_id": "U0785BZ20G7", "display_name": "Max", "bio": null, "projects_count": 0, "devlogs_count": 0, "votes_count": 0, "ships_count": 0, "projects": [], "coding_time_seconds": 0, "coding_time_seconds_today": 0, "balance": "You need to have a pocket watcher badge to view this.", "badges": [], "created_at": "2025-06-16T19:21:01.350-04:00", "updated_at": "2025-07-03T19:27:29.185-04:00", "avatar": "https://avatars.slack-edge.com/2024-06-18/7296505156787_5c97f47093015b9db20c_original.jpg", "custom_css": null}, {"id": 3564, "slack_id": "U0918BDHXAT", "display_name": "Rich Carvalho", "bio": null, "projects_count": 0, "devlogs_count": 0, "votes_count": 0, "ships_count": 0, "projects": [], "coding_time_seconds": 0, "coding_time_seconds_today": 0, "balance": "You need to have a pocket watcher badge to view this.", "badges": [], "created_at": "2025-06-16T19:21:16.903-04:00", "updated_at": "2025-07-03T19:27:29.441-04:00", "avatar": "https://avatars.slack-edge.com/2025-06-16/9052314086467_74b8452aa3a8ceb720e9_original.jpg", "custom_css": null}, {"id": 3565, "slack_id": "U091PCWGNBX", "display_name": "Karman Chhatwal", "bio": null, "projects_count": 2, "devlogs_count": 3, "votes_count": 6, "ships_count": 0, "projects": [{"id": 2558, "title": "Volume", "devlogs_count": 1, "created_at": "2025-06-21T10:15:49.737-04:00"}, {"id": 2927, "title": "Filter", "devlogs_count": 2, "created_at": "2025-06-22T13:33:16.800-04:00"}], "coding_time_seconds": 12408, "coding_time_seconds_today": 0, "balance": "You need to have a pocket watcher badge to view this.", "badges": [], "created_at": "2025-06-16T19:21:31.525-04:00", "updated_at": "2025-07-03T19:27:29.712-04:00", "avatar": "https://avatars.slack-edge.com/2025-06-16/9071784869457_4fd10533ef20b9eade75_original.jpg", "custom_css": null}, {"id": 3566, "slack_id": "U091JCKFRQE", "display_name": "Max", "bio": null, "projects_count": 0, "devlogs_count": 0, "votes_count": 0, "ships_count": 0, "projects": [], "coding_time_seconds": 0, "coding_time_seconds_today": 0, "balance": "You need to have a pocket watcher badge to view this.", "badges": [], "created_at": "2025-06-16T19:21:48.954-04:00", "updated_at": "2025-07-03T19:27:29.979-04:00", "avatar": "https://secure.gravatar.com/avatar/edbbb5cdbb5e1350ca0a5ef843089514.jpg?s=512&d=https%3A%2F%2Fa.slack-edge.com%2Fdf10d%2Fimg%2Favatars%2Fava_0015-512.png", "custom_css": null}, {"id": 3567, "slack_id": "U08QN03V9E2", "display_name": "poin", "bio": null, "projects_count": 1, "devlogs_count": 0, "votes_count": 1, "ships_count": 0, "projects": [{"id": 4249, "title": "scheduform", "devlogs_count": 0, "created_at": "2025-06-28T13:13:14.700-04:00"}], "coding_time_seconds": 31409, "coding_time_seconds_today": 0, "balance": "You need to have a pocket watcher badge to view this.", "badges": [], "created_at": "2025-06-16T19:21:52.134-04:00", "updated_at": "2025-07-03T19:27:30.258-04:00", "avatar": "https://secure.gravatar.com/avatar/6fe5eded64b791654e458a1b9145c476.jpg?s=512&d=https%3A%2F%2Fa.slack-edge.com%2Fdf10d%2Fimg%2Favatars%2Fava_0015-512.png", "custom_css": null}, {"id": 3568, "slack_id": "U092DJYCJMN", "display_name": "Okakajp25", "bio": null, "projects_count": 0, "devlogs_count": 0, "votes_count": 0, "ships_count": 0, "projects": [], "coding_time_seconds": 0, "coding_time_seconds_today": 0, "balance": "You need to have a pocket watcher badge to view this.", "badges": [], "created_at": "2025-06-16T19:22:00.942-04:00", "updated_at": "2025-07-03T19:27:30.526-04:00", "avatar": "https://secure.gravatar.com/avatar/94007b64b87f04351c623182fade3d2b.jpg?s=512&d=https%3A%2F%2Fa.slack-edge.com%2Fdf10d%2Fimg%2Favatars%2Fava_0001-512.png", "custom_css": null}, {"id": 3569, "slack_id": "U091PD334R3", "display_name": "poteto", "bio": null, "projects_count": 0, "devlogs_count": 0, "votes_count": 0, "ships_count": 0, "projects": [], "coding_time_seconds": 0, "coding_time_seconds_today": 0, "balance": "You need to have a pocket watcher badge to view this.", "badges": [], "created_at": "2025-06-16T19:22:29.508-04:00", "updated_at": "2025-07-03T19:27:30.797-04:00", "avatar": "https://secure.gravatar.com/avatar/5e34d0bdda0c607144b7433f7763272e.jpg?s=512&d=https%3A%2F%2Fa.slack-edge.com%2Fdf10d%2Fimg%2Favatars%2Fava_0014-512.png", "custom_css": null}, {"id": 3570, "slack_id": "U078GC2JT53", "display_name": "Adelin", "bio": null, "projects_count": 2, "devlogs_count": 7, "votes_count": 10, "ships_count": 0, "projects": [{"id": 10972, "title": "AIPlugin", "devlogs_count": 1, "created_at": "2025-08-12T05:45:14.474-04:00"}, {"id": 11011, "title": "hackacode", "devlogs_count": 6, "created_at": "2025-08-12T11:15:53.345-04:00"}], "coding_time_seconds": 487562, "coding_time_seconds_today": 0, "balance": "You need to have a pocket watcher badge to view this.", "badges": [], "created_at": "2025-06-16T19:22:43.431-04:00", "updated_at": "2025-08-07T02:39:30.353-04:00", "avatar": "https://avatars.slack-edge.com/2025-07-09/9185971382913_889b7351b7d619cd8731_original.png", "custom_css": null}, {"id": 3571, "slack_id": "U091RGTA4G4", "display_name": "Aakash Dahal", "bio": null, "projects_count": 0, "devlogs_count": 0, "votes_count": 0, "ships_count": 0, "projects": [], "coding_time_seconds": 0, "coding_time_seconds_today": 0, "balance": "You need to have a pocket watcher badge to view this.", "badges": [], "created_at": "2025-06-16T19:23:19.272-04:00", "updated_at": "2025-07-03T19:27:31.385-04:00", "avatar": "https://avatars.slack-edge.com/2025-06-17/9073032180913_256a6f3f52eada1ad277_original.jpg", "custom_css": null}, {"id": 3572, "slack_id": "U091JCQR6VC", "display_name": "lorenzosharkies", "bio": null, "projects_count": 0, "devlogs_count": 0, "votes_count": 0, "ships_count": 0, "projects": [], "coding_time_seconds": 132, "coding_time_seconds_today": 0, "balance": "You need to have a pocket watcher badge to view this.", "badges": [], "created_at": "2025-06-16T19:23:45.794-04:00", "updated_at": "2025-07-03T19:27:31.676-04:00", "avatar": "https://secure.gravatar.com/avatar/36ef4866d0f5609536b6970017089f4f.jpg?s=512&d=https%3A%2F%2Fa.slack-edge.com%2Fdf10d%2Fimg%2Favatars%2Fava_0018-512.png", "custom_css": null}, {"id": 3573, "slack_id": "U091RF86L84", "display_name": "Applee", "bio": null, "projects_count": 14, "devlogs_count": 24, "votes_count": 92, "ships_count": 13, "projects": [{"id": 5790, "title": "Movie-App", "devlogs_count": 1, "created_at": "2025-07-08T02:08:19.486-04:00"}, {"id": 3128, "title": "Gemini-clone", "devlogs_count": 2, "created_at": "2025-06-23T07:09:33.983-04:00"}, {"id": 5292, "title": "Weather App", "devlogs_count": 1, "created_at": "2025-07-04T09:05:02.033-04:00"}, {"id": 6688, "title": "Amazon Clone", "devlogs_count": 1, "created_at": "2025-07-15T06:03:02.948-04:00"}, {"id": 10418, "title": "Text-To-Speech", "devlogs_count": 1, "created_at": "2025-08-06T20:29:10.249-04:00"}, {"id": 10805, "title": "Age Calculator", "devlogs_count": 2, "created_at": "2025-08-11T02:01:20.518-04:00"}, {"id": 11214, "title": "Collage/University Website", "devlogs_count": 1, "created_at": "2025-08-14T05:03:02.441-04:00"}, {"id": 11215, "title": "Lebron James Clicker Game", "devlogs_count": 1, "created_at": "2025-08-14T05:09:58.522-04:00"}, {"id": 5428, "title": "Crypto App ", "devlogs_count": 3, "created_at": "2025-07-05T08:42:50.876-04:00"}, {"id": 9725, "title": "Food App", "devlogs_count": 2, "created_at": "2025-08-02T05:24:47.497-04:00"}, {"id": 7462, "title": "News Aggregator", "devlogs_count": 1, "created_at": "2025-07-21T21:55:07.870-04:00"}, {"id": 10422, "title": "Image Search App", "devlogs_count": 2, "created_at": "2025-08-06T21:43:09.996-04:00"}, {"id": 11212, "title": "QR Code Generator", "devlogs_count": 1, "created_at": "2025-08-14T04:59:09.035-04:00"}, {"id": 12106, "title": "Quote generator ", "devlogs_count": 5, "created_at": "2025-08-23T06:03:45.846-04:00"}], "coding_time_seconds": 169344, "coding_time_seconds_today": 0, "balance": "You need to have a pocket watcher badge to view this.", "badges": [{"name": "Maiden Voyage", "text": "you shipped your first project! the journey begins...", "icon": "\ud83d\udea2"}, {"name": "Ballot Stuffer", "text": "vote 100 times.", "icon": "https://summer.hackclub.com/assets/i_voted-bf851b48.png"}], "created_at": "2025-06-16T19:23:52.669-04:00", "updated_at": "2025-09-10T22:52:56.041-04:00", "avatar": "https://secure.gravatar.com/avatar/91f40fe85fff030c3753404822556ff6.jpg?s=512&d=https%3A%2F%2Fa.slack-edge.com%2Fdf10d%2Fimg%2Favatars%2Fava_0014-512.png", "custom_css": null}, {"id": 3574, "slack_id": "U08GVDQBXHS", "display_name": "Aklavya Kumar", "bio": null, "projects_count": 2, "devlogs_count": 3, "votes_count": 0, "ships_count": 0, "projects": [{"id": 1509, "title": "ABC's of biology", "devlogs_count": 0, "created_at": "2025-06-18T16:51:01.174-04:00"}, {"id": 1633, "title": "CodeMentor", "devlogs_count": 3, "created_at": "2025-06-18T22:18:01.173-04:00"}], "coding_time_seconds": 166119, "coding_time_seconds_today": 0, "balance": "You need to have a pocket watcher badge to view this.", "badges": [], "created_at": "2025-06-16T19:24:12.826-04:00", "updated_at": "2025-08-07T23:33:45.630-04:00", "avatar": "https://avatars.slack-edge.com/2025-03-07/8593369837648_a8cca792decfea8097a6_original.jpg", "custom_css": null}, {"id": 3575, "slack_id": "U091RGXQBPE", "display_name": "Sebasti\u00e1n", "bio": null, "projects_count": 0, "devlogs_count": 0, "votes_count": 0, "ships_count": 0, "projects": [], "coding_time_seconds": 69, "coding_time_seconds_today": 0, "balance": "You need to have a pocket watcher badge to view this.", "badges": [], "created_at": "2025-06-16T19:24:47.640-04:00", "updated_at": "2025-07-03T19:27:32.478-04:00", "avatar": "https://secure.gravatar.com/avatar/e39805e7dabc6b2737c9e910c4a48a4d.jpg?s=512&d=https%3A%2F%2Fa.slack-edge.com%2Fdf10d%2Fimg%2Favatars%2Fava_0003-512.png", "custom_css": null}, {"id": 3576, "slack_id": "U091J95DWLB", "display_name": "Ren\u00e9 Sandoval", "bio": null, "projects_count": 0, "devlogs_count": 0, "votes_count": 0, "ships_count": 0, "projects": [], "coding_time_seconds": 0, "coding_time_seconds_today": 0, "balance": "You need to have a pocket watcher badge to view this.", "badges": [], "created_at": "2025-06-16T19:24:50.317-04:00", "updated_at": "2025-07-03T19:27:32.747-04:00", "avatar": "https://secure.gravatar.com/avatar/8900b602fc6bfaa31dbab27dce95394a.jpg?s=512&d=https%3A%2F%2Fa.slack-edge.com%2Fdf10d%2Fimg%2Favatars%2Fava_0002-512.png", "custom_css": null}, {"id": 3577, "slack_id": "U07DKE0C4BC", "display_name": "meronemo", "bio": null, "projects_count": 0, "devlogs_count": 0, "votes_count": 0, "ships_count": 0, "projects": [], "coding_time_seconds": 45161, "coding_time_seconds_today": 0, "balance": "You need to have a pocket watcher badge to view this.", "badges": [], "created_at": "2025-06-16T19:25:04.671-04:00", "updated_at": "2025-07-03T19:27:33.014-04:00", "avatar": "https://avatars.slack-edge.com/2024-09-18/7735013288422_d7d406b01e43c22c74a9_original.jpg", "custom_css": null}, {"id": 3578, "slack_id": "U082R5PDTA6", "display_name": "Spaceman11", "bio": null, "projects_count": 4, "devlogs_count": 48, "votes_count": 40, "ships_count": 2, "projects": [{"id": 390, "title": "SVG->Gcode Parser", "devlogs_count": 8, "created_at": "2025-06-16T19:56:35.381-04:00"}, {"id": 5978, "title": "Game", "devlogs_count": 3, "created_at": "2025-07-09T15:39:43.059-04:00"}, {"id": 9638, "title": "FRC game", "devlogs_count": 32, "created_at": "2025-08-02T00:37:28.883-04:00"}, {"id": 5249, "title": "Zelda Skyward Sword Game + Solver", "devlogs_count": 5, "created_at": "2025-07-04T01:52:59.555-04:00"}], "coding_time_seconds": 696915, "coding_time_seconds_today": 120, "balance": "You need to have a pocket watcher badge to view this.", "badges": [{"name": "Maiden Voyage", "text": "you shipped your first project! the journey begins...", "icon": "\ud83d\udea2"}], "created_at": "2025-06-16T19:25:05.204-04:00", "updated_at": "2025-09-10T22:52:56.181-04:00", "avatar": "https://avatars.slack-edge.com/2024-11-27/8087764186390_68578c5828bcfd9cec15_original.png", "custom_css": null}, {"id": 3579, "slack_id": "U092DKLT0FJ", "display_name": "Yashwani Patidar", "bio": null, "projects_count": 0, "devlogs_count": 0, "votes_count": 0, "ships_count": 0, "projects": [], "coding_time_seconds": 33670, "coding_time_seconds_today": 0, "balance": "You need to have a pocket watcher badge to view this.", "badges": [], "created_at": "2025-06-16T19:25:31.824-04:00", "updated_at": "2025-07-03T19:27:33.675-04:00", "avatar": "https://secure.gravatar.com/avatar/5e2ac6f3026eec9d86661c0d415062a8.jpg?s=512&d=https%3A%2F%2Fa.slack-edge.com%2Fdf10d%2Fimg%2Favatars%2Fava_0015-512.png", "custom_css": null}, {"id": 3580, "slack_id": "U091RH2DMT6", "display_name": "shafiq", "bio": null, "projects_count": 0, "devlogs_count": 0, "votes_count": 0, "ships_count": 0, "projects": [], "coding_time_seconds": 0, "coding_time_seconds_today": 0, "balance": "You need to have a pocket watcher badge to view this.", "badges": [], "created_at": "2025-06-16T19:25:53.951-04:00", "updated_at": "2025-07-03T19:27:34.015-04:00", "avatar": "https://secure.gravatar.com/avatar/da2abe1663fe3cdc0461a6994a561120.jpg?s=512&d=https%3A%2F%2Fa.slack-edge.com%2Fdf10d%2Fimg%2Favatars%2Fava_0010-512.png", "custom_css": null}], "pagination": {"page": 179, "pages": 1192, "count": 23828, "items": 20}}