{"users": [{"id": 341, "slack_id": "U091P6NFJ6Q", "display_name": "Md Gaziur Rahman Noor", "bio": null, "projects_count": 1, "devlogs_count": 3, "votes_count": 0, "ships_count": 0, "projects": [{"id": 671, "title": "STEMotion", "devlogs_count": 3, "created_at": "2025-06-17T04:59:51.435-04:00"}], "coding_time_seconds": 30186, "coding_time_seconds_today": 0, "balance": "You need to have a pocket watcher badge to view this.", "badges": [], "created_at": "2025-06-16T11:05:06.375-04:00", "updated_at": "2025-07-03T19:12:33.012-04:00", "avatar": "https://avatars.slack-edge.com/2025-06-16/9049812049891_669b8c2722735a7edae8_original.jpg", "custom_css": null}, {"id": 342, "slack_id": "U092B7V8V1N", "display_name": "Celestin Niyindagiriye", "bio": null, "projects_count": 0, "devlogs_count": 0, "votes_count": 0, "ships_count": 0, "projects": [], "coding_time_seconds": 0, "coding_time_seconds_today": 0, "balance": "You need to have a pocket watcher badge to view this.", "badges": [], "created_at": "2025-06-16T11:05:28.101-04:00", "updated_at": "2025-07-03T19:12:33.287-04:00", "avatar": "https://avatars.slack-edge.com/2025-06-16/9057253163828_e131bfc8545975e5c8b9_original.png", "custom_css": null}, {"id": 343, "slack_id": "U091NNS2L0J", "display_name": "Thomas B", "bio": null, "projects_count": 0, "devlogs_count": 0, "votes_count": 0, "ships_count": 0, "projects": [], "coding_time_seconds": 0, "coding_time_seconds_today": 0, "balance": "You need to have a pocket watcher badge to view this.", "badges": [], "created_at": "2025-06-16T11:05:45.209-04:00", "updated_at": "2025-07-03T19:12:33.561-04:00", "avatar": "https://secure.gravatar.com/avatar/472c22308deb60b9e1544b2b2c549a5e.jpg?s=512&d=https%3A%2F%2Fa.slack-edge.com%2Fdf10d%2Fimg%2Favatars%2Fava_0025-512.png", "custom_css": null}, {"id": 344, "slack_id": "U091NNVND6W", "display_name": "Nithinlycanz", "bio": null, "projects_count": 0, "devlogs_count": 0, "votes_count": 0, "ships_count": 0, "projects": [], "coding_time_seconds": 0, "coding_time_seconds_today": 0, "balance": "You need to have a pocket watcher badge to view this.", "badges": [], "created_at": "2025-06-16T11:06:07.326-04:00", "updated_at": "2025-07-03T19:12:33.844-04:00", "avatar": "https://secure.gravatar.com/avatar/bae5bdbbae9ad8cfc33bbe150a4673cc.jpg?s=512&d=https%3A%2F%2Fa.slack-edge.com%2Fdf10d%2Fimg%2Favatars%2Fava_0023-512.png", "custom_css": null}, {"id": 345, "slack_id": "U091FPPUKFV", "display_name": "Aleks Ganev", "bio": null, "projects_count": 0, "devlogs_count": 0, "votes_count": 0, "ships_count": 0, "projects": [], "coding_time_seconds": 5047, "coding_time_seconds_today": 0, "balance": "You need to have a pocket watcher badge to view this.", "badges": [], "created_at": "2025-06-16T11:06:13.348-04:00", "updated_at": "2025-07-03T19:12:34.112-04:00", "avatar": "https://secure.gravatar.com/avatar/1cb4260c8a4ab1635a716f8916e7bf53.jpg?s=512&d=https%3A%2F%2Fa.slack-edge.com%2Fdf10d%2Fimg%2Favatars%2Fava_0025-512.png", "custom_css": null}, {"id": 346, "slack_id": "U091P78DLQL", "display_name": "Alexis", "bio": null, "projects_count": 0, "devlogs_count": 0, "votes_count": 0, "ships_count": 0, "projects": [], "coding_time_seconds": 1072, "coding_time_seconds_today": 0, "balance": "You need to have a pocket watcher badge to view this.", "badges": [], "created_at": "2025-06-16T11:06:37.620-04:00", "updated_at": "2025-08-17T21:43:17.942-04:00", "avatar": "https://secure.gravatar.com/avatar/34f5cabf8bf25ac319c5f2ac95bb0a76.jpg?s=512&d=https%3A%2F%2Fa.slack-edge.com%2Fdf10d%2Fimg%2Favatars%2Fava_0002-512.png", "custom_css": null}, {"id": 347, "slack_id": "U07KFLQC92B", "display_name": "John Smith", "bio": null, "projects_count": 0, "devlogs_count": 0, "votes_count": 0, "ships_count": 0, "projects": [], "coding_time_seconds": 553802, "coding_time_seconds_today": 0, "balance": "You need to have a pocket watcher badge to view this.", "badges": [], "created_at": "2025-06-16T11:06:55.640-04:00", "updated_at": "2025-07-03T19:12:34.650-04:00", "avatar": "https://avatars.slack-edge.com/2024-09-04/7661707181415_ae5f30674d660950a78e_original.png", "custom_css": null}, {"id": 348, "slack_id": "U0921AEM6NM", "display_name": "Marcos Filho", "bio": null, "projects_count": 0, "devlogs_count": 0, "votes_count": 0, "ships_count": 0, "projects": [], "coding_time_seconds": 0, "coding_time_seconds_today": 0, "balance": "You need to have a pocket watcher badge to view this.", "badges": [], "created_at": "2025-06-16T11:07:00.043-04:00", "updated_at": "2025-07-03T19:12:34.914-04:00", "avatar": "https://avatars.slack-edge.com/2025-06-16/9041500770839_1f8a4ab438eb1c1e149e_original.jpg", "custom_css": null}, {"id": 349, "slack_id": "U07JZPQ7X7S", "display_name": "GENO", "bio": null, "projects_count": 2, "devlogs_count": 2, "votes_count": 20, "ships_count": 1, "projects": [{"id": 6153, "title": "Ask heroes", "devlogs_count": 1, "created_at": "2025-07-11T00:35:52.964-04:00"}, {"id": 2728, "title": "Terminal Meet Zone", "devlogs_count": 1, "created_at": "2025-06-21T21:30:31.547-04:00"}], "coding_time_seconds": 232166, "coding_time_seconds_today": 896, "balance": "You need to have a pocket watcher badge to view this.", "badges": [{"name": "Maiden Voyage", "text": "you shipped your first project! the journey begins...", "icon": "\ud83d\udea2"}], "created_at": "2025-06-16T11:07:22.297-04:00", "updated_at": "2025-09-10T22:51:17.752-04:00", "avatar": "https://avatars.slack-edge.com/2025-05-19/8932274718241_d02310d0d855f718e6c7_original.jpg", "custom_css": null}, {"id": 350, "slack_id": "U0819HCHZ5Y", "display_name": "Snowy", "bio": null, "projects_count": 0, "devlogs_count": 0, "votes_count": 0, "ships_count": 0, "projects": [], "coding_time_seconds": 176412, "coding_time_seconds_today": 0, "balance": "You need to have a pocket watcher badge to view this.", "badges": [], "created_at": "2025-06-16T11:07:28.571-04:00", "updated_at": "2025-07-03T19:12:35.467-04:00", "avatar": "https://avatars.slack-edge.com/2025-06-16/9049844130742_b31d8063b02fc1acd34d_original.jpg", "custom_css": null}, {"id": 351, "slack_id": "U091FN828G3", "display_name": "Sakib Dalal", "bio": null, "projects_count": 0, "devlogs_count": 0, "votes_count": 0, "ships_count": 0, "projects": [], "coding_time_seconds": 0, "coding_time_seconds_today": 0, "balance": "You need to have a pocket watcher badge to view this.", "badges": [], "created_at": "2025-06-16T11:07:46.078-04:00", "updated_at": "2025-07-03T19:12:35.756-04:00", "avatar": "https://avatars.slack-edge.com/2025-06-16/9057269296532_04fc0e9e2ad8904c0390_original.jpg", "custom_css": null}, {"id": 352, "slack_id": "U0921AKLT6V", "display_name": "abubakar179", "bio": null, "projects_count": 0, "devlogs_count": 0, "votes_count": 0, "ships_count": 0, "projects": [], "coding_time_seconds": 0, "coding_time_seconds_today": 0, "balance": "You need to have a pocket watcher badge to view this.", "badges": [], "created_at": "2025-06-16T11:08:34.042-04:00", "updated_at": "2025-07-30T20:00:41.064-04:00", "avatar": "https://secure.gravatar.com/avatar/02f7309a2f04d8ef4bcc20b1a1fbad82.jpg?s=512&d=https%3A%2F%2Fa.slack-edge.com%2Fdf10d%2Fimg%2Favatars%2Fava_0022-512.png", "custom_css": null}, {"id": 353, "slack_id": "U092B8ESE0Y", "display_name": "Jake", "bio": null, "projects_count": 0, "devlogs_count": 0, "votes_count": 0, "ships_count": 0, "projects": [], "coding_time_seconds": 0, "coding_time_seconds_today": 0, "balance": "You need to have a pocket watcher badge to view this.", "badges": [], "created_at": "2025-06-16T11:08:51.213-04:00", "updated_at": "2025-07-03T19:12:36.293-04:00", "avatar": "https://secure.gravatar.com/avatar/7995285072079a1fe4ed9222eea88f51.jpg?s=512&d=https%3A%2F%2Fa.slack-edge.com%2Fdf10d%2Fimg%2Favatars%2Fava_0012-512.png", "custom_css": null}, {"id": 354, "slack_id": "U091NPCPJ7L", "display_name": "kn 1337CI", "bio": null, "projects_count": 0, "devlogs_count": 0, "votes_count": 0, "ships_count": 0, "projects": [], "coding_time_seconds": 1420350, "coding_time_seconds_today": 278, "balance": "You need to have a pocket watcher badge to view this.", "badges": [], "created_at": "2025-06-16T11:09:00.121-04:00", "updated_at": "2025-08-09T22:01:24.186-04:00", "avatar": "https://avatars.slack-edge.com/2025-06-16/9057274012228_75ea15cd68b2640b8a7e_original.png", "custom_css": null}, {"id": 355, "slack_id": "U092B5E7A6L", "display_name": "Islam", "bio": null, "projects_count": 0, "devlogs_count": 0, "votes_count": 0, "ships_count": 0, "projects": [], "coding_time_seconds": 0, "coding_time_seconds_today": 0, "balance": "You need to have a pocket watcher badge to view this.", "badges": [], "created_at": "2025-06-16T11:09:20.496-04:00", "updated_at": "2025-07-03T19:12:36.842-04:00", "avatar": "https://secure.gravatar.com/avatar/e57525ce240cbb4c39257cd1c5687cf9.jpg?s=512&d=https%3A%2F%2Fa.slack-edge.com%2Fdf10d%2Fimg%2Favatars%2Fava_0013-512.png", "custom_css": null}, {"id": 356, "slack_id": "U091NPMSJR0", "display_name": "Pranav", "bio": null, "projects_count": 0, "devlogs_count": 0, "votes_count": 0, "ships_count": 0, "projects": [], "coding_time_seconds": 60200, "coding_time_seconds_today": 0, "balance": "You need to have a pocket watcher badge to view this.", "badges": [], "created_at": "2025-06-16T11:09:26.396-04:00", "updated_at": "2025-07-03T19:12:37.118-04:00", "avatar": "https://secure.gravatar.com/avatar/389cb8c4d5fa9300f6805c41c1afd300.jpg?s=512&d=https%3A%2F%2Fa.slack-edge.com%2Fdf10d%2Fimg%2Favatars%2Fava_0024-512.png", "custom_css": null}, {"id": 357, "slack_id": "U091FQAGVV1", "display_name": "Tabish Bin Ishfaq", "bio": null, "projects_count": 0, "devlogs_count": 0, "votes_count": 0, "ships_count": 0, "projects": [], "coding_time_seconds": 26465, "coding_time_seconds_today": 0, "balance": "You need to have a pocket watcher badge to view this.", "badges": [], "created_at": "2025-06-16T11:09:29.074-04:00", "updated_at": "2025-08-02T00:31:25.184-04:00", "avatar": "https://avatars.slack-edge.com/2025-06-16/9049946240726_552262158a2e548791e3_original.png", "custom_css": null}, {"id": 358, "slack_id": "U091P7M5LDS", "display_name": "Vishal Naik", "bio": null, "projects_count": 0, "devlogs_count": 0, "votes_count": 0, "ships_count": 0, "projects": [], "coding_time_seconds": 0, "coding_time_seconds_today": 0, "balance": "You need to have a pocket watcher badge to view this.", "badges": [], "created_at": "2025-06-16T11:09:33.125-04:00", "updated_at": "2025-07-03T19:12:37.664-04:00", "avatar": "https://avatars.slack-edge.com/2025-06-16/9079309434896_5a1983cf4d43aee0e016_original.png", "custom_css": null}, {"id": 359, "slack_id": "U07AWPLDA81", "display_name": "Doron", "bio": null, "projects_count": 0, "devlogs_count": 0, "votes_count": 0, "ships_count": 0, "projects": [], "coding_time_seconds": 4501, "coding_time_seconds_today": 0, "balance": "You need to have a pocket watcher badge to view this.", "badges": [], "created_at": "2025-06-16T11:11:25.571-04:00", "updated_at": "2025-07-03T19:12:37.941-04:00", "avatar": "https://secure.gravatar.com/avatar/3711402bd3ad9c75aa5306c527aa1e23.jpg?s=512&d=https%3A%2F%2Fa.slack-edge.com%2Fdf10d%2Fimg%2Favatars%2Fava_0023-512.png", "custom_css": null}, {"id": 360, "slack_id": "U091M170LRK", "display_name": "Matthias", "bio": null, "projects_count": 0, "devlogs_count": 0, "votes_count": 0, "ships_count": 0, "projects": [], "coding_time_seconds": 0, "coding_time_seconds_today": 0, "balance": "You need to have a pocket watcher badge to view this.", "badges": [], "created_at": "2025-06-16T11:11:58.991-04:00", "updated_at": "2025-07-03T19:12:38.204-04:00", "avatar": "https://secure.gravatar.com/avatar/4ca63e2ec7e5e75fd2518cfca9371cb2.jpg?s=512&d=https%3A%2F%2Fa.slack-edge.com%2Fdf10d%2Fimg%2Favatars%2Fava_0025-512.png", "custom_css": null}], "pagination": {"page": 18, "pages": 1192, "count": 23827, "items": 20}}