{"users": [{"id": 3581, "slack_id": "U07GY2UNCTB", "display_name": "iceice666 (Brian Duan)", "bio": null, "projects_count": 1, "devlogs_count": 1, "votes_count": 0, "ships_count": 0, "projects": [{"id": 11368, "title": "Noted", "devlogs_count": 0, "created_at": "2025-08-15T09:36:09.873-04:00"}], "coding_time_seconds": 308519, "coding_time_seconds_today": 0, "balance": "You need to have a pocket watcher badge to view this.", "badges": [], "created_at": "2025-06-16T19:26:04.362-04:00", "updated_at": "2025-08-15T09:33:49.677-04:00", "avatar": "https://avatars.slack-edge.com/2024-08-13/7564090951635_a70b0c0acd6703d5e980_original.jpg", "custom_css": null}, {"id": 3582, "slack_id": "U0919SLCU9M", "display_name": "Aroze", "bio": null, "projects_count": 1, "devlogs_count": 1, "votes_count": 0, "ships_count": 0, "projects": [{"id": 382, "title": "Snuggles", "devlogs_count": 1, "created_at": "2025-06-16T19:47:38.660-04:00"}], "coding_time_seconds": 305265, "coding_time_seconds_today": 120, "balance": "You need to have a pocket watcher badge to view this.", "badges": [], "created_at": "2025-06-16T19:26:04.974-04:00", "updated_at": "2025-08-21T12:19:05.749-04:00", "avatar": "https://secure.gravatar.com/avatar/904a8e2daa705debac89fb8eab7f6648.jpg?s=512&d=https%3A%2F%2Fa.slack-edge.com%2Fdf10d%2Fimg%2Favatars%2Fava_0007-512.png", "custom_css": null}, {"id": 3583, "slack_id": "U08R2K9KXC2", "display_name": "Mohammed Ebrahim Seada", "bio": null, "projects_count": 1, "devlogs_count": 2, "votes_count": 25, "ships_count": 1, "projects": [{"id": 11556, "title": "Dental Clinic Website", "devlogs_count": 2, "created_at": "2025-08-17T03:36:11.997-04:00"}], "coding_time_seconds": 113175, "coding_time_seconds_today": 0, "balance": "You need to have a pocket watcher badge to view this.", "badges": [{"name": "Maiden Voyage", "text": "you shipped your first project! the journey begins...", "icon": "\ud83d\udea2"}], "created_at": "2025-06-16T19:26:17.387-04:00", "updated_at": "2025-09-10T22:52:56.335-04:00", "avatar": "https://secure.gravatar.com/avatar/9949138663e152b86d603808dd151f83.jpg?s=512&d=https%3A%2F%2Fa.slack-edge.com%2Fdf10d%2Fimg%2Favatars%2Fava_0007-512.png", "custom_css": null}, {"id": 3584, "slack_id": "U0919SEKC7R", "display_name": "Kishen Shah", "bio": null, "projects_count": 0, "devlogs_count": 0, "votes_count": 0, "ships_count": 0, "projects": [], "coding_time_seconds": 0, "coding_time_seconds_today": 0, "balance": "You need to have a pocket watcher badge to view this.", "badges": [], "created_at": "2025-06-16T19:26:42.113-04:00", "updated_at": "2025-07-03T19:27:35.089-04:00", "avatar": "https://secure.gravatar.com/avatar/a7cb7d9a15608774876a290dd98e0281.jpg?s=512&d=https%3A%2F%2Fa.slack-edge.com%2Fdf10d%2Fimg%2Favatars%2Fava_0003-512.png", "custom_css": null}, {"id": 3585, "slack_id": "U091JCSGHM4", "display_name": "Kairui Cheng", "bio": "I turn bugs into code and code into bugs.", "projects_count": 3, "devlogs_count": 87, "votes_count": 164, "ships_count": 3, "projects": [{"id": 375, "title": "StatePulse", "devlogs_count": 74, "created_at": "2025-06-16T19:37:33.091-04:00"}, {"id": 6282, "title": "Tycoon", "devlogs_count": 8, "created_at": "2025-07-12T00:59:11.512-04:00"}, {"id": 6858, "title": "Anor", "devlogs_count": 5, "created_at": "2025-07-16T22:34:36.806-04:00"}], "coding_time_seconds": 543372, "coding_time_seconds_today": 0, "balance": "You need to have a pocket watcher badge to view this.", "badges": [{"name": "Maiden Voyage", "text": "you shipped your first project! the journey begins...", "icon": "\ud83d\udea2"}, {"name": "Ballot Stuffer", "text": "vote 100 times.", "icon": "https://summer.hackclub.com/assets/i_voted-bf851b48.png"}], "created_at": "2025-06-16T19:26:49.716-04:00", "updated_at": "2025-09-10T22:52:56.389-04:00", "avatar": "https://avatars.slack-edge.com/2025-06-16/9071799142561_c056e386ca59748e6e78_original.jpg", "custom_css": null}, {"id": 3586, "slack_id": "U091J9D1BUK", "display_name": "Oviya", "bio": null, "projects_count": 0, "devlogs_count": 0, "votes_count": 0, "ships_count": 0, "projects": [], "coding_time_seconds": 0, "coding_time_seconds_today": 0, "balance": "You need to have a pocket watcher badge to view this.", "badges": [], "created_at": "2025-06-16T19:27:47.405-04:00", "updated_at": "2025-07-03T19:27:35.622-04:00", "avatar": "https://secure.gravatar.com/avatar/0da9599cb84e554c493b3d75f35f6cb3.jpg?s=512&d=https%3A%2F%2Fa.slack-edge.com%2Fdf10d%2Fimg%2Favatars%2Fava_0017-512.png", "custom_css": null}, {"id": 3587, "slack_id": "U0923F33YMP", "display_name": "Mia Noy", "bio": null, "projects_count": 0, "devlogs_count": 0, "votes_count": 0, "ships_count": 0, "projects": [], "coding_time_seconds": 0, "coding_time_seconds_today": 0, "balance": "You need to have a pocket watcher badge to view this.", "badges": [], "created_at": "2025-06-16T19:28:30.816-04:00", "updated_at": "2025-07-03T19:27:35.883-04:00", "avatar": "https://secure.gravatar.com/avatar/9ef6fee10eb5680fc1eb497b7b235c39.jpg?s=512&d=https%3A%2F%2Fa.slack-edge.com%2Fdf10d%2Fimg%2Favatars%2Fava_0007-512.png", "custom_css": null}, {"id": 3588, "slack_id": "U091PPL8LAY", "display_name": "Garon", "bio": null, "projects_count": 1, "devlogs_count": 0, "votes_count": 0, "ships_count": 0, "projects": [{"id": 372, "title": "Battle Bot Neural Network", "devlogs_count": 0, "created_at": "2025-06-16T19:35:19.875-04:00"}], "coding_time_seconds": 61031, "coding_time_seconds_today": 0, "balance": "You need to have a pocket watcher badge to view this.", "badges": [], "created_at": "2025-06-16T19:28:52.889-04:00", "updated_at": "2025-07-03T19:27:36.154-04:00", "avatar": "https://avatars.slack-edge.com/2025-06-16/9059264774322_3cfc6aa0d6bcfd9241d5_original.jpg", "custom_css": null}, {"id": 3589, "slack_id": "U091PCSRR0V", "display_name": "Juan Gomez", "bio": null, "projects_count": 0, "devlogs_count": 0, "votes_count": 0, "ships_count": 0, "projects": [], "coding_time_seconds": 267868, "coding_time_seconds_today": 0, "balance": "You need to have a pocket watcher badge to view this.", "badges": [], "created_at": "2025-06-16T19:29:10.480-04:00", "updated_at": "2025-07-03T19:27:36.432-04:00", "avatar": "https://avatars.slack-edge.com/2025-06-16/9052379843123_092364f04be5007b904b_original.jpg", "custom_css": null}, {"id": 3590, "slack_id": "U091RH9CW1J", "display_name": "zzunipark", "bio": null, "projects_count": 0, "devlogs_count": 0, "votes_count": 0, "ships_count": 0, "projects": [], "coding_time_seconds": 0, "coding_time_seconds_today": 0, "balance": "You need to have a pocket watcher badge to view this.", "badges": [], "created_at": "2025-06-16T19:29:17.033-04:00", "updated_at": "2025-07-03T19:27:36.703-04:00", "avatar": "https://secure.gravatar.com/avatar/8e5b3f9617ff718fd5d6645b7af9c102.jpg?s=512&d=https%3A%2F%2Fa.slack-edge.com%2Fdf10d%2Fimg%2Favatars%2Fava_0004-512.png", "custom_css": null}, {"id": 3591, "slack_id": "U091J9KD37D", "display_name": "Taha CTW", "bio": null, "projects_count": 0, "devlogs_count": 0, "votes_count": 0, "ships_count": 0, "projects": [], "coding_time_seconds": 0, "coding_time_seconds_today": 0, "balance": "You need to have a pocket watcher badge to view this.", "badges": [], "created_at": "2025-06-16T19:29:39.260-04:00", "updated_at": "2025-07-03T19:27:36.977-04:00", "avatar": "https://avatars.slack-edge.com/2025-06-16/9071807218641_0bdf89718d26d0f340db_original.jpg", "custom_css": null}, {"id": 3592, "slack_id": "U081YKVH5D5", "display_name": "pranavvv", "bio": null, "projects_count": 0, "devlogs_count": 0, "votes_count": 0, "ships_count": 0, "projects": [], "coding_time_seconds": 20214, "coding_time_seconds_today": 0, "balance": "You need to have a pocket watcher badge to view this.", "badges": [], "created_at": "2025-06-16T19:29:44.194-04:00", "updated_at": "2025-09-15T11:25:15.261-04:00", "avatar": "https://avatars.slack-edge.com/2024-12-01/8104299145493_8b3859464cdf4dd2bf7b_original.jpg", "custom_css": null}, {"id": 3593, "slack_id": "U091RHENDL4", "display_name": "James", "bio": null, "projects_count": 0, "devlogs_count": 0, "votes_count": 0, "ships_count": 0, "projects": [], "coding_time_seconds": 0, "coding_time_seconds_today": 0, "balance": "You need to have a pocket watcher badge to view this.", "badges": [], "created_at": "2025-06-16T19:29:45.444-04:00", "updated_at": "2025-07-03T19:27:37.520-04:00", "avatar": "https://secure.gravatar.com/avatar/0b06662b251cdbba8d81c5ae6c3c8905.jpg?s=512&d=https%3A%2F%2Fa.slack-edge.com%2Fdf10d%2Fimg%2Favatars%2Fava_0014-512.png", "custom_css": null}, {"id": 3594, "slack_id": "U091JD56DHU", "display_name": "Ryan Du", "bio": null, "projects_count": 0, "devlogs_count": 0, "votes_count": 0, "ships_count": 0, "projects": [], "coding_time_seconds": 0, "coding_time_seconds_today": 0, "balance": "You need to have a pocket watcher badge to view this.", "badges": [], "created_at": "2025-06-16T19:30:02.695-04:00", "updated_at": "2025-07-03T19:27:37.794-04:00", "avatar": "https://avatars.slack-edge.com/2025-06-16/9052339364067_5e83d9d4e1bcd492881e_original.jpg", "custom_css": null}, {"id": 3595, "slack_id": "U0923PA77H7", "display_name": "kshitiz shah", "bio": null, "projects_count": 0, "devlogs_count": 0, "votes_count": 0, "ships_count": 0, "projects": [], "coding_time_seconds": 593632, "coding_time_seconds_today": 0, "balance": "You need to have a pocket watcher badge to view this.", "badges": [], "created_at": "2025-06-16T19:30:04.572-04:00", "updated_at": "2025-07-03T19:27:38.075-04:00", "avatar": "https://avatars.slack-edge.com/2025-06-16/9081686165472_c4155543142b9aa65284_original.jpg", "custom_css": null}, {"id": 3596, "slack_id": "U0795RJCKU0", "display_name": "ena", "bio": null, "projects_count": 2, "devlogs_count": 0, "votes_count": 0, "ships_count": 0, "projects": [{"id": 551, "title": "Diffusers Contributions", "devlogs_count": 0, "created_at": "2025-06-17T00:57:47.947-04:00"}, {"id": 1671, "title": "Dante5", "devlogs_count": 0, "created_at": "2025-06-19T01:58:15.593-04:00"}], "coding_time_seconds": 40549, "coding_time_seconds_today": 0, "balance": "You need to have a pocket watcher badge to view this.", "badges": [], "created_at": "2025-06-16T19:30:11.498-04:00", "updated_at": "2025-07-03T19:27:38.334-04:00", "avatar": "https://avatars.slack-edge.com/2025-01-15/8294592276694_5c8db01884ee76b0c7f4_original.png", "custom_css": null}, {"id": 3597, "slack_id": "U091R7K66HY", "display_name": "Adam", "bio": null, "projects_count": 0, "devlogs_count": 0, "votes_count": 0, "ships_count": 0, "projects": [], "coding_time_seconds": 245, "coding_time_seconds_today": 0, "balance": "You need to have a pocket watcher badge to view this.", "badges": [], "created_at": "2025-06-16T19:30:18.645-04:00", "updated_at": "2025-07-03T19:27:38.647-04:00", "avatar": "https://secure.gravatar.com/avatar/0218e4aa236b2da79fd62722e1c14bbb.jpg?s=512&d=https%3A%2F%2Fa.slack-edge.com%2Fdf10d%2Fimg%2Favatars%2Fava_0010-512.png", "custom_css": null}, {"id": 3598, "slack_id": "U091R7LL4SW", "display_name": "victoria", "bio": null, "projects_count": 0, "devlogs_count": 0, "votes_count": 0, "ships_count": 0, "projects": [], "coding_time_seconds": 38181, "coding_time_seconds_today": 0, "balance": "You need to have a pocket watcher badge to view this.", "badges": [], "created_at": "2025-06-16T19:31:02.568-04:00", "updated_at": "2025-07-03T19:27:38.977-04:00", "avatar": "https://avatars.slack-edge.com/2025-06-16/9081689543424_648ae015445621aaa26b_original.png", "custom_css": null}, {"id": 3599, "slack_id": "U0823J2500J", "display_name": "Eric Hou", "bio": null, "projects_count": 0, "devlogs_count": 0, "votes_count": 0, "ships_count": 0, "projects": [], "coding_time_seconds": 56036, "coding_time_seconds_today": 0, "balance": "You need to have a pocket watcher badge to view this.", "badges": [], "created_at": "2025-06-16T19:31:23.422-04:00", "updated_at": "2025-08-19T02:04:10.096-04:00", "avatar": "https://avatars.slack-edge.com/2025-05-30/8968955021813_3c980a258c681034cbdf_original.jpg", "custom_css": null}, {"id": 3600, "slack_id": "U0923PPHJKT", "display_name": "nor hyun woo", "bio": null, "projects_count": 0, "devlogs_count": 0, "votes_count": 0, "ships_count": 0, "projects": [], "coding_time_seconds": 338206, "coding_time_seconds_today": 2349, "balance": "You need to have a pocket watcher badge to view this.", "badges": [], "created_at": "2025-06-16T19:31:24.371-04:00", "updated_at": "2025-07-03T19:27:39.512-04:00", "avatar": "https://secure.gravatar.com/avatar/9221630fbfe45ddfca52ce89b668d440.jpg?s=512&d=https%3A%2F%2Fa.slack-edge.com%2Fdf10d%2Fimg%2Favatars%2Fava_0000-512.png", "custom_css": null}], "pagination": {"page": 180, "pages": 1192, "count": 23828, "items": 20}}