{"users": [{"id": 3601, "slack_id": "U091PDV9CRK", "display_name": "Mahdi_Al_Hammami", "bio": null, "projects_count": 0, "devlogs_count": 0, "votes_count": 0, "ships_count": 0, "projects": [], "coding_time_seconds": 136724, "coding_time_seconds_today": 0, "balance": "You need to have a pocket watcher badge to view this.", "badges": [], "created_at": "2025-06-16T19:32:12.234-04:00", "updated_at": "2025-07-03T19:27:39.789-04:00", "avatar": "https://secure.gravatar.com/avatar/bf44c30e315321baeaab3c664c089283.jpg?s=512&d=https%3A%2F%2Fa.slack-edge.com%2Fdf10d%2Fimg%2Favatars%2Fava_0026-512.png", "custom_css": null}, {"id": 3602, "slack_id": "U091PE09MGD", "display_name": "Ian", "bio": null, "projects_count": 0, "devlogs_count": 0, "votes_count": 0, "ships_count": 0, "projects": [], "coding_time_seconds": 0, "coding_time_seconds_today": 0, "balance": "You need to have a pocket watcher badge to view this.", "badges": [], "created_at": "2025-06-16T19:32:27.048-04:00", "updated_at": "2025-07-03T19:27:40.073-04:00", "avatar": "https://secure.gravatar.com/avatar/183d415526cc85a2b307e3346f04fc20.jpg?s=512&d=https%3A%2F%2Fa.slack-edge.com%2Fdf10d%2Fimg%2Favatars%2Fava_0020-512.png", "custom_css": null}, {"id": 3603, "slack_id": "U091QCAJR5X", "display_name": "safaa", "bio": null, "projects_count": 0, "devlogs_count": 0, "votes_count": 0, "ships_count": 0, "projects": [], "coding_time_seconds": 53847, "coding_time_seconds_today": 0, "balance": "You need to have a pocket watcher badge to view this.", "badges": [], "created_at": "2025-06-16T19:32:45.979-04:00", "updated_at": "2025-07-03T19:27:40.336-04:00", "avatar": "https://secure.gravatar.com/avatar/7a63dd07fa09cba2682bca69982164b4.jpg?s=512&d=https%3A%2F%2Fa.slack-edge.com%2Fdf10d%2Fimg%2Favatars%2Fava_0001-512.png", "custom_css": null}, {"id": 3604, "slack_id": "U091R7QJMKL", "display_name": "Insanity", "bio": null, "projects_count": 0, "devlogs_count": 0, "votes_count": 0, "ships_count": 0, "projects": [], "coding_time_seconds": 0, "coding_time_seconds_today": 0, "balance": "You need to have a pocket watcher badge to view this.", "badges": [], "created_at": "2025-06-16T19:32:51.126-04:00", "updated_at": "2025-07-03T19:27:40.614-04:00", "avatar": "https://secure.gravatar.com/avatar/4173b8d9c5403fc5859e377260114a6f.jpg?s=512&d=https%3A%2F%2Fa.slack-edge.com%2Fdf10d%2Fimg%2Favatars%2Fava_0003-512.png", "custom_css": null}, {"id": 3605, "slack_id": "U06SJ8RGGK1", "display_name": "Samarth Guptha", "bio": null, "projects_count": 0, "devlogs_count": 0, "votes_count": 0, "ships_count": 0, "projects": [], "coding_time_seconds": 110736, "coding_time_seconds_today": 0, "balance": "You need to have a pocket watcher badge to view this.", "badges": [], "created_at": "2025-06-16T19:32:53.849-04:00", "updated_at": "2025-08-24T09:53:17.235-04:00", "avatar": "https://secure.gravatar.com/avatar/b38ab224ec6b9c4b3f4458aa0f885286.jpg?s=512&d=https%3A%2F%2Fa.slack-edge.com%2Fdf10d%2Fimg%2Favatars%2Fava_0019-512.png", "custom_css": null}, {"id": 3606, "slack_id": "U091R7Z2ENN", "display_name": "jwise", "bio": null, "projects_count": 3, "devlogs_count": 18, "votes_count": 26, "ships_count": 3, "projects": [{"id": 2190, "title": "FIRST Tech Challenge Statistics Backend", "devlogs_count": 6, "created_at": "2025-06-20T11:48:38.449-04:00"}, {"id": 5235, "title": "Nighthawks Robotics Statistics Webapp", "devlogs_count": 5, "created_at": "2025-07-03T23:44:43.634-04:00"}, {"id": 10600, "title": "Personal Portfolio Website", "devlogs_count": 7, "created_at": "2025-08-08T16:51:53.971-04:00"}], "coding_time_seconds": 223076, "coding_time_seconds_today": 0, "balance": "You need to have a pocket watcher badge to view this.", "badges": [{"name": "Maiden Voyage", "text": "you shipped your first project! the journey begins...", "icon": "\ud83d\udea2"}], "created_at": "2025-06-16T19:32:54.604-04:00", "updated_at": "2025-09-20T07:58:58.153-04:00", "avatar": "https://secure.gravatar.com/avatar/3a35b49bd5d39f260799ed81f2787fa4.jpg?s=512&d=https%3A%2F%2Fa.slack-edge.com%2Fdf10d%2Fimg%2Favatars%2Fava_0015-512.png", "custom_css": null}, {"id": 3607, "slack_id": "U09112ZABSP", "display_name": "Sai Vattikonda", "bio": null, "projects_count": 0, "devlogs_count": 0, "votes_count": 0, "ships_count": 0, "projects": [], "coding_time_seconds": 118280, "coding_time_seconds_today": 0, "balance": "You need to have a pocket watcher badge to view this.", "badges": [], "created_at": "2025-06-16T19:33:11.042-04:00", "updated_at": "2025-07-03T19:27:41.287-04:00", "avatar": "https://secure.gravatar.com/avatar/a28d0f68f80f58fa43dedc82d74d177b.jpg?s=512&d=https%3A%2F%2Fa.slack-edge.com%2Fdf10d%2Fimg%2Favatars%2Fava_0016-512.png", "custom_css": null}, {"id": 3608, "slack_id": "U07S84CU4NT", "display_name": "Ella Li", "bio": null, "projects_count": 0, "devlogs_count": 0, "votes_count": 0, "ships_count": 0, "projects": [], "coding_time_seconds": 0, "coding_time_seconds_today": 0, "balance": "You need to have a pocket watcher badge to view this.", "badges": [], "created_at": "2025-06-16T19:34:30.972-04:00", "updated_at": "2025-07-03T19:27:41.550-04:00", "avatar": "https://secure.gravatar.com/avatar/2f345629e375b6e33d805c00983022ad.jpg?s=512&d=https%3A%2F%2Fa.slack-edge.com%2Fdf10d%2Fimg%2Favatars%2Fava_0003-512.png", "custom_css": null}, {"id": 3609, "slack_id": "U0923PX3PAM", "display_name": "Akash Gupta", "bio": null, "projects_count": 1, "devlogs_count": 1, "votes_count": 0, "ships_count": 0, "projects": [{"id": 394, "title": "\ud83d\udc0dClassic Snake Game \ud83d\ude80Powered by AI & Code \ud83c\udfae", "devlogs_count": 1, "created_at": "2025-06-16T20:02:53.188-04:00"}], "coding_time_seconds": 296335, "coding_time_seconds_today": 0, "balance": "You need to have a pocket watcher badge to view this.", "badges": [], "created_at": "2025-06-16T19:34:32.606-04:00", "updated_at": "2025-07-03T19:27:41.829-04:00", "avatar": "https://secure.gravatar.com/avatar/187b3a8735674730c8bc123c6dfbebcc.jpg?s=512&d=https%3A%2F%2Fa.slack-edge.com%2Fdf10d%2Fimg%2Favatars%2Fava_0000-512.png", "custom_css": null}, {"id": 3610, "slack_id": "U091PE31205", "display_name": "Olasunkanmi IDRIS", "bio": null, "projects_count": 0, "devlogs_count": 0, "votes_count": 0, "ships_count": 0, "projects": [], "coding_time_seconds": 205693, "coding_time_seconds_today": 0, "balance": "You need to have a pocket watcher badge to view this.", "badges": [], "created_at": "2025-06-16T19:34:52.708-04:00", "updated_at": "2025-07-03T19:27:42.100-04:00", "avatar": "https://secure.gravatar.com/avatar/a7417e7d91c5e85dd68fe0ec82ae709a.jpg?s=512&d=https%3A%2F%2Fa.slack-edge.com%2Fdf10d%2Fimg%2Favatars%2Fava_0014-512.png", "custom_css": null}, {"id": 3611, "slack_id": "U07BLEXRNR2", "display_name": "Zoe", "bio": null, "projects_count": 2, "devlogs_count": 2, "votes_count": 0, "ships_count": 0, "projects": [{"id": 1184, "title": "Sanguine", "devlogs_count": 2, "created_at": "2025-06-17T20:59:20.044-04:00"}, {"id": 2345, "title": "Pubby Discord Bot", "devlogs_count": 0, "created_at": "2025-06-20T18:45:38.766-04:00"}], "coding_time_seconds": 74205, "coding_time_seconds_today": 0, "balance": "You need to have a pocket watcher badge to view this.", "badges": [], "created_at": "2025-06-16T19:35:02.233-04:00", "updated_at": "2025-07-03T19:27:42.367-04:00", "avatar": "https://secure.gravatar.com/avatar/252364a90f1bfe1b961711d9a0f70821.jpg?s=512&d=https%3A%2F%2Fa.slack-edge.com%2Fdf10d%2Fimg%2Favatars%2Fava_0023-512.png", "custom_css": null}, {"id": 3612, "slack_id": "U07B6HBS9FS", "display_name": "Jonathan", "bio": null, "projects_count": 0, "devlogs_count": 0, "votes_count": 0, "ships_count": 0, "projects": [], "coding_time_seconds": 0, "coding_time_seconds_today": 0, "balance": "You need to have a pocket watcher badge to view this.", "badges": [], "created_at": "2025-06-16T19:35:18.184-04:00", "updated_at": "2025-07-03T19:27:42.625-04:00", "avatar": "https://avatars.slack-edge.com/2024-07-01/7370474405665_8cb81efc575e515cf215_original.jpg", "custom_css": null}, {"id": 3613, "slack_id": "U07AWNH2WDT", "display_name": "NoozAbooz", "bio": null, "projects_count": 1, "devlogs_count": 2, "votes_count": 0, "ships_count": 1, "projects": [{"id": 3792, "title": "Milkis Discord Bot", "devlogs_count": 2, "created_at": "2025-06-25T19:19:33.324-04:00"}], "coding_time_seconds": 191909, "coding_time_seconds_today": 0, "balance": "You need to have a pocket watcher badge to view this.", "badges": [{"name": "Maiden Voyage", "text": "you shipped your first project! the journey begins...", "icon": "\ud83d\udea2"}], "created_at": "2025-06-16T19:35:29.210-04:00", "updated_at": "2025-09-21T00:15:23.473-04:00", "avatar": "https://avatars.slack-edge.com/2025-09-20/9549805638227_49cc98def080cc3bcf56_original.jpg", "custom_css": null}, {"id": 3614, "slack_id": "U091JA87WR1", "display_name": "Gabriel Aedo", "bio": null, "projects_count": 0, "devlogs_count": 0, "votes_count": 0, "ships_count": 0, "projects": [], "coding_time_seconds": 141403, "coding_time_seconds_today": 0, "balance": "You need to have a pocket watcher badge to view this.", "badges": [], "created_at": "2025-06-16T19:35:39.253-04:00", "updated_at": "2025-07-03T19:27:43.192-04:00", "avatar": "https://secure.gravatar.com/avatar/82d643c701fe641ca6a923b717f4c6ad.jpg?s=512&d=https%3A%2F%2Fa.slack-edge.com%2Fdf10d%2Fimg%2Favatars%2Fava_0012-512.png", "custom_css": null}, {"id": 3615, "slack_id": "U092DL83L48", "display_name": "Sadeep", "bio": null, "projects_count": 0, "devlogs_count": 0, "votes_count": 0, "ships_count": 0, "projects": [], "coding_time_seconds": 0, "coding_time_seconds_today": 0, "balance": "You need to have a pocket watcher badge to view this.", "badges": [], "created_at": "2025-06-16T19:35:58.063-04:00", "updated_at": "2025-07-03T19:27:43.454-04:00", "avatar": "https://secure.gravatar.com/avatar/5eb0cfa14ab79fe460923e23d2fe6e8a.jpg?s=512&d=https%3A%2F%2Fa.slack-edge.com%2Fdf10d%2Fimg%2Favatars%2Fava_0023-512.png", "custom_css": null}, {"id": 3616, "slack_id": "U08RJUYAHH9", "display_name": "Simrik Shivas", "bio": null, "projects_count": 3, "devlogs_count": 5, "votes_count": 9, "ships_count": 1, "projects": [{"id": 6914, "title": "Watt A Life", "devlogs_count": 1, "created_at": "2025-07-17T10:20:48.819-04:00"}, {"id": 6917, "title": "Carebear", "devlogs_count": 1, "created_at": "2025-07-17T10:49:02.315-04:00"}, {"id": 7052, "title": "SpaceWise", "devlogs_count": 2, "created_at": "2025-07-18T14:58:45.042-04:00"}], "coding_time_seconds": 169135, "coding_time_seconds_today": 0, "balance": "You need to have a pocket watcher badge to view this.", "badges": [{"name": "Maiden Voyage", "text": "you shipped your first project! the journey begins...", "icon": "\ud83d\udea2"}], "created_at": "2025-06-16T19:36:03.492-04:00", "updated_at": "2025-09-10T22:52:57.291-04:00", "avatar": "https://secure.gravatar.com/avatar/b93ec127e106037a654d09a17170e562.jpg?s=512&d=https%3A%2F%2Fa.slack-edge.com%2Fdf10d%2Fimg%2Favatars%2Fava_0026-512.png", "custom_css": null}, {"id": 3617, "slack_id": "U091GH905KQ", "display_name": "jay3332", "bio": null, "projects_count": 0, "devlogs_count": 0, "votes_count": 0, "ships_count": 0, "projects": [], "coding_time_seconds": 233920, "coding_time_seconds_today": 0, "balance": "You need to have a pocket watcher badge to view this.", "badges": [], "created_at": "2025-06-16T19:36:25.153-04:00", "updated_at": "2025-07-03T19:27:43.986-04:00", "avatar": "https://secure.gravatar.com/avatar/c34480c96e658d4e3edbaf1b437c6795.jpg?s=512&d=https%3A%2F%2Fa.slack-edge.com%2Fdf10d%2Fimg%2Favatars%2Fava_0000-512.png", "custom_css": null}, {"id": 3618, "slack_id": "U0923Q08FEV", "display_name": "Josh", "bio": null, "projects_count": 0, "devlogs_count": 0, "votes_count": 0, "ships_count": 0, "projects": [], "coding_time_seconds": 0, "coding_time_seconds_today": 0, "balance": "You need to have a pocket watcher badge to view this.", "badges": [], "created_at": "2025-06-16T19:36:27.448-04:00", "updated_at": "2025-07-03T19:27:44.248-04:00", "avatar": "https://secure.gravatar.com/avatar/779bce5f4e90e7c52266f1dba4034c51.jpg?s=512&d=https%3A%2F%2Fa.slack-edge.com%2Fdf10d%2Fimg%2Favatars%2Fava_0009-512.png", "custom_css": null}, {"id": 3619, "slack_id": "U091JDWPTSA", "display_name": "Davine M", "bio": null, "projects_count": 0, "devlogs_count": 0, "votes_count": 0, "ships_count": 0, "projects": [], "coding_time_seconds": 0, "coding_time_seconds_today": 0, "balance": "You need to have a pocket watcher badge to view this.", "badges": [], "created_at": "2025-06-16T19:36:40.567-04:00", "updated_at": "2025-07-03T19:27:44.514-04:00", "avatar": "https://avatars.slack-edge.com/2025-06-16/9059288155490_5a4328f292033152dd16_original.jpg", "custom_css": null}, {"id": 3620, "slack_id": "U08PYENP7N0", "display_name": "JeremySeq", "bio": null, "projects_count": 6, "devlogs_count": 43, "votes_count": 63, "ships_count": 3, "projects": [{"id": 1177, "title": "Inhabitants (Minecraft Mod)", "devlogs_count": 18, "created_at": "2025-06-17T20:36:04.818-04:00"}, {"id": 1178, "title": "Portfolio", "devlogs_count": 0, "created_at": "2025-06-17T20:39:00.788-04:00"}, {"id": 7251, "title": "ProtonMC", "devlogs_count": 6, "created_at": "2025-07-20T10:41:19.314-04:00"}, {"id": 12680, "title": "ReciteIt!", "devlogs_count": 2, "created_at": "2025-08-31T15:21:52.462-04:00"}, {"id": 4749, "title": "Spotify Playlist Analyzer", "devlogs_count": 5, "created_at": "2025-07-01T11:19:32.394-04:00"}, {"id": 1549, "title": "Heatseeker", "devlogs_count": 12, "created_at": "2025-06-18T18:09:02.653-04:00"}], "coding_time_seconds": 780555, "coding_time_seconds_today": 0, "balance": "You need to have a pocket watcher badge to view this.", "badges": [{"name": "Maiden Voyage", "text": "you shipped your first project! the journey begins...", "icon": "\ud83d\udea2"}], "created_at": "2025-06-16T19:36:45.141-04:00", "updated_at": "2025-09-10T22:52:57.539-04:00", "avatar": "https://avatars.slack-edge.com/2025-06-19/9089387852609_7ef740373111d6455057_original.png", "custom_css": null}], "pagination": {"page": 181, "pages": 1192, "count": 23828, "items": 20}}