{"users": [{"id": 3641, "slack_id": "U05LAKQJ8GL", "display_name": "Yang Xue", "bio": null, "projects_count": 0, "devlogs_count": 0, "votes_count": 0, "ships_count": 0, "projects": [], "coding_time_seconds": 0, "coding_time_seconds_today": 0, "balance": "You need to have a pocket watcher badge to view this.", "badges": [], "created_at": "2025-06-16T19:43:57.472-04:00", "updated_at": "2025-07-03T19:27:50.435-04:00", "avatar": "https://avatars.slack-edge.com/2025-03-13/8599030805861_a02e5230d865c33b9b24_original.jpg", "custom_css": null}, {"id": 3642, "slack_id": "U078FCLD5NZ", "display_name": "Patato", "bio": null, "projects_count": 1, "devlogs_count": 3, "votes_count": 1, "ships_count": 0, "projects": [{"id": 7858, "title": "StonkTok", "devlogs_count": 3, "created_at": "2025-07-23T10:18:34.929-04:00"}], "coding_time_seconds": 84002, "coding_time_seconds_today": 0, "balance": "You need to have a pocket watcher badge to view this.", "badges": [], "created_at": "2025-06-16T19:44:19.020-04:00", "updated_at": "2025-08-25T02:27:43.335-04:00", "avatar": "https://avatars.slack-edge.com/2025-06-19/9088388875617_24b792bc6387eaa6cf7a_original.png", "custom_css": null}, {"id": 3643, "slack_id": "U091RJE8KA8", "display_name": "YC H", "bio": null, "projects_count": 0, "devlogs_count": 0, "votes_count": 0, "ships_count": 0, "projects": [], "coding_time_seconds": 84818, "coding_time_seconds_today": 403, "balance": "You need to have a pocket watcher badge to view this.", "badges": [], "created_at": "2025-06-16T19:44:40.753-04:00", "updated_at": "2025-07-03T19:27:50.985-04:00", "avatar": "https://secure.gravatar.com/avatar/5229fd4f30302737316d3dd79ec53285.jpg?s=512&d=https%3A%2F%2Fa.slack-edge.com%2Fdf10d%2Fimg%2Favatars%2Fava_0018-512.png", "custom_css": null}, {"id": 3644, "slack_id": "U091R8TT2F4", "display_name": "Aron", "bio": null, "projects_count": 0, "devlogs_count": 0, "votes_count": 0, "ships_count": 0, "projects": [], "coding_time_seconds": 0, "coding_time_seconds_today": 0, "balance": "You need to have a pocket watcher badge to view this.", "badges": [], "created_at": "2025-06-16T19:44:52.759-04:00", "updated_at": "2025-07-03T19:27:51.245-04:00", "avatar": "https://avatars.slack-edge.com/2025-06-17/9044021268855_16e44303c5fd4def1065_original.jpg", "custom_css": null}, {"id": 3645, "slack_id": "U083N9X3TQD", "display_name": "Storm", "bio": null, "projects_count": 0, "devlogs_count": 0, "votes_count": 0, "ships_count": 0, "projects": [], "coding_time_seconds": 10439, "coding_time_seconds_today": 0, "balance": "You need to have a pocket watcher badge to view this.", "badges": [], "created_at": "2025-06-16T19:45:06.117-04:00", "updated_at": "2025-07-03T19:27:51.516-04:00", "avatar": "https://avatars.slack-edge.com/2024-12-04/8112742673783_dd93ac17ddc7b751fdf2_original.jpg", "custom_css": null}, {"id": 3646, "slack_id": "U08DY2Z7NAF", "display_name": "Wilbur", "bio": null, "projects_count": 0, "devlogs_count": 0, "votes_count": 3, "ships_count": 0, "projects": [], "coding_time_seconds": 373987, "coding_time_seconds_today": 0, "balance": "You need to have a pocket watcher badge to view this.", "badges": [], "created_at": "2025-06-16T19:45:11.662-04:00", "updated_at": "2025-08-26T11:03:23.047-04:00", "avatar": "https://avatars.slack-edge.com/2025-07-06/9153074451429_19eaa2cc93418ae1f656_original.jpg", "custom_css": null}, {"id": 3647, "slack_id": "U091JB41YBV", "display_name": "Artalxing", "bio": null, "projects_count": 0, "devlogs_count": 0, "votes_count": 0, "ships_count": 0, "projects": [], "coding_time_seconds": 0, "coding_time_seconds_today": 0, "balance": "You need to have a pocket watcher badge to view this.", "badges": [], "created_at": "2025-06-16T19:45:49.892-04:00", "updated_at": "2025-07-03T19:27:52.067-04:00", "avatar": "https://secure.gravatar.com/avatar/7a061e76143b7ce0d658e3a4f1fe179c.jpg?s=512&d=https%3A%2F%2Fa.slack-edge.com%2Fdf10d%2Fimg%2Favatars%2Fava_0010-512.png", "custom_css": null}, {"id": 3648, "slack_id": "U07CAHFGDR6", "display_name": "LinuxDino", "bio": null, "projects_count": 4, "devlogs_count": 16, "votes_count": 1, "ships_count": 1, "projects": [{"id": 912, "title": "School DL Website", "devlogs_count": 3, "created_at": "2025-06-17T11:04:55.763-04:00"}, {"id": 13613, "title": "AI Material Decomposition", "devlogs_count": 1, "created_at": "2025-09-20T22:56:23.018-04:00"}, {"id": 11492, "title": "Tictactoe", "devlogs_count": 10, "created_at": "2025-08-16T10:45:56.299-04:00"}, {"id": 13014, "title": "Scene 3: grand-survey-expedition, Tickle Tomb", "devlogs_count": 2, "created_at": "2025-09-06T23:16:21.942-04:00"}], "coding_time_seconds": 73497, "coding_time_seconds_today": 0, "balance": "You need to have a pocket watcher badge to view this.", "badges": [{"name": "Maiden Voyage", "text": "you shipped your first project! the journey begins...", "icon": "\ud83d\udea2"}], "created_at": "2025-06-16T19:46:21.144-04:00", "updated_at": "2025-09-10T22:52:58.497-04:00", "avatar": "https://avatars.slack-edge.com/2024-07-09/7418641338352_55c522630b7f8ade7ebd_original.png", "custom_css": null}, {"id": 3649, "slack_id": "U08B9SF7RU1", "display_name": "Hobbes", "bio": null, "projects_count": 4, "devlogs_count": 22, "votes_count": 47, "ships_count": 4, "projects": [{"id": 10687, "title": "Unlit", "devlogs_count": 6, "created_at": "2025-08-09T15:28:28.712-04:00"}, {"id": 5599, "title": "Positive Affermations", "devlogs_count": 3, "created_at": "2025-07-06T12:58:06.330-04:00"}, {"id": 7845, "title": "Climate Change ", "devlogs_count": 2, "created_at": "2025-07-23T08:58:24.328-04:00"}, {"id": 412, "title": "Grav", "devlogs_count": 11, "created_at": "2025-06-16T20:34:31.550-04:00"}], "coding_time_seconds": 437289, "coding_time_seconds_today": 0, "balance": "You need to have a pocket watcher badge to view this.", "badges": [{"name": "Maiden Voyage", "text": "you shipped your first project! the journey begins...", "icon": "\ud83d\udea2"}], "created_at": "2025-06-16T19:46:25.858-04:00", "updated_at": "2025-09-10T22:52:58.535-04:00", "avatar": "https://avatars.slack-edge.com/2025-01-29/8394021392752_3a82f6e1ecff3c80fb78_original.jpg", "custom_css": null}, {"id": 3650, "slack_id": "U092DLZQG2U", "display_name": "Ira Salsabila", "bio": null, "projects_count": 0, "devlogs_count": 0, "votes_count": 0, "ships_count": 0, "projects": [], "coding_time_seconds": 0, "coding_time_seconds_today": 0, "balance": "You need to have a pocket watcher badge to view this.", "badges": [], "created_at": "2025-06-16T19:46:27.199-04:00", "updated_at": "2025-07-03T19:27:52.852-04:00", "avatar": "https://secure.gravatar.com/avatar/97390e2aad1f3921bd913bf260900973.jpg?s=512&d=https%3A%2F%2Fa.slack-edge.com%2Fdf10d%2Fimg%2Favatars%2Fava_0010-512.png", "custom_css": null}, {"id": 3651, "slack_id": "U091RJWC2H2", "display_name": "Sachinth Viththarachchige", "bio": null, "projects_count": 0, "devlogs_count": 0, "votes_count": 0, "ships_count": 0, "projects": [], "coding_time_seconds": 17271, "coding_time_seconds_today": 0, "balance": "You need to have a pocket watcher badge to view this.", "badges": [], "created_at": "2025-06-16T19:46:59.498-04:00", "updated_at": "2025-07-03T19:27:53.124-04:00", "avatar": "https://secure.gravatar.com/avatar/b79e3914d9a77d7c85eefb036f7b5ac5.jpg?s=512&d=https%3A%2F%2Fa.slack-edge.com%2Fdf10d%2Fimg%2Favatars%2Fava_0018-512.png", "custom_css": null}, {"id": 3652, "slack_id": "U091J1X9XL3", "display_name": "Rachel", "bio": null, "projects_count": 0, "devlogs_count": 0, "votes_count": 0, "ships_count": 0, "projects": [], "coding_time_seconds": 93248, "coding_time_seconds_today": 0, "balance": "You need to have a pocket watcher badge to view this.", "badges": [], "created_at": "2025-06-16T19:47:02.089-04:00", "updated_at": "2025-07-03T19:27:53.379-04:00", "avatar": "https://secure.gravatar.com/avatar/6756c24a1b641ef2806e23af05fff8b5.jpg?s=512&d=https%3A%2F%2Fa.slack-edge.com%2Fdf10d%2Fimg%2Favatars%2Fava_0021-512.png", "custom_css": null}, {"id": 3653, "slack_id": "U07EU2PDQ3W", "display_name": "Mithun Dhanasuthan", "bio": null, "projects_count": 1, "devlogs_count": 3, "votes_count": 2, "ships_count": 1, "projects": [{"id": 2292, "title": "Type Racer", "devlogs_count": 3, "created_at": "2025-06-20T16:25:31.750-04:00"}], "coding_time_seconds": 53127, "coding_time_seconds_today": 1115, "balance": "You need to have a pocket watcher badge to view this.", "badges": [{"name": "Maiden Voyage", "text": "you shipped your first project! the journey begins...", "icon": "\ud83d\udea2"}], "created_at": "2025-06-16T19:47:38.289-04:00", "updated_at": "2025-09-10T22:52:58.652-04:00", "avatar": "https://secure.gravatar.com/avatar/3fd1d26ad4c617e2d76931d67cb60496.jpg?s=512&d=https%3A%2F%2Fa.slack-edge.com%2Fdf10d%2Fimg%2Favatars%2Fava_0004-512.png", "custom_css": null}, {"id": 3654, "slack_id": "U091PF2LGCV", "display_name": "Roee Toledano", "bio": null, "projects_count": 1, "devlogs_count": 11, "votes_count": 24, "ships_count": 1, "projects": [{"id": 425, "title": "Funderberker", "devlogs_count": 11, "created_at": "2025-06-16T21:03:16.141-04:00"}], "coding_time_seconds": 321750, "coding_time_seconds_today": 0, "balance": "You need to have a pocket watcher badge to view this.", "badges": [{"name": "Maiden Voyage", "text": "you shipped your first project! the journey begins...", "icon": "\ud83d\udea2"}], "created_at": "2025-06-16T19:47:54.219-04:00", "updated_at": "2025-09-10T22:52:58.676-04:00", "avatar": "https://avatars.slack-edge.com/2025-06-17/9074124907169_7374f6ca983ba8d1a053_original.jpg", "custom_css": null}, {"id": 3655, "slack_id": "U092DM2FGTA", "display_name": "Carter Fischer", "bio": null, "projects_count": 0, "devlogs_count": 0, "votes_count": 0, "ships_count": 0, "projects": [], "coding_time_seconds": 166, "coding_time_seconds_today": 0, "balance": "You need to have a pocket watcher badge to view this.", "badges": [], "created_at": "2025-06-16T19:48:04.814-04:00", "updated_at": "2025-07-03T19:27:54.158-04:00", "avatar": "https://secure.gravatar.com/avatar/4f1d45c31501017cd5e2a37f7fa4747b.jpg?s=512&d=https%3A%2F%2Fa.slack-edge.com%2Fdf10d%2Fimg%2Favatars%2Fava_0023-512.png", "custom_css": null}, {"id": 3656, "slack_id": "U081686BUH5", "display_name": "ohno", "bio": null, "projects_count": 2, "devlogs_count": 2, "votes_count": 0, "ships_count": 0, "projects": [{"id": 2282, "title": "Divine Towers", "devlogs_count": 0, "created_at": "2025-06-20T16:10:26.649-04:00"}, {"id": 2288, "title": "Detective", "devlogs_count": 2, "created_at": "2025-06-20T16:20:30.809-04:00"}], "coding_time_seconds": 171231, "coding_time_seconds_today": 0, "balance": "You need to have a pocket watcher badge to view this.", "badges": [], "created_at": "2025-06-16T19:48:10.441-04:00", "updated_at": "2025-09-05T15:05:15.221-04:00", "avatar": "https://secure.gravatar.com/avatar/a298a5b85ed2e21b09d20e4caff52eb6.jpg?s=512&d=https%3A%2F%2Fa.slack-edge.com%2Fdf10d%2Fimg%2Favatars%2Fava_0013-512.png", "custom_css": null}, {"id": 3657, "slack_id": "U08TS3V9PQ9", "display_name": "Ahmed Mohamed Eladawy", "bio": null, "projects_count": 0, "devlogs_count": 0, "votes_count": 0, "ships_count": 0, "projects": [], "coding_time_seconds": 6316, "coding_time_seconds_today": 1973, "balance": "You need to have a pocket watcher badge to view this.", "badges": [], "created_at": "2025-06-16T19:48:23.013-04:00", "updated_at": "2025-09-06T22:22:24.293-04:00", "avatar": "https://avatars.slack-edge.com/2025-09-07/9458604045703_377c6b370657c75a5bce_original.jpg", "custom_css": null}, {"id": 3658, "slack_id": "U078UN9JR55", "display_name": "Aditya Anand", "bio": null, "projects_count": 7, "devlogs_count": 18, "votes_count": 20, "ships_count": 1, "projects": [{"id": 2492, "title": "Job Search", "devlogs_count": 2, "created_at": "2025-06-21T06:14:51.980-04:00"}, {"id": 3940, "title": "Radio Galaxy Detection with AI", "devlogs_count": 3, "created_at": "2025-06-26T12:06:38.021-04:00"}, {"id": 3942, "title": "Localizing Gravitational Waves with AI", "devlogs_count": 2, "created_at": "2025-06-26T12:08:42.591-04:00"}, {"id": 6802, "title": "AI Game Design", "devlogs_count": 0, "created_at": "2025-07-16T11:09:25.395-04:00"}, {"id": 11632, "title": "Breakify", "devlogs_count": 2, "created_at": "2025-08-17T23:22:23.780-04:00"}, {"id": 12253, "title": "Raymarched Renderer", "devlogs_count": 6, "created_at": "2025-08-24T22:23:24.436-04:00"}, {"id": 3306, "title": "Autonomous Robot Control using Large Language Models", "devlogs_count": 3, "created_at": "2025-06-23T18:30:40.341-04:00"}], "coding_time_seconds": 567950, "coding_time_seconds_today": 0, "balance": "You need to have a pocket watcher badge to view this.", "badges": [{"name": "Maiden Voyage", "text": "you shipped your first project! the journey begins...", "icon": "\ud83d\udea2"}], "created_at": "2025-06-16T19:49:11.663-04:00", "updated_at": "2025-09-10T22:52:58.801-04:00", "avatar": "https://avatars.slack-edge.com/2024-08-06/7535658967298_7fd189e9e4aeec9b91c0_original.png", "custom_css": null}, {"id": 3659, "slack_id": "U08TL5SLM24", "display_name": "Kaushik", "bio": null, "projects_count": 0, "devlogs_count": 0, "votes_count": 0, "ships_count": 0, "projects": [], "coding_time_seconds": 0, "coding_time_seconds_today": 0, "balance": "You need to have a pocket watcher badge to view this.", "badges": [], "created_at": "2025-06-16T19:49:47.924-04:00", "updated_at": "2025-07-03T19:27:55.213-04:00", "avatar": "https://secure.gravatar.com/avatar/2b7d2a624aa3dcebb0ce1f466d124f62.jpg?s=512&d=https%3A%2F%2Fa.slack-edge.com%2Fdf10d%2Fimg%2Favatars%2Fava_0017-512.png", "custom_css": null}, {"id": 3660, "slack_id": "U07C8G3A231", "display_name": "Victoria", "bio": null, "projects_count": 0, "devlogs_count": 0, "votes_count": 0, "ships_count": 0, "projects": [], "coding_time_seconds": 0, "coding_time_seconds_today": 0, "balance": "You need to have a pocket watcher badge to view this.", "badges": [], "created_at": "2025-06-16T19:49:51.822-04:00", "updated_at": "2025-07-03T19:27:55.501-04:00", "avatar": "https://avatars.slack-edge.com/2024-07-16/7431174164595_ec6da326da2f5ba15f1a_original.jpg", "custom_css": null}], "pagination": {"page": 183, "pages": 1192, "count": 23828, "items": 20}}