{"users": [{"id": 3661, "slack_id": "U092DMGDNP2", "display_name": "Ismael Lopez", "bio": null, "projects_count": 0, "devlogs_count": 0, "votes_count": 0, "ships_count": 0, "projects": [], "coding_time_seconds": 0, "coding_time_seconds_today": 0, "balance": "You need to have a pocket watcher badge to view this.", "badges": [], "created_at": "2025-06-16T19:49:53.551-04:00", "updated_at": "2025-07-03T19:27:55.761-04:00", "avatar": "https://secure.gravatar.com/avatar/85f670b757f95f46c8e866da0a664af7.jpg?s=512&d=https%3A%2F%2Fa.slack-edge.com%2Fdf10d%2Fimg%2Favatars%2Fava_0006-512.png", "custom_css": null}, {"id": 3662, "slack_id": "U091JBFGMC3", "display_name": "mytja", "bio": null, "projects_count": 1, "devlogs_count": 0, "votes_count": 0, "ships_count": 0, "projects": [{"id": 1011, "title": "AstroPSU", "devlogs_count": 0, "created_at": "2025-06-17T13:35:28.452-04:00"}], "coding_time_seconds": 25606, "coding_time_seconds_today": 0, "balance": "You need to have a pocket watcher badge to view this.", "badges": [], "created_at": "2025-06-16T19:50:17.519-04:00", "updated_at": "2025-07-03T19:27:56.020-04:00", "avatar": "https://secure.gravatar.com/avatar/5f16c81764c8fa2370d5cad296afa026.jpg?s=512&d=https%3A%2F%2Fa.slack-edge.com%2Fdf10d%2Fimg%2Favatars%2Fava_0004-512.png", "custom_css": null}, {"id": 3663, "slack_id": "U07LKN3NDG9", "display_name": "Polygonal", "bio": "Greetings, I'm Roman! I'm currently a high schooler studying computer science! I enjoy applying my programming skills towards creative endeavors and challenging problems. My current focus is on computer graphics and 3D applications, but I dabble in all realms of software development!", "projects_count": 2, "devlogs_count": 5, "votes_count": 0, "ships_count": 1, "projects": [{"id": 7436, "title": "OpenGL Renderer", "devlogs_count": 4, "created_at": "2025-07-21T18:48:48.869-04:00"}, {"id": 11246, "title": "The Rankbook", "devlogs_count": 1, "created_at": "2025-08-14T09:08:59.773-04:00"}], "coding_time_seconds": 96689, "coding_time_seconds_today": 0, "balance": "You need to have a pocket watcher badge to view this.", "badges": [{"name": "Maiden Voyage", "text": "you shipped your first project! the journey begins...", "icon": "\ud83d\udea2"}], "created_at": "2025-06-16T19:50:29.316-04:00", "updated_at": "2025-09-10T22:52:58.940-04:00", "avatar": "https://avatars.slack-edge.com/2024-09-06/7688935127090_14cdd8e8206146a3c651_original.png", "custom_css": null}, {"id": 3664, "slack_id": "U091JBF4N83", "display_name": "Thien An Dang Thanh", "bio": null, "projects_count": 0, "devlogs_count": 0, "votes_count": 0, "ships_count": 0, "projects": [], "coding_time_seconds": 314340, "coding_time_seconds_today": 745, "balance": "You need to have a pocket watcher badge to view this.", "badges": [], "created_at": "2025-06-16T19:50:37.619-04:00", "updated_at": "2025-07-03T19:27:56.543-04:00", "avatar": "https://avatars.slack-edge.com/2025-06-16/9043980781655_97c840a86ea771e95824_original.jpg", "custom_css": null}, {"id": 3665, "slack_id": "U091RJTN50U", "display_name": "SUNNY", "bio": null, "projects_count": 0, "devlogs_count": 0, "votes_count": 0, "ships_count": 0, "projects": [], "coding_time_seconds": 0, "coding_time_seconds_today": 0, "balance": "You need to have a pocket watcher badge to view this.", "badges": [], "created_at": "2025-06-16T19:50:42.936-04:00", "updated_at": "2025-07-03T19:27:56.811-04:00", "avatar": "https://avatars.slack-edge.com/2025-06-16/9071867565761_4a7d5b6ea836d2f4db34_original.jpg", "custom_css": null}, {"id": 3666, "slack_id": "U0825AS5Y1K", "display_name": "\u6728\u5471", "bio": null, "projects_count": 0, "devlogs_count": 0, "votes_count": 0, "ships_count": 0, "projects": [], "coding_time_seconds": 0, "coding_time_seconds_today": 0, "balance": "You need to have a pocket watcher badge to view this.", "badges": [], "created_at": "2025-06-16T19:50:48.590-04:00", "updated_at": "2025-07-03T19:27:57.081-04:00", "avatar": "https://secure.gravatar.com/avatar/0b71452943787c515b11e1412ab608d9.jpg?s=512&d=https%3A%2F%2Fa.slack-edge.com%2Fdf10d%2Fimg%2Favatars%2Fava_0012-512.png", "custom_css": null}, {"id": 3667, "slack_id": "U091JB9EZ43", "display_name": "Zythic", "bio": null, "projects_count": 1, "devlogs_count": 1, "votes_count": 0, "ships_count": 0, "projects": [{"id": 2719, "title": "Zythic", "devlogs_count": 1, "created_at": "2025-06-21T21:11:40.442-04:00"}], "coding_time_seconds": 28997, "coding_time_seconds_today": 0, "balance": "You need to have a pocket watcher badge to view this.", "badges": [], "created_at": "2025-06-16T19:51:03.657-04:00", "updated_at": "2025-07-03T19:27:57.343-04:00", "avatar": "https://avatars.slack-edge.com/2025-06-17/9057031531779_5bf0e737194b52d36d77_original.jpg", "custom_css": null}, {"id": 3668, "slack_id": "U0781UP532B", "display_name": "Ethan", "bio": null, "projects_count": 0, "devlogs_count": 0, "votes_count": 0, "ships_count": 0, "projects": [], "coding_time_seconds": 178840, "coding_time_seconds_today": 0, "balance": "You need to have a pocket watcher badge to view this.", "badges": [], "created_at": "2025-06-16T19:51:12.520-04:00", "updated_at": "2025-07-03T19:27:57.608-04:00", "avatar": "https://secure.gravatar.com/avatar/d1393544b2da276c7803148c47838aa0.jpg?s=512&d=https%3A%2F%2Fa.slack-edge.com%2Fdf10d%2Fimg%2Favatars%2Fava_0009-512.png", "custom_css": null}, {"id": 3669, "slack_id": "U091PF9ELUV", "display_name": "Devadath", "bio": null, "projects_count": 1, "devlogs_count": 0, "votes_count": 0, "ships_count": 0, "projects": [{"id": 474, "title": "ThumbAI", "devlogs_count": 0, "created_at": "2025-06-16T22:57:52.149-04:00"}], "coding_time_seconds": 390880, "coding_time_seconds_today": 4476, "balance": "You need to have a pocket watcher badge to view this.", "badges": [], "created_at": "2025-06-16T19:52:01.947-04:00", "updated_at": "2025-07-03T19:27:57.883-04:00", "avatar": "https://avatars.slack-edge.com/2025-06-17/9061439480852_8f47e3ed02962b7e251e_original.png", "custom_css": null}, {"id": 3670, "slack_id": "U092DLLLMRN", "display_name": "Sriram Iyer", "bio": null, "projects_count": 0, "devlogs_count": 0, "votes_count": 0, "ships_count": 0, "projects": [], "coding_time_seconds": 858, "coding_time_seconds_today": 0, "balance": "You need to have a pocket watcher badge to view this.", "badges": [], "created_at": "2025-06-16T19:53:11.243-04:00", "updated_at": "2025-07-03T19:27:58.155-04:00", "avatar": "https://secure.gravatar.com/avatar/9ed6cdf53e79a5f7c7f279876620d1b1.jpg?s=512&d=https%3A%2F%2Fa.slack-edge.com%2Fdf10d%2Fimg%2Favatars%2Fava_0007-512.png", "custom_css": null}, {"id": 3671, "slack_id": "U0914PH5M1A", "display_name": "cozmoo", "bio": null, "projects_count": 1, "devlogs_count": 1, "votes_count": 0, "ships_count": 0, "projects": [{"id": 2012, "title": "New Tab", "devlogs_count": 1, "created_at": "2025-06-19T22:07:21.989-04:00"}], "coding_time_seconds": 3339, "coding_time_seconds_today": 0, "balance": "You need to have a pocket watcher badge to view this.", "badges": [], "created_at": "2025-06-16T19:53:13.109-04:00", "updated_at": "2025-07-03T19:27:58.435-04:00", "avatar": "https://avatars.slack-edge.com/2025-06-13/9071981068368_48ce10a576ee3fd918f5_original.jpg", "custom_css": null}, {"id": 3672, "slack_id": "U08L22YETC0", "display_name": "lightsteps", "bio": null, "projects_count": 0, "devlogs_count": 0, "votes_count": 0, "ships_count": 0, "projects": [], "coding_time_seconds": 444988, "coding_time_seconds_today": 0, "balance": "You need to have a pocket watcher badge to view this.", "badges": [], "created_at": "2025-06-16T19:53:17.222-04:00", "updated_at": "2025-07-03T19:27:58.701-04:00", "avatar": "https://avatars.slack-edge.com/2025-06-16/9043967268711_1c1e09118200c8dbb18e_original.jpg", "custom_css": null}, {"id": 3673, "slack_id": "U092DMU39FA", "display_name": "Pat", "bio": null, "projects_count": 0, "devlogs_count": 0, "votes_count": 0, "ships_count": 0, "projects": [], "coding_time_seconds": 0, "coding_time_seconds_today": 0, "balance": "You need to have a pocket watcher badge to view this.", "badges": [], "created_at": "2025-06-16T19:53:54.376-04:00", "updated_at": "2025-07-03T19:27:58.961-04:00", "avatar": "https://secure.gravatar.com/avatar/3c9b1692bc5d706cec6ad2d66aa95f18.jpg?s=512&d=https%3A%2F%2Fa.slack-edge.com%2Fdf10d%2Fimg%2Favatars%2Fava_0010-512.png", "custom_css": null}, {"id": 3674, "slack_id": "U08RWTHQZNV", "display_name": "Raghav Daga", "bio": null, "projects_count": 0, "devlogs_count": 0, "votes_count": 0, "ships_count": 0, "projects": [], "coding_time_seconds": 107946, "coding_time_seconds_today": 0, "balance": "You need to have a pocket watcher badge to view this.", "badges": [], "created_at": "2025-06-16T19:54:10.304-04:00", "updated_at": "2025-07-03T19:27:59.244-04:00", "avatar": "https://avatars.slack-edge.com/2025-05-08/8881190215905_ff56fd3412f4f65db521_original.jpg", "custom_css": null}, {"id": 3675, "slack_id": "U07G05YM98X", "display_name": "Jason", "bio": null, "projects_count": 8, "devlogs_count": 33, "votes_count": 68, "ships_count": 6, "projects": [{"id": 554, "title": "game review website", "devlogs_count": 3, "created_at": "2025-06-17T01:01:04.004-04:00"}, {"id": 4185, "title": "The Aristo Company Film Portfolio", "devlogs_count": 11, "created_at": "2025-06-28T04:20:14.614-04:00"}, {"id": 5229, "title": "Jason's personal website (swirl)", "devlogs_count": 4, "created_at": "2025-07-03T21:50:26.728-04:00"}, {"id": 7316, "title": "Useless facts", "devlogs_count": 0, "created_at": "2025-07-20T22:31:58.979-04:00"}, {"id": 2142, "title": "CookSite", "devlogs_count": 5, "created_at": "2025-06-20T09:10:26.740-04:00"}, {"id": 4906, "title": "Weather app", "devlogs_count": 2, "created_at": "2025-07-02T05:39:51.125-04:00"}, {"id": 5369, "title": "The awesomeness of scratch", "devlogs_count": 3, "created_at": "2025-07-04T20:53:50.068-04:00"}, {"id": 4674, "title": "Escape room", "devlogs_count": 5, "created_at": "2025-07-01T04:02:25.879-04:00"}], "coding_time_seconds": 219923, "coding_time_seconds_today": 0, "balance": "You need to have a pocket watcher badge to view this.", "badges": [{"name": "Maiden Voyage", "text": "you shipped your first project! the journey begins...", "icon": "\ud83d\udea2"}], "created_at": "2025-06-16T19:54:18.316-04:00", "updated_at": "2025-09-10T22:52:59.239-04:00", "avatar": "https://avatars.slack-edge.com/2025-06-07/9026613674801_bfbdb625bb710e85276b_original.jpg", "custom_css": null}, {"id": 3676, "slack_id": "U07B7THCKS6", "display_name": "lindae", "bio": null, "projects_count": 4, "devlogs_count": 3, "votes_count": 11, "ships_count": 1, "projects": [{"id": 5513, "title": "boba drops", "devlogs_count": 0, "created_at": "2025-07-05T21:20:51.780-04:00"}, {"id": 12683, "title": "moodbean.log", "devlogs_count": 1, "created_at": "2025-08-31T17:36:17.107-04:00"}, {"id": 4368, "title": "cat c'tch", "devlogs_count": 1, "created_at": "2025-06-29T11:41:03.193-04:00"}, {"id": 5556, "title": "raccoon caf\u00e9", "devlogs_count": 1, "created_at": "2025-07-06T06:30:06.159-04:00"}], "coding_time_seconds": 82852, "coding_time_seconds_today": 0, "balance": "You need to have a pocket watcher badge to view this.", "badges": [{"name": "Maiden Voyage", "text": "you shipped your first project! the journey begins...", "icon": "\ud83d\udea2"}], "created_at": "2025-06-16T19:54:21.277-04:00", "updated_at": "2025-09-10T22:52:59.260-04:00", "avatar": "https://secure.gravatar.com/avatar/e778482f99ea8674eeb98c4b5c0c23c2.jpg?s=512&d=https%3A%2F%2Fa.slack-edge.com%2Fdf10d%2Fimg%2Favatars%2Fava_0021-512.png", "custom_css": null}, {"id": 3677, "slack_id": "U091RKFP7QC", "display_name": "maicol chala", "bio": null, "projects_count": 2, "devlogs_count": 1, "votes_count": 0, "ships_count": 0, "projects": [{"id": 8666, "title": "alcubierre-explainer", "devlogs_count": 0, "created_at": "2025-07-28T20:46:17.892-04:00"}, {"id": 10690, "title": " relativity_studio", "devlogs_count": 1, "created_at": "2025-08-09T15:41:10.910-04:00"}], "coding_time_seconds": 117821, "coding_time_seconds_today": 0, "balance": "You need to have a pocket watcher badge to view this.", "badges": [], "created_at": "2025-06-16T19:54:50.558-04:00", "updated_at": "2025-07-28T20:47:43.004-04:00", "avatar": "https://avatars.slack-edge.com/2025-06-16/9071879181585_3a9378dcfaf7fb5ad51b_original.png", "custom_css": null}, {"id": 3678, "slack_id": "U08T7KPSBFF", "display_name": "Luhang Liu", "bio": null, "projects_count": 0, "devlogs_count": 0, "votes_count": 0, "ships_count": 0, "projects": [], "coding_time_seconds": 0, "coding_time_seconds_today": 0, "balance": "You need to have a pocket watcher badge to view this.", "badges": [], "created_at": "2025-06-16T19:54:52.933-04:00", "updated_at": "2025-07-03T19:28:00.599-04:00", "avatar": "https://avatars.slack-edge.com/2025-05-24/8960726863201_85a9b2345749d62de629_original.png", "custom_css": null}, {"id": 3679, "slack_id": "U091PFTK469", "display_name": "Rupak", "bio": null, "projects_count": 0, "devlogs_count": 0, "votes_count": 0, "ships_count": 0, "projects": [], "coding_time_seconds": 214987, "coding_time_seconds_today": 0, "balance": "You need to have a pocket watcher badge to view this.", "badges": [], "created_at": "2025-06-16T19:55:16.109-04:00", "updated_at": "2025-07-03T19:28:00.872-04:00", "avatar": "https://secure.gravatar.com/avatar/6dea85953868e2cdfac4dee23ac5ac9a.jpg?s=512&d=https%3A%2F%2Fa.slack-edge.com%2Fdf10d%2Fimg%2Favatars%2Fava_0026-512.png", "custom_css": null}, {"id": 3680, "slack_id": "U082607CN74", "display_name": "Tony Tran", "bio": null, "projects_count": 1, "devlogs_count": 5, "votes_count": 2, "ships_count": 1, "projects": [{"id": 1123, "title": "Password Manager", "devlogs_count": 5, "created_at": "2025-06-17T17:02:49.329-04:00"}], "coding_time_seconds": 257564, "coding_time_seconds_today": 0, "balance": "You need to have a pocket watcher badge to view this.", "badges": [{"name": "Maiden Voyage", "text": "you shipped your first project! the journey begins...", "icon": "\ud83d\udea2"}], "created_at": "2025-06-16T19:55:17.332-04:00", "updated_at": "2025-09-10T22:52:59.338-04:00", "avatar": "https://secure.gravatar.com/avatar/dfbfb9fcdb36e7481236e2cb0a6c1aca.jpg?s=512&d=https%3A%2F%2Fa.slack-edge.com%2Fdf10d%2Fimg%2Favatars%2Fava_0024-512.png", "custom_css": null}], "pagination": {"page": 184, "pages": 1192, "count": 23828, "items": 20}}