{"users": [{"id": 3681, "slack_id": "U091R9R4MTL", "display_name": "Dylan Fraser", "bio": null, "projects_count": 2, "devlogs_count": 50, "votes_count": 36, "ships_count": 1, "projects": [{"id": 8943, "title": "muse", "devlogs_count": 1, "created_at": "2025-07-29T20:57:39.052-04:00"}, {"id": 2736, "title": "graphite", "devlogs_count": 48, "created_at": "2025-06-21T22:45:53.587-04:00"}], "coding_time_seconds": 365897, "coding_time_seconds_today": 0, "balance": "You need to have a pocket watcher badge to view this.", "badges": [{"name": "Maiden Voyage", "text": "you shipped your first project! the journey begins...", "icon": "\ud83d\udea2"}], "created_at": "2025-06-16T19:55:31.266-04:00", "updated_at": "2025-09-10T22:52:59.399-04:00", "avatar": "https://avatars.slack-edge.com/2025-06-16/9059673515492_fad93430c6fccf0240ab_original.png", "custom_css": null}, {"id": 3682, "slack_id": "U08DB9ZM0RL", "display_name": "Quinn", "bio": null, "projects_count": 0, "devlogs_count": 0, "votes_count": 0, "ships_count": 0, "projects": [], "coding_time_seconds": 0, "coding_time_seconds_today": 0, "balance": "You need to have a pocket watcher badge to view this.", "badges": [], "created_at": "2025-06-16T19:55:34.105-04:00", "updated_at": "2025-07-03T19:28:01.659-04:00", "avatar": "https://avatars.slack-edge.com/2025-02-15/8453348075558_573016ecb97b1136f9fa_original.jpg", "custom_css": null}, {"id": 3683, "slack_id": "U0827A6KT29", "display_name": "Viraj Khanna", "bio": null, "projects_count": 2, "devlogs_count": 11, "votes_count": 19, "ships_count": 2, "projects": [{"id": 2523, "title": "Oratio.AI", "devlogs_count": 6, "created_at": "2025-06-21T07:50:38.587-04:00"}, {"id": 8556, "title": "PaperCrux", "devlogs_count": 5, "created_at": "2025-07-28T06:28:23.981-04:00"}], "coding_time_seconds": 58654, "coding_time_seconds_today": 0, "balance": "You need to have a pocket watcher badge to view this.", "badges": [{"name": "Maiden Voyage", "text": "you shipped your first project! the journey begins...", "icon": "\ud83d\udea2"}], "created_at": "2025-06-16T19:55:37.129-04:00", "updated_at": "2025-09-10T22:52:59.482-04:00", "avatar": "https://secure.gravatar.com/avatar/8adcbdf54fe46a42790c6c7a0662f0a8.jpg?s=512&d=https%3A%2F%2Fa.slack-edge.com%2Fdf10d%2Fimg%2Favatars%2Fava_0021-512.png", "custom_css": null}, {"id": 3684, "slack_id": "U091PFRDTC5", "display_name": "Deepak Kumar", "bio": null, "projects_count": 1, "devlogs_count": 2, "votes_count": 0, "ships_count": 1, "projects": [{"id": 434, "title": "Build-in-public", "devlogs_count": 2, "created_at": "2025-06-16T21:20:12.996-04:00"}], "coding_time_seconds": 68950, "coding_time_seconds_today": 0, "balance": "You need to have a pocket watcher badge to view this.", "badges": [{"name": "Maiden Voyage", "text": "you shipped your first project! the journey begins...", "icon": "\ud83d\udea2"}], "created_at": "2025-06-16T19:55:37.737-04:00", "updated_at": "2025-09-10T22:52:59.518-04:00", "avatar": "https://secure.gravatar.com/avatar/a186f74469777ca1bea262cbcd85f4dc.jpg?s=512&d=https%3A%2F%2Fa.slack-edge.com%2Fdf10d%2Fimg%2Favatars%2Fava_0018-512.png", "custom_css": null}, {"id": 3685, "slack_id": "U091PFU396Z", "display_name": "Marcos Aur\u00e9lio", "bio": null, "projects_count": 0, "devlogs_count": 0, "votes_count": 0, "ships_count": 0, "projects": [], "coding_time_seconds": 0, "coding_time_seconds_today": 0, "balance": "You need to have a pocket watcher badge to view this.", "badges": [], "created_at": "2025-06-16T19:56:24.151-04:00", "updated_at": "2025-07-03T19:28:02.464-04:00", "avatar": "https://avatars.slack-edge.com/2025-06-16/9043996407079_52b1a89721c06501c0b8_original.png", "custom_css": null}, {"id": 3686, "slack_id": "U08TGG4BURF", "display_name": "SbRhubarbPie", "bio": null, "projects_count": 0, "devlogs_count": 0, "votes_count": 0, "ships_count": 0, "projects": [], "coding_time_seconds": 0, "coding_time_seconds_today": 0, "balance": "You need to have a pocket watcher badge to view this.", "badges": [], "created_at": "2025-06-16T19:57:02.144-04:00", "updated_at": "2025-07-03T19:28:02.723-04:00", "avatar": "https://avatars.slack-edge.com/2025-05-19/8924964810932_663181a039556c6ff19c_original.jpg", "custom_css": null}, {"id": 3687, "slack_id": "U082JTX9K0R", "display_name": "Kingsuper195", "bio": "I use my own arch-based linux distro. I know a bit about web development. I read Tolkien. I am currently trying and failing to learn rust ", "projects_count": 10, "devlogs_count": 87, "votes_count": 129, "ships_count": 8, "projects": [{"id": 1170, "title": "The 404", "devlogs_count": 10, "created_at": "2025-06-17T20:10:15.421-04:00"}, {"id": 3321, "title": "Office Kit", "devlogs_count": 13, "created_at": "2025-06-23T20:11:31.927-04:00"}, {"id": 11455, "title": "Middle Earth on Europe", "devlogs_count": 1, "created_at": "2025-08-16T03:42:49.637-04:00"}, {"id": 12982, "title": "The Parting of the Mountain Waters", "devlogs_count": 4, "created_at": "2025-09-06T14:30:23.141-04:00"}, {"id": 11552, "title": "Flop", "devlogs_count": 25, "created_at": "2025-08-17T01:33:06.425-04:00"}, {"id": 10493, "title": "Kingsuper195 website", "devlogs_count": 3, "created_at": "2025-08-07T14:02:11.186-04:00"}, {"id": 7107, "title": "Lego Docs", "devlogs_count": 13, "created_at": "2025-07-19T04:08:56.049-04:00"}, {"id": 10962, "title": "QuizX", "devlogs_count": 8, "created_at": "2025-08-12T03:50:38.302-04:00"}, {"id": 11274, "title": "Termrender", "devlogs_count": 6, "created_at": "2025-08-14T13:19:55.838-04:00"}, {"id": 6273, "title": "Beret Guy's CompanyName.Website", "devlogs_count": 3, "created_at": "2025-07-11T22:57:07.949-04:00"}], "coding_time_seconds": 353191, "coding_time_seconds_today": 0, "balance": "You need to have a pocket watcher badge to view this.", "badges": [{"name": "Maiden Voyage", "text": "you shipped your first project! the journey begins...", "icon": "\ud83d\udea2"}, {"name": "Ballot Stuffer", "text": "vote 100 times.", "icon": "https://summer.hackclub.com/assets/i_voted-bf851b48.png"}], "created_at": "2025-06-16T19:57:42.290-04:00", "updated_at": "2025-09-10T22:52:59.710-04:00", "avatar": "https://avatars.slack-edge.com/2025-08-26/9407531021971_af84c386f118e6f4e485_original.jpg", "custom_css": null}, {"id": 3688, "slack_id": "U091RK3GJDS", "display_name": "Jade", "bio": null, "projects_count": 1, "devlogs_count": 1, "votes_count": 0, "ships_count": 0, "projects": [{"id": 450, "title": "GoAmateur", "devlogs_count": 1, "created_at": "2025-06-16T21:54:45.853-04:00"}], "coding_time_seconds": 684, "coding_time_seconds_today": 0, "balance": "You need to have a pocket watcher badge to view this.", "badges": [], "created_at": "2025-06-16T19:57:52.625-04:00", "updated_at": "2025-07-03T19:28:03.247-04:00", "avatar": "https://avatars.slack-edge.com/2025-06-16/9059490117218_70b26cbb89102baf8447_original.gif", "custom_css": null}, {"id": 3689, "slack_id": "U091PFXJF6H", "display_name": "Christian Guado", "bio": null, "projects_count": 0, "devlogs_count": 0, "votes_count": 0, "ships_count": 0, "projects": [], "coding_time_seconds": 0, "coding_time_seconds_today": 0, "balance": "You need to have a pocket watcher badge to view this.", "badges": [], "created_at": "2025-06-16T19:57:57.429-04:00", "updated_at": "2025-07-03T19:28:03.510-04:00", "avatar": "https://secure.gravatar.com/avatar/30ebb2734acbf61ed07a7584f7dbfc76.jpg?s=512&d=https%3A%2F%2Fa.slack-edge.com%2Fdf10d%2Fimg%2Favatars%2Fava_0011-512.png", "custom_css": null}, {"id": 3690, "slack_id": "U091R7YHCP6", "display_name": "josegomez", "bio": null, "projects_count": 0, "devlogs_count": 0, "votes_count": 0, "ships_count": 0, "projects": [], "coding_time_seconds": 0, "coding_time_seconds_today": 0, "balance": "You need to have a pocket watcher badge to view this.", "badges": [], "created_at": "2025-06-16T19:58:12.099-04:00", "updated_at": "2025-07-03T19:28:03.781-04:00", "avatar": "https://secure.gravatar.com/avatar/a67513352f9c92e60284bffd9e322d2b.jpg?s=512&d=https%3A%2F%2Fa.slack-edge.com%2Fdf10d%2Fimg%2Favatars%2Fava_0001-512.png", "custom_css": null}, {"id": 3691, "slack_id": "U08720C8HQW", "display_name": "Saihan Rayeed", "bio": null, "projects_count": 0, "devlogs_count": 0, "votes_count": 0, "ships_count": 0, "projects": [], "coding_time_seconds": 135911, "coding_time_seconds_today": 0, "balance": "You need to have a pocket watcher badge to view this.", "badges": [], "created_at": "2025-06-16T19:58:29.114-04:00", "updated_at": "2025-07-03T19:28:04.038-04:00", "avatar": "https://secure.gravatar.com/avatar/c5bae8a191273c549bf1c6e9eb3fd4ca.jpg?s=512&d=https%3A%2F%2Fa.slack-edge.com%2Fdf10d%2Fimg%2Favatars%2Fava_0001-512.png", "custom_css": null}, {"id": 3692, "slack_id": "U092DN3Q0P2", "display_name": "in9", "bio": null, "projects_count": 0, "devlogs_count": 0, "votes_count": 0, "ships_count": 0, "projects": [], "coding_time_seconds": 0, "coding_time_seconds_today": 0, "balance": "You need to have a pocket watcher badge to view this.", "badges": [], "created_at": "2025-06-16T19:58:40.924-04:00", "updated_at": "2025-07-03T19:28:04.301-04:00", "avatar": "https://secure.gravatar.com/avatar/e71ae182f0f9a3354b2e8f434ef11747.jpg?s=512&d=https%3A%2F%2Fa.slack-edge.com%2Fdf10d%2Fimg%2Favatars%2Fava_0007-512.png", "custom_css": null}, {"id": 3693, "slack_id": "U078YH0MEKW", "display_name": "Ben Park", "bio": "", "projects_count": 1, "devlogs_count": 5, "votes_count": 12, "ships_count": 1, "projects": [{"id": 4407, "title": "MiniFRC Robot (REEFSCAPE)", "devlogs_count": 5, "created_at": "2025-06-29T16:34:17.826-04:00"}], "coding_time_seconds": 272630, "coding_time_seconds_today": 0, "balance": "You need to have a pocket watcher badge to view this.", "badges": [{"name": "Maiden Voyage", "text": "you shipped your first project! the journey begins...", "icon": "\ud83d\udea2"}], "created_at": "2025-06-16T19:58:54.101-04:00", "updated_at": "2025-09-10T22:52:59.980-04:00", "avatar": "https://avatars.slack-edge.com/2025-03-03/8539732483891_34864d73df5761838390_original.png", "custom_css": null}, {"id": 3694, "slack_id": "U091JFRPY3G", "display_name": "Bob isBilly", "bio": null, "projects_count": 0, "devlogs_count": 0, "votes_count": 0, "ships_count": 0, "projects": [], "coding_time_seconds": 0, "coding_time_seconds_today": 0, "balance": "You need to have a pocket watcher badge to view this.", "badges": [], "created_at": "2025-06-16T19:58:58.581-04:00", "updated_at": "2025-07-03T19:28:04.833-04:00", "avatar": "https://avatars.slack-edge.com/2025-06-16/9044003810679_f40f36a391a8417b04dd_original.png", "custom_css": null}, {"id": 3695, "slack_id": "U082UD14JAE", "display_name": "shiv singh", "bio": null, "projects_count": 3, "devlogs_count": 3, "votes_count": 40, "ships_count": 2, "projects": [{"id": 10021, "title": "MEOW", "devlogs_count": 1, "created_at": "2025-08-03T14:17:37.448-04:00"}, {"id": 13037, "title": "The Lost City of Hrrurrrngh", "devlogs_count": 1, "created_at": "2025-09-07T10:52:50.367-04:00"}, {"id": 4175, "title": "MYARTGALLERY", "devlogs_count": 1, "created_at": "2025-06-28T02:59:31.526-04:00"}], "coding_time_seconds": 57665, "coding_time_seconds_today": 0, "balance": "You need to have a pocket watcher badge to view this.", "badges": [{"name": "Maiden Voyage", "text": "you shipped your first project! the journey begins...", "icon": "\ud83d\udea2"}], "created_at": "2025-06-16T19:59:09.435-04:00", "updated_at": "2025-09-10T22:53:00.060-04:00", "avatar": "https://avatars.slack-edge.com/2025-01-29/8369240792452_3c7b9c7d6bdc83ffad1a_original.jpg", "custom_css": null}, {"id": 3696, "slack_id": "U08R7L3E859", "display_name": "Dristi R", "bio": null, "projects_count": 0, "devlogs_count": 0, "votes_count": 0, "ships_count": 0, "projects": [], "coding_time_seconds": 211358, "coding_time_seconds_today": 0, "balance": "You need to have a pocket watcher badge to view this.", "badges": [], "created_at": "2025-06-16T19:59:29.084-04:00", "updated_at": "2025-07-10T08:15:51.981-04:00", "avatar": "https://avatars.slack-edge.com/2025-07-10/9172599977398_db88f042b36bcf139698_original.png", "custom_css": null}, {"id": 3697, "slack_id": "U089NHS8PMX", "display_name": "AthenaKittens09", "bio": null, "projects_count": 0, "devlogs_count": 0, "votes_count": 0, "ships_count": 0, "projects": [], "coding_time_seconds": 0, "coding_time_seconds_today": 0, "balance": "You need to have a pocket watcher badge to view this.", "badges": [], "created_at": "2025-06-16T20:00:03.676-04:00", "updated_at": "2025-07-03T19:28:05.621-04:00", "avatar": "https://secure.gravatar.com/avatar/3781ca9d52724c17ad43271f1ddf7fd1.jpg?s=512&d=https%3A%2F%2Fa.slack-edge.com%2Fdf10d%2Fimg%2Favatars%2Fava_0014-512.png", "custom_css": null}, {"id": 3698, "slack_id": "U091RA5668J", "display_name": "Shaaf", "bio": null, "projects_count": 1, "devlogs_count": 0, "votes_count": 0, "ships_count": 0, "projects": [{"id": 397, "title": "OpenAI to Z Challenge", "devlogs_count": 0, "created_at": "2025-06-16T20:14:22.010-04:00"}], "coding_time_seconds": 159078, "coding_time_seconds_today": 0, "balance": "You need to have a pocket watcher badge to view this.", "badges": [], "created_at": "2025-06-16T20:00:19.267-04:00", "updated_at": "2025-07-03T19:28:05.883-04:00", "avatar": "https://secure.gravatar.com/avatar/59ab3972f52aab7482fc1dd71b3e444d.jpg?s=512&d=https%3A%2F%2Fa.slack-edge.com%2Fdf10d%2Fimg%2Favatars%2Fava_0014-512.png", "custom_css": null}, {"id": 3699, "slack_id": "U078LEZ3WKV", "display_name": "appleshoops", "bio": null, "projects_count": 2, "devlogs_count": 3, "votes_count": 6, "ships_count": 1, "projects": [{"id": 13469, "title": "DrumChart", "devlogs_count": 1, "created_at": "2025-09-17T06:23:52.351-04:00"}, {"id": 13077, "title": "John Man", "devlogs_count": 2, "created_at": "2025-09-08T06:42:29.269-04:00"}], "coding_time_seconds": 77584, "coding_time_seconds_today": 0, "balance": "You need to have a pocket watcher badge to view this.", "badges": [{"name": "Maiden Voyage", "text": "you shipped your first project! the journey begins...", "icon": "\ud83d\udea2"}], "created_at": "2025-06-16T20:00:28.001-04:00", "updated_at": "2025-09-13T11:41:40.007-04:00", "avatar": "https://secure.gravatar.com/avatar/a97ac899a97adb027f3db3727564eb10.jpg?s=512&d=https%3A%2F%2Fa.slack-edge.com%2Fdf10d%2Fimg%2Favatars%2Fava_0024-512.png", "custom_css": null}, {"id": 3700, "slack_id": "U091R9WCLUA", "display_name": "Jo\u00e3o Damasceno", "bio": null, "projects_count": 0, "devlogs_count": 0, "votes_count": 0, "ships_count": 0, "projects": [], "coding_time_seconds": 0, "coding_time_seconds_today": 0, "balance": "You need to have a pocket watcher badge to view this.", "badges": [], "created_at": "2025-06-16T20:00:28.933-04:00", "updated_at": "2025-07-03T19:28:06.395-04:00", "avatar": "https://secure.gravatar.com/avatar/990523ee8f3359073503b9ddf30f3557.jpg?s=512&d=https%3A%2F%2Fa.slack-edge.com%2Fdf10d%2Fimg%2Favatars%2Fava_0013-512.png", "custom_css": null}], "pagination": {"page": 185, "pages": 1192, "count": 23828, "items": 20}}