{"users": [{"id": 3701, "slack_id": "U091RKVSKMJ", "display_name": "Georgii Gusev", "bio": null, "projects_count": 0, "devlogs_count": 0, "votes_count": 0, "ships_count": 0, "projects": [], "coding_time_seconds": 175, "coding_time_seconds_today": 0, "balance": "You need to have a pocket watcher badge to view this.", "badges": [], "created_at": "2025-06-16T20:00:35.537-04:00", "updated_at": "2025-07-03T19:28:06.659-04:00", "avatar": "https://avatars.slack-edge.com/2025-06-16/9057567767589_4c5b1367653e1a6e0d29_original.jpg", "custom_css": null}, {"id": 3702, "slack_id": "U091PGL7EMB", "display_name": "Fareez Borhanudin", "bio": null, "projects_count": 0, "devlogs_count": 0, "votes_count": 0, "ships_count": 0, "projects": [], "coding_time_seconds": 0, "coding_time_seconds_today": 0, "balance": "You need to have a pocket watcher badge to view this.", "badges": [], "created_at": "2025-06-16T20:01:41.591-04:00", "updated_at": "2025-07-03T19:28:07.001-04:00", "avatar": "https://avatars.slack-edge.com/2025-06-16/9052562296854_e3165d337a54baae8237_original.jpg", "custom_css": null}, {"id": 3703, "slack_id": "U091RL7FYH2", "display_name": "Sumuditha Lansakara", "bio": null, "projects_count": 0, "devlogs_count": 0, "votes_count": 0, "ships_count": 0, "projects": [], "coding_time_seconds": 604315, "coding_time_seconds_today": 1481, "balance": "You need to have a pocket watcher badge to view this.", "badges": [], "created_at": "2025-06-16T20:01:43.505-04:00", "updated_at": "2025-07-03T19:28:07.273-04:00", "avatar": "https://avatars.slack-edge.com/2025-06-16/9052562352342_a1d932324a536103bca2_original.jpg", "custom_css": null}, {"id": 3704, "slack_id": "U07E9LT4VC3", "display_name": "Gamemaker addict", "bio": null, "projects_count": 1, "devlogs_count": 1, "votes_count": 0, "ships_count": 0, "projects": [{"id": 1114, "title": "Glitch in Time", "devlogs_count": 1, "created_at": "2025-06-17T16:41:59.273-04:00"}], "coding_time_seconds": 222936, "coding_time_seconds_today": 0, "balance": "You need to have a pocket watcher badge to view this.", "badges": [], "created_at": "2025-06-16T20:01:45.305-04:00", "updated_at": "2025-08-11T22:00:01.084-04:00", "avatar": "https://avatars.slack-edge.com/2025-02-27/8527871062356_c6f65e88e95c31bd99f3_original.jpg", "custom_css": null}, {"id": 3705, "slack_id": "U0923SFC473", "display_name": "Sahil Prajapati", "bio": null, "projects_count": 0, "devlogs_count": 0, "votes_count": 0, "ships_count": 0, "projects": [], "coding_time_seconds": 0, "coding_time_seconds_today": 0, "balance": "You need to have a pocket watcher badge to view this.", "badges": [], "created_at": "2025-06-16T20:01:57.839-04:00", "updated_at": "2025-07-10T07:16:34.804-04:00", "avatar": "https://secure.gravatar.com/avatar/cffda0ebafb74c6c11cb825ada3eb6b0.jpg?s=512&d=https%3A%2F%2Fa.slack-edge.com%2Fdf10d%2Fimg%2Favatars%2Fava_0005-512.png", "custom_css": null}, {"id": 3706, "slack_id": "U07DFEYBL9W", "display_name": "Ryan Khieu", "bio": null, "projects_count": 0, "devlogs_count": 0, "votes_count": 0, "ships_count": 0, "projects": [], "coding_time_seconds": 4560, "coding_time_seconds_today": 0, "balance": "You need to have a pocket watcher badge to view this.", "badges": [], "created_at": "2025-06-16T20:02:11.662-04:00", "updated_at": "2025-07-03T19:28:08.078-04:00", "avatar": "https://avatars.slack-edge.com/2024-07-17/7420380586263_4823ccd483a83c0cc6b8_original.jpg", "custom_css": null}, {"id": 3707, "slack_id": "U092D1U466L", "display_name": "Luiggi R. Cardoso", "bio": "", "projects_count": 3, "devlogs_count": 8, "votes_count": 39, "ships_count": 2, "projects": [{"id": 13528, "title": "Voxt Tool", "devlogs_count": 1, "created_at": "2025-09-18T16:13:05.678-04:00"}, {"id": 11608, "title": "Get Cat Images | Raycast Extension", "devlogs_count": 2, "created_at": "2025-08-17T16:53:54.908-04:00"}, {"id": 6059, "title": "Get Random Joke", "devlogs_count": 1, "created_at": "2025-07-10T09:40:16.831-04:00"}], "coding_time_seconds": 304270, "coding_time_seconds_today": 0, "balance": "You need to have a pocket watcher badge to view this.", "badges": [{"name": "Maiden Voyage", "text": "you shipped your first project! the journey begins...", "icon": "\ud83d\udea2"}], "created_at": "2025-06-16T20:03:52.410-04:00", "updated_at": "2025-09-10T22:53:00.646-04:00", "avatar": "https://secure.gravatar.com/avatar/ed56196da28eaec0877215b7240f54fe.jpg?s=512&d=https%3A%2F%2Fa.slack-edge.com%2Fdf10d%2Fimg%2Favatars%2Fava_0015-512.png", "custom_css": null}, {"id": 3708, "slack_id": "U091PEVDUUD", "display_name": "Bhatck", "bio": null, "projects_count": 0, "devlogs_count": 0, "votes_count": 0, "ships_count": 0, "projects": [], "coding_time_seconds": 0, "coding_time_seconds_today": 0, "balance": "You need to have a pocket watcher badge to view this.", "badges": [], "created_at": "2025-06-16T20:03:52.597-04:00", "updated_at": "2025-07-03T19:28:08.608-04:00", "avatar": "https://secure.gravatar.com/avatar/2c669cb482c6d4912dfe428fabc0884b.jpg?s=512&d=https%3A%2F%2Fa.slack-edge.com%2Fdf10d%2Fimg%2Favatars%2Fava_0004-512.png", "custom_css": null}, {"id": 3709, "slack_id": "U08HSEKPMHD", "display_name": "Niq", "bio": null, "projects_count": 3, "devlogs_count": 11, "votes_count": 0, "ships_count": 1, "projects": [{"id": 12346, "title": "Niq's Personal Website", "devlogs_count": 5, "created_at": "2025-08-26T02:43:55.381-04:00"}, {"id": 13555, "title": "Cypher", "devlogs_count": 5, "created_at": "2025-09-19T09:42:34.841-04:00"}, {"id": 3697, "title": "Pagtingin", "devlogs_count": 1, "created_at": "2025-06-25T09:16:42.408-04:00"}], "coding_time_seconds": 234939, "coding_time_seconds_today": 0, "balance": "You need to have a pocket watcher badge to view this.", "badges": [{"name": "Maiden Voyage", "text": "you shipped your first project! the journey begins...", "icon": "\ud83d\udea2"}], "created_at": "2025-06-16T20:04:24.196-04:00", "updated_at": "2025-09-22T10:03:49.925-04:00", "avatar": "https://avatars.slack-edge.com/2025-07-17/9216884662692_f23de690cae959f4426c_original.png", "custom_css": null}, {"id": 3710, "slack_id": "U0814M7PVC3", "display_name": "Ahmad K.", "bio": null, "projects_count": 0, "devlogs_count": 0, "votes_count": 0, "ships_count": 0, "projects": [], "coding_time_seconds": 89669, "coding_time_seconds_today": 0, "balance": "You need to have a pocket watcher badge to view this.", "badges": [], "created_at": "2025-06-16T20:04:29.391-04:00", "updated_at": "2025-07-03T19:28:09.120-04:00", "avatar": "https://secure.gravatar.com/avatar/1ba50a2221e7ba9122074d85e717876b.jpg?s=512&d=https%3A%2F%2Fa.slack-edge.com%2Fdf10d%2Fimg%2Favatars%2Fava_0007-512.png", "custom_css": null}, {"id": 3711, "slack_id": "U091A0KR82K", "display_name": "Ashes110", "bio": null, "projects_count": 0, "devlogs_count": 0, "votes_count": 0, "ships_count": 0, "projects": [], "coding_time_seconds": 0, "coding_time_seconds_today": 0, "balance": "You need to have a pocket watcher badge to view this.", "badges": [], "created_at": "2025-06-16T20:04:59.628-04:00", "updated_at": "2025-07-03T19:28:09.377-04:00", "avatar": "https://secure.gravatar.com/avatar/514d2250bc10db3fddf6b27865423f04.jpg?s=512&d=https%3A%2F%2Fa.slack-edge.com%2Fdf10d%2Fimg%2Favatars%2Fava_0000-512.png", "custom_css": null}, {"id": 3712, "slack_id": "U092C7102KS", "display_name": "NITHIN", "bio": null, "projects_count": 0, "devlogs_count": 0, "votes_count": 0, "ships_count": 0, "projects": [], "coding_time_seconds": 0, "coding_time_seconds_today": 0, "balance": "You need to have a pocket watcher badge to view this.", "badges": [], "created_at": "2025-06-16T20:05:09.912-04:00", "updated_at": "2025-07-21T22:06:43.009-04:00", "avatar": "https://secure.gravatar.com/avatar/6aea079c79ebd536d6aab5a2c866a5bf.jpg?s=512&d=https%3A%2F%2Fa.slack-edge.com%2Fdf10d%2Fimg%2Favatars%2Fava_0026-512.png", "custom_css": null}, {"id": 3713, "slack_id": "U0923SNEJ4R", "display_name": "Rose", "bio": null, "projects_count": 0, "devlogs_count": 0, "votes_count": 0, "ships_count": 0, "projects": [], "coding_time_seconds": 3861, "coding_time_seconds_today": 0, "balance": "You need to have a pocket watcher badge to view this.", "badges": [], "created_at": "2025-06-16T20:05:14.431-04:00", "updated_at": "2025-07-03T19:28:09.918-04:00", "avatar": "https://secure.gravatar.com/avatar/b302aba28ba4674be1d1e4c3b50bf4ef.jpg?s=512&d=https%3A%2F%2Fa.slack-edge.com%2Fdf10d%2Fimg%2Favatars%2Fava_0007-512.png", "custom_css": null}, {"id": 3714, "slack_id": "U0923SP34SV", "display_name": "leovoon", "bio": null, "projects_count": 0, "devlogs_count": 0, "votes_count": 0, "ships_count": 0, "projects": [], "coding_time_seconds": 550723, "coding_time_seconds_today": 0, "balance": "You need to have a pocket watcher badge to view this.", "badges": [], "created_at": "2025-06-16T20:05:42.048-04:00", "updated_at": "2025-07-21T23:00:15.167-04:00", "avatar": "https://secure.gravatar.com/avatar/04b1b0358d2cb534c203398a7dbadfc3.jpg?s=512&d=https%3A%2F%2Fa.slack-edge.com%2Fdf10d%2Fimg%2Favatars%2Fava_0020-512.png", "custom_css": null}, {"id": 3715, "slack_id": "U091JCR5CSX", "display_name": "Angel", "bio": null, "projects_count": 0, "devlogs_count": 0, "votes_count": 0, "ships_count": 0, "projects": [], "coding_time_seconds": 6191, "coding_time_seconds_today": 0, "balance": "You need to have a pocket watcher badge to view this.", "badges": [], "created_at": "2025-06-16T20:05:48.025-04:00", "updated_at": "2025-07-03T19:28:10.446-04:00", "avatar": "https://secure.gravatar.com/avatar/d7139c24007b3ed6f21fb70763955c73.jpg?s=512&d=https%3A%2F%2Fa.slack-edge.com%2Fdf10d%2Fimg%2Favatars%2Fava_0017-512.png", "custom_css": null}, {"id": 3716, "slack_id": "U091JCT2WCT", "display_name": "Kan Ming Xian", "bio": null, "projects_count": 0, "devlogs_count": 0, "votes_count": 0, "ships_count": 0, "projects": [], "coding_time_seconds": 26773, "coding_time_seconds_today": 0, "balance": "You need to have a pocket watcher badge to view this.", "badges": [], "created_at": "2025-06-16T20:06:01.274-04:00", "updated_at": "2025-07-03T19:28:10.709-04:00", "avatar": "https://secure.gravatar.com/avatar/cdda8c4c195f25995bd62d1356dea19c.jpg?s=512&d=https%3A%2F%2Fa.slack-edge.com%2Fdf10d%2Fimg%2Favatars%2Fava_0020-512.png", "custom_css": null}, {"id": 3717, "slack_id": "U081WN0MA56", "display_name": "egg splats", "bio": null, "projects_count": 0, "devlogs_count": 0, "votes_count": 0, "ships_count": 0, "projects": [], "coding_time_seconds": 28238, "coding_time_seconds_today": 0, "balance": "You need to have a pocket watcher badge to view this.", "badges": [], "created_at": "2025-06-16T20:06:02.710-04:00", "updated_at": "2025-08-14T14:15:47.218-04:00", "avatar": "https://avatars.slack-edge.com/2025-08-14/9353555990453_c325d0c36c85a077282e_original.png", "custom_css": null}, {"id": 3718, "slack_id": "U091PGSB26R", "display_name": "Thales Machado", "bio": null, "projects_count": 0, "devlogs_count": 0, "votes_count": 0, "ships_count": 0, "projects": [], "coding_time_seconds": 0, "coding_time_seconds_today": 0, "balance": "You need to have a pocket watcher badge to view this.", "badges": [], "created_at": "2025-06-16T20:06:05.950-04:00", "updated_at": "2025-07-03T19:28:11.246-04:00", "avatar": "https://secure.gravatar.com/avatar/794722ee68b13653aae0b7a5e9f15940.jpg?s=512&d=https%3A%2F%2Fa.slack-edge.com%2Fdf10d%2Fimg%2Favatars%2Fava_0011-512.png", "custom_css": null}, {"id": 3719, "slack_id": "U091RAW3N2E", "display_name": "carol", "bio": null, "projects_count": 0, "devlogs_count": 0, "votes_count": 0, "ships_count": 0, "projects": [], "coding_time_seconds": 1145, "coding_time_seconds_today": 0, "balance": "You need to have a pocket watcher badge to view this.", "badges": [], "created_at": "2025-06-16T20:06:43.500-04:00", "updated_at": "2025-07-03T19:28:11.506-04:00", "avatar": "https://avatars.slack-edge.com/2025-06-19/9076604145957_3a386cd31c6a04c74451_original.jpg", "custom_css": null}, {"id": 3720, "slack_id": "U080G88RQKA", "display_name": "Aahana Jain", "bio": null, "projects_count": 1, "devlogs_count": 1, "votes_count": 0, "ships_count": 0, "projects": [{"id": 5239, "title": "Portfolio :D", "devlogs_count": 1, "created_at": "2025-07-04T00:33:15.146-04:00"}], "coding_time_seconds": 75665, "coding_time_seconds_today": 0, "balance": "You need to have a pocket watcher badge to view this.", "badges": [], "created_at": "2025-06-16T20:06:44.977-04:00", "updated_at": "2025-07-03T19:28:11.786-04:00", "avatar": "https://secure.gravatar.com/avatar/0428c765c99d1eaf11343609472b5db4.jpg?s=512&d=https%3A%2F%2Fa.slack-edge.com%2Fdf10d%2Fimg%2Favatars%2Fava_0018-512.png", "custom_css": null}], "pagination": {"page": 186, "pages": 1192, "count": 23828, "items": 20}}