{"users": [{"id": 3741, "slack_id": "U091RLUUCLC", "display_name": "Risheek Nagavarapu", "bio": null, "projects_count": 0, "devlogs_count": 0, "votes_count": 0, "ships_count": 0, "projects": [], "coding_time_seconds": 0, "coding_time_seconds_today": 0, "balance": "You need to have a pocket watcher badge to view this.", "badges": [], "created_at": "2025-06-16T20:09:42.370-04:00", "updated_at": "2025-07-03T19:28:17.457-04:00", "avatar": "https://secure.gravatar.com/avatar/817d262cc2d6878b0fcb3d07fd1de132.jpg?s=512&d=https%3A%2F%2Fa.slack-edge.com%2Fdf10d%2Fimg%2Favatars%2Fava_0009-512.png", "custom_css": null}, {"id": 3742, "slack_id": "U07V812MS0G", "display_name": "its_kronos", "bio": null, "projects_count": 2, "devlogs_count": 19, "votes_count": 27, "ships_count": 1, "projects": [{"id": 9808, "title": "Databoard", "devlogs_count": 11, "created_at": "2025-08-02T11:00:42.169-04:00"}, {"id": 5877, "title": "Python en Francais", "devlogs_count": 8, "created_at": "2025-07-08T17:04:54.311-04:00"}], "coding_time_seconds": 199591, "coding_time_seconds_today": 0, "balance": "You need to have a pocket watcher badge to view this.", "badges": [{"name": "Maiden Voyage", "text": "you shipped your first project! the journey begins...", "icon": "\ud83d\udea2"}], "created_at": "2025-06-16T20:09:45.879-04:00", "updated_at": "2025-09-10T22:53:01.856-04:00", "avatar": "https://avatars.slack-edge.com/2024-11-01/7964748173974_a002daad05a4b74bd5f1_original.png", "custom_css": null}, {"id": 3743, "slack_id": "U08TF2YGXPD", "display_name": "Ctimene", "bio": null, "projects_count": 0, "devlogs_count": 0, "votes_count": 0, "ships_count": 0, "projects": [], "coding_time_seconds": 74109, "coding_time_seconds_today": 0, "balance": "You need to have a pocket watcher badge to view this.", "badges": [], "created_at": "2025-06-16T20:10:14.222-04:00", "updated_at": "2025-07-03T19:28:18.058-04:00", "avatar": "https://avatars.slack-edge.com/2025-06-01/8983333883954_b8c9ac28f3f2249a4d19_original.png", "custom_css": null}, {"id": 3744, "slack_id": "U091RM0UZ7W", "display_name": "Zayden", "bio": null, "projects_count": 0, "devlogs_count": 0, "votes_count": 0, "ships_count": 0, "projects": [], "coding_time_seconds": 0, "coding_time_seconds_today": 0, "balance": "You need to have a pocket watcher badge to view this.", "badges": [], "created_at": "2025-06-16T20:10:56.468-04:00", "updated_at": "2025-07-03T19:28:18.315-04:00", "avatar": "https://secure.gravatar.com/avatar/3c25362ad0a1ab0f191f6b12a5d9cabc.jpg?s=512&d=https%3A%2F%2Fa.slack-edge.com%2Fdf10d%2Fimg%2Favatars%2Fava_0011-512.png", "custom_css": null}, {"id": 3745, "slack_id": "U092DPEJ12L", "display_name": "Rodrigo A", "bio": null, "projects_count": 0, "devlogs_count": 0, "votes_count": 0, "ships_count": 0, "projects": [], "coding_time_seconds": 119826, "coding_time_seconds_today": 0, "balance": "You need to have a pocket watcher badge to view this.", "badges": [], "created_at": "2025-06-16T20:10:57.921-04:00", "updated_at": "2025-07-09T16:51:59.749-04:00", "avatar": "https://avatars.slack-edge.com/2025-06-16/9052470583027_037376158e6bfd462691_original.png", "custom_css": null}, {"id": 3746, "slack_id": "U0825Q5PREX", "display_name": "crtscreen", "bio": null, "projects_count": 0, "devlogs_count": 0, "votes_count": 0, "ships_count": 0, "projects": [], "coding_time_seconds": 2900, "coding_time_seconds_today": 0, "balance": "You need to have a pocket watcher badge to view this.", "badges": [], "created_at": "2025-06-16T20:11:09.912-04:00", "updated_at": "2025-09-06T03:06:53.401-04:00", "avatar": "https://avatars.slack-edge.com/2024-12-21/8193693324807_9fbc1264e12be5de28bf_original.jpg", "custom_css": null}, {"id": 3747, "slack_id": "U092DPGSRC0", "display_name": "Richard Darou", "bio": null, "projects_count": 0, "devlogs_count": 0, "votes_count": 0, "ships_count": 0, "projects": [], "coding_time_seconds": 22528, "coding_time_seconds_today": 0, "balance": "You need to have a pocket watcher badge to view this.", "badges": [], "created_at": "2025-06-16T20:11:55.746-04:00", "updated_at": "2025-07-03T19:28:19.118-04:00", "avatar": "https://secure.gravatar.com/avatar/eb2e68f005a725edfaa386fedf96cf50.jpg?s=512&d=https%3A%2F%2Fa.slack-edge.com%2Fdf10d%2Fimg%2Favatars%2Fava_0021-512.png", "custom_css": null}, {"id": 3748, "slack_id": "U07D3JQR0R4", "display_name": "Dmitriy Ivkov", "bio": null, "projects_count": 1, "devlogs_count": 0, "votes_count": 0, "ships_count": 0, "projects": [{"id": 1806, "title": "Clustering Research", "devlogs_count": 0, "created_at": "2025-06-19T09:46:08.253-04:00"}], "coding_time_seconds": 266718, "coding_time_seconds_today": 0, "balance": "You need to have a pocket watcher badge to view this.", "badges": [], "created_at": "2025-06-16T20:12:07.444-04:00", "updated_at": "2025-07-03T19:28:19.381-04:00", "avatar": "https://avatars.slack-edge.com/2024-07-19/7452191846147_64f989c8171c31f7ff5d_original.jpg", "custom_css": null}, {"id": 3749, "slack_id": "U091PHP7US1", "display_name": "Ethan Yan Xu", "bio": null, "projects_count": 0, "devlogs_count": 0, "votes_count": 0, "ships_count": 0, "projects": [], "coding_time_seconds": 18817, "coding_time_seconds_today": 0, "balance": "You need to have a pocket watcher badge to view this.", "badges": [], "created_at": "2025-06-16T20:12:12.613-04:00", "updated_at": "2025-07-03T19:28:19.651-04:00", "avatar": "https://avatars.slack-edge.com/2025-06-16/9057607960341_96eeb7967f40f251ef3f_original.webp", "custom_css": null}, {"id": 3750, "slack_id": "U07KBGNHD1Q", "display_name": "Harsh", "bio": null, "projects_count": 3, "devlogs_count": 8, "votes_count": 40, "ships_count": 2, "projects": [{"id": 11795, "title": "IOS26 Inspired Personal Website", "devlogs_count": 0, "created_at": "2025-08-19T15:24:46.942-04:00"}, {"id": 1551, "title": "Git-Glance", "devlogs_count": 6, "created_at": "2025-06-18T18:11:19.541-04:00"}, {"id": 6620, "title": "QuitC-Lang", "devlogs_count": 2, "created_at": "2025-07-14T15:08:38.966-04:00"}], "coding_time_seconds": 178000, "coding_time_seconds_today": 0, "balance": "You need to have a pocket watcher badge to view this.", "badges": [{"name": "Maiden Voyage", "text": "you shipped your first project! the journey begins...", "icon": "\ud83d\udea2"}], "created_at": "2025-06-16T20:12:45.282-04:00", "updated_at": "2025-09-10T22:53:02.040-04:00", "avatar": "https://avatars.slack-edge.com/2024-08-30/7651670050710_1c1a95593b2acf430ae7_original.jpg", "custom_css": null}, {"id": 3751, "slack_id": "U0822T6QHPE", "display_name": "Kolin63", "bio": null, "projects_count": 2, "devlogs_count": 8, "votes_count": 20, "ships_count": 2, "projects": [{"id": 10643, "title": "Chubby", "devlogs_count": 3, "created_at": "2025-08-09T08:02:59.230-04:00"}, {"id": 12737, "title": "Burrito", "devlogs_count": 5, "created_at": "2025-09-01T20:55:39.260-04:00"}], "coding_time_seconds": 354291, "coding_time_seconds_today": 0, "balance": "You need to have a pocket watcher badge to view this.", "badges": [{"name": "Maiden Voyage", "text": "you shipped your first project! the journey begins...", "icon": "\ud83d\udea2"}], "created_at": "2025-06-16T20:12:45.581-04:00", "updated_at": "2025-09-10T22:53:02.063-04:00", "avatar": "https://secure.gravatar.com/avatar/51ab1f7d726288e3720685225f02f646.jpg?s=512&d=https%3A%2F%2Fa.slack-edge.com%2Fdf10d%2Fimg%2Favatars%2Fava_0009-512.png", "custom_css": null}, {"id": 3752, "slack_id": "U091ML81M9T", "display_name": "Lalitha A R", "bio": null, "projects_count": 4, "devlogs_count": 16, "votes_count": 56, "ships_count": 2, "projects": [{"id": 11935, "title": "comfort commons", "devlogs_count": 0, "created_at": "2025-08-21T08:06:00.206-04:00"}, {"id": 13095, "title": "exam turtle", "devlogs_count": 1, "created_at": "2025-09-08T13:05:56.420-04:00"}, {"id": 2480, "title": "Learn like you are 5", "devlogs_count": 3, "created_at": "2025-06-21T05:41:54.940-04:00"}, {"id": 5079, "title": "cm-colors", "devlogs_count": 11, "created_at": "2025-07-03T05:09:20.534-04:00"}], "coding_time_seconds": 343081, "coding_time_seconds_today": 0, "balance": "You need to have a pocket watcher badge to view this.", "badges": [{"name": "Maiden Voyage", "text": "you shipped your first project! the journey begins...", "icon": "\ud83d\udea2"}], "created_at": "2025-06-16T20:12:53.883-04:00", "updated_at": "2025-09-10T22:53:02.095-04:00", "avatar": "https://avatars.slack-edge.com/2025-06-16/9052599487734_88166eea32eae729f22a_original.jpg", "custom_css": null}, {"id": 3753, "slack_id": "U092DPP3NGY", "display_name": "Gustavo", "bio": null, "projects_count": 0, "devlogs_count": 0, "votes_count": 0, "ships_count": 0, "projects": [], "coding_time_seconds": 0, "coding_time_seconds_today": 0, "balance": "You need to have a pocket watcher badge to view this.", "badges": [], "created_at": "2025-06-16T20:13:26.413-04:00", "updated_at": "2025-07-03T19:28:20.967-04:00", "avatar": "https://secure.gravatar.com/avatar/6a46a3343154f5522d43b3a8459f68ba.jpg?s=512&d=https%3A%2F%2Fa.slack-edge.com%2Fdf10d%2Fimg%2Favatars%2Fava_0025-512.png", "custom_css": null}, {"id": 3754, "slack_id": "U092DPRM8SU", "display_name": "zandiexoder", "bio": null, "projects_count": 0, "devlogs_count": 0, "votes_count": 0, "ships_count": 0, "projects": [], "coding_time_seconds": 0, "coding_time_seconds_today": 0, "balance": "You need to have a pocket watcher badge to view this.", "badges": [], "created_at": "2025-06-16T20:14:03.141-04:00", "updated_at": "2025-07-03T19:28:21.227-04:00", "avatar": "https://secure.gravatar.com/avatar/d9b71c1197cbc4e33594b70f13c9fd79.jpg?s=512&d=https%3A%2F%2Fa.slack-edge.com%2Fdf10d%2Fimg%2Favatars%2Fava_0014-512.png", "custom_css": null}, {"id": 3755, "slack_id": "U091A1E9ET1", "display_name": "Jack", "bio": null, "projects_count": 0, "devlogs_count": 0, "votes_count": 0, "ships_count": 0, "projects": [], "coding_time_seconds": 0, "coding_time_seconds_today": 0, "balance": "You need to have a pocket watcher badge to view this.", "badges": [], "created_at": "2025-06-16T20:14:06.391-04:00", "updated_at": "2025-07-03T19:28:21.493-04:00", "avatar": "https://secure.gravatar.com/avatar/326c8d6fb1fecdbbdd615b23408f9d30.jpg?s=512&d=https%3A%2F%2Fa.slack-edge.com%2Fdf10d%2Fimg%2Favatars%2Fava_0024-512.png", "custom_css": null}, {"id": 3756, "slack_id": "U08QP0FDRCJ", "display_name": "Max", "bio": null, "projects_count": 0, "devlogs_count": 0, "votes_count": 0, "ships_count": 0, "projects": [], "coding_time_seconds": 0, "coding_time_seconds_today": 0, "balance": "You need to have a pocket watcher badge to view this.", "badges": [], "created_at": "2025-06-16T20:14:11.709-04:00", "updated_at": "2025-07-03T19:28:21.754-04:00", "avatar": "https://avatars.slack-edge.com/2025-05-04/8855893143457_976fa933f195b0e6975e_original.png", "custom_css": null}, {"id": 3757, "slack_id": "U087JKGDY90", "display_name": "Dendreu", "bio": null, "projects_count": 0, "devlogs_count": 0, "votes_count": 0, "ships_count": 0, "projects": [], "coding_time_seconds": 0, "coding_time_seconds_today": 0, "balance": "You need to have a pocket watcher badge to view this.", "badges": [], "created_at": "2025-06-16T20:14:28.310-04:00", "updated_at": "2025-07-03T19:28:22.017-04:00", "avatar": "https://secure.gravatar.com/avatar/eeb1158bd07690f9f17d53a28e2a4fc3.jpg?s=512&d=https%3A%2F%2Fa.slack-edge.com%2Fdf10d%2Fimg%2Favatars%2Fava_0024-512.png", "custom_css": null}, {"id": 3758, "slack_id": "U091A0WSCNB", "display_name": "6606082", "bio": null, "projects_count": 0, "devlogs_count": 0, "votes_count": 0, "ships_count": 0, "projects": [], "coding_time_seconds": 0, "coding_time_seconds_today": 0, "balance": "You need to have a pocket watcher badge to view this.", "badges": [], "created_at": "2025-06-16T20:14:30.053-04:00", "updated_at": "2025-07-03T19:28:22.288-04:00", "avatar": "https://avatars.slack-edge.com/2025-06-17/9044399525447_6b6ee45d84a7a0b22b20_original.png", "custom_css": null}, {"id": 3759, "slack_id": "U08QWTXBJ57", "display_name": "Ryan Zhang", "bio": null, "projects_count": 2, "devlogs_count": 3, "votes_count": 9, "ships_count": 1, "projects": [{"id": 4141, "title": "Cooked Game", "devlogs_count": 3, "created_at": "2025-06-27T18:29:35.401-04:00"}, {"id": 7631, "title": "Portfolio Web Page", "devlogs_count": 0, "created_at": "2025-07-22T10:42:32.612-04:00"}], "coding_time_seconds": 191521, "coding_time_seconds_today": 0, "balance": "You need to have a pocket watcher badge to view this.", "badges": [{"name": "Maiden Voyage", "text": "you shipped your first project! the journey begins...", "icon": "\ud83d\udea2"}], "created_at": "2025-06-16T20:14:36.362-04:00", "updated_at": "2025-09-10T22:53:02.318-04:00", "avatar": "https://avatars.slack-edge.com/2025-05-03/8836241443542_e30f79a6ccad4ae14808_original.png", "custom_css": null}, {"id": 3760, "slack_id": "U091JDV9VMZ", "display_name": "RB", "bio": null, "projects_count": 0, "devlogs_count": 0, "votes_count": 0, "ships_count": 0, "projects": [], "coding_time_seconds": 0, "coding_time_seconds_today": 0, "balance": "You need to have a pocket watcher badge to view this.", "badges": [], "created_at": "2025-06-16T20:14:51.718-04:00", "updated_at": "2025-07-03T19:28:22.815-04:00", "avatar": "https://secure.gravatar.com/avatar/6139e76912385ad44578ef4f622583ed.jpg?s=512&d=https%3A%2F%2Fa.slack-edge.com%2Fdf10d%2Fimg%2Favatars%2Fava_0002-512.png", "custom_css": null}], "pagination": {"page": 188, "pages": 1192, "count": 23828, "items": 20}}