{"users": [{"id": 3761, "slack_id": "U082J90D7MF", "display_name": "Explodey Wolf", "bio": null, "projects_count": 0, "devlogs_count": 0, "votes_count": 0, "ships_count": 0, "projects": [], "coding_time_seconds": 16668, "coding_time_seconds_today": 0, "balance": "You need to have a pocket watcher badge to view this.", "badges": [], "created_at": "2025-06-16T20:15:03.812-04:00", "updated_at": "2025-07-03T19:28:23.081-04:00", "avatar": "https://avatars.slack-edge.com/2024-12-02/8113585491795_583b038440f45cb6465d_original.png", "custom_css": null}, {"id": 3762, "slack_id": "U091PHS63QD", "display_name": "Aditya", "bio": null, "projects_count": 0, "devlogs_count": 0, "votes_count": 0, "ships_count": 0, "projects": [], "coding_time_seconds": 20939, "coding_time_seconds_today": 240, "balance": "You need to have a pocket watcher badge to view this.", "badges": [], "created_at": "2025-06-16T20:15:14.998-04:00", "updated_at": "2025-07-03T19:28:23.341-04:00", "avatar": "https://secure.gravatar.com/avatar/0c53ff10ee4728570f53d3e4c742f6ca.jpg?s=512&d=https%3A%2F%2Fa.slack-edge.com%2Fdf10d%2Fimg%2Favatars%2Fava_0010-512.png", "custom_css": null}, {"id": 3763, "slack_id": "U0923TK6VJ5", "display_name": "Madireddy Meena Mahanth Harinadh", "bio": null, "projects_count": 0, "devlogs_count": 0, "votes_count": 0, "ships_count": 0, "projects": [], "coding_time_seconds": 0, "coding_time_seconds_today": 0, "balance": "You need to have a pocket watcher badge to view this.", "badges": [], "created_at": "2025-06-16T20:15:36.029-04:00", "updated_at": "2025-07-03T19:28:23.610-04:00", "avatar": "https://secure.gravatar.com/avatar/79397399fa94b5a203efd801f52bc7a5.jpg?s=512&d=https%3A%2F%2Fa.slack-edge.com%2Fdf10d%2Fimg%2Favatars%2Fava_0013-512.png", "custom_css": null}, {"id": 3764, "slack_id": "U0819ENQQAW", "display_name": "Nathan Weisz", "bio": null, "projects_count": 0, "devlogs_count": 0, "votes_count": 0, "ships_count": 0, "projects": [], "coding_time_seconds": 178041, "coding_time_seconds_today": 0, "balance": "You need to have a pocket watcher badge to view this.", "badges": [], "created_at": "2025-06-16T20:16:18.409-04:00", "updated_at": "2025-07-03T19:28:23.883-04:00", "avatar": "https://avatars.slack-edge.com/2024-11-17/8040668168117_33e4c7ff53e9c41e9d7c_original.png", "custom_css": null}, {"id": 3765, "slack_id": "U078EVBRM7X", "display_name": "Kai", "bio": null, "projects_count": 0, "devlogs_count": 0, "votes_count": 0, "ships_count": 0, "projects": [], "coding_time_seconds": 9730, "coding_time_seconds_today": 0, "balance": "You need to have a pocket watcher badge to view this.", "badges": [], "created_at": "2025-06-16T20:16:29.594-04:00", "updated_at": "2025-07-03T19:28:24.144-04:00", "avatar": "https://secure.gravatar.com/avatar/7313f18b2428998ae64941bc08e7330b.jpg?s=512&d=https%3A%2F%2Fa.slack-edge.com%2Fdf10d%2Fimg%2Favatars%2Fava_0006-512.png", "custom_css": null}, {"id": 3766, "slack_id": "U091PH2D2TF", "display_name": "Shiv", "bio": null, "projects_count": 0, "devlogs_count": 0, "votes_count": 1, "ships_count": 0, "projects": [], "coding_time_seconds": 45812, "coding_time_seconds_today": 0, "balance": "You need to have a pocket watcher badge to view this.", "badges": [], "created_at": "2025-06-16T20:16:59.506-04:00", "updated_at": "2025-07-03T19:28:24.407-04:00", "avatar": "https://secure.gravatar.com/avatar/2febe749ce5c85ce3a7293b2980738dd.jpg?s=512&d=https%3A%2F%2Fa.slack-edge.com%2Fdf10d%2Fimg%2Favatars%2Fava_0000-512.png", "custom_css": null}, {"id": 3767, "slack_id": "U092DQ2FNQG", "display_name": "\u8303\u5ef6\u54f2", "bio": null, "projects_count": 0, "devlogs_count": 0, "votes_count": 0, "ships_count": 0, "projects": [], "coding_time_seconds": 120, "coding_time_seconds_today": 0, "balance": "You need to have a pocket watcher badge to view this.", "badges": [], "created_at": "2025-06-16T20:17:37.852-04:00", "updated_at": "2025-07-03T19:28:24.692-04:00", "avatar": "https://avatars.slack-edge.com/2025-06-16/9044066601383_fb385d025e8114686942_original.jpg", "custom_css": null}, {"id": 3768, "slack_id": "U06URQD8Z1U", "display_name": "Icegianter", "bio": null, "projects_count": 0, "devlogs_count": 0, "votes_count": 0, "ships_count": 0, "projects": [], "coding_time_seconds": 0, "coding_time_seconds_today": 0, "balance": "You need to have a pocket watcher badge to view this.", "badges": [], "created_at": "2025-06-16T20:18:12.377-04:00", "updated_at": "2025-07-03T19:28:24.952-04:00", "avatar": "https://avatars.slack-edge.com/2024-06-07/7244050485316_0648b45d14c3557c8f83_original.jpg", "custom_css": null}, {"id": 3769, "slack_id": "U091JD5LQG3", "display_name": "rdmsr", "bio": null, "projects_count": 1, "devlogs_count": 2, "votes_count": 0, "ships_count": 0, "projects": [{"id": 416, "title": "Dufay", "devlogs_count": 2, "created_at": "2025-06-16T20:43:48.201-04:00"}], "coding_time_seconds": 127191, "coding_time_seconds_today": 0, "balance": "You need to have a pocket watcher badge to view this.", "badges": [], "created_at": "2025-06-16T20:18:27.310-04:00", "updated_at": "2025-07-03T19:28:25.218-04:00", "avatar": "https://secure.gravatar.com/avatar/93902e931cdb7da63e2f7fa2f753df87.jpg?s=512&d=https%3A%2F%2Fa.slack-edge.com%2Fdf10d%2Fimg%2Favatars%2Fava_0009-512.png", "custom_css": null}, {"id": 3770, "slack_id": "U091RMSUULU", "display_name": "alex stone", "bio": null, "projects_count": 0, "devlogs_count": 0, "votes_count": 0, "ships_count": 0, "projects": [], "coding_time_seconds": 0, "coding_time_seconds_today": 0, "balance": "You need to have a pocket watcher badge to view this.", "badges": [], "created_at": "2025-06-16T20:19:22.721-04:00", "updated_at": "2025-07-03T19:28:25.483-04:00", "avatar": "https://secure.gravatar.com/avatar/6ccfb1e4fcf112d1ee24fe4fb26fa89b.jpg?s=512&d=https%3A%2F%2Fa.slack-edge.com%2Fdf10d%2Fimg%2Favatars%2Fava_0014-512.png", "custom_css": null}, {"id": 3771, "slack_id": "U091JEATPGB", "display_name": "Juli\u00e1n Aladio", "bio": null, "projects_count": 0, "devlogs_count": 0, "votes_count": 0, "ships_count": 0, "projects": [], "coding_time_seconds": 0, "coding_time_seconds_today": 0, "balance": "You need to have a pocket watcher badge to view this.", "badges": [], "created_at": "2025-06-16T20:19:24.033-04:00", "updated_at": "2025-07-03T19:28:25.755-04:00", "avatar": "https://avatars.slack-edge.com/2025-06-16/9059749815060_1efebca402a8a96912eb_original.jpg", "custom_css": null}, {"id": 3772, "slack_id": "U091RMYCDB6", "display_name": "Mitigy", "bio": null, "projects_count": 1, "devlogs_count": 6, "votes_count": 11, "ships_count": 1, "projects": [{"id": 417, "title": "temp-file-share", "devlogs_count": 6, "created_at": "2025-06-16T20:48:16.471-04:00"}], "coding_time_seconds": 68729, "coding_time_seconds_today": 0, "balance": "You need to have a pocket watcher badge to view this.", "badges": [{"name": "Maiden Voyage", "text": "you shipped your first project! the journey begins...", "icon": "\ud83d\udea2"}], "created_at": "2025-06-16T20:19:25.273-04:00", "updated_at": "2025-09-10T22:53:02.656-04:00", "avatar": "https://avatars.slack-edge.com/2025-06-16/9059468808098_068f36ed422bb3b6a33b_original.png", "custom_css": null}, {"id": 3773, "slack_id": "U091RFRKALU", "display_name": "Brendan", "bio": null, "projects_count": 3, "devlogs_count": 8, "votes_count": 3, "ships_count": 0, "projects": [{"id": 2187, "title": "conder.chat", "devlogs_count": 3, "created_at": "2025-06-20T11:46:16.447-04:00"}, {"id": 2302, "title": "Stack Overflow Focus", "devlogs_count": 0, "created_at": "2025-06-20T16:46:39.287-04:00"}, {"id": 4357, "title": "Homeroom", "devlogs_count": 5, "created_at": "2025-06-29T09:59:37.127-04:00"}], "coding_time_seconds": 133092, "coding_time_seconds_today": 0, "balance": "You need to have a pocket watcher badge to view this.", "badges": [], "created_at": "2025-06-16T20:19:48.283-04:00", "updated_at": "2025-07-03T19:28:26.320-04:00", "avatar": "https://avatars.slack-edge.com/2025-06-20/9074983816419_37d9fcd797922e8ff710_original.png", "custom_css": null}, {"id": 3774, "slack_id": "U05RFBS4BEW", "display_name": "Samvid", "bio": null, "projects_count": 1, "devlogs_count": 4, "votes_count": 20, "ships_count": 1, "projects": [{"id": 8388, "title": "Personal Website", "devlogs_count": 4, "created_at": "2025-07-26T18:56:20.867-04:00"}], "coding_time_seconds": 127938, "coding_time_seconds_today": 0, "balance": "You need to have a pocket watcher badge to view this.", "badges": [{"name": "Maiden Voyage", "text": "you shipped your first project! the journey begins...", "icon": "\ud83d\udea2"}], "created_at": "2025-06-16T20:19:48.614-04:00", "updated_at": "2025-09-10T22:53:02.705-04:00", "avatar": "https://avatars.slack-edge.com/2024-06-14/7277744867075_59e9f1f517446e093bfd_original.jpg", "custom_css": null}, {"id": 3775, "slack_id": "U08RMBL4R8S", "display_name": "Nathan Gordon", "bio": null, "projects_count": 0, "devlogs_count": 0, "votes_count": 0, "ships_count": 0, "projects": [], "coding_time_seconds": 0, "coding_time_seconds_today": 0, "balance": "You need to have a pocket watcher badge to view this.", "badges": [], "created_at": "2025-06-16T20:20:34.057-04:00", "updated_at": "2025-07-03T19:28:26.841-04:00", "avatar": "https://secure.gravatar.com/avatar/d71cd9c015be26cd7d6596ed999138d8.jpg?s=512&d=https%3A%2F%2Fa.slack-edge.com%2Fdf10d%2Fimg%2Favatars%2Fava_0000-512.png", "custom_css": null}, {"id": 3776, "slack_id": "U07G8R61H1U", "display_name": "Joanna", "bio": null, "projects_count": 4, "devlogs_count": 8, "votes_count": 40, "ships_count": 3, "projects": [{"id": 4149, "title": "keytime", "devlogs_count": 5, "created_at": "2025-06-27T21:57:13.311-04:00"}, {"id": 7078, "title": "http server", "devlogs_count": 2, "created_at": "2025-07-18T19:51:02.306-04:00"}, {"id": 9098, "title": "style master", "devlogs_count": 1, "created_at": "2025-07-30T15:33:31.191-04:00"}, {"id": 9099, "title": "style master", "devlogs_count": 0, "created_at": "2025-07-30T15:33:31.303-04:00"}], "coding_time_seconds": 408810, "coding_time_seconds_today": 0, "balance": "You need to have a pocket watcher badge to view this.", "badges": [{"name": "Maiden Voyage", "text": "you shipped your first project! the journey begins...", "icon": "\ud83d\udea2"}], "created_at": "2025-06-16T20:21:22.902-04:00", "updated_at": "2025-09-10T22:53:02.759-04:00", "avatar": "https://secure.gravatar.com/avatar/7f3de17f9fe14feae74f74d4b545f685.jpg?s=512&d=https%3A%2F%2Fa.slack-edge.com%2Fdf10d%2Fimg%2Favatars%2Fava_0005-512.png", "custom_css": null}, {"id": 3777, "slack_id": "U087KQEM3D2", "display_name": "Jane Mohamed", "bio": null, "projects_count": 0, "devlogs_count": 0, "votes_count": 0, "ships_count": 0, "projects": [], "coding_time_seconds": 0, "coding_time_seconds_today": 0, "balance": "You need to have a pocket watcher badge to view this.", "badges": [], "created_at": "2025-06-16T20:21:30.446-04:00", "updated_at": "2025-07-03T19:28:27.462-04:00", "avatar": "https://secure.gravatar.com/avatar/6b7202486af9f4371da14273d0d8ae65.jpg?s=512&d=https%3A%2F%2Fa.slack-edge.com%2Fdf10d%2Fimg%2Favatars%2Fava_0000-512.png", "custom_css": null}, {"id": 3778, "slack_id": "U091PJCGCH3", "display_name": "Firecall999", "bio": null, "projects_count": 0, "devlogs_count": 0, "votes_count": 0, "ships_count": 0, "projects": [], "coding_time_seconds": 377660, "coding_time_seconds_today": 699, "balance": "You need to have a pocket watcher badge to view this.", "badges": [], "created_at": "2025-06-16T20:21:31.691-04:00", "updated_at": "2025-07-03T19:28:27.737-04:00", "avatar": "https://secure.gravatar.com/avatar/31a7fc751b9c63f600fa689aa3b337cd.jpg?s=512&d=https%3A%2F%2Fa.slack-edge.com%2Fdf10d%2Fimg%2Favatars%2Fava_0003-512.png", "custom_css": null}, {"id": 3779, "slack_id": "U091A0F3GA3", "display_name": "Ryo Miyata", "bio": null, "projects_count": 0, "devlogs_count": 0, "votes_count": 0, "ships_count": 0, "projects": [], "coding_time_seconds": 0, "coding_time_seconds_today": 0, "balance": "You need to have a pocket watcher badge to view this.", "badges": [], "created_at": "2025-06-16T20:21:39.732-04:00", "updated_at": "2025-07-03T19:28:27.999-04:00", "avatar": "https://secure.gravatar.com/avatar/db59299d9a0998292664d47b9d95bc21.jpg?s=512&d=https%3A%2F%2Fa.slack-edge.com%2Fdf10d%2Fimg%2Favatars%2Fava_0002-512.png", "custom_css": null}, {"id": 3780, "slack_id": "U091PJDHHQV", "display_name": "\u4e0b\u99c4", "bio": null, "projects_count": 4, "devlogs_count": 7, "votes_count": 38, "ships_count": 2, "projects": [{"id": 1595, "title": "Task List", "devlogs_count": 1, "created_at": "2025-06-18T20:41:53.008-04:00"}, {"id": 5421, "title": "DrawQuiz", "devlogs_count": 1, "created_at": "2025-07-05T07:13:20.423-04:00"}, {"id": 524, "title": "Getabot [DiscordBot]", "devlogs_count": 4, "created_at": "2025-06-17T00:18:17.661-04:00"}, {"id": 5838, "title": "Geta's website", "devlogs_count": 1, "created_at": "2025-07-08T11:21:58.171-04:00"}], "coding_time_seconds": 103481, "coding_time_seconds_today": 0, "balance": "You need to have a pocket watcher badge to view this.", "badges": [{"name": "Maiden Voyage", "text": "you shipped your first project! the journey begins...", "icon": "\ud83d\udea2"}], "created_at": "2025-06-16T20:21:47.359-04:00", "updated_at": "2025-09-10T22:53:02.881-04:00", "avatar": "https://avatars.slack-edge.com/2025-06-17/9055442152355_6b516b53dd0c75ebf806_original.png", "custom_css": null}], "pagination": {"page": 189, "pages": 1192, "count": 23828, "items": 20}}