{"users": [{"id": 361, "slack_id": "U091FTA1RU6", "display_name": "reimunyancat", "bio": null, "projects_count": 1, "devlogs_count": 0, "votes_count": 0, "ships_count": 0, "projects": [{"id": 1719, "title": "mytube", "devlogs_count": 0, "created_at": "2025-06-19T04:52:41.576-04:00"}], "coding_time_seconds": 49171, "coding_time_seconds_today": 226, "balance": "You need to have a pocket watcher badge to view this.", "badges": [], "created_at": "2025-06-16T11:12:09.751-04:00", "updated_at": "2025-07-03T19:12:38.473-04:00", "avatar": "https://secure.gravatar.com/avatar/115a89fbf8b470c4b32645b555f86bf1.jpg?s=512&d=https%3A%2F%2Fa.slack-edge.com%2Fdf10d%2Fimg%2Favatars%2Fava_0018-512.png", "custom_css": null}, {"id": 362, "slack_id": "U0921BRDN2D", "display_name": "Robin Baron", "bio": null, "projects_count": 0, "devlogs_count": 0, "votes_count": 0, "ships_count": 0, "projects": [], "coding_time_seconds": 0, "coding_time_seconds_today": 0, "balance": "You need to have a pocket watcher badge to view this.", "badges": [], "created_at": "2025-06-16T11:12:14.964-04:00", "updated_at": "2025-07-03T19:12:38.743-04:00", "avatar": "https://secure.gravatar.com/avatar/2b29b7892b60c51dcaeb05f8ecf6aad1.jpg?s=512&d=https%3A%2F%2Fa.slack-edge.com%2Fdf10d%2Fimg%2Favatars%2Fava_0005-512.png", "custom_css": null}, {"id": 363, "slack_id": "U07G64ESXKR", "display_name": "PawiX25", "bio": null, "projects_count": 12, "devlogs_count": 43, "votes_count": 100, "ships_count": 12, "projects": [{"id": 8804, "title": "Pigment", "devlogs_count": 2, "created_at": "2025-07-29T10:17:56.516-04:00"}, {"id": 13170, "title": "Spooler", "devlogs_count": 1, "created_at": "2025-09-10T16:07:50.387-04:00"}, {"id": 13532, "title": "Bitflow", "devlogs_count": 3, "created_at": "2025-09-18T17:41:39.953-04:00"}, {"id": 1152, "title": "TermiSTL ", "devlogs_count": 4, "created_at": "2025-06-17T18:35:38.670-04:00"}, {"id": 3935, "title": "Roast My Last.fm", "devlogs_count": 3, "created_at": "2025-06-26T11:49:38.692-04:00"}, {"id": 4837, "title": "PeerStudio", "devlogs_count": 5, "created_at": "2025-07-01T19:47:41.291-04:00"}, {"id": 1187, "title": "3D Printer Belt Tension Meter", "devlogs_count": 1, "created_at": "2025-06-17T21:13:39.228-04:00"}, {"id": 8263, "title": "Statify", "devlogs_count": 2, "created_at": "2025-07-25T19:29:39.371-04:00"}, {"id": 7315, "title": "Shrnk", "devlogs_count": 4, "created_at": "2025-07-20T22:03:17.786-04:00"}, {"id": 6842, "title": "Scannio", "devlogs_count": 3, "created_at": "2025-07-16T19:13:32.611-04:00"}, {"id": 9899, "title": "MeshInk", "devlogs_count": 11, "created_at": "2025-08-02T18:59:55.301-04:00"}, {"id": 1776, "title": "TypeSprint", "devlogs_count": 4, "created_at": "2025-06-19T08:13:50.631-04:00"}], "coding_time_seconds": 1364086, "coding_time_seconds_today": 0, "balance": "You need to have a pocket watcher badge to view this.", "badges": [{"name": "Maiden Voyage", "text": "you shipped your first project! the journey begins...", "icon": "\ud83d\udea2"}, {"name": "Ballot Stuffer", "text": "vote 100 times.", "icon": "https://summer.hackclub.com/assets/i_voted-bf851b48.png"}], "created_at": "2025-06-16T11:12:32.574-04:00", "updated_at": "2025-09-10T22:51:18.255-04:00", "avatar": "https://avatars.slack-edge.com/2025-02-02/8400058576785_cba75a0ab83f045ce8f5_original.png", "custom_css": null}, {"id": 364, "slack_id": "U078JPCV290", "display_name": "Charles Duong", "bio": null, "projects_count": 5, "devlogs_count": 7, "votes_count": 20, "ships_count": 2, "projects": [{"id": 8902, "title": "cubeReduxPlay", "devlogs_count": 1, "created_at": "2025-07-29T15:50:17.530-04:00"}, {"id": 8903, "title": "cubeReduxPlay", "devlogs_count": 0, "created_at": "2025-07-29T15:50:20.550-04:00"}, {"id": 8906, "title": "Allocate", "devlogs_count": 1, "created_at": "2025-07-29T15:58:42.534-04:00"}, {"id": 8907, "title": "Allocate", "devlogs_count": 0, "created_at": "2025-07-29T15:58:42.538-04:00"}, {"id": 8914, "title": "TankJack", "devlogs_count": 5, "created_at": "2025-07-29T16:14:17.163-04:00"}], "coding_time_seconds": 45021, "coding_time_seconds_today": 0, "balance": "You need to have a pocket watcher badge to view this.", "badges": [{"name": "Maiden Voyage", "text": "you shipped your first project! the journey begins...", "icon": "\ud83d\udea2"}], "created_at": "2025-06-16T11:13:22.941-04:00", "updated_at": "2025-09-10T22:51:18.293-04:00", "avatar": "https://avatars.slack-edge.com/2024-06-17/7290800403250_16e5980601c6a792c679_original.png", "custom_css": null}, {"id": 365, "slack_id": "U0824J5AHRB", "display_name": "tty7", "bio": "", "projects_count": 1, "devlogs_count": 38, "votes_count": 26, "ships_count": 1, "projects": [{"id": 939, "title": "GoldASM", "devlogs_count": 38, "created_at": "2025-06-17T11:51:31.957-04:00"}], "coding_time_seconds": 203679, "coding_time_seconds_today": 0, "balance": "You need to have a pocket watcher badge to view this.", "badges": [{"name": "Maiden Voyage", "text": "you shipped your first project! the journey begins...", "icon": "\ud83d\udea2"}], "created_at": "2025-06-16T11:13:40.679-04:00", "updated_at": "2025-09-23T22:45:35.594-04:00", "avatar": "https://avatars.slack-edge.com/2025-09-05/9471064013714_bf4a27810f127d76dfa2_original.jpg", "custom_css": null}, {"id": 366, "slack_id": "U081PFNUTDM", "display_name": "rmfosho", "bio": null, "projects_count": 1, "devlogs_count": 1, "votes_count": 0, "ships_count": 0, "projects": [{"id": 1984, "title": "Auramixer - Mix your music", "devlogs_count": 1, "created_at": "2025-06-19T20:19:34.280-04:00"}], "coding_time_seconds": 283361, "coding_time_seconds_today": 0, "balance": "You need to have a pocket watcher badge to view this.", "badges": [], "created_at": "2025-06-16T11:13:45.237-04:00", "updated_at": "2025-09-02T23:15:22.326-04:00", "avatar": "https://avatars.slack-edge.com/2024-11-27/8094427881923_9232644ee727fc5aed47_original.png", "custom_css": null}, {"id": 367, "slack_id": "U07CJFM776J", "display_name": "Ice", "bio": null, "projects_count": 0, "devlogs_count": 0, "votes_count": 0, "ships_count": 0, "projects": [], "coding_time_seconds": 0, "coding_time_seconds_today": 0, "balance": "You need to have a pocket watcher badge to view this.", "badges": [], "created_at": "2025-06-16T11:13:59.408-04:00", "updated_at": "2025-07-03T19:12:40.128-04:00", "avatar": "https://secure.gravatar.com/avatar/447fa1c06306e181cb2b1538cec7f243.jpg?s=512&d=https%3A%2F%2Fa.slack-edge.com%2Fdf10d%2Fimg%2Favatars%2Fava_0008-512.png", "custom_css": null}, {"id": 368, "slack_id": "U0917FKDC95", "display_name": "R\u00f4nero G Cavalcante", "bio": null, "projects_count": 0, "devlogs_count": 0, "votes_count": 0, "ships_count": 0, "projects": [], "coding_time_seconds": 0, "coding_time_seconds_today": 0, "balance": "You need to have a pocket watcher badge to view this.", "badges": [], "created_at": "2025-06-16T11:14:06.259-04:00", "updated_at": "2025-07-03T19:12:40.414-04:00", "avatar": "https://secure.gravatar.com/avatar/eafa225bc0bd796b533cb249085bcc38.jpg?s=512&d=https%3A%2F%2Fa.slack-edge.com%2Fdf10d%2Fimg%2Favatars%2Fava_0009-512.png", "custom_css": null}, {"id": 369, "slack_id": "U091P8L8SJG", "display_name": "Ahmed Ashraf", "bio": null, "projects_count": 0, "devlogs_count": 0, "votes_count": 0, "ships_count": 0, "projects": [], "coding_time_seconds": 0, "coding_time_seconds_today": 0, "balance": "You need to have a pocket watcher badge to view this.", "badges": [], "created_at": "2025-06-16T11:14:42.499-04:00", "updated_at": "2025-07-03T19:12:40.688-04:00", "avatar": "https://secure.gravatar.com/avatar/90278043bc27292325028c8a99fd8056.jpg?s=512&d=https%3A%2F%2Fa.slack-edge.com%2Fdf10d%2Fimg%2Favatars%2Fava_0008-512.png", "custom_css": null}, {"id": 370, "slack_id": "U07DMBP336Y", "display_name": "Jon ath", "bio": null, "projects_count": 0, "devlogs_count": 0, "votes_count": 0, "ships_count": 0, "projects": [], "coding_time_seconds": 0, "coding_time_seconds_today": 0, "balance": "You need to have a pocket watcher badge to view this.", "badges": [], "created_at": "2025-06-16T11:15:42.720-04:00", "updated_at": "2025-07-03T19:12:40.963-04:00", "avatar": "https://avatars.slack-edge.com/2024-07-22/7473583445441_89976800a1ffe11f94d0_original.png", "custom_css": null}, {"id": 371, "slack_id": "U091P86TVQC", "display_name": "Pragati Naik", "bio": null, "projects_count": 0, "devlogs_count": 0, "votes_count": 0, "ships_count": 0, "projects": [], "coding_time_seconds": 0, "coding_time_seconds_today": 0, "balance": "You need to have a pocket watcher badge to view this.", "badges": [], "created_at": "2025-06-16T11:16:10.015-04:00", "updated_at": "2025-07-03T19:12:41.234-04:00", "avatar": "https://secure.gravatar.com/avatar/736116befa3d0df2e202d60799dc5dcf.jpg?s=512&d=https%3A%2F%2Fa.slack-edge.com%2Fdf10d%2Fimg%2Favatars%2Fava_0020-512.png", "custom_css": null}, {"id": 372, "slack_id": "U07EAVBK85Q", "display_name": "mthlpbs", "bio": null, "projects_count": 0, "devlogs_count": 0, "votes_count": 0, "ships_count": 0, "projects": [], "coding_time_seconds": 163000, "coding_time_seconds_today": 3504, "balance": "You need to have a pocket watcher badge to view this.", "badges": [], "created_at": "2025-06-16T11:16:26.837-04:00", "updated_at": "2025-08-13T08:47:11.738-04:00", "avatar": "https://avatars.slack-edge.com/2024-07-27/7484149584581_d4447cfcb57df02a35ff_original.png", "custom_css": null}, {"id": 373, "slack_id": "U087PUAUTU1", "display_name": "Tymoteusz Sanocki", "bio": null, "projects_count": 0, "devlogs_count": 0, "votes_count": 0, "ships_count": 0, "projects": [], "coding_time_seconds": 52785, "coding_time_seconds_today": 0, "balance": "You need to have a pocket watcher badge to view this.", "badges": [], "created_at": "2025-06-16T11:17:23.264-04:00", "updated_at": "2025-07-03T19:12:41.779-04:00", "avatar": "https://secure.gravatar.com/avatar/c7b20a7513b718e681bef06c0c337c87.jpg?s=512&d=https%3A%2F%2Fa.slack-edge.com%2Fdf10d%2Fimg%2Favatars%2Fava_0015-512.png", "custom_css": null}, {"id": 374, "slack_id": "U091FR39T0B", "display_name": "Dian", "bio": null, "projects_count": 0, "devlogs_count": 0, "votes_count": 0, "ships_count": 0, "projects": [], "coding_time_seconds": 0, "coding_time_seconds_today": 0, "balance": "You need to have a pocket watcher badge to view this.", "badges": [], "created_at": "2025-06-16T11:18:00.376-04:00", "updated_at": "2025-07-03T19:12:42.055-04:00", "avatar": "https://secure.gravatar.com/avatar/57f4e2c6d11658c0e092654a17df5093.jpg?s=512&d=https%3A%2F%2Fa.slack-edge.com%2Fdf10d%2Fimg%2Favatars%2Fava_0020-512.png", "custom_css": null}, {"id": 375, "slack_id": "U089903JZDH", "display_name": "Milk_Cool", "bio": "i'm Lily, i love my silly little side projects and coding them is my favorite way to spend time. mostly interested in webdev, embedded and security.\nmy favorite food is pasta, my favorite music artist is toby fox (as of right now) and my favorite game is deltarune. :D\ni platonically love my friends and even though i'm happy with what i have, i'm always open to more friendships!\ni also like watching cat videos, hanging out with friends and buying silly electronics\nhttps://milkcool.ru | https://github.com/Milk-Cool", "projects_count": 15, "devlogs_count": 97, "votes_count": 119, "ships_count": 11, "projects": [{"id": 3466, "title": "QRBattle", "devlogs_count": 4, "created_at": "2025-06-24T11:21:57.602-04:00"}, {"id": 5707, "title": "sniff", "devlogs_count": 12, "created_at": "2025-07-07T10:25:01.385-04:00"}, {"id": 11496, "title": "liveUTAU", "devlogs_count": 1, "created_at": "2025-08-16T11:11:25.719-04:00"}, {"id": 11675, "title": "sippagotchi", "devlogs_count": 3, "created_at": "2025-08-18T10:21:45.121-04:00"}, {"id": 12483, "title": "fuckbeat", "devlogs_count": 0, "created_at": "2025-08-28T08:13:51.474-04:00"}, {"id": 6252, "title": "yourdns", "devlogs_count": 12, "created_at": "2025-07-11T15:36:15.567-04:00"}, {"id": 634, "title": "Bluesky life sim", "devlogs_count": 4, "created_at": "2025-06-17T03:42:23.797-04:00"}, {"id": 1765, "title": "overflow - a node graph-based vulnerability scanner", "devlogs_count": 8, "created_at": "2025-06-19T07:42:06.867-04:00"}, {"id": 2905, "title": "VSCode Summer of Making timer", "devlogs_count": 4, "created_at": "2025-06-22T12:16:20.578-04:00"}, {"id": 7287, "title": "libdeltarune", "devlogs_count": 17, "created_at": "2025-07-20T15:58:58.770-04:00"}, {"id": 4269, "title": "Detective Orpheus", "devlogs_count": 8, "created_at": "2025-06-28T15:05:38.396-04:00"}, {"id": 5303, "title": "Sprig CHIP-8 emulator", "devlogs_count": 0, "created_at": "2025-07-04T10:55:43.680-04:00"}, {"id": 10635, "title": "yadsi \u2013 yet another duckyscript interpreter", "devlogs_count": 4, "created_at": "2025-08-09T06:52:39.431-04:00"}, {"id": 4497, "title": "PC64K", "devlogs_count": 16, "created_at": "2025-06-30T10:27:22.728-04:00"}, {"id": 4071, "title": "Certitimer", "devlogs_count": 4, "created_at": "2025-06-27T09:00:26.449-04:00"}], "coding_time_seconds": 773847, "coding_time_seconds_today": 0, "balance": "You need to have a pocket watcher badge to view this.", "badges": [{"name": "Maiden Voyage", "text": "you shipped your first project! the journey begins...", "icon": "\ud83d\udea2"}, {"name": "Ballot Stuffer", "text": "vote 100 times.", "icon": "https://summer.hackclub.com/assets/i_voted-bf851b48.png"}], "created_at": "2025-06-16T11:18:07.255-04:00", "updated_at": "2025-09-10T22:51:18.582-04:00", "avatar": "https://avatars.slack-edge.com/2025-06-26/9122888346929_9a0ba7d488c66660be5b_original.jpg", "custom_css": null}, {"id": 376, "slack_id": "U07FYAWFY9E", "display_name": "Eric Zuo", "bio": null, "projects_count": 0, "devlogs_count": 0, "votes_count": 0, "ships_count": 0, "projects": [], "coding_time_seconds": 223150, "coding_time_seconds_today": 0, "balance": "You need to have a pocket watcher badge to view this.", "badges": [], "created_at": "2025-06-16T11:18:23.510-04:00", "updated_at": "2025-08-19T02:00:57.392-04:00", "avatar": "https://avatars.slack-edge.com/2025-08-18/9370574058437_3cbffcfab80d9139ca2c_original.png", "custom_css": null}, {"id": 377, "slack_id": "U092B9WL0BA", "display_name": "Sujal", "bio": null, "projects_count": 0, "devlogs_count": 0, "votes_count": 0, "ships_count": 0, "projects": [], "coding_time_seconds": 0, "coding_time_seconds_today": 0, "balance": "You need to have a pocket watcher badge to view this.", "badges": [], "created_at": "2025-06-16T11:18:23.569-04:00", "updated_at": "2025-07-03T19:12:42.918-04:00", "avatar": "https://secure.gravatar.com/avatar/4afa5feb668380af963f014d00fcaef7.jpg?s=512&d=https%3A%2F%2Fa.slack-edge.com%2Fdf10d%2Fimg%2Favatars%2Fava_0011-512.png", "custom_css": null}, {"id": 378, "slack_id": "U08GLNF2JMU", "display_name": "Aahil", "bio": null, "projects_count": 5, "devlogs_count": 2, "votes_count": 0, "ships_count": 0, "projects": [{"id": 544, "title": "KB75", "devlogs_count": 1, "created_at": "2025-06-17T00:48:39.556-04:00"}, {"id": 8910, "title": "HackSpace", "devlogs_count": 0, "created_at": "2025-07-29T16:10:40.446-04:00"}, {"id": 8911, "title": "HackSpace", "devlogs_count": 1, "created_at": "2025-07-29T16:10:40.493-04:00"}, {"id": 9593, "title": "StreamPi - A DIY Streaming Handheld", "devlogs_count": 0, "created_at": "2025-08-01T18:58:14.620-04:00"}, {"id": 9594, "title": "StreamPi - A DIY Streaming Handheld", "devlogs_count": 0, "created_at": "2025-08-01T18:58:14.624-04:00"}], "coding_time_seconds": 15303, "coding_time_seconds_today": 0, "balance": "You need to have a pocket watcher badge to view this.", "badges": [], "created_at": "2025-06-16T11:18:55.642-04:00", "updated_at": "2025-08-19T03:26:45.812-04:00", "avatar": "https://avatars.slack-edge.com/2025-06-04/8998017088194_1bef379e6956152f6301_original.png", "custom_css": null}, {"id": 379, "slack_id": "U0917GNMLR5", "display_name": "Kritarth Srivastav", "bio": null, "projects_count": 0, "devlogs_count": 0, "votes_count": 0, "ships_count": 0, "projects": [], "coding_time_seconds": 475, "coding_time_seconds_today": 0, "balance": "You need to have a pocket watcher badge to view this.", "badges": [], "created_at": "2025-06-16T11:19:21.431-04:00", "updated_at": "2025-07-03T19:12:43.465-04:00", "avatar": "https://avatars.slack-edge.com/2025-06-16/9056880800466_b74e2bc5ebd29082ff72_original.png", "custom_css": null}, {"id": 380, "slack_id": "U0921DFG9K3", "display_name": "Abhishek Kumar", "bio": null, "projects_count": 0, "devlogs_count": 0, "votes_count": 0, "ships_count": 0, "projects": [], "coding_time_seconds": 0, "coding_time_seconds_today": 0, "balance": "You need to have a pocket watcher badge to view this.", "badges": [], "created_at": "2025-06-16T11:21:08.129-04:00", "updated_at": "2025-07-03T19:12:43.746-04:00", "avatar": "https://secure.gravatar.com/avatar/c81c289d03a33fe70bec56c0ebe627de.jpg?s=512&d=https%3A%2F%2Fa.slack-edge.com%2Fdf10d%2Fimg%2Favatars%2Fava_0014-512.png", "custom_css": null}], "pagination": {"page": 19, "pages": 1192, "count": 23827, "items": 20}}