{"users": [{"id": 3781, "slack_id": "U08DK4Z7YKC", "display_name": "LN", "bio": null, "projects_count": 0, "devlogs_count": 0, "votes_count": 0, "ships_count": 0, "projects": [], "coding_time_seconds": 0, "coding_time_seconds_today": 0, "balance": "You need to have a pocket watcher badge to view this.", "badges": [], "created_at": "2025-06-16T20:22:30.882-04:00", "updated_at": "2025-07-03T19:28:28.521-04:00", "avatar": "https://avatars.slack-edge.com/2025-04-23/8800834754274_34451e5aee6cb7cdfd7b_original.jpg", "custom_css": null}, {"id": 3782, "slack_id": "U08S7TGEFMF", "display_name": "Micah", "bio": null, "projects_count": 3, "devlogs_count": 9, "votes_count": 4, "ships_count": 1, "projects": [{"id": 413, "title": "DAB", "devlogs_count": 0, "created_at": "2025-06-16T20:35:50.014-04:00"}, {"id": 414, "title": "FTC TelemetryUI Lib", "devlogs_count": 8, "created_at": "2025-06-16T20:39:56.256-04:00"}, {"id": 7367, "title": "Personal Website", "devlogs_count": 1, "created_at": "2025-07-21T10:29:52.296-04:00"}], "coding_time_seconds": 152691, "coding_time_seconds_today": 0, "balance": "You need to have a pocket watcher badge to view this.", "badges": [{"name": "Maiden Voyage", "text": "you shipped your first project! the journey begins...", "icon": "\ud83d\udea2"}], "created_at": "2025-06-16T20:22:42.865-04:00", "updated_at": "2025-09-16T17:37:11.204-04:00", "avatar": "https://avatars.slack-edge.com/2025-05-11/8882563233522_f3d91fad34d40c3a63f9_original.jpg", "custom_css": null}, {"id": 3783, "slack_id": "U091JEKGGD9", "display_name": "Jensen", "bio": null, "projects_count": 0, "devlogs_count": 0, "votes_count": 0, "ships_count": 0, "projects": [], "coding_time_seconds": 0, "coding_time_seconds_today": 0, "balance": "You need to have a pocket watcher badge to view this.", "badges": [], "created_at": "2025-06-16T20:23:30.614-04:00", "updated_at": "2025-07-03T19:28:29.044-04:00", "avatar": "https://secure.gravatar.com/avatar/7a55bdf7fd67c3ace8e2cb504bf5a47e.jpg?s=512&d=https%3A%2F%2Fa.slack-edge.com%2Fdf10d%2Fimg%2Favatars%2Fava_0012-512.png", "custom_css": null}, {"id": 3784, "slack_id": "U091JJ98JTG", "display_name": "Miguel Prieto", "bio": null, "projects_count": 1, "devlogs_count": 2, "votes_count": 0, "ships_count": 0, "projects": [{"id": 1142, "title": "BigiStudy", "devlogs_count": 2, "created_at": "2025-06-17T17:58:28.724-04:00"}], "coding_time_seconds": 39915, "coding_time_seconds_today": 0, "balance": "You need to have a pocket watcher badge to view this.", "badges": [], "created_at": "2025-06-16T20:23:35.254-04:00", "updated_at": "2025-07-03T19:28:29.293-04:00", "avatar": "https://avatars.slack-edge.com/2025-06-16/9071973174737_bebbe21debc956e5a9aa_original.png", "custom_css": null}, {"id": 3785, "slack_id": "U07D19HTZKN", "display_name": "Arnav Govil", "bio": null, "projects_count": 1, "devlogs_count": 2, "votes_count": 0, "ships_count": 0, "projects": [{"id": 12325, "title": "Bankr App", "devlogs_count": 2, "created_at": "2025-08-25T17:54:28.713-04:00"}], "coding_time_seconds": 38566, "coding_time_seconds_today": 0, "balance": "You need to have a pocket watcher badge to view this.", "badges": [], "created_at": "2025-06-16T20:23:56.969-04:00", "updated_at": "2025-08-30T02:30:07.436-04:00", "avatar": "https://secure.gravatar.com/avatar/cc836c181ed73abe03e4b0c1241c917e.jpg?s=512&d=https%3A%2F%2Fa.slack-edge.com%2Fdf10d%2Fimg%2Favatars%2Fava_0026-512.png", "custom_css": null}, {"id": 3786, "slack_id": "U092DQ8TSDN", "display_name": "yash9439", "bio": null, "projects_count": 1, "devlogs_count": 1, "votes_count": 0, "ships_count": 0, "projects": [{"id": 427, "title": "codetoprompt", "devlogs_count": 1, "created_at": "2025-06-16T21:04:58.881-04:00"}], "coding_time_seconds": 98649, "coding_time_seconds_today": 315, "balance": "You need to have a pocket watcher badge to view this.", "badges": [], "created_at": "2025-06-16T20:24:18.691-04:00", "updated_at": "2025-07-03T19:28:29.835-04:00", "avatar": "https://secure.gravatar.com/avatar/6c15eb2687b41c06eafc775cd89d219f.jpg?s=512&d=https%3A%2F%2Fa.slack-edge.com%2Fdf10d%2Fimg%2Favatars%2Fava_0004-512.png", "custom_css": null}, {"id": 3787, "slack_id": "U091A26EVFZ", "display_name": "Derock", "bio": null, "projects_count": 0, "devlogs_count": 0, "votes_count": 0, "ships_count": 0, "projects": [], "coding_time_seconds": 67671, "coding_time_seconds_today": 0, "balance": "You need to have a pocket watcher badge to view this.", "badges": [], "created_at": "2025-06-16T20:24:33.519-04:00", "updated_at": "2025-07-03T19:28:30.102-04:00", "avatar": "https://secure.gravatar.com/avatar/4c91c0012ce29f0159409a98914b5d7d.jpg?s=512&d=https%3A%2F%2Fa.slack-edge.com%2Fdf10d%2Fimg%2Favatars%2Fava_0022-512.png", "custom_css": null}, {"id": 3788, "slack_id": "U0923UARDGR", "display_name": "bics", "bio": null, "projects_count": 0, "devlogs_count": 0, "votes_count": 0, "ships_count": 0, "projects": [], "coding_time_seconds": 0, "coding_time_seconds_today": 0, "balance": "You need to have a pocket watcher badge to view this.", "badges": [], "created_at": "2025-06-16T20:24:51.910-04:00", "updated_at": "2025-07-03T19:28:30.368-04:00", "avatar": "https://secure.gravatar.com/avatar/213034c5fc3fe6c4b71d6b4bb8abab4e.jpg?s=512&d=https%3A%2F%2Fa.slack-edge.com%2Fdf10d%2Fimg%2Favatars%2Fava_0001-512.png", "custom_css": null}, {"id": 3789, "slack_id": "U091J63BSTG", "display_name": "madsondeluna", "bio": null, "projects_count": 0, "devlogs_count": 0, "votes_count": 0, "ships_count": 0, "projects": [], "coding_time_seconds": 39103, "coding_time_seconds_today": 0, "balance": "You need to have a pocket watcher badge to view this.", "badges": [], "created_at": "2025-06-16T20:25:12.010-04:00", "updated_at": "2025-07-03T19:28:30.658-04:00", "avatar": "https://secure.gravatar.com/avatar/7aa0ae90e487cc7be23b66592163f296.jpg?s=512&d=https%3A%2F%2Fa.slack-edge.com%2Fdf10d%2Fimg%2Favatars%2Fava_0011-512.png", "custom_css": null}, {"id": 3790, "slack_id": "U0793HPEX6V", "display_name": "Celestial", "bio": "cool guy/youtuber/roblox dev!", "projects_count": 2, "devlogs_count": 27, "votes_count": 4, "ships_count": 0, "projects": [{"id": 12078, "title": "Practicing Making Websites", "devlogs_count": 0, "created_at": "2025-08-22T19:40:20.103-04:00"}, {"id": 6357, "title": "Grow Your Pet!", "devlogs_count": 27, "created_at": "2025-07-12T16:24:42.041-04:00"}], "coding_time_seconds": 127155, "coding_time_seconds_today": 0, "balance": "You need to have a pocket watcher badge to view this.", "badges": [{"name": "Yapper I", "text": "Posted 10 comments on devlogs.", "icon": "\ud83d\udcac"}], "created_at": "2025-06-16T20:25:25.606-04:00", "updated_at": "2025-09-17T08:07:19.846-04:00", "avatar": "https://avatars.slack-edge.com/2025-08-08/9353821845856_94f333d818f8c207474c_original.jpg", "custom_css": null}, {"id": 3791, "slack_id": "U091JJCE5QE", "display_name": "CapsAcc", "bio": null, "projects_count": 0, "devlogs_count": 0, "votes_count": 0, "ships_count": 0, "projects": [], "coding_time_seconds": 0, "coding_time_seconds_today": 0, "balance": "You need to have a pocket watcher badge to view this.", "badges": [], "created_at": "2025-06-16T20:25:36.821-04:00", "updated_at": "2025-07-03T19:28:31.198-04:00", "avatar": "https://secure.gravatar.com/avatar/f070179a002dfa9c68c7c4f418de2d15.jpg?s=512&d=https%3A%2F%2Fa.slack-edge.com%2Fdf10d%2Fimg%2Favatars%2Fava_0015-512.png", "custom_css": null}, {"id": 3792, "slack_id": "U091JJJBSQ6", "display_name": "Pavol Labuda", "bio": null, "projects_count": 0, "devlogs_count": 0, "votes_count": 0, "ships_count": 0, "projects": [], "coding_time_seconds": 8725, "coding_time_seconds_today": 0, "balance": "You need to have a pocket watcher badge to view this.", "badges": [], "created_at": "2025-06-16T20:26:02.470-04:00", "updated_at": "2025-07-03T19:28:31.466-04:00", "avatar": "https://secure.gravatar.com/avatar/2e5cfc5d1772c4e696d40ae93eef5deb.jpg?s=512&d=https%3A%2F%2Fa.slack-edge.com%2Fdf10d%2Fimg%2Favatars%2Fava_0007-512.png", "custom_css": null}, {"id": 3793, "slack_id": "U08HLA9UVRN", "display_name": "Lingfeng Wang", "bio": null, "projects_count": 1, "devlogs_count": 12, "votes_count": 41, "ships_count": 1, "projects": [{"id": 3041, "title": "SpikeYourSkill", "devlogs_count": 9, "created_at": "2025-06-22T22:23:19.575-04:00"}], "coding_time_seconds": 370714, "coding_time_seconds_today": 0, "balance": "You need to have a pocket watcher badge to view this.", "badges": [{"name": "Maiden Voyage", "text": "you shipped your first project! the journey begins...", "icon": "\ud83d\udea2"}], "created_at": "2025-06-16T20:27:26.417-04:00", "updated_at": "2025-09-16T22:39:56.070-04:00", "avatar": "https://secure.gravatar.com/avatar/4fb9cadd6b1b7900a535e2f7e877ad34.jpg?s=512&d=https%3A%2F%2Fa.slack-edge.com%2Fdf10d%2Fimg%2Favatars%2Fava_0017-512.png", "custom_css": null}, {"id": 3794, "slack_id": "U091A2FFQ1M", "display_name": "herberto", "bio": null, "projects_count": 1, "devlogs_count": 1, "votes_count": 0, "ships_count": 0, "projects": [{"id": 560, "title": "EZTpa", "devlogs_count": 1, "created_at": "2025-06-17T01:17:44.445-04:00"}], "coding_time_seconds": 21684, "coding_time_seconds_today": 0, "balance": "You need to have a pocket watcher badge to view this.", "badges": [], "created_at": "2025-06-16T20:27:33.529-04:00", "updated_at": "2025-07-03T19:28:32.013-04:00", "avatar": "https://secure.gravatar.com/avatar/5697c9f767d96394d3046119168097dd.jpg?s=512&d=https%3A%2F%2Fa.slack-edge.com%2Fdf10d%2Fimg%2Favatars%2Fava_0022-512.png", "custom_css": null}, {"id": 3795, "slack_id": "U091PJXNTDK", "display_name": "Finn Masters", "bio": null, "projects_count": 0, "devlogs_count": 0, "votes_count": 0, "ships_count": 0, "projects": [], "coding_time_seconds": 327, "coding_time_seconds_today": 0, "balance": "You need to have a pocket watcher badge to view this.", "badges": [], "created_at": "2025-06-16T20:28:35.903-04:00", "updated_at": "2025-07-03T19:28:32.278-04:00", "avatar": "https://avatars.slack-edge.com/2025-06-16/9059451562818_3986b36b3f8d849cf49c_original.png", "custom_css": null}, {"id": 3796, "slack_id": "U091NAKD4CD", "display_name": "Lorenzo Farias", "bio": "I'm brazilian and I like backend stuff!", "projects_count": 1, "devlogs_count": 9, "votes_count": 89, "ships_count": 1, "projects": [{"id": 7321, "title": "GenieC", "devlogs_count": 5, "created_at": "2025-07-20T23:41:03.951-04:00"}], "coding_time_seconds": 172702, "coding_time_seconds_today": 0, "balance": "You need to have a pocket watcher badge to view this.", "badges": [{"name": "Maiden Voyage", "text": "you shipped your first project! the journey begins...", "icon": "\ud83d\udea2"}], "created_at": "2025-06-16T20:28:42.791-04:00", "updated_at": "2025-09-10T22:53:03.294-04:00", "avatar": "https://secure.gravatar.com/avatar/fedd83de67099e17c62422cc7821e442.jpg?s=512&d=https%3A%2F%2Fa.slack-edge.com%2Fdf10d%2Fimg%2Favatars%2Fava_0003-512.png", "custom_css": null}, {"id": 3797, "slack_id": "U091RNMRAH2", "display_name": "Shinkensen", "bio": null, "projects_count": 0, "devlogs_count": 73, "votes_count": 126, "ships_count": 0, "projects": [], "coding_time_seconds": 333593, "coding_time_seconds_today": 0, "balance": "You need to have a pocket watcher badge to view this.", "badges": [{"name": "Maiden Voyage", "text": "you shipped your first project! the journey begins...", "icon": "\ud83d\udea2"}, {"name": "Ballot Stuffer", "text": "vote 100 times.", "icon": "https://summer.hackclub.com/assets/i_voted-bf851b48.png"}], "created_at": "2025-06-16T20:29:07.255-04:00", "updated_at": "2025-09-10T22:53:03.453-04:00", "avatar": "https://avatars.slack-edge.com/2025-06-16/9057658647973_238fe15e2cb9ca979982_original.jpg", "custom_css": null}, {"id": 3798, "slack_id": "U091JBGQ691", "display_name": "kermit", "bio": null, "projects_count": 0, "devlogs_count": 0, "votes_count": 0, "ships_count": 0, "projects": [], "coding_time_seconds": 0, "coding_time_seconds_today": 0, "balance": "You need to have a pocket watcher badge to view this.", "badges": [], "created_at": "2025-06-16T20:29:19.842-04:00", "updated_at": "2025-07-03T19:28:33.118-04:00", "avatar": "https://avatars.slack-edge.com/2025-06-16/9059787022404_635952929909e3472f6a_original.jpg", "custom_css": null}, {"id": 3799, "slack_id": "U07EX8VNWAH", "display_name": "Aahan Dharammali", "bio": null, "projects_count": 0, "devlogs_count": 0, "votes_count": 0, "ships_count": 0, "projects": [], "coding_time_seconds": 0, "coding_time_seconds_today": 0, "balance": "You need to have a pocket watcher badge to view this.", "badges": [], "created_at": "2025-06-16T20:29:54.245-04:00", "updated_at": "2025-07-03T19:28:33.383-04:00", "avatar": "https://avatars.slack-edge.com/2024-08-04/7517338592966_dd51f05e2d5e40e63fad_original.jpg", "custom_css": null}, {"id": 3800, "slack_id": "U08223ZAUKG", "display_name": "Jet", "bio": null, "projects_count": 1, "devlogs_count": 10, "votes_count": 33, "ships_count": 1, "projects": [{"id": 7995, "title": "The Social Network", "devlogs_count": 7, "created_at": "2025-07-24T00:26:17.998-04:00"}], "coding_time_seconds": 333042, "coding_time_seconds_today": 0, "balance": "You need to have a pocket watcher badge to view this.", "badges": [{"name": "Maiden Voyage", "text": "you shipped your first project! the journey begins...", "icon": "\ud83d\udea2"}], "created_at": "2025-06-16T20:29:56.600-04:00", "updated_at": "2025-09-20T17:56:02.324-04:00", "avatar": "https://avatars.slack-edge.com/2024-11-24/8062266015223_2257f6a0c32c6841f7a3_original.png", "custom_css": null}], "pagination": {"page": 190, "pages": 1192, "count": 23828, "items": 20}}