{"users": [{"id": 3801, "slack_id": "U091JDTTG3Y", "display_name": "Aditya", "bio": null, "projects_count": 0, "devlogs_count": 0, "votes_count": 0, "ships_count": 0, "projects": [], "coding_time_seconds": 0, "coding_time_seconds_today": 0, "balance": "You need to have a pocket watcher badge to view this.", "badges": [], "created_at": "2025-06-16T20:30:01.383-04:00", "updated_at": "2025-07-03T19:28:33.938-04:00", "avatar": "https://secure.gravatar.com/avatar/57a125cba560a0a05391a8b96520d291.jpg?s=512&d=https%3A%2F%2Fa.slack-edge.com%2Fdf10d%2Fimg%2Favatars%2Fava_0015-512.png", "custom_css": null}, {"id": 3802, "slack_id": "U087BV39A4X", "display_name": "Akseli Siili", "bio": null, "projects_count": 1, "devlogs_count": 0, "votes_count": 0, "ships_count": 0, "projects": [{"id": 1561, "title": "Congueror Game", "devlogs_count": 0, "created_at": "2025-06-18T18:35:53.382-04:00"}], "coding_time_seconds": 374543, "coding_time_seconds_today": 0, "balance": "You need to have a pocket watcher badge to view this.", "badges": [], "created_at": "2025-06-16T20:30:56.254-04:00", "updated_at": "2025-07-03T19:28:34.208-04:00", "avatar": "https://avatars.slack-edge.com/2025-01-08/8264977369026_269038b0ed87258162d2_original.jpg", "custom_css": null}, {"id": 3803, "slack_id": "U091RNQDASG", "display_name": "Aryav", "bio": null, "projects_count": 0, "devlogs_count": 0, "votes_count": 0, "ships_count": 0, "projects": [], "coding_time_seconds": 120, "coding_time_seconds_today": 0, "balance": "You need to have a pocket watcher badge to view this.", "badges": [], "created_at": "2025-06-16T20:31:51.711-04:00", "updated_at": "2025-07-03T19:28:34.470-04:00", "avatar": "https://secure.gravatar.com/avatar/511b75f9ec7aba92359e7e7b271da15f.jpg?s=512&d=https%3A%2F%2Fa.slack-edge.com%2Fdf10d%2Fimg%2Favatars%2Fava_0002-512.png", "custom_css": null}, {"id": 3804, "slack_id": "U091JJVT8LW", "display_name": "Faheedah-Ganiyah Mustapha", "bio": null, "projects_count": 0, "devlogs_count": 0, "votes_count": 0, "ships_count": 0, "projects": [], "coding_time_seconds": 0, "coding_time_seconds_today": 0, "balance": "You need to have a pocket watcher badge to view this.", "badges": [], "created_at": "2025-06-16T20:32:04.606-04:00", "updated_at": "2025-07-03T19:28:34.733-04:00", "avatar": "https://secure.gravatar.com/avatar/3f66521b34b89fc6ada4dbb1b96978d4.jpg?s=512&d=https%3A%2F%2Fa.slack-edge.com%2Fdf10d%2Fimg%2Favatars%2Fava_0016-512.png", "custom_css": null}, {"id": 3805, "slack_id": "U0919TFNKNK", "display_name": "Rehan Raj", "bio": null, "projects_count": 0, "devlogs_count": 0, "votes_count": 0, "ships_count": 0, "projects": [], "coding_time_seconds": 0, "coding_time_seconds_today": 0, "balance": "You need to have a pocket watcher badge to view this.", "badges": [], "created_at": "2025-06-16T20:32:05.917-04:00", "updated_at": "2025-07-03T19:28:34.995-04:00", "avatar": "https://secure.gravatar.com/avatar/c4c2afa78b06bdc986e5acb751ac622b.jpg?s=512&d=https%3A%2F%2Fa.slack-edge.com%2Fdf10d%2Fimg%2Favatars%2Fava_0022-512.png", "custom_css": null}, {"id": 3806, "slack_id": "U091RNRE40L", "display_name": "Kaleab Adane", "bio": null, "projects_count": 0, "devlogs_count": 0, "votes_count": 0, "ships_count": 0, "projects": [], "coding_time_seconds": 0, "coding_time_seconds_today": 0, "balance": "You need to have a pocket watcher badge to view this.", "badges": [], "created_at": "2025-06-16T20:32:11.979-04:00", "updated_at": "2025-07-03T19:28:35.280-04:00", "avatar": "https://secure.gravatar.com/avatar/0f55364e0d321a4ce6414d060ac871d1.jpg?s=512&d=https%3A%2F%2Fa.slack-edge.com%2Fdf10d%2Fimg%2Favatars%2Fava_0014-512.png", "custom_css": null}, {"id": 3807, "slack_id": "U091PJW4HD3", "display_name": "xOryus", "bio": null, "projects_count": 0, "devlogs_count": 0, "votes_count": 0, "ships_count": 0, "projects": [], "coding_time_seconds": 18972, "coding_time_seconds_today": 0, "balance": "You need to have a pocket watcher badge to view this.", "badges": [], "created_at": "2025-06-16T20:32:13.254-04:00", "updated_at": "2025-07-03T19:28:35.545-04:00", "avatar": "https://secure.gravatar.com/avatar/14f1a0cc015ae32d09033f3df53d8f45.jpg?s=512&d=https%3A%2F%2Fa.slack-edge.com%2Fdf10d%2Fimg%2Favatars%2Fava_0004-512.png", "custom_css": null}, {"id": 3808, "slack_id": "U091JFLT2TD", "display_name": "\uc720\ub3c4\uc544 (Evie)", "bio": null, "projects_count": 0, "devlogs_count": 0, "votes_count": 0, "ships_count": 0, "projects": [], "coding_time_seconds": 28276, "coding_time_seconds_today": 0, "balance": "You need to have a pocket watcher badge to view this.", "badges": [], "created_at": "2025-06-16T20:32:14.926-04:00", "updated_at": "2025-07-03T19:28:35.831-04:00", "avatar": "https://avatars.slack-edge.com/2025-06-17/9057744150437_6e0caaa18b6c79afa631_original.jpg", "custom_css": null}, {"id": 3809, "slack_id": "U091RDEPCMQ", "display_name": "Patrick Warren", "bio": null, "projects_count": 0, "devlogs_count": 0, "votes_count": 0, "ships_count": 0, "projects": [], "coding_time_seconds": 0, "coding_time_seconds_today": 0, "balance": "You need to have a pocket watcher badge to view this.", "badges": [], "created_at": "2025-06-16T20:32:26.258-04:00", "updated_at": "2025-07-11T22:52:53.757-04:00", "avatar": "https://avatars.slack-edge.com/2025-06-16/9081872812256_80cf3e823d77ea47ec3c_original.png", "custom_css": null}, {"id": 3810, "slack_id": "U079WVDK5R8", "display_name": "Rohit Pandey", "bio": null, "projects_count": 0, "devlogs_count": 0, "votes_count": 1, "ships_count": 0, "projects": [], "coding_time_seconds": 11189, "coding_time_seconds_today": 0, "balance": "You need to have a pocket watcher badge to view this.", "badges": [], "created_at": "2025-06-16T20:32:32.420-04:00", "updated_at": "2025-07-04T20:05:21.663-04:00", "avatar": "https://avatars.slack-edge.com/2024-06-26/7322450772759_f9d8d91ffcb7f5e84b32_original.jpg", "custom_css": null}, {"id": 3811, "slack_id": "U0923V75U6M", "display_name": "benotsmane youssouf", "bio": null, "projects_count": 0, "devlogs_count": 0, "votes_count": 0, "ships_count": 0, "projects": [], "coding_time_seconds": 0, "coding_time_seconds_today": 0, "balance": "You need to have a pocket watcher badge to view this.", "badges": [], "created_at": "2025-06-16T20:33:30.630-04:00", "updated_at": "2025-07-03T19:28:36.645-04:00", "avatar": "https://secure.gravatar.com/avatar/0d6ab3af1eed64b4d8df74cda8516b55.jpg?s=512&d=https%3A%2F%2Fa.slack-edge.com%2Fdf10d%2Fimg%2Favatars%2Fava_0018-512.png", "custom_css": null}, {"id": 3812, "slack_id": "U091A0T5LMD", "display_name": "Vevaan Verma", "bio": null, "projects_count": 0, "devlogs_count": 58, "votes_count": 131, "ships_count": 0, "projects": [], "coding_time_seconds": 993022, "coding_time_seconds_today": 0, "balance": "You need to have a pocket watcher badge to view this.", "badges": [{"name": "Maiden Voyage", "text": "you shipped your first project! the journey begins...", "icon": "\ud83d\udea2"}, {"name": "Ballot Stuffer", "text": "vote 100 times.", "icon": "https://summer.hackclub.com/assets/i_voted-bf851b48.png"}], "created_at": "2025-06-16T20:34:00.218-04:00", "updated_at": "2025-09-10T22:53:03.924-04:00", "avatar": "https://avatars.slack-edge.com/2025-07-18/9218890075302_0e558aef960d9735b7d6_original.jpg", "custom_css": null}, {"id": 3813, "slack_id": "U091RD9PW02", "display_name": "lucky", "bio": null, "projects_count": 0, "devlogs_count": 0, "votes_count": 0, "ships_count": 0, "projects": [], "coding_time_seconds": 33925, "coding_time_seconds_today": 0, "balance": "You need to have a pocket watcher badge to view this.", "badges": [], "created_at": "2025-06-16T20:34:03.777-04:00", "updated_at": "2025-07-03T19:28:37.169-04:00", "avatar": "https://secure.gravatar.com/avatar/9a86b18120e35c297357693b78b35f0e.jpg?s=512&d=https%3A%2F%2Fa.slack-edge.com%2Fdf10d%2Fimg%2Favatars%2Fava_0004-512.png", "custom_css": null}, {"id": 3814, "slack_id": "U091JFJTSN7", "display_name": "Guilherme Brante Cavequia", "bio": null, "projects_count": 0, "devlogs_count": 0, "votes_count": 0, "ships_count": 0, "projects": [], "coding_time_seconds": 0, "coding_time_seconds_today": 0, "balance": "You need to have a pocket watcher badge to view this.", "badges": [], "created_at": "2025-06-16T20:34:16.616-04:00", "updated_at": "2025-07-03T19:28:37.436-04:00", "avatar": "https://avatars.slack-edge.com/2025-06-16/9059470652914_573cd013c047392825b5_original.jpg", "custom_css": null}, {"id": 3815, "slack_id": "U086S3B5ZJT", "display_name": "Lowly", "bio": null, "projects_count": 0, "devlogs_count": 0, "votes_count": 0, "ships_count": 0, "projects": [], "coding_time_seconds": 0, "coding_time_seconds_today": 0, "balance": "You need to have a pocket watcher badge to view this.", "badges": [], "created_at": "2025-06-16T20:34:52.451-04:00", "updated_at": "2025-07-03T19:28:37.693-04:00", "avatar": "https://secure.gravatar.com/avatar/3eeb21bd228d4b8089bd45de227c7d96.jpg?s=512&d=https%3A%2F%2Fa.slack-edge.com%2Fdf10d%2Fimg%2Favatars%2Fava_0005-512.png", "custom_css": null}, {"id": 3816, "slack_id": "U0923V9UW2D", "display_name": "Dhwani", "bio": null, "projects_count": 0, "devlogs_count": 0, "votes_count": 0, "ships_count": 0, "projects": [], "coding_time_seconds": 132794, "coding_time_seconds_today": 0, "balance": "You need to have a pocket watcher badge to view this.", "badges": [], "created_at": "2025-06-16T20:34:57.602-04:00", "updated_at": "2025-07-03T19:28:37.960-04:00", "avatar": "https://secure.gravatar.com/avatar/257a4af1d2b1410e283f5d7ccc243c3b.jpg?s=512&d=https%3A%2F%2Fa.slack-edge.com%2Fdf10d%2Fimg%2Favatars%2Fava_0010-512.png", "custom_css": null}, {"id": 3817, "slack_id": "U0923V9SAV7", "display_name": "Siddhartha Pandya", "bio": null, "projects_count": 0, "devlogs_count": 0, "votes_count": 0, "ships_count": 0, "projects": [], "coding_time_seconds": 3146, "coding_time_seconds_today": 0, "balance": "You need to have a pocket watcher badge to view this.", "badges": [], "created_at": "2025-06-16T20:35:07.611-04:00", "updated_at": "2025-07-03T19:28:38.221-04:00", "avatar": "https://secure.gravatar.com/avatar/16c704fe2b4e0f29f6be914d0e1cdf2e.jpg?s=512&d=https%3A%2F%2Fa.slack-edge.com%2Fdf10d%2Fimg%2Favatars%2Fava_0024-512.png", "custom_css": null}, {"id": 3818, "slack_id": "U074SFQFJMS", "display_name": "Eesa", "bio": null, "projects_count": 4, "devlogs_count": 4, "votes_count": 2, "ships_count": 3, "projects": [{"id": 1656, "title": "fictional character tweets", "devlogs_count": 1, "created_at": "2025-06-19T00:24:11.369-04:00"}, {"id": 7445, "title": "GratefulTime - a really cool iOS app", "devlogs_count": 1, "created_at": "2025-07-21T19:41:00.773-04:00"}, {"id": 7773, "title": "Rust MP3 Player", "devlogs_count": 0, "created_at": "2025-07-23T00:35:40.779-04:00"}, {"id": 7181, "title": "Ruby Movies", "devlogs_count": 2, "created_at": "2025-07-19T17:43:49.627-04:00"}], "coding_time_seconds": 233576, "coding_time_seconds_today": 0, "balance": "You need to have a pocket watcher badge to view this.", "badges": [{"name": "Maiden Voyage", "text": "you shipped your first project! the journey begins...", "icon": "\ud83d\udea2"}], "created_at": "2025-06-16T20:35:37.436-04:00", "updated_at": "2025-09-13T02:16:28.904-04:00", "avatar": "https://avatars.slack-edge.com/2025-09-12/9516484784388_65418a1cbd3a19368d5a_original.jpg", "custom_css": null}, {"id": 3819, "slack_id": "U091A2WV431", "display_name": "Kosei Katsura", "bio": null, "projects_count": 0, "devlogs_count": 0, "votes_count": 0, "ships_count": 0, "projects": [], "coding_time_seconds": 0, "coding_time_seconds_today": 0, "balance": "You need to have a pocket watcher badge to view this.", "badges": [], "created_at": "2025-06-16T20:35:38.365-04:00", "updated_at": "2025-07-03T19:28:38.762-04:00", "avatar": "https://secure.gravatar.com/avatar/713953f7fe801012ca76c3321a636f01.jpg?s=512&d=https%3A%2F%2Fa.slack-edge.com%2Fdf10d%2Fimg%2Favatars%2Fava_0013-512.png", "custom_css": null}, {"id": 3820, "slack_id": "U091JF6GT0B", "display_name": "brainsfreeze", "bio": null, "projects_count": 0, "devlogs_count": 0, "votes_count": 0, "ships_count": 0, "projects": [], "coding_time_seconds": 65273, "coding_time_seconds_today": 0, "balance": "You need to have a pocket watcher badge to view this.", "badges": [], "created_at": "2025-06-16T20:35:50.380-04:00", "updated_at": "2025-07-03T19:28:39.032-04:00", "avatar": "https://secure.gravatar.com/avatar/cb293f184960d1bf93c973fd210fe437.jpg?s=512&d=https%3A%2F%2Fa.slack-edge.com%2Fdf10d%2Fimg%2Favatars%2Fava_0015-512.png", "custom_css": null}], "pagination": {"page": 191, "pages": 1192, "count": 23828, "items": 20}}