{"users": [{"id": 3821, "slack_id": "U091H45F62F", "display_name": "Maansi Ranjan", "bio": null, "projects_count": 0, "devlogs_count": 0, "votes_count": 0, "ships_count": 0, "projects": [], "coding_time_seconds": 0, "coding_time_seconds_today": 0, "balance": "You need to have a pocket watcher badge to view this.", "badges": [], "created_at": "2025-06-16T20:36:12.392-04:00", "updated_at": "2025-07-03T19:28:39.890-04:00", "avatar": "https://secure.gravatar.com/avatar/2748c174e2806212995b4283c47a1e65.jpg?s=512&d=https%3A%2F%2Fa.slack-edge.com%2Fdf10d%2Fimg%2Favatars%2Fava_0005-512.png", "custom_css": null}, {"id": 3822, "slack_id": "U07EYMXG8RL", "display_name": "Matthew Wang", "bio": null, "projects_count": 0, "devlogs_count": 0, "votes_count": 0, "ships_count": 0, "projects": [], "coding_time_seconds": 112745, "coding_time_seconds_today": 0, "balance": "You need to have a pocket watcher badge to view this.", "badges": [], "created_at": "2025-06-16T20:36:34.333-04:00", "updated_at": "2025-07-03T19:28:40.173-04:00", "avatar": "https://avatars.slack-edge.com/2024-08-01/7515383635026_75bff864ed70b2f23083_original.png", "custom_css": null}, {"id": 3823, "slack_id": "U091RDV9H4J", "display_name": "Moehammad Joesoef Aldri", "bio": null, "projects_count": 0, "devlogs_count": 0, "votes_count": 0, "ships_count": 0, "projects": [], "coding_time_seconds": 120, "coding_time_seconds_today": 0, "balance": "You need to have a pocket watcher badge to view this.", "badges": [], "created_at": "2025-06-16T20:37:22.121-04:00", "updated_at": "2025-07-03T19:28:40.434-04:00", "avatar": "https://secure.gravatar.com/avatar/a89ca8d4ec1ca6f8884f12ec8acdf636.jpg?s=512&d=https%3A%2F%2Fa.slack-edge.com%2Fdf10d%2Fimg%2Favatars%2Fava_0018-512.png", "custom_css": null}, {"id": 3824, "slack_id": "U08234L2CAZ", "display_name": "jocelyn", "bio": null, "projects_count": 0, "devlogs_count": 0, "votes_count": 0, "ships_count": 0, "projects": [], "coding_time_seconds": 103939, "coding_time_seconds_today": 1348, "balance": "You need to have a pocket watcher badge to view this.", "badges": [], "created_at": "2025-06-16T20:37:47.606-04:00", "updated_at": "2025-07-17T00:25:17.180-04:00", "avatar": "https://avatars.slack-edge.com/2025-04-13/8745580692501_f80b6c9006eb004d5098_original.png", "custom_css": null}, {"id": 3825, "slack_id": "U091PKUDBHT", "display_name": "jaisuriya Paranthaman", "bio": null, "projects_count": 0, "devlogs_count": 0, "votes_count": 0, "ships_count": 0, "projects": [], "coding_time_seconds": 0, "coding_time_seconds_today": 0, "balance": "You need to have a pocket watcher badge to view this.", "badges": [], "created_at": "2025-06-16T20:38:29.620-04:00", "updated_at": "2025-07-03T19:28:40.964-04:00", "avatar": "https://secure.gravatar.com/avatar/f797949b82cc713bfdbf245de5013d1a.jpg?s=512&d=https%3A%2F%2Fa.slack-edge.com%2Fdf10d%2Fimg%2Favatars%2Fava_0005-512.png", "custom_css": null}, {"id": 3826, "slack_id": "U08GVJBC7HQ", "display_name": "CJ", "bio": null, "projects_count": 0, "devlogs_count": 0, "votes_count": 6, "ships_count": 0, "projects": [], "coding_time_seconds": 0, "coding_time_seconds_today": 0, "balance": "You need to have a pocket watcher badge to view this.", "badges": [], "created_at": "2025-06-16T20:38:40.888-04:00", "updated_at": "2025-08-21T02:16:33.490-04:00", "avatar": "https://avatars.slack-edge.com/2025-08-20/9383839127397_c3ce826f0cfdd348d87c_original.png", "custom_css": null}, {"id": 3827, "slack_id": "U091A3JJGUF", "display_name": "Cy Wilkinson", "bio": null, "projects_count": 1, "devlogs_count": 4, "votes_count": 0, "ships_count": 0, "projects": [{"id": 431, "title": "multi player 3rd person shooter", "devlogs_count": 4, "created_at": "2025-06-16T21:15:22.912-04:00"}], "coding_time_seconds": 27581, "coding_time_seconds_today": 0, "balance": "You need to have a pocket watcher badge to view this.", "badges": [], "created_at": "2025-06-16T20:38:40.964-04:00", "updated_at": "2025-07-03T19:28:41.483-04:00", "avatar": "https://avatars.slack-edge.com/2025-06-16/9059483870530_0f1be5b1ae34efb4dcde_original.jpg", "custom_css": null}, {"id": 3828, "slack_id": "U07CV36R5EH", "display_name": "Sahil Singh", "bio": null, "projects_count": 0, "devlogs_count": 0, "votes_count": 0, "ships_count": 0, "projects": [], "coding_time_seconds": 228, "coding_time_seconds_today": 0, "balance": "You need to have a pocket watcher badge to view this.", "badges": [], "created_at": "2025-06-16T20:38:47.991-04:00", "updated_at": "2025-07-03T19:28:41.755-04:00", "avatar": "https://avatars.slack-edge.com/2024-07-17/7452711880145_838da7ac3cd31d916ca2_original.png", "custom_css": null}, {"id": 3829, "slack_id": "U08TRV8L5MJ", "display_name": "MianReplicate", "bio": null, "projects_count": 1, "devlogs_count": 0, "votes_count": 0, "ships_count": 0, "projects": [{"id": 1514, "title": "Topic of Love", "devlogs_count": 0, "created_at": "2025-06-18T16:59:23.574-04:00"}], "coding_time_seconds": 652074, "coding_time_seconds_today": 0, "balance": "You need to have a pocket watcher badge to view this.", "badges": [], "created_at": "2025-06-16T20:39:00.377-04:00", "updated_at": "2025-09-03T00:39:44.568-04:00", "avatar": "https://secure.gravatar.com/avatar/36a20ad1d5f44386895511d49a98041b.jpg?s=512&d=https%3A%2F%2Fa.slack-edge.com%2Fdf10d%2Fimg%2Favatars%2Fava_0013-512.png", "custom_css": null}, {"id": 3830, "slack_id": "U091A36R0KZ", "display_name": "Tasneem", "bio": null, "projects_count": 0, "devlogs_count": 0, "votes_count": 0, "ships_count": 0, "projects": [], "coding_time_seconds": 0, "coding_time_seconds_today": 0, "balance": "You need to have a pocket watcher badge to view this.", "badges": [], "created_at": "2025-06-16T20:39:08.961-04:00", "updated_at": "2025-07-03T19:28:42.284-04:00", "avatar": "https://secure.gravatar.com/avatar/40058656ec25127a2cab33a8d45322bf.jpg?s=512&d=https%3A%2F%2Fa.slack-edge.com%2Fdf10d%2Fimg%2Favatars%2Fava_0017-512.png", "custom_css": null}, {"id": 3831, "slack_id": "U090R40303U", "display_name": "Aurora", "bio": null, "projects_count": 0, "devlogs_count": 34, "votes_count": 0, "ships_count": 0, "projects": [], "coding_time_seconds": 293453, "coding_time_seconds_today": 0, "balance": "You need to have a pocket watcher badge to view this.", "badges": [], "created_at": "2025-06-16T20:39:22.204-04:00", "updated_at": "2025-07-09T16:52:05.750-04:00", "avatar": "https://avatars.slack-edge.com/2025-06-15/9064706286321_19f63b62c63cfb8be8bb_original.png", "custom_css": null}, {"id": 3832, "slack_id": "U078WRXU7B9", "display_name": "Noah S.", "bio": null, "projects_count": 0, "devlogs_count": 0, "votes_count": 0, "ships_count": 0, "projects": [], "coding_time_seconds": 104360, "coding_time_seconds_today": 0, "balance": "You need to have a pocket watcher badge to view this.", "badges": [], "created_at": "2025-06-16T20:39:33.099-04:00", "updated_at": "2025-07-03T19:28:42.818-04:00", "avatar": "https://avatars.slack-edge.com/2025-01-16/8311097432212_9efe804bcd3dd024e06a_original.png", "custom_css": null}, {"id": 3833, "slack_id": "U08263PRMSQ", "display_name": "hjw1112", "bio": null, "projects_count": 1, "devlogs_count": 0, "votes_count": 0, "ships_count": 0, "projects": [{"id": 1587, "title": "Customboard", "devlogs_count": 0, "created_at": "2025-06-18T20:20:04.994-04:00"}], "coding_time_seconds": 35987, "coding_time_seconds_today": 0, "balance": "You need to have a pocket watcher badge to view this.", "badges": [], "created_at": "2025-06-16T20:39:36.993-04:00", "updated_at": "2025-07-03T19:28:43.091-04:00", "avatar": "https://secure.gravatar.com/avatar/b0d3935ea3a8db72dcede58c24e77f42.jpg?s=512&d=https%3A%2F%2Fa.slack-edge.com%2Fdf10d%2Fimg%2Favatars%2Fava_0024-512.png", "custom_css": null}, {"id": 3834, "slack_id": "U092DRTHAHE", "display_name": "Hayden Jian", "bio": null, "projects_count": 0, "devlogs_count": 0, "votes_count": 0, "ships_count": 0, "projects": [], "coding_time_seconds": 0, "coding_time_seconds_today": 0, "balance": "You need to have a pocket watcher badge to view this.", "badges": [], "created_at": "2025-06-16T20:39:50.399-04:00", "updated_at": "2025-07-03T19:28:43.411-04:00", "avatar": "https://secure.gravatar.com/avatar/1ba4a07da8098788a19203579a1f88d6.jpg?s=512&d=https%3A%2F%2Fa.slack-edge.com%2Fdf10d%2Fimg%2Favatars%2Fava_0019-512.png", "custom_css": null}, {"id": 3835, "slack_id": "U091A3JBK7Z", "display_name": "Vaibhav Itauriya", "bio": null, "projects_count": 0, "devlogs_count": 0, "votes_count": 0, "ships_count": 0, "projects": [], "coding_time_seconds": 8597, "coding_time_seconds_today": 0, "balance": "You need to have a pocket watcher badge to view this.", "badges": [], "created_at": "2025-06-16T20:39:59.672-04:00", "updated_at": "2025-07-03T19:28:43.683-04:00", "avatar": "https://secure.gravatar.com/avatar/4c20637caacef328de67f92a68a5c65a.jpg?s=512&d=https%3A%2F%2Fa.slack-edge.com%2Fdf10d%2Fimg%2Favatars%2Fava_0016-512.png", "custom_css": null}, {"id": 3836, "slack_id": "U079G3WGRL4", "display_name": "jumpsushi", "bio": null, "projects_count": 0, "devlogs_count": 0, "votes_count": 0, "ships_count": 0, "projects": [], "coding_time_seconds": 64917, "coding_time_seconds_today": 0, "balance": "You need to have a pocket watcher badge to view this.", "badges": [], "created_at": "2025-06-16T20:40:12.821-04:00", "updated_at": "2025-07-03T19:28:43.988-04:00", "avatar": "https://avatars.slack-edge.com/2025-02-25/8505489552003_d0cfbc703d276d5fa965_original.png", "custom_css": null}, {"id": 3837, "slack_id": "U0919K1RVTR", "display_name": "Timothy Yang", "bio": null, "projects_count": 1, "devlogs_count": 0, "votes_count": 0, "ships_count": 0, "projects": [{"id": 495, "title": "IdeaForge", "devlogs_count": 0, "created_at": "2025-06-16T23:38:56.704-04:00"}], "coding_time_seconds": 2184, "coding_time_seconds_today": 0, "balance": "You need to have a pocket watcher badge to view this.", "badges": [], "created_at": "2025-06-16T20:40:25.275-04:00", "updated_at": "2025-07-03T19:28:44.249-04:00", "avatar": "https://secure.gravatar.com/avatar/247573a9caa9c083f494b53573c52f0c.jpg?s=512&d=https%3A%2F%2Fa.slack-edge.com%2Fdf10d%2Fimg%2Favatars%2Fava_0013-512.png", "custom_css": null}, {"id": 3838, "slack_id": "U091A3HSJF9", "display_name": "Sayari", "bio": null, "projects_count": 1, "devlogs_count": 1, "votes_count": 0, "ships_count": 0, "projects": [{"id": 2503, "title": "don't lie", "devlogs_count": 1, "created_at": "2025-06-21T06:42:38.896-04:00"}], "coding_time_seconds": 20283, "coding_time_seconds_today": 0, "balance": "You need to have a pocket watcher badge to view this.", "badges": [], "created_at": "2025-06-16T20:40:40.651-04:00", "updated_at": "2025-07-03T19:28:44.509-04:00", "avatar": "https://secure.gravatar.com/avatar/9674b37627fab04409c9a9b30818dab9.jpg?s=512&d=https%3A%2F%2Fa.slack-edge.com%2Fdf10d%2Fimg%2Favatars%2Fava_0017-512.png", "custom_css": null}, {"id": 3839, "slack_id": "U0923F4LKTK", "display_name": "Eric Zhang", "bio": null, "projects_count": 0, "devlogs_count": 0, "votes_count": 1, "ships_count": 0, "projects": [], "coding_time_seconds": 10309, "coding_time_seconds_today": 0, "balance": "You need to have a pocket watcher badge to view this.", "badges": [], "created_at": "2025-06-16T20:40:49.691-04:00", "updated_at": "2025-07-03T19:28:44.773-04:00", "avatar": "https://secure.gravatar.com/avatar/51f94b1fcdbc0fa678d34589ac828cdf.jpg?s=512&d=https%3A%2F%2Fa.slack-edge.com%2Fdf10d%2Fimg%2Favatars%2Fava_0016-512.png", "custom_css": null}, {"id": 3840, "slack_id": "U092DS0JUJC", "display_name": "GABRIEL GERARDO YARLEQUE RAMOS", "bio": null, "projects_count": 0, "devlogs_count": 0, "votes_count": 0, "ships_count": 0, "projects": [], "coding_time_seconds": 91215, "coding_time_seconds_today": 0, "balance": "You need to have a pocket watcher badge to view this.", "badges": [], "created_at": "2025-06-16T20:41:02.521-04:00", "updated_at": "2025-07-03T19:28:45.047-04:00", "avatar": "https://avatars.slack-edge.com/2025-06-16/9059491602098_98712d08a84cbfc5ad47_original.png", "custom_css": null}], "pagination": {"page": 192, "pages": 1192, "count": 23828, "items": 20}}