{"users": [{"id": 3841, "slack_id": "U084UQFF0LC", "display_name": "Floppy", "bio": null, "projects_count": 0, "devlogs_count": 35, "votes_count": 90, "ships_count": 0, "projects": [], "coding_time_seconds": 325028, "coding_time_seconds_today": 0, "balance": "You need to have a pocket watcher badge to view this.", "badges": [{"name": "Maiden Voyage", "text": "you shipped your first project! the journey begins...", "icon": "\ud83d\udea2"}], "created_at": "2025-06-16T20:41:26.813-04:00", "updated_at": "2025-09-12T11:16:36.485-04:00", "avatar": "https://avatars.slack-edge.com/2025-09-05/9462910104643_f0e10508c7313006fa21_original.jpg", "custom_css": null}, {"id": 3842, "slack_id": "U091RPR8KCL", "display_name": "Riyank Patel", "bio": null, "projects_count": 0, "devlogs_count": 0, "votes_count": 0, "ships_count": 0, "projects": [], "coding_time_seconds": 0, "coding_time_seconds_today": 0, "balance": "You need to have a pocket watcher badge to view this.", "badges": [], "created_at": "2025-06-16T20:41:32.042-04:00", "updated_at": "2025-07-03T19:28:45.593-04:00", "avatar": "https://avatars.slack-edge.com/2025-06-16/9052687991606_f2c0a4b5f053a10afb87_original.jpg", "custom_css": null}, {"id": 3843, "slack_id": "U091PL9FMAR", "display_name": "Nacho Bechi", "bio": null, "projects_count": 0, "devlogs_count": 0, "votes_count": 0, "ships_count": 0, "projects": [], "coding_time_seconds": 3506, "coding_time_seconds_today": 0, "balance": "You need to have a pocket watcher badge to view this.", "badges": [], "created_at": "2025-06-16T20:41:51.315-04:00", "updated_at": "2025-07-03T19:28:45.862-04:00", "avatar": "https://avatars.slack-edge.com/2025-06-16/9052568238275_0569e0d178a570b2e73b_original.jpg", "custom_css": null}, {"id": 3844, "slack_id": "U091JKWSZ9U", "display_name": "Brandon Kowalski", "bio": null, "projects_count": 0, "devlogs_count": 0, "votes_count": 0, "ships_count": 0, "projects": [], "coding_time_seconds": 0, "coding_time_seconds_today": 0, "balance": "You need to have a pocket watcher badge to view this.", "badges": [], "created_at": "2025-06-16T20:41:52.594-04:00", "updated_at": "2025-07-03T19:28:46.128-04:00", "avatar": "https://secure.gravatar.com/avatar/82d97ebe44f8f9296ec3598ab81a0ae4.jpg?s=512&d=https%3A%2F%2Fa.slack-edge.com%2Fdf10d%2Fimg%2Favatars%2Fava_0009-512.png", "custom_css": null}, {"id": 3845, "slack_id": "U091A3PMQB1", "display_name": "Akilan Karunakaran", "bio": null, "projects_count": 0, "devlogs_count": 0, "votes_count": 0, "ships_count": 0, "projects": [], "coding_time_seconds": 9, "coding_time_seconds_today": 0, "balance": "You need to have a pocket watcher badge to view this.", "badges": [], "created_at": "2025-06-16T20:42:08.830-04:00", "updated_at": "2025-07-03T19:28:46.398-04:00", "avatar": "https://secure.gravatar.com/avatar/e2f531f9ddba8d27244b28af6808a7a0.jpg?s=512&d=https%3A%2F%2Fa.slack-edge.com%2Fdf10d%2Fimg%2Favatars%2Fava_0006-512.png", "custom_css": null}, {"id": 3846, "slack_id": "U092DS2G2TS", "display_name": "pxxcxnt", "bio": null, "projects_count": 1, "devlogs_count": 0, "votes_count": 0, "ships_count": 0, "projects": [{"id": 604, "title": "Relay-Backend", "devlogs_count": 0, "created_at": "2025-06-17T02:35:03.152-04:00"}], "coding_time_seconds": 113973, "coding_time_seconds_today": 0, "balance": "You need to have a pocket watcher badge to view this.", "badges": [], "created_at": "2025-06-16T20:42:11.463-04:00", "updated_at": "2025-07-03T19:28:46.666-04:00", "avatar": "https://avatars.slack-edge.com/2025-06-17/9052577248547_1ac383d93665b090f97a_original.png", "custom_css": null}, {"id": 3847, "slack_id": "U092DS46FC0", "display_name": "Auke Jonker", "bio": null, "projects_count": 0, "devlogs_count": 0, "votes_count": 0, "ships_count": 0, "projects": [], "coding_time_seconds": 7897, "coding_time_seconds_today": 0, "balance": "You need to have a pocket watcher badge to view this.", "badges": [], "created_at": "2025-06-16T20:42:24.748-04:00", "updated_at": "2025-07-03T19:28:46.935-04:00", "avatar": "https://secure.gravatar.com/avatar/c5beebb90232b4b5fed92ae42e9e0973.jpg?s=512&d=https%3A%2F%2Fa.slack-edge.com%2Fdf10d%2Fimg%2Favatars%2Fava_0006-512.png", "custom_css": null}, {"id": 3848, "slack_id": "U07BAGHJPV1", "display_name": "Ishaan Gupta", "bio": null, "projects_count": 0, "devlogs_count": 0, "votes_count": 0, "ships_count": 0, "projects": [], "coding_time_seconds": 0, "coding_time_seconds_today": 0, "balance": "You need to have a pocket watcher badge to view this.", "badges": [], "created_at": "2025-06-16T20:42:55.220-04:00", "updated_at": "2025-07-03T19:28:47.190-04:00", "avatar": "https://avatars.slack-edge.com/2024-07-29/7487183534694_246e141c2d93c47aa7f8_original.png", "custom_css": null}, {"id": 3849, "slack_id": "U07BCQM6EM8", "display_name": "Aditi", "bio": null, "projects_count": 0, "devlogs_count": 0, "votes_count": 0, "ships_count": 0, "projects": [], "coding_time_seconds": 0, "coding_time_seconds_today": 0, "balance": "You need to have a pocket watcher badge to view this.", "badges": [], "created_at": "2025-06-16T20:42:59.214-04:00", "updated_at": "2025-07-03T19:28:47.450-04:00", "avatar": "https://secure.gravatar.com/avatar/8c2b7dd0a9a78d9f33bf157648a377d4.jpg?s=512&d=https%3A%2F%2Fa.slack-edge.com%2Fdf10d%2Fimg%2Favatars%2Fava_0022-512.png", "custom_css": null}, {"id": 3850, "slack_id": "U0923V3HZH7", "display_name": "\u9ec3\u5b9a\u68ee", "bio": null, "projects_count": 0, "devlogs_count": 0, "votes_count": 0, "ships_count": 0, "projects": [], "coding_time_seconds": 0, "coding_time_seconds_today": 0, "balance": "You need to have a pocket watcher badge to view this.", "badges": [], "created_at": "2025-06-16T20:43:11.644-04:00", "updated_at": "2025-07-03T19:28:47.714-04:00", "avatar": "https://avatars.slack-edge.com/2025-06-16/9052572225619_1c5e1a65963b514043e6_original.jpg", "custom_css": null}, {"id": 3851, "slack_id": "U091RPV8ACU", "display_name": "Tianyu Guo", "bio": null, "projects_count": 0, "devlogs_count": 0, "votes_count": 0, "ships_count": 0, "projects": [], "coding_time_seconds": 0, "coding_time_seconds_today": 0, "balance": "You need to have a pocket watcher badge to view this.", "badges": [], "created_at": "2025-06-16T20:43:22.376-04:00", "updated_at": "2025-07-03T19:28:47.980-04:00", "avatar": "https://secure.gravatar.com/avatar/7ea33df5001f44f92acff29c54225cf5.jpg?s=512&d=https%3A%2F%2Fa.slack-edge.com%2Fdf10d%2Fimg%2Favatars%2Fava_0016-512.png", "custom_css": null}, {"id": 3852, "slack_id": "U091JKW6HL6", "display_name": "Shreyesh Reddy", "bio": null, "projects_count": 0, "devlogs_count": 0, "votes_count": 0, "ships_count": 0, "projects": [], "coding_time_seconds": 0, "coding_time_seconds_today": 0, "balance": "You need to have a pocket watcher badge to view this.", "badges": [], "created_at": "2025-06-16T20:43:30.636-04:00", "updated_at": "2025-07-03T19:28:48.237-04:00", "avatar": "https://secure.gravatar.com/avatar/d2ad597212e0febcdd7445b46c15d0f2.jpg?s=512&d=https%3A%2F%2Fa.slack-edge.com%2Fdf10d%2Fimg%2Favatars%2Fava_0016-512.png", "custom_css": null}, {"id": 3853, "slack_id": "U06Q4MN2PSN", "display_name": "Prajwal Prashanth", "bio": null, "projects_count": 5, "devlogs_count": 10, "votes_count": 78, "ships_count": 5, "projects": [{"id": 7989, "title": "Vancouver Transit Tracker", "devlogs_count": 3, "created_at": "2025-07-23T23:33:40.362-04:00"}, {"id": 11725, "title": "BC AI Survey Data Storytelling: Semantic Maps & Roundtable Personas", "devlogs_count": 1, "created_at": "2025-08-18T21:18:07.024-04:00"}, {"id": 13061, "title": "Langara Engineering Schedule Visualizer", "devlogs_count": 1, "created_at": "2025-09-07T22:40:47.291-04:00"}, {"id": 11863, "title": "Personal Portfolio Website", "devlogs_count": 4, "created_at": "2025-08-20T12:20:22.783-04:00"}, {"id": 5527, "title": "ty - Digital Thank You Letters", "devlogs_count": 1, "created_at": "2025-07-05T22:47:39.001-04:00"}], "coding_time_seconds": 150450, "coding_time_seconds_today": 0, "balance": "You need to have a pocket watcher badge to view this.", "badges": [{"name": "Maiden Voyage", "text": "you shipped your first project! the journey begins...", "icon": "\ud83d\udea2"}, {"name": "Spider", "text": "this user has a pet!", "icon": "\ud83d\udd77\ufe0f"}], "created_at": "2025-06-16T20:43:32.410-04:00", "updated_at": "2025-09-10T22:53:05.007-04:00", "avatar": "https://avatars.slack-edge.com/2025-03-27/8661409571830_2c97a2d50ca19c110d21_original.jpg", "custom_css": null}, {"id": 3854, "slack_id": "U091RQ4MSQL", "display_name": "Adi Fahmi", "bio": null, "projects_count": 0, "devlogs_count": 0, "votes_count": 0, "ships_count": 0, "projects": [], "coding_time_seconds": 0, "coding_time_seconds_today": 0, "balance": "You need to have a pocket watcher badge to view this.", "badges": [], "created_at": "2025-06-16T20:43:38.354-04:00", "updated_at": "2025-07-03T19:28:48.784-04:00", "avatar": "https://avatars.slack-edge.com/2025-06-16/9059823174676_8af7a1856ef0178bf3c5_original.jpg", "custom_css": null}, {"id": 3855, "slack_id": "U0747GRE669", "display_name": "sunni", "bio": null, "projects_count": 0, "devlogs_count": 0, "votes_count": 0, "ships_count": 0, "projects": [], "coding_time_seconds": 97891, "coding_time_seconds_today": 0, "balance": "You need to have a pocket watcher badge to view this.", "badges": [], "created_at": "2025-06-16T20:43:38.360-04:00", "updated_at": "2025-07-03T19:28:49.062-04:00", "avatar": "https://avatars.slack-edge.com/2025-01-23/8364242184480_90d76f089b23d8878993_original.png", "custom_css": null}, {"id": 3856, "slack_id": "U091RPYGB6G", "display_name": "kosei katsura", "bio": null, "projects_count": 0, "devlogs_count": 0, "votes_count": 0, "ships_count": 0, "projects": [], "coding_time_seconds": 68013, "coding_time_seconds_today": 0, "balance": "You need to have a pocket watcher badge to view this.", "badges": [], "created_at": "2025-06-16T20:43:47.262-04:00", "updated_at": "2025-07-03T19:28:49.337-04:00", "avatar": "https://secure.gravatar.com/avatar/b0ac68b2e698c58e5a8f92d9aba321db.jpg?s=512&d=https%3A%2F%2Fa.slack-edge.com%2Fdf10d%2Fimg%2Favatars%2Fava_0019-512.png", "custom_css": null}, {"id": 3857, "slack_id": "U091RPY4CUC", "display_name": "Sarvesh Kishore", "bio": null, "projects_count": 0, "devlogs_count": 0, "votes_count": 0, "ships_count": 0, "projects": [], "coding_time_seconds": 0, "coding_time_seconds_today": 0, "balance": "You need to have a pocket watcher badge to view this.", "badges": [], "created_at": "2025-06-16T20:44:19.211-04:00", "updated_at": "2025-07-03T19:28:49.602-04:00", "avatar": "https://secure.gravatar.com/avatar/7193b6bb4c35044474e0576d06a859a3.jpg?s=512&d=https%3A%2F%2Fa.slack-edge.com%2Fdf10d%2Fimg%2Favatars%2Fava_0005-512.png", "custom_css": null}, {"id": 3858, "slack_id": "U091REJEAG2", "display_name": "Zukron Alviandy", "bio": null, "projects_count": 0, "devlogs_count": 0, "votes_count": 0, "ships_count": 0, "projects": [], "coding_time_seconds": 0, "coding_time_seconds_today": 0, "balance": "You need to have a pocket watcher badge to view this.", "badges": [], "created_at": "2025-06-16T20:44:48.169-04:00", "updated_at": "2025-07-03T19:28:49.870-04:00", "avatar": "https://avatars.slack-edge.com/2025-06-16/9059826245636_030706693c5c40dcbaf9_original.webp", "custom_css": null}, {"id": 3859, "slack_id": "U07C74VCDCM", "display_name": "Megh Mistry", "bio": null, "projects_count": 1, "devlogs_count": 2, "votes_count": 1, "ships_count": 1, "projects": [{"id": 432, "title": "Stocky", "devlogs_count": 2, "created_at": "2025-06-16T21:18:06.576-04:00"}], "coding_time_seconds": 9805, "coding_time_seconds_today": 0, "balance": "You need to have a pocket watcher badge to view this.", "badges": [{"name": "Maiden Voyage", "text": "you shipped your first project! the journey begins...", "icon": "\ud83d\udea2"}], "created_at": "2025-06-16T20:45:39.958-04:00", "updated_at": "2025-09-10T22:53:05.179-04:00", "avatar": "https://avatars.slack-edge.com/2024-07-12/7415168842453_3468c2c7d9d910f7cba9_original.png", "custom_css": null}, {"id": 3860, "slack_id": "U091PLNJ8JH", "display_name": "Pratyush Raj Tomar", "bio": null, "projects_count": 0, "devlogs_count": 0, "votes_count": 0, "ships_count": 0, "projects": [], "coding_time_seconds": 10289, "coding_time_seconds_today": 0, "balance": "You need to have a pocket watcher badge to view this.", "badges": [], "created_at": "2025-06-16T20:46:24.466-04:00", "updated_at": "2025-07-03T19:28:50.403-04:00", "avatar": "https://secure.gravatar.com/avatar/2f33b1633ccd00ca69e9bb3b7bce1dd1.jpg?s=512&d=https%3A%2F%2Fa.slack-edge.com%2Fdf10d%2Fimg%2Favatars%2Fava_0007-512.png", "custom_css": null}], "pagination": {"page": 193, "pages": 1192, "count": 23828, "items": 20}}