{"users": [{"id": 3901, "slack_id": "U09241YREC9", "display_name": "QUBITABHAY", "bio": null, "projects_count": 0, "devlogs_count": 0, "votes_count": 0, "ships_count": 0, "projects": [], "coding_time_seconds": 0, "coding_time_seconds_today": 0, "balance": "You need to have a pocket watcher badge to view this.", "badges": [], "created_at": "2025-06-16T20:58:28.063-04:00", "updated_at": "2025-07-03T19:29:01.451-04:00", "avatar": "https://secure.gravatar.com/avatar/08807447e031e547690088b3407970c3.jpg?s=512&d=https%3A%2F%2Fa.slack-edge.com%2Fdf10d%2Fimg%2Favatars%2Fava_0012-512.png", "custom_css": null}, {"id": 3902, "slack_id": "U091RR7TX1A", "display_name": "Gargi", "bio": null, "projects_count": 0, "devlogs_count": 0, "votes_count": 0, "ships_count": 0, "projects": [], "coding_time_seconds": 291, "coding_time_seconds_today": 0, "balance": "You need to have a pocket watcher badge to view this.", "badges": [], "created_at": "2025-06-16T20:58:54.008-04:00", "updated_at": "2025-07-03T19:29:01.722-04:00", "avatar": "https://secure.gravatar.com/avatar/c32a060870e246dbc3111b4492cbedba.jpg?s=512&d=https%3A%2F%2Fa.slack-edge.com%2Fdf10d%2Fimg%2Favatars%2Fava_0021-512.png", "custom_css": null}, {"id": 3903, "slack_id": "U07DYPNLJP3", "display_name": "iach526", "bio": null, "projects_count": 0, "devlogs_count": 0, "votes_count": 0, "ships_count": 0, "projects": [], "coding_time_seconds": 0, "coding_time_seconds_today": 0, "balance": "You need to have a pocket watcher badge to view this.", "badges": [], "created_at": "2025-06-16T20:59:44.161-04:00", "updated_at": "2025-07-03T19:29:01.985-04:00", "avatar": "https://secure.gravatar.com/avatar/86bf27ec348e5d275100be501c29f35e.jpg?s=512&d=https%3A%2F%2Fa.slack-edge.com%2Fdf10d%2Fimg%2Favatars%2Fava_0025-512.png", "custom_css": null}, {"id": 3904, "slack_id": "U09241VAY81", "display_name": "bivek mahato", "bio": null, "projects_count": 0, "devlogs_count": 0, "votes_count": 0, "ships_count": 0, "projects": [], "coding_time_seconds": 0, "coding_time_seconds_today": 0, "balance": "You need to have a pocket watcher badge to view this.", "badges": [], "created_at": "2025-06-16T20:59:47.085-04:00", "updated_at": "2025-07-03T19:29:02.251-04:00", "avatar": "https://secure.gravatar.com/avatar/0e42208aa4f22f7803854ef185ee39f5.jpg?s=512&d=https%3A%2F%2Fa.slack-edge.com%2Fdf10d%2Fimg%2Favatars%2Fava_0024-512.png", "custom_css": null}, {"id": 3905, "slack_id": "U091RFQQ29G", "display_name": "Anuka Mithara Karunanayaka", "bio": null, "projects_count": 0, "devlogs_count": 0, "votes_count": 0, "ships_count": 0, "projects": [], "coding_time_seconds": 0, "coding_time_seconds_today": 0, "balance": "You need to have a pocket watcher badge to view this.", "badges": [], "created_at": "2025-06-16T20:59:52.503-04:00", "updated_at": "2025-07-03T19:29:02.526-04:00", "avatar": "https://avatars.slack-edge.com/2025-06-16/9052625031827_4885ed74973ae39a7036_original.jpg", "custom_css": null}, {"id": 3906, "slack_id": "U08RLPKNBKL", "display_name": "Oliver Form", "bio": null, "projects_count": 1, "devlogs_count": 0, "votes_count": 0, "ships_count": 0, "projects": [{"id": 433, "title": "Longview", "devlogs_count": 0, "created_at": "2025-06-16T21:18:15.077-04:00"}], "coding_time_seconds": 340723, "coding_time_seconds_today": 0, "balance": "You need to have a pocket watcher badge to view this.", "badges": [], "created_at": "2025-06-16T21:00:02.233-04:00", "updated_at": "2025-07-03T19:29:02.794-04:00", "avatar": "https://secure.gravatar.com/avatar/60149705c32f6702942494de351607e0.jpg?s=512&d=https%3A%2F%2Fa.slack-edge.com%2Fdf10d%2Fimg%2Favatars%2Fava_0021-512.png", "custom_css": null}, {"id": 3907, "slack_id": "U091RFUJC10", "display_name": "zeus", "bio": null, "projects_count": 0, "devlogs_count": 0, "votes_count": 0, "ships_count": 0, "projects": [], "coding_time_seconds": 0, "coding_time_seconds_today": 0, "balance": "You need to have a pocket watcher badge to view this.", "badges": [], "created_at": "2025-06-16T21:00:29.324-04:00", "updated_at": "2025-07-03T19:29:03.052-04:00", "avatar": "https://secure.gravatar.com/avatar/f4781e079d6952788f64fe0144fa588c.jpg?s=512&d=https%3A%2F%2Fa.slack-edge.com%2Fdf10d%2Fimg%2Favatars%2Fava_0010-512.png", "custom_css": null}, {"id": 3908, "slack_id": "U091A579TBR", "display_name": "Chessmen", "bio": null, "projects_count": 0, "devlogs_count": 0, "votes_count": 0, "ships_count": 0, "projects": [], "coding_time_seconds": 113877, "coding_time_seconds_today": 0, "balance": "You need to have a pocket watcher badge to view this.", "badges": [], "created_at": "2025-06-16T21:00:31.131-04:00", "updated_at": "2025-07-03T19:29:03.324-04:00", "avatar": "https://secure.gravatar.com/avatar/40d5a9a790c826b7df7669a16b2d1e3a.jpg?s=512&d=https%3A%2F%2Fa.slack-edge.com%2Fdf10d%2Fimg%2Favatars%2Fava_0003-512.png", "custom_css": null}, {"id": 3909, "slack_id": "U091A4ZV2GP", "display_name": "Ibnu Ilham", "bio": null, "projects_count": 0, "devlogs_count": 0, "votes_count": 0, "ships_count": 0, "projects": [], "coding_time_seconds": 0, "coding_time_seconds_today": 0, "balance": "You need to have a pocket watcher badge to view this.", "badges": [], "created_at": "2025-06-16T21:00:36.241-04:00", "updated_at": "2025-07-03T19:29:03.595-04:00", "avatar": "https://avatars.slack-edge.com/2025-06-17/9044209536055_44133f6c54bdc1cb489c_original.gif", "custom_css": null}, {"id": 3910, "slack_id": "U091A5GQN07", "display_name": "Michael Chiu", "bio": null, "projects_count": 0, "devlogs_count": 0, "votes_count": 0, "ships_count": 0, "projects": [], "coding_time_seconds": 0, "coding_time_seconds_today": 0, "balance": "You need to have a pocket watcher badge to view this.", "badges": [], "created_at": "2025-06-16T21:01:02.912-04:00", "updated_at": "2025-07-03T19:29:03.865-04:00", "avatar": "https://secure.gravatar.com/avatar/d1b396e1920bfbcfbb1f0eb7bda81c42.jpg?s=512&d=https%3A%2F%2Fa.slack-edge.com%2Fdf10d%2Fimg%2Favatars%2Fava_0008-512.png", "custom_css": null}, {"id": 3911, "slack_id": "U07B0M7TZTP", "display_name": "Lucas", "bio": null, "projects_count": 1, "devlogs_count": 1, "votes_count": 0, "ships_count": 0, "projects": [{"id": 851, "title": "Obsidian Pets", "devlogs_count": 1, "created_at": "2025-06-17T09:46:52.302-04:00"}], "coding_time_seconds": 115182, "coding_time_seconds_today": 0, "balance": "You need to have a pocket watcher badge to view this.", "badges": [], "created_at": "2025-06-16T21:01:06.265-04:00", "updated_at": "2025-07-03T19:29:04.131-04:00", "avatar": "https://secure.gravatar.com/avatar/b50f2cce31be5e01abcc8b599d54652d.jpg?s=512&d=https%3A%2F%2Fa.slack-edge.com%2Fdf10d%2Fimg%2Favatars%2Fava_0002-512.png", "custom_css": null}, {"id": 3912, "slack_id": "U092DTJ47L0", "display_name": "Adithya", "bio": null, "projects_count": 0, "devlogs_count": 0, "votes_count": 0, "ships_count": 0, "projects": [], "coding_time_seconds": 0, "coding_time_seconds_today": 0, "balance": "You need to have a pocket watcher badge to view this.", "badges": [], "created_at": "2025-06-16T21:01:07.417-04:00", "updated_at": "2025-07-03T19:29:04.397-04:00", "avatar": "https://secure.gravatar.com/avatar/4988c4b8b503f9cc4b73adb927d43449.jpg?s=512&d=https%3A%2F%2Fa.slack-edge.com%2Fdf10d%2Fimg%2Favatars%2Fava_0013-512.png", "custom_css": null}, {"id": 3913, "slack_id": "U091A5CCY5D", "display_name": "Johnny Hoang", "bio": null, "projects_count": 0, "devlogs_count": 0, "votes_count": 0, "ships_count": 0, "projects": [], "coding_time_seconds": 4612, "coding_time_seconds_today": 0, "balance": "You need to have a pocket watcher badge to view this.", "badges": [], "created_at": "2025-06-16T21:01:24.070-04:00", "updated_at": "2025-07-05T14:05:00.730-04:00", "avatar": "https://secure.gravatar.com/avatar/8f365744c6f491c94daf5c79f2091d00.jpg?s=512&d=https%3A%2F%2Fa.slack-edge.com%2Fdf10d%2Fimg%2Favatars%2Fava_0002-512.png", "custom_css": null}, {"id": 3914, "slack_id": "U091RFKD7AN", "display_name": "sawan", "bio": null, "projects_count": 1, "devlogs_count": 1, "votes_count": 0, "ships_count": 0, "projects": [{"id": 457, "title": "jobTracker", "devlogs_count": 1, "created_at": "2025-06-16T22:16:29.892-04:00"}], "coding_time_seconds": 143520, "coding_time_seconds_today": 0, "balance": "You need to have a pocket watcher badge to view this.", "badges": [], "created_at": "2025-06-16T21:01:27.223-04:00", "updated_at": "2025-07-03T19:29:04.812-04:00", "avatar": "https://secure.gravatar.com/avatar/06d5961c97a6d67b0da5e9521332f7da.jpg?s=512&d=https%3A%2F%2Fa.slack-edge.com%2Fdf10d%2Fimg%2Favatars%2Fava_0001-512.png", "custom_css": null}, {"id": 3915, "slack_id": "U091JJGK20K", "display_name": "Krishna", "bio": null, "projects_count": 0, "devlogs_count": 0, "votes_count": 0, "ships_count": 0, "projects": [], "coding_time_seconds": 0, "coding_time_seconds_today": 0, "balance": "You need to have a pocket watcher badge to view this.", "badges": [], "created_at": "2025-06-16T21:01:33.019-04:00", "updated_at": "2025-07-03T19:29:05.081-04:00", "avatar": "https://secure.gravatar.com/avatar/34d3c3d89843ff4ae6a3116aa31b068f.jpg?s=512&d=https%3A%2F%2Fa.slack-edge.com%2Fdf10d%2Fimg%2Favatars%2Fava_0019-512.png", "custom_css": null}, {"id": 3916, "slack_id": "U091A4XNT0F", "display_name": "Sebas", "bio": null, "projects_count": 0, "devlogs_count": 0, "votes_count": 0, "ships_count": 0, "projects": [], "coding_time_seconds": 12372, "coding_time_seconds_today": 0, "balance": "You need to have a pocket watcher badge to view this.", "badges": [], "created_at": "2025-06-16T21:01:36.974-04:00", "updated_at": "2025-07-03T19:29:05.341-04:00", "avatar": "https://secure.gravatar.com/avatar/ec2e1947b8847361d6b84c380757eead.jpg?s=512&d=https%3A%2F%2Fa.slack-edge.com%2Fdf10d%2Fimg%2Favatars%2Fava_0007-512.png", "custom_css": null}, {"id": 3917, "slack_id": "U07EV2KJ3SS", "display_name": "Wolf", "bio": null, "projects_count": 2, "devlogs_count": 31, "votes_count": 80, "ships_count": 2, "projects": [{"id": 4980, "title": "Cha Bike", "devlogs_count": 26, "created_at": "2025-07-02T14:19:55.206-04:00"}, {"id": 9686, "title": "Personal website", "devlogs_count": 3, "created_at": "2025-08-02T02:55:58.195-04:00"}], "coding_time_seconds": 319982, "coding_time_seconds_today": 0, "balance": "You need to have a pocket watcher badge to view this.", "badges": [{"name": "Maiden Voyage", "text": "you shipped your first project! the journey begins...", "icon": "\ud83d\udea2"}], "created_at": "2025-06-16T21:01:37.342-04:00", "updated_at": "2025-09-10T22:53:07.060-04:00", "avatar": "https://avatars.slack-edge.com/2025-06-22/9084381021589_28c896d5698382dcf162_original.png", "custom_css": null}, {"id": 3918, "slack_id": "U07JTJ0BGRY", "display_name": "Austin Delic", "bio": null, "projects_count": 0, "devlogs_count": 0, "votes_count": 0, "ships_count": 0, "projects": [], "coding_time_seconds": 226191, "coding_time_seconds_today": 0, "balance": "You need to have a pocket watcher badge to view this.", "badges": [], "created_at": "2025-06-16T21:02:20.278-04:00", "updated_at": "2025-08-21T05:31:39.207-04:00", "avatar": "https://avatars.slack-edge.com/2025-05-04/8847985268532_ebd4c1b19b4c429c5fca_original.png", "custom_css": null}, {"id": 3919, "slack_id": "U091RRL7HD2", "display_name": "Etash J", "bio": null, "projects_count": 5, "devlogs_count": 27, "votes_count": 45, "ships_count": 4, "projects": [{"id": 1996, "title": "AniMatch", "devlogs_count": 12, "created_at": "2025-06-19T21:06:08.669-04:00"}, {"id": 5845, "title": "PSP Visualizer", "devlogs_count": 2, "created_at": "2025-07-08T12:37:01.748-04:00"}, {"id": 4434, "title": "Magi macro pad", "devlogs_count": 2, "created_at": "2025-06-29T20:28:20.260-04:00"}, {"id": 885, "title": "mangapark-dl", "devlogs_count": 4, "created_at": "2025-06-17T10:28:31.506-04:00"}, {"id": 5367, "title": "banana split", "devlogs_count": 7, "created_at": "2025-07-04T19:45:06.232-04:00"}], "coding_time_seconds": 154069, "coding_time_seconds_today": 0, "balance": "You need to have a pocket watcher badge to view this.", "badges": [{"name": "Maiden Voyage", "text": "you shipped your first project! the journey begins...", "icon": "\ud83d\udea2"}], "created_at": "2025-06-16T21:02:22.226-04:00", "updated_at": "2025-09-10T22:53:07.175-04:00", "avatar": "https://secure.gravatar.com/avatar/bb295af95d6716e2705652a2a8f4deb2.jpg?s=512&d=https%3A%2F%2Fa.slack-edge.com%2Fdf10d%2Fimg%2Favatars%2Fava_0024-512.png", "custom_css": null}, {"id": 3920, "slack_id": "U091JJH0W3V", "display_name": "Nick", "bio": null, "projects_count": 0, "devlogs_count": 0, "votes_count": 0, "ships_count": 0, "projects": [], "coding_time_seconds": 0, "coding_time_seconds_today": 0, "balance": "You need to have a pocket watcher badge to view this.", "badges": [], "created_at": "2025-06-16T21:02:23.311-04:00", "updated_at": "2025-07-03T19:29:06.376-04:00", "avatar": "https://secure.gravatar.com/avatar/2fca778f1005d4b9b31ec6534269f9e6.jpg?s=512&d=https%3A%2F%2Fa.slack-edge.com%2Fdf10d%2Fimg%2Favatars%2Fava_0026-512.png", "custom_css": null}], "pagination": {"page": 196, "pages": 1192, "count": 23828, "items": 20}}