{"users": [{"id": 3921, "slack_id": "U0828RTU7FE", "display_name": "Dheeraj S", "bio": null, "projects_count": 0, "devlogs_count": 0, "votes_count": 0, "ships_count": 0, "projects": [], "coding_time_seconds": 33083, "coding_time_seconds_today": 0, "balance": "You need to have a pocket watcher badge to view this.", "badges": [], "created_at": "2025-06-16T21:02:24.153-04:00", "updated_at": "2025-07-03T19:29:06.708-04:00", "avatar": "https://avatars.slack-edge.com/2024-12-19/8198329870498_8caf75eac26ab5dce993_original.jpg", "custom_css": null}, {"id": 3922, "slack_id": "U09241NLV2M", "display_name": "Louis Liu", "bio": null, "projects_count": 0, "devlogs_count": 0, "votes_count": 0, "ships_count": 0, "projects": [], "coding_time_seconds": 1554, "coding_time_seconds_today": 0, "balance": "You need to have a pocket watcher badge to view this.", "badges": [], "created_at": "2025-06-16T21:02:24.783-04:00", "updated_at": "2025-07-03T19:29:06.972-04:00", "avatar": "https://avatars.slack-edge.com/2025-06-16/9044199595335_81f3350b5613b0f529ef_original.jpg", "custom_css": null}, {"id": 3923, "slack_id": "U091RG8TBK4", "display_name": "Sumit Sah", "bio": null, "projects_count": 0, "devlogs_count": 0, "votes_count": 0, "ships_count": 0, "projects": [], "coding_time_seconds": 65265, "coding_time_seconds_today": 0, "balance": "You need to have a pocket watcher badge to view this.", "badges": [], "created_at": "2025-06-16T21:03:02.111-04:00", "updated_at": "2025-07-03T19:29:07.224-04:00", "avatar": "https://avatars.slack-edge.com/2025-06-16/9059561485554_bbc700a4f46ae723887b_original.png", "custom_css": null}, {"id": 3924, "slack_id": "U091PMMM83F", "display_name": "Nada", "bio": null, "projects_count": 0, "devlogs_count": 0, "votes_count": 0, "ships_count": 0, "projects": [], "coding_time_seconds": 0, "coding_time_seconds_today": 0, "balance": "You need to have a pocket watcher badge to view this.", "badges": [], "created_at": "2025-06-16T21:04:27.428-04:00", "updated_at": "2025-07-08T02:47:51.395-04:00", "avatar": "https://secure.gravatar.com/avatar/3fc7e6a8a6809509ce28745b98f6a61d.jpg?s=512&d=https%3A%2F%2Fa.slack-edge.com%2Fdf10d%2Fimg%2Favatars%2Fava_0002-512.png", "custom_css": null}, {"id": 3925, "slack_id": "U091JN0QG4E", "display_name": "Velvadapu Naga Venkata Ganeswar", "bio": null, "projects_count": 0, "devlogs_count": 0, "votes_count": 0, "ships_count": 0, "projects": [], "coding_time_seconds": 0, "coding_time_seconds_today": 0, "balance": "You need to have a pocket watcher badge to view this.", "badges": [], "created_at": "2025-06-16T21:04:39.691-04:00", "updated_at": "2025-07-03T19:29:07.769-04:00", "avatar": "https://secure.gravatar.com/avatar/c079544218aba6c1455c9a28f971aab0.jpg?s=512&d=https%3A%2F%2Fa.slack-edge.com%2Fdf10d%2Fimg%2Favatars%2Fava_0010-512.png", "custom_css": null}, {"id": 3926, "slack_id": "U091JN2QKV4", "display_name": "Cybertaco360", "bio": null, "projects_count": 0, "devlogs_count": 0, "votes_count": 0, "ships_count": 0, "projects": [], "coding_time_seconds": 68231, "coding_time_seconds_today": 0, "balance": "You need to have a pocket watcher badge to view this.", "badges": [], "created_at": "2025-06-16T21:04:47.487-04:00", "updated_at": "2025-07-03T19:29:08.036-04:00", "avatar": "https://avatars.slack-edge.com/2025-06-16/9060068161764_b509afa82de3f02302e8_original.jpg", "custom_css": null}, {"id": 3927, "slack_id": "U082EGY6PP0", "display_name": "Birb", "bio": null, "projects_count": 1, "devlogs_count": 1, "votes_count": 0, "ships_count": 0, "projects": [{"id": 1340, "title": "Vent System Manager", "devlogs_count": 1, "created_at": "2025-06-18T09:52:50.988-04:00"}], "coding_time_seconds": 22306, "coding_time_seconds_today": 0, "balance": "You need to have a pocket watcher badge to view this.", "badges": [], "created_at": "2025-06-16T21:04:57.730-04:00", "updated_at": "2025-09-12T20:39:15.456-04:00", "avatar": "https://avatars.slack-edge.com/2024-11-26/8086639111093_c2f45deb73bdef9d4120_original.jpg", "custom_css": null}, {"id": 3928, "slack_id": "U091RGFNTC2", "display_name": "Carmen Teng", "bio": null, "projects_count": 3, "devlogs_count": 4, "votes_count": 8, "ships_count": 1, "projects": [{"id": 6641, "title": "skin lesion ai", "devlogs_count": 1, "created_at": "2025-07-14T17:56:21.534-04:00"}, {"id": 6642, "title": "prototype hacker website", "devlogs_count": 1, "created_at": "2025-07-14T18:04:08.794-04:00"}, {"id": 5150, "title": "sheep studying ai", "devlogs_count": 2, "created_at": "2025-07-03T13:41:51.574-04:00"}], "coding_time_seconds": 108487, "coding_time_seconds_today": 0, "balance": "You need to have a pocket watcher badge to view this.", "badges": [{"name": "Maiden Voyage", "text": "you shipped your first project! the journey begins...", "icon": "\ud83d\udea2"}], "created_at": "2025-06-16T21:04:59.361-04:00", "updated_at": "2025-09-10T22:53:07.622-04:00", "avatar": "https://avatars.slack-edge.com/2025-06-16/9057772477941_4fde4315d0f488517c37_original.png", "custom_css": null}, {"id": 3929, "slack_id": "U071XKM2UDC", "display_name": "Sasutski", "bio": null, "projects_count": 2, "devlogs_count": 11, "votes_count": 0, "ships_count": 0, "projects": [{"id": 633, "title": "Git Surgeon", "devlogs_count": 10, "created_at": "2025-06-17T03:39:18.227-04:00"}, {"id": 4895, "title": "personal website", "devlogs_count": 1, "created_at": "2025-07-02T04:16:26.453-04:00"}], "coding_time_seconds": 189883, "coding_time_seconds_today": 0, "balance": "You need to have a pocket watcher badge to view this.", "badges": [], "created_at": "2025-06-16T21:05:11.735-04:00", "updated_at": "2025-07-03T19:29:08.858-04:00", "avatar": "https://avatars.slack-edge.com/2025-02-14/8464471461057_ed8ae0c877d8dfbb3b6a_original.jpg", "custom_css": null}, {"id": 3930, "slack_id": "U09242SR42D", "display_name": "tinhne", "bio": null, "projects_count": 0, "devlogs_count": 0, "votes_count": 0, "ships_count": 0, "projects": [], "coding_time_seconds": 0, "coding_time_seconds_today": 0, "balance": "You need to have a pocket watcher badge to view this.", "badges": [], "created_at": "2025-06-16T21:05:15.661-04:00", "updated_at": "2025-07-03T19:29:09.140-04:00", "avatar": "https://secure.gravatar.com/avatar/8808bcaaabf828792aac057bcfdef5f7.jpg?s=512&d=https%3A%2F%2Fa.slack-edge.com%2Fdf10d%2Fimg%2Favatars%2Fava_0017-512.png", "custom_css": null}, {"id": 3931, "slack_id": "U08TQLG26MR", "display_name": "Athena Arun", "bio": null, "projects_count": 0, "devlogs_count": 0, "votes_count": 0, "ships_count": 0, "projects": [], "coding_time_seconds": 1339, "coding_time_seconds_today": 0, "balance": "You need to have a pocket watcher badge to view this.", "badges": [], "created_at": "2025-06-16T21:05:18.350-04:00", "updated_at": "2025-07-10T12:44:51.299-04:00", "avatar": "https://secure.gravatar.com/avatar/7db3c4519647ca5944f5d41dc2393ec6.jpg?s=512&d=https%3A%2F%2Fa.slack-edge.com%2Fdf10d%2Fimg%2Favatars%2Fava_0003-512.png", "custom_css": null}, {"id": 3932, "slack_id": "U07EB1FUPRP", "display_name": "CoolBean", "bio": null, "projects_count": 0, "devlogs_count": 0, "votes_count": 0, "ships_count": 0, "projects": [], "coding_time_seconds": 0, "coding_time_seconds_today": 0, "balance": "You need to have a pocket watcher badge to view this.", "badges": [], "created_at": "2025-06-16T21:05:19.354-04:00", "updated_at": "2025-07-03T19:29:09.856-04:00", "avatar": "https://avatars.slack-edge.com/2024-07-25/7462962929607_2ead44059bb5c44930a7_original.png", "custom_css": null}, {"id": 3933, "slack_id": "U091JNFKLKY", "display_name": "bambooclips", "bio": null, "projects_count": 0, "devlogs_count": 0, "votes_count": 0, "ships_count": 0, "projects": [], "coding_time_seconds": 0, "coding_time_seconds_today": 0, "balance": "You need to have a pocket watcher badge to view this.", "badges": [], "created_at": "2025-06-16T21:05:45.951-04:00", "updated_at": "2025-07-03T19:29:10.118-04:00", "avatar": "https://secure.gravatar.com/avatar/bcdd8594dd4e284ba0869186e32d7b44.jpg?s=512&d=https%3A%2F%2Fa.slack-edge.com%2Fdf10d%2Fimg%2Favatars%2Fava_0021-512.png", "custom_css": null}, {"id": 3934, "slack_id": "U092DUBFCAC", "display_name": "\uad8c\uc7a5\uc21c", "bio": null, "projects_count": 0, "devlogs_count": 0, "votes_count": 0, "ships_count": 0, "projects": [], "coding_time_seconds": 0, "coding_time_seconds_today": 0, "balance": "You need to have a pocket watcher badge to view this.", "badges": [], "created_at": "2025-06-16T21:05:55.942-04:00", "updated_at": "2025-07-03T19:29:10.391-04:00", "avatar": "https://avatars.slack-edge.com/2025-06-16/9072105428769_f4359f38a44209d8dfac_original.png", "custom_css": null}, {"id": 3935, "slack_id": "U07U6AK7E7Q", "display_name": "Gooey321", "bio": "I exist in the real world", "projects_count": 1, "devlogs_count": 6, "votes_count": 26, "ships_count": 1, "projects": [{"id": 1625, "title": "ASCII Raytracer", "devlogs_count": 6, "created_at": "2025-06-18T21:58:53.993-04:00"}], "coding_time_seconds": 343502, "coding_time_seconds_today": 0, "balance": "You need to have a pocket watcher badge to view this.", "badges": [{"name": "Maiden Voyage", "text": "you shipped your first project! the journey begins...", "icon": "\ud83d\udea2"}], "created_at": "2025-06-16T21:05:55.963-04:00", "updated_at": "2025-09-10T22:53:07.805-04:00", "avatar": "https://avatars.slack-edge.com/2025-01-15/8295090279187_a2394519c2328984a383_original.png", "custom_css": null}, {"id": 3936, "slack_id": "U091A5Z3DJT", "display_name": "Balaji", "bio": null, "projects_count": 0, "devlogs_count": 0, "votes_count": 0, "ships_count": 0, "projects": [], "coding_time_seconds": 0, "coding_time_seconds_today": 0, "balance": "You need to have a pocket watcher badge to view this.", "badges": [], "created_at": "2025-06-16T21:06:11.112-04:00", "updated_at": "2025-07-03T19:29:10.933-04:00", "avatar": "https://secure.gravatar.com/avatar/f140fc23df5f978ed3ccac298e1f2565.jpg?s=512&d=https%3A%2F%2Fa.slack-edge.com%2Fdf10d%2Fimg%2Favatars%2Fava_0025-512.png", "custom_css": null}, {"id": 3937, "slack_id": "U08BTV8T5M1", "display_name": "William Jojarth", "bio": null, "projects_count": 0, "devlogs_count": 0, "votes_count": 0, "ships_count": 0, "projects": [], "coding_time_seconds": 188267, "coding_time_seconds_today": 0, "balance": "You need to have a pocket watcher badge to view this.", "badges": [], "created_at": "2025-06-16T21:07:07.883-04:00", "updated_at": "2025-07-03T19:29:11.202-04:00", "avatar": "https://avatars.slack-edge.com/2025-05-15/8898112970550_7c8b6043370766f0a638_original.png", "custom_css": null}, {"id": 3938, "slack_id": "U09242Q4USV", "display_name": "Alexis", "bio": null, "projects_count": 0, "devlogs_count": 0, "votes_count": 0, "ships_count": 0, "projects": [], "coding_time_seconds": 0, "coding_time_seconds_today": 0, "balance": "You need to have a pocket watcher badge to view this.", "badges": [], "created_at": "2025-06-16T21:07:15.833-04:00", "updated_at": "2025-07-03T19:29:11.471-04:00", "avatar": "https://secure.gravatar.com/avatar/7150687794b976e8716cafe08db8f907.jpg?s=512&d=https%3A%2F%2Fa.slack-edge.com%2Fdf10d%2Fimg%2Favatars%2Fava_0024-512.png", "custom_css": null}, {"id": 3939, "slack_id": "U0579EAJ9ST", "display_name": "William", "bio": null, "projects_count": 0, "devlogs_count": 0, "votes_count": 0, "ships_count": 0, "projects": [], "coding_time_seconds": 69538, "coding_time_seconds_today": 0, "balance": "You need to have a pocket watcher badge to view this.", "badges": [], "created_at": "2025-06-16T21:07:28.504-04:00", "updated_at": "2025-08-08T16:06:37.169-04:00", "avatar": "https://secure.gravatar.com/avatar/6e2a90905b95f9eed82f6b822d28d736.jpg?s=512&d=https%3A%2F%2Fa.slack-edge.com%2Fdf10d%2Fimg%2Favatars%2Fava_0020-512.png", "custom_css": null}, {"id": 3940, "slack_id": "U09242ZSND7", "display_name": "takutosan", "bio": null, "projects_count": 0, "devlogs_count": 0, "votes_count": 0, "ships_count": 0, "projects": [], "coding_time_seconds": 0, "coding_time_seconds_today": 0, "balance": "You need to have a pocket watcher badge to view this.", "badges": [], "created_at": "2025-06-16T21:07:46.902-04:00", "updated_at": "2025-07-03T19:29:12.015-04:00", "avatar": "https://secure.gravatar.com/avatar/725d67ab1ce686c53c2ef7f3efeca011.jpg?s=512&d=https%3A%2F%2Fa.slack-edge.com%2Fdf10d%2Fimg%2Favatars%2Fava_0005-512.png", "custom_css": null}], "pagination": {"page": 197, "pages": 1192, "count": 23828, "items": 20}}