{"users": [{"id": 3941, "slack_id": "U091RECG7T4", "display_name": "meow", "bio": null, "projects_count": 0, "devlogs_count": 0, "votes_count": 0, "ships_count": 0, "projects": [], "coding_time_seconds": 0, "coding_time_seconds_today": 0, "balance": "You need to have a pocket watcher badge to view this.", "badges": [], "created_at": "2025-06-16T21:08:25.208-04:00", "updated_at": "2025-07-03T19:29:12.279-04:00", "avatar": "https://secure.gravatar.com/avatar/24a284950e0b2e8e759aac106c3b106c.jpg?s=512&d=https%3A%2F%2Fa.slack-edge.com%2Fdf10d%2Fimg%2Favatars%2Fava_0015-512.png", "custom_css": null}, {"id": 3942, "slack_id": "U091A60AQ31", "display_name": "Velu Murugan", "bio": null, "projects_count": 0, "devlogs_count": 0, "votes_count": 0, "ships_count": 0, "projects": [], "coding_time_seconds": 0, "coding_time_seconds_today": 0, "balance": "You need to have a pocket watcher badge to view this.", "badges": [], "created_at": "2025-06-16T21:08:33.929-04:00", "updated_at": "2025-07-03T19:29:12.546-04:00", "avatar": "https://secure.gravatar.com/avatar/4a26efaeffad9275d5e6b6def7a523de.jpg?s=512&d=https%3A%2F%2Fa.slack-edge.com%2Fdf10d%2Fimg%2Favatars%2Fava_0008-512.png", "custom_css": null}, {"id": 3943, "slack_id": "U091P0ANLF7", "display_name": "Kayla", "bio": null, "projects_count": 2, "devlogs_count": 8, "votes_count": 1, "ships_count": 0, "projects": [{"id": 590, "title": "Editor for game", "devlogs_count": 7, "created_at": "2025-06-17T02:13:29.542-04:00"}, {"id": 662, "title": "Game", "devlogs_count": 1, "created_at": "2025-06-17T04:28:46.227-04:00"}], "coding_time_seconds": 80047, "coding_time_seconds_today": 0, "balance": "You need to have a pocket watcher badge to view this.", "badges": [], "created_at": "2025-06-16T21:08:48.973-04:00", "updated_at": "2025-07-03T19:29:12.828-04:00", "avatar": "https://secure.gravatar.com/avatar/83a338142e3d4569927191c9f22a0483.jpg?s=512&d=https%3A%2F%2Fa.slack-edge.com%2Fdf10d%2Fimg%2Favatars%2Fava_0016-512.png", "custom_css": null}, {"id": 3944, "slack_id": "U04HR4S564A", "display_name": "yzde", "bio": null, "projects_count": 0, "devlogs_count": 0, "votes_count": 0, "ships_count": 0, "projects": [], "coding_time_seconds": 147990, "coding_time_seconds_today": 0, "balance": "You need to have a pocket watcher badge to view this.", "badges": [], "created_at": "2025-06-16T21:08:49.150-04:00", "updated_at": "2025-07-03T19:29:13.095-04:00", "avatar": "https://avatars.slack-edge.com/2025-05-26/8973178665088_fecab71993868f422880_original.png", "custom_css": null}, {"id": 3945, "slack_id": "U092DUPJ456", "display_name": "Atai", "bio": null, "projects_count": 0, "devlogs_count": 0, "votes_count": 0, "ships_count": 0, "projects": [], "coding_time_seconds": 0, "coding_time_seconds_today": 0, "balance": "You need to have a pocket watcher badge to view this.", "badges": [], "created_at": "2025-06-16T21:09:28.369-04:00", "updated_at": "2025-07-03T19:29:13.351-04:00", "avatar": "https://secure.gravatar.com/avatar/0739769ff5f80b736198e0cab2743166.jpg?s=512&d=https%3A%2F%2Fa.slack-edge.com%2Fdf10d%2Fimg%2Favatars%2Fava_0009-512.png", "custom_css": null}, {"id": 3946, "slack_id": "U091A6BDA5V", "display_name": "Brian He", "bio": null, "projects_count": 0, "devlogs_count": 0, "votes_count": 0, "ships_count": 0, "projects": [], "coding_time_seconds": 0, "coding_time_seconds_today": 0, "balance": "You need to have a pocket watcher badge to view this.", "badges": [], "created_at": "2025-06-16T21:09:41.557-04:00", "updated_at": "2025-07-04T02:22:44.871-04:00", "avatar": "https://avatars.slack-edge.com/2025-06-16/9044222605287_769b1c4ae52585908902_original.png", "custom_css": null}, {"id": 3947, "slack_id": "U091JNQ3ZN2", "display_name": "David", "bio": null, "projects_count": 0, "devlogs_count": 0, "votes_count": 0, "ships_count": 0, "projects": [], "coding_time_seconds": 18692, "coding_time_seconds_today": 0, "balance": "You need to have a pocket watcher badge to view this.", "badges": [], "created_at": "2025-06-16T21:09:55.575-04:00", "updated_at": "2025-07-03T19:29:13.769-04:00", "avatar": "https://avatars.slack-edge.com/2025-06-16/9082090536016_11958336ce7a21cfec0f_original.jpg", "custom_css": null}, {"id": 3948, "slack_id": "U092438G75X", "display_name": "Andrew", "bio": null, "projects_count": 0, "devlogs_count": 0, "votes_count": 0, "ships_count": 0, "projects": [], "coding_time_seconds": 0, "coding_time_seconds_today": 0, "balance": "You need to have a pocket watcher badge to view this.", "badges": [], "created_at": "2025-06-16T21:10:22.002-04:00", "updated_at": "2025-07-03T19:29:14.029-04:00", "avatar": "https://secure.gravatar.com/avatar/d633b58243782b153164660dce289c81.jpg?s=512&d=https%3A%2F%2Fa.slack-edge.com%2Fdf10d%2Fimg%2Favatars%2Fava_0023-512.png", "custom_css": null}, {"id": 3949, "slack_id": "U073DDRDTL5", "display_name": "Sharon Basovich", "bio": null, "projects_count": 0, "devlogs_count": 0, "votes_count": 0, "ships_count": 0, "projects": [], "coding_time_seconds": 239300, "coding_time_seconds_today": 0, "balance": "You need to have a pocket watcher badge to view this.", "badges": [], "created_at": "2025-06-16T21:10:25.639-04:00", "updated_at": "2025-07-03T19:29:14.290-04:00", "avatar": "https://avatars.slack-edge.com/2024-05-14/7103820105447_ffdccb210ad0ddf83612_original.png", "custom_css": null}, {"id": 3950, "slack_id": "U091MP9T5J9", "display_name": "Atharv Remeshan", "bio": null, "projects_count": 1, "devlogs_count": 0, "votes_count": 0, "ships_count": 0, "projects": [{"id": 439, "title": "Design Directory", "devlogs_count": 0, "created_at": "2025-06-16T21:24:13.126-04:00"}], "coding_time_seconds": 179326, "coding_time_seconds_today": 0, "balance": "You need to have a pocket watcher badge to view this.", "badges": [], "created_at": "2025-06-16T21:10:28.285-04:00", "updated_at": "2025-07-03T21:41:14.818-04:00", "avatar": "https://secure.gravatar.com/avatar/778ac8fd0120ba3c9f62791a4f0002b4.jpg?s=512&d=https%3A%2F%2Fa.slack-edge.com%2Fdf10d%2Fimg%2Favatars%2Fava_0005-512.png", "custom_css": null}, {"id": 3951, "slack_id": "U090VN1NFQ9", "display_name": "Tensai", "bio": null, "projects_count": 2, "devlogs_count": 2, "votes_count": 1, "ships_count": 0, "projects": [{"id": 2913, "title": "Tensai Music Player", "devlogs_count": 2, "created_at": "2025-06-22T12:41:53.642-04:00"}, {"id": 11317, "title": "Wallie", "devlogs_count": 0, "created_at": "2025-08-14T21:42:18.018-04:00"}], "coding_time_seconds": 69325, "coding_time_seconds_today": 0, "balance": "You need to have a pocket watcher badge to view this.", "badges": [], "created_at": "2025-06-16T21:10:33.699-04:00", "updated_at": "2025-08-07T02:39:38.673-04:00", "avatar": "https://avatars.slack-edge.com/2025-06-08/9018629201378_7274816f3b3b93da8a4a_original.png", "custom_css": null}, {"id": 3952, "slack_id": "U05J8AF58S1", "display_name": "Carbon", "bio": null, "projects_count": 0, "devlogs_count": 0, "votes_count": 0, "ships_count": 0, "projects": [], "coding_time_seconds": 60329, "coding_time_seconds_today": 0, "balance": "You need to have a pocket watcher badge to view this.", "badges": [], "created_at": "2025-06-16T21:10:38.590-04:00", "updated_at": "2025-07-03T19:29:15.041-04:00", "avatar": "https://avatars.slack-edge.com/2025-06-01/9005111077248_b3fcfb5e5c624aa49927_original.png", "custom_css": null}, {"id": 3953, "slack_id": "U081WSFNVQW", "display_name": "Alexandru Moga", "bio": null, "projects_count": 0, "devlogs_count": 1, "votes_count": 4, "ships_count": 0, "projects": [], "coding_time_seconds": 359891, "coding_time_seconds_today": 0, "balance": "You need to have a pocket watcher badge to view this.", "badges": [{"name": "Maiden Voyage", "text": "you shipped your first project! the journey begins...", "icon": "\ud83d\udea2"}], "created_at": "2025-06-16T21:11:06.083-04:00", "updated_at": "2025-09-10T22:53:08.304-04:00", "avatar": "https://avatars.slack-edge.com/2025-05-10/8889561043441_c01c873e26ffa3c79c5e_original.jpg", "custom_css": null}, {"id": 3954, "slack_id": "U07A8D2EABB", "display_name": "Benjamin", "bio": null, "projects_count": 1, "devlogs_count": 1, "votes_count": 0, "ships_count": 0, "projects": [{"id": 3544, "title": "FTC Tournament Scouting App", "devlogs_count": 1, "created_at": "2025-06-24T16:07:14.421-04:00"}], "coding_time_seconds": 81959, "coding_time_seconds_today": 0, "balance": "You need to have a pocket watcher badge to view this.", "badges": [], "created_at": "2025-06-16T21:12:00.632-04:00", "updated_at": "2025-08-20T17:31:18.108-04:00", "avatar": "https://secure.gravatar.com/avatar/2ffb6caa752f026b5af76112ba2b88e9.jpg?s=512&d=https%3A%2F%2Fa.slack-edge.com%2Fdf10d%2Fimg%2Favatars%2Fava_0007-512.png", "custom_css": null}, {"id": 3955, "slack_id": "U091PP4BF4M", "display_name": "Qu\u00e2n L\u00ea Tr\u1ecdng", "bio": null, "projects_count": 0, "devlogs_count": 0, "votes_count": 0, "ships_count": 0, "projects": [], "coding_time_seconds": 0, "coding_time_seconds_today": 0, "balance": "You need to have a pocket watcher badge to view this.", "badges": [], "created_at": "2025-06-16T21:12:39.396-04:00", "updated_at": "2025-07-03T19:29:15.841-04:00", "avatar": "https://avatars.slack-edge.com/2025-06-16/9057796362325_aa7e9c78966750928427_original.jpg", "custom_css": null}, {"id": 3956, "slack_id": "U091RSKT7GU", "display_name": "Burhanuddin Tinwala", "bio": null, "projects_count": 0, "devlogs_count": 0, "votes_count": 0, "ships_count": 0, "projects": [], "coding_time_seconds": 0, "coding_time_seconds_today": 0, "balance": "You need to have a pocket watcher badge to view this.", "badges": [], "created_at": "2025-06-16T21:13:32.798-04:00", "updated_at": "2025-07-03T19:29:16.115-04:00", "avatar": "https://secure.gravatar.com/avatar/f03fdead6a1754bd1386582afb67bff7.jpg?s=512&d=https%3A%2F%2Fa.slack-edge.com%2Fdf10d%2Fimg%2Favatars%2Fava_0012-512.png", "custom_css": null}, {"id": 3957, "slack_id": "U092DUZJYJC", "display_name": "Tarun", "bio": null, "projects_count": 1, "devlogs_count": 0, "votes_count": 0, "ships_count": 0, "projects": [{"id": 4926, "title": "Profile Website", "devlogs_count": 0, "created_at": "2025-07-02T08:28:24.080-04:00"}], "coding_time_seconds": 37464, "coding_time_seconds_today": 0, "balance": "You need to have a pocket watcher badge to view this.", "badges": [], "created_at": "2025-06-16T21:13:38.895-04:00", "updated_at": "2025-07-03T19:29:16.378-04:00", "avatar": "https://avatars.slack-edge.com/2025-06-16/9052674957987_53058078f2fe66fa6a2d_original.jpg", "custom_css": null}, {"id": 3958, "slack_id": "U065DE82BEH", "display_name": "Quint", "bio": null, "projects_count": 0, "devlogs_count": 0, "votes_count": 0, "ships_count": 0, "projects": [], "coding_time_seconds": 171797, "coding_time_seconds_today": 0, "balance": "You need to have a pocket watcher badge to view this.", "badges": [], "created_at": "2025-06-16T21:13:42.829-04:00", "updated_at": "2025-07-03T19:29:16.638-04:00", "avatar": "https://avatars.slack-edge.com/2024-10-25/7929068729686_3666d3c26343e23c67de_original.jpg", "custom_css": null}, {"id": 3959, "slack_id": "U09243J37ED", "display_name": "Sudhanshu Tiwari", "bio": null, "projects_count": 1, "devlogs_count": 0, "votes_count": 0, "ships_count": 0, "projects": [{"id": 7135, "title": "IdeaKode", "devlogs_count": 0, "created_at": "2025-07-19T11:01:35.657-04:00"}], "coding_time_seconds": 145385, "coding_time_seconds_today": 0, "balance": "You need to have a pocket watcher badge to view this.", "badges": [], "created_at": "2025-06-16T21:14:31.565-04:00", "updated_at": "2025-07-19T06:14:44.970-04:00", "avatar": "https://secure.gravatar.com/avatar/a58198817c94c37e1ba77ee7d4ee1a4a.jpg?s=512&d=https%3A%2F%2Fa.slack-edge.com%2Fdf10d%2Fimg%2Favatars%2Fava_0004-512.png", "custom_css": null}, {"id": 3960, "slack_id": "U082X0AMJS0", "display_name": "PurpleRain", "bio": null, "projects_count": 0, "devlogs_count": 0, "votes_count": 0, "ships_count": 0, "projects": [], "coding_time_seconds": 1711, "coding_time_seconds_today": 0, "balance": "You need to have a pocket watcher badge to view this.", "badges": [], "created_at": "2025-06-16T21:14:50.633-04:00", "updated_at": "2025-07-03T19:29:17.185-04:00", "avatar": "https://avatars.slack-edge.com/2025-05-08/8879448610801_bd5a4a901a6813deca6d_original.png", "custom_css": null}], "pagination": {"page": 198, "pages": 1192, "count": 23828, "items": 20}}