{"users": [{"id": 3961, "slack_id": "U087C7GKELU", "display_name": "Aryak", "bio": null, "projects_count": 0, "devlogs_count": 0, "votes_count": 0, "ships_count": 0, "projects": [], "coding_time_seconds": 0, "coding_time_seconds_today": 0, "balance": "You need to have a pocket watcher badge to view this.", "badges": [], "created_at": "2025-06-16T21:14:51.912-04:00", "updated_at": "2025-07-03T19:29:17.446-04:00", "avatar": "https://avatars.slack-edge.com/2025-06-17/9082017494880_1c0cc31ff8984fa3c87a_original.jpg", "custom_css": null}, {"id": 3962, "slack_id": "U0922MU3XTK", "display_name": "Ryan Yin", "bio": null, "projects_count": 2, "devlogs_count": 3, "votes_count": 7, "ships_count": 1, "projects": [{"id": 440, "title": "Reddit Sync", "devlogs_count": 0, "created_at": "2025-06-16T21:24:56.213-04:00"}, {"id": 4571, "title": "RISC emulator", "devlogs_count": 3, "created_at": "2025-06-30T17:22:08.295-04:00"}], "coding_time_seconds": 125293, "coding_time_seconds_today": 0, "balance": "You need to have a pocket watcher badge to view this.", "badges": [{"name": "Maiden Voyage", "text": "you shipped your first project! the journey begins...", "icon": "\ud83d\udea2"}], "created_at": "2025-06-16T21:14:55.151-04:00", "updated_at": "2025-09-10T22:53:08.567-04:00", "avatar": "https://secure.gravatar.com/avatar/9aa1e84fce8ea52747ab501a70087c88.jpg?s=512&d=https%3A%2F%2Fa.slack-edge.com%2Fdf10d%2Fimg%2Favatars%2Fava_0017-512.png", "custom_css": null}, {"id": 3963, "slack_id": "U09243G35UH", "display_name": "Nischal Koirala", "bio": null, "projects_count": 0, "devlogs_count": 0, "votes_count": 0, "ships_count": 0, "projects": [], "coding_time_seconds": 0, "coding_time_seconds_today": 0, "balance": "You need to have a pocket watcher badge to view this.", "badges": [], "created_at": "2025-06-16T21:15:11.845-04:00", "updated_at": "2025-08-04T14:18:43.668-04:00", "avatar": "https://avatars.slack-edge.com/2025-08-04/9302939978228_40fbd3dc37e6fa227ca4_original.jpg", "custom_css": null}, {"id": 3964, "slack_id": "U086SG06Y1M", "display_name": "Samkarsana Gaura Das", "bio": null, "projects_count": 2, "devlogs_count": 0, "votes_count": 3, "ships_count": 0, "projects": [{"id": 5098, "title": "Custom Mac-style Dashboard ", "devlogs_count": 0, "created_at": "2025-07-03T08:20:58.645-04:00"}, {"id": 5094, "title": "Periodic Table", "devlogs_count": 0, "created_at": "2025-07-03T08:05:56.806-04:00"}], "coding_time_seconds": 2229, "coding_time_seconds_today": 0, "balance": "You need to have a pocket watcher badge to view this.", "badges": [], "created_at": "2025-06-16T21:15:45.511-04:00", "updated_at": "2025-08-12T08:33:13.948-04:00", "avatar": "https://secure.gravatar.com/avatar/432dab530aa6acd9162a6891251804e6.jpg?s=512&d=https%3A%2F%2Fa.slack-edge.com%2Fdf10d%2Fimg%2Favatars%2Fava_0021-512.png", "custom_css": null}, {"id": 3965, "slack_id": "U081MDA4T24", "display_name": "AfterNoon PM", "bio": null, "projects_count": 1, "devlogs_count": 4, "votes_count": 0, "ships_count": 1, "projects": [{"id": 6827, "title": "Undercity Lanyard Generator (with GUI!)", "devlogs_count": 4, "created_at": "2025-07-16T16:12:05.812-04:00"}], "coding_time_seconds": 193869, "coding_time_seconds_today": 0, "balance": "You need to have a pocket watcher badge to view this.", "badges": [{"name": "Maiden Voyage", "text": "you shipped your first project! the journey begins...", "icon": "\ud83d\udea2"}], "created_at": "2025-06-16T21:15:46.883-04:00", "updated_at": "2025-09-10T22:53:08.647-04:00", "avatar": "https://avatars.slack-edge.com/2024-11-14/8029858412229_ef7e8a63a4e7ecac55de_original.png", "custom_css": null}, {"id": 3966, "slack_id": "U04RL3ELW92", "display_name": "Saanvi Tatipalli", "bio": null, "projects_count": 0, "devlogs_count": 0, "votes_count": 0, "ships_count": 0, "projects": [], "coding_time_seconds": 2002, "coding_time_seconds_today": 0, "balance": "You need to have a pocket watcher badge to view this.", "badges": [], "created_at": "2025-06-16T21:15:51.902-04:00", "updated_at": "2025-07-03T19:29:18.677-04:00", "avatar": "https://secure.gravatar.com/avatar/d7aa28f8d2656025df8079b1adb06574.jpg?s=512&d=https%3A%2F%2Fa.slack-edge.com%2Fdf10d%2Fimg%2Favatars%2Fava_0019-512.png", "custom_css": null}, {"id": 3967, "slack_id": "U08PEC9AWA3", "display_name": "sait-seelam", "bio": null, "projects_count": 3, "devlogs_count": 4, "votes_count": 21, "ships_count": 1, "projects": [{"id": 6076, "title": "VolunteerHub", "devlogs_count": 3, "created_at": "2025-07-10T11:58:44.960-04:00"}, {"id": 7888, "title": "SupaCalc", "devlogs_count": 0, "created_at": "2025-07-23T12:39:04.131-04:00"}, {"id": 6826, "title": "Personal Website", "devlogs_count": 1, "created_at": "2025-07-16T16:10:41.234-04:00"}], "coding_time_seconds": 169599, "coding_time_seconds_today": 0, "balance": "You need to have a pocket watcher badge to view this.", "badges": [{"name": "Maiden Voyage", "text": "you shipped your first project! the journey begins...", "icon": "\ud83d\udea2"}], "created_at": "2025-06-16T21:16:09.908-04:00", "updated_at": "2025-09-10T22:53:08.701-04:00", "avatar": "https://avatars.slack-edge.com/2025-07-17/9215260643317_91a510b0e59159ed5a50_original.png", "custom_css": null}, {"id": 3968, "slack_id": "U091JA2HQ4T", "display_name": "Julia Sales", "bio": null, "projects_count": 3, "devlogs_count": 0, "votes_count": 0, "ships_count": 0, "projects": [{"id": 592, "title": "Sombras do Sert\u00e3o", "devlogs_count": 0, "created_at": "2025-06-17T02:16:31.578-04:00"}, {"id": 599, "title": "Portfolio", "devlogs_count": 0, "created_at": "2025-06-17T02:24:39.521-04:00"}, {"id": 597, "title": "Voteer", "devlogs_count": 0, "created_at": "2025-06-17T02:21:25.607-04:00"}], "coding_time_seconds": 47760, "coding_time_seconds_today": 0, "balance": "You need to have a pocket watcher badge to view this.", "badges": [], "created_at": "2025-06-16T21:16:12.307-04:00", "updated_at": "2025-07-03T19:29:19.218-04:00", "avatar": "https://secure.gravatar.com/avatar/a575c1ad330c9504a712fd8e1a1b21e2.jpg?s=512&d=https%3A%2F%2Fa.slack-edge.com%2Fdf10d%2Fimg%2Favatars%2Fava_0009-512.png", "custom_css": null}, {"id": 3969, "slack_id": "U091JP775EJ", "display_name": "Manny", "bio": null, "projects_count": 0, "devlogs_count": 0, "votes_count": 0, "ships_count": 0, "projects": [], "coding_time_seconds": 0, "coding_time_seconds_today": 0, "balance": "You need to have a pocket watcher badge to view this.", "badges": [], "created_at": "2025-06-16T21:16:33.578-04:00", "updated_at": "2025-07-03T19:29:19.484-04:00", "avatar": "https://secure.gravatar.com/avatar/fd9ecb4d35cd9d36fcd8294723360e1a.jpg?s=512&d=https%3A%2F%2Fa.slack-edge.com%2Fdf10d%2Fimg%2Favatars%2Fava_0008-512.png", "custom_css": null}, {"id": 3970, "slack_id": "U09243STY2V", "display_name": "Youqi Yang", "bio": null, "projects_count": 1, "devlogs_count": 2, "votes_count": 0, "ships_count": 0, "projects": [{"id": 3793, "title": "More Clodsire!", "devlogs_count": 2, "created_at": "2025-06-25T19:22:56.336-04:00"}], "coding_time_seconds": 8155, "coding_time_seconds_today": 0, "balance": "You need to have a pocket watcher badge to view this.", "badges": [], "created_at": "2025-06-16T21:16:36.792-04:00", "updated_at": "2025-07-03T19:29:19.745-04:00", "avatar": "https://avatars.slack-edge.com/2025-06-16/9057808457653_f0590d00eaa7b0b5be55_original.png", "custom_css": null}, {"id": 3971, "slack_id": "U08RB6HC3AM", "display_name": "Malini Ayyappan", "bio": null, "projects_count": 0, "devlogs_count": 0, "votes_count": 0, "ships_count": 0, "projects": [], "coding_time_seconds": 352767, "coding_time_seconds_today": 0, "balance": "You need to have a pocket watcher badge to view this.", "badges": [], "created_at": "2025-06-16T21:16:39.893-04:00", "updated_at": "2025-07-03T19:29:20.012-04:00", "avatar": "https://secure.gravatar.com/avatar/9ba68ae76bb55cf658e616f5a4aa6e56.jpg?s=512&d=https%3A%2F%2Fa.slack-edge.com%2Fdf10d%2Fimg%2Favatars%2Fava_0016-512.png", "custom_css": null}, {"id": 3972, "slack_id": "U092DV9ESBA", "display_name": "Yee Jang Jue", "bio": null, "projects_count": 0, "devlogs_count": 0, "votes_count": 0, "ships_count": 0, "projects": [], "coding_time_seconds": 0, "coding_time_seconds_today": 0, "balance": "You need to have a pocket watcher badge to view this.", "badges": [], "created_at": "2025-06-16T21:17:15.860-04:00", "updated_at": "2025-07-03T19:29:20.285-04:00", "avatar": "https://secure.gravatar.com/avatar/3e997420407989af1acba9dd6fcfdbc2.jpg?s=512&d=https%3A%2F%2Fa.slack-edge.com%2Fdf10d%2Fimg%2Favatars%2Fava_0022-512.png", "custom_css": null}, {"id": 3973, "slack_id": "U09243T77BK", "display_name": "DevKhangT", "bio": null, "projects_count": 1, "devlogs_count": 3, "votes_count": 4, "ships_count": 0, "projects": [{"id": 688, "title": "MarkIPerceptron", "devlogs_count": 3, "created_at": "2025-06-17T05:26:57.906-04:00"}], "coding_time_seconds": 218897, "coding_time_seconds_today": 0, "balance": "You need to have a pocket watcher badge to view this.", "badges": [], "created_at": "2025-06-16T21:17:22.683-04:00", "updated_at": "2025-08-24T20:34:53.844-04:00", "avatar": "https://secure.gravatar.com/avatar/ed7dd27945f88bbd6704478d0f2e3658.jpg?s=512&d=https%3A%2F%2Fa.slack-edge.com%2Fdf10d%2Fimg%2Favatars%2Fava_0017-512.png", "custom_css": null}, {"id": 3974, "slack_id": "U05H5T87PV3", "display_name": "AstralGrandpa2.0", "bio": null, "projects_count": 0, "devlogs_count": 0, "votes_count": 0, "ships_count": 0, "projects": [], "coding_time_seconds": 1406, "coding_time_seconds_today": 0, "balance": "You need to have a pocket watcher badge to view this.", "badges": [], "created_at": "2025-06-16T21:18:51.448-04:00", "updated_at": "2025-07-03T19:29:20.827-04:00", "avatar": "https://avatars.slack-edge.com/2025-05-31/8978606367941_1298397a6f78a40b848e_original.png", "custom_css": null}, {"id": 3975, "slack_id": "U07A0K1PZAP", "display_name": "Kaitlyn Z", "bio": null, "projects_count": 2, "devlogs_count": 3, "votes_count": 14, "ships_count": 1, "projects": [{"id": 13717, "title": "Elderly Companion", "devlogs_count": 1, "created_at": "2025-09-23T15:42:00.205-04:00"}, {"id": 7638, "title": "Rabeat", "devlogs_count": 2, "created_at": "2025-07-22T11:24:53.875-04:00"}], "coding_time_seconds": 177593, "coding_time_seconds_today": 0, "balance": "You need to have a pocket watcher badge to view this.", "badges": [{"name": "Maiden Voyage", "text": "you shipped your first project! the journey begins...", "icon": "\ud83d\udea2"}], "created_at": "2025-06-16T21:19:01.472-04:00", "updated_at": "2025-09-10T22:53:08.919-04:00", "avatar": "https://avatars.slack-edge.com/2024-07-03/7379793070177_338381b647e286e9ceb0_original.jpg", "custom_css": null}, {"id": 3976, "slack_id": "U091PPQMDEZ", "display_name": "To\u00e0n", "bio": null, "projects_count": 0, "devlogs_count": 0, "votes_count": 0, "ships_count": 0, "projects": [], "coding_time_seconds": 0, "coding_time_seconds_today": 0, "balance": "You need to have a pocket watcher badge to view this.", "badges": [], "created_at": "2025-06-16T21:19:09.482-04:00", "updated_at": "2025-07-03T19:29:21.349-04:00", "avatar": "https://avatars.slack-edge.com/2025-06-16/9072146144721_08c8436cf7d6cc2de6bd_original.jpg", "custom_css": null}, {"id": 3977, "slack_id": "U091PPP3TFF", "display_name": "zishuai", "bio": null, "projects_count": 0, "devlogs_count": 0, "votes_count": 0, "ships_count": 0, "projects": [], "coding_time_seconds": 0, "coding_time_seconds_today": 0, "balance": "You need to have a pocket watcher badge to view this.", "badges": [], "created_at": "2025-06-16T21:19:10.774-04:00", "updated_at": "2025-07-03T19:29:21.630-04:00", "avatar": "https://secure.gravatar.com/avatar/94569cb1a5aefd4e0d12f5d485cfdf53.jpg?s=512&d=https%3A%2F%2Fa.slack-edge.com%2Fdf10d%2Fimg%2Favatars%2Fava_0006-512.png", "custom_css": null}, {"id": 3978, "slack_id": "U091RHPQ7K4", "display_name": "VG", "bio": null, "projects_count": 0, "devlogs_count": 0, "votes_count": 0, "ships_count": 0, "projects": [], "coding_time_seconds": 2030, "coding_time_seconds_today": 0, "balance": "You need to have a pocket watcher badge to view this.", "badges": [], "created_at": "2025-06-16T21:19:20.453-04:00", "updated_at": "2025-07-03T19:29:21.896-04:00", "avatar": "https://secure.gravatar.com/avatar/8c946060a31afdd89ea04daa50f44014.jpg?s=512&d=https%3A%2F%2Fa.slack-edge.com%2Fdf10d%2Fimg%2Favatars%2Fava_0015-512.png", "custom_css": null}, {"id": 3979, "slack_id": "U091JPP459U", "display_name": "kaushalxlucifer", "bio": null, "projects_count": 0, "devlogs_count": 0, "votes_count": 0, "ships_count": 0, "projects": [], "coding_time_seconds": 0, "coding_time_seconds_today": 0, "balance": "You need to have a pocket watcher badge to view this.", "badges": [], "created_at": "2025-06-16T21:20:17.066-04:00", "updated_at": "2025-07-03T19:29:22.160-04:00", "avatar": "https://secure.gravatar.com/avatar/ce5eeee70be52a18a32949d5223d08ad.jpg?s=512&d=https%3A%2F%2Fa.slack-edge.com%2Fdf10d%2Fimg%2Favatars%2Fava_0016-512.png", "custom_css": null}, {"id": 3980, "slack_id": "U07C1716ZPS", "display_name": "Artenical hedwig", "bio": null, "projects_count": 0, "devlogs_count": 0, "votes_count": 0, "ships_count": 0, "projects": [], "coding_time_seconds": 0, "coding_time_seconds_today": 0, "balance": "You need to have a pocket watcher badge to view this.", "badges": [], "created_at": "2025-06-16T21:20:33.277-04:00", "updated_at": "2025-07-03T19:29:22.430-04:00", "avatar": "https://avatars.slack-edge.com/2024-07-07/7409239943072_c79aef50823cb9795d9e_original.png", "custom_css": null}], "pagination": {"page": 199, "pages": 1192, "count": 23828, "items": 20}}