{"users": [{"id": 21, "slack_id": "U07UV4R2G4T", "display_name": "Charmunk", "bio": null, "projects_count": 0, "devlogs_count": 0, "votes_count": 0, "ships_count": 0, "projects": [], "coding_time_seconds": 45164, "coding_time_seconds_today": 0, "balance": "You need to have a pocket watcher badge to view this.", "badges": [], "created_at": "2025-06-15T19:52:09.790-04:00", "updated_at": "2025-09-24T00:00:07.289-04:00", "avatar": "https://avatars.slack-edge.com/2025-09-23/9565788111379_c176f971f2f5d3859ae1_original.png", "custom_css": null}, {"id": 22, "slack_id": "U07960MD940", "display_name": "Niko", "bio": null, "projects_count": 1, "devlogs_count": 9, "votes_count": 8, "ships_count": 1, "projects": [{"id": 7982, "title": "AltStore for Shipwrecked", "devlogs_count": 1, "created_at": "2025-07-23T23:02:18.932-04:00"}], "coding_time_seconds": 126066, "coding_time_seconds_today": 0, "balance": "You need to have a pocket watcher badge to view this.", "badges": [{"name": "Maiden Voyage", "text": "you shipped your first project! the journey begins...", "icon": "\ud83d\udea2"}], "created_at": "2025-06-15T19:53:28.478-04:00", "updated_at": "2025-09-24T06:00:04.216-04:00", "avatar": "https://avatars.slack-edge.com/2025-09-24/9585326353265_2eff14f746d537f74bd8_original.jpg", "custom_css": null}, {"id": 23, "slack_id": "U089924LMK8", "display_name": "astra.celestine", "bio": null, "projects_count": 0, "devlogs_count": 0, "votes_count": 0, "ships_count": 0, "projects": [], "coding_time_seconds": 384025, "coding_time_seconds_today": 0, "balance": "You need to have a pocket watcher badge to view this.", "badges": [], "created_at": "2025-06-15T19:53:28.830-04:00", "updated_at": "2025-09-18T18:00:09.588-04:00", "avatar": "https://avatars.slack-edge.com/2025-09-19/9570625147664_a31a45e00e3292c1f34d_original.png", "custom_css": null}, {"id": 24, "slack_id": "U07V3PTARK6", "display_name": "s0urce-c0de", "bio": null, "projects_count": 2, "devlogs_count": 16, "votes_count": 7, "ships_count": 1, "projects": [{"id": 3201, "title": "URL Shortener", "devlogs_count": 14, "created_at": "2025-06-23T12:31:26.030-04:00"}, {"id": 3947, "title": "ReloProxy", "devlogs_count": 2, "created_at": "2025-06-26T12:25:00.864-04:00"}], "coding_time_seconds": 68255, "coding_time_seconds_today": 0, "balance": "You need to have a pocket watcher badge to view this.", "badges": [{"name": "Maiden Voyage", "text": "you shipped your first project! the journey begins...", "icon": "\ud83d\udea2"}], "created_at": "2025-06-15T19:53:41.719-04:00", "updated_at": "2025-09-10T22:51:05.790-04:00", "avatar": "https://secure.gravatar.com/avatar/e6e0d89f85419f03c7265e885cb6f070.jpg?s=512&d=https%3A%2F%2Fa.slack-edge.com%2Fdf10d%2Fimg%2Favatars%2Fava_0018-512.png", "custom_css": null}, {"id": 25, "slack_id": "U082PAFDDS5", "display_name": "junya", "bio": null, "projects_count": 2, "devlogs_count": 6, "votes_count": 0, "ships_count": 0, "projects": [{"id": 284, "title": "Inventek Minecraft Mod", "devlogs_count": 1, "created_at": "2025-06-16T17:04:19.212-04:00"}, {"id": 1569, "title": "Junya's Dotfiles", "devlogs_count": 1, "created_at": "2025-06-18T19:00:49.153-04:00"}], "coding_time_seconds": 410548, "coding_time_seconds_today": 0, "balance": "You need to have a pocket watcher badge to view this.", "badges": [], "created_at": "2025-06-15T19:54:57.230-04:00", "updated_at": "2025-08-16T20:00:06.627-04:00", "avatar": "https://avatars.slack-edge.com/2025-08-17/9351949556679_36080096525a65fd3dd2_original.png", "custom_css": null}, {"id": 26, "slack_id": "U08PZHZMXUH", "display_name": "Robility", "bio": null, "projects_count": 2, "devlogs_count": 12, "votes_count": 3, "ships_count": 0, "projects": [{"id": 10797, "title": "Luxel", "devlogs_count": 3, "created_at": "2025-08-10T23:24:29.798-04:00"}, {"id": 11161, "title": "TinyTetris", "devlogs_count": 6, "created_at": "2025-08-13T16:42:30.242-04:00"}], "coding_time_seconds": 142720, "coding_time_seconds_today": 0, "balance": "You need to have a pocket watcher badge to view this.", "badges": [], "created_at": "2025-06-15T19:55:54.885-04:00", "updated_at": "2025-07-03T19:11:03.440-04:00", "avatar": "https://avatars.slack-edge.com/2025-04-24/8826368637488_a2afc64d75369cde9d28_original.jpg", "custom_css": null}, {"id": 27, "slack_id": "U091J3R7GAC", "display_name": "Sidd", "bio": null, "projects_count": 0, "devlogs_count": 0, "votes_count": 1, "ships_count": 0, "projects": [], "coding_time_seconds": 0, "coding_time_seconds_today": 0, "balance": "You need to have a pocket watcher badge to view this.", "badges": [], "created_at": "2025-06-15T19:56:31.054-04:00", "updated_at": "2025-08-13T20:00:07.081-04:00", "avatar": "https://avatars.slack-edge.com/2025-08-13/9353789712596_e7f1bfc370587ce4b1f4_original.png", "custom_css": null}, {"id": 28, "slack_id": "U0890T1AB8E", "display_name": "Evan Brown", "bio": null, "projects_count": 1, "devlogs_count": 5, "votes_count": 0, "ships_count": 0, "projects": [{"id": 405, "title": "Portable Cyberdeck", "devlogs_count": 5, "created_at": "2025-06-16T20:24:40.473-04:00"}], "coding_time_seconds": 100525, "coding_time_seconds_today": 0, "balance": "You need to have a pocket watcher badge to view this.", "badges": [], "created_at": "2025-06-15T19:57:36.723-04:00", "updated_at": "2025-08-12T19:04:54.104-04:00", "avatar": "https://avatars.slack-edge.com/2025-04-22/8793818095171_b9cb0d66ffb2a1aa0ffa_original.png", "custom_css": null}, {"id": 29, "slack_id": "U083VLSKKNW", "display_name": "Ayush J", "bio": null, "projects_count": 1, "devlogs_count": 1, "votes_count": 0, "ships_count": 0, "projects": [{"id": 3327, "title": "highway battle bot", "devlogs_count": 1, "created_at": "2025-06-23T20:42:51.634-04:00"}], "coding_time_seconds": 36033, "coding_time_seconds_today": 0, "balance": "You need to have a pocket watcher badge to view this.", "badges": [], "created_at": "2025-06-15T19:58:50.352-04:00", "updated_at": "2025-07-03T19:11:04.236-04:00", "avatar": "https://secure.gravatar.com/avatar/a73158648904fa9e3c5e4189f0aa0291.jpg?s=512&d=https%3A%2F%2Fa.slack-edge.com%2Fdf10d%2Fimg%2Favatars%2Fava_0012-512.png", "custom_css": null}, {"id": 30, "slack_id": "U07V8TBBAMA", "display_name": "Sammie Zhang", "bio": null, "projects_count": 0, "devlogs_count": 0, "votes_count": 0, "ships_count": 0, "projects": [], "coding_time_seconds": 11988, "coding_time_seconds_today": 0, "balance": "You need to have a pocket watcher badge to view this.", "badges": [], "created_at": "2025-06-15T20:04:17.884-04:00", "updated_at": "2025-08-07T10:58:08.548-04:00", "avatar": "https://avatars.slack-edge.com/2025-07-08/9169344827716_edadf42ef1d4599e5b90_original.png", "custom_css": null}, {"id": 31, "slack_id": "U081T46H49X", "display_name": "3rr0rc0d3z3r0", "bio": "", "projects_count": 0, "devlogs_count": 8, "votes_count": 0, "ships_count": 0, "projects": [], "coding_time_seconds": 197881, "coding_time_seconds_today": 0, "balance": "You need to have a pocket watcher badge to view this.", "badges": [], "created_at": "2025-06-15T20:08:08.241-04:00", "updated_at": "2025-08-25T20:00:05.184-04:00", "avatar": "https://avatars.slack-edge.com/2025-08-25/9407313180834_d7a58223ec7dfc8cbe73_original.png", "custom_css": null}, {"id": 32, "slack_id": "U079N8E73E3", "display_name": "Vibhu", "bio": "", "projects_count": 6, "devlogs_count": 45, "votes_count": 37, "ships_count": 3, "projects": [{"id": 9504, "title": "picov", "devlogs_count": 10, "created_at": "2025-08-01T13:32:19.728-04:00"}, {"id": 12501, "title": "ergoV", "devlogs_count": 9, "created_at": "2025-08-28T13:48:42.352-04:00"}, {"id": 12945, "title": "SOM Scene 24", "devlogs_count": 2, "created_at": "2025-09-05T20:47:42.532-04:00"}, {"id": 13704, "title": "XKCDwakaDo", "devlogs_count": 3, "created_at": "2025-09-23T10:16:40.549-04:00"}, {"id": 10697, "title": "raycast-frc", "devlogs_count": 15, "created_at": "2025-08-09T19:35:33.955-04:00"}, {"id": 5350, "title": "Pathfinder", "devlogs_count": 3, "created_at": "2025-07-04T16:30:17.308-04:00"}], "coding_time_seconds": 287084, "coding_time_seconds_today": 0, "balance": "You need to have a pocket watcher badge to view this.", "badges": [{"name": "Maiden Voyage", "text": "you shipped your first project! the journey begins...", "icon": "\ud83d\udea2"}], "created_at": "2025-06-15T20:09:27.918-04:00", "updated_at": "2025-09-14T16:59:31.711-04:00", "avatar": "https://avatars.slack-edge.com/2025-06-03/8989021222035_f37fa0c8820b3b3be25c_original.png", "custom_css": null}, {"id": 33, "slack_id": "U07CARCRZD1", "display_name": "chocowafer", "bio": null, "projects_count": 0, "devlogs_count": 0, "votes_count": 0, "ships_count": 0, "projects": [], "coding_time_seconds": 58395, "coding_time_seconds_today": 0, "balance": "You need to have a pocket watcher badge to view this.", "badges": [], "created_at": "2025-06-15T20:19:44.086-04:00", "updated_at": "2025-08-18T17:59:21.214-04:00", "avatar": "https://avatars.slack-edge.com/2024-07-13/7416113779829_46b1f7ba9e6a56316233_original.png", "custom_css": null}, {"id": 34, "slack_id": "U08234V6161", "display_name": "Artem", "bio": null, "projects_count": 3, "devlogs_count": 16, "votes_count": 20, "ships_count": 1, "projects": [{"id": 2173, "title": "ScheduleIt", "devlogs_count": 2, "created_at": "2025-06-20T11:09:49.380-04:00"}, {"id": 6424, "title": "Propose YSWS", "devlogs_count": 3, "created_at": "2025-07-13T06:50:32.562-04:00"}, {"id": 8296, "title": "Endpointer", "devlogs_count": 11, "created_at": "2025-07-26T03:09:55.197-04:00"}], "coding_time_seconds": 145979, "coding_time_seconds_today": 0, "balance": "You need to have a pocket watcher badge to view this.", "badges": [{"name": "Maiden Voyage", "text": "you shipped your first project! the journey begins...", "icon": "\ud83d\udea2"}], "created_at": "2025-06-15T20:21:38.991-04:00", "updated_at": "2025-09-10T22:51:06.387-04:00", "avatar": "https://avatars.slack-edge.com/2025-05-15/8892262618275_32cc939ae2ab03d2f1e1_original.jpg", "custom_css": null}, {"id": 35, "slack_id": "U07PXU0657B", "display_name": "Kate", "bio": null, "projects_count": 0, "devlogs_count": 0, "votes_count": 0, "ships_count": 0, "projects": [], "coding_time_seconds": 49994, "coding_time_seconds_today": 0, "balance": "You need to have a pocket watcher badge to view this.", "badges": [], "created_at": "2025-06-15T20:25:48.809-04:00", "updated_at": "2025-08-13T20:00:07.767-04:00", "avatar": "https://avatars.slack-edge.com/2025-08-13/9344482619187_89d19ac8fbd34be80e24_original.jpg", "custom_css": null}, {"id": 36, "slack_id": "U07VC9705D4", "display_name": "Miguel", "bio": "", "projects_count": 8, "devlogs_count": 63, "votes_count": 108, "ships_count": 4, "projects": [{"id": 11500, "title": "canvas", "devlogs_count": 6, "created_at": "2025-08-16T12:26:55.245-04:00"}, {"id": 11889, "title": "pyrendering", "devlogs_count": 11, "created_at": "2025-08-20T18:52:03.133-04:00"}, {"id": 12227, "title": "Fuxi", "devlogs_count": 5, "created_at": "2025-08-24T14:49:55.943-04:00"}, {"id": 12480, "title": "AI HTTP Server", "devlogs_count": 1, "created_at": "2025-08-28T07:59:12.859-04:00"}, {"id": 12657, "title": "Hackatime Profile Heatmap", "devlogs_count": 10, "created_at": "2025-08-31T07:50:03.391-04:00"}, {"id": 12858, "title": "rustytime", "devlogs_count": 14, "created_at": "2025-09-03T18:01:20.554-04:00"}, {"id": 12870, "title": "image-find", "devlogs_count": 3, "created_at": "2025-09-04T05:08:03.037-04:00"}, {"id": 11979, "title": "Hackastats", "devlogs_count": 13, "created_at": "2025-08-21T19:17:19.078-04:00"}], "coding_time_seconds": 1007548, "coding_time_seconds_today": 0, "balance": "You need to have a pocket watcher badge to view this.", "badges": [{"name": "Maiden Voyage", "text": "you shipped your first project! the journey begins...", "icon": "\ud83d\udea2"}, {"name": "Ballot Stuffer", "text": "vote 100 times.", "icon": "https://summer.hackclub.com/assets/i_voted-bf851b48.png"}], "created_at": "2025-06-15T20:33:38.079-04:00", "updated_at": "2025-09-10T22:51:06.605-04:00", "avatar": "https://avatars.slack-edge.com/2025-06-19/9070183550307_9caf4a2c55140db57b17_original.png", "custom_css": null}, {"id": 37, "slack_id": "U0927M92PB2", "display_name": "cullen roberts", "bio": null, "projects_count": 0, "devlogs_count": 0, "votes_count": 0, "ships_count": 0, "projects": [], "coding_time_seconds": 346, "coding_time_seconds_today": 0, "balance": "You need to have a pocket watcher badge to view this.", "badges": [], "created_at": "2025-06-15T20:39:25.385-04:00", "updated_at": "2025-07-03T19:11:06.366-04:00", "avatar": "https://avatars.slack-edge.com/2025-06-15/9053279115346_5802f233083d50e8aa4e_original.jpg", "custom_css": null}, {"id": 38, "slack_id": "U07B9UY7GQP", "display_name": "GamerC0der", "bio": null, "projects_count": 3, "devlogs_count": 7, "votes_count": 20, "ships_count": 1, "projects": [{"id": 1435, "title": "BookPal", "devlogs_count": 0, "created_at": "2025-06-18T14:47:41.002-04:00"}, {"id": 4582, "title": "AI Chat UI", "devlogs_count": 2, "created_at": "2025-06-30T19:02:07.948-04:00"}, {"id": 9871, "title": "Stocked", "devlogs_count": 5, "created_at": "2025-08-02T15:10:43.487-04:00"}], "coding_time_seconds": 1028083, "coding_time_seconds_today": 0, "balance": "You need to have a pocket watcher badge to view this.", "badges": [{"name": "Maiden Voyage", "text": "you shipped your first project! the journey begins...", "icon": "\ud83d\udea2"}], "created_at": "2025-06-15T20:39:38.505-04:00", "updated_at": "2025-09-10T22:51:06.703-04:00", "avatar": "https://secure.gravatar.com/avatar/e7cb961564a0febc15d295ea9c8c85a9.jpg?s=512&d=https%3A%2F%2Fa.slack-edge.com%2Fdf10d%2Fimg%2Favatars%2Fava_0013-512.png", "custom_css": null}, {"id": 39, "slack_id": "U0616280E6P", "display_name": "Aram", "bio": null, "projects_count": 5, "devlogs_count": 15, "votes_count": 56, "ships_count": 4, "projects": [{"id": 11642, "title": "Transitus", "devlogs_count": 2, "created_at": "2025-08-18T02:30:40.899-04:00"}, {"id": 10549, "title": "Student", "devlogs_count": 3, "created_at": "2025-08-08T02:44:19.195-04:00"}, {"id": 7, "title": "Nomen", "devlogs_count": 5, "created_at": "2025-06-15T20:53:49.627-04:00"}, {"id": 8, "title": "aram.sh", "devlogs_count": 3, "created_at": "2025-06-15T20:56:31.879-04:00"}, {"id": 11515, "title": "Apud", "devlogs_count": 2, "created_at": "2025-08-16T14:27:17.176-04:00"}], "coding_time_seconds": 86277, "coding_time_seconds_today": 0, "balance": "You need to have a pocket watcher badge to view this.", "badges": [{"name": "Maiden Voyage", "text": "you shipped your first project! the journey begins...", "icon": "\ud83d\udea2"}, {"name": "<%= admin_tool do %>", "text": "with great power comes great responsibility... and a ban hammer.", "icon": "\ud83d\udd28"}, {"name": "Lived Mas", "text": "you know what you did.", "icon": "https://summer.hackclub.com/assets/bong-2a18e50d.png"}], "created_at": "2025-06-15T20:45:57.731-04:00", "updated_at": "2025-09-24T18:00:08.131-04:00", "avatar": "https://avatars.slack-edge.com/2025-09-24/9605502908464_6fab2c01872e26e01807_original.png", "custom_css": null}, {"id": 40, "slack_id": "U08PUHSMW4V", "display_name": "tsd", "bio": null, "projects_count": 1, "devlogs_count": 2, "votes_count": 11, "ships_count": 0, "projects": [{"id": 1181, "title": "Voyager", "devlogs_count": 2, "created_at": "2025-06-17T20:43:49.220-04:00"}], "coding_time_seconds": 309497, "coding_time_seconds_today": 0, "balance": "You need to have a pocket watcher badge to view this.", "badges": [], "created_at": "2025-06-15T20:46:52.683-04:00", "updated_at": "2025-09-02T23:36:32.059-04:00", "avatar": "https://avatars.slack-edge.com/2025-08-17/9365543903026_be18ec6a47d45f6c6c73_original.png", "custom_css": null}], "pagination": {"page": 2, "pages": 1192, "count": 23827, "items": 20}}