{"users": [{"id": 3981, "slack_id": "U091RTAQVRS", "display_name": "Bachrul Uluum", "bio": null, "projects_count": 0, "devlogs_count": 0, "votes_count": 0, "ships_count": 0, "projects": [], "coding_time_seconds": 3382, "coding_time_seconds_today": 0, "balance": "You need to have a pocket watcher badge to view this.", "badges": [], "created_at": "2025-06-16T21:20:58.387-04:00", "updated_at": "2025-07-03T19:29:22.697-04:00", "avatar": "https://avatars.slack-edge.com/2025-06-16/9072151335425_58ca2ff480310aa3fbe4_original.jpg", "custom_css": null}, {"id": 3982, "slack_id": "U092E096940", "display_name": "Majid Khan", "bio": null, "projects_count": 0, "devlogs_count": 0, "votes_count": 0, "ships_count": 0, "projects": [], "coding_time_seconds": 476, "coding_time_seconds_today": 0, "balance": "You need to have a pocket watcher badge to view this.", "badges": [], "created_at": "2025-06-16T21:21:36.267-04:00", "updated_at": "2025-07-03T19:29:22.983-04:00", "avatar": "https://secure.gravatar.com/avatar/c1d9113a65c4db742f4ea8864b5b21df.jpg?s=512&d=https%3A%2F%2Fa.slack-edge.com%2Fdf10d%2Fimg%2Favatars%2Fava_0025-512.png", "custom_css": null}, {"id": 3983, "slack_id": "U092E08R1BJ", "display_name": "Rolas Nababan", "bio": null, "projects_count": 0, "devlogs_count": 0, "votes_count": 0, "ships_count": 0, "projects": [], "coding_time_seconds": 3468, "coding_time_seconds_today": 0, "balance": "You need to have a pocket watcher badge to view this.", "badges": [], "created_at": "2025-06-16T21:21:44.336-04:00", "updated_at": "2025-07-03T19:29:23.247-04:00", "avatar": "https://secure.gravatar.com/avatar/54d98c007d174abef498c40f009a2433.jpg?s=512&d=https%3A%2F%2Fa.slack-edge.com%2Fdf10d%2Fimg%2Favatars%2Fava_0001-512.png", "custom_css": null}, {"id": 3984, "slack_id": "U08928M822E", "display_name": "Controw_", "bio": null, "projects_count": 0, "devlogs_count": 0, "votes_count": 0, "ships_count": 0, "projects": [], "coding_time_seconds": 0, "coding_time_seconds_today": 0, "balance": "You need to have a pocket watcher badge to view this.", "badges": [], "created_at": "2025-06-16T21:21:49.719-04:00", "updated_at": "2025-07-03T19:29:23.513-04:00", "avatar": "https://avatars.slack-edge.com/2025-06-21/9077446838470_d3ba4140da1619549e00_original.png", "custom_css": null}, {"id": 3985, "slack_id": "U091JL8HS11", "display_name": "Sonu", "bio": null, "projects_count": 0, "devlogs_count": 0, "votes_count": 0, "ships_count": 0, "projects": [], "coding_time_seconds": 0, "coding_time_seconds_today": 0, "balance": "You need to have a pocket watcher badge to view this.", "badges": [], "created_at": "2025-06-16T21:22:00.830-04:00", "updated_at": "2025-07-03T19:29:23.777-04:00", "avatar": "https://secure.gravatar.com/avatar/189572b5d3de647d7558a5b8c87c19ce.jpg?s=512&d=https%3A%2F%2Fa.slack-edge.com%2Fdf10d%2Fimg%2Favatars%2Fava_0018-512.png", "custom_css": null}, {"id": 3986, "slack_id": "U084PTWSWR5", "display_name": "Rino", "bio": "heyloooo!", "projects_count": 2, "devlogs_count": 18, "votes_count": 75, "ships_count": 2, "projects": [{"id": 6863, "title": "Rino Godson | Portfolio", "devlogs_count": 6, "created_at": "2025-07-16T23:56:06.312-04:00"}, {"id": 4876, "title": "Od\u00e9 - Put your YT Music in Cards! - UPDATE", "devlogs_count": 12, "created_at": "2025-07-02T02:12:31.134-04:00"}], "coding_time_seconds": 420044, "coding_time_seconds_today": 494, "balance": "You need to have a pocket watcher badge to view this.", "badges": [{"name": "Maiden Voyage", "text": "you shipped your first project! the journey begins...", "icon": "\ud83d\udea2"}], "created_at": "2025-06-16T21:22:52.792-04:00", "updated_at": "2025-09-17T12:17:01.545-04:00", "avatar": "https://avatars.slack-edge.com/2025-09-17/9528957041331_9a369bd213709c4fa1d0_original.png", "custom_css": null}, {"id": 3987, "slack_id": "U091JQ0LMTQ", "display_name": "voximir", "bio": null, "projects_count": 1, "devlogs_count": 1, "votes_count": 0, "ships_count": 0, "projects": [{"id": 845, "title": "Secure Password Generator", "devlogs_count": 1, "created_at": "2025-06-17T09:42:18.206-04:00"}], "coding_time_seconds": 56674, "coding_time_seconds_today": 0, "balance": "You need to have a pocket watcher badge to view this.", "badges": [], "created_at": "2025-06-16T21:23:03.873-04:00", "updated_at": "2025-07-03T19:29:24.328-04:00", "avatar": "https://avatars.slack-edge.com/2025-06-17/9055646594518_4b48eb2d2318119bb962_original.jpg", "custom_css": null}, {"id": 3988, "slack_id": "U080RRMEPC7", "display_name": "Arthur_Samuel", "bio": null, "projects_count": 6, "devlogs_count": 37, "votes_count": 43, "ships_count": 3, "projects": [{"id": 1161, "title": "We Chat ", "devlogs_count": 8, "created_at": "2025-06-17T19:13:33.953-04:00"}, {"id": 1992, "title": "Speed", "devlogs_count": 8, "created_at": "2025-06-19T20:47:25.407-04:00"}, {"id": 6337, "title": "Musical ", "devlogs_count": 4, "created_at": "2025-07-12T13:16:16.514-04:00"}, {"id": 9024, "title": "JngleJump", "devlogs_count": 1, "created_at": "2025-07-30T08:06:44.910-04:00"}, {"id": 9023, "title": "Yummy Cook ! ", "devlogs_count": 4, "created_at": "2025-07-30T08:06:44.882-04:00"}, {"id": 6483, "title": "Quizz", "devlogs_count": 12, "created_at": "2025-07-13T18:28:54.464-04:00"}], "coding_time_seconds": 136453, "coding_time_seconds_today": 0, "balance": "You need to have a pocket watcher badge to view this.", "badges": [{"name": "Maiden Voyage", "text": "you shipped your first project! the journey begins...", "icon": "\ud83d\udea2"}], "created_at": "2025-06-16T21:23:09.468-04:00", "updated_at": "2025-09-10T22:53:09.248-04:00", "avatar": "https://avatars.slack-edge.com/2025-08-10/9344538539745_7573d6e38dc4ce865c42_original.jpg", "custom_css": null}, {"id": 3989, "slack_id": "U0807K23FPG", "display_name": "NightshadeXD", "bio": null, "projects_count": 3, "devlogs_count": 3, "votes_count": 32, "ships_count": 2, "projects": [{"id": 8345, "title": "Roblox Account Manager", "devlogs_count": 1, "created_at": "2025-07-26T11:19:25.129-04:00"}, {"id": 8476, "title": "AOPS Answer Scraper", "devlogs_count": 1, "created_at": "2025-07-27T12:19:37.471-04:00"}, {"id": 12394, "title": "Screenshot to Text", "devlogs_count": 1, "created_at": "2025-08-26T19:18:56.459-04:00"}], "coding_time_seconds": 224225, "coding_time_seconds_today": 0, "balance": "You need to have a pocket watcher badge to view this.", "badges": [{"name": "Maiden Voyage", "text": "you shipped your first project! the journey begins...", "icon": "\ud83d\udea2"}], "created_at": "2025-06-16T21:23:11.122-04:00", "updated_at": "2025-09-10T22:53:09.278-04:00", "avatar": "https://avatars.slack-edge.com/2025-01-30/8377373062194_f5172bbbfdfb83fec047_original.jpg", "custom_css": null}, {"id": 3990, "slack_id": "U09189GDF8T", "display_name": "Daniel", "bio": null, "projects_count": 0, "devlogs_count": 0, "votes_count": 0, "ships_count": 0, "projects": [], "coding_time_seconds": 0, "coding_time_seconds_today": 0, "balance": "You need to have a pocket watcher badge to view this.", "badges": [], "created_at": "2025-06-16T21:23:23.614-04:00", "updated_at": "2025-07-03T19:29:25.119-04:00", "avatar": "https://secure.gravatar.com/avatar/f3e573dddd2143afaa8fe1397460d42d.jpg?s=512&d=https%3A%2F%2Fa.slack-edge.com%2Fdf10d%2Fimg%2Favatars%2Fava_0000-512.png", "custom_css": null}, {"id": 3991, "slack_id": "U091RTFP81J", "display_name": "Sombit mazumder", "bio": null, "projects_count": 0, "devlogs_count": 0, "votes_count": 0, "ships_count": 0, "projects": [], "coding_time_seconds": 0, "coding_time_seconds_today": 0, "balance": "You need to have a pocket watcher badge to view this.", "badges": [], "created_at": "2025-06-16T21:23:38.296-04:00", "updated_at": "2025-07-03T19:29:25.382-04:00", "avatar": "https://secure.gravatar.com/avatar/b5d440fe1daf6c84f0ff65c43192e532.jpg?s=512&d=https%3A%2F%2Fa.slack-edge.com%2Fdf10d%2Fimg%2Favatars%2Fava_0005-512.png", "custom_css": null}, {"id": 3992, "slack_id": "U08SS86CXMX", "display_name": "Thomas Dong (ChimkinB0i)", "bio": null, "projects_count": 0, "devlogs_count": 0, "votes_count": 0, "ships_count": 0, "projects": [], "coding_time_seconds": 0, "coding_time_seconds_today": 0, "balance": "You need to have a pocket watcher badge to view this.", "badges": [], "created_at": "2025-06-16T21:23:56.045-04:00", "updated_at": "2025-07-03T19:29:25.652-04:00", "avatar": "https://avatars.slack-edge.com/2025-05-16/8897520569207_fe29d978e5c98618f015_original.jpg", "custom_css": null}, {"id": 3993, "slack_id": "U091PQ1CNUV", "display_name": "sharian dabre", "bio": null, "projects_count": 0, "devlogs_count": 0, "votes_count": 0, "ships_count": 0, "projects": [], "coding_time_seconds": 0, "coding_time_seconds_today": 0, "balance": "You need to have a pocket watcher badge to view this.", "badges": [], "created_at": "2025-06-16T21:24:02.477-04:00", "updated_at": "2025-07-03T19:29:25.916-04:00", "avatar": "https://secure.gravatar.com/avatar/dc8a9b2aad98f8c54fdb66950cb17c5b.jpg?s=512&d=https%3A%2F%2Fa.slack-edge.com%2Fdf10d%2Fimg%2Favatars%2Fava_0007-512.png", "custom_css": null}, {"id": 3994, "slack_id": "U04DNS0LAM9", "display_name": "segun", "bio": null, "projects_count": 8, "devlogs_count": 160, "votes_count": 139, "ships_count": 6, "projects": [{"id": 1655, "title": "Clark", "devlogs_count": 63, "created_at": "2025-06-19T00:16:37.036-04:00"}, {"id": 7269, "title": "PathFinder", "devlogs_count": 1, "created_at": "2025-07-20T15:13:07.727-04:00"}, {"id": 13153, "title": "ChapterOne: Book Management", "devlogs_count": 21, "created_at": "2025-09-09T22:48:00.777-04:00"}, {"id": 13287, "title": "Buka: Find Local food Near You", "devlogs_count": 18, "created_at": "2025-09-13T11:09:57.943-04:00"}, {"id": 13513, "title": "Avida - Dreamboard", "devlogs_count": 16, "created_at": "2025-09-18T09:23:14.526-04:00"}, {"id": 12973, "title": "Omi Meditation", "devlogs_count": 11, "created_at": "2025-09-06T12:18:38.342-04:00"}, {"id": 7961, "title": "Rankr", "devlogs_count": 13, "created_at": "2025-07-23T21:00:44.756-04:00"}, {"id": 11849, "title": "Pitch Hub", "devlogs_count": 15, "created_at": "2025-08-20T09:06:20.473-04:00"}], "coding_time_seconds": 1169396, "coding_time_seconds_today": 0, "balance": "You need to have a pocket watcher badge to view this.", "badges": [{"name": "Maiden Voyage", "text": "you shipped your first project! the journey begins...", "icon": "\ud83d\udea2"}, {"name": "Ballot Stuffer", "text": "vote 100 times.", "icon": "https://summer.hackclub.com/assets/i_voted-bf851b48.png"}, {"name": "Yapper I", "text": "Posted 10 comments on devlogs.", "icon": "\ud83d\udcac"}], "created_at": "2025-06-16T21:24:42.465-04:00", "updated_at": "2025-09-18T12:22:15.643-04:00", "avatar": "https://avatars.slack-edge.com/2025-05-02/8838868564610_0777e650c5f87072c5aa_original.png", "custom_css": null}, {"id": 3995, "slack_id": "U09244D6ZRP", "display_name": "Prabhav", "bio": null, "projects_count": 0, "devlogs_count": 0, "votes_count": 0, "ships_count": 0, "projects": [], "coding_time_seconds": 0, "coding_time_seconds_today": 0, "balance": "You need to have a pocket watcher badge to view this.", "badges": [], "created_at": "2025-06-16T21:24:46.421-04:00", "updated_at": "2025-07-03T19:29:26.452-04:00", "avatar": "https://secure.gravatar.com/avatar/0002c6d10442521bdd3b4ec7cd89cadd.jpg?s=512&d=https%3A%2F%2Fa.slack-edge.com%2Fdf10d%2Fimg%2Favatars%2Fava_0003-512.png", "custom_css": null}, {"id": 3996, "slack_id": "U091JPZ25D4", "display_name": "Sai", "bio": null, "projects_count": 0, "devlogs_count": 0, "votes_count": 0, "ships_count": 0, "projects": [], "coding_time_seconds": 28696, "coding_time_seconds_today": 0, "balance": "You need to have a pocket watcher badge to view this.", "badges": [], "created_at": "2025-06-16T21:25:02.456-04:00", "updated_at": "2025-07-03T19:29:26.722-04:00", "avatar": "https://secure.gravatar.com/avatar/60e27492d109abe33ac4c42d2aa898da.jpg?s=512&d=https%3A%2F%2Fa.slack-edge.com%2Fdf10d%2Fimg%2Favatars%2Fava_0006-512.png", "custom_css": null}, {"id": 3997, "slack_id": "U091RTKUPLL", "display_name": "Vihaan C", "bio": null, "projects_count": 0, "devlogs_count": 0, "votes_count": 0, "ships_count": 0, "projects": [], "coding_time_seconds": 112180, "coding_time_seconds_today": 0, "balance": "You need to have a pocket watcher badge to view this.", "badges": [], "created_at": "2025-06-16T21:25:13.443-04:00", "updated_at": "2025-07-03T19:29:26.980-04:00", "avatar": "https://secure.gravatar.com/avatar/ee39c6e13ca78e8477ce73e7f6d39566.jpg?s=512&d=https%3A%2F%2Fa.slack-edge.com%2Fdf10d%2Fimg%2Favatars%2Fava_0001-512.png", "custom_css": null}, {"id": 3998, "slack_id": "U082ADK3DCM", "display_name": "Uday Prakash Gupta", "bio": null, "projects_count": 0, "devlogs_count": 0, "votes_count": 1, "ships_count": 0, "projects": [], "coding_time_seconds": 118364, "coding_time_seconds_today": 0, "balance": "You need to have a pocket watcher badge to view this.", "badges": [], "created_at": "2025-06-16T21:25:15.111-04:00", "updated_at": "2025-07-03T19:29:27.251-04:00", "avatar": "https://avatars.slack-edge.com/2025-05-13/8885647433107_741768a48e1348098a3e_original.jpg", "custom_css": null}, {"id": 3999, "slack_id": "U091A7RDFGX", "display_name": "Daniel", "bio": null, "projects_count": 0, "devlogs_count": 0, "votes_count": 0, "ships_count": 0, "projects": [], "coding_time_seconds": 0, "coding_time_seconds_today": 0, "balance": "You need to have a pocket watcher badge to view this.", "badges": [], "created_at": "2025-06-16T21:26:47.436-04:00", "updated_at": "2025-07-03T19:29:27.506-04:00", "avatar": "https://secure.gravatar.com/avatar/133a69b4d838e2eebff47e28e5d97b77.jpg?s=512&d=https%3A%2F%2Fa.slack-edge.com%2Fdf10d%2Fimg%2Favatars%2Fava_0006-512.png", "custom_css": null}, {"id": 4000, "slack_id": "U092E0JLB8Q", "display_name": "Matheus Laidler", "bio": null, "projects_count": 0, "devlogs_count": 0, "votes_count": 0, "ships_count": 0, "projects": [], "coding_time_seconds": 0, "coding_time_seconds_today": 0, "balance": "You need to have a pocket watcher badge to view this.", "badges": [], "created_at": "2025-06-16T21:26:59.064-04:00", "updated_at": "2025-07-03T19:29:27.765-04:00", "avatar": "https://avatars.slack-edge.com/2025-06-16/9044272491207_798ecdbb54b0a7819d94_original.png", "custom_css": null}], "pagination": {"page": 200, "pages": 1192, "count": 23828, "items": 20}}