{"users": [{"id": 4001, "slack_id": "U091JQ8BFF0", "display_name": "khaumi", "bio": null, "projects_count": 1, "devlogs_count": 3, "votes_count": 0, "ships_count": 0, "projects": [{"id": 1944, "title": "BosonBattleTools", "devlogs_count": 3, "created_at": "2025-06-19T17:03:55.172-04:00"}], "coding_time_seconds": 304880, "coding_time_seconds_today": 0, "balance": "You need to have a pocket watcher badge to view this.", "badges": [], "created_at": "2025-06-16T21:27:02.480-04:00", "updated_at": "2025-07-31T19:16:07.334-04:00", "avatar": "https://avatars.slack-edge.com/2025-06-17/9065384508484_f9102a7b168f76340932_original.png", "custom_css": null}, {"id": 4002, "slack_id": "U092E0G9SQY", "display_name": "Mohammad Afnan", "bio": null, "projects_count": 0, "devlogs_count": 0, "votes_count": 0, "ships_count": 0, "projects": [], "coding_time_seconds": 0, "coding_time_seconds_today": 0, "balance": "You need to have a pocket watcher badge to view this.", "badges": [], "created_at": "2025-06-16T21:27:04.061-04:00", "updated_at": "2025-07-03T19:29:28.294-04:00", "avatar": "https://secure.gravatar.com/avatar/3126ee7f5afe5d0405c8d26db4fc8f9b.jpg?s=512&d=https%3A%2F%2Fa.slack-edge.com%2Fdf10d%2Fimg%2Favatars%2Fava_0019-512.png", "custom_css": null}, {"id": 4003, "slack_id": "U091A7P4WR5", "display_name": "Tran Van Hieu", "bio": null, "projects_count": 0, "devlogs_count": 0, "votes_count": 0, "ships_count": 0, "projects": [], "coding_time_seconds": 0, "coding_time_seconds_today": 0, "balance": "You need to have a pocket watcher badge to view this.", "badges": [], "created_at": "2025-06-16T21:27:17.758-04:00", "updated_at": "2025-07-03T19:29:28.642-04:00", "avatar": "https://avatars.slack-edge.com/2025-06-16/9059956444804_e2a88db35007b09c5498_original.jpg", "custom_css": null}, {"id": 4004, "slack_id": "U07FK55HSC9", "display_name": "Siddhant", "bio": null, "projects_count": 0, "devlogs_count": 0, "votes_count": 0, "ships_count": 0, "projects": [], "coding_time_seconds": 63822, "coding_time_seconds_today": 0, "balance": "You need to have a pocket watcher badge to view this.", "badges": [], "created_at": "2025-06-16T21:27:43.879-04:00", "updated_at": "2025-07-03T19:29:28.902-04:00", "avatar": "https://secure.gravatar.com/avatar/aa36ebe5741856accfe2bd8dcc5b3dca.jpg?s=512&d=https%3A%2F%2Fa.slack-edge.com%2Fdf10d%2Fimg%2Favatars%2Fava_0022-512.png", "custom_css": null}, {"id": 4005, "slack_id": "U091A7UL9QX", "display_name": "Ayusman Pradhan", "bio": null, "projects_count": 0, "devlogs_count": 0, "votes_count": 0, "ships_count": 0, "projects": [], "coding_time_seconds": 8, "coding_time_seconds_today": 0, "balance": "You need to have a pocket watcher badge to view this.", "badges": [], "created_at": "2025-06-16T21:28:44.912-04:00", "updated_at": "2025-07-03T19:29:29.165-04:00", "avatar": "https://avatars.slack-edge.com/2025-06-17/9060038750324_d1781ab44bc68062edba_original.jpg", "custom_css": null}, {"id": 4006, "slack_id": "U08HK6CSFTR", "display_name": "Johann", "bio": null, "projects_count": 0, "devlogs_count": 10, "votes_count": 31, "ships_count": 0, "projects": [], "coding_time_seconds": 277294, "coding_time_seconds_today": 0, "balance": "You need to have a pocket watcher badge to view this.", "badges": [{"name": "Maiden Voyage", "text": "you shipped your first project! the journey begins...", "icon": "\ud83d\udea2"}, {"name": "Ballot Stuffer", "text": "vote 100 times.", "icon": "https://summer.hackclub.com/assets/i_voted-bf851b48.png"}], "created_at": "2025-06-16T21:28:56.990-04:00", "updated_at": "2025-09-10T22:53:09.790-04:00", "avatar": "https://secure.gravatar.com/avatar/bf1d8633b1e0835089f977bd19228fa2.jpg?s=512&d=https%3A%2F%2Fa.slack-edge.com%2Fdf10d%2Fimg%2Favatars%2Fava_0006-512.png", "custom_css": null}, {"id": 4007, "slack_id": "U091JQ9A33Q", "display_name": "Manish", "bio": null, "projects_count": 0, "devlogs_count": 0, "votes_count": 0, "ships_count": 0, "projects": [], "coding_time_seconds": 0, "coding_time_seconds_today": 0, "balance": "You need to have a pocket watcher badge to view this.", "badges": [], "created_at": "2025-06-16T21:29:19.122-04:00", "updated_at": "2025-07-03T19:29:29.689-04:00", "avatar": "https://secure.gravatar.com/avatar/5951acbfa5a2b28566144df07070db7f.jpg?s=512&d=https%3A%2F%2Fa.slack-edge.com%2Fdf10d%2Fimg%2Favatars%2Fava_0010-512.png", "custom_css": null}, {"id": 4008, "slack_id": "U091RHATJBW", "display_name": "Ryan Chen", "bio": null, "projects_count": 0, "devlogs_count": 0, "votes_count": 0, "ships_count": 0, "projects": [], "coding_time_seconds": 0, "coding_time_seconds_today": 0, "balance": "You need to have a pocket watcher badge to view this.", "badges": [], "created_at": "2025-06-16T21:29:21.266-04:00", "updated_at": "2025-07-03T19:29:29.964-04:00", "avatar": "https://secure.gravatar.com/avatar/08f3344b3ab6dadb30365ac128c07783.jpg?s=512&d=https%3A%2F%2Fa.slack-edge.com%2Fdf10d%2Fimg%2Favatars%2Fava_0017-512.png", "custom_css": null}, {"id": 4009, "slack_id": "U091JQL1W22", "display_name": "Prateek Anand", "bio": null, "projects_count": 0, "devlogs_count": 0, "votes_count": 0, "ships_count": 0, "projects": [], "coding_time_seconds": 0, "coding_time_seconds_today": 0, "balance": "You need to have a pocket watcher badge to view this.", "badges": [], "created_at": "2025-06-16T21:29:55.832-04:00", "updated_at": "2025-07-03T19:29:30.259-04:00", "avatar": "https://secure.gravatar.com/avatar/457e769935b0a70a7f29258fbaaf0230.jpg?s=512&d=https%3A%2F%2Fa.slack-edge.com%2Fdf10d%2Fimg%2Favatars%2Fava_0026-512.png", "custom_css": null}, {"id": 4010, "slack_id": "U091JQP3NLW", "display_name": "ALICESPACE", "bio": null, "projects_count": 0, "devlogs_count": 0, "votes_count": 0, "ships_count": 0, "projects": [], "coding_time_seconds": 0, "coding_time_seconds_today": 0, "balance": "You need to have a pocket watcher badge to view this.", "badges": [], "created_at": "2025-06-16T21:30:38.919-04:00", "updated_at": "2025-07-03T19:29:30.527-04:00", "avatar": "https://secure.gravatar.com/avatar/36fed64019645c8175108c1885ce30b7.jpg?s=512&d=https%3A%2F%2Fa.slack-edge.com%2Fdf10d%2Fimg%2Favatars%2Fava_0024-512.png", "custom_css": null}, {"id": 4011, "slack_id": "U092E101E5N", "display_name": "Daniel", "bio": null, "projects_count": 0, "devlogs_count": 0, "votes_count": 0, "ships_count": 0, "projects": [], "coding_time_seconds": 0, "coding_time_seconds_today": 0, "balance": "You need to have a pocket watcher badge to view this.", "badges": [], "created_at": "2025-06-16T21:30:43.806-04:00", "updated_at": "2025-07-03T19:29:30.790-04:00", "avatar": "https://secure.gravatar.com/avatar/8055e67bea8f2fdd44b8b50fc65852b1.jpg?s=512&d=https%3A%2F%2Fa.slack-edge.com%2Fdf10d%2Fimg%2Favatars%2Fava_0024-512.png", "custom_css": null}, {"id": 4012, "slack_id": "U091PQRSQF7", "display_name": "Bikash Chandra Mishra", "bio": null, "projects_count": 0, "devlogs_count": 0, "votes_count": 0, "ships_count": 0, "projects": [], "coding_time_seconds": 0, "coding_time_seconds_today": 0, "balance": "You need to have a pocket watcher badge to view this.", "badges": [], "created_at": "2025-06-16T21:31:12.895-04:00", "updated_at": "2025-07-03T19:29:31.078-04:00", "avatar": "https://secure.gravatar.com/avatar/18d218244b20f724dfe70400dae231c2.jpg?s=512&d=https%3A%2F%2Fa.slack-edge.com%2Fdf10d%2Fimg%2Favatars%2Fava_0021-512.png", "custom_css": null}, {"id": 4013, "slack_id": "U091A7Z04G7", "display_name": "chare", "bio": null, "projects_count": 0, "devlogs_count": 0, "votes_count": 0, "ships_count": 0, "projects": [], "coding_time_seconds": 0, "coding_time_seconds_today": 0, "balance": "You need to have a pocket watcher badge to view this.", "badges": [], "created_at": "2025-06-16T21:31:13.577-04:00", "updated_at": "2025-07-03T19:29:31.351-04:00", "avatar": "https://secure.gravatar.com/avatar/2e9595997dc17ae5376cf05b11ddf828.jpg?s=512&d=https%3A%2F%2Fa.slack-edge.com%2Fdf10d%2Fimg%2Favatars%2Fava_0015-512.png", "custom_css": null}, {"id": 4014, "slack_id": "U091A7LR6GP", "display_name": "Mark Sikaundi", "bio": null, "projects_count": 0, "devlogs_count": 0, "votes_count": 0, "ships_count": 0, "projects": [], "coding_time_seconds": 119636, "coding_time_seconds_today": 0, "balance": "You need to have a pocket watcher badge to view this.", "badges": [], "created_at": "2025-06-16T21:31:15.987-04:00", "updated_at": "2025-07-03T19:29:31.613-04:00", "avatar": "https://secure.gravatar.com/avatar/7e9d23c35991fd66b27af37997e5c07d.jpg?s=512&d=https%3A%2F%2Fa.slack-edge.com%2Fdf10d%2Fimg%2Favatars%2Fava_0019-512.png", "custom_css": null}, {"id": 4015, "slack_id": "U091JQQQXHU", "display_name": "imjing", "bio": null, "projects_count": 0, "devlogs_count": 0, "votes_count": 0, "ships_count": 0, "projects": [], "coding_time_seconds": 95, "coding_time_seconds_today": 0, "balance": "You need to have a pocket watcher badge to view this.", "badges": [], "created_at": "2025-06-16T21:31:23.928-04:00", "updated_at": "2025-07-03T19:29:31.882-04:00", "avatar": "https://secure.gravatar.com/avatar/33c8b3a6b86814cf5317d83586d46e97.jpg?s=512&d=https%3A%2F%2Fa.slack-edge.com%2Fdf10d%2Fimg%2Favatars%2Fava_0022-512.png", "custom_css": null}, {"id": 4016, "slack_id": "U091JQRA9T8", "display_name": "\u4fe1\u6807\u4e4b\u5149", "bio": null, "projects_count": 0, "devlogs_count": 0, "votes_count": 0, "ships_count": 0, "projects": [], "coding_time_seconds": 0, "coding_time_seconds_today": 0, "balance": "You need to have a pocket watcher badge to view this.", "badges": [], "created_at": "2025-06-16T21:31:24.041-04:00", "updated_at": "2025-07-03T19:29:32.161-04:00", "avatar": "https://avatars.slack-edge.com/2025-06-16/9082049388848_6278f03257678f2f5d40_original.png", "custom_css": null}, {"id": 4017, "slack_id": "U092452CRBK", "display_name": "KIRAN.E", "bio": null, "projects_count": 0, "devlogs_count": 0, "votes_count": 0, "ships_count": 0, "projects": [], "coding_time_seconds": 0, "coding_time_seconds_today": 0, "balance": "You need to have a pocket watcher badge to view this.", "badges": [], "created_at": "2025-06-16T21:31:24.454-04:00", "updated_at": "2025-07-03T19:29:32.430-04:00", "avatar": "https://avatars.slack-edge.com/2025-06-16/9082049339616_8a7f7f0c4dc207794fe2_original.png", "custom_css": null}, {"id": 4018, "slack_id": "U092E10LMPA", "display_name": "Philipp", "bio": null, "projects_count": 1, "devlogs_count": 0, "votes_count": 0, "ships_count": 0, "projects": [{"id": 446, "title": "Quent", "devlogs_count": 0, "created_at": "2025-06-16T21:46:09.011-04:00"}], "coding_time_seconds": 56908, "coding_time_seconds_today": 0, "balance": "You need to have a pocket watcher badge to view this.", "badges": [], "created_at": "2025-06-16T21:31:26.790-04:00", "updated_at": "2025-07-03T19:29:32.697-04:00", "avatar": "https://secure.gravatar.com/avatar/6de2f4a27e037ffe06c7266da1a311c9.jpg?s=512&d=https%3A%2F%2Fa.slack-edge.com%2Fdf10d%2Fimg%2Favatars%2Fava_0008-512.png", "custom_css": null}, {"id": 4019, "slack_id": "U081R8M2605", "display_name": "zusanenlask", "bio": null, "projects_count": 0, "devlogs_count": 0, "votes_count": 0, "ships_count": 0, "projects": [], "coding_time_seconds": 11171, "coding_time_seconds_today": 0, "balance": "You need to have a pocket watcher badge to view this.", "badges": [], "created_at": "2025-06-16T21:32:19.964-04:00", "updated_at": "2025-07-03T19:29:32.956-04:00", "avatar": "https://avatars.slack-edge.com/2024-12-01/8107654920210_29bed4d3526ab7a06300_original.jpg", "custom_css": null}, {"id": 4020, "slack_id": "U091RU4UL76", "display_name": "Zuxing", "bio": null, "projects_count": 0, "devlogs_count": 0, "votes_count": 0, "ships_count": 0, "projects": [], "coding_time_seconds": 316, "coding_time_seconds_today": 0, "balance": "You need to have a pocket watcher badge to view this.", "badges": [], "created_at": "2025-06-16T21:32:21.161-04:00", "updated_at": "2025-07-03T19:29:33.222-04:00", "avatar": "https://secure.gravatar.com/avatar/eb04c3ff185857eff96584a75cfbfa12.jpg?s=512&d=https%3A%2F%2Fa.slack-edge.com%2Fdf10d%2Fimg%2Favatars%2Fava_0001-512.png", "custom_css": null}], "pagination": {"page": 201, "pages": 1192, "count": 23828, "items": 20}}