{"users": [{"id": 4021, "slack_id": "U091MRUPTQD", "display_name": "Dev", "bio": null, "projects_count": 0, "devlogs_count": 0, "votes_count": 0, "ships_count": 0, "projects": [], "coding_time_seconds": 0, "coding_time_seconds_today": 0, "balance": "You need to have a pocket watcher badge to view this.", "badges": [], "created_at": "2025-06-16T21:32:48.310-04:00", "updated_at": "2025-07-03T19:29:33.490-04:00", "avatar": "https://secure.gravatar.com/avatar/22686fc54e1175d5954d917ad0ec3eee.jpg?s=512&d=https%3A%2F%2Fa.slack-edge.com%2Fdf10d%2Fimg%2Favatars%2Fava_0018-512.png", "custom_css": null}, {"id": 4022, "slack_id": "U091R8UHJQ2", "display_name": "Zenon C", "bio": null, "projects_count": 0, "devlogs_count": 0, "votes_count": 0, "ships_count": 0, "projects": [], "coding_time_seconds": 90523, "coding_time_seconds_today": 0, "balance": "You need to have a pocket watcher badge to view this.", "badges": [], "created_at": "2025-06-16T21:33:17.112-04:00", "updated_at": "2025-07-03T19:29:33.784-04:00", "avatar": "https://avatars.slack-edge.com/2025-06-16/9052739079827_787537ccecacf134344e_original.png", "custom_css": null}, {"id": 4023, "slack_id": "U092E0Y0PL0", "display_name": "Yoshiro", "bio": null, "projects_count": 0, "devlogs_count": 0, "votes_count": 0, "ships_count": 0, "projects": [], "coding_time_seconds": 0, "coding_time_seconds_today": 0, "balance": "You need to have a pocket watcher badge to view this.", "badges": [], "created_at": "2025-06-16T21:33:46.495-04:00", "updated_at": "2025-07-03T19:29:34.045-04:00", "avatar": "https://avatars.slack-edge.com/2025-06-16/9052742258723_1c8f6ea214822bdb7f06_original.jpg", "custom_css": null}, {"id": 4024, "slack_id": "U091A8BL6CX", "display_name": "Jasper", "bio": null, "projects_count": 0, "devlogs_count": 0, "votes_count": 0, "ships_count": 0, "projects": [], "coding_time_seconds": 0, "coding_time_seconds_today": 0, "balance": "You need to have a pocket watcher badge to view this.", "badges": [], "created_at": "2025-06-16T21:34:07.464-04:00", "updated_at": "2025-07-03T19:29:34.376-04:00", "avatar": "https://avatars.slack-edge.com/2025-06-16/9052741764707_2744be700a3d29670375_original.png", "custom_css": null}, {"id": 4025, "slack_id": "U091RUD4SAY", "display_name": "Ezra Chai", "bio": null, "projects_count": 0, "devlogs_count": 0, "votes_count": 0, "ships_count": 0, "projects": [], "coding_time_seconds": 3111, "coding_time_seconds_today": 0, "balance": "You need to have a pocket watcher badge to view this.", "badges": [], "created_at": "2025-06-16T21:34:18.693-04:00", "updated_at": "2025-07-03T19:29:34.642-04:00", "avatar": "https://secure.gravatar.com/avatar/328314cd3fcfc2aed433936d12f6efd4.jpg?s=512&d=https%3A%2F%2Fa.slack-edge.com%2Fdf10d%2Fimg%2Favatars%2Fava_0021-512.png", "custom_css": null}, {"id": 4026, "slack_id": "U07Q38PL8DD", "display_name": "An Pham", "bio": null, "projects_count": 4, "devlogs_count": 62, "votes_count": 41, "ships_count": 3, "projects": [{"id": 484, "title": "Custom_Birthday", "devlogs_count": 1, "created_at": "2025-06-16T23:20:18.573-04:00"}, {"id": 3824, "title": "Voices of Residents", "devlogs_count": 19, "created_at": "2025-06-25T22:30:52.625-04:00"}, {"id": 461, "title": "Fridgelet", "devlogs_count": 27, "created_at": "2025-06-16T22:24:20.958-04:00"}, {"id": 2235, "title": "Finportly", "devlogs_count": 15, "created_at": "2025-06-20T14:02:02.784-04:00"}], "coding_time_seconds": 560203, "coding_time_seconds_today": 0, "balance": "You need to have a pocket watcher badge to view this.", "badges": [{"name": "Maiden Voyage", "text": "you shipped your first project! the journey begins...", "icon": "\ud83d\udea2"}], "created_at": "2025-06-16T21:34:25.464-04:00", "updated_at": "2025-09-10T22:53:10.373-04:00", "avatar": "https://secure.gravatar.com/avatar/7f8decf46468154aeba8e6563a44d948.jpg?s=512&d=https%3A%2F%2Fa.slack-edge.com%2Fdf10d%2Fimg%2Favatars%2Fava_0009-512.png", "custom_css": null}, {"id": 4027, "slack_id": "U091A8B9E6B", "display_name": "Niel192", "bio": null, "projects_count": 0, "devlogs_count": 0, "votes_count": 0, "ships_count": 0, "projects": [], "coding_time_seconds": 0, "coding_time_seconds_today": 0, "balance": "You need to have a pocket watcher badge to view this.", "badges": [], "created_at": "2025-06-16T21:34:28.820-04:00", "updated_at": "2025-07-03T19:29:35.165-04:00", "avatar": "https://secure.gravatar.com/avatar/96309b689ce00e37a5715c81f4b5408a.jpg?s=512&d=https%3A%2F%2Fa.slack-edge.com%2Fdf10d%2Fimg%2Favatars%2Fava_0022-512.png", "custom_css": null}, {"id": 4028, "slack_id": "U091RUN2FTN", "display_name": "Rishi", "bio": null, "projects_count": 0, "devlogs_count": 0, "votes_count": 0, "ships_count": 0, "projects": [], "coding_time_seconds": 0, "coding_time_seconds_today": 0, "balance": "You need to have a pocket watcher badge to view this.", "badges": [], "created_at": "2025-06-16T21:35:39.265-04:00", "updated_at": "2025-07-03T19:29:35.437-04:00", "avatar": "https://secure.gravatar.com/avatar/59337f5da7cbab84b5718e2aaa72ff9d.jpg?s=512&d=https%3A%2F%2Fa.slack-edge.com%2Fdf10d%2Fimg%2Favatars%2Fava_0024-512.png", "custom_css": null}, {"id": 4029, "slack_id": "U09245FBY0Z", "display_name": "Anupam", "bio": null, "projects_count": 0, "devlogs_count": 0, "votes_count": 0, "ships_count": 0, "projects": [], "coding_time_seconds": 0, "coding_time_seconds_today": 0, "balance": "You need to have a pocket watcher badge to view this.", "badges": [], "created_at": "2025-06-16T21:35:48.790-04:00", "updated_at": "2025-07-03T19:29:35.705-04:00", "avatar": "https://secure.gravatar.com/avatar/774226b792841942734fa7a5a684f300.jpg?s=512&d=https%3A%2F%2Fa.slack-edge.com%2Fdf10d%2Fimg%2Favatars%2Fava_0007-512.png", "custom_css": null}, {"id": 4030, "slack_id": "U04FUN4J26Q", "display_name": "Captain A.J.", "bio": null, "projects_count": 1, "devlogs_count": 2, "votes_count": 0, "ships_count": 0, "projects": [{"id": 4066, "title": "Bird Islands-HackClub Demo", "devlogs_count": 2, "created_at": "2025-06-27T08:04:05.367-04:00"}], "coding_time_seconds": 12186, "coding_time_seconds_today": 0, "balance": "You need to have a pocket watcher badge to view this.", "badges": [], "created_at": "2025-06-16T21:36:16.219-04:00", "updated_at": "2025-08-12T14:40:36.714-04:00", "avatar": "https://avatars.slack-edge.com/2023-01-01/4595840877905_4f781d42afab6f23ccd4_original.jpg", "custom_css": null}, {"id": 4031, "slack_id": "U079JUC2FKR", "display_name": "Nikhil", "bio": null, "projects_count": 1, "devlogs_count": 4, "votes_count": 2, "ships_count": 0, "projects": [{"id": 556, "title": "3D D&D Terrain Builder", "devlogs_count": 4, "created_at": "2025-06-17T01:05:53.245-04:00"}], "coding_time_seconds": 38243, "coding_time_seconds_today": 0, "balance": "You need to have a pocket watcher badge to view this.", "badges": [], "created_at": "2025-06-16T21:36:38.768-04:00", "updated_at": "2025-07-03T19:29:36.249-04:00", "avatar": "https://avatars.slack-edge.com/2024-06-26/7336630987509_231cbb181fe78f75587f_original.gif", "custom_css": null}, {"id": 4032, "slack_id": "U091PRC3W5B", "display_name": "anika sri pulakurthi", "bio": null, "projects_count": 0, "devlogs_count": 0, "votes_count": 0, "ships_count": 0, "projects": [], "coding_time_seconds": 0, "coding_time_seconds_today": 0, "balance": "You need to have a pocket watcher badge to view this.", "badges": [], "created_at": "2025-06-16T21:37:23.489-04:00", "updated_at": "2025-07-03T19:29:36.517-04:00", "avatar": "https://secure.gravatar.com/avatar/5f2687a6cadbefb128fae317cf7079c3.jpg?s=512&d=https%3A%2F%2Fa.slack-edge.com%2Fdf10d%2Fimg%2Favatars%2Fava_0016-512.png", "custom_css": null}, {"id": 4033, "slack_id": "U082VGDFMQS", "display_name": "Khushi", "bio": null, "projects_count": 1, "devlogs_count": 1, "votes_count": 20, "ships_count": 1, "projects": [{"id": 12065, "title": "Mystical forest", "devlogs_count": 1, "created_at": "2025-08-22T14:42:33.727-04:00"}], "coding_time_seconds": 364453, "coding_time_seconds_today": 1832, "balance": "You need to have a pocket watcher badge to view this.", "badges": [{"name": "Maiden Voyage", "text": "you shipped your first project! the journey begins...", "icon": "\ud83d\udea2"}], "created_at": "2025-06-16T21:37:23.798-04:00", "updated_at": "2025-09-10T22:53:10.534-04:00", "avatar": "https://avatars.slack-edge.com/2025-08-11/9319872149063_a276ee1163f5fe7db4af_original.jpg", "custom_css": null}, {"id": 4034, "slack_id": "U07R9QGT989", "display_name": "IFunkyChunky", "bio": null, "projects_count": 0, "devlogs_count": 0, "votes_count": 0, "ships_count": 0, "projects": [], "coding_time_seconds": 16396, "coding_time_seconds_today": 0, "balance": "You need to have a pocket watcher badge to view this.", "badges": [], "created_at": "2025-06-16T21:37:25.453-04:00", "updated_at": "2025-07-03T19:29:37.043-04:00", "avatar": "https://avatars.slack-edge.com/2024-10-08/7859845758753_be28d3326dcbf4543d63_original.jpg", "custom_css": null}, {"id": 4035, "slack_id": "U091PQSE0SH", "display_name": "bjobers", "bio": null, "projects_count": 0, "devlogs_count": 0, "votes_count": 0, "ships_count": 0, "projects": [], "coding_time_seconds": 0, "coding_time_seconds_today": 0, "balance": "You need to have a pocket watcher badge to view this.", "badges": [], "created_at": "2025-06-16T21:37:25.599-04:00", "updated_at": "2025-07-03T19:29:37.302-04:00", "avatar": "https://secure.gravatar.com/avatar/aa24c079bd4b4e2fd14742dd1f97a5bd.jpg?s=512&d=https%3A%2F%2Fa.slack-edge.com%2Fdf10d%2Fimg%2Favatars%2Fava_0000-512.png", "custom_css": null}, {"id": 4036, "slack_id": "U091JR31KRU", "display_name": "sateesh", "bio": null, "projects_count": 0, "devlogs_count": 0, "votes_count": 0, "ships_count": 0, "projects": [], "coding_time_seconds": 0, "coding_time_seconds_today": 0, "balance": "You need to have a pocket watcher badge to view this.", "badges": [], "created_at": "2025-06-16T21:37:33.419-04:00", "updated_at": "2025-07-03T19:29:37.578-04:00", "avatar": "https://secure.gravatar.com/avatar/705c5e1edbd2e2878f62fd07a73e89a1.jpg?s=512&d=https%3A%2F%2Fa.slack-edge.com%2Fdf10d%2Fimg%2Favatars%2Fava_0013-512.png", "custom_css": null}, {"id": 4037, "slack_id": "U091PG4KL8L", "display_name": "John Hoffmann", "bio": null, "projects_count": 0, "devlogs_count": 0, "votes_count": 0, "ships_count": 0, "projects": [], "coding_time_seconds": 0, "coding_time_seconds_today": 0, "balance": "You need to have a pocket watcher badge to view this.", "badges": [], "created_at": "2025-06-16T21:37:42.653-04:00", "updated_at": "2025-07-03T19:29:37.838-04:00", "avatar": "https://secure.gravatar.com/avatar/8318dfc6a44b6d3180523d937006dd97.jpg?s=512&d=https%3A%2F%2Fa.slack-edge.com%2Fdf10d%2Fimg%2Favatars%2Fava_0013-512.png", "custom_css": null}, {"id": 4038, "slack_id": "U08MCCFCZCP", "display_name": "Jason Clarke", "bio": null, "projects_count": 0, "devlogs_count": 0, "votes_count": 0, "ships_count": 0, "projects": [], "coding_time_seconds": 0, "coding_time_seconds_today": 0, "balance": "You need to have a pocket watcher badge to view this.", "badges": [], "created_at": "2025-06-16T21:38:25.011-04:00", "updated_at": "2025-07-03T19:29:38.103-04:00", "avatar": "https://avatars.slack-edge.com/2025-04-11/8763342794960_55e9c0994ab3d71dc23c_original.png", "custom_css": null}, {"id": 4039, "slack_id": "U0595K6GMD0", "display_name": "Ivan Sivakov", "bio": null, "projects_count": 0, "devlogs_count": 0, "votes_count": 0, "ships_count": 0, "projects": [], "coding_time_seconds": 0, "coding_time_seconds_today": 0, "balance": "You need to have a pocket watcher badge to view this.", "badges": [], "created_at": "2025-06-16T21:38:36.775-04:00", "updated_at": "2025-07-03T19:29:38.359-04:00", "avatar": "https://avatars.slack-edge.com/2025-01-17/8316596711460_65fff0af0380920f80e9_original.jpg", "custom_css": null}, {"id": 4040, "slack_id": "U091PRFT0P7", "display_name": "Aadi Yadav", "bio": null, "projects_count": 0, "devlogs_count": 0, "votes_count": 0, "ships_count": 0, "projects": [], "coding_time_seconds": 153332, "coding_time_seconds_today": 0, "balance": "You need to have a pocket watcher badge to view this.", "badges": [], "created_at": "2025-06-16T21:39:07.685-04:00", "updated_at": "2025-07-03T19:29:38.622-04:00", "avatar": "https://avatars.slack-edge.com/2025-06-16/9072206012657_ad59785b3cc412368699_original.png", "custom_css": null}], "pagination": {"page": 202, "pages": 1192, "count": 23828, "items": 20}}