{"users": [{"id": 4041, "slack_id": "U08NVH0LASZ", "display_name": "Vincent H. Le", "bio": null, "projects_count": 0, "devlogs_count": 0, "votes_count": 0, "ships_count": 0, "projects": [], "coding_time_seconds": 0, "coding_time_seconds_today": 0, "balance": "You need to have a pocket watcher badge to view this.", "badges": [], "created_at": "2025-06-16T21:39:30.021-04:00", "updated_at": "2025-07-03T19:29:38.902-04:00", "avatar": "https://secure.gravatar.com/avatar/0569264456092e6cc7c592d67219738c.jpg?s=512&d=https%3A%2F%2Fa.slack-edge.com%2Fdf10d%2Fimg%2Favatars%2Fava_0014-512.png", "custom_css": null}, {"id": 4042, "slack_id": "U091RKETGAW", "display_name": "Rangga Gibran", "bio": null, "projects_count": 1, "devlogs_count": 0, "votes_count": 0, "ships_count": 0, "projects": [{"id": 452, "title": "Rumah Kita", "devlogs_count": 0, "created_at": "2025-06-16T21:57:59.834-04:00"}], "coding_time_seconds": 351575, "coding_time_seconds_today": 0, "balance": "You need to have a pocket watcher badge to view this.", "badges": [], "created_at": "2025-06-16T21:39:38.225-04:00", "updated_at": "2025-07-03T19:29:39.163-04:00", "avatar": "https://secure.gravatar.com/avatar/b40475445af22aa7d5d98a72f2bf45e6.jpg?s=512&d=https%3A%2F%2Fa.slack-edge.com%2Fdf10d%2Fimg%2Favatars%2Fava_0008-512.png", "custom_css": null}, {"id": 4043, "slack_id": "U091JHACETV", "display_name": "javier", "bio": null, "projects_count": 0, "devlogs_count": 0, "votes_count": 0, "ships_count": 0, "projects": [], "coding_time_seconds": 0, "coding_time_seconds_today": 0, "balance": "You need to have a pocket watcher badge to view this.", "badges": [], "created_at": "2025-06-16T21:39:57.973-04:00", "updated_at": "2025-07-03T19:29:39.438-04:00", "avatar": "https://secure.gravatar.com/avatar/6910627e8d1c99dd15c4179dc2cbae64.jpg?s=512&d=https%3A%2F%2Fa.slack-edge.com%2Fdf10d%2Fimg%2Favatars%2Fava_0019-512.png", "custom_css": null}, {"id": 4044, "slack_id": "U092E1UKJ1E", "display_name": "Navin Muthu", "bio": null, "projects_count": 0, "devlogs_count": 0, "votes_count": 0, "ships_count": 0, "projects": [], "coding_time_seconds": 0, "coding_time_seconds_today": 0, "balance": "You need to have a pocket watcher badge to view this.", "badges": [], "created_at": "2025-06-16T21:40:12.349-04:00", "updated_at": "2025-07-03T19:29:39.703-04:00", "avatar": "https://avatars.slack-edge.com/2025-06-16/9052879922166_a5c8fa92a5540dae4e4a_original.png", "custom_css": null}, {"id": 4045, "slack_id": "U0794K5A4BU", "display_name": "Jayden Q", "bio": null, "projects_count": 1, "devlogs_count": 2, "votes_count": 0, "ships_count": 0, "projects": [{"id": 451, "title": "locOS", "devlogs_count": 2, "created_at": "2025-06-16T21:57:24.899-04:00"}], "coding_time_seconds": 234750, "coding_time_seconds_today": 0, "balance": "You need to have a pocket watcher badge to view this.", "badges": [], "created_at": "2025-06-16T21:40:13.400-04:00", "updated_at": "2025-08-14T16:54:12.192-04:00", "avatar": "https://avatars.slack-edge.com/2025-06-16/9057880523285_cd41c056ece561e346c2_original.png", "custom_css": null}, {"id": 4046, "slack_id": "U079YLATW1H", "display_name": "Koala", "bio": null, "projects_count": 0, "devlogs_count": 0, "votes_count": 0, "ships_count": 0, "projects": [], "coding_time_seconds": 0, "coding_time_seconds_today": 0, "balance": "You need to have a pocket watcher badge to view this.", "badges": [], "created_at": "2025-06-16T21:40:52.512-04:00", "updated_at": "2025-07-03T19:29:40.236-04:00", "avatar": "https://avatars.slack-edge.com/2024-07-16/7439451640385_cbc55b4f1834d71dc4ca_original.png", "custom_css": null}, {"id": 4047, "slack_id": "U092E228M08", "display_name": "YdtTrank24", "bio": null, "projects_count": 0, "devlogs_count": 0, "votes_count": 0, "ships_count": 0, "projects": [], "coding_time_seconds": 34752, "coding_time_seconds_today": 0, "balance": "You need to have a pocket watcher badge to view this.", "badges": [], "created_at": "2025-06-16T21:40:56.806-04:00", "updated_at": "2025-07-03T19:29:40.497-04:00", "avatar": "https://secure.gravatar.com/avatar/26bbb5717ed4cfcb6bb4eacb6bfe1fea.jpg?s=512&d=https%3A%2F%2Fa.slack-edge.com%2Fdf10d%2Fimg%2Favatars%2Fava_0004-512.png", "custom_css": null}, {"id": 4048, "slack_id": "U08A79UV57G", "display_name": "Ted", "bio": null, "projects_count": 3, "devlogs_count": 7, "votes_count": 3, "ships_count": 0, "projects": [{"id": 6086, "title": "Roadmaply", "devlogs_count": 0, "created_at": "2025-07-10T13:23:09.580-04:00"}, {"id": 8426, "title": "Spotify Unwrapped", "devlogs_count": 7, "created_at": "2025-07-27T03:36:49.141-04:00"}, {"id": 8423, "title": "SpotifyUnwrapped", "devlogs_count": 0, "created_at": "2025-07-27T03:22:13.989-04:00"}], "coding_time_seconds": 84109, "coding_time_seconds_today": 0, "balance": "You need to have a pocket watcher badge to view this.", "badges": [], "created_at": "2025-06-16T21:41:31.809-04:00", "updated_at": "2025-07-03T19:29:40.765-04:00", "avatar": "https://avatars.slack-edge.com/2025-01-31/8373287667110_6bb4d491b196a0b0d5f5_original.png", "custom_css": null}, {"id": 4049, "slack_id": "U091PRNT2LD", "display_name": "Pius Anggoro", "bio": null, "projects_count": 0, "devlogs_count": 0, "votes_count": 0, "ships_count": 0, "projects": [], "coding_time_seconds": 0, "coding_time_seconds_today": 0, "balance": "You need to have a pocket watcher badge to view this.", "badges": [], "created_at": "2025-06-16T21:41:36.067-04:00", "updated_at": "2025-07-03T19:29:41.032-04:00", "avatar": "https://secure.gravatar.com/avatar/af0a24836e80c334f2157239c85fbe9f.jpg?s=512&d=https%3A%2F%2Fa.slack-edge.com%2Fdf10d%2Fimg%2Favatars%2Fava_0020-512.png", "custom_css": null}, {"id": 4050, "slack_id": "U091RV25F9A", "display_name": "M ABDUL AHAD", "bio": null, "projects_count": 0, "devlogs_count": 0, "votes_count": 0, "ships_count": 0, "projects": [], "coding_time_seconds": 17988, "coding_time_seconds_today": 0, "balance": "You need to have a pocket watcher badge to view this.", "badges": [], "created_at": "2025-06-16T21:42:28.708-04:00", "updated_at": "2025-07-03T19:29:41.298-04:00", "avatar": "https://avatars.slack-edge.com/2025-06-16/9059683854914_a86b02f6875fd97e3901_original.png", "custom_css": null}, {"id": 4051, "slack_id": "U0924566FC1", "display_name": "Nisarg Sanjaykumar Shah", "bio": null, "projects_count": 0, "devlogs_count": 0, "votes_count": 0, "ships_count": 0, "projects": [], "coding_time_seconds": 0, "coding_time_seconds_today": 0, "balance": "You need to have a pocket watcher badge to view this.", "badges": [], "created_at": "2025-06-16T21:42:52.418-04:00", "updated_at": "2025-07-03T19:29:41.564-04:00", "avatar": "https://avatars.slack-edge.com/2025-06-16/9059684778050_0f28c9b9c542a5cd8ab6_original.png", "custom_css": null}, {"id": 4052, "slack_id": "U080WQT1K53", "display_name": "Rishi Suryavanshi", "bio": null, "projects_count": 1, "devlogs_count": 2, "votes_count": 4, "ships_count": 1, "projects": [{"id": 3530, "title": "Tennis Match Prediction ML Model", "devlogs_count": 2, "created_at": "2025-06-24T15:34:08.700-04:00"}], "coding_time_seconds": 64883, "coding_time_seconds_today": 0, "balance": "You need to have a pocket watcher badge to view this.", "badges": [{"name": "Maiden Voyage", "text": "you shipped your first project! the journey begins...", "icon": "\ud83d\udea2"}], "created_at": "2025-06-16T21:42:55.569-04:00", "updated_at": "2025-09-10T22:53:11.039-04:00", "avatar": "https://avatars.slack-edge.com/2025-09-01/9470356835024_9617c64598a059f79518_original.jpg", "custom_css": null}, {"id": 4053, "slack_id": "U06B0JQ6Z8D", "display_name": "Aaron Hu", "bio": null, "projects_count": 0, "devlogs_count": 0, "votes_count": 0, "ships_count": 0, "projects": [], "coding_time_seconds": 0, "coding_time_seconds_today": 0, "balance": "You need to have a pocket watcher badge to view this.", "badges": [], "created_at": "2025-06-16T21:43:00.456-04:00", "updated_at": "2025-07-03T21:41:21.728-04:00", "avatar": "https://avatars.slack-edge.com/2023-12-20/6374636287221_4f3c21fd92ec709a1eee_original.png", "custom_css": null}, {"id": 4054, "slack_id": "U092E23J0KA", "display_name": "cj", "bio": null, "projects_count": 0, "devlogs_count": 0, "votes_count": 0, "ships_count": 0, "projects": [], "coding_time_seconds": 0, "coding_time_seconds_today": 0, "balance": "You need to have a pocket watcher badge to view this.", "badges": [], "created_at": "2025-06-16T21:43:17.576-04:00", "updated_at": "2025-07-03T19:29:42.242-04:00", "avatar": "https://secure.gravatar.com/avatar/5641f9ff21e874ef19720eebd2ede72d.jpg?s=512&d=https%3A%2F%2Fa.slack-edge.com%2Fdf10d%2Fimg%2Favatars%2Fava_0026-512.png", "custom_css": null}, {"id": 4055, "slack_id": "U08U8FWS4U9", "display_name": "Sariis", "bio": null, "projects_count": 0, "devlogs_count": 0, "votes_count": 0, "ships_count": 0, "projects": [], "coding_time_seconds": 0, "coding_time_seconds_today": 0, "balance": "You need to have a pocket watcher badge to view this.", "badges": [], "created_at": "2025-06-16T21:43:22.645-04:00", "updated_at": "2025-07-03T19:29:42.516-04:00", "avatar": "https://secure.gravatar.com/avatar/1c20cde773d78854c2717a8ce3773d54.jpg?s=512&d=https%3A%2F%2Fa.slack-edge.com%2Fdf10d%2Fimg%2Favatars%2Fava_0013-512.png", "custom_css": null}, {"id": 4056, "slack_id": "U091JRUM6F8", "display_name": "Ishtiaque Ahmed", "bio": null, "projects_count": 0, "devlogs_count": 0, "votes_count": 0, "ships_count": 0, "projects": [], "coding_time_seconds": 0, "coding_time_seconds_today": 0, "balance": "You need to have a pocket watcher badge to view this.", "badges": [], "created_at": "2025-06-16T21:43:29.280-04:00", "updated_at": "2025-07-03T19:29:42.787-04:00", "avatar": "https://secure.gravatar.com/avatar/6ce94ffbd9fb16d0d44fbc17f0ee96a8.jpg?s=512&d=https%3A%2F%2Fa.slack-edge.com%2Fdf10d%2Fimg%2Favatars%2Fava_0023-512.png", "custom_css": null}, {"id": 4057, "slack_id": "U04ARBSCXH9", "display_name": "vmss2009", "bio": null, "projects_count": 2, "devlogs_count": 9, "votes_count": 31, "ships_count": 1, "projects": [{"id": 453, "title": "HamaraLabs", "devlogs_count": 9, "created_at": "2025-06-16T22:00:18.852-04:00"}, {"id": 12408, "title": "A simple game", "devlogs_count": 0, "created_at": "2025-08-27T04:19:02.674-04:00"}], "coding_time_seconds": 340636, "coding_time_seconds_today": 0, "balance": "You need to have a pocket watcher badge to view this.", "badges": [{"name": "Maiden Voyage", "text": "you shipped your first project! the journey begins...", "icon": "\ud83d\udea2"}], "created_at": "2025-06-16T21:44:05.186-04:00", "updated_at": "2025-09-10T22:53:11.159-04:00", "avatar": "https://avatars.slack-edge.com/2025-05-05/8849172626019_b972dc5c0df1046e39f7_original.jpg", "custom_css": null}, {"id": 4058, "slack_id": "U07CNKZ8HB9", "display_name": "pdteggman", "bio": null, "projects_count": 3, "devlogs_count": 33, "votes_count": 20, "ships_count": 1, "projects": [{"id": 509, "title": "College Bank Clicker", "devlogs_count": 31, "created_at": "2025-06-16T23:54:23.204-04:00"}, {"id": 5358, "title": "AutoDisconnect", "devlogs_count": 1, "created_at": "2025-07-04T18:01:09.447-04:00"}, {"id": 6631, "title": "Discord Status as Image", "devlogs_count": 1, "created_at": "2025-07-14T17:13:55.815-04:00"}], "coding_time_seconds": 239116, "coding_time_seconds_today": 0, "balance": "You need to have a pocket watcher badge to view this.", "badges": [{"name": "Maiden Voyage", "text": "you shipped your first project! the journey begins...", "icon": "\ud83d\udea2"}], "created_at": "2025-06-16T21:44:06.558-04:00", "updated_at": "2025-09-10T22:53:11.190-04:00", "avatar": "https://secure.gravatar.com/avatar/6ee0ac710e29eb6cb31662e29c754a0d.jpg?s=512&d=https%3A%2F%2Fa.slack-edge.com%2Fdf10d%2Fimg%2Favatars%2Fava_0024-512.png", "custom_css": null}, {"id": 4059, "slack_id": "U074APVQM7G", "display_name": "Thatgeekkid", "bio": null, "projects_count": 1, "devlogs_count": 2, "votes_count": 0, "ships_count": 0, "projects": [{"id": 3356, "title": "EchoTrace | Protocol DayZero", "devlogs_count": 2, "created_at": "2025-06-24T00:13:00.404-04:00"}], "coding_time_seconds": 4082, "coding_time_seconds_today": 0, "balance": "You need to have a pocket watcher badge to view this.", "badges": [], "created_at": "2025-06-16T21:44:08.340-04:00", "updated_at": "2025-07-03T19:29:43.578-04:00", "avatar": "https://avatars.slack-edge.com/2024-05-21/7153474347346_56ebf1a4d7c4fa904bd6_original.jpg", "custom_css": null}, {"id": 4060, "slack_id": "U091JRVL63G", "display_name": "Alok Raj Shahi", "bio": null, "projects_count": 0, "devlogs_count": 0, "votes_count": 0, "ships_count": 0, "projects": [], "coding_time_seconds": 13092, "coding_time_seconds_today": 0, "balance": "You need to have a pocket watcher badge to view this.", "badges": [], "created_at": "2025-06-16T21:44:08.459-04:00", "updated_at": "2025-07-05T14:05:11.402-04:00", "avatar": "https://avatars.slack-edge.com/2025-06-16/9072220822545_85d5e12f8d7f5d872af9_original.png", "custom_css": null}], "pagination": {"page": 203, "pages": 1192, "count": 23828, "items": 20}}