{"users": [{"id": 4061, "slack_id": "U092465U99P", "display_name": "Juan Gonzalez", "bio": null, "projects_count": 0, "devlogs_count": 0, "votes_count": 0, "ships_count": 0, "projects": [], "coding_time_seconds": 0, "coding_time_seconds_today": 0, "balance": "You need to have a pocket watcher badge to view this.", "badges": [], "created_at": "2025-06-16T21:44:09.212-04:00", "updated_at": "2025-07-03T19:29:43.986-04:00", "avatar": "https://secure.gravatar.com/avatar/9e5949a11eed41dfb93f2a5f09441930.jpg?s=512&d=https%3A%2F%2Fa.slack-edge.com%2Fdf10d%2Fimg%2Favatars%2Fava_0021-512.png", "custom_css": null}, {"id": 4062, "slack_id": "U079WTUK2CQ", "display_name": "Alexander Galoyan", "bio": null, "projects_count": 3, "devlogs_count": 19, "votes_count": 53, "ships_count": 3, "projects": [{"id": 9196, "title": "Swing Game", "devlogs_count": 3, "created_at": "2025-07-31T00:27:13.703-04:00"}, {"id": 5374, "title": "Sunnyside Drop", "devlogs_count": 3, "created_at": "2025-07-04T21:55:45.816-04:00"}, {"id": 1191, "title": "To Die For", "devlogs_count": 13, "created_at": "2025-06-17T21:20:11.702-04:00"}], "coding_time_seconds": 189716, "coding_time_seconds_today": 0, "balance": "You need to have a pocket watcher badge to view this.", "badges": [{"name": "Maiden Voyage", "text": "you shipped your first project! the journey begins...", "icon": "\ud83d\udea2"}], "created_at": "2025-06-16T21:44:09.554-04:00", "updated_at": "2025-09-21T18:17:39.814-04:00", "avatar": "https://avatars.slack-edge.com/2025-09-21/9583759798160_50244835bd1dbe1733de_original.png", "custom_css": null}, {"id": 4063, "slack_id": "U091JRU53FY", "display_name": "ARBIN SHAKYA", "bio": null, "projects_count": 0, "devlogs_count": 0, "votes_count": 0, "ships_count": 0, "projects": [], "coding_time_seconds": 0, "coding_time_seconds_today": 0, "balance": "You need to have a pocket watcher badge to view this.", "badges": [], "created_at": "2025-06-16T21:44:15.182-04:00", "updated_at": "2025-07-03T19:29:44.515-04:00", "avatar": "https://avatars.slack-edge.com/2025-06-16/9059689230546_9e0727e6cbf1206245d7_original.png", "custom_css": null}, {"id": 4064, "slack_id": "U08BZS56Y8Z", "display_name": "TheOjas", "bio": null, "projects_count": 1, "devlogs_count": 1, "votes_count": 15, "ships_count": 1, "projects": [{"id": 3631, "title": "Askinfinity", "devlogs_count": 1, "created_at": "2025-06-25T03:43:40.846-04:00"}], "coding_time_seconds": 22602, "coding_time_seconds_today": 0, "balance": "You need to have a pocket watcher badge to view this.", "badges": [{"name": "Maiden Voyage", "text": "you shipped your first project! the journey begins...", "icon": "\ud83d\udea2"}], "created_at": "2025-06-16T21:44:17.488-04:00", "updated_at": "2025-09-10T22:53:11.408-04:00", "avatar": "https://avatars.slack-edge.com/2025-05-27/8970768475137_6e7dd2dcb3f67141761c_original.jpg", "custom_css": null}, {"id": 4065, "slack_id": "U091A8D69FH", "display_name": "Texel", "bio": null, "projects_count": 1, "devlogs_count": 1, "votes_count": 0, "ships_count": 0, "projects": [{"id": 542, "title": "Hyperflow", "devlogs_count": 1, "created_at": "2025-06-17T00:48:32.109-04:00"}], "coding_time_seconds": 141382, "coding_time_seconds_today": 0, "balance": "You need to have a pocket watcher badge to view this.", "badges": [], "created_at": "2025-06-16T21:44:36.488-04:00", "updated_at": "2025-07-03T19:29:45.135-04:00", "avatar": "https://secure.gravatar.com/avatar/46b4afbf6e9e22008a54926a425006c2.jpg?s=512&d=https%3A%2F%2Fa.slack-edge.com%2Fdf10d%2Fimg%2Favatars%2Fava_0011-512.png", "custom_css": null}, {"id": 4066, "slack_id": "U0865AM2PGV", "display_name": "Nahom Beletew", "bio": "I am nahom A passionate coder aiming to get satisfaction and macbook from his projects", "projects_count": 0, "devlogs_count": 49, "votes_count": 125, "ships_count": 0, "projects": [], "coding_time_seconds": 823625, "coding_time_seconds_today": 0, "balance": "You need to have a pocket watcher badge to view this.", "badges": [{"name": "Maiden Voyage", "text": "you shipped your first project! the journey begins...", "icon": "\ud83d\udea2"}, {"name": "Spider", "text": "this user has a pet!", "icon": "\ud83d\udd77\ufe0f"}, {"name": "Ballot Stuffer", "text": "vote 100 times.", "icon": "https://summer.hackclub.com/assets/i_voted-bf851b48.png"}], "created_at": "2025-06-16T21:45:31.696-04:00", "updated_at": "2025-09-10T22:53:11.460-04:00", "avatar": "https://avatars.slack-edge.com/2025-01-15/8320478032176_dec777fb88ed0d9d3b2d_original.jpg", "custom_css": null}, {"id": 4067, "slack_id": "U092469V9ND", "display_name": "jai", "bio": null, "projects_count": 0, "devlogs_count": 0, "votes_count": 0, "ships_count": 0, "projects": [], "coding_time_seconds": 0, "coding_time_seconds_today": 0, "balance": "You need to have a pocket watcher badge to view this.", "badges": [], "created_at": "2025-06-16T21:45:32.654-04:00", "updated_at": "2025-07-03T19:29:45.668-04:00", "avatar": "https://secure.gravatar.com/avatar/1eaa85d2c60fc5390b66ab0afe7862d6.jpg?s=512&d=https%3A%2F%2Fa.slack-edge.com%2Fdf10d%2Fimg%2Favatars%2Fava_0001-512.png", "custom_css": null}, {"id": 4068, "slack_id": "U091RL2MACS", "display_name": "ApekTahua", "bio": null, "projects_count": 0, "devlogs_count": 0, "votes_count": 0, "ships_count": 0, "projects": [], "coding_time_seconds": 5453, "coding_time_seconds_today": 0, "balance": "You need to have a pocket watcher badge to view this.", "badges": [], "created_at": "2025-06-16T21:45:37.722-04:00", "updated_at": "2025-07-03T19:29:45.935-04:00", "avatar": "https://secure.gravatar.com/avatar/f795fa6afd954d73639cd98434c53bb8.jpg?s=512&d=https%3A%2F%2Fa.slack-edge.com%2Fdf10d%2Fimg%2Favatars%2Fava_0024-512.png", "custom_css": null}, {"id": 4069, "slack_id": "U091JAPG8AX", "display_name": "kaju", "bio": null, "projects_count": 0, "devlogs_count": 0, "votes_count": 0, "ships_count": 0, "projects": [], "coding_time_seconds": 0, "coding_time_seconds_today": 0, "balance": "You need to have a pocket watcher badge to view this.", "badges": [], "created_at": "2025-06-16T21:45:48.326-04:00", "updated_at": "2025-07-03T19:29:46.202-04:00", "avatar": "https://secure.gravatar.com/avatar/d250a1ea51e6b5d4a86eff70796e2f3e.jpg?s=512&d=https%3A%2F%2Fa.slack-edge.com%2Fdf10d%2Fimg%2Favatars%2Fava_0005-512.png", "custom_css": null}, {"id": 4070, "slack_id": "U091RVCSV9A", "display_name": "Milo Lee", "bio": null, "projects_count": 0, "devlogs_count": 0, "votes_count": 0, "ships_count": 0, "projects": [], "coding_time_seconds": 0, "coding_time_seconds_today": 0, "balance": "You need to have a pocket watcher badge to view this.", "badges": [], "created_at": "2025-06-16T21:45:58.189-04:00", "updated_at": "2025-07-03T19:29:46.478-04:00", "avatar": "https://secure.gravatar.com/avatar/a84b820f0532905a5cc373d4aa9bb207.jpg?s=512&d=https%3A%2F%2Fa.slack-edge.com%2Fdf10d%2Fimg%2Favatars%2Fava_0014-512.png", "custom_css": null}, {"id": 4071, "slack_id": "U0703N7E3JT", "display_name": "infinity", "bio": null, "projects_count": 0, "devlogs_count": 0, "votes_count": 0, "ships_count": 0, "projects": [], "coding_time_seconds": 335059, "coding_time_seconds_today": 0, "balance": "You need to have a pocket watcher badge to view this.", "badges": [], "created_at": "2025-06-16T21:46:01.851-04:00", "updated_at": "2025-07-03T19:29:46.755-04:00", "avatar": "https://avatars.slack-edge.com/2024-05-24/7165419531030_b3d4a4ed8c1f7aa79c20_original.png", "custom_css": null}, {"id": 4072, "slack_id": "U091JRPQF0E", "display_name": "Lithium", "bio": null, "projects_count": 1, "devlogs_count": 7, "votes_count": 31, "ships_count": 1, "projects": [{"id": 636, "title": "LichiumBlog", "devlogs_count": 7, "created_at": "2025-06-17T03:45:16.389-04:00"}], "coding_time_seconds": 47455, "coding_time_seconds_today": 0, "balance": "You need to have a pocket watcher badge to view this.", "badges": [{"name": "Maiden Voyage", "text": "you shipped your first project! the journey begins...", "icon": "\ud83d\udea2"}], "created_at": "2025-06-16T21:46:06.181-04:00", "updated_at": "2025-09-10T22:53:11.604-04:00", "avatar": "https://avatars.slack-edge.com/2025-06-17/9060021835940_29524eaa4f42fa5608a2_original.jpg", "custom_css": null}, {"id": 4073, "slack_id": "U092465Q849", "display_name": "Shenal Raveesha Senarathna", "bio": null, "projects_count": 0, "devlogs_count": 0, "votes_count": 0, "ships_count": 0, "projects": [], "coding_time_seconds": 0, "coding_time_seconds_today": 0, "balance": "You need to have a pocket watcher badge to view this.", "badges": [], "created_at": "2025-06-16T21:46:08.759-04:00", "updated_at": "2025-07-03T19:29:47.304-04:00", "avatar": "https://avatars.slack-edge.com/2025-06-16/9052898199926_cb78bad4db3374be069f_original.png", "custom_css": null}, {"id": 4074, "slack_id": "U091RKZ9G0J", "display_name": "Danil", "bio": null, "projects_count": 0, "devlogs_count": 0, "votes_count": 0, "ships_count": 0, "projects": [], "coding_time_seconds": 0, "coding_time_seconds_today": 0, "balance": "You need to have a pocket watcher badge to view this.", "badges": [], "created_at": "2025-06-16T21:46:10.446-04:00", "updated_at": "2025-07-03T19:29:47.562-04:00", "avatar": "https://secure.gravatar.com/avatar/fc502f9d7f42d034299091753e9f40db.jpg?s=512&d=https%3A%2F%2Fa.slack-edge.com%2Fdf10d%2Fimg%2Favatars%2Fava_0016-512.png", "custom_css": null}, {"id": 4075, "slack_id": "U091RV45XBN", "display_name": "Vivaan", "bio": null, "projects_count": 0, "devlogs_count": 0, "votes_count": 0, "ships_count": 0, "projects": [], "coding_time_seconds": 0, "coding_time_seconds_today": 0, "balance": "You need to have a pocket watcher badge to view this.", "badges": [], "created_at": "2025-06-16T21:46:11.103-04:00", "updated_at": "2025-07-03T19:29:47.829-04:00", "avatar": "https://secure.gravatar.com/avatar/ade1627ff01db228094d4cfe2e83cf85.jpg?s=512&d=https%3A%2F%2Fa.slack-edge.com%2Fdf10d%2Fimg%2Favatars%2Fava_0003-512.png", "custom_css": null}, {"id": 4076, "slack_id": "U0914GKMEL8", "display_name": "Daniel Johnson", "bio": null, "projects_count": 0, "devlogs_count": 0, "votes_count": 0, "ships_count": 0, "projects": [], "coding_time_seconds": 0, "coding_time_seconds_today": 0, "balance": "You need to have a pocket watcher badge to view this.", "badges": [], "created_at": "2025-06-16T21:46:14.113-04:00", "updated_at": "2025-07-03T19:29:48.172-04:00", "avatar": "https://avatars.slack-edge.com/2025-06-06/8999177427911_b237c493d9844993b1e4_original.jpg", "custom_css": null}, {"id": 4077, "slack_id": "U092E25FBHN", "display_name": "Boudenzin", "bio": null, "projects_count": 0, "devlogs_count": 0, "votes_count": 0, "ships_count": 0, "projects": [], "coding_time_seconds": 0, "coding_time_seconds_today": 0, "balance": "You need to have a pocket watcher badge to view this.", "badges": [], "created_at": "2025-06-16T21:46:19.213-04:00", "updated_at": "2025-07-03T19:29:48.425-04:00", "avatar": "https://secure.gravatar.com/avatar/ada4eb7469881ea30bb3dd52124f5782.jpg?s=512&d=https%3A%2F%2Fa.slack-edge.com%2Fdf10d%2Fimg%2Favatars%2Fava_0014-512.png", "custom_css": null}, {"id": 4078, "slack_id": "U092E23AE1E", "display_name": "HK Harsh", "bio": "Im crazy....", "projects_count": 0, "devlogs_count": 28, "votes_count": 178, "ships_count": 0, "projects": [], "coding_time_seconds": 207390, "coding_time_seconds_today": 0, "balance": "You need to have a pocket watcher badge to view this.", "badges": [{"name": "Maiden Voyage", "text": "you shipped your first project! the journey begins...", "icon": "\ud83d\udea2"}, {"name": "Ballot Stuffer", "text": "vote 100 times.", "icon": "https://summer.hackclub.com/assets/i_voted-bf851b48.png"}], "created_at": "2025-06-16T21:46:40.493-04:00", "updated_at": "2025-09-10T22:53:11.962-04:00", "avatar": "https://avatars.slack-edge.com/2025-06-16/9052780004963_45def3e397cc1e4611e2_original.png", "custom_css": null}, {"id": 4079, "slack_id": "U08T4NX15T3", "display_name": "Orion", "bio": null, "projects_count": 0, "devlogs_count": 14, "votes_count": 22, "ships_count": 0, "projects": [], "coding_time_seconds": 247909, "coding_time_seconds_today": 0, "balance": "You need to have a pocket watcher badge to view this.", "badges": [{"name": "Maiden Voyage", "text": "you shipped your first project! the journey begins...", "icon": "\ud83d\udea2"}], "created_at": "2025-06-16T21:46:42.797-04:00", "updated_at": "2025-09-21T23:23:54.292-04:00", "avatar": "https://secure.gravatar.com/avatar/e14dac917ea6c74edcbfff71a80c4316.jpg?s=512&d=https%3A%2F%2Fa.slack-edge.com%2Fdf10d%2Fimg%2Favatars%2Fava_0015-512.png", "custom_css": null}, {"id": 4080, "slack_id": "U078C66R36J", "display_name": "Pawin", "bio": null, "projects_count": 2, "devlogs_count": 19, "votes_count": 2, "ships_count": 0, "projects": [{"id": 2797, "title": "Stenofruit", "devlogs_count": 13, "created_at": "2025-06-22T04:43:26.723-04:00"}, {"id": 6200, "title": "FoodManager", "devlogs_count": 6, "created_at": "2025-07-11T09:38:09.920-04:00"}], "coding_time_seconds": 348775, "coding_time_seconds_today": 0, "balance": "You need to have a pocket watcher badge to view this.", "badges": [], "created_at": "2025-06-16T21:47:12.799-04:00", "updated_at": "2025-08-19T06:32:16.760-04:00", "avatar": "https://secure.gravatar.com/avatar/f94086d89bff2dcf8a344782e77c34f0.jpg?s=512&d=https%3A%2F%2Fa.slack-edge.com%2Fdf10d%2Fimg%2Favatars%2Fava_0022-512.png", "custom_css": null}], "pagination": {"page": 204, "pages": 1192, "count": 23828, "items": 20}}