{"users": [{"id": 4081, "slack_id": "U091S03RSLU", "display_name": "Seo Requena", "bio": null, "projects_count": 0, "devlogs_count": 0, "votes_count": 0, "ships_count": 0, "projects": [], "coding_time_seconds": 0, "coding_time_seconds_today": 0, "balance": "You need to have a pocket watcher badge to view this.", "badges": [], "created_at": "2025-06-16T21:47:44.608-04:00", "updated_at": "2025-07-03T19:29:49.506-04:00", "avatar": "https://secure.gravatar.com/avatar/1b24590cc44a379efaf52a2193c77c2f.jpg?s=512&d=https%3A%2F%2Fa.slack-edge.com%2Fdf10d%2Fimg%2Favatars%2Fava_0018-512.png", "custom_css": null}, {"id": 4082, "slack_id": "U091PS5PUR3", "display_name": "KavyaSahithi", "bio": null, "projects_count": 0, "devlogs_count": 0, "votes_count": 0, "ships_count": 0, "projects": [], "coding_time_seconds": 0, "coding_time_seconds_today": 0, "balance": "You need to have a pocket watcher badge to view this.", "badges": [], "created_at": "2025-06-16T21:47:57.820-04:00", "updated_at": "2025-07-03T19:29:49.798-04:00", "avatar": "https://secure.gravatar.com/avatar/fba9e445eabd63d3e5dcfd2395811dc0.jpg?s=512&d=https%3A%2F%2Fa.slack-edge.com%2Fdf10d%2Fimg%2Favatars%2Fava_0016-512.png", "custom_css": null}, {"id": 4083, "slack_id": "U091JRYAPSS", "display_name": "Masoom", "bio": null, "projects_count": 0, "devlogs_count": 0, "votes_count": 0, "ships_count": 0, "projects": [], "coding_time_seconds": 0, "coding_time_seconds_today": 0, "balance": "You need to have a pocket watcher badge to view this.", "badges": [], "created_at": "2025-06-16T21:48:01.423-04:00", "updated_at": "2025-07-03T19:29:50.078-04:00", "avatar": "https://secure.gravatar.com/avatar/3d7a55d19ba0090925070776980d935a.jpg?s=512&d=https%3A%2F%2Fa.slack-edge.com%2Fdf10d%2Fimg%2Favatars%2Fava_0004-512.png", "custom_css": null}, {"id": 4084, "slack_id": "U091JNQTXFD", "display_name": "fadi", "bio": null, "projects_count": 0, "devlogs_count": 0, "votes_count": 0, "ships_count": 0, "projects": [], "coding_time_seconds": 0, "coding_time_seconds_today": 0, "balance": "You need to have a pocket watcher badge to view this.", "badges": [], "created_at": "2025-06-16T21:48:17.073-04:00", "updated_at": "2025-07-03T19:29:50.371-04:00", "avatar": "https://secure.gravatar.com/avatar/35f1acd16da83fd241bb7f97a3d687e9.jpg?s=512&d=https%3A%2F%2Fa.slack-edge.com%2Fdf10d%2Fimg%2Favatars%2Fava_0014-512.png", "custom_css": null}, {"id": 4085, "slack_id": "U08RW8YUYBA", "display_name": "Kmy", "bio": null, "projects_count": 0, "devlogs_count": 0, "votes_count": 0, "ships_count": 0, "projects": [], "coding_time_seconds": 95607, "coding_time_seconds_today": 0, "balance": "You need to have a pocket watcher badge to view this.", "badges": [], "created_at": "2025-06-16T21:48:27.079-04:00", "updated_at": "2025-07-03T19:29:50.657-04:00", "avatar": "https://secure.gravatar.com/avatar/a2071c839fe128d9127b86ebe4f80f3d.jpg?s=512&d=https%3A%2F%2Fa.slack-edge.com%2Fdf10d%2Fimg%2Favatars%2Fava_0018-512.png", "custom_css": null}, {"id": 4086, "slack_id": "U091A9M2ZV5", "display_name": "Dushan Puhulwellage", "bio": null, "projects_count": 0, "devlogs_count": 0, "votes_count": 0, "ships_count": 0, "projects": [], "coding_time_seconds": 45406, "coding_time_seconds_today": 0, "balance": "You need to have a pocket watcher badge to view this.", "badges": [], "created_at": "2025-06-16T21:48:38.241-04:00", "updated_at": "2025-07-03T19:29:50.922-04:00", "avatar": "https://secure.gravatar.com/avatar/76d98a72dad60143e24666c3eb2d3541.jpg?s=512&d=https%3A%2F%2Fa.slack-edge.com%2Fdf10d%2Fimg%2Favatars%2Fava_0012-512.png", "custom_css": null}, {"id": 4087, "slack_id": "U091PSCLN2H", "display_name": "Sunsun", "bio": null, "projects_count": 0, "devlogs_count": 0, "votes_count": 0, "ships_count": 0, "projects": [], "coding_time_seconds": 0, "coding_time_seconds_today": 0, "balance": "You need to have a pocket watcher badge to view this.", "badges": [], "created_at": "2025-06-16T21:48:40.252-04:00", "updated_at": "2025-07-03T19:29:51.195-04:00", "avatar": "https://secure.gravatar.com/avatar/f2e84285ecb4d93468cffa85eb6cd501.jpg?s=512&d=https%3A%2F%2Fa.slack-edge.com%2Fdf10d%2Fimg%2Favatars%2Fava_0004-512.png", "custom_css": null}, {"id": 4088, "slack_id": "U091RLEEP6E", "display_name": "0xaiman", "bio": null, "projects_count": 0, "devlogs_count": 0, "votes_count": 0, "ships_count": 0, "projects": [], "coding_time_seconds": 530122, "coding_time_seconds_today": 0, "balance": "You need to have a pocket watcher badge to view this.", "badges": [], "created_at": "2025-06-16T21:49:27.792-04:00", "updated_at": "2025-07-03T19:29:51.455-04:00", "avatar": "https://secure.gravatar.com/avatar/68df38b0269e4e63df159f21783ce0f6.jpg?s=512&d=https%3A%2F%2Fa.slack-edge.com%2Fdf10d%2Fimg%2Favatars%2Fava_0015-512.png", "custom_css": null}, {"id": 4089, "slack_id": "U091JSCUELW", "display_name": "Arctix Melody", "bio": null, "projects_count": 0, "devlogs_count": 0, "votes_count": 0, "ships_count": 0, "projects": [], "coding_time_seconds": 120, "coding_time_seconds_today": 0, "balance": "You need to have a pocket watcher badge to view this.", "badges": [], "created_at": "2025-06-16T21:49:43.733-04:00", "updated_at": "2025-07-03T19:29:51.730-04:00", "avatar": "https://secure.gravatar.com/avatar/f775c7d8501e44f0d7183bc990a8c295.jpg?s=512&d=https%3A%2F%2Fa.slack-edge.com%2Fdf10d%2Fimg%2Favatars%2Fava_0002-512.png", "custom_css": null}, {"id": 4090, "slack_id": "U091RHCV2MQ", "display_name": "Abdennour Mezouar", "bio": null, "projects_count": 0, "devlogs_count": 0, "votes_count": 0, "ships_count": 0, "projects": [], "coding_time_seconds": 0, "coding_time_seconds_today": 0, "balance": "You need to have a pocket watcher badge to view this.", "badges": [], "created_at": "2025-06-16T21:50:00.145-04:00", "updated_at": "2025-07-03T19:29:52.004-04:00", "avatar": "https://secure.gravatar.com/avatar/186a1f11f467adb5c6a814fc2ba5726c.jpg?s=512&d=https%3A%2F%2Fa.slack-edge.com%2Fdf10d%2Fimg%2Favatars%2Fava_0025-512.png", "custom_css": null}, {"id": 4091, "slack_id": "U092E2Q1YBS", "display_name": "Akshitha", "bio": null, "projects_count": 0, "devlogs_count": 0, "votes_count": 0, "ships_count": 0, "projects": [], "coding_time_seconds": 13968, "coding_time_seconds_today": 0, "balance": "You need to have a pocket watcher badge to view this.", "badges": [], "created_at": "2025-06-16T21:50:10.587-04:00", "updated_at": "2025-07-03T19:29:52.277-04:00", "avatar": "https://secure.gravatar.com/avatar/7203bb1d38770a391c6132f9bebe5016.jpg?s=512&d=https%3A%2F%2Fa.slack-edge.com%2Fdf10d%2Fimg%2Favatars%2Fava_0007-512.png", "custom_css": null}, {"id": 4092, "slack_id": "U092E2MURTJ", "display_name": "frezy", "bio": null, "projects_count": 0, "devlogs_count": 0, "votes_count": 0, "ships_count": 0, "projects": [], "coding_time_seconds": 0, "coding_time_seconds_today": 0, "balance": "You need to have a pocket watcher badge to view this.", "badges": [], "created_at": "2025-06-16T21:50:17.727-04:00", "updated_at": "2025-07-03T19:29:52.547-04:00", "avatar": "https://secure.gravatar.com/avatar/45865f4706ab684410a8a588ba39fe87.jpg?s=512&d=https%3A%2F%2Fa.slack-edge.com%2Fdf10d%2Fimg%2Favatars%2Fava_0023-512.png", "custom_css": null}, {"id": 4093, "slack_id": "U08PD2ZB3DL", "display_name": "gurt", "bio": null, "projects_count": 2, "devlogs_count": 1, "votes_count": 0, "ships_count": 0, "projects": [{"id": 3271, "title": "cathop", "devlogs_count": 1, "created_at": "2025-06-23T16:14:54.366-04:00"}, {"id": 3281, "title": "meowtime", "devlogs_count": 0, "created_at": "2025-06-23T16:41:02.144-04:00"}], "coding_time_seconds": 161333, "coding_time_seconds_today": 0, "balance": "You need to have a pocket watcher badge to view this.", "badges": [], "created_at": "2025-06-16T21:50:32.807-04:00", "updated_at": "2025-08-11T20:15:37.325-04:00", "avatar": "https://avatars.slack-edge.com/2025-07-11/9208742005072_62aa5f6d86ce1efa75c1_original.jpg", "custom_css": null}, {"id": 4094, "slack_id": "U091PS4UH6Z", "display_name": "Reynold Preetham", "bio": null, "projects_count": 0, "devlogs_count": 0, "votes_count": 0, "ships_count": 0, "projects": [], "coding_time_seconds": 0, "coding_time_seconds_today": 0, "balance": "You need to have a pocket watcher badge to view this.", "badges": [], "created_at": "2025-06-16T21:50:49.307-04:00", "updated_at": "2025-07-03T19:29:53.076-04:00", "avatar": "https://secure.gravatar.com/avatar/6243cfdd8d8429646aa1bd74374428ef.jpg?s=512&d=https%3A%2F%2Fa.slack-edge.com%2Fdf10d%2Fimg%2Favatars%2Fava_0018-512.png", "custom_css": null}, {"id": 4095, "slack_id": "U091S0L6SH2", "display_name": "3SR", "bio": null, "projects_count": 0, "devlogs_count": 0, "votes_count": 0, "ships_count": 0, "projects": [], "coding_time_seconds": 1037, "coding_time_seconds_today": 0, "balance": "You need to have a pocket watcher badge to view this.", "badges": [], "created_at": "2025-06-16T21:51:47.886-04:00", "updated_at": "2025-07-03T19:29:53.333-04:00", "avatar": "https://secure.gravatar.com/avatar/d1f8cb381a5c88bd2320df58b3bba725.jpg?s=512&d=https%3A%2F%2Fa.slack-edge.com%2Fdf10d%2Fimg%2Favatars%2Fava_0000-512.png", "custom_css": null}, {"id": 4096, "slack_id": "U07UP7STM4K", "display_name": "Evan B", "bio": null, "projects_count": 0, "devlogs_count": 0, "votes_count": 0, "ships_count": 0, "projects": [], "coding_time_seconds": 0, "coding_time_seconds_today": 0, "balance": "You need to have a pocket watcher badge to view this.", "badges": [], "created_at": "2025-06-16T21:52:00.213-04:00", "updated_at": "2025-07-03T19:29:53.595-04:00", "avatar": "https://secure.gravatar.com/avatar/5eff17066aea8e27e1ae4114a2630cd0.jpg?s=512&d=https%3A%2F%2Fa.slack-edge.com%2Fdf10d%2Fimg%2Favatars%2Fava_0014-512.png", "custom_css": null}, {"id": 4097, "slack_id": "U07B0EXK7U5", "display_name": "drew", "bio": "Hello!", "projects_count": 4, "devlogs_count": 36, "votes_count": 99, "ships_count": 3, "projects": [{"id": 11321, "title": "livewaffle.com", "devlogs_count": 1, "created_at": "2025-08-14T22:45:54.437-04:00"}, {"id": 956, "title": "Fusion Wakatime", "devlogs_count": 8, "created_at": "2025-06-17T12:16:45.871-04:00"}, {"id": 8149, "title": "hackOS", "devlogs_count": 8, "created_at": "2025-07-24T23:43:11.258-04:00"}, {"id": 4857, "title": "DOS INVASION", "devlogs_count": 14, "created_at": "2025-07-01T23:47:18.887-04:00"}], "coding_time_seconds": 353856, "coding_time_seconds_today": 0, "balance": "You need to have a pocket watcher badge to view this.", "badges": [{"name": "Maiden Voyage", "text": "you shipped your first project! the journey begins...", "icon": "\ud83d\udea2"}, {"name": "Graphic Design is My Passion", "text": "Oh God How Did This Get Here I Am Not Good With Computer", "icon": "\ud83c\udfa8"}, {"name": "Verified", "text": "this user is verified (i.e. gave us $8)", "icon": "https://summer.hackclub.com/assets/verified-c9457a9f.png"}, {"name": "Lived Mas", "text": "you know what you did.", "icon": "https://summer.hackclub.com/assets/bong-2a18e50d.png"}, {"name": "Ballot Stuffer", "text": "vote 100 times.", "icon": "https://summer.hackclub.com/assets/i_voted-bf851b48.png"}], "created_at": "2025-06-16T21:52:07.956-04:00", "updated_at": "2025-09-23T12:55:53.281-04:00", "avatar": "https://avatars.slack-edge.com/2025-09-23/9580088317201_536b96a1be18727ada79_original.jpg", "custom_css": ""}, {"id": 4098, "slack_id": "U092E2V61KJ", "display_name": "Quoc Hung", "bio": null, "projects_count": 0, "devlogs_count": 0, "votes_count": 0, "ships_count": 0, "projects": [], "coding_time_seconds": 0, "coding_time_seconds_today": 0, "balance": "You need to have a pocket watcher badge to view this.", "badges": [], "created_at": "2025-06-16T21:52:20.007-04:00", "updated_at": "2025-07-03T19:29:54.142-04:00", "avatar": "https://avatars.slack-edge.com/2025-06-16/9044345737463_39d7cc0cd67797b0dee7_original.png", "custom_css": null}, {"id": 4099, "slack_id": "U07F4MG0ABG", "display_name": "meghna", "bio": null, "projects_count": 2, "devlogs_count": 2, "votes_count": 0, "ships_count": 0, "projects": [{"id": 3976, "title": "Rock Paper Scissors Spock Lizard", "devlogs_count": 1, "created_at": "2025-06-26T15:30:38.729-04:00"}, {"id": 3978, "title": "Code Editor", "devlogs_count": 1, "created_at": "2025-06-26T15:33:26.261-04:00"}], "coding_time_seconds": 72597, "coding_time_seconds_today": 0, "balance": "You need to have a pocket watcher badge to view this.", "badges": [], "created_at": "2025-06-16T21:52:27.869-04:00", "updated_at": "2025-08-06T19:15:03.746-04:00", "avatar": "https://avatars.slack-edge.com/2024-09-28/7785175744871_f64bdd870959db78ee55_original.jpg", "custom_css": null}, {"id": 4100, "slack_id": "U091JSQ343G", "display_name": "uynNee", "bio": null, "projects_count": 0, "devlogs_count": 0, "votes_count": 0, "ships_count": 0, "projects": [], "coding_time_seconds": 0, "coding_time_seconds_today": 0, "balance": "You need to have a pocket watcher badge to view this.", "badges": [], "created_at": "2025-06-16T21:52:47.240-04:00", "updated_at": "2025-07-03T19:29:54.569-04:00", "avatar": "https://secure.gravatar.com/avatar/c1d85a94b71aa7df583441b65ce065ba.jpg?s=512&d=https%3A%2F%2Fa.slack-edge.com%2Fdf10d%2Fimg%2Favatars%2Fava_0008-512.png", "custom_css": null}], "pagination": {"page": 205, "pages": 1192, "count": 23828, "items": 20}}