{"users": [{"id": 4101, "slack_id": "U08PKQXB65B", "display_name": "Victor", "bio": null, "projects_count": 0, "devlogs_count": 0, "votes_count": 0, "ships_count": 0, "projects": [], "coding_time_seconds": 127603, "coding_time_seconds_today": 0, "balance": "You need to have a pocket watcher badge to view this.", "badges": [], "created_at": "2025-06-16T21:53:34.861-04:00", "updated_at": "2025-07-03T19:29:54.841-04:00", "avatar": "https://secure.gravatar.com/avatar/3921319803968a8c941ed7d9da2c6e3c.jpg?s=512&d=https%3A%2F%2Fa.slack-edge.com%2Fdf10d%2Fimg%2Favatars%2Fava_0021-512.png", "custom_css": null}, {"id": 4102, "slack_id": "U091JP9SBR9", "display_name": "joekoe", "bio": null, "projects_count": 0, "devlogs_count": 0, "votes_count": 0, "ships_count": 0, "projects": [], "coding_time_seconds": 0, "coding_time_seconds_today": 0, "balance": "You need to have a pocket watcher badge to view this.", "badges": [], "created_at": "2025-06-16T21:53:36.168-04:00", "updated_at": "2025-07-03T19:29:55.100-04:00", "avatar": "https://secure.gravatar.com/avatar/e714412c6eff2d959600e5ff235286e6.jpg?s=512&d=https%3A%2F%2Fa.slack-edge.com%2Fdf10d%2Fimg%2Favatars%2Fava_0026-512.png", "custom_css": null}, {"id": 4103, "slack_id": "U091A9YQS79", "display_name": "Rishi Dwivedi", "bio": null, "projects_count": 0, "devlogs_count": 0, "votes_count": 0, "ships_count": 0, "projects": [], "coding_time_seconds": 0, "coding_time_seconds_today": 0, "balance": "You need to have a pocket watcher badge to view this.", "badges": [], "created_at": "2025-06-16T21:53:41.130-04:00", "updated_at": "2025-07-03T19:29:55.363-04:00", "avatar": "https://avatars.slack-edge.com/2025-06-16/9057919853253_58f49abd7de81b702cbd_original.png", "custom_css": null}, {"id": 4104, "slack_id": "U092329JX89", "display_name": "AJ", "bio": null, "projects_count": 1, "devlogs_count": 3, "votes_count": 6, "ships_count": 1, "projects": [{"id": 13448, "title": "PlotTwist", "devlogs_count": 3, "created_at": "2025-09-16T16:51:27.674-04:00"}], "coding_time_seconds": 22215, "coding_time_seconds_today": 0, "balance": "You need to have a pocket watcher badge to view this.", "badges": [{"name": "Maiden Voyage", "text": "you shipped your first project! the journey begins...", "icon": "\ud83d\udea2"}], "created_at": "2025-06-16T21:53:48.900-04:00", "updated_at": "2025-09-22T22:09:51.285-04:00", "avatar": "https://avatars.slack-edge.com/2025-09-08/9463907765431_4604b3792951317af86e_original.png", "custom_css": null}, {"id": 4105, "slack_id": "U091RLN6YH0", "display_name": "Ryan", "bio": null, "projects_count": 0, "devlogs_count": 0, "votes_count": 0, "ships_count": 0, "projects": [], "coding_time_seconds": 0, "coding_time_seconds_today": 0, "balance": "You need to have a pocket watcher badge to view this.", "badges": [], "created_at": "2025-06-16T21:54:25.372-04:00", "updated_at": "2025-07-03T19:29:55.882-04:00", "avatar": "https://avatars.slack-edge.com/2025-06-16/9082113945792_9ccc05a5a78645a6772b_original.png", "custom_css": null}, {"id": 4106, "slack_id": "U092E33VBEU", "display_name": "Liu Yang", "bio": null, "projects_count": 0, "devlogs_count": 0, "votes_count": 0, "ships_count": 0, "projects": [], "coding_time_seconds": 0, "coding_time_seconds_today": 0, "balance": "You need to have a pocket watcher badge to view this.", "badges": [], "created_at": "2025-06-16T21:54:38.145-04:00", "updated_at": "2025-07-04T02:22:56.541-04:00", "avatar": "https://avatars.slack-edge.com/2025-06-16/9044350963655_68a04e758d7ce7e09be0_original.png", "custom_css": null}, {"id": 4107, "slack_id": "U092473NZGR", "display_name": "shahil kumar", "bio": null, "projects_count": 0, "devlogs_count": 0, "votes_count": 0, "ships_count": 0, "projects": [], "coding_time_seconds": 0, "coding_time_seconds_today": 0, "balance": "You need to have a pocket watcher badge to view this.", "badges": [], "created_at": "2025-06-16T21:55:08.484-04:00", "updated_at": "2025-07-03T19:29:56.289-04:00", "avatar": "https://secure.gravatar.com/avatar/afb0d21c0fdfc5e4c572007e8237b954.jpg?s=512&d=https%3A%2F%2Fa.slack-edge.com%2Fdf10d%2Fimg%2Favatars%2Fava_0000-512.png", "custom_css": null}, {"id": 4108, "slack_id": "U091RLW919Q", "display_name": "Ajinkya", "bio": null, "projects_count": 1, "devlogs_count": 0, "votes_count": 0, "ships_count": 0, "projects": [{"id": 609, "title": "Fyndd", "devlogs_count": 0, "created_at": "2025-06-17T02:40:49.013-04:00"}], "coding_time_seconds": 188798, "coding_time_seconds_today": 0, "balance": "You need to have a pocket watcher badge to view this.", "badges": [], "created_at": "2025-06-16T21:55:09.447-04:00", "updated_at": "2025-07-03T19:29:56.545-04:00", "avatar": "https://secure.gravatar.com/avatar/71edc6e0638303e337039c49ad879495.jpg?s=512&d=https%3A%2F%2Fa.slack-edge.com%2Fdf10d%2Fimg%2Favatars%2Fava_0016-512.png", "custom_css": null}, {"id": 4109, "slack_id": "U090QQ5J798", "display_name": "zinny lily", "bio": null, "projects_count": 0, "devlogs_count": 0, "votes_count": 0, "ships_count": 0, "projects": [], "coding_time_seconds": 6599, "coding_time_seconds_today": 0, "balance": "You need to have a pocket watcher badge to view this.", "badges": [], "created_at": "2025-06-16T21:55:23.613-04:00", "updated_at": "2025-08-04T02:19:46.139-04:00", "avatar": "https://avatars.slack-edge.com/2025-08-03/9313882726017_a3b43274e16168a33993_original.jpg", "custom_css": null}, {"id": 4110, "slack_id": "U091JRZSCLE", "display_name": "Dewan Mohsin Aktar", "bio": null, "projects_count": 0, "devlogs_count": 0, "votes_count": 0, "ships_count": 0, "projects": [], "coding_time_seconds": 0, "coding_time_seconds_today": 0, "balance": "You need to have a pocket watcher badge to view this.", "badges": [], "created_at": "2025-06-16T21:55:31.075-04:00", "updated_at": "2025-07-03T19:29:57.066-04:00", "avatar": "https://secure.gravatar.com/avatar/743b082d221f09287f40f907d7a53106.jpg?s=512&d=https%3A%2F%2Fa.slack-edge.com%2Fdf10d%2Fimg%2Favatars%2Fava_0024-512.png", "custom_css": null}, {"id": 4111, "slack_id": "U092E31LT5W", "display_name": "kartik", "bio": null, "projects_count": 0, "devlogs_count": 0, "votes_count": 0, "ships_count": 0, "projects": [], "coding_time_seconds": 0, "coding_time_seconds_today": 0, "balance": "You need to have a pocket watcher badge to view this.", "badges": [], "created_at": "2025-06-16T21:55:43.540-04:00", "updated_at": "2025-07-03T19:29:57.336-04:00", "avatar": "https://secure.gravatar.com/avatar/85f3188983fc6384143dc9e9ce758e99.jpg?s=512&d=https%3A%2F%2Fa.slack-edge.com%2Fdf10d%2Fimg%2Favatars%2Fava_0016-512.png", "custom_css": null}, {"id": 4112, "slack_id": "U08MBLV68KA", "display_name": "Kushal Gangarapu", "bio": null, "projects_count": 0, "devlogs_count": 0, "votes_count": 0, "ships_count": 0, "projects": [], "coding_time_seconds": 4662, "coding_time_seconds_today": 0, "balance": "You need to have a pocket watcher badge to view this.", "badges": [], "created_at": "2025-06-16T21:56:35.945-04:00", "updated_at": "2025-08-08T16:29:09.365-04:00", "avatar": "https://avatars.slack-edge.com/2025-07-21/9231099343429_8416e71d8fbc2c517d8a_original.jpg", "custom_css": null}, {"id": 4113, "slack_id": "U091S0UA1HA", "display_name": "Romir Patel", "bio": null, "projects_count": 2, "devlogs_count": 1, "votes_count": 1, "ships_count": 0, "projects": [{"id": 567, "title": "Simulation Stuff", "devlogs_count": 0, "created_at": "2025-06-17T01:32:40.435-04:00"}, {"id": 575, "title": "ScAI", "devlogs_count": 1, "created_at": "2025-06-17T01:39:57.870-04:00"}], "coding_time_seconds": 187731, "coding_time_seconds_today": 0, "balance": "You need to have a pocket watcher badge to view this.", "badges": [], "created_at": "2025-06-16T21:56:44.866-04:00", "updated_at": "2025-07-03T19:29:57.880-04:00", "avatar": "https://secure.gravatar.com/avatar/8aabdee64b49ad60ada7bb52a5ef9e86.jpg?s=512&d=https%3A%2F%2Fa.slack-edge.com%2Fdf10d%2Fimg%2Favatars%2Fava_0011-512.png", "custom_css": null}, {"id": 4114, "slack_id": "U07FWEL2R60", "display_name": "Avidraccoon5", "bio": null, "projects_count": 0, "devlogs_count": 0, "votes_count": 0, "ships_count": 0, "projects": [], "coding_time_seconds": 0, "coding_time_seconds_today": 0, "balance": "You need to have a pocket watcher badge to view this.", "badges": [], "created_at": "2025-06-16T21:57:52.408-04:00", "updated_at": "2025-07-03T19:29:58.151-04:00", "avatar": "https://secure.gravatar.com/avatar/00ae162aa5bee807928654b0130cfd59.jpg?s=512&d=https%3A%2F%2Fa.slack-edge.com%2Fdf10d%2Fimg%2Favatars%2Fava_0000-512.png", "custom_css": null}, {"id": 4115, "slack_id": "U09247F86AV", "display_name": "Kushal Rah", "bio": null, "projects_count": 0, "devlogs_count": 0, "votes_count": 0, "ships_count": 0, "projects": [], "coding_time_seconds": 122392, "coding_time_seconds_today": 0, "balance": "You need to have a pocket watcher badge to view this.", "badges": [], "created_at": "2025-06-16T21:58:16.817-04:00", "updated_at": "2025-07-03T19:29:58.428-04:00", "avatar": "https://secure.gravatar.com/avatar/b9f966bdee937ae051066acb100a1651.jpg?s=512&d=https%3A%2F%2Fa.slack-edge.com%2Fdf10d%2Fimg%2Favatars%2Fava_0026-512.png", "custom_css": null}, {"id": 4116, "slack_id": "U091JPRVB51", "display_name": "Remi", "bio": null, "projects_count": 0, "devlogs_count": 0, "votes_count": 0, "ships_count": 0, "projects": [], "coding_time_seconds": 0, "coding_time_seconds_today": 0, "balance": "You need to have a pocket watcher badge to view this.", "badges": [], "created_at": "2025-06-16T21:58:46.433-04:00", "updated_at": "2025-07-03T19:29:58.699-04:00", "avatar": "https://secure.gravatar.com/avatar/d899006eb5f6d7da37af7f166d9a8f44.jpg?s=512&d=https%3A%2F%2Fa.slack-edge.com%2Fdf10d%2Fimg%2Favatars%2Fava_0007-512.png", "custom_css": null}, {"id": 4117, "slack_id": "U089ZJAS89E", "display_name": "Sujith", "bio": null, "projects_count": 0, "devlogs_count": 0, "votes_count": 0, "ships_count": 0, "projects": [], "coding_time_seconds": 11766, "coding_time_seconds_today": 0, "balance": "You need to have a pocket watcher badge to view this.", "badges": [], "created_at": "2025-06-16T21:59:06.169-04:00", "updated_at": "2025-07-03T19:29:58.962-04:00", "avatar": "https://avatars.slack-edge.com/2025-02-17/8467774320756_461d63fb1b1427c0e8a0_original.png", "custom_css": null}, {"id": 4118, "slack_id": "U0847KFMUSC", "display_name": "Dwait Pandhi", "bio": null, "projects_count": 1, "devlogs_count": 1, "votes_count": 1, "ships_count": 1, "projects": [{"id": 5889, "title": "QuickForm", "devlogs_count": 1, "created_at": "2025-07-08T22:26:45.567-04:00"}], "coding_time_seconds": 341487, "coding_time_seconds_today": 0, "balance": "You need to have a pocket watcher badge to view this.", "badges": [{"name": "Maiden Voyage", "text": "you shipped your first project! the journey begins...", "icon": "\ud83d\udea2"}], "created_at": "2025-06-16T21:59:11.561-04:00", "updated_at": "2025-09-10T22:53:13.120-04:00", "avatar": "https://avatars.slack-edge.com/2025-08-21/9384023266435_0931d2d32b517c55e147_original.png", "custom_css": null}, {"id": 4119, "slack_id": "U091RKNLWCS", "display_name": "Shyamdeep", "bio": null, "projects_count": 0, "devlogs_count": 0, "votes_count": 0, "ships_count": 0, "projects": [], "coding_time_seconds": 750, "coding_time_seconds_today": 0, "balance": "You need to have a pocket watcher badge to view this.", "badges": [], "created_at": "2025-06-16T21:59:16.292-04:00", "updated_at": "2025-08-18T09:07:18.496-04:00", "avatar": "https://secure.gravatar.com/avatar/4a5a63a4a038cbc9088c498e775c9b9c.jpg?s=512&d=https%3A%2F%2Fa.slack-edge.com%2Fdf10d%2Fimg%2Favatars%2Fava_0010-512.png", "custom_css": null}, {"id": 4120, "slack_id": "U091S153DRS", "display_name": "Oliver LaRoach", "bio": null, "projects_count": 0, "devlogs_count": 0, "votes_count": 0, "ships_count": 0, "projects": [], "coding_time_seconds": 80358, "coding_time_seconds_today": 120, "balance": "You need to have a pocket watcher badge to view this.", "badges": [], "created_at": "2025-06-16T21:59:18.041-04:00", "updated_at": "2025-07-03T19:29:59.757-04:00", "avatar": "https://secure.gravatar.com/avatar/6fb2730cb8988d0b2029b24cbb1ef430.jpg?s=512&d=https%3A%2F%2Fa.slack-edge.com%2Fdf10d%2Fimg%2Favatars%2Fava_0019-512.png", "custom_css": null}], "pagination": {"page": 206, "pages": 1192, "count": 23828, "items": 20}}