{"users": [{"id": 4121, "slack_id": "U091PT062QM", "display_name": "Ayush", "bio": null, "projects_count": 0, "devlogs_count": 0, "votes_count": 0, "ships_count": 0, "projects": [], "coding_time_seconds": 0, "coding_time_seconds_today": 0, "balance": "You need to have a pocket watcher badge to view this.", "badges": [], "created_at": "2025-06-16T21:59:20.703-04:00", "updated_at": "2025-07-03T19:30:00.033-04:00", "avatar": "https://secure.gravatar.com/avatar/a71d2c3af7e50a858510f8f50c92ccc7.jpg?s=512&d=https%3A%2F%2Fa.slack-edge.com%2Fdf10d%2Fimg%2Favatars%2Fava_0017-512.png", "custom_css": null}, {"id": 4122, "slack_id": "U091S0W5REG", "display_name": "Kavya samar", "bio": null, "projects_count": 0, "devlogs_count": 0, "votes_count": 0, "ships_count": 0, "projects": [], "coding_time_seconds": 0, "coding_time_seconds_today": 0, "balance": "You need to have a pocket watcher badge to view this.", "badges": [], "created_at": "2025-06-16T21:59:29.853-04:00", "updated_at": "2025-07-03T19:30:00.311-04:00", "avatar": "https://secure.gravatar.com/avatar/c068466c5e44f018709e7ac24eb9af1c.jpg?s=512&d=https%3A%2F%2Fa.slack-edge.com%2Fdf10d%2Fimg%2Favatars%2Fava_0012-512.png", "custom_css": null}, {"id": 4123, "slack_id": "U092E3BK33J", "display_name": "mohamed aziz sridi", "bio": null, "projects_count": 0, "devlogs_count": 0, "votes_count": 0, "ships_count": 0, "projects": [], "coding_time_seconds": 0, "coding_time_seconds_today": 0, "balance": "You need to have a pocket watcher badge to view this.", "badges": [], "created_at": "2025-06-16T21:59:30.107-04:00", "updated_at": "2025-07-03T19:30:00.588-04:00", "avatar": "https://avatars.slack-edge.com/2025-06-16/9059735326994_7b5a8bfab209058d84d6_original.png", "custom_css": null}, {"id": 4124, "slack_id": "U09247EGUHX", "display_name": "D24TXCN01-N NGUYEN CONG TRU", "bio": null, "projects_count": 0, "devlogs_count": 0, "votes_count": 0, "ships_count": 0, "projects": [], "coding_time_seconds": 0, "coding_time_seconds_today": 0, "balance": "You need to have a pocket watcher badge to view this.", "badges": [], "created_at": "2025-06-16T21:59:32.969-04:00", "updated_at": "2025-07-03T19:30:00.857-04:00", "avatar": "https://avatars.slack-edge.com/2025-06-16/9072267349185_9fe155469098d67904ee_original.jpg", "custom_css": null}, {"id": 4125, "slack_id": "U091JT0S1SA", "display_name": "AJ Baily", "bio": null, "projects_count": 0, "devlogs_count": 0, "votes_count": 0, "ships_count": 0, "projects": [], "coding_time_seconds": 0, "coding_time_seconds_today": 0, "balance": "You need to have a pocket watcher badge to view this.", "badges": [], "created_at": "2025-06-16T21:59:38.024-04:00", "updated_at": "2025-07-03T19:30:01.123-04:00", "avatar": "https://secure.gravatar.com/avatar/7db8590b60e28cce3de11dba6c240678.jpg?s=512&d=https%3A%2F%2Fa.slack-edge.com%2Fdf10d%2Fimg%2Favatars%2Fava_0024-512.png", "custom_css": null}, {"id": 4126, "slack_id": "U091S17S96Y", "display_name": "Indian sisters", "bio": null, "projects_count": 0, "devlogs_count": 0, "votes_count": 0, "ships_count": 0, "projects": [], "coding_time_seconds": 0, "coding_time_seconds_today": 0, "balance": "You need to have a pocket watcher badge to view this.", "badges": [], "created_at": "2025-06-16T22:00:00.999-04:00", "updated_at": "2025-07-04T20:04:28.661-04:00", "avatar": "https://avatars.slack-edge.com/2025-06-16/9057939377493_5c0a35deec748014ca58_original.png", "custom_css": null}, {"id": 4127, "slack_id": "U05TSLM6AJD", "display_name": "Ritesh Raj", "bio": null, "projects_count": 0, "devlogs_count": 6, "votes_count": 0, "ships_count": 0, "projects": [], "coding_time_seconds": 386554, "coding_time_seconds_today": 0, "balance": "You need to have a pocket watcher badge to view this.", "badges": [], "created_at": "2025-06-16T22:00:23.821-04:00", "updated_at": "2025-07-09T16:52:28.826-04:00", "avatar": "https://secure.gravatar.com/avatar/a367f99234dc995bbde74b7167f58d7e.jpg?s=512&d=https%3A%2F%2Fa.slack-edge.com%2Fdf10d%2Fimg%2Favatars%2Fava_0002-512.png", "custom_css": null}, {"id": 4128, "slack_id": "U091S1D079A", "display_name": "Siva Kumar", "bio": null, "projects_count": 0, "devlogs_count": 0, "votes_count": 0, "ships_count": 0, "projects": [], "coding_time_seconds": 0, "coding_time_seconds_today": 0, "balance": "You need to have a pocket watcher badge to view this.", "badges": [], "created_at": "2025-06-16T22:01:16.258-04:00", "updated_at": "2025-07-06T14:04:40.446-04:00", "avatar": "https://secure.gravatar.com/avatar/257458d2601a6953c77e2aa10f01718c.jpg?s=512&d=https%3A%2F%2Fa.slack-edge.com%2Fdf10d%2Fimg%2Favatars%2Fava_0026-512.png", "custom_css": null}, {"id": 4129, "slack_id": "U091JT8G98E", "display_name": "Jashandeep Singh Gill", "bio": null, "projects_count": 0, "devlogs_count": 0, "votes_count": 0, "ships_count": 0, "projects": [], "coding_time_seconds": 0, "coding_time_seconds_today": 0, "balance": "You need to have a pocket watcher badge to view this.", "badges": [], "created_at": "2025-06-16T22:01:17.588-04:00", "updated_at": "2025-07-03T19:30:01.978-04:00", "avatar": "https://secure.gravatar.com/avatar/f7709486ddb8ed3c6b53764efa74bfda.jpg?s=512&d=https%3A%2F%2Fa.slack-edge.com%2Fdf10d%2Fimg%2Favatars%2Fava_0002-512.png", "custom_css": null}, {"id": 4130, "slack_id": "U092E3STFLY", "display_name": "Spc", "bio": null, "projects_count": 0, "devlogs_count": 0, "votes_count": 0, "ships_count": 0, "projects": [], "coding_time_seconds": 11637, "coding_time_seconds_today": 0, "balance": "You need to have a pocket watcher badge to view this.", "badges": [], "created_at": "2025-06-16T22:01:35.150-04:00", "updated_at": "2025-07-05T20:05:00.996-04:00", "avatar": "https://avatars.slack-edge.com/2025-06-17/9082193089440_f8d5c8bc4dee2d18c098_original.jpg", "custom_css": null}, {"id": 4131, "slack_id": "U092E3QSZ1N", "display_name": "Praveen BV", "bio": null, "projects_count": 1, "devlogs_count": 0, "votes_count": 0, "ships_count": 0, "projects": [{"id": 547, "title": "Scholara", "devlogs_count": 0, "created_at": "2025-06-17T00:53:31.897-04:00"}], "coding_time_seconds": 295742, "coding_time_seconds_today": 0, "balance": "You need to have a pocket watcher badge to view this.", "badges": [], "created_at": "2025-06-16T22:01:36.675-04:00", "updated_at": "2025-07-03T19:30:02.382-04:00", "avatar": "https://avatars.slack-edge.com/2025-06-16/9052947647718_dbf5cbbc5fe8615d2735_original.jpg", "custom_css": null}, {"id": 4132, "slack_id": "U091S15CDA8", "display_name": "Albert Kim", "bio": null, "projects_count": 0, "devlogs_count": 0, "votes_count": 0, "ships_count": 0, "projects": [], "coding_time_seconds": 13793, "coding_time_seconds_today": 0, "balance": "You need to have a pocket watcher badge to view this.", "badges": [], "created_at": "2025-06-16T22:01:51.106-04:00", "updated_at": "2025-07-03T19:30:02.677-04:00", "avatar": "https://avatars.slack-edge.com/2025-06-16/9082138523408_b3af82ce59d34954ccb5_original.png", "custom_css": null}, {"id": 4133, "slack_id": "U091AABHTL7", "display_name": "afic", "bio": null, "projects_count": 0, "devlogs_count": 0, "votes_count": 0, "ships_count": 0, "projects": [], "coding_time_seconds": 0, "coding_time_seconds_today": 0, "balance": "You need to have a pocket watcher badge to view this.", "badges": [], "created_at": "2025-06-16T22:02:01.834-04:00", "updated_at": "2025-07-03T19:30:02.941-04:00", "avatar": "https://secure.gravatar.com/avatar/df19774b806ea9febfba0df593d4c166.jpg?s=512&d=https%3A%2F%2Fa.slack-edge.com%2Fdf10d%2Fimg%2Favatars%2Fava_0023-512.png", "custom_css": null}, {"id": 4134, "slack_id": "U091RMS425Q", "display_name": "Ananya", "bio": null, "projects_count": 0, "devlogs_count": 0, "votes_count": 0, "ships_count": 0, "projects": [], "coding_time_seconds": 0, "coding_time_seconds_today": 0, "balance": "You need to have a pocket watcher badge to view this.", "badges": [], "created_at": "2025-06-16T22:02:51.109-04:00", "updated_at": "2025-07-06T08:04:39.472-04:00", "avatar": "https://secure.gravatar.com/avatar/4dcee0123c8e7347f39a7fde0c8a034f.jpg?s=512&d=https%3A%2F%2Fa.slack-edge.com%2Fdf10d%2Fimg%2Favatars%2Fava_0008-512.png", "custom_css": null}, {"id": 4135, "slack_id": "U091S1LHD0U", "display_name": "Krish", "bio": null, "projects_count": 1, "devlogs_count": 0, "votes_count": 0, "ships_count": 0, "projects": [{"id": 5019, "title": "Calculator", "devlogs_count": 0, "created_at": "2025-07-02T18:25:40.904-04:00"}], "coding_time_seconds": 1217, "coding_time_seconds_today": 0, "balance": "You need to have a pocket watcher badge to view this.", "badges": [], "created_at": "2025-06-16T22:02:58.905-04:00", "updated_at": "2025-07-03T19:30:03.359-04:00", "avatar": "https://secure.gravatar.com/avatar/bc7373020fb2aa6b2050aad38656b19b.jpg?s=512&d=https%3A%2F%2Fa.slack-edge.com%2Fdf10d%2Fimg%2Favatars%2Fava_0025-512.png", "custom_css": null}, {"id": 4136, "slack_id": "U092E3RHREC", "display_name": "ceg weggy", "bio": null, "projects_count": 0, "devlogs_count": 0, "votes_count": 0, "ships_count": 0, "projects": [], "coding_time_seconds": 0, "coding_time_seconds_today": 0, "balance": "You need to have a pocket watcher badge to view this.", "badges": [], "created_at": "2025-06-16T22:03:57.140-04:00", "updated_at": "2025-07-03T19:30:03.623-04:00", "avatar": "https://avatars.slack-edge.com/2025-06-16/9072283468993_c0cc6225788d09ff6d7e_original.png", "custom_css": null}, {"id": 4137, "slack_id": "U091JQ9G0D9", "display_name": "cjkk", "bio": null, "projects_count": 0, "devlogs_count": 0, "votes_count": 0, "ships_count": 0, "projects": [], "coding_time_seconds": 0, "coding_time_seconds_today": 0, "balance": "You need to have a pocket watcher badge to view this.", "badges": [], "created_at": "2025-06-16T22:04:16.960-04:00", "updated_at": "2025-07-03T19:30:03.890-04:00", "avatar": "https://secure.gravatar.com/avatar/5e6998bb16339f80e29cca447996f467.jpg?s=512&d=https%3A%2F%2Fa.slack-edge.com%2Fdf10d%2Fimg%2Favatars%2Fava_0023-512.png", "custom_css": null}, {"id": 4138, "slack_id": "U0905A1UGMR", "display_name": "Karuna", "bio": null, "projects_count": 0, "devlogs_count": 0, "votes_count": 0, "ships_count": 0, "projects": [], "coding_time_seconds": 0, "coding_time_seconds_today": 0, "balance": "You need to have a pocket watcher badge to view this.", "badges": [], "created_at": "2025-06-16T22:04:22.624-04:00", "updated_at": "2025-07-03T19:30:04.154-04:00", "avatar": "https://secure.gravatar.com/avatar/5b5b566756480a3aefc16053cfeaac6b.jpg?s=512&d=https%3A%2F%2Fa.slack-edge.com%2Fdf10d%2Fimg%2Favatars%2Fava_0006-512.png", "custom_css": null}, {"id": 4139, "slack_id": "U091RMU5CSE", "display_name": "sxasky", "bio": null, "projects_count": 0, "devlogs_count": 0, "votes_count": 0, "ships_count": 0, "projects": [], "coding_time_seconds": 984, "coding_time_seconds_today": 0, "balance": "You need to have a pocket watcher badge to view this.", "badges": [], "created_at": "2025-06-16T22:04:23.489-04:00", "updated_at": "2025-07-03T19:30:04.437-04:00", "avatar": "https://secure.gravatar.com/avatar/e247dda2cc6c3fdc031db1d934473eda.jpg?s=512&d=https%3A%2F%2Fa.slack-edge.com%2Fdf10d%2Fimg%2Favatars%2Fava_0000-512.png", "custom_css": null}, {"id": 4140, "slack_id": "U091JFY5B1U", "display_name": "Simrit Kakkar", "bio": null, "projects_count": 0, "devlogs_count": 0, "votes_count": 0, "ships_count": 0, "projects": [], "coding_time_seconds": 8772, "coding_time_seconds_today": 0, "balance": "You need to have a pocket watcher badge to view this.", "badges": [], "created_at": "2025-06-16T22:04:44.262-04:00", "updated_at": "2025-07-03T19:30:04.701-04:00", "avatar": "https://avatars.slack-edge.com/2025-06-16/9052839096451_b8f0c4dbffea3a7d04c1_original.png", "custom_css": null}], "pagination": {"page": 207, "pages": 1192, "count": 23828, "items": 20}}