{"users": [{"id": 4161, "slack_id": "U091JUF6PTQ", "display_name": "Lohitha Garapati", "bio": null, "projects_count": 0, "devlogs_count": 0, "votes_count": 0, "ships_count": 0, "projects": [], "coding_time_seconds": 0, "coding_time_seconds_today": 0, "balance": "You need to have a pocket watcher badge to view this.", "badges": [], "created_at": "2025-06-16T22:11:24.162-04:00", "updated_at": "2025-07-03T19:30:10.298-04:00", "avatar": "https://avatars.slack-edge.com/2025-06-16/9072307441553_e5c2f4b092341088d87d_original.png", "custom_css": null}, {"id": 4162, "slack_id": "U091JU0PGFQ", "display_name": "Daiki", "bio": null, "projects_count": 0, "devlogs_count": 0, "votes_count": 0, "ships_count": 0, "projects": [], "coding_time_seconds": 0, "coding_time_seconds_today": 0, "balance": "You need to have a pocket watcher badge to view this.", "badges": [], "created_at": "2025-06-16T22:11:48.139-04:00", "updated_at": "2025-07-03T19:30:10.578-04:00", "avatar": "https://secure.gravatar.com/avatar/71e51f1e4721713527184b0a4570a0de.jpg?s=512&d=https%3A%2F%2Fa.slack-edge.com%2Fdf10d%2Fimg%2Favatars%2Fava_0009-512.png", "custom_css": null}, {"id": 4163, "slack_id": "U0799S3V0BC", "display_name": "Scrounge", "bio": null, "projects_count": 0, "devlogs_count": 0, "votes_count": 0, "ships_count": 0, "projects": [], "coding_time_seconds": 0, "coding_time_seconds_today": 0, "balance": "You need to have a pocket watcher badge to view this.", "badges": [], "created_at": "2025-06-16T22:11:58.849-04:00", "updated_at": "2025-07-16T02:18:30.907-04:00", "avatar": "https://avatars.slack-edge.com/2025-07-16/9189711372743_4fa004e21946741d5174_original.png", "custom_css": null}, {"id": 4164, "slack_id": "U091AB8G5UP", "display_name": "Shady Algammal", "bio": null, "projects_count": 0, "devlogs_count": 0, "votes_count": 0, "ships_count": 0, "projects": [], "coding_time_seconds": 0, "coding_time_seconds_today": 0, "balance": "You need to have a pocket watcher badge to view this.", "badges": [], "created_at": "2025-06-16T22:12:01.816-04:00", "updated_at": "2025-07-03T19:30:11.101-04:00", "avatar": "https://secure.gravatar.com/avatar/dbebbfe7108a39258a152a5655ae6c35.jpg?s=512&d=https%3A%2F%2Fa.slack-edge.com%2Fdf10d%2Fimg%2Favatars%2Fava_0012-512.png", "custom_css": null}, {"id": 4165, "slack_id": "U092E4MMPPA", "display_name": "kaydash", "bio": null, "projects_count": 0, "devlogs_count": 0, "votes_count": 0, "ships_count": 0, "projects": [], "coding_time_seconds": 0, "coding_time_seconds_today": 0, "balance": "You need to have a pocket watcher badge to view this.", "badges": [], "created_at": "2025-06-16T22:12:32.780-04:00", "updated_at": "2025-07-03T19:30:11.361-04:00", "avatar": "https://secure.gravatar.com/avatar/7d5878cbc1cbe62cd68e7c534ad34799.jpg?s=512&d=https%3A%2F%2Fa.slack-edge.com%2Fdf10d%2Fimg%2Favatars%2Fava_0017-512.png", "custom_css": null}, {"id": 4166, "slack_id": "U086M6UCADU", "display_name": "Joel Jo", "bio": "", "projects_count": 0, "devlogs_count": 11, "votes_count": 34, "ships_count": 0, "projects": [], "coding_time_seconds": 150259, "coding_time_seconds_today": 0, "balance": "You need to have a pocket watcher badge to view this.", "badges": [{"name": "Maiden Voyage", "text": "you shipped your first project! the journey begins...", "icon": "\ud83d\udea2"}], "created_at": "2025-06-16T22:12:43.451-04:00", "updated_at": "2025-09-10T22:53:14.573-04:00", "avatar": "https://avatars.slack-edge.com/2025-06-22/9070957782871_838f348b4f31caa1dabc_original.jpg", "custom_css": null}, {"id": 4167, "slack_id": "U07HJAL0P9Q", "display_name": "Burger", "bio": null, "projects_count": 0, "devlogs_count": 0, "votes_count": 0, "ships_count": 0, "projects": [], "coding_time_seconds": 0, "coding_time_seconds_today": 0, "balance": "You need to have a pocket watcher badge to view this.", "badges": [], "created_at": "2025-06-16T22:12:51.858-04:00", "updated_at": "2025-07-03T19:30:11.894-04:00", "avatar": "https://avatars.slack-edge.com/2025-02-25/8509020407378_59e92e6507a17d5c4b12_original.png", "custom_css": null}, {"id": 4168, "slack_id": "U08SF8YEZ1Q", "display_name": "shais5738", "bio": null, "projects_count": 0, "devlogs_count": 0, "votes_count": 1, "ships_count": 0, "projects": [], "coding_time_seconds": 0, "coding_time_seconds_today": 0, "balance": "You need to have a pocket watcher badge to view this.", "badges": [], "created_at": "2025-06-16T22:13:03.186-04:00", "updated_at": "2025-07-31T22:19:00.983-04:00", "avatar": "https://avatars.slack-edge.com/2025-05-22/8936883798229_62416ba2f7cabcc65691_original.jpg", "custom_css": null}, {"id": 4169, "slack_id": "U091PUKSP4M", "display_name": "Rafael", "bio": null, "projects_count": 0, "devlogs_count": 0, "votes_count": 0, "ships_count": 0, "projects": [], "coding_time_seconds": 0, "coding_time_seconds_today": 0, "balance": "You need to have a pocket watcher badge to view this.", "badges": [], "created_at": "2025-06-16T22:13:15.867-04:00", "updated_at": "2025-07-03T19:30:12.414-04:00", "avatar": "https://secure.gravatar.com/avatar/554e74fb3fc6a0af498389376fcabca4.jpg?s=512&d=https%3A%2F%2Fa.slack-edge.com%2Fdf10d%2Fimg%2Favatars%2Fava_0011-512.png", "custom_css": null}, {"id": 4170, "slack_id": "U07AZTZTK98", "display_name": "Andrew", "bio": null, "projects_count": 0, "devlogs_count": 0, "votes_count": 0, "ships_count": 0, "projects": [], "coding_time_seconds": 132525, "coding_time_seconds_today": 0, "balance": "You need to have a pocket watcher badge to view this.", "badges": [], "created_at": "2025-06-16T22:13:31.043-04:00", "updated_at": "2025-07-03T19:30:12.691-04:00", "avatar": "https://secure.gravatar.com/avatar/bb285ad8481c61dc3ac34bfe68ad3cfb.jpg?s=512&d=https%3A%2F%2Fa.slack-edge.com%2Fdf10d%2Fimg%2Favatars%2Fava_0009-512.png", "custom_css": null}, {"id": 4171, "slack_id": "U091S1SDEHJ", "display_name": "Ansh Singhal", "bio": null, "projects_count": 0, "devlogs_count": 0, "votes_count": 0, "ships_count": 0, "projects": [], "coding_time_seconds": 0, "coding_time_seconds_today": 0, "balance": "You need to have a pocket watcher badge to view this.", "badges": [], "created_at": "2025-06-16T22:13:42.747-04:00", "updated_at": "2025-07-03T19:30:12.968-04:00", "avatar": "https://secure.gravatar.com/avatar/9b19b978e75a588ab177c3fef5119e8f.jpg?s=512&d=https%3A%2F%2Fa.slack-edge.com%2Fdf10d%2Fimg%2Favatars%2Fava_0026-512.png", "custom_css": null}, {"id": 4172, "slack_id": "U06TW2BKK5H", "display_name": "Trig", "bio": null, "projects_count": 0, "devlogs_count": 0, "votes_count": 0, "ships_count": 0, "projects": [], "coding_time_seconds": 0, "coding_time_seconds_today": 0, "balance": "You need to have a pocket watcher badge to view this.", "badges": [], "created_at": "2025-06-16T22:14:01.346-04:00", "updated_at": "2025-07-03T19:30:13.232-04:00", "avatar": "https://secure.gravatar.com/avatar/a462469e197d0ba56797a097197ee074.jpg?s=512&d=https%3A%2F%2Fa.slack-edge.com%2Fdf10d%2Fimg%2Favatars%2Fava_0015-512.png", "custom_css": null}, {"id": 4173, "slack_id": "U091JUSLEFQ", "display_name": "Jude", "bio": null, "projects_count": 0, "devlogs_count": 0, "votes_count": 0, "ships_count": 0, "projects": [], "coding_time_seconds": 3754, "coding_time_seconds_today": 0, "balance": "You need to have a pocket watcher badge to view this.", "badges": [], "created_at": "2025-06-16T22:14:18.574-04:00", "updated_at": "2025-07-03T19:30:13.488-04:00", "avatar": "https://secure.gravatar.com/avatar/a35dea2a0fe62baa3afb92d0878c0e94.jpg?s=512&d=https%3A%2F%2Fa.slack-edge.com%2Fdf10d%2Fimg%2Favatars%2Fava_0013-512.png", "custom_css": null}, {"id": 4174, "slack_id": "U091ABYMKUP", "display_name": "viraj", "bio": null, "projects_count": 0, "devlogs_count": 0, "votes_count": 0, "ships_count": 0, "projects": [], "coding_time_seconds": 0, "coding_time_seconds_today": 0, "balance": "You need to have a pocket watcher badge to view this.", "badges": [], "created_at": "2025-06-16T22:14:18.808-04:00", "updated_at": "2025-07-03T19:30:13.770-04:00", "avatar": "https://secure.gravatar.com/avatar/a59624f8be55f5f9d9bf25e166b971b1.jpg?s=512&d=https%3A%2F%2Fa.slack-edge.com%2Fdf10d%2Fimg%2Favatars%2Fava_0007-512.png", "custom_css": null}, {"id": 4175, "slack_id": "U08LP3U1NJC", "display_name": "elkammar", "bio": null, "projects_count": 0, "devlogs_count": 0, "votes_count": 0, "ships_count": 0, "projects": [], "coding_time_seconds": 0, "coding_time_seconds_today": 0, "balance": "You need to have a pocket watcher badge to view this.", "badges": [], "created_at": "2025-06-16T22:14:31.896-04:00", "updated_at": "2025-07-03T19:30:14.037-04:00", "avatar": "https://secure.gravatar.com/avatar/1ce038e6b8c615d0d5530590f6fbe6a3.jpg?s=512&d=https%3A%2F%2Fa.slack-edge.com%2Fdf10d%2Fimg%2Favatars%2Fava_0005-512.png", "custom_css": null}, {"id": 4176, "slack_id": "U09248Y1AFK", "display_name": "Viet Anh", "bio": null, "projects_count": 0, "devlogs_count": 0, "votes_count": 0, "ships_count": 0, "projects": [], "coding_time_seconds": 1, "coding_time_seconds_today": 0, "balance": "You need to have a pocket watcher badge to view this.", "badges": [], "created_at": "2025-06-16T22:14:57.696-04:00", "updated_at": "2025-07-03T19:30:14.302-04:00", "avatar": "https://secure.gravatar.com/avatar/0ea16d250ff92f5010053fe7ad032a2e.jpg?s=512&d=https%3A%2F%2Fa.slack-edge.com%2Fdf10d%2Fimg%2Favatars%2Fava_0006-512.png", "custom_css": null}, {"id": 4177, "slack_id": "U0924938H25", "display_name": "Abbel", "bio": null, "projects_count": 0, "devlogs_count": 0, "votes_count": 0, "ships_count": 0, "projects": [], "coding_time_seconds": 0, "coding_time_seconds_today": 0, "balance": "You need to have a pocket watcher badge to view this.", "badges": [], "created_at": "2025-06-16T22:14:59.122-04:00", "updated_at": "2025-07-03T19:30:14.576-04:00", "avatar": "https://secure.gravatar.com/avatar/344e45279e472a63501023d8619b1b6a.jpg?s=512&d=https%3A%2F%2Fa.slack-edge.com%2Fdf10d%2Fimg%2Favatars%2Fava_0011-512.png", "custom_css": null}, {"id": 4178, "slack_id": "U091PUT4ZKP", "display_name": "yafira", "bio": null, "projects_count": 0, "devlogs_count": 0, "votes_count": 0, "ships_count": 0, "projects": [], "coding_time_seconds": 0, "coding_time_seconds_today": 0, "balance": "You need to have a pocket watcher badge to view this.", "badges": [], "created_at": "2025-06-16T22:15:04.743-04:00", "updated_at": "2025-07-03T19:30:14.835-04:00", "avatar": "https://secure.gravatar.com/avatar/4fca213d3d936338bb8106f78aea275f.jpg?s=512&d=https%3A%2F%2Fa.slack-edge.com%2Fdf10d%2Fimg%2Favatars%2Fava_0001-512.png", "custom_css": null}, {"id": 4179, "slack_id": "U0923TL1A4R", "display_name": "Nathan Kim", "bio": null, "projects_count": 2, "devlogs_count": 1, "votes_count": 0, "ships_count": 0, "projects": [{"id": 2360, "title": "Learning C", "devlogs_count": 1, "created_at": "2025-06-20T20:07:16.033-04:00"}, {"id": 9874, "title": "Google Extension", "devlogs_count": 0, "created_at": "2025-08-02T15:42:42.531-04:00"}], "coding_time_seconds": 15039, "coding_time_seconds_today": 0, "balance": "You need to have a pocket watcher badge to view this.", "badges": [], "created_at": "2025-06-16T22:15:27.133-04:00", "updated_at": "2025-08-02T15:36:17.804-04:00", "avatar": "https://avatars.slack-edge.com/2025-06-16/9052992023814_e163c5022c38f89bc9e2_original.jpg", "custom_css": null}, {"id": 4180, "slack_id": "U08RVF1BAN4", "display_name": "Barnav (Jos)", "bio": null, "projects_count": 1, "devlogs_count": 2, "votes_count": 1, "ships_count": 0, "projects": [{"id": 10791, "title": "Soul Realms", "devlogs_count": 2, "created_at": "2025-08-10T21:25:17.008-04:00"}], "coding_time_seconds": 60222, "coding_time_seconds_today": 0, "balance": "You need to have a pocket watcher badge to view this.", "badges": [], "created_at": "2025-06-16T22:15:29.241-04:00", "updated_at": "2025-08-10T21:23:08.178-04:00", "avatar": "https://secure.gravatar.com/avatar/f1bf4e1d02b06895e3e685e145638087.jpg?s=512&d=https%3A%2F%2Fa.slack-edge.com%2Fdf10d%2Fimg%2Favatars%2Fava_0002-512.png", "custom_css": null}], "pagination": {"page": 209, "pages": 1192, "count": 23828, "items": 20}}