{"users": [{"id": 401, "slack_id": "U0918SBT614", "display_name": "Aditya", "bio": null, "projects_count": 0, "devlogs_count": 0, "votes_count": 0, "ships_count": 0, "projects": [], "coding_time_seconds": 5914, "coding_time_seconds_today": 0, "balance": "You need to have a pocket watcher badge to view this.", "badges": [], "created_at": "2025-06-16T11:26:24.599-04:00", "updated_at": "2025-07-03T19:12:49.374-04:00", "avatar": "https://secure.gravatar.com/avatar/cde931159d44fa622d7cad4d7488ca29.jpg?s=512&d=https%3A%2F%2Fa.slack-edge.com%2Fdf10d%2Fimg%2Favatars%2Fava_0017-512.png", "custom_css": null}, {"id": 402, "slack_id": "U082Z7WDHSQ", "display_name": "karnx", "bio": null, "projects_count": 2, "devlogs_count": 3, "votes_count": 0, "ships_count": 0, "projects": [{"id": 3476, "title": "cod zombie based game", "devlogs_count": 3, "created_at": "2025-06-24T11:56:36.392-04:00"}, {"id": 7097, "title": "app for gemini", "devlogs_count": 0, "created_at": "2025-07-19T00:36:24.764-04:00"}], "coding_time_seconds": 490041, "coding_time_seconds_today": 3522, "balance": "You need to have a pocket watcher badge to view this.", "badges": [], "created_at": "2025-06-16T11:26:37.111-04:00", "updated_at": "2025-09-11T14:01:12.435-04:00", "avatar": "https://avatars.slack-edge.com/2025-09-11/9529817186432_ae2c448e85b219ee9ac8_original.jpg", "custom_css": null}, {"id": 403, "slack_id": "U0921E013H7", "display_name": "Jeremiah Saunders", "bio": null, "projects_count": 0, "devlogs_count": 10, "votes_count": 1, "ships_count": 0, "projects": [], "coding_time_seconds": 886568, "coding_time_seconds_today": 0, "balance": "You need to have a pocket watcher badge to view this.", "badges": [], "created_at": "2025-06-16T11:26:38.462-04:00", "updated_at": "2025-07-03T19:12:49.970-04:00", "avatar": "https://avatars.slack-edge.com/2025-06-16/9079414533968_b301f0cc2130643886bf_original.png", "custom_css": null}, {"id": 404, "slack_id": "U091FTC3L3D", "display_name": "Andrew", "bio": null, "projects_count": 0, "devlogs_count": 0, "votes_count": 0, "ships_count": 0, "projects": [], "coding_time_seconds": 0, "coding_time_seconds_today": 0, "balance": "You need to have a pocket watcher badge to view this.", "badges": [], "created_at": "2025-06-16T11:26:42.200-04:00", "updated_at": "2025-07-03T19:12:50.236-04:00", "avatar": "https://secure.gravatar.com/avatar/1d2cf96b32c48bdd508bfdc65a0f9ce5.jpg?s=512&d=https%3A%2F%2Fa.slack-edge.com%2Fdf10d%2Fimg%2Favatars%2Fava_0021-512.png", "custom_css": null}, {"id": 405, "slack_id": "U079TD6S4MC", "display_name": "Mirza Fayyaduzzaman", "bio": null, "projects_count": 0, "devlogs_count": 0, "votes_count": 0, "ships_count": 0, "projects": [], "coding_time_seconds": 0, "coding_time_seconds_today": 0, "balance": "You need to have a pocket watcher badge to view this.", "badges": [], "created_at": "2025-06-16T11:26:48.301-04:00", "updated_at": "2025-07-03T19:12:50.524-04:00", "avatar": "https://secure.gravatar.com/avatar/dd2a6def12abdf16722ccd9a71f4b5ac.jpg?s=512&d=https%3A%2F%2Fa.slack-edge.com%2Fdf10d%2Fimg%2Favatars%2Fava_0021-512.png", "custom_css": null}, {"id": 406, "slack_id": "U091FTAN8TV", "display_name": "Annachiara", "bio": null, "projects_count": 0, "devlogs_count": 0, "votes_count": 0, "ships_count": 0, "projects": [], "coding_time_seconds": 18895, "coding_time_seconds_today": 0, "balance": "You need to have a pocket watcher badge to view this.", "badges": [], "created_at": "2025-06-16T11:27:02.492-04:00", "updated_at": "2025-07-03T19:12:50.790-04:00", "avatar": "https://secure.gravatar.com/avatar/450cfad7bb17522254f9f30c399fe858.jpg?s=512&d=https%3A%2F%2Fa.slack-edge.com%2Fdf10d%2Fimg%2Favatars%2Fava_0002-512.png", "custom_css": null}, {"id": 407, "slack_id": "U091FTFGPK5", "display_name": "Baelyn", "bio": null, "projects_count": 0, "devlogs_count": 0, "votes_count": 0, "ships_count": 0, "projects": [], "coding_time_seconds": 33215, "coding_time_seconds_today": 0, "balance": "You need to have a pocket watcher badge to view this.", "badges": [], "created_at": "2025-06-16T11:27:24.787-04:00", "updated_at": "2025-07-03T19:12:51.067-04:00", "avatar": "https://secure.gravatar.com/avatar/a17742120d0223c6e76cf27120f0a5ee.jpg?s=512&d=https%3A%2F%2Fa.slack-edge.com%2Fdf10d%2Fimg%2Favatars%2Fava_0003-512.png", "custom_css": null}, {"id": 408, "slack_id": "U091FPGHUBD", "display_name": "Miguel", "bio": null, "projects_count": 1, "devlogs_count": 7, "votes_count": 21, "ships_count": 1, "projects": [{"id": 84, "title": "Space Tourism Website", "devlogs_count": 7, "created_at": "2025-06-16T12:24:39.497-04:00"}], "coding_time_seconds": 375275, "coding_time_seconds_today": 432, "balance": "You need to have a pocket watcher badge to view this.", "badges": [{"name": "Maiden Voyage", "text": "you shipped your first project! the journey begins...", "icon": "\ud83d\udea2"}], "created_at": "2025-06-16T11:28:44.115-04:00", "updated_at": "2025-09-10T22:51:19.675-04:00", "avatar": "https://secure.gravatar.com/avatar/97280ad2605096b6b5238cee5ce7c9a0.jpg?s=512&d=https%3A%2F%2Fa.slack-edge.com%2Fdf10d%2Fimg%2Favatars%2Fava_0021-512.png", "custom_css": null}, {"id": 409, "slack_id": "U091PB05FCL", "display_name": "iyed", "bio": null, "projects_count": 0, "devlogs_count": 0, "votes_count": 0, "ships_count": 0, "projects": [], "coding_time_seconds": 192201, "coding_time_seconds_today": 0, "balance": "You need to have a pocket watcher badge to view this.", "badges": [], "created_at": "2025-06-16T11:29:00.213-04:00", "updated_at": "2025-07-03T19:12:51.607-04:00", "avatar": "https://secure.gravatar.com/avatar/dade55739cce557aa959383bc7e2381a.jpg?s=512&d=https%3A%2F%2Fa.slack-edge.com%2Fdf10d%2Fimg%2Favatars%2Fava_0019-512.png", "custom_css": null}, {"id": 410, "slack_id": "U0921EWEPCZ", "display_name": "Rahul", "bio": null, "projects_count": 1, "devlogs_count": 0, "votes_count": 0, "ships_count": 0, "projects": [{"id": 90, "title": "ExamFlow", "devlogs_count": 0, "created_at": "2025-06-16T12:42:52.482-04:00"}], "coding_time_seconds": 158925, "coding_time_seconds_today": 2169, "balance": "You need to have a pocket watcher badge to view this.", "badges": [], "created_at": "2025-06-16T11:29:08.285-04:00", "updated_at": "2025-07-03T19:12:51.875-04:00", "avatar": "https://secure.gravatar.com/avatar/6901457cfd4dd7319a10efdb3f67399c.jpg?s=512&d=https%3A%2F%2Fa.slack-edge.com%2Fdf10d%2Fimg%2Favatars%2Fava_0022-512.png", "custom_css": null}, {"id": 411, "slack_id": "U091NT9BQPL", "display_name": "Dsgj", "bio": null, "projects_count": 0, "devlogs_count": 0, "votes_count": 0, "ships_count": 0, "projects": [], "coding_time_seconds": 0, "coding_time_seconds_today": 0, "balance": "You need to have a pocket watcher badge to view this.", "badges": [], "created_at": "2025-06-16T11:29:11.722-04:00", "updated_at": "2025-07-03T19:12:52.156-04:00", "avatar": "https://secure.gravatar.com/avatar/54047acee7ff32cfcb98db4fc30db8a6.jpg?s=512&d=https%3A%2F%2Fa.slack-edge.com%2Fdf10d%2Fimg%2Favatars%2Fava_0012-512.png", "custom_css": null}, {"id": 412, "slack_id": "U091PALS804", "display_name": "Parambrata Sinha", "bio": null, "projects_count": 0, "devlogs_count": 0, "votes_count": 0, "ships_count": 0, "projects": [], "coding_time_seconds": 0, "coding_time_seconds_today": 0, "balance": "You need to have a pocket watcher badge to view this.", "badges": [], "created_at": "2025-06-16T11:29:25.355-04:00", "updated_at": "2025-07-03T19:12:52.424-04:00", "avatar": "https://secure.gravatar.com/avatar/fb062479aca26efc479feb602bdcc471.jpg?s=512&d=https%3A%2F%2Fa.slack-edge.com%2Fdf10d%2Fimg%2Favatars%2Fava_0005-512.png", "custom_css": null}, {"id": 413, "slack_id": "U08SR8Z6U64", "display_name": "xapqrt", "bio": "wsp g", "projects_count": 0, "devlogs_count": 40, "votes_count": 16, "ships_count": 0, "projects": [], "coding_time_seconds": 652633, "coding_time_seconds_today": 0, "balance": "You need to have a pocket watcher badge to view this.", "badges": [{"name": "Maiden Voyage", "text": "you shipped your first project! the journey begins...", "icon": "\ud83d\udea2"}], "created_at": "2025-06-16T11:29:27.375-04:00", "updated_at": "2025-09-10T22:51:19.926-04:00", "avatar": "https://secure.gravatar.com/avatar/12dcd2400a32248f1e3d9401a784cfb9.jpg?s=512&d=https%3A%2F%2Fa.slack-edge.com%2Fdf10d%2Fimg%2Favatars%2Fava_0008-512.png", "custom_css": null}, {"id": 414, "slack_id": "U091PB8NV7W", "display_name": "Fares Al-jaar", "bio": null, "projects_count": 2, "devlogs_count": 1, "votes_count": 1, "ships_count": 1, "projects": [{"id": 1766, "title": "Skilllearningtracker", "devlogs_count": 0, "created_at": "2025-06-19T07:45:54.776-04:00"}, {"id": 169, "title": "Rift Runner Vector Gun", "devlogs_count": 1, "created_at": "2025-06-16T14:51:49.486-04:00"}], "coding_time_seconds": 85499, "coding_time_seconds_today": 0, "balance": "You need to have a pocket watcher badge to view this.", "badges": [{"name": "Maiden Voyage", "text": "you shipped your first project! the journey begins...", "icon": "\ud83d\udea2"}], "created_at": "2025-06-16T11:29:43.138-04:00", "updated_at": "2025-09-10T22:51:19.963-04:00", "avatar": "https://secure.gravatar.com/avatar/026917fd0f1e8d8d0f3be962d2a8859f.jpg?s=512&d=https%3A%2F%2Fa.slack-edge.com%2Fdf10d%2Fimg%2Favatars%2Fava_0019-512.png", "custom_css": null}, {"id": 415, "slack_id": "U091PAX7HL4", "display_name": "Shaurya Jain", "bio": null, "projects_count": 0, "devlogs_count": 0, "votes_count": 0, "ships_count": 0, "projects": [], "coding_time_seconds": 0, "coding_time_seconds_today": 0, "balance": "You need to have a pocket watcher badge to view this.", "badges": [], "created_at": "2025-06-16T11:30:29.676-04:00", "updated_at": "2025-07-03T19:12:53.242-04:00", "avatar": "https://secure.gravatar.com/avatar/9b8e7aa3d3b4bf06812ffc8834f10815.jpg?s=512&d=https%3A%2F%2Fa.slack-edge.com%2Fdf10d%2Fimg%2Favatars%2Fava_0021-512.png", "custom_css": null}, {"id": 416, "slack_id": "U092BCNR7EU", "display_name": "Paritosh", "bio": null, "projects_count": 0, "devlogs_count": 0, "votes_count": 0, "ships_count": 0, "projects": [], "coding_time_seconds": 15026, "coding_time_seconds_today": 0, "balance": "You need to have a pocket watcher badge to view this.", "badges": [], "created_at": "2025-06-16T11:31:14.964-04:00", "updated_at": "2025-07-03T19:12:53.528-04:00", "avatar": "https://avatars.slack-edge.com/2025-06-16/9041661167175_8ea06efd22e727e59963_original.png", "custom_css": null}, {"id": 417, "slack_id": "U0921F6GW5P", "display_name": "VoidemLIVE", "bio": null, "projects_count": 1, "devlogs_count": 4, "votes_count": 0, "ships_count": 0, "projects": [{"id": 3119, "title": "WhatLand", "devlogs_count": 4, "created_at": "2025-06-23T06:38:55.883-04:00"}], "coding_time_seconds": 14731, "coding_time_seconds_today": 0, "balance": "You need to have a pocket watcher badge to view this.", "badges": [], "created_at": "2025-06-16T11:31:34.621-04:00", "updated_at": "2025-07-03T19:12:53.792-04:00", "avatar": "https://secure.gravatar.com/avatar/c1609919ab07e4cba2675144acc1e154.jpg?s=512&d=https%3A%2F%2Fa.slack-edge.com%2Fdf10d%2Fimg%2Favatars%2Fava_0011-512.png", "custom_css": null}, {"id": 418, "slack_id": "U0921F81UHX", "display_name": "Vincent Mailhot", "bio": null, "projects_count": 0, "devlogs_count": 0, "votes_count": 0, "ships_count": 0, "projects": [], "coding_time_seconds": 3497, "coding_time_seconds_today": 0, "balance": "You need to have a pocket watcher badge to view this.", "badges": [], "created_at": "2025-06-16T11:31:35.096-04:00", "updated_at": "2025-07-03T19:12:54.067-04:00", "avatar": "https://secure.gravatar.com/avatar/6bee55241e00e1396df463da1dedb205.jpg?s=512&d=https%3A%2F%2Fa.slack-edge.com%2Fdf10d%2Fimg%2Favatars%2Fava_0023-512.png", "custom_css": null}, {"id": 419, "slack_id": "U091M5C06DB", "display_name": "pedro", "bio": null, "projects_count": 0, "devlogs_count": 0, "votes_count": 0, "ships_count": 0, "projects": [], "coding_time_seconds": 98609, "coding_time_seconds_today": 0, "balance": "You need to have a pocket watcher badge to view this.", "badges": [], "created_at": "2025-06-16T11:32:24.010-04:00", "updated_at": "2025-08-04T18:20:40.063-04:00", "avatar": "https://secure.gravatar.com/avatar/12b963a842f8ffe226f4db5a54197c3d.jpg?s=512&d=https%3A%2F%2Fa.slack-edge.com%2Fdf10d%2Fimg%2Favatars%2Fava_0000-512.png", "custom_css": null}, {"id": 420, "slack_id": "U0921F86WAV", "display_name": "Crystal", "bio": null, "projects_count": 0, "devlogs_count": 0, "votes_count": 0, "ships_count": 0, "projects": [], "coding_time_seconds": 0, "coding_time_seconds_today": 0, "balance": "You need to have a pocket watcher badge to view this.", "badges": [], "created_at": "2025-06-16T11:32:26.124-04:00", "updated_at": "2025-07-03T19:12:54.612-04:00", "avatar": "https://secure.gravatar.com/avatar/d48906e95e6c654f77df55450e5ce5f9.jpg?s=512&d=https%3A%2F%2Fa.slack-edge.com%2Fdf10d%2Fimg%2Favatars%2Fava_0009-512.png", "custom_css": null}], "pagination": {"page": 21, "pages": 1192, "count": 23827, "items": 20}}