{"users": [{"id": 4221, "slack_id": "U092E56ABEU", "display_name": "Balamukunda D R", "bio": null, "projects_count": 0, "devlogs_count": 0, "votes_count": 0, "ships_count": 0, "projects": [], "coding_time_seconds": 0, "coding_time_seconds_today": 0, "balance": "You need to have a pocket watcher badge to view this.", "badges": [], "created_at": "2025-06-16T22:29:44.654-04:00", "updated_at": "2025-07-03T19:30:26.459-04:00", "avatar": "https://secure.gravatar.com/avatar/1779e30f0987997d6e36f5647d75a779.jpg?s=512&d=https%3A%2F%2Fa.slack-edge.com%2Fdf10d%2Fimg%2Favatars%2Fava_0018-512.png", "custom_css": null}, {"id": 4222, "slack_id": "U091RQ89H9Q", "display_name": "Harley Cutamora", "bio": null, "projects_count": 0, "devlogs_count": 0, "votes_count": 0, "ships_count": 0, "projects": [], "coding_time_seconds": 120, "coding_time_seconds_today": 0, "balance": "You need to have a pocket watcher badge to view this.", "badges": [], "created_at": "2025-06-16T22:30:17.120-04:00", "updated_at": "2025-07-03T19:30:26.732-04:00", "avatar": "https://secure.gravatar.com/avatar/7e2db34ce164cd6493a54714d3fa088c.jpg?s=512&d=https%3A%2F%2Fa.slack-edge.com%2Fdf10d%2Fimg%2Favatars%2Fava_0005-512.png", "custom_css": null}, {"id": 4223, "slack_id": "U091RPT377U", "display_name": "William Butler", "bio": null, "projects_count": 0, "devlogs_count": 0, "votes_count": 0, "ships_count": 0, "projects": [], "coding_time_seconds": 0, "coding_time_seconds_today": 0, "balance": "You need to have a pocket watcher badge to view this.", "badges": [], "created_at": "2025-06-16T22:30:50.402-04:00", "updated_at": "2025-07-03T19:30:26.994-04:00", "avatar": "https://secure.gravatar.com/avatar/8c4f6043763b7d24a5c167ee047069aa.jpg?s=512&d=https%3A%2F%2Fa.slack-edge.com%2Fdf10d%2Fimg%2Favatars%2Fava_0024-512.png", "custom_css": null}, {"id": 4224, "slack_id": "U091S42J07N", "display_name": "Syed Ashiq", "bio": null, "projects_count": 2, "devlogs_count": 0, "votes_count": 0, "ships_count": 0, "projects": [{"id": 496, "title": "Career Generator", "devlogs_count": 0, "created_at": "2025-06-16T23:42:27.765-04:00"}, {"id": 1199, "title": "Web Engine", "devlogs_count": 0, "created_at": "2025-06-17T22:08:10.103-04:00"}], "coding_time_seconds": 233276, "coding_time_seconds_today": 0, "balance": "You need to have a pocket watcher badge to view this.", "badges": [], "created_at": "2025-06-16T22:31:20.207-04:00", "updated_at": "2025-07-03T19:30:27.254-04:00", "avatar": "https://secure.gravatar.com/avatar/e8651b9bb76a9b0bd4252eff77dc0cd6.jpg?s=512&d=https%3A%2F%2Fa.slack-edge.com%2Fdf10d%2Fimg%2Favatars%2Fava_0008-512.png", "custom_css": null}, {"id": 4225, "slack_id": "U091K0A625U", "display_name": "ananya", "bio": null, "projects_count": 0, "devlogs_count": 0, "votes_count": 0, "ships_count": 0, "projects": [], "coding_time_seconds": 291, "coding_time_seconds_today": 0, "balance": "You need to have a pocket watcher badge to view this.", "badges": [], "created_at": "2025-06-16T22:31:54.185-04:00", "updated_at": "2025-07-03T19:30:27.519-04:00", "avatar": "https://secure.gravatar.com/avatar/c529110bac7f59821b4b28c40423044c.jpg?s=512&d=https%3A%2F%2Fa.slack-edge.com%2Fdf10d%2Fimg%2Favatars%2Fava_0026-512.png", "custom_css": null}, {"id": 4226, "slack_id": "U092E69G3B2", "display_name": "sachin", "bio": null, "projects_count": 0, "devlogs_count": 0, "votes_count": 0, "ships_count": 0, "projects": [], "coding_time_seconds": 0, "coding_time_seconds_today": 0, "balance": "You need to have a pocket watcher badge to view this.", "badges": [], "created_at": "2025-06-16T22:32:13.849-04:00", "updated_at": "2025-07-03T19:30:27.776-04:00", "avatar": "https://secure.gravatar.com/avatar/f5f51143a4b628a65d9db4a83021df43.jpg?s=512&d=https%3A%2F%2Fa.slack-edge.com%2Fdf10d%2Fimg%2Favatars%2Fava_0005-512.png", "custom_css": null}, {"id": 4227, "slack_id": "U091S3L699A", "display_name": "rhythm", "bio": null, "projects_count": 0, "devlogs_count": 0, "votes_count": 0, "ships_count": 0, "projects": [], "coding_time_seconds": 0, "coding_time_seconds_today": 0, "balance": "You need to have a pocket watcher badge to view this.", "badges": [], "created_at": "2025-06-16T22:32:29.185-04:00", "updated_at": "2025-07-03T19:30:28.037-04:00", "avatar": "https://secure.gravatar.com/avatar/586ec58b1d9f3319645655a3ffb5a16b.jpg?s=512&d=https%3A%2F%2Fa.slack-edge.com%2Fdf10d%2Fimg%2Favatars%2Fava_0016-512.png", "custom_css": null}, {"id": 4228, "slack_id": "U091S46DVNG", "display_name": "Matthew Hinkleman", "bio": null, "projects_count": 0, "devlogs_count": 0, "votes_count": 0, "ships_count": 0, "projects": [], "coding_time_seconds": 0, "coding_time_seconds_today": 0, "balance": "You need to have a pocket watcher badge to view this.", "badges": [], "created_at": "2025-06-16T22:32:30.345-04:00", "updated_at": "2025-07-03T19:30:28.297-04:00", "avatar": "https://avatars.slack-edge.com/2025-06-16/9060151397396_19d6dd6439c731bf178e_original.png", "custom_css": null}, {"id": 4229, "slack_id": "U091JSWRQCB", "display_name": "Ryan Xu", "bio": null, "projects_count": 0, "devlogs_count": 0, "votes_count": 0, "ships_count": 0, "projects": [], "coding_time_seconds": 0, "coding_time_seconds_today": 0, "balance": "You need to have a pocket watcher badge to view this.", "badges": [], "created_at": "2025-06-16T22:32:47.201-04:00", "updated_at": "2025-07-03T19:30:28.571-04:00", "avatar": "https://avatars.slack-edge.com/2025-06-16/9060152134692_49a3eb00e4285d56a174_original.jpg", "custom_css": null}, {"id": 4230, "slack_id": "U092E6AMGN4", "display_name": "Lizmarie Recio", "bio": null, "projects_count": 0, "devlogs_count": 0, "votes_count": 0, "ships_count": 0, "projects": [], "coding_time_seconds": 0, "coding_time_seconds_today": 0, "balance": "You need to have a pocket watcher badge to view this.", "badges": [], "created_at": "2025-06-16T22:33:21.308-04:00", "updated_at": "2025-07-03T19:30:28.844-04:00", "avatar": "https://secure.gravatar.com/avatar/d4f2253f3c30b74c64949f5ecafd7778.jpg?s=512&d=https%3A%2F%2Fa.slack-edge.com%2Fdf10d%2Fimg%2Favatars%2Fava_0024-512.png", "custom_css": null}, {"id": 4231, "slack_id": "U0924ARF9PT", "display_name": "Ratanon Khamrong", "bio": null, "projects_count": 0, "devlogs_count": 0, "votes_count": 0, "ships_count": 0, "projects": [], "coding_time_seconds": 0, "coding_time_seconds_today": 0, "balance": "You need to have a pocket watcher badge to view this.", "badges": [], "created_at": "2025-06-16T22:33:54.638-04:00", "updated_at": "2025-07-03T19:30:29.115-04:00", "avatar": "https://secure.gravatar.com/avatar/8d6c6b096d17eb6d49371cdc248429c0.jpg?s=512&d=https%3A%2F%2Fa.slack-edge.com%2Fdf10d%2Fimg%2Favatars%2Fava_0005-512.png", "custom_css": null}, {"id": 4232, "slack_id": "U05FP8S0S3H", "display_name": "Chris", "bio": null, "projects_count": 0, "devlogs_count": 0, "votes_count": 0, "ships_count": 0, "projects": [], "coding_time_seconds": 2570, "coding_time_seconds_today": 0, "balance": "You need to have a pocket watcher badge to view this.", "badges": [], "created_at": "2025-06-16T22:34:50.267-04:00", "updated_at": "2025-07-03T19:30:29.369-04:00", "avatar": "https://avatars.slack-edge.com/2024-08-24/7622570407797_9ec3dc5caaf39eed97b9_original.png", "custom_css": null}, {"id": 4233, "slack_id": "U091RQLUP3L", "display_name": "Apo-Mak", "bio": null, "projects_count": 0, "devlogs_count": 0, "votes_count": 0, "ships_count": 0, "projects": [], "coding_time_seconds": 0, "coding_time_seconds_today": 0, "balance": "You need to have a pocket watcher badge to view this.", "badges": [], "created_at": "2025-06-16T22:34:57.788-04:00", "updated_at": "2025-07-03T19:30:29.639-04:00", "avatar": "https://secure.gravatar.com/avatar/dba03ef0170d96ebce53e20b5ab330b5.jpg?s=512&d=https%3A%2F%2Fa.slack-edge.com%2Fdf10d%2Fimg%2Favatars%2Fava_0017-512.png", "custom_css": null}, {"id": 4234, "slack_id": "U090UFCGFAN", "display_name": "thekadkid", "bio": null, "projects_count": 0, "devlogs_count": 0, "votes_count": 0, "ships_count": 0, "projects": [], "coding_time_seconds": 0, "coding_time_seconds_today": 0, "balance": "You need to have a pocket watcher badge to view this.", "badges": [], "created_at": "2025-06-16T22:34:59.555-04:00", "updated_at": "2025-08-01T23:01:04.095-04:00", "avatar": "https://avatars.slack-edge.com/2025-06-11/9030181045782_c7b7361f3efecc49f6c4_original.png", "custom_css": null}, {"id": 4235, "slack_id": "U091ADG2XDM", "display_name": "QuicksilverAMVA", "bio": null, "projects_count": 0, "devlogs_count": 0, "votes_count": 0, "ships_count": 0, "projects": [], "coding_time_seconds": 0, "coding_time_seconds_today": 0, "balance": "You need to have a pocket watcher badge to view this.", "badges": [], "created_at": "2025-06-16T22:35:01.482-04:00", "updated_at": "2025-07-03T19:30:30.211-04:00", "avatar": "https://secure.gravatar.com/avatar/e668321ea9d020dd4427d231c8ed8791.jpg?s=512&d=https%3A%2F%2Fa.slack-edge.com%2Fdf10d%2Fimg%2Favatars%2Fava_0022-512.png", "custom_css": null}, {"id": 4236, "slack_id": "U091S4B4WMS", "display_name": "Adityaraj3136", "bio": null, "projects_count": 0, "devlogs_count": 0, "votes_count": 0, "ships_count": 0, "projects": [], "coding_time_seconds": 0, "coding_time_seconds_today": 0, "balance": "You need to have a pocket watcher badge to view this.", "badges": [], "created_at": "2025-06-16T22:35:03.024-04:00", "updated_at": "2025-07-03T19:30:30.475-04:00", "avatar": "https://secure.gravatar.com/avatar/1fd4c483a36409f86f6d8dbc13ad0f39.jpg?s=512&d=https%3A%2F%2Fa.slack-edge.com%2Fdf10d%2Fimg%2Favatars%2Fava_0015-512.png", "custom_css": null}, {"id": 4237, "slack_id": "U091RQLRP7C", "display_name": "RISHAV", "bio": null, "projects_count": 1, "devlogs_count": 1, "votes_count": 0, "ships_count": 0, "projects": [{"id": 487, "title": "Secure Server Config", "devlogs_count": 1, "created_at": "2025-06-16T23:25:02.669-04:00"}], "coding_time_seconds": 495990, "coding_time_seconds_today": 2527, "balance": "You need to have a pocket watcher badge to view this.", "badges": [], "created_at": "2025-06-16T22:35:26.125-04:00", "updated_at": "2025-07-03T19:30:30.748-04:00", "avatar": "https://avatars.slack-edge.com/2025-06-16/9053052680054_f971ff41299eaff0e4dc_original.png", "custom_css": null}, {"id": 4238, "slack_id": "U091K17TE5U", "display_name": "Shawn Pande", "bio": null, "projects_count": 0, "devlogs_count": 0, "votes_count": 0, "ships_count": 0, "projects": [], "coding_time_seconds": 272136, "coding_time_seconds_today": 0, "balance": "You need to have a pocket watcher badge to view this.", "badges": [], "created_at": "2025-06-16T22:35:35.468-04:00", "updated_at": "2025-07-18T17:28:38.592-04:00", "avatar": "https://avatars.slack-edge.com/2025-06-16/9052939036323_418c1bea4cbfbe1405e1_original.png", "custom_css": null}, {"id": 4239, "slack_id": "U0924ARN1PT", "display_name": "Rupesh Dahal", "bio": null, "projects_count": 0, "devlogs_count": 0, "votes_count": 0, "ships_count": 0, "projects": [], "coding_time_seconds": 0, "coding_time_seconds_today": 0, "balance": "You need to have a pocket watcher badge to view this.", "badges": [], "created_at": "2025-06-16T22:35:35.574-04:00", "updated_at": "2025-07-03T19:30:31.270-04:00", "avatar": "https://avatars.slack-edge.com/2025-06-16/9052939122147_0ceda7eda94a843acbe0_original.jpg", "custom_css": null}, {"id": 4240, "slack_id": "U091JTEF8Q3", "display_name": "Yujun", "bio": null, "projects_count": 0, "devlogs_count": 0, "votes_count": 0, "ships_count": 0, "projects": [], "coding_time_seconds": 0, "coding_time_seconds_today": 0, "balance": "You need to have a pocket watcher badge to view this.", "badges": [], "created_at": "2025-06-16T22:35:47.832-04:00", "updated_at": "2025-07-03T19:30:31.549-04:00", "avatar": "https://secure.gravatar.com/avatar/1bcb6245782bf2384fe9b3bdb21b3093.jpg?s=512&d=https%3A%2F%2Fa.slack-edge.com%2Fdf10d%2Fimg%2Favatars%2Fava_0014-512.png", "custom_css": null}], "pagination": {"page": 212, "pages": 1192, "count": 23828, "items": 20}}