{"users": [{"id": 4281, "slack_id": "U091H7726BY", "display_name": "Aditya", "bio": null, "projects_count": 0, "devlogs_count": 0, "votes_count": 0, "ships_count": 0, "projects": [], "coding_time_seconds": 0, "coding_time_seconds_today": 0, "balance": "You need to have a pocket watcher badge to view this.", "badges": [], "created_at": "2025-06-16T22:46:25.192-04:00", "updated_at": "2025-07-03T19:30:42.555-04:00", "avatar": "https://secure.gravatar.com/avatar/06979c02271a03aa2354d62bc241c1ba.jpg?s=512&d=https%3A%2F%2Fa.slack-edge.com%2Fdf10d%2Fimg%2Favatars%2Fava_0021-512.png", "custom_css": null}, {"id": 4282, "slack_id": "U091RQDNY3U", "display_name": "alfa", "bio": null, "projects_count": 0, "devlogs_count": 0, "votes_count": 0, "ships_count": 0, "projects": [], "coding_time_seconds": 0, "coding_time_seconds_today": 0, "balance": "You need to have a pocket watcher badge to view this.", "badges": [], "created_at": "2025-06-16T22:46:27.738-04:00", "updated_at": "2025-07-03T22:32:05.380-04:00", "avatar": "https://secure.gravatar.com/avatar/008fb8f723758d7c7d20d4c6edca8841.jpg?s=512&d=https%3A%2F%2Fa.slack-edge.com%2Fdf10d%2Fimg%2Favatars%2Fava_0019-512.png", "custom_css": null}, {"id": 4283, "slack_id": "U091RRSNKNW", "display_name": "Xat", "bio": null, "projects_count": 1, "devlogs_count": 0, "votes_count": 0, "ships_count": 0, "projects": [{"id": 490, "title": "Neko - API docs for tRPC", "devlogs_count": 0, "created_at": "2025-06-16T23:28:24.374-04:00"}], "coding_time_seconds": 669, "coding_time_seconds_today": 0, "balance": "You need to have a pocket watcher badge to view this.", "badges": [], "created_at": "2025-06-16T22:47:34.209-04:00", "updated_at": "2025-07-03T19:30:42.972-04:00", "avatar": "https://secure.gravatar.com/avatar/ffc80f7c662e056083be5a00ebe973b5.jpg?s=512&d=https%3A%2F%2Fa.slack-edge.com%2Fdf10d%2Fimg%2Favatars%2Fava_0006-512.png", "custom_css": null}, {"id": 4284, "slack_id": "U08K0FDPCCB", "display_name": "ben", "bio": null, "projects_count": 1, "devlogs_count": 0, "votes_count": 5, "ships_count": 0, "projects": [{"id": 1594, "title": "aether club's new site!", "devlogs_count": 0, "created_at": "2025-06-18T20:41:47.912-04:00"}], "coding_time_seconds": 256434, "coding_time_seconds_today": 0, "balance": "You need to have a pocket watcher badge to view this.", "badges": [], "created_at": "2025-06-16T22:47:46.235-04:00", "updated_at": "2025-08-10T05:11:38.217-04:00", "avatar": "https://avatars.slack-edge.com/2025-06-26/9128761600000_3380bb081f7fab9cd63e_original.png", "custom_css": null}, {"id": 4285, "slack_id": "U091RPCV0R2", "display_name": "polly", "bio": null, "projects_count": 0, "devlogs_count": 0, "votes_count": 0, "ships_count": 0, "projects": [], "coding_time_seconds": 32507, "coding_time_seconds_today": 0, "balance": "You need to have a pocket watcher badge to view this.", "badges": [], "created_at": "2025-06-16T22:47:54.963-04:00", "updated_at": "2025-07-03T19:30:43.395-04:00", "avatar": "https://secure.gravatar.com/avatar/e9d8aa344e2e4552a2f2bc40fa49ae71.jpg?s=512&d=https%3A%2F%2Fa.slack-edge.com%2Fdf10d%2Fimg%2Favatars%2Fava_0002-512.png", "custom_css": null}, {"id": 4286, "slack_id": "U07VDS9AKE3", "display_name": "Flamebamboo", "bio": null, "projects_count": 2, "devlogs_count": 3, "votes_count": 19, "ships_count": 1, "projects": [{"id": 6000, "title": "FlameBamboo Portfolio", "devlogs_count": 3, "created_at": "2025-07-09T21:08:47.563-04:00"}, {"id": 6446, "title": "StickyNotesAI", "devlogs_count": 0, "created_at": "2025-07-13T12:09:01.525-04:00"}], "coding_time_seconds": 82349, "coding_time_seconds_today": 0, "balance": "You need to have a pocket watcher badge to view this.", "badges": [{"name": "Maiden Voyage", "text": "you shipped your first project! the journey begins...", "icon": "\ud83d\udea2"}], "created_at": "2025-06-16T22:48:15.799-04:00", "updated_at": "2025-09-10T22:53:17.834-04:00", "avatar": "https://avatars.slack-edge.com/2025-08-15/9353215227363_60420cdb76a43a403f7b_original.png", "custom_css": null}, {"id": 4287, "slack_id": "U082HC97BDM", "display_name": "Harshal", "bio": null, "projects_count": 5, "devlogs_count": 13, "votes_count": 99, "ships_count": 4, "projects": [{"id": 10103, "title": "Curator", "devlogs_count": 3, "created_at": "2025-08-04T03:54:18.368-04:00"}, {"id": 13076, "title": "PROS-Installer", "devlogs_count": 1, "created_at": "2025-09-08T06:00:36.862-04:00"}, {"id": 10722, "title": "UNHEARD DEVTOOLS", "devlogs_count": 1, "created_at": "2025-08-10T04:02:34.060-04:00"}, {"id": 11924, "title": "Harshal's Blog", "devlogs_count": 3, "created_at": "2025-08-21T06:03:54.407-04:00"}, {"id": 5294, "title": "Personal Website", "devlogs_count": 5, "created_at": "2025-07-04T09:21:43.727-04:00"}], "coding_time_seconds": 344327, "coding_time_seconds_today": 0, "balance": "You need to have a pocket watcher badge to view this.", "badges": [{"name": "Maiden Voyage", "text": "you shipped your first project! the journey begins...", "icon": "\ud83d\udea2"}, {"name": "Ballot Stuffer", "text": "vote 100 times.", "icon": "https://summer.hackclub.com/assets/i_voted-bf851b48.png"}], "created_at": "2025-06-16T22:48:16.522-04:00", "updated_at": "2025-09-23T12:29:26.691-04:00", "avatar": "https://avatars.slack-edge.com/2025-09-23/9561630663763_abc8eb77be671e3b0670_original.jpg", "custom_css": null}, {"id": 4288, "slack_id": "U091Q1Z9LMT", "display_name": "fanqyxl", "bio": null, "projects_count": 0, "devlogs_count": 0, "votes_count": 0, "ships_count": 0, "projects": [], "coding_time_seconds": 8814, "coding_time_seconds_today": 0, "balance": "You need to have a pocket watcher badge to view this.", "badges": [], "created_at": "2025-06-16T22:48:23.123-04:00", "updated_at": "2025-07-03T19:30:44.219-04:00", "avatar": "https://avatars.slack-edge.com/2025-06-21/9078002687734_59a989263d4e73085bd5_original.png", "custom_css": null}, {"id": 4289, "slack_id": "U092E7KTY56", "display_name": "LuckyDevelop", "bio": null, "projects_count": 0, "devlogs_count": 0, "votes_count": 0, "ships_count": 0, "projects": [], "coding_time_seconds": 0, "coding_time_seconds_today": 0, "balance": "You need to have a pocket watcher badge to view this.", "badges": [], "created_at": "2025-06-16T22:48:47.859-04:00", "updated_at": "2025-07-03T19:30:44.488-04:00", "avatar": "https://secure.gravatar.com/avatar/4f298432d094fe23674bc7a4bab2bfaf.jpg?s=512&d=https%3A%2F%2Fa.slack-edge.com%2Fdf10d%2Fimg%2Favatars%2Fava_0019-512.png", "custom_css": null}, {"id": 4290, "slack_id": "U0924BVBMGR", "display_name": "Raine", "bio": null, "projects_count": 1, "devlogs_count": 1, "votes_count": 1, "ships_count": 0, "projects": [{"id": 2556, "title": "OpenGL Sample", "devlogs_count": 1, "created_at": "2025-06-21T10:05:41.094-04:00"}], "coding_time_seconds": 21704, "coding_time_seconds_today": 0, "balance": "You need to have a pocket watcher badge to view this.", "badges": [], "created_at": "2025-06-16T22:48:48.635-04:00", "updated_at": "2025-07-03T19:30:44.762-04:00", "avatar": "https://avatars.slack-edge.com/2025-06-20/9075889899108_e5a62ee3a1a6c3c77633_original.jpg", "custom_css": null}, {"id": 4291, "slack_id": "U091RRUQK5G", "display_name": "matepnew", "bio": null, "projects_count": 0, "devlogs_count": 0, "votes_count": 0, "ships_count": 0, "projects": [], "coding_time_seconds": 0, "coding_time_seconds_today": 0, "balance": "You need to have a pocket watcher badge to view this.", "badges": [], "created_at": "2025-06-16T22:50:02.811-04:00", "updated_at": "2025-07-03T19:30:45.028-04:00", "avatar": "https://avatars.slack-edge.com/2025-06-16/9044509416983_db91e455ba87a4e322e6_original.png", "custom_css": null}, {"id": 4292, "slack_id": "U091K2LANHL", "display_name": "Mecky", "bio": null, "projects_count": 0, "devlogs_count": 0, "votes_count": 0, "ships_count": 0, "projects": [], "coding_time_seconds": 23511, "coding_time_seconds_today": 0, "balance": "You need to have a pocket watcher badge to view this.", "badges": [], "created_at": "2025-06-16T22:50:57.261-04:00", "updated_at": "2025-07-03T19:30:45.295-04:00", "avatar": "https://secure.gravatar.com/avatar/9b39dda1f63049f35b3ad2ec6780da58.jpg?s=512&d=https%3A%2F%2Fa.slack-edge.com%2Fdf10d%2Fimg%2Favatars%2Fava_0015-512.png", "custom_css": null}, {"id": 4293, "slack_id": "U091RTP8SE8", "display_name": "Sahil Singh", "bio": null, "projects_count": 1, "devlogs_count": 1, "votes_count": 1, "ships_count": 0, "projects": [{"id": 4597, "title": "PilotsOnTip", "devlogs_count": 1, "created_at": "2025-06-30T20:20:50.755-04:00"}], "coding_time_seconds": 195288, "coding_time_seconds_today": 0, "balance": "You need to have a pocket watcher badge to view this.", "badges": [], "created_at": "2025-06-16T22:50:59.878-04:00", "updated_at": "2025-07-29T07:28:27.003-04:00", "avatar": "https://secure.gravatar.com/avatar/9189c7428382812c4368d6ce7568887a.jpg?s=512&d=https%3A%2F%2Fa.slack-edge.com%2Fdf10d%2Fimg%2Favatars%2Fava_0026-512.png", "custom_css": null}, {"id": 4294, "slack_id": "U091JBN46Q6", "display_name": "Ram\u00f3n Gonz\u00e1lez Mercado", "bio": null, "projects_count": 0, "devlogs_count": 0, "votes_count": 0, "ships_count": 0, "projects": [], "coding_time_seconds": 0, "coding_time_seconds_today": 0, "balance": "You need to have a pocket watcher badge to view this.", "badges": [], "created_at": "2025-06-16T22:51:00.307-04:00", "updated_at": "2025-07-03T19:30:45.820-04:00", "avatar": "https://secure.gravatar.com/avatar/76868c033f88056d699ee8532fc57d39.jpg?s=512&d=https%3A%2F%2Fa.slack-edge.com%2Fdf10d%2Fimg%2Favatars%2Fava_0019-512.png", "custom_css": null}, {"id": 4295, "slack_id": "U091Q2DN0SH", "display_name": "Rahul", "bio": null, "projects_count": 0, "devlogs_count": 0, "votes_count": 0, "ships_count": 0, "projects": [], "coding_time_seconds": 0, "coding_time_seconds_today": 0, "balance": "You need to have a pocket watcher badge to view this.", "badges": [], "created_at": "2025-06-16T22:51:11.160-04:00", "updated_at": "2025-07-03T19:30:46.088-04:00", "avatar": "https://secure.gravatar.com/avatar/18fe7b8db941e788aba829177a759a54.jpg?s=512&d=https%3A%2F%2Fa.slack-edge.com%2Fdf10d%2Fimg%2Favatars%2Fava_0002-512.png", "custom_css": null}, {"id": 4296, "slack_id": "U091AEQGJ1M", "display_name": "Miguel Rocha", "bio": null, "projects_count": 0, "devlogs_count": 0, "votes_count": 0, "ships_count": 0, "projects": [], "coding_time_seconds": 0, "coding_time_seconds_today": 0, "balance": "You need to have a pocket watcher badge to view this.", "badges": [], "created_at": "2025-06-16T22:51:14.356-04:00", "updated_at": "2025-07-03T19:30:46.354-04:00", "avatar": "https://secure.gravatar.com/avatar/8a00e098ff4cd58ff087e4966340f139.jpg?s=512&d=https%3A%2F%2Fa.slack-edge.com%2Fdf10d%2Fimg%2Favatars%2Fava_0023-512.png", "custom_css": null}, {"id": 4297, "slack_id": "U091RRWGS4A", "display_name": "Cody", "bio": null, "projects_count": 0, "devlogs_count": 0, "votes_count": 0, "ships_count": 0, "projects": [], "coding_time_seconds": 0, "coding_time_seconds_today": 0, "balance": "You need to have a pocket watcher badge to view this.", "badges": [], "created_at": "2025-06-16T22:51:22.188-04:00", "updated_at": "2025-07-03T19:30:46.614-04:00", "avatar": "https://secure.gravatar.com/avatar/ce35dfcb87c98b7cb9742e0b0ff87133.jpg?s=512&d=https%3A%2F%2Fa.slack-edge.com%2Fdf10d%2Fimg%2Favatars%2Fava_0014-512.png", "custom_css": null}, {"id": 4298, "slack_id": "U092BE9ULV6", "display_name": "sirajju", "bio": null, "projects_count": 0, "devlogs_count": 0, "votes_count": 0, "ships_count": 0, "projects": [], "coding_time_seconds": 142614, "coding_time_seconds_today": 0, "balance": "You need to have a pocket watcher badge to view this.", "badges": [], "created_at": "2025-06-16T22:51:30.056-04:00", "updated_at": "2025-07-03T19:30:46.876-04:00", "avatar": "https://secure.gravatar.com/avatar/27b11010023004bac97812383b0daf46.jpg?s=512&d=https%3A%2F%2Fa.slack-edge.com%2Fdf10d%2Fimg%2Favatars%2Fava_0020-512.png", "custom_css": null}, {"id": 4299, "slack_id": "U091S5P8KHS", "display_name": "Abhigyaan", "bio": null, "projects_count": 0, "devlogs_count": 0, "votes_count": 0, "ships_count": 0, "projects": [], "coding_time_seconds": 0, "coding_time_seconds_today": 0, "balance": "You need to have a pocket watcher badge to view this.", "badges": [], "created_at": "2025-06-16T22:51:40.491-04:00", "updated_at": "2025-07-03T19:30:47.141-04:00", "avatar": "https://secure.gravatar.com/avatar/c37a2598a3c19632b1d71456ec0b3cf6.jpg?s=512&d=https%3A%2F%2Fa.slack-edge.com%2Fdf10d%2Fimg%2Favatars%2Fava_0004-512.png", "custom_css": null}, {"id": 4300, "slack_id": "U091JUJDHQT", "display_name": "Umesh Chandran Yenugula", "bio": null, "projects_count": 0, "devlogs_count": 0, "votes_count": 0, "ships_count": 0, "projects": [], "coding_time_seconds": 0, "coding_time_seconds_today": 0, "balance": "You need to have a pocket watcher badge to view this.", "badges": [], "created_at": "2025-06-16T22:52:25.186-04:00", "updated_at": "2025-07-03T19:30:47.406-04:00", "avatar": "https://secure.gravatar.com/avatar/bddad6729520fd3f67d3b1b0da1a36e7.jpg?s=512&d=https%3A%2F%2Fa.slack-edge.com%2Fdf10d%2Fimg%2Favatars%2Fava_0006-512.png", "custom_css": null}], "pagination": {"page": 215, "pages": 1192, "count": 23828, "items": 20}}