{"users": [{"id": 4301, "slack_id": "U081WSBK38W", "display_name": "SharkY.Y", "bio": null, "projects_count": 0, "devlogs_count": 0, "votes_count": 0, "ships_count": 0, "projects": [], "coding_time_seconds": 156790, "coding_time_seconds_today": 0, "balance": "You need to have a pocket watcher badge to view this.", "badges": [], "created_at": "2025-06-16T22:52:50.600-04:00", "updated_at": "2025-08-07T10:15:01.336-04:00", "avatar": "https://avatars.slack-edge.com/2024-12-01/8100655329430_fa6f895530ee6fe697c6_original.jpg", "custom_css": null}, {"id": 4302, "slack_id": "U091AEV5PT9", "display_name": "sreus", "bio": null, "projects_count": 0, "devlogs_count": 0, "votes_count": 0, "ships_count": 0, "projects": [], "coding_time_seconds": 0, "coding_time_seconds_today": 0, "balance": "You need to have a pocket watcher badge to view this.", "badges": [], "created_at": "2025-06-16T22:52:53.971-04:00", "updated_at": "2025-07-03T19:30:47.931-04:00", "avatar": "https://secure.gravatar.com/avatar/1089a3314d821c64e9025e5fef24a70a.jpg?s=512&d=https%3A%2F%2Fa.slack-edge.com%2Fdf10d%2Fimg%2Favatars%2Fava_0013-512.png", "custom_css": null}, {"id": 4303, "slack_id": "U091RS4DUQ2", "display_name": "Ethan Mahlstedt", "bio": null, "projects_count": 0, "devlogs_count": 0, "votes_count": 0, "ships_count": 0, "projects": [], "coding_time_seconds": 0, "coding_time_seconds_today": 0, "balance": "You need to have a pocket watcher badge to view this.", "badges": [], "created_at": "2025-06-16T22:52:56.743-04:00", "updated_at": "2025-07-03T19:30:48.201-04:00", "avatar": "https://secure.gravatar.com/avatar/b2a8e6f80b88b973790334c81afb0894.jpg?s=512&d=https%3A%2F%2Fa.slack-edge.com%2Fdf10d%2Fimg%2Favatars%2Fava_0019-512.png", "custom_css": null}, {"id": 4304, "slack_id": "U091JUQ9EAX", "display_name": "Raven_6", "bio": null, "projects_count": 2, "devlogs_count": 23, "votes_count": 20, "ships_count": 1, "projects": [{"id": 2009, "title": "Lazarus codex", "devlogs_count": 14, "created_at": "2025-06-19T21:59:05.766-04:00"}, {"id": 10544, "title": "DnD campaign listings", "devlogs_count": 8, "created_at": "2025-08-08T00:55:25.228-04:00"}], "coding_time_seconds": 141703, "coding_time_seconds_today": 0, "balance": "You need to have a pocket watcher badge to view this.", "badges": [{"name": "Maiden Voyage", "text": "you shipped your first project! the journey begins...", "icon": "\ud83d\udea2"}], "created_at": "2025-06-16T22:53:02.798-04:00", "updated_at": "2025-09-10T22:53:18.406-04:00", "avatar": "https://secure.gravatar.com/avatar/2456b1f67ef31fe9728d2d26abae1095.jpg?s=512&d=https%3A%2F%2Fa.slack-edge.com%2Fdf10d%2Fimg%2Favatars%2Fava_0016-512.png", "custom_css": null}, {"id": 4305, "slack_id": "U05REM6JGGJ", "display_name": "2008wbbv", "bio": null, "projects_count": 0, "devlogs_count": 0, "votes_count": 0, "ships_count": 0, "projects": [], "coding_time_seconds": 46440, "coding_time_seconds_today": 0, "balance": "You need to have a pocket watcher badge to view this.", "badges": [], "created_at": "2025-06-16T22:53:04.008-04:00", "updated_at": "2025-07-03T19:30:48.733-04:00", "avatar": "https://avatars.slack-edge.com/2023-11-19/6221664780564_0e2b896e2f73300954c8_original.png", "custom_css": null}, {"id": 4306, "slack_id": "U0842MB62UV", "display_name": "Realzzy", "bio": "", "projects_count": 1, "devlogs_count": 3, "votes_count": 21, "ships_count": 1, "projects": [{"id": 6578, "title": "Suspy - Link moderation made easy", "devlogs_count": 3, "created_at": "2025-07-14T10:58:29.581-04:00"}], "coding_time_seconds": 752455, "coding_time_seconds_today": 0, "balance": "You need to have a pocket watcher badge to view this.", "badges": [{"name": "Maiden Voyage", "text": "you shipped your first project! the journey begins...", "icon": "\ud83d\udea2"}, {"name": "No Fun", "text": "opt-out added for the whimsy-impaired", "icon": "\ud83d\udeab"}, {"name": "Spider", "text": "this user has a pet!", "icon": "\ud83d\udd77\ufe0f"}], "created_at": "2025-06-16T22:53:17.296-04:00", "updated_at": "2025-09-19T14:04:38.522-04:00", "avatar": "https://avatars.slack-edge.com/2024-12-11/8159388810244_5d8c06a1fcc1c2105cd3_original.png", "custom_css": null}, {"id": 4307, "slack_id": "U091Q2FTTSR", "display_name": "Fatimah Azzahra", "bio": null, "projects_count": 0, "devlogs_count": 0, "votes_count": 0, "ships_count": 0, "projects": [], "coding_time_seconds": 0, "coding_time_seconds_today": 0, "balance": "You need to have a pocket watcher badge to view this.", "badges": [], "created_at": "2025-06-16T22:53:24.276-04:00", "updated_at": "2025-07-03T19:30:49.268-04:00", "avatar": "https://avatars.slack-edge.com/2025-06-17/9059928926338_2048f20d1f7d070765fe_original.png", "custom_css": null}, {"id": 4308, "slack_id": "U091Q2HKXDK", "display_name": "Sumit Bhati", "bio": null, "projects_count": 0, "devlogs_count": 0, "votes_count": 0, "ships_count": 0, "projects": [], "coding_time_seconds": 0, "coding_time_seconds_today": 0, "balance": "You need to have a pocket watcher badge to view this.", "badges": [], "created_at": "2025-06-16T22:53:31.547-04:00", "updated_at": "2025-07-03T19:30:49.539-04:00", "avatar": "https://secure.gravatar.com/avatar/5356af96a66c6a9e091ff18a66d97ced.jpg?s=512&d=https%3A%2F%2Fa.slack-edge.com%2Fdf10d%2Fimg%2Favatars%2Fava_0004-512.png", "custom_css": null}, {"id": 4309, "slack_id": "U091RRT8Z5G", "display_name": "Ammon", "bio": null, "projects_count": 2, "devlogs_count": 10, "votes_count": 30, "ships_count": 1, "projects": [{"id": 1570, "title": "Mini-Shell", "devlogs_count": 8, "created_at": "2025-06-18T19:02:46.975-04:00"}, {"id": 5853, "title": "world-scanner", "devlogs_count": 2, "created_at": "2025-07-08T13:04:43.857-04:00"}], "coding_time_seconds": 64018, "coding_time_seconds_today": 0, "balance": "You need to have a pocket watcher badge to view this.", "badges": [{"name": "Maiden Voyage", "text": "you shipped your first project! the journey begins...", "icon": "\ud83d\udea2"}], "created_at": "2025-06-16T22:54:02.140-04:00", "updated_at": "2025-09-10T22:53:18.568-04:00", "avatar": "https://secure.gravatar.com/avatar/651026e7dd11414ab2d5c94d448186c7.jpg?s=512&d=https%3A%2F%2Fa.slack-edge.com%2Fdf10d%2Fimg%2Favatars%2Fava_0005-512.png", "custom_css": null}, {"id": 4310, "slack_id": "U07BV5XM6UQ", "display_name": "Anshuman Tripathy", "bio": null, "projects_count": 0, "devlogs_count": 0, "votes_count": 0, "ships_count": 0, "projects": [], "coding_time_seconds": 0, "coding_time_seconds_today": 0, "balance": "You need to have a pocket watcher badge to view this.", "badges": [], "created_at": "2025-06-16T22:54:08.546-04:00", "updated_at": "2025-07-03T19:30:50.356-04:00", "avatar": "https://secure.gravatar.com/avatar/b910132bc1ff9f9e26ac6d32277118e3.jpg?s=512&d=https%3A%2F%2Fa.slack-edge.com%2Fdf10d%2Fimg%2Favatars%2Fava_0022-512.png", "custom_css": null}, {"id": 4311, "slack_id": "U091Q2CFP2R", "display_name": "Tahira gardner", "bio": null, "projects_count": 0, "devlogs_count": 0, "votes_count": 0, "ships_count": 0, "projects": [], "coding_time_seconds": 8650, "coding_time_seconds_today": 0, "balance": "You need to have a pocket watcher badge to view this.", "badges": [], "created_at": "2025-06-16T22:54:19.032-04:00", "updated_at": "2025-08-30T08:48:56.779-04:00", "avatar": "https://avatars.slack-edge.com/2025-06-16/9053106930806_582a84b4c56cdff4ee49_original.png", "custom_css": null}, {"id": 4312, "slack_id": "U091S5MBCA0", "display_name": "Ayush", "bio": null, "projects_count": 0, "devlogs_count": 0, "votes_count": 0, "ships_count": 0, "projects": [], "coding_time_seconds": 0, "coding_time_seconds_today": 0, "balance": "You need to have a pocket watcher badge to view this.", "badges": [], "created_at": "2025-06-16T22:54:32.252-04:00", "updated_at": "2025-07-03T19:30:50.778-04:00", "avatar": "https://secure.gravatar.com/avatar/e1be52eb0d8b306f12e8cc33a1e3a180.jpg?s=512&d=https%3A%2F%2Fa.slack-edge.com%2Fdf10d%2Fimg%2Favatars%2Fava_0024-512.png", "custom_css": null}, {"id": 4313, "slack_id": "U091Q2LFGQM", "display_name": "Kushagra Kedia", "bio": null, "projects_count": 0, "devlogs_count": 0, "votes_count": 0, "ships_count": 0, "projects": [], "coding_time_seconds": 0, "coding_time_seconds_today": 0, "balance": "You need to have a pocket watcher badge to view this.", "badges": [], "created_at": "2025-06-16T22:54:44.533-04:00", "updated_at": "2025-07-03T19:30:51.053-04:00", "avatar": "https://avatars.slack-edge.com/2025-06-16/9059903929986_51a682b39ba4f7c0e8b7_original.png", "custom_css": null}, {"id": 4314, "slack_id": "U091K2SRTGW", "display_name": "Sebas", "bio": null, "projects_count": 1, "devlogs_count": 0, "votes_count": 0, "ships_count": 0, "projects": [{"id": 1054, "title": "Custom Raffle Management Platform", "devlogs_count": 0, "created_at": "2025-06-17T14:37:50.095-04:00"}], "coding_time_seconds": 98533, "coding_time_seconds_today": 0, "balance": "You need to have a pocket watcher badge to view this.", "badges": [], "created_at": "2025-06-16T22:54:58.652-04:00", "updated_at": "2025-07-03T19:30:51.317-04:00", "avatar": "https://secure.gravatar.com/avatar/2000093c404a4a56b5b9e47dd9b14e6b.jpg?s=512&d=https%3A%2F%2Fa.slack-edge.com%2Fdf10d%2Fimg%2Favatars%2Fava_0020-512.png", "custom_css": null}, {"id": 4315, "slack_id": "U087X4AG35K", "display_name": "Whising", "bio": null, "projects_count": 0, "devlogs_count": 0, "votes_count": 0, "ships_count": 0, "projects": [], "coding_time_seconds": 0, "coding_time_seconds_today": 0, "balance": "You need to have a pocket watcher badge to view this.", "badges": [], "created_at": "2025-06-16T22:55:29.809-04:00", "updated_at": "2025-09-16T01:41:31.125-04:00", "avatar": "https://avatars.slack-edge.com/2025-01-11/8293248565025_656fb4bce8454c0cbc9f_original.webp", "custom_css": null}, {"id": 4316, "slack_id": "U091AF04MST", "display_name": "Miftakun Niam", "bio": null, "projects_count": 0, "devlogs_count": 0, "votes_count": 0, "ships_count": 0, "projects": [], "coding_time_seconds": 40191, "coding_time_seconds_today": 0, "balance": "You need to have a pocket watcher badge to view this.", "badges": [], "created_at": "2025-06-16T22:55:33.825-04:00", "updated_at": "2025-07-03T19:30:51.848-04:00", "avatar": "https://secure.gravatar.com/avatar/778517ce968b961594c46082918b3dac.jpg?s=512&d=https%3A%2F%2Fa.slack-edge.com%2Fdf10d%2Fimg%2Favatars%2Fava_0015-512.png", "custom_css": null}, {"id": 4317, "slack_id": "U091K2ZU222", "display_name": "Chamod Tharindu", "bio": null, "projects_count": 0, "devlogs_count": 0, "votes_count": 0, "ships_count": 0, "projects": [], "coding_time_seconds": 0, "coding_time_seconds_today": 0, "balance": "You need to have a pocket watcher badge to view this.", "badges": [], "created_at": "2025-06-16T22:55:55.806-04:00", "updated_at": "2025-07-03T19:30:52.116-04:00", "avatar": "https://avatars.slack-edge.com/2025-06-16/9082289291008_2a553a306c1b4c03c2f7_original.png", "custom_css": null}, {"id": 4318, "slack_id": "U091AF5UZD5", "display_name": "Sonu carpenter", "bio": null, "projects_count": 0, "devlogs_count": 0, "votes_count": 0, "ships_count": 0, "projects": [], "coding_time_seconds": 0, "coding_time_seconds_today": 0, "balance": "You need to have a pocket watcher badge to view this.", "badges": [], "created_at": "2025-06-16T22:55:59.822-04:00", "updated_at": "2025-07-03T19:30:52.375-04:00", "avatar": "https://secure.gravatar.com/avatar/45621a00dd5a84339a269a08fec09b7e.jpg?s=512&d=https%3A%2F%2Fa.slack-edge.com%2Fdf10d%2Fimg%2Favatars%2Fava_0001-512.png", "custom_css": null}, {"id": 4319, "slack_id": "U079B6P9807", "display_name": "Harsh Mannava", "bio": null, "projects_count": 1, "devlogs_count": 4, "votes_count": 1, "ships_count": 1, "projects": [{"id": 2958, "title": "Blackbook", "devlogs_count": 4, "created_at": "2025-06-22T15:02:08.458-04:00"}], "coding_time_seconds": 73727, "coding_time_seconds_today": 0, "balance": "You need to have a pocket watcher badge to view this.", "badges": [{"name": "Maiden Voyage", "text": "you shipped your first project! the journey begins...", "icon": "\ud83d\udea2"}], "created_at": "2025-06-16T22:56:08.328-04:00", "updated_at": "2025-09-10T22:53:18.853-04:00", "avatar": "https://secure.gravatar.com/avatar/4eaff4b0e3fa9267ca4ca31be1301935.jpg?s=512&d=https%3A%2F%2Fa.slack-edge.com%2Fdf10d%2Fimg%2Favatars%2Fava_0024-512.png", "custom_css": null}, {"id": 4320, "slack_id": "U0924CBK2KB", "display_name": "Sujal Yadav", "bio": null, "projects_count": 0, "devlogs_count": 0, "votes_count": 0, "ships_count": 0, "projects": [], "coding_time_seconds": 0, "coding_time_seconds_today": 0, "balance": "You need to have a pocket watcher badge to view this.", "badges": [], "created_at": "2025-06-16T22:56:21.856-04:00", "updated_at": "2025-07-03T19:30:52.908-04:00", "avatar": "https://secure.gravatar.com/avatar/f3558a31140abbd3b13f0ebee2b20bc3.jpg?s=512&d=https%3A%2F%2Fa.slack-edge.com%2Fdf10d%2Fimg%2Favatars%2Fava_0009-512.png", "custom_css": null}], "pagination": {"page": 216, "pages": 1192, "count": 23828, "items": 20}}