{"users": [{"id": 4321, "slack_id": "U091S63AGKW", "display_name": "stormmonkeys", "bio": null, "projects_count": 0, "devlogs_count": 0, "votes_count": 0, "ships_count": 0, "projects": [], "coding_time_seconds": 120, "coding_time_seconds_today": 0, "balance": "You need to have a pocket watcher badge to view this.", "badges": [], "created_at": "2025-06-16T22:56:24.376-04:00", "updated_at": "2025-07-03T19:30:53.170-04:00", "avatar": "https://secure.gravatar.com/avatar/6113c9dcbed72d73b17e4bb854cfab89.jpg?s=512&d=https%3A%2F%2Fa.slack-edge.com%2Fdf10d%2Fimg%2Favatars%2Fava_0006-512.png", "custom_css": null}, {"id": 4322, "slack_id": "U091Q2R52SZ", "display_name": "shubham", "bio": null, "projects_count": 0, "devlogs_count": 0, "votes_count": 0, "ships_count": 0, "projects": [], "coding_time_seconds": 0, "coding_time_seconds_today": 0, "balance": "You need to have a pocket watcher badge to view this.", "badges": [], "created_at": "2025-06-16T22:56:33.553-04:00", "updated_at": "2025-07-03T19:30:53.432-04:00", "avatar": "https://avatars.slack-edge.com/2025-06-16/9044527139559_721873001d7165f7c875_original.png", "custom_css": null}, {"id": 4323, "slack_id": "U091Q2TH29K", "display_name": "Najaf Ali", "bio": null, "projects_count": 0, "devlogs_count": 0, "votes_count": 0, "ships_count": 0, "projects": [], "coding_time_seconds": 0, "coding_time_seconds_today": 0, "balance": "You need to have a pocket watcher badge to view this.", "badges": [], "created_at": "2025-06-16T22:56:52.369-04:00", "updated_at": "2025-07-03T19:30:53.695-04:00", "avatar": "https://avatars.slack-edge.com/2025-06-16/9059910159266_c54f5c460aa60a523c66_original.png", "custom_css": null}, {"id": 4324, "slack_id": "U091RSEBUR0", "display_name": "Ridhwan", "bio": null, "projects_count": 0, "devlogs_count": 0, "votes_count": 0, "ships_count": 0, "projects": [], "coding_time_seconds": 0, "coding_time_seconds_today": 0, "balance": "You need to have a pocket watcher badge to view this.", "badges": [], "created_at": "2025-06-16T22:57:01.188-04:00", "updated_at": "2025-07-03T19:30:53.959-04:00", "avatar": "https://avatars.slack-edge.com/2025-06-17/9059912348770_c07a7f4084d0fca605c0_original.png", "custom_css": null}, {"id": 4325, "slack_id": "U091S65TJKE", "display_name": "Asswin R", "bio": null, "projects_count": 1, "devlogs_count": 0, "votes_count": 0, "ships_count": 0, "projects": [{"id": 486, "title": "Learning website", "devlogs_count": 0, "created_at": "2025-06-16T23:22:25.323-04:00"}], "coding_time_seconds": 61852, "coding_time_seconds_today": 0, "balance": "You need to have a pocket watcher badge to view this.", "badges": [], "created_at": "2025-06-16T22:57:06.557-04:00", "updated_at": "2025-08-04T04:05:34.394-04:00", "avatar": "https://avatars.slack-edge.com/2025-06-16/9044528046903_246e8bbe7e02164bb129_original.jpg", "custom_css": null}, {"id": 4326, "slack_id": "U091Q2SUA6R", "display_name": "Cole", "bio": null, "projects_count": 0, "devlogs_count": 0, "votes_count": 0, "ships_count": 0, "projects": [], "coding_time_seconds": 811, "coding_time_seconds_today": 0, "balance": "You need to have a pocket watcher badge to view this.", "badges": [], "created_at": "2025-06-16T22:57:20.274-04:00", "updated_at": "2025-07-03T19:30:54.499-04:00", "avatar": "https://avatars.slack-edge.com/2025-06-16/9053115635862_7b7d33264c4af3b47fb9_original.png", "custom_css": null}, {"id": 4327, "slack_id": "U0924CKUNRX", "display_name": "Vishnu Donadula", "bio": null, "projects_count": 0, "devlogs_count": 0, "votes_count": 0, "ships_count": 0, "projects": [], "coding_time_seconds": 0, "coding_time_seconds_today": 0, "balance": "You need to have a pocket watcher badge to view this.", "badges": [], "created_at": "2025-06-16T22:57:29.311-04:00", "updated_at": "2025-07-03T19:30:54.784-04:00", "avatar": "https://secure.gravatar.com/avatar/153f87b0b52f990f3bcd86bfa9d0dfce.jpg?s=512&d=https%3A%2F%2Fa.slack-edge.com%2Fdf10d%2Fimg%2Favatars%2Fava_0019-512.png", "custom_css": null}, {"id": 4328, "slack_id": "U091Q2Q2HJ9", "display_name": "Adharv Shine", "bio": null, "projects_count": 0, "devlogs_count": 0, "votes_count": 0, "ships_count": 0, "projects": [], "coding_time_seconds": 0, "coding_time_seconds_today": 0, "balance": "You need to have a pocket watcher badge to view this.", "badges": [], "created_at": "2025-06-16T22:57:38.628-04:00", "updated_at": "2025-07-03T19:30:55.048-04:00", "avatar": "https://secure.gravatar.com/avatar/bfc4b9ee33bec8a0355ff526298e6be2.jpg?s=512&d=https%3A%2F%2Fa.slack-edge.com%2Fdf10d%2Fimg%2Favatars%2Fava_0004-512.png", "custom_css": null}, {"id": 4329, "slack_id": "U092E8E1KEU", "display_name": "Sebastian Renteria", "bio": null, "projects_count": 0, "devlogs_count": 0, "votes_count": 0, "ships_count": 0, "projects": [], "coding_time_seconds": 22793, "coding_time_seconds_today": 0, "balance": "You need to have a pocket watcher badge to view this.", "badges": [], "created_at": "2025-06-16T22:57:39.489-04:00", "updated_at": "2025-07-03T19:30:55.315-04:00", "avatar": "https://secure.gravatar.com/avatar/372dbab17c18bf776bbed4b68ce3d87c.jpg?s=512&d=https%3A%2F%2Fa.slack-edge.com%2Fdf10d%2Fimg%2Favatars%2Fava_0017-512.png", "custom_css": null}, {"id": 4330, "slack_id": "U092E89RL3S", "display_name": "Humayd Khan", "bio": null, "projects_count": 0, "devlogs_count": 0, "votes_count": 0, "ships_count": 0, "projects": [], "coding_time_seconds": 28652, "coding_time_seconds_today": 0, "balance": "You need to have a pocket watcher badge to view this.", "badges": [], "created_at": "2025-06-16T22:57:41.142-04:00", "updated_at": "2025-09-14T12:45:49.316-04:00", "avatar": "https://secure.gravatar.com/avatar/54ac071c6d2d2ba66c03d424b4ef2351.jpg?s=512&d=https%3A%2F%2Fa.slack-edge.com%2Fdf10d%2Fimg%2Favatars%2Fava_0026-512.png", "custom_css": null}, {"id": 4331, "slack_id": "U091JN2923V", "display_name": "kai", "bio": null, "projects_count": 0, "devlogs_count": 0, "votes_count": 0, "ships_count": 0, "projects": [], "coding_time_seconds": 0, "coding_time_seconds_today": 0, "balance": "You need to have a pocket watcher badge to view this.", "badges": [], "created_at": "2025-06-16T22:57:46.874-04:00", "updated_at": "2025-07-03T19:30:55.835-04:00", "avatar": "https://secure.gravatar.com/avatar/97b99ce14c30f407ac85926664003985.jpg?s=512&d=https%3A%2F%2Fa.slack-edge.com%2Fdf10d%2Fimg%2Favatars%2Fava_0007-512.png", "custom_css": null}, {"id": 4332, "slack_id": "U091K33GSLE", "display_name": "Luffy Monkey", "bio": null, "projects_count": 0, "devlogs_count": 0, "votes_count": 0, "ships_count": 0, "projects": [], "coding_time_seconds": 0, "coding_time_seconds_today": 0, "balance": "You need to have a pocket watcher badge to view this.", "badges": [], "created_at": "2025-06-16T22:57:50.936-04:00", "updated_at": "2025-07-03T19:30:56.122-04:00", "avatar": "https://avatars.slack-edge.com/2025-06-16/9059913723746_a55fb74eff2b907d35bb_original.png", "custom_css": null}, {"id": 4333, "slack_id": "U091RR9RNNN", "display_name": "Siddharth Nittur", "bio": "", "projects_count": 1, "devlogs_count": 27, "votes_count": 21, "ships_count": 1, "projects": [{"id": 3319, "title": "Recipe Finder", "devlogs_count": 27, "created_at": "2025-06-23T19:59:04.545-04:00"}], "coding_time_seconds": 102127, "coding_time_seconds_today": 0, "balance": "You need to have a pocket watcher badge to view this.", "badges": [{"name": "Maiden Voyage", "text": "you shipped your first project! the journey begins...", "icon": "\ud83d\udea2"}], "created_at": "2025-06-16T22:58:27.146-04:00", "updated_at": "2025-09-10T22:53:19.385-04:00", "avatar": "https://secure.gravatar.com/avatar/56c848fca6780280ab0273b693a78d5b.jpg?s=512&d=https%3A%2F%2Fa.slack-edge.com%2Fdf10d%2Fimg%2Favatars%2Fava_0022-512.png", "custom_css": null}, {"id": 4334, "slack_id": "U091S65QS6Q", "display_name": "Mustar13", "bio": null, "projects_count": 0, "devlogs_count": 0, "votes_count": 0, "ships_count": 0, "projects": [], "coding_time_seconds": 0, "coding_time_seconds_today": 0, "balance": "You need to have a pocket watcher badge to view this.", "badges": [], "created_at": "2025-06-16T22:58:30.947-04:00", "updated_at": "2025-07-03T19:30:56.651-04:00", "avatar": "https://secure.gravatar.com/avatar/b4d8dc845ff48a84302d673ad00e2b64.jpg?s=512&d=https%3A%2F%2Fa.slack-edge.com%2Fdf10d%2Fimg%2Favatars%2Fava_0017-512.png", "custom_css": null}, {"id": 4335, "slack_id": "U07BX42S0AG", "display_name": "Pulkit", "bio": null, "projects_count": 0, "devlogs_count": 0, "votes_count": 0, "ships_count": 0, "projects": [], "coding_time_seconds": 0, "coding_time_seconds_today": 0, "balance": "You need to have a pocket watcher badge to view this.", "badges": [], "created_at": "2025-06-16T22:58:38.525-04:00", "updated_at": "2025-07-03T19:30:56.992-04:00", "avatar": "https://avatars.slack-edge.com/2025-06-17/9060239816004_b819d7d2e030a246df06_original.jpg", "custom_css": null}, {"id": 4336, "slack_id": "U091Q2ZFN0M", "display_name": "C\u00e9sar Cardozo", "bio": null, "projects_count": 0, "devlogs_count": 0, "votes_count": 0, "ships_count": 0, "projects": [], "coding_time_seconds": 0, "coding_time_seconds_today": 0, "balance": "You need to have a pocket watcher badge to view this.", "badges": [], "created_at": "2025-06-16T22:58:38.651-04:00", "updated_at": "2025-07-03T19:30:57.254-04:00", "avatar": "https://secure.gravatar.com/avatar/c1fe31576a717058ca3740b47a2e2eab.jpg?s=512&d=https%3A%2F%2Fa.slack-edge.com%2Fdf10d%2Fimg%2Favatars%2Fava_0013-512.png", "custom_css": null}, {"id": 4337, "slack_id": "U091K36PAT0", "display_name": "Roshan Sahani", "bio": null, "projects_count": 1, "devlogs_count": 0, "votes_count": 0, "ships_count": 0, "projects": [{"id": 500, "title": "Portofolio", "devlogs_count": 0, "created_at": "2025-06-16T23:44:20.121-04:00"}], "coding_time_seconds": 1961, "coding_time_seconds_today": 0, "balance": "You need to have a pocket watcher badge to view this.", "badges": [], "created_at": "2025-06-16T22:58:42.280-04:00", "updated_at": "2025-07-03T19:30:57.520-04:00", "avatar": "https://secure.gravatar.com/avatar/c824ff86840c4804fd613a740098fcdf.jpg?s=512&d=https%3A%2F%2Fa.slack-edge.com%2Fdf10d%2Fimg%2Favatars%2Fava_0009-512.png", "custom_css": null}, {"id": 4338, "slack_id": "U091K2SRPFY", "display_name": "Wyatt Marcus", "bio": null, "projects_count": 0, "devlogs_count": 0, "votes_count": 0, "ships_count": 0, "projects": [], "coding_time_seconds": 65399, "coding_time_seconds_today": 0, "balance": "You need to have a pocket watcher badge to view this.", "badges": [], "created_at": "2025-06-16T22:58:54.708-04:00", "updated_at": "2025-09-02T03:43:08.081-04:00", "avatar": "https://secure.gravatar.com/avatar/58199fa04ecea2e37dc280dc86a1c6a6.jpg?s=512&d=https%3A%2F%2Fa.slack-edge.com%2Fdf10d%2Fimg%2Favatars%2Fava_0011-512.png", "custom_css": null}, {"id": 4339, "slack_id": "U092E8HUEPJ", "display_name": "Aditya C", "bio": null, "projects_count": 0, "devlogs_count": 0, "votes_count": 0, "ships_count": 0, "projects": [], "coding_time_seconds": 0, "coding_time_seconds_today": 0, "balance": "You need to have a pocket watcher badge to view this.", "badges": [], "created_at": "2025-06-16T22:59:19.291-04:00", "updated_at": "2025-07-03T19:30:58.041-04:00", "avatar": "https://avatars.slack-edge.com/2025-06-16/9053008333731_197d00f6e7c51bd73417_original.png", "custom_css": null}, {"id": 4340, "slack_id": "U0924CKCP5F", "display_name": "\u856d\u7dad\u4f51", "bio": null, "projects_count": 0, "devlogs_count": 0, "votes_count": 0, "ships_count": 0, "projects": [], "coding_time_seconds": 0, "coding_time_seconds_today": 0, "balance": "You need to have a pocket watcher badge to view this.", "badges": [], "created_at": "2025-06-16T22:59:26.472-04:00", "updated_at": "2025-07-03T19:30:58.320-04:00", "avatar": "https://secure.gravatar.com/avatar/02885b29bb01f15b321cb374d25a6c95.jpg?s=512&d=https%3A%2F%2Fa.slack-edge.com%2Fdf10d%2Fimg%2Favatars%2Fava_0022-512.png", "custom_css": null}], "pagination": {"page": 217, "pages": 1192, "count": 23828, "items": 20}}