{"users": [{"id": 4341, "slack_id": "U091JVDA7FD", "display_name": "Mahir Aslam", "bio": null, "projects_count": 0, "devlogs_count": 0, "votes_count": 0, "ships_count": 0, "projects": [], "coding_time_seconds": 73, "coding_time_seconds_today": 0, "balance": "You need to have a pocket watcher badge to view this.", "badges": [], "created_at": "2025-06-16T22:59:53.890-04:00", "updated_at": "2025-07-03T19:30:58.590-04:00", "avatar": "https://secure.gravatar.com/avatar/8bc8f226479aed80bbb43c41f6993ee4.jpg?s=512&d=https%3A%2F%2Fa.slack-edge.com%2Fdf10d%2Fimg%2Favatars%2Fava_0006-512.png", "custom_css": null}, {"id": 4342, "slack_id": "U0924CWA9DX", "display_name": "Aditya Sriram", "bio": null, "projects_count": 2, "devlogs_count": 1, "votes_count": 0, "ships_count": 0, "projects": [{"id": 514, "title": "Discord Bot", "devlogs_count": 0, "created_at": "2025-06-17T00:06:04.144-04:00"}, {"id": 1212, "title": "Robotics Team Website", "devlogs_count": 1, "created_at": "2025-06-17T23:16:19.219-04:00"}], "coding_time_seconds": 6393, "coding_time_seconds_today": 0, "balance": "You need to have a pocket watcher badge to view this.", "badges": [], "created_at": "2025-06-16T23:00:32.525-04:00", "updated_at": "2025-07-03T19:30:58.866-04:00", "avatar": "https://avatars.slack-edge.com/2025-06-16/9060232166500_41d67d92a4eb2c0aa0cc_original.jpg", "custom_css": null}, {"id": 4343, "slack_id": "U091Q2T1EQ5", "display_name": "Shaaf Ahmed Kittur", "bio": null, "projects_count": 0, "devlogs_count": 0, "votes_count": 0, "ships_count": 0, "projects": [], "coding_time_seconds": 0, "coding_time_seconds_today": 0, "balance": "You need to have a pocket watcher badge to view this.", "badges": [], "created_at": "2025-06-16T23:00:48.373-04:00", "updated_at": "2025-07-03T19:30:59.134-04:00", "avatar": "https://avatars.slack-edge.com/2025-06-16/9072451155361_3752e8142f59881e66d1_original.png", "custom_css": null}, {"id": 4344, "slack_id": "U078VSZJSTZ", "display_name": "NSheth", "bio": null, "projects_count": 0, "devlogs_count": 0, "votes_count": 0, "ships_count": 0, "projects": [], "coding_time_seconds": 0, "coding_time_seconds_today": 0, "balance": "You need to have a pocket watcher badge to view this.", "badges": [], "created_at": "2025-06-16T23:01:13.874-04:00", "updated_at": "2025-07-03T19:30:59.405-04:00", "avatar": "https://secure.gravatar.com/avatar/a291f035bc47030fd03cfbec8e79c85d.jpg?s=512&d=https%3A%2F%2Fa.slack-edge.com%2Fdf10d%2Fimg%2Favatars%2Fava_0023-512.png", "custom_css": null}, {"id": 4345, "slack_id": "U091K37RPPY", "display_name": "Arun Kumar Ayinabathina", "bio": null, "projects_count": 0, "devlogs_count": 0, "votes_count": 0, "ships_count": 0, "projects": [], "coding_time_seconds": 0, "coding_time_seconds_today": 0, "balance": "You need to have a pocket watcher badge to view this.", "badges": [], "created_at": "2025-06-16T23:01:35.881-04:00", "updated_at": "2025-07-03T19:30:59.663-04:00", "avatar": "https://secure.gravatar.com/avatar/489e524534daf49d35cb9de3aea2be4c.jpg?s=512&d=https%3A%2F%2Fa.slack-edge.com%2Fdf10d%2Fimg%2Favatars%2Fava_0013-512.png", "custom_css": null}, {"id": 4346, "slack_id": "U091AEY8H0F", "display_name": "Erick Jackson", "bio": null, "projects_count": 0, "devlogs_count": 0, "votes_count": 0, "ships_count": 0, "projects": [], "coding_time_seconds": 0, "coding_time_seconds_today": 0, "balance": "You need to have a pocket watcher badge to view this.", "badges": [], "created_at": "2025-06-16T23:01:39.724-04:00", "updated_at": "2025-07-03T19:30:59.930-04:00", "avatar": "https://secure.gravatar.com/avatar/3dce1042108e182d26b2d17325d92f33.jpg?s=512&d=https%3A%2F%2Fa.slack-edge.com%2Fdf10d%2Fimg%2Favatars%2Fava_0007-512.png", "custom_css": null}, {"id": 4347, "slack_id": "U092E8DNZUG", "display_name": "anand", "bio": null, "projects_count": 0, "devlogs_count": 0, "votes_count": 0, "ships_count": 0, "projects": [], "coding_time_seconds": 0, "coding_time_seconds_today": 0, "balance": "You need to have a pocket watcher badge to view this.", "badges": [], "created_at": "2025-06-16T23:01:47.589-04:00", "updated_at": "2025-07-03T19:31:00.190-04:00", "avatar": "https://secure.gravatar.com/avatar/f4f7aed2164b1f39a7e9af77d20f1c03.jpg?s=512&d=https%3A%2F%2Fa.slack-edge.com%2Fdf10d%2Fimg%2Favatars%2Fava_0021-512.png", "custom_css": null}, {"id": 4348, "slack_id": "U091AFQ6JJK", "display_name": "Manikanta Darapureddy", "bio": null, "projects_count": 0, "devlogs_count": 0, "votes_count": 0, "ships_count": 0, "projects": [], "coding_time_seconds": 55786, "coding_time_seconds_today": 0, "balance": "You need to have a pocket watcher badge to view this.", "badges": [], "created_at": "2025-06-16T23:02:30.487-04:00", "updated_at": "2025-07-03T19:31:00.460-04:00", "avatar": "https://secure.gravatar.com/avatar/922d81d0c0b94a3698a1480a48537dea.jpg?s=512&d=https%3A%2F%2Fa.slack-edge.com%2Fdf10d%2Fimg%2Favatars%2Fava_0016-512.png", "custom_css": null}, {"id": 4349, "slack_id": "U07FW3J47ME", "display_name": "Shubham", "bio": null, "projects_count": 9, "devlogs_count": 38, "votes_count": 3, "ships_count": 1, "projects": [{"id": 4892, "title": "Autodesk Fusion 360", "devlogs_count": 0, "created_at": "2025-07-02T04:02:04.725-04:00"}, {"id": 5471, "title": "Portfolio", "devlogs_count": 1, "created_at": "2025-07-05T13:34:23.187-04:00"}, {"id": 13633, "title": "Taborganiser", "devlogs_count": 3, "created_at": "2025-09-21T14:34:37.816-04:00"}, {"id": 10994, "title": "Study Planner API", "devlogs_count": 3, "created_at": "2025-08-12T09:28:12.510-04:00"}, {"id": 11123, "title": "ESP32 Board", "devlogs_count": 6, "created_at": "2025-08-13T10:40:20.601-04:00"}, {"id": 11596, "title": "Macropad", "devlogs_count": 6, "created_at": "2025-08-17T11:56:58.682-04:00"}, {"id": 12594, "title": "Gamepad", "devlogs_count": 8, "created_at": "2025-08-30T08:18:53.857-04:00"}, {"id": 12498, "title": "Split Keyboard", "devlogs_count": 5, "created_at": "2025-08-28T13:02:38.293-04:00"}, {"id": 7012, "title": "Dots And Boxes AI", "devlogs_count": 2, "created_at": "2025-07-18T08:45:40.097-04:00"}], "coding_time_seconds": 694591, "coding_time_seconds_today": 0, "balance": "You need to have a pocket watcher badge to view this.", "badges": [{"name": "Maiden Voyage", "text": "you shipped your first project! the journey begins...", "icon": "\ud83d\udea2"}], "created_at": "2025-06-16T23:02:42.303-04:00", "updated_at": "2025-09-10T22:53:19.870-04:00", "avatar": "https://avatars.slack-edge.com/2025-08-07/9320260104133_a5be31aea09f943de4b0_original.png", "custom_css": null}, {"id": 4350, "slack_id": "U0832NSBCAH", "display_name": "Tileryr", "bio": null, "projects_count": 2, "devlogs_count": 28, "votes_count": 0, "ships_count": 0, "projects": [{"id": 10309, "title": "Minecraft Rpg Abillities", "devlogs_count": 10, "created_at": "2025-08-05T19:27:51.288-04:00"}, {"id": 5386, "title": "VBA", "devlogs_count": 18, "created_at": "2025-07-05T01:09:39.918-04:00"}], "coding_time_seconds": 699960, "coding_time_seconds_today": 0, "balance": "You need to have a pocket watcher badge to view this.", "badges": [], "created_at": "2025-06-16T23:02:42.855-04:00", "updated_at": "2025-08-13T18:36:25.808-04:00", "avatar": "https://avatars.slack-edge.com/2025-02-12/8440609299397_4f657ee89705c97c934b_original.png", "custom_css": null}, {"id": 4351, "slack_id": "U07A64GBPV1", "display_name": "AndyNoob", "bio": null, "projects_count": 2, "devlogs_count": 2, "votes_count": 3, "ships_count": 0, "projects": [{"id": 1076, "title": "Minecraft Enchant Level Fix", "devlogs_count": 1, "created_at": "2025-06-17T15:25:26.683-04:00"}, {"id": 1497, "title": "Minecraft Plugin that adds combat moves and NPC behaviour", "devlogs_count": 1, "created_at": "2025-06-18T16:30:19.932-04:00"}], "coding_time_seconds": 358797, "coding_time_seconds_today": 0, "balance": "You need to have a pocket watcher badge to view this.", "badges": [], "created_at": "2025-06-16T23:03:32.980-04:00", "updated_at": "2025-07-03T19:31:01.254-04:00", "avatar": "https://avatars.slack-edge.com/2024-07-13/7442351210880_e3849448a9f64d1a5a4f_original.png", "custom_css": null}, {"id": 4352, "slack_id": "U07BJ6RFK34", "display_name": "Tobin Palmer", "bio": null, "projects_count": 1, "devlogs_count": 1, "votes_count": 0, "ships_count": 0, "projects": [{"id": 481, "title": "Wall-V", "devlogs_count": 1, "created_at": "2025-06-16T23:17:46.362-04:00"}], "coding_time_seconds": 148570, "coding_time_seconds_today": 0, "balance": "You need to have a pocket watcher badge to view this.", "badges": [], "created_at": "2025-06-16T23:03:55.925-04:00", "updated_at": "2025-07-03T19:31:01.532-04:00", "avatar": "https://secure.gravatar.com/avatar/98363804d492ecd6aeb6fe481a82d127.jpg?s=512&d=https%3A%2F%2Fa.slack-edge.com%2Fdf10d%2Fimg%2Favatars%2Fava_0014-512.png", "custom_css": null}, {"id": 4353, "slack_id": "U091S6XGH4L", "display_name": "Jo\u00e3o Pedro Ramalho", "bio": null, "projects_count": 0, "devlogs_count": 0, "votes_count": 0, "ships_count": 0, "projects": [], "coding_time_seconds": 0, "coding_time_seconds_today": 0, "balance": "You need to have a pocket watcher badge to view this.", "badges": [], "created_at": "2025-06-16T23:04:36.298-04:00", "updated_at": "2025-07-03T19:31:01.796-04:00", "avatar": "https://secure.gravatar.com/avatar/b2b36fbd0440df1ba1d5666a9edcd41d.jpg?s=512&d=https%3A%2F%2Fa.slack-edge.com%2Fdf10d%2Fimg%2Favatars%2Fava_0015-512.png", "custom_css": null}, {"id": 4354, "slack_id": "U091AFXS8UX", "display_name": "Rajdeep Paul", "bio": null, "projects_count": 0, "devlogs_count": 0, "votes_count": 0, "ships_count": 0, "projects": [], "coding_time_seconds": 69634, "coding_time_seconds_today": 0, "balance": "You need to have a pocket watcher badge to view this.", "badges": [], "created_at": "2025-06-16T23:04:41.441-04:00", "updated_at": "2025-07-03T19:31:02.061-04:00", "avatar": "https://secure.gravatar.com/avatar/1b90943cb3cadf5e344fe92eea47b7fb.jpg?s=512&d=https%3A%2F%2Fa.slack-edge.com%2Fdf10d%2Fimg%2Favatars%2Fava_0012-512.png", "custom_css": null}, {"id": 4355, "slack_id": "U091RT5M38S", "display_name": "bharathi", "bio": null, "projects_count": 0, "devlogs_count": 0, "votes_count": 0, "ships_count": 0, "projects": [], "coding_time_seconds": 0, "coding_time_seconds_today": 0, "balance": "You need to have a pocket watcher badge to view this.", "badges": [], "created_at": "2025-06-16T23:05:08.673-04:00", "updated_at": "2025-07-03T19:31:02.321-04:00", "avatar": "https://secure.gravatar.com/avatar/4e05da7f104d86bc2671dcf10936dd5d.jpg?s=512&d=https%3A%2F%2Fa.slack-edge.com%2Fdf10d%2Fimg%2Favatars%2Fava_0016-512.png", "custom_css": null}, {"id": 4356, "slack_id": "U091K2R4ZJS", "display_name": "Xiro", "bio": null, "projects_count": 0, "devlogs_count": 0, "votes_count": 0, "ships_count": 0, "projects": [], "coding_time_seconds": 0, "coding_time_seconds_today": 0, "balance": "You need to have a pocket watcher badge to view this.", "badges": [], "created_at": "2025-06-16T23:05:09.534-04:00", "updated_at": "2025-07-03T19:31:02.581-04:00", "avatar": "https://secure.gravatar.com/avatar/2122f58763699d3c7b0dcaa5ef9b1a7f.jpg?s=512&d=https%3A%2F%2Fa.slack-edge.com%2Fdf10d%2Fimg%2Favatars%2Fava_0024-512.png", "custom_css": null}, {"id": 4357, "slack_id": "U0924DDG9QR", "display_name": "Texaschair_user478", "bio": null, "projects_count": 1, "devlogs_count": 0, "votes_count": 0, "ships_count": 0, "projects": [{"id": 12400, "title": "basic stuff", "devlogs_count": 0, "created_at": "2025-08-26T21:46:20.084-04:00"}], "coding_time_seconds": 3895, "coding_time_seconds_today": 0, "balance": "You need to have a pocket watcher badge to view this.", "badges": [], "created_at": "2025-06-16T23:06:13.861-04:00", "updated_at": "2025-08-27T02:00:06.533-04:00", "avatar": "https://secure.gravatar.com/avatar/8f3c6bf04065791a32d35f454c09801b.jpg?s=512&d=https%3A%2F%2Fa.slack-edge.com%2Fdf10d%2Fimg%2Favatars%2Fava_0017-512.png", "custom_css": null}, {"id": 4358, "slack_id": "U091K3RR1JS", "display_name": "Saksham Gupta", "bio": null, "projects_count": 0, "devlogs_count": 0, "votes_count": 0, "ships_count": 0, "projects": [], "coding_time_seconds": 126888, "coding_time_seconds_today": 814, "balance": "You need to have a pocket watcher badge to view this.", "badges": [], "created_at": "2025-06-16T23:06:15.870-04:00", "updated_at": "2025-08-01T03:05:15.509-04:00", "avatar": "https://secure.gravatar.com/avatar/da457cb0a45c6a0955421c0d7351b097.jpg?s=512&d=https%3A%2F%2Fa.slack-edge.com%2Fdf10d%2Fimg%2Favatars%2Fava_0004-512.png", "custom_css": null}, {"id": 4359, "slack_id": "U0924DJPQP3", "display_name": "Sophia Liu", "bio": null, "projects_count": 0, "devlogs_count": 0, "votes_count": 0, "ships_count": 0, "projects": [], "coding_time_seconds": 0, "coding_time_seconds_today": 0, "balance": "You need to have a pocket watcher badge to view this.", "badges": [], "created_at": "2025-06-16T23:06:49.976-04:00", "updated_at": "2025-07-03T19:31:03.381-04:00", "avatar": "https://avatars.slack-edge.com/2025-06-16/9053035390083_a0aee272461005fcdd4b_original.png", "custom_css": null}, {"id": 4360, "slack_id": "U091Q3WPLGM", "display_name": "ALVIN LIU EN YU HCI", "bio": null, "projects_count": 0, "devlogs_count": 0, "votes_count": 0, "ships_count": 0, "projects": [], "coding_time_seconds": 0, "coding_time_seconds_today": 0, "balance": "You need to have a pocket watcher badge to view this.", "badges": [], "created_at": "2025-06-16T23:07:17.885-04:00", "updated_at": "2025-07-03T19:31:03.647-04:00", "avatar": "https://avatars.slack-edge.com/2025-06-16/9053037726963_f303835621ee0460b671_original.png", "custom_css": null}], "pagination": {"page": 218, "pages": 1192, "count": 23828, "items": 20}}