{"users": [{"id": 4361, "slack_id": "U091K06SAG3", "display_name": "Reena Tanchak", "bio": null, "projects_count": 0, "devlogs_count": 0, "votes_count": 0, "ships_count": 0, "projects": [], "coding_time_seconds": 0, "coding_time_seconds_today": 0, "balance": "You need to have a pocket watcher badge to view this.", "badges": [], "created_at": "2025-06-16T23:07:31.804-04:00", "updated_at": "2025-07-03T19:31:03.920-04:00", "avatar": "https://secure.gravatar.com/avatar/001ca56646aba5e7040993a72f16045d.jpg?s=512&d=https%3A%2F%2Fa.slack-edge.com%2Fdf10d%2Fimg%2Favatars%2Fava_0010-512.png", "custom_css": null}, {"id": 4362, "slack_id": "U0924AXUE0Z", "display_name": "Gowtham", "bio": null, "projects_count": 0, "devlogs_count": 0, "votes_count": 0, "ships_count": 0, "projects": [], "coding_time_seconds": 0, "coding_time_seconds_today": 0, "balance": "You need to have a pocket watcher badge to view this.", "badges": [], "created_at": "2025-06-16T23:07:39.287-04:00", "updated_at": "2025-07-03T19:31:04.180-04:00", "avatar": "https://avatars.slack-edge.com/2025-06-16/9059945163458_07d17fd908286425711e_original.jpg", "custom_css": null}, {"id": 4363, "slack_id": "U091K0R8F7V", "display_name": "lark", "bio": null, "projects_count": 0, "devlogs_count": 0, "votes_count": 0, "ships_count": 0, "projects": [], "coding_time_seconds": 0, "coding_time_seconds_today": 0, "balance": "You need to have a pocket watcher badge to view this.", "badges": [], "created_at": "2025-06-16T23:07:40.226-04:00", "updated_at": "2025-07-03T19:31:04.443-04:00", "avatar": "https://secure.gravatar.com/avatar/40e67c2f171c3a1e421c04bd4950059a.jpg?s=512&d=https%3A%2F%2Fa.slack-edge.com%2Fdf10d%2Fimg%2Favatars%2Fava_0014-512.png", "custom_css": null}, {"id": 4364, "slack_id": "U091K4330AJ", "display_name": "Aniket Kumar Sharma", "bio": null, "projects_count": 0, "devlogs_count": 0, "votes_count": 0, "ships_count": 0, "projects": [], "coding_time_seconds": 0, "coding_time_seconds_today": 0, "balance": "You need to have a pocket watcher badge to view this.", "badges": [], "created_at": "2025-06-16T23:07:56.487-04:00", "updated_at": "2025-07-03T19:31:04.706-04:00", "avatar": "https://secure.gravatar.com/avatar/5e63c84e692cc30a3c75378328f96142.jpg?s=512&d=https%3A%2F%2Fa.slack-edge.com%2Fdf10d%2Fimg%2Favatars%2Fava_0001-512.png", "custom_css": null}, {"id": 4365, "slack_id": "U091AG3R5UP", "display_name": "Themira Chamith", "bio": null, "projects_count": 0, "devlogs_count": 0, "votes_count": 0, "ships_count": 0, "projects": [], "coding_time_seconds": 0, "coding_time_seconds_today": 0, "balance": "You need to have a pocket watcher badge to view this.", "badges": [], "created_at": "2025-06-16T23:08:10.196-04:00", "updated_at": "2025-07-03T19:31:05.039-04:00", "avatar": "https://avatars.slack-edge.com/2025-06-16/9053151699494_9552602c1d93aee4d102_original.png", "custom_css": null}, {"id": 4366, "slack_id": "U08A08YV9JM", "display_name": "via", "bio": null, "projects_count": 0, "devlogs_count": 0, "votes_count": 0, "ships_count": 0, "projects": [], "coding_time_seconds": 0, "coding_time_seconds_today": 0, "balance": "You need to have a pocket watcher badge to view this.", "badges": [], "created_at": "2025-06-16T23:08:49.188-04:00", "updated_at": "2025-07-03T19:31:05.303-04:00", "avatar": "https://avatars.slack-edge.com/2025-03-20/8625015195446_1475265c2c0f6f78e0c9_original.jpg", "custom_css": null}, {"id": 4367, "slack_id": "U092E9DSWUQ", "display_name": "Aviral Jain", "bio": null, "projects_count": 1, "devlogs_count": 1, "votes_count": 0, "ships_count": 0, "projects": [{"id": 498, "title": "verification creator", "devlogs_count": 1, "created_at": "2025-06-16T23:43:36.051-04:00"}], "coding_time_seconds": 2857, "coding_time_seconds_today": 0, "balance": "You need to have a pocket watcher badge to view this.", "badges": [], "created_at": "2025-06-16T23:08:49.221-04:00", "updated_at": "2025-07-03T19:31:05.569-04:00", "avatar": "https://secure.gravatar.com/avatar/c5d9120ef8c68c04b6f1eadf159be124.jpg?s=512&d=https%3A%2F%2Fa.slack-edge.com%2Fdf10d%2Fimg%2Favatars%2Fava_0000-512.png", "custom_css": null}, {"id": 4368, "slack_id": "U091RTJAUNN", "display_name": "Gaurav Yadav", "bio": null, "projects_count": 0, "devlogs_count": 0, "votes_count": 0, "ships_count": 0, "projects": [], "coding_time_seconds": 6284, "coding_time_seconds_today": 0, "balance": "You need to have a pocket watcher badge to view this.", "badges": [], "created_at": "2025-06-16T23:09:00.244-04:00", "updated_at": "2025-07-03T19:31:05.838-04:00", "avatar": "https://secure.gravatar.com/avatar/b469950a0e9fd14160af0956bda66bbd.jpg?s=512&d=https%3A%2F%2Fa.slack-edge.com%2Fdf10d%2Fimg%2Favatars%2Fava_0004-512.png", "custom_css": null}, {"id": 4369, "slack_id": "U091K4ASN06", "display_name": "Armon", "bio": null, "projects_count": 0, "devlogs_count": 0, "votes_count": 0, "ships_count": 0, "projects": [], "coding_time_seconds": 0, "coding_time_seconds_today": 0, "balance": "You need to have a pocket watcher badge to view this.", "badges": [], "created_at": "2025-06-16T23:09:29.694-04:00", "updated_at": "2025-07-03T19:31:06.102-04:00", "avatar": "https://secure.gravatar.com/avatar/c3383a8bfef40daefd17580d02790afa.jpg?s=512&d=https%3A%2F%2Fa.slack-edge.com%2Fdf10d%2Fimg%2Favatars%2Fava_0021-512.png", "custom_css": null}, {"id": 4370, "slack_id": "U091S7AS5M2", "display_name": "Jay Raychura", "bio": null, "projects_count": 1, "devlogs_count": 0, "votes_count": 0, "ships_count": 0, "projects": [{"id": 505, "title": "FaceVerificationModel", "devlogs_count": 0, "created_at": "2025-06-16T23:48:22.586-04:00"}], "coding_time_seconds": 5090, "coding_time_seconds_today": 0, "balance": "You need to have a pocket watcher badge to view this.", "badges": [], "created_at": "2025-06-16T23:09:53.961-04:00", "updated_at": "2025-07-03T19:31:06.368-04:00", "avatar": "https://avatars.slack-edge.com/2025-06-17/9053143143155_2d2729e1b1abbdeb8f30_original.jpg", "custom_css": null}, {"id": 4371, "slack_id": "U092E9C60D6", "display_name": "pomme", "bio": null, "projects_count": 0, "devlogs_count": 0, "votes_count": 0, "ships_count": 0, "projects": [], "coding_time_seconds": 59288, "coding_time_seconds_today": 0, "balance": "You need to have a pocket watcher badge to view this.", "badges": [], "created_at": "2025-06-16T23:09:54.853-04:00", "updated_at": "2025-07-03T19:31:06.631-04:00", "avatar": "https://secure.gravatar.com/avatar/16e412487ec7cac680661eaed5909660.jpg?s=512&d=https%3A%2F%2Fa.slack-edge.com%2Fdf10d%2Fimg%2Favatars%2Fava_0004-512.png", "custom_css": null}, {"id": 4372, "slack_id": "U091Q452HDK", "display_name": "Harshal Suryavanshi", "bio": null, "projects_count": 0, "devlogs_count": 0, "votes_count": 0, "ships_count": 0, "projects": [], "coding_time_seconds": 0, "coding_time_seconds_today": 0, "balance": "You need to have a pocket watcher badge to view this.", "badges": [], "created_at": "2025-06-16T23:09:58.414-04:00", "updated_at": "2025-07-03T19:31:06.885-04:00", "avatar": "https://avatars.slack-edge.com/2025-06-16/9072480000145_00d1ba05d82bdff79864_original.jpg", "custom_css": null}, {"id": 4373, "slack_id": "U091K498DP0", "display_name": "Nitish", "bio": null, "projects_count": 0, "devlogs_count": 0, "votes_count": 0, "ships_count": 0, "projects": [], "coding_time_seconds": 0, "coding_time_seconds_today": 0, "balance": "You need to have a pocket watcher badge to view this.", "badges": [], "created_at": "2025-06-16T23:10:06.321-04:00", "updated_at": "2025-07-03T19:31:07.157-04:00", "avatar": "https://secure.gravatar.com/avatar/14f1972f77df615910f5e5033fe41e44.jpg?s=512&d=https%3A%2F%2Fa.slack-edge.com%2Fdf10d%2Fimg%2Favatars%2Fava_0014-512.png", "custom_css": null}, {"id": 4374, "slack_id": "U07A8EB913P", "display_name": "goodlife1302", "bio": null, "projects_count": 1, "devlogs_count": 1, "votes_count": 21, "ships_count": 1, "projects": [{"id": 4639, "title": "NutriFlow", "devlogs_count": 1, "created_at": "2025-07-01T00:00:30.080-04:00"}], "coding_time_seconds": 29240, "coding_time_seconds_today": 0, "balance": "You need to have a pocket watcher badge to view this.", "badges": [{"name": "Maiden Voyage", "text": "you shipped your first project! the journey begins...", "icon": "\ud83d\udea2"}], "created_at": "2025-06-16T23:10:44.643-04:00", "updated_at": "2025-09-10T22:53:20.830-04:00", "avatar": "https://avatars.slack-edge.com/2024-06-28/7348488209381_32bf7720846203f2b8d1_original.png", "custom_css": null}, {"id": 4375, "slack_id": "U091K48M4F8", "display_name": "prajan", "bio": null, "projects_count": 0, "devlogs_count": 0, "votes_count": 0, "ships_count": 0, "projects": [], "coding_time_seconds": 0, "coding_time_seconds_today": 0, "balance": "You need to have a pocket watcher badge to view this.", "badges": [], "created_at": "2025-06-16T23:11:01.010-04:00", "updated_at": "2025-07-03T19:31:07.678-04:00", "avatar": "https://secure.gravatar.com/avatar/5c3a873d9037f81c11034b344ba04f19.jpg?s=512&d=https%3A%2F%2Fa.slack-edge.com%2Fdf10d%2Fimg%2Favatars%2Fava_0021-512.png", "custom_css": null}, {"id": 4376, "slack_id": "U091S71F468", "display_name": "WindB3NJA", "bio": null, "projects_count": 0, "devlogs_count": 0, "votes_count": 0, "ships_count": 0, "projects": [], "coding_time_seconds": 0, "coding_time_seconds_today": 0, "balance": "You need to have a pocket watcher badge to view this.", "badges": [], "created_at": "2025-06-16T23:11:12.457-04:00", "updated_at": "2025-07-03T19:31:07.977-04:00", "avatar": "https://secure.gravatar.com/avatar/67810f369fdbfb8803db947f66a79c64.jpg?s=512&d=https%3A%2F%2Fa.slack-edge.com%2Fdf10d%2Fimg%2Favatars%2Fava_0024-512.png", "custom_css": null}, {"id": 4377, "slack_id": "U08RJ9NHL85", "display_name": "Ray Wu", "bio": null, "projects_count": 0, "devlogs_count": 0, "votes_count": 0, "ships_count": 0, "projects": [], "coding_time_seconds": 8345, "coding_time_seconds_today": 0, "balance": "You need to have a pocket watcher badge to view this.", "badges": [], "created_at": "2025-06-16T23:11:12.718-04:00", "updated_at": "2025-07-03T19:31:08.237-04:00", "avatar": "https://avatars.slack-edge.com/2025-05-09/8865596556246_1485ab64cffcbcc2f11c_original.png", "custom_css": null}, {"id": 4378, "slack_id": "U091AGMBB2T", "display_name": "Prasu", "bio": null, "projects_count": 1, "devlogs_count": 0, "votes_count": 0, "ships_count": 0, "projects": [{"id": 1793, "title": "StockTracker Hub", "devlogs_count": 0, "created_at": "2025-06-19T08:57:44.094-04:00"}], "coding_time_seconds": 4921, "coding_time_seconds_today": 0, "balance": "You need to have a pocket watcher badge to view this.", "badges": [], "created_at": "2025-06-16T23:11:14.170-04:00", "updated_at": "2025-07-03T19:31:08.500-04:00", "avatar": "https://secure.gravatar.com/avatar/0c77e69a6d910e2ea8ee637ec2e473d7.jpg?s=512&d=https%3A%2F%2Fa.slack-edge.com%2Fdf10d%2Fimg%2Favatars%2Fava_0021-512.png", "custom_css": null}, {"id": 4379, "slack_id": "U091S7JKLSG", "display_name": "shivendoo", "bio": null, "projects_count": 0, "devlogs_count": 0, "votes_count": 0, "ships_count": 0, "projects": [], "coding_time_seconds": 57033, "coding_time_seconds_today": 0, "balance": "You need to have a pocket watcher badge to view this.", "badges": [], "created_at": "2025-06-16T23:11:40.632-04:00", "updated_at": "2025-07-03T19:31:08.760-04:00", "avatar": "https://secure.gravatar.com/avatar/7a438cbebbffc72d4e83830b347364e6.jpg?s=512&d=https%3A%2F%2Fa.slack-edge.com%2Fdf10d%2Fimg%2Favatars%2Fava_0000-512.png", "custom_css": null}, {"id": 4380, "slack_id": "U081JN99MGV", "display_name": "James", "bio": null, "projects_count": 1, "devlogs_count": 4, "votes_count": 3, "ships_count": 0, "projects": [{"id": 1200, "title": "uninspired-study-app", "devlogs_count": 4, "created_at": "2025-06-17T22:09:21.690-04:00"}], "coding_time_seconds": 24409, "coding_time_seconds_today": 120, "balance": "You need to have a pocket watcher badge to view this.", "badges": [], "created_at": "2025-06-16T23:11:49.147-04:00", "updated_at": "2025-07-03T19:31:09.024-04:00", "avatar": "https://avatars.slack-edge.com/2025-05-18/8900082454935_50e2b4687ce33265743c_original.jpg", "custom_css": null}], "pagination": {"page": 219, "pages": 1192, "count": 23828, "items": 20}}