{"users": [{"id": 421, "slack_id": "U091FUHP58T", "display_name": "Ethan Zhong", "bio": null, "projects_count": 0, "devlogs_count": 0, "votes_count": 0, "ships_count": 0, "projects": [], "coding_time_seconds": 0, "coding_time_seconds_today": 0, "balance": "You need to have a pocket watcher badge to view this.", "badges": [], "created_at": "2025-06-16T11:32:36.142-04:00", "updated_at": "2025-07-03T19:12:54.874-04:00", "avatar": "https://secure.gravatar.com/avatar/3b9d308d15d49e9d50ba35afad242472.jpg?s=512&d=https%3A%2F%2Fa.slack-edge.com%2Fdf10d%2Fimg%2Favatars%2Fava_0006-512.png", "custom_css": null}, {"id": 422, "slack_id": "U0917JHHVUP", "display_name": "Cato the Cat", "bio": null, "projects_count": 0, "devlogs_count": 0, "votes_count": 0, "ships_count": 0, "projects": [], "coding_time_seconds": 244131, "coding_time_seconds_today": 0, "balance": "You need to have a pocket watcher badge to view this.", "badges": [], "created_at": "2025-06-16T11:32:37.808-04:00", "updated_at": "2025-07-03T19:12:55.147-04:00", "avatar": "https://secure.gravatar.com/avatar/82c2825f7d59664a5ee0d355335b6d3b.jpg?s=512&d=https%3A%2F%2Fa.slack-edge.com%2Fdf10d%2Fimg%2Favatars%2Fava_0016-512.png", "custom_css": null}, {"id": 423, "slack_id": "U091PBCRAS0", "display_name": "Harsh Chauhan", "bio": null, "projects_count": 0, "devlogs_count": 0, "votes_count": 0, "ships_count": 0, "projects": [], "coding_time_seconds": 0, "coding_time_seconds_today": 0, "balance": "You need to have a pocket watcher badge to view this.", "badges": [], "created_at": "2025-06-16T11:32:50.757-04:00", "updated_at": "2025-07-03T19:12:55.415-04:00", "avatar": "https://avatars.slack-edge.com/2025-06-16/9055206696549_94584d8eee92d47ec86b_original.png", "custom_css": null}, {"id": 424, "slack_id": "U091PBQNQLU", "display_name": "adi", "bio": null, "projects_count": 0, "devlogs_count": 0, "votes_count": 0, "ships_count": 0, "projects": [], "coding_time_seconds": 0, "coding_time_seconds_today": 0, "balance": "You need to have a pocket watcher badge to view this.", "badges": [], "created_at": "2025-06-16T11:33:53.754-04:00", "updated_at": "2025-07-03T19:12:55.688-04:00", "avatar": "https://secure.gravatar.com/avatar/d114099d7b7a3f0cd337ee3cc2ecb591.jpg?s=512&d=https%3A%2F%2Fa.slack-edge.com%2Fdf10d%2Fimg%2Favatars%2Fava_0022-512.png", "custom_css": null}, {"id": 425, "slack_id": "U0921G1CXTK", "display_name": "Yizhou Lin", "bio": null, "projects_count": 0, "devlogs_count": 0, "votes_count": 0, "ships_count": 0, "projects": [], "coding_time_seconds": 0, "coding_time_seconds_today": 0, "balance": "You need to have a pocket watcher badge to view this.", "badges": [], "created_at": "2025-06-16T11:33:54.744-04:00", "updated_at": "2025-07-03T19:12:55.969-04:00", "avatar": "https://secure.gravatar.com/avatar/4b238ee1d2d70183ffc01992e66d274a.jpg?s=512&d=https%3A%2F%2Fa.slack-edge.com%2Fdf10d%2Fimg%2Favatars%2Fava_0026-512.png", "custom_css": null}, {"id": 426, "slack_id": "U091G2FCZB8", "display_name": "kpm", "bio": null, "projects_count": 6, "devlogs_count": 31, "votes_count": 202, "ships_count": 4, "projects": [{"id": 3459, "title": "eru", "devlogs_count": 6, "created_at": "2025-06-24T11:03:38.320-04:00"}, {"id": 7111, "title": "effku.femboy.business", "devlogs_count": 1, "created_at": "2025-07-19T05:30:42.750-04:00"}, {"id": 11346, "title": "kawy", "devlogs_count": 1, "created_at": "2025-08-15T04:31:17.761-04:00"}, {"id": 763, "title": "nienor", "devlogs_count": 19, "created_at": "2025-06-17T07:40:50.604-04:00"}, {"id": 764, "title": "krzysckh.org", "devlogs_count": 0, "created_at": "2025-06-17T07:41:31.750-04:00"}, {"id": 9226, "title": "uxn9", "devlogs_count": 1, "created_at": "2025-07-31T04:08:04.966-04:00"}], "coding_time_seconds": 394461, "coding_time_seconds_today": 0, "balance": "You need to have a pocket watcher badge to view this.", "badges": [{"name": "Maiden Voyage", "text": "you shipped your first project! the journey begins...", "icon": "\ud83d\udea2"}, {"name": "Ballot Stuffer", "text": "vote 100 times.", "icon": "https://summer.hackclub.com/assets/i_voted-bf851b48.png"}], "created_at": "2025-06-16T11:33:57.724-04:00", "updated_at": "2025-09-10T22:51:20.279-04:00", "avatar": "https://avatars.slack-edge.com/2025-08-05/9319312819905_a70de09d4e9bac2657ea_original.jpg", "custom_css": null}, {"id": 427, "slack_id": "U091FUQ4TV1", "display_name": "Roshan", "bio": null, "projects_count": 0, "devlogs_count": 0, "votes_count": 0, "ships_count": 0, "projects": [], "coding_time_seconds": 0, "coding_time_seconds_today": 0, "balance": "You need to have a pocket watcher badge to view this.", "badges": [], "created_at": "2025-06-16T11:34:05.726-04:00", "updated_at": "2025-07-03T19:12:56.497-04:00", "avatar": "https://secure.gravatar.com/avatar/76f17e85bc03652826ba29be39140d0b.jpg?s=512&d=https%3A%2F%2Fa.slack-edge.com%2Fdf10d%2Fimg%2Favatars%2Fava_0016-512.png", "custom_css": null}, {"id": 428, "slack_id": "U092BDJV49W", "display_name": "Ryan", "bio": null, "projects_count": 0, "devlogs_count": 0, "votes_count": 0, "ships_count": 0, "projects": [], "coding_time_seconds": 0, "coding_time_seconds_today": 0, "balance": "You need to have a pocket watcher badge to view this.", "badges": [], "created_at": "2025-06-16T11:35:16.556-04:00", "updated_at": "2025-07-03T19:12:56.778-04:00", "avatar": "https://secure.gravatar.com/avatar/f56e8e36f8007efb5dd2f4438bbceb2c.jpg?s=512&d=https%3A%2F%2Fa.slack-edge.com%2Fdf10d%2Fimg%2Favatars%2Fava_0003-512.png", "custom_css": null}, {"id": 429, "slack_id": "U0917KM0K39", "display_name": "Trxtxn", "bio": null, "projects_count": 0, "devlogs_count": 0, "votes_count": 0, "ships_count": 0, "projects": [], "coding_time_seconds": 0, "coding_time_seconds_today": 0, "balance": "You need to have a pocket watcher badge to view this.", "badges": [], "created_at": "2025-06-16T11:35:26.244-04:00", "updated_at": "2025-07-03T19:12:57.049-04:00", "avatar": "https://secure.gravatar.com/avatar/478c7c7e914da71c162c7eaa202159c8.jpg?s=512&d=https%3A%2F%2Fa.slack-edge.com%2Fdf10d%2Fimg%2Favatars%2Fava_0022-512.png", "custom_css": null}, {"id": 430, "slack_id": "U091NUPDHMG", "display_name": "Silent Programmer", "bio": null, "projects_count": 0, "devlogs_count": 0, "votes_count": 0, "ships_count": 0, "projects": [], "coding_time_seconds": 0, "coding_time_seconds_today": 0, "balance": "You need to have a pocket watcher badge to view this.", "badges": [], "created_at": "2025-06-16T11:35:28.707-04:00", "updated_at": "2025-08-07T09:02:09.569-04:00", "avatar": "https://avatars.slack-edge.com/2025-06-16/9050123215126_fb086b2415cdbccbe817_original.jpg", "custom_css": null}, {"id": 431, "slack_id": "U091FV8MARH", "display_name": "Neeoder", "bio": null, "projects_count": 1, "devlogs_count": 0, "votes_count": 0, "ships_count": 0, "projects": [{"id": 2616, "title": "WhatsChat Analyser", "devlogs_count": 0, "created_at": "2025-06-21T13:02:36.668-04:00"}], "coding_time_seconds": 4, "coding_time_seconds_today": 0, "balance": "You need to have a pocket watcher badge to view this.", "badges": [], "created_at": "2025-06-16T11:35:29.375-04:00", "updated_at": "2025-07-03T19:12:57.590-04:00", "avatar": "https://secure.gravatar.com/avatar/d562dc6deee6454056e2a97ebaee2678.jpg?s=512&d=https%3A%2F%2Fa.slack-edge.com%2Fdf10d%2Fimg%2Favatars%2Fava_0025-512.png", "custom_css": null}, {"id": 432, "slack_id": "U091PBYC95J", "display_name": "Adam Drmota", "bio": null, "projects_count": 0, "devlogs_count": 0, "votes_count": 0, "ships_count": 0, "projects": [], "coding_time_seconds": 0, "coding_time_seconds_today": 0, "balance": "You need to have a pocket watcher badge to view this.", "badges": [], "created_at": "2025-06-16T11:35:29.771-04:00", "updated_at": "2025-07-03T19:12:57.859-04:00", "avatar": "https://secure.gravatar.com/avatar/6ad2e03d3947d49c9573507eb5083643.jpg?s=512&d=https%3A%2F%2Fa.slack-edge.com%2Fdf10d%2Fimg%2Favatars%2Fava_0011-512.png", "custom_css": null}, {"id": 433, "slack_id": "U091PASQWPN", "display_name": "Yashvardhan Jha", "bio": null, "projects_count": 0, "devlogs_count": 0, "votes_count": 0, "ships_count": 0, "projects": [], "coding_time_seconds": 0, "coding_time_seconds_today": 0, "balance": "You need to have a pocket watcher badge to view this.", "badges": [], "created_at": "2025-06-16T11:35:36.308-04:00", "updated_at": "2025-07-03T19:12:58.141-04:00", "avatar": "https://secure.gravatar.com/avatar/3a5f967ddb1ac4efe4588388a03f3be5.jpg?s=512&d=https%3A%2F%2Fa.slack-edge.com%2Fdf10d%2Fimg%2Favatars%2Fava_0003-512.png", "custom_css": null}, {"id": 434, "slack_id": "U091NU0A2MQ", "display_name": "TheCoolcraft11", "bio": null, "projects_count": 0, "devlogs_count": 0, "votes_count": 0, "ships_count": 0, "projects": [], "coding_time_seconds": 10770, "coding_time_seconds_today": 0, "balance": "You need to have a pocket watcher badge to view this.", "badges": [], "created_at": "2025-06-16T11:36:11.459-04:00", "updated_at": "2025-07-03T19:12:58.407-04:00", "avatar": "https://secure.gravatar.com/avatar/0bc0378d540cfedf4df7d2ff8b25fba7.jpg?s=512&d=https%3A%2F%2Fa.slack-edge.com%2Fdf10d%2Fimg%2Favatars%2Fava_0000-512.png", "custom_css": null}, {"id": 435, "slack_id": "U091PCGQMRA", "display_name": "itay zimet", "bio": null, "projects_count": 2, "devlogs_count": 7, "votes_count": 1, "ships_count": 1, "projects": [{"id": 160, "title": "online recipe book", "devlogs_count": 1, "created_at": "2025-06-16T14:42:02.809-04:00"}, {"id": 2650, "title": "Hackpad", "devlogs_count": 6, "created_at": "2025-06-21T14:55:51.211-04:00"}], "coding_time_seconds": 36703, "coding_time_seconds_today": 0, "balance": "You need to have a pocket watcher badge to view this.", "badges": [{"name": "Maiden Voyage", "text": "you shipped your first project! the journey begins...", "icon": "\ud83d\udea2"}], "created_at": "2025-06-16T11:36:15.614-04:00", "updated_at": "2025-09-10T22:51:20.593-04:00", "avatar": "https://avatars.slack-edge.com/2025-06-16/9056991037586_8e73cd24611b7d6be30b_original.png", "custom_css": null}, {"id": 436, "slack_id": "U0921G74CN5", "display_name": "ziggy", "bio": null, "projects_count": 0, "devlogs_count": 0, "votes_count": 0, "ships_count": 0, "projects": [], "coding_time_seconds": 0, "coding_time_seconds_today": 0, "balance": "You need to have a pocket watcher badge to view this.", "badges": [], "created_at": "2025-06-16T11:36:22.284-04:00", "updated_at": "2025-07-03T19:12:58.955-04:00", "avatar": "https://secure.gravatar.com/avatar/a841d7e8623cadd90916538934cc827f.jpg?s=512&d=https%3A%2F%2Fa.slack-edge.com%2Fdf10d%2Fimg%2Favatars%2Fava_0010-512.png", "custom_css": null}, {"id": 437, "slack_id": "U091NUPLL3C", "display_name": "Galuze", "bio": null, "projects_count": 0, "devlogs_count": 0, "votes_count": 0, "ships_count": 0, "projects": [], "coding_time_seconds": 0, "coding_time_seconds_today": 0, "balance": "You need to have a pocket watcher badge to view this.", "badges": [], "created_at": "2025-06-16T11:36:35.697-04:00", "updated_at": "2025-07-03T19:12:59.221-04:00", "avatar": "https://secure.gravatar.com/avatar/3cda750ec5759e3182360bafd708d64e.jpg?s=512&d=https%3A%2F%2Fa.slack-edge.com%2Fdf10d%2Fimg%2Favatars%2Fava_0004-512.png", "custom_css": null}, {"id": 438, "slack_id": "U092BDME4N4", "display_name": "castdev-j", "bio": null, "projects_count": 0, "devlogs_count": 0, "votes_count": 0, "ships_count": 0, "projects": [], "coding_time_seconds": 0, "coding_time_seconds_today": 0, "balance": "You need to have a pocket watcher badge to view this.", "badges": [], "created_at": "2025-06-16T11:37:20.612-04:00", "updated_at": "2025-07-03T19:12:59.492-04:00", "avatar": "https://secure.gravatar.com/avatar/db10620b366de74843d8dfbd3b4e1fb2.jpg?s=512&d=https%3A%2F%2Fa.slack-edge.com%2Fdf10d%2Fimg%2Favatars%2Fava_0017-512.png", "custom_css": null}, {"id": 439, "slack_id": "U08BS4B9SVC", "display_name": "Haft", "bio": null, "projects_count": 2, "devlogs_count": 6, "votes_count": 20, "ships_count": 1, "projects": [{"id": 2159, "title": "Custom Keyboard", "devlogs_count": 4, "created_at": "2025-06-20T10:30:06.042-04:00"}, {"id": 1802, "title": "Haft's Portfolio", "devlogs_count": 2, "created_at": "2025-06-19T09:23:04.050-04:00"}], "coding_time_seconds": 147022, "coding_time_seconds_today": 0, "balance": "You need to have a pocket watcher badge to view this.", "badges": [{"name": "Maiden Voyage", "text": "you shipped your first project! the journey begins...", "icon": "\ud83d\udea2"}], "created_at": "2025-06-16T11:37:34.624-04:00", "updated_at": "2025-09-10T22:51:20.714-04:00", "avatar": "https://secure.gravatar.com/avatar/2ad6c3a2ae50d31d36f9f027107f1cb7.jpg?s=512&d=https%3A%2F%2Fa.slack-edge.com%2Fdf10d%2Fimg%2Favatars%2Fava_0007-512.png", "custom_css": null}, {"id": 440, "slack_id": "U079ANPJWGG", "display_name": "Jonas", "bio": null, "projects_count": 0, "devlogs_count": 0, "votes_count": 0, "ships_count": 0, "projects": [], "coding_time_seconds": 0, "coding_time_seconds_today": 0, "balance": "You need to have a pocket watcher badge to view this.", "badges": [], "created_at": "2025-06-16T11:37:41.073-04:00", "updated_at": "2025-07-03T19:13:00.096-04:00", "avatar": "https://secure.gravatar.com/avatar/07c84fab332dbfe741a7e1c17cd178bf.jpg?s=512&d=https%3A%2F%2Fa.slack-edge.com%2Fdf10d%2Fimg%2Favatars%2Fava_0014-512.png", "custom_css": null}], "pagination": {"page": 22, "pages": 1192, "count": 23827, "items": 20}}