{"users": [{"id": 4381, "slack_id": "U091AGHF98X", "display_name": "Renuka Vaileti", "bio": null, "projects_count": 0, "devlogs_count": 0, "votes_count": 0, "ships_count": 0, "projects": [], "coding_time_seconds": 0, "coding_time_seconds_today": 0, "balance": "You need to have a pocket watcher badge to view this.", "badges": [], "created_at": "2025-06-16T23:12:20.847-04:00", "updated_at": "2025-07-03T19:31:09.282-04:00", "avatar": "https://avatars.slack-edge.com/2025-06-16/9072486804417_0359179486c16673cc7d_original.png", "custom_css": null}, {"id": 4382, "slack_id": "U091AD3BYT1", "display_name": "Dhaval", "bio": null, "projects_count": 0, "devlogs_count": 0, "votes_count": 0, "ships_count": 0, "projects": [], "coding_time_seconds": 54027, "coding_time_seconds_today": 0, "balance": "You need to have a pocket watcher badge to view this.", "badges": [], "created_at": "2025-06-16T23:12:26.246-04:00", "updated_at": "2025-07-03T19:31:09.554-04:00", "avatar": "https://secure.gravatar.com/avatar/442b5a2cb1488209b6c9791be315bc6c.jpg?s=512&d=https%3A%2F%2Fa.slack-edge.com%2Fdf10d%2Fimg%2Favatars%2Fava_0002-512.png", "custom_css": null}, {"id": 4383, "slack_id": "U091S7JFV1A", "display_name": "Yash", "bio": null, "projects_count": 0, "devlogs_count": 0, "votes_count": 0, "ships_count": 0, "projects": [], "coding_time_seconds": 0, "coding_time_seconds_today": 0, "balance": "You need to have a pocket watcher badge to view this.", "badges": [], "created_at": "2025-06-16T23:12:34.699-04:00", "updated_at": "2025-07-03T19:31:09.813-04:00", "avatar": "https://secure.gravatar.com/avatar/532fed644e3a9652173ec590d0fcf9e9.jpg?s=512&d=https%3A%2F%2Fa.slack-edge.com%2Fdf10d%2Fimg%2Favatars%2Fava_0016-512.png", "custom_css": null}, {"id": 4384, "slack_id": "U0924E3CJRF", "display_name": "Shri Ram", "bio": null, "projects_count": 0, "devlogs_count": 0, "votes_count": 0, "ships_count": 0, "projects": [], "coding_time_seconds": 0, "coding_time_seconds_today": 0, "balance": "You need to have a pocket watcher badge to view this.", "badges": [], "created_at": "2025-06-16T23:12:57.919-04:00", "updated_at": "2025-07-03T19:31:10.081-04:00", "avatar": "https://avatars.slack-edge.com/2025-06-16/9060270321732_fa67fced36b29578c943_original.png", "custom_css": null}, {"id": 4385, "slack_id": "U091AGMJJ5D", "display_name": "Sandesh Singh", "bio": null, "projects_count": 0, "devlogs_count": 0, "votes_count": 0, "ships_count": 0, "projects": [], "coding_time_seconds": 10143, "coding_time_seconds_today": 0, "balance": "You need to have a pocket watcher badge to view this.", "badges": [], "created_at": "2025-06-16T23:13:11.880-04:00", "updated_at": "2025-07-03T19:31:10.344-04:00", "avatar": "https://avatars.slack-edge.com/2025-06-16/9044576026135_a7a69181a9e4968156e3_original.png", "custom_css": null}, {"id": 4386, "slack_id": "U092E9TJR7A", "display_name": "RJ1412", "bio": null, "projects_count": 0, "devlogs_count": 0, "votes_count": 0, "ships_count": 0, "projects": [], "coding_time_seconds": 0, "coding_time_seconds_today": 0, "balance": "You need to have a pocket watcher badge to view this.", "badges": [], "created_at": "2025-06-16T23:13:46.061-04:00", "updated_at": "2025-07-03T19:31:10.617-04:00", "avatar": "https://secure.gravatar.com/avatar/26eb4324d5bde6f1766af1fac3ebc9d8.jpg?s=512&d=https%3A%2F%2Fa.slack-edge.com%2Fdf10d%2Fimg%2Favatars%2Fava_0021-512.png", "custom_css": null}, {"id": 4387, "slack_id": "U092E9UCD88", "display_name": "Rahul", "bio": null, "projects_count": 0, "devlogs_count": 0, "votes_count": 0, "ships_count": 0, "projects": [], "coding_time_seconds": 152365, "coding_time_seconds_today": 0, "balance": "You need to have a pocket watcher badge to view this.", "badges": [], "created_at": "2025-06-16T23:14:01.883-04:00", "updated_at": "2025-07-03T19:31:10.889-04:00", "avatar": "https://secure.gravatar.com/avatar/6bbb80cc2a51a78ae1cb59848fb0682a.jpg?s=512&d=https%3A%2F%2Fa.slack-edge.com%2Fdf10d%2Fimg%2Favatars%2Fava_0026-512.png", "custom_css": null}, {"id": 4388, "slack_id": "U07H41WMEEL", "display_name": "samannoyb", "bio": null, "projects_count": 0, "devlogs_count": 0, "votes_count": 0, "ships_count": 0, "projects": [], "coding_time_seconds": 0, "coding_time_seconds_today": 0, "balance": "You need to have a pocket watcher badge to view this.", "badges": [], "created_at": "2025-06-16T23:14:24.752-04:00", "updated_at": "2025-07-09T09:26:02.921-04:00", "avatar": "https://avatars.slack-edge.com/2025-06-21/9083852132420_e8b83d4f3d9fdaabb421_original.png", "custom_css": null}, {"id": 4389, "slack_id": "U091AGMTQUF", "display_name": "lamda", "bio": null, "projects_count": 0, "devlogs_count": 0, "votes_count": 0, "ships_count": 0, "projects": [], "coding_time_seconds": 0, "coding_time_seconds_today": 0, "balance": "You need to have a pocket watcher badge to view this.", "badges": [], "created_at": "2025-06-16T23:14:33.691-04:00", "updated_at": "2025-07-03T19:31:11.416-04:00", "avatar": "https://secure.gravatar.com/avatar/5744695da25c6965db9aaa92ba2236b4.jpg?s=512&d=https%3A%2F%2Fa.slack-edge.com%2Fdf10d%2Fimg%2Favatars%2Fava_0019-512.png", "custom_css": null}, {"id": 4390, "slack_id": "U091K4LLNA2", "display_name": "rehber singh", "bio": null, "projects_count": 0, "devlogs_count": 0, "votes_count": 0, "ships_count": 0, "projects": [], "coding_time_seconds": 0, "coding_time_seconds_today": 0, "balance": "You need to have a pocket watcher badge to view this.", "badges": [], "created_at": "2025-06-16T23:14:40.070-04:00", "updated_at": "2025-07-03T19:31:11.696-04:00", "avatar": "https://avatars.slack-edge.com/2025-06-16/9058160404149_e68d6d7aecdeeb6a1454_original.png", "custom_css": null}, {"id": 4391, "slack_id": "U091K0PEXEF", "display_name": "Soumya Ranjan Sarangi", "bio": null, "projects_count": 0, "devlogs_count": 0, "votes_count": 0, "ships_count": 0, "projects": [], "coding_time_seconds": 0, "coding_time_seconds_today": 0, "balance": "You need to have a pocket watcher badge to view this.", "badges": [], "created_at": "2025-06-16T23:14:53.835-04:00", "updated_at": "2025-07-03T19:31:11.966-04:00", "avatar": "https://secure.gravatar.com/avatar/aae8a18b04bc867deaf6f7e633b633ea.jpg?s=512&d=https%3A%2F%2Fa.slack-edge.com%2Fdf10d%2Fimg%2Favatars%2Fava_0026-512.png", "custom_css": null}, {"id": 4392, "slack_id": "U091N2AP6E9", "display_name": "Lavish", "bio": null, "projects_count": 0, "devlogs_count": 0, "votes_count": 0, "ships_count": 0, "projects": [], "coding_time_seconds": 0, "coding_time_seconds_today": 0, "balance": "You need to have a pocket watcher badge to view this.", "badges": [], "created_at": "2025-06-16T23:15:21.730-04:00", "updated_at": "2025-07-03T19:31:12.237-04:00", "avatar": "https://secure.gravatar.com/avatar/fefb7d50dfdaa44d9c0a11d430a32ae8.jpg?s=512&d=https%3A%2F%2Fa.slack-edge.com%2Fdf10d%2Fimg%2Favatars%2Fava_0004-512.png", "custom_css": null}, {"id": 4393, "slack_id": "U08SV62SSRF", "display_name": "Shriya", "bio": null, "projects_count": 0, "devlogs_count": 0, "votes_count": 0, "ships_count": 0, "projects": [], "coding_time_seconds": 0, "coding_time_seconds_today": 0, "balance": "You need to have a pocket watcher badge to view this.", "badges": [], "created_at": "2025-06-16T23:15:40.713-04:00", "updated_at": "2025-07-03T19:31:12.509-04:00", "avatar": "https://avatars.slack-edge.com/2025-05-15/8891525371479_6222d236a47b50c5936f_original.jpg", "custom_css": null}, {"id": 4394, "slack_id": "U0741HP029K", "display_name": "Sushii", "bio": null, "projects_count": 2, "devlogs_count": 0, "votes_count": 0, "ships_count": 0, "projects": [{"id": 12495, "title": "Portfolio-Website", "devlogs_count": 0, "created_at": "2025-08-28T11:18:22.574-04:00"}, {"id": 7447, "title": "Wat-Find", "devlogs_count": 0, "created_at": "2025-07-21T19:53:58.272-04:00"}], "coding_time_seconds": 10582, "coding_time_seconds_today": 0, "balance": "You need to have a pocket watcher badge to view this.", "badges": [], "created_at": "2025-06-16T23:15:45.361-04:00", "updated_at": "2025-08-28T11:16:50.146-04:00", "avatar": "https://avatars.slack-edge.com/2024-06-15/7305247954192_f11c0a79d629325e3f1d_original.jpg", "custom_css": null}, {"id": 4395, "slack_id": "U091S7RMKGC", "display_name": "Adil Kadival (K-ADI)", "bio": null, "projects_count": 1, "devlogs_count": 0, "votes_count": 0, "ships_count": 0, "projects": [{"id": 497, "title": "Postier", "devlogs_count": 0, "created_at": "2025-06-16T23:43:05.624-04:00"}], "coding_time_seconds": 77587, "coding_time_seconds_today": 0, "balance": "You need to have a pocket watcher badge to view this.", "badges": [], "created_at": "2025-06-16T23:16:32.020-04:00", "updated_at": "2025-07-03T19:31:13.034-04:00", "avatar": "https://avatars.slack-edge.com/2025-06-24/9093146399426_8fec4aa4842d22c98aba_original.jpg", "custom_css": null}, {"id": 4396, "slack_id": "U091K136P1R", "display_name": "Siyonaa Jha", "bio": null, "projects_count": 0, "devlogs_count": 10, "votes_count": 0, "ships_count": 0, "projects": [], "coding_time_seconds": 354818, "coding_time_seconds_today": 0, "balance": "You need to have a pocket watcher badge to view this.", "badges": [], "created_at": "2025-06-16T23:16:55.611-04:00", "updated_at": "2025-07-09T16:52:49.229-04:00", "avatar": "https://avatars.slack-edge.com/2025-06-18/9065069224357_8737458606afad76e51b_original.jpg", "custom_css": null}, {"id": 4397, "slack_id": "U091K4N6E06", "display_name": "\u68a6\u89c1\u732b", "bio": null, "projects_count": 0, "devlogs_count": 0, "votes_count": 0, "ships_count": 0, "projects": [], "coding_time_seconds": 0, "coding_time_seconds_today": 0, "balance": "You need to have a pocket watcher badge to view this.", "badges": [], "created_at": "2025-06-16T23:17:18.338-04:00", "updated_at": "2025-07-03T19:31:13.561-04:00", "avatar": "https://secure.gravatar.com/avatar/c82efff04b6f56b47dad61a26f786359.jpg?s=512&d=https%3A%2F%2Fa.slack-edge.com%2Fdf10d%2Fimg%2Favatars%2Fava_0008-512.png", "custom_css": null}, {"id": 4398, "slack_id": "U0924EFTPL1", "display_name": "Clay", "bio": null, "projects_count": 0, "devlogs_count": 0, "votes_count": 0, "ships_count": 0, "projects": [], "coding_time_seconds": 0, "coding_time_seconds_today": 0, "balance": "You need to have a pocket watcher badge to view this.", "badges": [], "created_at": "2025-06-16T23:17:32.287-04:00", "updated_at": "2025-07-03T19:31:13.825-04:00", "avatar": "https://secure.gravatar.com/avatar/892d6b3a08a16ab3cd3caa3b7a65ed65.jpg?s=512&d=https%3A%2F%2Fa.slack-edge.com%2Fdf10d%2Fimg%2Favatars%2Fava_0002-512.png", "custom_css": null}, {"id": 4399, "slack_id": "U081RBRTG5D", "display_name": "Incognito Bot", "bio": null, "projects_count": 0, "devlogs_count": 0, "votes_count": 0, "ships_count": 0, "projects": [], "coding_time_seconds": 1885, "coding_time_seconds_today": 0, "balance": "You need to have a pocket watcher badge to view this.", "badges": [], "created_at": "2025-06-16T23:17:59.691-04:00", "updated_at": "2025-07-03T19:31:14.097-04:00", "avatar": "https://avatars.slack-edge.com/2025-02-04/8424332945808_1d769cb69b930089fdcf_original.png", "custom_css": null}, {"id": 4400, "slack_id": "U091K1PLL83", "display_name": "Dageon Lee", "bio": null, "projects_count": 0, "devlogs_count": 0, "votes_count": 0, "ships_count": 0, "projects": [], "coding_time_seconds": 0, "coding_time_seconds_today": 0, "balance": "You need to have a pocket watcher badge to view this.", "badges": [], "created_at": "2025-06-16T23:18:19.978-04:00", "updated_at": "2025-07-03T19:31:14.360-04:00", "avatar": "https://secure.gravatar.com/avatar/8eef6e58d6f75c7a35cdcba94fd6b743.jpg?s=512&d=https%3A%2F%2Fa.slack-edge.com%2Fdf10d%2Fimg%2Favatars%2Fava_0003-512.png", "custom_css": null}], "pagination": {"page": 220, "pages": 1192, "count": 23828, "items": 20}}