{"users": [{"id": 4401, "slack_id": "U091AH3RWDD", "display_name": "Cameron", "bio": null, "projects_count": 3, "devlogs_count": 11, "votes_count": 34, "ships_count": 2, "projects": [{"id": 8533, "title": "Rock Paper Scissors: A text based RPG", "devlogs_count": 0, "created_at": "2025-07-28T02:11:19.236-04:00"}, {"id": 539, "title": "VIAHA Hockey Stat App", "devlogs_count": 8, "created_at": "2025-06-17T00:46:24.418-04:00"}, {"id": 9583, "title": "CHL Team Guesser", "devlogs_count": 3, "created_at": "2025-08-01T18:28:55.680-04:00"}], "coding_time_seconds": 113275, "coding_time_seconds_today": 0, "balance": "You need to have a pocket watcher badge to view this.", "badges": [{"name": "Maiden Voyage", "text": "you shipped your first project! the journey begins...", "icon": "\ud83d\udea2"}], "created_at": "2025-06-16T23:18:51.599-04:00", "updated_at": "2025-09-10T22:53:21.950-04:00", "avatar": "https://secure.gravatar.com/avatar/581687b55d3a54348312b0327a6a6a8d.jpg?s=512&d=https%3A%2F%2Fa.slack-edge.com%2Fdf10d%2Fimg%2Favatars%2Fava_0012-512.png", "custom_css": null}, {"id": 4402, "slack_id": "U09221ANJKB", "display_name": "Nawaf Tahir", "bio": null, "projects_count": 0, "devlogs_count": 0, "votes_count": 0, "ships_count": 0, "projects": [], "coding_time_seconds": 0, "coding_time_seconds_today": 0, "balance": "You need to have a pocket watcher badge to view this.", "badges": [], "created_at": "2025-06-16T23:18:57.645-04:00", "updated_at": "2025-07-03T19:31:14.973-04:00", "avatar": "https://avatars.slack-edge.com/2025-06-16/9058171723941_4ae6b45139521f195828_original.jpg", "custom_css": null}, {"id": 4403, "slack_id": "U091S7WJA5S", "display_name": "Gokul Pathak", "bio": null, "projects_count": 0, "devlogs_count": 0, "votes_count": 0, "ships_count": 0, "projects": [], "coding_time_seconds": 0, "coding_time_seconds_today": 0, "balance": "You need to have a pocket watcher badge to view this.", "badges": [], "created_at": "2025-06-16T23:19:26.767-04:00", "updated_at": "2025-07-03T19:31:15.243-04:00", "avatar": "https://secure.gravatar.com/avatar/541a97b9a47a0b7146e38225eb689671.jpg?s=512&d=https%3A%2F%2Fa.slack-edge.com%2Fdf10d%2Fimg%2Favatars%2Fava_0008-512.png", "custom_css": null}, {"id": 4404, "slack_id": "U091S84PTN0", "display_name": "atanzil", "bio": null, "projects_count": 0, "devlogs_count": 0, "votes_count": 0, "ships_count": 0, "projects": [], "coding_time_seconds": 0, "coding_time_seconds_today": 0, "balance": "You need to have a pocket watcher badge to view this.", "badges": [], "created_at": "2025-06-16T23:20:30.741-04:00", "updated_at": "2025-07-03T19:31:15.509-04:00", "avatar": "https://secure.gravatar.com/avatar/2ea64bc385a9b2b2a444b872a03e37de.jpg?s=512&d=https%3A%2F%2Fa.slack-edge.com%2Fdf10d%2Fimg%2Favatars%2Fava_0018-512.png", "custom_css": null}, {"id": 4405, "slack_id": "U089P4Y5EQZ", "display_name": "Cyclone Addons", "bio": null, "projects_count": 0, "devlogs_count": 0, "votes_count": 0, "ships_count": 0, "projects": [], "coding_time_seconds": 0, "coding_time_seconds_today": 0, "balance": "You need to have a pocket watcher badge to view this.", "badges": [], "created_at": "2025-06-16T23:20:45.954-04:00", "updated_at": "2025-07-03T19:31:15.763-04:00", "avatar": "https://avatars.slack-edge.com/2025-01-19/8309922186854_0c755f465ff64da45af8_original.jpg", "custom_css": null}, {"id": 4406, "slack_id": "U080831QXU1", "display_name": "Shreya Goswami", "bio": null, "projects_count": 0, "devlogs_count": 0, "votes_count": 0, "ships_count": 0, "projects": [], "coding_time_seconds": 0, "coding_time_seconds_today": 0, "balance": "You need to have a pocket watcher badge to view this.", "badges": [], "created_at": "2025-06-16T23:21:01.439-04:00", "updated_at": "2025-07-03T19:31:16.025-04:00", "avatar": "https://avatars.slack-edge.com/2025-05-11/8890856429089_57d522ef1947a40623e6_original.png", "custom_css": null}, {"id": 4407, "slack_id": "U091Q4T2W9K", "display_name": "Naman", "bio": null, "projects_count": 0, "devlogs_count": 0, "votes_count": 0, "ships_count": 0, "projects": [], "coding_time_seconds": 0, "coding_time_seconds_today": 0, "balance": "You need to have a pocket watcher badge to view this.", "badges": [], "created_at": "2025-06-16T23:21:07.081-04:00", "updated_at": "2025-07-03T19:31:16.300-04:00", "avatar": "https://secure.gravatar.com/avatar/a7e0b2cda662702496e9af06ca02ed8c.jpg?s=512&d=https%3A%2F%2Fa.slack-edge.com%2Fdf10d%2Fimg%2Favatars%2Fava_0018-512.png", "custom_css": null}, {"id": 4408, "slack_id": "U091RUKE8LA", "display_name": "Thereallo", "bio": null, "projects_count": 0, "devlogs_count": 0, "votes_count": 0, "ships_count": 0, "projects": [], "coding_time_seconds": 0, "coding_time_seconds_today": 0, "balance": "You need to have a pocket watcher badge to view this.", "badges": [], "created_at": "2025-06-16T23:21:08.997-04:00", "updated_at": "2025-07-03T19:31:16.572-04:00", "avatar": "https://secure.gravatar.com/avatar/ac35a3eb010ffb9892a121699b4c7ff3.jpg?s=512&d=https%3A%2F%2Fa.slack-edge.com%2Fdf10d%2Fimg%2Favatars%2Fava_0013-512.png", "custom_css": null}, {"id": 4409, "slack_id": "U078TQUG34P", "display_name": "Edgar Sanchez", "bio": null, "projects_count": 0, "devlogs_count": 0, "votes_count": 0, "ships_count": 0, "projects": [], "coding_time_seconds": 0, "coding_time_seconds_today": 0, "balance": "You need to have a pocket watcher badge to view this.", "badges": [], "created_at": "2025-06-16T23:21:13.351-04:00", "updated_at": "2025-07-03T19:31:16.828-04:00", "avatar": "https://secure.gravatar.com/avatar/9f116d19e0b5f2218aad4c55386c374b.jpg?s=512&d=https%3A%2F%2Fa.slack-edge.com%2Fdf10d%2Fimg%2Favatars%2Fava_0004-512.png", "custom_css": null}, {"id": 4410, "slack_id": "U091RUM9VGS", "display_name": "drishtigoel", "bio": null, "projects_count": 0, "devlogs_count": 0, "votes_count": 0, "ships_count": 0, "projects": [], "coding_time_seconds": 0, "coding_time_seconds_today": 0, "balance": "You need to have a pocket watcher badge to view this.", "badges": [], "created_at": "2025-06-16T23:21:50.204-04:00", "updated_at": "2025-07-03T19:31:17.090-04:00", "avatar": "https://secure.gravatar.com/avatar/08c42c81d3ae83f248d09ce0c16338ce.jpg?s=512&d=https%3A%2F%2Fa.slack-edge.com%2Fdf10d%2Fimg%2Favatars%2Fava_0014-512.png", "custom_css": null}, {"id": 4411, "slack_id": "U08HGRAHEKH", "display_name": "Kyle", "bio": null, "projects_count": 1, "devlogs_count": 2, "votes_count": 0, "ships_count": 0, "projects": [{"id": 2411, "title": "Robot Sim", "devlogs_count": 2, "created_at": "2025-06-21T00:41:39.490-04:00"}], "coding_time_seconds": 7855, "coding_time_seconds_today": 0, "balance": "You need to have a pocket watcher badge to view this.", "badges": [], "created_at": "2025-06-16T23:22:12.071-04:00", "updated_at": "2025-07-03T19:31:17.349-04:00", "avatar": "https://avatars.slack-edge.com/2025-06-18/9070387911956_291e8ab5a5e210e45958_original.png", "custom_css": null}, {"id": 4412, "slack_id": "U08SRC3UR1U", "display_name": "Arav G", "bio": null, "projects_count": 1, "devlogs_count": 0, "votes_count": 0, "ships_count": 0, "projects": [{"id": 1424, "title": "Mailflare", "devlogs_count": 0, "created_at": "2025-06-18T14:35:32.051-04:00"}], "coding_time_seconds": 89357, "coding_time_seconds_today": 0, "balance": "You need to have a pocket watcher badge to view this.", "badges": [], "created_at": "2025-06-16T23:22:32.315-04:00", "updated_at": "2025-07-03T19:31:17.615-04:00", "avatar": "https://avatars.slack-edge.com/2025-05-29/8971488231493_28320033a5afe8fb9fb7_original.png", "custom_css": null}, {"id": 4413, "slack_id": "U091RUNKAE6", "display_name": "Divyansh Gupta", "bio": null, "projects_count": 1, "devlogs_count": 1, "votes_count": 5, "ships_count": 1, "projects": [{"id": 2301, "title": "Library Committee Website", "devlogs_count": 1, "created_at": "2025-06-20T16:45:57.483-04:00"}], "coding_time_seconds": 171080, "coding_time_seconds_today": 0, "balance": "You need to have a pocket watcher badge to view this.", "badges": [{"name": "Maiden Voyage", "text": "you shipped your first project! the journey begins...", "icon": "\ud83d\udea2"}], "created_at": "2025-06-16T23:22:35.411-04:00", "updated_at": "2025-09-10T22:53:22.342-04:00", "avatar": "https://secure.gravatar.com/avatar/8f44e796314a0d6c3d0da859406a83ba.jpg?s=512&d=https%3A%2F%2Fa.slack-edge.com%2Fdf10d%2Fimg%2Favatars%2Fava_0004-512.png", "custom_css": null}, {"id": 4414, "slack_id": "U091K5FHPM4", "display_name": "Nagesh Khichade", "bio": null, "projects_count": 0, "devlogs_count": 0, "votes_count": 0, "ships_count": 0, "projects": [], "coding_time_seconds": 0, "coding_time_seconds_today": 0, "balance": "You need to have a pocket watcher badge to view this.", "badges": [], "created_at": "2025-06-16T23:22:59.817-04:00", "updated_at": "2025-07-03T19:31:18.145-04:00", "avatar": "https://secure.gravatar.com/avatar/9b0cb43363bab61bc0e0bc5a7aa32370.jpg?s=512&d=https%3A%2F%2Fa.slack-edge.com%2Fdf10d%2Fimg%2Favatars%2Fava_0023-512.png", "custom_css": null}, {"id": 4415, "slack_id": "U091AHG0PGX", "display_name": "hackr", "bio": null, "projects_count": 0, "devlogs_count": 0, "votes_count": 0, "ships_count": 0, "projects": [], "coding_time_seconds": 0, "coding_time_seconds_today": 0, "balance": "You need to have a pocket watcher badge to view this.", "badges": [], "created_at": "2025-06-16T23:24:44.731-04:00", "updated_at": "2025-07-03T19:31:18.409-04:00", "avatar": "https://secure.gravatar.com/avatar/2a3f9910764ea0983a18bf18b8c24f08.jpg?s=512&d=https%3A%2F%2Fa.slack-edge.com%2Fdf10d%2Fimg%2Favatars%2Fava_0004-512.png", "custom_css": null}, {"id": 4416, "slack_id": "U091RUR7CUA", "display_name": "Yusuf Tahir Aydin", "bio": null, "projects_count": 0, "devlogs_count": 0, "votes_count": 0, "ships_count": 0, "projects": [], "coding_time_seconds": 0, "coding_time_seconds_today": 0, "balance": "You need to have a pocket watcher badge to view this.", "badges": [], "created_at": "2025-06-16T23:24:57.843-04:00", "updated_at": "2025-07-03T19:31:18.688-04:00", "avatar": "https://avatars.slack-edge.com/2025-06-16/9053197429830_681c275318a379e4433e_original.png", "custom_css": null}, {"id": 4417, "slack_id": "U092EAHR7CY", "display_name": "Arnav Harshit", "bio": null, "projects_count": 0, "devlogs_count": 0, "votes_count": 0, "ships_count": 0, "projects": [], "coding_time_seconds": 0, "coding_time_seconds_today": 0, "balance": "You need to have a pocket watcher badge to view this.", "badges": [], "created_at": "2025-06-16T23:25:13.777-04:00", "updated_at": "2025-07-03T19:31:18.948-04:00", "avatar": "https://secure.gravatar.com/avatar/4619664afa14347db33a34b19e295bae.jpg?s=512&d=https%3A%2F%2Fa.slack-edge.com%2Fdf10d%2Fimg%2Favatars%2Fava_0001-512.png", "custom_css": null}, {"id": 4418, "slack_id": "U091JTJAZC3", "display_name": "sirajudeen", "bio": null, "projects_count": 0, "devlogs_count": 0, "votes_count": 0, "ships_count": 0, "projects": [], "coding_time_seconds": 0, "coding_time_seconds_today": 0, "balance": "You need to have a pocket watcher badge to view this.", "badges": [], "created_at": "2025-06-16T23:25:26.657-04:00", "updated_at": "2025-07-03T19:31:19.207-04:00", "avatar": "https://secure.gravatar.com/avatar/8dea5b25eaa0cbf33f8e906b4c8a03cc.jpg?s=512&d=https%3A%2F%2Fa.slack-edge.com%2Fdf10d%2Fimg%2Favatars%2Fava_0001-512.png", "custom_css": null}, {"id": 4419, "slack_id": "U06MWAFGYCX", "display_name": "Geetha", "bio": null, "projects_count": 0, "devlogs_count": 0, "votes_count": 0, "ships_count": 0, "projects": [], "coding_time_seconds": 51157, "coding_time_seconds_today": 605, "balance": "You need to have a pocket watcher badge to view this.", "badges": [], "created_at": "2025-06-16T23:26:06.708-04:00", "updated_at": "2025-07-03T19:31:19.470-04:00", "avatar": "https://avatars.slack-edge.com/2024-04-06/6923947336500_bbee484d3e3f47b43e7c_original.jpg", "custom_css": null}, {"id": 4420, "slack_id": "U091S8MGMB6", "display_name": "VISHAL", "bio": null, "projects_count": 0, "devlogs_count": 0, "votes_count": 0, "ships_count": 0, "projects": [], "coding_time_seconds": 0, "coding_time_seconds_today": 0, "balance": "You need to have a pocket watcher badge to view this.", "badges": [], "created_at": "2025-06-16T23:26:18.804-04:00", "updated_at": "2025-07-03T19:31:19.729-04:00", "avatar": "https://secure.gravatar.com/avatar/83b76a092b8e27c0ea708b268f4310e5.jpg?s=512&d=https%3A%2F%2Fa.slack-edge.com%2Fdf10d%2Fimg%2Favatars%2Fava_0000-512.png", "custom_css": null}], "pagination": {"page": 221, "pages": 1192, "count": 23828, "items": 20}}