{"users": [{"id": 4421, "slack_id": "U091K2C42AF", "display_name": "Mads Hermansen", "bio": null, "projects_count": 0, "devlogs_count": 0, "votes_count": 0, "ships_count": 0, "projects": [], "coding_time_seconds": 0, "coding_time_seconds_today": 0, "balance": "You need to have a pocket watcher badge to view this.", "badges": [], "created_at": "2025-06-16T23:26:19.714-04:00", "updated_at": "2025-07-03T19:31:19.997-04:00", "avatar": "https://secure.gravatar.com/avatar/b35ff9d31b88c1ed234cf358f1db3b21.jpg?s=512&d=https%3A%2F%2Fa.slack-edge.com%2Fdf10d%2Fimg%2Favatars%2Fava_0007-512.png", "custom_css": null}, {"id": 4422, "slack_id": "U091K2D6A3D", "display_name": "Anwesha Ghosh", "bio": null, "projects_count": 0, "devlogs_count": 0, "votes_count": 0, "ships_count": 0, "projects": [], "coding_time_seconds": 0, "coding_time_seconds_today": 0, "balance": "You need to have a pocket watcher badge to view this.", "badges": [], "created_at": "2025-06-16T23:26:30.155-04:00", "updated_at": "2025-07-03T19:31:20.257-04:00", "avatar": "https://avatars.slack-edge.com/2025-06-17/9058288794501_db93de0e0031bff4f922_original.jpg", "custom_css": null}, {"id": 4423, "slack_id": "U07FRA50M6G", "display_name": "Naman", "bio": null, "projects_count": 1, "devlogs_count": 5, "votes_count": 31, "ships_count": 1, "projects": [{"id": 494, "title": "Nults & Bolts AI Learning APP :)", "devlogs_count": 5, "created_at": "2025-06-16T23:38:33.996-04:00"}], "coding_time_seconds": 159704, "coding_time_seconds_today": 0, "balance": "You need to have a pocket watcher badge to view this.", "badges": [{"name": "Maiden Voyage", "text": "you shipped your first project! the journey begins...", "icon": "\ud83d\udea2"}], "created_at": "2025-06-16T23:26:34.564-04:00", "updated_at": "2025-09-10T22:53:22.648-04:00", "avatar": "https://avatars.slack-edge.com/2024-08-06/7555670431760_781565ae62f90690add3_original.png", "custom_css": null}, {"id": 4424, "slack_id": "U091K0LSF0T", "display_name": "Vitia FN", "bio": null, "projects_count": 0, "devlogs_count": 0, "votes_count": 0, "ships_count": 0, "projects": [], "coding_time_seconds": 206493, "coding_time_seconds_today": 0, "balance": "You need to have a pocket watcher badge to view this.", "badges": [], "created_at": "2025-06-16T23:26:59.898-04:00", "updated_at": "2025-07-03T19:31:20.866-04:00", "avatar": "https://avatars.slack-edge.com/2025-06-16/9058190775765_c7cf3039810683466865_original.png", "custom_css": null}, {"id": 4425, "slack_id": "U091K5MH0LW", "display_name": "Ahamed Careem", "bio": null, "projects_count": 0, "devlogs_count": 0, "votes_count": 0, "ships_count": 0, "projects": [], "coding_time_seconds": 0, "coding_time_seconds_today": 0, "balance": "You need to have a pocket watcher badge to view this.", "badges": [], "created_at": "2025-06-16T23:27:11.878-04:00", "updated_at": "2025-07-03T19:31:21.127-04:00", "avatar": "https://secure.gravatar.com/avatar/c2d8d7e4ee6f1920b0fa04635e34bf84.jpg?s=512&d=https%3A%2F%2Fa.slack-edge.com%2Fdf10d%2Fimg%2Favatars%2Fava_0019-512.png", "custom_css": null}, {"id": 4426, "slack_id": "U092EAKQ98Q", "display_name": "dracko", "bio": null, "projects_count": 0, "devlogs_count": 0, "votes_count": 0, "ships_count": 0, "projects": [], "coding_time_seconds": 0, "coding_time_seconds_today": 0, "balance": "You need to have a pocket watcher badge to view this.", "badges": [], "created_at": "2025-06-16T23:27:47.325-04:00", "updated_at": "2025-07-03T19:31:21.387-04:00", "avatar": "https://secure.gravatar.com/avatar/07a5cf73feb1aac8d28f6cecebc0b8d7.jpg?s=512&d=https%3A%2F%2Fa.slack-edge.com%2Fdf10d%2Fimg%2Favatars%2Fava_0014-512.png", "custom_css": null}, {"id": 4427, "slack_id": "U0870DH2PLK", "display_name": "Nano", "bio": "", "projects_count": 5, "devlogs_count": 12, "votes_count": 48, "ships_count": 3, "projects": [{"id": 923, "title": "Music Practice Assistant", "devlogs_count": 2, "created_at": "2025-06-17T11:20:13.839-04:00"}, {"id": 6928, "title": "Todo List", "devlogs_count": 1, "created_at": "2025-07-17T12:16:04.456-04:00"}, {"id": 7416, "title": "Notchly AI", "devlogs_count": 7, "created_at": "2025-07-21T17:51:16.620-04:00"}, {"id": 493, "title": "Bounce with Reinforcement Learning", "devlogs_count": 1, "created_at": "2025-06-16T23:38:19.461-04:00"}, {"id": 10768, "title": "Personal Website", "devlogs_count": 1, "created_at": "2025-08-10T14:31:25.460-04:00"}], "coding_time_seconds": 225854, "coding_time_seconds_today": 0, "balance": "You need to have a pocket watcher badge to view this.", "badges": [{"name": "Maiden Voyage", "text": "you shipped your first project! the journey begins...", "icon": "\ud83d\udea2"}], "created_at": "2025-06-16T23:28:21.891-04:00", "updated_at": "2025-09-10T22:53:22.771-04:00", "avatar": "https://secure.gravatar.com/avatar/47c86ddd062213f511353904de3d11e7.jpg?s=512&d=https%3A%2F%2Fa.slack-edge.com%2Fdf10d%2Fimg%2Favatars%2Fava_0007-512.png", "custom_css": null}, {"id": 4428, "slack_id": "U0921QMAQKT", "display_name": "Shoyeb Mohammed Suny", "bio": null, "projects_count": 0, "devlogs_count": 0, "votes_count": 0, "ships_count": 0, "projects": [], "coding_time_seconds": 0, "coding_time_seconds_today": 0, "balance": "You need to have a pocket watcher badge to view this.", "badges": [], "created_at": "2025-06-16T23:28:30.716-04:00", "updated_at": "2025-07-03T19:31:21.911-04:00", "avatar": "https://avatars.slack-edge.com/2025-06-16/9053097588355_b04fb1691991a1ab00f2_original.png", "custom_css": null}, {"id": 4429, "slack_id": "U091RVALWBU", "display_name": "refound", "bio": null, "projects_count": 0, "devlogs_count": 0, "votes_count": 0, "ships_count": 0, "projects": [], "coding_time_seconds": 567494, "coding_time_seconds_today": 1600, "balance": "You need to have a pocket watcher badge to view this.", "badges": [], "created_at": "2025-06-16T23:28:31.400-04:00", "updated_at": "2025-07-03T19:31:22.173-04:00", "avatar": "https://secure.gravatar.com/avatar/2f4160d00dd4cf556ca55a6e4c7116de.jpg?s=512&d=https%3A%2F%2Fa.slack-edge.com%2Fdf10d%2Fimg%2Favatars%2Fava_0005-512.png", "custom_css": null}, {"id": 4430, "slack_id": "U092EAS80KA", "display_name": "Shasank Pandey", "bio": null, "projects_count": 0, "devlogs_count": 0, "votes_count": 0, "ships_count": 0, "projects": [], "coding_time_seconds": 24409, "coding_time_seconds_today": 244, "balance": "You need to have a pocket watcher badge to view this.", "badges": [], "created_at": "2025-06-16T23:28:53.222-04:00", "updated_at": "2025-07-03T19:31:22.431-04:00", "avatar": "https://avatars.slack-edge.com/2025-06-16/9053098651843_f06ecefcf67de27fae24_original.png", "custom_css": null}, {"id": 4431, "slack_id": "U091S8TDRSQ", "display_name": "Aarav Dandona", "bio": null, "projects_count": 0, "devlogs_count": 0, "votes_count": 0, "ships_count": 0, "projects": [], "coding_time_seconds": 0, "coding_time_seconds_today": 0, "balance": "You need to have a pocket watcher badge to view this.", "badges": [], "created_at": "2025-06-16T23:29:07.047-04:00", "updated_at": "2025-07-03T19:31:22.693-04:00", "avatar": "https://secure.gravatar.com/avatar/9f88338cef9387059f81d5606fe86d63.jpg?s=512&d=https%3A%2F%2Fa.slack-edge.com%2Fdf10d%2Fimg%2Favatars%2Fava_0025-512.png", "custom_css": null}, {"id": 4432, "slack_id": "U0924F78ENM", "display_name": "eiryama7", "bio": null, "projects_count": 1, "devlogs_count": 1, "votes_count": 0, "ships_count": 0, "projects": [{"id": 3039, "title": "Magnetrack", "devlogs_count": 1, "created_at": "2025-06-22T22:04:36.278-04:00"}], "coding_time_seconds": 44274, "coding_time_seconds_today": 0, "balance": "You need to have a pocket watcher badge to view this.", "badges": [], "created_at": "2025-06-16T23:29:10.009-04:00", "updated_at": "2025-07-03T19:31:22.959-04:00", "avatar": "https://secure.gravatar.com/avatar/bd0e1082dc524741911e4a51aa481ced.jpg?s=512&d=https%3A%2F%2Fa.slack-edge.com%2Fdf10d%2Fimg%2Favatars%2Fava_0002-512.png", "custom_css": null}, {"id": 4433, "slack_id": "U091Q5GFWH3", "display_name": "Jithin SP", "bio": null, "projects_count": 0, "devlogs_count": 0, "votes_count": 0, "ships_count": 0, "projects": [], "coding_time_seconds": 98573, "coding_time_seconds_today": 0, "balance": "You need to have a pocket watcher badge to view this.", "badges": [], "created_at": "2025-06-16T23:29:22.996-04:00", "updated_at": "2025-07-03T19:31:23.222-04:00", "avatar": "https://secure.gravatar.com/avatar/471d7ff3f2840d7d78fd77ceebd78ef3.jpg?s=512&d=https%3A%2F%2Fa.slack-edge.com%2Fdf10d%2Fimg%2Favatars%2Fava_0014-512.png", "custom_css": null}, {"id": 4434, "slack_id": "U0924EUNNUR", "display_name": "Ultralak", "bio": null, "projects_count": 3, "devlogs_count": 21, "votes_count": 23, "ships_count": 1, "projects": [{"id": 1798, "title": "Shell", "devlogs_count": 1, "created_at": "2025-06-19T09:13:28.804-04:00"}, {"id": 2170, "title": "Number Guessing game", "devlogs_count": 1, "created_at": "2025-06-20T10:59:57.495-04:00"}, {"id": 5806, "title": "Afterlight", "devlogs_count": 19, "created_at": "2025-07-08T06:33:49.224-04:00"}], "coding_time_seconds": 771596, "coding_time_seconds_today": 0, "balance": "You need to have a pocket watcher badge to view this.", "badges": [{"name": "Maiden Voyage", "text": "you shipped your first project! the journey begins...", "icon": "\ud83d\udea2"}], "created_at": "2025-06-16T23:29:24.572-04:00", "updated_at": "2025-09-10T22:53:22.972-04:00", "avatar": "https://secure.gravatar.com/avatar/12d1bea7c6c36a25c6e9deaa3ab53814.jpg?s=512&d=https%3A%2F%2Fa.slack-edge.com%2Fdf10d%2Fimg%2Favatars%2Fava_0019-512.png", "custom_css": null}, {"id": 4435, "slack_id": "U091S8VGNSG", "display_name": "Ananya V Hegde", "bio": null, "projects_count": 0, "devlogs_count": 0, "votes_count": 0, "ships_count": 0, "projects": [], "coding_time_seconds": 115643, "coding_time_seconds_today": 0, "balance": "You need to have a pocket watcher badge to view this.", "badges": [], "created_at": "2025-06-16T23:29:29.491-04:00", "updated_at": "2025-08-26T22:03:02.445-04:00", "avatar": "https://secure.gravatar.com/avatar/eaa87cde4d2e9dc675999e4be8cfcd69.jpg?s=512&d=https%3A%2F%2Fa.slack-edge.com%2Fdf10d%2Fimg%2Favatars%2Fava_0008-512.png", "custom_css": null}, {"id": 4436, "slack_id": "U092EAVCJ48", "display_name": "Abhishek tekade", "bio": null, "projects_count": 0, "devlogs_count": 0, "votes_count": 0, "ships_count": 0, "projects": [], "coding_time_seconds": 0, "coding_time_seconds_today": 0, "balance": "You need to have a pocket watcher badge to view this.", "badges": [], "created_at": "2025-06-16T23:29:32.830-04:00", "updated_at": "2025-07-03T19:31:24.018-04:00", "avatar": "https://avatars.slack-edge.com/2025-06-16/9058199023301_47226412d26524c5ff69_original.png", "custom_css": null}, {"id": 4437, "slack_id": "U091S8WP0GL", "display_name": "Upsided", "bio": null, "projects_count": 0, "devlogs_count": 0, "votes_count": 0, "ships_count": 0, "projects": [], "coding_time_seconds": 0, "coding_time_seconds_today": 0, "balance": "You need to have a pocket watcher badge to view this.", "badges": [], "created_at": "2025-06-16T23:29:43.710-04:00", "updated_at": "2025-07-03T19:31:24.284-04:00", "avatar": "https://avatars.slack-edge.com/2025-06-16/9082381388480_50777afe14c61f72c402_original.jpg", "custom_css": null}, {"id": 4438, "slack_id": "U091K0JM29Z", "display_name": "Hack Club", "bio": null, "projects_count": 0, "devlogs_count": 0, "votes_count": 0, "ships_count": 0, "projects": [], "coding_time_seconds": 0, "coding_time_seconds_today": 0, "balance": "You need to have a pocket watcher badge to view this.", "badges": [], "created_at": "2025-06-16T23:29:52.330-04:00", "updated_at": "2025-07-03T19:31:24.545-04:00", "avatar": "https://secure.gravatar.com/avatar/c78e1f85bf7b88baccd09d88a3a52c29.jpg?s=512&d=https%3A%2F%2Fa.slack-edge.com%2Fdf10d%2Fimg%2Favatars%2Fava_0002-512.png", "custom_css": null}, {"id": 4439, "slack_id": "U05C64XMMHV", "display_name": "mra", "bio": null, "projects_count": 0, "devlogs_count": 0, "votes_count": 1, "ships_count": 0, "projects": [], "coding_time_seconds": 147904, "coding_time_seconds_today": 0, "balance": "You need to have a pocket watcher badge to view this.", "badges": [], "created_at": "2025-06-16T23:30:18.887-04:00", "updated_at": "2025-08-28T23:28:32.310-04:00", "avatar": "https://avatars.slack-edge.com/2025-06-28/9133636021281_684d9b2c3432ab71b763_original.png", "custom_css": null}, {"id": 4440, "slack_id": "U091RRPAGG2", "display_name": "bigtaco", "bio": null, "projects_count": 0, "devlogs_count": 0, "votes_count": 0, "ships_count": 0, "projects": [], "coding_time_seconds": 0, "coding_time_seconds_today": 0, "balance": "You need to have a pocket watcher badge to view this.", "badges": [], "created_at": "2025-06-16T23:30:41.829-04:00", "updated_at": "2025-07-03T19:31:25.090-04:00", "avatar": "https://secure.gravatar.com/avatar/80ec936c1913f7a9325a282d9bf68882.jpg?s=512&d=https%3A%2F%2Fa.slack-edge.com%2Fdf10d%2Fimg%2Favatars%2Fava_0011-512.png", "custom_css": null}], "pagination": {"page": 222, "pages": 1192, "count": 23828, "items": 20}}