{"users": [{"id": 4461, "slack_id": "U091K33V0E7", "display_name": "Hari", "bio": null, "projects_count": 0, "devlogs_count": 0, "votes_count": 0, "ships_count": 0, "projects": [], "coding_time_seconds": 36550, "coding_time_seconds_today": 0, "balance": "You need to have a pocket watcher badge to view this.", "badges": [], "created_at": "2025-06-16T23:37:05.299-04:00", "updated_at": "2025-07-03T19:31:30.890-04:00", "avatar": "https://secure.gravatar.com/avatar/569cc42fabd516806815f17a63ac0b8e.jpg?s=512&d=https%3A%2F%2Fa.slack-edge.com%2Fdf10d%2Fimg%2Favatars%2Fava_0011-512.png", "custom_css": null}, {"id": 4462, "slack_id": "U091K6JACLE", "display_name": "Vishal", "bio": null, "projects_count": 1, "devlogs_count": 0, "votes_count": 0, "ships_count": 0, "projects": [{"id": 579, "title": "Algorithm Visualizer", "devlogs_count": 0, "created_at": "2025-06-17T01:49:11.188-04:00"}], "coding_time_seconds": 4398, "coding_time_seconds_today": 0, "balance": "You need to have a pocket watcher badge to view this.", "badges": [], "created_at": "2025-06-16T23:37:25.885-04:00", "updated_at": "2025-07-03T19:31:31.172-04:00", "avatar": "https://avatars.slack-edge.com/2025-06-17/9053288857334_89f8949c9b354dc1100f_original.jpg", "custom_css": null}, {"id": 4463, "slack_id": "U091AJBUSCX", "display_name": "Prageeth HP", "bio": null, "projects_count": 0, "devlogs_count": 0, "votes_count": 0, "ships_count": 0, "projects": [], "coding_time_seconds": 0, "coding_time_seconds_today": 0, "balance": "You need to have a pocket watcher badge to view this.", "badges": [], "created_at": "2025-06-16T23:37:36.518-04:00", "updated_at": "2025-07-03T19:31:31.442-04:00", "avatar": "https://secure.gravatar.com/avatar/15bc448bfb3a72d784ed9120ecf6a767.jpg?s=512&d=https%3A%2F%2Fa.slack-edge.com%2Fdf10d%2Fimg%2Favatars%2Fava_0013-512.png", "custom_css": null}, {"id": 4464, "slack_id": "U04AQNZRJQ5", "display_name": "z0d1ac", "bio": null, "projects_count": 0, "devlogs_count": 0, "votes_count": 0, "ships_count": 0, "projects": [], "coding_time_seconds": 58996, "coding_time_seconds_today": 815, "balance": "You need to have a pocket watcher badge to view this.", "badges": [], "created_at": "2025-06-16T23:37:37.595-04:00", "updated_at": "2025-08-17T08:26:11.736-04:00", "avatar": "https://avatars.slack-edge.com/2024-06-17/7284473595973_e2789b23ebde426ed43b_original.jpg", "custom_css": null}, {"id": 4465, "slack_id": "U091K6GNVT8", "display_name": "Pratham", "bio": null, "projects_count": 0, "devlogs_count": 0, "votes_count": 0, "ships_count": 0, "projects": [], "coding_time_seconds": 0, "coding_time_seconds_today": 0, "balance": "You need to have a pocket watcher badge to view this.", "badges": [], "created_at": "2025-06-16T23:38:42.174-04:00", "updated_at": "2025-07-03T19:31:31.975-04:00", "avatar": "https://secure.gravatar.com/avatar/0f5e730c15141affe757ec0617d663fc.jpg?s=512&d=https%3A%2F%2Fa.slack-edge.com%2Fdf10d%2Fimg%2Favatars%2Fava_0002-512.png", "custom_css": null}, {"id": 4466, "slack_id": "U091K3F59V1", "display_name": "Shams Ur Rahman", "bio": null, "projects_count": 0, "devlogs_count": 0, "votes_count": 0, "ships_count": 0, "projects": [], "coding_time_seconds": 0, "coding_time_seconds_today": 0, "balance": "You need to have a pocket watcher badge to view this.", "badges": [], "created_at": "2025-06-16T23:38:55.569-04:00", "updated_at": "2025-07-03T19:31:32.235-04:00", "avatar": "https://secure.gravatar.com/avatar/0ae7643dc821d3fdeaae0676cac4b043.jpg?s=512&d=https%3A%2F%2Fa.slack-edge.com%2Fdf10d%2Fimg%2Favatars%2Fava_0005-512.png", "custom_css": null}, {"id": 4467, "slack_id": "U091S0MUZV0", "display_name": "Farhan Rivaldy", "bio": null, "projects_count": 0, "devlogs_count": 0, "votes_count": 0, "ships_count": 0, "projects": [], "coding_time_seconds": 0, "coding_time_seconds_today": 0, "balance": "You need to have a pocket watcher badge to view this.", "badges": [], "created_at": "2025-06-16T23:38:58.354-04:00", "updated_at": "2025-07-03T19:31:32.499-04:00", "avatar": "https://avatars.slack-edge.com/2025-06-16/9060338774180_f6ca7da37eea3515d941_original.jpg", "custom_css": null}, {"id": 4468, "slack_id": "U07BH5SNM8E", "display_name": "Swaraj", "bio": null, "projects_count": 2, "devlogs_count": 1, "votes_count": 0, "ships_count": 1, "projects": [{"id": 513, "title": "StudyPal", "devlogs_count": 1, "created_at": "2025-06-17T00:03:03.292-04:00"}, {"id": 1235, "title": "CyberSakshar", "devlogs_count": 0, "created_at": "2025-06-18T00:47:23.788-04:00"}], "coding_time_seconds": 47207, "coding_time_seconds_today": 0, "balance": "You need to have a pocket watcher badge to view this.", "badges": [{"name": "Maiden Voyage", "text": "you shipped your first project! the journey begins...", "icon": "\ud83d\udea2"}], "created_at": "2025-06-16T23:39:26.781-04:00", "updated_at": "2025-09-10T22:53:23.733-04:00", "avatar": "https://secure.gravatar.com/avatar/0c915eec888b58cf8e762c13291ab9c9.jpg?s=512&d=https%3A%2F%2Fa.slack-edge.com%2Fdf10d%2Fimg%2Favatars%2Fava_0002-512.png", "custom_css": null}, {"id": 4469, "slack_id": "U092EBJFQQG", "display_name": "Julie Lin", "bio": null, "projects_count": 0, "devlogs_count": 0, "votes_count": 0, "ships_count": 0, "projects": [], "coding_time_seconds": 0, "coding_time_seconds_today": 0, "balance": "You need to have a pocket watcher badge to view this.", "badges": [], "created_at": "2025-06-16T23:39:36.678-04:00", "updated_at": "2025-07-03T19:31:33.018-04:00", "avatar": "https://secure.gravatar.com/avatar/34f6cfac00b11a422843e1010a3c693f.jpg?s=512&d=https%3A%2F%2Fa.slack-edge.com%2Fdf10d%2Fimg%2Favatars%2Fava_0016-512.png", "custom_css": null}, {"id": 4470, "slack_id": "U091K3K2CCT", "display_name": "Samantha", "bio": null, "projects_count": 0, "devlogs_count": 0, "votes_count": 0, "ships_count": 0, "projects": [], "coding_time_seconds": 0, "coding_time_seconds_today": 0, "balance": "You need to have a pocket watcher badge to view this.", "badges": [], "created_at": "2025-06-16T23:39:50.021-04:00", "updated_at": "2025-07-03T19:31:33.292-04:00", "avatar": "https://secure.gravatar.com/avatar/18bced57fd4bad8b0f249210fe120242.jpg?s=512&d=https%3A%2F%2Fa.slack-edge.com%2Fdf10d%2Fimg%2Favatars%2Fava_0002-512.png", "custom_css": null}, {"id": 4471, "slack_id": "U091S9RH1L4", "display_name": "ROBOTICS", "bio": null, "projects_count": 0, "devlogs_count": 0, "votes_count": 0, "ships_count": 0, "projects": [], "coding_time_seconds": 0, "coding_time_seconds_today": 0, "balance": "You need to have a pocket watcher badge to view this.", "badges": [], "created_at": "2025-06-16T23:39:57.564-04:00", "updated_at": "2025-07-03T19:31:33.567-04:00", "avatar": "https://avatars.slack-edge.com/2025-06-16/9058227672629_7f5167ba08c398208943_original.png", "custom_css": null}, {"id": 4472, "slack_id": "U0924G3THCZ", "display_name": "Hardikk", "bio": null, "projects_count": 1, "devlogs_count": 0, "votes_count": 0, "ships_count": 0, "projects": [{"id": 506, "title": "bunny", "devlogs_count": 0, "created_at": "2025-06-16T23:51:15.031-04:00"}], "coding_time_seconds": 16545, "coding_time_seconds_today": 0, "balance": "You need to have a pocket watcher badge to view this.", "badges": [], "created_at": "2025-06-16T23:40:05.054-04:00", "updated_at": "2025-07-03T19:31:33.837-04:00", "avatar": "https://avatars.slack-edge.com/2025-06-16/9053131256611_561ac4f5968787252cec_original.png", "custom_css": null}, {"id": 4473, "slack_id": "U083JNHE2GH", "display_name": "ekkacylia", "bio": null, "projects_count": 1, "devlogs_count": 2, "votes_count": 3, "ships_count": 1, "projects": [{"id": 5383, "title": "SelfQuizzer", "devlogs_count": 2, "created_at": "2025-07-05T01:01:55.962-04:00"}], "coding_time_seconds": 512870, "coding_time_seconds_today": 0, "balance": "You need to have a pocket watcher badge to view this.", "badges": [{"name": "Maiden Voyage", "text": "you shipped your first project! the journey begins...", "icon": "\ud83d\udea2"}], "created_at": "2025-06-16T23:40:18.557-04:00", "updated_at": "2025-09-10T22:53:23.827-04:00", "avatar": "https://avatars.slack-edge.com/2025-06-19/9090285231185_2433ad73850302b0d6be_original.jpg", "custom_css": null}, {"id": 4474, "slack_id": "U079X4D1YTZ", "display_name": "Kushagra", "bio": null, "projects_count": 4, "devlogs_count": 44, "votes_count": 29, "ships_count": 3, "projects": [{"id": 11378, "title": "VR Arcade Basketball", "devlogs_count": 10, "created_at": "2025-08-15T11:22:26.554-04:00"}, {"id": 12190, "title": "VR Escape Room", "devlogs_count": 10, "created_at": "2025-08-24T07:40:31.544-04:00"}, {"id": 2103, "title": "YouToolBox", "devlogs_count": 3, "created_at": "2025-06-20T06:27:44.476-04:00"}, {"id": 5413, "title": "Surge", "devlogs_count": 18, "created_at": "2025-07-05T06:33:43.759-04:00"}], "coding_time_seconds": 414082, "coding_time_seconds_today": 0, "balance": "You need to have a pocket watcher badge to view this.", "badges": [{"name": "Maiden Voyage", "text": "you shipped your first project! the journey begins...", "icon": "\ud83d\udea2"}], "created_at": "2025-06-16T23:40:44.936-04:00", "updated_at": "2025-09-10T22:53:23.850-04:00", "avatar": "https://secure.gravatar.com/avatar/762e00aa8eb58ad61019510087d53003.jpg?s=512&d=https%3A%2F%2Fa.slack-edge.com%2Fdf10d%2Fimg%2Favatars%2Fava_0018-512.png", "custom_css": null}, {"id": 4475, "slack_id": "U091K6QEH38", "display_name": "Rahul", "bio": null, "projects_count": 0, "devlogs_count": 0, "votes_count": 0, "ships_count": 0, "projects": [], "coding_time_seconds": 0, "coding_time_seconds_today": 0, "balance": "You need to have a pocket watcher badge to view this.", "badges": [], "created_at": "2025-06-16T23:40:54.359-04:00", "updated_at": "2025-07-03T19:31:34.628-04:00", "avatar": "https://secure.gravatar.com/avatar/033d19467532edeb625f5cfd660e8c07.jpg?s=512&d=https%3A%2F%2Fa.slack-edge.com%2Fdf10d%2Fimg%2Favatars%2Fava_0009-512.png", "custom_css": null}, {"id": 4476, "slack_id": "U092EBQTVKJ", "display_name": "Avanish Singh", "bio": null, "projects_count": 1, "devlogs_count": 0, "votes_count": 0, "ships_count": 0, "projects": [{"id": 507, "title": "Order Management Website", "devlogs_count": 0, "created_at": "2025-06-16T23:51:46.789-04:00"}], "coding_time_seconds": 94771, "coding_time_seconds_today": 0, "balance": "You need to have a pocket watcher badge to view this.", "badges": [], "created_at": "2025-06-16T23:41:02.765-04:00", "updated_at": "2025-07-03T19:31:34.921-04:00", "avatar": "https://avatars.slack-edge.com/2025-06-16/9058230420741_cb2935b7dce679429b03_original.png", "custom_css": null}, {"id": 4477, "slack_id": "U091K3Q11L3", "display_name": "Swarnendu", "bio": null, "projects_count": 0, "devlogs_count": 0, "votes_count": 0, "ships_count": 0, "projects": [], "coding_time_seconds": 0, "coding_time_seconds_today": 0, "balance": "You need to have a pocket watcher badge to view this.", "badges": [], "created_at": "2025-06-16T23:41:18.348-04:00", "updated_at": "2025-07-03T19:31:35.181-04:00", "avatar": "https://secure.gravatar.com/avatar/4a6436c4584b9b1bd29edb7b4cc4c506.jpg?s=512&d=https%3A%2F%2Fa.slack-edge.com%2Fdf10d%2Fimg%2Favatars%2Fava_0016-512.png", "custom_css": null}, {"id": 4478, "slack_id": "U07AAB3AHQT", "display_name": "Aaron", "bio": null, "projects_count": 0, "devlogs_count": 0, "votes_count": 0, "ships_count": 0, "projects": [], "coding_time_seconds": 0, "coding_time_seconds_today": 0, "balance": "You need to have a pocket watcher badge to view this.", "badges": [], "created_at": "2025-06-16T23:41:24.374-04:00", "updated_at": "2025-07-03T19:31:35.442-04:00", "avatar": "https://secure.gravatar.com/avatar/2c58dc0e22668901c597553204e48692.jpg?s=512&d=https%3A%2F%2Fa.slack-edge.com%2Fdf10d%2Fimg%2Favatars%2Fava_0012-512.png", "custom_css": null}, {"id": 4479, "slack_id": "U091K6UF72A", "display_name": "Mohammad Mahdi Mohajer", "bio": null, "projects_count": 0, "devlogs_count": 0, "votes_count": 0, "ships_count": 0, "projects": [], "coding_time_seconds": 0, "coding_time_seconds_today": 0, "balance": "You need to have a pocket watcher badge to view this.", "badges": [], "created_at": "2025-06-16T23:41:30.152-04:00", "updated_at": "2025-07-03T19:31:35.708-04:00", "avatar": "https://avatars.slack-edge.com/2025-06-16/9060038255346_b07ba4b541c86250bdce_original.jpg", "custom_css": null}, {"id": 4480, "slack_id": "U091S9SQGRJ", "display_name": "Noah Rose", "bio": null, "projects_count": 0, "devlogs_count": 0, "votes_count": 0, "ships_count": 0, "projects": [], "coding_time_seconds": 0, "coding_time_seconds_today": 0, "balance": "You need to have a pocket watcher badge to view this.", "badges": [], "created_at": "2025-06-16T23:41:47.356-04:00", "updated_at": "2025-07-03T19:31:35.998-04:00", "avatar": "https://secure.gravatar.com/avatar/b2a484e3f758dd013bf9d8a85bfdfd5c.jpg?s=512&d=https%3A%2F%2Fa.slack-edge.com%2Fdf10d%2Fimg%2Favatars%2Fava_0026-512.png", "custom_css": null}], "pagination": {"page": 224, "pages": 1192, "count": 23828, "items": 20}}