{"users": [{"id": 4481, "slack_id": "U078GH9EA9K", "display_name": "Caleb Yates", "bio": null, "projects_count": 1, "devlogs_count": 3, "votes_count": 0, "ships_count": 0, "projects": [{"id": 516, "title": "Salt Discord Bot", "devlogs_count": 3, "created_at": "2025-06-17T00:06:37.759-04:00"}], "coding_time_seconds": 258109, "coding_time_seconds_today": 0, "balance": "You need to have a pocket watcher badge to view this.", "badges": [], "created_at": "2025-06-16T23:41:53.989-04:00", "updated_at": "2025-09-07T05:54:34.922-04:00", "avatar": "https://secure.gravatar.com/avatar/6ea99b85feba0fa40ffbfefcc63fbdbf.jpg?s=512&d=https%3A%2F%2Fa.slack-edge.com%2Fdf10d%2Fimg%2Favatars%2Fava_0001-512.png", "custom_css": null}, {"id": 4482, "slack_id": "U08SX4VEQ4A", "display_name": "Aadil Sengupta", "bio": null, "projects_count": 0, "devlogs_count": 0, "votes_count": 0, "ships_count": 0, "projects": [], "coding_time_seconds": 347132, "coding_time_seconds_today": 240, "balance": "You need to have a pocket watcher badge to view this.", "badges": [], "created_at": "2025-06-16T23:42:16.253-04:00", "updated_at": "2025-08-07T02:20:24.987-04:00", "avatar": "https://avatars.slack-edge.com/2025-08-06/9314220290915_8363d09fe432ca4c7d64_original.png", "custom_css": null}, {"id": 4483, "slack_id": "U091S0946US", "display_name": "paramjani", "bio": null, "projects_count": 1, "devlogs_count": 1, "votes_count": 0, "ships_count": 0, "projects": [{"id": 7015, "title": "New Project", "devlogs_count": 1, "created_at": "2025-07-18T09:04:14.412-04:00"}], "coding_time_seconds": 34638, "coding_time_seconds_today": 0, "balance": "You need to have a pocket watcher badge to view this.", "badges": [], "created_at": "2025-06-16T23:42:18.704-04:00", "updated_at": "2025-07-19T08:30:52.629-04:00", "avatar": "https://secure.gravatar.com/avatar/3faced0f99ef936ad51ab6ea6207b4ff.jpg?s=512&d=https%3A%2F%2Fa.slack-edge.com%2Fdf10d%2Fimg%2Favatars%2Fava_0013-512.png", "custom_css": null}, {"id": 4484, "slack_id": "U078Q4RC3DG", "display_name": "Josh", "bio": null, "projects_count": 4, "devlogs_count": 17, "votes_count": 40, "ships_count": 2, "projects": [{"id": 2694, "title": "dbgui", "devlogs_count": 6, "created_at": "2025-06-21T17:31:56.636-04:00"}, {"id": 5524, "title": "nocogl", "devlogs_count": 1, "created_at": "2025-07-05T22:33:17.076-04:00"}, {"id": 5654, "title": "Spellfire Frontend", "devlogs_count": 7, "created_at": "2025-07-06T21:49:03.030-04:00"}, {"id": 5996, "title": "Aushr", "devlogs_count": 3, "created_at": "2025-07-09T20:17:31.466-04:00"}], "coding_time_seconds": 740208, "coding_time_seconds_today": 0, "balance": "You need to have a pocket watcher badge to view this.", "badges": [{"name": "Maiden Voyage", "text": "you shipped your first project! the journey begins...", "icon": "\ud83d\udea2"}], "created_at": "2025-06-16T23:42:24.317-04:00", "updated_at": "2025-09-10T22:53:24.117-04:00", "avatar": "https://secure.gravatar.com/avatar/5e0bdb6fbc15faec03abe638d2023c93.jpg?s=512&d=https%3A%2F%2Fa.slack-edge.com%2Fdf10d%2Fimg%2Favatars%2Fava_0005-512.png", "custom_css": null}, {"id": 4485, "slack_id": "U091Q6B5H37", "display_name": "Avinash Dubey", "bio": null, "projects_count": 0, "devlogs_count": 0, "votes_count": 0, "ships_count": 0, "projects": [], "coding_time_seconds": 0, "coding_time_seconds_today": 0, "balance": "You need to have a pocket watcher badge to view this.", "badges": [], "created_at": "2025-06-16T23:42:31.014-04:00", "updated_at": "2025-07-03T19:31:37.333-04:00", "avatar": "https://secure.gravatar.com/avatar/b8bac0c143cce9a7cc84cc04d58a9800.jpg?s=512&d=https%3A%2F%2Fa.slack-edge.com%2Fdf10d%2Fimg%2Favatars%2Fava_0026-512.png", "custom_css": null}, {"id": 4486, "slack_id": "U078GD0DA67", "display_name": "Cyrus", "bio": null, "projects_count": 1, "devlogs_count": 3, "votes_count": 0, "ships_count": 0, "projects": [{"id": 5665, "title": "Stock Ticker", "devlogs_count": 3, "created_at": "2025-07-06T23:13:11.370-04:00"}], "coding_time_seconds": 82519, "coding_time_seconds_today": 0, "balance": "You need to have a pocket watcher badge to view this.", "badges": [], "created_at": "2025-06-16T23:43:05.224-04:00", "updated_at": "2025-07-03T19:31:37.590-04:00", "avatar": "https://secure.gravatar.com/avatar/2a945699d20e36b945dcfc865f905995.jpg?s=512&d=https%3A%2F%2Fa.slack-edge.com%2Fdf10d%2Fimg%2Favatars%2Fava_0015-512.png", "custom_css": null}, {"id": 4487, "slack_id": "U0924GHNWJD", "display_name": "Ankur Grewal", "bio": null, "projects_count": 0, "devlogs_count": 17, "votes_count": 40, "ships_count": 0, "projects": [], "coding_time_seconds": 671580, "coding_time_seconds_today": 0, "balance": "You need to have a pocket watcher badge to view this.", "badges": [], "created_at": "2025-06-16T23:43:09.800-04:00", "updated_at": "2025-07-09T16:52:56.467-04:00", "avatar": "https://avatars.slack-edge.com/2025-06-16/9060350387476_9080b7bff74d570be2e4_original.png", "custom_css": null}, {"id": 4488, "slack_id": "U091K6UQWH4", "display_name": "Pragun Srivastava", "bio": null, "projects_count": 0, "devlogs_count": 89, "votes_count": 94, "ships_count": 0, "projects": [], "coding_time_seconds": 1125367, "coding_time_seconds_today": 0, "balance": "You need to have a pocket watcher badge to view this.", "badges": [{"name": "Maiden Voyage", "text": "you shipped your first project! the journey begins...", "icon": "\ud83d\udea2"}, {"name": "Ballot Stuffer", "text": "vote 100 times.", "icon": "https://summer.hackclub.com/assets/i_voted-bf851b48.png"}], "created_at": "2025-06-16T23:43:31.844-04:00", "updated_at": "2025-09-10T22:53:24.224-04:00", "avatar": "https://avatars.slack-edge.com/2025-06-17/9083001890560_33d4f52eee25fcb30e5f_original.jpg", "custom_css": null}, {"id": 4489, "slack_id": "U092EBSTLJC", "display_name": "Tarun Kumar", "bio": null, "projects_count": 0, "devlogs_count": 0, "votes_count": 0, "ships_count": 0, "projects": [], "coding_time_seconds": 35, "coding_time_seconds_today": 0, "balance": "You need to have a pocket watcher badge to view this.", "badges": [], "created_at": "2025-06-16T23:43:39.273-04:00", "updated_at": "2025-07-03T19:31:38.371-04:00", "avatar": "https://avatars.slack-edge.com/2025-06-16/9060043644386_8dfe3842b1ea8a0eeb98_original.jpg", "custom_css": null}, {"id": 4490, "slack_id": "U091AK0DRF1", "display_name": "Trazverse", "bio": null, "projects_count": 0, "devlogs_count": 0, "votes_count": 0, "ships_count": 0, "projects": [], "coding_time_seconds": 0, "coding_time_seconds_today": 0, "balance": "You need to have a pocket watcher badge to view this.", "badges": [], "created_at": "2025-06-16T23:44:12.037-04:00", "updated_at": "2025-07-03T19:31:38.714-04:00", "avatar": "https://secure.gravatar.com/avatar/ba00e506a88e25c116ccb9cbb02ccbd6.jpg?s=512&d=https%3A%2F%2Fa.slack-edge.com%2Fdf10d%2Fimg%2Favatars%2Fava_0006-512.png", "custom_css": null}, {"id": 4491, "slack_id": "U092EBXAFJL", "display_name": "Deep Darji", "bio": null, "projects_count": 0, "devlogs_count": 0, "votes_count": 0, "ships_count": 0, "projects": [], "coding_time_seconds": 6953, "coding_time_seconds_today": 0, "balance": "You need to have a pocket watcher badge to view this.", "badges": [], "created_at": "2025-06-16T23:44:20.059-04:00", "updated_at": "2025-07-03T19:31:38.997-04:00", "avatar": "https://secure.gravatar.com/avatar/8e8499b4b7cb0f21d19d8d12aa1b54be.jpg?s=512&d=https%3A%2F%2Fa.slack-edge.com%2Fdf10d%2Fimg%2Favatars%2Fava_0015-512.png", "custom_css": null}, {"id": 4492, "slack_id": "U092EBZSAQ0", "display_name": "Saadiq", "bio": null, "projects_count": 0, "devlogs_count": 0, "votes_count": 0, "ships_count": 0, "projects": [], "coding_time_seconds": 0, "coding_time_seconds_today": 0, "balance": "You need to have a pocket watcher badge to view this.", "badges": [], "created_at": "2025-06-16T23:44:22.020-04:00", "updated_at": "2025-07-03T19:31:39.253-04:00", "avatar": "https://secure.gravatar.com/avatar/63f230394324d61868256b32483e03d1.jpg?s=512&d=https%3A%2F%2Fa.slack-edge.com%2Fdf10d%2Fimg%2Favatars%2Fava_0009-512.png", "custom_css": null}, {"id": 4493, "slack_id": "U0924GFMY1X", "display_name": "Adon Omeri", "bio": null, "projects_count": 0, "devlogs_count": 0, "votes_count": 0, "ships_count": 0, "projects": [], "coding_time_seconds": 0, "coding_time_seconds_today": 0, "balance": "You need to have a pocket watcher badge to view this.", "badges": [], "created_at": "2025-06-16T23:45:40.077-04:00", "updated_at": "2025-07-03T19:31:39.515-04:00", "avatar": "https://secure.gravatar.com/avatar/bebcb67885920b62df9b3355743e80ed.jpg?s=512&d=https%3A%2F%2Fa.slack-edge.com%2Fdf10d%2Fimg%2Favatars%2Fava_0001-512.png", "custom_css": null}, {"id": 4494, "slack_id": "U091PK7BNSE", "display_name": "Khush Patel", "bio": null, "projects_count": 2, "devlogs_count": 4, "votes_count": 0, "ships_count": 0, "projects": [{"id": 553, "title": "PetWell", "devlogs_count": 3, "created_at": "2025-06-17T00:59:00.453-04:00"}, {"id": 3076, "title": "StepIn", "devlogs_count": 1, "created_at": "2025-06-23T02:37:37.181-04:00"}], "coding_time_seconds": 92576, "coding_time_seconds_today": 0, "balance": "You need to have a pocket watcher badge to view this.", "badges": [], "created_at": "2025-06-16T23:45:45.227-04:00", "updated_at": "2025-07-03T19:31:39.780-04:00", "avatar": "https://secure.gravatar.com/avatar/502e088d0b1c91f8a7d9444b4f40776d.jpg?s=512&d=https%3A%2F%2Fa.slack-edge.com%2Fdf10d%2Fimg%2Favatars%2Fava_0025-512.png", "custom_css": null}, {"id": 4495, "slack_id": "U091AJWNE3Z", "display_name": "Adhish", "bio": null, "projects_count": 0, "devlogs_count": 0, "votes_count": 0, "ships_count": 0, "projects": [], "coding_time_seconds": 0, "coding_time_seconds_today": 0, "balance": "You need to have a pocket watcher badge to view this.", "badges": [], "created_at": "2025-06-16T23:45:46.045-04:00", "updated_at": "2025-07-03T19:31:40.042-04:00", "avatar": "https://secure.gravatar.com/avatar/bcf746a59a205933dd13e482fa7b99c9.jpg?s=512&d=https%3A%2F%2Fa.slack-edge.com%2Fdf10d%2Fimg%2Favatars%2Fava_0006-512.png", "custom_css": null}, {"id": 4496, "slack_id": "U08HNDSL4NL", "display_name": "Timothy Bency", "bio": null, "projects_count": 1, "devlogs_count": 3, "votes_count": 0, "ships_count": 0, "projects": [{"id": 1049, "title": "Minimalistic note taking app", "devlogs_count": 3, "created_at": "2025-06-17T14:21:51.552-04:00"}], "coding_time_seconds": 8298, "coding_time_seconds_today": 0, "balance": "You need to have a pocket watcher badge to view this.", "badges": [], "created_at": "2025-06-16T23:45:48.267-04:00", "updated_at": "2025-07-03T21:53:48.095-04:00", "avatar": "https://avatars.slack-edge.com/2025-04-13/8744382664501_e9b58b617a62804be3e4_original.jpg", "custom_css": null}, {"id": 4497, "slack_id": "U091SA476TE", "display_name": "Kavita Nautiyal", "bio": null, "projects_count": 0, "devlogs_count": 0, "votes_count": 0, "ships_count": 0, "projects": [], "coding_time_seconds": 0, "coding_time_seconds_today": 0, "balance": "You need to have a pocket watcher badge to view this.", "badges": [], "created_at": "2025-06-16T23:45:56.428-04:00", "updated_at": "2025-07-03T19:31:40.438-04:00", "avatar": "https://avatars.slack-edge.com/2025-06-16/9053255306102_f6604906f93409ab9500_original.jpg", "custom_css": null}, {"id": 4498, "slack_id": "U091S9Y2A3E", "display_name": "Ayushman", "bio": null, "projects_count": 0, "devlogs_count": 0, "votes_count": 0, "ships_count": 0, "projects": [], "coding_time_seconds": 0, "coding_time_seconds_today": 0, "balance": "You need to have a pocket watcher badge to view this.", "badges": [], "created_at": "2025-06-16T23:46:02.358-04:00", "updated_at": "2025-07-03T19:31:40.693-04:00", "avatar": "https://secure.gravatar.com/avatar/cc470ca25d307ddf1f34251441c16e57.jpg?s=512&d=https%3A%2F%2Fa.slack-edge.com%2Fdf10d%2Fimg%2Favatars%2Fava_0005-512.png", "custom_css": null}, {"id": 4499, "slack_id": "U091K726BP0", "display_name": "Abhinay Y", "bio": null, "projects_count": 0, "devlogs_count": 0, "votes_count": 0, "ships_count": 0, "projects": [], "coding_time_seconds": 0, "coding_time_seconds_today": 0, "balance": "You need to have a pocket watcher badge to view this.", "badges": [], "created_at": "2025-06-16T23:46:10.896-04:00", "updated_at": "2025-07-03T19:31:40.953-04:00", "avatar": "https://avatars.slack-edge.com/2025-06-16/9060357488772_f89a2bc13022ea469288_original.jpg", "custom_css": null}, {"id": 4500, "slack_id": "U092EBWTNG0", "display_name": "Amal K Jose", "bio": null, "projects_count": 0, "devlogs_count": 0, "votes_count": 0, "ships_count": 0, "projects": [], "coding_time_seconds": 0, "coding_time_seconds_today": 0, "balance": "You need to have a pocket watcher badge to view this.", "badges": [], "created_at": "2025-06-16T23:46:28.369-04:00", "updated_at": "2025-07-03T19:31:41.220-04:00", "avatar": "https://secure.gravatar.com/avatar/30cdd491fa72d8ba2600bdf55a70a22e.jpg?s=512&d=https%3A%2F%2Fa.slack-edge.com%2Fdf10d%2Fimg%2Favatars%2Fava_0026-512.png", "custom_css": null}], "pagination": {"page": 225, "pages": 1192, "count": 23828, "items": 20}}