{"users": [{"id": 4501, "slack_id": "U091SA4QGRJ", "display_name": "Sathish Waran S", "bio": null, "projects_count": 0, "devlogs_count": 0, "votes_count": 0, "ships_count": 0, "projects": [], "coding_time_seconds": 0, "coding_time_seconds_today": 0, "balance": "You need to have a pocket watcher badge to view this.", "badges": [], "created_at": "2025-06-16T23:46:34.293-04:00", "updated_at": "2025-07-03T19:31:41.491-04:00", "avatar": "https://secure.gravatar.com/avatar/82c16c0595dd279fd272975092dbcee8.jpg?s=512&d=https%3A%2F%2Fa.slack-edge.com%2Fdf10d%2Fimg%2Favatars%2Fava_0026-512.png", "custom_css": null}, {"id": 4502, "slack_id": "U07GM7LBZNF", "display_name": "Michael", "bio": null, "projects_count": 0, "devlogs_count": 0, "votes_count": 0, "ships_count": 0, "projects": [], "coding_time_seconds": 207228, "coding_time_seconds_today": 9025, "balance": "You need to have a pocket watcher badge to view this.", "badges": [], "created_at": "2025-06-16T23:46:34.551-04:00", "updated_at": "2025-07-03T19:31:41.771-04:00", "avatar": "https://avatars.slack-edge.com/2024-08-13/7588249418784_42ea7004e234f6386856_original.png", "custom_css": null}, {"id": 4503, "slack_id": "U091K40EPFD", "display_name": "Oxymoron IT", "bio": null, "projects_count": 0, "devlogs_count": 0, "votes_count": 0, "ships_count": 0, "projects": [], "coding_time_seconds": 0, "coding_time_seconds_today": 0, "balance": "You need to have a pocket watcher badge to view this.", "badges": [], "created_at": "2025-06-16T23:47:08.787-04:00", "updated_at": "2025-07-03T19:31:42.066-04:00", "avatar": "https://secure.gravatar.com/avatar/07e8d1ff58a9a9dd2a6251e97bf2eff1.jpg?s=512&d=https%3A%2F%2Fa.slack-edge.com%2Fdf10d%2Fimg%2Favatars%2Fava_0023-512.png", "custom_css": null}, {"id": 4504, "slack_id": "U091K43373M", "display_name": "Maniraj Yadav", "bio": null, "projects_count": 0, "devlogs_count": 0, "votes_count": 0, "ships_count": 0, "projects": [], "coding_time_seconds": 0, "coding_time_seconds_today": 0, "balance": "You need to have a pocket watcher badge to view this.", "badges": [], "created_at": "2025-06-16T23:47:44.522-04:00", "updated_at": "2025-07-03T19:31:42.357-04:00", "avatar": "https://secure.gravatar.com/avatar/ec0b1a6d4012ca9c5cc7da4b937214de.jpg?s=512&d=https%3A%2F%2Fa.slack-edge.com%2Fdf10d%2Fimg%2Favatars%2Fava_0016-512.png", "custom_css": null}, {"id": 4505, "slack_id": "U091S7XJ19A", "display_name": "Manoj Pise", "bio": null, "projects_count": 0, "devlogs_count": 0, "votes_count": 0, "ships_count": 0, "projects": [], "coding_time_seconds": 0, "coding_time_seconds_today": 0, "balance": "You need to have a pocket watcher badge to view this.", "badges": [], "created_at": "2025-06-16T23:47:55.623-04:00", "updated_at": "2025-07-03T19:31:42.632-04:00", "avatar": "https://secure.gravatar.com/avatar/cd37d3f77e7b45c97d378b2039ed770f.jpg?s=512&d=https%3A%2F%2Fa.slack-edge.com%2Fdf10d%2Fimg%2Favatars%2Fava_0011-512.png", "custom_css": null}, {"id": 4506, "slack_id": "U08CBQ5L93P", "display_name": "Aarush", "bio": null, "projects_count": 3, "devlogs_count": 4, "votes_count": 34, "ships_count": 3, "projects": [{"id": 8764, "title": "Gobbie", "devlogs_count": 1, "created_at": "2025-07-29T06:48:10.684-04:00"}, {"id": 1492, "title": "PokeCon", "devlogs_count": 2, "created_at": "2025-06-18T16:22:48.283-04:00"}, {"id": 12230, "title": "Rivide", "devlogs_count": 1, "created_at": "2025-08-24T15:56:37.432-04:00"}], "coding_time_seconds": 28652, "coding_time_seconds_today": 0, "balance": "You need to have a pocket watcher badge to view this.", "badges": [{"name": "Maiden Voyage", "text": "you shipped your first project! the journey begins...", "icon": "\ud83d\udea2"}], "created_at": "2025-06-16T23:48:15.902-04:00", "updated_at": "2025-09-10T22:53:24.633-04:00", "avatar": "https://avatars.slack-edge.com/2025-06-19/9067650285718_94f9fe4ef23981ee954e_original.png", "custom_css": null}, {"id": 4507, "slack_id": "U091SA9QY68", "display_name": "Manas Choksi", "bio": null, "projects_count": 0, "devlogs_count": 0, "votes_count": 0, "ships_count": 0, "projects": [], "coding_time_seconds": 0, "coding_time_seconds_today": 0, "balance": "You need to have a pocket watcher badge to view this.", "badges": [], "created_at": "2025-06-16T23:48:25.316-04:00", "updated_at": "2025-07-03T19:31:43.173-04:00", "avatar": "https://avatars.slack-edge.com/2025-06-16/9082428858048_d8b88ee2c803f6af74ee_original.jpg", "custom_css": null}, {"id": 4508, "slack_id": "U091K4AHPUK", "display_name": "Ram Gopal Reddy", "bio": null, "projects_count": 1, "devlogs_count": 1, "votes_count": 0, "ships_count": 0, "projects": [{"id": 994, "title": "Food Product Explorer", "devlogs_count": 1, "created_at": "2025-06-17T13:10:29.623-04:00"}], "coding_time_seconds": 190854, "coding_time_seconds_today": 0, "balance": "You need to have a pocket watcher badge to view this.", "badges": [], "created_at": "2025-06-16T23:48:50.845-04:00", "updated_at": "2025-07-03T19:31:43.440-04:00", "avatar": "https://secure.gravatar.com/avatar/119eab92558ac9ea46259bbbd7e91758.jpg?s=512&d=https%3A%2F%2Fa.slack-edge.com%2Fdf10d%2Fimg%2Favatars%2Fava_0006-512.png", "custom_css": null}, {"id": 4509, "slack_id": "U05M2HW1EJD", "display_name": "Abdullah Zidan", "bio": null, "projects_count": 0, "devlogs_count": 0, "votes_count": 0, "ships_count": 0, "projects": [], "coding_time_seconds": 0, "coding_time_seconds_today": 0, "balance": "You need to have a pocket watcher badge to view this.", "badges": [], "created_at": "2025-06-16T23:49:02.103-04:00", "updated_at": "2025-07-03T19:31:43.702-04:00", "avatar": "https://secure.gravatar.com/avatar/b96e4f5e0fe5e13464b38b26d60d4fce.jpg?s=512&d=https%3A%2F%2Fa.slack-edge.com%2Fdf10d%2Fimg%2Favatars%2Fava_0025-512.png", "custom_css": null}, {"id": 4510, "slack_id": "U06H1SBQ7RP", "display_name": "Devansh Singh Parmar", "bio": null, "projects_count": 1, "devlogs_count": 0, "votes_count": 1, "ships_count": 0, "projects": [{"id": 538, "title": "Waspo", "devlogs_count": 0, "created_at": "2025-06-17T00:44:02.052-04:00"}], "coding_time_seconds": 3777, "coding_time_seconds_today": 0, "balance": "You need to have a pocket watcher badge to view this.", "badges": [], "created_at": "2025-06-16T23:49:35.233-04:00", "updated_at": "2025-08-13T00:36:08.437-04:00", "avatar": "https://avatars.slack-edge.com/2025-08-01/9307976673840_adf35738fccd49c8a8ba_original.jpg", "custom_css": null}, {"id": 4511, "slack_id": "U091K48RE75", "display_name": "Yash", "bio": null, "projects_count": 0, "devlogs_count": 0, "votes_count": 0, "ships_count": 0, "projects": [], "coding_time_seconds": 0, "coding_time_seconds_today": 0, "balance": "You need to have a pocket watcher badge to view this.", "badges": [], "created_at": "2025-06-16T23:49:50.833-04:00", "updated_at": "2025-07-03T19:31:44.239-04:00", "avatar": "https://secure.gravatar.com/avatar/876a6aa9300e767711c485235c893f12.jpg?s=512&d=https%3A%2F%2Fa.slack-edge.com%2Fdf10d%2Fimg%2Favatars%2Fava_0000-512.png", "custom_css": null}, {"id": 4512, "slack_id": "U091AK7JM1D", "display_name": "Vaibhav Mishra", "bio": null, "projects_count": 0, "devlogs_count": 0, "votes_count": 0, "ships_count": 0, "projects": [], "coding_time_seconds": 0, "coding_time_seconds_today": 0, "balance": "You need to have a pocket watcher badge to view this.", "badges": [], "created_at": "2025-06-16T23:49:51.846-04:00", "updated_at": "2025-07-03T19:31:44.495-04:00", "avatar": "https://avatars.slack-edge.com/2025-06-16/9072586546657_1d725ebfd0cf0afbd052_original.jpg", "custom_css": null}, {"id": 4513, "slack_id": "U091S1E3DT4", "display_name": "niiiiiiick79", "bio": null, "projects_count": 0, "devlogs_count": 0, "votes_count": 0, "ships_count": 0, "projects": [], "coding_time_seconds": 0, "coding_time_seconds_today": 0, "balance": "You need to have a pocket watcher badge to view this.", "badges": [], "created_at": "2025-06-16T23:50:21.730-04:00", "updated_at": "2025-07-03T19:31:44.755-04:00", "avatar": "https://secure.gravatar.com/avatar/6089470d90e9772edfc2fd597cb37251.jpg?s=512&d=https%3A%2F%2Fa.slack-edge.com%2Fdf10d%2Fimg%2Favatars%2Fava_0011-512.png", "custom_css": null}, {"id": 4514, "slack_id": "U07BNRCEARM", "display_name": "QinCai", "bio": null, "projects_count": 7, "devlogs_count": 95, "votes_count": 137, "ships_count": 4, "projects": [{"id": 2687, "title": "RasPiCube - PiCubeZero", "devlogs_count": 18, "created_at": "2025-06-21T17:15:24.606-04:00"}, {"id": 11824, "title": "Poker Over SSH -- SSH server, website & Docker support", "devlogs_count": 23, "created_at": "2025-08-20T00:15:06.575-04:00"}, {"id": 13419, "title": "OpenBanqr - Free And Open-source alternative to Banqer", "devlogs_count": 1, "created_at": "2025-09-16T00:11:08.763-04:00"}, {"id": 13679, "title": "The Forbidden Sector - Sector 65 of the SoM Grand Survey Exhibition", "devlogs_count": 1, "created_at": "2025-09-22T19:19:28.108-04:00"}, {"id": 9643, "title": "RemoteRun", "devlogs_count": 8, "created_at": "2025-08-02T00:39:51.204-04:00"}, {"id": 3615, "title": "mdllama - Ollama & OpenAI runtime", "devlogs_count": 39, "created_at": "2025-06-25T00:43:09.929-04:00"}, {"id": 9645, "title": "Boba and Swirl Website - DinoBox", "devlogs_count": 2, "created_at": "2025-08-02T00:42:17.487-04:00"}], "coding_time_seconds": 713928, "coding_time_seconds_today": 0, "balance": "You need to have a pocket watcher badge to view this.", "badges": [{"name": "Maiden Voyage", "text": "you shipped your first project! the journey begins...", "icon": "\ud83d\udea2"}, {"name": "Ballot Stuffer", "text": "vote 100 times.", "icon": "https://summer.hackclub.com/assets/i_voted-bf851b48.png"}], "created_at": "2025-06-16T23:50:43.685-04:00", "updated_at": "2025-09-13T02:20:20.307-04:00", "avatar": "https://avatars.slack-edge.com/2025-09-13/9508309092995_ab78dbb3dd5410a46ccc_original.png", "custom_css": null}, {"id": 4515, "slack_id": "U091AKH0V9D", "display_name": "entitybtw", "bio": "psp-dev, technofreak", "projects_count": 1, "devlogs_count": 13, "votes_count": 5, "ships_count": 0, "projects": [{"id": 9414, "title": "widgets_portable", "devlogs_count": 13, "created_at": "2025-08-01T05:18:22.620-04:00"}], "coding_time_seconds": 281729, "coding_time_seconds_today": 0, "balance": "You need to have a pocket watcher badge to view this.", "badges": [], "created_at": "2025-06-16T23:51:01.356-04:00", "updated_at": "2025-08-25T14:15:02.581-04:00", "avatar": "https://secure.gravatar.com/avatar/86b23024000ce4a4eb1e494c259d2c98.jpg?s=512&d=https%3A%2F%2Fa.slack-edge.com%2Fdf10d%2Fimg%2Favatars%2Fava_0024-512.png", "custom_css": null}, {"id": 4516, "slack_id": "U08QQM860KF", "display_name": "Telea Mihai-Laurentiu", "bio": null, "projects_count": 2, "devlogs_count": 4, "votes_count": 24, "ships_count": 1, "projects": [{"id": 12284, "title": "FUGA", "devlogs_count": 3, "created_at": "2025-08-25T09:19:04.061-04:00"}, {"id": 11208, "title": "2N2D - Neural Network Development Dashboard", "devlogs_count": 1, "created_at": "2025-08-14T04:16:31.168-04:00"}], "coding_time_seconds": 261214, "coding_time_seconds_today": 0, "balance": "You need to have a pocket watcher badge to view this.", "badges": [{"name": "Maiden Voyage", "text": "you shipped your first project! the journey begins...", "icon": "\ud83d\udea2"}], "created_at": "2025-06-16T23:51:10.528-04:00", "updated_at": "2025-09-10T22:53:24.995-04:00", "avatar": "https://secure.gravatar.com/avatar/361f63303e6820a714e8c7971900ed92.jpg?s=512&d=https%3A%2F%2Fa.slack-edge.com%2Fdf10d%2Fimg%2Favatars%2Fava_0001-512.png", "custom_css": null}, {"id": 4517, "slack_id": "U091K49NZKM", "display_name": "Luis Angel Damian Damian", "bio": null, "projects_count": 0, "devlogs_count": 0, "votes_count": 0, "ships_count": 0, "projects": [], "coding_time_seconds": 0, "coding_time_seconds_today": 0, "balance": "You need to have a pocket watcher badge to view this.", "badges": [], "created_at": "2025-06-16T23:51:16.072-04:00", "updated_at": "2025-07-03T19:31:45.815-04:00", "avatar": "https://avatars.slack-edge.com/2025-06-16/9082436009680_bfca7cc60f71b79e8326_original.png", "custom_css": null}, {"id": 4518, "slack_id": "U091K7KF4ES", "display_name": "Padhmasini", "bio": null, "projects_count": 0, "devlogs_count": 0, "votes_count": 0, "ships_count": 0, "projects": [], "coding_time_seconds": 146104, "coding_time_seconds_today": 413, "balance": "You need to have a pocket watcher badge to view this.", "badges": [], "created_at": "2025-06-16T23:51:17.586-04:00", "updated_at": "2025-07-03T19:31:46.091-04:00", "avatar": "https://secure.gravatar.com/avatar/b07051acd7fe79b2ad2f1b92313cc766.jpg?s=512&d=https%3A%2F%2Fa.slack-edge.com%2Fdf10d%2Fimg%2Favatars%2Fava_0017-512.png", "custom_css": null}, {"id": 4519, "slack_id": "U0924GV2N0H", "display_name": "Pallavi", "bio": null, "projects_count": 0, "devlogs_count": 0, "votes_count": 0, "ships_count": 0, "projects": [], "coding_time_seconds": 0, "coding_time_seconds_today": 0, "balance": "You need to have a pocket watcher badge to view this.", "badges": [], "created_at": "2025-06-16T23:51:48.412-04:00", "updated_at": "2025-07-03T19:31:46.350-04:00", "avatar": "https://secure.gravatar.com/avatar/097677d1961310d9d67c070d5df58fd1.jpg?s=512&d=https%3A%2F%2Fa.slack-edge.com%2Fdf10d%2Fimg%2Favatars%2Fava_0026-512.png", "custom_css": null}, {"id": 4520, "slack_id": "U091JHXL199", "display_name": "Michael Murdock", "bio": null, "projects_count": 0, "devlogs_count": 0, "votes_count": 0, "ships_count": 0, "projects": [], "coding_time_seconds": 0, "coding_time_seconds_today": 0, "balance": "You need to have a pocket watcher badge to view this.", "badges": [], "created_at": "2025-06-16T23:51:48.420-04:00", "updated_at": "2025-07-03T19:31:46.622-04:00", "avatar": "https://secure.gravatar.com/avatar/3b32d411acdff5d5c4b5fe67efa44c50.jpg?s=512&d=https%3A%2F%2Fa.slack-edge.com%2Fdf10d%2Fimg%2Favatars%2Fava_0024-512.png", "custom_css": null}], "pagination": {"page": 226, "pages": 1192, "count": 23828, "items": 20}}