{"users": [{"id": 4521, "slack_id": "U0900L34J00", "display_name": "Faheem", "bio": null, "projects_count": 0, "devlogs_count": 0, "votes_count": 0, "ships_count": 0, "projects": [], "coding_time_seconds": 0, "coding_time_seconds_today": 0, "balance": "You need to have a pocket watcher badge to view this.", "badges": [], "created_at": "2025-06-16T23:51:51.233-04:00", "updated_at": "2025-07-03T19:31:46.880-04:00", "avatar": "https://secure.gravatar.com/avatar/c66c757599d21cc0c03400ea6fc366ae.jpg?s=512&d=https%3A%2F%2Fa.slack-edge.com%2Fdf10d%2Fimg%2Favatars%2Fava_0019-512.png", "custom_css": null}, {"id": 4522, "slack_id": "U04H8CFR90B", "display_name": "xkboo", "bio": null, "projects_count": 5, "devlogs_count": 15, "votes_count": 0, "ships_count": 2, "projects": [{"id": 3279, "title": "Summer Tracker", "devlogs_count": 2, "created_at": "2025-06-23T16:32:02.035-04:00"}, {"id": 5749, "title": "calculator", "devlogs_count": 9, "created_at": "2025-07-07T17:09:18.627-04:00"}, {"id": 6520, "title": "Pacman", "devlogs_count": 0, "created_at": "2025-07-14T01:10:58.267-04:00"}, {"id": 6987, "title": "Palindrome Checker", "devlogs_count": 1, "created_at": "2025-07-18T00:46:37.202-04:00"}, {"id": 5024, "title": "Wedding Page", "devlogs_count": 3, "created_at": "2025-07-02T19:05:00.855-04:00"}], "coding_time_seconds": 122210, "coding_time_seconds_today": 0, "balance": "You need to have a pocket watcher badge to view this.", "badges": [{"name": "Maiden Voyage", "text": "you shipped your first project! the journey begins...", "icon": "\ud83d\udea2"}], "created_at": "2025-06-16T23:51:51.773-04:00", "updated_at": "2025-09-10T22:53:25.192-04:00", "avatar": "https://avatars.slack-edge.com/2023-01-07/4622633738337_e59b3d967c21bd2db328_original.jpg", "custom_css": null}, {"id": 4523, "slack_id": "U091K7KQ1QW", "display_name": "Alex Jay Dalagon", "bio": null, "projects_count": 0, "devlogs_count": 0, "votes_count": 0, "ships_count": 0, "projects": [], "coding_time_seconds": 0, "coding_time_seconds_today": 0, "balance": "You need to have a pocket watcher badge to view this.", "badges": [], "created_at": "2025-06-16T23:51:57.727-04:00", "updated_at": "2025-07-03T19:31:47.403-04:00", "avatar": "https://secure.gravatar.com/avatar/4af2510c3663deda49a07c96d9861945.jpg?s=512&d=https%3A%2F%2Fa.slack-edge.com%2Fdf10d%2Fimg%2Favatars%2Fava_0016-512.png", "custom_css": null}, {"id": 4524, "slack_id": "U091S1LJ1NE", "display_name": "Conor Wang", "bio": null, "projects_count": 0, "devlogs_count": 0, "votes_count": 0, "ships_count": 0, "projects": [], "coding_time_seconds": 0, "coding_time_seconds_today": 0, "balance": "You need to have a pocket watcher badge to view this.", "badges": [], "created_at": "2025-06-16T23:52:16.281-04:00", "updated_at": "2025-07-03T19:31:47.673-04:00", "avatar": "https://avatars.slack-edge.com/2025-06-16/9082438654240_eae5506b991da2464a81_original.png", "custom_css": null}, {"id": 4525, "slack_id": "U091K71S2Q6", "display_name": "Maulik", "bio": null, "projects_count": 0, "devlogs_count": 0, "votes_count": 0, "ships_count": 0, "projects": [], "coding_time_seconds": 0, "coding_time_seconds_today": 0, "balance": "You need to have a pocket watcher badge to view this.", "badges": [], "created_at": "2025-06-16T23:52:22.385-04:00", "updated_at": "2025-07-03T19:31:47.928-04:00", "avatar": "https://secure.gravatar.com/avatar/85a18f6d33f4a01a5f67d8b788f4a9a5.jpg?s=512&d=https%3A%2F%2Fa.slack-edge.com%2Fdf10d%2Fimg%2Favatars%2Fava_0007-512.png", "custom_css": null}, {"id": 4526, "slack_id": "U091S1RAS74", "display_name": "Chika", "bio": null, "projects_count": 0, "devlogs_count": 0, "votes_count": 0, "ships_count": 0, "projects": [], "coding_time_seconds": 0, "coding_time_seconds_today": 0, "balance": "You need to have a pocket watcher badge to view this.", "badges": [], "created_at": "2025-06-16T23:52:53.990-04:00", "updated_at": "2025-07-03T19:31:48.204-04:00", "avatar": "https://secure.gravatar.com/avatar/5d01f8f0c25eec6f6663e23eab4dfd7b.jpg?s=512&d=https%3A%2F%2Fa.slack-edge.com%2Fdf10d%2Fimg%2Favatars%2Fava_0014-512.png", "custom_css": null}, {"id": 4527, "slack_id": "U091Q78BPGV", "display_name": "jimc0", "bio": null, "projects_count": 3, "devlogs_count": 12, "votes_count": 60, "ships_count": 3, "projects": [{"id": 6119, "title": "file-management-utils", "devlogs_count": 2, "created_at": "2025-07-10T16:19:25.808-04:00"}, {"id": 11527, "title": "Markov's Dumb Chatbot", "devlogs_count": 7, "created_at": "2025-08-16T16:13:50.879-04:00"}, {"id": 1189, "title": "file-manager", "devlogs_count": 3, "created_at": "2025-06-17T21:16:03.083-04:00"}], "coding_time_seconds": 325857, "coding_time_seconds_today": 0, "balance": "You need to have a pocket watcher badge to view this.", "badges": [{"name": "Maiden Voyage", "text": "you shipped your first project! the journey begins...", "icon": "\ud83d\udea2"}], "created_at": "2025-06-16T23:52:56.083-04:00", "updated_at": "2025-09-16T21:57:10.932-04:00", "avatar": "https://secure.gravatar.com/avatar/7f9bbd09e425a266f53489142a41c2aa.jpg?s=512&d=https%3A%2F%2Fa.slack-edge.com%2Fdf10d%2Fimg%2Favatars%2Fava_0025-512.png", "custom_css": null}, {"id": 4528, "slack_id": "U091Q73CY5B", "display_name": "Pixei", "bio": null, "projects_count": 0, "devlogs_count": 0, "votes_count": 0, "ships_count": 0, "projects": [], "coding_time_seconds": 0, "coding_time_seconds_today": 0, "balance": "You need to have a pocket watcher badge to view this.", "badges": [], "created_at": "2025-06-16T23:53:10.636-04:00", "updated_at": "2025-07-03T19:31:48.744-04:00", "avatar": "https://secure.gravatar.com/avatar/fbd068fff0452568d3888208ee2d1f13.jpg?s=512&d=https%3A%2F%2Fa.slack-edge.com%2Fdf10d%2Fimg%2Favatars%2Fava_0000-512.png", "custom_css": null}, {"id": 4529, "slack_id": "U0924H78X09", "display_name": "TheWinds", "bio": null, "projects_count": 0, "devlogs_count": 0, "votes_count": 0, "ships_count": 0, "projects": [], "coding_time_seconds": 4940, "coding_time_seconds_today": 0, "balance": "You need to have a pocket watcher badge to view this.", "badges": [], "created_at": "2025-06-16T23:53:45.804-04:00", "updated_at": "2025-07-03T19:31:49.012-04:00", "avatar": "https://secure.gravatar.com/avatar/8d63d6d3ce784ccff0ed2416d66fd84c.jpg?s=512&d=https%3A%2F%2Fa.slack-edge.com%2Fdf10d%2Fimg%2Favatars%2Fava_0015-512.png", "custom_css": null}, {"id": 4530, "slack_id": "U0924H82DU1", "display_name": "Saurabh Gupta", "bio": null, "projects_count": 0, "devlogs_count": 0, "votes_count": 0, "ships_count": 0, "projects": [], "coding_time_seconds": 701, "coding_time_seconds_today": 0, "balance": "You need to have a pocket watcher badge to view this.", "badges": [], "created_at": "2025-06-16T23:53:48.761-04:00", "updated_at": "2025-07-03T19:31:49.268-04:00", "avatar": "https://secure.gravatar.com/avatar/2fb1ea096bc784a72c54604f459bc535.jpg?s=512&d=https%3A%2F%2Fa.slack-edge.com%2Fdf10d%2Fimg%2Favatars%2Fava_0008-512.png", "custom_css": null}, {"id": 4531, "slack_id": "U091K7R8NUW", "display_name": "Gopal Vishwakarma", "bio": null, "projects_count": 0, "devlogs_count": 0, "votes_count": 0, "ships_count": 0, "projects": [], "coding_time_seconds": 9693, "coding_time_seconds_today": 0, "balance": "You need to have a pocket watcher badge to view this.", "badges": [], "created_at": "2025-06-16T23:54:05.122-04:00", "updated_at": "2025-07-03T19:31:49.524-04:00", "avatar": "https://secure.gravatar.com/avatar/158dffe1f1eb8e93dadd3366dc9af729.jpg?s=512&d=https%3A%2F%2Fa.slack-edge.com%2Fdf10d%2Fimg%2Favatars%2Fava_0007-512.png", "custom_css": null}, {"id": 4532, "slack_id": "U091SAQDV44", "display_name": "Huai-Ming Yu", "bio": null, "projects_count": 0, "devlogs_count": 0, "votes_count": 0, "ships_count": 0, "projects": [], "coding_time_seconds": 0, "coding_time_seconds_today": 0, "balance": "You need to have a pocket watcher badge to view this.", "badges": [], "created_at": "2025-06-16T23:54:10.828-04:00", "updated_at": "2025-07-03T19:31:49.804-04:00", "avatar": "https://avatars.slack-edge.com/2025-06-16/9060070621890_3c6b31ca91e358f51b3d_original.png", "custom_css": null}, {"id": 4533, "slack_id": "U07CMBTF5K9", "display_name": "nishtha", "bio": null, "projects_count": 0, "devlogs_count": 0, "votes_count": 0, "ships_count": 0, "projects": [], "coding_time_seconds": 452927, "coding_time_seconds_today": 0, "balance": "You need to have a pocket watcher badge to view this.", "badges": [], "created_at": "2025-06-16T23:55:28.054-04:00", "updated_at": "2025-09-07T20:20:21.135-04:00", "avatar": "https://avatars.slack-edge.com/2025-09-08/9475781492258_b7e11b7fb48829f8e30e_original.png", "custom_css": null}, {"id": 4534, "slack_id": "U091PHB2AG5", "display_name": "World", "bio": null, "projects_count": 3, "devlogs_count": 13, "votes_count": 52, "ships_count": 3, "projects": [{"id": 569, "title": "General Relativity Simulator", "devlogs_count": 6, "created_at": "2025-06-17T01:33:06.182-04:00"}, {"id": 5895, "title": "Stock Forecast", "devlogs_count": 2, "created_at": "2025-07-08T23:38:17.050-04:00"}, {"id": 1845, "title": "KorT", "devlogs_count": 4, "created_at": "2025-06-19T12:05:03.580-04:00"}], "coding_time_seconds": 356484, "coding_time_seconds_today": 611, "balance": "You need to have a pocket watcher badge to view this.", "badges": [{"name": "Maiden Voyage", "text": "you shipped your first project! the journey begins...", "icon": "\ud83d\udea2"}, {"name": "Graphic Design is My Passion", "text": "Oh God How Did This Get Here I Am Not Good With Computer", "icon": "\ud83c\udfa8"}], "created_at": "2025-06-16T23:56:11.664-04:00", "updated_at": "2025-09-10T22:53:25.431-04:00", "avatar": "https://avatars.slack-edge.com/2025-06-19/9097818584608_c7c4c09a5cc6b0753589_original.png", "custom_css": null}, {"id": 4535, "slack_id": "U091Q7M96E9", "display_name": "rahul", "bio": null, "projects_count": 0, "devlogs_count": 0, "votes_count": 0, "ships_count": 0, "projects": [], "coding_time_seconds": 0, "coding_time_seconds_today": 0, "balance": "You need to have a pocket watcher badge to view this.", "badges": [], "created_at": "2025-06-16T23:56:22.563-04:00", "updated_at": "2025-07-03T22:32:25.211-04:00", "avatar": "https://secure.gravatar.com/avatar/ceb80c7bfb4b56aba08ce340f4673a00.jpg?s=512&d=https%3A%2F%2Fa.slack-edge.com%2Fdf10d%2Fimg%2Favatars%2Fava_0014-512.png", "custom_css": null}, {"id": 4536, "slack_id": "U082UA8A3V4", "display_name": "Violetz", "bio": null, "projects_count": 0, "devlogs_count": 0, "votes_count": 0, "ships_count": 0, "projects": [], "coding_time_seconds": 36197, "coding_time_seconds_today": 0, "balance": "You need to have a pocket watcher badge to view this.", "badges": [], "created_at": "2025-06-16T23:56:22.723-04:00", "updated_at": "2025-07-03T19:31:50.743-04:00", "avatar": "https://avatars.slack-edge.com/2024-12-01/8104059801605_e60eadd18b45dbfe6c10_original.png", "custom_css": null}, {"id": 4537, "slack_id": "U091K7V8TGE", "display_name": "Saish Mungase", "bio": null, "projects_count": 0, "devlogs_count": 0, "votes_count": 0, "ships_count": 0, "projects": [], "coding_time_seconds": 253653, "coding_time_seconds_today": 0, "balance": "You need to have a pocket watcher badge to view this.", "badges": [], "created_at": "2025-06-16T23:56:27.915-04:00", "updated_at": "2025-07-03T19:31:51.007-04:00", "avatar": "https://secure.gravatar.com/avatar/801792fbb7aca2a5ec0a01e9660ca504.jpg?s=512&d=https%3A%2F%2Fa.slack-edge.com%2Fdf10d%2Fimg%2Favatars%2Fava_0020-512.png", "custom_css": null}, {"id": 4538, "slack_id": "U07UJD2E07N", "display_name": "MuBa", "bio": null, "projects_count": 3, "devlogs_count": 4, "votes_count": 34, "ships_count": 3, "projects": [{"id": 6784, "title": "Link Banaya", "devlogs_count": 1, "created_at": "2025-07-16T06:35:31.316-04:00"}, {"id": 2088, "title": "Marble Game | Three JS", "devlogs_count": 2, "created_at": "2025-06-20T05:21:22.216-04:00"}, {"id": 6925, "title": "Tic Tac Toe Advanced", "devlogs_count": 1, "created_at": "2025-07-17T12:07:02.706-04:00"}], "coding_time_seconds": 206160, "coding_time_seconds_today": 0, "balance": "You need to have a pocket watcher badge to view this.", "badges": [{"name": "Maiden Voyage", "text": "you shipped your first project! the journey begins...", "icon": "\ud83d\udea2"}], "created_at": "2025-06-16T23:56:35.961-04:00", "updated_at": "2025-09-21T00:20:31.053-04:00", "avatar": "https://avatars.slack-edge.com/2025-09-21/9540064806311_f65592c2a68929332d25_original.png", "custom_css": null}, {"id": 4539, "slack_id": "U091Q7G2K0V", "display_name": "Tahir", "bio": null, "projects_count": 1, "devlogs_count": 1, "votes_count": 0, "ships_count": 0, "projects": [{"id": 522, "title": "Metagon", "devlogs_count": 1, "created_at": "2025-06-17T00:14:46.769-04:00"}], "coding_time_seconds": 3425, "coding_time_seconds_today": 0, "balance": "You need to have a pocket watcher badge to view this.", "badges": [], "created_at": "2025-06-16T23:56:45.464-04:00", "updated_at": "2025-07-03T19:31:51.538-04:00", "avatar": "https://secure.gravatar.com/avatar/8b1f7ff7d7cdadc7e5adae1af36eeb62.jpg?s=512&d=https%3A%2F%2Fa.slack-edge.com%2Fdf10d%2Fimg%2Favatars%2Fava_0008-512.png", "custom_css": null}, {"id": 4540, "slack_id": "U078T671U23", "display_name": "Jiwoo Suh", "bio": null, "projects_count": 0, "devlogs_count": 0, "votes_count": 0, "ships_count": 0, "projects": [], "coding_time_seconds": 542, "coding_time_seconds_today": 0, "balance": "You need to have a pocket watcher badge to view this.", "badges": [], "created_at": "2025-06-16T23:57:19.042-04:00", "updated_at": "2025-07-03T19:31:51.805-04:00", "avatar": "https://avatars.slack-edge.com/2024-06-21/7299231360135_456f00574b6973a41d84_original.jpg", "custom_css": null}], "pagination": {"page": 227, "pages": 1192, "count": 23828, "items": 20}}