{"users": [{"id": 4541, "slack_id": "U0924HFDMK3", "display_name": "agitatedneum", "bio": null, "projects_count": 0, "devlogs_count": 0, "votes_count": 0, "ships_count": 0, "projects": [], "coding_time_seconds": 0, "coding_time_seconds_today": 0, "balance": "You need to have a pocket watcher badge to view this.", "badges": [], "created_at": "2025-06-16T23:57:41.825-04:00", "updated_at": "2025-07-04T02:23:26.641-04:00", "avatar": "https://secure.gravatar.com/avatar/1f1223c62ce63fac034f4ac0b888d317.jpg?s=512&d=https%3A%2F%2Fa.slack-edge.com%2Fdf10d%2Fimg%2Favatars%2Fava_0005-512.png", "custom_css": null}, {"id": 4542, "slack_id": "U092ECY8QQG", "display_name": "Santiago Tamayo", "bio": null, "projects_count": 0, "devlogs_count": 0, "votes_count": 0, "ships_count": 0, "projects": [], "coding_time_seconds": 0, "coding_time_seconds_today": 0, "balance": "You need to have a pocket watcher badge to view this.", "badges": [], "created_at": "2025-06-16T23:58:01.471-04:00", "updated_at": "2025-07-03T19:31:52.286-04:00", "avatar": "https://secure.gravatar.com/avatar/5d800c5cf5ba47686f070c4058e58197.jpg?s=512&d=https%3A%2F%2Fa.slack-edge.com%2Fdf10d%2Fimg%2Favatars%2Fava_0021-512.png", "custom_css": null}, {"id": 4543, "slack_id": "U0924HCSZGR", "display_name": "Surjeet", "bio": null, "projects_count": 0, "devlogs_count": 0, "votes_count": 0, "ships_count": 0, "projects": [], "coding_time_seconds": 0, "coding_time_seconds_today": 0, "balance": "You need to have a pocket watcher badge to view this.", "badges": [], "created_at": "2025-06-16T23:58:09.805-04:00", "updated_at": "2025-07-03T19:31:52.540-04:00", "avatar": "https://secure.gravatar.com/avatar/11db843298e5a4387fffbfd5a251b20a.jpg?s=512&d=https%3A%2F%2Fa.slack-edge.com%2Fdf10d%2Fimg%2Favatars%2Fava_0001-512.png", "custom_css": null}, {"id": 4544, "slack_id": "U074BPUB22K", "display_name": "Pankaj.....S", "bio": null, "projects_count": 1, "devlogs_count": 1, "votes_count": 0, "ships_count": 0, "projects": [{"id": 3149, "title": "Echo- Guard ", "devlogs_count": 1, "created_at": "2025-06-23T08:38:26.106-04:00"}], "coding_time_seconds": 48685, "coding_time_seconds_today": 0, "balance": "You need to have a pocket watcher badge to view this.", "badges": [], "created_at": "2025-06-16T23:58:52.156-04:00", "updated_at": "2025-08-15T14:38:29.168-04:00", "avatar": "https://secure.gravatar.com/avatar/e20561528b3036d0e31afe51f7bbe8a9.jpg?s=512&d=https%3A%2F%2Fa.slack-edge.com%2Fdf10d%2Fimg%2Favatars%2Fava_0004-512.png", "custom_css": null}, {"id": 4545, "slack_id": "U091K513YAF", "display_name": "Bishwas.Py", "bio": null, "projects_count": 0, "devlogs_count": 0, "votes_count": 0, "ships_count": 0, "projects": [], "coding_time_seconds": 0, "coding_time_seconds_today": 0, "balance": "You need to have a pocket watcher badge to view this.", "badges": [], "created_at": "2025-06-16T23:58:52.505-04:00", "updated_at": "2025-07-03T19:31:53.085-04:00", "avatar": "https://secure.gravatar.com/avatar/068c0a34c4f08454a756123603ab95aa.jpg?s=512&d=https%3A%2F%2Fa.slack-edge.com%2Fdf10d%2Fimg%2Favatars%2Fava_0003-512.png", "custom_css": null}, {"id": 4546, "slack_id": "U07AD5A8ZMJ", "display_name": "pingu", "bio": null, "projects_count": 0, "devlogs_count": 0, "votes_count": 0, "ships_count": 0, "projects": [], "coding_time_seconds": 48377, "coding_time_seconds_today": 0, "balance": "You need to have a pocket watcher badge to view this.", "badges": [], "created_at": "2025-06-16T23:59:16.947-04:00", "updated_at": "2025-07-03T19:31:53.344-04:00", "avatar": "https://avatars.slack-edge.com/2025-01-31/8384304820002_6985febee0e9838fb72a_original.jpg", "custom_css": null}, {"id": 4547, "slack_id": "U092EBP59B2", "display_name": "Kip", "bio": null, "projects_count": 6, "devlogs_count": 76, "votes_count": 100, "ships_count": 3, "projects": [{"id": 591, "title": "OPNGuardTower", "devlogs_count": 0, "created_at": "2025-06-17T02:14:01.951-04:00"}, {"id": 596, "title": "Reykunyutsyi\u0300p", "devlogs_count": 0, "created_at": "2025-06-17T02:20:18.281-04:00"}, {"id": 4934, "title": "Construction", "devlogs_count": 0, "created_at": "2025-07-02T09:49:41.475-04:00"}, {"id": 12359, "title": "Raytrack", "devlogs_count": 38, "created_at": "2025-08-26T07:14:55.588-04:00"}, {"id": 2369, "title": "ACEDIA", "devlogs_count": 37, "created_at": "2025-06-20T21:02:35.113-04:00"}, {"id": 5084, "title": "Godot Smart Planar Reflection Plugin", "devlogs_count": 1, "created_at": "2025-07-03T06:44:40.724-04:00"}], "coding_time_seconds": 667519, "coding_time_seconds_today": 0, "balance": "You need to have a pocket watcher badge to view this.", "badges": [{"name": "Maiden Voyage", "text": "you shipped your first project! the journey begins...", "icon": "\ud83d\udea2"}, {"name": "Yapper I", "text": "Posted 10 comments on devlogs.", "icon": "\ud83d\udcac"}, {"name": "Ballot Stuffer", "text": "vote 100 times.", "icon": "https://summer.hackclub.com/assets/i_voted-bf851b48.png"}], "created_at": "2025-06-16T23:59:34.342-04:00", "updated_at": "2025-09-23T10:05:04.802-04:00", "avatar": "https://avatars.slack-edge.com/2025-06-22/9086132293188_37946afc73986dd0a30d_original.png", "custom_css": null}, {"id": 4548, "slack_id": "U091K8BLQKG", "display_name": "Muhammad Saad Afridi", "bio": null, "projects_count": 0, "devlogs_count": 0, "votes_count": 0, "ships_count": 0, "projects": [], "coding_time_seconds": 0, "coding_time_seconds_today": 0, "balance": "You need to have a pocket watcher badge to view this.", "badges": [], "created_at": "2025-06-16T23:59:55.352-04:00", "updated_at": "2025-07-03T19:31:53.882-04:00", "avatar": "https://secure.gravatar.com/avatar/719815140ba0424c8f09405d94d98e37.jpg?s=512&d=https%3A%2F%2Fa.slack-edge.com%2Fdf10d%2Fimg%2Favatars%2Fava_0016-512.png", "custom_css": null}, {"id": 4549, "slack_id": "U07958J0JJU", "display_name": "Your local wobbler, Suya", "bio": null, "projects_count": 3, "devlogs_count": 14, "votes_count": 20, "ships_count": 2, "projects": [{"id": 1386, "title": "Plura", "devlogs_count": 7, "created_at": "2025-06-18T13:04:26.547-04:00"}, {"id": 3460, "title": "Personal Website", "devlogs_count": 5, "created_at": "2025-06-24T11:07:26.646-04:00"}, {"id": 7262, "title": "Sonata", "devlogs_count": 0, "created_at": "2025-07-20T14:06:46.600-04:00"}], "coding_time_seconds": 256240, "coding_time_seconds_today": 0, "balance": "You need to have a pocket watcher badge to view this.", "badges": [{"name": "Maiden Voyage", "text": "you shipped your first project! the journey begins...", "icon": "\ud83d\udea2"}], "created_at": "2025-06-17T00:00:05.138-04:00", "updated_at": "2025-09-10T22:53:25.805-04:00", "avatar": "https://avatars.slack-edge.com/2025-04-02/8693741076754_e532a202c139a6c35c09_original.png", "custom_css": null}, {"id": 4550, "slack_id": "U092ED192RW", "display_name": "Topher Fontana", "bio": null, "projects_count": 4, "devlogs_count": 8, "votes_count": 18, "ships_count": 1, "projects": [{"id": 1102, "title": "Physics Simulator", "devlogs_count": 1, "created_at": "2025-06-17T16:14:19.032-04:00"}, {"id": 3033, "title": "First Tech Challenge Discord Bot", "devlogs_count": 1, "created_at": "2025-06-22T21:31:04.915-04:00"}, {"id": 1979, "title": "Iron - A Custom Programming Language ", "devlogs_count": 6, "created_at": "2025-06-19T19:54:47.202-04:00"}, {"id": 8025, "title": "Personal Website", "devlogs_count": 0, "created_at": "2025-07-24T05:36:16.174-04:00"}], "coding_time_seconds": 325399, "coding_time_seconds_today": 0, "balance": "You need to have a pocket watcher badge to view this.", "badges": [{"name": "Maiden Voyage", "text": "you shipped your first project! the journey begins...", "icon": "\ud83d\udea2"}], "created_at": "2025-06-17T00:00:27.139-04:00", "updated_at": "2025-09-10T22:53:25.838-04:00", "avatar": "https://avatars.slack-edge.com/2025-06-16/9058282463045_8f6d01094f58f97e1034_original.png", "custom_css": null}, {"id": 4551, "slack_id": "U08RM2BCLBU", "display_name": "Julian", "bio": null, "projects_count": 1, "devlogs_count": 0, "votes_count": 0, "ships_count": 0, "projects": [{"id": 528, "title": "Zuma", "devlogs_count": 0, "created_at": "2025-06-17T00:25:03.866-04:00"}], "coding_time_seconds": 156962, "coding_time_seconds_today": 3979, "balance": "You need to have a pocket watcher badge to view this.", "badges": [], "created_at": "2025-06-17T00:00:35.804-04:00", "updated_at": "2025-07-03T19:31:54.663-04:00", "avatar": "https://avatars.slack-edge.com/2025-06-04/9007650204049_165b4452f61056bd7cc7_original.jpg", "custom_css": null}, {"id": 4552, "slack_id": "U092ED98RSL", "display_name": "Siyal Dhande", "bio": null, "projects_count": 0, "devlogs_count": 0, "votes_count": 0, "ships_count": 0, "projects": [], "coding_time_seconds": 0, "coding_time_seconds_today": 0, "balance": "You need to have a pocket watcher badge to view this.", "badges": [], "created_at": "2025-06-17T00:01:22.387-04:00", "updated_at": "2025-07-03T19:31:54.938-04:00", "avatar": "https://avatars.slack-edge.com/2025-06-16/9053301529558_be1dd19e5a42158508d8_original.png", "custom_css": null}, {"id": 4553, "slack_id": "U0924HP4W1X", "display_name": "Prince Patel", "bio": null, "projects_count": 1, "devlogs_count": 0, "votes_count": 0, "ships_count": 0, "projects": [{"id": 543, "title": "Pyman", "devlogs_count": 0, "created_at": "2025-06-17T00:48:32.329-04:00"}], "coding_time_seconds": 3793, "coding_time_seconds_today": 0, "balance": "You need to have a pocket watcher badge to view this.", "badges": [], "created_at": "2025-06-17T00:01:38.050-04:00", "updated_at": "2025-07-03T19:31:55.235-04:00", "avatar": "https://secure.gravatar.com/avatar/c92dece9d3e1bfca3af69280d09f393e.jpg?s=512&d=https%3A%2F%2Fa.slack-edge.com%2Fdf10d%2Fimg%2Favatars%2Fava_0015-512.png", "custom_css": null}, {"id": 4554, "slack_id": "U091Q857ADT", "display_name": "Bui Hoang Huy", "bio": null, "projects_count": 1, "devlogs_count": 0, "votes_count": 0, "ships_count": 0, "projects": [{"id": 545, "title": "Music Player", "devlogs_count": 0, "created_at": "2025-06-17T00:49:06.975-04:00"}], "coding_time_seconds": 1885, "coding_time_seconds_today": 0, "balance": "You need to have a pocket watcher badge to view this.", "badges": [], "created_at": "2025-06-17T00:01:45.643-04:00", "updated_at": "2025-07-03T19:31:55.510-04:00", "avatar": "https://secure.gravatar.com/avatar/5062d838ba998149d7b2c8b5a79209c5.jpg?s=512&d=https%3A%2F%2Fa.slack-edge.com%2Fdf10d%2Fimg%2Favatars%2Fava_0015-512.png", "custom_css": null}, {"id": 4555, "slack_id": "U08U0LRKF5J", "display_name": "somewhat", "bio": null, "projects_count": 0, "devlogs_count": 0, "votes_count": 0, "ships_count": 0, "projects": [], "coding_time_seconds": 230145, "coding_time_seconds_today": 0, "balance": "You need to have a pocket watcher badge to view this.", "badges": [], "created_at": "2025-06-17T00:02:39.720-04:00", "updated_at": "2025-09-19T00:20:36.921-04:00", "avatar": "https://secure.gravatar.com/avatar/359c3cf90c08f80f8a98d4d55bb2913f.jpg?s=512&d=https%3A%2F%2Fa.slack-edge.com%2Fdf10d%2Fimg%2Favatars%2Fava_0012-512.png", "custom_css": null}, {"id": 4556, "slack_id": "U08SMAD3WAK", "display_name": "Kritarth", "bio": null, "projects_count": 0, "devlogs_count": 0, "votes_count": 0, "ships_count": 0, "projects": [], "coding_time_seconds": 16986, "coding_time_seconds_today": 0, "balance": "You need to have a pocket watcher badge to view this.", "badges": [], "created_at": "2025-06-17T00:03:14.754-04:00", "updated_at": "2025-07-03T19:31:56.093-04:00", "avatar": "https://secure.gravatar.com/avatar/1af288a9db13da9b22fefc0b88058b0c.jpg?s=512&d=https%3A%2F%2Fa.slack-edge.com%2Fdf10d%2Fimg%2Favatars%2Fava_0005-512.png", "custom_css": null}, {"id": 4557, "slack_id": "U091SBNFRT6", "display_name": "Srihari", "bio": null, "projects_count": 0, "devlogs_count": 0, "votes_count": 0, "ships_count": 0, "projects": [], "coding_time_seconds": 16449, "coding_time_seconds_today": 0, "balance": "You need to have a pocket watcher badge to view this.", "badges": [], "created_at": "2025-06-17T00:03:43.600-04:00", "updated_at": "2025-07-03T19:31:56.365-04:00", "avatar": "https://secure.gravatar.com/avatar/763f02581e6ff492be9c83fa988133ca.jpg?s=512&d=https%3A%2F%2Fa.slack-edge.com%2Fdf10d%2Fimg%2Favatars%2Fava_0001-512.png", "custom_css": null}, {"id": 4558, "slack_id": "U0924J509NV", "display_name": "Abhigyaan Bhardwaj", "bio": null, "projects_count": 0, "devlogs_count": 0, "votes_count": 0, "ships_count": 0, "projects": [], "coding_time_seconds": 0, "coding_time_seconds_today": 0, "balance": "You need to have a pocket watcher badge to view this.", "badges": [], "created_at": "2025-06-17T00:03:53.256-04:00", "updated_at": "2025-07-03T19:31:56.629-04:00", "avatar": "https://secure.gravatar.com/avatar/1d5a0e409a21f1397aa944d976504d49.jpg?s=512&d=https%3A%2F%2Fa.slack-edge.com%2Fdf10d%2Fimg%2Favatars%2Fava_0003-512.png", "custom_css": null}, {"id": 4559, "slack_id": "U0804SUGQRG", "display_name": "Kush", "bio": null, "projects_count": 0, "devlogs_count": 23, "votes_count": 156, "ships_count": 0, "projects": [], "coding_time_seconds": 306030, "coding_time_seconds_today": 0, "balance": "You need to have a pocket watcher badge to view this.", "badges": [{"name": "Maiden Voyage", "text": "you shipped your first project! the journey begins...", "icon": "\ud83d\udea2"}, {"name": "Ballot Stuffer", "text": "vote 100 times.", "icon": "https://summer.hackclub.com/assets/i_voted-bf851b48.png"}], "created_at": "2025-06-17T00:04:21.107-04:00", "updated_at": "2025-09-10T22:53:26.147-04:00", "avatar": "https://secure.gravatar.com/avatar/994fd4b03831af8bfe1bfefd9762a171.jpg?s=512&d=https%3A%2F%2Fa.slack-edge.com%2Fdf10d%2Fimg%2Favatars%2Fava_0003-512.png", "custom_css": null}, {"id": 4560, "slack_id": "U091S2MTTGS", "display_name": "Cortezano", "bio": null, "projects_count": 0, "devlogs_count": 0, "votes_count": 0, "ships_count": 0, "projects": [], "coding_time_seconds": 0, "coding_time_seconds_today": 0, "balance": "You need to have a pocket watcher badge to view this.", "badges": [], "created_at": "2025-06-17T00:04:30.090-04:00", "updated_at": "2025-07-03T19:31:57.175-04:00", "avatar": "https://secure.gravatar.com/avatar/10685a6fb264f24598057b69f25d405d.jpg?s=512&d=https%3A%2F%2Fa.slack-edge.com%2Fdf10d%2Fimg%2Favatars%2Fava_0003-512.png", "custom_css": null}], "pagination": {"page": 228, "pages": 1192, "count": 23828, "items": 20}}