{"users": [{"id": 4561, "slack_id": "U091ALJNLCX", "display_name": "Srinivas Kommirisetty", "bio": null, "projects_count": 6, "devlogs_count": 2, "votes_count": 0, "ships_count": 0, "projects": [{"id": 570, "title": "Web3 Block Chain App", "devlogs_count": 2, "created_at": "2025-06-17T01:34:49.683-04:00"}, {"id": 3848, "title": "Innodose", "devlogs_count": 0, "created_at": "2025-06-26T02:10:02.606-04:00"}, {"id": 3849, "title": "pdf to excel", "devlogs_count": 0, "created_at": "2025-06-26T02:10:40.595-04:00"}, {"id": 3850, "title": "chatgpt customizer", "devlogs_count": 0, "created_at": "2025-06-26T02:11:27.688-04:00"}, {"id": 3868, "title": "auto cursor mover", "devlogs_count": 0, "created_at": "2025-06-26T04:18:43.356-04:00"}, {"id": 3869, "title": "gateway", "devlogs_count": 0, "created_at": "2025-06-26T04:19:20.537-04:00"}], "coding_time_seconds": 111622, "coding_time_seconds_today": 0, "balance": "You need to have a pocket watcher badge to view this.", "badges": [], "created_at": "2025-06-17T00:04:45.833-04:00", "updated_at": "2025-07-03T19:31:57.437-04:00", "avatar": "https://secure.gravatar.com/avatar/5fee57de10d17135fb97220051056dc7.jpg?s=512&d=https%3A%2F%2Fa.slack-edge.com%2Fdf10d%2Fimg%2Favatars%2Fava_0019-512.png", "custom_css": null}, {"id": 4562, "slack_id": "U08SG0Z9RST", "display_name": "Leon", "bio": null, "projects_count": 0, "devlogs_count": 0, "votes_count": 0, "ships_count": 0, "projects": [], "coding_time_seconds": 7740, "coding_time_seconds_today": 0, "balance": "You need to have a pocket watcher badge to view this.", "badges": [], "created_at": "2025-06-17T00:05:03.603-04:00", "updated_at": "2025-07-03T19:31:57.698-04:00", "avatar": "https://secure.gravatar.com/avatar/1648f0934cb2a688fad15e6c6242658b.jpg?s=512&d=https%3A%2F%2Fa.slack-edge.com%2Fdf10d%2Fimg%2Favatars%2Fava_0000-512.png", "custom_css": null}, {"id": 4563, "slack_id": "U091K5HCFGB", "display_name": "Gokul", "bio": null, "projects_count": 0, "devlogs_count": 0, "votes_count": 0, "ships_count": 0, "projects": [], "coding_time_seconds": 8675, "coding_time_seconds_today": 0, "balance": "You need to have a pocket watcher badge to view this.", "badges": [], "created_at": "2025-06-17T00:05:14.845-04:00", "updated_at": "2025-08-18T21:27:21.825-04:00", "avatar": "https://secure.gravatar.com/avatar/a9aae67484e267952380e9cfc7e7eaba.jpg?s=512&d=https%3A%2F%2Fa.slack-edge.com%2Fdf10d%2Fimg%2Favatars%2Fava_0006-512.png", "custom_css": null}, {"id": 4564, "slack_id": "U091Q8JA2FP", "display_name": "harsh", "bio": null, "projects_count": 0, "devlogs_count": 0, "votes_count": 0, "ships_count": 0, "projects": [], "coding_time_seconds": 0, "coding_time_seconds_today": 0, "balance": "You need to have a pocket watcher badge to view this.", "badges": [], "created_at": "2025-06-17T00:05:20.226-04:00", "updated_at": "2025-07-03T19:31:58.222-04:00", "avatar": "https://secure.gravatar.com/avatar/0fbb844ed73f16ea4c484459d8fc03dd.jpg?s=512&d=https%3A%2F%2Fa.slack-edge.com%2Fdf10d%2Fimg%2Favatars%2Fava_0011-512.png", "custom_css": null}, {"id": 4565, "slack_id": "U08QKM9R9SS", "display_name": "stefan istratie", "bio": null, "projects_count": 0, "devlogs_count": 0, "votes_count": 0, "ships_count": 0, "projects": [], "coding_time_seconds": 71658, "coding_time_seconds_today": 0, "balance": "You need to have a pocket watcher badge to view this.", "badges": [], "created_at": "2025-06-17T00:05:31.754-04:00", "updated_at": "2025-07-03T19:31:58.479-04:00", "avatar": "https://avatars.slack-edge.com/2025-06-14/9073439377936_a4f976cac2de5728e8ed_original.jpg", "custom_css": null}, {"id": 4566, "slack_id": "U091Q8DNWG5", "display_name": "moditha", "bio": null, "projects_count": 0, "devlogs_count": 0, "votes_count": 0, "ships_count": 0, "projects": [], "coding_time_seconds": 0, "coding_time_seconds_today": 0, "balance": "You need to have a pocket watcher badge to view this.", "badges": [], "created_at": "2025-06-17T00:05:56.993-04:00", "updated_at": "2025-07-03T19:31:58.748-04:00", "avatar": "https://secure.gravatar.com/avatar/6aba94f5bee5f08805bb5e7edb781c3b.jpg?s=512&d=https%3A%2F%2Fa.slack-edge.com%2Fdf10d%2Fimg%2Favatars%2Fava_0004-512.png", "custom_css": null}, {"id": 4567, "slack_id": "U04EAKTRM4H", "display_name": "Jily Terrence", "bio": null, "projects_count": 0, "devlogs_count": 0, "votes_count": 0, "ships_count": 0, "projects": [], "coding_time_seconds": 0, "coding_time_seconds_today": 0, "balance": "You need to have a pocket watcher badge to view this.", "badges": [], "created_at": "2025-06-17T00:06:01.322-04:00", "updated_at": "2025-07-03T19:31:59.011-04:00", "avatar": "https://avatars.slack-edge.com/2022-12-06/4474118476786_955904cdfa27bab6612e_original.jpg", "custom_css": null}, {"id": 4568, "slack_id": "U091ALM25U7", "display_name": "Sourav Rajak", "bio": null, "projects_count": 7, "devlogs_count": 7, "votes_count": 0, "ships_count": 1, "projects": [{"id": 1215, "title": "AI-Web3-and-Auth", "devlogs_count": 1, "created_at": "2025-06-17T23:28:50.661-04:00"}, {"id": 1257, "title": "Advanced-Defense-Sensor-Platform", "devlogs_count": 1, "created_at": "2025-06-18T02:34:18.246-04:00"}, {"id": 1354, "title": "Lifehacker-AI-Assistant", "devlogs_count": 1, "created_at": "2025-06-18T11:16:19.666-04:00"}, {"id": 3145, "title": "Mystic Quest", "devlogs_count": 1, "created_at": "2025-06-23T08:28:57.035-04:00"}, {"id": 4050, "title": "EcoSentinel", "devlogs_count": 1, "created_at": "2025-06-27T04:27:03.465-04:00"}, {"id": 1331, "title": "SG", "devlogs_count": 1, "created_at": "2025-06-18T09:17:00.738-04:00"}, {"id": 2620, "title": "ai-code-analysis-app", "devlogs_count": 1, "created_at": "2025-06-21T13:24:09.457-04:00"}], "coding_time_seconds": 139675, "coding_time_seconds_today": 0, "balance": "You need to have a pocket watcher badge to view this.", "badges": [{"name": "Maiden Voyage", "text": "you shipped your first project! the journey begins...", "icon": "\ud83d\udea2"}], "created_at": "2025-06-17T00:06:29.129-04:00", "updated_at": "2025-09-10T22:53:26.465-04:00", "avatar": "https://avatars.slack-edge.com/2025-06-16/9060109732450_d10ce2ecabdba9609d05_original.jpg", "custom_css": null}, {"id": 4569, "slack_id": "U091Q8H9WJZ", "display_name": "Nachiket Pensalwar", "bio": null, "projects_count": 0, "devlogs_count": 0, "votes_count": 0, "ships_count": 0, "projects": [], "coding_time_seconds": 0, "coding_time_seconds_today": 0, "balance": "You need to have a pocket watcher badge to view this.", "badges": [], "created_at": "2025-06-17T00:06:40.381-04:00", "updated_at": "2025-07-03T19:31:59.541-04:00", "avatar": "https://avatars.slack-edge.com/2025-06-16/9072637249345_db2b6a19914634fb30f2_original.jpg", "custom_css": null}, {"id": 4570, "slack_id": "U091K8W5X8E", "display_name": "kunal sonawane", "bio": null, "projects_count": 0, "devlogs_count": 0, "votes_count": 0, "ships_count": 0, "projects": [], "coding_time_seconds": 0, "coding_time_seconds_today": 0, "balance": "You need to have a pocket watcher badge to view this.", "badges": [], "created_at": "2025-06-17T00:06:40.855-04:00", "updated_at": "2025-07-03T19:31:59.811-04:00", "avatar": "https://secure.gravatar.com/avatar/83cca484e4fcbf8b53a1268beb5cd6aa.jpg?s=512&d=https%3A%2F%2Fa.slack-edge.com%2Fdf10d%2Fimg%2Favatars%2Fava_0001-512.png", "custom_css": null}, {"id": 4571, "slack_id": "U091ALSA939", "display_name": "kaunghtetsan", "bio": null, "projects_count": 0, "devlogs_count": 0, "votes_count": 0, "ships_count": 0, "projects": [], "coding_time_seconds": 0, "coding_time_seconds_today": 0, "balance": "You need to have a pocket watcher badge to view this.", "badges": [], "created_at": "2025-06-17T00:07:05.878-04:00", "updated_at": "2025-07-03T19:32:00.079-04:00", "avatar": "https://secure.gravatar.com/avatar/c9b103804ecc70b07cec3238d49ac88e.jpg?s=512&d=https%3A%2F%2Fa.slack-edge.com%2Fdf10d%2Fimg%2Favatars%2Fava_0001-512.png", "custom_css": null}, {"id": 4572, "slack_id": "U091K5U351R", "display_name": "Naman Tiwari", "bio": null, "projects_count": 0, "devlogs_count": 0, "votes_count": 0, "ships_count": 0, "projects": [], "coding_time_seconds": 0, "coding_time_seconds_today": 0, "balance": "You need to have a pocket watcher badge to view this.", "badges": [], "created_at": "2025-06-17T00:07:33.013-04:00", "updated_at": "2025-07-03T19:32:00.372-04:00", "avatar": "https://avatars.slack-edge.com/2025-06-17/9072645836161_c01b61f18b1d83de2930_original.png", "custom_css": null}, {"id": 4573, "slack_id": "U091S23TEDQ", "display_name": "Manish", "bio": null, "projects_count": 0, "devlogs_count": 0, "votes_count": 0, "ships_count": 0, "projects": [], "coding_time_seconds": 0, "coding_time_seconds_today": 0, "balance": "You need to have a pocket watcher badge to view this.", "badges": [], "created_at": "2025-06-17T00:09:02.955-04:00", "updated_at": "2025-07-03T19:32:00.640-04:00", "avatar": "https://secure.gravatar.com/avatar/c23f2d79fb308f98684830155dc4fa2e.jpg?s=512&d=https%3A%2F%2Fa.slack-edge.com%2Fdf10d%2Fimg%2Favatars%2Fava_0021-512.png", "custom_css": null}, {"id": 4574, "slack_id": "U0918DLAA6T", "display_name": "Average person", "bio": null, "projects_count": 0, "devlogs_count": 0, "votes_count": 0, "ships_count": 0, "projects": [], "coding_time_seconds": 0, "coding_time_seconds_today": 0, "balance": "You need to have a pocket watcher badge to view this.", "badges": [], "created_at": "2025-06-17T00:09:06.440-04:00", "updated_at": "2025-07-03T19:32:00.915-04:00", "avatar": "https://secure.gravatar.com/avatar/559a5af1510bf50cbad6c5080b02bdae.jpg?s=512&d=https%3A%2F%2Fa.slack-edge.com%2Fdf10d%2Fimg%2Favatars%2Fava_0014-512.png", "custom_css": null}, {"id": 4575, "slack_id": "U091S2NV882", "display_name": "Madhan M", "bio": null, "projects_count": 1, "devlogs_count": 0, "votes_count": 0, "ships_count": 0, "projects": [{"id": 526, "title": "JET - Intracity Transportation", "devlogs_count": 0, "created_at": "2025-06-17T00:20:14.143-04:00"}], "coding_time_seconds": 152308, "coding_time_seconds_today": 0, "balance": "You need to have a pocket watcher badge to view this.", "badges": [], "created_at": "2025-06-17T00:09:10.503-04:00", "updated_at": "2025-07-03T19:32:01.185-04:00", "avatar": "https://secure.gravatar.com/avatar/243f45567ca8f22e0d33493a091afdf4.jpg?s=512&d=https%3A%2F%2Fa.slack-edge.com%2Fdf10d%2Fimg%2Favatars%2Fava_0026-512.png", "custom_css": null}, {"id": 4576, "slack_id": "U091Q8MLKSR", "display_name": "Toluwa", "bio": null, "projects_count": 0, "devlogs_count": 0, "votes_count": 0, "ships_count": 0, "projects": [], "coding_time_seconds": 0, "coding_time_seconds_today": 0, "balance": "You need to have a pocket watcher badge to view this.", "badges": [], "created_at": "2025-06-17T00:09:47.548-04:00", "updated_at": "2025-07-03T19:32:01.476-04:00", "avatar": "https://secure.gravatar.com/avatar/28a3b8b9c0668e88f33618a3db42bf9c.jpg?s=512&d=https%3A%2F%2Fa.slack-edge.com%2Fdf10d%2Fimg%2Favatars%2Fava_0015-512.png", "custom_css": null}, {"id": 4577, "slack_id": "U091Q86EDA9", "display_name": "Raju Bepary", "bio": null, "projects_count": 0, "devlogs_count": 0, "votes_count": 0, "ships_count": 0, "projects": [], "coding_time_seconds": 0, "coding_time_seconds_today": 0, "balance": "You need to have a pocket watcher badge to view this.", "badges": [], "created_at": "2025-06-17T00:09:52.028-04:00", "updated_at": "2025-07-03T19:32:01.735-04:00", "avatar": "https://secure.gravatar.com/avatar/2f15b41eadae763fbaa320365f9339b4.jpg?s=512&d=https%3A%2F%2Fa.slack-edge.com%2Fdf10d%2Fimg%2Favatars%2Fava_0001-512.png", "custom_css": null}, {"id": 4578, "slack_id": "U091S2ZNWQJ", "display_name": "Nevil Savaliya", "bio": null, "projects_count": 0, "devlogs_count": 0, "votes_count": 0, "ships_count": 0, "projects": [], "coding_time_seconds": 58831, "coding_time_seconds_today": 0, "balance": "You need to have a pocket watcher badge to view this.", "badges": [], "created_at": "2025-06-17T00:09:52.251-04:00", "updated_at": "2025-07-03T19:32:02.004-04:00", "avatar": "https://avatars.slack-edge.com/2025-06-16/9060427388916_fb02849bac1c0be64515_original.png", "custom_css": null}, {"id": 4579, "slack_id": "U091SBTT404", "display_name": "Amrit Bhandari", "bio": null, "projects_count": 4, "devlogs_count": 14, "votes_count": 65, "ships_count": 3, "projects": [{"id": 4478, "title": "Whatsapp ", "devlogs_count": 2, "created_at": "2025-06-30T07:13:17.748-04:00"}, {"id": 7114, "title": "NutriGuide \u2013 Food & Nutrition App", "devlogs_count": 4, "created_at": "2025-07-19T06:06:52.490-04:00"}, {"id": 1368, "title": "Smart Calculator Hub", "devlogs_count": 7, "created_at": "2025-06-18T12:22:04.444-04:00"}, {"id": 10325, "title": "Tic Tac Toe Game", "devlogs_count": 1, "created_at": "2025-08-05T22:55:56.399-04:00"}], "coding_time_seconds": 421719, "coding_time_seconds_today": 0, "balance": "You need to have a pocket watcher badge to view this.", "badges": [{"name": "Maiden Voyage", "text": "you shipped your first project! the journey begins...", "icon": "\ud83d\udea2"}, {"name": "Ballot Stuffer", "text": "vote 100 times.", "icon": "https://summer.hackclub.com/assets/i_voted-bf851b48.png"}], "created_at": "2025-06-17T00:10:15.787-04:00", "updated_at": "2025-09-10T22:53:26.738-04:00", "avatar": "https://avatars.slack-edge.com/2025-06-16/9060428322516_fbc076386a0fec10b68c_original.png", "custom_css": null}, {"id": 4580, "slack_id": "U092DQGBSSU", "display_name": "Sheng Xin", "bio": null, "projects_count": 0, "devlogs_count": 0, "votes_count": 0, "ships_count": 0, "projects": [], "coding_time_seconds": 0, "coding_time_seconds_today": 0, "balance": "You need to have a pocket watcher badge to view this.", "badges": [], "created_at": "2025-06-17T00:10:28.161-04:00", "updated_at": "2025-07-03T19:32:02.548-04:00", "avatar": "https://secure.gravatar.com/avatar/b19d1e861bf123329c79e535713f8827.jpg?s=512&d=https%3A%2F%2Fa.slack-edge.com%2Fdf10d%2Fimg%2Favatars%2Fava_0016-512.png", "custom_css": null}], "pagination": {"page": 229, "pages": 1192, "count": 23828, "items": 20}}