{"users": [{"id": 441, "slack_id": "U0921GMQT6D", "display_name": "fedora", "bio": null, "projects_count": 1, "devlogs_count": 3, "votes_count": 15, "ships_count": 1, "projects": [{"id": 110, "title": "Alef (social media site)", "devlogs_count": 3, "created_at": "2025-06-16T13:52:59.355-04:00"}], "coding_time_seconds": 132812, "coding_time_seconds_today": 0, "balance": "You need to have a pocket watcher badge to view this.", "badges": [{"name": "Maiden Voyage", "text": "you shipped your first project! the journey begins...", "icon": "\ud83d\udea2"}], "created_at": "2025-06-16T11:38:00.434-04:00", "updated_at": "2025-09-10T22:51:20.787-04:00", "avatar": "https://secure.gravatar.com/avatar/6fef04251102f1af0efb7652b5fd51c6.jpg?s=512&d=https%3A%2F%2Fa.slack-edge.com%2Fdf10d%2Fimg%2Favatars%2Fava_0007-512.png", "custom_css": null}, {"id": 442, "slack_id": "U0921D8PS3B", "display_name": "Abhiyanshu priyadrshi", "bio": null, "projects_count": 1, "devlogs_count": 2, "votes_count": 2, "ships_count": 0, "projects": [{"id": 1718, "title": "DeviantX-AI bot", "devlogs_count": 2, "created_at": "2025-06-19T04:49:49.874-04:00"}], "coding_time_seconds": 25828, "coding_time_seconds_today": 0, "balance": "You need to have a pocket watcher badge to view this.", "badges": [], "created_at": "2025-06-16T11:38:19.638-04:00", "updated_at": "2025-07-03T19:13:00.643-04:00", "avatar": "https://avatars.slack-edge.com/2025-06-16/9079492072208_fdfba4dc829f07aa1602_original.jpg", "custom_css": null}, {"id": 443, "slack_id": "U0917L92HPH", "display_name": "Bub Blob", "bio": null, "projects_count": 0, "devlogs_count": 0, "votes_count": 0, "ships_count": 0, "projects": [], "coding_time_seconds": 0, "coding_time_seconds_today": 0, "balance": "You need to have a pocket watcher badge to view this.", "badges": [], "created_at": "2025-06-16T11:38:34.187-04:00", "updated_at": "2025-07-03T19:13:00.912-04:00", "avatar": "https://avatars.slack-edge.com/2025-06-16/9050036708867_f8ef759149800e0453d0_original.png", "custom_css": null}, {"id": 444, "slack_id": "U091M66U6GM", "display_name": "Sam's Show", "bio": null, "projects_count": 0, "devlogs_count": 0, "votes_count": 0, "ships_count": 0, "projects": [], "coding_time_seconds": 40216, "coding_time_seconds_today": 0, "balance": "You need to have a pocket watcher badge to view this.", "badges": [], "created_at": "2025-06-16T11:39:04.736-04:00", "updated_at": "2025-07-03T19:13:01.174-04:00", "avatar": "https://avatars.slack-edge.com/2025-06-16/9050132112323_f9a0773aa0b047def2ba_original.png", "custom_css": null}, {"id": 445, "slack_id": "U0823QYDVH8", "display_name": "Staudy", "bio": null, "projects_count": 2, "devlogs_count": 2, "votes_count": 1, "ships_count": 0, "projects": [{"id": 3200, "title": "Simple Calculator", "devlogs_count": 1, "created_at": "2025-06-23T12:30:49.980-04:00"}, {"id": 5351, "title": "Digital Thermometer", "devlogs_count": 1, "created_at": "2025-07-04T16:52:27.353-04:00"}], "coding_time_seconds": 81822, "coding_time_seconds_today": 0, "balance": "You need to have a pocket watcher badge to view this.", "badges": [], "created_at": "2025-06-16T11:47:01.967-04:00", "updated_at": "2025-08-06T12:19:41.570-04:00", "avatar": "https://secure.gravatar.com/avatar/be6b4b3553bf8c0c657127b7567457a3.jpg?s=512&d=https%3A%2F%2Fa.slack-edge.com%2Fdf10d%2Fimg%2Favatars%2Fava_0004-512.png", "custom_css": null}, {"id": 446, "slack_id": "U091G56GLQN", "display_name": "Abdullah", "bio": null, "projects_count": 0, "devlogs_count": 0, "votes_count": 0, "ships_count": 0, "projects": [], "coding_time_seconds": 0, "coding_time_seconds_today": 0, "balance": "You need to have a pocket watcher badge to view this.", "badges": [], "created_at": "2025-06-16T11:47:04.519-04:00", "updated_at": "2025-07-03T19:13:01.699-04:00", "avatar": "https://secure.gravatar.com/avatar/c0f13c5dd140a921cacdb14bf090ad77.jpg?s=512&d=https%3A%2F%2Fa.slack-edge.com%2Fdf10d%2Fimg%2Favatars%2Fava_0025-512.png", "custom_css": null}, {"id": 447, "slack_id": "U07NWEG5PQV", "display_name": "Arun George Saji", "bio": null, "projects_count": 10, "devlogs_count": 44, "votes_count": 24, "ships_count": 3, "projects": [{"id": 510, "title": "Hacret", "devlogs_count": 3, "created_at": "2025-06-16T23:54:31.527-04:00"}, {"id": 783, "title": "PurelyAuth", "devlogs_count": 2, "created_at": "2025-06-17T08:11:02.351-04:00"}, {"id": 1282, "title": "Hackatime-Doctor", "devlogs_count": 4, "created_at": "2025-06-18T05:14:04.463-04:00"}, {"id": 2053, "title": "Power UserScript", "devlogs_count": 1, "created_at": "2025-06-20T02:16:38.462-04:00"}, {"id": 4732, "title": "mz-stk-compiler", "devlogs_count": 6, "created_at": "2025-07-01T09:24:06.037-04:00"}, {"id": 12024, "title": "Navan", "devlogs_count": 1, "created_at": "2025-08-22T08:49:21.151-04:00"}, {"id": 7494, "title": "NeoBrowse", "devlogs_count": 22, "created_at": "2025-07-22T00:41:07.068-04:00"}, {"id": 13742, "title": "Emacs-Hackatime", "devlogs_count": 2, "created_at": "2025-09-24T11:53:39.234-04:00"}, {"id": 4486, "title": "Server Smith", "devlogs_count": 0, "created_at": "2025-06-30T09:28:02.275-04:00"}, {"id": 5719, "title": "Pi Day Website", "devlogs_count": 3, "created_at": "2025-07-07T12:55:01.466-04:00"}], "coding_time_seconds": 774525, "coding_time_seconds_today": 4113, "balance": "You need to have a pocket watcher badge to view this.", "badges": [{"name": "Maiden Voyage", "text": "you shipped your first project! the journey begins...", "icon": "\ud83d\udea2"}], "created_at": "2025-06-16T11:47:12.955-04:00", "updated_at": "2025-09-10T22:51:20.937-04:00", "avatar": "https://avatars.slack-edge.com/2024-09-25/7778511112357_06884ed591358f9f62f3_original.png", "custom_css": null}, {"id": 448, "slack_id": "U091M8C4WTF", "display_name": "Tommy Marshall", "bio": null, "projects_count": 0, "devlogs_count": 0, "votes_count": 0, "ships_count": 0, "projects": [], "coding_time_seconds": 0, "coding_time_seconds_today": 0, "balance": "You need to have a pocket watcher badge to view this.", "badges": [], "created_at": "2025-06-16T11:47:33.571-04:00", "updated_at": "2025-07-03T19:13:02.231-04:00", "avatar": "https://secure.gravatar.com/avatar/164e6f735004104ac186497335d21687.jpg?s=512&d=https%3A%2F%2Fa.slack-edge.com%2Fdf10d%2Fimg%2Favatars%2Fava_0019-512.png", "custom_css": null}, {"id": 449, "slack_id": "U08RM94EECT", "display_name": "V Play Games", "bio": null, "projects_count": 6, "devlogs_count": 14, "votes_count": 14, "ships_count": 5, "projects": [{"id": 2934, "title": "2048: Endgame", "devlogs_count": 2, "created_at": "2025-06-22T13:54:08.742-04:00"}, {"id": 4114, "title": "Javalovania", "devlogs_count": 1, "created_at": "2025-06-27T14:38:38.307-04:00"}, {"id": 4115, "title": "Venixxino", "devlogs_count": 1, "created_at": "2025-06-27T14:50:55.828-04:00"}, {"id": 5462, "title": "Wikipedia Movie Scraper", "devlogs_count": 1, "created_at": "2025-07-05T12:58:24.837-04:00"}, {"id": 8732, "title": "VGM APEX", "devlogs_count": 8, "created_at": "2025-07-29T04:10:56.232-04:00"}, {"id": 4880, "title": "YSWS Timer", "devlogs_count": 1, "created_at": "2025-07-02T02:38:04.083-04:00"}], "coding_time_seconds": 447796, "coding_time_seconds_today": 0, "balance": "You need to have a pocket watcher badge to view this.", "badges": [{"name": "Maiden Voyage", "text": "you shipped your first project! the journey begins...", "icon": "\ud83d\udea2"}], "created_at": "2025-06-16T11:48:26.733-04:00", "updated_at": "2025-09-10T22:51:20.987-04:00", "avatar": "https://avatars.slack-edge.com/2025-05-19/8917055561826_8c7b8b9eced0c0f6c9cb_original.png", "custom_css": null}, {"id": 450, "slack_id": "U092BFVHNKS", "display_name": "Legalthief", "bio": null, "projects_count": 0, "devlogs_count": 0, "votes_count": 0, "ships_count": 0, "projects": [], "coding_time_seconds": 0, "coding_time_seconds_today": 0, "balance": "You need to have a pocket watcher badge to view this.", "badges": [], "created_at": "2025-06-16T11:49:07.616-04:00", "updated_at": "2025-07-03T19:13:02.778-04:00", "avatar": "https://secure.gravatar.com/avatar/41b4266ce1c11373adb04a7af594298e.jpg?s=512&d=https%3A%2F%2Fa.slack-edge.com%2Fdf10d%2Fimg%2Favatars%2Fava_0003-512.png", "custom_css": null}, {"id": 451, "slack_id": "U0921JTV73K", "display_name": "Dogxi", "bio": null, "projects_count": 1, "devlogs_count": 1, "votes_count": 0, "ships_count": 0, "projects": [{"id": 3348, "title": "Teminal Cat", "devlogs_count": 1, "created_at": "2025-06-23T23:19:44.196-04:00"}], "coding_time_seconds": 55929, "coding_time_seconds_today": 0, "balance": "You need to have a pocket watcher badge to view this.", "badges": [], "created_at": "2025-06-16T11:49:25.953-04:00", "updated_at": "2025-08-10T11:18:52.739-04:00", "avatar": "https://avatars.slack-edge.com/2025-06-17/9055443916278_882eae41078d7c47c92b_original.png", "custom_css": null}, {"id": 452, "slack_id": "U091G2KB9EF", "display_name": "Raman Pandey", "bio": null, "projects_count": 0, "devlogs_count": 0, "votes_count": 0, "ships_count": 0, "projects": [], "coding_time_seconds": 260373, "coding_time_seconds_today": 242, "balance": "You need to have a pocket watcher badge to view this.", "badges": [], "created_at": "2025-06-16T11:49:27.007-04:00", "updated_at": "2025-07-03T19:13:03.295-04:00", "avatar": "https://secure.gravatar.com/avatar/fb2895beaf62cf6afb9b75438fe56fef.jpg?s=512&d=https%3A%2F%2Fa.slack-edge.com%2Fdf10d%2Fimg%2Favatars%2Fava_0010-512.png", "custom_css": null}, {"id": 453, "slack_id": "U091M8D0UMB", "display_name": "R\u0103zvan", "bio": null, "projects_count": 0, "devlogs_count": 0, "votes_count": 0, "ships_count": 0, "projects": [], "coding_time_seconds": 0, "coding_time_seconds_today": 0, "balance": "You need to have a pocket watcher badge to view this.", "badges": [], "created_at": "2025-06-16T11:49:40.208-04:00", "updated_at": "2025-07-03T19:13:03.569-04:00", "avatar": "https://secure.gravatar.com/avatar/18163643df029a43697c2bb453ba7122.jpg?s=512&d=https%3A%2F%2Fa.slack-edge.com%2Fdf10d%2Fimg%2Favatars%2Fava_0024-512.png", "custom_css": null}, {"id": 454, "slack_id": "U092BFWPE48", "display_name": "Daivik", "bio": null, "projects_count": 1, "devlogs_count": 0, "votes_count": 0, "ships_count": 0, "projects": [{"id": 85, "title": "SAAS", "devlogs_count": 0, "created_at": "2025-06-16T12:25:23.256-04:00"}], "coding_time_seconds": 54984, "coding_time_seconds_today": 0, "balance": "You need to have a pocket watcher badge to view this.", "badges": [], "created_at": "2025-06-16T11:50:06.493-04:00", "updated_at": "2025-07-03T19:13:03.852-04:00", "avatar": "https://avatars.slack-edge.com/2025-06-16/9055504060021_3d6b7f8395e82554ffa7_original.jpg", "custom_css": null}, {"id": 455, "slack_id": "U091G5SGJHL", "display_name": "Bishwas Khanal (Zarbie)", "bio": null, "projects_count": 1, "devlogs_count": 0, "votes_count": 0, "ships_count": 0, "projects": [{"id": 68, "title": "BrokeNoMore", "devlogs_count": 0, "created_at": "2025-06-16T12:01:52.492-04:00"}], "coding_time_seconds": 134362, "coding_time_seconds_today": 0, "balance": "You need to have a pocket watcher badge to view this.", "badges": [], "created_at": "2025-06-16T11:50:07.524-04:00", "updated_at": "2025-07-03T19:13:04.129-04:00", "avatar": "https://avatars.slack-edge.com/2025-06-16/9041778429015_2edb2f24fa47dd8e24ec_original.png", "custom_css": null}, {"id": 456, "slack_id": "U092BG7FXEU", "display_name": "AJ Khew", "bio": null, "projects_count": 0, "devlogs_count": 0, "votes_count": 0, "ships_count": 0, "projects": [], "coding_time_seconds": 0, "coding_time_seconds_today": 0, "balance": "You need to have a pocket watcher badge to view this.", "badges": [], "created_at": "2025-06-16T11:50:16.836-04:00", "updated_at": "2025-07-03T19:13:04.399-04:00", "avatar": "https://avatars.slack-edge.com/2025-06-16/9079566174768_684404065e3383b82ce0_original.png", "custom_css": null}, {"id": 457, "slack_id": "U079V3R3BU3", "display_name": "Anthony", "bio": null, "projects_count": 0, "devlogs_count": 0, "votes_count": 0, "ships_count": 0, "projects": [], "coding_time_seconds": 450425, "coding_time_seconds_today": 0, "balance": "You need to have a pocket watcher badge to view this.", "badges": [], "created_at": "2025-06-16T11:50:27.028-04:00", "updated_at": "2025-07-03T19:13:04.670-04:00", "avatar": "https://avatars.slack-edge.com/2025-02-13/8459211192385_dc8dada49b866ef41834_original.jpg", "custom_css": null}, {"id": 458, "slack_id": "U0917NFCP63", "display_name": "Asha Rakhaiya", "bio": null, "projects_count": 0, "devlogs_count": 0, "votes_count": 0, "ships_count": 0, "projects": [], "coding_time_seconds": 31388, "coding_time_seconds_today": 0, "balance": "You need to have a pocket watcher badge to view this.", "badges": [], "created_at": "2025-06-16T11:50:32.355-04:00", "updated_at": "2025-07-03T19:13:04.934-04:00", "avatar": "https://secure.gravatar.com/avatar/6270719a213d6fc15c704819fcc5da96.jpg?s=512&d=https%3A%2F%2Fa.slack-edge.com%2Fdf10d%2Fimg%2Favatars%2Fava_0017-512.png", "custom_css": null}, {"id": 459, "slack_id": "U083TDN0BFY", "display_name": "Luka", "bio": null, "projects_count": 1, "devlogs_count": 1, "votes_count": 0, "ships_count": 0, "projects": [{"id": 4122, "title": "Lark", "devlogs_count": 1, "created_at": "2025-06-27T16:11:33.784-04:00"}], "coding_time_seconds": 193040, "coding_time_seconds_today": 0, "balance": "You need to have a pocket watcher badge to view this.", "badges": [], "created_at": "2025-06-16T11:51:11.349-04:00", "updated_at": "2025-07-03T19:13:05.204-04:00", "avatar": "https://secure.gravatar.com/avatar/cfc4f034390e1f68c4e0823a07ea1704.jpg?s=512&d=https%3A%2F%2Fa.slack-edge.com%2Fdf10d%2Fimg%2Favatars%2Fava_0013-512.png", "custom_css": null}, {"id": 460, "slack_id": "U091P1ZCAQJ", "display_name": "Aarav Shah", "bio": null, "projects_count": 0, "devlogs_count": 0, "votes_count": 0, "ships_count": 0, "projects": [], "coding_time_seconds": 230321, "coding_time_seconds_today": 0, "balance": "You need to have a pocket watcher badge to view this.", "badges": [], "created_at": "2025-06-16T11:51:17.332-04:00", "updated_at": "2025-07-03T19:13:05.471-04:00", "avatar": "https://secure.gravatar.com/avatar/25fb12d69f52ce05e0572a9b038b6d67.jpg?s=512&d=https%3A%2F%2Fa.slack-edge.com%2Fdf10d%2Fimg%2Favatars%2Fava_0010-512.png", "custom_css": null}], "pagination": {"page": 23, "pages": 1192, "count": 23827, "items": 20}}