{"users": [{"id": 4581, "slack_id": "U091SC6GPAQ", "display_name": "Hari", "bio": null, "projects_count": 0, "devlogs_count": 0, "votes_count": 0, "ships_count": 0, "projects": [], "coding_time_seconds": 9162, "coding_time_seconds_today": 0, "balance": "You need to have a pocket watcher badge to view this.", "badges": [], "created_at": "2025-06-17T00:10:35.004-04:00", "updated_at": "2025-07-03T19:32:02.810-04:00", "avatar": "https://secure.gravatar.com/avatar/e51621ccff4cb27a9aabd7d05844fd8b.jpg?s=512&d=https%3A%2F%2Fa.slack-edge.com%2Fdf10d%2Fimg%2Favatars%2Fava_0013-512.png", "custom_css": null}, {"id": 4582, "slack_id": "U091K692YV9", "display_name": "Sarv", "bio": null, "projects_count": 1, "devlogs_count": 3, "votes_count": 9, "ships_count": 1, "projects": [{"id": 1193, "title": "2048-Power", "devlogs_count": 3, "created_at": "2025-06-17T21:21:39.157-04:00"}], "coding_time_seconds": 97392, "coding_time_seconds_today": 0, "balance": "You need to have a pocket watcher badge to view this.", "badges": [{"name": "Maiden Voyage", "text": "you shipped your first project! the journey begins...", "icon": "\ud83d\udea2"}], "created_at": "2025-06-17T00:10:35.961-04:00", "updated_at": "2025-09-10T22:53:26.823-04:00", "avatar": "https://secure.gravatar.com/avatar/2578dfb8b6f29abad98f8caad572b715.jpg?s=512&d=https%3A%2F%2Fa.slack-edge.com%2Fdf10d%2Fimg%2Favatars%2Fava_0015-512.png", "custom_css": null}, {"id": 4583, "slack_id": "U06SDMJ85CG", "display_name": "toxic popcorn", "bio": null, "projects_count": 0, "devlogs_count": 0, "votes_count": 0, "ships_count": 0, "projects": [], "coding_time_seconds": 0, "coding_time_seconds_today": 0, "balance": "You need to have a pocket watcher badge to view this.", "badges": [], "created_at": "2025-06-17T00:10:48.790-04:00", "updated_at": "2025-07-03T19:32:03.365-04:00", "avatar": "https://avatars.slack-edge.com/2025-03-02/8536692089298_f548cde317dfb9139461_original.png", "custom_css": null}, {"id": 4584, "slack_id": "U07UKMQ1S7L", "display_name": "beesfan", "bio": null, "projects_count": 0, "devlogs_count": 0, "votes_count": 0, "ships_count": 0, "projects": [], "coding_time_seconds": 34208, "coding_time_seconds_today": 0, "balance": "You need to have a pocket watcher badge to view this.", "badges": [], "created_at": "2025-06-17T00:10:55.459-04:00", "updated_at": "2025-08-08T02:22:24.000-04:00", "avatar": "https://avatars.slack-edge.com/2025-08-05/9333180161312_78e4322d8eb397482ef8_original.png", "custom_css": null}, {"id": 4585, "slack_id": "U0924JRALGZ", "display_name": "Sconstanzo", "bio": null, "projects_count": 0, "devlogs_count": 0, "votes_count": 0, "ships_count": 0, "projects": [], "coding_time_seconds": 0, "coding_time_seconds_today": 0, "balance": "You need to have a pocket watcher badge to view this.", "badges": [], "created_at": "2025-06-17T00:10:58.353-04:00", "updated_at": "2025-07-07T08:05:16.477-04:00", "avatar": "https://secure.gravatar.com/avatar/0aff8010f335ab12c8f9c4f1212a6794.jpg?s=512&d=https%3A%2F%2Fa.slack-edge.com%2Fdf10d%2Fimg%2Favatars%2Fava_0019-512.png", "custom_css": null}, {"id": 4586, "slack_id": "U0924JR39S5", "display_name": "Tanvi", "bio": null, "projects_count": 0, "devlogs_count": 0, "votes_count": 0, "ships_count": 0, "projects": [], "coding_time_seconds": 0, "coding_time_seconds_today": 0, "balance": "You need to have a pocket watcher badge to view this.", "badges": [], "created_at": "2025-06-17T00:11:05.233-04:00", "updated_at": "2025-07-03T19:32:04.038-04:00", "avatar": "https://secure.gravatar.com/avatar/1418ea6235af6f3459f2091a509148b3.jpg?s=512&d=https%3A%2F%2Fa.slack-edge.com%2Fdf10d%2Fimg%2Favatars%2Fava_0001-512.png", "custom_css": null}, {"id": 4587, "slack_id": "U091SCD5KGC", "display_name": "Jakub Grygiel", "bio": null, "projects_count": 1, "devlogs_count": 0, "votes_count": 0, "ships_count": 0, "projects": [{"id": 1702, "title": "Time Tracker", "devlogs_count": 0, "created_at": "2025-06-19T03:43:10.071-04:00"}], "coding_time_seconds": 55150, "coding_time_seconds_today": 0, "balance": "You need to have a pocket watcher badge to view this.", "badges": [], "created_at": "2025-06-17T00:11:30.569-04:00", "updated_at": "2025-07-03T19:32:04.314-04:00", "avatar": "https://avatars.slack-edge.com/2025-06-16/9060124310114_55086706746e888c80b3_original.jpg", "custom_css": null}, {"id": 4588, "slack_id": "U091SCGR1GC", "display_name": "Viswa Anoop Nerella", "bio": null, "projects_count": 0, "devlogs_count": 0, "votes_count": 0, "ships_count": 0, "projects": [], "coding_time_seconds": 0, "coding_time_seconds_today": 0, "balance": "You need to have a pocket watcher badge to view this.", "badges": [], "created_at": "2025-06-17T00:11:32.169-04:00", "updated_at": "2025-07-03T19:32:04.587-04:00", "avatar": "https://secure.gravatar.com/avatar/f1dd4dd88b07e7f1a35de8d5b0745c5d.jpg?s=512&d=https%3A%2F%2Fa.slack-edge.com%2Fdf10d%2Fimg%2Favatars%2Fava_0003-512.png", "custom_css": null}, {"id": 4589, "slack_id": "U091Q8YA737", "display_name": "syed abuthakir", "bio": null, "projects_count": 0, "devlogs_count": 0, "votes_count": 0, "ships_count": 0, "projects": [], "coding_time_seconds": 0, "coding_time_seconds_today": 0, "balance": "You need to have a pocket watcher badge to view this.", "badges": [], "created_at": "2025-06-17T00:11:36.739-04:00", "updated_at": "2025-07-03T19:32:04.851-04:00", "avatar": "https://secure.gravatar.com/avatar/bf3a303d152d610cfcc50c6151e14b49.jpg?s=512&d=https%3A%2F%2Fa.slack-edge.com%2Fdf10d%2Fimg%2Favatars%2Fava_0024-512.png", "custom_css": null}, {"id": 4590, "slack_id": "U08209JJ6TZ", "display_name": "gavin", "bio": null, "projects_count": 7, "devlogs_count": 28, "votes_count": 121, "ships_count": 5, "projects": [{"id": 11628, "title": "MC.CSS", "devlogs_count": 1, "created_at": "2025-08-17T22:11:37.754-04:00"}, {"id": 12370, "title": "Movieslay Emerald", "devlogs_count": 4, "created_at": "2025-08-26T10:49:55.592-04:00"}, {"id": 5961, "title": "GMMA | Modular Music App", "devlogs_count": 17, "created_at": "2025-07-09T12:33:08.766-04:00"}, {"id": 13730, "title": "ScratchAddons Font2SVG", "devlogs_count": 0, "created_at": "2025-09-23T23:32:49.548-04:00"}, {"id": 9919, "title": "Hydra Game Engine", "devlogs_count": 4, "created_at": "2025-08-02T22:55:21.812-04:00"}, {"id": 534, "title": "glacierOS - Modern OS recreation", "devlogs_count": 1, "created_at": "2025-06-17T00:37:36.281-04:00"}, {"id": 6468, "title": "Subnaudio", "devlogs_count": 1, "created_at": "2025-07-13T15:40:43.205-04:00"}], "coding_time_seconds": 315015, "coding_time_seconds_today": 0, "balance": "You need to have a pocket watcher badge to view this.", "badges": [{"name": "Maiden Voyage", "text": "you shipped your first project! the journey begins...", "icon": "\ud83d\udea2"}, {"name": "Ballot Stuffer", "text": "vote 100 times.", "icon": "https://summer.hackclub.com/assets/i_voted-bf851b48.png"}], "created_at": "2025-06-17T00:11:59.896-04:00", "updated_at": "2025-09-11T20:57:41.131-04:00", "avatar": "https://avatars.slack-edge.com/2024-12-15/8189609094417_fb70ad4e04324fca28b9_original.jpg", "custom_css": null}, {"id": 4591, "slack_id": "U091SCG6V44", "display_name": "Shahzal Rehman", "bio": null, "projects_count": 0, "devlogs_count": 0, "votes_count": 0, "ships_count": 0, "projects": [], "coding_time_seconds": 0, "coding_time_seconds_today": 0, "balance": "You need to have a pocket watcher badge to view this.", "badges": [], "created_at": "2025-06-17T00:12:19.989-04:00", "updated_at": "2025-07-03T19:32:05.415-04:00", "avatar": "https://secure.gravatar.com/avatar/37e7cf504b98d5bb521da0287bb36e60.jpg?s=512&d=https%3A%2F%2Fa.slack-edge.com%2Fdf10d%2Fimg%2Favatars%2Fava_0022-512.png", "custom_css": null}, {"id": 4592, "slack_id": "U091SCHURPW", "display_name": "Agnibin Das", "bio": null, "projects_count": 2, "devlogs_count": 3, "votes_count": 3, "ships_count": 1, "projects": [{"id": 1203, "title": "Hangman Game With C Language", "devlogs_count": 2, "created_at": "2025-06-17T22:22:59.873-04:00"}, {"id": 1383, "title": "Mini Game Arcade", "devlogs_count": 1, "created_at": "2025-06-18T12:54:19.227-04:00"}], "coding_time_seconds": 13581, "coding_time_seconds_today": 0, "balance": "You need to have a pocket watcher badge to view this.", "badges": [{"name": "Maiden Voyage", "text": "you shipped your first project! the journey begins...", "icon": "\ud83d\udea2"}], "created_at": "2025-06-17T00:12:29.794-04:00", "updated_at": "2025-09-10T22:53:27.383-04:00", "avatar": "https://secure.gravatar.com/avatar/cf1876516ce120450e78ad7117027a35.jpg?s=512&d=https%3A%2F%2Fa.slack-edge.com%2Fdf10d%2Fimg%2Favatars%2Fava_0007-512.png", "custom_css": null}, {"id": 4593, "slack_id": "U091Q9A2P3P", "display_name": "Sreehitha Velivela", "bio": null, "projects_count": 0, "devlogs_count": 0, "votes_count": 0, "ships_count": 0, "projects": [], "coding_time_seconds": 0, "coding_time_seconds_today": 0, "balance": "You need to have a pocket watcher badge to view this.", "badges": [], "created_at": "2025-06-17T00:12:41.073-04:00", "updated_at": "2025-07-03T19:32:06.016-04:00", "avatar": "https://secure.gravatar.com/avatar/4e61b4503e3bea71b597dc47817bfea2.jpg?s=512&d=https%3A%2F%2Fa.slack-edge.com%2Fdf10d%2Fimg%2Favatars%2Fava_0000-512.png", "custom_css": null}, {"id": 4594, "slack_id": "U079V3641NF", "display_name": "Krish", "bio": null, "projects_count": 2, "devlogs_count": 9, "votes_count": 23, "ships_count": 2, "projects": [{"id": 6788, "title": "Stolker Discord Bot", "devlogs_count": 6, "created_at": "2025-07-16T07:19:14.462-04:00"}, {"id": 11278, "title": "Kwiz API", "devlogs_count": 3, "created_at": "2025-08-14T14:17:25.322-04:00"}], "coding_time_seconds": 125346, "coding_time_seconds_today": 0, "balance": "You need to have a pocket watcher badge to view this.", "badges": [{"name": "Maiden Voyage", "text": "you shipped your first project! the journey begins...", "icon": "\ud83d\udea2"}], "created_at": "2025-06-17T00:12:55.196-04:00", "updated_at": "2025-09-10T22:53:27.491-04:00", "avatar": "https://avatars.slack-edge.com/2024-06-26/7337057147827_6f67afb7864918743ebf_original.jpg", "custom_css": null}, {"id": 4595, "slack_id": "U092EEDNQM6", "display_name": "Hardik Rohra", "bio": null, "projects_count": 1, "devlogs_count": 1, "votes_count": 0, "ships_count": 0, "projects": [{"id": 1443, "title": "ZeroWaste Lunchbox", "devlogs_count": 1, "created_at": "2025-06-18T14:58:29.657-04:00"}], "coding_time_seconds": 42796, "coding_time_seconds_today": 0, "balance": "You need to have a pocket watcher badge to view this.", "badges": [], "created_at": "2025-06-17T00:13:03.817-04:00", "updated_at": "2025-07-03T19:32:06.548-04:00", "avatar": "https://avatars.slack-edge.com/2025-06-16/9072654951329_d51b3fb8cec163c76a74_original.png", "custom_css": null}, {"id": 4596, "slack_id": "U091K6C6ULB", "display_name": "developer", "bio": null, "projects_count": 0, "devlogs_count": 0, "votes_count": 0, "ships_count": 0, "projects": [], "coding_time_seconds": 0, "coding_time_seconds_today": 0, "balance": "You need to have a pocket watcher badge to view this.", "badges": [], "created_at": "2025-06-17T00:13:21.471-04:00", "updated_at": "2025-07-03T19:32:06.812-04:00", "avatar": "https://secure.gravatar.com/avatar/5c5b1f8f0b4d1af39c6c464fdb8c841e.jpg?s=512&d=https%3A%2F%2Fa.slack-edge.com%2Fdf10d%2Fimg%2Favatars%2Fava_0005-512.png", "custom_css": null}, {"id": 4597, "slack_id": "U0924JXAY3T", "display_name": "Adilzhan", "bio": null, "projects_count": 0, "devlogs_count": 0, "votes_count": 0, "ships_count": 0, "projects": [], "coding_time_seconds": 0, "coding_time_seconds_today": 0, "balance": "You need to have a pocket watcher badge to view this.", "badges": [], "created_at": "2025-06-17T00:13:25.255-04:00", "updated_at": "2025-07-03T19:32:07.081-04:00", "avatar": "https://secure.gravatar.com/avatar/89c9bf8bdd241718846b0bd2e6c86368.jpg?s=512&d=https%3A%2F%2Fa.slack-edge.com%2Fdf10d%2Fimg%2Favatars%2Fava_0015-512.png", "custom_css": null}, {"id": 4598, "slack_id": "U091Q9330QM", "display_name": "nikhil", "bio": null, "projects_count": 0, "devlogs_count": 0, "votes_count": 0, "ships_count": 0, "projects": [], "coding_time_seconds": 0, "coding_time_seconds_today": 0, "balance": "You need to have a pocket watcher badge to view this.", "badges": [], "created_at": "2025-06-17T00:13:29.145-04:00", "updated_at": "2025-07-03T19:32:07.344-04:00", "avatar": "https://secure.gravatar.com/avatar/2eefad4cfa026e2841fffde0461412a2.jpg?s=512&d=https%3A%2F%2Fa.slack-edge.com%2Fdf10d%2Fimg%2Favatars%2Fava_0021-512.png", "custom_css": null}, {"id": 4599, "slack_id": "U092EEC8XPS", "display_name": "jsysh", "bio": null, "projects_count": 0, "devlogs_count": 0, "votes_count": 0, "ships_count": 0, "projects": [], "coding_time_seconds": 29773, "coding_time_seconds_today": 0, "balance": "You need to have a pocket watcher badge to view this.", "badges": [], "created_at": "2025-06-17T00:13:29.889-04:00", "updated_at": "2025-07-03T19:32:07.616-04:00", "avatar": "https://secure.gravatar.com/avatar/0c6d5d5e643442b5e856df903a2b98db.jpg?s=512&d=https%3A%2F%2Fa.slack-edge.com%2Fdf10d%2Fimg%2Favatars%2Fava_0004-512.png", "custom_css": null}, {"id": 4600, "slack_id": "U0924K01YSD", "display_name": "Arfan V Anulal", "bio": null, "projects_count": 1, "devlogs_count": 1, "votes_count": 0, "ships_count": 0, "projects": [{"id": 546, "title": "https://github.com/ArfanAnulal/SixJar-Flutter", "devlogs_count": 1, "created_at": "2025-06-17T00:51:44.249-04:00"}], "coding_time_seconds": 13529, "coding_time_seconds_today": 0, "balance": "You need to have a pocket watcher badge to view this.", "badges": [], "created_at": "2025-06-17T00:13:46.891-04:00", "updated_at": "2025-07-03T19:32:07.876-04:00", "avatar": "https://avatars.slack-edge.com/2025-06-16/9053231030499_dded59aea15c8de8dc41_original.jpg", "custom_css": null}], "pagination": {"page": 230, "pages": 1192, "count": 23828, "items": 20}}