{"users": [{"id": 4601, "slack_id": "U091Q96TML5", "display_name": "Bhathiya Gunarathna", "bio": null, "projects_count": 1, "devlogs_count": 0, "votes_count": 0, "ships_count": 0, "projects": [{"id": 530, "title": "Vehicle Sale Management system", "devlogs_count": 0, "created_at": "2025-06-17T00:31:15.294-04:00"}], "coding_time_seconds": 16951, "coding_time_seconds_today": 0, "balance": "You need to have a pocket watcher badge to view this.", "badges": [], "created_at": "2025-06-17T00:14:26.088-04:00", "updated_at": "2025-07-03T19:32:08.136-04:00", "avatar": "https://secure.gravatar.com/avatar/5a5a7088206c5da33af315ed3a373483.jpg?s=512&d=https%3A%2F%2Fa.slack-edge.com%2Fdf10d%2Fimg%2Favatars%2Fava_0004-512.png", "custom_css": null}, {"id": 4602, "slack_id": "U07EQG9EW7K", "display_name": "Faizaan(Your Freindly Neighbourhood Iron Man)", "bio": null, "projects_count": 0, "devlogs_count": 4, "votes_count": 9, "ships_count": 0, "projects": [], "coding_time_seconds": 102100, "coding_time_seconds_today": 0, "balance": "You need to have a pocket watcher badge to view this.", "badges": [{"name": "Maiden Voyage", "text": "you shipped your first project! the journey begins...", "icon": "\ud83d\udea2"}], "created_at": "2025-06-17T00:14:29.506-04:00", "updated_at": "2025-09-10T22:53:27.754-04:00", "avatar": "https://avatars.slack-edge.com/2025-07-20/9223789967797_7fdad30f72f1381278e0_original.jpg", "custom_css": null}, {"id": 4603, "slack_id": "U091Q97KSPP", "display_name": "Lucian Cen", "bio": null, "projects_count": 0, "devlogs_count": 0, "votes_count": 0, "ships_count": 0, "projects": [], "coding_time_seconds": 0, "coding_time_seconds_today": 0, "balance": "You need to have a pocket watcher badge to view this.", "badges": [], "created_at": "2025-06-17T00:14:35.566-04:00", "updated_at": "2025-07-03T19:32:08.664-04:00", "avatar": "https://avatars.slack-edge.com/2025-06-16/9053340663590_97992d6205fde9ea187c_original.png", "custom_css": null}, {"id": 4604, "slack_id": "U091Q8R9V7F", "display_name": "Sania Kiran", "bio": null, "projects_count": 0, "devlogs_count": 0, "votes_count": 0, "ships_count": 0, "projects": [], "coding_time_seconds": 0, "coding_time_seconds_today": 0, "balance": "You need to have a pocket watcher badge to view this.", "badges": [], "created_at": "2025-06-17T00:15:03.844-04:00", "updated_at": "2025-08-09T21:08:42.494-04:00", "avatar": "https://avatars.slack-edge.com/2025-06-16/9060441496996_c11a9cdc83273cfee8e7_original.png", "custom_css": null}, {"id": 4605, "slack_id": "U091Q99R4ER", "display_name": "Abhilash Panda", "bio": null, "projects_count": 1, "devlogs_count": 2, "votes_count": 19, "ships_count": 1, "projects": [{"id": 657, "title": "Meme Bot", "devlogs_count": 2, "created_at": "2025-06-17T04:22:36.675-04:00"}], "coding_time_seconds": 144811, "coding_time_seconds_today": 0, "balance": "You need to have a pocket watcher badge to view this.", "badges": [{"name": "Maiden Voyage", "text": "you shipped your first project! the journey begins...", "icon": "\ud83d\udea2"}], "created_at": "2025-06-17T00:15:22.430-04:00", "updated_at": "2025-09-10T22:53:27.836-04:00", "avatar": "https://secure.gravatar.com/avatar/ca26df665ac5ae7a1b05499e95887847.jpg?s=512&d=https%3A%2F%2Fa.slack-edge.com%2Fdf10d%2Fimg%2Favatars%2Fava_0005-512.png", "custom_css": null}, {"id": 4606, "slack_id": "U091K9RHXHU", "display_name": "Benefit", "bio": null, "projects_count": 0, "devlogs_count": 0, "votes_count": 0, "ships_count": 0, "projects": [], "coding_time_seconds": 0, "coding_time_seconds_today": 0, "balance": "You need to have a pocket watcher badge to view this.", "badges": [], "created_at": "2025-06-17T00:15:58.984-04:00", "updated_at": "2025-07-03T19:32:09.460-04:00", "avatar": "https://secure.gravatar.com/avatar/f296cf0e8c57a3a3b6bfbd0dd1e5a02d.jpg?s=512&d=https%3A%2F%2Fa.slack-edge.com%2Fdf10d%2Fimg%2Favatars%2Fava_0000-512.png", "custom_css": null}, {"id": 4607, "slack_id": "U08AVBNSCMT", "display_name": "cybernova", "bio": null, "projects_count": 5, "devlogs_count": 11, "votes_count": 65, "ships_count": 4, "projects": [{"id": 3846, "title": "Wack the mole", "devlogs_count": 2, "created_at": "2025-06-26T01:55:25.225-04:00"}, {"id": 11720, "title": "Cartoonish-cartoonify yourself", "devlogs_count": 1, "created_at": "2025-08-18T18:49:51.047-04:00"}, {"id": 10765, "title": "Tug of War-Multiplayer", "devlogs_count": 4, "created_at": "2025-08-10T13:33:41.908-04:00"}, {"id": 10397, "title": "Public poll", "devlogs_count": 1, "created_at": "2025-08-06T15:17:18.889-04:00"}, {"id": 10640, "title": "CHESS TIMER ", "devlogs_count": 3, "created_at": "2025-08-09T07:23:27.573-04:00"}], "coding_time_seconds": 60124, "coding_time_seconds_today": 0, "balance": "You need to have a pocket watcher badge to view this.", "badges": [{"name": "Maiden Voyage", "text": "you shipped your first project! the journey begins...", "icon": "\ud83d\udea2"}], "created_at": "2025-06-17T00:16:29.471-04:00", "updated_at": "2025-09-10T22:53:27.886-04:00", "avatar": "https://secure.gravatar.com/avatar/769c86272249241914f1d04b7762a99c.jpg?s=512&d=https%3A%2F%2Fa.slack-edge.com%2Fdf10d%2Fimg%2Favatars%2Fava_0017-512.png", "custom_css": null}, {"id": 4608, "slack_id": "U091K6QNF99", "display_name": "Pushti", "bio": null, "projects_count": 0, "devlogs_count": 0, "votes_count": 0, "ships_count": 0, "projects": [], "coding_time_seconds": 0, "coding_time_seconds_today": 0, "balance": "You need to have a pocket watcher badge to view this.", "badges": [], "created_at": "2025-06-17T00:16:38.617-04:00", "updated_at": "2025-07-03T19:32:09.993-04:00", "avatar": "https://secure.gravatar.com/avatar/ca7984293473f9da2caaa9c8df7f7184.jpg?s=512&d=https%3A%2F%2Fa.slack-edge.com%2Fdf10d%2Fimg%2Favatars%2Fava_0025-512.png", "custom_css": null}, {"id": 4609, "slack_id": "U092ED1LW3A", "display_name": "azmaveth", "bio": null, "projects_count": 0, "devlogs_count": 0, "votes_count": 0, "ships_count": 0, "projects": [], "coding_time_seconds": 0, "coding_time_seconds_today": 0, "balance": "You need to have a pocket watcher badge to view this.", "badges": [], "created_at": "2025-06-17T00:16:43.154-04:00", "updated_at": "2025-07-03T21:41:58.610-04:00", "avatar": "https://secure.gravatar.com/avatar/9cf59de0e25e8c74b9777aeb35f7db57.jpg?s=512&d=https%3A%2F%2Fa.slack-edge.com%2Fdf10d%2Fimg%2Favatars%2Fava_0012-512.png", "custom_css": null}, {"id": 4610, "slack_id": "U091S3Q5XJ6", "display_name": "Pratham D", "bio": null, "projects_count": 0, "devlogs_count": 0, "votes_count": 0, "ships_count": 0, "projects": [], "coding_time_seconds": 0, "coding_time_seconds_today": 0, "balance": "You need to have a pocket watcher badge to view this.", "badges": [], "created_at": "2025-06-17T00:17:10.213-04:00", "updated_at": "2025-07-03T19:32:10.406-04:00", "avatar": "https://avatars.slack-edge.com/2025-06-16/9082510493056_ea1311e601ecb6807355_original.png", "custom_css": null}, {"id": 4611, "slack_id": "U091S3U3AUA", "display_name": "SUbhash", "bio": null, "projects_count": 0, "devlogs_count": 0, "votes_count": 0, "ships_count": 0, "projects": [], "coding_time_seconds": 0, "coding_time_seconds_today": 0, "balance": "You need to have a pocket watcher badge to view this.", "badges": [], "created_at": "2025-06-17T00:17:32.244-04:00", "updated_at": "2025-07-03T19:32:10.662-04:00", "avatar": "https://secure.gravatar.com/avatar/f68939f5226e4e229833ff8a034c70ae.jpg?s=512&d=https%3A%2F%2Fa.slack-edge.com%2Fdf10d%2Fimg%2Favatars%2Fava_0021-512.png", "custom_css": null}, {"id": 4612, "slack_id": "U074FTVRUAE", "display_name": "dev_", "bio": null, "projects_count": 0, "devlogs_count": 0, "votes_count": 0, "ships_count": 0, "projects": [], "coding_time_seconds": 1221, "coding_time_seconds_today": 0, "balance": "You need to have a pocket watcher badge to view this.", "badges": [], "created_at": "2025-06-17T00:17:39.759-04:00", "updated_at": "2025-07-03T19:32:10.926-04:00", "avatar": "https://avatars.slack-edge.com/2024-11-21/8068617149490_61660cbed49a1072ff36_original.jpg", "custom_css": null}, {"id": 4613, "slack_id": "U091Q9G3AG5", "display_name": "Mrzz", "bio": null, "projects_count": 0, "devlogs_count": 0, "votes_count": 0, "ships_count": 0, "projects": [], "coding_time_seconds": 0, "coding_time_seconds_today": 0, "balance": "You need to have a pocket watcher badge to view this.", "badges": [], "created_at": "2025-06-17T00:17:41.484-04:00", "updated_at": "2025-07-03T19:32:11.189-04:00", "avatar": "https://secure.gravatar.com/avatar/ad7491c8b50a4a7edf2d8b8e28e79dd1.jpg?s=512&d=https%3A%2F%2Fa.slack-edge.com%2Fdf10d%2Fimg%2Favatars%2Fava_0013-512.png", "custom_css": null}, {"id": 4614, "slack_id": "U091Q9KUTD3", "display_name": "Andrej Rev\u00e1k", "bio": null, "projects_count": 1, "devlogs_count": 0, "votes_count": 0, "ships_count": 0, "projects": [{"id": 3069, "title": "DIY-Chess clock", "devlogs_count": 0, "created_at": "2025-06-23T01:23:52.969-04:00"}], "coding_time_seconds": 9151, "coding_time_seconds_today": 0, "balance": "You need to have a pocket watcher badge to view this.", "badges": [], "created_at": "2025-06-17T00:18:00.763-04:00", "updated_at": "2025-07-03T19:32:11.454-04:00", "avatar": "https://secure.gravatar.com/avatar/9763609c370a0683a771f91a60240f79.jpg?s=512&d=https%3A%2F%2Fa.slack-edge.com%2Fdf10d%2Fimg%2Favatars%2Fava_0020-512.png", "custom_css": null}, {"id": 4615, "slack_id": "U091Q9K4KJ9", "display_name": "DeadGerman", "bio": null, "projects_count": 0, "devlogs_count": 0, "votes_count": 0, "ships_count": 0, "projects": [], "coding_time_seconds": 1680, "coding_time_seconds_today": 0, "balance": "You need to have a pocket watcher badge to view this.", "badges": [], "created_at": "2025-06-17T00:18:20.847-04:00", "updated_at": "2025-07-03T19:32:11.720-04:00", "avatar": "https://secure.gravatar.com/avatar/406a9255e4db072d133549b381e1816f.jpg?s=512&d=https%3A%2F%2Fa.slack-edge.com%2Fdf10d%2Fimg%2Favatars%2Fava_0020-512.png", "custom_css": null}, {"id": 4616, "slack_id": "U091R2WGFL2", "display_name": "Redger Xu", "bio": null, "projects_count": 1, "devlogs_count": 0, "votes_count": 0, "ships_count": 0, "projects": [{"id": 5608, "title": "cheesepizza.nvim", "devlogs_count": 0, "created_at": "2025-07-06T14:16:43.120-04:00"}], "coding_time_seconds": 214323, "coding_time_seconds_today": 0, "balance": "You need to have a pocket watcher badge to view this.", "badges": [], "created_at": "2025-06-17T00:18:30.783-04:00", "updated_at": "2025-07-03T19:32:11.978-04:00", "avatar": "https://avatars.slack-edge.com/2025-06-16/9044748280727_45e161d53f476acddc66_original.jpg", "custom_css": null}, {"id": 4617, "slack_id": "U091SCY65GC", "display_name": "Deepak Vishwakarma", "bio": null, "projects_count": 0, "devlogs_count": 0, "votes_count": 0, "ships_count": 0, "projects": [], "coding_time_seconds": 0, "coding_time_seconds_today": 0, "balance": "You need to have a pocket watcher badge to view this.", "badges": [], "created_at": "2025-06-17T00:19:07.892-04:00", "updated_at": "2025-07-03T19:32:12.241-04:00", "avatar": "https://secure.gravatar.com/avatar/dede32e1cf6b06a4d1d34448059310cd.jpg?s=512&d=https%3A%2F%2Fa.slack-edge.com%2Fdf10d%2Fimg%2Favatars%2Fava_0009-512.png", "custom_css": null}, {"id": 4618, "slack_id": "U092EE0LE80", "display_name": "ASN", "bio": null, "projects_count": 0, "devlogs_count": 0, "votes_count": 0, "ships_count": 0, "projects": [], "coding_time_seconds": 0, "coding_time_seconds_today": 0, "balance": "You need to have a pocket watcher badge to view this.", "badges": [], "created_at": "2025-06-17T00:19:22.626-04:00", "updated_at": "2025-07-03T19:32:12.506-04:00", "avatar": "https://secure.gravatar.com/avatar/093b3682ccd5f5d74c5bb03eccc9d941.jpg?s=512&d=https%3A%2F%2Fa.slack-edge.com%2Fdf10d%2Fimg%2Favatars%2Fava_0021-512.png", "custom_css": null}, {"id": 4619, "slack_id": "U0924KGAMLZ", "display_name": "Prakhar Dubey", "bio": null, "projects_count": 0, "devlogs_count": 0, "votes_count": 0, "ships_count": 0, "projects": [], "coding_time_seconds": 0, "coding_time_seconds_today": 0, "balance": "You need to have a pocket watcher badge to view this.", "badges": [], "created_at": "2025-06-17T00:19:36.308-04:00", "updated_at": "2025-07-03T19:32:12.786-04:00", "avatar": "https://avatars.slack-edge.com/2025-06-17/9060519577732_0caba1a458c14c434361_original.jpg", "custom_css": null}, {"id": 4620, "slack_id": "U091Q9P5K8D", "display_name": "Wrisc", "bio": null, "projects_count": 0, "devlogs_count": 0, "votes_count": 0, "ships_count": 0, "projects": [], "coding_time_seconds": 11420, "coding_time_seconds_today": 0, "balance": "You need to have a pocket watcher badge to view this.", "badges": [], "created_at": "2025-06-17T00:19:44.548-04:00", "updated_at": "2025-07-03T19:32:13.048-04:00", "avatar": "https://secure.gravatar.com/avatar/9644f48b9f7b3c636edd1a551e2ddbaf.jpg?s=512&d=https%3A%2F%2Fa.slack-edge.com%2Fdf10d%2Fimg%2Favatars%2Fava_0015-512.png", "custom_css": null}], "pagination": {"page": 231, "pages": 1192, "count": 23828, "items": 20}}