{"users": [{"id": 4621, "slack_id": "U091SD8BY5A", "display_name": "Surya Pratap Singh", "bio": null, "projects_count": 0, "devlogs_count": 0, "votes_count": 0, "ships_count": 0, "projects": [], "coding_time_seconds": 0, "coding_time_seconds_today": 0, "balance": "You need to have a pocket watcher badge to view this.", "badges": [], "created_at": "2025-06-17T00:19:51.405-04:00", "updated_at": "2025-07-03T19:32:13.310-04:00", "avatar": "https://secure.gravatar.com/avatar/77b574ae50be8ee8dd088a55a271b445.jpg?s=512&d=https%3A%2F%2Fa.slack-edge.com%2Fdf10d%2Fimg%2Favatars%2Fava_0019-512.png", "custom_css": null}, {"id": 4622, "slack_id": "U091SCYLA84", "display_name": "Mridul Goyal", "bio": null, "projects_count": 0, "devlogs_count": 0, "votes_count": 0, "ships_count": 0, "projects": [], "coding_time_seconds": 0, "coding_time_seconds_today": 0, "balance": "You need to have a pocket watcher badge to view this.", "badges": [], "created_at": "2025-06-17T00:19:54.143-04:00", "updated_at": "2025-07-03T19:32:13.581-04:00", "avatar": "https://secure.gravatar.com/avatar/4ae6b3bda60ffb0959ac28d04bb6e9f5.jpg?s=512&d=https%3A%2F%2Fa.slack-edge.com%2Fdf10d%2Fimg%2Favatars%2Fava_0021-512.png", "custom_css": null}, {"id": 4623, "slack_id": "U091SCW730C", "display_name": "kingananas2.0", "bio": null, "projects_count": 4, "devlogs_count": 12, "votes_count": 45, "ships_count": 2, "projects": [{"id": 6405, "title": "docsrs", "devlogs_count": 2, "created_at": "2025-07-13T04:15:03.521-04:00"}, {"id": 6406, "title": "corro", "devlogs_count": 1, "created_at": "2025-07-13T04:21:10.885-04:00"}, {"id": 6602, "title": "Crypts of the Lost", "devlogs_count": 6, "created_at": "2025-07-14T13:29:42.314-04:00"}, {"id": 11209, "title": "konfik", "devlogs_count": 3, "created_at": "2025-08-14T04:17:23.111-04:00"}], "coding_time_seconds": 266276, "coding_time_seconds_today": 0, "balance": "You need to have a pocket watcher badge to view this.", "badges": [{"name": "Maiden Voyage", "text": "you shipped your first project! the journey begins...", "icon": "\ud83d\udea2"}], "created_at": "2025-06-17T00:19:56.295-04:00", "updated_at": "2025-09-10T22:53:28.350-04:00", "avatar": "https://secure.gravatar.com/avatar/4faf854a65df1d32f804a2535edf2487.jpg?s=512&d=https%3A%2F%2Fa.slack-edge.com%2Fdf10d%2Fimg%2Favatars%2Fava_0010-512.png", "custom_css": null}, {"id": 4624, "slack_id": "U092EEWFTME", "display_name": "anjana kavindu", "bio": null, "projects_count": 0, "devlogs_count": 0, "votes_count": 0, "ships_count": 0, "projects": [], "coding_time_seconds": 444091, "coding_time_seconds_today": 1642, "balance": "You need to have a pocket watcher badge to view this.", "badges": [], "created_at": "2025-06-17T00:19:57.466-04:00", "updated_at": "2025-07-03T19:32:14.159-04:00", "avatar": "https://avatars.slack-edge.com/2025-06-16/9072674040497_dc39a6d030e40d5be08d_original.png", "custom_css": null}, {"id": 4625, "slack_id": "U091Q9MUZAR", "display_name": "MICHAEL AMANKWAH", "bio": null, "projects_count": 0, "devlogs_count": 0, "votes_count": 0, "ships_count": 0, "projects": [], "coding_time_seconds": 0, "coding_time_seconds_today": 0, "balance": "You need to have a pocket watcher badge to view this.", "badges": [], "created_at": "2025-06-17T00:20:10.203-04:00", "updated_at": "2025-07-03T19:32:14.431-04:00", "avatar": "https://secure.gravatar.com/avatar/bd7b3afa29d176cfc650148b42980da8.jpg?s=512&d=https%3A%2F%2Fa.slack-edge.com%2Fdf10d%2Fimg%2Favatars%2Fava_0000-512.png", "custom_css": null}, {"id": 4626, "slack_id": "U091S406ALA", "display_name": "scienceLabwork", "bio": null, "projects_count": 0, "devlogs_count": 0, "votes_count": 0, "ships_count": 0, "projects": [], "coding_time_seconds": 226088, "coding_time_seconds_today": 0, "balance": "You need to have a pocket watcher badge to view this.", "badges": [], "created_at": "2025-06-17T00:20:11.305-04:00", "updated_at": "2025-07-03T19:32:14.692-04:00", "avatar": "https://avatars.slack-edge.com/2025-06-16/9072672308081_4b9e27f74f46f3c4eaa3_original.png", "custom_css": null}, {"id": 4627, "slack_id": "U092EEWN2TA", "display_name": "Amshudhar Vadla", "bio": null, "projects_count": 0, "devlogs_count": 0, "votes_count": 0, "ships_count": 0, "projects": [], "coding_time_seconds": 0, "coding_time_seconds_today": 0, "balance": "You need to have a pocket watcher badge to view this.", "badges": [], "created_at": "2025-06-17T00:20:38.989-04:00", "updated_at": "2025-07-03T19:32:14.954-04:00", "avatar": "https://avatars.slack-edge.com/2025-06-16/9044752892999_5c45f40d50f9a65962b1_original.png", "custom_css": null}, {"id": 4628, "slack_id": "U091SD6KATE", "display_name": "Jitrapon", "bio": null, "projects_count": 0, "devlogs_count": 0, "votes_count": 0, "ships_count": 0, "projects": [], "coding_time_seconds": 0, "coding_time_seconds_today": 0, "balance": "You need to have a pocket watcher badge to view this.", "badges": [], "created_at": "2025-06-17T00:21:29.567-04:00", "updated_at": "2025-07-03T19:32:15.228-04:00", "avatar": "https://secure.gravatar.com/avatar/4428df222c1dba67dfa4e896fe6bb2cc.jpg?s=512&d=https%3A%2F%2Fa.slack-edge.com%2Fdf10d%2Fimg%2Favatars%2Fava_0022-512.png", "custom_css": null}, {"id": 4629, "slack_id": "U091S2YL7EW", "display_name": "Andrew", "bio": null, "projects_count": 0, "devlogs_count": 0, "votes_count": 0, "ships_count": 0, "projects": [], "coding_time_seconds": 0, "coding_time_seconds_today": 0, "balance": "You need to have a pocket watcher badge to view this.", "badges": [], "created_at": "2025-06-17T00:21:40.370-04:00", "updated_at": "2025-07-03T19:32:15.509-04:00", "avatar": "https://secure.gravatar.com/avatar/12eb01ad4bc49d1e43a281ecb9967bc3.jpg?s=512&d=https%3A%2F%2Fa.slack-edge.com%2Fdf10d%2Fimg%2Favatars%2Fava_0005-512.png", "custom_css": null}, {"id": 4630, "slack_id": "U091KA4DHDL", "display_name": "Fabuleo", "bio": null, "projects_count": 0, "devlogs_count": 0, "votes_count": 0, "ships_count": 0, "projects": [], "coding_time_seconds": 0, "coding_time_seconds_today": 0, "balance": "You need to have a pocket watcher badge to view this.", "badges": [], "created_at": "2025-06-17T00:22:06.791-04:00", "updated_at": "2025-07-03T19:32:15.773-04:00", "avatar": "https://avatars.slack-edge.com/2025-06-19/9086498606993_78ecc5fdc31e2bee755b_original.png", "custom_css": null}, {"id": 4631, "slack_id": "U091HSHANAF", "display_name": "West", "bio": null, "projects_count": 0, "devlogs_count": 0, "votes_count": 0, "ships_count": 0, "projects": [], "coding_time_seconds": 0, "coding_time_seconds_today": 0, "balance": "You need to have a pocket watcher badge to view this.", "badges": [], "created_at": "2025-06-17T00:22:24.518-04:00", "updated_at": "2025-07-03T19:32:16.037-04:00", "avatar": "https://secure.gravatar.com/avatar/044be0e59ee1f1b77aefaa6a246fe1e6.jpg?s=512&d=https%3A%2F%2Fa.slack-edge.com%2Fdf10d%2Fimg%2Favatars%2Fava_0015-512.png", "custom_css": null}, {"id": 4632, "slack_id": "U0828HD9QLU", "display_name": "logic", "bio": null, "projects_count": 0, "devlogs_count": 0, "votes_count": 0, "ships_count": 0, "projects": [], "coding_time_seconds": 678178, "coding_time_seconds_today": 0, "balance": "You need to have a pocket watcher badge to view this.", "badges": [], "created_at": "2025-06-17T00:22:35.464-04:00", "updated_at": "2025-07-03T19:32:16.296-04:00", "avatar": "https://avatars.slack-edge.com/2025-06-01/8995630068689_0143c8e89ea1f692fe0e_original.jpg", "custom_css": null}, {"id": 4633, "slack_id": "U091AMQPLB1", "display_name": "xander", "bio": null, "projects_count": 0, "devlogs_count": 0, "votes_count": 0, "ships_count": 0, "projects": [], "coding_time_seconds": 48520, "coding_time_seconds_today": 0, "balance": "You need to have a pocket watcher badge to view this.", "badges": [], "created_at": "2025-06-17T00:22:41.358-04:00", "updated_at": "2025-07-03T19:32:16.560-04:00", "avatar": "https://secure.gravatar.com/avatar/7a4eda84c348d261725ea5ace5df4a29.jpg?s=512&d=https%3A%2F%2Fa.slack-edge.com%2Fdf10d%2Fimg%2Favatars%2Fava_0016-512.png", "custom_css": null}, {"id": 4634, "slack_id": "U091K9VL7N2", "display_name": "Vansh Prakash", "bio": null, "projects_count": 0, "devlogs_count": 0, "votes_count": 0, "ships_count": 0, "projects": [], "coding_time_seconds": 0, "coding_time_seconds_today": 0, "balance": "You need to have a pocket watcher badge to view this.", "badges": [], "created_at": "2025-06-17T00:22:42.855-04:00", "updated_at": "2025-07-03T19:32:16.822-04:00", "avatar": "https://secure.gravatar.com/avatar/3c8e65549b2869d9ecb674ef580cef2c.jpg?s=512&d=https%3A%2F%2Fa.slack-edge.com%2Fdf10d%2Fimg%2Favatars%2Fava_0006-512.png", "custom_css": null}, {"id": 4635, "slack_id": "U091Q9SV2KX", "display_name": "thenetaji", "bio": null, "projects_count": 0, "devlogs_count": 0, "votes_count": 0, "ships_count": 0, "projects": [], "coding_time_seconds": 0, "coding_time_seconds_today": 0, "balance": "You need to have a pocket watcher badge to view this.", "badges": [], "created_at": "2025-06-17T00:22:45.523-04:00", "updated_at": "2025-07-03T19:32:17.093-04:00", "avatar": "https://secure.gravatar.com/avatar/50720483afc63029d77642221b3c2190.jpg?s=512&d=https%3A%2F%2Fa.slack-edge.com%2Fdf10d%2Fimg%2Favatars%2Fava_0018-512.png", "custom_css": null}, {"id": 4636, "slack_id": "U091Q9PPLKF", "display_name": "Ankit Kumar Gupta", "bio": null, "projects_count": 0, "devlogs_count": 0, "votes_count": 0, "ships_count": 0, "projects": [], "coding_time_seconds": 0, "coding_time_seconds_today": 0, "balance": "You need to have a pocket watcher badge to view this.", "badges": [], "created_at": "2025-06-17T00:23:14.731-04:00", "updated_at": "2025-07-03T19:32:17.367-04:00", "avatar": "https://avatars.slack-edge.com/2025-06-20/9081530831314_649f74588ab4d90ebb2f_original.png", "custom_css": null}, {"id": 4637, "slack_id": "U091KAEEZAA", "display_name": "arshi", "bio": null, "projects_count": 0, "devlogs_count": 0, "votes_count": 0, "ships_count": 0, "projects": [], "coding_time_seconds": 0, "coding_time_seconds_today": 0, "balance": "You need to have a pocket watcher badge to view this.", "badges": [], "created_at": "2025-06-17T00:23:24.828-04:00", "updated_at": "2025-07-03T19:32:17.632-04:00", "avatar": "https://avatars.slack-edge.com/2025-06-16/9044760619943_3195e0e6439e52b7c224_original.png", "custom_css": null}, {"id": 4638, "slack_id": "U091Q9SQMHT", "display_name": "August Valerius", "bio": null, "projects_count": 0, "devlogs_count": 0, "votes_count": 0, "ships_count": 0, "projects": [], "coding_time_seconds": 0, "coding_time_seconds_today": 0, "balance": "You need to have a pocket watcher badge to view this.", "badges": [], "created_at": "2025-06-17T00:23:26.392-04:00", "updated_at": "2025-07-03T19:32:17.901-04:00", "avatar": "https://secure.gravatar.com/avatar/949c6f7de93a761d0c2e6729520f4fce.jpg?s=512&d=https%3A%2F%2Fa.slack-edge.com%2Fdf10d%2Fimg%2Favatars%2Fava_0011-512.png", "custom_css": null}, {"id": 4639, "slack_id": "U091S49GTNE", "display_name": "Joseph", "bio": null, "projects_count": 1, "devlogs_count": 0, "votes_count": 0, "ships_count": 0, "projects": [{"id": 541, "title": "Serial number scan app", "devlogs_count": 0, "created_at": "2025-06-17T00:48:13.979-04:00"}], "coding_time_seconds": 46545, "coding_time_seconds_today": 0, "balance": "You need to have a pocket watcher badge to view this.", "badges": [], "created_at": "2025-06-17T00:23:43.901-04:00", "updated_at": "2025-07-03T19:32:18.177-04:00", "avatar": "https://secure.gravatar.com/avatar/76d13b94f930821501830d89daad2940.jpg?s=512&d=https%3A%2F%2Fa.slack-edge.com%2Fdf10d%2Fimg%2Favatars%2Fava_0010-512.png", "custom_css": null}, {"id": 4640, "slack_id": "U091SDCTQKE", "display_name": "\u1d05\u1d07\u1d20\u026a\u029f \u0262\u1d00\u1d0d\u026a\u0274\u0262", "bio": null, "projects_count": 0, "devlogs_count": 0, "votes_count": 0, "ships_count": 0, "projects": [], "coding_time_seconds": 0, "coding_time_seconds_today": 0, "balance": "You need to have a pocket watcher badge to view this.", "badges": [], "created_at": "2025-06-17T00:23:59.558-04:00", "updated_at": "2025-07-03T19:32:18.443-04:00", "avatar": "https://avatars.slack-edge.com/2025-06-16/9060160122786_c969a3230c4837bb8dfc_original.jpg", "custom_css": null}], "pagination": {"page": 232, "pages": 1192, "count": 23828, "items": 20}}