{"users": [{"id": 4641, "slack_id": "U092EC5SSV6", "display_name": "Prajwal Dharme", "bio": null, "projects_count": 0, "devlogs_count": 0, "votes_count": 0, "ships_count": 0, "projects": [], "coding_time_seconds": 0, "coding_time_seconds_today": 0, "balance": "You need to have a pocket watcher badge to view this.", "badges": [], "created_at": "2025-06-17T00:24:39.419-04:00", "updated_at": "2025-07-03T19:32:18.704-04:00", "avatar": "https://secure.gravatar.com/avatar/955a621a8f8eac94c0007bcb0cd916dd.jpg?s=512&d=https%3A%2F%2Fa.slack-edge.com%2Fdf10d%2Fimg%2Favatars%2Fava_0012-512.png", "custom_css": null}, {"id": 4642, "slack_id": "U0921T7MHPT", "display_name": "bnabeen", "bio": null, "projects_count": 0, "devlogs_count": 0, "votes_count": 0, "ships_count": 0, "projects": [], "coding_time_seconds": 0, "coding_time_seconds_today": 0, "balance": "You need to have a pocket watcher badge to view this.", "badges": [], "created_at": "2025-06-17T00:24:43.364-04:00", "updated_at": "2025-07-03T19:32:18.964-04:00", "avatar": "https://secure.gravatar.com/avatar/fd324c62edfd46ef89e6e84846565e41.jpg?s=512&d=https%3A%2F%2Fa.slack-edge.com%2Fdf10d%2Fimg%2Favatars%2Fava_0001-512.png", "custom_css": null}, {"id": 4643, "slack_id": "U07FGNQB7SQ", "display_name": "Spyros Catechis", "bio": null, "projects_count": 0, "devlogs_count": 0, "votes_count": 0, "ships_count": 0, "projects": [], "coding_time_seconds": 154875, "coding_time_seconds_today": 0, "balance": "You need to have a pocket watcher badge to view this.", "badges": [], "created_at": "2025-06-17T00:25:03.594-04:00", "updated_at": "2025-07-03T19:32:19.240-04:00", "avatar": "https://avatars.slack-edge.com/2024-08-04/7509738557111_02cf1d1339fdf9aef40d_original.png", "custom_css": null}, {"id": 4644, "slack_id": "U091SDJP9MJ", "display_name": "Mouaad ELHANSALI", "bio": null, "projects_count": 0, "devlogs_count": 0, "votes_count": 0, "ships_count": 0, "projects": [], "coding_time_seconds": 0, "coding_time_seconds_today": 0, "balance": "You need to have a pocket watcher badge to view this.", "badges": [], "created_at": "2025-06-17T00:26:11.386-04:00", "updated_at": "2025-07-03T19:32:19.513-04:00", "avatar": "https://secure.gravatar.com/avatar/3a0c1816915b0150dc0cd6642c7413e7.jpg?s=512&d=https%3A%2F%2Fa.slack-edge.com%2Fdf10d%2Fimg%2Favatars%2Fava_0011-512.png", "custom_css": null}, {"id": 4645, "slack_id": "U0856V82YKB", "display_name": "OG._.Rudra", "bio": null, "projects_count": 0, "devlogs_count": 12, "votes_count": 90, "ships_count": 0, "projects": [], "coding_time_seconds": 122095, "coding_time_seconds_today": 0, "balance": "You need to have a pocket watcher badge to view this.", "badges": [{"name": "Maiden Voyage", "text": "you shipped your first project! the journey begins...", "icon": "\ud83d\udea2"}], "created_at": "2025-06-17T00:26:16.772-04:00", "updated_at": "2025-09-10T22:53:29.027-04:00", "avatar": "https://avatars.slack-edge.com/2025-05-23/8930699922215_6208f24b2deee0e83413_original.jpg", "custom_css": null}, {"id": 4646, "slack_id": "U091K7BFR27", "display_name": "thewan", "bio": null, "projects_count": 0, "devlogs_count": 0, "votes_count": 0, "ships_count": 0, "projects": [], "coding_time_seconds": 0, "coding_time_seconds_today": 0, "balance": "You need to have a pocket watcher badge to view this.", "badges": [], "created_at": "2025-06-17T00:26:17.577-04:00", "updated_at": "2025-07-03T19:32:20.058-04:00", "avatar": "https://secure.gravatar.com/avatar/9bf221624d73ca39c435948a6f4a2668.jpg?s=512&d=https%3A%2F%2Fa.slack-edge.com%2Fdf10d%2Fimg%2Favatars%2Fava_0016-512.png", "custom_css": null}, {"id": 4647, "slack_id": "U091AN5DX0F", "display_name": "oter", "bio": null, "projects_count": 0, "devlogs_count": 0, "votes_count": 0, "ships_count": 0, "projects": [], "coding_time_seconds": 0, "coding_time_seconds_today": 0, "balance": "You need to have a pocket watcher badge to view this.", "badges": [], "created_at": "2025-06-17T00:26:36.928-04:00", "updated_at": "2025-08-24T06:01:41.814-04:00", "avatar": "https://avatars.slack-edge.com/2025-06-17/9082646837632_e6ce3ef0bf57e0b036f6_original.png", "custom_css": null}, {"id": 4648, "slack_id": "U091KA84G94", "display_name": "Vishal Patole", "bio": null, "projects_count": 0, "devlogs_count": 0, "votes_count": 0, "ships_count": 0, "projects": [], "coding_time_seconds": 318, "coding_time_seconds_today": 0, "balance": "You need to have a pocket watcher badge to view this.", "badges": [], "created_at": "2025-06-17T00:26:39.876-04:00", "updated_at": "2025-07-03T19:32:20.578-04:00", "avatar": "https://secure.gravatar.com/avatar/0b7528869d2a67a75b1afd28411aa0d1.jpg?s=512&d=https%3A%2F%2Fa.slack-edge.com%2Fdf10d%2Fimg%2Favatars%2Fava_0003-512.png", "custom_css": null}, {"id": 4649, "slack_id": "U091SDJMJE8", "display_name": "Furqan Ahmad", "bio": null, "projects_count": 0, "devlogs_count": 0, "votes_count": 0, "ships_count": 0, "projects": [], "coding_time_seconds": 0, "coding_time_seconds_today": 0, "balance": "You need to have a pocket watcher badge to view this.", "badges": [], "created_at": "2025-06-17T00:27:04.779-04:00", "updated_at": "2025-07-03T19:32:20.841-04:00", "avatar": "https://secure.gravatar.com/avatar/c0576a286fd944b95cb509ce0bf84907.jpg?s=512&d=https%3A%2F%2Fa.slack-edge.com%2Fdf10d%2Fimg%2Favatars%2Fava_0001-512.png", "custom_css": null}, {"id": 4650, "slack_id": "U091S4J4JQ2", "display_name": "Prashant Thakur", "bio": null, "projects_count": 0, "devlogs_count": 0, "votes_count": 0, "ships_count": 0, "projects": [], "coding_time_seconds": 103910, "coding_time_seconds_today": 4417, "balance": "You need to have a pocket watcher badge to view this.", "badges": [], "created_at": "2025-06-17T00:27:17.347-04:00", "updated_at": "2025-07-03T19:32:21.108-04:00", "avatar": "https://secure.gravatar.com/avatar/de5c6ef8f91930fc54eeb3836a628a76.jpg?s=512&d=https%3A%2F%2Fa.slack-edge.com%2Fdf10d%2Fimg%2Favatars%2Fava_0000-512.png", "custom_css": null}, {"id": 4651, "slack_id": "U091KALMG3Y", "display_name": "Braxton Hood", "bio": null, "projects_count": 0, "devlogs_count": 0, "votes_count": 0, "ships_count": 0, "projects": [], "coding_time_seconds": 0, "coding_time_seconds_today": 0, "balance": "You need to have a pocket watcher badge to view this.", "badges": [], "created_at": "2025-06-17T00:27:43.357-04:00", "updated_at": "2025-07-03T19:32:21.375-04:00", "avatar": "https://secure.gravatar.com/avatar/0b09c8e95ca62be8fe9170664dbd6b9a.jpg?s=512&d=https%3A%2F%2Fa.slack-edge.com%2Fdf10d%2Fimg%2Favatars%2Fava_0000-512.png", "custom_css": null}, {"id": 4652, "slack_id": "U0924L4AW57", "display_name": "Jana Mohmmed Gamal Elframawy", "bio": null, "projects_count": 0, "devlogs_count": 0, "votes_count": 0, "ships_count": 0, "projects": [], "coding_time_seconds": 0, "coding_time_seconds_today": 0, "balance": "You need to have a pocket watcher badge to view this.", "badges": [], "created_at": "2025-06-17T00:27:45.788-04:00", "updated_at": "2025-07-03T19:32:21.644-04:00", "avatar": "https://secure.gravatar.com/avatar/87faee41404c7e339bf0aa45d75a38b9.jpg?s=512&d=https%3A%2F%2Fa.slack-edge.com%2Fdf10d%2Fimg%2Favatars%2Fava_0007-512.png", "custom_css": null}, {"id": 4653, "slack_id": "U07HERPRYS0", "display_name": "Soham Sahasrabuddhe", "bio": null, "projects_count": 0, "devlogs_count": 0, "votes_count": 0, "ships_count": 0, "projects": [], "coding_time_seconds": 24580, "coding_time_seconds_today": 0, "balance": "You need to have a pocket watcher badge to view this.", "badges": [], "created_at": "2025-06-17T00:28:24.060-04:00", "updated_at": "2025-07-03T19:32:21.908-04:00", "avatar": "https://secure.gravatar.com/avatar/4bb0668377a83b80af83490eaa6711df.jpg?s=512&d=https%3A%2F%2Fa.slack-edge.com%2Fdf10d%2Fimg%2Favatars%2Fava_0011-512.png", "custom_css": null}, {"id": 4654, "slack_id": "U091KAWB7E2", "display_name": "Aryan Sharma", "bio": null, "projects_count": 0, "devlogs_count": 0, "votes_count": 0, "ships_count": 0, "projects": [], "coding_time_seconds": 693825, "coding_time_seconds_today": 3548, "balance": "You need to have a pocket watcher badge to view this.", "badges": [], "created_at": "2025-06-17T00:28:34.127-04:00", "updated_at": "2025-07-03T19:32:22.168-04:00", "avatar": "https://secure.gravatar.com/avatar/a16454577931059ba67680b75afe6ed9.jpg?s=512&d=https%3A%2F%2Fa.slack-edge.com%2Fdf10d%2Fimg%2Favatars%2Fava_0022-512.png", "custom_css": null}, {"id": 4655, "slack_id": "U092EFP1U00", "display_name": "aster", "bio": null, "projects_count": 0, "devlogs_count": 0, "votes_count": 0, "ships_count": 0, "projects": [], "coding_time_seconds": 0, "coding_time_seconds_today": 0, "balance": "You need to have a pocket watcher badge to view this.", "badges": [], "created_at": "2025-06-17T00:28:34.309-04:00", "updated_at": "2025-07-03T19:32:22.439-04:00", "avatar": "https://secure.gravatar.com/avatar/ef1590def86c5f743c6538ddaece9c4c.jpg?s=512&d=https%3A%2F%2Fa.slack-edge.com%2Fdf10d%2Fimg%2Favatars%2Fava_0008-512.png", "custom_css": null}, {"id": 4656, "slack_id": "U091H5U00UW", "display_name": "Suryansh", "bio": null, "projects_count": 0, "devlogs_count": 0, "votes_count": 0, "ships_count": 0, "projects": [], "coding_time_seconds": 3771, "coding_time_seconds_today": 0, "balance": "You need to have a pocket watcher badge to view this.", "badges": [], "created_at": "2025-06-17T00:28:38.522-04:00", "updated_at": "2025-07-03T19:32:22.721-04:00", "avatar": "https://secure.gravatar.com/avatar/9dd67e351805f0e108591aa0d76e0c2a.jpg?s=512&d=https%3A%2F%2Fa.slack-edge.com%2Fdf10d%2Fimg%2Favatars%2Fava_0010-512.png", "custom_css": null}, {"id": 4657, "slack_id": "U091QA5PULV", "display_name": "tania kalifa", "bio": null, "projects_count": 0, "devlogs_count": 0, "votes_count": 0, "ships_count": 0, "projects": [], "coding_time_seconds": 0, "coding_time_seconds_today": 0, "balance": "You need to have a pocket watcher badge to view this.", "badges": [], "created_at": "2025-06-17T00:29:07.324-04:00", "updated_at": "2025-07-03T19:32:22.993-04:00", "avatar": "https://secure.gravatar.com/avatar/9a6f0d069d28009f8ebfba3db0e02879.jpg?s=512&d=https%3A%2F%2Fa.slack-edge.com%2Fdf10d%2Fimg%2Favatars%2Fava_0007-512.png", "custom_css": null}, {"id": 4658, "slack_id": "U092EFM39T2", "display_name": "Kaushal", "bio": null, "projects_count": 0, "devlogs_count": 0, "votes_count": 0, "ships_count": 0, "projects": [], "coding_time_seconds": 0, "coding_time_seconds_today": 0, "balance": "You need to have a pocket watcher badge to view this.", "badges": [], "created_at": "2025-06-17T00:29:10.808-04:00", "updated_at": "2025-07-03T19:32:23.287-04:00", "avatar": "https://secure.gravatar.com/avatar/40f818565f79099dd252c49e499adb08.jpg?s=512&d=https%3A%2F%2Fa.slack-edge.com%2Fdf10d%2Fimg%2Favatars%2Fava_0005-512.png", "custom_css": null}, {"id": 4659, "slack_id": "U091SDP3YTE", "display_name": "geetam sai charan", "bio": null, "projects_count": 0, "devlogs_count": 0, "votes_count": 0, "ships_count": 0, "projects": [], "coding_time_seconds": 0, "coding_time_seconds_today": 0, "balance": "You need to have a pocket watcher badge to view this.", "badges": [], "created_at": "2025-06-17T00:29:23.265-04:00", "updated_at": "2025-07-03T19:32:23.569-04:00", "avatar": "https://avatars.slack-edge.com/2025-06-16/9053274117267_42a61a791b74b84c9e36_original.jpg", "custom_css": null}, {"id": 4660, "slack_id": "U091K7N79DZ", "display_name": "Timo M\u00f6ller", "bio": null, "projects_count": 0, "devlogs_count": 0, "votes_count": 0, "ships_count": 0, "projects": [], "coding_time_seconds": 0, "coding_time_seconds_today": 0, "balance": "You need to have a pocket watcher badge to view this.", "badges": [], "created_at": "2025-06-17T00:29:37.260-04:00", "updated_at": "2025-07-03T19:32:23.830-04:00", "avatar": "https://secure.gravatar.com/avatar/23a1f52b5de42b6a2ee52a319f6a8cf7.jpg?s=512&d=https%3A%2F%2Fa.slack-edge.com%2Fdf10d%2Fimg%2Favatars%2Fava_0020-512.png", "custom_css": null}], "pagination": {"page": 233, "pages": 1192, "count": 23828, "items": 20}}