{"users": [{"id": 4701, "slack_id": "U091K8KVBC3", "display_name": "Madhesh", "bio": null, "projects_count": 0, "devlogs_count": 0, "votes_count": 0, "ships_count": 0, "projects": [], "coding_time_seconds": 0, "coding_time_seconds_today": 0, "balance": "You need to have a pocket watcher badge to view this.", "badges": [], "created_at": "2025-06-17T00:39:15.342-04:00", "updated_at": "2025-07-03T19:32:34.316-04:00", "avatar": "https://secure.gravatar.com/avatar/0161425ed3ce8ea6f8f2129976410310.jpg?s=512&d=https%3A%2F%2Fa.slack-edge.com%2Fdf10d%2Fimg%2Favatars%2Fava_0004-512.png", "custom_css": null}, {"id": 4702, "slack_id": "U091SEAFRAQ", "display_name": "Yash Raj", "bio": null, "projects_count": 0, "devlogs_count": 0, "votes_count": 0, "ships_count": 0, "projects": [], "coding_time_seconds": 48480, "coding_time_seconds_today": 0, "balance": "You need to have a pocket watcher badge to view this.", "badges": [], "created_at": "2025-06-17T00:39:22.815-04:00", "updated_at": "2025-07-05T14:05:57.716-04:00", "avatar": "https://secure.gravatar.com/avatar/68a5e6e6d606a5d0d756fa1242def490.jpg?s=512&d=https%3A%2F%2Fa.slack-edge.com%2Fdf10d%2Fimg%2Favatars%2Fava_0008-512.png", "custom_css": null}, {"id": 4703, "slack_id": "U08BLQCCM6W", "display_name": "Shivam S", "bio": null, "projects_count": 0, "devlogs_count": 0, "votes_count": 0, "ships_count": 0, "projects": [], "coding_time_seconds": 0, "coding_time_seconds_today": 0, "balance": "You need to have a pocket watcher badge to view this.", "badges": [], "created_at": "2025-06-17T00:39:38.032-04:00", "updated_at": "2025-07-03T19:32:34.722-04:00", "avatar": "https://avatars.slack-edge.com/2025-02-03/8417646550320_d98cad08120bc5a2e9ac_original.png", "custom_css": null}, {"id": 4704, "slack_id": "U081X1VAA22", "display_name": "LSH", "bio": null, "projects_count": 0, "devlogs_count": 0, "votes_count": 0, "ships_count": 0, "projects": [], "coding_time_seconds": 202622, "coding_time_seconds_today": 0, "balance": "You need to have a pocket watcher badge to view this.", "badges": [], "created_at": "2025-06-17T00:39:44.588-04:00", "updated_at": "2025-07-03T19:32:34.986-04:00", "avatar": "https://secure.gravatar.com/avatar/2bf8a2cf5b82c97cb1f16e3cbde66dea.jpg?s=512&d=https%3A%2F%2Fa.slack-edge.com%2Fdf10d%2Fimg%2Favatars%2Fava_0015-512.png", "custom_css": null}, {"id": 4705, "slack_id": "U07B2JT9CE4", "display_name": "S.R", "bio": null, "projects_count": 3, "devlogs_count": 3, "votes_count": 40, "ships_count": 3, "projects": [{"id": 12971, "title": "New Diary", "devlogs_count": 1, "created_at": "2025-09-06T11:06:11.741-04:00"}, {"id": 10086, "title": "Bird's Catalog", "devlogs_count": 1, "created_at": "2025-08-03T23:54:29.107-04:00"}, {"id": 6047, "title": "Fortune Cookie", "devlogs_count": 1, "created_at": "2025-07-10T07:54:04.448-04:00"}], "coding_time_seconds": 386235, "coding_time_seconds_today": 0, "balance": "You need to have a pocket watcher badge to view this.", "badges": [{"name": "Maiden Voyage", "text": "you shipped your first project! the journey begins...", "icon": "\ud83d\udea2"}], "created_at": "2025-06-17T00:39:51.555-04:00", "updated_at": "2025-09-10T22:53:30.400-04:00", "avatar": "https://secure.gravatar.com/avatar/d465139ea49dd11f99500a2e217b0ca6.jpg?s=512&d=https%3A%2F%2Fa.slack-edge.com%2Fdf10d%2Fimg%2Favatars%2Fava_0015-512.png", "custom_css": null}, {"id": 4706, "slack_id": "U0924M7PKUZ", "display_name": "Piyush Singh Tomar", "bio": null, "projects_count": 0, "devlogs_count": 0, "votes_count": 0, "ships_count": 0, "projects": [], "coding_time_seconds": 0, "coding_time_seconds_today": 0, "balance": "You need to have a pocket watcher badge to view this.", "badges": [], "created_at": "2025-06-17T00:40:17.121-04:00", "updated_at": "2025-07-04T02:23:38.555-04:00", "avatar": "https://secure.gravatar.com/avatar/27d54bcbc813f16670b5a388d30ddf09.jpg?s=512&d=https%3A%2F%2Fa.slack-edge.com%2Fdf10d%2Fimg%2Favatars%2Fava_0004-512.png", "custom_css": null}, {"id": 4707, "slack_id": "U07B7K5QA81", "display_name": "Samuel Lim", "bio": null, "projects_count": 1, "devlogs_count": 0, "votes_count": 0, "ships_count": 0, "projects": [{"id": 698, "title": "iWater Landing Page", "devlogs_count": 0, "created_at": "2025-06-17T05:41:04.878-04:00"}], "coding_time_seconds": 15153, "coding_time_seconds_today": 0, "balance": "You need to have a pocket watcher badge to view this.", "badges": [], "created_at": "2025-06-17T00:40:23.845-04:00", "updated_at": "2025-07-03T19:32:35.648-04:00", "avatar": "https://avatars.slack-edge.com/2024-07-03/7391775797728_a689c850c64684874492_original.jpg", "custom_css": null}, {"id": 4708, "slack_id": "U091S5UQT42", "display_name": "saunue", "bio": null, "projects_count": 0, "devlogs_count": 36, "votes_count": 2, "ships_count": 0, "projects": [], "coding_time_seconds": 894308, "coding_time_seconds_today": 0, "balance": "You need to have a pocket watcher badge to view this.", "badges": [{"name": "Maiden Voyage", "text": "you shipped your first project! the journey begins...", "icon": "\ud83d\udea2"}], "created_at": "2025-06-17T00:40:27.648-04:00", "updated_at": "2025-09-10T22:53:30.476-04:00", "avatar": "https://secure.gravatar.com/avatar/c1915a3082ffe00f513800cbd7b7b7b1.jpg?s=512&d=https%3A%2F%2Fa.slack-edge.com%2Fdf10d%2Fimg%2Favatars%2Fava_0009-512.png", "custom_css": null}, {"id": 4709, "slack_id": "U092EGFMV8Q", "display_name": "Sanjay Kumar Yadav", "bio": null, "projects_count": 0, "devlogs_count": 0, "votes_count": 0, "ships_count": 0, "projects": [], "coding_time_seconds": 512, "coding_time_seconds_today": 0, "balance": "You need to have a pocket watcher badge to view this.", "badges": [], "created_at": "2025-06-17T00:40:35.739-04:00", "updated_at": "2025-07-03T19:32:36.195-04:00", "avatar": "https://secure.gravatar.com/avatar/9030c106a6dae63c6bd1419ed7651f5d.jpg?s=512&d=https%3A%2F%2Fa.slack-edge.com%2Fdf10d%2Fimg%2Favatars%2Fava_0013-512.png", "custom_css": null}, {"id": 4710, "slack_id": "U0924MCLK4H", "display_name": "Aaryash", "bio": null, "projects_count": 0, "devlogs_count": 0, "votes_count": 0, "ships_count": 0, "projects": [], "coding_time_seconds": 0, "coding_time_seconds_today": 0, "balance": "You need to have a pocket watcher badge to view this.", "badges": [], "created_at": "2025-06-17T00:40:54.943-04:00", "updated_at": "2025-07-03T19:32:36.466-04:00", "avatar": "https://secure.gravatar.com/avatar/d5233df0fd43e0793026575524fd38a9.jpg?s=512&d=https%3A%2F%2Fa.slack-edge.com%2Fdf10d%2Fimg%2Favatars%2Fava_0015-512.png", "custom_css": null}, {"id": 4711, "slack_id": "U06RAP623JT", "display_name": "Recap7", "bio": null, "projects_count": 1, "devlogs_count": 2, "votes_count": 16, "ships_count": 1, "projects": [{"id": 10864, "title": "Mind Reader ", "devlogs_count": 1, "created_at": "2025-08-11T11:57:55.150-04:00"}], "coding_time_seconds": 31010, "coding_time_seconds_today": 0, "balance": "You need to have a pocket watcher badge to view this.", "badges": [{"name": "Maiden Voyage", "text": "you shipped your first project! the journey begins...", "icon": "\ud83d\udea2"}], "created_at": "2025-06-17T00:41:03.527-04:00", "updated_at": "2025-09-10T22:53:30.548-04:00", "avatar": "https://avatars.slack-edge.com/2025-04-14/8756147002002_0bcc94fa4f6587e72d01_original.jpg", "custom_css": null}, {"id": 4712, "slack_id": "U091APBRL15", "display_name": "Amin Yazdanshenas", "bio": null, "projects_count": 0, "devlogs_count": 0, "votes_count": 0, "ships_count": 0, "projects": [], "coding_time_seconds": 0, "coding_time_seconds_today": 0, "balance": "You need to have a pocket watcher badge to view this.", "badges": [], "created_at": "2025-06-17T00:41:08.659-04:00", "updated_at": "2025-07-03T19:32:36.996-04:00", "avatar": "https://avatars.slack-edge.com/2025-06-16/9082577922704_530a9877f7624cd46e09_original.png", "custom_css": null}, {"id": 4713, "slack_id": "U08TRT6DB2R", "display_name": "Devshree Mistry", "bio": null, "projects_count": 0, "devlogs_count": 0, "votes_count": 0, "ships_count": 0, "projects": [], "coding_time_seconds": 0, "coding_time_seconds_today": 0, "balance": "You need to have a pocket watcher badge to view this.", "badges": [], "created_at": "2025-06-17T00:41:14.890-04:00", "updated_at": "2025-07-03T19:32:37.269-04:00", "avatar": "https://avatars.slack-edge.com/2025-05-23/8943932531861_818021cb6dc0d633eb72_original.png", "custom_css": null}, {"id": 4714, "slack_id": "U091KC0887Q", "display_name": "Ho\u00e0ng Nguy\u1ec5n", "bio": null, "projects_count": 0, "devlogs_count": 0, "votes_count": 0, "ships_count": 0, "projects": [], "coding_time_seconds": 0, "coding_time_seconds_today": 0, "balance": "You need to have a pocket watcher badge to view this.", "badges": [], "created_at": "2025-06-17T00:41:29.063-04:00", "updated_at": "2025-07-03T19:32:37.641-04:00", "avatar": "https://avatars.slack-edge.com/2025-06-16/9058402237077_9dac33c4590948d8d572_original.jpg", "custom_css": null}, {"id": 4715, "slack_id": "U091S5VN9QS", "display_name": "Navaneeth S", "bio": null, "projects_count": 0, "devlogs_count": 0, "votes_count": 0, "ships_count": 0, "projects": [], "coding_time_seconds": 51392, "coding_time_seconds_today": 0, "balance": "You need to have a pocket watcher badge to view this.", "badges": [], "created_at": "2025-06-17T00:41:49.873-04:00", "updated_at": "2025-07-03T19:32:37.920-04:00", "avatar": "https://avatars.slack-edge.com/2025-06-16/9053421953094_b2fcee33144d5deaac09_original.png", "custom_css": null}, {"id": 4716, "slack_id": "U092BLY1SHW", "display_name": "Krishna", "bio": null, "projects_count": 0, "devlogs_count": 0, "votes_count": 0, "ships_count": 0, "projects": [], "coding_time_seconds": 281325, "coding_time_seconds_today": 0, "balance": "You need to have a pocket watcher badge to view this.", "badges": [], "created_at": "2025-06-17T00:42:19.783-04:00", "updated_at": "2025-07-03T19:32:38.208-04:00", "avatar": "https://secure.gravatar.com/avatar/83730f4542f03321faea8e7c544d6be6.jpg?s=512&d=https%3A%2F%2Fa.slack-edge.com%2Fdf10d%2Fimg%2Favatars%2Fava_0020-512.png", "custom_css": null}, {"id": 4717, "slack_id": "U091KBYTAG6", "display_name": "Echo Inbyte", "bio": null, "projects_count": 0, "devlogs_count": 30, "votes_count": 1, "ships_count": 0, "projects": [], "coding_time_seconds": 633155, "coding_time_seconds_today": 0, "balance": "You need to have a pocket watcher badge to view this.", "badges": [{"name": "Yapper I", "text": "Posted 10 comments on devlogs.", "icon": "\ud83d\udcac"}], "created_at": "2025-06-17T00:42:27.268-04:00", "updated_at": "2025-09-10T22:53:30.684-04:00", "avatar": "https://avatars.slack-edge.com/2025-06-16/9044814224535_74bb10ac6083de6112bc_original.jpg", "custom_css": null}, {"id": 4718, "slack_id": "U091KB873RU", "display_name": "Mayeda", "bio": null, "projects_count": 0, "devlogs_count": 0, "votes_count": 0, "ships_count": 0, "projects": [], "coding_time_seconds": 10477, "coding_time_seconds_today": 0, "balance": "You need to have a pocket watcher badge to view this.", "badges": [], "created_at": "2025-06-17T00:42:47.455-04:00", "updated_at": "2025-08-20T20:21:42.846-04:00", "avatar": "https://secure.gravatar.com/avatar/806a6157bf158d878df8517c492e98ad.jpg?s=512&d=https%3A%2F%2Fa.slack-edge.com%2Fdf10d%2Fimg%2Favatars%2Fava_0012-512.png", "custom_css": null}, {"id": 4719, "slack_id": "U091K90CK0B", "display_name": "Pooja K", "bio": null, "projects_count": 0, "devlogs_count": 0, "votes_count": 0, "ships_count": 0, "projects": [], "coding_time_seconds": 6789, "coding_time_seconds_today": 0, "balance": "You need to have a pocket watcher badge to view this.", "badges": [], "created_at": "2025-06-17T00:42:50.416-04:00", "updated_at": "2025-07-03T19:32:39.013-04:00", "avatar": "https://avatars.slack-edge.com/2025-06-16/9060215199106_da35c69db78a40f627c8_original.jpg", "custom_css": null}, {"id": 4720, "slack_id": "U0924MJ8EG1", "display_name": "Matthew S", "bio": null, "projects_count": 0, "devlogs_count": 0, "votes_count": 0, "ships_count": 0, "projects": [], "coding_time_seconds": 0, "coding_time_seconds_today": 0, "balance": "You need to have a pocket watcher badge to view this.", "badges": [], "created_at": "2025-06-17T00:43:27.622-04:00", "updated_at": "2025-07-03T19:32:39.283-04:00", "avatar": "https://secure.gravatar.com/avatar/bb896dfc1de4b11e70eb7dab217cbe13.jpg?s=512&d=https%3A%2F%2Fa.slack-edge.com%2Fdf10d%2Fimg%2Favatars%2Fava_0021-512.png", "custom_css": null}], "pagination": {"page": 236, "pages": 1192, "count": 23828, "items": 20}}