{"users": [{"id": 4741, "slack_id": "U091S6FBWBU", "display_name": "Parikshit Shaktawat", "bio": null, "projects_count": 0, "devlogs_count": 0, "votes_count": 0, "ships_count": 0, "projects": [], "coding_time_seconds": 4626, "coding_time_seconds_today": 0, "balance": "You need to have a pocket watcher badge to view this.", "badges": [], "created_at": "2025-06-17T00:48:43.473-04:00", "updated_at": "2025-07-03T19:32:44.613-04:00", "avatar": "https://avatars.slack-edge.com/2025-06-16/9053442631350_8da0e2f30bbd4d0fff3a_original.png", "custom_css": null}, {"id": 4742, "slack_id": "U091SFE8ZNG", "display_name": "Krishna", "bio": null, "projects_count": 0, "devlogs_count": 0, "votes_count": 0, "ships_count": 0, "projects": [], "coding_time_seconds": 0, "coding_time_seconds_today": 0, "balance": "You need to have a pocket watcher badge to view this.", "badges": [], "created_at": "2025-06-17T00:49:02.419-04:00", "updated_at": "2025-07-03T19:32:44.878-04:00", "avatar": "https://secure.gravatar.com/avatar/9a057fc179298117f5769bf6a702fde7.jpg?s=512&d=https%3A%2F%2Fa.slack-edge.com%2Fdf10d%2Fimg%2Favatars%2Fava_0016-512.png", "custom_css": null}, {"id": 4743, "slack_id": "U0924MMGZ17", "display_name": "Vikas Singh", "bio": null, "projects_count": 0, "devlogs_count": 0, "votes_count": 0, "ships_count": 0, "projects": [], "coding_time_seconds": 0, "coding_time_seconds_today": 0, "balance": "You need to have a pocket watcher badge to view this.", "badges": [], "created_at": "2025-06-17T00:49:21.110-04:00", "updated_at": "2025-07-03T19:32:45.149-04:00", "avatar": "https://secure.gravatar.com/avatar/6886f9510f3f03a4860eb9f6c41eba83.jpg?s=512&d=https%3A%2F%2Fa.slack-edge.com%2Fdf10d%2Fimg%2Favatars%2Fava_0024-512.png", "custom_css": null}, {"id": 4744, "slack_id": "U091K9LG5PV", "display_name": "Kamyavardhan Dave", "bio": null, "projects_count": 0, "devlogs_count": 0, "votes_count": 0, "ships_count": 0, "projects": [], "coding_time_seconds": 0, "coding_time_seconds_today": 0, "balance": "You need to have a pocket watcher badge to view this.", "badges": [], "created_at": "2025-06-17T00:49:25.812-04:00", "updated_at": "2025-07-03T19:32:45.420-04:00", "avatar": "https://avatars.slack-edge.com/2025-06-16/9082602087008_05482dcfce3c58d4c987_original.jpg", "custom_css": null}, {"id": 4745, "slack_id": "U091AQBEEUX", "display_name": "Pavan Prasad", "bio": null, "projects_count": 0, "devlogs_count": 0, "votes_count": 0, "ships_count": 0, "projects": [], "coding_time_seconds": 0, "coding_time_seconds_today": 0, "balance": "You need to have a pocket watcher badge to view this.", "badges": [], "created_at": "2025-06-17T00:49:26.374-04:00", "updated_at": "2025-07-03T19:32:45.697-04:00", "avatar": "https://avatars.slack-edge.com/2025-06-16/9082601456544_b739de412580800b1bd4_original.jpg", "custom_css": null}, {"id": 4746, "slack_id": "U08UKFHG093", "display_name": "Sumanisfr", "bio": "", "projects_count": 0, "devlogs_count": 0, "votes_count": 0, "ships_count": 0, "projects": [], "coding_time_seconds": 0, "coding_time_seconds_today": 0, "balance": "You need to have a pocket watcher badge to view this.", "badges": [], "created_at": "2025-06-17T00:50:06.030-04:00", "updated_at": "2025-07-22T11:40:37.726-04:00", "avatar": "https://secure.gravatar.com/avatar/3cba2563236bd93fee3819a7efd64a03.jpg?s=512&d=https%3A%2F%2Fa.slack-edge.com%2Fdf10d%2Fimg%2Favatars%2Fava_0016-512.png", "custom_css": null}, {"id": 4747, "slack_id": "U091APQHD8F", "display_name": "Pramod Joshi", "bio": null, "projects_count": 0, "devlogs_count": 0, "votes_count": 0, "ships_count": 0, "projects": [], "coding_time_seconds": 1208, "coding_time_seconds_today": 0, "balance": "You need to have a pocket watcher badge to view this.", "badges": [], "created_at": "2025-06-17T00:50:06.268-04:00", "updated_at": "2025-07-03T19:32:46.137-04:00", "avatar": "https://secure.gravatar.com/avatar/383ef17420262c28e92c8ce5ee29fb06.jpg?s=512&d=https%3A%2F%2Fa.slack-edge.com%2Fdf10d%2Fimg%2Favatars%2Fava_0014-512.png", "custom_css": null}, {"id": 4748, "slack_id": "U091SFB1B5J", "display_name": "Rohan", "bio": null, "projects_count": 0, "devlogs_count": 0, "votes_count": 0, "ships_count": 0, "projects": [], "coding_time_seconds": 0, "coding_time_seconds_today": 0, "balance": "You need to have a pocket watcher badge to view this.", "badges": [], "created_at": "2025-06-17T00:50:09.356-04:00", "updated_at": "2025-07-03T19:32:46.432-04:00", "avatar": "https://secure.gravatar.com/avatar/dc1815bc1b283a9b6dde85a7ddcb28cf.jpg?s=512&d=https%3A%2F%2Fa.slack-edge.com%2Fdf10d%2Fimg%2Favatars%2Fava_0017-512.png", "custom_css": null}, {"id": 4749, "slack_id": "U088W2RFNQY", "display_name": "Berry", "bio": null, "projects_count": 1, "devlogs_count": 0, "votes_count": 0, "ships_count": 0, "projects": [{"id": 563, "title": "Guess the song", "devlogs_count": 0, "created_at": "2025-06-17T01:22:33.672-04:00"}], "coding_time_seconds": 1674, "coding_time_seconds_today": 0, "balance": "You need to have a pocket watcher badge to view this.", "badges": [], "created_at": "2025-06-17T00:50:10.478-04:00", "updated_at": "2025-08-25T19:35:43.910-04:00", "avatar": "https://avatars.slack-edge.com/2025-05-24/8945989430469_d8b34efd5b995a4bf550_original.png", "custom_css": null}, {"id": 4750, "slack_id": "U092EHAKKMW", "display_name": "DD", "bio": null, "projects_count": 0, "devlogs_count": 0, "votes_count": 0, "ships_count": 0, "projects": [], "coding_time_seconds": 0, "coding_time_seconds_today": 0, "balance": "You need to have a pocket watcher badge to view this.", "badges": [], "created_at": "2025-06-17T00:50:15.046-04:00", "updated_at": "2025-07-03T19:32:46.996-04:00", "avatar": "https://secure.gravatar.com/avatar/0d76aad2117e986b714830b15fb0b99d.jpg?s=512&d=https%3A%2F%2Fa.slack-edge.com%2Fdf10d%2Fimg%2Favatars%2Fava_0005-512.png", "custom_css": null}, {"id": 4751, "slack_id": "U091SFJ03S8", "display_name": "amjsk", "bio": null, "projects_count": 0, "devlogs_count": 0, "votes_count": 0, "ships_count": 0, "projects": [], "coding_time_seconds": 0, "coding_time_seconds_today": 0, "balance": "You need to have a pocket watcher badge to view this.", "badges": [], "created_at": "2025-06-17T00:50:46.440-04:00", "updated_at": "2025-07-03T19:32:47.265-04:00", "avatar": "https://secure.gravatar.com/avatar/c5342e579428e0b4387c1ae04595fd2d.jpg?s=512&d=https%3A%2F%2Fa.slack-edge.com%2Fdf10d%2Fimg%2Favatars%2Fava_0004-512.png", "custom_css": null}, {"id": 4752, "slack_id": "U091KCVM9M4", "display_name": "Vivian", "bio": null, "projects_count": 0, "devlogs_count": 0, "votes_count": 0, "ships_count": 0, "projects": [], "coding_time_seconds": 52680, "coding_time_seconds_today": 0, "balance": "You need to have a pocket watcher badge to view this.", "badges": [], "created_at": "2025-06-17T00:50:56.741-04:00", "updated_at": "2025-08-01T23:48:10.266-04:00", "avatar": "https://avatars.slack-edge.com/2025-06-16/9053343303107_9cb1444c24ffd9d0f2bc_original.jpg", "custom_css": null}, {"id": 4753, "slack_id": "U091KCPMJ5C", "display_name": "Prajwal", "bio": null, "projects_count": 0, "devlogs_count": 0, "votes_count": 0, "ships_count": 0, "projects": [], "coding_time_seconds": 163488, "coding_time_seconds_today": 0, "balance": "You need to have a pocket watcher badge to view this.", "badges": [], "created_at": "2025-06-17T00:51:12.304-04:00", "updated_at": "2025-07-03T19:32:47.799-04:00", "avatar": "https://secure.gravatar.com/avatar/87f681ba290784539906ad95475e97c8.jpg?s=512&d=https%3A%2F%2Fa.slack-edge.com%2Fdf10d%2Fimg%2Favatars%2Fava_0023-512.png", "custom_css": null}, {"id": 4754, "slack_id": "U091KCFJXGE", "display_name": "Mohnish Sivakumar", "bio": null, "projects_count": 0, "devlogs_count": 0, "votes_count": 0, "ships_count": 0, "projects": [], "coding_time_seconds": 3547, "coding_time_seconds_today": 0, "balance": "You need to have a pocket watcher badge to view this.", "badges": [], "created_at": "2025-06-17T00:51:16.448-04:00", "updated_at": "2025-07-03T19:32:48.056-04:00", "avatar": "https://avatars.slack-edge.com/2025-06-16/9072764203041_649465cf940562d235ab_original.png", "custom_css": null}, {"id": 4755, "slack_id": "U0924N4173K", "display_name": "Meera Saha", "bio": null, "projects_count": 0, "devlogs_count": 0, "votes_count": 0, "ships_count": 0, "projects": [], "coding_time_seconds": 0, "coding_time_seconds_today": 0, "balance": "You need to have a pocket watcher badge to view this.", "badges": [], "created_at": "2025-06-17T00:51:35.935-04:00", "updated_at": "2025-07-03T19:32:48.328-04:00", "avatar": "https://secure.gravatar.com/avatar/31e1e7e2f518ec6d204ba93d2ec46e69.jpg?s=512&d=https%3A%2F%2Fa.slack-edge.com%2Fdf10d%2Fimg%2Favatars%2Fava_0000-512.png", "custom_css": null}, {"id": 4756, "slack_id": "U091QCB1FQD", "display_name": "Cherukuri Asha Sri Valli", "bio": null, "projects_count": 0, "devlogs_count": 0, "votes_count": 0, "ships_count": 0, "projects": [], "coding_time_seconds": 0, "coding_time_seconds_today": 0, "balance": "You need to have a pocket watcher badge to view this.", "badges": [], "created_at": "2025-06-17T00:51:38.876-04:00", "updated_at": "2025-07-03T19:32:48.587-04:00", "avatar": "https://secure.gravatar.com/avatar/5314856f43a31827f46c83d592683de9.jpg?s=512&d=https%3A%2F%2Fa.slack-edge.com%2Fdf10d%2Fimg%2Favatars%2Fava_0014-512.png", "custom_css": null}, {"id": 4757, "slack_id": "U091SFR78LU", "display_name": "Josh", "bio": null, "projects_count": 0, "devlogs_count": 0, "votes_count": 0, "ships_count": 0, "projects": [], "coding_time_seconds": 0, "coding_time_seconds_today": 0, "balance": "You need to have a pocket watcher badge to view this.", "badges": [], "created_at": "2025-06-17T00:52:01.446-04:00", "updated_at": "2025-07-03T19:32:48.854-04:00", "avatar": "https://secure.gravatar.com/avatar/e31467fc277c17727da358d47595e973.jpg?s=512&d=https%3A%2F%2Fa.slack-edge.com%2Fdf10d%2Fimg%2Favatars%2Fava_0009-512.png", "custom_css": null}, {"id": 4758, "slack_id": "U086ZLEPW7L", "display_name": "Ansh Dhandia", "bio": "", "projects_count": 0, "devlogs_count": 30, "votes_count": 75, "ships_count": 0, "projects": [], "coding_time_seconds": 315273, "coding_time_seconds_today": 0, "balance": "You need to have a pocket watcher badge to view this.", "badges": [{"name": "Maiden Voyage", "text": "you shipped your first project! the journey begins...", "icon": "\ud83d\udea2"}], "created_at": "2025-06-17T00:52:07.333-04:00", "updated_at": "2025-09-11T11:20:50.025-04:00", "avatar": "https://avatars.slack-edge.com/2025-01-01/8240217439108_fb2ade86904a248ab06c_original.jpg", "custom_css": null}, {"id": 4759, "slack_id": "U091KCH3VHC", "display_name": "Joy", "bio": null, "projects_count": 0, "devlogs_count": 0, "votes_count": 0, "ships_count": 0, "projects": [], "coding_time_seconds": 0, "coding_time_seconds_today": 0, "balance": "You need to have a pocket watcher badge to view this.", "badges": [], "created_at": "2025-06-17T00:52:17.673-04:00", "updated_at": "2025-07-03T19:32:49.397-04:00", "avatar": "https://secure.gravatar.com/avatar/2d921cb314f1e5ed9020a0de77588145.jpg?s=512&d=https%3A%2F%2Fa.slack-edge.com%2Fdf10d%2Fimg%2Favatars%2Fava_0019-512.png", "custom_css": null}, {"id": 4760, "slack_id": "U06MSFGJ2E5", "display_name": "Vinay Reddy", "bio": null, "projects_count": 0, "devlogs_count": 0, "votes_count": 0, "ships_count": 0, "projects": [], "coding_time_seconds": 208959, "coding_time_seconds_today": 5325, "balance": "You need to have a pocket watcher badge to view this.", "badges": [], "created_at": "2025-06-17T00:52:20.415-04:00", "updated_at": "2025-07-03T19:32:49.662-04:00", "avatar": "https://secure.gravatar.com/avatar/b377c8a003e50a0aaf619faba96cc627.jpg?s=512&d=https%3A%2F%2Fa.slack-edge.com%2Fdf10d%2Fimg%2Favatars%2Fava_0015-512.png", "custom_css": null}], "pagination": {"page": 238, "pages": 1192, "count": 23828, "items": 20}}