{"users": [{"id": 4761, "slack_id": "U092EHPSBNC", "display_name": "sebastian", "bio": null, "projects_count": 0, "devlogs_count": 0, "votes_count": 0, "ships_count": 0, "projects": [], "coding_time_seconds": 0, "coding_time_seconds_today": 0, "balance": "You need to have a pocket watcher badge to view this.", "badges": [], "created_at": "2025-06-17T00:53:03.401-04:00", "updated_at": "2025-07-03T21:42:08.881-04:00", "avatar": "https://secure.gravatar.com/avatar/da450509c6efcb7ed383e5b456811e81.jpg?s=512&d=https%3A%2F%2Fa.slack-edge.com%2Fdf10d%2Fimg%2Favatars%2Fava_0008-512.png", "custom_css": null}, {"id": 4762, "slack_id": "U0924NBJDUH", "display_name": "Aditya Gaikar", "bio": null, "projects_count": 1, "devlogs_count": 0, "votes_count": 0, "ships_count": 0, "projects": [{"id": 561, "title": "AI Youtube Short Video Generator", "devlogs_count": 0, "created_at": "2025-06-17T01:19:27.869-04:00"}], "coding_time_seconds": 122, "coding_time_seconds_today": 0, "balance": "You need to have a pocket watcher badge to view this.", "badges": [], "created_at": "2025-06-17T00:54:19.895-04:00", "updated_at": "2025-07-03T19:32:50.055-04:00", "avatar": "https://avatars.slack-edge.com/2025-06-16/9060553906388_61627f55707405d8f293_original.png", "custom_css": null}, {"id": 4763, "slack_id": "U07B1LWRB5E", "display_name": "Ole dergeile", "bio": null, "projects_count": 1, "devlogs_count": 16, "votes_count": 3, "ships_count": 0, "projects": [{"id": 1836, "title": "Jumping-Dino", "devlogs_count": 16, "created_at": "2025-06-19T11:41:34.201-04:00"}], "coding_time_seconds": 70983, "coding_time_seconds_today": 0, "balance": "You need to have a pocket watcher badge to view this.", "badges": [], "created_at": "2025-06-17T00:55:02.615-04:00", "updated_at": "2025-07-03T19:32:50.318-04:00", "avatar": "https://avatars.slack-edge.com/2025-06-18/9062715363059_d14048ccaae3a8114c9d_original.jpg", "custom_css": null}, {"id": 4764, "slack_id": "U091K9QSE5R", "display_name": "abhi0ram", "bio": null, "projects_count": 0, "devlogs_count": 0, "votes_count": 0, "ships_count": 0, "projects": [], "coding_time_seconds": 0, "coding_time_seconds_today": 0, "balance": "You need to have a pocket watcher badge to view this.", "badges": [], "created_at": "2025-06-17T00:55:04.807-04:00", "updated_at": "2025-07-03T19:32:50.584-04:00", "avatar": "https://secure.gravatar.com/avatar/1c49efd4dc123a53432d1772ec1b9825.jpg?s=512&d=https%3A%2F%2Fa.slack-edge.com%2Fdf10d%2Fimg%2Favatars%2Fava_0013-512.png", "custom_css": null}, {"id": 4765, "slack_id": "U091R9Y6HFE", "display_name": "Joshua Wolfson", "bio": null, "projects_count": 6, "devlogs_count": 6, "votes_count": 17, "ships_count": 1, "projects": [{"id": 2485, "title": "onCue", "devlogs_count": 1, "created_at": "2025-06-21T05:59:36.467-04:00"}, {"id": 5201, "title": "SineWaver", "devlogs_count": 1, "created_at": "2025-07-03T17:28:57.166-04:00"}, {"id": 6280, "title": "CableChecker", "devlogs_count": 0, "created_at": "2025-07-12T00:15:41.817-04:00"}, {"id": 10729, "title": "Audio Toolbox", "devlogs_count": 1, "created_at": "2025-08-10T05:54:28.490-04:00"}, {"id": 13510, "title": "PFP Swapper", "devlogs_count": 1, "created_at": "2025-09-18T07:59:28.992-04:00"}, {"id": 5431, "title": "Hackclub Events", "devlogs_count": 2, "created_at": "2025-07-05T09:05:04.656-04:00"}], "coding_time_seconds": 326346, "coding_time_seconds_today": 0, "balance": "You need to have a pocket watcher badge to view this.", "badges": [{"name": "Maiden Voyage", "text": "you shipped your first project! the journey begins...", "icon": "\ud83d\udea2"}, {"name": "Verified", "text": "this user is verified (i.e. gave us $8)", "icon": "https://summer.hackclub.com/assets/verified-c9457a9f.png"}], "created_at": "2025-06-17T00:55:19.325-04:00", "updated_at": "2025-09-24T18:21:22.952-04:00", "avatar": "https://avatars.slack-edge.com/2025-09-25/9605718295200_eb21c6fb645937f69ee7_original.png", "custom_css": null}, {"id": 4766, "slack_id": "U092EHQTH5W", "display_name": "Sujal Bishnoi", "bio": null, "projects_count": 1, "devlogs_count": 1, "votes_count": 0, "ships_count": 0, "projects": [{"id": 1266, "title": "An Ai tech chatbot", "devlogs_count": 1, "created_at": "2025-06-18T03:21:03.783-04:00"}], "coding_time_seconds": 24416, "coding_time_seconds_today": 0, "balance": "You need to have a pocket watcher badge to view this.", "badges": [], "created_at": "2025-06-17T00:55:19.960-04:00", "updated_at": "2025-07-03T19:32:51.099-04:00", "avatar": "https://avatars.slack-edge.com/2025-06-16/9058441486837_f47e320da2d5ebeadce6_original.png", "custom_css": null}, {"id": 4767, "slack_id": "U091AQC3YTZ", "display_name": "Jonc", "bio": null, "projects_count": 0, "devlogs_count": 0, "votes_count": 0, "ships_count": 0, "projects": [], "coding_time_seconds": 0, "coding_time_seconds_today": 0, "balance": "You need to have a pocket watcher badge to view this.", "badges": [], "created_at": "2025-06-17T00:55:33.475-04:00", "updated_at": "2025-07-03T19:32:51.363-04:00", "avatar": "https://secure.gravatar.com/avatar/f567876beec5e0d1d4ee5f110139c746.jpg?s=512&d=https%3A%2F%2Fa.slack-edge.com%2Fdf10d%2Fimg%2Favatars%2Fava_0005-512.png", "custom_css": null}, {"id": 4768, "slack_id": "U07HBQXE64B", "display_name": "Blue", "bio": null, "projects_count": 0, "devlogs_count": 0, "votes_count": 0, "ships_count": 0, "projects": [], "coding_time_seconds": 0, "coding_time_seconds_today": 0, "balance": "You need to have a pocket watcher badge to view this.", "badges": [], "created_at": "2025-06-17T00:55:49.367-04:00", "updated_at": "2025-07-03T19:32:51.622-04:00", "avatar": "https://avatars.slack-edge.com/2024-08-17/7602618366609_9b0601c76c8690aa3284_original.jpg", "custom_css": null}, {"id": 4769, "slack_id": "U016NRK0N1H", "display_name": "Agrim", "bio": null, "projects_count": 0, "devlogs_count": 0, "votes_count": 0, "ships_count": 0, "projects": [], "coding_time_seconds": 0, "coding_time_seconds_today": 0, "balance": "You need to have a pocket watcher badge to view this.", "badges": [], "created_at": "2025-06-17T00:55:55.045-04:00", "updated_at": "2025-07-03T19:32:52.107-04:00", "avatar": "https://avatars.slack-edge.com/2020-09-03/1325828643703_db8e3fc817985c18e47b_original.jpg", "custom_css": null}, {"id": 4770, "slack_id": "U091AQMEJT1", "display_name": "Harsha", "bio": null, "projects_count": 0, "devlogs_count": 0, "votes_count": 0, "ships_count": 0, "projects": [], "coding_time_seconds": 0, "coding_time_seconds_today": 0, "balance": "You need to have a pocket watcher badge to view this.", "badges": [], "created_at": "2025-06-17T00:55:55.414-04:00", "updated_at": "2025-07-03T19:32:52.392-04:00", "avatar": "https://secure.gravatar.com/avatar/c60afeb3877f53cd44bcee99ad766d4f.jpg?s=512&d=https%3A%2F%2Fa.slack-edge.com%2Fdf10d%2Fimg%2Favatars%2Fava_0009-512.png", "custom_css": null}, {"id": 4771, "slack_id": "U091S72BL3C", "display_name": "jia yuan", "bio": null, "projects_count": 0, "devlogs_count": 0, "votes_count": 0, "ships_count": 0, "projects": [], "coding_time_seconds": 0, "coding_time_seconds_today": 0, "balance": "You need to have a pocket watcher badge to view this.", "badges": [], "created_at": "2025-06-17T00:56:40.099-04:00", "updated_at": "2025-07-03T19:32:52.658-04:00", "avatar": "https://secure.gravatar.com/avatar/3715bf204128db8f5ce3c023bceb82fc.jpg?s=512&d=https%3A%2F%2Fa.slack-edge.com%2Fdf10d%2Fimg%2Favatars%2Fava_0022-512.png", "custom_css": null}, {"id": 4772, "slack_id": "U091SG58TC4", "display_name": "Chandra Prakash", "bio": null, "projects_count": 0, "devlogs_count": 0, "votes_count": 0, "ships_count": 0, "projects": [], "coding_time_seconds": 0, "coding_time_seconds_today": 0, "balance": "You need to have a pocket watcher badge to view this.", "badges": [], "created_at": "2025-06-17T00:57:00.508-04:00", "updated_at": "2025-07-03T19:32:52.916-04:00", "avatar": "https://secure.gravatar.com/avatar/177b8bf0a242d46bd1db58d06a0af81c.jpg?s=512&d=https%3A%2F%2Fa.slack-edge.com%2Fdf10d%2Fimg%2Favatars%2Fava_0009-512.png", "custom_css": null}, {"id": 4773, "slack_id": "U092EHV3656", "display_name": "mostafa saied", "bio": null, "projects_count": 1, "devlogs_count": 3, "votes_count": 0, "ships_count": 0, "projects": [{"id": 3215, "title": "TickTocky", "devlogs_count": 3, "created_at": "2025-06-23T13:36:07.867-04:00"}], "coding_time_seconds": 629800, "coding_time_seconds_today": 2065, "balance": "You need to have a pocket watcher badge to view this.", "badges": [], "created_at": "2025-06-17T00:57:26.198-04:00", "updated_at": "2025-07-03T19:32:53.182-04:00", "avatar": "https://secure.gravatar.com/avatar/12767f04f53376d4890ab5a3d9e4a662.jpg?s=512&d=https%3A%2F%2Fa.slack-edge.com%2Fdf10d%2Fimg%2Favatars%2Fava_0014-512.png", "custom_css": null}, {"id": 4774, "slack_id": "U0924NKAU73", "display_name": "minigue", "bio": null, "projects_count": 0, "devlogs_count": 0, "votes_count": 0, "ships_count": 0, "projects": [], "coding_time_seconds": 8460, "coding_time_seconds_today": 0, "balance": "You need to have a pocket watcher badge to view this.", "badges": [], "created_at": "2025-06-17T00:57:30.036-04:00", "updated_at": "2025-07-03T19:32:53.455-04:00", "avatar": "https://secure.gravatar.com/avatar/3b89ef039e391a8b2413fc129a79273b.jpg?s=512&d=https%3A%2F%2Fa.slack-edge.com%2Fdf10d%2Fimg%2Favatars%2Fava_0015-512.png", "custom_css": null}, {"id": 4775, "slack_id": "U092EHU0S56", "display_name": "Renan Besserra", "bio": null, "projects_count": 0, "devlogs_count": 0, "votes_count": 0, "ships_count": 0, "projects": [], "coding_time_seconds": 0, "coding_time_seconds_today": 0, "balance": "You need to have a pocket watcher badge to view this.", "badges": [], "created_at": "2025-06-17T00:57:42.607-04:00", "updated_at": "2025-07-03T21:42:09.887-04:00", "avatar": "https://secure.gravatar.com/avatar/8b40181dfbacb53ead2f3c34421306db.jpg?s=512&d=https%3A%2F%2Fa.slack-edge.com%2Fdf10d%2Fimg%2Favatars%2Fava_0013-512.png", "custom_css": null}, {"id": 4776, "slack_id": "U091QCUKUN9", "display_name": "Arsh", "bio": null, "projects_count": 0, "devlogs_count": 0, "votes_count": 0, "ships_count": 0, "projects": [], "coding_time_seconds": 58804, "coding_time_seconds_today": 0, "balance": "You need to have a pocket watcher badge to view this.", "badges": [], "created_at": "2025-06-17T00:57:44.828-04:00", "updated_at": "2025-07-03T19:32:53.864-04:00", "avatar": "https://secure.gravatar.com/avatar/407f3b7de76378ac06306925bdc09afa.jpg?s=512&d=https%3A%2F%2Fa.slack-edge.com%2Fdf10d%2Fimg%2Favatars%2Fava_0000-512.png", "custom_css": null}, {"id": 4777, "slack_id": "U091K9ZLTNX", "display_name": "Quang Hi\u1ebfu V\u0169", "bio": null, "projects_count": 0, "devlogs_count": 0, "votes_count": 0, "ships_count": 0, "projects": [], "coding_time_seconds": 0, "coding_time_seconds_today": 0, "balance": "You need to have a pocket watcher badge to view this.", "badges": [], "created_at": "2025-06-17T00:57:50.822-04:00", "updated_at": "2025-07-03T19:32:54.173-04:00", "avatar": "https://avatars.slack-edge.com/2025-06-16/9058448722597_d2446bf417ea85116b3e_original.png", "custom_css": null}, {"id": 4778, "slack_id": "U081T49KRUP", "display_name": "vpun215", "bio": "trying to make something useful and innovate", "projects_count": 0, "devlogs_count": 20, "votes_count": 80, "ships_count": 0, "projects": [], "coding_time_seconds": 304029, "coding_time_seconds_today": 0, "balance": "You need to have a pocket watcher badge to view this.", "badges": [{"name": "Maiden Voyage", "text": "you shipped your first project! the journey begins...", "icon": "\ud83d\udea2"}, {"name": "Graphic Design is My Passion", "text": "Oh God How Did This Get Here I Am Not Good With Computer", "icon": "\ud83c\udfa8"}], "created_at": "2025-06-17T00:58:08.363-04:00", "updated_at": "2025-09-20T15:23:22.534-04:00", "avatar": "https://avatars.slack-edge.com/2024-11-26/8082692012613_329415085428bb8499ed_original.png", "custom_css": "html, body {\r\n    margin: 0;\r\n    padding: 0;\r\n    height: 100%;\r\n    font-family: 'Minecraftia', monospace, 'Press Start 2P', monospace;\r\n    background: url('https://static.wikia.nocookie.net/minecraft_gamepedia/images/f/f2/Dirt_background_BE1.png/') no-repeat center center fixed;\r\n    background-size: cover;\r\n    image-rendering: pixelated;\r\n    color: #2E2B25;\r\n    -webkit-font-smoothing: none;\r\n    -moz-osx-font-smoothing: grayscale;\r\n}\r\n\r\n\r\n.profile-container, .profile-card, .wrapper {\r\n\tmax-width: 1400px;\r\n\tmargin: 48px auto;\r\n\tpadding: 36px 40px;\r\n\tbackground: linear-gradient(180deg, #F0E4C0, #C7B482);\r\n\tborder: 10px solid #3A2E14;\r\n\tborder-radius: 0;\r\n\tbox-shadow:\r\n\t\t10px 10px 0 rgba(0,0,0,0.5),\r\n\t\tinset 0 4px 0 #fffbe4;\r\n\tposition: relative;\r\n\tz-index: 10;\r\n\tuser-select: none;\r\n}\r\n\r\n.profile-header {\r\n\tdisplay: flex;\r\n\tflex-direction: column;\r\n\talign-items: center;\r\n\tjustify-content: center;\r\n\tpadding: 32px 0 24px;\r\n\tborder-bottom: 8px solid #3A2E14;\r\n\tbackground: linear-gradient(180deg, #D9B88F, #A67843);\r\n\tbox-shadow: inset 0 3px 0 #fff3d1;\r\n}\r\n\r\n.profile-avatar, #avatar, .avatar img {\r\n\twidth: 192px;\r\n\theight: 192px;\r\n\tborder: 8px solid #3A2E14;\r\n\tbackground-color: #D9B88F;\r\n\tbox-shadow: 6px 6px 0 rgba(0,0,0,0.5);\r\n\tobject-fit: cover;\r\n\timage-rendering: pixelated;\r\n}\r\n\r\n.profile-name, h1.profile-name {\r\n\tcolor: #2E2B25;\r\n\tfont-size: 2rem;\r\n\ttext-shadow:\r\n\t\t2px 2px 0 #D9B88F,\r\n\t\t-2px -2px 0 #3A2E14;\r\n\tletter-spacing: 0.03em;\r\n\tmargin: 16px 0 8px;\r\n\tfont-weight: 900;\r\n}\r\n\r\n.handle, .tagline-badge, .profile-handle {\r\n\tcolor: #3A2E14;\r\n\tfont-weight: 700;\r\n\tletter-spacing: 0.1em;\r\n\tfont-size: 0.9rem;\r\n\ttext-transform: uppercase;\r\n\ttext-align: center;\r\n\tmargin-bottom: 12px;\r\n\ttext-shadow: 1px 1px 0 #F0E4C0;\r\n}\r\n\r\n.profile-bio,\r\n.text-gray-900.text-sm.whitespace-pre-wrap.leading-relaxed.profile-bio {\r\n\tbackground: #F0E4C0;\r\n\tcolor: #2E2B25 !important;\r\n\tpadding: 20px 24px;\r\n\tborder: 10px solid #3A2E14;\r\n\tborder-radius: 0;\r\n\tbox-shadow:\r\n\t\t6px 6px 0 rgba(0,0,0,0.5),\r\n\t\tinset 0 3px 0 #fff7d9;\r\n\twhite-space: pre-wrap;\r\n\tline-height: 1.4;\r\n\tfont-weight: 600;\r\n\tletter-spacing: 0.04em;\r\n\tuser-select: text;\r\n}\r\n\r\n.card-with-gradient {\r\n\tbackground: linear-gradient(180deg, #D9B88F, #A67843) !important;\r\n\tborder: 10px solid #3A2E14 !important;\r\n\tcolor: #2E2B25 !important;\r\n\tbox-shadow:\r\n\t\t8px 8px 0 rgba(0,0,0,0.5),\r\n\t\tinset 0 4px 0 #fffbe4 !important;\r\n\tborder-radius: 0;\r\n}\r\n\r\n#activities-list {\r\n\tpadding: 36px !important;\r\n\tbackground: linear-gradient(180deg, #F0E4C0, #C7B482);\r\n\tborder: 10px solid #3A2E14;\r\n\tbox-shadow: 8px 8px 0 rgba(0,0,0,0.5);\r\n\tborder-radius: 0;\r\n\tmargin-top: 20px;\r\n}\r\n\r\nh2, h3, h4, h5, h6 {\r\n\tcolor: #3A2E14 !important;\r\n\ttext-shadow:\r\n\t\t2px 2px 0 #F0E4C0;\r\n\tmargin: 0 0 8px 0;\r\n\tfont-weight: 900;\r\n\ttext-transform: uppercase;\r\n\tletter-spacing: 0.15em;\r\n}\r\n\r\nh2.text-2xl.font-bold.text-gray-800 {\r\n\tcolor: #3A2E14 !important;\r\n\tbackground: transparent !important;\r\n\ttext-shadow:\r\n\t\t2px 2px 0 #F0E4C0;\r\n\tpadding: 6px 0;\r\n\ttext-align: center;\r\n}\r\n\r\n.card-with-gradient p,\r\n.card-with-gradient span,\r\n.card-with-gradient li,\r\n.profile-card p,\r\n.profile-card span,\r\n.profile-card li {\r\n\tcolor: #2E2B25 !important;\r\n}\r\n\r\nh2::after {\r\n\tcontent: '';\r\n\tdisplay: block;\r\n\theight: 2px;\r\n\tmargin-top: 4px;\r\n\tbackground: linear-gradient(90deg, #5CA64C, #78A7FF);\r\n\tbox-shadow: 0 0 6px #5CA64C, 0 0 12px #78A7FF;\r\n}\r\n\r\n.profile-stats, .stats {\r\n\tdisplay: flex;\r\n\tgap: 16px;\r\n\tjustify-content: center;\r\n\tmargin-top: 24px;\r\n\tflex-wrap: wrap;\r\n}\r\n\r\n.profile-stat, .stat {\r\n\tbackground: #5CA64C;\r\n\tborder: 10px solid #3A2E14;\r\n\tpadding: 12px 20px;\r\n\tborder-radius: 0;\r\n\tfont-weight: 900;\r\n\tbox-shadow: 8px 8px 0 rgba(0,0,0,0.5);\r\n\tcolor: #FDF6E3;\r\n\ttext-transform: uppercase;\r\n\tletter-spacing: 0.1em;\r\n\tuser-select: none;\r\n}\r\n\r\n.projects, .project-list {\r\n\tpadding: 24px;\r\n\tborder: 10px solid #3A2E14;\r\n\tbackground: linear-gradient(180deg, #F0E4C0, #C7B482);\r\n\tbox-shadow: 8px 8px 0 rgba(0,0,0,0.5);\r\n\tborder-radius: 0;\r\n}\r\n\r\n.project {\r\n\tdisplay: flex;\r\n\tgap: 16px;\r\n\talign-items: center;\r\n\tpadding: 12px;\r\n\tborder-radius: 0;\r\n\ttransition: transform 0.12s linear;\r\n\tcursor: pointer;\r\n}\r\n\r\n.project:hover {\r\n\ttransform: translateX(10px);\r\n\tbox-shadow: 12px 12px 0 rgba(0,0,0,0.5);\r\n\tbackground: linear-gradient(90deg, rgba(255,255,255,0.06), rgba(0,0,0,0.06));\r\n}\r\n\r\n.proj-thumb, .project-icon {\r\n\twidth: 72px;\r\n\theight: 72px;\r\n\tborder-radius: 0;\r\n\tbackground: #D9B88F;\r\n\tborder: 10px solid #3A2E14;\r\n\tdisplay: flex;\r\n\talign-items: center;\r\n\tjustify-content: center;\r\n\tfont-family: monospace;\r\n\tfont-weight: 900;\r\n\tcolor: #5CA64C;\r\n\tbox-shadow: 8px 8px 0 rgba(0,0,0,0.5);\r\n\timage-rendering: pixelated;\r\n}\r\n\r\n.socials {\r\n\tdisplay: flex;\r\n\tgap: 14px;\r\n\tjustify-content: center;\r\n\tmargin-top: 20px;\r\n}\r\n\r\n.socials a {\r\n\tdisplay: inline-flex;\r\n\talign-items: center;\r\n\tjustify-content: center;\r\n\tpadding: 12px 18px;\r\n\tborder: 10px solid #3A2E14;\r\n\tbackground: #F0E4C0;\r\n\tcolor: #2E2B25;\r\n\ttext-decoration: none;\r\n\tborder-radius: 0;\r\n\tbox-shadow: 8px 8px 0 rgba(0,0,0,0.5);\r\n\tfont-weight: 700;\r\n\ttext-transform: uppercase;\r\n\tletter-spacing: 0.1em;\r\n\tuser-select: none;\r\n}\r\n\r\n.text-gray-900, .text-gray-900.text-sm.whitespace-pre-wrap.leading-relaxed.profile-bio {\r\n\tcolor: #2E2B25 !important;\r\n\tbackground: transparent !important;\r\n}\r\n\r\n@media (max-width: 980px) {\r\n\t.profile-container, .profile-card, .wrapper {\r\n\t\tpadding: 24px;\r\n\t\tmargin: 24px;\r\n\t}\r\n\t.profile-avatar, #avatar {\r\n\t\twidth: 140px;\r\n\t\theight: 140px;\r\n\t}\r\n\t.proj-thumb, .project-icon {\r\n\t\twidth: 56px;\r\n\t\theight: 56px;\r\n\t}\r\n}"}, {"id": 4779, "slack_id": "U08RDSGUCFQ", "display_name": "Lenny", "bio": null, "projects_count": 0, "devlogs_count": 0, "votes_count": 0, "ships_count": 0, "projects": [], "coding_time_seconds": 224148, "coding_time_seconds_today": 0, "balance": "You need to have a pocket watcher badge to view this.", "badges": [], "created_at": "2025-06-17T00:58:32.860-04:00", "updated_at": "2025-08-17T11:34:47.688-04:00", "avatar": "https://avatars.slack-edge.com/2025-06-10/9018874702163_ddc57b2e6afffb0ac24a_original.png", "custom_css": null}, {"id": 4780, "slack_id": "U091KDEDFT8", "display_name": "Abhishek", "bio": null, "projects_count": 0, "devlogs_count": 0, "votes_count": 0, "ships_count": 0, "projects": [], "coding_time_seconds": 0, "coding_time_seconds_today": 0, "balance": "You need to have a pocket watcher badge to view this.", "badges": [], "created_at": "2025-06-17T00:58:49.845-04:00", "updated_at": "2025-07-03T19:32:54.977-04:00", "avatar": "https://secure.gravatar.com/avatar/51fdc7738144bda6e5c044d0a6b4b9a4.jpg?s=512&d=https%3A%2F%2Fa.slack-edge.com%2Fdf10d%2Fimg%2Favatars%2Fava_0006-512.png", "custom_css": null}], "pagination": {"page": 239, "pages": 1192, "count": 23828, "items": 20}}