{"users": [{"id": 4781, "slack_id": "U07TPQQ7CU8", "display_name": "Yoseph Getachew", "bio": null, "projects_count": 0, "devlogs_count": 3, "votes_count": 29, "ships_count": 0, "projects": [], "coding_time_seconds": 2025984, "coding_time_seconds_today": 0, "balance": "You need to have a pocket watcher badge to view this.", "badges": [{"name": "Maiden Voyage", "text": "you shipped your first project! the journey begins...", "icon": "\ud83d\udea2"}], "created_at": "2025-06-17T00:58:49.932-04:00", "updated_at": "2025-09-10T22:53:32.057-04:00", "avatar": "https://secure.gravatar.com/avatar/596bbda665593e7de56d37cb184f5c23.jpg?s=512&d=https%3A%2F%2Fa.slack-edge.com%2Fdf10d%2Fimg%2Favatars%2Fava_0022-512.png", "custom_css": null}, {"id": 4782, "slack_id": "U07R8F5H56U", "display_name": "nbth", "bio": null, "projects_count": 6, "devlogs_count": 26, "votes_count": 50, "ships_count": 4, "projects": [{"id": 11097, "title": "Simple Jockie music-bot", "devlogs_count": 4, "created_at": "2025-08-13T07:04:48.291-04:00"}, {"id": 11361, "title": "coderx", "devlogs_count": 0, "created_at": "2025-08-15T08:34:35.696-04:00"}, {"id": 10273, "title": "anime dubbing cli tool", "devlogs_count": 9, "created_at": "2025-08-05T13:24:07.861-04:00"}, {"id": 4719, "title": "Docker Container Manager Panel", "devlogs_count": 1, "created_at": "2025-07-01T08:00:23.736-04:00"}, {"id": 5777, "title": "LLM Study Helper", "devlogs_count": 8, "created_at": "2025-07-07T23:39:27.927-04:00"}, {"id": 6551, "title": "LLama Bot", "devlogs_count": 4, "created_at": "2025-07-14T07:29:43.843-04:00"}], "coding_time_seconds": 526247, "coding_time_seconds_today": 3684, "balance": "You need to have a pocket watcher badge to view this.", "badges": [{"name": "Maiden Voyage", "text": "you shipped your first project! the journey begins...", "icon": "\ud83d\udea2"}], "created_at": "2025-06-17T00:59:45.305-04:00", "updated_at": "2025-09-10T22:53:32.094-04:00", "avatar": "https://secure.gravatar.com/avatar/7f7fb3266a58b2a319c5fb5da86c8884.jpg?s=512&d=https%3A%2F%2Fa.slack-edge.com%2Fdf10d%2Fimg%2Favatars%2Fava_0005-512.png", "custom_css": null}, {"id": 4783, "slack_id": "U08RA254TNC", "display_name": "Simon", "bio": null, "projects_count": 1, "devlogs_count": 3, "votes_count": 21, "ships_count": 1, "projects": [{"id": 10905, "title": "Galaxy Cluster", "devlogs_count": 3, "created_at": "2025-08-11T17:29:39.331-04:00"}], "coding_time_seconds": 43216, "coding_time_seconds_today": 0, "balance": "You need to have a pocket watcher badge to view this.", "badges": [{"name": "Maiden Voyage", "text": "you shipped your first project! the journey begins...", "icon": "\ud83d\udea2"}], "created_at": "2025-06-17T00:59:45.805-04:00", "updated_at": "2025-09-10T22:53:32.134-04:00", "avatar": "https://avatars.slack-edge.com/2025-05-24/8934538390103_e4b0ab776d8a99c62236_original.jpg", "custom_css": null}, {"id": 4784, "slack_id": "U091SGFNA5S", "display_name": "Afsal Majeed", "bio": null, "projects_count": 0, "devlogs_count": 0, "votes_count": 0, "ships_count": 0, "projects": [], "coding_time_seconds": 0, "coding_time_seconds_today": 0, "balance": "You need to have a pocket watcher badge to view this.", "badges": [], "created_at": "2025-06-17T00:59:53.012-04:00", "updated_at": "2025-07-03T19:32:56.042-04:00", "avatar": "https://secure.gravatar.com/avatar/8aee5ef2895ec831b8adcbc079f99c44.jpg?s=512&d=https%3A%2F%2Fa.slack-edge.com%2Fdf10d%2Fimg%2Favatars%2Fava_0009-512.png", "custom_css": null}, {"id": 4785, "slack_id": "U092EJC0648", "display_name": "Azamatjon", "bio": null, "projects_count": 0, "devlogs_count": 0, "votes_count": 0, "ships_count": 0, "projects": [], "coding_time_seconds": 0, "coding_time_seconds_today": 0, "balance": "You need to have a pocket watcher badge to view this.", "badges": [], "created_at": "2025-06-17T01:00:02.293-04:00", "updated_at": "2025-07-03T19:32:56.307-04:00", "avatar": "https://secure.gravatar.com/avatar/29d1609a1ec7c8a239e7c324b0bb3a90.jpg?s=512&d=https%3A%2F%2Fa.slack-edge.com%2Fdf10d%2Fimg%2Favatars%2Fava_0015-512.png", "custom_css": null}, {"id": 4786, "slack_id": "U091KDFM57Y", "display_name": "Abhijeet Kumar", "bio": null, "projects_count": 0, "devlogs_count": 0, "votes_count": 0, "ships_count": 0, "projects": [], "coding_time_seconds": 0, "coding_time_seconds_today": 0, "balance": "You need to have a pocket watcher badge to view this.", "badges": [], "created_at": "2025-06-17T01:00:06.814-04:00", "updated_at": "2025-07-03T19:32:56.572-04:00", "avatar": "https://avatars.slack-edge.com/2025-06-16/9060265735986_045584255ed5ca93d197_original.png", "custom_css": null}, {"id": 4787, "slack_id": "U082PSK20LE", "display_name": "darkShadow", "bio": null, "projects_count": 0, "devlogs_count": 0, "votes_count": 0, "ships_count": 0, "projects": [], "coding_time_seconds": 121535, "coding_time_seconds_today": 0, "balance": "You need to have a pocket watcher badge to view this.", "badges": [], "created_at": "2025-06-17T01:00:11.477-04:00", "updated_at": "2025-07-03T19:32:56.831-04:00", "avatar": "https://secure.gravatar.com/avatar/8c4b2aa13b505452aa887fc1f2f43ff9.jpg?s=512&d=https%3A%2F%2Fa.slack-edge.com%2Fdf10d%2Fimg%2Favatars%2Fava_0006-512.png", "custom_css": null}, {"id": 4788, "slack_id": "U092EJ9HZ7S", "display_name": "Piyush More", "bio": null, "projects_count": 0, "devlogs_count": 0, "votes_count": 0, "ships_count": 0, "projects": [], "coding_time_seconds": 0, "coding_time_seconds_today": 0, "balance": "You need to have a pocket watcher badge to view this.", "badges": [], "created_at": "2025-06-17T01:00:35.453-04:00", "updated_at": "2025-07-03T19:32:57.106-04:00", "avatar": "https://avatars.slack-edge.com/2025-06-16/9053373661331_e4dd830f7df7a2363a0a_original.png", "custom_css": null}, {"id": 4789, "slack_id": "U091SGDL7GU", "display_name": "Ganeshan Nainar", "bio": null, "projects_count": 0, "devlogs_count": 0, "votes_count": 0, "ships_count": 0, "projects": [], "coding_time_seconds": 0, "coding_time_seconds_today": 0, "balance": "You need to have a pocket watcher badge to view this.", "badges": [], "created_at": "2025-06-17T01:00:55.749-04:00", "updated_at": "2025-07-03T19:32:57.389-04:00", "avatar": "https://secure.gravatar.com/avatar/57cdad6e31e791f8dff6200813d9a886.jpg?s=512&d=https%3A%2F%2Fa.slack-edge.com%2Fdf10d%2Fimg%2Favatars%2Fava_0017-512.png", "custom_css": null}, {"id": 4790, "slack_id": "U091S79AKS6", "display_name": "SABDULLAHJ", "bio": null, "projects_count": 0, "devlogs_count": 0, "votes_count": 0, "ships_count": 0, "projects": [], "coding_time_seconds": 0, "coding_time_seconds_today": 0, "balance": "You need to have a pocket watcher badge to view this.", "badges": [], "created_at": "2025-06-17T01:01:30.069-04:00", "updated_at": "2025-07-03T19:32:57.686-04:00", "avatar": "https://secure.gravatar.com/avatar/27edbca6610975a7949ef51f0cdc79a8.jpg?s=512&d=https%3A%2F%2Fa.slack-edge.com%2Fdf10d%2Fimg%2Favatars%2Fava_0007-512.png", "custom_css": null}, {"id": 4791, "slack_id": "U091QB52BB7", "display_name": "Ashish kumar", "bio": null, "projects_count": 0, "devlogs_count": 0, "votes_count": 0, "ships_count": 0, "projects": [], "coding_time_seconds": 0, "coding_time_seconds_today": 0, "balance": "You need to have a pocket watcher badge to view this.", "badges": [], "created_at": "2025-06-17T01:01:30.658-04:00", "updated_at": "2025-07-03T19:32:57.981-04:00", "avatar": "https://secure.gravatar.com/avatar/643eeb082c5deb12a87172542ccc70d0.jpg?s=512&d=https%3A%2F%2Fa.slack-edge.com%2Fdf10d%2Fimg%2Favatars%2Fava_0001-512.png", "custom_css": null}, {"id": 4792, "slack_id": "U08QX5KAJ92", "display_name": "Mohit", "bio": null, "projects_count": 0, "devlogs_count": 0, "votes_count": 0, "ships_count": 0, "projects": [], "coding_time_seconds": 0, "coding_time_seconds_today": 0, "balance": "You need to have a pocket watcher badge to view this.", "badges": [], "created_at": "2025-06-17T01:01:35.015-04:00", "updated_at": "2025-09-24T12:30:00.730-04:00", "avatar": "https://secure.gravatar.com/avatar/9bf1aa7475d9435d2fec07e92ade4aa5.jpg?s=512&d=https%3A%2F%2Fa.slack-edge.com%2Fdf10d%2Fimg%2Favatars%2Fava_0018-512.png", "custom_css": null}, {"id": 4793, "slack_id": "U091AKNUQK1", "display_name": "Duong Phan", "bio": null, "projects_count": 1, "devlogs_count": 0, "votes_count": 0, "ships_count": 0, "projects": [{"id": 941, "title": "BiasLens - Reveal Hidden Bias", "devlogs_count": 0, "created_at": "2025-06-17T11:56:36.827-04:00"}], "coding_time_seconds": 21100, "coding_time_seconds_today": 0, "balance": "You need to have a pocket watcher badge to view this.", "badges": [], "created_at": "2025-06-17T01:01:36.076-04:00", "updated_at": "2025-07-03T19:32:58.535-04:00", "avatar": "https://avatars.slack-edge.com/2025-06-17/9083597245888_b8b96af9668bcd203856_original.jpg", "custom_css": null}, {"id": 4794, "slack_id": "U091KAUG2Q3", "display_name": "Dhruv", "bio": null, "projects_count": 1, "devlogs_count": 0, "votes_count": 0, "ships_count": 0, "projects": [{"id": 785, "title": "Autono Snakes", "devlogs_count": 0, "created_at": "2025-06-17T08:17:22.692-04:00"}], "coding_time_seconds": 15667, "coding_time_seconds_today": 0, "balance": "You need to have a pocket watcher badge to view this.", "badges": [], "created_at": "2025-06-17T01:01:41.599-04:00", "updated_at": "2025-07-03T19:32:58.809-04:00", "avatar": "https://secure.gravatar.com/avatar/017c7b6a5b2d7c57cb94fbdf7e0df92b.jpg?s=512&d=https%3A%2F%2Fa.slack-edge.com%2Fdf10d%2Fimg%2Favatars%2Fava_0015-512.png", "custom_css": null}, {"id": 4795, "slack_id": "U091SG0RSAG", "display_name": "Al-Amin Firdows", "bio": null, "projects_count": 0, "devlogs_count": 0, "votes_count": 0, "ships_count": 0, "projects": [], "coding_time_seconds": 210045, "coding_time_seconds_today": 0, "balance": "You need to have a pocket watcher badge to view this.", "badges": [], "created_at": "2025-06-17T01:01:51.153-04:00", "updated_at": "2025-07-03T19:32:59.072-04:00", "avatar": "https://avatars.slack-edge.com/2025-06-16/9053379394563_185a2f9ad6c3de7b74ab_original.jpg", "custom_css": null}, {"id": 4796, "slack_id": "U082UPVAE7J", "display_name": "Graphic Muzammil", "bio": null, "projects_count": 0, "devlogs_count": 0, "votes_count": 0, "ships_count": 0, "projects": [], "coding_time_seconds": 0, "coding_time_seconds_today": 0, "balance": "You need to have a pocket watcher badge to view this.", "badges": [], "created_at": "2025-06-17T01:02:21.322-04:00", "updated_at": "2025-07-21T16:40:29.955-04:00", "avatar": "https://avatars.slack-edge.com/2024-11-23/8074965269154_48e6552ecc4f70dcaf68_original.png", "custom_css": null}, {"id": 4797, "slack_id": "U08PTEM9NAG", "display_name": "Flame", "bio": null, "projects_count": 2, "devlogs_count": 3, "votes_count": 1, "ships_count": 0, "projects": [{"id": 2425, "title": "MC Server Status", "devlogs_count": 1, "created_at": "2025-06-21T02:08:50.552-04:00"}, {"id": 7800, "title": "Personal Portfolio", "devlogs_count": 2, "created_at": "2025-07-23T04:48:26.258-04:00"}], "coding_time_seconds": 367892, "coding_time_seconds_today": 0, "balance": "You need to have a pocket watcher badge to view this.", "badges": [], "created_at": "2025-06-17T01:02:30.852-04:00", "updated_at": "2025-08-14T13:01:00.097-04:00", "avatar": "https://avatars.slack-edge.com/2025-05-06/8851271529077_1f24b006a9647e14a655_original.jpg", "custom_css": null}, {"id": 4798, "slack_id": "U07BDGAV8D8", "display_name": "Mithil", "bio": null, "projects_count": 0, "devlogs_count": 0, "votes_count": 0, "ships_count": 0, "projects": [], "coding_time_seconds": 0, "coding_time_seconds_today": 0, "balance": "You need to have a pocket watcher badge to view this.", "badges": [], "created_at": "2025-06-17T01:02:48.929-04:00", "updated_at": "2025-07-18T08:04:46.725-04:00", "avatar": "https://secure.gravatar.com/avatar/58cf8d496227b11cc91dafdf1768dedf.jpg?s=512&d=https%3A%2F%2Fa.slack-edge.com%2Fdf10d%2Fimg%2Favatars%2Fava_0013-512.png", "custom_css": null}, {"id": 4799, "slack_id": "U07GN9LA1E1", "display_name": "Thomas Mason Maurice", "bio": null, "projects_count": 2, "devlogs_count": 29, "votes_count": 51, "ships_count": 2, "projects": [{"id": 11827, "title": "\ud83c\udfb5 SnapBeat Auth \u2014 Authenticate by Snapping/Tapping Your Rhythm", "devlogs_count": 9, "created_at": "2025-08-20T02:43:02.901-04:00"}, {"id": 13342, "title": "PortWatch \u2013 Instant Port Conflict Detector", "devlogs_count": 12, "created_at": "2025-09-14T09:49:47.245-04:00"}], "coding_time_seconds": 190551, "coding_time_seconds_today": 0, "balance": "You need to have a pocket watcher badge to view this.", "badges": [{"name": "Maiden Voyage", "text": "you shipped your first project! the journey begins...", "icon": "\ud83d\udea2"}], "created_at": "2025-06-17T01:03:19.233-04:00", "updated_at": "2025-09-10T22:53:32.642-04:00", "avatar": "https://avatars.slack-edge.com/2025-02-08/8421587975203_9c2413c9860cc9bf2c30_original.png", "custom_css": null}, {"id": 4800, "slack_id": "U091SGZ3UN8", "display_name": "Swet Singh", "bio": null, "projects_count": 1, "devlogs_count": 0, "votes_count": 0, "ships_count": 0, "projects": [{"id": 614, "title": "Transfer It", "devlogs_count": 0, "created_at": "2025-06-17T02:53:18.237-04:00"}], "coding_time_seconds": 3464, "coding_time_seconds_today": 0, "balance": "You need to have a pocket watcher badge to view this.", "badges": [], "created_at": "2025-06-17T01:03:21.403-04:00", "updated_at": "2025-07-03T19:33:00.414-04:00", "avatar": "https://secure.gravatar.com/avatar/295f86b3c4210e8c46ca27110d81f74d.jpg?s=512&d=https%3A%2F%2Fa.slack-edge.com%2Fdf10d%2Fimg%2Favatars%2Fava_0022-512.png", "custom_css": null}], "pagination": {"page": 240, "pages": 1192, "count": 23828, "items": 20}}