{"users": [{"id": 4801, "slack_id": "U0924MRBK33", "display_name": "Srijan", "bio": null, "projects_count": 0, "devlogs_count": 0, "votes_count": 0, "ships_count": 0, "projects": [], "coding_time_seconds": 0, "coding_time_seconds_today": 0, "balance": "You need to have a pocket watcher badge to view this.", "badges": [], "created_at": "2025-06-17T01:03:37.872-04:00", "updated_at": "2025-07-03T19:33:00.687-04:00", "avatar": "https://secure.gravatar.com/avatar/aa9361a3e4f9bfc82bac00919dc90b11.jpg?s=512&d=https%3A%2F%2Fa.slack-edge.com%2Fdf10d%2Fimg%2Favatars%2Fava_0012-512.png", "custom_css": null}, {"id": 4802, "slack_id": "U091MPW7H1T", "display_name": "Abhijeet", "bio": null, "projects_count": 0, "devlogs_count": 0, "votes_count": 0, "ships_count": 0, "projects": [], "coding_time_seconds": 0, "coding_time_seconds_today": 0, "balance": "You need to have a pocket watcher badge to view this.", "badges": [], "created_at": "2025-06-17T01:03:41.774-04:00", "updated_at": "2025-07-03T19:33:00.953-04:00", "avatar": "https://secure.gravatar.com/avatar/0525135b66eaff37b39902e2c2e0ecae.jpg?s=512&d=https%3A%2F%2Fa.slack-edge.com%2Fdf10d%2Fimg%2Favatars%2Fava_0019-512.png", "custom_css": null}, {"id": 4803, "slack_id": "U091SGWBYBE", "display_name": "Nyaoha", "bio": null, "projects_count": 0, "devlogs_count": 0, "votes_count": 0, "ships_count": 0, "projects": [], "coding_time_seconds": 0, "coding_time_seconds_today": 0, "balance": "You need to have a pocket watcher badge to view this.", "badges": [], "created_at": "2025-06-17T01:03:52.082-04:00", "updated_at": "2025-07-03T19:33:01.215-04:00", "avatar": "https://secure.gravatar.com/avatar/6ddb9d743d29acb50a9ae19b3ae5c0a0.jpg?s=512&d=https%3A%2F%2Fa.slack-edge.com%2Fdf10d%2Fimg%2Favatars%2Fava_0011-512.png", "custom_css": null}, {"id": 4804, "slack_id": "U091KB393DZ", "display_name": "developer", "bio": null, "projects_count": 0, "devlogs_count": 0, "votes_count": 0, "ships_count": 0, "projects": [], "coding_time_seconds": 5274, "coding_time_seconds_today": 0, "balance": "You need to have a pocket watcher badge to view this.", "badges": [], "created_at": "2025-06-17T01:04:03.232-04:00", "updated_at": "2025-07-03T19:33:01.486-04:00", "avatar": "https://secure.gravatar.com/avatar/b268df4ad0a686998c39f83e9ebb125d.jpg?s=512&d=https%3A%2F%2Fa.slack-edge.com%2Fdf10d%2Fimg%2Favatars%2Fava_0001-512.png", "custom_css": null}, {"id": 4805, "slack_id": "U091SH0NNTW", "display_name": "aksh", "bio": null, "projects_count": 1, "devlogs_count": 0, "votes_count": 0, "ships_count": 0, "projects": [{"id": 4888, "title": "portfolio", "devlogs_count": 0, "created_at": "2025-07-02T03:30:25.026-04:00"}], "coding_time_seconds": 39408, "coding_time_seconds_today": 0, "balance": "You need to have a pocket watcher badge to view this.", "badges": [], "created_at": "2025-06-17T01:05:05.850-04:00", "updated_at": "2025-07-03T19:33:01.752-04:00", "avatar": "https://secure.gravatar.com/avatar/57ac9257d39374a901f07b26585f3b56.jpg?s=512&d=https%3A%2F%2Fa.slack-edge.com%2Fdf10d%2Fimg%2Favatars%2Fava_0017-512.png", "custom_css": null}, {"id": 4806, "slack_id": "U091KB40TTM", "display_name": "John Bright Kakelli", "bio": null, "projects_count": 0, "devlogs_count": 0, "votes_count": 0, "ships_count": 0, "projects": [], "coding_time_seconds": 55347, "coding_time_seconds_today": 0, "balance": "You need to have a pocket watcher badge to view this.", "badges": [], "created_at": "2025-06-17T01:05:31.432-04:00", "updated_at": "2025-07-03T19:33:02.034-04:00", "avatar": "https://secure.gravatar.com/avatar/b5f1174b8664715b7e5dc2d0eb022ee9.jpg?s=512&d=https%3A%2F%2Fa.slack-edge.com%2Fdf10d%2Fimg%2Favatars%2Fava_0021-512.png", "custom_css": null}, {"id": 4807, "slack_id": "U0924PHA1NV", "display_name": "Yarema Kertutsky", "bio": null, "projects_count": 0, "devlogs_count": 0, "votes_count": 0, "ships_count": 0, "projects": [], "coding_time_seconds": 301296, "coding_time_seconds_today": 0, "balance": "You need to have a pocket watcher badge to view this.", "badges": [], "created_at": "2025-06-17T01:05:41.814-04:00", "updated_at": "2025-07-14T01:49:10.548-04:00", "avatar": "https://avatars.slack-edge.com/2025-06-16/9082653890848_dafb8cb2d7f45b4f4b81_original.jpg", "custom_css": null}, {"id": 4808, "slack_id": "U091SGXU33N", "display_name": "Moukhtar Youssef", "bio": null, "projects_count": 3, "devlogs_count": 2, "votes_count": 6, "ships_count": 1, "projects": [{"id": 5521, "title": "Task_Tracker_CLI", "devlogs_count": 1, "created_at": "2025-07-05T22:14:42.552-04:00"}, {"id": 6001, "title": "Expense Tracker CLI", "devlogs_count": 1, "created_at": "2025-07-09T21:17:38.120-04:00"}, {"id": 10788, "title": "DriveLite", "devlogs_count": 0, "created_at": "2025-08-10T21:00:20.378-04:00"}], "coding_time_seconds": 361932, "coding_time_seconds_today": 0, "balance": "You need to have a pocket watcher badge to view this.", "badges": [{"name": "Maiden Voyage", "text": "you shipped your first project! the journey begins...", "icon": "\ud83d\udea2"}], "created_at": "2025-06-17T01:06:00.569-04:00", "updated_at": "2025-09-10T22:53:32.879-04:00", "avatar": "https://avatars.slack-edge.com/2025-06-16/9072812365409_d8edd54bf4a6c2a920e2_original.png", "custom_css": null}, {"id": 4809, "slack_id": "U091QDQEYE9", "display_name": "Gayatri", "bio": null, "projects_count": 0, "devlogs_count": 0, "votes_count": 0, "ships_count": 0, "projects": [], "coding_time_seconds": 36781, "coding_time_seconds_today": 0, "balance": "You need to have a pocket watcher badge to view this.", "badges": [], "created_at": "2025-06-17T01:06:10.512-04:00", "updated_at": "2025-07-03T19:33:02.838-04:00", "avatar": "https://secure.gravatar.com/avatar/43b33c61b0664e38aed21acde390ad82.jpg?s=512&d=https%3A%2F%2Fa.slack-edge.com%2Fdf10d%2Fimg%2Favatars%2Fava_0021-512.png", "custom_css": null}, {"id": 4810, "slack_id": "U08B70Y6ZA6", "display_name": "Ian", "bio": null, "projects_count": 2, "devlogs_count": 9, "votes_count": 1, "ships_count": 1, "projects": [{"id": 8912, "title": "Alimana", "devlogs_count": 0, "created_at": "2025-07-29T16:12:25.036-04:00"}, {"id": 8916, "title": "Nexmeet", "devlogs_count": 9, "created_at": "2025-07-29T16:18:54.587-04:00"}], "coding_time_seconds": 556710, "coding_time_seconds_today": 0, "balance": "You need to have a pocket watcher badge to view this.", "badges": [{"name": "Maiden Voyage", "text": "you shipped your first project! the journey begins...", "icon": "\ud83d\udea2"}], "created_at": "2025-06-17T01:06:14.029-04:00", "updated_at": "2025-09-10T22:53:32.941-04:00", "avatar": "https://secure.gravatar.com/avatar/22bcbfc59a2fe282536e50e3c8fe0066.jpg?s=512&d=https%3A%2F%2Fa.slack-edge.com%2Fdf10d%2Fimg%2Favatars%2Fava_0016-512.png", "custom_css": null}, {"id": 4811, "slack_id": "U078KFN8Q14", "display_name": "Cheng Xian Goh", "bio": null, "projects_count": 1, "devlogs_count": 0, "votes_count": 0, "ships_count": 0, "projects": [{"id": 1810, "title": "Discord bot API", "devlogs_count": 0, "created_at": "2025-06-19T09:52:54.420-04:00"}], "coding_time_seconds": 184883, "coding_time_seconds_today": 0, "balance": "You need to have a pocket watcher badge to view this.", "badges": [], "created_at": "2025-06-17T01:06:31.923-04:00", "updated_at": "2025-07-03T19:33:03.861-04:00", "avatar": "https://avatars.slack-edge.com/2024-07-03/7366219007333_2e28598fcff6bde99611_original.png", "custom_css": null}, {"id": 4812, "slack_id": "U091S852DPC", "display_name": "Aditya Kumar Rai", "bio": null, "projects_count": 0, "devlogs_count": 0, "votes_count": 0, "ships_count": 0, "projects": [], "coding_time_seconds": 0, "coding_time_seconds_today": 0, "balance": "You need to have a pocket watcher badge to view this.", "badges": [], "created_at": "2025-06-17T01:06:34.621-04:00", "updated_at": "2025-07-03T19:33:04.173-04:00", "avatar": "https://avatars.slack-edge.com/2025-06-16/9044888146295_800c06f1c4b33908a445_original.png", "custom_css": null}, {"id": 4813, "slack_id": "U091S817E6N", "display_name": "Sona", "bio": null, "projects_count": 0, "devlogs_count": 0, "votes_count": 5, "ships_count": 0, "projects": [], "coding_time_seconds": 252, "coding_time_seconds_today": 0, "balance": "You need to have a pocket watcher badge to view this.", "badges": [], "created_at": "2025-06-17T01:06:47.694-04:00", "updated_at": "2025-07-16T18:51:14.614-04:00", "avatar": "https://avatars.slack-edge.com/2025-06-16/9053396230195_2d6e6f2b6714ea3233b7_original.jpg", "custom_css": null}, {"id": 4814, "slack_id": "U091SHABXDJ", "display_name": "Heath Holuska", "bio": null, "projects_count": 0, "devlogs_count": 0, "votes_count": 0, "ships_count": 0, "projects": [], "coding_time_seconds": 63874, "coding_time_seconds_today": 0, "balance": "You need to have a pocket watcher badge to view this.", "badges": [], "created_at": "2025-06-17T01:06:54.045-04:00", "updated_at": "2025-07-03T19:33:04.701-04:00", "avatar": "https://avatars.slack-edge.com/2025-06-16/9060289944434_0a6457bb749ce164ea81_original.jpg", "custom_css": null}, {"id": 4815, "slack_id": "U08CETDDGKF", "display_name": "Alexqwsa", "bio": "test", "projects_count": 0, "devlogs_count": 0, "votes_count": 0, "ships_count": 0, "projects": [], "coding_time_seconds": 4527, "coding_time_seconds_today": 0, "balance": "You need to have a pocket watcher badge to view this.", "badges": [], "created_at": "2025-06-17T01:07:01.424-04:00", "updated_at": "2025-09-21T05:36:06.648-04:00", "avatar": "https://avatars.slack-edge.com/2025-02-11/8458965018160_8862a0efe62d64eaad4c_original.png", "custom_css": null}, {"id": 4816, "slack_id": "U0924CLAU01", "display_name": "omprakash", "bio": null, "projects_count": 1, "devlogs_count": 0, "votes_count": 0, "ships_count": 0, "projects": [{"id": 573, "title": "CloudAdvisor Ai ", "devlogs_count": 0, "created_at": "2025-06-17T01:38:26.342-04:00"}], "coding_time_seconds": 13569, "coding_time_seconds_today": 0, "balance": "You need to have a pocket watcher badge to view this.", "badges": [], "created_at": "2025-06-17T01:07:07.301-04:00", "updated_at": "2025-07-03T19:33:05.238-04:00", "avatar": "https://secure.gravatar.com/avatar/1667a9e4047f5665f0098f45814ebefa.jpg?s=512&d=https%3A%2F%2Fa.slack-edge.com%2Fdf10d%2Fimg%2Favatars%2Fava_0018-512.png", "custom_css": null}, {"id": 4817, "slack_id": "U091ARU8PKR", "display_name": "Harshit", "bio": null, "projects_count": 0, "devlogs_count": 0, "votes_count": 0, "ships_count": 0, "projects": [], "coding_time_seconds": 0, "coding_time_seconds_today": 0, "balance": "You need to have a pocket watcher badge to view this.", "badges": [], "created_at": "2025-06-17T01:07:09.584-04:00", "updated_at": "2025-07-03T19:33:05.496-04:00", "avatar": "https://secure.gravatar.com/avatar/6bc87bc4da33c5d31dc4209767fd1eb7.jpg?s=512&d=https%3A%2F%2Fa.slack-edge.com%2Fdf10d%2Fimg%2Favatars%2Fava_0021-512.png", "custom_css": null}, {"id": 4818, "slack_id": "U091ARNH431", "display_name": "Thathsara Anuhas", "bio": null, "projects_count": 0, "devlogs_count": 0, "votes_count": 0, "ships_count": 0, "projects": [], "coding_time_seconds": 0, "coding_time_seconds_today": 0, "balance": "You need to have a pocket watcher badge to view this.", "badges": [], "created_at": "2025-06-17T01:07:10.562-04:00", "updated_at": "2025-07-03T19:33:05.756-04:00", "avatar": "https://secure.gravatar.com/avatar/75718c796c670e0d464ad263123bd3f5.jpg?s=512&d=https%3A%2F%2Fa.slack-edge.com%2Fdf10d%2Fimg%2Favatars%2Fava_0010-512.png", "custom_css": null}, {"id": 4819, "slack_id": "U08TLLMG4A3", "display_name": "Anugrah Tewari", "bio": null, "projects_count": 1, "devlogs_count": 0, "votes_count": 0, "ships_count": 0, "projects": [{"id": 10276, "title": "ISL MODEL", "devlogs_count": 0, "created_at": "2025-08-05T13:33:23.886-04:00"}], "coding_time_seconds": 8707, "coding_time_seconds_today": 0, "balance": "You need to have a pocket watcher badge to view this.", "badges": [], "created_at": "2025-06-17T01:07:14.692-04:00", "updated_at": "2025-09-14T08:13:24.244-04:00", "avatar": "https://avatars.slack-edge.com/2025-05-26/8947493051222_e4a654219336ad489bf6_original.jpg", "custom_css": null}, {"id": 4820, "slack_id": "U091KBESV19", "display_name": "Shridayal Yadav", "bio": null, "projects_count": 0, "devlogs_count": 0, "votes_count": 0, "ships_count": 0, "projects": [], "coding_time_seconds": 0, "coding_time_seconds_today": 0, "balance": "You need to have a pocket watcher badge to view this.", "badges": [], "created_at": "2025-06-17T01:07:37.657-04:00", "updated_at": "2025-07-03T19:33:06.281-04:00", "avatar": "https://secure.gravatar.com/avatar/6ab847281f39e8472129f7e99e946895.jpg?s=512&d=https%3A%2F%2Fa.slack-edge.com%2Fdf10d%2Fimg%2Favatars%2Fava_0011-512.png", "custom_css": null}], "pagination": {"page": 241, "pages": 1192, "count": 23828, "items": 20}}