{"users": [{"id": 4821, "slack_id": "U091QDXSFRT", "display_name": "Grizzey", "bio": null, "projects_count": 1, "devlogs_count": 1, "votes_count": 2, "ships_count": 0, "projects": [{"id": 10823, "title": "RoFind", "devlogs_count": 1, "created_at": "2025-08-11T06:54:15.157-04:00"}], "coding_time_seconds": 160816, "coding_time_seconds_today": 0, "balance": "You need to have a pocket watcher badge to view this.", "badges": [], "created_at": "2025-06-17T01:08:04.753-04:00", "updated_at": "2025-08-11T06:48:21.297-04:00", "avatar": "https://secure.gravatar.com/avatar/ff432838142889574a1f704ca4a55345.jpg?s=512&d=https%3A%2F%2Fa.slack-edge.com%2Fdf10d%2Fimg%2Favatars%2Fava_0021-512.png", "custom_css": null}, {"id": 4822, "slack_id": "U091SH1QS76", "display_name": "mysto", "bio": null, "projects_count": 0, "devlogs_count": 0, "votes_count": 0, "ships_count": 0, "projects": [], "coding_time_seconds": 0, "coding_time_seconds_today": 0, "balance": "You need to have a pocket watcher badge to view this.", "badges": [], "created_at": "2025-06-17T01:08:31.418-04:00", "updated_at": "2025-07-03T19:33:06.817-04:00", "avatar": "https://secure.gravatar.com/avatar/da39a5e132a78dbe7957587ff92bae0f.jpg?s=512&d=https%3A%2F%2Fa.slack-edge.com%2Fdf10d%2Fimg%2Favatars%2Fava_0006-512.png", "custom_css": null}, {"id": 4823, "slack_id": "U08H9EPJJBS", "display_name": "numbskul", "bio": null, "projects_count": 0, "devlogs_count": 0, "votes_count": 0, "ships_count": 0, "projects": [], "coding_time_seconds": 0, "coding_time_seconds_today": 0, "balance": "You need to have a pocket watcher badge to view this.", "badges": [], "created_at": "2025-06-17T01:08:39.722-04:00", "updated_at": "2025-07-03T19:33:07.082-04:00", "avatar": "https://avatars.slack-edge.com/2025-03-31/8693731476049_405688ea692ce538c470_original.png", "custom_css": null}, {"id": 4824, "slack_id": "U08R7GUBSUF", "display_name": "Soham Gupta", "bio": null, "projects_count": 2, "devlogs_count": 0, "votes_count": 0, "ships_count": 0, "projects": [{"id": 565, "title": "My Personal Blog Site", "devlogs_count": 0, "created_at": "2025-06-17T01:26:36.142-04:00"}, {"id": 568, "title": "CTRLTube", "devlogs_count": 0, "created_at": "2025-06-17T01:32:51.733-04:00"}], "coding_time_seconds": 14068, "coding_time_seconds_today": 0, "balance": "You need to have a pocket watcher badge to view this.", "badges": [], "created_at": "2025-06-17T01:08:40.543-04:00", "updated_at": "2025-07-03T19:33:07.338-04:00", "avatar": "https://avatars.slack-edge.com/2025-05-09/8873736047778_cecebc525b2cc629572b_original.gif", "custom_css": null}, {"id": 4825, "slack_id": "U092EK66ZEC", "display_name": "KOMMI SAITEJA", "bio": null, "projects_count": 1, "devlogs_count": 0, "votes_count": 0, "ships_count": 0, "projects": [{"id": 600, "title": "BMW -IND", "devlogs_count": 0, "created_at": "2025-06-17T02:28:00.376-04:00"}], "coding_time_seconds": 36123, "coding_time_seconds_today": 0, "balance": "You need to have a pocket watcher badge to view this.", "badges": [], "created_at": "2025-06-17T01:08:56.561-04:00", "updated_at": "2025-07-03T19:33:07.606-04:00", "avatar": "https://avatars.slack-edge.com/2025-06-16/9044895616039_e3f9050b424ac99913d6_original.jpg", "custom_css": null}, {"id": 4826, "slack_id": "U091APKN3NK", "display_name": "vivian olumuyiwa", "bio": null, "projects_count": 0, "devlogs_count": 0, "votes_count": 0, "ships_count": 0, "projects": [], "coding_time_seconds": 0, "coding_time_seconds_today": 0, "balance": "You need to have a pocket watcher badge to view this.", "badges": [], "created_at": "2025-06-17T01:09:15.408-04:00", "updated_at": "2025-07-03T19:33:07.859-04:00", "avatar": "https://secure.gravatar.com/avatar/3ce8c277bff29943cea783553085e635.jpg?s=512&d=https%3A%2F%2Fa.slack-edge.com%2Fdf10d%2Fimg%2Favatars%2Fava_0006-512.png", "custom_css": null}, {"id": 4827, "slack_id": "U088SJQAM35", "display_name": "Karo", "bio": null, "projects_count": 1, "devlogs_count": 2, "votes_count": 3, "ships_count": 0, "projects": [{"id": 1097, "title": "OpenDossier", "devlogs_count": 2, "created_at": "2025-06-17T16:04:56.242-04:00"}], "coding_time_seconds": 400788, "coding_time_seconds_today": 0, "balance": "You need to have a pocket watcher badge to view this.", "badges": [{"name": "Yapper I", "text": "Posted 10 comments on devlogs.", "icon": "\ud83d\udcac"}], "created_at": "2025-06-17T01:09:21.181-04:00", "updated_at": "2025-09-10T22:53:33.570-04:00", "avatar": "https://secure.gravatar.com/avatar/18fda47408f5933445a331e2afb21ee8.jpg?s=512&d=https%3A%2F%2Fa.slack-edge.com%2Fdf10d%2Fimg%2Favatars%2Fava_0009-512.png", "custom_css": null}, {"id": 4828, "slack_id": "U091AS07U07", "display_name": "undivisible", "bio": null, "projects_count": 6, "devlogs_count": 8, "votes_count": 40, "ships_count": 3, "projects": [{"id": 1206, "title": "plates", "devlogs_count": 0, "created_at": "2025-06-17T22:33:45.272-04:00"}, {"id": 11845, "title": "undivisible.dev", "devlogs_count": 0, "created_at": "2025-08-20T07:48:13.665-04:00"}, {"id": 11846, "title": "infrastruct", "devlogs_count": 0, "created_at": "2025-08-20T07:49:57.313-04:00"}, {"id": 11851, "title": "atechnology.company", "devlogs_count": 1, "created_at": "2025-08-20T09:54:00.252-04:00"}, {"id": 1205, "title": "standpoint", "devlogs_count": 4, "created_at": "2025-06-17T22:32:48.839-04:00"}, {"id": 876, "title": " akh", "devlogs_count": 3, "created_at": "2025-06-17T10:22:12.221-04:00"}], "coding_time_seconds": 277529, "coding_time_seconds_today": 809, "balance": "You need to have a pocket watcher badge to view this.", "badges": [{"name": "Maiden Voyage", "text": "you shipped your first project! the journey begins...", "icon": "\ud83d\udea2"}], "created_at": "2025-06-17T01:09:23.691-04:00", "updated_at": "2025-09-10T22:53:33.591-04:00", "avatar": "https://avatars.slack-edge.com/2025-08-12/9339790091158_6268cd56157a1febd9bb_original.png", "custom_css": null}, {"id": 4829, "slack_id": "U091QJU2BM2", "display_name": "Arthur", "bio": null, "projects_count": 0, "devlogs_count": 5, "votes_count": 13, "ships_count": 0, "projects": [], "coding_time_seconds": 65175, "coding_time_seconds_today": 0, "balance": "You need to have a pocket watcher badge to view this.", "badges": [{"name": "Maiden Voyage", "text": "you shipped your first project! the journey begins...", "icon": "\ud83d\udea2"}], "created_at": "2025-06-17T01:09:31.522-04:00", "updated_at": "2025-09-22T10:51:05.848-04:00", "avatar": "https://secure.gravatar.com/avatar/122eb4453d16b85aa11880be486a624d.jpg?s=512&d=https%3A%2F%2Fa.slack-edge.com%2Fdf10d%2Fimg%2Favatars%2Fava_0012-512.png", "custom_css": null}, {"id": 4830, "slack_id": "U091AS2SXL7", "display_name": "OkPoorav", "bio": null, "projects_count": 0, "devlogs_count": 0, "votes_count": 0, "ships_count": 0, "projects": [], "coding_time_seconds": 0, "coding_time_seconds_today": 0, "balance": "You need to have a pocket watcher badge to view this.", "badges": [], "created_at": "2025-06-17T01:09:42.270-04:00", "updated_at": "2025-07-03T19:33:08.908-04:00", "avatar": "https://secure.gravatar.com/avatar/7f7b5fecd71cd80c3d5593924b9b186e.jpg?s=512&d=https%3A%2F%2Fa.slack-edge.com%2Fdf10d%2Fimg%2Favatars%2Fava_0009-512.png", "custom_css": null}, {"id": 4831, "slack_id": "U091A571ZCP", "display_name": "Yutowa Ohmura", "bio": null, "projects_count": 0, "devlogs_count": 0, "votes_count": 0, "ships_count": 0, "projects": [], "coding_time_seconds": 76380, "coding_time_seconds_today": 0, "balance": "You need to have a pocket watcher badge to view this.", "badges": [], "created_at": "2025-06-17T01:09:56.007-04:00", "updated_at": "2025-07-08T04:29:38.265-04:00", "avatar": "https://avatars.slack-edge.com/2025-06-17/9053522640566_82878124a4429a94cf05_original.png", "custom_css": null}, {"id": 4832, "slack_id": "U091SHEN70U", "display_name": "Arij sebai", "bio": null, "projects_count": 0, "devlogs_count": 0, "votes_count": 0, "ships_count": 0, "projects": [], "coding_time_seconds": 0, "coding_time_seconds_today": 0, "balance": "You need to have a pocket watcher badge to view this.", "badges": [], "created_at": "2025-06-17T01:09:57.758-04:00", "updated_at": "2025-07-03T19:33:09.445-04:00", "avatar": "https://secure.gravatar.com/avatar/ce3aa03f2f436f84acf0ef8f1e97b881.jpg?s=512&d=https%3A%2F%2Fa.slack-edge.com%2Fdf10d%2Fimg%2Favatars%2Fava_0000-512.png", "custom_css": null}, {"id": 4833, "slack_id": "U091S8916F4", "display_name": "Akshat Sipany", "bio": null, "projects_count": 0, "devlogs_count": 0, "votes_count": 0, "ships_count": 0, "projects": [], "coding_time_seconds": 837737, "coding_time_seconds_today": 0, "balance": "You need to have a pocket watcher badge to view this.", "badges": [], "created_at": "2025-06-17T01:11:05.548-04:00", "updated_at": "2025-07-03T19:33:09.703-04:00", "avatar": "https://avatars.slack-edge.com/2025-06-16/9044901805287_9cd161f9c20040addc00_original.png", "custom_css": null}, {"id": 4834, "slack_id": "U07GWBBH0KX", "display_name": "Sankalp Mudaliar", "bio": null, "projects_count": 0, "devlogs_count": 0, "votes_count": 0, "ships_count": 0, "projects": [], "coding_time_seconds": 720, "coding_time_seconds_today": 0, "balance": "You need to have a pocket watcher badge to view this.", "badges": [], "created_at": "2025-06-17T01:11:21.577-04:00", "updated_at": "2025-07-07T02:00:00.542-04:00", "avatar": "https://avatars.slack-edge.com/2024-09-03/7657122099223_fa42dd2b759f5be41f05_original.png", "custom_css": null}, {"id": 4835, "slack_id": "U091QCBJ3BP", "display_name": "mayur", "bio": null, "projects_count": 0, "devlogs_count": 0, "votes_count": 0, "ships_count": 0, "projects": [], "coding_time_seconds": 0, "coding_time_seconds_today": 0, "balance": "You need to have a pocket watcher badge to view this.", "badges": [], "created_at": "2025-06-17T01:11:27.767-04:00", "updated_at": "2025-07-03T19:33:10.242-04:00", "avatar": "https://secure.gravatar.com/avatar/4fa2fb4d2f059a7b7abda9b99ae360be.jpg?s=512&d=https%3A%2F%2Fa.slack-edge.com%2Fdf10d%2Fimg%2Favatars%2Fava_0013-512.png", "custom_css": null}, {"id": 4836, "slack_id": "U091QE2KY1K", "display_name": "Ryan Lewis", "bio": null, "projects_count": 0, "devlogs_count": 0, "votes_count": 0, "ships_count": 0, "projects": [], "coding_time_seconds": 0, "coding_time_seconds_today": 0, "balance": "You need to have a pocket watcher badge to view this.", "badges": [], "created_at": "2025-06-17T01:11:54.397-04:00", "updated_at": "2025-07-03T19:33:10.504-04:00", "avatar": "https://avatars.slack-edge.com/2025-06-16/9058496939029_7b46267cf29a8f7186ca_original.jpg", "custom_css": null}, {"id": 4837, "slack_id": "U0924PW8LG1", "display_name": "Ikhbal", "bio": null, "projects_count": 1, "devlogs_count": 0, "votes_count": 0, "ships_count": 0, "projects": [{"id": 2997, "title": "ABM-Employee-App-Foundation-Service", "devlogs_count": 0, "created_at": "2025-06-22T17:06:57.094-04:00"}], "coding_time_seconds": 1515970, "coding_time_seconds_today": 6032, "balance": "You need to have a pocket watcher badge to view this.", "badges": [], "created_at": "2025-06-17T01:12:04.457-04:00", "updated_at": "2025-08-09T21:47:29.677-04:00", "avatar": "https://secure.gravatar.com/avatar/a91e6045d9b4cbc54c95dcf9a37443f6.jpg?s=512&d=https%3A%2F%2Fa.slack-edge.com%2Fdf10d%2Fimg%2Favatars%2Fava_0000-512.png", "custom_css": null}, {"id": 4838, "slack_id": "U0924PXGL01", "display_name": "Subhash Pavuskar", "bio": null, "projects_count": 0, "devlogs_count": 0, "votes_count": 0, "ships_count": 0, "projects": [], "coding_time_seconds": 0, "coding_time_seconds_today": 0, "balance": "You need to have a pocket watcher badge to view this.", "badges": [], "created_at": "2025-06-17T01:12:06.766-04:00", "updated_at": "2025-07-03T19:33:11.029-04:00", "avatar": "https://secure.gravatar.com/avatar/6bcadbeb4df874b43e148f2fcd630703.jpg?s=512&d=https%3A%2F%2Fa.slack-edge.com%2Fdf10d%2Fimg%2Favatars%2Fava_0025-512.png", "custom_css": null}, {"id": 4839, "slack_id": "U08RU1GTXSP", "display_name": "AlAoTach", "bio": null, "projects_count": 0, "devlogs_count": 19, "votes_count": 64, "ships_count": 0, "projects": [], "coding_time_seconds": 488508, "coding_time_seconds_today": 0, "balance": "You need to have a pocket watcher badge to view this.", "badges": [{"name": "Maiden Voyage", "text": "you shipped your first project! the journey begins...", "icon": "\ud83d\udea2"}, {"name": "Ballot Stuffer", "text": "vote 100 times.", "icon": "https://summer.hackclub.com/assets/i_voted-bf851b48.png"}], "created_at": "2025-06-17T01:12:12.102-04:00", "updated_at": "2025-09-10T22:53:33.988-04:00", "avatar": "https://avatars.slack-edge.com/2025-05-12/8904644615264_92fcdb697bb2c7200b78_original.jpg", "custom_css": null}, {"id": 4840, "slack_id": "U091AS8QVAB", "display_name": "Sumedh Sandeep Joshi", "bio": null, "projects_count": 0, "devlogs_count": 0, "votes_count": 0, "ships_count": 0, "projects": [], "coding_time_seconds": 0, "coding_time_seconds_today": 0, "balance": "You need to have a pocket watcher badge to view this.", "badges": [], "created_at": "2025-06-17T01:12:31.094-04:00", "updated_at": "2025-07-03T19:33:11.563-04:00", "avatar": "https://secure.gravatar.com/avatar/0764c358d6d4007d55f29554c09732f6.jpg?s=512&d=https%3A%2F%2Fa.slack-edge.com%2Fdf10d%2Fimg%2Favatars%2Fava_0008-512.png", "custom_css": null}], "pagination": {"page": 242, "pages": 1192, "count": 23828, "items": 20}}