{"users": [{"id": 4841, "slack_id": "U091KEW00S2", "display_name": "Ash", "bio": null, "projects_count": 0, "devlogs_count": 0, "votes_count": 0, "ships_count": 0, "projects": [], "coding_time_seconds": 0, "coding_time_seconds_today": 0, "balance": "You need to have a pocket watcher badge to view this.", "badges": [], "created_at": "2025-06-17T01:12:41.030-04:00", "updated_at": "2025-07-03T19:33:11.855-04:00", "avatar": "https://secure.gravatar.com/avatar/0ee094297cbe480df88386f4762da44e.jpg?s=512&d=https%3A%2F%2Fa.slack-edge.com%2Fdf10d%2Fimg%2Favatars%2Fava_0022-512.png", "custom_css": null}, {"id": 4842, "slack_id": "U091KBWJ7GB", "display_name": "Shreyas Anchatageri", "bio": null, "projects_count": 1, "devlogs_count": 1, "votes_count": 0, "ships_count": 0, "projects": [{"id": 4657, "title": "TechBlog", "devlogs_count": 1, "created_at": "2025-07-01T01:38:44.725-04:00"}], "coding_time_seconds": 48059, "coding_time_seconds_today": 0, "balance": "You need to have a pocket watcher badge to view this.", "badges": [], "created_at": "2025-06-17T01:12:48.610-04:00", "updated_at": "2025-07-07T00:47:21.424-04:00", "avatar": "https://avatars.slack-edge.com/2025-06-16/9060614711268_9036fcabc367e0ea9f8b_original.jpg", "custom_css": null}, {"id": 4843, "slack_id": "U091KBSLV51", "display_name": "Krishna Ganta", "bio": null, "projects_count": 0, "devlogs_count": 0, "votes_count": 0, "ships_count": 0, "projects": [], "coding_time_seconds": 2219, "coding_time_seconds_today": 0, "balance": "You need to have a pocket watcher badge to view this.", "badges": [], "created_at": "2025-06-17T01:12:56.962-04:00", "updated_at": "2025-07-03T19:33:12.410-04:00", "avatar": "https://secure.gravatar.com/avatar/99aaa50d8d111203ff18fd123d46b88b.jpg?s=512&d=https%3A%2F%2Fa.slack-edge.com%2Fdf10d%2Fimg%2Favatars%2Fava_0016-512.png", "custom_css": null}, {"id": 4844, "slack_id": "U091KETE2TY", "display_name": "Priyanshu Tiwari", "bio": null, "projects_count": 0, "devlogs_count": 0, "votes_count": 0, "ships_count": 0, "projects": [], "coding_time_seconds": 0, "coding_time_seconds_today": 0, "balance": "You need to have a pocket watcher badge to view this.", "badges": [], "created_at": "2025-06-17T01:12:59.057-04:00", "updated_at": "2025-07-03T19:33:12.671-04:00", "avatar": "https://secure.gravatar.com/avatar/f4fc45a1275064802121b4ea3568a7e5.jpg?s=512&d=https%3A%2F%2Fa.slack-edge.com%2Fdf10d%2Fimg%2Favatars%2Fava_0024-512.png", "custom_css": null}, {"id": 4845, "slack_id": "U091QE9B693", "display_name": "Terez", "bio": null, "projects_count": 0, "devlogs_count": 0, "votes_count": 0, "ships_count": 0, "projects": [], "coding_time_seconds": 0, "coding_time_seconds_today": 0, "balance": "You need to have a pocket watcher badge to view this.", "badges": [], "created_at": "2025-06-17T01:13:00.248-04:00", "updated_at": "2025-07-03T19:33:12.936-04:00", "avatar": "https://secure.gravatar.com/avatar/b3c458a24ca03706a11baf87a4a55878.jpg?s=512&d=https%3A%2F%2Fa.slack-edge.com%2Fdf10d%2Fimg%2Favatars%2Fava_0014-512.png", "custom_css": null}, {"id": 4846, "slack_id": "U091KB50XH9", "display_name": "Nathan", "bio": null, "projects_count": 0, "devlogs_count": 0, "votes_count": 0, "ships_count": 0, "projects": [], "coding_time_seconds": 99426, "coding_time_seconds_today": 0, "balance": "You need to have a pocket watcher badge to view this.", "badges": [], "created_at": "2025-06-17T01:13:07.802-04:00", "updated_at": "2025-07-07T14:22:16.827-04:00", "avatar": "https://secure.gravatar.com/avatar/0636f927b5410b6a3fe657908cb718cc.jpg?s=512&d=https%3A%2F%2Fa.slack-edge.com%2Fdf10d%2Fimg%2Favatars%2Fava_0024-512.png", "custom_css": null}, {"id": 4847, "slack_id": "U0924Q30YU9", "display_name": "Florian", "bio": null, "projects_count": 0, "devlogs_count": 0, "votes_count": 0, "ships_count": 0, "projects": [], "coding_time_seconds": 0, "coding_time_seconds_today": 0, "balance": "You need to have a pocket watcher badge to view this.", "badges": [], "created_at": "2025-06-17T01:13:24.570-04:00", "updated_at": "2025-07-03T19:33:13.340-04:00", "avatar": "https://secure.gravatar.com/avatar/3eb87728c35b73c640ab04c4a44727ee.jpg?s=512&d=https%3A%2F%2Fa.slack-edge.com%2Fdf10d%2Fimg%2Favatars%2Fava_0021-512.png", "custom_css": null}, {"id": 4848, "slack_id": "U091KF1TAT0", "display_name": "Achintya Krishna", "bio": null, "projects_count": 0, "devlogs_count": 0, "votes_count": 0, "ships_count": 0, "projects": [], "coding_time_seconds": 1464, "coding_time_seconds_today": 0, "balance": "You need to have a pocket watcher badge to view this.", "badges": [], "created_at": "2025-06-17T01:13:41.584-04:00", "updated_at": "2025-07-03T21:54:12.564-04:00", "avatar": "https://secure.gravatar.com/avatar/8c35fe8f81421097500ef1b55a11c4ed.jpg?s=512&d=https%3A%2F%2Fa.slack-edge.com%2Fdf10d%2Fimg%2Favatars%2Fava_0010-512.png", "custom_css": null}, {"id": 4849, "slack_id": "U07GDV4NYKY", "display_name": "Qde", "bio": null, "projects_count": 0, "devlogs_count": 0, "votes_count": 0, "ships_count": 0, "projects": [], "coding_time_seconds": 54009, "coding_time_seconds_today": 0, "balance": "You need to have a pocket watcher badge to view this.", "badges": [], "created_at": "2025-06-17T01:13:53.930-04:00", "updated_at": "2025-07-03T19:33:13.758-04:00", "avatar": "https://secure.gravatar.com/avatar/5833a38aaaf0babd596d1eb8e359f80b.jpg?s=512&d=https%3A%2F%2Fa.slack-edge.com%2Fdf10d%2Fimg%2Favatars%2Fava_0000-512.png", "custom_css": null}, {"id": 4850, "slack_id": "U091S8SHDT4", "display_name": "Dhaval soni", "bio": null, "projects_count": 0, "devlogs_count": 0, "votes_count": 0, "ships_count": 0, "projects": [], "coding_time_seconds": 85287, "coding_time_seconds_today": 0, "balance": "You need to have a pocket watcher badge to view this.", "badges": [], "created_at": "2025-06-17T01:14:05.055-04:00", "updated_at": "2025-07-03T19:33:14.020-04:00", "avatar": "https://secure.gravatar.com/avatar/4f87ec48451e652218776846cb11d084.jpg?s=512&d=https%3A%2F%2Fa.slack-edge.com%2Fdf10d%2Fimg%2Favatars%2Fava_0001-512.png", "custom_css": null}, {"id": 4851, "slack_id": "U091JRYGFN0", "display_name": "PM", "bio": null, "projects_count": 0, "devlogs_count": 0, "votes_count": 0, "ships_count": 0, "projects": [], "coding_time_seconds": 0, "coding_time_seconds_today": 0, "balance": "You need to have a pocket watcher badge to view this.", "badges": [], "created_at": "2025-06-17T01:14:07.736-04:00", "updated_at": "2025-07-03T19:33:14.305-04:00", "avatar": "https://avatars.slack-edge.com/2025-06-15/9036794745271_7a296d8f34ac11f93f6d_original.jpg", "custom_css": null}, {"id": 4852, "slack_id": "U091QEFSX1T", "display_name": "Vladislav Bogatyrev", "bio": null, "projects_count": 0, "devlogs_count": 0, "votes_count": 0, "ships_count": 0, "projects": [], "coding_time_seconds": 21836, "coding_time_seconds_today": 0, "balance": "You need to have a pocket watcher badge to view this.", "badges": [], "created_at": "2025-06-17T01:14:07.805-04:00", "updated_at": "2025-07-03T19:33:14.578-04:00", "avatar": "https://avatars.slack-edge.com/2025-06-16/9060619117460_c6ba63ba3e2bcbde5c2a_original.jpg", "custom_css": null}, {"id": 4853, "slack_id": "U091SHRE50U", "display_name": "Tanzeel", "bio": null, "projects_count": 0, "devlogs_count": 0, "votes_count": 0, "ships_count": 0, "projects": [], "coding_time_seconds": 0, "coding_time_seconds_today": 0, "balance": "You need to have a pocket watcher badge to view this.", "badges": [], "created_at": "2025-06-17T01:14:21.584-04:00", "updated_at": "2025-07-03T19:33:14.844-04:00", "avatar": "https://secure.gravatar.com/avatar/47f7ece46db76533807b38c4c289afaf.jpg?s=512&d=https%3A%2F%2Fa.slack-edge.com%2Fdf10d%2Fimg%2Favatars%2Fava_0023-512.png", "custom_css": null}, {"id": 4854, "slack_id": "U091SHSBYCC", "display_name": "Kavish Dahal", "bio": null, "projects_count": 0, "devlogs_count": 0, "votes_count": 0, "ships_count": 0, "projects": [], "coding_time_seconds": 92316, "coding_time_seconds_today": 0, "balance": "You need to have a pocket watcher badge to view this.", "badges": [], "created_at": "2025-06-17T01:14:36.715-04:00", "updated_at": "2025-07-03T19:33:15.105-04:00", "avatar": "https://secure.gravatar.com/avatar/51a10e850ce39675dcf66e81da993537.jpg?s=512&d=https%3A%2F%2Fa.slack-edge.com%2Fdf10d%2Fimg%2Favatars%2Fava_0016-512.png", "custom_css": null}, {"id": 4855, "slack_id": "U07DZ6A6CR4", "display_name": "Keyaan", "bio": null, "projects_count": 0, "devlogs_count": 0, "votes_count": 0, "ships_count": 0, "projects": [], "coding_time_seconds": 80123, "coding_time_seconds_today": 0, "balance": "You need to have a pocket watcher badge to view this.", "badges": [], "created_at": "2025-06-17T01:14:39.085-04:00", "updated_at": "2025-08-22T14:22:18.867-04:00", "avatar": "https://avatars.slack-edge.com/2025-08-22/9383399520151_b38dfd8be35edd611413_original.jpg", "custom_css": null}, {"id": 4856, "slack_id": "U08U8UD6R89", "display_name": "Manu Anish", "bio": null, "projects_count": 0, "devlogs_count": 0, "votes_count": 0, "ships_count": 0, "projects": [], "coding_time_seconds": 497938, "coding_time_seconds_today": 0, "balance": "You need to have a pocket watcher badge to view this.", "badges": [], "created_at": "2025-06-17T01:14:51.007-04:00", "updated_at": "2025-07-03T19:33:15.629-04:00", "avatar": "https://avatars.slack-edge.com/2025-05-24/8942106937270_0adb32895b18b5c01955_original.png", "custom_css": null}, {"id": 4857, "slack_id": "U079XDTUUK1", "display_name": "taisan11", "bio": null, "projects_count": 5, "devlogs_count": 10, "votes_count": 10, "ships_count": 1, "projects": [{"id": 3876, "title": "HTTPS to HTTP on Rust", "devlogs_count": 3, "created_at": "2025-06-26T04:54:09.653-04:00"}, {"id": 5798, "title": "tair2-cdn-bot", "devlogs_count": 1, "created_at": "2025-07-08T04:22:33.433-04:00"}, {"id": 7245, "title": "Astro Crypto Pages", "devlogs_count": 1, "created_at": "2025-07-20T08:52:45.124-04:00"}, {"id": 8562, "title": "Rokuon-Kun", "devlogs_count": 2, "created_at": "2025-07-28T06:47:54.015-04:00"}, {"id": 4028, "title": "minecraft server research \"kun 1\"", "devlogs_count": 0, "created_at": "2025-06-27T00:48:08.693-04:00"}], "coding_time_seconds": 329624, "coding_time_seconds_today": 142, "balance": "You need to have a pocket watcher badge to view this.", "badges": [{"name": "Maiden Voyage", "text": "you shipped your first project! the journey begins...", "icon": "\ud83d\udea2"}], "created_at": "2025-06-17T01:15:00.558-04:00", "updated_at": "2025-09-10T22:53:34.475-04:00", "avatar": "https://avatars.slack-edge.com/2024-07-03/7365225311093_34bf0a6c48cd65dc3efd_original.jpg", "custom_css": null}, {"id": 4858, "slack_id": "U0924QB05EV", "display_name": "Reuben Oluyali", "bio": null, "projects_count": 0, "devlogs_count": 0, "votes_count": 0, "ships_count": 0, "projects": [], "coding_time_seconds": 0, "coding_time_seconds_today": 0, "balance": "You need to have a pocket watcher badge to view this.", "badges": [], "created_at": "2025-06-17T01:15:30.097-04:00", "updated_at": "2025-07-03T19:33:16.174-04:00", "avatar": "https://secure.gravatar.com/avatar/05bc0cc2f3d5ac501c2c9fbde1c0d31f.jpg?s=512&d=https%3A%2F%2Fa.slack-edge.com%2Fdf10d%2Fimg%2Favatars%2Fava_0024-512.png", "custom_css": null}, {"id": 4859, "slack_id": "U091KC5KC91", "display_name": "soarbh", "bio": null, "projects_count": 1, "devlogs_count": 0, "votes_count": 0, "ships_count": 0, "projects": [{"id": 669, "title": "Job hunting and Tracking tool", "devlogs_count": 0, "created_at": "2025-06-17T04:56:21.272-04:00"}], "coding_time_seconds": 107608, "coding_time_seconds_today": 842, "balance": "You need to have a pocket watcher badge to view this.", "badges": [], "created_at": "2025-06-17T01:15:51.950-04:00", "updated_at": "2025-07-03T19:33:16.443-04:00", "avatar": "https://secure.gravatar.com/avatar/099781027218c2e0176f568776bae582.jpg?s=512&d=https%3A%2F%2Fa.slack-edge.com%2Fdf10d%2Fimg%2Favatars%2Fava_0020-512.png", "custom_css": null}, {"id": 4860, "slack_id": "U091S2DQRDG", "display_name": "Laura Figueredo", "bio": null, "projects_count": 0, "devlogs_count": 0, "votes_count": 0, "ships_count": 0, "projects": [], "coding_time_seconds": 0, "coding_time_seconds_today": 0, "balance": "You need to have a pocket watcher badge to view this.", "badges": [], "created_at": "2025-06-17T01:15:54.738-04:00", "updated_at": "2025-07-03T19:33:16.699-04:00", "avatar": "https://secure.gravatar.com/avatar/408cf483d678c9ab721bb40062f1f6bc.jpg?s=512&d=https%3A%2F%2Fa.slack-edge.com%2Fdf10d%2Fimg%2Favatars%2Fava_0003-512.png", "custom_css": null}], "pagination": {"page": 243, "pages": 1192, "count": 23828, "items": 20}}