{"users": [{"id": 4881, "slack_id": "U091AT2AFC7", "display_name": "Prince Soni", "bio": null, "projects_count": 0, "devlogs_count": 0, "votes_count": 0, "ships_count": 0, "projects": [], "coding_time_seconds": 0, "coding_time_seconds_today": 0, "balance": "You need to have a pocket watcher badge to view this.", "badges": [], "created_at": "2025-06-17T01:21:21.173-04:00", "updated_at": "2025-07-03T19:33:22.685-04:00", "avatar": "https://secure.gravatar.com/avatar/a75f8420c333fbb5d8fbf0c597cf49cf.jpg?s=512&d=https%3A%2F%2Fa.slack-edge.com%2Fdf10d%2Fimg%2Favatars%2Fava_0014-512.png", "custom_css": null}, {"id": 4882, "slack_id": "U08CHB2B9PE", "display_name": "Levani Vashadze", "bio": null, "projects_count": 1, "devlogs_count": 0, "votes_count": 0, "ships_count": 0, "projects": [{"id": 917, "title": "Tekstiko", "devlogs_count": 0, "created_at": "2025-06-17T11:10:40.851-04:00"}], "coding_time_seconds": 95382, "coding_time_seconds_today": 0, "balance": "You need to have a pocket watcher badge to view this.", "badges": [], "created_at": "2025-06-17T01:21:26.632-04:00", "updated_at": "2025-07-03T19:33:22.940-04:00", "avatar": "https://avatars.slack-edge.com/2025-02-08/8425377014676_035aeb2e395cddc25d21_original.png", "custom_css": null}, {"id": 4883, "slack_id": "U091KFWLZAS", "display_name": "Ansh Gupta", "bio": null, "projects_count": 0, "devlogs_count": 0, "votes_count": 0, "ships_count": 0, "projects": [], "coding_time_seconds": 581, "coding_time_seconds_today": 0, "balance": "You need to have a pocket watcher badge to view this.", "badges": [], "created_at": "2025-06-17T01:21:36.966-04:00", "updated_at": "2025-07-03T19:33:23.221-04:00", "avatar": "https://secure.gravatar.com/avatar/c84da0517470df3d12bb1b0efb16e52c.jpg?s=512&d=https%3A%2F%2Fa.slack-edge.com%2Fdf10d%2Fimg%2Favatars%2Fava_0026-512.png", "custom_css": null}, {"id": 4884, "slack_id": "U091ASETCT1", "display_name": "Mahmoud", "bio": null, "projects_count": 0, "devlogs_count": 0, "votes_count": 0, "ships_count": 0, "projects": [], "coding_time_seconds": 0, "coding_time_seconds_today": 0, "balance": "You need to have a pocket watcher badge to view this.", "badges": [], "created_at": "2025-06-17T01:21:52.294-04:00", "updated_at": "2025-07-03T19:33:23.483-04:00", "avatar": "https://secure.gravatar.com/avatar/b7d1294a33f497f59e5050461ea9c543.jpg?s=512&d=https%3A%2F%2Fa.slack-edge.com%2Fdf10d%2Fimg%2Favatars%2Fava_0013-512.png", "custom_css": null}, {"id": 4885, "slack_id": "U091SJQEYJ0", "display_name": "Aryavansh Saini", "bio": null, "projects_count": 0, "devlogs_count": 0, "votes_count": 0, "ships_count": 0, "projects": [], "coding_time_seconds": 74237, "coding_time_seconds_today": 0, "balance": "You need to have a pocket watcher badge to view this.", "badges": [], "created_at": "2025-06-17T01:22:14.179-04:00", "updated_at": "2025-07-03T19:33:23.748-04:00", "avatar": "https://secure.gravatar.com/avatar/618277c280f2b1ddac1676a9f0f3c17f.jpg?s=512&d=https%3A%2F%2Fa.slack-edge.com%2Fdf10d%2Fimg%2Favatars%2Fava_0013-512.png", "custom_css": null}, {"id": 4886, "slack_id": "U091QES3RTP", "display_name": "Pre Evolution", "bio": null, "projects_count": 0, "devlogs_count": 0, "votes_count": 0, "ships_count": 0, "projects": [], "coding_time_seconds": 0, "coding_time_seconds_today": 0, "balance": "You need to have a pocket watcher badge to view this.", "badges": [], "created_at": "2025-06-17T01:22:36.742-04:00", "updated_at": "2025-07-03T19:33:24.006-04:00", "avatar": "https://secure.gravatar.com/avatar/e1a160de060eec2131abb84e71755930.jpg?s=512&d=https%3A%2F%2Fa.slack-edge.com%2Fdf10d%2Fimg%2Favatars%2Fava_0015-512.png", "custom_css": null}, {"id": 4887, "slack_id": "U0794U716JZ", "display_name": "Arshan", "bio": null, "projects_count": 0, "devlogs_count": 0, "votes_count": 0, "ships_count": 0, "projects": [], "coding_time_seconds": 85378, "coding_time_seconds_today": 0, "balance": "You need to have a pocket watcher badge to view this.", "badges": [], "created_at": "2025-06-17T01:22:44.005-04:00", "updated_at": "2025-07-03T19:33:24.262-04:00", "avatar": "https://avatars.slack-edge.com/2025-03-13/8605866590804_cfefe37b6f8d7241419b_original.jpg", "custom_css": null}, {"id": 4888, "slack_id": "U0793PUJ7SA", "display_name": "amz", "bio": null, "projects_count": 1, "devlogs_count": 0, "votes_count": 0, "ships_count": 0, "projects": [{"id": 2780, "title": "ExpressJS Prac Server", "devlogs_count": 0, "created_at": "2025-06-22T04:15:37.197-04:00"}], "coding_time_seconds": 102531, "coding_time_seconds_today": 0, "balance": "You need to have a pocket watcher badge to view this.", "badges": [], "created_at": "2025-06-17T01:22:45.408-04:00", "updated_at": "2025-07-03T19:33:24.527-04:00", "avatar": "https://avatars.slack-edge.com/2024-06-27/7337266838086_67cb20cc47fc37474805_original.jpg", "custom_css": null}, {"id": 4889, "slack_id": "U091SJG66AG", "display_name": "Shaik Mohammad", "bio": null, "projects_count": 0, "devlogs_count": 0, "votes_count": 0, "ships_count": 0, "projects": [], "coding_time_seconds": 199964, "coding_time_seconds_today": 0, "balance": "You need to have a pocket watcher badge to view this.", "badges": [], "created_at": "2025-06-17T01:22:52.109-04:00", "updated_at": "2025-07-03T19:33:24.799-04:00", "avatar": "https://secure.gravatar.com/avatar/b50bbb122907ecfb54d436d8b96bbafe.jpg?s=512&d=https%3A%2F%2Fa.slack-edge.com%2Fdf10d%2Fimg%2Favatars%2Fava_0026-512.png", "custom_css": null}, {"id": 4890, "slack_id": "U091ASXMZ0X", "display_name": "PXNZK Cloud Services", "bio": null, "projects_count": 0, "devlogs_count": 0, "votes_count": 0, "ships_count": 0, "projects": [], "coding_time_seconds": 0, "coding_time_seconds_today": 0, "balance": "You need to have a pocket watcher badge to view this.", "badges": [], "created_at": "2025-06-17T01:23:16.943-04:00", "updated_at": "2025-07-03T19:33:25.240-04:00", "avatar": "https://secure.gravatar.com/avatar/4321bc4f65452c9f03be618f9a8d4f88.jpg?s=512&d=https%3A%2F%2Fa.slack-edge.com%2Fdf10d%2Fimg%2Favatars%2Fava_0022-512.png", "custom_css": null}, {"id": 4891, "slack_id": "U091KCTP611", "display_name": "Artsun T kurian", "bio": null, "projects_count": 0, "devlogs_count": 0, "votes_count": 0, "ships_count": 0, "projects": [], "coding_time_seconds": 0, "coding_time_seconds_today": 0, "balance": "You need to have a pocket watcher badge to view this.", "badges": [], "created_at": "2025-06-17T01:23:31.453-04:00", "updated_at": "2025-07-03T19:33:25.826-04:00", "avatar": "https://secure.gravatar.com/avatar/8ee2bf9e8a709581bcc05cd2101e5504.jpg?s=512&d=https%3A%2F%2Fa.slack-edge.com%2Fdf10d%2Fimg%2Favatars%2Fava_0013-512.png", "custom_css": null}, {"id": 4892, "slack_id": "U0842PFE03X", "display_name": "Tymek", "bio": null, "projects_count": 5, "devlogs_count": 28, "votes_count": 18, "ships_count": 1, "projects": [{"id": 4190, "title": "Wasona", "devlogs_count": 2, "created_at": "2025-06-28T05:11:06.323-04:00"}, {"id": 4470, "title": "Agin CI", "devlogs_count": 19, "created_at": "2025-06-30T06:05:38.639-04:00"}, {"id": 9911, "title": "Agin Slides", "devlogs_count": 3, "created_at": "2025-08-02T20:56:18.048-04:00"}, {"id": 8998, "title": "Agin Sensors", "devlogs_count": 2, "created_at": "2025-07-30T06:28:24.871-04:00"}, {"id": 5921, "title": "Agin Auth", "devlogs_count": 2, "created_at": "2025-07-09T05:48:38.102-04:00"}], "coding_time_seconds": 1087598, "coding_time_seconds_today": 2525, "balance": "You need to have a pocket watcher badge to view this.", "badges": [{"name": "Maiden Voyage", "text": "you shipped your first project! the journey begins...", "icon": "\ud83d\udea2"}], "created_at": "2025-06-17T01:23:55.067-04:00", "updated_at": "2025-09-10T22:53:35.790-04:00", "avatar": "https://avatars.slack-edge.com/2024-12-19/8200522971779_b98898642ebe0f6a0915_original.jpg", "custom_css": null}, {"id": 4893, "slack_id": "U091KBN4MTM", "display_name": "I'm Vlado", "bio": null, "projects_count": 2, "devlogs_count": 15, "votes_count": 69, "ships_count": 2, "projects": [{"id": 4490, "title": "PyRacing", "devlogs_count": 14, "created_at": "2025-06-30T09:48:30.084-04:00"}, {"id": 9968, "title": "AboutMe-Box", "devlogs_count": 1, "created_at": "2025-08-03T07:57:00.394-04:00"}], "coding_time_seconds": 339767, "coding_time_seconds_today": 0, "balance": "You need to have a pocket watcher badge to view this.", "badges": [{"name": "Maiden Voyage", "text": "you shipped your first project! the journey begins...", "icon": "\ud83d\udea2"}], "created_at": "2025-06-17T01:24:26.183-04:00", "updated_at": "2025-09-10T22:53:35.823-04:00", "avatar": "https://avatars.slack-edge.com/2025-09-01/9441642856738_5b17427713982625c36d_original.jpg", "custom_css": null}, {"id": 4894, "slack_id": "U091S8KAF50", "display_name": "Rajveer", "bio": null, "projects_count": 0, "devlogs_count": 0, "votes_count": 0, "ships_count": 0, "projects": [], "coding_time_seconds": 0, "coding_time_seconds_today": 0, "balance": "You need to have a pocket watcher badge to view this.", "badges": [], "created_at": "2025-06-17T01:24:49.875-04:00", "updated_at": "2025-07-03T19:33:26.790-04:00", "avatar": "https://secure.gravatar.com/avatar/e16f61f944b80d69fdd287fe5bf54607.jpg?s=512&d=https%3A%2F%2Fa.slack-edge.com%2Fdf10d%2Fimg%2Favatars%2Fava_0012-512.png", "custom_css": null}, {"id": 4895, "slack_id": "U092ELKPJ64", "display_name": "Paras Salunke", "bio": null, "projects_count": 0, "devlogs_count": 0, "votes_count": 0, "ships_count": 0, "projects": [], "coding_time_seconds": 0, "coding_time_seconds_today": 0, "balance": "You need to have a pocket watcher badge to view this.", "badges": [], "created_at": "2025-06-17T01:25:05.213-04:00", "updated_at": "2025-07-03T19:33:27.119-04:00", "avatar": "https://avatars.slack-edge.com/2025-06-16/9053561980598_9a469eac99939179369b_original.jpg", "custom_css": null}, {"id": 4896, "slack_id": "U0924QZ3U8Z", "display_name": "Ayush Kumar", "bio": null, "projects_count": 0, "devlogs_count": 0, "votes_count": 0, "ships_count": 0, "projects": [], "coding_time_seconds": 0, "coding_time_seconds_today": 0, "balance": "You need to have a pocket watcher badge to view this.", "badges": [], "created_at": "2025-06-17T01:25:08.435-04:00", "updated_at": "2025-07-03T19:33:27.389-04:00", "avatar": "https://secure.gravatar.com/avatar/41b200ad916e0c90a318b0564591cba1.jpg?s=512&d=https%3A%2F%2Fa.slack-edge.com%2Fdf10d%2Fimg%2Favatars%2Fava_0003-512.png", "custom_css": null}, {"id": 4897, "slack_id": "U091S9S8G02", "display_name": "AVEX41", "bio": null, "projects_count": 1, "devlogs_count": 1, "votes_count": 0, "ships_count": 0, "projects": [{"id": 621, "title": " dasherd-firefox", "devlogs_count": 1, "created_at": "2025-06-17T03:04:31.316-04:00"}], "coding_time_seconds": 22269, "coding_time_seconds_today": 0, "balance": "You need to have a pocket watcher badge to view this.", "badges": [], "created_at": "2025-06-17T01:25:28.536-04:00", "updated_at": "2025-08-25T00:53:38.231-04:00", "avatar": "https://secure.gravatar.com/avatar/55c5f0b65727f3f3d2e575747023d066.jpg?s=512&d=https%3A%2F%2Fa.slack-edge.com%2Fdf10d%2Fimg%2Favatars%2Fava_0020-512.png", "custom_css": null}, {"id": 4898, "slack_id": "U091S9VBWRY", "display_name": "sahasra ambati", "bio": null, "projects_count": 0, "devlogs_count": 0, "votes_count": 0, "ships_count": 0, "projects": [], "coding_time_seconds": 0, "coding_time_seconds_today": 0, "balance": "You need to have a pocket watcher badge to view this.", "badges": [], "created_at": "2025-06-17T01:25:34.810-04:00", "updated_at": "2025-07-03T19:33:27.972-04:00", "avatar": "https://avatars.slack-edge.com/2025-06-16/9082712839440_0eec24d891318d13ce20_original.png", "custom_css": null}, {"id": 4899, "slack_id": "U091AT8BWJK", "display_name": "Rih4u", "bio": null, "projects_count": 0, "devlogs_count": 0, "votes_count": 0, "ships_count": 0, "projects": [], "coding_time_seconds": 0, "coding_time_seconds_today": 0, "balance": "You need to have a pocket watcher badge to view this.", "badges": [], "created_at": "2025-06-17T01:25:37.702-04:00", "updated_at": "2025-07-03T19:33:28.255-04:00", "avatar": "https://secure.gravatar.com/avatar/2215570e86d711b7dd4ac7b421c09dca.jpg?s=512&d=https%3A%2F%2Fa.slack-edge.com%2Fdf10d%2Fimg%2Favatars%2Fava_0009-512.png", "custom_css": null}, {"id": 4900, "slack_id": "U091RP49SF6", "display_name": "Japji Kaur Grewal", "bio": null, "projects_count": 1, "devlogs_count": 0, "votes_count": 0, "ships_count": 0, "projects": [{"id": 843, "title": "Library Management System", "devlogs_count": 0, "created_at": "2025-06-17T09:39:34.957-04:00"}], "coding_time_seconds": 59148, "coding_time_seconds_today": 0, "balance": "You need to have a pocket watcher badge to view this.", "badges": [], "created_at": "2025-06-17T01:25:38.246-04:00", "updated_at": "2025-07-03T19:33:28.540-04:00", "avatar": "https://secure.gravatar.com/avatar/3792a447604cda32f7da985d2e9cbaf0.jpg?s=512&d=https%3A%2F%2Fa.slack-edge.com%2Fdf10d%2Fimg%2Favatars%2Fava_0011-512.png", "custom_css": null}], "pagination": {"page": 245, "pages": 1192, "count": 23828, "items": 20}}