{"users": [{"id": 4901, "slack_id": "U0924QVNUU9", "display_name": "Zameer Ali", "bio": null, "projects_count": 0, "devlogs_count": 0, "votes_count": 0, "ships_count": 0, "projects": [], "coding_time_seconds": 4559, "coding_time_seconds_today": 0, "balance": "You need to have a pocket watcher badge to view this.", "badges": [], "created_at": "2025-06-17T01:25:43.875-04:00", "updated_at": "2025-07-03T19:33:28.851-04:00", "avatar": "https://secure.gravatar.com/avatar/c6eafa8547cb34268061a32f96823c85.jpg?s=512&d=https%3A%2F%2Fa.slack-edge.com%2Fdf10d%2Fimg%2Favatars%2Fava_0009-512.png", "custom_css": null}, {"id": 4902, "slack_id": "U091KCZNZQT", "display_name": "Mirza Ilhami", "bio": null, "projects_count": 0, "devlogs_count": 0, "votes_count": 0, "ships_count": 0, "projects": [], "coding_time_seconds": 0, "coding_time_seconds_today": 0, "balance": "You need to have a pocket watcher badge to view this.", "badges": [], "created_at": "2025-06-17T01:26:12.756-04:00", "updated_at": "2025-07-03T19:33:29.129-04:00", "avatar": "https://secure.gravatar.com/avatar/e5f99786d2269f32d6e6f8e5b32bddf2.jpg?s=512&d=https%3A%2F%2Fa.slack-edge.com%2Fdf10d%2Fimg%2Favatars%2Fava_0004-512.png", "custom_css": null}, {"id": 4903, "slack_id": "U08AA5LCX7D", "display_name": "Nuan", "bio": "", "projects_count": 1, "devlogs_count": 11, "votes_count": 38, "ships_count": 1, "projects": [{"id": 4911, "title": "Race Reading", "devlogs_count": 11, "created_at": "2025-07-02T06:58:21.442-04:00"}], "coding_time_seconds": 446937, "coding_time_seconds_today": 0, "balance": "You need to have a pocket watcher badge to view this.", "badges": [{"name": "Maiden Voyage", "text": "you shipped your first project! the journey begins...", "icon": "\ud83d\udea2"}], "created_at": "2025-06-17T01:26:17.003-04:00", "updated_at": "2025-09-10T22:53:36.136-04:00", "avatar": "https://secure.gravatar.com/avatar/16e1bf671d13146058e097dfe11ced79.jpg?s=512&d=https%3A%2F%2Fa.slack-edge.com%2Fdf10d%2Fimg%2Favatars%2Fava_0015-512.png", "custom_css": null}, {"id": 4904, "slack_id": "U090JDVGV9C", "display_name": "Rouv", "bio": null, "projects_count": 0, "devlogs_count": 0, "votes_count": 0, "ships_count": 0, "projects": [], "coding_time_seconds": 0, "coding_time_seconds_today": 0, "balance": "You need to have a pocket watcher badge to view this.", "badges": [], "created_at": "2025-06-17T01:26:23.989-04:00", "updated_at": "2025-07-03T19:33:29.669-04:00", "avatar": "https://avatars.slack-edge.com/2025-06-10/9026726075874_70edc2723e98f7d63f04_original.jpg", "custom_css": null}, {"id": 4905, "slack_id": "U091SJWSZ9S", "display_name": "Shri", "bio": null, "projects_count": 0, "devlogs_count": 0, "votes_count": 0, "ships_count": 0, "projects": [], "coding_time_seconds": 0, "coding_time_seconds_today": 0, "balance": "You need to have a pocket watcher badge to view this.", "badges": [], "created_at": "2025-06-17T01:26:25.060-04:00", "updated_at": "2025-07-03T19:33:29.981-04:00", "avatar": "https://secure.gravatar.com/avatar/cc7a014770375aa42c0120e17a7ade44.jpg?s=512&d=https%3A%2F%2Fa.slack-edge.com%2Fdf10d%2Fimg%2Favatars%2Fava_0007-512.png", "custom_css": null}, {"id": 4906, "slack_id": "U091ATK7HNK", "display_name": "Erik", "bio": null, "projects_count": 0, "devlogs_count": 0, "votes_count": 0, "ships_count": 0, "projects": [], "coding_time_seconds": 0, "coding_time_seconds_today": 0, "balance": "You need to have a pocket watcher badge to view this.", "badges": [], "created_at": "2025-06-17T01:26:25.113-04:00", "updated_at": "2025-07-03T19:33:30.246-04:00", "avatar": "https://secure.gravatar.com/avatar/20397583f5dffaeb9505a0a22115fca7.jpg?s=512&d=https%3A%2F%2Fa.slack-edge.com%2Fdf10d%2Fimg%2Favatars%2Fava_0023-512.png", "custom_css": null}, {"id": 4907, "slack_id": "U091QFDN0LD", "display_name": "Infinus", "bio": null, "projects_count": 0, "devlogs_count": 0, "votes_count": 0, "ships_count": 0, "projects": [], "coding_time_seconds": 0, "coding_time_seconds_today": 0, "balance": "You need to have a pocket watcher badge to view this.", "badges": [], "created_at": "2025-06-17T01:26:30.961-04:00", "updated_at": "2025-07-03T19:33:30.512-04:00", "avatar": "https://secure.gravatar.com/avatar/12eb0e908a5947ba4c4c53f1e668e433.jpg?s=512&d=https%3A%2F%2Fa.slack-edge.com%2Fdf10d%2Fimg%2Favatars%2Fava_0010-512.png", "custom_css": null}, {"id": 4908, "slack_id": "U092ELP1T40", "display_name": "Adam B Shohe", "bio": null, "projects_count": 0, "devlogs_count": 0, "votes_count": 0, "ships_count": 0, "projects": [], "coding_time_seconds": 99221, "coding_time_seconds_today": 0, "balance": "You need to have a pocket watcher badge to view this.", "badges": [], "created_at": "2025-06-17T01:27:29.732-04:00", "updated_at": "2025-07-03T19:33:30.772-04:00", "avatar": "https://avatars.slack-edge.com/2025-06-17/9060772541188_28bf07c99f49b41f3b63_original.png", "custom_css": null}, {"id": 4909, "slack_id": "U091S9XJF42", "display_name": "DEEPAK A", "bio": null, "projects_count": 0, "devlogs_count": 0, "votes_count": 0, "ships_count": 0, "projects": [], "coding_time_seconds": 0, "coding_time_seconds_today": 0, "balance": "You need to have a pocket watcher badge to view this.", "badges": [], "created_at": "2025-06-17T01:27:34.735-04:00", "updated_at": "2025-07-03T19:33:31.036-04:00", "avatar": "https://avatars.slack-edge.com/2025-06-16/9044951647943_3a2252ecb67a1f97b171_original.png", "custom_css": null}, {"id": 4910, "slack_id": "U091ASSGBFH", "display_name": "Tyrant", "bio": null, "projects_count": 0, "devlogs_count": 0, "votes_count": 0, "ships_count": 0, "projects": [], "coding_time_seconds": 0, "coding_time_seconds_today": 0, "balance": "You need to have a pocket watcher badge to view this.", "badges": [], "created_at": "2025-06-17T01:27:39.661-04:00", "updated_at": "2025-07-03T19:33:31.307-04:00", "avatar": "https://secure.gravatar.com/avatar/eafec7e5bbc1a3322b4a82efcafb132d.jpg?s=512&d=https%3A%2F%2Fa.slack-edge.com%2Fdf10d%2Fimg%2Favatars%2Fava_0002-512.png", "custom_css": null}, {"id": 4911, "slack_id": "U07RECG85L2", "display_name": "Brett Berry", "bio": null, "projects_count": 0, "devlogs_count": 0, "votes_count": 0, "ships_count": 0, "projects": [], "coding_time_seconds": 111982, "coding_time_seconds_today": 0, "balance": "You need to have a pocket watcher badge to view this.", "badges": [], "created_at": "2025-06-17T01:28:09.001-04:00", "updated_at": "2025-07-03T19:33:31.571-04:00", "avatar": "https://secure.gravatar.com/avatar/723b2037291e7b731d8cfc6860e59628.jpg?s=512&d=https%3A%2F%2Fa.slack-edge.com%2Fdf10d%2Fimg%2Favatars%2Fava_0014-512.png", "custom_css": null}, {"id": 4912, "slack_id": "U091PJ0GRHA", "display_name": "Omkaar", "bio": null, "projects_count": 0, "devlogs_count": 0, "votes_count": 0, "ships_count": 0, "projects": [], "coding_time_seconds": 0, "coding_time_seconds_today": 0, "balance": "You need to have a pocket watcher badge to view this.", "badges": [], "created_at": "2025-06-17T01:28:23.087-04:00", "updated_at": "2025-07-03T19:33:31.841-04:00", "avatar": "https://secure.gravatar.com/avatar/b1b9ee9047fc22708590e2f2eda36a73.jpg?s=512&d=https%3A%2F%2Fa.slack-edge.com%2Fdf10d%2Fimg%2Favatars%2Fava_0023-512.png", "custom_css": null}, {"id": 4913, "slack_id": "U092ELCM1R6", "display_name": "THRISHAL DOMA", "bio": null, "projects_count": 0, "devlogs_count": 0, "votes_count": 0, "ships_count": 0, "projects": [], "coding_time_seconds": 8752, "coding_time_seconds_today": 0, "balance": "You need to have a pocket watcher badge to view this.", "badges": [], "created_at": "2025-06-17T01:29:07.336-04:00", "updated_at": "2025-07-03T19:33:32.110-04:00", "avatar": "https://secure.gravatar.com/avatar/f9ae605029545c25b1a813783500c93e.jpg?s=512&d=https%3A%2F%2Fa.slack-edge.com%2Fdf10d%2Fimg%2Favatars%2Fava_0005-512.png", "custom_css": null}, {"id": 4914, "slack_id": "U092EM25SJU", "display_name": "Sathwik Perla", "bio": null, "projects_count": 0, "devlogs_count": 0, "votes_count": 0, "ships_count": 0, "projects": [], "coding_time_seconds": 98766, "coding_time_seconds_today": 5499, "balance": "You need to have a pocket watcher badge to view this.", "badges": [], "created_at": "2025-06-17T01:29:14.072-04:00", "updated_at": "2025-07-03T19:33:32.375-04:00", "avatar": "https://avatars.slack-edge.com/2025-06-17/9060546760530_c5b7a8b79c3a0faec79a_original.jpg", "custom_css": null}, {"id": 4915, "slack_id": "U091KAJ6HD1", "display_name": "Dej", "bio": null, "projects_count": 0, "devlogs_count": 0, "votes_count": 0, "ships_count": 0, "projects": [], "coding_time_seconds": 0, "coding_time_seconds_today": 0, "balance": "You need to have a pocket watcher badge to view this.", "badges": [], "created_at": "2025-06-17T01:29:19.162-04:00", "updated_at": "2025-07-05T08:05:45.739-04:00", "avatar": "https://secure.gravatar.com/avatar/28707e91f31f60b1ee462caea2bcc821.jpg?s=512&d=https%3A%2F%2Fa.slack-edge.com%2Fdf10d%2Fimg%2Favatars%2Fava_0016-512.png", "custom_css": null}, {"id": 4916, "slack_id": "U091SA61EF4", "display_name": "Rafa", "bio": null, "projects_count": 0, "devlogs_count": 0, "votes_count": 0, "ships_count": 0, "projects": [], "coding_time_seconds": 0, "coding_time_seconds_today": 0, "balance": "You need to have a pocket watcher badge to view this.", "badges": [], "created_at": "2025-06-17T01:29:56.103-04:00", "updated_at": "2025-07-03T19:33:32.770-04:00", "avatar": "https://secure.gravatar.com/avatar/d07d6d56edba3dbecbf9a1224a27fbf7.jpg?s=512&d=https%3A%2F%2Fa.slack-edge.com%2Fdf10d%2Fimg%2Favatars%2Fava_0022-512.png", "custom_css": null}, {"id": 4917, "slack_id": "U091SA5Q4TC", "display_name": "Mukunda Mondal", "bio": null, "projects_count": 0, "devlogs_count": 0, "votes_count": 0, "ships_count": 0, "projects": [], "coding_time_seconds": 0, "coding_time_seconds_today": 0, "balance": "You need to have a pocket watcher badge to view this.", "badges": [], "created_at": "2025-06-17T01:30:29.974-04:00", "updated_at": "2025-07-03T19:33:33.035-04:00", "avatar": "https://secure.gravatar.com/avatar/977de52a98ac1c9d031a7c22aeb8df25.jpg?s=512&d=https%3A%2F%2Fa.slack-edge.com%2Fdf10d%2Fimg%2Favatars%2Fava_0022-512.png", "custom_css": null}, {"id": 4918, "slack_id": "U079VRNGBGV", "display_name": "olii-dev", "bio": null, "projects_count": 2, "devlogs_count": 3, "votes_count": 0, "ships_count": 0, "projects": [{"id": 571, "title": "quip", "devlogs_count": 2, "created_at": "2025-06-17T01:35:19.010-04:00"}, {"id": 3797, "title": "hackashop", "devlogs_count": 1, "created_at": "2025-06-25T19:46:22.405-04:00"}], "coding_time_seconds": 53298, "coding_time_seconds_today": 2539, "balance": "You need to have a pocket watcher badge to view this.", "badges": [], "created_at": "2025-06-17T01:30:41.447-04:00", "updated_at": "2025-07-28T11:59:31.531-04:00", "avatar": "https://avatars.slack-edge.com/2024-07-05/7382852610564_5071195f6343d0b8ee0f_original.png", "custom_css": null}, {"id": 4919, "slack_id": "U0924JBGVG9", "display_name": "Terroid", "bio": null, "projects_count": 0, "devlogs_count": 0, "votes_count": 0, "ships_count": 0, "projects": [], "coding_time_seconds": 0, "coding_time_seconds_today": 0, "balance": "You need to have a pocket watcher badge to view this.", "badges": [], "created_at": "2025-06-17T01:30:59.248-04:00", "updated_at": "2025-07-03T19:33:33.562-04:00", "avatar": "https://secure.gravatar.com/avatar/2952acd44d605766776dc5e45b73b462.jpg?s=512&d=https%3A%2F%2Fa.slack-edge.com%2Fdf10d%2Fimg%2Favatars%2Fava_0019-512.png", "custom_css": null}, {"id": 4920, "slack_id": "U091KGVGUUW", "display_name": "5RoD Fal", "bio": null, "projects_count": 0, "devlogs_count": 0, "votes_count": 0, "ships_count": 0, "projects": [], "coding_time_seconds": 1034, "coding_time_seconds_today": 0, "balance": "You need to have a pocket watcher badge to view this.", "badges": [], "created_at": "2025-06-17T01:31:35.698-04:00", "updated_at": "2025-07-03T19:33:33.826-04:00", "avatar": "https://avatars.slack-edge.com/2025-06-16/9060673958436_9be69149aead3d884128_original.png", "custom_css": null}], "pagination": {"page": 246, "pages": 1192, "count": 23828, "items": 20}}