{"users": [{"id": 4921, "slack_id": "U091QFTDY5B", "display_name": "Jubaeir Islam", "bio": null, "projects_count": 0, "devlogs_count": 0, "votes_count": 0, "ships_count": 0, "projects": [], "coding_time_seconds": 17705, "coding_time_seconds_today": 0, "balance": "You need to have a pocket watcher badge to view this.", "badges": [], "created_at": "2025-06-17T01:31:39.019-04:00", "updated_at": "2025-07-03T19:33:34.080-04:00", "avatar": "https://avatars.slack-edge.com/2025-06-16/9082732441008_95f2719842c3a0567dc2_original.jpg", "custom_css": null}, {"id": 4922, "slack_id": "U091SKG2YH2", "display_name": "Bryan", "bio": null, "projects_count": 0, "devlogs_count": 0, "votes_count": 0, "ships_count": 0, "projects": [], "coding_time_seconds": 36401, "coding_time_seconds_today": 0, "balance": "You need to have a pocket watcher badge to view this.", "badges": [], "created_at": "2025-06-17T01:32:13.462-04:00", "updated_at": "2025-07-03T19:33:34.354-04:00", "avatar": "https://secure.gravatar.com/avatar/c062d1a3c0c1197155bac7cc1c840568.jpg?s=512&d=https%3A%2F%2Fa.slack-edge.com%2Fdf10d%2Fimg%2Favatars%2Fava_0005-512.png", "custom_css": null}, {"id": 4923, "slack_id": "U0809BQH5J8", "display_name": "Vaibhav", "bio": null, "projects_count": 0, "devlogs_count": 0, "votes_count": 0, "ships_count": 0, "projects": [], "coding_time_seconds": 14575, "coding_time_seconds_today": 0, "balance": "You need to have a pocket watcher badge to view this.", "badges": [], "created_at": "2025-06-17T01:32:59.489-04:00", "updated_at": "2025-07-03T19:33:34.619-04:00", "avatar": "https://avatars.slack-edge.com/2024-11-23/8060470058839_674148b85031a29a33c8_original.png", "custom_css": null}, {"id": 4924, "slack_id": "U0924S3BNF3", "display_name": "Baerar", "bio": null, "projects_count": 0, "devlogs_count": 0, "votes_count": 0, "ships_count": 0, "projects": [], "coding_time_seconds": 0, "coding_time_seconds_today": 0, "balance": "You need to have a pocket watcher badge to view this.", "badges": [], "created_at": "2025-06-17T01:33:03.479-04:00", "updated_at": "2025-07-03T19:33:34.891-04:00", "avatar": "https://secure.gravatar.com/avatar/6e828dec6fe5bb367b7338c58a50e1eb.jpg?s=512&d=https%3A%2F%2Fa.slack-edge.com%2Fdf10d%2Fimg%2Favatars%2Fava_0018-512.png", "custom_css": null}, {"id": 4925, "slack_id": "U091KDSMY6P", "display_name": "Fazil", "bio": null, "projects_count": 0, "devlogs_count": 0, "votes_count": 0, "ships_count": 0, "projects": [], "coding_time_seconds": 0, "coding_time_seconds_today": 0, "balance": "You need to have a pocket watcher badge to view this.", "badges": [], "created_at": "2025-06-17T01:33:05.041-04:00", "updated_at": "2025-07-03T19:33:35.170-04:00", "avatar": "https://secure.gravatar.com/avatar/761ae3c54e4723a2488baea2ef8a923a.jpg?s=512&d=https%3A%2F%2Fa.slack-edge.com%2Fdf10d%2Fimg%2Favatars%2Fava_0001-512.png", "custom_css": null}, {"id": 4926, "slack_id": "U0823R1V9DY", "display_name": "Ho\u00e0ng Minh Thi\u00ean", "bio": null, "projects_count": 0, "devlogs_count": 0, "votes_count": 0, "ships_count": 0, "projects": [], "coding_time_seconds": 763673, "coding_time_seconds_today": 0, "balance": "You need to have a pocket watcher badge to view this.", "badges": [], "created_at": "2025-06-17T01:33:05.069-04:00", "updated_at": "2025-08-11T21:10:08.890-04:00", "avatar": "https://avatars.slack-edge.com/2024-11-22/8073701714915_83b25a3a29ce40c7237d_original.jpg", "custom_css": null}, {"id": 4927, "slack_id": "U07BBT06UKG", "display_name": "ollie", "bio": null, "projects_count": 5, "devlogs_count": 14, "votes_count": 116, "ships_count": 5, "projects": [{"id": 4315, "title": "mcpack (update)", "devlogs_count": 1, "created_at": "2025-06-28T22:32:51.802-04:00"}, {"id": 6204, "title": "Autorestic MCP Server", "devlogs_count": 7, "created_at": "2025-07-11T09:55:14.244-04:00"}, {"id": 4195, "title": "Player Pearls Mod (as well as 6 more!) Updates", "devlogs_count": 1, "created_at": "2025-06-28T05:37:23.914-04:00"}, {"id": 4349, "title": "Minimal Portfolio", "devlogs_count": 1, "created_at": "2025-06-29T08:57:47.405-04:00"}, {"id": 5815, "title": "Pyhton - A crazy esolang!", "devlogs_count": 4, "created_at": "2025-07-08T07:47:45.406-04:00"}], "coding_time_seconds": 100744, "coding_time_seconds_today": 0, "balance": "You need to have a pocket watcher badge to view this.", "badges": [{"name": "Maiden Voyage", "text": "you shipped your first project! the journey begins...", "icon": "\ud83d\udea2"}, {"name": "Ballot Stuffer", "text": "vote 100 times.", "icon": "https://summer.hackclub.com/assets/i_voted-bf851b48.png"}], "created_at": "2025-06-17T01:33:12.246-04:00", "updated_at": "2025-09-10T22:53:36.801-04:00", "avatar": "https://secure.gravatar.com/avatar/be0a9dba2d5f6aa2dcda30a9a61d0af3.jpg?s=512&d=https%3A%2F%2Fa.slack-edge.com%2Fdf10d%2Fimg%2Favatars%2Fava_0003-512.png", "custom_css": null}, {"id": 4928, "slack_id": "U0924RTLH2M", "display_name": "Dal", "bio": null, "projects_count": 0, "devlogs_count": 0, "votes_count": 0, "ships_count": 0, "projects": [], "coding_time_seconds": 0, "coding_time_seconds_today": 0, "balance": "You need to have a pocket watcher badge to view this.", "badges": [], "created_at": "2025-06-17T01:33:12.624-04:00", "updated_at": "2025-07-03T21:54:18.107-04:00", "avatar": "https://secure.gravatar.com/avatar/926a60a8dcc07c4d157262f2f1547920.jpg?s=512&d=https%3A%2F%2Fa.slack-edge.com%2Fdf10d%2Fimg%2Favatars%2Fava_0003-512.png", "custom_css": null}, {"id": 4929, "slack_id": "U07ETPD1NR4", "display_name": "Aditya Dubey", "bio": null, "projects_count": 3, "devlogs_count": 37, "votes_count": 20, "ships_count": 1, "projects": [{"id": 1480, "title": "JettCRM", "devlogs_count": 36, "created_at": "2025-06-18T16:03:46.701-04:00"}, {"id": 13557, "title": "Portfolio Website", "devlogs_count": 1, "created_at": "2025-09-19T11:05:35.192-04:00"}, {"id": 13715, "title": "DawgBOX", "devlogs_count": 0, "created_at": "2025-09-23T14:34:11.329-04:00"}], "coding_time_seconds": 888595, "coding_time_seconds_today": 6788, "balance": "You need to have a pocket watcher badge to view this.", "badges": [{"name": "Maiden Voyage", "text": "you shipped your first project! the journey begins...", "icon": "\ud83d\udea2"}], "created_at": "2025-06-17T01:33:15.609-04:00", "updated_at": "2025-09-10T22:53:36.853-04:00", "avatar": "https://avatars.slack-edge.com/2025-06-07/9007063174406_8c0bdfb2e4a4a3f0f28d_original.jpg", "custom_css": null}, {"id": 4930, "slack_id": "U091KD9EDL3", "display_name": "thaju", "bio": null, "projects_count": 0, "devlogs_count": 0, "votes_count": 0, "ships_count": 0, "projects": [], "coding_time_seconds": 0, "coding_time_seconds_today": 0, "balance": "You need to have a pocket watcher badge to view this.", "badges": [], "created_at": "2025-06-17T01:33:20.018-04:00", "updated_at": "2025-07-03T19:33:36.252-04:00", "avatar": "https://secure.gravatar.com/avatar/54a5b23ef2a9f3e9a627f334c4d89769.jpg?s=512&d=https%3A%2F%2Fa.slack-edge.com%2Fdf10d%2Fimg%2Favatars%2Fava_0011-512.png", "custom_css": null}, {"id": 4931, "slack_id": "U091SAL7BSN", "display_name": "sumanth mahantu", "bio": null, "projects_count": 0, "devlogs_count": 0, "votes_count": 0, "ships_count": 0, "projects": [], "coding_time_seconds": 120, "coding_time_seconds_today": 0, "balance": "You need to have a pocket watcher badge to view this.", "badges": [], "created_at": "2025-06-17T01:33:57.076-04:00", "updated_at": "2025-07-04T20:05:18.986-04:00", "avatar": "https://avatars.slack-edge.com/2025-06-16/9072899637057_07f95b36408ea07ef536_original.jpg", "custom_css": null}, {"id": 4932, "slack_id": "U091AUC8RM5", "display_name": "Ayush Thoren", "bio": null, "projects_count": 1, "devlogs_count": 1, "votes_count": 17, "ships_count": 1, "projects": [{"id": 10249, "title": "Personal Image Hosting Site", "devlogs_count": 1, "created_at": "2025-08-05T11:28:44.207-04:00"}], "coding_time_seconds": 61900, "coding_time_seconds_today": 0, "balance": "You need to have a pocket watcher badge to view this.", "badges": [{"name": "Maiden Voyage", "text": "you shipped your first project! the journey begins...", "icon": "\ud83d\udea2"}], "created_at": "2025-06-17T01:33:59.630-04:00", "updated_at": "2025-09-10T22:53:36.932-04:00", "avatar": "https://avatars.slack-edge.com/2025-06-18/9064184456086_f27239171a704f3503f5_original.png", "custom_css": null}, {"id": 4933, "slack_id": "U091S9PCFU2", "display_name": "Zephra", "bio": null, "projects_count": 0, "devlogs_count": 0, "votes_count": 0, "ships_count": 0, "projects": [], "coding_time_seconds": 29505, "coding_time_seconds_today": 0, "balance": "You need to have a pocket watcher badge to view this.", "badges": [], "created_at": "2025-06-17T01:34:10.735-04:00", "updated_at": "2025-07-03T19:33:37.017-04:00", "avatar": "https://secure.gravatar.com/avatar/a00007be23da2b23a2383e9a679ef5da.jpg?s=512&d=https%3A%2F%2Fa.slack-edge.com%2Fdf10d%2Fimg%2Favatars%2Fava_0000-512.png", "custom_css": null}, {"id": 4934, "slack_id": "U091KH1MG86", "display_name": "Gautam Sharma", "bio": null, "projects_count": 0, "devlogs_count": 0, "votes_count": 0, "ships_count": 0, "projects": [], "coding_time_seconds": 0, "coding_time_seconds_today": 0, "balance": "You need to have a pocket watcher badge to view this.", "badges": [], "created_at": "2025-06-17T01:34:17.786-04:00", "updated_at": "2025-07-03T19:33:37.287-04:00", "avatar": "https://secure.gravatar.com/avatar/b4cbe579c589cb200610b824f42abf72.jpg?s=512&d=https%3A%2F%2Fa.slack-edge.com%2Fdf10d%2Fimg%2Favatars%2Fava_0009-512.png", "custom_css": null}, {"id": 4935, "slack_id": "U092EMBPVG8", "display_name": "Rohit", "bio": null, "projects_count": 0, "devlogs_count": 0, "votes_count": 0, "ships_count": 0, "projects": [], "coding_time_seconds": 0, "coding_time_seconds_today": 0, "balance": "You need to have a pocket watcher badge to view this.", "badges": [], "created_at": "2025-06-17T01:34:33.146-04:00", "updated_at": "2025-07-03T19:33:37.553-04:00", "avatar": "https://secure.gravatar.com/avatar/4eee343c9e246f158c096bb5930de98c.jpg?s=512&d=https%3A%2F%2Fa.slack-edge.com%2Fdf10d%2Fimg%2Favatars%2Fava_0013-512.png", "custom_css": null}, {"id": 4936, "slack_id": "U091S75553L", "display_name": "Abu Bakar", "bio": null, "projects_count": 0, "devlogs_count": 0, "votes_count": 0, "ships_count": 0, "projects": [], "coding_time_seconds": 0, "coding_time_seconds_today": 0, "balance": "You need to have a pocket watcher badge to view this.", "badges": [], "created_at": "2025-06-17T01:34:46.837-04:00", "updated_at": "2025-07-03T19:33:37.807-04:00", "avatar": "https://secure.gravatar.com/avatar/95ba9ab21989a6f861a97dd93782b831.jpg?s=512&d=https%3A%2F%2Fa.slack-edge.com%2Fdf10d%2Fimg%2Favatars%2Fava_0000-512.png", "custom_css": null}, {"id": 4937, "slack_id": "U0877PG14F4", "display_name": "Alex", "bio": null, "projects_count": 1, "devlogs_count": 6, "votes_count": 0, "ships_count": 0, "projects": [{"id": 11696, "title": "KalBuddy", "devlogs_count": 6, "created_at": "2025-08-18T14:10:20.210-04:00"}], "coding_time_seconds": 730813, "coding_time_seconds_today": 4061, "balance": "You need to have a pocket watcher badge to view this.", "badges": [], "created_at": "2025-06-17T01:35:01.114-04:00", "updated_at": "2025-08-18T14:09:22.378-04:00", "avatar": "https://avatars.slack-edge.com/2025-06-24/9091077763619_d7c5096a75ab022da5db_original.png", "custom_css": null}, {"id": 4938, "slack_id": "U091QG8H3BP", "display_name": "roy", "bio": null, "projects_count": 0, "devlogs_count": 0, "votes_count": 0, "ships_count": 0, "projects": [], "coding_time_seconds": 0, "coding_time_seconds_today": 0, "balance": "You need to have a pocket watcher badge to view this.", "badges": [], "created_at": "2025-06-17T01:35:04.554-04:00", "updated_at": "2025-07-03T19:33:38.346-04:00", "avatar": "https://secure.gravatar.com/avatar/aa5d08cd60a3379cc22ea7b46b26180b.jpg?s=512&d=https%3A%2F%2Fa.slack-edge.com%2Fdf10d%2Fimg%2Favatars%2Fava_0006-512.png", "custom_css": null}, {"id": 4939, "slack_id": "U091SANQ9H8", "display_name": "Sim", "bio": null, "projects_count": 0, "devlogs_count": 0, "votes_count": 0, "ships_count": 0, "projects": [], "coding_time_seconds": 0, "coding_time_seconds_today": 0, "balance": "You need to have a pocket watcher badge to view this.", "badges": [], "created_at": "2025-06-17T01:35:05.499-04:00", "updated_at": "2025-07-03T19:33:38.609-04:00", "avatar": "https://secure.gravatar.com/avatar/8632d57a920cc103e4372e5b7ac09188.jpg?s=512&d=https%3A%2F%2Fa.slack-edge.com%2Fdf10d%2Fimg%2Favatars%2Fava_0007-512.png", "custom_css": null}, {"id": 4940, "slack_id": "U0924S0S9JM", "display_name": "John", "bio": null, "projects_count": 0, "devlogs_count": 0, "votes_count": 0, "ships_count": 0, "projects": [], "coding_time_seconds": 0, "coding_time_seconds_today": 0, "balance": "You need to have a pocket watcher badge to view this.", "badges": [], "created_at": "2025-06-17T01:35:14.970-04:00", "updated_at": "2025-07-03T19:33:38.877-04:00", "avatar": "https://secure.gravatar.com/avatar/4c69bb02f22999ea1ec2cf80c653fc76.jpg?s=512&d=https%3A%2F%2Fa.slack-edge.com%2Fdf10d%2Fimg%2Favatars%2Fava_0014-512.png", "custom_css": null}], "pagination": {"page": 247, "pages": 1192, "count": 23828, "items": 20}}