{"users": [{"id": 4941, "slack_id": "U091SKSC14L", "display_name": "Jonas", "bio": null, "projects_count": 5, "devlogs_count": 16, "votes_count": 20, "ships_count": 1, "projects": [{"id": 2149, "title": "BBS Betriebe Timetable Enhancer", "devlogs_count": 1, "created_at": "2025-06-20T09:42:52.909-04:00"}, {"id": 2592, "title": "Silly GIF Creator", "devlogs_count": 4, "created_at": "2025-06-21T11:54:37.240-04:00"}, {"id": 3199, "title": "Simple Boid Simulation", "devlogs_count": 2, "created_at": "2025-06-23T12:27:57.685-04:00"}, {"id": 8613, "title": "Business Simulation Game", "devlogs_count": 1, "created_at": "2025-07-28T15:48:48.433-04:00"}, {"id": 3768, "title": "A exam search engine for the state of Lower Saxony", "devlogs_count": 8, "created_at": "2025-06-25T16:46:36.443-04:00"}], "coding_time_seconds": 266227, "coding_time_seconds_today": 0, "balance": "You need to have a pocket watcher badge to view this.", "badges": [{"name": "Maiden Voyage", "text": "you shipped your first project! the journey begins...", "icon": "\ud83d\udea2"}], "created_at": "2025-06-17T01:35:47.378-04:00", "updated_at": "2025-09-10T22:53:37.155-04:00", "avatar": "https://secure.gravatar.com/avatar/ac0679183fd686ef3a5f10988b4cc999.jpg?s=512&d=https%3A%2F%2Fa.slack-edge.com%2Fdf10d%2Fimg%2Favatars%2Fava_0025-512.png", "custom_css": null}, {"id": 4942, "slack_id": "U03GZE8R8TZ", "display_name": "pybash", "bio": null, "projects_count": 9, "devlogs_count": 18, "votes_count": 36, "ships_count": 9, "projects": [{"id": 1058, "title": "setting up my homelab", "devlogs_count": 6, "created_at": "2025-06-17T14:58:34.382-04:00"}, {"id": 3228, "title": "echo", "devlogs_count": 4, "created_at": "2025-06-23T14:00:09.646-04:00"}, {"id": 4257, "title": "echo website", "devlogs_count": 1, "created_at": "2025-06-28T13:43:30.019-04:00"}, {"id": 5103, "title": "echo-proxy", "devlogs_count": 1, "created_at": "2025-07-03T08:55:57.487-04:00"}, {"id": 5110, "title": "echo-mac", "devlogs_count": 1, "created_at": "2025-07-03T09:57:21.953-04:00"}, {"id": 5345, "title": "pybash.xyz", "devlogs_count": 2, "created_at": "2025-07-04T15:53:03.652-04:00"}, {"id": 9954, "title": "halo waitlist site", "devlogs_count": 1, "created_at": "2025-08-03T05:56:48.918-04:00"}, {"id": 11523, "title": "Quokka Corner", "devlogs_count": 1, "created_at": "2025-08-16T15:20:20.844-04:00"}, {"id": 5977, "title": "Journal", "devlogs_count": 1, "created_at": "2025-07-09T15:14:51.750-04:00"}], "coding_time_seconds": 320442, "coding_time_seconds_today": 0, "balance": "You need to have a pocket watcher badge to view this.", "badges": [{"name": "Maiden Voyage", "text": "you shipped your first project! the journey begins...", "icon": "\ud83d\udea2"}, {"name": "Ballot Stuffer", "text": "vote 100 times.", "icon": "https://summer.hackclub.com/assets/i_voted-bf851b48.png"}], "created_at": "2025-06-17T01:36:13.250-04:00", "updated_at": "2025-09-10T22:53:37.182-04:00", "avatar": "https://avatars.slack-edge.com/2025-04-27/8815404649810_7ecad0f3eecbe935059d_original.png", "custom_css": null}, {"id": 4943, "slack_id": "U091KE59H5H", "display_name": "Josh", "bio": "Will code if VScode doesn't throw a fit.", "projects_count": 5, "devlogs_count": 20, "votes_count": 47, "ships_count": 4, "projects": [{"id": 13655, "title": "The Point Of No Return. (ARG)", "devlogs_count": 6, "created_at": "2025-09-22T07:09:42.830-04:00"}, {"id": 11551, "title": "Taskmaster (Scouts Edition) Control Hub", "devlogs_count": 2, "created_at": "2025-08-17T00:24:04.905-04:00"}, {"id": 8128, "title": "FOSSbooth", "devlogs_count": 1, "created_at": "2025-07-24T20:03:05.851-04:00"}, {"id": 8932, "title": "Wow, Website!", "devlogs_count": 7, "created_at": "2025-07-29T18:59:09.778-04:00"}, {"id": 8284, "title": "NEMA Updates ", "devlogs_count": 3, "created_at": "2025-07-26T00:48:45.373-04:00"}], "coding_time_seconds": 36819, "coding_time_seconds_today": 1120, "balance": "You need to have a pocket watcher badge to view this.", "badges": [{"name": "Maiden Voyage", "text": "you shipped your first project! the journey begins...", "icon": "\ud83d\udea2"}, {"name": "Ballot Stuffer", "text": "vote 100 times.", "icon": "https://summer.hackclub.com/assets/i_voted-bf851b48.png"}], "created_at": "2025-06-17T01:36:16.050-04:00", "updated_at": "2025-09-23T03:37:35.444-04:00", "avatar": "https://avatars.slack-edge.com/2025-08-10/9318038908135_49dee52ddab48095c4e2_original.jpg", "custom_css": null}, {"id": 4944, "slack_id": "U091AUFGE3H", "display_name": "Newbie", "bio": null, "projects_count": 0, "devlogs_count": 0, "votes_count": 0, "ships_count": 0, "projects": [], "coding_time_seconds": 0, "coding_time_seconds_today": 0, "balance": "You need to have a pocket watcher badge to view this.", "badges": [], "created_at": "2025-06-17T01:36:24.950-04:00", "updated_at": "2025-07-03T21:42:21.394-04:00", "avatar": "https://avatars.slack-edge.com/2025-06-16/9053492462067_12851dc46ddf33d882cc_original.png", "custom_css": null}, {"id": 4945, "slack_id": "U091QGAUJH3", "display_name": "Ali Elaser", "bio": "17 year old with a dream. ", "projects_count": 4, "devlogs_count": 16, "votes_count": 89, "ships_count": 4, "projects": [{"id": 2445, "title": "Python File Organizer", "devlogs_count": 1, "created_at": "2025-06-21T03:47:43.733-04:00"}, {"id": 5187, "title": "NorthBound", "devlogs_count": 6, "created_at": "2025-07-03T16:58:13.198-04:00"}, {"id": 2532, "title": "2D planet simulation", "devlogs_count": 5, "created_at": "2025-06-21T08:31:28.788-04:00"}, {"id": 9839, "title": "Python Music Visualizer", "devlogs_count": 4, "created_at": "2025-08-02T12:25:07.686-04:00"}], "coding_time_seconds": 165759, "coding_time_seconds_today": 0, "balance": "You need to have a pocket watcher badge to view this.", "badges": [{"name": "Maiden Voyage", "text": "you shipped your first project! the journey begins...", "icon": "\ud83d\udea2"}, {"name": "Ballot Stuffer", "text": "vote 100 times.", "icon": "https://summer.hackclub.com/assets/i_voted-bf851b48.png"}], "created_at": "2025-06-17T01:36:30.640-04:00", "updated_at": "2025-09-10T22:53:37.262-04:00", "avatar": "https://avatars.slack-edge.com/2025-08-03/9296041393234_23844eeacb4c5ae3c19a_original.png", "custom_css": null}, {"id": 4946, "slack_id": "U091KE1GW5R", "display_name": "zingzy", "bio": null, "projects_count": 1, "devlogs_count": 0, "votes_count": 0, "ships_count": 0, "projects": [{"id": 581, "title": "spoo.me", "devlogs_count": 0, "created_at": "2025-06-17T01:57:57.021-04:00"}], "coding_time_seconds": 392802, "coding_time_seconds_today": 0, "balance": "You need to have a pocket watcher badge to view this.", "badges": [], "created_at": "2025-06-17T01:36:49.956-04:00", "updated_at": "2025-07-03T19:33:40.098-04:00", "avatar": "https://avatars.slack-edge.com/2025-06-17/9058663457045_2cd9b029d7ad598a63fd_original.jpg", "custom_css": null}, {"id": 4947, "slack_id": "U091QGJ2HUM", "display_name": "Rohan Poudel", "bio": null, "projects_count": 0, "devlogs_count": 0, "votes_count": 0, "ships_count": 0, "projects": [], "coding_time_seconds": 355758, "coding_time_seconds_today": 0, "balance": "You need to have a pocket watcher badge to view this.", "badges": [], "created_at": "2025-06-17T01:36:52.002-04:00", "updated_at": "2025-07-03T21:54:19.625-04:00", "avatar": "https://secure.gravatar.com/avatar/6ddab4ec9e209ab84a23b3682b0357a6.jpg?s=512&d=https%3A%2F%2Fa.slack-edge.com%2Fdf10d%2Fimg%2Favatars%2Fava_0005-512.png", "custom_css": null}, {"id": 4948, "slack_id": "U092EMBAXHN", "display_name": "Renan Noronha", "bio": null, "projects_count": 0, "devlogs_count": 0, "votes_count": 0, "ships_count": 0, "projects": [], "coding_time_seconds": 0, "coding_time_seconds_today": 0, "balance": "You need to have a pocket watcher badge to view this.", "badges": [], "created_at": "2025-06-17T01:36:54.679-04:00", "updated_at": "2025-07-03T19:33:40.499-04:00", "avatar": "https://secure.gravatar.com/avatar/ede2361e5c4f6c7504549d4cf17607a9.jpg?s=512&d=https%3A%2F%2Fa.slack-edge.com%2Fdf10d%2Fimg%2Favatars%2Fava_0026-512.png", "custom_css": null}, {"id": 4949, "slack_id": "U092ELZFD1N", "display_name": "Varun Uday Shet", "bio": null, "projects_count": 0, "devlogs_count": 0, "votes_count": 0, "ships_count": 0, "projects": [], "coding_time_seconds": 20761, "coding_time_seconds_today": 458, "balance": "You need to have a pocket watcher badge to view this.", "badges": [], "created_at": "2025-06-17T01:37:04.016-04:00", "updated_at": "2025-07-03T19:33:40.772-04:00", "avatar": "https://secure.gravatar.com/avatar/a74c565617bd5f65639d3c9377b9cd9b.jpg?s=512&d=https%3A%2F%2Fa.slack-edge.com%2Fdf10d%2Fimg%2Favatars%2Fava_0012-512.png", "custom_css": null}, {"id": 4950, "slack_id": "U04CG610C03", "display_name": "Dark Node", "bio": null, "projects_count": 1, "devlogs_count": 0, "votes_count": 0, "ships_count": 0, "projects": [{"id": 589, "title": "Clock Work", "devlogs_count": 0, "created_at": "2025-06-17T02:13:20.675-04:00"}], "coding_time_seconds": 2666, "coding_time_seconds_today": 730, "balance": "You need to have a pocket watcher badge to view this.", "badges": [], "created_at": "2025-06-17T01:37:05.363-04:00", "updated_at": "2025-08-09T19:04:00.553-04:00", "avatar": "https://avatars.slack-edge.com/2022-11-25/4421381346709_e1e3a521aca56bb01a83_original.jpg", "custom_css": null}, {"id": 4951, "slack_id": "U0790DKM6KB", "display_name": "Daniel", "bio": null, "projects_count": 1, "devlogs_count": 11, "votes_count": 0, "ships_count": 0, "projects": [{"id": 4475, "title": "Multiplayer Shooter Game", "devlogs_count": 11, "created_at": "2025-06-30T06:56:37.070-04:00"}], "coding_time_seconds": 209643, "coding_time_seconds_today": 0, "balance": "You need to have a pocket watcher badge to view this.", "badges": [], "created_at": "2025-06-17T01:37:08.739-04:00", "updated_at": "2025-08-19T08:22:21.712-04:00", "avatar": "https://avatars.slack-edge.com/2025-02-25/8511103000866_3de39e4337f5e4883d31_original.jpg", "custom_css": null}, {"id": 4952, "slack_id": "U090254RL9L", "display_name": "owais (alt)", "bio": null, "projects_count": 0, "devlogs_count": 0, "votes_count": 0, "ships_count": 0, "projects": [], "coding_time_seconds": 19178, "coding_time_seconds_today": 0, "balance": "You need to have a pocket watcher badge to view this.", "badges": [], "created_at": "2025-06-17T01:37:13.617-04:00", "updated_at": "2025-08-06T14:23:01.011-04:00", "avatar": "https://avatars.slack-edge.com/2025-08-06/9316768545332_66a59280609d58becf4e_original.png", "custom_css": null}, {"id": 4953, "slack_id": "U091KHD0D9C", "display_name": "\u041d\u0438\u043a\u043e\u043b\u0430\u0439 \u0415\u0444\u0438\u043c\u0435\u043d\u043a\u043e", "bio": null, "projects_count": 0, "devlogs_count": 0, "votes_count": 0, "ships_count": 0, "projects": [], "coding_time_seconds": 0, "coding_time_seconds_today": 0, "balance": "You need to have a pocket watcher badge to view this.", "badges": [], "created_at": "2025-06-17T01:37:22.356-04:00", "updated_at": "2025-07-03T19:33:41.826-04:00", "avatar": "https://avatars.slack-edge.com/2025-06-16/9060693027972_9de584478f7bd18e0b53_original.jpg", "custom_css": null}, {"id": 4954, "slack_id": "U091KDY35H9", "display_name": "Amy", "bio": null, "projects_count": 0, "devlogs_count": 0, "votes_count": 0, "ships_count": 0, "projects": [], "coding_time_seconds": 0, "coding_time_seconds_today": 0, "balance": "You need to have a pocket watcher badge to view this.", "badges": [], "created_at": "2025-06-17T01:38:02.628-04:00", "updated_at": "2025-07-03T19:33:42.096-04:00", "avatar": "https://secure.gravatar.com/avatar/c90d3b3c46fc0bdba2a1f716adda1ceb.jpg?s=512&d=https%3A%2F%2Fa.slack-edge.com%2Fdf10d%2Fimg%2Favatars%2Fava_0019-512.png", "custom_css": null}, {"id": 4955, "slack_id": "U08HQ4QH11C", "display_name": "Juha", "bio": "Hi i like making stuff :D", "projects_count": 6, "devlogs_count": 33, "votes_count": 45, "ships_count": 2, "projects": [{"id": 607, "title": "Stardew Valley Luck Widget", "devlogs_count": 0, "created_at": "2025-06-17T02:39:14.614-04:00"}, {"id": 7455, "title": "Anything But My Hands", "devlogs_count": 7, "created_at": "2025-07-21T20:57:31.340-04:00"}, {"id": 8520, "title": "HackDucky", "devlogs_count": 4, "created_at": "2025-07-27T19:51:04.656-04:00"}, {"id": 12519, "title": "Text to Morse Code", "devlogs_count": 7, "created_at": "2025-08-28T23:05:46.626-04:00"}, {"id": 13368, "title": "Explore4D", "devlogs_count": 2, "created_at": "2025-09-14T15:48:05.905-04:00"}, {"id": 1975, "title": "Gift Tastes Make (More) Sense Mod", "devlogs_count": 13, "created_at": "2025-06-19T19:34:44.267-04:00"}], "coding_time_seconds": 149123, "coding_time_seconds_today": 0, "balance": "You need to have a pocket watcher badge to view this.", "badges": [{"name": "Maiden Voyage", "text": "you shipped your first project! the journey begins...", "icon": "\ud83d\udea2"}], "created_at": "2025-06-17T01:38:18.635-04:00", "updated_at": "2025-09-10T22:53:37.521-04:00", "avatar": "https://avatars.slack-edge.com/2025-09-01/9441828254901_2fd3ff816a29da3dbfc9_original.png", "custom_css": null}, {"id": 4956, "slack_id": "U091AUUC99D", "display_name": "Daniel Schatz", "bio": null, "projects_count": 1, "devlogs_count": 0, "votes_count": 0, "ships_count": 0, "projects": [{"id": 655, "title": "Fast File Explorer in Rust", "devlogs_count": 0, "created_at": "2025-06-17T04:18:39.976-04:00"}], "coding_time_seconds": 64181, "coding_time_seconds_today": 0, "balance": "You need to have a pocket watcher badge to view this.", "badges": [], "created_at": "2025-06-17T01:39:08.930-04:00", "updated_at": "2025-07-03T19:33:42.645-04:00", "avatar": "https://secure.gravatar.com/avatar/b008bba4ea7714f212e082700ca67ef3.jpg?s=512&d=https%3A%2F%2Fa.slack-edge.com%2Fdf10d%2Fimg%2Favatars%2Fava_0007-512.png", "custom_css": null}, {"id": 4957, "slack_id": "U0924SCUR17", "display_name": "E", "bio": null, "projects_count": 0, "devlogs_count": 0, "votes_count": 0, "ships_count": 0, "projects": [], "coding_time_seconds": 0, "coding_time_seconds_today": 0, "balance": "You need to have a pocket watcher badge to view this.", "badges": [], "created_at": "2025-06-17T01:39:29.018-04:00", "updated_at": "2025-07-03T19:33:42.900-04:00", "avatar": "https://secure.gravatar.com/avatar/93a94503ccf2a419a98d05ed177e4678.jpg?s=512&d=https%3A%2F%2Fa.slack-edge.com%2Fdf10d%2Fimg%2Favatars%2Fava_0019-512.png", "custom_css": null}, {"id": 4958, "slack_id": "U0924SJLWJV", "display_name": "maitri", "bio": null, "projects_count": 0, "devlogs_count": 0, "votes_count": 0, "ships_count": 0, "projects": [], "coding_time_seconds": 3512, "coding_time_seconds_today": 0, "balance": "You need to have a pocket watcher badge to view this.", "badges": [], "created_at": "2025-06-17T01:39:49.570-04:00", "updated_at": "2025-07-03T19:33:43.188-04:00", "avatar": "https://secure.gravatar.com/avatar/f8733bb66e2edf009bb1342fd2b14690.jpg?s=512&d=https%3A%2F%2Fa.slack-edge.com%2Fdf10d%2Fimg%2Favatars%2Fava_0001-512.png", "custom_css": null}, {"id": 4959, "slack_id": "U091KE6TPT5", "display_name": "ITRCoder", "bio": null, "projects_count": 0, "devlogs_count": 0, "votes_count": 0, "ships_count": 0, "projects": [], "coding_time_seconds": 0, "coding_time_seconds_today": 0, "balance": "You need to have a pocket watcher badge to view this.", "badges": [], "created_at": "2025-06-17T01:39:50.101-04:00", "updated_at": "2025-07-03T19:33:43.452-04:00", "avatar": "https://secure.gravatar.com/avatar/efb08985efc27de6cde90b52311eae6f.jpg?s=512&d=https%3A%2F%2Fa.slack-edge.com%2Fdf10d%2Fimg%2Favatars%2Fava_0001-512.png", "custom_css": null}, {"id": 4960, "slack_id": "U092EN0BZL0", "display_name": "Walker", "bio": null, "projects_count": 0, "devlogs_count": 0, "votes_count": 0, "ships_count": 0, "projects": [], "coding_time_seconds": 0, "coding_time_seconds_today": 0, "balance": "You need to have a pocket watcher badge to view this.", "badges": [], "created_at": "2025-06-17T01:39:50.234-04:00", "updated_at": "2025-07-03T19:33:43.719-04:00", "avatar": "https://secure.gravatar.com/avatar/7deafad05f91d3c3eac043b692671a5c.jpg?s=512&d=https%3A%2F%2Fa.slack-edge.com%2Fdf10d%2Fimg%2Favatars%2Fava_0007-512.png", "custom_css": null}], "pagination": {"page": 248, "pages": 1192, "count": 23828, "items": 20}}