{"users": [{"id": 4961, "slack_id": "U091R5AEFT4", "display_name": "Vaishnavi Marikumaran", "bio": null, "projects_count": 0, "devlogs_count": 0, "votes_count": 0, "ships_count": 0, "projects": [], "coding_time_seconds": 0, "coding_time_seconds_today": 0, "balance": "You need to have a pocket watcher badge to view this.", "badges": [], "created_at": "2025-06-17T01:40:06.201-04:00", "updated_at": "2025-07-03T19:33:43.990-04:00", "avatar": "https://avatars.slack-edge.com/2025-06-16/9082759421040_77ef41b0931541421d2c_original.png", "custom_css": null}, {"id": 4962, "slack_id": "U08KAUTMRLP", "display_name": "msajewicz", "bio": null, "projects_count": 2, "devlogs_count": 1, "votes_count": 0, "ships_count": 0, "projects": [{"id": 674, "title": "Console tetris", "devlogs_count": 1, "created_at": "2025-06-17T05:03:37.130-04:00"}, {"id": 1141, "title": "React online shop", "devlogs_count": 0, "created_at": "2025-06-17T17:46:36.275-04:00"}], "coding_time_seconds": 242926, "coding_time_seconds_today": 1418, "balance": "You need to have a pocket watcher badge to view this.", "badges": [], "created_at": "2025-06-17T01:40:25.351-04:00", "updated_at": "2025-08-07T10:43:19.709-04:00", "avatar": "https://secure.gravatar.com/avatar/c617dff1d8c1b3cb38f728932eea1b37.jpg?s=512&d=https%3A%2F%2Fa.slack-edge.com%2Fdf10d%2Fimg%2Favatars%2Fava_0011-512.png", "custom_css": null}, {"id": 4963, "slack_id": "U083AHTRLN5", "display_name": "Dylan Hager", "bio": null, "projects_count": 0, "devlogs_count": 0, "votes_count": 0, "ships_count": 0, "projects": [], "coding_time_seconds": 0, "coding_time_seconds_today": 0, "balance": "You need to have a pocket watcher badge to view this.", "badges": [], "created_at": "2025-06-17T01:40:26.106-04:00", "updated_at": "2025-07-03T19:33:44.520-04:00", "avatar": "https://secure.gravatar.com/avatar/fb777fa261b7fb49698caf6e61dbd73b.jpg?s=512&d=https%3A%2F%2Fa.slack-edge.com%2Fdf10d%2Fimg%2Favatars%2Fava_0003-512.png", "custom_css": null}, {"id": 4964, "slack_id": "U07CPNNFZ6D", "display_name": "devi charan", "bio": null, "projects_count": 0, "devlogs_count": 0, "votes_count": 0, "ships_count": 0, "projects": [], "coding_time_seconds": 232913, "coding_time_seconds_today": 0, "balance": "You need to have a pocket watcher badge to view this.", "badges": [], "created_at": "2025-06-17T01:40:37.375-04:00", "updated_at": "2025-07-03T19:33:44.787-04:00", "avatar": "https://secure.gravatar.com/avatar/ac7a15e0c2b3f30e016b7785927a705e.jpg?s=512&d=https%3A%2F%2Fa.slack-edge.com%2Fdf10d%2Fimg%2Favatars%2Fava_0004-512.png", "custom_css": null}, {"id": 4965, "slack_id": "U091SLEDP60", "display_name": "Abhay Pratap Singh", "bio": null, "projects_count": 0, "devlogs_count": 0, "votes_count": 0, "ships_count": 0, "projects": [], "coding_time_seconds": 0, "coding_time_seconds_today": 0, "balance": "You need to have a pocket watcher badge to view this.", "badges": [], "created_at": "2025-06-17T01:40:44.885-04:00", "updated_at": "2025-07-03T19:33:45.073-04:00", "avatar": "https://secure.gravatar.com/avatar/d870ae3af14f74e1ebfc622f636d0138.jpg?s=512&d=https%3A%2F%2Fa.slack-edge.com%2Fdf10d%2Fimg%2Favatars%2Fava_0021-512.png", "custom_css": null}, {"id": 4966, "slack_id": "U07BRT996DC", "display_name": "david", "bio": null, "projects_count": 4, "devlogs_count": 6, "votes_count": 20, "ships_count": 1, "projects": [{"id": 5991, "title": "Level 0 crook to level 100 mafia boss in java quest", "devlogs_count": 4, "created_at": "2025-07-09T18:15:35.774-04:00"}, {"id": 9780, "title": "Minecraft Cooking mod!", "devlogs_count": 0, "created_at": "2025-08-02T09:04:29.254-04:00"}, {"id": 10188, "title": "off limts", "devlogs_count": 1, "created_at": "2025-08-04T18:26:01.196-04:00"}, {"id": 10532, "title": "formula vintage", "devlogs_count": 1, "created_at": "2025-08-07T21:19:13.766-04:00"}], "coding_time_seconds": 186272, "coding_time_seconds_today": 0, "balance": "You need to have a pocket watcher badge to view this.", "badges": [{"name": "Maiden Voyage", "text": "you shipped your first project! the journey begins...", "icon": "\ud83d\udea2"}], "created_at": "2025-06-17T01:40:46.425-04:00", "updated_at": "2025-09-10T22:53:37.822-04:00", "avatar": "https://avatars.slack-edge.com/2025-02-17/8478949784129_c413da8718a2889e45a0_original.png", "custom_css": null}, {"id": 4967, "slack_id": "U091S9YUACU", "display_name": "Maximus T", "bio": null, "projects_count": 0, "devlogs_count": 0, "votes_count": 0, "ships_count": 0, "projects": [], "coding_time_seconds": 421517, "coding_time_seconds_today": 0, "balance": "You need to have a pocket watcher badge to view this.", "badges": [], "created_at": "2025-06-17T01:40:53.486-04:00", "updated_at": "2025-07-03T19:33:45.615-04:00", "avatar": "https://avatars.slack-edge.com/2025-06-17/9049043523799_1e24a78cdcf34ce3b925_original.png", "custom_css": null}, {"id": 4968, "slack_id": "U08766V4CBU", "display_name": "Vladim\u00edr Urik", "bio": null, "projects_count": 0, "devlogs_count": 0, "votes_count": 0, "ships_count": 0, "projects": [], "coding_time_seconds": 0, "coding_time_seconds_today": 0, "balance": "You need to have a pocket watcher badge to view this.", "badges": [], "created_at": "2025-06-17T01:41:21.538-04:00", "updated_at": "2025-07-03T22:32:55.368-04:00", "avatar": "https://secure.gravatar.com/avatar/efa8f5b9f3d5765e207cf95b9c75c173.jpg?s=512&d=https%3A%2F%2Fa.slack-edge.com%2Fdf10d%2Fimg%2Favatars%2Fava_0010-512.png", "custom_css": null}, {"id": 4969, "slack_id": "U091SL01ES0", "display_name": "Kaspian Pomieczy\u0144ski", "bio": null, "projects_count": 0, "devlogs_count": 0, "votes_count": 0, "ships_count": 0, "projects": [], "coding_time_seconds": 0, "coding_time_seconds_today": 0, "balance": "You need to have a pocket watcher badge to view this.", "badges": [], "created_at": "2025-06-17T01:41:24.011-04:00", "updated_at": "2025-07-03T19:33:46.010-04:00", "avatar": "https://secure.gravatar.com/avatar/2fc6f669e6812718f8f30b21c940a6dc.jpg?s=512&d=https%3A%2F%2Fa.slack-edge.com%2Fdf10d%2Fimg%2Favatars%2Fava_0014-512.png", "custom_css": null}, {"id": 4970, "slack_id": "U091SBDRSR0", "display_name": "Dikshant Bikram Thapa", "bio": null, "projects_count": 0, "devlogs_count": 0, "votes_count": 0, "ships_count": 0, "projects": [], "coding_time_seconds": 0, "coding_time_seconds_today": 0, "balance": "You need to have a pocket watcher badge to view this.", "badges": [], "created_at": "2025-06-17T01:41:29.416-04:00", "updated_at": "2025-07-03T19:33:46.274-04:00", "avatar": "https://avatars.slack-edge.com/2025-06-16/9058590878741_e92a6b23ff152c4b056b_original.gif", "custom_css": null}, {"id": 4971, "slack_id": "U091SKZJJDA", "display_name": "Krshna.sys", "bio": null, "projects_count": 2, "devlogs_count": 1, "votes_count": 0, "ships_count": 0, "projects": [{"id": 1090, "title": "SkillDrill.ai \u2014 The Career Accelerator for Students", "devlogs_count": 1, "created_at": "2025-06-17T15:51:15.765-04:00"}, {"id": 1530, "title": "ProjectPal", "devlogs_count": 0, "created_at": "2025-06-18T17:25:10.541-04:00"}], "coding_time_seconds": 109516, "coding_time_seconds_today": 2317, "balance": "You need to have a pocket watcher badge to view this.", "badges": [], "created_at": "2025-06-17T01:41:32.831-04:00", "updated_at": "2025-07-03T19:33:46.541-04:00", "avatar": "https://secure.gravatar.com/avatar/2b6b76809782db95b71343245e590569.jpg?s=512&d=https%3A%2F%2Fa.slack-edge.com%2Fdf10d%2Fimg%2Favatars%2Fava_0002-512.png", "custom_css": null}, {"id": 4972, "slack_id": "U079WPF5YKC", "display_name": "Nitin singh", "bio": null, "projects_count": 0, "devlogs_count": 0, "votes_count": 0, "ships_count": 0, "projects": [], "coding_time_seconds": 0, "coding_time_seconds_today": 0, "balance": "You need to have a pocket watcher badge to view this.", "badges": [], "created_at": "2025-06-17T01:41:46.605-04:00", "updated_at": "2025-07-03T19:33:46.816-04:00", "avatar": "https://secure.gravatar.com/avatar/49f5ab6e3526b14dd9c938d51b041f29.jpg?s=512&d=https%3A%2F%2Fa.slack-edge.com%2Fdf10d%2Fimg%2Favatars%2Fava_0023-512.png", "custom_css": null}, {"id": 4973, "slack_id": "U091QH19SFP", "display_name": "batman", "bio": null, "projects_count": 0, "devlogs_count": 0, "votes_count": 0, "ships_count": 0, "projects": [], "coding_time_seconds": 120397, "coding_time_seconds_today": 382, "balance": "You need to have a pocket watcher badge to view this.", "badges": [], "created_at": "2025-06-17T01:42:00.292-04:00", "updated_at": "2025-08-05T15:59:40.337-04:00", "avatar": "https://secure.gravatar.com/avatar/8e647e68fb4488a243229273ec8c0b25.jpg?s=512&d=https%3A%2F%2Fa.slack-edge.com%2Fdf10d%2Fimg%2Favatars%2Fava_0001-512.png", "custom_css": null}, {"id": 4974, "slack_id": "U08PYBW5Z34", "display_name": "RJ", "bio": null, "projects_count": 0, "devlogs_count": 1, "votes_count": 0, "ships_count": 0, "projects": [], "coding_time_seconds": 100439, "coding_time_seconds_today": 0, "balance": "You need to have a pocket watcher badge to view this.", "badges": [], "created_at": "2025-06-17T01:42:02.512-04:00", "updated_at": "2025-09-02T13:29:13.365-04:00", "avatar": "https://avatars.slack-edge.com/2025-07-18/9217061459302_4dea9d370a3aff3c74e7_original.png", "custom_css": null}, {"id": 4975, "slack_id": "U092EMWG0LQ", "display_name": "eebwab", "bio": null, "projects_count": 0, "devlogs_count": 0, "votes_count": 0, "ships_count": 0, "projects": [], "coding_time_seconds": 0, "coding_time_seconds_today": 0, "balance": "You need to have a pocket watcher badge to view this.", "badges": [], "created_at": "2025-06-17T01:42:08.205-04:00", "updated_at": "2025-07-03T19:33:47.748-04:00", "avatar": "https://secure.gravatar.com/avatar/30ee88196afdae087adaa3ed4092573a.jpg?s=512&d=https%3A%2F%2Fa.slack-edge.com%2Fdf10d%2Fimg%2Favatars%2Fava_0006-512.png", "custom_css": null}, {"id": 4976, "slack_id": "U0905QD9UNR", "display_name": "Norbiros", "bio": null, "projects_count": 8, "devlogs_count": 38, "votes_count": 148, "ships_count": 5, "projects": [{"id": 1426, "title": "CrabNBT", "devlogs_count": 0, "created_at": "2025-06-18T14:38:16.949-04:00"}, {"id": 1441, "title": "chroble", "devlogs_count": 2, "created_at": "2025-06-18T14:55:29.130-04:00"}, {"id": 7024, "title": "Nuxt Auto Form", "devlogs_count": 15, "created_at": "2025-07-18T11:07:27.908-04:00"}, {"id": 12292, "title": "Norbiros' Github Convenctions", "devlogs_count": 1, "created_at": "2025-08-25T10:10:33.478-04:00"}, {"id": 12361, "title": "nuxt-open-fetch", "devlogs_count": 4, "created_at": "2025-08-26T08:06:06.237-04:00"}, {"id": 12360, "title": "My Contributions to the Ladybird browser", "devlogs_count": 4, "created_at": "2025-08-26T08:04:53.177-04:00"}, {"id": 1427, "title": "EmojiType", "devlogs_count": 2, "created_at": "2025-06-18T14:39:03.052-04:00"}, {"id": 11092, "title": "Hack4Krak", "devlogs_count": 10, "created_at": "2025-08-13T06:07:02.226-04:00"}], "coding_time_seconds": 567644, "coding_time_seconds_today": 0, "balance": "You need to have a pocket watcher badge to view this.", "badges": [{"name": "Maiden Voyage", "text": "you shipped your first project! the journey begins...", "icon": "\ud83d\udea2"}, {"name": "Ballot Stuffer", "text": "vote 100 times.", "icon": "https://summer.hackclub.com/assets/i_voted-bf851b48.png"}], "created_at": "2025-06-17T01:42:13.106-04:00", "updated_at": "2025-09-10T22:53:38.150-04:00", "avatar": "https://secure.gravatar.com/avatar/c7a11769e14feaa237ecaf56b477b345.jpg?s=512&d=https%3A%2F%2Fa.slack-edge.com%2Fdf10d%2Fimg%2Favatars%2Fava_0000-512.png", "custom_css": null}, {"id": 4977, "slack_id": "U092ELYHTKJ", "display_name": "Sadiq Goni", "bio": null, "projects_count": 0, "devlogs_count": 0, "votes_count": 0, "ships_count": 0, "projects": [], "coding_time_seconds": 0, "coding_time_seconds_today": 0, "balance": "You need to have a pocket watcher badge to view this.", "badges": [], "created_at": "2025-06-17T01:42:24.162-04:00", "updated_at": "2025-07-03T19:33:48.370-04:00", "avatar": "https://secure.gravatar.com/avatar/5b012bfb9b1437a8918506b5a2437d08.jpg?s=512&d=https%3A%2F%2Fa.slack-edge.com%2Fdf10d%2Fimg%2Favatars%2Fava_0000-512.png", "custom_css": null}, {"id": 4978, "slack_id": "U08PLPR3FEV", "display_name": "brain913", "bio": null, "projects_count": 1, "devlogs_count": 1, "votes_count": 0, "ships_count": 1, "projects": [{"id": 13506, "title": "Jumpstart - Daydream", "devlogs_count": 1, "created_at": "2025-09-18T04:22:36.187-04:00"}], "coding_time_seconds": 28605, "coding_time_seconds_today": 3712, "balance": "You need to have a pocket watcher badge to view this.", "badges": [{"name": "Maiden Voyage", "text": "you shipped your first project! the journey begins...", "icon": "\ud83d\udea2"}], "created_at": "2025-06-17T01:42:24.713-04:00", "updated_at": "2025-09-24T06:22:39.115-04:00", "avatar": "https://avatars.slack-edge.com/2025-09-24/9586459777409_5114d52dde2a5a682a4f_original.png", "custom_css": null}, {"id": 4979, "slack_id": "U091KHTCDE2", "display_name": "Condest", "bio": null, "projects_count": 0, "devlogs_count": 0, "votes_count": 0, "ships_count": 0, "projects": [], "coding_time_seconds": 0, "coding_time_seconds_today": 0, "balance": "You need to have a pocket watcher badge to view this.", "badges": [], "created_at": "2025-06-17T01:42:33.894-04:00", "updated_at": "2025-07-03T19:33:48.925-04:00", "avatar": "https://secure.gravatar.com/avatar/92c7ba1f52a80b0716cf9694b9c891dd.jpg?s=512&d=https%3A%2F%2Fa.slack-edge.com%2Fdf10d%2Fimg%2Favatars%2Fava_0008-512.png", "custom_css": null}, {"id": 4980, "slack_id": "U092EN74SKS", "display_name": "Mohit Sagar", "bio": null, "projects_count": 0, "devlogs_count": 0, "votes_count": 0, "ships_count": 0, "projects": [], "coding_time_seconds": 0, "coding_time_seconds_today": 0, "balance": "You need to have a pocket watcher badge to view this.", "badges": [], "created_at": "2025-06-17T01:42:46.682-04:00", "updated_at": "2025-07-03T19:33:49.295-04:00", "avatar": "https://avatars.slack-edge.com/2025-06-16/9060402735394_1205827ef4d80132d857_original.jpg", "custom_css": null}], "pagination": {"page": 249, "pages": 1192, "count": 23828, "items": 20}}