{"users": [{"id": 5001, "slack_id": "U0924TFGT8R", "display_name": "Chen Kevin", "bio": null, "projects_count": 0, "devlogs_count": 0, "votes_count": 0, "ships_count": 0, "projects": [], "coding_time_seconds": 0, "coding_time_seconds_today": 0, "balance": "You need to have a pocket watcher badge to view this.", "badges": [], "created_at": "2025-06-17T01:48:11.922-04:00", "updated_at": "2025-07-03T19:33:55.452-04:00", "avatar": "https://avatars.slack-edge.com/2025-06-16/9072945773201_61eb3d4bab082fc7ebeb_original.jpg", "custom_css": null}, {"id": 5002, "slack_id": "U091KJ4B46A", "display_name": "shehanf", "bio": null, "projects_count": 0, "devlogs_count": 0, "votes_count": 0, "ships_count": 0, "projects": [], "coding_time_seconds": 0, "coding_time_seconds_today": 0, "balance": "You need to have a pocket watcher badge to view this.", "badges": [], "created_at": "2025-06-17T01:48:25.938-04:00", "updated_at": "2025-07-03T19:33:55.739-04:00", "avatar": "https://secure.gravatar.com/avatar/46dae84e64bc0d6f76f313a2676d6482.jpg?s=512&d=https%3A%2F%2Fa.slack-edge.com%2Fdf10d%2Fimg%2Favatars%2Fava_0025-512.png", "custom_css": null}, {"id": 5003, "slack_id": "U091QHQGCHK", "display_name": "Daniel Kebede", "bio": null, "projects_count": 0, "devlogs_count": 0, "votes_count": 0, "ships_count": 0, "projects": [], "coding_time_seconds": 0, "coding_time_seconds_today": 0, "balance": "You need to have a pocket watcher badge to view this.", "badges": [], "created_at": "2025-06-17T01:48:27.443-04:00", "updated_at": "2025-07-03T21:42:26.030-04:00", "avatar": "https://secure.gravatar.com/avatar/c90b426c4c70032d90a70b171756fb9f.jpg?s=512&d=https%3A%2F%2Fa.slack-edge.com%2Fdf10d%2Fimg%2Favatars%2Fava_0019-512.png", "custom_css": null}, {"id": 5004, "slack_id": "U092ENERYU8", "display_name": "Nikolai Schmidt", "bio": null, "projects_count": 0, "devlogs_count": 0, "votes_count": 0, "ships_count": 0, "projects": [], "coding_time_seconds": 0, "coding_time_seconds_today": 0, "balance": "You need to have a pocket watcher badge to view this.", "badges": [], "created_at": "2025-06-17T01:48:35.206-04:00", "updated_at": "2025-07-03T22:32:58.221-04:00", "avatar": "https://secure.gravatar.com/avatar/911947783b9075f4e6f1329ae2fac78e.jpg?s=512&d=https%3A%2F%2Fa.slack-edge.com%2Fdf10d%2Fimg%2Favatars%2Fava_0006-512.png", "custom_css": null}, {"id": 5005, "slack_id": "U091KF9TBMH", "display_name": "ducky", "bio": null, "projects_count": 0, "devlogs_count": 0, "votes_count": 0, "ships_count": 0, "projects": [], "coding_time_seconds": 126384, "coding_time_seconds_today": 0, "balance": "You need to have a pocket watcher badge to view this.", "badges": [], "created_at": "2025-06-17T01:49:32.133-04:00", "updated_at": "2025-07-03T19:33:56.289-04:00", "avatar": "https://avatars.slack-edge.com/2025-06-16/9060423479266_fd8751e6208806d0517b_original.png", "custom_css": null}, {"id": 5006, "slack_id": "U091SC62X5G", "display_name": "Alexander Gese", "bio": null, "projects_count": 1, "devlogs_count": 0, "votes_count": 0, "ships_count": 0, "projects": [{"id": 2682, "title": "Kickframe", "devlogs_count": 0, "created_at": "2025-06-21T16:59:18.887-04:00"}], "coding_time_seconds": 26547, "coding_time_seconds_today": 0, "balance": "You need to have a pocket watcher badge to view this.", "badges": [], "created_at": "2025-06-17T01:49:42.730-04:00", "updated_at": "2025-07-03T19:33:56.559-04:00", "avatar": "https://secure.gravatar.com/avatar/c7f4c0005ae1d089bbb60632c9cd13be.jpg?s=512&d=https%3A%2F%2Fa.slack-edge.com%2Fdf10d%2Fimg%2Favatars%2Fava_0015-512.png", "custom_css": null}, {"id": 5007, "slack_id": "U085NVBRRA5", "display_name": "Ayushi", "bio": null, "projects_count": 1, "devlogs_count": 0, "votes_count": 1, "ships_count": 0, "projects": [{"id": 752, "title": "SignLang", "devlogs_count": 0, "created_at": "2025-06-17T07:16:34.465-04:00"}], "coding_time_seconds": 30419, "coding_time_seconds_today": 0, "balance": "You need to have a pocket watcher badge to view this.", "badges": [], "created_at": "2025-06-17T01:50:04.046-04:00", "updated_at": "2025-07-03T19:33:56.823-04:00", "avatar": "https://secure.gravatar.com/avatar/564bb7677c18310445c354d47793f021.jpg?s=512&d=https%3A%2F%2Fa.slack-edge.com%2Fdf10d%2Fimg%2Favatars%2Fava_0005-512.png", "custom_css": null}, {"id": 5008, "slack_id": "U078GJGCDNF", "display_name": "Lost Control", "bio": null, "projects_count": 2, "devlogs_count": 3, "votes_count": 0, "ships_count": 0, "projects": [{"id": 978, "title": "Level Up Your Lectures. Ditch the Boring Notes, Get the AI Spark.", "devlogs_count": 3, "created_at": "2025-06-17T12:47:24.599-04:00"}, {"id": 1677, "title": "TierRocket \ud83d\ude80", "devlogs_count": 0, "created_at": "2025-06-19T02:23:55.785-04:00"}], "coding_time_seconds": 171990, "coding_time_seconds_today": 0, "balance": "You need to have a pocket watcher badge to view this.", "badges": [], "created_at": "2025-06-17T01:51:01.297-04:00", "updated_at": "2025-07-03T19:33:57.093-04:00", "avatar": "https://avatars.slack-edge.com/2025-06-18/9091225645488_e49ae7aedb2ca34a1d7c_original.png", "custom_css": null}, {"id": 5009, "slack_id": "U091SC761EW", "display_name": "Aritraditya Roy", "bio": null, "projects_count": 0, "devlogs_count": 0, "votes_count": 0, "ships_count": 0, "projects": [], "coding_time_seconds": 54375, "coding_time_seconds_today": 0, "balance": "You need to have a pocket watcher badge to view this.", "badges": [], "created_at": "2025-06-17T01:51:21.903-04:00", "updated_at": "2025-07-03T19:33:57.350-04:00", "avatar": "https://secure.gravatar.com/avatar/68e293d8e6e665471eaa08e8b2ce38ef.jpg?s=512&d=https%3A%2F%2Fa.slack-edge.com%2Fdf10d%2Fimg%2Favatars%2Fava_0009-512.png", "custom_css": null}, {"id": 5010, "slack_id": "U091KJVASES", "display_name": "Jim", "bio": null, "projects_count": 0, "devlogs_count": 0, "votes_count": 0, "ships_count": 0, "projects": [], "coding_time_seconds": 0, "coding_time_seconds_today": 0, "balance": "You need to have a pocket watcher badge to view this.", "badges": [], "created_at": "2025-06-17T01:51:56.235-04:00", "updated_at": "2025-07-03T19:33:57.616-04:00", "avatar": "https://secure.gravatar.com/avatar/9d0bcb80a50734636c1458bfd60a4209.jpg?s=512&d=https%3A%2F%2Fa.slack-edge.com%2Fdf10d%2Fimg%2Favatars%2Fava_0004-512.png", "custom_css": null}, {"id": 5011, "slack_id": "U0924TKH533", "display_name": "Aarush", "bio": null, "projects_count": 0, "devlogs_count": 0, "votes_count": 0, "ships_count": 0, "projects": [], "coding_time_seconds": 0, "coding_time_seconds_today": 0, "balance": "You need to have a pocket watcher badge to view this.", "badges": [], "created_at": "2025-06-17T01:51:58.548-04:00", "updated_at": "2025-07-03T19:33:57.879-04:00", "avatar": "https://secure.gravatar.com/avatar/4262202acd1dad109937eb88f45ec87b.jpg?s=512&d=https%3A%2F%2Fa.slack-edge.com%2Fdf10d%2Fimg%2Favatars%2Fava_0013-512.png", "custom_css": null}, {"id": 5012, "slack_id": "U091KFNKU0K", "display_name": "Alex", "bio": null, "projects_count": 0, "devlogs_count": 0, "votes_count": 0, "ships_count": 0, "projects": [], "coding_time_seconds": 38035, "coding_time_seconds_today": 0, "balance": "You need to have a pocket watcher badge to view this.", "badges": [], "created_at": "2025-06-17T01:52:04.501-04:00", "updated_at": "2025-07-03T21:54:24.656-04:00", "avatar": "https://secure.gravatar.com/avatar/df71ed076c5a0eab91825ae8bec25592.jpg?s=512&d=https%3A%2F%2Fa.slack-edge.com%2Fdf10d%2Fimg%2Favatars%2Fava_0018-512.png", "custom_css": null}, {"id": 5013, "slack_id": "U091S1QM8LS", "display_name": "Uttam S", "bio": null, "projects_count": 0, "devlogs_count": 0, "votes_count": 0, "ships_count": 0, "projects": [], "coding_time_seconds": 0, "coding_time_seconds_today": 0, "balance": "You need to have a pocket watcher badge to view this.", "badges": [], "created_at": "2025-06-17T01:52:43.359-04:00", "updated_at": "2025-07-03T19:33:58.315-04:00", "avatar": "https://secure.gravatar.com/avatar/f6b993e6a26c40a3e1c5185e007271e8.jpg?s=512&d=https%3A%2F%2Fa.slack-edge.com%2Fdf10d%2Fimg%2Favatars%2Fava_0024-512.png", "custom_css": null}, {"id": 5014, "slack_id": "U08B8298LNM", "display_name": "Aionix", "bio": null, "projects_count": 0, "devlogs_count": 0, "votes_count": 0, "ships_count": 0, "projects": [], "coding_time_seconds": 0, "coding_time_seconds_today": 0, "balance": "You need to have a pocket watcher badge to view this.", "badges": [], "created_at": "2025-06-17T01:52:45.653-04:00", "updated_at": "2025-07-03T19:33:58.574-04:00", "avatar": "https://secure.gravatar.com/avatar/9fd6ebc6880250a2e3b5fef8e52acbbb.jpg?s=512&d=https%3A%2F%2Fa.slack-edge.com%2Fdf10d%2Fimg%2Favatars%2Fava_0008-512.png", "custom_css": null}, {"id": 5015, "slack_id": "U091KFMUD5H", "display_name": "Purrva", "bio": null, "projects_count": 0, "devlogs_count": 0, "votes_count": 0, "ships_count": 0, "projects": [], "coding_time_seconds": 0, "coding_time_seconds_today": 0, "balance": "You need to have a pocket watcher badge to view this.", "badges": [], "created_at": "2025-06-17T01:52:48.182-04:00", "updated_at": "2025-07-03T19:33:58.856-04:00", "avatar": "https://secure.gravatar.com/avatar/d4584220f2060281b1022e2da0e4371d.jpg?s=512&d=https%3A%2F%2Fa.slack-edge.com%2Fdf10d%2Fimg%2Favatars%2Fava_0018-512.png", "custom_css": null}, {"id": 5016, "slack_id": "U091B0EUFNK", "display_name": "Manas Dalvi", "bio": null, "projects_count": 0, "devlogs_count": 0, "votes_count": 0, "ships_count": 0, "projects": [], "coding_time_seconds": 0, "coding_time_seconds_today": 0, "balance": "You need to have a pocket watcher badge to view this.", "badges": [], "created_at": "2025-06-17T01:52:58.206-04:00", "updated_at": "2025-07-03T19:33:59.129-04:00", "avatar": "https://secure.gravatar.com/avatar/74667eca38f068d5d43db366650f18f7.jpg?s=512&d=https%3A%2F%2Fa.slack-edge.com%2Fdf10d%2Fimg%2Favatars%2Fava_0006-512.png", "custom_css": null}, {"id": 5017, "slack_id": "U091RSPAY0J", "display_name": "Ruby Dao", "bio": null, "projects_count": 0, "devlogs_count": 0, "votes_count": 0, "ships_count": 0, "projects": [], "coding_time_seconds": 9333, "coding_time_seconds_today": 0, "balance": "You need to have a pocket watcher badge to view this.", "badges": [], "created_at": "2025-06-17T01:53:10.897-04:00", "updated_at": "2025-07-03T19:33:59.391-04:00", "avatar": "https://avatars.slack-edge.com/2025-06-16/9053658582534_b2b5db778dfae8aaee6e_original.jpg", "custom_css": null}, {"id": 5018, "slack_id": "U091KFNGMMZ", "display_name": "Sudhanshu Gupta", "bio": null, "projects_count": 0, "devlogs_count": 0, "votes_count": 0, "ships_count": 0, "projects": [], "coding_time_seconds": 0, "coding_time_seconds_today": 0, "balance": "You need to have a pocket watcher badge to view this.", "badges": [], "created_at": "2025-06-17T01:53:21.838-04:00", "updated_at": "2025-07-03T19:33:59.653-04:00", "avatar": "https://avatars.slack-edge.com/2025-06-16/9072962171761_c98240099628686d65b9_original.png", "custom_css": null}, {"id": 5019, "slack_id": "U0797RNMPA6", "display_name": "Abhishek", "bio": null, "projects_count": 0, "devlogs_count": 0, "votes_count": 0, "ships_count": 0, "projects": [], "coding_time_seconds": 0, "coding_time_seconds_today": 0, "balance": "You need to have a pocket watcher badge to view this.", "badges": [], "created_at": "2025-06-17T01:53:25.248-04:00", "updated_at": "2025-07-03T19:33:59.912-04:00", "avatar": "https://secure.gravatar.com/avatar/bcc891fed8fd42441fcd3686b2b65984.jpg?s=512&d=https%3A%2F%2Fa.slack-edge.com%2Fdf10d%2Fimg%2Favatars%2Fava_0003-512.png", "custom_css": null}, {"id": 5020, "slack_id": "U091B0PV8B1", "display_name": "joselucasapp", "bio": null, "projects_count": 2, "devlogs_count": 1, "votes_count": 0, "ships_count": 0, "projects": [{"id": 847, "title": "Zumbra", "devlogs_count": 1, "created_at": "2025-06-17T09:44:40.703-04:00"}, {"id": 848, "title": "Zumbra", "devlogs_count": 0, "created_at": "2025-06-17T09:44:45.108-04:00"}], "coding_time_seconds": 307807, "coding_time_seconds_today": 0, "balance": "You need to have a pocket watcher badge to view this.", "badges": [], "created_at": "2025-06-17T01:53:31.140-04:00", "updated_at": "2025-07-04T08:20:12.535-04:00", "avatar": "https://secure.gravatar.com/avatar/48a0dc2bf8e233c8c338e2cce1dca8f9.jpg?s=512&d=https%3A%2F%2Fa.slack-edge.com%2Fdf10d%2Fimg%2Favatars%2Fava_0019-512.png", "custom_css": null}], "pagination": {"page": 251, "pages": 1192, "count": 23828, "items": 20}}