{"users": [{"id": 5041, "slack_id": "U091B1BRRB9", "display_name": "Brenden", "bio": null, "projects_count": 0, "devlogs_count": 0, "votes_count": 0, "ships_count": 0, "projects": [], "coding_time_seconds": 0, "coding_time_seconds_today": 0, "balance": "You need to have a pocket watcher badge to view this.", "badges": [], "created_at": "2025-06-17T02:00:36.176-04:00", "updated_at": "2025-07-03T19:34:05.506-04:00", "avatar": "https://secure.gravatar.com/avatar/d368ffdc4807ca138803ba4b6171ef31.jpg?s=512&d=https%3A%2F%2Fa.slack-edge.com%2Fdf10d%2Fimg%2Favatars%2Fava_0016-512.png", "custom_css": null}, {"id": 5042, "slack_id": "U092EQ2P9UG", "display_name": "Aditya Swayam Siddha", "bio": null, "projects_count": 0, "devlogs_count": 0, "votes_count": 0, "ships_count": 0, "projects": [], "coding_time_seconds": 4687, "coding_time_seconds_today": 0, "balance": "You need to have a pocket watcher badge to view this.", "badges": [], "created_at": "2025-06-17T02:00:36.802-04:00", "updated_at": "2025-07-03T21:42:28.687-04:00", "avatar": "https://secure.gravatar.com/avatar/9dc7cfa2a2023aab6874ffe55b2cfe6f.jpg?s=512&d=https%3A%2F%2Fa.slack-edge.com%2Fdf10d%2Fimg%2Favatars%2Fava_0004-512.png", "custom_css": null}, {"id": 5043, "slack_id": "U091QK1EWUV", "display_name": "Megha", "bio": null, "projects_count": 2, "devlogs_count": 1, "votes_count": 0, "ships_count": 0, "projects": [{"id": 12201, "title": "Myth Diaries", "devlogs_count": 1, "created_at": "2025-08-24T09:44:05.261-04:00"}, {"id": 12228, "title": "Neko Dungeon", "devlogs_count": 0, "created_at": "2025-08-24T15:13:24.138-04:00"}], "coding_time_seconds": 28365, "coding_time_seconds_today": 0, "balance": "You need to have a pocket watcher badge to view this.", "badges": [], "created_at": "2025-06-17T02:00:55.205-04:00", "updated_at": "2025-08-24T09:39:30.888-04:00", "avatar": "https://secure.gravatar.com/avatar/cd47212f2d8d750e5df693a6606a74a1.jpg?s=512&d=https%3A%2F%2Fa.slack-edge.com%2Fdf10d%2Fimg%2Favatars%2Fava_0002-512.png", "custom_css": null}, {"id": 5044, "slack_id": "U091SN8RNJG", "display_name": "Hema Chandra", "bio": null, "projects_count": 0, "devlogs_count": 0, "votes_count": 0, "ships_count": 0, "projects": [], "coding_time_seconds": 0, "coding_time_seconds_today": 0, "balance": "You need to have a pocket watcher badge to view this.", "badges": [], "created_at": "2025-06-17T02:01:09.384-04:00", "updated_at": "2025-07-03T19:34:06.171-04:00", "avatar": "https://secure.gravatar.com/avatar/fb2a79cbb0a03b64b437a054edd21727.jpg?s=512&d=https%3A%2F%2Fa.slack-edge.com%2Fdf10d%2Fimg%2Favatars%2Fava_0015-512.png", "custom_css": null}, {"id": 5045, "slack_id": "U04ANSA6FGT", "display_name": "bpod", "bio": null, "projects_count": 4, "devlogs_count": 15, "votes_count": 3, "ships_count": 0, "projects": [{"id": 1254, "title": "snake game", "devlogs_count": 1, "created_at": "2025-06-18T02:21:12.521-04:00"}, {"id": 2551, "title": "PomoClub Pomodoro", "devlogs_count": 1, "created_at": "2025-06-21T09:47:01.591-04:00"}, {"id": 2633, "title": "devFolio", "devlogs_count": 10, "created_at": "2025-06-21T14:10:34.272-04:00"}, {"id": 3960, "title": "CyberSathi", "devlogs_count": 3, "created_at": "2025-06-26T14:08:45.917-04:00"}], "coding_time_seconds": 180566, "coding_time_seconds_today": 0, "balance": "You need to have a pocket watcher badge to view this.", "badges": [], "created_at": "2025-06-17T02:01:15.594-04:00", "updated_at": "2025-07-05T02:05:43.652-04:00", "avatar": "https://avatars.slack-edge.com/2022-12-07/4506109739328_969dfe0a62cbe7cbc0d1_original.png", "custom_css": null}, {"id": 5046, "slack_id": "U091QJFK8SH", "display_name": "szaeee", "bio": null, "projects_count": 0, "devlogs_count": 0, "votes_count": 0, "ships_count": 0, "projects": [], "coding_time_seconds": 531, "coding_time_seconds_today": 0, "balance": "You need to have a pocket watcher badge to view this.", "badges": [], "created_at": "2025-06-17T02:01:21.647-04:00", "updated_at": "2025-07-03T19:34:06.579-04:00", "avatar": "https://secure.gravatar.com/avatar/94cb8ef7d8726a6fc9ef1e538556670c.jpg?s=512&d=https%3A%2F%2Fa.slack-edge.com%2Fdf10d%2Fimg%2Favatars%2Fava_0016-512.png", "custom_css": null}, {"id": 5047, "slack_id": "U091SNMB3HA", "display_name": "Cole", "bio": null, "projects_count": 0, "devlogs_count": 0, "votes_count": 0, "ships_count": 0, "projects": [], "coding_time_seconds": 0, "coding_time_seconds_today": 0, "balance": "You need to have a pocket watcher badge to view this.", "badges": [], "created_at": "2025-06-17T02:01:26.217-04:00", "updated_at": "2025-07-03T19:34:06.841-04:00", "avatar": "https://secure.gravatar.com/avatar/9bb2ae7c502cf71db4e6944eb65be079.jpg?s=512&d=https%3A%2F%2Fa.slack-edge.com%2Fdf10d%2Fimg%2Favatars%2Fava_0020-512.png", "custom_css": null}, {"id": 5048, "slack_id": "U091B16JWVD", "display_name": "kauht", "bio": null, "projects_count": 3, "devlogs_count": 12, "votes_count": 18, "ships_count": 1, "projects": [{"id": 4260, "title": "RainBot", "devlogs_count": 6, "created_at": "2025-06-28T13:55:04.938-04:00"}, {"id": 10704, "title": "minesweeper.online cheat", "devlogs_count": 1, "created_at": "2025-08-09T22:52:00.860-04:00"}, {"id": 1225, "title": "Clikr", "devlogs_count": 5, "created_at": "2025-06-18T00:05:41.814-04:00"}], "coding_time_seconds": 334289, "coding_time_seconds_today": 0, "balance": "You need to have a pocket watcher badge to view this.", "badges": [{"name": "Maiden Voyage", "text": "you shipped your first project! the journey begins...", "icon": "\ud83d\udea2"}], "created_at": "2025-06-17T02:01:28.056-04:00", "updated_at": "2025-09-10T22:53:40.756-04:00", "avatar": "https://secure.gravatar.com/avatar/e22b3088f024e12950cf25b14acfcbeb.jpg?s=512&d=https%3A%2F%2Fa.slack-edge.com%2Fdf10d%2Fimg%2Favatars%2Fava_0021-512.png", "custom_css": null}, {"id": 5049, "slack_id": "U08BQ0HC0FM", "display_name": "Aditya Sah", "bio": "hooman who meows", "projects_count": 0, "devlogs_count": 13, "votes_count": 22, "ships_count": 0, "projects": [], "coding_time_seconds": 1476786, "coding_time_seconds_today": 1722, "balance": "You need to have a pocket watcher badge to view this.", "badges": [{"name": "Maiden Voyage", "text": "you shipped your first project! the journey begins...", "icon": "\ud83d\udea2"}], "created_at": "2025-06-17T02:01:30.794-04:00", "updated_at": "2025-09-10T22:53:40.789-04:00", "avatar": "https://avatars.slack-edge.com/2025-02-26/8533769712784_f1905acf6ec45c4e889a_original.webp", "custom_css": null}, {"id": 5050, "slack_id": "U0924UYC48Z", "display_name": "braedyn", "bio": null, "projects_count": 1, "devlogs_count": 4, "votes_count": 0, "ships_count": 0, "projects": [{"id": 2732, "title": "EnglishGPT", "devlogs_count": 4, "created_at": "2025-06-21T22:00:57.300-04:00"}], "coding_time_seconds": 10413, "coding_time_seconds_today": 0, "balance": "You need to have a pocket watcher badge to view this.", "badges": [], "created_at": "2025-06-17T02:01:39.461-04:00", "updated_at": "2025-07-07T14:23:33.694-04:00", "avatar": "https://secure.gravatar.com/avatar/4ce6329d3979e45647c84ae22ff44576.jpg?s=512&d=https%3A%2F%2Fa.slack-edge.com%2Fdf10d%2Fimg%2Favatars%2Fava_0015-512.png", "custom_css": null}, {"id": 5051, "slack_id": "U092ENPAG2U", "display_name": "Dimercia", "bio": null, "projects_count": 0, "devlogs_count": 0, "votes_count": 0, "ships_count": 0, "projects": [], "coding_time_seconds": 8404, "coding_time_seconds_today": 0, "balance": "You need to have a pocket watcher badge to view this.", "badges": [], "created_at": "2025-06-17T02:01:45.764-04:00", "updated_at": "2025-07-03T19:34:07.655-04:00", "avatar": "https://secure.gravatar.com/avatar/c88098883b87ab9a06f7e824aefac756.jpg?s=512&d=https%3A%2F%2Fa.slack-edge.com%2Fdf10d%2Fimg%2Favatars%2Fava_0020-512.png", "custom_css": null}, {"id": 5052, "slack_id": "U091QJR5C1K", "display_name": "revole", "bio": null, "projects_count": 0, "devlogs_count": 0, "votes_count": 0, "ships_count": 0, "projects": [], "coding_time_seconds": 0, "coding_time_seconds_today": 0, "balance": "You need to have a pocket watcher badge to view this.", "badges": [], "created_at": "2025-06-17T02:01:49.863-04:00", "updated_at": "2025-07-16T14:02:51.732-04:00", "avatar": "https://secure.gravatar.com/avatar/3864375f724a3954046e8e737692f2a6.jpg?s=512&d=https%3A%2F%2Fa.slack-edge.com%2Fdf10d%2Fimg%2Favatars%2Fava_0019-512.png", "custom_css": null}, {"id": 5053, "slack_id": "U091KL12B5L", "display_name": "Kuncham Koteswar", "bio": null, "projects_count": 0, "devlogs_count": 0, "votes_count": 0, "ships_count": 0, "projects": [], "coding_time_seconds": 0, "coding_time_seconds_today": 0, "balance": "You need to have a pocket watcher badge to view this.", "badges": [], "created_at": "2025-06-17T02:02:45.575-04:00", "updated_at": "2025-07-03T19:34:08.060-04:00", "avatar": "https://secure.gravatar.com/avatar/c50a4ad396df7edc5eb4a1f9c39ddcf7.jpg?s=512&d=https%3A%2F%2Fa.slack-edge.com%2Fdf10d%2Fimg%2Favatars%2Fava_0026-512.png", "custom_css": null}, {"id": 5054, "slack_id": "U092EQ4SXG8", "display_name": "Sebastian", "bio": null, "projects_count": 0, "devlogs_count": 0, "votes_count": 0, "ships_count": 0, "projects": [], "coding_time_seconds": 0, "coding_time_seconds_today": 0, "balance": "You need to have a pocket watcher badge to view this.", "badges": [], "created_at": "2025-06-17T02:02:57.300-04:00", "updated_at": "2025-07-03T19:34:08.325-04:00", "avatar": "https://secure.gravatar.com/avatar/b03197c1f0764a5fe311c93b322ae134.jpg?s=512&d=https%3A%2F%2Fa.slack-edge.com%2Fdf10d%2Fimg%2Favatars%2Fava_0009-512.png", "custom_css": null}, {"id": 5055, "slack_id": "U091MU4A13N", "display_name": "benjamin", "bio": null, "projects_count": 0, "devlogs_count": 0, "votes_count": 0, "ships_count": 0, "projects": [], "coding_time_seconds": 0, "coding_time_seconds_today": 0, "balance": "You need to have a pocket watcher badge to view this.", "badges": [], "created_at": "2025-06-17T02:03:02.875-04:00", "updated_at": "2025-07-04T20:05:26.949-04:00", "avatar": "https://secure.gravatar.com/avatar/f2b16349b326eb85194336f0b45f86b2.jpg?s=512&d=https%3A%2F%2Fa.slack-edge.com%2Fdf10d%2Fimg%2Favatars%2Fava_0006-512.png", "custom_css": null}, {"id": 5056, "slack_id": "U091SN4CA1J", "display_name": "Hash Zen", "bio": null, "projects_count": 1, "devlogs_count": 1, "votes_count": 0, "ships_count": 0, "projects": [{"id": 2811, "title": "JUICE", "devlogs_count": 1, "created_at": "2025-06-22T06:00:05.933-04:00"}], "coding_time_seconds": 11048, "coding_time_seconds_today": 0, "balance": "You need to have a pocket watcher badge to view this.", "badges": [], "created_at": "2025-06-17T02:03:06.432-04:00", "updated_at": "2025-07-03T19:34:08.735-04:00", "avatar": "https://avatars.slack-edge.com/2025-06-16/9058669436533_b4cac6bba0d968986e08_original.jpg", "custom_css": null}, {"id": 5057, "slack_id": "U091QKA0CKF", "display_name": "Aman", "bio": null, "projects_count": 0, "devlogs_count": 0, "votes_count": 0, "ships_count": 0, "projects": [], "coding_time_seconds": 0, "coding_time_seconds_today": 0, "balance": "You need to have a pocket watcher badge to view this.", "badges": [], "created_at": "2025-06-17T02:03:27.287-04:00", "updated_at": "2025-07-03T19:34:09.006-04:00", "avatar": "https://secure.gravatar.com/avatar/9b5adb233e4a0d97e4437aad0f58b289.jpg?s=512&d=https%3A%2F%2Fa.slack-edge.com%2Fdf10d%2Fimg%2Favatars%2Fava_0025-512.png", "custom_css": null}, {"id": 5058, "slack_id": "U091SNURH9A", "display_name": "Usama Ahmed", "bio": null, "projects_count": 0, "devlogs_count": 0, "votes_count": 0, "ships_count": 0, "projects": [], "coding_time_seconds": 0, "coding_time_seconds_today": 0, "balance": "You need to have a pocket watcher badge to view this.", "badges": [], "created_at": "2025-06-17T02:03:41.236-04:00", "updated_at": "2025-07-03T19:34:09.266-04:00", "avatar": "https://secure.gravatar.com/avatar/57d7eecff64845a7695696ce78a28dfa.jpg?s=512&d=https%3A%2F%2Fa.slack-edge.com%2Fdf10d%2Fimg%2Favatars%2Fava_0022-512.png", "custom_css": null}, {"id": 5059, "slack_id": "U0924V75BRP", "display_name": "Sai charan", "bio": null, "projects_count": 0, "devlogs_count": 0, "votes_count": 0, "ships_count": 0, "projects": [], "coding_time_seconds": 0, "coding_time_seconds_today": 0, "balance": "You need to have a pocket watcher badge to view this.", "badges": [], "created_at": "2025-06-17T02:03:51.190-04:00", "updated_at": "2025-07-03T19:34:09.534-04:00", "avatar": "https://secure.gravatar.com/avatar/3c77da629beccb386611f717d2560f0b.jpg?s=512&d=https%3A%2F%2Fa.slack-edge.com%2Fdf10d%2Fimg%2Favatars%2Fava_0001-512.png", "custom_css": null}, {"id": 5060, "slack_id": "U091KL954SJ", "display_name": "Raghavendra Varma", "bio": null, "projects_count": 0, "devlogs_count": 0, "votes_count": 0, "ships_count": 0, "projects": [], "coding_time_seconds": 0, "coding_time_seconds_today": 0, "balance": "You need to have a pocket watcher badge to view this.", "badges": [], "created_at": "2025-06-17T02:03:56.651-04:00", "updated_at": "2025-07-03T19:34:09.811-04:00", "avatar": "https://secure.gravatar.com/avatar/30a037de8c5ab5fb4a77cbf785c32c88.jpg?s=512&d=https%3A%2F%2Fa.slack-edge.com%2Fdf10d%2Fimg%2Favatars%2Fava_0023-512.png", "custom_css": null}], "pagination": {"page": 253, "pages": 1192, "count": 23828, "items": 20}}