{"users": [{"id": 5061, "slack_id": "U091KGYBNUB", "display_name": "Vyom Dwivedi", "bio": "", "projects_count": 0, "devlogs_count": 15, "votes_count": 43, "ships_count": 0, "projects": [], "coding_time_seconds": 484780, "coding_time_seconds_today": 0, "balance": "You need to have a pocket watcher badge to view this.", "badges": [{"name": "Maiden Voyage", "text": "you shipped your first project! the journey begins...", "icon": "\ud83d\udea2"}], "created_at": "2025-06-17T02:04:07.598-04:00", "updated_at": "2025-09-10T22:53:41.180-04:00", "avatar": "https://avatars.slack-edge.com/2025-06-26/9099876470451_6d27e7935d49bcedb39e_original.jpg", "custom_css": null}, {"id": 5062, "slack_id": "U091SDLF0UA", "display_name": "Vikramaditya", "bio": null, "projects_count": 0, "devlogs_count": 0, "votes_count": 0, "ships_count": 0, "projects": [], "coding_time_seconds": 218346, "coding_time_seconds_today": 2390, "balance": "You need to have a pocket watcher badge to view this.", "badges": [], "created_at": "2025-06-17T02:04:22.198-04:00", "updated_at": "2025-07-03T22:33:02.335-04:00", "avatar": "https://secure.gravatar.com/avatar/ea557c24b104d907dbe4e20b4e189c64.jpg?s=512&d=https%3A%2F%2Fa.slack-edge.com%2Fdf10d%2Fimg%2Favatars%2Fava_0014-512.png", "custom_css": null}, {"id": 5063, "slack_id": "U091KGR6F5Z", "display_name": "Sujal Verma", "bio": null, "projects_count": 0, "devlogs_count": 0, "votes_count": 0, "ships_count": 0, "projects": [], "coding_time_seconds": 191559, "coding_time_seconds_today": 0, "balance": "You need to have a pocket watcher badge to view this.", "badges": [], "created_at": "2025-06-17T02:04:25.245-04:00", "updated_at": "2025-07-05T20:06:04.133-04:00", "avatar": "https://secure.gravatar.com/avatar/1afb84f38bd476f3ea38f421c975fc09.jpg?s=512&d=https%3A%2F%2Fa.slack-edge.com%2Fdf10d%2Fimg%2Favatars%2Fava_0017-512.png", "custom_css": null}, {"id": 5064, "slack_id": "U07BHU2P32Q", "display_name": "Lion Melser", "bio": null, "projects_count": 1, "devlogs_count": 10, "votes_count": 29, "ships_count": 1, "projects": [{"id": 8888, "title": "Voicemeeter Web Remote", "devlogs_count": 10, "created_at": "2025-07-29T15:07:27.296-04:00"}], "coding_time_seconds": 269886, "coding_time_seconds_today": 0, "balance": "You need to have a pocket watcher badge to view this.", "badges": [{"name": "Maiden Voyage", "text": "you shipped your first project! the journey begins...", "icon": "\ud83d\udea2"}], "created_at": "2025-06-17T02:04:44.175-04:00", "updated_at": "2025-09-10T22:53:41.271-04:00", "avatar": "https://avatars.slack-edge.com/2024-07-21/7457679509828_7f41c9081abd0fbbe8fc_original.png", "custom_css": null}, {"id": 5065, "slack_id": "U091SDL9TC2", "display_name": "\u5f20\u5b87\u7fd4", "bio": null, "projects_count": 0, "devlogs_count": 0, "votes_count": 0, "ships_count": 0, "projects": [], "coding_time_seconds": 0, "coding_time_seconds_today": 0, "balance": "You need to have a pocket watcher badge to view this.", "badges": [], "created_at": "2025-06-17T02:05:08.461-04:00", "updated_at": "2025-07-06T02:06:28.245-04:00", "avatar": "https://avatars.slack-edge.com/2025-06-16/9060480884834_efa7bdc8284144d43d8d_original.jpg", "custom_css": null}, {"id": 5066, "slack_id": "U091KE2K0CB", "display_name": "Jaya Krishna", "bio": null, "projects_count": 0, "devlogs_count": 0, "votes_count": 0, "ships_count": 0, "projects": [], "coding_time_seconds": 0, "coding_time_seconds_today": 0, "balance": "You need to have a pocket watcher badge to view this.", "badges": [], "created_at": "2025-06-17T02:05:22.236-04:00", "updated_at": "2025-07-03T19:34:10.885-04:00", "avatar": "https://secure.gravatar.com/avatar/810e079620d6bb4bea2e4b9e2724e684.jpg?s=512&d=https%3A%2F%2Fa.slack-edge.com%2Fdf10d%2Fimg%2Favatars%2Fava_0012-512.png", "custom_css": null}, {"id": 5067, "slack_id": "U090JLUS2HY", "display_name": "Wija", "bio": null, "projects_count": 0, "devlogs_count": 0, "votes_count": 0, "ships_count": 0, "projects": [], "coding_time_seconds": 0, "coding_time_seconds_today": 0, "balance": "You need to have a pocket watcher badge to view this.", "badges": [], "created_at": "2025-06-17T02:05:44.517-04:00", "updated_at": "2025-07-03T19:34:11.161-04:00", "avatar": "https://secure.gravatar.com/avatar/97ebcbfd57164d059657555495907b33.jpg?s=512&d=https%3A%2F%2Fa.slack-edge.com%2Fdf10d%2Fimg%2Favatars%2Fava_0011-512.png", "custom_css": null}, {"id": 5068, "slack_id": "U091KL6SFJS", "display_name": "Sumit", "bio": null, "projects_count": 0, "devlogs_count": 0, "votes_count": 0, "ships_count": 0, "projects": [], "coding_time_seconds": 27066, "coding_time_seconds_today": 0, "balance": "You need to have a pocket watcher badge to view this.", "badges": [], "created_at": "2025-06-17T02:06:22.304-04:00", "updated_at": "2025-07-03T21:54:28.485-04:00", "avatar": "https://secure.gravatar.com/avatar/d01d4a4caf7491107b6826b3bdccec6c.jpg?s=512&d=https%3A%2F%2Fa.slack-edge.com%2Fdf10d%2Fimg%2Favatars%2Fava_0025-512.png", "custom_css": null}, {"id": 5069, "slack_id": "U091KLF9W3G", "display_name": "Mavis", "bio": null, "projects_count": 0, "devlogs_count": 0, "votes_count": 0, "ships_count": 0, "projects": [], "coding_time_seconds": 0, "coding_time_seconds_today": 0, "balance": "You need to have a pocket watcher badge to view this.", "badges": [], "created_at": "2025-06-17T02:06:32.224-04:00", "updated_at": "2025-07-03T19:34:11.558-04:00", "avatar": "https://secure.gravatar.com/avatar/a319de871742436238d1486600b9d3cd.jpg?s=512&d=https%3A%2F%2Fa.slack-edge.com%2Fdf10d%2Fimg%2Favatars%2Fava_0022-512.png", "custom_css": null}, {"id": 5070, "slack_id": "U091SDWCDNE", "display_name": "Cezary", "bio": null, "projects_count": 0, "devlogs_count": 11, "votes_count": 18, "ships_count": 0, "projects": [], "coding_time_seconds": 296421, "coding_time_seconds_today": 1956, "balance": "You need to have a pocket watcher badge to view this.", "badges": [], "created_at": "2025-06-17T02:06:48.863-04:00", "updated_at": "2025-07-09T16:53:43.361-04:00", "avatar": "https://secure.gravatar.com/avatar/2b77a6dbb2301d5bca7b3ca508868ce7.jpg?s=512&d=https%3A%2F%2Fa.slack-edge.com%2Fdf10d%2Fimg%2Favatars%2Fava_0022-512.png", "custom_css": null}, {"id": 5071, "slack_id": "U091KLEPR9U", "display_name": "Fabian Altaner", "bio": null, "projects_count": 1, "devlogs_count": 0, "votes_count": 0, "ships_count": 0, "projects": [{"id": 1081, "title": "Note Coach", "devlogs_count": 0, "created_at": "2025-06-17T15:34:53.771-04:00"}], "coding_time_seconds": 29921, "coding_time_seconds_today": 0, "balance": "You need to have a pocket watcher badge to view this.", "badges": [], "created_at": "2025-06-17T02:07:16.435-04:00", "updated_at": "2025-07-03T19:34:12.071-04:00", "avatar": "https://secure.gravatar.com/avatar/857b29b4eb75af0b25f821f7aab9b9b2.jpg?s=512&d=https%3A%2F%2Fa.slack-edge.com%2Fdf10d%2Fimg%2Favatars%2Fava_0007-512.png", "custom_css": null}, {"id": 5072, "slack_id": "U092500MYSV", "display_name": "Prabesh Bakhrel", "bio": null, "projects_count": 0, "devlogs_count": 0, "votes_count": 0, "ships_count": 0, "projects": [], "coding_time_seconds": 0, "coding_time_seconds_today": 0, "balance": "You need to have a pocket watcher badge to view this.", "badges": [], "created_at": "2025-06-17T02:07:16.568-04:00", "updated_at": "2025-07-05T20:06:04.724-04:00", "avatar": "https://secure.gravatar.com/avatar/853796a530b5e23e04995bb13e88e83b.jpg?s=512&d=https%3A%2F%2Fa.slack-edge.com%2Fdf10d%2Fimg%2Favatars%2Fava_0012-512.png", "custom_css": null}, {"id": 5073, "slack_id": "U092EQQJ2L8", "display_name": "Developer", "bio": null, "projects_count": 0, "devlogs_count": 0, "votes_count": 0, "ships_count": 0, "projects": [], "coding_time_seconds": 0, "coding_time_seconds_today": 0, "balance": "You need to have a pocket watcher badge to view this.", "badges": [], "created_at": "2025-06-17T02:07:37.116-04:00", "updated_at": "2025-07-03T19:34:12.467-04:00", "avatar": "https://avatars.slack-edge.com/2025-06-16/9058686613301_f21450aea4f2cf348eaa_original.png", "custom_css": null}, {"id": 5074, "slack_id": "U08MVDFCKJ8", "display_name": "Aryan Brite", "bio": null, "projects_count": 0, "devlogs_count": 3, "votes_count": 16, "ships_count": 0, "projects": [], "coding_time_seconds": 14776, "coding_time_seconds_today": 0, "balance": "You need to have a pocket watcher badge to view this.", "badges": [{"name": "Maiden Voyage", "text": "you shipped your first project! the journey begins...", "icon": "\ud83d\udea2"}], "created_at": "2025-06-17T02:07:38.767-04:00", "updated_at": "2025-09-18T06:23:19.278-04:00", "avatar": "https://avatars.slack-edge.com/2025-09-18/9539138823798_b119d145e70462090ffc_original.png", "custom_css": null}, {"id": 5075, "slack_id": "U091HCB4XRC", "display_name": "tejas", "bio": null, "projects_count": 0, "devlogs_count": 0, "votes_count": 0, "ships_count": 0, "projects": [], "coding_time_seconds": 0, "coding_time_seconds_today": 0, "balance": "You need to have a pocket watcher badge to view this.", "badges": [], "created_at": "2025-06-17T02:07:45.290-04:00", "updated_at": "2025-07-03T21:54:29.071-04:00", "avatar": "https://secure.gravatar.com/avatar/65175f1a1711c915fa0c557fbb78696d.jpg?s=512&d=https%3A%2F%2Fa.slack-edge.com%2Fdf10d%2Fimg%2Favatars%2Fava_0003-512.png", "custom_css": null}, {"id": 5076, "slack_id": "U091KLRV72A", "display_name": "Shariar Hasan", "bio": null, "projects_count": 0, "devlogs_count": 0, "votes_count": 0, "ships_count": 0, "projects": [], "coding_time_seconds": 0, "coding_time_seconds_today": 0, "balance": "You need to have a pocket watcher badge to view this.", "badges": [], "created_at": "2025-06-17T02:07:54.690-04:00", "updated_at": "2025-07-03T19:34:13.174-04:00", "avatar": "https://secure.gravatar.com/avatar/d7ddc4226ead44fac5c8453c72e49cf4.jpg?s=512&d=https%3A%2F%2Fa.slack-edge.com%2Fdf10d%2Fimg%2Favatars%2Fava_0018-512.png", "custom_css": null}, {"id": 5077, "slack_id": "U091SE4PLP4", "display_name": "Ujit Kumar", "bio": null, "projects_count": 0, "devlogs_count": 0, "votes_count": 0, "ships_count": 0, "projects": [], "coding_time_seconds": 0, "coding_time_seconds_today": 0, "balance": "You need to have a pocket watcher badge to view this.", "badges": [], "created_at": "2025-06-17T02:08:02.021-04:00", "updated_at": "2025-07-03T19:34:13.434-04:00", "avatar": "https://secure.gravatar.com/avatar/ef96eb7f52a47f0f0d55ee4d5d8464eb.jpg?s=512&d=https%3A%2F%2Fa.slack-edge.com%2Fdf10d%2Fimg%2Favatars%2Fava_0022-512.png", "custom_css": null}, {"id": 5078, "slack_id": "U092508M6SD", "display_name": "Mehedi Hasan Khairul", "bio": null, "projects_count": 0, "devlogs_count": 0, "votes_count": 0, "ships_count": 0, "projects": [], "coding_time_seconds": 0, "coding_time_seconds_today": 0, "balance": "You need to have a pocket watcher badge to view this.", "badges": [], "created_at": "2025-06-17T02:08:15.729-04:00", "updated_at": "2025-07-03T19:34:13.703-04:00", "avatar": "https://secure.gravatar.com/avatar/2ea88b58ce798ee4f00e91f3a5081b15.jpg?s=512&d=https%3A%2F%2Fa.slack-edge.com%2Fdf10d%2Fimg%2Favatars%2Fava_0024-512.png", "custom_css": null}, {"id": 5079, "slack_id": "U07DBQTG4DP", "display_name": "solo", "bio": null, "projects_count": 0, "devlogs_count": 0, "votes_count": 0, "ships_count": 0, "projects": [], "coding_time_seconds": 0, "coding_time_seconds_today": 0, "balance": "You need to have a pocket watcher badge to view this.", "badges": [], "created_at": "2025-06-17T02:08:29.257-04:00", "updated_at": "2025-07-03T19:34:13.979-04:00", "avatar": "https://secure.gravatar.com/avatar/666de3b0c44edd518070e616de15238a.jpg?s=512&d=https%3A%2F%2Fa.slack-edge.com%2Fdf10d%2Fimg%2Favatars%2Fava_0014-512.png", "custom_css": null}, {"id": 5080, "slack_id": "U091B2DEDRD", "display_name": "tm6", "bio": null, "projects_count": 0, "devlogs_count": 0, "votes_count": 0, "ships_count": 0, "projects": [], "coding_time_seconds": 0, "coding_time_seconds_today": 0, "balance": "You need to have a pocket watcher badge to view this.", "badges": [], "created_at": "2025-06-17T02:08:57.331-04:00", "updated_at": "2025-07-03T19:34:14.238-04:00", "avatar": "https://secure.gravatar.com/avatar/7d7619ba2145832ad6e189c865dab93d.jpg?s=512&d=https%3A%2F%2Fa.slack-edge.com%2Fdf10d%2Fimg%2Favatars%2Fava_0002-512.png", "custom_css": null}], "pagination": {"page": 254, "pages": 1192, "count": 23828, "items": 20}}