{"users": [{"id": 5081, "slack_id": "U091KLSJCF8", "display_name": "CosmosCoder", "bio": null, "projects_count": 0, "devlogs_count": 0, "votes_count": 0, "ships_count": 0, "projects": [], "coding_time_seconds": 0, "coding_time_seconds_today": 0, "balance": "You need to have a pocket watcher badge to view this.", "badges": [], "created_at": "2025-06-17T02:09:18.086-04:00", "updated_at": "2025-07-03T19:34:14.497-04:00", "avatar": "https://secure.gravatar.com/avatar/078c53faf61cc8a494fe61d9a8b9359d.jpg?s=512&d=https%3A%2F%2Fa.slack-edge.com%2Fdf10d%2Fimg%2Favatars%2Fava_0008-512.png", "custom_css": null}, {"id": 5082, "slack_id": "U091SEHGETW", "display_name": "Kartikey", "bio": null, "projects_count": 3, "devlogs_count": 4, "votes_count": 5, "ships_count": 2, "projects": [{"id": 1243, "title": "EventBite", "devlogs_count": 2, "created_at": "2025-06-18T01:23:37.691-04:00"}, {"id": 1642, "title": "\ud83d\udd0b WattUp \u2013 A Better Way to Track Your Battery", "devlogs_count": 1, "created_at": "2025-06-18T23:25:15.822-04:00"}, {"id": 10133, "title": "EventBite Landing Page", "devlogs_count": 1, "created_at": "2025-08-04T08:20:04.944-04:00"}], "coding_time_seconds": 118072, "coding_time_seconds_today": 0, "balance": "You need to have a pocket watcher badge to view this.", "badges": [{"name": "Maiden Voyage", "text": "you shipped your first project! the journey begins...", "icon": "\ud83d\udea2"}], "created_at": "2025-06-17T02:09:19.538-04:00", "updated_at": "2025-09-10T22:53:41.782-04:00", "avatar": "https://secure.gravatar.com/avatar/255310c6eab49c1a38358c6898b7394d.jpg?s=512&d=https%3A%2F%2Fa.slack-edge.com%2Fdf10d%2Fimg%2Favatars%2Fava_0021-512.png", "custom_css": null}, {"id": 5083, "slack_id": "U091SMSPE84", "display_name": "Kage Sakura", "bio": null, "projects_count": 0, "devlogs_count": 0, "votes_count": 0, "ships_count": 0, "projects": [], "coding_time_seconds": 0, "coding_time_seconds_today": 0, "balance": "You need to have a pocket watcher badge to view this.", "badges": [], "created_at": "2025-06-17T02:09:28.075-04:00", "updated_at": "2025-07-03T21:42:32.057-04:00", "avatar": "https://secure.gravatar.com/avatar/d873076a799fdf50b688148c73d23c9a.jpg?s=512&d=https%3A%2F%2Fa.slack-edge.com%2Fdf10d%2Fimg%2Favatars%2Fava_0019-512.png", "custom_css": null}, {"id": 5084, "slack_id": "U091KHQAZNF", "display_name": "Dev", "bio": null, "projects_count": 0, "devlogs_count": 0, "votes_count": 0, "ships_count": 0, "projects": [], "coding_time_seconds": 0, "coding_time_seconds_today": 0, "balance": "You need to have a pocket watcher badge to view this.", "badges": [], "created_at": "2025-06-17T02:09:29.992-04:00", "updated_at": "2025-07-03T19:34:15.040-04:00", "avatar": "https://secure.gravatar.com/avatar/e5130573bb7b1e596292898ca3a9cb2b.jpg?s=512&d=https%3A%2F%2Fa.slack-edge.com%2Fdf10d%2Fimg%2Favatars%2Fava_0002-512.png", "custom_css": null}, {"id": 5085, "slack_id": "U091B2H9FLP", "display_name": "Lucifer Edits", "bio": null, "projects_count": 3, "devlogs_count": 7, "votes_count": 0, "ships_count": 2, "projects": [{"id": 601, "title": "ALFA MOTORS", "devlogs_count": 3, "created_at": "2025-06-17T02:31:13.184-04:00"}, {"id": 825, "title": "Bike Builder", "devlogs_count": 1, "created_at": "2025-06-17T09:12:57.228-04:00"}, {"id": 828, "title": "Abeer Motion Picture", "devlogs_count": 3, "created_at": "2025-06-17T09:18:40.754-04:00"}], "coding_time_seconds": 376338, "coding_time_seconds_today": 0, "balance": "You need to have a pocket watcher badge to view this.", "badges": [{"name": "Maiden Voyage", "text": "you shipped your first project! the journey begins...", "icon": "\ud83d\udea2"}], "created_at": "2025-06-17T02:10:13.040-04:00", "updated_at": "2025-09-10T22:53:41.863-04:00", "avatar": "https://avatars.slack-edge.com/2025-06-16/9073026983185_852e64a0245fdcabb089_original.png", "custom_css": null}, {"id": 5086, "slack_id": "U091SE9DHS6", "display_name": "Gaurav Katkar", "bio": null, "projects_count": 0, "devlogs_count": 0, "votes_count": 0, "ships_count": 0, "projects": [], "coding_time_seconds": 54694, "coding_time_seconds_today": 430, "balance": "You need to have a pocket watcher badge to view this.", "badges": [], "created_at": "2025-06-17T02:10:34.433-04:00", "updated_at": "2025-07-03T19:34:15.608-04:00", "avatar": "https://secure.gravatar.com/avatar/651e8de920c29bea4cc97d92e4507bf6.jpg?s=512&d=https%3A%2F%2Fa.slack-edge.com%2Fdf10d%2Fimg%2Favatars%2Fava_0026-512.png", "custom_css": null}, {"id": 5087, "slack_id": "U091QKXQQSH", "display_name": "Huynh Minh Ngan", "bio": null, "projects_count": 0, "devlogs_count": 0, "votes_count": 0, "ships_count": 0, "projects": [], "coding_time_seconds": 0, "coding_time_seconds_today": 0, "balance": "You need to have a pocket watcher badge to view this.", "badges": [], "created_at": "2025-06-17T02:10:42.065-04:00", "updated_at": "2025-07-03T21:54:29.905-04:00", "avatar": "https://secure.gravatar.com/avatar/350575fa1d1a5d9c61047dc20719cfa7.jpg?s=512&d=https%3A%2F%2Fa.slack-edge.com%2Fdf10d%2Fimg%2Favatars%2Fava_0013-512.png", "custom_css": null}, {"id": 5088, "slack_id": "U07UU4K3BPB", "display_name": "Emilio", "bio": null, "projects_count": 1, "devlogs_count": 1, "votes_count": 0, "ships_count": 0, "projects": [{"id": 6798, "title": "Synapse", "devlogs_count": 1, "created_at": "2025-07-16T10:09:07.177-04:00"}], "coding_time_seconds": 259956, "coding_time_seconds_today": 460, "balance": "You need to have a pocket watcher badge to view this.", "badges": [], "created_at": "2025-06-17T02:11:13.481-04:00", "updated_at": "2025-07-17T05:29:11.655-04:00", "avatar": "https://secure.gravatar.com/avatar/0d59fc8504a0ce6aa75434f1a1525457.jpg?s=512&d=https%3A%2F%2Fa.slack-edge.com%2Fdf10d%2Fimg%2Favatars%2Fava_0015-512.png", "custom_css": null}, {"id": 5089, "slack_id": "U091SPGU41J", "display_name": "Rudraksh Waghmode", "bio": null, "projects_count": 0, "devlogs_count": 0, "votes_count": 0, "ships_count": 0, "projects": [], "coding_time_seconds": 55831, "coding_time_seconds_today": 0, "balance": "You need to have a pocket watcher badge to view this.", "badges": [], "created_at": "2025-06-17T02:11:13.749-04:00", "updated_at": "2025-07-03T19:34:16.349-04:00", "avatar": "https://avatars.slack-edge.com/2025-06-16/9060503413554_3647012a2ef085597635_original.png", "custom_css": null}, {"id": 5090, "slack_id": "U091KHNGC3V", "display_name": "Pranjal Mridul", "bio": null, "projects_count": 0, "devlogs_count": 0, "votes_count": 0, "ships_count": 0, "projects": [], "coding_time_seconds": 0, "coding_time_seconds_today": 0, "balance": "You need to have a pocket watcher badge to view this.", "badges": [], "created_at": "2025-06-17T02:11:15.280-04:00", "updated_at": "2025-07-03T19:34:16.620-04:00", "avatar": "https://secure.gravatar.com/avatar/72713ad370b69f0297d3adfa565ce657.jpg?s=512&d=https%3A%2F%2Fa.slack-edge.com%2Fdf10d%2Fimg%2Favatars%2Fava_0012-512.png", "custom_css": null}, {"id": 5091, "slack_id": "U091KHR5WHZ", "display_name": "bhavesh", "bio": null, "projects_count": 0, "devlogs_count": 0, "votes_count": 0, "ships_count": 0, "projects": [], "coding_time_seconds": 0, "coding_time_seconds_today": 0, "balance": "You need to have a pocket watcher badge to view this.", "badges": [], "created_at": "2025-06-17T02:11:34.474-04:00", "updated_at": "2025-07-04T20:05:29.181-04:00", "avatar": "https://secure.gravatar.com/avatar/88aaea3854c04adc8c9d981c6a13f4fa.jpg?s=512&d=https%3A%2F%2Fa.slack-edge.com%2Fdf10d%2Fimg%2Favatars%2Fava_0001-512.png", "custom_css": null}, {"id": 5092, "slack_id": "U09250NQDLH", "display_name": "Ganeshamoorthy", "bio": null, "projects_count": 0, "devlogs_count": 0, "votes_count": 0, "ships_count": 0, "projects": [], "coding_time_seconds": 0, "coding_time_seconds_today": 0, "balance": "You need to have a pocket watcher badge to view this.", "badges": [], "created_at": "2025-06-17T02:11:47.436-04:00", "updated_at": "2025-07-03T21:54:30.262-04:00", "avatar": "https://secure.gravatar.com/avatar/69d78114a660499ff9a084ebe73e1490.jpg?s=512&d=https%3A%2F%2Fa.slack-edge.com%2Fdf10d%2Fimg%2Favatars%2Fava_0014-512.png", "custom_css": null}, {"id": 5093, "slack_id": "U091KM8AW86", "display_name": "Nubaydh", "bio": null, "projects_count": 0, "devlogs_count": 0, "votes_count": 0, "ships_count": 0, "projects": [], "coding_time_seconds": 13344, "coding_time_seconds_today": 0, "balance": "You need to have a pocket watcher badge to view this.", "badges": [], "created_at": "2025-06-17T02:11:54.392-04:00", "updated_at": "2025-07-04T02:24:05.593-04:00", "avatar": "https://secure.gravatar.com/avatar/f9f21caf1598a15f8616df2d81920589.jpg?s=512&d=https%3A%2F%2Fa.slack-edge.com%2Fdf10d%2Fimg%2Favatars%2Fava_0000-512.png", "custom_css": null}, {"id": 5094, "slack_id": "U092ERBN2AC", "display_name": "erfan", "bio": null, "projects_count": 0, "devlogs_count": 0, "votes_count": 0, "ships_count": 0, "projects": [], "coding_time_seconds": 268712, "coding_time_seconds_today": 0, "balance": "You need to have a pocket watcher badge to view this.", "badges": [], "created_at": "2025-06-17T02:11:55.816-04:00", "updated_at": "2025-07-04T08:20:18.151-04:00", "avatar": "https://secure.gravatar.com/avatar/4da0300a8f7389ca5aefc6741d41593c.jpg?s=512&d=https%3A%2F%2Fa.slack-edge.com%2Fdf10d%2Fimg%2Favatars%2Fava_0022-512.png", "custom_css": null}, {"id": 5095, "slack_id": "U091B2UA1KR", "display_name": "ichmagbusse", "bio": null, "projects_count": 1, "devlogs_count": 1, "votes_count": 1, "ships_count": 1, "projects": [{"id": 6042, "title": "ZillenDOC", "devlogs_count": 1, "created_at": "2025-07-10T07:14:58.862-04:00"}], "coding_time_seconds": 67317, "coding_time_seconds_today": 0, "balance": "You need to have a pocket watcher badge to view this.", "badges": [{"name": "Maiden Voyage", "text": "you shipped your first project! the journey begins...", "icon": "\ud83d\udea2"}], "created_at": "2025-06-17T02:12:33.031-04:00", "updated_at": "2025-09-10T22:53:42.085-04:00", "avatar": "https://secure.gravatar.com/avatar/253d18afb59651c2d7782d2081a62127.jpg?s=512&d=https%3A%2F%2Fa.slack-edge.com%2Fdf10d%2Fimg%2Favatars%2Fava_0013-512.png", "custom_css": null}, {"id": 5096, "slack_id": "U091SPLGNLU", "display_name": "Seikh Sahabuddin Mohammed", "bio": null, "projects_count": 1, "devlogs_count": 0, "votes_count": 0, "ships_count": 0, "projects": [{"id": 611, "title": "Blockchain Cryptography Communication System", "devlogs_count": 0, "created_at": "2025-06-17T02:43:35.567-04:00"}], "coding_time_seconds": 110095, "coding_time_seconds_today": 418, "balance": "You need to have a pocket watcher badge to view this.", "badges": [], "created_at": "2025-06-17T02:12:34.285-04:00", "updated_at": "2025-07-03T19:34:17.692-04:00", "avatar": "https://secure.gravatar.com/avatar/3fa34cca4d137a7fd942e9d36a10e86a.jpg?s=512&d=https%3A%2F%2Fa.slack-edge.com%2Fdf10d%2Fimg%2Favatars%2Fava_0005-512.png", "custom_css": null}, {"id": 5097, "slack_id": "U08G07G1TC3", "display_name": "nic", "bio": null, "projects_count": 1, "devlogs_count": 1, "votes_count": 1, "ships_count": 0, "projects": [{"id": 10437, "title": "Bus Stop", "devlogs_count": 1, "created_at": "2025-08-07T01:37:51.219-04:00"}], "coding_time_seconds": 13511, "coding_time_seconds_today": 0, "balance": "You need to have a pocket watcher badge to view this.", "badges": [], "created_at": "2025-06-17T02:12:59.965-04:00", "updated_at": "2025-08-07T01:14:33.877-04:00", "avatar": "https://avatars.slack-edge.com/2025-03-03/8566359933808_1caab0248c4d2e60b09c_original.jpg", "custom_css": null}, {"id": 5098, "slack_id": "U06NXAM2PS7", "display_name": "Shaunak Bajaj", "bio": null, "projects_count": 6, "devlogs_count": 18, "votes_count": 60, "ships_count": 6, "projects": [{"id": 10689, "title": "KillerBoard", "devlogs_count": 1, "created_at": "2025-08-09T15:36:47.505-04:00"}, {"id": 12793, "title": "KillerSplit", "devlogs_count": 8, "created_at": "2025-09-02T14:58:46.730-04:00"}, {"id": 5904, "title": "PitScript", "devlogs_count": 3, "created_at": "2025-07-09T03:10:50.550-04:00"}, {"id": 11555, "title": "Book Tracker API", "devlogs_count": 4, "created_at": "2025-08-17T03:22:42.233-04:00"}, {"id": 5477, "title": "F1 Reaction Time Game", "devlogs_count": 1, "created_at": "2025-07-05T14:52:07.822-04:00"}, {"id": 4241, "title": "Hackpad", "devlogs_count": 1, "created_at": "2025-06-28T11:38:59.779-04:00"}], "coding_time_seconds": 178416, "coding_time_seconds_today": 0, "balance": "You need to have a pocket watcher badge to view this.", "badges": [{"name": "Maiden Voyage", "text": "you shipped your first project! the journey begins...", "icon": "\ud83d\udea2"}], "created_at": "2025-06-17T02:13:21.412-04:00", "updated_at": "2025-09-10T22:53:42.166-04:00", "avatar": "https://secure.gravatar.com/avatar/9d868e88f48d8009a313ed2cb2681db7.jpg?s=512&d=https%3A%2F%2Fa.slack-edge.com%2Fdf10d%2Fimg%2Favatars%2Fava_0010-512.png", "custom_css": null}, {"id": 5099, "slack_id": "U091KHWMKQT", "display_name": "Amila", "bio": null, "projects_count": 0, "devlogs_count": 0, "votes_count": 0, "ships_count": 0, "projects": [], "coding_time_seconds": 0, "coding_time_seconds_today": 0, "balance": "You need to have a pocket watcher badge to view this.", "badges": [], "created_at": "2025-06-17T02:13:36.163-04:00", "updated_at": "2025-07-03T19:34:18.487-04:00", "avatar": "https://secure.gravatar.com/avatar/0dbb472474551f7eec07e9335e60ede3.jpg?s=512&d=https%3A%2F%2Fa.slack-edge.com%2Fdf10d%2Fimg%2Favatars%2Fava_0010-512.png", "custom_css": null}, {"id": 5100, "slack_id": "U091KLW4WPQ", "display_name": "Dejt", "bio": null, "projects_count": 0, "devlogs_count": 0, "votes_count": 0, "ships_count": 0, "projects": [], "coding_time_seconds": 2, "coding_time_seconds_today": 0, "balance": "You need to have a pocket watcher badge to view this.", "badges": [], "created_at": "2025-06-17T02:13:36.716-04:00", "updated_at": "2025-07-03T19:34:18.747-04:00", "avatar": "https://secure.gravatar.com/avatar/d9c3804b5860a8dd4baad76e7190eb65.jpg?s=512&d=https%3A%2F%2Fa.slack-edge.com%2Fdf10d%2Fimg%2Favatars%2Fava_0000-512.png", "custom_css": null}], "pagination": {"page": 255, "pages": 1192, "count": 23828, "items": 20}}