{"users": [{"id": 5121, "slack_id": "U091SQ5BKNY", "display_name": "Rahul Hulge", "bio": null, "projects_count": 0, "devlogs_count": 0, "votes_count": 0, "ships_count": 0, "projects": [], "coding_time_seconds": 0, "coding_time_seconds_today": 0, "balance": "You need to have a pocket watcher badge to view this.", "badges": [], "created_at": "2025-06-17T02:17:05.863-04:00", "updated_at": "2025-07-03T21:54:32.340-04:00", "avatar": "https://avatars.slack-edge.com/2025-06-16/9073051462817_98aefbbd41e5d4e5097b_original.png", "custom_css": null}, {"id": 5122, "slack_id": "U092516JL6M", "display_name": "Mohd Zaid", "bio": null, "projects_count": 1, "devlogs_count": 0, "votes_count": 0, "ships_count": 0, "projects": [{"id": 612, "title": "Alternate", "devlogs_count": 0, "created_at": "2025-06-17T02:51:06.397-04:00"}], "coding_time_seconds": 744025, "coding_time_seconds_today": 0, "balance": "You need to have a pocket watcher badge to view this.", "badges": [], "created_at": "2025-06-17T02:17:29.936-04:00", "updated_at": "2025-07-03T19:34:24.055-04:00", "avatar": "https://avatars.slack-edge.com/2025-06-17/9045131631047_073612bb8a814331dc6b_original.jpg", "custom_css": null}, {"id": 5123, "slack_id": "U091SQ6CC8L", "display_name": "Rabin Chudali", "bio": null, "projects_count": 1, "devlogs_count": 7, "votes_count": 34, "ships_count": 1, "projects": [{"id": 2422, "title": "Soulsync", "devlogs_count": 7, "created_at": "2025-06-21T01:58:28.257-04:00"}], "coding_time_seconds": 101304, "coding_time_seconds_today": 0, "balance": "You need to have a pocket watcher badge to view this.", "badges": [{"name": "Maiden Voyage", "text": "you shipped your first project! the journey begins...", "icon": "\ud83d\udea2"}], "created_at": "2025-06-17T02:17:34.520-04:00", "updated_at": "2025-09-10T22:53:42.909-04:00", "avatar": "https://avatars.slack-edge.com/2025-08-28/9421743769602_4b9400ed063fb7dc411c_original.jpg", "custom_css": null}, {"id": 5124, "slack_id": "U09251AJ00H", "display_name": "Diego Bravo Fernandez", "bio": null, "projects_count": 0, "devlogs_count": 0, "votes_count": 0, "ships_count": 0, "projects": [], "coding_time_seconds": 0, "coding_time_seconds_today": 0, "balance": "You need to have a pocket watcher badge to view this.", "badges": [], "created_at": "2025-06-17T02:17:47.857-04:00", "updated_at": "2025-07-03T19:34:24.575-04:00", "avatar": "https://avatars.slack-edge.com/2025-06-16/9053755324806_8d78514fd734af92dea0_original.jpg", "custom_css": null}, {"id": 5125, "slack_id": "U092ERTF6NL", "display_name": "ashish", "bio": null, "projects_count": 0, "devlogs_count": 0, "votes_count": 0, "ships_count": 0, "projects": [], "coding_time_seconds": 5897, "coding_time_seconds_today": 0, "balance": "You need to have a pocket watcher badge to view this.", "badges": [], "created_at": "2025-06-17T02:18:18.939-04:00", "updated_at": "2025-07-03T19:34:24.853-04:00", "avatar": "https://secure.gravatar.com/avatar/91f367d53976b599d0e40ac4043c76e1.jpg?s=512&d=https%3A%2F%2Fa.slack-edge.com%2Fdf10d%2Fimg%2Favatars%2Fava_0015-512.png", "custom_css": null}, {"id": 5126, "slack_id": "U091SQ97MK6", "display_name": "pratham", "bio": null, "projects_count": 0, "devlogs_count": 0, "votes_count": 0, "ships_count": 0, "projects": [], "coding_time_seconds": 701, "coding_time_seconds_today": 0, "balance": "You need to have a pocket watcher badge to view this.", "badges": [], "created_at": "2025-06-17T02:18:24.462-04:00", "updated_at": "2025-07-03T19:34:25.111-04:00", "avatar": "https://secure.gravatar.com/avatar/96818722d13ba14464edf388ca9c841e.jpg?s=512&d=https%3A%2F%2Fa.slack-edge.com%2Fdf10d%2Fimg%2Favatars%2Fava_0020-512.png", "custom_css": null}, {"id": 5127, "slack_id": "U091KMVSVU6", "display_name": "Ranvijay Singh", "bio": null, "projects_count": 3, "devlogs_count": 9, "votes_count": 32, "ships_count": 3, "projects": [{"id": 2410, "title": "Guess The Number Game", "devlogs_count": 3, "created_at": "2025-06-21T00:34:42.264-04:00"}, {"id": 8961, "title": "Black Jack Game", "devlogs_count": 3, "created_at": "2025-07-30T02:29:57.604-04:00"}, {"id": 9943, "title": "lead Tracker Extension", "devlogs_count": 3, "created_at": "2025-08-03T03:20:45.911-04:00"}], "coding_time_seconds": 48621, "coding_time_seconds_today": 0, "balance": "You need to have a pocket watcher badge to view this.", "badges": [{"name": "Maiden Voyage", "text": "you shipped your first project! the journey begins...", "icon": "\ud83d\udea2"}], "created_at": "2025-06-17T02:18:27.061-04:00", "updated_at": "2025-09-10T22:53:43.011-04:00", "avatar": "https://avatars.slack-edge.com/2025-06-16/9060528592498_7d8106f0228920dda78e_original.jpg", "custom_css": null}, {"id": 5128, "slack_id": "U08192M4MRR", "display_name": "HAT_HQ", "bio": null, "projects_count": 1, "devlogs_count": 1, "votes_count": 3, "ships_count": 0, "projects": [{"id": 1784, "title": "Snake Game!", "devlogs_count": 1, "created_at": "2025-06-19T08:33:39.203-04:00"}], "coding_time_seconds": 2308, "coding_time_seconds_today": 0, "balance": "You need to have a pocket watcher badge to view this.", "badges": [], "created_at": "2025-06-17T02:18:31.384-04:00", "updated_at": "2025-08-18T06:46:04.424-04:00", "avatar": "https://avatars.slack-edge.com/2025-04-01/8709353832272_e2fb9e12da095a3c52bb_original.jpg", "custom_css": null}, {"id": 5129, "slack_id": "U091QLYHEUV", "display_name": "Chanakan Moongthin", "bio": null, "projects_count": 0, "devlogs_count": 0, "votes_count": 0, "ships_count": 0, "projects": [], "coding_time_seconds": 43237, "coding_time_seconds_today": 0, "balance": "You need to have a pocket watcher badge to view this.", "badges": [], "created_at": "2025-06-17T02:18:34.210-04:00", "updated_at": "2025-07-03T19:34:25.922-04:00", "avatar": "https://secure.gravatar.com/avatar/b01becca30e34eca40b7b47ef2edcf8e.jpg?s=512&d=https%3A%2F%2Fa.slack-edge.com%2Fdf10d%2Fimg%2Favatars%2Fava_0007-512.png", "custom_css": null}, {"id": 5130, "slack_id": "U0894STUS9L", "display_name": "LizardFolk", "bio": null, "projects_count": 0, "devlogs_count": 3, "votes_count": 20, "ships_count": 0, "projects": [], "coding_time_seconds": 116226, "coding_time_seconds_today": 0, "balance": "You need to have a pocket watcher badge to view this.", "badges": [], "created_at": "2025-06-17T02:18:35.531-04:00", "updated_at": "2025-07-09T16:53:48.726-04:00", "avatar": "https://secure.gravatar.com/avatar/2c71cf59ded8d5719275c4f5b6740293.jpg?s=512&d=https%3A%2F%2Fa.slack-edge.com%2Fdf10d%2Fimg%2Favatars%2Fava_0008-512.png", "custom_css": null}, {"id": 5131, "slack_id": "U091SF76W8J", "display_name": "Zoran", "bio": null, "projects_count": 0, "devlogs_count": 0, "votes_count": 0, "ships_count": 0, "projects": [], "coding_time_seconds": 0, "coding_time_seconds_today": 0, "balance": "You need to have a pocket watcher badge to view this.", "badges": [], "created_at": "2025-06-17T02:18:45.337-04:00", "updated_at": "2025-07-03T19:34:26.453-04:00", "avatar": "https://secure.gravatar.com/avatar/19d074e687ed594ac2fc2d82fb7b43e5.jpg?s=512&d=https%3A%2F%2Fa.slack-edge.com%2Fdf10d%2Fimg%2Favatars%2Fava_0011-512.png", "custom_css": null}, {"id": 5132, "slack_id": "U091SF7J9FC", "display_name": "Aditya Bhardwaj", "bio": null, "projects_count": 0, "devlogs_count": 0, "votes_count": 0, "ships_count": 0, "projects": [], "coding_time_seconds": 0, "coding_time_seconds_today": 0, "balance": "You need to have a pocket watcher badge to view this.", "badges": [], "created_at": "2025-06-17T02:18:47.315-04:00", "updated_at": "2025-07-03T19:34:26.733-04:00", "avatar": "https://secure.gravatar.com/avatar/df135c58d80152cefd156ca704b1cd0f.jpg?s=512&d=https%3A%2F%2Fa.slack-edge.com%2Fdf10d%2Fimg%2Favatars%2Fava_0009-512.png", "custom_css": null}, {"id": 5133, "slack_id": "U092ERWU7KJ", "display_name": "Harish Garg", "bio": null, "projects_count": 0, "devlogs_count": 0, "votes_count": 0, "ships_count": 0, "projects": [], "coding_time_seconds": 0, "coding_time_seconds_today": 0, "balance": "You need to have a pocket watcher badge to view this.", "badges": [], "created_at": "2025-06-17T02:18:49.012-04:00", "updated_at": "2025-07-03T19:34:27.003-04:00", "avatar": "https://secure.gravatar.com/avatar/f51805ada8bbfab71c7c20cf5e29a826.jpg?s=512&d=https%3A%2F%2Fa.slack-edge.com%2Fdf10d%2Fimg%2Favatars%2Fava_0003-512.png", "custom_css": null}, {"id": 5134, "slack_id": "U092518L7DX", "display_name": "Spandan Parikh", "bio": null, "projects_count": 0, "devlogs_count": 0, "votes_count": 0, "ships_count": 0, "projects": [], "coding_time_seconds": 0, "coding_time_seconds_today": 0, "balance": "You need to have a pocket watcher badge to view this.", "badges": [], "created_at": "2025-06-17T02:19:25.360-04:00", "updated_at": "2025-07-04T08:20:21.067-04:00", "avatar": "https://secure.gravatar.com/avatar/3739cb8b0fb63f89986696605b27d720.jpg?s=512&d=https%3A%2F%2Fa.slack-edge.com%2Fdf10d%2Fimg%2Favatars%2Fava_0026-512.png", "custom_css": null}, {"id": 5135, "slack_id": "U091SQ9AVFW", "display_name": "ren beast", "bio": null, "projects_count": 0, "devlogs_count": 0, "votes_count": 0, "ships_count": 0, "projects": [], "coding_time_seconds": 0, "coding_time_seconds_today": 0, "balance": "You need to have a pocket watcher badge to view this.", "badges": [], "created_at": "2025-06-17T02:19:34.683-04:00", "updated_at": "2025-07-03T19:34:27.417-04:00", "avatar": "https://secure.gravatar.com/avatar/4fbbe0cbcbad7a547fd30236eadf95ce.jpg?s=512&d=https%3A%2F%2Fa.slack-edge.com%2Fdf10d%2Fimg%2Favatars%2Fava_0018-512.png", "custom_css": null}, {"id": 5136, "slack_id": "U092ES0DECQ", "display_name": "Vibhuti", "bio": null, "projects_count": 0, "devlogs_count": 0, "votes_count": 0, "ships_count": 0, "projects": [], "coding_time_seconds": 0, "coding_time_seconds_today": 0, "balance": "You need to have a pocket watcher badge to view this.", "badges": [], "created_at": "2025-06-17T02:19:37.134-04:00", "updated_at": "2025-07-03T19:34:27.877-04:00", "avatar": "https://secure.gravatar.com/avatar/01d8048e36015d32007a99c88ed9e36d.jpg?s=512&d=https%3A%2F%2Fa.slack-edge.com%2Fdf10d%2Fimg%2Favatars%2Fava_0024-512.png", "custom_css": null}, {"id": 5137, "slack_id": "U078SNHLU10", "display_name": "lore accurate vremi 50 pint dehumidifier", "bio": null, "projects_count": 0, "devlogs_count": 0, "votes_count": 0, "ships_count": 0, "projects": [], "coding_time_seconds": 0, "coding_time_seconds_today": 0, "balance": "You need to have a pocket watcher badge to view this.", "badges": [], "created_at": "2025-06-17T02:19:49.219-04:00", "updated_at": "2025-09-05T14:23:47.140-04:00", "avatar": "https://avatars.slack-edge.com/2025-09-05/9464020816851_f2726712a0bc821f5359_original.png", "custom_css": null}, {"id": 5138, "slack_id": "U091SEYECAE", "display_name": "Hashimii", "bio": null, "projects_count": 0, "devlogs_count": 0, "votes_count": 0, "ships_count": 0, "projects": [], "coding_time_seconds": 0, "coding_time_seconds_today": 0, "balance": "You need to have a pocket watcher badge to view this.", "badges": [], "created_at": "2025-06-17T02:19:58.129-04:00", "updated_at": "2025-07-03T19:34:28.417-04:00", "avatar": "https://secure.gravatar.com/avatar/a716f2f31429657fa84ab51ef393823f.jpg?s=512&d=https%3A%2F%2Fa.slack-edge.com%2Fdf10d%2Fimg%2Favatars%2Fava_0005-512.png", "custom_css": null}, {"id": 5139, "slack_id": "U091SQFHS76", "display_name": "Husni Sarif", "bio": null, "projects_count": 0, "devlogs_count": 0, "votes_count": 0, "ships_count": 0, "projects": [], "coding_time_seconds": 526895, "coding_time_seconds_today": 14622, "balance": "You need to have a pocket watcher badge to view this.", "badges": [], "created_at": "2025-06-17T02:20:19.759-04:00", "updated_at": "2025-07-17T02:23:50.977-04:00", "avatar": "https://avatars.slack-edge.com/2025-07-17/9196389027415_42aa493b5e7c36cd8c48_original.jpg", "custom_css": null}, {"id": 5140, "slack_id": "U092BSNFJ64", "display_name": "Manvith", "bio": null, "projects_count": 4, "devlogs_count": 4, "votes_count": 0, "ships_count": 0, "projects": [{"id": 623, "title": "Data Structures and Algorithms Visualizer", "devlogs_count": 0, "created_at": "2025-06-17T03:16:35.210-04:00"}, {"id": 1263, "title": "Traffic Simulation Using Cellular Automata (of hyderabad)", "devlogs_count": 2, "created_at": "2025-06-18T02:51:09.734-04:00"}, {"id": 1305, "title": "Behaviour-Based-Authentication for banking app", "devlogs_count": 1, "created_at": "2025-06-18T07:16:34.540-04:00"}, {"id": 3161, "title": "Trepa-io Landing Page", "devlogs_count": 1, "created_at": "2025-06-23T09:34:47.641-04:00"}], "coding_time_seconds": 78451, "coding_time_seconds_today": 0, "balance": "You need to have a pocket watcher badge to view this.", "badges": [], "created_at": "2025-06-17T02:20:34.085-04:00", "updated_at": "2025-07-03T19:34:28.960-04:00", "avatar": "https://secure.gravatar.com/avatar/0a20f97c974e67ebb10c714bfbda6220.jpg?s=512&d=https%3A%2F%2Fa.slack-edge.com%2Fdf10d%2Fimg%2Favatars%2Fava_0007-512.png", "custom_css": null}], "pagination": {"page": 257, "pages": 1192, "count": 23828, "items": 20}}