{"users": [{"id": 5141, "slack_id": "U091KN12R7G", "display_name": "Elwin", "bio": null, "projects_count": 0, "devlogs_count": 0, "votes_count": 0, "ships_count": 0, "projects": [], "coding_time_seconds": 0, "coding_time_seconds_today": 0, "balance": "You need to have a pocket watcher badge to view this.", "badges": [], "created_at": "2025-06-17T02:20:49.385-04:00", "updated_at": "2025-07-03T19:34:29.226-04:00", "avatar": "https://secure.gravatar.com/avatar/e913bdbfbba5c870624c332129850004.jpg?s=512&d=https%3A%2F%2Fa.slack-edge.com%2Fdf10d%2Fimg%2Favatars%2Fava_0023-512.png", "custom_css": null}, {"id": 5142, "slack_id": "U091SQ9NZV2", "display_name": "shiv", "bio": null, "projects_count": 0, "devlogs_count": 0, "votes_count": 0, "ships_count": 0, "projects": [], "coding_time_seconds": 0, "coding_time_seconds_today": 0, "balance": "You need to have a pocket watcher badge to view this.", "badges": [], "created_at": "2025-06-17T02:21:25.153-04:00", "updated_at": "2025-07-03T19:34:29.490-04:00", "avatar": "https://secure.gravatar.com/avatar/221c6b84201952c79e24b702672daa4a.jpg?s=512&d=https%3A%2F%2Fa.slack-edge.com%2Fdf10d%2Fimg%2Favatars%2Fava_0014-512.png", "custom_css": null}, {"id": 5143, "slack_id": "U091KJXAHT5", "display_name": "bombunz", "bio": null, "projects_count": 0, "devlogs_count": 0, "votes_count": 0, "ships_count": 0, "projects": [], "coding_time_seconds": 4520, "coding_time_seconds_today": 0, "balance": "You need to have a pocket watcher badge to view this.", "badges": [], "created_at": "2025-06-17T02:21:29.069-04:00", "updated_at": "2025-07-03T19:34:29.753-04:00", "avatar": "https://secure.gravatar.com/avatar/58eb585289518792b85a622eb49482df.jpg?s=512&d=https%3A%2F%2Fa.slack-edge.com%2Fdf10d%2Fimg%2Favatars%2Fava_0011-512.png", "custom_css": null}, {"id": 5144, "slack_id": "U091B3DMQ8P", "display_name": "Nikita Shyshkin", "bio": null, "projects_count": 0, "devlogs_count": 0, "votes_count": 0, "ships_count": 0, "projects": [], "coding_time_seconds": 0, "coding_time_seconds_today": 0, "balance": "You need to have a pocket watcher badge to view this.", "badges": [], "created_at": "2025-06-17T02:21:30.293-04:00", "updated_at": "2025-07-03T19:34:30.011-04:00", "avatar": "https://avatars.slack-edge.com/2025-06-16/9073067548673_e60dfb6b29d5630fea2a_original.png", "custom_css": null}, {"id": 5145, "slack_id": "U091KJQU58B", "display_name": "Pabani", "bio": null, "projects_count": 0, "devlogs_count": 0, "votes_count": 0, "ships_count": 0, "projects": [], "coding_time_seconds": 0, "coding_time_seconds_today": 0, "balance": "You need to have a pocket watcher badge to view this.", "badges": [], "created_at": "2025-06-17T02:21:35.564-04:00", "updated_at": "2025-07-03T19:34:30.274-04:00", "avatar": "https://secure.gravatar.com/avatar/613273c9bd035175d715d02515e7b614.jpg?s=512&d=https%3A%2F%2Fa.slack-edge.com%2Fdf10d%2Fimg%2Favatars%2Fava_0025-512.png", "custom_css": null}, {"id": 5146, "slack_id": "U091KJSPK6X", "display_name": "HQ2000", "bio": "Beginner/Intermediate Rust programmer", "projects_count": 7, "devlogs_count": 95, "votes_count": 86, "ships_count": 4, "projects": [{"id": 2928, "title": "MoveTimer", "devlogs_count": 0, "created_at": "2025-06-22T13:33:27.108-04:00"}, {"id": 7055, "title": "Sacrifice After Sacrifice", "devlogs_count": 3, "created_at": "2025-07-18T15:44:35.225-04:00"}, {"id": 12104, "title": "Concurrent File Crawler", "devlogs_count": 19, "created_at": "2025-08-23T05:05:56.768-04:00"}, {"id": 1074, "title": "Terminal Sudoku", "devlogs_count": 12, "created_at": "2025-06-17T15:23:59.408-04:00"}, {"id": 2174, "title": "AGE", "devlogs_count": 46, "created_at": "2025-06-20T11:13:07.206-04:00"}, {"id": 8580, "title": "CLG - Command Line Gambling", "devlogs_count": 15, "created_at": "2025-07-28T09:53:32.024-04:00"}, {"id": 10900, "title": "My (Special) Website", "devlogs_count": 3, "created_at": "2025-08-11T17:00:08.253-04:00"}], "coding_time_seconds": 809762, "coding_time_seconds_today": 0, "balance": "You need to have a pocket watcher badge to view this.", "badges": [{"name": "Maiden Voyage", "text": "you shipped your first project! the journey begins...", "icon": "\ud83d\udea2"}, {"name": "Yapper I", "text": "Posted 10 comments on devlogs.", "icon": "\ud83d\udcac"}], "created_at": "2025-06-17T02:21:47.240-04:00", "updated_at": "2025-09-23T15:59:42.082-04:00", "avatar": "https://avatars.slack-edge.com/2025-06-20/9089953185073_154d75c2ee83f9f18430_original.jpg", "custom_css": null}, {"id": 5147, "slack_id": "U08UWCB8JJY", "display_name": "monosodiumfox", "bio": null, "projects_count": 5, "devlogs_count": 17, "votes_count": 23, "ships_count": 1, "projects": [{"id": 1319, "title": "OCConfigReader", "devlogs_count": 5, "created_at": "2025-06-18T08:17:59.250-04:00"}, {"id": 2867, "title": "floxTalk", "devlogs_count": 10, "created_at": "2025-06-22T09:22:01.600-04:00"}, {"id": 7380, "title": "Test project, ignore me", "devlogs_count": 0, "created_at": "2025-07-21T12:22:31.494-04:00"}, {"id": 13195, "title": "Skype 8 semi-revival", "devlogs_count": 1, "created_at": "2025-09-11T11:41:58.313-04:00"}, {"id": 13357, "title": "yapaRC", "devlogs_count": 1, "created_at": "2025-09-14T13:02:39.891-04:00"}], "coding_time_seconds": 298284, "coding_time_seconds_today": 1350, "balance": "You need to have a pocket watcher badge to view this.", "badges": [{"name": "Maiden Voyage", "text": "you shipped your first project! the journey begins...", "icon": "\ud83d\udea2"}], "created_at": "2025-06-17T02:21:47.384-04:00", "updated_at": "2025-09-24T12:23:45.068-04:00", "avatar": "https://avatars.slack-edge.com/2025-09-25/9571005971091_786b945f5605b67cc29c_original.jpg", "custom_css": null}, {"id": 5148, "slack_id": "U091B3RECDD", "display_name": "Mr Iffat", "bio": null, "projects_count": 0, "devlogs_count": 0, "votes_count": 0, "ships_count": 0, "projects": [], "coding_time_seconds": 0, "coding_time_seconds_today": 0, "balance": "You need to have a pocket watcher badge to view this.", "badges": [], "created_at": "2025-06-17T02:21:50.277-04:00", "updated_at": "2025-07-03T19:34:31.071-04:00", "avatar": "https://secure.gravatar.com/avatar/ee8c20b4b1a016b2b92bdc566008bda2.jpg?s=512&d=https%3A%2F%2Fa.slack-edge.com%2Fdf10d%2Fimg%2Favatars%2Fava_0025-512.png", "custom_css": null}, {"id": 5149, "slack_id": "U091KN9LBUN", "display_name": "Edgar Sanchez", "bio": null, "projects_count": 0, "devlogs_count": 0, "votes_count": 0, "ships_count": 0, "projects": [], "coding_time_seconds": 0, "coding_time_seconds_today": 0, "balance": "You need to have a pocket watcher badge to view this.", "badges": [], "created_at": "2025-06-17T02:22:19.123-04:00", "updated_at": "2025-07-03T19:34:31.353-04:00", "avatar": "https://secure.gravatar.com/avatar/2911f63f30a01fb3e701f4287bd19650.jpg?s=512&d=https%3A%2F%2Fa.slack-edge.com%2Fdf10d%2Fimg%2Favatars%2Fava_0018-512.png", "custom_css": null}, {"id": 5150, "slack_id": "U091KK3RS6P", "display_name": "Raghav Upadhyay", "bio": null, "projects_count": 0, "devlogs_count": 0, "votes_count": 0, "ships_count": 0, "projects": [], "coding_time_seconds": 0, "coding_time_seconds_today": 0, "balance": "You need to have a pocket watcher badge to view this.", "badges": [], "created_at": "2025-06-17T02:22:42.717-04:00", "updated_at": "2025-07-03T19:34:31.608-04:00", "avatar": "https://avatars.slack-edge.com/2025-06-16/9058741705301_5594eb5258e2d394832e_original.jpg", "custom_css": null}, {"id": 5151, "slack_id": "U091QMDJPLM", "display_name": "Muhammad Mushhood Afridi", "bio": null, "projects_count": 0, "devlogs_count": 0, "votes_count": 0, "ships_count": 0, "projects": [], "coding_time_seconds": 0, "coding_time_seconds_today": 0, "balance": "You need to have a pocket watcher badge to view this.", "badges": [], "created_at": "2025-06-17T02:22:55.679-04:00", "updated_at": "2025-07-03T19:34:31.872-04:00", "avatar": "https://secure.gravatar.com/avatar/472c664fbe707c4646e3b2f05c488111.jpg?s=512&d=https%3A%2F%2Fa.slack-edge.com%2Fdf10d%2Fimg%2Favatars%2Fava_0013-512.png", "custom_css": null}, {"id": 5152, "slack_id": "U09239JED33", "display_name": "Thiago Fraga", "bio": null, "projects_count": 0, "devlogs_count": 0, "votes_count": 0, "ships_count": 0, "projects": [], "coding_time_seconds": 0, "coding_time_seconds_today": 0, "balance": "You need to have a pocket watcher badge to view this.", "badges": [], "created_at": "2025-06-17T02:22:56.061-04:00", "updated_at": "2025-07-03T19:34:32.137-04:00", "avatar": "https://avatars.slack-edge.com/2025-06-16/9058742483765_ce8768f18372a92cb54b_original.jpg", "custom_css": null}, {"id": 5153, "slack_id": "U091B1Z0YDD", "display_name": "Inosh", "bio": null, "projects_count": 0, "devlogs_count": 0, "votes_count": 0, "ships_count": 0, "projects": [], "coding_time_seconds": 0, "coding_time_seconds_today": 0, "balance": "You need to have a pocket watcher badge to view this.", "badges": [], "created_at": "2025-06-17T02:23:21.050-04:00", "updated_at": "2025-07-03T19:34:32.411-04:00", "avatar": "https://secure.gravatar.com/avatar/5ffeaa5608d0810a9c4b961572ca876a.jpg?s=512&d=https%3A%2F%2Fa.slack-edge.com%2Fdf10d%2Fimg%2Favatars%2Fava_0001-512.png", "custom_css": null}, {"id": 5154, "slack_id": "U091SQXN8PN", "display_name": "durgarao", "bio": null, "projects_count": 0, "devlogs_count": 0, "votes_count": 0, "ships_count": 0, "projects": [], "coding_time_seconds": 0, "coding_time_seconds_today": 0, "balance": "You need to have a pocket watcher badge to view this.", "badges": [], "created_at": "2025-06-17T02:23:23.140-04:00", "updated_at": "2025-07-03T19:34:32.675-04:00", "avatar": "https://secure.gravatar.com/avatar/d94c45e3d37ac1d037b3d7f54b47378c.jpg?s=512&d=https%3A%2F%2Fa.slack-edge.com%2Fdf10d%2Fimg%2Favatars%2Fava_0021-512.png", "custom_css": null}, {"id": 5155, "slack_id": "U091SFPV082", "display_name": "Roshan Tripathy", "bio": null, "projects_count": 0, "devlogs_count": 0, "votes_count": 0, "ships_count": 0, "projects": [], "coding_time_seconds": 0, "coding_time_seconds_today": 0, "balance": "You need to have a pocket watcher badge to view this.", "badges": [], "created_at": "2025-06-17T02:23:28.527-04:00", "updated_at": "2025-07-03T19:34:32.934-04:00", "avatar": "https://secure.gravatar.com/avatar/8e182b6d92f8c9143b1e2034bfa08548.jpg?s=512&d=https%3A%2F%2Fa.slack-edge.com%2Fdf10d%2Fimg%2Favatars%2Fava_0018-512.png", "custom_css": null}, {"id": 5156, "slack_id": "U091SFFLTA6", "display_name": "Ajay Kumar", "bio": null, "projects_count": 0, "devlogs_count": 0, "votes_count": 0, "ships_count": 0, "projects": [], "coding_time_seconds": 0, "coding_time_seconds_today": 0, "balance": "You need to have a pocket watcher badge to view this.", "badges": [], "created_at": "2025-06-17T02:23:59.751-04:00", "updated_at": "2025-07-03T19:34:33.210-04:00", "avatar": "https://secure.gravatar.com/avatar/927e89a0a021bbc63249e6dc006b2cd2.jpg?s=512&d=https%3A%2F%2Fa.slack-edge.com%2Fdf10d%2Fimg%2Favatars%2Fava_0000-512.png", "custom_css": null}, {"id": 5157, "slack_id": "U081XUVKUEB", "display_name": "Achintya Krishna", "bio": null, "projects_count": 0, "devlogs_count": 0, "votes_count": 0, "ships_count": 0, "projects": [], "coding_time_seconds": 2416, "coding_time_seconds_today": 0, "balance": "You need to have a pocket watcher badge to view this.", "badges": [], "created_at": "2025-06-17T02:24:10.434-04:00", "updated_at": "2025-07-03T19:34:33.497-04:00", "avatar": "https://secure.gravatar.com/avatar/9c23121f1f260f60ef705c0a810a67b3.jpg?s=512&d=https%3A%2F%2Fa.slack-edge.com%2Fdf10d%2Fimg%2Favatars%2Fava_0000-512.png", "custom_css": null}, {"id": 5158, "slack_id": "U091B3R8LG7", "display_name": "Orion Popcorn", "bio": null, "projects_count": 0, "devlogs_count": 0, "votes_count": 0, "ships_count": 0, "projects": [], "coding_time_seconds": 0, "coding_time_seconds_today": 0, "balance": "You need to have a pocket watcher badge to view this.", "badges": [], "created_at": "2025-06-17T02:24:24.592-04:00", "updated_at": "2025-07-03T19:34:33.853-04:00", "avatar": "https://avatars.slack-edge.com/2025-06-17/9053787739990_a1acd9564ef8ed9d66bb_original.png", "custom_css": null}, {"id": 5159, "slack_id": "U0798M2MFAM", "display_name": "KrazyMiner001", "bio": null, "projects_count": 1, "devlogs_count": 1, "votes_count": 0, "ships_count": 0, "projects": [{"id": 4982, "title": "Game Boy Emulator", "devlogs_count": 1, "created_at": "2025-07-02T14:21:29.296-04:00"}], "coding_time_seconds": 278362, "coding_time_seconds_today": 2144, "balance": "You need to have a pocket watcher badge to view this.", "badges": [], "created_at": "2025-06-17T02:24:46.157-04:00", "updated_at": "2025-07-03T19:34:34.118-04:00", "avatar": "https://secure.gravatar.com/avatar/9139afa8bf226a16c1abaeb063da7c24.jpg?s=512&d=https%3A%2F%2Fa.slack-edge.com%2Fdf10d%2Fimg%2Favatars%2Fava_0010-512.png", "custom_css": null}, {"id": 5160, "slack_id": "U092ESM3SNL", "display_name": "pnk", "bio": null, "projects_count": 0, "devlogs_count": 0, "votes_count": 0, "ships_count": 0, "projects": [], "coding_time_seconds": 0, "coding_time_seconds_today": 0, "balance": "You need to have a pocket watcher badge to view this.", "badges": [], "created_at": "2025-06-17T02:25:31.076-04:00", "updated_at": "2025-07-03T19:34:34.384-04:00", "avatar": "https://secure.gravatar.com/avatar/7746b36580157bde13e47f22dec08fa1.jpg?s=512&d=https%3A%2F%2Fa.slack-edge.com%2Fdf10d%2Fimg%2Favatars%2Fava_0005-512.png", "custom_css": null}], "pagination": {"page": 258, "pages": 1192, "count": 23828, "items": 20}}