{"users": [{"id": 5161, "slack_id": "U091SESNDRQ", "display_name": "Aouadissss", "bio": null, "projects_count": 0, "devlogs_count": 0, "votes_count": 0, "ships_count": 0, "projects": [], "coding_time_seconds": 0, "coding_time_seconds_today": 0, "balance": "You need to have a pocket watcher badge to view this.", "badges": [], "created_at": "2025-06-17T02:26:32.571-04:00", "updated_at": "2025-07-03T19:34:34.653-04:00", "avatar": "https://secure.gravatar.com/avatar/a003e1cd5e00cb9f9a66bb813e7e938f.jpg?s=512&d=https%3A%2F%2Fa.slack-edge.com%2Fdf10d%2Fimg%2Favatars%2Fava_0015-512.png", "custom_css": null}, {"id": 5162, "slack_id": "U092ESNV264", "display_name": "Malay Patel", "bio": null, "projects_count": 12, "devlogs_count": 82, "votes_count": 169, "ships_count": 4, "projects": [{"id": 735, "title": "StoryChain", "devlogs_count": 1, "created_at": "2025-06-17T06:54:27.676-04:00"}, {"id": 4723, "title": "Praciar", "devlogs_count": 3, "created_at": "2025-07-01T08:37:24.735-04:00"}, {"id": 11841, "title": "Relic Hunter", "devlogs_count": 0, "created_at": "2025-08-20T07:19:39.474-04:00"}, {"id": 12475, "title": "WorldWeaver", "devlogs_count": 4, "created_at": "2025-08-28T05:57:39.838-04:00"}, {"id": 12769, "title": "Praciar", "devlogs_count": 0, "created_at": "2025-09-02T08:01:08.809-04:00"}, {"id": 5469, "title": "Kitmate", "devlogs_count": 19, "created_at": "2025-07-05T13:31:28.183-04:00"}, {"id": 13341, "title": "CP Portfolio with solutions", "devlogs_count": 3, "created_at": "2025-09-14T09:37:26.685-04:00"}, {"id": 13338, "title": "Khetse", "devlogs_count": 0, "created_at": "2025-09-14T09:17:29.096-04:00"}, {"id": 13339, "title": "Going Bananas Extension", "devlogs_count": 0, "created_at": "2025-09-14T09:31:27.700-04:00"}, {"id": 4233, "title": "Citysync", "devlogs_count": 14, "created_at": "2025-06-28T11:03:37.263-04:00"}, {"id": 12928, "title": "The Cringey Borderlands", "devlogs_count": 0, "created_at": "2025-09-05T14:07:42.678-04:00"}, {"id": 7351, "title": "MejaAR", "devlogs_count": 4, "created_at": "2025-07-21T07:31:03.455-04:00"}], "coding_time_seconds": 1157949, "coding_time_seconds_today": 1562, "balance": "You need to have a pocket watcher badge to view this.", "badges": [{"name": "Maiden Voyage", "text": "you shipped your first project! the journey begins...", "icon": "\ud83d\udea2"}, {"name": "Ballot Stuffer", "text": "vote 100 times.", "icon": "https://summer.hackclub.com/assets/i_voted-bf851b48.png"}], "created_at": "2025-06-17T02:26:49.332-04:00", "updated_at": "2025-09-10T22:53:44.042-04:00", "avatar": "https://avatars.slack-edge.com/2025-06-18/9061394521494_170d7a281e6510fc5a68_original.png", "custom_css": null}, {"id": 5163, "slack_id": "U09252173J5", "display_name": "Sergey5588", "bio": null, "projects_count": 1, "devlogs_count": 9, "votes_count": 53, "ships_count": 1, "projects": [{"id": 1485, "title": "Physmarch", "devlogs_count": 9, "created_at": "2025-06-18T16:11:32.759-04:00"}], "coding_time_seconds": 215915, "coding_time_seconds_today": 0, "balance": "You need to have a pocket watcher badge to view this.", "badges": [{"name": "Maiden Voyage", "text": "you shipped your first project! the journey begins...", "icon": "\ud83d\udea2"}], "created_at": "2025-06-17T02:27:18.414-04:00", "updated_at": "2025-09-10T22:53:44.080-04:00", "avatar": "https://avatars.slack-edge.com/2025-06-17/9059054908997_d0e58d0d170398c5a99a_original.jpg", "custom_css": null}, {"id": 5164, "slack_id": "U08234XK0A1", "display_name": "Kunal", "bio": null, "projects_count": 0, "devlogs_count": 0, "votes_count": 0, "ships_count": 0, "projects": [], "coding_time_seconds": 53372, "coding_time_seconds_today": 0, "balance": "You need to have a pocket watcher badge to view this.", "badges": [], "created_at": "2025-06-17T02:27:32.589-04:00", "updated_at": "2025-07-09T16:53:51.318-04:00", "avatar": "https://secure.gravatar.com/avatar/f23c43d11197164217b2f3dfe0f76bff.jpg?s=512&d=https%3A%2F%2Fa.slack-edge.com%2Fdf10d%2Fimg%2Favatars%2Fava_0015-512.png", "custom_css": null}, {"id": 5165, "slack_id": "U091QMQRTDK", "display_name": "Het", "bio": null, "projects_count": 0, "devlogs_count": 0, "votes_count": 0, "ships_count": 0, "projects": [], "coding_time_seconds": 3622, "coding_time_seconds_today": 0, "balance": "You need to have a pocket watcher badge to view this.", "badges": [], "created_at": "2025-06-17T02:27:42.031-04:00", "updated_at": "2025-07-03T19:34:35.708-04:00", "avatar": "https://secure.gravatar.com/avatar/d166c68429dc957059d2a6446d5409da.jpg?s=512&d=https%3A%2F%2Fa.slack-edge.com%2Fdf10d%2Fimg%2Favatars%2Fava_0015-512.png", "custom_css": null}, {"id": 5166, "slack_id": "U091KNW4EGN", "display_name": "Tamzid Ahmed", "bio": null, "projects_count": 0, "devlogs_count": 0, "votes_count": 0, "ships_count": 0, "projects": [], "coding_time_seconds": 0, "coding_time_seconds_today": 0, "balance": "You need to have a pocket watcher badge to view this.", "badges": [], "created_at": "2025-06-17T02:27:59.848-04:00", "updated_at": "2025-07-03T19:34:35.970-04:00", "avatar": "https://secure.gravatar.com/avatar/b8939f2c7ae3263e42d939c6cba9ab39.jpg?s=512&d=https%3A%2F%2Fa.slack-edge.com%2Fdf10d%2Fimg%2Favatars%2Fava_0014-512.png", "custom_css": null}, {"id": 5167, "slack_id": "U082LT62EKB", "display_name": "Noah", "bio": null, "projects_count": 1, "devlogs_count": 2, "votes_count": 0, "ships_count": 0, "projects": [{"id": 7692, "title": "Circuitducky", "devlogs_count": 2, "created_at": "2025-07-22T15:04:31.293-04:00"}], "coding_time_seconds": 319658, "coding_time_seconds_today": 333, "balance": "You need to have a pocket watcher badge to view this.", "badges": [], "created_at": "2025-06-17T02:28:00.393-04:00", "updated_at": "2025-08-14T19:45:38.815-04:00", "avatar": "https://secure.gravatar.com/avatar/24d9ec818bb74ebf22f89059b1c4d18b.jpg?s=512&d=https%3A%2F%2Fa.slack-edge.com%2Fdf10d%2Fimg%2Favatars%2Fava_0010-512.png", "custom_css": null}, {"id": 5168, "slack_id": "U091B2X83GX", "display_name": "rx422", "bio": null, "projects_count": 0, "devlogs_count": 0, "votes_count": 0, "ships_count": 0, "projects": [], "coding_time_seconds": 0, "coding_time_seconds_today": 0, "balance": "You need to have a pocket watcher badge to view this.", "badges": [], "created_at": "2025-06-17T02:28:02.089-04:00", "updated_at": "2025-07-03T19:34:36.517-04:00", "avatar": "https://secure.gravatar.com/avatar/5c7415064a34bbaeaff81f047d830dce.jpg?s=512&d=https%3A%2F%2Fa.slack-edge.com%2Fdf10d%2Fimg%2Favatars%2Fava_0013-512.png", "custom_css": null}, {"id": 5169, "slack_id": "U09251WH9PT", "display_name": "Fatma Ali", "bio": null, "projects_count": 0, "devlogs_count": 0, "votes_count": 0, "ships_count": 0, "projects": [], "coding_time_seconds": 0, "coding_time_seconds_today": 0, "balance": "You need to have a pocket watcher badge to view this.", "badges": [], "created_at": "2025-06-17T02:28:32.009-04:00", "updated_at": "2025-07-03T19:34:36.786-04:00", "avatar": "https://secure.gravatar.com/avatar/b94219698ed62a4ca54bf15b7b6ad63c.jpg?s=512&d=https%3A%2F%2Fa.slack-edge.com%2Fdf10d%2Fimg%2Favatars%2Fava_0019-512.png", "custom_css": null}, {"id": 5170, "slack_id": "U09251X33NV", "display_name": "Maqsood Ahmad", "bio": null, "projects_count": 0, "devlogs_count": 0, "votes_count": 0, "ships_count": 0, "projects": [], "coding_time_seconds": 0, "coding_time_seconds_today": 0, "balance": "You need to have a pocket watcher badge to view this.", "badges": [], "created_at": "2025-06-17T02:28:50.426-04:00", "updated_at": "2025-07-03T19:34:37.081-04:00", "avatar": "https://secure.gravatar.com/avatar/52891ec38f92ab62144b7acaf2a44522.jpg?s=512&d=https%3A%2F%2Fa.slack-edge.com%2Fdf10d%2Fimg%2Favatars%2Fava_0018-512.png", "custom_css": null}, {"id": 5171, "slack_id": "U092ESRA8M6", "display_name": "Dwija Panchal", "bio": null, "projects_count": 0, "devlogs_count": 0, "votes_count": 0, "ships_count": 0, "projects": [], "coding_time_seconds": 0, "coding_time_seconds_today": 0, "balance": "You need to have a pocket watcher badge to view this.", "badges": [], "created_at": "2025-06-17T02:28:52.609-04:00", "updated_at": "2025-07-03T19:34:37.355-04:00", "avatar": "https://secure.gravatar.com/avatar/a3b8405c17ee5f0c5c9457ec4d82e51b.jpg?s=512&d=https%3A%2F%2Fa.slack-edge.com%2Fdf10d%2Fimg%2Favatars%2Fava_0015-512.png", "custom_css": null}, {"id": 5172, "slack_id": "U0851TUBW1W", "display_name": "Firelynx", "bio": null, "projects_count": 1, "devlogs_count": 0, "votes_count": 0, "ships_count": 0, "projects": [{"id": 11821, "title": "YourDeathLocation", "devlogs_count": 0, "created_at": "2025-08-19T23:26:27.942-04:00"}], "coding_time_seconds": 31128, "coding_time_seconds_today": 0, "balance": "You need to have a pocket watcher badge to view this.", "badges": [], "created_at": "2025-06-17T02:29:03.049-04:00", "updated_at": "2025-08-19T08:48:04.181-04:00", "avatar": "https://secure.gravatar.com/avatar/6e8f440eeabb6955c37e0fa476edc566.jpg?s=512&d=https%3A%2F%2Fa.slack-edge.com%2Fdf10d%2Fimg%2Favatars%2Fava_0009-512.png", "custom_css": null}, {"id": 5173, "slack_id": "U091B4JDR55", "display_name": "Suprit Panda", "bio": null, "projects_count": 0, "devlogs_count": 0, "votes_count": 0, "ships_count": 0, "projects": [], "coding_time_seconds": 659, "coding_time_seconds_today": 0, "balance": "You need to have a pocket watcher badge to view this.", "badges": [], "created_at": "2025-06-17T02:29:06.864-04:00", "updated_at": "2025-08-17T08:24:02.536-04:00", "avatar": "https://avatars.slack-edge.com/2025-08-17/9352844322087_fd22b46172aff991208d_original.jpg", "custom_css": null}, {"id": 5174, "slack_id": "U091SG71C9G", "display_name": "sku yu", "bio": null, "projects_count": 0, "devlogs_count": 0, "votes_count": 0, "ships_count": 0, "projects": [], "coding_time_seconds": 0, "coding_time_seconds_today": 0, "balance": "You need to have a pocket watcher badge to view this.", "badges": [], "created_at": "2025-06-17T02:29:08.469-04:00", "updated_at": "2025-07-03T19:34:38.171-04:00", "avatar": "https://avatars.slack-edge.com/2025-06-16/9045165563239_291a7054c24e0ab0c758_original.png", "custom_css": null}, {"id": 5175, "slack_id": "U091SCZM8R0", "display_name": "Sumegi Arpad Botond", "bio": null, "projects_count": 0, "devlogs_count": 0, "votes_count": 0, "ships_count": 0, "projects": [], "coding_time_seconds": 0, "coding_time_seconds_today": 0, "balance": "You need to have a pocket watcher badge to view this.", "badges": [], "created_at": "2025-06-17T02:29:43.185-04:00", "updated_at": "2025-07-03T19:34:38.483-04:00", "avatar": "https://secure.gravatar.com/avatar/d155fc1a59fcb08df4a2c2da129836d9.jpg?s=512&d=https%3A%2F%2Fa.slack-edge.com%2Fdf10d%2Fimg%2Favatars%2Fava_0006-512.png", "custom_css": null}, {"id": 5176, "slack_id": "U09252H8WJV", "display_name": "satyam.jaiswal", "bio": null, "projects_count": 0, "devlogs_count": 0, "votes_count": 0, "ships_count": 0, "projects": [], "coding_time_seconds": 0, "coding_time_seconds_today": 0, "balance": "You need to have a pocket watcher badge to view this.", "badges": [], "created_at": "2025-06-17T02:30:08.185-04:00", "updated_at": "2025-07-03T19:34:38.749-04:00", "avatar": "https://secure.gravatar.com/avatar/08af88447e1dc3d7d4b3bc0fff9db186.jpg?s=512&d=https%3A%2F%2Fa.slack-edge.com%2Fdf10d%2Fimg%2Favatars%2Fava_0025-512.png", "custom_css": null}, {"id": 5177, "slack_id": "U091B4FFV55", "display_name": "Ruchit", "bio": null, "projects_count": 0, "devlogs_count": 0, "votes_count": 0, "ships_count": 0, "projects": [], "coding_time_seconds": 0, "coding_time_seconds_today": 0, "balance": "You need to have a pocket watcher badge to view this.", "badges": [], "created_at": "2025-06-17T02:30:18.126-04:00", "updated_at": "2025-07-03T19:34:39.033-04:00", "avatar": "https://secure.gravatar.com/avatar/5d878641ab8b69c2ad768c5796b32107.jpg?s=512&d=https%3A%2F%2Fa.slack-edge.com%2Fdf10d%2Fimg%2Favatars%2Fava_0012-512.png", "custom_css": null}, {"id": 5178, "slack_id": "U091KP7UZQE", "display_name": "Jain CK", "bio": null, "projects_count": 0, "devlogs_count": 0, "votes_count": 0, "ships_count": 0, "projects": [], "coding_time_seconds": 0, "coding_time_seconds_today": 0, "balance": "You need to have a pocket watcher badge to view this.", "badges": [], "created_at": "2025-06-17T02:30:29.651-04:00", "updated_at": "2025-07-03T19:34:39.318-04:00", "avatar": "https://secure.gravatar.com/avatar/d6d4d780e140c3b65baa04102c1bf64a.jpg?s=512&d=https%3A%2F%2Fa.slack-edge.com%2Fdf10d%2Fimg%2Favatars%2Fava_0006-512.png", "custom_css": null}, {"id": 5179, "slack_id": "U071FFB1J2F", "display_name": "Ayoub Chafiq", "bio": null, "projects_count": 0, "devlogs_count": 0, "votes_count": 0, "ships_count": 0, "projects": [], "coding_time_seconds": 0, "coding_time_seconds_today": 0, "balance": "You need to have a pocket watcher badge to view this.", "badges": [], "created_at": "2025-06-17T02:30:39.799-04:00", "updated_at": "2025-07-03T19:34:39.585-04:00", "avatar": "https://secure.gravatar.com/avatar/88c5053bbb86a1c1c42a0c3f4f9a4dd7.jpg?s=512&d=https%3A%2F%2Fa.slack-edge.com%2Fdf10d%2Fimg%2Favatars%2Fava_0000-512.png", "custom_css": null}, {"id": 5180, "slack_id": "U091KK9TMV1", "display_name": "R RAHUL", "bio": null, "projects_count": 0, "devlogs_count": 0, "votes_count": 0, "ships_count": 0, "projects": [], "coding_time_seconds": 0, "coding_time_seconds_today": 0, "balance": "You need to have a pocket watcher badge to view this.", "badges": [], "created_at": "2025-06-17T02:30:45.747-04:00", "updated_at": "2025-07-03T19:34:39.851-04:00", "avatar": "https://secure.gravatar.com/avatar/72079857989e28f33bb2f1e6adfce886.jpg?s=512&d=https%3A%2F%2Fa.slack-edge.com%2Fdf10d%2Fimg%2Favatars%2Fava_0009-512.png", "custom_css": null}], "pagination": {"page": 259, "pages": 1192, "count": 23828, "items": 20}}