{"users": [{"id": 501, "slack_id": "U091G3MLKKM", "display_name": "Emerson Levi", "bio": null, "projects_count": 0, "devlogs_count": 0, "votes_count": 0, "ships_count": 0, "projects": [], "coding_time_seconds": 0, "coding_time_seconds_today": 0, "balance": "You need to have a pocket watcher badge to view this.", "badges": [], "created_at": "2025-06-16T11:55:41.351-04:00", "updated_at": "2025-07-03T19:13:16.537-04:00", "avatar": "https://avatars.slack-edge.com/2025-06-16/9055345633525_164a4e8d8c34e7f4d27e_original.jpg", "custom_css": null}, {"id": 502, "slack_id": "U0917PC8F0X", "display_name": "Bekhzod", "bio": null, "projects_count": 0, "devlogs_count": 0, "votes_count": 0, "ships_count": 0, "projects": [], "coding_time_seconds": 240, "coding_time_seconds_today": 0, "balance": "You need to have a pocket watcher badge to view this.", "badges": [], "created_at": "2025-06-16T11:55:42.353-04:00", "updated_at": "2025-07-03T19:13:16.818-04:00", "avatar": "https://secure.gravatar.com/avatar/65c63dbbe0478e57c5a8f80e4c2a405e.jpg?s=512&d=https%3A%2F%2Fa.slack-edge.com%2Fdf10d%2Fimg%2Favatars%2Fava_0021-512.png", "custom_css": null}, {"id": 503, "slack_id": "U091M9PHPNH", "display_name": "tuwuppy", "bio": null, "projects_count": 1, "devlogs_count": 0, "votes_count": 0, "ships_count": 0, "projects": [{"id": 1425, "title": "Knowledgers", "devlogs_count": 0, "created_at": "2025-06-18T14:36:39.346-04:00"}], "coding_time_seconds": 22965, "coding_time_seconds_today": 0, "balance": "You need to have a pocket watcher badge to view this.", "badges": [], "created_at": "2025-06-16T11:55:42.582-04:00", "updated_at": "2025-07-03T19:13:17.090-04:00", "avatar": "https://avatars.slack-edge.com/2025-06-17/9066018032834_9e39287faaeb3a8d4a7f_original.png", "custom_css": null}, {"id": 504, "slack_id": "U091M9K6SDT", "display_name": "Dang", "bio": null, "projects_count": 0, "devlogs_count": 0, "votes_count": 0, "ships_count": 0, "projects": [], "coding_time_seconds": 0, "coding_time_seconds_today": 0, "balance": "You need to have a pocket watcher badge to view this.", "badges": [], "created_at": "2025-06-16T11:55:43.597-04:00", "updated_at": "2025-07-03T19:13:17.357-04:00", "avatar": "https://secure.gravatar.com/avatar/b8eeb88dc3d227f0b727128b063a4316.jpg?s=512&d=https%3A%2F%2Fa.slack-edge.com%2Fdf10d%2Fimg%2Favatars%2Fava_0024-512.png", "custom_css": null}, {"id": 505, "slack_id": "U091M9VPHPF", "display_name": "joejo-joestar", "bio": null, "projects_count": 0, "devlogs_count": 0, "votes_count": 0, "ships_count": 0, "projects": [], "coding_time_seconds": 0, "coding_time_seconds_today": 0, "balance": "You need to have a pocket watcher badge to view this.", "badges": [], "created_at": "2025-06-16T11:55:46.026-04:00", "updated_at": "2025-07-03T19:13:17.623-04:00", "avatar": "https://secure.gravatar.com/avatar/f00be7ae9eeadeadb449a5ba7ab3b155.jpg?s=512&d=https%3A%2F%2Fa.slack-edge.com%2Fdf10d%2Fimg%2Favatars%2Fava_0003-512.png", "custom_css": null}, {"id": 506, "slack_id": "U092BH5KYFJ", "display_name": "Jo\u00e3o Fenelon Ramos Soares", "bio": null, "projects_count": 0, "devlogs_count": 0, "votes_count": 0, "ships_count": 0, "projects": [], "coding_time_seconds": 0, "coding_time_seconds_today": 0, "balance": "You need to have a pocket watcher badge to view this.", "badges": [], "created_at": "2025-06-16T11:55:52.282-04:00", "updated_at": "2025-07-03T19:13:17.897-04:00", "avatar": "https://secure.gravatar.com/avatar/6c6940ac2692adccbcb842b58ebc625e.jpg?s=512&d=https%3A%2F%2Fa.slack-edge.com%2Fdf10d%2Fimg%2Favatars%2Fava_0018-512.png", "custom_css": null}, {"id": 507, "slack_id": "U078DR9SEER", "display_name": "pepperjackdev", "bio": null, "projects_count": 4, "devlogs_count": 13, "votes_count": 34, "ships_count": 2, "projects": [{"id": 10897, "title": "Platformer", "devlogs_count": 3, "created_at": "2025-08-11T16:13:23.740-04:00"}, {"id": 5866, "title": "Maze", "devlogs_count": 4, "created_at": "2025-07-08T15:27:52.126-04:00"}, {"id": 9786, "title": "Snake", "devlogs_count": 3, "created_at": "2025-08-02T09:44:16.933-04:00"}, {"id": 183, "title": "Traffic Dodger", "devlogs_count": 3, "created_at": "2025-06-16T15:06:44.416-04:00"}], "coding_time_seconds": 517935, "coding_time_seconds_today": 0, "balance": "You need to have a pocket watcher badge to view this.", "badges": [{"name": "Maiden Voyage", "text": "you shipped your first project! the journey begins...", "icon": "\ud83d\udea2"}], "created_at": "2025-06-16T11:55:55.328-04:00", "updated_at": "2025-09-10T22:51:22.925-04:00", "avatar": "https://avatars.slack-edge.com/2024-06-18/7295072377779_06ab236816b1e5798cd6_original.jpg", "custom_css": null}, {"id": 508, "slack_id": "U091P2WDS7L", "display_name": "VBTG", "bio": null, "projects_count": 0, "devlogs_count": 0, "votes_count": 0, "ships_count": 0, "projects": [], "coding_time_seconds": 0, "coding_time_seconds_today": 0, "balance": "You need to have a pocket watcher badge to view this.", "badges": [], "created_at": "2025-06-16T11:56:14.499-04:00", "updated_at": "2025-09-02T14:25:43.707-04:00", "avatar": "https://secure.gravatar.com/avatar/6f7b90a175a5af35b3f2e5e075ad5449.jpg?s=512&d=https%3A%2F%2Fa.slack-edge.com%2Fdf10d%2Fimg%2Favatars%2Fava_0024-512.png", "custom_css": null}, {"id": 509, "slack_id": "U091G3YA1C3", "display_name": "mmatthie", "bio": null, "projects_count": 0, "devlogs_count": 0, "votes_count": 0, "ships_count": 0, "projects": [], "coding_time_seconds": 0, "coding_time_seconds_today": 0, "balance": "You need to have a pocket watcher badge to view this.", "badges": [], "created_at": "2025-06-16T11:56:14.744-04:00", "updated_at": "2025-07-03T19:13:18.717-04:00", "avatar": "https://secure.gravatar.com/avatar/723ea191223aee6c3376f1e88fdf840d.jpg?s=512&d=https%3A%2F%2Fa.slack-edge.com%2Fdf10d%2Fimg%2Favatars%2Fava_0023-512.png", "custom_css": null}, {"id": 510, "slack_id": "U078KBWUBA8", "display_name": "mr_mph", "bio": null, "projects_count": 1, "devlogs_count": 7, "votes_count": 2, "ships_count": 1, "projects": [{"id": 2011, "title": "recursive todos", "devlogs_count": 7, "created_at": "2025-06-19T22:00:14.830-04:00"}], "coding_time_seconds": 263099, "coding_time_seconds_today": 0, "balance": "You need to have a pocket watcher badge to view this.", "badges": [{"name": "Maiden Voyage", "text": "you shipped your first project! the journey begins...", "icon": "\ud83d\udea2"}], "created_at": "2025-06-16T11:56:16.987-04:00", "updated_at": "2025-09-10T22:51:22.993-04:00", "avatar": "https://avatars.slack-edge.com/2025-03-26/8666603947251_b7c4d6c6459b3914618a_original.jpg", "custom_css": null}, {"id": 511, "slack_id": "U03TBJC6UMV", "display_name": "Sopan", "bio": null, "projects_count": 0, "devlogs_count": 0, "votes_count": 0, "ships_count": 0, "projects": [], "coding_time_seconds": 3927, "coding_time_seconds_today": 0, "balance": "You need to have a pocket watcher badge to view this.", "badges": [], "created_at": "2025-06-16T11:56:26.410-04:00", "updated_at": "2025-07-03T19:13:19.245-04:00", "avatar": "https://secure.gravatar.com/avatar/777d724ba76c3d0125202a811e97737a.jpg?s=512&d=https%3A%2F%2Fa.slack-edge.com%2Fdf10d%2Fimg%2Favatars%2Fava_0003-512.png", "custom_css": null}, {"id": 512, "slack_id": "U087YTND3GV", "display_name": "Sapna Patel", "bio": null, "projects_count": 1, "devlogs_count": 14, "votes_count": 1, "ships_count": 0, "projects": [{"id": 418, "title": "RehabAssistant", "devlogs_count": 14, "created_at": "2025-06-16T20:54:18.441-04:00"}], "coding_time_seconds": 37836, "coding_time_seconds_today": 0, "balance": "You need to have a pocket watcher badge to view this.", "badges": [], "created_at": "2025-06-16T11:56:26.436-04:00", "updated_at": "2025-08-09T19:21:22.801-04:00", "avatar": "https://secure.gravatar.com/avatar/0a100d90f081e8cd33ce0b9845e1d087.jpg?s=512&d=https%3A%2F%2Fa.slack-edge.com%2Fdf10d%2Fimg%2Favatars%2Fava_0019-512.png", "custom_css": null}, {"id": 513, "slack_id": "U08S6HG2Z7A", "display_name": "Spheroidon", "bio": null, "projects_count": 2, "devlogs_count": 21, "votes_count": 25, "ships_count": 1, "projects": [{"id": 5262, "title": "Blorp", "devlogs_count": 15, "created_at": "2025-07-04T04:32:17.840-04:00"}, {"id": 12180, "title": "Synthium \ud83c\udfb9", "devlogs_count": 6, "created_at": "2025-08-24T04:37:33.114-04:00"}], "coding_time_seconds": 287975, "coding_time_seconds_today": 1203, "balance": "You need to have a pocket watcher badge to view this.", "badges": [{"name": "Maiden Voyage", "text": "you shipped your first project! the journey begins...", "icon": "\ud83d\udea2"}], "created_at": "2025-06-16T11:56:26.740-04:00", "updated_at": "2025-09-10T22:51:23.070-04:00", "avatar": "https://avatars.slack-edge.com/2025-05-08/8862037644102_e3d32afb8a9c15db82f9_original.png", "custom_css": null}, {"id": 514, "slack_id": "U091PFW8NNQ", "display_name": "Shubham Chandra", "bio": null, "projects_count": 0, "devlogs_count": 0, "votes_count": 0, "ships_count": 0, "projects": [], "coding_time_seconds": 0, "coding_time_seconds_today": 0, "balance": "You need to have a pocket watcher badge to view this.", "badges": [], "created_at": "2025-06-16T11:56:36.694-04:00", "updated_at": "2025-07-03T19:13:20.054-04:00", "avatar": "https://secure.gravatar.com/avatar/8d07cc15aa3fa748f9308bf15135a324.jpg?s=512&d=https%3A%2F%2Fa.slack-edge.com%2Fdf10d%2Fimg%2Favatars%2Fava_0013-512.png", "custom_css": null}, {"id": 515, "slack_id": "U0921KXRWG1", "display_name": "Adityajethwaaa7", "bio": null, "projects_count": 0, "devlogs_count": 0, "votes_count": 0, "ships_count": 0, "projects": [], "coding_time_seconds": 0, "coding_time_seconds_today": 0, "balance": "You need to have a pocket watcher badge to view this.", "badges": [], "created_at": "2025-06-16T11:56:38.386-04:00", "updated_at": "2025-07-03T19:13:20.335-04:00", "avatar": "https://secure.gravatar.com/avatar/791a2fee0cd215a272fdbb0aaffd1099.jpg?s=512&d=https%3A%2F%2Fa.slack-edge.com%2Fdf10d%2Fimg%2Favatars%2Fava_0021-512.png", "custom_css": null}, {"id": 516, "slack_id": "U091P39BJGJ", "display_name": "RyderForNow", "bio": null, "projects_count": 3, "devlogs_count": 3, "votes_count": 5, "ships_count": 0, "projects": [{"id": 202, "title": "MUNctl", "devlogs_count": 1, "created_at": "2025-06-16T15:19:15.356-04:00"}, {"id": 4231, "title": "RN Speaker Picker", "devlogs_count": 2, "created_at": "2025-06-28T10:51:08.228-04:00"}, {"id": 12909, "title": "MUN LaTeX Class", "devlogs_count": 0, "created_at": "2025-09-05T05:13:09.355-04:00"}], "coding_time_seconds": 326666, "coding_time_seconds_today": 0, "balance": "You need to have a pocket watcher badge to view this.", "badges": [], "created_at": "2025-06-16T11:56:41.157-04:00", "updated_at": "2025-08-26T16:25:13.744-04:00", "avatar": "https://secure.gravatar.com/avatar/a5388f9e53da7a5a2984f356da714da1.jpg?s=512&d=https%3A%2F%2Fa.slack-edge.com%2Fdf10d%2Fimg%2Favatars%2Fava_0009-512.png", "custom_css": null}, {"id": 517, "slack_id": "U091G3PGGSX", "display_name": "NhanElastic", "bio": null, "projects_count": 1, "devlogs_count": 0, "votes_count": 0, "ships_count": 0, "projects": [{"id": 83, "title": "BlogApp", "devlogs_count": 0, "created_at": "2025-06-16T12:24:18.974-04:00"}], "coding_time_seconds": 20119, "coding_time_seconds_today": 0, "balance": "You need to have a pocket watcher badge to view this.", "badges": [], "created_at": "2025-06-16T11:56:41.532-04:00", "updated_at": "2025-07-03T19:13:20.883-04:00", "avatar": "https://secure.gravatar.com/avatar/b72c0c7acd34124c94d87e363a9ac8bb.jpg?s=512&d=https%3A%2F%2Fa.slack-edge.com%2Fdf10d%2Fimg%2Favatars%2Fava_0017-512.png", "custom_css": null}, {"id": 518, "slack_id": "U07910LEGNA", "display_name": "Oleh", "bio": null, "projects_count": 0, "devlogs_count": 0, "votes_count": 0, "ships_count": 0, "projects": [], "coding_time_seconds": 0, "coding_time_seconds_today": 0, "balance": "You need to have a pocket watcher badge to view this.", "badges": [], "created_at": "2025-06-16T11:56:43.688-04:00", "updated_at": "2025-07-03T19:13:21.149-04:00", "avatar": "https://secure.gravatar.com/avatar/05e94e8042358029cdf11301dc1c40e5.jpg?s=512&d=https%3A%2F%2Fa.slack-edge.com%2Fdf10d%2Fimg%2Favatars%2Fava_0008-512.png", "custom_css": null}, {"id": 519, "slack_id": "U091M9VR9NZ", "display_name": "Chiavelli Simone", "bio": null, "projects_count": 0, "devlogs_count": 0, "votes_count": 0, "ships_count": 0, "projects": [], "coding_time_seconds": 2176, "coding_time_seconds_today": 0, "balance": "You need to have a pocket watcher badge to view this.", "badges": [], "created_at": "2025-06-16T11:56:48.857-04:00", "updated_at": "2025-07-03T19:13:21.432-04:00", "avatar": "https://avatars.slack-edge.com/2025-06-16/9069696288753_a379e1d428ce17c5847a_original.png", "custom_css": null}, {"id": 520, "slack_id": "U092BHAHM4G", "display_name": "rasmus", "bio": null, "projects_count": 0, "devlogs_count": 0, "votes_count": 0, "ships_count": 0, "projects": [], "coding_time_seconds": 0, "coding_time_seconds_today": 0, "balance": "You need to have a pocket watcher badge to view this.", "badges": [], "created_at": "2025-06-16T11:56:50.876-04:00", "updated_at": "2025-07-03T19:13:21.702-04:00", "avatar": "https://secure.gravatar.com/avatar/5f055a0ac8a4add4419e98bc50228681.jpg?s=512&d=https%3A%2F%2Fa.slack-edge.com%2Fdf10d%2Fimg%2Favatars%2Fava_0022-512.png", "custom_css": null}], "pagination": {"page": 26, "pages": 1192, "count": 23827, "items": 20}}