{"users": [{"id": 5181, "slack_id": "U091QNB35QV", "display_name": "Anurag Jha", "bio": null, "projects_count": 0, "devlogs_count": 0, "votes_count": 0, "ships_count": 0, "projects": [], "coding_time_seconds": 828, "coding_time_seconds_today": 0, "balance": "You need to have a pocket watcher badge to view this.", "badges": [], "created_at": "2025-06-17T02:31:01.900-04:00", "updated_at": "2025-07-03T19:34:40.136-04:00", "avatar": "https://secure.gravatar.com/avatar/bffc8549231a1db218e993a93a7e72de.jpg?s=512&d=https%3A%2F%2Fa.slack-edge.com%2Fdf10d%2Fimg%2Favatars%2Fava_0007-512.png", "custom_css": null}, {"id": 5182, "slack_id": "U092ET84UCQ", "display_name": "Chandra Shekhar Dan", "bio": null, "projects_count": 0, "devlogs_count": 0, "votes_count": 0, "ships_count": 0, "projects": [], "coding_time_seconds": 0, "coding_time_seconds_today": 0, "balance": "You need to have a pocket watcher badge to view this.", "badges": [], "created_at": "2025-06-17T02:31:17.027-04:00", "updated_at": "2025-07-03T19:34:40.403-04:00", "avatar": "https://secure.gravatar.com/avatar/b585ac81a29333dc04dfada371547b43.jpg?s=512&d=https%3A%2F%2Fa.slack-edge.com%2Fdf10d%2Fimg%2Favatars%2Fava_0002-512.png", "custom_css": null}, {"id": 5183, "slack_id": "U091SGK0EN6", "display_name": "Eshan", "bio": null, "projects_count": 0, "devlogs_count": 0, "votes_count": 0, "ships_count": 0, "projects": [], "coding_time_seconds": 44948, "coding_time_seconds_today": 1767, "balance": "You need to have a pocket watcher badge to view this.", "badges": [], "created_at": "2025-06-17T02:31:24.214-04:00", "updated_at": "2025-07-03T19:34:40.665-04:00", "avatar": "https://secure.gravatar.com/avatar/84ba2a7a0452c69647febdca892425e2.jpg?s=512&d=https%3A%2F%2Fa.slack-edge.com%2Fdf10d%2Fimg%2Favatars%2Fava_0012-512.png", "custom_css": null}, {"id": 5184, "slack_id": "U091QN8CSUV", "display_name": "Manish Jangir", "bio": null, "projects_count": 0, "devlogs_count": 0, "votes_count": 0, "ships_count": 0, "projects": [], "coding_time_seconds": 0, "coding_time_seconds_today": 0, "balance": "You need to have a pocket watcher badge to view this.", "badges": [], "created_at": "2025-06-17T02:31:26.132-04:00", "updated_at": "2025-07-03T19:34:40.927-04:00", "avatar": "https://secure.gravatar.com/avatar/d522ca99ed8a04ff8ad387cc87353dd1.jpg?s=512&d=https%3A%2F%2Fa.slack-edge.com%2Fdf10d%2Fimg%2Favatars%2Fava_0011-512.png", "custom_css": null}, {"id": 5185, "slack_id": "U091SRJB1PW", "display_name": "Romain Murphy", "bio": null, "projects_count": 0, "devlogs_count": 0, "votes_count": 0, "ships_count": 0, "projects": [], "coding_time_seconds": 0, "coding_time_seconds_today": 0, "balance": "You need to have a pocket watcher badge to view this.", "badges": [], "created_at": "2025-06-17T02:31:40.180-04:00", "updated_at": "2025-07-03T19:34:41.188-04:00", "avatar": "https://secure.gravatar.com/avatar/72efebdd782da8d44b0c608abc1ca981.jpg?s=512&d=https%3A%2F%2Fa.slack-edge.com%2Fdf10d%2Fimg%2Favatars%2Fava_0026-512.png", "custom_css": null}, {"id": 5186, "slack_id": "U091SGHSVRQ", "display_name": "Bmgtje", "bio": null, "projects_count": 0, "devlogs_count": 0, "votes_count": 0, "ships_count": 0, "projects": [], "coding_time_seconds": 0, "coding_time_seconds_today": 0, "balance": "You need to have a pocket watcher badge to view this.", "badges": [], "created_at": "2025-06-17T02:31:48.927-04:00", "updated_at": "2025-07-03T19:34:41.469-04:00", "avatar": "https://secure.gravatar.com/avatar/93c42ccb53cf1077261d696108c109e2.jpg?s=512&d=https%3A%2F%2Fa.slack-edge.com%2Fdf10d%2Fimg%2Favatars%2Fava_0005-512.png", "custom_css": null}, {"id": 5187, "slack_id": "U091SQA011A", "display_name": "Allen Lee", "bio": null, "projects_count": 0, "devlogs_count": 0, "votes_count": 0, "ships_count": 0, "projects": [], "coding_time_seconds": 102748, "coding_time_seconds_today": 0, "balance": "You need to have a pocket watcher badge to view this.", "badges": [], "created_at": "2025-06-17T02:31:53.856-04:00", "updated_at": "2025-08-31T01:38:01.543-04:00", "avatar": "https://avatars.slack-edge.com/2025-06-16/9045178143527_db9622154c808ca58f71_original.jpg", "custom_css": null}, {"id": 5188, "slack_id": "U091KPJGQ5C", "display_name": "Harshit Varma", "bio": null, "projects_count": 1, "devlogs_count": 0, "votes_count": 0, "ships_count": 0, "projects": [{"id": 613, "title": "VAPT_BUDDY", "devlogs_count": 0, "created_at": "2025-06-17T02:51:22.238-04:00"}], "coding_time_seconds": 120, "coding_time_seconds_today": 0, "balance": "You need to have a pocket watcher badge to view this.", "badges": [], "created_at": "2025-06-17T02:31:56.477-04:00", "updated_at": "2025-07-03T19:34:42.017-04:00", "avatar": "https://avatars.slack-edge.com/2025-06-16/9060892383108_344b601943ec2f0c6ab5_original.jpg", "custom_css": null}, {"id": 5189, "slack_id": "U091SRKUFL4", "display_name": "SAKSHAM GOEL", "bio": null, "projects_count": 0, "devlogs_count": 0, "votes_count": 0, "ships_count": 0, "projects": [], "coding_time_seconds": 0, "coding_time_seconds_today": 0, "balance": "You need to have a pocket watcher badge to view this.", "badges": [], "created_at": "2025-06-17T02:31:57.498-04:00", "updated_at": "2025-07-03T19:34:42.277-04:00", "avatar": "https://secure.gravatar.com/avatar/0d890a1fb9d9d569fa88114886d62c58.jpg?s=512&d=https%3A%2F%2Fa.slack-edge.com%2Fdf10d%2Fimg%2Favatars%2Fava_0004-512.png", "custom_css": null}, {"id": 5190, "slack_id": "U09252LCXNV", "display_name": "Yeshwanth S", "bio": null, "projects_count": 0, "devlogs_count": 0, "votes_count": 0, "ships_count": 0, "projects": [], "coding_time_seconds": 0, "coding_time_seconds_today": 0, "balance": "You need to have a pocket watcher badge to view this.", "badges": [], "created_at": "2025-06-17T02:32:07.169-04:00", "updated_at": "2025-07-03T19:34:42.538-04:00", "avatar": "https://avatars.slack-edge.com/2025-06-16/9082945253168_54d6e29f160d62d22df2_original.png", "custom_css": null}, {"id": 5191, "slack_id": "U092ETFQCSC", "display_name": "Nisarg", "bio": null, "projects_count": 0, "devlogs_count": 0, "votes_count": 0, "ships_count": 0, "projects": [], "coding_time_seconds": 0, "coding_time_seconds_today": 0, "balance": "You need to have a pocket watcher badge to view this.", "badges": [], "created_at": "2025-06-17T02:32:40.245-04:00", "updated_at": "2025-07-04T02:24:12.210-04:00", "avatar": "https://secure.gravatar.com/avatar/512d3613c57c9d15c739e63a08427e9e.jpg?s=512&d=https%3A%2F%2Fa.slack-edge.com%2Fdf10d%2Fimg%2Favatars%2Fava_0023-512.png", "custom_css": null}, {"id": 5192, "slack_id": "U089J0V9JTB", "display_name": "AUXI", "bio": null, "projects_count": 0, "devlogs_count": 0, "votes_count": 1, "ships_count": 0, "projects": [], "coding_time_seconds": 1938, "coding_time_seconds_today": 1863, "balance": "You need to have a pocket watcher badge to view this.", "badges": [], "created_at": "2025-06-17T02:33:17.579-04:00", "updated_at": "2025-07-03T19:34:42.937-04:00", "avatar": "https://secure.gravatar.com/avatar/29cda883102e384ccb2b9335f73c6eaa.jpg?s=512&d=https%3A%2F%2Fa.slack-edge.com%2Fdf10d%2Fimg%2Favatars%2Fava_0011-512.png", "custom_css": null}, {"id": 5193, "slack_id": "U091SRRU0R2", "display_name": "Samarth Mule", "bio": null, "projects_count": 0, "devlogs_count": 0, "votes_count": 0, "ships_count": 0, "projects": [], "coding_time_seconds": 0, "coding_time_seconds_today": 0, "balance": "You need to have a pocket watcher badge to view this.", "badges": [], "created_at": "2025-06-17T02:33:21.866-04:00", "updated_at": "2025-07-03T19:34:43.214-04:00", "avatar": "https://avatars.slack-edge.com/2025-06-16/9058785779045_0467d02bf1edb61f7d7f_original.png", "custom_css": null}, {"id": 5194, "slack_id": "U09252UTEDP", "display_name": "DevBoiAgru", "bio": null, "projects_count": 1, "devlogs_count": 0, "votes_count": 0, "ships_count": 0, "projects": [{"id": 637, "title": "CustomNewTab", "devlogs_count": 0, "created_at": "2025-06-17T03:45:45.818-04:00"}], "coding_time_seconds": 34430, "coding_time_seconds_today": 0, "balance": "You need to have a pocket watcher badge to view this.", "badges": [], "created_at": "2025-06-17T02:33:26.485-04:00", "updated_at": "2025-07-03T19:34:43.480-04:00", "avatar": "https://avatars.slack-edge.com/2025-06-16/9058785416117_af78e7c0915a1484af8a_original.png", "custom_css": null}, {"id": 5195, "slack_id": "U091KPJ5YKY", "display_name": "Vishal Kumar", "bio": null, "projects_count": 0, "devlogs_count": 0, "votes_count": 0, "ships_count": 0, "projects": [], "coding_time_seconds": 0, "coding_time_seconds_today": 0, "balance": "You need to have a pocket watcher badge to view this.", "badges": [], "created_at": "2025-06-17T02:33:27.006-04:00", "updated_at": "2025-07-03T19:34:43.753-04:00", "avatar": "https://secure.gravatar.com/avatar/721c3e32d6f096982eaa1219214bba7b.jpg?s=512&d=https%3A%2F%2Fa.slack-edge.com%2Fdf10d%2Fimg%2Favatars%2Fava_0016-512.png", "custom_css": null}, {"id": 5196, "slack_id": "U07AFAG1RPW", "display_name": "\u00c1bel S", "bio": null, "projects_count": 1, "devlogs_count": 1, "votes_count": 0, "ships_count": 0, "projects": [{"id": 1080, "title": "The dating profile", "devlogs_count": 1, "created_at": "2025-06-17T15:34:46.609-04:00"}], "coding_time_seconds": 16082, "coding_time_seconds_today": 0, "balance": "You need to have a pocket watcher badge to view this.", "badges": [], "created_at": "2025-06-17T02:33:30.718-04:00", "updated_at": "2025-07-03T19:34:44.015-04:00", "avatar": "https://avatars.slack-edge.com/2024-07-10/7426859756352_dc5bf8710dfec4f293fd_original.png", "custom_css": null}, {"id": 5197, "slack_id": "U091B4RSQMV", "display_name": "Timothy", "bio": null, "projects_count": 0, "devlogs_count": 0, "votes_count": 0, "ships_count": 0, "projects": [], "coding_time_seconds": 54827, "coding_time_seconds_today": 0, "balance": "You need to have a pocket watcher badge to view this.", "badges": [], "created_at": "2025-06-17T02:33:37.014-04:00", "updated_at": "2025-07-03T19:34:44.278-04:00", "avatar": "https://secure.gravatar.com/avatar/a2c65ab16bdd26362c0dd95904ae4d85.jpg?s=512&d=https%3A%2F%2Fa.slack-edge.com%2Fdf10d%2Fimg%2Favatars%2Fava_0004-512.png", "custom_css": null}, {"id": 5198, "slack_id": "U091KPSECCW", "display_name": "Thanh", "bio": null, "projects_count": 0, "devlogs_count": 0, "votes_count": 0, "ships_count": 0, "projects": [], "coding_time_seconds": 0, "coding_time_seconds_today": 0, "balance": "You need to have a pocket watcher badge to view this.", "badges": [], "created_at": "2025-06-17T02:33:40.391-04:00", "updated_at": "2025-07-03T19:34:44.554-04:00", "avatar": "https://secure.gravatar.com/avatar/dd99a5f47bcf2e349127788b72c84f56.jpg?s=512&d=https%3A%2F%2Fa.slack-edge.com%2Fdf10d%2Fimg%2Favatars%2Fava_0008-512.png", "custom_css": null}, {"id": 5199, "slack_id": "U091QNR94LD", "display_name": "viks", "bio": null, "projects_count": 0, "devlogs_count": 0, "votes_count": 0, "ships_count": 0, "projects": [], "coding_time_seconds": 0, "coding_time_seconds_today": 0, "balance": "You need to have a pocket watcher badge to view this.", "badges": [], "created_at": "2025-06-17T02:33:51.864-04:00", "updated_at": "2025-07-03T19:34:44.820-04:00", "avatar": "https://secure.gravatar.com/avatar/8cbf1fea494837f90749164a519a211c.jpg?s=512&d=https%3A%2F%2Fa.slack-edge.com%2Fdf10d%2Fimg%2Favatars%2Fava_0004-512.png", "custom_css": null}, {"id": 5200, "slack_id": "U092ETQE80G", "display_name": "Pranav", "bio": null, "projects_count": 0, "devlogs_count": 0, "votes_count": 0, "ships_count": 0, "projects": [], "coding_time_seconds": 0, "coding_time_seconds_today": 0, "balance": "You need to have a pocket watcher badge to view this.", "badges": [], "created_at": "2025-06-17T02:34:03.788-04:00", "updated_at": "2025-07-03T19:34:45.079-04:00", "avatar": "https://secure.gravatar.com/avatar/bacb7165c431be57e6f274187dcef7e2.jpg?s=512&d=https%3A%2F%2Fa.slack-edge.com%2Fdf10d%2Fimg%2Favatars%2Fava_0014-512.png", "custom_css": null}], "pagination": {"page": 260, "pages": 1192, "count": 23828, "items": 20}}