{"users": [{"id": 5201, "slack_id": "U091KLFA4FM", "display_name": "Martin", "bio": null, "projects_count": 0, "devlogs_count": 0, "votes_count": 0, "ships_count": 0, "projects": [], "coding_time_seconds": 0, "coding_time_seconds_today": 0, "balance": "You need to have a pocket watcher badge to view this.", "badges": [], "created_at": "2025-06-17T02:34:08.126-04:00", "updated_at": "2025-07-03T19:34:45.346-04:00", "avatar": "https://secure.gravatar.com/avatar/cd38f357bd673cb2f78de85fcc340477.jpg?s=512&d=https%3A%2F%2Fa.slack-edge.com%2Fdf10d%2Fimg%2Favatars%2Fava_0011-512.png", "custom_css": null}, {"id": 5202, "slack_id": "U091KLC1RB5", "display_name": "Rohit Kushwaha", "bio": null, "projects_count": 0, "devlogs_count": 0, "votes_count": 0, "ships_count": 0, "projects": [], "coding_time_seconds": 603312, "coding_time_seconds_today": 12331, "balance": "You need to have a pocket watcher badge to view this.", "badges": [], "created_at": "2025-06-17T02:34:20.148-04:00", "updated_at": "2025-07-03T19:34:45.625-04:00", "avatar": "https://secure.gravatar.com/avatar/f6fa84b2489c89e44eefffa38c15f454.jpg?s=512&d=https%3A%2F%2Fa.slack-edge.com%2Fdf10d%2Fimg%2Favatars%2Fava_0006-512.png", "custom_css": null}, {"id": 5203, "slack_id": "U092ETE4CCQ", "display_name": "Paul Njogu", "bio": null, "projects_count": 0, "devlogs_count": 0, "votes_count": 0, "ships_count": 0, "projects": [], "coding_time_seconds": 326027, "coding_time_seconds_today": 0, "balance": "You need to have a pocket watcher badge to view this.", "badges": [], "created_at": "2025-06-17T02:34:20.797-04:00", "updated_at": "2025-07-03T19:34:45.886-04:00", "avatar": "https://secure.gravatar.com/avatar/fddf8ddbf43d5697354cf267f88a147e.jpg?s=512&d=https%3A%2F%2Fa.slack-edge.com%2Fdf10d%2Fimg%2Favatars%2Fava_0013-512.png", "custom_css": null}, {"id": 5204, "slack_id": "U091KPPPCK0", "display_name": "Aman Yadav", "bio": null, "projects_count": 0, "devlogs_count": 0, "votes_count": 0, "ships_count": 0, "projects": [], "coding_time_seconds": 37849, "coding_time_seconds_today": 0, "balance": "You need to have a pocket watcher badge to view this.", "badges": [], "created_at": "2025-06-17T02:34:52.865-04:00", "updated_at": "2025-07-03T19:34:46.154-04:00", "avatar": "https://secure.gravatar.com/avatar/c91df69fa902612b3539b6aacfd666cd.jpg?s=512&d=https%3A%2F%2Fa.slack-edge.com%2Fdf10d%2Fimg%2Favatars%2Fava_0009-512.png", "custom_css": null}, {"id": 5205, "slack_id": "U09252S3F0R", "display_name": "Federico Bruzzone", "bio": null, "projects_count": 0, "devlogs_count": 0, "votes_count": 0, "ships_count": 0, "projects": [], "coding_time_seconds": 0, "coding_time_seconds_today": 0, "balance": "You need to have a pocket watcher badge to view this.", "badges": [], "created_at": "2025-06-17T02:34:59.541-04:00", "updated_at": "2025-07-03T19:34:46.419-04:00", "avatar": "https://avatars.slack-edge.com/2025-06-16/9053711482899_b0127e55cdb5eb398d24_original.png", "custom_css": null}, {"id": 5206, "slack_id": "U091QE83A2Z", "display_name": "Huzaifa Khan", "bio": null, "projects_count": 1, "devlogs_count": 0, "votes_count": 0, "ships_count": 0, "projects": [{"id": 2858, "title": "Movie Rating System", "devlogs_count": 0, "created_at": "2025-06-22T08:45:45.424-04:00"}], "coding_time_seconds": 30599, "coding_time_seconds_today": 0, "balance": "You need to have a pocket watcher badge to view this.", "badges": [], "created_at": "2025-06-17T02:35:07.593-04:00", "updated_at": "2025-07-03T19:34:46.683-04:00", "avatar": "https://secure.gravatar.com/avatar/17ab90c497dabdd50753aad7024f1769.jpg?s=512&d=https%3A%2F%2Fa.slack-edge.com%2Fdf10d%2Fimg%2Favatars%2Fava_0024-512.png", "custom_css": null}, {"id": 5207, "slack_id": "U091SH12N2E", "display_name": "Nathan Wu", "bio": null, "projects_count": 0, "devlogs_count": 0, "votes_count": 0, "ships_count": 0, "projects": [], "coding_time_seconds": 0, "coding_time_seconds_today": 0, "balance": "You need to have a pocket watcher badge to view this.", "badges": [], "created_at": "2025-06-17T02:35:08.353-04:00", "updated_at": "2025-07-03T19:34:46.944-04:00", "avatar": "https://secure.gravatar.com/avatar/9ea4b15a8a3c311ed307bc0923ae656a.jpg?s=512&d=https%3A%2F%2Fa.slack-edge.com%2Fdf10d%2Fimg%2Favatars%2Fava_0010-512.png", "custom_css": null}, {"id": 5208, "slack_id": "U091KQ06Y2J", "display_name": "lc.jin", "bio": null, "projects_count": 0, "devlogs_count": 0, "votes_count": 0, "ships_count": 0, "projects": [], "coding_time_seconds": 0, "coding_time_seconds_today": 0, "balance": "You need to have a pocket watcher badge to view this.", "badges": [], "created_at": "2025-06-17T02:35:16.383-04:00", "updated_at": "2025-07-03T19:34:47.230-04:00", "avatar": "https://secure.gravatar.com/avatar/2b3dfbf81067183b284c79765d1c6d32.jpg?s=512&d=https%3A%2F%2Fa.slack-edge.com%2Fdf10d%2Fimg%2Favatars%2Fava_0025-512.png", "custom_css": null}, {"id": 5209, "slack_id": "U081PL8AMPH", "display_name": "Ivan", "bio": null, "projects_count": 0, "devlogs_count": 0, "votes_count": 0, "ships_count": 0, "projects": [], "coding_time_seconds": 111193, "coding_time_seconds_today": 0, "balance": "You need to have a pocket watcher badge to view this.", "badges": [], "created_at": "2025-06-17T02:35:17.872-04:00", "updated_at": "2025-08-10T14:04:45.295-04:00", "avatar": "https://avatars.slack-edge.com/2024-11-23/8072126927845_e45444a8c99159236467_original.jpg", "custom_css": null}, {"id": 5210, "slack_id": "U091KPWCUS2", "display_name": "Bhavya Baburaj Chovatta Valappil", "bio": null, "projects_count": 0, "devlogs_count": 0, "votes_count": 0, "ships_count": 0, "projects": [], "coding_time_seconds": 0, "coding_time_seconds_today": 0, "balance": "You need to have a pocket watcher badge to view this.", "badges": [], "created_at": "2025-06-17T02:35:19.812-04:00", "updated_at": "2025-07-03T19:34:47.779-04:00", "avatar": "https://secure.gravatar.com/avatar/bd76f1bd03068b4b798b28d0c86105cf.jpg?s=512&d=https%3A%2F%2Fa.slack-edge.com%2Fdf10d%2Fimg%2Favatars%2Fava_0026-512.png", "custom_css": null}, {"id": 5211, "slack_id": "U091KLKFZJP", "display_name": "prince gupta", "bio": null, "projects_count": 0, "devlogs_count": 0, "votes_count": 0, "ships_count": 0, "projects": [], "coding_time_seconds": 0, "coding_time_seconds_today": 0, "balance": "You need to have a pocket watcher badge to view this.", "badges": [], "created_at": "2025-06-17T02:35:28.899-04:00", "updated_at": "2025-07-03T19:34:48.044-04:00", "avatar": "https://secure.gravatar.com/avatar/6aac2c9e1587e57b94cdbc6fd9054503.jpg?s=512&d=https%3A%2F%2Fa.slack-edge.com%2Fdf10d%2Fimg%2Favatars%2Fava_0017-512.png", "custom_css": null}, {"id": 5212, "slack_id": "U091KLK1XPV", "display_name": "Pradumna Saraf", "bio": null, "projects_count": 0, "devlogs_count": 0, "votes_count": 0, "ships_count": 0, "projects": [], "coding_time_seconds": 0, "coding_time_seconds_today": 0, "balance": "You need to have a pocket watcher badge to view this.", "badges": [], "created_at": "2025-06-17T02:35:31.347-04:00", "updated_at": "2025-07-03T19:34:48.402-04:00", "avatar": "https://avatars.slack-edge.com/2025-06-16/9058794215909_aa3b2da5d415b6b222e1_original.jpg", "custom_css": null}, {"id": 5213, "slack_id": "U08QDQ31U3H", "display_name": "Bruhatt Rao", "bio": null, "projects_count": 0, "devlogs_count": 0, "votes_count": 2, "ships_count": 0, "projects": [], "coding_time_seconds": 39515, "coding_time_seconds_today": 0, "balance": "You need to have a pocket watcher badge to view this.", "badges": [], "created_at": "2025-06-17T02:35:52.495-04:00", "updated_at": "2025-07-03T19:34:48.677-04:00", "avatar": "https://avatars.slack-edge.com/2025-05-03/8836902410822_dc1bfd799caa0fe918a1_original.png", "custom_css": null}, {"id": 5214, "slack_id": "U091KLCHTT5", "display_name": "Nom Nom", "bio": null, "projects_count": 0, "devlogs_count": 0, "votes_count": 0, "ships_count": 0, "projects": [], "coding_time_seconds": 0, "coding_time_seconds_today": 0, "balance": "You need to have a pocket watcher badge to view this.", "badges": [], "created_at": "2025-06-17T02:35:52.552-04:00", "updated_at": "2025-07-03T19:34:48.950-04:00", "avatar": "https://secure.gravatar.com/avatar/515e43209d74b0b208a0fa8249356cbe.jpg?s=512&d=https%3A%2F%2Fa.slack-edge.com%2Fdf10d%2Fimg%2Favatars%2Fava_0016-512.png", "custom_css": null}, {"id": 5215, "slack_id": "U08L7HLBT6V", "display_name": "Maadhav Bhatt", "bio": "", "projects_count": 6, "devlogs_count": 37, "votes_count": 23, "ships_count": 2, "projects": [{"id": 620, "title": "Fork This Idea Slack Bot", "devlogs_count": 14, "created_at": "2025-06-17T03:04:24.451-04:00"}, {"id": 803, "title": "Nano GPT", "devlogs_count": 2, "created_at": "2025-06-17T08:33:21.675-04:00"}, {"id": 1364, "title": "Tonic Task Extracter Script", "devlogs_count": 3, "created_at": "2025-06-18T12:11:12.700-04:00"}, {"id": 12700, "title": "The Connecticut Yankee's Dream", "devlogs_count": 11, "created_at": "2025-09-01T04:57:18.014-04:00"}, {"id": 13098, "title": "Moving Number Guessing Game", "devlogs_count": 3, "created_at": "2025-09-08T13:39:38.030-04:00"}, {"id": 13167, "title": "Remove AI Overview Chrome Extension", "devlogs_count": 4, "created_at": "2025-09-10T10:49:48.882-04:00"}], "coding_time_seconds": 203647, "coding_time_seconds_today": 0, "balance": "You need to have a pocket watcher badge to view this.", "badges": [{"name": "Maiden Voyage", "text": "you shipped your first project! the journey begins...", "icon": "\ud83d\udea2"}], "created_at": "2025-06-17T02:36:16.692-04:00", "updated_at": "2025-09-10T22:53:45.733-04:00", "avatar": "https://secure.gravatar.com/avatar/ebf679aaae354122b169fc049562ec3d.jpg?s=512&d=https%3A%2F%2Fa.slack-edge.com%2Fdf10d%2Fimg%2Favatars%2Fava_0013-512.png", "custom_css": null}, {"id": 5216, "slack_id": "U09253D3Y7K", "display_name": "\u05e0\u05ea\u05d9 \u05e4\u05d9\u05e0\u05d9\u05d0\u05df", "bio": null, "projects_count": 0, "devlogs_count": 0, "votes_count": 0, "ships_count": 0, "projects": [], "coding_time_seconds": 0, "coding_time_seconds_today": 0, "balance": "You need to have a pocket watcher badge to view this.", "badges": [], "created_at": "2025-06-17T02:36:55.079-04:00", "updated_at": "2025-07-03T19:34:49.470-04:00", "avatar": "https://avatars.slack-edge.com/2025-06-16/9060596804690_2c5f586898ce5fc17e7f_original.jpg", "custom_css": null}, {"id": 5217, "slack_id": "U090GAC8VHU", "display_name": "Shreyan Mitra", "bio": null, "projects_count": 0, "devlogs_count": 0, "votes_count": 0, "ships_count": 0, "projects": [], "coding_time_seconds": 10587, "coding_time_seconds_today": 0, "balance": "You need to have a pocket watcher badge to view this.", "badges": [], "created_at": "2025-06-17T02:37:10.242-04:00", "updated_at": "2025-07-03T19:34:49.734-04:00", "avatar": "https://avatars.slack-edge.com/2025-06-09/9007869442183_1f90945c6b9add516dd7_original.jpg", "custom_css": null}, {"id": 5218, "slack_id": "U092ETTGX88", "display_name": "Samyak Sahlot", "bio": null, "projects_count": 0, "devlogs_count": 0, "votes_count": 0, "ships_count": 0, "projects": [], "coding_time_seconds": 34168, "coding_time_seconds_today": 0, "balance": "You need to have a pocket watcher badge to view this.", "badges": [], "created_at": "2025-06-17T02:38:38.268-04:00", "updated_at": "2025-07-03T19:34:50.007-04:00", "avatar": "https://avatars.slack-edge.com/2025-06-16/9060605718050_8f6ac8cb030a87b14666_original.png", "custom_css": null}, {"id": 5219, "slack_id": "U08KTHNG22F", "display_name": "raaghav", "bio": null, "projects_count": 0, "devlogs_count": 0, "votes_count": 0, "ships_count": 0, "projects": [], "coding_time_seconds": 25207, "coding_time_seconds_today": 0, "balance": "You need to have a pocket watcher badge to view this.", "badges": [], "created_at": "2025-06-17T02:39:29.020-04:00", "updated_at": "2025-07-03T19:34:50.268-04:00", "avatar": "https://secure.gravatar.com/avatar/e6caca5858e3ce89f216daac4dbcef44.jpg?s=512&d=https%3A%2F%2Fa.slack-edge.com%2Fdf10d%2Fimg%2Favatars%2Fava_0008-512.png", "custom_css": null}, {"id": 5220, "slack_id": "U091KPTLLHL", "display_name": "Rohit", "bio": null, "projects_count": 0, "devlogs_count": 0, "votes_count": 0, "ships_count": 0, "projects": [], "coding_time_seconds": 0, "coding_time_seconds_today": 0, "balance": "You need to have a pocket watcher badge to view this.", "badges": [], "created_at": "2025-06-17T02:39:46.502-04:00", "updated_at": "2025-07-03T19:34:50.539-04:00", "avatar": "https://secure.gravatar.com/avatar/a52a72a8ff32c08f1aeb7d569e682eaf.jpg?s=512&d=https%3A%2F%2Fa.slack-edge.com%2Fdf10d%2Fimg%2Favatars%2Fava_0002-512.png", "custom_css": null}], "pagination": {"page": 261, "pages": 1192, "count": 23828, "items": 20}}