{"users": [{"id": 5221, "slack_id": "U0878M416N5", "display_name": "Matkard", "bio": null, "projects_count": 0, "devlogs_count": 0, "votes_count": 0, "ships_count": 0, "projects": [], "coding_time_seconds": 0, "coding_time_seconds_today": 0, "balance": "You need to have a pocket watcher badge to view this.", "badges": [], "created_at": "2025-06-17T02:39:58.822-04:00", "updated_at": "2025-07-03T19:34:50.797-04:00", "avatar": "https://secure.gravatar.com/avatar/d0ea77ff3d1e1866356b9c6905dbc328.jpg?s=512&d=https%3A%2F%2Fa.slack-edge.com%2Fdf10d%2Fimg%2Favatars%2Fava_0010-512.png", "custom_css": null}, {"id": 5222, "slack_id": "U091SHNFE3U", "display_name": "Aniket", "bio": null, "projects_count": 0, "devlogs_count": 0, "votes_count": 0, "ships_count": 0, "projects": [], "coding_time_seconds": 0, "coding_time_seconds_today": 0, "balance": "You need to have a pocket watcher badge to view this.", "badges": [], "created_at": "2025-06-17T02:40:13.933-04:00", "updated_at": "2025-07-03T19:34:51.058-04:00", "avatar": "https://secure.gravatar.com/avatar/0c22992c4204accadfab3a6c5e67c2f8.jpg?s=512&d=https%3A%2F%2Fa.slack-edge.com%2Fdf10d%2Fimg%2Favatars%2Fava_0006-512.png", "custom_css": null}, {"id": 5223, "slack_id": "U091S0TGQG2", "display_name": "Yeung Wang Sang", "bio": null, "projects_count": 0, "devlogs_count": 0, "votes_count": 0, "ships_count": 0, "projects": [], "coding_time_seconds": 0, "coding_time_seconds_today": 0, "balance": "You need to have a pocket watcher badge to view this.", "badges": [], "created_at": "2025-06-17T02:40:32.310-04:00", "updated_at": "2025-07-03T19:34:51.325-04:00", "avatar": "https://secure.gravatar.com/avatar/6ba65027c4e337c6bdd9c7b588cb8240.jpg?s=512&d=https%3A%2F%2Fa.slack-edge.com%2Fdf10d%2Fimg%2Favatars%2Fava_0007-512.png", "custom_css": null}, {"id": 5224, "slack_id": "U091GJDUP5L", "display_name": "Arkitu", "bio": null, "projects_count": 0, "devlogs_count": 0, "votes_count": 0, "ships_count": 0, "projects": [], "coding_time_seconds": 0, "coding_time_seconds_today": 0, "balance": "You need to have a pocket watcher badge to view this.", "badges": [], "created_at": "2025-06-17T02:40:40.685-04:00", "updated_at": "2025-07-03T19:34:51.597-04:00", "avatar": "https://secure.gravatar.com/avatar/70c37db2f9b08a80cd9f1853e862f25e.jpg?s=512&d=https%3A%2F%2Fa.slack-edge.com%2Fdf10d%2Fimg%2Favatars%2Fava_0004-512.png", "custom_css": null}, {"id": 5225, "slack_id": "U091SSNRW4C", "display_name": "Soikr", "bio": null, "projects_count": 0, "devlogs_count": 0, "votes_count": 2, "ships_count": 0, "projects": [], "coding_time_seconds": 21321, "coding_time_seconds_today": 0, "balance": "You need to have a pocket watcher badge to view this.", "badges": [], "created_at": "2025-06-17T02:41:27.325-04:00", "updated_at": "2025-07-03T19:34:51.869-04:00", "avatar": "https://secure.gravatar.com/avatar/aa7b5ebf0048d8947a96563bf16cabf2.jpg?s=512&d=https%3A%2F%2Fa.slack-edge.com%2Fdf10d%2Fimg%2Favatars%2Fava_0002-512.png", "custom_css": null}, {"id": 5226, "slack_id": "U091B5MK45D", "display_name": "Yeddula Epafra", "bio": null, "projects_count": 0, "devlogs_count": 0, "votes_count": 0, "ships_count": 0, "projects": [], "coding_time_seconds": 0, "coding_time_seconds_today": 0, "balance": "You need to have a pocket watcher badge to view this.", "badges": [], "created_at": "2025-06-17T02:41:28.765-04:00", "updated_at": "2025-07-03T19:34:52.141-04:00", "avatar": "https://secure.gravatar.com/avatar/971ab37583daa8e6109e230c9ccd4308.jpg?s=512&d=https%3A%2F%2Fa.slack-edge.com%2Fdf10d%2Fimg%2Favatars%2Fava_0023-512.png", "custom_css": null}, {"id": 5227, "slack_id": "U0924Q6AM33", "display_name": "RottenPika", "bio": null, "projects_count": 0, "devlogs_count": 0, "votes_count": 0, "ships_count": 0, "projects": [], "coding_time_seconds": 0, "coding_time_seconds_today": 0, "balance": "You need to have a pocket watcher badge to view this.", "badges": [], "created_at": "2025-06-17T02:41:45.550-04:00", "updated_at": "2025-07-03T19:34:52.417-04:00", "avatar": "https://secure.gravatar.com/avatar/a126f6efd451019813d3a8eea9f7499e.jpg?s=512&d=https%3A%2F%2Fa.slack-edge.com%2Fdf10d%2Fimg%2Favatars%2Fava_0007-512.png", "custom_css": null}, {"id": 5228, "slack_id": "U092EUD4DJ4", "display_name": "Mohammed Mateen HussainSyed", "bio": null, "projects_count": 0, "devlogs_count": 0, "votes_count": 0, "ships_count": 0, "projects": [], "coding_time_seconds": 176923, "coding_time_seconds_today": 677, "balance": "You need to have a pocket watcher badge to view this.", "badges": [], "created_at": "2025-06-17T02:41:50.969-04:00", "updated_at": "2025-07-03T19:34:52.683-04:00", "avatar": "https://secure.gravatar.com/avatar/feab233a20e3a08a3e7f4468d7b84da1.jpg?s=512&d=https%3A%2F%2Fa.slack-edge.com%2Fdf10d%2Fimg%2Favatars%2Fava_0009-512.png", "custom_css": null}, {"id": 5229, "slack_id": "U091KMA22UT", "display_name": "Ruchika", "bio": null, "projects_count": 0, "devlogs_count": 0, "votes_count": 0, "ships_count": 0, "projects": [], "coding_time_seconds": 0, "coding_time_seconds_today": 0, "balance": "You need to have a pocket watcher badge to view this.", "badges": [], "created_at": "2025-06-17T02:42:03.896-04:00", "updated_at": "2025-07-03T19:34:52.941-04:00", "avatar": "https://secure.gravatar.com/avatar/0cccda39e83f49028608b7dad2938cb4.jpg?s=512&d=https%3A%2F%2Fa.slack-edge.com%2Fdf10d%2Fimg%2Favatars%2Fava_0023-512.png", "custom_css": null}, {"id": 5230, "slack_id": "U092EUF5TSL", "display_name": "seb", "bio": null, "projects_count": 0, "devlogs_count": 0, "votes_count": 0, "ships_count": 0, "projects": [], "coding_time_seconds": 0, "coding_time_seconds_today": 0, "balance": "You need to have a pocket watcher badge to view this.", "badges": [], "created_at": "2025-06-17T02:42:05.247-04:00", "updated_at": "2025-07-03T19:34:53.200-04:00", "avatar": "https://secure.gravatar.com/avatar/4c1fd51921b99ac7a0ed80b5beb27561.jpg?s=512&d=https%3A%2F%2Fa.slack-edge.com%2Fdf10d%2Fimg%2Favatars%2Fava_0021-512.png", "custom_css": null}, {"id": 5231, "slack_id": "U092EUEJR5W", "display_name": "Taimour Abdul Karim", "bio": null, "projects_count": 0, "devlogs_count": 0, "votes_count": 0, "ships_count": 0, "projects": [], "coding_time_seconds": 0, "coding_time_seconds_today": 0, "balance": "You need to have a pocket watcher badge to view this.", "badges": [], "created_at": "2025-06-17T02:42:45.899-04:00", "updated_at": "2025-07-03T19:34:53.485-04:00", "avatar": "https://secure.gravatar.com/avatar/2ddb9b6e4ced8a8262cf0e549e44bcad.jpg?s=512&d=https%3A%2F%2Fa.slack-edge.com%2Fdf10d%2Fimg%2Favatars%2Fava_0000-512.png", "custom_css": null}, {"id": 5232, "slack_id": "U091SHT6Q58", "display_name": "Parth", "bio": null, "projects_count": 0, "devlogs_count": 0, "votes_count": 0, "ships_count": 0, "projects": [], "coding_time_seconds": 0, "coding_time_seconds_today": 0, "balance": "You need to have a pocket watcher badge to view this.", "badges": [], "created_at": "2025-06-17T02:43:38.300-04:00", "updated_at": "2025-07-03T19:34:53.759-04:00", "avatar": "https://secure.gravatar.com/avatar/fe5019ede5de3bc5b06362f18acda28d.jpg?s=512&d=https%3A%2F%2Fa.slack-edge.com%2Fdf10d%2Fimg%2Favatars%2Fava_0001-512.png", "custom_css": null}, {"id": 5233, "slack_id": "U091SJ0HQ1G", "display_name": "VS", "bio": null, "projects_count": 0, "devlogs_count": 3, "votes_count": 0, "ships_count": 0, "projects": [], "coding_time_seconds": 249564, "coding_time_seconds_today": 120, "balance": "You need to have a pocket watcher badge to view this.", "badges": [], "created_at": "2025-06-17T02:44:07.165-04:00", "updated_at": "2025-08-11T12:04:32.839-04:00", "avatar": "https://secure.gravatar.com/avatar/864db4d8efaff032a7e2278fe2622bbe.jpg?s=512&d=https%3A%2F%2Fa.slack-edge.com%2Fdf10d%2Fimg%2Favatars%2Fava_0004-512.png", "custom_css": null}, {"id": 5234, "slack_id": "U091KQURRJA", "display_name": "Safdar Hussain", "bio": null, "projects_count": 0, "devlogs_count": 0, "votes_count": 0, "ships_count": 0, "projects": [], "coding_time_seconds": 0, "coding_time_seconds_today": 0, "balance": "You need to have a pocket watcher badge to view this.", "badges": [], "created_at": "2025-06-17T02:44:40.538-04:00", "updated_at": "2025-07-03T19:34:54.358-04:00", "avatar": "https://secure.gravatar.com/avatar/88c84aaf79206ccded898f24c534b711.jpg?s=512&d=https%3A%2F%2Fa.slack-edge.com%2Fdf10d%2Fimg%2Favatars%2Fava_0012-512.png", "custom_css": null}, {"id": 5235, "slack_id": "U091B62UW3Z", "display_name": "Agrim Porwal", "bio": null, "projects_count": 0, "devlogs_count": 0, "votes_count": 0, "ships_count": 0, "projects": [], "coding_time_seconds": 0, "coding_time_seconds_today": 0, "balance": "You need to have a pocket watcher badge to view this.", "badges": [], "created_at": "2025-06-17T02:44:41.622-04:00", "updated_at": "2025-07-03T19:34:54.637-04:00", "avatar": "https://secure.gravatar.com/avatar/c655f4d7aad5393c795012fb57c76f4b.jpg?s=512&d=https%3A%2F%2Fa.slack-edge.com%2Fdf10d%2Fimg%2Favatars%2Fava_0010-512.png", "custom_css": null}, {"id": 5236, "slack_id": "U091B525GVD", "display_name": "Raleesa Perera", "bio": null, "projects_count": 0, "devlogs_count": 0, "votes_count": 0, "ships_count": 0, "projects": [], "coding_time_seconds": 0, "coding_time_seconds_today": 0, "balance": "You need to have a pocket watcher badge to view this.", "badges": [], "created_at": "2025-06-17T02:44:48.544-04:00", "updated_at": "2025-07-03T19:34:54.922-04:00", "avatar": "https://secure.gravatar.com/avatar/fd7cc23c6baf6b76b5f21e406f6c96da.jpg?s=512&d=https%3A%2F%2Fa.slack-edge.com%2Fdf10d%2Fimg%2Favatars%2Fava_0024-512.png", "custom_css": null}, {"id": 5237, "slack_id": "U091SSTNK36", "display_name": "Schnitzer Christoph", "bio": null, "projects_count": 0, "devlogs_count": 0, "votes_count": 0, "ships_count": 0, "projects": [], "coding_time_seconds": 0, "coding_time_seconds_today": 0, "balance": "You need to have a pocket watcher badge to view this.", "badges": [], "created_at": "2025-06-17T02:45:08.412-04:00", "updated_at": "2025-07-03T19:34:55.199-04:00", "avatar": "https://secure.gravatar.com/avatar/9411daeefe3db64e1c718b62cf14c943.jpg?s=512&d=https%3A%2F%2Fa.slack-edge.com%2Fdf10d%2Fimg%2Favatars%2Fava_0011-512.png", "custom_css": null}, {"id": 5238, "slack_id": "U091SJ8U5EE", "display_name": "Austin Bradely", "bio": null, "projects_count": 0, "devlogs_count": 0, "votes_count": 0, "ships_count": 0, "projects": [], "coding_time_seconds": 0, "coding_time_seconds_today": 0, "balance": "You need to have a pocket watcher badge to view this.", "badges": [], "created_at": "2025-06-17T02:45:14.219-04:00", "updated_at": "2025-07-03T19:34:55.480-04:00", "avatar": "https://secure.gravatar.com/avatar/fbce467ab3b7784e9867cfbd876bc1ad.jpg?s=512&d=https%3A%2F%2Fa.slack-edge.com%2Fdf10d%2Fimg%2Favatars%2Fava_0016-512.png", "custom_css": null}, {"id": 5239, "slack_id": "U0826D9RLUB", "display_name": "Saad Aamir", "bio": null, "projects_count": 1, "devlogs_count": 8, "votes_count": 17, "ships_count": 1, "projects": [{"id": 6108, "title": "Custom Neural Net only using numpy", "devlogs_count": 8, "created_at": "2025-07-10T15:08:32.428-04:00"}], "coding_time_seconds": 236822, "coding_time_seconds_today": 0, "balance": "You need to have a pocket watcher badge to view this.", "badges": [{"name": "Maiden Voyage", "text": "you shipped your first project! the journey begins...", "icon": "\ud83d\udea2"}], "created_at": "2025-06-17T02:45:24.458-04:00", "updated_at": "2025-09-10T22:53:46.513-04:00", "avatar": "https://secure.gravatar.com/avatar/73e31854b5e9d09770a41ba5bac86328.jpg?s=512&d=https%3A%2F%2Fa.slack-edge.com%2Fdf10d%2Fimg%2Favatars%2Fava_0024-512.png", "custom_css": null}, {"id": 5240, "slack_id": "U091STFTAUU", "display_name": "Shourya", "bio": null, "projects_count": 0, "devlogs_count": 0, "votes_count": 0, "ships_count": 0, "projects": [], "coding_time_seconds": 109733, "coding_time_seconds_today": 0, "balance": "You need to have a pocket watcher badge to view this.", "badges": [], "created_at": "2025-06-17T02:45:44.556-04:00", "updated_at": "2025-07-03T21:42:43.629-04:00", "avatar": "https://secure.gravatar.com/avatar/f0cf365e14ffba277f5834937b0318cb.jpg?s=512&d=https%3A%2F%2Fa.slack-edge.com%2Fdf10d%2Fimg%2Favatars%2Fava_0018-512.png", "custom_css": null}], "pagination": {"page": 262, "pages": 1192, "count": 23828, "items": 20}}