{"users": [{"id": 5241, "slack_id": "U07V102L8CC", "display_name": "shlok", "bio": null, "projects_count": 0, "devlogs_count": 19, "votes_count": 76, "ships_count": 0, "projects": [], "coding_time_seconds": 512912, "coding_time_seconds_today": 0, "balance": "You need to have a pocket watcher badge to view this.", "badges": [], "created_at": "2025-06-17T02:46:09.081-04:00", "updated_at": "2025-09-17T00:23:43.715-04:00", "avatar": "https://avatars.slack-edge.com/2025-09-16/9543990523745_5ed0d7f7445be12f0c6d_original.png", "custom_css": null}, {"id": 5242, "slack_id": "U091B6ARA6T", "display_name": "chetan", "bio": null, "projects_count": 0, "devlogs_count": 0, "votes_count": 0, "ships_count": 0, "projects": [], "coding_time_seconds": 240, "coding_time_seconds_today": 0, "balance": "You need to have a pocket watcher badge to view this.", "badges": [], "created_at": "2025-06-17T02:46:13.016-04:00", "updated_at": "2025-07-03T19:34:56.474-04:00", "avatar": "https://secure.gravatar.com/avatar/0e75f86bdb9da1b84265c0a4477fedbb.jpg?s=512&d=https%3A%2F%2Fa.slack-edge.com%2Fdf10d%2Fimg%2Favatars%2Fava_0011-512.png", "custom_css": null}, {"id": 5243, "slack_id": "U091QQ1D82H", "display_name": "Kyo Nguyen", "bio": null, "projects_count": 0, "devlogs_count": 0, "votes_count": 0, "ships_count": 0, "projects": [], "coding_time_seconds": 0, "coding_time_seconds_today": 0, "balance": "You need to have a pocket watcher badge to view this.", "badges": [], "created_at": "2025-06-17T02:46:16.787-04:00", "updated_at": "2025-07-03T19:34:56.755-04:00", "avatar": "https://secure.gravatar.com/avatar/6d795fb40f62e7a215d9c2e6a5071d8b.jpg?s=512&d=https%3A%2F%2Fa.slack-edge.com%2Fdf10d%2Fimg%2Favatars%2Fava_0022-512.png", "custom_css": null}, {"id": 5244, "slack_id": "U091KMX415H", "display_name": "John Macron", "bio": null, "projects_count": 0, "devlogs_count": 0, "votes_count": 0, "ships_count": 0, "projects": [], "coding_time_seconds": 1408, "coding_time_seconds_today": 0, "balance": "You need to have a pocket watcher badge to view this.", "badges": [], "created_at": "2025-06-17T02:46:39.622-04:00", "updated_at": "2025-07-03T19:34:57.013-04:00", "avatar": "https://avatars.slack-edge.com/2025-06-16/9045234683863_d48a62fb422dca00a81b_original.jpg", "custom_css": null}, {"id": 5245, "slack_id": "U091KR0MZFY", "display_name": "edem", "bio": null, "projects_count": 0, "devlogs_count": 0, "votes_count": 0, "ships_count": 0, "projects": [], "coding_time_seconds": 0, "coding_time_seconds_today": 0, "balance": "You need to have a pocket watcher badge to view this.", "badges": [], "created_at": "2025-06-17T02:47:02.207-04:00", "updated_at": "2025-07-03T19:34:57.267-04:00", "avatar": "https://secure.gravatar.com/avatar/90455033ddd240e1d90f11de9bbe71ef.jpg?s=512&d=https%3A%2F%2Fa.slack-edge.com%2Fdf10d%2Fimg%2Favatars%2Fava_0020-512.png", "custom_css": null}, {"id": 5246, "slack_id": "U091KLUSHEX", "display_name": "Hemant Soni", "bio": null, "projects_count": 0, "devlogs_count": 0, "votes_count": 0, "ships_count": 0, "projects": [], "coding_time_seconds": 56268, "coding_time_seconds_today": 0, "balance": "You need to have a pocket watcher badge to view this.", "badges": [], "created_at": "2025-06-17T02:47:03.831-04:00", "updated_at": "2025-07-03T19:34:57.534-04:00", "avatar": "https://secure.gravatar.com/avatar/758e684d5670dca55495941875c5f3e2.jpg?s=512&d=https%3A%2F%2Fa.slack-edge.com%2Fdf10d%2Fimg%2Favatars%2Fava_0004-512.png", "custom_css": null}, {"id": 5247, "slack_id": "U091SJ2A9GA", "display_name": "Vynn juice", "bio": null, "projects_count": 0, "devlogs_count": 0, "votes_count": 0, "ships_count": 0, "projects": [], "coding_time_seconds": 0, "coding_time_seconds_today": 0, "balance": "You need to have a pocket watcher badge to view this.", "badges": [], "created_at": "2025-06-17T02:47:11.952-04:00", "updated_at": "2025-07-03T19:34:57.810-04:00", "avatar": "https://avatars.slack-edge.com/2025-06-16/9058839857413_a98eeaf69c1dacca35cd_original.png", "custom_css": null}, {"id": 5248, "slack_id": "U07F7UQDEG3", "display_name": "Muhammad Yahya", "bio": null, "projects_count": 0, "devlogs_count": 0, "votes_count": 0, "ships_count": 0, "projects": [], "coding_time_seconds": 14080, "coding_time_seconds_today": 0, "balance": "You need to have a pocket watcher badge to view this.", "badges": [], "created_at": "2025-06-17T02:47:30.060-04:00", "updated_at": "2025-07-03T19:34:58.075-04:00", "avatar": "https://secure.gravatar.com/avatar/1b7ee42427a0de5d21a1c2585c549f73.jpg?s=512&d=https%3A%2F%2Fa.slack-edge.com%2Fdf10d%2Fimg%2Favatars%2Fava_0004-512.png", "custom_css": null}, {"id": 5249, "slack_id": "U092EV40B0Q", "display_name": "pokecool", "bio": null, "projects_count": 0, "devlogs_count": 0, "votes_count": 0, "ships_count": 0, "projects": [], "coding_time_seconds": 0, "coding_time_seconds_today": 0, "balance": "You need to have a pocket watcher badge to view this.", "badges": [], "created_at": "2025-06-17T02:48:20.655-04:00", "updated_at": "2025-07-03T19:34:58.337-04:00", "avatar": "https://secure.gravatar.com/avatar/d2e889ccf28f19a2df26e92c0e121c15.jpg?s=512&d=https%3A%2F%2Fa.slack-edge.com%2Fdf10d%2Fimg%2Favatars%2Fava_0008-512.png", "custom_css": null}, {"id": 5250, "slack_id": "U091KRC78F8", "display_name": "Mathis", "bio": null, "projects_count": 0, "devlogs_count": 0, "votes_count": 0, "ships_count": 0, "projects": [], "coding_time_seconds": 324455, "coding_time_seconds_today": 0, "balance": "You need to have a pocket watcher badge to view this.", "badges": [], "created_at": "2025-06-17T02:48:29.816-04:00", "updated_at": "2025-07-03T19:34:58.607-04:00", "avatar": "https://secure.gravatar.com/avatar/871d3c7cfb2f8362c799ea6b8c54086a.jpg?s=512&d=https%3A%2F%2Fa.slack-edge.com%2Fdf10d%2Fimg%2Favatars%2Fava_0008-512.png", "custom_css": null}, {"id": 5251, "slack_id": "U091KRHM3HU", "display_name": "tvieira", "bio": null, "projects_count": 0, "devlogs_count": 0, "votes_count": 0, "ships_count": 0, "projects": [], "coding_time_seconds": 0, "coding_time_seconds_today": 0, "balance": "You need to have a pocket watcher badge to view this.", "badges": [], "created_at": "2025-06-17T02:48:44.906-04:00", "updated_at": "2025-07-03T21:54:41.297-04:00", "avatar": "https://secure.gravatar.com/avatar/fbb82ce1e1763d636416e71894568431.jpg?s=512&d=https%3A%2F%2Fa.slack-edge.com%2Fdf10d%2Fimg%2Favatars%2Fava_0000-512.png", "custom_css": null}, {"id": 5252, "slack_id": "U07FA4T2UTW", "display_name": "AstroReez", "bio": null, "projects_count": 0, "devlogs_count": 0, "votes_count": 0, "ships_count": 0, "projects": [], "coding_time_seconds": 0, "coding_time_seconds_today": 0, "balance": "You need to have a pocket watcher badge to view this.", "badges": [], "created_at": "2025-06-17T02:48:59.320-04:00", "updated_at": "2025-07-03T19:34:59.023-04:00", "avatar": "https://avatars.slack-edge.com/2024-08-05/7526243085269_d04ddf4317835d9d1dcc_original.jpg", "custom_css": null}, {"id": 5253, "slack_id": "U091STRJL5A", "display_name": "Ansh Kumar", "bio": null, "projects_count": 1, "devlogs_count": 0, "votes_count": 0, "ships_count": 0, "projects": [{"id": 781, "title": "Ecommerce", "devlogs_count": 0, "created_at": "2025-06-17T08:09:09.659-04:00"}], "coding_time_seconds": 6232, "coding_time_seconds_today": 0, "balance": "You need to have a pocket watcher badge to view this.", "badges": [], "created_at": "2025-06-17T02:49:01.856-04:00", "updated_at": "2025-07-03T19:34:59.293-04:00", "avatar": "https://avatars.slack-edge.com/2025-06-16/9060958643188_624078caae0517b3f3b5_original.jpg", "custom_css": null}, {"id": 5254, "slack_id": "U08M0RZ0TNF", "display_name": "Ravlo Gautus", "bio": null, "projects_count": 0, "devlogs_count": 0, "votes_count": 0, "ships_count": 0, "projects": [], "coding_time_seconds": 0, "coding_time_seconds_today": 0, "balance": "You need to have a pocket watcher badge to view this.", "badges": [], "created_at": "2025-06-17T02:49:42.525-04:00", "updated_at": "2025-07-03T19:34:59.558-04:00", "avatar": "https://secure.gravatar.com/avatar/c29a84dae082915465543cd6fe7eab1c.jpg?s=512&d=https%3A%2F%2Fa.slack-edge.com%2Fdf10d%2Fimg%2Favatars%2Fava_0007-512.png", "custom_css": null}, {"id": 5255, "slack_id": "U091KQRK0MC", "display_name": "Afrizal Yafi'", "bio": null, "projects_count": 1, "devlogs_count": 0, "votes_count": 0, "ships_count": 0, "projects": [{"id": 702, "title": "Fox Thoughts", "devlogs_count": 0, "created_at": "2025-06-17T05:45:28.400-04:00"}], "coding_time_seconds": 18055, "coding_time_seconds_today": 0, "balance": "You need to have a pocket watcher badge to view this.", "badges": [], "created_at": "2025-06-17T02:49:46.626-04:00", "updated_at": "2025-07-03T19:34:59.816-04:00", "avatar": "https://secure.gravatar.com/avatar/7a46174ec7e82d19e203d8bb87e3d969.jpg?s=512&d=https%3A%2F%2Fa.slack-edge.com%2Fdf10d%2Fimg%2Favatars%2Fava_0022-512.png", "custom_css": null}, {"id": 5256, "slack_id": "U092EVADN80", "display_name": "Jim", "bio": null, "projects_count": 0, "devlogs_count": 0, "votes_count": 0, "ships_count": 0, "projects": [], "coding_time_seconds": 0, "coding_time_seconds_today": 0, "balance": "You need to have a pocket watcher badge to view this.", "badges": [], "created_at": "2025-06-17T02:49:53.333-04:00", "updated_at": "2025-07-03T19:35:00.081-04:00", "avatar": "https://secure.gravatar.com/avatar/312bc1ecc5c0e3347372fc0020595c64.jpg?s=512&d=https%3A%2F%2Fa.slack-edge.com%2Fdf10d%2Fimg%2Favatars%2Fava_0007-512.png", "custom_css": null}, {"id": 5257, "slack_id": "U091KN5TE1Z", "display_name": "SOUMYADITYA ROY", "bio": null, "projects_count": 0, "devlogs_count": 0, "votes_count": 0, "ships_count": 0, "projects": [], "coding_time_seconds": 0, "coding_time_seconds_today": 0, "balance": "You need to have a pocket watcher badge to view this.", "badges": [], "created_at": "2025-06-17T02:50:04.660-04:00", "updated_at": "2025-07-03T19:35:00.347-04:00", "avatar": "https://secure.gravatar.com/avatar/596d132eb15ef9148ed6fac703071c41.jpg?s=512&d=https%3A%2F%2Fa.slack-edge.com%2Fdf10d%2Fimg%2Favatars%2Fava_0000-512.png", "custom_css": null}, {"id": 5258, "slack_id": "U091KNA6ZB5", "display_name": "Market Insights Center", "bio": null, "projects_count": 1, "devlogs_count": 5, "votes_count": 1, "ships_count": 1, "projects": [{"id": 1262, "title": "Market Insights Center Singularity", "devlogs_count": 5, "created_at": "2025-06-18T02:45:16.335-04:00"}], "coding_time_seconds": 209242, "coding_time_seconds_today": 0, "balance": "You need to have a pocket watcher badge to view this.", "badges": [{"name": "Maiden Voyage", "text": "you shipped your first project! the journey begins...", "icon": "\ud83d\udea2"}], "created_at": "2025-06-17T02:50:13.548-04:00", "updated_at": "2025-09-10T22:53:47.282-04:00", "avatar": "https://avatars.slack-edge.com/2025-06-16/9073179790177_5ee680668055ae798e6a_original.png", "custom_css": null}, {"id": 5259, "slack_id": "U091KM82G59", "display_name": "Axel LIEBENGUTH", "bio": null, "projects_count": 2, "devlogs_count": 7, "votes_count": 0, "ships_count": 1, "projects": [{"id": 617, "title": "Tendering software", "devlogs_count": 3, "created_at": "2025-06-17T03:02:20.936-04:00"}, {"id": 1274, "title": " Banking interface (for a FiveM script)", "devlogs_count": 4, "created_at": "2025-06-18T04:10:56.953-04:00"}], "coding_time_seconds": 80369, "coding_time_seconds_today": 0, "balance": "You need to have a pocket watcher badge to view this.", "badges": [{"name": "Maiden Voyage", "text": "you shipped your first project! the journey begins...", "icon": "\ud83d\udea2"}], "created_at": "2025-06-17T02:50:41.104-04:00", "updated_at": "2025-09-10T22:53:47.316-04:00", "avatar": "https://avatars.slack-edge.com/2025-06-16/9060651707698_68d114a6104c0e8338c8_original.png", "custom_css": null}, {"id": 5260, "slack_id": "U091KN7CPDZ", "display_name": "ElliotMonde", "bio": null, "projects_count": 0, "devlogs_count": 0, "votes_count": 0, "ships_count": 0, "projects": [], "coding_time_seconds": 0, "coding_time_seconds_today": 0, "balance": "You need to have a pocket watcher badge to view this.", "badges": [], "created_at": "2025-06-17T02:51:24.761-04:00", "updated_at": "2025-07-03T19:35:01.142-04:00", "avatar": "https://secure.gravatar.com/avatar/0d519c8af179ade9b6382114b4215a6d.jpg?s=512&d=https%3A%2F%2Fa.slack-edge.com%2Fdf10d%2Fimg%2Favatars%2Fava_0015-512.png", "custom_css": null}], "pagination": {"page": 263, "pages": 1192, "count": 23828, "items": 20}}