{"users": [{"id": 5281, "slack_id": "U091SUDMBNG", "display_name": "Crazyboy", "bio": null, "projects_count": 0, "devlogs_count": 0, "votes_count": 0, "ships_count": 0, "projects": [], "coding_time_seconds": 0, "coding_time_seconds_today": 0, "balance": "You need to have a pocket watcher badge to view this.", "badges": [], "created_at": "2025-06-17T02:56:47.545-04:00", "updated_at": "2025-07-03T19:35:06.671-04:00", "avatar": "https://secure.gravatar.com/avatar/f1cd85769ce6c3ee18d6e69c0c2986bc.jpg?s=512&d=https%3A%2F%2Fa.slack-edge.com%2Fdf10d%2Fimg%2Favatars%2Fava_0004-512.png", "custom_css": null}, {"id": 5282, "slack_id": "U091B7LHXAB", "display_name": "Vishnu", "bio": null, "projects_count": 0, "devlogs_count": 0, "votes_count": 0, "ships_count": 0, "projects": [], "coding_time_seconds": 0, "coding_time_seconds_today": 0, "balance": "You need to have a pocket watcher badge to view this.", "badges": [], "created_at": "2025-06-17T02:56:54.563-04:00", "updated_at": "2025-07-06T08:05:50.465-04:00", "avatar": "https://secure.gravatar.com/avatar/a1fe723391609b204a61bc7652f0a9a2.jpg?s=512&d=https%3A%2F%2Fa.slack-edge.com%2Fdf10d%2Fimg%2Favatars%2Fava_0015-512.png", "custom_css": null}, {"id": 5283, "slack_id": "U091KNZKV43", "display_name": "UmbraDomini", "bio": null, "projects_count": 0, "devlogs_count": 0, "votes_count": 0, "ships_count": 0, "projects": [], "coding_time_seconds": 0, "coding_time_seconds_today": 0, "balance": "You need to have a pocket watcher badge to view this.", "badges": [], "created_at": "2025-06-17T02:57:12.509-04:00", "updated_at": "2025-07-03T19:35:07.081-04:00", "avatar": "https://secure.gravatar.com/avatar/a7e7af0a70d967fe31118375f77b17cf.jpg?s=512&d=https%3A%2F%2Fa.slack-edge.com%2Fdf10d%2Fimg%2Favatars%2Fava_0004-512.png", "custom_css": null}, {"id": 5284, "slack_id": "U057VG1TFQC", "display_name": "arn", "bio": "", "projects_count": 16, "devlogs_count": 20, "votes_count": 72, "ships_count": 12, "projects": [{"id": 2886, "title": "Swirl Website", "devlogs_count": 2, "created_at": "2025-06-22T11:10:16.191-04:00"}, {"id": 3180, "title": "Dream Dwellings", "devlogs_count": 1, "created_at": "2025-06-23T10:41:27.588-04:00"}, {"id": 3453, "title": "Personal Portfolio", "devlogs_count": 2, "created_at": "2025-06-24T10:34:17.520-04:00"}, {"id": 3455, "title": "Personal Website", "devlogs_count": 1, "created_at": "2025-06-24T10:55:10.700-04:00"}, {"id": 3467, "title": "Focus Tracker", "devlogs_count": 1, "created_at": "2025-06-24T11:24:15.030-04:00"}, {"id": 6306, "title": "Easter Egg Website", "devlogs_count": 1, "created_at": "2025-07-12T07:22:20.867-04:00"}, {"id": 6920, "title": "InkPress", "devlogs_count": 1, "created_at": "2025-07-17T11:17:08.376-04:00"}, {"id": 6891, "title": "HackDucky", "devlogs_count": 1, "created_at": "2025-07-17T05:28:40.693-04:00"}, {"id": 6919, "title": "Pixel Art Game", "devlogs_count": 1, "created_at": "2025-07-17T11:13:23.646-04:00"}, {"id": 6803, "title": "Ahoy Langauge", "devlogs_count": 1, "created_at": "2025-07-16T11:20:21.247-04:00"}, {"id": 6877, "title": "Yodafy", "devlogs_count": 1, "created_at": "2025-07-17T03:26:25.744-04:00"}, {"id": 7866, "title": "2048", "devlogs_count": 1, "created_at": "2025-07-23T10:42:42.990-04:00"}, {"id": 6808, "title": "Project Planner", "devlogs_count": 1, "created_at": "2025-07-16T11:59:01.264-04:00"}, {"id": 4949, "title": "HacLib", "devlogs_count": 2, "created_at": "2025-07-02T10:59:21.253-04:00"}, {"id": 5949, "title": "AirSafe", "devlogs_count": 2, "created_at": "2025-07-09T10:33:20.051-04:00"}, {"id": 6918, "title": "Kind Words", "devlogs_count": 1, "created_at": "2025-07-17T11:09:34.933-04:00"}], "coding_time_seconds": 639301, "coding_time_seconds_today": 0, "balance": "You need to have a pocket watcher badge to view this.", "badges": [{"name": "Maiden Voyage", "text": "you shipped your first project! the journey begins...", "icon": "\ud83d\udea2"}], "created_at": "2025-06-17T02:58:09.585-04:00", "updated_at": "2025-09-10T22:53:48.157-04:00", "avatar": "https://avatars.slack-edge.com/2024-10-31/7955035895366_7ed2aa9755c53b5ec44c_original.png", "custom_css": null}, {"id": 5285, "slack_id": "U091B77GCJ3", "display_name": "Sujit", "bio": null, "projects_count": 0, "devlogs_count": 0, "votes_count": 0, "ships_count": 0, "projects": [], "coding_time_seconds": 0, "coding_time_seconds_today": 0, "balance": "You need to have a pocket watcher badge to view this.", "badges": [], "created_at": "2025-06-17T02:58:26.358-04:00", "updated_at": "2025-07-03T19:35:07.609-04:00", "avatar": "https://secure.gravatar.com/avatar/da1dd036614a1460d4b59e39c82eae81.jpg?s=512&d=https%3A%2F%2Fa.slack-edge.com%2Fdf10d%2Fimg%2Favatars%2Fava_0010-512.png", "custom_css": null}, {"id": 5286, "slack_id": "U07J2RTT77H", "display_name": "Game-chan", "bio": null, "projects_count": 0, "devlogs_count": 0, "votes_count": 0, "ships_count": 0, "projects": [], "coding_time_seconds": 81443, "coding_time_seconds_today": 0, "balance": "You need to have a pocket watcher badge to view this.", "badges": [], "created_at": "2025-06-17T02:58:41.084-04:00", "updated_at": "2025-07-03T19:35:07.869-04:00", "avatar": "https://avatars.slack-edge.com/2025-05-16/8912310390884_c2ebda28ca6580e25dcc_original.png", "custom_css": null}, {"id": 5287, "slack_id": "U08247J6KQA", "display_name": "Robkoo", "bio": null, "projects_count": 0, "devlogs_count": 0, "votes_count": 0, "ships_count": 0, "projects": [], "coding_time_seconds": 22394, "coding_time_seconds_today": 0, "balance": "You need to have a pocket watcher badge to view this.", "badges": [], "created_at": "2025-06-17T02:58:59.119-04:00", "updated_at": "2025-07-04T02:24:18.817-04:00", "avatar": "https://secure.gravatar.com/avatar/60f9de5caf294aa6df1c6b387bc107f1.jpg?s=512&d=https%3A%2F%2Fa.slack-edge.com%2Fdf10d%2Fimg%2Favatars%2Fava_0023-512.png", "custom_css": null}, {"id": 5288, "slack_id": "U091KSSS9D4", "display_name": "MUHAMMAD ZULKIFL", "bio": null, "projects_count": 0, "devlogs_count": 0, "votes_count": 0, "ships_count": 0, "projects": [], "coding_time_seconds": 0, "coding_time_seconds_today": 0, "balance": "You need to have a pocket watcher badge to view this.", "badges": [], "created_at": "2025-06-17T02:59:40.183-04:00", "updated_at": "2025-07-05T08:06:12.194-04:00", "avatar": "https://secure.gravatar.com/avatar/56fc521b61e56f438f60565be4e02375.jpg?s=512&d=https%3A%2F%2Fa.slack-edge.com%2Fdf10d%2Fimg%2Favatars%2Fava_0016-512.png", "custom_css": null}, {"id": 5289, "slack_id": "U07FMSV9P5H", "display_name": "Adarsh Gourab Mahalik", "bio": null, "projects_count": 0, "devlogs_count": 0, "votes_count": 0, "ships_count": 0, "projects": [], "coding_time_seconds": 88366, "coding_time_seconds_today": 0, "balance": "You need to have a pocket watcher badge to view this.", "badges": [], "created_at": "2025-06-17T02:59:40.947-04:00", "updated_at": "2025-07-03T19:35:08.420-04:00", "avatar": "https://avatars.slack-edge.com/2025-05-27/8946756927107_193896384b7e9988c007_original.jpg", "custom_css": null}, {"id": 5290, "slack_id": "U091B85D963", "display_name": "Harsh Dev", "bio": null, "projects_count": 0, "devlogs_count": 0, "votes_count": 0, "ships_count": 0, "projects": [], "coding_time_seconds": 56703, "coding_time_seconds_today": 0, "balance": "You need to have a pocket watcher badge to view this.", "badges": [], "created_at": "2025-06-17T03:00:27.456-04:00", "updated_at": "2025-07-03T21:54:43.935-04:00", "avatar": "https://secure.gravatar.com/avatar/399c0244acc00e552564f2580284cd27.jpg?s=512&d=https%3A%2F%2Fa.slack-edge.com%2Fdf10d%2Fimg%2Favatars%2Fava_0010-512.png", "custom_css": null}, {"id": 5291, "slack_id": "U08LJAT5RGX", "display_name": "Nayan", "bio": null, "projects_count": 2, "devlogs_count": 2, "votes_count": 1, "ships_count": 0, "projects": [{"id": 622, "title": "IDCON ", "devlogs_count": 2, "created_at": "2025-06-17T03:10:17.098-04:00"}, {"id": 644, "title": "SITE FOR TOPPINGS", "devlogs_count": 0, "created_at": "2025-06-17T04:01:15.074-04:00"}], "coding_time_seconds": 57506, "coding_time_seconds_today": 0, "balance": "You need to have a pocket watcher badge to view this.", "badges": [], "created_at": "2025-06-17T03:01:07.751-04:00", "updated_at": "2025-07-03T19:35:08.828-04:00", "avatar": "https://avatars.slack-edge.com/2025-04-06/8714758174740_fdd53a40c4183b429623_original.png", "custom_css": null}, {"id": 5292, "slack_id": "U07CL6W9CDR", "display_name": "Dikshant Pandey", "bio": null, "projects_count": 0, "devlogs_count": 0, "votes_count": 0, "ships_count": 0, "projects": [], "coding_time_seconds": 45207, "coding_time_seconds_today": 0, "balance": "You need to have a pocket watcher badge to view this.", "badges": [], "created_at": "2025-06-17T03:01:13.080-04:00", "updated_at": "2025-08-16T16:04:17.737-04:00", "avatar": "https://avatars.slack-edge.com/2024-07-17/7457136009408_4f568c9756f05007d945_original.jpg", "custom_css": null}, {"id": 5293, "slack_id": "U091KQ56DH9", "display_name": "Nika", "bio": null, "projects_count": 0, "devlogs_count": 0, "votes_count": 0, "ships_count": 0, "projects": [], "coding_time_seconds": 0, "coding_time_seconds_today": 0, "balance": "You need to have a pocket watcher badge to view this.", "badges": [], "created_at": "2025-06-17T03:03:02.236-04:00", "updated_at": "2025-07-06T20:06:29.983-04:00", "avatar": "https://secure.gravatar.com/avatar/49b032253776c446892d656ec2cfc945.jpg?s=512&d=https%3A%2F%2Fa.slack-edge.com%2Fdf10d%2Fimg%2Favatars%2Fava_0021-512.png", "custom_css": null}, {"id": 5294, "slack_id": "U091SLE1GH0", "display_name": "helloparthshah", "bio": null, "projects_count": 0, "devlogs_count": 0, "votes_count": 0, "ships_count": 0, "projects": [], "coding_time_seconds": 0, "coding_time_seconds_today": 0, "balance": "You need to have a pocket watcher badge to view this.", "badges": [], "created_at": "2025-06-17T03:03:04.219-04:00", "updated_at": "2025-07-03T19:35:09.363-04:00", "avatar": "https://secure.gravatar.com/avatar/ca5aa0db081bf35df894e4fb7047e8c6.jpg?s=512&d=https%3A%2F%2Fa.slack-edge.com%2Fdf10d%2Fimg%2Favatars%2Fava_0007-512.png", "custom_css": null}, {"id": 5295, "slack_id": "U09256NSZMF", "display_name": "Isaac", "bio": null, "projects_count": 0, "devlogs_count": 0, "votes_count": 0, "ships_count": 0, "projects": [], "coding_time_seconds": 7804, "coding_time_seconds_today": 0, "balance": "You need to have a pocket watcher badge to view this.", "badges": [], "created_at": "2025-06-17T03:03:27.624-04:00", "updated_at": "2025-07-07T14:24:56.257-04:00", "avatar": "https://secure.gravatar.com/avatar/97c839d1d48286080dcd245e3ffb2ea4.jpg?s=512&d=https%3A%2F%2Fa.slack-edge.com%2Fdf10d%2Fimg%2Favatars%2Fava_0026-512.png", "custom_css": null}, {"id": 5296, "slack_id": "U091KQ5F63D", "display_name": "Adam Mashaka", "bio": null, "projects_count": 0, "devlogs_count": 0, "votes_count": 0, "ships_count": 0, "projects": [], "coding_time_seconds": 0, "coding_time_seconds_today": 0, "balance": "You need to have a pocket watcher badge to view this.", "badges": [], "created_at": "2025-06-17T03:03:37.240-04:00", "updated_at": "2025-07-03T19:35:09.767-04:00", "avatar": "https://avatars.slack-edge.com/2025-06-17/9053838146211_8017079dd3ffa574c978_original.png", "custom_css": null}, {"id": 5297, "slack_id": "U091SA33FL2", "display_name": "Mukesh Kumar", "bio": null, "projects_count": 1, "devlogs_count": 1, "votes_count": 0, "ships_count": 0, "projects": [{"id": 1098, "title": "Portfolio", "devlogs_count": 1, "created_at": "2025-06-17T16:05:16.718-04:00"}], "coding_time_seconds": 4784, "coding_time_seconds_today": 0, "balance": "You need to have a pocket watcher badge to view this.", "badges": [], "created_at": "2025-06-17T03:03:45.530-04:00", "updated_at": "2025-07-03T19:35:10.083-04:00", "avatar": "https://avatars.slack-edge.com/2025-06-17/9060734028514_fa381c7ab9c779c0b522_original.jpg", "custom_css": null}, {"id": 5298, "slack_id": "U091T0BMVFW", "display_name": "f240516 Waleed Bin Nasir", "bio": null, "projects_count": 0, "devlogs_count": 0, "votes_count": 0, "ships_count": 0, "projects": [], "coding_time_seconds": 26221, "coding_time_seconds_today": 0, "balance": "You need to have a pocket watcher badge to view this.", "badges": [], "created_at": "2025-06-17T03:03:53.898-04:00", "updated_at": "2025-07-03T19:35:10.401-04:00", "avatar": "https://avatars.slack-edge.com/2025-06-17/9058918349509_609836888032ed8f8dcb_original.jpg", "custom_css": null}, {"id": 5299, "slack_id": "U08FUE56F50", "display_name": "Sophie", "bio": null, "projects_count": 0, "devlogs_count": 0, "votes_count": 0, "ships_count": 0, "projects": [], "coding_time_seconds": 0, "coding_time_seconds_today": 0, "balance": "You need to have a pocket watcher badge to view this.", "badges": [], "created_at": "2025-06-17T03:04:03.817-04:00", "updated_at": "2025-07-03T19:35:10.681-04:00", "avatar": "https://secure.gravatar.com/avatar/39db196142336709b13a2b45ff662a6e.jpg?s=512&d=https%3A%2F%2Fa.slack-edge.com%2Fdf10d%2Fimg%2Favatars%2Fava_0011-512.png", "custom_css": null}, {"id": 5300, "slack_id": "U092F1WKU7J", "display_name": "Rishi Sharma", "bio": null, "projects_count": 0, "devlogs_count": 0, "votes_count": 0, "ships_count": 0, "projects": [], "coding_time_seconds": 0, "coding_time_seconds_today": 0, "balance": "You need to have a pocket watcher badge to view this.", "badges": [], "created_at": "2025-06-17T03:04:26.497-04:00", "updated_at": "2025-07-03T19:35:10.941-04:00", "avatar": "https://secure.gravatar.com/avatar/07442b540e35bf052dbf4e86f131c4ee.jpg?s=512&d=https%3A%2F%2Fa.slack-edge.com%2Fdf10d%2Fimg%2Favatars%2Fava_0012-512.png", "custom_css": null}], "pagination": {"page": 265, "pages": 1192, "count": 23828, "items": 20}}