{"users": [{"id": 5301, "slack_id": "U07FX6K0RDX", "display_name": "Rajesh", "bio": null, "projects_count": 3, "devlogs_count": 9, "votes_count": 15, "ships_count": 1, "projects": [{"id": 3296, "title": "Markdown Editor", "devlogs_count": 1, "created_at": "2025-06-23T17:36:17.457-04:00"}, {"id": 6189, "title": "My Portfolio Website", "devlogs_count": 3, "created_at": "2025-07-11T07:00:01.408-04:00"}, {"id": 1157, "title": "README Pro - Github Profile Generator", "devlogs_count": 5, "created_at": "2025-06-17T18:51:14.011-04:00"}], "coding_time_seconds": 429265, "coding_time_seconds_today": 0, "balance": "You need to have a pocket watcher badge to view this.", "badges": [{"name": "Maiden Voyage", "text": "you shipped your first project! the journey begins...", "icon": "\ud83d\udea2"}], "created_at": "2025-06-17T03:04:27.983-04:00", "updated_at": "2025-09-10T22:53:48.559-04:00", "avatar": "https://secure.gravatar.com/avatar/1f0f9797fd1ffac0e763feb5a8f437b8.jpg?s=512&d=https%3A%2F%2Fa.slack-edge.com%2Fdf10d%2Fimg%2Favatars%2Fava_0012-512.png", "custom_css": null}, {"id": 5302, "slack_id": "U091SLNKE1G", "display_name": "test acc", "bio": "Hi this account was stolen by @felix I don't know whose this is but hi there", "projects_count": 0, "devlogs_count": 0, "votes_count": 0, "ships_count": 0, "projects": [], "coding_time_seconds": 0, "coding_time_seconds_today": 0, "balance": "You need to have a pocket watcher badge to view this.", "badges": [], "created_at": "2025-06-17T03:04:27.986-04:00", "updated_at": "2025-07-03T19:35:11.375-04:00", "avatar": "https://secure.gravatar.com/avatar/13437bb8b8ad31da7b1d2474a7c3bd33.jpg?s=512&d=https%3A%2F%2Fa.slack-edge.com%2Fdf10d%2Fimg%2Favatars%2Fava_0008-512.png", "custom_css": null}, {"id": 5303, "slack_id": "U09254LFZGR", "display_name": "Nick W", "bio": null, "projects_count": 0, "devlogs_count": 0, "votes_count": 0, "ships_count": 0, "projects": [], "coding_time_seconds": 26590, "coding_time_seconds_today": 0, "balance": "You need to have a pocket watcher badge to view this.", "badges": [], "created_at": "2025-06-17T03:05:11.847-04:00", "updated_at": "2025-07-03T21:54:44.795-04:00", "avatar": "https://secure.gravatar.com/avatar/9d069c9140b0c57b6d0a09cb2b19a18b.jpg?s=512&d=https%3A%2F%2Fa.slack-edge.com%2Fdf10d%2Fimg%2Favatars%2Fava_0005-512.png", "custom_css": null}, {"id": 5304, "slack_id": "U091JLQU0DU", "display_name": "Rex Hall", "bio": null, "projects_count": 0, "devlogs_count": 0, "votes_count": 0, "ships_count": 0, "projects": [], "coding_time_seconds": 126, "coding_time_seconds_today": 0, "balance": "You need to have a pocket watcher badge to view this.", "badges": [], "created_at": "2025-06-17T03:05:49.374-04:00", "updated_at": "2025-07-03T19:35:11.791-04:00", "avatar": "https://avatars.slack-edge.com/2025-06-17/9083087452672_8bff974553e9b4670a5a_original.png", "custom_css": null}, {"id": 5305, "slack_id": "U091SLLL4N6", "display_name": "nagendra", "bio": null, "projects_count": 0, "devlogs_count": 0, "votes_count": 0, "ships_count": 0, "projects": [], "coding_time_seconds": 0, "coding_time_seconds_today": 0, "balance": "You need to have a pocket watcher badge to view this.", "badges": [], "created_at": "2025-06-17T03:05:57.418-04:00", "updated_at": "2025-07-03T21:42:48.049-04:00", "avatar": "https://secure.gravatar.com/avatar/3f4985d7db0a0c77854a94705bf8a6b3.jpg?s=512&d=https%3A%2F%2Fa.slack-edge.com%2Fdf10d%2Fimg%2Favatars%2Fava_0007-512.png", "custom_css": null}, {"id": 5306, "slack_id": "U0887K5MLKF", "display_name": "Fullname", "bio": null, "projects_count": 0, "devlogs_count": 2, "votes_count": 37, "ships_count": 0, "projects": [], "coding_time_seconds": 1109692, "coding_time_seconds_today": 409, "balance": "You need to have a pocket watcher badge to view this.", "badges": [], "created_at": "2025-06-17T03:06:08.251-04:00", "updated_at": "2025-08-30T14:25:02.340-04:00", "avatar": "https://secure.gravatar.com/avatar/ecc9c54c9de77073129407db8fecd761.jpg?s=512&d=https%3A%2F%2Fa.slack-edge.com%2Fdf10d%2Fimg%2Favatars%2Fava_0018-512.png", "custom_css": null}, {"id": 5307, "slack_id": "U09256LR3FB", "display_name": "Aria", "bio": null, "projects_count": 1, "devlogs_count": 1, "votes_count": 0, "ships_count": 0, "projects": [{"id": 3691, "title": "DIY Arduino and ESP32 based DJ Controller", "devlogs_count": 1, "created_at": "2025-06-25T08:38:53.144-04:00"}], "coding_time_seconds": 9092, "coding_time_seconds_today": 0, "balance": "You need to have a pocket watcher badge to view this.", "badges": [], "created_at": "2025-06-17T03:06:17.214-04:00", "updated_at": "2025-07-03T19:35:12.451-04:00", "avatar": "https://secure.gravatar.com/avatar/2d1ec3cb763c8e80eaa16ab4434d5344.jpg?s=512&d=https%3A%2F%2Fa.slack-edge.com%2Fdf10d%2Fimg%2Favatars%2Fava_0024-512.png", "custom_css": null}, {"id": 5308, "slack_id": "U091T0A16PN", "display_name": "Piahn Wijaya", "bio": null, "projects_count": 0, "devlogs_count": 0, "votes_count": 0, "ships_count": 0, "projects": [], "coding_time_seconds": 0, "coding_time_seconds_today": 0, "balance": "You need to have a pocket watcher badge to view this.", "badges": [], "created_at": "2025-06-17T03:06:27.533-04:00", "updated_at": "2025-07-03T19:35:12.722-04:00", "avatar": "https://secure.gravatar.com/avatar/fcf10ea851302b389f1cbe4dd10460a3.jpg?s=512&d=https%3A%2F%2Fa.slack-edge.com%2Fdf10d%2Fimg%2Favatars%2Fava_0007-512.png", "custom_css": null}, {"id": 5309, "slack_id": "U092F2172EL", "display_name": "a", "bio": null, "projects_count": 0, "devlogs_count": 0, "votes_count": 0, "ships_count": 0, "projects": [], "coding_time_seconds": 17752, "coding_time_seconds_today": 0, "balance": "You need to have a pocket watcher badge to view this.", "badges": [], "created_at": "2025-06-17T03:06:31.487-04:00", "updated_at": "2025-07-25T13:03:23.428-04:00", "avatar": "https://secure.gravatar.com/avatar/2380c344085871652585ad83e46a084e.jpg?s=512&d=https%3A%2F%2Fa.slack-edge.com%2Fdf10d%2Fimg%2Favatars%2Fava_0007-512.png", "custom_css": null}, {"id": 5310, "slack_id": "U091B931D7H", "display_name": "Debojyoti Dey", "bio": null, "projects_count": 0, "devlogs_count": 0, "votes_count": 0, "ships_count": 0, "projects": [], "coding_time_seconds": 0, "coding_time_seconds_today": 0, "balance": "You need to have a pocket watcher badge to view this.", "badges": [], "created_at": "2025-06-17T03:06:48.178-04:00", "updated_at": "2025-07-03T19:35:13.259-04:00", "avatar": "https://secure.gravatar.com/avatar/42df8a6364dfbf22c72b253bcb78123b.jpg?s=512&d=https%3A%2F%2Fa.slack-edge.com%2Fdf10d%2Fimg%2Favatars%2Fava_0005-512.png", "custom_css": null}, {"id": 5311, "slack_id": "U092EV2TQ6L", "display_name": "pietro", "bio": null, "projects_count": 0, "devlogs_count": 0, "votes_count": 0, "ships_count": 0, "projects": [], "coding_time_seconds": 2372, "coding_time_seconds_today": 0, "balance": "You need to have a pocket watcher badge to view this.", "badges": [], "created_at": "2025-06-17T03:07:00.564-04:00", "updated_at": "2025-07-03T19:35:13.535-04:00", "avatar": "https://secure.gravatar.com/avatar/8882c93f85522656a936948cfa5b4a4a.jpg?s=512&d=https%3A%2F%2Fa.slack-edge.com%2Fdf10d%2Fimg%2Favatars%2Fava_0005-512.png", "custom_css": null}, {"id": 5312, "slack_id": "U092F27T9H6", "display_name": "Shreyans Jain", "bio": null, "projects_count": 1, "devlogs_count": 1, "votes_count": 0, "ships_count": 1, "projects": [{"id": 625, "title": "India Disease Surveillance", "devlogs_count": 1, "created_at": "2025-06-17T03:17:36.525-04:00"}], "coding_time_seconds": 44460, "coding_time_seconds_today": 0, "balance": "You need to have a pocket watcher badge to view this.", "badges": [{"name": "Maiden Voyage", "text": "you shipped your first project! the journey begins...", "icon": "\ud83d\udea2"}], "created_at": "2025-06-17T03:07:24.340-04:00", "updated_at": "2025-09-10T22:53:48.825-04:00", "avatar": "https://secure.gravatar.com/avatar/e99f70c59c6f01d1cf216413e578ebe1.jpg?s=512&d=https%3A%2F%2Fa.slack-edge.com%2Fdf10d%2Fimg%2Favatars%2Fava_0026-512.png", "custom_css": null}, {"id": 5313, "slack_id": "U091T0Y1352", "display_name": "Yuan Lin", "bio": null, "projects_count": 0, "devlogs_count": 0, "votes_count": 0, "ships_count": 0, "projects": [], "coding_time_seconds": 1356, "coding_time_seconds_today": 0, "balance": "You need to have a pocket watcher badge to view this.", "badges": [], "created_at": "2025-06-17T03:07:55.879-04:00", "updated_at": "2025-07-03T19:35:13.941-04:00", "avatar": "https://secure.gravatar.com/avatar/908e2ed466c4960162a4722f65346197.jpg?s=512&d=https%3A%2F%2Fa.slack-edge.com%2Fdf10d%2Fimg%2Favatars%2Fava_0020-512.png", "custom_css": null}, {"id": 5314, "slack_id": "U092F2AFR5E", "display_name": "Drona Bajaj", "bio": null, "projects_count": 0, "devlogs_count": 0, "votes_count": 0, "ships_count": 0, "projects": [], "coding_time_seconds": 7116, "coding_time_seconds_today": 0, "balance": "You need to have a pocket watcher badge to view this.", "badges": [], "created_at": "2025-06-17T03:07:58.363-04:00", "updated_at": "2025-07-03T19:35:14.212-04:00", "avatar": "https://secure.gravatar.com/avatar/5f2f3596d3eb127bda1413777f618586.jpg?s=512&d=https%3A%2F%2Fa.slack-edge.com%2Fdf10d%2Fimg%2Favatars%2Fava_0017-512.png", "custom_css": null}, {"id": 5315, "slack_id": "U091T0STZMJ", "display_name": "M Abrar Khalid", "bio": null, "projects_count": 0, "devlogs_count": 0, "votes_count": 0, "ships_count": 0, "projects": [], "coding_time_seconds": 0, "coding_time_seconds_today": 0, "balance": "You need to have a pocket watcher badge to view this.", "badges": [], "created_at": "2025-06-17T03:08:04.759-04:00", "updated_at": "2025-07-03T19:35:14.486-04:00", "avatar": "https://secure.gravatar.com/avatar/0dfbb82b341e18176c9416dd50235a35.jpg?s=512&d=https%3A%2F%2Fa.slack-edge.com%2Fdf10d%2Fimg%2Favatars%2Fava_0009-512.png", "custom_css": null}, {"id": 5316, "slack_id": "U091B9AQTM5", "display_name": "Paul", "bio": null, "projects_count": 1, "devlogs_count": 1, "votes_count": 7, "ships_count": 1, "projects": [{"id": 9955, "title": "zachlatta.com redesign", "devlogs_count": 1, "created_at": "2025-08-03T06:12:17.721-04:00"}], "coding_time_seconds": 3994, "coding_time_seconds_today": 0, "balance": "You need to have a pocket watcher badge to view this.", "badges": [{"name": "Maiden Voyage", "text": "you shipped your first project! the journey begins...", "icon": "\ud83d\udea2"}], "created_at": "2025-06-17T03:08:10.690-04:00", "updated_at": "2025-09-10T22:53:48.939-04:00", "avatar": "https://secure.gravatar.com/avatar/24aca6c4ba4918de478b7dcf4f76a149.jpg?s=512&d=https%3A%2F%2Fa.slack-edge.com%2Fdf10d%2Fimg%2Favatars%2Fava_0023-512.png", "custom_css": null}, {"id": 5317, "slack_id": "U07GKT8U25C", "display_name": "Sanjana", "bio": null, "projects_count": 1, "devlogs_count": 0, "votes_count": 0, "ships_count": 0, "projects": [{"id": 5837, "title": "A rider-app to manage the order deliveries", "devlogs_count": 0, "created_at": "2025-07-08T11:10:55.256-04:00"}], "coding_time_seconds": 305882, "coding_time_seconds_today": 0, "balance": "You need to have a pocket watcher badge to view this.", "badges": [], "created_at": "2025-06-17T03:08:17.557-04:00", "updated_at": "2025-07-08T10:59:25.810-04:00", "avatar": "https://secure.gravatar.com/avatar/e6e2f4ac3bd842e2bd8e2684bb778933.jpg?s=512&d=https%3A%2F%2Fa.slack-edge.com%2Fdf10d%2Fimg%2Favatars%2Fava_0002-512.png", "custom_css": null}, {"id": 5318, "slack_id": "U091KQV15KM", "display_name": "xeylou", "bio": null, "projects_count": 0, "devlogs_count": 0, "votes_count": 0, "ships_count": 0, "projects": [], "coding_time_seconds": 0, "coding_time_seconds_today": 0, "balance": "You need to have a pocket watcher badge to view this.", "badges": [], "created_at": "2025-06-17T03:08:30.026-04:00", "updated_at": "2025-07-03T19:35:15.166-04:00", "avatar": "https://avatars.slack-edge.com/2025-06-17/9060733954658_ba45862527b3c249292f_original.webp", "custom_css": null}, {"id": 5319, "slack_id": "U09257CJJ01", "display_name": "Kacper", "bio": null, "projects_count": 0, "devlogs_count": 0, "votes_count": 0, "ships_count": 0, "projects": [], "coding_time_seconds": 0, "coding_time_seconds_today": 0, "balance": "You need to have a pocket watcher badge to view this.", "badges": [], "created_at": "2025-06-17T03:08:36.636-04:00", "updated_at": "2025-07-05T08:06:14.071-04:00", "avatar": "https://secure.gravatar.com/avatar/13190f0a5aa2e039449651c5b5bbea43.jpg?s=512&d=https%3A%2F%2Fa.slack-edge.com%2Fdf10d%2Fimg%2Favatars%2Fava_0010-512.png", "custom_css": null}, {"id": 5320, "slack_id": "U091B924G6T", "display_name": "Bulat", "bio": null, "projects_count": 1, "devlogs_count": 0, "votes_count": 0, "ships_count": 0, "projects": [{"id": 5817, "title": "CMD Buddy", "devlogs_count": 0, "created_at": "2025-07-08T08:29:09.531-04:00"}], "coding_time_seconds": 94323, "coding_time_seconds_today": 0, "balance": "You need to have a pocket watcher badge to view this.", "badges": [], "created_at": "2025-06-17T03:08:44.914-04:00", "updated_at": "2025-07-03T19:35:15.573-04:00", "avatar": "https://secure.gravatar.com/avatar/fa5020108f96489b990138ba24d94e2c.jpg?s=512&d=https%3A%2F%2Fa.slack-edge.com%2Fdf10d%2Fimg%2Favatars%2Fava_0005-512.png", "custom_css": null}], "pagination": {"page": 266, "pages": 1192, "count": 23828, "items": 20}}