{"users": [{"id": 5321, "slack_id": "U091KQZ4H35", "display_name": "Prashant Tiwari", "bio": null, "projects_count": 0, "devlogs_count": 0, "votes_count": 0, "ships_count": 0, "projects": [], "coding_time_seconds": 0, "coding_time_seconds_today": 0, "balance": "You need to have a pocket watcher badge to view this.", "badges": [], "created_at": "2025-06-17T03:08:45.193-04:00", "updated_at": "2025-07-03T19:35:15.841-04:00", "avatar": "https://avatars.slack-edge.com/2025-06-17/9053978751062_68f0e2ca05173f45d72a_original.jpg", "custom_css": null}, {"id": 5322, "slack_id": "U076BLKB39Q", "display_name": "cooper", "bio": null, "projects_count": 1, "devlogs_count": 2, "votes_count": 0, "ships_count": 0, "projects": [{"id": 13407, "title": "Loop It", "devlogs_count": 2, "created_at": "2025-09-15T14:22:05.804-04:00"}], "coding_time_seconds": 301381, "coding_time_seconds_today": 0, "balance": "You need to have a pocket watcher badge to view this.", "badges": [], "created_at": "2025-06-17T03:08:54.477-04:00", "updated_at": "2025-09-15T12:21:22.617-04:00", "avatar": "https://avatars.slack-edge.com/2024-06-06/7232473848147_5d9795b3cd9ffc71fe88_original.jpg", "custom_css": null}, {"id": 5323, "slack_id": "U08NARUUE2F", "display_name": "shasank", "bio": null, "projects_count": 0, "devlogs_count": 0, "votes_count": 0, "ships_count": 0, "projects": [], "coding_time_seconds": 45163, "coding_time_seconds_today": 0, "balance": "You need to have a pocket watcher badge to view this.", "badges": [], "created_at": "2025-06-17T03:09:31.006-04:00", "updated_at": "2025-07-03T22:33:19.718-04:00", "avatar": "https://secure.gravatar.com/avatar/e562e34da2641250e91a3f9ef26211ac.jpg?s=512&d=https%3A%2F%2Fa.slack-edge.com%2Fdf10d%2Fimg%2Favatars%2Fava_0023-512.png", "custom_css": null}, {"id": 5324, "slack_id": "U091B90992B", "display_name": "Muhammad Luqman", "bio": null, "projects_count": 0, "devlogs_count": 0, "votes_count": 0, "ships_count": 0, "projects": [], "coding_time_seconds": 43668, "coding_time_seconds_today": 0, "balance": "You need to have a pocket watcher badge to view this.", "badges": [], "created_at": "2025-06-17T03:09:39.504-04:00", "updated_at": "2025-07-03T19:35:16.378-04:00", "avatar": "https://secure.gravatar.com/avatar/dac1a07a07f1187a2ec193da0074f360.jpg?s=512&d=https%3A%2F%2Fa.slack-edge.com%2Fdf10d%2Fimg%2Favatars%2Fava_0016-512.png", "custom_css": null}, {"id": 5325, "slack_id": "U08T8SMFFKQ", "display_name": "Zeba Zaman", "bio": null, "projects_count": 0, "devlogs_count": 0, "votes_count": 0, "ships_count": 0, "projects": [], "coding_time_seconds": 0, "coding_time_seconds_today": 0, "balance": "You need to have a pocket watcher badge to view this.", "badges": [], "created_at": "2025-06-17T03:09:44.447-04:00", "updated_at": "2025-07-03T19:35:16.655-04:00", "avatar": "https://avatars.slack-edge.com/2025-05-21/8931036129973_00d5308db13f80dd0d67_original.jpg", "custom_css": null}, {"id": 5326, "slack_id": "U092F2FN82C", "display_name": "Jagadheesh", "bio": "", "projects_count": 0, "devlogs_count": 26, "votes_count": 57, "ships_count": 0, "projects": [], "coding_time_seconds": 644769, "coding_time_seconds_today": 0, "balance": "You need to have a pocket watcher badge to view this.", "badges": [{"name": "Maiden Voyage", "text": "you shipped your first project! the journey begins...", "icon": "\ud83d\udea2"}], "created_at": "2025-06-17T03:09:54.353-04:00", "updated_at": "2025-09-10T22:53:49.210-04:00", "avatar": "https://secure.gravatar.com/avatar/97537773d260c35d153b74aa75b7b2d3.jpg?s=512&d=https%3A%2F%2Fa.slack-edge.com%2Fdf10d%2Fimg%2Favatars%2Fava_0026-512.png", "custom_css": null}, {"id": 5327, "slack_id": "U091SM2P1PU", "display_name": "Lucas Nijssen", "bio": null, "projects_count": 0, "devlogs_count": 0, "votes_count": 0, "ships_count": 0, "projects": [], "coding_time_seconds": 0, "coding_time_seconds_today": 0, "balance": "You need to have a pocket watcher badge to view this.", "badges": [], "created_at": "2025-06-17T03:10:26.072-04:00", "updated_at": "2025-07-07T14:25:02.550-04:00", "avatar": "https://secure.gravatar.com/avatar/431303f7a0b3cee199ad18a3ce976706.jpg?s=512&d=https%3A%2F%2Fa.slack-edge.com%2Fdf10d%2Fimg%2Favatars%2Fava_0000-512.png", "custom_css": null}, {"id": 5328, "slack_id": "U091KUPT79U", "display_name": "Reyes", "bio": null, "projects_count": 0, "devlogs_count": 0, "votes_count": 0, "ships_count": 0, "projects": [], "coding_time_seconds": 0, "coding_time_seconds_today": 0, "balance": "You need to have a pocket watcher badge to view this.", "badges": [], "created_at": "2025-06-17T03:10:27.130-04:00", "updated_at": "2025-07-03T21:42:49.817-04:00", "avatar": "https://secure.gravatar.com/avatar/338b4109a1a91bf0c5bc7d952138103f.jpg?s=512&d=https%3A%2F%2Fa.slack-edge.com%2Fdf10d%2Fimg%2Favatars%2Fava_0017-512.png", "custom_css": null}, {"id": 5329, "slack_id": "U09257S08JD", "display_name": "Asmita", "bio": null, "projects_count": 0, "devlogs_count": 0, "votes_count": 0, "ships_count": 0, "projects": [], "coding_time_seconds": 0, "coding_time_seconds_today": 0, "balance": "You need to have a pocket watcher badge to view this.", "badges": [], "created_at": "2025-06-17T03:11:08.680-04:00", "updated_at": "2025-07-03T19:35:17.469-04:00", "avatar": "https://secure.gravatar.com/avatar/c31afe4f9f83f578eb43bc010703b96e.jpg?s=512&d=https%3A%2F%2Fa.slack-edge.com%2Fdf10d%2Fimg%2Favatars%2Fava_0012-512.png", "custom_css": null}, {"id": 5330, "slack_id": "U091B9LH2J3", "display_name": "Vincent", "bio": null, "projects_count": 0, "devlogs_count": 0, "votes_count": 0, "ships_count": 0, "projects": [], "coding_time_seconds": 26253, "coding_time_seconds_today": 0, "balance": "You need to have a pocket watcher badge to view this.", "badges": [], "created_at": "2025-06-17T03:11:11.211-04:00", "updated_at": "2025-07-03T19:35:17.735-04:00", "avatar": "https://secure.gravatar.com/avatar/27cd85af8e500701db4cec8b6f38df4c.jpg?s=512&d=https%3A%2F%2Fa.slack-edge.com%2Fdf10d%2Fimg%2Favatars%2Fava_0007-512.png", "custom_css": null}, {"id": 5331, "slack_id": "U07B95KMZFA", "display_name": "nikita", "bio": null, "projects_count": 1, "devlogs_count": 9, "votes_count": 19, "ships_count": 1, "projects": [{"id": 3220, "title": "Personal Website", "devlogs_count": 9, "created_at": "2025-06-23T13:44:20.131-04:00"}], "coding_time_seconds": 43526, "coding_time_seconds_today": 0, "balance": "You need to have a pocket watcher badge to view this.", "badges": [{"name": "Maiden Voyage", "text": "you shipped your first project! the journey begins...", "icon": "\ud83d\udea2"}], "created_at": "2025-06-17T03:11:30.148-04:00", "updated_at": "2025-09-10T22:53:49.375-04:00", "avatar": "https://avatars.slack-edge.com/2024-08-29/7640799402470_8917c27d98e07fe13d71_original.jpg", "custom_css": null}, {"id": 5332, "slack_id": "U04FS7WJLSH", "display_name": "iPythonista", "bio": null, "projects_count": 4, "devlogs_count": 25, "votes_count": 121, "ships_count": 3, "projects": [{"id": 3750, "title": "Whatsapp AI Assistant", "devlogs_count": 7, "created_at": "2025-06-25T15:21:28.129-04:00"}, {"id": 4546, "title": "Anon Chat", "devlogs_count": 0, "created_at": "2025-06-30T15:02:53.928-04:00"}, {"id": 2917, "title": "AI based Journalist", "devlogs_count": 6, "created_at": "2025-06-22T13:00:02.212-04:00"}, {"id": 4805, "title": "Skibidi ++", "devlogs_count": 12, "created_at": "2025-07-01T16:17:38.522-04:00"}], "coding_time_seconds": 413463, "coding_time_seconds_today": 0, "balance": "You need to have a pocket watcher badge to view this.", "badges": [{"name": "Maiden Voyage", "text": "you shipped your first project! the journey begins...", "icon": "\ud83d\udea2"}, {"name": "Ballot Stuffer", "text": "vote 100 times.", "icon": "https://summer.hackclub.com/assets/i_voted-bf851b48.png"}], "created_at": "2025-06-17T03:11:31.016-04:00", "updated_at": "2025-09-10T22:53:49.410-04:00", "avatar": "https://secure.gravatar.com/avatar/1c917eea3979992ea8272ab2b25f6132.jpg?s=512&d=https%3A%2F%2Fa.slack-edge.com%2Fdf10d%2Fimg%2Favatars%2Fava_0021-512.png", "custom_css": null}, {"id": 5333, "slack_id": "U091QTM6N21", "display_name": "Siddhant Dosi", "bio": null, "projects_count": 0, "devlogs_count": 0, "votes_count": 0, "ships_count": 0, "projects": [], "coding_time_seconds": 0, "coding_time_seconds_today": 0, "balance": "You need to have a pocket watcher badge to view this.", "badges": [], "created_at": "2025-06-17T03:12:02.720-04:00", "updated_at": "2025-07-03T19:35:18.539-04:00", "avatar": "https://secure.gravatar.com/avatar/9413d558a26d9f387783eb0e684e67f1.jpg?s=512&d=https%3A%2F%2Fa.slack-edge.com%2Fdf10d%2Fimg%2Favatars%2Fava_0025-512.png", "custom_css": null}, {"id": 5334, "slack_id": "U091QTMQR0V", "display_name": "Tanishq Saxena", "bio": null, "projects_count": 0, "devlogs_count": 0, "votes_count": 0, "ships_count": 0, "projects": [], "coding_time_seconds": 0, "coding_time_seconds_today": 0, "balance": "You need to have a pocket watcher badge to view this.", "badges": [], "created_at": "2025-06-17T03:12:13.248-04:00", "updated_at": "2025-07-04T02:24:22.572-04:00", "avatar": "https://avatars.slack-edge.com/2025-06-17/9083114276352_4baea322025d4e8b3aee_original.png", "custom_css": null}, {"id": 5335, "slack_id": "U091QSZNBHT", "display_name": "Stayroh", "bio": null, "projects_count": 0, "devlogs_count": 0, "votes_count": 0, "ships_count": 0, "projects": [], "coding_time_seconds": 0, "coding_time_seconds_today": 0, "balance": "You need to have a pocket watcher badge to view this.", "badges": [], "created_at": "2025-06-17T03:12:25.662-04:00", "updated_at": "2025-07-03T19:35:18.947-04:00", "avatar": "https://secure.gravatar.com/avatar/c7132fa3fced58e893c26b268598d7e0.jpg?s=512&d=https%3A%2F%2Fa.slack-edge.com%2Fdf10d%2Fimg%2Favatars%2Fava_0014-512.png", "custom_css": null}, {"id": 5336, "slack_id": "U09257QU2D7", "display_name": "Vanessa", "bio": null, "projects_count": 0, "devlogs_count": 0, "votes_count": 0, "ships_count": 0, "projects": [], "coding_time_seconds": 0, "coding_time_seconds_today": 0, "balance": "You need to have a pocket watcher badge to view this.", "badges": [], "created_at": "2025-06-17T03:12:56.415-04:00", "updated_at": "2025-07-04T08:20:34.547-04:00", "avatar": "https://secure.gravatar.com/avatar/3185150db690f7b635d08f874b8e26af.jpg?s=512&d=https%3A%2F%2Fa.slack-edge.com%2Fdf10d%2Fimg%2Favatars%2Fava_0026-512.png", "custom_css": null}, {"id": 5337, "slack_id": "U092F31U2PJ", "display_name": "Wenhui Jing", "bio": null, "projects_count": 0, "devlogs_count": 0, "votes_count": 0, "ships_count": 0, "projects": [], "coding_time_seconds": 0, "coding_time_seconds_today": 0, "balance": "You need to have a pocket watcher badge to view this.", "badges": [], "created_at": "2025-06-17T03:13:09.210-04:00", "updated_at": "2025-07-03T19:35:19.345-04:00", "avatar": "https://secure.gravatar.com/avatar/115f3ae7cb78dbd24da7ee8751fcdfc7.jpg?s=512&d=https%3A%2F%2Fa.slack-edge.com%2Fdf10d%2Fimg%2Favatars%2Fava_0026-512.png", "custom_css": null}, {"id": 5338, "slack_id": "U091KTXRM0W", "display_name": "Zoro", "bio": null, "projects_count": 0, "devlogs_count": 0, "votes_count": 0, "ships_count": 0, "projects": [], "coding_time_seconds": 0, "coding_time_seconds_today": 0, "balance": "You need to have a pocket watcher badge to view this.", "badges": [], "created_at": "2025-06-17T03:13:28.223-04:00", "updated_at": "2025-07-04T02:24:22.917-04:00", "avatar": "https://secure.gravatar.com/avatar/f82c9b26b22adf78c191c2f358f75aa8.jpg?s=512&d=https%3A%2F%2Fa.slack-edge.com%2Fdf10d%2Fimg%2Favatars%2Fava_0010-512.png", "custom_css": null}, {"id": 5339, "slack_id": "U09257GT6HX", "display_name": "Helium Radon", "bio": null, "projects_count": 0, "devlogs_count": 0, "votes_count": 0, "ships_count": 0, "projects": [], "coding_time_seconds": 720041, "coding_time_seconds_today": 296, "balance": "You need to have a pocket watcher badge to view this.", "badges": [], "created_at": "2025-06-17T03:13:49.832-04:00", "updated_at": "2025-07-03T19:35:19.745-04:00", "avatar": "https://secure.gravatar.com/avatar/d09bfcd97f2fc504b06e32c219881a5f.jpg?s=512&d=https%3A%2F%2Fa.slack-edge.com%2Fdf10d%2Fimg%2Favatars%2Fava_0021-512.png", "custom_css": null}, {"id": 5340, "slack_id": "U09257Y5LNM", "display_name": "Alex", "bio": null, "projects_count": 0, "devlogs_count": 0, "votes_count": 0, "ships_count": 0, "projects": [], "coding_time_seconds": 0, "coding_time_seconds_today": 0, "balance": "You need to have a pocket watcher badge to view this.", "badges": [], "created_at": "2025-06-17T03:13:52.263-04:00", "updated_at": "2025-07-04T08:20:34.840-04:00", "avatar": "https://secure.gravatar.com/avatar/ca8f178ce97232bee6c3b70363befad6.jpg?s=512&d=https%3A%2F%2Fa.slack-edge.com%2Fdf10d%2Fimg%2Favatars%2Fava_0014-512.png", "custom_css": null}], "pagination": {"page": 267, "pages": 1192, "count": 23828, "items": 20}}