{"users": [{"id": 5341, "slack_id": "U091T1J6VC4", "display_name": "Manjiri", "bio": null, "projects_count": 0, "devlogs_count": 0, "votes_count": 0, "ships_count": 0, "projects": [], "coding_time_seconds": 0, "coding_time_seconds_today": 0, "balance": "You need to have a pocket watcher badge to view this.", "badges": [], "created_at": "2025-06-17T03:13:53.984-04:00", "updated_at": "2025-07-03T19:35:20.148-04:00", "avatar": "https://secure.gravatar.com/avatar/b33d509cc0a2c7ed758d481a240526fc.jpg?s=512&d=https%3A%2F%2Fa.slack-edge.com%2Fdf10d%2Fimg%2Favatars%2Fava_0024-512.png", "custom_css": null}, {"id": 5342, "slack_id": "U091B9Y8DGF", "display_name": "Juan Pablo Vanegas Moreno", "bio": null, "projects_count": 1, "devlogs_count": 0, "votes_count": 0, "ships_count": 0, "projects": [{"id": 640, "title": "Drift Agro 4.0", "devlogs_count": 0, "created_at": "2025-06-17T03:55:04.843-04:00"}], "coding_time_seconds": 45617, "coding_time_seconds_today": 0, "balance": "You need to have a pocket watcher badge to view this.", "badges": [], "created_at": "2025-06-17T03:14:32.329-04:00", "updated_at": "2025-07-03T19:35:20.408-04:00", "avatar": "https://secure.gravatar.com/avatar/5f344942f65296657e3c5efa44511398.jpg?s=512&d=https%3A%2F%2Fa.slack-edge.com%2Fdf10d%2Fimg%2Favatars%2Fava_0007-512.png", "custom_css": null}, {"id": 5343, "slack_id": "U091SN01UF4", "display_name": "Shubham", "bio": null, "projects_count": 0, "devlogs_count": 0, "votes_count": 0, "ships_count": 0, "projects": [], "coding_time_seconds": 0, "coding_time_seconds_today": 0, "balance": "You need to have a pocket watcher badge to view this.", "badges": [], "created_at": "2025-06-17T03:14:44.616-04:00", "updated_at": "2025-07-03T19:35:20.667-04:00", "avatar": "https://secure.gravatar.com/avatar/8a73491e8bfbb66641830c5644153b62.jpg?s=512&d=https%3A%2F%2Fa.slack-edge.com%2Fdf10d%2Fimg%2Favatars%2Fava_0009-512.png", "custom_css": null}, {"id": 5344, "slack_id": "U092584TLV7", "display_name": "TheBinaryCoder", "bio": null, "projects_count": 0, "devlogs_count": 0, "votes_count": 0, "ships_count": 0, "projects": [], "coding_time_seconds": 9829, "coding_time_seconds_today": 0, "balance": "You need to have a pocket watcher badge to view this.", "badges": [], "created_at": "2025-06-17T03:14:48.192-04:00", "updated_at": "2025-07-03T19:35:20.928-04:00", "avatar": "https://secure.gravatar.com/avatar/95c7246e0c9e9f41017281c8004d946f.jpg?s=512&d=https%3A%2F%2Fa.slack-edge.com%2Fdf10d%2Fimg%2Favatars%2Fava_0014-512.png", "custom_css": null}, {"id": 5345, "slack_id": "U092F32HCV6", "display_name": "CryptoSaiyan", "bio": null, "projects_count": 0, "devlogs_count": 3, "votes_count": 20, "ships_count": 0, "projects": [], "coding_time_seconds": 424637, "coding_time_seconds_today": 0, "balance": "You need to have a pocket watcher badge to view this.", "badges": [{"name": "Maiden Voyage", "text": "you shipped your first project! the journey begins...", "icon": "\ud83d\udea2"}], "created_at": "2025-06-17T03:14:54.582-04:00", "updated_at": "2025-09-10T22:53:49.781-04:00", "avatar": "https://secure.gravatar.com/avatar/936b94df9d24dddeefa442642109a6d3.jpg?s=512&d=https%3A%2F%2Fa.slack-edge.com%2Fdf10d%2Fimg%2Favatars%2Fava_0016-512.png", "custom_css": null}, {"id": 5346, "slack_id": "U08SQSAQ2N8", "display_name": "Luca K.", "bio": null, "projects_count": 6, "devlogs_count": 45, "votes_count": 102, "ships_count": 3, "projects": [{"id": 12163, "title": "Luca's Case Opening Simulator", "devlogs_count": 29, "created_at": "2025-08-23T21:43:27.174-04:00"}, {"id": 12740, "title": "MiniClock - Minimalist Clock App", "devlogs_count": 1, "created_at": "2025-09-01T21:08:36.648-04:00"}, {"id": 12979, "title": "Case Runner: Gold, Gold, Gold!", "devlogs_count": 0, "created_at": "2025-09-06T13:27:00.004-04:00"}, {"id": 13754, "title": "LUCA-OS", "devlogs_count": 0, "created_at": "2025-09-25T00:24:09.085-04:00"}, {"id": 8743, "title": "Luca's Hackclub Journey", "devlogs_count": 2, "created_at": "2025-07-29T05:14:04.770-04:00"}, {"id": 10209, "title": "Hey there, I'm Luca!", "devlogs_count": 8, "created_at": "2025-08-05T00:25:53.783-04:00"}], "coding_time_seconds": 166437, "coding_time_seconds_today": 0, "balance": "You need to have a pocket watcher badge to view this.", "badges": [{"name": "Maiden Voyage", "text": "you shipped your first project! the journey begins...", "icon": "\ud83d\udea2"}, {"name": "Ballot Stuffer", "text": "vote 100 times.", "icon": "https://summer.hackclub.com/assets/i_voted-bf851b48.png"}], "created_at": "2025-06-17T03:15:14.770-04:00", "updated_at": "2025-09-20T01:51:49.597-04:00", "avatar": "https://avatars.slack-edge.com/2025-08-15/9374688974353_28698d07b7edc549a3b0_original.png", "custom_css": null}, {"id": 5347, "slack_id": "U092585SZFT", "display_name": "Antoine", "bio": "I enjoy doing Minecraft related stuff.", "projects_count": 2, "devlogs_count": 5, "votes_count": 0, "ships_count": 0, "projects": [{"id": 1415, "title": "BetterParticles - Minecraft Java plugin", "devlogs_count": 4, "created_at": "2025-06-18T14:16:25.544-04:00"}, {"id": 6697, "title": "WAStudio Discord bot", "devlogs_count": 1, "created_at": "2025-07-15T07:46:45.511-04:00"}], "coding_time_seconds": 49452, "coding_time_seconds_today": 0, "balance": "You need to have a pocket watcher badge to view this.", "badges": [], "created_at": "2025-06-17T03:15:19.397-04:00", "updated_at": "2025-07-03T19:35:21.587-04:00", "avatar": "https://secure.gravatar.com/avatar/8cf615500e78f04de4f775c8771c7a04.jpg?s=512&d=https%3A%2F%2Fa.slack-edge.com%2Fdf10d%2Fimg%2Favatars%2Fava_0023-512.png", "custom_css": null}, {"id": 5348, "slack_id": "U091BA4SLPR", "display_name": "Vincenzo Greco", "bio": null, "projects_count": 0, "devlogs_count": 0, "votes_count": 0, "ships_count": 0, "projects": [], "coding_time_seconds": 0, "coding_time_seconds_today": 0, "balance": "You need to have a pocket watcher badge to view this.", "badges": [], "created_at": "2025-06-17T03:15:44.769-04:00", "updated_at": "2025-07-03T21:54:48.992-04:00", "avatar": "https://avatars.slack-edge.com/2025-06-17/9054012293014_0b4faafef7b7fba33a50_original.jpg", "custom_css": null}, {"id": 5349, "slack_id": "U091T1UN2JG", "display_name": "Dev Vijay", "bio": null, "projects_count": 0, "devlogs_count": 0, "votes_count": 0, "ships_count": 0, "projects": [], "coding_time_seconds": 0, "coding_time_seconds_today": 0, "balance": "You need to have a pocket watcher badge to view this.", "badges": [], "created_at": "2025-06-17T03:15:49.847-04:00", "updated_at": "2025-07-03T19:35:21.988-04:00", "avatar": "https://avatars.slack-edge.com/2025-06-17/9054012105382_203e8bae8e44206cfb68_original.png", "custom_css": null}, {"id": 5350, "slack_id": "U091SMPJNNN", "display_name": "Ibrahim Danjuma", "bio": null, "projects_count": 0, "devlogs_count": 0, "votes_count": 0, "ships_count": 0, "projects": [], "coding_time_seconds": 0, "coding_time_seconds_today": 0, "balance": "You need to have a pocket watcher badge to view this.", "badges": [], "created_at": "2025-06-17T03:16:11.390-04:00", "updated_at": "2025-07-03T21:42:51.255-04:00", "avatar": "https://secure.gravatar.com/avatar/eba36808430910f4e1d5506c3385f22a.jpg?s=512&d=https%3A%2F%2Fa.slack-edge.com%2Fdf10d%2Fimg%2Favatars%2Fava_0000-512.png", "custom_css": null}, {"id": 5351, "slack_id": "U082A3YRD1D", "display_name": "Karol28k", "bio": null, "projects_count": 1, "devlogs_count": 5, "votes_count": 0, "ships_count": 1, "projects": [{"id": 12855, "title": "TimeLoop Aircrafts", "devlogs_count": 5, "created_at": "2025-09-03T16:47:57.603-04:00"}], "coding_time_seconds": 221069, "coding_time_seconds_today": 1649, "balance": "You need to have a pocket watcher badge to view this.", "badges": [{"name": "Maiden Voyage", "text": "you shipped your first project! the journey begins...", "icon": "\ud83d\udea2"}], "created_at": "2025-06-17T03:16:15.877-04:00", "updated_at": "2025-09-10T22:53:49.943-04:00", "avatar": "https://secure.gravatar.com/avatar/0f46352f65d156cbfb12d3cbe622651f.jpg?s=512&d=https%3A%2F%2Fa.slack-edge.com%2Fdf10d%2Fimg%2Favatars%2Fava_0019-512.png", "custom_css": null}, {"id": 5352, "slack_id": "U091T20HCDA", "display_name": "\u30eb\u30c1", "bio": null, "projects_count": 0, "devlogs_count": 0, "votes_count": 0, "ships_count": 0, "projects": [], "coding_time_seconds": 342254, "coding_time_seconds_today": 2084, "balance": "You need to have a pocket watcher badge to view this.", "badges": [], "created_at": "2025-06-17T03:16:17.344-04:00", "updated_at": "2025-07-03T19:35:22.534-04:00", "avatar": "https://secure.gravatar.com/avatar/295f1b0be5c720bb593a855234eb9927.jpg?s=512&d=https%3A%2F%2Fa.slack-edge.com%2Fdf10d%2Fimg%2Favatars%2Fava_0016-512.png", "custom_css": null}, {"id": 5353, "slack_id": "U091SN6SWM8", "display_name": "Christopher Ambala", "bio": null, "projects_count": 0, "devlogs_count": 0, "votes_count": 0, "ships_count": 0, "projects": [], "coding_time_seconds": 42333, "coding_time_seconds_today": 0, "balance": "You need to have a pocket watcher badge to view this.", "badges": [], "created_at": "2025-06-17T03:16:51.229-04:00", "updated_at": "2025-07-06T08:05:54.756-04:00", "avatar": "https://secure.gravatar.com/avatar/8bf60999c1ed269473045d8cb8133199.jpg?s=512&d=https%3A%2F%2Fa.slack-edge.com%2Fdf10d%2Fimg%2Favatars%2Fava_0016-512.png", "custom_css": null}, {"id": 5354, "slack_id": "U091T25S5RA", "display_name": "Divya Dhar", "bio": null, "projects_count": 0, "devlogs_count": 0, "votes_count": 0, "ships_count": 0, "projects": [], "coding_time_seconds": 0, "coding_time_seconds_today": 0, "balance": "You need to have a pocket watcher badge to view this.", "badges": [], "created_at": "2025-06-17T03:17:23.445-04:00", "updated_at": "2025-07-03T19:35:22.941-04:00", "avatar": "https://avatars.slack-edge.com/2025-06-17/9083137400528_307f0416a268ea5c9811_original.png", "custom_css": null}, {"id": 5355, "slack_id": "U091SN4P0RY", "display_name": "Clemens", "bio": null, "projects_count": 0, "devlogs_count": 0, "votes_count": 0, "ships_count": 0, "projects": [], "coding_time_seconds": 0, "coding_time_seconds_today": 0, "balance": "You need to have a pocket watcher badge to view this.", "badges": [], "created_at": "2025-06-17T03:17:46.068-04:00", "updated_at": "2025-07-03T19:35:23.213-04:00", "avatar": "https://secure.gravatar.com/avatar/ef1bac61e31c4b5eb40c01f92072bf95.jpg?s=512&d=https%3A%2F%2Fa.slack-edge.com%2Fdf10d%2Fimg%2Favatars%2Fava_0017-512.png", "custom_css": null}, {"id": 5356, "slack_id": "U091L08CGSJ", "display_name": "Syed Arham", "bio": null, "projects_count": 0, "devlogs_count": 0, "votes_count": 0, "ships_count": 0, "projects": [], "coding_time_seconds": 0, "coding_time_seconds_today": 0, "balance": "You need to have a pocket watcher badge to view this.", "badges": [], "created_at": "2025-06-17T03:17:46.800-04:00", "updated_at": "2025-07-03T19:35:23.472-04:00", "avatar": "https://secure.gravatar.com/avatar/f2dfe4e52355803c84d7610bd465daa1.jpg?s=512&d=https%3A%2F%2Fa.slack-edge.com%2Fdf10d%2Fimg%2Favatars%2Fava_0003-512.png", "custom_css": null}, {"id": 5357, "slack_id": "U091L0BCS1L", "display_name": "Abhay Pandhare", "bio": null, "projects_count": 0, "devlogs_count": 0, "votes_count": 0, "ships_count": 0, "projects": [], "coding_time_seconds": 0, "coding_time_seconds_today": 0, "balance": "You need to have a pocket watcher badge to view this.", "badges": [], "created_at": "2025-06-17T03:17:58.997-04:00", "updated_at": "2025-07-03T19:35:23.736-04:00", "avatar": "https://avatars.slack-edge.com/2025-06-17/9061092280644_91d98ffc33354599edd0_original.jpg", "custom_css": null}, {"id": 5358, "slack_id": "U09258EREL9", "display_name": "Vsm", "bio": null, "projects_count": 0, "devlogs_count": 0, "votes_count": 0, "ships_count": 0, "projects": [], "coding_time_seconds": 0, "coding_time_seconds_today": 0, "balance": "You need to have a pocket watcher badge to view this.", "badges": [], "created_at": "2025-06-17T03:18:13.391-04:00", "updated_at": "2025-07-03T19:35:24.000-04:00", "avatar": "https://secure.gravatar.com/avatar/923faeea2a09c35253017d7418cd58de.jpg?s=512&d=https%3A%2F%2Fa.slack-edge.com%2Fdf10d%2Fimg%2Favatars%2Fava_0014-512.png", "custom_css": null}, {"id": 5359, "slack_id": "U091KUU9UT0", "display_name": "lomansh", "bio": null, "projects_count": 1, "devlogs_count": 0, "votes_count": 0, "ships_count": 0, "projects": [{"id": 1874, "title": "Strange Way", "devlogs_count": 0, "created_at": "2025-06-19T13:45:38.869-04:00"}], "coding_time_seconds": 14145, "coding_time_seconds_today": 0, "balance": "You need to have a pocket watcher badge to view this.", "badges": [], "created_at": "2025-06-17T03:18:15.440-04:00", "updated_at": "2025-07-03T19:35:24.273-04:00", "avatar": "https://avatars.slack-edge.com/2025-06-19/9059616017271_001f4aa598c5cbb205f7_original.png", "custom_css": null}, {"id": 5360, "slack_id": "U091PTUJWUC", "display_name": "prat_ishere", "bio": null, "projects_count": 0, "devlogs_count": 0, "votes_count": 0, "ships_count": 0, "projects": [], "coding_time_seconds": 0, "coding_time_seconds_today": 0, "balance": "You need to have a pocket watcher badge to view this.", "badges": [], "created_at": "2025-06-17T03:18:32.169-04:00", "updated_at": "2025-07-03T21:42:52.019-04:00", "avatar": "https://secure.gravatar.com/avatar/28040e4f8f96ad96059f621f36c1a58a.jpg?s=512&d=https%3A%2F%2Fa.slack-edge.com%2Fdf10d%2Fimg%2Favatars%2Fava_0013-512.png", "custom_css": null}], "pagination": {"page": 268, "pages": 1192, "count": 23828, "items": 20}}