{"users": [{"id": 5361, "slack_id": "U091SNHTPH8", "display_name": "ANUSH KUMAR R", "bio": null, "projects_count": 0, "devlogs_count": 0, "votes_count": 0, "ships_count": 0, "projects": [], "coding_time_seconds": 0, "coding_time_seconds_today": 0, "balance": "You need to have a pocket watcher badge to view this.", "badges": [], "created_at": "2025-06-17T03:18:51.174-04:00", "updated_at": "2025-07-03T21:42:52.149-04:00", "avatar": "https://avatars.slack-edge.com/2025-06-17/9045374578167_ffbeffff775086f4c3bf_original.png", "custom_css": null}, {"id": 5362, "slack_id": "U091T2DANCU", "display_name": "vrund patel", "bio": null, "projects_count": 0, "devlogs_count": 0, "votes_count": 0, "ships_count": 0, "projects": [], "coding_time_seconds": 0, "coding_time_seconds_today": 0, "balance": "You need to have a pocket watcher badge to view this.", "badges": [], "created_at": "2025-06-17T03:19:19.147-04:00", "updated_at": "2025-07-03T19:35:24.799-04:00", "avatar": "https://avatars.slack-edge.com/2025-06-17/9060780834914_00549c4c4e92907f6181_original.png", "custom_css": null}, {"id": 5363, "slack_id": "U091SNPB54J", "display_name": "asendjasni", "bio": null, "projects_count": 1, "devlogs_count": 0, "votes_count": 0, "ships_count": 0, "projects": [{"id": 797, "title": "PCGNN", "devlogs_count": 0, "created_at": "2025-06-17T08:29:49.107-04:00"}], "coding_time_seconds": 164158, "coding_time_seconds_today": 0, "balance": "You need to have a pocket watcher badge to view this.", "badges": [], "created_at": "2025-06-17T03:19:50.107-04:00", "updated_at": "2025-07-03T19:35:25.057-04:00", "avatar": "https://secure.gravatar.com/avatar/8864ed3976235f49e147b2fd536d19cc.jpg?s=512&d=https%3A%2F%2Fa.slack-edge.com%2Fdf10d%2Fimg%2Favatars%2Fava_0020-512.png", "custom_css": null}, {"id": 5364, "slack_id": "U092F3YGMA4", "display_name": "Vinayak", "bio": null, "projects_count": 0, "devlogs_count": 0, "votes_count": 0, "ships_count": 0, "projects": [], "coding_time_seconds": 1480, "coding_time_seconds_today": 0, "balance": "You need to have a pocket watcher badge to view this.", "badges": [], "created_at": "2025-06-17T03:19:56.641-04:00", "updated_at": "2025-07-03T19:35:25.337-04:00", "avatar": "https://secure.gravatar.com/avatar/4b53a768a72cdd84c4366b5a627d9df0.jpg?s=512&d=https%3A%2F%2Fa.slack-edge.com%2Fdf10d%2Fimg%2Favatars%2Fava_0018-512.png", "custom_css": null}, {"id": 5365, "slack_id": "U091KSF7E11", "display_name": "Aniket Pandey", "bio": null, "projects_count": 0, "devlogs_count": 0, "votes_count": 0, "ships_count": 0, "projects": [], "coding_time_seconds": 0, "coding_time_seconds_today": 0, "balance": "You need to have a pocket watcher badge to view this.", "badges": [], "created_at": "2025-06-17T03:19:58.216-04:00", "updated_at": "2025-07-03T19:35:25.602-04:00", "avatar": "https://secure.gravatar.com/avatar/117e2844f1d639186ea908f8363cf36a.jpg?s=512&d=https%3A%2F%2Fa.slack-edge.com%2Fdf10d%2Fimg%2Favatars%2Fava_0017-512.png", "custom_css": null}, {"id": 5366, "slack_id": "U09216C8DQ9", "display_name": "Sahil Bhalani", "bio": null, "projects_count": 0, "devlogs_count": 0, "votes_count": 0, "ships_count": 0, "projects": [], "coding_time_seconds": 440450, "coding_time_seconds_today": 12673, "balance": "You need to have a pocket watcher badge to view this.", "badges": [], "created_at": "2025-06-17T03:20:00.718-04:00", "updated_at": "2025-07-03T19:35:25.884-04:00", "avatar": "https://avatars.slack-edge.com/2025-06-16/9057188974548_0633b123f0d456d58eb2_original.jpg", "custom_css": null}, {"id": 5367, "slack_id": "U083KFLV7A4", "display_name": "Sudarshan", "bio": null, "projects_count": 0, "devlogs_count": 0, "votes_count": 0, "ships_count": 0, "projects": [], "coding_time_seconds": 89917, "coding_time_seconds_today": 0, "balance": "You need to have a pocket watcher badge to view this.", "badges": [], "created_at": "2025-06-17T03:20:21.741-04:00", "updated_at": "2025-08-26T12:06:53.111-04:00", "avatar": "https://secure.gravatar.com/avatar/95151f225c1770b3f9cc297448fca44a.jpg?s=512&d=https%3A%2F%2Fa.slack-edge.com%2Fdf10d%2Fimg%2Favatars%2Fava_0014-512.png", "custom_css": null}, {"id": 5368, "slack_id": "U09258RUVUH", "display_name": "Jos\u00e9 Luis Giraldo V\u00e1squez", "bio": null, "projects_count": 0, "devlogs_count": 0, "votes_count": 0, "ships_count": 0, "projects": [], "coding_time_seconds": 17524, "coding_time_seconds_today": 0, "balance": "You need to have a pocket watcher badge to view this.", "badges": [], "created_at": "2025-06-17T03:21:06.258-04:00", "updated_at": "2025-07-03T19:35:26.440-04:00", "avatar": "https://avatars.slack-edge.com/2025-06-17/9053918732339_c05ee2d70082016f9a79_original.jpg", "custom_css": null}, {"id": 5369, "slack_id": "U091SNYUGQJ", "display_name": "Kartikey Singhal", "bio": null, "projects_count": 0, "devlogs_count": 0, "votes_count": 0, "ships_count": 0, "projects": [], "coding_time_seconds": 88061, "coding_time_seconds_today": 0, "balance": "You need to have a pocket watcher badge to view this.", "badges": [], "created_at": "2025-06-17T03:21:26.463-04:00", "updated_at": "2025-07-03T19:35:26.710-04:00", "avatar": "https://avatars.slack-edge.com/2025-06-17/9083154377776_6de1d33f2b623337e59d_original.png", "custom_css": null}, {"id": 5370, "slack_id": "U091SNWFWR0", "display_name": "Suhas L", "bio": null, "projects_count": 0, "devlogs_count": 0, "votes_count": 0, "ships_count": 0, "projects": [], "coding_time_seconds": 0, "coding_time_seconds_today": 0, "balance": "You need to have a pocket watcher badge to view this.", "badges": [], "created_at": "2025-06-17T03:21:30.529-04:00", "updated_at": "2025-07-03T19:35:26.982-04:00", "avatar": "https://secure.gravatar.com/avatar/91862e18bfdb164e6514dc198bcb4b29.jpg?s=512&d=https%3A%2F%2Fa.slack-edge.com%2Fdf10d%2Fimg%2Favatars%2Fava_0013-512.png", "custom_css": null}, {"id": 5371, "slack_id": "U092590RQ0H", "display_name": "ANKITA ANANT", "bio": null, "projects_count": 0, "devlogs_count": 0, "votes_count": 0, "ships_count": 0, "projects": [], "coding_time_seconds": 0, "coding_time_seconds_today": 0, "balance": "You need to have a pocket watcher badge to view this.", "badges": [], "created_at": "2025-06-17T03:21:32.912-04:00", "updated_at": "2025-07-03T19:35:27.247-04:00", "avatar": "https://avatars.slack-edge.com/2025-06-17/9053919794179_9bb83138f375de510854_original.jpg", "custom_css": null}, {"id": 5372, "slack_id": "U084TEKPA11", "display_name": "justin", "bio": null, "projects_count": 1, "devlogs_count": 12, "votes_count": 4, "ships_count": 0, "projects": [{"id": 1767, "title": "Helios", "devlogs_count": 12, "created_at": "2025-06-19T07:48:51.721-04:00"}], "coding_time_seconds": 368513, "coding_time_seconds_today": 0, "balance": "You need to have a pocket watcher badge to view this.", "badges": [], "created_at": "2025-06-17T03:21:34.211-04:00", "updated_at": "2025-09-12T04:43:38.595-04:00", "avatar": "https://secure.gravatar.com/avatar/142e1bd7e8e9c8c8b3d8d536fd38b992.jpg?s=512&d=https%3A%2F%2Fa.slack-edge.com%2Fdf10d%2Fimg%2Favatars%2Fava_0017-512.png", "custom_css": null}, {"id": 5373, "slack_id": "U091T2GK7N0", "display_name": "Om Prakash Panda", "bio": null, "projects_count": 0, "devlogs_count": 0, "votes_count": 0, "ships_count": 0, "projects": [], "coding_time_seconds": 0, "coding_time_seconds_today": 0, "balance": "You need to have a pocket watcher badge to view this.", "badges": [], "created_at": "2025-06-17T03:23:58.830-04:00", "updated_at": "2025-07-03T21:42:53.034-04:00", "avatar": "https://secure.gravatar.com/avatar/0ce0432eb7c6c56b597f1ff42e703934.jpg?s=512&d=https%3A%2F%2Fa.slack-edge.com%2Fdf10d%2Fimg%2Favatars%2Fava_0024-512.png", "custom_css": null}, {"id": 5374, "slack_id": "U091L12S4DU", "display_name": "Shraddha", "bio": null, "projects_count": 0, "devlogs_count": 0, "votes_count": 0, "ships_count": 0, "projects": [], "coding_time_seconds": 0, "coding_time_seconds_today": 0, "balance": "You need to have a pocket watcher badge to view this.", "badges": [], "created_at": "2025-06-17T03:24:11.159-04:00", "updated_at": "2025-07-03T19:35:27.937-04:00", "avatar": "https://avatars.slack-edge.com/2025-06-17/9054318904243_ede95f2c2bb471f2460a_original.png", "custom_css": null}, {"id": 5375, "slack_id": "U09259HU0HX", "display_name": "Colin", "bio": null, "projects_count": 0, "devlogs_count": 0, "votes_count": 0, "ships_count": 0, "projects": [], "coding_time_seconds": 0, "coding_time_seconds_today": 0, "balance": "You need to have a pocket watcher badge to view this.", "badges": [], "created_at": "2025-06-17T03:24:12.324-04:00", "updated_at": "2025-07-03T19:35:28.221-04:00", "avatar": "https://secure.gravatar.com/avatar/30fe77f06aa6c8800f529ce1ec9a2143.jpg?s=512&d=https%3A%2F%2Fa.slack-edge.com%2Fdf10d%2Fimg%2Favatars%2Fava_0022-512.png", "custom_css": null}, {"id": 5376, "slack_id": "U092CV9NP0Q", "display_name": "yakut.dev", "bio": null, "projects_count": 0, "devlogs_count": 0, "votes_count": 0, "ships_count": 0, "projects": [], "coding_time_seconds": 0, "coding_time_seconds_today": 0, "balance": "You need to have a pocket watcher badge to view this.", "badges": [], "created_at": "2025-06-17T03:24:38.666-04:00", "updated_at": "2025-07-03T19:35:28.497-04:00", "avatar": "https://secure.gravatar.com/avatar/28f759e810fdb1a203f2e9e8812333c1.jpg?s=512&d=https%3A%2F%2Fa.slack-edge.com%2Fdf10d%2Fimg%2Favatars%2Fava_0012-512.png", "custom_css": null}, {"id": 5377, "slack_id": "U091GD09G9L", "display_name": "Garima Sangwan", "bio": null, "projects_count": 0, "devlogs_count": 0, "votes_count": 0, "ships_count": 0, "projects": [], "coding_time_seconds": 0, "coding_time_seconds_today": 0, "balance": "You need to have a pocket watcher badge to view this.", "badges": [], "created_at": "2025-06-17T03:25:00.747-04:00", "updated_at": "2025-07-03T19:35:28.758-04:00", "avatar": "https://avatars.slack-edge.com/2025-06-17/9061122882804_811c9cc8013d33706cd8_original.png", "custom_css": null}, {"id": 5378, "slack_id": "U08JP9D46TY", "display_name": "Hugo", "bio": "", "projects_count": 10, "devlogs_count": 21, "votes_count": 79, "ships_count": 6, "projects": [{"id": 2443, "title": "My Hackaccino website", "devlogs_count": 2, "created_at": "2025-06-21T03:34:51.902-04:00"}, {"id": 4768, "title": "HugoPad", "devlogs_count": 2, "created_at": "2025-07-01T12:31:14.196-04:00"}, {"id": 11112, "title": "Grub ", "devlogs_count": 0, "created_at": "2025-08-13T08:38:54.261-04:00"}, {"id": 12311, "title": "USB hub", "devlogs_count": 2, "created_at": "2025-08-25T12:57:36.751-04:00"}, {"id": 12555, "title": "Personal Website", "devlogs_count": 1, "created_at": "2025-08-29T12:40:59.224-04:00"}, {"id": 13291, "title": "ReviseHelp", "devlogs_count": 1, "created_at": "2025-09-13T14:08:41.358-04:00"}, {"id": 13404, "title": "School projects", "devlogs_count": 6, "created_at": "2025-09-15T13:10:17.587-04:00"}, {"id": 1428, "title": "My Swirl website", "devlogs_count": 4, "created_at": "2025-06-18T14:41:26.795-04:00"}, {"id": 4751, "title": "My Solder project", "devlogs_count": 2, "created_at": "2025-07-01T11:22:58.813-04:00"}, {"id": 2206, "title": "My Toppings website", "devlogs_count": 1, "created_at": "2025-06-20T12:38:39.425-04:00"}], "coding_time_seconds": 48157, "coding_time_seconds_today": 0, "balance": "You need to have a pocket watcher badge to view this.", "badges": [{"name": "Maiden Voyage", "text": "you shipped your first project! the journey begins...", "icon": "\ud83d\udea2"}], "created_at": "2025-06-17T03:25:02.236-04:00", "updated_at": "2025-09-10T22:53:50.751-04:00", "avatar": "https://secure.gravatar.com/avatar/64ae1f996064c9301226218785ccf545.jpg?s=512&d=https%3A%2F%2Fa.slack-edge.com%2Fdf10d%2Fimg%2Favatars%2Fava_0012-512.png", "custom_css": null}, {"id": 5379, "slack_id": "U0824CMEU1L", "display_name": "Moritz", "bio": null, "projects_count": 2, "devlogs_count": 15, "votes_count": 40, "ships_count": 2, "projects": [{"id": 8101, "title": "Mimir", "devlogs_count": 11, "created_at": "2025-07-24T16:05:34.117-04:00"}, {"id": 3087, "title": "Cloud Chamber Wallpaper", "devlogs_count": 4, "created_at": "2025-06-23T04:03:09.961-04:00"}], "coding_time_seconds": 282350, "coding_time_seconds_today": 0, "balance": "You need to have a pocket watcher badge to view this.", "badges": [{"name": "Maiden Voyage", "text": "you shipped your first project! the journey begins...", "icon": "\ud83d\udea2"}], "created_at": "2025-06-17T03:25:03.974-04:00", "updated_at": "2025-09-10T22:53:50.782-04:00", "avatar": "https://secure.gravatar.com/avatar/0bbcd45730fc6decc6959e5baef7a981.jpg?s=512&d=https%3A%2F%2Fa.slack-edge.com%2Fdf10d%2Fimg%2Favatars%2Fava_0018-512.png", "custom_css": null}, {"id": 5380, "slack_id": "U091QV4901K", "display_name": "Krishiv Saini", "bio": null, "projects_count": 0, "devlogs_count": 0, "votes_count": 0, "ships_count": 0, "projects": [], "coding_time_seconds": 0, "coding_time_seconds_today": 0, "balance": "You need to have a pocket watcher badge to view this.", "badges": [], "created_at": "2025-06-17T03:25:12.651-04:00", "updated_at": "2025-07-03T19:35:29.570-04:00", "avatar": "https://secure.gravatar.com/avatar/d0b394f289df3502f83513b5fe64eebf.jpg?s=512&d=https%3A%2F%2Fa.slack-edge.com%2Fdf10d%2Fimg%2Favatars%2Fava_0008-512.png", "custom_css": null}], "pagination": {"page": 269, "pages": 1192, "count": 23828, "items": 20}}