{"users": [{"id": 521, "slack_id": "U0820S64VEJ", "display_name": "Interested Investor", "bio": null, "projects_count": 2, "devlogs_count": 1, "votes_count": 0, "ships_count": 0, "projects": [{"id": 2931, "title": "Yet Another Simple Agent", "devlogs_count": 0, "created_at": "2025-06-22T13:49:32.175-04:00"}, {"id": 4463, "title": "Dispractical", "devlogs_count": 1, "created_at": "2025-06-30T04:29:59.423-04:00"}], "coding_time_seconds": 106065, "coding_time_seconds_today": 0, "balance": "You need to have a pocket watcher badge to view this.", "badges": [], "created_at": "2025-06-16T11:57:00.483-04:00", "updated_at": "2025-07-03T19:13:21.968-04:00", "avatar": "https://avatars.slack-edge.com/2024-11-26/8092594192516_d406390ede8b827b4185_original.png", "custom_css": null}, {"id": 522, "slack_id": "U08RMTJRDL5", "display_name": "Tanish M", "bio": null, "projects_count": 0, "devlogs_count": 7, "votes_count": 36, "ships_count": 0, "projects": [], "coding_time_seconds": 336526, "coding_time_seconds_today": 0, "balance": "You need to have a pocket watcher badge to view this.", "badges": [{"name": "Maiden Voyage", "text": "you shipped your first project! the journey begins...", "icon": "\ud83d\udea2"}], "created_at": "2025-06-16T11:57:04.654-04:00", "updated_at": "2025-09-10T22:51:23.327-04:00", "avatar": "https://secure.gravatar.com/avatar/5c1306c8cd079ad3aec6c28ca59c100c.jpg?s=512&d=https%3A%2F%2Fa.slack-edge.com%2Fdf10d%2Fimg%2Favatars%2Fava_0009-512.png", "custom_css": null}, {"id": 523, "slack_id": "U091G3Z9VBM", "display_name": "Irving", "bio": null, "projects_count": 0, "devlogs_count": 0, "votes_count": 0, "ships_count": 0, "projects": [], "coding_time_seconds": 0, "coding_time_seconds_today": 0, "balance": "You need to have a pocket watcher badge to view this.", "badges": [], "created_at": "2025-06-16T11:57:07.345-04:00", "updated_at": "2025-07-03T19:13:22.526-04:00", "avatar": "https://secure.gravatar.com/avatar/555774a51d942ad9c241996002bbca7b.jpg?s=512&d=https%3A%2F%2Fa.slack-edge.com%2Fdf10d%2Fimg%2Favatars%2Fava_0001-512.png", "custom_css": null}, {"id": 524, "slack_id": "U092BHHKJM6", "display_name": "atharv", "bio": null, "projects_count": 12, "devlogs_count": 12, "votes_count": 34, "ships_count": 12, "projects": [{"id": 5289, "title": "Penflow Blog Website", "devlogs_count": 1, "created_at": "2025-07-04T08:59:01.430-04:00"}, {"id": 8781, "title": "chef-buddy", "devlogs_count": 1, "created_at": "2025-07-29T08:57:12.054-04:00"}, {"id": 8784, "title": "quiz-champion-quest", "devlogs_count": 1, "created_at": "2025-07-29T09:01:47.988-04:00"}, {"id": 1727, "title": "Todo List ", "devlogs_count": 1, "created_at": "2025-06-19T05:31:30.168-04:00"}, {"id": 12488, "title": "AI Finance Manager", "devlogs_count": 1, "created_at": "2025-08-28T09:40:35.855-04:00"}, {"id": 8782, "title": "chef-buddy", "devlogs_count": 1, "created_at": "2025-07-29T08:57:12.114-04:00"}, {"id": 8541, "title": "Portfolio Website", "devlogs_count": 1, "created_at": "2025-07-28T04:42:52.129-04:00"}, {"id": 8543, "title": "TaskMaster", "devlogs_count": 1, "created_at": "2025-07-28T04:59:04.221-04:00"}, {"id": 8783, "title": "quiz-champion-quest", "devlogs_count": 1, "created_at": "2025-07-29T09:01:47.984-04:00"}, {"id": 8542, "title": "Weather App : sky-cue", "devlogs_count": 1, "created_at": "2025-07-28T04:51:38.690-04:00"}, {"id": 8779, "title": "Image-gallery", "devlogs_count": 1, "created_at": "2025-07-29T08:54:31.619-04:00"}, {"id": 8780, "title": "Image-gallery", "devlogs_count": 1, "created_at": "2025-07-29T08:54:31.629-04:00"}], "coding_time_seconds": 347139, "coding_time_seconds_today": 0, "balance": "You need to have a pocket watcher badge to view this.", "badges": [{"name": "Maiden Voyage", "text": "you shipped your first project! the journey begins...", "icon": "\ud83d\udea2"}], "created_at": "2025-06-16T11:57:12.473-04:00", "updated_at": "2025-09-10T22:51:23.458-04:00", "avatar": "https://secure.gravatar.com/avatar/4efb91ac811c672a8ab49251eb54ee8c.jpg?s=512&d=https%3A%2F%2Fa.slack-edge.com%2Fdf10d%2Fimg%2Favatars%2Fava_0007-512.png", "custom_css": null}, {"id": 525, "slack_id": "U092BHDH1NU", "display_name": "Jamie", "bio": null, "projects_count": 0, "devlogs_count": 0, "votes_count": 0, "ships_count": 0, "projects": [], "coding_time_seconds": 43792, "coding_time_seconds_today": 0, "balance": "You need to have a pocket watcher badge to view this.", "badges": [], "created_at": "2025-06-16T11:57:12.938-04:00", "updated_at": "2025-07-03T19:13:23.055-04:00", "avatar": "https://avatars.slack-edge.com/2025-06-16/9041837679511_8a89fcdd4c7cf8211f27_original.jpg", "custom_css": null}, {"id": 526, "slack_id": "U092BHF8T1N", "display_name": "Pontus Henriksson", "bio": null, "projects_count": 0, "devlogs_count": 0, "votes_count": 0, "ships_count": 0, "projects": [], "coding_time_seconds": 5264, "coding_time_seconds_today": 0, "balance": "You need to have a pocket watcher badge to view this.", "badges": [], "created_at": "2025-06-16T11:57:13.944-04:00", "updated_at": "2025-07-03T19:13:23.315-04:00", "avatar": "https://secure.gravatar.com/avatar/b186518e8b0560a8e091acc772d68446.jpg?s=512&d=https%3A%2F%2Fa.slack-edge.com%2Fdf10d%2Fimg%2Favatars%2Fava_0004-512.png", "custom_css": null}, {"id": 527, "slack_id": "U08FAMN2MAP", "display_name": "Tanish", "bio": null, "projects_count": 2, "devlogs_count": 9, "votes_count": 21, "ships_count": 2, "projects": [{"id": 11829, "title": "Corridor Quest", "devlogs_count": 1, "created_at": "2025-08-20T03:23:29.838-04:00"}, {"id": 219, "title": "Productivity Bro", "devlogs_count": 8, "created_at": "2025-06-16T15:46:45.513-04:00"}], "coding_time_seconds": 99565, "coding_time_seconds_today": 1091, "balance": "You need to have a pocket watcher badge to view this.", "badges": [{"name": "Maiden Voyage", "text": "you shipped your first project! the journey begins...", "icon": "\ud83d\udea2"}], "created_at": "2025-06-16T11:57:21.171-04:00", "updated_at": "2025-09-10T22:51:23.542-04:00", "avatar": "https://avatars.slack-edge.com/2025-06-17/9044934014727_8bf8886fde098ca164b4_original.jpg", "custom_css": null}, {"id": 528, "slack_id": "U091P391P18", "display_name": "Amit Chauhan", "bio": null, "projects_count": 0, "devlogs_count": 0, "votes_count": 0, "ships_count": 0, "projects": [], "coding_time_seconds": 14699, "coding_time_seconds_today": 0, "balance": "You need to have a pocket watcher badge to view this.", "badges": [], "created_at": "2025-06-16T11:57:25.779-04:00", "updated_at": "2025-07-03T19:13:23.864-04:00", "avatar": "https://avatars.slack-edge.com/2025-06-16/9050154867939_d713f30cd0147072b82a_original.jpg", "custom_css": null}, {"id": 529, "slack_id": "U0917PMCCH5", "display_name": "Derek", "bio": null, "projects_count": 0, "devlogs_count": 0, "votes_count": 0, "ships_count": 0, "projects": [], "coding_time_seconds": 5023, "coding_time_seconds_today": 0, "balance": "You need to have a pocket watcher badge to view this.", "badges": [], "created_at": "2025-06-16T11:57:25.835-04:00", "updated_at": "2025-07-03T19:13:24.133-04:00", "avatar": "https://secure.gravatar.com/avatar/25f81da8769fed2158074fd23527b204.jpg?s=512&d=https%3A%2F%2Fa.slack-edge.com%2Fdf10d%2Fimg%2Favatars%2Fava_0004-512.png", "custom_css": null}, {"id": 530, "slack_id": "U091P2ZALLA", "display_name": "Artem Malikov", "bio": null, "projects_count": 0, "devlogs_count": 0, "votes_count": 0, "ships_count": 0, "projects": [], "coding_time_seconds": 301718, "coding_time_seconds_today": 357, "balance": "You need to have a pocket watcher badge to view this.", "badges": [], "created_at": "2025-06-16T11:57:30.243-04:00", "updated_at": "2025-07-03T19:13:24.411-04:00", "avatar": "https://secure.gravatar.com/avatar/c841017c55fc27d3a1b6607f19b570bd.jpg?s=512&d=https%3A%2F%2Fa.slack-edge.com%2Fdf10d%2Fimg%2Favatars%2Fava_0024-512.png", "custom_css": null}, {"id": 531, "slack_id": "U091P2WUQ1Y", "display_name": "Chakrapani", "bio": null, "projects_count": 0, "devlogs_count": 0, "votes_count": 0, "ships_count": 0, "projects": [], "coding_time_seconds": 0, "coding_time_seconds_today": 0, "balance": "You need to have a pocket watcher badge to view this.", "badges": [], "created_at": "2025-06-16T11:57:34.440-04:00", "updated_at": "2025-07-03T19:13:24.696-04:00", "avatar": "https://avatars.slack-edge.com/2025-06-16/9055406016949_07578a72e3379610b72b_original.jpg", "custom_css": null}, {"id": 532, "slack_id": "U0921L4CW3B", "display_name": "Gonter Armin", "bio": null, "projects_count": 0, "devlogs_count": 0, "votes_count": 0, "ships_count": 0, "projects": [], "coding_time_seconds": 6984, "coding_time_seconds_today": 120, "balance": "You need to have a pocket watcher badge to view this.", "badges": [], "created_at": "2025-06-16T11:57:39.293-04:00", "updated_at": "2025-07-03T19:13:24.963-04:00", "avatar": "https://secure.gravatar.com/avatar/ed10cf2697162dd066cc194d909cb066.jpg?s=512&d=https%3A%2F%2Fa.slack-edge.com%2Fdf10d%2Fimg%2Favatars%2Fava_0011-512.png", "custom_css": null}, {"id": 533, "slack_id": "U0824EWFJLS", "display_name": "Jaku", "bio": null, "projects_count": 4, "devlogs_count": 35, "votes_count": 63, "ships_count": 3, "projects": [{"id": 8740, "title": "Systematic", "devlogs_count": 10, "created_at": "2025-07-29T04:49:45.311-04:00"}, {"id": 7010, "title": "HackCLI", "devlogs_count": 21, "created_at": "2025-07-18T07:53:57.409-04:00"}, {"id": 7133, "title": "StatusCLI", "devlogs_count": 2, "created_at": "2025-07-19T10:35:22.656-04:00"}, {"id": 8016, "title": "StatusCLI-js", "devlogs_count": 2, "created_at": "2025-07-24T03:38:24.942-04:00"}], "coding_time_seconds": 752490, "coding_time_seconds_today": 0, "balance": "You need to have a pocket watcher badge to view this.", "badges": [{"name": "Maiden Voyage", "text": "you shipped your first project! the journey begins...", "icon": "\ud83d\udea2"}], "created_at": "2025-06-16T11:57:40.187-04:00", "updated_at": "2025-09-10T22:51:23.714-04:00", "avatar": "https://avatars.slack-edge.com/2024-11-22/8095684356400_525b7c8978ecb3ac725c_original.jpg", "custom_css": null}, {"id": 534, "slack_id": "U07F7H570TC", "display_name": "Nonop", "bio": null, "projects_count": 1, "devlogs_count": 1, "votes_count": 0, "ships_count": 1, "projects": [{"id": 1313, "title": "ClickToLens", "devlogs_count": 1, "created_at": "2025-06-18T07:52:23.249-04:00"}], "coding_time_seconds": 3905, "coding_time_seconds_today": 0, "balance": "You need to have a pocket watcher badge to view this.", "badges": [{"name": "Maiden Voyage", "text": "you shipped your first project! the journey begins...", "icon": "\ud83d\udea2"}], "created_at": "2025-06-16T11:57:42.679-04:00", "updated_at": "2025-09-10T22:51:23.742-04:00", "avatar": "https://secure.gravatar.com/avatar/e7992346ffaa1cb038bf9d20142bc866.jpg?s=512&d=https%3A%2F%2Fa.slack-edge.com%2Fdf10d%2Fimg%2Favatars%2Fava_0007-512.png", "custom_css": null}, {"id": 535, "slack_id": "U08NCJDJEE4", "display_name": "Ethan Hawksley", "bio": null, "projects_count": 0, "devlogs_count": 0, "votes_count": 0, "ships_count": 0, "projects": [], "coding_time_seconds": 90540, "coding_time_seconds_today": 0, "balance": "You need to have a pocket watcher badge to view this.", "badges": [], "created_at": "2025-06-16T11:57:42.982-04:00", "updated_at": "2025-08-21T09:25:44.862-04:00", "avatar": "https://avatars.slack-edge.com/2025-05-03/8845549387106_89927692da002f358eb8_original.png", "custom_css": null}, {"id": 536, "slack_id": "U091MA2MWE9", "display_name": "jarvisMonke", "bio": null, "projects_count": 2, "devlogs_count": 1, "votes_count": 0, "ships_count": 0, "projects": [{"id": 1597, "title": "bashbot-kde", "devlogs_count": 1, "created_at": "2025-06-18T20:44:50.700-04:00"}, {"id": 2417, "title": "inner-voice-emg", "devlogs_count": 0, "created_at": "2025-06-21T01:24:50.946-04:00"}], "coding_time_seconds": 28373, "coding_time_seconds_today": 0, "balance": "You need to have a pocket watcher badge to view this.", "badges": [], "created_at": "2025-06-16T11:57:44.019-04:00", "updated_at": "2025-07-03T19:13:26.079-04:00", "avatar": "https://avatars.slack-edge.com/2025-06-16/9041866206871_5491454421439fa838f4_original.png", "custom_css": null}, {"id": 537, "slack_id": "U07BLJ1MBEE", "display_name": "Leo", "bio": null, "projects_count": 2, "devlogs_count": 2, "votes_count": 6, "ships_count": 2, "projects": [{"id": 11047, "title": "Chat with your Laundry: LaundryConnect MCP", "devlogs_count": 1, "created_at": "2025-08-12T17:44:40.017-04:00"}, {"id": 6146, "title": "Migadu MCP: Control your email with the power of AI", "devlogs_count": 1, "created_at": "2025-07-10T23:25:39.774-04:00"}], "coding_time_seconds": 104193, "coding_time_seconds_today": 0, "balance": "You need to have a pocket watcher badge to view this.", "badges": [{"name": "<%= admin_tool do %>", "text": "with great power comes great responsibility... and a ban hammer.", "icon": "\ud83d\udd28"}, {"name": "Maiden Voyage", "text": "you shipped your first project! the journey begins...", "icon": "\ud83d\udea2"}], "created_at": "2025-06-16T11:57:46.154-04:00", "updated_at": "2025-09-10T22:51:23.826-04:00", "avatar": "https://avatars.slack-edge.com/2025-08-06/9317833192226_78260131726b32c3e531_original.jpg", "custom_css": null}, {"id": 538, "slack_id": "U04KEK4TS72", "display_name": "acon", "bio": null, "projects_count": 0, "devlogs_count": 0, "votes_count": 0, "ships_count": 0, "projects": [], "coding_time_seconds": 1412, "coding_time_seconds_today": 0, "balance": "You need to have a pocket watcher badge to view this.", "badges": [], "created_at": "2025-06-16T11:57:54.335-04:00", "updated_at": "2025-08-20T20:01:50.223-04:00", "avatar": "https://avatars.slack-edge.com/2025-08-20/9397963307969_b259454886d8e7e78d3c_original.png", "custom_css": null}, {"id": 539, "slack_id": "U091G5JL82J", "display_name": "shurgbee", "bio": null, "projects_count": 4, "devlogs_count": 26, "votes_count": 45, "ships_count": 2, "projects": [{"id": 4388, "title": "Tapp Club", "devlogs_count": 1, "created_at": "2025-06-29T13:59:05.302-04:00"}, {"id": 4748, "title": "CatImageShop", "devlogs_count": 11, "created_at": "2025-07-01T11:01:01.819-04:00"}, {"id": 5614, "title": "Emoji Guess", "devlogs_count": 7, "created_at": "2025-07-06T15:07:28.910-04:00"}, {"id": 2726, "title": "Shurgbee Personal Website", "devlogs_count": 7, "created_at": "2025-06-21T21:28:15.570-04:00"}], "coding_time_seconds": 371958, "coding_time_seconds_today": 0, "balance": "You need to have a pocket watcher badge to view this.", "badges": [{"name": "Maiden Voyage", "text": "you shipped your first project! the journey begins...", "icon": "\ud83d\udea2"}, {"name": "Yapper I", "text": "Posted 10 comments on devlogs.", "icon": "\ud83d\udcac"}], "created_at": "2025-06-16T11:57:58.896-04:00", "updated_at": "2025-09-10T22:51:23.911-04:00", "avatar": "https://secure.gravatar.com/avatar/a7c7897d23f59e0b1e9b208d3a4c53c7.jpg?s=512&d=https%3A%2F%2Fa.slack-edge.com%2Fdf10d%2Fimg%2Favatars%2Fava_0018-512.png", "custom_css": null}, {"id": 540, "slack_id": "U0921L0H05P", "display_name": "Ommi", "bio": null, "projects_count": 0, "devlogs_count": 0, "votes_count": 0, "ships_count": 0, "projects": [], "coding_time_seconds": 0, "coding_time_seconds_today": 0, "balance": "You need to have a pocket watcher badge to view this.", "badges": [], "created_at": "2025-06-16T11:58:03.196-04:00", "updated_at": "2025-07-03T19:13:27.141-04:00", "avatar": "https://secure.gravatar.com/avatar/45393a35e0ab8f6841c1813e9ea103ed.jpg?s=512&d=https%3A%2F%2Fa.slack-edge.com%2Fdf10d%2Fimg%2Favatars%2Fava_0015-512.png", "custom_css": null}], "pagination": {"page": 27, "pages": 1192, "count": 23827, "items": 20}}