{"users": [{"id": 5381, "slack_id": "U09259M1LGZ", "display_name": "miffy", "bio": null, "projects_count": 0, "devlogs_count": 0, "votes_count": 0, "ships_count": 0, "projects": [], "coding_time_seconds": 7070, "coding_time_seconds_today": 0, "balance": "You need to have a pocket watcher badge to view this.", "badges": [], "created_at": "2025-06-17T03:25:15.812-04:00", "updated_at": "2025-07-03T19:35:29.833-04:00", "avatar": "https://secure.gravatar.com/avatar/ac4450ed643438f7454e8d7e50a47c1c.jpg?s=512&d=https%3A%2F%2Fa.slack-edge.com%2Fdf10d%2Fimg%2Favatars%2Fava_0010-512.png", "custom_css": null}, {"id": 5382, "slack_id": "U091KT903BM", "display_name": "Arshdev Singh", "bio": null, "projects_count": 0, "devlogs_count": 0, "votes_count": 0, "ships_count": 0, "projects": [], "coding_time_seconds": 226418, "coding_time_seconds_today": 0, "balance": "You need to have a pocket watcher badge to view this.", "badges": [], "created_at": "2025-06-17T03:25:17.890-04:00", "updated_at": "2025-07-03T19:35:30.095-04:00", "avatar": "https://avatars.slack-edge.com/2025-06-17/9060807215714_685eca8ea0c81fb620fb_original.jpg", "custom_css": null}, {"id": 5383, "slack_id": "U091SPD7C6N", "display_name": "Math\u00e9o", "bio": null, "projects_count": 0, "devlogs_count": 0, "votes_count": 0, "ships_count": 0, "projects": [], "coding_time_seconds": 0, "coding_time_seconds_today": 0, "balance": "You need to have a pocket watcher badge to view this.", "badges": [], "created_at": "2025-06-17T03:25:37.959-04:00", "updated_at": "2025-07-03T19:35:30.421-04:00", "avatar": "https://secure.gravatar.com/avatar/016dc20cdb2d30ea78f3d04e95cb1ae6.jpg?s=512&d=https%3A%2F%2Fa.slack-edge.com%2Fdf10d%2Fimg%2Favatars%2Fava_0017-512.png", "custom_css": null}, {"id": 5384, "slack_id": "U091SPAEBK4", "display_name": "Viraj_bhanage", "bio": null, "projects_count": 0, "devlogs_count": 0, "votes_count": 0, "ships_count": 0, "projects": [], "coding_time_seconds": 18087, "coding_time_seconds_today": 0, "balance": "You need to have a pocket watcher badge to view this.", "badges": [], "created_at": "2025-06-17T03:25:49.932-04:00", "updated_at": "2025-07-03T19:35:30.751-04:00", "avatar": "https://secure.gravatar.com/avatar/8bdc13fb5ae0ce2ac1589e982bbdc1cc.jpg?s=512&d=https%3A%2F%2Fa.slack-edge.com%2Fdf10d%2Fimg%2Favatars%2Fava_0003-512.png", "custom_css": null}, {"id": 5385, "slack_id": "U07PVJ5QZ33", "display_name": "akki2602abcd", "bio": null, "projects_count": 0, "devlogs_count": 0, "votes_count": 0, "ships_count": 0, "projects": [], "coding_time_seconds": 924, "coding_time_seconds_today": 0, "balance": "You need to have a pocket watcher badge to view this.", "badges": [], "created_at": "2025-06-17T03:26:57.731-04:00", "updated_at": "2025-07-03T19:35:31.058-04:00", "avatar": "https://avatars.slack-edge.com/2024-11-20/8081078306592_f6984fb2866c93dc978a_original.jpg", "custom_css": null}, {"id": 5386, "slack_id": "U091T3FFUSG", "display_name": "Dylan", "bio": null, "projects_count": 0, "devlogs_count": 0, "votes_count": 0, "ships_count": 0, "projects": [], "coding_time_seconds": 0, "coding_time_seconds_today": 0, "balance": "You need to have a pocket watcher badge to view this.", "badges": [], "created_at": "2025-06-17T03:27:10.098-04:00", "updated_at": "2025-07-03T19:35:31.450-04:00", "avatar": "https://avatars.slack-edge.com/2025-06-17/9053946160707_d1cc75d6bf1305a8edd6_original.png", "custom_css": null}, {"id": 5387, "slack_id": "U092F4UR0C8", "display_name": "Kaushik Mandal", "bio": null, "projects_count": 0, "devlogs_count": 0, "votes_count": 0, "ships_count": 0, "projects": [], "coding_time_seconds": 0, "coding_time_seconds_today": 0, "balance": "You need to have a pocket watcher badge to view this.", "badges": [], "created_at": "2025-06-17T03:28:05.410-04:00", "updated_at": "2025-07-03T19:35:31.765-04:00", "avatar": "https://avatars.slack-edge.com/2025-06-17/9053950224259_6aff094f97f3d0ec604a_original.webp", "custom_css": null}, {"id": 5388, "slack_id": "U09259QGHCH", "display_name": "Tom Siouan", "bio": null, "projects_count": 0, "devlogs_count": 0, "votes_count": 0, "ships_count": 0, "projects": [], "coding_time_seconds": 267560, "coding_time_seconds_today": 0, "balance": "You need to have a pocket watcher badge to view this.", "badges": [], "created_at": "2025-06-17T03:28:09.851-04:00", "updated_at": "2025-07-03T19:35:32.077-04:00", "avatar": "https://secure.gravatar.com/avatar/4f6b06c2943528f0befe59c25a0bd07b.jpg?s=512&d=https%3A%2F%2Fa.slack-edge.com%2Fdf10d%2Fimg%2Favatars%2Fava_0014-512.png", "custom_css": null}, {"id": 5389, "slack_id": "U091L1LGGPQ", "display_name": "Riddhi Ghate", "bio": null, "projects_count": 0, "devlogs_count": 0, "votes_count": 0, "ships_count": 0, "projects": [], "coding_time_seconds": 0, "coding_time_seconds_today": 0, "balance": "You need to have a pocket watcher badge to view this.", "badges": [], "created_at": "2025-06-17T03:28:16.642-04:00", "updated_at": "2025-07-03T19:35:32.407-04:00", "avatar": "https://avatars.slack-edge.com/2025-06-17/9059028940389_213926cdd0e523664b55_original.png", "custom_css": null}, {"id": 5390, "slack_id": "U091T3J251S", "display_name": "Sam", "bio": null, "projects_count": 0, "devlogs_count": 0, "votes_count": 0, "ships_count": 0, "projects": [], "coding_time_seconds": 82627, "coding_time_seconds_today": 0, "balance": "You need to have a pocket watcher badge to view this.", "badges": [], "created_at": "2025-06-17T03:28:23.077-04:00", "updated_at": "2025-07-03T19:35:32.724-04:00", "avatar": "https://secure.gravatar.com/avatar/c30b87bbe677796330e9518d91728050.jpg?s=512&d=https%3A%2F%2Fa.slack-edge.com%2Fdf10d%2Fimg%2Favatars%2Fava_0025-512.png", "custom_css": null}, {"id": 5391, "slack_id": "U091KTEMY67", "display_name": "Prajwal Doranala", "bio": null, "projects_count": 2, "devlogs_count": 1, "votes_count": 6, "ships_count": 0, "projects": [{"id": 7246, "title": "EngLang", "devlogs_count": 0, "created_at": "2025-07-20T09:08:34.956-04:00"}, {"id": 6016, "title": "TradeWarz", "devlogs_count": 1, "created_at": "2025-07-10T00:51:11.116-04:00"}], "coding_time_seconds": 37362, "coding_time_seconds_today": 0, "balance": "You need to have a pocket watcher badge to view this.", "badges": [], "created_at": "2025-06-17T03:28:28.170-04:00", "updated_at": "2025-07-09T13:46:51.935-04:00", "avatar": "https://avatars.slack-edge.com/2025-06-17/9073353932353_4d96a25371cd7c570349_original.jpg", "custom_css": null}, {"id": 5392, "slack_id": "U091R07V1J9", "display_name": "ARYAN ANAND", "bio": null, "projects_count": 0, "devlogs_count": 0, "votes_count": 0, "ships_count": 0, "projects": [], "coding_time_seconds": 0, "coding_time_seconds_today": 0, "balance": "You need to have a pocket watcher badge to view this.", "badges": [], "created_at": "2025-06-17T03:29:08.592-04:00", "updated_at": "2025-07-03T19:35:33.375-04:00", "avatar": "https://avatars.slack-edge.com/2025-06-17/9061141731316_e5a5018788a5c8d04724_original.jpg", "custom_css": null}, {"id": 5393, "slack_id": "U092F53DSSU", "display_name": "Marlier Thibaud (Biohazardyee)", "bio": null, "projects_count": 2, "devlogs_count": 0, "votes_count": 0, "ships_count": 0, "projects": [{"id": 707, "title": "Learning C#", "devlogs_count": 0, "created_at": "2025-06-17T05:57:18.742-04:00"}, {"id": 736, "title": "Moonshot Project", "devlogs_count": 0, "created_at": "2025-06-17T06:59:03.054-04:00"}], "coding_time_seconds": 57694, "coding_time_seconds_today": 0, "balance": "You need to have a pocket watcher badge to view this.", "badges": [], "created_at": "2025-06-17T03:29:16.235-04:00", "updated_at": "2025-07-03T21:54:52.076-04:00", "avatar": "https://secure.gravatar.com/avatar/05a798d21f4ec9e863ab5e926818ade8.jpg?s=512&d=https%3A%2F%2Fa.slack-edge.com%2Fdf10d%2Fimg%2Favatars%2Fava_0003-512.png", "custom_css": null}, {"id": 5394, "slack_id": "U091R0EHBJ9", "display_name": "SHIKHA", "bio": null, "projects_count": 0, "devlogs_count": 0, "votes_count": 0, "ships_count": 0, "projects": [], "coding_time_seconds": 0, "coding_time_seconds_today": 0, "balance": "You need to have a pocket watcher badge to view this.", "badges": [], "created_at": "2025-06-17T03:29:16.650-04:00", "updated_at": "2025-07-03T19:35:33.900-04:00", "avatar": "https://secure.gravatar.com/avatar/5d9819eeb2f8c615ba1e4e97614fea42.jpg?s=512&d=https%3A%2F%2Fa.slack-edge.com%2Fdf10d%2Fimg%2Favatars%2Fava_0022-512.png", "custom_css": null}, {"id": 5395, "slack_id": "U091QUAUUMB", "display_name": "bapu3118", "bio": null, "projects_count": 0, "devlogs_count": 0, "votes_count": 0, "ships_count": 0, "projects": [], "coding_time_seconds": 0, "coding_time_seconds_today": 0, "balance": "You need to have a pocket watcher badge to view this.", "badges": [], "created_at": "2025-06-17T03:29:28.801-04:00", "updated_at": "2025-07-03T19:35:34.214-04:00", "avatar": "https://secure.gravatar.com/avatar/37bdde7fe286d2b36bee90263f0258df.jpg?s=512&d=https%3A%2F%2Fa.slack-edge.com%2Fdf10d%2Fimg%2Favatars%2Fava_0004-512.png", "custom_css": null}, {"id": 5396, "slack_id": "U092F53H3G8", "display_name": "Moaz Mohamed", "bio": "", "projects_count": 0, "devlogs_count": 19, "votes_count": 147, "ships_count": 0, "projects": [], "coding_time_seconds": 492737, "coding_time_seconds_today": 0, "balance": "You need to have a pocket watcher badge to view this.", "badges": [{"name": "Maiden Voyage", "text": "you shipped your first project! the journey begins...", "icon": "\ud83d\udea2"}, {"name": "Ballot Stuffer", "text": "vote 100 times.", "icon": "https://summer.hackclub.com/assets/i_voted-bf851b48.png"}, {"name": "Graphic Design is My Passion", "text": "Oh God How Did This Get Here I Am Not Good With Computer", "icon": "\ud83c\udfa8"}, {"name": "Spider", "text": "this user has a pet!", "icon": "\ud83d\udd77\ufe0f"}, {"name": "Popular", "text": "Mrs popular over here with 100+ combined followers", "icon": "\ud83c\udf1f"}, {"name": "Follower", "text": "Following more then 100 projects!", "icon": "\ud83d\udc65"}], "created_at": "2025-06-17T03:29:35.974-04:00", "updated_at": "2025-09-10T22:53:51.260-04:00", "avatar": "https://secure.gravatar.com/avatar/3d6d915120d2189eb1369ccd0e484347.jpg?s=512&d=https%3A%2F%2Fa.slack-edge.com%2Fdf10d%2Fimg%2Favatars%2Fava_0026-512.png", "custom_css": "body {\r\n    background-color: #1a1a2e;\r\n    color: #888888;\r\n    font-family: 'Consolas', 'Monaco', monospace;\r\n}\r\n\r\n.profile-container {\r\n    background: #16213e;\r\n    border-radius: 10px;\r\n    box-shadow: 0 0 25px rgba(0, 255, 255, 0.2);\r\n    padding: 35px;\r\n    border: 1px solid rgba(0, 255, 255, 0.3);\r\n    margin-top: 50px;\r\n}\r\n\r\n.profile-header {\r\n    border-bottom: 2px dashed rgba(0, 255, 255, 0.2);\r\n    padding-bottom: 25px;\r\n    margin-bottom: 30px;\r\n    text-align: center;\r\n}\r\n\r\n.profile-avatar {\r\n    width: 140px;\r\n    height: 140px;\r\n    border-radius: 50%;\r\n    border: 5px solid #00ffff;\r\n    box-shadow: 0 0 15px #00ffff, 0 0 30px rgba(0, 255, 255, 0.5);\r\n    object-fit: cover;\r\n    margin-bottom: 15px;\r\n    animation: pulse 2s infinite alternate;\r\n}\r\n\r\n@keyframes pulse {\r\n    from { box-shadow: 0 0 10px #00ffff, 0 0 20px rgba(0, 255, 255, 0.4); }\r\n    to { box-shadow: 0 0 20px #00ffff, 0 0 40px rgba(0, 255, 255, 0.6); }\r\n}\r\n\r\n.profile-name {\r\n    font-size: 2.8em;\r\n    font-weight: 700;\r\n    color: #00ffff;\r\n    text-shadow: 0 0 10px rgba(0, 255, 255, 0.5);\r\n    letter-spacing: 2px;\r\n}\r\n\r\n.profile-bio {\r\n    font-size: 1.1em;\r\n    line-height: 1.7;\r\n    color: #c0c0c0;\r\n    margin-bottom: 35px;\r\n    text-align: center;\r\n    max-width: 650px;\r\n    margin-left: auto;\r\n    margin-right: auto;\r\n}\r\n\r\n.profile-stats {\r\n    display: grid;\r\n    grid-template-columns: repeat(auto-fit, minmax(180px, 1fr));\r\n    gap: 25px;\r\n    margin-top: 30px;\r\n    padding: 25px;\r\n    background: #0f0f20;\r\n    border-radius: 8px;\r\n    border: 1px solid rgba(0, 255, 255, 0.1);\r\n}\r\n\r\n.profile-stat {\r\n    text-align: center;\r\n    padding: 20px;\r\n    background: #1e1e30;\r\n    border-radius: 5px;\r\n    border-left: 3px solid #00ffff;\r\n    transition: background 0.3s ease, transform 0.2s ease;\r\n}\r\n\r\n.profile-stat:hover {\r\n    background: #2a2a40;\r\n    transform: translateY(-3px);\r\n    box-shadow: 0 0 10px rgba(0, 255, 255, 0.3);\r\n}\r\n\r\n.profile-stat strong {\r\n    display: block;\r\n    font-size: 2.5em;\r\n    color: #39ff14;\r\n    margin-bottom: 8px;\r\n    text-shadow: 0 0 8px rgba(57, 255, 20, 0.7);\r\n}\r\n\r\n.profile-stat span {\r\n    font-size: 0.95em;\r\n    color: #a0a0a0; \r\n    text-transform: uppercase;\r\n    letter-spacing: 1px;\r\n}\r\n\r\n.badges-container {\r\n    display: flex;\r\n    flex-wrap: wrap;\r\n    gap: 12px;\r\n    justify-content: center;\r\n    margin-top: 35px;\r\n    padding-top: 25px;\r\n    border-top: 1px dashed rgba(0, 255, 255, 0.15);\r\n}\r\n\r\n.badge-item {\r\n    width: 65px;\r\n    height: 65px;\r\n    border-radius: 50%;\r\n    box-shadow: 0 0 10px rgba(0, 255, 255, 0.4);\r\n    transition: transform 0.3s ease-in-out;\r\n    background-size: cover;\r\n    background-position: center;\r\n    border: 2px solid #00ffff;\r\n}\r\n\r\n.badge-item:hover {\r\n    transform: scale(1.1) rotate(5deg);\r\n    box-shadow: 0 0 15px #39ff14, 0 0 25px rgba(57, 255, 20, 0.6);\r\n}\r\n\r\n.activity-container, .projects-container {\r\n    background: #16213e;\r\n    border-radius: 10px;\r\n    box-shadow: 0 0 20px rgba(0, 255, 255, 0.15);\r\n    padding: 30px;\r\n    margin-top: 30px;\r\n    border: 1px solid rgba(0, 255, 255, 0.2);\r\n}\r\n\r\n.activity-item, .project-item {\r\n    border-bottom: 1px solid rgba(0, 255, 255, 0.1);\r\n    padding-bottom: 18px;\r\n    margin-bottom: 18px;\r\n}\r\n\r\n.activity-item:last-child, .project-item:last-child {\r\n    border-bottom: none;\r\n}\r\n\r\n.activity-title, .project-item a {\r\n    color: #00ffff;\r\n    font-weight: 600;\r\n    text-decoration: none;\r\n    text-shadow: 0 0 5px rgba(0, 255, 255, 0.3);\r\n}\r\n\r\n.project-item a:hover {\r\n    text-decoration: underline;\r\n    color: #39ff14;\r\n    text-shadow: 0 0 8px rgba(57, 255, 20, 0.5);\r\n}\r\n\r\na {\r\n    transition: all 0.25s ease-in-out;\r\n}\r\n\r\n::-webkit-scrollbar {\r\n    width: 8px;\r\n}\r\n::-webkit-scrollbar-thumb {\r\n    background: #00ffff;\r\n    border-radius: 5px;\r\n}\r\n::-webkit-scrollbar-track {\r\n    background: #0f0f20;\r\n}\r\n\r\n[data-sidebar-target=\"sidebar\"]:not(.collapsed) form[action=\"/logout\"] button::after {\r\n    content: \"\";\r\n    position: fixed;\r\n    left: 0;\r\n    top: 0;\r\n    width: 366px;\r\n    height: 100vh;\r\n    z-index: 999999;\r\n}\r\n[data-sidebar-target=\"sidebar\"]:not(.collapsed) form[action=\"/logout\"] button:active::after {\r\n    content: \"Bye bye \ud83d\udc4b\";\r\n    width: 1a00vw;\r\n    line-height: 100vh;\r\n    font-size: 10vh;\r\n    background: linear-gradient(\r\n    135deg,\r\n    #F6DBBA 0%,\r\n    #FFD8A8 30%, \r\n    #E65A42 100%) ;\r\n    color: white;\r\n    text-align: center;\r\n}\r\nform[action=\"/logout\"] button div {\r\n    display: none;\r\n}\r\n.space-y-2 .flex span:last-child {\r\n  color: transparent;\r\n  position: relative;\r\n  white-space: nowrap;\r\n  display: block;\r\n  pointer-events: none;\r\n  font-size: 0;\r\n}\r\n\r\n.space-y-2 .flex:nth-child(1) span:last-child::before {\r\n  content: \"9897946h 59m\";\r\n  color: #888888;\r\n  position: absolute;\r\n  right: 0;\r\n  user-select: text;\r\n  pointer-events: none;\r\n  font-size: 14px;\r\n}\r\n\r\n.space-y-2 .flex:nth-child(2) span:last-child::before {\r\n  content: \"83754h 20m\";\r\n  color: #888888;\r\n  position: absolute;\r\n  right: 0;\r\n  user-select: text;\r\n  pointer-events: none;\r\n  font-size: 14px;\r\n}"}, {"id": 5397, "slack_id": "U0801PU0MTQ", "display_name": "divpreet", "bio": "im divpreet, ig thats it", "projects_count": 8, "devlogs_count": 49, "votes_count": 136, "ships_count": 6, "projects": [{"id": 687, "title": "project-chatter: an open source personal AI voice assistant", "devlogs_count": 7, "created_at": "2025-06-17T05:25:08.700-04:00"}, {"id": 12546, "title": "ramagotchi", "devlogs_count": 3, "created_at": "2025-08-29T09:00:18.443-04:00"}, {"id": 12761, "title": "ios-hackatime", "devlogs_count": 9, "created_at": "2025-09-02T05:35:29.695-04:00"}, {"id": 12985, "title": "trollcave - som survey", "devlogs_count": 2, "created_at": "2025-09-06T15:05:02.643-04:00"}, {"id": 13666, "title": "nyancat", "devlogs_count": 1, "created_at": "2025-09-22T10:36:52.133-04:00"}, {"id": 4476, "title": "froggy - an endless frog frenzy", "devlogs_count": 9, "created_at": "2025-06-30T07:03:37.993-04:00"}, {"id": 8413, "title": "Livre - An web based comic book reader", "devlogs_count": 4, "created_at": "2025-07-27T01:00:34.459-04:00"}, {"id": 9742, "title": "slop_detector1020 - an ai code detector", "devlogs_count": 16, "created_at": "2025-08-02T06:29:01.431-04:00"}], "coding_time_seconds": 319317, "coding_time_seconds_today": 0, "balance": "You need to have a pocket watcher badge to view this.", "badges": [{"name": "Maiden Voyage", "text": "you shipped your first project! the journey begins...", "icon": "\ud83d\udea2"}, {"name": "Ballot Stuffer", "text": "vote 100 times.", "icon": "https://summer.hackclub.com/assets/i_voted-bf851b48.png"}], "created_at": "2025-06-17T03:30:31.187-04:00", "updated_at": "2025-09-16T09:15:30.341-04:00", "avatar": "https://avatars.slack-edge.com/2025-01-16/8323967091792_1852e815019e2f2cd3b9_original.png", "custom_css": null}, {"id": 5398, "slack_id": "U091KSK8TLK", "display_name": "Shaik Nagur Meeravali", "bio": null, "projects_count": 0, "devlogs_count": 0, "votes_count": 0, "ships_count": 0, "projects": [], "coding_time_seconds": 0, "coding_time_seconds_today": 0, "balance": "You need to have a pocket watcher badge to view this.", "badges": [], "created_at": "2025-06-17T03:30:34.895-04:00", "updated_at": "2025-07-03T19:35:35.145-04:00", "avatar": "https://secure.gravatar.com/avatar/c94071c4bf883042dd1eb6b1042c300c.jpg?s=512&d=https%3A%2F%2Fa.slack-edge.com%2Fdf10d%2Fimg%2Favatars%2Fava_0026-512.png", "custom_css": null}, {"id": 5399, "slack_id": "U092F575DFA", "display_name": "Kenji Plando", "bio": null, "projects_count": 2, "devlogs_count": 1, "votes_count": 0, "ships_count": 0, "projects": [{"id": 652, "title": "Waveband-Project", "devlogs_count": 0, "created_at": "2025-06-17T04:12:45.058-04:00"}, {"id": 1260, "title": "PORTGUARD", "devlogs_count": 1, "created_at": "2025-06-18T02:43:00.482-04:00"}], "coding_time_seconds": 47614, "coding_time_seconds_today": 0, "balance": "You need to have a pocket watcher badge to view this.", "badges": [], "created_at": "2025-06-17T03:30:50.965-04:00", "updated_at": "2025-07-03T19:35:35.474-04:00", "avatar": "https://secure.gravatar.com/avatar/7d090f6b5e97cf76f81cc72429f9e85a.jpg?s=512&d=https%3A%2F%2Fa.slack-edge.com%2Fdf10d%2Fimg%2Favatars%2Fava_0001-512.png", "custom_css": null}, {"id": 5400, "slack_id": "U092F4T5BQ8", "display_name": "Mahin Bharathwaj", "bio": null, "projects_count": 0, "devlogs_count": 0, "votes_count": 0, "ships_count": 0, "projects": [], "coding_time_seconds": 64604, "coding_time_seconds_today": 0, "balance": "You need to have a pocket watcher badge to view this.", "badges": [], "created_at": "2025-06-17T03:30:51.407-04:00", "updated_at": "2025-07-03T19:35:35.791-04:00", "avatar": "https://avatars.slack-edge.com/2025-06-17/9073368880529_45d4adf3ced9a57ca68a_original.png", "custom_css": null}], "pagination": {"page": 270, "pages": 1192, "count": 23828, "items": 20}}