{"users": [{"id": 5401, "slack_id": "U091R0SN94M", "display_name": "Aliyan Hussain", "bio": null, "projects_count": 0, "devlogs_count": 0, "votes_count": 0, "ships_count": 0, "projects": [], "coding_time_seconds": 57585, "coding_time_seconds_today": 0, "balance": "You need to have a pocket watcher badge to view this.", "badges": [], "created_at": "2025-06-17T03:30:52.641-04:00", "updated_at": "2025-07-03T19:35:36.109-04:00", "avatar": "https://secure.gravatar.com/avatar/4e9c6e89d551a41098d7f27def076733.jpg?s=512&d=https%3A%2F%2Fa.slack-edge.com%2Fdf10d%2Fimg%2Favatars%2Fava_0023-512.png", "custom_css": null}, {"id": 5402, "slack_id": "U091N56JSUD", "display_name": "Aakash Kumar", "bio": null, "projects_count": 0, "devlogs_count": 0, "votes_count": 0, "ships_count": 0, "projects": [], "coding_time_seconds": 0, "coding_time_seconds_today": 0, "balance": "You need to have a pocket watcher badge to view this.", "badges": [], "created_at": "2025-06-17T03:30:58.005-04:00", "updated_at": "2025-07-03T19:35:36.435-04:00", "avatar": "https://secure.gravatar.com/avatar/bd68a1bd87ef0a015dad1a5bc96f663a.jpg?s=512&d=https%3A%2F%2Fa.slack-edge.com%2Fdf10d%2Fimg%2Favatars%2Fava_0010-512.png", "custom_css": null}, {"id": 5403, "slack_id": "U091KTSR9KM", "display_name": "Md Irfan Raj", "bio": null, "projects_count": 1, "devlogs_count": 0, "votes_count": 0, "ships_count": 0, "projects": [{"id": 3477, "title": "Smart Referral for Doctors ", "devlogs_count": 0, "created_at": "2025-06-24T11:58:13.697-04:00"}], "coding_time_seconds": 161231, "coding_time_seconds_today": 0, "balance": "You need to have a pocket watcher badge to view this.", "badges": [], "created_at": "2025-06-17T03:31:17.308-04:00", "updated_at": "2025-07-03T19:35:36.747-04:00", "avatar": "https://avatars.slack-edge.com/2025-06-17/9073369754849_45cdbd2b59f3b88df7ae_original.jpg", "custom_css": null}, {"id": 5404, "slack_id": "U091BCATKJT", "display_name": "Ravly Bonus22", "bio": null, "projects_count": 1, "devlogs_count": 0, "votes_count": 0, "ships_count": 0, "projects": [{"id": 647, "title": "Notes App Laravel", "devlogs_count": 0, "created_at": "2025-06-17T04:04:42.421-04:00"}], "coding_time_seconds": 41449, "coding_time_seconds_today": 0, "balance": "You need to have a pocket watcher badge to view this.", "badges": [], "created_at": "2025-06-17T03:31:33.646-04:00", "updated_at": "2025-07-08T13:54:39.019-04:00", "avatar": "https://avatars.slack-edge.com/2025-06-17/9053970643939_d1bffb73ba8dc30de299_original.jpg", "custom_css": null}, {"id": 5405, "slack_id": "U091R0QB5S9", "display_name": "Maaz Khan", "bio": null, "projects_count": 0, "devlogs_count": 0, "votes_count": 0, "ships_count": 0, "projects": [], "coding_time_seconds": 0, "coding_time_seconds_today": 0, "balance": "You need to have a pocket watcher badge to view this.", "badges": [], "created_at": "2025-06-17T03:31:58.595-04:00", "updated_at": "2025-07-03T19:35:37.380-04:00", "avatar": "https://secure.gravatar.com/avatar/5230f907ec09968a7a7d20e76d9749b1.jpg?s=512&d=https%3A%2F%2Fa.slack-edge.com%2Fdf10d%2Fimg%2Favatars%2Fava_0003-512.png", "custom_css": null}, {"id": 5406, "slack_id": "U091QR7LNMT", "display_name": "Lenny", "bio": null, "projects_count": 1, "devlogs_count": 2, "votes_count": 3, "ships_count": 1, "projects": [{"id": 6618, "title": "upscroll", "devlogs_count": 2, "created_at": "2025-07-14T15:05:57.675-04:00"}], "coding_time_seconds": 296917, "coding_time_seconds_today": 0, "balance": "You need to have a pocket watcher badge to view this.", "badges": [{"name": "Maiden Voyage", "text": "you shipped your first project! the journey begins...", "icon": "\ud83d\udea2"}], "created_at": "2025-06-17T03:32:02.059-04:00", "updated_at": "2025-09-10T22:53:51.574-04:00", "avatar": "https://secure.gravatar.com/avatar/711bff394b6a73208c1895b3d92da7b3.jpg?s=512&d=https%3A%2F%2Fa.slack-edge.com%2Fdf10d%2Fimg%2Favatars%2Fava_0012-512.png", "custom_css": null}, {"id": 5407, "slack_id": "U07BK1JS6AY", "display_name": "Divyansh Pandey", "bio": null, "projects_count": 0, "devlogs_count": 0, "votes_count": 0, "ships_count": 0, "projects": [], "coding_time_seconds": 8929, "coding_time_seconds_today": 0, "balance": "You need to have a pocket watcher badge to view this.", "badges": [], "created_at": "2025-06-17T03:32:39.247-04:00", "updated_at": "2025-07-03T19:35:38.082-04:00", "avatar": "https://avatars.slack-edge.com/2024-11-17/8054038072001_a8f0b7983f72b66caebb_original.png", "custom_css": null}, {"id": 5408, "slack_id": "U06LUP50E9W", "display_name": "Akshat Sharma", "bio": null, "projects_count": 0, "devlogs_count": 4, "votes_count": 20, "ships_count": 0, "projects": [], "coding_time_seconds": 389492, "coding_time_seconds_today": 0, "balance": "You need to have a pocket watcher badge to view this.", "badges": [{"name": "Maiden Voyage", "text": "you shipped your first project! the journey begins...", "icon": "\ud83d\udea2"}], "created_at": "2025-06-17T03:32:41.469-04:00", "updated_at": "2025-09-10T22:53:51.622-04:00", "avatar": "https://avatars.slack-edge.com/2025-05-11/8864324935207_52979dd66323a0711f7e_original.jpg", "custom_css": null}, {"id": 5409, "slack_id": "U091T08UMNG", "display_name": "Ayush Roy", "bio": null, "projects_count": 0, "devlogs_count": 0, "votes_count": 0, "ships_count": 0, "projects": [], "coding_time_seconds": 0, "coding_time_seconds_today": 0, "balance": "You need to have a pocket watcher badge to view this.", "badges": [], "created_at": "2025-06-17T03:33:05.672-04:00", "updated_at": "2025-07-03T19:35:38.734-04:00", "avatar": "https://secure.gravatar.com/avatar/1b86bd84478fea296a0e3995ecab1923.jpg?s=512&d=https%3A%2F%2Fa.slack-edge.com%2Fdf10d%2Fimg%2Favatars%2Fava_0009-512.png", "custom_css": null}, {"id": 5410, "slack_id": "U091SQC5C9G", "display_name": "m4h35h", "bio": null, "projects_count": 0, "devlogs_count": 0, "votes_count": 0, "ships_count": 0, "projects": [], "coding_time_seconds": 132801, "coding_time_seconds_today": 0, "balance": "You need to have a pocket watcher badge to view this.", "badges": [], "created_at": "2025-06-17T03:33:12.910-04:00", "updated_at": "2025-07-09T16:54:09.472-04:00", "avatar": "https://avatars.slack-edge.com/2025-06-17/9073379747265_00125b9d5aeec8138d6e_original.jpg", "custom_css": null}, {"id": 5411, "slack_id": "U091BBZNENT", "display_name": "nikki", "bio": null, "projects_count": 0, "devlogs_count": 0, "votes_count": 0, "ships_count": 0, "projects": [], "coding_time_seconds": 0, "coding_time_seconds_today": 0, "balance": "You need to have a pocket watcher badge to view this.", "badges": [], "created_at": "2025-06-17T03:33:12.946-04:00", "updated_at": "2025-07-03T19:35:39.373-04:00", "avatar": "https://secure.gravatar.com/avatar/d7c424126020082ddfe19d45bd1fb60f.jpg?s=512&d=https%3A%2F%2Fa.slack-edge.com%2Fdf10d%2Fimg%2Favatars%2Fava_0025-512.png", "custom_css": null}, {"id": 5412, "slack_id": "U0917P8DUKH", "display_name": "Shankar Varat", "bio": null, "projects_count": 0, "devlogs_count": 0, "votes_count": 0, "ships_count": 0, "projects": [], "coding_time_seconds": 0, "coding_time_seconds_today": 0, "balance": "You need to have a pocket watcher badge to view this.", "badges": [], "created_at": "2025-06-17T03:33:13.618-04:00", "updated_at": "2025-07-03T19:35:39.692-04:00", "avatar": "https://avatars.slack-edge.com/2025-06-17/9073380181425_bb05cb2552faa996bf1b_original.jpg", "custom_css": null}, {"id": 5413, "slack_id": "U091SQ89V26", "display_name": "Jules", "bio": null, "projects_count": 0, "devlogs_count": 0, "votes_count": 0, "ships_count": 0, "projects": [], "coding_time_seconds": 40332, "coding_time_seconds_today": 0, "balance": "You need to have a pocket watcher badge to view this.", "badges": [], "created_at": "2025-06-17T03:33:16.534-04:00", "updated_at": "2025-07-03T19:35:40.007-04:00", "avatar": "https://secure.gravatar.com/avatar/99bf8fa45f44bc0edc4204ced346201f.jpg?s=512&d=https%3A%2F%2Fa.slack-edge.com%2Fdf10d%2Fimg%2Favatars%2Fava_0004-512.png", "custom_css": null}, {"id": 5414, "slack_id": "U091KU7BKBM", "display_name": "benzene vats", "bio": null, "projects_count": 0, "devlogs_count": 0, "votes_count": 0, "ships_count": 0, "projects": [], "coding_time_seconds": 0, "coding_time_seconds_today": 0, "balance": "You need to have a pocket watcher badge to view this.", "badges": [], "created_at": "2025-06-17T03:33:24.577-04:00", "updated_at": "2025-07-03T19:35:40.332-04:00", "avatar": "https://secure.gravatar.com/avatar/193c6d7339584d0b3045284352ee6f0a.jpg?s=512&d=https%3A%2F%2Fa.slack-edge.com%2Fdf10d%2Fimg%2Favatars%2Fava_0005-512.png", "custom_css": null}, {"id": 5415, "slack_id": "U091R17CWCD", "display_name": "SHIVANG RAJ", "bio": null, "projects_count": 0, "devlogs_count": 0, "votes_count": 0, "ships_count": 0, "projects": [], "coding_time_seconds": 0, "coding_time_seconds_today": 0, "balance": "You need to have a pocket watcher badge to view this.", "badges": [], "created_at": "2025-06-17T03:33:29.846-04:00", "updated_at": "2025-07-03T19:35:40.656-04:00", "avatar": "https://secure.gravatar.com/avatar/e901e25e88b740672cd4f99dee9110ea.jpg?s=512&d=https%3A%2F%2Fa.slack-edge.com%2Fdf10d%2Fimg%2Favatars%2Fava_0022-512.png", "custom_css": null}, {"id": 5416, "slack_id": "U091QNBFU85", "display_name": "havertz2110", "bio": null, "projects_count": 0, "devlogs_count": 0, "votes_count": 0, "ships_count": 0, "projects": [], "coding_time_seconds": 0, "coding_time_seconds_today": 0, "balance": "You need to have a pocket watcher badge to view this.", "badges": [], "created_at": "2025-06-17T03:34:09.459-04:00", "updated_at": "2025-07-03T19:35:40.991-04:00", "avatar": "https://secure.gravatar.com/avatar/a2e5ab38da73c3f0cca6f7ea0668db9d.jpg?s=512&d=https%3A%2F%2Fa.slack-edge.com%2Fdf10d%2Fimg%2Favatars%2Fava_0005-512.png", "custom_css": null}, {"id": 5417, "slack_id": "U092F5VP6CQ", "display_name": "Md Amanullah", "bio": null, "projects_count": 0, "devlogs_count": 0, "votes_count": 0, "ships_count": 0, "projects": [], "coding_time_seconds": 21476, "coding_time_seconds_today": 0, "balance": "You need to have a pocket watcher badge to view this.", "badges": [], "created_at": "2025-06-17T03:34:12.988-04:00", "updated_at": "2025-07-03T19:35:41.311-04:00", "avatar": "https://secure.gravatar.com/avatar/628a0bcd44ff0c43f08e8f467f04c0b8.jpg?s=512&d=https%3A%2F%2Fa.slack-edge.com%2Fdf10d%2Fimg%2Favatars%2Fava_0005-512.png", "custom_css": null}, {"id": 5418, "slack_id": "U091R0TE87P", "display_name": "Stefan Janke", "bio": null, "projects_count": 0, "devlogs_count": 0, "votes_count": 0, "ships_count": 0, "projects": [], "coding_time_seconds": 7810, "coding_time_seconds_today": 0, "balance": "You need to have a pocket watcher badge to view this.", "badges": [], "created_at": "2025-06-17T03:34:21.165-04:00", "updated_at": "2025-07-03T19:35:41.636-04:00", "avatar": "https://secure.gravatar.com/avatar/00fda0c5174dd961701b9319d37193bb.jpg?s=512&d=https%3A%2F%2Fa.slack-edge.com%2Fdf10d%2Fimg%2Favatars%2Fava_0016-512.png", "custom_css": null}, {"id": 5419, "slack_id": "U091KUH0BH9", "display_name": "kt5d", "bio": null, "projects_count": 0, "devlogs_count": 0, "votes_count": 0, "ships_count": 0, "projects": [], "coding_time_seconds": 0, "coding_time_seconds_today": 0, "balance": "You need to have a pocket watcher badge to view this.", "badges": [], "created_at": "2025-06-17T03:34:46.788-04:00", "updated_at": "2025-07-03T19:35:41.961-04:00", "avatar": "https://secure.gravatar.com/avatar/7b4051e26162223c60f47efb66e24cf2.jpg?s=512&d=https%3A%2F%2Fa.slack-edge.com%2Fdf10d%2Fimg%2Favatars%2Fava_0004-512.png", "custom_css": null}, {"id": 5420, "slack_id": "U087ATD163V", "display_name": "Howard Wu", "bio": "idk", "projects_count": 4, "devlogs_count": 18, "votes_count": 62, "ships_count": 3, "projects": [{"id": 10225, "title": "anonqa", "devlogs_count": 9, "created_at": "2025-08-05T06:23:40.625-04:00"}, {"id": 5715, "title": "Dymanic Downloader", "devlogs_count": 5, "created_at": "2025-07-07T12:08:45.587-04:00"}, {"id": 7617, "title": "Bus API & OLED screen for ESP32 and SSD1306", "devlogs_count": 2, "created_at": "2025-07-22T10:00:40.424-04:00"}, {"id": 6070, "title": "My personal website (v5)", "devlogs_count": 1, "created_at": "2025-07-10T11:16:34.266-04:00"}], "coding_time_seconds": 751066, "coding_time_seconds_today": 12181, "balance": "You need to have a pocket watcher badge to view this.", "badges": [{"name": "Maiden Voyage", "text": "you shipped your first project! the journey begins...", "icon": "\ud83d\udea2"}], "created_at": "2025-06-17T03:35:09.851-04:00", "updated_at": "2025-09-10T22:53:51.935-04:00", "avatar": "https://avatars.slack-edge.com/2025-07-12/9185213590870_74eb1e027538c49747f3_original.jpg", "custom_css": null}], "pagination": {"page": 271, "pages": 1192, "count": 23828, "items": 20}}