{"users": [{"id": 5421, "slack_id": "U091T31FH0U", "display_name": "Yash Karnani", "bio": null, "projects_count": 0, "devlogs_count": 0, "votes_count": 0, "ships_count": 0, "projects": [], "coding_time_seconds": 0, "coding_time_seconds_today": 0, "balance": "You need to have a pocket watcher badge to view this.", "badges": [], "created_at": "2025-06-17T03:35:10.670-04:00", "updated_at": "2025-07-03T19:35:42.588-04:00", "avatar": "https://secure.gravatar.com/avatar/868f88516d12aa9cf9130d5f543da396.jpg?s=512&d=https%3A%2F%2Fa.slack-edge.com%2Fdf10d%2Fimg%2Favatars%2Fava_0015-512.png", "custom_css": null}, {"id": 5422, "slack_id": "U091T4LGDDJ", "display_name": "Oluwole", "bio": null, "projects_count": 0, "devlogs_count": 0, "votes_count": 0, "ships_count": 0, "projects": [], "coding_time_seconds": 31074, "coding_time_seconds_today": 0, "balance": "You need to have a pocket watcher badge to view this.", "badges": [], "created_at": "2025-06-17T03:35:12.460-04:00", "updated_at": "2025-07-03T19:35:42.904-04:00", "avatar": "https://secure.gravatar.com/avatar/3c7086cb766cb5f6baf519df4c9062c7.jpg?s=512&d=https%3A%2F%2Fa.slack-edge.com%2Fdf10d%2Fimg%2Favatars%2Fava_0018-512.png", "custom_css": null}, {"id": 5423, "slack_id": "U091SQSRE6N", "display_name": "Lenny Bergner", "bio": null, "projects_count": 0, "devlogs_count": 0, "votes_count": 0, "ships_count": 0, "projects": [], "coding_time_seconds": 0, "coding_time_seconds_today": 0, "balance": "You need to have a pocket watcher badge to view this.", "badges": [], "created_at": "2025-06-17T03:35:15.742-04:00", "updated_at": "2025-07-03T19:35:43.226-04:00", "avatar": "https://secure.gravatar.com/avatar/ee2749629c04f61b8e1e1f30eae2d3e1.jpg?s=512&d=https%3A%2F%2Fa.slack-edge.com%2Fdf10d%2Fimg%2Favatars%2Fava_0010-512.png", "custom_css": null}, {"id": 5424, "slack_id": "U091SBUD960", "display_name": "se developer", "bio": null, "projects_count": 0, "devlogs_count": 0, "votes_count": 0, "ships_count": 0, "projects": [], "coding_time_seconds": 0, "coding_time_seconds_today": 0, "balance": "You need to have a pocket watcher badge to view this.", "badges": [], "created_at": "2025-06-17T03:35:23.807-04:00", "updated_at": "2025-07-03T19:35:43.541-04:00", "avatar": "https://avatars.slack-edge.com/2025-06-17/9054108635318_2cf2e9820babc46fcafd_original.png", "custom_css": null}, {"id": 5425, "slack_id": "U091KUJLUHZ", "display_name": "Anshika Yadav", "bio": null, "projects_count": 0, "devlogs_count": 0, "votes_count": 0, "ships_count": 0, "projects": [], "coding_time_seconds": 140378, "coding_time_seconds_today": 0, "balance": "You need to have a pocket watcher badge to view this.", "badges": [], "created_at": "2025-06-17T03:35:42.032-04:00", "updated_at": "2025-07-03T19:35:43.861-04:00", "avatar": "https://secure.gravatar.com/avatar/45e70720c6796eb82d4440894b632cdb.jpg?s=512&d=https%3A%2F%2Fa.slack-edge.com%2Fdf10d%2Fimg%2Favatars%2Fava_0023-512.png", "custom_css": null}, {"id": 5426, "slack_id": "U092F5W6LG0", "display_name": "Valerio_CL", "bio": null, "projects_count": 0, "devlogs_count": 0, "votes_count": 0, "ships_count": 0, "projects": [], "coding_time_seconds": 99367, "coding_time_seconds_today": 0, "balance": "You need to have a pocket watcher badge to view this.", "badges": [], "created_at": "2025-06-17T03:35:50.881-04:00", "updated_at": "2025-07-03T19:35:44.177-04:00", "avatar": "https://secure.gravatar.com/avatar/e8f377fd00d75aca7544819e5b94d317.jpg?s=512&d=https%3A%2F%2Fa.slack-edge.com%2Fdf10d%2Fimg%2Favatars%2Fava_0012-512.png", "custom_css": null}, {"id": 5427, "slack_id": "U091KUJJP3M", "display_name": "Tushar Gupta", "bio": null, "projects_count": 0, "devlogs_count": 0, "votes_count": 0, "ships_count": 0, "projects": [], "coding_time_seconds": 109733, "coding_time_seconds_today": 0, "balance": "You need to have a pocket watcher badge to view this.", "badges": [], "created_at": "2025-06-17T03:35:53.788-04:00", "updated_at": "2025-07-03T19:35:44.494-04:00", "avatar": "https://avatars.slack-edge.com/2025-06-17/9073392566609_3cd6d3ade66c6d3cc7c6_original.png", "custom_css": null}, {"id": 5428, "slack_id": "U091SQWF95G", "display_name": "Adi", "bio": null, "projects_count": 0, "devlogs_count": 0, "votes_count": 0, "ships_count": 0, "projects": [], "coding_time_seconds": 0, "coding_time_seconds_today": 0, "balance": "You need to have a pocket watcher badge to view this.", "badges": [], "created_at": "2025-06-17T03:36:13.609-04:00", "updated_at": "2025-07-03T19:35:44.813-04:00", "avatar": "https://secure.gravatar.com/avatar/65c40df36e0793eab36a0293efc9d9f3.jpg?s=512&d=https%3A%2F%2Fa.slack-edge.com%2Fdf10d%2Fimg%2Favatars%2Fava_0003-512.png", "custom_css": null}, {"id": 5429, "slack_id": "U091KUS3267", "display_name": "Dominic Pond", "bio": null, "projects_count": 0, "devlogs_count": 0, "votes_count": 0, "ships_count": 0, "projects": [], "coding_time_seconds": 0, "coding_time_seconds_today": 0, "balance": "You need to have a pocket watcher badge to view this.", "badges": [], "created_at": "2025-06-17T03:36:22.022-04:00", "updated_at": "2025-07-03T19:35:45.133-04:00", "avatar": "https://avatars.slack-edge.com/2025-06-17/9054113586070_55eb38067a99defa12a4_original.png", "custom_css": null}, {"id": 5430, "slack_id": "U091KUJ3PPV", "display_name": "harleen", "bio": null, "projects_count": 0, "devlogs_count": 0, "votes_count": 0, "ships_count": 0, "projects": [], "coding_time_seconds": 0, "coding_time_seconds_today": 0, "balance": "You need to have a pocket watcher badge to view this.", "badges": [], "created_at": "2025-06-17T03:36:34.791-04:00", "updated_at": "2025-07-03T19:35:45.452-04:00", "avatar": "https://secure.gravatar.com/avatar/12ae4fd4194237ede42ed300743e2b10.jpg?s=512&d=https%3A%2F%2Fa.slack-edge.com%2Fdf10d%2Fimg%2Favatars%2Fava_0018-512.png", "custom_css": null}, {"id": 5431, "slack_id": "U07EDQKSN2E", "display_name": "Surbhi Thakur", "bio": null, "projects_count": 0, "devlogs_count": 0, "votes_count": 0, "ships_count": 0, "projects": [], "coding_time_seconds": 0, "coding_time_seconds_today": 0, "balance": "You need to have a pocket watcher badge to view this.", "badges": [], "created_at": "2025-06-17T03:36:34.863-04:00", "updated_at": "2025-07-03T19:35:45.767-04:00", "avatar": "https://avatars.slack-edge.com/2024-07-28/7492322233108_a8cc3ad5ecd8cf92ff5a_original.png", "custom_css": null}, {"id": 5432, "slack_id": "U091R1F557F", "display_name": "TANAY MAHAJAN", "bio": null, "projects_count": 0, "devlogs_count": 0, "votes_count": 0, "ships_count": 0, "projects": [], "coding_time_seconds": 77310, "coding_time_seconds_today": 0, "balance": "You need to have a pocket watcher badge to view this.", "badges": [], "created_at": "2025-06-17T03:36:43.582-04:00", "updated_at": "2025-07-03T19:35:46.092-04:00", "avatar": "https://avatars.slack-edge.com/2025-06-17/9053995592323_02d80622e3cef1e60c45_original.png", "custom_css": null}, {"id": 5433, "slack_id": "U091L25AMUN", "display_name": "Ali Mumtaz", "bio": null, "projects_count": 0, "devlogs_count": 0, "votes_count": 0, "ships_count": 0, "projects": [], "coding_time_seconds": 2416, "coding_time_seconds_today": 0, "balance": "You need to have a pocket watcher badge to view this.", "badges": [], "created_at": "2025-06-17T03:37:22.454-04:00", "updated_at": "2025-07-03T19:35:46.418-04:00", "avatar": "https://secure.gravatar.com/avatar/d4f1ad466643819dc931c5348a8a1755.jpg?s=512&d=https%3A%2F%2Fa.slack-edge.com%2Fdf10d%2Fimg%2Favatars%2Fava_0012-512.png", "custom_css": null}, {"id": 5434, "slack_id": "U091SQVTLKC", "display_name": "Claire", "bio": null, "projects_count": 0, "devlogs_count": 0, "votes_count": 0, "ships_count": 0, "projects": [], "coding_time_seconds": 0, "coding_time_seconds_today": 0, "balance": "You need to have a pocket watcher badge to view this.", "badges": [], "created_at": "2025-06-17T03:37:28.338-04:00", "updated_at": "2025-07-03T19:35:46.732-04:00", "avatar": "https://secure.gravatar.com/avatar/1f445071620a3f47ffd4244b3e879bf1.jpg?s=512&d=https%3A%2F%2Fa.slack-edge.com%2Fdf10d%2Fimg%2Favatars%2Fava_0003-512.png", "custom_css": null}, {"id": 5435, "slack_id": "U0925BFRPFB", "display_name": "D\u0169ng Cao", "bio": null, "projects_count": 0, "devlogs_count": 0, "votes_count": 0, "ships_count": 0, "projects": [], "coding_time_seconds": 30294, "coding_time_seconds_today": 0, "balance": "You need to have a pocket watcher badge to view this.", "badges": [], "created_at": "2025-06-17T03:38:10.760-04:00", "updated_at": "2025-07-04T08:20:40.990-04:00", "avatar": "https://avatars.slack-edge.com/2025-06-17/9061187827316_48b0f17e59897c3afb82_original.png", "custom_css": null}, {"id": 5436, "slack_id": "U091SR4RT6E", "display_name": "kyle", "bio": null, "projects_count": 0, "devlogs_count": 0, "votes_count": 0, "ships_count": 0, "projects": [], "coding_time_seconds": 0, "coding_time_seconds_today": 0, "balance": "You need to have a pocket watcher badge to view this.", "badges": [], "created_at": "2025-06-17T03:38:10.811-04:00", "updated_at": "2025-07-04T08:20:41.073-04:00", "avatar": "https://secure.gravatar.com/avatar/04d838d8f9261feacf2b093f144815bb.jpg?s=512&d=https%3A%2F%2Fa.slack-edge.com%2Fdf10d%2Fimg%2Favatars%2Fava_0015-512.png", "custom_css": null}, {"id": 5437, "slack_id": "U091BD8RER5", "display_name": "huzaifa yasin", "bio": null, "projects_count": 0, "devlogs_count": 0, "votes_count": 0, "ships_count": 0, "projects": [], "coding_time_seconds": 0, "coding_time_seconds_today": 0, "balance": "You need to have a pocket watcher badge to view this.", "badges": [], "created_at": "2025-06-17T03:38:15.575-04:00", "updated_at": "2025-07-03T19:35:47.416-04:00", "avatar": "https://secure.gravatar.com/avatar/cad598aff7733757823e36ab0bf87889.jpg?s=512&d=https%3A%2F%2Fa.slack-edge.com%2Fdf10d%2Fimg%2Favatars%2Fava_0018-512.png", "custom_css": null}, {"id": 5438, "slack_id": "U091SP7JXLJ", "display_name": "explorer", "bio": null, "projects_count": 0, "devlogs_count": 15, "votes_count": 76, "ships_count": 0, "projects": [], "coding_time_seconds": 289050, "coding_time_seconds_today": 0, "balance": "You need to have a pocket watcher badge to view this.", "badges": [{"name": "Maiden Voyage", "text": "you shipped your first project! the journey begins...", "icon": "\ud83d\udea2"}], "created_at": "2025-06-17T03:38:27.671-04:00", "updated_at": "2025-09-10T22:53:52.394-04:00", "avatar": "https://secure.gravatar.com/avatar/b27179c40cd20fb77c993f7e5780d5f1.jpg?s=512&d=https%3A%2F%2Fa.slack-edge.com%2Fdf10d%2Fimg%2Favatars%2Fava_0018-512.png", "custom_css": null}, {"id": 5439, "slack_id": "U091SR3G2H0", "display_name": "Shashi", "bio": null, "projects_count": 0, "devlogs_count": 0, "votes_count": 0, "ships_count": 0, "projects": [], "coding_time_seconds": 0, "coding_time_seconds_today": 0, "balance": "You need to have a pocket watcher badge to view this.", "badges": [], "created_at": "2025-06-17T03:38:33.469-04:00", "updated_at": "2025-07-03T19:35:48.053-04:00", "avatar": "https://secure.gravatar.com/avatar/4a9f6caa65199ca09a74d2661659d33b.jpg?s=512&d=https%3A%2F%2Fa.slack-edge.com%2Fdf10d%2Fimg%2Favatars%2Fava_0017-512.png", "custom_css": null}, {"id": 5440, "slack_id": "U0925B9C4BB", "display_name": "Benjamin Philip", "bio": null, "projects_count": 4, "devlogs_count": 5, "votes_count": 35, "ships_count": 1, "projects": [{"id": 800, "title": "Rx", "devlogs_count": 0, "created_at": "2025-06-17T08:30:15.978-04:00"}, {"id": 802, "title": "Erlang/OTP", "devlogs_count": 0, "created_at": "2025-06-17T08:33:02.678-04:00"}, {"id": 4487, "title": "lz4-erlang", "devlogs_count": 1, "created_at": "2025-06-30T09:36:10.214-04:00"}, {"id": 5902, "title": "SICP", "devlogs_count": 4, "created_at": "2025-07-09T02:08:27.844-04:00"}], "coding_time_seconds": 318537, "coding_time_seconds_today": 0, "balance": "You need to have a pocket watcher badge to view this.", "badges": [{"name": "Maiden Voyage", "text": "you shipped your first project! the journey begins...", "icon": "\ud83d\udea2"}], "created_at": "2025-06-17T03:39:12.796-04:00", "updated_at": "2025-09-10T22:53:52.486-04:00", "avatar": "https://avatars.slack-edge.com/2025-06-17/9045470622423_3baf1f4c03350c53f4b4_original.jpg", "custom_css": null}], "pagination": {"page": 272, "pages": 1192, "count": 23828, "items": 20}}