{"users": [{"id": 5441, "slack_id": "U092F5T32QY", "display_name": "Dishant Radadiya", "bio": null, "projects_count": 1, "devlogs_count": 2, "votes_count": 0, "ships_count": 0, "projects": [{"id": 1216, "title": "Do it", "devlogs_count": 2, "created_at": "2025-06-17T23:31:07.579-04:00"}], "coding_time_seconds": 50465, "coding_time_seconds_today": 0, "balance": "You need to have a pocket watcher badge to view this.", "badges": [], "created_at": "2025-06-17T03:39:42.722-04:00", "updated_at": "2025-07-03T19:35:48.672-04:00", "avatar": "https://secure.gravatar.com/avatar/62252affc33589667db1d0442f1490ad.jpg?s=512&d=https%3A%2F%2Fa.slack-edge.com%2Fdf10d%2Fimg%2Favatars%2Fava_0007-512.png", "custom_css": null}, {"id": 5442, "slack_id": "U091KV7A2G3", "display_name": "michele", "bio": null, "projects_count": 0, "devlogs_count": 0, "votes_count": 0, "ships_count": 0, "projects": [], "coding_time_seconds": 0, "coding_time_seconds_today": 0, "balance": "You need to have a pocket watcher badge to view this.", "badges": [], "created_at": "2025-06-17T03:40:05.832-04:00", "updated_at": "2025-07-03T19:35:48.981-04:00", "avatar": "https://secure.gravatar.com/avatar/998fc3584e382dc2a913f94439abb74f.jpg?s=512&d=https%3A%2F%2Fa.slack-edge.com%2Fdf10d%2Fimg%2Favatars%2Fava_0025-512.png", "custom_css": null}, {"id": 5443, "slack_id": "U092F6G3BU0", "display_name": "Yahya", "bio": null, "projects_count": 0, "devlogs_count": 0, "votes_count": 0, "ships_count": 0, "projects": [], "coding_time_seconds": 0, "coding_time_seconds_today": 0, "balance": "You need to have a pocket watcher badge to view this.", "badges": [], "created_at": "2025-06-17T03:40:10.938-04:00", "updated_at": "2025-07-03T19:35:49.309-04:00", "avatar": "https://secure.gravatar.com/avatar/dfb48f2dd94215fb0de24e67f0e83102.jpg?s=512&d=https%3A%2F%2Fa.slack-edge.com%2Fdf10d%2Fimg%2Favatars%2Fava_0012-512.png", "custom_css": null}, {"id": 5444, "slack_id": "U091R1X4S5B", "display_name": "\u00d6mer Faruk K\u00f6kl\u00fckaya", "bio": null, "projects_count": 0, "devlogs_count": 0, "votes_count": 0, "ships_count": 0, "projects": [], "coding_time_seconds": 0, "coding_time_seconds_today": 0, "balance": "You need to have a pocket watcher badge to view this.", "badges": [], "created_at": "2025-06-17T03:40:12.334-04:00", "updated_at": "2025-07-03T19:35:49.630-04:00", "avatar": "https://avatars.slack-edge.com/2025-06-17/9061196323556_34d54a45712cfb1df03f_original.png", "custom_css": null}, {"id": 5445, "slack_id": "U0925BP31ND", "display_name": "Amadeusz", "bio": null, "projects_count": 0, "devlogs_count": 0, "votes_count": 0, "ships_count": 0, "projects": [], "coding_time_seconds": 0, "coding_time_seconds_today": 0, "balance": "You need to have a pocket watcher badge to view this.", "badges": [], "created_at": "2025-06-17T03:40:19.422-04:00", "updated_at": "2025-07-03T19:35:49.959-04:00", "avatar": "https://secure.gravatar.com/avatar/64d42bf71dd94dbddab50bfe3122d1b5.jpg?s=512&d=https%3A%2F%2Fa.slack-edge.com%2Fdf10d%2Fimg%2Favatars%2Fava_0000-512.png", "custom_css": null}, {"id": 5446, "slack_id": "U091KR8U0A2", "display_name": "Tom Sauer", "bio": null, "projects_count": 0, "devlogs_count": 0, "votes_count": 0, "ships_count": 0, "projects": [], "coding_time_seconds": 0, "coding_time_seconds_today": 0, "balance": "You need to have a pocket watcher badge to view this.", "badges": [], "created_at": "2025-06-17T03:40:20.684-04:00", "updated_at": "2025-07-03T21:54:55.660-04:00", "avatar": "https://secure.gravatar.com/avatar/9d5ed0370a06a02d325ddb16a8cf2266.jpg?s=512&d=https%3A%2F%2Fa.slack-edge.com%2Fdf10d%2Fimg%2Favatars%2Fava_0025-512.png", "custom_css": null}, {"id": 5447, "slack_id": "U091R1VKPGV", "display_name": "Nikhil Pareek", "bio": null, "projects_count": 0, "devlogs_count": 0, "votes_count": 0, "ships_count": 0, "projects": [], "coding_time_seconds": 0, "coding_time_seconds_today": 0, "balance": "You need to have a pocket watcher badge to view this.", "badges": [], "created_at": "2025-06-17T03:40:21.552-04:00", "updated_at": "2025-07-03T19:35:50.465-04:00", "avatar": "https://avatars.slack-edge.com/2025-06-24/9097264516964_5edec050c8cd6c5e8cf9_original.png", "custom_css": null}, {"id": 5448, "slack_id": "U091SR6581Y", "display_name": "Genene Tise", "bio": null, "projects_count": 0, "devlogs_count": 0, "votes_count": 0, "ships_count": 0, "projects": [], "coding_time_seconds": 0, "coding_time_seconds_today": 0, "balance": "You need to have a pocket watcher badge to view this.", "badges": [], "created_at": "2025-06-17T03:40:43.817-04:00", "updated_at": "2025-07-03T19:35:50.783-04:00", "avatar": "https://avatars.slack-edge.com/2025-06-17/9073414184929_54c9b9f0be6d31ebb3e7_original.jpg", "custom_css": null}, {"id": 5449, "slack_id": "U0925BT9A9F", "display_name": "Nahary Toavina", "bio": null, "projects_count": 0, "devlogs_count": 0, "votes_count": 0, "ships_count": 0, "projects": [], "coding_time_seconds": 224403, "coding_time_seconds_today": 0, "balance": "You need to have a pocket watcher badge to view this.", "badges": [], "created_at": "2025-06-17T03:40:54.738-04:00", "updated_at": "2025-07-03T19:35:51.106-04:00", "avatar": "https://secure.gravatar.com/avatar/a35c858b4ad5060c73e6324f69925eb5.jpg?s=512&d=https%3A%2F%2Fa.slack-edge.com%2Fdf10d%2Fimg%2Favatars%2Fava_0016-512.png", "custom_css": null}, {"id": 5450, "slack_id": "U082MNEHH1U", "display_name": "Olly", "bio": null, "projects_count": 1, "devlogs_count": 1, "votes_count": 1, "ships_count": 0, "projects": [{"id": 7808, "title": "Revision Tracker App", "devlogs_count": 1, "created_at": "2025-07-23T05:29:45.195-04:00"}], "coding_time_seconds": 10257, "coding_time_seconds_today": 0, "balance": "You need to have a pocket watcher badge to view this.", "badges": [], "created_at": "2025-06-17T03:41:20.943-04:00", "updated_at": "2025-08-13T04:45:23.730-04:00", "avatar": "https://avatars.slack-edge.com/2025-06-02/8978033352003_39f4e9276fbdd7c48ceb_original.png", "custom_css": null}, {"id": 5451, "slack_id": "U091SRAPUCA", "display_name": "Dr. Muhammad Farhan", "bio": null, "projects_count": 0, "devlogs_count": 0, "votes_count": 0, "ships_count": 0, "projects": [], "coding_time_seconds": 0, "coding_time_seconds_today": 0, "balance": "You need to have a pocket watcher badge to view this.", "badges": [], "created_at": "2025-06-17T03:41:30.471-04:00", "updated_at": "2025-07-03T19:35:51.738-04:00", "avatar": "https://secure.gravatar.com/avatar/2b63dd938c2efade02f03cc80d7393c4.jpg?s=512&d=https%3A%2F%2Fa.slack-edge.com%2Fdf10d%2Fimg%2Favatars%2Fava_0013-512.png", "custom_css": null}, {"id": 5452, "slack_id": "U092F6SKPBJ", "display_name": "Suyash Mathur", "bio": null, "projects_count": 0, "devlogs_count": 0, "votes_count": 0, "ships_count": 0, "projects": [], "coding_time_seconds": 0, "coding_time_seconds_today": 0, "balance": "You need to have a pocket watcher badge to view this.", "badges": [], "created_at": "2025-06-17T03:41:56.800-04:00", "updated_at": "2025-07-03T19:35:52.052-04:00", "avatar": "https://avatars.slack-edge.com/2025-06-17/9054140084566_f3c484bebd6fd7d8489b_original.png", "custom_css": null}, {"id": 5453, "slack_id": "U091L3HTKFY", "display_name": "Daniele Porcaro", "bio": null, "projects_count": 0, "devlogs_count": 0, "votes_count": 0, "ships_count": 0, "projects": [], "coding_time_seconds": 4765, "coding_time_seconds_today": 103, "balance": "You need to have a pocket watcher badge to view this.", "badges": [], "created_at": "2025-06-17T03:42:17.066-04:00", "updated_at": "2025-07-03T19:35:52.365-04:00", "avatar": "https://secure.gravatar.com/avatar/5f73e74a99bafb0bfb804c9c336dadb8.jpg?s=512&d=https%3A%2F%2Fa.slack-edge.com%2Fdf10d%2Fimg%2Favatars%2Fava_0021-512.png", "custom_css": null}, {"id": 5454, "slack_id": "U091N0MV669", "display_name": "KANISHK KANISHK", "bio": null, "projects_count": 0, "devlogs_count": 0, "votes_count": 0, "ships_count": 0, "projects": [], "coding_time_seconds": 0, "coding_time_seconds_today": 0, "balance": "You need to have a pocket watcher badge to view this.", "badges": [], "created_at": "2025-06-17T03:42:17.415-04:00", "updated_at": "2025-07-03T19:35:52.732-04:00", "avatar": "https://avatars.slack-edge.com/2025-06-17/9059098103669_ca91b50ef8578d1b3ca2_original.png", "custom_css": null}, {"id": 5455, "slack_id": "U091L3PTZE2", "display_name": "Adwaith", "bio": null, "projects_count": 0, "devlogs_count": 0, "votes_count": 0, "ships_count": 0, "projects": [], "coding_time_seconds": 0, "coding_time_seconds_today": 0, "balance": "You need to have a pocket watcher badge to view this.", "badges": [], "created_at": "2025-06-17T03:42:25.388-04:00", "updated_at": "2025-07-03T19:35:53.045-04:00", "avatar": "https://secure.gravatar.com/avatar/f9d7c434053e5a73f331218e4992f0cf.jpg?s=512&d=https%3A%2F%2Fa.slack-edge.com%2Fdf10d%2Fimg%2Favatars%2Fava_0025-512.png", "custom_css": null}, {"id": 5456, "slack_id": "U0921CK92BB", "display_name": "Tee CP", "bio": null, "projects_count": 0, "devlogs_count": 0, "votes_count": 0, "ships_count": 0, "projects": [], "coding_time_seconds": 0, "coding_time_seconds_today": 0, "balance": "You need to have a pocket watcher badge to view this.", "badges": [], "created_at": "2025-06-17T03:43:18.373-04:00", "updated_at": "2025-07-03T19:35:53.363-04:00", "avatar": "https://secure.gravatar.com/avatar/3af6dcafaf41d21c9bef17277e197690.jpg?s=512&d=https%3A%2F%2Fa.slack-edge.com%2Fdf10d%2Fimg%2Favatars%2Fava_0018-512.png", "custom_css": null}, {"id": 5457, "slack_id": "U092F6VAE8G", "display_name": "ahmed", "bio": null, "projects_count": 0, "devlogs_count": 0, "votes_count": 0, "ships_count": 0, "projects": [], "coding_time_seconds": 0, "coding_time_seconds_today": 0, "balance": "You need to have a pocket watcher badge to view this.", "badges": [], "created_at": "2025-06-17T03:43:20.796-04:00", "updated_at": "2025-07-03T22:33:28.643-04:00", "avatar": "https://secure.gravatar.com/avatar/eaac8f8ee5e2ca5abe5a60930abec122.jpg?s=512&d=https%3A%2F%2Fa.slack-edge.com%2Fdf10d%2Fimg%2Favatars%2Fava_0021-512.png", "custom_css": null}, {"id": 5458, "slack_id": "U0925C1AX5X", "display_name": "Naqib", "bio": null, "projects_count": 0, "devlogs_count": 0, "votes_count": 0, "ships_count": 0, "projects": [], "coding_time_seconds": 0, "coding_time_seconds_today": 0, "balance": "You need to have a pocket watcher badge to view this.", "badges": [], "created_at": "2025-06-17T03:43:21.971-04:00", "updated_at": "2025-07-03T22:33:28.767-04:00", "avatar": "https://secure.gravatar.com/avatar/1d66123ba92e00c06d59275848f6d8c8.jpg?s=512&d=https%3A%2F%2Fa.slack-edge.com%2Fdf10d%2Fimg%2Favatars%2Fava_0005-512.png", "custom_css": null}, {"id": 5459, "slack_id": "U091L0FAFPD", "display_name": "Sayak Banerjee", "bio": null, "projects_count": 0, "devlogs_count": 0, "votes_count": 0, "ships_count": 0, "projects": [], "coding_time_seconds": 0, "coding_time_seconds_today": 0, "balance": "You need to have a pocket watcher badge to view this.", "badges": [], "created_at": "2025-06-17T03:44:09.407-04:00", "updated_at": "2025-07-03T19:35:54.037-04:00", "avatar": "https://avatars.slack-edge.com/2025-06-17/9061215093060_061ad539b2bca3fffe9b_original.jpg", "custom_css": null}, {"id": 5460, "slack_id": "U083H4U954G", "display_name": "Nathan", "bio": null, "projects_count": 2, "devlogs_count": 5, "votes_count": 39, "ships_count": 2, "projects": [{"id": 3701, "title": "Chess", "devlogs_count": 4, "created_at": "2025-06-25T09:35:11.735-04:00"}, {"id": 6824, "title": "Roleplay chat website", "devlogs_count": 1, "created_at": "2025-07-16T15:55:06.079-04:00"}], "coding_time_seconds": 171492, "coding_time_seconds_today": 0, "balance": "You need to have a pocket watcher badge to view this.", "badges": [{"name": "Maiden Voyage", "text": "you shipped your first project! the journey begins...", "icon": "\ud83d\udea2"}], "created_at": "2025-06-17T03:44:42.839-04:00", "updated_at": "2025-09-10T22:53:53.232-04:00", "avatar": "https://secure.gravatar.com/avatar/7bba23f335c9d4ab351cbc35ab6ad316.jpg?s=512&d=https%3A%2F%2Fa.slack-edge.com%2Fdf10d%2Fimg%2Favatars%2Fava_0004-512.png", "custom_css": null}], "pagination": {"page": 273, "pages": 1192, "count": 23828, "items": 20}}