{"users": [{"id": 5461, "slack_id": "U091L4CC278", "display_name": "Roman", "bio": null, "projects_count": 0, "devlogs_count": 0, "votes_count": 0, "ships_count": 0, "projects": [], "coding_time_seconds": 0, "coding_time_seconds_today": 0, "balance": "You need to have a pocket watcher badge to view this.", "badges": [], "created_at": "2025-06-17T03:45:55.267-04:00", "updated_at": "2025-07-03T19:35:54.666-04:00", "avatar": "https://avatars.slack-edge.com/2025-06-17/9073438134289_3f715a5067374a93512f_original.jpg", "custom_css": null}, {"id": 5462, "slack_id": "U091R2YTHPX", "display_name": "Eduardo Mendes Cambandza", "bio": null, "projects_count": 0, "devlogs_count": 0, "votes_count": 0, "ships_count": 0, "projects": [], "coding_time_seconds": 15298, "coding_time_seconds_today": 0, "balance": "You need to have a pocket watcher badge to view this.", "badges": [], "created_at": "2025-06-17T03:46:22.796-04:00", "updated_at": "2025-07-03T19:35:54.973-04:00", "avatar": "https://secure.gravatar.com/avatar/2f7a05ca432ca68f7500143ec1b04bd2.jpg?s=512&d=https%3A%2F%2Fa.slack-edge.com%2Fdf10d%2Fimg%2Favatars%2Fava_0020-512.png", "custom_css": null}, {"id": 5463, "slack_id": "U091L46AMLN", "display_name": "Bastien", "bio": null, "projects_count": 0, "devlogs_count": 0, "votes_count": 0, "ships_count": 0, "projects": [], "coding_time_seconds": 0, "coding_time_seconds_today": 0, "balance": "You need to have a pocket watcher badge to view this.", "badges": [], "created_at": "2025-06-17T03:46:41.422-04:00", "updated_at": "2025-07-03T19:35:55.287-04:00", "avatar": "https://secure.gravatar.com/avatar/35d9cf26d6649d0e2a967995ea7d3aad.jpg?s=512&d=https%3A%2F%2Fa.slack-edge.com%2Fdf10d%2Fimg%2Favatars%2Fava_0010-512.png", "custom_css": null}, {"id": 5464, "slack_id": "U091L4B5NFQ", "display_name": "Shashi", "bio": null, "projects_count": 0, "devlogs_count": 0, "votes_count": 0, "ships_count": 0, "projects": [], "coding_time_seconds": 0, "coding_time_seconds_today": 0, "balance": "You need to have a pocket watcher badge to view this.", "badges": [], "created_at": "2025-06-17T03:47:05.746-04:00", "updated_at": "2025-07-03T19:35:55.615-04:00", "avatar": "https://secure.gravatar.com/avatar/907731b93aca47c10e6d4ad159eb89b5.jpg?s=512&d=https%3A%2F%2Fa.slack-edge.com%2Fdf10d%2Fimg%2Favatars%2Fava_0024-512.png", "custom_css": null}, {"id": 5465, "slack_id": "U078A390FTQ", "display_name": "Oasis", "bio": null, "projects_count": 2, "devlogs_count": 6, "votes_count": 1, "ships_count": 0, "projects": [{"id": 1721, "title": "Nexter", "devlogs_count": 5, "created_at": "2025-06-19T04:56:01.736-04:00"}, {"id": 5343, "title": "Resume Template", "devlogs_count": 1, "created_at": "2025-07-04T15:43:42.998-04:00"}], "coding_time_seconds": 36181, "coding_time_seconds_today": 0, "balance": "You need to have a pocket watcher badge to view this.", "badges": [], "created_at": "2025-06-17T03:47:19.201-04:00", "updated_at": "2025-09-09T02:25:19.657-04:00", "avatar": "https://avatars.slack-edge.com/2025-09-09/9481159850309_3b8fb6497eb0efdcea7b_original.jpg", "custom_css": null}, {"id": 5466, "slack_id": "U091R2BSBDK", "display_name": "Azeem Ashraf", "bio": null, "projects_count": 0, "devlogs_count": 0, "votes_count": 0, "ships_count": 0, "projects": [], "coding_time_seconds": 149, "coding_time_seconds_today": 0, "balance": "You need to have a pocket watcher badge to view this.", "badges": [], "created_at": "2025-06-17T03:47:26.288-04:00", "updated_at": "2025-07-03T19:35:56.238-04:00", "avatar": "https://secure.gravatar.com/avatar/d932e60e51d4be6a4ab422712768df57.jpg?s=512&d=https%3A%2F%2Fa.slack-edge.com%2Fdf10d%2Fimg%2Favatars%2Fava_0006-512.png", "custom_css": null}, {"id": 5467, "slack_id": "U092F7FV03A", "display_name": "Aditya Kumar", "bio": null, "projects_count": 0, "devlogs_count": 0, "votes_count": 0, "ships_count": 0, "projects": [], "coding_time_seconds": 0, "coding_time_seconds_today": 0, "balance": "You need to have a pocket watcher badge to view this.", "badges": [], "created_at": "2025-06-17T03:47:33.910-04:00", "updated_at": "2025-07-03T19:35:56.564-04:00", "avatar": "https://secure.gravatar.com/avatar/111e47646d3c959665478a86e0169f5b.jpg?s=512&d=https%3A%2F%2Fa.slack-edge.com%2Fdf10d%2Fimg%2Favatars%2Fava_0018-512.png", "custom_css": null}, {"id": 5468, "slack_id": "U08TP302JDP", "display_name": "vidushi", "bio": null, "projects_count": 0, "devlogs_count": 0, "votes_count": 0, "ships_count": 0, "projects": [], "coding_time_seconds": 0, "coding_time_seconds_today": 0, "balance": "You need to have a pocket watcher badge to view this.", "badges": [], "created_at": "2025-06-17T03:47:42.020-04:00", "updated_at": "2025-07-03T19:35:56.896-04:00", "avatar": "https://secure.gravatar.com/avatar/98ddcc633ece09a6f37cdca418c8dc0c.jpg?s=512&d=https%3A%2F%2Fa.slack-edge.com%2Fdf10d%2Fimg%2Favatars%2Fava_0011-512.png", "custom_css": null}, {"id": 5469, "slack_id": "U091KUCPUG3", "display_name": "Julian", "bio": null, "projects_count": 0, "devlogs_count": 0, "votes_count": 0, "ships_count": 0, "projects": [], "coding_time_seconds": 3782, "coding_time_seconds_today": 0, "balance": "You need to have a pocket watcher badge to view this.", "badges": [], "created_at": "2025-06-17T03:47:49.171-04:00", "updated_at": "2025-07-03T19:35:57.221-04:00", "avatar": "https://secure.gravatar.com/avatar/904d4b15e2d76a82344f151fc69cf6c3.jpg?s=512&d=https%3A%2F%2Fa.slack-edge.com%2Fdf10d%2Fimg%2Favatars%2Fava_0007-512.png", "custom_css": null}, {"id": 5470, "slack_id": "U0925CNNWN5", "display_name": "Luca", "bio": null, "projects_count": 0, "devlogs_count": 0, "votes_count": 0, "ships_count": 0, "projects": [], "coding_time_seconds": 0, "coding_time_seconds_today": 0, "balance": "You need to have a pocket watcher badge to view this.", "badges": [], "created_at": "2025-06-17T03:48:18.562-04:00", "updated_at": "2025-07-03T19:35:57.531-04:00", "avatar": "https://secure.gravatar.com/avatar/0aa41b195a4ea509fbaea419201e7e13.jpg?s=512&d=https%3A%2F%2Fa.slack-edge.com%2Fdf10d%2Fimg%2Favatars%2Fava_0019-512.png", "custom_css": null}, {"id": 5471, "slack_id": "U091SSG1ZDY", "display_name": "nazir", "bio": null, "projects_count": 0, "devlogs_count": 0, "votes_count": 0, "ships_count": 0, "projects": [], "coding_time_seconds": 0, "coding_time_seconds_today": 0, "balance": "You need to have a pocket watcher badge to view this.", "badges": [], "created_at": "2025-06-17T03:48:23.206-04:00", "updated_at": "2025-07-03T19:35:57.851-04:00", "avatar": "https://secure.gravatar.com/avatar/4b106c081fc7a87702c8e54f0a9c7064.jpg?s=512&d=https%3A%2F%2Fa.slack-edge.com%2Fdf10d%2Fimg%2Favatars%2Fava_0001-512.png", "custom_css": null}, {"id": 5472, "slack_id": "U092ESECC2C", "display_name": "ari", "bio": null, "projects_count": 4, "devlogs_count": 15, "votes_count": 73, "ships_count": 3, "projects": [{"id": 3113, "title": "Black-Scholes Option Pricer", "devlogs_count": 5, "created_at": "2025-06-23T06:05:08.861-04:00"}, {"id": 13420, "title": "Phonological Rule Engine", "devlogs_count": 0, "created_at": "2025-09-16T00:59:44.836-04:00"}, {"id": 10499, "title": "Be A Barista!", "devlogs_count": 1, "created_at": "2025-08-07T14:31:45.611-04:00"}, {"id": 7250, "title": "Musicnerds", "devlogs_count": 9, "created_at": "2025-07-20T10:05:05.080-04:00"}], "coding_time_seconds": 436354, "coding_time_seconds_today": 0, "balance": "You need to have a pocket watcher badge to view this.", "badges": [{"name": "Maiden Voyage", "text": "you shipped your first project! the journey begins...", "icon": "\ud83d\udea2"}], "created_at": "2025-06-17T03:48:33.907-04:00", "updated_at": "2025-09-10T22:53:53.583-04:00", "avatar": "https://avatars.slack-edge.com/2025-06-28/9105646510247_28911f742c1c4dec63e9_original.png", "custom_css": null}, {"id": 5473, "slack_id": "U0925CS14U9", "display_name": "Saharat Suwannapapond (\u0e0b\u0e32\u0e23\u0e38\u0e2a)", "bio": null, "projects_count": 0, "devlogs_count": 0, "votes_count": 0, "ships_count": 0, "projects": [], "coding_time_seconds": 0, "coding_time_seconds_today": 0, "balance": "You need to have a pocket watcher badge to view this.", "badges": [], "created_at": "2025-06-17T03:48:47.147-04:00", "updated_at": "2025-07-03T19:35:58.476-04:00", "avatar": "https://avatars.slack-edge.com/2025-06-17/9060916993650_bf3ee925bd3ddff076d3_original.webp", "custom_css": null}, {"id": 5474, "slack_id": "U091BEJ5VRD", "display_name": "Archita Garg", "bio": null, "projects_count": 0, "devlogs_count": 0, "votes_count": 0, "ships_count": 0, "projects": [], "coding_time_seconds": 0, "coding_time_seconds_today": 0, "balance": "You need to have a pocket watcher badge to view this.", "badges": [], "created_at": "2025-06-17T03:49:03.976-04:00", "updated_at": "2025-07-03T19:35:58.787-04:00", "avatar": "https://secure.gravatar.com/avatar/dd94e55ef70f055fdeb8b6f2728e3593.jpg?s=512&d=https%3A%2F%2Fa.slack-edge.com%2Fdf10d%2Fimg%2Favatars%2Fava_0009-512.png", "custom_css": null}, {"id": 5475, "slack_id": "U091L4P2W06", "display_name": "Kalpana", "bio": null, "projects_count": 0, "devlogs_count": 0, "votes_count": 0, "ships_count": 0, "projects": [], "coding_time_seconds": 0, "coding_time_seconds_today": 0, "balance": "You need to have a pocket watcher badge to view this.", "badges": [], "created_at": "2025-06-17T03:49:57.947-04:00", "updated_at": "2025-07-03T19:35:59.092-04:00", "avatar": "https://secure.gravatar.com/avatar/107a3474fa88f5b69b88f12f246a72aa.jpg?s=512&d=https%3A%2F%2Fa.slack-edge.com%2Fdf10d%2Fimg%2Favatars%2Fava_0023-512.png", "custom_css": null}, {"id": 5476, "slack_id": "U091L08HH19", "display_name": "Ayoub Haji Hashemi", "bio": null, "projects_count": 0, "devlogs_count": 0, "votes_count": 0, "ships_count": 0, "projects": [], "coding_time_seconds": 0, "coding_time_seconds_today": 0, "balance": "You need to have a pocket watcher badge to view this.", "badges": [], "created_at": "2025-06-17T03:49:58.349-04:00", "updated_at": "2025-07-04T20:05:53.149-04:00", "avatar": "https://avatars.slack-edge.com/2025-06-17/9054179595302_eb5cf1d1b10e0b4a68bb_original.png", "custom_css": null}, {"id": 5477, "slack_id": "U08RYJ2FF97", "display_name": "Liam", "bio": null, "projects_count": 0, "devlogs_count": 0, "votes_count": 0, "ships_count": 0, "projects": [], "coding_time_seconds": 85686, "coding_time_seconds_today": 0, "balance": "You need to have a pocket watcher badge to view this.", "badges": [], "created_at": "2025-06-17T03:50:18.365-04:00", "updated_at": "2025-08-08T03:26:28.112-04:00", "avatar": "https://avatars.slack-edge.com/2025-05-08/8872993538851_bba84b2c532c5b01da64_original.png", "custom_css": null}, {"id": 5478, "slack_id": "U091T6L0LMA", "display_name": "saksham", "bio": null, "projects_count": 0, "devlogs_count": 0, "votes_count": 0, "ships_count": 0, "projects": [], "coding_time_seconds": 0, "coding_time_seconds_today": 0, "balance": "You need to have a pocket watcher badge to view this.", "badges": [], "created_at": "2025-06-17T03:50:22.885-04:00", "updated_at": "2025-08-07T05:44:33.734-04:00", "avatar": "https://secure.gravatar.com/avatar/9553e8ad66b66a2d5cb2dc7ac3269d48.jpg?s=512&d=https%3A%2F%2Fa.slack-edge.com%2Fdf10d%2Fimg%2Favatars%2Fava_0015-512.png", "custom_css": null}, {"id": 5479, "slack_id": "U07N8FCUNPQ", "display_name": "Shawn", "bio": null, "projects_count": 1, "devlogs_count": 2, "votes_count": 20, "ships_count": 1, "projects": [{"id": 12349, "title": "My Todo App", "devlogs_count": 2, "created_at": "2025-08-26T03:30:18.133-04:00"}], "coding_time_seconds": 100436, "coding_time_seconds_today": 0, "balance": "You need to have a pocket watcher badge to view this.", "badges": [{"name": "Maiden Voyage", "text": "you shipped your first project! the journey begins...", "icon": "\ud83d\udea2"}], "created_at": "2025-06-17T03:50:25.765-04:00", "updated_at": "2025-09-10T22:53:53.751-04:00", "avatar": "https://avatars.slack-edge.com/2024-11-08/8000881087667_3a4d43fdfaf63472f2a2_original.png", "custom_css": null}, {"id": 5480, "slack_id": "U091L19658T", "display_name": "David", "bio": null, "projects_count": 0, "devlogs_count": 0, "votes_count": 0, "ships_count": 0, "projects": [], "coding_time_seconds": 0, "coding_time_seconds_today": 0, "balance": "You need to have a pocket watcher badge to view this.", "badges": [], "created_at": "2025-06-17T03:50:39.123-04:00", "updated_at": "2025-07-03T19:36:00.431-04:00", "avatar": "https://secure.gravatar.com/avatar/5f741ab7f7ebd1a3ff1ecb0a46edd0ff.jpg?s=512&d=https%3A%2F%2Fa.slack-edge.com%2Fdf10d%2Fimg%2Favatars%2Fava_0022-512.png", "custom_css": null}], "pagination": {"page": 274, "pages": 1192, "count": 23828, "items": 20}}