{"users": [{"id": 5481, "slack_id": "U091L4S9L78", "display_name": "Farhana", "bio": null, "projects_count": 0, "devlogs_count": 0, "votes_count": 0, "ships_count": 0, "projects": [], "coding_time_seconds": 0, "coding_time_seconds_today": 0, "balance": "You need to have a pocket watcher badge to view this.", "badges": [], "created_at": "2025-06-17T03:50:41.116-04:00", "updated_at": "2025-07-03T19:36:00.739-04:00", "avatar": "https://secure.gravatar.com/avatar/5cf0a8eaac750562ac1dd8b7c63fd44e.jpg?s=512&d=https%3A%2F%2Fa.slack-edge.com%2Fdf10d%2Fimg%2Favatars%2Fava_0005-512.png", "custom_css": null}, {"id": 5482, "slack_id": "U08BUTGL3M5", "display_name": "Fearless", "bio": null, "projects_count": 0, "devlogs_count": 1, "votes_count": 2, "ships_count": 0, "projects": [], "coding_time_seconds": 231845, "coding_time_seconds_today": 0, "balance": "You need to have a pocket watcher badge to view this.", "badges": [{"name": "Maiden Voyage", "text": "you shipped your first project! the journey begins...", "icon": "\ud83d\udea2"}], "created_at": "2025-06-17T03:50:54.910-04:00", "updated_at": "2025-09-16T12:25:27.473-04:00", "avatar": "https://avatars.slack-edge.com/2025-09-16/9522551740195_b05d171f744e71fdd0ea_original.jpg", "custom_css": null}, {"id": 5483, "slack_id": "U091R3QCYSZ", "display_name": "Harmanjeet Kaur", "bio": null, "projects_count": 2, "devlogs_count": 1, "votes_count": 0, "ships_count": 0, "projects": [{"id": 651, "title": "PG life", "devlogs_count": 1, "created_at": "2025-06-17T04:09:39.435-04:00"}, {"id": 691, "title": "Movie Recommendation system", "devlogs_count": 0, "created_at": "2025-06-17T05:29:16.756-04:00"}], "coding_time_seconds": 70116, "coding_time_seconds_today": 0, "balance": "You need to have a pocket watcher badge to view this.", "badges": [], "created_at": "2025-06-17T03:51:01.162-04:00", "updated_at": "2025-07-03T19:36:01.371-04:00", "avatar": "https://secure.gravatar.com/avatar/ea8456a44ec904cc72b489e897ba8e0a.jpg?s=512&d=https%3A%2F%2Fa.slack-edge.com%2Fdf10d%2Fimg%2Favatars%2Fava_0007-512.png", "custom_css": null}, {"id": 5484, "slack_id": "U091MTL34CV", "display_name": "coolpixels", "bio": null, "projects_count": 1, "devlogs_count": 1, "votes_count": 15, "ships_count": 1, "projects": [{"id": 6605, "title": "Roblox Vector Search", "devlogs_count": 1, "created_at": "2025-07-14T13:43:35.085-04:00"}], "coding_time_seconds": 429797, "coding_time_seconds_today": 0, "balance": "You need to have a pocket watcher badge to view this.", "badges": [{"name": "Maiden Voyage", "text": "you shipped your first project! the journey begins...", "icon": "\ud83d\udea2"}], "created_at": "2025-06-17T03:51:05.470-04:00", "updated_at": "2025-09-10T22:53:53.901-04:00", "avatar": "https://secure.gravatar.com/avatar/4a52f55790dbd79b8ead20e3d107b52e.jpg?s=512&d=https%3A%2F%2Fa.slack-edge.com%2Fdf10d%2Fimg%2Favatars%2Fava_0003-512.png", "custom_css": null}, {"id": 5485, "slack_id": "U085C55KC77", "display_name": "manan", "bio": null, "projects_count": 0, "devlogs_count": 0, "votes_count": 0, "ships_count": 0, "projects": [], "coding_time_seconds": 116209, "coding_time_seconds_today": 0, "balance": "You need to have a pocket watcher badge to view this.", "badges": [], "created_at": "2025-06-17T03:51:37.481-04:00", "updated_at": "2025-09-05T06:46:19.389-04:00", "avatar": "https://secure.gravatar.com/avatar/410313cfbc228c46edff6b05a10e3a7d.jpg?s=512&d=https%3A%2F%2Fa.slack-edge.com%2Fdf10d%2Fimg%2Favatars%2Fava_0012-512.png", "custom_css": null}, {"id": 5486, "slack_id": "U092F8545ME", "display_name": "NZIA", "bio": null, "projects_count": 0, "devlogs_count": 0, "votes_count": 0, "ships_count": 0, "projects": [], "coding_time_seconds": 428, "coding_time_seconds_today": 0, "balance": "You need to have a pocket watcher badge to view this.", "badges": [], "created_at": "2025-06-17T03:51:38.070-04:00", "updated_at": "2025-07-03T19:36:02.386-04:00", "avatar": "https://secure.gravatar.com/avatar/f22f03b80b2ec514733494f2895b2520.jpg?s=512&d=https%3A%2F%2Fa.slack-edge.com%2Fdf10d%2Fimg%2Favatars%2Fava_0005-512.png", "custom_css": null}, {"id": 5487, "slack_id": "U091T6ULKA8", "display_name": "makku", "bio": null, "projects_count": 0, "devlogs_count": 0, "votes_count": 0, "ships_count": 0, "projects": [], "coding_time_seconds": 0, "coding_time_seconds_today": 0, "balance": "You need to have a pocket watcher badge to view this.", "badges": [], "created_at": "2025-06-17T03:51:45.979-04:00", "updated_at": "2025-07-03T19:36:02.967-04:00", "avatar": "https://secure.gravatar.com/avatar/35a35e5d83c35b3c3b4896259d86566e.jpg?s=512&d=https%3A%2F%2Fa.slack-edge.com%2Fdf10d%2Fimg%2Favatars%2Fava_0021-512.png", "custom_css": null}, {"id": 5488, "slack_id": "U092F891BDW", "display_name": "ag42", "bio": null, "projects_count": 0, "devlogs_count": 0, "votes_count": 0, "ships_count": 0, "projects": [], "coding_time_seconds": 153105, "coding_time_seconds_today": 0, "balance": "You need to have a pocket watcher badge to view this.", "badges": [], "created_at": "2025-06-17T03:52:02.327-04:00", "updated_at": "2025-07-03T19:36:03.293-04:00", "avatar": "https://secure.gravatar.com/avatar/db2de0d203dfedd7e4b5774b5ae40db6.jpg?s=512&d=https%3A%2F%2Fa.slack-edge.com%2Fdf10d%2Fimg%2Favatars%2Fava_0004-512.png", "custom_css": null}, {"id": 5489, "slack_id": "U091BF88ZPH", "display_name": "Ramanjit Singh", "bio": null, "projects_count": 1, "devlogs_count": 0, "votes_count": 0, "ships_count": 0, "projects": [{"id": 660, "title": "Advanced Retrieval Augmented Generation Project", "devlogs_count": 0, "created_at": "2025-06-17T04:26:32.231-04:00"}], "coding_time_seconds": 111423, "coding_time_seconds_today": 0, "balance": "You need to have a pocket watcher badge to view this.", "badges": [], "created_at": "2025-06-17T03:52:02.630-04:00", "updated_at": "2025-07-03T19:36:03.607-04:00", "avatar": "https://secure.gravatar.com/avatar/a61729542142c2aae0939aa6f6fe79bd.jpg?s=512&d=https%3A%2F%2Fa.slack-edge.com%2Fdf10d%2Fimg%2Favatars%2Fava_0024-512.png", "custom_css": null}, {"id": 5490, "slack_id": "U091T6YBESG", "display_name": "Subashinee N", "bio": null, "projects_count": 0, "devlogs_count": 0, "votes_count": 0, "ships_count": 0, "projects": [], "coding_time_seconds": 128716, "coding_time_seconds_today": 0, "balance": "You need to have a pocket watcher badge to view this.", "badges": [], "created_at": "2025-06-17T03:52:33.087-04:00", "updated_at": "2025-07-03T19:36:03.933-04:00", "avatar": "https://secure.gravatar.com/avatar/a48b17f208c0e9b28dbf40486c2c0ca8.jpg?s=512&d=https%3A%2F%2Fa.slack-edge.com%2Fdf10d%2Fimg%2Favatars%2Fava_0019-512.png", "custom_css": null}, {"id": 5491, "slack_id": "U091L56PM38", "display_name": "Ayush", "bio": null, "projects_count": 0, "devlogs_count": 0, "votes_count": 0, "ships_count": 0, "projects": [], "coding_time_seconds": 0, "coding_time_seconds_today": 0, "balance": "You need to have a pocket watcher badge to view this.", "badges": [], "created_at": "2025-06-17T03:52:33.873-04:00", "updated_at": "2025-07-03T19:36:04.269-04:00", "avatar": "https://secure.gravatar.com/avatar/6bb7ff01aab0a2c1999d7404de1bfd05.jpg?s=512&d=https%3A%2F%2Fa.slack-edge.com%2Fdf10d%2Fimg%2Favatars%2Fava_0022-512.png", "custom_css": null}, {"id": 5492, "slack_id": "U0925DCJ8E5", "display_name": "Chaitanya", "bio": null, "projects_count": 0, "devlogs_count": 0, "votes_count": 0, "ships_count": 0, "projects": [], "coding_time_seconds": 0, "coding_time_seconds_today": 0, "balance": "You need to have a pocket watcher badge to view this.", "badges": [], "created_at": "2025-06-17T03:53:14.179-04:00", "updated_at": "2025-07-03T19:36:04.599-04:00", "avatar": "https://secure.gravatar.com/avatar/3281862b697c1e9fdbde2cc652c361bc.jpg?s=512&d=https%3A%2F%2Fa.slack-edge.com%2Fdf10d%2Fimg%2Favatars%2Fava_0021-512.png", "custom_css": null}, {"id": 5493, "slack_id": "U091ST1QTU2", "display_name": "atharv-panjla", "bio": null, "projects_count": 1, "devlogs_count": 0, "votes_count": 0, "ships_count": 0, "projects": [{"id": 904, "title": "py Calculator", "devlogs_count": 0, "created_at": "2025-06-17T10:55:28.140-04:00"}], "coding_time_seconds": 3674, "coding_time_seconds_today": 0, "balance": "You need to have a pocket watcher badge to view this.", "badges": [], "created_at": "2025-06-17T03:53:28.908-04:00", "updated_at": "2025-07-03T19:36:04.961-04:00", "avatar": "https://secure.gravatar.com/avatar/8cdfe3903eeccb104aa128fde38c171f.jpg?s=512&d=https%3A%2F%2Fa.slack-edge.com%2Fdf10d%2Fimg%2Favatars%2Fava_0015-512.png", "custom_css": null}, {"id": 5494, "slack_id": "U05TPRD0VPW", "display_name": "Lior", "bio": null, "projects_count": 0, "devlogs_count": 0, "votes_count": 0, "ships_count": 0, "projects": [], "coding_time_seconds": 208525, "coding_time_seconds_today": 0, "balance": "You need to have a pocket watcher badge to view this.", "badges": [], "created_at": "2025-06-17T03:53:29.758-04:00", "updated_at": "2025-07-03T19:36:05.275-04:00", "avatar": "https://avatars.slack-edge.com/2023-09-22/5936491709909_fada1aa53c5543c49f86_original.jpg", "custom_css": null}, {"id": 5495, "slack_id": "U091R412QLD", "display_name": "Manuel Stieger", "bio": null, "projects_count": 0, "devlogs_count": 0, "votes_count": 0, "ships_count": 0, "projects": [], "coding_time_seconds": 0, "coding_time_seconds_today": 0, "balance": "You need to have a pocket watcher badge to view this.", "badges": [], "created_at": "2025-06-17T03:54:04.727-04:00", "updated_at": "2025-07-03T19:36:05.602-04:00", "avatar": "https://avatars.slack-edge.com/2025-06-17/9054200141110_59b696527d5e464227e0_original.png", "custom_css": null}, {"id": 5496, "slack_id": "U092F8MDB5E", "display_name": "Ibrahim Uzun", "bio": null, "projects_count": 0, "devlogs_count": 0, "votes_count": 0, "ships_count": 0, "projects": [], "coding_time_seconds": 49, "coding_time_seconds_today": 0, "balance": "You need to have a pocket watcher badge to view this.", "badges": [], "created_at": "2025-06-17T03:54:41.409-04:00", "updated_at": "2025-07-03T19:36:05.928-04:00", "avatar": "https://secure.gravatar.com/avatar/3e629e79f95754a5709794736e2d7982.jpg?s=512&d=https%3A%2F%2Fa.slack-edge.com%2Fdf10d%2Fimg%2Favatars%2Fava_0016-512.png", "custom_css": null}, {"id": 5497, "slack_id": "U091L1CFP1R", "display_name": "Jerry", "bio": null, "projects_count": 0, "devlogs_count": 0, "votes_count": 0, "ships_count": 0, "projects": [], "coding_time_seconds": 0, "coding_time_seconds_today": 0, "balance": "You need to have a pocket watcher badge to view this.", "badges": [], "created_at": "2025-06-17T03:54:56.241-04:00", "updated_at": "2025-07-03T19:36:06.256-04:00", "avatar": "https://secure.gravatar.com/avatar/aba17ca92df3811493b6e29af86e929d.jpg?s=512&d=https%3A%2F%2Fa.slack-edge.com%2Fdf10d%2Fimg%2Favatars%2Fava_0025-512.png", "custom_css": null}, {"id": 5498, "slack_id": "U091L2208HH", "display_name": "ak", "bio": null, "projects_count": 0, "devlogs_count": 0, "votes_count": 0, "ships_count": 0, "projects": [], "coding_time_seconds": 0, "coding_time_seconds_today": 0, "balance": "You need to have a pocket watcher badge to view this.", "badges": [], "created_at": "2025-06-17T03:55:11.368-04:00", "updated_at": "2025-07-03T19:36:06.578-04:00", "avatar": "https://secure.gravatar.com/avatar/1d40b2891dad51ea44375ee3a12aea78.jpg?s=512&d=https%3A%2F%2Fa.slack-edge.com%2Fdf10d%2Fimg%2Favatars%2Fava_0009-512.png", "custom_css": null}, {"id": 5499, "slack_id": "U085US8GYG6", "display_name": "shaan", "bio": null, "projects_count": 0, "devlogs_count": 0, "votes_count": 0, "ships_count": 0, "projects": [], "coding_time_seconds": 417, "coding_time_seconds_today": 0, "balance": "You need to have a pocket watcher badge to view this.", "badges": [], "created_at": "2025-06-17T03:55:26.694-04:00", "updated_at": "2025-08-13T20:25:55.660-04:00", "avatar": "https://avatars.slack-edge.com/2025-08-13/9377054863824_25cd4b7468c335292979_original.png", "custom_css": null}, {"id": 5500, "slack_id": "U091L1L6C3D", "display_name": "Kunal Bhatia", "bio": null, "projects_count": 0, "devlogs_count": 0, "votes_count": 0, "ships_count": 0, "projects": [], "coding_time_seconds": 0, "coding_time_seconds_today": 0, "balance": "You need to have a pocket watcher badge to view this.", "badges": [], "created_at": "2025-06-17T03:55:28.263-04:00", "updated_at": "2025-07-03T19:36:07.238-04:00", "avatar": "https://secure.gravatar.com/avatar/f1d0cdc5bdfb49ad20dd503b5d875993.jpg?s=512&d=https%3A%2F%2Fa.slack-edge.com%2Fdf10d%2Fimg%2Favatars%2Fava_0007-512.png", "custom_css": null}], "pagination": {"page": 275, "pages": 1192, "count": 23828, "items": 20}}