{"users": [{"id": 5501, "slack_id": "U091L1X1XBM", "display_name": "csd4ni3l", "bio": null, "projects_count": 6, "devlogs_count": 66, "votes_count": 219, "ships_count": 6, "projects": [{"id": 663, "title": "fractal-viewer", "devlogs_count": 9, "created_at": "2025-06-17T04:32:15.755-04:00"}, {"id": 750, "title": "Music Player", "devlogs_count": 21, "created_at": "2025-06-17T07:15:40.430-04:00"}, {"id": 6231, "title": "csd4ni3l-browser", "devlogs_count": 9, "created_at": "2025-07-11T13:09:36.798-04:00"}, {"id": 799, "title": "aimtrainer", "devlogs_count": 9, "created_at": "2025-06-17T08:30:05.240-04:00"}, {"id": 2912, "title": "Game Of Life", "devlogs_count": 7, "created_at": "2025-06-22T12:39:13.826-04:00"}, {"id": 753, "title": "ShatterStack", "devlogs_count": 9, "created_at": "2025-06-17T07:18:31.592-04:00"}], "coding_time_seconds": 773619, "coding_time_seconds_today": 0, "balance": "You need to have a pocket watcher badge to view this.", "badges": [{"name": "Maiden Voyage", "text": "you shipped your first project! the journey begins...", "icon": "\ud83d\udea2"}, {"name": "Ballot Stuffer", "text": "vote 100 times.", "icon": "https://summer.hackclub.com/assets/i_voted-bf851b48.png"}], "created_at": "2025-06-17T03:55:57.465-04:00", "updated_at": "2025-09-10T22:53:54.275-04:00", "avatar": "https://avatars.slack-edge.com/2025-07-09/9169641978262_ad279cf75f3ff4dff390_original.png", "custom_css": null}, {"id": 5502, "slack_id": "U081WSNR8TG", "display_name": "Dumi", "bio": null, "projects_count": 3, "devlogs_count": 20, "votes_count": 19, "ships_count": 1, "projects": [{"id": 3449, "title": "PlayBank", "devlogs_count": 2, "created_at": "2025-06-24T10:09:16.441-04:00"}, {"id": 12532, "title": "Fantasy Downloader", "devlogs_count": 4, "created_at": "2025-08-29T04:28:46.689-04:00"}, {"id": 3980, "title": "Personal Website", "devlogs_count": 6, "created_at": "2025-06-26T15:45:15.431-04:00"}], "coding_time_seconds": 225150, "coding_time_seconds_today": 0, "balance": "You need to have a pocket watcher badge to view this.", "badges": [{"name": "Maiden Voyage", "text": "you shipped your first project! the journey begins...", "icon": "\ud83d\udea2"}], "created_at": "2025-06-17T03:55:59.618-04:00", "updated_at": "2025-09-10T22:53:54.315-04:00", "avatar": "https://avatars.slack-edge.com/2025-03-28/8674845008980_76de5c63a25791e89749_original.png", "custom_css": null}, {"id": 5503, "slack_id": "U08RHBCUQG0", "display_name": "Fgz Vhji", "bio": null, "projects_count": 0, "devlogs_count": 0, "votes_count": 0, "ships_count": 0, "projects": [], "coding_time_seconds": 118695, "coding_time_seconds_today": 0, "balance": "You need to have a pocket watcher badge to view this.", "badges": [], "created_at": "2025-06-17T03:56:00.999-04:00", "updated_at": "2025-07-03T19:36:08.098-04:00", "avatar": "https://avatars.slack-edge.com/2025-05-04/8847934615427_b99ff30243ac61d03873_original.jpg", "custom_css": null}, {"id": 5504, "slack_id": "U091T7CBEE8", "display_name": "echatzis", "bio": null, "projects_count": 0, "devlogs_count": 0, "votes_count": 0, "ships_count": 0, "projects": [], "coding_time_seconds": 0, "coding_time_seconds_today": 0, "balance": "You need to have a pocket watcher badge to view this.", "badges": [], "created_at": "2025-06-17T03:56:18.895-04:00", "updated_at": "2025-07-03T19:36:08.414-04:00", "avatar": "https://secure.gravatar.com/avatar/3326d0ad0239ef36f837094ce6defcda.jpg?s=512&d=https%3A%2F%2Fa.slack-edge.com%2Fdf10d%2Fimg%2Favatars%2Fava_0008-512.png", "custom_css": null}, {"id": 5505, "slack_id": "U083RUY0DDJ", "display_name": "Nova", "bio": null, "projects_count": 0, "devlogs_count": 0, "votes_count": 0, "ships_count": 0, "projects": [], "coding_time_seconds": 110172, "coding_time_seconds_today": 0, "balance": "You need to have a pocket watcher badge to view this.", "badges": [], "created_at": "2025-06-17T03:56:29.167-04:00", "updated_at": "2025-08-20T02:26:17.686-04:00", "avatar": "https://avatars.slack-edge.com/2025-08-19/9381533918662_bf9fb78291cbce5b07f3_original.png", "custom_css": null}, {"id": 5506, "slack_id": "U092F8YTFR6", "display_name": "Aaron", "bio": null, "projects_count": 0, "devlogs_count": 0, "votes_count": 0, "ships_count": 0, "projects": [], "coding_time_seconds": 0, "coding_time_seconds_today": 0, "balance": "You need to have a pocket watcher badge to view this.", "badges": [], "created_at": "2025-06-17T03:56:43.941-04:00", "updated_at": "2025-07-03T19:36:09.070-04:00", "avatar": "https://secure.gravatar.com/avatar/a8a2b3040ca8b0319666e8aacad780a6.jpg?s=512&d=https%3A%2F%2Fa.slack-edge.com%2Fdf10d%2Fimg%2Favatars%2Fava_0007-512.png", "custom_css": null}, {"id": 5507, "slack_id": "U078VJ0QM9V", "display_name": "Arham", "bio": null, "projects_count": 1, "devlogs_count": 1, "votes_count": 0, "ships_count": 0, "projects": [{"id": 10716, "title": "Survive as caterpiller", "devlogs_count": 1, "created_at": "2025-08-10T02:26:57.745-04:00"}], "coding_time_seconds": 37115, "coding_time_seconds_today": 0, "balance": "You need to have a pocket watcher badge to view this.", "badges": [], "created_at": "2025-06-17T03:57:13.680-04:00", "updated_at": "2025-08-09T12:28:18.604-04:00", "avatar": "https://secure.gravatar.com/avatar/c7c44b15871482c64d51dc57cce948a2.jpg?s=512&d=https%3A%2F%2Fa.slack-edge.com%2Fdf10d%2Fimg%2Favatars%2Fava_0011-512.png", "custom_css": null}, {"id": 5508, "slack_id": "U091STT2ZMG", "display_name": "Bayram Turgut", "bio": null, "projects_count": 0, "devlogs_count": 0, "votes_count": 0, "ships_count": 0, "projects": [], "coding_time_seconds": 0, "coding_time_seconds_today": 0, "balance": "You need to have a pocket watcher badge to view this.", "badges": [], "created_at": "2025-06-17T03:57:30.249-04:00", "updated_at": "2025-07-03T19:36:09.707-04:00", "avatar": "https://secure.gravatar.com/avatar/241397393d3f141d026675a7e7cdfd28.jpg?s=512&d=https%3A%2F%2Fa.slack-edge.com%2Fdf10d%2Fimg%2Favatars%2Fava_0021-512.png", "custom_css": null}, {"id": 5509, "slack_id": "U091STSU474", "display_name": "ROMIT DUBEY", "bio": null, "projects_count": 1, "devlogs_count": 0, "votes_count": 0, "ships_count": 0, "projects": [{"id": 5685, "title": "AI Agent", "devlogs_count": 0, "created_at": "2025-07-07T04:05:28.062-04:00"}], "coding_time_seconds": 35805, "coding_time_seconds_today": 0, "balance": "You need to have a pocket watcher badge to view this.", "badges": [], "created_at": "2025-06-17T03:57:46.661-04:00", "updated_at": "2025-07-07T04:03:09.939-04:00", "avatar": "https://avatars.slack-edge.com/2025-06-17/9054096638771_cf9213249883c4cd28c1_original.jpg", "custom_css": null}, {"id": 5510, "slack_id": "U0925E2HVQR", "display_name": "Shaven Wickramanayaka", "bio": null, "projects_count": 2, "devlogs_count": 1, "votes_count": 0, "ships_count": 1, "projects": [{"id": 9970, "title": "Quote Giver", "devlogs_count": 0, "created_at": "2025-08-03T08:23:23.635-04:00"}, {"id": 9990, "title": "Personal Website", "devlogs_count": 1, "created_at": "2025-08-03T10:22:24.384-04:00"}], "coding_time_seconds": 21361, "coding_time_seconds_today": 0, "balance": "You need to have a pocket watcher badge to view this.", "badges": [{"name": "Maiden Voyage", "text": "you shipped your first project! the journey begins...", "icon": "\ud83d\udea2"}], "created_at": "2025-06-17T03:57:47.728-04:00", "updated_at": "2025-09-10T22:53:54.534-04:00", "avatar": "https://avatars.slack-edge.com/2025-06-17/9073493609505_761dbf6cdf8894309bde_original.jpg", "custom_css": null}, {"id": 5511, "slack_id": "U091L5TA486", "display_name": "Huy Nguyen", "bio": null, "projects_count": 0, "devlogs_count": 0, "votes_count": 0, "ships_count": 0, "projects": [], "coding_time_seconds": 0, "coding_time_seconds_today": 0, "balance": "You need to have a pocket watcher badge to view this.", "badges": [], "created_at": "2025-06-17T03:57:48.920-04:00", "updated_at": "2025-07-03T19:36:10.699-04:00", "avatar": "https://secure.gravatar.com/avatar/fa260675323962008bef195f5bf78bc6.jpg?s=512&d=https%3A%2F%2Fa.slack-edge.com%2Fdf10d%2Fimg%2Favatars%2Fava_0001-512.png", "custom_css": null}, {"id": 5512, "slack_id": "U0921AGCA81", "display_name": "G", "bio": null, "projects_count": 0, "devlogs_count": 0, "votes_count": 0, "ships_count": 0, "projects": [], "coding_time_seconds": 0, "coding_time_seconds_today": 0, "balance": "You need to have a pocket watcher badge to view this.", "badges": [], "created_at": "2025-06-17T03:58:09.515-04:00", "updated_at": "2025-07-03T19:36:11.029-04:00", "avatar": "https://secure.gravatar.com/avatar/f3c26811b0991217e8bac46e017e31fe.jpg?s=512&d=https%3A%2F%2Fa.slack-edge.com%2Fdf10d%2Fimg%2Favatars%2Fava_0016-512.png", "custom_css": null}, {"id": 5513, "slack_id": "U091R4HRH9B", "display_name": "ABHISHEK VASHISHTHA", "bio": null, "projects_count": 0, "devlogs_count": 0, "votes_count": 0, "ships_count": 0, "projects": [], "coding_time_seconds": 0, "coding_time_seconds_today": 0, "balance": "You need to have a pocket watcher badge to view this.", "badges": [], "created_at": "2025-06-17T03:58:11.614-04:00", "updated_at": "2025-07-03T19:36:11.388-04:00", "avatar": "https://avatars.slack-edge.com/2025-06-17/9059173253077_ebb09235d02ae90d128f_original.png", "custom_css": null}, {"id": 5514, "slack_id": "U091MC5L3GA", "display_name": "Krish Kishore", "bio": null, "projects_count": 0, "devlogs_count": 0, "votes_count": 0, "ships_count": 0, "projects": [], "coding_time_seconds": 0, "coding_time_seconds_today": 0, "balance": "You need to have a pocket watcher badge to view this.", "badges": [], "created_at": "2025-06-17T03:58:12.786-04:00", "updated_at": "2025-07-03T19:36:11.707-04:00", "avatar": "https://secure.gravatar.com/avatar/5fd8c137b04d42e7add85ce68bf98059.jpg?s=512&d=https%3A%2F%2Fa.slack-edge.com%2Fdf10d%2Fimg%2Favatars%2Fava_0022-512.png", "custom_css": null}, {"id": 5515, "slack_id": "U091L6BKALW", "display_name": "Harpuneet Singh", "bio": null, "projects_count": 0, "devlogs_count": 0, "votes_count": 0, "ships_count": 0, "projects": [], "coding_time_seconds": 0, "coding_time_seconds_today": 0, "balance": "You need to have a pocket watcher badge to view this.", "badges": [], "created_at": "2025-06-17T03:59:45.060-04:00", "updated_at": "2025-07-03T19:36:12.039-04:00", "avatar": "https://avatars.slack-edge.com/2025-06-17/9045566943591_4640beda5f6337ec6686_original.jpg", "custom_css": null}, {"id": 5516, "slack_id": "U0925E45LE5", "display_name": "Carrie Favor Joseph", "bio": null, "projects_count": 0, "devlogs_count": 0, "votes_count": 0, "ships_count": 0, "projects": [], "coding_time_seconds": 4290, "coding_time_seconds_today": 0, "balance": "You need to have a pocket watcher badge to view this.", "badges": [], "created_at": "2025-06-17T03:59:50.270-04:00", "updated_at": "2025-07-03T19:36:12.348-04:00", "avatar": "https://secure.gravatar.com/avatar/d715c8976b6561da64782e5cc1182ac3.jpg?s=512&d=https%3A%2F%2Fa.slack-edge.com%2Fdf10d%2Fimg%2Favatars%2Fava_0023-512.png", "custom_css": null}, {"id": 5517, "slack_id": "U071437KTU1", "display_name": "Maanvik Poddar", "bio": null, "projects_count": 0, "devlogs_count": 0, "votes_count": 0, "ships_count": 0, "projects": [], "coding_time_seconds": 0, "coding_time_seconds_today": 0, "balance": "You need to have a pocket watcher badge to view this.", "badges": [], "created_at": "2025-06-17T04:00:05.117-04:00", "updated_at": "2025-07-03T19:36:12.668-04:00", "avatar": "https://avatars.slack-edge.com/2024-04-25/7019025638534_33d15bc81ed7d942ceb4_original.png", "custom_css": null}, {"id": 5518, "slack_id": "U091L2RB1QT", "display_name": "Sai Vinay Potluri", "bio": null, "projects_count": 0, "devlogs_count": 0, "votes_count": 0, "ships_count": 0, "projects": [], "coding_time_seconds": 0, "coding_time_seconds_today": 0, "balance": "You need to have a pocket watcher badge to view this.", "badges": [], "created_at": "2025-06-17T04:00:55.817-04:00", "updated_at": "2025-07-03T19:36:12.994-04:00", "avatar": "https://secure.gravatar.com/avatar/55786a9f5533f4d2382ced6ad2e836a9.jpg?s=512&d=https%3A%2F%2Fa.slack-edge.com%2Fdf10d%2Fimg%2Favatars%2Fava_0003-512.png", "custom_css": null}, {"id": 5519, "slack_id": "U092F9WT9ME", "display_name": "Piyush Verma", "bio": null, "projects_count": 0, "devlogs_count": 0, "votes_count": 0, "ships_count": 0, "projects": [], "coding_time_seconds": 0, "coding_time_seconds_today": 0, "balance": "You need to have a pocket watcher badge to view this.", "badges": [], "created_at": "2025-06-17T04:01:25.373-04:00", "updated_at": "2025-07-03T19:36:13.327-04:00", "avatar": "https://avatars.slack-edge.com/2025-06-17/9054158757555_a2d8ec5962743cdfd45f_original.jpg", "custom_css": null}, {"id": 5520, "slack_id": "U092DH8GRME", "display_name": "Reis Can", "bio": null, "projects_count": 0, "devlogs_count": 0, "votes_count": 0, "ships_count": 0, "projects": [], "coding_time_seconds": 257059, "coding_time_seconds_today": 0, "balance": "You need to have a pocket watcher badge to view this.", "badges": [], "created_at": "2025-06-17T04:01:25.401-04:00", "updated_at": "2025-07-03T19:36:13.647-04:00", "avatar": "https://avatars.slack-edge.com/2025-06-17/9054121695859_531b3e8697ba401f3b92_original.png", "custom_css": null}], "pagination": {"page": 276, "pages": 1192, "count": 23828, "items": 20}}