{"users": [{"id": 5521, "slack_id": "U091T7UB5D2", "display_name": "Hadrien", "bio": null, "projects_count": 0, "devlogs_count": 0, "votes_count": 0, "ships_count": 0, "projects": [], "coding_time_seconds": 0, "coding_time_seconds_today": 0, "balance": "You need to have a pocket watcher badge to view this.", "badges": [], "created_at": "2025-06-17T04:02:23.532-04:00", "updated_at": "2025-07-03T19:36:13.966-04:00", "avatar": "https://secure.gravatar.com/avatar/47ee2700c676d3770c8038ddfc2844f3.jpg?s=512&d=https%3A%2F%2Fa.slack-edge.com%2Fdf10d%2Fimg%2Favatars%2Fava_0013-512.png", "custom_css": null}, {"id": 5522, "slack_id": "U0925E9DDMX", "display_name": "Giorgi Nachkebia", "bio": null, "projects_count": 0, "devlogs_count": 0, "votes_count": 0, "ships_count": 0, "projects": [], "coding_time_seconds": 0, "coding_time_seconds_today": 0, "balance": "You need to have a pocket watcher badge to view this.", "badges": [], "created_at": "2025-06-17T04:02:57.060-04:00", "updated_at": "2025-07-03T19:36:14.275-04:00", "avatar": "https://secure.gravatar.com/avatar/4a09f6e1ab154126cd6f27f9f18ffa17.jpg?s=512&d=https%3A%2F%2Fa.slack-edge.com%2Fdf10d%2Fimg%2Favatars%2Fava_0012-512.png", "custom_css": null}, {"id": 5523, "slack_id": "U091SUJ9542", "display_name": "Aaditya Mehta", "bio": null, "projects_count": 1, "devlogs_count": 0, "votes_count": 0, "ships_count": 0, "projects": [{"id": 12661, "title": "My workspace", "devlogs_count": 0, "created_at": "2025-08-31T09:03:43.536-04:00"}], "coding_time_seconds": 15427, "coding_time_seconds_today": 0, "balance": "You need to have a pocket watcher badge to view this.", "badges": [], "created_at": "2025-06-17T04:03:17.657-04:00", "updated_at": "2025-08-31T08:56:17.076-04:00", "avatar": "https://secure.gravatar.com/avatar/2dd0c027fcd8d3c21407bb21578a018c.jpg?s=512&d=https%3A%2F%2Fa.slack-edge.com%2Fdf10d%2Fimg%2Favatars%2Fava_0017-512.png", "custom_css": null}, {"id": 5524, "slack_id": "U091L76R1M4", "display_name": "Aditya Mittal", "bio": null, "projects_count": 0, "devlogs_count": 0, "votes_count": 0, "ships_count": 0, "projects": [], "coding_time_seconds": 0, "coding_time_seconds_today": 0, "balance": "You need to have a pocket watcher badge to view this.", "badges": [], "created_at": "2025-06-17T04:03:22.574-04:00", "updated_at": "2025-07-03T19:36:14.945-04:00", "avatar": "https://avatars.slack-edge.com/2025-06-17/9073529338065_4111b5d4272151007199_original.png", "custom_css": null}, {"id": 5525, "slack_id": "U091T8RA8J0", "display_name": "Aviral Keshari", "bio": null, "projects_count": 0, "devlogs_count": 0, "votes_count": 0, "ships_count": 0, "projects": [], "coding_time_seconds": 0, "coding_time_seconds_today": 0, "balance": "You need to have a pocket watcher badge to view this.", "badges": [], "created_at": "2025-06-17T04:03:26.707-04:00", "updated_at": "2025-07-03T19:36:15.260-04:00", "avatar": "https://avatars.slack-edge.com/2025-06-17/9054256694934_29e05c3b0f95f065ab45_original.png", "custom_css": null}, {"id": 5526, "slack_id": "U091R5TMUA1", "display_name": "ZeroByteATT", "bio": null, "projects_count": 0, "devlogs_count": 0, "votes_count": 0, "ships_count": 0, "projects": [], "coding_time_seconds": 0, "coding_time_seconds_today": 0, "balance": "You need to have a pocket watcher badge to view this.", "badges": [], "created_at": "2025-06-17T04:03:53.173-04:00", "updated_at": "2025-07-03T19:36:15.590-04:00", "avatar": "https://secure.gravatar.com/avatar/132e215b531ba850a00a4482c0043f93.jpg?s=512&d=https%3A%2F%2Fa.slack-edge.com%2Fdf10d%2Fimg%2Favatars%2Fava_0003-512.png", "custom_css": null}, {"id": 5527, "slack_id": "U091R5TG41K", "display_name": "Oni Ismail", "bio": null, "projects_count": 0, "devlogs_count": 0, "votes_count": 0, "ships_count": 0, "projects": [], "coding_time_seconds": 0, "coding_time_seconds_today": 0, "balance": "You need to have a pocket watcher badge to view this.", "badges": [], "created_at": "2025-06-17T04:04:16.051-04:00", "updated_at": "2025-07-03T19:36:15.914-04:00", "avatar": "https://secure.gravatar.com/avatar/dd4d83618f8be0320c599863a060e1de.jpg?s=512&d=https%3A%2F%2Fa.slack-edge.com%2Fdf10d%2Fimg%2Favatars%2Fava_0007-512.png", "custom_css": null}, {"id": 5528, "slack_id": "U08NXSM8A79", "display_name": "Malak", "bio": null, "projects_count": 0, "devlogs_count": 0, "votes_count": 0, "ships_count": 0, "projects": [], "coding_time_seconds": 0, "coding_time_seconds_today": 0, "balance": "You need to have a pocket watcher badge to view this.", "badges": [], "created_at": "2025-06-17T04:04:29.820-04:00", "updated_at": "2025-07-03T19:36:16.291-04:00", "avatar": "https://secure.gravatar.com/avatar/18fc6ef0c8461a3edea865adb5d1ed77.jpg?s=512&d=https%3A%2F%2Fa.slack-edge.com%2Fdf10d%2Fimg%2Favatars%2Fava_0016-512.png", "custom_css": null}, {"id": 5529, "slack_id": "U091BH7K3AT", "display_name": "Abhijith Prakash", "bio": null, "projects_count": 0, "devlogs_count": 0, "votes_count": 0, "ships_count": 0, "projects": [], "coding_time_seconds": 0, "coding_time_seconds_today": 0, "balance": "You need to have a pocket watcher badge to view this.", "badges": [], "created_at": "2025-06-17T04:04:39.215-04:00", "updated_at": "2025-07-03T19:36:16.611-04:00", "avatar": "https://secure.gravatar.com/avatar/f7607394cf19d079c041b44e87f19fe5.jpg?s=512&d=https%3A%2F%2Fa.slack-edge.com%2Fdf10d%2Fimg%2Favatars%2Fava_0017-512.png", "custom_css": null}, {"id": 5530, "slack_id": "U092F9DM3T2", "display_name": "Harshita", "bio": null, "projects_count": 0, "devlogs_count": 0, "votes_count": 0, "ships_count": 0, "projects": [], "coding_time_seconds": 30498, "coding_time_seconds_today": 0, "balance": "You need to have a pocket watcher badge to view this.", "badges": [], "created_at": "2025-06-17T04:04:53.769-04:00", "updated_at": "2025-07-03T19:36:16.933-04:00", "avatar": "https://secure.gravatar.com/avatar/65037e2f9614fb12942af9563e1152fb.jpg?s=512&d=https%3A%2F%2Fa.slack-edge.com%2Fdf10d%2Fimg%2Favatars%2Fava_0017-512.png", "custom_css": null}, {"id": 5531, "slack_id": "U091R620RSR", "display_name": "Zoro", "bio": null, "projects_count": 0, "devlogs_count": 0, "votes_count": 0, "ships_count": 0, "projects": [], "coding_time_seconds": 0, "coding_time_seconds_today": 0, "balance": "You need to have a pocket watcher badge to view this.", "badges": [], "created_at": "2025-06-17T04:05:12.673-04:00", "updated_at": "2025-07-03T19:36:17.260-04:00", "avatar": "https://secure.gravatar.com/avatar/71bb7387fe6e6fe8f5d45950faa50b2f.jpg?s=512&d=https%3A%2F%2Fa.slack-edge.com%2Fdf10d%2Fimg%2Favatars%2Fava_0016-512.png", "custom_css": null}, {"id": 5532, "slack_id": "U091R655YP7", "display_name": "Audrey Lai", "bio": null, "projects_count": 0, "devlogs_count": 0, "votes_count": 0, "ships_count": 0, "projects": [], "coding_time_seconds": 43688, "coding_time_seconds_today": 0, "balance": "You need to have a pocket watcher badge to view this.", "badges": [], "created_at": "2025-06-17T04:05:32.317-04:00", "updated_at": "2025-07-03T19:36:17.583-04:00", "avatar": "https://avatars.slack-edge.com/2025-06-17/9054269574150_91c69ef603441ce75391_original.jpg", "custom_css": null}, {"id": 5533, "slack_id": "U091R5QHB4M", "display_name": "Manish", "bio": null, "projects_count": 0, "devlogs_count": 0, "votes_count": 0, "ships_count": 0, "projects": [], "coding_time_seconds": 0, "coding_time_seconds_today": 0, "balance": "You need to have a pocket watcher badge to view this.", "badges": [], "created_at": "2025-06-17T04:05:44.669-04:00", "updated_at": "2025-07-03T19:36:18.119-04:00", "avatar": "https://secure.gravatar.com/avatar/ff833ce8ad108202e5fee1311bdec3af.jpg?s=512&d=https%3A%2F%2Fa.slack-edge.com%2Fdf10d%2Fimg%2Favatars%2Fava_0017-512.png", "custom_css": null}, {"id": 5534, "slack_id": "U091BHC44FR", "display_name": "Aaku", "bio": null, "projects_count": 0, "devlogs_count": 0, "votes_count": 0, "ships_count": 0, "projects": [], "coding_time_seconds": 0, "coding_time_seconds_today": 0, "balance": "You need to have a pocket watcher badge to view this.", "badges": [], "created_at": "2025-06-17T04:06:25.974-04:00", "updated_at": "2025-07-03T19:36:18.430-04:00", "avatar": "https://secure.gravatar.com/avatar/84230dcadf4522ce4b8823efc321459b.jpg?s=512&d=https%3A%2F%2Fa.slack-edge.com%2Fdf10d%2Fimg%2Favatars%2Fava_0000-512.png", "custom_css": null}, {"id": 5535, "slack_id": "U091T97CXBN", "display_name": "Levente", "bio": null, "projects_count": 1, "devlogs_count": 5, "votes_count": 0, "ships_count": 0, "projects": [{"id": 1318, "title": "Aporia", "devlogs_count": 5, "created_at": "2025-06-18T08:14:50.196-04:00"}], "coding_time_seconds": 297501, "coding_time_seconds_today": 0, "balance": "You need to have a pocket watcher badge to view this.", "badges": [], "created_at": "2025-06-17T04:07:26.471-04:00", "updated_at": "2025-07-03T19:36:18.746-04:00", "avatar": "https://secure.gravatar.com/avatar/1957905dbdcae568263f62c0efb29892.jpg?s=512&d=https%3A%2F%2Fa.slack-edge.com%2Fdf10d%2Fimg%2Favatars%2Fava_0025-512.png", "custom_css": null}, {"id": 5536, "slack_id": "U092FA81H08", "display_name": "Aditya Verma", "bio": null, "projects_count": 0, "devlogs_count": 0, "votes_count": 1, "ships_count": 0, "projects": [], "coding_time_seconds": 7554, "coding_time_seconds_today": 0, "balance": "You need to have a pocket watcher badge to view this.", "badges": [], "created_at": "2025-06-17T04:07:27.054-04:00", "updated_at": "2025-07-03T19:36:19.069-04:00", "avatar": "https://avatars.slack-edge.com/2025-07-02/9161434822400_40a4e3b33700dc1e15f9_original.png", "custom_css": null}, {"id": 5537, "slack_id": "U091BH67407", "display_name": "Aleksander Oleszkiewicz", "bio": null, "projects_count": 0, "devlogs_count": 0, "votes_count": 0, "ships_count": 0, "projects": [], "coding_time_seconds": 0, "coding_time_seconds_today": 0, "balance": "You need to have a pocket watcher badge to view this.", "badges": [], "created_at": "2025-06-17T04:07:28.514-04:00", "updated_at": "2025-07-03T19:36:19.385-04:00", "avatar": "https://secure.gravatar.com/avatar/45f5c36c8609302318e84555e3adb9f9.jpg?s=512&d=https%3A%2F%2Fa.slack-edge.com%2Fdf10d%2Fimg%2Favatars%2Fava_0006-512.png", "custom_css": null}, {"id": 5538, "slack_id": "U091T9GPG7N", "display_name": "Edgar DARTIER", "bio": null, "projects_count": 0, "devlogs_count": 0, "votes_count": 0, "ships_count": 0, "projects": [], "coding_time_seconds": 1548, "coding_time_seconds_today": 0, "balance": "You need to have a pocket watcher badge to view this.", "badges": [], "created_at": "2025-06-17T04:08:01.329-04:00", "updated_at": "2025-07-03T19:36:19.709-04:00", "avatar": "https://secure.gravatar.com/avatar/e2f7d1754af0099d2b7937899403cac6.jpg?s=512&d=https%3A%2F%2Fa.slack-edge.com%2Fdf10d%2Fimg%2Favatars%2Fava_0005-512.png", "custom_css": null}, {"id": 5539, "slack_id": "U091L4BG8P5", "display_name": "Rohan Hasabe", "bio": null, "projects_count": 0, "devlogs_count": 0, "votes_count": 0, "ships_count": 0, "projects": [], "coding_time_seconds": 0, "coding_time_seconds_today": 0, "balance": "You need to have a pocket watcher badge to view this.", "badges": [], "created_at": "2025-06-17T04:09:08.907-04:00", "updated_at": "2025-07-03T19:36:20.033-04:00", "avatar": "https://avatars.slack-edge.com/2025-06-17/9045620472487_4a15695f2daa0dad1ba9_original.jpg", "custom_css": null}, {"id": 5540, "slack_id": "U0925FWJBC1", "display_name": "Princy Chauhan", "bio": null, "projects_count": 0, "devlogs_count": 0, "votes_count": 0, "ships_count": 0, "projects": [], "coding_time_seconds": 709, "coding_time_seconds_today": 0, "balance": "You need to have a pocket watcher badge to view this.", "badges": [], "created_at": "2025-06-17T04:09:09.649-04:00", "updated_at": "2025-07-03T19:36:20.350-04:00", "avatar": "https://secure.gravatar.com/avatar/4d6dd7b82e3f46cc2d75ae8b29f4c92a.jpg?s=512&d=https%3A%2F%2Fa.slack-edge.com%2Fdf10d%2Fimg%2Favatars%2Fava_0006-512.png", "custom_css": null}], "pagination": {"page": 277, "pages": 1192, "count": 23828, "items": 20}}