{"users": [{"id": 5541, "slack_id": "U0925FUGYRX", "display_name": "lilyang", "bio": null, "projects_count": 0, "devlogs_count": 0, "votes_count": 0, "ships_count": 0, "projects": [], "coding_time_seconds": 0, "coding_time_seconds_today": 0, "balance": "You need to have a pocket watcher badge to view this.", "badges": [], "created_at": "2025-06-17T04:09:38.274-04:00", "updated_at": "2025-07-03T19:36:20.667-04:00", "avatar": "https://secure.gravatar.com/avatar/c574f3466c6e34615c532bf7f35b0418.jpg?s=512&d=https%3A%2F%2Fa.slack-edge.com%2Fdf10d%2Fimg%2Favatars%2Fava_0026-512.png", "custom_css": null}, {"id": 5542, "slack_id": "U081TBVQLCX", "display_name": "David", "bio": null, "projects_count": 2, "devlogs_count": 21, "votes_count": 90, "ships_count": 2, "projects": [{"id": 11639, "title": "CodeClicker", "devlogs_count": 11, "created_at": "2025-08-18T01:46:18.709-04:00"}, {"id": 13534, "title": "Liveboard", "devlogs_count": 7, "created_at": "2025-09-18T19:52:25.553-04:00"}], "coding_time_seconds": 403401, "coding_time_seconds_today": 5507, "balance": "You need to have a pocket watcher badge to view this.", "badges": [{"name": "Maiden Voyage", "text": "you shipped your first project! the journey begins...", "icon": "\ud83d\udea2"}], "created_at": "2025-06-17T04:09:41.330-04:00", "updated_at": "2025-09-10T22:53:55.438-04:00", "avatar": "https://secure.gravatar.com/avatar/54d41134f7d88d1fdc2d7e551f56863b.jpg?s=512&d=https%3A%2F%2Fa.slack-edge.com%2Fdf10d%2Fimg%2Favatars%2Fava_0006-512.png", "custom_css": null}, {"id": 5543, "slack_id": "U091L81TWUE", "display_name": "Jun", "bio": null, "projects_count": 0, "devlogs_count": 0, "votes_count": 0, "ships_count": 0, "projects": [], "coding_time_seconds": 0, "coding_time_seconds_today": 0, "balance": "You need to have a pocket watcher badge to view this.", "badges": [], "created_at": "2025-06-17T04:09:59.818-04:00", "updated_at": "2025-07-03T19:36:21.325-04:00", "avatar": "https://secure.gravatar.com/avatar/1b0293b14259f0b75bf70337d2a6d491.jpg?s=512&d=https%3A%2F%2Fa.slack-edge.com%2Fdf10d%2Fimg%2Favatars%2Fava_0024-512.png", "custom_css": null}, {"id": 5544, "slack_id": "U087MF15F5G", "display_name": "Sheel Mehta", "bio": null, "projects_count": 0, "devlogs_count": 0, "votes_count": 0, "ships_count": 0, "projects": [], "coding_time_seconds": 39624, "coding_time_seconds_today": 0, "balance": "You need to have a pocket watcher badge to view this.", "badges": [], "created_at": "2025-06-17T04:10:04.900-04:00", "updated_at": "2025-08-25T16:03:58.042-04:00", "avatar": "https://avatars.slack-edge.com/2025-01-07/8252928989542_4cf6baa3d39d296ccd2c_original.jpg", "custom_css": null}, {"id": 5545, "slack_id": "U07JEDAMFV3", "display_name": "genr234", "bio": null, "projects_count": 0, "devlogs_count": 0, "votes_count": 0, "ships_count": 0, "projects": [], "coding_time_seconds": 0, "coding_time_seconds_today": 0, "balance": "You need to have a pocket watcher badge to view this.", "badges": [], "created_at": "2025-06-17T04:10:17.715-04:00", "updated_at": "2025-09-19T06:25:43.672-04:00", "avatar": "https://avatars.slack-edge.com/2025-09-19/9544896382965_bf284e7dd49cdd6c1a43_original.png", "custom_css": null}, {"id": 5546, "slack_id": "U091L84PUBY", "display_name": "Eros Klein", "bio": null, "projects_count": 1, "devlogs_count": 0, "votes_count": 0, "ships_count": 0, "projects": [{"id": 717, "title": "ProCo", "devlogs_count": 0, "created_at": "2025-06-17T06:18:11.689-04:00"}], "coding_time_seconds": 406627, "coding_time_seconds_today": 6176, "balance": "You need to have a pocket watcher badge to view this.", "badges": [], "created_at": "2025-06-17T04:10:42.218-04:00", "updated_at": "2025-07-03T19:36:22.299-04:00", "avatar": "https://avatars.slack-edge.com/2025-06-17/9045627483863_4eea4aae6bab67d3a1c9_original.png", "custom_css": null}, {"id": 5547, "slack_id": "U091BHZB44X", "display_name": "Muhammad Akshaf", "bio": null, "projects_count": 0, "devlogs_count": 0, "votes_count": 0, "ships_count": 0, "projects": [], "coding_time_seconds": 0, "coding_time_seconds_today": 0, "balance": "You need to have a pocket watcher badge to view this.", "badges": [], "created_at": "2025-06-17T04:11:36.506-04:00", "updated_at": "2025-07-03T19:36:22.623-04:00", "avatar": "https://secure.gravatar.com/avatar/dbc1ea8d804b16334f05406e6458cafd.jpg?s=512&d=https%3A%2F%2Fa.slack-edge.com%2Fdf10d%2Fimg%2Favatars%2Fava_0005-512.png", "custom_css": null}, {"id": 5548, "slack_id": "U091L4X4VV1", "display_name": "Yash Israni", "bio": null, "projects_count": 0, "devlogs_count": 0, "votes_count": 0, "ships_count": 0, "projects": [], "coding_time_seconds": 565457, "coding_time_seconds_today": 3103, "balance": "You need to have a pocket watcher badge to view this.", "badges": [], "created_at": "2025-06-17T04:11:59.810-04:00", "updated_at": "2025-07-03T19:36:22.940-04:00", "avatar": "https://avatars.slack-edge.com/2025-06-17/9054178297987_6ca861575577c67b7dca_original.png", "custom_css": null}, {"id": 5549, "slack_id": "U091T0F4Y10", "display_name": "turtlegamer _", "bio": null, "projects_count": 1, "devlogs_count": 3, "votes_count": 3, "ships_count": 1, "projects": [{"id": 820, "title": "bsai", "devlogs_count": 3, "created_at": "2025-06-17T09:06:36.841-04:00"}], "coding_time_seconds": 12721, "coding_time_seconds_today": 0, "balance": "You need to have a pocket watcher badge to view this.", "badges": [{"name": "Maiden Voyage", "text": "you shipped your first project! the journey begins...", "icon": "\ud83d\udea2"}], "created_at": "2025-06-17T04:12:04.382-04:00", "updated_at": "2025-09-10T22:53:55.636-04:00", "avatar": "https://secure.gravatar.com/avatar/2a9ba44c177c0ab741140d365fb45744.jpg?s=512&d=https%3A%2F%2Fa.slack-edge.com%2Fdf10d%2Fimg%2Favatars%2Fava_0013-512.png", "custom_css": null}, {"id": 5550, "slack_id": "U091GS1EHHC", "display_name": "Hafsa KARAACHIRA", "bio": null, "projects_count": 0, "devlogs_count": 0, "votes_count": 0, "ships_count": 0, "projects": [], "coding_time_seconds": 0, "coding_time_seconds_today": 0, "balance": "You need to have a pocket watcher badge to view this.", "badges": [], "created_at": "2025-06-17T04:12:40.333-04:00", "updated_at": "2025-07-03T19:36:23.572-04:00", "avatar": "https://avatars.slack-edge.com/2025-06-17/9054178094339_ca60f9488416d0b6d25e_original.png", "custom_css": null}, {"id": 5551, "slack_id": "U091BJ8EYB1", "display_name": "Wade Olivieri", "bio": null, "projects_count": 1, "devlogs_count": 1, "votes_count": 1, "ships_count": 0, "projects": [{"id": 7442, "title": "OrgMan", "devlogs_count": 1, "created_at": "2025-07-21T19:10:43.658-04:00"}], "coding_time_seconds": 120844, "coding_time_seconds_today": 0, "balance": "You need to have a pocket watcher badge to view this.", "badges": [], "created_at": "2025-06-17T04:12:41.965-04:00", "updated_at": "2025-07-03T19:36:23.889-04:00", "avatar": "https://secure.gravatar.com/avatar/f60dc5d25fb1658ce2e9e5cd0bf71521.jpg?s=512&d=https%3A%2F%2Fa.slack-edge.com%2Fdf10d%2Fimg%2Favatars%2Fava_0019-512.png", "custom_css": null}, {"id": 5552, "slack_id": "U091T0RAE2W", "display_name": "Maksim", "bio": null, "projects_count": 1, "devlogs_count": 5, "votes_count": 0, "ships_count": 0, "projects": [{"id": 2859, "title": "emotional heatmap", "devlogs_count": 5, "created_at": "2025-06-22T08:46:21.200-04:00"}], "coding_time_seconds": 74034, "coding_time_seconds_today": 0, "balance": "You need to have a pocket watcher badge to view this.", "badges": [], "created_at": "2025-06-17T04:12:51.637-04:00", "updated_at": "2025-07-03T19:36:24.205-04:00", "avatar": "https://avatars.slack-edge.com/2025-06-17/9063410758485_825248a548717abecc92_original.jpg", "custom_css": null}, {"id": 5553, "slack_id": "U08TS9KD81Z", "display_name": "Haven", "bio": null, "projects_count": 0, "devlogs_count": 0, "votes_count": 0, "ships_count": 0, "projects": [], "coding_time_seconds": 6526, "coding_time_seconds_today": 0, "balance": "You need to have a pocket watcher badge to view this.", "badges": [], "created_at": "2025-06-17T04:13:13.007-04:00", "updated_at": "2025-07-09T16:54:21.883-04:00", "avatar": "https://secure.gravatar.com/avatar/5cbedd761b6785a4550fb978ae51e083.jpg?s=512&d=https%3A%2F%2Fa.slack-edge.com%2Fdf10d%2Fimg%2Favatars%2Fava_0004-512.png", "custom_css": null}, {"id": 5554, "slack_id": "U091BJJG4MV", "display_name": "Metaphysicist", "bio": null, "projects_count": 0, "devlogs_count": 0, "votes_count": 0, "ships_count": 0, "projects": [], "coding_time_seconds": 0, "coding_time_seconds_today": 0, "balance": "You need to have a pocket watcher badge to view this.", "badges": [], "created_at": "2025-06-17T04:14:20.418-04:00", "updated_at": "2025-07-03T19:36:24.828-04:00", "avatar": "https://secure.gravatar.com/avatar/1ffe2968f392082af8d20c457abc489d.jpg?s=512&d=https%3A%2F%2Fa.slack-edge.com%2Fdf10d%2Fimg%2Favatars%2Fava_0022-512.png", "custom_css": null}, {"id": 5555, "slack_id": "U091SP5NR18", "display_name": "Jeff", "bio": null, "projects_count": 0, "devlogs_count": 0, "votes_count": 0, "ships_count": 0, "projects": [], "coding_time_seconds": 445606, "coding_time_seconds_today": 0, "balance": "You need to have a pocket watcher badge to view this.", "badges": [], "created_at": "2025-06-17T04:15:34.842-04:00", "updated_at": "2025-07-03T19:36:25.156-04:00", "avatar": "https://secure.gravatar.com/avatar/fb49287b096ce00676df0282ea38987b.jpg?s=512&d=https%3A%2F%2Fa.slack-edge.com%2Fdf10d%2Fimg%2Favatars%2Fava_0005-512.png", "custom_css": null}, {"id": 5556, "slack_id": "U091R7D6LJZ", "display_name": "AK_", "bio": null, "projects_count": 0, "devlogs_count": 0, "votes_count": 0, "ships_count": 0, "projects": [], "coding_time_seconds": 0, "coding_time_seconds_today": 0, "balance": "You need to have a pocket watcher badge to view this.", "badges": [], "created_at": "2025-06-17T04:15:53.830-04:00", "updated_at": "2025-07-03T21:43:05.128-04:00", "avatar": "https://secure.gravatar.com/avatar/1bb964ff52ecf00c542f79799f4f4c1e.jpg?s=512&d=https%3A%2F%2Fa.slack-edge.com%2Fdf10d%2Fimg%2Favatars%2Fava_0005-512.png", "custom_css": null}, {"id": 5557, "slack_id": "U091R665EUV", "display_name": "Himzyoti Talukdar", "bio": null, "projects_count": 1, "devlogs_count": 0, "votes_count": 0, "ships_count": 0, "projects": [{"id": 670, "title": "Brightness Control ", "devlogs_count": 0, "created_at": "2025-06-17T04:59:47.172-04:00"}], "coding_time_seconds": 21485, "coding_time_seconds_today": 0, "balance": "You need to have a pocket watcher badge to view this.", "badges": [], "created_at": "2025-06-17T04:16:18.976-04:00", "updated_at": "2025-07-03T19:36:25.651-04:00", "avatar": "https://secure.gravatar.com/avatar/86e92a1fb5f09d085d8c4caaa426cdf7.jpg?s=512&d=https%3A%2F%2Fa.slack-edge.com%2Fdf10d%2Fimg%2Favatars%2Fava_0004-512.png", "custom_css": null}, {"id": 5558, "slack_id": "UP43AK1QD", "display_name": "Alen Francis", "bio": null, "projects_count": 0, "devlogs_count": 0, "votes_count": 0, "ships_count": 0, "projects": [], "coding_time_seconds": 0, "coding_time_seconds_today": 0, "balance": "You need to have a pocket watcher badge to view this.", "badges": [], "created_at": "2025-06-17T04:16:30.199-04:00", "updated_at": "2025-07-03T19:36:25.969-04:00", "avatar": "https://secure.gravatar.com/avatar/7bfb1a5ba6ff7a4df9274ecd33eb1eec.jpg?s=512&d=https%3A%2F%2Fa.slack-edge.com%2Fdf10d%2Fimg%2Favatars%2Fava_0018-512.png", "custom_css": null}, {"id": 5559, "slack_id": "U091BJUSE95", "display_name": "DAVISH E", "bio": null, "projects_count": 0, "devlogs_count": 0, "votes_count": 0, "ships_count": 0, "projects": [], "coding_time_seconds": 78965, "coding_time_seconds_today": 0, "balance": "You need to have a pocket watcher badge to view this.", "badges": [], "created_at": "2025-06-17T04:16:41.270-04:00", "updated_at": "2025-07-03T19:36:26.288-04:00", "avatar": "https://avatars.slack-edge.com/2025-06-17/9061057142130_499f0f758a123d14b07e_original.png", "custom_css": null}, {"id": 5560, "slack_id": "U07S78NUJEB", "display_name": "Filip Burger", "bio": null, "projects_count": 0, "devlogs_count": 0, "votes_count": 0, "ships_count": 0, "projects": [], "coding_time_seconds": 0, "coding_time_seconds_today": 0, "balance": "You need to have a pocket watcher badge to view this.", "badges": [], "created_at": "2025-06-17T04:16:53.055-04:00", "updated_at": "2025-07-03T19:36:26.567-04:00", "avatar": "https://secure.gravatar.com/avatar/c463dd0a6cea738aa53ce6a2b2497767.jpg?s=512&d=https%3A%2F%2Fa.slack-edge.com%2Fdf10d%2Fimg%2Favatars%2Fava_0026-512.png", "custom_css": null}], "pagination": {"page": 278, "pages": 1192, "count": 23828, "items": 20}}