{"users": [{"id": 5561, "slack_id": "U091L228M4K", "display_name": "Muhamad Hanjla", "bio": null, "projects_count": 0, "devlogs_count": 0, "votes_count": 0, "ships_count": 0, "projects": [], "coding_time_seconds": 0, "coding_time_seconds_today": 0, "balance": "You need to have a pocket watcher badge to view this.", "badges": [], "created_at": "2025-06-17T04:17:16.078-04:00", "updated_at": "2025-07-03T19:36:26.827-04:00", "avatar": "https://secure.gravatar.com/avatar/88ee684d6bc4761dcc9a65244d211f0e.jpg?s=512&d=https%3A%2F%2Fa.slack-edge.com%2Fdf10d%2Fimg%2Favatars%2Fava_0016-512.png", "custom_css": null}, {"id": 5562, "slack_id": "U0922E3F34H", "display_name": "ShamuLC", "bio": null, "projects_count": 2, "devlogs_count": 5, "votes_count": 36, "ships_count": 2, "projects": [{"id": 3175, "title": "CountYourMiles", "devlogs_count": 1, "created_at": "2025-06-23T10:21:57.267-04:00"}, {"id": 3925, "title": "WorkHardPlayHard", "devlogs_count": 4, "created_at": "2025-06-26T10:51:13.865-04:00"}], "coding_time_seconds": 155592, "coding_time_seconds_today": 0, "balance": "You need to have a pocket watcher badge to view this.", "badges": [{"name": "Maiden Voyage", "text": "you shipped your first project! the journey begins...", "icon": "\ud83d\udea2"}], "created_at": "2025-06-17T04:17:22.380-04:00", "updated_at": "2025-09-10T22:53:56.151-04:00", "avatar": "https://secure.gravatar.com/avatar/d03713f2c927e37bc9aa98aa7cbc1799.jpg?s=512&d=https%3A%2F%2Fa.slack-edge.com%2Fdf10d%2Fimg%2Favatars%2Fava_0018-512.png", "custom_css": null}, {"id": 5563, "slack_id": "U087K5C7ZPF", "display_name": "billybu10", "bio": null, "projects_count": 5, "devlogs_count": 18, "votes_count": 80, "ships_count": 4, "projects": [{"id": 13595, "title": "Real World Golf", "devlogs_count": 1, "created_at": "2025-09-20T11:27:07.418-04:00"}, {"id": 11945, "title": "20-20-20 Timer", "devlogs_count": 2, "created_at": "2025-08-21T11:05:41.722-04:00"}, {"id": 6080, "title": "TablesBot", "devlogs_count": 3, "created_at": "2025-07-10T12:48:26.502-04:00"}, {"id": 6936, "title": "SpaceToilet", "devlogs_count": 2, "created_at": "2025-07-17T13:21:02.043-04:00"}, {"id": 2672, "title": "Etymology Extension", "devlogs_count": 4, "created_at": "2025-06-21T16:19:33.522-04:00"}], "coding_time_seconds": 142243, "coding_time_seconds_today": 0, "balance": "You need to have a pocket watcher badge to view this.", "badges": [{"name": "Maiden Voyage", "text": "you shipped your first project! the journey begins...", "icon": "\ud83d\udea2"}], "created_at": "2025-06-17T04:17:43.426-04:00", "updated_at": "2025-09-10T22:53:56.189-04:00", "avatar": "https://secure.gravatar.com/avatar/6e1fcdfe03751ac7c1ca1ebeddab2152.jpg?s=512&d=https%3A%2F%2Fa.slack-edge.com%2Fdf10d%2Fimg%2Favatars%2Fava_0015-512.png", "custom_css": null}, {"id": 5564, "slack_id": "U091L8PK1F0", "display_name": "Jay prajapati", "bio": null, "projects_count": 0, "devlogs_count": 0, "votes_count": 0, "ships_count": 0, "projects": [], "coding_time_seconds": 0, "coding_time_seconds_today": 0, "balance": "You need to have a pocket watcher badge to view this.", "badges": [], "created_at": "2025-06-17T04:17:45.109-04:00", "updated_at": "2025-07-03T19:36:27.626-04:00", "avatar": "https://secure.gravatar.com/avatar/e5bd0fa1826ae2b3efd40fa522cc7379.jpg?s=512&d=https%3A%2F%2Fa.slack-edge.com%2Fdf10d%2Fimg%2Favatars%2Fava_0023-512.png", "custom_css": null}, {"id": 5565, "slack_id": "U091L5U2STD", "display_name": "Balilej", "bio": null, "projects_count": 0, "devlogs_count": 0, "votes_count": 0, "ships_count": 0, "projects": [], "coding_time_seconds": 0, "coding_time_seconds_today": 0, "balance": "You need to have a pocket watcher badge to view this.", "badges": [], "created_at": "2025-06-17T04:17:49.388-04:00", "updated_at": "2025-07-03T19:36:27.885-04:00", "avatar": "https://secure.gravatar.com/avatar/4e570e3f8b4b40b046ed04912a14ba13.jpg?s=512&d=https%3A%2F%2Fa.slack-edge.com%2Fdf10d%2Fimg%2Favatars%2Fava_0026-512.png", "custom_css": null}, {"id": 5566, "slack_id": "U07UJ0TGRA6", "display_name": "rishaan", "bio": null, "projects_count": 0, "devlogs_count": 0, "votes_count": 0, "ships_count": 0, "projects": [], "coding_time_seconds": 0, "coding_time_seconds_today": 0, "balance": "You need to have a pocket watcher badge to view this.", "badges": [], "created_at": "2025-06-17T04:17:55.790-04:00", "updated_at": "2025-07-03T19:36:28.141-04:00", "avatar": "https://avatars.slack-edge.com/2024-11-01/7955538466359_2f97d16b8ea31feaab72_original.jpg", "custom_css": null}, {"id": 5567, "slack_id": "U091TAV8WN8", "display_name": "Pascu Dacian", "bio": null, "projects_count": 0, "devlogs_count": 0, "votes_count": 0, "ships_count": 0, "projects": [], "coding_time_seconds": 49, "coding_time_seconds_today": 0, "balance": "You need to have a pocket watcher badge to view this.", "badges": [], "created_at": "2025-06-17T04:17:56.300-04:00", "updated_at": "2025-07-03T19:36:28.405-04:00", "avatar": "https://avatars.slack-edge.com/2025-06-17/9061388113172_4dda1075d571a827f7de_original.jpg", "custom_css": null}, {"id": 5568, "slack_id": "U03S68RPRPZ", "display_name": "Jyotirmaya", "bio": null, "projects_count": 0, "devlogs_count": 0, "votes_count": 0, "ships_count": 0, "projects": [], "coding_time_seconds": 0, "coding_time_seconds_today": 0, "balance": "You need to have a pocket watcher badge to view this.", "badges": [], "created_at": "2025-06-17T04:18:20.991-04:00", "updated_at": "2025-07-03T19:36:28.687-04:00", "avatar": "https://secure.gravatar.com/avatar/78802883f019da03214309d3cc4ce939.jpg?s=512&d=https%3A%2F%2Fa.slack-edge.com%2Fdf10d%2Fimg%2Favatars%2Fava_0002-512.png", "custom_css": null}, {"id": 5569, "slack_id": "U091R81K66R", "display_name": "Quinver", "bio": null, "projects_count": 2, "devlogs_count": 8, "votes_count": 3, "ships_count": 0, "projects": [{"id": 677, "title": "ssh-battle", "devlogs_count": 6, "created_at": "2025-06-17T05:07:01.593-04:00"}, {"id": 10602, "title": "AI Conversations", "devlogs_count": 2, "created_at": "2025-08-08T16:55:44.046-04:00"}], "coding_time_seconds": 407146, "coding_time_seconds_today": 0, "balance": "You need to have a pocket watcher badge to view this.", "badges": [], "created_at": "2025-06-17T04:20:24.651-04:00", "updated_at": "2025-08-08T16:53:04.438-04:00", "avatar": "https://secure.gravatar.com/avatar/5c6f401de4467fc71b73fb853d1ca486.jpg?s=512&d=https%3A%2F%2Fa.slack-edge.com%2Fdf10d%2Fimg%2Favatars%2Fava_0017-512.png", "custom_css": null}, {"id": 5570, "slack_id": "U092FC99W4Q", "display_name": "Hugo Torres", "bio": null, "projects_count": 0, "devlogs_count": 0, "votes_count": 0, "ships_count": 0, "projects": [], "coding_time_seconds": 1204, "coding_time_seconds_today": 0, "balance": "You need to have a pocket watcher badge to view this.", "badges": [], "created_at": "2025-06-17T04:20:29.083-04:00", "updated_at": "2025-07-03T19:36:29.211-04:00", "avatar": "https://secure.gravatar.com/avatar/378b8e8027c7a6a69d9978f435ebf858.jpg?s=512&d=https%3A%2F%2Fa.slack-edge.com%2Fdf10d%2Fimg%2Favatars%2Fava_0010-512.png", "custom_css": null}, {"id": 5571, "slack_id": "U091L649DU3", "display_name": "Sven", "bio": null, "projects_count": 0, "devlogs_count": 0, "votes_count": 0, "ships_count": 0, "projects": [], "coding_time_seconds": 237463, "coding_time_seconds_today": 2442, "balance": "You need to have a pocket watcher badge to view this.", "badges": [], "created_at": "2025-06-17T04:20:42.211-04:00", "updated_at": "2025-07-03T19:36:29.471-04:00", "avatar": "https://secure.gravatar.com/avatar/05c35f07742b83fe2bc828ea25dfcf6b.jpg?s=512&d=https%3A%2F%2Fa.slack-edge.com%2Fdf10d%2Fimg%2Favatars%2Fava_0005-512.png", "custom_css": null}, {"id": 5572, "slack_id": "U092C5XSWTA", "display_name": "giuseppe Berardi", "bio": null, "projects_count": 0, "devlogs_count": 0, "votes_count": 0, "ships_count": 0, "projects": [], "coding_time_seconds": 0, "coding_time_seconds_today": 0, "balance": "You need to have a pocket watcher badge to view this.", "badges": [], "created_at": "2025-06-17T04:20:50.802-04:00", "updated_at": "2025-07-03T19:36:29.784-04:00", "avatar": "https://secure.gravatar.com/avatar/b6449ad2955a48097e8bd1b04483ac59.jpg?s=512&d=https%3A%2F%2Fa.slack-edge.com%2Fdf10d%2Fimg%2Favatars%2Fava_0006-512.png", "custom_css": null}, {"id": 5573, "slack_id": "U091R88LM6Z", "display_name": "Karan Agarwal", "bio": null, "projects_count": 0, "devlogs_count": 0, "votes_count": 0, "ships_count": 0, "projects": [], "coding_time_seconds": 0, "coding_time_seconds_today": 0, "balance": "You need to have a pocket watcher badge to view this.", "badges": [], "created_at": "2025-06-17T04:20:59.967-04:00", "updated_at": "2025-07-03T19:36:30.049-04:00", "avatar": "https://secure.gravatar.com/avatar/03e7b4e8151634b3853b13bdaf87ebdd.jpg?s=512&d=https%3A%2F%2Fa.slack-edge.com%2Fdf10d%2Fimg%2Favatars%2Fava_0020-512.png", "custom_css": null}, {"id": 5574, "slack_id": "U091L9MNG4W", "display_name": "Shashwat Maurya", "bio": null, "projects_count": 0, "devlogs_count": 0, "votes_count": 0, "ships_count": 0, "projects": [], "coding_time_seconds": 0, "coding_time_seconds_today": 0, "balance": "You need to have a pocket watcher badge to view this.", "badges": [], "created_at": "2025-06-17T04:21:02.359-04:00", "updated_at": "2025-07-03T19:36:30.316-04:00", "avatar": "https://secure.gravatar.com/avatar/04d09ddfc05384fa7673a48c4dc721c2.jpg?s=512&d=https%3A%2F%2Fa.slack-edge.com%2Fdf10d%2Fimg%2Favatars%2Fava_0012-512.png", "custom_css": null}, {"id": 5575, "slack_id": "U091RAET9J8", "display_name": "Sverre", "bio": null, "projects_count": 0, "devlogs_count": 0, "votes_count": 0, "ships_count": 0, "projects": [], "coding_time_seconds": 0, "coding_time_seconds_today": 0, "balance": "You need to have a pocket watcher badge to view this.", "badges": [], "created_at": "2025-06-17T04:21:10.013-04:00", "updated_at": "2025-07-04T20:05:59.074-04:00", "avatar": "https://secure.gravatar.com/avatar/13193706b0ebcf1a7035c9c806a16b5c.jpg?s=512&d=https%3A%2F%2Fa.slack-edge.com%2Fdf10d%2Fimg%2Favatars%2Fava_0008-512.png", "custom_css": null}, {"id": 5576, "slack_id": "U091L6ANSCT", "display_name": "faxnoprinter", "bio": null, "projects_count": 0, "devlogs_count": 0, "votes_count": 0, "ships_count": 0, "projects": [], "coding_time_seconds": 0, "coding_time_seconds_today": 0, "balance": "You need to have a pocket watcher badge to view this.", "badges": [], "created_at": "2025-06-17T04:21:24.018-04:00", "updated_at": "2025-07-03T19:36:30.707-04:00", "avatar": "https://secure.gravatar.com/avatar/368cfb8e0a7b377be3015e2eca51113e.jpg?s=512&d=https%3A%2F%2Fa.slack-edge.com%2Fdf10d%2Fimg%2Favatars%2Fava_0021-512.png", "custom_css": null}, {"id": 5577, "slack_id": "U091T1U0DJN", "display_name": "Tanishq Sangwan", "bio": null, "projects_count": 4, "devlogs_count": 16, "votes_count": 16, "ships_count": 2, "projects": [{"id": 3663, "title": "Sparkonics Website", "devlogs_count": 4, "created_at": "2025-06-25T06:21:47.126-04:00"}, {"id": 7360, "title": "Moments", "devlogs_count": 1, "created_at": "2025-07-21T08:58:15.810-04:00"}, {"id": 2781, "title": "TheUnspokenProject", "devlogs_count": 5, "created_at": "2025-06-22T04:16:13.426-04:00"}, {"id": 681, "title": "NJACK SOC2 StyleWars", "devlogs_count": 6, "created_at": "2025-06-17T05:13:42.365-04:00"}], "coding_time_seconds": 145544, "coding_time_seconds_today": 0, "balance": "You need to have a pocket watcher badge to view this.", "badges": [{"name": "Maiden Voyage", "text": "you shipped your first project! the journey begins...", "icon": "\ud83d\udea2"}], "created_at": "2025-06-17T04:21:42.771-04:00", "updated_at": "2025-09-10T22:53:56.672-04:00", "avatar": "https://avatars.slack-edge.com/2025-06-17/9073620475921_b98d8aee49b55f2ea011_original.png", "custom_css": null}, {"id": 5578, "slack_id": "U091TBD9HA8", "display_name": "Tr\u1ea7n V\u0169", "bio": null, "projects_count": 0, "devlogs_count": 0, "votes_count": 0, "ships_count": 0, "projects": [], "coding_time_seconds": 802, "coding_time_seconds_today": 0, "balance": "You need to have a pocket watcher badge to view this.", "badges": [], "created_at": "2025-06-17T04:21:45.376-04:00", "updated_at": "2025-07-03T19:36:31.237-04:00", "avatar": "https://secure.gravatar.com/avatar/07bc9e080a7a73535a35dc681ed2bdda.jpg?s=512&d=https%3A%2F%2Fa.slack-edge.com%2Fdf10d%2Fimg%2Favatars%2Fava_0023-512.png", "custom_css": null}, {"id": 5579, "slack_id": "U091BKDEKD5", "display_name": "Atharva Mulgund", "bio": null, "projects_count": 0, "devlogs_count": 0, "votes_count": 0, "ships_count": 0, "projects": [], "coding_time_seconds": 0, "coding_time_seconds_today": 0, "balance": "You need to have a pocket watcher badge to view this.", "badges": [], "created_at": "2025-06-17T04:21:51.097-04:00", "updated_at": "2025-07-03T19:36:31.507-04:00", "avatar": "https://avatars.slack-edge.com/2025-06-17/9059301492389_91327da7a112e113774b_original.jpg", "custom_css": null}, {"id": 5580, "slack_id": "U06V2Q7MB7E", "display_name": "Armaan", "bio": null, "projects_count": 0, "devlogs_count": 0, "votes_count": 0, "ships_count": 0, "projects": [], "coding_time_seconds": 0, "coding_time_seconds_today": 0, "balance": "You need to have a pocket watcher badge to view this.", "badges": [], "created_at": "2025-06-17T04:22:04.588-04:00", "updated_at": "2025-07-03T19:36:31.768-04:00", "avatar": "https://avatars.slack-edge.com/2024-04-19/6975780437335_6fdb42d4cca3a8e8ddd8_original.jpg", "custom_css": null}], "pagination": {"page": 279, "pages": 1192, "count": 23828, "items": 20}}