{"users": [{"id": 541, "slack_id": "U091PGDHYQ4", "display_name": "Fernando Leon", "bio": null, "projects_count": 0, "devlogs_count": 0, "votes_count": 0, "ships_count": 0, "projects": [], "coding_time_seconds": 0, "coding_time_seconds_today": 0, "balance": "You need to have a pocket watcher badge to view this.", "badges": [], "created_at": "2025-06-16T11:58:19.411-04:00", "updated_at": "2025-07-03T19:13:27.403-04:00", "avatar": "https://secure.gravatar.com/avatar/1ce6622a29d2450b5e53b17bbf27312f.jpg?s=512&d=https%3A%2F%2Fa.slack-edge.com%2Fdf10d%2Fimg%2Favatars%2Fava_0026-512.png", "custom_css": null}, {"id": 542, "slack_id": "U0822JX63S9", "display_name": "GGORG", "bio": null, "projects_count": 6, "devlogs_count": 28, "votes_count": 22, "ships_count": 3, "projects": [{"id": 2889, "title": "FlipperFS", "devlogs_count": 1, "created_at": "2025-06-22T11:14:06.343-04:00"}, {"id": 4104, "title": "Converge Monitor", "devlogs_count": 2, "created_at": "2025-06-27T13:25:47.488-04:00"}, {"id": 11976, "title": "TinyRT", "devlogs_count": 4, "created_at": "2025-08-21T17:22:45.720-04:00"}, {"id": 10008, "title": "Agin Website", "devlogs_count": 0, "created_at": "2025-08-03T12:21:19.832-04:00"}, {"id": 7582, "title": "SOM Catppuccin theme", "devlogs_count": 6, "created_at": "2025-07-22T07:25:49.199-04:00"}, {"id": 6635, "title": "XMLang", "devlogs_count": 15, "created_at": "2025-07-14T17:42:04.370-04:00"}], "coding_time_seconds": 512050, "coding_time_seconds_today": 0, "balance": "You need to have a pocket watcher badge to view this.", "badges": [{"name": "Maiden Voyage", "text": "you shipped your first project! the journey begins...", "icon": "\ud83d\udea2"}], "created_at": "2025-06-16T11:58:20.040-04:00", "updated_at": "2025-09-10T22:51:24.005-04:00", "avatar": "https://avatars.slack-edge.com/2024-11-23/8071525912789_b2f8dc95365f7c6008f0_original.png", "custom_css": null}, {"id": 543, "slack_id": "U0843EYM5J6", "display_name": "corn", "bio": null, "projects_count": 2, "devlogs_count": 2, "votes_count": 20, "ships_count": 1, "projects": [{"id": 658, "title": "CornWeb", "devlogs_count": 1, "created_at": "2025-06-17T04:25:11.770-04:00"}, {"id": 6281, "title": "YouChat", "devlogs_count": 1, "created_at": "2025-07-12T00:46:12.590-04:00"}], "coding_time_seconds": 181133, "coding_time_seconds_today": 0, "balance": "You need to have a pocket watcher badge to view this.", "badges": [{"name": "Maiden Voyage", "text": "you shipped your first project! the journey begins...", "icon": "\ud83d\udea2"}], "created_at": "2025-06-16T11:58:20.386-04:00", "updated_at": "2025-09-10T22:51:24.040-04:00", "avatar": "https://secure.gravatar.com/avatar/cf160830548dffbd1fe0a2d6e1e8cc09.jpg?s=512&d=https%3A%2F%2Fa.slack-edge.com%2Fdf10d%2Fimg%2Favatars%2Fava_0014-512.png", "custom_css": null}, {"id": 544, "slack_id": "U091M9Z1J8M", "display_name": "dimitri", "bio": null, "projects_count": 1, "devlogs_count": 3, "votes_count": 0, "ships_count": 0, "projects": [{"id": 1349, "title": "visualbuilder", "devlogs_count": 3, "created_at": "2025-06-18T10:58:59.799-04:00"}], "coding_time_seconds": 157011, "coding_time_seconds_today": 0, "balance": "You need to have a pocket watcher badge to view this.", "badges": [], "created_at": "2025-06-16T11:58:21.357-04:00", "updated_at": "2025-07-03T19:13:28.194-04:00", "avatar": "https://avatars.slack-edge.com/2025-06-18/9083601325569_bcb3e857c98ccc47198a_original.png", "custom_css": null}, {"id": 545, "slack_id": "U0921L21997", "display_name": "Pushkar Singh", "bio": null, "projects_count": 0, "devlogs_count": 0, "votes_count": 0, "ships_count": 0, "projects": [], "coding_time_seconds": 45183, "coding_time_seconds_today": 0, "balance": "You need to have a pocket watcher badge to view this.", "badges": [], "created_at": "2025-06-16T11:58:24.537-04:00", "updated_at": "2025-07-03T19:13:28.468-04:00", "avatar": "https://secure.gravatar.com/avatar/f70e719356a0891fea107f49ec1cac25.jpg?s=512&d=https%3A%2F%2Fa.slack-edge.com%2Fdf10d%2Fimg%2Favatars%2Fava_0005-512.png", "custom_css": null}, {"id": 546, "slack_id": "U091PFV95PW", "display_name": "Aakash B", "bio": null, "projects_count": 0, "devlogs_count": 0, "votes_count": 0, "ships_count": 0, "projects": [], "coding_time_seconds": 117970, "coding_time_seconds_today": 0, "balance": "You need to have a pocket watcher badge to view this.", "badges": [], "created_at": "2025-06-16T11:58:25.292-04:00", "updated_at": "2025-07-03T19:13:28.739-04:00", "avatar": "https://secure.gravatar.com/avatar/96240a1905711732c5687d10af004c32.jpg?s=512&d=https%3A%2F%2Fa.slack-edge.com%2Fdf10d%2Fimg%2Favatars%2Fava_0016-512.png", "custom_css": null}, {"id": 547, "slack_id": "U091M9JCB0V", "display_name": "THULU GURU", "bio": null, "projects_count": 0, "devlogs_count": 0, "votes_count": 0, "ships_count": 0, "projects": [], "coding_time_seconds": 0, "coding_time_seconds_today": 0, "balance": "You need to have a pocket watcher badge to view this.", "badges": [], "created_at": "2025-06-16T11:58:25.589-04:00", "updated_at": "2025-07-03T19:13:29.034-04:00", "avatar": "https://avatars.slack-edge.com/2025-06-16/9050160822019_29e05789027e9a7faf86_original.jpg", "custom_css": null}, {"id": 548, "slack_id": "U0921L8JKHP", "display_name": "slothsnow", "bio": null, "projects_count": 0, "devlogs_count": 0, "votes_count": 0, "ships_count": 0, "projects": [], "coding_time_seconds": 1595, "coding_time_seconds_today": 0, "balance": "You need to have a pocket watcher badge to view this.", "badges": [], "created_at": "2025-06-16T11:58:26.711-04:00", "updated_at": "2025-07-03T19:13:29.294-04:00", "avatar": "https://secure.gravatar.com/avatar/ff550cd320d65e6f0276375dbbdd8611.jpg?s=512&d=https%3A%2F%2Fa.slack-edge.com%2Fdf10d%2Fimg%2Favatars%2Fava_0017-512.png", "custom_css": null}, {"id": 549, "slack_id": "U091G48J24T", "display_name": "Sid Ahmed SAHRAOUI", "bio": null, "projects_count": 0, "devlogs_count": 0, "votes_count": 0, "ships_count": 0, "projects": [], "coding_time_seconds": 90516, "coding_time_seconds_today": 0, "balance": "You need to have a pocket watcher badge to view this.", "badges": [], "created_at": "2025-06-16T11:58:29.508-04:00", "updated_at": "2025-07-03T19:13:29.568-04:00", "avatar": "https://avatars.slack-edge.com/2025-06-16/9069706473409_480f60906bc926cd87ca_original.png", "custom_css": null}, {"id": 550, "slack_id": "U05NUJFC742", "display_name": "Sushrut Pola", "bio": null, "projects_count": 2, "devlogs_count": 9, "votes_count": 3, "ships_count": 1, "projects": [{"id": 1959, "title": "CarnaticClassroom", "devlogs_count": 8, "created_at": "2025-06-19T17:58:24.194-04:00"}, {"id": 2406, "title": "Sushrut's Blog", "devlogs_count": 1, "created_at": "2025-06-21T00:13:58.938-04:00"}], "coding_time_seconds": 185679, "coding_time_seconds_today": 0, "balance": "You need to have a pocket watcher badge to view this.", "badges": [{"name": "Maiden Voyage", "text": "you shipped your first project! the journey begins...", "icon": "\ud83d\udea2"}], "created_at": "2025-06-16T11:58:30.381-04:00", "updated_at": "2025-09-10T22:51:24.309-04:00", "avatar": "https://avatars.slack-edge.com/2025-06-17/9058647775059_f34d1b9f07002c0d9db3_original.png", "custom_css": null}, {"id": 551, "slack_id": "U091G3XRA91", "display_name": "Eman Khadim", "bio": null, "projects_count": 0, "devlogs_count": 0, "votes_count": 0, "ships_count": 0, "projects": [], "coding_time_seconds": 0, "coding_time_seconds_today": 0, "balance": "You need to have a pocket watcher badge to view this.", "badges": [], "created_at": "2025-06-16T11:58:41.997-04:00", "updated_at": "2025-07-03T19:13:30.117-04:00", "avatar": "https://secure.gravatar.com/avatar/780da8de463d1c32120ab3c5186e818b.jpg?s=512&d=https%3A%2F%2Fa.slack-edge.com%2Fdf10d%2Fimg%2Favatars%2Fava_0006-512.png", "custom_css": null}, {"id": 552, "slack_id": "U091G7AGY3Y", "display_name": "Francesco_ciancarelli", "bio": null, "projects_count": 0, "devlogs_count": 0, "votes_count": 0, "ships_count": 0, "projects": [], "coding_time_seconds": 0, "coding_time_seconds_today": 0, "balance": "You need to have a pocket watcher badge to view this.", "badges": [], "created_at": "2025-06-16T11:58:45.412-04:00", "updated_at": "2025-07-03T19:13:30.387-04:00", "avatar": "https://secure.gravatar.com/avatar/9d9ca7a36f0d61bec2233de6c856e8dd.jpg?s=512&d=https%3A%2F%2Fa.slack-edge.com%2Fdf10d%2Fimg%2Favatars%2Fava_0008-512.png", "custom_css": null}, {"id": 553, "slack_id": "U07F65P2XNF", "display_name": "Pratham V Bhat", "bio": null, "projects_count": 0, "devlogs_count": 0, "votes_count": 0, "ships_count": 0, "projects": [], "coding_time_seconds": 0, "coding_time_seconds_today": 0, "balance": "You need to have a pocket watcher badge to view this.", "badges": [], "created_at": "2025-06-16T11:58:48.137-04:00", "updated_at": "2025-07-03T19:13:30.676-04:00", "avatar": "https://avatars.slack-edge.com/2025-06-16/9041832075879_703700facf4f6b018be6_original.jpg", "custom_css": null}, {"id": 554, "slack_id": "U0917PZJ3E3", "display_name": "Matias Ezequiel Dante Sarco", "bio": null, "projects_count": 0, "devlogs_count": 0, "votes_count": 0, "ships_count": 0, "projects": [], "coding_time_seconds": 0, "coding_time_seconds_today": 0, "balance": "You need to have a pocket watcher badge to view this.", "badges": [], "created_at": "2025-06-16T11:58:54.630-04:00", "updated_at": "2025-07-03T19:13:30.956-04:00", "avatar": "https://secure.gravatar.com/avatar/eaee808cb922a965a5a792ca1a6a19f1.jpg?s=512&d=https%3A%2F%2Fa.slack-edge.com%2Fdf10d%2Fimg%2Favatars%2Fava_0014-512.png", "custom_css": null}, {"id": 555, "slack_id": "U091PG8NWAY", "display_name": "Dhruv Bobal", "bio": null, "projects_count": 0, "devlogs_count": 0, "votes_count": 0, "ships_count": 0, "projects": [], "coding_time_seconds": 207873, "coding_time_seconds_today": 774, "balance": "You need to have a pocket watcher badge to view this.", "badges": [], "created_at": "2025-06-16T11:58:56.708-04:00", "updated_at": "2025-07-03T19:13:31.233-04:00", "avatar": "https://secure.gravatar.com/avatar/739f150587c5a7c25851991f432b0caa.jpg?s=512&d=https%3A%2F%2Fa.slack-edge.com%2Fdf10d%2Fimg%2Favatars%2Fava_0016-512.png", "custom_css": null}, {"id": 556, "slack_id": "U091PG9394L", "display_name": "Jaron", "bio": null, "projects_count": 3, "devlogs_count": 14, "votes_count": 31, "ships_count": 2, "projects": [{"id": 1247, "title": "Minecraft Minions", "devlogs_count": 11, "created_at": "2025-06-18T01:52:08.663-04:00"}, {"id": 4147, "title": "Minecraft Minions DLC 1", "devlogs_count": 1, "created_at": "2025-06-27T21:18:59.043-04:00"}, {"id": 5998, "title": "OSINT Aggregator Portal", "devlogs_count": 2, "created_at": "2025-07-09T20:54:07.830-04:00"}], "coding_time_seconds": 194518, "coding_time_seconds_today": 0, "balance": "You need to have a pocket watcher badge to view this.", "badges": [{"name": "Maiden Voyage", "text": "you shipped your first project! the journey begins...", "icon": "\ud83d\udea2"}], "created_at": "2025-06-16T11:59:01.692-04:00", "updated_at": "2025-09-10T22:51:24.442-04:00", "avatar": "https://secure.gravatar.com/avatar/eea9ad82ec5276f90f2688a9a89f0178.jpg?s=512&d=https%3A%2F%2Fa.slack-edge.com%2Fdf10d%2Fimg%2Favatars%2Fava_0024-512.png", "custom_css": null}, {"id": 557, "slack_id": "U091G749762", "display_name": "Sadidzhan Akilov", "bio": null, "projects_count": 0, "devlogs_count": 0, "votes_count": 0, "ships_count": 0, "projects": [], "coding_time_seconds": 0, "coding_time_seconds_today": 0, "balance": "You need to have a pocket watcher badge to view this.", "badges": [], "created_at": "2025-06-16T11:59:03.764-04:00", "updated_at": "2025-07-03T19:13:31.782-04:00", "avatar": "https://secure.gravatar.com/avatar/356933be980823527f1038340e355900.jpg?s=512&d=https%3A%2F%2Fa.slack-edge.com%2Fdf10d%2Fimg%2Favatars%2Fava_0006-512.png", "custom_css": null}, {"id": 558, "slack_id": "U0917PYR2SK", "display_name": "Janick", "bio": null, "projects_count": 1, "devlogs_count": 24, "votes_count": 27, "ships_count": 1, "projects": [{"id": 1466, "title": "OpenOverlay", "devlogs_count": 24, "created_at": "2025-06-18T15:44:19.336-04:00"}], "coding_time_seconds": 417110, "coding_time_seconds_today": 0, "balance": "You need to have a pocket watcher badge to view this.", "badges": [{"name": "Maiden Voyage", "text": "you shipped your first project! the journey begins...", "icon": "\ud83d\udea2"}], "created_at": "2025-06-16T11:59:04.104-04:00", "updated_at": "2025-09-12T18:19:22.252-04:00", "avatar": "https://secure.gravatar.com/avatar/b4fb6bbb33710b66c2efe085a4cb4a15.jpg?s=512&d=https%3A%2F%2Fa.slack-edge.com%2Fdf10d%2Fimg%2Favatars%2Fava_0000-512.png", "custom_css": null}, {"id": 559, "slack_id": "U091PFX4FV2", "display_name": "popolimo", "bio": null, "projects_count": 0, "devlogs_count": 0, "votes_count": 0, "ships_count": 0, "projects": [], "coding_time_seconds": 364, "coding_time_seconds_today": 0, "balance": "You need to have a pocket watcher badge to view this.", "badges": [], "created_at": "2025-06-16T11:59:04.439-04:00", "updated_at": "2025-07-03T19:13:32.353-04:00", "avatar": "https://secure.gravatar.com/avatar/aa633505fbd3d06aa7cada2394ed1d9c.jpg?s=512&d=https%3A%2F%2Fa.slack-edge.com%2Fdf10d%2Fimg%2Favatars%2Fava_0005-512.png", "custom_css": null}, {"id": 560, "slack_id": "U092BHPNLQY", "display_name": "Divish Jindal", "bio": null, "projects_count": 0, "devlogs_count": 0, "votes_count": 0, "ships_count": 0, "projects": [], "coding_time_seconds": 0, "coding_time_seconds_today": 0, "balance": "You need to have a pocket watcher badge to view this.", "badges": [], "created_at": "2025-06-16T11:59:04.481-04:00", "updated_at": "2025-07-03T19:13:32.633-04:00", "avatar": "https://secure.gravatar.com/avatar/bd34126f789d59c57e1a2e1070d7a1d7.jpg?s=512&d=https%3A%2F%2Fa.slack-edge.com%2Fdf10d%2Fimg%2Favatars%2Fava_0023-512.png", "custom_css": null}], "pagination": {"page": 28, "pages": 1192, "count": 23827, "items": 20}}