{"users": [{"id": 5581, "slack_id": "U083A816GAV", "display_name": "Marcell Asztalos", "bio": null, "projects_count": 1, "devlogs_count": 0, "votes_count": 0, "ships_count": 0, "projects": [{"id": 6444, "title": "RPGBot", "devlogs_count": 0, "created_at": "2025-07-13T11:05:00.583-04:00"}], "coding_time_seconds": 256949, "coding_time_seconds_today": 0, "balance": "You need to have a pocket watcher badge to view this.", "badges": [], "created_at": "2025-06-17T04:23:04.821-04:00", "updated_at": "2025-08-22T20:26:36.829-04:00", "avatar": "https://avatars.slack-edge.com/2025-08-23/9424848205616_9d03eb7e49916c9e37ac_original.png", "custom_css": null}, {"id": 5582, "slack_id": "U091BKUNS0P", "display_name": "emircvdar", "bio": null, "projects_count": 0, "devlogs_count": 0, "votes_count": 0, "ships_count": 0, "projects": [], "coding_time_seconds": 0, "coding_time_seconds_today": 0, "balance": "You need to have a pocket watcher badge to view this.", "badges": [], "created_at": "2025-06-17T04:23:13.226-04:00", "updated_at": "2025-07-03T19:36:32.313-04:00", "avatar": "https://secure.gravatar.com/avatar/ef5c397964970bc71442a39221ae3292.jpg?s=512&d=https%3A%2F%2Fa.slack-edge.com%2Fdf10d%2Fimg%2Favatars%2Fava_0014-512.png", "custom_css": null}, {"id": 5583, "slack_id": "U091R8G84UV", "display_name": "amith", "bio": null, "projects_count": 0, "devlogs_count": 0, "votes_count": 0, "ships_count": 0, "projects": [], "coding_time_seconds": 0, "coding_time_seconds_today": 0, "balance": "You need to have a pocket watcher badge to view this.", "badges": [], "created_at": "2025-06-17T04:23:49.182-04:00", "updated_at": "2025-07-03T19:36:32.587-04:00", "avatar": "https://secure.gravatar.com/avatar/fdbe5987edad2e51c56ee2c3a456c924.jpg?s=512&d=https%3A%2F%2Fa.slack-edge.com%2Fdf10d%2Fimg%2Favatars%2Fava_0015-512.png", "custom_css": null}, {"id": 5584, "slack_id": "U07RQNENPC0", "display_name": "Hashim", "bio": null, "projects_count": 2, "devlogs_count": 1, "votes_count": 0, "ships_count": 0, "projects": [{"id": 12122, "title": "OrderUp - A POS system built in React Js and Appwrite", "devlogs_count": 1, "created_at": "2025-08-23T09:13:21.325-04:00"}, {"id": 13096, "title": "Killer Instincts", "devlogs_count": 0, "created_at": "2025-09-08T13:29:56.867-04:00"}], "coding_time_seconds": 197809, "coding_time_seconds_today": 0, "balance": "You need to have a pocket watcher badge to view this.", "badges": [], "created_at": "2025-06-17T04:23:56.949-04:00", "updated_at": "2025-09-10T14:25:53.004-04:00", "avatar": "https://avatars.slack-edge.com/2025-09-10/9491810683861_99950a4ec77a70e20d42_original.png", "custom_css": null}, {"id": 5585, "slack_id": "U091T1VNB42", "display_name": "Md Yunus", "bio": null, "projects_count": 1, "devlogs_count": 0, "votes_count": 0, "ships_count": 0, "projects": [{"id": 901, "title": "Youtube Download Bot", "devlogs_count": 0, "created_at": "2025-06-17T10:54:43.212-04:00"}], "coding_time_seconds": 14648, "coding_time_seconds_today": 0, "balance": "You need to have a pocket watcher badge to view this.", "badges": [], "created_at": "2025-06-17T04:24:05.999-04:00", "updated_at": "2025-07-03T19:36:33.120-04:00", "avatar": "https://secure.gravatar.com/avatar/02d219249440185eceb5308234e8aa3a.jpg?s=512&d=https%3A%2F%2Fa.slack-edge.com%2Fdf10d%2Fimg%2Favatars%2Fava_0006-512.png", "custom_css": null}, {"id": 5586, "slack_id": "U091R8S6Z37", "display_name": "Justice Plunkett", "bio": null, "projects_count": 0, "devlogs_count": 0, "votes_count": 0, "ships_count": 0, "projects": [], "coding_time_seconds": 64952, "coding_time_seconds_today": 0, "balance": "You need to have a pocket watcher badge to view this.", "badges": [], "created_at": "2025-06-17T04:24:36.894-04:00", "updated_at": "2025-07-03T19:36:33.382-04:00", "avatar": "https://avatars.slack-edge.com/2025-06-17/9073634421345_cb33f9f6713239cb2d61_original.png", "custom_css": null}, {"id": 5587, "slack_id": "U0925J7CS0Z", "display_name": "Mohammed Adwan", "bio": null, "projects_count": 0, "devlogs_count": 0, "votes_count": 0, "ships_count": 0, "projects": [], "coding_time_seconds": 0, "coding_time_seconds_today": 0, "balance": "You need to have a pocket watcher badge to view this.", "badges": [], "created_at": "2025-06-17T04:25:09.530-04:00", "updated_at": "2025-07-03T19:36:33.648-04:00", "avatar": "https://secure.gravatar.com/avatar/a1e40c2286c9bab436d39a7a8d571d9c.jpg?s=512&d=https%3A%2F%2Fa.slack-edge.com%2Fdf10d%2Fimg%2Favatars%2Fava_0008-512.png", "custom_css": null}, {"id": 5588, "slack_id": "U092EJNJH96", "display_name": "Nishreet oli", "bio": null, "projects_count": 6, "devlogs_count": 50, "votes_count": 40, "ships_count": 3, "projects": [{"id": 13467, "title": "Gotcha", "devlogs_count": 15, "created_at": "2025-09-17T05:16:05.190-04:00"}, {"id": 4337, "title": "PyTorch Exploration for Creating Attentions", "devlogs_count": 0, "created_at": "2025-06-29T05:04:06.487-04:00"}, {"id": 4341, "title": "Getting Python: Beyond Syntax", "devlogs_count": 0, "created_at": "2025-06-29T07:27:53.302-04:00"}, {"id": 4378, "title": "Website for Symposium", "devlogs_count": 1, "created_at": "2025-06-29T12:33:33.319-04:00"}, {"id": 12108, "title": "Automata World", "devlogs_count": 20, "created_at": "2025-08-23T06:58:08.229-04:00"}, {"id": 11383, "title": "Golden Hour - A scientific based Vitamin D tracker for you", "devlogs_count": 14, "created_at": "2025-08-15T11:57:53.477-04:00"}], "coding_time_seconds": 396369, "coding_time_seconds_today": 16040, "balance": "You need to have a pocket watcher badge to view this.", "badges": [{"name": "Maiden Voyage", "text": "you shipped your first project! the journey begins...", "icon": "\ud83d\udea2"}], "created_at": "2025-06-17T04:25:44.014-04:00", "updated_at": "2025-09-13T09:02:35.555-04:00", "avatar": "https://secure.gravatar.com/avatar/c3a224b31b3e041a8e46a62b449b255c.jpg?s=512&d=https%3A%2F%2Fa.slack-edge.com%2Fdf10d%2Fimg%2Favatars%2Fava_0023-512.png", "custom_css": null}, {"id": 5589, "slack_id": "U087Y0EQSMR", "display_name": "potato", "bio": null, "projects_count": 0, "devlogs_count": 0, "votes_count": 0, "ships_count": 0, "projects": [], "coding_time_seconds": 106992, "coding_time_seconds_today": 0, "balance": "You need to have a pocket watcher badge to view this.", "badges": [], "created_at": "2025-06-17T04:25:48.356-04:00", "updated_at": "2025-07-03T19:36:34.203-04:00", "avatar": "https://avatars.slack-edge.com/2025-01-09/8267266589941_2bc4ec8d5539d50dbd23_original.png", "custom_css": null}, {"id": 5590, "slack_id": "U0925J9SY81", "display_name": "Muhammad Abrar", "bio": null, "projects_count": 0, "devlogs_count": 0, "votes_count": 0, "ships_count": 0, "projects": [], "coding_time_seconds": 12008, "coding_time_seconds_today": 0, "balance": "You need to have a pocket watcher badge to view this.", "badges": [], "created_at": "2025-06-17T04:26:27.169-04:00", "updated_at": "2025-07-03T19:36:34.465-04:00", "avatar": "https://secure.gravatar.com/avatar/ae73576b79583c4b27602efae6330c5c.jpg?s=512&d=https%3A%2F%2Fa.slack-edge.com%2Fdf10d%2Fimg%2Favatars%2Fava_0001-512.png", "custom_css": null}, {"id": 5591, "slack_id": "U089B3H8S7N", "display_name": "akb", "bio": "", "projects_count": 0, "devlogs_count": 11, "votes_count": 61, "ships_count": 0, "projects": [], "coding_time_seconds": 177662, "coding_time_seconds_today": 0, "balance": "You need to have a pocket watcher badge to view this.", "badges": [{"name": "Maiden Voyage", "text": "you shipped your first project! the journey begins...", "icon": "\ud83d\udea2"}], "created_at": "2025-06-17T04:26:33.170-04:00", "updated_at": "2025-09-10T22:53:57.221-04:00", "avatar": "https://avatars.slack-edge.com/2025-05-11/8863549755959_aa1528a78ab052e2977d_original.jpg", "custom_css": null}, {"id": 5592, "slack_id": "U091L6Z2FC3", "display_name": "Luka", "bio": null, "projects_count": 0, "devlogs_count": 0, "votes_count": 0, "ships_count": 0, "projects": [], "coding_time_seconds": 0, "coding_time_seconds_today": 0, "balance": "You need to have a pocket watcher badge to view this.", "badges": [], "created_at": "2025-06-17T04:27:28.142-04:00", "updated_at": "2025-07-03T19:36:35.002-04:00", "avatar": "https://secure.gravatar.com/avatar/3575678983ce356824bab5e6c90c69d6.jpg?s=512&d=https%3A%2F%2Fa.slack-edge.com%2Fdf10d%2Fimg%2Favatars%2Fava_0008-512.png", "custom_css": null}, {"id": 5593, "slack_id": "U092FDFLQ9E", "display_name": "Raja Raja", "bio": null, "projects_count": 0, "devlogs_count": 0, "votes_count": 0, "ships_count": 0, "projects": [], "coding_time_seconds": 0, "coding_time_seconds_today": 0, "balance": "You need to have a pocket watcher badge to view this.", "badges": [], "created_at": "2025-06-17T04:27:37.993-04:00", "updated_at": "2025-07-03T19:36:35.268-04:00", "avatar": "https://avatars.slack-edge.com/2025-06-17/9083473011280_ebed7a8cab68cf216232_original.png", "custom_css": null}, {"id": 5594, "slack_id": "U091TC712KE", "display_name": "buyhard", "bio": null, "projects_count": 0, "devlogs_count": 0, "votes_count": 0, "ships_count": 0, "projects": [], "coding_time_seconds": 0, "coding_time_seconds_today": 0, "balance": "You need to have a pocket watcher badge to view this.", "badges": [], "created_at": "2025-06-17T04:27:38.617-04:00", "updated_at": "2025-07-03T19:36:35.542-04:00", "avatar": "https://secure.gravatar.com/avatar/9377815ef01556b2eef78724d31454d8.jpg?s=512&d=https%3A%2F%2Fa.slack-edge.com%2Fdf10d%2Fimg%2Favatars%2Fava_0021-512.png", "custom_css": null}, {"id": 5595, "slack_id": "U081ZC7ES30", "display_name": "i'm a cat", "bio": null, "projects_count": 2, "devlogs_count": 2, "votes_count": 11, "ships_count": 1, "projects": [{"id": 13692, "title": "grep-rust", "devlogs_count": 0, "created_at": "2025-09-23T02:31:58.387-04:00"}, {"id": 11669, "title": "whereami", "devlogs_count": 1, "created_at": "2025-08-18T08:59:09.913-04:00"}], "coding_time_seconds": 334634, "coding_time_seconds_today": 0, "balance": "You need to have a pocket watcher badge to view this.", "badges": [{"name": "Maiden Voyage", "text": "you shipped your first project! the journey begins...", "icon": "\ud83d\udea2"}], "created_at": "2025-06-17T04:27:50.361-04:00", "updated_at": "2025-09-24T18:25:58.834-04:00", "avatar": "https://avatars.slack-edge.com/2025-09-24/9571739955427_1ad9ac5f4fabb3265e0b_original.png", "custom_css": null}, {"id": 5596, "slack_id": "U087W0N07KJ", "display_name": "Jarom\u00edr Obitko", "bio": null, "projects_count": 3, "devlogs_count": 4, "votes_count": 0, "ships_count": 0, "projects": [{"id": 746, "title": "N3XT - Web based 3D slicer", "devlogs_count": 1, "created_at": "2025-06-17T07:11:37.903-04:00"}, {"id": 749, "title": "Charts", "devlogs_count": 0, "created_at": "2025-06-17T07:13:47.792-04:00"}, {"id": 957, "title": "CB Kladno", "devlogs_count": 3, "created_at": "2025-06-17T12:18:03.499-04:00"}], "coding_time_seconds": 60134, "coding_time_seconds_today": 0, "balance": "You need to have a pocket watcher badge to view this.", "badges": [], "created_at": "2025-06-17T04:27:53.482-04:00", "updated_at": "2025-07-03T19:36:36.071-04:00", "avatar": "https://secure.gravatar.com/avatar/11911a0c86ec388c38b60dcc7e4bd8cd.jpg?s=512&d=https%3A%2F%2Fa.slack-edge.com%2Fdf10d%2Fimg%2Favatars%2Fava_0023-512.png", "custom_css": null}, {"id": 5597, "slack_id": "U091LAXNKRC", "display_name": "Flavien", "bio": null, "projects_count": 0, "devlogs_count": 0, "votes_count": 0, "ships_count": 0, "projects": [], "coding_time_seconds": 0, "coding_time_seconds_today": 0, "balance": "You need to have a pocket watcher badge to view this.", "badges": [], "created_at": "2025-06-17T04:27:58.083-04:00", "updated_at": "2025-07-03T19:36:36.340-04:00", "avatar": "https://secure.gravatar.com/avatar/33eb0cf9ae3117302b8ed93ba74a3432.jpg?s=512&d=https%3A%2F%2Fa.slack-edge.com%2Fdf10d%2Fimg%2Favatars%2Fava_0009-512.png", "custom_css": null}, {"id": 5598, "slack_id": "U091T2SUY6N", "display_name": "Kunal Yadav", "bio": null, "projects_count": 0, "devlogs_count": 0, "votes_count": 0, "ships_count": 0, "projects": [], "coding_time_seconds": 251, "coding_time_seconds_today": 0, "balance": "You need to have a pocket watcher badge to view this.", "badges": [], "created_at": "2025-06-17T04:28:07.241-04:00", "updated_at": "2025-07-03T19:36:36.600-04:00", "avatar": "https://avatars.slack-edge.com/2025-06-17/9061110728066_bcb92ed9778d2dc11261_original.jpg", "custom_css": null}, {"id": 5599, "slack_id": "U091LAV565U", "display_name": "Iden Tumuhirwe", "bio": null, "projects_count": 0, "devlogs_count": 0, "votes_count": 0, "ships_count": 0, "projects": [], "coding_time_seconds": 0, "coding_time_seconds_today": 0, "balance": "You need to have a pocket watcher badge to view this.", "badges": [], "created_at": "2025-06-17T04:28:09.676-04:00", "updated_at": "2025-07-03T19:36:36.860-04:00", "avatar": "https://secure.gravatar.com/avatar/e287018b52f9eb756828263087b0496c.jpg?s=512&d=https%3A%2F%2Fa.slack-edge.com%2Fdf10d%2Fimg%2Favatars%2Fava_0023-512.png", "custom_css": null}, {"id": 5600, "slack_id": "U091LB0M71U", "display_name": "M\u00f3nica", "bio": null, "projects_count": 0, "devlogs_count": 0, "votes_count": 0, "ships_count": 0, "projects": [], "coding_time_seconds": 0, "coding_time_seconds_today": 0, "balance": "You need to have a pocket watcher badge to view this.", "badges": [], "created_at": "2025-06-17T04:28:24.251-04:00", "updated_at": "2025-07-03T19:36:37.393-04:00", "avatar": "https://secure.gravatar.com/avatar/7452337f9a7f77be41ec641e99701181.jpg?s=512&d=https%3A%2F%2Fa.slack-edge.com%2Fdf10d%2Fimg%2Favatars%2Fava_0000-512.png", "custom_css": null}], "pagination": {"page": 280, "pages": 1192, "count": 23828, "items": 20}}