{"users": [{"id": 5601, "slack_id": "U092FDS4HAL", "display_name": "Chimobi", "bio": null, "projects_count": 0, "devlogs_count": 0, "votes_count": 0, "ships_count": 0, "projects": [], "coding_time_seconds": 0, "coding_time_seconds_today": 0, "balance": "You need to have a pocket watcher badge to view this.", "badges": [], "created_at": "2025-06-17T04:28:51.190-04:00", "updated_at": "2025-07-03T19:36:37.667-04:00", "avatar": "https://secure.gravatar.com/avatar/b0834f7c7e18603ff31a945e0bf8f61c.jpg?s=512&d=https%3A%2F%2Fa.slack-edge.com%2Fdf10d%2Fimg%2Favatars%2Fava_0000-512.png", "custom_css": null}, {"id": 5602, "slack_id": "U0925JUT49X", "display_name": "t0mvic", "bio": null, "projects_count": 0, "devlogs_count": 0, "votes_count": 0, "ships_count": 0, "projects": [], "coding_time_seconds": 0, "coding_time_seconds_today": 0, "balance": "You need to have a pocket watcher badge to view this.", "badges": [], "created_at": "2025-06-17T04:29:07.556-04:00", "updated_at": "2025-07-03T19:36:37.936-04:00", "avatar": "https://secure.gravatar.com/avatar/9259dc8e1a3246f1bbf201ec8d7470a9.jpg?s=512&d=https%3A%2F%2Fa.slack-edge.com%2Fdf10d%2Fimg%2Favatars%2Fava_0017-512.png", "custom_css": null}, {"id": 5603, "slack_id": "U0925JS61JM", "display_name": "\u6bd2\u86c7DoSer", "bio": null, "projects_count": 0, "devlogs_count": 0, "votes_count": 0, "ships_count": 0, "projects": [], "coding_time_seconds": 0, "coding_time_seconds_today": 0, "balance": "You need to have a pocket watcher badge to view this.", "badges": [], "created_at": "2025-06-17T04:29:45.468-04:00", "updated_at": "2025-07-03T19:36:38.211-04:00", "avatar": "https://avatars.slack-edge.com/2025-06-17/9073659308897_64059e0f1629b9e98626_original.jpg", "custom_css": null}, {"id": 5604, "slack_id": "U091R9AAYHK", "display_name": "Fred", "bio": null, "projects_count": 0, "devlogs_count": 0, "votes_count": 0, "ships_count": 0, "projects": [], "coding_time_seconds": 140248, "coding_time_seconds_today": 0, "balance": "You need to have a pocket watcher badge to view this.", "badges": [], "created_at": "2025-06-17T04:30:16.768-04:00", "updated_at": "2025-07-03T19:36:38.475-04:00", "avatar": "https://avatars.slack-edge.com/2025-06-17/9073695934609_0ef92db445ca24204f62_original.jpg", "custom_css": null}, {"id": 5605, "slack_id": "U091T2Z8KSN", "display_name": "Felix Kiprono", "bio": null, "projects_count": 0, "devlogs_count": 0, "votes_count": 0, "ships_count": 0, "projects": [], "coding_time_seconds": 0, "coding_time_seconds_today": 0, "balance": "You need to have a pocket watcher badge to view this.", "badges": [], "created_at": "2025-06-17T04:30:35.835-04:00", "updated_at": "2025-07-03T19:36:38.738-04:00", "avatar": "https://secure.gravatar.com/avatar/76d2214c3bf5243822d07405be29359b.jpg?s=512&d=https%3A%2F%2Fa.slack-edge.com%2Fdf10d%2Fimg%2Favatars%2Fava_0009-512.png", "custom_css": null}, {"id": 5606, "slack_id": "U091LB35YHL", "display_name": "Rohan Sen", "bio": null, "projects_count": 0, "devlogs_count": 0, "votes_count": 0, "ships_count": 0, "projects": [], "coding_time_seconds": 0, "coding_time_seconds_today": 0, "balance": "You need to have a pocket watcher badge to view this.", "badges": [], "created_at": "2025-06-17T04:31:05.926-04:00", "updated_at": "2025-07-03T19:36:39.003-04:00", "avatar": "https://secure.gravatar.com/avatar/d6825bf6fe5e0dce6d3b5058313268f8.jpg?s=512&d=https%3A%2F%2Fa.slack-edge.com%2Fdf10d%2Fimg%2Favatars%2Fava_0017-512.png", "custom_css": null}, {"id": 5607, "slack_id": "U07BH4JAT1N", "display_name": "Alex Simedrea", "bio": null, "projects_count": 0, "devlogs_count": 0, "votes_count": 0, "ships_count": 0, "projects": [], "coding_time_seconds": 0, "coding_time_seconds_today": 0, "balance": "You need to have a pocket watcher badge to view this.", "badges": [], "created_at": "2025-06-17T04:31:13.664-04:00", "updated_at": "2025-07-03T19:36:39.272-04:00", "avatar": "https://secure.gravatar.com/avatar/78c25bd79f8a891e0b2209f421e82021.jpg?s=512&d=https%3A%2F%2Fa.slack-edge.com%2Fdf10d%2Fimg%2Favatars%2Fava_0018-512.png", "custom_css": null}, {"id": 5608, "slack_id": "U091BLTB7JT", "display_name": "mat", "bio": null, "projects_count": 0, "devlogs_count": 0, "votes_count": 0, "ships_count": 0, "projects": [], "coding_time_seconds": 0, "coding_time_seconds_today": 0, "balance": "You need to have a pocket watcher badge to view this.", "badges": [], "created_at": "2025-06-17T04:31:22.077-04:00", "updated_at": "2025-07-03T19:36:39.532-04:00", "avatar": "https://secure.gravatar.com/avatar/4ce36495f2d13d69b7f84e9c46cd9551.jpg?s=512&d=https%3A%2F%2Fa.slack-edge.com%2Fdf10d%2Fimg%2Favatars%2Fava_0021-512.png", "custom_css": null}, {"id": 5609, "slack_id": "U081VRXJG0P", "display_name": "Glenn", "bio": null, "projects_count": 1, "devlogs_count": 1, "votes_count": 2, "ships_count": 0, "projects": [{"id": 1630, "title": "pokemon dupe", "devlogs_count": 1, "created_at": "2025-06-18T22:12:44.027-04:00"}], "coding_time_seconds": 100866, "coding_time_seconds_today": 321, "balance": "You need to have a pocket watcher badge to view this.", "badges": [], "created_at": "2025-06-17T04:31:23.967-04:00", "updated_at": "2025-07-03T19:36:39.799-04:00", "avatar": "https://avatars.slack-edge.com/2025-06-22/9083302112341_56613136be596f11ed36_original.jpg", "custom_css": null}, {"id": 5610, "slack_id": "U091L7XEBQT", "display_name": "sahil", "bio": null, "projects_count": 0, "devlogs_count": 0, "votes_count": 0, "ships_count": 0, "projects": [], "coding_time_seconds": 218729, "coding_time_seconds_today": 0, "balance": "You need to have a pocket watcher badge to view this.", "badges": [], "created_at": "2025-06-17T04:31:37.905-04:00", "updated_at": "2025-08-02T05:15:54.806-04:00", "avatar": "https://secure.gravatar.com/avatar/a72cd96f7c980e32a625cf4874b8fc80.jpg?s=512&d=https%3A%2F%2Fa.slack-edge.com%2Fdf10d%2Fimg%2Favatars%2Fava_0007-512.png", "custom_css": null}, {"id": 5611, "slack_id": "U091BLWSX6K", "display_name": "Masud", "bio": null, "projects_count": 0, "devlogs_count": 0, "votes_count": 0, "ships_count": 0, "projects": [], "coding_time_seconds": 0, "coding_time_seconds_today": 0, "balance": "You need to have a pocket watcher badge to view this.", "badges": [], "created_at": "2025-06-17T04:31:41.190-04:00", "updated_at": "2025-07-03T19:36:40.320-04:00", "avatar": "https://secure.gravatar.com/avatar/314762c681318d32144b9500e1a432b8.jpg?s=512&d=https%3A%2F%2Fa.slack-edge.com%2Fdf10d%2Fimg%2Favatars%2Fava_0004-512.png", "custom_css": null}, {"id": 5612, "slack_id": "U091R9DV13P", "display_name": "Quan Dinh", "bio": null, "projects_count": 0, "devlogs_count": 0, "votes_count": 0, "ships_count": 0, "projects": [], "coding_time_seconds": 0, "coding_time_seconds_today": 0, "balance": "You need to have a pocket watcher badge to view this.", "badges": [], "created_at": "2025-06-17T04:31:50.858-04:00", "updated_at": "2025-07-03T19:36:40.591-04:00", "avatar": "https://avatars.slack-edge.com/2025-06-17/9059355468069_61508a1bb624ad310a1b_original.png", "custom_css": null}, {"id": 5613, "slack_id": "U091T3GHYAW", "display_name": "Kal", "bio": null, "projects_count": 0, "devlogs_count": 0, "votes_count": 0, "ships_count": 0, "projects": [], "coding_time_seconds": 0, "coding_time_seconds_today": 0, "balance": "You need to have a pocket watcher badge to view this.", "badges": [], "created_at": "2025-06-17T04:32:10.260-04:00", "updated_at": "2025-07-03T19:36:40.864-04:00", "avatar": "https://secure.gravatar.com/avatar/3613dd75a226fff28615bfb3c09a0187.jpg?s=512&d=https%3A%2F%2Fa.slack-edge.com%2Fdf10d%2Fimg%2Favatars%2Fava_0008-512.png", "custom_css": null}, {"id": 5614, "slack_id": "U0925KC8S3T", "display_name": "Rohit Patil", "bio": null, "projects_count": 0, "devlogs_count": 0, "votes_count": 0, "ships_count": 0, "projects": [], "coding_time_seconds": 0, "coding_time_seconds_today": 0, "balance": "You need to have a pocket watcher badge to view this.", "badges": [], "created_at": "2025-06-17T04:32:30.264-04:00", "updated_at": "2025-07-03T19:36:41.132-04:00", "avatar": "https://secure.gravatar.com/avatar/8897ed122d85f8e72615aa2f79711ebf.jpg?s=512&d=https%3A%2F%2Fa.slack-edge.com%2Fdf10d%2Fimg%2Favatars%2Fava_0022-512.png", "custom_css": null}, {"id": 5615, "slack_id": "U091T3SKETC", "display_name": "BloodAlibi", "bio": null, "projects_count": 1, "devlogs_count": 0, "votes_count": 0, "ships_count": 0, "projects": [{"id": 12150, "title": "Outrun Tag", "devlogs_count": 0, "created_at": "2025-08-23T17:10:49.477-04:00"}], "coding_time_seconds": 23736, "coding_time_seconds_today": 0, "balance": "You need to have a pocket watcher badge to view this.", "badges": [], "created_at": "2025-06-17T04:33:53.152-04:00", "updated_at": "2025-08-23T17:09:53.790-04:00", "avatar": "https://avatars.slack-edge.com/2025-08-23/9413040656753_d265c5274e7cabed50a9_original.jpg", "custom_css": null}, {"id": 5616, "slack_id": "U091T3WDF42", "display_name": "Karan", "bio": null, "projects_count": 0, "devlogs_count": 0, "votes_count": 0, "ships_count": 0, "projects": [], "coding_time_seconds": 240, "coding_time_seconds_today": 0, "balance": "You need to have a pocket watcher badge to view this.", "badges": [], "created_at": "2025-06-17T04:34:44.342-04:00", "updated_at": "2025-07-03T19:36:41.672-04:00", "avatar": "https://secure.gravatar.com/avatar/99382ab3c1cd34fdc6d175ed571f0fe3.jpg?s=512&d=https%3A%2F%2Fa.slack-edge.com%2Fdf10d%2Fimg%2Favatars%2Fava_0001-512.png", "custom_css": null}, {"id": 5617, "slack_id": "U091BKDPUMV", "display_name": "shivam kumar", "bio": null, "projects_count": 0, "devlogs_count": 0, "votes_count": 0, "ships_count": 0, "projects": [], "coding_time_seconds": 488668, "coding_time_seconds_today": 345, "balance": "You need to have a pocket watcher badge to view this.", "badges": [], "created_at": "2025-06-17T04:34:44.839-04:00", "updated_at": "2025-07-03T19:36:41.953-04:00", "avatar": "https://avatars.slack-edge.com/2025-06-17/9045749272407_0545b8c8a322b4ef4556_original.png", "custom_css": null}, {"id": 5618, "slack_id": "U091T3U2GM8", "display_name": "Neha 1812", "bio": null, "projects_count": 0, "devlogs_count": 0, "votes_count": 0, "ships_count": 0, "projects": [], "coding_time_seconds": 54055, "coding_time_seconds_today": 0, "balance": "You need to have a pocket watcher badge to view this.", "badges": [], "created_at": "2025-06-17T04:34:45.498-04:00", "updated_at": "2025-07-03T19:36:42.213-04:00", "avatar": "https://avatars.slack-edge.com/2025-06-17/9045748540855_e6e9cfaff982cf027fef_original.png", "custom_css": null}, {"id": 5619, "slack_id": "U0919J395UP", "display_name": "Kaputt4", "bio": null, "projects_count": 0, "devlogs_count": 0, "votes_count": 0, "ships_count": 0, "projects": [], "coding_time_seconds": 0, "coding_time_seconds_today": 0, "balance": "You need to have a pocket watcher badge to view this.", "badges": [], "created_at": "2025-06-17T04:34:50.381-04:00", "updated_at": "2025-07-03T19:36:42.474-04:00", "avatar": "https://secure.gravatar.com/avatar/dd6982b4f68f1a254e17c9361e482e57.jpg?s=512&d=https%3A%2F%2Fa.slack-edge.com%2Fdf10d%2Fimg%2Favatars%2Fava_0017-512.png", "custom_css": null}, {"id": 5620, "slack_id": "U0925KQSKFB", "display_name": "Lauch", "bio": null, "projects_count": 1, "devlogs_count": 0, "votes_count": 0, "ships_count": 0, "projects": [{"id": 1538, "title": "test", "devlogs_count": 0, "created_at": "2025-06-18T17:47:41.824-04:00"}], "coding_time_seconds": 3585, "coding_time_seconds_today": 0, "balance": "You need to have a pocket watcher badge to view this.", "badges": [], "created_at": "2025-06-17T04:35:19.990-04:00", "updated_at": "2025-07-03T19:36:42.733-04:00", "avatar": "https://secure.gravatar.com/avatar/f7782944ba3b25f8181217d9e7617ad7.jpg?s=512&d=https%3A%2F%2Fa.slack-edge.com%2Fdf10d%2Fimg%2Favatars%2Fava_0020-512.png", "custom_css": null}], "pagination": {"page": 281, "pages": 1192, "count": 23828, "items": 20}}