{"users": [{"id": 5621, "slack_id": "U0925KUBXQR", "display_name": "Saurabh Gupta", "bio": null, "projects_count": 0, "devlogs_count": 0, "votes_count": 0, "ships_count": 0, "projects": [], "coding_time_seconds": 16394, "coding_time_seconds_today": 0, "balance": "You need to have a pocket watcher badge to view this.", "badges": [], "created_at": "2025-06-17T04:35:27.124-04:00", "updated_at": "2025-07-03T19:36:42.998-04:00", "avatar": "https://secure.gravatar.com/avatar/dd0284df2f8a3e4a0402019c82d3672d.jpg?s=512&d=https%3A%2F%2Fa.slack-edge.com%2Fdf10d%2Fimg%2Favatars%2Fava_0004-512.png", "custom_css": null}, {"id": 5622, "slack_id": "U091BMGKL6T", "display_name": "Nihal Kurra", "bio": null, "projects_count": 0, "devlogs_count": 0, "votes_count": 0, "ships_count": 0, "projects": [], "coding_time_seconds": 0, "coding_time_seconds_today": 0, "balance": "You need to have a pocket watcher badge to view this.", "badges": [], "created_at": "2025-06-17T04:35:35.487-04:00", "updated_at": "2025-07-03T19:36:43.261-04:00", "avatar": "https://avatars.slack-edge.com/2025-06-17/9045753571703_bdcbe9b9f53721b77864_original.png", "custom_css": null}, {"id": 5623, "slack_id": "U091L8H6MPD", "display_name": "Shradul Sharma", "bio": null, "projects_count": 0, "devlogs_count": 0, "votes_count": 0, "ships_count": 0, "projects": [], "coding_time_seconds": 0, "coding_time_seconds_today": 0, "balance": "You need to have a pocket watcher badge to view this.", "badges": [], "created_at": "2025-06-17T04:35:37.038-04:00", "updated_at": "2025-07-03T19:36:43.517-04:00", "avatar": "https://avatars.slack-edge.com/2025-06-17/9054431294662_d7983adb9fed66d6565b_original.png", "custom_css": null}, {"id": 5624, "slack_id": "U091L8EJCRH", "display_name": "Denis", "bio": null, "projects_count": 0, "devlogs_count": 0, "votes_count": 0, "ships_count": 0, "projects": [], "coding_time_seconds": 485, "coding_time_seconds_today": 0, "balance": "You need to have a pocket watcher badge to view this.", "badges": [], "created_at": "2025-06-17T04:36:00.533-04:00", "updated_at": "2025-07-03T19:36:44.558-04:00", "avatar": "https://secure.gravatar.com/avatar/4319e8f0bdb724b6a2311231b760a1d5.jpg?s=512&d=https%3A%2F%2Fa.slack-edge.com%2Fdf10d%2Fimg%2Favatars%2Fava_0006-512.png", "custom_css": null}, {"id": 5625, "slack_id": "U091BMPADV5", "display_name": "Kundan", "bio": null, "projects_count": 0, "devlogs_count": 0, "votes_count": 0, "ships_count": 0, "projects": [], "coding_time_seconds": 92399, "coding_time_seconds_today": 0, "balance": "You need to have a pocket watcher badge to view this.", "badges": [], "created_at": "2025-06-17T04:36:07.923-04:00", "updated_at": "2025-07-03T19:36:44.825-04:00", "avatar": "https://secure.gravatar.com/avatar/ac37177ce40916eb5e00776400fdec3b.jpg?s=512&d=https%3A%2F%2Fa.slack-edge.com%2Fdf10d%2Fimg%2Favatars%2Fava_0021-512.png", "custom_css": null}, {"id": 5626, "slack_id": "U091LC14U3Y", "display_name": "Juan Pablo Fuentes", "bio": null, "projects_count": 0, "devlogs_count": 0, "votes_count": 0, "ships_count": 0, "projects": [], "coding_time_seconds": 13720, "coding_time_seconds_today": 0, "balance": "You need to have a pocket watcher badge to view this.", "badges": [], "created_at": "2025-06-17T04:36:40.312-04:00", "updated_at": "2025-07-03T19:36:45.094-04:00", "avatar": "https://avatars.slack-edge.com/2025-06-17/9061156520226_d7b0fb5ab2749db06c49_original.jpg", "custom_css": null}, {"id": 5627, "slack_id": "U091L8M775Z", "display_name": "Javier Rios", "bio": null, "projects_count": 0, "devlogs_count": 0, "votes_count": 0, "ships_count": 0, "projects": [], "coding_time_seconds": 393, "coding_time_seconds_today": 0, "balance": "You need to have a pocket watcher badge to view this.", "badges": [], "created_at": "2025-06-17T04:36:41.034-04:00", "updated_at": "2025-07-03T19:36:45.519-04:00", "avatar": "https://avatars.slack-edge.com/2025-06-17/9073699368353_6336423033064bb30886_original.png", "custom_css": null}, {"id": 5628, "slack_id": "U092FEURRJL", "display_name": "Max", "bio": null, "projects_count": 1, "devlogs_count": 0, "votes_count": 0, "ships_count": 0, "projects": [{"id": 737, "title": "DBS APK", "devlogs_count": 0, "created_at": "2025-06-17T07:02:14.754-04:00"}], "coding_time_seconds": 21825, "coding_time_seconds_today": 0, "balance": "You need to have a pocket watcher badge to view this.", "badges": [], "created_at": "2025-06-17T04:36:49.951-04:00", "updated_at": "2025-07-03T19:36:45.794-04:00", "avatar": "https://secure.gravatar.com/avatar/a48aef115b4de2408be64f77744ce821.jpg?s=512&d=https%3A%2F%2Fa.slack-edge.com%2Fdf10d%2Fimg%2Favatars%2Fava_0022-512.png", "custom_css": null}, {"id": 5629, "slack_id": "U092FEPBXU0", "display_name": "moha", "bio": null, "projects_count": 0, "devlogs_count": 0, "votes_count": 0, "ships_count": 0, "projects": [], "coding_time_seconds": 0, "coding_time_seconds_today": 0, "balance": "You need to have a pocket watcher badge to view this.", "badges": [], "created_at": "2025-06-17T04:37:47.579-04:00", "updated_at": "2025-07-03T19:36:46.049-04:00", "avatar": "https://secure.gravatar.com/avatar/3eafee5c83b68dc1e23fa3b9551986a4.jpg?s=512&d=https%3A%2F%2Fa.slack-edge.com%2Fdf10d%2Fimg%2Favatars%2Fava_0007-512.png", "custom_css": null}, {"id": 5630, "slack_id": "U091LCKLV70", "display_name": "Dheeraj", "bio": null, "projects_count": 0, "devlogs_count": 0, "votes_count": 0, "ships_count": 0, "projects": [], "coding_time_seconds": 0, "coding_time_seconds_today": 0, "balance": "You need to have a pocket watcher badge to view this.", "badges": [], "created_at": "2025-06-17T04:38:15.135-04:00", "updated_at": "2025-07-03T19:36:46.317-04:00", "avatar": "https://secure.gravatar.com/avatar/ee8e76ce76ed24af3e6667a97fcb411e.jpg?s=512&d=https%3A%2F%2Fa.slack-edge.com%2Fdf10d%2Fimg%2Favatars%2Fava_0002-512.png", "custom_css": null}, {"id": 5631, "slack_id": "U091ARSTQUF", "display_name": "sander", "bio": null, "projects_count": 7, "devlogs_count": 33, "votes_count": 144, "ships_count": 6, "projects": [{"id": 2638, "title": "Boomcontrol", "devlogs_count": 2, "created_at": "2025-06-21T14:25:25.156-04:00"}, {"id": 3629, "title": "RCDB bot", "devlogs_count": 3, "created_at": "2025-06-25T03:07:57.691-04:00"}, {"id": 6534, "title": "pyc coglib", "devlogs_count": 13, "created_at": "2025-07-14T03:59:38.281-04:00"}, {"id": 12530, "title": "Habit tracker", "devlogs_count": 9, "created_at": "2025-08-29T02:42:08.272-04:00"}, {"id": 12720, "title": "Markdown to html", "devlogs_count": 3, "created_at": "2025-09-01T12:53:27.729-04:00"}, {"id": 13043, "title": "Snapchat utils", "devlogs_count": 2, "created_at": "2025-09-07T12:38:58.788-04:00"}, {"id": 11265, "title": "Health sync", "devlogs_count": 1, "created_at": "2025-08-14T11:50:30.443-04:00"}], "coding_time_seconds": 293612, "coding_time_seconds_today": 0, "balance": "You need to have a pocket watcher badge to view this.", "badges": [{"name": "Maiden Voyage", "text": "you shipped your first project! the journey begins...", "icon": "\ud83d\udea2"}, {"name": "Ballot Stuffer", "text": "vote 100 times.", "icon": "https://summer.hackclub.com/assets/i_voted-bf851b48.png"}], "created_at": "2025-06-17T04:38:18.887-04:00", "updated_at": "2025-09-10T22:53:58.484-04:00", "avatar": "https://avatars.slack-edge.com/2025-08-12/9342303429906_5615a4b74a17e3827ec7_original.gif", "custom_css": null}, {"id": 5632, "slack_id": "U091S0600Q4", "display_name": "Andy", "bio": null, "projects_count": 0, "devlogs_count": 0, "votes_count": 0, "ships_count": 0, "projects": [], "coding_time_seconds": 304, "coding_time_seconds_today": 0, "balance": "You need to have a pocket watcher badge to view this.", "badges": [], "created_at": "2025-06-17T04:38:32.314-04:00", "updated_at": "2025-07-03T19:36:46.841-04:00", "avatar": "https://secure.gravatar.com/avatar/d645c5c9ac59f479a08ac98d744b8b13.jpg?s=512&d=https%3A%2F%2Fa.slack-edge.com%2Fdf10d%2Fimg%2Favatars%2Fava_0010-512.png", "custom_css": null}, {"id": 5633, "slack_id": "U0925L98K5F", "display_name": "Tanu", "bio": null, "projects_count": 0, "devlogs_count": 0, "votes_count": 0, "ships_count": 0, "projects": [], "coding_time_seconds": 0, "coding_time_seconds_today": 0, "balance": "You need to have a pocket watcher badge to view this.", "badges": [], "created_at": "2025-06-17T04:38:47.944-04:00", "updated_at": "2025-07-03T19:36:47.106-04:00", "avatar": "https://secure.gravatar.com/avatar/cedc003b334b5f4c6efc2127e7b41941.jpg?s=512&d=https%3A%2F%2Fa.slack-edge.com%2Fdf10d%2Fimg%2Favatars%2Fava_0017-512.png", "custom_css": null}, {"id": 5634, "slack_id": "U092FDMRVQQ", "display_name": "Ruchin Audichya", "bio": null, "projects_count": 0, "devlogs_count": 0, "votes_count": 0, "ships_count": 0, "projects": [], "coding_time_seconds": 0, "coding_time_seconds_today": 0, "balance": "You need to have a pocket watcher badge to view this.", "badges": [], "created_at": "2025-06-17T04:39:08.514-04:00", "updated_at": "2025-07-03T21:55:09.503-04:00", "avatar": "https://secure.gravatar.com/avatar/b2e2d698ea59c6e57029fd96d533e86f.jpg?s=512&d=https%3A%2F%2Fa.slack-edge.com%2Fdf10d%2Fimg%2Favatars%2Fava_0018-512.png", "custom_css": null}, {"id": 5635, "slack_id": "U091R6YQGS1", "display_name": "oliecode", "bio": null, "projects_count": 0, "devlogs_count": 0, "votes_count": 0, "ships_count": 0, "projects": [], "coding_time_seconds": 0, "coding_time_seconds_today": 0, "balance": "You need to have a pocket watcher badge to view this.", "badges": [], "created_at": "2025-06-17T04:39:22.076-04:00", "updated_at": "2025-07-04T20:06:02.791-04:00", "avatar": "https://secure.gravatar.com/avatar/3e87b93ecd526d0fcf0763de9c470fd3.jpg?s=512&d=https%3A%2F%2Fa.slack-edge.com%2Fdf10d%2Fimg%2Favatars%2Fava_0016-512.png", "custom_css": null}, {"id": 5636, "slack_id": "U091TE8QEP6", "display_name": "sunita", "bio": null, "projects_count": 0, "devlogs_count": 0, "votes_count": 0, "ships_count": 0, "projects": [], "coding_time_seconds": 0, "coding_time_seconds_today": 0, "balance": "You need to have a pocket watcher badge to view this.", "badges": [], "created_at": "2025-06-17T04:39:41.371-04:00", "updated_at": "2025-07-03T19:36:47.649-04:00", "avatar": "https://avatars.slack-edge.com/2025-06-17/9061171329314_aa347162b5648de9fe01_original.png", "custom_css": null}, {"id": 5637, "slack_id": "U091L98KSJX", "display_name": "Haroon Salim", "bio": null, "projects_count": 0, "devlogs_count": 0, "votes_count": 0, "ships_count": 0, "projects": [], "coding_time_seconds": 0, "coding_time_seconds_today": 0, "balance": "You need to have a pocket watcher badge to view this.", "badges": [], "created_at": "2025-06-17T04:39:50.614-04:00", "updated_at": "2025-07-03T19:36:47.910-04:00", "avatar": "https://secure.gravatar.com/avatar/75f91684e379eb95973de804969cd649.jpg?s=512&d=https%3A%2F%2Fa.slack-edge.com%2Fdf10d%2Fimg%2Favatars%2Fava_0019-512.png", "custom_css": null}, {"id": 5638, "slack_id": "U091GBFDP6F", "display_name": "lloan", "bio": null, "projects_count": 0, "devlogs_count": 0, "votes_count": 0, "ships_count": 0, "projects": [], "coding_time_seconds": 0, "coding_time_seconds_today": 0, "balance": "You need to have a pocket watcher badge to view this.", "badges": [], "created_at": "2025-06-17T04:39:58.131-04:00", "updated_at": "2025-07-03T19:36:48.170-04:00", "avatar": "https://secure.gravatar.com/avatar/ebd4587ed8defa355da479181861cc5f.jpg?s=512&d=https%3A%2F%2Fa.slack-edge.com%2Fdf10d%2Fimg%2Favatars%2Fava_0009-512.png", "custom_css": null}, {"id": 5639, "slack_id": "U091T4E8Y9G", "display_name": "Dennis", "bio": null, "projects_count": 0, "devlogs_count": 0, "votes_count": 0, "ships_count": 0, "projects": [], "coding_time_seconds": 0, "coding_time_seconds_today": 0, "balance": "You need to have a pocket watcher badge to view this.", "badges": [], "created_at": "2025-06-17T04:40:00.382-04:00", "updated_at": "2025-07-03T19:36:48.447-04:00", "avatar": "https://secure.gravatar.com/avatar/a2804f094427e721972c7c3e11d3a4e1.jpg?s=512&d=https%3A%2F%2Fa.slack-edge.com%2Fdf10d%2Fimg%2Favatars%2Fava_0005-512.png", "custom_css": null}, {"id": 5640, "slack_id": "U091LCTM7ML", "display_name": "tilak khatoris", "bio": null, "projects_count": 0, "devlogs_count": 0, "votes_count": 0, "ships_count": 0, "projects": [], "coding_time_seconds": 0, "coding_time_seconds_today": 0, "balance": "You need to have a pocket watcher badge to view this.", "badges": [], "created_at": "2025-06-17T04:40:04.587-04:00", "updated_at": "2025-07-03T19:36:48.710-04:00", "avatar": "https://secure.gravatar.com/avatar/630726fbc093c13f6bbb646d0a09bfe5.jpg?s=512&d=https%3A%2F%2Fa.slack-edge.com%2Fdf10d%2Fimg%2Favatars%2Fava_0024-512.png", "custom_css": null}], "pagination": {"page": 282, "pages": 1192, "count": 23828, "items": 20}}