{"users": [{"id": 5661, "slack_id": "U091TETGCNQ", "display_name": "Syam sundar", "bio": null, "projects_count": 0, "devlogs_count": 0, "votes_count": 0, "ships_count": 0, "projects": [], "coding_time_seconds": 0, "coding_time_seconds_today": 0, "balance": "You need to have a pocket watcher badge to view this.", "badges": [], "created_at": "2025-06-17T04:44:27.383-04:00", "updated_at": "2025-07-03T19:36:53.979-04:00", "avatar": "https://secure.gravatar.com/avatar/76ed4abaa89687e607519e781607f40e.jpg?s=512&d=https%3A%2F%2Fa.slack-edge.com%2Fdf10d%2Fimg%2Favatars%2Fava_0005-512.png", "custom_css": null}, {"id": 5662, "slack_id": "U091TEXALUC", "display_name": "Sajanraj", "bio": null, "projects_count": 0, "devlogs_count": 0, "votes_count": 0, "ships_count": 0, "projects": [], "coding_time_seconds": 0, "coding_time_seconds_today": 0, "balance": "You need to have a pocket watcher badge to view this.", "badges": [], "created_at": "2025-06-17T04:44:48.858-04:00", "updated_at": "2025-07-03T19:36:54.243-04:00", "avatar": "https://secure.gravatar.com/avatar/3aa5e38ea952714cb8e7aa1667901785.jpg?s=512&d=https%3A%2F%2Fa.slack-edge.com%2Fdf10d%2Fimg%2Favatars%2Fava_0001-512.png", "custom_css": null}, {"id": 5663, "slack_id": "U091T5BE0KC", "display_name": "Nirbhay", "bio": null, "projects_count": 0, "devlogs_count": 0, "votes_count": 0, "ships_count": 0, "projects": [], "coding_time_seconds": 0, "coding_time_seconds_today": 0, "balance": "You need to have a pocket watcher badge to view this.", "badges": [], "created_at": "2025-06-17T04:45:08.728-04:00", "updated_at": "2025-07-03T19:36:54.510-04:00", "avatar": "https://avatars.slack-edge.com/2025-06-17/9054352149331_d5dcebbe46a20af5eed5_original.png", "custom_css": null}, {"id": 5664, "slack_id": "U091KJ94Q7M", "display_name": "Atharva", "bio": null, "projects_count": 0, "devlogs_count": 0, "votes_count": 0, "ships_count": 0, "projects": [], "coding_time_seconds": 0, "coding_time_seconds_today": 0, "balance": "You need to have a pocket watcher badge to view this.", "badges": [], "created_at": "2025-06-17T04:45:45.420-04:00", "updated_at": "2025-07-03T19:36:54.783-04:00", "avatar": "https://secure.gravatar.com/avatar/5031b02dc978eaf07370e0d347b91adb.jpg?s=512&d=https%3A%2F%2Fa.slack-edge.com%2Fdf10d%2Fimg%2Favatars%2Fava_0014-512.png", "custom_css": null}, {"id": 5665, "slack_id": "U082WT6L2H2", "display_name": "goofy goober", "bio": null, "projects_count": 1, "devlogs_count": 6, "votes_count": 28, "ships_count": 1, "projects": [{"id": 5729, "title": "Portfolio Website", "devlogs_count": 2, "created_at": "2025-07-07T14:08:06.743-04:00"}], "coding_time_seconds": 41062, "coding_time_seconds_today": 0, "balance": "You need to have a pocket watcher badge to view this.", "badges": [{"name": "Maiden Voyage", "text": "you shipped your first project! the journey begins...", "icon": "\ud83d\udea2"}], "created_at": "2025-06-17T04:46:02.413-04:00", "updated_at": "2025-09-10T22:53:59.685-04:00", "avatar": "https://avatars.slack-edge.com/2025-06-17/9054428160915_f580552da3b19593101d_original.png", "custom_css": null}, {"id": 5666, "slack_id": "U091L9V04BV", "display_name": "Subhash", "bio": null, "projects_count": 0, "devlogs_count": 0, "votes_count": 0, "ships_count": 0, "projects": [], "coding_time_seconds": 0, "coding_time_seconds_today": 0, "balance": "You need to have a pocket watcher badge to view this.", "badges": [], "created_at": "2025-06-17T04:46:25.287-04:00", "updated_at": "2025-07-03T19:36:55.823-04:00", "avatar": "https://secure.gravatar.com/avatar/1237c690ec981be83d5157f63c53dc07.jpg?s=512&d=https%3A%2F%2Fa.slack-edge.com%2Fdf10d%2Fimg%2Favatars%2Fava_0002-512.png", "custom_css": null}, {"id": 5667, "slack_id": "U091RCD7QKF", "display_name": "harshu17", "bio": null, "projects_count": 0, "devlogs_count": 0, "votes_count": 0, "ships_count": 0, "projects": [], "coding_time_seconds": 0, "coding_time_seconds_today": 0, "balance": "You need to have a pocket watcher badge to view this.", "badges": [], "created_at": "2025-06-17T04:48:02.943-04:00", "updated_at": "2025-07-03T19:36:56.089-04:00", "avatar": "https://secure.gravatar.com/avatar/3322f675150a08cbf990370d7ffb1470.jpg?s=512&d=https%3A%2F%2Fa.slack-edge.com%2Fdf10d%2Fimg%2Favatars%2Fava_0005-512.png", "custom_css": null}, {"id": 5668, "slack_id": "U091RCFK3SR", "display_name": "ISHANVI PRASAD", "bio": null, "projects_count": 0, "devlogs_count": 0, "votes_count": 0, "ships_count": 0, "projects": [], "coding_time_seconds": 4627, "coding_time_seconds_today": 0, "balance": "You need to have a pocket watcher badge to view this.", "badges": [], "created_at": "2025-06-17T04:48:43.665-04:00", "updated_at": "2025-07-03T19:36:56.354-04:00", "avatar": "https://secure.gravatar.com/avatar/8d97386d3e8d92fc66fdad9766b7feb7.jpg?s=512&d=https%3A%2F%2Fa.slack-edge.com%2Fdf10d%2Fimg%2Favatars%2Fava_0019-512.png", "custom_css": null}, {"id": 5669, "slack_id": "U091TFK7EKE", "display_name": "Alpesh", "bio": null, "projects_count": 0, "devlogs_count": 0, "votes_count": 0, "ships_count": 0, "projects": [], "coding_time_seconds": 39, "coding_time_seconds_today": 0, "balance": "You need to have a pocket watcher badge to view this.", "badges": [], "created_at": "2025-06-17T04:48:53.115-04:00", "updated_at": "2025-07-03T19:36:56.622-04:00", "avatar": "https://secure.gravatar.com/avatar/284937f2efb42a002cfda84c7e180b64.jpg?s=512&d=https%3A%2F%2Fa.slack-edge.com%2Fdf10d%2Fimg%2Favatars%2Fava_0021-512.png", "custom_css": null}, {"id": 5670, "slack_id": "U091BP77695", "display_name": "M Adeel Farooqi", "bio": null, "projects_count": 0, "devlogs_count": 0, "votes_count": 0, "ships_count": 0, "projects": [], "coding_time_seconds": 11090, "coding_time_seconds_today": 0, "balance": "You need to have a pocket watcher badge to view this.", "badges": [], "created_at": "2025-06-17T04:49:04.946-04:00", "updated_at": "2025-07-03T19:36:56.940-04:00", "avatar": "https://secure.gravatar.com/avatar/81766be1600a0e64931692ed41cdc5d1.jpg?s=512&d=https%3A%2F%2Fa.slack-edge.com%2Fdf10d%2Fimg%2Favatars%2Fava_0015-512.png", "custom_css": null}, {"id": 5671, "slack_id": "U092B87BL2C", "display_name": "Erick", "bio": null, "projects_count": 0, "devlogs_count": 0, "votes_count": 0, "ships_count": 0, "projects": [], "coding_time_seconds": 0, "coding_time_seconds_today": 0, "balance": "You need to have a pocket watcher badge to view this.", "badges": [], "created_at": "2025-06-17T04:49:38.547-04:00", "updated_at": "2025-07-03T19:36:57.201-04:00", "avatar": "https://secure.gravatar.com/avatar/e9d5df182b641e6723ab2e17947ac6f7.jpg?s=512&d=https%3A%2F%2Fa.slack-edge.com%2Fdf10d%2Fimg%2Favatars%2Fava_0015-512.png", "custom_css": null}, {"id": 5672, "slack_id": "U091BPLGE87", "display_name": "Franek", "bio": null, "projects_count": 0, "devlogs_count": 0, "votes_count": 0, "ships_count": 0, "projects": [], "coding_time_seconds": 4443, "coding_time_seconds_today": 0, "balance": "You need to have a pocket watcher badge to view this.", "badges": [], "created_at": "2025-06-17T04:49:50.973-04:00", "updated_at": "2025-07-03T19:36:57.464-04:00", "avatar": "https://secure.gravatar.com/avatar/4d7a5042d541fcf4084ec05d2e487e73.jpg?s=512&d=https%3A%2F%2Fa.slack-edge.com%2Fdf10d%2Fimg%2Favatars%2Fava_0000-512.png", "custom_css": null}, {"id": 5673, "slack_id": "U091T5KLFK4", "display_name": "Miraan", "bio": null, "projects_count": 0, "devlogs_count": 0, "votes_count": 0, "ships_count": 0, "projects": [], "coding_time_seconds": 4762, "coding_time_seconds_today": 0, "balance": "You need to have a pocket watcher badge to view this.", "badges": [], "created_at": "2025-06-17T04:49:51.905-04:00", "updated_at": "2025-07-03T19:36:57.725-04:00", "avatar": "https://secure.gravatar.com/avatar/744d6d849d72d647957895a5688e5a7d.jpg?s=512&d=https%3A%2F%2Fa.slack-edge.com%2Fdf10d%2Fimg%2Favatars%2Fava_0022-512.png", "custom_css": null}, {"id": 5674, "slack_id": "U092FGQL17A", "display_name": "Tleister", "bio": null, "projects_count": 0, "devlogs_count": 0, "votes_count": 0, "ships_count": 0, "projects": [], "coding_time_seconds": 0, "coding_time_seconds_today": 0, "balance": "You need to have a pocket watcher badge to view this.", "badges": [], "created_at": "2025-06-17T04:50:01.829-04:00", "updated_at": "2025-07-03T19:36:57.991-04:00", "avatar": "https://secure.gravatar.com/avatar/f551004465e01170439bcbfa3fabe5b4.jpg?s=512&d=https%3A%2F%2Fa.slack-edge.com%2Fdf10d%2Fimg%2Favatars%2Fava_0011-512.png", "custom_css": null}, {"id": 5675, "slack_id": "U091LA9P1V1", "display_name": "Rohan Rajora", "bio": null, "projects_count": 0, "devlogs_count": 0, "votes_count": 0, "ships_count": 0, "projects": [], "coding_time_seconds": 0, "coding_time_seconds_today": 0, "balance": "You need to have a pocket watcher badge to view this.", "badges": [], "created_at": "2025-06-17T04:50:04.858-04:00", "updated_at": "2025-07-03T19:36:58.252-04:00", "avatar": "https://secure.gravatar.com/avatar/6dade80b1b00ace69db94615404c372f.jpg?s=512&d=https%3A%2F%2Fa.slack-edge.com%2Fdf10d%2Fimg%2Favatars%2Fava_0015-512.png", "custom_css": null}, {"id": 5676, "slack_id": "U092FGNKUCQ", "display_name": "Shivam Maurya", "bio": null, "projects_count": 7, "devlogs_count": 57, "votes_count": 40, "ships_count": 4, "projects": [{"id": 2572, "title": "CHIP 8 emulator/interpreter", "devlogs_count": 6, "created_at": "2025-06-21T10:54:43.564-04:00"}, {"id": 4198, "title": "Rustle - music", "devlogs_count": 2, "created_at": "2025-06-28T05:46:06.609-04:00"}, {"id": 6761, "title": "scrible-pad", "devlogs_count": 6, "created_at": "2025-07-15T23:03:52.552-04:00"}, {"id": 792, "title": "Lambda Calculus Interpreter - Rust", "devlogs_count": 8, "created_at": "2025-06-17T08:22:28.094-04:00"}, {"id": 5194, "title": "Wavesetter ", "devlogs_count": 1, "created_at": "2025-07-03T17:15:46.715-04:00"}, {"id": 5967, "title": "Bracket ", "devlogs_count": 12, "created_at": "2025-07-09T13:08:50.888-04:00"}, {"id": 4263, "title": "Chess engine - Rust", "devlogs_count": 22, "created_at": "2025-06-28T14:30:13.261-04:00"}], "coding_time_seconds": 424746, "coding_time_seconds_today": 120, "balance": "You need to have a pocket watcher badge to view this.", "badges": [{"name": "Maiden Voyage", "text": "you shipped your first project! the journey begins...", "icon": "\ud83d\udea2"}], "created_at": "2025-06-17T04:50:07.014-04:00", "updated_at": "2025-09-10T22:53:59.970-04:00", "avatar": "https://secure.gravatar.com/avatar/4ea64b4b8d2cc62a4cf7d9f37079b6d6.jpg?s=512&d=https%3A%2F%2Fa.slack-edge.com%2Fdf10d%2Fimg%2Favatars%2Fava_0026-512.png", "custom_css": null}, {"id": 5677, "slack_id": "U091T5WDTNE", "display_name": "QkeleQ10", "bio": null, "projects_count": 2, "devlogs_count": 9, "votes_count": 37, "ships_count": 2, "projects": [{"id": 765, "title": "Path\u00e9 Tools", "devlogs_count": 7, "created_at": "2025-06-17T07:42:32.881-04:00"}, {"id": 767, "title": "Study Tools", "devlogs_count": 2, "created_at": "2025-06-17T07:44:05.302-04:00"}], "coding_time_seconds": 190778, "coding_time_seconds_today": 0, "balance": "You need to have a pocket watcher badge to view this.", "badges": [{"name": "Maiden Voyage", "text": "you shipped your first project! the journey begins...", "icon": "\ud83d\udea2"}], "created_at": "2025-06-17T04:50:07.804-04:00", "updated_at": "2025-09-10T22:53:59.997-04:00", "avatar": "https://secure.gravatar.com/avatar/0e885ed40da871046a13c5dd3c343831.jpg?s=512&d=https%3A%2F%2Fa.slack-edge.com%2Fdf10d%2Fimg%2Favatars%2Fava_0016-512.png", "custom_css": null}, {"id": 5678, "slack_id": "U08SPJPNKDZ", "display_name": "Parker Rupe", "bio": null, "projects_count": 0, "devlogs_count": 0, "votes_count": 0, "ships_count": 0, "projects": [], "coding_time_seconds": 0, "coding_time_seconds_today": 0, "balance": "You need to have a pocket watcher badge to view this.", "badges": [], "created_at": "2025-06-17T04:50:09.045-04:00", "updated_at": "2025-08-14T14:26:56.739-04:00", "avatar": "https://avatars.slack-edge.com/2025-08-14/9356648750118_b707d4718c1de8443aee_original.png", "custom_css": null}, {"id": 5679, "slack_id": "U091BPQ170F", "display_name": "Vikash Kumar", "bio": null, "projects_count": 0, "devlogs_count": 0, "votes_count": 0, "ships_count": 0, "projects": [], "coding_time_seconds": 0, "coding_time_seconds_today": 0, "balance": "You need to have a pocket watcher badge to view this.", "badges": [], "created_at": "2025-06-17T04:50:10.806-04:00", "updated_at": "2025-07-03T19:36:59.307-04:00", "avatar": "https://secure.gravatar.com/avatar/c2c9308eb873510114b902304c2d3da9.jpg?s=512&d=https%3A%2F%2Fa.slack-edge.com%2Fdf10d%2Fimg%2Favatars%2Fava_0002-512.png", "custom_css": null}, {"id": 5680, "slack_id": "U091L9TFHC3", "display_name": "PAVAN SHANMUKH KAKARLA", "bio": null, "projects_count": 0, "devlogs_count": 0, "votes_count": 0, "ships_count": 0, "projects": [], "coding_time_seconds": 0, "coding_time_seconds_today": 0, "balance": "You need to have a pocket watcher badge to view this.", "badges": [], "created_at": "2025-06-17T04:50:16.559-04:00", "updated_at": "2025-07-03T19:36:59.580-04:00", "avatar": "https://avatars.slack-edge.com/2025-06-17/9054508404966_2aecf8b2a2ce32fd24ad_original.jpg", "custom_css": null}], "pagination": {"page": 284, "pages": 1192, "count": 23828, "items": 20}}