{"users": [{"id": 5701, "slack_id": "U07C53U6F1C", "display_name": "The Only Dino", "bio": null, "projects_count": 0, "devlogs_count": 0, "votes_count": 0, "ships_count": 0, "projects": [], "coding_time_seconds": 568842, "coding_time_seconds_today": 655, "balance": "You need to have a pocket watcher badge to view this.", "badges": [], "created_at": "2025-06-17T04:56:00.164-04:00", "updated_at": "2025-07-03T19:37:05.303-04:00", "avatar": "https://secure.gravatar.com/avatar/03bd03eab86a11d4c9cba778fe6db13d.jpg?s=512&d=https%3A%2F%2Fa.slack-edge.com%2Fdf10d%2Fimg%2Favatars%2Fava_0022-512.png", "custom_css": null}, {"id": 5702, "slack_id": "U091BQQSLVD", "display_name": "Danyal Khalid", "bio": null, "projects_count": 3, "devlogs_count": 7, "votes_count": 0, "ships_count": 0, "projects": [{"id": 704, "title": "IRis", "devlogs_count": 2, "created_at": "2025-06-17T05:50:36.638-04:00"}, {"id": 2427, "title": "Sharpie", "devlogs_count": 3, "created_at": "2025-06-21T02:21:38.508-04:00"}, {"id": 3760, "title": "CRISP-8 | A CHIP-8 Emulator", "devlogs_count": 2, "created_at": "2025-06-25T16:07:53.115-04:00"}], "coding_time_seconds": 246500, "coding_time_seconds_today": 0, "balance": "You need to have a pocket watcher badge to view this.", "badges": [], "created_at": "2025-06-17T04:56:48.717-04:00", "updated_at": "2025-07-03T19:37:05.567-04:00", "avatar": "https://secure.gravatar.com/avatar/83c32f3fe77d32d19247ec39d1195cf3.jpg?s=512&d=https%3A%2F%2Fa.slack-edge.com%2Fdf10d%2Fimg%2Favatars%2Fava_0013-512.png", "custom_css": null}, {"id": 5703, "slack_id": "U091TGU2ALU", "display_name": "Vikash Kumar", "bio": null, "projects_count": 0, "devlogs_count": 0, "votes_count": 0, "ships_count": 0, "projects": [], "coding_time_seconds": 0, "coding_time_seconds_today": 0, "balance": "You need to have a pocket watcher badge to view this.", "badges": [], "created_at": "2025-06-17T04:58:12.898-04:00", "updated_at": "2025-07-03T19:37:05.833-04:00", "avatar": "https://secure.gravatar.com/avatar/377de56e7262c858d13fa28d7383d94d.jpg?s=512&d=https%3A%2F%2Fa.slack-edge.com%2Fdf10d%2Fimg%2Favatars%2Fava_0003-512.png", "custom_css": null}, {"id": 5704, "slack_id": "U091T72CEJE", "display_name": "jimkart", "bio": null, "projects_count": 0, "devlogs_count": 0, "votes_count": 0, "ships_count": 0, "projects": [], "coding_time_seconds": 0, "coding_time_seconds_today": 0, "balance": "You need to have a pocket watcher badge to view this.", "badges": [], "created_at": "2025-06-17T04:58:14.158-04:00", "updated_at": "2025-07-03T19:37:06.103-04:00", "avatar": "https://secure.gravatar.com/avatar/ecbe997f046f88214654e1e43db27199.jpg?s=512&d=https%3A%2F%2Fa.slack-edge.com%2Fdf10d%2Fimg%2Favatars%2Fava_0022-512.png", "custom_css": null}, {"id": 5705, "slack_id": "U091LFLL9KQ", "display_name": "Animesh Sachan", "bio": null, "projects_count": 0, "devlogs_count": 0, "votes_count": 0, "ships_count": 0, "projects": [], "coding_time_seconds": 0, "coding_time_seconds_today": 0, "balance": "You need to have a pocket watcher badge to view this.", "badges": [], "created_at": "2025-06-17T04:58:25.317-04:00", "updated_at": "2025-07-03T19:37:06.370-04:00", "avatar": "https://secure.gravatar.com/avatar/e6e32891241ff1fffaae7514e61d0c94.jpg?s=512&d=https%3A%2F%2Fa.slack-edge.com%2Fdf10d%2Fimg%2Favatars%2Fava_0009-512.png", "custom_css": null}, {"id": 5706, "slack_id": "U092FHNSE80", "display_name": "FoeBai", "bio": null, "projects_count": 0, "devlogs_count": 0, "votes_count": 0, "ships_count": 0, "projects": [], "coding_time_seconds": 0, "coding_time_seconds_today": 0, "balance": "You need to have a pocket watcher badge to view this.", "badges": [], "created_at": "2025-06-17T04:58:36.522-04:00", "updated_at": "2025-07-03T19:37:06.642-04:00", "avatar": "https://secure.gravatar.com/avatar/f749a80d5f2a0b82dc0667d469d082a2.jpg?s=512&d=https%3A%2F%2Fa.slack-edge.com%2Fdf10d%2Fimg%2Favatars%2Fava_0009-512.png", "custom_css": null}, {"id": 5707, "slack_id": "U0925P28C49", "display_name": "Aryan", "bio": null, "projects_count": 0, "devlogs_count": 0, "votes_count": 0, "ships_count": 0, "projects": [], "coding_time_seconds": 565, "coding_time_seconds_today": 0, "balance": "You need to have a pocket watcher badge to view this.", "badges": [], "created_at": "2025-06-17T04:59:28.684-04:00", "updated_at": "2025-07-03T19:37:06.906-04:00", "avatar": "https://avatars.slack-edge.com/2025-06-17/9083833894832_4c19d000c71d0fe14497_original.png", "custom_css": null}, {"id": 5708, "slack_id": "U07CPKZPKFB", "display_name": "Simon", "bio": null, "projects_count": 0, "devlogs_count": 0, "votes_count": 0, "ships_count": 0, "projects": [], "coding_time_seconds": 0, "coding_time_seconds_today": 0, "balance": "You need to have a pocket watcher badge to view this.", "badges": [], "created_at": "2025-06-17T04:59:33.886-04:00", "updated_at": "2025-07-03T19:37:07.189-04:00", "avatar": "https://secure.gravatar.com/avatar/e6c1b4c69bae25b772450df2ada2ae9b.jpg?s=512&d=https%3A%2F%2Fa.slack-edge.com%2Fdf10d%2Fimg%2Favatars%2Fava_0026-512.png", "custom_css": null}, {"id": 5709, "slack_id": "U082NNG9LQP", "display_name": "Aryaman Maheshwari", "bio": "", "projects_count": 1, "devlogs_count": 2, "votes_count": 5, "ships_count": 0, "projects": [{"id": 4386, "title": "Playdate", "devlogs_count": 2, "created_at": "2025-06-29T13:41:51.949-04:00"}], "coding_time_seconds": 73890, "coding_time_seconds_today": 321, "balance": "You need to have a pocket watcher badge to view this.", "badges": [], "created_at": "2025-06-17T05:00:09.738-04:00", "updated_at": "2025-08-18T13:44:32.798-04:00", "avatar": "https://avatars.slack-edge.com/2025-06-29/9115565155286_1b6b614c441a1197ca6d_original.png", "custom_css": null}, {"id": 5710, "slack_id": "U091T7D6Y4S", "display_name": "Jonte", "bio": null, "projects_count": 0, "devlogs_count": 0, "votes_count": 0, "ships_count": 0, "projects": [], "coding_time_seconds": 28703, "coding_time_seconds_today": 0, "balance": "You need to have a pocket watcher badge to view this.", "badges": [], "created_at": "2025-06-17T05:00:10.316-04:00", "updated_at": "2025-07-03T19:37:07.598-04:00", "avatar": "https://secure.gravatar.com/avatar/e914a555cc914a78b4190ef69a9e1fd0.jpg?s=512&d=https%3A%2F%2Fa.slack-edge.com%2Fdf10d%2Fimg%2Favatars%2Fava_0020-512.png", "custom_css": null}, {"id": 5711, "slack_id": "U05BZ4ER9EX", "display_name": "Abhi", "bio": null, "projects_count": 0, "devlogs_count": 0, "votes_count": 0, "ships_count": 0, "projects": [], "coding_time_seconds": 0, "coding_time_seconds_today": 0, "balance": "You need to have a pocket watcher badge to view this.", "badges": [], "created_at": "2025-06-17T05:00:11.179-04:00", "updated_at": "2025-07-07T02:07:42.376-04:00", "avatar": "https://avatars.slack-edge.com/2023-06-13/5441055236128_02a96fd51bcae59f88ef_original.jpg", "custom_css": null}, {"id": 5712, "slack_id": "U091LBKV1MZ", "display_name": "rijusmit biswas", "bio": null, "projects_count": 0, "devlogs_count": 0, "votes_count": 0, "ships_count": 0, "projects": [], "coding_time_seconds": 0, "coding_time_seconds_today": 0, "balance": "You need to have a pocket watcher badge to view this.", "badges": [], "created_at": "2025-06-17T05:00:12.489-04:00", "updated_at": "2025-07-03T19:37:08.008-04:00", "avatar": "https://secure.gravatar.com/avatar/43f1799c65cf1b4c2781c5c0ae868fdc.jpg?s=512&d=https%3A%2F%2Fa.slack-edge.com%2Fdf10d%2Fimg%2Favatars%2Fava_0006-512.png", "custom_css": null}, {"id": 5713, "slack_id": "U091LFATK54", "display_name": "Megh Deb", "bio": null, "projects_count": 0, "devlogs_count": 0, "votes_count": 0, "ships_count": 0, "projects": [], "coding_time_seconds": 2624, "coding_time_seconds_today": 0, "balance": "You need to have a pocket watcher badge to view this.", "badges": [], "created_at": "2025-06-17T05:00:26.307-04:00", "updated_at": "2025-07-03T19:37:08.290-04:00", "avatar": "https://secure.gravatar.com/avatar/e8e5c7bb4ab5e9c494d4e222f9047c47.jpg?s=512&d=https%3A%2F%2Fa.slack-edge.com%2Fdf10d%2Fimg%2Favatars%2Fava_0004-512.png", "custom_css": null}, {"id": 5714, "slack_id": "U08285MCFMY", "display_name": "1234567890", "bio": null, "projects_count": 3, "devlogs_count": 11, "votes_count": 39, "ships_count": 1, "projects": [{"id": 3473, "title": "VibeCode HackPad", "devlogs_count": 4, "created_at": "2025-06-24T11:36:47.526-04:00"}, {"id": 725, "title": "Space Defender", "devlogs_count": 6, "created_at": "2025-06-17T06:30:55.756-04:00"}, {"id": 5301, "title": "Why Svelte is Better \u2014 Reactive YSWS submission", "devlogs_count": 1, "created_at": "2025-07-04T10:48:49.116-04:00"}], "coding_time_seconds": 121872, "coding_time_seconds_today": 0, "balance": "You need to have a pocket watcher badge to view this.", "badges": [{"name": "Maiden Voyage", "text": "you shipped your first project! the journey begins...", "icon": "\ud83d\udea2"}], "created_at": "2025-06-17T05:00:39.955-04:00", "updated_at": "2025-09-10T22:54:01.025-04:00", "avatar": "https://avatars.slack-edge.com/2024-11-24/8098989275520_1a6c1aa9524669efbb12_original.png", "custom_css": null}, {"id": 5715, "slack_id": "U092FJ8L0KS", "display_name": "Raphael Ladinig", "bio": null, "projects_count": 0, "devlogs_count": 0, "votes_count": 0, "ships_count": 0, "projects": [], "coding_time_seconds": 0, "coding_time_seconds_today": 0, "balance": "You need to have a pocket watcher badge to view this.", "badges": [], "created_at": "2025-06-17T05:01:00.059-04:00", "updated_at": "2025-07-03T19:37:08.851-04:00", "avatar": "https://secure.gravatar.com/avatar/bf835ff679dcea582de403930b1820cb.jpg?s=512&d=https%3A%2F%2Fa.slack-edge.com%2Fdf10d%2Fimg%2Favatars%2Fava_0002-512.png", "custom_css": null}, {"id": 5716, "slack_id": "U08372TGKMF", "display_name": "CT5", "bio": null, "projects_count": 4, "devlogs_count": 41, "votes_count": 63, "ships_count": 3, "projects": [{"id": 10626, "title": "Creative Pad", "devlogs_count": 4, "created_at": "2025-08-09T04:45:26.886-04:00"}, {"id": 12364, "title": "Winter Seasons Mod", "devlogs_count": 6, "created_at": "2025-08-26T08:23:30.415-04:00"}, {"id": 13471, "title": "Arctic Fox Lamp", "devlogs_count": 4, "created_at": "2025-09-17T08:49:51.944-04:00"}, {"id": 682, "title": "Astral OS", "devlogs_count": 27, "created_at": "2025-06-17T05:13:56.381-04:00"}], "coding_time_seconds": 556459, "coding_time_seconds_today": 22995, "balance": "You need to have a pocket watcher badge to view this.", "badges": [{"name": "Maiden Voyage", "text": "you shipped your first project! the journey begins...", "icon": "\ud83d\udea2"}], "created_at": "2025-06-17T05:02:33.695-04:00", "updated_at": "2025-09-10T22:54:01.087-04:00", "avatar": "https://avatars.slack-edge.com/2025-01-18/8307395692774_2a3cb27220bae2ffcb07_original.png", "custom_css": null}, {"id": 5717, "slack_id": "U091BR4FZJB", "display_name": "Nguy\u1ec5n Ho\u00e0ng S\u01a1n", "bio": null, "projects_count": 0, "devlogs_count": 0, "votes_count": 0, "ships_count": 0, "projects": [], "coding_time_seconds": 0, "coding_time_seconds_today": 0, "balance": "You need to have a pocket watcher badge to view this.", "badges": [], "created_at": "2025-06-17T05:02:37.553-04:00", "updated_at": "2025-07-03T19:37:09.412-04:00", "avatar": "https://secure.gravatar.com/avatar/68cede850ccf95788cf67cc5010ac462.jpg?s=512&d=https%3A%2F%2Fa.slack-edge.com%2Fdf10d%2Fimg%2Favatars%2Fava_0005-512.png", "custom_css": null}, {"id": 5718, "slack_id": "U091TG3E10C", "display_name": "shawon", "bio": null, "projects_count": 0, "devlogs_count": 0, "votes_count": 0, "ships_count": 0, "projects": [], "coding_time_seconds": 0, "coding_time_seconds_today": 0, "balance": "You need to have a pocket watcher badge to view this.", "badges": [], "created_at": "2025-06-17T05:03:09.935-04:00", "updated_at": "2025-07-03T19:37:09.696-04:00", "avatar": "https://secure.gravatar.com/avatar/70888d237e8986865b0c314504ab7e88.jpg?s=512&d=https%3A%2F%2Fa.slack-edge.com%2Fdf10d%2Fimg%2Favatars%2Fava_0003-512.png", "custom_css": null}, {"id": 5719, "slack_id": "U0925Q51AJV", "display_name": "Rajat Soni", "bio": null, "projects_count": 0, "devlogs_count": 0, "votes_count": 0, "ships_count": 0, "projects": [], "coding_time_seconds": 0, "coding_time_seconds_today": 0, "balance": "You need to have a pocket watcher badge to view this.", "badges": [], "created_at": "2025-06-17T05:03:19.384-04:00", "updated_at": "2025-07-03T19:37:09.978-04:00", "avatar": "https://secure.gravatar.com/avatar/f05970fdd82e9261284ed67bddcc5a0c.jpg?s=512&d=https%3A%2F%2Fa.slack-edge.com%2Fdf10d%2Fimg%2Favatars%2Fava_0010-512.png", "custom_css": null}, {"id": 5720, "slack_id": "U091LGN504W", "display_name": "ayushi", "bio": null, "projects_count": 0, "devlogs_count": 0, "votes_count": 0, "ships_count": 0, "projects": [], "coding_time_seconds": 0, "coding_time_seconds_today": 0, "balance": "You need to have a pocket watcher badge to view this.", "badges": [], "created_at": "2025-06-17T05:04:03.780-04:00", "updated_at": "2025-07-03T19:37:10.257-04:00", "avatar": "https://secure.gravatar.com/avatar/d5a0cfea429d9b0afdb6db8941812a18.jpg?s=512&d=https%3A%2F%2Fa.slack-edge.com%2Fdf10d%2Fimg%2Favatars%2Fava_0012-512.png", "custom_css": null}], "pagination": {"page": 286, "pages": 1192, "count": 23828, "items": 20}}