{"users": [{"id": 5721, "slack_id": "U091THXSMC4", "display_name": "Shazil Khan", "bio": null, "projects_count": 0, "devlogs_count": 0, "votes_count": 0, "ships_count": 0, "projects": [], "coding_time_seconds": 517018, "coding_time_seconds_today": 0, "balance": "You need to have a pocket watcher badge to view this.", "badges": [], "created_at": "2025-06-17T05:04:23.302-04:00", "updated_at": "2025-07-03T19:37:10.528-04:00", "avatar": "https://secure.gravatar.com/avatar/ee1c2e0ea3d9f361a04cf3d5abb1f865.jpg?s=512&d=https%3A%2F%2Fa.slack-edge.com%2Fdf10d%2Fimg%2Favatars%2Fava_0021-512.png", "custom_css": null}, {"id": 5722, "slack_id": "U091LCWUN67", "display_name": "hiba", "bio": null, "projects_count": 3, "devlogs_count": 5, "votes_count": 30, "ships_count": 2, "projects": [{"id": 773, "title": "Insight HUD", "devlogs_count": 3, "created_at": "2025-06-17T07:56:01.062-04:00"}, {"id": 1710, "title": "LLS ASSEMBLY", "devlogs_count": 2, "created_at": "2025-06-19T04:23:26.902-04:00"}, {"id": 2061, "title": "RTX-PBR-Graph", "devlogs_count": 0, "created_at": "2025-06-20T03:13:34.719-04:00"}], "coding_time_seconds": 561339, "coding_time_seconds_today": 0, "balance": "You need to have a pocket watcher badge to view this.", "badges": [{"name": "Maiden Voyage", "text": "you shipped your first project! the journey begins...", "icon": "\ud83d\udea2"}], "created_at": "2025-06-17T05:04:29.889-04:00", "updated_at": "2025-09-10T22:54:01.258-04:00", "avatar": "https://avatars.slack-edge.com/2025-06-17/9061297481218_c6952c8d6f046f35c564_original.png", "custom_css": null}, {"id": 5723, "slack_id": "U091THR68S0", "display_name": "Nikil", "bio": null, "projects_count": 0, "devlogs_count": 0, "votes_count": 0, "ships_count": 0, "projects": [], "coding_time_seconds": 0, "coding_time_seconds_today": 0, "balance": "You need to have a pocket watcher badge to view this.", "badges": [], "created_at": "2025-06-17T05:05:19.417-04:00", "updated_at": "2025-07-03T19:37:11.060-04:00", "avatar": "https://secure.gravatar.com/avatar/111b6ce1a5d50775a55c72d7e7c02010.jpg?s=512&d=https%3A%2F%2Fa.slack-edge.com%2Fdf10d%2Fimg%2Favatars%2Fava_0016-512.png", "custom_css": null}, {"id": 5724, "slack_id": "U091TJ2V952", "display_name": "Teja Swaroop Reddy", "bio": null, "projects_count": 0, "devlogs_count": 0, "votes_count": 0, "ships_count": 0, "projects": [], "coding_time_seconds": 13147, "coding_time_seconds_today": 0, "balance": "You need to have a pocket watcher badge to view this.", "badges": [], "created_at": "2025-06-17T05:05:22.871-04:00", "updated_at": "2025-07-03T19:37:11.343-04:00", "avatar": "https://secure.gravatar.com/avatar/b1af4ebb54277dbfe43945807e5dbd01.jpg?s=512&d=https%3A%2F%2Fa.slack-edge.com%2Fdf10d%2Fimg%2Favatars%2Fava_0006-512.png", "custom_css": null}, {"id": 5725, "slack_id": "U091LC52ZNF", "display_name": "VikXiaZ", "bio": null, "projects_count": 0, "devlogs_count": 0, "votes_count": 0, "ships_count": 0, "projects": [], "coding_time_seconds": 0, "coding_time_seconds_today": 0, "balance": "You need to have a pocket watcher badge to view this.", "badges": [], "created_at": "2025-06-17T05:05:29.768-04:00", "updated_at": "2025-07-03T19:37:11.612-04:00", "avatar": "https://secure.gravatar.com/avatar/6125f396b686398aaa21745c5eb3dd83.jpg?s=512&d=https%3A%2F%2Fa.slack-edge.com%2Fdf10d%2Fimg%2Favatars%2Fava_0000-512.png", "custom_css": null}, {"id": 5726, "slack_id": "U091T826X7C", "display_name": "Aditya", "bio": null, "projects_count": 0, "devlogs_count": 0, "votes_count": 0, "ships_count": 0, "projects": [], "coding_time_seconds": 0, "coding_time_seconds_today": 0, "balance": "You need to have a pocket watcher badge to view this.", "badges": [], "created_at": "2025-06-17T05:05:33.248-04:00", "updated_at": "2025-07-03T19:37:11.880-04:00", "avatar": "https://secure.gravatar.com/avatar/295f46f8917b4e49ea3b78540922cd93.jpg?s=512&d=https%3A%2F%2Fa.slack-edge.com%2Fdf10d%2Fimg%2Favatars%2Fava_0026-512.png", "custom_css": null}, {"id": 5727, "slack_id": "U091THR6KK6", "display_name": "Emiel", "bio": null, "projects_count": 1, "devlogs_count": 1, "votes_count": 2, "ships_count": 0, "projects": [{"id": 6786, "title": "Key Copier", "devlogs_count": 1, "created_at": "2025-07-16T06:59:58.378-04:00"}], "coding_time_seconds": 49847, "coding_time_seconds_today": 0, "balance": "You need to have a pocket watcher badge to view this.", "badges": [], "created_at": "2025-06-17T05:05:34.777-04:00", "updated_at": "2025-07-03T21:55:15.663-04:00", "avatar": "https://secure.gravatar.com/avatar/103e8109d82aa548eff9fdc4000147ab.jpg?s=512&d=https%3A%2F%2Fa.slack-edge.com%2Fdf10d%2Fimg%2Favatars%2Fava_0011-512.png", "custom_css": null}, {"id": 5728, "slack_id": "U07F27PT8G6", "display_name": "TheTwoBoom", "bio": null, "projects_count": 2, "devlogs_count": 2, "votes_count": 7, "ships_count": 0, "projects": [{"id": 893, "title": "spielen.ist.gratis", "devlogs_count": 2, "created_at": "2025-06-17T10:36:19.356-04:00"}, {"id": 12073, "title": "HTL_auth", "devlogs_count": 0, "created_at": "2025-08-22T17:23:41.680-04:00"}], "coding_time_seconds": 383096, "coding_time_seconds_today": 0, "balance": "You need to have a pocket watcher badge to view this.", "badges": [], "created_at": "2025-06-17T05:06:12.871-04:00", "updated_at": "2025-08-12T05:05:32.148-04:00", "avatar": "https://secure.gravatar.com/avatar/b875edd40886773151feb84db1ffa1c0.jpg?s=512&d=https%3A%2F%2Fa.slack-edge.com%2Fdf10d%2Fimg%2Favatars%2Fava_0018-512.png", "custom_css": null}, {"id": 5729, "slack_id": "U091LDD6TUK", "display_name": "Savio Sebastian", "bio": null, "projects_count": 0, "devlogs_count": 0, "votes_count": 0, "ships_count": 0, "projects": [], "coding_time_seconds": 0, "coding_time_seconds_today": 0, "balance": "You need to have a pocket watcher badge to view this.", "badges": [], "created_at": "2025-06-17T05:06:13.871-04:00", "updated_at": "2025-07-03T19:37:12.559-04:00", "avatar": "https://secure.gravatar.com/avatar/73c660bbda2d8719666c8683df392294.jpg?s=512&d=https%3A%2F%2Fa.slack-edge.com%2Fdf10d%2Fimg%2Favatars%2Fava_0014-512.png", "custom_css": null}, {"id": 5730, "slack_id": "U091RFG0YG5", "display_name": "Mubashir AK", "bio": null, "projects_count": 0, "devlogs_count": 0, "votes_count": 0, "ships_count": 0, "projects": [], "coding_time_seconds": 0, "coding_time_seconds_today": 0, "balance": "You need to have a pocket watcher badge to view this.", "badges": [], "created_at": "2025-06-17T05:06:28.802-04:00", "updated_at": "2025-07-03T19:37:12.822-04:00", "avatar": "https://avatars.slack-edge.com/2025-06-17/9059539245445_c11c02286385bdd736a7_original.png", "custom_css": null}, {"id": 5731, "slack_id": "U079NMM70AJ", "display_name": "Samira", "bio": null, "projects_count": 2, "devlogs_count": 3, "votes_count": 0, "ships_count": 0, "projects": [{"id": 2064, "title": "Pick-A-Thought", "devlogs_count": 3, "created_at": "2025-06-20T03:28:10.677-04:00"}, {"id": 3549, "title": "Calculator", "devlogs_count": 0, "created_at": "2025-06-24T16:36:16.976-04:00"}], "coding_time_seconds": 4953, "coding_time_seconds_today": 0, "balance": "You need to have a pocket watcher badge to view this.", "badges": [], "created_at": "2025-06-17T05:06:43.422-04:00", "updated_at": "2025-07-03T19:37:13.095-04:00", "avatar": "https://secure.gravatar.com/avatar/36fd3b04390a79518784fba74450bf58.jpg?s=512&d=https%3A%2F%2Fa.slack-edge.com%2Fdf10d%2Fimg%2Favatars%2Fava_0002-512.png", "custom_css": null}, {"id": 5732, "slack_id": "U091BSET74P", "display_name": "Adarsh S", "bio": null, "projects_count": 0, "devlogs_count": 0, "votes_count": 0, "ships_count": 0, "projects": [], "coding_time_seconds": 0, "coding_time_seconds_today": 0, "balance": "You need to have a pocket watcher badge to view this.", "badges": [], "created_at": "2025-06-17T05:06:50.309-04:00", "updated_at": "2025-07-03T19:37:13.357-04:00", "avatar": "https://secure.gravatar.com/avatar/75d52051fbad941b4b1a9ce98791d589.jpg?s=512&d=https%3A%2F%2Fa.slack-edge.com%2Fdf10d%2Fimg%2Favatars%2Fava_0004-512.png", "custom_css": null}, {"id": 5733, "slack_id": "U091T8RMAD8", "display_name": "cookie", "bio": null, "projects_count": 0, "devlogs_count": 0, "votes_count": 0, "ships_count": 0, "projects": [], "coding_time_seconds": 0, "coding_time_seconds_today": 0, "balance": "You need to have a pocket watcher badge to view this.", "badges": [], "created_at": "2025-06-17T05:06:54.355-04:00", "updated_at": "2025-07-03T19:37:13.620-04:00", "avatar": "https://secure.gravatar.com/avatar/90f7c0bfa55edc51c6bfe9a527d6a2f1.jpg?s=512&d=https%3A%2F%2Fa.slack-edge.com%2Fdf10d%2Fimg%2Favatars%2Fava_0013-512.png", "custom_css": null}, {"id": 5734, "slack_id": "U091T8L7HPC", "display_name": "Utopek", "bio": null, "projects_count": 0, "devlogs_count": 0, "votes_count": 0, "ships_count": 0, "projects": [], "coding_time_seconds": 7099, "coding_time_seconds_today": 0, "balance": "You need to have a pocket watcher badge to view this.", "badges": [], "created_at": "2025-06-17T05:07:00.175-04:00", "updated_at": "2025-07-03T19:37:13.886-04:00", "avatar": "https://secure.gravatar.com/avatar/838afff9456cdf0e8ce5dbd0ef35cd8c.jpg?s=512&d=https%3A%2F%2Fa.slack-edge.com%2Fdf10d%2Fimg%2Favatars%2Fava_0023-512.png", "custom_css": null}, {"id": 5735, "slack_id": "U092FKBA0LQ", "display_name": "Ryan Palma", "bio": null, "projects_count": 1, "devlogs_count": 0, "votes_count": 0, "ships_count": 0, "projects": [{"id": 1453, "title": "HorusID", "devlogs_count": 0, "created_at": "2025-06-18T15:15:29.431-04:00"}], "coding_time_seconds": 811, "coding_time_seconds_today": 0, "balance": "You need to have a pocket watcher badge to view this.", "badges": [], "created_at": "2025-06-17T05:07:19.705-04:00", "updated_at": "2025-07-03T19:37:14.159-04:00", "avatar": "https://secure.gravatar.com/avatar/141fc1b50a044d4108d07706e937d97f.jpg?s=512&d=https%3A%2F%2Fa.slack-edge.com%2Fdf10d%2Fimg%2Favatars%2Fava_0018-512.png", "custom_css": null}, {"id": 5736, "slack_id": "U091BSHGV63", "display_name": "Avishek Jana", "bio": null, "projects_count": 0, "devlogs_count": 0, "votes_count": 0, "ships_count": 0, "projects": [], "coding_time_seconds": 0, "coding_time_seconds_today": 0, "balance": "You need to have a pocket watcher badge to view this.", "badges": [], "created_at": "2025-06-17T05:07:34.049-04:00", "updated_at": "2025-07-03T22:33:48.696-04:00", "avatar": "https://secure.gravatar.com/avatar/7bf59fa0db949bcf95a20307652da905.jpg?s=512&d=https%3A%2F%2Fa.slack-edge.com%2Fdf10d%2Fimg%2Favatars%2Fava_0024-512.png", "custom_css": null}, {"id": 5737, "slack_id": "U092FKF1MCG", "display_name": "buse", "bio": null, "projects_count": 1, "devlogs_count": 0, "votes_count": 0, "ships_count": 0, "projects": [{"id": 796, "title": "budget-flow", "devlogs_count": 0, "created_at": "2025-06-17T08:28:08.524-04:00"}], "coding_time_seconds": 660, "coding_time_seconds_today": 0, "balance": "You need to have a pocket watcher badge to view this.", "badges": [], "created_at": "2025-06-17T05:07:36.426-04:00", "updated_at": "2025-07-03T19:37:14.655-04:00", "avatar": "https://secure.gravatar.com/avatar/0565bb0644d83b62aaddde085b8f5efb.jpg?s=512&d=https%3A%2F%2Fa.slack-edge.com%2Fdf10d%2Fimg%2Favatars%2Fava_0020-512.png", "custom_css": null}, {"id": 5738, "slack_id": "U091RF9U10D", "display_name": "Klucznik", "bio": "", "projects_count": 0, "devlogs_count": 55, "votes_count": 113, "ships_count": 0, "projects": [], "coding_time_seconds": 1321188, "coding_time_seconds_today": 0, "balance": "You need to have a pocket watcher badge to view this.", "badges": [{"name": "Maiden Voyage", "text": "you shipped your first project! the journey begins...", "icon": "\ud83d\udea2"}, {"name": "Ballot Stuffer", "text": "vote 100 times.", "icon": "https://summer.hackclub.com/assets/i_voted-bf851b48.png"}], "created_at": "2025-06-17T05:07:48.105-04:00", "updated_at": "2025-09-20T15:05:05.920-04:00", "avatar": "https://avatars.slack-edge.com/2025-06-20/9073778688243_ad3b3a8bdc844e484bfb_original.jpg", "custom_css": null}, {"id": 5739, "slack_id": "U091RFLG4PP", "display_name": "boucetta", "bio": null, "projects_count": 0, "devlogs_count": 0, "votes_count": 0, "ships_count": 0, "projects": [], "coding_time_seconds": 0, "coding_time_seconds_today": 0, "balance": "You need to have a pocket watcher badge to view this.", "badges": [], "created_at": "2025-06-17T05:07:52.206-04:00", "updated_at": "2025-07-03T19:37:15.222-04:00", "avatar": "https://secure.gravatar.com/avatar/67728c1c707c486dcc07dc75159a593e.jpg?s=512&d=https%3A%2F%2Fa.slack-edge.com%2Fdf10d%2Fimg%2Favatars%2Fava_0003-512.png", "custom_css": null}, {"id": 5740, "slack_id": "U092FFHFZRN", "display_name": "Dt", "bio": null, "projects_count": 0, "devlogs_count": 0, "votes_count": 0, "ships_count": 0, "projects": [], "coding_time_seconds": 0, "coding_time_seconds_today": 0, "balance": "You need to have a pocket watcher badge to view this.", "badges": [], "created_at": "2025-06-17T05:07:54.116-04:00", "updated_at": "2025-07-03T19:37:15.486-04:00", "avatar": "https://secure.gravatar.com/avatar/45886eeb24ec02844570a312c61e039b.jpg?s=512&d=https%3A%2F%2Fa.slack-edge.com%2Fdf10d%2Fimg%2Favatars%2Fava_0011-512.png", "custom_css": null}], "pagination": {"page": 287, "pages": 1192, "count": 23828, "items": 20}}