{"users": [{"id": 5741, "slack_id": "U092FKPH6U8", "display_name": "Muhammad UI", "bio": null, "projects_count": 0, "devlogs_count": 0, "votes_count": 0, "ships_count": 0, "projects": [], "coding_time_seconds": 177626, "coding_time_seconds_today": 0, "balance": "You need to have a pocket watcher badge to view this.", "badges": [], "created_at": "2025-06-17T05:09:13.085-04:00", "updated_at": "2025-07-03T19:37:15.745-04:00", "avatar": "https://secure.gravatar.com/avatar/775e68e7c4b59e67f0751a33f8398907.jpg?s=512&d=https%3A%2F%2Fa.slack-edge.com%2Fdf10d%2Fimg%2Favatars%2Fava_0005-512.png", "custom_css": null}, {"id": 5742, "slack_id": "U091T7GTRPU", "display_name": "Saksham Singh Rathore", "bio": null, "projects_count": 4, "devlogs_count": 3, "votes_count": 0, "ships_count": 3, "projects": [{"id": 4652, "title": "EchoBrain AI Powered Second Brain", "devlogs_count": 0, "created_at": "2025-07-01T01:19:43.166-04:00"}, {"id": 8822, "title": "AskMyPDF - AI-Powered PDF Chat Application", "devlogs_count": 1, "created_at": "2025-07-29T11:31:26.681-04:00"}, {"id": 8821, "title": "AskMyPDF - AI-Powered PDF Chat Application", "devlogs_count": 1, "created_at": "2025-07-29T11:31:26.133-04:00"}, {"id": 4654, "title": "Refactora AI", "devlogs_count": 1, "created_at": "2025-07-01T01:22:58.399-04:00"}], "coding_time_seconds": 204367, "coding_time_seconds_today": 0, "balance": "You need to have a pocket watcher badge to view this.", "badges": [{"name": "Maiden Voyage", "text": "you shipped your first project! the journey begins...", "icon": "\ud83d\udea2"}], "created_at": "2025-06-17T05:09:14.133-04:00", "updated_at": "2025-09-10T22:54:01.829-04:00", "avatar": "https://avatars.slack-edge.com/2025-06-17/9061654625364_64020f007f9809de5385_original.png", "custom_css": null}, {"id": 5743, "slack_id": "U092FGAEUF2", "display_name": "Aashif Sajah", "bio": null, "projects_count": 0, "devlogs_count": 0, "votes_count": 0, "ships_count": 0, "projects": [], "coding_time_seconds": 128, "coding_time_seconds_today": 0, "balance": "You need to have a pocket watcher badge to view this.", "badges": [], "created_at": "2025-06-17T05:09:19.215-04:00", "updated_at": "2025-07-05T20:06:50.968-04:00", "avatar": "https://avatars.slack-edge.com/2025-06-17/9046178412599_83ee2ef5cab816918136_original.jpg", "custom_css": null}, {"id": 5744, "slack_id": "U0925R4BV8R", "display_name": "NAVYAMOL K T", "bio": null, "projects_count": 0, "devlogs_count": 0, "votes_count": 0, "ships_count": 0, "projects": [], "coding_time_seconds": 0, "coding_time_seconds_today": 0, "balance": "You need to have a pocket watcher badge to view this.", "badges": [], "created_at": "2025-06-17T05:09:52.040-04:00", "updated_at": "2025-07-03T19:37:16.428-04:00", "avatar": "https://secure.gravatar.com/avatar/39ef9a129252ac31045293a6f77841b3.jpg?s=512&d=https%3A%2F%2Fa.slack-edge.com%2Fdf10d%2Fimg%2Favatars%2Fava_0025-512.png", "custom_css": null}, {"id": 5745, "slack_id": "U091LJ52DPY", "display_name": "Aparna Srivastava", "bio": null, "projects_count": 0, "devlogs_count": 0, "votes_count": 0, "ships_count": 0, "projects": [], "coding_time_seconds": 0, "coding_time_seconds_today": 0, "balance": "You need to have a pocket watcher badge to view this.", "badges": [], "created_at": "2025-06-17T05:10:13.373-04:00", "updated_at": "2025-07-03T19:37:16.706-04:00", "avatar": "https://secure.gravatar.com/avatar/79ad68b8fca4714a740d032755cdd0c1.jpg?s=512&d=https%3A%2F%2Fa.slack-edge.com%2Fdf10d%2Fimg%2Favatars%2Fava_0004-512.png", "custom_css": null}, {"id": 5746, "slack_id": "U091LHLSE6A", "display_name": "Logeshwaran V", "bio": null, "projects_count": 0, "devlogs_count": 0, "votes_count": 0, "ships_count": 0, "projects": [], "coding_time_seconds": 0, "coding_time_seconds_today": 0, "balance": "You need to have a pocket watcher badge to view this.", "badges": [], "created_at": "2025-06-17T05:10:21.593-04:00", "updated_at": "2025-07-03T19:37:16.978-04:00", "avatar": "https://secure.gravatar.com/avatar/874819fbc239230d4495f4288c44e50e.jpg?s=512&d=https%3A%2F%2Fa.slack-edge.com%2Fdf10d%2Fimg%2Favatars%2Fava_0005-512.png", "custom_css": null}, {"id": 5747, "slack_id": "U053D3U52G3", "display_name": "Shrit1401", "bio": null, "projects_count": 1, "devlogs_count": 4, "votes_count": 0, "ships_count": 0, "projects": [{"id": 685, "title": "Rusty Assistant", "devlogs_count": 4, "created_at": "2025-06-17T05:19:12.984-04:00"}], "coding_time_seconds": 178746, "coding_time_seconds_today": 0, "balance": "You need to have a pocket watcher badge to view this.", "badges": [], "created_at": "2025-06-17T05:10:39.308-04:00", "updated_at": "2025-07-03T19:37:17.243-04:00", "avatar": "https://avatars.slack-edge.com/2023-04-16/5110007799190_b5e285367be926e57751_original.jpg", "custom_css": null}, {"id": 5748, "slack_id": "U091LDY2PEX", "display_name": "Ashlin Darius Govindasamy", "bio": null, "projects_count": 0, "devlogs_count": 0, "votes_count": 0, "ships_count": 0, "projects": [], "coding_time_seconds": 128906, "coding_time_seconds_today": 480, "balance": "You need to have a pocket watcher badge to view this.", "badges": [], "created_at": "2025-06-17T05:10:48.376-04:00", "updated_at": "2025-07-03T19:37:17.509-04:00", "avatar": "https://secure.gravatar.com/avatar/0c614ba04b1866421a374e307606b0ab.jpg?s=512&d=https%3A%2F%2Fa.slack-edge.com%2Fdf10d%2Fimg%2Favatars%2Fava_0004-512.png", "custom_css": null}, {"id": 5749, "slack_id": "U091LJ19UBG", "display_name": "etou", "bio": null, "projects_count": 0, "devlogs_count": 0, "votes_count": 0, "ships_count": 0, "projects": [], "coding_time_seconds": 0, "coding_time_seconds_today": 0, "balance": "You need to have a pocket watcher badge to view this.", "badges": [], "created_at": "2025-06-17T05:10:54.065-04:00", "updated_at": "2025-07-03T19:37:17.780-04:00", "avatar": "https://secure.gravatar.com/avatar/e4bc3265ff3f352a49c5ec192c41774d.jpg?s=512&d=https%3A%2F%2Fa.slack-edge.com%2Fdf10d%2Fimg%2Favatars%2Fava_0022-512.png", "custom_css": null}, {"id": 5750, "slack_id": "U091T92F2BU", "display_name": "Angel", "bio": null, "projects_count": 0, "devlogs_count": 0, "votes_count": 0, "ships_count": 0, "projects": [], "coding_time_seconds": 0, "coding_time_seconds_today": 0, "balance": "You need to have a pocket watcher badge to view this.", "badges": [], "created_at": "2025-06-17T05:10:56.524-04:00", "updated_at": "2025-07-03T19:37:18.054-04:00", "avatar": "https://secure.gravatar.com/avatar/b983fe335a0f2e3b4d17c100ddb8fbcd.jpg?s=512&d=https%3A%2F%2Fa.slack-edge.com%2Fdf10d%2Fimg%2Favatars%2Fava_0023-512.png", "custom_css": null}, {"id": 5751, "slack_id": "U092FHHN4GG", "display_name": "G-5", "bio": null, "projects_count": 0, "devlogs_count": 0, "votes_count": 0, "ships_count": 0, "projects": [], "coding_time_seconds": 21726, "coding_time_seconds_today": 0, "balance": "You need to have a pocket watcher badge to view this.", "badges": [], "created_at": "2025-06-17T05:11:03.268-04:00", "updated_at": "2025-07-03T19:37:18.319-04:00", "avatar": "https://avatars.slack-edge.com/2025-06-17/9084104057584_1c21487f426db5fd634b_original.jpg", "custom_css": null}, {"id": 5752, "slack_id": "U091LDZU1EX", "display_name": "MOHAMMED IZHAAR UL HAQ", "bio": null, "projects_count": 0, "devlogs_count": 0, "votes_count": 0, "ships_count": 0, "projects": [], "coding_time_seconds": 0, "coding_time_seconds_today": 0, "balance": "You need to have a pocket watcher badge to view this.", "badges": [], "created_at": "2025-06-17T05:11:10.051-04:00", "updated_at": "2025-07-03T19:37:18.597-04:00", "avatar": "https://avatars.slack-edge.com/2025-06-17/9054627824070_93cbfc8f85a355916d3f_original.jpg", "custom_css": null}, {"id": 5753, "slack_id": "U085L83S3P1", "display_name": "emmaculate-X", "bio": null, "projects_count": 0, "devlogs_count": 0, "votes_count": 0, "ships_count": 0, "projects": [], "coding_time_seconds": 141796, "coding_time_seconds_today": 0, "balance": "You need to have a pocket watcher badge to view this.", "badges": [], "created_at": "2025-06-17T05:11:10.660-04:00", "updated_at": "2025-07-03T19:37:18.866-04:00", "avatar": "https://avatars.slack-edge.com/2024-12-22/8203897345670_642baf5afbb3d780e7fe_original.jpg", "custom_css": null}, {"id": 5754, "slack_id": "U092FKXDBSL", "display_name": "0x262d", "bio": null, "projects_count": 0, "devlogs_count": 0, "votes_count": 0, "ships_count": 0, "projects": [], "coding_time_seconds": 277410, "coding_time_seconds_today": 0, "balance": "You need to have a pocket watcher badge to view this.", "badges": [], "created_at": "2025-06-17T05:11:12.171-04:00", "updated_at": "2025-07-03T19:37:19.132-04:00", "avatar": "https://secure.gravatar.com/avatar/28c3e4372686651aa958a30b672b2b8a.jpg?s=512&d=https%3A%2F%2Fa.slack-edge.com%2Fdf10d%2Fimg%2Favatars%2Fava_0007-512.png", "custom_css": null}, {"id": 5755, "slack_id": "U07LJ6955UL", "display_name": "Andy", "bio": null, "projects_count": 0, "devlogs_count": 0, "votes_count": 0, "ships_count": 0, "projects": [], "coding_time_seconds": 6105, "coding_time_seconds_today": 0, "balance": "You need to have a pocket watcher badge to view this.", "badges": [], "created_at": "2025-06-17T05:11:18.688-04:00", "updated_at": "2025-09-17T00:17:17.198-04:00", "avatar": "https://avatars.slack-edge.com/2024-09-08/7698216042708_6f149b193e500925ea71_original.jpg", "custom_css": null}, {"id": 5756, "slack_id": "U091RG817PF", "display_name": "E.", "bio": null, "projects_count": 3, "devlogs_count": 1, "votes_count": 11, "ships_count": 1, "projects": [{"id": 689, "title": "ETH Global Hackathon Cannes", "devlogs_count": 0, "created_at": "2025-06-17T05:27:20.935-04:00"}, {"id": 2092, "title": "Studying Verilog and RISC-V assembly! ", "devlogs_count": 0, "created_at": "2025-06-20T05:45:20.784-04:00"}, {"id": 5698, "title": "protect.it - insurance powered by prediction markets", "devlogs_count": 1, "created_at": "2025-07-07T08:22:10.748-04:00"}], "coding_time_seconds": 71618, "coding_time_seconds_today": 0, "balance": "You need to have a pocket watcher badge to view this.", "badges": [{"name": "Maiden Voyage", "text": "you shipped your first project! the journey begins...", "icon": "\ud83d\udea2"}], "created_at": "2025-06-17T05:11:38.263-04:00", "updated_at": "2025-09-10T22:54:02.178-04:00", "avatar": "https://secure.gravatar.com/avatar/bfcc47945529bfffc84836275ac45841.jpg?s=512&d=https%3A%2F%2Fa.slack-edge.com%2Fdf10d%2Fimg%2Favatars%2Fava_0001-512.png", "custom_css": null}, {"id": 5757, "slack_id": "U091LJ7D538", "display_name": "Hugo Gresse", "bio": null, "projects_count": 0, "devlogs_count": 0, "votes_count": 0, "ships_count": 0, "projects": [], "coding_time_seconds": 0, "coding_time_seconds_today": 0, "balance": "You need to have a pocket watcher badge to view this.", "badges": [], "created_at": "2025-06-17T05:12:10.240-04:00", "updated_at": "2025-07-03T19:37:19.939-04:00", "avatar": "https://secure.gravatar.com/avatar/9f9cf7ea6e5c50a9c05c631a2fe3ae18.jpg?s=512&d=https%3A%2F%2Fa.slack-edge.com%2Fdf10d%2Fimg%2Favatars%2Fava_0017-512.png", "custom_css": null}, {"id": 5758, "slack_id": "U091LE9TTR9", "display_name": "Grace Cheuk", "bio": null, "projects_count": 0, "devlogs_count": 0, "votes_count": 0, "ships_count": 0, "projects": [], "coding_time_seconds": 0, "coding_time_seconds_today": 0, "balance": "You need to have a pocket watcher badge to view this.", "badges": [], "created_at": "2025-06-17T05:12:25.946-04:00", "updated_at": "2025-07-03T19:37:20.214-04:00", "avatar": "https://secure.gravatar.com/avatar/2426645cfef6230aa02584ee50a17fea.jpg?s=512&d=https%3A%2F%2Fa.slack-edge.com%2Fdf10d%2Fimg%2Favatars%2Fava_0022-512.png", "custom_css": null}, {"id": 5759, "slack_id": "U091BTB4TJB", "display_name": "Sarvesh", "bio": null, "projects_count": 0, "devlogs_count": 0, "votes_count": 0, "ships_count": 0, "projects": [], "coding_time_seconds": 0, "coding_time_seconds_today": 0, "balance": "You need to have a pocket watcher badge to view this.", "badges": [], "created_at": "2025-06-17T05:12:54.141-04:00", "updated_at": "2025-07-03T19:37:20.477-04:00", "avatar": "https://secure.gravatar.com/avatar/f26b8c9c919806ac108ced7656243bad.jpg?s=512&d=https%3A%2F%2Fa.slack-edge.com%2Fdf10d%2Fimg%2Favatars%2Fava_0003-512.png", "custom_css": null}, {"id": 5760, "slack_id": "U091T8QEJ1Y", "display_name": "Muhammad Asad", "bio": null, "projects_count": 0, "devlogs_count": 0, "votes_count": 0, "ships_count": 0, "projects": [], "coding_time_seconds": 0, "coding_time_seconds_today": 0, "balance": "You need to have a pocket watcher badge to view this.", "badges": [], "created_at": "2025-06-17T05:13:04.591-04:00", "updated_at": "2025-07-03T19:37:20.751-04:00", "avatar": "https://secure.gravatar.com/avatar/ac84f55a38c3194635c3422c62af595b.jpg?s=512&d=https%3A%2F%2Fa.slack-edge.com%2Fdf10d%2Fimg%2Favatars%2Fava_0020-512.png", "custom_css": null}], "pagination": {"page": 288, "pages": 1192, "count": 23828, "items": 20}}