{"users": [{"id": 5761, "slack_id": "U091T9D0KU2", "display_name": "Steve Musyoka", "bio": null, "projects_count": 0, "devlogs_count": 0, "votes_count": 0, "ships_count": 0, "projects": [], "coding_time_seconds": 209978, "coding_time_seconds_today": 0, "balance": "You need to have a pocket watcher badge to view this.", "badges": [], "created_at": "2025-06-17T05:13:37.221-04:00", "updated_at": "2025-07-03T21:55:17.989-04:00", "avatar": "https://avatars.slack-edge.com/2025-06-17/9083707258688_f35371cdb9f965f534e0_original.jpg", "custom_css": null}, {"id": 5762, "slack_id": "U0925RUFJJD", "display_name": "Bomber Playz", "bio": null, "projects_count": 3, "devlogs_count": 3, "votes_count": 1, "ships_count": 0, "projects": [{"id": 694, "title": "BuzzyComputers", "devlogs_count": 1, "created_at": "2025-06-17T05:35:02.967-04:00"}, {"id": 2665, "title": "SpookyMod", "devlogs_count": 0, "created_at": "2025-06-21T15:45:57.220-04:00"}, {"id": 4350, "title": "CipherLab", "devlogs_count": 2, "created_at": "2025-06-29T09:02:56.470-04:00"}], "coding_time_seconds": 179742, "coding_time_seconds_today": 0, "balance": "You need to have a pocket watcher badge to view this.", "badges": [], "created_at": "2025-06-17T05:14:18.443-04:00", "updated_at": "2025-08-24T09:59:17.825-04:00", "avatar": "https://avatars.slack-edge.com/2025-06-17/9073892985377_8354be2c242328a7773c_original.jpg", "custom_css": null}, {"id": 5763, "slack_id": "U07CCC3BS59", "display_name": "Mathias", "bio": null, "projects_count": 0, "devlogs_count": 0, "votes_count": 1, "ships_count": 0, "projects": [], "coding_time_seconds": 9398, "coding_time_seconds_today": 0, "balance": "You need to have a pocket watcher badge to view this.", "badges": [], "created_at": "2025-06-17T05:14:32.375-04:00", "updated_at": "2025-07-03T19:37:21.487-04:00", "avatar": "https://secure.gravatar.com/avatar/d1a176493f793c0fdd0af59df612cf6c.jpg?s=512&d=https%3A%2F%2Fa.slack-edge.com%2Fdf10d%2Fimg%2Favatars%2Fava_0012-512.png", "custom_css": null}, {"id": 5764, "slack_id": "U092FKWC5QQ", "display_name": "radha", "bio": null, "projects_count": 0, "devlogs_count": 0, "votes_count": 0, "ships_count": 0, "projects": [], "coding_time_seconds": 114697, "coding_time_seconds_today": 0, "balance": "You need to have a pocket watcher badge to view this.", "badges": [], "created_at": "2025-06-17T05:15:10.385-04:00", "updated_at": "2025-07-03T19:37:21.760-04:00", "avatar": "https://secure.gravatar.com/avatar/e671ce3d3619e31f4235f511e6dcf343.jpg?s=512&d=https%3A%2F%2Fa.slack-edge.com%2Fdf10d%2Fimg%2Favatars%2Fava_0011-512.png", "custom_css": null}, {"id": 5765, "slack_id": "U0925RXUYSV", "display_name": "Garikina Karthik", "bio": null, "projects_count": 0, "devlogs_count": 0, "votes_count": 0, "ships_count": 0, "projects": [], "coding_time_seconds": 0, "coding_time_seconds_today": 0, "balance": "You need to have a pocket watcher badge to view this.", "badges": [], "created_at": "2025-06-17T05:15:41.221-04:00", "updated_at": "2025-07-03T19:37:22.029-04:00", "avatar": "https://secure.gravatar.com/avatar/103aff5ce2d9c8a3585db6d9078676c9.jpg?s=512&d=https%3A%2F%2Fa.slack-edge.com%2Fdf10d%2Fimg%2Favatars%2Fava_0007-512.png", "custom_css": null}, {"id": 5766, "slack_id": "U091R23GWNR", "display_name": "k11e3r", "bio": null, "projects_count": 0, "devlogs_count": 0, "votes_count": 0, "ships_count": 0, "projects": [], "coding_time_seconds": 0, "coding_time_seconds_today": 0, "balance": "You need to have a pocket watcher badge to view this.", "badges": [], "created_at": "2025-06-17T05:15:52.592-04:00", "updated_at": "2025-07-03T21:55:18.371-04:00", "avatar": "https://secure.gravatar.com/avatar/f9c65c7866763966e7d102dd5adff13b.jpg?s=512&d=https%3A%2F%2Fa.slack-edge.com%2Fdf10d%2Fimg%2Favatars%2Fava_0024-512.png", "custom_css": null}, {"id": 5767, "slack_id": "U091LEQ1TR9", "display_name": "Abhinav J", "bio": null, "projects_count": 0, "devlogs_count": 0, "votes_count": 0, "ships_count": 0, "projects": [], "coding_time_seconds": 0, "coding_time_seconds_today": 0, "balance": "You need to have a pocket watcher badge to view this.", "badges": [], "created_at": "2025-06-17T05:16:04.394-04:00", "updated_at": "2025-07-03T19:37:22.439-04:00", "avatar": "https://avatars.slack-edge.com/2025-06-17/9054653891670_c55911c1b83c206f31c5_original.jpg", "custom_css": null}, {"id": 5768, "slack_id": "U091LDVN491", "display_name": "Siphelele", "bio": null, "projects_count": 2, "devlogs_count": 0, "votes_count": 0, "ships_count": 0, "projects": [{"id": 751, "title": "HouseMusicKitchen", "devlogs_count": 0, "created_at": "2025-06-17T07:16:02.444-04:00"}, {"id": 757, "title": "Environmental Health", "devlogs_count": 0, "created_at": "2025-06-17T07:26:45.447-04:00"}], "coding_time_seconds": 318560, "coding_time_seconds_today": 0, "balance": "You need to have a pocket watcher badge to view this.", "badges": [], "created_at": "2025-06-17T05:16:17.508-04:00", "updated_at": "2025-07-10T17:03:21.025-04:00", "avatar": "https://avatars.slack-edge.com/2025-06-17/9083921102144_daf31bad01921edc1782_original.png", "custom_css": null}, {"id": 5769, "slack_id": "U0925S6KGTT", "display_name": "Subhash Pavuskar", "bio": null, "projects_count": 0, "devlogs_count": 0, "votes_count": 0, "ships_count": 0, "projects": [], "coding_time_seconds": 0, "coding_time_seconds_today": 0, "balance": "You need to have a pocket watcher badge to view this.", "badges": [], "created_at": "2025-06-17T05:16:24.952-04:00", "updated_at": "2025-07-03T19:37:22.837-04:00", "avatar": "https://avatars.slack-edge.com/2025-06-17/9059589264213_be9ea30f443e7aef8fa7_original.jpg", "custom_css": null}, {"id": 5770, "slack_id": "U091LEWDDJ7", "display_name": "Nihar", "bio": null, "projects_count": 1, "devlogs_count": 2, "votes_count": 4, "ships_count": 0, "projects": [{"id": 3115, "title": "Website automation", "devlogs_count": 2, "created_at": "2025-06-23T06:13:30.865-04:00"}], "coding_time_seconds": 59514, "coding_time_seconds_today": 0, "balance": "You need to have a pocket watcher badge to view this.", "badges": [], "created_at": "2025-06-17T05:16:39.784-04:00", "updated_at": "2025-07-04T02:24:52.381-04:00", "avatar": "https://secure.gravatar.com/avatar/0d0f9e7ae4ed9935f8dca8c8427a8d15.jpg?s=512&d=https%3A%2F%2Fa.slack-edge.com%2Fdf10d%2Fimg%2Favatars%2Fava_0021-512.png", "custom_css": null}, {"id": 5771, "slack_id": "U0924LW25JM", "display_name": "SMITH C CSE", "bio": null, "projects_count": 0, "devlogs_count": 0, "votes_count": 0, "ships_count": 0, "projects": [], "coding_time_seconds": 0, "coding_time_seconds_today": 0, "balance": "You need to have a pocket watcher badge to view this.", "badges": [], "created_at": "2025-06-17T05:16:52.200-04:00", "updated_at": "2025-07-03T19:37:23.240-04:00", "avatar": "https://avatars.slack-edge.com/2025-06-17/9059591151013_281ebe91c3d6e444319e_original.png", "custom_css": null}, {"id": 5772, "slack_id": "U091BTYDHN3", "display_name": "michael", "bio": null, "projects_count": 0, "devlogs_count": 0, "votes_count": 0, "ships_count": 0, "projects": [], "coding_time_seconds": 0, "coding_time_seconds_today": 0, "balance": "You need to have a pocket watcher badge to view this.", "badges": [], "created_at": "2025-06-17T05:17:00.013-04:00", "updated_at": "2025-07-04T02:24:52.543-04:00", "avatar": "https://secure.gravatar.com/avatar/7e4e70a8b646b294a5b8b16f3967e49f.jpg?s=512&d=https%3A%2F%2Fa.slack-edge.com%2Fdf10d%2Fimg%2Favatars%2Fava_0022-512.png", "custom_css": null}, {"id": 5773, "slack_id": "U092FLV2WQ0", "display_name": "Random Techy", "bio": null, "projects_count": 0, "devlogs_count": 0, "votes_count": 0, "ships_count": 0, "projects": [], "coding_time_seconds": 0, "coding_time_seconds_today": 0, "balance": "You need to have a pocket watcher badge to view this.", "badges": [], "created_at": "2025-06-17T05:17:09.994-04:00", "updated_at": "2025-07-03T19:37:23.948-04:00", "avatar": "https://avatars.slack-edge.com/2025-06-17/9083723966224_4e79c63f74695af18890_original.png", "custom_css": null}, {"id": 5774, "slack_id": "U091TL3ABBN", "display_name": "Mukul Rana", "bio": null, "projects_count": 0, "devlogs_count": 0, "votes_count": 0, "ships_count": 0, "projects": [], "coding_time_seconds": 0, "coding_time_seconds_today": 0, "balance": "You need to have a pocket watcher badge to view this.", "badges": [], "created_at": "2025-06-17T05:17:19.663-04:00", "updated_at": "2025-07-03T19:37:24.224-04:00", "avatar": "https://secure.gravatar.com/avatar/5a8e1f861586d241b9c1c37f40a4c624.jpg?s=512&d=https%3A%2F%2Fa.slack-edge.com%2Fdf10d%2Fimg%2Favatars%2Fava_0018-512.png", "custom_css": null}, {"id": 5775, "slack_id": "U091LEX15PV", "display_name": "Finley Mwachia", "bio": null, "projects_count": 0, "devlogs_count": 0, "votes_count": 0, "ships_count": 0, "projects": [], "coding_time_seconds": 31166, "coding_time_seconds_today": 0, "balance": "You need to have a pocket watcher badge to view this.", "badges": [], "created_at": "2025-06-17T05:18:17.452-04:00", "updated_at": "2025-07-03T19:37:24.497-04:00", "avatar": "https://secure.gravatar.com/avatar/db0cca9a64c16860297f587e5314d0ae.jpg?s=512&d=https%3A%2F%2Fa.slack-edge.com%2Fdf10d%2Fimg%2Favatars%2Fava_0013-512.png", "custom_css": null}, {"id": 5776, "slack_id": "U079MU5B5R6", "display_name": "Somebud", "bio": "SwiftUI 4 Life, also known as, I don't know anything else other than GDScript I guess. 17 by age, !?@$ by heart. Silly by design.", "projects_count": 2, "devlogs_count": 71, "votes_count": 51, "ships_count": 2, "projects": [{"id": 11850, "title": "TrackCount", "devlogs_count": 18, "created_at": "2025-08-20T09:41:31.023-04:00"}, {"id": 5035, "title": "rInventory", "devlogs_count": 53, "created_at": "2025-07-02T20:36:55.682-04:00"}], "coding_time_seconds": 640854, "coding_time_seconds_today": 3956, "balance": "You need to have a pocket watcher badge to view this.", "badges": [{"name": "Maiden Voyage", "text": "you shipped your first project! the journey begins...", "icon": "\ud83d\udea2"}], "created_at": "2025-06-17T05:19:03.090-04:00", "updated_at": "2025-09-18T14:40:49.658-04:00", "avatar": "https://avatars.slack-edge.com/2025-09-14/9514754500146_6a5b377b04ccddc2cf0e_original.png", "custom_css": null}, {"id": 5777, "slack_id": "U089BJPJ95E", "display_name": "Ethan Smith", "bio": null, "projects_count": 1, "devlogs_count": 9, "votes_count": 8, "ships_count": 1, "projects": [{"id": 2782, "title": "HCR2 Website", "devlogs_count": 9, "created_at": "2025-06-22T04:18:31.685-04:00"}], "coding_time_seconds": 234960, "coding_time_seconds_today": 0, "balance": "You need to have a pocket watcher badge to view this.", "badges": [{"name": "Maiden Voyage", "text": "you shipped your first project! the journey begins...", "icon": "\ud83d\udea2"}], "created_at": "2025-06-17T05:19:13.201-04:00", "updated_at": "2025-09-23T01:24:05.224-04:00", "avatar": "https://avatars.slack-edge.com/2025-01-14/8294829625906_e543fffab3d7115257e2_original.png", "custom_css": null}, {"id": 5778, "slack_id": "U0925N07865", "display_name": "tui_2019", "bio": null, "projects_count": 0, "devlogs_count": 0, "votes_count": 0, "ships_count": 0, "projects": [], "coding_time_seconds": 0, "coding_time_seconds_today": 0, "balance": "You need to have a pocket watcher badge to view this.", "badges": [], "created_at": "2025-06-17T05:20:04.121-04:00", "updated_at": "2025-07-03T19:37:25.291-04:00", "avatar": "https://secure.gravatar.com/avatar/21235a5a73c86e29be472287ebc54850.jpg?s=512&d=https%3A%2F%2Fa.slack-edge.com%2Fdf10d%2Fimg%2Favatars%2Fava_0023-512.png", "custom_css": null}, {"id": 5779, "slack_id": "U091BTM382K", "display_name": "Chinedu Okpala", "bio": null, "projects_count": 0, "devlogs_count": 0, "votes_count": 0, "ships_count": 0, "projects": [], "coding_time_seconds": 0, "coding_time_seconds_today": 0, "balance": "You need to have a pocket watcher badge to view this.", "badges": [], "created_at": "2025-06-17T05:21:06.603-04:00", "updated_at": "2025-07-03T19:37:25.557-04:00", "avatar": "https://secure.gravatar.com/avatar/62fc512b588d33e363b3613dd30fad80.jpg?s=512&d=https%3A%2F%2Fa.slack-edge.com%2Fdf10d%2Fimg%2Favatars%2Fava_0008-512.png", "custom_css": null}, {"id": 5780, "slack_id": "U091BUHN23H", "display_name": "Siva Teja", "bio": null, "projects_count": 0, "devlogs_count": 0, "votes_count": 0, "ships_count": 0, "projects": [], "coding_time_seconds": 234, "coding_time_seconds_today": 0, "balance": "You need to have a pocket watcher badge to view this.", "badges": [], "created_at": "2025-06-17T05:21:16.467-04:00", "updated_at": "2025-07-03T19:37:25.819-04:00", "avatar": "https://avatars.slack-edge.com/2025-06-17/9083743371040_9d79ee00564d850fd49f_original.jpg", "custom_css": null}], "pagination": {"page": 289, "pages": 1192, "count": 23828, "items": 20}}