{"users": [{"id": 561, "slack_id": "U092BHA1U9E", "display_name": "Th\u00e9o", "bio": null, "projects_count": 0, "devlogs_count": 0, "votes_count": 0, "ships_count": 0, "projects": [], "coding_time_seconds": 236022, "coding_time_seconds_today": 0, "balance": "You need to have a pocket watcher badge to view this.", "badges": [], "created_at": "2025-06-16T11:59:13.940-04:00", "updated_at": "2025-07-03T19:13:32.921-04:00", "avatar": "https://secure.gravatar.com/avatar/c2a8a3dc9db20c0d7db95deea987fae9.jpg?s=512&d=https%3A%2F%2Fa.slack-edge.com%2Fdf10d%2Fimg%2Favatars%2Fava_0004-512.png", "custom_css": null}, {"id": 562, "slack_id": "U092BHE0XS4", "display_name": "Abhishek", "bio": null, "projects_count": 0, "devlogs_count": 0, "votes_count": 0, "ships_count": 0, "projects": [], "coding_time_seconds": 0, "coding_time_seconds_today": 0, "balance": "You need to have a pocket watcher badge to view this.", "badges": [], "created_at": "2025-06-16T11:59:14.471-04:00", "updated_at": "2025-07-03T19:13:33.211-04:00", "avatar": "https://secure.gravatar.com/avatar/9111f512bc684200c61f61aaf4bac78a.jpg?s=512&d=https%3A%2F%2Fa.slack-edge.com%2Fdf10d%2Fimg%2Favatars%2Fava_0001-512.png", "custom_css": null}, {"id": 563, "slack_id": "U091P3EUNUS", "display_name": "Mohamed Abdallah", "bio": null, "projects_count": 0, "devlogs_count": 0, "votes_count": 0, "ships_count": 0, "projects": [], "coding_time_seconds": 0, "coding_time_seconds_today": 0, "balance": "You need to have a pocket watcher badge to view this.", "badges": [], "created_at": "2025-06-16T11:59:18.084-04:00", "updated_at": "2025-07-03T19:13:33.488-04:00", "avatar": "https://secure.gravatar.com/avatar/f0355a0135122d3d76808525ee4c8c42.jpg?s=512&d=https%3A%2F%2Fa.slack-edge.com%2Fdf10d%2Fimg%2Favatars%2Fava_0008-512.png", "custom_css": null}, {"id": 564, "slack_id": "U0917PZKSCF", "display_name": "liuhanxu", "bio": null, "projects_count": 0, "devlogs_count": 0, "votes_count": 0, "ships_count": 0, "projects": [], "coding_time_seconds": 0, "coding_time_seconds_today": 0, "balance": "You need to have a pocket watcher badge to view this.", "badges": [], "created_at": "2025-06-16T11:59:19.908-04:00", "updated_at": "2025-07-03T19:13:33.888-04:00", "avatar": "https://secure.gravatar.com/avatar/979e28bb9946fa5fe0fbd63a5379d532.jpg?s=512&d=https%3A%2F%2Fa.slack-edge.com%2Fdf10d%2Fimg%2Favatars%2Fava_0015-512.png", "custom_css": null}, {"id": 565, "slack_id": "U091P3G5A02", "display_name": "Yuri", "bio": null, "projects_count": 0, "devlogs_count": 0, "votes_count": 0, "ships_count": 0, "projects": [], "coding_time_seconds": 0, "coding_time_seconds_today": 0, "balance": "You need to have a pocket watcher badge to view this.", "badges": [], "created_at": "2025-06-16T11:59:22.450-04:00", "updated_at": "2025-07-03T19:13:34.157-04:00", "avatar": "https://secure.gravatar.com/avatar/706c3445560aaeda044af073f3afb022.jpg?s=512&d=https%3A%2F%2Fa.slack-edge.com%2Fdf10d%2Fimg%2Favatars%2Fava_0020-512.png", "custom_css": null}, {"id": 566, "slack_id": "U091MA72PC5", "display_name": "Lucas Ribeiro", "bio": null, "projects_count": 0, "devlogs_count": 0, "votes_count": 0, "ships_count": 0, "projects": [], "coding_time_seconds": 0, "coding_time_seconds_today": 0, "balance": "You need to have a pocket watcher badge to view this.", "badges": [], "created_at": "2025-06-16T11:59:28.620-04:00", "updated_at": "2025-07-03T19:13:34.432-04:00", "avatar": "https://secure.gravatar.com/avatar/295dea9c49698398810c68a03c9fb17d.jpg?s=512&d=https%3A%2F%2Fa.slack-edge.com%2Fdf10d%2Fimg%2Favatars%2Fava_0018-512.png", "custom_css": null}, {"id": 567, "slack_id": "U092BHVSSQ0", "display_name": "Emil De\u00dfloch", "bio": null, "projects_count": 0, "devlogs_count": 0, "votes_count": 0, "ships_count": 0, "projects": [], "coding_time_seconds": 131856, "coding_time_seconds_today": 0, "balance": "You need to have a pocket watcher badge to view this.", "badges": [], "created_at": "2025-06-16T11:59:30.208-04:00", "updated_at": "2025-07-03T19:13:34.699-04:00", "avatar": "https://avatars.slack-edge.com/2025-06-16/9050167403491_56b281b1b1f1d42fb28a_original.jpg", "custom_css": null}, {"id": 568, "slack_id": "U092BHQNMFA", "display_name": "Yashvi Shah", "bio": null, "projects_count": 0, "devlogs_count": 0, "votes_count": 0, "ships_count": 0, "projects": [], "coding_time_seconds": 0, "coding_time_seconds_today": 0, "balance": "You need to have a pocket watcher badge to view this.", "badges": [], "created_at": "2025-06-16T11:59:34.690-04:00", "updated_at": "2025-07-03T19:13:34.987-04:00", "avatar": "https://avatars.slack-edge.com/2025-06-16/9055369172725_7a7c0764c620ee2d65c6_original.jpg", "custom_css": null}, {"id": 569, "slack_id": "U091P3H5D50", "display_name": "Mustafa Al Lami", "bio": null, "projects_count": 0, "devlogs_count": 0, "votes_count": 0, "ships_count": 0, "projects": [], "coding_time_seconds": 0, "coding_time_seconds_today": 0, "balance": "You need to have a pocket watcher badge to view this.", "badges": [], "created_at": "2025-06-16T11:59:35.130-04:00", "updated_at": "2025-07-03T19:13:35.257-04:00", "avatar": "https://secure.gravatar.com/avatar/ad1e86dc7906ae884e7a4e1dcc94a3d6.jpg?s=512&d=https%3A%2F%2Fa.slack-edge.com%2Fdf10d%2Fimg%2Favatars%2Fava_0002-512.png", "custom_css": null}, {"id": 570, "slack_id": "U091G49D3PV", "display_name": "souptik", "bio": null, "projects_count": 0, "devlogs_count": 0, "votes_count": 0, "ships_count": 0, "projects": [], "coding_time_seconds": 0, "coding_time_seconds_today": 0, "balance": "You need to have a pocket watcher badge to view this.", "badges": [], "created_at": "2025-06-16T11:59:35.427-04:00", "updated_at": "2025-07-03T19:13:35.525-04:00", "avatar": "https://secure.gravatar.com/avatar/c6b67674bc1b68b83af4c9d0d686bb32.jpg?s=512&d=https%3A%2F%2Fa.slack-edge.com%2Fdf10d%2Fimg%2Favatars%2Fava_0014-512.png", "custom_css": null}, {"id": 571, "slack_id": "U0917PR0UQ7", "display_name": "C\u00e9dric", "bio": null, "projects_count": 0, "devlogs_count": 0, "votes_count": 0, "ships_count": 0, "projects": [], "coding_time_seconds": 136597, "coding_time_seconds_today": 0, "balance": "You need to have a pocket watcher badge to view this.", "badges": [], "created_at": "2025-06-16T11:59:38.981-04:00", "updated_at": "2025-07-03T19:13:35.790-04:00", "avatar": "https://secure.gravatar.com/avatar/35a1a69f861fb679cef61a30090b66f6.jpg?s=512&d=https%3A%2F%2Fa.slack-edge.com%2Fdf10d%2Fimg%2Favatars%2Fava_0014-512.png", "custom_css": null}, {"id": 572, "slack_id": "U091P3MBZ3L", "display_name": "Pratyay Banerjee", "bio": null, "projects_count": 0, "devlogs_count": 0, "votes_count": 0, "ships_count": 0, "projects": [], "coding_time_seconds": 0, "coding_time_seconds_today": 0, "balance": "You need to have a pocket watcher badge to view this.", "badges": [], "created_at": "2025-06-16T11:59:40.817-04:00", "updated_at": "2025-07-03T19:13:36.061-04:00", "avatar": "https://secure.gravatar.com/avatar/defec1663d9b845871f9571a006fbf9e.jpg?s=512&d=https%3A%2F%2Fa.slack-edge.com%2Fdf10d%2Fimg%2Favatars%2Fava_0016-512.png", "custom_css": null}, {"id": 573, "slack_id": "U091G7H12NS", "display_name": "khoabean", "bio": null, "projects_count": 0, "devlogs_count": 0, "votes_count": 0, "ships_count": 0, "projects": [], "coding_time_seconds": 0, "coding_time_seconds_today": 0, "balance": "You need to have a pocket watcher badge to view this.", "badges": [], "created_at": "2025-06-16T11:59:41.832-04:00", "updated_at": "2025-07-03T19:13:36.339-04:00", "avatar": "https://secure.gravatar.com/avatar/b995aac5d009bf328d3933b26f30a472.jpg?s=512&d=https%3A%2F%2Fa.slack-edge.com%2Fdf10d%2Fimg%2Favatars%2Fava_0000-512.png", "custom_css": null}, {"id": 574, "slack_id": "U0917PDJR63", "display_name": "Lon60", "bio": null, "projects_count": 1, "devlogs_count": 8, "votes_count": 32, "ships_count": 1, "projects": [{"id": 204, "title": "Shipkit - PaaS", "devlogs_count": 8, "created_at": "2025-06-16T15:23:24.707-04:00"}], "coding_time_seconds": 224414, "coding_time_seconds_today": 0, "balance": "You need to have a pocket watcher badge to view this.", "badges": [{"name": "Maiden Voyage", "text": "you shipped your first project! the journey begins...", "icon": "\ud83d\udea2"}], "created_at": "2025-06-16T11:59:47.555-04:00", "updated_at": "2025-09-10T22:51:25.075-04:00", "avatar": "https://avatars.slack-edge.com/2025-06-16/9051350229814_ae3c3cdaa9dacbb87ad3_original.png", "custom_css": null}, {"id": 575, "slack_id": "U053MDGNY75", "display_name": "somebody else", "bio": null, "projects_count": 3, "devlogs_count": 6, "votes_count": 0, "ships_count": 0, "projects": [{"id": 2237, "title": "Terminal chip-8", "devlogs_count": 1, "created_at": "2025-06-20T14:02:21.804-04:00"}, {"id": 10603, "title": "Pass and play chess for the playdate!", "devlogs_count": 1, "created_at": "2025-08-08T17:01:18.132-04:00"}, {"id": 4121, "title": "A game similar to undercity colleseum", "devlogs_count": 4, "created_at": "2025-06-27T15:53:36.261-04:00"}], "coding_time_seconds": 49954, "coding_time_seconds_today": 0, "balance": "You need to have a pocket watcher badge to view this.", "badges": [], "created_at": "2025-06-16T12:00:00.013-04:00", "updated_at": "2025-08-06T12:38:00.814-04:00", "avatar": "https://avatars.slack-edge.com/2025-06-07/9017164151524_05613b789bd7921b2475_original.png", "custom_css": null}, {"id": 576, "slack_id": "U08600G1NUX", "display_name": "Antek", "bio": null, "projects_count": 0, "devlogs_count": 0, "votes_count": 0, "ships_count": 0, "projects": [], "coding_time_seconds": 132548, "coding_time_seconds_today": 0, "balance": "You need to have a pocket watcher badge to view this.", "badges": [], "created_at": "2025-06-16T12:00:04.442-04:00", "updated_at": "2025-07-24T14:10:47.564-04:00", "avatar": "https://secure.gravatar.com/avatar/391adbdee4a68f0218f0fd9c1cbddbc8.jpg?s=512&d=https%3A%2F%2Fa.slack-edge.com%2Fdf10d%2Fimg%2Favatars%2Fava_0013-512.png", "custom_css": null}, {"id": 577, "slack_id": "U08BGHAQ3QX", "display_name": "Kozman", "bio": null, "projects_count": 0, "devlogs_count": 0, "votes_count": 0, "ships_count": 0, "projects": [], "coding_time_seconds": 0, "coding_time_seconds_today": 0, "balance": "You need to have a pocket watcher badge to view this.", "badges": [], "created_at": "2025-06-16T12:00:13.306-04:00", "updated_at": "2025-07-03T19:13:37.417-04:00", "avatar": "https://secure.gravatar.com/avatar/84f55397696a66550795610a554d2f73.jpg?s=512&d=https%3A%2F%2Fa.slack-edge.com%2Fdf10d%2Fimg%2Favatars%2Fava_0019-512.png", "custom_css": null}, {"id": 578, "slack_id": "U091MAAB0LV", "display_name": "Shreshth", "bio": null, "projects_count": 0, "devlogs_count": 0, "votes_count": 0, "ships_count": 0, "projects": [], "coding_time_seconds": 0, "coding_time_seconds_today": 0, "balance": "You need to have a pocket watcher badge to view this.", "badges": [], "created_at": "2025-06-16T12:00:22.365-04:00", "updated_at": "2025-07-03T19:13:37.685-04:00", "avatar": "https://secure.gravatar.com/avatar/a48dc87c364c08187ae1f74211d8c176.jpg?s=512&d=https%3A%2F%2Fa.slack-edge.com%2Fdf10d%2Fimg%2Favatars%2Fava_0003-512.png", "custom_css": null}, {"id": 579, "slack_id": "U091G7J5LJJ", "display_name": "Zuturito", "bio": null, "projects_count": 0, "devlogs_count": 0, "votes_count": 0, "ships_count": 0, "projects": [], "coding_time_seconds": 0, "coding_time_seconds_today": 0, "balance": "You need to have a pocket watcher badge to view this.", "badges": [], "created_at": "2025-06-16T12:00:24.695-04:00", "updated_at": "2025-07-03T19:13:37.962-04:00", "avatar": "https://secure.gravatar.com/avatar/3832f3a23fd169f2a8911d6dc7c05137.jpg?s=512&d=https%3A%2F%2Fa.slack-edge.com%2Fdf10d%2Fimg%2Favatars%2Fava_0010-512.png", "custom_css": null}, {"id": 580, "slack_id": "U0917QHCC6B", "display_name": "Callum F", "bio": null, "projects_count": 0, "devlogs_count": 0, "votes_count": 0, "ships_count": 0, "projects": [], "coding_time_seconds": 62809, "coding_time_seconds_today": 0, "balance": "You need to have a pocket watcher badge to view this.", "badges": [], "created_at": "2025-06-16T12:00:27.896-04:00", "updated_at": "2025-07-03T19:13:38.233-04:00", "avatar": "https://secure.gravatar.com/avatar/4cd2a564827da16fd20f07e2f9a51cfd.jpg?s=512&d=https%3A%2F%2Fa.slack-edge.com%2Fdf10d%2Fimg%2Favatars%2Fava_0014-512.png", "custom_css": null}], "pagination": {"page": 29, "pages": 1192, "count": 23827, "items": 20}}