{"users": [{"id": 5781, "slack_id": "U0925SVEVED", "display_name": "Rahil Saini", "bio": null, "projects_count": 0, "devlogs_count": 0, "votes_count": 0, "ships_count": 0, "projects": [], "coding_time_seconds": 77143, "coding_time_seconds_today": 0, "balance": "You need to have a pocket watcher badge to view this.", "badges": [], "created_at": "2025-06-17T05:21:30.685-04:00", "updated_at": "2025-07-03T19:37:26.081-04:00", "avatar": "https://secure.gravatar.com/avatar/dd356ca690421e82eccc1304fb05c864.jpg?s=512&d=https%3A%2F%2Fa.slack-edge.com%2Fdf10d%2Fimg%2Favatars%2Fava_0022-512.png", "custom_css": null}, {"id": 5782, "slack_id": "U091LJJ6Z5L", "display_name": "Iker Bonet", "bio": null, "projects_count": 5, "devlogs_count": 12, "votes_count": 71, "ships_count": 5, "projects": [{"id": 2618, "title": "Filmfinder", "devlogs_count": 1, "created_at": "2025-06-21T13:13:15.913-04:00"}, {"id": 1478, "title": "Asciifyer", "devlogs_count": 3, "created_at": "2025-06-18T16:02:30.906-04:00"}, {"id": 1088, "title": "Home Lab Monitor", "devlogs_count": 2, "created_at": "2025-06-17T15:46:48.889-04:00"}, {"id": 731, "title": "Aizyl", "devlogs_count": 4, "created_at": "2025-06-17T06:39:28.259-04:00"}, {"id": 1775, "title": "Colorfuller", "devlogs_count": 2, "created_at": "2025-06-19T08:09:01.822-04:00"}], "coding_time_seconds": 111473, "coding_time_seconds_today": 0, "balance": "You need to have a pocket watcher badge to view this.", "badges": [{"name": "Maiden Voyage", "text": "you shipped your first project! the journey begins...", "icon": "\ud83d\udea2"}, {"name": "Ballot Stuffer", "text": "vote 100 times.", "icon": "https://summer.hackclub.com/assets/i_voted-bf851b48.png"}], "created_at": "2025-06-17T05:22:02.957-04:00", "updated_at": "2025-09-10T22:54:02.969-04:00", "avatar": "https://secure.gravatar.com/avatar/2580e9446dd784e7086dcce2a2272be8.jpg?s=512&d=https%3A%2F%2Fa.slack-edge.com%2Fdf10d%2Fimg%2Favatars%2Fava_0022-512.png", "custom_css": null}, {"id": 5783, "slack_id": "U091TLTU0SG", "display_name": "ALIN IOAN TIMIS", "bio": null, "projects_count": 0, "devlogs_count": 0, "votes_count": 0, "ships_count": 0, "projects": [], "coding_time_seconds": 0, "coding_time_seconds_today": 0, "balance": "You need to have a pocket watcher badge to view this.", "badges": [], "created_at": "2025-06-17T05:22:04.818-04:00", "updated_at": "2025-07-03T19:37:26.606-04:00", "avatar": "https://avatars.slack-edge.com/2025-06-17/9054548476227_684105615f344ef6b560_original.jpg", "custom_css": null}, {"id": 5784, "slack_id": "U092FM4Q264", "display_name": "Harshitha Goud", "bio": null, "projects_count": 0, "devlogs_count": 0, "votes_count": 0, "ships_count": 0, "projects": [], "coding_time_seconds": 0, "coding_time_seconds_today": 0, "balance": "You need to have a pocket watcher badge to view this.", "badges": [], "created_at": "2025-06-17T05:22:13.660-04:00", "updated_at": "2025-07-03T19:37:26.868-04:00", "avatar": "https://avatars.slack-edge.com/2025-06-17/9083748358320_a8a531c81e1e0ce03684_original.png", "custom_css": null}, {"id": 5785, "slack_id": "U091TKR9TFE", "display_name": "Vanshika", "bio": null, "projects_count": 0, "devlogs_count": 0, "votes_count": 0, "ships_count": 0, "projects": [], "coding_time_seconds": 0, "coding_time_seconds_today": 0, "balance": "You need to have a pocket watcher badge to view this.", "badges": [], "created_at": "2025-06-17T05:23:12.777-04:00", "updated_at": "2025-07-03T19:37:27.146-04:00", "avatar": "https://secure.gravatar.com/avatar/cf463f4f2f317a003967f6e584a4c26d.jpg?s=512&d=https%3A%2F%2Fa.slack-edge.com%2Fdf10d%2Fimg%2Favatars%2Fava_0020-512.png", "custom_css": null}, {"id": 5786, "slack_id": "U091LFRUSAF", "display_name": "aayush pradhan", "bio": null, "projects_count": 0, "devlogs_count": 0, "votes_count": 0, "ships_count": 0, "projects": [], "coding_time_seconds": 0, "coding_time_seconds_today": 0, "balance": "You need to have a pocket watcher badge to view this.", "badges": [], "created_at": "2025-06-17T05:23:13.876-04:00", "updated_at": "2025-07-03T19:37:27.406-04:00", "avatar": "https://secure.gravatar.com/avatar/80d6e044d427f8c81f3a291ff3fddc09.jpg?s=512&d=https%3A%2F%2Fa.slack-edge.com%2Fdf10d%2Fimg%2Favatars%2Fava_0010-512.png", "custom_css": null}, {"id": 5787, "slack_id": "U0925HHH7R7", "display_name": "Era", "bio": null, "projects_count": 0, "devlogs_count": 0, "votes_count": 0, "ships_count": 0, "projects": [], "coding_time_seconds": 0, "coding_time_seconds_today": 0, "balance": "You need to have a pocket watcher badge to view this.", "badges": [], "created_at": "2025-06-17T05:23:55.605-04:00", "updated_at": "2025-07-03T19:37:27.675-04:00", "avatar": "https://secure.gravatar.com/avatar/f1fb131b0d1f9e64968916fd53d65f69.jpg?s=512&d=https%3A%2F%2Fa.slack-edge.com%2Fdf10d%2Fimg%2Favatars%2Fava_0011-512.png", "custom_css": null}, {"id": 5788, "slack_id": "U088CM6P9BN", "display_name": "Aryan Gupta", "bio": null, "projects_count": 0, "devlogs_count": 0, "votes_count": 0, "ships_count": 0, "projects": [], "coding_time_seconds": 40852, "coding_time_seconds_today": 0, "balance": "You need to have a pocket watcher badge to view this.", "badges": [], "created_at": "2025-06-17T05:24:18.692-04:00", "updated_at": "2025-07-03T19:37:27.942-04:00", "avatar": "https://avatars.slack-edge.com/2025-04-20/8801581347136_b1c3fa0c5b4654a0a371_original.png", "custom_css": null}, {"id": 5789, "slack_id": "U08TELFB8LU", "display_name": "Toby", "bio": null, "projects_count": 0, "devlogs_count": 0, "votes_count": 0, "ships_count": 0, "projects": [], "coding_time_seconds": 0, "coding_time_seconds_today": 0, "balance": "You need to have a pocket watcher badge to view this.", "badges": [], "created_at": "2025-06-17T05:24:26.841-04:00", "updated_at": "2025-08-02T09:10:34.035-04:00", "avatar": "https://secure.gravatar.com/avatar/0f1c10f0cb38a23ab158574e3aa786ea.jpg?s=512&d=https%3A%2F%2Fa.slack-edge.com%2Fdf10d%2Fimg%2Favatars%2Fava_0010-512.png", "custom_css": null}, {"id": 5790, "slack_id": "U091LG3BYBD", "display_name": "Dinakara Ambepitiya", "bio": null, "projects_count": 1, "devlogs_count": 0, "votes_count": 0, "ships_count": 0, "projects": [{"id": 1716, "title": "learn_react", "devlogs_count": 0, "created_at": "2025-06-19T04:43:11.791-04:00"}], "coding_time_seconds": 187926, "coding_time_seconds_today": 0, "balance": "You need to have a pocket watcher badge to view this.", "badges": [], "created_at": "2025-06-17T05:25:14.003-04:00", "updated_at": "2025-07-05T02:06:33.442-04:00", "avatar": "https://secure.gravatar.com/avatar/4e0ad95ab621020d506389c33436f80e.jpg?s=512&d=https%3A%2F%2Fa.slack-edge.com%2Fdf10d%2Fimg%2Favatars%2Fava_0010-512.png", "custom_css": null}, {"id": 5791, "slack_id": "U091BV38X7Z", "display_name": "Vedansh", "bio": null, "projects_count": 1, "devlogs_count": 0, "votes_count": 0, "ships_count": 0, "projects": [{"id": 708, "title": "DOIT", "devlogs_count": 0, "created_at": "2025-06-17T05:57:21.382-04:00"}], "coding_time_seconds": 118320, "coding_time_seconds_today": 3885, "balance": "You need to have a pocket watcher badge to view this.", "badges": [], "created_at": "2025-06-17T05:25:15.508-04:00", "updated_at": "2025-07-03T19:37:28.686-04:00", "avatar": "https://secure.gravatar.com/avatar/b8f6fe90c0d8c3e4a5461d3d59fb78c5.jpg?s=512&d=https%3A%2F%2Fa.slack-edge.com%2Fdf10d%2Fimg%2Favatars%2Fava_0007-512.png", "custom_css": null}, {"id": 5792, "slack_id": "U0925TD7KTK", "display_name": "Hamshad Shaikh", "bio": null, "projects_count": 0, "devlogs_count": 0, "votes_count": 0, "ships_count": 0, "projects": [], "coding_time_seconds": 0, "coding_time_seconds_today": 0, "balance": "You need to have a pocket watcher badge to view this.", "badges": [], "created_at": "2025-06-17T05:25:16.060-04:00", "updated_at": "2025-07-03T19:37:28.950-04:00", "avatar": "https://avatars.slack-edge.com/2025-06-17/9046001879063_c47ced69c95462b81099_original.png", "custom_css": null}, {"id": 5793, "slack_id": "U091RJ8BL2Z", "display_name": "Sai Amartya Balamurugan Lakshmi praba", "bio": null, "projects_count": 0, "devlogs_count": 0, "votes_count": 0, "ships_count": 0, "projects": [], "coding_time_seconds": 86609, "coding_time_seconds_today": 0, "balance": "You need to have a pocket watcher badge to view this.", "badges": [], "created_at": "2025-06-17T05:26:01.060-04:00", "updated_at": "2025-07-03T19:37:29.214-04:00", "avatar": "https://avatars.slack-edge.com/2025-06-17/9073949726897_aa58d2c6e02a29e0ed17_original.png", "custom_css": null}, {"id": 5794, "slack_id": "U092FN38V5W", "display_name": "Daniel Pi\u00f1eiro", "bio": null, "projects_count": 0, "devlogs_count": 0, "votes_count": 0, "ships_count": 0, "projects": [], "coding_time_seconds": 0, "coding_time_seconds_today": 0, "balance": "You need to have a pocket watcher badge to view this.", "badges": [], "created_at": "2025-06-17T05:26:03.755-04:00", "updated_at": "2025-07-03T19:37:29.478-04:00", "avatar": "https://secure.gravatar.com/avatar/4406fe17c0d72abae018a7a3db24ff1c.jpg?s=512&d=https%3A%2F%2Fa.slack-edge.com%2Fdf10d%2Fimg%2Favatars%2Fava_0015-512.png", "custom_css": null}, {"id": 5795, "slack_id": "U091BUXV2P9", "display_name": "Adarsh", "bio": null, "projects_count": 0, "devlogs_count": 0, "votes_count": 0, "ships_count": 0, "projects": [], "coding_time_seconds": 59662, "coding_time_seconds_today": 0, "balance": "You need to have a pocket watcher badge to view this.", "badges": [], "created_at": "2025-06-17T05:26:18.067-04:00", "updated_at": "2025-07-03T19:37:29.749-04:00", "avatar": "https://secure.gravatar.com/avatar/97a19c3075d35993fe11f49948638c2d.jpg?s=512&d=https%3A%2F%2Fa.slack-edge.com%2Fdf10d%2Fimg%2Favatars%2Fava_0024-512.png", "custom_css": null}, {"id": 5796, "slack_id": "U091LJR4TDL", "display_name": "cxfr4", "bio": null, "projects_count": 0, "devlogs_count": 0, "votes_count": 0, "ships_count": 0, "projects": [], "coding_time_seconds": 0, "coding_time_seconds_today": 0, "balance": "You need to have a pocket watcher badge to view this.", "badges": [], "created_at": "2025-06-17T05:26:20.360-04:00", "updated_at": "2025-07-03T19:37:30.011-04:00", "avatar": "https://secure.gravatar.com/avatar/6239f3a2ab87b2f4ff1e9537cba9cb6a.jpg?s=512&d=https%3A%2F%2Fa.slack-edge.com%2Fdf10d%2Fimg%2Favatars%2Fava_0004-512.png", "custom_css": null}, {"id": 5797, "slack_id": "U04HQ7LL138", "display_name": "Edward", "bio": null, "projects_count": 1, "devlogs_count": 0, "votes_count": 0, "ships_count": 0, "projects": [{"id": 2947, "title": "CloudShell", "devlogs_count": 0, "created_at": "2025-06-22T14:34:26.991-04:00"}], "coding_time_seconds": 71396, "coding_time_seconds_today": 0, "balance": "You need to have a pocket watcher badge to view this.", "badges": [], "created_at": "2025-06-17T05:27:19.481-04:00", "updated_at": "2025-07-03T19:37:30.282-04:00", "avatar": "https://avatars.slack-edge.com/2024-11-24/8073215944021_7ecc0a7920e87b3d9dd4_original.jpg", "custom_css": null}, {"id": 5798, "slack_id": "U091LKY2L78", "display_name": "warlock", "bio": null, "projects_count": 0, "devlogs_count": 0, "votes_count": 0, "ships_count": 0, "projects": [], "coding_time_seconds": 0, "coding_time_seconds_today": 0, "balance": "You need to have a pocket watcher badge to view this.", "badges": [], "created_at": "2025-06-17T05:27:31.844-04:00", "updated_at": "2025-07-03T19:37:30.544-04:00", "avatar": "https://secure.gravatar.com/avatar/6bb0c55fecd245884081dce324bbc616.jpg?s=512&d=https%3A%2F%2Fa.slack-edge.com%2Fdf10d%2Fimg%2Favatars%2Fava_0010-512.png", "custom_css": null}, {"id": 5799, "slack_id": "U0925TMMJ6M", "display_name": "Daniel Jin", "bio": null, "projects_count": 0, "devlogs_count": 0, "votes_count": 0, "ships_count": 0, "projects": [], "coding_time_seconds": 0, "coding_time_seconds_today": 0, "balance": "You need to have a pocket watcher badge to view this.", "badges": [], "created_at": "2025-06-17T05:27:42.536-04:00", "updated_at": "2025-07-03T19:37:30.811-04:00", "avatar": "https://secure.gravatar.com/avatar/eb522dc2aaff99308006b77289f2f750.jpg?s=512&d=https%3A%2F%2Fa.slack-edge.com%2Fdf10d%2Fimg%2Favatars%2Fava_0012-512.png", "custom_css": null}, {"id": 5800, "slack_id": "U091TMJSGUU", "display_name": "Teo", "bio": null, "projects_count": 0, "devlogs_count": 0, "votes_count": 0, "ships_count": 0, "projects": [], "coding_time_seconds": 0, "coding_time_seconds_today": 0, "balance": "You need to have a pocket watcher badge to view this.", "badges": [], "created_at": "2025-06-17T05:28:20.770-04:00", "updated_at": "2025-07-03T19:37:31.079-04:00", "avatar": "https://secure.gravatar.com/avatar/9e2b64f0c07abeda325644ff49bd7e7b.jpg?s=512&d=https%3A%2F%2Fa.slack-edge.com%2Fdf10d%2Fimg%2Favatars%2Fava_0017-512.png", "custom_css": null}], "pagination": {"page": 290, "pages": 1192, "count": 23828, "items": 20}}