{"users": [{"id": 5801, "slack_id": "U082UFFQZ88", "display_name": "LT Ang", "bio": null, "projects_count": 0, "devlogs_count": 0, "votes_count": 0, "ships_count": 0, "projects": [], "coding_time_seconds": 24175, "coding_time_seconds_today": 3667, "balance": "You need to have a pocket watcher badge to view this.", "badges": [], "created_at": "2025-06-17T05:28:38.344-04:00", "updated_at": "2025-07-23T01:36:28.600-04:00", "avatar": "https://avatars.slack-edge.com/2024-11-22/8073657477507_0f8957fa26a6a087b225_original.png", "custom_css": null}, {"id": 5802, "slack_id": "U04AKUFC402", "display_name": "Aditya", "bio": null, "projects_count": 1, "devlogs_count": 1, "votes_count": 1, "ships_count": 0, "projects": [{"id": 711, "title": "Waffles", "devlogs_count": 1, "created_at": "2025-06-17T06:03:04.342-04:00"}], "coding_time_seconds": 2897, "coding_time_seconds_today": 0, "balance": "You need to have a pocket watcher badge to view this.", "badges": [], "created_at": "2025-06-17T05:28:47.445-04:00", "updated_at": "2025-07-03T19:37:31.600-04:00", "avatar": "https://avatars.slack-edge.com/2025-07-02/9123988797127_b8251dc027e2bd751f8b_original.jpg", "custom_css": null}, {"id": 5803, "slack_id": "U091RJNV1N1", "display_name": "thingus", "bio": null, "projects_count": 1, "devlogs_count": 0, "votes_count": 0, "ships_count": 0, "projects": [{"id": 2070, "title": "Vantage", "devlogs_count": 0, "created_at": "2025-06-20T04:08:50.440-04:00"}], "coding_time_seconds": 59037, "coding_time_seconds_today": 0, "balance": "You need to have a pocket watcher badge to view this.", "badges": [], "created_at": "2025-06-17T05:30:01.194-04:00", "updated_at": "2025-07-03T19:37:31.859-04:00", "avatar": "https://secure.gravatar.com/avatar/4eacc5b00174cee9f45e69642d92aea9.jpg?s=512&d=https%3A%2F%2Fa.slack-edge.com%2Fdf10d%2Fimg%2Favatars%2Fava_0008-512.png", "custom_css": null}, {"id": 5804, "slack_id": "U08L9M1RHSM", "display_name": "Ishant Chaturvedi", "bio": null, "projects_count": 0, "devlogs_count": 0, "votes_count": 0, "ships_count": 0, "projects": [], "coding_time_seconds": 40361, "coding_time_seconds_today": 1628, "balance": "You need to have a pocket watcher badge to view this.", "badges": [], "created_at": "2025-06-17T05:30:32.719-04:00", "updated_at": "2025-07-03T19:37:32.122-04:00", "avatar": "https://secure.gravatar.com/avatar/c933077961d04eafea8534f89dd1f1b6.jpg?s=512&d=https%3A%2F%2Fa.slack-edge.com%2Fdf10d%2Fimg%2Favatars%2Fava_0017-512.png", "custom_css": null}, {"id": 5805, "slack_id": "U07UE4ZATS6", "display_name": "Callum White", "bio": "", "projects_count": 7, "devlogs_count": 30, "votes_count": 20, "ships_count": 2, "projects": [{"id": 7306, "title": "SVG Editor ", "devlogs_count": 4, "created_at": "2025-07-20T19:54:18.344-04:00"}, {"id": 9906, "title": "Idle Game", "devlogs_count": 3, "created_at": "2025-08-02T20:21:52.371-04:00"}, {"id": 11616, "title": "Ball Game Engine", "devlogs_count": 2, "created_at": "2025-08-17T18:44:11.781-04:00"}, {"id": 12236, "title": "Robotarium", "devlogs_count": 17, "created_at": "2025-08-24T17:13:57.481-04:00"}, {"id": 3310, "title": "Autonomous and Driver Controlled Robot", "devlogs_count": 2, "created_at": "2025-06-23T19:01:28.818-04:00"}, {"id": 8468, "title": "Keyboard Layout Generator", "devlogs_count": 1, "created_at": "2025-07-27T11:20:54.093-04:00"}, {"id": 6263, "title": "GCSE Coursework ", "devlogs_count": 1, "created_at": "2025-07-11T18:31:59.118-04:00"}], "coding_time_seconds": 369036, "coding_time_seconds_today": 0, "balance": "You need to have a pocket watcher badge to view this.", "badges": [{"name": "Maiden Voyage", "text": "you shipped your first project! the journey begins...", "icon": "\ud83d\udea2"}, {"name": "No Fun", "text": "opt-out added for the whimsy-impaired", "icon": "\ud83d\udeab"}], "created_at": "2025-06-17T05:30:34.302-04:00", "updated_at": "2025-09-10T22:54:03.688-04:00", "avatar": "https://secure.gravatar.com/avatar/c1ddfc2cbcfe84cc53c767a31f78a13f.jpg?s=512&d=https%3A%2F%2Fa.slack-edge.com%2Fdf10d%2Fimg%2Favatars%2Fava_0015-512.png", "custom_css": null}, {"id": 5806, "slack_id": "U091C0GAY23", "display_name": "Chinedu Okpala", "bio": null, "projects_count": 1, "devlogs_count": 5, "votes_count": 0, "ships_count": 0, "projects": [{"id": 1820, "title": "Hexapod", "devlogs_count": 5, "created_at": "2025-06-19T10:43:06.592-04:00"}], "coding_time_seconds": 78155, "coding_time_seconds_today": 0, "balance": "You need to have a pocket watcher badge to view this.", "badges": [], "created_at": "2025-06-17T05:30:39.241-04:00", "updated_at": "2025-07-21T21:20:16.053-04:00", "avatar": "https://avatars.slack-edge.com/2025-07-20/9223791165813_cc8b090543ad9c0aba7a_original.png", "custom_css": null}, {"id": 5807, "slack_id": "U08SG17GP2T", "display_name": "saltn", "bio": null, "projects_count": 0, "devlogs_count": 0, "votes_count": 0, "ships_count": 0, "projects": [], "coding_time_seconds": 0, "coding_time_seconds_today": 0, "balance": "You need to have a pocket watcher badge to view this.", "badges": [], "created_at": "2025-06-17T05:31:04.284-04:00", "updated_at": "2025-07-03T19:37:32.907-04:00", "avatar": "https://secure.gravatar.com/avatar/83e835078ad09ea35a7edc0b8be8769d.jpg?s=512&d=https%3A%2F%2Fa.slack-edge.com%2Fdf10d%2Fimg%2Favatars%2Fava_0014-512.png", "custom_css": null}, {"id": 5808, "slack_id": "U091LM3KHGW", "display_name": "Fariahh Basha", "bio": null, "projects_count": 0, "devlogs_count": 0, "votes_count": 0, "ships_count": 0, "projects": [], "coding_time_seconds": 0, "coding_time_seconds_today": 0, "balance": "You need to have a pocket watcher badge to view this.", "badges": [], "created_at": "2025-06-17T05:31:09.860-04:00", "updated_at": "2025-07-03T19:37:33.175-04:00", "avatar": "https://secure.gravatar.com/avatar/9e919559904325daab111704762502da.jpg?s=512&d=https%3A%2F%2Fa.slack-edge.com%2Fdf10d%2Fimg%2Favatars%2Fava_0022-512.png", "custom_css": null}, {"id": 5809, "slack_id": "U091LFWUETD", "display_name": "Lilien", "bio": null, "projects_count": 0, "devlogs_count": 0, "votes_count": 0, "ships_count": 0, "projects": [], "coding_time_seconds": 4246, "coding_time_seconds_today": 0, "balance": "You need to have a pocket watcher badge to view this.", "badges": [], "created_at": "2025-06-17T05:31:13.277-04:00", "updated_at": "2025-07-03T19:37:33.433-04:00", "avatar": "https://secure.gravatar.com/avatar/6bc5b2d19f0c1a811f095f150968bd61.jpg?s=512&d=https%3A%2F%2Fa.slack-edge.com%2Fdf10d%2Fimg%2Favatars%2Fava_0007-512.png", "custom_css": null}, {"id": 5810, "slack_id": "U091TL9R38C", "display_name": "ap64", "bio": null, "projects_count": 0, "devlogs_count": 0, "votes_count": 0, "ships_count": 0, "projects": [], "coding_time_seconds": 0, "coding_time_seconds_today": 0, "balance": "You need to have a pocket watcher badge to view this.", "badges": [], "created_at": "2025-06-17T05:31:40.489-04:00", "updated_at": "2025-07-03T19:37:33.703-04:00", "avatar": "https://secure.gravatar.com/avatar/328d5adbfe1081ec8e411355288bdd7a.jpg?s=512&d=https%3A%2F%2Fa.slack-edge.com%2Fdf10d%2Fimg%2Favatars%2Fava_0003-512.png", "custom_css": null}, {"id": 5811, "slack_id": "U091TN0UCNQ", "display_name": "DCMitul", "bio": null, "projects_count": 1, "devlogs_count": 3, "votes_count": 2, "ships_count": 0, "projects": [{"id": 3107, "title": "Skit - A Port Scanner", "devlogs_count": 3, "created_at": "2025-06-23T05:39:33.961-04:00"}], "coding_time_seconds": 13604, "coding_time_seconds_today": 0, "balance": "You need to have a pocket watcher badge to view this.", "badges": [], "created_at": "2025-06-17T05:31:50.434-04:00", "updated_at": "2025-07-03T19:37:33.970-04:00", "avatar": "https://secure.gravatar.com/avatar/ebce76d411866b57d79ddafdac6a4a17.jpg?s=512&d=https%3A%2F%2Fa.slack-edge.com%2Fdf10d%2Fimg%2Favatars%2Fava_0008-512.png", "custom_css": null}, {"id": 5812, "slack_id": "U091TN5R5GU", "display_name": "Adarsh", "bio": null, "projects_count": 0, "devlogs_count": 0, "votes_count": 0, "ships_count": 0, "projects": [], "coding_time_seconds": 10810, "coding_time_seconds_today": 0, "balance": "You need to have a pocket watcher badge to view this.", "badges": [], "created_at": "2025-06-17T05:32:17.581-04:00", "updated_at": "2025-07-03T19:37:34.236-04:00", "avatar": "https://avatars.slack-edge.com/2025-06-17/9059671036773_df4990e72e2b97afb907_original.webp", "custom_css": null}, {"id": 5813, "slack_id": "U091KAGA55H", "display_name": "Daniel Staller", "bio": null, "projects_count": 0, "devlogs_count": 0, "votes_count": 0, "ships_count": 0, "projects": [], "coding_time_seconds": 0, "coding_time_seconds_today": 0, "balance": "You need to have a pocket watcher badge to view this.", "badges": [], "created_at": "2025-06-17T05:32:22.939-04:00", "updated_at": "2025-07-22T14:00:02.861-04:00", "avatar": "https://secure.gravatar.com/avatar/5e3880a47dd4f7d4fbc6c4af2f9b0b4a.jpg?s=512&d=https%3A%2F%2Fa.slack-edge.com%2Fdf10d%2Fimg%2Favatars%2Fava_0019-512.png", "custom_css": null}, {"id": 5814, "slack_id": "U091LME3G06", "display_name": "J.WEI", "bio": null, "projects_count": 0, "devlogs_count": 0, "votes_count": 0, "ships_count": 0, "projects": [], "coding_time_seconds": 0, "coding_time_seconds_today": 0, "balance": "You need to have a pocket watcher badge to view this.", "badges": [], "created_at": "2025-06-17T05:32:26.517-04:00", "updated_at": "2025-07-03T19:37:34.760-04:00", "avatar": "https://secure.gravatar.com/avatar/cab73ae113f9a63826b59aa99dbfddda.jpg?s=512&d=https%3A%2F%2Fa.slack-edge.com%2Fdf10d%2Fimg%2Favatars%2Fava_0016-512.png", "custom_css": null}, {"id": 5815, "slack_id": "U092EMSQFB2", "display_name": "myat 2", "bio": null, "projects_count": 0, "devlogs_count": 0, "votes_count": 0, "ships_count": 0, "projects": [], "coding_time_seconds": 0, "coding_time_seconds_today": 0, "balance": "You need to have a pocket watcher badge to view this.", "badges": [], "created_at": "2025-06-17T05:32:27.459-04:00", "updated_at": "2025-07-03T19:37:35.027-04:00", "avatar": "https://secure.gravatar.com/avatar/2f9181f888fedf66b9efffd08b4b5a28.jpg?s=512&d=https%3A%2F%2Fa.slack-edge.com%2Fdf10d%2Fimg%2Favatars%2Fava_0019-512.png", "custom_css": null}, {"id": 5816, "slack_id": "U091BTDJERM", "display_name": "\u041b\u0430 \u0417\u0435\u0440\u0442", "bio": null, "projects_count": 0, "devlogs_count": 0, "votes_count": 0, "ships_count": 0, "projects": [], "coding_time_seconds": 0, "coding_time_seconds_today": 0, "balance": "You need to have a pocket watcher badge to view this.", "badges": [], "created_at": "2025-06-17T05:32:50.265-04:00", "updated_at": "2025-07-03T19:37:35.300-04:00", "avatar": "https://avatars.slack-edge.com/2025-06-17/9054742192870_4db7accec7156dc1cd61_original.png", "custom_css": null}, {"id": 5817, "slack_id": "U092FP2FC00", "display_name": "shivv", "bio": null, "projects_count": 0, "devlogs_count": 4, "votes_count": 10, "ships_count": 0, "projects": [], "coding_time_seconds": 107067, "coding_time_seconds_today": 0, "balance": "You need to have a pocket watcher badge to view this.", "badges": [{"name": "Maiden Voyage", "text": "you shipped your first project! the journey begins...", "icon": "\ud83d\udea2"}], "created_at": "2025-06-17T05:33:36.189-04:00", "updated_at": "2025-09-10T22:54:04.075-04:00", "avatar": "https://secure.gravatar.com/avatar/6b1a8e58c3c7f875dbea14e7827c880d.jpg?s=512&d=https%3A%2F%2Fa.slack-edge.com%2Fdf10d%2Fimg%2Favatars%2Fava_0009-512.png", "custom_css": null}, {"id": 5818, "slack_id": "U091R8GU8S1", "display_name": "Deep Bhatt", "bio": null, "projects_count": 0, "devlogs_count": 0, "votes_count": 0, "ships_count": 0, "projects": [], "coding_time_seconds": 0, "coding_time_seconds_today": 0, "balance": "You need to have a pocket watcher badge to view this.", "badges": [], "created_at": "2025-06-17T05:33:51.789-04:00", "updated_at": "2025-07-03T19:37:35.825-04:00", "avatar": "https://secure.gravatar.com/avatar/5e525e2a9523a9c706b2d7665205d0f9.jpg?s=512&d=https%3A%2F%2Fa.slack-edge.com%2Fdf10d%2Fimg%2Favatars%2Fava_0009-512.png", "custom_css": null}, {"id": 5819, "slack_id": "U0924375STB", "display_name": "Damarla Lokesh Sai", "bio": null, "projects_count": 0, "devlogs_count": 0, "votes_count": 0, "ships_count": 0, "projects": [], "coding_time_seconds": 0, "coding_time_seconds_today": 0, "balance": "You need to have a pocket watcher badge to view this.", "badges": [], "created_at": "2025-06-17T05:33:56.616-04:00", "updated_at": "2025-07-04T02:24:55.729-04:00", "avatar": "https://secure.gravatar.com/avatar/7f1e24a56386ae00146b2f073646486f.jpg?s=512&d=https%3A%2F%2Fa.slack-edge.com%2Fdf10d%2Fimg%2Favatars%2Fava_0018-512.png", "custom_css": null}, {"id": 5820, "slack_id": "U091TNKRUCC", "display_name": "ASWINKARTHICK K.T", "bio": null, "projects_count": 0, "devlogs_count": 0, "votes_count": 0, "ships_count": 0, "projects": [], "coding_time_seconds": 0, "coding_time_seconds_today": 0, "balance": "You need to have a pocket watcher badge to view this.", "badges": [], "created_at": "2025-06-17T05:33:58.167-04:00", "updated_at": "2025-07-03T21:55:22.610-04:00", "avatar": "https://avatars.slack-edge.com/2025-06-17/9046045331127_f3276e9bcf46df07a00e_original.jpg", "custom_css": null}], "pagination": {"page": 291, "pages": 1192, "count": 23828, "items": 20}}