{"users": [{"id": 5821, "slack_id": "U091LGW3622", "display_name": "Ayan Bagwan", "bio": null, "projects_count": 0, "devlogs_count": 0, "votes_count": 0, "ships_count": 0, "projects": [], "coding_time_seconds": 8168, "coding_time_seconds_today": 0, "balance": "You need to have a pocket watcher badge to view this.", "badges": [], "created_at": "2025-06-17T05:34:24.191-04:00", "updated_at": "2025-07-03T19:37:36.372-04:00", "avatar": "https://secure.gravatar.com/avatar/62f8e97b0723f1494dccafe6a419a1ee.jpg?s=512&d=https%3A%2F%2Fa.slack-edge.com%2Fdf10d%2Fimg%2Favatars%2Fava_0016-512.png", "custom_css": null}, {"id": 5822, "slack_id": "U091LHJB2MR", "display_name": "Waqar Khalid", "bio": null, "projects_count": 0, "devlogs_count": 0, "votes_count": 0, "ships_count": 0, "projects": [], "coding_time_seconds": 0, "coding_time_seconds_today": 0, "balance": "You need to have a pocket watcher badge to view this.", "badges": [], "created_at": "2025-06-17T05:34:59.470-04:00", "updated_at": "2025-07-03T19:37:36.648-04:00", "avatar": "https://secure.gravatar.com/avatar/cd0ae7ca4c136183cc4eb364b0a65e3f.jpg?s=512&d=https%3A%2F%2Fa.slack-edge.com%2Fdf10d%2Fimg%2Favatars%2Fava_0008-512.png", "custom_css": null}, {"id": 5823, "slack_id": "U091R8UQJ6R", "display_name": "Albin", "bio": null, "projects_count": 0, "devlogs_count": 0, "votes_count": 0, "ships_count": 0, "projects": [], "coding_time_seconds": 0, "coding_time_seconds_today": 0, "balance": "You need to have a pocket watcher badge to view this.", "badges": [], "created_at": "2025-06-17T05:35:47.341-04:00", "updated_at": "2025-07-03T19:37:36.905-04:00", "avatar": "https://secure.gravatar.com/avatar/ded1354a2a8029c53b1d37e72d05319b.jpg?s=512&d=https%3A%2F%2Fa.slack-edge.com%2Fdf10d%2Fimg%2Favatars%2Fava_0010-512.png", "custom_css": null}, {"id": 5824, "slack_id": "U091RKSUUQM", "display_name": "Aryan", "bio": null, "projects_count": 0, "devlogs_count": 0, "votes_count": 0, "ships_count": 0, "projects": [], "coding_time_seconds": 5607, "coding_time_seconds_today": 0, "balance": "You need to have a pocket watcher badge to view this.", "badges": [], "created_at": "2025-06-17T05:35:54.283-04:00", "updated_at": "2025-07-03T21:55:22.871-04:00", "avatar": "https://secure.gravatar.com/avatar/9b92de21072dcd823ece748922dbdf48.jpg?s=512&d=https%3A%2F%2Fa.slack-edge.com%2Fdf10d%2Fimg%2Favatars%2Fava_0008-512.png", "custom_css": null}, {"id": 5825, "slack_id": "U091TBQBJ3C", "display_name": "ireav", "bio": null, "projects_count": 0, "devlogs_count": 0, "votes_count": 0, "ships_count": 0, "projects": [], "coding_time_seconds": 0, "coding_time_seconds_today": 0, "balance": "You need to have a pocket watcher badge to view this.", "badges": [], "created_at": "2025-06-17T05:35:55.721-04:00", "updated_at": "2025-07-03T19:37:37.309-04:00", "avatar": "https://secure.gravatar.com/avatar/e82058d0fdc7977422c8174e910a4c03.jpg?s=512&d=https%3A%2F%2Fa.slack-edge.com%2Fdf10d%2Fimg%2Favatars%2Fava_0020-512.png", "custom_css": null}, {"id": 5826, "slack_id": "U091RKSR1N1", "display_name": "Mrinal Bhoumick", "bio": null, "projects_count": 0, "devlogs_count": 0, "votes_count": 0, "ships_count": 0, "projects": [], "coding_time_seconds": 205164, "coding_time_seconds_today": 427, "balance": "You need to have a pocket watcher badge to view this.", "badges": [], "created_at": "2025-06-17T05:36:29.045-04:00", "updated_at": "2025-07-05T02:06:36.551-04:00", "avatar": "https://avatars.slack-edge.com/2025-06-17/9061453067730_be82fc3f8d6953a86cc6_original.png", "custom_css": null}, {"id": 5827, "slack_id": "U091RKQDQ5T", "display_name": "Prerit Gautam", "bio": null, "projects_count": 0, "devlogs_count": 0, "votes_count": 0, "ships_count": 0, "projects": [], "coding_time_seconds": 0, "coding_time_seconds_today": 0, "balance": "You need to have a pocket watcher badge to view this.", "badges": [], "created_at": "2025-06-17T05:36:31.053-04:00", "updated_at": "2025-07-03T19:37:37.743-04:00", "avatar": "https://secure.gravatar.com/avatar/4bcc419a5968a855735d0d47b90d39a9.jpg?s=512&d=https%3A%2F%2Fa.slack-edge.com%2Fdf10d%2Fimg%2Favatars%2Fava_0015-512.png", "custom_css": null}, {"id": 5828, "slack_id": "U092FPS79RN", "display_name": "Atharva Gitaye", "bio": null, "projects_count": 0, "devlogs_count": 0, "votes_count": 0, "ships_count": 0, "projects": [], "coding_time_seconds": 0, "coding_time_seconds_today": 0, "balance": "You need to have a pocket watcher badge to view this.", "badges": [], "created_at": "2025-06-17T05:37:41.974-04:00", "updated_at": "2025-07-03T21:55:23.172-04:00", "avatar": "https://secure.gravatar.com/avatar/e65ec30e8892d7eea2441c660dfe5d39.jpg?s=512&d=https%3A%2F%2Fa.slack-edge.com%2Fdf10d%2Fimg%2Favatars%2Fava_0012-512.png", "custom_css": null}, {"id": 5829, "slack_id": "U0877393E6R", "display_name": "Ahmed Hamza", "bio": null, "projects_count": 8, "devlogs_count": 91, "votes_count": 57, "ships_count": 5, "projects": [{"id": 13460, "title": "Minecraft Clone", "devlogs_count": 5, "created_at": "2025-09-17T00:31:25.563-04:00"}, {"id": 6895, "title": "Space Game", "devlogs_count": 5, "created_at": "2025-07-17T06:43:19.031-04:00"}, {"id": 8172, "title": "Youtube Video Downloader", "devlogs_count": 1, "created_at": "2025-07-25T03:56:38.722-04:00"}, {"id": 8312, "title": "Rancher's Hope", "devlogs_count": 29, "created_at": "2025-07-26T06:09:11.504-04:00"}, {"id": 11864, "title": "Pixelator", "devlogs_count": 5, "created_at": "2025-08-20T12:44:02.910-04:00"}, {"id": 13646, "title": "The Warrior's Strength", "devlogs_count": 13, "created_at": "2025-09-21T21:32:50.664-04:00"}, {"id": 12527, "title": "Aimer", "devlogs_count": 2, "created_at": "2025-08-29T02:01:45.516-04:00"}, {"id": 12757, "title": "Explorer's Commitment", "devlogs_count": 30, "created_at": "2025-09-02T03:30:31.775-04:00"}], "coding_time_seconds": 347446, "coding_time_seconds_today": 0, "balance": "You need to have a pocket watcher badge to view this.", "badges": [{"name": "Maiden Voyage", "text": "you shipped your first project! the journey begins...", "icon": "\ud83d\udea2"}], "created_at": "2025-06-17T05:37:44.431-04:00", "updated_at": "2025-09-17T01:43:13.277-04:00", "avatar": "https://avatars.slack-edge.com/2025-01-05/8252179546100_bc476a6ef8a71c702859_original.png", "custom_css": null}, {"id": 5830, "slack_id": "U092FPYP6CQ", "display_name": "Siva", "bio": null, "projects_count": 0, "devlogs_count": 0, "votes_count": 0, "ships_count": 0, "projects": [], "coding_time_seconds": 0, "coding_time_seconds_today": 0, "balance": "You need to have a pocket watcher badge to view this.", "badges": [], "created_at": "2025-06-17T05:38:27.839-04:00", "updated_at": "2025-07-03T19:37:38.421-04:00", "avatar": "https://secure.gravatar.com/avatar/8a5d7429c1fc68445a0d0813bad543b8.jpg?s=512&d=https%3A%2F%2Fa.slack-edge.com%2Fdf10d%2Fimg%2Favatars%2Fava_0005-512.png", "custom_css": null}, {"id": 5831, "slack_id": "U08SV1RCPD3", "display_name": "Shaheer Afaq", "bio": null, "projects_count": 0, "devlogs_count": 0, "votes_count": 0, "ships_count": 0, "projects": [], "coding_time_seconds": 299040, "coding_time_seconds_today": 0, "balance": "You need to have a pocket watcher badge to view this.", "badges": [], "created_at": "2025-06-17T05:39:36.751-04:00", "updated_at": "2025-07-03T19:37:38.683-04:00", "avatar": "https://avatars.slack-edge.com/2025-05-31/8977673942373_34a4939273740ef30839_original.jpg", "custom_css": null}, {"id": 5832, "slack_id": "U091LJD6NFM", "display_name": "Kannan M", "bio": null, "projects_count": 0, "devlogs_count": 0, "votes_count": 0, "ships_count": 0, "projects": [], "coding_time_seconds": 462051, "coding_time_seconds_today": 0, "balance": "You need to have a pocket watcher badge to view this.", "badges": [], "created_at": "2025-06-17T05:40:44.929-04:00", "updated_at": "2025-07-03T19:37:38.944-04:00", "avatar": "https://avatars.slack-edge.com/2025-06-17/9061471707778_d9c4eff10f36825ac052_original.jpg", "custom_css": null}, {"id": 5833, "slack_id": "U091RLL924D", "display_name": "Gabri", "bio": null, "projects_count": 1, "devlogs_count": 0, "votes_count": 0, "ships_count": 0, "projects": [{"id": 710, "title": "project", "devlogs_count": 0, "created_at": "2025-06-17T06:02:30.270-04:00"}], "coding_time_seconds": 4031, "coding_time_seconds_today": 161, "balance": "You need to have a pocket watcher badge to view this.", "badges": [], "created_at": "2025-06-17T05:40:53.422-04:00", "updated_at": "2025-07-03T19:37:39.210-04:00", "avatar": "https://avatars.slack-edge.com/2025-06-17/9061813484660_b18909567ba75585159a_original.png", "custom_css": null}, {"id": 5834, "slack_id": "U091LJG5WJF", "display_name": "tom tom", "bio": null, "projects_count": 0, "devlogs_count": 0, "votes_count": 0, "ships_count": 0, "projects": [], "coding_time_seconds": 0, "coding_time_seconds_today": 0, "balance": "You need to have a pocket watcher badge to view this.", "badges": [], "created_at": "2025-06-17T05:41:33.018-04:00", "updated_at": "2025-07-03T19:37:39.480-04:00", "avatar": "https://avatars.slack-edge.com/2025-06-17/9054785943974_10db3d1b208c8a20cd54_original.png", "custom_css": null}, {"id": 5835, "slack_id": "U091Q19EK9S", "display_name": "Akif T\u00fcfek\u00e7i", "bio": null, "projects_count": 0, "devlogs_count": 0, "votes_count": 0, "ships_count": 0, "projects": [], "coding_time_seconds": 0, "coding_time_seconds_today": 0, "balance": "You need to have a pocket watcher badge to view this.", "badges": [], "created_at": "2025-06-17T05:41:57.320-04:00", "updated_at": "2025-07-03T19:37:39.742-04:00", "avatar": "https://avatars.slack-edge.com/2025-06-17/9054788413046_aecd89bb0fd9e3ee0519_original.png", "custom_css": null}, {"id": 5836, "slack_id": "U091TPQJY76", "display_name": "JoostSchreuders", "bio": null, "projects_count": 1, "devlogs_count": 1, "votes_count": 0, "ships_count": 0, "projects": [{"id": 705, "title": "Calc", "devlogs_count": 1, "created_at": "2025-06-17T05:51:17.284-04:00"}], "coding_time_seconds": 22074, "coding_time_seconds_today": 0, "balance": "You need to have a pocket watcher badge to view this.", "badges": [], "created_at": "2025-06-17T05:42:42.345-04:00", "updated_at": "2025-07-03T21:43:24.893-04:00", "avatar": "https://secure.gravatar.com/avatar/9c3c5401738cdfab974d0552c7a5a34d.jpg?s=512&d=https%3A%2F%2Fa.slack-edge.com%2Fdf10d%2Fimg%2Favatars%2Fava_0024-512.png", "custom_css": null}, {"id": 5837, "slack_id": "U08SYMZ4HJ6", "display_name": "Henri", "bio": "Creator of the Selfmail Projects, including the open-source email provider, the webframework br\u00f6sel and the disposable email service trash.company.", "projects_count": 3, "devlogs_count": 34, "votes_count": 26, "ships_count": 1, "projects": [{"id": 1541, "title": "Br\u00f6sel", "devlogs_count": 14, "created_at": "2025-06-18T17:51:19.648-04:00"}, {"id": 4255, "title": "Selfmail", "devlogs_count": 17, "created_at": "2025-06-28T13:33:41.651-04:00"}, {"id": 6930, "title": "Portfolio", "devlogs_count": 3, "created_at": "2025-07-17T12:21:13.156-04:00"}], "coding_time_seconds": 522830, "coding_time_seconds_today": 0, "balance": "You need to have a pocket watcher badge to view this.", "badges": [{"name": "Maiden Voyage", "text": "you shipped your first project! the journey begins...", "icon": "\ud83d\udea2"}], "created_at": "2025-06-17T05:42:49.873-04:00", "updated_at": "2025-09-10T22:54:04.684-04:00", "avatar": "https://avatars.slack-edge.com/2025-05-18/8907964574790_2ca4b051931d72614950_original.png", "custom_css": null}, {"id": 5838, "slack_id": "U091C272GBZ", "display_name": "Hassaan", "bio": null, "projects_count": 0, "devlogs_count": 0, "votes_count": 0, "ships_count": 0, "projects": [], "coding_time_seconds": 0, "coding_time_seconds_today": 0, "balance": "You need to have a pocket watcher badge to view this.", "badges": [], "created_at": "2025-06-17T05:42:55.443-04:00", "updated_at": "2025-07-03T21:43:25.051-04:00", "avatar": "https://secure.gravatar.com/avatar/9ce7824a120f3c70d3047bf910202f08.jpg?s=512&d=https%3A%2F%2Fa.slack-edge.com%2Fdf10d%2Fimg%2Favatars%2Fava_0005-512.png", "custom_css": null}, {"id": 5839, "slack_id": "U091TDJ08LA", "display_name": "The Lunala", "bio": null, "projects_count": 0, "devlogs_count": 0, "votes_count": 0, "ships_count": 0, "projects": [], "coding_time_seconds": 0, "coding_time_seconds_today": 0, "balance": "You need to have a pocket watcher badge to view this.", "badges": [], "created_at": "2025-06-17T05:43:24.095-04:00", "updated_at": "2025-07-03T19:37:40.668-04:00", "avatar": "https://secure.gravatar.com/avatar/66cfd18a1eb98e3a099f21b8f8baa994.jpg?s=512&d=https%3A%2F%2Fa.slack-edge.com%2Fdf10d%2Fimg%2Favatars%2Fava_0023-512.png", "custom_css": null}, {"id": 5840, "slack_id": "U091LNFBCBG", "display_name": "xornamed", "bio": null, "projects_count": 0, "devlogs_count": 0, "votes_count": 0, "ships_count": 0, "projects": [], "coding_time_seconds": 0, "coding_time_seconds_today": 0, "balance": "You need to have a pocket watcher badge to view this.", "badges": [], "created_at": "2025-06-17T05:43:35.860-04:00", "updated_at": "2025-07-03T19:37:40.941-04:00", "avatar": "https://secure.gravatar.com/avatar/f4649f2fbf74a356d66054d7b3cae3d3.jpg?s=512&d=https%3A%2F%2Fa.slack-edge.com%2Fdf10d%2Fimg%2Favatars%2Fava_0020-512.png", "custom_css": null}], "pagination": {"page": 292, "pages": 1192, "count": 23828, "items": 20}}