{"users": [{"id": 5841, "slack_id": "U091LJM2UKV", "display_name": "2kybe3", "bio": null, "projects_count": 3, "devlogs_count": 25, "votes_count": 1, "ships_count": 1, "projects": [{"id": 806, "title": "kybes-bot", "devlogs_count": 12, "created_at": "2025-06-17T08:34:18.240-04:00"}, {"id": 1361, "title": "minecraft-server-scanner", "devlogs_count": 12, "created_at": "2025-06-18T11:54:27.615-04:00"}, {"id": 6120, "title": "password manager", "devlogs_count": 1, "created_at": "2025-07-10T16:24:14.266-04:00"}], "coding_time_seconds": 184777, "coding_time_seconds_today": 0, "balance": "You need to have a pocket watcher badge to view this.", "badges": [{"name": "Maiden Voyage", "text": "you shipped your first project! the journey begins...", "icon": "\ud83d\udea2"}], "created_at": "2025-06-17T05:43:48.691-04:00", "updated_at": "2025-09-10T22:54:04.817-04:00", "avatar": "https://secure.gravatar.com/avatar/e5ab5b105d7d875d7cfa7c3e01107a1e.jpg?s=512&d=https%3A%2F%2Fa.slack-edge.com%2Fdf10d%2Fimg%2Favatars%2Fava_0015-512.png", "custom_css": null}, {"id": 5842, "slack_id": "U07DJMFAQQP", "display_name": "tongyu", "bio": null, "projects_count": 0, "devlogs_count": 0, "votes_count": 0, "ships_count": 0, "projects": [], "coding_time_seconds": 233805, "coding_time_seconds_today": 0, "balance": "You need to have a pocket watcher badge to view this.", "badges": [], "created_at": "2025-06-17T05:44:22.341-04:00", "updated_at": "2025-08-05T19:00:25.266-04:00", "avatar": "https://avatars.slack-edge.com/2025-06-02/8975758952691_aefb8094542ffeac2101_original.png", "custom_css": null}, {"id": 5843, "slack_id": "U091TDQHQ0J", "display_name": "Sebastian Dopona", "bio": null, "projects_count": 0, "devlogs_count": 0, "votes_count": 0, "ships_count": 0, "projects": [], "coding_time_seconds": 0, "coding_time_seconds_today": 0, "balance": "You need to have a pocket watcher badge to view this.", "badges": [], "created_at": "2025-06-17T05:44:42.271-04:00", "updated_at": "2025-07-03T19:37:41.749-04:00", "avatar": "https://secure.gravatar.com/avatar/37a90fdb499f5a17d5cabb0db5fab264.jpg?s=512&d=https%3A%2F%2Fa.slack-edge.com%2Fdf10d%2Fimg%2Favatars%2Fava_0026-512.png", "custom_css": null}, {"id": 5844, "slack_id": "U092FQW6WM6", "display_name": "MishraHarshdeep", "bio": null, "projects_count": 0, "devlogs_count": 0, "votes_count": 0, "ships_count": 0, "projects": [], "coding_time_seconds": 0, "coding_time_seconds_today": 0, "balance": "You need to have a pocket watcher badge to view this.", "badges": [], "created_at": "2025-06-17T05:45:09.047-04:00", "updated_at": "2025-07-03T19:37:42.023-04:00", "avatar": "https://secure.gravatar.com/avatar/623c51dc60b02fb53e2b12fe59cfc506.jpg?s=512&d=https%3A%2F%2Fa.slack-edge.com%2Fdf10d%2Fimg%2Favatars%2Fava_0009-512.png", "custom_css": null}, {"id": 5845, "slack_id": "U091C275UCF", "display_name": "pheonix", "bio": null, "projects_count": 0, "devlogs_count": 0, "votes_count": 0, "ships_count": 0, "projects": [], "coding_time_seconds": 0, "coding_time_seconds_today": 0, "balance": "You need to have a pocket watcher badge to view this.", "badges": [], "created_at": "2025-06-17T05:45:16.958-04:00", "updated_at": "2025-07-03T19:37:42.292-04:00", "avatar": "https://secure.gravatar.com/avatar/68b7ffc9f2590ad6b13f056ab16d1bec.jpg?s=512&d=https%3A%2F%2Fa.slack-edge.com%2Fdf10d%2Fimg%2Favatars%2Fava_0000-512.png", "custom_css": null}, {"id": 5846, "slack_id": "U092FQQ82MN", "display_name": "Rahul Parida", "bio": null, "projects_count": 0, "devlogs_count": 0, "votes_count": 0, "ships_count": 0, "projects": [], "coding_time_seconds": 1158, "coding_time_seconds_today": 0, "balance": "You need to have a pocket watcher badge to view this.", "badges": [], "created_at": "2025-06-17T05:45:20.521-04:00", "updated_at": "2025-07-03T22:33:56.027-04:00", "avatar": "https://secure.gravatar.com/avatar/77d237d5b0958fa989ad990320787287.jpg?s=512&d=https%3A%2F%2Fa.slack-edge.com%2Fdf10d%2Fimg%2Favatars%2Fava_0011-512.png", "custom_css": null}, {"id": 5847, "slack_id": "U081RE37QEB", "display_name": "kl", "bio": null, "projects_count": 0, "devlogs_count": 0, "votes_count": 0, "ships_count": 0, "projects": [], "coding_time_seconds": 47438, "coding_time_seconds_today": 0, "balance": "You need to have a pocket watcher badge to view this.", "badges": [], "created_at": "2025-06-17T05:46:32.745-04:00", "updated_at": "2025-08-16T02:28:11.661-04:00", "avatar": "https://avatars.slack-edge.com/2025-08-15/9360403293861_df29d445bbc8ddc593f1_original.png", "custom_css": null}, {"id": 5848, "slack_id": "U081XK0NETD", "display_name": "Jto", "bio": null, "projects_count": 3, "devlogs_count": 11, "votes_count": 40, "ships_count": 2, "projects": [{"id": 1092, "title": "libtui", "devlogs_count": 6, "created_at": "2025-06-17T15:53:46.126-04:00"}, {"id": 10809, "title": "vault", "devlogs_count": 1, "created_at": "2025-08-11T03:26:13.845-04:00"}, {"id": 4399, "title": "td", "devlogs_count": 4, "created_at": "2025-06-29T16:01:30.454-04:00"}], "coding_time_seconds": 464436, "coding_time_seconds_today": 0, "balance": "You need to have a pocket watcher badge to view this.", "badges": [{"name": "Maiden Voyage", "text": "you shipped your first project! the journey begins...", "icon": "\ud83d\udea2"}], "created_at": "2025-06-17T05:46:39.494-04:00", "updated_at": "2025-09-10T22:54:05.036-04:00", "avatar": "https://secure.gravatar.com/avatar/3c5c340120792d6614e6fca26eb37a12.jpg?s=512&d=https%3A%2F%2Fa.slack-edge.com%2Fdf10d%2Fimg%2Favatars%2Fava_0019-512.png", "custom_css": null}, {"id": 5849, "slack_id": "U081Z75RX97", "display_name": "Erik", "bio": null, "projects_count": 2, "devlogs_count": 2, "votes_count": 20, "ships_count": 1, "projects": [{"id": 1949, "title": "Uno Online", "devlogs_count": 0, "created_at": "2025-06-19T17:14:04.525-04:00"}, {"id": 3512, "title": "Jellyfin Universal Plugin Repo", "devlogs_count": 2, "created_at": "2025-06-24T14:43:01.033-04:00"}], "coding_time_seconds": 88941, "coding_time_seconds_today": 0, "balance": "You need to have a pocket watcher badge to view this.", "badges": [{"name": "Maiden Voyage", "text": "you shipped your first project! the journey begins...", "icon": "\ud83d\udea2"}], "created_at": "2025-06-17T05:46:57.985-04:00", "updated_at": "2025-09-10T22:54:05.061-04:00", "avatar": "https://avatars.slack-edge.com/2024-11-28/8097989836579_2b3dda7efdf67547651e_original.png", "custom_css": null}, {"id": 5850, "slack_id": "U07DG5AQ0RK", "display_name": "Hat Dealer", "bio": "I like coding and stuff", "projects_count": 1, "devlogs_count": 35, "votes_count": 62, "ships_count": 1, "projects": [{"id": 930, "title": "VoxaEngine - C++ 2D Game Engine", "devlogs_count": 35, "created_at": "2025-06-17T11:40:44.415-04:00"}], "coding_time_seconds": 507550, "coding_time_seconds_today": 348, "balance": "You need to have a pocket watcher badge to view this.", "badges": [{"name": "Maiden Voyage", "text": "you shipped your first project! the journey begins...", "icon": "\ud83d\udea2"}, {"name": "Yapper I", "text": "Posted 10 comments on devlogs.", "icon": "\ud83d\udcac"}], "created_at": "2025-06-17T05:47:38.321-04:00", "updated_at": "2025-09-10T22:54:05.096-04:00", "avatar": "https://avatars.slack-edge.com/2025-05-30/8980670397188_afd3aeefffdf1868256a_original.png", "custom_css": null}, {"id": 5851, "slack_id": "U08KPHZT0N4", "display_name": "Naran", "bio": null, "projects_count": 1, "devlogs_count": 1, "votes_count": 8, "ships_count": 1, "projects": [{"id": 11028, "title": "Smart Task Reminder & Journal Writing", "devlogs_count": 1, "created_at": "2025-08-12T13:29:55.251-04:00"}], "coding_time_seconds": 90289, "coding_time_seconds_today": 0, "balance": "You need to have a pocket watcher badge to view this.", "badges": [{"name": "Maiden Voyage", "text": "you shipped your first project! the journey begins...", "icon": "\ud83d\udea2"}], "created_at": "2025-06-17T05:48:08.385-04:00", "updated_at": "2025-09-10T22:54:05.126-04:00", "avatar": "https://avatars.slack-edge.com/2025-04-07/8720332079652_6ec68352d4eb2916c8ff_original.png", "custom_css": null}, {"id": 5852, "slack_id": "U0919CBSWJK", "display_name": "mustafazade", "bio": null, "projects_count": 0, "devlogs_count": 0, "votes_count": 0, "ships_count": 0, "projects": [], "coding_time_seconds": 0, "coding_time_seconds_today": 0, "balance": "You need to have a pocket watcher badge to view this.", "badges": [], "created_at": "2025-06-17T05:48:15.398-04:00", "updated_at": "2025-07-03T19:37:44.058-04:00", "avatar": "https://secure.gravatar.com/avatar/1f335a85490db0b5aba343461f8c026d.jpg?s=512&d=https%3A%2F%2Fa.slack-edge.com%2Fdf10d%2Fimg%2Favatars%2Fava_0006-512.png", "custom_css": null}, {"id": 5853, "slack_id": "U091LPLKZ0W", "display_name": "Emin", "bio": null, "projects_count": 0, "devlogs_count": 0, "votes_count": 0, "ships_count": 0, "projects": [], "coding_time_seconds": 0, "coding_time_seconds_today": 0, "balance": "You need to have a pocket watcher badge to view this.", "badges": [], "created_at": "2025-06-17T05:48:31.851-04:00", "updated_at": "2025-07-03T19:37:44.324-04:00", "avatar": "https://secure.gravatar.com/avatar/4804659414d884ea0eb9eba122befa88.jpg?s=512&d=https%3A%2F%2Fa.slack-edge.com%2Fdf10d%2Fimg%2Favatars%2Fava_0007-512.png", "custom_css": null}, {"id": 5854, "slack_id": "U091LPVHBQW", "display_name": "Davi Nascimento", "bio": null, "projects_count": 0, "devlogs_count": 0, "votes_count": 0, "ships_count": 0, "projects": [], "coding_time_seconds": 0, "coding_time_seconds_today": 0, "balance": "You need to have a pocket watcher badge to view this.", "badges": [], "created_at": "2025-06-17T05:48:49.043-04:00", "updated_at": "2025-07-04T02:24:58.541-04:00", "avatar": "https://secure.gravatar.com/avatar/bd3be6f6638712c6405b7155d1fd8b50.jpg?s=512&d=https%3A%2F%2Fa.slack-edge.com%2Fdf10d%2Fimg%2Favatars%2Fava_0004-512.png", "custom_css": null}, {"id": 5855, "slack_id": "U091TQ3FZJQ", "display_name": "Mihai780", "bio": null, "projects_count": 0, "devlogs_count": 0, "votes_count": 0, "ships_count": 0, "projects": [], "coding_time_seconds": 0, "coding_time_seconds_today": 0, "balance": "You need to have a pocket watcher badge to view this.", "badges": [], "created_at": "2025-06-17T05:48:58.548-04:00", "updated_at": "2025-07-03T19:37:44.732-04:00", "avatar": "https://secure.gravatar.com/avatar/fa4f02d9bc84c88ef3948136b6185916.jpg?s=512&d=https%3A%2F%2Fa.slack-edge.com%2Fdf10d%2Fimg%2Favatars%2Fava_0018-512.png", "custom_css": null}, {"id": 5856, "slack_id": "U091LNS58HL", "display_name": "il Dev", "bio": null, "projects_count": 0, "devlogs_count": 0, "votes_count": 0, "ships_count": 0, "projects": [], "coding_time_seconds": 0, "coding_time_seconds_today": 0, "balance": "You need to have a pocket watcher badge to view this.", "badges": [], "created_at": "2025-06-17T05:49:22.322-04:00", "updated_at": "2025-07-03T19:37:44.996-04:00", "avatar": "https://avatars.slack-edge.com/2025-06-17/9054824743222_d6fc2fcfe2dc0f94f8b5_original.jpg", "custom_css": null}, {"id": 5857, "slack_id": "U080EMT6W4W", "display_name": "5nsou", "bio": null, "projects_count": 0, "devlogs_count": 0, "votes_count": 0, "ships_count": 0, "projects": [], "coding_time_seconds": 0, "coding_time_seconds_today": 0, "balance": "You need to have a pocket watcher badge to view this.", "badges": [], "created_at": "2025-06-17T05:49:33.398-04:00", "updated_at": "2025-07-03T19:37:45.265-04:00", "avatar": "https://secure.gravatar.com/avatar/8108966b2c867b8cc7a7cfd74626ab34.jpg?s=512&d=https%3A%2F%2Fa.slack-edge.com%2Fdf10d%2Fimg%2Favatars%2Fava_0022-512.png", "custom_css": null}, {"id": 5858, "slack_id": "U092FRE9FT2", "display_name": "Prince Raj", "bio": null, "projects_count": 0, "devlogs_count": 0, "votes_count": 0, "ships_count": 0, "projects": [], "coding_time_seconds": 0, "coding_time_seconds_today": 0, "balance": "You need to have a pocket watcher badge to view this.", "badges": [], "created_at": "2025-06-17T05:49:57.094-04:00", "updated_at": "2025-07-03T21:43:26.436-04:00", "avatar": "https://avatars.slack-edge.com/2025-06-17/9054687990611_bbb07d747103217d7882_original.png", "custom_css": null}, {"id": 5859, "slack_id": "U08JRBF04BY", "display_name": "jaco0x00", "bio": null, "projects_count": 1, "devlogs_count": 0, "votes_count": 2, "ships_count": 0, "projects": [{"id": 937, "title": "hackclub-books", "devlogs_count": 0, "created_at": "2025-06-17T11:49:23.285-04:00"}], "coding_time_seconds": 12128, "coding_time_seconds_today": 0, "balance": "You need to have a pocket watcher badge to view this.", "badges": [], "created_at": "2025-06-17T05:49:59.419-04:00", "updated_at": "2025-07-05T20:06:58.279-04:00", "avatar": "https://avatars.slack-edge.com/2025-06-11/9017584557783_49cd53d306b62880bfd2_original.png", "custom_css": null}, {"id": 5860, "slack_id": "U08RU0VDT5Z", "display_name": "Rishan", "bio": null, "projects_count": 2, "devlogs_count": 16, "votes_count": 16, "ships_count": 1, "projects": [{"id": 13015, "title": "Hackpad firmware app", "devlogs_count": 9, "created_at": "2025-09-06T23:37:37.658-04:00"}, {"id": 6368, "title": "Black Jack", "devlogs_count": 7, "created_at": "2025-07-12T18:22:44.207-04:00"}], "coding_time_seconds": 107938, "coding_time_seconds_today": 4512, "balance": "You need to have a pocket watcher badge to view this.", "badges": [{"name": "Maiden Voyage", "text": "you shipped your first project! the journey begins...", "icon": "\ud83d\udea2"}], "created_at": "2025-06-17T05:51:16.781-04:00", "updated_at": "2025-09-11T22:17:31.894-04:00", "avatar": "https://secure.gravatar.com/avatar/c8de25ac8261f4eb3c6b5d79985b03bc.jpg?s=512&d=https%3A%2F%2Fa.slack-edge.com%2Fdf10d%2Fimg%2Favatars%2Fava_0024-512.png", "custom_css": null}], "pagination": {"page": 293, "pages": 1192, "count": 23828, "items": 20}}