{"users": [{"id": 5861, "slack_id": "U091TQYNKHS", "display_name": "Yohan", "bio": null, "projects_count": 0, "devlogs_count": 0, "votes_count": 0, "ships_count": 0, "projects": [], "coding_time_seconds": 111240, "coding_time_seconds_today": 0, "balance": "You need to have a pocket watcher badge to view this.", "badges": [], "created_at": "2025-06-17T05:51:32.283-04:00", "updated_at": "2025-07-03T19:37:45.970-04:00", "avatar": "https://secure.gravatar.com/avatar/0056dda7b16a4af341229177cfcef9d0.jpg?s=512&d=https%3A%2F%2Fa.slack-edge.com%2Fdf10d%2Fimg%2Favatars%2Fava_0021-512.png", "custom_css": null}, {"id": 5862, "slack_id": "U08DM53NDTN", "display_name": "kerolos micyhelle", "bio": null, "projects_count": 1, "devlogs_count": 1, "votes_count": 0, "ships_count": 1, "projects": [{"id": 1648, "title": "Voltify", "devlogs_count": 1, "created_at": "2025-06-18T23:52:52.086-04:00"}], "coding_time_seconds": 124984, "coding_time_seconds_today": 5110, "balance": "You need to have a pocket watcher badge to view this.", "badges": [{"name": "Maiden Voyage", "text": "you shipped your first project! the journey begins...", "icon": "\ud83d\udea2"}], "created_at": "2025-06-17T05:51:39.484-04:00", "updated_at": "2025-09-10T22:54:05.427-04:00", "avatar": "https://avatars.slack-edge.com/2025-02-16/8446075320535_dfb12b246be42cdd7a7e_original.png", "custom_css": null}, {"id": 5863, "slack_id": "U08RN27SLMQ", "display_name": "Kanishk Vanza", "bio": null, "projects_count": 1, "devlogs_count": 0, "votes_count": 0, "ships_count": 0, "projects": [{"id": 859, "title": "Snipzy", "devlogs_count": 0, "created_at": "2025-06-17T09:55:50.658-04:00"}], "coding_time_seconds": 1356, "coding_time_seconds_today": 0, "balance": "You need to have a pocket watcher badge to view this.", "badges": [], "created_at": "2025-06-17T05:51:41.909-04:00", "updated_at": "2025-07-03T19:37:46.515-04:00", "avatar": "https://avatars.slack-edge.com/2025-05-08/8868083144869_ecc9a4d266d03e37cf73_original.jpg", "custom_css": null}, {"id": 5864, "slack_id": "U091C33LLP9", "display_name": "Theoyu", "bio": null, "projects_count": 0, "devlogs_count": 0, "votes_count": 0, "ships_count": 0, "projects": [], "coding_time_seconds": 0, "coding_time_seconds_today": 0, "balance": "You need to have a pocket watcher badge to view this.", "badges": [], "created_at": "2025-06-17T05:52:38.932-04:00", "updated_at": "2025-07-03T19:37:46.776-04:00", "avatar": "https://secure.gravatar.com/avatar/9ae4055b8efcc5da79f3e3385e711cd7.jpg?s=512&d=https%3A%2F%2Fa.slack-edge.com%2Fdf10d%2Fimg%2Favatars%2Fava_0006-512.png", "custom_css": null}, {"id": 5865, "slack_id": "U091LL4NM5H", "display_name": "Nulu Veera Manicharan", "bio": null, "projects_count": 0, "devlogs_count": 0, "votes_count": 0, "ships_count": 0, "projects": [], "coding_time_seconds": 37574, "coding_time_seconds_today": 0, "balance": "You need to have a pocket watcher badge to view this.", "badges": [], "created_at": "2025-06-17T05:53:10.914-04:00", "updated_at": "2025-07-03T19:37:47.034-04:00", "avatar": "https://avatars.slack-edge.com/2025-06-17/9061526863362_655fc20dea046d6f163d_original.png", "custom_css": null}, {"id": 5866, "slack_id": "U091TR53TEG", "display_name": "Gagneet Kaur", "bio": null, "projects_count": 0, "devlogs_count": 0, "votes_count": 0, "ships_count": 0, "projects": [], "coding_time_seconds": 0, "coding_time_seconds_today": 0, "balance": "You need to have a pocket watcher badge to view this.", "badges": [], "created_at": "2025-06-17T05:53:15.180-04:00", "updated_at": "2025-07-03T19:37:47.298-04:00", "avatar": "https://secure.gravatar.com/avatar/0819f978eee916a2036a503fc21ce65f.jpg?s=512&d=https%3A%2F%2Fa.slack-edge.com%2Fdf10d%2Fimg%2Favatars%2Fava_0000-512.png", "custom_css": null}, {"id": 5867, "slack_id": "U091RLZEVK7", "display_name": "Yash Vinayak", "bio": null, "projects_count": 0, "devlogs_count": 0, "votes_count": 0, "ships_count": 0, "projects": [], "coding_time_seconds": 24943, "coding_time_seconds_today": 0, "balance": "You need to have a pocket watcher badge to view this.", "badges": [], "created_at": "2025-06-17T05:53:22.733-04:00", "updated_at": "2025-07-04T08:21:11.434-04:00", "avatar": "https://secure.gravatar.com/avatar/a262faaa460f8ab754893ee8e6292615.jpg?s=512&d=https%3A%2F%2Fa.slack-edge.com%2Fdf10d%2Fimg%2Favatars%2Fava_0024-512.png", "custom_css": null}, {"id": 5868, "slack_id": "U092627C6MP", "display_name": "CaptainDeathead", "bio": null, "projects_count": 4, "devlogs_count": 11, "votes_count": 24, "ships_count": 2, "projects": [{"id": 722, "title": "Plaching", "devlogs_count": 0, "created_at": "2025-06-17T06:27:08.259-04:00"}, {"id": 727, "title": "Farm CEO", "devlogs_count": 9, "created_at": "2025-06-17T06:34:17.592-04:00"}, {"id": 1323, "title": "Molten", "devlogs_count": 0, "created_at": "2025-06-18T08:30:59.420-04:00"}, {"id": 2537, "title": "cLOC", "devlogs_count": 2, "created_at": "2025-06-21T08:58:54.467-04:00"}], "coding_time_seconds": 281665, "coding_time_seconds_today": 0, "balance": "You need to have a pocket watcher badge to view this.", "badges": [{"name": "Maiden Voyage", "text": "you shipped your first project! the journey begins...", "icon": "\ud83d\udea2"}], "created_at": "2025-06-17T05:55:23.123-04:00", "updated_at": "2025-09-23T22:40:42.100-04:00", "avatar": "https://avatars.slack-edge.com/2025-06-17/9074321041329_dadfce3718209c0d75e4_original.png", "custom_css": null}, {"id": 5869, "slack_id": "U091RNF1UDB", "display_name": "boe", "bio": null, "projects_count": 0, "devlogs_count": 0, "votes_count": 0, "ships_count": 0, "projects": [], "coding_time_seconds": 33136, "coding_time_seconds_today": 0, "balance": "You need to have a pocket watcher badge to view this.", "badges": [], "created_at": "2025-06-17T05:55:42.808-04:00", "updated_at": "2025-07-03T19:37:47.978-04:00", "avatar": "https://secure.gravatar.com/avatar/eb90d884b1578fdb0e15daa922cad450.jpg?s=512&d=https%3A%2F%2Fa.slack-edge.com%2Fdf10d%2Fimg%2Favatars%2Fava_0002-512.png", "custom_css": null}, {"id": 5870, "slack_id": "U091TF95ZNW", "display_name": "Vidhun Kulasekera", "bio": null, "projects_count": 0, "devlogs_count": 0, "votes_count": 0, "ships_count": 0, "projects": [], "coding_time_seconds": 0, "coding_time_seconds_today": 0, "balance": "You need to have a pocket watcher badge to view this.", "badges": [], "created_at": "2025-06-17T05:55:46.442-04:00", "updated_at": "2025-07-03T19:37:48.233-04:00", "avatar": "https://secure.gravatar.com/avatar/faaa688159bddd2fee9646f0a9603866.jpg?s=512&d=https%3A%2F%2Fa.slack-edge.com%2Fdf10d%2Fimg%2Favatars%2Fava_0009-512.png", "custom_css": null}, {"id": 5871, "slack_id": "U079T44A9GD", "display_name": "Irene", "bio": null, "projects_count": 0, "devlogs_count": 0, "votes_count": 0, "ships_count": 0, "projects": [], "coding_time_seconds": 0, "coding_time_seconds_today": 0, "balance": "You need to have a pocket watcher badge to view this.", "badges": [], "created_at": "2025-06-17T05:55:49.923-04:00", "updated_at": "2025-07-26T05:19:49.033-04:00", "avatar": "https://secure.gravatar.com/avatar/087b6688f61dfed993fbbdcc22eed778.jpg?s=512&d=https%3A%2F%2Fa.slack-edge.com%2Fdf10d%2Fimg%2Favatars%2Fava_0015-512.png", "custom_css": null}, {"id": 5872, "slack_id": "U082SUBC205", "display_name": "HassaanKH", "bio": "Just a Panda \ud83d\udc3c.", "projects_count": 8, "devlogs_count": 125, "votes_count": 212, "ships_count": 8, "projects": [{"id": 12141, "title": "Treasure Trek - Geocaching App", "devlogs_count": 11, "created_at": "2025-08-23T14:01:05.327-04:00"}, {"id": 13275, "title": "CaloriesGPT", "devlogs_count": 17, "created_at": "2025-09-13T04:10:15.700-04:00"}, {"id": 12806, "title": "Habit Rabbit - Gamified Habit App", "devlogs_count": 13, "created_at": "2025-09-03T01:00:27.337-04:00"}, {"id": 9956, "title": "ASCII Video Converter", "devlogs_count": 6, "created_at": "2025-08-03T06:20:34.780-04:00"}, {"id": 10634, "title": "AI Fella", "devlogs_count": 4, "created_at": "2025-08-09T06:44:56.944-04:00"}, {"id": 11649, "title": "Treasure Trek", "devlogs_count": 5, "created_at": "2025-08-18T04:22:04.192-04:00"}, {"id": 720, "title": "KontentFlow - AI Content OS", "devlogs_count": 47, "created_at": "2025-06-17T06:20:54.466-04:00"}, {"id": 10944, "title": "Appetite AI", "devlogs_count": 13, "created_at": "2025-08-12T00:52:43.921-04:00"}], "coding_time_seconds": 1682240, "coding_time_seconds_today": 1979, "balance": "You need to have a pocket watcher badge to view this.", "badges": [{"name": "Maiden Voyage", "text": "you shipped your first project! the journey begins...", "icon": "\ud83d\udea2"}, {"name": "Ballot Stuffer", "text": "vote 100 times.", "icon": "https://summer.hackclub.com/assets/i_voted-bf851b48.png"}], "created_at": "2025-06-17T05:56:23.599-04:00", "updated_at": "2025-09-10T22:54:05.700-04:00", "avatar": "https://secure.gravatar.com/avatar/688aa179ec7c74dff94181c70d7d4f6e.jpg?s=512&d=https%3A%2F%2Fa.slack-edge.com%2Fdf10d%2Fimg%2Favatars%2Fava_0010-512.png", "custom_css": null}, {"id": 5873, "slack_id": "U091C3YGRQF", "display_name": "Keith Mercado", "bio": null, "projects_count": 0, "devlogs_count": 0, "votes_count": 0, "ships_count": 0, "projects": [], "coding_time_seconds": 0, "coding_time_seconds_today": 0, "balance": "You need to have a pocket watcher badge to view this.", "badges": [], "created_at": "2025-06-17T05:56:28.058-04:00", "updated_at": "2025-07-03T19:37:49.050-04:00", "avatar": "https://avatars.slack-edge.com/2025-06-17/9054857530150_69cfc79fc44925094cce_original.jpg", "custom_css": null}, {"id": 5874, "slack_id": "U09262FL83B", "display_name": "Techie Ernie", "bio": null, "projects_count": 0, "devlogs_count": 0, "votes_count": 0, "ships_count": 0, "projects": [], "coding_time_seconds": 49056, "coding_time_seconds_today": 0, "balance": "You need to have a pocket watcher badge to view this.", "badges": [], "created_at": "2025-06-17T05:56:58.066-04:00", "updated_at": "2025-07-03T19:37:49.312-04:00", "avatar": "https://secure.gravatar.com/avatar/ffb7c62753bf484bff3ebae05cf171ff.jpg?s=512&d=https%3A%2F%2Fa.slack-edge.com%2Fdf10d%2Fimg%2Favatars%2Fava_0018-512.png", "custom_css": null}, {"id": 5875, "slack_id": "U091TRPGUVA", "display_name": "Anshul", "bio": null, "projects_count": 0, "devlogs_count": 0, "votes_count": 0, "ships_count": 0, "projects": [], "coding_time_seconds": 0, "coding_time_seconds_today": 0, "balance": "You need to have a pocket watcher badge to view this.", "badges": [], "created_at": "2025-06-17T05:57:04.889-04:00", "updated_at": "2025-07-03T19:37:49.576-04:00", "avatar": "https://secure.gravatar.com/avatar/d118e592d792788d4b76f1bdba9a3700.jpg?s=512&d=https%3A%2F%2Fa.slack-edge.com%2Fdf10d%2Fimg%2Favatars%2Fava_0002-512.png", "custom_css": null}, {"id": 5876, "slack_id": "U091HSDT86S", "display_name": "Ashaba Jasper", "bio": null, "projects_count": 0, "devlogs_count": 0, "votes_count": 0, "ships_count": 0, "projects": [], "coding_time_seconds": 0, "coding_time_seconds_today": 0, "balance": "You need to have a pocket watcher badge to view this.", "badges": [], "created_at": "2025-06-17T05:57:25.990-04:00", "updated_at": "2025-07-04T02:25:00.036-04:00", "avatar": "https://secure.gravatar.com/avatar/fe4112c106939f1f70f3d41491be8e36.jpg?s=512&d=https%3A%2F%2Fa.slack-edge.com%2Fdf10d%2Fimg%2Favatars%2Fava_0022-512.png", "custom_css": null}, {"id": 5877, "slack_id": "U091T17824S", "display_name": "Andrew Cr", "bio": null, "projects_count": 0, "devlogs_count": 0, "votes_count": 0, "ships_count": 0, "projects": [], "coding_time_seconds": 0, "coding_time_seconds_today": 0, "balance": "You need to have a pocket watcher badge to view this.", "badges": [], "created_at": "2025-06-17T05:57:33.851-04:00", "updated_at": "2025-07-03T19:37:49.988-04:00", "avatar": "https://secure.gravatar.com/avatar/e44b5f9f95659794cc1cd9f1823aaf3e.jpg?s=512&d=https%3A%2F%2Fa.slack-edge.com%2Fdf10d%2Fimg%2Favatars%2Fava_0004-512.png", "custom_css": null}, {"id": 5878, "slack_id": "U091LGZAVML", "display_name": "Abhishek Yadav", "bio": null, "projects_count": 0, "devlogs_count": 0, "votes_count": 0, "ships_count": 0, "projects": [], "coding_time_seconds": 0, "coding_time_seconds_today": 0, "balance": "You need to have a pocket watcher badge to view this.", "badges": [], "created_at": "2025-06-17T05:57:35.761-04:00", "updated_at": "2025-07-03T19:37:50.260-04:00", "avatar": "https://secure.gravatar.com/avatar/6da2a7e21a14a710c6eb5f63995611d9.jpg?s=512&d=https%3A%2F%2Fa.slack-edge.com%2Fdf10d%2Fimg%2Favatars%2Fava_0023-512.png", "custom_css": null}, {"id": 5879, "slack_id": "U092FSFUE2U", "display_name": "Mattia", "bio": null, "projects_count": 0, "devlogs_count": 0, "votes_count": 0, "ships_count": 0, "projects": [], "coding_time_seconds": 22738, "coding_time_seconds_today": 0, "balance": "You need to have a pocket watcher badge to view this.", "badges": [], "created_at": "2025-06-17T05:58:17.294-04:00", "updated_at": "2025-07-03T19:37:50.523-04:00", "avatar": "https://secure.gravatar.com/avatar/96fe8b7eba64174fe38855ce64856cbc.jpg?s=512&d=https%3A%2F%2Fa.slack-edge.com%2Fdf10d%2Fimg%2Favatars%2Fava_0009-512.png", "custom_css": null}, {"id": 5880, "slack_id": "U091TFRDU1Y", "display_name": "Dhairya Shah", "bio": null, "projects_count": 0, "devlogs_count": 0, "votes_count": 0, "ships_count": 0, "projects": [], "coding_time_seconds": 29944, "coding_time_seconds_today": 0, "balance": "You need to have a pocket watcher badge to view this.", "badges": [], "created_at": "2025-06-17T05:58:43.449-04:00", "updated_at": "2025-07-03T19:37:50.784-04:00", "avatar": "https://avatars.slack-edge.com/2025-06-17/9054958672006_7845623e8bb18ff05b14_original.jpg", "custom_css": null}], "pagination": {"page": 294, "pages": 1192, "count": 23828, "items": 20}}