{"users": [{"id": 5881, "slack_id": "U087J0K402C", "display_name": "Xarom _PL", "bio": null, "projects_count": 0, "devlogs_count": 16, "votes_count": 22, "ships_count": 0, "projects": [], "coding_time_seconds": 506949, "coding_time_seconds_today": 0, "balance": "You need to have a pocket watcher badge to view this.", "badges": [{"name": "Maiden Voyage", "text": "you shipped your first project! the journey begins...", "icon": "\ud83d\udea2"}], "created_at": "2025-06-17T05:58:47.406-04:00", "updated_at": "2025-09-10T22:54:05.951-04:00", "avatar": "https://avatars.slack-edge.com/2024-12-30/8235720024116_7bcf6254347e0e3a1c0b_original.jpg", "custom_css": null}, {"id": 5882, "slack_id": "U091RNR157X", "display_name": "Ella Cheng", "bio": null, "projects_count": 0, "devlogs_count": 0, "votes_count": 0, "ships_count": 0, "projects": [], "coding_time_seconds": 84500, "coding_time_seconds_today": 0, "balance": "You need to have a pocket watcher badge to view this.", "badges": [], "created_at": "2025-06-17T05:59:25.219-04:00", "updated_at": "2025-07-03T21:43:28.059-04:00", "avatar": "https://secure.gravatar.com/avatar/13e6533472412360cb1b31c5d583a0fa.jpg?s=512&d=https%3A%2F%2Fa.slack-edge.com%2Fdf10d%2Fimg%2Favatars%2Fava_0011-512.png", "custom_css": null}, {"id": 5883, "slack_id": "U091RN33TAR", "display_name": "Yavuz Selim", "bio": null, "projects_count": 1, "devlogs_count": 0, "votes_count": 13, "ships_count": 0, "projects": [{"id": 716, "title": "PrayerMate", "devlogs_count": 0, "created_at": "2025-06-17T06:15:48.553-04:00"}], "coding_time_seconds": 5874, "coding_time_seconds_today": 0, "balance": "You need to have a pocket watcher badge to view this.", "badges": [], "created_at": "2025-06-17T05:59:26.643-04:00", "updated_at": "2025-07-03T19:37:51.439-04:00", "avatar": "https://secure.gravatar.com/avatar/80d986b77d8cfb25e48ce674afa8ea74.jpg?s=512&d=https%3A%2F%2Fa.slack-edge.com%2Fdf10d%2Fimg%2Favatars%2Fava_0008-512.png", "custom_css": null}, {"id": 5884, "slack_id": "U082JLZ3ZNV", "display_name": "Nishanth S.A", "bio": null, "projects_count": 0, "devlogs_count": 0, "votes_count": 0, "ships_count": 0, "projects": [], "coding_time_seconds": 0, "coding_time_seconds_today": 0, "balance": "You need to have a pocket watcher badge to view this.", "badges": [], "created_at": "2025-06-17T05:59:46.994-04:00", "updated_at": "2025-07-03T19:37:51.710-04:00", "avatar": "https://avatars.slack-edge.com/2024-11-26/8098635031697_7d94f22bb4c6479c6917_original.jpg", "custom_css": null}, {"id": 5885, "slack_id": "U091P6L72AE", "display_name": "Dorian Figueiras", "bio": "17yo French dev", "projects_count": 3, "devlogs_count": 4, "votes_count": 24, "ships_count": 2, "projects": [{"id": 8582, "title": "DEVOS", "devlogs_count": 1, "created_at": "2025-07-28T10:19:54.656-04:00"}, {"id": 13504, "title": "TuturisWeb", "devlogs_count": 1, "created_at": "2025-09-18T03:35:27.241-04:00"}, {"id": 6419, "title": "Tuturis", "devlogs_count": 2, "created_at": "2025-07-13T05:50:59.258-04:00"}], "coding_time_seconds": 188973, "coding_time_seconds_today": 0, "balance": "You need to have a pocket watcher badge to view this.", "badges": [{"name": "Maiden Voyage", "text": "you shipped your first project! the journey begins...", "icon": "\ud83d\udea2"}], "created_at": "2025-06-17T05:59:50.905-04:00", "updated_at": "2025-09-14T10:14:31.052-04:00", "avatar": "https://avatars.slack-edge.com/2025-06-17/9059801429045_377c07ce335cc1bcf6b1_original.png", "custom_css": null}, {"id": 5886, "slack_id": "U091TFW0X9Q", "display_name": "Ali", "bio": null, "projects_count": 0, "devlogs_count": 0, "votes_count": 0, "ships_count": 0, "projects": [], "coding_time_seconds": 0, "coding_time_seconds_today": 0, "balance": "You need to have a pocket watcher badge to view this.", "badges": [], "created_at": "2025-06-17T06:00:32.147-04:00", "updated_at": "2025-07-03T22:33:58.716-04:00", "avatar": "https://secure.gravatar.com/avatar/2f9b84d9429227962f63f9b337394326.jpg?s=512&d=https%3A%2F%2Fa.slack-edge.com%2Fdf10d%2Fimg%2Favatars%2Fava_0010-512.png", "custom_css": null}, {"id": 5887, "slack_id": "U091TFXGLH0", "display_name": "Melanie Dohr", "bio": null, "projects_count": 0, "devlogs_count": 0, "votes_count": 0, "ships_count": 0, "projects": [], "coding_time_seconds": 39671, "coding_time_seconds_today": 6299, "balance": "You need to have a pocket watcher badge to view this.", "badges": [], "created_at": "2025-06-17T06:01:00.932-04:00", "updated_at": "2025-07-03T21:43:28.485-04:00", "avatar": "https://secure.gravatar.com/avatar/6e164c4922748735f8290eda39cd4363.jpg?s=512&d=https%3A%2F%2Fa.slack-edge.com%2Fdf10d%2Fimg%2Favatars%2Fava_0008-512.png", "custom_css": null}, {"id": 5888, "slack_id": "U091QPJJ1FX", "display_name": "Consti", "bio": null, "projects_count": 0, "devlogs_count": 0, "votes_count": 0, "ships_count": 0, "projects": [], "coding_time_seconds": 0, "coding_time_seconds_today": 0, "balance": "You need to have a pocket watcher badge to view this.", "badges": [], "created_at": "2025-06-17T06:01:01.180-04:00", "updated_at": "2025-07-03T19:37:52.531-04:00", "avatar": "https://secure.gravatar.com/avatar/a86a766a5bfc1112c5742fc4dc729a9d.jpg?s=512&d=https%3A%2F%2Fa.slack-edge.com%2Fdf10d%2Fimg%2Favatars%2Fava_0020-512.png", "custom_css": null}, {"id": 5889, "slack_id": "U09262WCP0R", "display_name": "Matthijs", "bio": null, "projects_count": 0, "devlogs_count": 0, "votes_count": 0, "ships_count": 0, "projects": [], "coding_time_seconds": 0, "coding_time_seconds_today": 0, "balance": "You need to have a pocket watcher badge to view this.", "badges": [], "created_at": "2025-06-17T06:01:17.314-04:00", "updated_at": "2025-07-03T19:37:52.789-04:00", "avatar": "https://secure.gravatar.com/avatar/60e98903840ac89fcdfce76ffdab0da6.jpg?s=512&d=https%3A%2F%2Fa.slack-edge.com%2Fdf10d%2Fimg%2Favatars%2Fava_0024-512.png", "custom_css": null}, {"id": 5890, "slack_id": "U091TRZQEFN", "display_name": "Rhiig", "bio": null, "projects_count": 0, "devlogs_count": 0, "votes_count": 0, "ships_count": 0, "projects": [], "coding_time_seconds": 0, "coding_time_seconds_today": 0, "balance": "You need to have a pocket watcher badge to view this.", "badges": [], "created_at": "2025-06-17T06:01:18.909-04:00", "updated_at": "2025-07-03T19:37:53.060-04:00", "avatar": "https://avatars.slack-edge.com/2025-06-17/9061581249250_b1a40168d16bea92af05_original.jpg", "custom_css": null}, {"id": 5891, "slack_id": "U091C4U8Y6B", "display_name": "tottino", "bio": null, "projects_count": 0, "devlogs_count": 0, "votes_count": 0, "ships_count": 0, "projects": [], "coding_time_seconds": 0, "coding_time_seconds_today": 0, "balance": "You need to have a pocket watcher badge to view this.", "badges": [], "created_at": "2025-06-17T06:01:24.941-04:00", "updated_at": "2025-07-03T19:37:53.318-04:00", "avatar": "https://secure.gravatar.com/avatar/332190671c81a2c8951e241071a7db3b.jpg?s=512&d=https%3A%2F%2Fa.slack-edge.com%2Fdf10d%2Fimg%2Favatars%2Fava_0006-512.png", "custom_css": null}, {"id": 5892, "slack_id": "U091TSBUDL4", "display_name": "Guru Anand G", "bio": null, "projects_count": 0, "devlogs_count": 0, "votes_count": 0, "ships_count": 0, "projects": [], "coding_time_seconds": 0, "coding_time_seconds_today": 0, "balance": "You need to have a pocket watcher badge to view this.", "badges": [], "created_at": "2025-06-17T06:01:34.657-04:00", "updated_at": "2025-07-03T21:43:28.848-04:00", "avatar": "https://avatars.slack-edge.com/2025-06-17/9061916563204_a2abd0690c5129845bc4_original.png", "custom_css": null}, {"id": 5893, "slack_id": "U091LMPH7NX", "display_name": "Tunku S", "bio": null, "projects_count": 0, "devlogs_count": 0, "votes_count": 0, "ships_count": 0, "projects": [], "coding_time_seconds": 0, "coding_time_seconds_today": 0, "balance": "You need to have a pocket watcher badge to view this.", "badges": [], "created_at": "2025-06-17T06:01:55.473-04:00", "updated_at": "2025-07-03T19:37:53.812-04:00", "avatar": "https://secure.gravatar.com/avatar/2e2b634f8b01e30ecfaaf408dce18467.jpg?s=512&d=https%3A%2F%2Fa.slack-edge.com%2Fdf10d%2Fimg%2Favatars%2Fava_0014-512.png", "custom_css": null}, {"id": 5894, "slack_id": "U092EDY9BG8", "display_name": "Abdallah Mohamed Anwar", "bio": null, "projects_count": 0, "devlogs_count": 0, "votes_count": 0, "ships_count": 0, "projects": [], "coding_time_seconds": 0, "coding_time_seconds_today": 0, "balance": "You need to have a pocket watcher badge to view this.", "badges": [], "created_at": "2025-06-17T06:01:56.496-04:00", "updated_at": "2025-07-03T19:37:54.186-04:00", "avatar": "https://secure.gravatar.com/avatar/5d03d13962d4306eeacfdc45943fabba.jpg?s=512&d=https%3A%2F%2Fa.slack-edge.com%2Fdf10d%2Fimg%2Favatars%2Fava_0005-512.png", "custom_css": null}, {"id": 5895, "slack_id": "U091TGGGHV0", "display_name": "Leonardo A.", "bio": null, "projects_count": 0, "devlogs_count": 0, "votes_count": 0, "ships_count": 0, "projects": [], "coding_time_seconds": 0, "coding_time_seconds_today": 0, "balance": "You need to have a pocket watcher badge to view this.", "badges": [], "created_at": "2025-06-17T06:01:58.975-04:00", "updated_at": "2025-07-03T19:37:54.581-04:00", "avatar": "https://secure.gravatar.com/avatar/7edbcef8e2924e3c15934ac14b6d1752.jpg?s=512&d=https%3A%2F%2Fa.slack-edge.com%2Fdf10d%2Fimg%2Favatars%2Fava_0008-512.png", "custom_css": null}, {"id": 5896, "slack_id": "U091TS7MMMJ", "display_name": "Vignesh Kamsala", "bio": null, "projects_count": 0, "devlogs_count": 0, "votes_count": 0, "ships_count": 0, "projects": [], "coding_time_seconds": 6973, "coding_time_seconds_today": 0, "balance": "You need to have a pocket watcher badge to view this.", "badges": [], "created_at": "2025-06-17T06:02:00.118-04:00", "updated_at": "2025-07-05T02:06:40.957-04:00", "avatar": "https://secure.gravatar.com/avatar/a8897d19eb7fbd5e4114545a3994225c.jpg?s=512&d=https%3A%2F%2Fa.slack-edge.com%2Fdf10d%2Fimg%2Favatars%2Fava_0009-512.png", "custom_css": null}, {"id": 5897, "slack_id": "U091C4FH2J3", "display_name": "Helia", "bio": null, "projects_count": 0, "devlogs_count": 0, "votes_count": 0, "ships_count": 0, "projects": [], "coding_time_seconds": 0, "coding_time_seconds_today": 0, "balance": "You need to have a pocket watcher badge to view this.", "badges": [], "created_at": "2025-06-17T06:02:15.751-04:00", "updated_at": "2025-07-03T19:37:55.001-04:00", "avatar": "https://secure.gravatar.com/avatar/e12310ac1e2f7c79ee2e2f33a3b65243.jpg?s=512&d=https%3A%2F%2Fa.slack-edge.com%2Fdf10d%2Fimg%2Favatars%2Fava_0007-512.png", "custom_css": null}, {"id": 5898, "slack_id": "U091LMQD9S7", "display_name": "Copen", "bio": null, "projects_count": 0, "devlogs_count": 0, "votes_count": 0, "ships_count": 0, "projects": [], "coding_time_seconds": 0, "coding_time_seconds_today": 0, "balance": "You need to have a pocket watcher badge to view this.", "badges": [], "created_at": "2025-06-17T06:02:45.270-04:00", "updated_at": "2025-07-03T19:37:55.641-04:00", "avatar": "https://secure.gravatar.com/avatar/5b6a28784e75046eab987edd0a6fe182.jpg?s=512&d=https%3A%2F%2Fa.slack-edge.com%2Fdf10d%2Fimg%2Favatars%2Fava_0019-512.png", "custom_css": null}, {"id": 5899, "slack_id": "U091RPTTNLV", "display_name": "Enis Shorra", "bio": null, "projects_count": 0, "devlogs_count": 0, "votes_count": 0, "ships_count": 0, "projects": [], "coding_time_seconds": 17225, "coding_time_seconds_today": 0, "balance": "You need to have a pocket watcher badge to view this.", "badges": [], "created_at": "2025-06-17T06:02:45.474-04:00", "updated_at": "2025-07-03T19:37:55.907-04:00", "avatar": "https://secure.gravatar.com/avatar/e6f5a4c4bda30cf3d2ada95a7beacd1a.jpg?s=512&d=https%3A%2F%2Fa.slack-edge.com%2Fdf10d%2Fimg%2Favatars%2Fava_0002-512.png", "custom_css": null}, {"id": 5900, "slack_id": "U091A8BPP7Z", "display_name": "sehnsucht", "bio": null, "projects_count": 4, "devlogs_count": 8, "votes_count": 63, "ships_count": 2, "projects": [{"id": 1176, "title": "Forge", "devlogs_count": 1, "created_at": "2025-06-17T20:35:18.558-04:00"}, {"id": 13262, "title": "Crows", "devlogs_count": 1, "created_at": "2025-09-12T21:04:08.423-04:00"}, {"id": 11992, "title": "Personal Website", "devlogs_count": 3, "created_at": "2025-08-21T23:04:06.944-04:00"}, {"id": 10521, "title": "1,000,000x.dev", "devlogs_count": 1, "created_at": "2025-08-07T18:35:28.524-04:00"}], "coding_time_seconds": 266323, "coding_time_seconds_today": 0, "balance": "You need to have a pocket watcher badge to view this.", "badges": [{"name": "Maiden Voyage", "text": "you shipped your first project! the journey begins...", "icon": "\ud83d\udea2"}], "created_at": "2025-06-17T06:03:21.701-04:00", "updated_at": "2025-09-10T22:54:06.427-04:00", "avatar": "https://avatars.slack-edge.com/2025-06-17/9083944222320_70e307e25c221017e77f_original.png", "custom_css": null}], "pagination": {"page": 295, "pages": 1192, "count": 23828, "items": 20}}