{"users": [{"id": 5901, "slack_id": "U091C4WB72B", "display_name": "dajiahu", "bio": null, "projects_count": 0, "devlogs_count": 0, "votes_count": 0, "ships_count": 0, "projects": [], "coding_time_seconds": 0, "coding_time_seconds_today": 0, "balance": "You need to have a pocket watcher badge to view this.", "badges": [], "created_at": "2025-06-17T06:03:44.765-04:00", "updated_at": "2025-07-03T19:37:56.450-04:00", "avatar": "https://secure.gravatar.com/avatar/7801c43d2369d1b3b444600cded48012.jpg?s=512&d=https%3A%2F%2Fa.slack-edge.com%2Fdf10d%2Fimg%2Favatars%2Fava_0001-512.png", "custom_css": null}, {"id": 5902, "slack_id": "U09263HFSLR", "display_name": "tr4cker", "bio": null, "projects_count": 0, "devlogs_count": 0, "votes_count": 0, "ships_count": 0, "projects": [], "coding_time_seconds": 0, "coding_time_seconds_today": 0, "balance": "You need to have a pocket watcher badge to view this.", "badges": [], "created_at": "2025-06-17T06:03:56.068-04:00", "updated_at": "2025-07-03T19:37:56.710-04:00", "avatar": "https://secure.gravatar.com/avatar/7b3243bb396afcc27020f52eb76a44d2.jpg?s=512&d=https%3A%2F%2Fa.slack-edge.com%2Fdf10d%2Fimg%2Favatars%2Fava_0026-512.png", "custom_css": null}, {"id": 5903, "slack_id": "U07DGQVP4SH", "display_name": "rob", "bio": null, "projects_count": 1, "devlogs_count": 1, "votes_count": 0, "ships_count": 0, "projects": [{"id": 1791, "title": "asia logistics", "devlogs_count": 1, "created_at": "2025-06-19T08:56:31.547-04:00"}], "coding_time_seconds": 35256, "coding_time_seconds_today": 0, "balance": "You need to have a pocket watcher badge to view this.", "badges": [], "created_at": "2025-06-17T06:04:21.677-04:00", "updated_at": "2025-07-03T19:37:56.971-04:00", "avatar": "https://avatars.slack-edge.com/2024-07-24/7465715632197_f015eefc3f534cbd0709_original.jpg", "custom_css": null}, {"id": 5904, "slack_id": "U091TGTV3GS", "display_name": "Disha", "bio": null, "projects_count": 0, "devlogs_count": 0, "votes_count": 0, "ships_count": 0, "projects": [], "coding_time_seconds": 0, "coding_time_seconds_today": 0, "balance": "You need to have a pocket watcher badge to view this.", "badges": [], "created_at": "2025-06-17T06:04:22.480-04:00", "updated_at": "2025-07-03T21:55:28.783-04:00", "avatar": "https://secure.gravatar.com/avatar/a7d17db8b105b3e981636d72d1efb693.jpg?s=512&d=https%3A%2F%2Fa.slack-edge.com%2Fdf10d%2Fimg%2Favatars%2Fava_0020-512.png", "custom_css": null}, {"id": 5905, "slack_id": "U091LN2VAPM", "display_name": "Phant Walker", "bio": null, "projects_count": 0, "devlogs_count": 0, "votes_count": 0, "ships_count": 0, "projects": [], "coding_time_seconds": 0, "coding_time_seconds_today": 0, "balance": "You need to have a pocket watcher badge to view this.", "badges": [], "created_at": "2025-06-17T06:04:52.623-04:00", "updated_at": "2025-07-03T19:37:57.366-04:00", "avatar": "https://secure.gravatar.com/avatar/c7a0c6ade7c7abc5eb8dd508706879e4.jpg?s=512&d=https%3A%2F%2Fa.slack-edge.com%2Fdf10d%2Fimg%2Favatars%2Fava_0017-512.png", "custom_css": null}, {"id": 5906, "slack_id": "U091LSAH9QW", "display_name": "Lastgameover", "bio": null, "projects_count": 0, "devlogs_count": 0, "votes_count": 0, "ships_count": 0, "projects": [], "coding_time_seconds": 68903, "coding_time_seconds_today": 0, "balance": "You need to have a pocket watcher badge to view this.", "badges": [], "created_at": "2025-06-17T06:05:44.190-04:00", "updated_at": "2025-07-03T21:55:28.961-04:00", "avatar": "https://secure.gravatar.com/avatar/5aadaecbb91f696dd196be043c3a2585.jpg?s=512&d=https%3A%2F%2Fa.slack-edge.com%2Fdf10d%2Fimg%2Favatars%2Fava_0002-512.png", "custom_css": null}, {"id": 5907, "slack_id": "U091LMU37MH", "display_name": "AAGHASH M", "bio": null, "projects_count": 0, "devlogs_count": 0, "votes_count": 0, "ships_count": 0, "projects": [], "coding_time_seconds": 142, "coding_time_seconds_today": 0, "balance": "You need to have a pocket watcher badge to view this.", "badges": [], "created_at": "2025-06-17T06:05:46.177-04:00", "updated_at": "2025-07-03T19:37:57.761-04:00", "avatar": "https://avatars.slack-edge.com/2025-06-17/9054770013395_418b75abfc506d17ee53_original.jpg", "custom_css": null}, {"id": 5908, "slack_id": "U06SV7P55KP", "display_name": "Omega", "bio": null, "projects_count": 5, "devlogs_count": 11, "votes_count": 2, "ships_count": 0, "projects": [{"id": 4044, "title": "Terminal Personal Website", "devlogs_count": 1, "created_at": "2025-06-27T03:26:30.443-04:00"}, {"id": 4472, "title": "personal website", "devlogs_count": 5, "created_at": "2025-06-30T06:07:34.288-04:00"}, {"id": 5157, "title": "binaryth", "devlogs_count": 1, "created_at": "2025-07-03T14:01:34.614-04:00"}, {"id": 6141, "title": "snoopy", "devlogs_count": 1, "created_at": "2025-07-10T20:38:16.059-04:00"}, {"id": 5882, "title": "starjump", "devlogs_count": 2, "created_at": "2025-07-08T20:40:26.988-04:00"}], "coding_time_seconds": 430207, "coding_time_seconds_today": 0, "balance": "You need to have a pocket watcher badge to view this.", "badges": [], "created_at": "2025-06-17T06:06:05.114-04:00", "updated_at": "2025-08-09T03:56:32.045-04:00", "avatar": "https://secure.gravatar.com/avatar/18cad3d6f6ac9338a563c0cccd5607b6.jpg?s=512&d=https%3A%2F%2Fa.slack-edge.com%2Fdf10d%2Fimg%2Favatars%2Fava_0007-512.png", "custom_css": null}, {"id": 5909, "slack_id": "U079NUHEUT0", "display_name": "Ernests", "bio": null, "projects_count": 1, "devlogs_count": 12, "votes_count": 0, "ships_count": 1, "projects": [{"id": 8749, "title": "eclass", "devlogs_count": 12, "created_at": "2025-07-29T05:35:16.294-04:00"}], "coding_time_seconds": 263254, "coding_time_seconds_today": 0, "balance": "You need to have a pocket watcher badge to view this.", "badges": [{"name": "Maiden Voyage", "text": "you shipped your first project! the journey begins...", "icon": "\ud83d\udea2"}], "created_at": "2025-06-17T06:06:06.077-04:00", "updated_at": "2025-09-23T15:41:31.938-04:00", "avatar": "https://avatars.slack-edge.com/2024-09-17/7762066514880_bc07ba77c0132a603b23_original.png", "custom_css": null}, {"id": 5910, "slack_id": "U09263S81ED", "display_name": "Harry", "bio": null, "projects_count": 0, "devlogs_count": 0, "votes_count": 0, "ships_count": 0, "projects": [], "coding_time_seconds": 50399, "coding_time_seconds_today": 0, "balance": "You need to have a pocket watcher badge to view this.", "badges": [], "created_at": "2025-06-17T06:06:25.846-04:00", "updated_at": "2025-07-03T19:37:58.644-04:00", "avatar": "https://secure.gravatar.com/avatar/6acfa658f18c5df68466b92ab713309d.jpg?s=512&d=https%3A%2F%2Fa.slack-edge.com%2Fdf10d%2Fimg%2Favatars%2Fava_0006-512.png", "custom_css": null}, {"id": 5911, "slack_id": "U091RQ4BPEH", "display_name": "Siddharth Jain", "bio": null, "projects_count": 1, "devlogs_count": 0, "votes_count": 0, "ships_count": 0, "projects": [{"id": 732, "title": "FarmAI - An AI based project to help farmers.", "devlogs_count": 0, "created_at": "2025-06-17T06:42:42.005-04:00"}], "coding_time_seconds": 83850, "coding_time_seconds_today": 0, "balance": "You need to have a pocket watcher badge to view this.", "badges": [], "created_at": "2025-06-17T06:06:33.900-04:00", "updated_at": "2025-07-04T08:21:14.383-04:00", "avatar": "https://secure.gravatar.com/avatar/0343ca8f203eeba189f283913e03b555.jpg?s=512&d=https%3A%2F%2Fa.slack-edge.com%2Fdf10d%2Fimg%2Favatars%2Fava_0026-512.png", "custom_css": null}, {"id": 5912, "slack_id": "U091LND68GK", "display_name": "Anas", "bio": null, "projects_count": 0, "devlogs_count": 0, "votes_count": 0, "ships_count": 0, "projects": [], "coding_time_seconds": 10093, "coding_time_seconds_today": 0, "balance": "You need to have a pocket watcher badge to view this.", "badges": [], "created_at": "2025-06-17T06:06:41.139-04:00", "updated_at": "2025-07-03T19:37:59.058-04:00", "avatar": "https://secure.gravatar.com/avatar/6cdb2f0d8296cbad6b6bae7b5e873bdd.jpg?s=512&d=https%3A%2F%2Fa.slack-edge.com%2Fdf10d%2Fimg%2Favatars%2Fava_0019-512.png", "custom_css": null}, {"id": 5913, "slack_id": "U07DPKEBE5C", "display_name": "Mohd Daqqaq", "bio": null, "projects_count": 1, "devlogs_count": 0, "votes_count": 0, "ships_count": 0, "projects": [{"id": 1461, "title": "Infit-Island", "devlogs_count": 0, "created_at": "2025-06-18T15:37:21.171-04:00"}], "coding_time_seconds": 28097, "coding_time_seconds_today": 0, "balance": "You need to have a pocket watcher badge to view this.", "badges": [], "created_at": "2025-06-17T06:07:02.424-04:00", "updated_at": "2025-07-06T14:06:35.008-04:00", "avatar": "https://avatars.slack-edge.com/2024-07-24/7472343931954_fe47429bd02ca4e5a804_original.png", "custom_css": null}, {"id": 5914, "slack_id": "U083471MHK7", "display_name": "serendipitous", "bio": null, "projects_count": 0, "devlogs_count": 0, "votes_count": 0, "ships_count": 0, "projects": [], "coding_time_seconds": 40020, "coding_time_seconds_today": 0, "balance": "You need to have a pocket watcher badge to view this.", "badges": [], "created_at": "2025-06-17T06:07:03.697-04:00", "updated_at": "2025-07-03T19:37:59.448-04:00", "avatar": "https://secure.gravatar.com/avatar/97ca0ba1c5f2c72497adb08421f9b5c1.jpg?s=512&d=https%3A%2F%2Fa.slack-edge.com%2Fdf10d%2Fimg%2Favatars%2Fava_0007-512.png", "custom_css": null}, {"id": 5915, "slack_id": "U09263ZQE1F", "display_name": "Ond\u0159ej Trebul\u00e1k", "bio": null, "projects_count": 0, "devlogs_count": 0, "votes_count": 0, "ships_count": 0, "projects": [], "coding_time_seconds": 600, "coding_time_seconds_today": 0, "balance": "You need to have a pocket watcher badge to view this.", "badges": [], "created_at": "2025-06-17T06:08:00.820-04:00", "updated_at": "2025-07-10T12:23:50.133-04:00", "avatar": "https://secure.gravatar.com/avatar/de81cd2853aa964ed90205b31d79c034.jpg?s=512&d=https%3A%2F%2Fa.slack-edge.com%2Fdf10d%2Fimg%2Favatars%2Fava_0015-512.png", "custom_css": null}, {"id": 5916, "slack_id": "U091TH7UJ1G", "display_name": "Roya Arkhmammadova", "bio": null, "projects_count": 0, "devlogs_count": 0, "votes_count": 0, "ships_count": 0, "projects": [], "coding_time_seconds": 0, "coding_time_seconds_today": 0, "balance": "You need to have a pocket watcher badge to view this.", "badges": [], "created_at": "2025-06-17T06:08:01.244-04:00", "updated_at": "2025-07-03T19:37:59.853-04:00", "avatar": "https://avatars.slack-edge.com/2025-06-17/9046207698487_baf22acc78dd58edf531_original.png", "custom_css": null}, {"id": 5917, "slack_id": "U092642642V", "display_name": "Jan", "bio": null, "projects_count": 0, "devlogs_count": 0, "votes_count": 0, "ships_count": 0, "projects": [], "coding_time_seconds": 0, "coding_time_seconds_today": 0, "balance": "You need to have a pocket watcher badge to view this.", "badges": [], "created_at": "2025-06-17T06:08:08.229-04:00", "updated_at": "2025-07-03T19:38:00.119-04:00", "avatar": "https://secure.gravatar.com/avatar/b1610618bb464fbb222f154297632cf8.jpg?s=512&d=https%3A%2F%2Fa.slack-edge.com%2Fdf10d%2Fimg%2Favatars%2Fava_0008-512.png", "custom_css": null}, {"id": 5918, "slack_id": "U078JE64Q8J", "display_name": "Adit", "bio": null, "projects_count": 0, "devlogs_count": 0, "votes_count": 0, "ships_count": 0, "projects": [], "coding_time_seconds": 16374, "coding_time_seconds_today": 0, "balance": "You need to have a pocket watcher badge to view this.", "badges": [], "created_at": "2025-06-17T06:09:22.628-04:00", "updated_at": "2025-07-03T19:38:00.392-04:00", "avatar": "https://avatars.slack-edge.com/2024-07-01/7368671650321_191258bd62c74c0f0243_original.jpg", "custom_css": null}, {"id": 5919, "slack_id": "U092FTY2B5E", "display_name": "Goerges", "bio": null, "projects_count": 1, "devlogs_count": 1, "votes_count": 0, "ships_count": 0, "projects": [{"id": 1020, "title": "ReactTodoList", "devlogs_count": 1, "created_at": "2025-06-17T13:53:01.517-04:00"}], "coding_time_seconds": 7856, "coding_time_seconds_today": 0, "balance": "You need to have a pocket watcher badge to view this.", "badges": [], "created_at": "2025-06-17T06:09:22.947-04:00", "updated_at": "2025-07-03T19:38:00.651-04:00", "avatar": "https://secure.gravatar.com/avatar/9e3c238237d93cddec049ab78ed1bdf9.jpg?s=512&d=https%3A%2F%2Fa.slack-edge.com%2Fdf10d%2Fimg%2Favatars%2Fava_0020-512.png", "custom_css": null}, {"id": 5920, "slack_id": "U091LSR2QH4", "display_name": "isuliau", "bio": null, "projects_count": 1, "devlogs_count": 0, "votes_count": 1, "ships_count": 0, "projects": [{"id": 8389, "title": "Unity Learning Project ", "devlogs_count": 0, "created_at": "2025-07-26T18:56:39.129-04:00"}], "coding_time_seconds": 5013, "coding_time_seconds_today": 0, "balance": "You need to have a pocket watcher badge to view this.", "badges": [], "created_at": "2025-06-17T06:10:04.805-04:00", "updated_at": "2025-07-26T18:51:56.649-04:00", "avatar": "https://secure.gravatar.com/avatar/8490457bba1365374e7515f7c6b27ab3.jpg?s=512&d=https%3A%2F%2Fa.slack-edge.com%2Fdf10d%2Fimg%2Favatars%2Fava_0026-512.png", "custom_css": null}], "pagination": {"page": 296, "pages": 1192, "count": 23828, "items": 20}}