{"users": [{"id": 5921, "slack_id": "U091RMF3SH3", "display_name": "Haieqa", "bio": null, "projects_count": 1, "devlogs_count": 1, "votes_count": 0, "ships_count": 0, "projects": [{"id": 5293, "title": "The number game", "devlogs_count": 1, "created_at": "2025-07-04T09:15:48.138-04:00"}], "coding_time_seconds": 13992, "coding_time_seconds_today": 0, "balance": "You need to have a pocket watcher badge to view this.", "badges": [], "created_at": "2025-06-17T06:11:57.614-04:00", "updated_at": "2025-07-04T08:21:15.069-04:00", "avatar": "https://secure.gravatar.com/avatar/4784ae9409b647753b919b7bc9c700d6.jpg?s=512&d=https%3A%2F%2Fa.slack-edge.com%2Fdf10d%2Fimg%2Favatars%2Fava_0007-512.png", "custom_css": null}, {"id": 5922, "slack_id": "U089VAC4WKZ", "display_name": "Nandini", "bio": null, "projects_count": 0, "devlogs_count": 0, "votes_count": 0, "ships_count": 0, "projects": [], "coding_time_seconds": 0, "coding_time_seconds_today": 0, "balance": "You need to have a pocket watcher badge to view this.", "badges": [], "created_at": "2025-06-17T06:12:28.829-04:00", "updated_at": "2025-07-05T14:07:25.855-04:00", "avatar": "https://secure.gravatar.com/avatar/802c38ab24dae989dcbdc53ca33c2864.jpg?s=512&d=https%3A%2F%2Fa.slack-edge.com%2Fdf10d%2Fimg%2Favatars%2Fava_0008-512.png", "custom_css": null}, {"id": 5923, "slack_id": "U091THHA1MG", "display_name": "Ag2", "bio": null, "projects_count": 0, "devlogs_count": 0, "votes_count": 0, "ships_count": 0, "projects": [], "coding_time_seconds": 0, "coding_time_seconds_today": 0, "balance": "You need to have a pocket watcher badge to view this.", "badges": [], "created_at": "2025-06-17T06:12:30.148-04:00", "updated_at": "2025-07-03T21:55:30.063-04:00", "avatar": "https://secure.gravatar.com/avatar/74d843e9d5bfff6dfc8521d5c872463f.jpg?s=512&d=https%3A%2F%2Fa.slack-edge.com%2Fdf10d%2Fimg%2Favatars%2Fava_0018-512.png", "custom_css": null}, {"id": 5924, "slack_id": "U091RR0990D", "display_name": "Rishabh Singh", "bio": null, "projects_count": 0, "devlogs_count": 0, "votes_count": 0, "ships_count": 0, "projects": [], "coding_time_seconds": 1763, "coding_time_seconds_today": 0, "balance": "You need to have a pocket watcher badge to view this.", "badges": [], "created_at": "2025-06-17T06:13:03.963-04:00", "updated_at": "2025-07-03T19:38:01.589-04:00", "avatar": "https://secure.gravatar.com/avatar/621d27d1976190bd1e68302d1b0d1688.jpg?s=512&d=https%3A%2F%2Fa.slack-edge.com%2Fdf10d%2Fimg%2Favatars%2Fava_0004-512.png", "custom_css": null}, {"id": 5925, "slack_id": "U091C6EKTGX", "display_name": "QianYu", "bio": null, "projects_count": 0, "devlogs_count": 0, "votes_count": 0, "ships_count": 0, "projects": [], "coding_time_seconds": 0, "coding_time_seconds_today": 0, "balance": "You need to have a pocket watcher badge to view this.", "badges": [], "created_at": "2025-06-17T06:13:25.767-04:00", "updated_at": "2025-07-03T19:38:01.857-04:00", "avatar": "https://secure.gravatar.com/avatar/a9431180a5a033f05a24694217db6705.jpg?s=512&d=https%3A%2F%2Fa.slack-edge.com%2Fdf10d%2Fimg%2Favatars%2Fava_0006-512.png", "custom_css": null}, {"id": 5926, "slack_id": "U091RQZ4WUV", "display_name": "Schatten2020", "bio": null, "projects_count": 0, "devlogs_count": 0, "votes_count": 0, "ships_count": 0, "projects": [], "coding_time_seconds": 34750, "coding_time_seconds_today": 0, "balance": "You need to have a pocket watcher badge to view this.", "badges": [], "created_at": "2025-06-17T06:13:29.823-04:00", "updated_at": "2025-07-03T19:38:02.124-04:00", "avatar": "https://secure.gravatar.com/avatar/2becc8adebedea5ccc889ce138e39463.jpg?s=512&d=https%3A%2F%2Fa.slack-edge.com%2Fdf10d%2Fimg%2Favatars%2Fava_0013-512.png", "custom_css": null}, {"id": 5927, "slack_id": "U091C6CJ92B", "display_name": "Tushar Kukreti", "bio": null, "projects_count": 0, "devlogs_count": 0, "votes_count": 0, "ships_count": 0, "projects": [], "coding_time_seconds": 379, "coding_time_seconds_today": 0, "balance": "You need to have a pocket watcher badge to view this.", "badges": [], "created_at": "2025-06-17T06:13:32.875-04:00", "updated_at": "2025-07-03T19:38:02.386-04:00", "avatar": "https://secure.gravatar.com/avatar/5cdb72fdd2f221d9e14eab270b54c34c.jpg?s=512&d=https%3A%2F%2Fa.slack-edge.com%2Fdf10d%2Fimg%2Favatars%2Fava_0025-512.png", "custom_css": null}, {"id": 5928, "slack_id": "U091TTXSG3W", "display_name": "Sarah Malone", "bio": null, "projects_count": 0, "devlogs_count": 0, "votes_count": 0, "ships_count": 0, "projects": [], "coding_time_seconds": 0, "coding_time_seconds_today": 0, "balance": "You need to have a pocket watcher badge to view this.", "badges": [], "created_at": "2025-06-17T06:13:35.651-04:00", "updated_at": "2025-07-27T03:50:20.411-04:00", "avatar": "https://secure.gravatar.com/avatar/80e935ea6a01bac636a13079560abf95.jpg?s=512&d=https%3A%2F%2Fa.slack-edge.com%2Fdf10d%2Fimg%2Favatars%2Fava_0006-512.png", "custom_css": null}, {"id": 5929, "slack_id": "U092FUFEYRW", "display_name": "Adela Heftyov\u00e1", "bio": null, "projects_count": 0, "devlogs_count": 0, "votes_count": 0, "ships_count": 0, "projects": [], "coding_time_seconds": 0, "coding_time_seconds_today": 0, "balance": "You need to have a pocket watcher badge to view this.", "badges": [], "created_at": "2025-06-17T06:13:41.965-04:00", "updated_at": "2025-07-03T19:38:02.907-04:00", "avatar": "https://secure.gravatar.com/avatar/59b537e0bf32fc0f054ffc7e0f5ff698.jpg?s=512&d=https%3A%2F%2Fa.slack-edge.com%2Fdf10d%2Fimg%2Favatars%2Fava_0011-512.png", "custom_css": null}, {"id": 5930, "slack_id": "U091C68V6P9", "display_name": "felton da silva", "bio": null, "projects_count": 0, "devlogs_count": 0, "votes_count": 0, "ships_count": 0, "projects": [], "coding_time_seconds": 156962, "coding_time_seconds_today": 0, "balance": "You need to have a pocket watcher badge to view this.", "badges": [], "created_at": "2025-06-17T06:13:47.913-04:00", "updated_at": "2025-07-23T01:46:05.322-04:00", "avatar": "https://secure.gravatar.com/avatar/1e27332d88e736337d7e1ced23f32671.jpg?s=512&d=https%3A%2F%2Fa.slack-edge.com%2Fdf10d%2Fimg%2Favatars%2Fava_0001-512.png", "custom_css": null}, {"id": 5931, "slack_id": "U085LUSALNS", "display_name": "cookiesgobrr", "bio": null, "projects_count": 0, "devlogs_count": 0, "votes_count": 0, "ships_count": 0, "projects": [], "coding_time_seconds": 0, "coding_time_seconds_today": 0, "balance": "You need to have a pocket watcher badge to view this.", "badges": [], "created_at": "2025-06-17T06:13:48.127-04:00", "updated_at": "2025-07-03T19:38:03.422-04:00", "avatar": "https://avatars.slack-edge.com/2024-12-19/8200657971684_56d2dc5fed07b3647ede_original.jpg", "custom_css": null}, {"id": 5932, "slack_id": "U091THXMVR8", "display_name": "Hy", "bio": null, "projects_count": 0, "devlogs_count": 0, "votes_count": 0, "ships_count": 0, "projects": [], "coding_time_seconds": 960, "coding_time_seconds_today": 0, "balance": "You need to have a pocket watcher badge to view this.", "badges": [], "created_at": "2025-06-17T06:13:55.005-04:00", "updated_at": "2025-07-03T19:38:03.683-04:00", "avatar": "https://secure.gravatar.com/avatar/2853e090a41d3e3e8bc08c15efdf5867.jpg?s=512&d=https%3A%2F%2Fa.slack-edge.com%2Fdf10d%2Fimg%2Favatars%2Fava_0008-512.png", "custom_css": null}, {"id": 5933, "slack_id": "U091TU4FTPE", "display_name": "opfisoftlover", "bio": null, "projects_count": 1, "devlogs_count": 0, "votes_count": 0, "ships_count": 0, "projects": [{"id": 786, "title": "Festival Organizer", "devlogs_count": 0, "created_at": "2025-06-17T08:18:21.909-04:00"}], "coding_time_seconds": 102398, "coding_time_seconds_today": 0, "balance": "You need to have a pocket watcher badge to view this.", "badges": [], "created_at": "2025-06-17T06:14:21.286-04:00", "updated_at": "2025-07-03T19:38:03.953-04:00", "avatar": "https://secure.gravatar.com/avatar/ce5dd469700323c95f710dda021ee587.jpg?s=512&d=https%3A%2F%2Fa.slack-edge.com%2Fdf10d%2Fimg%2Favatars%2Fava_0010-512.png", "custom_css": null}, {"id": 5934, "slack_id": "U07BJBFLCQ1", "display_name": "Sibosi", "bio": null, "projects_count": 0, "devlogs_count": 0, "votes_count": 0, "ships_count": 0, "projects": [], "coding_time_seconds": 0, "coding_time_seconds_today": 0, "balance": "You need to have a pocket watcher badge to view this.", "badges": [], "created_at": "2025-06-17T06:14:57.265-04:00", "updated_at": "2025-07-03T19:38:04.234-04:00", "avatar": "https://secure.gravatar.com/avatar/90672d41622bdf58c7c718695dee4d8c.jpg?s=512&d=https%3A%2F%2Fa.slack-edge.com%2Fdf10d%2Fimg%2Favatars%2Fava_0024-512.png", "custom_css": null}, {"id": 5935, "slack_id": "U05CSE27F0F", "display_name": "CommanderT3706", "bio": null, "projects_count": 1, "devlogs_count": 0, "votes_count": 0, "ships_count": 0, "projects": [{"id": 6968, "title": "Ferrous MC", "devlogs_count": 0, "created_at": "2025-07-17T18:13:07.805-04:00"}], "coding_time_seconds": 69626, "coding_time_seconds_today": 0, "balance": "You need to have a pocket watcher badge to view this.", "badges": [], "created_at": "2025-06-17T06:15:26.977-04:00", "updated_at": "2025-07-17T18:09:06.506-04:00", "avatar": "https://avatars.slack-edge.com/2023-06-19/5451580720372_774561aed3d73e10b487_original.jpg", "custom_css": null}, {"id": 5936, "slack_id": "U091RR7SRNH", "display_name": "Kumar Saurav", "bio": null, "projects_count": 0, "devlogs_count": 0, "votes_count": 0, "ships_count": 0, "projects": [], "coding_time_seconds": 0, "coding_time_seconds_today": 0, "balance": "You need to have a pocket watcher badge to view this.", "badges": [], "created_at": "2025-06-17T06:16:00.630-04:00", "updated_at": "2025-07-03T19:38:04.771-04:00", "avatar": "https://secure.gravatar.com/avatar/ca738e9de4e0b0ad0430e6b61bf3c6c1.jpg?s=512&d=https%3A%2F%2Fa.slack-edge.com%2Fdf10d%2Fimg%2Favatars%2Fava_0000-512.png", "custom_css": null}, {"id": 5937, "slack_id": "U091TUNV3GU", "display_name": "ziho", "bio": null, "projects_count": 0, "devlogs_count": 0, "votes_count": 0, "ships_count": 0, "projects": [], "coding_time_seconds": 1555, "coding_time_seconds_today": 0, "balance": "You need to have a pocket watcher badge to view this.", "badges": [], "created_at": "2025-06-17T06:16:05.993-04:00", "updated_at": "2025-07-03T19:38:05.028-04:00", "avatar": "https://secure.gravatar.com/avatar/e8681bdd8199d6d7d9e7a0a7b6b11975.jpg?s=512&d=https%3A%2F%2Fa.slack-edge.com%2Fdf10d%2Fimg%2Favatars%2Fava_0022-512.png", "custom_css": null}, {"id": 5938, "slack_id": "U091TUCBHEY", "display_name": "Zuzanka", "bio": null, "projects_count": 0, "devlogs_count": 0, "votes_count": 0, "ships_count": 0, "projects": [], "coding_time_seconds": 0, "coding_time_seconds_today": 0, "balance": "You need to have a pocket watcher badge to view this.", "badges": [], "created_at": "2025-06-17T06:16:06.534-04:00", "updated_at": "2025-07-03T19:38:05.292-04:00", "avatar": "https://secure.gravatar.com/avatar/33a432e70676256c53f4e2e669f59624.jpg?s=512&d=https%3A%2F%2Fa.slack-edge.com%2Fdf10d%2Fimg%2Favatars%2Fava_0008-512.png", "custom_css": null}, {"id": 5939, "slack_id": "U091RRKKLF7", "display_name": "Taras Romanyk (RredCat)", "bio": null, "projects_count": 0, "devlogs_count": 0, "votes_count": 0, "ships_count": 0, "projects": [], "coding_time_seconds": 0, "coding_time_seconds_today": 0, "balance": "You need to have a pocket watcher badge to view this.", "badges": [], "created_at": "2025-06-17T06:16:45.206-04:00", "updated_at": "2025-07-03T19:38:05.566-04:00", "avatar": "https://avatars.slack-edge.com/2025-06-17/9059885037557_cc1e3705f76215ed32f6_original.png", "custom_css": null}, {"id": 5940, "slack_id": "U091C6RJUQP", "display_name": "Jesus Torres", "bio": null, "projects_count": 0, "devlogs_count": 0, "votes_count": 0, "ships_count": 0, "projects": [], "coding_time_seconds": 0, "coding_time_seconds_today": 0, "balance": "You need to have a pocket watcher badge to view this.", "badges": [], "created_at": "2025-06-17T06:16:51.188-04:00", "updated_at": "2025-07-03T19:38:05.845-04:00", "avatar": "https://avatars.slack-edge.com/2025-06-17/9054962903990_7e0ebc011186e2f3e7c0_original.png", "custom_css": null}], "pagination": {"page": 297, "pages": 1192, "count": 23828, "items": 20}}