{"users": [{"id": 5941, "slack_id": "U08M9LE0T9D", "display_name": "Oli", "bio": null, "projects_count": 2, "devlogs_count": 3, "votes_count": 1, "ships_count": 0, "projects": [{"id": 1967, "title": "Personal Portfolio", "devlogs_count": 2, "created_at": "2025-06-19T18:35:00.264-04:00"}, {"id": 5557, "title": "Weather Station App Interface", "devlogs_count": 1, "created_at": "2025-07-06T06:35:54.109-04:00"}], "coding_time_seconds": 66221, "coding_time_seconds_today": 0, "balance": "You need to have a pocket watcher badge to view this.", "badges": [], "created_at": "2025-06-17T06:17:25.550-04:00", "updated_at": "2025-07-03T19:38:06.107-04:00", "avatar": "https://secure.gravatar.com/avatar/5943446a3c7d904a4d422382552b27c3.jpg?s=512&d=https%3A%2F%2Fa.slack-edge.com%2Fdf10d%2Fimg%2Favatars%2Fava_0022-512.png", "custom_css": null}, {"id": 5942, "slack_id": "U091TJDH9PU", "display_name": "Darkodaaa", "bio": null, "projects_count": 2, "devlogs_count": 3, "votes_count": 0, "ships_count": 0, "projects": [{"id": 1398, "title": "FiguraUISystem(FUIS)", "devlogs_count": 1, "created_at": "2025-06-18T13:33:57.288-04:00"}, {"id": 4422, "title": "Simply Automated", "devlogs_count": 2, "created_at": "2025-06-29T18:37:28.464-04:00"}], "coding_time_seconds": 189335, "coding_time_seconds_today": 0, "balance": "You need to have a pocket watcher badge to view this.", "badges": [], "created_at": "2025-06-17T06:18:55.104-04:00", "updated_at": "2025-07-03T19:38:06.370-04:00", "avatar": "https://avatars.slack-edge.com/2025-06-18/9054683765559_7172455f9f29b2a05380_original.png", "custom_css": null}, {"id": 5943, "slack_id": "U091LU3337Y", "display_name": "Dev Aghera", "bio": null, "projects_count": 0, "devlogs_count": 0, "votes_count": 0, "ships_count": 0, "projects": [], "coding_time_seconds": 0, "coding_time_seconds_today": 0, "balance": "You need to have a pocket watcher badge to view this.", "badges": [], "created_at": "2025-06-17T06:19:48.955-04:00", "updated_at": "2025-07-03T19:38:06.640-04:00", "avatar": "https://secure.gravatar.com/avatar/6faa41d2c81d22ba6c3fe8b6c9018705.jpg?s=512&d=https%3A%2F%2Fa.slack-edge.com%2Fdf10d%2Fimg%2Favatars%2Fava_0024-512.png", "custom_css": null}, {"id": 5944, "slack_id": "U091R4FB4J1", "display_name": "aaop_", "bio": null, "projects_count": 3, "devlogs_count": 15, "votes_count": 38, "ships_count": 3, "projects": [{"id": 11018, "title": "StupidGene", "devlogs_count": 2, "created_at": "2025-08-12T12:14:10.827-04:00"}, {"id": 12573, "title": "Wvy", "devlogs_count": 4, "created_at": "2025-08-30T00:50:06.842-04:00"}, {"id": 4055, "title": "Hesitan", "devlogs_count": 9, "created_at": "2025-06-27T05:30:49.672-04:00"}], "coding_time_seconds": 584469, "coding_time_seconds_today": 130, "balance": "You need to have a pocket watcher badge to view this.", "badges": [{"name": "Maiden Voyage", "text": "you shipped your first project! the journey begins...", "icon": "\ud83d\udea2"}], "created_at": "2025-06-17T06:19:50.345-04:00", "updated_at": "2025-09-10T22:54:07.738-04:00", "avatar": "https://avatars.slack-edge.com/2025-08-31/9422244301287_ca2a0d459524ce931aee_original.jpg", "custom_css": null}, {"id": 5945, "slack_id": "U091TJSHYSW", "display_name": "Pratik", "bio": null, "projects_count": 1, "devlogs_count": 1, "votes_count": 0, "ships_count": 0, "projects": [{"id": 734, "title": "Video streaming to unity", "devlogs_count": 1, "created_at": "2025-06-17T06:47:36.944-04:00"}], "coding_time_seconds": 28106, "coding_time_seconds_today": 0, "balance": "You need to have a pocket watcher badge to view this.", "badges": [], "created_at": "2025-06-17T06:20:14.302-04:00", "updated_at": "2025-07-03T19:38:07.172-04:00", "avatar": "https://secure.gravatar.com/avatar/636bffa76131315cdd4d6e3ea0d4e254.jpg?s=512&d=https%3A%2F%2Fa.slack-edge.com%2Fdf10d%2Fimg%2Favatars%2Fava_0012-512.png", "custom_css": null}, {"id": 5946, "slack_id": "U091TJP9UBC", "display_name": "usman", "bio": null, "projects_count": 0, "devlogs_count": 0, "votes_count": 0, "ships_count": 0, "projects": [], "coding_time_seconds": 73360, "coding_time_seconds_today": 0, "balance": "You need to have a pocket watcher badge to view this.", "badges": [], "created_at": "2025-06-17T06:20:40.295-04:00", "updated_at": "2025-07-03T19:38:07.437-04:00", "avatar": "https://secure.gravatar.com/avatar/77c8c8eaa9a127554a0eb645b096258e.jpg?s=512&d=https%3A%2F%2Fa.slack-edge.com%2Fdf10d%2Fimg%2Favatars%2Fava_0018-512.png", "custom_css": null}, {"id": 5947, "slack_id": "U08T46GH4PQ", "display_name": "Albert (Ash)", "bio": null, "projects_count": 0, "devlogs_count": 0, "votes_count": 0, "ships_count": 0, "projects": [], "coding_time_seconds": 0, "coding_time_seconds_today": 0, "balance": "You need to have a pocket watcher badge to view this.", "badges": [], "created_at": "2025-06-17T06:21:52.152-04:00", "updated_at": "2025-07-03T19:38:07.705-04:00", "avatar": "https://avatars.slack-edge.com/2025-05-20/8931563192132_da19253dd938f5deb404_original.png", "custom_css": null}, {"id": 5948, "slack_id": "U091C7BBLG7", "display_name": "eranna Gowda", "bio": null, "projects_count": 0, "devlogs_count": 0, "votes_count": 0, "ships_count": 0, "projects": [], "coding_time_seconds": 0, "coding_time_seconds_today": 0, "balance": "You need to have a pocket watcher badge to view this.", "badges": [], "created_at": "2025-06-17T06:22:17.067-04:00", "updated_at": "2025-07-03T19:38:07.970-04:00", "avatar": "https://secure.gravatar.com/avatar/f159ba4b0fb6e9c104e20bd8c9eb1a90.jpg?s=512&d=https%3A%2F%2Fa.slack-edge.com%2Fdf10d%2Fimg%2Favatars%2Fava_0000-512.png", "custom_css": null}, {"id": 5949, "slack_id": "U07MXQYL5GT", "display_name": "M.Zakariya", "bio": null, "projects_count": 4, "devlogs_count": 8, "votes_count": 105, "ships_count": 4, "projects": [{"id": 5697, "title": "2d wave shooter", "devlogs_count": 2, "created_at": "2025-07-07T08:05:45.385-04:00"}, {"id": 8896, "title": "object trajectory plotter", "devlogs_count": 1, "created_at": "2025-07-29T15:31:17.552-04:00"}, {"id": 10741, "title": "aimtrainer", "devlogs_count": 1, "created_at": "2025-08-10T09:38:15.824-04:00"}, {"id": 9963, "title": "alienshooter", "devlogs_count": 3, "created_at": "2025-08-03T07:29:25.763-04:00"}], "coding_time_seconds": 150873, "coding_time_seconds_today": 248, "balance": "You need to have a pocket watcher badge to view this.", "badges": [{"name": "Maiden Voyage", "text": "you shipped your first project! the journey begins...", "icon": "\ud83d\udea2"}, {"name": "Ballot Stuffer", "text": "vote 100 times.", "icon": "https://summer.hackclub.com/assets/i_voted-bf851b48.png"}], "created_at": "2025-06-17T06:23:01.598-04:00", "updated_at": "2025-09-10T22:54:07.879-04:00", "avatar": "https://secure.gravatar.com/avatar/87a6f4f6845f5105477c20f330aef19f.jpg?s=512&d=https%3A%2F%2Fa.slack-edge.com%2Fdf10d%2Fimg%2Favatars%2Fava_0014-512.png", "custom_css": null}, {"id": 5950, "slack_id": "U092206SZQR", "display_name": "Kawsar Mahmud Tanveer Khan", "bio": null, "projects_count": 0, "devlogs_count": 0, "votes_count": 0, "ships_count": 0, "projects": [], "coding_time_seconds": 0, "coding_time_seconds_today": 0, "balance": "You need to have a pocket watcher badge to view this.", "badges": [], "created_at": "2025-06-17T06:24:09.733-04:00", "updated_at": "2025-07-03T19:38:08.492-04:00", "avatar": "https://secure.gravatar.com/avatar/c317dab299e1712a3d3e3a71cc59c955.jpg?s=512&d=https%3A%2F%2Fa.slack-edge.com%2Fdf10d%2Fimg%2Favatars%2Fava_0003-512.png", "custom_css": null}, {"id": 5951, "slack_id": "U092667QHED", "display_name": "Hugo Cotton", "bio": null, "projects_count": 1, "devlogs_count": 1, "votes_count": 0, "ships_count": 0, "projects": [{"id": 730, "title": "Pirrigation", "devlogs_count": 1, "created_at": "2025-06-17T06:39:01.950-04:00"}], "coding_time_seconds": 9263, "coding_time_seconds_today": 0, "balance": "You need to have a pocket watcher badge to view this.", "badges": [], "created_at": "2025-06-17T06:24:19.715-04:00", "updated_at": "2025-07-07T02:07:57.427-04:00", "avatar": "https://secure.gravatar.com/avatar/211804d75de2bd8e82c202cfd682b9ef.jpg?s=512&d=https%3A%2F%2Fa.slack-edge.com%2Fdf10d%2Fimg%2Favatars%2Fava_0026-512.png", "custom_css": null}, {"id": 5952, "slack_id": "U092669HWMP", "display_name": "Abdusaid", "bio": null, "projects_count": 0, "devlogs_count": 0, "votes_count": 0, "ships_count": 0, "projects": [], "coding_time_seconds": 0, "coding_time_seconds_today": 0, "balance": "You need to have a pocket watcher badge to view this.", "badges": [], "created_at": "2025-06-17T06:24:46.968-04:00", "updated_at": "2025-07-03T19:38:08.886-04:00", "avatar": "https://secure.gravatar.com/avatar/efbbdf3e0d2fa1263f0ca7f2ac78dae9.jpg?s=512&d=https%3A%2F%2Fa.slack-edge.com%2Fdf10d%2Fimg%2Favatars%2Fava_0022-512.png", "custom_css": null}, {"id": 5953, "slack_id": "U091C7MJY15", "display_name": "Jeyasurya U R", "bio": null, "projects_count": 0, "devlogs_count": 0, "votes_count": 0, "ships_count": 0, "projects": [], "coding_time_seconds": 198281, "coding_time_seconds_today": 0, "balance": "You need to have a pocket watcher badge to view this.", "badges": [], "created_at": "2025-06-17T06:24:47.826-04:00", "updated_at": "2025-07-03T19:38:09.158-04:00", "avatar": "https://secure.gravatar.com/avatar/c2195eb4e91b8da8e5769951250a1d45.jpg?s=512&d=https%3A%2F%2Fa.slack-edge.com%2Fdf10d%2Fimg%2Favatars%2Fava_0008-512.png", "custom_css": null}, {"id": 5954, "slack_id": "U09266EK9U1", "display_name": "Joy Sarkar", "bio": null, "projects_count": 0, "devlogs_count": 0, "votes_count": 0, "ships_count": 0, "projects": [], "coding_time_seconds": 0, "coding_time_seconds_today": 0, "balance": "You need to have a pocket watcher badge to view this.", "badges": [], "created_at": "2025-06-17T06:26:20.167-04:00", "updated_at": "2025-07-03T19:38:09.425-04:00", "avatar": "https://secure.gravatar.com/avatar/320d1dd8c1a05d38287ea5d12a34d8d2.jpg?s=512&d=https%3A%2F%2Fa.slack-edge.com%2Fdf10d%2Fimg%2Favatars%2Fava_0015-512.png", "custom_css": null}, {"id": 5955, "slack_id": "U091LQZKHH9", "display_name": "Joel Kemter", "bio": null, "projects_count": 1, "devlogs_count": 0, "votes_count": 0, "ships_count": 0, "projects": [{"id": 9309, "title": "Win32EP", "devlogs_count": 0, "created_at": "2025-07-31T14:05:26.740-04:00"}], "coding_time_seconds": 25026, "coding_time_seconds_today": 0, "balance": "You need to have a pocket watcher badge to view this.", "badges": [], "created_at": "2025-06-17T06:26:41.122-04:00", "updated_at": "2025-07-31T13:48:09.488-04:00", "avatar": "https://secure.gravatar.com/avatar/90e9ba42841fa239cc23f493bc6a5dac.jpg?s=512&d=https%3A%2F%2Fa.slack-edge.com%2Fdf10d%2Fimg%2Favatars%2Fava_0008-512.png", "custom_css": null}, {"id": 5956, "slack_id": "U091U0G9L20", "display_name": "Michael", "bio": null, "projects_count": 0, "devlogs_count": 0, "votes_count": 0, "ships_count": 0, "projects": [], "coding_time_seconds": 0, "coding_time_seconds_today": 0, "balance": "You need to have a pocket watcher badge to view this.", "badges": [], "created_at": "2025-06-17T06:27:10.729-04:00", "updated_at": "2025-07-03T19:38:09.956-04:00", "avatar": "https://secure.gravatar.com/avatar/a48650e45e8ccaa384c4b8ab77d1072a.jpg?s=512&d=https%3A%2F%2Fa.slack-edge.com%2Fdf10d%2Fimg%2Favatars%2Fava_0016-512.png", "custom_css": null}, {"id": 5957, "slack_id": "U091AQRTGH5", "display_name": "Drake Lousberg", "bio": null, "projects_count": 0, "devlogs_count": 0, "votes_count": 0, "ships_count": 0, "projects": [], "coding_time_seconds": 0, "coding_time_seconds_today": 0, "balance": "You need to have a pocket watcher badge to view this.", "badges": [], "created_at": "2025-06-17T06:28:08.141-04:00", "updated_at": "2025-07-03T19:38:10.218-04:00", "avatar": "https://secure.gravatar.com/avatar/7946e936f16e83f3431db7ce05cf750e.jpg?s=512&d=https%3A%2F%2Fa.slack-edge.com%2Fdf10d%2Fimg%2Favatars%2Fava_0005-512.png", "custom_css": null}, {"id": 5958, "slack_id": "U091LVBLEBY", "display_name": "Linduh", "bio": null, "projects_count": 0, "devlogs_count": 0, "votes_count": 0, "ships_count": 0, "projects": [], "coding_time_seconds": 0, "coding_time_seconds_today": 0, "balance": "You need to have a pocket watcher badge to view this.", "badges": [], "created_at": "2025-06-17T06:28:18.817-04:00", "updated_at": "2025-07-03T19:38:10.497-04:00", "avatar": "https://secure.gravatar.com/avatar/959aee630c51257d0b3f39e840d42702.jpg?s=512&d=https%3A%2F%2Fa.slack-edge.com%2Fdf10d%2Fimg%2Favatars%2Fava_0020-512.png", "custom_css": null}, {"id": 5959, "slack_id": "U092FRENAQY", "display_name": "FrostCore", "bio": null, "projects_count": 0, "devlogs_count": 0, "votes_count": 0, "ships_count": 0, "projects": [], "coding_time_seconds": 0, "coding_time_seconds_today": 0, "balance": "You need to have a pocket watcher badge to view this.", "badges": [], "created_at": "2025-06-17T06:29:03.370-04:00", "updated_at": "2025-07-03T19:38:10.765-04:00", "avatar": "https://secure.gravatar.com/avatar/bce19d8719079a8eb2dd9cb26d1b7dc7.jpg?s=512&d=https%3A%2F%2Fa.slack-edge.com%2Fdf10d%2Fimg%2Favatars%2Fava_0013-512.png", "custom_css": null}, {"id": 5960, "slack_id": "U09266Q2909", "display_name": "Jooapa", "bio": null, "projects_count": 0, "devlogs_count": 0, "votes_count": 0, "ships_count": 0, "projects": [], "coding_time_seconds": 0, "coding_time_seconds_today": 0, "balance": "You need to have a pocket watcher badge to view this.", "badges": [], "created_at": "2025-06-17T06:29:07.263-04:00", "updated_at": "2025-07-03T19:38:11.043-04:00", "avatar": "https://secure.gravatar.com/avatar/8b95194b6513dfc35e08cf246285e718.jpg?s=512&d=https%3A%2F%2Fa.slack-edge.com%2Fdf10d%2Fimg%2Favatars%2Fava_0005-512.png", "custom_css": null}], "pagination": {"page": 298, "pages": 1192, "count": 23828, "items": 20}}