{"users": [{"id": 5961, "slack_id": "U09266UAHT3", "display_name": "Gabriel", "bio": null, "projects_count": 0, "devlogs_count": 0, "votes_count": 0, "ships_count": 0, "projects": [], "coding_time_seconds": 150356, "coding_time_seconds_today": 0, "balance": "You need to have a pocket watcher badge to view this.", "badges": [], "created_at": "2025-06-17T06:29:32.568-04:00", "updated_at": "2025-07-03T19:38:11.320-04:00", "avatar": "https://secure.gravatar.com/avatar/a3accd0ead6b4165fccd2a0f78bf450d.jpg?s=512&d=https%3A%2F%2Fa.slack-edge.com%2Fdf10d%2Fimg%2Favatars%2Fava_0009-512.png", "custom_css": null}, {"id": 5962, "slack_id": "U091LR5PUKD", "display_name": "qikel", "bio": null, "projects_count": 0, "devlogs_count": 0, "votes_count": 0, "ships_count": 0, "projects": [], "coding_time_seconds": 0, "coding_time_seconds_today": 0, "balance": "You need to have a pocket watcher badge to view this.", "badges": [], "created_at": "2025-06-17T06:29:40.838-04:00", "updated_at": "2025-07-03T19:38:11.586-04:00", "avatar": "https://secure.gravatar.com/avatar/597658ac8f9286e2816f0f893dda3977.jpg?s=512&d=https%3A%2F%2Fa.slack-edge.com%2Fdf10d%2Fimg%2Favatars%2Fava_0011-512.png", "custom_css": null}, {"id": 5963, "slack_id": "U07DMUZB5L7", "display_name": "Madster", "bio": null, "projects_count": 0, "devlogs_count": 0, "votes_count": 0, "ships_count": 0, "projects": [], "coding_time_seconds": 346000, "coding_time_seconds_today": 0, "balance": "You need to have a pocket watcher badge to view this.", "badges": [], "created_at": "2025-06-17T06:29:41.376-04:00", "updated_at": "2025-07-03T19:38:11.870-04:00", "avatar": "https://secure.gravatar.com/avatar/f689e9839b05050b4751ce81eb3a440a.jpg?s=512&d=https%3A%2F%2Fa.slack-edge.com%2Fdf10d%2Fimg%2Favatars%2Fava_0013-512.png", "custom_css": null}, {"id": 5964, "slack_id": "U091LR9VBM1", "display_name": "Ariel", "bio": null, "projects_count": 0, "devlogs_count": 0, "votes_count": 0, "ships_count": 0, "projects": [], "coding_time_seconds": 318, "coding_time_seconds_today": 0, "balance": "You need to have a pocket watcher badge to view this.", "badges": [], "created_at": "2025-06-17T06:29:57.791-04:00", "updated_at": "2025-07-03T19:38:12.136-04:00", "avatar": "https://secure.gravatar.com/avatar/1376136b1fd0e310f7768ee1e96c288f.jpg?s=512&d=https%3A%2F%2Fa.slack-edge.com%2Fdf10d%2Fimg%2Favatars%2Fava_0011-512.png", "custom_css": null}, {"id": 5965, "slack_id": "U091LR7AKBM", "display_name": "Arda Aras", "bio": null, "projects_count": 0, "devlogs_count": 0, "votes_count": 1, "ships_count": 0, "projects": [], "coding_time_seconds": 5988, "coding_time_seconds_today": 0, "balance": "You need to have a pocket watcher badge to view this.", "badges": [], "created_at": "2025-06-17T06:30:02.200-04:00", "updated_at": "2025-08-19T18:09:58.641-04:00", "avatar": "https://secure.gravatar.com/avatar/453d3a9c181adbc2b1f310ab9c3ea587.jpg?s=512&d=https%3A%2F%2Fa.slack-edge.com%2Fdf10d%2Fimg%2Favatars%2Fava_0025-512.png", "custom_css": null}, {"id": 5966, "slack_id": "U082UDJJKR8", "display_name": "pranav", "bio": null, "projects_count": 3, "devlogs_count": 4, "votes_count": 5, "ships_count": 3, "projects": [{"id": 2166, "title": "THE CLICKER ", "devlogs_count": 1, "created_at": "2025-06-20T10:54:36.334-04:00"}, {"id": 5823, "title": "THE DASHBOARD", "devlogs_count": 1, "created_at": "2025-07-08T09:11:40.994-04:00"}, {"id": 2397, "title": " P2P CHAT APP", "devlogs_count": 2, "created_at": "2025-06-20T23:15:44.912-04:00"}], "coding_time_seconds": 34173, "coding_time_seconds_today": 0, "balance": "You need to have a pocket watcher badge to view this.", "badges": [{"name": "Maiden Voyage", "text": "you shipped your first project! the journey begins...", "icon": "\ud83d\udea2"}], "created_at": "2025-06-17T06:30:09.462-04:00", "updated_at": "2025-09-10T22:54:08.322-04:00", "avatar": "https://secure.gravatar.com/avatar/3f668cad4a2d2b0df22473c98224457a.jpg?s=512&d=https%3A%2F%2Fa.slack-edge.com%2Fdf10d%2Fimg%2Favatars%2Fava_0004-512.png", "custom_css": null}, {"id": 5967, "slack_id": "U092674F257", "display_name": "franciiscocg", "bio": null, "projects_count": 0, "devlogs_count": 0, "votes_count": 0, "ships_count": 0, "projects": [], "coding_time_seconds": 14726, "coding_time_seconds_today": 0, "balance": "You need to have a pocket watcher badge to view this.", "badges": [], "created_at": "2025-06-17T06:31:26.741-04:00", "updated_at": "2025-07-03T19:38:12.805-04:00", "avatar": "https://secure.gravatar.com/avatar/b62baa76e03431cc5c3b71fa781780c8.jpg?s=512&d=https%3A%2F%2Fa.slack-edge.com%2Fdf10d%2Fimg%2Favatars%2Fava_0014-512.png", "custom_css": null}, {"id": 5968, "slack_id": "U091LRCS9NX", "display_name": "Dhruv Rathi", "bio": null, "projects_count": 0, "devlogs_count": 0, "votes_count": 0, "ships_count": 0, "projects": [], "coding_time_seconds": 0, "coding_time_seconds_today": 0, "balance": "You need to have a pocket watcher badge to view this.", "badges": [], "created_at": "2025-06-17T06:31:35.067-04:00", "updated_at": "2025-07-03T19:38:13.072-04:00", "avatar": "https://secure.gravatar.com/avatar/67497a0c5e4e4ae0126cc5b207621e77.jpg?s=512&d=https%3A%2F%2Fa.slack-edge.com%2Fdf10d%2Fimg%2Favatars%2Fava_0025-512.png", "custom_css": null}, {"id": 5969, "slack_id": "U081YV1RGUE", "display_name": "al1k", "bio": null, "projects_count": 0, "devlogs_count": 0, "votes_count": 2, "ships_count": 0, "projects": [], "coding_time_seconds": 437127, "coding_time_seconds_today": 0, "balance": "You need to have a pocket watcher badge to view this.", "badges": [], "created_at": "2025-06-17T06:31:58.146-04:00", "updated_at": "2025-08-11T17:14:57.582-04:00", "avatar": "https://secure.gravatar.com/avatar/edb1cb3eb90dc6cfc00aaf15cc90d6c5.jpg?s=512&d=https%3A%2F%2Fa.slack-edge.com%2Fdf10d%2Fimg%2Favatars%2Fava_0023-512.png", "custom_css": null}, {"id": 5970, "slack_id": "U091U0RFL7N", "display_name": "ales", "bio": null, "projects_count": 2, "devlogs_count": 11, "votes_count": 35, "ships_count": 1, "projects": [{"id": 11579, "title": "cineline", "devlogs_count": 0, "created_at": "2025-08-17T07:27:11.288-04:00"}, {"id": 1040, "title": "gitspect", "devlogs_count": 11, "created_at": "2025-06-17T14:10:39.159-04:00"}], "coding_time_seconds": 51624, "coding_time_seconds_today": 0, "balance": "You need to have a pocket watcher badge to view this.", "badges": [{"name": "Maiden Voyage", "text": "you shipped your first project! the journey begins...", "icon": "\ud83d\udea2"}], "created_at": "2025-06-17T06:31:58.544-04:00", "updated_at": "2025-09-10T22:54:08.447-04:00", "avatar": "https://avatars.slack-edge.com/2025-06-18/9071166552626_c881352ede21b95751b8_original.jpg", "custom_css": null}, {"id": 5971, "slack_id": "U08RV2Z394G", "display_name": "Jheams S.", "bio": null, "projects_count": 0, "devlogs_count": 0, "votes_count": 0, "ships_count": 0, "projects": [], "coding_time_seconds": 138440, "coding_time_seconds_today": 0, "balance": "You need to have a pocket watcher badge to view this.", "badges": [], "created_at": "2025-06-17T06:32:07.483-04:00", "updated_at": "2025-07-03T19:38:13.863-04:00", "avatar": "https://avatars.slack-edge.com/2025-05-10/8869444042054_fe63312f097349f5127e_original.png", "custom_css": null}, {"id": 5972, "slack_id": "U091LRQEXRR", "display_name": "DareDevils009", "bio": null, "projects_count": 0, "devlogs_count": 0, "votes_count": 0, "ships_count": 0, "projects": [], "coding_time_seconds": 0, "coding_time_seconds_today": 0, "balance": "You need to have a pocket watcher badge to view this.", "badges": [], "created_at": "2025-06-17T06:33:34.472-04:00", "updated_at": "2025-07-03T19:38:14.124-04:00", "avatar": "https://secure.gravatar.com/avatar/f3252d1d110d2c331c3676378279829c.jpg?s=512&d=https%3A%2F%2Fa.slack-edge.com%2Fdf10d%2Fimg%2Favatars%2Fava_0005-512.png", "custom_css": null}, {"id": 5973, "slack_id": "U09267N3ZBK", "display_name": "Freek", "bio": null, "projects_count": 0, "devlogs_count": 0, "votes_count": 0, "ships_count": 0, "projects": [], "coding_time_seconds": 0, "coding_time_seconds_today": 0, "balance": "You need to have a pocket watcher badge to view this.", "badges": [], "created_at": "2025-06-17T06:35:09.099-04:00", "updated_at": "2025-07-03T19:38:14.447-04:00", "avatar": "https://secure.gravatar.com/avatar/2ef09d9a24386ae434be583eb454e89a.jpg?s=512&d=https%3A%2F%2Fa.slack-edge.com%2Fdf10d%2Fimg%2Favatars%2Fava_0015-512.png", "custom_css": null}, {"id": 5974, "slack_id": "U091C98QCK1", "display_name": "TADELA SAI KIRAN", "bio": null, "projects_count": 0, "devlogs_count": 0, "votes_count": 0, "ships_count": 0, "projects": [], "coding_time_seconds": 0, "coding_time_seconds_today": 0, "balance": "You need to have a pocket watcher badge to view this.", "badges": [], "created_at": "2025-06-17T06:35:40.321-04:00", "updated_at": "2025-07-03T19:38:14.711-04:00", "avatar": "https://secure.gravatar.com/avatar/24e669fafa619514232c8d87bed30d00.jpg?s=512&d=https%3A%2F%2Fa.slack-edge.com%2Fdf10d%2Fimg%2Favatars%2Fava_0017-512.png", "custom_css": null}, {"id": 5975, "slack_id": "U092G1KUEL8", "display_name": "Vedang", "bio": null, "projects_count": 0, "devlogs_count": 0, "votes_count": 0, "ships_count": 0, "projects": [], "coding_time_seconds": 90815, "coding_time_seconds_today": 0, "balance": "You need to have a pocket watcher badge to view this.", "badges": [], "created_at": "2025-06-17T06:35:53.673-04:00", "updated_at": "2025-07-03T19:38:14.976-04:00", "avatar": "https://secure.gravatar.com/avatar/5c6c9a97a00b1c2e685f11598da435f4.jpg?s=512&d=https%3A%2F%2Fa.slack-edge.com%2Fdf10d%2Fimg%2Favatars%2Fava_0007-512.png", "custom_css": null}, {"id": 5976, "slack_id": "U092G22K4JU", "display_name": "momo", "bio": null, "projects_count": 0, "devlogs_count": 0, "votes_count": 0, "ships_count": 0, "projects": [], "coding_time_seconds": 0, "coding_time_seconds_today": 0, "balance": "You need to have a pocket watcher badge to view this.", "badges": [], "created_at": "2025-06-17T06:35:58.621-04:00", "updated_at": "2025-07-03T19:38:15.232-04:00", "avatar": "https://secure.gravatar.com/avatar/20639508d32cbc2f0ea61cba20916124.jpg?s=512&d=https%3A%2F%2Fa.slack-edge.com%2Fdf10d%2Fimg%2Favatars%2Fava_0021-512.png", "custom_css": null}, {"id": 5977, "slack_id": "U091TLQ03NE", "display_name": "Ahmed Nasser", "bio": null, "projects_count": 1, "devlogs_count": 1, "votes_count": 0, "ships_count": 1, "projects": [{"id": 779, "title": "Plant Disease Prediction", "devlogs_count": 1, "created_at": "2025-06-17T08:07:45.651-04:00"}], "coding_time_seconds": 986, "coding_time_seconds_today": 0, "balance": "You need to have a pocket watcher badge to view this.", "badges": [{"name": "Maiden Voyage", "text": "you shipped your first project! the journey begins...", "icon": "\ud83d\udea2"}], "created_at": "2025-06-17T06:36:27.106-04:00", "updated_at": "2025-09-10T22:54:08.712-04:00", "avatar": "https://secure.gravatar.com/avatar/61f5345ecae28ed9320cdf8aa8509d96.jpg?s=512&d=https%3A%2F%2Fa.slack-edge.com%2Fdf10d%2Fimg%2Favatars%2Fava_0009-512.png", "custom_css": null}, {"id": 5978, "slack_id": "U092G18PXPA", "display_name": "Aart Verschuure", "bio": null, "projects_count": 0, "devlogs_count": 0, "votes_count": 0, "ships_count": 0, "projects": [], "coding_time_seconds": 0, "coding_time_seconds_today": 0, "balance": "You need to have a pocket watcher badge to view this.", "badges": [], "created_at": "2025-06-17T06:36:27.891-04:00", "updated_at": "2025-07-03T19:38:15.757-04:00", "avatar": "https://secure.gravatar.com/avatar/be8e482d24f97f78fa86d2a9e6ca88f5.jpg?s=512&d=https%3A%2F%2Fa.slack-edge.com%2Fdf10d%2Fimg%2Favatars%2Fava_0012-512.png", "custom_css": null}, {"id": 5979, "slack_id": "U092G1TSK3J", "display_name": "Lou", "bio": null, "projects_count": 5, "devlogs_count": 5, "votes_count": 10, "ships_count": 3, "projects": [{"id": 741, "title": "Home Lab", "devlogs_count": 1, "created_at": "2025-06-17T07:07:17.854-04:00"}, {"id": 743, "title": "LateBus", "devlogs_count": 0, "created_at": "2025-06-17T07:08:59.459-04:00"}, {"id": 745, "title": "Quantum Computing and its impact on Cryptography!", "devlogs_count": 1, "created_at": "2025-06-17T07:11:07.880-04:00"}, {"id": 1815, "title": "Obsidian PDF Export Automator", "devlogs_count": 2, "created_at": "2025-06-19T10:32:17.503-04:00"}, {"id": 1454, "title": "Ai and randomness", "devlogs_count": 1, "created_at": "2025-06-18T15:19:38.039-04:00"}], "coding_time_seconds": 100065, "coding_time_seconds_today": 0, "balance": "You need to have a pocket watcher badge to view this.", "badges": [{"name": "Maiden Voyage", "text": "you shipped your first project! the journey begins...", "icon": "\ud83d\udea2"}], "created_at": "2025-06-17T06:36:28.097-04:00", "updated_at": "2025-09-10T22:54:08.768-04:00", "avatar": "https://secure.gravatar.com/avatar/2d1c13760de61deefe4bc52ab133eb0e.jpg?s=512&d=https%3A%2F%2Fa.slack-edge.com%2Fdf10d%2Fimg%2Favatars%2Fava_0024-512.png", "custom_css": null}, {"id": 5980, "slack_id": "UUU5GD278", "display_name": "Albert tindi", "bio": null, "projects_count": 0, "devlogs_count": 0, "votes_count": 0, "ships_count": 0, "projects": [], "coding_time_seconds": 0, "coding_time_seconds_today": 0, "balance": "You need to have a pocket watcher badge to view this.", "badges": [], "created_at": "2025-06-17T06:36:32.446-04:00", "updated_at": "2025-07-03T19:38:16.290-04:00", "avatar": "https://avatars.slack-edge.com/2023-06-01/5372070397377_9a7b3f3ee1270cc6201e_original.jpg", "custom_css": null}], "pagination": {"page": 299, "pages": 1192, "count": 23828, "items": 20}}