{"users": [{"id": 41, "slack_id": "U0810GB0HE3", "display_name": "yessa", "bio": "wot", "projects_count": 2, "devlogs_count": 9, "votes_count": 0, "ships_count": 0, "projects": [{"id": 8059, "title": "unsent", "devlogs_count": 9, "created_at": "2025-07-24T10:47:29.469-04:00"}, {"id": 66, "title": "starter pack", "devlogs_count": 0, "created_at": "2025-06-16T11:56:04.003-04:00"}], "coding_time_seconds": 448187, "coding_time_seconds_today": 1166, "balance": "You need to have a pocket watcher badge to view this.", "badges": [], "created_at": "2025-06-15T20:51:17.056-04:00", "updated_at": "2025-09-17T01:28:08.670-04:00", "avatar": "https://avatars.slack-edge.com/2025-04-20/8769859625798_b6e6c4512004dfedeb04_original.png", "custom_css": null}, {"id": 42, "slack_id": "U07346379NY", "display_name": "kestrel", "bio": null, "projects_count": 1, "devlogs_count": 0, "votes_count": 0, "ships_count": 0, "projects": [{"id": 31, "title": "kestrel.pet", "devlogs_count": 0, "created_at": "2025-06-16T03:25:30.187-04:00"}], "coding_time_seconds": 176672, "coding_time_seconds_today": 0, "balance": "You need to have a pocket watcher badge to view this.", "badges": [], "created_at": "2025-06-15T20:56:03.671-04:00", "updated_at": "2025-09-08T13:57:38.249-04:00", "avatar": "https://avatars.slack-edge.com/2025-06-15/9065763614785_992c30811a8450ede061_original.jpg", "custom_css": null}, {"id": 43, "slack_id": "U020X4GCWSF", "display_name": "Rushmore", "bio": "", "projects_count": 1, "devlogs_count": 2, "votes_count": 1, "ships_count": 1, "projects": [{"id": 17, "title": "OneLineJournal", "devlogs_count": 2, "created_at": "2025-06-15T21:55:06.390-04:00"}], "coding_time_seconds": 69346, "coding_time_seconds_today": 0, "balance": "You need to have a pocket watcher badge to view this.", "badges": [{"name": "<%= admin_tool do %>", "text": "with great power comes great responsibility... and a ban hammer.", "icon": "\ud83d\udd28"}, {"name": "Graphic Design is My Passion", "text": "Oh God How Did This Get Here I Am Not Good With Computer", "icon": "\ud83c\udfa8"}, {"name": "Maiden Voyage", "text": "you shipped your first project! the journey begins...", "icon": "\ud83d\udea2"}], "created_at": "2025-06-15T20:56:06.236-04:00", "updated_at": "2025-09-25T00:00:10.492-04:00", "avatar": "https://avatars.slack-edge.com/2025-09-24/9563290434647_faf4c8982d082d02e671_original.png", "custom_css": ""}, {"id": 44, "slack_id": "U07FPDRVCD8", "display_name": "Anson", "bio": null, "projects_count": 0, "devlogs_count": 0, "votes_count": 0, "ships_count": 0, "projects": [], "coding_time_seconds": 0, "coding_time_seconds_today": 0, "balance": "You need to have a pocket watcher badge to view this.", "badges": [], "created_at": "2025-06-15T20:58:33.421-04:00", "updated_at": "2025-08-09T20:00:08.803-04:00", "avatar": "https://avatars.slack-edge.com/2025-08-10/9355765248080_2b48f6da8916020ffe31_original.png", "custom_css": null}, {"id": 45, "slack_id": "U062UG485EE", "display_name": "krn", "bio": null, "projects_count": 8, "devlogs_count": 19, "votes_count": 141, "ships_count": 8, "projects": [{"id": 4778, "title": "Akami", "devlogs_count": 2, "created_at": "2025-07-01T13:04:18.509-04:00"}, {"id": 11190, "title": "Anthropic API key grabber", "devlogs_count": 2, "created_at": "2025-08-14T00:04:25.961-04:00"}, {"id": 11192, "title": "Reproducible system from nix [kieran edition]", "devlogs_count": 1, "created_at": "2025-08-14T00:14:28.606-04:00"}, {"id": 9054, "title": "cachet", "devlogs_count": 1, "created_at": "2025-07-30T10:39:52.031-04:00"}, {"id": 8137, "title": "CTFd Alerts", "devlogs_count": 1, "created_at": "2025-07-24T20:43:26.474-04:00"}, {"id": 7148, "title": "RapidRaw nixpkgs", "devlogs_count": 3, "created_at": "2025-07-19T13:13:32.478-04:00"}, {"id": 10248, "title": "site@zera", "devlogs_count": 2, "created_at": "2025-08-05T11:21:48.377-04:00"}, {"id": 9329, "title": "Shortwave", "devlogs_count": 2, "created_at": "2025-07-31T15:52:03.499-04:00"}], "coding_time_seconds": 480439, "coding_time_seconds_today": 0, "balance": "You need to have a pocket watcher badge to view this.", "badges": [{"name": "Maiden Voyage", "text": "you shipped your first project! the journey begins...", "icon": "\ud83d\udea2"}, {"name": "Ballot Stuffer", "text": "vote 100 times.", "icon": "https://summer.hackclub.com/assets/i_voted-bf851b48.png"}], "created_at": "2025-06-15T20:58:51.390-04:00", "updated_at": "2025-09-16T00:00:12.248-04:00", "avatar": "https://avatars.slack-edge.com/2025-09-15/9537088277761_13d04b98d7041777a5bb_original.jpg", "custom_css": null}, {"id": 46, "slack_id": "U04G40QKAAD", "display_name": "samuel", "bio": null, "projects_count": 1, "devlogs_count": 0, "votes_count": 0, "ships_count": 0, "projects": [{"id": 4983, "title": "test", "devlogs_count": 0, "created_at": "2025-07-02T14:24:45.944-04:00"}], "coding_time_seconds": 210031, "coding_time_seconds_today": 0, "balance": "You need to have a pocket watcher badge to view this.", "badges": [], "created_at": "2025-06-15T21:11:05.158-04:00", "updated_at": "2025-09-03T20:00:09.044-04:00", "avatar": "https://avatars.slack-edge.com/2025-09-03/9460072079876_a5b0c8b0dd7c468a1b15_original.jpg", "custom_css": null}, {"id": 47, "slack_id": "U07V1ND4H0Q", "display_name": "pbhak", "bio": null, "projects_count": 0, "devlogs_count": 0, "votes_count": 0, "ships_count": 0, "projects": [], "coding_time_seconds": 223625, "coding_time_seconds_today": 0, "balance": "You need to have a pocket watcher badge to view this.", "badges": [], "created_at": "2025-06-15T21:11:16.418-04:00", "updated_at": "2025-08-14T20:00:10.715-04:00", "avatar": "https://avatars.slack-edge.com/2025-08-14/9355760644162_c564469ca064e7ce1ed7_original.png", "custom_css": null}, {"id": 48, "slack_id": "U082RFNDVKQ", "display_name": "DJ_Laser", "bio": "I like rust and playing minecraft", "projects_count": 3, "devlogs_count": 4, "votes_count": 10, "ships_count": 1, "projects": [{"id": 7267, "title": "Robopets Mod", "devlogs_count": 1, "created_at": "2025-07-20T14:49:35.425-04:00"}, {"id": 12336, "title": "paintty", "devlogs_count": 1, "created_at": "2025-08-25T23:27:55.619-04:00"}, {"id": 12563, "title": "P2P Mafia", "devlogs_count": 2, "created_at": "2025-08-29T16:56:21.166-04:00"}], "coding_time_seconds": 679132, "coding_time_seconds_today": 0, "balance": "You need to have a pocket watcher badge to view this.", "badges": [{"name": "Maiden Voyage", "text": "you shipped your first project! the journey begins...", "icon": "\ud83d\udea2"}], "created_at": "2025-06-15T21:11:27.312-04:00", "updated_at": "2025-09-10T22:51:07.282-04:00", "avatar": "https://avatars.slack-edge.com/2025-08-30/9449598563457_ecc0f35a6508da72a5e6_original.png", "custom_css": null}, {"id": 49, "slack_id": "U078RA454JH", "display_name": "PythonAtSea / Hudson", "bio": null, "projects_count": 0, "devlogs_count": 0, "votes_count": 0, "ships_count": 0, "projects": [], "coding_time_seconds": 146803, "coding_time_seconds_today": 0, "balance": "You need to have a pocket watcher badge to view this.", "badges": [], "created_at": "2025-06-15T21:12:41.837-04:00", "updated_at": "2025-08-08T14:52:12.125-04:00", "avatar": "https://avatars.slack-edge.com/2025-05-31/8982443342532_f5f66cfa04f536e05247_original.png", "custom_css": null}, {"id": 50, "slack_id": "U078PH0GBEH", "display_name": "Deployor", "bio": null, "projects_count": 1, "devlogs_count": 2, "votes_count": 0, "ships_count": 0, "projects": [{"id": 8114, "title": "Heidi-Fi", "devlogs_count": 2, "created_at": "2025-07-24T17:46:07.360-04:00"}], "coding_time_seconds": 284964, "coding_time_seconds_today": 0, "balance": "You need to have a pocket watcher badge to view this.", "badges": [], "created_at": "2025-06-15T21:12:48.833-04:00", "updated_at": "2025-09-23T00:00:07.596-04:00", "avatar": "https://avatars.slack-edge.com/2025-09-23/9576905313153_d995859c4b2786227b10_original.png", "custom_css": null}, {"id": 51, "slack_id": "U07FD57JN67", "display_name": "adi // pizzalover125", "bio": null, "projects_count": 10, "devlogs_count": 71, "votes_count": 82, "ships_count": 8, "projects": [{"id": 13218, "title": "The Code Hatch ", "devlogs_count": 1, "created_at": "2025-09-11T23:33:30.318-04:00"}, {"id": 4130, "title": "Pizza Clicker Game", "devlogs_count": 1, "created_at": "2025-06-27T16:39:29.315-04:00"}, {"id": 5140, "title": "Enclosure YSWS", "devlogs_count": 2, "created_at": "2025-07-03T12:33:19.681-04:00"}, {"id": 7051, "title": "Wellth", "devlogs_count": 8, "created_at": "2025-07-18T14:46:27.946-04:00"}, {"id": 11433, "title": "Count - Visualize time", "devlogs_count": 7, "created_at": "2025-08-15T21:36:12.051-04:00"}, {"id": 4797, "title": "Stats for SoM", "devlogs_count": 7, "created_at": "2025-07-01T15:24:26.725-04:00"}, {"id": 13602, "title": "minimalist tab", "devlogs_count": 2, "created_at": "2025-09-20T14:45:36.557-04:00"}, {"id": 3937, "title": "Glyph: Terminal-based Social Media", "devlogs_count": 12, "created_at": "2025-06-26T11:57:40.298-04:00"}, {"id": 8060, "title": "Wallpaper Forge", "devlogs_count": 8, "created_at": "2025-07-24T10:48:39.073-04:00"}, {"id": 5619, "title": "Hack Club App", "devlogs_count": 23, "created_at": "2025-07-06T16:09:08.263-04:00"}], "coding_time_seconds": 495392, "coding_time_seconds_today": 0, "balance": "You need to have a pocket watcher badge to view this.", "badges": [{"name": "Maiden Voyage", "text": "you shipped your first project! the journey begins...", "icon": "\ud83d\udea2"}], "created_at": "2025-06-15T21:12:56.306-04:00", "updated_at": "2025-09-10T22:51:07.382-04:00", "avatar": "https://avatars.slack-edge.com/2025-07-22/9237442536965_3a825f0314c4207667a3_original.png", "custom_css": null}, {"id": 52, "slack_id": "U02KQ9WQT0A", "display_name": "ghost of krishnaa", "bio": null, "projects_count": 16, "devlogs_count": 42, "votes_count": 26, "ships_count": 4, "projects": [{"id": 1328, "title": "mnemo", "devlogs_count": 1, "created_at": "2025-06-18T09:05:32.402-04:00"}, {"id": 3429, "title": "names", "devlogs_count": 1, "created_at": "2025-06-24T07:43:06.931-04:00"}, {"id": 4964, "title": "nox", "devlogs_count": 1, "created_at": "2025-07-02T12:21:02.101-04:00"}, {"id": 5225, "title": "tastebuds", "devlogs_count": 4, "created_at": "2025-07-03T21:22:22.547-04:00"}, {"id": 5755, "title": "WhiteStone Capital", "devlogs_count": 2, "created_at": "2025-07-07T18:17:03.236-04:00"}, {"id": 6291, "title": "Delphi", "devlogs_count": 3, "created_at": "2025-07-12T04:15:56.970-04:00"}, {"id": 8357, "title": "krish's Portfolio Hive", "devlogs_count": 1, "created_at": "2025-07-26T13:31:40.158-04:00"}, {"id": 9220, "title": "Vampirism", "devlogs_count": 5, "created_at": "2025-07-31T02:49:44.010-04:00"}, {"id": 9253, "title": "fruits", "devlogs_count": 1, "created_at": "2025-07-31T07:08:42.972-04:00"}, {"id": 9493, "title": "YSWS Astra", "devlogs_count": 1, "created_at": "2025-08-01T12:49:18.606-04:00"}, {"id": 12268, "title": "Poetria", "devlogs_count": 2, "created_at": "2025-08-25T05:09:08.246-04:00"}, {"id": 5756, "title": "Iris", "devlogs_count": 0, "created_at": "2025-07-07T18:19:24.562-04:00"}, {"id": 8470, "title": "eris", "devlogs_count": 4, "created_at": "2025-07-27T11:40:45.244-04:00"}, {"id": 4165, "title": "orpheus", "devlogs_count": 2, "created_at": "2025-06-28T01:13:18.849-04:00"}, {"id": 5080, "title": "Dockyard", "devlogs_count": 10, "created_at": "2025-07-03T05:34:26.686-04:00"}, {"id": 8257, "title": "Nom", "devlogs_count": 4, "created_at": "2025-07-25T18:07:27.208-04:00"}], "coding_time_seconds": 462516, "coding_time_seconds_today": 1100, "balance": "You need to have a pocket watcher badge to view this.", "badges": [{"name": "Maiden Voyage", "text": "you shipped your first project! the journey begins...", "icon": "\ud83d\udea2"}], "created_at": "2025-06-15T21:15:32.515-04:00", "updated_at": "2025-09-22T12:00:10.303-04:00", "avatar": "https://avatars.slack-edge.com/2025-09-22/9555681115539_2b039cf49f5d63cdfbd6_original.png", "custom_css": null}, {"id": 53, "slack_id": "U06V886HQLS", "display_name": "and", "bio": null, "projects_count": 1, "devlogs_count": 1, "votes_count": 1, "ships_count": 1, "projects": [{"id": 4305, "title": "filetfy", "devlogs_count": 1, "created_at": "2025-06-28T20:21:10.789-04:00"}], "coding_time_seconds": 456856, "coding_time_seconds_today": 0, "balance": "You need to have a pocket watcher badge to view this.", "badges": [{"name": "Maiden Voyage", "text": "you shipped your first project! the journey begins...", "icon": "\ud83d\udea2"}], "created_at": "2025-06-15T21:17:12.941-04:00", "updated_at": "2025-09-10T22:51:07.488-04:00", "avatar": "https://avatars.slack-edge.com/2025-02-26/8530377889857_589c09d6865637b01a9a_original.png", "custom_css": null}, {"id": 54, "slack_id": "U062U3SQ2T1", "display_name": "hussein", "bio": null, "projects_count": 0, "devlogs_count": 0, "votes_count": 0, "ships_count": 0, "projects": [], "coding_time_seconds": 32806, "coding_time_seconds_today": 0, "balance": "You need to have a pocket watcher badge to view this.", "badges": [], "created_at": "2025-06-15T21:18:24.255-04:00", "updated_at": "2025-09-02T02:00:08.606-04:00", "avatar": "https://avatars.slack-edge.com/2025-09-01/9447853255524_c450573991ba5e4a0d83_original.png", "custom_css": null}, {"id": 55, "slack_id": "U041DAECHHA", "display_name": "Elliot", "bio": null, "projects_count": 0, "devlogs_count": 0, "votes_count": 0, "ships_count": 0, "projects": [], "coding_time_seconds": 235410, "coding_time_seconds_today": 0, "balance": "You need to have a pocket watcher badge to view this.", "badges": [], "created_at": "2025-06-15T21:18:26.493-04:00", "updated_at": "2025-07-03T19:11:11.212-04:00", "avatar": "https://avatars.slack-edge.com/2025-05-11/8876775599461_8a22f61a30b062fd9e3c_original.jpg", "custom_css": null}, {"id": 56, "slack_id": "U07UVDH3UGJ", "display_name": "anshnk", "bio": null, "projects_count": 0, "devlogs_count": 0, "votes_count": 0, "ships_count": 0, "projects": [], "coding_time_seconds": 43524, "coding_time_seconds_today": 0, "balance": "You need to have a pocket watcher badge to view this.", "badges": [], "created_at": "2025-06-15T21:19:11.974-04:00", "updated_at": "2025-07-03T19:11:11.486-04:00", "avatar": "https://avatars.slack-edge.com/2024-11-04/7983967746868_ac09e9d1b26d7583cc26_original.png", "custom_css": null}, {"id": 57, "slack_id": "U077K9VR5LL", "display_name": "magical paperclip", "bio": null, "projects_count": 0, "devlogs_count": 0, "votes_count": 0, "ships_count": 0, "projects": [], "coding_time_seconds": 174983, "coding_time_seconds_today": 0, "balance": "You need to have a pocket watcher badge to view this.", "badges": [], "created_at": "2025-06-15T21:20:19.271-04:00", "updated_at": "2025-08-15T14:00:08.928-04:00", "avatar": "https://avatars.slack-edge.com/2025-08-15/9359945531490_41e8a9bafd096d22ac75_original.png", "custom_css": null}, {"id": 58, "slack_id": "U08PW9U1PJN", "display_name": "Chesspotato", "bio": "Yo im cool and you should vote for my projects trying to get the a1 mini if you have any questions my slack user is chesspotato", "projects_count": 4, "devlogs_count": 74, "votes_count": 97, "ships_count": 3, "projects": [{"id": 13608, "title": "Gamo", "devlogs_count": 6, "created_at": "2025-09-20T20:04:29.959-04:00"}, {"id": 12320, "title": "Reaction Bot", "devlogs_count": 10, "created_at": "2025-08-25T16:20:14.955-04:00"}, {"id": 12516, "title": "Terminal Water Tracker", "devlogs_count": 4, "created_at": "2025-08-28T22:10:08.871-04:00"}, {"id": 13352, "title": "BOBA TEA", "devlogs_count": 3, "created_at": "2025-09-14T12:32:42.015-04:00"}], "coding_time_seconds": 480316, "coding_time_seconds_today": 0, "balance": "You need to have a pocket watcher badge to view this.", "badges": [{"name": "Maiden Voyage", "text": "you shipped your first project! the journey begins...", "icon": "\ud83d\udea2"}, {"name": "Yapper I", "text": "Posted 10 comments on devlogs.", "icon": "\ud83d\udcac"}], "created_at": "2025-06-15T21:21:06.030-04:00", "updated_at": "2025-09-10T22:51:07.626-04:00", "avatar": "https://avatars.slack-edge.com/2025-08-27/9419801049797_bab49f46a9111d05b3d3_original.png", "custom_css": null}, {"id": 59, "slack_id": "U07DAB9CY93", "display_name": "I.K.", "bio": null, "projects_count": 0, "devlogs_count": 0, "votes_count": 0, "ships_count": 0, "projects": [], "coding_time_seconds": 0, "coding_time_seconds_today": 0, "balance": "You need to have a pocket watcher badge to view this.", "badges": [], "created_at": "2025-06-15T21:23:45.085-04:00", "updated_at": "2025-07-03T19:11:12.300-04:00", "avatar": "https://avatars.slack-edge.com/2024-07-29/7495771359875_33a69866bea39af97c52_original.png", "custom_css": null}, {"id": 60, "slack_id": "U06MC0G7A4R", "display_name": "Mohit Tiwari", "bio": "@ Siege HQ | Creative Web Developer", "projects_count": 3, "devlogs_count": 83, "votes_count": 98, "ships_count": 3, "projects": [{"id": 2596, "title": "Dogs Summit", "devlogs_count": 4, "created_at": "2025-06-21T12:06:31.260-04:00"}, {"id": 26, "title": "Lunar", "devlogs_count": 70, "created_at": "2025-06-16T00:32:14.824-04:00"}, {"id": 3923, "title": "Mohit's AI agent (slack bot)", "devlogs_count": 9, "created_at": "2025-06-26T10:46:54.014-04:00"}], "coding_time_seconds": 517082, "coding_time_seconds_today": 2147, "balance": "You need to have a pocket watcher badge to view this.", "badges": [{"name": "Maiden Voyage", "text": "you shipped your first project! the journey begins...", "icon": "\ud83d\udea2"}, {"name": "Yapper I", "text": "Posted 10 comments on devlogs.", "icon": "\ud83d\udcac"}, {"name": "Ballot Stuffer", "text": "vote 100 times.", "icon": "https://summer.hackclub.com/assets/i_voted-bf851b48.png"}], "created_at": "2025-06-15T21:23:48.032-04:00", "updated_at": "2025-09-21T06:00:18.949-04:00", "avatar": "https://avatars.slack-edge.com/2025-09-21/9568575078097_72c04be790555656f339_original.jpg", "custom_css": null}], "pagination": {"page": 3, "pages": 1192, "count": 23827, "items": 20}}