{"users": [{"id": 5981, "slack_id": "U091TLT7CDQ", "display_name": "Kasper Cools", "bio": null, "projects_count": 0, "devlogs_count": 0, "votes_count": 0, "ships_count": 0, "projects": [], "coding_time_seconds": 0, "coding_time_seconds_today": 0, "balance": "You need to have a pocket watcher badge to view this.", "badges": [], "created_at": "2025-06-17T06:36:33.311-04:00", "updated_at": "2025-07-04T20:06:26.312-04:00", "avatar": "https://secure.gravatar.com/avatar/9fbb428c28e7b5a5553bbda414bf41d0.jpg?s=512&d=https%3A%2F%2Fa.slack-edge.com%2Fdf10d%2Fimg%2Favatars%2Fava_0014-512.png", "custom_css": null}, {"id": 5982, "slack_id": "U091U1RRAS0", "display_name": "MrsRobot", "bio": null, "projects_count": 0, "devlogs_count": 0, "votes_count": 0, "ships_count": 0, "projects": [], "coding_time_seconds": 0, "coding_time_seconds_today": 0, "balance": "You need to have a pocket watcher badge to view this.", "badges": [], "created_at": "2025-06-17T06:36:56.876-04:00", "updated_at": "2025-07-03T19:38:16.707-04:00", "avatar": "https://secure.gravatar.com/avatar/283336d648ba6e5fb39e2410a195d2fd.jpg?s=512&d=https%3A%2F%2Fa.slack-edge.com%2Fdf10d%2Fimg%2Favatars%2Fava_0016-512.png", "custom_css": null}, {"id": 5983, "slack_id": "U091M14TENS", "display_name": "Renx", "bio": null, "projects_count": 0, "devlogs_count": 0, "votes_count": 0, "ships_count": 0, "projects": [], "coding_time_seconds": 0, "coding_time_seconds_today": 0, "balance": "You need to have a pocket watcher badge to view this.", "badges": [], "created_at": "2025-06-17T06:37:10.662-04:00", "updated_at": "2025-07-03T22:34:05.241-04:00", "avatar": "https://secure.gravatar.com/avatar/36e75bf397f8c1bfa00e11e1920be905.jpg?s=512&d=https%3A%2F%2Fa.slack-edge.com%2Fdf10d%2Fimg%2Favatars%2Fava_0005-512.png", "custom_css": null}, {"id": 5984, "slack_id": "U091LSK2K7D", "display_name": "Emmanuel", "bio": null, "projects_count": 0, "devlogs_count": 0, "votes_count": 0, "ships_count": 0, "projects": [], "coding_time_seconds": 160, "coding_time_seconds_today": 0, "balance": "You need to have a pocket watcher badge to view this.", "badges": [], "created_at": "2025-06-17T06:37:55.469-04:00", "updated_at": "2025-07-03T19:38:17.123-04:00", "avatar": "https://secure.gravatar.com/avatar/d7bf20a894637c4b12db4bfbd39fb6dc.jpg?s=512&d=https%3A%2F%2Fa.slack-edge.com%2Fdf10d%2Fimg%2Favatars%2Fava_0014-512.png", "custom_css": null}, {"id": 5985, "slack_id": "U0925A59AKT", "display_name": "Sam Siu", "bio": null, "projects_count": 1, "devlogs_count": 5, "votes_count": 0, "ships_count": 1, "projects": [{"id": 11158, "title": "My portifolio v2", "devlogs_count": 4, "created_at": "2025-08-13T16:28:18.450-04:00"}], "coding_time_seconds": 102156, "coding_time_seconds_today": 1693, "balance": "You need to have a pocket watcher badge to view this.", "badges": [{"name": "Maiden Voyage", "text": "you shipped your first project! the journey begins...", "icon": "\ud83d\udea2"}], "created_at": "2025-06-17T06:37:59.569-04:00", "updated_at": "2025-09-18T11:19:32.526-04:00", "avatar": "https://avatars.slack-edge.com/2025-06-17/9054914370259_3e6d2e5f78cf00ab1938_original.png", "custom_css": null}, {"id": 5986, "slack_id": "U091RT69AJ1", "display_name": "Abhiyan Shrestha", "bio": null, "projects_count": 0, "devlogs_count": 0, "votes_count": 0, "ships_count": 0, "projects": [], "coding_time_seconds": 88404, "coding_time_seconds_today": 0, "balance": "You need to have a pocket watcher badge to view this.", "badges": [], "created_at": "2025-06-17T06:38:45.833-04:00", "updated_at": "2025-07-03T19:38:17.517-04:00", "avatar": "https://avatars.slack-edge.com/2025-06-17/9054917631363_1196dbfc1061becada2f_original.jpg", "custom_css": null}, {"id": 5987, "slack_id": "U091M1CA3GW", "display_name": "Rudy Ayitinya Sulley", "bio": null, "projects_count": 0, "devlogs_count": 0, "votes_count": 0, "ships_count": 0, "projects": [], "coding_time_seconds": 0, "coding_time_seconds_today": 0, "balance": "You need to have a pocket watcher badge to view this.", "badges": [], "created_at": "2025-06-17T06:39:05.065-04:00", "updated_at": "2025-07-03T19:38:17.784-04:00", "avatar": "https://secure.gravatar.com/avatar/bdd69748ad37f0c4c7d0c592e8e7fdc5.jpg?s=512&d=https%3A%2F%2Fa.slack-edge.com%2Fdf10d%2Fimg%2Favatars%2Fava_0026-512.png", "custom_css": null}, {"id": 5988, "slack_id": "U092684963T", "display_name": "Jia", "bio": null, "projects_count": 0, "devlogs_count": 0, "votes_count": 0, "ships_count": 0, "projects": [], "coding_time_seconds": 0, "coding_time_seconds_today": 0, "balance": "You need to have a pocket watcher badge to view this.", "badges": [], "created_at": "2025-06-17T06:39:05.063-04:00", "updated_at": "2025-07-05T14:07:30.903-04:00", "avatar": "https://secure.gravatar.com/avatar/23448bd7f7cbefe46bdf86a5742da42f.jpg?s=512&d=https%3A%2F%2Fa.slack-edge.com%2Fdf10d%2Fimg%2Favatars%2Fava_0009-512.png", "custom_css": null}, {"id": 5989, "slack_id": "U091M1JF0PQ", "display_name": "Chee Yong", "bio": null, "projects_count": 0, "devlogs_count": 186, "votes_count": 209, "ships_count": 0, "projects": [], "coding_time_seconds": 953457, "coding_time_seconds_today": 0, "balance": "You need to have a pocket watcher badge to view this.", "badges": [{"name": "Maiden Voyage", "text": "you shipped your first project! the journey begins...", "icon": "\ud83d\udea2"}, {"name": "Ballot Stuffer", "text": "vote 100 times.", "icon": "https://summer.hackclub.com/assets/i_voted-bf851b48.png"}], "created_at": "2025-06-17T06:40:25.195-04:00", "updated_at": "2025-09-10T22:54:09.010-04:00", "avatar": "https://avatars.slack-edge.com/2025-06-17/9055069693878_0e44152d0596b1290d2e_original.png", "custom_css": null}, {"id": 5990, "slack_id": "U091C83MVAB", "display_name": "Diddy", "bio": null, "projects_count": 0, "devlogs_count": 0, "votes_count": 0, "ships_count": 0, "projects": [], "coding_time_seconds": 0, "coding_time_seconds_today": 0, "balance": "You need to have a pocket watcher badge to view this.", "badges": [], "created_at": "2025-06-17T06:41:03.980-04:00", "updated_at": "2025-07-03T19:38:18.445-04:00", "avatar": "https://avatars.slack-edge.com/2025-06-17/9057435003606_1c9696ab9d28a8a5ebb5_original.png", "custom_css": null}, {"id": 5991, "slack_id": "U091LSWU999", "display_name": "Kurisu Makise", "bio": null, "projects_count": 0, "devlogs_count": 0, "votes_count": 0, "ships_count": 0, "projects": [], "coding_time_seconds": 0, "coding_time_seconds_today": 0, "balance": "You need to have a pocket watcher badge to view this.", "badges": [], "created_at": "2025-06-17T06:41:46.481-04:00", "updated_at": "2025-07-03T19:38:18.716-04:00", "avatar": "https://avatars.slack-edge.com/2025-06-17/9074300268993_4112d4cae56a24705f68_original.jpg", "custom_css": null}, {"id": 5992, "slack_id": "U091M1E7770", "display_name": "Arthur Tolley", "bio": null, "projects_count": 0, "devlogs_count": 0, "votes_count": 0, "ships_count": 0, "projects": [], "coding_time_seconds": 12806, "coding_time_seconds_today": 0, "balance": "You need to have a pocket watcher badge to view this.", "badges": [], "created_at": "2025-06-17T06:41:47.106-04:00", "updated_at": "2025-07-03T19:38:18.984-04:00", "avatar": "https://secure.gravatar.com/avatar/b9aea43347a3506c3f681a1e5eee5dcf.jpg?s=512&d=https%3A%2F%2Fa.slack-edge.com%2Fdf10d%2Fimg%2Favatars%2Fava_0024-512.png", "custom_css": null}, {"id": 5993, "slack_id": "U087NUZU493", "display_name": "Fayaz khan", "bio": null, "projects_count": 0, "devlogs_count": 0, "votes_count": 0, "ships_count": 0, "projects": [], "coding_time_seconds": 0, "coding_time_seconds_today": 0, "balance": "You need to have a pocket watcher badge to view this.", "badges": [], "created_at": "2025-06-17T06:42:22.850-04:00", "updated_at": "2025-07-03T19:38:19.246-04:00", "avatar": "https://secure.gravatar.com/avatar/ceec4ae4c6779383ef29de350275e2bb.jpg?s=512&d=https%3A%2F%2Fa.slack-edge.com%2Fdf10d%2Fimg%2Favatars%2Fava_0023-512.png", "custom_css": null}, {"id": 5994, "slack_id": "U091C9WFELF", "display_name": "Archie", "bio": null, "projects_count": 0, "devlogs_count": 0, "votes_count": 0, "ships_count": 0, "projects": [], "coding_time_seconds": 173380, "coding_time_seconds_today": 0, "balance": "You need to have a pocket watcher badge to view this.", "badges": [], "created_at": "2025-06-17T06:42:42.994-04:00", "updated_at": "2025-07-03T19:38:19.509-04:00", "avatar": "https://secure.gravatar.com/avatar/28b197501ab36d9da17f0c8bdb40f1af.jpg?s=512&d=https%3A%2F%2Fa.slack-edge.com%2Fdf10d%2Fimg%2Favatars%2Fava_0004-512.png", "custom_css": null}, {"id": 5995, "slack_id": "U091TMC5AN6", "display_name": "Prawy 126", "bio": null, "projects_count": 0, "devlogs_count": 0, "votes_count": 0, "ships_count": 0, "projects": [], "coding_time_seconds": 0, "coding_time_seconds_today": 0, "balance": "You need to have a pocket watcher badge to view this.", "badges": [], "created_at": "2025-06-17T06:43:04.712-04:00", "updated_at": "2025-07-03T19:38:19.769-04:00", "avatar": "https://avatars.slack-edge.com/2025-06-17/9060000878805_7a48468eb55bdc9291b7_original.png", "custom_css": null}, {"id": 5996, "slack_id": "U091RV6QVB7", "display_name": "B Karthik", "bio": null, "projects_count": 0, "devlogs_count": 0, "votes_count": 0, "ships_count": 0, "projects": [], "coding_time_seconds": 0, "coding_time_seconds_today": 0, "balance": "You need to have a pocket watcher badge to view this.", "badges": [], "created_at": "2025-06-17T06:44:40.571-04:00", "updated_at": "2025-07-04T02:25:08.163-04:00", "avatar": "https://secure.gravatar.com/avatar/f7522f18b7948c32fdc4621c17c74435.jpg?s=512&d=https%3A%2F%2Fa.slack-edge.com%2Fdf10d%2Fimg%2Favatars%2Fava_0011-512.png", "custom_css": null}, {"id": 5997, "slack_id": "U081BK364G4", "display_name": "Shree", "bio": null, "projects_count": 6, "devlogs_count": 14, "votes_count": 40, "ships_count": 2, "projects": [{"id": 3880, "title": "UNO SSH", "devlogs_count": 2, "created_at": "2025-06-26T05:09:14.917-04:00"}, {"id": 4033, "title": "SOM Devlog Star Checker", "devlogs_count": 4, "created_at": "2025-06-27T02:06:57.682-04:00"}, {"id": 5414, "title": "Snakes And Apples", "devlogs_count": 2, "created_at": "2025-07-05T06:35:02.520-04:00"}, {"id": 6846, "title": "Shell Status", "devlogs_count": 1, "created_at": "2025-07-16T20:08:24.391-04:00"}, {"id": 10310, "title": "Scrapbook API Clone(but better)", "devlogs_count": 1, "created_at": "2025-08-05T19:45:02.994-04:00"}, {"id": 7406, "title": "SOM Voting TUI", "devlogs_count": 4, "created_at": "2025-07-21T16:32:58.176-04:00"}], "coding_time_seconds": 323578, "coding_time_seconds_today": 0, "balance": "You need to have a pocket watcher badge to view this.", "badges": [{"name": "Maiden Voyage", "text": "you shipped your first project! the journey begins...", "icon": "\ud83d\udea2"}], "created_at": "2025-06-17T06:44:55.591-04:00", "updated_at": "2025-09-10T22:54:09.253-04:00", "avatar": "https://avatars.slack-edge.com/2025-08-29/9433829936498_8f710a7920a7780dd8b6_original.png", "custom_css": null}, {"id": 5998, "slack_id": "U091U26LN5A", "display_name": "Iniyan", "bio": null, "projects_count": 4, "devlogs_count": 21, "votes_count": 95, "ships_count": 4, "projects": [{"id": 11458, "title": "Hop", "devlogs_count": 12, "created_at": "2025-08-16T04:52:58.369-04:00"}, {"id": 929, "title": "pop corn server", "devlogs_count": 6, "created_at": "2025-06-17T11:31:57.879-04:00"}, {"id": 8425, "title": "Marky", "devlogs_count": 2, "created_at": "2025-07-27T03:30:25.341-04:00"}, {"id": 11443, "title": "Blog", "devlogs_count": 1, "created_at": "2025-08-16T00:43:17.718-04:00"}], "coding_time_seconds": 141237, "coding_time_seconds_today": 0, "balance": "You need to have a pocket watcher badge to view this.", "badges": [{"name": "Maiden Voyage", "text": "you shipped your first project! the journey begins...", "icon": "\ud83d\udea2"}], "created_at": "2025-06-17T06:44:55.650-04:00", "updated_at": "2025-09-10T22:54:09.276-04:00", "avatar": "https://secure.gravatar.com/avatar/33e78d396f9e52e93123433b6f7c211a.jpg?s=512&d=https%3A%2F%2Fa.slack-edge.com%2Fdf10d%2Fimg%2Favatars%2Fava_0018-512.png", "custom_css": null}, {"id": 5999, "slack_id": "U091CABJD7H", "display_name": "vigneshuvn", "bio": null, "projects_count": 1, "devlogs_count": 0, "votes_count": 0, "ships_count": 0, "projects": [{"id": 738, "title": "mywebpage", "devlogs_count": 0, "created_at": "2025-06-17T07:05:38.763-04:00"}], "coding_time_seconds": 6687, "coding_time_seconds_today": 0, "balance": "You need to have a pocket watcher badge to view this.", "badges": [], "created_at": "2025-06-17T06:45:20.633-04:00", "updated_at": "2025-07-03T19:38:20.556-04:00", "avatar": "https://secure.gravatar.com/avatar/63f7b09c3cd22734187e28d4e606791b.jpg?s=512&d=https%3A%2F%2Fa.slack-edge.com%2Fdf10d%2Fimg%2Favatars%2Fava_0016-512.png", "custom_css": null}, {"id": 6000, "slack_id": "U091L8PJEBG", "display_name": "Omar Ahmed", "bio": null, "projects_count": 1, "devlogs_count": 1, "votes_count": 1, "ships_count": 1, "projects": [{"id": 3440, "title": "Chess Clash: Local Edition", "devlogs_count": 1, "created_at": "2025-06-24T09:05:46.134-04:00"}], "coding_time_seconds": 59584, "coding_time_seconds_today": 0, "balance": "You need to have a pocket watcher badge to view this.", "badges": [{"name": "Maiden Voyage", "text": "you shipped your first project! the journey begins...", "icon": "\ud83d\udea2"}], "created_at": "2025-06-17T06:45:23.052-04:00", "updated_at": "2025-09-10T22:54:09.339-04:00", "avatar": "https://secure.gravatar.com/avatar/a03103dba093b78a0bdcca9cc0924a35.jpg?s=512&d=https%3A%2F%2Fa.slack-edge.com%2Fdf10d%2Fimg%2Favatars%2Fava_0017-512.png", "custom_css": null}], "pagination": {"page": 300, "pages": 1192, "count": 23828, "items": 20}}