{"users": [{"id": 6001, "slack_id": "U0824382CPP", "display_name": "toni", "bio": null, "projects_count": 4, "devlogs_count": 29, "votes_count": 60, "ships_count": 3, "projects": [{"id": 1516, "title": "clippyman", "devlogs_count": 0, "created_at": "2025-06-18T17:00:41.472-04:00"}, {"id": 11929, "title": "ulpm", "devlogs_count": 8, "created_at": "2025-08-21T07:01:35.377-04:00"}, {"id": 6621, "title": "musical-donut", "devlogs_count": 4, "created_at": "2025-07-14T15:27:45.072-04:00"}, {"id": 1512, "title": "customfetch", "devlogs_count": 17, "created_at": "2025-06-18T16:54:44.969-04:00"}], "coding_time_seconds": 545449, "coding_time_seconds_today": 0, "balance": "You need to have a pocket watcher badge to view this.", "badges": [{"name": "Maiden Voyage", "text": "you shipped your first project! the journey begins...", "icon": "\ud83d\udea2"}], "created_at": "2025-06-17T06:46:00.366-04:00", "updated_at": "2025-09-10T22:54:09.422-04:00", "avatar": "https://secure.gravatar.com/avatar/6a4085fbd11973fd296d2f4bfcbedc20.jpg?s=512&d=https%3A%2F%2Fa.slack-edge.com%2Fdf10d%2Fimg%2Favatars%2Fava_0021-512.png", "custom_css": null}, {"id": 6002, "slack_id": "U09268W0541", "display_name": "Berat MEN", "bio": null, "projects_count": 0, "devlogs_count": 0, "votes_count": 0, "ships_count": 0, "projects": [], "coding_time_seconds": 0, "coding_time_seconds_today": 0, "balance": "You need to have a pocket watcher badge to view this.", "badges": [], "created_at": "2025-06-17T06:46:16.491-04:00", "updated_at": "2025-07-03T19:38:21.353-04:00", "avatar": "https://avatars.slack-edge.com/2025-06-17/9074613273473_691a2bd9b28db5aea86f_original.jpg", "custom_css": null}, {"id": 6003, "slack_id": "U091QBMD485", "display_name": "Vanesa Da\u00e7i", "bio": null, "projects_count": 0, "devlogs_count": 0, "votes_count": 0, "ships_count": 0, "projects": [], "coding_time_seconds": 0, "coding_time_seconds_today": 0, "balance": "You need to have a pocket watcher badge to view this.", "badges": [], "created_at": "2025-06-17T06:47:15.975-04:00", "updated_at": "2025-07-03T19:38:21.614-04:00", "avatar": "https://secure.gravatar.com/avatar/2075427b2295ec81533c1e26121c0d0c.jpg?s=512&d=https%3A%2F%2Fa.slack-edge.com%2Fdf10d%2Fimg%2Favatars%2Fava_0021-512.png", "custom_css": null}, {"id": 6004, "slack_id": "U09268P74EM", "display_name": "Harshit Raj", "bio": null, "projects_count": 0, "devlogs_count": 0, "votes_count": 0, "ships_count": 0, "projects": [], "coding_time_seconds": 0, "coding_time_seconds_today": 0, "balance": "You need to have a pocket watcher badge to view this.", "badges": [], "created_at": "2025-06-17T06:50:38.260-04:00", "updated_at": "2025-07-03T19:38:21.894-04:00", "avatar": "https://secure.gravatar.com/avatar/3f559984b362ce2c9162745e75a586d7.jpg?s=512&d=https%3A%2F%2Fa.slack-edge.com%2Fdf10d%2Fimg%2Favatars%2Fava_0010-512.png", "custom_css": null}, {"id": 6005, "slack_id": "U07GRQPDCGZ", "display_name": "SpeedyGo55", "bio": null, "projects_count": 3, "devlogs_count": 3, "votes_count": 14, "ships_count": 1, "projects": [{"id": 11216, "title": "Delay-a-cookie", "devlogs_count": 0, "created_at": "2025-08-14T05:19:09.041-04:00"}, {"id": 11389, "title": "dupli-finder", "devlogs_count": 2, "created_at": "2025-08-15T12:26:13.339-04:00"}, {"id": 11101, "title": "storyline", "devlogs_count": 1, "created_at": "2025-08-13T07:11:14.149-04:00"}], "coding_time_seconds": 8717, "coding_time_seconds_today": 0, "balance": "You need to have a pocket watcher badge to view this.", "badges": [{"name": "Maiden Voyage", "text": "you shipped your first project! the journey begins...", "icon": "\ud83d\udea2"}], "created_at": "2025-06-17T06:50:46.932-04:00", "updated_at": "2025-09-10T22:54:09.593-04:00", "avatar": "https://avatars.slack-edge.com/2025-08-21/9382323148243_85156a617aaa169a8f24_original.png", "custom_css": null}, {"id": 6006, "slack_id": "U091LTUD33M", "display_name": "James", "bio": null, "projects_count": 0, "devlogs_count": 0, "votes_count": 0, "ships_count": 0, "projects": [], "coding_time_seconds": 464579, "coding_time_seconds_today": 0, "balance": "You need to have a pocket watcher badge to view this.", "badges": [], "created_at": "2025-06-17T06:50:56.604-04:00", "updated_at": "2025-07-03T19:38:22.433-04:00", "avatar": "https://secure.gravatar.com/avatar/db9323b3aa3b77567659be3631547de0.jpg?s=512&d=https%3A%2F%2Fa.slack-edge.com%2Fdf10d%2Fimg%2Favatars%2Fava_0001-512.png", "custom_css": null}, {"id": 6007, "slack_id": "U091S057U8M", "display_name": "Dasfax3034", "bio": null, "projects_count": 1, "devlogs_count": 1, "votes_count": 0, "ships_count": 0, "projects": [{"id": 965, "title": "Le Bruit Des Planches", "devlogs_count": 1, "created_at": "2025-06-17T12:28:42.360-04:00"}], "coding_time_seconds": 465093, "coding_time_seconds_today": 0, "balance": "You need to have a pocket watcher badge to view this.", "badges": [], "created_at": "2025-06-17T06:52:32.846-04:00", "updated_at": "2025-07-03T19:38:22.695-04:00", "avatar": "https://secure.gravatar.com/avatar/f1e5ef799b7f30c1dc1357ff8bfc6f3b.jpg?s=512&d=https%3A%2F%2Fa.slack-edge.com%2Fdf10d%2Fimg%2Favatars%2Fava_0019-512.png", "custom_css": null}, {"id": 6008, "slack_id": "U091M2Y4CDU", "display_name": "Mondino", "bio": null, "projects_count": 0, "devlogs_count": 0, "votes_count": 0, "ships_count": 0, "projects": [], "coding_time_seconds": 0, "coding_time_seconds_today": 0, "balance": "You need to have a pocket watcher badge to view this.", "badges": [], "created_at": "2025-06-17T06:53:29.738-04:00", "updated_at": "2025-07-03T19:38:22.953-04:00", "avatar": "https://secure.gravatar.com/avatar/48e20f31060ff6a84ea2b1e7e095c806.jpg?s=512&d=https%3A%2F%2Fa.slack-edge.com%2Fdf10d%2Fimg%2Favatars%2Fava_0024-512.png", "custom_css": null}, {"id": 6009, "slack_id": "U091RC3J7PW", "display_name": "Tom\u00e1s Goldberg", "bio": null, "projects_count": 0, "devlogs_count": 0, "votes_count": 0, "ships_count": 0, "projects": [], "coding_time_seconds": 0, "coding_time_seconds_today": 0, "balance": "You need to have a pocket watcher badge to view this.", "badges": [], "created_at": "2025-06-17T06:53:37.177-04:00", "updated_at": "2025-07-03T19:38:23.212-04:00", "avatar": "https://secure.gravatar.com/avatar/c48f4145d65839308b08555182aae6a3.jpg?s=512&d=https%3A%2F%2Fa.slack-edge.com%2Fdf10d%2Fimg%2Favatars%2Fava_0000-512.png", "custom_css": null}, {"id": 6010, "slack_id": "U07FQNFF9T2", "display_name": "Advick", "bio": "i am ", "projects_count": 0, "devlogs_count": 43, "votes_count": 109, "ships_count": 0, "projects": [], "coding_time_seconds": 684663, "coding_time_seconds_today": 0, "balance": "You need to have a pocket watcher badge to view this.", "badges": [{"name": "Maiden Voyage", "text": "you shipped your first project! the journey begins...", "icon": "\ud83d\udea2"}, {"name": "Ballot Stuffer", "text": "vote 100 times.", "icon": "https://summer.hackclub.com/assets/i_voted-bf851b48.png"}, {"name": "Spider", "text": "this user has a pet!", "icon": "\ud83d\udd77\ufe0f"}, {"name": "Yapper I", "text": "Posted 10 comments on devlogs.", "icon": "\ud83d\udcac"}], "created_at": "2025-06-17T06:53:42.547-04:00", "updated_at": "2025-09-10T22:54:09.720-04:00", "avatar": "https://avatars.slack-edge.com/2025-08-29/9428914049893_c3116936790dc0bf237d_original.png", "custom_css": null}, {"id": 6011, "slack_id": "U091TNQ6M98", "display_name": "sachiv singh", "bio": null, "projects_count": 0, "devlogs_count": 0, "votes_count": 0, "ships_count": 0, "projects": [], "coding_time_seconds": 0, "coding_time_seconds_today": 0, "balance": "You need to have a pocket watcher badge to view this.", "badges": [], "created_at": "2025-06-17T06:54:24.333-04:00", "updated_at": "2025-07-03T19:38:23.736-04:00", "avatar": "https://secure.gravatar.com/avatar/af18808355c6f99eb062bd900a8de1b4.jpg?s=512&d=https%3A%2F%2Fa.slack-edge.com%2Fdf10d%2Fimg%2Favatars%2Fava_0026-512.png", "custom_css": null}, {"id": 6012, "slack_id": "U09266L3EMP", "display_name": "Mohamed Boussas", "bio": null, "projects_count": 0, "devlogs_count": 0, "votes_count": 0, "ships_count": 0, "projects": [], "coding_time_seconds": 0, "coding_time_seconds_today": 0, "balance": "You need to have a pocket watcher badge to view this.", "badges": [], "created_at": "2025-06-17T06:55:49.449-04:00", "updated_at": "2025-07-03T19:38:23.996-04:00", "avatar": "https://secure.gravatar.com/avatar/fb4ed26961e99993c46851ecaf0deddb.jpg?s=512&d=https%3A%2F%2Fa.slack-edge.com%2Fdf10d%2Fimg%2Favatars%2Fava_0016-512.png", "custom_css": null}, {"id": 6013, "slack_id": "U091S10AM8V", "display_name": "Rintaro", "bio": null, "projects_count": 0, "devlogs_count": 0, "votes_count": 0, "ships_count": 0, "projects": [], "coding_time_seconds": 0, "coding_time_seconds_today": 0, "balance": "You need to have a pocket watcher badge to view this.", "badges": [], "created_at": "2025-06-17T06:55:57.195-04:00", "updated_at": "2025-07-05T08:07:00.783-04:00", "avatar": "https://secure.gravatar.com/avatar/faaf26e722880c11946ff4d523908069.jpg?s=512&d=https%3A%2F%2Fa.slack-edge.com%2Fdf10d%2Fimg%2Favatars%2Fava_0014-512.png", "custom_css": null}, {"id": 6014, "slack_id": "U091TNBEQCA", "display_name": "Ashish Mishra", "bio": null, "projects_count": 0, "devlogs_count": 0, "votes_count": 0, "ships_count": 0, "projects": [], "coding_time_seconds": 0, "coding_time_seconds_today": 0, "balance": "You need to have a pocket watcher badge to view this.", "badges": [], "created_at": "2025-06-17T06:56:02.343-04:00", "updated_at": "2025-07-03T19:38:24.386-04:00", "avatar": "https://avatars.slack-edge.com/2025-06-17/9061796322610_d431c0c2fb386bedfe5d_original.jpg", "custom_css": null}, {"id": 6015, "slack_id": "U078EV08ZL6", "display_name": "TorNato", "bio": null, "projects_count": 0, "devlogs_count": 0, "votes_count": 0, "ships_count": 0, "projects": [], "coding_time_seconds": 0, "coding_time_seconds_today": 0, "balance": "You need to have a pocket watcher badge to view this.", "badges": [], "created_at": "2025-06-17T06:56:23.357-04:00", "updated_at": "2025-07-03T19:38:24.646-04:00", "avatar": "https://secure.gravatar.com/avatar/23f67314a06f5d10fac4c6222f346945.jpg?s=512&d=https%3A%2F%2Fa.slack-edge.com%2Fdf10d%2Fimg%2Favatars%2Fava_0019-512.png", "custom_css": null}, {"id": 6016, "slack_id": "U092G3TL64Q", "display_name": "Abhinandan", "bio": null, "projects_count": 0, "devlogs_count": 0, "votes_count": 0, "ships_count": 0, "projects": [], "coding_time_seconds": 0, "coding_time_seconds_today": 0, "balance": "You need to have a pocket watcher badge to view this.", "badges": [], "created_at": "2025-06-17T06:56:50.115-04:00", "updated_at": "2025-07-03T19:38:24.908-04:00", "avatar": "https://secure.gravatar.com/avatar/e4e3431c7c73de87055b4a81cdb82200.jpg?s=512&d=https%3A%2F%2Fa.slack-edge.com%2Fdf10d%2Fimg%2Favatars%2Fava_0009-512.png", "custom_css": null}, {"id": 6017, "slack_id": "U091TP165U2", "display_name": "Roving", "bio": null, "projects_count": 0, "devlogs_count": 0, "votes_count": 0, "ships_count": 0, "projects": [], "coding_time_seconds": 0, "coding_time_seconds_today": 0, "balance": "You need to have a pocket watcher badge to view this.", "badges": [], "created_at": "2025-06-17T06:56:56.680-04:00", "updated_at": "2025-07-03T19:38:25.179-04:00", "avatar": "https://secure.gravatar.com/avatar/d46e3757a68083e1ae865172faaa0998.jpg?s=512&d=https%3A%2F%2Fa.slack-edge.com%2Fdf10d%2Fimg%2Favatars%2Fava_0002-512.png", "custom_css": null}, {"id": 6018, "slack_id": "U08RM2DCDE1", "display_name": "CR", "bio": null, "projects_count": 1, "devlogs_count": 0, "votes_count": 0, "ships_count": 0, "projects": [{"id": 748, "title": "Attendly", "devlogs_count": 0, "created_at": "2025-06-17T07:13:01.278-04:00"}], "coding_time_seconds": 102732, "coding_time_seconds_today": 1690, "balance": "You need to have a pocket watcher badge to view this.", "badges": [], "created_at": "2025-06-17T06:57:19.779-04:00", "updated_at": "2025-07-03T19:38:25.439-04:00", "avatar": "https://secure.gravatar.com/avatar/823803f2687a8a39da579c8d7ff8ba4c.jpg?s=512&d=https%3A%2F%2Fa.slack-edge.com%2Fdf10d%2Fimg%2Favatars%2Fava_0007-512.png", "custom_css": null}, {"id": 6019, "slack_id": "U092G4QCDDE", "display_name": "Riki Karn", "bio": null, "projects_count": 0, "devlogs_count": 0, "votes_count": 0, "ships_count": 0, "projects": [], "coding_time_seconds": 0, "coding_time_seconds_today": 0, "balance": "You need to have a pocket watcher badge to view this.", "badges": [], "created_at": "2025-06-17T06:57:32.782-04:00", "updated_at": "2025-07-03T19:38:25.715-04:00", "avatar": "https://secure.gravatar.com/avatar/65ee9102874314ded65d8c5d60df13ba.jpg?s=512&d=https%3A%2F%2Fa.slack-edge.com%2Fdf10d%2Fimg%2Favatars%2Fava_0013-512.png", "custom_css": null}, {"id": 6020, "slack_id": "U091M3Q9J22", "display_name": "Ayesha Afaq", "bio": null, "projects_count": 1, "devlogs_count": 1, "votes_count": 0, "ships_count": 1, "projects": [{"id": 1022, "title": "To Do List App", "devlogs_count": 1, "created_at": "2025-06-17T13:56:09.270-04:00"}], "coding_time_seconds": 187000, "coding_time_seconds_today": 0, "balance": "You need to have a pocket watcher badge to view this.", "badges": [{"name": "Maiden Voyage", "text": "you shipped your first project! the journey begins...", "icon": "\ud83d\udea2"}], "created_at": "2025-06-17T06:58:00.785-04:00", "updated_at": "2025-09-10T22:54:10.013-04:00", "avatar": "https://avatars.slack-edge.com/2025-06-17/9054997278035_099a5b85421d1ecaaa20_original.png", "custom_css": null}], "pagination": {"page": 301, "pages": 1192, "count": 23828, "items": 20}}