{"users": [{"id": 6041, "slack_id": "U092G550N80", "display_name": "Sanskar", "bio": null, "projects_count": 0, "devlogs_count": 0, "votes_count": 0, "ships_count": 0, "projects": [], "coding_time_seconds": 0, "coding_time_seconds_today": 0, "balance": "You need to have a pocket watcher badge to view this.", "badges": [], "created_at": "2025-06-17T07:04:24.341-04:00", "updated_at": "2025-07-03T19:38:31.144-04:00", "avatar": "https://avatars.slack-edge.com/2025-06-17/9055031717795_3703e1e08fd8f6408f6d_original.jpg", "custom_css": null}, {"id": 6042, "slack_id": "U086TRXKG5D", "display_name": "CyberIntruder", "bio": null, "projects_count": 2, "devlogs_count": 15, "votes_count": 20, "ships_count": 2, "projects": [{"id": 3198, "title": "Robotic Chess", "devlogs_count": 13, "created_at": "2025-06-23T12:16:52.793-04:00"}, {"id": 9793, "title": "Brainf**k \"game engine\"", "devlogs_count": 2, "created_at": "2025-08-02T10:15:15.954-04:00"}], "coding_time_seconds": 696026, "coding_time_seconds_today": 2290, "balance": "You need to have a pocket watcher badge to view this.", "badges": [{"name": "Maiden Voyage", "text": "you shipped your first project! the journey begins...", "icon": "\ud83d\udea2"}], "created_at": "2025-06-17T07:04:53.959-04:00", "updated_at": "2025-09-10T22:54:10.611-04:00", "avatar": "https://secure.gravatar.com/avatar/9b5cb2d293c8bd88170641c5600205fe.jpg?s=512&d=https%3A%2F%2Fa.slack-edge.com%2Fdf10d%2Fimg%2Favatars%2Fava_0008-512.png", "custom_css": null}, {"id": 6043, "slack_id": "U091LV23RJP", "display_name": "Suhaan Saeef", "bio": null, "projects_count": 0, "devlogs_count": 0, "votes_count": 0, "ships_count": 0, "projects": [], "coding_time_seconds": 0, "coding_time_seconds_today": 0, "balance": "You need to have a pocket watcher badge to view this.", "badges": [], "created_at": "2025-06-17T07:05:24.193-04:00", "updated_at": "2025-07-03T19:38:31.680-04:00", "avatar": "https://avatars.slack-edge.com/2025-06-17/9060099017701_ad3c611c6ed3a5b69faf_original.jpg", "custom_css": null}, {"id": 6044, "slack_id": "U091U5M6JKW", "display_name": "Pepito", "bio": null, "projects_count": 0, "devlogs_count": 0, "votes_count": 0, "ships_count": 0, "projects": [], "coding_time_seconds": 0, "coding_time_seconds_today": 0, "balance": "You need to have a pocket watcher badge to view this.", "badges": [], "created_at": "2025-06-17T07:05:30.909-04:00", "updated_at": "2025-07-03T19:38:31.953-04:00", "avatar": "https://secure.gravatar.com/avatar/3f56a53eb5b438b2ac46224f22955c71.jpg?s=512&d=https%3A%2F%2Fa.slack-edge.com%2Fdf10d%2Fimg%2Favatars%2Fava_0007-512.png", "custom_css": null}, {"id": 6045, "slack_id": "U091M50C7QE", "display_name": "Bel", "bio": null, "projects_count": 0, "devlogs_count": 67, "votes_count": 22, "ships_count": 0, "projects": [], "coding_time_seconds": 1464418, "coding_time_seconds_today": 0, "balance": "You need to have a pocket watcher badge to view this.", "badges": [{"name": "Maiden Voyage", "text": "you shipped your first project! the journey begins...", "icon": "\ud83d\udea2"}, {"name": "Ballot Stuffer", "text": "vote 100 times.", "icon": "https://summer.hackclub.com/assets/i_voted-bf851b48.png"}], "created_at": "2025-06-17T07:06:06.945-04:00", "updated_at": "2025-09-14T09:57:41.136-04:00", "avatar": "https://secure.gravatar.com/avatar/dcffb947fa3ad1e3513575c478a043b2.jpg?s=512&d=https%3A%2F%2Fa.slack-edge.com%2Fdf10d%2Fimg%2Favatars%2Fava_0003-512.png", "custom_css": null}, {"id": 6046, "slack_id": "U091U5NSNDA", "display_name": "King Paolo", "bio": null, "projects_count": 0, "devlogs_count": 0, "votes_count": 0, "ships_count": 0, "projects": [], "coding_time_seconds": 202492, "coding_time_seconds_today": 7881, "balance": "You need to have a pocket watcher badge to view this.", "badges": [], "created_at": "2025-06-17T07:06:26.563-04:00", "updated_at": "2025-07-03T19:38:32.492-04:00", "avatar": "https://secure.gravatar.com/avatar/4a395152d6973cd21a7240af97a11e15.jpg?s=512&d=https%3A%2F%2Fa.slack-edge.com%2Fdf10d%2Fimg%2Favatars%2Fava_0008-512.png", "custom_css": null}, {"id": 6047, "slack_id": "U07DMCC28SZ", "display_name": "Ramez Hammad", "bio": null, "projects_count": 1, "devlogs_count": 14, "votes_count": 0, "ships_count": 1, "projects": [{"id": 6046, "title": "Expandable Programmable Graphing Calculator 10", "devlogs_count": 14, "created_at": "2025-07-10T07:46:50.324-04:00"}], "coding_time_seconds": 710752, "coding_time_seconds_today": 0, "balance": "You need to have a pocket watcher badge to view this.", "badges": [{"name": "Maiden Voyage", "text": "you shipped your first project! the journey begins...", "icon": "\ud83d\udea2"}], "created_at": "2025-06-17T07:06:38.789-04:00", "updated_at": "2025-09-10T22:54:10.747-04:00", "avatar": "https://avatars.slack-edge.com/2024-07-23/7459700054054_49ca2bd341bc4716cdb5_original.png", "custom_css": null}, {"id": 6048, "slack_id": "U092CQ3RDJ4", "display_name": "Ali Ozdagli", "bio": null, "projects_count": 0, "devlogs_count": 0, "votes_count": 0, "ships_count": 0, "projects": [], "coding_time_seconds": 0, "coding_time_seconds_today": 0, "balance": "You need to have a pocket watcher badge to view this.", "badges": [], "created_at": "2025-06-17T07:06:43.829-04:00", "updated_at": "2025-07-03T19:38:33.021-04:00", "avatar": "https://avatars.slack-edge.com/2025-06-17/9055188824374_7ab2d525212a87251a8e_original.png", "custom_css": null}, {"id": 6049, "slack_id": "U092629BBMX", "display_name": "Rayyan Shaheer", "bio": null, "projects_count": 0, "devlogs_count": 0, "votes_count": 0, "ships_count": 0, "projects": [], "coding_time_seconds": 0, "coding_time_seconds_today": 0, "balance": "You need to have a pocket watcher badge to view this.", "badges": [], "created_at": "2025-06-17T07:06:50.016-04:00", "updated_at": "2025-07-03T19:38:33.306-04:00", "avatar": "https://avatars.slack-edge.com/2025-06-17/9062208276884_dc0e27449c53b38cf24a_original.jpg", "custom_css": null}, {"id": 6050, "slack_id": "U091GTDER8W", "display_name": "Hong", "bio": null, "projects_count": 0, "devlogs_count": 0, "votes_count": 0, "ships_count": 0, "projects": [], "coding_time_seconds": 0, "coding_time_seconds_today": 0, "balance": "You need to have a pocket watcher badge to view this.", "badges": [], "created_at": "2025-06-17T07:06:51.424-04:00", "updated_at": "2025-07-03T19:38:33.574-04:00", "avatar": "https://avatars.slack-edge.com/2025-06-17/9074412156545_7eeac31f23046164bc04_original.png", "custom_css": null}, {"id": 6051, "slack_id": "U092G5XEM3J", "display_name": "Oscar", "bio": null, "projects_count": 0, "devlogs_count": 0, "votes_count": 0, "ships_count": 0, "projects": [], "coding_time_seconds": 0, "coding_time_seconds_today": 0, "balance": "You need to have a pocket watcher badge to view this.", "badges": [], "created_at": "2025-06-17T07:07:00.819-04:00", "updated_at": "2025-07-03T19:38:33.874-04:00", "avatar": "https://secure.gravatar.com/avatar/1431ac9344c34e8e12f9986fe35d11cc.jpg?s=512&d=https%3A%2F%2Fa.slack-edge.com%2Fdf10d%2Fimg%2Favatars%2Fava_0023-512.png", "custom_css": null}, {"id": 6052, "slack_id": "U0926BMRS0H", "display_name": "Sandipan Roy", "bio": null, "projects_count": 0, "devlogs_count": 0, "votes_count": 0, "ships_count": 0, "projects": [], "coding_time_seconds": 0, "coding_time_seconds_today": 0, "balance": "You need to have a pocket watcher badge to view this.", "badges": [], "created_at": "2025-06-17T07:08:08.084-04:00", "updated_at": "2025-07-03T19:38:34.148-04:00", "avatar": "https://avatars.slack-edge.com/2025-06-17/9055047198339_bb6800dd2e5f67e77b65_original.png", "custom_css": null}, {"id": 6053, "slack_id": "U091M55J1P0", "display_name": "akshaynaphade", "bio": null, "projects_count": 0, "devlogs_count": 0, "votes_count": 0, "ships_count": 0, "projects": [], "coding_time_seconds": 53230, "coding_time_seconds_today": 0, "balance": "You need to have a pocket watcher badge to view this.", "badges": [], "created_at": "2025-06-17T07:08:13.672-04:00", "updated_at": "2025-07-03T19:38:34.421-04:00", "avatar": "https://secure.gravatar.com/avatar/a7386174eb0d58174b68a477defa8d5b.jpg?s=512&d=https%3A%2F%2Fa.slack-edge.com%2Fdf10d%2Fimg%2Favatars%2Fava_0018-512.png", "custom_css": null}, {"id": 6054, "slack_id": "U092DR9T34G", "display_name": "Chris", "bio": null, "projects_count": 1, "devlogs_count": 1, "votes_count": 0, "ships_count": 0, "projects": [{"id": 940, "title": "ScanBridge", "devlogs_count": 1, "created_at": "2025-06-17T11:52:52.893-04:00"}], "coding_time_seconds": 51224, "coding_time_seconds_today": 0, "balance": "You need to have a pocket watcher badge to view this.", "badges": [], "created_at": "2025-06-17T07:08:33.564-04:00", "updated_at": "2025-07-21T10:25:40.023-04:00", "avatar": "https://secure.gravatar.com/avatar/148de99efaaafd9719d5e47b7aeb0551.jpg?s=512&d=https%3A%2F%2Fa.slack-edge.com%2Fdf10d%2Fimg%2Favatars%2Fava_0020-512.png", "custom_css": null}, {"id": 6055, "slack_id": "U091JFGRL14", "display_name": "DoopyElephant", "bio": null, "projects_count": 0, "devlogs_count": 0, "votes_count": 0, "ships_count": 0, "projects": [], "coding_time_seconds": 20820, "coding_time_seconds_today": 0, "balance": "You need to have a pocket watcher badge to view this.", "badges": [], "created_at": "2025-06-17T07:08:58.260-04:00", "updated_at": "2025-07-03T19:38:34.832-04:00", "avatar": "https://secure.gravatar.com/avatar/58e8435c193b6c807bd7f9a9a3abbf70.jpg?s=512&d=https%3A%2F%2Fa.slack-edge.com%2Fdf10d%2Fimg%2Favatars%2Fava_0017-512.png", "custom_css": null}, {"id": 6056, "slack_id": "U091PML6K5J", "display_name": "Faith", "bio": null, "projects_count": 0, "devlogs_count": 0, "votes_count": 0, "ships_count": 0, "projects": [], "coding_time_seconds": 0, "coding_time_seconds_today": 0, "balance": "You need to have a pocket watcher badge to view this.", "badges": [], "created_at": "2025-06-17T07:10:24.499-04:00", "updated_at": "2025-07-03T19:38:35.101-04:00", "avatar": "https://secure.gravatar.com/avatar/5236437b3226b601aa1298d7600d4376.jpg?s=512&d=https%3A%2F%2Fa.slack-edge.com%2Fdf10d%2Fimg%2Favatars%2Fava_0006-512.png", "custom_css": null}, {"id": 6057, "slack_id": "U07UM2FTC84", "display_name": "Shahmeer", "bio": null, "projects_count": 0, "devlogs_count": 0, "votes_count": 0, "ships_count": 0, "projects": [], "coding_time_seconds": 0, "coding_time_seconds_today": 0, "balance": "You need to have a pocket watcher badge to view this.", "badges": [], "created_at": "2025-06-17T07:10:35.142-04:00", "updated_at": "2025-07-03T19:38:35.364-04:00", "avatar": "https://avatars.slack-edge.com/2024-11-02/7995124855648_7b7c31d3e970fb8b6fe4_original.jpg", "custom_css": null}, {"id": 6058, "slack_id": "U092CGHJRLG", "display_name": "Zakir Mansuri", "bio": null, "projects_count": 0, "devlogs_count": 0, "votes_count": 0, "ships_count": 0, "projects": [], "coding_time_seconds": 0, "coding_time_seconds_today": 0, "balance": "You need to have a pocket watcher badge to view this.", "badges": [], "created_at": "2025-06-17T07:11:29.314-04:00", "updated_at": "2025-07-06T08:06:41.632-04:00", "avatar": "https://secure.gravatar.com/avatar/5ac062ef9ce050012080aeb2c5f48f6a.jpg?s=512&d=https%3A%2F%2Fa.slack-edge.com%2Fdf10d%2Fimg%2Favatars%2Fava_0010-512.png", "custom_css": null}, {"id": 6059, "slack_id": "U07JH135KE0", "display_name": "MeIMyself", "bio": null, "projects_count": 0, "devlogs_count": 8, "votes_count": 8, "ships_count": 0, "projects": [], "coding_time_seconds": 149686, "coding_time_seconds_today": 0, "balance": "You need to have a pocket watcher badge to view this.", "badges": [{"name": "Maiden Voyage", "text": "you shipped your first project! the journey begins...", "icon": "\ud83d\udea2"}], "created_at": "2025-06-17T07:12:51.017-04:00", "updated_at": "2025-09-22T11:35:36.726-04:00", "avatar": "https://secure.gravatar.com/avatar/4c8c10828139ce586b4c0113e96798de.jpg?s=512&d=https%3A%2F%2Fa.slack-edge.com%2Fdf10d%2Fimg%2Favatars%2Fava_0017-512.png", "custom_css": null}, {"id": 6060, "slack_id": "U091M1FGTB5", "display_name": "Rowhith K", "bio": null, "projects_count": 0, "devlogs_count": 0, "votes_count": 0, "ships_count": 0, "projects": [], "coding_time_seconds": 0, "coding_time_seconds_today": 0, "balance": "You need to have a pocket watcher badge to view this.", "badges": [], "created_at": "2025-06-17T07:13:28.292-04:00", "updated_at": "2025-07-03T19:38:36.028-04:00", "avatar": "https://secure.gravatar.com/avatar/4d29e4bf09f726d301a6e72bd4151cbd.jpg?s=512&d=https%3A%2F%2Fa.slack-edge.com%2Fdf10d%2Fimg%2Favatars%2Fava_0005-512.png", "custom_css": null}], "pagination": {"page": 303, "pages": 1192, "count": 23828, "items": 20}}