{"users": [{"id": 6061, "slack_id": "U07V24UM4HL", "display_name": "Waleed Ajmal", "bio": null, "projects_count": 0, "devlogs_count": 0, "votes_count": 0, "ships_count": 0, "projects": [], "coding_time_seconds": 0, "coding_time_seconds_today": 0, "balance": "You need to have a pocket watcher badge to view this.", "badges": [], "created_at": "2025-06-17T07:13:42.201-04:00", "updated_at": "2025-07-03T19:38:36.295-04:00", "avatar": "https://avatars.slack-edge.com/2025-03-13/8599970196787_b0d8a4895fb1a1095354_original.jpg", "custom_css": null}, {"id": 6062, "slack_id": "U091L0B4QQK", "display_name": "Hassan", "bio": null, "projects_count": 0, "devlogs_count": 0, "votes_count": 0, "ships_count": 0, "projects": [], "coding_time_seconds": 229349, "coding_time_seconds_today": 0, "balance": "You need to have a pocket watcher badge to view this.", "badges": [], "created_at": "2025-06-17T07:14:33.791-04:00", "updated_at": "2025-07-03T19:38:36.574-04:00", "avatar": "https://secure.gravatar.com/avatar/48b494b5c449b8539d79e4395e239f36.jpg?s=512&d=https%3A%2F%2Fa.slack-edge.com%2Fdf10d%2Fimg%2Favatars%2Fava_0023-512.png", "custom_css": null}, {"id": 6063, "slack_id": "U0924K6HZ4H", "display_name": "Blake Roberts", "bio": null, "projects_count": 0, "devlogs_count": 0, "votes_count": 0, "ships_count": 0, "projects": [], "coding_time_seconds": 13414, "coding_time_seconds_today": 0, "balance": "You need to have a pocket watcher badge to view this.", "badges": [], "created_at": "2025-06-17T07:15:15.521-04:00", "updated_at": "2025-07-03T19:38:36.852-04:00", "avatar": "https://avatars.slack-edge.com/2025-06-18/9062074455667_362d3a76ccdeb549f8fb_original.png", "custom_css": null}, {"id": 6064, "slack_id": "U091M1MP2HH", "display_name": "Math", "bio": null, "projects_count": 0, "devlogs_count": 0, "votes_count": 0, "ships_count": 0, "projects": [], "coding_time_seconds": 0, "coding_time_seconds_today": 0, "balance": "You need to have a pocket watcher badge to view this.", "badges": [], "created_at": "2025-06-17T07:15:18.196-04:00", "updated_at": "2025-07-03T19:38:37.129-04:00", "avatar": "https://secure.gravatar.com/avatar/bd36d39c8369229a15b43cd983c75c9f.jpg?s=512&d=https%3A%2F%2Fa.slack-edge.com%2Fdf10d%2Fimg%2Favatars%2Fava_0002-512.png", "custom_css": null}, {"id": 6065, "slack_id": "U091M1UR24B", "display_name": "Stachu", "bio": null, "projects_count": 1, "devlogs_count": 4, "votes_count": 0, "ships_count": 0, "projects": [{"id": 1087, "title": "SwiftDrop", "devlogs_count": 4, "created_at": "2025-06-17T15:44:08.600-04:00"}], "coding_time_seconds": 12294, "coding_time_seconds_today": 0, "balance": "You need to have a pocket watcher badge to view this.", "badges": [], "created_at": "2025-06-17T07:15:54.821-04:00", "updated_at": "2025-07-03T19:38:37.394-04:00", "avatar": "https://secure.gravatar.com/avatar/5429cb1cbb1a56e05cbd902e1cc87c66.jpg?s=512&d=https%3A%2F%2Fa.slack-edge.com%2Fdf10d%2Fimg%2Favatars%2Fava_0000-512.png", "custom_css": null}, {"id": 6066, "slack_id": "U091M67SSNA", "display_name": "Ruben Prado", "bio": null, "projects_count": 0, "devlogs_count": 0, "votes_count": 0, "ships_count": 0, "projects": [], "coding_time_seconds": 0, "coding_time_seconds_today": 0, "balance": "You need to have a pocket watcher badge to view this.", "badges": [], "created_at": "2025-06-17T07:17:00.430-04:00", "updated_at": "2025-07-03T21:43:41.849-04:00", "avatar": "https://secure.gravatar.com/avatar/2c0f144a43b48f06415cb40563a109ef.jpg?s=512&d=https%3A%2F%2Fa.slack-edge.com%2Fdf10d%2Fimg%2Favatars%2Fava_0021-512.png", "custom_css": null}, {"id": 6067, "slack_id": "U092G73FTQ8", "display_name": "Alvin Lam (AlvinLam0226)", "bio": null, "projects_count": 1, "devlogs_count": 4, "votes_count": 7, "ships_count": 1, "projects": [{"id": 855, "title": "MarkeTracker", "devlogs_count": 4, "created_at": "2025-06-17T09:49:31.266-04:00"}], "coding_time_seconds": 48090, "coding_time_seconds_today": 0, "balance": "You need to have a pocket watcher badge to view this.", "badges": [{"name": "Maiden Voyage", "text": "you shipped your first project! the journey begins...", "icon": "\ud83d\udea2"}], "created_at": "2025-06-17T07:17:18.108-04:00", "updated_at": "2025-09-10T22:54:11.361-04:00", "avatar": "https://avatars.slack-edge.com/2025-06-17/9046497958087_ba40d073f2f493efa617_original.png", "custom_css": null}, {"id": 6068, "slack_id": "U0926CPM0QZ", "display_name": "slremi", "bio": null, "projects_count": 0, "devlogs_count": 0, "votes_count": 0, "ships_count": 0, "projects": [], "coding_time_seconds": 0, "coding_time_seconds_today": 0, "balance": "You need to have a pocket watcher badge to view this.", "badges": [], "created_at": "2025-06-17T07:17:27.798-04:00", "updated_at": "2025-07-03T19:38:38.147-04:00", "avatar": "https://secure.gravatar.com/avatar/d8cab49a2bdeec34a8ae4b960aa396dd.jpg?s=512&d=https%3A%2F%2Fa.slack-edge.com%2Fdf10d%2Fimg%2Favatars%2Fava_0024-512.png", "custom_css": null}, {"id": 6069, "slack_id": "U091CEAHYCF", "display_name": "Srikanth N", "bio": null, "projects_count": 0, "devlogs_count": 0, "votes_count": 0, "ships_count": 0, "projects": [], "coding_time_seconds": 0, "coding_time_seconds_today": 0, "balance": "You need to have a pocket watcher badge to view this.", "badges": [], "created_at": "2025-06-17T07:17:49.705-04:00", "updated_at": "2025-07-03T19:38:38.423-04:00", "avatar": "https://secure.gravatar.com/avatar/42ca2f29a8c2834e1ef9719dd94bb81c.jpg?s=512&d=https%3A%2F%2Fa.slack-edge.com%2Fdf10d%2Fimg%2Favatars%2Fava_0007-512.png", "custom_css": null}, {"id": 6070, "slack_id": "U07ES735A8L", "display_name": "nimuri niki", "bio": null, "projects_count": 0, "devlogs_count": 0, "votes_count": 0, "ships_count": 0, "projects": [], "coding_time_seconds": 0, "coding_time_seconds_today": 0, "balance": "You need to have a pocket watcher badge to view this.", "badges": [], "created_at": "2025-06-17T07:17:52.467-04:00", "updated_at": "2025-07-03T21:43:42.198-04:00", "avatar": "https://avatars.slack-edge.com/2025-01-25/8334863277015_64e8744325460d201ca2_original.png", "custom_css": null}, {"id": 6071, "slack_id": "U07H5SXGURW", "display_name": "Anmol", "bio": null, "projects_count": 2, "devlogs_count": 4, "votes_count": 18, "ships_count": 1, "projects": [{"id": 9489, "title": "rgit", "devlogs_count": 3, "created_at": "2025-08-01T12:39:32.107-04:00"}, {"id": 10938, "title": "RWE", "devlogs_count": 1, "created_at": "2025-08-12T00:21:32.526-04:00"}], "coding_time_seconds": 120941, "coding_time_seconds_today": 0, "balance": "You need to have a pocket watcher badge to view this.", "badges": [{"name": "Maiden Voyage", "text": "you shipped your first project! the journey begins...", "icon": "\ud83d\udea2"}], "created_at": "2025-06-17T07:17:55.761-04:00", "updated_at": "2025-09-10T22:54:11.459-04:00", "avatar": "https://avatars.slack-edge.com/2024-08-13/7566975503219_e59a9c531a9856acc1be_original.jpg", "custom_css": null}, {"id": 6072, "slack_id": "U090JSHV8QJ", "display_name": "Nico", "bio": null, "projects_count": 5, "devlogs_count": 10, "votes_count": 18, "ships_count": 2, "projects": [{"id": 1055, "title": "EINK-Phone-Pico", "devlogs_count": 1, "created_at": "2025-06-17T14:40:19.346-04:00"}, {"id": 11376, "title": "Cardputer Calculator", "devlogs_count": 1, "created_at": "2025-08-15T11:19:01.133-04:00"}, {"id": 13289, "title": "Weighly", "devlogs_count": 5, "created_at": "2025-09-13T13:32:38.230-04:00"}, {"id": 8121, "title": "Timeless LoFi", "devlogs_count": 1, "created_at": "2025-07-24T18:30:00.676-04:00"}, {"id": 8147, "title": "Nico's Website", "devlogs_count": 2, "created_at": "2025-07-24T23:21:55.716-04:00"}], "coding_time_seconds": 337036, "coding_time_seconds_today": 0, "balance": "You need to have a pocket watcher badge to view this.", "badges": [{"name": "Maiden Voyage", "text": "you shipped your first project! the journey begins...", "icon": "\ud83d\udea2"}], "created_at": "2025-06-17T07:18:08.702-04:00", "updated_at": "2025-09-10T22:54:11.486-04:00", "avatar": "https://avatars.slack-edge.com/2025-06-08/9016462646821_481ea1fe258581c8a44d_original.jpg", "custom_css": null}, {"id": 6073, "slack_id": "U091M2M5Q9L", "display_name": "AayanAbid", "bio": null, "projects_count": 0, "devlogs_count": 0, "votes_count": 0, "ships_count": 0, "projects": [], "coding_time_seconds": 0, "coding_time_seconds_today": 0, "balance": "You need to have a pocket watcher badge to view this.", "badges": [], "created_at": "2025-06-17T07:18:32.636-04:00", "updated_at": "2025-07-03T19:38:39.389-04:00", "avatar": "https://secure.gravatar.com/avatar/4590ae129f3a4b147de7f9bb0b16d7c4.jpg?s=512&d=https%3A%2F%2Fa.slack-edge.com%2Fdf10d%2Fimg%2Favatars%2Fava_0007-512.png", "custom_css": null}, {"id": 6074, "slack_id": "U091M21518T", "display_name": "Amu", "bio": null, "projects_count": 6, "devlogs_count": 14, "votes_count": 74, "ships_count": 4, "projects": [{"id": 3125, "title": "RUNNY (A GAME THAT MAKES YOU FUNNY)", "devlogs_count": 5, "created_at": "2025-06-23T06:56:42.133-04:00"}, {"id": 10093, "title": "India Gate", "devlogs_count": 1, "created_at": "2025-08-04T00:57:56.766-04:00"}, {"id": 10100, "title": "PLAYO", "devlogs_count": 4, "created_at": "2025-08-04T02:55:32.399-04:00"}, {"id": 864, "title": "WhatToDo(A fantastic todo list)", "devlogs_count": 2, "created_at": "2025-06-17T10:03:16.272-04:00"}, {"id": 8351, "title": "TOYZY PORTOFOLIO", "devlogs_count": 1, "created_at": "2025-07-26T11:57:46.587-04:00"}, {"id": 9007, "title": "HellSpace", "devlogs_count": 1, "created_at": "2025-07-30T07:10:49.352-04:00"}], "coding_time_seconds": 148383, "coding_time_seconds_today": 0, "balance": "You need to have a pocket watcher badge to view this.", "badges": [{"name": "Maiden Voyage", "text": "you shipped your first project! the journey begins...", "icon": "\ud83d\udea2"}], "created_at": "2025-06-17T07:18:33.493-04:00", "updated_at": "2025-09-10T22:54:11.539-04:00", "avatar": "https://avatars.slack-edge.com/2025-09-01/9469440147616_c24ae3792df70061c857_original.png", "custom_css": null}, {"id": 6075, "slack_id": "U091SR2UB28", "display_name": "Swaroop", "bio": null, "projects_count": 0, "devlogs_count": 0, "votes_count": 0, "ships_count": 0, "projects": [], "coding_time_seconds": 0, "coding_time_seconds_today": 0, "balance": "You need to have a pocket watcher badge to view this.", "badges": [], "created_at": "2025-06-17T07:18:51.910-04:00", "updated_at": "2025-07-03T19:38:39.950-04:00", "avatar": "https://secure.gravatar.com/avatar/ad73751496d5a450c10c2a4f6cc2a9ed.jpg?s=512&d=https%3A%2F%2Fa.slack-edge.com%2Fdf10d%2Fimg%2Favatars%2Fava_0013-512.png", "custom_css": null}, {"id": 6076, "slack_id": "U0926D2LXUH", "display_name": "Wellington Ribeiro Dias", "bio": null, "projects_count": 0, "devlogs_count": 0, "votes_count": 0, "ships_count": 0, "projects": [], "coding_time_seconds": 0, "coding_time_seconds_today": 0, "balance": "You need to have a pocket watcher badge to view this.", "badges": [], "created_at": "2025-06-17T07:18:52.267-04:00", "updated_at": "2025-07-03T22:34:12.093-04:00", "avatar": "https://secure.gravatar.com/avatar/f77165be4e55d203bd85cbfd393cfbc1.jpg?s=512&d=https%3A%2F%2Fa.slack-edge.com%2Fdf10d%2Fimg%2Favatars%2Fava_0006-512.png", "custom_css": null}, {"id": 6077, "slack_id": "U07UVCUBJ06", "display_name": "Hamza Elrawy", "bio": null, "projects_count": 0, "devlogs_count": 0, "votes_count": 0, "ships_count": 0, "projects": [], "coding_time_seconds": 0, "coding_time_seconds_today": 0, "balance": "You need to have a pocket watcher badge to view this.", "badges": [], "created_at": "2025-06-17T07:19:02.181-04:00", "updated_at": "2025-07-03T19:38:40.431-04:00", "avatar": "https://avatars.slack-edge.com/2024-12-15/8173624527413_90e52fcd6fca316c6813_original.png", "custom_css": null}, {"id": 6078, "slack_id": "U091CEGN6UF", "display_name": "Krishbin Paudel", "bio": null, "projects_count": 0, "devlogs_count": 0, "votes_count": 0, "ships_count": 0, "projects": [], "coding_time_seconds": 0, "coding_time_seconds_today": 0, "balance": "You need to have a pocket watcher badge to view this.", "badges": [], "created_at": "2025-06-17T07:19:09.127-04:00", "updated_at": "2025-07-03T19:38:40.690-04:00", "avatar": "https://secure.gravatar.com/avatar/2e74b2af741c140f48e6dc8f7adf364b.jpg?s=512&d=https%3A%2F%2Fa.slack-edge.com%2Fdf10d%2Fimg%2Favatars%2Fava_0020-512.png", "custom_css": null}, {"id": 6079, "slack_id": "U091TCCDDU2", "display_name": "Chimwemwe Sinyinza", "bio": null, "projects_count": 0, "devlogs_count": 0, "votes_count": 0, "ships_count": 0, "projects": [], "coding_time_seconds": 0, "coding_time_seconds_today": 0, "balance": "You need to have a pocket watcher badge to view this.", "badges": [], "created_at": "2025-06-17T07:20:00.487-04:00", "updated_at": "2025-07-05T20:07:14.004-04:00", "avatar": "https://secure.gravatar.com/avatar/717a0a3fc0b087a0ab8652962527c2be.jpg?s=512&d=https%3A%2F%2Fa.slack-edge.com%2Fdf10d%2Fimg%2Favatars%2Fava_0005-512.png", "custom_css": null}, {"id": 6080, "slack_id": "U081V32ELTH", "display_name": "AB", "bio": null, "projects_count": 0, "devlogs_count": 0, "votes_count": 0, "ships_count": 0, "projects": [], "coding_time_seconds": 0, "coding_time_seconds_today": 0, "balance": "You need to have a pocket watcher badge to view this.", "badges": [], "created_at": "2025-06-17T07:20:22.309-04:00", "updated_at": "2025-07-04T20:06:32.326-04:00", "avatar": "https://secure.gravatar.com/avatar/cc7d371f9592017ab52b0df9edb3470e.jpg?s=512&d=https%3A%2F%2Fa.slack-edge.com%2Fdf10d%2Fimg%2Favatars%2Fava_0000-512.png", "custom_css": null}], "pagination": {"page": 304, "pages": 1192, "count": 23828, "items": 20}}