{"users": [{"id": 6081, "slack_id": "U091U7CEYUU", "display_name": "Kamran Shahid", "bio": null, "projects_count": 0, "devlogs_count": 0, "votes_count": 0, "ships_count": 0, "projects": [], "coding_time_seconds": 0, "coding_time_seconds_today": 0, "balance": "You need to have a pocket watcher badge to view this.", "badges": [], "created_at": "2025-06-17T07:20:24.095-04:00", "updated_at": "2025-07-03T19:38:41.224-04:00", "avatar": "https://avatars.slack-edge.com/2025-06-17/9074467953089_3c83cebeaf1b94902331_original.jpg", "custom_css": null}, {"id": 6082, "slack_id": "U091JFH9FU6", "display_name": "Gabrielle Oliveira Santana", "bio": null, "projects_count": 0, "devlogs_count": 0, "votes_count": 0, "ships_count": 0, "projects": [], "coding_time_seconds": 0, "coding_time_seconds_today": 0, "balance": "You need to have a pocket watcher badge to view this.", "badges": [], "created_at": "2025-06-17T07:20:25.877-04:00", "updated_at": "2025-07-03T19:38:41.491-04:00", "avatar": "https://avatars.slack-edge.com/2025-06-17/9061900963474_ec726f540550f7bd1aa9_original.png", "custom_css": null}, {"id": 6083, "slack_id": "U092G7AQA9E", "display_name": "Tobias Kisling", "bio": null, "projects_count": 1, "devlogs_count": 16, "votes_count": 0, "ships_count": 0, "projects": [{"id": 2577, "title": "WebOS", "devlogs_count": 16, "created_at": "2025-06-21T11:06:50.353-04:00"}], "coding_time_seconds": 194716, "coding_time_seconds_today": 426, "balance": "You need to have a pocket watcher badge to view this.", "badges": [], "created_at": "2025-06-17T07:20:44.306-04:00", "updated_at": "2025-07-03T19:38:41.779-04:00", "avatar": "https://secure.gravatar.com/avatar/80af7abae036baf31922d3bb9ec1ab4a.jpg?s=512&d=https%3A%2F%2Fa.slack-edge.com%2Fdf10d%2Fimg%2Favatars%2Fava_0012-512.png", "custom_css": null}, {"id": 6084, "slack_id": "U091TS119S6", "display_name": "Santosh Kumar Hatti", "bio": null, "projects_count": 0, "devlogs_count": 0, "votes_count": 0, "ships_count": 0, "projects": [], "coding_time_seconds": 0, "coding_time_seconds_today": 0, "balance": "You need to have a pocket watcher badge to view this.", "badges": [], "created_at": "2025-06-17T07:20:47.497-04:00", "updated_at": "2025-07-03T19:38:42.067-04:00", "avatar": "https://secure.gravatar.com/avatar/da2971a971f4887de33914fecec3cb18.jpg?s=512&d=https%3A%2F%2Fa.slack-edge.com%2Fdf10d%2Fimg%2Favatars%2Fava_0015-512.png", "custom_css": null}, {"id": 6085, "slack_id": "U091TS28QD8", "display_name": "Harsh kumar", "bio": null, "projects_count": 0, "devlogs_count": 0, "votes_count": 0, "ships_count": 0, "projects": [], "coding_time_seconds": 0, "coding_time_seconds_today": 0, "balance": "You need to have a pocket watcher badge to view this.", "badges": [], "created_at": "2025-06-17T07:20:58.206-04:00", "updated_at": "2025-07-03T19:38:42.346-04:00", "avatar": "https://avatars.slack-edge.com/2025-06-17/9061903200210_6fab8d0dad443d1a601c_original.jpg", "custom_css": null}, {"id": 6086, "slack_id": "U091CES4AKZ", "display_name": "ines", "bio": null, "projects_count": 0, "devlogs_count": 0, "votes_count": 0, "ships_count": 0, "projects": [], "coding_time_seconds": 18280, "coding_time_seconds_today": 0, "balance": "You need to have a pocket watcher badge to view this.", "badges": [], "created_at": "2025-06-17T07:21:03.863-04:00", "updated_at": "2025-07-03T19:38:42.613-04:00", "avatar": "https://secure.gravatar.com/avatar/a6ae3100874cfe338788ef78040ea94f.jpg?s=512&d=https%3A%2F%2Fa.slack-edge.com%2Fdf10d%2Fimg%2Favatars%2Fava_0015-512.png", "custom_css": null}, {"id": 6087, "slack_id": "U091CEP7C31", "display_name": "Abhay Kumar", "bio": null, "projects_count": 0, "devlogs_count": 0, "votes_count": 0, "ships_count": 0, "projects": [], "coding_time_seconds": 29188, "coding_time_seconds_today": 0, "balance": "You need to have a pocket watcher badge to view this.", "badges": [], "created_at": "2025-06-17T07:21:09.314-04:00", "updated_at": "2025-07-03T19:38:42.896-04:00", "avatar": "https://avatars.slack-edge.com/2025-06-17/9084274859520_7b66c15274ec8d81510c_original.jpg", "custom_css": null}, {"id": 6088, "slack_id": "U091TRGES2W", "display_name": "Sasa", "bio": null, "projects_count": 0, "devlogs_count": 0, "votes_count": 0, "ships_count": 0, "projects": [], "coding_time_seconds": 0, "coding_time_seconds_today": 0, "balance": "You need to have a pocket watcher badge to view this.", "badges": [], "created_at": "2025-06-17T07:22:57.796-04:00", "updated_at": "2025-07-03T19:38:43.165-04:00", "avatar": "https://secure.gravatar.com/avatar/2fd42258fae05403a388ea8de7deaa62.jpg?s=512&d=https%3A%2F%2Fa.slack-edge.com%2Fdf10d%2Fimg%2Favatars%2Fava_0006-512.png", "custom_css": null}, {"id": 6089, "slack_id": "U0926DKB1TK", "display_name": "wolf", "bio": null, "projects_count": 0, "devlogs_count": 0, "votes_count": 0, "ships_count": 0, "projects": [], "coding_time_seconds": 0, "coding_time_seconds_today": 0, "balance": "You need to have a pocket watcher badge to view this.", "badges": [], "created_at": "2025-06-17T07:23:06.956-04:00", "updated_at": "2025-07-03T19:38:43.431-04:00", "avatar": "https://secure.gravatar.com/avatar/0da8c697cc50b77c386ef998202f53a3.jpg?s=512&d=https%3A%2F%2Fa.slack-edge.com%2Fdf10d%2Fimg%2Favatars%2Fava_0016-512.png", "custom_css": null}, {"id": 6090, "slack_id": "U091S4H8V1T", "display_name": "Oluwatobiloba", "bio": null, "projects_count": 1, "devlogs_count": 2, "votes_count": 0, "ships_count": 0, "projects": [{"id": 4592, "title": "Phinn", "devlogs_count": 2, "created_at": "2025-06-30T19:55:36.707-04:00"}], "coding_time_seconds": 145852, "coding_time_seconds_today": 0, "balance": "You need to have a pocket watcher badge to view this.", "badges": [], "created_at": "2025-06-17T07:23:25.979-04:00", "updated_at": "2025-07-03T21:55:41.321-04:00", "avatar": "https://secure.gravatar.com/avatar/4489e2044e34c012d0abd299fd1ad68e.jpg?s=512&d=https%3A%2F%2Fa.slack-edge.com%2Fdf10d%2Fimg%2Favatars%2Fava_0011-512.png", "custom_css": null}, {"id": 6091, "slack_id": "U091M7BGE7Q", "display_name": "Emre", "bio": null, "projects_count": 0, "devlogs_count": 0, "votes_count": 0, "ships_count": 0, "projects": [], "coding_time_seconds": 0, "coding_time_seconds_today": 0, "balance": "You need to have a pocket watcher badge to view this.", "badges": [], "created_at": "2025-06-17T07:24:08.816-04:00", "updated_at": "2025-07-03T19:38:43.857-04:00", "avatar": "https://secure.gravatar.com/avatar/2867dfb791d9e5f4b408684b1c94147a.jpg?s=512&d=https%3A%2F%2Fa.slack-edge.com%2Fdf10d%2Fimg%2Favatars%2Fava_0010-512.png", "custom_css": null}, {"id": 6092, "slack_id": "U091M2VC37D", "display_name": "Hamza", "bio": null, "projects_count": 0, "devlogs_count": 0, "votes_count": 0, "ships_count": 0, "projects": [], "coding_time_seconds": 313, "coding_time_seconds_today": 0, "balance": "You need to have a pocket watcher badge to view this.", "badges": [], "created_at": "2025-06-17T07:24:57.521-04:00", "updated_at": "2025-07-03T19:38:44.136-04:00", "avatar": "https://secure.gravatar.com/avatar/74d70ec2ffbff908d7b0131b03cc7883.jpg?s=512&d=https%3A%2F%2Fa.slack-edge.com%2Fdf10d%2Fimg%2Favatars%2Fava_0014-512.png", "custom_css": null}, {"id": 6093, "slack_id": "U0926DB9JV7", "display_name": "Juan", "bio": null, "projects_count": 0, "devlogs_count": 0, "votes_count": 0, "ships_count": 0, "projects": [], "coding_time_seconds": 0, "coding_time_seconds_today": 0, "balance": "You need to have a pocket watcher badge to view this.", "badges": [], "created_at": "2025-06-17T07:25:16.933-04:00", "updated_at": "2025-07-03T19:38:44.410-04:00", "avatar": "https://avatars.slack-edge.com/2025-06-17/9062288987124_b1910f3cb812396d639c_original.png", "custom_css": null}, {"id": 6094, "slack_id": "U091CEYGHD5", "display_name": "Alonzer", "bio": null, "projects_count": 0, "devlogs_count": 0, "votes_count": 0, "ships_count": 0, "projects": [], "coding_time_seconds": 0, "coding_time_seconds_today": 0, "balance": "You need to have a pocket watcher badge to view this.", "badges": [], "created_at": "2025-06-17T07:25:19.968-04:00", "updated_at": "2025-07-03T19:38:44.678-04:00", "avatar": "https://secure.gravatar.com/avatar/4a128b036dd0dced29a7468b553befcf.jpg?s=512&d=https%3A%2F%2Fa.slack-edge.com%2Fdf10d%2Fimg%2Favatars%2Fava_0009-512.png", "custom_css": null}, {"id": 6095, "slack_id": "U091M7BT086", "display_name": "rishikesh chauhan", "bio": null, "projects_count": 0, "devlogs_count": 0, "votes_count": 0, "ships_count": 0, "projects": [], "coding_time_seconds": 0, "coding_time_seconds_today": 0, "balance": "You need to have a pocket watcher badge to view this.", "badges": [], "created_at": "2025-06-17T07:25:23.502-04:00", "updated_at": "2025-07-03T19:38:44.957-04:00", "avatar": "https://secure.gravatar.com/avatar/a7d80ce013d642ee3eab2d8c79c32050.jpg?s=512&d=https%3A%2F%2Fa.slack-edge.com%2Fdf10d%2Fimg%2Favatars%2Fava_0008-512.png", "custom_css": null}, {"id": 6096, "slack_id": "U091U808K4L", "display_name": "Sanidhya Kumar", "bio": null, "projects_count": 0, "devlogs_count": 0, "votes_count": 0, "ships_count": 0, "projects": [], "coding_time_seconds": 0, "coding_time_seconds_today": 0, "balance": "You need to have a pocket watcher badge to view this.", "badges": [], "created_at": "2025-06-17T07:25:53.599-04:00", "updated_at": "2025-07-03T19:38:45.222-04:00", "avatar": "https://avatars.slack-edge.com/2025-06-17/9055119097187_7a694a381b5fff998138_original.png", "custom_css": null}, {"id": 6097, "slack_id": "U092G7RP14Y", "display_name": "Shana", "bio": null, "projects_count": 0, "devlogs_count": 0, "votes_count": 0, "ships_count": 0, "projects": [], "coding_time_seconds": 0, "coding_time_seconds_today": 0, "balance": "You need to have a pocket watcher badge to view this.", "badges": [], "created_at": "2025-06-17T07:26:02.433-04:00", "updated_at": "2025-07-03T19:38:45.491-04:00", "avatar": "https://secure.gravatar.com/avatar/19388cf0732f4a43fe8cbb83869ca9d3.jpg?s=512&d=https%3A%2F%2Fa.slack-edge.com%2Fdf10d%2Fimg%2Favatars%2Fava_0006-512.png", "custom_css": null}, {"id": 6098, "slack_id": "U091M7H7DBQ", "display_name": "disamdev", "bio": null, "projects_count": 2, "devlogs_count": 4, "votes_count": 39, "ships_count": 2, "projects": [{"id": 7594, "title": "Epika Webs", "devlogs_count": 1, "created_at": "2025-07-22T08:05:04.792-04:00"}, {"id": 774, "title": "ddfellows", "devlogs_count": 3, "created_at": "2025-06-17T07:56:33.167-04:00"}], "coding_time_seconds": 711955, "coding_time_seconds_today": 0, "balance": "You need to have a pocket watcher badge to view this.", "badges": [{"name": "Maiden Voyage", "text": "you shipped your first project! the journey begins...", "icon": "\ud83d\udea2"}], "created_at": "2025-06-17T07:26:06.932-04:00", "updated_at": "2025-09-10T22:54:12.071-04:00", "avatar": "https://secure.gravatar.com/avatar/ac597a4e87e93e3998773e347b1f82e7.jpg?s=512&d=https%3A%2F%2Fa.slack-edge.com%2Fdf10d%2Fimg%2Favatars%2Fava_0001-512.png", "custom_css": null}, {"id": 6099, "slack_id": "U091S4X2YSH", "display_name": "June", "bio": null, "projects_count": 0, "devlogs_count": 0, "votes_count": 0, "ships_count": 0, "projects": [], "coding_time_seconds": 0, "coding_time_seconds_today": 0, "balance": "You need to have a pocket watcher badge to view this.", "badges": [], "created_at": "2025-06-17T07:26:09.902-04:00", "updated_at": "2025-07-03T19:38:46.035-04:00", "avatar": "https://secure.gravatar.com/avatar/fdda8ffba28ed465f11563911129a6cc.jpg?s=512&d=https%3A%2F%2Fa.slack-edge.com%2Fdf10d%2Fimg%2Favatars%2Fava_0002-512.png", "custom_css": null}, {"id": 6100, "slack_id": "U092G858R6U", "display_name": "Coleton Cooper", "bio": null, "projects_count": 0, "devlogs_count": 0, "votes_count": 0, "ships_count": 0, "projects": [], "coding_time_seconds": 0, "coding_time_seconds_today": 0, "balance": "You need to have a pocket watcher badge to view this.", "badges": [], "created_at": "2025-06-17T07:26:53.330-04:00", "updated_at": "2025-07-03T19:38:46.295-04:00", "avatar": "https://avatars.slack-edge.com/2025-06-17/9060184606405_854d2d288f2810a259d1_original.png", "custom_css": null}], "pagination": {"page": 305, "pages": 1192, "count": 23828, "items": 20}}