{"users": [{"id": 6101, "slack_id": "U091M7JLPP0", "display_name": "Munna Kumar", "bio": null, "projects_count": 0, "devlogs_count": 0, "votes_count": 0, "ships_count": 0, "projects": [], "coding_time_seconds": 0, "coding_time_seconds_today": 0, "balance": "You need to have a pocket watcher badge to view this.", "badges": [], "created_at": "2025-06-17T07:26:58.513-04:00", "updated_at": "2025-07-03T19:38:46.570-04:00", "avatar": "https://avatars.slack-edge.com/2025-06-17/9046534684855_de5a0a167314b1d80e3c_original.png", "custom_css": null}, {"id": 6102, "slack_id": "U091M7P91BQ", "display_name": "Raahul SD", "bio": null, "projects_count": 0, "devlogs_count": 0, "votes_count": 0, "ships_count": 0, "projects": [], "coding_time_seconds": 1714, "coding_time_seconds_today": 0, "balance": "You need to have a pocket watcher badge to view this.", "badges": [], "created_at": "2025-06-17T07:28:19.423-04:00", "updated_at": "2025-07-03T19:38:46.830-04:00", "avatar": "https://secure.gravatar.com/avatar/d4b22e2b3417d4d212ee8126731a03f5.jpg?s=512&d=https%3A%2F%2Fa.slack-edge.com%2Fdf10d%2Fimg%2Favatars%2Fava_0003-512.png", "custom_css": null}, {"id": 6103, "slack_id": "U08UC5K7KEX", "display_name": "Benie", "bio": null, "projects_count": 1, "devlogs_count": 10, "votes_count": 20, "ships_count": 1, "projects": [{"id": 910, "title": "Quaze", "devlogs_count": 10, "created_at": "2025-06-17T11:03:16.258-04:00"}], "coding_time_seconds": 275083, "coding_time_seconds_today": 0, "balance": "You need to have a pocket watcher badge to view this.", "badges": [{"name": "Maiden Voyage", "text": "you shipped your first project! the journey begins...", "icon": "\ud83d\udea2"}], "created_at": "2025-06-17T07:29:00.907-04:00", "updated_at": "2025-09-10T22:54:12.221-04:00", "avatar": "https://secure.gravatar.com/avatar/d50ad18dffcb330838df7988e0927007.jpg?s=512&d=https%3A%2F%2Fa.slack-edge.com%2Fdf10d%2Fimg%2Favatars%2Fava_0008-512.png", "custom_css": null}, {"id": 6104, "slack_id": "U092G7T6PQQ", "display_name": "Adiel", "bio": null, "projects_count": 0, "devlogs_count": 0, "votes_count": 0, "ships_count": 0, "projects": [], "coding_time_seconds": 94622, "coding_time_seconds_today": 0, "balance": "You need to have a pocket watcher badge to view this.", "badges": [], "created_at": "2025-06-17T07:29:16.308-04:00", "updated_at": "2025-07-03T19:38:47.232-04:00", "avatar": "https://secure.gravatar.com/avatar/ed7fc208bcc3c018356dfacafa5c843e.jpg?s=512&d=https%3A%2F%2Fa.slack-edge.com%2Fdf10d%2Fimg%2Favatars%2Fava_0014-512.png", "custom_css": null}, {"id": 6105, "slack_id": "U08RGN08RFG", "display_name": "Jamexsa", "bio": null, "projects_count": 1, "devlogs_count": 1, "votes_count": 0, "ships_count": 0, "projects": [{"id": 795, "title": "2D platformer game (beginner)", "devlogs_count": 1, "created_at": "2025-06-17T08:27:14.594-04:00"}], "coding_time_seconds": 11231, "coding_time_seconds_today": 0, "balance": "You need to have a pocket watcher badge to view this.", "badges": [], "created_at": "2025-06-17T07:29:51.896-04:00", "updated_at": "2025-08-26T16:29:34.912-04:00", "avatar": "https://avatars.slack-edge.com/2025-05-09/8878430807588_fb1a475d78f9fbf9ac8b_original.gif", "custom_css": null}, {"id": 6106, "slack_id": "U091T38M31A", "display_name": "Ivan", "bio": null, "projects_count": 0, "devlogs_count": 0, "votes_count": 0, "ships_count": 0, "projects": [], "coding_time_seconds": 0, "coding_time_seconds_today": 0, "balance": "You need to have a pocket watcher badge to view this.", "badges": [], "created_at": "2025-06-17T07:30:01.351-04:00", "updated_at": "2025-07-03T19:38:47.759-04:00", "avatar": "https://secure.gravatar.com/avatar/3c293119a47d8d44852646d9d0e194a7.jpg?s=512&d=https%3A%2F%2Fa.slack-edge.com%2Fdf10d%2Fimg%2Favatars%2Fava_0005-512.png", "custom_css": null}, {"id": 6107, "slack_id": "U0917T149QF", "display_name": "Dev Raj Khadka", "bio": null, "projects_count": 0, "devlogs_count": 0, "votes_count": 0, "ships_count": 0, "projects": [], "coding_time_seconds": 0, "coding_time_seconds_today": 0, "balance": "You need to have a pocket watcher badge to view this.", "badges": [], "created_at": "2025-06-17T07:30:03.190-04:00", "updated_at": "2025-07-03T21:43:45.528-04:00", "avatar": "https://secure.gravatar.com/avatar/e5ed1dc96125b02101c84e8059d91a58.jpg?s=512&d=https%3A%2F%2Fa.slack-edge.com%2Fdf10d%2Fimg%2Favatars%2Fava_0004-512.png", "custom_css": null}, {"id": 6108, "slack_id": "U086TPC5P7U", "display_name": "Shivang Ayush", "bio": null, "projects_count": 2, "devlogs_count": 5, "votes_count": 22, "ships_count": 1, "projects": [{"id": 836, "title": "Own Your Orbitz", "devlogs_count": 5, "created_at": "2025-06-17T09:31:39.720-04:00"}, {"id": 10660, "title": "Personal Portfolio", "devlogs_count": 0, "created_at": "2025-08-09T11:23:37.507-04:00"}], "coding_time_seconds": 37555, "coding_time_seconds_today": 0, "balance": "You need to have a pocket watcher badge to view this.", "badges": [{"name": "Maiden Voyage", "text": "you shipped your first project! the journey begins...", "icon": "\ud83d\udea2"}], "created_at": "2025-06-17T07:30:19.890-04:00", "updated_at": "2025-09-10T22:54:12.339-04:00", "avatar": "https://avatars.slack-edge.com/2025-01-30/8396556045280_6b7050f228e979d86adf_original.jpg", "custom_css": null}, {"id": 6109, "slack_id": "U091S5ED5GV", "display_name": "Hendo", "bio": null, "projects_count": 0, "devlogs_count": 0, "votes_count": 0, "ships_count": 0, "projects": [], "coding_time_seconds": 0, "coding_time_seconds_today": 0, "balance": "You need to have a pocket watcher badge to view this.", "badges": [], "created_at": "2025-06-17T07:32:05.446-04:00", "updated_at": "2025-07-03T19:38:48.290-04:00", "avatar": "https://secure.gravatar.com/avatar/549c23e149c7c51d6afb3019f39994a0.jpg?s=512&d=https%3A%2F%2Fa.slack-edge.com%2Fdf10d%2Fimg%2Favatars%2Fava_0021-512.png", "custom_css": null}, {"id": 6110, "slack_id": "U091S5LLM29", "display_name": "Ahmet Burak G\u00f6zel", "bio": null, "projects_count": 0, "devlogs_count": 0, "votes_count": 0, "ships_count": 0, "projects": [], "coding_time_seconds": 0, "coding_time_seconds_today": 0, "balance": "You need to have a pocket watcher badge to view this.", "badges": [], "created_at": "2025-06-17T07:32:09.303-04:00", "updated_at": "2025-07-03T19:38:48.551-04:00", "avatar": "https://secure.gravatar.com/avatar/7143f202f3d5d595714917b86070f715.jpg?s=512&d=https%3A%2F%2Fa.slack-edge.com%2Fdf10d%2Fimg%2Favatars%2Fava_0022-512.png", "custom_css": null}, {"id": 6111, "slack_id": "U091TT20Y10", "display_name": "Aarthi Honguthi", "bio": null, "projects_count": 0, "devlogs_count": 0, "votes_count": 0, "ships_count": 0, "projects": [], "coding_time_seconds": 0, "coding_time_seconds_today": 0, "balance": "You need to have a pocket watcher badge to view this.", "badges": [], "created_at": "2025-06-17T07:32:12.044-04:00", "updated_at": "2025-07-03T21:43:45.869-04:00", "avatar": "https://secure.gravatar.com/avatar/9ed8604e1fa542c9b04ebf33ed6d5fec.jpg?s=512&d=https%3A%2F%2Fa.slack-edge.com%2Fdf10d%2Fimg%2Favatars%2Fava_0012-512.png", "custom_css": null}, {"id": 6112, "slack_id": "U091S5E3MLM", "display_name": "Anirudha Pratap Sah", "bio": null, "projects_count": 0, "devlogs_count": 0, "votes_count": 0, "ships_count": 0, "projects": [], "coding_time_seconds": 101417, "coding_time_seconds_today": 0, "balance": "You need to have a pocket watcher badge to view this.", "badges": [], "created_at": "2025-06-17T07:32:41.978-04:00", "updated_at": "2025-07-03T19:38:48.957-04:00", "avatar": "https://avatars.slack-edge.com/2025-06-17/9046654508375_70ef6585d0c01229ad85_original.png", "custom_css": null}, {"id": 6113, "slack_id": "U022HU75FH8", "display_name": "Jalwan", "bio": null, "projects_count": 0, "devlogs_count": 0, "votes_count": 0, "ships_count": 0, "projects": [], "coding_time_seconds": 0, "coding_time_seconds_today": 0, "balance": "You need to have a pocket watcher badge to view this.", "badges": [], "created_at": "2025-06-17T07:33:12.226-04:00", "updated_at": "2025-07-03T19:38:49.228-04:00", "avatar": "https://secure.gravatar.com/avatar/c603d2057fb949b9502e2dcacdc9b6a0.jpg?s=512&d=https%3A%2F%2Fa.slack-edge.com%2Fdf10d%2Fimg%2Favatars%2Fava_0015-512.png", "custom_css": null}, {"id": 6114, "slack_id": "U086A4H3T6K", "display_name": "Sara Mohamed", "bio": null, "projects_count": 0, "devlogs_count": 0, "votes_count": 0, "ships_count": 0, "projects": [], "coding_time_seconds": 3776, "coding_time_seconds_today": 0, "balance": "You need to have a pocket watcher badge to view this.", "badges": [], "created_at": "2025-06-17T07:33:17.292-04:00", "updated_at": "2025-07-03T19:38:49.490-04:00", "avatar": "https://avatars.slack-edge.com/2024-12-28/8222066964502_3bd366e4c1ffeca9e7f6_original.jpg", "custom_css": null}, {"id": 6115, "slack_id": "U091CGC520P", "display_name": "uunmer", "bio": null, "projects_count": 0, "devlogs_count": 0, "votes_count": 0, "ships_count": 0, "projects": [], "coding_time_seconds": 0, "coding_time_seconds_today": 0, "balance": "You need to have a pocket watcher badge to view this.", "badges": [], "created_at": "2025-06-17T07:34:09.229-04:00", "updated_at": "2025-07-03T22:34:15.604-04:00", "avatar": "https://secure.gravatar.com/avatar/20b0d5504c4c1f08f4f5601a662a166a.jpg?s=512&d=https%3A%2F%2Fa.slack-edge.com%2Fdf10d%2Fimg%2Favatars%2Fava_0006-512.png", "custom_css": null}, {"id": 6116, "slack_id": "U092G90G5FS", "display_name": "Siddharthan pradeep", "bio": null, "projects_count": 0, "devlogs_count": 0, "votes_count": 2, "ships_count": 0, "projects": [], "coding_time_seconds": 0, "coding_time_seconds_today": 0, "balance": "You need to have a pocket watcher badge to view this.", "badges": [], "created_at": "2025-06-17T07:34:18.186-04:00", "updated_at": "2025-08-18T14:29:36.340-04:00", "avatar": "https://avatars.slack-edge.com/2025-08-18/9368039154789_6475a5316422b31f4911_original.png", "custom_css": null}, {"id": 6117, "slack_id": "U08M2SX75F1", "display_name": "Coral", "bio": null, "projects_count": 0, "devlogs_count": 0, "votes_count": 0, "ships_count": 0, "projects": [], "coding_time_seconds": 0, "coding_time_seconds_today": 0, "balance": "You need to have a pocket watcher badge to view this.", "badges": [], "created_at": "2025-06-17T07:34:34.159-04:00", "updated_at": "2025-07-03T19:38:50.186-04:00", "avatar": "https://secure.gravatar.com/avatar/1eef50c6c9fa005b4a2c386959867067.jpg?s=512&d=https%3A%2F%2Fa.slack-edge.com%2Fdf10d%2Fimg%2Favatars%2Fava_0025-512.png", "custom_css": null}, {"id": 6118, "slack_id": "U08U7LUTHED", "display_name": "Rune Bobbaers", "bio": null, "projects_count": 1, "devlogs_count": 0, "votes_count": 0, "ships_count": 0, "projects": [{"id": 1072, "title": "Raspberry pi game engine", "devlogs_count": 0, "created_at": "2025-06-17T15:17:45.331-04:00"}], "coding_time_seconds": 1906, "coding_time_seconds_today": 0, "balance": "You need to have a pocket watcher badge to view this.", "badges": [], "created_at": "2025-06-17T07:35:39.486-04:00", "updated_at": "2025-07-03T19:38:50.445-04:00", "avatar": "https://avatars.slack-edge.com/2025-05-24/8944814344981_caa86a9efc221c0ea25f_original.jpg", "custom_css": null}, {"id": 6119, "slack_id": "U0926EYB1KK", "display_name": "Frostie314159", "bio": null, "projects_count": 3, "devlogs_count": 7, "votes_count": 2, "ships_count": 0, "projects": [{"id": 768, "title": "esp-wifi-hal", "devlogs_count": 2, "created_at": "2025-06-17T07:48:59.206-04:00"}, {"id": 770, "title": "WPA2 for Ferris-on-Air", "devlogs_count": 2, "created_at": "2025-06-17T07:50:07.209-04:00"}, {"id": 3504, "title": "Divide PHY initialization for esp-hal among Modem Peripherals", "devlogs_count": 3, "created_at": "2025-06-24T13:31:37.839-04:00"}], "coding_time_seconds": 263267, "coding_time_seconds_today": 0, "balance": "You need to have a pocket watcher badge to view this.", "badges": [], "created_at": "2025-06-17T07:36:19.304-04:00", "updated_at": "2025-07-03T19:38:50.723-04:00", "avatar": "https://secure.gravatar.com/avatar/f761707d869bf50a2369961f532f3342.jpg?s=512&d=https%3A%2F%2Fa.slack-edge.com%2Fdf10d%2Fimg%2Favatars%2Fava_0014-512.png", "custom_css": null}, {"id": 6120, "slack_id": "U07RUGPNJMS", "display_name": "Ali El Deen Ahmed", "bio": null, "projects_count": 0, "devlogs_count": 0, "votes_count": 0, "ships_count": 0, "projects": [], "coding_time_seconds": 134555, "coding_time_seconds_today": 0, "balance": "You need to have a pocket watcher badge to view this.", "badges": [], "created_at": "2025-06-17T07:37:14.554-04:00", "updated_at": "2025-07-03T19:38:50.978-04:00", "avatar": "https://avatars.slack-edge.com/2024-11-05/7968820524423_bffe6197669280c0d269_original.jpg", "custom_css": null}], "pagination": {"page": 306, "pages": 1192, "count": 23828, "items": 20}}