{"users": [{"id": 6121, "slack_id": "U07EBTWK3CH", "display_name": "000xs", "bio": null, "projects_count": 0, "devlogs_count": 27, "votes_count": 67, "ships_count": 0, "projects": [], "coding_time_seconds": 596494, "coding_time_seconds_today": 0, "balance": "You need to have a pocket watcher badge to view this.", "badges": [{"name": "Maiden Voyage", "text": "you shipped your first project! the journey begins...", "icon": "\ud83d\udea2"}, {"name": "Ballot Stuffer", "text": "vote 100 times.", "icon": "https://summer.hackclub.com/assets/i_voted-bf851b48.png"}], "created_at": "2025-06-17T07:37:29.855-04:00", "updated_at": "2025-09-10T22:54:12.688-04:00", "avatar": "https://avatars.slack-edge.com/2024-08-13/7568882024772_ee734fcc71715e491215_original.png", "custom_css": null}, {"id": 6122, "slack_id": "U091M797SSJ", "display_name": "Yousef Abdallah", "bio": null, "projects_count": 0, "devlogs_count": 0, "votes_count": 0, "ships_count": 0, "projects": [], "coding_time_seconds": 0, "coding_time_seconds_today": 0, "balance": "You need to have a pocket watcher badge to view this.", "badges": [], "created_at": "2025-06-17T07:37:41.025-04:00", "updated_at": "2025-07-03T19:38:51.389-04:00", "avatar": "https://secure.gravatar.com/avatar/391ca238edecf6ad8045f723822cb2c0.jpg?s=512&d=https%3A%2F%2Fa.slack-edge.com%2Fdf10d%2Fimg%2Favatars%2Fava_0005-512.png", "custom_css": null}, {"id": 6123, "slack_id": "U092G9LGDEU", "display_name": "Haroon Riasat", "bio": null, "projects_count": 0, "devlogs_count": 0, "votes_count": 0, "ships_count": 0, "projects": [], "coding_time_seconds": 0, "coding_time_seconds_today": 0, "balance": "You need to have a pocket watcher badge to view this.", "badges": [], "created_at": "2025-06-17T07:37:53.166-04:00", "updated_at": "2025-07-03T19:38:51.656-04:00", "avatar": "https://secure.gravatar.com/avatar/fcebc7800b82eaf3e07f50605bfd90c6.jpg?s=512&d=https%3A%2F%2Fa.slack-edge.com%2Fdf10d%2Fimg%2Favatars%2Fava_0008-512.png", "custom_css": null}, {"id": 6124, "slack_id": "U091TE43R8A", "display_name": "Samuel Obeng", "bio": null, "projects_count": 0, "devlogs_count": 0, "votes_count": 0, "ships_count": 0, "projects": [], "coding_time_seconds": 0, "coding_time_seconds_today": 0, "balance": "You need to have a pocket watcher badge to view this.", "badges": [], "created_at": "2025-06-17T07:38:03.478-04:00", "updated_at": "2025-07-04T20:06:34.856-04:00", "avatar": "https://secure.gravatar.com/avatar/494df18ddd237ae37cacb924946844d5.jpg?s=512&d=https%3A%2F%2Fa.slack-edge.com%2Fdf10d%2Fimg%2Favatars%2Fava_0004-512.png", "custom_css": null}, {"id": 6125, "slack_id": "U091M914EH4", "display_name": "Mumo", "bio": null, "projects_count": 0, "devlogs_count": 0, "votes_count": 0, "ships_count": 0, "projects": [], "coding_time_seconds": 0, "coding_time_seconds_today": 0, "balance": "You need to have a pocket watcher badge to view this.", "badges": [], "created_at": "2025-06-17T07:38:07.562-04:00", "updated_at": "2025-07-03T19:38:52.061-04:00", "avatar": "https://secure.gravatar.com/avatar/c5e0c82e12c219f190bed35ea6b58ad1.jpg?s=512&d=https%3A%2F%2Fa.slack-edge.com%2Fdf10d%2Fimg%2Favatars%2Fava_0003-512.png", "custom_css": null}, {"id": 6126, "slack_id": "U08R6ME1880", "display_name": "Vynu", "bio": null, "projects_count": 0, "devlogs_count": 0, "votes_count": 0, "ships_count": 0, "projects": [], "coding_time_seconds": 240022, "coding_time_seconds_today": 0, "balance": "You need to have a pocket watcher badge to view this.", "badges": [], "created_at": "2025-06-17T07:38:33.183-04:00", "updated_at": "2025-09-13T02:28:55.185-04:00", "avatar": "https://avatars.slack-edge.com/2025-09-13/9512239734818_e571617cd6596c9b8b55_original.png", "custom_css": null}, {"id": 6127, "slack_id": "U091CGVFLBZ", "display_name": "Eric Zhu", "bio": null, "projects_count": 0, "devlogs_count": 0, "votes_count": 0, "ships_count": 0, "projects": [], "coding_time_seconds": 237353, "coding_time_seconds_today": 0, "balance": "You need to have a pocket watcher badge to view this.", "badges": [], "created_at": "2025-06-17T07:38:54.021-04:00", "updated_at": "2025-07-03T19:38:52.590-04:00", "avatar": "https://avatars.slack-edge.com/2025-06-17/9055329090134_cfdd49c0980bf22fd925_original.png", "custom_css": null}, {"id": 6128, "slack_id": "U092G9LB5UY", "display_name": "sugardaddy", "bio": null, "projects_count": 0, "devlogs_count": 0, "votes_count": 0, "ships_count": 0, "projects": [], "coding_time_seconds": 0, "coding_time_seconds_today": 0, "balance": "You need to have a pocket watcher badge to view this.", "badges": [], "created_at": "2025-06-17T07:39:20.324-04:00", "updated_at": "2025-07-03T19:38:52.865-04:00", "avatar": "https://secure.gravatar.com/avatar/bade927325174cc3b3c82ca1a7fb53f8.jpg?s=512&d=https%3A%2F%2Fa.slack-edge.com%2Fdf10d%2Fimg%2Favatars%2Fava_0013-512.png", "custom_css": null}, {"id": 6129, "slack_id": "U091U9S99BN", "display_name": "Vijay Guttula", "bio": null, "projects_count": 1, "devlogs_count": 0, "votes_count": 0, "ships_count": 0, "projects": [{"id": 811, "title": "Study Sphere", "devlogs_count": 0, "created_at": "2025-06-17T08:47:46.252-04:00"}], "coding_time_seconds": 524277, "coding_time_seconds_today": 0, "balance": "You need to have a pocket watcher badge to view this.", "badges": [], "created_at": "2025-06-17T07:39:25.746-04:00", "updated_at": "2025-07-03T19:38:53.125-04:00", "avatar": "https://secure.gravatar.com/avatar/42b48505ba55f7674eb6a1236b760683.jpg?s=512&d=https%3A%2F%2Fa.slack-edge.com%2Fdf10d%2Fimg%2Favatars%2Fava_0009-512.png", "custom_css": null}, {"id": 6130, "slack_id": "U08350QEPM1", "display_name": "Boson", "bio": null, "projects_count": 1, "devlogs_count": 4, "votes_count": 1, "ships_count": 1, "projects": [{"id": 2290, "title": "FrogTube", "devlogs_count": 1, "created_at": "2025-06-20T16:22:42.358-04:00"}], "coding_time_seconds": 116118, "coding_time_seconds_today": 0, "balance": "You need to have a pocket watcher badge to view this.", "badges": [{"name": "Maiden Voyage", "text": "you shipped your first project! the journey begins...", "icon": "\ud83d\udea2"}], "created_at": "2025-06-17T07:39:48.151-04:00", "updated_at": "2025-09-10T22:54:12.955-04:00", "avatar": "https://avatars.slack-edge.com/2025-09-07/9471367094611_852c8d3c6719ce2bef11_original.png", "custom_css": null}, {"id": 6131, "slack_id": "U091TUF0ZGA", "display_name": "ProfCesaum", "bio": null, "projects_count": 0, "devlogs_count": 0, "votes_count": 0, "ships_count": 0, "projects": [], "coding_time_seconds": 0, "coding_time_seconds_today": 0, "balance": "You need to have a pocket watcher badge to view this.", "badges": [], "created_at": "2025-06-17T07:39:54.256-04:00", "updated_at": "2025-07-03T19:38:53.540-04:00", "avatar": "https://secure.gravatar.com/avatar/44512e111f9d1193ba14d5da5ffe0623.jpg?s=512&d=https%3A%2F%2Fa.slack-edge.com%2Fdf10d%2Fimg%2Favatars%2Fava_0020-512.png", "custom_css": null}, {"id": 6132, "slack_id": "U091S6GFMDK", "display_name": "Xun Qin", "bio": null, "projects_count": 0, "devlogs_count": 0, "votes_count": 0, "ships_count": 0, "projects": [], "coding_time_seconds": 4957, "coding_time_seconds_today": 0, "balance": "You need to have a pocket watcher badge to view this.", "badges": [], "created_at": "2025-06-17T07:40:02.103-04:00", "updated_at": "2025-07-03T19:38:53.812-04:00", "avatar": "https://secure.gravatar.com/avatar/191814c12173f6d3cb9e94e904aeb1f3.jpg?s=512&d=https%3A%2F%2Fa.slack-edge.com%2Fdf10d%2Fimg%2Favatars%2Fava_0020-512.png", "custom_css": null}, {"id": 6133, "slack_id": "U092G9AJ0C8", "display_name": "Arshpreet", "bio": null, "projects_count": 2, "devlogs_count": 6, "votes_count": 14, "ships_count": 1, "projects": [{"id": 1818, "title": "CODING PLAYGROUND", "devlogs_count": 1, "created_at": "2025-06-19T10:38:25.862-04:00"}, {"id": 4356, "title": "BEAT THE PATTERN", "devlogs_count": 5, "created_at": "2025-06-29T09:51:53.047-04:00"}], "coding_time_seconds": 43265, "coding_time_seconds_today": 0, "balance": "You need to have a pocket watcher badge to view this.", "badges": [{"name": "Maiden Voyage", "text": "you shipped your first project! the journey begins...", "icon": "\ud83d\udea2"}], "created_at": "2025-06-17T07:40:18.834-04:00", "updated_at": "2025-09-10T22:54:13.043-04:00", "avatar": "https://secure.gravatar.com/avatar/fb0e53b3e06356b147ff8a42fee991d4.jpg?s=512&d=https%3A%2F%2Fa.slack-edge.com%2Fdf10d%2Fimg%2Favatars%2Fava_0002-512.png", "custom_css": null}, {"id": 6134, "slack_id": "U091U9ZSP9A", "display_name": "Antonio Thomacelli", "bio": null, "projects_count": 0, "devlogs_count": 0, "votes_count": 0, "ships_count": 0, "projects": [], "coding_time_seconds": 0, "coding_time_seconds_today": 0, "balance": "You need to have a pocket watcher badge to view this.", "badges": [], "created_at": "2025-06-17T07:41:25.140-04:00", "updated_at": "2025-07-03T19:38:54.377-04:00", "avatar": "https://avatars.slack-edge.com/2025-06-17/9062354712436_f445258364318df61e45_original.jpg", "custom_css": null}, {"id": 6135, "slack_id": "U091CH1QQTZ", "display_name": "Munna", "bio": null, "projects_count": 0, "devlogs_count": 0, "votes_count": 0, "ships_count": 0, "projects": [], "coding_time_seconds": 0, "coding_time_seconds_today": 0, "balance": "You need to have a pocket watcher badge to view this.", "badges": [], "created_at": "2025-06-17T07:41:33.705-04:00", "updated_at": "2025-07-03T19:38:54.797-04:00", "avatar": "https://secure.gravatar.com/avatar/0e5496366d31459bec8269d8a9a044b4.jpg?s=512&d=https%3A%2F%2Fa.slack-edge.com%2Fdf10d%2Fimg%2Favatars%2Fava_0009-512.png", "custom_css": null}, {"id": 6136, "slack_id": "U091JUHLMSA", "display_name": "Harshil Karia", "bio": null, "projects_count": 0, "devlogs_count": 0, "votes_count": 0, "ships_count": 0, "projects": [], "coding_time_seconds": 0, "coding_time_seconds_today": 0, "balance": "You need to have a pocket watcher badge to view this.", "badges": [], "created_at": "2025-06-17T07:41:34.462-04:00", "updated_at": "2025-07-03T19:38:55.060-04:00", "avatar": "https://secure.gravatar.com/avatar/962d5f22be825a2c044f39635620776f.jpg?s=512&d=https%3A%2F%2Fa.slack-edge.com%2Fdf10d%2Fimg%2Favatars%2Fava_0002-512.png", "custom_css": null}, {"id": 6137, "slack_id": "U0926FA3GHX", "display_name": "Kalsang Sherpa", "bio": null, "projects_count": 0, "devlogs_count": 0, "votes_count": 0, "ships_count": 0, "projects": [], "coding_time_seconds": 0, "coding_time_seconds_today": 0, "balance": "You need to have a pocket watcher badge to view this.", "badges": [], "created_at": "2025-06-17T07:41:48.839-04:00", "updated_at": "2025-07-06T20:07:23.194-04:00", "avatar": "https://secure.gravatar.com/avatar/9696b1525eecbb4c5847107b5b5fc8f5.jpg?s=512&d=https%3A%2F%2Fa.slack-edge.com%2Fdf10d%2Fimg%2Favatars%2Fava_0025-512.png", "custom_css": null}, {"id": 6138, "slack_id": "U091M51L43V", "display_name": "Balaji Mittapalli", "bio": null, "projects_count": 0, "devlogs_count": 0, "votes_count": 0, "ships_count": 0, "projects": [], "coding_time_seconds": 0, "coding_time_seconds_today": 0, "balance": "You need to have a pocket watcher badge to view this.", "badges": [], "created_at": "2025-06-17T07:41:56.074-04:00", "updated_at": "2025-07-03T19:38:55.454-04:00", "avatar": "https://avatars.slack-edge.com/2025-06-17/9060249750261_51ed3084ce6b0bb327c8_original.jpg", "custom_css": null}, {"id": 6139, "slack_id": "U092GA1KDNU", "display_name": "Kuba", "bio": null, "projects_count": 0, "devlogs_count": 0, "votes_count": 0, "ships_count": 0, "projects": [], "coding_time_seconds": 119462, "coding_time_seconds_today": 0, "balance": "You need to have a pocket watcher badge to view this.", "badges": [], "created_at": "2025-06-17T07:42:16.212-04:00", "updated_at": "2025-07-03T19:38:55.721-04:00", "avatar": "https://secure.gravatar.com/avatar/260a51ae51f290616fcb97e6b89ff2ca.jpg?s=512&d=https%3A%2F%2Fa.slack-edge.com%2Fdf10d%2Fimg%2Favatars%2Fava_0004-512.png", "custom_css": null}, {"id": 6140, "slack_id": "U0926G1EQN5", "display_name": "Galaxic dev", "bio": null, "projects_count": 4, "devlogs_count": 14, "votes_count": 20, "ships_count": 1, "projects": [{"id": 4477, "title": "J.A.W.I.E. - Intelligent AI Jarvis like assistant ", "devlogs_count": 3, "created_at": "2025-06-30T07:12:27.648-04:00"}, {"id": 5166, "title": "BattleBot", "devlogs_count": 5, "created_at": "2025-07-03T14:40:16.114-04:00"}, {"id": 7075, "title": "IoT Waterpit sensor", "devlogs_count": 1, "created_at": "2025-07-18T18:34:20.912-04:00"}, {"id": 12111, "title": "Restock", "devlogs_count": 5, "created_at": "2025-08-23T07:20:01.885-04:00"}], "coding_time_seconds": 258389, "coding_time_seconds_today": 0, "balance": "You need to have a pocket watcher badge to view this.", "badges": [{"name": "Maiden Voyage", "text": "you shipped your first project! the journey begins...", "icon": "\ud83d\udea2"}], "created_at": "2025-06-17T07:42:17.401-04:00", "updated_at": "2025-09-10T22:54:13.223-04:00", "avatar": "https://avatars.slack-edge.com/2025-06-17/9062358135764_e7b7a9e06f5060d46e84_original.png", "custom_css": null}], "pagination": {"page": 307, "pages": 1192, "count": 23828, "items": 20}}