{"users": [{"id": 6161, "slack_id": "U0926H3DC73", "display_name": "Mahfuz", "bio": null, "projects_count": 0, "devlogs_count": 0, "votes_count": 0, "ships_count": 0, "projects": [], "coding_time_seconds": 4614, "coding_time_seconds_today": 0, "balance": "You need to have a pocket watcher badge to view this.", "badges": [], "created_at": "2025-06-17T07:51:32.233-04:00", "updated_at": "2025-07-03T19:39:01.012-04:00", "avatar": "https://secure.gravatar.com/avatar/e33d4f08c5eccff0d81a1acb327f8f5d.jpg?s=512&d=https%3A%2F%2Fa.slack-edge.com%2Fdf10d%2Fimg%2Favatars%2Fava_0020-512.png", "custom_css": null}, {"id": 6162, "slack_id": "U0926H34B33", "display_name": "Eyal Yavor", "bio": null, "projects_count": 0, "devlogs_count": 0, "votes_count": 0, "ships_count": 0, "projects": [], "coding_time_seconds": 0, "coding_time_seconds_today": 0, "balance": "You need to have a pocket watcher badge to view this.", "badges": [], "created_at": "2025-06-17T07:51:52.170-04:00", "updated_at": "2025-07-03T19:39:01.281-04:00", "avatar": "https://secure.gravatar.com/avatar/925fe98e8e4a365900803a3773a20049.jpg?s=512&d=https%3A%2F%2Fa.slack-edge.com%2Fdf10d%2Fimg%2Favatars%2Fava_0009-512.png", "custom_css": null}, {"id": 6163, "slack_id": "U0926H7JHC1", "display_name": "Sanjeevan", "bio": null, "projects_count": 0, "devlogs_count": 17, "votes_count": 9, "ships_count": 0, "projects": [], "coding_time_seconds": 774482, "coding_time_seconds_today": 0, "balance": "You need to have a pocket watcher badge to view this.", "badges": [{"name": "Maiden Voyage", "text": "you shipped your first project! the journey begins...", "icon": "\ud83d\udea2"}], "created_at": "2025-06-17T07:52:02.566-04:00", "updated_at": "2025-09-10T22:54:14.010-04:00", "avatar": "https://secure.gravatar.com/avatar/4f5c0abc167b09a8b3c7c9a797f72cd4.jpg?s=512&d=https%3A%2F%2Fa.slack-edge.com%2Fdf10d%2Fimg%2Favatars%2Fava_0012-512.png", "custom_css": null}, {"id": 6164, "slack_id": "U091S87U553", "display_name": "Jordi", "bio": null, "projects_count": 0, "devlogs_count": 0, "votes_count": 0, "ships_count": 0, "projects": [], "coding_time_seconds": 0, "coding_time_seconds_today": 0, "balance": "You need to have a pocket watcher badge to view this.", "badges": [], "created_at": "2025-06-17T07:52:38.953-04:00", "updated_at": "2025-07-03T19:39:01.844-04:00", "avatar": "https://secure.gravatar.com/avatar/08a61ada7c08d0c556fcddb79aef0c27.jpg?s=512&d=https%3A%2F%2Fa.slack-edge.com%2Fdf10d%2Fimg%2Favatars%2Fava_0023-512.png", "custom_css": null}, {"id": 6165, "slack_id": "U091UBJ52RJ", "display_name": "Abdalrahman", "bio": null, "projects_count": 0, "devlogs_count": 0, "votes_count": 0, "ships_count": 0, "projects": [], "coding_time_seconds": 0, "coding_time_seconds_today": 0, "balance": "You need to have a pocket watcher badge to view this.", "badges": [], "created_at": "2025-06-17T07:53:50.163-04:00", "updated_at": "2025-07-04T08:21:31.228-04:00", "avatar": "https://secure.gravatar.com/avatar/7aafac429a00937eb56c7f2dfb1cea16.jpg?s=512&d=https%3A%2F%2Fa.slack-edge.com%2Fdf10d%2Fimg%2Favatars%2Fava_0014-512.png", "custom_css": null}, {"id": 6166, "slack_id": "U091CJF5H1D", "display_name": "blitzkrieg267", "bio": null, "projects_count": 0, "devlogs_count": 0, "votes_count": 0, "ships_count": 0, "projects": [], "coding_time_seconds": 0, "coding_time_seconds_today": 0, "balance": "You need to have a pocket watcher badge to view this.", "badges": [], "created_at": "2025-06-17T07:54:04.096-04:00", "updated_at": "2025-07-03T19:39:02.254-04:00", "avatar": "https://secure.gravatar.com/avatar/58f2ca557888c6d5bc1b11ca58bb924e.jpg?s=512&d=https%3A%2F%2Fa.slack-edge.com%2Fdf10d%2Fimg%2Favatars%2Fava_0018-512.png", "custom_css": null}, {"id": 6167, "slack_id": "U087BHR98AX", "display_name": "Sebastian Hernandez", "bio": null, "projects_count": 0, "devlogs_count": 0, "votes_count": 0, "ships_count": 0, "projects": [], "coding_time_seconds": 667925, "coding_time_seconds_today": 0, "balance": "You need to have a pocket watcher badge to view this.", "badges": [], "created_at": "2025-06-17T07:54:08.947-04:00", "updated_at": "2025-08-07T10:03:18.936-04:00", "avatar": "https://avatars.slack-edge.com/2025-01-05/8249689285922_fcf95cff78fae09833b8_original.png", "custom_css": null}, {"id": 6168, "slack_id": "U091CJQ6RAT", "display_name": "Sameer Kumar", "bio": null, "projects_count": 0, "devlogs_count": 0, "votes_count": 0, "ships_count": 0, "projects": [], "coding_time_seconds": 19235, "coding_time_seconds_today": 0, "balance": "You need to have a pocket watcher badge to view this.", "badges": [], "created_at": "2025-06-17T07:54:12.929-04:00", "updated_at": "2025-07-03T19:39:03.041-04:00", "avatar": "https://secure.gravatar.com/avatar/4e529ba8099f582f59e3fb7854589cc0.jpg?s=512&d=https%3A%2F%2Fa.slack-edge.com%2Fdf10d%2Fimg%2Favatars%2Fava_0002-512.png", "custom_css": null}, {"id": 6169, "slack_id": "U091UBDA7N0", "display_name": "Taha", "bio": null, "projects_count": 0, "devlogs_count": 0, "votes_count": 0, "ships_count": 0, "projects": [], "coding_time_seconds": 327555, "coding_time_seconds_today": 0, "balance": "You need to have a pocket watcher badge to view this.", "badges": [], "created_at": "2025-06-17T07:54:21.969-04:00", "updated_at": "2025-07-22T10:11:02.323-04:00", "avatar": "https://secure.gravatar.com/avatar/1eead39b155b59ef1f2e6a63cb25bfb6.jpg?s=512&d=https%3A%2F%2Fa.slack-edge.com%2Fdf10d%2Fimg%2Favatars%2Fava_0015-512.png", "custom_css": null}, {"id": 6170, "slack_id": "U0926HKD849", "display_name": "Yen Sauliak", "bio": null, "projects_count": 2, "devlogs_count": 2, "votes_count": 0, "ships_count": 2, "projects": [{"id": 3619, "title": "News-Digest", "devlogs_count": 1, "created_at": "2025-06-25T01:19:29.421-04:00"}, {"id": 4031, "title": "About Me Portfolio", "devlogs_count": 1, "created_at": "2025-06-27T01:22:04.896-04:00"}], "coding_time_seconds": 27663, "coding_time_seconds_today": 801, "balance": "You need to have a pocket watcher badge to view this.", "badges": [{"name": "Maiden Voyage", "text": "you shipped your first project! the journey begins...", "icon": "\ud83d\udea2"}], "created_at": "2025-06-17T07:54:49.644-04:00", "updated_at": "2025-09-10T22:54:14.180-04:00", "avatar": "https://secure.gravatar.com/avatar/e534d56ab46afedecf6e0b62aca0665d.jpg?s=512&d=https%3A%2F%2Fa.slack-edge.com%2Fdf10d%2Fimg%2Favatars%2Fava_0001-512.png", "custom_css": null}, {"id": 6171, "slack_id": "U091UB41V28", "display_name": "Shreyansh Jain", "bio": null, "projects_count": 0, "devlogs_count": 0, "votes_count": 0, "ships_count": 0, "projects": [], "coding_time_seconds": 431564, "coding_time_seconds_today": 1174, "balance": "You need to have a pocket watcher badge to view this.", "badges": [], "created_at": "2025-06-17T07:55:33.479-04:00", "updated_at": "2025-07-05T02:06:59.190-04:00", "avatar": "https://secure.gravatar.com/avatar/eb6229ec86c1cf9b6c0b8990379eeffd.jpg?s=512&d=https%3A%2F%2Fa.slack-edge.com%2Fdf10d%2Fimg%2Favatars%2Fava_0004-512.png", "custom_css": null}, {"id": 6172, "slack_id": "U0926HGMA3T", "display_name": "swift fishi (ido twick)", "bio": null, "projects_count": 0, "devlogs_count": 0, "votes_count": 0, "ships_count": 0, "projects": [], "coding_time_seconds": 14599, "coding_time_seconds_today": 0, "balance": "You need to have a pocket watcher badge to view this.", "badges": [], "created_at": "2025-06-17T07:55:51.068-04:00", "updated_at": "2025-07-03T19:39:04.483-04:00", "avatar": "https://avatars.slack-edge.com/2025-06-17/9062414758580_9029dcdf21d11f4d5c20_original.png", "custom_css": null}, {"id": 6173, "slack_id": "U091MBC26F8", "display_name": "Francesco Morandi", "bio": null, "projects_count": 0, "devlogs_count": 0, "votes_count": 0, "ships_count": 0, "projects": [], "coding_time_seconds": 42109, "coding_time_seconds_today": 0, "balance": "You need to have a pocket watcher badge to view this.", "badges": [], "created_at": "2025-06-17T07:55:59.936-04:00", "updated_at": "2025-07-03T21:43:50.204-04:00", "avatar": "https://secure.gravatar.com/avatar/a629d4abaffe2b26774c17f764a9b9f7.jpg?s=512&d=https%3A%2F%2Fa.slack-edge.com%2Fdf10d%2Fimg%2Favatars%2Fava_0025-512.png", "custom_css": null}, {"id": 6174, "slack_id": "U092GBJCWTS", "display_name": "Rohan", "bio": null, "projects_count": 0, "devlogs_count": 0, "votes_count": 0, "ships_count": 0, "projects": [], "coding_time_seconds": 186952, "coding_time_seconds_today": 1451, "balance": "You need to have a pocket watcher badge to view this.", "badges": [], "created_at": "2025-06-17T07:56:24.626-04:00", "updated_at": "2025-07-03T19:39:04.889-04:00", "avatar": "https://secure.gravatar.com/avatar/9c5a8b3a0309e076f3ed70a193c58c51.jpg?s=512&d=https%3A%2F%2Fa.slack-edge.com%2Fdf10d%2Fimg%2Favatars%2Fava_0005-512.png", "custom_css": null}, {"id": 6175, "slack_id": "U091TQ5S0KU", "display_name": "Dariton4000", "bio": null, "projects_count": 1, "devlogs_count": 0, "votes_count": 0, "ships_count": 0, "projects": [{"id": 860, "title": "Papervalidator3000", "devlogs_count": 0, "created_at": "2025-06-17T09:57:29.245-04:00"}], "coding_time_seconds": 74710, "coding_time_seconds_today": 0, "balance": "You need to have a pocket watcher badge to view this.", "badges": [], "created_at": "2025-06-17T07:56:59.854-04:00", "updated_at": "2025-07-03T19:39:05.157-04:00", "avatar": "https://secure.gravatar.com/avatar/0b9471cc8eeb8af823aedfa018e044f3.jpg?s=512&d=https%3A%2F%2Fa.slack-edge.com%2Fdf10d%2Fimg%2Favatars%2Fava_0019-512.png", "custom_css": null}, {"id": 6176, "slack_id": "U092GBUBR0Q", "display_name": "Gabriel Pereira", "bio": null, "projects_count": 0, "devlogs_count": 0, "votes_count": 0, "ships_count": 0, "projects": [], "coding_time_seconds": 0, "coding_time_seconds_today": 0, "balance": "You need to have a pocket watcher badge to view this.", "badges": [], "created_at": "2025-06-17T07:57:47.668-04:00", "updated_at": "2025-07-03T19:39:05.422-04:00", "avatar": "https://secure.gravatar.com/avatar/347b4178615529554fc23fb75d675f92.jpg?s=512&d=https%3A%2F%2Fa.slack-edge.com%2Fdf10d%2Fimg%2Favatars%2Fava_0018-512.png", "custom_css": null}, {"id": 6177, "slack_id": "U091S8WBUG5", "display_name": "Reeban Austrive", "bio": null, "projects_count": 0, "devlogs_count": 0, "votes_count": 0, "ships_count": 0, "projects": [], "coding_time_seconds": 28598, "coding_time_seconds_today": 0, "balance": "You need to have a pocket watcher badge to view this.", "badges": [], "created_at": "2025-06-17T07:58:18.827-04:00", "updated_at": "2025-07-03T19:39:05.686-04:00", "avatar": "https://avatars.slack-edge.com/2025-06-17/9046666457063_a5ba9509bd7c3f4c6b86_original.jpg", "custom_css": null}, {"id": 6178, "slack_id": "U091MB3R4BG", "display_name": "Cruz Kutney", "bio": null, "projects_count": 2, "devlogs_count": 1, "votes_count": 1, "ships_count": 0, "projects": [{"id": 4574, "title": "ChallengerPEAK - PEAK Game Mod", "devlogs_count": 1, "created_at": "2025-06-30T18:01:39.165-04:00"}, {"id": 4999, "title": "Gif Book", "devlogs_count": 0, "created_at": "2025-07-02T15:50:37.349-04:00"}], "coding_time_seconds": 71131, "coding_time_seconds_today": 0, "balance": "You need to have a pocket watcher badge to view this.", "badges": [], "created_at": "2025-06-17T07:59:04.408-04:00", "updated_at": "2025-07-04T08:21:32.208-04:00", "avatar": "https://secure.gravatar.com/avatar/e1363ecabc685c63fe093950b40f14be.jpg?s=512&d=https%3A%2F%2Fa.slack-edge.com%2Fdf10d%2Fimg%2Favatars%2Fava_0002-512.png", "custom_css": null}, {"id": 6179, "slack_id": "U092GBPGUSU", "display_name": "Favour", "bio": null, "projects_count": 0, "devlogs_count": 0, "votes_count": 0, "ships_count": 0, "projects": [], "coding_time_seconds": 0, "coding_time_seconds_today": 0, "balance": "You need to have a pocket watcher badge to view this.", "badges": [], "created_at": "2025-06-17T07:59:12.539-04:00", "updated_at": "2025-07-03T19:39:06.100-04:00", "avatar": "https://secure.gravatar.com/avatar/158c8b50a01c2f7dd0ca90378d50c02d.jpg?s=512&d=https%3A%2F%2Fa.slack-edge.com%2Fdf10d%2Fimg%2Favatars%2Fava_0026-512.png", "custom_css": null}, {"id": 6180, "slack_id": "U091UBV536G", "display_name": "Vaibhav Bansal", "bio": null, "projects_count": 0, "devlogs_count": 0, "votes_count": 0, "ships_count": 0, "projects": [], "coding_time_seconds": 0, "coding_time_seconds_today": 0, "balance": "You need to have a pocket watcher badge to view this.", "badges": [], "created_at": "2025-06-17T07:59:22.248-04:00", "updated_at": "2025-07-03T19:39:06.380-04:00", "avatar": "https://secure.gravatar.com/avatar/4a7225b11a3d5bf21ca2b161920c2db3.jpg?s=512&d=https%3A%2F%2Fa.slack-edge.com%2Fdf10d%2Fimg%2Favatars%2Fava_0015-512.png", "custom_css": null}], "pagination": {"page": 309, "pages": 1192, "count": 23828, "items": 20}}