{"users": [{"id": 601, "slack_id": "U092BJR5Q8G", "display_name": "MINCY YANG", "bio": null, "projects_count": 0, "devlogs_count": 0, "votes_count": 0, "ships_count": 0, "projects": [], "coding_time_seconds": 0, "coding_time_seconds_today": 0, "balance": "You need to have a pocket watcher badge to view this.", "badges": [], "created_at": "2025-06-16T12:01:43.115-04:00", "updated_at": "2025-07-03T19:13:44.444-04:00", "avatar": "https://avatars.slack-edge.com/2025-06-16/9069736779313_630c85b7d0cb3e4bb064_original.jpg", "custom_css": null}, {"id": 602, "slack_id": "U07AKJUQYSC", "display_name": "Ahnaf", "bio": "", "projects_count": 3, "devlogs_count": 7, "votes_count": 40, "ships_count": 2, "projects": [{"id": 12728, "title": "vCardAi", "devlogs_count": 3, "created_at": "2025-09-01T16:15:11.749-04:00"}, {"id": 12914, "title": "Clockrastinator", "devlogs_count": 2, "created_at": "2025-09-05T06:45:47.810-04:00"}, {"id": 7623, "title": "SkyPhase Real Time Flight Phase Detection via ADS-B Streams", "devlogs_count": 1, "created_at": "2025-07-22T10:22:39.553-04:00"}], "coding_time_seconds": 129188, "coding_time_seconds_today": 2346, "balance": "You need to have a pocket watcher badge to view this.", "badges": [{"name": "Maiden Voyage", "text": "you shipped your first project! the journey begins...", "icon": "\ud83d\udea2"}], "created_at": "2025-06-16T12:01:50.189-04:00", "updated_at": "2025-09-10T22:51:26.002-04:00", "avatar": "https://avatars.slack-edge.com/2025-06-19/9095508715648_e6b303cceb97abe7f1d8_original.png", "custom_css": null}, {"id": 603, "slack_id": "U091G8BNCTY", "display_name": "Satish Parmar", "bio": null, "projects_count": 0, "devlogs_count": 0, "votes_count": 0, "ships_count": 0, "projects": [], "coding_time_seconds": 0, "coding_time_seconds_today": 0, "balance": "You need to have a pocket watcher badge to view this.", "badges": [], "created_at": "2025-06-16T12:02:02.864-04:00", "updated_at": "2025-07-03T19:13:45.011-04:00", "avatar": "https://avatars.slack-edge.com/2025-06-16/9050299236198_52c8151fe94286ddc996_original.webp", "custom_css": null}, {"id": 604, "slack_id": "U07BPLR0YKV", "display_name": "Wrexik", "bio": null, "projects_count": 0, "devlogs_count": 0, "votes_count": 1, "ships_count": 0, "projects": [], "coding_time_seconds": 22531, "coding_time_seconds_today": 0, "balance": "You need to have a pocket watcher badge to view this.", "badges": [], "created_at": "2025-06-16T12:02:09.154-04:00", "updated_at": "2025-07-03T19:13:45.268-04:00", "avatar": "https://avatars.slack-edge.com/2025-05-23/8953903478945_e920459045159ab13eeb_original.jpg", "custom_css": null}, {"id": 605, "slack_id": "U0921LSMC8Z", "display_name": "aravamu.2", "bio": null, "projects_count": 0, "devlogs_count": 0, "votes_count": 0, "ships_count": 0, "projects": [], "coding_time_seconds": 0, "coding_time_seconds_today": 0, "balance": "You need to have a pocket watcher badge to view this.", "badges": [], "created_at": "2025-06-16T12:02:16.541-04:00", "updated_at": "2025-07-03T19:13:45.538-04:00", "avatar": "https://secure.gravatar.com/avatar/3d26d95f263069ea0cec2941a8ad41f3.jpg?s=512&d=https%3A%2F%2Fa.slack-edge.com%2Fdf10d%2Fimg%2Favatars%2Fava_0005-512.png", "custom_css": null}, {"id": 606, "slack_id": "U091G4A3BPD", "display_name": "Jack Jorgensen", "bio": null, "projects_count": 0, "devlogs_count": 0, "votes_count": 0, "ships_count": 0, "projects": [], "coding_time_seconds": 76509, "coding_time_seconds_today": 0, "balance": "You need to have a pocket watcher badge to view this.", "badges": [], "created_at": "2025-06-16T12:02:26.855-04:00", "updated_at": "2025-07-03T19:13:45.815-04:00", "avatar": "https://secure.gravatar.com/avatar/b408f054c463dbecda50e86551997dde.jpg?s=512&d=https%3A%2F%2Fa.slack-edge.com%2Fdf10d%2Fimg%2Favatars%2Fava_0017-512.png", "custom_css": null}, {"id": 607, "slack_id": "U087NBRA916", "display_name": "Pawe\u0142", "bio": null, "projects_count": 0, "devlogs_count": 0, "votes_count": 0, "ships_count": 0, "projects": [], "coding_time_seconds": 1740, "coding_time_seconds_today": 0, "balance": "You need to have a pocket watcher badge to view this.", "badges": [], "created_at": "2025-06-16T12:02:33.443-04:00", "updated_at": "2025-08-07T07:48:54.502-04:00", "avatar": "https://secure.gravatar.com/avatar/a569f6cf35be36d709ff281726f7e081.jpg?s=512&d=https%3A%2F%2Fa.slack-edge.com%2Fdf10d%2Fimg%2Favatars%2Fava_0011-512.png", "custom_css": null}, {"id": 608, "slack_id": "U091G5ECVPD", "display_name": "Jonas Winkelmann", "bio": null, "projects_count": 0, "devlogs_count": 0, "votes_count": 0, "ships_count": 0, "projects": [], "coding_time_seconds": 8, "coding_time_seconds_today": 0, "balance": "You need to have a pocket watcher badge to view this.", "badges": [], "created_at": "2025-06-16T12:02:34.302-04:00", "updated_at": "2025-07-03T19:13:46.384-04:00", "avatar": "https://secure.gravatar.com/avatar/d94ac04c16b94a05829a66e22aa8a209.jpg?s=512&d=https%3A%2F%2Fa.slack-edge.com%2Fdf10d%2Fimg%2Favatars%2Fava_0017-512.png", "custom_css": null}, {"id": 609, "slack_id": "U091G5CHGRZ", "display_name": "Ranjan Shettigar", "bio": null, "projects_count": 0, "devlogs_count": 0, "votes_count": 0, "ships_count": 0, "projects": [], "coding_time_seconds": 0, "coding_time_seconds_today": 0, "balance": "You need to have a pocket watcher badge to view this.", "badges": [], "created_at": "2025-06-16T12:02:34.403-04:00", "updated_at": "2025-07-03T19:13:46.647-04:00", "avatar": "https://secure.gravatar.com/avatar/fc9f698ab521ffe4ffc6bd8a75676e19.jpg?s=512&d=https%3A%2F%2Fa.slack-edge.com%2Fdf10d%2Fimg%2Favatars%2Fava_0019-512.png", "custom_css": null}, {"id": 610, "slack_id": "U091P4HTBMY", "display_name": "Valeria", "bio": null, "projects_count": 0, "devlogs_count": 0, "votes_count": 0, "ships_count": 0, "projects": [], "coding_time_seconds": 0, "coding_time_seconds_today": 0, "balance": "You need to have a pocket watcher badge to view this.", "badges": [], "created_at": "2025-06-16T12:02:44.596-04:00", "updated_at": "2025-07-03T19:13:46.915-04:00", "avatar": "https://secure.gravatar.com/avatar/6c5fd686d41b8b4182dfb8116070b15f.jpg?s=512&d=https%3A%2F%2Fa.slack-edge.com%2Fdf10d%2Fimg%2Favatars%2Fava_0001-512.png", "custom_css": null}, {"id": 611, "slack_id": "U0917P50A6B", "display_name": "Ronak", "bio": null, "projects_count": 0, "devlogs_count": 0, "votes_count": 0, "ships_count": 0, "projects": [], "coding_time_seconds": 8930, "coding_time_seconds_today": 0, "balance": "You need to have a pocket watcher badge to view this.", "badges": [], "created_at": "2025-06-16T12:02:51.500-04:00", "updated_at": "2025-07-04T23:35:30.654-04:00", "avatar": "https://secure.gravatar.com/avatar/67f4b028d03d0b50662d834ba0738752.jpg?s=512&d=https%3A%2F%2Fa.slack-edge.com%2Fdf10d%2Fimg%2Favatars%2Fava_0009-512.png", "custom_css": null}, {"id": 612, "slack_id": "U091PHCU9GU", "display_name": "Rishabh Arya", "bio": null, "projects_count": 0, "devlogs_count": 0, "votes_count": 0, "ships_count": 0, "projects": [], "coding_time_seconds": 0, "coding_time_seconds_today": 0, "balance": "You need to have a pocket watcher badge to view this.", "badges": [], "created_at": "2025-06-16T12:02:58.181-04:00", "updated_at": "2025-07-03T19:13:47.540-04:00", "avatar": "https://avatars.slack-edge.com/2025-06-16/9079653770128_608fb6262d3725503770_original.png", "custom_css": null}, {"id": 613, "slack_id": "U08D33TTR4P", "display_name": "Mohamed Assem", "bio": null, "projects_count": 6, "devlogs_count": 32, "votes_count": 60, "ships_count": 5, "projects": [{"id": 12711, "title": "gamaing website", "devlogs_count": 1, "created_at": "2025-09-01T09:03:55.749-04:00"}, {"id": 12791, "title": "Netflix clone", "devlogs_count": 2, "created_at": "2025-09-02T13:43:17.262-04:00"}, {"id": 12796, "title": "Plant PAL", "devlogs_count": 1, "created_at": "2025-09-02T16:47:58.453-04:00"}, {"id": 5321, "title": "ECO-GREEN", "devlogs_count": 2, "created_at": "2025-07-04T12:28:36.910-04:00"}, {"id": 4721, "title": "alien_museum", "devlogs_count": 2, "created_at": "2025-07-01T08:28:45.304-04:00"}, {"id": 6069, "title": "Twist", "devlogs_count": 5, "created_at": "2025-07-10T11:11:17.808-04:00"}], "coding_time_seconds": 341303, "coding_time_seconds_today": 0, "balance": "You need to have a pocket watcher badge to view this.", "badges": [{"name": "Maiden Voyage", "text": "you shipped your first project! the journey begins...", "icon": "\ud83d\udea2"}, {"name": "Ballot Stuffer", "text": "vote 100 times.", "icon": "https://summer.hackclub.com/assets/i_voted-bf851b48.png"}], "created_at": "2025-06-16T12:03:04.158-04:00", "updated_at": "2025-09-20T06:01:11.675-04:00", "avatar": "https://avatars.slack-edge.com/2025-09-20/9537737502663_973cf6fa664bdc3060e2_original.jpg", "custom_css": null}, {"id": 614, "slack_id": "U0917G65WH5", "display_name": "iman", "bio": null, "projects_count": 1, "devlogs_count": 0, "votes_count": 0, "ships_count": 0, "projects": [{"id": 113, "title": "Portfolio", "devlogs_count": 0, "created_at": "2025-06-16T13:56:59.293-04:00"}], "coding_time_seconds": 544, "coding_time_seconds_today": 0, "balance": "You need to have a pocket watcher badge to view this.", "badges": [], "created_at": "2025-06-16T12:03:17.819-04:00", "updated_at": "2025-07-03T19:13:48.093-04:00", "avatar": "https://secure.gravatar.com/avatar/a5e2276fd86b35ace7425297f0706b3f.jpg?s=512&d=https%3A%2F%2Fa.slack-edge.com%2Fdf10d%2Fimg%2Favatars%2Fava_0000-512.png", "custom_css": null}, {"id": 615, "slack_id": "U091PHP2CP6", "display_name": "Alexander", "bio": null, "projects_count": 0, "devlogs_count": 0, "votes_count": 0, "ships_count": 0, "projects": [], "coding_time_seconds": 1292, "coding_time_seconds_today": 0, "balance": "You need to have a pocket watcher badge to view this.", "badges": [], "created_at": "2025-06-16T12:03:35.124-04:00", "updated_at": "2025-07-03T19:13:48.360-04:00", "avatar": "https://secure.gravatar.com/avatar/7724dfde1234ea7d1f7711c4852a059a.jpg?s=512&d=https%3A%2F%2Fa.slack-edge.com%2Fdf10d%2Fimg%2Favatars%2Fava_0004-512.png", "custom_css": null}, {"id": 616, "slack_id": "U091G8PTWQ6", "display_name": "basuru", "bio": null, "projects_count": 0, "devlogs_count": 0, "votes_count": 0, "ships_count": 0, "projects": [], "coding_time_seconds": 0, "coding_time_seconds_today": 0, "balance": "You need to have a pocket watcher badge to view this.", "badges": [], "created_at": "2025-06-16T12:03:44.244-04:00", "updated_at": "2025-07-03T19:13:48.646-04:00", "avatar": "https://secure.gravatar.com/avatar/2b8b45ac329e62f3fb4f0e1c4fc31d19.jpg?s=512&d=https%3A%2F%2Fa.slack-edge.com%2Fdf10d%2Fimg%2Favatars%2Fava_0015-512.png", "custom_css": null}, {"id": 617, "slack_id": "U092BJXEBR6", "display_name": "aishuJL", "bio": null, "projects_count": 0, "devlogs_count": 0, "votes_count": 0, "ships_count": 0, "projects": [], "coding_time_seconds": 0, "coding_time_seconds_today": 0, "balance": "You need to have a pocket watcher badge to view this.", "badges": [], "created_at": "2025-06-16T12:03:44.649-04:00", "updated_at": "2025-07-03T19:13:48.919-04:00", "avatar": "https://secure.gravatar.com/avatar/de7aa5ebef2886070d6de63321edd47a.jpg?s=512&d=https%3A%2F%2Fa.slack-edge.com%2Fdf10d%2Fimg%2Favatars%2Fava_0020-512.png", "custom_css": null}, {"id": 618, "slack_id": "U092BJX4EP2", "display_name": "Riflender", "bio": null, "projects_count": 0, "devlogs_count": 0, "votes_count": 0, "ships_count": 0, "projects": [], "coding_time_seconds": 0, "coding_time_seconds_today": 0, "balance": "You need to have a pocket watcher badge to view this.", "badges": [], "created_at": "2025-06-16T12:03:46.820-04:00", "updated_at": "2025-07-03T19:13:49.190-04:00", "avatar": "https://secure.gravatar.com/avatar/520c56a33f86337eb66dbaf0597be314.jpg?s=512&d=https%3A%2F%2Fa.slack-edge.com%2Fdf10d%2Fimg%2Favatars%2Fava_0016-512.png", "custom_css": null}, {"id": 619, "slack_id": "U091PHMRC9J", "display_name": "Tanavdeep singh", "bio": null, "projects_count": 0, "devlogs_count": 0, "votes_count": 0, "ships_count": 0, "projects": [], "coding_time_seconds": 0, "coding_time_seconds_today": 0, "balance": "You need to have a pocket watcher badge to view this.", "badges": [], "created_at": "2025-06-16T12:03:53.733-04:00", "updated_at": "2025-07-03T19:13:49.460-04:00", "avatar": "https://secure.gravatar.com/avatar/8e55e8a900b39b8bb2308f995de37486.jpg?s=512&d=https%3A%2F%2Fa.slack-edge.com%2Fdf10d%2Fimg%2Favatars%2Fava_0025-512.png", "custom_css": null}, {"id": 620, "slack_id": "U08PAH4GBHC", "display_name": "Croxs", "bio": null, "projects_count": 0, "devlogs_count": 0, "votes_count": 0, "ships_count": 0, "projects": [], "coding_time_seconds": 0, "coding_time_seconds_today": 0, "balance": "You need to have a pocket watcher badge to view this.", "badges": [], "created_at": "2025-06-16T12:03:59.993-04:00", "updated_at": "2025-07-03T19:13:49.755-04:00", "avatar": "https://secure.gravatar.com/avatar/17dba62d69a913f0b14ab277cd57f570.jpg?s=512&d=https%3A%2F%2Fa.slack-edge.com%2Fdf10d%2Fimg%2Favatars%2Fava_0011-512.png", "custom_css": null}], "pagination": {"page": 31, "pages": 1192, "count": 23827, "items": 20}}