{"users": [{"id": 6181, "slack_id": "U0926J3NCQ1", "display_name": "TJ", "bio": null, "projects_count": 0, "devlogs_count": 0, "votes_count": 0, "ships_count": 0, "projects": [], "coding_time_seconds": 21679, "coding_time_seconds_today": 0, "balance": "You need to have a pocket watcher badge to view this.", "badges": [], "created_at": "2025-06-17T07:59:52.529-04:00", "updated_at": "2025-07-03T19:39:06.646-04:00", "avatar": "https://secure.gravatar.com/avatar/d5ef28e566f80cb82b6500a195c3d040.jpg?s=512&d=https%3A%2F%2Fa.slack-edge.com%2Fdf10d%2Fimg%2Favatars%2Fava_0011-512.png", "custom_css": null}, {"id": 6182, "slack_id": "U091S958DSR", "display_name": "fragi0", "bio": null, "projects_count": 1, "devlogs_count": 0, "votes_count": 0, "ships_count": 0, "projects": [{"id": 1923, "title": "ToDoApp", "devlogs_count": 0, "created_at": "2025-06-19T16:15:43.757-04:00"}], "coding_time_seconds": 14755, "coding_time_seconds_today": 0, "balance": "You need to have a pocket watcher badge to view this.", "badges": [], "created_at": "2025-06-17T08:00:42.016-04:00", "updated_at": "2025-07-03T19:39:06.928-04:00", "avatar": "https://secure.gravatar.com/avatar/f6d7addc4d87a37fa1dd74bfef0aca4b.jpg?s=512&d=https%3A%2F%2Fa.slack-edge.com%2Fdf10d%2Fimg%2Favatars%2Fava_0006-512.png", "custom_css": null}, {"id": 6183, "slack_id": "U091MBXJK1U", "display_name": "shreyashree", "bio": null, "projects_count": 0, "devlogs_count": 0, "votes_count": 0, "ships_count": 0, "projects": [], "coding_time_seconds": 0, "coding_time_seconds_today": 0, "balance": "You need to have a pocket watcher badge to view this.", "badges": [], "created_at": "2025-06-17T08:00:54.139-04:00", "updated_at": "2025-07-03T19:39:07.196-04:00", "avatar": "https://secure.gravatar.com/avatar/4757761102d149b1b64815ae1f0ba36b.jpg?s=512&d=https%3A%2F%2Fa.slack-edge.com%2Fdf10d%2Fimg%2Favatars%2Fava_0018-512.png", "custom_css": null}, {"id": 6184, "slack_id": "U091MC5PYR4", "display_name": "namily", "bio": null, "projects_count": 0, "devlogs_count": 0, "votes_count": 0, "ships_count": 0, "projects": [], "coding_time_seconds": 0, "coding_time_seconds_today": 0, "balance": "You need to have a pocket watcher badge to view this.", "badges": [], "created_at": "2025-06-17T08:01:28.767-04:00", "updated_at": "2025-07-03T19:39:07.460-04:00", "avatar": "https://secure.gravatar.com/avatar/5063577407211c2be0ca759b3b8a10f5.jpg?s=512&d=https%3A%2F%2Fa.slack-edge.com%2Fdf10d%2Fimg%2Favatars%2Fava_0021-512.png", "custom_css": null}, {"id": 6185, "slack_id": "U08AC8E2YHX", "display_name": "Moksh Somayajula", "bio": null, "projects_count": 0, "devlogs_count": 0, "votes_count": 0, "ships_count": 0, "projects": [], "coding_time_seconds": 37509, "coding_time_seconds_today": 0, "balance": "You need to have a pocket watcher badge to view this.", "badges": [], "created_at": "2025-06-17T08:01:43.502-04:00", "updated_at": "2025-09-09T13:56:21.744-04:00", "avatar": "https://secure.gravatar.com/avatar/b5af1ef774540d9f21427c7c38f5685e.jpg?s=512&d=https%3A%2F%2Fa.slack-edge.com%2Fdf10d%2Fimg%2Favatars%2Fava_0007-512.png", "custom_css": null}, {"id": 6186, "slack_id": "U076HMG1E2W", "display_name": "Konstantinos Fragkoulis", "bio": null, "projects_count": 5, "devlogs_count": 20, "votes_count": 58, "ships_count": 3, "projects": [{"id": 2060, "title": "Cookie Killer", "devlogs_count": 1, "created_at": "2025-06-20T03:03:57.464-04:00"}, {"id": 4703, "title": "Reaction Time", "devlogs_count": 1, "created_at": "2025-07-01T06:32:45.188-04:00"}, {"id": 12957, "title": "CarThing", "devlogs_count": 2, "created_at": "2025-09-06T05:52:00.388-04:00"}, {"id": 1353, "title": "Breaking News", "devlogs_count": 11, "created_at": "2025-06-18T11:13:29.494-04:00"}, {"id": 5615, "title": "Logic Simulator", "devlogs_count": 5, "created_at": "2025-07-06T15:11:20.332-04:00"}], "coding_time_seconds": 248537, "coding_time_seconds_today": 0, "balance": "You need to have a pocket watcher badge to view this.", "badges": [{"name": "Maiden Voyage", "text": "you shipped your first project! the journey begins...", "icon": "\ud83d\udea2"}], "created_at": "2025-06-17T08:01:51.115-04:00", "updated_at": "2025-09-10T22:54:14.629-04:00", "avatar": "https://secure.gravatar.com/avatar/c2e358d7bf4677cac086556035ce1dbc.jpg?s=512&d=https%3A%2F%2Fa.slack-edge.com%2Fdf10d%2Fimg%2Favatars%2Fava_0011-512.png", "custom_css": null}, {"id": 6187, "slack_id": "U092GCLHBQQ", "display_name": "mirali", "bio": null, "projects_count": 1, "devlogs_count": 0, "votes_count": 0, "ships_count": 0, "projects": [{"id": 790, "title": "portfolio", "devlogs_count": 0, "created_at": "2025-06-17T08:20:38.972-04:00"}], "coding_time_seconds": 55989, "coding_time_seconds_today": 4117, "balance": "You need to have a pocket watcher badge to view this.", "badges": [], "created_at": "2025-06-17T08:01:56.999-04:00", "updated_at": "2025-08-09T09:54:05.360-04:00", "avatar": "https://secure.gravatar.com/avatar/01e1301adbb8aeea2a0018fae2ee3db8.jpg?s=512&d=https%3A%2F%2Fa.slack-edge.com%2Fdf10d%2Fimg%2Favatars%2Fava_0025-512.png", "custom_css": null}, {"id": 6188, "slack_id": "U091MCKSM1U", "display_name": "Linda", "bio": null, "projects_count": 0, "devlogs_count": 0, "votes_count": 0, "ships_count": 0, "projects": [], "coding_time_seconds": 0, "coding_time_seconds_today": 0, "balance": "You need to have a pocket watcher badge to view this.", "badges": [], "created_at": "2025-06-17T08:02:40.177-04:00", "updated_at": "2025-07-03T19:39:08.307-04:00", "avatar": "https://secure.gravatar.com/avatar/e0f21873d9839d633499407efcbb22b4.jpg?s=512&d=https%3A%2F%2Fa.slack-edge.com%2Fdf10d%2Fimg%2Favatars%2Fava_0022-512.png", "custom_css": null}, {"id": 6189, "slack_id": "U07UGADMVUJ", "display_name": "Ziki", "bio": null, "projects_count": 0, "devlogs_count": 0, "votes_count": 0, "ships_count": 0, "projects": [], "coding_time_seconds": 63500, "coding_time_seconds_today": 0, "balance": "You need to have a pocket watcher badge to view this.", "badges": [], "created_at": "2025-06-17T08:02:48.507-04:00", "updated_at": "2025-07-03T21:43:51.303-04:00", "avatar": "https://avatars.slack-edge.com/2025-04-04/8705253978901_63ca6a5243b1d35e0eb5_original.jpg", "custom_css": null}, {"id": 6190, "slack_id": "U091S9NPM7F", "display_name": "Tak-min", "bio": null, "projects_count": 0, "devlogs_count": 47, "votes_count": 79, "ships_count": 0, "projects": [], "coding_time_seconds": 1623867, "coding_time_seconds_today": 0, "balance": "You need to have a pocket watcher badge to view this.", "badges": [{"name": "Maiden Voyage", "text": "you shipped your first project! the journey begins...", "icon": "\ud83d\udea2"}, {"name": "Yapper I", "text": "Posted 10 comments on devlogs.", "icon": "\ud83d\udcac"}], "created_at": "2025-06-17T08:02:49.007-04:00", "updated_at": "2025-09-10T22:54:14.741-04:00", "avatar": "https://avatars.slack-edge.com/2025-08-12/9342903651204_b9357143754c2d9f17c3_original.jpg", "custom_css": null}, {"id": 6191, "slack_id": "U091U1C7EFL", "display_name": "Sonny Taylor", "bio": null, "projects_count": 2, "devlogs_count": 15, "votes_count": 4, "ships_count": 1, "projects": [{"id": 1598, "title": "AutoService", "devlogs_count": 15, "created_at": "2025-06-18T20:44:56.820-04:00"}, {"id": 12814, "title": "PyCompass", "devlogs_count": 0, "created_at": "2025-09-03T05:15:11.865-04:00"}], "coding_time_seconds": 237835, "coding_time_seconds_today": 2397, "balance": "You need to have a pocket watcher badge to view this.", "badges": [{"name": "Maiden Voyage", "text": "you shipped your first project! the journey begins...", "icon": "\ud83d\udea2"}], "created_at": "2025-06-17T08:02:54.247-04:00", "updated_at": "2025-09-20T09:01:17.099-04:00", "avatar": "https://avatars.slack-edge.com/2025-06-17/9074653591425_dd48171520531ac8858e_original.jpg", "custom_css": null}, {"id": 6192, "slack_id": "U08K5J7V9QR", "display_name": "tubi", "bio": null, "projects_count": 0, "devlogs_count": 0, "votes_count": 0, "ships_count": 0, "projects": [], "coding_time_seconds": 71782, "coding_time_seconds_today": 0, "balance": "You need to have a pocket watcher badge to view this.", "badges": [], "created_at": "2025-06-17T08:03:04.509-04:00", "updated_at": "2025-09-18T11:03:50.271-04:00", "avatar": "https://secure.gravatar.com/avatar/0a0df6bc4ecd0ece95604af9772474c0.jpg?s=512&d=https%3A%2F%2Fa.slack-edge.com%2Fdf10d%2Fimg%2Favatars%2Fava_0000-512.png", "custom_css": null}, {"id": 6193, "slack_id": "U092GC909DW", "display_name": "ryu", "bio": null, "projects_count": 1, "devlogs_count": 1, "votes_count": 0, "ships_count": 0, "projects": [{"id": 788, "title": "Yoru", "devlogs_count": 1, "created_at": "2025-06-17T08:19:25.065-04:00"}], "coding_time_seconds": 3493, "coding_time_seconds_today": 0, "balance": "You need to have a pocket watcher badge to view this.", "badges": [], "created_at": "2025-06-17T08:03:13.062-04:00", "updated_at": "2025-07-03T19:39:09.382-04:00", "avatar": "https://avatars.slack-edge.com/2025-06-17/9062254695474_e1ab22a282eccb4ae413_original.jpg", "custom_css": null}, {"id": 6194, "slack_id": "U0926JVJ8QH", "display_name": "Tabish Shah Mohsin", "bio": null, "projects_count": 1, "devlogs_count": 0, "votes_count": 0, "ships_count": 0, "projects": [{"id": 793, "title": "Tile mapper", "devlogs_count": 0, "created_at": "2025-06-17T08:23:07.173-04:00"}], "coding_time_seconds": 457070, "coding_time_seconds_today": 0, "balance": "You need to have a pocket watcher badge to view this.", "badges": [], "created_at": "2025-06-17T08:03:58.937-04:00", "updated_at": "2025-07-03T19:39:09.659-04:00", "avatar": "https://avatars.slack-edge.com/2025-06-17/9055294581331_d94b4e63bf56112f7200_original.jpg", "custom_css": null}, {"id": 6195, "slack_id": "U091S8YPYAH", "display_name": "KwinCube", "bio": null, "projects_count": 0, "devlogs_count": 0, "votes_count": 0, "ships_count": 0, "projects": [], "coding_time_seconds": 129, "coding_time_seconds_today": 0, "balance": "You need to have a pocket watcher badge to view this.", "badges": [], "created_at": "2025-06-17T08:04:13.066-04:00", "updated_at": "2025-07-04T12:26:12.245-04:00", "avatar": "https://secure.gravatar.com/avatar/afcb7ab3d5982e680e7ac1a731a0f86c.jpg?s=512&d=https%3A%2F%2Fa.slack-edge.com%2Fdf10d%2Fimg%2Favatars%2Fava_0010-512.png", "custom_css": null}, {"id": 6196, "slack_id": "U092GCUB0SU", "display_name": "nameIess", "bio": null, "projects_count": 0, "devlogs_count": 0, "votes_count": 0, "ships_count": 0, "projects": [], "coding_time_seconds": 0, "coding_time_seconds_today": 0, "balance": "You need to have a pocket watcher badge to view this.", "badges": [], "created_at": "2025-06-17T08:04:31.167-04:00", "updated_at": "2025-07-03T19:39:10.186-04:00", "avatar": "https://secure.gravatar.com/avatar/e7b513c18ed7e312bc31816e2f8661b2.jpg?s=512&d=https%3A%2F%2Fa.slack-edge.com%2Fdf10d%2Fimg%2Favatars%2Fava_0017-512.png", "custom_css": null}, {"id": 6197, "slack_id": "U092GD1PLPJ", "display_name": "O\u011fuzhan", "bio": null, "projects_count": 0, "devlogs_count": 0, "votes_count": 0, "ships_count": 0, "projects": [], "coding_time_seconds": 0, "coding_time_seconds_today": 0, "balance": "You need to have a pocket watcher badge to view this.", "badges": [], "created_at": "2025-06-17T08:05:05.075-04:00", "updated_at": "2025-07-03T19:39:10.445-04:00", "avatar": "https://secure.gravatar.com/avatar/0e837c652acd43fe4554751a306365d4.jpg?s=512&d=https%3A%2F%2Fa.slack-edge.com%2Fdf10d%2Fimg%2Favatars%2Fava_0009-512.png", "custom_css": null}, {"id": 6198, "slack_id": "U091CL42M5M", "display_name": "atomkapa", "bio": null, "projects_count": 0, "devlogs_count": 0, "votes_count": 0, "ships_count": 0, "projects": [], "coding_time_seconds": 0, "coding_time_seconds_today": 0, "balance": "You need to have a pocket watcher badge to view this.", "badges": [], "created_at": "2025-06-17T08:05:12.320-04:00", "updated_at": "2025-07-03T19:39:10.705-04:00", "avatar": "https://secure.gravatar.com/avatar/34da2e1cfeda66d834e10c51e98daf06.jpg?s=512&d=https%3A%2F%2Fa.slack-edge.com%2Fdf10d%2Fimg%2Favatars%2Fava_0010-512.png", "custom_css": null}, {"id": 6199, "slack_id": "U091RNPAJP4", "display_name": "Maria Fernanda Costa", "bio": null, "projects_count": 1, "devlogs_count": 0, "votes_count": 0, "ships_count": 0, "projects": [{"id": 822, "title": "Model Hospital", "devlogs_count": 0, "created_at": "2025-06-17T09:09:55.161-04:00"}], "coding_time_seconds": 368, "coding_time_seconds_today": 0, "balance": "You need to have a pocket watcher badge to view this.", "badges": [], "created_at": "2025-06-17T08:05:24.471-04:00", "updated_at": "2025-07-03T19:39:10.969-04:00", "avatar": "https://secure.gravatar.com/avatar/63e7a5bb27ae768d0ce6a31858217b26.jpg?s=512&d=https%3A%2F%2Fa.slack-edge.com%2Fdf10d%2Fimg%2Favatars%2Fava_0010-512.png", "custom_css": null}, {"id": 6200, "slack_id": "U091M88S61H", "display_name": "devanshi", "bio": null, "projects_count": 0, "devlogs_count": 0, "votes_count": 0, "ships_count": 0, "projects": [], "coding_time_seconds": 0, "coding_time_seconds_today": 0, "balance": "You need to have a pocket watcher badge to view this.", "badges": [], "created_at": "2025-06-17T08:05:44.469-04:00", "updated_at": "2025-07-03T22:34:22.073-04:00", "avatar": "https://secure.gravatar.com/avatar/a103a5d0625b2e71673f3e8886e245ac.jpg?s=512&d=https%3A%2F%2Fa.slack-edge.com%2Fdf10d%2Fimg%2Favatars%2Fava_0023-512.png", "custom_css": null}], "pagination": {"page": 310, "pages": 1192, "count": 23828, "items": 20}}