{"users": [{"id": 6221, "slack_id": "U091ME0GWMU", "display_name": "Belbakhouche Akram", "bio": null, "projects_count": 0, "devlogs_count": 0, "votes_count": 0, "ships_count": 0, "projects": [], "coding_time_seconds": 0, "coding_time_seconds_today": 0, "balance": "You need to have a pocket watcher badge to view this.", "badges": [], "created_at": "2025-06-17T08:12:20.347-04:00", "updated_at": "2025-07-03T22:34:23.455-04:00", "avatar": "https://secure.gravatar.com/avatar/21c51de74fe01e6e75abe66eefcd34c8.jpg?s=512&d=https%3A%2F%2Fa.slack-edge.com%2Fdf10d%2Fimg%2Favatars%2Fava_0020-512.png", "custom_css": null}, {"id": 6222, "slack_id": "U091CMAGMFZ", "display_name": "Mohammed Abdullah (Student) Hamadi", "bio": null, "projects_count": 0, "devlogs_count": 0, "votes_count": 0, "ships_count": 0, "projects": [], "coding_time_seconds": 0, "coding_time_seconds_today": 0, "balance": "You need to have a pocket watcher badge to view this.", "badges": [], "created_at": "2025-06-17T08:12:26.380-04:00", "updated_at": "2025-07-03T19:39:16.313-04:00", "avatar": "https://avatars.slack-edge.com/2025-06-17/9074698278273_676ea2dae7431dc2d278_original.jpg", "custom_css": null}, {"id": 6223, "slack_id": "U091M9D20SF", "display_name": "Azmi Alsarayrah", "bio": null, "projects_count": 0, "devlogs_count": 0, "votes_count": 0, "ships_count": 0, "projects": [], "coding_time_seconds": 0, "coding_time_seconds_today": 0, "balance": "You need to have a pocket watcher badge to view this.", "badges": [], "created_at": "2025-06-17T08:13:06.501-04:00", "updated_at": "2025-07-03T19:39:16.574-04:00", "avatar": "https://avatars.slack-edge.com/2025-06-17/9060394732645_3e9e218242d6ec2ac326_original.jpg", "custom_css": null}, {"id": 6224, "slack_id": "U091M9DK8N7", "display_name": "Hiruna Gayashan", "bio": null, "projects_count": 0, "devlogs_count": 0, "votes_count": 0, "ships_count": 0, "projects": [], "coding_time_seconds": 18491, "coding_time_seconds_today": 0, "balance": "You need to have a pocket watcher badge to view this.", "badges": [], "created_at": "2025-06-17T08:13:24.146-04:00", "updated_at": "2025-07-03T19:39:16.853-04:00", "avatar": "https://avatars.slack-edge.com/2025-06-17/9055337780531_701de99016a0eaf6b90c_original.png", "custom_css": null}, {"id": 6225, "slack_id": "U091U1G2XJ6", "display_name": "marcos", "bio": null, "projects_count": 0, "devlogs_count": 0, "votes_count": 0, "ships_count": 0, "projects": [], "coding_time_seconds": 0, "coding_time_seconds_today": 0, "balance": "You need to have a pocket watcher badge to view this.", "badges": [], "created_at": "2025-06-17T08:13:26.733-04:00", "updated_at": "2025-07-03T19:39:17.126-04:00", "avatar": "https://secure.gravatar.com/avatar/7756e3093ddfbf25fc39626d5fd5ebd6.jpg?s=512&d=https%3A%2F%2Fa.slack-edge.com%2Fdf10d%2Fimg%2Favatars%2Fava_0015-512.png", "custom_css": null}, {"id": 6226, "slack_id": "U090HJAGKT7", "display_name": "Khoa", "bio": null, "projects_count": 1, "devlogs_count": 1, "votes_count": 3, "ships_count": 1, "projects": [{"id": 4362, "title": "Notekeeper Pro", "devlogs_count": 1, "created_at": "2025-06-29T10:38:13.239-04:00"}], "coding_time_seconds": 15405, "coding_time_seconds_today": 0, "balance": "You need to have a pocket watcher badge to view this.", "badges": [{"name": "Maiden Voyage", "text": "you shipped your first project! the journey begins...", "icon": "\ud83d\udea2"}], "created_at": "2025-06-17T08:13:50.268-04:00", "updated_at": "2025-09-10T22:54:15.888-04:00", "avatar": "https://secure.gravatar.com/avatar/1d16b00da26ba03b7b6a06145cb75cf0.jpg?s=512&d=https%3A%2F%2Fa.slack-edge.com%2Fdf10d%2Fimg%2Favatars%2Fava_0003-512.png", "custom_css": null}, {"id": 6227, "slack_id": "U091UEA7E2G", "display_name": "Faizan Masroor", "bio": null, "projects_count": 0, "devlogs_count": 0, "votes_count": 0, "ships_count": 0, "projects": [], "coding_time_seconds": 240, "coding_time_seconds_today": 0, "balance": "You need to have a pocket watcher badge to view this.", "badges": [], "created_at": "2025-06-17T08:13:53.870-04:00", "updated_at": "2025-07-03T19:39:17.643-04:00", "avatar": "https://secure.gravatar.com/avatar/d6ea2802a231f457d0f8d1098600a0aa.jpg?s=512&d=https%3A%2F%2Fa.slack-edge.com%2Fdf10d%2Fimg%2Favatars%2Fava_0012-512.png", "custom_css": null}, {"id": 6228, "slack_id": "U091U3K8W10", "display_name": "Spam Acc", "bio": null, "projects_count": 0, "devlogs_count": 0, "votes_count": 0, "ships_count": 0, "projects": [], "coding_time_seconds": 0, "coding_time_seconds_today": 0, "balance": "You need to have a pocket watcher badge to view this.", "badges": [], "created_at": "2025-06-17T08:14:08.136-04:00", "updated_at": "2025-07-03T19:39:17.900-04:00", "avatar": "https://avatars.slack-edge.com/2025-06-17/9074706272209_95abdda1bf3b7176d89b_original.png", "custom_css": null}, {"id": 6229, "slack_id": "U091SBDHK1B", "display_name": "Nathan", "bio": null, "projects_count": 0, "devlogs_count": 0, "votes_count": 0, "ships_count": 0, "projects": [], "coding_time_seconds": 0, "coding_time_seconds_today": 0, "balance": "You need to have a pocket watcher badge to view this.", "badges": [], "created_at": "2025-06-17T08:15:18.553-04:00", "updated_at": "2025-07-03T19:39:18.184-04:00", "avatar": "https://secure.gravatar.com/avatar/8ec2c467fe6a05cd8cd5b0a0debd7e21.jpg?s=512&d=https%3A%2F%2Fa.slack-edge.com%2Fdf10d%2Fimg%2Favatars%2Fava_0021-512.png", "custom_css": null}, {"id": 6230, "slack_id": "U091ME9PPUN", "display_name": "Abu_b5", "bio": null, "projects_count": 0, "devlogs_count": 0, "votes_count": 0, "ships_count": 0, "projects": [], "coding_time_seconds": 0, "coding_time_seconds_today": 0, "balance": "You need to have a pocket watcher badge to view this.", "badges": [], "created_at": "2025-06-17T08:15:19.191-04:00", "updated_at": "2025-07-03T19:39:18.454-04:00", "avatar": "https://secure.gravatar.com/avatar/efc48394b3b9dd49e597e989928a661a.jpg?s=512&d=https%3A%2F%2Fa.slack-edge.com%2Fdf10d%2Fimg%2Favatars%2Fava_0024-512.png", "custom_css": null}, {"id": 6231, "slack_id": "U091ME8CRPG", "display_name": "ZukaBri3k", "bio": null, "projects_count": 0, "devlogs_count": 0, "votes_count": 0, "ships_count": 0, "projects": [], "coding_time_seconds": 120, "coding_time_seconds_today": 0, "balance": "You need to have a pocket watcher badge to view this.", "badges": [], "created_at": "2025-06-17T08:16:30.016-04:00", "updated_at": "2025-07-03T19:39:18.719-04:00", "avatar": "https://secure.gravatar.com/avatar/07c941517fc40c8ccd3ea7e3ead58dd4.jpg?s=512&d=https%3A%2F%2Fa.slack-edge.com%2Fdf10d%2Fimg%2Favatars%2Fava_0016-512.png", "custom_css": null}, {"id": 6232, "slack_id": "U091SBQPLSZ", "display_name": "Arekh Shrestha", "bio": null, "projects_count": 0, "devlogs_count": 0, "votes_count": 0, "ships_count": 0, "projects": [], "coding_time_seconds": 0, "coding_time_seconds_today": 0, "balance": "You need to have a pocket watcher badge to view this.", "badges": [], "created_at": "2025-06-17T08:16:32.950-04:00", "updated_at": "2025-07-03T19:39:19.060-04:00", "avatar": "https://secure.gravatar.com/avatar/c2052dd6d002de1c3b3862ef06ad8a91.jpg?s=512&d=https%3A%2F%2Fa.slack-edge.com%2Fdf10d%2Fimg%2Favatars%2Fava_0018-512.png", "custom_css": null}, {"id": 6233, "slack_id": "U091CMX8ECF", "display_name": "PrettyLegit", "bio": null, "projects_count": 0, "devlogs_count": 0, "votes_count": 0, "ships_count": 0, "projects": [], "coding_time_seconds": 0, "coding_time_seconds_today": 0, "balance": "You need to have a pocket watcher badge to view this.", "badges": [], "created_at": "2025-06-17T08:16:35.065-04:00", "updated_at": "2025-07-03T19:39:19.322-04:00", "avatar": "https://secure.gravatar.com/avatar/d20736050dac6f7ce9fefac9c500d96e.jpg?s=512&d=https%3A%2F%2Fa.slack-edge.com%2Fdf10d%2Fimg%2Favatars%2Fava_0007-512.png", "custom_css": null}, {"id": 6234, "slack_id": "U091SB4SCJH", "display_name": "Arpan Gupta", "bio": null, "projects_count": 0, "devlogs_count": 0, "votes_count": 0, "ships_count": 0, "projects": [], "coding_time_seconds": 252268, "coding_time_seconds_today": 0, "balance": "You need to have a pocket watcher badge to view this.", "badges": [], "created_at": "2025-06-17T08:16:44.734-04:00", "updated_at": "2025-07-03T19:39:19.586-04:00", "avatar": "https://avatars.slack-edge.com/2025-06-17/9055355731683_8ac5f04c10ebe7406c16_original.jpg", "custom_css": null}, {"id": 6235, "slack_id": "U091U41M4M8", "display_name": "SALMAN F. RAHMAN", "bio": null, "projects_count": 0, "devlogs_count": 0, "votes_count": 0, "ships_count": 0, "projects": [], "coding_time_seconds": 0, "coding_time_seconds_today": 0, "balance": "You need to have a pocket watcher badge to view this.", "badges": [], "created_at": "2025-06-17T08:17:20.458-04:00", "updated_at": "2025-07-03T19:39:19.879-04:00", "avatar": "https://avatars.slack-edge.com/2025-06-17/9060414213941_adfe4abd56c2181211d1_original.jpg", "custom_css": null}, {"id": 6236, "slack_id": "U091S9H6HJR", "display_name": "Biswajit", "bio": null, "projects_count": 0, "devlogs_count": 0, "votes_count": 0, "ships_count": 0, "projects": [], "coding_time_seconds": 0, "coding_time_seconds_today": 0, "balance": "You need to have a pocket watcher badge to view this.", "badges": [], "created_at": "2025-06-17T08:17:44.701-04:00", "updated_at": "2025-07-03T19:39:20.143-04:00", "avatar": "https://secure.gravatar.com/avatar/831c7a67ab67ac5ac84e758a5d785d59.jpg?s=512&d=https%3A%2F%2Fa.slack-edge.com%2Fdf10d%2Fimg%2Favatars%2Fava_0021-512.png", "custom_css": null}, {"id": 6237, "slack_id": "U091TP2JGMQ", "display_name": "Oness72", "bio": null, "projects_count": 0, "devlogs_count": 0, "votes_count": 0, "ships_count": 0, "projects": [], "coding_time_seconds": 0, "coding_time_seconds_today": 0, "balance": "You need to have a pocket watcher badge to view this.", "badges": [], "created_at": "2025-06-17T08:17:54.286-04:00", "updated_at": "2025-07-03T19:39:20.398-04:00", "avatar": "https://secure.gravatar.com/avatar/8196edc07251a9919115ee25acdf73fd.jpg?s=512&d=https%3A%2F%2Fa.slack-edge.com%2Fdf10d%2Fimg%2Favatars%2Fava_0016-512.png", "custom_css": null}, {"id": 6238, "slack_id": "U091MEULJP8", "display_name": "Harsh", "bio": null, "projects_count": 0, "devlogs_count": 0, "votes_count": 0, "ships_count": 0, "projects": [], "coding_time_seconds": 0, "coding_time_seconds_today": 0, "balance": "You need to have a pocket watcher badge to view this.", "badges": [], "created_at": "2025-06-17T08:18:11.776-04:00", "updated_at": "2025-07-03T19:39:20.672-04:00", "avatar": "https://secure.gravatar.com/avatar/11666bd308b47d24f8f7a57ef93043f6.jpg?s=512&d=https%3A%2F%2Fa.slack-edge.com%2Fdf10d%2Fimg%2Favatars%2Fava_0003-512.png", "custom_css": null}, {"id": 6239, "slack_id": "U0926LRHHJM", "display_name": "Indraneel Bose", "bio": null, "projects_count": 0, "devlogs_count": 0, "votes_count": 0, "ships_count": 0, "projects": [], "coding_time_seconds": 0, "coding_time_seconds_today": 0, "balance": "You need to have a pocket watcher badge to view this.", "badges": [], "created_at": "2025-06-17T08:18:35.217-04:00", "updated_at": "2025-07-03T19:39:20.934-04:00", "avatar": "https://avatars.slack-edge.com/2025-06-17/9060422570533_d04d2a96810f78f80216_original.png", "custom_css": null}, {"id": 6240, "slack_id": "U06GRPG4AQZ", "display_name": "Ansh", "bio": null, "projects_count": 0, "devlogs_count": 0, "votes_count": 0, "ships_count": 0, "projects": [], "coding_time_seconds": 6453, "coding_time_seconds_today": 0, "balance": "You need to have a pocket watcher badge to view this.", "badges": [], "created_at": "2025-06-17T08:18:49.176-04:00", "updated_at": "2025-07-03T19:39:21.201-04:00", "avatar": "https://avatars.slack-edge.com/2024-01-30/6579939146016_7d811183e30c86d03fae_original.jpg", "custom_css": null}], "pagination": {"page": 312, "pages": 1192, "count": 23828, "items": 20}}