{"users": [{"id": 6241, "slack_id": "U079H0TR6AK", "display_name": "Krystian", "bio": null, "projects_count": 0, "devlogs_count": 0, "votes_count": 0, "ships_count": 0, "projects": [], "coding_time_seconds": 10059, "coding_time_seconds_today": 0, "balance": "You need to have a pocket watcher badge to view this.", "badges": [], "created_at": "2025-06-17T08:19:06.029-04:00", "updated_at": "2025-07-03T22:34:24.869-04:00", "avatar": "https://avatars.slack-edge.com/2024-06-28/7351825576276_8b31b0543d0b084a4407_original.png", "custom_css": null}, {"id": 6242, "slack_id": "U0926M1NDMF", "display_name": "chi1180", "bio": null, "projects_count": 3, "devlogs_count": 3, "votes_count": 0, "ships_count": 1, "projects": [{"id": 1299, "title": "LINEnglish", "devlogs_count": 2, "created_at": "2025-06-18T06:53:39.573-04:00"}, {"id": 1302, "title": "Stock counter", "devlogs_count": 0, "created_at": "2025-06-18T07:02:14.239-04:00"}, {"id": 9618, "title": "EnglishNote", "devlogs_count": 1, "created_at": "2025-08-01T21:22:43.467-04:00"}], "coding_time_seconds": 186971, "coding_time_seconds_today": 871, "balance": "You need to have a pocket watcher badge to view this.", "badges": [{"name": "Maiden Voyage", "text": "you shipped your first project! the journey begins...", "icon": "\ud83d\udea2"}], "created_at": "2025-06-17T08:19:52.345-04:00", "updated_at": "2025-09-10T22:54:16.322-04:00", "avatar": "https://secure.gravatar.com/avatar/a7f1460ff2975a617a84b847a433ee02.jpg?s=512&d=https%3A%2F%2Fa.slack-edge.com%2Fdf10d%2Fimg%2Favatars%2Fava_0005-512.png", "custom_css": null}, {"id": 6243, "slack_id": "U091U2V8FKL", "display_name": "Nitin Kumar", "bio": null, "projects_count": 0, "devlogs_count": 0, "votes_count": 0, "ships_count": 0, "projects": [], "coding_time_seconds": 0, "coding_time_seconds_today": 0, "balance": "You need to have a pocket watcher badge to view this.", "badges": [], "created_at": "2025-06-17T08:20:24.053-04:00", "updated_at": "2025-07-30T08:34:29.026-04:00", "avatar": "https://avatars.slack-edge.com/2025-07-30/9276110956852_dbdc67c87eee315a9f21_original.jpg", "custom_css": null}, {"id": 6244, "slack_id": "U091QNZBX53", "display_name": "Parthiban Marimuthu", "bio": null, "projects_count": 0, "devlogs_count": 0, "votes_count": 0, "ships_count": 0, "projects": [], "coding_time_seconds": 0, "coding_time_seconds_today": 0, "balance": "You need to have a pocket watcher badge to view this.", "badges": [], "created_at": "2025-06-17T08:20:57.141-04:00", "updated_at": "2025-07-03T19:39:22.139-04:00", "avatar": "https://secure.gravatar.com/avatar/05c6d6ce453b43a21ede6481d404248d.jpg?s=512&d=https%3A%2F%2Fa.slack-edge.com%2Fdf10d%2Fimg%2Favatars%2Fava_0011-512.png", "custom_css": null}, {"id": 6245, "slack_id": "U0926MAS7PT", "display_name": "Swaroop", "bio": null, "projects_count": 0, "devlogs_count": 7, "votes_count": 21, "ships_count": 0, "projects": [], "coding_time_seconds": 224749, "coding_time_seconds_today": 0, "balance": "You need to have a pocket watcher badge to view this.", "badges": [], "created_at": "2025-06-17T08:21:08.545-04:00", "updated_at": "2025-07-09T16:55:14.667-04:00", "avatar": "https://secure.gravatar.com/avatar/d5349c0054fbfded89f46a3f13a8eb5b.jpg?s=512&d=https%3A%2F%2Fa.slack-edge.com%2Fdf10d%2Fimg%2Favatars%2Fava_0026-512.png", "custom_css": null}, {"id": 6246, "slack_id": "U091UFHE5QC", "display_name": "stepan", "bio": null, "projects_count": 0, "devlogs_count": 0, "votes_count": 0, "ships_count": 0, "projects": [], "coding_time_seconds": 0, "coding_time_seconds_today": 0, "balance": "You need to have a pocket watcher badge to view this.", "badges": [], "created_at": "2025-06-17T08:21:26.732-04:00", "updated_at": "2025-07-03T19:39:22.546-04:00", "avatar": "https://secure.gravatar.com/avatar/d5d50d490a96149104af9ca7ef59b9e7.jpg?s=512&d=https%3A%2F%2Fa.slack-edge.com%2Fdf10d%2Fimg%2Favatars%2Fava_0013-512.png", "custom_css": null}, {"id": 6247, "slack_id": "U086T1TC80G", "display_name": "j4y_boi", "bio": "https://j4y-boi.itch.io/pip-the-mouse-2\r\n/\\ CHECK OUT NOW\r\nWorking on mous game :)", "projects_count": 4, "devlogs_count": 46, "votes_count": 92, "ships_count": 3, "projects": [{"id": 9983, "title": "PyOS", "devlogs_count": 2, "created_at": "2025-08-03T09:39:36.912-04:00"}, {"id": 11562, "title": "Legally Distinct Animal Crossing", "devlogs_count": 3, "created_at": "2025-08-17T05:19:53.250-04:00"}, {"id": 7386, "title": "My website", "devlogs_count": 15, "created_at": "2025-07-21T13:28:34.166-04:00"}, {"id": 12853, "title": "Pip the Mouse 2", "devlogs_count": 26, "created_at": "2025-09-03T16:28:23.679-04:00"}], "coding_time_seconds": 234103, "coding_time_seconds_today": 994, "balance": "You need to have a pocket watcher badge to view this.", "badges": [{"name": "Maiden Voyage", "text": "you shipped your first project! the journey begins...", "icon": "\ud83d\udea2"}], "created_at": "2025-06-17T08:22:42.447-04:00", "updated_at": "2025-09-19T17:42:26.665-04:00", "avatar": "https://avatars.slack-edge.com/2025-01-12/8282591860147_d9462f2f14d61610fac4_original.png", "custom_css": null}, {"id": 6248, "slack_id": "U091MAZEMQB", "display_name": "Ayush Singh Tomar", "bio": null, "projects_count": 0, "devlogs_count": 0, "votes_count": 0, "ships_count": 0, "projects": [], "coding_time_seconds": 5178, "coding_time_seconds_today": 0, "balance": "You need to have a pocket watcher badge to view this.", "badges": [], "created_at": "2025-06-17T08:23:03.692-04:00", "updated_at": "2025-07-03T19:39:23.099-04:00", "avatar": "https://secure.gravatar.com/avatar/f61a1d12bf95b22b296237c748240588.jpg?s=512&d=https%3A%2F%2Fa.slack-edge.com%2Fdf10d%2Fimg%2Favatars%2Fava_0001-512.png", "custom_css": null}, {"id": 6249, "slack_id": "U091U400GQ2", "display_name": "Leander Meggers", "bio": null, "projects_count": 4, "devlogs_count": 6, "votes_count": 36, "ships_count": 2, "projects": [{"id": 1029, "title": "pandas for gleam", "devlogs_count": 0, "created_at": "2025-06-17T14:02:47.847-04:00"}, {"id": 1301, "title": "advents", "devlogs_count": 0, "created_at": "2025-06-18T06:54:38.743-04:00"}, {"id": 1689, "title": "FrostByte", "devlogs_count": 4, "created_at": "2025-06-19T03:03:18.202-04:00"}, {"id": 4282, "title": "Java CLI-Chess", "devlogs_count": 2, "created_at": "2025-06-28T16:31:57.176-04:00"}], "coding_time_seconds": 387531, "coding_time_seconds_today": 0, "balance": "You need to have a pocket watcher badge to view this.", "badges": [{"name": "Maiden Voyage", "text": "you shipped your first project! the journey begins...", "icon": "\ud83d\udea2"}], "created_at": "2025-06-17T08:23:35.844-04:00", "updated_at": "2025-09-10T22:54:16.513-04:00", "avatar": "https://secure.gravatar.com/avatar/c59b87fe52a8c13ec41d8a1dd1eee312.jpg?s=512&d=https%3A%2F%2Fa.slack-edge.com%2Fdf10d%2Fimg%2Favatars%2Fava_0024-512.png", "custom_css": null}, {"id": 6250, "slack_id": "U091UFXAFFE", "display_name": "Abner Ribeiro", "bio": null, "projects_count": 0, "devlogs_count": 0, "votes_count": 0, "ships_count": 0, "projects": [], "coding_time_seconds": 0, "coding_time_seconds_today": 0, "balance": "You need to have a pocket watcher badge to view this.", "badges": [], "created_at": "2025-06-17T08:24:20.447-04:00", "updated_at": "2025-07-03T19:39:23.627-04:00", "avatar": "https://avatars.slack-edge.com/2025-06-17/9074753656385_f646c3d13a1050d8bd79_original.jpg", "custom_css": null}, {"id": 6251, "slack_id": "U091U568ASE", "display_name": "123", "bio": null, "projects_count": 0, "devlogs_count": 0, "votes_count": 0, "ships_count": 0, "projects": [], "coding_time_seconds": 0, "coding_time_seconds_today": 0, "balance": "You need to have a pocket watcher badge to view this.", "badges": [], "created_at": "2025-06-17T08:26:00.468-04:00", "updated_at": "2025-07-03T22:34:25.593-04:00", "avatar": "https://secure.gravatar.com/avatar/bd8c31062a97df94b8e4b8149cf4dcc5.jpg?s=512&d=https%3A%2F%2Fa.slack-edge.com%2Fdf10d%2Fimg%2Favatars%2Fava_0019-512.png", "custom_css": null}, {"id": 6252, "slack_id": "U091SD27LLD", "display_name": "Sai Chappidi", "bio": null, "projects_count": 0, "devlogs_count": 0, "votes_count": 0, "ships_count": 0, "projects": [], "coding_time_seconds": 101471, "coding_time_seconds_today": 0, "balance": "You need to have a pocket watcher badge to view this.", "badges": [], "created_at": "2025-06-17T08:26:01.213-04:00", "updated_at": "2025-07-03T19:39:24.032-04:00", "avatar": "https://avatars.slack-edge.com/2025-06-17/9060454846245_50eb6d446f3f7ead08bd_original.png", "custom_css": null}, {"id": 6253, "slack_id": "U091SCL3LDB", "display_name": "Trapti upadhyay", "bio": null, "projects_count": 0, "devlogs_count": 0, "votes_count": 0, "ships_count": 0, "projects": [], "coding_time_seconds": 0, "coding_time_seconds_today": 0, "balance": "You need to have a pocket watcher badge to view this.", "badges": [], "created_at": "2025-06-17T08:26:07.554-04:00", "updated_at": "2025-07-03T19:39:24.294-04:00", "avatar": "https://secure.gravatar.com/avatar/ed35f31e9e121521836401778aa7cfd2.jpg?s=512&d=https%3A%2F%2Fa.slack-edge.com%2Fdf10d%2Fimg%2Favatars%2Fava_0008-512.png", "custom_css": null}, {"id": 6254, "slack_id": "U091SCW221K", "display_name": "suraj", "bio": null, "projects_count": 0, "devlogs_count": 0, "votes_count": 0, "ships_count": 0, "projects": [], "coding_time_seconds": 0, "coding_time_seconds_today": 0, "balance": "You need to have a pocket watcher badge to view this.", "badges": [], "created_at": "2025-06-17T08:26:19.073-04:00", "updated_at": "2025-07-03T19:39:24.555-04:00", "avatar": "https://secure.gravatar.com/avatar/1e0faac4240da9f4daf149238ee99fa1.jpg?s=512&d=https%3A%2F%2Fa.slack-edge.com%2Fdf10d%2Fimg%2Favatars%2Fava_0015-512.png", "custom_css": null}, {"id": 6255, "slack_id": "U0926GHM9C1", "display_name": "Fahad", "bio": null, "projects_count": 0, "devlogs_count": 0, "votes_count": 0, "ships_count": 0, "projects": [], "coding_time_seconds": 0, "coding_time_seconds_today": 0, "balance": "You need to have a pocket watcher badge to view this.", "badges": [], "created_at": "2025-06-17T08:26:23.177-04:00", "updated_at": "2025-07-03T19:39:24.817-04:00", "avatar": "https://secure.gravatar.com/avatar/798c392733b4875661e1be3830c537f2.jpg?s=512&d=https%3A%2F%2Fa.slack-edge.com%2Fdf10d%2Fimg%2Favatars%2Fava_0025-512.png", "custom_css": null}, {"id": 6256, "slack_id": "U091MFX9Z54", "display_name": "Abdelrahman Dandash", "bio": null, "projects_count": 0, "devlogs_count": 0, "votes_count": 0, "ships_count": 0, "projects": [], "coding_time_seconds": 0, "coding_time_seconds_today": 0, "balance": "You need to have a pocket watcher badge to view this.", "badges": [], "created_at": "2025-06-17T08:26:28.619-04:00", "updated_at": "2025-07-04T08:21:37.330-04:00", "avatar": "https://avatars.slack-edge.com/2025-06-17/9062191320258_4f59bbea114ac054e606_original.jpg", "custom_css": null}, {"id": 6257, "slack_id": "U091UG7RLP6", "display_name": "Anuj", "bio": null, "projects_count": 0, "devlogs_count": 0, "votes_count": 0, "ships_count": 0, "projects": [], "coding_time_seconds": 0, "coding_time_seconds_today": 0, "balance": "You need to have a pocket watcher badge to view this.", "badges": [], "created_at": "2025-06-17T08:26:36.030-04:00", "updated_at": "2025-07-03T19:39:25.232-04:00", "avatar": "https://secure.gravatar.com/avatar/5ca6b040ea9f3c6a009334a357c78271.jpg?s=512&d=https%3A%2F%2Fa.slack-edge.com%2Fdf10d%2Fimg%2Favatars%2Fava_0011-512.png", "custom_css": null}, {"id": 6258, "slack_id": "U091U54MY0J", "display_name": "Aryan Singh", "bio": null, "projects_count": 0, "devlogs_count": 0, "votes_count": 0, "ships_count": 0, "projects": [], "coding_time_seconds": 0, "coding_time_seconds_today": 0, "balance": "You need to have a pocket watcher badge to view this.", "badges": [], "created_at": "2025-06-17T08:26:49.387-04:00", "updated_at": "2025-07-03T19:39:25.502-04:00", "avatar": "https://secure.gravatar.com/avatar/82ece957f826ed935c136f5fa91898eb.jpg?s=512&d=https%3A%2F%2Fa.slack-edge.com%2Fdf10d%2Fimg%2Favatars%2Fava_0008-512.png", "custom_css": null}, {"id": 6259, "slack_id": "U091U584V4J", "display_name": "Ayush", "bio": null, "projects_count": 0, "devlogs_count": 0, "votes_count": 0, "ships_count": 0, "projects": [], "coding_time_seconds": 0, "coding_time_seconds_today": 0, "balance": "You need to have a pocket watcher badge to view this.", "badges": [], "created_at": "2025-06-17T08:27:28.217-04:00", "updated_at": "2025-07-04T08:21:37.563-04:00", "avatar": "https://secure.gravatar.com/avatar/21fd8616906696119328a50b083eb912.jpg?s=512&d=https%3A%2F%2Fa.slack-edge.com%2Fdf10d%2Fimg%2Favatars%2Fava_0022-512.png", "custom_css": null}, {"id": 6260, "slack_id": "U091U59K5BL", "display_name": "Andrew Kim", "bio": null, "projects_count": 3, "devlogs_count": 3, "votes_count": 43, "ships_count": 3, "projects": [{"id": 4922, "title": "CrytsalEyes v1.0.0", "devlogs_count": 1, "created_at": "2025-07-02T08:16:02.080-04:00"}, {"id": 4924, "title": "woodsonscioly.org", "devlogs_count": 1, "created_at": "2025-07-02T08:21:45.897-04:00"}, {"id": 4927, "title": "CrystalEyes v0.9.0", "devlogs_count": 1, "created_at": "2025-07-02T08:28:49.710-04:00"}], "coding_time_seconds": 125056, "coding_time_seconds_today": 0, "balance": "You need to have a pocket watcher badge to view this.", "badges": [{"name": "Maiden Voyage", "text": "you shipped your first project! the journey begins...", "icon": "\ud83d\udea2"}], "created_at": "2025-06-17T08:27:31.859-04:00", "updated_at": "2025-09-10T22:54:16.820-04:00", "avatar": "https://avatars.slack-edge.com/2025-06-17/9046808593399_7b672ca9e46c86167baf_original.png", "custom_css": null}], "pagination": {"page": 313, "pages": 1192, "count": 23828, "items": 20}}