{"users": [{"id": 6261, "slack_id": "U091CP0D83Z", "display_name": "Atiqur Rahman", "bio": null, "projects_count": 0, "devlogs_count": 0, "votes_count": 0, "ships_count": 0, "projects": [], "coding_time_seconds": 0, "coding_time_seconds_today": 0, "balance": "You need to have a pocket watcher badge to view this.", "badges": [], "created_at": "2025-06-17T08:27:35.885-04:00", "updated_at": "2025-07-04T02:25:26.314-04:00", "avatar": "https://secure.gravatar.com/avatar/c668cce48ce9135640aaea6389bc85aa.jpg?s=512&d=https%3A%2F%2Fa.slack-edge.com%2Fdf10d%2Fimg%2Favatars%2Fava_0018-512.png", "custom_css": null}, {"id": 6262, "slack_id": "U08735N84DA", "display_name": "Saadat", "bio": null, "projects_count": 0, "devlogs_count": 0, "votes_count": 0, "ships_count": 0, "projects": [], "coding_time_seconds": 0, "coding_time_seconds_today": 0, "balance": "You need to have a pocket watcher badge to view this.", "badges": [], "created_at": "2025-06-17T08:28:13.740-04:00", "updated_at": "2025-07-03T19:39:26.291-04:00", "avatar": "https://secure.gravatar.com/avatar/cab50373c24ee329c53cfb195aa05a0d.jpg?s=512&d=https%3A%2F%2Fa.slack-edge.com%2Fdf10d%2Fimg%2Favatars%2Fava_0026-512.png", "custom_css": null}, {"id": 6263, "slack_id": "U085L7P77EV", "display_name": "Areg Azatyan", "bio": null, "projects_count": 4, "devlogs_count": 25, "votes_count": 89, "ships_count": 4, "projects": [{"id": 1248, "title": "Ocean+", "devlogs_count": 5, "created_at": "2025-06-18T01:55:40.177-04:00"}, {"id": 11836, "title": "Aregus.me, portfolio website!", "devlogs_count": 1, "created_at": "2025-08-20T06:10:09.861-04:00"}, {"id": 7570, "title": "Ocean+ bot", "devlogs_count": 15, "created_at": "2025-07-22T06:44:54.420-04:00"}, {"id": 11367, "title": "Periodic table!", "devlogs_count": 4, "created_at": "2025-08-15T09:14:08.464-04:00"}], "coding_time_seconds": 218499, "coding_time_seconds_today": 0, "balance": "You need to have a pocket watcher badge to view this.", "badges": [{"name": "Maiden Voyage", "text": "you shipped your first project! the journey begins...", "icon": "\ud83d\udea2"}], "created_at": "2025-06-17T08:28:23.070-04:00", "updated_at": "2025-09-10T22:54:16.903-04:00", "avatar": "https://avatars.slack-edge.com/2025-06-17/9046785344119_bf2edf0a25d73909a736_original.png", "custom_css": null}, {"id": 6264, "slack_id": "U0926N9UHSM", "display_name": "Dhairy Srivastava", "bio": null, "projects_count": 3, "devlogs_count": 11, "votes_count": 25, "ships_count": 2, "projects": [{"id": 1337, "title": "Kaju", "devlogs_count": 3, "created_at": "2025-06-18T09:37:11.535-04:00"}, {"id": 12868, "title": "Athnetic-Web", "devlogs_count": 3, "created_at": "2025-09-04T04:03:39.156-04:00"}, {"id": 5941, "title": "Birthday Box ESP32", "devlogs_count": 5, "created_at": "2025-07-09T09:19:53.316-04:00"}], "coding_time_seconds": 91470, "coding_time_seconds_today": 0, "balance": "You need to have a pocket watcher badge to view this.", "badges": [{"name": "Maiden Voyage", "text": "you shipped your first project! the journey begins...", "icon": "\ud83d\udea2"}], "created_at": "2025-06-17T08:28:55.081-04:00", "updated_at": "2025-09-10T22:54:16.942-04:00", "avatar": "https://avatars.slack-edge.com/2025-06-17/9046815239415_e8ceb7e9a6cb03cfef0d_original.jpg", "custom_css": null}, {"id": 6265, "slack_id": "U07LVUGDXDL", "display_name": "Mayank Tiku", "bio": null, "projects_count": 0, "devlogs_count": 0, "votes_count": 1, "ships_count": 0, "projects": [], "coding_time_seconds": 62251, "coding_time_seconds_today": 0, "balance": "You need to have a pocket watcher badge to view this.", "badges": [], "created_at": "2025-06-17T08:29:20.550-04:00", "updated_at": "2025-07-03T19:39:27.346-04:00", "avatar": "https://avatars.slack-edge.com/2024-09-17/7741242080661_e01127deea095003bd0f_original.jpg", "custom_css": null}, {"id": 6266, "slack_id": "U092GG52V24", "display_name": "Alby", "bio": null, "projects_count": 0, "devlogs_count": 0, "votes_count": 0, "ships_count": 0, "projects": [], "coding_time_seconds": 0, "coding_time_seconds_today": 0, "balance": "You need to have a pocket watcher badge to view this.", "badges": [], "created_at": "2025-06-17T08:29:37.882-04:00", "updated_at": "2025-07-06T20:07:31.261-04:00", "avatar": "https://secure.gravatar.com/avatar/ec0a04efd5fd6955bc48f69732893102.jpg?s=512&d=https%3A%2F%2Fa.slack-edge.com%2Fdf10d%2Fimg%2Favatars%2Fava_0007-512.png", "custom_css": null}, {"id": 6267, "slack_id": "U092GGD50G0", "display_name": "Joel Antony", "bio": null, "projects_count": 0, "devlogs_count": 0, "votes_count": 0, "ships_count": 0, "projects": [], "coding_time_seconds": 48852, "coding_time_seconds_today": 0, "balance": "You need to have a pocket watcher badge to view this.", "badges": [], "created_at": "2025-06-17T08:29:55.257-04:00", "updated_at": "2025-07-03T19:39:27.741-04:00", "avatar": "https://avatars.slack-edge.com/2025-06-18/9054531932087_c22dc06f4ba8f2911326_original.jpg", "custom_css": null}, {"id": 6268, "slack_id": "U091SDRCWN9", "display_name": "Datta Gangji", "bio": null, "projects_count": 0, "devlogs_count": 0, "votes_count": 0, "ships_count": 0, "projects": [], "coding_time_seconds": 321, "coding_time_seconds_today": 0, "balance": "You need to have a pocket watcher badge to view this.", "badges": [], "created_at": "2025-06-17T08:31:29.235-04:00", "updated_at": "2025-07-03T19:39:28.001-04:00", "avatar": "https://secure.gravatar.com/avatar/15bf78b26d58968f6ed2dab140c8c1cc.jpg?s=512&d=https%3A%2F%2Fa.slack-edge.com%2Fdf10d%2Fimg%2Favatars%2Fava_0007-512.png", "custom_css": null}, {"id": 6269, "slack_id": "U091MGHVAK0", "display_name": "Silvijn", "bio": null, "projects_count": 0, "devlogs_count": 0, "votes_count": 0, "ships_count": 0, "projects": [], "coding_time_seconds": 0, "coding_time_seconds_today": 0, "balance": "You need to have a pocket watcher badge to view this.", "badges": [], "created_at": "2025-06-17T08:31:39.688-04:00", "updated_at": "2025-07-03T21:43:57.228-04:00", "avatar": "https://avatars.slack-edge.com/2025-06-17/9062595978372_1578c0f0aeeaf24bbb30_original.jpg", "custom_css": null}, {"id": 6270, "slack_id": "U091MGV118E", "display_name": "Kaushik Sambe", "bio": null, "projects_count": 0, "devlogs_count": 0, "votes_count": 0, "ships_count": 0, "projects": [], "coding_time_seconds": 0, "coding_time_seconds_today": 0, "balance": "You need to have a pocket watcher badge to view this.", "badges": [], "created_at": "2025-06-17T08:32:41.823-04:00", "updated_at": "2025-07-03T19:39:28.576-04:00", "avatar": "https://secure.gravatar.com/avatar/d8a1a3178c71ef484351b1a7d39b9df4.jpg?s=512&d=https%3A%2F%2Fa.slack-edge.com%2Fdf10d%2Fimg%2Favatars%2Fava_0024-512.png", "custom_css": null}, {"id": 6271, "slack_id": "U091CQ64RT9", "display_name": "everlyne", "bio": null, "projects_count": 0, "devlogs_count": 0, "votes_count": 0, "ships_count": 0, "projects": [], "coding_time_seconds": 0, "coding_time_seconds_today": 0, "balance": "You need to have a pocket watcher badge to view this.", "badges": [], "created_at": "2025-06-17T08:32:50.234-04:00", "updated_at": "2025-07-03T21:55:54.433-04:00", "avatar": "https://secure.gravatar.com/avatar/465646e21f82f6761e7ee6c7fe232e6c.jpg?s=512&d=https%3A%2F%2Fa.slack-edge.com%2Fdf10d%2Fimg%2Favatars%2Fava_0008-512.png", "custom_css": null}, {"id": 6272, "slack_id": "U092GH4PC0Y", "display_name": "iXDire", "bio": null, "projects_count": 2, "devlogs_count": 1, "votes_count": 20, "ships_count": 1, "projects": [{"id": 3896, "title": "Atorm", "devlogs_count": 0, "created_at": "2025-06-26T06:59:38.601-04:00"}, {"id": 12147, "title": "snowflake-id-generator", "devlogs_count": 1, "created_at": "2025-08-23T16:02:50.711-04:00"}], "coding_time_seconds": 48231, "coding_time_seconds_today": 0, "balance": "You need to have a pocket watcher badge to view this.", "badges": [{"name": "Maiden Voyage", "text": "you shipped your first project! the journey begins...", "icon": "\ud83d\udea2"}], "created_at": "2025-06-17T08:33:46.196-04:00", "updated_at": "2025-09-10T22:54:17.175-04:00", "avatar": "https://avatars.slack-edge.com/2025-06-22/9108097394864_f17bd74cfbe7a308901e_original.jpg", "custom_css": null}, {"id": 6273, "slack_id": "U091CQH55N3", "display_name": "Carol Balbino", "bio": null, "projects_count": 0, "devlogs_count": 0, "votes_count": 0, "ships_count": 0, "projects": [], "coding_time_seconds": 0, "coding_time_seconds_today": 0, "balance": "You need to have a pocket watcher badge to view this.", "badges": [], "created_at": "2025-06-17T08:34:58.354-04:00", "updated_at": "2025-07-03T21:55:54.599-04:00", "avatar": "https://secure.gravatar.com/avatar/eff75a80e2dd2de43c83d39ab831c7be.jpg?s=512&d=https%3A%2F%2Fa.slack-edge.com%2Fdf10d%2Fimg%2Favatars%2Fava_0008-512.png", "custom_css": null}, {"id": 6274, "slack_id": "U07FBMGKDJ8", "display_name": "Gizzi", "bio": null, "projects_count": 0, "devlogs_count": 0, "votes_count": 0, "ships_count": 0, "projects": [], "coding_time_seconds": 57294, "coding_time_seconds_today": 0, "balance": "You need to have a pocket watcher badge to view this.", "badges": [], "created_at": "2025-06-17T08:35:00.089-04:00", "updated_at": "2025-07-03T19:39:29.399-04:00", "avatar": "https://avatars.slack-edge.com/2024-08-02/7516840978069_6de0afd323c6d1ca03f8_original.png", "custom_css": null}, {"id": 6275, "slack_id": "U091UHMKUKW", "display_name": "Aditya Sharma", "bio": null, "projects_count": 1, "devlogs_count": 0, "votes_count": 0, "ships_count": 0, "projects": [{"id": 11520, "title": "Ecommerce_AnandMobiles", "devlogs_count": 0, "created_at": "2025-08-16T15:02:47.431-04:00"}], "coding_time_seconds": 370776, "coding_time_seconds_today": 120, "balance": "You need to have a pocket watcher badge to view this.", "badges": [], "created_at": "2025-06-17T08:35:01.949-04:00", "updated_at": "2025-08-16T14:58:22.244-04:00", "avatar": "https://secure.gravatar.com/avatar/bc04214762179604eb6ad03b0f986817.jpg?s=512&d=https%3A%2F%2Fa.slack-edge.com%2Fdf10d%2Fimg%2Favatars%2Fava_0000-512.png", "custom_css": null}, {"id": 6276, "slack_id": "U091MHF277Y", "display_name": "Matthew", "bio": null, "projects_count": 0, "devlogs_count": 0, "votes_count": 0, "ships_count": 0, "projects": [], "coding_time_seconds": 0, "coding_time_seconds_today": 0, "balance": "You need to have a pocket watcher badge to view this.", "badges": [], "created_at": "2025-06-17T08:35:12.067-04:00", "updated_at": "2025-07-05T02:07:05.827-04:00", "avatar": "https://secure.gravatar.com/avatar/8f157f292c8abef846a956f77b2b55d4.jpg?s=512&d=https%3A%2F%2Fa.slack-edge.com%2Fdf10d%2Fimg%2Favatars%2Fava_0021-512.png", "custom_css": null}, {"id": 6277, "slack_id": "U0807205XJN", "display_name": "Lance S", "bio": null, "projects_count": 0, "devlogs_count": 0, "votes_count": 0, "ships_count": 0, "projects": [], "coding_time_seconds": 0, "coding_time_seconds_today": 0, "balance": "You need to have a pocket watcher badge to view this.", "badges": [], "created_at": "2025-06-17T08:35:28.756-04:00", "updated_at": "2025-07-03T19:39:30.064-04:00", "avatar": "https://secure.gravatar.com/avatar/48ae4c0164537e552c3cbbeddd1e3499.jpg?s=512&d=https%3A%2F%2Fa.slack-edge.com%2Fdf10d%2Fimg%2Favatars%2Fava_0025-512.png", "custom_css": null}, {"id": 6278, "slack_id": "U07903K9EPN", "display_name": "ankit", "bio": null, "projects_count": 0, "devlogs_count": 0, "votes_count": 0, "ships_count": 0, "projects": [], "coding_time_seconds": 0, "coding_time_seconds_today": 0, "balance": "You need to have a pocket watcher badge to view this.", "badges": [], "created_at": "2025-06-17T08:36:23.001-04:00", "updated_at": "2025-07-03T19:39:30.327-04:00", "avatar": "https://avatars.slack-edge.com/2025-06-17/9060126965714_7b733c196f1b374acd51_original.png", "custom_css": null}, {"id": 6279, "slack_id": "U07AXQ08161", "display_name": "Cache Maola", "bio": null, "projects_count": 0, "devlogs_count": 0, "votes_count": 0, "ships_count": 0, "projects": [], "coding_time_seconds": 0, "coding_time_seconds_today": 0, "balance": "You need to have a pocket watcher badge to view this.", "badges": [], "created_at": "2025-06-17T08:36:25.376-04:00", "updated_at": "2025-07-03T21:43:57.905-04:00", "avatar": "https://secure.gravatar.com/avatar/8ac3206a17311f2ec13f3c47068a1b3f.jpg?s=512&d=https%3A%2F%2Fa.slack-edge.com%2Fdf10d%2Fimg%2Favatars%2Fava_0019-512.png", "custom_css": null}, {"id": 6280, "slack_id": "U0926PNQLHX", "display_name": "itzdrli", "bio": null, "projects_count": 1, "devlogs_count": 7, "votes_count": 5, "ships_count": 1, "projects": [{"id": 819, "title": "Fantastic Spoon", "devlogs_count": 7, "created_at": "2025-06-17T09:02:52.884-04:00"}], "coding_time_seconds": 76681, "coding_time_seconds_today": 0, "balance": "You need to have a pocket watcher badge to view this.", "badges": [{"name": "Maiden Voyage", "text": "you shipped your first project! the journey begins...", "icon": "\ud83d\udea2"}], "created_at": "2025-06-17T08:36:33.997-04:00", "updated_at": "2025-09-10T22:54:17.369-04:00", "avatar": "https://secure.gravatar.com/avatar/c737209091fd63a302cbb54615576f3f.jpg?s=512&d=https%3A%2F%2Fa.slack-edge.com%2Fdf10d%2Fimg%2Favatars%2Fava_0014-512.png", "custom_css": null}], "pagination": {"page": 314, "pages": 1192, "count": 23828, "items": 20}}