{"users": [{"id": 6281, "slack_id": "U091UGTP80L", "display_name": "Manifest Son", "bio": null, "projects_count": 0, "devlogs_count": 0, "votes_count": 0, "ships_count": 0, "projects": [], "coding_time_seconds": 0, "coding_time_seconds_today": 0, "balance": "You need to have a pocket watcher badge to view this.", "badges": [], "created_at": "2025-06-17T08:36:42.893-04:00", "updated_at": "2025-07-03T19:39:31.074-04:00", "avatar": "https://secure.gravatar.com/avatar/0a3e769e9910dfaf9750ba0234aed700.jpg?s=512&d=https%3A%2F%2Fa.slack-edge.com%2Fdf10d%2Fimg%2Favatars%2Fava_0000-512.png", "custom_css": null}, {"id": 6282, "slack_id": "U091SEMSG85", "display_name": "ruxi", "bio": null, "projects_count": 0, "devlogs_count": 0, "votes_count": 0, "ships_count": 0, "projects": [], "coding_time_seconds": 9452, "coding_time_seconds_today": 0, "balance": "You need to have a pocket watcher badge to view this.", "badges": [], "created_at": "2025-06-17T08:37:00.847-04:00", "updated_at": "2025-07-03T21:55:55.218-04:00", "avatar": "https://secure.gravatar.com/avatar/fa75c9c62a63f1341b22f70bb7b2758d.jpg?s=512&d=https%3A%2F%2Fa.slack-edge.com%2Fdf10d%2Fimg%2Favatars%2Fava_0016-512.png", "custom_css": null}, {"id": 6283, "slack_id": "U08GCDHM0QZ", "display_name": "KuzuiYaridomi", "bio": null, "projects_count": 5, "devlogs_count": 14, "votes_count": 42, "ships_count": 2, "projects": [{"id": 1708, "title": "Fueling M\u00d8rdrom", "devlogs_count": 2, "created_at": "2025-06-19T04:21:59.274-04:00"}, {"id": 12591, "title": "Termify", "devlogs_count": 2, "created_at": "2025-08-30T08:10:39.258-04:00"}, {"id": 13675, "title": "Moodify", "devlogs_count": 0, "created_at": "2025-09-22T13:21:14.353-04:00"}, {"id": 10878, "title": "QuickPurge", "devlogs_count": 4, "created_at": "2025-08-11T13:39:57.415-04:00"}, {"id": 7021, "title": "InfiMath", "devlogs_count": 6, "created_at": "2025-07-18T09:48:53.537-04:00"}], "coding_time_seconds": 119936, "coding_time_seconds_today": 1199, "balance": "You need to have a pocket watcher badge to view this.", "badges": [{"name": "Maiden Voyage", "text": "you shipped your first project! the journey begins...", "icon": "\ud83d\udea2"}], "created_at": "2025-06-17T08:37:45.842-04:00", "updated_at": "2025-09-10T22:54:17.439-04:00", "avatar": "https://avatars.slack-edge.com/2025-03-04/8556681051729_022f8f9a68c05f3b8003_original.jpg", "custom_css": null}, {"id": 6284, "slack_id": "U091MD77P5Z", "display_name": "Yi Sun", "bio": null, "projects_count": 0, "devlogs_count": 0, "votes_count": 0, "ships_count": 0, "projects": [], "coding_time_seconds": 0, "coding_time_seconds_today": 0, "balance": "You need to have a pocket watcher badge to view this.", "badges": [], "created_at": "2025-06-17T08:37:52.343-04:00", "updated_at": "2025-07-03T19:39:31.768-04:00", "avatar": "https://secure.gravatar.com/avatar/3adfb4f0e70db91660f38266c13c4660.jpg?s=512&d=https%3A%2F%2Fa.slack-edge.com%2Fdf10d%2Fimg%2Favatars%2Fava_0005-512.png", "custom_css": null}, {"id": 6285, "slack_id": "U091CQHPBGX", "display_name": "Paulo Eduardo da Silva Junior", "bio": null, "projects_count": 0, "devlogs_count": 0, "votes_count": 0, "ships_count": 0, "projects": [], "coding_time_seconds": 126220, "coding_time_seconds_today": 0, "balance": "You need to have a pocket watcher badge to view this.", "badges": [], "created_at": "2025-06-17T08:38:18.019-04:00", "updated_at": "2025-07-03T19:39:32.045-04:00", "avatar": "https://secure.gravatar.com/avatar/51378ffdd52cff0be2b69d6609a45446.jpg?s=512&d=https%3A%2F%2Fa.slack-edge.com%2Fdf10d%2Fimg%2Favatars%2Fava_0018-512.png", "custom_css": null}, {"id": 6286, "slack_id": "U092GHM3U6L", "display_name": "SinaGHF", "bio": null, "projects_count": 0, "devlogs_count": 0, "votes_count": 0, "ships_count": 0, "projects": [], "coding_time_seconds": 13769, "coding_time_seconds_today": 0, "balance": "You need to have a pocket watcher badge to view this.", "badges": [], "created_at": "2025-06-17T08:38:38.094-04:00", "updated_at": "2025-07-03T19:39:32.311-04:00", "avatar": "https://secure.gravatar.com/avatar/257ea766b4ec69640f654919d9be3960.jpg?s=512&d=https%3A%2F%2Fa.slack-edge.com%2Fdf10d%2Fimg%2Favatars%2Fava_0003-512.png", "custom_css": null}, {"id": 6287, "slack_id": "U0926KFKC1X", "display_name": "Eddie", "bio": null, "projects_count": 1, "devlogs_count": 0, "votes_count": 0, "ships_count": 0, "projects": [{"id": 841, "title": "First Game!!", "devlogs_count": 0, "created_at": "2025-06-17T09:37:20.125-04:00"}], "coding_time_seconds": 7889, "coding_time_seconds_today": 0, "balance": "You need to have a pocket watcher badge to view this.", "badges": [], "created_at": "2025-06-17T08:39:12.414-04:00", "updated_at": "2025-07-03T21:43:58.485-04:00", "avatar": "https://avatars.slack-edge.com/2025-06-17/9055627139926_72034e8c1836824f2a32_original.png", "custom_css": null}, {"id": 6288, "slack_id": "U0926P2561F", "display_name": "prav", "bio": null, "projects_count": 0, "devlogs_count": 0, "votes_count": 0, "ships_count": 0, "projects": [], "coding_time_seconds": 0, "coding_time_seconds_today": 0, "balance": "You need to have a pocket watcher badge to view this.", "badges": [], "created_at": "2025-06-17T08:39:42.251-04:00", "updated_at": "2025-07-03T19:39:32.707-04:00", "avatar": "https://secure.gravatar.com/avatar/25eff0056f34db7f2fb03f8a1b40a211.jpg?s=512&d=https%3A%2F%2Fa.slack-edge.com%2Fdf10d%2Fimg%2Favatars%2Fava_0009-512.png", "custom_css": null}, {"id": 6289, "slack_id": "U0926Q1GKH7", "display_name": "Joshua", "bio": null, "projects_count": 0, "devlogs_count": 0, "votes_count": 0, "ships_count": 0, "projects": [], "coding_time_seconds": 0, "coding_time_seconds_today": 0, "balance": "You need to have a pocket watcher badge to view this.", "badges": [], "created_at": "2025-06-17T08:39:47.137-04:00", "updated_at": "2025-07-03T19:39:32.977-04:00", "avatar": "https://secure.gravatar.com/avatar/6b61ced66be6484edef72c1b34748d4a.jpg?s=512&d=https%3A%2F%2Fa.slack-edge.com%2Fdf10d%2Fimg%2Favatars%2Fava_0014-512.png", "custom_css": null}, {"id": 6290, "slack_id": "U0881Q65QPQ", "display_name": "farica", "bio": null, "projects_count": 1, "devlogs_count": 2, "votes_count": 5, "ships_count": 1, "projects": [{"id": 9216, "title": "virtual bookshelf", "devlogs_count": 2, "created_at": "2025-07-31T02:45:55.624-04:00"}], "coding_time_seconds": 56787, "coding_time_seconds_today": 0, "balance": "You need to have a pocket watcher badge to view this.", "badges": [{"name": "Maiden Voyage", "text": "you shipped your first project! the journey begins...", "icon": "\ud83d\udea2"}], "created_at": "2025-06-17T08:40:12.251-04:00", "updated_at": "2025-09-10T22:54:17.612-04:00", "avatar": "https://secure.gravatar.com/avatar/1f59aaf652f22d99a444a18d0f8c3dfc.jpg?s=512&d=https%3A%2F%2Fa.slack-edge.com%2Fdf10d%2Fimg%2Favatars%2Fava_0001-512.png", "custom_css": null}, {"id": 6291, "slack_id": "U091U6VJGMQ", "display_name": "Shaurya Verma", "bio": null, "projects_count": 3, "devlogs_count": 4, "votes_count": 0, "ships_count": 0, "projects": [{"id": 834, "title": "Competitive Programming", "devlogs_count": 1, "created_at": "2025-06-17T09:30:37.178-04:00"}, {"id": 821, "title": "Waves", "devlogs_count": 1, "created_at": "2025-06-17T09:08:57.335-04:00"}, {"id": 1252, "title": "Portfolio", "devlogs_count": 2, "created_at": "2025-06-18T02:18:57.019-04:00"}], "coding_time_seconds": 218462, "coding_time_seconds_today": 1685, "balance": "You need to have a pocket watcher badge to view this.", "badges": [], "created_at": "2025-06-17T08:40:42.265-04:00", "updated_at": "2025-08-20T02:15:02.076-04:00", "avatar": "https://avatars.slack-edge.com/2025-06-17/9046876039879_d21dd64cee5540fe4420_original.jpg", "custom_css": null}, {"id": 6292, "slack_id": "U091SF6NDB7", "display_name": "Senthamil Selvan", "bio": null, "projects_count": 0, "devlogs_count": 0, "votes_count": 0, "ships_count": 0, "projects": [], "coding_time_seconds": 37165, "coding_time_seconds_today": 0, "balance": "You need to have a pocket watcher badge to view this.", "badges": [], "created_at": "2025-06-17T08:41:38.316-04:00", "updated_at": "2025-07-03T19:39:33.874-04:00", "avatar": "https://avatars.slack-edge.com/2025-06-17/9046881399175_f68ee6cc2d53c3fd097e_original.jpg", "custom_css": null}, {"id": 6293, "slack_id": "U079GDD9AFJ", "display_name": "Mercedes Yimkou", "bio": null, "projects_count": 0, "devlogs_count": 0, "votes_count": 0, "ships_count": 0, "projects": [], "coding_time_seconds": 0, "coding_time_seconds_today": 0, "balance": "You need to have a pocket watcher badge to view this.", "badges": [], "created_at": "2025-06-17T08:42:00.350-04:00", "updated_at": "2025-07-03T19:39:34.141-04:00", "avatar": "https://secure.gravatar.com/avatar/e3b38013f078a2f9ba475ad53f7e919d.jpg?s=512&d=https%3A%2F%2Fa.slack-edge.com%2Fdf10d%2Fimg%2Favatars%2Fava_0007-512.png", "custom_css": null}, {"id": 6294, "slack_id": "U091UJPPNKE", "display_name": "Alric Marvel", "bio": "Gee thanks for visiting my profile, make sure to check out my projects yoooooo", "projects_count": 4, "devlogs_count": 90, "votes_count": 179, "ships_count": 4, "projects": [{"id": 4902, "title": "Portfolio Website (Sick Animations)", "devlogs_count": 4, "created_at": "2025-07-02T05:28:58.251-04:00"}, {"id": 12110, "title": "Pactable (ez agreements)", "devlogs_count": 21, "created_at": "2025-08-23T07:19:20.954-04:00"}, {"id": 6581, "title": "ProComm (Professional Communicator)", "devlogs_count": 37, "created_at": "2025-07-14T11:15:24.786-04:00"}, {"id": 902, "title": "Oncology.AI", "devlogs_count": 29, "created_at": "2025-06-17T10:55:05.381-04:00"}], "coding_time_seconds": 516208, "coding_time_seconds_today": 0, "balance": "You need to have a pocket watcher badge to view this.", "badges": [{"name": "Maiden Voyage", "text": "you shipped your first project! the journey begins...", "icon": "\ud83d\udea2"}, {"name": "Ballot Stuffer", "text": "vote 100 times.", "icon": "https://summer.hackclub.com/assets/i_voted-bf851b48.png"}], "created_at": "2025-06-17T08:42:27.634-04:00", "updated_at": "2025-09-10T22:54:17.726-04:00", "avatar": "https://avatars.slack-edge.com/2025-08-09/9328395317042_99a458d8cd5f4d16bb58_original.png", "custom_css": null}, {"id": 6295, "slack_id": "U091UJPP2MA", "display_name": "SHAKTHI S", "bio": null, "projects_count": 0, "devlogs_count": 0, "votes_count": 0, "ships_count": 0, "projects": [], "coding_time_seconds": 0, "coding_time_seconds_today": 0, "balance": "You need to have a pocket watcher badge to view this.", "badges": [], "created_at": "2025-06-17T08:42:30.865-04:00", "updated_at": "2025-07-03T19:39:34.677-04:00", "avatar": "https://secure.gravatar.com/avatar/3960ee6574730aea3b5568c6e81d2f47.jpg?s=512&d=https%3A%2F%2Fa.slack-edge.com%2Fdf10d%2Fimg%2Favatars%2Fava_0023-512.png", "custom_css": null}, {"id": 6296, "slack_id": "U091U4XFLLS", "display_name": "Prakhar Doneria", "bio": null, "projects_count": 0, "devlogs_count": 0, "votes_count": 0, "ships_count": 0, "projects": [], "coding_time_seconds": 155177, "coding_time_seconds_today": 0, "balance": "You need to have a pocket watcher badge to view this.", "badges": [], "created_at": "2025-06-17T08:42:39.058-04:00", "updated_at": "2025-07-03T19:39:34.938-04:00", "avatar": "https://secure.gravatar.com/avatar/3c96032f9c2de6525055432e176bbee5.jpg?s=512&d=https%3A%2F%2Fa.slack-edge.com%2Fdf10d%2Fimg%2Favatars%2Fava_0021-512.png", "custom_css": null}, {"id": 6297, "slack_id": "U091TNDGHNG", "display_name": "Mnahil Naseer", "bio": "Hello, I'm Mnahil Naseer new in Tech industry.", "projects_count": 0, "devlogs_count": 0, "votes_count": 0, "ships_count": 0, "projects": [], "coding_time_seconds": 34427, "coding_time_seconds_today": 0, "balance": "You need to have a pocket watcher badge to view this.", "badges": [], "created_at": "2025-06-17T08:42:52.055-04:00", "updated_at": "2025-07-07T14:29:33.992-04:00", "avatar": "https://secure.gravatar.com/avatar/b54920c2b0c24b85ef2c31a01a993943.jpg?s=512&d=https%3A%2F%2Fa.slack-edge.com%2Fdf10d%2Fimg%2Favatars%2Fava_0002-512.png", "custom_css": null}, {"id": 6298, "slack_id": "U091U7K5HMY", "display_name": "Athreya", "bio": null, "projects_count": 0, "devlogs_count": 0, "votes_count": 0, "ships_count": 0, "projects": [], "coding_time_seconds": 6974, "coding_time_seconds_today": 0, "balance": "You need to have a pocket watcher badge to view this.", "badges": [], "created_at": "2025-06-17T08:42:56.150-04:00", "updated_at": "2025-07-03T19:39:35.481-04:00", "avatar": "https://secure.gravatar.com/avatar/7909fe07a37958f25bb92fc133fa0e12.jpg?s=512&d=https%3A%2F%2Fa.slack-edge.com%2Fdf10d%2Fimg%2Favatars%2Fava_0015-512.png", "custom_css": null}, {"id": 6299, "slack_id": "U091JL79RGE", "display_name": "Phani Bhushan", "bio": null, "projects_count": 0, "devlogs_count": 0, "votes_count": 0, "ships_count": 0, "projects": [], "coding_time_seconds": 0, "coding_time_seconds_today": 0, "balance": "You need to have a pocket watcher badge to view this.", "badges": [], "created_at": "2025-06-17T08:43:45.114-04:00", "updated_at": "2025-07-03T19:39:35.994-04:00", "avatar": "https://secure.gravatar.com/avatar/d1ec4741d2e8623a0f1cd84835b0745f.jpg?s=512&d=https%3A%2F%2Fa.slack-edge.com%2Fdf10d%2Fimg%2Favatars%2Fava_0025-512.png", "custom_css": null}, {"id": 6300, "slack_id": "U079BKH2CMS", "display_name": "Kirill", "bio": null, "projects_count": 0, "devlogs_count": 0, "votes_count": 0, "ships_count": 0, "projects": [], "coding_time_seconds": 0, "coding_time_seconds_today": 0, "balance": "You need to have a pocket watcher badge to view this.", "badges": [], "created_at": "2025-06-17T08:43:56.014-04:00", "updated_at": "2025-07-05T14:07:54.418-04:00", "avatar": "https://avatars.slack-edge.com/2025-02-17/8451966793991_c05af086508a8a2da5d2_original.jpg", "custom_css": null}], "pagination": {"page": 315, "pages": 1192, "count": 23828, "items": 20}}