{"users": [{"id": 6321, "slack_id": "U091U8YDS90", "display_name": "Abdilatif", "bio": null, "projects_count": 0, "devlogs_count": 0, "votes_count": 0, "ships_count": 0, "projects": [], "coding_time_seconds": 0, "coding_time_seconds_today": 0, "balance": "You need to have a pocket watcher badge to view this.", "badges": [], "created_at": "2025-06-17T08:53:17.560-04:00", "updated_at": "2025-07-03T19:39:41.409-04:00", "avatar": "https://secure.gravatar.com/avatar/b5ef6c78487f9365098c40385349c82f.jpg?s=512&d=https%3A%2F%2Fa.slack-edge.com%2Fdf10d%2Fimg%2Favatars%2Fava_0018-512.png", "custom_css": null}, {"id": 6322, "slack_id": "U091SGVMMA9", "display_name": "Michael Tang", "bio": null, "projects_count": 2, "devlogs_count": 69, "votes_count": 11, "ships_count": 1, "projects": [{"id": 7444, "title": "Zenux", "devlogs_count": 10, "created_at": "2025-07-21T19:32:53.116-04:00"}, {"id": 2138, "title": "HYRA-0", "devlogs_count": 59, "created_at": "2025-06-20T08:48:48.532-04:00"}], "coding_time_seconds": 421396, "coding_time_seconds_today": 0, "balance": "You need to have a pocket watcher badge to view this.", "badges": [{"name": "Maiden Voyage", "text": "you shipped your first project! the journey begins...", "icon": "\ud83d\udea2"}], "created_at": "2025-06-17T08:53:28.477-04:00", "updated_at": "2025-09-10T22:54:18.611-04:00", "avatar": "https://secure.gravatar.com/avatar/f1061eb68bd6673d01e9047f618ca168.jpg?s=512&d=https%3A%2F%2Fa.slack-edge.com%2Fdf10d%2Fimg%2Favatars%2Fava_0004-512.png", "custom_css": null}, {"id": 6323, "slack_id": "U0809LMSFPV", "display_name": "Aly Al-Gendy", "bio": null, "projects_count": 5, "devlogs_count": 6, "votes_count": 33, "ships_count": 3, "projects": [{"id": 1288, "title": "Weather app", "devlogs_count": 2, "created_at": "2025-06-18T05:53:20.278-04:00"}, {"id": 3546, "title": "The Fantastic 3-Bit Binary Counter", "devlogs_count": 3, "created_at": "2025-06-24T16:24:26.546-04:00"}, {"id": 6829, "title": "Gravitational Potential", "devlogs_count": 1, "created_at": "2025-07-16T16:37:21.696-04:00"}, {"id": 8286, "title": "Nuclear energy", "devlogs_count": 0, "created_at": "2025-07-26T01:06:06.141-04:00"}, {"id": 2497, "title": "Flappy Bird", "devlogs_count": 0, "created_at": "2025-06-21T06:31:18.100-04:00"}], "coding_time_seconds": 40596, "coding_time_seconds_today": 0, "balance": "You need to have a pocket watcher badge to view this.", "badges": [{"name": "Maiden Voyage", "text": "you shipped your first project! the journey begins...", "icon": "\ud83d\udea2"}], "created_at": "2025-06-17T08:53:36.723-04:00", "updated_at": "2025-09-10T22:54:18.642-04:00", "avatar": "https://avatars.slack-edge.com/2025-07-11/9184755038229_076e54a29576608ae2d2_original.jpg", "custom_css": null}, {"id": 6324, "slack_id": "U091ULAC728", "display_name": "Emre Tiryaki", "bio": null, "projects_count": 0, "devlogs_count": 0, "votes_count": 0, "ships_count": 0, "projects": [], "coding_time_seconds": 0, "coding_time_seconds_today": 0, "balance": "You need to have a pocket watcher badge to view this.", "badges": [], "created_at": "2025-06-17T08:53:56.490-04:00", "updated_at": "2025-07-03T19:39:42.100-04:00", "avatar": "https://avatars.slack-edge.com/2025-06-17/9055704711126_fbd99f2c1dda9a58f667_original.jpg", "custom_css": null}, {"id": 6325, "slack_id": "U092GL03GQ0", "display_name": "Alok Bhorunde", "bio": null, "projects_count": 0, "devlogs_count": 0, "votes_count": 0, "ships_count": 0, "projects": [], "coding_time_seconds": 0, "coding_time_seconds_today": 0, "balance": "You need to have a pocket watcher badge to view this.", "badges": [], "created_at": "2025-06-17T08:54:07.032-04:00", "updated_at": "2025-07-03T21:55:58.051-04:00", "avatar": "https://avatars.slack-edge.com/2025-06-17/9062710729236_c0507a23c4848e0fc186_original.png", "custom_css": null}, {"id": 6326, "slack_id": "U091U7KSQTC", "display_name": "Nicolas Martinez", "bio": null, "projects_count": 0, "devlogs_count": 0, "votes_count": 0, "ships_count": 0, "projects": [], "coding_time_seconds": 0, "coding_time_seconds_today": 0, "balance": "You need to have a pocket watcher badge to view this.", "badges": [], "created_at": "2025-06-17T08:54:22.237-04:00", "updated_at": "2025-07-03T19:39:42.513-04:00", "avatar": "https://avatars.slack-edge.com/2025-06-17/9084699000592_d9e5fc0f2644a493ba38_original.png", "custom_css": null}, {"id": 6327, "slack_id": "U091ULFJL20", "display_name": "Sarang", "bio": null, "projects_count": 0, "devlogs_count": 0, "votes_count": 0, "ships_count": 0, "projects": [], "coding_time_seconds": 22470, "coding_time_seconds_today": 0, "balance": "You need to have a pocket watcher badge to view this.", "badges": [], "created_at": "2025-06-17T08:54:51.840-04:00", "updated_at": "2025-07-03T19:39:42.793-04:00", "avatar": "https://secure.gravatar.com/avatar/d1ca611949ea11f10b5d23bc9f9fc0bc.jpg?s=512&d=https%3A%2F%2Fa.slack-edge.com%2Fdf10d%2Fimg%2Favatars%2Fava_0025-512.png", "custom_css": null}, {"id": 6328, "slack_id": "U091U8Q6ZV0", "display_name": "Jj", "bio": null, "projects_count": 0, "devlogs_count": 0, "votes_count": 0, "ships_count": 0, "projects": [], "coding_time_seconds": 0, "coding_time_seconds_today": 0, "balance": "You need to have a pocket watcher badge to view this.", "badges": [], "created_at": "2025-06-17T08:54:54.152-04:00", "updated_at": "2025-07-03T19:39:43.053-04:00", "avatar": "https://secure.gravatar.com/avatar/16219f2e7f2fdc376cb4335468edc7ae.jpg?s=512&d=https%3A%2F%2Fa.slack-edge.com%2Fdf10d%2Fimg%2Favatars%2Fava_0008-512.png", "custom_css": null}, {"id": 6329, "slack_id": "U091MLB2UKG", "display_name": "Brent", "bio": null, "projects_count": 0, "devlogs_count": 0, "votes_count": 0, "ships_count": 0, "projects": [], "coding_time_seconds": 0, "coding_time_seconds_today": 0, "balance": "You need to have a pocket watcher badge to view this.", "badges": [], "created_at": "2025-06-17T08:55:04.570-04:00", "updated_at": "2025-07-03T19:39:43.391-04:00", "avatar": "https://avatars.slack-edge.com/2025-06-17/9084702914384_816631ecb956d6d66420_original.png", "custom_css": null}, {"id": 6330, "slack_id": "U091U9N3C3C", "display_name": "Veeramreddy Bhavya", "bio": null, "projects_count": 0, "devlogs_count": 0, "votes_count": 0, "ships_count": 0, "projects": [], "coding_time_seconds": 479, "coding_time_seconds_today": 0, "balance": "You need to have a pocket watcher badge to view this.", "badges": [], "created_at": "2025-06-17T08:55:52.651-04:00", "updated_at": "2025-07-03T19:39:43.667-04:00", "avatar": "https://secure.gravatar.com/avatar/c7aaab84901dbc9b22e875b73a4d9a38.jpg?s=512&d=https%3A%2F%2Fa.slack-edge.com%2Fdf10d%2Fimg%2Favatars%2Fava_0012-512.png", "custom_css": null}, {"id": 6331, "slack_id": "U0926SER601", "display_name": "Srijan Das", "bio": null, "projects_count": 1, "devlogs_count": 0, "votes_count": 0, "ships_count": 0, "projects": [{"id": 823, "title": "HealthScan", "devlogs_count": 0, "created_at": "2025-06-17T09:10:02.492-04:00"}], "coding_time_seconds": 53965, "coding_time_seconds_today": 0, "balance": "You need to have a pocket watcher badge to view this.", "badges": [], "created_at": "2025-06-17T08:56:28.742-04:00", "updated_at": "2025-07-03T19:39:43.923-04:00", "avatar": "https://avatars.slack-edge.com/2025-06-17/9055718561350_f7dc4fa308f0e8f6511e_original.jpg", "custom_css": null}, {"id": 6332, "slack_id": "U091CTG9DN3", "display_name": "Najib", "bio": null, "projects_count": 0, "devlogs_count": 0, "votes_count": 0, "ships_count": 0, "projects": [], "coding_time_seconds": 0, "coding_time_seconds_today": 0, "balance": "You need to have a pocket watcher badge to view this.", "badges": [], "created_at": "2025-06-17T08:56:31.489-04:00", "updated_at": "2025-07-03T19:39:44.190-04:00", "avatar": "https://secure.gravatar.com/avatar/214cb3ea066fe1746015dd1f8cbdc243.jpg?s=512&d=https%3A%2F%2Fa.slack-edge.com%2Fdf10d%2Fimg%2Favatars%2Fava_0017-512.png", "custom_css": null}, {"id": 6333, "slack_id": "U091KAKUZPV", "display_name": "Kartik Bambhaniya", "bio": null, "projects_count": 0, "devlogs_count": 0, "votes_count": 0, "ships_count": 0, "projects": [], "coding_time_seconds": 27024, "coding_time_seconds_today": 0, "balance": "You need to have a pocket watcher badge to view this.", "badges": [], "created_at": "2025-06-17T08:57:00.201-04:00", "updated_at": "2025-07-03T19:39:44.458-04:00", "avatar": "https://avatars.slack-edge.com/2025-06-17/9062347769954_901f57bd8e48f51e5373_original.jpg", "custom_css": null}, {"id": 6334, "slack_id": "U091ATA8V7H", "display_name": "Mehak", "bio": null, "projects_count": 1, "devlogs_count": 0, "votes_count": 0, "ships_count": 0, "projects": [{"id": 988, "title": "finanetagging", "devlogs_count": 0, "created_at": "2025-06-17T13:02:02.280-04:00"}], "coding_time_seconds": 53287, "coding_time_seconds_today": 0, "balance": "You need to have a pocket watcher badge to view this.", "badges": [], "created_at": "2025-06-17T08:59:35.135-04:00", "updated_at": "2025-07-03T19:39:44.731-04:00", "avatar": "https://secure.gravatar.com/avatar/d1dc0143d497deb7cba5f1a914e75c41.jpg?s=512&d=https%3A%2F%2Fa.slack-edge.com%2Fdf10d%2Fimg%2Favatars%2Fava_0016-512.png", "custom_css": null}, {"id": 6335, "slack_id": "U091MGE35GT", "display_name": "Giovanni Schiavo", "bio": null, "projects_count": 0, "devlogs_count": 0, "votes_count": 0, "ships_count": 0, "projects": [], "coding_time_seconds": 0, "coding_time_seconds_today": 0, "balance": "You need to have a pocket watcher badge to view this.", "badges": [], "created_at": "2025-06-17T08:59:35.281-04:00", "updated_at": "2025-07-03T19:39:44.995-04:00", "avatar": "https://avatars.slack-edge.com/2025-06-17/9062739920548_e4849452686e288b913e_original.png", "custom_css": null}, {"id": 6336, "slack_id": "U091CTXQ8AK", "display_name": "Fabricio", "bio": null, "projects_count": 0, "devlogs_count": 0, "votes_count": 0, "ships_count": 0, "projects": [], "coding_time_seconds": 1114, "coding_time_seconds_today": 0, "balance": "You need to have a pocket watcher badge to view this.", "badges": [], "created_at": "2025-06-17T09:00:16.926-04:00", "updated_at": "2025-07-03T19:39:45.262-04:00", "avatar": "https://secure.gravatar.com/avatar/2a9c08b2e6dae2259adce847daaa347e.jpg?s=512&d=https%3A%2F%2Fa.slack-edge.com%2Fdf10d%2Fimg%2Favatars%2Fava_0022-512.png", "custom_css": null}, {"id": 6337, "slack_id": "U091UMF52MS", "display_name": "Meet", "bio": null, "projects_count": 0, "devlogs_count": 0, "votes_count": 0, "ships_count": 0, "projects": [], "coding_time_seconds": 2810, "coding_time_seconds_today": 0, "balance": "You need to have a pocket watcher badge to view this.", "badges": [], "created_at": "2025-06-17T09:00:34.998-04:00", "updated_at": "2025-07-03T19:39:45.518-04:00", "avatar": "https://secure.gravatar.com/avatar/076e6fd8febdda45a72028f7baf88150.jpg?s=512&d=https%3A%2F%2Fa.slack-edge.com%2Fdf10d%2Fimg%2Favatars%2Fava_0021-512.png", "custom_css": null}, {"id": 6338, "slack_id": "U091MG9T1KM", "display_name": "J Hackwork", "bio": null, "projects_count": 0, "devlogs_count": 0, "votes_count": 0, "ships_count": 0, "projects": [], "coding_time_seconds": 0, "coding_time_seconds_today": 0, "balance": "You need to have a pocket watcher badge to view this.", "badges": [], "created_at": "2025-06-17T09:01:01.245-04:00", "updated_at": "2025-07-03T19:39:45.778-04:00", "avatar": "https://secure.gravatar.com/avatar/eab3406a265657939cb400d1cd557946.jpg?s=512&d=https%3A%2F%2Fa.slack-edge.com%2Fdf10d%2Fimg%2Favatars%2Fava_0020-512.png", "custom_css": null}, {"id": 6339, "slack_id": "U091GGVKGPM", "display_name": "Muhammad Hamza", "bio": null, "projects_count": 0, "devlogs_count": 0, "votes_count": 0, "ships_count": 0, "projects": [], "coding_time_seconds": 0, "coding_time_seconds_today": 0, "balance": "You need to have a pocket watcher badge to view this.", "badges": [], "created_at": "2025-06-17T09:01:25.222-04:00", "updated_at": "2025-07-03T19:39:46.041-04:00", "avatar": "https://secure.gravatar.com/avatar/001e06cb366f6d06eef9963bd8f6ac65.jpg?s=512&d=https%3A%2F%2Fa.slack-edge.com%2Fdf10d%2Fimg%2Favatars%2Fava_0007-512.png", "custom_css": null}, {"id": 6340, "slack_id": "U07Q140KVGF", "display_name": "abbad", "bio": null, "projects_count": 0, "devlogs_count": 0, "votes_count": 0, "ships_count": 0, "projects": [], "coding_time_seconds": 37476, "coding_time_seconds_today": 0, "balance": "You need to have a pocket watcher badge to view this.", "badges": [], "created_at": "2025-06-17T09:01:48.280-04:00", "updated_at": "2025-07-03T19:39:46.309-04:00", "avatar": "https://avatars.slack-edge.com/2024-10-04/7817193284199_e3eff1edc557e872e170_original.jpg", "custom_css": null}], "pagination": {"page": 317, "pages": 1192, "count": 23828, "items": 20}}