{"users": [{"id": 6361, "slack_id": "U091MJL3ZJP", "display_name": "StWaffle", "bio": null, "projects_count": 0, "devlogs_count": 0, "votes_count": 0, "ships_count": 0, "projects": [], "coding_time_seconds": 0, "coding_time_seconds_today": 0, "balance": "You need to have a pocket watcher badge to view this.", "badges": [], "created_at": "2025-06-17T09:09:41.108-04:00", "updated_at": "2025-07-03T19:39:51.540-04:00", "avatar": "https://secure.gravatar.com/avatar/6b3c0bb8e534f961ea11166300f78e30.jpg?s=512&d=https%3A%2F%2Fa.slack-edge.com%2Fdf10d%2Fimg%2Favatars%2Fava_0014-512.png", "custom_css": null}, {"id": 6362, "slack_id": "U091G1C0FP0", "display_name": "dylandombro", "bio": null, "projects_count": 0, "devlogs_count": 0, "votes_count": 0, "ships_count": 0, "projects": [], "coding_time_seconds": 0, "coding_time_seconds_today": 0, "balance": "You need to have a pocket watcher badge to view this.", "badges": [], "created_at": "2025-06-17T09:09:41.299-04:00", "updated_at": "2025-07-03T19:39:51.809-04:00", "avatar": "https://secure.gravatar.com/avatar/a9adfec8e329f71f12425069f1eade92.jpg?s=512&d=https%3A%2F%2Fa.slack-edge.com%2Fdf10d%2Fimg%2Favatars%2Fava_0014-512.png", "custom_css": null}, {"id": 6363, "slack_id": "U091HBSCD9R", "display_name": "Blanca N", "bio": null, "projects_count": 0, "devlogs_count": 0, "votes_count": 0, "ships_count": 0, "projects": [], "coding_time_seconds": 0, "coding_time_seconds_today": 0, "balance": "You need to have a pocket watcher badge to view this.", "badges": [], "created_at": "2025-06-17T09:10:12.321-04:00", "updated_at": "2025-07-03T19:39:52.083-04:00", "avatar": "https://secure.gravatar.com/avatar/67b52fad7031aa924306753d56c337f1.jpg?s=512&d=https%3A%2F%2Fa.slack-edge.com%2Fdf10d%2Fimg%2Favatars%2Fava_0023-512.png", "custom_css": null}, {"id": 6364, "slack_id": "U091D0SVDF1", "display_name": "Mouhamed Sylla", "bio": null, "projects_count": 0, "devlogs_count": 0, "votes_count": 0, "ships_count": 0, "projects": [], "coding_time_seconds": 498263, "coding_time_seconds_today": 0, "balance": "You need to have a pocket watcher badge to view this.", "badges": [], "created_at": "2025-06-17T09:10:18.704-04:00", "updated_at": "2025-07-03T19:39:52.364-04:00", "avatar": "https://secure.gravatar.com/avatar/236ae6663ae365542f85d4fdc69e78a1.jpg?s=512&d=https%3A%2F%2Fa.slack-edge.com%2Fdf10d%2Fimg%2Favatars%2Fava_0025-512.png", "custom_css": null}, {"id": 6365, "slack_id": "U091MJF904T", "display_name": "messafi", "bio": null, "projects_count": 0, "devlogs_count": 0, "votes_count": 0, "ships_count": 0, "projects": [], "coding_time_seconds": 0, "coding_time_seconds_today": 0, "balance": "You need to have a pocket watcher badge to view this.", "badges": [], "created_at": "2025-06-17T09:10:30.224-04:00", "updated_at": "2025-07-03T19:39:52.638-04:00", "avatar": "https://secure.gravatar.com/avatar/e939a7f8d00a5070cca601e982f87403.jpg?s=512&d=https%3A%2F%2Fa.slack-edge.com%2Fdf10d%2Fimg%2Favatars%2Fava_0010-512.png", "custom_css": null}, {"id": 6366, "slack_id": "U091UPK480L", "display_name": "divyansh verma", "bio": null, "projects_count": 1, "devlogs_count": 0, "votes_count": 0, "ships_count": 0, "projects": [{"id": 872, "title": "discord bot", "devlogs_count": 0, "created_at": "2025-06-17T10:15:15.822-04:00"}], "coding_time_seconds": 13287, "coding_time_seconds_today": 0, "balance": "You need to have a pocket watcher badge to view this.", "badges": [], "created_at": "2025-06-17T09:10:34.888-04:00", "updated_at": "2025-07-23T05:54:23.900-04:00", "avatar": "https://secure.gravatar.com/avatar/6bece7e66ecf6767907f9ea3d68b9493.jpg?s=512&d=https%3A%2F%2Fa.slack-edge.com%2Fdf10d%2Fimg%2Favatars%2Fava_0002-512.png", "custom_css": null}, {"id": 6367, "slack_id": "U091MP0J478", "display_name": "Shelton Tapiwanashe Ndindana", "bio": null, "projects_count": 0, "devlogs_count": 0, "votes_count": 0, "ships_count": 0, "projects": [], "coding_time_seconds": 0, "coding_time_seconds_today": 0, "balance": "You need to have a pocket watcher badge to view this.", "badges": [], "created_at": "2025-06-17T09:10:40.306-04:00", "updated_at": "2025-07-03T19:39:53.178-04:00", "avatar": "https://avatars.slack-edge.com/2025-06-17/9047047528007_ee1ec87d284429a86353_original.png", "custom_css": null}, {"id": 6368, "slack_id": "U091SLBMSGM", "display_name": "Lennart", "bio": null, "projects_count": 0, "devlogs_count": 0, "votes_count": 0, "ships_count": 0, "projects": [], "coding_time_seconds": 21389, "coding_time_seconds_today": 0, "balance": "You need to have a pocket watcher badge to view this.", "badges": [], "created_at": "2025-06-17T09:11:13.642-04:00", "updated_at": "2025-07-03T19:39:53.450-04:00", "avatar": "https://secure.gravatar.com/avatar/0be802acaca72fb7a39813e74bac6537.jpg?s=512&d=https%3A%2F%2Fa.slack-edge.com%2Fdf10d%2Fimg%2Favatars%2Fava_0009-512.png", "custom_css": null}, {"id": 6369, "slack_id": "U0923LN3WKT", "display_name": "Pragun", "bio": null, "projects_count": 0, "devlogs_count": 0, "votes_count": 0, "ships_count": 0, "projects": [], "coding_time_seconds": 0, "coding_time_seconds_today": 0, "balance": "You need to have a pocket watcher badge to view this.", "badges": [], "created_at": "2025-06-17T09:12:05.526-04:00", "updated_at": "2025-07-03T19:39:53.726-04:00", "avatar": "https://secure.gravatar.com/avatar/66f45149181367fb467c492422bbbd2e.jpg?s=512&d=https%3A%2F%2Fa.slack-edge.com%2Fdf10d%2Fimg%2Favatars%2Fava_0022-512.png", "custom_css": null}, {"id": 6370, "slack_id": "U092GPBRG2U", "display_name": "creperozelot", "bio": null, "projects_count": 2, "devlogs_count": 1, "votes_count": 0, "ships_count": 1, "projects": [{"id": 852, "title": "StreamlineCloud", "devlogs_count": 1, "created_at": "2025-06-17T09:48:18.543-04:00"}, {"id": 5871, "title": "Wahlomat Clone", "devlogs_count": 0, "created_at": "2025-07-08T16:19:59.865-04:00"}], "coding_time_seconds": 185384, "coding_time_seconds_today": 0, "balance": "You need to have a pocket watcher badge to view this.", "badges": [{"name": "Maiden Voyage", "text": "you shipped your first project! the journey begins...", "icon": "\ud83d\udea2"}], "created_at": "2025-06-17T09:12:14.160-04:00", "updated_at": "2025-09-10T22:54:20.040-04:00", "avatar": "https://secure.gravatar.com/avatar/5168b1ff842ee93dca72ac6e286abfe0.jpg?s=512&d=https%3A%2F%2Fa.slack-edge.com%2Fdf10d%2Fimg%2Favatars%2Fava_0017-512.png", "custom_css": null}, {"id": 6371, "slack_id": "U091B7XKAMR", "display_name": "Ian", "bio": null, "projects_count": 1, "devlogs_count": 0, "votes_count": 0, "ships_count": 0, "projects": [{"id": 1752, "title": "Hololive-dle", "devlogs_count": 0, "created_at": "2025-06-19T06:58:52.262-04:00"}], "coding_time_seconds": 3024, "coding_time_seconds_today": 0, "balance": "You need to have a pocket watcher badge to view this.", "badges": [], "created_at": "2025-06-17T09:12:29.640-04:00", "updated_at": "2025-08-19T20:30:47.766-04:00", "avatar": "https://avatars.slack-edge.com/2025-08-19/9388808426465_4ab9ddcbb10067ebb1bb_original.jpg", "custom_css": null}, {"id": 6372, "slack_id": "U091MPSDRKQ", "display_name": "Pasindu Akalpa", "bio": null, "projects_count": 0, "devlogs_count": 0, "votes_count": 0, "ships_count": 0, "projects": [], "coding_time_seconds": 0, "coding_time_seconds_today": 0, "balance": "You need to have a pocket watcher badge to view this.", "badges": [], "created_at": "2025-06-17T09:12:47.879-04:00", "updated_at": "2025-07-05T20:07:32.318-04:00", "avatar": "https://avatars.slack-edge.com/2025-06-17/9075023359329_de9007c8a4fd5cc21864_original.jpg", "custom_css": null}, {"id": 6373, "slack_id": "U091SJTHP37", "display_name": "000 Cicada", "bio": null, "projects_count": 0, "devlogs_count": 0, "votes_count": 0, "ships_count": 0, "projects": [], "coding_time_seconds": 0, "coding_time_seconds_today": 0, "balance": "You need to have a pocket watcher badge to view this.", "badges": [], "created_at": "2025-06-17T09:13:28.702-04:00", "updated_at": "2025-07-04T02:25:34.453-04:00", "avatar": "https://avatars.slack-edge.com/2025-06-17/9047062704359_8e7c3e3a4c23f3b1f36b_original.jpg", "custom_css": null}, {"id": 6374, "slack_id": "U081X0CDXJS", "display_name": "askfsRGNWOGNWOEHG", "bio": null, "projects_count": 1, "devlogs_count": 1, "votes_count": 0, "ships_count": 0, "projects": [{"id": 1865, "title": "Chess 2: Now Online!", "devlogs_count": 1, "created_at": "2025-06-19T13:13:01.272-04:00"}], "coding_time_seconds": 104401, "coding_time_seconds_today": 0, "balance": "You need to have a pocket watcher badge to view this.", "badges": [], "created_at": "2025-06-17T09:13:30.956-04:00", "updated_at": "2025-07-03T19:39:54.878-04:00", "avatar": "https://secure.gravatar.com/avatar/f46af6bd69f2fa942e3b6c936a292ca0.jpg?s=512&d=https%3A%2F%2Fa.slack-edge.com%2Fdf10d%2Fimg%2Favatars%2Fava_0004-512.png", "custom_css": null}, {"id": 6375, "slack_id": "U092GLUPK1N", "display_name": "Gurmanavdeep Singh Mahal", "bio": null, "projects_count": 0, "devlogs_count": 0, "votes_count": 0, "ships_count": 0, "projects": [], "coding_time_seconds": 0, "coding_time_seconds_today": 0, "balance": "You need to have a pocket watcher badge to view this.", "badges": [], "created_at": "2025-06-17T09:14:54.514-04:00", "updated_at": "2025-07-03T19:39:55.151-04:00", "avatar": "https://secure.gravatar.com/avatar/e78581717443c10253925ccb0e74369c.jpg?s=512&d=https%3A%2F%2Fa.slack-edge.com%2Fdf10d%2Fimg%2Favatars%2Fava_0020-512.png", "custom_css": null}, {"id": 6376, "slack_id": "U091LQ1RUSX", "display_name": "Ingridius Kisiwani", "bio": null, "projects_count": 1, "devlogs_count": 0, "votes_count": 0, "ships_count": 0, "projects": [{"id": 1459, "title": "InstaBot", "devlogs_count": 0, "created_at": "2025-06-18T15:34:27.834-04:00"}], "coding_time_seconds": 37652, "coding_time_seconds_today": 0, "balance": "You need to have a pocket watcher badge to view this.", "badges": [], "created_at": "2025-06-17T09:15:05.306-04:00", "updated_at": "2025-07-03T19:39:55.415-04:00", "avatar": "https://secure.gravatar.com/avatar/3fb1ec8a1de745b1e8a57d85d93c0d7a.jpg?s=512&d=https%3A%2F%2Fa.slack-edge.com%2Fdf10d%2Fimg%2Favatars%2Fava_0011-512.png", "custom_css": null}, {"id": 6377, "slack_id": "U09270FUGHF", "display_name": "Timothy Liu", "bio": null, "projects_count": 2, "devlogs_count": 12, "votes_count": 62, "ships_count": 1, "projects": [{"id": 4297, "title": "Tanks: the Crusades", "devlogs_count": 10, "created_at": "2025-06-28T18:53:03.598-04:00"}, {"id": 842, "title": "Note", "devlogs_count": 2, "created_at": "2025-06-17T09:38:20.919-04:00"}], "coding_time_seconds": 658704, "coding_time_seconds_today": 0, "balance": "You need to have a pocket watcher badge to view this.", "badges": [{"name": "Maiden Voyage", "text": "you shipped your first project! the journey begins...", "icon": "\ud83d\udea2"}], "created_at": "2025-06-17T09:15:18.439-04:00", "updated_at": "2025-09-21T16:30:28.578-04:00", "avatar": "https://avatars.slack-edge.com/2025-06-19/9087185827857_7a0c62c612b256da6a65_original.png", "custom_css": null}, {"id": 6378, "slack_id": "U09270R3C9F", "display_name": "Aarav Goel", "bio": null, "projects_count": 0, "devlogs_count": 0, "votes_count": 0, "ships_count": 0, "projects": [], "coding_time_seconds": 29472, "coding_time_seconds_today": 0, "balance": "You need to have a pocket watcher badge to view this.", "badges": [], "created_at": "2025-06-17T09:15:45.927-04:00", "updated_at": "2025-07-03T19:39:55.813-04:00", "avatar": "https://avatars.slack-edge.com/2025-06-17/9075041064369_6c644d04b18526b6fa9b_original.png", "custom_css": null}, {"id": 6379, "slack_id": "U091D1V4HST", "display_name": "Negahertz", "bio": null, "projects_count": 0, "devlogs_count": 0, "votes_count": 0, "ships_count": 0, "projects": [], "coding_time_seconds": 0, "coding_time_seconds_today": 0, "balance": "You need to have a pocket watcher badge to view this.", "badges": [], "created_at": "2025-06-17T09:16:05.130-04:00", "updated_at": "2025-07-03T19:39:56.077-04:00", "avatar": "https://secure.gravatar.com/avatar/fd6b8a11dc14e47d3057f004ba61742a.jpg?s=512&d=https%3A%2F%2Fa.slack-edge.com%2Fdf10d%2Fimg%2Favatars%2Fava_0011-512.png", "custom_css": null}, {"id": 6380, "slack_id": "U092FKLRDGQ", "display_name": "Malik", "bio": null, "projects_count": 0, "devlogs_count": 0, "votes_count": 0, "ships_count": 0, "projects": [], "coding_time_seconds": 0, "coding_time_seconds_today": 0, "balance": "You need to have a pocket watcher badge to view this.", "badges": [], "created_at": "2025-06-17T09:16:14.048-04:00", "updated_at": "2025-07-03T19:39:56.968-04:00", "avatar": "https://secure.gravatar.com/avatar/ca997c4648008d7544d42a00c38e56b6.jpg?s=512&d=https%3A%2F%2Fa.slack-edge.com%2Fdf10d%2Fimg%2Favatars%2Fava_0000-512.png", "custom_css": null}], "pagination": {"page": 319, "pages": 1192, "count": 23828, "items": 20}}