{"users": [{"id": 621, "slack_id": "U07DPHQCCCS", "display_name": "mattsoh", "bio": null, "projects_count": 2, "devlogs_count": 0, "votes_count": 0, "ships_count": 0, "projects": [{"id": 6817, "title": "aha-mobile", "devlogs_count": 0, "created_at": "2025-07-16T14:32:54.324-04:00"}, {"id": 7179, "title": "Aha!", "devlogs_count": 0, "created_at": "2025-07-19T17:09:27.652-04:00"}], "coding_time_seconds": 205157, "coding_time_seconds_today": 0, "balance": "You need to have a pocket watcher badge to view this.", "badges": [], "created_at": "2025-06-16T12:04:03.671-04:00", "updated_at": "2025-09-04T12:08:32.002-04:00", "avatar": "https://avatars.slack-edge.com/2025-05-23/8958344494897_cda522776bd3292ed7b9_original.png", "custom_css": null}, {"id": 622, "slack_id": "U091PHV0CTW", "display_name": "Abie Koshy", "bio": null, "projects_count": 0, "devlogs_count": 0, "votes_count": 0, "ships_count": 0, "projects": [], "coding_time_seconds": 0, "coding_time_seconds_today": 0, "balance": "You need to have a pocket watcher badge to view this.", "badges": [], "created_at": "2025-06-16T12:04:04.159-04:00", "updated_at": "2025-07-03T19:13:50.315-04:00", "avatar": "https://avatars.slack-edge.com/2025-06-16/9055411108917_739c1ac033d4fd51b4c8_original.jpg", "custom_css": null}, {"id": 623, "slack_id": "U091M9Z9TGD", "display_name": "Schlorenz", "bio": null, "projects_count": 0, "devlogs_count": 0, "votes_count": 0, "ships_count": 0, "projects": [], "coding_time_seconds": 0, "coding_time_seconds_today": 0, "balance": "You need to have a pocket watcher badge to view this.", "badges": [], "created_at": "2025-06-16T12:04:04.583-04:00", "updated_at": "2025-07-03T19:13:50.587-04:00", "avatar": "https://secure.gravatar.com/avatar/e833c62919670791d8e72a2737121d84.jpg?s=512&d=https%3A%2F%2Fa.slack-edge.com%2Fdf10d%2Fimg%2Favatars%2Fava_0026-512.png", "custom_css": null}, {"id": 624, "slack_id": "U091G8S8KC6", "display_name": "LQ458", "bio": null, "projects_count": 1, "devlogs_count": 3, "votes_count": 1, "ships_count": 0, "projects": [{"id": 9194, "title": "LoveRecord", "devlogs_count": 3, "created_at": "2025-07-30T23:32:14.819-04:00"}], "coding_time_seconds": 192657, "coding_time_seconds_today": 171, "balance": "You need to have a pocket watcher badge to view this.", "badges": [], "created_at": "2025-06-16T12:04:06.067-04:00", "updated_at": "2025-08-23T00:21:36.873-04:00", "avatar": "https://secure.gravatar.com/avatar/c756ebe845010a2a2e680bcc4c95ec96.jpg?s=512&d=https%3A%2F%2Fa.slack-edge.com%2Fdf10d%2Fimg%2Favatars%2Fava_0003-512.png", "custom_css": null}, {"id": 625, "slack_id": "U08JGKYRM0C", "display_name": "Liam Owen", "bio": null, "projects_count": 2, "devlogs_count": 0, "votes_count": 1, "ships_count": 0, "projects": [{"id": 1925, "title": "MarsCast", "devlogs_count": 0, "created_at": "2025-06-19T16:17:47.171-04:00"}, {"id": 1452, "title": "Racer", "devlogs_count": 0, "created_at": "2025-06-18T15:15:15.086-04:00"}], "coding_time_seconds": 2696, "coding_time_seconds_today": 0, "balance": "You need to have a pocket watcher badge to view this.", "badges": [], "created_at": "2025-06-16T12:04:11.658-04:00", "updated_at": "2025-07-03T19:13:51.137-04:00", "avatar": "https://secure.gravatar.com/avatar/91bcb7e92507ff5afc1650ed71e10169.jpg?s=512&d=https%3A%2F%2Fa.slack-edge.com%2Fdf10d%2Fimg%2Favatars%2Fava_0019-512.png", "custom_css": null}, {"id": 626, "slack_id": "U091NT7NJ4S", "display_name": "Gerg\u0151 Maros\u00e1n", "bio": null, "projects_count": 2, "devlogs_count": 10, "votes_count": 39, "ships_count": 1, "projects": [{"id": 2499, "title": "Fabric Realm", "devlogs_count": 1, "created_at": "2025-06-21T06:35:03.613-04:00"}, {"id": 79, "title": "Blogs", "devlogs_count": 9, "created_at": "2025-06-16T12:20:06.339-04:00"}], "coding_time_seconds": 252839, "coding_time_seconds_today": 1431, "balance": "You need to have a pocket watcher badge to view this.", "badges": [{"name": "Maiden Voyage", "text": "you shipped your first project! the journey begins...", "icon": "\ud83d\udea2"}], "created_at": "2025-06-16T12:04:18.654-04:00", "updated_at": "2025-09-10T22:51:26.840-04:00", "avatar": "https://avatars.slack-edge.com/2025-06-16/9069532381569_c93a4e5d7b00ec853fda_original.jpg", "custom_css": null}, {"id": 627, "slack_id": "U091MBB1WMB", "display_name": "Isaac Northington", "bio": null, "projects_count": 0, "devlogs_count": 0, "votes_count": 0, "ships_count": 0, "projects": [], "coding_time_seconds": 0, "coding_time_seconds_today": 0, "balance": "You need to have a pocket watcher badge to view this.", "badges": [], "created_at": "2025-06-16T12:04:20.928-04:00", "updated_at": "2025-07-03T19:13:51.688-04:00", "avatar": "https://secure.gravatar.com/avatar/cda62d085cc9916db4e0a2d72cef801c.jpg?s=512&d=https%3A%2F%2Fa.slack-edge.com%2Fdf10d%2Fimg%2Favatars%2Fava_0006-512.png", "custom_css": null}, {"id": 628, "slack_id": "U082UJJJ9HQ", "display_name": "Gamecooler19", "bio": "\r\nResults-driven Grade 12 student and passionate software developer with 6 years of coding experience and 4 years of professional development. Specialized in Python programming, AI/ML applications, and full-stack web development.\r\n\r\nFounded Kanopus Development, an open-source organization focusing on AI-powered tools and developer productivity solutions. Achieved global rank 355 out of 15,000 participants in HPE Codewars 2023, demonstrating exceptional problem-solving abilities.\r\n\r\nProven track record of delivering scalable applications that serve 10,000+ users and increase client engagement by 28-35%.\r\n", "projects_count": 0, "devlogs_count": 11, "votes_count": 42, "ships_count": 0, "projects": [], "coding_time_seconds": 847940, "coding_time_seconds_today": 0, "balance": "You need to have a pocket watcher badge to view this.", "badges": [{"name": "Maiden Voyage", "text": "you shipped your first project! the journey begins...", "icon": "\ud83d\udea2"}], "created_at": "2025-06-16T12:04:21.641-04:00", "updated_at": "2025-09-10T22:51:26.901-04:00", "avatar": "https://avatars.slack-edge.com/2024-11-29/8099866840467_52b5ea868a8268def1d9_original.jpg", "custom_css": null}, {"id": 629, "slack_id": "U091P4V1WH0", "display_name": "Hemanth", "bio": null, "projects_count": 0, "devlogs_count": 0, "votes_count": 0, "ships_count": 0, "projects": [], "coding_time_seconds": 0, "coding_time_seconds_today": 0, "balance": "You need to have a pocket watcher badge to view this.", "badges": [], "created_at": "2025-06-16T12:04:22.486-04:00", "updated_at": "2025-07-03T19:13:52.100-04:00", "avatar": "https://secure.gravatar.com/avatar/78ef05846ffdb5e67fbe909f83efc712.jpg?s=512&d=https%3A%2F%2Fa.slack-edge.com%2Fdf10d%2Fimg%2Favatars%2Fava_0021-512.png", "custom_css": null}, {"id": 630, "slack_id": "U08C8FA4TNE", "display_name": "Alejandra", "bio": null, "projects_count": 0, "devlogs_count": 0, "votes_count": 0, "ships_count": 0, "projects": [], "coding_time_seconds": 0, "coding_time_seconds_today": 0, "balance": "You need to have a pocket watcher badge to view this.", "badges": [], "created_at": "2025-06-16T12:04:24.454-04:00", "updated_at": "2025-07-03T19:13:52.366-04:00", "avatar": "https://secure.gravatar.com/avatar/4a73dbaa747f88e8ee1dfd92d8979770.jpg?s=512&d=https%3A%2F%2Fa.slack-edge.com%2Fdf10d%2Fimg%2Favatars%2Fava_0007-512.png", "custom_css": null}, {"id": 631, "slack_id": "U091PHSSYP6", "display_name": "ZANNATUL ADON SABIHA 220042123", "bio": null, "projects_count": 0, "devlogs_count": 0, "votes_count": 0, "ships_count": 0, "projects": [], "coding_time_seconds": 0, "coding_time_seconds_today": 0, "balance": "You need to have a pocket watcher badge to view this.", "badges": [], "created_at": "2025-06-16T12:04:26.318-04:00", "updated_at": "2025-07-03T19:13:52.631-04:00", "avatar": "https://avatars.slack-edge.com/2025-06-16/9050314071382_6e91ac53d6f01beb46a7_original.png", "custom_css": null}, {"id": 632, "slack_id": "U092BHUK1B2", "display_name": "Hemanth", "bio": null, "projects_count": 0, "devlogs_count": 0, "votes_count": 0, "ships_count": 0, "projects": [], "coding_time_seconds": 0, "coding_time_seconds_today": 0, "balance": "You need to have a pocket watcher badge to view this.", "badges": [], "created_at": "2025-06-16T12:04:48.694-04:00", "updated_at": "2025-07-03T19:13:52.905-04:00", "avatar": "https://secure.gravatar.com/avatar/a9ccdcc161c4f5ac0f5ea4159e96cc6d.jpg?s=512&d=https%3A%2F%2Fa.slack-edge.com%2Fdf10d%2Fimg%2Favatars%2Fava_0024-512.png", "custom_css": null}, {"id": 633, "slack_id": "U092BJHNFPS", "display_name": "Joan", "bio": null, "projects_count": 0, "devlogs_count": 0, "votes_count": 1, "ships_count": 0, "projects": [], "coding_time_seconds": 78464, "coding_time_seconds_today": 0, "balance": "You need to have a pocket watcher badge to view this.", "badges": [], "created_at": "2025-06-16T12:04:55.304-04:00", "updated_at": "2025-08-10T09:25:33.080-04:00", "avatar": "https://avatars.slack-edge.com/2025-06-27/9139150165920_f6e07adbc149107c3549_original.jpg", "custom_css": null}, {"id": 634, "slack_id": "U0921MT3G9F", "display_name": "penzboti", "bio": null, "projects_count": 5, "devlogs_count": 6, "votes_count": 0, "ships_count": 0, "projects": [{"id": 218, "title": "html", "devlogs_count": 0, "created_at": "2025-06-16T15:46:37.504-04:00"}, {"id": 2784, "title": "The Cycle Reborn Settings", "devlogs_count": 6, "created_at": "2025-06-22T04:20:19.077-04:00"}, {"id": 2788, "title": "Wordlearn", "devlogs_count": 0, "created_at": "2025-06-22T04:31:44.255-04:00"}, {"id": 2791, "title": "MC-playtime", "devlogs_count": 0, "created_at": "2025-06-22T04:32:51.890-04:00"}, {"id": 2792, "title": "puzzle", "devlogs_count": 0, "created_at": "2025-06-22T04:34:30.092-04:00"}], "coding_time_seconds": 205760, "coding_time_seconds_today": 0, "balance": "You need to have a pocket watcher badge to view this.", "badges": [], "created_at": "2025-06-16T12:04:55.717-04:00", "updated_at": "2025-07-03T19:13:53.447-04:00", "avatar": "https://secure.gravatar.com/avatar/a4d8b39040926e7fe66a78e8635b154b.jpg?s=512&d=https%3A%2F%2Fa.slack-edge.com%2Fdf10d%2Fimg%2Favatars%2Fava_0007-512.png", "custom_css": null}, {"id": 635, "slack_id": "U091G8Z48BG", "display_name": "Alex", "bio": null, "projects_count": 0, "devlogs_count": 0, "votes_count": 0, "ships_count": 0, "projects": [], "coding_time_seconds": 0, "coding_time_seconds_today": 0, "balance": "You need to have a pocket watcher badge to view this.", "badges": [], "created_at": "2025-06-16T12:04:56.839-04:00", "updated_at": "2025-07-03T19:13:53.720-04:00", "avatar": "https://secure.gravatar.com/avatar/a43ac6b2e2219dd54d7025538e56c514.jpg?s=512&d=https%3A%2F%2Fa.slack-edge.com%2Fdf10d%2Fimg%2Favatars%2Fava_0021-512.png", "custom_css": null}, {"id": 636, "slack_id": "U0917JXNKUP", "display_name": "Aman Sunesh", "bio": null, "projects_count": 0, "devlogs_count": 0, "votes_count": 0, "ships_count": 0, "projects": [], "coding_time_seconds": 0, "coding_time_seconds_today": 0, "balance": "You need to have a pocket watcher badge to view this.", "badges": [], "created_at": "2025-06-16T12:05:08.492-04:00", "updated_at": "2025-07-03T19:13:53.989-04:00", "avatar": "https://avatars.slack-edge.com/2025-06-16/9050319372038_6af3616d38f36d6fdeb8_original.png", "custom_css": null}, {"id": 637, "slack_id": "U091P4VCJTC", "display_name": "anchietae", "bio": null, "projects_count": 1, "devlogs_count": 8, "votes_count": 23, "ships_count": 1, "projects": [{"id": 76, "title": "Domain", "devlogs_count": 8, "created_at": "2025-06-16T12:18:00.204-04:00"}], "coding_time_seconds": 93065, "coding_time_seconds_today": 0, "balance": "You need to have a pocket watcher badge to view this.", "badges": [{"name": "Maiden Voyage", "text": "you shipped your first project! the journey begins...", "icon": "\ud83d\udea2"}], "created_at": "2025-06-16T12:05:10.120-04:00", "updated_at": "2025-09-10T22:51:27.150-04:00", "avatar": "https://secure.gravatar.com/avatar/e67b1a2e173010e9cecd292c575c4a05.jpg?s=512&d=https%3A%2F%2Fa.slack-edge.com%2Fdf10d%2Fimg%2Favatars%2Fava_0006-512.png", "custom_css": null}, {"id": 638, "slack_id": "U091G5G2HA7", "display_name": "amine", "bio": null, "projects_count": 0, "devlogs_count": 0, "votes_count": 0, "ships_count": 0, "projects": [], "coding_time_seconds": 0, "coding_time_seconds_today": 0, "balance": "You need to have a pocket watcher badge to view this.", "badges": [], "created_at": "2025-06-16T12:05:11.222-04:00", "updated_at": "2025-07-03T19:13:54.542-04:00", "avatar": "https://secure.gravatar.com/avatar/ac2187c06b7450401e0a9bd8b7b89ef0.jpg?s=512&d=https%3A%2F%2Fa.slack-edge.com%2Fdf10d%2Fimg%2Favatars%2Fava_0000-512.png", "custom_css": null}, {"id": 639, "slack_id": "U091PHYHRRS", "display_name": "Felipe", "bio": null, "projects_count": 0, "devlogs_count": 0, "votes_count": 0, "ships_count": 0, "projects": [], "coding_time_seconds": 0, "coding_time_seconds_today": 0, "balance": "You need to have a pocket watcher badge to view this.", "badges": [], "created_at": "2025-06-16T12:05:16.020-04:00", "updated_at": "2025-07-03T19:13:54.809-04:00", "avatar": "https://secure.gravatar.com/avatar/5049722092ce1492a210f68fbc4eedac.jpg?s=512&d=https%3A%2F%2Fa.slack-edge.com%2Fdf10d%2Fimg%2Favatars%2Fava_0021-512.png", "custom_css": null}, {"id": 640, "slack_id": "U091P48PH28", "display_name": "EldonTheRouge", "bio": null, "projects_count": 0, "devlogs_count": 0, "votes_count": 0, "ships_count": 0, "projects": [], "coding_time_seconds": 0, "coding_time_seconds_today": 0, "balance": "You need to have a pocket watcher badge to view this.", "badges": [], "created_at": "2025-06-16T12:05:27.258-04:00", "updated_at": "2025-07-03T19:13:55.072-04:00", "avatar": "https://avatars.slack-edge.com/2025-06-16/9056710869762_a386d76f1a1304a79f7b_original.jpg", "custom_css": null}], "pagination": {"page": 32, "pages": 1192, "count": 23827, "items": 20}}