{"users": [{"id": 6381, "slack_id": "U091UCXTDNE", "display_name": "Advit Singh", "bio": null, "projects_count": 0, "devlogs_count": 0, "votes_count": 0, "ships_count": 0, "projects": [], "coding_time_seconds": 0, "coding_time_seconds_today": 0, "balance": "You need to have a pocket watcher badge to view this.", "badges": [], "created_at": "2025-06-17T09:16:14.492-04:00", "updated_at": "2025-07-03T19:39:57.233-04:00", "avatar": "https://avatars.slack-edge.com/2025-06-17/9060738163525_a988c2ef8a92fe9b6e24_original.jpg", "custom_css": null}, {"id": 6382, "slack_id": "U091SM4MWG5", "display_name": "DaintyDust", "bio": null, "projects_count": 0, "devlogs_count": 14, "votes_count": 117, "ships_count": 0, "projects": [], "coding_time_seconds": 398590, "coding_time_seconds_today": 0, "balance": "You need to have a pocket watcher badge to view this.", "badges": [{"name": "Maiden Voyage", "text": "you shipped your first project! the journey begins...", "icon": "\ud83d\udea2"}, {"name": "Ballot Stuffer", "text": "vote 100 times.", "icon": "https://summer.hackclub.com/assets/i_voted-bf851b48.png"}], "created_at": "2025-06-17T09:16:36.972-04:00", "updated_at": "2025-09-10T22:54:20.374-04:00", "avatar": "https://avatars.slack-edge.com/2025-06-20/9078343197845_345dadc0e4498f8c6203_original.jpg", "custom_css": null}, {"id": 6383, "slack_id": "U091D1R53RV", "display_name": "Joe Bonfanti", "bio": null, "projects_count": 0, "devlogs_count": 0, "votes_count": 0, "ships_count": 0, "projects": [], "coding_time_seconds": 0, "coding_time_seconds_today": 0, "balance": "You need to have a pocket watcher badge to view this.", "badges": [], "created_at": "2025-06-17T09:16:42.197-04:00", "updated_at": "2025-07-03T21:44:04.918-04:00", "avatar": "https://avatars.slack-edge.com/2025-06-17/9055850902438_0ab77d4e69570d0200be_original.png", "custom_css": null}, {"id": 6384, "slack_id": "U092GQ6RZ2L", "display_name": "Preston", "bio": null, "projects_count": 0, "devlogs_count": 0, "votes_count": 0, "ships_count": 0, "projects": [], "coding_time_seconds": 102, "coding_time_seconds_today": 0, "balance": "You need to have a pocket watcher badge to view this.", "badges": [], "created_at": "2025-06-17T09:16:54.682-04:00", "updated_at": "2025-07-03T19:39:57.925-04:00", "avatar": "https://secure.gravatar.com/avatar/e56174431bcee6d6bc1496c98b5d53fc.jpg?s=512&d=https%3A%2F%2Fa.slack-edge.com%2Fdf10d%2Fimg%2Favatars%2Fava_0026-512.png", "custom_css": null}, {"id": 6385, "slack_id": "U091SMJHDJ9", "display_name": "taitq1", "bio": null, "projects_count": 0, "devlogs_count": 0, "votes_count": 0, "ships_count": 0, "projects": [], "coding_time_seconds": 0, "coding_time_seconds_today": 0, "balance": "You need to have a pocket watcher badge to view this.", "badges": [], "created_at": "2025-06-17T09:17:53.405-04:00", "updated_at": "2025-07-03T19:39:58.202-04:00", "avatar": "https://secure.gravatar.com/avatar/b09fe85dff7bb45f368adee4af09acd8.jpg?s=512&d=https%3A%2F%2Fa.slack-edge.com%2Fdf10d%2Fimg%2Favatars%2Fava_0024-512.png", "custom_css": null}, {"id": 6386, "slack_id": "U081Z3UMK3P", "display_name": "Dhruv J", "bio": null, "projects_count": 0, "devlogs_count": 0, "votes_count": 0, "ships_count": 0, "projects": [], "coding_time_seconds": 0, "coding_time_seconds_today": 0, "balance": "You need to have a pocket watcher badge to view this.", "badges": [], "created_at": "2025-06-17T09:18:40.337-04:00", "updated_at": "2025-07-04T08:21:46.505-04:00", "avatar": "https://secure.gravatar.com/avatar/9222d262cca271860c158f8287379240.jpg?s=512&d=https%3A%2F%2Fa.slack-edge.com%2Fdf10d%2Fimg%2Favatars%2Fava_0021-512.png", "custom_css": null}, {"id": 6387, "slack_id": "U091ML6BJ3D", "display_name": "Jeel Rupareliya", "bio": null, "projects_count": 0, "devlogs_count": 0, "votes_count": 0, "ships_count": 0, "projects": [], "coding_time_seconds": 0, "coding_time_seconds_today": 0, "balance": "You need to have a pocket watcher badge to view this.", "badges": [], "created_at": "2025-06-17T09:18:45.515-04:00", "updated_at": "2025-07-03T19:39:58.618-04:00", "avatar": "https://avatars.slack-edge.com/2025-06-17/9055705107219_e19ab9954845a1e74ba8_original.png", "custom_css": null}, {"id": 6388, "slack_id": "U091UDCQVJ6", "display_name": "Mayank", "bio": null, "projects_count": 0, "devlogs_count": 0, "votes_count": 0, "ships_count": 0, "projects": [], "coding_time_seconds": 0, "coding_time_seconds_today": 0, "balance": "You need to have a pocket watcher badge to view this.", "badges": [], "created_at": "2025-06-17T09:18:45.546-04:00", "updated_at": "2025-07-03T19:39:58.889-04:00", "avatar": "https://secure.gravatar.com/avatar/b2252bef5ce84c1cb136c85ecf3b5439.jpg?s=512&d=https%3A%2F%2Fa.slack-edge.com%2Fdf10d%2Fimg%2Favatars%2Fava_0005-512.png", "custom_css": null}, {"id": 6389, "slack_id": "U092GQ94KSL", "display_name": "Syn", "bio": null, "projects_count": 0, "devlogs_count": 0, "votes_count": 0, "ships_count": 0, "projects": [], "coding_time_seconds": 0, "coding_time_seconds_today": 0, "balance": "You need to have a pocket watcher badge to view this.", "badges": [], "created_at": "2025-06-17T09:18:56.075-04:00", "updated_at": "2025-07-03T19:39:59.157-04:00", "avatar": "https://secure.gravatar.com/avatar/a5caa6e059e1309291becef99af06cfe.jpg?s=512&d=https%3A%2F%2Fa.slack-edge.com%2Fdf10d%2Fimg%2Favatars%2Fava_0006-512.png", "custom_css": null}, {"id": 6390, "slack_id": "U091D2J58S3", "display_name": "Linus Jansson", "bio": null, "projects_count": 0, "devlogs_count": 0, "votes_count": 0, "ships_count": 0, "projects": [], "coding_time_seconds": 0, "coding_time_seconds_today": 0, "balance": "You need to have a pocket watcher badge to view this.", "badges": [], "created_at": "2025-06-17T09:20:30.387-04:00", "updated_at": "2025-07-03T19:39:59.423-04:00", "avatar": "https://avatars.slack-edge.com/2025-06-17/9055873149190_0c630f1a41df586dcb4a_original.png", "custom_css": null}, {"id": 6391, "slack_id": "U092GQUHK3J", "display_name": "Jarhad Jamal", "bio": null, "projects_count": 0, "devlogs_count": 0, "votes_count": 0, "ships_count": 0, "projects": [], "coding_time_seconds": 0, "coding_time_seconds_today": 0, "balance": "You need to have a pocket watcher badge to view this.", "badges": [], "created_at": "2025-06-17T09:20:35.402-04:00", "updated_at": "2025-07-03T21:56:02.314-04:00", "avatar": "https://secure.gravatar.com/avatar/74763c7909c9df570af57dd03ce865d6.jpg?s=512&d=https%3A%2F%2Fa.slack-edge.com%2Fdf10d%2Fimg%2Favatars%2Fava_0015-512.png", "custom_css": null}, {"id": 6392, "slack_id": "U09271LUSPK", "display_name": "Joel", "bio": null, "projects_count": 2, "devlogs_count": 0, "votes_count": 0, "ships_count": 0, "projects": [{"id": 3520, "title": "ESP32 MP3 Player", "devlogs_count": 0, "created_at": "2025-06-24T15:00:05.391-04:00"}, {"id": 3521, "title": "ESP32 MP3 Player", "devlogs_count": 0, "created_at": "2025-06-24T15:00:06.362-04:00"}], "coding_time_seconds": 16145, "coding_time_seconds_today": 0, "balance": "You need to have a pocket watcher badge to view this.", "badges": [], "created_at": "2025-06-17T09:20:47.774-04:00", "updated_at": "2025-07-05T14:08:00.938-04:00", "avatar": "https://secure.gravatar.com/avatar/97c60d0cba26144b7787273d6c157a5b.jpg?s=512&d=https%3A%2F%2Fa.slack-edge.com%2Fdf10d%2Fimg%2Favatars%2Fava_0024-512.png", "custom_css": null}, {"id": 6393, "slack_id": "U091SMLSQRK", "display_name": "Connor", "bio": null, "projects_count": 1, "devlogs_count": 0, "votes_count": 0, "ships_count": 0, "projects": [{"id": 1345, "title": "ContoMail Client - Custom Mail Client", "devlogs_count": 0, "created_at": "2025-06-18T10:32:44.074-04:00"}], "coding_time_seconds": 19123, "coding_time_seconds_today": 480, "balance": "You need to have a pocket watcher badge to view this.", "badges": [], "created_at": "2025-06-17T09:21:06.498-04:00", "updated_at": "2025-08-09T00:22:03.643-04:00", "avatar": "https://secure.gravatar.com/avatar/4a3898cdad9d9903a1cef9e5f2fd4dd4.jpg?s=512&d=https%3A%2F%2Fa.slack-edge.com%2Fdf10d%2Fimg%2Favatars%2Fava_0022-512.png", "custom_css": null}, {"id": 6394, "slack_id": "U091MLG07FD", "display_name": "Rishi", "bio": null, "projects_count": 0, "devlogs_count": 0, "votes_count": 0, "ships_count": 0, "projects": [], "coding_time_seconds": 0, "coding_time_seconds_today": 0, "balance": "You need to have a pocket watcher badge to view this.", "badges": [], "created_at": "2025-06-17T09:21:13.563-04:00", "updated_at": "2025-07-04T08:21:47.432-04:00", "avatar": "https://secure.gravatar.com/avatar/1c7edb285b2fd7bd633c3c91c1293a64.jpg?s=512&d=https%3A%2F%2Fa.slack-edge.com%2Fdf10d%2Fimg%2Favatars%2Fava_0017-512.png", "custom_css": null}, {"id": 6395, "slack_id": "U07EUF38FKM", "display_name": "RonaldMcDonald", "bio": null, "projects_count": 0, "devlogs_count": 0, "votes_count": 0, "ships_count": 0, "projects": [], "coding_time_seconds": 0, "coding_time_seconds_today": 0, "balance": "You need to have a pocket watcher badge to view this.", "badges": [], "created_at": "2025-06-17T09:21:34.630-04:00", "updated_at": "2025-07-03T19:40:00.356-04:00", "avatar": "https://avatars.slack-edge.com/2024-07-31/7503867884741_22c852d11b849b86242a_original.png", "custom_css": null}, {"id": 6396, "slack_id": "U091MRE2T8E", "display_name": "Kenway", "bio": null, "projects_count": 1, "devlogs_count": 0, "votes_count": 0, "ships_count": 0, "projects": [{"id": 945, "title": "Travel-Blog", "devlogs_count": 0, "created_at": "2025-06-17T12:04:33.091-04:00"}], "coding_time_seconds": 41977, "coding_time_seconds_today": 0, "balance": "You need to have a pocket watcher badge to view this.", "badges": [], "created_at": "2025-06-17T09:22:03.100-04:00", "updated_at": "2025-07-03T19:40:00.616-04:00", "avatar": "https://secure.gravatar.com/avatar/4a18d8f7b1e6b0253ac8dae89e3f55e7.jpg?s=512&d=https%3A%2F%2Fa.slack-edge.com%2Fdf10d%2Fimg%2Favatars%2Fava_0003-512.png", "custom_css": null}, {"id": 6397, "slack_id": "U09271U2HRP", "display_name": "Zaheen Mahroz", "bio": null, "projects_count": 1, "devlogs_count": 3, "votes_count": 0, "ships_count": 0, "projects": [{"id": 1566, "title": "TBN (To be namend)", "devlogs_count": 3, "created_at": "2025-06-18T18:56:51.839-04:00"}], "coding_time_seconds": 25399, "coding_time_seconds_today": 0, "balance": "You need to have a pocket watcher badge to view this.", "badges": [], "created_at": "2025-06-17T09:22:36.724-04:00", "updated_at": "2025-07-04T08:21:47.649-04:00", "avatar": "https://avatars.slack-edge.com/2025-06-17/9060775819189_4b3703b682340ed0efa6_original.png", "custom_css": null}, {"id": 6398, "slack_id": "U091MRML6VC", "display_name": "Cayden Odegard", "bio": null, "projects_count": 2, "devlogs_count": 0, "votes_count": 0, "ships_count": 0, "projects": [{"id": 1226, "title": "Groomy Project", "devlogs_count": 0, "created_at": "2025-06-18T00:10:18.715-04:00"}, {"id": 1315, "title": "Hangman (2.0?)", "devlogs_count": 0, "created_at": "2025-06-18T08:06:52.369-04:00"}], "coding_time_seconds": 3397, "coding_time_seconds_today": 0, "balance": "You need to have a pocket watcher badge to view this.", "badges": [], "created_at": "2025-06-17T09:22:54.701-04:00", "updated_at": "2025-07-03T19:40:01.019-04:00", "avatar": "https://secure.gravatar.com/avatar/4eaf735260f85437c29c6d646a7e24b1.jpg?s=512&d=https%3A%2F%2Fa.slack-edge.com%2Fdf10d%2Fimg%2Favatars%2Fava_0010-512.png", "custom_css": null}, {"id": 6399, "slack_id": "U091MLPEJ3D", "display_name": "Kevin Da Silva Pinto", "bio": null, "projects_count": 0, "devlogs_count": 0, "votes_count": 0, "ships_count": 0, "projects": [], "coding_time_seconds": 233449, "coding_time_seconds_today": 0, "balance": "You need to have a pocket watcher badge to view this.", "badges": [], "created_at": "2025-06-17T09:23:13.818-04:00", "updated_at": "2025-07-03T22:34:35.289-04:00", "avatar": "https://avatars.slack-edge.com/2025-06-17/9055963065590_c6f4a8fd4fa92db56307_original.png", "custom_css": null}, {"id": 6400, "slack_id": "U091SNDDZV3", "display_name": "Rachel", "bio": null, "projects_count": 0, "devlogs_count": 0, "votes_count": 0, "ships_count": 0, "projects": [], "coding_time_seconds": 0, "coding_time_seconds_today": 0, "balance": "You need to have a pocket watcher badge to view this.", "badges": [], "created_at": "2025-06-17T09:23:14.388-04:00", "updated_at": "2025-07-03T22:34:35.389-04:00", "avatar": "https://secure.gravatar.com/avatar/4f6b77c886f0aad8f40addc0203a9e16.jpg?s=512&d=https%3A%2F%2Fa.slack-edge.com%2Fdf10d%2Fimg%2Favatars%2Fava_0006-512.png", "custom_css": null}], "pagination": {"page": 320, "pages": 1192, "count": 23828, "items": 20}}