{"users": [{"id": 6401, "slack_id": "U091UR9180L", "display_name": "Kochurani Robin", "bio": null, "projects_count": 1, "devlogs_count": 1, "votes_count": 1, "ships_count": 0, "projects": [{"id": 6601, "title": "RedHope", "devlogs_count": 1, "created_at": "2025-07-14T13:28:05.149-04:00"}], "coding_time_seconds": 87201, "coding_time_seconds_today": 0, "balance": "You need to have a pocket watcher badge to view this.", "badges": [], "created_at": "2025-06-17T09:23:19.100-04:00", "updated_at": "2025-07-03T19:40:01.561-04:00", "avatar": "https://avatars.slack-edge.com/2025-06-17/9062507378514_370164c974eeb49b9ab5_original.jpg", "custom_css": null}, {"id": 6402, "slack_id": "U091UD55M8S", "display_name": "CeCe", "bio": null, "projects_count": 0, "devlogs_count": 0, "votes_count": 0, "ships_count": 0, "projects": [], "coding_time_seconds": 5597, "coding_time_seconds_today": 0, "balance": "You need to have a pocket watcher badge to view this.", "badges": [], "created_at": "2025-06-17T09:23:30.528-04:00", "updated_at": "2025-07-03T21:56:03.194-04:00", "avatar": "https://secure.gravatar.com/avatar/4503ddd7b360a6e92757fb3f9e1848fb.jpg?s=512&d=https%3A%2F%2Fa.slack-edge.com%2Fdf10d%2Fimg%2Favatars%2Fava_0003-512.png", "custom_css": null}, {"id": 6403, "slack_id": "U09271WR48Z", "display_name": "Hamritha", "bio": null, "projects_count": 0, "devlogs_count": 0, "votes_count": 0, "ships_count": 0, "projects": [], "coding_time_seconds": 0, "coding_time_seconds_today": 0, "balance": "You need to have a pocket watcher badge to view this.", "badges": [], "created_at": "2025-06-17T09:23:30.726-04:00", "updated_at": "2025-07-03T22:34:35.642-04:00", "avatar": "https://secure.gravatar.com/avatar/297db902669a4eb16bbbdfcae3b79fd0.jpg?s=512&d=https%3A%2F%2Fa.slack-edge.com%2Fdf10d%2Fimg%2Favatars%2Fava_0025-512.png", "custom_css": null}, {"id": 6404, "slack_id": "U091UE7UE82", "display_name": "Aayush Gupta", "bio": null, "projects_count": 0, "devlogs_count": 0, "votes_count": 0, "ships_count": 0, "projects": [], "coding_time_seconds": 0, "coding_time_seconds_today": 0, "balance": "You need to have a pocket watcher badge to view this.", "badges": [], "created_at": "2025-06-17T09:23:31.028-04:00", "updated_at": "2025-07-03T19:40:02.125-04:00", "avatar": "https://secure.gravatar.com/avatar/75e58d089e7bb8d18a09f352060e547b.jpg?s=512&d=https%3A%2F%2Fa.slack-edge.com%2Fdf10d%2Fimg%2Favatars%2Fava_0025-512.png", "custom_css": null}, {"id": 6405, "slack_id": "U091URJR5FE", "display_name": "Paul Lecomte", "bio": null, "projects_count": 1, "devlogs_count": 0, "votes_count": 0, "ships_count": 0, "projects": [{"id": 1330, "title": "Trading_graph", "devlogs_count": 0, "created_at": "2025-06-18T09:08:58.411-04:00"}], "coding_time_seconds": 143773, "coding_time_seconds_today": 3284, "balance": "You need to have a pocket watcher badge to view this.", "badges": [], "created_at": "2025-06-17T09:23:54.282-04:00", "updated_at": "2025-07-07T14:31:14.867-04:00", "avatar": "https://secure.gravatar.com/avatar/8f0267079dc2bfd3850aac82b276ea9f.jpg?s=512&d=https%3A%2F%2Fa.slack-edge.com%2Fdf10d%2Fimg%2Favatars%2Fava_0002-512.png", "custom_css": null}, {"id": 6406, "slack_id": "U092G7BQ6BA", "display_name": "x73d", "bio": null, "projects_count": 0, "devlogs_count": 0, "votes_count": 0, "ships_count": 0, "projects": [], "coding_time_seconds": 89096, "coding_time_seconds_today": 0, "balance": "You need to have a pocket watcher badge to view this.", "badges": [], "created_at": "2025-06-17T09:24:08.390-04:00", "updated_at": "2025-07-09T16:55:26.641-04:00", "avatar": "https://secure.gravatar.com/avatar/4e1079c73ed862edcfa201f1ffda86bd.jpg?s=512&d=https%3A%2F%2Fa.slack-edge.com%2Fdf10d%2Fimg%2Favatars%2Fava_0018-512.png", "custom_css": null}, {"id": 6407, "slack_id": "U08SZDZRF46", "display_name": "XR", "bio": null, "projects_count": 4, "devlogs_count": 2, "votes_count": 20, "ships_count": 0, "projects": [{"id": 6301, "title": "A Real Mouse Mouse", "devlogs_count": 1, "created_at": "2025-07-12T06:11:32.803-04:00"}, {"id": 7081, "title": "Timeless Chronicles", "devlogs_count": 1, "created_at": "2025-07-18T21:13:54.801-04:00"}, {"id": 7083, "title": "Authentic Laksa Cafe", "devlogs_count": 0, "created_at": "2025-07-18T21:19:56.593-04:00"}, {"id": 7084, "title": "Minecraft Mod - Blinkable Eye", "devlogs_count": 0, "created_at": "2025-07-18T21:22:33.336-04:00"}], "coding_time_seconds": 244778, "coding_time_seconds_today": 0, "balance": "You need to have a pocket watcher badge to view this.", "badges": [], "created_at": "2025-06-17T09:24:14.502-04:00", "updated_at": "2025-08-10T00:49:30.717-04:00", "avatar": "https://avatars.slack-edge.com/2025-05-20/8921979778165_3c29cee3bf0ef28746dc_original.jpg", "custom_css": null}, {"id": 6408, "slack_id": "U091SNKKMLM", "display_name": "irem", "bio": null, "projects_count": 0, "devlogs_count": 0, "votes_count": 0, "ships_count": 0, "projects": [], "coding_time_seconds": 0, "coding_time_seconds_today": 0, "balance": "You need to have a pocket watcher badge to view this.", "badges": [], "created_at": "2025-06-17T09:24:19.372-04:00", "updated_at": "2025-07-03T19:40:03.061-04:00", "avatar": "https://secure.gravatar.com/avatar/703faf5e3c6de533a2cdbfd46fb6be53.jpg?s=512&d=https%3A%2F%2Fa.slack-edge.com%2Fdf10d%2Fimg%2Favatars%2Fava_0018-512.png", "custom_css": null}, {"id": 6409, "slack_id": "U092GQXE9CY", "display_name": "mythless", "bio": null, "projects_count": 0, "devlogs_count": 0, "votes_count": 0, "ships_count": 0, "projects": [], "coding_time_seconds": 0, "coding_time_seconds_today": 0, "balance": "You need to have a pocket watcher badge to view this.", "badges": [], "created_at": "2025-06-17T09:24:26.774-04:00", "updated_at": "2025-07-03T19:40:03.329-04:00", "avatar": "https://secure.gravatar.com/avatar/c30b653768888a1a0c0ab5207ba89b43.jpg?s=512&d=https%3A%2F%2Fa.slack-edge.com%2Fdf10d%2Fimg%2Favatars%2Fava_0007-512.png", "custom_css": null}, {"id": 6410, "slack_id": "U08NPSBSE1J", "display_name": "samarajit", "bio": null, "projects_count": 0, "devlogs_count": 0, "votes_count": 1, "ships_count": 0, "projects": [], "coding_time_seconds": 587935, "coding_time_seconds_today": 0, "balance": "You need to have a pocket watcher badge to view this.", "badges": [], "created_at": "2025-06-17T09:24:40.515-04:00", "updated_at": "2025-08-26T09:23:57.318-04:00", "avatar": "https://avatars.slack-edge.com/2025-04-17/8790927911440_33b67099b69501f4c179_original.jpg", "custom_css": null}, {"id": 6411, "slack_id": "U091SNF50F7", "display_name": "Opifeni Timothy", "bio": null, "projects_count": 0, "devlogs_count": 0, "votes_count": 0, "ships_count": 0, "projects": [], "coding_time_seconds": 44171, "coding_time_seconds_today": 0, "balance": "You need to have a pocket watcher badge to view this.", "badges": [], "created_at": "2025-06-17T09:24:53.846-04:00", "updated_at": "2025-07-03T19:40:03.733-04:00", "avatar": "https://avatars.slack-edge.com/2025-06-17/9084884894992_e8ccbce08f6f6267bc5c_original.png", "custom_css": null}, {"id": 6412, "slack_id": "U09272BTWGH", "display_name": "Ijeoma Nwokoro", "bio": null, "projects_count": 1, "devlogs_count": 0, "votes_count": 0, "ships_count": 0, "projects": [{"id": 2239, "title": "SpeedChecker", "devlogs_count": 0, "created_at": "2025-06-20T14:08:40.416-04:00"}], "coding_time_seconds": 665, "coding_time_seconds_today": 0, "balance": "You need to have a pocket watcher badge to view this.", "badges": [], "created_at": "2025-06-17T09:25:44.980-04:00", "updated_at": "2025-07-03T19:40:03.997-04:00", "avatar": "https://secure.gravatar.com/avatar/31d1f8ef2c299e20d77334eeea01b5f4.jpg?s=512&d=https%3A%2F%2Fa.slack-edge.com%2Fdf10d%2Fimg%2Favatars%2Fava_0024-512.png", "custom_css": null}, {"id": 6413, "slack_id": "U0926U54UJV", "display_name": "Linus", "bio": null, "projects_count": 4, "devlogs_count": 12, "votes_count": 20, "ships_count": 1, "projects": [{"id": 1053, "title": "RAWR: Roughly Approximate Water Reminder", "devlogs_count": 11, "created_at": "2025-06-17T14:34:54.870-04:00"}, {"id": 1264, "title": "iKurseBW", "devlogs_count": 1, "created_at": "2025-06-18T02:52:31.220-04:00"}, {"id": 1286, "title": "libewa.xyz", "devlogs_count": 0, "created_at": "2025-06-18T05:48:54.732-04:00"}, {"id": 1287, "title": "jekyll-glass", "devlogs_count": 0, "created_at": "2025-06-18T05:52:36.859-04:00"}], "coding_time_seconds": 122687, "coding_time_seconds_today": 0, "balance": "You need to have a pocket watcher badge to view this.", "badges": [{"name": "Maiden Voyage", "text": "you shipped your first project! the journey begins...", "icon": "\ud83d\udea2"}], "created_at": "2025-06-17T09:26:37.894-04:00", "updated_at": "2025-09-10T22:54:21.336-04:00", "avatar": "https://avatars.slack-edge.com/2025-06-18/9092581490272_a336aaa0b93bae429db0_original.png", "custom_css": null}, {"id": 6414, "slack_id": "U08EA3E0YTG", "display_name": "Shannon Thompson", "bio": null, "projects_count": 0, "devlogs_count": 0, "votes_count": 0, "ships_count": 0, "projects": [], "coding_time_seconds": 0, "coding_time_seconds_today": 0, "balance": "You need to have a pocket watcher badge to view this.", "badges": [], "created_at": "2025-06-17T09:26:45.722-04:00", "updated_at": "2025-07-03T19:40:04.530-04:00", "avatar": "https://secure.gravatar.com/avatar/4814aa71dce093b16506e0f4e10b25f9.jpg?s=512&d=https%3A%2F%2Fa.slack-edge.com%2Fdf10d%2Fimg%2Favatars%2Fava_0021-512.png", "custom_css": null}, {"id": 6415, "slack_id": "U07PXAGL7KQ", "display_name": "Joshua post", "bio": null, "projects_count": 2, "devlogs_count": 2, "votes_count": 20, "ships_count": 2, "projects": [{"id": 2287, "title": "Rondos Button.", "devlogs_count": 1, "created_at": "2025-06-20T16:16:16.359-04:00"}, {"id": 1186, "title": "One-click tools \ud83d\uddb1\ufe0f", "devlogs_count": 1, "created_at": "2025-06-17T21:13:18.344-04:00"}], "coding_time_seconds": 5230, "coding_time_seconds_today": 0, "balance": "You need to have a pocket watcher badge to view this.", "badges": [{"name": "Maiden Voyage", "text": "you shipped your first project! the journey begins...", "icon": "\ud83d\udea2"}], "created_at": "2025-06-17T09:26:51.961-04:00", "updated_at": "2025-09-10T22:54:21.402-04:00", "avatar": "https://secure.gravatar.com/avatar/f6fcad24a4d8cd3c9a248765d68d87d7.jpg?s=512&d=https%3A%2F%2Fa.slack-edge.com%2Fdf10d%2Fimg%2Favatars%2Fava_0007-512.png", "custom_css": null}, {"id": 6416, "slack_id": "U091M2Y2G5U", "display_name": "Shivam Rathore", "bio": null, "projects_count": 2, "devlogs_count": 3, "votes_count": 0, "ships_count": 1, "projects": [{"id": 2432, "title": "Miranda- The Paper Protfolio", "devlogs_count": 2, "created_at": "2025-06-21T02:53:42.405-04:00"}, {"id": 846, "title": "DragBoard", "devlogs_count": 1, "created_at": "2025-06-17T09:43:43.712-04:00"}], "coding_time_seconds": 20357, "coding_time_seconds_today": 0, "balance": "You need to have a pocket watcher badge to view this.", "badges": [{"name": "Maiden Voyage", "text": "you shipped your first project! the journey begins...", "icon": "\ud83d\udea2"}], "created_at": "2025-06-17T09:27:13.180-04:00", "updated_at": "2025-09-10T22:54:21.426-04:00", "avatar": "https://avatars.slack-edge.com/2025-06-17/9047143233639_5f7bff1c722ca31b0c3d_original.png", "custom_css": null}, {"id": 6417, "slack_id": "U091MSL1C06", "display_name": "mohamed askar", "bio": null, "projects_count": 0, "devlogs_count": 0, "votes_count": 0, "ships_count": 0, "projects": [], "coding_time_seconds": 40537, "coding_time_seconds_today": 0, "balance": "You need to have a pocket watcher badge to view this.", "badges": [], "created_at": "2025-06-17T09:27:22.796-04:00", "updated_at": "2025-07-03T19:40:05.213-04:00", "avatar": "https://secure.gravatar.com/avatar/590ee5359cf281c2d9afea344750cdda.jpg?s=512&d=https%3A%2F%2Fa.slack-edge.com%2Fdf10d%2Fimg%2Favatars%2Fava_0025-512.png", "custom_css": null}, {"id": 6418, "slack_id": "U09272QUZ33", "display_name": "Lokesh Rahul V V", "bio": null, "projects_count": 0, "devlogs_count": 0, "votes_count": 0, "ships_count": 0, "projects": [], "coding_time_seconds": 8820, "coding_time_seconds_today": 0, "balance": "You need to have a pocket watcher badge to view this.", "badges": [], "created_at": "2025-06-17T09:27:25.955-04:00", "updated_at": "2025-07-03T19:40:05.487-04:00", "avatar": "https://avatars.slack-edge.com/2025-06-17/9084899657424_4ba01f9076fd4c880565_original.webp", "custom_css": null}, {"id": 6419, "slack_id": "U09272NNR41", "display_name": "Nakshatra", "bio": null, "projects_count": 0, "devlogs_count": 0, "votes_count": 0, "ships_count": 0, "projects": [], "coding_time_seconds": 0, "coding_time_seconds_today": 0, "balance": "You need to have a pocket watcher badge to view this.", "badges": [], "created_at": "2025-06-17T09:28:12.938-04:00", "updated_at": "2025-07-03T19:40:05.747-04:00", "avatar": "https://secure.gravatar.com/avatar/d395da3fa25de391b825db9c4d100191.jpg?s=512&d=https%3A%2F%2Fa.slack-edge.com%2Fdf10d%2Fimg%2Favatars%2Fava_0019-512.png", "custom_css": null}, {"id": 6420, "slack_id": "U091UFB2X0S", "display_name": "200mill", "bio": null, "projects_count": 0, "devlogs_count": 0, "votes_count": 0, "ships_count": 0, "projects": [], "coding_time_seconds": 0, "coding_time_seconds_today": 0, "balance": "You need to have a pocket watcher badge to view this.", "badges": [], "created_at": "2025-06-17T09:28:26.521-04:00", "updated_at": "2025-07-03T19:40:06.060-04:00", "avatar": "https://secure.gravatar.com/avatar/b16d1ed8688943c478fde26d08125ef7.jpg?s=512&d=https%3A%2F%2Fa.slack-edge.com%2Fdf10d%2Fimg%2Favatars%2Fava_0017-512.png", "custom_css": null}], "pagination": {"page": 321, "pages": 1192, "count": 23828, "items": 20}}