{"users": [{"id": 6441, "slack_id": "U091UU6L8J0", "display_name": "rami", "bio": null, "projects_count": 0, "devlogs_count": 0, "votes_count": 0, "ships_count": 0, "projects": [], "coding_time_seconds": 0, "coding_time_seconds_today": 0, "balance": "You need to have a pocket watcher badge to view this.", "badges": [], "created_at": "2025-06-17T09:35:49.773-04:00", "updated_at": "2025-07-03T19:40:11.177-04:00", "avatar": "https://secure.gravatar.com/avatar/96ba71fcff5e9d33c9eb61cd9fcb553b.jpg?s=512&d=https%3A%2F%2Fa.slack-edge.com%2Fdf10d%2Fimg%2Favatars%2Fava_0004-512.png", "custom_css": null}, {"id": 6442, "slack_id": "U091SQJ0YF7", "display_name": "Vivek S", "bio": null, "projects_count": 0, "devlogs_count": 0, "votes_count": 0, "ships_count": 0, "projects": [], "coding_time_seconds": 46180, "coding_time_seconds_today": 0, "balance": "You need to have a pocket watcher badge to view this.", "badges": [], "created_at": "2025-06-17T09:36:34.515-04:00", "updated_at": "2025-07-04T02:25:39.081-04:00", "avatar": "https://secure.gravatar.com/avatar/49a08ffa8f3cf18f951d290f19a055fc.jpg?s=512&d=https%3A%2F%2Fa.slack-edge.com%2Fdf10d%2Fimg%2Favatars%2Fava_0009-512.png", "custom_css": null}, {"id": 6443, "slack_id": "U091D5Q8FKR", "display_name": "Dhananjay", "bio": null, "projects_count": 0, "devlogs_count": 0, "votes_count": 0, "ships_count": 0, "projects": [], "coding_time_seconds": 92135, "coding_time_seconds_today": 0, "balance": "You need to have a pocket watcher badge to view this.", "badges": [], "created_at": "2025-06-17T09:36:49.589-04:00", "updated_at": "2025-07-03T19:40:11.591-04:00", "avatar": "https://secure.gravatar.com/avatar/8b6f2c3b35e4dd516c41e3bcdc74e287.jpg?s=512&d=https%3A%2F%2Fa.slack-edge.com%2Fdf10d%2Fimg%2Favatars%2Fava_0013-512.png", "custom_css": null}, {"id": 6444, "slack_id": "U091D5LEX9D", "display_name": "Atreyee", "bio": null, "projects_count": 0, "devlogs_count": 0, "votes_count": 0, "ships_count": 0, "projects": [], "coding_time_seconds": 0, "coding_time_seconds_today": 0, "balance": "You need to have a pocket watcher badge to view this.", "badges": [], "created_at": "2025-06-17T09:37:06.440-04:00", "updated_at": "2025-07-03T21:44:09.284-04:00", "avatar": "https://secure.gravatar.com/avatar/c84628a22594a95832648063576e1627.jpg?s=512&d=https%3A%2F%2Fa.slack-edge.com%2Fdf10d%2Fimg%2Favatars%2Fava_0016-512.png", "custom_css": null}, {"id": 6445, "slack_id": "U091MUB24PQ", "display_name": "Vikas Kumar Sethiya", "bio": null, "projects_count": 2, "devlogs_count": 0, "votes_count": 0, "ships_count": 0, "projects": [{"id": 889, "title": "AI", "devlogs_count": 0, "created_at": "2025-06-17T10:35:16.907-04:00"}, {"id": 890, "title": "AI", "devlogs_count": 0, "created_at": "2025-06-17T10:35:18.050-04:00"}], "coding_time_seconds": 2899, "coding_time_seconds_today": 0, "balance": "You need to have a pocket watcher badge to view this.", "badges": [], "created_at": "2025-06-17T09:37:07.765-04:00", "updated_at": "2025-07-03T19:40:12.027-04:00", "avatar": "https://secure.gravatar.com/avatar/992ad22983dff3e55e5f744896b646b1.jpg?s=512&d=https%3A%2F%2Fa.slack-edge.com%2Fdf10d%2Fimg%2Favatars%2Fava_0014-512.png", "custom_css": null}, {"id": 6446, "slack_id": "U07DJ3ALZR8", "display_name": "Erol Eduard", "bio": null, "projects_count": 0, "devlogs_count": 0, "votes_count": 0, "ships_count": 0, "projects": [], "coding_time_seconds": 10292, "coding_time_seconds_today": 0, "balance": "You need to have a pocket watcher badge to view this.", "badges": [], "created_at": "2025-06-17T09:37:26.209-04:00", "updated_at": "2025-07-03T19:40:12.335-04:00", "avatar": "https://avatars.slack-edge.com/2024-07-22/7472784037009_8bf380bbd57ee079cab1_original.jpg", "custom_css": null}, {"id": 6447, "slack_id": "U08J9R1TUT1", "display_name": "Elias.L", "bio": null, "projects_count": 8, "devlogs_count": 18, "votes_count": 27, "ships_count": 1, "projects": [{"id": 3743, "title": "my-cool-dot-space", "devlogs_count": 10, "created_at": "2025-06-25T13:53:46.453-04:00"}, {"id": 3958, "title": "U3", "devlogs_count": 3, "created_at": "2025-06-26T13:51:36.812-04:00"}, {"id": 6098, "title": "PebbleOS", "devlogs_count": 2, "created_at": "2025-07-10T14:12:34.553-04:00"}, {"id": 6811, "title": "Death With AI", "devlogs_count": 1, "created_at": "2025-07-16T13:33:42.838-04:00"}, {"id": 10978, "title": "404Excuse", "devlogs_count": 0, "created_at": "2025-08-12T06:42:08.025-04:00"}, {"id": 13143, "title": "El4s.dev", "devlogs_count": 0, "created_at": "2025-09-09T13:17:45.559-04:00"}, {"id": 11518, "title": "tereblium", "devlogs_count": 1, "created_at": "2025-08-16T14:42:42.092-04:00"}, {"id": 4401, "title": "Flatstore", "devlogs_count": 1, "created_at": "2025-06-29T16:13:26.593-04:00"}], "coding_time_seconds": 202271, "coding_time_seconds_today": 0, "balance": "You need to have a pocket watcher badge to view this.", "badges": [{"name": "Maiden Voyage", "text": "you shipped your first project! the journey begins...", "icon": "\ud83d\udea2"}], "created_at": "2025-06-17T09:38:23.922-04:00", "updated_at": "2025-09-10T22:54:22.311-04:00", "avatar": "https://avatars.slack-edge.com/2025-08-27/9444690917168_cf0a646855c0206b5f68_original.png", "custom_css": null}, {"id": 6448, "slack_id": "U08153CA9FD", "display_name": "Advay", "bio": null, "projects_count": 0, "devlogs_count": 0, "votes_count": 0, "ships_count": 0, "projects": [], "coding_time_seconds": 0, "coding_time_seconds_today": 0, "balance": "You need to have a pocket watcher badge to view this.", "badges": [], "created_at": "2025-06-17T09:38:43.538-04:00", "updated_at": "2025-09-10T14:31:01.210-04:00", "avatar": "https://avatars.slack-edge.com/2025-09-10/9522766599088_8e32a29e65898cf6463b_original.png", "custom_css": null}, {"id": 6449, "slack_id": "U09273YJ7KK", "display_name": "NeoTryn", "bio": null, "projects_count": 1, "devlogs_count": 4, "votes_count": 0, "ships_count": 0, "projects": [{"id": 1065, "title": "GAME", "devlogs_count": 4, "created_at": "2025-06-17T15:09:02.483-04:00"}], "coding_time_seconds": 50525, "coding_time_seconds_today": 0, "balance": "You need to have a pocket watcher badge to view this.", "badges": [], "created_at": "2025-06-17T09:38:47.081-04:00", "updated_at": "2025-07-03T19:40:13.142-04:00", "avatar": "https://secure.gravatar.com/avatar/d4b1d30b49f693e9e531d29e0afdb1fd.jpg?s=512&d=https%3A%2F%2Fa.slack-edge.com%2Fdf10d%2Fimg%2Favatars%2Fava_0015-512.png", "custom_css": null}, {"id": 6450, "slack_id": "U091UH6J9HQ", "display_name": "Justo", "bio": null, "projects_count": 1, "devlogs_count": 0, "votes_count": 0, "ships_count": 0, "projects": [{"id": 1628, "title": "Solar System", "devlogs_count": 0, "created_at": "2025-06-18T22:09:18.042-04:00"}], "coding_time_seconds": 8442, "coding_time_seconds_today": 0, "balance": "You need to have a pocket watcher badge to view this.", "badges": [], "created_at": "2025-06-17T09:38:50.822-04:00", "updated_at": "2025-07-03T19:40:13.417-04:00", "avatar": "https://secure.gravatar.com/avatar/e3174c3b013efeb4feb3b6c2cb44748c.jpg?s=512&d=https%3A%2F%2Fa.slack-edge.com%2Fdf10d%2Fimg%2Favatars%2Fava_0008-512.png", "custom_css": null}, {"id": 6451, "slack_id": "U091MURQVV4", "display_name": "Saurabh Sharma", "bio": null, "projects_count": 3, "devlogs_count": 4, "votes_count": 0, "ships_count": 0, "projects": [{"id": 863, "title": "My_Portfolio", "devlogs_count": 2, "created_at": "2025-06-17T10:02:07.979-04:00"}, {"id": 2112, "title": "Google Classroom Dark Mode", "devlogs_count": 1, "created_at": "2025-06-20T07:07:05.682-04:00"}, {"id": 2113, "title": "headbanger.tech", "devlogs_count": 1, "created_at": "2025-06-20T07:10:25.121-04:00"}], "coding_time_seconds": 58111, "coding_time_seconds_today": 0, "balance": "You need to have a pocket watcher badge to view this.", "badges": [], "created_at": "2025-06-17T09:39:13.252-04:00", "updated_at": "2025-07-03T22:34:39.034-04:00", "avatar": "https://secure.gravatar.com/avatar/aa9f22c0ee2d584a4263841767ed89f0.jpg?s=512&d=https%3A%2F%2Fa.slack-edge.com%2Fdf10d%2Fimg%2Favatars%2Fava_0026-512.png", "custom_css": null}, {"id": 6452, "slack_id": "U091MUS7K38", "display_name": "Sujay", "bio": null, "projects_count": 0, "devlogs_count": 0, "votes_count": 0, "ships_count": 0, "projects": [], "coding_time_seconds": 1164, "coding_time_seconds_today": 0, "balance": "You need to have a pocket watcher badge to view this.", "badges": [], "created_at": "2025-06-17T09:39:24.500-04:00", "updated_at": "2025-07-03T19:40:13.813-04:00", "avatar": "https://secure.gravatar.com/avatar/c1dc2ab502d00f593a5677ace37e4a9e.jpg?s=512&d=https%3A%2F%2Fa.slack-edge.com%2Fdf10d%2Fimg%2Favatars%2Fava_0016-512.png", "custom_css": null}, {"id": 6453, "slack_id": "U09273CJJ3T", "display_name": "Snoepspin", "bio": null, "projects_count": 0, "devlogs_count": 0, "votes_count": 0, "ships_count": 0, "projects": [], "coding_time_seconds": 0, "coding_time_seconds_today": 0, "balance": "You need to have a pocket watcher badge to view this.", "badges": [], "created_at": "2025-06-17T09:40:25.731-04:00", "updated_at": "2025-07-03T19:40:14.071-04:00", "avatar": "https://secure.gravatar.com/avatar/56e8fc348612fcd5078b7dd97c5c16bf.jpg?s=512&d=https%3A%2F%2Fa.slack-edge.com%2Fdf10d%2Fimg%2Favatars%2Fava_0003-512.png", "custom_css": null}, {"id": 6454, "slack_id": "U092757EJBT", "display_name": "Erin", "bio": null, "projects_count": 0, "devlogs_count": 0, "votes_count": 0, "ships_count": 0, "projects": [], "coding_time_seconds": 0, "coding_time_seconds_today": 0, "balance": "You need to have a pocket watcher badge to view this.", "badges": [], "created_at": "2025-06-17T09:40:51.210-04:00", "updated_at": "2025-07-03T19:40:14.343-04:00", "avatar": "https://secure.gravatar.com/avatar/5b3b625a78f703f79f0d652fa50b0bf2.jpg?s=512&d=https%3A%2F%2Fa.slack-edge.com%2Fdf10d%2Fimg%2Favatars%2Fava_0004-512.png", "custom_css": null}, {"id": 6455, "slack_id": "U092GU31G3A", "display_name": "Aztarium", "bio": null, "projects_count": 0, "devlogs_count": 0, "votes_count": 0, "ships_count": 0, "projects": [], "coding_time_seconds": 0, "coding_time_seconds_today": 0, "balance": "You need to have a pocket watcher badge to view this.", "badges": [], "created_at": "2025-06-17T09:40:51.595-04:00", "updated_at": "2025-07-03T19:40:14.609-04:00", "avatar": "https://secure.gravatar.com/avatar/cf6826fe5ee57dc8d5ed2da08062f194.jpg?s=512&d=https%3A%2F%2Fa.slack-edge.com%2Fdf10d%2Fimg%2Favatars%2Fava_0000-512.png", "custom_css": null}, {"id": 6456, "slack_id": "U091SR98221", "display_name": "Tanavdeep Singh", "bio": null, "projects_count": 0, "devlogs_count": 0, "votes_count": 0, "ships_count": 0, "projects": [], "coding_time_seconds": 0, "coding_time_seconds_today": 0, "balance": "You need to have a pocket watcher badge to view this.", "badges": [], "created_at": "2025-06-17T09:41:42.329-04:00", "updated_at": "2025-07-03T19:40:14.878-04:00", "avatar": "https://secure.gravatar.com/avatar/8b44c8a74a37cf7a5d5acf02d3ca2e8d.jpg?s=512&d=https%3A%2F%2Fa.slack-edge.com%2Fdf10d%2Fimg%2Favatars%2Fava_0019-512.png", "custom_css": null}, {"id": 6457, "slack_id": "U091MQJG58B", "display_name": "Pillu", "bio": null, "projects_count": 0, "devlogs_count": 0, "votes_count": 0, "ships_count": 0, "projects": [], "coding_time_seconds": 0, "coding_time_seconds_today": 0, "balance": "You need to have a pocket watcher badge to view this.", "badges": [], "created_at": "2025-06-17T09:41:58.321-04:00", "updated_at": "2025-07-03T19:40:15.151-04:00", "avatar": "https://secure.gravatar.com/avatar/e7b933797b48d27597e8db02250a4afd.jpg?s=512&d=https%3A%2F%2Fa.slack-edge.com%2Fdf10d%2Fimg%2Favatars%2Fava_0022-512.png", "custom_css": null}, {"id": 6458, "slack_id": "U091UHVTY1Y", "display_name": "Kristoffer Fredrik Dahle Melen", "bio": null, "projects_count": 0, "devlogs_count": 0, "votes_count": 0, "ships_count": 0, "projects": [], "coding_time_seconds": 109634, "coding_time_seconds_today": 0, "balance": "You need to have a pocket watcher badge to view this.", "badges": [], "created_at": "2025-06-17T09:42:00.738-04:00", "updated_at": "2025-07-03T19:40:15.427-04:00", "avatar": "https://secure.gravatar.com/avatar/4dcc0a4fb417372b42994cae1bf7de80.jpg?s=512&d=https%3A%2F%2Fa.slack-edge.com%2Fdf10d%2Fimg%2Favatars%2Fava_0017-512.png", "custom_css": null}, {"id": 6459, "slack_id": "U07H1HQFDT7", "display_name": "cozy", "bio": null, "projects_count": 0, "devlogs_count": 0, "votes_count": 2, "ships_count": 0, "projects": [], "coding_time_seconds": 0, "coding_time_seconds_today": 0, "balance": "You need to have a pocket watcher badge to view this.", "badges": [], "created_at": "2025-06-17T09:42:12.619-04:00", "updated_at": "2025-07-03T22:34:39.606-04:00", "avatar": "https://avatars.slack-edge.com/2024-08-15/7583937181650_92e6a87b0c7b8d4e3aa9_original.png", "custom_css": null}, {"id": 6460, "slack_id": "U091MQQT2TV", "display_name": "Fabio Cattaneo", "bio": null, "projects_count": 0, "devlogs_count": 0, "votes_count": 0, "ships_count": 0, "projects": [], "coding_time_seconds": 196768, "coding_time_seconds_today": 0, "balance": "You need to have a pocket watcher badge to view this.", "badges": [], "created_at": "2025-06-17T09:42:19.639-04:00", "updated_at": "2025-07-03T19:40:15.829-04:00", "avatar": "https://secure.gravatar.com/avatar/6d59f7b7b7d056fbe6e2dc045c1ed265.jpg?s=512&d=https%3A%2F%2Fa.slack-edge.com%2Fdf10d%2Fimg%2Favatars%2Fava_0004-512.png", "custom_css": null}], "pagination": {"page": 323, "pages": 1192, "count": 23828, "items": 20}}