{"users": [{"id": 6461, "slack_id": "U091MQSFYCB", "display_name": "xavwe", "bio": null, "projects_count": 4, "devlogs_count": 3, "votes_count": 0, "ships_count": 0, "projects": [{"id": 1504, "title": "Development Templates", "devlogs_count": 1, "created_at": "2025-06-18T16:42:05.273-04:00"}, {"id": 1505, "title": "Learning Latin", "devlogs_count": 2, "created_at": "2025-06-18T16:44:38.482-04:00"}, {"id": 4053, "title": "NixOS Configuration", "devlogs_count": 0, "created_at": "2025-06-27T05:09:57.779-04:00"}, {"id": 4054, "title": "extract", "devlogs_count": 0, "created_at": "2025-06-27T05:18:43.876-04:00"}], "coding_time_seconds": 398087, "coding_time_seconds_today": 0, "balance": "You need to have a pocket watcher badge to view this.", "badges": [], "created_at": "2025-06-17T09:42:52.395-04:00", "updated_at": "2025-07-03T19:40:16.172-04:00", "avatar": "https://secure.gravatar.com/avatar/c74eb8f68537c57a99385ccf57798ed1.jpg?s=512&d=https%3A%2F%2Fa.slack-edge.com%2Fdf10d%2Fimg%2Favatars%2Fava_0016-512.png", "custom_css": null}, {"id": 6462, "slack_id": "U091N08T8Q6", "display_name": "Sac", "bio": null, "projects_count": 0, "devlogs_count": 0, "votes_count": 0, "ships_count": 0, "projects": [], "coding_time_seconds": 0, "coding_time_seconds_today": 0, "balance": "You need to have a pocket watcher badge to view this.", "badges": [], "created_at": "2025-06-17T09:43:44.497-04:00", "updated_at": "2025-07-03T19:40:16.432-04:00", "avatar": "https://secure.gravatar.com/avatar/d2ab53472d6707c40510693b2a90e54d.jpg?s=512&d=https%3A%2F%2Fa.slack-edge.com%2Fdf10d%2Fimg%2Favatars%2Fava_0020-512.png", "custom_css": null}, {"id": 6463, "slack_id": "U091D6QLJH5", "display_name": "sindhu", "bio": null, "projects_count": 0, "devlogs_count": 0, "votes_count": 0, "ships_count": 0, "projects": [], "coding_time_seconds": 0, "coding_time_seconds_today": 0, "balance": "You need to have a pocket watcher badge to view this.", "badges": [], "created_at": "2025-06-17T09:44:09.854-04:00", "updated_at": "2025-07-03T19:40:16.692-04:00", "avatar": "https://secure.gravatar.com/avatar/8132a853025d7fef3f4bb69d22077dfc.jpg?s=512&d=https%3A%2F%2Fa.slack-edge.com%2Fdf10d%2Fimg%2Favatars%2Fava_0012-512.png", "custom_css": null}, {"id": 6464, "slack_id": "U091MVCKM7G", "display_name": "Chetan Bogali", "bio": null, "projects_count": 0, "devlogs_count": 0, "votes_count": 0, "ships_count": 0, "projects": [], "coding_time_seconds": 0, "coding_time_seconds_today": 0, "balance": "You need to have a pocket watcher badge to view this.", "badges": [], "created_at": "2025-06-17T09:44:23.855-04:00", "updated_at": "2025-07-03T19:40:16.978-04:00", "avatar": "https://secure.gravatar.com/avatar/ce5da49f9dc5400b810650eb3cb2dabe.jpg?s=512&d=https%3A%2F%2Fa.slack-edge.com%2Fdf10d%2Fimg%2Favatars%2Fava_0003-512.png", "custom_css": null}, {"id": 6465, "slack_id": "U08CSHD0598", "display_name": "Cassie", "bio": null, "projects_count": 0, "devlogs_count": 0, "votes_count": 0, "ships_count": 0, "projects": [], "coding_time_seconds": 0, "coding_time_seconds_today": 0, "balance": "You need to have a pocket watcher badge to view this.", "badges": [], "created_at": "2025-06-17T09:44:34.531-04:00", "updated_at": "2025-08-01T16:44:52.038-04:00", "avatar": "https://avatars.slack-edge.com/2025-02-11/8433183087077_a3c8a1e3efa12d283d9f_original.jpg", "custom_css": null}, {"id": 6466, "slack_id": "U091N081TKQ", "display_name": "Liam", "bio": null, "projects_count": 1, "devlogs_count": 0, "votes_count": 0, "ships_count": 0, "projects": [{"id": 1440, "title": "BeamNG.Drive Mirror Ornament Motion Simulator", "devlogs_count": 0, "created_at": "2025-06-18T14:53:51.093-04:00"}], "coding_time_seconds": 30884, "coding_time_seconds_today": 0, "balance": "You need to have a pocket watcher badge to view this.", "badges": [], "created_at": "2025-06-17T09:44:39.050-04:00", "updated_at": "2025-07-03T19:40:17.510-04:00", "avatar": "https://secure.gravatar.com/avatar/a64157ae610e1e940973e6c65450e29c.jpg?s=512&d=https%3A%2F%2Fa.slack-edge.com%2Fdf10d%2Fimg%2Favatars%2Fava_0002-512.png", "custom_css": null}, {"id": 6467, "slack_id": "U091D6YKRD5", "display_name": "coneastdev", "bio": null, "projects_count": 0, "devlogs_count": 0, "votes_count": 0, "ships_count": 0, "projects": [], "coding_time_seconds": 0, "coding_time_seconds_today": 0, "balance": "You need to have a pocket watcher badge to view this.", "badges": [], "created_at": "2025-06-17T09:45:01.798-04:00", "updated_at": "2025-07-03T19:40:17.772-04:00", "avatar": "https://secure.gravatar.com/avatar/15445eb551fcc4c9153c0051138d7f68.jpg?s=512&d=https%3A%2F%2Fa.slack-edge.com%2Fdf10d%2Fimg%2Favatars%2Fava_0011-512.png", "custom_css": null}, {"id": 6468, "slack_id": "U091UVD09HA", "display_name": "PG", "bio": null, "projects_count": 0, "devlogs_count": 0, "votes_count": 0, "ships_count": 0, "projects": [], "coding_time_seconds": 64470, "coding_time_seconds_today": 0, "balance": "You need to have a pocket watcher badge to view this.", "badges": [], "created_at": "2025-06-17T09:45:05.617-04:00", "updated_at": "2025-07-03T19:40:18.042-04:00", "avatar": "https://secure.gravatar.com/avatar/b2180784ea65ccec69056d87dfe91b61.jpg?s=512&d=https%3A%2F%2Fa.slack-edge.com%2Fdf10d%2Fimg%2Favatars%2Fava_0003-512.png", "custom_css": null}, {"id": 6469, "slack_id": "U091SRRJ1K7", "display_name": "TAFAT", "bio": null, "projects_count": 0, "devlogs_count": 0, "votes_count": 0, "ships_count": 0, "projects": [], "coding_time_seconds": 0, "coding_time_seconds_today": 0, "balance": "You need to have a pocket watcher badge to view this.", "badges": [], "created_at": "2025-06-17T09:45:19.044-04:00", "updated_at": "2025-07-03T19:40:18.304-04:00", "avatar": "https://secure.gravatar.com/avatar/ac9cf17f5c7a1cc1f1ac74691089d294.jpg?s=512&d=https%3A%2F%2Fa.slack-edge.com%2Fdf10d%2Fimg%2Favatars%2Fava_0024-512.png", "custom_css": null}, {"id": 6470, "slack_id": "U091SLX05SR", "display_name": "AJGecko", "bio": null, "projects_count": 0, "devlogs_count": 0, "votes_count": 0, "ships_count": 0, "projects": [], "coding_time_seconds": 0, "coding_time_seconds_today": 0, "balance": "You need to have a pocket watcher badge to view this.", "badges": [], "created_at": "2025-06-17T09:45:27.442-04:00", "updated_at": "2025-07-03T19:40:18.563-04:00", "avatar": "https://secure.gravatar.com/avatar/11555cf61d5dac8065575df8ef5b09fb.jpg?s=512&d=https%3A%2F%2Fa.slack-edge.com%2Fdf10d%2Fimg%2Favatars%2Fava_0023-512.png", "custom_css": null}, {"id": 6471, "slack_id": "U091D7D3S79", "display_name": "Arman", "bio": null, "projects_count": 0, "devlogs_count": 0, "votes_count": 0, "ships_count": 0, "projects": [], "coding_time_seconds": 0, "coding_time_seconds_today": 0, "balance": "You need to have a pocket watcher badge to view this.", "badges": [], "created_at": "2025-06-17T09:46:34.438-04:00", "updated_at": "2025-07-03T19:40:18.847-04:00", "avatar": "https://secure.gravatar.com/avatar/04002838a6afb3654c3b3eb85ba0d91b.jpg?s=512&d=https%3A%2F%2Fa.slack-edge.com%2Fdf10d%2Fimg%2Favatars%2Fava_0024-512.png", "custom_css": null}, {"id": 6472, "slack_id": "U08PJKLAN76", "display_name": "Ryan Latimer", "bio": null, "projects_count": 1, "devlogs_count": 6, "votes_count": 20, "ships_count": 1, "projects": [{"id": 1911, "title": "HackCraft", "devlogs_count": 6, "created_at": "2025-06-19T15:33:14.036-04:00"}], "coding_time_seconds": 128994, "coding_time_seconds_today": 0, "balance": "You need to have a pocket watcher badge to view this.", "badges": [{"name": "Maiden Voyage", "text": "you shipped your first project! the journey begins...", "icon": "\ud83d\udea2"}], "created_at": "2025-06-17T09:47:02.211-04:00", "updated_at": "2025-09-10T22:54:22.961-04:00", "avatar": "https://avatars.slack-edge.com/2025-04-27/8835427718688_fcd8e4a46b08239a3881_original.png", "custom_css": null}, {"id": 6473, "slack_id": "U091N0GGX70", "display_name": "Aravind", "bio": null, "projects_count": 0, "devlogs_count": 0, "votes_count": 0, "ships_count": 0, "projects": [], "coding_time_seconds": 0, "coding_time_seconds_today": 0, "balance": "You need to have a pocket watcher badge to view this.", "badges": [], "created_at": "2025-06-17T09:47:10.794-04:00", "updated_at": "2025-07-03T19:40:19.372-04:00", "avatar": "https://secure.gravatar.com/avatar/3c3bf6a70c192d824b0d70869ecbdfd5.jpg?s=512&d=https%3A%2F%2Fa.slack-edge.com%2Fdf10d%2Fimg%2Favatars%2Fava_0003-512.png", "custom_css": null}, {"id": 6474, "slack_id": "U0826UE476E", "display_name": "Illia", "bio": null, "projects_count": 4, "devlogs_count": 7, "votes_count": 42, "ships_count": 3, "projects": [{"id": 4412, "title": "wwidgt", "devlogs_count": 3, "created_at": "2025-06-29T17:47:34.908-04:00"}, {"id": 7302, "title": "RC Car", "devlogs_count": 1, "created_at": "2025-07-20T18:27:48.673-04:00"}, {"id": 12280, "title": "rogue-like game", "devlogs_count": 0, "created_at": "2025-08-25T08:25:16.960-04:00"}, {"id": 12140, "title": "chat", "devlogs_count": 3, "created_at": "2025-08-23T13:21:08.223-04:00"}], "coding_time_seconds": 194456, "coding_time_seconds_today": 0, "balance": "You need to have a pocket watcher badge to view this.", "badges": [{"name": "Maiden Voyage", "text": "you shipped your first project! the journey begins...", "icon": "\ud83d\udea2"}], "created_at": "2025-06-17T09:47:14.326-04:00", "updated_at": "2025-09-10T22:54:23.041-04:00", "avatar": "https://secure.gravatar.com/avatar/64b7c491aa5bf45fafdf1a72ac3e39eb.jpg?s=512&d=https%3A%2F%2Fa.slack-edge.com%2Fdf10d%2Fimg%2Favatars%2Fava_0010-512.png", "custom_css": null}, {"id": 6475, "slack_id": "U091V0D0XQU", "display_name": "pojej", "bio": null, "projects_count": 0, "devlogs_count": 0, "votes_count": 0, "ships_count": 0, "projects": [], "coding_time_seconds": 9433, "coding_time_seconds_today": 0, "balance": "You need to have a pocket watcher badge to view this.", "badges": [], "created_at": "2025-06-17T09:47:23.554-04:00", "updated_at": "2025-07-03T19:40:19.798-04:00", "avatar": "https://secure.gravatar.com/avatar/825527a21986b1b2ded413d3b7cb43a6.jpg?s=512&d=https%3A%2F%2Fa.slack-edge.com%2Fdf10d%2Fimg%2Favatars%2Fava_0011-512.png", "custom_css": null}, {"id": 6476, "slack_id": "U091KB47VR9", "display_name": "LagSeeN", "bio": null, "projects_count": 0, "devlogs_count": 0, "votes_count": 0, "ships_count": 0, "projects": [], "coding_time_seconds": 0, "coding_time_seconds_today": 0, "balance": "You need to have a pocket watcher badge to view this.", "badges": [], "created_at": "2025-06-17T09:48:03.204-04:00", "updated_at": "2025-07-03T21:44:11.557-04:00", "avatar": "https://secure.gravatar.com/avatar/b9eb1e6653e37449eafaef150ddfacbc.jpg?s=512&d=https%3A%2F%2Fa.slack-edge.com%2Fdf10d%2Fimg%2Favatars%2Fava_0019-512.png", "custom_css": null}, {"id": 6477, "slack_id": "U091MRLEUE7", "display_name": "solangi izhar", "bio": null, "projects_count": 0, "devlogs_count": 0, "votes_count": 0, "ships_count": 0, "projects": [], "coding_time_seconds": 0, "coding_time_seconds_today": 0, "balance": "You need to have a pocket watcher badge to view this.", "badges": [], "created_at": "2025-06-17T09:48:11.393-04:00", "updated_at": "2025-07-03T19:40:20.196-04:00", "avatar": "https://avatars.slack-edge.com/2025-06-17/9060938199157_f39f546c30e157a85274_original.jpg", "custom_css": null}, {"id": 6478, "slack_id": "U091ST2EMMK", "display_name": "Muhammad Saad", "bio": null, "projects_count": 0, "devlogs_count": 0, "votes_count": 0, "ships_count": 0, "projects": [], "coding_time_seconds": 165, "coding_time_seconds_today": 0, "balance": "You need to have a pocket watcher badge to view this.", "badges": [], "created_at": "2025-06-17T09:48:15.644-04:00", "updated_at": "2025-07-03T19:40:20.460-04:00", "avatar": "https://secure.gravatar.com/avatar/0a49fa04e6f9985d6435d20e91d0aa0b.jpg?s=512&d=https%3A%2F%2Fa.slack-edge.com%2Fdf10d%2Fimg%2Favatars%2Fava_0015-512.png", "custom_css": null}, {"id": 6479, "slack_id": "U091D7KKHFZ", "display_name": "Jeff Bailey", "bio": null, "projects_count": 0, "devlogs_count": 0, "votes_count": 0, "ships_count": 0, "projects": [], "coding_time_seconds": 0, "coding_time_seconds_today": 0, "balance": "You need to have a pocket watcher badge to view this.", "badges": [], "created_at": "2025-06-17T09:48:16.621-04:00", "updated_at": "2025-07-03T19:40:20.718-04:00", "avatar": "https://avatars.slack-edge.com/2025-06-17/9055893671427_c51bc4575514fef82c89_original.png", "custom_css": null}, {"id": 6480, "slack_id": "U091L9T19PV", "display_name": "Varshith B R", "bio": null, "projects_count": 1, "devlogs_count": 1, "votes_count": 0, "ships_count": 0, "projects": [{"id": 866, "title": "Ai-Chat-Assistant", "devlogs_count": 1, "created_at": "2025-06-17T10:05:08.246-04:00"}], "coding_time_seconds": 8539, "coding_time_seconds_today": 0, "balance": "You need to have a pocket watcher badge to view this.", "badges": [], "created_at": "2025-06-17T09:48:21.944-04:00", "updated_at": "2025-07-03T19:40:20.977-04:00", "avatar": "https://secure.gravatar.com/avatar/7ad7d5154d43665c453f411e818910e8.jpg?s=512&d=https%3A%2F%2Fa.slack-edge.com%2Fdf10d%2Fimg%2Favatars%2Fava_0017-512.png", "custom_css": null}], "pagination": {"page": 324, "pages": 1192, "count": 23828, "items": 20}}