{"users": [{"id": 6481, "slack_id": "U091V0JMJLU", "display_name": "Jerlyn Rodr\u00edguez", "bio": null, "projects_count": 0, "devlogs_count": 0, "votes_count": 0, "ships_count": 0, "projects": [], "coding_time_seconds": 0, "coding_time_seconds_today": 0, "balance": "You need to have a pocket watcher badge to view this.", "badges": [], "created_at": "2025-06-17T09:48:43.105-04:00", "updated_at": "2025-07-04T20:06:55.827-04:00", "avatar": "https://secure.gravatar.com/avatar/7f43d7ad4471c901e8ec7e8e050e8cd9.jpg?s=512&d=https%3A%2F%2Fa.slack-edge.com%2Fdf10d%2Fimg%2Favatars%2Fava_0009-512.png", "custom_css": null}, {"id": 6482, "slack_id": "U091B4PJ17H", "display_name": "22IT116 PATEL TRUSHANGKUMAR SUMANBHAI", "bio": null, "projects_count": 0, "devlogs_count": 0, "votes_count": 0, "ships_count": 0, "projects": [], "coding_time_seconds": 0, "coding_time_seconds_today": 0, "balance": "You need to have a pocket watcher badge to view this.", "badges": [], "created_at": "2025-06-17T09:48:48.722-04:00", "updated_at": "2025-07-03T19:40:21.382-04:00", "avatar": "https://avatars.slack-edge.com/2025-06-17/9063051270628_1a78cd05002264b94084_original.png", "custom_css": null}, {"id": 6483, "slack_id": "U09276DRQKB", "display_name": "andreudev", "bio": null, "projects_count": 0, "devlogs_count": 0, "votes_count": 0, "ships_count": 0, "projects": [], "coding_time_seconds": 34997, "coding_time_seconds_today": 0, "balance": "You need to have a pocket watcher badge to view this.", "badges": [], "created_at": "2025-06-17T09:48:58.655-04:00", "updated_at": "2025-07-03T21:44:12.081-04:00", "avatar": "https://secure.gravatar.com/avatar/91280f5f6d185f781a33b255bdb1eefb.jpg?s=512&d=https%3A%2F%2Fa.slack-edge.com%2Fdf10d%2Fimg%2Favatars%2Fava_0019-512.png", "custom_css": null}, {"id": 6484, "slack_id": "U091M9C23PV", "display_name": "daniel", "bio": null, "projects_count": 0, "devlogs_count": 0, "votes_count": 0, "ships_count": 0, "projects": [], "coding_time_seconds": 0, "coding_time_seconds_today": 0, "balance": "You need to have a pocket watcher badge to view this.", "badges": [], "created_at": "2025-06-17T09:49:02.629-04:00", "updated_at": "2025-07-03T19:40:21.790-04:00", "avatar": "https://secure.gravatar.com/avatar/f44d8f289deb066eb85fe9366d264f4d.jpg?s=512&d=https%3A%2F%2Fa.slack-edge.com%2Fdf10d%2Fimg%2Favatars%2Fava_0018-512.png", "custom_css": null}, {"id": 6485, "slack_id": "U091MRZKJDR", "display_name": "MD. Tarikul Islam", "bio": null, "projects_count": 0, "devlogs_count": 0, "votes_count": 0, "ships_count": 0, "projects": [], "coding_time_seconds": 0, "coding_time_seconds_today": 0, "balance": "You need to have a pocket watcher badge to view this.", "badges": [], "created_at": "2025-06-17T09:49:20.071-04:00", "updated_at": "2025-07-03T19:40:22.046-04:00", "avatar": "https://secure.gravatar.com/avatar/604cf43b4e13d1015897a2139b89dbbb.jpg?s=512&d=https%3A%2F%2Fa.slack-edge.com%2Fdf10d%2Fimg%2Favatars%2Fava_0024-512.png", "custom_css": null}, {"id": 6486, "slack_id": "U091MR6SJM9", "display_name": "Eclipse", "bio": null, "projects_count": 1, "devlogs_count": 10, "votes_count": 11, "ships_count": 1, "projects": [{"id": 2821, "title": "Kirby With Feet", "devlogs_count": 10, "created_at": "2025-06-22T06:37:49.975-04:00"}], "coding_time_seconds": 75656, "coding_time_seconds_today": 0, "balance": "You need to have a pocket watcher badge to view this.", "badges": [{"name": "Maiden Voyage", "text": "you shipped your first project! the journey begins...", "icon": "\ud83d\udea2"}], "created_at": "2025-06-17T09:49:25.186-04:00", "updated_at": "2025-09-10T22:54:23.339-04:00", "avatar": "https://avatars.slack-edge.com/2025-06-22/9079999405670_99298563c90b0426aa80_original.gif", "custom_css": null}, {"id": 6487, "slack_id": "U08286A6HE1", "display_name": "Mejpek", "bio": null, "projects_count": 1, "devlogs_count": 8, "votes_count": 0, "ships_count": 0, "projects": [{"id": 8705, "title": "VATATS", "devlogs_count": 8, "created_at": "2025-07-29T02:01:17.551-04:00"}], "coding_time_seconds": 193975, "coding_time_seconds_today": 4072, "balance": "You need to have a pocket watcher badge to view this.", "badges": [], "created_at": "2025-06-17T09:49:39.405-04:00", "updated_at": "2025-09-22T16:27:26.433-04:00", "avatar": "https://avatars.slack-edge.com/2025-09-22/9547784784551_ad9eaf949dd95f4ee8c7_original.png", "custom_css": null}, {"id": 6488, "slack_id": "U0926PCCXCH", "display_name": "Pushkar Lal", "bio": null, "projects_count": 0, "devlogs_count": 0, "votes_count": 0, "ships_count": 0, "projects": [], "coding_time_seconds": 0, "coding_time_seconds_today": 0, "balance": "You need to have a pocket watcher badge to view this.", "badges": [], "created_at": "2025-06-17T09:50:12.189-04:00", "updated_at": "2025-07-03T19:40:22.848-04:00", "avatar": "https://avatars.slack-edge.com/2025-06-17/9055906492115_80d83249cd2e84b21897_original.jpg", "custom_css": null}, {"id": 6489, "slack_id": "U091N1B5XGE", "display_name": "Elinne", "bio": null, "projects_count": 0, "devlogs_count": 0, "votes_count": 0, "ships_count": 0, "projects": [], "coding_time_seconds": 41255, "coding_time_seconds_today": 0, "balance": "You need to have a pocket watcher badge to view this.", "badges": [], "created_at": "2025-06-17T09:50:34.588-04:00", "updated_at": "2025-07-03T19:40:23.119-04:00", "avatar": "https://secure.gravatar.com/avatar/1310ef76960b8ca29bc543845e49e465.jpg?s=512&d=https%3A%2F%2Fa.slack-edge.com%2Fdf10d%2Fimg%2Favatars%2Fava_0003-512.png", "custom_css": null}, {"id": 6490, "slack_id": "U091MRWHFSP", "display_name": "sajjan pawar", "bio": null, "projects_count": 0, "devlogs_count": 0, "votes_count": 0, "ships_count": 0, "projects": [], "coding_time_seconds": 0, "coding_time_seconds_today": 0, "balance": "You need to have a pocket watcher badge to view this.", "badges": [], "created_at": "2025-06-17T09:50:37.978-04:00", "updated_at": "2025-07-03T19:40:23.388-04:00", "avatar": "https://secure.gravatar.com/avatar/008b009be4d7219f10051cf1d276661c.jpg?s=512&d=https%3A%2F%2Fa.slack-edge.com%2Fdf10d%2Fimg%2Favatars%2Fava_0015-512.png", "custom_css": null}, {"id": 6491, "slack_id": "U091V0NV0LC", "display_name": "Bhoomi Gharat", "bio": null, "projects_count": 1, "devlogs_count": 0, "votes_count": 0, "ships_count": 0, "projects": [{"id": 2229, "title": "No-Noise: Smarter Comment Blurrer", "devlogs_count": 0, "created_at": "2025-06-20T13:41:55.345-04:00"}], "coding_time_seconds": 129145, "coding_time_seconds_today": 0, "balance": "You need to have a pocket watcher badge to view this.", "badges": [], "created_at": "2025-06-17T09:50:39.649-04:00", "updated_at": "2025-07-03T19:40:23.650-04:00", "avatar": "https://avatars.slack-edge.com/2025-06-17/9063213824676_46395dc8e7f53272ddb4_original.jpg", "custom_css": null}, {"id": 6492, "slack_id": "U091D7V5ZN3", "display_name": "Huzaifa", "bio": null, "projects_count": 1, "devlogs_count": 15, "votes_count": 7, "ships_count": 1, "projects": [{"id": 2226, "title": "Project Sentient", "devlogs_count": 15, "created_at": "2025-06-20T13:38:33.873-04:00"}], "coding_time_seconds": 181001, "coding_time_seconds_today": 0, "balance": "You need to have a pocket watcher badge to view this.", "badges": [{"name": "Maiden Voyage", "text": "you shipped your first project! the journey begins...", "icon": "\ud83d\udea2"}], "created_at": "2025-06-17T09:50:52.724-04:00", "updated_at": "2025-09-10T22:54:23.479-04:00", "avatar": "https://avatars.slack-edge.com/2025-06-21/9083814002706_205985e3a2e935c1e174_original.jpg", "custom_css": null}, {"id": 6493, "slack_id": "U07HY2ERDUY", "display_name": "Ahmed Saif Eldeen", "bio": null, "projects_count": 1, "devlogs_count": 0, "votes_count": 4, "ships_count": 0, "projects": [{"id": 5270, "title": "Educational Olympiad Calculus-Based Physics Guide", "devlogs_count": 0, "created_at": "2025-07-04T05:58:41.193-04:00"}], "coding_time_seconds": 32456, "coding_time_seconds_today": 0, "balance": "You need to have a pocket watcher badge to view this.", "badges": [], "created_at": "2025-06-17T09:51:17.285-04:00", "updated_at": "2025-08-21T14:30:25.372-04:00", "avatar": "https://avatars.slack-edge.com/2024-08-16/7580654688134_9d411ea3c66cf8f45ef0_original.png", "custom_css": null}, {"id": 6494, "slack_id": "U091D80F13R", "display_name": "Mansoor Ahmed", "bio": null, "projects_count": 0, "devlogs_count": 0, "votes_count": 0, "ships_count": 0, "projects": [], "coding_time_seconds": 1907, "coding_time_seconds_today": 0, "balance": "You need to have a pocket watcher badge to view this.", "badges": [], "created_at": "2025-06-17T09:51:31.587-04:00", "updated_at": "2025-07-03T19:40:24.183-04:00", "avatar": "https://secure.gravatar.com/avatar/988391adc901b613f850c22ca81e2897.jpg?s=512&d=https%3A%2F%2Fa.slack-edge.com%2Fdf10d%2Fimg%2Favatars%2Fava_0017-512.png", "custom_css": null}, {"id": 6495, "slack_id": "U091J02T7A7", "display_name": "BinaryGOLF", "bio": null, "projects_count": 0, "devlogs_count": 0, "votes_count": 0, "ships_count": 0, "projects": [], "coding_time_seconds": 0, "coding_time_seconds_today": 0, "balance": "You need to have a pocket watcher badge to view this.", "badges": [], "created_at": "2025-06-17T09:52:11.722-04:00", "updated_at": "2025-07-03T22:34:42.299-04:00", "avatar": "https://secure.gravatar.com/avatar/d4e61c19fd03c2e4723bf39e4e808f8e.jpg?s=512&d=https%3A%2F%2Fa.slack-edge.com%2Fdf10d%2Fimg%2Favatars%2Fava_0003-512.png", "custom_css": null}, {"id": 6496, "slack_id": "U092H0RHEF2", "display_name": "Misbah Ullah", "bio": null, "projects_count": 1, "devlogs_count": 0, "votes_count": 0, "ships_count": 0, "projects": [{"id": 1390, "title": "School Life Helpers", "devlogs_count": 0, "created_at": "2025-06-18T13:15:27.459-04:00"}], "coding_time_seconds": 9291, "coding_time_seconds_today": 0, "balance": "You need to have a pocket watcher badge to view this.", "badges": [], "created_at": "2025-06-17T09:52:18.978-04:00", "updated_at": "2025-07-03T19:40:24.585-04:00", "avatar": "https://secure.gravatar.com/avatar/016e2f2ae1561dd599fc06c502296fbd.jpg?s=512&d=https%3A%2F%2Fa.slack-edge.com%2Fdf10d%2Fimg%2Favatars%2Fava_0024-512.png", "custom_css": null}, {"id": 6497, "slack_id": "U091MSDT091", "display_name": "Yousuf Hasan Riyad", "bio": null, "projects_count": 0, "devlogs_count": 0, "votes_count": 0, "ships_count": 0, "projects": [], "coding_time_seconds": 0, "coding_time_seconds_today": 0, "balance": "You need to have a pocket watcher badge to view this.", "badges": [], "created_at": "2025-06-17T09:52:27.299-04:00", "updated_at": "2025-07-03T19:40:24.849-04:00", "avatar": "https://avatars.slack-edge.com/2025-06-17/9047302348519_dee5f44662d2d68919f1_original.jpg", "custom_css": null}, {"id": 6498, "slack_id": "U091MSEU7GT", "display_name": "\u0623\u062d\u0645\u062f \u0635\u0642\u0631", "bio": null, "projects_count": 0, "devlogs_count": 0, "votes_count": 0, "ships_count": 0, "projects": [], "coding_time_seconds": 0, "coding_time_seconds_today": 0, "balance": "You need to have a pocket watcher badge to view this.", "badges": [], "created_at": "2025-06-17T09:53:36.195-04:00", "updated_at": "2025-07-04T02:25:42.764-04:00", "avatar": "https://avatars.slack-edge.com/2025-06-17/9062695404066_3e3998e3a9c86674efd6_original.png", "custom_css": null}, {"id": 6499, "slack_id": "U091STGKU4D", "display_name": "Prasoon Kandel", "bio": "I'm Prasoon Kandel, a 13-year-old male student and tech enthusiast from Tilottama, Nepal. I\u2019m passionate about exploring technology and creating meaningful digital solutions that solve real-world problems.\r\n\r\nI work with Python, C++, Node.js, and Arduino to build smart systems, automate tasks, and experiment with web APIs. My interests also extend to artificial intelligence and machine learning, where I love learning by building and improving every day.", "projects_count": 3, "devlogs_count": 8, "votes_count": 38, "ships_count": 3, "projects": [{"id": 10858, "title": "Space Shotter", "devlogs_count": 2, "created_at": "2025-08-11T11:08:48.794-04:00"}, {"id": 11262, "title": "Income Tax Calculator", "devlogs_count": 2, "created_at": "2025-08-14T11:32:09.071-04:00"}, {"id": 10837, "title": "Bubble Tea", "devlogs_count": 1, "created_at": "2025-08-11T08:08:47.372-04:00"}], "coding_time_seconds": 141962, "coding_time_seconds_today": 1828, "balance": "You need to have a pocket watcher badge to view this.", "badges": [{"name": "Maiden Voyage", "text": "you shipped your first project! the journey begins...", "icon": "\ud83d\udea2"}], "created_at": "2025-06-17T09:54:01.855-04:00", "updated_at": "2025-09-10T22:54:23.651-04:00", "avatar": "https://avatars.slack-edge.com/2025-09-10/9493519773044_37023c7892f50c5438b6_original.jpg", "custom_css": null}, {"id": 6500, "slack_id": "U09277NKXKK", "display_name": "Noowz", "bio": null, "projects_count": 0, "devlogs_count": 0, "votes_count": 0, "ships_count": 0, "projects": [], "coding_time_seconds": 2396, "coding_time_seconds_today": 0, "balance": "You need to have a pocket watcher badge to view this.", "badges": [], "created_at": "2025-06-17T09:54:39.391-04:00", "updated_at": "2025-07-03T19:40:25.533-04:00", "avatar": "https://avatars.slack-edge.com/2025-06-17/9056099128643_fc71a353e3bdd04cdef4_original.jpg", "custom_css": null}], "pagination": {"page": 325, "pages": 1192, "count": 23828, "items": 20}}