{"users": [{"id": 6501, "slack_id": "U091V1W1S4U", "display_name": "Senith", "bio": null, "projects_count": 0, "devlogs_count": 0, "votes_count": 0, "ships_count": 0, "projects": [], "coding_time_seconds": 0, "coding_time_seconds_today": 0, "balance": "You need to have a pocket watcher badge to view this.", "badges": [], "created_at": "2025-06-17T09:54:43.906-04:00", "updated_at": "2025-07-05T02:07:19.471-04:00", "avatar": "https://secure.gravatar.com/avatar/74df13b8d3b1d56939ab49a0de94d133.jpg?s=512&d=https%3A%2F%2Fa.slack-edge.com%2Fdf10d%2Fimg%2Favatars%2Fava_0008-512.png", "custom_css": null}, {"id": 6502, "slack_id": "U09277L3F2M", "display_name": "Triet Tran", "bio": null, "projects_count": 0, "devlogs_count": 0, "votes_count": 0, "ships_count": 0, "projects": [], "coding_time_seconds": 0, "coding_time_seconds_today": 0, "balance": "You need to have a pocket watcher badge to view this.", "badges": [], "created_at": "2025-06-17T09:54:52.263-04:00", "updated_at": "2025-07-03T21:44:13.452-04:00", "avatar": "https://avatars.slack-edge.com/2025-06-17/9047317565175_f904f1d74192d133c9d7_original.png", "custom_css": null}, {"id": 6503, "slack_id": "U091KGLQ1PY", "display_name": "Yogesh Yadav", "bio": null, "projects_count": 0, "devlogs_count": 0, "votes_count": 0, "ships_count": 0, "projects": [], "coding_time_seconds": 0, "coding_time_seconds_today": 0, "balance": "You need to have a pocket watcher badge to view this.", "badges": [], "created_at": "2025-06-17T09:56:39.108-04:00", "updated_at": "2025-07-03T19:40:26.091-04:00", "avatar": "https://secure.gravatar.com/avatar/8b8b2b360a3a848bd21eb39884962800.jpg?s=512&d=https%3A%2F%2Fa.slack-edge.com%2Fdf10d%2Fimg%2Favatars%2Fava_0011-512.png", "custom_css": null}, {"id": 6504, "slack_id": "U091N2QDRD4", "display_name": "Xenon", "bio": null, "projects_count": 1, "devlogs_count": 2, "votes_count": 0, "ships_count": 0, "projects": [{"id": 2855, "title": "Discord CS2 Market Bot", "devlogs_count": 2, "created_at": "2025-06-22T08:31:56.442-04:00"}], "coding_time_seconds": 12006, "coding_time_seconds_today": 0, "balance": "You need to have a pocket watcher badge to view this.", "badges": [], "created_at": "2025-06-17T09:56:40.141-04:00", "updated_at": "2025-07-03T19:40:26.352-04:00", "avatar": "https://avatars.slack-edge.com/2025-06-17/9075292911425_6765ff0cb435988caa55_original.png", "custom_css": null}, {"id": 6505, "slack_id": "U091M1ZKPPV", "display_name": "Eli", "bio": null, "projects_count": 0, "devlogs_count": 0, "votes_count": 0, "ships_count": 0, "projects": [], "coding_time_seconds": 0, "coding_time_seconds_today": 0, "balance": "You need to have a pocket watcher badge to view this.", "badges": [], "created_at": "2025-06-17T09:57:23.614-04:00", "updated_at": "2025-07-03T19:40:26.620-04:00", "avatar": "https://secure.gravatar.com/avatar/d7f6808959599ab95ba2ab0cc4454d05.jpg?s=512&d=https%3A%2F%2Fa.slack-edge.com%2Fdf10d%2Fimg%2Favatars%2Fava_0022-512.png", "custom_css": null}, {"id": 6506, "slack_id": "U091V2PM1U4", "display_name": "Adukuri Shankar Srivathsa", "bio": null, "projects_count": 0, "devlogs_count": 0, "votes_count": 0, "ships_count": 0, "projects": [], "coding_time_seconds": 1397, "coding_time_seconds_today": 0, "balance": "You need to have a pocket watcher badge to view this.", "badges": [], "created_at": "2025-06-17T09:58:23.381-04:00", "updated_at": "2025-07-03T19:40:26.876-04:00", "avatar": "https://secure.gravatar.com/avatar/d51e520f117e741c5015e9612736a361.jpg?s=512&d=https%3A%2F%2Fa.slack-edge.com%2Fdf10d%2Fimg%2Favatars%2Fava_0024-512.png", "custom_css": null}, {"id": 6507, "slack_id": "U092H27F8BS", "display_name": "Utkarsh", "bio": null, "projects_count": 0, "devlogs_count": 0, "votes_count": 0, "ships_count": 0, "projects": [], "coding_time_seconds": 0, "coding_time_seconds_today": 0, "balance": "You need to have a pocket watcher badge to view this.", "badges": [], "created_at": "2025-06-17T09:58:42.010-04:00", "updated_at": "2025-07-03T21:56:10.349-04:00", "avatar": "https://avatars.slack-edge.com/2025-06-17/9056122547414_db55624f59fddb77cf79_original.png", "custom_css": null}, {"id": 6508, "slack_id": "U091UM07X34", "display_name": "guhasada", "bio": null, "projects_count": 0, "devlogs_count": 0, "votes_count": 0, "ships_count": 0, "projects": [], "coding_time_seconds": 9722, "coding_time_seconds_today": 0, "balance": "You need to have a pocket watcher badge to view this.", "badges": [], "created_at": "2025-06-17T09:59:16.265-04:00", "updated_at": "2025-07-03T19:40:27.292-04:00", "avatar": "https://secure.gravatar.com/avatar/49f3419cfcd88507c14e61bea1eebcb1.jpg?s=512&d=https%3A%2F%2Fa.slack-edge.com%2Fdf10d%2Fimg%2Favatars%2Fava_0024-512.png", "custom_css": null}, {"id": 6509, "slack_id": "U08GEUERFC6", "display_name": "Gabriel Pop", "bio": null, "projects_count": 1, "devlogs_count": 71, "votes_count": 16, "ships_count": 1, "projects": [{"id": 1014, "title": "MemeOS \u2013 A Web-Based \u201cOperating System\u201d Filled with Easter Eggs", "devlogs_count": 71, "created_at": "2025-06-17T13:41:44.533-04:00"}], "coding_time_seconds": 222075, "coding_time_seconds_today": 0, "balance": "You need to have a pocket watcher badge to view this.", "badges": [{"name": "Maiden Voyage", "text": "you shipped your first project! the journey begins...", "icon": "\ud83d\udea2"}, {"name": "Spider", "text": "this user has a pet!", "icon": "\ud83d\udd77\ufe0f"}], "created_at": "2025-06-17T09:59:35.342-04:00", "updated_at": "2025-09-10T22:54:24.050-04:00", "avatar": "https://secure.gravatar.com/avatar/bba772a2f350fa8dc8770c63fa95ad19.jpg?s=512&d=https%3A%2F%2Fa.slack-edge.com%2Fdf10d%2Fimg%2Favatars%2Fava_0010-512.png", "custom_css": null}, {"id": 6510, "slack_id": "U091MTB9GGK", "display_name": "PepeNuts", "bio": null, "projects_count": 0, "devlogs_count": 0, "votes_count": 0, "ships_count": 0, "projects": [], "coding_time_seconds": 924, "coding_time_seconds_today": 0, "balance": "You need to have a pocket watcher badge to view this.", "badges": [], "created_at": "2025-06-17T09:59:42.771-04:00", "updated_at": "2025-07-03T22:34:43.585-04:00", "avatar": "https://secure.gravatar.com/avatar/ddaa0497535d032b086f0b5340cca630.jpg?s=512&d=https%3A%2F%2Fa.slack-edge.com%2Fdf10d%2Fimg%2Favatars%2Fava_0021-512.png", "custom_css": null}, {"id": 6511, "slack_id": "U091UM0T8CS", "display_name": "Avishrant Sharma", "bio": null, "projects_count": 0, "devlogs_count": 0, "votes_count": 0, "ships_count": 0, "projects": [], "coding_time_seconds": 16909, "coding_time_seconds_today": 0, "balance": "You need to have a pocket watcher badge to view this.", "badges": [], "created_at": "2025-06-17T10:00:19.929-04:00", "updated_at": "2025-07-03T19:40:28.091-04:00", "avatar": "https://secure.gravatar.com/avatar/e10049171ac72996ecbcccce3ff6405a.jpg?s=512&d=https%3A%2F%2Fa.slack-edge.com%2Fdf10d%2Fimg%2Favatars%2Fava_0010-512.png", "custom_css": null}, {"id": 6512, "slack_id": "U091V2QRRV2", "display_name": "N0made", "bio": null, "projects_count": 0, "devlogs_count": 0, "votes_count": 0, "ships_count": 0, "projects": [], "coding_time_seconds": 0, "coding_time_seconds_today": 0, "balance": "You need to have a pocket watcher badge to view this.", "badges": [], "created_at": "2025-06-17T10:00:27.590-04:00", "updated_at": "2025-07-03T19:40:28.388-04:00", "avatar": "https://secure.gravatar.com/avatar/1097e03fbeeab7a1bf777d3a1aee611f.jpg?s=512&d=https%3A%2F%2Fa.slack-edge.com%2Fdf10d%2Fimg%2Favatars%2Fava_0000-512.png", "custom_css": null}, {"id": 6513, "slack_id": "U091D9SLPD5", "display_name": "Conrad", "bio": null, "projects_count": 0, "devlogs_count": 0, "votes_count": 0, "ships_count": 0, "projects": [], "coding_time_seconds": 4447, "coding_time_seconds_today": 0, "balance": "You need to have a pocket watcher badge to view this.", "badges": [], "created_at": "2025-06-17T10:00:36.833-04:00", "updated_at": "2025-07-03T19:40:28.664-04:00", "avatar": "https://secure.gravatar.com/avatar/0cb30b28fe0e3b6b7e869e808e309c13.jpg?s=512&d=https%3A%2F%2Fa.slack-edge.com%2Fdf10d%2Fimg%2Favatars%2Fava_0016-512.png", "custom_css": null}, {"id": 6514, "slack_id": "U091N2REYTG", "display_name": "yash", "bio": null, "projects_count": 0, "devlogs_count": 0, "votes_count": 0, "ships_count": 0, "projects": [], "coding_time_seconds": 1870, "coding_time_seconds_today": 0, "balance": "You need to have a pocket watcher badge to view this.", "badges": [], "created_at": "2025-06-17T10:00:39.652-04:00", "updated_at": "2025-07-03T19:40:28.964-04:00", "avatar": "https://secure.gravatar.com/avatar/e5c1d7d682badb4999d6abcbb74a3a6c.jpg?s=512&d=https%3A%2F%2Fa.slack-edge.com%2Fdf10d%2Fimg%2Favatars%2Fava_0011-512.png", "custom_css": null}, {"id": 6515, "slack_id": "U092H2V5V9N", "display_name": "Vedant Mahajan", "bio": null, "projects_count": 0, "devlogs_count": 0, "votes_count": 0, "ships_count": 0, "projects": [], "coding_time_seconds": 36811, "coding_time_seconds_today": 0, "balance": "You need to have a pocket watcher badge to view this.", "badges": [], "created_at": "2025-06-17T10:01:08.370-04:00", "updated_at": "2025-07-03T19:40:29.256-04:00", "avatar": "https://avatars.slack-edge.com/2025-06-17/9063138912292_9303bad5f460bec54f2f_original.png", "custom_css": null}, {"id": 6516, "slack_id": "U091UMWA9UJ", "display_name": "Guilherme Afonso", "bio": null, "projects_count": 0, "devlogs_count": 0, "votes_count": 0, "ships_count": 0, "projects": [], "coding_time_seconds": 0, "coding_time_seconds_today": 0, "balance": "You need to have a pocket watcher badge to view this.", "badges": [], "created_at": "2025-06-17T10:01:53.730-04:00", "updated_at": "2025-07-03T19:40:29.538-04:00", "avatar": "https://avatars.slack-edge.com/2025-06-17/9075337266945_cb0fba68246bd347bd6b_original.png", "custom_css": null}, {"id": 6517, "slack_id": "U080BFEAUG2", "display_name": "Rayhan Mohammed", "bio": null, "projects_count": 0, "devlogs_count": 0, "votes_count": 0, "ships_count": 0, "projects": [], "coding_time_seconds": 0, "coding_time_seconds_today": 0, "balance": "You need to have a pocket watcher badge to view this.", "badges": [], "created_at": "2025-06-17T10:01:56.746-04:00", "updated_at": "2025-07-03T19:40:29.807-04:00", "avatar": "https://avatars.slack-edge.com/2024-11-11/8024299454721_2b6db821c97801ac0e07_original.jpg", "custom_css": null}, {"id": 6518, "slack_id": "U091N455KJS", "display_name": "Abinav Kumar", "bio": null, "projects_count": 1, "devlogs_count": 7, "votes_count": 2, "ships_count": 0, "projects": [{"id": 1715, "title": "Manga Bot", "devlogs_count": 7, "created_at": "2025-06-19T04:38:33.283-04:00"}], "coding_time_seconds": 131882, "coding_time_seconds_today": 0, "balance": "You need to have a pocket watcher badge to view this.", "badges": [], "created_at": "2025-06-17T10:02:13.131-04:00", "updated_at": "2025-07-03T19:40:30.085-04:00", "avatar": "https://secure.gravatar.com/avatar/327a4c0e1369a2731fc384a25d46f7a6.jpg?s=512&d=https%3A%2F%2Fa.slack-edge.com%2Fdf10d%2Fimg%2Favatars%2Fava_0017-512.png", "custom_css": null}, {"id": 6519, "slack_id": "U09279MBPH7", "display_name": "jaxx", "bio": null, "projects_count": 0, "devlogs_count": 0, "votes_count": 0, "ships_count": 0, "projects": [], "coding_time_seconds": 0, "coding_time_seconds_today": 0, "balance": "You need to have a pocket watcher badge to view this.", "badges": [], "created_at": "2025-06-17T10:02:36.368-04:00", "updated_at": "2025-07-03T19:40:30.374-04:00", "avatar": "https://secure.gravatar.com/avatar/481912d0cde49e5851547e3f6bc01a27.jpg?s=512&d=https%3A%2F%2Fa.slack-edge.com%2Fdf10d%2Fimg%2Favatars%2Fava_0010-512.png", "custom_css": null}, {"id": 6520, "slack_id": "U091V3WJ6JY", "display_name": "Marvin James Erosa", "bio": null, "projects_count": 0, "devlogs_count": 0, "votes_count": 0, "ships_count": 0, "projects": [], "coding_time_seconds": 9128, "coding_time_seconds_today": 0, "balance": "You need to have a pocket watcher badge to view this.", "badges": [], "created_at": "2025-06-17T10:02:39.826-04:00", "updated_at": "2025-07-03T21:56:11.190-04:00", "avatar": "https://secure.gravatar.com/avatar/9d3ba93889c3eac390209f8e34d740d3.jpg?s=512&d=https%3A%2F%2Fa.slack-edge.com%2Fdf10d%2Fimg%2Favatars%2Fava_0020-512.png", "custom_css": null}], "pagination": {"page": 326, "pages": 1192, "count": 23828, "items": 20}}