{"users": [{"id": 6521, "slack_id": "U09279QRJFK", "display_name": "Francesco Galv\u00e3o", "bio": null, "projects_count": 0, "devlogs_count": 0, "votes_count": 0, "ships_count": 0, "projects": [], "coding_time_seconds": 0, "coding_time_seconds_today": 0, "balance": "You need to have a pocket watcher badge to view this.", "badges": [], "created_at": "2025-06-17T10:03:17.944-04:00", "updated_at": "2025-07-03T21:44:14.738-04:00", "avatar": "https://secure.gravatar.com/avatar/6455777aa8bcf6069e18b4c3e9c47c67.jpg?s=512&d=https%3A%2F%2Fa.slack-edge.com%2Fdf10d%2Fimg%2Favatars%2Fava_0020-512.png", "custom_css": null}, {"id": 6522, "slack_id": "U091DB1264X", "display_name": "DuzaZO", "bio": null, "projects_count": 0, "devlogs_count": 0, "votes_count": 0, "ships_count": 0, "projects": [], "coding_time_seconds": 0, "coding_time_seconds_today": 0, "balance": "You need to have a pocket watcher badge to view this.", "badges": [], "created_at": "2025-06-17T10:04:04.320-04:00", "updated_at": "2025-07-03T19:40:30.942-04:00", "avatar": "https://secure.gravatar.com/avatar/b535d123523a323f6a3220d3d0055d9d.jpg?s=512&d=https%3A%2F%2Fa.slack-edge.com%2Fdf10d%2Fimg%2Favatars%2Fava_0025-512.png", "custom_css": null}, {"id": 6523, "slack_id": "U091V482F1S", "display_name": "Xuan", "bio": null, "projects_count": 0, "devlogs_count": 0, "votes_count": 0, "ships_count": 0, "projects": [], "coding_time_seconds": 0, "coding_time_seconds_today": 0, "balance": "You need to have a pocket watcher badge to view this.", "badges": [], "created_at": "2025-06-17T10:04:06.106-04:00", "updated_at": "2025-07-05T20:07:43.191-04:00", "avatar": "https://secure.gravatar.com/avatar/a56adbe24335838f7b73205dabd303db.jpg?s=512&d=https%3A%2F%2Fa.slack-edge.com%2Fdf10d%2Fimg%2Favatars%2Fava_0008-512.png", "custom_css": null}, {"id": 6524, "slack_id": "U091DB33QF9", "display_name": "Shreyash Arya", "bio": null, "projects_count": 1, "devlogs_count": 0, "votes_count": 0, "ships_count": 0, "projects": [{"id": 870, "title": "Strabo", "devlogs_count": 0, "created_at": "2025-06-17T10:12:13.355-04:00"}], "coding_time_seconds": 236827, "coding_time_seconds_today": 1088, "balance": "You need to have a pocket watcher badge to view this.", "badges": [], "created_at": "2025-06-17T10:04:15.355-04:00", "updated_at": "2025-07-03T19:40:31.349-04:00", "avatar": "https://secure.gravatar.com/avatar/05a034d3334162e7f5856c840e4e5424.jpg?s=512&d=https%3A%2F%2Fa.slack-edge.com%2Fdf10d%2Fimg%2Favatars%2Fava_0024-512.png", "custom_css": null}, {"id": 6525, "slack_id": "U07TXU8QVC7", "display_name": "mellina", "bio": null, "projects_count": 1, "devlogs_count": 1, "votes_count": 0, "ships_count": 0, "projects": [{"id": 1734, "title": "Plant app", "devlogs_count": 1, "created_at": "2025-06-19T05:52:52.977-04:00"}], "coding_time_seconds": 104812, "coding_time_seconds_today": 0, "balance": "You need to have a pocket watcher badge to view this.", "badges": [], "created_at": "2025-06-17T10:05:40.338-04:00", "updated_at": "2025-09-05T13:35:36.416-04:00", "avatar": "https://secure.gravatar.com/avatar/38c12327a00ebe8c1e068e9d6e53f16d.jpg?s=512&d=https%3A%2F%2Fa.slack-edge.com%2Fdf10d%2Fimg%2Favatars%2Fava_0018-512.png", "custom_css": null}, {"id": 6526, "slack_id": "U091UNL5PGA", "display_name": "Bishal Katuwal", "bio": null, "projects_count": 0, "devlogs_count": 0, "votes_count": 0, "ships_count": 0, "projects": [], "coding_time_seconds": 0, "coding_time_seconds_today": 0, "balance": "You need to have a pocket watcher badge to view this.", "badges": [], "created_at": "2025-06-17T10:06:49.284-04:00", "updated_at": "2025-07-03T19:40:31.876-04:00", "avatar": "https://avatars.slack-edge.com/2025-06-17/9075372421041_5d65929ec0ce313865a7_original.png", "custom_css": null}, {"id": 6527, "slack_id": "U091DB82PDM", "display_name": "Lennox", "bio": null, "projects_count": 1, "devlogs_count": 7, "votes_count": 0, "ships_count": 0, "projects": [{"id": 1111, "title": "Missile Wars (Minecraft Paper Plugin)", "devlogs_count": 7, "created_at": "2025-06-17T16:35:38.842-04:00"}], "coding_time_seconds": 345394, "coding_time_seconds_today": 0, "balance": "You need to have a pocket watcher badge to view this.", "badges": [], "created_at": "2025-06-17T10:06:56.029-04:00", "updated_at": "2025-07-03T21:44:15.220-04:00", "avatar": "https://secure.gravatar.com/avatar/8ad4a1e93424419ecb81276a8e2b8799.jpg?s=512&d=https%3A%2F%2Fa.slack-edge.com%2Fdf10d%2Fimg%2Favatars%2Fava_0014-512.png", "custom_css": null}, {"id": 6528, "slack_id": "U0815D67X7W", "display_name": "Emily Butera", "bio": "Crazy person", "projects_count": 2, "devlogs_count": 18, "votes_count": 28, "ships_count": 2, "projects": [{"id": 3221, "title": "Color Match", "devlogs_count": 15, "created_at": "2025-06-23T13:53:09.207-04:00"}, {"id": 3222, "title": "Physics Calculator", "devlogs_count": 3, "created_at": "2025-06-23T13:54:23.990-04:00"}], "coding_time_seconds": 54941, "coding_time_seconds_today": 0, "balance": "You need to have a pocket watcher badge to view this.", "badges": [{"name": "Maiden Voyage", "text": "you shipped your first project! the journey begins...", "icon": "\ud83d\udea2"}], "created_at": "2025-06-17T10:07:16.455-04:00", "updated_at": "2025-09-10T22:54:24.530-04:00", "avatar": "https://avatars.slack-edge.com/2024-12-04/8126007624498_626d2aa5e81edcc0cfcf_original.jpg", "custom_css": null}, {"id": 6529, "slack_id": "U091V4YGH4L", "display_name": "Jos\u00e9 Teixeira", "bio": null, "projects_count": 0, "devlogs_count": 0, "votes_count": 0, "ships_count": 0, "projects": [], "coding_time_seconds": 0, "coding_time_seconds_today": 0, "balance": "You need to have a pocket watcher badge to view this.", "badges": [], "created_at": "2025-06-17T10:07:43.908-04:00", "updated_at": "2025-07-05T14:08:10.817-04:00", "avatar": "https://secure.gravatar.com/avatar/5ecf567a479f025657871943566467c4.jpg?s=512&d=https%3A%2F%2Fa.slack-edge.com%2Fdf10d%2Fimg%2Favatars%2Fava_0015-512.png", "custom_css": null}, {"id": 6530, "slack_id": "U091T3THCUU", "display_name": "ghh-jb", "bio": null, "projects_count": 0, "devlogs_count": 0, "votes_count": 0, "ships_count": 0, "projects": [], "coding_time_seconds": 2084, "coding_time_seconds_today": 0, "balance": "You need to have a pocket watcher badge to view this.", "badges": [], "created_at": "2025-06-17T10:08:33.030-04:00", "updated_at": "2025-07-03T19:40:32.692-04:00", "avatar": "https://secure.gravatar.com/avatar/cee6049459aa3fb218d3628b73722adb.jpg?s=512&d=https%3A%2F%2Fa.slack-edge.com%2Fdf10d%2Fimg%2Favatars%2Fava_0004-512.png", "custom_css": null}, {"id": 6531, "slack_id": "U091N5FLZJS", "display_name": "Sri Vaishnavi", "bio": null, "projects_count": 1, "devlogs_count": 1, "votes_count": 0, "ships_count": 0, "projects": [{"id": 1071, "title": "ResumeGenie", "devlogs_count": 1, "created_at": "2025-06-17T15:17:06.295-04:00"}], "coding_time_seconds": 28813, "coding_time_seconds_today": 0, "balance": "You need to have a pocket watcher badge to view this.", "badges": [], "created_at": "2025-06-17T10:08:41.039-04:00", "updated_at": "2025-07-03T21:56:11.962-04:00", "avatar": "https://secure.gravatar.com/avatar/58e1c43ee506906391b60b40f82cf07b.jpg?s=512&d=https%3A%2F%2Fa.slack-edge.com%2Fdf10d%2Fimg%2Favatars%2Fava_0001-512.png", "custom_css": null}, {"id": 6532, "slack_id": "U091V505ASY", "display_name": "Aranaur", "bio": null, "projects_count": 1, "devlogs_count": 0, "votes_count": 0, "ships_count": 0, "projects": [{"id": 882, "title": "Probability and Statistics", "devlogs_count": 0, "created_at": "2025-06-17T10:26:24.902-04:00"}], "coding_time_seconds": 10079, "coding_time_seconds_today": 0, "balance": "You need to have a pocket watcher badge to view this.", "badges": [], "created_at": "2025-06-17T10:09:07.710-04:00", "updated_at": "2025-07-03T19:40:33.097-04:00", "avatar": "https://secure.gravatar.com/avatar/26b142acd2217e4b951b37165603e7cc.jpg?s=512&d=https%3A%2F%2Fa.slack-edge.com%2Fdf10d%2Fimg%2Favatars%2Fava_0016-512.png", "custom_css": null}, {"id": 6533, "slack_id": "U091N545SK0", "display_name": "PhantomPorter", "bio": null, "projects_count": 3, "devlogs_count": 16, "votes_count": 23, "ships_count": 1, "projects": [{"id": 3886, "title": "FEDS201HORROR", "devlogs_count": 4, "created_at": "2025-06-26T05:57:45.881-04:00"}, {"id": 4445, "title": "Group Randomizer", "devlogs_count": 3, "created_at": "2025-06-29T23:29:42.794-04:00"}, {"id": 920, "title": " The Dangrous Journary of Samuel Hedro ChesterGreat", "devlogs_count": 9, "created_at": "2025-06-17T11:17:32.413-04:00"}], "coding_time_seconds": 65201, "coding_time_seconds_today": 0, "balance": "You need to have a pocket watcher badge to view this.", "badges": [{"name": "Maiden Voyage", "text": "you shipped your first project! the journey begins...", "icon": "\ud83d\udea2"}], "created_at": "2025-06-17T10:09:21.213-04:00", "updated_at": "2025-09-10T22:54:24.711-04:00", "avatar": "https://avatars.slack-edge.com/2025-06-17/9085907399984_506e0216fb60742fa9ae_original.jpg", "custom_css": null}, {"id": 6534, "slack_id": "U0927AE7L73", "display_name": "Kyrylo", "bio": null, "projects_count": 0, "devlogs_count": 0, "votes_count": 0, "ships_count": 0, "projects": [], "coding_time_seconds": 0, "coding_time_seconds_today": 0, "balance": "You need to have a pocket watcher badge to view this.", "badges": [], "created_at": "2025-06-17T10:09:57.013-04:00", "updated_at": "2025-07-03T19:40:33.517-04:00", "avatar": "https://secure.gravatar.com/avatar/447b2e6b89ae986604fbef326d65a60d.jpg?s=512&d=https%3A%2F%2Fa.slack-edge.com%2Fdf10d%2Fimg%2Favatars%2Fava_0013-512.png", "custom_css": null}, {"id": 6535, "slack_id": "U0927B0RF89", "display_name": "Moustafa", "bio": null, "projects_count": 1, "devlogs_count": 0, "votes_count": 0, "ships_count": 0, "projects": [{"id": 874, "title": "Website for business", "devlogs_count": 0, "created_at": "2025-06-17T10:19:00.675-04:00"}], "coding_time_seconds": 1442, "coding_time_seconds_today": 0, "balance": "You need to have a pocket watcher badge to view this.", "badges": [], "created_at": "2025-06-17T10:09:57.352-04:00", "updated_at": "2025-07-03T19:40:33.790-04:00", "avatar": "https://secure.gravatar.com/avatar/38d28158bfb832c08a8d4be558a8d67d.jpg?s=512&d=https%3A%2F%2Fa.slack-edge.com%2Fdf10d%2Fimg%2Favatars%2Fava_0012-512.png", "custom_css": null}, {"id": 6536, "slack_id": "U091T2AAVLM", "display_name": "Tomasz W\u0105troba", "bio": null, "projects_count": 0, "devlogs_count": 0, "votes_count": 0, "ships_count": 0, "projects": [], "coding_time_seconds": 1130, "coding_time_seconds_today": 0, "balance": "You need to have a pocket watcher badge to view this.", "badges": [], "created_at": "2025-06-17T10:10:16.579-04:00", "updated_at": "2025-07-03T19:40:34.065-04:00", "avatar": "https://avatars.slack-edge.com/2025-06-17/9056051041715_d08216d5a458e44e7060_original.png", "custom_css": null}, {"id": 6537, "slack_id": "U091T2HAVGD", "display_name": "Johnluke Francis", "bio": null, "projects_count": 1, "devlogs_count": 1, "votes_count": 0, "ships_count": 1, "projects": [{"id": 1051, "title": "Game Review Template Generator", "devlogs_count": 1, "created_at": "2025-06-17T14:31:14.982-04:00"}], "coding_time_seconds": 138542, "coding_time_seconds_today": 0, "balance": "You need to have a pocket watcher badge to view this.", "badges": [{"name": "Maiden Voyage", "text": "you shipped your first project! the journey begins...", "icon": "\ud83d\udea2"}], "created_at": "2025-06-17T10:11:14.448-04:00", "updated_at": "2025-09-10T22:54:24.784-04:00", "avatar": "https://secure.gravatar.com/avatar/92538dd123c2034d8558e2346182a313.jpg?s=512&d=https%3A%2F%2Fa.slack-edge.com%2Fdf10d%2Fimg%2Favatars%2Fava_0008-512.png", "custom_css": null}, {"id": 6538, "slack_id": "U092H4KNV7A", "display_name": "Soheb", "bio": null, "projects_count": 1, "devlogs_count": 0, "votes_count": 0, "ships_count": 0, "projects": [{"id": 927, "title": "Camp Quest", "devlogs_count": 0, "created_at": "2025-06-17T11:29:20.710-04:00"}], "coding_time_seconds": 3246, "coding_time_seconds_today": 0, "balance": "You need to have a pocket watcher badge to view this.", "badges": [], "created_at": "2025-06-17T10:11:14.469-04:00", "updated_at": "2025-07-03T19:40:34.596-04:00", "avatar": "https://secure.gravatar.com/avatar/8ab7d559ae7d0bc9768ac9331683b721.jpg?s=512&d=https%3A%2F%2Fa.slack-edge.com%2Fdf10d%2Fimg%2Favatars%2Fava_0026-512.png", "custom_css": null}, {"id": 6539, "slack_id": "U07PHHS1NLX", "display_name": "Justen", "bio": null, "projects_count": 0, "devlogs_count": 0, "votes_count": 0, "ships_count": 0, "projects": [], "coding_time_seconds": 0, "coding_time_seconds_today": 0, "balance": "You need to have a pocket watcher badge to view this.", "badges": [], "created_at": "2025-06-17T10:11:14.616-04:00", "updated_at": "2025-07-03T19:40:34.883-04:00", "avatar": "https://secure.gravatar.com/avatar/9609af720b42eca12cdaaa8072d90634.jpg?s=512&d=https%3A%2F%2Fa.slack-edge.com%2Fdf10d%2Fimg%2Favatars%2Fava_0011-512.png", "custom_css": null}, {"id": 6540, "slack_id": "U091N5ZGC6S", "display_name": "Debraj", "bio": null, "projects_count": 2, "devlogs_count": 7, "votes_count": 22, "ships_count": 1, "projects": [{"id": 906, "title": "Spotifetch", "devlogs_count": 2, "created_at": "2025-06-17T10:58:11.050-04:00"}, {"id": 2286, "title": "How We Devvin'", "devlogs_count": 5, "created_at": "2025-06-20T16:15:46.700-04:00"}], "coding_time_seconds": 40046, "coding_time_seconds_today": 0, "balance": "You need to have a pocket watcher badge to view this.", "badges": [{"name": "Maiden Voyage", "text": "you shipped your first project! the journey begins...", "icon": "\ud83d\udea2"}], "created_at": "2025-06-17T10:11:29.220-04:00", "updated_at": "2025-09-10T22:54:24.933-04:00", "avatar": "https://secure.gravatar.com/avatar/d50f51ae7999fb8ad5b8df1515fc7e8e.jpg?s=512&d=https%3A%2F%2Fa.slack-edge.com%2Fdf10d%2Fimg%2Favatars%2Fava_0003-512.png", "custom_css": null}], "pagination": {"page": 327, "pages": 1192, "count": 23828, "items": 20}}