{"users": [{"id": 6541, "slack_id": "U07PHT1E2G7", "display_name": "Samik Goyal", "bio": null, "projects_count": 1, "devlogs_count": 0, "votes_count": 0, "ships_count": 0, "projects": [{"id": 1893, "title": "Personal Website", "devlogs_count": 0, "created_at": "2025-06-19T14:51:51.000-04:00"}], "coding_time_seconds": 66350, "coding_time_seconds_today": 0, "balance": "You need to have a pocket watcher badge to view this.", "badges": [], "created_at": "2025-06-17T10:11:32.117-04:00", "updated_at": "2025-07-03T19:40:35.411-04:00", "avatar": "https://secure.gravatar.com/avatar/4493990465234fbdefae5c72dfbe1571.jpg?s=512&d=https%3A%2F%2Fa.slack-edge.com%2Fdf10d%2Fimg%2Favatars%2Fava_0003-512.png", "custom_css": null}, {"id": 6542, "slack_id": "U092H24SGQY", "display_name": "Yusuf \u015eim\u015fek", "bio": null, "projects_count": 0, "devlogs_count": 0, "votes_count": 0, "ships_count": 0, "projects": [], "coding_time_seconds": 0, "coding_time_seconds_today": 0, "balance": "You need to have a pocket watcher badge to view this.", "badges": [], "created_at": "2025-06-17T10:11:36.838-04:00", "updated_at": "2025-07-03T19:40:35.679-04:00", "avatar": "https://secure.gravatar.com/avatar/d24af4240fd31b724e763cb428a2b0e9.jpg?s=512&d=https%3A%2F%2Fa.slack-edge.com%2Fdf10d%2Fimg%2Favatars%2Fava_0020-512.png", "custom_css": null}, {"id": 6543, "slack_id": "U091SG97E5Q", "display_name": "Abhishek", "bio": null, "projects_count": 0, "devlogs_count": 0, "votes_count": 0, "ships_count": 0, "projects": [], "coding_time_seconds": 0, "coding_time_seconds_today": 0, "balance": "You need to have a pocket watcher badge to view this.", "badges": [], "created_at": "2025-06-17T10:11:37.461-04:00", "updated_at": "2025-07-03T19:40:35.958-04:00", "avatar": "https://secure.gravatar.com/avatar/000d8a73c9e64ba376679f638d5cc6ee.jpg?s=512&d=https%3A%2F%2Fa.slack-edge.com%2Fdf10d%2Fimg%2Favatars%2Fava_0014-512.png", "custom_css": null}, {"id": 6544, "slack_id": "U07ACD4M4E5", "display_name": "vinay tilada", "bio": null, "projects_count": 0, "devlogs_count": 0, "votes_count": 0, "ships_count": 0, "projects": [], "coding_time_seconds": 82047, "coding_time_seconds_today": 0, "balance": "You need to have a pocket watcher badge to view this.", "badges": [], "created_at": "2025-06-17T10:11:40.108-04:00", "updated_at": "2025-07-03T19:40:36.218-04:00", "avatar": "https://avatars.slack-edge.com/2025-06-17/9075502513857_4364ca2968f0f2706d46_original.jpg", "custom_css": null}, {"id": 6545, "slack_id": "U08519Y6AEL", "display_name": "Eason Yang", "bio": null, "projects_count": 0, "devlogs_count": 0, "votes_count": 1, "ships_count": 0, "projects": [], "coding_time_seconds": 13082, "coding_time_seconds_today": 0, "balance": "You need to have a pocket watcher badge to view this.", "badges": [], "created_at": "2025-06-17T10:12:17.808-04:00", "updated_at": "2025-08-11T17:49:24.119-04:00", "avatar": "https://avatars.slack-edge.com/2025-02-06/8427343837041_f63e4904eab6b23dc3dd_original.png", "custom_css": null}, {"id": 6546, "slack_id": "U092H53U8RW", "display_name": "Moaz", "bio": null, "projects_count": 2, "devlogs_count": 2, "votes_count": 0, "ships_count": 2, "projects": [{"id": 1207, "title": "Timed-Type", "devlogs_count": 1, "created_at": "2025-06-17T22:39:43.683-04:00"}, {"id": 1239, "title": "Hangman-ascii", "devlogs_count": 1, "created_at": "2025-06-18T01:00:33.177-04:00"}], "coding_time_seconds": 34570, "coding_time_seconds_today": 0, "balance": "You need to have a pocket watcher badge to view this.", "badges": [{"name": "Maiden Voyage", "text": "you shipped your first project! the journey begins...", "icon": "\ud83d\udea2"}], "created_at": "2025-06-17T10:12:35.613-04:00", "updated_at": "2025-09-10T22:54:25.205-04:00", "avatar": "https://secure.gravatar.com/avatar/a6b35908d8b470fe1b0fc6e1279a2491.jpg?s=512&d=https%3A%2F%2Fa.slack-edge.com%2Fdf10d%2Fimg%2Favatars%2Fava_0004-512.png", "custom_css": null}, {"id": 6547, "slack_id": "U091U580A3W", "display_name": "Adel", "bio": null, "projects_count": 0, "devlogs_count": 0, "votes_count": 0, "ships_count": 0, "projects": [], "coding_time_seconds": 0, "coding_time_seconds_today": 0, "balance": "You need to have a pocket watcher badge to view this.", "badges": [], "created_at": "2025-06-17T10:13:04.638-04:00", "updated_at": "2025-07-03T19:40:37.014-04:00", "avatar": "https://secure.gravatar.com/avatar/3ac8840635e229b67b45ef7be552a0cd.jpg?s=512&d=https%3A%2F%2Fa.slack-edge.com%2Fdf10d%2Fimg%2Favatars%2Fava_0007-512.png", "custom_css": null}, {"id": 6548, "slack_id": "U08235ELC13", "display_name": "Alisha", "bio": null, "projects_count": 1, "devlogs_count": 0, "votes_count": 0, "ships_count": 0, "projects": [{"id": 9989, "title": "Music", "devlogs_count": 0, "created_at": "2025-08-03T10:20:39.696-04:00"}], "coding_time_seconds": 248, "coding_time_seconds_today": 0, "balance": "You need to have a pocket watcher badge to view this.", "badges": [], "created_at": "2025-06-17T10:13:16.020-04:00", "updated_at": "2025-08-02T11:11:36.247-04:00", "avatar": "https://avatars.slack-edge.com/2024-12-22/8207343799541_05a1de854d35d1be1961_original.png", "custom_css": null}, {"id": 6549, "slack_id": "U091DCL6QHM", "display_name": "hanuman", "bio": null, "projects_count": 0, "devlogs_count": 0, "votes_count": 0, "ships_count": 0, "projects": [], "coding_time_seconds": 0, "coding_time_seconds_today": 0, "balance": "You need to have a pocket watcher badge to view this.", "badges": [], "created_at": "2025-06-17T10:13:41.780-04:00", "updated_at": "2025-07-03T19:40:37.404-04:00", "avatar": "https://secure.gravatar.com/avatar/59eacfba1188225301176802db588c4e.jpg?s=512&d=https%3A%2F%2Fa.slack-edge.com%2Fdf10d%2Fimg%2Favatars%2Fava_0017-512.png", "custom_css": null}, {"id": 6550, "slack_id": "U091UQ3EA4A", "display_name": "Daniel", "bio": null, "projects_count": 0, "devlogs_count": 0, "votes_count": 0, "ships_count": 0, "projects": [], "coding_time_seconds": 0, "coding_time_seconds_today": 0, "balance": "You need to have a pocket watcher badge to view this.", "badges": [], "created_at": "2025-06-17T10:14:45.587-04:00", "updated_at": "2025-07-03T19:40:37.663-04:00", "avatar": "https://secure.gravatar.com/avatar/7bd36450dd26903a38729e531e48a0d9.jpg?s=512&d=https%3A%2F%2Fa.slack-edge.com%2Fdf10d%2Fimg%2Favatars%2Fava_0011-512.png", "custom_css": null}, {"id": 6551, "slack_id": "U091V6DDM6G", "display_name": "Vincenzo Polizzi", "bio": null, "projects_count": 0, "devlogs_count": 0, "votes_count": 0, "ships_count": 0, "projects": [], "coding_time_seconds": 0, "coding_time_seconds_today": 0, "balance": "You need to have a pocket watcher badge to view this.", "badges": [], "created_at": "2025-06-17T10:15:14.670-04:00", "updated_at": "2025-07-03T19:40:37.925-04:00", "avatar": "https://avatars.slack-edge.com/2025-06-17/9056247119958_a3ee8fa484fb79b785c7_original.png", "custom_css": null}, {"id": 6552, "slack_id": "U090PAW84UC", "display_name": "Jagad Krishnan", "bio": null, "projects_count": 1, "devlogs_count": 1, "votes_count": 0, "ships_count": 0, "projects": [{"id": 4620, "title": "Pressure Washing", "devlogs_count": 1, "created_at": "2025-06-30T22:05:38.850-04:00"}], "coding_time_seconds": 5752, "coding_time_seconds_today": 0, "balance": "You need to have a pocket watcher badge to view this.", "badges": [], "created_at": "2025-06-17T10:16:03.407-04:00", "updated_at": "2025-07-03T19:40:38.192-04:00", "avatar": "https://avatars.slack-edge.com/2025-06-09/9015349301107_91aabbd196901863fcd1_original.png", "custom_css": null}, {"id": 6553, "slack_id": "U0927CFST4H", "display_name": "Shyngys Aitkazinov", "bio": null, "projects_count": 0, "devlogs_count": 0, "votes_count": 0, "ships_count": 0, "projects": [], "coding_time_seconds": 0, "coding_time_seconds_today": 0, "balance": "You need to have a pocket watcher badge to view this.", "badges": [], "created_at": "2025-06-17T10:17:31.245-04:00", "updated_at": "2025-07-03T19:40:38.458-04:00", "avatar": "https://secure.gravatar.com/avatar/22cd16b2b36a9f844fc95cfa875a1ee6.jpg?s=512&d=https%3A%2F%2Fa.slack-edge.com%2Fdf10d%2Fimg%2Favatars%2Fava_0011-512.png", "custom_css": null}, {"id": 6554, "slack_id": "U08SS7Z7LJD", "display_name": "deltea", "bio": "me like funny compute", "projects_count": 8, "devlogs_count": 35, "votes_count": 156, "ships_count": 6, "projects": [{"id": 10213, "title": "\ud83d\udcfa TV Time!", "devlogs_count": 1, "created_at": "2025-08-05T01:38:19.171-04:00"}, {"id": 1407, "title": "\u2193  downbeat", "devlogs_count": 18, "created_at": "2025-06-18T13:57:12.201-04:00"}, {"id": 9203, "title": "\u270e SKRIBBL: hardmode", "devlogs_count": 0, "created_at": "2025-07-31T00:48:24.513-04:00"}, {"id": 9204, "title": "\u270e SKRIBBL: hardmode", "devlogs_count": 3, "created_at": "2025-07-31T00:48:24.580-04:00"}, {"id": 9952, "title": "my website", "devlogs_count": 4, "created_at": "2025-08-03T05:26:25.798-04:00"}, {"id": 8410, "title": "\u2601 yume", "devlogs_count": 2, "created_at": "2025-07-27T00:17:46.852-04:00"}, {"id": 10881, "title": "\ud83d\udcb3 nfc business card", "devlogs_count": 2, "created_at": "2025-08-11T14:12:23.457-04:00"}, {"id": 6269, "title": "\u25c9 jumbotron \u25c9", "devlogs_count": 5, "created_at": "2025-07-11T21:45:55.891-04:00"}], "coding_time_seconds": 683307, "coding_time_seconds_today": 0, "balance": "You need to have a pocket watcher badge to view this.", "badges": [{"name": "Maiden Voyage", "text": "you shipped your first project! the journey begins...", "icon": "\ud83d\udea2"}, {"name": "Ballot Stuffer", "text": "vote 100 times.", "icon": "https://summer.hackclub.com/assets/i_voted-bf851b48.png"}], "created_at": "2025-06-17T10:17:32.107-04:00", "updated_at": "2025-09-15T12:33:22.523-04:00", "avatar": "https://avatars.slack-edge.com/2025-07-17/9215292629621_71acfab67a5e7971a43d_original.png", "custom_css": null}, {"id": 6555, "slack_id": "U091UQZV63U", "display_name": "Yugal Kaushik", "bio": null, "projects_count": 0, "devlogs_count": 0, "votes_count": 0, "ships_count": 0, "projects": [], "coding_time_seconds": 0, "coding_time_seconds_today": 0, "balance": "You need to have a pocket watcher badge to view this.", "badges": [], "created_at": "2025-06-17T10:18:07.660-04:00", "updated_at": "2025-07-03T19:40:38.873-04:00", "avatar": "https://secure.gravatar.com/avatar/0cd3fb5151e4dab019145c8b368e0742.jpg?s=512&d=https%3A%2F%2Fa.slack-edge.com%2Fdf10d%2Fimg%2Favatars%2Fava_0015-512.png", "custom_css": null}, {"id": 6556, "slack_id": "U091DDHD8CX", "display_name": "Sadhika", "bio": null, "projects_count": 0, "devlogs_count": 0, "votes_count": 0, "ships_count": 0, "projects": [], "coding_time_seconds": 0, "coding_time_seconds_today": 0, "balance": "You need to have a pocket watcher badge to view this.", "badges": [], "created_at": "2025-06-17T10:18:07.800-04:00", "updated_at": "2025-07-03T21:56:13.755-04:00", "avatar": "https://secure.gravatar.com/avatar/5802f510e5c4d7cd08276dd6eaf47c1b.jpg?s=512&d=https%3A%2F%2Fa.slack-edge.com%2Fdf10d%2Fimg%2Favatars%2Fava_0025-512.png", "custom_css": null}, {"id": 6557, "slack_id": "U091UP75SKU", "display_name": "Fred Lopes", "bio": null, "projects_count": 0, "devlogs_count": 0, "votes_count": 0, "ships_count": 0, "projects": [], "coding_time_seconds": 0, "coding_time_seconds_today": 0, "balance": "You need to have a pocket watcher badge to view this.", "badges": [], "created_at": "2025-06-17T10:18:15.694-04:00", "updated_at": "2025-07-03T19:40:39.263-04:00", "avatar": "https://secure.gravatar.com/avatar/84bfe2486eaf0f7991dd14ae79671a39.jpg?s=512&d=https%3A%2F%2Fa.slack-edge.com%2Fdf10d%2Fimg%2Favatars%2Fava_0006-512.png", "custom_css": null}, {"id": 6558, "slack_id": "U092H65QL2C", "display_name": "Justin Acharya", "bio": null, "projects_count": 0, "devlogs_count": 0, "votes_count": 0, "ships_count": 0, "projects": [], "coding_time_seconds": 0, "coding_time_seconds_today": 0, "balance": "You need to have a pocket watcher badge to view this.", "badges": [], "created_at": "2025-06-17T10:18:17.121-04:00", "updated_at": "2025-07-03T19:40:39.531-04:00", "avatar": "https://avatars.slack-edge.com/2025-06-17/9056103348643_c4768f0239b7e706e086_original.jpg", "custom_css": null}, {"id": 6559, "slack_id": "U087YEHDBMK", "display_name": "Timhongphuc", "bio": null, "projects_count": 0, "devlogs_count": 0, "votes_count": 0, "ships_count": 0, "projects": [], "coding_time_seconds": 0, "coding_time_seconds_today": 0, "balance": "You need to have a pocket watcher badge to view this.", "badges": [], "created_at": "2025-06-17T10:18:23.605-04:00", "updated_at": "2025-07-05T08:07:38.443-04:00", "avatar": "https://avatars.slack-edge.com/2025-04-05/8696807284023_f49863690905fc8c0544_original.jpg", "custom_css": null}, {"id": 6560, "slack_id": "U091T46KL4D", "display_name": "Eric Witsh", "bio": null, "projects_count": 0, "devlogs_count": 0, "votes_count": 0, "ships_count": 0, "projects": [], "coding_time_seconds": 0, "coding_time_seconds_today": 0, "balance": "You need to have a pocket watcher badge to view this.", "badges": [], "created_at": "2025-06-17T10:19:49.893-04:00", "updated_at": "2025-07-03T22:34:47.115-04:00", "avatar": "https://secure.gravatar.com/avatar/392db21528e1a8bb2fcc40ae39fed3db.jpg?s=512&d=https%3A%2F%2Fa.slack-edge.com%2Fdf10d%2Fimg%2Favatars%2Fava_0005-512.png", "custom_css": null}], "pagination": {"page": 328, "pages": 1192, "count": 23828, "items": 20}}