{"users": [{"id": 641, "slack_id": "U091P51MC0J", "display_name": "Ivan", "bio": null, "projects_count": 0, "devlogs_count": 0, "votes_count": 0, "ships_count": 0, "projects": [], "coding_time_seconds": 0, "coding_time_seconds_today": 0, "balance": "You need to have a pocket watcher badge to view this.", "badges": [], "created_at": "2025-06-16T12:05:27.720-04:00", "updated_at": "2025-07-03T19:13:55.346-04:00", "avatar": "https://secure.gravatar.com/avatar/5e3ebf096f19a08cf203e87548a760ff.jpg?s=512&d=https%3A%2F%2Fa.slack-edge.com%2Fdf10d%2Fimg%2Favatars%2Fava_0015-512.png", "custom_css": null}, {"id": 642, "slack_id": "U092BK9LBDE", "display_name": "Gabriel Ant\u00f4nio", "bio": null, "projects_count": 0, "devlogs_count": 0, "votes_count": 0, "ships_count": 0, "projects": [], "coding_time_seconds": 8960, "coding_time_seconds_today": 0, "balance": "You need to have a pocket watcher badge to view this.", "badges": [], "created_at": "2025-06-16T12:05:37.167-04:00", "updated_at": "2025-07-03T19:13:55.622-04:00", "avatar": "https://avatars.slack-edge.com/2025-06-16/9057628845076_110136ed93bed3d55391_original.png", "custom_css": null}, {"id": 643, "slack_id": "U091PHCJ1J8", "display_name": "Mohammed Abdessetar Elyagoubi", "bio": null, "projects_count": 2, "devlogs_count": 3, "votes_count": 1, "ships_count": 0, "projects": [{"id": 11788, "title": "Youdemy", "devlogs_count": 1, "created_at": "2025-08-19T13:53:05.455-04:00"}, {"id": 7660, "title": "IdeaForge", "devlogs_count": 1, "created_at": "2025-07-22T12:33:41.239-04:00"}], "coding_time_seconds": 590031, "coding_time_seconds_today": 1133, "balance": "You need to have a pocket watcher badge to view this.", "badges": [{"name": "Maiden Voyage", "text": "you shipped your first project! the journey begins...", "icon": "\ud83d\udea2"}], "created_at": "2025-06-16T12:05:38.370-04:00", "updated_at": "2025-09-10T22:51:27.343-04:00", "avatar": "https://avatars.slack-edge.com/2025-08-19/9365500006967_80fa29185eff126d7660_original.png", "custom_css": null}, {"id": 644, "slack_id": "U091G03E48K", "display_name": "Felix Schweigmann", "bio": null, "projects_count": 0, "devlogs_count": 0, "votes_count": 0, "ships_count": 0, "projects": [], "coding_time_seconds": 2052, "coding_time_seconds_today": 0, "balance": "You need to have a pocket watcher badge to view this.", "badges": [], "created_at": "2025-06-16T12:05:45.805-04:00", "updated_at": "2025-07-03T19:13:56.161-04:00", "avatar": "https://secure.gravatar.com/avatar/e7540ca4b00f3c6c83d2f1bc112d0bc8.jpg?s=512&d=https%3A%2F%2Fa.slack-edge.com%2Fdf10d%2Fimg%2Favatars%2Fava_0015-512.png", "custom_css": null}, {"id": 645, "slack_id": "U092BHM9XDW", "display_name": "vishesh", "bio": null, "projects_count": 0, "devlogs_count": 0, "votes_count": 0, "ships_count": 0, "projects": [], "coding_time_seconds": 259994, "coding_time_seconds_today": 2162, "balance": "You need to have a pocket watcher badge to view this.", "badges": [], "created_at": "2025-06-16T12:05:49.690-04:00", "updated_at": "2025-09-05T00:30:49.099-04:00", "avatar": "https://secure.gravatar.com/avatar/cabd7c8e283dced130d7a98506452239.jpg?s=512&d=https%3A%2F%2Fa.slack-edge.com%2Fdf10d%2Fimg%2Favatars%2Fava_0026-512.png", "custom_css": null}, {"id": 646, "slack_id": "U092BGR062U", "display_name": "Ayush (Kr)", "bio": null, "projects_count": 0, "devlogs_count": 0, "votes_count": 0, "ships_count": 0, "projects": [], "coding_time_seconds": 89047, "coding_time_seconds_today": 0, "balance": "You need to have a pocket watcher badge to view this.", "badges": [], "created_at": "2025-06-16T12:05:55.757-04:00", "updated_at": "2025-07-03T19:13:56.690-04:00", "avatar": "https://avatars.slack-edge.com/2025-06-16/9057190619938_ee455b6f91b83fc0314c_original.jpg", "custom_css": null}, {"id": 647, "slack_id": "U091P55C9H8", "display_name": "jemmy", "bio": null, "projects_count": 0, "devlogs_count": 0, "votes_count": 0, "ships_count": 0, "projects": [], "coding_time_seconds": 2380, "coding_time_seconds_today": 0, "balance": "You need to have a pocket watcher badge to view this.", "badges": [], "created_at": "2025-06-16T12:05:57.387-04:00", "updated_at": "2025-07-03T19:13:56.956-04:00", "avatar": "https://avatars.slack-edge.com/2025-06-16/9050325528358_62c622875a59edba92de_original.jpg", "custom_css": null}, {"id": 648, "slack_id": "U091P4YLXM0", "display_name": "Ritik Yadav", "bio": null, "projects_count": 0, "devlogs_count": 0, "votes_count": 0, "ships_count": 0, "projects": [], "coding_time_seconds": 32579, "coding_time_seconds_today": 0, "balance": "You need to have a pocket watcher badge to view this.", "badges": [], "created_at": "2025-06-16T12:06:01.503-04:00", "updated_at": "2025-07-03T19:13:57.227-04:00", "avatar": "https://secure.gravatar.com/avatar/931ebe3b6b23f8cd9d1e80bf7b785898.jpg?s=512&d=https%3A%2F%2Fa.slack-edge.com%2Fdf10d%2Fimg%2Favatars%2Fava_0021-512.png", "custom_css": null}, {"id": 649, "slack_id": "U0921N3SH97", "display_name": "Rodrigo Hernandez", "bio": null, "projects_count": 0, "devlogs_count": 0, "votes_count": 0, "ships_count": 0, "projects": [], "coding_time_seconds": 0, "coding_time_seconds_today": 0, "balance": "You need to have a pocket watcher badge to view this.", "badges": [], "created_at": "2025-06-16T12:06:13.235-04:00", "updated_at": "2025-07-03T19:13:57.577-04:00", "avatar": "https://secure.gravatar.com/avatar/e598d176853f0af3fde2588e9fc91b54.jpg?s=512&d=https%3A%2F%2Fa.slack-edge.com%2Fdf10d%2Fimg%2Favatars%2Fava_0026-512.png", "custom_css": null}, {"id": 650, "slack_id": "U091P5565J6", "display_name": "Mukunth J", "bio": null, "projects_count": 0, "devlogs_count": 0, "votes_count": 0, "ships_count": 0, "projects": [], "coding_time_seconds": 0, "coding_time_seconds_today": 0, "balance": "You need to have a pocket watcher badge to view this.", "badges": [], "created_at": "2025-06-16T12:06:15.291-04:00", "updated_at": "2025-07-03T19:13:57.859-04:00", "avatar": "https://avatars.slack-edge.com/2025-06-16/9057632028324_b2baf379dd56f21c57f1_original.jpg", "custom_css": null}, {"id": 651, "slack_id": "U091MBZTV7X", "display_name": "SkydioFlyer", "bio": null, "projects_count": 1, "devlogs_count": 23, "votes_count": 31, "ships_count": 1, "projects": [{"id": 98, "title": "Habit Tracker App", "devlogs_count": 23, "created_at": "2025-06-16T13:19:37.425-04:00"}], "coding_time_seconds": 824452, "coding_time_seconds_today": 0, "balance": "You need to have a pocket watcher badge to view this.", "badges": [{"name": "Maiden Voyage", "text": "you shipped your first project! the journey begins...", "icon": "\ud83d\udea2"}], "created_at": "2025-06-16T12:06:20.485-04:00", "updated_at": "2025-09-14T05:55:30.466-04:00", "avatar": "https://secure.gravatar.com/avatar/a47ce056876117d07f4024d9dff3e992.jpg?s=512&d=https%3A%2F%2Fa.slack-edge.com%2Fdf10d%2Fimg%2Favatars%2Fava_0001-512.png", "custom_css": null}, {"id": 652, "slack_id": "U092BKF0JPJ", "display_name": "CS CHARAN", "bio": null, "projects_count": 0, "devlogs_count": 0, "votes_count": 0, "ships_count": 0, "projects": [], "coding_time_seconds": 0, "coding_time_seconds_today": 0, "balance": "You need to have a pocket watcher badge to view this.", "badges": [], "created_at": "2025-06-16T12:06:20.615-04:00", "updated_at": "2025-07-03T19:13:58.406-04:00", "avatar": "https://secure.gravatar.com/avatar/665d16fe560bf816b7190527b59779b8.jpg?s=512&d=https%3A%2F%2Fa.slack-edge.com%2Fdf10d%2Fimg%2Favatars%2Fava_0008-512.png", "custom_css": null}, {"id": 653, "slack_id": "U08JH3K9J1X", "display_name": "Nullsec0x", "bio": "", "projects_count": 10, "devlogs_count": 11, "votes_count": 96, "ships_count": 10, "projects": [{"id": 3202, "title": "FocusFi", "devlogs_count": 2, "created_at": "2025-06-23T12:33:33.821-04:00"}, {"id": 11716, "title": "RecipeMaster", "devlogs_count": 1, "created_at": "2025-08-18T17:20:18.035-04:00"}, {"id": 12254, "title": "Mars Rover Postcards", "devlogs_count": 1, "created_at": "2025-08-24T22:40:44.487-04:00"}, {"id": 13265, "title": "Hydratr", "devlogs_count": 1, "created_at": "2025-09-12T22:30:47.695-04:00"}, {"id": 13508, "title": "Budget tracker", "devlogs_count": 1, "created_at": "2025-09-18T07:53:55.501-04:00"}, {"id": 10055, "title": "terminal style portfolio ", "devlogs_count": 1, "created_at": "2025-08-03T18:03:39.771-04:00"}, {"id": 6202, "title": "Dream Debugger", "devlogs_count": 1, "created_at": "2025-07-11T09:43:20.529-04:00"}, {"id": 9234, "title": "Terminus Veil", "devlogs_count": 1, "created_at": "2025-07-31T05:35:12.807-04:00"}, {"id": 11229, "title": "FocusClockXP", "devlogs_count": 1, "created_at": "2025-08-14T06:42:50.605-04:00"}, {"id": 11230, "title": "MyShelf", "devlogs_count": 1, "created_at": "2025-08-14T06:45:50.223-04:00"}], "coding_time_seconds": 250595, "coding_time_seconds_today": 0, "balance": "You need to have a pocket watcher badge to view this.", "badges": [{"name": "Maiden Voyage", "text": "you shipped your first project! the journey begins...", "icon": "\ud83d\udea2"}, {"name": "Ballot Stuffer", "text": "vote 100 times.", "icon": "https://summer.hackclub.com/assets/i_voted-bf851b48.png"}], "created_at": "2025-06-16T12:06:20.627-04:00", "updated_at": "2025-09-10T22:51:27.663-04:00", "avatar": "https://avatars.slack-edge.com/2025-08-20/9397088547297_22241ee9b8e17527b511_original.png", "custom_css": null}, {"id": 654, "slack_id": "U091G9B7ZM4", "display_name": "Imad", "bio": null, "projects_count": 0, "devlogs_count": 0, "votes_count": 0, "ships_count": 0, "projects": [], "coding_time_seconds": 222169, "coding_time_seconds_today": 0, "balance": "You need to have a pocket watcher badge to view this.", "badges": [], "created_at": "2025-06-16T12:06:24.352-04:00", "updated_at": "2025-07-03T19:13:58.942-04:00", "avatar": "https://secure.gravatar.com/avatar/6cb6283a79def0dea4c5c3102216dfc2.jpg?s=512&d=https%3A%2F%2Fa.slack-edge.com%2Fdf10d%2Fimg%2Favatars%2Fava_0017-512.png", "custom_css": null}, {"id": 655, "slack_id": "U091G96C56J", "display_name": "Emmanuel M", "bio": null, "projects_count": 0, "devlogs_count": 0, "votes_count": 0, "ships_count": 0, "projects": [], "coding_time_seconds": 3, "coding_time_seconds_today": 0, "balance": "You need to have a pocket watcher badge to view this.", "badges": [], "created_at": "2025-06-16T12:06:34.499-04:00", "updated_at": "2025-07-03T19:13:59.220-04:00", "avatar": "https://secure.gravatar.com/avatar/a94790bfa9b41e6312d7738b7622e697.jpg?s=512&d=https%3A%2F%2Fa.slack-edge.com%2Fdf10d%2Fimg%2Favatars%2Fava_0014-512.png", "custom_css": null}, {"id": 656, "slack_id": "U0921N36449", "display_name": "Sayan Mandal", "bio": null, "projects_count": 0, "devlogs_count": 0, "votes_count": 0, "ships_count": 0, "projects": [], "coding_time_seconds": 0, "coding_time_seconds_today": 0, "balance": "You need to have a pocket watcher badge to view this.", "badges": [], "created_at": "2025-06-16T12:06:36.981-04:00", "updated_at": "2025-07-03T19:13:59.513-04:00", "avatar": "https://secure.gravatar.com/avatar/dee48883ffc17f7e12ecb2d1a3ec7288.jpg?s=512&d=https%3A%2F%2Fa.slack-edge.com%2Fdf10d%2Fimg%2Favatars%2Fava_0002-512.png", "custom_css": null}, {"id": 657, "slack_id": "U082VQEC4QJ", "display_name": "Siep", "bio": null, "projects_count": 1, "devlogs_count": 6, "votes_count": 75, "ships_count": 1, "projects": [{"id": 5314, "title": "Quizzy", "devlogs_count": 6, "created_at": "2025-07-04T11:47:05.683-04:00"}], "coding_time_seconds": 296133, "coding_time_seconds_today": 0, "balance": "You need to have a pocket watcher badge to view this.", "badges": [{"name": "Maiden Voyage", "text": "you shipped your first project! the journey begins...", "icon": "\ud83d\udea2"}], "created_at": "2025-06-16T12:06:56.521-04:00", "updated_at": "2025-09-14T16:49:19.470-04:00", "avatar": "https://secure.gravatar.com/avatar/29b3a39128b5d1ed687f0f5107698661.jpg?s=512&d=https%3A%2F%2Fa.slack-edge.com%2Fdf10d%2Fimg%2Favatars%2Fava_0004-512.png", "custom_css": null}, {"id": 658, "slack_id": "U091P75SXEY", "display_name": "Robert", "bio": null, "projects_count": 0, "devlogs_count": 0, "votes_count": 0, "ships_count": 0, "projects": [], "coding_time_seconds": 0, "coding_time_seconds_today": 0, "balance": "You need to have a pocket watcher badge to view this.", "badges": [], "created_at": "2025-06-16T12:06:56.528-04:00", "updated_at": "2025-07-03T19:14:00.070-04:00", "avatar": "https://secure.gravatar.com/avatar/f3ca00fdab40a1f2f1d1eb04f344e605.jpg?s=512&d=https%3A%2F%2Fa.slack-edge.com%2Fdf10d%2Fimg%2Favatars%2Fava_0019-512.png", "custom_css": null}, {"id": 659, "slack_id": "U091P584950", "display_name": "Nagaraja", "bio": null, "projects_count": 0, "devlogs_count": 0, "votes_count": 0, "ships_count": 0, "projects": [], "coding_time_seconds": 18207, "coding_time_seconds_today": 0, "balance": "You need to have a pocket watcher badge to view this.", "badges": [], "created_at": "2025-06-16T12:07:02.383-04:00", "updated_at": "2025-07-03T19:14:00.336-04:00", "avatar": "https://secure.gravatar.com/avatar/8cdc1a524e6bf7b068fddcef51cc8261.jpg?s=512&d=https%3A%2F%2Fa.slack-edge.com%2Fdf10d%2Fimg%2Favatars%2Fava_0018-512.png", "custom_css": null}, {"id": 660, "slack_id": "U092BKBUHBJ", "display_name": "Trevor Huang", "bio": null, "projects_count": 0, "devlogs_count": 0, "votes_count": 0, "ships_count": 0, "projects": [], "coding_time_seconds": 0, "coding_time_seconds_today": 0, "balance": "You need to have a pocket watcher badge to view this.", "badges": [], "created_at": "2025-06-16T12:07:03.680-04:00", "updated_at": "2025-07-03T19:14:00.615-04:00", "avatar": "https://secure.gravatar.com/avatar/30e7cd5f0f8028e632de7d9fa8198f47.jpg?s=512&d=https%3A%2F%2Fa.slack-edge.com%2Fdf10d%2Fimg%2Favatars%2Fava_0011-512.png", "custom_css": null}], "pagination": {"page": 33, "pages": 1192, "count": 23827, "items": 20}}