{"users": [{"id": 6581, "slack_id": "U08BATE55GB", "display_name": "Ibrahim wael", "bio": "Sup", "projects_count": 7, "devlogs_count": 35, "votes_count": 87, "ships_count": 5, "projects": [{"id": 6869, "title": "Ma Book", "devlogs_count": 17, "created_at": "2025-07-17T01:29:47.536-04:00"}, {"id": 7155, "title": "EduQuest ", "devlogs_count": 1, "created_at": "2025-07-19T14:30:41.461-04:00"}, {"id": 11538, "title": "Street Traffic", "devlogs_count": 1, "created_at": "2025-08-16T20:44:22.789-04:00"}, {"id": 10786, "title": "SDG,s", "devlogs_count": 1, "created_at": "2025-08-10T20:11:58.746-04:00"}, {"id": 6101, "title": "EYCC", "devlogs_count": 6, "created_at": "2025-07-10T14:29:59.821-04:00"}, {"id": 5328, "title": "Hack Club of Stem egypt", "devlogs_count": 1, "created_at": "2025-07-04T13:10:49.053-04:00"}, {"id": 2787, "title": "One Bite Away", "devlogs_count": 8, "created_at": "2025-06-22T04:30:26.343-04:00"}], "coding_time_seconds": 1280361, "coding_time_seconds_today": 1835, "balance": "You need to have a pocket watcher badge to view this.", "badges": [{"name": "Maiden Voyage", "text": "you shipped your first project! the journey begins...", "icon": "\ud83d\udea2"}], "created_at": "2025-06-17T10:25:23.663-04:00", "updated_at": "2025-09-10T22:54:26.330-04:00", "avatar": "https://avatars.slack-edge.com/2025-02-10/8415089273543_93b0bff26f31c4857c8e_original.jpg", "custom_css": null}, {"id": 6582, "slack_id": "U082H889G9F", "display_name": "jake", "bio": null, "projects_count": 1, "devlogs_count": 2, "votes_count": 0, "ships_count": 0, "projects": [{"id": 8525, "title": "Devbox - No-fuss ephemeral dev environments", "devlogs_count": 2, "created_at": "2025-07-27T22:38:31.762-04:00"}], "coding_time_seconds": 248527, "coding_time_seconds_today": 0, "balance": "You need to have a pocket watcher badge to view this.", "badges": [], "created_at": "2025-06-17T10:25:30.712-04:00", "updated_at": "2025-09-23T18:32:07.666-04:00", "avatar": "https://avatars.slack-edge.com/2025-09-23/9555298630423_96414496111201b85547_original.jpg", "custom_css": null}, {"id": 6583, "slack_id": "U07NHFQ8Y9W", "display_name": "Hirav Patel", "bio": null, "projects_count": 0, "devlogs_count": 0, "votes_count": 0, "ships_count": 0, "projects": [], "coding_time_seconds": 0, "coding_time_seconds_today": 0, "balance": "You need to have a pocket watcher badge to view this.", "badges": [], "created_at": "2025-06-17T10:25:51.485-04:00", "updated_at": "2025-07-03T19:40:45.558-04:00", "avatar": "https://secure.gravatar.com/avatar/b66a43066cf54781c0ff76aefb6b734b.jpg?s=512&d=https%3A%2F%2Fa.slack-edge.com%2Fdf10d%2Fimg%2Favatars%2Fava_0019-512.png", "custom_css": null}, {"id": 6584, "slack_id": "U091N8ALHJA", "display_name": "Sabyasachi Sain", "bio": null, "projects_count": 1, "devlogs_count": 0, "votes_count": 0, "ships_count": 0, "projects": [{"id": 905, "title": "My App", "devlogs_count": 0, "created_at": "2025-06-17T10:56:42.697-04:00"}], "coding_time_seconds": 1781, "coding_time_seconds_today": 0, "balance": "You need to have a pocket watcher badge to view this.", "badges": [], "created_at": "2025-06-17T10:25:53.530-04:00", "updated_at": "2025-07-03T21:56:15.635-04:00", "avatar": "https://secure.gravatar.com/avatar/528982298d0b588c7a0812de371f2448.jpg?s=512&d=https%3A%2F%2Fa.slack-edge.com%2Fdf10d%2Fimg%2Favatars%2Fava_0023-512.png", "custom_css": null}, {"id": 6585, "slack_id": "U07J7A35HS9", "display_name": "AM", "bio": null, "projects_count": 1, "devlogs_count": 0, "votes_count": 0, "ships_count": 0, "projects": [{"id": 6235, "title": "A Battle of Fate", "devlogs_count": 0, "created_at": "2025-07-11T13:27:30.097-04:00"}], "coding_time_seconds": 18480, "coding_time_seconds_today": 0, "balance": "You need to have a pocket watcher badge to view this.", "badges": [], "created_at": "2025-06-17T10:26:23.867-04:00", "updated_at": "2025-07-03T19:40:45.973-04:00", "avatar": "https://avatars.slack-edge.com/2025-02-27/8533305870609_60207a9424b998056a83_original.png", "custom_css": null}, {"id": 6586, "slack_id": "U091N3QH53M", "display_name": "Cyb3r_G33k", "bio": null, "projects_count": 0, "devlogs_count": 0, "votes_count": 0, "ships_count": 0, "projects": [], "coding_time_seconds": 45548, "coding_time_seconds_today": 0, "balance": "You need to have a pocket watcher badge to view this.", "badges": [], "created_at": "2025-06-17T10:26:59.033-04:00", "updated_at": "2025-07-05T02:07:24.530-04:00", "avatar": "https://secure.gravatar.com/avatar/2c21caa138fad05b0cdecfcdffe74b13.jpg?s=512&d=https%3A%2F%2Fa.slack-edge.com%2Fdf10d%2Fimg%2Favatars%2Fava_0004-512.png", "custom_css": null}, {"id": 6587, "slack_id": "U091N42JU3V", "display_name": "Elliot", "bio": null, "projects_count": 0, "devlogs_count": 0, "votes_count": 0, "ships_count": 0, "projects": [], "coding_time_seconds": 0, "coding_time_seconds_today": 0, "balance": "You need to have a pocket watcher badge to view this.", "badges": [], "created_at": "2025-06-17T10:27:00.006-04:00", "updated_at": "2025-07-03T22:34:49.536-04:00", "avatar": "https://secure.gravatar.com/avatar/46dd967693ad08ec4001ae15243225fb.jpg?s=512&d=https%3A%2F%2Fa.slack-edge.com%2Fdf10d%2Fimg%2Favatars%2Fava_0015-512.png", "custom_css": null}, {"id": 6588, "slack_id": "U08CEQADAHK", "display_name": "Jaiden Wirasinghe", "bio": null, "projects_count": 0, "devlogs_count": 0, "votes_count": 0, "ships_count": 0, "projects": [], "coding_time_seconds": 0, "coding_time_seconds_today": 0, "balance": "You need to have a pocket watcher badge to view this.", "badges": [], "created_at": "2025-06-17T10:27:03.731-04:00", "updated_at": "2025-07-03T19:40:46.513-04:00", "avatar": "https://secure.gravatar.com/avatar/113705ceef33041feef8f409218c1b39.jpg?s=512&d=https%3A%2F%2Fa.slack-edge.com%2Fdf10d%2Fimg%2Favatars%2Fava_0023-512.png", "custom_css": null}, {"id": 6589, "slack_id": "U091N4EL0F5", "display_name": "HARSHAVARDHAN MUDDADA", "bio": null, "projects_count": 0, "devlogs_count": 0, "votes_count": 0, "ships_count": 0, "projects": [], "coding_time_seconds": 36122, "coding_time_seconds_today": 0, "balance": "You need to have a pocket watcher badge to view this.", "badges": [], "created_at": "2025-06-17T10:27:46.991-04:00", "updated_at": "2025-07-03T19:40:46.867-04:00", "avatar": "https://avatars.slack-edge.com/2025-06-17/9056165196115_f2118582c46f6a37bfda_original.png", "custom_css": null}, {"id": 6590, "slack_id": "U091V8Z2TNG", "display_name": "Rrishabh Sankaran 24BAI1071", "bio": null, "projects_count": 0, "devlogs_count": 0, "votes_count": 0, "ships_count": 0, "projects": [], "coding_time_seconds": 480, "coding_time_seconds_today": 0, "balance": "You need to have a pocket watcher badge to view this.", "badges": [], "created_at": "2025-06-17T10:29:08.490-04:00", "updated_at": "2025-07-04T08:22:00.692-04:00", "avatar": "https://avatars.slack-edge.com/2025-06-17/9047548991751_f74d84aca43e695ab342_original.png", "custom_css": null}, {"id": 6591, "slack_id": "U091T504V3P", "display_name": "Yash Gohel", "bio": null, "projects_count": 0, "devlogs_count": 0, "votes_count": 0, "ships_count": 0, "projects": [], "coding_time_seconds": 0, "coding_time_seconds_today": 0, "balance": "You need to have a pocket watcher badge to view this.", "badges": [], "created_at": "2025-06-17T10:29:32.736-04:00", "updated_at": "2025-07-03T21:44:19.674-04:00", "avatar": "https://avatars.slack-edge.com/2025-06-17/9075518454081_d0130658e41bfac07df9_original.jpg", "custom_css": null}, {"id": 6592, "slack_id": "U09190K0GK1", "display_name": "Hassan_01", "bio": null, "projects_count": 0, "devlogs_count": 0, "votes_count": 0, "ships_count": 0, "projects": [], "coding_time_seconds": 0, "coding_time_seconds_today": 0, "balance": "You need to have a pocket watcher badge to view this.", "badges": [], "created_at": "2025-06-17T10:30:26.847-04:00", "updated_at": "2025-07-03T21:56:16.186-04:00", "avatar": "https://secure.gravatar.com/avatar/df87a940af9292e80d42c0eea5027a3a.jpg?s=512&d=https%3A%2F%2Fa.slack-edge.com%2Fdf10d%2Fimg%2Favatars%2Fava_0015-512.png", "custom_css": null}, {"id": 6593, "slack_id": "U091N4WUW3D", "display_name": "Eyad Ahmed Samy", "bio": null, "projects_count": 1, "devlogs_count": 1, "votes_count": 0, "ships_count": 1, "projects": [{"id": 1493, "title": "CSS", "devlogs_count": 1, "created_at": "2025-06-18T16:26:02.072-04:00"}], "coding_time_seconds": 51166, "coding_time_seconds_today": 0, "balance": "You need to have a pocket watcher badge to view this.", "badges": [{"name": "Maiden Voyage", "text": "you shipped your first project! the journey begins...", "icon": "\ud83d\udea2"}], "created_at": "2025-06-17T10:30:34.303-04:00", "updated_at": "2025-09-10T22:54:26.677-04:00", "avatar": "https://secure.gravatar.com/avatar/f85709cf02958ef5919213ddb9bab5d4.jpg?s=512&d=https%3A%2F%2Fa.slack-edge.com%2Fdf10d%2Fimg%2Favatars%2Fava_0017-512.png", "custom_css": null}, {"id": 6594, "slack_id": "U0927E9BQ2D", "display_name": "Dulmina Jayaru Geeganage", "bio": null, "projects_count": 0, "devlogs_count": 0, "votes_count": 0, "ships_count": 0, "projects": [], "coding_time_seconds": 3752, "coding_time_seconds_today": 0, "balance": "You need to have a pocket watcher badge to view this.", "badges": [], "created_at": "2025-06-17T10:30:58.661-04:00", "updated_at": "2025-07-03T19:40:47.806-04:00", "avatar": "https://secure.gravatar.com/avatar/02a4a3809b373cce684dcb51db5d35ef.jpg?s=512&d=https%3A%2F%2Fa.slack-edge.com%2Fdf10d%2Fimg%2Favatars%2Fava_0020-512.png", "custom_css": null}, {"id": 6595, "slack_id": "U091NA00NES", "display_name": "Bhawesh Panwar", "bio": null, "projects_count": 0, "devlogs_count": 0, "votes_count": 0, "ships_count": 0, "projects": [], "coding_time_seconds": 0, "coding_time_seconds_today": 0, "balance": "You need to have a pocket watcher badge to view this.", "badges": [], "created_at": "2025-06-17T10:31:12.698-04:00", "updated_at": "2025-07-03T21:56:16.424-04:00", "avatar": "https://secure.gravatar.com/avatar/54a5d741983f9df163fad3f77016173e.jpg?s=512&d=https%3A%2F%2Fa.slack-edge.com%2Fdf10d%2Fimg%2Favatars%2Fava_0011-512.png", "custom_css": null}, {"id": 6596, "slack_id": "U092H8NT7EC", "display_name": "Ruiqi Yin", "bio": null, "projects_count": 0, "devlogs_count": 0, "votes_count": 0, "ships_count": 0, "projects": [], "coding_time_seconds": 0, "coding_time_seconds_today": 0, "balance": "You need to have a pocket watcher badge to view this.", "badges": [], "created_at": "2025-06-17T10:31:44.557-04:00", "updated_at": "2025-07-03T21:44:20.058-04:00", "avatar": "https://secure.gravatar.com/avatar/437311fa6880ae05144a278e60053c54.jpg?s=512&d=https%3A%2F%2Fa.slack-edge.com%2Fdf10d%2Fimg%2Favatars%2Fava_0009-512.png", "custom_css": null}, {"id": 6597, "slack_id": "U092H95K5U0", "display_name": "Tharcisse Ntirandekura", "bio": null, "projects_count": 0, "devlogs_count": 0, "votes_count": 0, "ships_count": 0, "projects": [], "coding_time_seconds": 0, "coding_time_seconds_today": 0, "balance": "You need to have a pocket watcher badge to view this.", "badges": [], "created_at": "2025-06-17T10:32:05.456-04:00", "updated_at": "2025-07-03T19:40:48.339-04:00", "avatar": "https://avatars.slack-edge.com/2025-06-17/9047574136519_fee263b6dc0a586df95a_original.png", "custom_css": null}, {"id": 6598, "slack_id": "U0927FJ8A81", "display_name": "arda", "bio": null, "projects_count": 0, "devlogs_count": 0, "votes_count": 0, "ships_count": 0, "projects": [], "coding_time_seconds": 0, "coding_time_seconds_today": 0, "balance": "You need to have a pocket watcher badge to view this.", "badges": [], "created_at": "2025-06-17T10:33:08.081-04:00", "updated_at": "2025-07-03T19:40:48.608-04:00", "avatar": "https://secure.gravatar.com/avatar/2bd527a56c9b5d167086ac26def3487b.jpg?s=512&d=https%3A%2F%2Fa.slack-edge.com%2Fdf10d%2Fimg%2Favatars%2Fava_0015-512.png", "custom_css": null}, {"id": 6599, "slack_id": "U091T6PP97F", "display_name": "Walker", "bio": null, "projects_count": 0, "devlogs_count": 41, "votes_count": 7, "ships_count": 0, "projects": [], "coding_time_seconds": 1314562, "coding_time_seconds_today": 0, "balance": "You need to have a pocket watcher badge to view this.", "badges": [{"name": "Maiden Voyage", "text": "you shipped your first project! the journey begins...", "icon": "\ud83d\udea2"}], "created_at": "2025-06-17T10:33:39.026-04:00", "updated_at": "2025-09-10T22:54:26.903-04:00", "avatar": "https://avatars.slack-edge.com/2025-07-17/9211719149330_d618eb462aa635b21d20_original.png", "custom_css": null}, {"id": 6600, "slack_id": "U091T6G5YDT", "display_name": "Aditya Tripathi", "bio": null, "projects_count": 0, "devlogs_count": 0, "votes_count": 0, "ships_count": 0, "projects": [], "coding_time_seconds": 0, "coding_time_seconds_today": 0, "balance": "You need to have a pocket watcher badge to view this.", "badges": [], "created_at": "2025-06-17T10:33:40.204-04:00", "updated_at": "2025-07-03T19:40:49.219-04:00", "avatar": "https://secure.gravatar.com/avatar/b5f7a2e2a82669a0c8181486c78f98bb.jpg?s=512&d=https%3A%2F%2Fa.slack-edge.com%2Fdf10d%2Fimg%2Favatars%2Fava_0023-512.png", "custom_css": null}], "pagination": {"page": 330, "pages": 1192, "count": 23828, "items": 20}}