{"users": [{"id": 6601, "slack_id": "U091DGK2G15", "display_name": "Ankit Tandukar", "bio": null, "projects_count": 0, "devlogs_count": 0, "votes_count": 3, "ships_count": 0, "projects": [], "coding_time_seconds": 42403, "coding_time_seconds_today": 0, "balance": "You need to have a pocket watcher badge to view this.", "badges": [], "created_at": "2025-06-17T10:34:13.165-04:00", "updated_at": "2025-09-12T16:01:59.643-04:00", "avatar": "https://avatars.slack-edge.com/2025-06-17/9061253633445_3c4a24a3267524d41231_original.png", "custom_css": null}, {"id": 6602, "slack_id": "U0918SNQTJT", "display_name": "Satyam Patel", "bio": null, "projects_count": 0, "devlogs_count": 0, "votes_count": 0, "ships_count": 0, "projects": [], "coding_time_seconds": 14603, "coding_time_seconds_today": 0, "balance": "You need to have a pocket watcher badge to view this.", "badges": [], "created_at": "2025-06-17T10:35:00.850-04:00", "updated_at": "2025-07-03T19:40:49.766-04:00", "avatar": "https://avatars.slack-edge.com/2025-06-17/9056385491110_72afc84fc0a935cf3852_original.jpg", "custom_css": null}, {"id": 6603, "slack_id": "U0927G2A665", "display_name": "Doodl0", "bio": "", "projects_count": 3, "devlogs_count": 29, "votes_count": 65, "ships_count": 3, "projects": [{"id": 10676, "title": "Godot Ray Tracer", "devlogs_count": 15, "created_at": "2025-08-09T14:03:17.123-04:00"}, {"id": 6958, "title": "Gravity Simulation", "devlogs_count": 4, "created_at": "2025-07-17T15:44:14.003-04:00"}, {"id": 1148, "title": "Minecraft Server Utilities", "devlogs_count": 10, "created_at": "2025-06-17T18:15:24.952-04:00"}], "coding_time_seconds": 240671, "coding_time_seconds_today": 0, "balance": "You need to have a pocket watcher badge to view this.", "badges": [{"name": "Maiden Voyage", "text": "you shipped your first project! the journey begins...", "icon": "\ud83d\udea2"}], "created_at": "2025-06-17T10:35:09.721-04:00", "updated_at": "2025-09-24T18:31:39.752-04:00", "avatar": "https://avatars.slack-edge.com/2025-09-24/9605087572336_82c8ef9707f59edcf2fe_original.png", "custom_css": null}, {"id": 6604, "slack_id": "U091VA4959A", "display_name": "Ahmet Veys", "bio": null, "projects_count": 0, "devlogs_count": 0, "votes_count": 0, "ships_count": 0, "projects": [], "coding_time_seconds": 0, "coding_time_seconds_today": 0, "balance": "You need to have a pocket watcher badge to view this.", "badges": [], "created_at": "2025-06-17T10:35:16.338-04:00", "updated_at": "2025-07-03T19:40:50.296-04:00", "avatar": "https://secure.gravatar.com/avatar/754b510b0e8d3e539888b922016d7415.jpg?s=512&d=https%3A%2F%2Fa.slack-edge.com%2Fdf10d%2Fimg%2Favatars%2Fava_0006-512.png", "custom_css": null}, {"id": 6605, "slack_id": "U091DH4PVDM", "display_name": "Diego", "bio": null, "projects_count": 0, "devlogs_count": 0, "votes_count": 0, "ships_count": 0, "projects": [], "coding_time_seconds": 0, "coding_time_seconds_today": 0, "balance": "You need to have a pocket watcher badge to view this.", "badges": [], "created_at": "2025-06-17T10:35:40.341-04:00", "updated_at": "2025-07-03T19:40:50.561-04:00", "avatar": "https://secure.gravatar.com/avatar/c8203888ba53c35cbbb767cad05efa79.jpg?s=512&d=https%3A%2F%2Fa.slack-edge.com%2Fdf10d%2Fimg%2Favatars%2Fava_0005-512.png", "custom_css": null}, {"id": 6606, "slack_id": "U091V12T076", "display_name": "Yash Khokhar", "bio": null, "projects_count": 0, "devlogs_count": 0, "votes_count": 0, "ships_count": 0, "projects": [], "coding_time_seconds": 0, "coding_time_seconds_today": 0, "balance": "You need to have a pocket watcher badge to view this.", "badges": [], "created_at": "2025-06-17T10:36:21.189-04:00", "updated_at": "2025-07-07T14:32:13.631-04:00", "avatar": "https://secure.gravatar.com/avatar/9bb6a7eb99323c3d8ae5a82d591dc15e.jpg?s=512&d=https%3A%2F%2Fa.slack-edge.com%2Fdf10d%2Fimg%2Favatars%2Fava_0001-512.png", "custom_css": null}, {"id": 6607, "slack_id": "U092HA5FA7J", "display_name": "Manaal Waseem", "bio": null, "projects_count": 0, "devlogs_count": 0, "votes_count": 0, "ships_count": 0, "projects": [], "coding_time_seconds": 0, "coding_time_seconds_today": 0, "balance": "You need to have a pocket watcher badge to view this.", "badges": [], "created_at": "2025-06-17T10:37:08.325-04:00", "updated_at": "2025-07-03T19:40:50.960-04:00", "avatar": "https://avatars.slack-edge.com/2025-06-17/9061265862453_35017e35667be0b13b5c_original.jpg", "custom_css": null}, {"id": 6608, "slack_id": "U091UU09LRY", "display_name": "mina medhat", "bio": null, "projects_count": 0, "devlogs_count": 0, "votes_count": 0, "ships_count": 0, "projects": [], "coding_time_seconds": 1927, "coding_time_seconds_today": 0, "balance": "You need to have a pocket watcher badge to view this.", "badges": [], "created_at": "2025-06-17T10:37:27.737-04:00", "updated_at": "2025-08-02T04:51:22.424-04:00", "avatar": "https://avatars.slack-edge.com/2025-06-17/9061963828341_5acb66fa54fe1dff8a46_original.png", "custom_css": null}, {"id": 6609, "slack_id": "U091NB7NJG6", "display_name": "kyrylo", "bio": null, "projects_count": 0, "devlogs_count": 0, "votes_count": 0, "ships_count": 0, "projects": [], "coding_time_seconds": 0, "coding_time_seconds_today": 0, "balance": "You need to have a pocket watcher badge to view this.", "badges": [], "created_at": "2025-06-17T10:37:31.326-04:00", "updated_at": "2025-07-03T19:40:51.355-04:00", "avatar": "https://secure.gravatar.com/avatar/4cbe249ec724089ae6069190f6b468c2.jpg?s=512&d=https%3A%2F%2Fa.slack-edge.com%2Fdf10d%2Fimg%2Favatars%2Fava_0020-512.png", "custom_css": null}, {"id": 6610, "slack_id": "U091T5ZQ19B", "display_name": "Nikhil Sahni", "bio": null, "projects_count": 0, "devlogs_count": 0, "votes_count": 0, "ships_count": 0, "projects": [], "coding_time_seconds": 121755, "coding_time_seconds_today": 0, "balance": "You need to have a pocket watcher badge to view this.", "badges": [], "created_at": "2025-06-17T10:37:38.300-04:00", "updated_at": "2025-07-03T19:40:51.630-04:00", "avatar": "https://secure.gravatar.com/avatar/929ca55e1031e0202798de39dc40c044.jpg?s=512&d=https%3A%2F%2Fa.slack-edge.com%2Fdf10d%2Fimg%2Favatars%2Fava_0000-512.png", "custom_css": null}, {"id": 6611, "slack_id": "U091T7LUCH3", "display_name": "Hassnain sayed", "bio": null, "projects_count": 1, "devlogs_count": 5, "votes_count": 0, "ships_count": 0, "projects": [{"id": 1827, "title": "Type coder", "devlogs_count": 5, "created_at": "2025-06-19T11:05:57.964-04:00"}], "coding_time_seconds": 22584, "coding_time_seconds_today": 0, "balance": "You need to have a pocket watcher badge to view this.", "badges": [], "created_at": "2025-06-17T10:38:28.964-04:00", "updated_at": "2025-07-03T19:40:51.896-04:00", "avatar": "https://avatars.slack-edge.com/2025-06-19/9074273266517_2b2fb8a18ce5d2429cf1_original.jpg", "custom_css": null}, {"id": 6612, "slack_id": "U091WKR3D0R", "display_name": "Milo", "bio": null, "projects_count": 1, "devlogs_count": 0, "votes_count": 0, "ships_count": 0, "projects": [{"id": 909, "title": "ImgurCMD", "devlogs_count": 0, "created_at": "2025-06-17T11:00:16.940-04:00"}], "coding_time_seconds": 5493, "coding_time_seconds_today": 0, "balance": "You need to have a pocket watcher badge to view this.", "badges": [], "created_at": "2025-06-17T10:38:41.404-04:00", "updated_at": "2025-07-04T02:25:50.728-04:00", "avatar": "https://avatars.slack-edge.com/2025-06-15/9052857427620_efc682b6bccddb68c6e3_original.png", "custom_css": null}, {"id": 6613, "slack_id": "U092HABD7U0", "display_name": "Nathan Nowling", "bio": null, "projects_count": 0, "devlogs_count": 0, "votes_count": 0, "ships_count": 0, "projects": [], "coding_time_seconds": 0, "coding_time_seconds_today": 0, "balance": "You need to have a pocket watcher badge to view this.", "badges": [], "created_at": "2025-06-17T10:39:14.493-04:00", "updated_at": "2025-07-03T19:40:52.308-04:00", "avatar": "https://secure.gravatar.com/avatar/38cb544b08beb1472fc2525ece323cb0.jpg?s=512&d=https%3A%2F%2Fa.slack-edge.com%2Fdf10d%2Fimg%2Favatars%2Fava_0024-512.png", "custom_css": null}, {"id": 6614, "slack_id": "U07TTC01GTF", "display_name": "Emptip303", "bio": null, "projects_count": 0, "devlogs_count": 0, "votes_count": 0, "ships_count": 0, "projects": [], "coding_time_seconds": 0, "coding_time_seconds_today": 0, "balance": "You need to have a pocket watcher badge to view this.", "badges": [], "created_at": "2025-06-17T10:39:16.171-04:00", "updated_at": "2025-07-03T19:40:52.601-04:00", "avatar": "https://secure.gravatar.com/avatar/5f32b343577df3236b0545cd869e711d.jpg?s=512&d=https%3A%2F%2Fa.slack-edge.com%2Fdf10d%2Fimg%2Favatars%2Fava_0011-512.png", "custom_css": null}, {"id": 6615, "slack_id": "U092H9HRZDE", "display_name": "JellyJello", "bio": null, "projects_count": 0, "devlogs_count": 0, "votes_count": 0, "ships_count": 0, "projects": [], "coding_time_seconds": 217812, "coding_time_seconds_today": 0, "balance": "You need to have a pocket watcher badge to view this.", "badges": [], "created_at": "2025-06-17T10:39:34.496-04:00", "updated_at": "2025-08-16T10:07:23.615-04:00", "avatar": "https://secure.gravatar.com/avatar/bb990429b216d06be8775b861a3c0080.jpg?s=512&d=https%3A%2F%2Fa.slack-edge.com%2Fdf10d%2Fimg%2Favatars%2Fava_0016-512.png", "custom_css": null}, {"id": 6616, "slack_id": "U091T7S19NZ", "display_name": "Md Rohul Amin", "bio": null, "projects_count": 0, "devlogs_count": 0, "votes_count": 0, "ships_count": 0, "projects": [], "coding_time_seconds": 0, "coding_time_seconds_today": 0, "balance": "You need to have a pocket watcher badge to view this.", "badges": [], "created_at": "2025-06-17T10:39:45.610-04:00", "updated_at": "2025-07-03T19:40:53.113-04:00", "avatar": "https://secure.gravatar.com/avatar/15f2900dbe4a20a227109eff26dce58f.jpg?s=512&d=https%3A%2F%2Fa.slack-edge.com%2Fdf10d%2Fimg%2Favatars%2Fava_0014-512.png", "custom_css": null}, {"id": 6617, "slack_id": "U091Q2VJS9G", "display_name": "Kashish Sinha", "bio": null, "projects_count": 0, "devlogs_count": 0, "votes_count": 0, "ships_count": 0, "projects": [], "coding_time_seconds": 0, "coding_time_seconds_today": 0, "balance": "You need to have a pocket watcher badge to view this.", "badges": [], "created_at": "2025-06-17T10:40:06.985-04:00", "updated_at": "2025-07-03T19:40:53.378-04:00", "avatar": "https://secure.gravatar.com/avatar/6368a3e51f1068b087fdd2b9e4c8632f.jpg?s=512&d=https%3A%2F%2Fa.slack-edge.com%2Fdf10d%2Fimg%2Favatars%2Fava_0015-512.png", "custom_css": null}, {"id": 6618, "slack_id": "U091T857Z5K", "display_name": "kevink", "bio": null, "projects_count": 0, "devlogs_count": 0, "votes_count": 0, "ships_count": 0, "projects": [], "coding_time_seconds": 0, "coding_time_seconds_today": 0, "balance": "You need to have a pocket watcher badge to view this.", "badges": [], "created_at": "2025-06-17T10:41:09.199-04:00", "updated_at": "2025-07-03T19:40:53.650-04:00", "avatar": "https://secure.gravatar.com/avatar/fdba5e7690511087f1fc69138b10e52d.jpg?s=512&d=https%3A%2F%2Fa.slack-edge.com%2Fdf10d%2Fimg%2Favatars%2Fava_0001-512.png", "custom_css": null}, {"id": 6619, "slack_id": "U091T856PEH", "display_name": "Gabriel Pop", "bio": null, "projects_count": 0, "devlogs_count": 0, "votes_count": 0, "ships_count": 0, "projects": [], "coding_time_seconds": 0, "coding_time_seconds_today": 0, "balance": "You need to have a pocket watcher badge to view this.", "badges": [], "created_at": "2025-06-17T10:41:14.663-04:00", "updated_at": "2025-07-03T19:40:53.929-04:00", "avatar": "https://secure.gravatar.com/avatar/e28bb6df2f7de32f44808f5d0f9e2122.jpg?s=512&d=https%3A%2F%2Fa.slack-edge.com%2Fdf10d%2Fimg%2Favatars%2Fava_0018-512.png", "custom_css": null}, {"id": 6620, "slack_id": "U092HARJZKJ", "display_name": "Solomon Shalom Lijo", "bio": null, "projects_count": 0, "devlogs_count": 1, "votes_count": 1, "ships_count": 0, "projects": [], "coding_time_seconds": 742052, "coding_time_seconds_today": 808, "balance": "You need to have a pocket watcher badge to view this.", "badges": [], "created_at": "2025-06-17T10:41:14.802-04:00", "updated_at": "2025-07-09T16:55:45.121-04:00", "avatar": "https://secure.gravatar.com/avatar/630b65026fa4d8643e8f02f4eaf0b477.jpg?s=512&d=https%3A%2F%2Fa.slack-edge.com%2Fdf10d%2Fimg%2Favatars%2Fava_0013-512.png", "custom_css": null}], "pagination": {"page": 331, "pages": 1192, "count": 23828, "items": 20}}