{"users": [{"id": 6621, "slack_id": "U091DHZK45D", "display_name": "Shubham", "bio": null, "projects_count": 0, "devlogs_count": 0, "votes_count": 0, "ships_count": 0, "projects": [], "coding_time_seconds": 0, "coding_time_seconds_today": 0, "balance": "You need to have a pocket watcher badge to view this.", "badges": [], "created_at": "2025-06-17T10:42:11.044-04:00", "updated_at": "2025-07-03T19:40:54.474-04:00", "avatar": "https://secure.gravatar.com/avatar/6beb44fad93dfd7d1f89ff23cac5a142.jpg?s=512&d=https%3A%2F%2Fa.slack-edge.com%2Fdf10d%2Fimg%2Favatars%2Fava_0023-512.png", "custom_css": null}, {"id": 6622, "slack_id": "U0927HA6VDX", "display_name": "black bird", "bio": null, "projects_count": 0, "devlogs_count": 0, "votes_count": 0, "ships_count": 0, "projects": [], "coding_time_seconds": 0, "coding_time_seconds_today": 0, "balance": "You need to have a pocket watcher badge to view this.", "badges": [], "created_at": "2025-06-17T10:42:46.275-04:00", "updated_at": "2025-07-03T19:40:54.756-04:00", "avatar": "https://secure.gravatar.com/avatar/5097aaadf7858fa47e74127d15dcf4e1.jpg?s=512&d=https%3A%2F%2Fa.slack-edge.com%2Fdf10d%2Fimg%2Favatars%2Fava_0004-512.png", "custom_css": null}, {"id": 6623, "slack_id": "U091DHE2DTR", "display_name": "Jo\u00e3o Vitor Pereira", "bio": null, "projects_count": 3, "devlogs_count": 3, "votes_count": 9, "ships_count": 0, "projects": [{"id": 1804, "title": "better-cicle", "devlogs_count": 2, "created_at": "2025-06-19T09:36:26.157-04:00"}, {"id": 1947, "title": "backend-time", "devlogs_count": 1, "created_at": "2025-06-19T17:08:07.829-04:00"}, {"id": 1943, "title": "frontend-time", "devlogs_count": 0, "created_at": "2025-06-19T17:02:39.145-04:00"}], "coding_time_seconds": 406796, "coding_time_seconds_today": 0, "balance": "You need to have a pocket watcher badge to view this.", "badges": [], "created_at": "2025-06-17T10:44:15.892-04:00", "updated_at": "2025-07-03T22:34:52.178-04:00", "avatar": "https://secure.gravatar.com/avatar/4b353ac25b813c0dffa0c3a8a503b51d.jpg?s=512&d=https%3A%2F%2Fa.slack-edge.com%2Fdf10d%2Fimg%2Favatars%2Fava_0025-512.png", "custom_css": null}, {"id": 6624, "slack_id": "U091NC99L14", "display_name": "prasanth", "bio": null, "projects_count": 1, "devlogs_count": 1, "votes_count": 0, "ships_count": 0, "projects": [{"id": 1249, "title": "http://prashath.me \u2013 My Personal Developer Portfolio", "devlogs_count": 1, "created_at": "2025-06-18T02:03:31.086-04:00"}], "coding_time_seconds": 3077, "coding_time_seconds_today": 0, "balance": "You need to have a pocket watcher badge to view this.", "badges": [], "created_at": "2025-06-17T10:44:16.697-04:00", "updated_at": "2025-07-03T19:40:55.250-04:00", "avatar": "https://secure.gravatar.com/avatar/8105d7bd27286a0073a9b19a22ce983b.jpg?s=512&d=https%3A%2F%2Fa.slack-edge.com%2Fdf10d%2Fimg%2Favatars%2Fava_0013-512.png", "custom_css": null}, {"id": 6625, "slack_id": "U091N7BNDK5", "display_name": "Aazib", "bio": null, "projects_count": 0, "devlogs_count": 0, "votes_count": 0, "ships_count": 0, "projects": [], "coding_time_seconds": 0, "coding_time_seconds_today": 0, "balance": "You need to have a pocket watcher badge to view this.", "badges": [], "created_at": "2025-06-17T10:44:19.467-04:00", "updated_at": "2025-07-03T19:40:55.519-04:00", "avatar": "https://secure.gravatar.com/avatar/326f15cf6e36afcb6d51453ba2579506.jpg?s=512&d=https%3A%2F%2Fa.slack-edge.com%2Fdf10d%2Fimg%2Favatars%2Fava_0008-512.png", "custom_css": null}, {"id": 6626, "slack_id": "U091HEQPX3Q", "display_name": "Tobias", "bio": null, "projects_count": 0, "devlogs_count": 0, "votes_count": 0, "ships_count": 0, "projects": [], "coding_time_seconds": 0, "coding_time_seconds_today": 0, "balance": "You need to have a pocket watcher badge to view this.", "badges": [], "created_at": "2025-06-17T10:44:39.052-04:00", "updated_at": "2025-07-03T19:40:55.804-04:00", "avatar": "https://secure.gravatar.com/avatar/9646798ff94c66dea093103b2f064a1a.jpg?s=512&d=https%3A%2F%2Fa.slack-edge.com%2Fdf10d%2Fimg%2Favatars%2Fava_0021-512.png", "custom_css": null}, {"id": 6627, "slack_id": "U091V0AJ5NW", "display_name": "Saloni Tanmor", "bio": null, "projects_count": 0, "devlogs_count": 0, "votes_count": 0, "ships_count": 0, "projects": [], "coding_time_seconds": 0, "coding_time_seconds_today": 0, "balance": "You need to have a pocket watcher badge to view this.", "badges": [], "created_at": "2025-06-17T10:44:39.168-04:00", "updated_at": "2025-07-03T19:40:56.083-04:00", "avatar": "https://secure.gravatar.com/avatar/13b97bcd20ab46374ade27ffa723f1e3.jpg?s=512&d=https%3A%2F%2Fa.slack-edge.com%2Fdf10d%2Fimg%2Favatars%2Fava_0018-512.png", "custom_css": null}, {"id": 6628, "slack_id": "U092HB5SRQQ", "display_name": "Muhammad Azhar Sang Surya", "bio": null, "projects_count": 0, "devlogs_count": 0, "votes_count": 0, "ships_count": 0, "projects": [], "coding_time_seconds": 0, "coding_time_seconds_today": 0, "balance": "You need to have a pocket watcher badge to view this.", "badges": [], "created_at": "2025-06-17T10:44:39.443-04:00", "updated_at": "2025-07-05T08:07:42.808-04:00", "avatar": "https://secure.gravatar.com/avatar/5a330634307791dab75817cd991115e6.jpg?s=512&d=https%3A%2F%2Fa.slack-edge.com%2Fdf10d%2Fimg%2Favatars%2Fava_0021-512.png", "custom_css": null}, {"id": 6629, "slack_id": "U091V0KAMNE", "display_name": "userandaname", "bio": null, "projects_count": 1, "devlogs_count": 7, "votes_count": 8, "ships_count": 1, "projects": [{"id": 1547, "title": "OpenVLE", "devlogs_count": 7, "created_at": "2025-06-18T18:06:01.992-04:00"}], "coding_time_seconds": 158644, "coding_time_seconds_today": 0, "balance": "You need to have a pocket watcher badge to view this.", "badges": [{"name": "Maiden Voyage", "text": "you shipped your first project! the journey begins...", "icon": "\ud83d\udea2"}], "created_at": "2025-06-17T10:44:42.863-04:00", "updated_at": "2025-09-10T22:54:27.739-04:00", "avatar": "https://avatars.slack-edge.com/2025-06-21/9069075380039_72d661d3ead738d3ac49_original.jpg", "custom_css": null}, {"id": 6630, "slack_id": "U091MHZNH0W", "display_name": "Nicolas De La Pava", "bio": null, "projects_count": 0, "devlogs_count": 0, "votes_count": 0, "ships_count": 0, "projects": [], "coding_time_seconds": 0, "coding_time_seconds_today": 0, "balance": "You need to have a pocket watcher badge to view this.", "badges": [], "created_at": "2025-06-17T10:44:46.844-04:00", "updated_at": "2025-07-03T19:40:56.750-04:00", "avatar": "https://secure.gravatar.com/avatar/03a51ab8dcafd24db06a87f8edb2e250.jpg?s=512&d=https%3A%2F%2Fa.slack-edge.com%2Fdf10d%2Fimg%2Favatars%2Fava_0012-512.png", "custom_css": null}, {"id": 6631, "slack_id": "U091DJPKP2T", "display_name": "TistaMilani", "bio": null, "projects_count": 0, "devlogs_count": 0, "votes_count": 0, "ships_count": 0, "projects": [], "coding_time_seconds": 0, "coding_time_seconds_today": 0, "balance": "You need to have a pocket watcher badge to view this.", "badges": [], "created_at": "2025-06-17T10:45:19.603-04:00", "updated_at": "2025-07-03T21:44:22.621-04:00", "avatar": "https://secure.gravatar.com/avatar/73267e277cf8b6dea592d4c895cbe01f.jpg?s=512&d=https%3A%2F%2Fa.slack-edge.com%2Fdf10d%2Fimg%2Favatars%2Fava_0008-512.png", "custom_css": null}, {"id": 6632, "slack_id": "U091T99JDHB", "display_name": "palak", "bio": null, "projects_count": 0, "devlogs_count": 0, "votes_count": 0, "ships_count": 0, "projects": [], "coding_time_seconds": 754, "coding_time_seconds_today": 0, "balance": "You need to have a pocket watcher badge to view this.", "badges": [], "created_at": "2025-06-17T10:46:14.818-04:00", "updated_at": "2025-07-03T19:40:57.160-04:00", "avatar": "https://secure.gravatar.com/avatar/f130f9b9041ea05fe886517bc6b18994.jpg?s=512&d=https%3A%2F%2Fa.slack-edge.com%2Fdf10d%2Fimg%2Favatars%2Fava_0026-512.png", "custom_css": null}, {"id": 6633, "slack_id": "U091VCEL3HA", "display_name": "damien", "bio": null, "projects_count": 1, "devlogs_count": 1, "votes_count": 0, "ships_count": 0, "projects": [{"id": 908, "title": "Transport Api", "devlogs_count": 1, "created_at": "2025-06-17T10:59:22.491-04:00"}], "coding_time_seconds": 132406, "coding_time_seconds_today": 0, "balance": "You need to have a pocket watcher badge to view this.", "badges": [], "created_at": "2025-06-17T10:46:23.845-04:00", "updated_at": "2025-07-03T19:40:57.431-04:00", "avatar": "https://secure.gravatar.com/avatar/4d43546e1fb21d96b78e3348daeb93f4.jpg?s=512&d=https%3A%2F%2Fa.slack-edge.com%2Fdf10d%2Fimg%2Favatars%2Fava_0002-512.png", "custom_css": null}, {"id": 6634, "slack_id": "U091N874T6X", "display_name": "Baptiste", "bio": null, "projects_count": 0, "devlogs_count": 0, "votes_count": 0, "ships_count": 0, "projects": [], "coding_time_seconds": 0, "coding_time_seconds_today": 0, "balance": "You need to have a pocket watcher badge to view this.", "badges": [], "created_at": "2025-06-17T10:47:13.785-04:00", "updated_at": "2025-07-03T21:44:22.898-04:00", "avatar": "https://secure.gravatar.com/avatar/5541dadf4fe82ce0ea28565b2a4a9d80.jpg?s=512&d=https%3A%2F%2Fa.slack-edge.com%2Fdf10d%2Fimg%2Favatars%2Fava_0020-512.png", "custom_css": null}, {"id": 6635, "slack_id": "U092HB2DNFJ", "display_name": "yash", "bio": null, "projects_count": 0, "devlogs_count": 0, "votes_count": 0, "ships_count": 0, "projects": [], "coding_time_seconds": 0, "coding_time_seconds_today": 0, "balance": "You need to have a pocket watcher badge to view this.", "badges": [], "created_at": "2025-06-17T10:47:31.990-04:00", "updated_at": "2025-07-03T19:40:57.835-04:00", "avatar": "https://avatars.slack-edge.com/2025-06-23/9080366857318_207ed383fa9ebb930748_original.jpg", "custom_css": null}, {"id": 6636, "slack_id": "U0927JH1J9X", "display_name": "Sahil Ansari", "bio": null, "projects_count": 1, "devlogs_count": 0, "votes_count": 0, "ships_count": 0, "projects": [{"id": 916, "title": "Portfolio", "devlogs_count": 0, "created_at": "2025-06-17T11:06:51.487-04:00"}], "coding_time_seconds": 85481, "coding_time_seconds_today": 0, "balance": "You need to have a pocket watcher badge to view this.", "badges": [], "created_at": "2025-06-17T10:48:14.309-04:00", "updated_at": "2025-07-03T21:44:23.146-04:00", "avatar": "https://secure.gravatar.com/avatar/5d35f5bdaf528d961f66453a21f3780f.jpg?s=512&d=https%3A%2F%2Fa.slack-edge.com%2Fdf10d%2Fimg%2Favatars%2Fava_0011-512.png", "custom_css": null}, {"id": 6637, "slack_id": "U091N8HAS8K", "display_name": "Krish Ahlawat", "bio": null, "projects_count": 0, "devlogs_count": 0, "votes_count": 0, "ships_count": 0, "projects": [], "coding_time_seconds": 0, "coding_time_seconds_today": 0, "balance": "You need to have a pocket watcher badge to view this.", "badges": [], "created_at": "2025-06-17T10:48:38.335-04:00", "updated_at": "2025-07-03T19:40:58.252-04:00", "avatar": "https://secure.gravatar.com/avatar/7f28c49905c7ddbd6a67f54e02be9ab9.jpg?s=512&d=https%3A%2F%2Fa.slack-edge.com%2Fdf10d%2Fimg%2Favatars%2Fava_0009-512.png", "custom_css": null}, {"id": 6638, "slack_id": "U092E3FHX8Q", "display_name": "Ariel Hack", "bio": null, "projects_count": 0, "devlogs_count": 0, "votes_count": 0, "ships_count": 0, "projects": [], "coding_time_seconds": 0, "coding_time_seconds_today": 0, "balance": "You need to have a pocket watcher badge to view this.", "badges": [], "created_at": "2025-06-17T10:48:43.964-04:00", "updated_at": "2025-07-03T19:40:58.529-04:00", "avatar": "https://secure.gravatar.com/avatar/7d0a0d98ad2c976364234ec27d787712.jpg?s=512&d=https%3A%2F%2Fa.slack-edge.com%2Fdf10d%2Fimg%2Favatars%2Fava_0014-512.png", "custom_css": null}, {"id": 6639, "slack_id": "U091N8K0N1Z", "display_name": "Karen Ivette Vera", "bio": null, "projects_count": 0, "devlogs_count": 0, "votes_count": 0, "ships_count": 0, "projects": [], "coding_time_seconds": 0, "coding_time_seconds_today": 0, "balance": "You need to have a pocket watcher badge to view this.", "badges": [], "created_at": "2025-06-17T10:48:49.152-04:00", "updated_at": "2025-07-03T19:40:58.814-04:00", "avatar": "https://avatars.slack-edge.com/2025-06-17/9047681775495_1673b01d29891d945176_original.png", "custom_css": null}, {"id": 6640, "slack_id": "U091NDJJBJA", "display_name": "Sriram Kandalai", "bio": null, "projects_count": 0, "devlogs_count": 0, "votes_count": 0, "ships_count": 0, "projects": [], "coding_time_seconds": 0, "coding_time_seconds_today": 0, "balance": "You need to have a pocket watcher badge to view this.", "badges": [], "created_at": "2025-06-17T10:49:19.952-04:00", "updated_at": "2025-07-03T19:40:59.083-04:00", "avatar": "https://avatars.slack-edge.com/2025-06-17/9085436957504_21b780274a47d27091e7_original.png", "custom_css": null}], "pagination": {"page": 332, "pages": 1192, "count": 23828, "items": 20}}