{"users": [{"id": 6641, "slack_id": "U091T96LUN9", "display_name": "Shubham Kumar Sharma", "bio": null, "projects_count": 0, "devlogs_count": 0, "votes_count": 0, "ships_count": 0, "projects": [], "coding_time_seconds": 0, "coding_time_seconds_today": 0, "balance": "You need to have a pocket watcher badge to view this.", "badges": [], "created_at": "2025-06-17T10:49:22.055-04:00", "updated_at": "2025-07-03T19:40:59.356-04:00", "avatar": "https://secure.gravatar.com/avatar/3a214ffb3cddb8a643e997b5b512c207.jpg?s=512&d=https%3A%2F%2Fa.slack-edge.com%2Fdf10d%2Fimg%2Favatars%2Fava_0007-512.png", "custom_css": null}, {"id": 6642, "slack_id": "U0906A0BG85", "display_name": "Jaymes Goddard", "bio": null, "projects_count": 4, "devlogs_count": 4, "votes_count": 0, "ships_count": 0, "projects": [{"id": 1113, "title": "JayPad", "devlogs_count": 0, "created_at": "2025-06-17T16:39:17.667-04:00"}, {"id": 1344, "title": "Learning C#", "devlogs_count": 0, "created_at": "2025-06-18T10:23:30.870-04:00"}, {"id": 3264, "title": "Lego Island 3DS", "devlogs_count": 3, "created_at": "2025-06-23T16:02:19.404-04:00"}, {"id": 1922, "title": "Do This, Do That", "devlogs_count": 1, "created_at": "2025-06-19T16:14:48.443-04:00"}], "coding_time_seconds": 80079, "coding_time_seconds_today": 0, "balance": "You need to have a pocket watcher badge to view this.", "badges": [], "created_at": "2025-06-17T10:49:27.131-04:00", "updated_at": "2025-07-03T19:40:59.624-04:00", "avatar": "https://avatars.slack-edge.com/2025-06-17/9058597956099_1f57ea7ec77bcee59a24_original.png", "custom_css": null}, {"id": 6643, "slack_id": "U091VD9HE6Q", "display_name": "om", "bio": null, "projects_count": 0, "devlogs_count": 0, "votes_count": 0, "ships_count": 0, "projects": [], "coding_time_seconds": 0, "coding_time_seconds_today": 0, "balance": "You need to have a pocket watcher badge to view this.", "badges": [], "created_at": "2025-06-17T10:49:49.262-04:00", "updated_at": "2025-07-03T19:40:59.911-04:00", "avatar": "https://secure.gravatar.com/avatar/f533d6d3da2452f5efacc9ae1194fa30.jpg?s=512&d=https%3A%2F%2Fa.slack-edge.com%2Fdf10d%2Fimg%2Favatars%2Fava_0010-512.png", "custom_css": null}, {"id": 6644, "slack_id": "U091NDKN9SS", "display_name": "Jisan Gain", "bio": null, "projects_count": 0, "devlogs_count": 0, "votes_count": 0, "ships_count": 0, "projects": [], "coding_time_seconds": 215204, "coding_time_seconds_today": 0, "balance": "You need to have a pocket watcher badge to view this.", "badges": [], "created_at": "2025-06-17T10:50:11.488-04:00", "updated_at": "2025-07-03T19:41:00.179-04:00", "avatar": "https://secure.gravatar.com/avatar/850209e2617b51c562f2d676ab21d341.jpg?s=512&d=https%3A%2F%2Fa.slack-edge.com%2Fdf10d%2Fimg%2Favatars%2Fava_0020-512.png", "custom_css": null}, {"id": 6645, "slack_id": "U091RSLDALS", "display_name": "Vansh", "bio": null, "projects_count": 0, "devlogs_count": 0, "votes_count": 0, "ships_count": 0, "projects": [], "coding_time_seconds": 0, "coding_time_seconds_today": 0, "balance": "You need to have a pocket watcher badge to view this.", "badges": [], "created_at": "2025-06-17T10:50:45.649-04:00", "updated_at": "2025-07-05T20:07:51.427-04:00", "avatar": "https://avatars.slack-edge.com/2025-06-17/9063468691652_ee3ed0b7928fbb3d5153_original.png", "custom_css": null}, {"id": 6646, "slack_id": "U08Q42PEKPA", "display_name": "tessaheimer", "bio": null, "projects_count": 0, "devlogs_count": 0, "votes_count": 0, "ships_count": 0, "projects": [], "coding_time_seconds": 5571, "coding_time_seconds_today": 0, "balance": "You need to have a pocket watcher badge to view this.", "badges": [], "created_at": "2025-06-17T10:51:03.455-04:00", "updated_at": "2025-07-03T21:56:19.749-04:00", "avatar": "https://secure.gravatar.com/avatar/38a19c61172a4dcee4c12a7472ba65fa.jpg?s=512&d=https%3A%2F%2Fa.slack-edge.com%2Fdf10d%2Fimg%2Favatars%2Fava_0018-512.png", "custom_css": null}, {"id": 6647, "slack_id": "U091V6ZAF5J", "display_name": "borgo", "bio": null, "projects_count": 0, "devlogs_count": 0, "votes_count": 0, "ships_count": 0, "projects": [], "coding_time_seconds": 0, "coding_time_seconds_today": 0, "balance": "You need to have a pocket watcher badge to view this.", "badges": [], "created_at": "2025-06-17T10:51:25.609-04:00", "updated_at": "2025-07-03T19:41:00.747-04:00", "avatar": "https://secure.gravatar.com/avatar/45d09a1390946e466b8e3e7eaa7fad08.jpg?s=512&d=https%3A%2F%2Fa.slack-edge.com%2Fdf10d%2Fimg%2Favatars%2Fava_0003-512.png", "custom_css": null}, {"id": 6648, "slack_id": "U091TA6V8KX", "display_name": "AshyBoxy", "bio": null, "projects_count": 0, "devlogs_count": 0, "votes_count": 0, "ships_count": 0, "projects": [], "coding_time_seconds": 0, "coding_time_seconds_today": 0, "balance": "You need to have a pocket watcher badge to view this.", "badges": [], "created_at": "2025-06-17T10:51:48.188-04:00", "updated_at": "2025-07-03T19:41:01.023-04:00", "avatar": "https://secure.gravatar.com/avatar/ff5f0bb57ba59bedd059c8fe78017664.jpg?s=512&d=https%3A%2F%2Fa.slack-edge.com%2Fdf10d%2Fimg%2Favatars%2Fava_0024-512.png", "custom_css": null}, {"id": 6649, "slack_id": "U092HCY7BS4", "display_name": "Alcides Fonseca", "bio": null, "projects_count": 0, "devlogs_count": 0, "votes_count": 0, "ships_count": 0, "projects": [], "coding_time_seconds": 48090, "coding_time_seconds_today": 0, "balance": "You need to have a pocket watcher badge to view this.", "badges": [], "created_at": "2025-06-17T10:51:51.570-04:00", "updated_at": "2025-07-07T14:32:28.921-04:00", "avatar": "https://secure.gravatar.com/avatar/7be4c0c0cd5cd9eef3a3a414bdfad3e8.jpg?s=512&d=https%3A%2F%2Fa.slack-edge.com%2Fdf10d%2Fimg%2Favatars%2Fava_0003-512.png", "custom_css": null}, {"id": 6650, "slack_id": "U0927K7UCHF", "display_name": "Om Yadav", "bio": null, "projects_count": 0, "devlogs_count": 0, "votes_count": 0, "ships_count": 0, "projects": [], "coding_time_seconds": 15375, "coding_time_seconds_today": 0, "balance": "You need to have a pocket watcher badge to view this.", "badges": [], "created_at": "2025-06-17T10:52:27.120-04:00", "updated_at": "2025-08-12T16:30:03.075-04:00", "avatar": "https://secure.gravatar.com/avatar/45e488c2d7b6f76f319f4546c82f9884.jpg?s=512&d=https%3A%2F%2Fa.slack-edge.com%2Fdf10d%2Fimg%2Favatars%2Fava_0018-512.png", "custom_css": null}, {"id": 6651, "slack_id": "U091VAVFRA8", "display_name": "Dung Phan", "bio": null, "projects_count": 0, "devlogs_count": 0, "votes_count": 0, "ships_count": 0, "projects": [], "coding_time_seconds": 0, "coding_time_seconds_today": 0, "balance": "You need to have a pocket watcher badge to view this.", "badges": [], "created_at": "2025-06-17T10:52:36.210-04:00", "updated_at": "2025-07-07T14:32:29.077-04:00", "avatar": "https://secure.gravatar.com/avatar/83f780fb3c5cbda3d0644a7bf6d299ea.jpg?s=512&d=https%3A%2F%2Fa.slack-edge.com%2Fdf10d%2Fimg%2Favatars%2Fava_0019-512.png", "custom_css": null}, {"id": 6652, "slack_id": "U07REFSQ1MJ", "display_name": "Ethan Jhonson", "bio": null, "projects_count": 0, "devlogs_count": 0, "votes_count": 0, "ships_count": 0, "projects": [], "coding_time_seconds": 0, "coding_time_seconds_today": 0, "balance": "You need to have a pocket watcher badge to view this.", "badges": [], "created_at": "2025-06-17T10:52:58.775-04:00", "updated_at": "2025-07-07T02:08:41.967-04:00", "avatar": "https://secure.gravatar.com/avatar/8175aaa134b8bb46d043f964574a253a.jpg?s=512&d=https%3A%2F%2Fa.slack-edge.com%2Fdf10d%2Fimg%2Favatars%2Fava_0010-512.png", "custom_css": null}, {"id": 6653, "slack_id": "U07FV2AN9AT", "display_name": "TickTastley", "bio": null, "projects_count": 0, "devlogs_count": 0, "votes_count": 0, "ships_count": 0, "projects": [], "coding_time_seconds": 0, "coding_time_seconds_today": 0, "balance": "You need to have a pocket watcher badge to view this.", "badges": [], "created_at": "2025-06-17T10:53:21.164-04:00", "updated_at": "2025-07-04T02:25:53.583-04:00", "avatar": "https://secure.gravatar.com/avatar/1c413f7d46f29248e0cac25fd62ef1b0.jpg?s=512&d=https%3A%2F%2Fa.slack-edge.com%2Fdf10d%2Fimg%2Favatars%2Fava_0017-512.png", "custom_css": null}, {"id": 6654, "slack_id": "U091NED4T6J", "display_name": "Rian Negreiros Dos Santos", "bio": null, "projects_count": 0, "devlogs_count": 0, "votes_count": 0, "ships_count": 0, "projects": [], "coding_time_seconds": 5097, "coding_time_seconds_today": 0, "balance": "You need to have a pocket watcher badge to view this.", "badges": [], "created_at": "2025-06-17T10:53:31.097-04:00", "updated_at": "2025-07-03T19:41:02.133-04:00", "avatar": "https://secure.gravatar.com/avatar/cb875fc58842ccb99d626d846e0189eb.jpg?s=512&d=https%3A%2F%2Fa.slack-edge.com%2Fdf10d%2Fimg%2Favatars%2Fava_0007-512.png", "custom_css": null}, {"id": 6655, "slack_id": "U091NEJTM9U", "display_name": "Sunil", "bio": null, "projects_count": 0, "devlogs_count": 0, "votes_count": 0, "ships_count": 0, "projects": [], "coding_time_seconds": 0, "coding_time_seconds_today": 0, "balance": "You need to have a pocket watcher badge to view this.", "badges": [], "created_at": "2025-06-17T10:53:50.384-04:00", "updated_at": "2025-07-03T21:44:24.712-04:00", "avatar": "https://secure.gravatar.com/avatar/5980c7bb325feadf7d99a7a2f5528579.jpg?s=512&d=https%3A%2F%2Fa.slack-edge.com%2Fdf10d%2Fimg%2Favatars%2Fava_0004-512.png", "custom_css": null}, {"id": 6656, "slack_id": "U091TAKNU3X", "display_name": "Agampreet Singh", "bio": null, "projects_count": 0, "devlogs_count": 0, "votes_count": 1, "ships_count": 0, "projects": [], "coding_time_seconds": 0, "coding_time_seconds_today": 0, "balance": "You need to have a pocket watcher badge to view this.", "badges": [], "created_at": "2025-06-17T10:54:35.989-04:00", "updated_at": "2025-07-03T19:41:02.524-04:00", "avatar": "https://avatars.slack-edge.com/2025-06-17/9056559520566_aef21a200fa9569a6b5f_original.png", "custom_css": null}, {"id": 6657, "slack_id": "U091N7HQRGB", "display_name": "Maroua", "bio": null, "projects_count": 0, "devlogs_count": 0, "votes_count": 0, "ships_count": 0, "projects": [], "coding_time_seconds": 2, "coding_time_seconds_today": 0, "balance": "You need to have a pocket watcher badge to view this.", "badges": [], "created_at": "2025-06-17T10:54:36.159-04:00", "updated_at": "2025-07-16T11:46:34.074-04:00", "avatar": "https://secure.gravatar.com/avatar/0bcb6506995194e456817d410324d510.jpg?s=512&d=https%3A%2F%2Fa.slack-edge.com%2Fdf10d%2Fimg%2Favatars%2Fava_0019-512.png", "custom_css": null}, {"id": 6658, "slack_id": "U0927JZELKT", "display_name": "JERO", "bio": null, "projects_count": 0, "devlogs_count": 0, "votes_count": 0, "ships_count": 0, "projects": [], "coding_time_seconds": 0, "coding_time_seconds_today": 0, "balance": "You need to have a pocket watcher badge to view this.", "badges": [], "created_at": "2025-06-17T10:55:13.476-04:00", "updated_at": "2025-07-03T19:41:03.063-04:00", "avatar": "https://secure.gravatar.com/avatar/6cac296995b9023c10a800cecd48c09f.jpg?s=512&d=https%3A%2F%2Fa.slack-edge.com%2Fdf10d%2Fimg%2Favatars%2Fava_0008-512.png", "custom_css": null}, {"id": 6659, "slack_id": "U079084G91P", "display_name": "Blasty", "bio": null, "projects_count": 1, "devlogs_count": 1, "votes_count": 17, "ships_count": 1, "projects": [{"id": 8162, "title": "Isometric Sandbox Game", "devlogs_count": 1, "created_at": "2025-07-25T02:36:20.741-04:00"}], "coding_time_seconds": 190504, "coding_time_seconds_today": 0, "balance": "You need to have a pocket watcher badge to view this.", "badges": [{"name": "Maiden Voyage", "text": "you shipped your first project! the journey begins...", "icon": "\ud83d\udea2"}], "created_at": "2025-06-17T10:55:20.346-04:00", "updated_at": "2025-09-10T22:54:28.474-04:00", "avatar": "https://avatars.slack-edge.com/2024-06-18/7279055618119_8aee1063c7584cd63c0f_original.jpg", "custom_css": null}, {"id": 6660, "slack_id": "U091N9U6FTM", "display_name": "Alvin Hu", "bio": null, "projects_count": 1, "devlogs_count": 0, "votes_count": 0, "ships_count": 0, "projects": [{"id": 12168, "title": "Personal Coding stuff", "devlogs_count": 0, "created_at": "2025-08-23T23:00:22.981-04:00"}], "coding_time_seconds": 54209, "coding_time_seconds_today": 0, "balance": "You need to have a pocket watcher badge to view this.", "badges": [], "created_at": "2025-06-17T10:55:25.606-04:00", "updated_at": "2025-08-23T22:58:49.125-04:00", "avatar": "https://secure.gravatar.com/avatar/be92cd21c90971d744eec0f6dc5b5ae8.jpg?s=512&d=https%3A%2F%2Fa.slack-edge.com%2Fdf10d%2Fimg%2Favatars%2Fava_0024-512.png", "custom_css": null}], "pagination": {"page": 333, "pages": 1192, "count": 23828, "items": 20}}