{"users": [{"id": 6661, "slack_id": "U081NV0EJJK", "display_name": "Matteo Borselli", "bio": null, "projects_count": 1, "devlogs_count": 1, "votes_count": 18, "ships_count": 1, "projects": [{"id": 1616, "title": "AutoCleaner", "devlogs_count": 1, "created_at": "2025-06-18T21:36:16.766-04:00"}], "coding_time_seconds": 92793, "coding_time_seconds_today": 0, "balance": "You need to have a pocket watcher badge to view this.", "badges": [{"name": "Maiden Voyage", "text": "you shipped your first project! the journey begins...", "icon": "\ud83d\udea2"}], "created_at": "2025-06-17T10:56:06.891-04:00", "updated_at": "2025-09-10T22:54:28.539-04:00", "avatar": "https://avatars.slack-edge.com/2024-12-30/8246469478561_61eef6d5dbf26f7f86e2_original.jpg", "custom_css": null}, {"id": 6662, "slack_id": "U092HDR7F6U", "display_name": "keena", "bio": null, "projects_count": 0, "devlogs_count": 0, "votes_count": 0, "ships_count": 0, "projects": [], "coding_time_seconds": 59807, "coding_time_seconds_today": 0, "balance": "You need to have a pocket watcher badge to view this.", "badges": [], "created_at": "2025-06-17T10:56:33.859-04:00", "updated_at": "2025-07-03T19:41:05.566-04:00", "avatar": "https://secure.gravatar.com/avatar/fa77d1a33fe7338b00213da6e257f6b9.jpg?s=512&d=https%3A%2F%2Fa.slack-edge.com%2Fdf10d%2Fimg%2Favatars%2Fava_0026-512.png", "custom_css": null}, {"id": 6663, "slack_id": "U0927L4B997", "display_name": "Daniel M\u00fcller", "bio": null, "projects_count": 0, "devlogs_count": 0, "votes_count": 0, "ships_count": 0, "projects": [], "coding_time_seconds": 4330, "coding_time_seconds_today": 0, "balance": "You need to have a pocket watcher badge to view this.", "badges": [], "created_at": "2025-06-17T10:56:41.937-04:00", "updated_at": "2025-07-03T19:41:05.843-04:00", "avatar": "https://secure.gravatar.com/avatar/3612b17bb9ed6b7ed0d8fbf894720836.jpg?s=512&d=https%3A%2F%2Fa.slack-edge.com%2Fdf10d%2Fimg%2Favatars%2Fava_0021-512.png", "custom_css": null}, {"id": 6664, "slack_id": "U08G28BLUSG", "display_name": "Jack", "bio": null, "projects_count": 1, "devlogs_count": 1, "votes_count": 1, "ships_count": 0, "projects": [{"id": 1104, "title": "Voxel Farm", "devlogs_count": 1, "created_at": "2025-06-17T16:22:19.720-04:00"}], "coding_time_seconds": 82727, "coding_time_seconds_today": 0, "balance": "You need to have a pocket watcher badge to view this.", "badges": [], "created_at": "2025-06-17T10:57:02.113-04:00", "updated_at": "2025-07-03T19:41:06.103-04:00", "avatar": "https://avatars.slack-edge.com/2025-03-04/8558351375121_4f13cfdaf482ec12a3f1_original.png", "custom_css": null}, {"id": 6665, "slack_id": "U091TBCV1LM", "display_name": "Tony", "bio": null, "projects_count": 0, "devlogs_count": 0, "votes_count": 0, "ships_count": 0, "projects": [], "coding_time_seconds": 0, "coding_time_seconds_today": 0, "balance": "You need to have a pocket watcher badge to view this.", "badges": [], "created_at": "2025-06-17T10:57:55.016-04:00", "updated_at": "2025-07-03T19:41:06.367-04:00", "avatar": "https://secure.gravatar.com/avatar/950b366b19e01095508eb4cbc156b5e5.jpg?s=512&d=https%3A%2F%2Fa.slack-edge.com%2Fdf10d%2Fimg%2Favatars%2Fava_0014-512.png", "custom_css": null}, {"id": 6666, "slack_id": "U083PEW3Q23", "display_name": "Hieu", "bio": null, "projects_count": 0, "devlogs_count": 0, "votes_count": 0, "ships_count": 0, "projects": [], "coding_time_seconds": 0, "coding_time_seconds_today": 0, "balance": "You need to have a pocket watcher badge to view this.", "badges": [], "created_at": "2025-06-17T10:58:00.662-04:00", "updated_at": "2025-07-03T19:41:06.632-04:00", "avatar": "https://avatars.slack-edge.com/2025-06-15/9043872376867_32075e1fc7ffe22eebb0_original.jpg", "custom_css": null}, {"id": 6667, "slack_id": "U091LUP2E0K", "display_name": "Munashe Dirwayi", "bio": null, "projects_count": 0, "devlogs_count": 0, "votes_count": 0, "ships_count": 0, "projects": [], "coding_time_seconds": 191741, "coding_time_seconds_today": 0, "balance": "You need to have a pocket watcher badge to view this.", "badges": [], "created_at": "2025-06-17T10:58:06.385-04:00", "updated_at": "2025-08-12T14:32:36.330-04:00", "avatar": "https://avatars.slack-edge.com/2025-08-12/9336167508387_d733f2c2ee834e85a6d8_original.png", "custom_css": null}, {"id": 6668, "slack_id": "U091VE5B6QL", "display_name": "Baktygul", "bio": null, "projects_count": 0, "devlogs_count": 0, "votes_count": 0, "ships_count": 0, "projects": [], "coding_time_seconds": 803860, "coding_time_seconds_today": 1665, "balance": "You need to have a pocket watcher badge to view this.", "badges": [], "created_at": "2025-06-17T10:58:31.811-04:00", "updated_at": "2025-07-03T19:41:07.236-04:00", "avatar": "https://avatars.slack-edge.com/2025-06-17/9047745123591_793f637fd7ec45dbb34d_original.jpg", "custom_css": null}, {"id": 6669, "slack_id": "U091TBV4M1A", "display_name": "Barkha Dhamija", "bio": null, "projects_count": 0, "devlogs_count": 0, "votes_count": 0, "ships_count": 0, "projects": [], "coding_time_seconds": 0, "coding_time_seconds_today": 0, "balance": "You need to have a pocket watcher badge to view this.", "badges": [], "created_at": "2025-06-17T10:58:44.362-04:00", "updated_at": "2025-07-03T19:41:07.514-04:00", "avatar": "https://avatars.slack-edge.com/2025-06-17/9075713713617_33e05ecc806cfce5faca_original.png", "custom_css": null}, {"id": 6670, "slack_id": "U091DM7SVCP", "display_name": "Daymand Kumar Sah", "bio": null, "projects_count": 0, "devlogs_count": 0, "votes_count": 0, "ships_count": 0, "projects": [], "coding_time_seconds": 54152, "coding_time_seconds_today": 0, "balance": "You need to have a pocket watcher badge to view this.", "badges": [], "created_at": "2025-06-17T10:59:08.082-04:00", "updated_at": "2025-07-03T19:41:07.783-04:00", "avatar": "https://secure.gravatar.com/avatar/fbeaefe3893c9a054bbbec9f77723296.jpg?s=512&d=https%3A%2F%2Fa.slack-edge.com%2Fdf10d%2Fimg%2Favatars%2Fava_0021-512.png", "custom_css": null}, {"id": 6671, "slack_id": "U091NF306EA", "display_name": "Amogus", "bio": null, "projects_count": 0, "devlogs_count": 0, "votes_count": 0, "ships_count": 0, "projects": [], "coding_time_seconds": 0, "coding_time_seconds_today": 0, "balance": "You need to have a pocket watcher badge to view this.", "badges": [], "created_at": "2025-06-17T10:59:16.440-04:00", "updated_at": "2025-07-03T19:41:08.057-04:00", "avatar": "https://secure.gravatar.com/avatar/5d710cce21febb3547e31fcaa1092a87.jpg?s=512&d=https%3A%2F%2Fa.slack-edge.com%2Fdf10d%2Fimg%2Favatars%2Fava_0006-512.png", "custom_css": null}, {"id": 6672, "slack_id": "U087DRMMHPW", "display_name": "Leon", "bio": null, "projects_count": 0, "devlogs_count": 29, "votes_count": 6, "ships_count": 0, "projects": [], "coding_time_seconds": 493798, "coding_time_seconds_today": 0, "balance": "You need to have a pocket watcher badge to view this.", "badges": [{"name": "Maiden Voyage", "text": "you shipped your first project! the journey begins...", "icon": "\ud83d\udea2"}], "created_at": "2025-06-17T11:00:43.678-04:00", "updated_at": "2025-09-10T22:54:28.817-04:00", "avatar": "https://avatars.slack-edge.com/2025-05-06/8840237685255_4d4dc4939ff2ab10346e_original.png", "custom_css": null}, {"id": 6673, "slack_id": "U091VEY1UAY", "display_name": "Mehdi", "bio": null, "projects_count": 0, "devlogs_count": 0, "votes_count": 0, "ships_count": 0, "projects": [], "coding_time_seconds": 0, "coding_time_seconds_today": 0, "balance": "You need to have a pocket watcher badge to view this.", "badges": [], "created_at": "2025-06-17T11:01:44.020-04:00", "updated_at": "2025-07-03T19:41:08.464-04:00", "avatar": "https://secure.gravatar.com/avatar/64bd158ced8bc73342eb1640619c4217.jpg?s=512&d=https%3A%2F%2Fa.slack-edge.com%2Fdf10d%2Fimg%2Favatars%2Fava_0002-512.png", "custom_css": null}, {"id": 6674, "slack_id": "U091U3XTA04", "display_name": "Jose Luis Vazquez Castro", "bio": null, "projects_count": 0, "devlogs_count": 0, "votes_count": 0, "ships_count": 0, "projects": [], "coding_time_seconds": 0, "coding_time_seconds_today": 0, "balance": "You need to have a pocket watcher badge to view this.", "badges": [], "created_at": "2025-06-17T11:02:31.352-04:00", "updated_at": "2025-07-03T19:41:08.748-04:00", "avatar": "https://secure.gravatar.com/avatar/4a17da2423ab63af560b16fcc13f11f5.jpg?s=512&d=https%3A%2F%2Fa.slack-edge.com%2Fdf10d%2Fimg%2Favatars%2Fava_0014-512.png", "custom_css": null}, {"id": 6675, "slack_id": "U092F0MEL4Q", "display_name": "Anton", "bio": null, "projects_count": 0, "devlogs_count": 0, "votes_count": 0, "ships_count": 0, "projects": [], "coding_time_seconds": 0, "coding_time_seconds_today": 0, "balance": "You need to have a pocket watcher badge to view this.", "badges": [], "created_at": "2025-06-17T11:02:45.669-04:00", "updated_at": "2025-07-03T21:44:26.235-04:00", "avatar": "https://avatars.slack-edge.com/2025-06-17/9061447435253_811c38eabdfeeb534802_original.png", "custom_css": null}, {"id": 6676, "slack_id": "U0927MLD7BK", "display_name": "Red Phoenix", "bio": null, "projects_count": 0, "devlogs_count": 0, "votes_count": 0, "ships_count": 0, "projects": [], "coding_time_seconds": 0, "coding_time_seconds_today": 0, "balance": "You need to have a pocket watcher badge to view this.", "badges": [], "created_at": "2025-06-17T11:03:35.247-04:00", "updated_at": "2025-07-03T19:41:09.150-04:00", "avatar": "https://secure.gravatar.com/avatar/4dd56c8ad777ba0fb884eefb5b7993fc.jpg?s=512&d=https%3A%2F%2Fa.slack-edge.com%2Fdf10d%2Fimg%2Favatars%2Fava_0005-512.png", "custom_css": null}, {"id": 6677, "slack_id": "U0927MKKVJ5", "display_name": "0xsabbir", "bio": null, "projects_count": 0, "devlogs_count": 0, "votes_count": 0, "ships_count": 0, "projects": [], "coding_time_seconds": 0, "coding_time_seconds_today": 0, "balance": "You need to have a pocket watcher badge to view this.", "badges": [], "created_at": "2025-06-17T11:03:48.999-04:00", "updated_at": "2025-07-03T19:41:09.423-04:00", "avatar": "https://secure.gravatar.com/avatar/d684729c5fe29e83fc6488e01213e148.jpg?s=512&d=https%3A%2F%2Fa.slack-edge.com%2Fdf10d%2Fimg%2Favatars%2Fava_0023-512.png", "custom_css": null}, {"id": 6678, "slack_id": "U082Z1FCU7K", "display_name": "Francesco Savino", "bio": null, "projects_count": 3, "devlogs_count": 4, "votes_count": 35, "ships_count": 2, "projects": [{"id": 5077, "title": "RiseHack", "devlogs_count": 1, "created_at": "2025-07-03T04:52:39.984-04:00"}, {"id": 5919, "title": "GymBot", "devlogs_count": 1, "created_at": "2025-07-09T05:34:31.565-04:00"}, {"id": 991, "title": "Scout Website", "devlogs_count": 2, "created_at": "2025-06-17T13:07:10.593-04:00"}], "coding_time_seconds": 140158, "coding_time_seconds_today": 0, "balance": "You need to have a pocket watcher badge to view this.", "badges": [{"name": "Maiden Voyage", "text": "you shipped your first project! the journey begins...", "icon": "\ud83d\udea2"}], "created_at": "2025-06-17T11:04:04.213-04:00", "updated_at": "2025-09-10T22:54:28.940-04:00", "avatar": "https://avatars.slack-edge.com/2024-11-26/8083855455974_22b1566026620569fbd3_original.png", "custom_css": null}, {"id": 6679, "slack_id": "U091TD3C1K7", "display_name": "Ishan Kashyap", "bio": null, "projects_count": 0, "devlogs_count": 0, "votes_count": 0, "ships_count": 0, "projects": [], "coding_time_seconds": 0, "coding_time_seconds_today": 0, "balance": "You need to have a pocket watcher badge to view this.", "badges": [], "created_at": "2025-06-17T11:05:07.534-04:00", "updated_at": "2025-07-03T19:41:10.287-04:00", "avatar": "https://secure.gravatar.com/avatar/bdae198e454822bcad7c7d603804e19e.jpg?s=512&d=https%3A%2F%2Fa.slack-edge.com%2Fdf10d%2Fimg%2Favatars%2Fava_0009-512.png", "custom_css": null}, {"id": 6680, "slack_id": "U091V4A4EAE", "display_name": "Raghav Agarwal", "bio": null, "projects_count": 4, "devlogs_count": 7, "votes_count": 13, "ships_count": 1, "projects": [{"id": 1075, "title": "Alumni Connect Portal", "devlogs_count": 4, "created_at": "2025-06-17T15:24:01.225-04:00"}, {"id": 3952, "title": "AIPDFChatBot", "devlogs_count": 1, "created_at": "2025-06-26T13:29:05.160-04:00"}, {"id": 5595, "title": "Rahtsaa", "devlogs_count": 1, "created_at": "2025-07-06T12:27:48.236-04:00"}, {"id": 7951, "title": "Music AI", "devlogs_count": 1, "created_at": "2025-07-23T19:35:48.482-04:00"}], "coding_time_seconds": 267885, "coding_time_seconds_today": 0, "balance": "You need to have a pocket watcher badge to view this.", "badges": [{"name": "Maiden Voyage", "text": "you shipped your first project! the journey begins...", "icon": "\ud83d\udea2"}], "created_at": "2025-06-17T11:05:12.674-04:00", "updated_at": "2025-09-10T22:54:28.984-04:00", "avatar": "https://secure.gravatar.com/avatar/92de8275eb0120750d435a1d01020360.jpg?s=512&d=https%3A%2F%2Fa.slack-edge.com%2Fdf10d%2Fimg%2Favatars%2Fava_0018-512.png", "custom_css": null}], "pagination": {"page": 334, "pages": 1192, "count": 23828, "items": 20}}