{"users": [{"id": 6681, "slack_id": "U015Q82SX37", "display_name": "ellie", "bio": null, "projects_count": 0, "devlogs_count": 0, "votes_count": 0, "ships_count": 0, "projects": [], "coding_time_seconds": 662, "coding_time_seconds_today": 0, "balance": "You need to have a pocket watcher badge to view this.", "badges": [], "created_at": "2025-06-17T11:05:36.609-04:00", "updated_at": "2025-07-03T22:34:56.233-04:00", "avatar": "https://avatars.slack-edge.com/2025-07-03/9140063523491_a161ef7d6865d787701e_original.png", "custom_css": null}, {"id": 6682, "slack_id": "U091V4VPC9Y", "display_name": "Nafkha", "bio": null, "projects_count": 0, "devlogs_count": 0, "votes_count": 0, "ships_count": 0, "projects": [], "coding_time_seconds": 0, "coding_time_seconds_today": 0, "balance": "You need to have a pocket watcher badge to view this.", "badges": [], "created_at": "2025-06-17T11:06:00.330-04:00", "updated_at": "2025-07-05T02:07:30.318-04:00", "avatar": "https://secure.gravatar.com/avatar/6bffaab828b9142e9e1dbdb7267b326c.jpg?s=512&d=https%3A%2F%2Fa.slack-edge.com%2Fdf10d%2Fimg%2Favatars%2Fava_0025-512.png", "custom_css": null}, {"id": 6683, "slack_id": "U091VGL4D28", "display_name": "Snehashish Laskar", "bio": null, "projects_count": 0, "devlogs_count": 0, "votes_count": 0, "ships_count": 0, "projects": [], "coding_time_seconds": 0, "coding_time_seconds_today": 0, "balance": "You need to have a pocket watcher badge to view this.", "badges": [], "created_at": "2025-06-17T11:06:57.952-04:00", "updated_at": "2025-07-03T19:41:11.240-04:00", "avatar": "https://secure.gravatar.com/avatar/2ab087f3546b2894102368eabef5f97d.jpg?s=512&d=https%3A%2F%2Fa.slack-edge.com%2Fdf10d%2Fimg%2Favatars%2Fava_0009-512.png", "custom_css": null}, {"id": 6684, "slack_id": "U091TD00ASH", "display_name": "Callum Rawson", "bio": null, "projects_count": 1, "devlogs_count": 5, "votes_count": 4, "ships_count": 0, "projects": [{"id": 1362, "title": "Fake Siege", "devlogs_count": 5, "created_at": "2025-06-18T12:05:29.853-04:00"}], "coding_time_seconds": 39517, "coding_time_seconds_today": 0, "balance": "You need to have a pocket watcher badge to view this.", "badges": [], "created_at": "2025-06-17T11:07:13.386-04:00", "updated_at": "2025-07-03T19:41:11.511-04:00", "avatar": "https://secure.gravatar.com/avatar/dfba7b416361ff308fa7a0cdf9c23a48.jpg?s=512&d=https%3A%2F%2Fa.slack-edge.com%2Fdf10d%2Fimg%2Favatars%2Fava_0020-512.png", "custom_css": null}, {"id": 6685, "slack_id": "U091NC0MTMZ", "display_name": "Jonas Honorato Lima De Melo", "bio": null, "projects_count": 0, "devlogs_count": 0, "votes_count": 0, "ships_count": 0, "projects": [], "coding_time_seconds": 0, "coding_time_seconds_today": 0, "balance": "You need to have a pocket watcher badge to view this.", "badges": [], "created_at": "2025-06-17T11:07:15.438-04:00", "updated_at": "2025-07-03T22:34:56.522-04:00", "avatar": "https://secure.gravatar.com/avatar/68ebe2a075c1bf2ad357683e2f43cf9a.jpg?s=512&d=https%3A%2F%2Fa.slack-edge.com%2Fdf10d%2Fimg%2Favatars%2Fava_0003-512.png", "custom_css": null}, {"id": 6686, "slack_id": "U091SBE10BX", "display_name": "baymax", "bio": null, "projects_count": 0, "devlogs_count": 0, "votes_count": 0, "ships_count": 0, "projects": [], "coding_time_seconds": 0, "coding_time_seconds_today": 0, "balance": "You need to have a pocket watcher badge to view this.", "badges": [], "created_at": "2025-06-17T11:07:58.493-04:00", "updated_at": "2025-07-03T19:41:11.937-04:00", "avatar": "https://secure.gravatar.com/avatar/00609ee2373477b35dc15b28806cf308.jpg?s=512&d=https%3A%2F%2Fa.slack-edge.com%2Fdf10d%2Fimg%2Favatars%2Fava_0007-512.png", "custom_css": null}, {"id": 6687, "slack_id": "U091TDTU0J1", "display_name": "Rohan", "bio": null, "projects_count": 0, "devlogs_count": 0, "votes_count": 0, "ships_count": 0, "projects": [], "coding_time_seconds": 0, "coding_time_seconds_today": 0, "balance": "You need to have a pocket watcher badge to view this.", "badges": [], "created_at": "2025-06-17T11:08:25.505-04:00", "updated_at": "2025-07-03T19:41:12.210-04:00", "avatar": "https://avatars.slack-edge.com/2025-06-17/9063203251762_d250c273f7ca626d3d1e_original.png", "custom_css": null}, {"id": 6688, "slack_id": "U078MAXGS79", "display_name": "Aashin C Anil", "bio": null, "projects_count": 4, "devlogs_count": 24, "votes_count": 21, "ships_count": 1, "projects": [{"id": 2609, "title": "Vehicle Parking App", "devlogs_count": 4, "created_at": "2025-06-21T12:45:55.381-04:00"}, {"id": 2424, "title": "Paws", "devlogs_count": 7, "created_at": "2025-06-21T02:04:32.292-04:00"}, {"id": 13333, "title": "Astra", "devlogs_count": 7, "created_at": "2025-09-14T08:19:33.289-04:00"}, {"id": 3835, "title": "Neurotone", "devlogs_count": 6, "created_at": "2025-06-25T23:25:26.126-04:00"}], "coding_time_seconds": 291305, "coding_time_seconds_today": 0, "balance": "You need to have a pocket watcher badge to view this.", "badges": [{"name": "Maiden Voyage", "text": "you shipped your first project! the journey begins...", "icon": "\ud83d\udea2"}], "created_at": "2025-06-17T11:09:31.083-04:00", "updated_at": "2025-09-10T22:54:29.147-04:00", "avatar": "https://avatars.slack-edge.com/2024-06-20/7309948540770_4a0ac589ac58e3771251_original.jpg", "custom_css": null}, {"id": 6689, "slack_id": "U091DQ86VGX", "display_name": "sachin jat", "bio": null, "projects_count": 0, "devlogs_count": 0, "votes_count": 0, "ships_count": 0, "projects": [], "coding_time_seconds": 0, "coding_time_seconds_today": 0, "balance": "You need to have a pocket watcher badge to view this.", "badges": [], "created_at": "2025-06-17T11:10:32.187-04:00", "updated_at": "2025-07-03T19:41:12.732-04:00", "avatar": "https://secure.gravatar.com/avatar/c4a1240e06c2be00062ce1f4a80151d6.jpg?s=512&d=https%3A%2F%2Fa.slack-edge.com%2Fdf10d%2Fimg%2Favatars%2Fava_0025-512.png", "custom_css": null}, {"id": 6690, "slack_id": "U091NJCTXEJ", "display_name": "Parth", "bio": null, "projects_count": 0, "devlogs_count": 0, "votes_count": 0, "ships_count": 0, "projects": [], "coding_time_seconds": 0, "coding_time_seconds_today": 0, "balance": "You need to have a pocket watcher badge to view this.", "badges": [], "created_at": "2025-06-17T11:11:43.130-04:00", "updated_at": "2025-07-03T19:41:12.997-04:00", "avatar": "https://secure.gravatar.com/avatar/46522a47177809efe2fcb717ea6b59ae.jpg?s=512&d=https%3A%2F%2Fa.slack-edge.com%2Fdf10d%2Fimg%2Favatars%2Fava_0012-512.png", "custom_css": null}, {"id": 6691, "slack_id": "U091LUR0CHL", "display_name": "PARTHIB KUMAR DEB", "bio": null, "projects_count": 0, "devlogs_count": 0, "votes_count": 0, "ships_count": 0, "projects": [], "coding_time_seconds": 0, "coding_time_seconds_today": 0, "balance": "You need to have a pocket watcher badge to view this.", "badges": [], "created_at": "2025-06-17T11:12:17.716-04:00", "updated_at": "2025-07-05T02:07:30.929-04:00", "avatar": "https://avatars.slack-edge.com/2025-06-17/9063628390420_e71331b2d0f058abc4a1_original.jpg", "custom_css": null}, {"id": 6692, "slack_id": "U091TE7VCCV", "display_name": "Rafael Villa Verde", "bio": null, "projects_count": 0, "devlogs_count": 0, "votes_count": 0, "ships_count": 0, "projects": [], "coding_time_seconds": 266609, "coding_time_seconds_today": 0, "balance": "You need to have a pocket watcher badge to view this.", "badges": [], "created_at": "2025-06-17T11:13:15.381-04:00", "updated_at": "2025-07-03T19:41:13.416-04:00", "avatar": "https://avatars.slack-edge.com/2025-06-17/9085606989360_eadf8255fce83dfdb4a4_original.jpg", "custom_css": null}, {"id": 6693, "slack_id": "U0927PLL533", "display_name": "Zuha", "bio": null, "projects_count": 0, "devlogs_count": 0, "votes_count": 0, "ships_count": 0, "projects": [], "coding_time_seconds": 14253, "coding_time_seconds_today": 0, "balance": "You need to have a pocket watcher badge to view this.", "badges": [], "created_at": "2025-06-17T11:13:33.890-04:00", "updated_at": "2025-07-03T19:41:13.683-04:00", "avatar": "https://secure.gravatar.com/avatar/0291be39f3d1a83c9300c4415c72991d.jpg?s=512&d=https%3A%2F%2Fa.slack-edge.com%2Fdf10d%2Fimg%2Favatars%2Fava_0007-512.png", "custom_css": null}, {"id": 6694, "slack_id": "U091NDM4CLB", "display_name": "Gabriel", "bio": null, "projects_count": 0, "devlogs_count": 0, "votes_count": 0, "ships_count": 0, "projects": [], "coding_time_seconds": 2844, "coding_time_seconds_today": 0, "balance": "You need to have a pocket watcher badge to view this.", "badges": [], "created_at": "2025-06-17T11:13:55.230-04:00", "updated_at": "2025-07-03T19:41:13.943-04:00", "avatar": "https://secure.gravatar.com/avatar/63af74a2444983d93adad7f6632bb312.jpg?s=512&d=https%3A%2F%2Fa.slack-edge.com%2Fdf10d%2Fimg%2Favatars%2Fava_0002-512.png", "custom_css": null}, {"id": 6695, "slack_id": "U091VJ2C8DA", "display_name": "Hector Espinoza", "bio": null, "projects_count": 0, "devlogs_count": 0, "votes_count": 0, "ships_count": 0, "projects": [], "coding_time_seconds": 2608, "coding_time_seconds_today": 0, "balance": "You need to have a pocket watcher badge to view this.", "badges": [], "created_at": "2025-06-17T11:13:56.009-04:00", "updated_at": "2025-07-03T19:41:14.208-04:00", "avatar": "https://secure.gravatar.com/avatar/ad28589fa38aa75d40c9388c9be1dfde.jpg?s=512&d=https%3A%2F%2Fa.slack-edge.com%2Fdf10d%2Fimg%2Favatars%2Fava_0004-512.png", "custom_css": null}, {"id": 6696, "slack_id": "U092HHED916", "display_name": "egemengulpinar", "bio": null, "projects_count": 0, "devlogs_count": 0, "votes_count": 0, "ships_count": 0, "projects": [], "coding_time_seconds": 200396, "coding_time_seconds_today": 545, "balance": "You need to have a pocket watcher badge to view this.", "badges": [], "created_at": "2025-06-17T11:14:07.085-04:00", "updated_at": "2025-07-03T19:41:14.486-04:00", "avatar": "https://secure.gravatar.com/avatar/9b707c5c546fd6ab989747ec5598f553.jpg?s=512&d=https%3A%2F%2Fa.slack-edge.com%2Fdf10d%2Fimg%2Favatars%2Fava_0005-512.png", "custom_css": null}, {"id": 6697, "slack_id": "U091V6N7BM0", "display_name": "Antoine Bergeron", "bio": null, "projects_count": 0, "devlogs_count": 0, "votes_count": 0, "ships_count": 0, "projects": [], "coding_time_seconds": 0, "coding_time_seconds_today": 0, "balance": "You need to have a pocket watcher badge to view this.", "badges": [], "created_at": "2025-06-17T11:15:53.828-04:00", "updated_at": "2025-07-03T19:41:14.762-04:00", "avatar": "https://secure.gravatar.com/avatar/c0a8e645626cef5aba32e20eb670abe7.jpg?s=512&d=https%3A%2F%2Fa.slack-edge.com%2Fdf10d%2Fimg%2Favatars%2Fava_0018-512.png", "custom_css": null}, {"id": 6698, "slack_id": "U091TEY7QUV", "display_name": "ThatJams", "bio": null, "projects_count": 0, "devlogs_count": 0, "votes_count": 0, "ships_count": 0, "projects": [], "coding_time_seconds": 0, "coding_time_seconds_today": 0, "balance": "You need to have a pocket watcher badge to view this.", "badges": [], "created_at": "2025-06-17T11:16:08.411-04:00", "updated_at": "2025-07-03T19:41:15.027-04:00", "avatar": "https://secure.gravatar.com/avatar/0a1f9ea5ca7c2d2d5700be73c8c970c3.jpg?s=512&d=https%3A%2F%2Fa.slack-edge.com%2Fdf10d%2Fimg%2Favatars%2Fava_0001-512.png", "custom_css": null}, {"id": 6699, "slack_id": "U091NE8NZNX", "display_name": "Mayank Aitan", "bio": null, "projects_count": 0, "devlogs_count": 0, "votes_count": 0, "ships_count": 0, "projects": [], "coding_time_seconds": 0, "coding_time_seconds_today": 0, "balance": "You need to have a pocket watcher badge to view this.", "badges": [], "created_at": "2025-06-17T11:16:11.906-04:00", "updated_at": "2025-07-03T19:41:15.281-04:00", "avatar": "https://avatars.slack-edge.com/2025-06-17/9056506180515_bb450c230a7c9920c68a_original.png", "custom_css": null}, {"id": 6700, "slack_id": "U08D57VFK8R", "display_name": "Mustafa Khan", "bio": null, "projects_count": 0, "devlogs_count": 0, "votes_count": 0, "ships_count": 0, "projects": [], "coding_time_seconds": 173058, "coding_time_seconds_today": 0, "balance": "You need to have a pocket watcher badge to view this.", "badges": [], "created_at": "2025-06-17T11:16:20.778-04:00", "updated_at": "2025-07-03T21:56:23.364-04:00", "avatar": "https://avatars.slack-edge.com/2025-02-18/8471771555747_9eddb61b47d055a94600_original.jpg", "custom_css": null}], "pagination": {"page": 335, "pages": 1192, "count": 23828, "items": 20}}