{"users": [{"id": 6701, "slack_id": "U091QRD5VRB", "display_name": "varshita", "bio": null, "projects_count": 0, "devlogs_count": 0, "votes_count": 0, "ships_count": 0, "projects": [], "coding_time_seconds": 0, "coding_time_seconds_today": 0, "balance": "You need to have a pocket watcher badge to view this.", "badges": [], "created_at": "2025-06-17T11:16:38.974-04:00", "updated_at": "2025-07-03T19:41:15.691-04:00", "avatar": "https://secure.gravatar.com/avatar/afef09cffe8864d07e6fe750ccabf7f6.jpg?s=512&d=https%3A%2F%2Fa.slack-edge.com%2Fdf10d%2Fimg%2Favatars%2Fava_0007-512.png", "custom_css": null}, {"id": 6702, "slack_id": "U0927Q24GF3", "display_name": "Parker Anderson", "bio": null, "projects_count": 0, "devlogs_count": 0, "votes_count": 0, "ships_count": 0, "projects": [], "coding_time_seconds": 0, "coding_time_seconds_today": 0, "balance": "You need to have a pocket watcher badge to view this.", "badges": [], "created_at": "2025-06-17T11:17:00.962-04:00", "updated_at": "2025-07-03T21:44:28.032-04:00", "avatar": "https://secure.gravatar.com/avatar/5526758373bcf17c9e69cf25989b0b94.jpg?s=512&d=https%3A%2F%2Fa.slack-edge.com%2Fdf10d%2Fimg%2Favatars%2Fava_0017-512.png", "custom_css": null}, {"id": 6703, "slack_id": "U092HJCHKK2", "display_name": "Tasfia Afrin", "bio": null, "projects_count": 1, "devlogs_count": 0, "votes_count": 0, "ships_count": 0, "projects": [{"id": 1322, "title": "Learning Management Platform", "devlogs_count": 0, "created_at": "2025-06-18T08:30:32.911-04:00"}], "coding_time_seconds": 31967, "coding_time_seconds_today": 0, "balance": "You need to have a pocket watcher badge to view this.", "badges": [], "created_at": "2025-06-17T11:18:04.552-04:00", "updated_at": "2025-07-03T19:41:16.105-04:00", "avatar": "https://secure.gravatar.com/avatar/8555d2e3b6662e4dcbd20b7a9aaf8b6a.jpg?s=512&d=https%3A%2F%2Fa.slack-edge.com%2Fdf10d%2Fimg%2Favatars%2Fava_0003-512.png", "custom_css": null}, {"id": 6704, "slack_id": "U092HJ71QM6", "display_name": "Kristofer P", "bio": null, "projects_count": 5, "devlogs_count": 10, "votes_count": 18, "ships_count": 1, "projects": [{"id": 3446, "title": "Biathlon Training Diary", "devlogs_count": 5, "created_at": "2025-06-24T10:02:21.308-04:00"}, {"id": 3447, "title": "Autonomous soccer playing robot/ball collecting robot", "devlogs_count": 1, "created_at": "2025-06-24T10:06:50.657-04:00"}, {"id": 4394, "title": "Granite", "devlogs_count": 1, "created_at": "2025-06-29T15:40:02.661-04:00"}, {"id": 4133, "title": "sugarpad", "devlogs_count": 1, "created_at": "2025-06-27T17:09:08.607-04:00"}, {"id": 3450, "title": "Personal website and blog", "devlogs_count": 2, "created_at": "2025-06-24T10:12:30.625-04:00"}], "coding_time_seconds": 207724, "coding_time_seconds_today": 0, "balance": "You need to have a pocket watcher badge to view this.", "badges": [{"name": "Maiden Voyage", "text": "you shipped your first project! the journey begins...", "icon": "\ud83d\udea2"}], "created_at": "2025-06-17T11:18:21.669-04:00", "updated_at": "2025-09-10T22:54:29.612-04:00", "avatar": "https://avatars.slack-edge.com/2025-07-28/9277603767041_be2260d7426649834891_original.png", "custom_css": null}, {"id": 6705, "slack_id": "U0921Q33LRF", "display_name": "Rick Hernandez", "bio": null, "projects_count": 0, "devlogs_count": 0, "votes_count": 0, "ships_count": 0, "projects": [], "coding_time_seconds": 0, "coding_time_seconds_today": 0, "balance": "You need to have a pocket watcher badge to view this.", "badges": [], "created_at": "2025-06-17T11:18:43.760-04:00", "updated_at": "2025-07-03T21:44:28.261-04:00", "avatar": "https://secure.gravatar.com/avatar/8cd053b44589d3ac2bd8e0ef0b3c3ed7.jpg?s=512&d=https%3A%2F%2Fa.slack-edge.com%2Fdf10d%2Fimg%2Favatars%2Fava_0015-512.png", "custom_css": null}, {"id": 6706, "slack_id": "U091V7E0BDY", "display_name": "Brighton Gannaway", "bio": null, "projects_count": 3, "devlogs_count": 9, "votes_count": 20, "ships_count": 1, "projects": [{"id": 1220, "title": "Rocket Trajectory", "devlogs_count": 2, "created_at": "2025-06-17T23:37:20.876-04:00"}, {"id": 2594, "title": "Reach_Artificial", "devlogs_count": 3, "created_at": "2025-06-21T11:58:41.002-04:00"}, {"id": 1222, "title": "Initiative Plus", "devlogs_count": 4, "created_at": "2025-06-17T23:41:26.677-04:00"}], "coding_time_seconds": 214664, "coding_time_seconds_today": 0, "balance": "You need to have a pocket watcher badge to view this.", "badges": [{"name": "Maiden Voyage", "text": "you shipped your first project! the journey begins...", "icon": "\ud83d\udea2"}], "created_at": "2025-06-17T11:18:44.388-04:00", "updated_at": "2025-09-10T22:54:29.676-04:00", "avatar": "https://avatars.slack-edge.com/2025-06-24/9083946015975_7b5076b0ddb04881b8cc_original.jpg", "custom_css": null}, {"id": 6707, "slack_id": "U08TPLJEGSX", "display_name": "Aarush", "bio": null, "projects_count": 0, "devlogs_count": 0, "votes_count": 0, "ships_count": 0, "projects": [], "coding_time_seconds": 0, "coding_time_seconds_today": 0, "balance": "You need to have a pocket watcher badge to view this.", "badges": [], "created_at": "2025-06-17T11:19:29.896-04:00", "updated_at": "2025-07-03T19:41:17.134-04:00", "avatar": "https://avatars.slack-edge.com/2025-05-26/8940273812519_40ffd330d443a4ff7f93_original.jpg", "custom_css": null}, {"id": 6708, "slack_id": "U091U2Q4CE6", "display_name": "Dhiroj Nayak", "bio": null, "projects_count": 0, "devlogs_count": 0, "votes_count": 0, "ships_count": 0, "projects": [], "coding_time_seconds": 0, "coding_time_seconds_today": 0, "balance": "You need to have a pocket watcher badge to view this.", "badges": [], "created_at": "2025-06-17T11:20:01.086-04:00", "updated_at": "2025-07-03T19:41:17.422-04:00", "avatar": "https://secure.gravatar.com/avatar/986e111661b064413a64ef9cde918d7f.jpg?s=512&d=https%3A%2F%2Fa.slack-edge.com%2Fdf10d%2Fimg%2Favatars%2Fava_0009-512.png", "custom_css": null}, {"id": 6709, "slack_id": "U092HJTGVFS", "display_name": "PP", "bio": null, "projects_count": 0, "devlogs_count": 0, "votes_count": 0, "ships_count": 0, "projects": [], "coding_time_seconds": 0, "coding_time_seconds_today": 0, "balance": "You need to have a pocket watcher badge to view this.", "badges": [], "created_at": "2025-06-17T11:20:05.502-04:00", "updated_at": "2025-07-03T19:41:17.699-04:00", "avatar": "https://secure.gravatar.com/avatar/1f3cd10a93f4db7c26d0334df1a5eb66.jpg?s=512&d=https%3A%2F%2Fa.slack-edge.com%2Fdf10d%2Fimg%2Favatars%2Fava_0002-512.png", "custom_css": null}, {"id": 6710, "slack_id": "U091TG47VS9", "display_name": "Emanuel", "bio": null, "projects_count": 1, "devlogs_count": 0, "votes_count": 0, "ships_count": 0, "projects": [{"id": 935, "title": "FlowForgeAI", "devlogs_count": 0, "created_at": "2025-06-17T11:46:42.786-04:00"}], "coding_time_seconds": 86378, "coding_time_seconds_today": 0, "balance": "You need to have a pocket watcher badge to view this.", "badges": [], "created_at": "2025-06-17T11:20:08.321-04:00", "updated_at": "2025-07-03T19:41:18.003-04:00", "avatar": "https://secure.gravatar.com/avatar/3ead388c410940aec13f541c6d584305.jpg?s=512&d=https%3A%2F%2Fa.slack-edge.com%2Fdf10d%2Fimg%2Favatars%2Fava_0026-512.png", "custom_css": null}, {"id": 6711, "slack_id": "U091DS579CP", "display_name": "Pau", "bio": null, "projects_count": 1, "devlogs_count": 0, "votes_count": 1, "ships_count": 0, "projects": [{"id": 1972, "title": "Gestor Biblioteca", "devlogs_count": 0, "created_at": "2025-06-19T18:55:16.534-04:00"}], "coding_time_seconds": 92995, "coding_time_seconds_today": 0, "balance": "You need to have a pocket watcher badge to view this.", "badges": [], "created_at": "2025-06-17T11:20:51.825-04:00", "updated_at": "2025-07-05T08:07:49.572-04:00", "avatar": "https://secure.gravatar.com/avatar/8cd1f5d36b6a4b8fc24e275d24bc2645.jpg?s=512&d=https%3A%2F%2Fa.slack-edge.com%2Fdf10d%2Fimg%2Favatars%2Fava_0003-512.png", "custom_css": null}, {"id": 6712, "slack_id": "U092HJD4W5N", "display_name": "Kyle Broflovski", "bio": null, "projects_count": 0, "devlogs_count": 0, "votes_count": 0, "ships_count": 0, "projects": [], "coding_time_seconds": 0, "coding_time_seconds_today": 0, "balance": "You need to have a pocket watcher badge to view this.", "badges": [], "created_at": "2025-06-17T11:21:34.985-04:00", "updated_at": "2025-07-03T19:41:18.408-04:00", "avatar": "https://secure.gravatar.com/avatar/32b7d33013d099e3fbbd976a5e30aea3.jpg?s=512&d=https%3A%2F%2Fa.slack-edge.com%2Fdf10d%2Fimg%2Favatars%2Fava_0007-512.png", "custom_css": null}, {"id": 6713, "slack_id": "U07FEUWS4AE", "display_name": "Nikos", "bio": null, "projects_count": 0, "devlogs_count": 0, "votes_count": 0, "ships_count": 0, "projects": [], "coding_time_seconds": 0, "coding_time_seconds_today": 0, "balance": "You need to have a pocket watcher badge to view this.", "badges": [], "created_at": "2025-06-17T11:22:02.548-04:00", "updated_at": "2025-07-03T19:41:18.683-04:00", "avatar": "https://secure.gravatar.com/avatar/c5b7fcb823975d13c8f3725c98e06e44.jpg?s=512&d=https%3A%2F%2Fa.slack-edge.com%2Fdf10d%2Fimg%2Favatars%2Fava_0000-512.png", "custom_css": null}, {"id": 6714, "slack_id": "U091NFT0HMZ", "display_name": "Suyash Takle", "bio": null, "projects_count": 3, "devlogs_count": 23, "votes_count": 44, "ships_count": 3, "projects": [{"id": 4707, "title": "Looply", "devlogs_count": 5, "created_at": "2025-07-01T06:57:26.890-04:00"}, {"id": 6692, "title": "TicTacToe_XP", "devlogs_count": 10, "created_at": "2025-07-15T06:40:25.569-04:00"}, {"id": 10458, "title": "Google Search", "devlogs_count": 3, "created_at": "2025-08-07T08:12:32.738-04:00"}], "coding_time_seconds": 363414, "coding_time_seconds_today": 0, "balance": "You need to have a pocket watcher badge to view this.", "badges": [{"name": "Maiden Voyage", "text": "you shipped your first project! the journey begins...", "icon": "\ud83d\udea2"}, {"name": "Ballot Stuffer", "text": "vote 100 times.", "icon": "https://summer.hackclub.com/assets/i_voted-bf851b48.png"}], "created_at": "2025-06-17T11:22:28.589-04:00", "updated_at": "2025-09-10T22:54:29.948-04:00", "avatar": "https://avatars.slack-edge.com/2025-06-17/9056546636467_2a194952bca974da9cd8_original.png", "custom_css": null}, {"id": 6715, "slack_id": "U091VKWN544", "display_name": "Innocent Evil", "bio": null, "projects_count": 0, "devlogs_count": 0, "votes_count": 0, "ships_count": 0, "projects": [], "coding_time_seconds": 0, "coding_time_seconds_today": 0, "balance": "You need to have a pocket watcher badge to view this.", "badges": [], "created_at": "2025-06-17T11:22:29.517-04:00", "updated_at": "2025-07-03T19:41:19.218-04:00", "avatar": "https://avatars.slack-edge.com/2025-06-17/9075884078849_41394b84aaeb3cd7cb01_original.png", "custom_css": null}, {"id": 6716, "slack_id": "U078HNSV750", "display_name": "Itai", "bio": null, "projects_count": 1, "devlogs_count": 2, "votes_count": 16, "ships_count": 1, "projects": [{"id": 10156, "title": "BorderCollei", "devlogs_count": 2, "created_at": "2025-08-04T13:19:40.281-04:00"}], "coding_time_seconds": 74844, "coding_time_seconds_today": 0, "balance": "You need to have a pocket watcher badge to view this.", "badges": [{"name": "Maiden Voyage", "text": "you shipped your first project! the journey begins...", "icon": "\ud83d\udea2"}], "created_at": "2025-06-17T11:23:34.469-04:00", "updated_at": "2025-09-10T22:54:30.017-04:00", "avatar": "https://avatars.slack-edge.com/2025-07-03/9134367357335_efec54723f9241c3a932_original.png", "custom_css": null}, {"id": 6717, "slack_id": "U091NLXLX7Y", "display_name": "Amara Isikaku", "bio": null, "projects_count": 0, "devlogs_count": 0, "votes_count": 0, "ships_count": 0, "projects": [], "coding_time_seconds": 0, "coding_time_seconds_today": 0, "balance": "You need to have a pocket watcher badge to view this.", "badges": [], "created_at": "2025-06-17T11:23:38.080-04:00", "updated_at": "2025-07-03T19:41:19.638-04:00", "avatar": "https://secure.gravatar.com/avatar/fed12aea59f2333415502935b1a08279.jpg?s=512&d=https%3A%2F%2Fa.slack-edge.com%2Fdf10d%2Fimg%2Favatars%2Fava_0009-512.png", "custom_css": null}, {"id": 6718, "slack_id": "U092BGF5SUQ", "display_name": "k rn", "bio": null, "projects_count": 0, "devlogs_count": 0, "votes_count": 0, "ships_count": 0, "projects": [], "coding_time_seconds": 0, "coding_time_seconds_today": 0, "balance": "You need to have a pocket watcher badge to view this.", "badges": [], "created_at": "2025-06-17T11:24:29.749-04:00", "updated_at": "2025-07-03T19:41:19.900-04:00", "avatar": "https://secure.gravatar.com/avatar/dd88b90f8e77287a982b8ca8961fbd9b.jpg?s=512&d=https%3A%2F%2Fa.slack-edge.com%2Fdf10d%2Fimg%2Favatars%2Fava_0011-512.png", "custom_css": null}, {"id": 6719, "slack_id": "U091TH6SR4M", "display_name": "Zeljko Udovcic", "bio": null, "projects_count": 0, "devlogs_count": 0, "votes_count": 0, "ships_count": 0, "projects": [], "coding_time_seconds": 297960, "coding_time_seconds_today": 0, "balance": "You need to have a pocket watcher badge to view this.", "badges": [], "created_at": "2025-06-17T11:25:32.861-04:00", "updated_at": "2025-07-03T19:41:20.178-04:00", "avatar": "https://avatars.slack-edge.com/2025-06-17/9085685467824_2d4c8491c0ee80898f51_original.png", "custom_css": null}, {"id": 6720, "slack_id": "U091TH2NYR3", "display_name": "Himani Bhatt", "bio": null, "projects_count": 0, "devlogs_count": 0, "votes_count": 0, "ships_count": 0, "projects": [], "coding_time_seconds": 0, "coding_time_seconds_today": 0, "balance": "You need to have a pocket watcher badge to view this.", "badges": [], "created_at": "2025-06-17T11:25:38.865-04:00", "updated_at": "2025-07-03T21:44:29.318-04:00", "avatar": "https://secure.gravatar.com/avatar/21d44c00dab9864f9d6c0b49fdba0e0b.jpg?s=512&d=https%3A%2F%2Fa.slack-edge.com%2Fdf10d%2Fimg%2Favatars%2Fava_0013-512.png", "custom_css": null}], "pagination": {"page": 336, "pages": 1192, "count": 23828, "items": 20}}