{"users": [{"id": 6721, "slack_id": "U091V83PVMG", "display_name": "Amr Gharieb", "bio": null, "projects_count": 0, "devlogs_count": 0, "votes_count": 0, "ships_count": 0, "projects": [], "coding_time_seconds": 0, "coding_time_seconds_today": 0, "balance": "You need to have a pocket watcher badge to view this.", "badges": [], "created_at": "2025-06-17T11:25:44.109-04:00", "updated_at": "2025-07-03T19:41:20.576-04:00", "avatar": "https://avatars.slack-edge.com/2025-06-17/9085686328800_81297e1945c614c59df1_original.png", "custom_css": null}, {"id": 6722, "slack_id": "U091V8PDDSN", "display_name": "Tasrif Nur Himel", "bio": null, "projects_count": 0, "devlogs_count": 0, "votes_count": 0, "ships_count": 0, "projects": [], "coding_time_seconds": 0, "coding_time_seconds_today": 0, "balance": "You need to have a pocket watcher badge to view this.", "badges": [], "created_at": "2025-06-17T11:27:12.908-04:00", "updated_at": "2025-07-03T19:41:20.836-04:00", "avatar": "https://secure.gravatar.com/avatar/f23128fbeb6250dfa55c3461f04efa99.jpg?s=512&d=https%3A%2F%2Fa.slack-edge.com%2Fdf10d%2Fimg%2Favatars%2Fava_0011-512.png", "custom_css": null}, {"id": 6723, "slack_id": "U091NGJAJPM", "display_name": "Shivam Chauhan", "bio": null, "projects_count": 1, "devlogs_count": 1, "votes_count": 2, "ships_count": 1, "projects": [{"id": 5073, "title": "YUPP.AI AUTOMATOR", "devlogs_count": 1, "created_at": "2025-07-03T04:06:10.159-04:00"}], "coding_time_seconds": 206225, "coding_time_seconds_today": 0, "balance": "You need to have a pocket watcher badge to view this.", "badges": [{"name": "Maiden Voyage", "text": "you shipped your first project! the journey begins...", "icon": "\ud83d\udea2"}], "created_at": "2025-06-17T11:27:49.460-04:00", "updated_at": "2025-09-10T22:54:30.271-04:00", "avatar": "https://secure.gravatar.com/avatar/ecb1366536e13f33859d8d8756f8112d.jpg?s=512&d=https%3A%2F%2Fa.slack-edge.com%2Fdf10d%2Fimg%2Favatars%2Fava_0000-512.png", "custom_css": null}, {"id": 6724, "slack_id": "U08DA09BZU7", "display_name": "Dany", "bio": null, "projects_count": 7, "devlogs_count": 11, "votes_count": 40, "ships_count": 3, "projects": [{"id": 958, "title": "YouTube video downloader (YVD)", "devlogs_count": 1, "created_at": "2025-06-17T12:19:19.324-04:00"}, {"id": 2148, "title": "unity-hackatime plugin", "devlogs_count": 1, "created_at": "2025-06-20T09:41:15.132-04:00"}, {"id": 2297, "title": "Flappy bird", "devlogs_count": 3, "created_at": "2025-06-20T16:40:01.265-04:00"}, {"id": 3945, "title": "Solar System", "devlogs_count": 2, "created_at": "2025-06-26T12:17:43.763-04:00"}, {"id": 5628, "title": "First game", "devlogs_count": 2, "created_at": "2025-07-06T17:19:23.166-04:00"}, {"id": 5629, "title": "Pixel Platformer", "devlogs_count": 1, "created_at": "2025-07-06T17:26:33.776-04:00"}, {"id": 3679, "title": "Christmas Time Capsule", "devlogs_count": 1, "created_at": "2025-06-25T07:19:20.719-04:00"}], "coding_time_seconds": 516208, "coding_time_seconds_today": 0, "balance": "You need to have a pocket watcher badge to view this.", "badges": [{"name": "Maiden Voyage", "text": "you shipped your first project! the journey begins...", "icon": "\ud83d\udea2"}], "created_at": "2025-06-17T11:27:54.211-04:00", "updated_at": "2025-09-10T22:54:30.344-04:00", "avatar": "https://avatars.slack-edge.com/2025-02-22/8497510805972_7b623e4af06c10b4d6bb_original.png", "custom_css": null}, {"id": 6725, "slack_id": "U091DTJMFFH", "display_name": "Shamik Bardhan", "bio": null, "projects_count": 0, "devlogs_count": 0, "votes_count": 0, "ships_count": 0, "projects": [], "coding_time_seconds": 7665, "coding_time_seconds_today": 0, "balance": "You need to have a pocket watcher badge to view this.", "badges": [], "created_at": "2025-06-17T11:28:10.855-04:00", "updated_at": "2025-07-03T19:41:21.630-04:00", "avatar": "https://secure.gravatar.com/avatar/8d7b4529beb623f636c1faa6252512fb.jpg?s=512&d=https%3A%2F%2Fa.slack-edge.com%2Fdf10d%2Fimg%2Favatars%2Fava_0014-512.png", "custom_css": null}, {"id": 6726, "slack_id": "U091V919EFL", "display_name": "Alireza", "bio": null, "projects_count": 0, "devlogs_count": 0, "votes_count": 0, "ships_count": 0, "projects": [], "coding_time_seconds": 0, "coding_time_seconds_today": 0, "balance": "You need to have a pocket watcher badge to view this.", "badges": [], "created_at": "2025-06-17T11:28:19.104-04:00", "updated_at": "2025-07-03T19:41:21.887-04:00", "avatar": "https://secure.gravatar.com/avatar/8dec38db27ac15e922590c7c04e06204.jpg?s=512&d=https%3A%2F%2Fa.slack-edge.com%2Fdf10d%2Fimg%2Favatars%2Fava_0013-512.png", "custom_css": null}, {"id": 6727, "slack_id": "U091NGLGKFV", "display_name": "nekomoti", "bio": null, "projects_count": 0, "devlogs_count": 0, "votes_count": 0, "ships_count": 0, "projects": [], "coding_time_seconds": 710, "coding_time_seconds_today": 0, "balance": "You need to have a pocket watcher badge to view this.", "badges": [], "created_at": "2025-06-17T11:28:29.333-04:00", "updated_at": "2025-07-03T19:41:22.162-04:00", "avatar": "https://secure.gravatar.com/avatar/e4e3f611be5c648088dbe6e0a88a6a97.jpg?s=512&d=https%3A%2F%2Fa.slack-edge.com%2Fdf10d%2Fimg%2Favatars%2Fava_0022-512.png", "custom_css": null}, {"id": 6728, "slack_id": "U08USHDUUUT", "display_name": "Avinash", "bio": null, "projects_count": 0, "devlogs_count": 0, "votes_count": 0, "ships_count": 0, "projects": [], "coding_time_seconds": 0, "coding_time_seconds_today": 0, "balance": "You need to have a pocket watcher badge to view this.", "badges": [], "created_at": "2025-06-17T11:28:34.992-04:00", "updated_at": "2025-08-09T18:35:16.669-04:00", "avatar": "https://secure.gravatar.com/avatar/9afd000591b2da25bbe5a0141fa02af4.jpg?s=512&d=https%3A%2F%2Fa.slack-edge.com%2Fdf10d%2Fimg%2Favatars%2Fava_0015-512.png", "custom_css": null}, {"id": 6729, "slack_id": "U091NGRB0NP", "display_name": "Dmytro", "bio": null, "projects_count": 0, "devlogs_count": 0, "votes_count": 0, "ships_count": 0, "projects": [], "coding_time_seconds": 0, "coding_time_seconds_today": 0, "balance": "You need to have a pocket watcher badge to view this.", "badges": [], "created_at": "2025-06-17T11:28:43.373-04:00", "updated_at": "2025-07-03T19:41:22.704-04:00", "avatar": "https://secure.gravatar.com/avatar/2855eff25bb51871461624090f0a0ecc.jpg?s=512&d=https%3A%2F%2Fa.slack-edge.com%2Fdf10d%2Fimg%2Favatars%2Fava_0011-512.png", "custom_css": null}, {"id": 6730, "slack_id": "U091NGRLW9H", "display_name": "Jacob Stevenson", "bio": null, "projects_count": 0, "devlogs_count": 0, "votes_count": 0, "ships_count": 0, "projects": [], "coding_time_seconds": 0, "coding_time_seconds_today": 0, "balance": "You need to have a pocket watcher badge to view this.", "badges": [], "created_at": "2025-06-17T11:28:50.968-04:00", "updated_at": "2025-07-03T19:41:22.984-04:00", "avatar": "https://avatars.slack-edge.com/2025-06-17/9056588659107_cebc68d7d1a5887e6f49_original.jpg", "custom_css": null}, {"id": 6731, "slack_id": "U091NGK3ALB", "display_name": "Kunal", "bio": null, "projects_count": 0, "devlogs_count": 0, "votes_count": 0, "ships_count": 0, "projects": [], "coding_time_seconds": 0, "coding_time_seconds_today": 0, "balance": "You need to have a pocket watcher badge to view this.", "badges": [], "created_at": "2025-06-17T11:29:10.415-04:00", "updated_at": "2025-07-03T19:41:23.261-04:00", "avatar": "https://avatars.slack-edge.com/2025-06-18/9070145747156_a1add5927e23c4457643_original.jpg", "custom_css": null}, {"id": 6732, "slack_id": "U091V97A9DY", "display_name": "param", "bio": null, "projects_count": 0, "devlogs_count": 0, "votes_count": 0, "ships_count": 0, "projects": [], "coding_time_seconds": 0, "coding_time_seconds_today": 0, "balance": "You need to have a pocket watcher badge to view this.", "badges": [], "created_at": "2025-06-17T11:30:07.979-04:00", "updated_at": "2025-07-03T19:41:23.527-04:00", "avatar": "https://secure.gravatar.com/avatar/35c1ec6a7a1fbd5b35e3e7c65691c8e4.jpg?s=512&d=https%3A%2F%2Fa.slack-edge.com%2Fdf10d%2Fimg%2Favatars%2Fava_0013-512.png", "custom_css": null}, {"id": 6733, "slack_id": "U08S4PRM5TK", "display_name": "michael", "bio": null, "projects_count": 0, "devlogs_count": 0, "votes_count": 0, "ships_count": 0, "projects": [], "coding_time_seconds": 98543, "coding_time_seconds_today": 0, "balance": "You need to have a pocket watcher badge to view this.", "badges": [], "created_at": "2025-06-17T11:30:38.471-04:00", "updated_at": "2025-07-03T19:41:23.789-04:00", "avatar": "https://avatars.slack-edge.com/2025-05-14/8919217104736_e2aef67f592d630bb8bf_original.jpg", "custom_css": null}, {"id": 6734, "slack_id": "U0927S6HBRP", "display_name": "Dilusha Eshan", "bio": null, "projects_count": 0, "devlogs_count": 0, "votes_count": 0, "ships_count": 0, "projects": [], "coding_time_seconds": 0, "coding_time_seconds_today": 0, "balance": "You need to have a pocket watcher badge to view this.", "badges": [], "created_at": "2025-06-17T11:30:49.411-04:00", "updated_at": "2025-07-03T19:41:24.073-04:00", "avatar": "https://secure.gravatar.com/avatar/809da25231ed3ae032762f890ee34453.jpg?s=512&d=https%3A%2F%2Fa.slack-edge.com%2Fdf10d%2Fimg%2Favatars%2Fava_0004-512.png", "custom_css": null}, {"id": 6735, "slack_id": "U091NN9B9SA", "display_name": "nihalj", "bio": null, "projects_count": 1, "devlogs_count": 1, "votes_count": 1, "ships_count": 1, "projects": [{"id": 9818, "title": "gcode visualizer", "devlogs_count": 1, "created_at": "2025-08-02T11:35:19.681-04:00"}], "coding_time_seconds": 38535, "coding_time_seconds_today": 0, "balance": "You need to have a pocket watcher badge to view this.", "badges": [{"name": "Maiden Voyage", "text": "you shipped your first project! the journey begins...", "icon": "\ud83d\udea2"}], "created_at": "2025-06-17T11:31:05.121-04:00", "updated_at": "2025-09-10T22:54:30.680-04:00", "avatar": "https://secure.gravatar.com/avatar/90ed2c6e86c1a862a8f3808660c32b1a.jpg?s=512&d=https%3A%2F%2Fa.slack-edge.com%2Fdf10d%2Fimg%2Favatars%2Fava_0008-512.png", "custom_css": null}, {"id": 6736, "slack_id": "U091V9WT526", "display_name": "SYRINEE", "bio": null, "projects_count": 0, "devlogs_count": 0, "votes_count": 0, "ships_count": 0, "projects": [], "coding_time_seconds": 0, "coding_time_seconds_today": 0, "balance": "You need to have a pocket watcher badge to view this.", "badges": [], "created_at": "2025-06-17T11:31:38.853-04:00", "updated_at": "2025-07-03T19:41:24.486-04:00", "avatar": "https://secure.gravatar.com/avatar/6322069636a43f41940428f891f0a65a.jpg?s=512&d=https%3A%2F%2Fa.slack-edge.com%2Fdf10d%2Fimg%2Favatars%2Fava_0025-512.png", "custom_css": null}, {"id": 6737, "slack_id": "U092HKST9JL", "display_name": "Virat Ponugoti", "bio": null, "projects_count": 1, "devlogs_count": 0, "votes_count": 0, "ships_count": 0, "projects": [{"id": 1355, "title": "Kaggle PRoject", "devlogs_count": 0, "created_at": "2025-06-18T11:16:49.406-04:00"}], "coding_time_seconds": 73590, "coding_time_seconds_today": 0, "balance": "You need to have a pocket watcher badge to view this.", "badges": [], "created_at": "2025-06-17T11:31:47.238-04:00", "updated_at": "2025-07-03T19:41:24.777-04:00", "avatar": "https://avatars.slack-edge.com/2025-06-17/9063355672290_462e8fd5bd3430bd0de9_original.jpg", "custom_css": null}, {"id": 6738, "slack_id": "U08LX0Q5KPH", "display_name": "Yash Gupta", "bio": null, "projects_count": 0, "devlogs_count": 11, "votes_count": 13, "ships_count": 0, "projects": [], "coding_time_seconds": 1191979, "coding_time_seconds_today": 0, "balance": "You need to have a pocket watcher badge to view this.", "badges": [{"name": "Maiden Voyage", "text": "you shipped your first project! the journey begins...", "icon": "\ud83d\udea2"}, {"name": "Ballot Stuffer", "text": "vote 100 times.", "icon": "https://summer.hackclub.com/assets/i_voted-bf851b48.png"}], "created_at": "2025-06-17T11:31:48.139-04:00", "updated_at": "2025-09-10T22:54:30.778-04:00", "avatar": "https://avatars.slack-edge.com/2025-07-28/9261450500323_d39fab2715b40b3394b8_original.jpg", "custom_css": null}, {"id": 6739, "slack_id": "U091NNE70LE", "display_name": "ice-cubes", "bio": null, "projects_count": 0, "devlogs_count": 0, "votes_count": 0, "ships_count": 0, "projects": [], "coding_time_seconds": 0, "coding_time_seconds_today": 0, "balance": "You need to have a pocket watcher badge to view this.", "badges": [], "created_at": "2025-06-17T11:31:55.360-04:00", "updated_at": "2025-07-03T19:41:25.303-04:00", "avatar": "https://secure.gravatar.com/avatar/a29214d43283f820844e2ab42b707090.jpg?s=512&d=https%3A%2F%2Fa.slack-edge.com%2Fdf10d%2Fimg%2Favatars%2Fava_0014-512.png", "custom_css": null}, {"id": 6740, "slack_id": "U091TJMP9HT", "display_name": "Siddhant Patel", "bio": null, "projects_count": 0, "devlogs_count": 0, "votes_count": 0, "ships_count": 0, "projects": [], "coding_time_seconds": 0, "coding_time_seconds_today": 0, "balance": "You need to have a pocket watcher badge to view this.", "badges": [], "created_at": "2025-06-17T11:32:29.865-04:00", "updated_at": "2025-07-03T19:41:25.568-04:00", "avatar": "https://secure.gravatar.com/avatar/201b5c2ae5bbb9589819437dd58ca483.jpg?s=512&d=https%3A%2F%2Fa.slack-edge.com%2Fdf10d%2Fimg%2Favatars%2Fava_0019-512.png", "custom_css": null}], "pagination": {"page": 337, "pages": 1192, "count": 23828, "items": 20}}