{"users": [{"id": 6741, "slack_id": "U091NGW7X0B", "display_name": "Baljit Panda", "bio": null, "projects_count": 0, "devlogs_count": 0, "votes_count": 0, "ships_count": 0, "projects": [], "coding_time_seconds": 0, "coding_time_seconds_today": 0, "balance": "You need to have a pocket watcher badge to view this.", "badges": [], "created_at": "2025-06-17T11:33:43.668-04:00", "updated_at": "2025-07-03T19:41:25.832-04:00", "avatar": "https://avatars.slack-edge.com/2025-06-17/9063773569076_4697f90097da78584cae_original.png", "custom_css": null}, {"id": 6742, "slack_id": "U091TJZFCKX", "display_name": "Samhita", "bio": null, "projects_count": 2, "devlogs_count": 11, "votes_count": 5, "ships_count": 1, "projects": [{"id": 9898, "title": "Khan Academy Course Recommendation Engine", "devlogs_count": 11, "created_at": "2025-08-02T18:47:09.419-04:00"}, {"id": 13753, "title": "Two Sum", "devlogs_count": 0, "created_at": "2025-09-24T23:19:13.529-04:00"}], "coding_time_seconds": 24680, "coding_time_seconds_today": 0, "balance": "You need to have a pocket watcher badge to view this.", "badges": [{"name": "Maiden Voyage", "text": "you shipped your first project! the journey begins...", "icon": "\ud83d\udea2"}], "created_at": "2025-06-17T11:34:21.094-04:00", "updated_at": "2025-09-23T23:03:18.900-04:00", "avatar": "https://secure.gravatar.com/avatar/4b89016fe80c931ba42a56263372b032.jpg?s=512&d=https%3A%2F%2Fa.slack-edge.com%2Fdf10d%2Fimg%2Favatars%2Fava_0011-512.png", "custom_css": null}, {"id": 6743, "slack_id": "U091DU21U3Z", "display_name": "Idesz Marcell", "bio": null, "projects_count": 0, "devlogs_count": 0, "votes_count": 0, "ships_count": 0, "projects": [], "coding_time_seconds": 9932, "coding_time_seconds_today": 0, "balance": "You need to have a pocket watcher badge to view this.", "badges": [], "created_at": "2025-06-17T11:34:23.180-04:00", "updated_at": "2025-07-06T08:07:24.354-04:00", "avatar": "https://secure.gravatar.com/avatar/479397d00f6dc6fa359c897952113ef6.jpg?s=512&d=https%3A%2F%2Fa.slack-edge.com%2Fdf10d%2Fimg%2Favatars%2Fava_0008-512.png", "custom_css": null}, {"id": 6744, "slack_id": "U091TLY9BNG", "display_name": "Jaya", "bio": null, "projects_count": 0, "devlogs_count": 0, "votes_count": 0, "ships_count": 0, "projects": [], "coding_time_seconds": 0, "coding_time_seconds_today": 0, "balance": "You need to have a pocket watcher badge to view this.", "badges": [], "created_at": "2025-06-17T11:34:24.528-04:00", "updated_at": "2025-07-03T21:56:26.370-04:00", "avatar": "https://secure.gravatar.com/avatar/2a66e2ed708f400769fc1367c472f933.jpg?s=512&d=https%3A%2F%2Fa.slack-edge.com%2Fdf10d%2Fimg%2Favatars%2Fava_0001-512.png", "custom_css": null}, {"id": 6745, "slack_id": "U091VAKQ5AN", "display_name": "Tom Manger", "bio": null, "projects_count": 0, "devlogs_count": 0, "votes_count": 0, "ships_count": 0, "projects": [], "coding_time_seconds": 0, "coding_time_seconds_today": 0, "balance": "You need to have a pocket watcher badge to view this.", "badges": [], "created_at": "2025-06-17T11:35:10.415-04:00", "updated_at": "2025-07-06T02:08:34.735-04:00", "avatar": "https://avatars.slack-edge.com/2025-06-17/9056636725539_ee41b3ef8f98aeb3db5f_original.png", "custom_css": null}, {"id": 6746, "slack_id": "U092HMH9MC0", "display_name": "Ishan Karpe", "bio": null, "projects_count": 5, "devlogs_count": 51, "votes_count": 20, "ships_count": 4, "projects": [{"id": 2774, "title": "Rock Paper Scissors Lizard Spock", "devlogs_count": 4, "created_at": "2025-06-22T03:42:33.289-04:00"}, {"id": 3721, "title": "Developer ePortfolio", "devlogs_count": 17, "created_at": "2025-06-25T11:29:36.938-04:00"}, {"id": 8383, "title": "ShelfSense", "devlogs_count": 10, "created_at": "2025-07-26T17:58:02.792-04:00"}, {"id": 6782, "title": "SvelteWebsiteWithoutSvelte", "devlogs_count": 7, "created_at": "2025-07-16T05:48:52.733-04:00"}, {"id": 2832, "title": "Pok\u00e9dex", "devlogs_count": 8, "created_at": "2025-06-22T07:34:46.315-04:00"}], "coding_time_seconds": 250181, "coding_time_seconds_today": 0, "balance": "You need to have a pocket watcher badge to view this.", "badges": [{"name": "Maiden Voyage", "text": "you shipped your first project! the journey begins...", "icon": "\ud83d\udea2"}], "created_at": "2025-06-17T11:35:20.612-04:00", "updated_at": "2025-09-10T22:54:31.119-04:00", "avatar": "https://secure.gravatar.com/avatar/936b3b2581ec9f17cd266d8ac387e355.jpg?s=512&d=https%3A%2F%2Fa.slack-edge.com%2Fdf10d%2Fimg%2Favatars%2Fava_0006-512.png", "custom_css": null}, {"id": 6747, "slack_id": "U091VAPTQGJ", "display_name": "Louai", "bio": null, "projects_count": 0, "devlogs_count": 0, "votes_count": 1, "ships_count": 0, "projects": [], "coding_time_seconds": 20857, "coding_time_seconds_today": 0, "balance": "You need to have a pocket watcher badge to view this.", "badges": [], "created_at": "2025-06-17T11:35:47.915-04:00", "updated_at": "2025-07-03T19:41:26.914-04:00", "avatar": "https://secure.gravatar.com/avatar/fbabd18a7cf5bac60be3f4434263a9ea.jpg?s=512&d=https%3A%2F%2Fa.slack-edge.com%2Fdf10d%2Fimg%2Favatars%2Fava_0019-512.png", "custom_css": null}, {"id": 6748, "slack_id": "U091VB6BN3W", "display_name": "Changxu Song", "bio": null, "projects_count": 0, "devlogs_count": 0, "votes_count": 0, "ships_count": 0, "projects": [], "coding_time_seconds": 0, "coding_time_seconds_today": 0, "balance": "You need to have a pocket watcher badge to view this.", "badges": [], "created_at": "2025-06-17T11:35:54.763-04:00", "updated_at": "2025-07-03T19:41:27.185-04:00", "avatar": "https://avatars.slack-edge.com/2025-06-17/9063382036050_c9312b08a8545d281443_original.jpg", "custom_css": null}, {"id": 6749, "slack_id": "U092HMWGPG8", "display_name": "shehroz", "bio": null, "projects_count": 0, "devlogs_count": 0, "votes_count": 0, "ships_count": 0, "projects": [], "coding_time_seconds": 0, "coding_time_seconds_today": 0, "balance": "You need to have a pocket watcher badge to view this.", "badges": [], "created_at": "2025-06-17T11:36:58.896-04:00", "updated_at": "2025-07-03T19:41:27.455-04:00", "avatar": "https://secure.gravatar.com/avatar/664b6706aa59f27c0ee40b6b2cf086b1.jpg?s=512&d=https%3A%2F%2Fa.slack-edge.com%2Fdf10d%2Fimg%2Favatars%2Fava_0012-512.png", "custom_css": null}, {"id": 6750, "slack_id": "U092HMX1ZS4", "display_name": "Laxdip Patel", "bio": null, "projects_count": 0, "devlogs_count": 0, "votes_count": 0, "ships_count": 0, "projects": [], "coding_time_seconds": 31700, "coding_time_seconds_today": 0, "balance": "You need to have a pocket watcher badge to view this.", "badges": [], "created_at": "2025-06-17T11:37:27.433-04:00", "updated_at": "2025-07-03T19:41:27.725-04:00", "avatar": "https://secure.gravatar.com/avatar/3168814f2d30e758379914e96274935b.jpg?s=512&d=https%3A%2F%2Fa.slack-edge.com%2Fdf10d%2Fimg%2Favatars%2Fava_0010-512.png", "custom_css": null}, {"id": 6751, "slack_id": "U091E00H7AT", "display_name": "Naveen Bassi", "bio": null, "projects_count": 0, "devlogs_count": 0, "votes_count": 0, "ships_count": 0, "projects": [], "coding_time_seconds": 1707, "coding_time_seconds_today": 0, "balance": "You need to have a pocket watcher badge to view this.", "badges": [], "created_at": "2025-06-17T11:37:33.882-04:00", "updated_at": "2025-07-03T19:41:27.988-04:00", "avatar": "https://avatars.slack-edge.com/2025-06-17/9075987794449_b70a284483969da15176_original.jpg", "custom_css": null}, {"id": 6752, "slack_id": "U091NQ59RGE", "display_name": "Yash Verma", "bio": null, "projects_count": 0, "devlogs_count": 0, "votes_count": 0, "ships_count": 0, "projects": [], "coding_time_seconds": 0, "coding_time_seconds_today": 0, "balance": "You need to have a pocket watcher badge to view this.", "badges": [], "created_at": "2025-06-17T11:38:24.423-04:00", "updated_at": "2025-07-03T19:41:28.255-04:00", "avatar": "https://secure.gravatar.com/avatar/e84c0b1faf40da1d75802669d6cb37da.jpg?s=512&d=https%3A%2F%2Fa.slack-edge.com%2Fdf10d%2Fimg%2Favatars%2Fava_0025-512.png", "custom_css": null}, {"id": 6753, "slack_id": "U091VBAMPEW", "display_name": "Mythic_Blade", "bio": null, "projects_count": 0, "devlogs_count": 0, "votes_count": 0, "ships_count": 0, "projects": [], "coding_time_seconds": 62, "coding_time_seconds_today": 0, "balance": "You need to have a pocket watcher badge to view this.", "badges": [], "created_at": "2025-06-17T11:39:13.917-04:00", "updated_at": "2025-07-03T19:41:28.515-04:00", "avatar": "https://secure.gravatar.com/avatar/7f9d2ff61b064d74f3c4d873c5378293.jpg?s=512&d=https%3A%2F%2Fa.slack-edge.com%2Fdf10d%2Fimg%2Favatars%2Fava_0001-512.png", "custom_css": null}, {"id": 6754, "slack_id": "U0927UT81GR", "display_name": "creepz", "bio": null, "projects_count": 0, "devlogs_count": 0, "votes_count": 0, "ships_count": 0, "projects": [], "coding_time_seconds": 0, "coding_time_seconds_today": 0, "balance": "You need to have a pocket watcher badge to view this.", "badges": [], "created_at": "2025-06-17T11:39:15.786-04:00", "updated_at": "2025-07-03T19:41:28.808-04:00", "avatar": "https://secure.gravatar.com/avatar/008b0fbc909501b98844e2c8b4557287.jpg?s=512&d=https%3A%2F%2Fa.slack-edge.com%2Fdf10d%2Fimg%2Favatars%2Fava_0005-512.png", "custom_css": null}, {"id": 6755, "slack_id": "U092HN9BKBJ", "display_name": "Manas Nandan", "bio": null, "projects_count": 0, "devlogs_count": 0, "votes_count": 0, "ships_count": 0, "projects": [], "coding_time_seconds": 0, "coding_time_seconds_today": 0, "balance": "You need to have a pocket watcher badge to view this.", "badges": [], "created_at": "2025-06-17T11:39:26.384-04:00", "updated_at": "2025-07-03T19:41:29.117-04:00", "avatar": "https://secure.gravatar.com/avatar/78eafbb9030c141d3cd5a00637899401.jpg?s=512&d=https%3A%2F%2Fa.slack-edge.com%2Fdf10d%2Fimg%2Favatars%2Fava_0002-512.png", "custom_css": null}, {"id": 6756, "slack_id": "U091VBCEA6N", "display_name": "Austin", "bio": null, "projects_count": 1, "devlogs_count": 14, "votes_count": 65, "ships_count": 1, "projects": [{"id": 6838, "title": "Documentation website", "devlogs_count": 9, "created_at": "2025-07-16T18:59:05.238-04:00"}], "coding_time_seconds": 854990, "coding_time_seconds_today": 7053, "balance": "You need to have a pocket watcher badge to view this.", "badges": [{"name": "Maiden Voyage", "text": "you shipped your first project! the journey begins...", "icon": "\ud83d\udea2"}], "created_at": "2025-06-17T11:39:26.457-04:00", "updated_at": "2025-09-10T22:54:31.433-04:00", "avatar": "https://secure.gravatar.com/avatar/f2b24045415f799db45f32dc4d03e699.jpg?s=512&d=https%3A%2F%2Fa.slack-edge.com%2Fdf10d%2Fimg%2Favatars%2Fava_0010-512.png", "custom_css": null}, {"id": 6757, "slack_id": "U091E0CP77Z", "display_name": "Souvik Mandal", "bio": null, "projects_count": 0, "devlogs_count": 0, "votes_count": 0, "ships_count": 0, "projects": [], "coding_time_seconds": 0, "coding_time_seconds_today": 0, "balance": "You need to have a pocket watcher badge to view this.", "badges": [], "created_at": "2025-06-17T11:39:32.196-04:00", "updated_at": "2025-07-03T19:41:29.726-04:00", "avatar": "https://secure.gravatar.com/avatar/15e47d9d4f88e9f9c3f7a16b5c10879d.jpg?s=512&d=https%3A%2F%2Fa.slack-edge.com%2Fdf10d%2Fimg%2Favatars%2Fava_0007-512.png", "custom_css": null}, {"id": 6758, "slack_id": "U091NPKDXJS", "display_name": "Folachade", "bio": null, "projects_count": 0, "devlogs_count": 0, "votes_count": 0, "ships_count": 0, "projects": [], "coding_time_seconds": 0, "coding_time_seconds_today": 0, "balance": "You need to have a pocket watcher badge to view this.", "badges": [], "created_at": "2025-06-17T11:40:07.527-04:00", "updated_at": "2025-07-04T02:26:00.296-04:00", "avatar": "https://secure.gravatar.com/avatar/f924fd44263b6dcf89bc89d16c9affe3.jpg?s=512&d=https%3A%2F%2Fa.slack-edge.com%2Fdf10d%2Fimg%2Favatars%2Fava_0004-512.png", "custom_css": null}, {"id": 6759, "slack_id": "U091E0FMTPH", "display_name": "Dhiaan Dave", "bio": null, "projects_count": 0, "devlogs_count": 6, "votes_count": 40, "ships_count": 0, "projects": [], "coding_time_seconds": 86064, "coding_time_seconds_today": 0, "balance": "You need to have a pocket watcher badge to view this.", "badges": [{"name": "Maiden Voyage", "text": "you shipped your first project! the journey begins...", "icon": "\ud83d\udea2"}], "created_at": "2025-06-17T11:40:47.237-04:00", "updated_at": "2025-09-10T22:54:31.513-04:00", "avatar": "https://avatars.slack-edge.com/2025-07-14/9195263345045_cec69fd654db7ad91f2c_original.png", "custom_css": null}, {"id": 6760, "slack_id": "U091TLA34F7", "display_name": "Villads", "bio": null, "projects_count": 0, "devlogs_count": 0, "votes_count": 0, "ships_count": 0, "projects": [], "coding_time_seconds": 29026, "coding_time_seconds_today": 0, "balance": "You need to have a pocket watcher badge to view this.", "badges": [], "created_at": "2025-06-17T11:40:51.403-04:00", "updated_at": "2025-07-03T21:44:32.291-04:00", "avatar": "https://secure.gravatar.com/avatar/76309f2941da6e297ac7dd7e8c7f3e72.jpg?s=512&d=https%3A%2F%2Fa.slack-edge.com%2Fdf10d%2Fimg%2Favatars%2Fava_0002-512.png", "custom_css": null}], "pagination": {"page": 338, "pages": 1192, "count": 23828, "items": 20}}