{"users": [{"id": 661, "slack_id": "U0921JQG7ED", "display_name": "Aditya M", "bio": null, "projects_count": 0, "devlogs_count": 33, "votes_count": 40, "ships_count": 0, "projects": [], "coding_time_seconds": 455440, "coding_time_seconds_today": 0, "balance": "You need to have a pocket watcher badge to view this.", "badges": [{"name": "Maiden Voyage", "text": "you shipped your first project! the journey begins...", "icon": "\ud83d\udea2"}, {"name": "Ballot Stuffer", "text": "vote 100 times.", "icon": "https://summer.hackclub.com/assets/i_voted-bf851b48.png"}], "created_at": "2025-06-16T12:07:04.713-04:00", "updated_at": "2025-09-16T16:22:38.634-04:00", "avatar": "https://avatars.slack-edge.com/2025-06-17/9049630256983_7b2dd070448d4cb9ad44_original.png", "custom_css": null}, {"id": 662, "slack_id": "U091PHL2V6Y", "display_name": "edy17", "bio": null, "projects_count": 0, "devlogs_count": 0, "votes_count": 0, "ships_count": 0, "projects": [], "coding_time_seconds": 0, "coding_time_seconds_today": 0, "balance": "You need to have a pocket watcher badge to view this.", "badges": [], "created_at": "2025-06-16T12:07:07.162-04:00", "updated_at": "2025-07-03T19:14:01.152-04:00", "avatar": "https://secure.gravatar.com/avatar/99d811e9190889ffb733975e27187f8c.jpg?s=512&d=https%3A%2F%2Fa.slack-edge.com%2Fdf10d%2Fimg%2Favatars%2Fava_0009-512.png", "custom_css": null}, {"id": 663, "slack_id": "U0811ME6L0J", "display_name": "Jean1000", "bio": null, "projects_count": 1, "devlogs_count": 1, "votes_count": 5, "ships_count": 0, "projects": [{"id": 5320, "title": "Wordle", "devlogs_count": 1, "created_at": "2025-07-04T12:25:41.355-04:00"}], "coding_time_seconds": 220625, "coding_time_seconds_today": 0, "balance": "You need to have a pocket watcher badge to view this.", "badges": [], "created_at": "2025-06-16T12:07:09.526-04:00", "updated_at": "2025-08-06T18:12:53.961-04:00", "avatar": "https://avatars.slack-edge.com/2025-04-29/8806886354087_29d9fc07d1eac723ab3a_original.png", "custom_css": null}, {"id": 664, "slack_id": "U07SU6ZR65C", "display_name": "Nahom", "bio": null, "projects_count": 1, "devlogs_count": 0, "votes_count": 0, "ships_count": 0, "projects": [{"id": 1713, "title": "Sentalk", "devlogs_count": 0, "created_at": "2025-06-19T04:34:55.901-04:00"}], "coding_time_seconds": 875, "coding_time_seconds_today": 0, "balance": "You need to have a pocket watcher badge to view this.", "badges": [], "created_at": "2025-06-16T12:07:11.800-04:00", "updated_at": "2025-07-03T19:14:01.727-04:00", "avatar": "https://secure.gravatar.com/avatar/e17c414b5ed57fa792b4db5167830cb3.jpg?s=512&d=https%3A%2F%2Fa.slack-edge.com%2Fdf10d%2Fimg%2Favatars%2Fava_0012-512.png", "custom_css": null}, {"id": 665, "slack_id": "U0917RZ8F7H", "display_name": "Randima", "bio": null, "projects_count": 0, "devlogs_count": 0, "votes_count": 0, "ships_count": 0, "projects": [], "coding_time_seconds": 84, "coding_time_seconds_today": 0, "balance": "You need to have a pocket watcher badge to view this.", "badges": [], "created_at": "2025-06-16T12:07:22.135-04:00", "updated_at": "2025-07-03T19:14:02.009-04:00", "avatar": "https://secure.gravatar.com/avatar/c11b45eb45706e6dfcee7e3159e5cfce.jpg?s=512&d=https%3A%2F%2Fa.slack-edge.com%2Fdf10d%2Fimg%2Favatars%2Fava_0002-512.png", "custom_css": null}, {"id": 666, "slack_id": "U082JK5ERFB", "display_name": "Nathan Newton Thurber", "bio": null, "projects_count": 5, "devlogs_count": 19, "votes_count": 51, "ships_count": 3, "projects": [{"id": 3726, "title": "Google Drive Clone", "devlogs_count": 3, "created_at": "2025-06-25T12:00:54.137-04:00"}, {"id": 4361, "title": "iMessage emotion picker extension ", "devlogs_count": 3, "created_at": "2025-06-29T10:34:14.075-04:00"}, {"id": 5391, "title": "Musishare", "devlogs_count": 11, "created_at": "2025-07-05T01:35:42.983-04:00"}, {"id": 4864, "title": "AQI Map App", "devlogs_count": 1, "created_at": "2025-07-02T00:46:57.490-04:00"}, {"id": 4085, "title": "LAN chat", "devlogs_count": 1, "created_at": "2025-06-27T11:20:59.227-04:00"}], "coding_time_seconds": 305382, "coding_time_seconds_today": 121, "balance": "You need to have a pocket watcher badge to view this.", "badges": [{"name": "Maiden Voyage", "text": "you shipped your first project! the journey begins...", "icon": "\ud83d\udea2"}], "created_at": "2025-06-16T12:07:29.691-04:00", "updated_at": "2025-09-10T22:51:28.219-04:00", "avatar": "https://secure.gravatar.com/avatar/75bbfd0b5e90796bf9268c618a1e67ad.jpg?s=512&d=https%3A%2F%2Fa.slack-edge.com%2Fdf10d%2Fimg%2Favatars%2Fava_0023-512.png", "custom_css": null}, {"id": 667, "slack_id": "U091G68T12P", "display_name": "Arsh", "bio": null, "projects_count": 0, "devlogs_count": 0, "votes_count": 0, "ships_count": 0, "projects": [], "coding_time_seconds": 0, "coding_time_seconds_today": 0, "balance": "You need to have a pocket watcher badge to view this.", "badges": [], "created_at": "2025-06-16T12:07:31.687-04:00", "updated_at": "2025-07-03T19:14:02.562-04:00", "avatar": "https://secure.gravatar.com/avatar/9b492d8dba95f658b0e52ae791dc6b69.jpg?s=512&d=https%3A%2F%2Fa.slack-edge.com%2Fdf10d%2Fimg%2Favatars%2Fava_0011-512.png", "custom_css": null}, {"id": 668, "slack_id": "U091P5G68CA", "display_name": "Noor Salman", "bio": null, "projects_count": 7, "devlogs_count": 10, "votes_count": 77, "ships_count": 4, "projects": [{"id": 4891, "title": "quiz game", "devlogs_count": 1, "created_at": "2025-07-02T03:55:34.016-04:00"}, {"id": 11952, "title": "AI war", "devlogs_count": 0, "created_at": "2025-08-21T11:47:21.871-04:00"}, {"id": 11953, "title": "dig to win", "devlogs_count": 0, "created_at": "2025-08-21T11:48:49.256-04:00"}, {"id": 12427, "title": "ball drop", "devlogs_count": 1, "created_at": "2025-08-27T08:43:28.344-04:00"}, {"id": 12278, "title": "no internet", "devlogs_count": 1, "created_at": "2025-08-25T08:00:55.438-04:00"}, {"id": 6023, "title": "alien war", "devlogs_count": 2, "created_at": "2025-07-10T03:01:44.221-04:00"}, {"id": 7126, "title": "farmer work", "devlogs_count": 5, "created_at": "2025-07-19T09:00:07.522-04:00"}], "coding_time_seconds": 293846, "coding_time_seconds_today": 0, "balance": "You need to have a pocket watcher badge to view this.", "badges": [{"name": "Maiden Voyage", "text": "you shipped your first project! the journey begins...", "icon": "\ud83d\udea2"}], "created_at": "2025-06-16T12:07:38.167-04:00", "updated_at": "2025-09-10T22:51:28.286-04:00", "avatar": "https://secure.gravatar.com/avatar/303be57028ab469482c99e62fd7e122d.jpg?s=512&d=https%3A%2F%2Fa.slack-edge.com%2Fdf10d%2Fimg%2Favatars%2Fava_0009-512.png", "custom_css": null}, {"id": 669, "slack_id": "U091P4UHD50", "display_name": "Matthew Barquin", "bio": null, "projects_count": 0, "devlogs_count": 0, "votes_count": 0, "ships_count": 0, "projects": [], "coding_time_seconds": 29080, "coding_time_seconds_today": 0, "balance": "You need to have a pocket watcher badge to view this.", "badges": [], "created_at": "2025-06-16T12:07:49.990-04:00", "updated_at": "2025-07-03T19:14:03.104-04:00", "avatar": "https://secure.gravatar.com/avatar/476299c840ad81973036677f3bd71ed3.jpg?s=512&d=https%3A%2F%2Fa.slack-edge.com%2Fdf10d%2Fimg%2Favatars%2Fava_0005-512.png", "custom_css": null}, {"id": 670, "slack_id": "U06U80G86H1", "display_name": "reem", "bio": null, "projects_count": 2, "devlogs_count": 3, "votes_count": 15, "ships_count": 1, "projects": [{"id": 12629, "title": "I Love Luna", "devlogs_count": 0, "created_at": "2025-08-30T18:33:01.127-04:00"}, {"id": 9164, "title": "Disney Princess Quiz", "devlogs_count": 3, "created_at": "2025-07-30T20:05:17.179-04:00"}], "coding_time_seconds": 149062, "coding_time_seconds_today": 0, "balance": "You need to have a pocket watcher badge to view this.", "badges": [{"name": "Maiden Voyage", "text": "you shipped your first project! the journey begins...", "icon": "\ud83d\udea2"}], "created_at": "2025-06-16T12:07:53.425-04:00", "updated_at": "2025-09-10T22:51:28.338-04:00", "avatar": "https://avatars.slack-edge.com/2025-09-04/9466942849172_fb5971b9802b93af5aa9_original.png", "custom_css": null}, {"id": 671, "slack_id": "U091G5HEYJX", "display_name": "f", "bio": null, "projects_count": 0, "devlogs_count": 0, "votes_count": 0, "ships_count": 0, "projects": [], "coding_time_seconds": 0, "coding_time_seconds_today": 0, "balance": "You need to have a pocket watcher badge to view this.", "badges": [], "created_at": "2025-06-16T12:08:01.859-04:00", "updated_at": "2025-07-03T19:14:03.638-04:00", "avatar": "https://secure.gravatar.com/avatar/ff2988e54e12acfb4751c83622ccb340.jpg?s=512&d=https%3A%2F%2Fa.slack-edge.com%2Fdf10d%2Fimg%2Favatars%2Fava_0017-512.png", "custom_css": null}, {"id": 672, "slack_id": "U091G5P3WM9", "display_name": "Shubham maurya", "bio": null, "projects_count": 0, "devlogs_count": 0, "votes_count": 0, "ships_count": 0, "projects": [], "coding_time_seconds": 0, "coding_time_seconds_today": 0, "balance": "You need to have a pocket watcher badge to view this.", "badges": [], "created_at": "2025-06-16T12:08:03.479-04:00", "updated_at": "2025-07-03T19:14:03.925-04:00", "avatar": "https://secure.gravatar.com/avatar/b25791613897c9fed9605440ba4c50d8.jpg?s=512&d=https%3A%2F%2Fa.slack-edge.com%2Fdf10d%2Fimg%2Favatars%2Fava_0018-512.png", "custom_css": null}, {"id": 673, "slack_id": "U091PJEDD36", "display_name": "vlad s", "bio": null, "projects_count": 0, "devlogs_count": 0, "votes_count": 0, "ships_count": 0, "projects": [], "coding_time_seconds": 0, "coding_time_seconds_today": 0, "balance": "You need to have a pocket watcher badge to view this.", "badges": [], "created_at": "2025-06-16T12:08:05.181-04:00", "updated_at": "2025-07-03T19:14:04.192-04:00", "avatar": "https://secure.gravatar.com/avatar/e046d5a86595982c5fbe587511ddfa82.jpg?s=512&d=https%3A%2F%2Fa.slack-edge.com%2Fdf10d%2Fimg%2Favatars%2Fava_0023-512.png", "custom_css": null}, {"id": 674, "slack_id": "U087BUC6ZFW", "display_name": "JameDev", "bio": null, "projects_count": 2, "devlogs_count": 19, "votes_count": 46, "ships_count": 1, "projects": [{"id": 1373, "title": "Sand Simulation", "devlogs_count": 18, "created_at": "2025-06-18T12:36:35.727-04:00"}, {"id": 12967, "title": "Cactusland", "devlogs_count": 1, "created_at": "2025-09-06T10:25:36.300-04:00"}], "coding_time_seconds": 303002, "coding_time_seconds_today": 0, "balance": "You need to have a pocket watcher badge to view this.", "badges": [{"name": "Maiden Voyage", "text": "you shipped your first project! the journey begins...", "icon": "\ud83d\udea2"}], "created_at": "2025-06-16T12:08:08.799-04:00", "updated_at": "2025-09-10T22:51:28.438-04:00", "avatar": "https://avatars.slack-edge.com/2025-09-06/9467478190243_fd6c655b63e4232b66e5_original.jpg", "custom_css": null}, {"id": 675, "slack_id": "U0921NH6P33", "display_name": "Jayden Liaw", "bio": null, "projects_count": 0, "devlogs_count": 0, "votes_count": 0, "ships_count": 0, "projects": [], "coding_time_seconds": 23459, "coding_time_seconds_today": 0, "balance": "You need to have a pocket watcher badge to view this.", "badges": [], "created_at": "2025-06-16T12:08:09.224-04:00", "updated_at": "2025-07-03T19:14:04.731-04:00", "avatar": "https://secure.gravatar.com/avatar/4caa16087cb0b3aba6362bd8fcdc1656.jpg?s=512&d=https%3A%2F%2Fa.slack-edge.com%2Fdf10d%2Fimg%2Favatars%2Fava_0008-512.png", "custom_css": null}, {"id": 676, "slack_id": "U091MCFK82H", "display_name": "namle2612", "bio": null, "projects_count": 0, "devlogs_count": 0, "votes_count": 0, "ships_count": 0, "projects": [], "coding_time_seconds": 0, "coding_time_seconds_today": 0, "balance": "You need to have a pocket watcher badge to view this.", "badges": [], "created_at": "2025-06-16T12:08:10.718-04:00", "updated_at": "2025-07-03T19:14:05.010-04:00", "avatar": "https://secure.gravatar.com/avatar/6b6d539498c173a638c8ff7512366b52.jpg?s=512&d=https%3A%2F%2Fa.slack-edge.com%2Fdf10d%2Fimg%2Favatars%2Fava_0010-512.png", "custom_css": null}, {"id": 677, "slack_id": "U091G64PZPD", "display_name": "Konstanza Morales", "bio": null, "projects_count": 0, "devlogs_count": 0, "votes_count": 0, "ships_count": 0, "projects": [], "coding_time_seconds": 0, "coding_time_seconds_today": 0, "balance": "You need to have a pocket watcher badge to view this.", "badges": [], "created_at": "2025-06-16T12:08:11.784-04:00", "updated_at": "2025-07-03T19:14:05.280-04:00", "avatar": "https://avatars.slack-edge.com/2025-06-16/9057204876962_624d2f9e3fc38f2bbbc6_original.jpg", "custom_css": null}, {"id": 678, "slack_id": "U092BKQ2APJ", "display_name": "Adit", "bio": null, "projects_count": 1, "devlogs_count": 2, "votes_count": 0, "ships_count": 0, "projects": [{"id": 6360, "title": "TicHackToe4D", "devlogs_count": 2, "created_at": "2025-07-12T17:14:46.615-04:00"}], "coding_time_seconds": 218743, "coding_time_seconds_today": 0, "balance": "You need to have a pocket watcher badge to view this.", "badges": [], "created_at": "2025-06-16T12:08:19.972-04:00", "updated_at": "2025-07-03T19:14:05.545-04:00", "avatar": "https://secure.gravatar.com/avatar/5fea08f54c1bb721d6a899fa86ff0a62.jpg?s=512&d=https%3A%2F%2Fa.slack-edge.com%2Fdf10d%2Fimg%2Favatars%2Fava_0014-512.png", "custom_css": null}, {"id": 679, "slack_id": "U091MCCHQDT", "display_name": "Maceo Sweeney", "bio": null, "projects_count": 0, "devlogs_count": 0, "votes_count": 0, "ships_count": 0, "projects": [], "coding_time_seconds": 0, "coding_time_seconds_today": 0, "balance": "You need to have a pocket watcher badge to view this.", "badges": [], "created_at": "2025-06-16T12:08:24.679-04:00", "updated_at": "2025-07-03T19:14:05.814-04:00", "avatar": "https://secure.gravatar.com/avatar/9eeb84fd5208faf307bb1ce304eb900c.jpg?s=512&d=https%3A%2F%2Fa.slack-edge.com%2Fdf10d%2Fimg%2Favatars%2Fava_0018-512.png", "custom_css": null}, {"id": 680, "slack_id": "U0917S1RXJT", "display_name": "AR", "bio": null, "projects_count": 1, "devlogs_count": 0, "votes_count": 0, "ships_count": 0, "projects": [{"id": 82, "title": "automate_linkedin", "devlogs_count": 0, "created_at": "2025-06-16T12:24:09.048-04:00"}], "coding_time_seconds": 4024, "coding_time_seconds_today": 0, "balance": "You need to have a pocket watcher badge to view this.", "badges": [], "created_at": "2025-06-16T12:08:29.285-04:00", "updated_at": "2025-07-03T19:14:06.077-04:00", "avatar": "https://secure.gravatar.com/avatar/8f0c777b942c983ba9d27d8e1d8b27b9.jpg?s=512&d=https%3A%2F%2Fa.slack-edge.com%2Fdf10d%2Fimg%2Favatars%2Fava_0008-512.png", "custom_css": null}], "pagination": {"page": 34, "pages": 1192, "count": 23827, "items": 20}}