{"users": [{"id": 6781, "slack_id": "U091VCK418A", "display_name": "Noah", "bio": null, "projects_count": 1, "devlogs_count": 0, "votes_count": 0, "ships_count": 0, "projects": [{"id": 1223, "title": "My first website", "devlogs_count": 0, "created_at": "2025-06-17T23:54:13.027-04:00"}], "coding_time_seconds": 2749, "coding_time_seconds_today": 0, "balance": "You need to have a pocket watcher badge to view this.", "badges": [], "created_at": "2025-06-17T11:50:21.035-04:00", "updated_at": "2025-07-16T10:31:43.998-04:00", "avatar": "https://avatars.slack-edge.com/2025-06-17/9076205008113_a753faca98e61815483c_original.png", "custom_css": null}, {"id": 6782, "slack_id": "U092HQJ3TDW", "display_name": "Karthikeyan A", "bio": null, "projects_count": 0, "devlogs_count": 0, "votes_count": 0, "ships_count": 0, "projects": [], "coding_time_seconds": 26505, "coding_time_seconds_today": 0, "balance": "You need to have a pocket watcher badge to view this.", "badges": [], "created_at": "2025-06-17T11:50:30.105-04:00", "updated_at": "2025-07-04T08:22:14.265-04:00", "avatar": "https://secure.gravatar.com/avatar/8502eeb176d473fe323c4590e71fe92e.jpg?s=512&d=https%3A%2F%2Fa.slack-edge.com%2Fdf10d%2Fimg%2Favatars%2Fava_0007-512.png", "custom_css": null}, {"id": 6783, "slack_id": "U091TN4V6AZ", "display_name": "Majo", "bio": "\ud83d\udcab Hi! I'm Majo, an 18-year-old creative coder and student passionate about blending technology with emotion. I'm currently studying Computer Engineering and love building projects that tell stories\u2014especially through music, visuals, and interactive experiences.\r\n\r\nThis summer, I'm channeling my ideas into meaningful, experimental builds\u2014projects that reflect identity, feelings, and the messy beauty of being human. Whether it's designing emotional soundtracks, visualizing mental spaces, or playing with UI as art, I'm here to make things that resonate.\r\n\r\nLet\u2019s make something unforgettable.", "projects_count": 6, "devlogs_count": 7, "votes_count": 48, "ships_count": 3, "projects": [{"id": 1211, "title": "My Personal Soundtrack", "devlogs_count": 4, "created_at": "2025-06-17T23:08:35.414-04:00"}, {"id": 13670, "title": "Anki Flashcards WebApp", "devlogs_count": 0, "created_at": "2025-09-22T11:23:57.717-04:00"}, {"id": 13665, "title": "Bias to Brilliance", "devlogs_count": 1, "created_at": "2025-09-22T10:31:07.757-04:00"}, {"id": 13671, "title": "WorkSpace", "devlogs_count": 0, "created_at": "2025-09-22T11:27:00.399-04:00"}, {"id": 13667, "title": "Pokedex", "devlogs_count": 1, "created_at": "2025-09-22T11:13:39.796-04:00"}, {"id": 11808, "title": "Interactive Animated Resume \u2013 By Majo", "devlogs_count": 1, "created_at": "2025-08-19T16:53:55.196-04:00"}], "coding_time_seconds": 80211, "coding_time_seconds_today": 0, "balance": "You need to have a pocket watcher badge to view this.", "badges": [{"name": "Maiden Voyage", "text": "you shipped your first project! the journey begins...", "icon": "\ud83d\udea2"}], "created_at": "2025-06-17T11:50:59.718-04:00", "updated_at": "2025-09-10T22:54:32.113-04:00", "avatar": "https://secure.gravatar.com/avatar/012bc07bcb04f468a5fbfb41e9994010.jpg?s=512&d=https%3A%2F%2Fa.slack-edge.com%2Fdf10d%2Fimg%2Favatars%2Fava_0015-512.png", "custom_css": null}, {"id": 6784, "slack_id": "U091UTHL05A", "display_name": "HomerusJa", "bio": null, "projects_count": 2, "devlogs_count": 2, "votes_count": 0, "ships_count": 0, "projects": [{"id": 1846, "title": "Rust QOI implementation with Python bindings", "devlogs_count": 0, "created_at": "2025-06-19T12:05:23.145-04:00"}, {"id": 4510, "title": "Python QOI implementation", "devlogs_count": 2, "created_at": "2025-06-30T11:21:31.236-04:00"}], "coding_time_seconds": 368230, "coding_time_seconds_today": 0, "balance": "You need to have a pocket watcher badge to view this.", "badges": [], "created_at": "2025-06-17T11:51:07.564-04:00", "updated_at": "2025-07-03T19:41:35.601-04:00", "avatar": "https://secure.gravatar.com/avatar/02f9e65372a9621194f2af435fc177f4.jpg?s=512&d=https%3A%2F%2Fa.slack-edge.com%2Fdf10d%2Fimg%2Favatars%2Fava_0023-512.png", "custom_css": null}, {"id": 6785, "slack_id": "U092HQE0P5W", "display_name": "Mishika Parmar", "bio": null, "projects_count": 0, "devlogs_count": 0, "votes_count": 0, "ships_count": 0, "projects": [], "coding_time_seconds": 0, "coding_time_seconds_today": 0, "balance": "You need to have a pocket watcher badge to view this.", "badges": [], "created_at": "2025-06-17T11:51:19.664-04:00", "updated_at": "2025-07-03T19:41:35.879-04:00", "avatar": "https://avatars.slack-edge.com/2025-06-17/9063476384562_b098740e6e48e413f239_original.jpg", "custom_css": null}, {"id": 6786, "slack_id": "U091NRVQA22", "display_name": "Nett", "bio": null, "projects_count": 0, "devlogs_count": 0, "votes_count": 0, "ships_count": 0, "projects": [], "coding_time_seconds": 0, "coding_time_seconds_today": 0, "balance": "You need to have a pocket watcher badge to view this.", "badges": [], "created_at": "2025-06-17T11:51:22.810-04:00", "updated_at": "2025-07-03T19:41:36.149-04:00", "avatar": "https://avatars.slack-edge.com/2025-06-17/9056915164374_a184f3dddcfbe5861bfe_original.png", "custom_css": null}, {"id": 6787, "slack_id": "U091NS9UY6S", "display_name": "Intedai", "bio": null, "projects_count": 0, "devlogs_count": 0, "votes_count": 0, "ships_count": 0, "projects": [], "coding_time_seconds": 7128, "coding_time_seconds_today": 0, "balance": "You need to have a pocket watcher badge to view this.", "badges": [], "created_at": "2025-06-17T11:51:26.405-04:00", "updated_at": "2025-07-03T19:41:36.408-04:00", "avatar": "https://secure.gravatar.com/avatar/5c42e69c38821f6aecf8649761b05a47.jpg?s=512&d=https%3A%2F%2Fa.slack-edge.com%2Fdf10d%2Fimg%2Favatars%2Fava_0026-512.png", "custom_css": null}, {"id": 6788, "slack_id": "U092HR2KTG8", "display_name": "arrogant", "bio": null, "projects_count": 0, "devlogs_count": 0, "votes_count": 0, "ships_count": 0, "projects": [], "coding_time_seconds": 0, "coding_time_seconds_today": 0, "balance": "You need to have a pocket watcher badge to view this.", "badges": [], "created_at": "2025-06-17T11:51:52.347-04:00", "updated_at": "2025-07-03T19:41:36.672-04:00", "avatar": "https://secure.gravatar.com/avatar/0b52526547abc3f66cfdea4c009f8a29.jpg?s=512&d=https%3A%2F%2Fa.slack-edge.com%2Fdf10d%2Fimg%2Favatars%2Fava_0010-512.png", "custom_css": null}, {"id": 6789, "slack_id": "U092HQTPDMW", "display_name": "Reuben Akwasi Aboagye", "bio": null, "projects_count": 0, "devlogs_count": 0, "votes_count": 0, "ships_count": 0, "projects": [], "coding_time_seconds": 22772, "coding_time_seconds_today": 0, "balance": "You need to have a pocket watcher badge to view this.", "badges": [], "created_at": "2025-06-17T11:52:47.412-04:00", "updated_at": "2025-07-03T19:41:36.945-04:00", "avatar": "https://secure.gravatar.com/avatar/d5092dffd1604d3ecb91b2d294ca80bf.jpg?s=512&d=https%3A%2F%2Fa.slack-edge.com%2Fdf10d%2Fimg%2Favatars%2Fava_0000-512.png", "custom_css": null}, {"id": 6790, "slack_id": "U08RQCDNAS1", "display_name": "Emily", "bio": null, "projects_count": 0, "devlogs_count": 0, "votes_count": 0, "ships_count": 0, "projects": [], "coding_time_seconds": 0, "coding_time_seconds_today": 0, "balance": "You need to have a pocket watcher badge to view this.", "badges": [], "created_at": "2025-06-17T11:53:10.371-04:00", "updated_at": "2025-07-03T19:41:37.208-04:00", "avatar": "https://avatars.slack-edge.com/2025-05-12/8882414298069_0ea5af3b0fd8d672e37d_original.jpg", "custom_css": null}, {"id": 6791, "slack_id": "U091E2LKK1D", "display_name": "Mohamed Ghamgui", "bio": null, "projects_count": 0, "devlogs_count": 0, "votes_count": 0, "ships_count": 0, "projects": [], "coding_time_seconds": 0, "coding_time_seconds_today": 0, "balance": "You need to have a pocket watcher badge to view this.", "badges": [], "created_at": "2025-06-17T11:53:38.844-04:00", "updated_at": "2025-07-03T19:41:37.479-04:00", "avatar": "https://avatars.slack-edge.com/2025-06-17/9085867771936_3075545966ae22373e60_original.jpg", "custom_css": null}, {"id": 6792, "slack_id": "U091TNHRN4V", "display_name": "Tripto Afsin", "bio": null, "projects_count": 0, "devlogs_count": 0, "votes_count": 0, "ships_count": 0, "projects": [], "coding_time_seconds": 0, "coding_time_seconds_today": 0, "balance": "You need to have a pocket watcher badge to view this.", "badges": [], "created_at": "2025-06-17T11:54:17.670-04:00", "updated_at": "2025-07-03T19:41:37.736-04:00", "avatar": "https://avatars.slack-edge.com/2025-06-17/9061791718181_a04afa721349dc8a5263_original.jpg", "custom_css": null}, {"id": 6793, "slack_id": "U091VDS89LJ", "display_name": "Alp Latif", "bio": null, "projects_count": 0, "devlogs_count": 0, "votes_count": 0, "ships_count": 0, "projects": [], "coding_time_seconds": 0, "coding_time_seconds_today": 0, "balance": "You need to have a pocket watcher badge to view this.", "badges": [], "created_at": "2025-06-17T11:54:48.629-04:00", "updated_at": "2025-07-05T14:08:35.487-04:00", "avatar": "https://secure.gravatar.com/avatar/3ba27ea34f05c6769d3f7db50830c1df.jpg?s=512&d=https%3A%2F%2Fa.slack-edge.com%2Fdf10d%2Fimg%2Favatars%2Fava_0007-512.png", "custom_css": null}, {"id": 6794, "slack_id": "U091VE701T4", "display_name": "ergin", "bio": null, "projects_count": 0, "devlogs_count": 0, "votes_count": 0, "ships_count": 0, "projects": [], "coding_time_seconds": 0, "coding_time_seconds_today": 0, "balance": "You need to have a pocket watcher badge to view this.", "badges": [], "created_at": "2025-06-17T11:55:20.661-04:00", "updated_at": "2025-07-03T19:41:38.127-04:00", "avatar": "https://secure.gravatar.com/avatar/2d8623e068946f591b6f2a43be285962.jpg?s=512&d=https%3A%2F%2Fa.slack-edge.com%2Fdf10d%2Fimg%2Favatars%2Fava_0005-512.png", "custom_css": null}, {"id": 6795, "slack_id": "U092HQZRL8G", "display_name": "Hannes", "bio": null, "projects_count": 3, "devlogs_count": 15, "votes_count": 0, "ships_count": 1, "projects": [{"id": 960, "title": "Time to do it!", "devlogs_count": 12, "created_at": "2025-06-17T12:21:14.584-04:00"}, {"id": 3312, "title": "FaceDiagrammGenerator", "devlogs_count": 0, "created_at": "2025-06-23T19:13:07.177-04:00"}, {"id": 2176, "title": "FIX-IT Hackclub Userscript", "devlogs_count": 3, "created_at": "2025-06-20T11:19:17.752-04:00"}], "coding_time_seconds": 51147, "coding_time_seconds_today": 0, "balance": "You need to have a pocket watcher badge to view this.", "badges": [{"name": "Maiden Voyage", "text": "you shipped your first project! the journey begins...", "icon": "\ud83d\udea2"}], "created_at": "2025-06-17T11:55:23.727-04:00", "updated_at": "2025-09-10T22:54:32.458-04:00", "avatar": "https://secure.gravatar.com/avatar/e8e32fe60989e740024bd3fdcae5567d.jpg?s=512&d=https%3A%2F%2Fa.slack-edge.com%2Fdf10d%2Fimg%2Favatars%2Fava_0024-512.png", "custom_css": null}, {"id": 6796, "slack_id": "U0927S3EUP3", "display_name": "Smarak", "bio": null, "projects_count": 0, "devlogs_count": 0, "votes_count": 0, "ships_count": 0, "projects": [], "coding_time_seconds": 0, "coding_time_seconds_today": 0, "balance": "You need to have a pocket watcher badge to view this.", "badges": [], "created_at": "2025-06-17T11:55:32.365-04:00", "updated_at": "2025-07-03T21:44:34.923-04:00", "avatar": "https://secure.gravatar.com/avatar/aeacf5bbd40837a94687df98f223d1df.jpg?s=512&d=https%3A%2F%2Fa.slack-edge.com%2Fdf10d%2Fimg%2Favatars%2Fava_0020-512.png", "custom_css": null}, {"id": 6797, "slack_id": "U091VEB26RG", "display_name": "bishwa bandhu parmar", "bio": null, "projects_count": 0, "devlogs_count": 0, "votes_count": 0, "ships_count": 0, "projects": [], "coding_time_seconds": 0, "coding_time_seconds_today": 0, "balance": "You need to have a pocket watcher badge to view this.", "badges": [], "created_at": "2025-06-17T11:56:23.922-04:00", "updated_at": "2025-07-03T19:41:38.798-04:00", "avatar": "https://secure.gravatar.com/avatar/7764054736c5005ffe2988ac945f0258.jpg?s=512&d=https%3A%2F%2Fa.slack-edge.com%2Fdf10d%2Fimg%2Favatars%2Fava_0022-512.png", "custom_css": null}, {"id": 6798, "slack_id": "U091E3EN65D", "display_name": "Rahul", "bio": null, "projects_count": 0, "devlogs_count": 0, "votes_count": 0, "ships_count": 0, "projects": [], "coding_time_seconds": 0, "coding_time_seconds_today": 0, "balance": "You need to have a pocket watcher badge to view this.", "badges": [], "created_at": "2025-06-17T11:56:51.332-04:00", "updated_at": "2025-07-03T22:35:05.102-04:00", "avatar": "https://secure.gravatar.com/avatar/8cab78c05e5e87582c49978dfcc53681.jpg?s=512&d=https%3A%2F%2Fa.slack-edge.com%2Fdf10d%2Fimg%2Favatars%2Fava_0019-512.png", "custom_css": null}, {"id": 6799, "slack_id": "U091E3NT3GF", "display_name": "Joao Escudero", "bio": null, "projects_count": 0, "devlogs_count": 0, "votes_count": 0, "ships_count": 0, "projects": [], "coding_time_seconds": 387572, "coding_time_seconds_today": 120, "balance": "You need to have a pocket watcher badge to view this.", "badges": [], "created_at": "2025-06-17T11:56:59.500-04:00", "updated_at": "2025-07-03T19:41:39.208-04:00", "avatar": "https://secure.gravatar.com/avatar/dc1f17035ca8abb6642498f3b100b7ce.jpg?s=512&d=https%3A%2F%2Fa.slack-edge.com%2Fdf10d%2Fimg%2Favatars%2Fava_0022-512.png", "custom_css": null}, {"id": 6800, "slack_id": "U0795DEQH4Y", "display_name": "Ryan", "bio": null, "projects_count": 0, "devlogs_count": 0, "votes_count": 0, "ships_count": 0, "projects": [], "coding_time_seconds": 778, "coding_time_seconds_today": 0, "balance": "You need to have a pocket watcher badge to view this.", "badges": [], "created_at": "2025-06-17T11:57:25.114-04:00", "updated_at": "2025-07-03T19:41:39.478-04:00", "avatar": "https://avatars.slack-edge.com/2025-06-17/9064006151716_f9b51187ad7a60d8ca30_original.jpg", "custom_css": null}], "pagination": {"page": 340, "pages": 1192, "count": 23828, "items": 20}}