{"users": [{"id": 6801, "slack_id": "U091NTNLKRC", "display_name": "Mathias", "bio": null, "projects_count": 0, "devlogs_count": 0, "votes_count": 0, "ships_count": 0, "projects": [], "coding_time_seconds": 0, "coding_time_seconds_today": 0, "balance": "You need to have a pocket watcher badge to view this.", "badges": [], "created_at": "2025-06-17T11:58:08.121-04:00", "updated_at": "2025-07-03T19:41:39.748-04:00", "avatar": "https://secure.gravatar.com/avatar/d8075e14fa6898c65b1529ed6ff16b48.jpg?s=512&d=https%3A%2F%2Fa.slack-edge.com%2Fdf10d%2Fimg%2Favatars%2Fava_0022-512.png", "custom_css": null}, {"id": 6802, "slack_id": "U091TPCB8UD", "display_name": "Maria khan", "bio": null, "projects_count": 0, "devlogs_count": 0, "votes_count": 0, "ships_count": 0, "projects": [], "coding_time_seconds": 0, "coding_time_seconds_today": 0, "balance": "You need to have a pocket watcher badge to view this.", "badges": [], "created_at": "2025-06-17T11:58:23.468-04:00", "updated_at": "2025-07-03T19:41:40.018-04:00", "avatar": "https://secure.gravatar.com/avatar/0cf9ca39fb70bdf03639c55c1ca0ac2e.jpg?s=512&d=https%3A%2F%2Fa.slack-edge.com%2Fdf10d%2Fimg%2Favatars%2Fava_0024-512.png", "custom_css": null}, {"id": 6803, "slack_id": "U091VEPTQP4", "display_name": "Julian Coronado", "bio": null, "projects_count": 0, "devlogs_count": 0, "votes_count": 0, "ships_count": 0, "projects": [], "coding_time_seconds": 3143, "coding_time_seconds_today": 0, "balance": "You need to have a pocket watcher badge to view this.", "badges": [], "created_at": "2025-06-17T11:59:35.895-04:00", "updated_at": "2025-07-03T19:41:40.286-04:00", "avatar": "https://secure.gravatar.com/avatar/e4dff413d08027bce0c8fcafa0ff7b7b.jpg?s=512&d=https%3A%2F%2Fa.slack-edge.com%2Fdf10d%2Fimg%2Favatars%2Fava_0000-512.png", "custom_css": null}, {"id": 6804, "slack_id": "U091VEFTCSW", "display_name": "Koustav Singh", "bio": null, "projects_count": 1, "devlogs_count": 0, "votes_count": 0, "ships_count": 0, "projects": [{"id": 948, "title": "event-organizer", "devlogs_count": 0, "created_at": "2025-06-17T12:09:47.196-04:00"}], "coding_time_seconds": 262995, "coding_time_seconds_today": 0, "balance": "You need to have a pocket watcher badge to view this.", "badges": [], "created_at": "2025-06-17T11:59:44.137-04:00", "updated_at": "2025-07-03T19:41:40.552-04:00", "avatar": "https://secure.gravatar.com/avatar/e32ef80e667d4b51d00caba73b9486f7.jpg?s=512&d=https%3A%2F%2Fa.slack-edge.com%2Fdf10d%2Fimg%2Favatars%2Fava_0008-512.png", "custom_css": null}, {"id": 6805, "slack_id": "U09283VRJQ1", "display_name": "Anvi", "bio": null, "projects_count": 0, "devlogs_count": 0, "votes_count": 0, "ships_count": 0, "projects": [], "coding_time_seconds": 0, "coding_time_seconds_today": 0, "balance": "You need to have a pocket watcher badge to view this.", "badges": [], "created_at": "2025-06-17T12:01:35.939-04:00", "updated_at": "2025-07-05T20:08:01.002-04:00", "avatar": "https://secure.gravatar.com/avatar/e76edd32d8ace088a58521d9e196ce01.jpg?s=512&d=https%3A%2F%2Fa.slack-edge.com%2Fdf10d%2Fimg%2Favatars%2Fava_0011-512.png", "custom_css": null}, {"id": 6806, "slack_id": "U092HST9DCG", "display_name": "Alex Williams", "bio": null, "projects_count": 0, "devlogs_count": 0, "votes_count": 0, "ships_count": 0, "projects": [], "coding_time_seconds": 0, "coding_time_seconds_today": 0, "balance": "You need to have a pocket watcher badge to view this.", "badges": [], "created_at": "2025-06-17T12:01:36.400-04:00", "updated_at": "2025-07-03T19:41:40.951-04:00", "avatar": "https://avatars.slack-edge.com/2025-06-17/9085928874224_7dd27472ce2a8733e329_original.jpg", "custom_css": null}, {"id": 6807, "slack_id": "U091E4K7E87", "display_name": "Satyam Kadavla", "bio": null, "projects_count": 0, "devlogs_count": 0, "votes_count": 0, "ships_count": 0, "projects": [], "coding_time_seconds": 0, "coding_time_seconds_today": 0, "balance": "You need to have a pocket watcher badge to view this.", "badges": [], "created_at": "2025-06-17T12:01:55.773-04:00", "updated_at": "2025-07-03T19:41:41.221-04:00", "avatar": "https://avatars.slack-edge.com/2025-06-17/9056994154006_3e859fd5f4f44dea1413_original.png", "custom_css": null}, {"id": 6808, "slack_id": "U091VFSGN10", "display_name": "Ish Thumber", "bio": null, "projects_count": 0, "devlogs_count": 0, "votes_count": 0, "ships_count": 0, "projects": [], "coding_time_seconds": 16373, "coding_time_seconds_today": 0, "balance": "You need to have a pocket watcher badge to view this.", "badges": [], "created_at": "2025-06-17T12:02:05.768-04:00", "updated_at": "2025-07-03T19:41:41.500-04:00", "avatar": "https://avatars.slack-edge.com/2025-06-17/9076152931937_dcfee3779543f977c156_original.png", "custom_css": null}, {"id": 6809, "slack_id": "U091N006694", "display_name": "Treasure Umute", "bio": null, "projects_count": 0, "devlogs_count": 0, "votes_count": 0, "ships_count": 0, "projects": [], "coding_time_seconds": 0, "coding_time_seconds_today": 0, "balance": "You need to have a pocket watcher badge to view this.", "badges": [], "created_at": "2025-06-17T12:02:08.631-04:00", "updated_at": "2025-07-03T19:41:41.781-04:00", "avatar": "https://avatars.slack-edge.com/2025-06-17/9061855236837_379503b8781fb45480e3_original.png", "custom_css": null}, {"id": 6810, "slack_id": "U09283Y7RPB", "display_name": "henry", "bio": null, "projects_count": 0, "devlogs_count": 0, "votes_count": 0, "ships_count": 0, "projects": [], "coding_time_seconds": 2925, "coding_time_seconds_today": 0, "balance": "You need to have a pocket watcher badge to view this.", "badges": [], "created_at": "2025-06-17T12:02:15.410-04:00", "updated_at": "2025-07-03T19:41:42.045-04:00", "avatar": "https://secure.gravatar.com/avatar/a0612a0efefe13b7470295bf5ae20415.jpg?s=512&d=https%3A%2F%2Fa.slack-edge.com%2Fdf10d%2Fimg%2Favatars%2Fava_0003-512.png", "custom_css": null}, {"id": 6811, "slack_id": "U091NMDHJTD", "display_name": "Liz Leon", "bio": null, "projects_count": 0, "devlogs_count": 0, "votes_count": 0, "ships_count": 0, "projects": [], "coding_time_seconds": 112532, "coding_time_seconds_today": 0, "balance": "You need to have a pocket watcher badge to view this.", "badges": [], "created_at": "2025-06-17T12:03:26.237-04:00", "updated_at": "2025-07-03T19:41:42.317-04:00", "avatar": "https://secure.gravatar.com/avatar/9fc6f36244c4c1e8b4631df132ced115.jpg?s=512&d=https%3A%2F%2Fa.slack-edge.com%2Fdf10d%2Fimg%2Favatars%2Fava_0015-512.png", "custom_css": null}, {"id": 6812, "slack_id": "U09280VNQCR", "display_name": "Ritam", "bio": null, "projects_count": 0, "devlogs_count": 0, "votes_count": 0, "ships_count": 0, "projects": [], "coding_time_seconds": 0, "coding_time_seconds_today": 0, "balance": "You need to have a pocket watcher badge to view this.", "badges": [], "created_at": "2025-06-17T12:03:27.051-04:00", "updated_at": "2025-07-04T08:22:16.372-04:00", "avatar": "https://secure.gravatar.com/avatar/09e654e785747a06d243b838f7c22c33.jpg?s=512&d=https%3A%2F%2Fa.slack-edge.com%2Fdf10d%2Fimg%2Favatars%2Fava_0017-512.png", "custom_css": null}, {"id": 6813, "slack_id": "U091VG36PUJ", "display_name": "akshatmisha", "bio": null, "projects_count": 0, "devlogs_count": 0, "votes_count": 0, "ships_count": 0, "projects": [], "coding_time_seconds": 0, "coding_time_seconds_today": 0, "balance": "You need to have a pocket watcher badge to view this.", "badges": [], "created_at": "2025-06-17T12:03:41.411-04:00", "updated_at": "2025-07-03T19:41:42.801-04:00", "avatar": "https://secure.gravatar.com/avatar/f548b7d06774e88b8316eee3c9c3b9c0.jpg?s=512&d=https%3A%2F%2Fa.slack-edge.com%2Fdf10d%2Fimg%2Favatars%2Fava_0009-512.png", "custom_css": null}, {"id": 6814, "slack_id": "U091TR74RAR", "display_name": "Nischal", "bio": null, "projects_count": 0, "devlogs_count": 0, "votes_count": 0, "ships_count": 0, "projects": [], "coding_time_seconds": 66593, "coding_time_seconds_today": 0, "balance": "You need to have a pocket watcher badge to view this.", "badges": [], "created_at": "2025-06-17T12:03:51.487-04:00", "updated_at": "2025-07-03T19:41:43.058-04:00", "avatar": "https://secure.gravatar.com/avatar/4f52c6ab60ecd384b259aebea10e8ef0.jpg?s=512&d=https%3A%2F%2Fa.slack-edge.com%2Fdf10d%2Fimg%2Favatars%2Fava_0013-512.png", "custom_css": null}, {"id": 6815, "slack_id": "U078WKRADEK", "display_name": "Sami G", "bio": null, "projects_count": 0, "devlogs_count": 2, "votes_count": 0, "ships_count": 0, "projects": [], "coding_time_seconds": 502423, "coding_time_seconds_today": 0, "balance": "You need to have a pocket watcher badge to view this.", "badges": [], "created_at": "2025-06-17T12:03:56.984-04:00", "updated_at": "2025-08-06T14:56:53.456-04:00", "avatar": "https://secure.gravatar.com/avatar/640a8e82b0753f86ddfda421af153456.jpg?s=512&d=https%3A%2F%2Fa.slack-edge.com%2Fdf10d%2Fimg%2Favatars%2Fava_0011-512.png", "custom_css": null}, {"id": 6816, "slack_id": "U092HTC1UV6", "display_name": "matixandr", "bio": null, "projects_count": 2, "devlogs_count": 0, "votes_count": 0, "ships_count": 0, "projects": [{"id": 1038, "title": "BloatOS", "devlogs_count": 0, "created_at": "2025-06-17T14:09:29.948-04:00"}, {"id": 1317, "title": "TermTube", "devlogs_count": 0, "created_at": "2025-06-18T08:14:22.570-04:00"}], "coding_time_seconds": 19011, "coding_time_seconds_today": 0, "balance": "You need to have a pocket watcher badge to view this.", "badges": [], "created_at": "2025-06-17T12:04:20.483-04:00", "updated_at": "2025-07-03T19:41:43.453-04:00", "avatar": "https://secure.gravatar.com/avatar/e8da3e276dbf72b5761f196a34193885.jpg?s=512&d=https%3A%2F%2Fa.slack-edge.com%2Fdf10d%2Fimg%2Favatars%2Fava_0001-512.png", "custom_css": null}, {"id": 6817, "slack_id": "U082G71UZBK", "display_name": "luna", "bio": null, "projects_count": 2, "devlogs_count": 10, "votes_count": 17, "ships_count": 1, "projects": [{"id": 951, "title": "meower", "devlogs_count": 1, "created_at": "2025-06-17T12:12:03.321-04:00"}, {"id": 4473, "title": "d6", "devlogs_count": 9, "created_at": "2025-06-30T06:21:14.456-04:00"}], "coding_time_seconds": 32442, "coding_time_seconds_today": 0, "balance": "You need to have a pocket watcher badge to view this.", "badges": [{"name": "Maiden Voyage", "text": "you shipped your first project! the journey begins...", "icon": "\ud83d\udea2"}], "created_at": "2025-06-17T12:04:22.035-04:00", "updated_at": "2025-09-10T22:54:33.048-04:00", "avatar": "https://avatars.slack-edge.com/2024-11-22/8074135718548_02fe8dcb5af64b1366c4_original.jpg", "custom_css": null}, {"id": 6818, "slack_id": "U091NPV0AH1", "display_name": "Rahul Drabit", "bio": null, "projects_count": 0, "devlogs_count": 0, "votes_count": 0, "ships_count": 0, "projects": [], "coding_time_seconds": 0, "coding_time_seconds_today": 0, "balance": "You need to have a pocket watcher badge to view this.", "badges": [], "created_at": "2025-06-17T12:04:25.626-04:00", "updated_at": "2025-07-03T19:41:43.970-04:00", "avatar": "https://avatars.slack-edge.com/2025-06-17/9061873220005_9392a01622b9726cec37_original.jpg", "custom_css": null}, {"id": 6819, "slack_id": "U09284MN07K", "display_name": "Jiri Zelenka", "bio": null, "projects_count": 0, "devlogs_count": 0, "votes_count": 0, "ships_count": 0, "projects": [], "coding_time_seconds": 0, "coding_time_seconds_today": 0, "balance": "You need to have a pocket watcher badge to view this.", "badges": [], "created_at": "2025-06-17T12:04:55.754-04:00", "updated_at": "2025-07-03T19:41:44.230-04:00", "avatar": "https://secure.gravatar.com/avatar/160d991a696f90b15836ae06206627db.jpg?s=512&d=https%3A%2F%2Fa.slack-edge.com%2Fdf10d%2Fimg%2Favatars%2Fava_0006-512.png", "custom_css": null}, {"id": 6820, "slack_id": "U092HTQTTLY", "display_name": "Robert Mans", "bio": null, "projects_count": 1, "devlogs_count": 1, "votes_count": 0, "ships_count": 0, "projects": [{"id": 13254, "title": "Budgie Lang", "devlogs_count": 1, "created_at": "2025-09-12T14:27:50.452-04:00"}], "coding_time_seconds": 20935, "coding_time_seconds_today": 0, "balance": "You need to have a pocket watcher badge to view this.", "badges": [], "created_at": "2025-06-17T12:06:02.553-04:00", "updated_at": "2025-09-12T14:28:03.029-04:00", "avatar": "https://avatars.slack-edge.com/2025-06-17/9063581895458_fd8f5e4f773d4d92e0cf_original.png", "custom_css": null}], "pagination": {"page": 341, "pages": 1192, "count": 23828, "items": 20}}