{"users": [{"id": 6861, "slack_id": "U091TV8NWBF", "display_name": "Manas Goyal", "bio": null, "projects_count": 0, "devlogs_count": 0, "votes_count": 0, "ships_count": 0, "projects": [], "coding_time_seconds": 8769, "coding_time_seconds_today": 0, "balance": "You need to have a pocket watcher badge to view this.", "badges": [], "created_at": "2025-06-17T12:26:20.168-04:00", "updated_at": "2025-07-03T19:41:53.912-04:00", "avatar": "https://avatars.slack-edge.com/2025-06-17/9086079590512_9c88d967fdd0c8f80e3c_original.png", "custom_css": null}, {"id": 6862, "slack_id": "U07M1A2CUQ7", "display_name": "Aadhish", "bio": null, "projects_count": 0, "devlogs_count": 0, "votes_count": 0, "ships_count": 0, "projects": [], "coding_time_seconds": 0, "coding_time_seconds_today": 0, "balance": "You need to have a pocket watcher badge to view this.", "badges": [], "created_at": "2025-06-17T12:26:32.297-04:00", "updated_at": "2025-07-03T22:35:09.604-04:00", "avatar": "https://avatars.slack-edge.com/2025-06-10/9021872021702_81235474573a26d3aa51_original.png", "custom_css": null}, {"id": 6863, "slack_id": "U08B2U3BPAS", "display_name": "Aidan", "bio": null, "projects_count": 0, "devlogs_count": 0, "votes_count": 0, "ships_count": 0, "projects": [], "coding_time_seconds": 0, "coding_time_seconds_today": 0, "balance": "You need to have a pocket watcher badge to view this.", "badges": [], "created_at": "2025-06-17T12:26:55.868-04:00", "updated_at": "2025-07-04T08:22:19.748-04:00", "avatar": "https://secure.gravatar.com/avatar/8b88d51cdf0286bdf6df1a7d05288cfd.jpg?s=512&d=https%3A%2F%2Fa.slack-edge.com%2Fdf10d%2Fimg%2Favatars%2Fava_0007-512.png", "custom_css": null}, {"id": 6864, "slack_id": "U091VL8L8BU", "display_name": "Jaspreet Singh", "bio": null, "projects_count": 0, "devlogs_count": 0, "votes_count": 0, "ships_count": 0, "projects": [], "coding_time_seconds": 0, "coding_time_seconds_today": 0, "balance": "You need to have a pocket watcher badge to view this.", "badges": [], "created_at": "2025-06-17T12:27:01.363-04:00", "updated_at": "2025-07-03T19:41:54.455-04:00", "avatar": "https://avatars.slack-edge.com/2025-06-17/9063705931170_201d3026c6fa9d2b40b0_original.png", "custom_css": null}, {"id": 6865, "slack_id": "U091MNW8ZNX", "display_name": "anmpty", "bio": null, "projects_count": 1, "devlogs_count": 3, "votes_count": 0, "ships_count": 0, "projects": [{"id": 3196, "title": "terminally online shrine", "devlogs_count": 3, "created_at": "2025-06-23T11:56:14.178-04:00"}], "coding_time_seconds": 63574, "coding_time_seconds_today": 0, "balance": "You need to have a pocket watcher badge to view this.", "badges": [], "created_at": "2025-06-17T12:27:35.609-04:00", "updated_at": "2025-07-04T02:26:07.286-04:00", "avatar": "https://avatars.slack-edge.com/2025-06-17/9057403605715_f509453bdf4dbc8cea08_original.jpg", "custom_css": null}, {"id": 6866, "slack_id": "U091E919S8P", "display_name": "Guna", "bio": null, "projects_count": 0, "devlogs_count": 0, "votes_count": 0, "ships_count": 0, "projects": [], "coding_time_seconds": 0, "coding_time_seconds_today": 0, "balance": "You need to have a pocket watcher badge to view this.", "badges": [], "created_at": "2025-06-17T12:27:41.551-04:00", "updated_at": "2025-07-03T19:41:54.859-04:00", "avatar": "https://secure.gravatar.com/avatar/87836e355133a5f5f12f8e7fd328910f.jpg?s=512&d=https%3A%2F%2Fa.slack-edge.com%2Fdf10d%2Fimg%2Favatars%2Fava_0006-512.png", "custom_css": null}, {"id": 6867, "slack_id": "U091P4EAF6J", "display_name": "Freela Rag", "bio": null, "projects_count": 0, "devlogs_count": 0, "votes_count": 0, "ships_count": 0, "projects": [], "coding_time_seconds": 0, "coding_time_seconds_today": 0, "balance": "You need to have a pocket watcher badge to view this.", "badges": [], "created_at": "2025-06-17T12:28:26.914-04:00", "updated_at": "2025-07-03T19:41:55.119-04:00", "avatar": "https://secure.gravatar.com/avatar/2e867798bc939f92962f1d4ad7ad6329.jpg?s=512&d=https%3A%2F%2Fa.slack-edge.com%2Fdf10d%2Fimg%2Favatars%2Fava_0010-512.png", "custom_css": null}, {"id": 6868, "slack_id": "U092J2AFMCY", "display_name": "Padmnabh Tewari", "bio": null, "projects_count": 0, "devlogs_count": 0, "votes_count": 0, "ships_count": 0, "projects": [], "coding_time_seconds": 0, "coding_time_seconds_today": 0, "balance": "You need to have a pocket watcher badge to view this.", "badges": [], "created_at": "2025-06-17T12:28:48.324-04:00", "updated_at": "2025-07-03T19:41:55.381-04:00", "avatar": "https://secure.gravatar.com/avatar/299ffb1bf31496095c16ae6229a481e8.jpg?s=512&d=https%3A%2F%2Fa.slack-edge.com%2Fdf10d%2Fimg%2Favatars%2Fava_0026-512.png", "custom_css": null}, {"id": 6869, "slack_id": "U09288TEW0Z", "display_name": "Alex Naranjo", "bio": null, "projects_count": 1, "devlogs_count": 3, "votes_count": 0, "ships_count": 0, "projects": [{"id": 1079, "title": "CHIP8 Emulator", "devlogs_count": 3, "created_at": "2025-06-17T15:34:23.273-04:00"}], "coding_time_seconds": 54205, "coding_time_seconds_today": 0, "balance": "You need to have a pocket watcher badge to view this.", "badges": [], "created_at": "2025-06-17T12:28:53.363-04:00", "updated_at": "2025-07-03T21:56:35.247-04:00", "avatar": "https://secure.gravatar.com/avatar/9d13f9a7bbf85ce05f52a3bc824f0827.jpg?s=512&d=https%3A%2F%2Fa.slack-edge.com%2Fdf10d%2Fimg%2Favatars%2Fava_0026-512.png", "custom_css": null}, {"id": 6870, "slack_id": "U078LRNGUAG", "display_name": "Finnland", "bio": null, "projects_count": 4, "devlogs_count": 8, "votes_count": 0, "ships_count": 0, "projects": [{"id": 1016, "title": "Msgs", "devlogs_count": 1, "created_at": "2025-06-17T13:43:28.248-04:00"}, {"id": 11620, "title": "WRC Live Updates", "devlogs_count": 1, "created_at": "2025-08-17T18:59:53.262-04:00"}, {"id": 3339, "title": "Motive - Notes, Writing, & Productivity", "devlogs_count": 5, "created_at": "2025-06-23T22:14:55.553-04:00"}, {"id": 11615, "title": "Fan-Stand", "devlogs_count": 1, "created_at": "2025-08-17T18:33:42.932-04:00"}], "coding_time_seconds": 63727, "coding_time_seconds_today": 0, "balance": "You need to have a pocket watcher badge to view this.", "badges": [], "created_at": "2025-06-17T12:30:12.302-04:00", "updated_at": "2025-09-22T10:53:21.408-04:00", "avatar": "https://avatars.slack-edge.com/2024-09-14/7753095982464_8811b7f4b64555e963b1_original.png", "custom_css": null}, {"id": 6871, "slack_id": "U092770LB5X", "display_name": "Gabrijel", "bio": null, "projects_count": 0, "devlogs_count": 77, "votes_count": 37, "ships_count": 0, "projects": [], "coding_time_seconds": 433449, "coding_time_seconds_today": 0, "balance": "You need to have a pocket watcher badge to view this.", "badges": [{"name": "Maiden Voyage", "text": "you shipped your first project! the journey begins...", "icon": "\ud83d\udea2"}, {"name": "Ballot Stuffer", "text": "vote 100 times.", "icon": "https://summer.hackclub.com/assets/i_voted-bf851b48.png"}], "created_at": "2025-06-17T12:30:18.054-04:00", "updated_at": "2025-09-10T22:54:34.514-04:00", "avatar": "https://secure.gravatar.com/avatar/4a1280d62866d6fde07979dc349c707b.jpg?s=512&d=https%3A%2F%2Fa.slack-edge.com%2Fdf10d%2Fimg%2Favatars%2Fava_0001-512.png", "custom_css": null}, {"id": 6872, "slack_id": "U091NULQMR9", "display_name": "Vishal", "bio": null, "projects_count": 0, "devlogs_count": 0, "votes_count": 0, "ships_count": 0, "projects": [], "coding_time_seconds": 0, "coding_time_seconds_today": 0, "balance": "You need to have a pocket watcher badge to view this.", "badges": [], "created_at": "2025-06-17T12:30:29.441-04:00", "updated_at": "2025-07-03T19:41:56.211-04:00", "avatar": "https://secure.gravatar.com/avatar/0a1b16af63c1028dd768f6c78822a6bb.jpg?s=512&d=https%3A%2F%2Fa.slack-edge.com%2Fdf10d%2Fimg%2Favatars%2Fava_0022-512.png", "custom_css": null}, {"id": 6873, "slack_id": "U091VM24RH8", "display_name": "Khushiyant", "bio": null, "projects_count": 0, "devlogs_count": 0, "votes_count": 0, "ships_count": 0, "projects": [], "coding_time_seconds": 295003, "coding_time_seconds_today": 0, "balance": "You need to have a pocket watcher badge to view this.", "badges": [], "created_at": "2025-06-17T12:31:03.634-04:00", "updated_at": "2025-07-03T19:41:56.492-04:00", "avatar": "https://secure.gravatar.com/avatar/617454d8d82c4152de3c8befbd39575d.jpg?s=512&d=https%3A%2F%2Fa.slack-edge.com%2Fdf10d%2Fimg%2Favatars%2Fava_0018-512.png", "custom_css": null}, {"id": 6874, "slack_id": "U07KGLVRXED", "display_name": "praveen kumawat", "bio": null, "projects_count": 0, "devlogs_count": 0, "votes_count": 0, "ships_count": 0, "projects": [], "coding_time_seconds": 0, "coding_time_seconds_today": 0, "balance": "You need to have a pocket watcher badge to view this.", "badges": [], "created_at": "2025-06-17T12:31:09.170-04:00", "updated_at": "2025-07-03T19:41:56.754-04:00", "avatar": "https://secure.gravatar.com/avatar/33299a93dc23a72446a9a4b489acb5b2.jpg?s=512&d=https%3A%2F%2Fa.slack-edge.com%2Fdf10d%2Fimg%2Favatars%2Fava_0020-512.png", "custom_css": null}, {"id": 6875, "slack_id": "U092J300E9E", "display_name": "saamir", "bio": null, "projects_count": 0, "devlogs_count": 0, "votes_count": 0, "ships_count": 0, "projects": [], "coding_time_seconds": 0, "coding_time_seconds_today": 0, "balance": "You need to have a pocket watcher badge to view this.", "badges": [], "created_at": "2025-06-17T12:32:20.862-04:00", "updated_at": "2025-07-03T19:41:57.031-04:00", "avatar": "https://secure.gravatar.com/avatar/57e60c0ef8393a4ceaa08018e81dce6b.jpg?s=512&d=https%3A%2F%2Fa.slack-edge.com%2Fdf10d%2Fimg%2Favatars%2Fava_0010-512.png", "custom_css": null}, {"id": 6876, "slack_id": "U091G9V563G", "display_name": "curlyfries", "bio": null, "projects_count": 0, "devlogs_count": 0, "votes_count": 0, "ships_count": 0, "projects": [], "coding_time_seconds": 0, "coding_time_seconds_today": 0, "balance": "You need to have a pocket watcher badge to view this.", "badges": [], "created_at": "2025-06-17T12:32:25.589-04:00", "updated_at": "2025-07-03T19:41:57.303-04:00", "avatar": "https://secure.gravatar.com/avatar/c0c68212b540556baea9e4e19c7707ba.jpg?s=512&d=https%3A%2F%2Fa.slack-edge.com%2Fdf10d%2Fimg%2Favatars%2Fava_0024-512.png", "custom_css": null}, {"id": 6877, "slack_id": "U091U14DJ6R", "display_name": "MANAS UNIYAL", "bio": null, "projects_count": 1, "devlogs_count": 0, "votes_count": 0, "ships_count": 0, "projects": [{"id": 1019, "title": "Node Js - CRUD", "devlogs_count": 0, "created_at": "2025-06-17T13:51:41.202-04:00"}], "coding_time_seconds": 124431, "coding_time_seconds_today": 0, "balance": "You need to have a pocket watcher badge to view this.", "badges": [], "created_at": "2025-06-17T12:32:38.035-04:00", "updated_at": "2025-07-03T19:41:57.578-04:00", "avatar": "https://avatars.slack-edge.com/2025-06-17/9063743071266_19b291ab0e8ccfde2e39_original.png", "custom_css": null}, {"id": 6878, "slack_id": "U091N93AB1R", "display_name": "Emily", "bio": null, "projects_count": 0, "devlogs_count": 0, "votes_count": 0, "ships_count": 0, "projects": [], "coding_time_seconds": 120, "coding_time_seconds_today": 0, "balance": "You need to have a pocket watcher badge to view this.", "badges": [], "created_at": "2025-06-17T12:32:57.913-04:00", "updated_at": "2025-07-03T19:41:57.851-04:00", "avatar": "https://secure.gravatar.com/avatar/4db834624241427e4387fa9158bc8463.jpg?s=512&d=https%3A%2F%2Fa.slack-edge.com%2Fdf10d%2Fimg%2Favatars%2Fava_0005-512.png", "custom_css": null}, {"id": 6879, "slack_id": "U0660QZ5GSK", "display_name": "Alex Wang", "bio": null, "projects_count": 3, "devlogs_count": 6, "votes_count": 6, "ships_count": 3, "projects": [{"id": 7457, "title": "Dan - Ethical AI College Essay Coach", "devlogs_count": 2, "created_at": "2025-07-21T21:21:30.330-04:00"}, {"id": 7945, "title": "Haloway - Ethical AI College Essay Writing Platform", "devlogs_count": 2, "created_at": "2025-07-23T18:48:20.357-04:00"}, {"id": 8124, "title": "Snapsi API: Domain Finder", "devlogs_count": 1, "created_at": "2025-07-24T19:23:59.593-04:00"}], "coding_time_seconds": 514967, "coding_time_seconds_today": 0, "balance": "You need to have a pocket watcher badge to view this.", "badges": [{"name": "Maiden Voyage", "text": "you shipped your first project! the journey begins...", "icon": "\ud83d\udea2"}], "created_at": "2025-06-17T12:32:58.945-04:00", "updated_at": "2025-09-20T20:21:03.347-04:00", "avatar": "https://avatars.slack-edge.com/2024-07-20/7439236854935_4e2475900ed57c243c97_original.png", "custom_css": null}, {"id": 6880, "slack_id": "U091U16TNSH", "display_name": "Adi", "bio": null, "projects_count": 0, "devlogs_count": 0, "votes_count": 0, "ships_count": 0, "projects": [], "coding_time_seconds": 0, "coding_time_seconds_today": 0, "balance": "You need to have a pocket watcher badge to view this.", "badges": [], "created_at": "2025-06-17T12:33:07.440-04:00", "updated_at": "2025-07-05T02:07:42.940-04:00", "avatar": "https://avatars.slack-edge.com/2025-06-17/9076345530865_9be2e4bfb327c8b03307_original.png", "custom_css": null}], "pagination": {"page": 344, "pages": 1192, "count": 23828, "items": 20}}