{"users": [{"id": 6901, "slack_id": "U082S1JJVB9", "display_name": "emma", "bio": null, "projects_count": 0, "devlogs_count": 0, "votes_count": 0, "ships_count": 0, "projects": [], "coding_time_seconds": 156, "coding_time_seconds_today": 0, "balance": "You need to have a pocket watcher badge to view this.", "badges": [], "created_at": "2025-06-17T12:45:28.306-04:00", "updated_at": "2025-07-03T19:42:02.995-04:00", "avatar": "https://secure.gravatar.com/avatar/4d70fbfee1408a61a28ba85dc0601607.jpg?s=512&d=https%3A%2F%2Fa.slack-edge.com%2Fdf10d%2Fimg%2Favatars%2Fava_0025-512.png", "custom_css": null}, {"id": 6902, "slack_id": "U091P2B6JEP", "display_name": "Soham", "bio": null, "projects_count": 0, "devlogs_count": 0, "votes_count": 0, "ships_count": 0, "projects": [], "coding_time_seconds": 88662, "coding_time_seconds_today": 0, "balance": "You need to have a pocket watcher badge to view this.", "badges": [], "created_at": "2025-06-17T12:45:39.527-04:00", "updated_at": "2025-07-03T19:42:03.280-04:00", "avatar": "https://secure.gravatar.com/avatar/17613b143cf38958d7fd123d3f5a3e4d.jpg?s=512&d=https%3A%2F%2Fa.slack-edge.com%2Fdf10d%2Fimg%2Favatars%2Fava_0019-512.png", "custom_css": null}, {"id": 6903, "slack_id": "U091ECP29HV", "display_name": "yash", "bio": null, "projects_count": 0, "devlogs_count": 0, "votes_count": 0, "ships_count": 0, "projects": [], "coding_time_seconds": 0, "coding_time_seconds_today": 0, "balance": "You need to have a pocket watcher badge to view this.", "badges": [], "created_at": "2025-06-17T12:45:56.474-04:00", "updated_at": "2025-07-03T19:42:03.553-04:00", "avatar": "https://secure.gravatar.com/avatar/51207f416e460dcd3db785aab9738dcd.jpg?s=512&d=https%3A%2F%2Fa.slack-edge.com%2Fdf10d%2Fimg%2Favatars%2Fava_0009-512.png", "custom_css": null}, {"id": 6904, "slack_id": "U08MFDS4KST", "display_name": "Adrian Moreno", "bio": null, "projects_count": 1, "devlogs_count": 1, "votes_count": 0, "ships_count": 0, "projects": [{"id": 3537, "title": "Escape.EXE", "devlogs_count": 1, "created_at": "2025-06-24T15:58:12.053-04:00"}], "coding_time_seconds": 21342, "coding_time_seconds_today": 0, "balance": "You need to have a pocket watcher badge to view this.", "badges": [], "created_at": "2025-06-17T12:46:18.697-04:00", "updated_at": "2025-07-03T19:42:03.821-04:00", "avatar": "https://avatars.slack-edge.com/2025-04-11/8747957545059_7e9e4d5c1b9cf754b27d_original.png", "custom_css": null}, {"id": 6905, "slack_id": "U091U3DC7GD", "display_name": "albert", "bio": null, "projects_count": 0, "devlogs_count": 0, "votes_count": 0, "ships_count": 0, "projects": [], "coding_time_seconds": 0, "coding_time_seconds_today": 0, "balance": "You need to have a pocket watcher badge to view this.", "badges": [], "created_at": "2025-06-17T12:47:02.496-04:00", "updated_at": "2025-07-03T19:42:04.096-04:00", "avatar": "https://secure.gravatar.com/avatar/4da6e56523f8286a928fe7bc2f664ca8.jpg?s=512&d=https%3A%2F%2Fa.slack-edge.com%2Fdf10d%2Fimg%2Favatars%2Fava_0000-512.png", "custom_css": null}, {"id": 6906, "slack_id": "U091W6D348L", "display_name": "Prasenjeet Singh", "bio": null, "projects_count": 0, "devlogs_count": 0, "votes_count": 0, "ships_count": 0, "projects": [], "coding_time_seconds": 25337, "coding_time_seconds_today": 0, "balance": "You need to have a pocket watcher badge to view this.", "badges": [], "created_at": "2025-06-17T12:47:08.699-04:00", "updated_at": "2025-07-03T19:42:04.370-04:00", "avatar": "https://secure.gravatar.com/avatar/d4964438c19751e881c3c9aef2fc65ff.jpg?s=512&d=https%3A%2F%2Fa.slack-edge.com%2Fdf10d%2Fimg%2Favatars%2Fava_0020-512.png", "custom_css": null}, {"id": 6907, "slack_id": "U091P2B5H27", "display_name": "Aren", "bio": null, "projects_count": 0, "devlogs_count": 0, "votes_count": 0, "ships_count": 0, "projects": [], "coding_time_seconds": 0, "coding_time_seconds_today": 0, "balance": "You need to have a pocket watcher badge to view this.", "badges": [], "created_at": "2025-06-17T12:47:14.221-04:00", "updated_at": "2025-07-03T19:42:04.637-04:00", "avatar": "https://secure.gravatar.com/avatar/7d1be25f4fa77971b01f8b0a6a0dabd7.jpg?s=512&d=https%3A%2F%2Fa.slack-edge.com%2Fdf10d%2Fimg%2Favatars%2Fava_0019-512.png", "custom_css": null}, {"id": 6908, "slack_id": "U091W6G8NTW", "display_name": "Dominik", "bio": null, "projects_count": 1, "devlogs_count": 2, "votes_count": 2, "ships_count": 1, "projects": [{"id": 1008, "title": "zbiorkom.live", "devlogs_count": 2, "created_at": "2025-06-17T13:31:49.005-04:00"}], "coding_time_seconds": 642548, "coding_time_seconds_today": 2131, "balance": "You need to have a pocket watcher badge to view this.", "badges": [{"name": "Maiden Voyage", "text": "you shipped your first project! the journey begins...", "icon": "\ud83d\udea2"}], "created_at": "2025-06-17T12:48:27.049-04:00", "updated_at": "2025-09-10T22:54:35.468-04:00", "avatar": "https://secure.gravatar.com/avatar/7e7ded3ca4b875547197ade4cb38d930.jpg?s=512&d=https%3A%2F%2Fa.slack-edge.com%2Fdf10d%2Fimg%2Favatars%2Fava_0000-512.png", "custom_css": null}, {"id": 6909, "slack_id": "U091U3UPT1B", "display_name": "Sai Giridhar Chitturi", "bio": null, "projects_count": 0, "devlogs_count": 0, "votes_count": 0, "ships_count": 0, "projects": [], "coding_time_seconds": 0, "coding_time_seconds_today": 0, "balance": "You need to have a pocket watcher badge to view this.", "badges": [], "created_at": "2025-06-17T12:48:33.794-04:00", "updated_at": "2025-07-03T19:42:05.164-04:00", "avatar": "https://secure.gravatar.com/avatar/2a6c2fa8454fa638d796ac2ce47a7790.jpg?s=512&d=https%3A%2F%2Fa.slack-edge.com%2Fdf10d%2Fimg%2Favatars%2Fava_0017-512.png", "custom_css": null}, {"id": 6910, "slack_id": "U091L4NH4JJ", "display_name": "isaac m", "bio": null, "projects_count": 5, "devlogs_count": 31, "votes_count": 60, "ships_count": 4, "projects": [{"id": 10652, "title": "echo protocol", "devlogs_count": 11, "created_at": "2025-08-09T10:24:46.357-04:00"}, {"id": 12723, "title": "Radius", "devlogs_count": 0, "created_at": "2025-09-01T14:08:41.072-04:00"}, {"id": 12983, "title": "Flopper", "devlogs_count": 12, "created_at": "2025-09-06T14:32:11.284-04:00"}, {"id": 13308, "title": "Huttese", "devlogs_count": 2, "created_at": "2025-09-13T17:32:19.584-04:00"}, {"id": 9300, "title": "moodbeats", "devlogs_count": 4, "created_at": "2025-07-31T12:25:40.533-04:00"}], "coding_time_seconds": 185576, "coding_time_seconds_today": 0, "balance": "You need to have a pocket watcher badge to view this.", "badges": [{"name": "Maiden Voyage", "text": "you shipped your first project! the journey begins...", "icon": "\ud83d\udea2"}], "created_at": "2025-06-17T12:48:52.152-04:00", "updated_at": "2025-09-10T22:54:35.521-04:00", "avatar": "https://secure.gravatar.com/avatar/8c6fe88a4461768f94caca95534463c5.jpg?s=512&d=https%3A%2F%2Fa.slack-edge.com%2Fdf10d%2Fimg%2Favatars%2Fava_0024-512.png", "custom_css": null}, {"id": 6911, "slack_id": "U091U3X98N9", "display_name": "Cantorolli", "bio": "Soon to be high school senior trying to take part in entertaining stuff before getting slammed with work in September!", "projects_count": 1, "devlogs_count": 2, "votes_count": 0, "ships_count": 0, "projects": [{"id": 3936, "title": "Monster Hunter Timing Minigame", "devlogs_count": 2, "created_at": "2025-06-26T11:56:14.742-04:00"}], "coding_time_seconds": 30701, "coding_time_seconds_today": 0, "balance": "You need to have a pocket watcher badge to view this.", "badges": [], "created_at": "2025-06-17T12:49:09.299-04:00", "updated_at": "2025-08-06T21:53:32.831-04:00", "avatar": "https://avatars.slack-edge.com/2025-07-18/9235815899761_26e219044673d5e8a4b3_original.png", "custom_css": null}, {"id": 6912, "slack_id": "U091U3GJ19B", "display_name": "Zan", "bio": null, "projects_count": 1, "devlogs_count": 2, "votes_count": 2, "ships_count": 0, "projects": [{"id": 1991, "title": "ShellFlare", "devlogs_count": 2, "created_at": "2025-06-19T20:45:44.353-04:00"}], "coding_time_seconds": 137612, "coding_time_seconds_today": 1361, "balance": "You need to have a pocket watcher badge to view this.", "badges": [], "created_at": "2025-06-17T12:50:00.159-04:00", "updated_at": "2025-08-09T19:14:12.207-04:00", "avatar": "https://secure.gravatar.com/avatar/237836f2c49940581766ed694b040628.jpg?s=512&d=https%3A%2F%2Fa.slack-edge.com%2Fdf10d%2Fimg%2Favatars%2Fava_0012-512.png", "custom_css": null}, {"id": 6913, "slack_id": "U05A8UGJWQ1", "display_name": "SyedJS", "bio": null, "projects_count": 0, "devlogs_count": 0, "votes_count": 0, "ships_count": 0, "projects": [], "coding_time_seconds": 16072, "coding_time_seconds_today": 0, "balance": "You need to have a pocket watcher badge to view this.", "badges": [], "created_at": "2025-06-17T12:50:14.292-04:00", "updated_at": "2025-07-03T19:42:05.959-04:00", "avatar": "https://avatars.slack-edge.com/2023-06-02/5364192393763_7d3017108f6f00e8f134_original.jpg", "custom_css": null}, {"id": 6914, "slack_id": "U091P850CTY", "display_name": "Aayuman Ghangurde", "bio": null, "projects_count": 0, "devlogs_count": 0, "votes_count": 0, "ships_count": 0, "projects": [], "coding_time_seconds": 0, "coding_time_seconds_today": 0, "balance": "You need to have a pocket watcher badge to view this.", "badges": [], "created_at": "2025-06-17T12:51:06.426-04:00", "updated_at": "2025-07-03T19:42:06.222-04:00", "avatar": "https://secure.gravatar.com/avatar/411d361b090feb14cb0c21932143adc0.jpg?s=512&d=https%3A%2F%2Fa.slack-edge.com%2Fdf10d%2Fimg%2Favatars%2Fava_0017-512.png", "custom_css": null}, {"id": 6915, "slack_id": "U091P89GFTQ", "display_name": "Paolo", "bio": null, "projects_count": 1, "devlogs_count": 4, "votes_count": 1, "ships_count": 0, "projects": [{"id": 3355, "title": "The Silly Empire", "devlogs_count": 4, "created_at": "2025-06-24T00:11:39.106-04:00"}], "coding_time_seconds": 334226, "coding_time_seconds_today": 0, "balance": "You need to have a pocket watcher badge to view this.", "badges": [], "created_at": "2025-06-17T12:51:07.129-04:00", "updated_at": "2025-07-03T19:42:06.489-04:00", "avatar": "https://secure.gravatar.com/avatar/c8f1e01517eafac4397cf1a372271fcb.jpg?s=512&d=https%3A%2F%2Fa.slack-edge.com%2Fdf10d%2Fimg%2Favatars%2Fava_0016-512.png", "custom_css": null}, {"id": 6916, "slack_id": "U0928CN3UBB", "display_name": "jk rowling", "bio": null, "projects_count": 0, "devlogs_count": 0, "votes_count": 0, "ships_count": 0, "projects": [], "coding_time_seconds": 0, "coding_time_seconds_today": 0, "balance": "You need to have a pocket watcher badge to view this.", "badges": [], "created_at": "2025-06-17T12:51:22.336-04:00", "updated_at": "2025-07-03T19:42:06.764-04:00", "avatar": "https://secure.gravatar.com/avatar/2a1fd26110d95e638214e36a3d3016e9.jpg?s=512&d=https%3A%2F%2Fa.slack-edge.com%2Fdf10d%2Fimg%2Favatars%2Fava_0002-512.png", "custom_css": null}, {"id": 6917, "slack_id": "U091U48HCBF", "display_name": "sasuke", "bio": null, "projects_count": 0, "devlogs_count": 0, "votes_count": 0, "ships_count": 0, "projects": [], "coding_time_seconds": 0, "coding_time_seconds_today": 0, "balance": "You need to have a pocket watcher badge to view this.", "badges": [], "created_at": "2025-06-17T12:51:29.960-04:00", "updated_at": "2025-07-05T08:08:03.872-04:00", "avatar": "https://secure.gravatar.com/avatar/1502f3289a134f3382b8d3769410f8d4.jpg?s=512&d=https%3A%2F%2Fa.slack-edge.com%2Fdf10d%2Fimg%2Favatars%2Fava_0007-512.png", "custom_css": null}, {"id": 6918, "slack_id": "U091P8F7W14", "display_name": "Jacklyn Kengne", "bio": null, "projects_count": 0, "devlogs_count": 0, "votes_count": 0, "ships_count": 0, "projects": [], "coding_time_seconds": 0, "coding_time_seconds_today": 0, "balance": "You need to have a pocket watcher badge to view this.", "badges": [], "created_at": "2025-06-17T12:51:31.120-04:00", "updated_at": "2025-07-03T19:42:07.162-04:00", "avatar": "https://avatars.slack-edge.com/2025-06-17/9048476515351_04963d0333ed382ff40f_original.png", "custom_css": null}, {"id": 6919, "slack_id": "U091Q5YQQHK", "display_name": "Uditangshu", "bio": null, "projects_count": 1, "devlogs_count": 0, "votes_count": 0, "ships_count": 0, "projects": [{"id": 1010, "title": "Hyperledger supplyChain network ", "devlogs_count": 0, "created_at": "2025-06-17T13:34:19.556-04:00"}], "coding_time_seconds": 474459, "coding_time_seconds_today": 5878, "balance": "You need to have a pocket watcher badge to view this.", "badges": [], "created_at": "2025-06-17T12:51:44.559-04:00", "updated_at": "2025-07-03T19:42:07.430-04:00", "avatar": "https://secure.gravatar.com/avatar/c9b9317fb5035d6d9aeef2f8c43d01f0.jpg?s=512&d=https%3A%2F%2Fa.slack-edge.com%2Fdf10d%2Fimg%2Favatars%2Fava_0006-512.png", "custom_css": null}, {"id": 6920, "slack_id": "U091EDUP4R5", "display_name": "K Yugavardhan", "bio": null, "projects_count": 0, "devlogs_count": 0, "votes_count": 0, "ships_count": 0, "projects": [], "coding_time_seconds": 0, "coding_time_seconds_today": 0, "balance": "You need to have a pocket watcher badge to view this.", "badges": [], "created_at": "2025-06-17T12:52:22.832-04:00", "updated_at": "2025-07-04T20:07:22.821-04:00", "avatar": "https://secure.gravatar.com/avatar/ee3bead4b3d8cd07696fcfc84b0214cd.jpg?s=512&d=https%3A%2F%2Fa.slack-edge.com%2Fdf10d%2Fimg%2Favatars%2Fava_0021-512.png", "custom_css": null}], "pagination": {"page": 346, "pages": 1192, "count": 23828, "items": 20}}