{"users": [{"id": 6921, "slack_id": "U0907ECVAMQ", "display_name": "imst", "bio": null, "projects_count": 1, "devlogs_count": 1, "votes_count": 0, "ships_count": 0, "projects": [{"id": 7712, "title": "Smart speaker", "devlogs_count": 1, "created_at": "2025-07-22T16:44:08.631-04:00"}], "coding_time_seconds": 12768, "coding_time_seconds_today": 0, "balance": "You need to have a pocket watcher badge to view this.", "badges": [], "created_at": "2025-06-17T12:52:27.715-04:00", "updated_at": "2025-07-20T03:59:09.959-04:00", "avatar": "https://secure.gravatar.com/avatar/680a04bb117853900e66ba113a0076a5.jpg?s=512&d=https%3A%2F%2Fa.slack-edge.com%2Fdf10d%2Fimg%2Favatars%2Fava_0006-512.png", "custom_css": null}, {"id": 6922, "slack_id": "U091P8CQEAJ", "display_name": "Imam Dahir Dan-Azumi", "bio": null, "projects_count": 0, "devlogs_count": 0, "votes_count": 0, "ships_count": 0, "projects": [], "coding_time_seconds": 0, "coding_time_seconds_today": 0, "balance": "You need to have a pocket watcher badge to view this.", "badges": [], "created_at": "2025-06-17T12:52:39.655-04:00", "updated_at": "2025-07-03T19:42:08.100-04:00", "avatar": "https://avatars.slack-edge.com/2025-06-17/9062171277317_e16f6752f0116606c36c_original.jpg", "custom_css": null}, {"id": 6923, "slack_id": "U07APDU9Q7L", "display_name": "Aehr Canter (Rhea)", "bio": null, "projects_count": 0, "devlogs_count": 0, "votes_count": 0, "ships_count": 0, "projects": [], "coding_time_seconds": 7837, "coding_time_seconds_today": 0, "balance": "You need to have a pocket watcher badge to view this.", "badges": [], "created_at": "2025-06-17T12:52:51.756-04:00", "updated_at": "2025-07-03T19:42:08.376-04:00", "avatar": "https://secure.gravatar.com/avatar/b313e6dd61ed49d6c7b9000c004f11b1.jpg?s=512&d=https%3A%2F%2Fa.slack-edge.com%2Fdf10d%2Fimg%2Favatars%2Fava_0021-512.png", "custom_css": null}, {"id": 6924, "slack_id": "U086SFSE6N5", "display_name": "Agamdeep Singh", "bio": null, "projects_count": 0, "devlogs_count": 0, "votes_count": 0, "ships_count": 0, "projects": [], "coding_time_seconds": 78253, "coding_time_seconds_today": 932, "balance": "You need to have a pocket watcher badge to view this.", "badges": [], "created_at": "2025-06-17T12:52:53.791-04:00", "updated_at": "2025-07-03T19:42:08.653-04:00", "avatar": "https://secure.gravatar.com/avatar/2c39f3d45913b5147120aa049fafa2e7.jpg?s=512&d=https%3A%2F%2Fa.slack-edge.com%2Fdf10d%2Fimg%2Favatars%2Fava_0020-512.png", "custom_css": null}, {"id": 6925, "slack_id": "U091P8QMP0E", "display_name": "N/A", "bio": null, "projects_count": 0, "devlogs_count": 0, "votes_count": 0, "ships_count": 0, "projects": [], "coding_time_seconds": 60682, "coding_time_seconds_today": 0, "balance": "You need to have a pocket watcher badge to view this.", "badges": [], "created_at": "2025-06-17T12:53:17.138-04:00", "updated_at": "2025-07-06T02:08:46.977-04:00", "avatar": "https://secure.gravatar.com/avatar/e53571313dc7d73e888c1cb84322ee04.jpg?s=512&d=https%3A%2F%2Fa.slack-edge.com%2Fdf10d%2Fimg%2Favatars%2Fava_0022-512.png", "custom_css": null}, {"id": 6926, "slack_id": "U091VQ85BGS", "display_name": "venky", "bio": null, "projects_count": 0, "devlogs_count": 0, "votes_count": 0, "ships_count": 0, "projects": [], "coding_time_seconds": 1012, "coding_time_seconds_today": 0, "balance": "You need to have a pocket watcher badge to view this.", "badges": [], "created_at": "2025-06-17T12:53:27.637-04:00", "updated_at": "2025-07-03T19:42:09.077-04:00", "avatar": "https://secure.gravatar.com/avatar/2f3e686ca89d46d3ed50c64b6d3ff825.jpg?s=512&d=https%3A%2F%2Fa.slack-edge.com%2Fdf10d%2Fimg%2Favatars%2Fava_0022-512.png", "custom_css": null}, {"id": 6927, "slack_id": "U091U4LH8FP", "display_name": "Jackson Kasi", "bio": null, "projects_count": 1, "devlogs_count": 0, "votes_count": 0, "ships_count": 0, "projects": [{"id": 1009, "title": "TNKS Advanced Data Table Component", "devlogs_count": 0, "created_at": "2025-06-17T13:31:54.697-04:00"}], "coding_time_seconds": 252382, "coding_time_seconds_today": 0, "balance": "You need to have a pocket watcher badge to view this.", "badges": [], "created_at": "2025-06-17T12:53:52.650-04:00", "updated_at": "2025-07-07T13:36:17.214-04:00", "avatar": "https://avatars.slack-edge.com/2025-06-17/9057317621526_c417ac381d5c1d1785dd_original.png", "custom_css": null}, {"id": 6928, "slack_id": "U091U4MDJER", "display_name": "moose x osu", "bio": null, "projects_count": 0, "devlogs_count": 0, "votes_count": 0, "ships_count": 0, "projects": [], "coding_time_seconds": 1, "coding_time_seconds_today": 0, "balance": "You need to have a pocket watcher badge to view this.", "badges": [], "created_at": "2025-06-17T12:54:25.321-04:00", "updated_at": "2025-09-07T15:29:48.710-04:00", "avatar": "https://avatars.slack-edge.com/2025-06-17/9057142762371_737bb5977d8a3793e1b8_original.jpg", "custom_css": null}, {"id": 6929, "slack_id": "U092G8VC3Q8", "display_name": "Toby_dev", "bio": null, "projects_count": 0, "devlogs_count": 0, "votes_count": 0, "ships_count": 0, "projects": [], "coding_time_seconds": 0, "coding_time_seconds_today": 0, "balance": "You need to have a pocket watcher badge to view this.", "badges": [], "created_at": "2025-06-17T12:56:17.068-04:00", "updated_at": "2025-07-03T21:56:39.229-04:00", "avatar": "https://secure.gravatar.com/avatar/337d7645179b4886f7f3f9b06495a1fa.jpg?s=512&d=https%3A%2F%2Fa.slack-edge.com%2Fdf10d%2Fimg%2Favatars%2Fava_0020-512.png", "custom_css": null}, {"id": 6930, "slack_id": "U091VRBJCN6", "display_name": "Zeidh", "bio": null, "projects_count": 0, "devlogs_count": 0, "votes_count": 0, "ships_count": 0, "projects": [], "coding_time_seconds": 0, "coding_time_seconds_today": 0, "balance": "You need to have a pocket watcher badge to view this.", "badges": [], "created_at": "2025-06-17T12:57:46.631-04:00", "updated_at": "2025-07-06T02:08:47.298-04:00", "avatar": "https://secure.gravatar.com/avatar/eec391b0b83ee40526654144bb0ea331.jpg?s=512&d=https%3A%2F%2Fa.slack-edge.com%2Fdf10d%2Fimg%2Favatars%2Fava_0001-512.png", "custom_css": null}, {"id": 6931, "slack_id": "U092J7CCSGY", "display_name": "Ash", "bio": null, "projects_count": 0, "devlogs_count": 0, "votes_count": 0, "ships_count": 0, "projects": [], "coding_time_seconds": 0, "coding_time_seconds_today": 0, "balance": "You need to have a pocket watcher badge to view this.", "badges": [], "created_at": "2025-06-17T12:57:51.971-04:00", "updated_at": "2025-07-03T21:56:39.399-04:00", "avatar": "https://secure.gravatar.com/avatar/21f015772f0e323e825351c94b89297c.jpg?s=512&d=https%3A%2F%2Fa.slack-edge.com%2Fdf10d%2Fimg%2Favatars%2Fava_0011-512.png", "custom_css": null}, {"id": 6932, "slack_id": "U091W7ZJKMJ", "display_name": "Lilley7464", "bio": null, "projects_count": 0, "devlogs_count": 0, "votes_count": 0, "ships_count": 0, "projects": [], "coding_time_seconds": 0, "coding_time_seconds_today": 0, "balance": "You need to have a pocket watcher badge to view this.", "badges": [], "created_at": "2025-06-17T12:58:30.973-04:00", "updated_at": "2025-07-03T19:42:10.322-04:00", "avatar": "https://secure.gravatar.com/avatar/a32c072380eaa70b9af07d7837fea634.jpg?s=512&d=https%3A%2F%2Fa.slack-edge.com%2Fdf10d%2Fimg%2Favatars%2Fava_0013-512.png", "custom_css": null}, {"id": 6933, "slack_id": "U09032HC7HP", "display_name": "rachel", "bio": null, "projects_count": 1, "devlogs_count": 0, "votes_count": 0, "ships_count": 0, "projects": [{"id": 1048, "title": "car", "devlogs_count": 0, "created_at": "2025-06-17T14:20:51.543-04:00"}], "coding_time_seconds": 3335, "coding_time_seconds_today": 0, "balance": "You need to have a pocket watcher badge to view this.", "badges": [], "created_at": "2025-06-17T12:58:49.062-04:00", "updated_at": "2025-09-02T19:03:58.899-04:00", "avatar": "https://secure.gravatar.com/avatar/ffc1fe6a1992d0ed173404ee52c3aed7.jpg?s=512&d=https%3A%2F%2Fa.slack-edge.com%2Fdf10d%2Fimg%2Favatars%2Fava_0017-512.png", "custom_css": null}, {"id": 6934, "slack_id": "U091VRPQBS6", "display_name": "Bruno Pastre", "bio": null, "projects_count": 0, "devlogs_count": 0, "votes_count": 0, "ships_count": 0, "projects": [], "coding_time_seconds": 0, "coding_time_seconds_today": 0, "balance": "You need to have a pocket watcher badge to view this.", "badges": [], "created_at": "2025-06-17T12:59:16.733-04:00", "updated_at": "2025-07-04T02:26:11.911-04:00", "avatar": "https://avatars.slack-edge.com/2025-06-17/9064301778612_b6f4aeaa8f027c8af88d_original.jpg", "custom_css": null}, {"id": 6935, "slack_id": "U05QS7V4YP9", "display_name": "tinywifi", "bio": null, "projects_count": 0, "devlogs_count": 0, "votes_count": 0, "ships_count": 0, "projects": [], "coding_time_seconds": 0, "coding_time_seconds_today": 0, "balance": "You need to have a pocket watcher badge to view this.", "badges": [], "created_at": "2025-06-17T12:59:31.945-04:00", "updated_at": "2025-07-03T19:42:10.994-04:00", "avatar": "https://avatars.slack-edge.com/2023-09-06/5850316650934_bb26a7479aca902dbe14_original.png", "custom_css": null}, {"id": 6936, "slack_id": "U079C74E0N8", "display_name": "Lucy Wu", "bio": null, "projects_count": 0, "devlogs_count": 0, "votes_count": 0, "ships_count": 0, "projects": [], "coding_time_seconds": 73695, "coding_time_seconds_today": 0, "balance": "You need to have a pocket watcher badge to view this.", "badges": [], "created_at": "2025-06-17T12:59:39.857-04:00", "updated_at": "2025-07-03T19:42:11.271-04:00", "avatar": "https://avatars.slack-edge.com/2024-06-21/7328433370001_da5f4bf3f3faf8f713a5_original.jpg", "custom_css": null}, {"id": 6937, "slack_id": "U0928E2D2LR", "display_name": "Shayden Sam", "bio": null, "projects_count": 1, "devlogs_count": 1, "votes_count": 0, "ships_count": 0, "projects": [{"id": 11659, "title": "Zombies", "devlogs_count": 1, "created_at": "2025-08-18T07:48:11.875-04:00"}], "coding_time_seconds": 89023, "coding_time_seconds_today": 0, "balance": "You need to have a pocket watcher badge to view this.", "badges": [], "created_at": "2025-06-17T13:01:34.832-04:00", "updated_at": "2025-08-18T07:44:55.418-04:00", "avatar": "https://secure.gravatar.com/avatar/044ac7fca92cd62f5e791a693060cc20.jpg?s=512&d=https%3A%2F%2Fa.slack-edge.com%2Fdf10d%2Fimg%2Favatars%2Fava_0015-512.png", "custom_css": null}, {"id": 6938, "slack_id": "U091VSLAVEE", "display_name": "Hosef", "bio": null, "projects_count": 0, "devlogs_count": 0, "votes_count": 1, "ships_count": 0, "projects": [], "coding_time_seconds": 7854, "coding_time_seconds_today": 0, "balance": "You need to have a pocket watcher badge to view this.", "badges": [], "created_at": "2025-06-17T13:02:18.779-04:00", "updated_at": "2025-07-07T17:50:30.749-04:00", "avatar": "https://secure.gravatar.com/avatar/7aa79f7c83ea510124311495f9a95e68.jpg?s=512&d=https%3A%2F%2Fa.slack-edge.com%2Fdf10d%2Fimg%2Favatars%2Fava_0022-512.png", "custom_css": null}, {"id": 6939, "slack_id": "U091P5HL1GB", "display_name": "Saksham Jindal", "bio": null, "projects_count": 0, "devlogs_count": 0, "votes_count": 0, "ships_count": 0, "projects": [], "coding_time_seconds": 0, "coding_time_seconds_today": 0, "balance": "You need to have a pocket watcher badge to view this.", "badges": [], "created_at": "2025-06-17T13:02:31.299-04:00", "updated_at": "2025-07-03T19:42:12.092-04:00", "avatar": "https://secure.gravatar.com/avatar/14500e55e2883f63e4c203b3b56640fd.jpg?s=512&d=https%3A%2F%2Fa.slack-edge.com%2Fdf10d%2Fimg%2Favatars%2Fava_0021-512.png", "custom_css": null}, {"id": 6940, "slack_id": "U091TBJ9SH3", "display_name": "Ahmed Abdelghany", "bio": null, "projects_count": 0, "devlogs_count": 0, "votes_count": 0, "ships_count": 0, "projects": [], "coding_time_seconds": 0, "coding_time_seconds_today": 0, "balance": "You need to have a pocket watcher badge to view this.", "badges": [], "created_at": "2025-06-17T13:03:24.680-04:00", "updated_at": "2025-07-03T19:42:12.356-04:00", "avatar": "https://secure.gravatar.com/avatar/48859d89f90e596c394f7891bcb762c6.jpg?s=512&d=https%3A%2F%2Fa.slack-edge.com%2Fdf10d%2Fimg%2Favatars%2Fava_0022-512.png", "custom_css": null}], "pagination": {"page": 347, "pages": 1192, "count": 23828, "items": 20}}