{"users": [{"id": 6941, "slack_id": "U0928EYUHTK", "display_name": "Khaos", "bio": null, "projects_count": 1, "devlogs_count": 1, "votes_count": 0, "ships_count": 0, "projects": [{"id": 2154, "title": "Multiplayer Game", "devlogs_count": 1, "created_at": "2025-06-20T09:55:20.268-04:00"}], "coding_time_seconds": 20956, "coding_time_seconds_today": 0, "balance": "You need to have a pocket watcher badge to view this.", "badges": [], "created_at": "2025-06-17T13:03:51.063-04:00", "updated_at": "2025-07-03T19:42:12.625-04:00", "avatar": "https://secure.gravatar.com/avatar/36d4b30bed40628b47218e96b4b0c207.jpg?s=512&d=https%3A%2F%2Fa.slack-edge.com%2Fdf10d%2Fimg%2Favatars%2Fava_0016-512.png", "custom_css": null}, {"id": 6942, "slack_id": "U091P5QKLG3", "display_name": "Gourab", "bio": null, "projects_count": 0, "devlogs_count": 0, "votes_count": 0, "ships_count": 0, "projects": [], "coding_time_seconds": 0, "coding_time_seconds_today": 0, "balance": "You need to have a pocket watcher badge to view this.", "badges": [], "created_at": "2025-06-17T13:04:25.806-04:00", "updated_at": "2025-07-03T19:42:12.893-04:00", "avatar": "https://secure.gravatar.com/avatar/012ef2745f5025a42bd793cc37f75be5.jpg?s=512&d=https%3A%2F%2Fa.slack-edge.com%2Fdf10d%2Fimg%2Favatars%2Fava_0025-512.png", "custom_css": null}, {"id": 6943, "slack_id": "U07PMPLAQHJ", "display_name": "Whynotjava", "bio": null, "projects_count": 0, "devlogs_count": 0, "votes_count": 0, "ships_count": 0, "projects": [], "coding_time_seconds": 222543, "coding_time_seconds_today": 0, "balance": "You need to have a pocket watcher badge to view this.", "badges": [], "created_at": "2025-06-17T13:04:44.373-04:00", "updated_at": "2025-08-13T02:34:21.004-04:00", "avatar": "https://avatars.slack-edge.com/2025-08-12/9371273777328_ffdf503650d5a0640527_original.png", "custom_css": null}, {"id": 6944, "slack_id": "U091P60T2Q3", "display_name": "ANGELO MENDOZA GARCIA", "bio": null, "projects_count": 0, "devlogs_count": 0, "votes_count": 0, "ships_count": 0, "projects": [], "coding_time_seconds": 0, "coding_time_seconds_today": 0, "balance": "You need to have a pocket watcher badge to view this.", "badges": [], "created_at": "2025-06-17T13:04:54.695-04:00", "updated_at": "2025-07-03T19:42:13.291-04:00", "avatar": "https://avatars.slack-edge.com/2025-06-17/9062257134261_c3d9d6b3bf1736753c79_original.jpg", "custom_css": null}, {"id": 6945, "slack_id": "U091P5T3GAF", "display_name": "Nicol\u00e1s Salas", "bio": null, "projects_count": 0, "devlogs_count": 0, "votes_count": 0, "ships_count": 0, "projects": [], "coding_time_seconds": 0, "coding_time_seconds_today": 0, "balance": "You need to have a pocket watcher badge to view this.", "badges": [], "created_at": "2025-06-17T13:05:10.705-04:00", "updated_at": "2025-07-03T19:42:13.563-04:00", "avatar": "https://avatars.slack-edge.com/2025-06-17/9057221191411_266a5cba70e986a78d17_original.png", "custom_css": null}, {"id": 6946, "slack_id": "U091P5WQ00K", "display_name": "Ayush", "bio": null, "projects_count": 0, "devlogs_count": 0, "votes_count": 0, "ships_count": 0, "projects": [], "coding_time_seconds": 0, "coding_time_seconds_today": 0, "balance": "You need to have a pocket watcher badge to view this.", "badges": [], "created_at": "2025-06-17T13:05:27.007-04:00", "updated_at": "2025-07-03T22:35:15.943-04:00", "avatar": "https://secure.gravatar.com/avatar/a22689459a9e13dc8c2981ba19f02fe3.jpg?s=512&d=https%3A%2F%2Fa.slack-edge.com%2Fdf10d%2Fimg%2Favatars%2Fava_0025-512.png", "custom_css": null}, {"id": 6947, "slack_id": "U091PB5A678", "display_name": "Anish", "bio": null, "projects_count": 0, "devlogs_count": 0, "votes_count": 0, "ships_count": 0, "projects": [], "coding_time_seconds": 0, "coding_time_seconds_today": 0, "balance": "You need to have a pocket watcher badge to view this.", "badges": [], "created_at": "2025-06-17T13:05:34.279-04:00", "updated_at": "2025-07-03T21:44:46.001-04:00", "avatar": "https://secure.gravatar.com/avatar/3e09115626492c519180dc763cfae381.jpg?s=512&d=https%3A%2F%2Fa.slack-edge.com%2Fdf10d%2Fimg%2Favatars%2Fava_0025-512.png", "custom_css": null}, {"id": 6948, "slack_id": "U078A3QR1F1", "display_name": "unskilledd", "bio": null, "projects_count": 0, "devlogs_count": 0, "votes_count": 0, "ships_count": 0, "projects": [], "coding_time_seconds": 6485, "coding_time_seconds_today": 0, "balance": "You need to have a pocket watcher badge to view this.", "badges": [], "created_at": "2025-06-17T13:05:52.555-04:00", "updated_at": "2025-07-03T21:44:46.146-04:00", "avatar": "https://avatars.slack-edge.com/2024-06-18/7296576317715_33d6524f116111a125fb_original.jpg", "custom_css": null}, {"id": 6949, "slack_id": "U091VT596M8", "display_name": "traicion ten", "bio": null, "projects_count": 0, "devlogs_count": 0, "votes_count": 0, "ships_count": 0, "projects": [], "coding_time_seconds": 0, "coding_time_seconds_today": 0, "balance": "You need to have a pocket watcher badge to view this.", "badges": [], "created_at": "2025-06-17T13:06:02.086-04:00", "updated_at": "2025-07-03T19:42:14.317-04:00", "avatar": "https://avatars.slack-edge.com/2025-06-17/9063939565122_0313f14cd6e9767043b4_original.png", "custom_css": null}, {"id": 6950, "slack_id": "U091W8B3RHS", "display_name": "Nithin Raaghav J", "bio": null, "projects_count": 0, "devlogs_count": 0, "votes_count": 0, "ships_count": 0, "projects": [], "coding_time_seconds": 0, "coding_time_seconds_today": 0, "balance": "You need to have a pocket watcher badge to view this.", "badges": [], "created_at": "2025-06-17T13:06:18.955-04:00", "updated_at": "2025-07-03T19:42:14.583-04:00", "avatar": "https://secure.gravatar.com/avatar/a60910e67cc6c600c3dad94df6bc2224.jpg?s=512&d=https%3A%2F%2Fa.slack-edge.com%2Fdf10d%2Fimg%2Favatars%2Fava_0002-512.png", "custom_css": null}, {"id": 6951, "slack_id": "U0928FK7YSD", "display_name": "aarsh ghotra", "bio": null, "projects_count": 0, "devlogs_count": 0, "votes_count": 0, "ships_count": 0, "projects": [], "coding_time_seconds": 0, "coding_time_seconds_today": 0, "balance": "You need to have a pocket watcher badge to view this.", "badges": [], "created_at": "2025-06-17T13:07:07.639-04:00", "updated_at": "2025-07-03T19:42:14.848-04:00", "avatar": "https://avatars.slack-edge.com/2025-06-17/9063946110578_52c35469ca3f224f6431_original.png", "custom_css": null}, {"id": 6952, "slack_id": "U091EGAUCCF", "display_name": "Aditya Singh", "bio": null, "projects_count": 0, "devlogs_count": 0, "votes_count": 0, "ships_count": 0, "projects": [], "coding_time_seconds": 72162, "coding_time_seconds_today": 0, "balance": "You need to have a pocket watcher badge to view this.", "badges": [], "created_at": "2025-06-17T13:07:39.422-04:00", "updated_at": "2025-07-03T19:42:15.906-04:00", "avatar": "https://avatars.slack-edge.com/2025-06-17/9076549447729_fbeec815f7ded20e7f41_original.png", "custom_css": null}, {"id": 6953, "slack_id": "U091U7JHQCD", "display_name": "Zsombor Fut\u00f3", "bio": null, "projects_count": 2, "devlogs_count": 4, "votes_count": 7, "ships_count": 1, "projects": [{"id": 1033, "title": "reMOBILON phone application \u2013 I recommend opening the GitHub repository.", "devlogs_count": 3, "created_at": "2025-06-17T14:06:24.367-04:00"}, {"id": 1347, "title": "Phonething", "devlogs_count": 1, "created_at": "2025-06-18T10:44:44.383-04:00"}], "coding_time_seconds": 258678, "coding_time_seconds_today": 621, "balance": "You need to have a pocket watcher badge to view this.", "badges": [{"name": "Maiden Voyage", "text": "you shipped your first project! the journey begins...", "icon": "\ud83d\udea2"}], "created_at": "2025-06-17T13:07:47.981-04:00", "updated_at": "2025-09-10T22:54:36.729-04:00", "avatar": "https://avatars.slack-edge.com/2025-06-17/9064361852116_87bdff0c31640dc645c6_original.jpg", "custom_css": null}, {"id": 6954, "slack_id": "U08LXT0BJJE", "display_name": "miya", "bio": null, "projects_count": 0, "devlogs_count": 0, "votes_count": 6, "ships_count": 0, "projects": [], "coding_time_seconds": 52289, "coding_time_seconds_today": 0, "balance": "You need to have a pocket watcher badge to view this.", "badges": [], "created_at": "2025-06-17T13:08:22.649-04:00", "updated_at": "2025-08-24T11:22:48.133-04:00", "avatar": "https://avatars.slack-edge.com/2025-07-07/9155111776899_e7b7a7d5e5acc92462fa_original.jpg", "custom_css": null}, {"id": 6955, "slack_id": "U091U7T5UQ5", "display_name": "Skandhan Madhusudhana", "bio": null, "projects_count": 1, "devlogs_count": 0, "votes_count": 0, "ships_count": 0, "projects": [{"id": 1021, "title": "Laaanded", "devlogs_count": 0, "created_at": "2025-06-17T13:54:13.814-04:00"}], "coding_time_seconds": 130, "coding_time_seconds_today": 0, "balance": "You need to have a pocket watcher badge to view this.", "badges": [], "created_at": "2025-06-17T13:09:19.881-04:00", "updated_at": "2025-07-03T19:42:16.736-04:00", "avatar": "https://secure.gravatar.com/avatar/6af0be5abeb35a75fe054d09eb9c412f.jpg?s=512&d=https%3A%2F%2Fa.slack-edge.com%2Fdf10d%2Fimg%2Favatars%2Fava_0020-512.png", "custom_css": null}, {"id": 6956, "slack_id": "U066A0XHBD0", "display_name": "Glory", "bio": null, "projects_count": 0, "devlogs_count": 0, "votes_count": 0, "ships_count": 0, "projects": [], "coding_time_seconds": 0, "coding_time_seconds_today": 0, "balance": "You need to have a pocket watcher badge to view this.", "badges": [], "created_at": "2025-06-17T13:09:24.772-04:00", "updated_at": "2025-07-03T19:42:17.006-04:00", "avatar": "https://avatars.slack-edge.com/2023-11-17/6199498331751_9e78259fdd97400aa90f_original.jpg", "custom_css": null}, {"id": 6957, "slack_id": "U091EH19VSB", "display_name": "Kat", "bio": null, "projects_count": 0, "devlogs_count": 0, "votes_count": 0, "ships_count": 0, "projects": [], "coding_time_seconds": 0, "coding_time_seconds_today": 0, "balance": "You need to have a pocket watcher badge to view this.", "badges": [], "created_at": "2025-06-17T13:09:29.801-04:00", "updated_at": "2025-07-03T19:42:17.260-04:00", "avatar": "https://avatars.slack-edge.com/2025-06-17/9086341450432_b3cd7476020216d18fe3_original.gif", "custom_css": null}, {"id": 6958, "slack_id": "U091PC25QA2", "display_name": "Bewin", "bio": null, "projects_count": 0, "devlogs_count": 0, "votes_count": 0, "ships_count": 0, "projects": [], "coding_time_seconds": 0, "coding_time_seconds_today": 0, "balance": "You need to have a pocket watcher badge to view this.", "badges": [], "created_at": "2025-06-17T13:09:38.140-04:00", "updated_at": "2025-07-03T19:42:17.530-04:00", "avatar": "https://secure.gravatar.com/avatar/b90854e212f33e15f69c02477b927fca.jpg?s=512&d=https%3A%2F%2Fa.slack-edge.com%2Fdf10d%2Fimg%2Favatars%2Fava_0023-512.png", "custom_css": null}, {"id": 6959, "slack_id": "U08M6V3RP1D", "display_name": "Rohan Sareen", "bio": null, "projects_count": 0, "devlogs_count": 0, "votes_count": 0, "ships_count": 0, "projects": [], "coding_time_seconds": 20501, "coding_time_seconds_today": 0, "balance": "You need to have a pocket watcher badge to view this.", "badges": [], "created_at": "2025-06-17T13:10:00.019-04:00", "updated_at": "2025-07-03T19:42:17.784-04:00", "avatar": "https://secure.gravatar.com/avatar/15eb3e3aa2c503567a9c3d2017ba2721.jpg?s=512&d=https%3A%2F%2Fa.slack-edge.com%2Fdf10d%2Fimg%2Favatars%2Fava_0002-512.png", "custom_css": null}, {"id": 6960, "slack_id": "U092J9RRD9N", "display_name": "Fahim", "bio": null, "projects_count": 0, "devlogs_count": 0, "votes_count": 0, "ships_count": 0, "projects": [], "coding_time_seconds": 0, "coding_time_seconds_today": 0, "balance": "You need to have a pocket watcher badge to view this.", "badges": [], "created_at": "2025-06-17T13:10:35.769-04:00", "updated_at": "2025-07-03T19:42:18.045-04:00", "avatar": "https://secure.gravatar.com/avatar/a4320b015c231b9e7ed9a246cb59ebb0.jpg?s=512&d=https%3A%2F%2Fa.slack-edge.com%2Fdf10d%2Fimg%2Favatars%2Fava_0003-512.png", "custom_css": null}], "pagination": {"page": 348, "pages": 1192, "count": 23828, "items": 20}}