{"users": [{"id": 6961, "slack_id": "U091PCATCCE", "display_name": "R\u00fcmeysa KARA", "bio": null, "projects_count": 0, "devlogs_count": 0, "votes_count": 0, "ships_count": 0, "projects": [], "coding_time_seconds": 0, "coding_time_seconds_today": 0, "balance": "You need to have a pocket watcher badge to view this.", "badges": [], "created_at": "2025-06-17T13:11:23.161-04:00", "updated_at": "2025-07-03T21:56:41.318-04:00", "avatar": "https://avatars.slack-edge.com/2025-06-17/9086352588480_83d72b039351361bbf6b_original.jpg", "custom_css": null}, {"id": 6962, "slack_id": "U08547H0DJM", "display_name": "Spiraling_Time", "bio": null, "projects_count": 3, "devlogs_count": 15, "votes_count": 36, "ships_count": 3, "projects": [{"id": 13144, "title": "Difficulty Untested", "devlogs_count": 3, "created_at": "2025-09-09T14:24:56.992-04:00"}, {"id": 4798, "title": "Professional Development", "devlogs_count": 8, "created_at": "2025-07-01T15:27:14.220-04:00"}, {"id": 9079, "title": "The Definition of Insanity (GMTK Jam 2025 Submission)", "devlogs_count": 3, "created_at": "2025-07-30T13:40:41.155-04:00"}], "coding_time_seconds": 304583, "coding_time_seconds_today": 0, "balance": "You need to have a pocket watcher badge to view this.", "badges": [{"name": "Maiden Voyage", "text": "you shipped your first project! the journey begins...", "icon": "\ud83d\udea2"}], "created_at": "2025-06-17T13:11:27.145-04:00", "updated_at": "2025-09-10T22:54:37.183-04:00", "avatar": "https://avatars.slack-edge.com/2025-01-23/8336287139398_e8d98ddb62996fec88d7_original.jpg", "custom_css": null}, {"id": 6963, "slack_id": "U02NJJRQN86", "display_name": "Alex Lu", "bio": null, "projects_count": 1, "devlogs_count": 1, "votes_count": 0, "ships_count": 0, "projects": [{"id": 11070, "title": "Turnip Ledger", "devlogs_count": 1, "created_at": "2025-08-13T01:03:23.308-04:00"}], "coding_time_seconds": 58678, "coding_time_seconds_today": 0, "balance": "You need to have a pocket watcher badge to view this.", "badges": [], "created_at": "2025-06-17T13:11:49.064-04:00", "updated_at": "2025-08-12T23:10:08.549-04:00", "avatar": "https://secure.gravatar.com/avatar/6ad4be0c8087bc5beb9cd4fb0c5042c1.jpg?s=512&d=https%3A%2F%2Fa.slack-edge.com%2Fdf10d%2Fimg%2Favatars%2Fava_0009-512.png", "custom_css": null}, {"id": 6964, "slack_id": "U091EHCFW0P", "display_name": "zigthepig7", "bio": null, "projects_count": 0, "devlogs_count": 0, "votes_count": 0, "ships_count": 0, "projects": [], "coding_time_seconds": 16838, "coding_time_seconds_today": 0, "balance": "You need to have a pocket watcher badge to view this.", "badges": [], "created_at": "2025-06-17T13:11:52.003-04:00", "updated_at": "2025-07-03T19:42:18.878-04:00", "avatar": "https://secure.gravatar.com/avatar/8d8584cd48df9bf42a915dcbfaeeaec2.jpg?s=512&d=https%3A%2F%2Fa.slack-edge.com%2Fdf10d%2Fimg%2Favatars%2Fava_0023-512.png", "custom_css": null}, {"id": 6965, "slack_id": "U091PC0UQAJ", "display_name": "Rishabh Ahuja", "bio": null, "projects_count": 0, "devlogs_count": 0, "votes_count": 0, "ships_count": 0, "projects": [], "coding_time_seconds": 0, "coding_time_seconds_today": 0, "balance": "You need to have a pocket watcher badge to view this.", "badges": [], "created_at": "2025-06-17T13:11:54.320-04:00", "updated_at": "2025-07-03T19:42:19.135-04:00", "avatar": "https://secure.gravatar.com/avatar/8be04cd8c8833744c6af27e9118fd8b1.jpg?s=512&d=https%3A%2F%2Fa.slack-edge.com%2Fdf10d%2Fimg%2Favatars%2Fava_0011-512.png", "custom_css": null}, {"id": 6966, "slack_id": "U091P76CXEF", "display_name": "Vinish", "bio": null, "projects_count": 0, "devlogs_count": 0, "votes_count": 0, "ships_count": 0, "projects": [], "coding_time_seconds": 0, "coding_time_seconds_today": 0, "balance": "You need to have a pocket watcher badge to view this.", "badges": [], "created_at": "2025-06-17T13:14:34.761-04:00", "updated_at": "2025-07-03T19:42:19.397-04:00", "avatar": "https://secure.gravatar.com/avatar/2e2c14c0d338ce1c29f2136334530aaf.jpg?s=512&d=https%3A%2F%2Fa.slack-edge.com%2Fdf10d%2Fimg%2Favatars%2Fava_0012-512.png", "custom_css": null}, {"id": 6967, "slack_id": "U091WBACU84", "display_name": "Deepthi Muthukumar", "bio": null, "projects_count": 1, "devlogs_count": 0, "votes_count": 0, "ships_count": 0, "projects": [{"id": 1864, "title": "Anime Tracker ", "devlogs_count": 0, "created_at": "2025-06-19T13:10:30.868-04:00"}], "coding_time_seconds": 220834, "coding_time_seconds_today": 0, "balance": "You need to have a pocket watcher badge to view this.", "badges": [], "created_at": "2025-06-17T13:14:39.547-04:00", "updated_at": "2025-07-04T20:07:25.704-04:00", "avatar": "https://secure.gravatar.com/avatar/b5560a7234badfb1f3715f2cb00e6896.jpg?s=512&d=https%3A%2F%2Fa.slack-edge.com%2Fdf10d%2Fimg%2Favatars%2Fava_0010-512.png", "custom_css": null}, {"id": 6968, "slack_id": "U079WF6GAGZ", "display_name": "InfernalWolf", "bio": null, "projects_count": 5, "devlogs_count": 36, "votes_count": 40, "ships_count": 3, "projects": [{"id": 3303, "title": "Power Line", "devlogs_count": 2, "created_at": "2025-06-23T18:12:18.606-04:00"}, {"id": 6751, "title": "Memory Paint", "devlogs_count": 4, "created_at": "2025-07-15T19:46:03.855-04:00"}, {"id": 2731, "title": "Battery", "devlogs_count": 2, "created_at": "2025-06-21T21:58:29.406-04:00"}, {"id": 3572, "title": "Opposite Game", "devlogs_count": 12, "created_at": "2025-06-24T18:42:34.009-04:00"}, {"id": 5010, "title": "EM Shooter", "devlogs_count": 16, "created_at": "2025-07-02T17:26:30.900-04:00"}], "coding_time_seconds": 334849, "coding_time_seconds_today": 0, "balance": "You need to have a pocket watcher badge to view this.", "badges": [{"name": "Maiden Voyage", "text": "you shipped your first project! the journey begins...", "icon": "\ud83d\udea2"}], "created_at": "2025-06-17T13:14:52.507-04:00", "updated_at": "2025-09-20T13:12:25.202-04:00", "avatar": "https://avatars.slack-edge.com/2025-07-01/9147408722801_f4c2a795ffc615df2acf_original.png", "custom_css": null}, {"id": 6969, "slack_id": "U092J9H9NKS", "display_name": "Nikita Hovyadinov", "bio": null, "projects_count": 0, "devlogs_count": 0, "votes_count": 0, "ships_count": 0, "projects": [], "coding_time_seconds": 173519, "coding_time_seconds_today": 0, "balance": "You need to have a pocket watcher badge to view this.", "badges": [], "created_at": "2025-06-17T13:15:44.070-04:00", "updated_at": "2025-07-03T19:42:20.061-04:00", "avatar": "https://avatars.slack-edge.com/2025-06-17/9076592231377_532068bf37ac913aedd7_original.png", "custom_css": null}, {"id": 6970, "slack_id": "U08260HQNAE", "display_name": "Mohamed Bakry Mohamed slim", "bio": null, "projects_count": 1, "devlogs_count": 1, "votes_count": 1, "ships_count": 1, "projects": [{"id": 5502, "title": "colour_selector", "devlogs_count": 1, "created_at": "2025-07-05T18:52:04.219-04:00"}], "coding_time_seconds": 32403, "coding_time_seconds_today": 0, "balance": "You need to have a pocket watcher badge to view this.", "badges": [{"name": "Maiden Voyage", "text": "you shipped your first project! the journey begins...", "icon": "\ud83d\udea2"}], "created_at": "2025-06-17T13:15:48.940-04:00", "updated_at": "2025-09-10T22:54:37.440-04:00", "avatar": "https://avatars.slack-edge.com/2025-01-20/8321853711394_354380060e4f5726c092_original.jpg", "custom_css": null}, {"id": 6971, "slack_id": "U0924EX6LJD", "display_name": "Kaamie", "bio": null, "projects_count": 0, "devlogs_count": 0, "votes_count": 0, "ships_count": 0, "projects": [], "coding_time_seconds": 0, "coding_time_seconds_today": 0, "balance": "You need to have a pocket watcher badge to view this.", "badges": [], "created_at": "2025-06-17T13:16:00.817-04:00", "updated_at": "2025-07-03T21:56:42.118-04:00", "avatar": "https://secure.gravatar.com/avatar/b1bbc66bcbebb4825e514fd887161e2f.jpg?s=512&d=https%3A%2F%2Fa.slack-edge.com%2Fdf10d%2Fimg%2Favatars%2Fava_0012-512.png", "custom_css": null}, {"id": 6972, "slack_id": "U092JAL4CTS", "display_name": "Sambit haldar", "bio": null, "projects_count": 0, "devlogs_count": 0, "votes_count": 0, "ships_count": 0, "projects": [], "coding_time_seconds": 0, "coding_time_seconds_today": 0, "balance": "You need to have a pocket watcher badge to view this.", "badges": [], "created_at": "2025-06-17T13:16:45.670-04:00", "updated_at": "2025-07-03T19:42:20.590-04:00", "avatar": "https://secure.gravatar.com/avatar/499d40de47f45aae574a94299190b769.jpg?s=512&d=https%3A%2F%2Fa.slack-edge.com%2Fdf10d%2Fimg%2Favatars%2Fava_0012-512.png", "custom_css": null}, {"id": 6973, "slack_id": "U091PD01L78", "display_name": "Siddharth Jain", "bio": null, "projects_count": 0, "devlogs_count": 0, "votes_count": 0, "ships_count": 0, "projects": [], "coding_time_seconds": 280032, "coding_time_seconds_today": 0, "balance": "You need to have a pocket watcher badge to view this.", "badges": [], "created_at": "2025-06-17T13:16:47.071-04:00", "updated_at": "2025-07-03T19:42:20.854-04:00", "avatar": "https://avatars.slack-edge.com/2025-06-17/9063997726786_6f560caf3369854e6a00_original.png", "custom_css": null}, {"id": 6974, "slack_id": "U08RPPF6V36", "display_name": "Soham Bose", "bio": null, "projects_count": 0, "devlogs_count": 0, "votes_count": 0, "ships_count": 0, "projects": [], "coding_time_seconds": 4665, "coding_time_seconds_today": 0, "balance": "You need to have a pocket watcher badge to view this.", "badges": [], "created_at": "2025-06-17T13:16:59.017-04:00", "updated_at": "2025-09-16T13:39:49.981-04:00", "avatar": "https://secure.gravatar.com/avatar/1f5028db6bcadce635c33cefb9427268.jpg?s=512&d=https%3A%2F%2Fa.slack-edge.com%2Fdf10d%2Fimg%2Favatars%2Fava_0017-512.png", "custom_css": null}, {"id": 6975, "slack_id": "U091VV2SD0A", "display_name": "Erim Yanik", "bio": null, "projects_count": 0, "devlogs_count": 0, "votes_count": 0, "ships_count": 0, "projects": [], "coding_time_seconds": 149671, "coding_time_seconds_today": 0, "balance": "You need to have a pocket watcher badge to view this.", "badges": [], "created_at": "2025-06-17T13:17:32.921-04:00", "updated_at": "2025-07-03T19:42:21.393-04:00", "avatar": "https://secure.gravatar.com/avatar/9b737164ca8de79d35d5399314f33f36.jpg?s=512&d=https%3A%2F%2Fa.slack-edge.com%2Fdf10d%2Fimg%2Favatars%2Fava_0016-512.png", "custom_css": null}, {"id": 6976, "slack_id": "U091P76CB35", "display_name": "Ahmed Omar", "bio": null, "projects_count": 5, "devlogs_count": 8, "votes_count": 5, "ships_count": 1, "projects": [{"id": 3109, "title": "QuantumDesk", "devlogs_count": 3, "created_at": "2025-06-23T06:00:19.965-04:00"}, {"id": 9832, "title": "real life among us", "devlogs_count": 2, "created_at": "2025-08-02T12:17:18.888-04:00"}, {"id": 11571, "title": "connect_4_ai", "devlogs_count": 3, "created_at": "2025-08-17T06:08:04.343-04:00"}, {"id": 11931, "title": "ping pong referee ttnet ai", "devlogs_count": 0, "created_at": "2025-08-21T07:24:20.408-04:00"}, {"id": 9833, "title": "real life among us", "devlogs_count": 0, "created_at": "2025-08-02T12:17:18.902-04:00"}], "coding_time_seconds": 140178, "coding_time_seconds_today": 0, "balance": "You need to have a pocket watcher badge to view this.", "badges": [{"name": "Maiden Voyage", "text": "you shipped your first project! the journey begins...", "icon": "\ud83d\udea2"}], "created_at": "2025-06-17T13:17:50.388-04:00", "updated_at": "2025-09-10T22:54:37.659-04:00", "avatar": "https://avatars.slack-edge.com/2025-06-17/9062330496597_3e272ab440a400fd74e7_original.png", "custom_css": null}, {"id": 6977, "slack_id": "U091EJ5N095", "display_name": "VAIBHAV VYAVHARE", "bio": null, "projects_count": 0, "devlogs_count": 0, "votes_count": 0, "ships_count": 0, "projects": [], "coding_time_seconds": 0, "coding_time_seconds_today": 0, "balance": "You need to have a pocket watcher badge to view this.", "badges": [], "created_at": "2025-06-17T13:17:51.760-04:00", "updated_at": "2025-07-04T08:22:27.557-04:00", "avatar": "https://secure.gravatar.com/avatar/fb16224b0abd4edb9314639c1baf6fe6.jpg?s=512&d=https%3A%2F%2Fa.slack-edge.com%2Fdf10d%2Fimg%2Favatars%2Fava_0006-512.png", "custom_css": null}, {"id": 6978, "slack_id": "U091U9DDMUM", "display_name": "Henrik", "bio": null, "projects_count": 2, "devlogs_count": 3, "votes_count": 0, "ships_count": 0, "projects": [{"id": 1363, "title": "Tabio.dev", "devlogs_count": 0, "created_at": "2025-06-18T12:07:58.393-04:00"}, {"id": 6074, "title": "RepLog - Workout Tracker iOS App", "devlogs_count": 3, "created_at": "2025-07-10T11:51:10.537-04:00"}], "coding_time_seconds": 122121, "coding_time_seconds_today": 0, "balance": "You need to have a pocket watcher badge to view this.", "badges": [], "created_at": "2025-06-17T13:17:55.390-04:00", "updated_at": "2025-07-03T21:56:42.647-04:00", "avatar": "https://secure.gravatar.com/avatar/d14f390e79550981338c27f683e3b89b.jpg?s=512&d=https%3A%2F%2Fa.slack-edge.com%2Fdf10d%2Fimg%2Favatars%2Fava_0005-512.png", "custom_css": null}, {"id": 6979, "slack_id": "U091PDGEVBQ", "display_name": "RANGDAL PAVANSAI", "bio": null, "projects_count": 0, "devlogs_count": 0, "votes_count": 0, "ships_count": 0, "projects": [], "coding_time_seconds": 0, "coding_time_seconds_today": 0, "balance": "You need to have a pocket watcher badge to view this.", "badges": [], "created_at": "2025-06-17T13:19:09.281-04:00", "updated_at": "2025-07-03T21:44:48.318-04:00", "avatar": "https://secure.gravatar.com/avatar/9b54e26d144ee92aae0c99f0399883f6.jpg?s=512&d=https%3A%2F%2Fa.slack-edge.com%2Fdf10d%2Fimg%2Favatars%2Fava_0012-512.png", "custom_css": null}, {"id": 6980, "slack_id": "U092JAMFL8G", "display_name": "vice", "bio": null, "projects_count": 0, "devlogs_count": 0, "votes_count": 0, "ships_count": 0, "projects": [], "coding_time_seconds": 0, "coding_time_seconds_today": 0, "balance": "You need to have a pocket watcher badge to view this.", "badges": [], "created_at": "2025-06-17T13:19:09.653-04:00", "updated_at": "2025-07-03T22:35:18.228-04:00", "avatar": "https://secure.gravatar.com/avatar/1f4b5e48df0c3c4d47b96aca886b4ef8.jpg?s=512&d=https%3A%2F%2Fa.slack-edge.com%2Fdf10d%2Fimg%2Favatars%2Fava_0008-512.png", "custom_css": null}], "pagination": {"page": 349, "pages": 1192, "count": 23828, "items": 20}}