{"users": [{"id": 681, "slack_id": "U07F62TFY4F", "display_name": "JJ Chan", "bio": null, "projects_count": 1, "devlogs_count": 0, "votes_count": 0, "ships_count": 0, "projects": [{"id": 1823, "title": "snake game", "devlogs_count": 0, "created_at": "2025-06-19T10:58:37.435-04:00"}], "coding_time_seconds": 325, "coding_time_seconds_today": 0, "balance": "You need to have a pocket watcher badge to view this.", "badges": [], "created_at": "2025-06-16T12:08:33.216-04:00", "updated_at": "2025-07-03T19:14:06.345-04:00", "avatar": "https://secure.gravatar.com/avatar/e74967988df7b3c85a88e05f5b03948e.jpg?s=512&d=https%3A%2F%2Fa.slack-edge.com%2Fdf10d%2Fimg%2Favatars%2Fava_0018-512.png", "custom_css": null}, {"id": 682, "slack_id": "U0917S2RGCF", "display_name": "Pushparaj Mehta", "bio": null, "projects_count": 0, "devlogs_count": 0, "votes_count": 0, "ships_count": 0, "projects": [], "coding_time_seconds": 290274, "coding_time_seconds_today": 0, "balance": "You need to have a pocket watcher badge to view this.", "badges": [], "created_at": "2025-06-16T12:08:35.580-04:00", "updated_at": "2025-07-21T21:00:06.359-04:00", "avatar": "https://avatars.slack-edge.com/2025-06-16/9057208184578_336435fb3661c3e0f0a4_original.jpg", "custom_css": null}, {"id": 683, "slack_id": "U092BE79Q2C", "display_name": "Akif Ahmed Siddiqui", "bio": null, "projects_count": 1, "devlogs_count": 0, "votes_count": 0, "ships_count": 0, "projects": [{"id": 129, "title": "theakifmethod", "devlogs_count": 0, "created_at": "2025-06-16T14:14:54.690-04:00"}], "coding_time_seconds": 83078, "coding_time_seconds_today": 0, "balance": "You need to have a pocket watcher badge to view this.", "badges": [], "created_at": "2025-06-16T12:08:36.617-04:00", "updated_at": "2025-07-03T19:14:06.882-04:00", "avatar": "https://avatars.slack-edge.com/2025-06-16/9055439539493_f835b08676218ea70495_original.png", "custom_css": null}, {"id": 684, "slack_id": "U091MCCCV61", "display_name": "Saksham Shakya", "bio": null, "projects_count": 0, "devlogs_count": 0, "votes_count": 0, "ships_count": 0, "projects": [], "coding_time_seconds": 17344, "coding_time_seconds_today": 0, "balance": "You need to have a pocket watcher badge to view this.", "badges": [], "created_at": "2025-06-16T12:08:37.996-04:00", "updated_at": "2025-07-03T19:14:07.160-04:00", "avatar": "https://avatars.slack-edge.com/2025-06-18/9066682754292_2a72eb6f9dc5bdae9ea4_original.jpg", "custom_css": null}, {"id": 685, "slack_id": "U07FC2JPHMX", "display_name": "m0.hid", "bio": null, "projects_count": 0, "devlogs_count": 0, "votes_count": 0, "ships_count": 0, "projects": [], "coding_time_seconds": 0, "coding_time_seconds_today": 0, "balance": "You need to have a pocket watcher badge to view this.", "badges": [], "created_at": "2025-06-16T12:08:40.461-04:00", "updated_at": "2025-07-03T19:14:07.433-04:00", "avatar": "https://avatars.slack-edge.com/2025-05-30/8990858501841_506be5ffad314f4c2911_original.png", "custom_css": null}, {"id": 686, "slack_id": "U091G40U2TV", "display_name": "Samman Das", "bio": null, "projects_count": 0, "devlogs_count": 0, "votes_count": 0, "ships_count": 0, "projects": [], "coding_time_seconds": 0, "coding_time_seconds_today": 0, "balance": "You need to have a pocket watcher badge to view this.", "badges": [], "created_at": "2025-06-16T12:08:43.375-04:00", "updated_at": "2025-07-03T19:14:07.702-04:00", "avatar": "https://secure.gravatar.com/avatar/4e011a5dd5f445c1bd1c67820ae9724f.jpg?s=512&d=https%3A%2F%2Fa.slack-edge.com%2Fdf10d%2Fimg%2Favatars%2Fava_0011-512.png", "custom_css": null}, {"id": 687, "slack_id": "U0921N84Q7K", "display_name": "fenney", "bio": null, "projects_count": 0, "devlogs_count": 0, "votes_count": 0, "ships_count": 0, "projects": [], "coding_time_seconds": 0, "coding_time_seconds_today": 0, "balance": "You need to have a pocket watcher badge to view this.", "badges": [], "created_at": "2025-06-16T12:08:53.294-04:00", "updated_at": "2025-07-03T19:14:07.962-04:00", "avatar": "https://secure.gravatar.com/avatar/26a2efa4f9ba4794757b05bbb0d9b347.jpg?s=512&d=https%3A%2F%2Fa.slack-edge.com%2Fdf10d%2Fimg%2Favatars%2Fava_0012-512.png", "custom_css": null}, {"id": 688, "slack_id": "U07SJU0MJN6", "display_name": "Vaed Dhruv", "bio": null, "projects_count": 0, "devlogs_count": 0, "votes_count": 0, "ships_count": 0, "projects": [], "coding_time_seconds": 0, "coding_time_seconds_today": 0, "balance": "You need to have a pocket watcher badge to view this.", "badges": [], "created_at": "2025-06-16T12:09:04.523-04:00", "updated_at": "2025-07-03T19:14:08.226-04:00", "avatar": "https://secure.gravatar.com/avatar/1b8ef051ac891556e946cd1da7bd5ba3.jpg?s=512&d=https%3A%2F%2Fa.slack-edge.com%2Fdf10d%2Fimg%2Favatars%2Fava_0001-512.png", "custom_css": null}, {"id": 689, "slack_id": "U091G6Q74V9", "display_name": "mae", "bio": null, "projects_count": 0, "devlogs_count": 0, "votes_count": 0, "ships_count": 0, "projects": [], "coding_time_seconds": 241, "coding_time_seconds_today": 0, "balance": "You need to have a pocket watcher badge to view this.", "badges": [], "created_at": "2025-06-16T12:09:06.497-04:00", "updated_at": "2025-07-03T19:14:08.507-04:00", "avatar": "https://secure.gravatar.com/avatar/564931d086dcff3c85abb38e8c5825bf.jpg?s=512&d=https%3A%2F%2Fa.slack-edge.com%2Fdf10d%2Fimg%2Favatars%2Fava_0022-512.png", "custom_css": null}, {"id": 690, "slack_id": "U0798DBP8VA", "display_name": "Lopa", "bio": null, "projects_count": 0, "devlogs_count": 0, "votes_count": 0, "ships_count": 0, "projects": [], "coding_time_seconds": 382843, "coding_time_seconds_today": 9066, "balance": "You need to have a pocket watcher badge to view this.", "badges": [], "created_at": "2025-06-16T12:09:07.623-04:00", "updated_at": "2025-09-07T12:00:25.002-04:00", "avatar": "https://avatars.slack-edge.com/2025-03-10/8580760217778_1775c02fe2e1dd6e98d8_original.png", "custom_css": null}, {"id": 691, "slack_id": "U07DX84TVFS", "display_name": "comfy cat", "bio": null, "projects_count": 1, "devlogs_count": 3, "votes_count": 31, "ships_count": 1, "projects": [{"id": 2949, "title": "Mono ", "devlogs_count": 3, "created_at": "2025-06-22T14:34:41.130-04:00"}], "coding_time_seconds": 15518, "coding_time_seconds_today": 0, "balance": "You need to have a pocket watcher badge to view this.", "badges": [{"name": "Maiden Voyage", "text": "you shipped your first project! the journey begins...", "icon": "\ud83d\udea2"}], "created_at": "2025-06-16T12:09:13.065-04:00", "updated_at": "2025-09-10T22:51:28.904-04:00", "avatar": "https://avatars.slack-edge.com/2025-05-08/8885671832384_11405ec5bec2c8e9aeaf_original.jpg", "custom_css": null}, {"id": 692, "slack_id": "U0921MDFJL9", "display_name": "Nithin", "bio": null, "projects_count": 0, "devlogs_count": 0, "votes_count": 0, "ships_count": 0, "projects": [], "coding_time_seconds": 0, "coding_time_seconds_today": 0, "balance": "You need to have a pocket watcher badge to view this.", "badges": [], "created_at": "2025-06-16T12:09:20.211-04:00", "updated_at": "2025-07-03T19:14:09.322-04:00", "avatar": "https://secure.gravatar.com/avatar/26527da3bec6981a48ecbbb06f321e55.jpg?s=512&d=https%3A%2F%2Fa.slack-edge.com%2Fdf10d%2Fimg%2Favatars%2Fava_0002-512.png", "custom_css": null}, {"id": 693, "slack_id": "U06TV3F4HEU", "display_name": "thegrammarpolice", "bio": null, "projects_count": 0, "devlogs_count": 0, "votes_count": 0, "ships_count": 0, "projects": [], "coding_time_seconds": 228199, "coding_time_seconds_today": 0, "balance": "You need to have a pocket watcher badge to view this.", "badges": [], "created_at": "2025-06-16T12:09:20.478-04:00", "updated_at": "2025-09-08T14:01:04.688-04:00", "avatar": "https://avatars.slack-edge.com/2025-09-08/9479799478614_4e32e3b89b15078869d7_original.png", "custom_css": null}, {"id": 694, "slack_id": "U0917S24R9V", "display_name": "Cyrek", "bio": null, "projects_count": 0, "devlogs_count": 0, "votes_count": 0, "ships_count": 0, "projects": [], "coding_time_seconds": 0, "coding_time_seconds_today": 0, "balance": "You need to have a pocket watcher badge to view this.", "badges": [], "created_at": "2025-06-16T12:09:35.086-04:00", "updated_at": "2025-07-17T09:35:49.905-04:00", "avatar": "https://secure.gravatar.com/avatar/6db8cec41b500009c43b0959df57b599.jpg?s=512&d=https%3A%2F%2Fa.slack-edge.com%2Fdf10d%2Fimg%2Favatars%2Fava_0010-512.png", "custom_css": null}, {"id": 695, "slack_id": "U091PJP4412", "display_name": "Dhairya Patel", "bio": null, "projects_count": 0, "devlogs_count": 0, "votes_count": 0, "ships_count": 0, "projects": [], "coding_time_seconds": 0, "coding_time_seconds_today": 0, "balance": "You need to have a pocket watcher badge to view this.", "badges": [], "created_at": "2025-06-16T12:09:36.642-04:00", "updated_at": "2025-07-03T19:14:10.138-04:00", "avatar": "https://avatars.slack-edge.com/2025-06-16/9050245170035_e54ee524b965b92221c8_original.jpg", "custom_css": null}, {"id": 696, "slack_id": "U0921N1BR3K", "display_name": "Khalid abdulkadir Diriye", "bio": null, "projects_count": 0, "devlogs_count": 0, "votes_count": 0, "ships_count": 0, "projects": [], "coding_time_seconds": 0, "coding_time_seconds_today": 0, "balance": "You need to have a pocket watcher badge to view this.", "badges": [], "created_at": "2025-06-16T12:09:38.814-04:00", "updated_at": "2025-07-03T19:14:10.493-04:00", "avatar": "https://secure.gravatar.com/avatar/726dc420772a906f78a3c6a2437ba726.jpg?s=512&d=https%3A%2F%2Fa.slack-edge.com%2Fdf10d%2Fimg%2Favatars%2Fava_0007-512.png", "custom_css": null}, {"id": 697, "slack_id": "U091MACJQLV", "display_name": "cheeze", "bio": null, "projects_count": 0, "devlogs_count": 0, "votes_count": 0, "ships_count": 0, "projects": [], "coding_time_seconds": 0, "coding_time_seconds_today": 0, "balance": "You need to have a pocket watcher badge to view this.", "badges": [], "created_at": "2025-06-16T12:09:40.396-04:00", "updated_at": "2025-07-03T19:14:10.789-04:00", "avatar": "https://secure.gravatar.com/avatar/53eda9e4f8ff345258ee32ae298c39fb.jpg?s=512&d=https%3A%2F%2Fa.slack-edge.com%2Fdf10d%2Fimg%2Favatars%2Fava_0022-512.png", "custom_css": null}, {"id": 698, "slack_id": "U0917SDJCEB", "display_name": "Herrera", "bio": null, "projects_count": 0, "devlogs_count": 0, "votes_count": 0, "ships_count": 0, "projects": [], "coding_time_seconds": 0, "coding_time_seconds_today": 0, "balance": "You need to have a pocket watcher badge to view this.", "badges": [], "created_at": "2025-06-16T12:09:41.182-04:00", "updated_at": "2025-07-03T19:14:11.070-04:00", "avatar": "https://secure.gravatar.com/avatar/79337a6fcb0073cb3bd095664f083029.jpg?s=512&d=https%3A%2F%2Fa.slack-edge.com%2Fdf10d%2Fimg%2Favatars%2Fava_0004-512.png", "custom_css": null}, {"id": 699, "slack_id": "U091G6A7799", "display_name": "Rajat Malhotra", "bio": null, "projects_count": 0, "devlogs_count": 0, "votes_count": 0, "ships_count": 0, "projects": [], "coding_time_seconds": 0, "coding_time_seconds_today": 0, "balance": "You need to have a pocket watcher badge to view this.", "badges": [], "created_at": "2025-06-16T12:09:49.579-04:00", "updated_at": "2025-07-03T19:14:11.335-04:00", "avatar": "https://secure.gravatar.com/avatar/0d4e952673e4026b74c01272f56c4a73.jpg?s=512&d=https%3A%2F%2Fa.slack-edge.com%2Fdf10d%2Fimg%2Favatars%2Fava_0020-512.png", "custom_css": null}, {"id": 700, "slack_id": "U0917PCHVNK", "display_name": "sricharan", "bio": null, "projects_count": 0, "devlogs_count": 0, "votes_count": 0, "ships_count": 0, "projects": [], "coding_time_seconds": 45283, "coding_time_seconds_today": 0, "balance": "You need to have a pocket watcher badge to view this.", "badges": [], "created_at": "2025-06-16T12:09:53.162-04:00", "updated_at": "2025-07-03T19:14:11.605-04:00", "avatar": "https://secure.gravatar.com/avatar/4a8e9984e8fe29036bb9607bd60dfcf8.jpg?s=512&d=https%3A%2F%2Fa.slack-edge.com%2Fdf10d%2Fimg%2Favatars%2Fava_0024-512.png", "custom_css": null}], "pagination": {"page": 35, "pages": 1192, "count": 23827, "items": 20}}