{"users": [{"id": 6981, "slack_id": "U091EJRGK63", "display_name": "billy g", "bio": null, "projects_count": 0, "devlogs_count": 0, "votes_count": 0, "ships_count": 0, "projects": [], "coding_time_seconds": 0, "coding_time_seconds_today": 0, "balance": "You need to have a pocket watcher badge to view this.", "badges": [], "created_at": "2025-06-17T13:19:56.634-04:00", "updated_at": "2025-07-03T19:42:22.469-04:00", "avatar": "https://secure.gravatar.com/avatar/73595a3cd7368d0c690f47084fe32199.jpg?s=512&d=https%3A%2F%2Fa.slack-edge.com%2Fdf10d%2Fimg%2Favatars%2Fava_0014-512.png", "custom_css": null}, {"id": 6982, "slack_id": "U091P8BE2AX", "display_name": "dit", "bio": null, "projects_count": 0, "devlogs_count": 0, "votes_count": 0, "ships_count": 0, "projects": [], "coding_time_seconds": 0, "coding_time_seconds_today": 0, "balance": "You need to have a pocket watcher badge to view this.", "badges": [], "created_at": "2025-06-17T13:20:13.254-04:00", "updated_at": "2025-09-24T22:52:23.780-04:00", "avatar": "https://avatars.slack-edge.com/2025-09-25/9578692070118_d8be6166a128b43054de_original.png", "custom_css": null}, {"id": 6983, "slack_id": "U07BN8102BT", "display_name": "Rusk", "bio": null, "projects_count": 0, "devlogs_count": 20, "votes_count": 10, "ships_count": 0, "projects": [], "coding_time_seconds": 808281, "coding_time_seconds_today": 0, "balance": "You need to have a pocket watcher badge to view this.", "badges": [], "created_at": "2025-06-17T13:20:22.625-04:00", "updated_at": "2025-08-09T21:56:07.425-04:00", "avatar": "https://avatars.slack-edge.com/2024-07-06/7380715218133_4ec6079ac509fd77c77c_original.jpg", "custom_css": null}, {"id": 6984, "slack_id": "U080WBA5MK9", "display_name": "BrunoGG", "bio": null, "projects_count": 0, "devlogs_count": 0, "votes_count": 0, "ships_count": 0, "projects": [], "coding_time_seconds": 208, "coding_time_seconds_today": 0, "balance": "You need to have a pocket watcher badge to view this.", "badges": [], "created_at": "2025-06-17T13:20:29.691-04:00", "updated_at": "2025-07-03T19:42:23.268-04:00", "avatar": "https://avatars.slack-edge.com/2025-02-26/8515821366067_44b8ee5c73fbeeb078b8_original.png", "custom_css": null}, {"id": 6985, "slack_id": "U091V9J3B8S", "display_name": "M\u00e1rio Antunes", "bio": null, "projects_count": 0, "devlogs_count": 0, "votes_count": 0, "ships_count": 0, "projects": [], "coding_time_seconds": 1050, "coding_time_seconds_today": 0, "balance": "You need to have a pocket watcher badge to view this.", "badges": [], "created_at": "2025-06-17T13:20:34.058-04:00", "updated_at": "2025-07-03T19:42:23.530-04:00", "avatar": "https://secure.gravatar.com/avatar/ccedaf8733d5c0f82e1486f20e502e30.jpg?s=512&d=https%3A%2F%2Fa.slack-edge.com%2Fdf10d%2Fimg%2Favatars%2Fava_0006-512.png", "custom_css": null}, {"id": 6986, "slack_id": "U091U9Z9FHB", "display_name": "Artur Misiurev", "bio": null, "projects_count": 0, "devlogs_count": 0, "votes_count": 0, "ships_count": 0, "projects": [], "coding_time_seconds": 0, "coding_time_seconds_today": 0, "balance": "You need to have a pocket watcher badge to view this.", "badges": [], "created_at": "2025-06-17T13:21:45.442-04:00", "updated_at": "2025-07-03T19:42:23.791-04:00", "avatar": "https://avatars.slack-edge.com/2025-06-17/9048661640199_dbe5871ae3a8508888d8_original.png", "custom_css": null}, {"id": 6987, "slack_id": "U091PE1GUHL", "display_name": "Venissa", "bio": null, "projects_count": 0, "devlogs_count": 0, "votes_count": 0, "ships_count": 0, "projects": [], "coding_time_seconds": 0, "coding_time_seconds_today": 0, "balance": "You need to have a pocket watcher badge to view this.", "badges": [], "created_at": "2025-06-17T13:24:04.143-04:00", "updated_at": "2025-07-03T19:42:24.050-04:00", "avatar": "https://secure.gravatar.com/avatar/210ad0a54a2dbce6d88c8816188f5cca.jpg?s=512&d=https%3A%2F%2Fa.slack-edge.com%2Fdf10d%2Fimg%2Favatars%2Fava_0009-512.png", "custom_css": null}, {"id": 6988, "slack_id": "U091PEA2BFY", "display_name": "lolcat", "bio": null, "projects_count": 0, "devlogs_count": 0, "votes_count": 0, "ships_count": 0, "projects": [], "coding_time_seconds": 1314, "coding_time_seconds_today": 0, "balance": "You need to have a pocket watcher badge to view this.", "badges": [], "created_at": "2025-06-17T13:24:14.737-04:00", "updated_at": "2025-07-03T19:42:24.313-04:00", "avatar": "https://secure.gravatar.com/avatar/9f38cb582db4056a55fbf51e72a4b03e.jpg?s=512&d=https%3A%2F%2Fa.slack-edge.com%2Fdf10d%2Fimg%2Favatars%2Fava_0000-512.png", "custom_css": null}, {"id": 6989, "slack_id": "U091U9MJX7X", "display_name": "Aparna Patil", "bio": null, "projects_count": 0, "devlogs_count": 0, "votes_count": 0, "ships_count": 0, "projects": [], "coding_time_seconds": 0, "coding_time_seconds_today": 0, "balance": "You need to have a pocket watcher badge to view this.", "badges": [], "created_at": "2025-06-17T13:24:20.864-04:00", "updated_at": "2025-07-03T19:42:24.583-04:00", "avatar": "https://avatars.slack-edge.com/2025-06-17/9064038534402_de2e8b539688ab08315d_original.png", "custom_css": null}, {"id": 6990, "slack_id": "U088J310AHH", "display_name": "Indie_Girl", "bio": null, "projects_count": 0, "devlogs_count": 0, "votes_count": 0, "ships_count": 0, "projects": [], "coding_time_seconds": 8788, "coding_time_seconds_today": 0, "balance": "You need to have a pocket watcher badge to view this.", "badges": [], "created_at": "2025-06-17T13:24:20.960-04:00", "updated_at": "2025-07-03T19:42:24.848-04:00", "avatar": "https://avatars.slack-edge.com/2025-04-15/8761844625844_ec36498b82165fba94b8_original.png", "custom_css": null}, {"id": 6991, "slack_id": "U091PE8TJHL", "display_name": "Shashikant", "bio": null, "projects_count": 0, "devlogs_count": 0, "votes_count": 0, "ships_count": 0, "projects": [], "coding_time_seconds": 0, "coding_time_seconds_today": 0, "balance": "You need to have a pocket watcher badge to view this.", "badges": [], "created_at": "2025-06-17T13:24:22.175-04:00", "updated_at": "2025-07-03T19:42:25.110-04:00", "avatar": "https://secure.gravatar.com/avatar/47e328d340f0fa27b31f9c538c543145.jpg?s=512&d=https%3A%2F%2Fa.slack-edge.com%2Fdf10d%2Fimg%2Favatars%2Fava_0022-512.png", "custom_css": null}, {"id": 6992, "slack_id": "U0928JE188H", "display_name": "Hasbul Bhuiyan", "bio": null, "projects_count": 1, "devlogs_count": 0, "votes_count": 0, "ships_count": 0, "projects": [{"id": 1904, "title": "StateSnap!", "devlogs_count": 0, "created_at": "2025-06-19T15:10:08.257-04:00"}], "coding_time_seconds": 120, "coding_time_seconds_today": 0, "balance": "You need to have a pocket watcher badge to view this.", "badges": [], "created_at": "2025-06-17T13:24:52.164-04:00", "updated_at": "2025-07-03T19:42:25.367-04:00", "avatar": "https://avatars.slack-edge.com/2025-06-17/9076641905697_6ee93dd1eb55f6e32e59_original.jpg", "custom_css": null}, {"id": 6993, "slack_id": "U091EKATG9M", "display_name": "Sammani", "bio": null, "projects_count": 0, "devlogs_count": 0, "votes_count": 0, "ships_count": 0, "projects": [], "coding_time_seconds": 0, "coding_time_seconds_today": 0, "balance": "You need to have a pocket watcher badge to view this.", "badges": [], "created_at": "2025-06-17T13:25:23.915-04:00", "updated_at": "2025-07-03T19:42:25.658-04:00", "avatar": "https://secure.gravatar.com/avatar/c8575e2fec855f16d34c33dfb0d6c561.jpg?s=512&d=https%3A%2F%2Fa.slack-edge.com%2Fdf10d%2Fimg%2Favatars%2Fava_0019-512.png", "custom_css": null}, {"id": 6994, "slack_id": "U091W0DPVBL", "display_name": "Guilherme Oliveira", "bio": null, "projects_count": 1, "devlogs_count": 0, "votes_count": 0, "ships_count": 0, "projects": [{"id": 1027, "title": "Injektor", "devlogs_count": 0, "created_at": "2025-06-17T14:02:14.751-04:00"}], "coding_time_seconds": 80512, "coding_time_seconds_today": 0, "balance": "You need to have a pocket watcher badge to view this.", "badges": [], "created_at": "2025-06-17T13:25:32.149-04:00", "updated_at": "2025-07-03T19:42:25.920-04:00", "avatar": "https://secure.gravatar.com/avatar/0625673e2291dcd2740b2107b315b95a.jpg?s=512&d=https%3A%2F%2Fa.slack-edge.com%2Fdf10d%2Fimg%2Favatars%2Fava_0017-512.png", "custom_css": null}, {"id": 6995, "slack_id": "U091W0W7CLS", "display_name": "Ambati Abhinay", "bio": null, "projects_count": 0, "devlogs_count": 0, "votes_count": 0, "ships_count": 0, "projects": [], "coding_time_seconds": 198873, "coding_time_seconds_today": 0, "balance": "You need to have a pocket watcher badge to view this.", "badges": [], "created_at": "2025-06-17T13:26:13.295-04:00", "updated_at": "2025-07-03T19:42:26.200-04:00", "avatar": "https://secure.gravatar.com/avatar/ac81f8aecb146625a56eacdd85916c40.jpg?s=512&d=https%3A%2F%2Fa.slack-edge.com%2Fdf10d%2Fimg%2Favatars%2Fava_0011-512.png", "custom_css": null}, {"id": 6996, "slack_id": "U091EKNGHHD", "display_name": "Oliver", "bio": null, "projects_count": 0, "devlogs_count": 0, "votes_count": 0, "ships_count": 0, "projects": [], "coding_time_seconds": 0, "coding_time_seconds_today": 0, "balance": "You need to have a pocket watcher badge to view this.", "badges": [], "created_at": "2025-06-17T13:26:28.162-04:00", "updated_at": "2025-07-03T19:42:26.548-04:00", "avatar": "https://secure.gravatar.com/avatar/d13f34d77d77ccdaaa2247c66f1eb2e2.jpg?s=512&d=https%3A%2F%2Fa.slack-edge.com%2Fdf10d%2Fimg%2Favatars%2Fava_0018-512.png", "custom_css": null}, {"id": 6997, "slack_id": "U092JCALX1N", "display_name": "Antoni", "bio": null, "projects_count": 0, "devlogs_count": 0, "votes_count": 0, "ships_count": 0, "projects": [], "coding_time_seconds": 0, "coding_time_seconds_today": 0, "balance": "You need to have a pocket watcher badge to view this.", "badges": [], "created_at": "2025-06-17T13:26:32.149-04:00", "updated_at": "2025-07-03T19:42:26.823-04:00", "avatar": "https://secure.gravatar.com/avatar/e0fa25ddb0a5432e15814e5794830208.jpg?s=512&d=https%3A%2F%2Fa.slack-edge.com%2Fdf10d%2Fimg%2Favatars%2Fava_0011-512.png", "custom_css": null}, {"id": 6998, "slack_id": "U091EKTDPT9", "display_name": "Alicja Indyk", "bio": null, "projects_count": 0, "devlogs_count": 0, "votes_count": 0, "ships_count": 0, "projects": [], "coding_time_seconds": 0, "coding_time_seconds_today": 0, "balance": "You need to have a pocket watcher badge to view this.", "badges": [], "created_at": "2025-06-17T13:26:48.256-04:00", "updated_at": "2025-07-04T02:26:16.113-04:00", "avatar": "https://secure.gravatar.com/avatar/e24237570576f5e3c1e1e78023d0e1c6.jpg?s=512&d=https%3A%2F%2Fa.slack-edge.com%2Fdf10d%2Fimg%2Favatars%2Fava_0015-512.png", "custom_css": null}, {"id": 6999, "slack_id": "U091UART6H3", "display_name": "Veronica Dawson", "bio": null, "projects_count": 2, "devlogs_count": 18, "votes_count": 27, "ships_count": 1, "projects": [{"id": 4119, "title": "Fever Dream", "devlogs_count": 5, "created_at": "2025-06-27T15:44:46.740-04:00"}, {"id": 8000, "title": "Portfolio", "devlogs_count": 0, "created_at": "2025-07-24T01:32:04.111-04:00"}], "coding_time_seconds": 428706, "coding_time_seconds_today": 0, "balance": "You need to have a pocket watcher badge to view this.", "badges": [{"name": "Maiden Voyage", "text": "you shipped your first project! the journey begins...", "icon": "\ud83d\udea2"}], "created_at": "2025-06-17T13:27:13.461-04:00", "updated_at": "2025-09-10T22:54:38.397-04:00", "avatar": "https://secure.gravatar.com/avatar/e91d5fec840371ce5e4bd7ecb9be0228.jpg?s=512&d=https%3A%2F%2Fa.slack-edge.com%2Fdf10d%2Fimg%2Favatars%2Fava_0020-512.png", "custom_css": null}, {"id": 7000, "slack_id": "U092JBM8E3S", "display_name": "Neev Gupta", "bio": null, "projects_count": 0, "devlogs_count": 0, "votes_count": 0, "ships_count": 0, "projects": [], "coding_time_seconds": 0, "coding_time_seconds_today": 0, "balance": "You need to have a pocket watcher badge to view this.", "badges": [], "created_at": "2025-06-17T13:27:33.623-04:00", "updated_at": "2025-07-03T19:42:27.377-04:00", "avatar": "https://secure.gravatar.com/avatar/e80885aa9cb09dcd10ccc73ecb040162.jpg?s=512&d=https%3A%2F%2Fa.slack-edge.com%2Fdf10d%2Fimg%2Favatars%2Fava_0009-512.png", "custom_css": null}], "pagination": {"page": 350, "pages": 1192, "count": 23828, "items": 20}}