{"users": [{"id": 7001, "slack_id": "U091P9PDK43", "display_name": "Ishan Sharma", "bio": null, "projects_count": 1, "devlogs_count": 1, "votes_count": 0, "ships_count": 0, "projects": [{"id": 1735, "title": "MultiplayerSnake", "devlogs_count": 1, "created_at": "2025-06-19T05:54:34.464-04:00"}], "coding_time_seconds": 14206, "coding_time_seconds_today": 0, "balance": "You need to have a pocket watcher badge to view this.", "badges": [], "created_at": "2025-06-17T13:27:35.320-04:00", "updated_at": "2025-07-04T08:22:29.125-04:00", "avatar": "https://secure.gravatar.com/avatar/1f52fbf9be364e8642f854eafbba31f5.jpg?s=512&d=https%3A%2F%2Fa.slack-edge.com%2Fdf10d%2Fimg%2Favatars%2Fava_0006-512.png", "custom_css": null}, {"id": 7002, "slack_id": "U0928JX0Y3T", "display_name": "M.R. Akash", "bio": null, "projects_count": 3, "devlogs_count": 2, "votes_count": 0, "ships_count": 0, "projects": [{"id": 1039, "title": "Clash of Code", "devlogs_count": 1, "created_at": "2025-06-17T14:10:25.407-04:00"}, {"id": 1219, "title": "Snapshot", "devlogs_count": 0, "created_at": "2025-06-17T23:35:32.034-04:00"}, {"id": 1224, "title": "Summer of Making Shop Rewards", "devlogs_count": 1, "created_at": "2025-06-17T23:56:28.184-04:00"}], "coding_time_seconds": 10792, "coding_time_seconds_today": 0, "balance": "You need to have a pocket watcher badge to view this.", "badges": [], "created_at": "2025-06-17T13:28:25.543-04:00", "updated_at": "2025-07-03T19:42:27.789-04:00", "avatar": "https://avatars.slack-edge.com/2025-06-17/9057525966134_032cdab73ce3db955efa_original.png", "custom_css": null}, {"id": 7003, "slack_id": "U092JCEE1RN", "display_name": "B\u00e1s", "bio": null, "projects_count": 1, "devlogs_count": 0, "votes_count": 0, "ships_count": 0, "projects": [{"id": 1046, "title": "GodotRipper", "devlogs_count": 0, "created_at": "2025-06-17T14:18:14.185-04:00"}], "coding_time_seconds": 58478, "coding_time_seconds_today": 0, "balance": "You need to have a pocket watcher badge to view this.", "badges": [], "created_at": "2025-06-17T13:29:02.262-04:00", "updated_at": "2025-07-03T21:56:44.592-04:00", "avatar": "https://secure.gravatar.com/avatar/cf8526b17f39bf855beefa6215ab96b2.jpg?s=512&d=https%3A%2F%2Fa.slack-edge.com%2Fdf10d%2Fimg%2Favatars%2Fava_0026-512.png", "custom_css": null}, {"id": 7004, "slack_id": "U091UAU3A5B", "display_name": "Abhishek Gupta", "bio": null, "projects_count": 0, "devlogs_count": 0, "votes_count": 0, "ships_count": 0, "projects": [], "coding_time_seconds": 0, "coding_time_seconds_today": 0, "balance": "You need to have a pocket watcher badge to view this.", "badges": [], "created_at": "2025-06-17T13:29:07.310-04:00", "updated_at": "2025-07-03T19:42:28.187-04:00", "avatar": "https://avatars.slack-edge.com/2025-06-17/9057358395987_d9ec961a7e62b2273685_original.png", "custom_css": null}, {"id": 7005, "slack_id": "U091VGSBM1S", "display_name": "Atul", "bio": null, "projects_count": 5, "devlogs_count": 30, "votes_count": 53, "ships_count": 2, "projects": [{"id": 2068, "title": "FileMaker", "devlogs_count": 9, "created_at": "2025-06-20T03:54:24.235-04:00"}, {"id": 6060, "title": "AchaJi esolang", "devlogs_count": 5, "created_at": "2025-07-10T09:48:00.068-04:00"}, {"id": 6443, "title": "Nerd discord bot", "devlogs_count": 3, "created_at": "2025-07-13T10:57:41.850-04:00"}, {"id": 5479, "title": "Lil bro Discord Bot", "devlogs_count": 6, "created_at": "2025-07-05T14:59:58.186-04:00"}, {"id": 4116, "title": "Hello Chatapp", "devlogs_count": 7, "created_at": "2025-06-27T14:51:46.126-04:00"}], "coding_time_seconds": 513954, "coding_time_seconds_today": 0, "balance": "You need to have a pocket watcher badge to view this.", "badges": [{"name": "Maiden Voyage", "text": "you shipped your first project! the journey begins...", "icon": "\ud83d\udea2"}], "created_at": "2025-06-17T13:29:12.559-04:00", "updated_at": "2025-09-10T22:54:38.574-04:00", "avatar": "https://avatars.slack-edge.com/2025-06-17/9049037326055_a4a3a3d2d52b41fc0349_original.jpg", "custom_css": null}, {"id": 7006, "slack_id": "U091W1FNX50", "display_name": "Guider le recit", "bio": null, "projects_count": 0, "devlogs_count": 0, "votes_count": 0, "ships_count": 0, "projects": [], "coding_time_seconds": 120, "coding_time_seconds_today": 0, "balance": "You need to have a pocket watcher badge to view this.", "badges": [], "created_at": "2025-06-17T13:29:47.342-04:00", "updated_at": "2025-07-03T19:42:28.727-04:00", "avatar": "https://secure.gravatar.com/avatar/476c3d8a24b247323e186d174bd67737.jpg?s=512&d=https%3A%2F%2Fa.slack-edge.com%2Fdf10d%2Fimg%2Favatars%2Fava_0004-512.png", "custom_css": null}, {"id": 7007, "slack_id": "U090QKW12QL", "display_name": "sillynano", "bio": "low-key best monkey coder in my jungle", "projects_count": 3, "devlogs_count": 10, "votes_count": 16, "ships_count": 2, "projects": [{"id": 1369, "title": "Wiki Craft", "devlogs_count": 5, "created_at": "2025-06-18T12:26:19.955-04:00"}, {"id": 10663, "title": "Burger Mod", "devlogs_count": 2, "created_at": "2025-08-09T12:21:07.441-04:00"}, {"id": 7716, "title": "ZeroIQ", "devlogs_count": 3, "created_at": "2025-07-22T17:18:11.540-04:00"}], "coding_time_seconds": 57919, "coding_time_seconds_today": 0, "balance": "You need to have a pocket watcher badge to view this.", "badges": [{"name": "Maiden Voyage", "text": "you shipped your first project! the journey begins...", "icon": "\ud83d\udea2"}], "created_at": "2025-06-17T13:30:04.835-04:00", "updated_at": "2025-09-10T22:54:38.643-04:00", "avatar": "https://avatars.slack-edge.com/2025-06-10/9051701855072_b640252d1414c19a63aa_original.jpg", "custom_css": null}, {"id": 7008, "slack_id": "U091UB4D43X", "display_name": "Biplab", "bio": null, "projects_count": 0, "devlogs_count": 0, "votes_count": 0, "ships_count": 0, "projects": [], "coding_time_seconds": 0, "coding_time_seconds_today": 0, "balance": "You need to have a pocket watcher badge to view this.", "badges": [], "created_at": "2025-06-17T13:30:23.415-04:00", "updated_at": "2025-07-03T19:42:29.246-04:00", "avatar": "https://secure.gravatar.com/avatar/992938b124699228b16c0ed557e9c8ff.jpg?s=512&d=https%3A%2F%2Fa.slack-edge.com%2Fdf10d%2Fimg%2Favatars%2Fava_0012-512.png", "custom_css": null}, {"id": 7009, "slack_id": "U091G9YHDK5", "display_name": "Alex", "bio": null, "projects_count": 0, "devlogs_count": 0, "votes_count": 0, "ships_count": 0, "projects": [], "coding_time_seconds": 0, "coding_time_seconds_today": 0, "balance": "You need to have a pocket watcher badge to view this.", "badges": [], "created_at": "2025-06-17T13:30:33.626-04:00", "updated_at": "2025-07-03T19:42:29.509-04:00", "avatar": "https://secure.gravatar.com/avatar/2c82071701934088596b01687e3b97fd.jpg?s=512&d=https%3A%2F%2Fa.slack-edge.com%2Fdf10d%2Fimg%2Favatars%2Fava_0000-512.png", "custom_css": null}, {"id": 7010, "slack_id": "U0928K9NE8H", "display_name": "Super-Hexagon", "bio": null, "projects_count": 0, "devlogs_count": 0, "votes_count": 0, "ships_count": 0, "projects": [], "coding_time_seconds": 27265, "coding_time_seconds_today": 0, "balance": "You need to have a pocket watcher badge to view this.", "badges": [], "created_at": "2025-06-17T13:30:39.711-04:00", "updated_at": "2025-07-03T19:42:29.782-04:00", "avatar": "https://secure.gravatar.com/avatar/fdebb1be485f201598f9137f76de872b.jpg?s=512&d=https%3A%2F%2Fa.slack-edge.com%2Fdf10d%2Fimg%2Favatars%2Fava_0025-512.png", "custom_css": null}, {"id": 7011, "slack_id": "U0928K956GZ", "display_name": "Sean McKeen", "bio": null, "projects_count": 0, "devlogs_count": 0, "votes_count": 0, "ships_count": 0, "projects": [], "coding_time_seconds": 0, "coding_time_seconds_today": 0, "balance": "You need to have a pocket watcher badge to view this.", "badges": [], "created_at": "2025-06-17T13:30:58.676-04:00", "updated_at": "2025-07-04T02:26:17.073-04:00", "avatar": "https://avatars.slack-edge.com/2025-06-17/9057373938963_a7ffb9daa38f646f6665_original.png", "custom_css": null}, {"id": 7012, "slack_id": "U091WDVBG3W", "display_name": "Aryaman Chandra", "bio": null, "projects_count": 0, "devlogs_count": 0, "votes_count": 0, "ships_count": 0, "projects": [], "coding_time_seconds": 25709, "coding_time_seconds_today": 0, "balance": "You need to have a pocket watcher badge to view this.", "badges": [], "created_at": "2025-06-17T13:31:05.922-04:00", "updated_at": "2025-07-03T19:42:30.188-04:00", "avatar": "https://secure.gravatar.com/avatar/acb6015507fb6948cdfa70ee1e81e534.jpg?s=512&d=https%3A%2F%2Fa.slack-edge.com%2Fdf10d%2Fimg%2Favatars%2Fava_0009-512.png", "custom_css": null}, {"id": 7013, "slack_id": "U07FZDAHX88", "display_name": "Pankaj Kumar", "bio": null, "projects_count": 0, "devlogs_count": 0, "votes_count": 0, "ships_count": 0, "projects": [], "coding_time_seconds": 0, "coding_time_seconds_today": 0, "balance": "You need to have a pocket watcher badge to view this.", "badges": [], "created_at": "2025-06-17T13:32:47.540-04:00", "updated_at": "2025-07-03T19:42:30.451-04:00", "avatar": "https://avatars.slack-edge.com/2024-08-02/7517810544805_5de053108d2bee37d4af_original.jpg", "custom_css": null}, {"id": 7014, "slack_id": "U091EL7NCUF", "display_name": "Chayan Mondal", "bio": null, "projects_count": 2, "devlogs_count": 0, "votes_count": 0, "ships_count": 0, "projects": [{"id": 1268, "title": "doc-digest", "devlogs_count": 0, "created_at": "2025-06-18T03:39:09.058-04:00"}, {"id": 1271, "title": "Healthcare", "devlogs_count": 0, "created_at": "2025-06-18T03:43:55.100-04:00"}], "coding_time_seconds": 106495, "coding_time_seconds_today": 0, "balance": "You need to have a pocket watcher badge to view this.", "badges": [], "created_at": "2025-06-17T13:33:58.463-04:00", "updated_at": "2025-07-05T14:08:52.463-04:00", "avatar": "https://avatars.slack-edge.com/2025-06-17/9064508718228_7618a97cf9f9cae96e14_original.jpg", "custom_css": null}, {"id": 7015, "slack_id": "U091UC80N7P", "display_name": "Hester Prynne", "bio": null, "projects_count": 0, "devlogs_count": 0, "votes_count": 0, "ships_count": 0, "projects": [], "coding_time_seconds": 16839, "coding_time_seconds_today": 0, "balance": "You need to have a pocket watcher badge to view this.", "badges": [], "created_at": "2025-06-17T13:35:19.956-04:00", "updated_at": "2025-07-06T14:07:47.401-04:00", "avatar": "https://secure.gravatar.com/avatar/483562d301ad3b16259035320d3f2557.jpg?s=512&d=https%3A%2F%2Fa.slack-edge.com%2Fdf10d%2Fimg%2Favatars%2Fava_0013-512.png", "custom_css": null}, {"id": 7016, "slack_id": "U092JE1AH16", "display_name": "Rafi Mintz", "bio": null, "projects_count": 0, "devlogs_count": 0, "votes_count": 0, "ships_count": 0, "projects": [], "coding_time_seconds": 0, "coding_time_seconds_today": 0, "balance": "You need to have a pocket watcher badge to view this.", "badges": [], "created_at": "2025-06-17T13:36:07.517-04:00", "updated_at": "2025-07-03T21:56:45.598-04:00", "avatar": "https://secure.gravatar.com/avatar/ac27ecf67be65cdee1ab912e5f45bcdf.jpg?s=512&d=https%3A%2F%2Fa.slack-edge.com%2Fdf10d%2Fimg%2Favatars%2Fava_0019-512.png", "custom_css": null}, {"id": 7017, "slack_id": "U091UCK2ZDK", "display_name": "batot", "bio": null, "projects_count": 0, "devlogs_count": 0, "votes_count": 0, "ships_count": 0, "projects": [], "coding_time_seconds": 0, "coding_time_seconds_today": 0, "balance": "You need to have a pocket watcher badge to view this.", "badges": [], "created_at": "2025-06-17T13:36:23.610-04:00", "updated_at": "2025-07-03T19:42:31.123-04:00", "avatar": "https://secure.gravatar.com/avatar/288723ca3ec4a8c124b191bfef3df4ba.jpg?s=512&d=https%3A%2F%2Fa.slack-edge.com%2Fdf10d%2Fimg%2Favatars%2Fava_0022-512.png", "custom_css": null}, {"id": 7018, "slack_id": "U092JE3H1LG", "display_name": "Midhun Sankar", "bio": null, "projects_count": 0, "devlogs_count": 0, "votes_count": 0, "ships_count": 0, "projects": [], "coding_time_seconds": 0, "coding_time_seconds_today": 0, "balance": "You need to have a pocket watcher badge to view this.", "badges": [], "created_at": "2025-06-17T13:36:41.581-04:00", "updated_at": "2025-07-03T19:42:31.395-04:00", "avatar": "https://secure.gravatar.com/avatar/30c68b82571f17beb0802e9e40ab693e.jpg?s=512&d=https%3A%2F%2Fa.slack-edge.com%2Fdf10d%2Fimg%2Favatars%2Fava_0006-512.png", "custom_css": null}, {"id": 7019, "slack_id": "U085HNYPWLT", "display_name": "Mr Milky Way", "bio": "", "projects_count": 1, "devlogs_count": 15, "votes_count": 20, "ships_count": 1, "projects": [{"id": 4006, "title": "DesLoader", "devlogs_count": 15, "created_at": "2025-06-26T19:34:57.989-04:00"}], "coding_time_seconds": 211525, "coding_time_seconds_today": 0, "balance": "You need to have a pocket watcher badge to view this.", "badges": [{"name": "Maiden Voyage", "text": "you shipped your first project! the journey begins...", "icon": "\ud83d\udea2"}], "created_at": "2025-06-17T13:36:47.004-04:00", "updated_at": "2025-09-10T22:54:39.481-04:00", "avatar": "https://avatars.slack-edge.com/2025-08-15/9349731560455_d2d0d48707b7d867d90d_original.png", "custom_css": null}, {"id": 7020, "slack_id": "U091EMQQPCP", "display_name": "Darpit", "bio": null, "projects_count": 0, "devlogs_count": 0, "votes_count": 0, "ships_count": 0, "projects": [], "coding_time_seconds": 0, "coding_time_seconds_today": 0, "balance": "You need to have a pocket watcher badge to view this.", "badges": [], "created_at": "2025-06-17T13:37:25.290-04:00", "updated_at": "2025-07-03T19:42:31.924-04:00", "avatar": "https://secure.gravatar.com/avatar/6d9bff5fb8b4e3283a7e1fe8ab0c53e5.jpg?s=512&d=https%3A%2F%2Fa.slack-edge.com%2Fdf10d%2Fimg%2Favatars%2Fava_0001-512.png", "custom_css": null}], "pagination": {"page": 351, "pages": 1192, "count": 23828, "items": 20}}