{"users": [{"id": 7041, "slack_id": "U092JFT7FNC", "display_name": "Samira Nooreen", "bio": null, "projects_count": 0, "devlogs_count": 0, "votes_count": 0, "ships_count": 0, "projects": [], "coding_time_seconds": 0, "coding_time_seconds_today": 0, "balance": "You need to have a pocket watcher badge to view this.", "badges": [], "created_at": "2025-06-17T13:48:59.519-04:00", "updated_at": "2025-07-05T02:07:53.671-04:00", "avatar": "https://avatars.slack-edge.com/2025-06-17/9086561042080_016941a8c5d07d244120_original.png", "custom_css": null}, {"id": 7042, "slack_id": "U091PJ32JH4", "display_name": "dinu sathwik", "bio": null, "projects_count": 0, "devlogs_count": 0, "votes_count": 0, "ships_count": 0, "projects": [], "coding_time_seconds": 0, "coding_time_seconds_today": 0, "balance": "You need to have a pocket watcher badge to view this.", "badges": [], "created_at": "2025-06-17T13:49:16.637-04:00", "updated_at": "2025-07-03T19:42:36.889-04:00", "avatar": "https://avatars.slack-edge.com/2025-06-17/9064588146020_54550bed0b7e3e3d6fb6_original.jpg", "custom_css": null}, {"id": 7043, "slack_id": "U091UESDPDK", "display_name": "lucas", "bio": null, "projects_count": 0, "devlogs_count": 0, "votes_count": 0, "ships_count": 0, "projects": [], "coding_time_seconds": 0, "coding_time_seconds_today": 0, "balance": "You need to have a pocket watcher badge to view this.", "badges": [], "created_at": "2025-06-17T13:50:05.223-04:00", "updated_at": "2025-07-03T19:42:37.181-04:00", "avatar": "https://secure.gravatar.com/avatar/479d7d3a7c1534fef9229bbb156cd529.jpg?s=512&d=https%3A%2F%2Fa.slack-edge.com%2Fdf10d%2Fimg%2Favatars%2Fava_0008-512.png", "custom_css": null}, {"id": 7044, "slack_id": "U091UEMPEH3", "display_name": "Imran Shaikh", "bio": null, "projects_count": 0, "devlogs_count": 0, "votes_count": 0, "ships_count": 0, "projects": [], "coding_time_seconds": 0, "coding_time_seconds_today": 0, "balance": "You need to have a pocket watcher badge to view this.", "badges": [], "created_at": "2025-06-17T13:50:17.653-04:00", "updated_at": "2025-07-04T20:07:30.332-04:00", "avatar": "https://secure.gravatar.com/avatar/f2aa74bd48e8a81bbe44b5b88a3d0afd.jpg?s=512&d=https%3A%2F%2Fa.slack-edge.com%2Fdf10d%2Fimg%2Favatars%2Fava_0000-512.png", "custom_css": null}, {"id": 7045, "slack_id": "U092JFPMH3J", "display_name": "Landon White", "bio": null, "projects_count": 1, "devlogs_count": 1, "votes_count": 0, "ships_count": 0, "projects": [{"id": 1458, "title": "Web Explorer", "devlogs_count": 1, "created_at": "2025-06-18T15:31:04.965-04:00"}], "coding_time_seconds": 132591, "coding_time_seconds_today": 0, "balance": "You need to have a pocket watcher badge to view this.", "badges": [], "created_at": "2025-06-17T13:50:35.713-04:00", "updated_at": "2025-07-03T19:42:37.588-04:00", "avatar": "https://secure.gravatar.com/avatar/e7694a0912cefc697c05f5dc26b884ef.jpg?s=512&d=https%3A%2F%2Fa.slack-edge.com%2Fdf10d%2Fimg%2Favatars%2Fava_0014-512.png", "custom_css": null}, {"id": 7046, "slack_id": "U074EB93YRW", "display_name": "e", "bio": null, "projects_count": 0, "devlogs_count": 0, "votes_count": 0, "ships_count": 0, "projects": [], "coding_time_seconds": 309849, "coding_time_seconds_today": 0, "balance": "You need to have a pocket watcher badge to view this.", "badges": [], "created_at": "2025-06-17T13:50:42.436-04:00", "updated_at": "2025-08-20T17:45:50.082-04:00", "avatar": "https://avatars.slack-edge.com/2025-05-16/8897410885175_08aa59031c4ea4c743cf_original.jpg", "custom_css": null}, {"id": 7047, "slack_id": "U08B8RXLES1", "display_name": "endercass", "bio": null, "projects_count": 1, "devlogs_count": 1, "votes_count": 0, "ships_count": 0, "projects": [{"id": 8140, "title": "froggy apps", "devlogs_count": 1, "created_at": "2025-07-24T21:40:09.240-04:00"}], "coding_time_seconds": 217304, "coding_time_seconds_today": 0, "balance": "You need to have a pocket watcher badge to view this.", "badges": [], "created_at": "2025-06-17T13:50:49.252-04:00", "updated_at": "2025-07-03T19:42:38.136-04:00", "avatar": "https://secure.gravatar.com/avatar/510ef242e34d53d0a503bf1a089ffa87.jpg?s=512&d=https%3A%2F%2Fa.slack-edge.com%2Fdf10d%2Fimg%2Favatars%2Fava_0013-512.png", "custom_css": null}, {"id": 7048, "slack_id": "U091PCANNMR", "display_name": "emily", "bio": null, "projects_count": 0, "devlogs_count": 0, "votes_count": 0, "ships_count": 0, "projects": [], "coding_time_seconds": 0, "coding_time_seconds_today": 0, "balance": "You need to have a pocket watcher badge to view this.", "badges": [], "created_at": "2025-06-17T13:51:43.792-04:00", "updated_at": "2025-07-03T19:42:38.405-04:00", "avatar": "https://secure.gravatar.com/avatar/3a4b4d9615ae5ae9e704b0551aae9dcd.jpg?s=512&d=https%3A%2F%2Fa.slack-edge.com%2Fdf10d%2Fimg%2Favatars%2Fava_0024-512.png", "custom_css": null}, {"id": 7049, "slack_id": "U091UEDJ27P", "display_name": "M.calautti", "bio": null, "projects_count": 0, "devlogs_count": 0, "votes_count": 0, "ships_count": 0, "projects": [], "coding_time_seconds": 0, "coding_time_seconds_today": 0, "balance": "You need to have a pocket watcher badge to view this.", "badges": [], "created_at": "2025-06-17T13:51:46.290-04:00", "updated_at": "2025-07-03T19:42:38.682-04:00", "avatar": "https://secure.gravatar.com/avatar/77312bbbba5bc17a2016c83ce35be792.jpg?s=512&d=https%3A%2F%2Fa.slack-edge.com%2Fdf10d%2Fimg%2Favatars%2Fava_0011-512.png", "custom_css": null}, {"id": 7050, "slack_id": "U091W51NZK4", "display_name": "Bhanu Pratap Singh", "bio": null, "projects_count": 1, "devlogs_count": 0, "votes_count": 0, "ships_count": 0, "projects": [{"id": 1028, "title": "newproject", "devlogs_count": 0, "created_at": "2025-06-17T14:02:24.219-04:00"}], "coding_time_seconds": 0, "coding_time_seconds_today": 0, "balance": "You need to have a pocket watcher badge to view this.", "badges": [], "created_at": "2025-06-17T13:52:24.865-04:00", "updated_at": "2025-07-03T19:42:39.032-04:00", "avatar": "https://avatars.slack-edge.com/2025-06-17/9057663730822_27ec1eb89ec3fe6621d6_original.png", "custom_css": null}, {"id": 7051, "slack_id": "U092JG11FC0", "display_name": "Yusuf", "bio": null, "projects_count": 0, "devlogs_count": 0, "votes_count": 0, "ships_count": 0, "projects": [], "coding_time_seconds": 0, "coding_time_seconds_today": 0, "balance": "You need to have a pocket watcher badge to view this.", "badges": [], "created_at": "2025-06-17T13:53:19.175-04:00", "updated_at": "2025-07-04T08:22:32.462-04:00", "avatar": "https://secure.gravatar.com/avatar/7c7f00d9c55507515cf0cff5d1974cdb.jpg?s=512&d=https%3A%2F%2Fa.slack-edge.com%2Fdf10d%2Fimg%2Favatars%2Fava_0025-512.png", "custom_css": null}, {"id": 7052, "slack_id": "U0928NZ1JE5", "display_name": "zer0231", "bio": null, "projects_count": 0, "devlogs_count": 0, "votes_count": 0, "ships_count": 0, "projects": [], "coding_time_seconds": 0, "coding_time_seconds_today": 0, "balance": "You need to have a pocket watcher badge to view this.", "badges": [], "created_at": "2025-06-17T13:53:56.255-04:00", "updated_at": "2025-07-03T19:42:39.448-04:00", "avatar": "https://secure.gravatar.com/avatar/22f82c8ca07083bf8749cf636cbe9211.jpg?s=512&d=https%3A%2F%2Fa.slack-edge.com%2Fdf10d%2Fimg%2Favatars%2Fava_0020-512.png", "custom_css": null}, {"id": 7053, "slack_id": "U091PE9QCTD", "display_name": "Sandesh Kolte", "bio": null, "projects_count": 0, "devlogs_count": 0, "votes_count": 0, "ships_count": 0, "projects": [], "coding_time_seconds": 0, "coding_time_seconds_today": 0, "balance": "You need to have a pocket watcher badge to view this.", "badges": [], "created_at": "2025-06-17T13:55:03.913-04:00", "updated_at": "2025-07-05T20:08:18.351-04:00", "avatar": "https://avatars.slack-edge.com/2025-06-17/9086592785440_5e6a97b420105cd57c5e_original.png", "custom_css": null}, {"id": 7054, "slack_id": "U091PKFTZP0", "display_name": "Abhi", "bio": null, "projects_count": 0, "devlogs_count": 0, "votes_count": 0, "ships_count": 0, "projects": [], "coding_time_seconds": 0, "coding_time_seconds_today": 0, "balance": "You need to have a pocket watcher badge to view this.", "badges": [], "created_at": "2025-06-17T13:55:41.282-04:00", "updated_at": "2025-07-04T08:22:33.442-04:00", "avatar": "https://secure.gravatar.com/avatar/5ffe02808d678966a261447a91b79427.jpg?s=512&d=https%3A%2F%2Fa.slack-edge.com%2Fdf10d%2Fimg%2Favatars%2Fava_0005-512.png", "custom_css": null}, {"id": 7055, "slack_id": "U083SBB8TJ8", "display_name": "Usaid Tirmizi", "bio": null, "projects_count": 0, "devlogs_count": 1, "votes_count": 3, "ships_count": 0, "projects": [], "coding_time_seconds": 143628, "coding_time_seconds_today": 0, "balance": "You need to have a pocket watcher badge to view this.", "badges": [], "created_at": "2025-06-17T13:55:51.977-04:00", "updated_at": "2025-07-14T14:02:57.181-04:00", "avatar": "https://avatars.slack-edge.com/2024-12-04/8125789101347_66deece3f0d990823c86_original.png", "custom_css": null}, {"id": 7056, "slack_id": "U092JGV49GQ", "display_name": "Francisco", "bio": null, "projects_count": 0, "devlogs_count": 0, "votes_count": 0, "ships_count": 0, "projects": [], "coding_time_seconds": 22623, "coding_time_seconds_today": 0, "balance": "You need to have a pocket watcher badge to view this.", "badges": [], "created_at": "2025-06-17T13:56:24.589-04:00", "updated_at": "2025-07-03T19:42:40.283-04:00", "avatar": "https://secure.gravatar.com/avatar/9fb47cfdf5f465c0b8b3d56eda83a7f3.jpg?s=512&d=https%3A%2F%2Fa.slack-edge.com%2Fdf10d%2Fimg%2Favatars%2Fava_0011-512.png", "custom_css": null}, {"id": 7057, "slack_id": "U091PKJQ1F0", "display_name": "aaron crangle", "bio": null, "projects_count": 0, "devlogs_count": 0, "votes_count": 0, "ships_count": 0, "projects": [], "coding_time_seconds": 0, "coding_time_seconds_today": 0, "balance": "You need to have a pocket watcher badge to view this.", "badges": [], "created_at": "2025-06-17T13:56:34.402-04:00", "updated_at": "2025-07-03T21:44:53.977-04:00", "avatar": "https://secure.gravatar.com/avatar/491c4af30c5951ab9c011c934f7d79e3.jpg?s=512&d=https%3A%2F%2Fa.slack-edge.com%2Fdf10d%2Fimg%2Favatars%2Fava_0004-512.png", "custom_css": null}, {"id": 7058, "slack_id": "U091WHS4Y12", "display_name": "hemant", "bio": null, "projects_count": 0, "devlogs_count": 0, "votes_count": 0, "ships_count": 0, "projects": [], "coding_time_seconds": 0, "coding_time_seconds_today": 0, "balance": "You need to have a pocket watcher badge to view this.", "badges": [], "created_at": "2025-06-17T13:56:41.133-04:00", "updated_at": "2025-07-03T19:42:40.700-04:00", "avatar": "https://secure.gravatar.com/avatar/fa176fff3f4542edd5abaf9f79c39a1f.jpg?s=512&d=https%3A%2F%2Fa.slack-edge.com%2Fdf10d%2Fimg%2Favatars%2Fava_0015-512.png", "custom_css": null}, {"id": 7059, "slack_id": "U091EQU61JT", "display_name": "Vishal", "bio": null, "projects_count": 0, "devlogs_count": 0, "votes_count": 0, "ships_count": 0, "projects": [], "coding_time_seconds": 0, "coding_time_seconds_today": 0, "balance": "You need to have a pocket watcher badge to view this.", "badges": [], "created_at": "2025-06-17T13:57:23.991-04:00", "updated_at": "2025-07-03T19:42:40.964-04:00", "avatar": "https://secure.gravatar.com/avatar/d7abade0343436b6bdb3e4b37a068161.jpg?s=512&d=https%3A%2F%2Fa.slack-edge.com%2Fdf10d%2Fimg%2Favatars%2Fava_0007-512.png", "custom_css": null}, {"id": 7060, "slack_id": "U091EQQNZ0F", "display_name": "Ziyad", "bio": null, "projects_count": 0, "devlogs_count": 0, "votes_count": 0, "ships_count": 0, "projects": [], "coding_time_seconds": 0, "coding_time_seconds_today": 0, "balance": "You need to have a pocket watcher badge to view this.", "badges": [], "created_at": "2025-06-17T13:57:46.537-04:00", "updated_at": "2025-07-03T19:42:41.235-04:00", "avatar": "https://secure.gravatar.com/avatar/f7cbc8fcae9edd533e78cc2333fbe8db.jpg?s=512&d=https%3A%2F%2Fa.slack-edge.com%2Fdf10d%2Fimg%2Favatars%2Fava_0013-512.png", "custom_css": null}], "pagination": {"page": 353, "pages": 1192, "count": 23828, "items": 20}}