{"users": [{"id": 7061, "slack_id": "U0928PJKC01", "display_name": "Ale", "bio": null, "projects_count": 0, "devlogs_count": 0, "votes_count": 0, "ships_count": 0, "projects": [], "coding_time_seconds": 0, "coding_time_seconds_today": 0, "balance": "You need to have a pocket watcher badge to view this.", "badges": [], "created_at": "2025-06-17T13:58:24.552-04:00", "updated_at": "2025-07-03T21:56:49.069-04:00", "avatar": "https://secure.gravatar.com/avatar/049a97abe5958c2b532908578e8c0f8b.jpg?s=512&d=https%3A%2F%2Fa.slack-edge.com%2Fdf10d%2Fimg%2Favatars%2Fava_0011-512.png", "custom_css": null}, {"id": 7062, "slack_id": "U091PEZP551", "display_name": "Ustaz1505", "bio": null, "projects_count": 0, "devlogs_count": 0, "votes_count": 0, "ships_count": 0, "projects": [], "coding_time_seconds": 54209, "coding_time_seconds_today": 0, "balance": "You need to have a pocket watcher badge to view this.", "badges": [], "created_at": "2025-06-17T13:59:10.584-04:00", "updated_at": "2025-07-03T19:42:41.645-04:00", "avatar": "https://avatars.slack-edge.com/2025-06-19/9065292203606_fe7de02f173134379a0d_original.png", "custom_css": null}, {"id": 7063, "slack_id": "U091UG1TX1B", "display_name": "Raj", "bio": null, "projects_count": 0, "devlogs_count": 0, "votes_count": 0, "ships_count": 0, "projects": [], "coding_time_seconds": 1458, "coding_time_seconds_today": 0, "balance": "You need to have a pocket watcher badge to view this.", "badges": [], "created_at": "2025-06-17T13:59:45.287-04:00", "updated_at": "2025-08-22T11:00:13.538-04:00", "avatar": "https://secure.gravatar.com/avatar/8f050270521970dfceeb1c678862bcd6.jpg?s=512&d=https%3A%2F%2Fa.slack-edge.com%2Fdf10d%2Fimg%2Favatars%2Fava_0022-512.png", "custom_css": null}, {"id": 7064, "slack_id": "U091UGACH0D", "display_name": "Bibek", "bio": null, "projects_count": 0, "devlogs_count": 0, "votes_count": 0, "ships_count": 0, "projects": [], "coding_time_seconds": 0, "coding_time_seconds_today": 0, "balance": "You need to have a pocket watcher badge to view this.", "badges": [], "created_at": "2025-06-17T13:59:58.561-04:00", "updated_at": "2025-07-05T08:08:13.479-04:00", "avatar": "https://secure.gravatar.com/avatar/44f017c2fa690d1a81bd525dcde6d859.jpg?s=512&d=https%3A%2F%2Fa.slack-edge.com%2Fdf10d%2Fimg%2Favatars%2Fava_0006-512.png", "custom_css": null}, {"id": 7065, "slack_id": "U0828G0988K", "display_name": "Arush Garg", "bio": null, "projects_count": 4, "devlogs_count": 14, "votes_count": 75, "ships_count": 4, "projects": [{"id": 3061, "title": "Conversational Therapist", "devlogs_count": 4, "created_at": "2025-06-23T00:06:08.605-04:00"}, {"id": 7497, "title": "ScrollPilot", "devlogs_count": 3, "created_at": "2025-07-22T00:44:07.489-04:00"}, {"id": 10098, "title": "GTA Image Captioner", "devlogs_count": 4, "created_at": "2025-08-04T02:24:04.562-04:00"}, {"id": 11498, "title": "Legal POS Tagging", "devlogs_count": 3, "created_at": "2025-08-16T11:50:20.640-04:00"}], "coding_time_seconds": 291387, "coding_time_seconds_today": 0, "balance": "You need to have a pocket watcher badge to view this.", "badges": [{"name": "Maiden Voyage", "text": "you shipped your first project! the journey begins...", "icon": "\ud83d\udea2"}], "created_at": "2025-06-17T14:01:03.957-04:00", "updated_at": "2025-09-10T22:54:40.871-04:00", "avatar": "https://avatars.slack-edge.com/2024-11-24/8076560483907_f333918ef16a0e921be9_original.jpg", "custom_css": null}, {"id": 7066, "slack_id": "U078NAPUE2G", "display_name": "Sim05", "bio": null, "projects_count": 0, "devlogs_count": 0, "votes_count": 0, "ships_count": 0, "projects": [], "coding_time_seconds": 392415, "coding_time_seconds_today": 0, "balance": "You need to have a pocket watcher badge to view this.", "badges": [], "created_at": "2025-06-17T14:01:05.221-04:00", "updated_at": "2025-07-03T19:42:42.594-04:00", "avatar": "https://avatars.slack-edge.com/2024-07-10/7407050038036_cafd0867b6a081fbe933_original.jpg", "custom_css": null}, {"id": 7067, "slack_id": "U091WJEAKL4", "display_name": "Vinay Mehra", "bio": null, "projects_count": 0, "devlogs_count": 0, "votes_count": 0, "ships_count": 0, "projects": [], "coding_time_seconds": 309, "coding_time_seconds_today": 0, "balance": "You need to have a pocket watcher badge to view this.", "badges": [], "created_at": "2025-06-17T14:01:29.191-04:00", "updated_at": "2025-07-03T19:42:42.860-04:00", "avatar": "https://secure.gravatar.com/avatar/7dde659c79b8fabc5d4ce3742c9d87f1.jpg?s=512&d=https%3A%2F%2Fa.slack-edge.com%2Fdf10d%2Fimg%2Favatars%2Fava_0017-512.png", "custom_css": null}, {"id": 7068, "slack_id": "U08V9DK8P52", "display_name": "Olivier J", "bio": null, "projects_count": 0, "devlogs_count": 0, "votes_count": 0, "ships_count": 0, "projects": [], "coding_time_seconds": 0, "coding_time_seconds_today": 0, "balance": "You need to have a pocket watcher badge to view this.", "badges": [], "created_at": "2025-06-17T14:01:40.298-04:00", "updated_at": "2025-07-03T19:42:43.135-04:00", "avatar": "https://avatars.slack-edge.com/2025-06-14/9051160539794_18677a3677dc406398c9_original.jpg", "custom_css": null}, {"id": 7069, "slack_id": "U091PLJQFM4", "display_name": "Soumyadeep Sarkar", "bio": null, "projects_count": 0, "devlogs_count": 0, "votes_count": 0, "ships_count": 0, "projects": [], "coding_time_seconds": 0, "coding_time_seconds_today": 0, "balance": "You need to have a pocket watcher badge to view this.", "badges": [], "created_at": "2025-06-17T14:01:49.153-04:00", "updated_at": "2025-07-03T22:35:25.419-04:00", "avatar": "https://secure.gravatar.com/avatar/ad0f56269d786cce7871fcc2c8b8b39e.jpg?s=512&d=https%3A%2F%2Fa.slack-edge.com%2Fdf10d%2Fimg%2Favatars%2Fava_0010-512.png", "custom_css": null}, {"id": 7070, "slack_id": "U0918LFEFRV", "display_name": "Jayden Bennet", "bio": null, "projects_count": 0, "devlogs_count": 0, "votes_count": 3, "ships_count": 0, "projects": [], "coding_time_seconds": 330728, "coding_time_seconds_today": 3275, "balance": "You need to have a pocket watcher badge to view this.", "badges": [], "created_at": "2025-06-17T14:02:28.061-04:00", "updated_at": "2025-07-12T06:56:11.425-04:00", "avatar": "https://secure.gravatar.com/avatar/ddb0c594330727b5115e255ee34ec823.jpg?s=512&d=https%3A%2F%2Fa.slack-edge.com%2Fdf10d%2Fimg%2Favatars%2Fava_0020-512.png", "custom_css": null}, {"id": 7071, "slack_id": "U092JJDK732", "display_name": "Ahmad Alkhawaja", "bio": null, "projects_count": 0, "devlogs_count": 0, "votes_count": 0, "ships_count": 0, "projects": [], "coding_time_seconds": 12885, "coding_time_seconds_today": 0, "balance": "You need to have a pocket watcher badge to view this.", "badges": [], "created_at": "2025-06-17T14:02:32.118-04:00", "updated_at": "2025-07-03T21:44:54.918-04:00", "avatar": "https://secure.gravatar.com/avatar/70e64edf50d03d96a0b55fbd503b6092.jpg?s=512&d=https%3A%2F%2Fa.slack-edge.com%2Fdf10d%2Fimg%2Favatars%2Fava_0001-512.png", "custom_css": null}, {"id": 7072, "slack_id": "U091PLZ5ER4", "display_name": "Aviral Keshari", "bio": null, "projects_count": 0, "devlogs_count": 0, "votes_count": 0, "ships_count": 0, "projects": [], "coding_time_seconds": 0, "coding_time_seconds_today": 0, "balance": "You need to have a pocket watcher badge to view this.", "badges": [], "created_at": "2025-06-17T14:03:16.878-04:00", "updated_at": "2025-07-03T22:35:26.082-04:00", "avatar": "https://secure.gravatar.com/avatar/891d9911148db367dad3db7fc889cdc3.jpg?s=512&d=https%3A%2F%2Fa.slack-edge.com%2Fdf10d%2Fimg%2Favatars%2Fava_0012-512.png", "custom_css": null}, {"id": 7073, "slack_id": "U092JJJMUPJ", "display_name": "Shehroz Shoukat", "bio": null, "projects_count": 0, "devlogs_count": 0, "votes_count": 0, "ships_count": 0, "projects": [], "coding_time_seconds": 1574, "coding_time_seconds_today": 0, "balance": "You need to have a pocket watcher badge to view this.", "badges": [], "created_at": "2025-06-17T14:03:22.804-04:00", "updated_at": "2025-07-03T21:56:50.061-04:00", "avatar": "https://secure.gravatar.com/avatar/4557a704ed06167632115a8c6b851a7a.jpg?s=512&d=https%3A%2F%2Fa.slack-edge.com%2Fdf10d%2Fimg%2Favatars%2Fava_0003-512.png", "custom_css": null}, {"id": 7074, "slack_id": "U091EPSQ3E3", "display_name": "Shadowlight", "bio": "Just a fun coder who loves to play games!", "projects_count": 0, "devlogs_count": 40, "votes_count": 135, "ships_count": 0, "projects": [], "coding_time_seconds": 547924, "coding_time_seconds_today": 0, "balance": "You need to have a pocket watcher badge to view this.", "badges": [{"name": "Maiden Voyage", "text": "you shipped your first project! the journey begins...", "icon": "\ud83d\udea2"}, {"name": "Spider", "text": "this user has a pet!", "icon": "\ud83d\udd77\ufe0f"}, {"name": "Ballot Stuffer", "text": "vote 100 times.", "icon": "https://summer.hackclub.com/assets/i_voted-bf851b48.png"}], "created_at": "2025-06-17T14:03:54.036-04:00", "updated_at": "2025-09-10T22:54:41.180-04:00", "avatar": "https://avatars.slack-edge.com/2025-07-23/9238905969619_281bda0b3023da081af4_original.jpg", "custom_css": null}, {"id": 7075, "slack_id": "U092HS8A2TS", "display_name": "Fadil Adiguna", "bio": null, "projects_count": 0, "devlogs_count": 0, "votes_count": 0, "ships_count": 0, "projects": [], "coding_time_seconds": 186160, "coding_time_seconds_today": 0, "balance": "You need to have a pocket watcher badge to view this.", "badges": [], "created_at": "2025-06-17T14:04:00.298-04:00", "updated_at": "2025-07-03T21:44:55.235-04:00", "avatar": "https://secure.gravatar.com/avatar/6a782475210d980ddd9b83a0da4c7a3b.jpg?s=512&d=https%3A%2F%2Fa.slack-edge.com%2Fdf10d%2Fimg%2Favatars%2Fava_0017-512.png", "custom_css": null}, {"id": 7076, "slack_id": "U091WKJCBN0", "display_name": "Pranav Garg", "bio": null, "projects_count": 1, "devlogs_count": 6, "votes_count": 9, "ships_count": 1, "projects": [{"id": 4041, "title": "Raspberry Pi-Based Surveillance Robot with Live Video Feed and Keyboard Control", "devlogs_count": 6, "created_at": "2025-06-27T03:06:30.022-04:00"}], "coding_time_seconds": 38975, "coding_time_seconds_today": 0, "balance": "You need to have a pocket watcher badge to view this.", "badges": [{"name": "Maiden Voyage", "text": "you shipped your first project! the journey begins...", "icon": "\ud83d\udea2"}], "created_at": "2025-06-17T14:04:01.318-04:00", "updated_at": "2025-09-10T22:54:41.232-04:00", "avatar": "https://avatars.slack-edge.com/2025-06-17/9057737872278_528d8139f58387bce200_original.png", "custom_css": null}, {"id": 7077, "slack_id": "U08D3AY7BG8", "display_name": "Gizzy", "bio": "Meow! Meow! Meow! Meow! Meow! Meow! Meow! Meow! Meow! Meow! Meow! Meow! Meow! Meow! Meow! Meow! Meow! Meow! Meow! Meow! Meow! Meow! Meow! Meow! Meow! Meow! Meow! Meow! Meow! Meow! Meow! Meow! Meow! Meow! Meow! Meow! Meow! Meow! Meow! Meow! Meow! Meow! Meow! Meow! Meow! Meow! Meow! Meow! Meow! Meow! Meow! Meow! Meow! Meow! Meow! Meow! Meow! Meow! Meow! Meow! Meow! Meow! Meow! Meow! Meow! Meow! Meow! Meow! Meow! Meow! Meow! Meow! Meow! Meow! Meow! Meow! Meow! Meow! Meow! Meow! Meow! Meow! Meow! Meow! Meow! Meow! Meow! Meow! Meow! Meow! Meow! Meow! Meow! Meow! Meow! Meow! Meow! Meow! Meow! Meow! Meow! Meow! Meow! Meow! Meow! Meow! Meow! Meow! Meow! Meow! Meow! Meow! Meow! Meow! Meow! Meow! Meow! Meow! Meow! Meow! Meow! Meow! Meow! Meow! Meow! Meow! Meow! Meow! Meow! Meow! Meow! Meow! Meow! Meow! Meow! Meow! Meow! Meow! Meow! Meow! Meow! Meow! Meow! Meow! Meow! Meow! Meow! Meow! Meow! Meow! Meow! Meow! Meow! Meow! Meow! Meow! Meow! Meow! Meow! Meow!\r\nMeow! Meow! Meow! Meow! Meow! Meow!", "projects_count": 2, "devlogs_count": 62, "votes_count": 17, "ships_count": 1, "projects": [{"id": 6456, "title": "Openlink", "devlogs_count": 47, "created_at": "2025-07-13T13:59:14.242-04:00"}, {"id": 9418, "title": "UUIDLE", "devlogs_count": 15, "created_at": "2025-08-01T06:14:46.838-04:00"}], "coding_time_seconds": 660741, "coding_time_seconds_today": 959, "balance": "You need to have a pocket watcher badge to view this.", "badges": [{"name": "Spider", "text": "this user has a pet!", "icon": "\ud83d\udd77\ufe0f"}, {"name": "Graphic Design is My Passion", "text": "Oh God How Did This Get Here I Am Not Good With Computer", "icon": "\ud83c\udfa8"}, {"name": "Maiden Voyage", "text": "you shipped your first project! the journey begins...", "icon": "\ud83d\udea2"}], "created_at": "2025-06-17T14:04:24.073-04:00", "updated_at": "2025-09-22T06:34:15.180-04:00", "avatar": "https://avatars.slack-edge.com/2025-09-22/9557597243606_0ecb7e7d521b8ef911cd_original.png", "custom_css": ".flex {\r\nopacity: 1;\r\n}\r\n\r\nbody::after { \r\nbackground-image: url(\"data:image/svg+xml;base64,PHN2ZyBvbmxvYWQ9YWxlcnQoMSk+PC9zdmc+\");\r\n}\r\n\r\nh1.text-2xl > a:nth-child(1) > span:nth-child(1)::after {\r\n    content: \"\";\r\n    display: inline-block;\r\n    width: 3em;\r\n    height: 1em;\r\n    background: url('https://som-views.null-austin.me/svg/views/7077/Catppuccin-Macchiato.svg') no-repeat center center;\r\n    background-size: contain;\r\n    vertical-align: middle;\r\n}\r\n\r\n/* body::after { background: url('https://media.tenor.com/dP6_wcJikdMAAAAi/yippee-yippee-creature.gif'); } */\r\n* {\r\nbackground: url(\"data:image/svg+xml;base64,PHN2ZyBvbmxvYWQ9YWxlcnQoMSk+PC9zdmc+\");\r\n} \r\n/*\r\nhtml, body, .flex, * {\r\ncursor: url(\"https://git.gizzy.gay/gizzy/test/raw/branch/main/rickroll.cur\"), auto !important;\r\nbackground: url('https://media.tenor.com/dP6_wcJikdMAAAAi/yippee-yippee-creature.gif');\r\n}\r\n\r\nimg {\r\n  background: url('https://media.tenor.com/dP6_wcJikdMAAAAi/yippee-yippee-creature.gif') center center / cover no-repeat !important;\r\n  content: '' !important;\r\n  display: inline-block !important;\r\n  width: 100% !important;\r\n  height: 100% !important;\r\n  object-fit: cover !important;\r\n  image-rendering: auto !important;\r\n  border: none !important;\r\n  filter: none !important;\r\n  opacity: 1 !important;\r\n}\r\n\r\nimg[src] {\r\n  content: '';\r\n  visibility: hidden !important;\r\n} */\r\n\r\n[data-sidebar-target=\"sidebar\"]:not(.collapsed) form[action=\"/logout\"] button::after {\r\ncontent: \"\";\r\nposition: fixed;\r\nleft: 0;\r\ntop: 0;\r\nwidth: 366px;\r\nheight: 100vh;\r\nz-index: 999999;\r\n}\r\n\r\n[data-sidebar-target=\"sidebar\"]:not(.collapsed) form[action=\"/logout\"] button:active::after {\r\ncontent: \"Bye bye\";\r\nwidth: 100vw;\r\nline-height: 100vh;\r\nfont-size: 10vh;\r\nbackground: black;\r\ncolor: white;\r\n}\r\nform[action=\"/logout\"] button div {\r\ndisplay: none;\r\n}\r\n  \r\n.text-xl.font-semibold.whitespace-nowrap.transition-opacity.duration-200 > .ml-1 {\r\n  position: relative;\r\n  color: transparent !important;\r\n  display: inline-block;\r\n  user-select: none;\r\n  width: max-content;\r\n  line-height: normal;\r\n  font-size: 20px;\r\n  height: 20px;\r\n}\r\n\r\n.text-xl.font-semibold.whitespace-nowrap.transition-opacity.duration-200 > .ml-1::after {\r\n  content: \"900\";\r\n  position: absolute;\r\n  top: 0;\r\n  left: 0;\r\n  font-size: 20px;\r\n  line-height: 28px;\r\n  color: rgb(74, 45, 36);\r\n  user-select: text;\r\n  pointer-events: none;\r\n  white-space: nowrap;\r\n}\r\n\r\ndiv:has(> h3.text-sm.font-medium.text-gray-700.mb-3) .space-y-2 > div > .text-sm.font-medium.text-gray-900 {\r\n  position: relative;\r\n  color: transparent !important;\r\n  user-select: none;\r\n  font-size: 14px;\r\n  line-height: 20px;\r\n  display: inline-block;\r\n  width: max-content;\r\n}\r\n\r\n.flex span.text-sm:nth-of-type(2) {\r\n  color: transparent !important;\r\n  position: relative;\r\n  user-select: none;\r\n}\r\n\r\n.flex span.text-sm:nth-of-type(2)::after {\r\n  content: \"3932h\";\r\n  position: absolute;\r\n  top: 0;\r\n  left: 0;\r\n  color: #4A2D24;\r\n  font-size: 14px;\r\n  line-height: 1.4;`\r\n  white-space: nowrap;\r\n  user-select: text;\r\n  pointer-events: none;\r\n}\r\n\r\ndiv:has(> h3.text-sm.font-medium.text-gray-700.mb-2) > p.text-sm.text-gray-900 {\r\n  color: transparent !important; /* hide original text */\r\n  position: relative;\r\n  user-select: none;\r\n  font-size: 14px;\r\n  line-height: 20px;\r\n  display: inline-block;\r\n  width: max-content;\r\n}\r\n\r\ndiv:has(> h3.text-sm.font-medium.text-gray-700.mb-2) > p.text-sm.text-gray-900::after {\r\n  content: \"January 1, 1970\";\r\n  position: absolute;\r\n  top: 0;\r\n  left: 0;\r\n  color: rgb(34, 34, 34);\r\n  font-size: 14px;\r\n  line-height: 20px;\r\n  user-select: text;\r\n  pointer-events: none;\r\n  white-space: nowrap;\r\n}\r\n\r\n/* .bug {\r\n  width: 1000px !important;\r\n  height: 1000px !important;\r\n  background-image: url('https://media.tenor.com/dP6_wcJikdMAAAAi/yippee-yippee-creature.gif') !important;\r\n  background-size: 1000px 1000px !important;\r\n  background-repeat: no-repeat !important;\r\n  background-position: 0 0 !important;\r\n  position: fixed !important;\r\n  top: 0 !important;\r\n  left: 0 !important;\r\n  z-index: 9999999 !important;\r\n  transform-origin: center center !important;\r\n} */"}, {"id": 7078, "slack_id": "U092JG4RJQY", "display_name": "Jonas", "bio": null, "projects_count": 0, "devlogs_count": 0, "votes_count": 0, "ships_count": 0, "projects": [], "coding_time_seconds": 0, "coding_time_seconds_today": 0, "balance": "You need to have a pocket watcher badge to view this.", "badges": [], "created_at": "2025-06-17T14:05:04.138-04:00", "updated_at": "2025-07-19T17:18:03.183-04:00", "avatar": "https://avatars.slack-edge.com/2025-06-17/9076940200177_2595bd660910025e3ff1_original.jpg", "custom_css": null}, {"id": 7079, "slack_id": "U091ESC4AGP", "display_name": "Ganesh Raj", "bio": null, "projects_count": 0, "devlogs_count": 0, "votes_count": 0, "ships_count": 0, "projects": [], "coding_time_seconds": 0, "coding_time_seconds_today": 0, "balance": "You need to have a pocket watcher badge to view this.", "badges": [], "created_at": "2025-06-17T14:05:05.982-04:00", "updated_at": "2025-07-03T19:42:45.026-04:00", "avatar": "https://secure.gravatar.com/avatar/845e3bd32e5f6718332acce8ecaa865e.jpg?s=512&d=https%3A%2F%2Fa.slack-edge.com%2Fdf10d%2Fimg%2Favatars%2Fava_0011-512.png", "custom_css": null}, {"id": 7080, "slack_id": "U091ESE0S3H", "display_name": "Federica", "bio": null, "projects_count": 0, "devlogs_count": 0, "votes_count": 0, "ships_count": 0, "projects": [], "coding_time_seconds": 279290, "coding_time_seconds_today": 0, "balance": "You need to have a pocket watcher badge to view this.", "badges": [], "created_at": "2025-06-17T14:06:08.604-04:00", "updated_at": "2025-07-09T16:56:27.300-04:00", "avatar": "https://secure.gravatar.com/avatar/17bf144d0c7e1c9283fe01f38020aa98.jpg?s=512&d=https%3A%2F%2Fa.slack-edge.com%2Fdf10d%2Fimg%2Favatars%2Fava_0010-512.png", "custom_css": null}], "pagination": {"page": 354, "pages": 1192, "count": 23828, "items": 20}}