{"users": [{"id": 7101, "slack_id": "U06M89VS2SD", "display_name": "silvia", "bio": null, "projects_count": 0, "devlogs_count": 0, "votes_count": 0, "ships_count": 0, "projects": [], "coding_time_seconds": 289, "coding_time_seconds_today": 0, "balance": "You need to have a pocket watcher badge to view this.", "badges": [], "created_at": "2025-06-17T14:15:44.931-04:00", "updated_at": "2025-08-22T02:00:06.092-04:00", "avatar": "https://avatars.slack-edge.com/2024-09-12/7711976002486_351ba496ae2e80bc33d7_original.jpg", "custom_css": null}, {"id": 7102, "slack_id": "U08BPQLE8N5", "display_name": "aramb-dev", "bio": null, "projects_count": 5, "devlogs_count": 30, "votes_count": 0, "ships_count": 5, "projects": [{"id": 1743, "title": "Madinah Resources App", "devlogs_count": 7, "created_at": "2025-06-19T06:39:16.023-04:00"}, {"id": 1741, "title": "Madinah Resources website", "devlogs_count": 14, "created_at": "2025-06-19T06:32:26.193-04:00"}, {"id": 10474, "title": "Aram Tutorials Website", "devlogs_count": 4, "created_at": "2025-08-07T10:23:07.147-04:00"}, {"id": 7690, "title": "Transcriptr", "devlogs_count": 3, "created_at": "2025-07-22T14:57:30.694-04:00"}, {"id": 2273, "title": "1st Class Grass site", "devlogs_count": 2, "created_at": "2025-06-20T15:52:16.773-04:00"}], "coding_time_seconds": 387115, "coding_time_seconds_today": 0, "balance": "You need to have a pocket watcher badge to view this.", "badges": [{"name": "Maiden Voyage", "text": "you shipped your first project! the journey begins...", "icon": "\ud83d\udea2"}], "created_at": "2025-06-17T14:17:15.295-04:00", "updated_at": "2025-09-10T22:54:41.874-04:00", "avatar": "https://avatars.slack-edge.com/2025-03-26/8653875499286_4e4aced967ba89467bfe_original.png", "custom_css": null}, {"id": 7103, "slack_id": "U091WKXGH7E", "display_name": "murple", "bio": null, "projects_count": 1, "devlogs_count": 0, "votes_count": 0, "ships_count": 0, "projects": [{"id": 1488, "title": "Quivy", "devlogs_count": 0, "created_at": "2025-06-18T16:16:09.801-04:00"}], "coding_time_seconds": 39411, "coding_time_seconds_today": 0, "balance": "You need to have a pocket watcher badge to view this.", "badges": [], "created_at": "2025-06-17T14:17:26.733-04:00", "updated_at": "2025-07-04T02:26:23.291-04:00", "avatar": "https://secure.gravatar.com/avatar/7f83de37a319d0dfb2db1c8ab06887e1.jpg?s=512&d=https%3A%2F%2Fa.slack-edge.com%2Fdf10d%2Fimg%2Favatars%2Fava_0003-512.png", "custom_css": null}, {"id": 7104, "slack_id": "U08NCJE4Q2U", "display_name": "Avishi", "bio": null, "projects_count": 0, "devlogs_count": 0, "votes_count": 0, "ships_count": 0, "projects": [], "coding_time_seconds": 0, "coding_time_seconds_today": 0, "balance": "You need to have a pocket watcher badge to view this.", "badges": [], "created_at": "2025-06-17T14:17:44.816-04:00", "updated_at": "2025-07-03T19:42:51.258-04:00", "avatar": "https://secure.gravatar.com/avatar/94d5e486adf73973ffd5ed807a05e55d.jpg?s=512&d=https%3A%2F%2Fa.slack-edge.com%2Fdf10d%2Fimg%2Favatars%2Fava_0013-512.png", "custom_css": null}, {"id": 7105, "slack_id": "U091PJJBYE7", "display_name": "Michael Azar", "bio": null, "projects_count": 0, "devlogs_count": 0, "votes_count": 0, "ships_count": 0, "projects": [], "coding_time_seconds": 0, "coding_time_seconds_today": 0, "balance": "You need to have a pocket watcher badge to view this.", "badges": [], "created_at": "2025-06-17T14:18:01.738-04:00", "updated_at": "2025-07-03T19:42:51.532-04:00", "avatar": "https://secure.gravatar.com/avatar/30ede9f78947a801d22535a02ac50072.jpg?s=512&d=https%3A%2F%2Fa.slack-edge.com%2Fdf10d%2Fimg%2Favatars%2Fava_0025-512.png", "custom_css": null}, {"id": 7106, "slack_id": "U08S6AE4M99", "display_name": "Rimma", "bio": null, "projects_count": 0, "devlogs_count": 0, "votes_count": 0, "ships_count": 0, "projects": [], "coding_time_seconds": 71464, "coding_time_seconds_today": 0, "balance": "You need to have a pocket watcher badge to view this.", "badges": [], "created_at": "2025-06-17T14:18:09.429-04:00", "updated_at": "2025-07-03T19:42:51.788-04:00", "avatar": "https://avatars.slack-edge.com/2025-05-22/8937778697413_426ac5fbed91094a2942_original.png", "custom_css": null}, {"id": 7107, "slack_id": "U091W8TKB9Q", "display_name": "Juwon Ajibola", "bio": null, "projects_count": 0, "devlogs_count": 0, "votes_count": 0, "ships_count": 0, "projects": [], "coding_time_seconds": 0, "coding_time_seconds_today": 0, "balance": "You need to have a pocket watcher badge to view this.", "badges": [], "created_at": "2025-06-17T14:18:32.736-04:00", "updated_at": "2025-07-05T14:08:58.072-04:00", "avatar": "https://avatars.slack-edge.com/2025-06-17/9062688234997_9b9e3a88e10a6dfe8731_original.png", "custom_css": null}, {"id": 7108, "slack_id": "U0795RTN62J", "display_name": "Ayan Zakaria", "bio": null, "projects_count": 0, "devlogs_count": 0, "votes_count": 0, "ships_count": 0, "projects": [], "coding_time_seconds": 0, "coding_time_seconds_today": 0, "balance": "You need to have a pocket watcher badge to view this.", "badges": [], "created_at": "2025-06-17T14:18:50.515-04:00", "updated_at": "2025-07-03T19:42:52.190-04:00", "avatar": "https://avatars.slack-edge.com/2024-06-23/7303976147175_6e9095b5efa2a7c67bbf_original.png", "custom_css": null}, {"id": 7109, "slack_id": "U0795GZAG6M", "display_name": "Gabs", "bio": null, "projects_count": 3, "devlogs_count": 4, "votes_count": 39, "ships_count": 2, "projects": [{"id": 9290, "title": "Givlet - Interactive Charity", "devlogs_count": 0, "created_at": "2025-07-31T11:22:14.692-04:00"}, {"id": 12041, "title": "rfw - go-based reactive framework for the web", "devlogs_count": 1, "created_at": "2025-08-22T10:40:34.504-04:00"}, {"id": 9289, "title": "Givlet - Interactive Charity", "devlogs_count": 3, "created_at": "2025-07-31T11:22:14.568-04:00"}], "coding_time_seconds": 255603, "coding_time_seconds_today": 0, "balance": "You need to have a pocket watcher badge to view this.", "badges": [{"name": "Maiden Voyage", "text": "you shipped your first project! the journey begins...", "icon": "\ud83d\udea2"}], "created_at": "2025-06-17T14:19:51.230-04:00", "updated_at": "2025-09-10T22:54:42.094-04:00", "avatar": "https://secure.gravatar.com/avatar/2b56ad17ddceebd76b99e77d699a5bcf.jpg?s=512&d=https%3A%2F%2Fa.slack-edge.com%2Fdf10d%2Fimg%2Favatars%2Fava_0014-512.png", "custom_css": null}, {"id": 7110, "slack_id": "U0928T8H4CR", "display_name": "Nithin", "bio": null, "projects_count": 0, "devlogs_count": 0, "votes_count": 0, "ships_count": 0, "projects": [], "coding_time_seconds": 0, "coding_time_seconds_today": 0, "balance": "You need to have a pocket watcher badge to view this.", "badges": [], "created_at": "2025-06-17T14:20:12.457-04:00", "updated_at": "2025-07-03T19:42:52.723-04:00", "avatar": "https://secure.gravatar.com/avatar/ccef7053e924cad0844519d9d8a1561e.jpg?s=512&d=https%3A%2F%2Fa.slack-edge.com%2Fdf10d%2Fimg%2Favatars%2Fava_0016-512.png", "custom_css": null}, {"id": 7111, "slack_id": "U081WCBD6NB", "display_name": "Bayte", "bio": null, "projects_count": 0, "devlogs_count": 0, "votes_count": 0, "ships_count": 0, "projects": [], "coding_time_seconds": 42457, "coding_time_seconds_today": 0, "balance": "You need to have a pocket watcher badge to view this.", "badges": [], "created_at": "2025-06-17T14:20:21.907-04:00", "updated_at": "2025-07-03T22:35:28.825-04:00", "avatar": "https://avatars.slack-edge.com/2024-12-03/8115294410965_cf8f24c78f8e76e28117_original.png", "custom_css": null}, {"id": 7112, "slack_id": "U091W850RLJ", "display_name": "DK", "bio": null, "projects_count": 0, "devlogs_count": 0, "votes_count": 0, "ships_count": 0, "projects": [], "coding_time_seconds": 0, "coding_time_seconds_today": 0, "balance": "You need to have a pocket watcher badge to view this.", "badges": [], "created_at": "2025-06-17T14:20:38.912-04:00", "updated_at": "2025-07-03T19:42:53.124-04:00", "avatar": "https://secure.gravatar.com/avatar/a7eb943ab07b9a8acde3bbee82d59610.jpg?s=512&d=https%3A%2F%2Fa.slack-edge.com%2Fdf10d%2Fimg%2Favatars%2Fava_0021-512.png", "custom_css": null}, {"id": 7113, "slack_id": "U091PPVT5NJ", "display_name": "Uydi Nguyen", "bio": null, "projects_count": 0, "devlogs_count": 0, "votes_count": 0, "ships_count": 0, "projects": [], "coding_time_seconds": 0, "coding_time_seconds_today": 0, "balance": "You need to have a pocket watcher badge to view this.", "badges": [], "created_at": "2025-06-17T14:21:48.518-04:00", "updated_at": "2025-07-03T19:42:53.401-04:00", "avatar": "https://avatars.slack-edge.com/2025-06-17/9064351455634_c24ca38bd3e5e9281ad1_original.png", "custom_css": null}, {"id": 7114, "slack_id": "U091PK4STT5", "display_name": "ArchWizard", "bio": null, "projects_count": 1, "devlogs_count": 0, "votes_count": 0, "ships_count": 0, "projects": [{"id": 1581, "title": "PICO-LOCO!!", "devlogs_count": 0, "created_at": "2025-06-18T19:51:17.248-04:00"}], "coding_time_seconds": 5277, "coding_time_seconds_today": 0, "balance": "You need to have a pocket watcher badge to view this.", "badges": [], "created_at": "2025-06-17T14:22:08.076-04:00", "updated_at": "2025-08-20T12:10:57.335-04:00", "avatar": "https://secure.gravatar.com/avatar/c930e5846adda75ecf009f22a9078eb7.jpg?s=512&d=https%3A%2F%2Fa.slack-edge.com%2Fdf10d%2Fimg%2Favatars%2Fava_0025-512.png", "custom_css": null}, {"id": 7115, "slack_id": "U01G0Q9K998", "display_name": "lux", "bio": "plural system, ephemeralist, engineering @ Hack Club HQ (staff)", "projects_count": 1, "devlogs_count": 2, "votes_count": 0, "ships_count": 0, "projects": [{"id": 10257, "title": "Sk\u00e5l", "devlogs_count": 2, "created_at": "2025-08-05T11:59:52.857-04:00"}], "coding_time_seconds": 240314, "coding_time_seconds_today": 0, "balance": "You need to have a pocket watcher badge to view this.", "badges": [], "created_at": "2025-06-17T14:22:12.921-04:00", "updated_at": "2025-08-29T15:39:43.457-04:00", "avatar": "https://avatars.slack-edge.com/2024-08-28/7646267342834_dfcf47a8698760bfb67f_original.png", "custom_css": null}, {"id": 7116, "slack_id": "U091PPZ6V70", "display_name": "Cameron Curtis", "bio": null, "projects_count": 0, "devlogs_count": 0, "votes_count": 0, "ships_count": 0, "projects": [], "coding_time_seconds": 59202, "coding_time_seconds_today": 0, "balance": "You need to have a pocket watcher badge to view this.", "badges": [], "created_at": "2025-06-17T14:22:26.955-04:00", "updated_at": "2025-07-03T19:42:54.077-04:00", "avatar": "https://avatars.slack-edge.com/2025-06-17/9064354906178_1b907da7a855796414da_original.jpg", "custom_css": null}, {"id": 7117, "slack_id": "U091WA972Q2", "display_name": "Rohit Shenoy", "bio": null, "projects_count": 0, "devlogs_count": 0, "votes_count": 0, "ships_count": 0, "projects": [], "coding_time_seconds": 48732, "coding_time_seconds_today": 0, "balance": "You need to have a pocket watcher badge to view this.", "badges": [], "created_at": "2025-06-17T14:24:14.364-04:00", "updated_at": "2025-07-03T19:42:54.335-04:00", "avatar": "https://secure.gravatar.com/avatar/171dedfcd86f7832cfa78d36e3f9ee2f.jpg?s=512&d=https%3A%2F%2Fa.slack-edge.com%2Fdf10d%2Fimg%2Favatars%2Fava_0005-512.png", "custom_css": null}, {"id": 7118, "slack_id": "U091PQG5QBY", "display_name": "James Jerominski", "bio": null, "projects_count": 0, "devlogs_count": 0, "votes_count": 0, "ships_count": 0, "projects": [], "coding_time_seconds": 4407, "coding_time_seconds_today": 0, "balance": "You need to have a pocket watcher badge to view this.", "badges": [], "created_at": "2025-06-17T14:24:33.100-04:00", "updated_at": "2025-07-03T21:45:00.432-04:00", "avatar": "https://avatars.slack-edge.com/2025-06-17/9086762181008_6bff69e678c18ba9979f_original.png", "custom_css": null}, {"id": 7119, "slack_id": "U091PGY2BCK", "display_name": "Joe", "bio": null, "projects_count": 0, "devlogs_count": 0, "votes_count": 0, "ships_count": 0, "projects": [], "coding_time_seconds": 0, "coding_time_seconds_today": 0, "balance": "You need to have a pocket watcher badge to view this.", "badges": [], "created_at": "2025-06-17T14:25:16.573-04:00", "updated_at": "2025-07-03T19:42:54.737-04:00", "avatar": "https://secure.gravatar.com/avatar/82e997dbd2b62f1b67ed63c2b94965aa.jpg?s=512&d=https%3A%2F%2Fa.slack-edge.com%2Fdf10d%2Fimg%2Favatars%2Fava_0020-512.png", "custom_css": null}, {"id": 7120, "slack_id": "U08257D0NSH", "display_name": "choccy", "bio": null, "projects_count": 0, "devlogs_count": 0, "votes_count": 0, "ships_count": 0, "projects": [], "coding_time_seconds": 0, "coding_time_seconds_today": 0, "balance": "You need to have a pocket watcher badge to view this.", "badges": [], "created_at": "2025-06-17T14:25:27.509-04:00", "updated_at": "2025-07-03T19:42:55.006-04:00", "avatar": "https://avatars.slack-edge.com/2024-11-24/8076429834723_1515a3bf232516fcce79_original.webp", "custom_css": null}], "pagination": {"page": 356, "pages": 1192, "count": 23828, "items": 20}}