{"users": [{"id": 7121, "slack_id": "U091WADQWBC", "display_name": "Sagnik Mukherjee", "bio": null, "projects_count": 0, "devlogs_count": 0, "votes_count": 0, "ships_count": 0, "projects": [], "coding_time_seconds": 0, "coding_time_seconds_today": 0, "balance": "You need to have a pocket watcher badge to view this.", "badges": [], "created_at": "2025-06-17T14:26:32.791-04:00", "updated_at": "2025-07-03T19:42:55.278-04:00", "avatar": "https://secure.gravatar.com/avatar/59a823aa76e58a3186f774148d327fa1.jpg?s=512&d=https%3A%2F%2Fa.slack-edge.com%2Fdf10d%2Fimg%2Favatars%2Fava_0017-512.png", "custom_css": null}, {"id": 7122, "slack_id": "U091WLVNT28", "display_name": "Cohen Murray", "bio": null, "projects_count": 0, "devlogs_count": 0, "votes_count": 0, "ships_count": 0, "projects": [], "coding_time_seconds": 46997, "coding_time_seconds_today": 0, "balance": "You need to have a pocket watcher badge to view this.", "badges": [], "created_at": "2025-06-17T14:27:22.618-04:00", "updated_at": "2025-07-03T19:42:55.541-04:00", "avatar": "https://avatars.slack-edge.com/2025-06-17/9064378966002_6dcca222bc3bf67fb60f_original.jpg", "custom_css": null}, {"id": 7123, "slack_id": "U07FXDX3NE4", "display_name": "Aneta (Lenochodik)", "bio": null, "projects_count": 0, "devlogs_count": 0, "votes_count": 0, "ships_count": 0, "projects": [], "coding_time_seconds": 0, "coding_time_seconds_today": 0, "balance": "You need to have a pocket watcher badge to view this.", "badges": [], "created_at": "2025-06-17T14:27:24.275-04:00", "updated_at": "2025-07-03T19:42:55.802-04:00", "avatar": "https://avatars.slack-edge.com/2024-08-02/7541672654720_4a6a9869367e23a96dbf_original.jpg", "custom_css": null}, {"id": 7124, "slack_id": "U092H8SSNJC", "display_name": "Mark Brennan", "bio": null, "projects_count": 0, "devlogs_count": 0, "votes_count": 0, "ships_count": 0, "projects": [], "coding_time_seconds": 4751, "coding_time_seconds_today": 0, "balance": "You need to have a pocket watcher badge to view this.", "badges": [], "created_at": "2025-06-17T14:27:31.771-04:00", "updated_at": "2025-07-04T02:26:24.649-04:00", "avatar": "https://secure.gravatar.com/avatar/0425851078313db626ec1869498e34d3.jpg?s=512&d=https%3A%2F%2Fa.slack-edge.com%2Fdf10d%2Fimg%2Favatars%2Fava_0018-512.png", "custom_css": null}, {"id": 7125, "slack_id": "U091WP2TKDJ", "display_name": "Donny Ken", "bio": null, "projects_count": 0, "devlogs_count": 0, "votes_count": 0, "ships_count": 0, "projects": [], "coding_time_seconds": 0, "coding_time_seconds_today": 0, "balance": "You need to have a pocket watcher badge to view this.", "badges": [], "created_at": "2025-06-17T14:27:34.600-04:00", "updated_at": "2025-07-03T19:42:56.212-04:00", "avatar": "https://secure.gravatar.com/avatar/80eb7fa3762771c691248621d89b4dc9.jpg?s=512&d=https%3A%2F%2Fa.slack-edge.com%2Fdf10d%2Fimg%2Favatars%2Fava_0020-512.png", "custom_css": null}, {"id": 7126, "slack_id": "U091W9BH8FL", "display_name": "Raza Ali", "bio": null, "projects_count": 0, "devlogs_count": 0, "votes_count": 0, "ships_count": 0, "projects": [], "coding_time_seconds": 0, "coding_time_seconds_today": 0, "balance": "You need to have a pocket watcher badge to view this.", "badges": [], "created_at": "2025-06-17T14:28:01.861-04:00", "updated_at": "2025-07-03T22:35:29.933-04:00", "avatar": "https://secure.gravatar.com/avatar/f0c8317b902f2da491aeb46875b137cb.jpg?s=512&d=https%3A%2F%2Fa.slack-edge.com%2Fdf10d%2Fimg%2Favatars%2Fava_0009-512.png", "custom_css": null}, {"id": 7127, "slack_id": "U091PQV0S8N", "display_name": "Pradeep Jabhadey", "bio": null, "projects_count": 0, "devlogs_count": 0, "votes_count": 0, "ships_count": 0, "projects": [], "coding_time_seconds": 0, "coding_time_seconds_today": 0, "balance": "You need to have a pocket watcher badge to view this.", "badges": [], "created_at": "2025-06-17T14:28:36.362-04:00", "updated_at": "2025-07-04T02:26:24.908-04:00", "avatar": "https://avatars.slack-edge.com/2025-06-17/9062742346725_2dc3f242fbaa5707477d_original.jpg", "custom_css": null}, {"id": 7128, "slack_id": "U091EVA6HL7", "display_name": "M.shariq", "bio": null, "projects_count": 0, "devlogs_count": 0, "votes_count": 0, "ships_count": 0, "projects": [], "coding_time_seconds": 0, "coding_time_seconds_today": 0, "balance": "You need to have a pocket watcher badge to view this.", "badges": [], "created_at": "2025-06-17T14:29:17.350-04:00", "updated_at": "2025-07-03T19:42:56.753-04:00", "avatar": "https://secure.gravatar.com/avatar/07d9b5e6f4add0013ecbd13649fdc8b0.jpg?s=512&d=https%3A%2F%2Fa.slack-edge.com%2Fdf10d%2Fimg%2Favatars%2Fava_0017-512.png", "custom_css": null}, {"id": 7129, "slack_id": "U091PBWK4HH", "display_name": "madness", "bio": null, "projects_count": 0, "devlogs_count": 0, "votes_count": 0, "ships_count": 0, "projects": [], "coding_time_seconds": 0, "coding_time_seconds_today": 0, "balance": "You need to have a pocket watcher badge to view this.", "badges": [], "created_at": "2025-06-17T14:30:09.173-04:00", "updated_at": "2025-07-03T19:42:57.028-04:00", "avatar": "https://secure.gravatar.com/avatar/c9e2edf4807e8070b739571bd2563e2f.jpg?s=512&d=https%3A%2F%2Fa.slack-edge.com%2Fdf10d%2Fimg%2Favatars%2Fava_0003-512.png", "custom_css": null}, {"id": 7130, "slack_id": "U091PRQTJCE", "display_name": "afonya", "bio": null, "projects_count": 2, "devlogs_count": 20, "votes_count": 40, "ships_count": 2, "projects": [{"id": 5833, "title": "DisBotLab", "devlogs_count": 8, "created_at": "2025-07-08T10:33:55.635-04:00"}, {"id": 1758, "title": "Solarixum", "devlogs_count": 12, "created_at": "2025-06-19T07:26:20.512-04:00"}], "coding_time_seconds": 272015, "coding_time_seconds_today": 0, "balance": "You need to have a pocket watcher badge to view this.", "badges": [{"name": "Maiden Voyage", "text": "you shipped your first project! the journey begins...", "icon": "\ud83d\udea2"}], "created_at": "2025-06-17T14:32:13.036-04:00", "updated_at": "2025-09-10T22:54:42.669-04:00", "avatar": "https://secure.gravatar.com/avatar/e3f356ec2cd87f4b1601950c255b8979.jpg?s=512&d=https%3A%2F%2Fa.slack-edge.com%2Fdf10d%2Fimg%2Favatars%2Fava_0008-512.png", "custom_css": null}, {"id": 7131, "slack_id": "U091WPGGCCU", "display_name": "Mattias Fatzler", "bio": null, "projects_count": 0, "devlogs_count": 0, "votes_count": 0, "ships_count": 0, "projects": [], "coding_time_seconds": 0, "coding_time_seconds_today": 0, "balance": "You need to have a pocket watcher badge to view this.", "badges": [], "created_at": "2025-06-17T14:32:41.030-04:00", "updated_at": "2025-07-03T19:42:57.431-04:00", "avatar": "https://secure.gravatar.com/avatar/83ca177fed2cb33ceadef4ebcb7b0dc5.jpg?s=512&d=https%3A%2F%2Fa.slack-edge.com%2Fdf10d%2Fimg%2Favatars%2Fava_0020-512.png", "custom_css": null}, {"id": 7132, "slack_id": "U091PRKKH3Q", "display_name": "Janhvi Shukla", "bio": null, "projects_count": 0, "devlogs_count": 0, "votes_count": 0, "ships_count": 0, "projects": [], "coding_time_seconds": 0, "coding_time_seconds_today": 0, "balance": "You need to have a pocket watcher badge to view this.", "badges": [], "created_at": "2025-06-17T14:33:06.461-04:00", "updated_at": "2025-07-03T19:42:57.702-04:00", "avatar": "https://avatars.slack-edge.com/2025-06-17/9057728489779_bdd856f7c2bffbfe155f_original.png", "custom_css": null}, {"id": 7133, "slack_id": "U091WB4KL5Q", "display_name": "Ava Hartnup", "bio": null, "projects_count": 0, "devlogs_count": 0, "votes_count": 0, "ships_count": 0, "projects": [], "coding_time_seconds": 0, "coding_time_seconds_today": 0, "balance": "You need to have a pocket watcher badge to view this.", "badges": [], "created_at": "2025-06-17T14:34:12.825-04:00", "updated_at": "2025-07-03T19:42:57.959-04:00", "avatar": "https://secure.gravatar.com/avatar/0b0e0cd82fc23d06dde20099880f7a96.jpg?s=512&d=https%3A%2F%2Fa.slack-edge.com%2Fdf10d%2Fimg%2Favatars%2Fava_0023-512.png", "custom_css": null}, {"id": 7134, "slack_id": "U091UM43Q85", "display_name": "David", "bio": null, "projects_count": 1, "devlogs_count": 0, "votes_count": 0, "ships_count": 0, "projects": [{"id": 1143, "title": "Random Number Generator", "devlogs_count": 0, "created_at": "2025-06-17T18:00:00.233-04:00"}], "coding_time_seconds": 1736, "coding_time_seconds_today": 0, "balance": "You need to have a pocket watcher badge to view this.", "badges": [], "created_at": "2025-06-17T14:34:14.241-04:00", "updated_at": "2025-07-03T19:42:58.231-04:00", "avatar": "https://secure.gravatar.com/avatar/27402c89eee10b1621bff7ed4826d2c5.jpg?s=512&d=https%3A%2F%2Fa.slack-edge.com%2Fdf10d%2Fimg%2Favatars%2Fava_0025-512.png", "custom_css": null}, {"id": 7135, "slack_id": "U088M4FLX38", "display_name": "imesh", "bio": null, "projects_count": 0, "devlogs_count": 0, "votes_count": 0, "ships_count": 0, "projects": [], "coding_time_seconds": 499743, "coding_time_seconds_today": 0, "balance": "You need to have a pocket watcher badge to view this.", "badges": [], "created_at": "2025-06-17T14:34:17.631-04:00", "updated_at": "2025-08-24T10:36:09.185-04:00", "avatar": "https://secure.gravatar.com/avatar/7daf7589892a4378445c11226d9e6096.jpg?s=512&d=https%3A%2F%2Fa.slack-edge.com%2Fdf10d%2Fimg%2Favatars%2Fava_0011-512.png", "custom_css": null}, {"id": 7136, "slack_id": "U0929075LTT", "display_name": "Bilal Ahmad", "bio": null, "projects_count": 0, "devlogs_count": 0, "votes_count": 0, "ships_count": 0, "projects": [], "coding_time_seconds": 0, "coding_time_seconds_today": 0, "balance": "You need to have a pocket watcher badge to view this.", "badges": [], "created_at": "2025-06-17T14:34:26.168-04:00", "updated_at": "2025-07-03T19:42:58.763-04:00", "avatar": "https://secure.gravatar.com/avatar/52fe40ddcbef7295aff8e455c6273932.jpg?s=512&d=https%3A%2F%2Fa.slack-edge.com%2Fdf10d%2Fimg%2Favatars%2Fava_0001-512.png", "custom_css": null}, {"id": 7137, "slack_id": "U091PSCQGQN", "display_name": "AstromanHUN", "bio": null, "projects_count": 4, "devlogs_count": 3, "votes_count": 26, "ships_count": 2, "projects": [{"id": 1477, "title": "Python calculator by Astroman", "devlogs_count": 1, "created_at": "2025-06-18T16:01:43.271-04:00"}, {"id": 12074, "title": "Chat for the world by Astroman", "devlogs_count": 1, "created_at": "2025-08-22T17:49:16.973-04:00"}, {"id": 5007, "title": "Weather app by Astroman", "devlogs_count": 0, "created_at": "2025-07-02T17:18:22.912-04:00"}, {"id": 2253, "title": "Random cat facts by Astroman", "devlogs_count": 1, "created_at": "2025-06-20T15:10:56.760-04:00"}], "coding_time_seconds": 87845, "coding_time_seconds_today": 0, "balance": "You need to have a pocket watcher badge to view this.", "badges": [{"name": "Maiden Voyage", "text": "you shipped your first project! the journey begins...", "icon": "\ud83d\udea2"}], "created_at": "2025-06-17T14:35:14.684-04:00", "updated_at": "2025-09-10T22:54:42.930-04:00", "avatar": "https://secure.gravatar.com/avatar/2ff1e1749fee82ee532c754fc32489f1.jpg?s=512&d=https%3A%2F%2Fa.slack-edge.com%2Fdf10d%2Fimg%2Favatars%2Fava_0023-512.png", "custom_css": null}, {"id": 7138, "slack_id": "U091PS22X1U", "display_name": "zALIKA", "bio": null, "projects_count": 0, "devlogs_count": 0, "votes_count": 0, "ships_count": 0, "projects": [], "coding_time_seconds": 1284, "coding_time_seconds_today": 0, "balance": "You need to have a pocket watcher badge to view this.", "badges": [], "created_at": "2025-06-17T14:35:23.617-04:00", "updated_at": "2025-07-03T19:42:59.299-04:00", "avatar": "https://secure.gravatar.com/avatar/50be77c4c6c7ad4155f3cec01a255733.jpg?s=512&d=https%3A%2F%2Fa.slack-edge.com%2Fdf10d%2Fimg%2Favatars%2Fava_0026-512.png", "custom_css": null}, {"id": 7139, "slack_id": "U07AJUFQ4U8", "display_name": "dora explora", "bio": null, "projects_count": 0, "devlogs_count": 20, "votes_count": 3, "ships_count": 0, "projects": [], "coding_time_seconds": 387995, "coding_time_seconds_today": 0, "balance": "You need to have a pocket watcher badge to view this.", "badges": [], "created_at": "2025-06-17T14:35:46.947-04:00", "updated_at": "2025-08-22T02:35:24.988-04:00", "avatar": "https://avatars.slack-edge.com/2025-08-21/9405686502817_00ccdfcb7f29d3647139_original.jpg", "custom_css": null}, {"id": 7140, "slack_id": "U091PMAD2RZ", "display_name": "aal337", "bio": null, "projects_count": 3, "devlogs_count": 21, "votes_count": 40, "ships_count": 2, "projects": [{"id": 7686, "title": "Coffeemon Code", "devlogs_count": 5, "created_at": "2025-07-22T14:37:07.498-04:00"}, {"id": 6318, "title": "Accumulated Time Calculator", "devlogs_count": 5, "created_at": "2025-07-12T09:50:20.310-04:00"}, {"id": 6906, "title": "Ascii Scenery Assembler", "devlogs_count": 11, "created_at": "2025-07-17T08:52:31.101-04:00"}], "coding_time_seconds": 137814, "coding_time_seconds_today": 0, "balance": "You need to have a pocket watcher badge to view this.", "badges": [{"name": "Maiden Voyage", "text": "you shipped your first project! the journey begins...", "icon": "\ud83d\udea2"}], "created_at": "2025-06-17T14:36:00.674-04:00", "updated_at": "2025-09-10T22:54:42.999-04:00", "avatar": "https://secure.gravatar.com/avatar/74cdb95124ff510234105ef8b339302f.jpg?s=512&d=https%3A%2F%2Fa.slack-edge.com%2Fdf10d%2Fimg%2Favatars%2Fava_0004-512.png", "custom_css": null}], "pagination": {"page": 357, "pages": 1192, "count": 23828, "items": 20}}