{"users": [{"id": 7141, "slack_id": "U092FTPP7ME", "display_name": "Sim\u00e3o", "bio": null, "projects_count": 2, "devlogs_count": 31, "votes_count": 36, "ships_count": 1, "projects": [{"id": 1582, "title": "Electron React Soundboard", "devlogs_count": 28, "created_at": "2025-06-18T19:53:01.366-04:00"}, {"id": 11844, "title": "Snatcher", "devlogs_count": 3, "created_at": "2025-08-20T07:33:54.204-04:00"}], "coding_time_seconds": 417771, "coding_time_seconds_today": 0, "balance": "You need to have a pocket watcher badge to view this.", "badges": [{"name": "Maiden Voyage", "text": "you shipped your first project! the journey begins...", "icon": "\ud83d\udea2"}], "created_at": "2025-06-17T14:36:11.152-04:00", "updated_at": "2025-09-10T22:54:43.025-04:00", "avatar": "https://secure.gravatar.com/avatar/b41243c0a13f87272374ce79c61fc153.jpg?s=512&d=https%3A%2F%2Fa.slack-edge.com%2Fdf10d%2Fimg%2Favatars%2Fava_0005-512.png", "custom_css": null}, {"id": 7142, "slack_id": "U091F22KDF1", "display_name": "Deepak Vishwakarma", "bio": null, "projects_count": 0, "devlogs_count": 0, "votes_count": 0, "ships_count": 0, "projects": [], "coding_time_seconds": 0, "coding_time_seconds_today": 0, "balance": "You need to have a pocket watcher badge to view this.", "badges": [], "created_at": "2025-06-17T14:36:33.239-04:00", "updated_at": "2025-07-03T19:43:00.466-04:00", "avatar": "https://secure.gravatar.com/avatar/8bde8039ea583c0967721fe2d5329ec3.jpg?s=512&d=https%3A%2F%2Fa.slack-edge.com%2Fdf10d%2Fimg%2Favatars%2Fava_0009-512.png", "custom_css": null}, {"id": 7143, "slack_id": "U087KPQFLRL", "display_name": "Fire coin", "bio": null, "projects_count": 7, "devlogs_count": 51, "votes_count": 79, "ships_count": 4, "projects": [{"id": 6050, "title": "Steganography", "devlogs_count": 7, "created_at": "2025-07-10T08:30:21.585-04:00"}, {"id": 11853, "title": "Gravity simulation", "devlogs_count": 11, "created_at": "2025-08-20T10:14:33.024-04:00"}, {"id": 12706, "title": "Loaders", "devlogs_count": 9, "created_at": "2025-09-01T06:59:15.774-04:00"}, {"id": 12882, "title": "Tetris", "devlogs_count": 1, "created_at": "2025-09-04T10:30:57.012-04:00"}, {"id": 4699, "title": "Rubik's cube", "devlogs_count": 9, "created_at": "2025-07-01T06:23:10.822-04:00"}, {"id": 13241, "title": "Falling Sand", "devlogs_count": 10, "created_at": "2025-09-12T11:01:59.780-04:00"}, {"id": 11260, "title": "Typing heatmap", "devlogs_count": 4, "created_at": "2025-08-14T11:12:56.434-04:00"}], "coding_time_seconds": 308054, "coding_time_seconds_today": 0, "balance": "You need to have a pocket watcher badge to view this.", "badges": [{"name": "Maiden Voyage", "text": "you shipped your first project! the journey begins...", "icon": "\ud83d\udea2"}], "created_at": "2025-06-17T14:36:46.488-04:00", "updated_at": "2025-09-10T22:54:43.070-04:00", "avatar": "https://secure.gravatar.com/avatar/07e5a949238be1579ce2d518ecf36cf7.jpg?s=512&d=https%3A%2F%2Fa.slack-edge.com%2Fdf10d%2Fimg%2Favatars%2Fava_0023-512.png", "custom_css": null}, {"id": 7144, "slack_id": "U091PL3HC75", "display_name": "Kovix", "bio": null, "projects_count": 0, "devlogs_count": 0, "votes_count": 0, "ships_count": 0, "projects": [], "coding_time_seconds": 0, "coding_time_seconds_today": 0, "balance": "You need to have a pocket watcher badge to view this.", "badges": [], "created_at": "2025-06-17T14:37:14.605-04:00", "updated_at": "2025-07-03T19:43:00.863-04:00", "avatar": "https://secure.gravatar.com/avatar/4ca5df8a9a6299f3e881a119f6f98117.jpg?s=512&d=https%3A%2F%2Fa.slack-edge.com%2Fdf10d%2Fimg%2Favatars%2Fava_0023-512.png", "custom_css": null}, {"id": 7145, "slack_id": "U09290NVC65", "display_name": "Ethan Wang", "bio": null, "projects_count": 1, "devlogs_count": 9, "votes_count": 2, "ships_count": 0, "projects": [{"id": 1073, "title": "Personal Finance Tracker", "devlogs_count": 9, "created_at": "2025-06-17T15:22:59.371-04:00"}], "coding_time_seconds": 108515, "coding_time_seconds_today": 0, "balance": "You need to have a pocket watcher badge to view this.", "badges": [], "created_at": "2025-06-17T14:37:22.116-04:00", "updated_at": "2025-07-03T19:43:01.124-04:00", "avatar": "https://secure.gravatar.com/avatar/15eebd96a2d44d04f3542d487f39cf89.jpg?s=512&d=https%3A%2F%2Fa.slack-edge.com%2Fdf10d%2Fimg%2Favatars%2Fava_0019-512.png", "custom_css": null}, {"id": 7146, "slack_id": "U091UP2KM29", "display_name": "Roshan", "bio": null, "projects_count": 0, "devlogs_count": 0, "votes_count": 0, "ships_count": 0, "projects": [], "coding_time_seconds": 280, "coding_time_seconds_today": 0, "balance": "You need to have a pocket watcher badge to view this.", "badges": [], "created_at": "2025-06-17T14:38:37.256-04:00", "updated_at": "2025-07-03T21:45:02.765-04:00", "avatar": "https://avatars.slack-edge.com/2025-06-18/9064535489846_e51596bb479e81771167_original.png", "custom_css": null}, {"id": 7147, "slack_id": "U092JQ27996", "display_name": "Amit kumar", "bio": null, "projects_count": 0, "devlogs_count": 0, "votes_count": 0, "ships_count": 0, "projects": [], "coding_time_seconds": 0, "coding_time_seconds_today": 0, "balance": "You need to have a pocket watcher badge to view this.", "badges": [], "created_at": "2025-06-17T14:38:51.167-04:00", "updated_at": "2025-07-03T19:43:01.527-04:00", "avatar": "https://secure.gravatar.com/avatar/54adf45ab4cfb2694e1da28aa1044bc6.jpg?s=512&d=https%3A%2F%2Fa.slack-edge.com%2Fdf10d%2Fimg%2Favatars%2Fava_0019-512.png", "custom_css": null}, {"id": 7148, "slack_id": "U07GAHWEUG4", "display_name": "Jignesh", "bio": null, "projects_count": 0, "devlogs_count": 0, "votes_count": 0, "ships_count": 0, "projects": [], "coding_time_seconds": 313938, "coding_time_seconds_today": 2152, "balance": "You need to have a pocket watcher badge to view this.", "badges": [], "created_at": "2025-06-17T14:39:20.201-04:00", "updated_at": "2025-07-03T19:43:01.805-04:00", "avatar": "https://secure.gravatar.com/avatar/592735912461983b716dbeeef4970f72.jpg?s=512&d=https%3A%2F%2Fa.slack-edge.com%2Fdf10d%2Fimg%2Favatars%2Fava_0026-512.png", "custom_css": null}, {"id": 7149, "slack_id": "U092JQCJ1J4", "display_name": "ADITYA SINGH", "bio": null, "projects_count": 0, "devlogs_count": 0, "votes_count": 0, "ships_count": 0, "projects": [], "coding_time_seconds": 0, "coding_time_seconds_today": 0, "balance": "You need to have a pocket watcher badge to view this.", "badges": [], "created_at": "2025-06-17T14:39:20.483-04:00", "updated_at": "2025-07-03T19:43:02.077-04:00", "avatar": "https://secure.gravatar.com/avatar/45f3635d8d94467421a17ac7fb792a9c.jpg?s=512&d=https%3A%2F%2Fa.slack-edge.com%2Fdf10d%2Fimg%2Favatars%2Fava_0014-512.png", "custom_css": null}, {"id": 7150, "slack_id": "U091PMTA1JP", "display_name": "Kamala Pun", "bio": null, "projects_count": 0, "devlogs_count": 0, "votes_count": 0, "ships_count": 0, "projects": [], "coding_time_seconds": 0, "coding_time_seconds_today": 0, "balance": "You need to have a pocket watcher badge to view this.", "badges": [], "created_at": "2025-06-17T14:39:27.511-04:00", "updated_at": "2025-07-03T19:43:02.349-04:00", "avatar": "https://secure.gravatar.com/avatar/f0fa5a0c352b120503731b303e68a065.jpg?s=512&d=https%3A%2F%2Fa.slack-edge.com%2Fdf10d%2Fimg%2Favatars%2Fava_0004-512.png", "custom_css": null}, {"id": 7151, "slack_id": "U040N4ESCEL", "display_name": "lucas", "bio": null, "projects_count": 0, "devlogs_count": 0, "votes_count": 0, "ships_count": 0, "projects": [], "coding_time_seconds": 347414, "coding_time_seconds_today": 0, "balance": "You need to have a pocket watcher badge to view this.", "badges": [], "created_at": "2025-06-17T14:40:40.999-04:00", "updated_at": "2025-08-31T20:34:41.395-04:00", "avatar": "https://avatars.slack-edge.com/2025-08-31/9437082291570_7ec2e5fd9f87ab651e44_original.jpg", "custom_css": null}, {"id": 7152, "slack_id": "U091PT8U7AA", "display_name": "Malgrum", "bio": null, "projects_count": 0, "devlogs_count": 0, "votes_count": 0, "ships_count": 0, "projects": [], "coding_time_seconds": 3140, "coding_time_seconds_today": 0, "balance": "You need to have a pocket watcher badge to view this.", "badges": [], "created_at": "2025-06-17T14:40:41.407-04:00", "updated_at": "2025-07-03T21:45:03.259-04:00", "avatar": "https://secure.gravatar.com/avatar/d689cc3cc13358eee8f403cb2b896f9e.jpg?s=512&d=https%3A%2F%2Fa.slack-edge.com%2Fdf10d%2Fimg%2Favatars%2Fava_0013-512.png", "custom_css": null}, {"id": 7153, "slack_id": "U091SD8R4H3", "display_name": "Erez Borenshtein", "bio": null, "projects_count": 0, "devlogs_count": 0, "votes_count": 0, "ships_count": 0, "projects": [], "coding_time_seconds": 634, "coding_time_seconds_today": 0, "balance": "You need to have a pocket watcher badge to view this.", "badges": [], "created_at": "2025-06-17T14:41:03.370-04:00", "updated_at": "2025-07-03T21:56:55.521-04:00", "avatar": "https://avatars.slack-edge.com/2025-06-17/9064453207218_cb193c4e649c9d0ff7a8_original.png", "custom_css": null}, {"id": 7154, "slack_id": "U091WRDV3RA", "display_name": "Satvik", "bio": null, "projects_count": 0, "devlogs_count": 0, "votes_count": 0, "ships_count": 0, "projects": [], "coding_time_seconds": 0, "coding_time_seconds_today": 0, "balance": "You need to have a pocket watcher badge to view this.", "badges": [], "created_at": "2025-06-17T14:41:21.945-04:00", "updated_at": "2025-07-06T20:08:29.836-04:00", "avatar": "https://secure.gravatar.com/avatar/939ef0622aa0160fc5c1b7c743e0c66a.jpg?s=512&d=https%3A%2F%2Fa.slack-edge.com%2Fdf10d%2Fimg%2Favatars%2Fava_0013-512.png", "custom_css": null}, {"id": 7155, "slack_id": "U07J91WCDUM", "display_name": "Andre", "bio": null, "projects_count": 3, "devlogs_count": 8, "votes_count": 0, "ships_count": 0, "projects": [{"id": 1147, "title": "Minigame YSWS Website", "devlogs_count": 4, "created_at": "2025-06-17T18:14:55.576-04:00"}, {"id": 3251, "title": "Orphbone", "devlogs_count": 3, "created_at": "2025-06-23T15:10:50.869-04:00"}, {"id": 4809, "title": "Baubleheads", "devlogs_count": 1, "created_at": "2025-07-01T16:39:14.365-04:00"}], "coding_time_seconds": 315127, "coding_time_seconds_today": 0, "balance": "You need to have a pocket watcher badge to view this.", "badges": [], "created_at": "2025-06-17T14:42:04.562-04:00", "updated_at": "2025-07-03T19:43:03.286-04:00", "avatar": "https://avatars.slack-edge.com/2025-03-07/8570772434932_230326e936cc6df23950_original.png", "custom_css": null}, {"id": 7156, "slack_id": "U091F309U8P", "display_name": "Aman Mittal", "bio": null, "projects_count": 0, "devlogs_count": 0, "votes_count": 0, "ships_count": 0, "projects": [], "coding_time_seconds": 0, "coding_time_seconds_today": 0, "balance": "You need to have a pocket watcher badge to view this.", "badges": [], "created_at": "2025-06-17T14:42:44.642-04:00", "updated_at": "2025-07-03T19:43:03.551-04:00", "avatar": "https://secure.gravatar.com/avatar/844a8bd7edadbb9c2cbd61f0f128b306.jpg?s=512&d=https%3A%2F%2Fa.slack-edge.com%2Fdf10d%2Fimg%2Favatars%2Fava_0008-512.png", "custom_css": null}, {"id": 7157, "slack_id": "U091UHHSXMJ", "display_name": "Thoracide", "bio": null, "projects_count": 2, "devlogs_count": 1, "votes_count": 0, "ships_count": 0, "projects": [{"id": 1931, "title": "Pyminder", "devlogs_count": 1, "created_at": "2025-06-19T16:31:13.593-04:00"}, {"id": 10169, "title": "GraphiCSV", "devlogs_count": 0, "created_at": "2025-08-04T15:26:30.479-04:00"}], "coding_time_seconds": 1422, "coding_time_seconds_today": 0, "balance": "You need to have a pocket watcher badge to view this.", "badges": [], "created_at": "2025-06-17T14:42:46.629-04:00", "updated_at": "2025-07-05T08:08:20.281-04:00", "avatar": "https://avatars.slack-edge.com/2025-06-19/9056931485783_d8723df355d6a251c5bc_original.jpg", "custom_css": null}, {"id": 7158, "slack_id": "U092JQF1SG0", "display_name": "Yassin", "bio": null, "projects_count": 0, "devlogs_count": 0, "votes_count": 0, "ships_count": 0, "projects": [], "coding_time_seconds": 0, "coding_time_seconds_today": 0, "balance": "You need to have a pocket watcher badge to view this.", "badges": [], "created_at": "2025-06-17T14:43:02.369-04:00", "updated_at": "2025-07-03T19:43:03.962-04:00", "avatar": "https://secure.gravatar.com/avatar/e6318a6acd9593a09267958bb17dc24a.jpg?s=512&d=https%3A%2F%2Fa.slack-edge.com%2Fdf10d%2Fimg%2Favatars%2Fava_0010-512.png", "custom_css": null}, {"id": 7159, "slack_id": "U091UPX19NZ", "display_name": "Aaarjav", "bio": null, "projects_count": 0, "devlogs_count": 0, "votes_count": 0, "ships_count": 0, "projects": [], "coding_time_seconds": 0, "coding_time_seconds_today": 0, "balance": "You need to have a pocket watcher badge to view this.", "badges": [], "created_at": "2025-06-17T14:43:02.470-04:00", "updated_at": "2025-07-03T19:43:04.223-04:00", "avatar": "https://avatars.slack-edge.com/2025-06-18/9064896385252_e340f7682e85ee648e72_original.jpg", "custom_css": null}, {"id": 7160, "slack_id": "U091WD9FU74", "display_name": "Caranouga", "bio": null, "projects_count": 0, "devlogs_count": 0, "votes_count": 0, "ships_count": 0, "projects": [], "coding_time_seconds": 58131, "coding_time_seconds_today": 0, "balance": "You need to have a pocket watcher badge to view this.", "badges": [], "created_at": "2025-06-17T14:43:09.215-04:00", "updated_at": "2025-07-04T08:22:40.393-04:00", "avatar": "https://secure.gravatar.com/avatar/08fd85ddbf9d75aaa7ed56ad01b3adff.jpg?s=512&d=https%3A%2F%2Fa.slack-edge.com%2Fdf10d%2Fimg%2Favatars%2Fava_0024-512.png", "custom_css": null}], "pagination": {"page": 358, "pages": 1192, "count": 23828, "items": 20}}