{"users": [{"id": 7161, "slack_id": "U09290B19FB", "display_name": "EG", "bio": null, "projects_count": 1, "devlogs_count": 3, "votes_count": 0, "ships_count": 0, "projects": [{"id": 2808, "title": "Kitchen game(learning Unity)", "devlogs_count": 3, "created_at": "2025-06-22T05:57:14.106-04:00"}], "coding_time_seconds": 6505, "coding_time_seconds_today": 0, "balance": "You need to have a pocket watcher badge to view this.", "badges": [], "created_at": "2025-06-17T14:43:19.227-04:00", "updated_at": "2025-07-03T19:43:04.630-04:00", "avatar": "https://secure.gravatar.com/avatar/bc38fb1378d6242b15370c22d9f9bed2.jpg?s=512&d=https%3A%2F%2Fa.slack-edge.com%2Fdf10d%2Fimg%2Favatars%2Fava_0024-512.png", "custom_css": null}, {"id": 7162, "slack_id": "U091UPT5JMT", "display_name": "Elias Lindstr\u00f6m", "bio": null, "projects_count": 0, "devlogs_count": 0, "votes_count": 0, "ships_count": 0, "projects": [], "coding_time_seconds": 2370, "coding_time_seconds_today": 0, "balance": "You need to have a pocket watcher badge to view this.", "badges": [], "created_at": "2025-06-17T14:44:56.819-04:00", "updated_at": "2025-07-04T08:22:40.576-04:00", "avatar": "https://avatars.slack-edge.com/2025-06-17/9062835913445_294c7770fb31dd74caaa_original.jpg", "custom_css": null}, {"id": 7163, "slack_id": "U09291ZAJV7", "display_name": "Aakash Maskeri", "bio": null, "projects_count": 0, "devlogs_count": 0, "votes_count": 0, "ships_count": 0, "projects": [], "coding_time_seconds": 0, "coding_time_seconds_today": 0, "balance": "You need to have a pocket watcher badge to view this.", "badges": [], "created_at": "2025-06-17T14:46:32.004-04:00", "updated_at": "2025-07-03T19:43:05.027-04:00", "avatar": "https://secure.gravatar.com/avatar/25c7c54a1cae8e7895e8aac31964a9cc.jpg?s=512&d=https%3A%2F%2Fa.slack-edge.com%2Fdf10d%2Fimg%2Favatars%2Fava_0001-512.png", "custom_css": null}, {"id": 7164, "slack_id": "U091UQECHSR", "display_name": "Jonathan", "bio": null, "projects_count": 0, "devlogs_count": 0, "votes_count": 0, "ships_count": 0, "projects": [], "coding_time_seconds": 0, "coding_time_seconds_today": 0, "balance": "You need to have a pocket watcher badge to view this.", "badges": [], "created_at": "2025-06-17T14:46:34.461-04:00", "updated_at": "2025-07-03T19:43:05.288-04:00", "avatar": "https://secure.gravatar.com/avatar/e7146a60c0795cc3e8b4f4b92bca1d8e.jpg?s=512&d=https%3A%2F%2Fa.slack-edge.com%2Fdf10d%2Fimg%2Favatars%2Fava_0011-512.png", "custom_css": null}, {"id": 7165, "slack_id": "U09199WF1N3", "display_name": "Rao", "bio": null, "projects_count": 0, "devlogs_count": 0, "votes_count": 0, "ships_count": 0, "projects": [], "coding_time_seconds": 0, "coding_time_seconds_today": 0, "balance": "You need to have a pocket watcher badge to view this.", "badges": [], "created_at": "2025-06-17T14:46:55.158-04:00", "updated_at": "2025-07-04T08:22:40.810-04:00", "avatar": "https://secure.gravatar.com/avatar/edd35605152fed7ccb054ff3cb736fcf.jpg?s=512&d=https%3A%2F%2Fa.slack-edge.com%2Fdf10d%2Fimg%2Favatars%2Fava_0020-512.png", "custom_css": null}, {"id": 7166, "slack_id": "U070S3G8CSX", "display_name": "lxsquid", "bio": null, "projects_count": 0, "devlogs_count": 0, "votes_count": 0, "ships_count": 0, "projects": [], "coding_time_seconds": 0, "coding_time_seconds_today": 0, "balance": "You need to have a pocket watcher badge to view this.", "badges": [], "created_at": "2025-06-17T14:47:20.304-04:00", "updated_at": "2025-07-03T21:56:56.333-04:00", "avatar": "https://secure.gravatar.com/avatar/778526dcd6bebe9f06dd97244ba29a4f.jpg?s=512&d=https%3A%2F%2Fa.slack-edge.com%2Fdf10d%2Fimg%2Favatars%2Fava_0011-512.png", "custom_css": null}, {"id": 7167, "slack_id": "U08TV2BPHPZ", "display_name": "Waxn", "bio": null, "projects_count": 1, "devlogs_count": 7, "votes_count": 1, "ships_count": 1, "projects": [{"id": 1070, "title": "Recommendation Site", "devlogs_count": 7, "created_at": "2025-06-17T15:16:51.864-04:00"}], "coding_time_seconds": 85298, "coding_time_seconds_today": 0, "balance": "You need to have a pocket watcher badge to view this.", "badges": [{"name": "Maiden Voyage", "text": "you shipped your first project! the journey begins...", "icon": "\ud83d\udea2"}], "created_at": "2025-06-17T14:47:25.638-04:00", "updated_at": "2025-09-10T22:54:43.673-04:00", "avatar": "https://secure.gravatar.com/avatar/1977b9ed07fd9497c3ccd452c81844f1.jpg?s=512&d=https%3A%2F%2Fa.slack-edge.com%2Fdf10d%2Fimg%2Favatars%2Fava_0021-512.png", "custom_css": null}, {"id": 7168, "slack_id": "U0928T4P1HP", "display_name": "Violet Hartnup", "bio": null, "projects_count": 0, "devlogs_count": 0, "votes_count": 0, "ships_count": 0, "projects": [], "coding_time_seconds": 0, "coding_time_seconds_today": 0, "balance": "You need to have a pocket watcher badge to view this.", "badges": [], "created_at": "2025-06-17T14:48:11.100-04:00", "updated_at": "2025-07-03T19:43:06.099-04:00", "avatar": "https://secure.gravatar.com/avatar/fec1c55423f21176a4cf848676ad2851.jpg?s=512&d=https%3A%2F%2Fa.slack-edge.com%2Fdf10d%2Fimg%2Favatars%2Fava_0007-512.png", "custom_css": null}, {"id": 7169, "slack_id": "U092JQ4NXUY", "display_name": "Avni", "bio": null, "projects_count": 1, "devlogs_count": 1, "votes_count": 2, "ships_count": 0, "projects": [{"id": 2885, "title": "A template for ugly websites ", "devlogs_count": 1, "created_at": "2025-06-22T11:01:33.785-04:00"}], "coding_time_seconds": 7354, "coding_time_seconds_today": 0, "balance": "You need to have a pocket watcher badge to view this.", "badges": [], "created_at": "2025-06-17T14:48:46.537-04:00", "updated_at": "2025-09-05T20:34:43.730-04:00", "avatar": "https://avatars.slack-edge.com/2025-09-05/9466068379907_9636375610018c10814f_original.png", "custom_css": null}, {"id": 7170, "slack_id": "U091KCD2Y22", "display_name": "Sanjay Ram Ramachandran", "bio": null, "projects_count": 0, "devlogs_count": 0, "votes_count": 0, "ships_count": 0, "projects": [], "coding_time_seconds": 0, "coding_time_seconds_today": 0, "balance": "You need to have a pocket watcher badge to view this.", "badges": [], "created_at": "2025-06-17T14:49:12.262-04:00", "updated_at": "2025-07-03T19:43:06.626-04:00", "avatar": "https://secure.gravatar.com/avatar/bb5725ce959c90b446975afe59098ca3.jpg?s=512&d=https%3A%2F%2Fa.slack-edge.com%2Fdf10d%2Fimg%2Favatars%2Fava_0008-512.png", "custom_css": null}, {"id": 7171, "slack_id": "U091PTQPYAJ", "display_name": "Derek Yua", "bio": null, "projects_count": 3, "devlogs_count": 6, "votes_count": 0, "ships_count": 1, "projects": [{"id": 1384, "title": "PixelMasterX", "devlogs_count": 1, "created_at": "2025-06-18T12:56:10.380-04:00"}, {"id": 2847, "title": "ChessWebdigger", "devlogs_count": 2, "created_at": "2025-06-22T08:05:35.247-04:00"}, {"id": 5490, "title": "Chess Nexus", "devlogs_count": 3, "created_at": "2025-07-05T16:59:18.086-04:00"}], "coding_time_seconds": 180246, "coding_time_seconds_today": 0, "balance": "You need to have a pocket watcher badge to view this.", "badges": [{"name": "Maiden Voyage", "text": "you shipped your first project! the journey begins...", "icon": "\ud83d\udea2"}], "created_at": "2025-06-17T14:50:06.674-04:00", "updated_at": "2025-09-21T12:35:06.799-04:00", "avatar": "https://avatars.slack-edge.com/2025-09-21/9541272803447_e3a9b32d5e54fe000611_original.jpg", "custom_css": null}, {"id": 7172, "slack_id": "U09243ZQF17", "display_name": "Andy", "bio": null, "projects_count": 0, "devlogs_count": 0, "votes_count": 0, "ships_count": 0, "projects": [], "coding_time_seconds": 0, "coding_time_seconds_today": 0, "balance": "You need to have a pocket watcher badge to view this.", "badges": [], "created_at": "2025-06-17T14:50:09.736-04:00", "updated_at": "2025-07-03T19:43:07.186-04:00", "avatar": "https://secure.gravatar.com/avatar/93a14e6ecb38dbcedaa932f2efb67453.jpg?s=512&d=https%3A%2F%2Fa.slack-edge.com%2Fdf10d%2Fimg%2Favatars%2Fava_0008-512.png", "custom_css": null}, {"id": 7173, "slack_id": "U092JS15J9W", "display_name": "Payre", "bio": null, "projects_count": 0, "devlogs_count": 0, "votes_count": 0, "ships_count": 0, "projects": [], "coding_time_seconds": 17745, "coding_time_seconds_today": 0, "balance": "You need to have a pocket watcher badge to view this.", "badges": [], "created_at": "2025-06-17T14:50:43.213-04:00", "updated_at": "2025-07-05T08:08:21.250-04:00", "avatar": "https://secure.gravatar.com/avatar/6d247532ea6bf72a48b017594495fb8f.jpg?s=512&d=https%3A%2F%2Fa.slack-edge.com%2Fdf10d%2Fimg%2Favatars%2Fava_0011-512.png", "custom_css": null}, {"id": 7174, "slack_id": "U091PUEJHAA", "display_name": "Andr\u00e9 Luiz", "bio": null, "projects_count": 0, "devlogs_count": 0, "votes_count": 0, "ships_count": 0, "projects": [], "coding_time_seconds": 0, "coding_time_seconds_today": 0, "balance": "You need to have a pocket watcher badge to view this.", "badges": [], "created_at": "2025-06-17T14:50:45.919-04:00", "updated_at": "2025-07-03T19:43:07.602-04:00", "avatar": "https://avatars.slack-edge.com/2025-06-17/9086902525648_c1a743b1f0954b3f1ec0_original.png", "custom_css": null}, {"id": 7175, "slack_id": "U091PJBJ43V", "display_name": "Nyah", "bio": null, "projects_count": 0, "devlogs_count": 0, "votes_count": 0, "ships_count": 0, "projects": [], "coding_time_seconds": 0, "coding_time_seconds_today": 0, "balance": "You need to have a pocket watcher badge to view this.", "badges": [], "created_at": "2025-06-17T14:50:55.514-04:00", "updated_at": "2025-07-04T02:26:28.226-04:00", "avatar": "https://secure.gravatar.com/avatar/0e765f3ca072d764e01d955db9639606.jpg?s=512&d=https%3A%2F%2Fa.slack-edge.com%2Fdf10d%2Fimg%2Favatars%2Fava_0018-512.png", "custom_css": null}, {"id": 7176, "slack_id": "U091F4D3KEK", "display_name": "Luis Angel Vazquez Carrillo", "bio": null, "projects_count": 0, "devlogs_count": 0, "votes_count": 0, "ships_count": 0, "projects": [], "coding_time_seconds": 0, "coding_time_seconds_today": 0, "balance": "You need to have a pocket watcher badge to view this.", "badges": [], "created_at": "2025-06-17T14:51:10.338-04:00", "updated_at": "2025-07-03T19:43:08.003-04:00", "avatar": "https://secure.gravatar.com/avatar/b6d2fa0f5897c56d851773ebeb91b597.jpg?s=512&d=https%3A%2F%2Fa.slack-edge.com%2Fdf10d%2Fimg%2Favatars%2Fava_0022-512.png", "custom_css": null}, {"id": 7177, "slack_id": "U091PPPTYTD", "display_name": "CMikhi", "bio": null, "projects_count": 0, "devlogs_count": 0, "votes_count": 0, "ships_count": 0, "projects": [], "coding_time_seconds": 44153, "coding_time_seconds_today": 0, "balance": "You need to have a pocket watcher badge to view this.", "badges": [], "created_at": "2025-06-17T14:51:16.590-04:00", "updated_at": "2025-07-03T19:43:08.273-04:00", "avatar": "https://secure.gravatar.com/avatar/00e53e74af6ac3b3cb63ab596ba1f1c7.jpg?s=512&d=https%3A%2F%2Fa.slack-edge.com%2Fdf10d%2Fimg%2Favatars%2Fava_0018-512.png", "custom_css": null}, {"id": 7178, "slack_id": "U091UR6RMRB", "display_name": "Giselle Flagg", "bio": null, "projects_count": 0, "devlogs_count": 0, "votes_count": 0, "ships_count": 0, "projects": [], "coding_time_seconds": 0, "coding_time_seconds_today": 0, "balance": "You need to have a pocket watcher badge to view this.", "badges": [], "created_at": "2025-06-17T14:51:45.288-04:00", "updated_at": "2025-07-03T19:43:08.540-04:00", "avatar": "https://avatars.slack-edge.com/2025-06-17/9058002510134_2f81594cf49fa032dc68_original.png", "custom_css": null}, {"id": 7179, "slack_id": "U091PTKC8LW", "display_name": "Hugo Campos", "bio": null, "projects_count": 1, "devlogs_count": 1, "votes_count": 0, "ships_count": 0, "projects": [{"id": 2681, "title": "Upgraded RPS", "devlogs_count": 1, "created_at": "2025-06-21T16:57:50.183-04:00"}], "coding_time_seconds": 3155, "coding_time_seconds_today": 0, "balance": "You need to have a pocket watcher badge to view this.", "badges": [], "created_at": "2025-06-17T14:51:52.362-04:00", "updated_at": "2025-07-03T19:43:08.822-04:00", "avatar": "https://secure.gravatar.com/avatar/f1f5afdfae3e92ead8711548ca3ae890.jpg?s=512&d=https%3A%2F%2Fa.slack-edge.com%2Fdf10d%2Fimg%2Favatars%2Fava_0019-512.png", "custom_css": null}, {"id": 7180, "slack_id": "U09292X2HUZ", "display_name": "Leonardo Piedras Puente", "bio": null, "projects_count": 0, "devlogs_count": 0, "votes_count": 0, "ships_count": 0, "projects": [], "coding_time_seconds": 0, "coding_time_seconds_today": 0, "balance": "You need to have a pocket watcher badge to view this.", "badges": [], "created_at": "2025-06-17T14:51:56.179-04:00", "updated_at": "2025-07-03T22:35:33.735-04:00", "avatar": "https://avatars.slack-edge.com/2025-06-17/9086907669216_e417c736f232769e22c5_original.jpg", "custom_css": null}], "pagination": {"page": 359, "pages": 1192, "count": 23828, "items": 20}}