{"users": [{"id": 701, "slack_id": "U0917SKDV0X", "display_name": "Krish Agarwal", "bio": null, "projects_count": 0, "devlogs_count": 0, "votes_count": 0, "ships_count": 0, "projects": [], "coding_time_seconds": 4439, "coding_time_seconds_today": 0, "balance": "You need to have a pocket watcher badge to view this.", "badges": [], "created_at": "2025-06-16T12:10:12.100-04:00", "updated_at": "2025-07-03T19:14:11.880-04:00", "avatar": "https://avatars.slack-edge.com/2025-06-16/9055448949045_8898ae6b7a09ca64fcb9_original.jpg", "custom_css": null}, {"id": 702, "slack_id": "U0917KTHEMV", "display_name": "gg hadid", "bio": null, "projects_count": 0, "devlogs_count": 0, "votes_count": 0, "ships_count": 0, "projects": [], "coding_time_seconds": 0, "coding_time_seconds_today": 0, "balance": "You need to have a pocket watcher badge to view this.", "badges": [], "created_at": "2025-06-16T12:10:20.287-04:00", "updated_at": "2025-07-03T19:14:12.152-04:00", "avatar": "https://secure.gravatar.com/avatar/8c1e5a0d385ebc6db86745310242b634.jpg?s=512&d=https%3A%2F%2Fa.slack-edge.com%2Fdf10d%2Fimg%2Favatars%2Fava_0012-512.png", "custom_css": null}, {"id": 703, "slack_id": "U091MCR1ARK", "display_name": "rudrapratap singh naruka", "bio": null, "projects_count": 0, "devlogs_count": 0, "votes_count": 0, "ships_count": 0, "projects": [], "coding_time_seconds": 0, "coding_time_seconds_today": 0, "balance": "You need to have a pocket watcher badge to view this.", "badges": [], "created_at": "2025-06-16T12:10:26.083-04:00", "updated_at": "2025-07-03T19:14:12.417-04:00", "avatar": "https://secure.gravatar.com/avatar/a9fb416c1c9be802ecc26e9babe863e5.jpg?s=512&d=https%3A%2F%2Fa.slack-edge.com%2Fdf10d%2Fimg%2Favatars%2Fava_0022-512.png", "custom_css": null}, {"id": 704, "slack_id": "U091PA5MJQL", "display_name": "zeus", "bio": null, "projects_count": 0, "devlogs_count": 0, "votes_count": 0, "ships_count": 0, "projects": [], "coding_time_seconds": 0, "coding_time_seconds_today": 0, "balance": "You need to have a pocket watcher badge to view this.", "badges": [], "created_at": "2025-06-16T12:10:27.751-04:00", "updated_at": "2025-07-03T19:14:12.689-04:00", "avatar": "https://secure.gravatar.com/avatar/3fb4ef88a3d147dccd17a8654e13e341.jpg?s=512&d=https%3A%2F%2Fa.slack-edge.com%2Fdf10d%2Fimg%2Favatars%2Fava_0002-512.png", "custom_css": null}, {"id": 705, "slack_id": "U091P5K1AGJ", "display_name": "andre", "bio": null, "projects_count": 0, "devlogs_count": 0, "votes_count": 0, "ships_count": 0, "projects": [], "coding_time_seconds": 0, "coding_time_seconds_today": 0, "balance": "You need to have a pocket watcher badge to view this.", "badges": [], "created_at": "2025-06-16T12:10:32.166-04:00", "updated_at": "2025-07-03T19:14:12.959-04:00", "avatar": "https://secure.gravatar.com/avatar/a669206120abd0a5774aa4cffa311298.jpg?s=512&d=https%3A%2F%2Fa.slack-edge.com%2Fdf10d%2Fimg%2Favatars%2Fava_0012-512.png", "custom_css": null}, {"id": 706, "slack_id": "U091G1F5UVC", "display_name": "Twooearly", "bio": null, "projects_count": 0, "devlogs_count": 0, "votes_count": 0, "ships_count": 0, "projects": [], "coding_time_seconds": 0, "coding_time_seconds_today": 0, "balance": "You need to have a pocket watcher badge to view this.", "badges": [], "created_at": "2025-06-16T12:10:33.744-04:00", "updated_at": "2025-07-03T19:14:13.226-04:00", "avatar": "https://avatars.slack-edge.com/2025-06-16/9057657039940_3bea91cd2a35508e0298_original.jpg", "custom_css": null}, {"id": 707, "slack_id": "U091PFVGELU", "display_name": "MOHAMED EL GUARIR", "bio": null, "projects_count": 0, "devlogs_count": 0, "votes_count": 0, "ships_count": 0, "projects": [], "coding_time_seconds": 112672, "coding_time_seconds_today": 0, "balance": "You need to have a pocket watcher badge to view this.", "badges": [], "created_at": "2025-06-16T12:10:41.795-04:00", "updated_at": "2025-07-03T19:14:13.498-04:00", "avatar": "https://secure.gravatar.com/avatar/e66c8198368857d96dc7d9a49a454b7a.jpg?s=512&d=https%3A%2F%2Fa.slack-edge.com%2Fdf10d%2Fimg%2Favatars%2Fava_0024-512.png", "custom_css": null}, {"id": 708, "slack_id": "U091G9Y5FEJ", "display_name": "Hayoul", "bio": null, "projects_count": 0, "devlogs_count": 0, "votes_count": 0, "ships_count": 0, "projects": [], "coding_time_seconds": 0, "coding_time_seconds_today": 0, "balance": "You need to have a pocket watcher badge to view this.", "badges": [], "created_at": "2025-06-16T12:10:42.246-04:00", "updated_at": "2025-07-03T19:14:13.763-04:00", "avatar": "https://secure.gravatar.com/avatar/b2d0249bbeeb070eb821fd63d6725091.jpg?s=512&d=https%3A%2F%2Fa.slack-edge.com%2Fdf10d%2Fimg%2Favatars%2Fava_0004-512.png", "custom_css": null}, {"id": 709, "slack_id": "U0921NXH6LR", "display_name": "Dias Kabdualiyev", "bio": null, "projects_count": 0, "devlogs_count": 0, "votes_count": 0, "ships_count": 0, "projects": [], "coding_time_seconds": 103128, "coding_time_seconds_today": 0, "balance": "You need to have a pocket watcher badge to view this.", "badges": [], "created_at": "2025-06-16T12:10:46.173-04:00", "updated_at": "2025-07-03T19:14:14.031-04:00", "avatar": "https://secure.gravatar.com/avatar/f7e3dbd8874e48e910f6b8e8adaccc8c.jpg?s=512&d=https%3A%2F%2Fa.slack-edge.com%2Fdf10d%2Fimg%2Favatars%2Fava_0020-512.png", "custom_css": null}, {"id": 710, "slack_id": "U091P5JR6Q2", "display_name": "Himanshu", "bio": null, "projects_count": 0, "devlogs_count": 0, "votes_count": 0, "ships_count": 0, "projects": [], "coding_time_seconds": 0, "coding_time_seconds_today": 0, "balance": "You need to have a pocket watcher badge to view this.", "badges": [], "created_at": "2025-06-16T12:10:49.251-04:00", "updated_at": "2025-07-03T19:14:14.296-04:00", "avatar": "https://secure.gravatar.com/avatar/eaec92f4c73318e0e9e7e96c62cdf839.jpg?s=512&d=https%3A%2F%2Fa.slack-edge.com%2Fdf10d%2Fimg%2Favatars%2Fava_0000-512.png", "custom_css": null}, {"id": 711, "slack_id": "U082F0JP2TF", "display_name": "Q1000Q", "bio": null, "projects_count": 0, "devlogs_count": 0, "votes_count": 0, "ships_count": 0, "projects": [], "coding_time_seconds": 0, "coding_time_seconds_today": 0, "balance": "You need to have a pocket watcher badge to view this.", "badges": [], "created_at": "2025-06-16T12:10:58.280-04:00", "updated_at": "2025-07-03T19:14:14.565-04:00", "avatar": "https://secure.gravatar.com/avatar/c92f9f9aa7836a3ff4de0607b5754242.jpg?s=512&d=https%3A%2F%2Fa.slack-edge.com%2Fdf10d%2Fimg%2Favatars%2Fava_0016-512.png", "custom_css": null}, {"id": 712, "slack_id": "U091GA0PS5C", "display_name": "Adithya", "bio": null, "projects_count": 0, "devlogs_count": 0, "votes_count": 0, "ships_count": 0, "projects": [], "coding_time_seconds": 0, "coding_time_seconds_today": 0, "balance": "You need to have a pocket watcher badge to view this.", "badges": [], "created_at": "2025-06-16T12:11:03.340-04:00", "updated_at": "2025-07-03T19:14:14.843-04:00", "avatar": "https://secure.gravatar.com/avatar/edf3c0c697f72628f0be66e46776b5a2.jpg?s=512&d=https%3A%2F%2Fa.slack-edge.com%2Fdf10d%2Fimg%2Favatars%2Fava_0018-512.png", "custom_css": null}, {"id": 713, "slack_id": "U07L45U0YRK", "display_name": "Clech Bikley", "bio": null, "projects_count": 1, "devlogs_count": 0, "votes_count": 0, "ships_count": 0, "projects": [{"id": 210, "title": "Ribbon", "devlogs_count": 0, "created_at": "2025-06-16T15:31:27.225-04:00"}], "coding_time_seconds": 112055, "coding_time_seconds_today": 0, "balance": "You need to have a pocket watcher badge to view this.", "badges": [], "created_at": "2025-06-16T12:11:12.103-04:00", "updated_at": "2025-07-03T19:14:15.114-04:00", "avatar": "https://avatars.slack-edge.com/2025-01-23/8341693654258_dba61b352dadaa19646f_original.png", "custom_css": null}, {"id": 714, "slack_id": "U091G6XHQMR", "display_name": "achen", "bio": null, "projects_count": 0, "devlogs_count": 0, "votes_count": 0, "ships_count": 0, "projects": [], "coding_time_seconds": 0, "coding_time_seconds_today": 0, "balance": "You need to have a pocket watcher badge to view this.", "badges": [], "created_at": "2025-06-16T12:11:12.834-04:00", "updated_at": "2025-07-03T19:14:15.386-04:00", "avatar": "https://secure.gravatar.com/avatar/891d38751f72a7c5a3afb21dcae481c0.jpg?s=512&d=https%3A%2F%2Fa.slack-edge.com%2Fdf10d%2Fimg%2Favatars%2Fava_0018-512.png", "custom_css": null}, {"id": 715, "slack_id": "U08QCU75KEZ", "display_name": "Frinshy", "bio": null, "projects_count": 10, "devlogs_count": 27, "votes_count": 11, "ships_count": 2, "projects": [{"id": 91, "title": "LogicTags", "devlogs_count": 2, "created_at": "2025-06-16T12:44:42.811-04:00"}, {"id": 335, "title": "sumsnap", "devlogs_count": 2, "created_at": "2025-06-16T18:20:30.768-04:00"}, {"id": 869, "title": "StreamlineAI", "devlogs_count": 4, "created_at": "2025-06-17T10:09:37.150-04:00"}, {"id": 2086, "title": "AnturniaQuests", "devlogs_count": 3, "created_at": "2025-06-20T05:09:04.073-04:00"}, {"id": 3172, "title": "Orgraph", "devlogs_count": 1, "created_at": "2025-06-23T10:20:02.031-04:00"}, {"id": 5914, "title": "Nextrivia", "devlogs_count": 2, "created_at": "2025-07-09T04:42:28.589-04:00"}, {"id": 10819, "title": "jmpz", "devlogs_count": 1, "created_at": "2025-08-11T05:37:46.311-04:00"}, {"id": 11349, "title": "NoteWhisperApi", "devlogs_count": 0, "created_at": "2025-08-15T04:45:59.782-04:00"}, {"id": 5467, "title": "PluginShowcase", "devlogs_count": 6, "created_at": "2025-07-05T13:24:47.298-04:00"}, {"id": 6043, "title": "Taskyra", "devlogs_count": 6, "created_at": "2025-07-10T07:15:24.361-04:00"}], "coding_time_seconds": 259285, "coding_time_seconds_today": 0, "balance": "You need to have a pocket watcher badge to view this.", "badges": [{"name": "Maiden Voyage", "text": "you shipped your first project! the journey begins...", "icon": "\ud83d\udea2"}], "created_at": "2025-06-16T12:11:17.737-04:00", "updated_at": "2025-09-10T22:51:29.739-04:00", "avatar": "https://avatars.slack-edge.com/2025-05-02/8864336422928_18c71af9acd6e1d92f6b_original.png", "custom_css": null}, {"id": 716, "slack_id": "U07QBRYGVHC", "display_name": "orga", "bio": null, "projects_count": 1, "devlogs_count": 1, "votes_count": 0, "ships_count": 0, "projects": [{"id": 4081, "title": "esp-remote-board", "devlogs_count": 1, "created_at": "2025-06-27T10:56:02.674-04:00"}], "coding_time_seconds": 71385, "coding_time_seconds_today": 0, "balance": "You need to have a pocket watcher badge to view this.", "badges": [], "created_at": "2025-06-16T12:11:21.468-04:00", "updated_at": "2025-07-03T19:14:15.923-04:00", "avatar": "https://avatars.slack-edge.com/2024-10-05/7834443479587_3ea5e1e6de439a33da18_original.png", "custom_css": null}, {"id": 717, "slack_id": "U091PJXQ18U", "display_name": "Varga-Bajzek Csenger", "bio": null, "projects_count": 0, "devlogs_count": 0, "votes_count": 0, "ships_count": 0, "projects": [], "coding_time_seconds": 0, "coding_time_seconds_today": 0, "balance": "You need to have a pocket watcher badge to view this.", "badges": [], "created_at": "2025-06-16T12:11:21.471-04:00", "updated_at": "2025-07-03T19:14:16.188-04:00", "avatar": "https://secure.gravatar.com/avatar/6d307ea1491d6ee30eb73c6c91a3897c.jpg?s=512&d=https%3A%2F%2Fa.slack-edge.com%2Fdf10d%2Fimg%2Favatars%2Fava_0010-512.png", "custom_css": null}, {"id": 718, "slack_id": "U079Z2BTR6H", "display_name": "Allen", "bio": null, "projects_count": 0, "devlogs_count": 0, "votes_count": 0, "ships_count": 0, "projects": [], "coding_time_seconds": 0, "coding_time_seconds_today": 0, "balance": "You need to have a pocket watcher badge to view this.", "badges": [], "created_at": "2025-06-16T12:11:23.730-04:00", "updated_at": "2025-07-03T19:14:16.462-04:00", "avatar": "https://avatars.slack-edge.com/2025-04-06/8734520583520_b558b9bb5bb29aadd1ff_original.png", "custom_css": null}, {"id": 719, "slack_id": "U092BFT2RFS", "display_name": "mathias", "bio": null, "projects_count": 0, "devlogs_count": 0, "votes_count": 0, "ships_count": 0, "projects": [], "coding_time_seconds": 0, "coding_time_seconds_today": 0, "balance": "You need to have a pocket watcher badge to view this.", "badges": [], "created_at": "2025-06-16T12:11:28.011-04:00", "updated_at": "2025-07-03T19:14:16.737-04:00", "avatar": "https://secure.gravatar.com/avatar/1ff3cb5d3b19b0b7abb500a9e645dc22.jpg?s=512&d=https%3A%2F%2Fa.slack-edge.com%2Fdf10d%2Fimg%2Favatars%2Fava_0008-512.png", "custom_css": null}, {"id": 720, "slack_id": "U07FU6ST2RE", "display_name": "Andrew Richardson", "bio": null, "projects_count": 0, "devlogs_count": 0, "votes_count": 0, "ships_count": 0, "projects": [], "coding_time_seconds": 0, "coding_time_seconds_today": 0, "balance": "You need to have a pocket watcher badge to view this.", "badges": [], "created_at": "2025-06-16T12:11:29.435-04:00", "updated_at": "2025-07-03T19:14:17.066-04:00", "avatar": "https://avatars.slack-edge.com/2024-08-09/7556497100227_2bf2faa3ea48668703ce_original.jpg", "custom_css": null}], "pagination": {"page": 36, "pages": 1192, "count": 23827, "items": 20}}