{"users": [{"id": 7181, "slack_id": "U091URE77B7", "display_name": "Gabriel Azevedo", "bio": null, "projects_count": 1, "devlogs_count": 0, "votes_count": 0, "ships_count": 0, "projects": [{"id": 1069, "title": "Puzzle Educational Games - With Accessibility", "devlogs_count": 0, "created_at": "2025-06-17T15:15:13.749-04:00"}], "coding_time_seconds": 558441, "coding_time_seconds_today": 0, "balance": "You need to have a pocket watcher badge to view this.", "badges": [], "created_at": "2025-06-17T14:52:22.101-04:00", "updated_at": "2025-07-03T19:43:09.221-04:00", "avatar": "https://secure.gravatar.com/avatar/7d3127963f97ea3721538b04747bd5b5.jpg?s=512&d=https%3A%2F%2Fa.slack-edge.com%2Fdf10d%2Fimg%2Favatars%2Fava_0005-512.png", "custom_css": null}, {"id": 7182, "slack_id": "U091WSPHT7W", "display_name": "Germing", "bio": null, "projects_count": 0, "devlogs_count": 0, "votes_count": 0, "ships_count": 0, "projects": [], "coding_time_seconds": 0, "coding_time_seconds_today": 0, "balance": "You need to have a pocket watcher badge to view this.", "badges": [], "created_at": "2025-06-17T14:52:25.394-04:00", "updated_at": "2025-07-03T19:43:09.485-04:00", "avatar": "https://secure.gravatar.com/avatar/36021e35420b47c4896198e161a84215.jpg?s=512&d=https%3A%2F%2Fa.slack-edge.com%2Fdf10d%2Fimg%2Favatars%2Fava_0009-512.png", "custom_css": null}, {"id": 7183, "slack_id": "U092JS3SL3A", "display_name": "Fawaz", "bio": null, "projects_count": 0, "devlogs_count": 0, "votes_count": 0, "ships_count": 0, "projects": [], "coding_time_seconds": 0, "coding_time_seconds_today": 0, "balance": "You need to have a pocket watcher badge to view this.", "badges": [], "created_at": "2025-06-17T14:52:31.701-04:00", "updated_at": "2025-07-03T19:43:09.753-04:00", "avatar": "https://secure.gravatar.com/avatar/9822a45574808a1846a088d9385d5b67.jpg?s=512&d=https%3A%2F%2Fa.slack-edge.com%2Fdf10d%2Fimg%2Favatars%2Fava_0017-512.png", "custom_css": null}, {"id": 7184, "slack_id": "U08T09PDB0F", "display_name": "Skydude", "bio": null, "projects_count": 2, "devlogs_count": 10, "votes_count": 0, "ships_count": 0, "projects": [{"id": 3798, "title": "DaC x Iron's Spellbooks Mod", "devlogs_count": 7, "created_at": "2025-06-25T19:52:11.288-04:00"}, {"id": 7715, "title": "Dac Extras", "devlogs_count": 3, "created_at": "2025-07-22T17:07:37.072-04:00"}], "coding_time_seconds": 387992, "coding_time_seconds_today": 0, "balance": "You need to have a pocket watcher badge to view this.", "badges": [], "created_at": "2025-06-17T14:53:52.795-04:00", "updated_at": "2025-08-07T23:29:27.435-04:00", "avatar": "https://secure.gravatar.com/avatar/106e1064a217783342e64deaad3a0648.jpg?s=512&d=https%3A%2F%2Fa.slack-edge.com%2Fdf10d%2Fimg%2Favatars%2Fava_0009-512.png", "custom_css": null}, {"id": 7185, "slack_id": "U091F4V5YRM", "display_name": "Afzal Hossan", "bio": null, "projects_count": 0, "devlogs_count": 0, "votes_count": 0, "ships_count": 0, "projects": [], "coding_time_seconds": 0, "coding_time_seconds_today": 0, "balance": "You need to have a pocket watcher badge to view this.", "badges": [], "created_at": "2025-06-17T14:54:25.846-04:00", "updated_at": "2025-07-03T19:43:10.152-04:00", "avatar": "https://secure.gravatar.com/avatar/461a4f2c7e05ab397ef964d38e9f48a3.jpg?s=512&d=https%3A%2F%2Fa.slack-edge.com%2Fdf10d%2Fimg%2Favatars%2Fava_0020-512.png", "custom_css": null}, {"id": 7186, "slack_id": "U092938RB17", "display_name": "swiss", "bio": null, "projects_count": 4, "devlogs_count": 7, "votes_count": 32, "ships_count": 1, "projects": [{"id": 4802, "title": "portfolio2.0 - personal projects thing", "devlogs_count": 4, "created_at": "2025-07-01T15:52:18.645-04:00"}, {"id": 10775, "title": "temporary portfolio", "devlogs_count": 1, "created_at": "2025-08-10T16:25:21.218-04:00"}, {"id": 6650, "title": "audio visualizer", "devlogs_count": 0, "created_at": "2025-07-14T20:12:05.997-04:00"}, {"id": 9932, "title": "static site - mimic", "devlogs_count": 2, "created_at": "2025-08-03T01:46:42.714-04:00"}], "coding_time_seconds": 540719, "coding_time_seconds_today": 0, "balance": "You need to have a pocket watcher badge to view this.", "badges": [{"name": "Maiden Voyage", "text": "you shipped your first project! the journey begins...", "icon": "\ud83d\udea2"}], "created_at": "2025-06-17T14:54:42.672-04:00", "updated_at": "2025-09-10T22:54:44.240-04:00", "avatar": "https://secure.gravatar.com/avatar/afee3604c35e13f558acfa32bab2d1fd.jpg?s=512&d=https%3A%2F%2Fa.slack-edge.com%2Fdf10d%2Fimg%2Favatars%2Fava_0011-512.png", "custom_css": null}, {"id": 7187, "slack_id": "U08Q18UDEG0", "display_name": "Wendy", "bio": null, "projects_count": 0, "devlogs_count": 0, "votes_count": 0, "ships_count": 0, "projects": [], "coding_time_seconds": 34066, "coding_time_seconds_today": 0, "balance": "You need to have a pocket watcher badge to view this.", "badges": [], "created_at": "2025-06-17T14:54:53.070-04:00", "updated_at": "2025-07-03T19:43:10.674-04:00", "avatar": "https://avatars.slack-edge.com/2025-04-23/8781998886519_aae1ffe71387de5422ac_original.png", "custom_css": null}, {"id": 7188, "slack_id": "U091K3B85NJ", "display_name": "takudzwaa", "bio": null, "projects_count": 0, "devlogs_count": 0, "votes_count": 0, "ships_count": 0, "projects": [], "coding_time_seconds": 0, "coding_time_seconds_today": 0, "balance": "You need to have a pocket watcher badge to view this.", "badges": [], "created_at": "2025-06-17T14:55:03.231-04:00", "updated_at": "2025-07-03T19:43:10.949-04:00", "avatar": "https://secure.gravatar.com/avatar/a5288558ae9652021d047eda466a0fc2.jpg?s=512&d=https%3A%2F%2Fa.slack-edge.com%2Fdf10d%2Fimg%2Favatars%2Fava_0017-512.png", "custom_css": null}, {"id": 7189, "slack_id": "U091WDQK4TC", "display_name": "Chris v", "bio": null, "projects_count": 0, "devlogs_count": 0, "votes_count": 0, "ships_count": 0, "projects": [], "coding_time_seconds": 0, "coding_time_seconds_today": 0, "balance": "You need to have a pocket watcher badge to view this.", "badges": [], "created_at": "2025-06-17T14:55:16.058-04:00", "updated_at": "2025-07-03T21:45:05.652-04:00", "avatar": "https://secure.gravatar.com/avatar/c2fdedf9fe89aa88500ef7087b9de035.jpg?s=512&d=https%3A%2F%2Fa.slack-edge.com%2Fdf10d%2Fimg%2Favatars%2Fava_0014-512.png", "custom_css": null}, {"id": 7190, "slack_id": "U09275XKARX", "display_name": "Aditya Tegwal", "bio": null, "projects_count": 0, "devlogs_count": 0, "votes_count": 0, "ships_count": 0, "projects": [], "coding_time_seconds": 0, "coding_time_seconds_today": 0, "balance": "You need to have a pocket watcher badge to view this.", "badges": [], "created_at": "2025-06-17T14:55:45.130-04:00", "updated_at": "2025-07-03T19:43:11.382-04:00", "avatar": "https://secure.gravatar.com/avatar/5cf89845ab2987dbd4fe45d3c4f2a206.jpg?s=512&d=https%3A%2F%2Fa.slack-edge.com%2Fdf10d%2Fimg%2Favatars%2Fava_0025-512.png", "custom_css": null}, {"id": 7191, "slack_id": "U091PQDUC67", "display_name": "Dennys Matthew", "bio": null, "projects_count": 0, "devlogs_count": 0, "votes_count": 0, "ships_count": 0, "projects": [], "coding_time_seconds": 75697, "coding_time_seconds_today": 0, "balance": "You need to have a pocket watcher badge to view this.", "badges": [], "created_at": "2025-06-17T14:56:33.090-04:00", "updated_at": "2025-07-03T21:56:57.993-04:00", "avatar": "https://secure.gravatar.com/avatar/a7ae1ad53e1794b3316aecd39ca0c44f.jpg?s=512&d=https%3A%2F%2Fa.slack-edge.com%2Fdf10d%2Fimg%2Favatars%2Fava_0014-512.png", "custom_css": null}, {"id": 7192, "slack_id": "U0875DM9SQ0", "display_name": "Futsko", "bio": null, "projects_count": 1, "devlogs_count": 1, "votes_count": 0, "ships_count": 0, "projects": [{"id": 4058, "title": "Tic Tac Toe", "devlogs_count": 1, "created_at": "2025-06-27T06:24:34.416-04:00"}], "coding_time_seconds": 3016, "coding_time_seconds_today": 0, "balance": "You need to have a pocket watcher badge to view this.", "badges": [], "created_at": "2025-06-17T14:57:25.829-04:00", "updated_at": "2025-07-03T19:43:11.821-04:00", "avatar": "https://secure.gravatar.com/avatar/4753c911fd652ebb15385289ccb12317.jpg?s=512&d=https%3A%2F%2Fa.slack-edge.com%2Fdf10d%2Fimg%2Favatars%2Fava_0014-512.png", "custom_css": null}, {"id": 7193, "slack_id": "U091WTW024U", "display_name": "logonoff", "bio": null, "projects_count": 0, "devlogs_count": 0, "votes_count": 0, "ships_count": 0, "projects": [], "coding_time_seconds": 0, "coding_time_seconds_today": 0, "balance": "You need to have a pocket watcher badge to view this.", "badges": [], "created_at": "2025-06-17T14:58:23.424-04:00", "updated_at": "2025-07-03T21:56:58.236-04:00", "avatar": "https://secure.gravatar.com/avatar/28267c444666b26610cf3e8ea55f8d9c.jpg?s=512&d=https%3A%2F%2Fa.slack-edge.com%2Fdf10d%2Fimg%2Favatars%2Fava_0004-512.png", "custom_css": null}, {"id": 7194, "slack_id": "U091WTA21L4", "display_name": "abdul wajeed", "bio": null, "projects_count": 0, "devlogs_count": 0, "votes_count": 0, "ships_count": 0, "projects": [], "coding_time_seconds": 0, "coding_time_seconds_today": 0, "balance": "You need to have a pocket watcher badge to view this.", "badges": [], "created_at": "2025-06-17T14:58:35.201-04:00", "updated_at": "2025-07-03T19:43:12.230-04:00", "avatar": "https://secure.gravatar.com/avatar/05b8693fb5ef47bac37195cb52f32949.jpg?s=512&d=https%3A%2F%2Fa.slack-edge.com%2Fdf10d%2Fimg%2Favatars%2Fava_0024-512.png", "custom_css": null}, {"id": 7195, "slack_id": "U091WFF6NV8", "display_name": "Leon", "bio": null, "projects_count": 0, "devlogs_count": 4, "votes_count": 27, "ships_count": 0, "projects": [], "coding_time_seconds": 113122, "coding_time_seconds_today": 0, "balance": "You need to have a pocket watcher badge to view this.", "badges": [{"name": "Maiden Voyage", "text": "you shipped your first project! the journey begins...", "icon": "\ud83d\udea2"}], "created_at": "2025-06-17T14:59:32.915-04:00", "updated_at": "2025-09-10T22:54:44.471-04:00", "avatar": "https://secure.gravatar.com/avatar/1d1de02da98e31c6bd5c19763b10dc9a.jpg?s=512&d=https%3A%2F%2Fa.slack-edge.com%2Fdf10d%2Fimg%2Favatars%2Fava_0005-512.png", "custom_css": null}, {"id": 7196, "slack_id": "U091WU0M020", "display_name": "Darien W", "bio": null, "projects_count": 0, "devlogs_count": 0, "votes_count": 0, "ships_count": 0, "projects": [], "coding_time_seconds": 1076, "coding_time_seconds_today": 0, "balance": "You need to have a pocket watcher badge to view this.", "badges": [], "created_at": "2025-06-17T15:00:04.229-04:00", "updated_at": "2025-07-03T19:43:12.771-04:00", "avatar": "https://secure.gravatar.com/avatar/860563eb6db50656faae809f632f45cf.jpg?s=512&d=https%3A%2F%2Fa.slack-edge.com%2Fdf10d%2Fimg%2Favatars%2Fava_0026-512.png", "custom_css": null}, {"id": 7197, "slack_id": "U091F4V4JG7", "display_name": "Blockyheadman", "bio": null, "projects_count": 0, "devlogs_count": 0, "votes_count": 0, "ships_count": 0, "projects": [], "coding_time_seconds": 0, "coding_time_seconds_today": 0, "balance": "You need to have a pocket watcher badge to view this.", "badges": [], "created_at": "2025-06-17T15:00:22.716-04:00", "updated_at": "2025-07-04T08:22:42.845-04:00", "avatar": "https://secure.gravatar.com/avatar/a70e9d517e65e411b26730f6bc667774.jpg?s=512&d=https%3A%2F%2Fa.slack-edge.com%2Fdf10d%2Fimg%2Favatars%2Fava_0003-512.png", "custom_css": null}, {"id": 7198, "slack_id": "U092JTNEM96", "display_name": "now.sh", "bio": null, "projects_count": 0, "devlogs_count": 0, "votes_count": 0, "ships_count": 0, "projects": [], "coding_time_seconds": 17930, "coding_time_seconds_today": 0, "balance": "You need to have a pocket watcher badge to view this.", "badges": [], "created_at": "2025-06-17T15:00:55.812-04:00", "updated_at": "2025-07-03T19:43:13.171-04:00", "avatar": "https://secure.gravatar.com/avatar/f31277ea813296f7fd67bbf263875bb4.jpg?s=512&d=https%3A%2F%2Fa.slack-edge.com%2Fdf10d%2Fimg%2Favatars%2Fava_0026-512.png", "custom_css": null}, {"id": 7199, "slack_id": "U092940CFUH", "display_name": "Shashwat", "bio": null, "projects_count": 0, "devlogs_count": 0, "votes_count": 0, "ships_count": 0, "projects": [], "coding_time_seconds": 0, "coding_time_seconds_today": 0, "balance": "You need to have a pocket watcher badge to view this.", "badges": [], "created_at": "2025-06-17T15:00:59.468-04:00", "updated_at": "2025-07-03T19:43:13.441-04:00", "avatar": "https://secure.gravatar.com/avatar/2adfafcd259e42ae5fc45c1b578b0f94.jpg?s=512&d=https%3A%2F%2Fa.slack-edge.com%2Fdf10d%2Fimg%2Favatars%2Fava_0015-512.png", "custom_css": null}, {"id": 7200, "slack_id": "U0929422TGR", "display_name": "Alberto", "bio": null, "projects_count": 0, "devlogs_count": 0, "votes_count": 0, "ships_count": 0, "projects": [], "coding_time_seconds": 0, "coding_time_seconds_today": 0, "balance": "You need to have a pocket watcher badge to view this.", "badges": [], "created_at": "2025-06-17T15:02:08.671-04:00", "updated_at": "2025-07-03T19:43:13.700-04:00", "avatar": "https://secure.gravatar.com/avatar/975bd77afa94e6fee6ec2403e0c866af.jpg?s=512&d=https%3A%2F%2Fa.slack-edge.com%2Fdf10d%2Fimg%2Favatars%2Fava_0016-512.png", "custom_css": null}], "pagination": {"page": 360, "pages": 1192, "count": 23828, "items": 20}}