{"users": [{"id": 7201, "slack_id": "U091Q5SJAD8", "display_name": "Ket", "bio": null, "projects_count": 0, "devlogs_count": 0, "votes_count": 0, "ships_count": 0, "projects": [], "coding_time_seconds": 7213, "coding_time_seconds_today": 0, "balance": "You need to have a pocket watcher badge to view this.", "badges": [], "created_at": "2025-06-17T15:02:18.967-04:00", "updated_at": "2025-07-03T21:45:06.418-04:00", "avatar": "https://secure.gravatar.com/avatar/b5f44d80828461e232b5ca0b805625b7.jpg?s=512&d=https%3A%2F%2Fa.slack-edge.com%2Fdf10d%2Fimg%2Favatars%2Fava_0019-512.png", "custom_css": null}, {"id": 7202, "slack_id": "U091QPAQK98", "display_name": "Dheeraj", "bio": null, "projects_count": 0, "devlogs_count": 0, "votes_count": 0, "ships_count": 0, "projects": [], "coding_time_seconds": 0, "coding_time_seconds_today": 0, "balance": "You need to have a pocket watcher badge to view this.", "badges": [], "created_at": "2025-06-17T15:02:51.999-04:00", "updated_at": "2025-07-03T19:43:14.107-04:00", "avatar": "https://secure.gravatar.com/avatar/4a49ef9fb0a7e96ed8968776261fe5c3.jpg?s=512&d=https%3A%2F%2Fa.slack-edge.com%2Fdf10d%2Fimg%2Favatars%2Fava_0015-512.png", "custom_css": null}, {"id": 7203, "slack_id": "U091HNUNLJF", "display_name": "Omer Can", "bio": null, "projects_count": 0, "devlogs_count": 0, "votes_count": 0, "ships_count": 0, "projects": [], "coding_time_seconds": 0, "coding_time_seconds_today": 0, "balance": "You need to have a pocket watcher badge to view this.", "badges": [], "created_at": "2025-06-17T15:02:52.051-04:00", "updated_at": "2025-07-03T19:43:14.436-04:00", "avatar": "https://secure.gravatar.com/avatar/3b57763938097b41db6626cbb17bb3c9.jpg?s=512&d=https%3A%2F%2Fa.slack-edge.com%2Fdf10d%2Fimg%2Favatars%2Fava_0018-512.png", "custom_css": null}, {"id": 7204, "slack_id": "U091USTH413", "display_name": "Daniel Nicholas", "bio": null, "projects_count": 0, "devlogs_count": 0, "votes_count": 0, "ships_count": 0, "projects": [], "coding_time_seconds": 0, "coding_time_seconds_today": 0, "balance": "You need to have a pocket watcher badge to view this.", "badges": [], "created_at": "2025-06-17T15:03:30.063-04:00", "updated_at": "2025-07-03T19:43:14.714-04:00", "avatar": "https://secure.gravatar.com/avatar/17d05cd4ce0de21592ef06531557f966.jpg?s=512&d=https%3A%2F%2Fa.slack-edge.com%2Fdf10d%2Fimg%2Favatars%2Fava_0025-512.png", "custom_css": null}, {"id": 7205, "slack_id": "U092JUDUY5N", "display_name": "Shapat", "bio": null, "projects_count": 0, "devlogs_count": 0, "votes_count": 0, "ships_count": 0, "projects": [], "coding_time_seconds": 0, "coding_time_seconds_today": 0, "balance": "You need to have a pocket watcher badge to view this.", "badges": [], "created_at": "2025-06-17T15:03:43.261-04:00", "updated_at": "2025-07-03T19:43:14.974-04:00", "avatar": "https://secure.gravatar.com/avatar/d08874b1dfde69d89fade8bca2997fc9.jpg?s=512&d=https%3A%2F%2Fa.slack-edge.com%2Fdf10d%2Fimg%2Favatars%2Fava_0015-512.png", "custom_css": null}, {"id": 7206, "slack_id": "U091UT17U21", "display_name": "SkollRyu", "bio": null, "projects_count": 0, "devlogs_count": 0, "votes_count": 0, "ships_count": 0, "projects": [], "coding_time_seconds": 0, "coding_time_seconds_today": 0, "balance": "You need to have a pocket watcher badge to view this.", "badges": [], "created_at": "2025-06-17T15:03:56.874-04:00", "updated_at": "2025-07-03T19:43:15.236-04:00", "avatar": "https://secure.gravatar.com/avatar/a66d0c96d4184c7ab1a639e6ab81f6bf.jpg?s=512&d=https%3A%2F%2Fa.slack-edge.com%2Fdf10d%2Fimg%2Favatars%2Fava_0011-512.png", "custom_css": null}, {"id": 7207, "slack_id": "U091R8W99KL", "display_name": "Adam I.", "bio": null, "projects_count": 0, "devlogs_count": 0, "votes_count": 0, "ships_count": 0, "projects": [], "coding_time_seconds": 7895, "coding_time_seconds_today": 0, "balance": "You need to have a pocket watcher badge to view this.", "badges": [], "created_at": "2025-06-17T15:04:13.402-04:00", "updated_at": "2025-07-03T19:43:15.499-04:00", "avatar": "https://secure.gravatar.com/avatar/2a813fd71c50c0b490ec503d49abef98.jpg?s=512&d=https%3A%2F%2Fa.slack-edge.com%2Fdf10d%2Fimg%2Favatars%2Fava_0009-512.png", "custom_css": null}, {"id": 7208, "slack_id": "U091WGEE6KU", "display_name": "Jonah", "bio": null, "projects_count": 0, "devlogs_count": 0, "votes_count": 0, "ships_count": 0, "projects": [], "coding_time_seconds": 10317, "coding_time_seconds_today": 0, "balance": "You need to have a pocket watcher badge to view this.", "badges": [], "created_at": "2025-06-17T15:04:28.045-04:00", "updated_at": "2025-07-03T21:56:59.407-04:00", "avatar": "https://secure.gravatar.com/avatar/39f686a7cf16cb4c98db2946c17a62ad.jpg?s=512&d=https%3A%2F%2Fa.slack-edge.com%2Fdf10d%2Fimg%2Favatars%2Fava_0022-512.png", "custom_css": null}, {"id": 7209, "slack_id": "U07BD0FBFRA", "display_name": "Production 101", "bio": null, "projects_count": 0, "devlogs_count": 0, "votes_count": 0, "ships_count": 0, "projects": [], "coding_time_seconds": 0, "coding_time_seconds_today": 0, "balance": "You need to have a pocket watcher badge to view this.", "badges": [], "created_at": "2025-06-17T15:04:58.738-04:00", "updated_at": "2025-07-03T19:43:15.897-04:00", "avatar": "https://avatars.slack-edge.com/2024-07-06/7387083885508_3594b3b91394f67351f7_original.png", "custom_css": null}, {"id": 7210, "slack_id": "U091F6RU02K", "display_name": "Marcos Corino", "bio": null, "projects_count": 0, "devlogs_count": 0, "votes_count": 0, "ships_count": 0, "projects": [], "coding_time_seconds": 0, "coding_time_seconds_today": 0, "balance": "You need to have a pocket watcher badge to view this.", "badges": [], "created_at": "2025-06-17T15:05:17.023-04:00", "updated_at": "2025-07-07T02:09:17.117-04:00", "avatar": "https://secure.gravatar.com/avatar/183848194645d9205d752691e73b80c7.jpg?s=512&d=https%3A%2F%2Fa.slack-edge.com%2Fdf10d%2Fimg%2Favatars%2Fava_0013-512.png", "custom_css": null}, {"id": 7211, "slack_id": "U07AFUXF8FR", "display_name": "liujip0", "bio": null, "projects_count": 8, "devlogs_count": 19, "votes_count": 59, "ships_count": 4, "projects": [{"id": 4174, "title": "Sumsgiwa", "devlogs_count": 6, "created_at": "2025-06-28T02:44:42.941-04:00"}, {"id": 4186, "title": "Robotics Code", "devlogs_count": 1, "created_at": "2025-06-28T04:31:21.306-04:00"}, {"id": 6627, "title": "Scouting", "devlogs_count": 1, "created_at": "2025-07-14T16:00:21.706-04:00"}, {"id": 7947, "title": "2026 Scouting App", "devlogs_count": 6, "created_at": "2025-07-23T18:55:04.283-04:00"}, {"id": 8273, "title": "HS Internship Finder", "devlogs_count": 1, "created_at": "2025-07-25T23:04:30.779-04:00"}, {"id": 9671, "title": "WebDev Templates", "devlogs_count": 2, "created_at": "2025-08-02T01:45:19.872-04:00"}, {"id": 9947, "title": "Phonetic Alphabet Learner", "devlogs_count": 1, "created_at": "2025-08-03T04:50:22.622-04:00"}, {"id": 9694, "title": "Component Library", "devlogs_count": 1, "created_at": "2025-08-02T03:40:00.772-04:00"}], "coding_time_seconds": 614713, "coding_time_seconds_today": 0, "balance": "You need to have a pocket watcher badge to view this.", "badges": [{"name": "Maiden Voyage", "text": "you shipped your first project! the journey begins...", "icon": "\ud83d\udea2"}], "created_at": "2025-06-17T15:05:19.977-04:00", "updated_at": "2025-09-10T22:54:44.841-04:00", "avatar": "https://secure.gravatar.com/avatar/b8e3a91fabe9c21640ab6d4efb5871f9.jpg?s=512&d=https%3A%2F%2Fa.slack-edge.com%2Fdf10d%2Fimg%2Favatars%2Fava_0000-512.png", "custom_css": null}, {"id": 7212, "slack_id": "U063LBPNXDF", "display_name": "Cael", "bio": null, "projects_count": 1, "devlogs_count": 1, "votes_count": 0, "ships_count": 0, "projects": [{"id": 1068, "title": "cosmatic.dev", "devlogs_count": 1, "created_at": "2025-06-17T15:14:34.873-04:00"}], "coding_time_seconds": 68663, "coding_time_seconds_today": 0, "balance": "You need to have a pocket watcher badge to view this.", "badges": [], "created_at": "2025-06-17T15:05:41.020-04:00", "updated_at": "2025-08-25T22:25:50.125-04:00", "avatar": "https://secure.gravatar.com/avatar/4f7c56b35d82f9d062a4ca99550ae5e3.jpg?s=512&d=https%3A%2F%2Fa.slack-edge.com%2Fdf10d%2Fimg%2Favatars%2Fava_0021-512.png", "custom_css": null}, {"id": 7213, "slack_id": "U091Q1VGF0W", "display_name": "Ava Hartnup", "bio": null, "projects_count": 0, "devlogs_count": 0, "votes_count": 0, "ships_count": 0, "projects": [], "coding_time_seconds": 0, "coding_time_seconds_today": 0, "balance": "You need to have a pocket watcher badge to view this.", "badges": [], "created_at": "2025-06-17T15:05:55.609-04:00", "updated_at": "2025-07-03T19:43:16.704-04:00", "avatar": "https://secure.gravatar.com/avatar/43915e1835b660042038981af04afadf.jpg?s=512&d=https%3A%2F%2Fa.slack-edge.com%2Fdf10d%2Fimg%2Favatars%2Fava_0022-512.png", "custom_css": null}, {"id": 7214, "slack_id": "U091MCP1XAA", "display_name": "Yasmeen Ghandour", "bio": null, "projects_count": 0, "devlogs_count": 0, "votes_count": 0, "ships_count": 0, "projects": [], "coding_time_seconds": 0, "coding_time_seconds_today": 0, "balance": "You need to have a pocket watcher badge to view this.", "badges": [], "created_at": "2025-06-17T15:06:04.711-04:00", "updated_at": "2025-07-03T19:43:16.968-04:00", "avatar": "https://avatars.slack-edge.com/2025-06-17/9064587883122_d933dddf176b8d98c8c3_original.jpg", "custom_css": null}, {"id": 7215, "slack_id": "U09235G7YQZ", "display_name": "Adde", "bio": null, "projects_count": 0, "devlogs_count": 0, "votes_count": 0, "ships_count": 0, "projects": [], "coding_time_seconds": 0, "coding_time_seconds_today": 0, "balance": "You need to have a pocket watcher badge to view this.", "badges": [], "created_at": "2025-06-17T15:06:58.142-04:00", "updated_at": "2025-07-03T21:45:07.439-04:00", "avatar": "https://secure.gravatar.com/avatar/52070383c88df2e5000c007bc7c571e1.jpg?s=512&d=https%3A%2F%2Fa.slack-edge.com%2Fdf10d%2Fimg%2Favatars%2Fava_0012-512.png", "custom_css": null}, {"id": 7216, "slack_id": "U091AAT9415", "display_name": "Andre Violin", "bio": null, "projects_count": 0, "devlogs_count": 0, "votes_count": 0, "ships_count": 0, "projects": [], "coding_time_seconds": 0, "coding_time_seconds_today": 0, "balance": "You need to have a pocket watcher badge to view this.", "badges": [], "created_at": "2025-06-17T15:06:58.679-04:00", "updated_at": "2025-07-03T19:43:17.363-04:00", "avatar": "https://avatars.slack-edge.com/2025-06-17/9064592132514_8509ef775827846db52b_original.jpg", "custom_css": null}, {"id": 7217, "slack_id": "U091X0651K6", "display_name": "Enes Furkan Babur", "bio": null, "projects_count": 0, "devlogs_count": 0, "votes_count": 0, "ships_count": 0, "projects": [], "coding_time_seconds": 0, "coding_time_seconds_today": 0, "balance": "You need to have a pocket watcher badge to view this.", "badges": [], "created_at": "2025-06-17T15:07:48.134-04:00", "updated_at": "2025-07-03T19:43:17.642-04:00", "avatar": "https://avatars.slack-edge.com/2025-06-17/9062967507237_1ab99696324c75e36bac_original.jpg", "custom_css": null}, {"id": 7218, "slack_id": "U09293MT8GZ", "display_name": "Rohit Roy Chowdhury", "bio": null, "projects_count": 0, "devlogs_count": 0, "votes_count": 0, "ships_count": 0, "projects": [], "coding_time_seconds": 0, "coding_time_seconds_today": 0, "balance": "You need to have a pocket watcher badge to view this.", "badges": [], "created_at": "2025-06-17T15:08:20.775-04:00", "updated_at": "2025-07-04T08:22:44.207-04:00", "avatar": "https://avatars.slack-edge.com/2025-06-17/9049268292439_4711984b208040b1bffd_original.jpg", "custom_css": null}, {"id": 7219, "slack_id": "U091WH93SMQ", "display_name": "Saurav Saha", "bio": null, "projects_count": 0, "devlogs_count": 0, "votes_count": 0, "ships_count": 0, "projects": [], "coding_time_seconds": 157342, "coding_time_seconds_today": 0, "balance": "You need to have a pocket watcher badge to view this.", "badges": [], "created_at": "2025-06-17T15:09:09.193-04:00", "updated_at": "2025-07-03T19:43:18.050-04:00", "avatar": "https://secure.gravatar.com/avatar/98f1b3047addb256f0e8b01a4c6701f7.jpg?s=512&d=https%3A%2F%2Fa.slack-edge.com%2Fdf10d%2Fimg%2Favatars%2Fava_0002-512.png", "custom_css": null}, {"id": 7220, "slack_id": "U091UTXT97X", "display_name": "Brian", "bio": null, "projects_count": 1, "devlogs_count": 0, "votes_count": 0, "ships_count": 0, "projects": [{"id": 1217, "title": "Brainrot plinko", "devlogs_count": 0, "created_at": "2025-06-17T23:31:24.605-04:00"}], "coding_time_seconds": 7610, "coding_time_seconds_today": 0, "balance": "You need to have a pocket watcher badge to view this.", "badges": [], "created_at": "2025-06-17T15:09:52.161-04:00", "updated_at": "2025-07-03T19:43:18.306-04:00", "avatar": "https://secure.gravatar.com/avatar/bc03a539ddd71f8e6dbfe9d55d75505f.jpg?s=512&d=https%3A%2F%2Fa.slack-edge.com%2Fdf10d%2Fimg%2Favatars%2Fava_0008-512.png", "custom_css": null}], "pagination": {"page": 361, "pages": 1192, "count": 23828, "items": 20}}