{"users": [{"id": 7221, "slack_id": "U092267R92M", "display_name": "PMLyf", "bio": null, "projects_count": 0, "devlogs_count": 0, "votes_count": 0, "ships_count": 0, "projects": [], "coding_time_seconds": 0, "coding_time_seconds_today": 0, "balance": "You need to have a pocket watcher badge to view this.", "badges": [], "created_at": "2025-06-17T15:10:19.749-04:00", "updated_at": "2025-07-03T19:43:18.585-04:00", "avatar": "https://secure.gravatar.com/avatar/e720ecb1628d6bc58161c6639482662a.jpg?s=512&d=https%3A%2F%2Fa.slack-edge.com%2Fdf10d%2Fimg%2Favatars%2Fava_0003-512.png", "custom_css": null}, {"id": 7222, "slack_id": "U092K025HEC", "display_name": "Aldo Calder\u00f3n", "bio": null, "projects_count": 0, "devlogs_count": 0, "votes_count": 0, "ships_count": 0, "projects": [], "coding_time_seconds": 0, "coding_time_seconds_today": 0, "balance": "You need to have a pocket watcher badge to view this.", "badges": [], "created_at": "2025-06-17T15:10:36.803-04:00", "updated_at": "2025-07-03T19:43:18.886-04:00", "avatar": "https://secure.gravatar.com/avatar/20122abc3c6e4ce5dc7340674c18875a.jpg?s=512&d=https%3A%2F%2Fa.slack-edge.com%2Fdf10d%2Fimg%2Favatars%2Fava_0000-512.png", "custom_css": null}, {"id": 7223, "slack_id": "U091WHKEHQS", "display_name": "Szymon", "bio": null, "projects_count": 0, "devlogs_count": 0, "votes_count": 0, "ships_count": 0, "projects": [], "coding_time_seconds": 0, "coding_time_seconds_today": 0, "balance": "You need to have a pocket watcher badge to view this.", "badges": [], "created_at": "2025-06-17T15:11:04.039-04:00", "updated_at": "2025-07-03T19:43:19.153-04:00", "avatar": "https://secure.gravatar.com/avatar/7ff1bd3697e5cfb02b3ff7a70e390038.jpg?s=512&d=https%3A%2F%2Fa.slack-edge.com%2Fdf10d%2Fimg%2Favatars%2Fava_0012-512.png", "custom_css": null}, {"id": 7224, "slack_id": "U078ULKR3RS", "display_name": "ThemagicEE", "bio": null, "projects_count": 0, "devlogs_count": 0, "votes_count": 1, "ships_count": 0, "projects": [], "coding_time_seconds": 0, "coding_time_seconds_today": 0, "balance": "You need to have a pocket watcher badge to view this.", "badges": [], "created_at": "2025-06-17T15:11:38.692-04:00", "updated_at": "2025-07-03T19:43:19.417-04:00", "avatar": "https://avatars.slack-edge.com/2024-10-10/7859255698901_5ac4e9c47b209bdca85b_original.png", "custom_css": null}, {"id": 7225, "slack_id": "U091UUZ996H", "display_name": "Alicia G", "bio": null, "projects_count": 0, "devlogs_count": 0, "votes_count": 0, "ships_count": 0, "projects": [], "coding_time_seconds": 0, "coding_time_seconds_today": 0, "balance": "You need to have a pocket watcher badge to view this.", "badges": [], "created_at": "2025-06-17T15:12:57.638-04:00", "updated_at": "2025-07-03T22:35:36.919-04:00", "avatar": "https://secure.gravatar.com/avatar/1c14ea79a4bc1733a9dd1a2b0916803a.jpg?s=512&d=https%3A%2F%2Fa.slack-edge.com%2Fdf10d%2Fimg%2Favatars%2Fava_0023-512.png", "custom_css": null}, {"id": 7226, "slack_id": "U091UPQTBFW", "display_name": "SypTitan", "bio": null, "projects_count": 1, "devlogs_count": 0, "votes_count": 0, "ships_count": 0, "projects": [{"id": 1520, "title": "Dutchton", "devlogs_count": 0, "created_at": "2025-06-18T17:14:40.267-04:00"}], "coding_time_seconds": 17201, "coding_time_seconds_today": 0, "balance": "You need to have a pocket watcher badge to view this.", "badges": [], "created_at": "2025-06-17T15:13:10.178-04:00", "updated_at": "2025-07-03T19:43:19.830-04:00", "avatar": "https://secure.gravatar.com/avatar/a83727ef1c3b39ceab4d585dfd52a7b6.jpg?s=512&d=https%3A%2F%2Fa.slack-edge.com%2Fdf10d%2Fimg%2Favatars%2Fava_0011-512.png", "custom_css": null}, {"id": 7227, "slack_id": "U0795KUMRHC", "display_name": "AlwaysLearning", "bio": null, "projects_count": 1, "devlogs_count": 1, "votes_count": 0, "ships_count": 0, "projects": [{"id": 10555, "title": "SkeletylRP-C", "devlogs_count": 1, "created_at": "2025-08-08T05:05:22.563-04:00"}], "coding_time_seconds": 15762, "coding_time_seconds_today": 0, "balance": "You need to have a pocket watcher badge to view this.", "badges": [], "created_at": "2025-06-17T15:13:22.545-04:00", "updated_at": "2025-08-07T08:48:40.639-04:00", "avatar": "https://avatars.slack-edge.com/2024-06-23/7341210906064_2cfa4626f74f17f5ded9_original.png", "custom_css": null}, {"id": 7228, "slack_id": "U092C051248", "display_name": "Mirai", "bio": null, "projects_count": 0, "devlogs_count": 0, "votes_count": 0, "ships_count": 0, "projects": [], "coding_time_seconds": 0, "coding_time_seconds_today": 0, "balance": "You need to have a pocket watcher badge to view this.", "badges": [], "created_at": "2025-06-17T15:13:29.407-04:00", "updated_at": "2025-07-03T19:43:20.224-04:00", "avatar": "https://secure.gravatar.com/avatar/0fe95553ae40ff47a24f1bae86babe81.jpg?s=512&d=https%3A%2F%2Fa.slack-edge.com%2Fdf10d%2Fimg%2Favatars%2Fava_0018-512.png", "custom_css": null}, {"id": 7229, "slack_id": "U092K0EDE72", "display_name": "V\u00eanisson Cardoso", "bio": null, "projects_count": 0, "devlogs_count": 0, "votes_count": 0, "ships_count": 0, "projects": [], "coding_time_seconds": 0, "coding_time_seconds_today": 0, "balance": "You need to have a pocket watcher badge to view this.", "badges": [], "created_at": "2025-06-17T15:14:40.759-04:00", "updated_at": "2025-07-03T19:43:20.487-04:00", "avatar": "https://secure.gravatar.com/avatar/663cd5d6156ac4d54e906643a6d98a63.jpg?s=512&d=https%3A%2F%2Fa.slack-edge.com%2Fdf10d%2Fimg%2Favatars%2Fava_0021-512.png", "custom_css": null}, {"id": 7230, "slack_id": "U091UV9JFQV", "display_name": "Davide", "bio": null, "projects_count": 0, "devlogs_count": 0, "votes_count": 0, "ships_count": 0, "projects": [], "coding_time_seconds": 0, "coding_time_seconds_today": 0, "balance": "You need to have a pocket watcher badge to view this.", "badges": [], "created_at": "2025-06-17T15:15:28.035-04:00", "updated_at": "2025-07-03T19:43:20.759-04:00", "avatar": "https://secure.gravatar.com/avatar/dc94534431d72704d5b2e9d7259593ba.jpg?s=512&d=https%3A%2F%2Fa.slack-edge.com%2Fdf10d%2Fimg%2Favatars%2Fava_0014-512.png", "custom_css": null}, {"id": 7231, "slack_id": "U091PE35URZ", "display_name": "Muztahid Rahman", "bio": null, "projects_count": 0, "devlogs_count": 0, "votes_count": 0, "ships_count": 0, "projects": [], "coding_time_seconds": 0, "coding_time_seconds_today": 0, "balance": "You need to have a pocket watcher badge to view this.", "badges": [], "created_at": "2025-06-17T15:15:44.650-04:00", "updated_at": "2025-07-03T19:43:21.021-04:00", "avatar": "https://secure.gravatar.com/avatar/1194cc8dc1b563386751f9db377b2cbc.jpg?s=512&d=https%3A%2F%2Fa.slack-edge.com%2Fdf10d%2Fimg%2Favatars%2Fava_0001-512.png", "custom_css": null}, {"id": 7232, "slack_id": "U091RJWL361", "display_name": "Hamza EL IDRISSI", "bio": null, "projects_count": 1, "devlogs_count": 0, "votes_count": 0, "ships_count": 0, "projects": [{"id": 5281, "title": "tabarro3", "devlogs_count": 0, "created_at": "2025-07-04T07:07:38.659-04:00"}], "coding_time_seconds": 265778, "coding_time_seconds_today": 0, "balance": "You need to have a pocket watcher badge to view this.", "badges": [], "created_at": "2025-06-17T15:16:30.848-04:00", "updated_at": "2025-07-04T07:05:21.116-04:00", "avatar": "https://secure.gravatar.com/avatar/f846761b6d49dc895b15297fe1928d08.jpg?s=512&d=https%3A%2F%2Fa.slack-edge.com%2Fdf10d%2Fimg%2Favatars%2Fava_0024-512.png", "custom_css": null}, {"id": 7233, "slack_id": "U091X0XQTN0", "display_name": "Aqib Farhan", "bio": null, "projects_count": 0, "devlogs_count": 0, "votes_count": 0, "ships_count": 0, "projects": [], "coding_time_seconds": 0, "coding_time_seconds_today": 0, "balance": "You need to have a pocket watcher badge to view this.", "badges": [], "created_at": "2025-06-17T15:16:38.604-04:00", "updated_at": "2025-07-03T19:43:21.419-04:00", "avatar": "https://secure.gravatar.com/avatar/95454c3bf78e8002e19a12b6641f88c1.jpg?s=512&d=https%3A%2F%2Fa.slack-edge.com%2Fdf10d%2Fimg%2Favatars%2Fava_0025-512.png", "custom_css": null}, {"id": 7234, "slack_id": "U091PR4H354", "display_name": "Aayush Paigwar", "bio": null, "projects_count": 0, "devlogs_count": 0, "votes_count": 0, "ships_count": 0, "projects": [], "coding_time_seconds": 0, "coding_time_seconds_today": 0, "balance": "You need to have a pocket watcher badge to view this.", "badges": [], "created_at": "2025-06-17T15:17:45.841-04:00", "updated_at": "2025-07-03T19:43:21.675-04:00", "avatar": "https://avatars.slack-edge.com/2025-06-17/9057967296611_fec0ac9b1a13916d89b0_original.jpg", "custom_css": null}, {"id": 7235, "slack_id": "U091V0B09EH", "display_name": "Muhammad Ibrahim", "bio": null, "projects_count": 0, "devlogs_count": 0, "votes_count": 0, "ships_count": 0, "projects": [], "coding_time_seconds": 0, "coding_time_seconds_today": 0, "balance": "You need to have a pocket watcher badge to view this.", "badges": [], "created_at": "2025-06-17T15:18:09.457-04:00", "updated_at": "2025-07-04T02:26:32.057-04:00", "avatar": "https://secure.gravatar.com/avatar/1eeec33a886c1b89a0128555bac73d9d.jpg?s=512&d=https%3A%2F%2Fa.slack-edge.com%2Fdf10d%2Fimg%2Favatars%2Fava_0016-512.png", "custom_css": null}, {"id": 7236, "slack_id": "U091F8DJFU7", "display_name": "panterasbook29", "bio": null, "projects_count": 0, "devlogs_count": 0, "votes_count": 0, "ships_count": 0, "projects": [], "coding_time_seconds": 2780, "coding_time_seconds_today": 0, "balance": "You need to have a pocket watcher badge to view this.", "badges": [], "created_at": "2025-06-17T15:18:12.796-04:00", "updated_at": "2025-07-03T21:45:09.676-04:00", "avatar": "https://secure.gravatar.com/avatar/11dea84128f779ec194d3db06a8359ac.jpg?s=512&d=https%3A%2F%2Fa.slack-edge.com%2Fdf10d%2Fimg%2Favatars%2Fava_0020-512.png", "custom_css": null}, {"id": 7237, "slack_id": "U091F8XM44F", "display_name": "Asadullah Khan", "bio": null, "projects_count": 0, "devlogs_count": 0, "votes_count": 0, "ships_count": 0, "projects": [], "coding_time_seconds": 0, "coding_time_seconds_today": 0, "balance": "You need to have a pocket watcher badge to view this.", "badges": [], "created_at": "2025-06-17T15:18:31.005-04:00", "updated_at": "2025-07-03T21:57:02.169-04:00", "avatar": "https://avatars.slack-edge.com/2025-06-17/9057970419939_3c038c88c816e15da03e_original.jpg", "custom_css": null}, {"id": 7238, "slack_id": "U091WJHN6P4", "display_name": "Nkanyiso", "bio": null, "projects_count": 0, "devlogs_count": 0, "votes_count": 0, "ships_count": 0, "projects": [], "coding_time_seconds": 190629, "coding_time_seconds_today": 126, "balance": "You need to have a pocket watcher badge to view this.", "badges": [], "created_at": "2025-06-17T15:18:32.300-04:00", "updated_at": "2025-07-03T19:43:22.360-04:00", "avatar": "https://secure.gravatar.com/avatar/5748c468f5684e4f40dcf84875801444.jpg?s=512&d=https%3A%2F%2Fa.slack-edge.com%2Fdf10d%2Fimg%2Favatars%2Fava_0001-512.png", "custom_css": null}, {"id": 7239, "slack_id": "U091WJQC6US", "display_name": "Hardik Sukhnandan", "bio": null, "projects_count": 0, "devlogs_count": 0, "votes_count": 0, "ships_count": 0, "projects": [], "coding_time_seconds": 0, "coding_time_seconds_today": 0, "balance": "You need to have a pocket watcher badge to view this.", "badges": [], "created_at": "2025-06-17T15:19:27.144-04:00", "updated_at": "2025-07-05T14:09:07.887-04:00", "avatar": "https://avatars.slack-edge.com/2025-06-17/9057974300403_35d9d69cf53f6aece04d_original.png", "custom_css": null}, {"id": 7240, "slack_id": "U091PHZ11BL", "display_name": "Divyansh", "bio": null, "projects_count": 0, "devlogs_count": 0, "votes_count": 0, "ships_count": 0, "projects": [], "coding_time_seconds": 0, "coding_time_seconds_today": 0, "balance": "You need to have a pocket watcher badge to view this.", "badges": [], "created_at": "2025-06-17T15:19:59.441-04:00", "updated_at": "2025-07-03T19:43:22.778-04:00", "avatar": "https://secure.gravatar.com/avatar/f8fabf7ee5312ea19144846013b066e3.jpg?s=512&d=https%3A%2F%2Fa.slack-edge.com%2Fdf10d%2Fimg%2Favatars%2Fava_0024-512.png", "custom_css": null}], "pagination": {"page": 362, "pages": 1192, "count": 23828, "items": 20}}