{"users": [{"id": 7241, "slack_id": "U092K0V9YU8", "display_name": "Avinash Pauskar", "bio": null, "projects_count": 0, "devlogs_count": 0, "votes_count": 0, "ships_count": 0, "projects": [], "coding_time_seconds": 0, "coding_time_seconds_today": 0, "balance": "You need to have a pocket watcher badge to view this.", "badges": [], "created_at": "2025-06-17T15:20:15.011-04:00", "updated_at": "2025-07-03T21:45:10.066-04:00", "avatar": "https://secure.gravatar.com/avatar/c0751b2ffbc399c1fe01441ddb4590a3.jpg?s=512&d=https%3A%2F%2Fa.slack-edge.com%2Fdf10d%2Fimg%2Favatars%2Fava_0002-512.png", "custom_css": null}, {"id": 7242, "slack_id": "U092972CPJM", "display_name": "Alyssa", "bio": "alyssa is my name and inexperience is my game *finger guns*", "projects_count": 6, "devlogs_count": 16, "votes_count": 91, "ships_count": 6, "projects": [{"id": 11400, "title": "steven universe themed pomodoro study timer", "devlogs_count": 4, "created_at": "2025-08-15T14:11:39.576-04:00"}, {"id": 12835, "title": "Alyssa Cooks: A Recipe Website", "devlogs_count": 6, "created_at": "2025-09-03T13:21:58.668-04:00"}, {"id": 9840, "title": "my personal website", "devlogs_count": 1, "created_at": "2025-08-02T12:32:43.232-04:00"}, {"id": 10518, "title": "crochet row counter!", "devlogs_count": 3, "created_at": "2025-08-07T18:07:13.130-04:00"}, {"id": 10519, "title": "birthday GIFt website", "devlogs_count": 1, "created_at": "2025-08-07T18:12:56.959-04:00"}, {"id": 8443, "title": "HTML/CSS hachiware card", "devlogs_count": 1, "created_at": "2025-07-27T08:06:25.473-04:00"}], "coding_time_seconds": 95186, "coding_time_seconds_today": 0, "balance": "You need to have a pocket watcher badge to view this.", "badges": [{"name": "Maiden Voyage", "text": "you shipped your first project! the journey begins...", "icon": "\ud83d\udea2"}, {"name": "Ballot Stuffer", "text": "vote 100 times.", "icon": "https://summer.hackclub.com/assets/i_voted-bf851b48.png"}], "created_at": "2025-06-17T15:20:26.448-04:00", "updated_at": "2025-09-10T22:54:45.630-04:00", "avatar": "https://avatars.slack-edge.com/2025-07-27/9259817804965_c7acbfbee8a44b814d1c_original.jpg", "custom_css": null}, {"id": 7243, "slack_id": "U091WJZKB18", "display_name": "cindel", "bio": null, "projects_count": 0, "devlogs_count": 0, "votes_count": 0, "ships_count": 0, "projects": [], "coding_time_seconds": 0, "coding_time_seconds_today": 0, "balance": "You need to have a pocket watcher badge to view this.", "badges": [], "created_at": "2025-06-17T15:21:36.757-04:00", "updated_at": "2025-07-03T19:43:23.314-04:00", "avatar": "https://secure.gravatar.com/avatar/260490b5d8e579d55744c29ed575d226.jpg?s=512&d=https%3A%2F%2Fa.slack-edge.com%2Fdf10d%2Fimg%2Favatars%2Fava_0024-512.png", "custom_css": null}, {"id": 7244, "slack_id": "U092279EU3B", "display_name": "Lucas", "bio": null, "projects_count": 1, "devlogs_count": 0, "votes_count": 0, "ships_count": 0, "projects": [{"id": 1112, "title": "Marble", "devlogs_count": 0, "created_at": "2025-06-17T16:37:00.530-04:00"}], "coding_time_seconds": 23860, "coding_time_seconds_today": 0, "balance": "You need to have a pocket watcher badge to view this.", "badges": [], "created_at": "2025-06-17T15:21:40.574-04:00", "updated_at": "2025-07-03T19:43:23.577-04:00", "avatar": "https://secure.gravatar.com/avatar/609b071f85245de91e39957a72c88fad.jpg?s=512&d=https%3A%2F%2Fa.slack-edge.com%2Fdf10d%2Fimg%2Favatars%2Fava_0023-512.png", "custom_css": null}, {"id": 7245, "slack_id": "U07H4KFFALR", "display_name": "JackatDJL", "bio": null, "projects_count": 3, "devlogs_count": 8, "votes_count": 13, "ships_count": 1, "projects": [{"id": 4098, "title": "The Presentation Foundation", "devlogs_count": 5, "created_at": "2025-06-27T12:45:56.223-04:00"}, {"id": 9769, "title": "DJL Foundation Homepage", "devlogs_count": 1, "created_at": "2025-08-02T08:30:46.219-04:00"}, {"id": 11048, "title": "Innovative Webentwicklung - Teaching Basics of the Web in our Schools Project Week", "devlogs_count": 2, "created_at": "2025-08-12T18:04:21.017-04:00"}], "coding_time_seconds": 305444, "coding_time_seconds_today": 0, "balance": "You need to have a pocket watcher badge to view this.", "badges": [{"name": "Maiden Voyage", "text": "you shipped your first project! the journey begins...", "icon": "\ud83d\udea2"}], "created_at": "2025-06-17T15:21:48.333-04:00", "updated_at": "2025-09-10T22:54:45.727-04:00", "avatar": "https://secure.gravatar.com/avatar/3502673259d6f6b8ca8e1f2954c8925b.jpg?s=512&d=https%3A%2F%2Fa.slack-edge.com%2Fdf10d%2Fimg%2Favatars%2Fava_0010-512.png", "custom_css": null}, {"id": 7246, "slack_id": "U091WK4785Q", "display_name": "Bruna", "bio": null, "projects_count": 0, "devlogs_count": 0, "votes_count": 0, "ships_count": 0, "projects": [], "coding_time_seconds": 0, "coding_time_seconds_today": 0, "balance": "You need to have a pocket watcher badge to view this.", "badges": [], "created_at": "2025-06-17T15:23:18.451-04:00", "updated_at": "2025-07-03T19:43:24.050-04:00", "avatar": "https://secure.gravatar.com/avatar/6165f31070bf7c1ec0a029d46aa18d06.jpg?s=512&d=https%3A%2F%2Fa.slack-edge.com%2Fdf10d%2Fimg%2Favatars%2Fava_0008-512.png", "custom_css": null}, {"id": 7247, "slack_id": "U091X2F0P6G", "display_name": "Matthew S", "bio": null, "projects_count": 0, "devlogs_count": 0, "votes_count": 0, "ships_count": 0, "projects": [], "coding_time_seconds": 0, "coding_time_seconds_today": 0, "balance": "You need to have a pocket watcher badge to view this.", "badges": [], "created_at": "2025-06-17T15:23:24.243-04:00", "updated_at": "2025-07-04T02:26:32.870-04:00", "avatar": "https://secure.gravatar.com/avatar/caf93acd4b52d5ec69c86d3ab723e4bc.jpg?s=512&d=https%3A%2F%2Fa.slack-edge.com%2Fdf10d%2Fimg%2Favatars%2Fava_0000-512.png", "custom_css": null}, {"id": 7248, "slack_id": "U07A1HL2K9S", "display_name": "Justin", "bio": null, "projects_count": 0, "devlogs_count": 0, "votes_count": 0, "ships_count": 0, "projects": [], "coding_time_seconds": 0, "coding_time_seconds_today": 0, "balance": "You need to have a pocket watcher badge to view this.", "badges": [], "created_at": "2025-06-17T15:24:18.086-04:00", "updated_at": "2025-07-03T22:35:38.442-04:00", "avatar": "https://avatars.slack-edge.com/2024-06-27/7347550129700_19af4405771ff9b8be9d_original.png", "custom_css": null}, {"id": 7249, "slack_id": "U091X1M7Q12", "display_name": "Javiera Angulo", "bio": null, "projects_count": 0, "devlogs_count": 0, "votes_count": 0, "ships_count": 0, "projects": [], "coding_time_seconds": 10, "coding_time_seconds_today": 0, "balance": "You need to have a pocket watcher badge to view this.", "badges": [], "created_at": "2025-06-17T15:24:30.075-04:00", "updated_at": "2025-07-03T22:35:38.541-04:00", "avatar": "https://secure.gravatar.com/avatar/4b893c850b507ce61a5dff0bc028aa03.jpg?s=512&d=https%3A%2F%2Fa.slack-edge.com%2Fdf10d%2Fimg%2Favatars%2Fava_0001-512.png", "custom_css": null}, {"id": 7250, "slack_id": "U09297RHNFK", "display_name": "Mohammed Anees", "bio": null, "projects_count": 0, "devlogs_count": 0, "votes_count": 0, "ships_count": 0, "projects": [], "coding_time_seconds": 0, "coding_time_seconds_today": 0, "balance": "You need to have a pocket watcher badge to view this.", "badges": [], "created_at": "2025-06-17T15:24:37.443-04:00", "updated_at": "2025-07-03T19:43:24.722-04:00", "avatar": "https://avatars.slack-edge.com/2025-06-17/9058175958006_19d556f89a743e27b632_original.png", "custom_css": null}, {"id": 7251, "slack_id": "U0928RRCJ9F", "display_name": "Shayan Bahrainy", "bio": null, "projects_count": 1, "devlogs_count": 2, "votes_count": 1, "ships_count": 0, "projects": [{"id": 13499, "title": "Scenery", "devlogs_count": 1, "created_at": "2025-09-18T00:08:11.497-04:00"}], "coding_time_seconds": 186847, "coding_time_seconds_today": 0, "balance": "You need to have a pocket watcher badge to view this.", "badges": [], "created_at": "2025-06-17T15:24:44.293-04:00", "updated_at": "2025-08-06T17:10:32.384-04:00", "avatar": "https://avatars.slack-edge.com/2025-07-14/9199377160788_1f4237dfad95c5cccc49_original.png", "custom_css": null}, {"id": 7252, "slack_id": "U091Q4W7ATY", "display_name": "Elsyvien", "bio": null, "projects_count": 0, "devlogs_count": 0, "votes_count": 0, "ships_count": 0, "projects": [], "coding_time_seconds": 0, "coding_time_seconds_today": 0, "balance": "You need to have a pocket watcher badge to view this.", "badges": [], "created_at": "2025-06-17T15:25:16.733-04:00", "updated_at": "2025-07-03T19:43:25.279-04:00", "avatar": "https://avatars.slack-edge.com/2025-06-17/9077284167809_b6de2f81c64c851d6fc0_original.jpg", "custom_css": null}, {"id": 7253, "slack_id": "U091Q51NWG6", "display_name": "Evan Chen", "bio": null, "projects_count": 0, "devlogs_count": 0, "votes_count": 0, "ships_count": 0, "projects": [], "coding_time_seconds": 0, "coding_time_seconds_today": 0, "balance": "You need to have a pocket watcher badge to view this.", "badges": [], "created_at": "2025-06-17T15:25:45.353-04:00", "updated_at": "2025-07-03T19:43:25.556-04:00", "avatar": "https://avatars.slack-edge.com/2025-06-17/9065103663076_17344bd5697e9723dd62_original.png", "custom_css": null}, {"id": 7254, "slack_id": "U092K23SB5E", "display_name": "luke", "bio": null, "projects_count": 0, "devlogs_count": 0, "votes_count": 0, "ships_count": 0, "projects": [], "coding_time_seconds": 0, "coding_time_seconds_today": 0, "balance": "You need to have a pocket watcher badge to view this.", "badges": [], "created_at": "2025-06-17T15:25:47.411-04:00", "updated_at": "2025-07-03T19:43:25.837-04:00", "avatar": "https://secure.gravatar.com/avatar/8a7c6a006dbfb00562607964a76c6974.jpg?s=512&d=https%3A%2F%2Fa.slack-edge.com%2Fdf10d%2Fimg%2Favatars%2Fava_0026-512.png", "custom_css": null}, {"id": 7255, "slack_id": "U091F7E9VKR", "display_name": "Faris Z", "bio": null, "projects_count": 0, "devlogs_count": 0, "votes_count": 0, "ships_count": 0, "projects": [], "coding_time_seconds": 74304, "coding_time_seconds_today": 0, "balance": "You need to have a pocket watcher badge to view this.", "badges": [], "created_at": "2025-06-17T15:25:52.528-04:00", "updated_at": "2025-07-03T19:43:26.104-04:00", "avatar": "https://avatars.slack-edge.com/2025-06-17/9063062203765_8b69019a26be69a6eb9a_original.jpg", "custom_css": null}, {"id": 7256, "slack_id": "U081UEKSFFE", "display_name": "safia", "bio": null, "projects_count": 0, "devlogs_count": 0, "votes_count": 0, "ships_count": 0, "projects": [], "coding_time_seconds": 250265, "coding_time_seconds_today": 0, "balance": "You need to have a pocket watcher badge to view this.", "badges": [], "created_at": "2025-06-17T15:26:34.184-04:00", "updated_at": "2025-09-10T14:35:23.803-04:00", "avatar": "https://avatars.slack-edge.com/2025-09-10/9481542163783_52bcd26c61e1c324e551_original.png", "custom_css": null}, {"id": 7257, "slack_id": "U091X2NAJSG", "display_name": "Burak", "bio": null, "projects_count": 0, "devlogs_count": 0, "votes_count": 0, "ships_count": 0, "projects": [], "coding_time_seconds": 21634, "coding_time_seconds_today": 0, "balance": "You need to have a pocket watcher badge to view this.", "badges": [], "created_at": "2025-06-17T15:26:50.541-04:00", "updated_at": "2025-07-03T19:43:26.673-04:00", "avatar": "https://secure.gravatar.com/avatar/f387052f49532f07a9dfa5e38da5f17c.jpg?s=512&d=https%3A%2F%2Fa.slack-edge.com%2Fdf10d%2Fimg%2Favatars%2Fava_0016-512.png", "custom_css": null}, {"id": 7258, "slack_id": "U091X2RM5C4", "display_name": "Kamal Medhi", "bio": null, "projects_count": 0, "devlogs_count": 0, "votes_count": 0, "ships_count": 0, "projects": [], "coding_time_seconds": 0, "coding_time_seconds_today": 0, "balance": "You need to have a pocket watcher badge to view this.", "badges": [], "created_at": "2025-06-17T15:27:04.947-04:00", "updated_at": "2025-07-03T19:43:26.938-04:00", "avatar": "https://avatars.slack-edge.com/2025-06-17/9058188888118_2b01885cee30fdc146e6_original.png", "custom_css": null}, {"id": 7259, "slack_id": "U092980R7PT", "display_name": "max", "bio": null, "projects_count": 0, "devlogs_count": 0, "votes_count": 0, "ships_count": 0, "projects": [], "coding_time_seconds": 18156, "coding_time_seconds_today": 0, "balance": "You need to have a pocket watcher badge to view this.", "badges": [], "created_at": "2025-06-17T15:27:11.518-04:00", "updated_at": "2025-07-03T19:43:27.205-04:00", "avatar": "https://secure.gravatar.com/avatar/b110301d64b9733feefe48797b26478e.jpg?s=512&d=https%3A%2F%2Fa.slack-edge.com%2Fdf10d%2Fimg%2Favatars%2Fava_0019-512.png", "custom_css": null}, {"id": 7260, "slack_id": "U09298AEX8R", "display_name": "Alberto", "bio": null, "projects_count": 0, "devlogs_count": 0, "votes_count": 0, "ships_count": 0, "projects": [], "coding_time_seconds": 0, "coding_time_seconds_today": 0, "balance": "You need to have a pocket watcher badge to view this.", "badges": [], "created_at": "2025-06-17T15:27:19.455-04:00", "updated_at": "2025-07-03T19:43:27.464-04:00", "avatar": "https://secure.gravatar.com/avatar/ffbcb8234996a869b1fd9de2789d41fd.jpg?s=512&d=https%3A%2F%2Fa.slack-edge.com%2Fdf10d%2Fimg%2Favatars%2Fava_0021-512.png", "custom_css": null}], "pagination": {"page": 363, "pages": 1192, "count": 23828, "items": 20}}