{"users": [{"id": 7261, "slack_id": "U091Q576ZAA", "display_name": "Midhun Krishna", "bio": null, "projects_count": 0, "devlogs_count": 0, "votes_count": 0, "ships_count": 0, "projects": [], "coding_time_seconds": 0, "coding_time_seconds_today": 0, "balance": "You need to have a pocket watcher badge to view this.", "badges": [], "created_at": "2025-06-17T15:28:10.031-04:00", "updated_at": "2025-07-03T19:43:27.722-04:00", "avatar": "https://secure.gravatar.com/avatar/c8f9041b54868b49517fbee9e3256a59.jpg?s=512&d=https%3A%2F%2Fa.slack-edge.com%2Fdf10d%2Fimg%2Favatars%2Fava_0020-512.png", "custom_css": null}, {"id": 7262, "slack_id": "U091X2RRT1S", "display_name": "Suprava Dutta", "bio": null, "projects_count": 0, "devlogs_count": 0, "votes_count": 0, "ships_count": 0, "projects": [], "coding_time_seconds": 309198, "coding_time_seconds_today": 0, "balance": "You need to have a pocket watcher badge to view this.", "badges": [], "created_at": "2025-06-17T15:28:10.677-04:00", "updated_at": "2025-07-03T19:43:27.985-04:00", "avatar": "https://secure.gravatar.com/avatar/50ba1cdb0ee01276b41624af67652f61.jpg?s=512&d=https%3A%2F%2Fa.slack-edge.com%2Fdf10d%2Fimg%2Favatars%2Fava_0019-512.png", "custom_css": null}, {"id": 7263, "slack_id": "U07AYTR6S68", "display_name": "Harvey", "bio": null, "projects_count": 0, "devlogs_count": 0, "votes_count": 0, "ships_count": 0, "projects": [], "coding_time_seconds": 260, "coding_time_seconds_today": 0, "balance": "You need to have a pocket watcher badge to view this.", "badges": [], "created_at": "2025-06-17T15:28:16.941-04:00", "updated_at": "2025-07-03T21:45:11.482-04:00", "avatar": "https://secure.gravatar.com/avatar/daa045cf6d1111aec6b7ec51bd4d3a9c.jpg?s=512&d=https%3A%2F%2Fa.slack-edge.com%2Fdf10d%2Fimg%2Favatars%2Fava_0010-512.png", "custom_css": null}, {"id": 7264, "slack_id": "U091V1DULLV", "display_name": "skid", "bio": null, "projects_count": 0, "devlogs_count": 0, "votes_count": 0, "ships_count": 0, "projects": [], "coding_time_seconds": 0, "coding_time_seconds_today": 0, "balance": "You need to have a pocket watcher badge to view this.", "badges": [], "created_at": "2025-06-17T15:28:44.127-04:00", "updated_at": "2025-07-03T19:43:28.386-04:00", "avatar": "https://secure.gravatar.com/avatar/b7730f317887e3641ef465fac7386899.jpg?s=512&d=https%3A%2F%2Fa.slack-edge.com%2Fdf10d%2Fimg%2Favatars%2Fava_0007-512.png", "custom_css": null}, {"id": 7265, "slack_id": "U0929832Z25", "display_name": "Mohammed T", "bio": null, "projects_count": 0, "devlogs_count": 0, "votes_count": 0, "ships_count": 0, "projects": [], "coding_time_seconds": 0, "coding_time_seconds_today": 0, "balance": "You need to have a pocket watcher badge to view this.", "badges": [], "created_at": "2025-06-17T15:29:39.405-04:00", "updated_at": "2025-07-03T19:43:28.649-04:00", "avatar": "https://secure.gravatar.com/avatar/cdf90de86deaf68050a36e1063e60032.jpg?s=512&d=https%3A%2F%2Fa.slack-edge.com%2Fdf10d%2Fimg%2Favatars%2Fava_0012-512.png", "custom_css": null}, {"id": 7266, "slack_id": "U091FACJLMV", "display_name": "Dominik Weinkamp", "bio": null, "projects_count": 2, "devlogs_count": 0, "votes_count": 0, "ships_count": 0, "projects": [{"id": 1332, "title": "Weather app", "devlogs_count": 0, "created_at": "2025-06-18T09:17:19.640-04:00"}, {"id": 11020, "title": "Chat app", "devlogs_count": 0, "created_at": "2025-08-12T12:33:53.895-04:00"}], "coding_time_seconds": 37567, "coding_time_seconds_today": 0, "balance": "You need to have a pocket watcher badge to view this.", "badges": [], "created_at": "2025-06-17T15:29:40.847-04:00", "updated_at": "2025-08-12T13:51:39.159-04:00", "avatar": "https://secure.gravatar.com/avatar/909375c90329ec054994f358dd6393c7.jpg?s=512&d=https%3A%2F%2Fa.slack-edge.com%2Fdf10d%2Fimg%2Favatars%2Fava_0025-512.png", "custom_css": null}, {"id": 7267, "slack_id": "U04GFU12GPJ", "display_name": "Gam3rr", "bio": null, "projects_count": 1, "devlogs_count": 1, "votes_count": 0, "ships_count": 0, "projects": [{"id": 1093, "title": "SHS Wiki", "devlogs_count": 1, "created_at": "2025-06-17T15:58:22.238-04:00"}], "coding_time_seconds": 159539, "coding_time_seconds_today": 0, "balance": "You need to have a pocket watcher badge to view this.", "badges": [], "created_at": "2025-06-17T15:30:30.489-04:00", "updated_at": "2025-07-06T20:08:36.967-04:00", "avatar": "https://avatars.slack-edge.com/2025-06-18/9070403080805_5e82a0ee27dd59336d8c_original.png", "custom_css": null}, {"id": 7268, "slack_id": "U092K2A3GTA", "display_name": "Frederic Worm", "bio": null, "projects_count": 0, "devlogs_count": 0, "votes_count": 5, "ships_count": 0, "projects": [], "coding_time_seconds": 11778, "coding_time_seconds_today": 0, "balance": "You need to have a pocket watcher badge to view this.", "badges": [], "created_at": "2025-06-17T15:30:49.742-04:00", "updated_at": "2025-07-03T19:43:29.204-04:00", "avatar": "https://avatars.slack-edge.com/2025-06-17/9064707887394_9b1e3cd6ad71d06c5a2e_original.png", "custom_css": null}, {"id": 7269, "slack_id": "U09298VG66M", "display_name": "Shronit Soni", "bio": null, "projects_count": 0, "devlogs_count": 0, "votes_count": 0, "ships_count": 0, "projects": [], "coding_time_seconds": 0, "coding_time_seconds_today": 0, "balance": "You need to have a pocket watcher badge to view this.", "badges": [], "created_at": "2025-06-17T15:31:40.558-04:00", "updated_at": "2025-07-10T01:29:44.187-04:00", "avatar": "https://secure.gravatar.com/avatar/c58aa2e6287db73aeee5a79c8ca4350a.jpg?s=512&d=https%3A%2F%2Fa.slack-edge.com%2Fdf10d%2Fimg%2Favatars%2Fava_0019-512.png", "custom_css": null}, {"id": 7270, "slack_id": "U0923FL44KT", "display_name": "Ahmet Kerem \u015eayl\u0131", "bio": null, "projects_count": 0, "devlogs_count": 0, "votes_count": 0, "ships_count": 0, "projects": [], "coding_time_seconds": 292841, "coding_time_seconds_today": 0, "balance": "You need to have a pocket watcher badge to view this.", "badges": [], "created_at": "2025-06-17T15:32:53.860-04:00", "updated_at": "2025-07-06T02:09:11.928-04:00", "avatar": "https://secure.gravatar.com/avatar/92af34754f3528ad45acd4f4141ea463.jpg?s=512&d=https%3A%2F%2Fa.slack-edge.com%2Fdf10d%2Fimg%2Favatars%2Fava_0003-512.png", "custom_css": null}, {"id": 7271, "slack_id": "U08RYD6822V", "display_name": "Sayan", "bio": null, "projects_count": 0, "devlogs_count": 0, "votes_count": 0, "ships_count": 0, "projects": [], "coding_time_seconds": 84697, "coding_time_seconds_today": 0, "balance": "You need to have a pocket watcher badge to view this.", "badges": [], "created_at": "2025-06-17T15:33:38.529-04:00", "updated_at": "2025-07-24T07:27:35.334-04:00", "avatar": "https://avatars.slack-edge.com/2025-05-09/8897353313472_4cef00b44d32d2284d31_original.png", "custom_css": null}, {"id": 7272, "slack_id": "U09299HE7Q9", "display_name": "Maruthi", "bio": null, "projects_count": 0, "devlogs_count": 0, "votes_count": 0, "ships_count": 0, "projects": [], "coding_time_seconds": 0, "coding_time_seconds_today": 0, "balance": "You need to have a pocket watcher badge to view this.", "badges": [], "created_at": "2025-06-17T15:35:31.113-04:00", "updated_at": "2025-07-03T19:43:30.021-04:00", "avatar": "https://secure.gravatar.com/avatar/3eef2760a55254544c0170edc6e0da4b.jpg?s=512&d=https%3A%2F%2Fa.slack-edge.com%2Fdf10d%2Fimg%2Favatars%2Fava_0012-512.png", "custom_css": null}, {"id": 7273, "slack_id": "U091WM1SKKL", "display_name": "Satyam Singh", "bio": null, "projects_count": 0, "devlogs_count": 0, "votes_count": 0, "ships_count": 0, "projects": [], "coding_time_seconds": 0, "coding_time_seconds_today": 0, "balance": "You need to have a pocket watcher badge to view this.", "badges": [], "created_at": "2025-06-17T15:36:00.429-04:00", "updated_at": "2025-07-03T19:43:30.290-04:00", "avatar": "https://secure.gravatar.com/avatar/6db1dc58e15a440e1f0478381be73393.jpg?s=512&d=https%3A%2F%2Fa.slack-edge.com%2Fdf10d%2Fimg%2Favatars%2Fava_0003-512.png", "custom_css": null}, {"id": 7274, "slack_id": "U091X47HJJG", "display_name": "ibbi", "bio": null, "projects_count": 0, "devlogs_count": 0, "votes_count": 0, "ships_count": 0, "projects": [], "coding_time_seconds": 0, "coding_time_seconds_today": 0, "balance": "You need to have a pocket watcher badge to view this.", "badges": [], "created_at": "2025-06-17T15:36:25.645-04:00", "updated_at": "2025-07-03T19:43:30.560-04:00", "avatar": "https://secure.gravatar.com/avatar/a5b55a18ea6ade1ba28fd4cc969f8515.jpg?s=512&d=https%3A%2F%2Fa.slack-edge.com%2Fdf10d%2Fimg%2Favatars%2Fava_0009-512.png", "custom_css": null}, {"id": 7275, "slack_id": "U091Q6FMKGW", "display_name": "Srijan Rai", "bio": null, "projects_count": 0, "devlogs_count": 0, "votes_count": 0, "ships_count": 0, "projects": [], "coding_time_seconds": 0, "coding_time_seconds_today": 0, "balance": "You need to have a pocket watcher badge to view this.", "badges": [], "created_at": "2025-06-17T15:37:10.480-04:00", "updated_at": "2025-07-03T19:43:30.827-04:00", "avatar": "https://secure.gravatar.com/avatar/29a27c144252f8e636498f3514c039a4.jpg?s=512&d=https%3A%2F%2Fa.slack-edge.com%2Fdf10d%2Fimg%2Favatars%2Fava_0011-512.png", "custom_css": null}, {"id": 7276, "slack_id": "U091WMDJMDY", "display_name": "Mati", "bio": null, "projects_count": 0, "devlogs_count": 0, "votes_count": 0, "ships_count": 0, "projects": [], "coding_time_seconds": 0, "coding_time_seconds_today": 0, "balance": "You need to have a pocket watcher badge to view this.", "badges": [], "created_at": "2025-06-17T15:37:25.369-04:00", "updated_at": "2025-07-03T19:43:31.130-04:00", "avatar": "https://secure.gravatar.com/avatar/e830c66f6b62710c0465a4525bc90bdf.jpg?s=512&d=https%3A%2F%2Fa.slack-edge.com%2Fdf10d%2Fimg%2Favatars%2Fava_0000-512.png", "custom_css": null}, {"id": 7277, "slack_id": "U091WMCTLTU", "display_name": "sam", "bio": null, "projects_count": 1, "devlogs_count": 12, "votes_count": 15, "ships_count": 1, "projects": [{"id": 1447, "title": "mog", "devlogs_count": 12, "created_at": "2025-06-18T15:00:40.197-04:00"}], "coding_time_seconds": 132111, "coding_time_seconds_today": 0, "balance": "You need to have a pocket watcher badge to view this.", "badges": [{"name": "Maiden Voyage", "text": "you shipped your first project! the journey begins...", "icon": "\ud83d\udea2"}], "created_at": "2025-06-17T15:37:36.258-04:00", "updated_at": "2025-09-10T22:54:46.541-04:00", "avatar": "https://avatars.slack-edge.com/2025-06-18/9083699078417_88bf45cf5e9d377cf08c_original.jpg", "custom_css": null}, {"id": 7278, "slack_id": "U091Q1D68F5", "display_name": "Adarsh", "bio": null, "projects_count": 0, "devlogs_count": 0, "votes_count": 0, "ships_count": 0, "projects": [], "coding_time_seconds": 0, "coding_time_seconds_today": 0, "balance": "You need to have a pocket watcher badge to view this.", "badges": [], "created_at": "2025-06-17T15:37:56.632-04:00", "updated_at": "2025-07-03T19:43:31.661-04:00", "avatar": "https://secure.gravatar.com/avatar/16ed4129e7c41bcfd65e4ae017d38d44.jpg?s=512&d=https%3A%2F%2Fa.slack-edge.com%2Fdf10d%2Fimg%2Favatars%2Fava_0025-512.png", "custom_css": null}, {"id": 7279, "slack_id": "U091Q0GGKPV", "display_name": "Mudit Bhargava", "bio": null, "projects_count": 0, "devlogs_count": 0, "votes_count": 0, "ships_count": 0, "projects": [], "coding_time_seconds": 0, "coding_time_seconds_today": 0, "balance": "You need to have a pocket watcher badge to view this.", "badges": [], "created_at": "2025-06-17T15:38:07.473-04:00", "updated_at": "2025-07-03T21:57:05.164-04:00", "avatar": "https://secure.gravatar.com/avatar/a948371bdb873baa39da8684a40a94b2.jpg?s=512&d=https%3A%2F%2Fa.slack-edge.com%2Fdf10d%2Fimg%2Favatars%2Fava_0024-512.png", "custom_css": null}, {"id": 7280, "slack_id": "U08TT4PNJ9K", "display_name": "kouatchoua arielle", "bio": null, "projects_count": 0, "devlogs_count": 0, "votes_count": 0, "ships_count": 0, "projects": [], "coding_time_seconds": 0, "coding_time_seconds_today": 0, "balance": "You need to have a pocket watcher badge to view this.", "badges": [], "created_at": "2025-06-17T15:38:29.889-04:00", "updated_at": "2025-07-03T22:35:40.642-04:00", "avatar": "https://avatars.slack-edge.com/2025-05-24/8934319832519_f74896f35ab8294f16ed_original.png", "custom_css": null}], "pagination": {"page": 364, "pages": 1192, "count": 23828, "items": 20}}