{"users": [{"id": 7281, "slack_id": "U091V35JW77", "display_name": "Josh", "bio": null, "projects_count": 0, "devlogs_count": 0, "votes_count": 0, "ships_count": 0, "projects": [], "coding_time_seconds": 0, "coding_time_seconds_today": 0, "balance": "You need to have a pocket watcher badge to view this.", "badges": [], "created_at": "2025-06-17T15:38:36.762-04:00", "updated_at": "2025-07-03T19:43:32.204-04:00", "avatar": "https://avatars.slack-edge.com/2025-06-17/9087152223856_9669b43e93eab97ad403_original.jpg", "custom_css": null}, {"id": 7282, "slack_id": "U09299ZDGGZ", "display_name": "Camron Farjami", "bio": null, "projects_count": 0, "devlogs_count": 0, "votes_count": 0, "ships_count": 0, "projects": [], "coding_time_seconds": 0, "coding_time_seconds_today": 0, "balance": "You need to have a pocket watcher badge to view this.", "badges": [], "created_at": "2025-06-17T15:38:40.965-04:00", "updated_at": "2025-07-03T19:43:32.467-04:00", "avatar": "https://avatars.slack-edge.com/2025-06-17/9058072243859_d5be8bb8893219825c5d_original.png", "custom_css": null}, {"id": 7283, "slack_id": "U079CSHECSW", "display_name": "SUVAN SHANKER", "bio": null, "projects_count": 0, "devlogs_count": 0, "votes_count": 0, "ships_count": 0, "projects": [], "coding_time_seconds": 0, "coding_time_seconds_today": 0, "balance": "You need to have a pocket watcher badge to view this.", "badges": [], "created_at": "2025-06-17T15:38:57.333-04:00", "updated_at": "2025-07-03T19:43:32.739-04:00", "avatar": "https://avatars.slack-edge.com/2024-11-06/7993624350164_687ebce687689c6bd4a8_original.png", "custom_css": null}, {"id": 7284, "slack_id": "U092JLGLV24", "display_name": "That Withered Rose", "bio": null, "projects_count": 0, "devlogs_count": 0, "votes_count": 0, "ships_count": 0, "projects": [], "coding_time_seconds": 0, "coding_time_seconds_today": 0, "balance": "You need to have a pocket watcher badge to view this.", "badges": [], "created_at": "2025-06-17T15:39:19.139-04:00", "updated_at": "2025-07-03T19:43:32.999-04:00", "avatar": "https://secure.gravatar.com/avatar/c34b931af25b223519ab24cb9165afaf.jpg?s=512&d=https%3A%2F%2Fa.slack-edge.com%2Fdf10d%2Fimg%2Favatars%2Fava_0025-512.png", "custom_css": null}, {"id": 7285, "slack_id": "U091Q6Y0MM4", "display_name": "Azok42", "bio": null, "projects_count": 1, "devlogs_count": 1, "votes_count": 4, "ships_count": 1, "projects": [{"id": 9262, "title": "Sand Simulation with WPF", "devlogs_count": 1, "created_at": "2025-07-31T08:45:44.827-04:00"}], "coding_time_seconds": 45646, "coding_time_seconds_today": 0, "balance": "You need to have a pocket watcher badge to view this.", "badges": [{"name": "Maiden Voyage", "text": "you shipped your first project! the journey begins...", "icon": "\ud83d\udea2"}], "created_at": "2025-06-17T15:40:34.602-04:00", "updated_at": "2025-09-21T07:47:48.191-04:00", "avatar": "https://secure.gravatar.com/avatar/5344af967b4b51769697c70149b4bd9e.jpg?s=512&d=https%3A%2F%2Fa.slack-edge.com%2Fdf10d%2Fimg%2Favatars%2Fava_0010-512.png", "custom_css": null}, {"id": 7286, "slack_id": "U08U9BC5XJ8", "display_name": "y", "bio": null, "projects_count": 0, "devlogs_count": 0, "votes_count": 0, "ships_count": 0, "projects": [], "coding_time_seconds": 0, "coding_time_seconds_today": 0, "balance": "You need to have a pocket watcher badge to view this.", "badges": [], "created_at": "2025-06-17T15:41:39.655-04:00", "updated_at": "2025-07-03T21:57:05.758-04:00", "avatar": "https://secure.gravatar.com/avatar/f8a7e8aca4756e8e3d00beb62c4430ef.jpg?s=512&d=https%3A%2F%2Fa.slack-edge.com%2Fdf10d%2Fimg%2Favatars%2Fava_0011-512.png", "custom_css": null}, {"id": 7287, "slack_id": "U0929AJQ02D", "display_name": "David", "bio": null, "projects_count": 1, "devlogs_count": 14, "votes_count": 0, "ships_count": 0, "projects": [{"id": 1513, "title": "roguelike test", "devlogs_count": 14, "created_at": "2025-06-18T16:57:03.254-04:00"}], "coding_time_seconds": 159692, "coding_time_seconds_today": 0, "balance": "You need to have a pocket watcher badge to view this.", "badges": [], "created_at": "2025-06-17T15:42:59.330-04:00", "updated_at": "2025-08-01T14:35:28.453-04:00", "avatar": "https://avatars.slack-edge.com/2025-06-20/9081785050101_6b13a181bd65d2c1ae28_original.png", "custom_css": null}, {"id": 7288, "slack_id": "U091WN7T83C", "display_name": "Filip Brataon", "bio": null, "projects_count": 0, "devlogs_count": 0, "votes_count": 0, "ships_count": 0, "projects": [], "coding_time_seconds": 0, "coding_time_seconds_today": 0, "balance": "You need to have a pocket watcher badge to view this.", "badges": [], "created_at": "2025-06-17T15:43:50.269-04:00", "updated_at": "2025-07-03T19:43:33.833-04:00", "avatar": "https://avatars.slack-edge.com/2025-06-17/9065189240628_1a7544ad312a7ed9302c_original.png", "custom_css": null}, {"id": 7289, "slack_id": "U091QFDB6E6", "display_name": "Summit Singh Thakur", "bio": null, "projects_count": 0, "devlogs_count": 0, "votes_count": 0, "ships_count": 0, "projects": [], "coding_time_seconds": 0, "coding_time_seconds_today": 0, "balance": "You need to have a pocket watcher badge to view this.", "badges": [], "created_at": "2025-06-17T15:44:07.840-04:00", "updated_at": "2025-07-03T19:43:34.107-04:00", "avatar": "https://avatars.slack-edge.com/2025-06-17/9058277071446_b000a8ab973b9d9b5273_original.jpg", "custom_css": null}, {"id": 7290, "slack_id": "U091Q2C7ZS7", "display_name": "Ryan", "bio": null, "projects_count": 0, "devlogs_count": 0, "votes_count": 0, "ships_count": 0, "projects": [], "coding_time_seconds": 89902, "coding_time_seconds_today": 0, "balance": "You need to have a pocket watcher badge to view this.", "badges": [], "created_at": "2025-06-17T15:44:26.831-04:00", "updated_at": "2025-07-03T21:57:06.090-04:00", "avatar": "https://secure.gravatar.com/avatar/442996e58ff310540216d99467318f46.jpg?s=512&d=https%3A%2F%2Fa.slack-edge.com%2Fdf10d%2Fimg%2Favatars%2Fava_0001-512.png", "custom_css": null}, {"id": 7291, "slack_id": "U091V4F59NZ", "display_name": "Durd Hainey", "bio": null, "projects_count": 0, "devlogs_count": 0, "votes_count": 0, "ships_count": 0, "projects": [], "coding_time_seconds": 0, "coding_time_seconds_today": 0, "balance": "You need to have a pocket watcher badge to view this.", "badges": [], "created_at": "2025-06-17T15:44:30.261-04:00", "updated_at": "2025-07-03T19:43:34.511-04:00", "avatar": "https://secure.gravatar.com/avatar/34dbcbbc9e567a7873091e8463dd4907.jpg?s=512&d=https%3A%2F%2Fa.slack-edge.com%2Fdf10d%2Fimg%2Favatars%2Fava_0015-512.png", "custom_css": null}, {"id": 7292, "slack_id": "U091FCWMLDD", "display_name": "Dokiro", "bio": null, "projects_count": 2, "devlogs_count": 2, "votes_count": 0, "ships_count": 0, "projects": [{"id": 1985, "title": "A small IA test", "devlogs_count": 1, "created_at": "2025-06-19T20:25:26.680-04:00"}, {"id": 1988, "title": "Arduino Fire Sensor", "devlogs_count": 1, "created_at": "2025-06-19T20:29:51.682-04:00"}], "coding_time_seconds": 2131, "coding_time_seconds_today": 0, "balance": "You need to have a pocket watcher badge to view this.", "badges": [], "created_at": "2025-06-17T15:44:49.257-04:00", "updated_at": "2025-07-04T02:26:35.797-04:00", "avatar": "https://secure.gravatar.com/avatar/19180278354a47339045b238def71cb3.jpg?s=512&d=https%3A%2F%2Fa.slack-edge.com%2Fdf10d%2Fimg%2Favatars%2Fava_0001-512.png", "custom_css": null}, {"id": 7293, "slack_id": "U09297PVCQH", "display_name": "Djeumeni Vianey", "bio": null, "projects_count": 6, "devlogs_count": 15, "votes_count": 58, "ships_count": 4, "projects": [{"id": 8620, "title": "Typing speed test", "devlogs_count": 3, "created_at": "2025-07-28T16:29:55.228-04:00"}, {"id": 10646, "title": "Portfolio ", "devlogs_count": 4, "created_at": "2025-08-09T09:13:16.053-04:00"}, {"id": 12984, "title": "Basketball accesories.", "devlogs_count": 2, "created_at": "2025-09-06T14:36:52.933-04:00"}, {"id": 13337, "title": "Piano Tiles", "devlogs_count": 0, "created_at": "2025-09-14T09:00:59.664-04:00"}, {"id": 2571, "title": "FLAPPY BIRD ", "devlogs_count": 3, "created_at": "2025-06-21T10:54:29.378-04:00"}, {"id": 4283, "title": "calculator ", "devlogs_count": 3, "created_at": "2025-06-28T16:36:10.825-04:00"}], "coding_time_seconds": 352521, "coding_time_seconds_today": 0, "balance": "You need to have a pocket watcher badge to view this.", "badges": [{"name": "Maiden Voyage", "text": "you shipped your first project! the journey begins...", "icon": "\ud83d\udea2"}], "created_at": "2025-06-17T15:45:06.869-04:00", "updated_at": "2025-09-10T22:54:47.413-04:00", "avatar": "https://secure.gravatar.com/avatar/abab98406d03060b8beb67c258896bcb.jpg?s=512&d=https%3A%2F%2Fa.slack-edge.com%2Fdf10d%2Fimg%2Favatars%2Fava_0022-512.png", "custom_css": null}, {"id": 7294, "slack_id": "U091Q7R0UCE", "display_name": "farmeli", "bio": null, "projects_count": 0, "devlogs_count": 0, "votes_count": 0, "ships_count": 0, "projects": [], "coding_time_seconds": 0, "coding_time_seconds_today": 0, "balance": "You need to have a pocket watcher badge to view this.", "badges": [], "created_at": "2025-06-17T15:45:18.103-04:00", "updated_at": "2025-07-05T14:09:11.832-04:00", "avatar": "https://secure.gravatar.com/avatar/214fe650b9ffea09f94ca2160b36c0e5.jpg?s=512&d=https%3A%2F%2Fa.slack-edge.com%2Fdf10d%2Fimg%2Favatars%2Fava_0018-512.png", "custom_css": null}, {"id": 7295, "slack_id": "U091WNE5WLS", "display_name": "Eb Ok", "bio": null, "projects_count": 0, "devlogs_count": 0, "votes_count": 0, "ships_count": 0, "projects": [], "coding_time_seconds": 0, "coding_time_seconds_today": 0, "balance": "You need to have a pocket watcher badge to view this.", "badges": [], "created_at": "2025-06-17T15:45:36.168-04:00", "updated_at": "2025-07-03T21:57:06.459-04:00", "avatar": "https://avatars.slack-edge.com/2025-06-17/9058284665094_46a94984c0cc2f9521f9_original.png", "custom_css": null}, {"id": 7296, "slack_id": "U0929AXBF41", "display_name": "Nash Ali", "bio": null, "projects_count": 0, "devlogs_count": 0, "votes_count": 0, "ships_count": 0, "projects": [], "coding_time_seconds": 0, "coding_time_seconds_today": 0, "balance": "You need to have a pocket watcher badge to view this.", "badges": [], "created_at": "2025-06-17T15:46:12.066-04:00", "updated_at": "2025-07-03T19:43:35.335-04:00", "avatar": "https://avatars.slack-edge.com/2025-06-17/9058108552211_45ffead4984963dc8d6d_original.jpg", "custom_css": null}, {"id": 7297, "slack_id": "U091WNMTDV0", "display_name": "Marcos Hacker", "bio": null, "projects_count": 0, "devlogs_count": 0, "votes_count": 0, "ships_count": 0, "projects": [], "coding_time_seconds": 0, "coding_time_seconds_today": 0, "balance": "You need to have a pocket watcher badge to view this.", "badges": [], "created_at": "2025-06-17T15:46:14.484-04:00", "updated_at": "2025-07-03T19:43:35.607-04:00", "avatar": "https://secure.gravatar.com/avatar/eb472f7c9274033c08dc8953359824c2.jpg?s=512&d=https%3A%2F%2Fa.slack-edge.com%2Fdf10d%2Fimg%2Favatars%2Fava_0000-512.png", "custom_css": null}, {"id": 7298, "slack_id": "U091Q2ZB50T", "display_name": "alex", "bio": null, "projects_count": 0, "devlogs_count": 0, "votes_count": 0, "ships_count": 0, "projects": [], "coding_time_seconds": 0, "coding_time_seconds_today": 0, "balance": "You need to have a pocket watcher badge to view this.", "badges": [], "created_at": "2025-06-17T15:47:48.435-04:00", "updated_at": "2025-07-03T19:43:35.880-04:00", "avatar": "https://secure.gravatar.com/avatar/19ab9b3ec57359f626a2704b47d9ed11.jpg?s=512&d=https%3A%2F%2Fa.slack-edge.com%2Fdf10d%2Fimg%2Favatars%2Fava_0001-512.png", "custom_css": null}, {"id": 7299, "slack_id": "U074B2Y4ANL", "display_name": "sophia", "bio": null, "projects_count": 0, "devlogs_count": 0, "votes_count": 0, "ships_count": 0, "projects": [], "coding_time_seconds": 102913, "coding_time_seconds_today": 0, "balance": "You need to have a pocket watcher badge to view this.", "badges": [], "created_at": "2025-06-17T15:48:13.927-04:00", "updated_at": "2025-08-18T16:55:31.877-04:00", "avatar": "https://avatars.slack-edge.com/2025-05-24/8950704828516_857d1eb02dd0b7d5851c_original.png", "custom_css": null}, {"id": 7300, "slack_id": "U091Q8F9SMC", "display_name": "Sean Scott", "bio": null, "projects_count": 0, "devlogs_count": 0, "votes_count": 0, "ships_count": 0, "projects": [], "coding_time_seconds": 0, "coding_time_seconds_today": 0, "balance": "You need to have a pocket watcher badge to view this.", "badges": [], "created_at": "2025-06-17T15:48:41.916-04:00", "updated_at": "2025-07-03T21:57:06.843-04:00", "avatar": "https://secure.gravatar.com/avatar/80b92ac014114292ee3856e174a88aeb.jpg?s=512&d=https%3A%2F%2Fa.slack-edge.com%2Fdf10d%2Fimg%2Favatars%2Fava_0005-512.png", "custom_css": null}], "pagination": {"page": 365, "pages": 1192, "count": 23828, "items": 20}}