{"users": [{"id": 7301, "slack_id": "U091X5YHH6G", "display_name": "Ben", "bio": null, "projects_count": 3, "devlogs_count": 7, "votes_count": 40, "ships_count": 1, "projects": [{"id": 2299, "title": "GitHub release file finder", "devlogs_count": 1, "created_at": "2025-06-20T16:42:09.071-04:00"}, {"id": 6279, "title": "Pico Audio Mixer", "devlogs_count": 0, "created_at": "2025-07-12T00:05:46.484-04:00"}, {"id": 1106, "title": "Physics Gadget 3", "devlogs_count": 6, "created_at": "2025-06-17T16:27:38.313-04:00"}], "coding_time_seconds": 56248, "coding_time_seconds_today": 0, "balance": "You need to have a pocket watcher badge to view this.", "badges": [{"name": "Maiden Voyage", "text": "you shipped your first project! the journey begins...", "icon": "\ud83d\udea2"}], "created_at": "2025-06-17T15:49:16.304-04:00", "updated_at": "2025-09-10T22:54:47.610-04:00", "avatar": "https://secure.gravatar.com/avatar/4edfe21f0b3da1ae79ce7bdf5cc79eab.jpg?s=512&d=https%3A%2F%2Fa.slack-edge.com%2Fdf10d%2Fimg%2Favatars%2Fava_0005-512.png", "custom_css": null}, {"id": 7302, "slack_id": "U092K5DCL8Y", "display_name": "Philippe Driesch (Phil)", "bio": null, "projects_count": 0, "devlogs_count": 0, "votes_count": 0, "ships_count": 0, "projects": [], "coding_time_seconds": 0, "coding_time_seconds_today": 0, "balance": "You need to have a pocket watcher badge to view this.", "badges": [], "created_at": "2025-06-17T15:50:13.957-04:00", "updated_at": "2025-07-03T19:43:36.816-04:00", "avatar": "https://avatars.slack-edge.com/2025-06-17/9058127141347_d9550f4997315c838453_original.png", "custom_css": null}, {"id": 7303, "slack_id": "U078H6SG59Q", "display_name": "matytyma", "bio": null, "projects_count": 0, "devlogs_count": 0, "votes_count": 0, "ships_count": 0, "projects": [], "coding_time_seconds": 80962, "coding_time_seconds_today": 0, "balance": "You need to have a pocket watcher badge to view this.", "badges": [], "created_at": "2025-06-17T15:50:22.492-04:00", "updated_at": "2025-07-10T11:56:17.046-04:00", "avatar": "https://avatars.slack-edge.com/2024-08-15/7575933502678_8b1842462a1db4417955_original.png", "custom_css": null}, {"id": 7304, "slack_id": "U04N947KGAF", "display_name": "Lucas", "bio": null, "projects_count": 0, "devlogs_count": 0, "votes_count": 0, "ships_count": 0, "projects": [], "coding_time_seconds": 0, "coding_time_seconds_today": 0, "balance": "You need to have a pocket watcher badge to view this.", "badges": [], "created_at": "2025-06-17T15:50:34.025-04:00", "updated_at": "2025-07-03T19:43:37.214-04:00", "avatar": "https://avatars.slack-edge.com/2023-02-07/4754334705557_5937ec23b32eb4f11227_original.png", "custom_css": null}, {"id": 7305, "slack_id": "U091Q23T9AQ", "display_name": "Surya Adhikari", "bio": null, "projects_count": 0, "devlogs_count": 0, "votes_count": 0, "ships_count": 0, "projects": [], "coding_time_seconds": 0, "coding_time_seconds_today": 0, "balance": "You need to have a pocket watcher badge to view this.", "badges": [], "created_at": "2025-06-17T15:51:02.375-04:00", "updated_at": "2025-07-04T08:22:49.946-04:00", "avatar": "https://avatars.slack-edge.com/2025-06-17/9063193330549_e0c52429df40334277b7_original.jpg", "custom_css": null}, {"id": 7306, "slack_id": "U0929AV5G81", "display_name": "Numan shah", "bio": null, "projects_count": 0, "devlogs_count": 0, "votes_count": 0, "ships_count": 0, "projects": [], "coding_time_seconds": 0, "coding_time_seconds_today": 0, "balance": "You need to have a pocket watcher badge to view this.", "badges": [], "created_at": "2025-06-17T15:51:05.763-04:00", "updated_at": "2025-07-03T21:45:14.567-04:00", "avatar": "https://secure.gravatar.com/avatar/4f5c4adebbc142c9f3b1464dd1af08ce.jpg?s=512&d=https%3A%2F%2Fa.slack-edge.com%2Fdf10d%2Fimg%2Favatars%2Fava_0000-512.png", "custom_css": null}, {"id": 7307, "slack_id": "U092K5TDLDN", "display_name": "ACodingGamer", "bio": null, "projects_count": 0, "devlogs_count": 0, "votes_count": 0, "ships_count": 0, "projects": [], "coding_time_seconds": 0, "coding_time_seconds_today": 0, "balance": "You need to have a pocket watcher badge to view this.", "badges": [], "created_at": "2025-06-17T15:51:06.324-04:00", "updated_at": "2025-07-03T19:43:37.817-04:00", "avatar": "https://secure.gravatar.com/avatar/795f59c3b4aed3d70a73828c2279a9a4.jpg?s=512&d=https%3A%2F%2Fa.slack-edge.com%2Fdf10d%2Fimg%2Favatars%2Fava_0008-512.png", "custom_css": null}, {"id": 7308, "slack_id": "U092K49LMR6", "display_name": "Sysiu", "bio": null, "projects_count": 0, "devlogs_count": 0, "votes_count": 0, "ships_count": 0, "projects": [], "coding_time_seconds": 0, "coding_time_seconds_today": 0, "balance": "You need to have a pocket watcher badge to view this.", "badges": [], "created_at": "2025-06-17T15:51:30.093-04:00", "updated_at": "2025-07-03T19:43:38.084-04:00", "avatar": "https://secure.gravatar.com/avatar/e8ea62b4fd288c9d4145577b8effa08d.jpg?s=512&d=https%3A%2F%2Fa.slack-edge.com%2Fdf10d%2Fimg%2Favatars%2Fava_0018-512.png", "custom_css": null}, {"id": 7309, "slack_id": "U0929BMNNL9", "display_name": "Fernando Spillere", "bio": null, "projects_count": 0, "devlogs_count": 0, "votes_count": 0, "ships_count": 0, "projects": [], "coding_time_seconds": 0, "coding_time_seconds_today": 0, "balance": "You need to have a pocket watcher badge to view this.", "badges": [], "created_at": "2025-06-17T15:51:31.885-04:00", "updated_at": "2025-07-03T19:43:38.375-04:00", "avatar": "https://secure.gravatar.com/avatar/88b02b13286bcbc32a73599dc1a3cce0.jpg?s=512&d=https%3A%2F%2Fa.slack-edge.com%2Fdf10d%2Fimg%2Favatars%2Fava_0001-512.png", "custom_css": null}, {"id": 7310, "slack_id": "U091FE5QJNT", "display_name": "James Y", "bio": "", "projects_count": 3, "devlogs_count": 14, "votes_count": 56, "ships_count": 3, "projects": [{"id": 3184, "title": "SteamSort", "devlogs_count": 10, "created_at": "2025-06-23T11:05:05.395-04:00"}, {"id": 12396, "title": "ASCII-ify", "devlogs_count": 1, "created_at": "2025-08-26T19:53:53.954-04:00"}, {"id": 7080, "title": "Pokemon-ify", "devlogs_count": 3, "created_at": "2025-07-18T21:09:26.380-04:00"}], "coding_time_seconds": 249717, "coding_time_seconds_today": 0, "balance": "You need to have a pocket watcher badge to view this.", "badges": [{"name": "Maiden Voyage", "text": "you shipped your first project! the journey begins...", "icon": "\ud83d\udea2"}, {"name": "Graphic Design is My Passion", "text": "Oh God How Did This Get Here I Am Not Good With Computer", "icon": "\ud83c\udfa8"}, {"name": "Spider", "text": "this user has a pet!", "icon": "\ud83d\udd77\ufe0f"}], "created_at": "2025-06-17T15:52:30.112-04:00", "updated_at": "2025-09-10T22:54:47.871-04:00", "avatar": "https://avatars.slack-edge.com/2025-06-17/9049493724775_93d782f4f22c9ff6311f_original.png", "custom_css": "/* Profile-specific classes */\r\n.profile-container {\r\n/* Main container */\r\nbackground-color: #dedede;\r\nfont-family: sans-serif;\r\n}\r\n.profile-header {\r\nbackground-color: #dedede;\r\n}\r\n.profile-avatar {\r\nbackground-color: #dedede;\r\n}\r\n.profile-name {\r\nbackground-color: #dedede;\r\n}\r\n.profile-bio {\r\nbackground-color: #dedede;\r\n}\r\n.profile-stats {\r\nbackground-color: #dedede;\r\n}\r\n.profile-stat {\r\nbackground-color: #dedede;\r\n}\r\n.card-with-gradient {\r\nbackground-color: #dedede;\r\n}\r\n#todo-button {\r\ndisplay: none;\r\n}\r\n* > * {\r\nbackground-color: #dedede;\r\nbackground-image: none;\r\n}"}, {"id": 7311, "slack_id": "U092K5SES1W", "display_name": "Sirius", "bio": null, "projects_count": 0, "devlogs_count": 0, "votes_count": 0, "ships_count": 0, "projects": [], "coding_time_seconds": 0, "coding_time_seconds_today": 0, "balance": "You need to have a pocket watcher badge to view this.", "badges": [], "created_at": "2025-06-17T15:52:34.417-04:00", "updated_at": "2025-07-03T19:43:38.916-04:00", "avatar": "https://secure.gravatar.com/avatar/d60f42b0d8b821a8944fc0741aec352a.jpg?s=512&d=https%3A%2F%2Fa.slack-edge.com%2Fdf10d%2Fimg%2Favatars%2Fava_0026-512.png", "custom_css": null}, {"id": 7312, "slack_id": "U091Q8P4RT8", "display_name": "Shaheryar", "bio": null, "projects_count": 0, "devlogs_count": 0, "votes_count": 0, "ships_count": 0, "projects": [], "coding_time_seconds": 0, "coding_time_seconds_today": 0, "balance": "You need to have a pocket watcher badge to view this.", "badges": [], "created_at": "2025-06-17T15:53:25.317-04:00", "updated_at": "2025-07-07T14:36:15.844-04:00", "avatar": "https://secure.gravatar.com/avatar/cae797114cab9e34c7c0cd4d7b4ff417.jpg?s=512&d=https%3A%2F%2Fa.slack-edge.com%2Fdf10d%2Fimg%2Favatars%2Fava_0007-512.png", "custom_css": null}, {"id": 7313, "slack_id": "U091V5HPGAH", "display_name": "Kaushik Mudaliar", "bio": null, "projects_count": 0, "devlogs_count": 0, "votes_count": 0, "ships_count": 0, "projects": [], "coding_time_seconds": 0, "coding_time_seconds_today": 0, "balance": "You need to have a pocket watcher badge to view this.", "badges": [], "created_at": "2025-06-17T15:53:35.597-04:00", "updated_at": "2025-07-03T19:43:39.324-04:00", "avatar": "https://avatars.slack-edge.com/2025-06-17/9065237892660_443a6c80b4c1c470e28d_original.png", "custom_css": null}, {"id": 7314, "slack_id": "U091WPKARNW", "display_name": "DARIO XAVIER CONSTANTE GONZALEZ", "bio": null, "projects_count": 0, "devlogs_count": 0, "votes_count": 0, "ships_count": 0, "projects": [], "coding_time_seconds": 0, "coding_time_seconds_today": 0, "balance": "You need to have a pocket watcher badge to view this.", "badges": [], "created_at": "2025-06-17T15:53:57.282-04:00", "updated_at": "2025-07-03T19:43:39.585-04:00", "avatar": "https://avatars.slack-edge.com/2025-06-17/9063208480933_777ee97991750877cc67_original.jpg", "custom_css": null}, {"id": 7315, "slack_id": "U088KU2425P", "display_name": "Joshua Cohen", "bio": null, "projects_count": 1, "devlogs_count": 0, "votes_count": 3, "ships_count": 0, "projects": [{"id": 2725, "title": "Regents Practice Tool", "devlogs_count": 0, "created_at": "2025-06-21T21:27:36.014-04:00"}], "coding_time_seconds": 49186, "coding_time_seconds_today": 0, "balance": "You need to have a pocket watcher badge to view this.", "badges": [], "created_at": "2025-06-17T15:55:06.829-04:00", "updated_at": "2025-08-15T18:59:46.107-04:00", "avatar": "https://avatars.slack-edge.com/2025-06-02/9013198525024_d9a30fb7d7d91eb4a95d_original.png", "custom_css": null}, {"id": 7316, "slack_id": "U092JDQQGGY", "display_name": "Vincent Qi", "bio": null, "projects_count": 0, "devlogs_count": 0, "votes_count": 0, "ships_count": 0, "projects": [], "coding_time_seconds": 0, "coding_time_seconds_today": 0, "balance": "You need to have a pocket watcher badge to view this.", "badges": [], "created_at": "2025-06-17T15:55:51.591-04:00", "updated_at": "2025-07-03T19:43:40.136-04:00", "avatar": "https://avatars.slack-edge.com/2025-06-17/9064827041794_5a784f7ae9d428ecc388_original.jpg", "custom_css": null}, {"id": 7317, "slack_id": "U091Q2PJ519", "display_name": "tobias", "bio": null, "projects_count": 0, "devlogs_count": 0, "votes_count": 0, "ships_count": 0, "projects": [], "coding_time_seconds": 0, "coding_time_seconds_today": 0, "balance": "You need to have a pocket watcher badge to view this.", "badges": [], "created_at": "2025-06-17T15:56:08.547-04:00", "updated_at": "2025-07-03T21:45:15.431-04:00", "avatar": "https://secure.gravatar.com/avatar/a12f47895b38bdc613b0a37621f95d27.jpg?s=512&d=https%3A%2F%2Fa.slack-edge.com%2Fdf10d%2Fimg%2Favatars%2Fava_0012-512.png", "custom_css": null}, {"id": 7318, "slack_id": "U091X6PDT60", "display_name": "stockifab", "bio": null, "projects_count": 0, "devlogs_count": 0, "votes_count": 0, "ships_count": 0, "projects": [], "coding_time_seconds": 5220, "coding_time_seconds_today": 0, "balance": "You need to have a pocket watcher badge to view this.", "badges": [], "created_at": "2025-06-17T15:56:31.371-04:00", "updated_at": "2025-07-03T21:57:08.044-04:00", "avatar": "https://secure.gravatar.com/avatar/4e3a7950c4e85f570e0b36c11a597d45.jpg?s=512&d=https%3A%2F%2Fa.slack-edge.com%2Fdf10d%2Fimg%2Favatars%2Fava_0025-512.png", "custom_css": null}, {"id": 7319, "slack_id": "U091FETM7T9", "display_name": "Pranav Aravindan", "bio": null, "projects_count": 2, "devlogs_count": 10, "votes_count": 1, "ships_count": 0, "projects": [{"id": 1195, "title": "Mobile App", "devlogs_count": 2, "created_at": "2025-06-17T21:44:42.874-04:00"}, {"id": 1434, "title": "rosmaster", "devlogs_count": 8, "created_at": "2025-06-18T14:47:32.847-04:00"}], "coding_time_seconds": 620355, "coding_time_seconds_today": 0, "balance": "You need to have a pocket watcher badge to view this.", "badges": [], "created_at": "2025-06-17T15:57:15.204-04:00", "updated_at": "2025-07-03T19:43:40.686-04:00", "avatar": "https://secure.gravatar.com/avatar/745ea71faa65f9839bebbf4c77836e48.jpg?s=512&d=https%3A%2F%2Fa.slack-edge.com%2Fdf10d%2Fimg%2Favatars%2Fava_0001-512.png", "custom_css": null}, {"id": 7320, "slack_id": "U091WQ5EX98", "display_name": "Pratik", "bio": null, "projects_count": 0, "devlogs_count": 0, "votes_count": 0, "ships_count": 0, "projects": [], "coding_time_seconds": 0, "coding_time_seconds_today": 0, "balance": "You need to have a pocket watcher badge to view this.", "badges": [], "created_at": "2025-06-17T15:57:58.827-04:00", "updated_at": "2025-07-03T19:43:40.947-04:00", "avatar": "https://secure.gravatar.com/avatar/cd5d7cbcd8d192e2d85fcb223f6f53a0.jpg?s=512&d=https%3A%2F%2Fa.slack-edge.com%2Fdf10d%2Fimg%2Favatars%2Fava_0011-512.png", "custom_css": null}], "pagination": {"page": 366, "pages": 1192, "count": 23828, "items": 20}}