{"users": [{"id": 7321, "slack_id": "U091Q7VM3TQ", "display_name": "Patryk B", "bio": null, "projects_count": 1, "devlogs_count": 0, "votes_count": 0, "ships_count": 0, "projects": [{"id": 1120, "title": "Anonymous Canvas", "devlogs_count": 0, "created_at": "2025-06-17T16:55:19.756-04:00"}], "coding_time_seconds": 17161, "coding_time_seconds_today": 0, "balance": "You need to have a pocket watcher badge to view this.", "badges": [], "created_at": "2025-06-17T15:58:19.819-04:00", "updated_at": "2025-07-03T19:43:41.273-04:00", "avatar": "https://avatars.slack-edge.com/2025-06-17/9064985138770_af3977a878e51ebf5a7f_original.jpg", "custom_css": null}, {"id": 7322, "slack_id": "U091WQBEN3C", "display_name": "TEJASHVI RAJ 22BEC10029", "bio": null, "projects_count": 0, "devlogs_count": 0, "votes_count": 0, "ships_count": 0, "projects": [], "coding_time_seconds": 0, "coding_time_seconds_today": 0, "balance": "You need to have a pocket watcher badge to view this.", "badges": [], "created_at": "2025-06-17T15:58:37.701-04:00", "updated_at": "2025-07-03T19:43:41.536-04:00", "avatar": "https://avatars.slack-edge.com/2025-06-17/9077445560577_693e27379ee47de18580_original.png", "custom_css": null}, {"id": 7323, "slack_id": "U091G2EV4M9", "display_name": "Cole H", "bio": null, "projects_count": 0, "devlogs_count": 0, "votes_count": 0, "ships_count": 0, "projects": [], "coding_time_seconds": 0, "coding_time_seconds_today": 0, "balance": "You need to have a pocket watcher badge to view this.", "badges": [], "created_at": "2025-06-17T15:58:42.400-04:00", "updated_at": "2025-07-03T21:45:15.885-04:00", "avatar": "https://avatars.slack-edge.com/2025-06-20/9095832777649_31397d7d64f9c1af710b_original.png", "custom_css": null}, {"id": 7324, "slack_id": "U092K45UPUG", "display_name": "blinderchief", "bio": null, "projects_count": 0, "devlogs_count": 0, "votes_count": 0, "ships_count": 0, "projects": [], "coding_time_seconds": 0, "coding_time_seconds_today": 0, "balance": "You need to have a pocket watcher badge to view this.", "badges": [], "created_at": "2025-06-17T15:59:12.818-04:00", "updated_at": "2025-07-03T19:43:41.943-04:00", "avatar": "https://secure.gravatar.com/avatar/96eec4ef399d5b803d19de4d11b69f40.jpg?s=512&d=https%3A%2F%2Fa.slack-edge.com%2Fdf10d%2Fimg%2Favatars%2Fava_0026-512.png", "custom_css": null}, {"id": 7325, "slack_id": "U06SZ1K0NQ3", "display_name": "Zainab", "bio": null, "projects_count": 0, "devlogs_count": 0, "votes_count": 0, "ships_count": 0, "projects": [], "coding_time_seconds": 0, "coding_time_seconds_today": 0, "balance": "You need to have a pocket watcher badge to view this.", "badges": [], "created_at": "2025-06-17T15:59:35.790-04:00", "updated_at": "2025-07-03T19:43:42.210-04:00", "avatar": "https://avatars.slack-edge.com/2024-05-01/7046620423334_5016851dfbf420b24053_original.jpg", "custom_css": null}, {"id": 7326, "slack_id": "U091X799W76", "display_name": "rafal06", "bio": null, "projects_count": 0, "devlogs_count": 0, "votes_count": 0, "ships_count": 0, "projects": [], "coding_time_seconds": 82, "coding_time_seconds_today": 0, "balance": "You need to have a pocket watcher badge to view this.", "badges": [], "created_at": "2025-06-17T15:59:42.044-04:00", "updated_at": "2025-07-03T19:43:42.472-04:00", "avatar": "https://secure.gravatar.com/avatar/568c6c74ce238e635fa9ed10bb28c6d2.jpg?s=512&d=https%3A%2F%2Fa.slack-edge.com%2Fdf10d%2Fimg%2Favatars%2Fava_0013-512.png", "custom_css": null}, {"id": 7327, "slack_id": "U07DY5PR7RR", "display_name": "Aayush Choudhary", "bio": null, "projects_count": 0, "devlogs_count": 0, "votes_count": 0, "ships_count": 0, "projects": [], "coding_time_seconds": 1609, "coding_time_seconds_today": 0, "balance": "You need to have a pocket watcher badge to view this.", "badges": [], "created_at": "2025-06-17T16:00:05.897-04:00", "updated_at": "2025-07-03T19:43:42.742-04:00", "avatar": "https://secure.gravatar.com/avatar/78664e23afb2af49b867b2c95b27474b.jpg?s=512&d=https%3A%2F%2Fa.slack-edge.com%2Fdf10d%2Fimg%2Favatars%2Fava_0004-512.png", "custom_css": null}, {"id": 7328, "slack_id": "U091Q4G5Z0T", "display_name": "Taran", "bio": null, "projects_count": 0, "devlogs_count": 0, "votes_count": 0, "ships_count": 0, "projects": [], "coding_time_seconds": 221939, "coding_time_seconds_today": 0, "balance": "You need to have a pocket watcher badge to view this.", "badges": [], "created_at": "2025-06-17T16:00:17.984-04:00", "updated_at": "2025-07-03T19:43:43.006-04:00", "avatar": "https://secure.gravatar.com/avatar/27640edfc9bbf9a180d55ba6fadc76b3.jpg?s=512&d=https%3A%2F%2Fa.slack-edge.com%2Fdf10d%2Fimg%2Favatars%2Fava_0014-512.png", "custom_css": null}, {"id": 7329, "slack_id": "U092K6L3RNC", "display_name": "Khanam", "bio": null, "projects_count": 0, "devlogs_count": 0, "votes_count": 0, "ships_count": 0, "projects": [], "coding_time_seconds": 0, "coding_time_seconds_today": 0, "balance": "You need to have a pocket watcher badge to view this.", "badges": [], "created_at": "2025-06-17T16:00:52.691-04:00", "updated_at": "2025-07-03T21:57:09.173-04:00", "avatar": "https://secure.gravatar.com/avatar/fed9da67c6ef97ba89d1bc5770ef476c.jpg?s=512&d=https%3A%2F%2Fa.slack-edge.com%2Fdf10d%2Fimg%2Favatars%2Fava_0023-512.png", "custom_css": null}, {"id": 7330, "slack_id": "U091FFBM623", "display_name": "Pranav Kanchi", "bio": null, "projects_count": 0, "devlogs_count": 0, "votes_count": 0, "ships_count": 0, "projects": [], "coding_time_seconds": 19849, "coding_time_seconds_today": 0, "balance": "You need to have a pocket watcher badge to view this.", "badges": [], "created_at": "2025-06-17T16:01:28.561-04:00", "updated_at": "2025-07-05T08:08:32.393-04:00", "avatar": "https://avatars.slack-edge.com/2025-06-17/9087269096864_1c8d6921abadea9adad3_original.png", "custom_css": null}, {"id": 7331, "slack_id": "U092K7K0NRW", "display_name": "Ziad Ihab", "bio": null, "projects_count": 5, "devlogs_count": 6, "votes_count": 23, "ships_count": 5, "projects": [{"id": 6546, "title": "Ice Cream Heaven", "devlogs_count": 1, "created_at": "2025-07-14T06:37:26.420-04:00"}, {"id": 4775, "title": "Bug Squasher", "devlogs_count": 1, "created_at": "2025-07-01T12:52:15.955-04:00"}, {"id": 6544, "title": "Million-Dollar-Cup-Gam", "devlogs_count": 2, "created_at": "2025-07-14T06:04:11.162-04:00"}, {"id": 5585, "title": "COOKIE-MYSTERY", "devlogs_count": 1, "created_at": "2025-07-06T11:37:07.005-04:00"}, {"id": 4484, "title": "Personal-Portfolio", "devlogs_count": 1, "created_at": "2025-06-30T08:28:02.842-04:00"}], "coding_time_seconds": 100325, "coding_time_seconds_today": 0, "balance": "You need to have a pocket watcher badge to view this.", "badges": [{"name": "Maiden Voyage", "text": "you shipped your first project! the journey begins...", "icon": "\ud83d\udea2"}], "created_at": "2025-06-17T16:02:14.938-04:00", "updated_at": "2025-09-10T22:54:48.440-04:00", "avatar": "https://secure.gravatar.com/avatar/9290837d315cc1c4d0717cda11c54a94.jpg?s=512&d=https%3A%2F%2Fa.slack-edge.com%2Fdf10d%2Fimg%2Favatars%2Fava_0011-512.png", "custom_css": null}, {"id": 7332, "slack_id": "U091WR4K9L2", "display_name": "Jayden", "bio": null, "projects_count": 0, "devlogs_count": 0, "votes_count": 0, "ships_count": 0, "projects": [], "coding_time_seconds": 24198, "coding_time_seconds_today": 0, "balance": "You need to have a pocket watcher badge to view this.", "badges": [], "created_at": "2025-06-17T16:02:47.399-04:00", "updated_at": "2025-07-03T19:43:43.676-04:00", "avatar": "https://secure.gravatar.com/avatar/3bbd2c362265efaa59ae02cec7a2d522.jpg?s=512&d=https%3A%2F%2Fa.slack-edge.com%2Fdf10d%2Fimg%2Favatars%2Fava_0014-512.png", "custom_css": null}, {"id": 7333, "slack_id": "U091X7LFJS0", "display_name": "slothtasticcoding", "bio": null, "projects_count": 2, "devlogs_count": 10, "votes_count": 24, "ships_count": 1, "projects": [{"id": 4507, "title": "prototype 2Dcombat  template", "devlogs_count": 9, "created_at": "2025-06-30T10:59:40.134-04:00"}, {"id": 13568, "title": "Calculator In Godot", "devlogs_count": 1, "created_at": "2025-09-19T16:27:38.143-04:00"}], "coding_time_seconds": 54449, "coding_time_seconds_today": 0, "balance": "You need to have a pocket watcher badge to view this.", "badges": [{"name": "Maiden Voyage", "text": "you shipped your first project! the journey begins...", "icon": "\ud83d\udea2"}], "created_at": "2025-06-17T16:03:15.533-04:00", "updated_at": "2025-09-10T22:54:48.501-04:00", "avatar": "https://secure.gravatar.com/avatar/126cfa922106358b1626adb5ac8f4e98.jpg?s=512&d=https%3A%2F%2Fa.slack-edge.com%2Fdf10d%2Fimg%2Favatars%2Fava_0008-512.png", "custom_css": null}, {"id": 7334, "slack_id": "U091V7JDEKF", "display_name": "Noble Singh", "bio": null, "projects_count": 0, "devlogs_count": 0, "votes_count": 0, "ships_count": 0, "projects": [], "coding_time_seconds": 0, "coding_time_seconds_today": 0, "balance": "You need to have a pocket watcher badge to view this.", "badges": [], "created_at": "2025-06-17T16:04:02.841-04:00", "updated_at": "2025-07-03T19:43:44.200-04:00", "avatar": "https://avatars.slack-edge.com/2025-06-17/9065297723268_b7fb57eab5fc3aa3c40e_original.png", "custom_css": null}, {"id": 7335, "slack_id": "U091FF613FH", "display_name": "abdalla", "bio": null, "projects_count": 0, "devlogs_count": 47, "votes_count": 136, "ships_count": 0, "projects": [], "coding_time_seconds": 422724, "coding_time_seconds_today": 0, "balance": "You need to have a pocket watcher badge to view this.", "badges": [{"name": "Maiden Voyage", "text": "you shipped your first project! the journey begins...", "icon": "\ud83d\udea2"}, {"name": "Ballot Stuffer", "text": "vote 100 times.", "icon": "https://summer.hackclub.com/assets/i_voted-bf851b48.png"}], "created_at": "2025-06-17T16:04:07.700-04:00", "updated_at": "2025-09-10T22:54:48.560-04:00", "avatar": "https://avatars.slack-edge.com/2025-06-30/9114139528263_99ece643af2c159f31af_original.png", "custom_css": null}, {"id": 7336, "slack_id": "U090VV0DE65", "display_name": "Apollo Quan", "bio": null, "projects_count": 2, "devlogs_count": 5, "votes_count": 18, "ships_count": 1, "projects": [{"id": 12315, "title": "Blackjack", "devlogs_count": 0, "created_at": "2025-08-25T15:10:28.864-04:00"}, {"id": 1962, "title": "Mario Clicker", "devlogs_count": 5, "created_at": "2025-06-19T18:07:01.004-04:00"}], "coding_time_seconds": 22301, "coding_time_seconds_today": 0, "balance": "You need to have a pocket watcher badge to view this.", "badges": [{"name": "Maiden Voyage", "text": "you shipped your first project! the journey begins...", "icon": "\ud83d\udea2"}], "created_at": "2025-06-17T16:04:30.175-04:00", "updated_at": "2025-09-10T22:54:48.595-04:00", "avatar": "https://secure.gravatar.com/avatar/c4d9bc8ac2521e4e7fc7d4e6e14c2e99.jpg?s=512&d=https%3A%2F%2Fa.slack-edge.com%2Fdf10d%2Fimg%2Favatars%2Fava_0017-512.png", "custom_css": null}, {"id": 7337, "slack_id": "U091V3E1R1T", "display_name": "Michael perez", "bio": null, "projects_count": 0, "devlogs_count": 0, "votes_count": 0, "ships_count": 0, "projects": [], "coding_time_seconds": 0, "coding_time_seconds_today": 0, "balance": "You need to have a pocket watcher badge to view this.", "badges": [], "created_at": "2025-06-17T16:04:48.789-04:00", "updated_at": "2025-07-03T21:57:09.749-04:00", "avatar": "https://secure.gravatar.com/avatar/09cb5e2a2edf4e449cd0e30644ef6e3e.jpg?s=512&d=https%3A%2F%2Fa.slack-edge.com%2Fdf10d%2Fimg%2Favatars%2Fava_0012-512.png", "custom_css": null}, {"id": 7338, "slack_id": "U091V456UUD", "display_name": "Eugene", "bio": null, "projects_count": 0, "devlogs_count": 0, "votes_count": 0, "ships_count": 0, "projects": [], "coding_time_seconds": 0, "coding_time_seconds_today": 0, "balance": "You need to have a pocket watcher badge to view this.", "badges": [], "created_at": "2025-06-17T16:05:02.439-04:00", "updated_at": "2025-07-03T19:43:45.023-04:00", "avatar": "https://secure.gravatar.com/avatar/46f2e8f07364ff9bc8ba2797f8f12341.jpg?s=512&d=https%3A%2F%2Fa.slack-edge.com%2Fdf10d%2Fimg%2Favatars%2Fava_0009-512.png", "custom_css": null}, {"id": 7339, "slack_id": "U092K7FCN0G", "display_name": "Tsoureki", "bio": null, "projects_count": 0, "devlogs_count": 0, "votes_count": 0, "ships_count": 0, "projects": [], "coding_time_seconds": 0, "coding_time_seconds_today": 0, "balance": "You need to have a pocket watcher badge to view this.", "badges": [], "created_at": "2025-06-17T16:05:07.220-04:00", "updated_at": "2025-07-04T02:26:38.738-04:00", "avatar": "https://secure.gravatar.com/avatar/a4198052b94cbbb7271922b9542915dd.jpg?s=512&d=https%3A%2F%2Fa.slack-edge.com%2Fdf10d%2Fimg%2Favatars%2Fava_0014-512.png", "custom_css": null}, {"id": 7340, "slack_id": "U091WRF4B3L", "display_name": "Fede Vitu", "bio": null, "projects_count": 0, "devlogs_count": 0, "votes_count": 0, "ships_count": 0, "projects": [], "coding_time_seconds": 65019, "coding_time_seconds_today": 0, "balance": "You need to have a pocket watcher badge to view this.", "badges": [], "created_at": "2025-06-17T16:05:18.622-04:00", "updated_at": "2025-07-03T19:43:45.419-04:00", "avatar": "https://secure.gravatar.com/avatar/4cfd3af6f8b7b30b28f954ca3328cec4.jpg?s=512&d=https%3A%2F%2Fa.slack-edge.com%2Fdf10d%2Fimg%2Favatars%2Fava_0026-512.png", "custom_css": null}], "pagination": {"page": 367, "pages": 1192, "count": 23828, "items": 20}}