{"users": [{"id": 7341, "slack_id": "U091QB9NYPQ", "display_name": "Diogo Florencio", "bio": null, "projects_count": 0, "devlogs_count": 0, "votes_count": 0, "ships_count": 0, "projects": [], "coding_time_seconds": 0, "coding_time_seconds_today": 0, "balance": "You need to have a pocket watcher badge to view this.", "badges": [], "created_at": "2025-06-17T16:06:38.705-04:00", "updated_at": "2025-07-03T22:35:45.165-04:00", "avatar": "https://secure.gravatar.com/avatar/18393f573fdf20f9beab637c77803b2c.jpg?s=512&d=https%3A%2F%2Fa.slack-edge.com%2Fdf10d%2Fimg%2Favatars%2Fava_0020-512.png", "custom_css": null}, {"id": 7342, "slack_id": "U091QBD709L", "display_name": "EA", "bio": null, "projects_count": 0, "devlogs_count": 0, "votes_count": 0, "ships_count": 0, "projects": [], "coding_time_seconds": 0, "coding_time_seconds_today": 0, "balance": "You need to have a pocket watcher badge to view this.", "badges": [], "created_at": "2025-06-17T16:07:08.401-04:00", "updated_at": "2025-07-03T21:57:10.120-04:00", "avatar": "https://avatars.slack-edge.com/2025-06-17/9049577059655_06d9903000102055fa8b_original.jpg", "custom_css": null}, {"id": 7343, "slack_id": "U092K8F2AAC", "display_name": "nathan t", "bio": null, "projects_count": 3, "devlogs_count": 37, "votes_count": 20, "ships_count": 1, "projects": [{"id": 1103, "title": "CanvAI", "devlogs_count": 0, "created_at": "2025-06-17T16:21:56.549-04:00"}, {"id": 1131, "title": "Portfolio Website", "devlogs_count": 8, "created_at": "2025-06-17T17:18:00.137-04:00"}, {"id": 1201, "title": "DeepFocus", "devlogs_count": 29, "created_at": "2025-06-17T22:12:45.956-04:00"}], "coding_time_seconds": 314636, "coding_time_seconds_today": 0, "balance": "You need to have a pocket watcher badge to view this.", "badges": [{"name": "Maiden Voyage", "text": "you shipped your first project! the journey begins...", "icon": "\ud83d\udea2"}], "created_at": "2025-06-17T16:07:32.163-04:00", "updated_at": "2025-09-10T22:54:48.795-04:00", "avatar": "https://secure.gravatar.com/avatar/c857aa3e8424f46a0ffbf337fdd1abf0.jpg?s=512&d=https%3A%2F%2Fa.slack-edge.com%2Fdf10d%2Fimg%2Favatars%2Fava_0025-512.png", "custom_css": null}, {"id": 7344, "slack_id": "U091WRZRW10", "display_name": "Wu Haobin", "bio": null, "projects_count": 0, "devlogs_count": 0, "votes_count": 0, "ships_count": 0, "projects": [], "coding_time_seconds": 306198, "coding_time_seconds_today": 6174, "balance": "You need to have a pocket watcher badge to view this.", "badges": [], "created_at": "2025-06-17T16:08:24.920-04:00", "updated_at": "2025-07-03T19:43:46.218-04:00", "avatar": "https://secure.gravatar.com/avatar/ad3f08d4d4ca3395c8ce8f4d6e1b8513.jpg?s=512&d=https%3A%2F%2Fa.slack-edge.com%2Fdf10d%2Fimg%2Favatars%2Fava_0023-512.png", "custom_css": null}, {"id": 7345, "slack_id": "U092K8FUY64", "display_name": "sarmad", "bio": null, "projects_count": 1, "devlogs_count": 3, "votes_count": 21, "ships_count": 1, "projects": [{"id": 5732, "title": "Youtube Video Downloader ", "devlogs_count": 3, "created_at": "2025-07-07T15:25:57.761-04:00"}], "coding_time_seconds": 69505, "coding_time_seconds_today": 0, "balance": "You need to have a pocket watcher badge to view this.", "badges": [{"name": "Maiden Voyage", "text": "you shipped your first project! the journey begins...", "icon": "\ud83d\udea2"}], "created_at": "2025-06-17T16:08:41.653-04:00", "updated_at": "2025-09-19T14:03:55.131-04:00", "avatar": "https://avatars.slack-edge.com/2025-09-19/9550221293042_c9d7ae34b90441aad5a5_original.jpg", "custom_css": null}, {"id": 7346, "slack_id": "U091X9303T6", "display_name": "Daniyal", "bio": null, "projects_count": 2, "devlogs_count": 3, "votes_count": 0, "ships_count": 0, "projects": [{"id": 1132, "title": "Exoplanet-analysis", "devlogs_count": 3, "created_at": "2025-06-17T17:18:41.805-04:00"}, {"id": 2217, "title": "correlation-of-stellar-temp-and-planet-type", "devlogs_count": 0, "created_at": "2025-06-20T13:18:44.064-04:00"}], "coding_time_seconds": 34793, "coding_time_seconds_today": 176, "balance": "You need to have a pocket watcher badge to view this.", "badges": [], "created_at": "2025-06-17T16:08:56.788-04:00", "updated_at": "2025-08-03T03:59:37.234-04:00", "avatar": "https://secure.gravatar.com/avatar/54d97d0ce25a04b2f8033b46b09d35be.jpg?s=512&d=https%3A%2F%2Fa.slack-edge.com%2Fdf10d%2Fimg%2Favatars%2Fava_0009-512.png", "custom_css": null}, {"id": 7347, "slack_id": "U092K8RCURE", "display_name": "Hugo Preciado", "bio": null, "projects_count": 0, "devlogs_count": 0, "votes_count": 0, "ships_count": 0, "projects": [], "coding_time_seconds": 0, "coding_time_seconds_today": 0, "balance": "You need to have a pocket watcher badge to view this.", "badges": [], "created_at": "2025-06-17T16:09:13.473-04:00", "updated_at": "2025-07-05T14:09:15.541-04:00", "avatar": "https://secure.gravatar.com/avatar/6c40e2b746dce3d4480614527b5b5c32.jpg?s=512&d=https%3A%2F%2Fa.slack-edge.com%2Fdf10d%2Fimg%2Favatars%2Fava_0004-512.png", "custom_css": null}, {"id": 7348, "slack_id": "U0926SY4K4Z", "display_name": "Manish Chaudhari", "bio": null, "projects_count": 0, "devlogs_count": 0, "votes_count": 0, "ships_count": 0, "projects": [], "coding_time_seconds": 0, "coding_time_seconds_today": 0, "balance": "You need to have a pocket watcher badge to view this.", "badges": [], "created_at": "2025-06-17T16:09:36.421-04:00", "updated_at": "2025-07-03T19:43:47.134-04:00", "avatar": "https://secure.gravatar.com/avatar/bfca2d3c01380b2f8759a1a3cafc474a.jpg?s=512&d=https%3A%2F%2Fa.slack-edge.com%2Fdf10d%2Fimg%2Favatars%2Fava_0000-512.png", "custom_css": null}, {"id": 7349, "slack_id": "U091WS7HH98", "display_name": "Guilherme A", "bio": null, "projects_count": 0, "devlogs_count": 0, "votes_count": 0, "ships_count": 0, "projects": [], "coding_time_seconds": 0, "coding_time_seconds_today": 0, "balance": "You need to have a pocket watcher badge to view this.", "badges": [], "created_at": "2025-06-17T16:09:42.415-04:00", "updated_at": "2025-07-03T19:43:47.417-04:00", "avatar": "https://secure.gravatar.com/avatar/8b27fdabe5ee591a7a1fd28cdcca8724.jpg?s=512&d=https%3A%2F%2Fa.slack-edge.com%2Fdf10d%2Fimg%2Favatars%2Fava_0018-512.png", "custom_css": null}, {"id": 7350, "slack_id": "U092K8BEKMW", "display_name": "Santiago", "bio": null, "projects_count": 0, "devlogs_count": 0, "votes_count": 0, "ships_count": 0, "projects": [], "coding_time_seconds": 0, "coding_time_seconds_today": 0, "balance": "You need to have a pocket watcher badge to view this.", "badges": [], "created_at": "2025-06-17T16:09:56.712-04:00", "updated_at": "2025-07-03T19:43:47.696-04:00", "avatar": "https://secure.gravatar.com/avatar/74d32f52112e8b9cd566f1eedd02ec38.jpg?s=512&d=https%3A%2F%2Fa.slack-edge.com%2Fdf10d%2Fimg%2Favatars%2Fava_0024-512.png", "custom_css": null}, {"id": 7351, "slack_id": "U05QJ4CF5QT", "display_name": "random user", "bio": null, "projects_count": 1, "devlogs_count": 3, "votes_count": 4, "ships_count": 0, "projects": [{"id": 9924, "title": "slakdact-cli", "devlogs_count": 3, "created_at": "2025-08-03T00:11:11.379-04:00"}], "coding_time_seconds": 139199, "coding_time_seconds_today": 0, "balance": "You need to have a pocket watcher badge to view this.", "badges": [], "created_at": "2025-06-17T16:10:16.568-04:00", "updated_at": "2025-09-22T18:44:19.265-04:00", "avatar": "https://avatars.slack-edge.com/2025-09-23/9560621877941_f764bc1ea17c4d162ec8_original.png", "custom_css": null}, {"id": 7352, "slack_id": "U091V8D9MJR", "display_name": "Yuliana Reyes", "bio": null, "projects_count": 0, "devlogs_count": 0, "votes_count": 0, "ships_count": 0, "projects": [], "coding_time_seconds": 0, "coding_time_seconds_today": 0, "balance": "You need to have a pocket watcher badge to view this.", "badges": [], "created_at": "2025-06-17T16:10:31.992-04:00", "updated_at": "2025-07-06T08:08:03.834-04:00", "avatar": "https://secure.gravatar.com/avatar/82e54715ac1ff5b3a4b60d51c3dc17d0.jpg?s=512&d=https%3A%2F%2Fa.slack-edge.com%2Fdf10d%2Fimg%2Favatars%2Fava_0019-512.png", "custom_css": null}, {"id": 7353, "slack_id": "U07LYKC18F6", "display_name": "Rocco", "bio": null, "projects_count": 1, "devlogs_count": 9, "votes_count": 0, "ships_count": 0, "projects": [{"id": 2658, "title": "Miniscop: Investigate Together!", "devlogs_count": 9, "created_at": "2025-06-21T15:10:51.418-04:00"}], "coding_time_seconds": 321936, "coding_time_seconds_today": 0, "balance": "You need to have a pocket watcher badge to view this.", "badges": [], "created_at": "2025-06-17T16:10:32.990-04:00", "updated_at": "2025-08-11T15:41:42.654-04:00", "avatar": "https://avatars.slack-edge.com/2024-09-11/7701490354231_f7f088c4157dd79082c4_original.png", "custom_css": null}, {"id": 7354, "slack_id": "U080963RK2N", "display_name": "Jenita", "bio": null, "projects_count": 0, "devlogs_count": 0, "votes_count": 0, "ships_count": 0, "projects": [], "coding_time_seconds": 0, "coding_time_seconds_today": 0, "balance": "You need to have a pocket watcher badge to view this.", "badges": [], "created_at": "2025-06-17T16:10:43.899-04:00", "updated_at": "2025-07-03T19:43:48.642-04:00", "avatar": "https://secure.gravatar.com/avatar/96620ac5433dde448cbdfd1c85013798.jpg?s=512&d=https%3A%2F%2Fa.slack-edge.com%2Fdf10d%2Fimg%2Favatars%2Fava_0014-512.png", "custom_css": null}, {"id": 7355, "slack_id": "U091WS9QM34", "display_name": "Jan", "bio": null, "projects_count": 0, "devlogs_count": 0, "votes_count": 0, "ships_count": 0, "projects": [], "coding_time_seconds": 6278, "coding_time_seconds_today": 0, "balance": "You need to have a pocket watcher badge to view this.", "badges": [], "created_at": "2025-06-17T16:11:01.273-04:00", "updated_at": "2025-07-07T09:58:21.495-04:00", "avatar": "https://secure.gravatar.com/avatar/4652e58c4d71e73b261a55bab47360f5.jpg?s=512&d=https%3A%2F%2Fa.slack-edge.com%2Fdf10d%2Fimg%2Favatars%2Fava_0025-512.png", "custom_css": null}, {"id": 7356, "slack_id": "U091V8E6QQ5", "display_name": "yokazo", "bio": null, "projects_count": 0, "devlogs_count": 0, "votes_count": 0, "ships_count": 0, "projects": [], "coding_time_seconds": 0, "coding_time_seconds_today": 0, "balance": "You need to have a pocket watcher badge to view this.", "badges": [], "created_at": "2025-06-17T16:11:09.701-04:00", "updated_at": "2025-07-03T19:43:49.170-04:00", "avatar": "https://secure.gravatar.com/avatar/81262eaa4f5fbc05b9648c123aff6478.jpg?s=512&d=https%3A%2F%2Fa.slack-edge.com%2Fdf10d%2Fimg%2Favatars%2Fava_0023-512.png", "custom_css": null}, {"id": 7357, "slack_id": "U08RCUN8AES", "display_name": "Vaibhavi Kode", "bio": null, "projects_count": 0, "devlogs_count": 0, "votes_count": 0, "ships_count": 0, "projects": [], "coding_time_seconds": 702, "coding_time_seconds_today": 0, "balance": "You need to have a pocket watcher badge to view this.", "badges": [], "created_at": "2025-06-17T16:11:31.527-04:00", "updated_at": "2025-07-03T19:43:49.431-04:00", "avatar": "https://avatars.slack-edge.com/2025-06-12/9027576663671_b4905a954590cc450be1_original.jpg", "custom_css": null}, {"id": 7358, "slack_id": "U07CPBN5FV5", "display_name": "cattn", "bio": "cats", "projects_count": 4, "devlogs_count": 22, "votes_count": 29, "ships_count": 1, "projects": [{"id": 1414, "title": "Maple", "devlogs_count": 6, "created_at": "2025-06-18T14:15:40.322-04:00"}, {"id": 4148, "title": "do it!", "devlogs_count": 9, "created_at": "2025-06-27T21:48:45.926-04:00"}, {"id": 11540, "title": "cattn.dev", "devlogs_count": 1, "created_at": "2025-08-16T21:36:50.762-04:00"}, {"id": 11554, "title": "hdr-ify", "devlogs_count": 6, "created_at": "2025-08-17T02:09:43.684-04:00"}], "coding_time_seconds": 426261, "coding_time_seconds_today": 0, "balance": "You need to have a pocket watcher badge to view this.", "badges": [{"name": "Maiden Voyage", "text": "you shipped your first project! the journey begins...", "icon": "\ud83d\udea2"}, {"name": "Graphic Design is My Passion", "text": "Oh God How Did This Get Here I Am Not Good With Computer", "icon": "\ud83c\udfa8"}], "created_at": "2025-06-17T16:13:04.330-04:00", "updated_at": "2025-09-10T22:54:49.273-04:00", "avatar": "https://avatars.slack-edge.com/2025-07-12/9174236819255_26aa15376e30fdc854a7_original.png", "custom_css": "body (\r\nmargin: 0 !important; \r\nbackground: #00ff00 !important;\r\n}\r\n\r\ndiv {\r\nbackground: #00ff00 !important;\r\n}\r\n\r\nimg[src*=\"https://summer.hackclub.com/rails/active_storage/blobs/redirect/eyJfcmFpbHMiOnsiZGF0YSI6NDgzNjMsInB1ciI6ImJsb2JfaWQifX0=--62ea4d4d05f2b20df66012015209f88934804d0b/magic.jpg\"] {\r\ndisplay: fixed !important;\r\ntop: 10 !important;\r\nleft: 1 !important;\r\nz-index: 999 !important;\r\n}"}, {"id": 7359, "slack_id": "U0929F3RRTK", "display_name": "Bhim Biswa", "bio": null, "projects_count": 0, "devlogs_count": 0, "votes_count": 0, "ships_count": 0, "projects": [], "coding_time_seconds": 0, "coding_time_seconds_today": 0, "balance": "You need to have a pocket watcher badge to view this.", "badges": [], "created_at": "2025-06-17T16:13:54.248-04:00", "updated_at": "2025-07-03T19:43:49.836-04:00", "avatar": "https://secure.gravatar.com/avatar/f4d14c94c664345a1e1bbabc2f1782a4.jpg?s=512&d=https%3A%2F%2Fa.slack-edge.com%2Fdf10d%2Fimg%2Favatars%2Fava_0003-512.png", "custom_css": null}, {"id": 7360, "slack_id": "U08R4CT6363", "display_name": "Adi Stroianu", "bio": null, "projects_count": 3, "devlogs_count": 7, "votes_count": 1, "ships_count": 1, "projects": [{"id": 1107, "title": "Magen Israel", "devlogs_count": 1, "created_at": "2025-06-17T16:27:46.903-04:00"}, {"id": 3384, "title": "ArcX Bot", "devlogs_count": 0, "created_at": "2025-06-24T03:42:42.285-04:00"}, {"id": 8969, "title": "Scootly", "devlogs_count": 6, "created_at": "2025-07-30T03:07:39.975-04:00"}], "coding_time_seconds": 639100, "coding_time_seconds_today": 2188, "balance": "You need to have a pocket watcher badge to view this.", "badges": [{"name": "Maiden Voyage", "text": "you shipped your first project! the journey begins...", "icon": "\ud83d\udea2"}], "created_at": "2025-06-17T16:14:00.425-04:00", "updated_at": "2025-09-10T22:54:49.335-04:00", "avatar": "https://avatars.slack-edge.com/2025-05-08/8862323294022_880409e854de523c879c_original.jpg", "custom_css": null}], "pagination": {"page": 368, "pages": 1192, "count": 23828, "items": 20}}