{"users": [{"id": 7361, "slack_id": "U091P4SB72P", "display_name": "Bhavesh", "bio": null, "projects_count": 0, "devlogs_count": 0, "votes_count": 0, "ships_count": 0, "projects": [], "coding_time_seconds": 0, "coding_time_seconds_today": 0, "balance": "You need to have a pocket watcher badge to view this.", "badges": [], "created_at": "2025-06-17T16:14:13.002-04:00", "updated_at": "2025-07-03T22:35:46.690-04:00", "avatar": "https://secure.gravatar.com/avatar/27305c0ea1dafbf295ff750145fe4ef4.jpg?s=512&d=https%3A%2F%2Fa.slack-edge.com%2Fdf10d%2Fimg%2Favatars%2Fava_0013-512.png", "custom_css": null}, {"id": 7362, "slack_id": "U091Q6VJ5TM", "display_name": "Gurkirat Singh", "bio": null, "projects_count": 0, "devlogs_count": 0, "votes_count": 0, "ships_count": 0, "projects": [], "coding_time_seconds": 0, "coding_time_seconds_today": 0, "balance": "You need to have a pocket watcher badge to view this.", "badges": [], "created_at": "2025-06-17T16:14:47.723-04:00", "updated_at": "2025-07-03T19:43:50.580-04:00", "avatar": "https://secure.gravatar.com/avatar/581d5b2521cd377aca329e9b1a555f74.jpg?s=512&d=https%3A%2F%2Fa.slack-edge.com%2Fdf10d%2Fimg%2Favatars%2Fava_0017-512.png", "custom_css": null}, {"id": 7363, "slack_id": "U091V947N4V", "display_name": "\u042e\u043b\u0438\u044f \u041b\u0430\u0432\u0440\u0438\u043d\u0435\u043d\u043a\u043e", "bio": null, "projects_count": 0, "devlogs_count": 0, "votes_count": 0, "ships_count": 0, "projects": [], "coding_time_seconds": 0, "coding_time_seconds_today": 0, "balance": "You need to have a pocket watcher badge to view this.", "badges": [], "created_at": "2025-06-17T16:15:25.540-04:00", "updated_at": "2025-07-03T19:43:50.854-04:00", "avatar": "https://avatars.slack-edge.com/2025-06-17/9065352023332_17c98188b3ac01d08ef7_original.jpg", "custom_css": null}, {"id": 7364, "slack_id": "U0929FF25LH", "display_name": "Skanda Athreya", "bio": null, "projects_count": 0, "devlogs_count": 0, "votes_count": 0, "ships_count": 0, "projects": [], "coding_time_seconds": 8, "coding_time_seconds_today": 0, "balance": "You need to have a pocket watcher badge to view this.", "badges": [], "created_at": "2025-06-17T16:15:54.860-04:00", "updated_at": "2025-07-03T19:43:51.136-04:00", "avatar": "https://secure.gravatar.com/avatar/a12d4cb8a43895a93160d3b7a18ddacd.jpg?s=512&d=https%3A%2F%2Fa.slack-edge.com%2Fdf10d%2Fimg%2Favatars%2Fava_0014-512.png", "custom_css": null}, {"id": 7365, "slack_id": "U0929FBP6V7", "display_name": "Jose Ramos", "bio": null, "projects_count": 0, "devlogs_count": 0, "votes_count": 0, "ships_count": 0, "projects": [], "coding_time_seconds": 5986, "coding_time_seconds_today": 0, "balance": "You need to have a pocket watcher badge to view this.", "badges": [], "created_at": "2025-06-17T16:16:22.254-04:00", "updated_at": "2025-07-06T20:08:43.044-04:00", "avatar": "https://secure.gravatar.com/avatar/2315281f8bdf951ea9bf5ed5d0193073.jpg?s=512&d=https%3A%2F%2Fa.slack-edge.com%2Fdf10d%2Fimg%2Favatars%2Fava_0026-512.png", "custom_css": null}, {"id": 7366, "slack_id": "U08298U0FGU", "display_name": "Ali Khan", "bio": null, "projects_count": 2, "devlogs_count": 5, "votes_count": 27, "ships_count": 2, "projects": [{"id": 4391, "title": "Mermaid Translator", "devlogs_count": 4, "created_at": "2025-06-29T14:59:16.963-04:00"}, {"id": 11735, "title": "Upgraded Food", "devlogs_count": 1, "created_at": "2025-08-19T00:55:42.002-04:00"}], "coding_time_seconds": 319381, "coding_time_seconds_today": 360, "balance": "You need to have a pocket watcher badge to view this.", "badges": [{"name": "Maiden Voyage", "text": "you shipped your first project! the journey begins...", "icon": "\ud83d\udea2"}], "created_at": "2025-06-17T16:16:34.921-04:00", "updated_at": "2025-09-10T22:54:49.837-04:00", "avatar": "https://avatars.slack-edge.com/2025-05-25/8952323664180_86fc10c8c23eb1572846_original.jpg", "custom_css": null}, {"id": 7367, "slack_id": "U092CKQ9VRN", "display_name": "Justin Chen", "bio": null, "projects_count": 0, "devlogs_count": 0, "votes_count": 0, "ships_count": 0, "projects": [], "coding_time_seconds": 2867, "coding_time_seconds_today": 0, "balance": "You need to have a pocket watcher badge to view this.", "badges": [], "created_at": "2025-06-17T16:17:21.115-04:00", "updated_at": "2025-07-03T21:45:18.797-04:00", "avatar": "https://secure.gravatar.com/avatar/fd3ff39aaf73c451959e7ee8146fae70.jpg?s=512&d=https%3A%2F%2Fa.slack-edge.com%2Fdf10d%2Fimg%2Favatars%2Fava_0019-512.png", "custom_css": null}, {"id": 7368, "slack_id": "U091V9KAJJH", "display_name": "Akhil A", "bio": null, "projects_count": 0, "devlogs_count": 0, "votes_count": 0, "ships_count": 0, "projects": [], "coding_time_seconds": 24131, "coding_time_seconds_today": 0, "balance": "You need to have a pocket watcher badge to view this.", "badges": [], "created_at": "2025-06-17T16:17:57.853-04:00", "updated_at": "2025-07-03T19:43:51.972-04:00", "avatar": "https://secure.gravatar.com/avatar/bd9f5cd5d054e89f493b67f86da9b7ad.jpg?s=512&d=https%3A%2F%2Fa.slack-edge.com%2Fdf10d%2Fimg%2Favatars%2Fava_0015-512.png", "custom_css": null}, {"id": 7369, "slack_id": "U079T9YL4HK", "display_name": "Kamal Ojha", "bio": null, "projects_count": 0, "devlogs_count": 0, "votes_count": 0, "ships_count": 0, "projects": [], "coding_time_seconds": 0, "coding_time_seconds_today": 0, "balance": "You need to have a pocket watcher badge to view this.", "badges": [], "created_at": "2025-06-17T16:18:07.081-04:00", "updated_at": "2025-07-03T21:57:12.151-04:00", "avatar": "https://avatars.slack-edge.com/2025-06-17/9058458943846_f691154d72e81d218dce_original.jpg", "custom_css": null}, {"id": 7370, "slack_id": "U0828UHC70T", "display_name": "\u041c\u0430\u043a\u0441\u0438\u043c", "bio": null, "projects_count": 0, "devlogs_count": 0, "votes_count": 0, "ships_count": 0, "projects": [], "coding_time_seconds": 0, "coding_time_seconds_today": 0, "balance": "You need to have a pocket watcher badge to view this.", "badges": [], "created_at": "2025-06-17T16:19:21.445-04:00", "updated_at": "2025-07-05T14:09:17.438-04:00", "avatar": "https://avatars.slack-edge.com/2024-11-24/8062537367751_75184c7e0ee7539b49b7_original.png", "custom_css": null}, {"id": 7371, "slack_id": "U092KA3747J", "display_name": "Maria", "bio": null, "projects_count": 0, "devlogs_count": 0, "votes_count": 0, "ships_count": 0, "projects": [], "coding_time_seconds": 0, "coding_time_seconds_today": 0, "balance": "You need to have a pocket watcher badge to view this.", "badges": [], "created_at": "2025-06-17T16:19:31.706-04:00", "updated_at": "2025-07-03T19:43:52.522-04:00", "avatar": "https://secure.gravatar.com/avatar/2b4097e97f079c767e3548d11ec41306.jpg?s=512&d=https%3A%2F%2Fa.slack-edge.com%2Fdf10d%2Fimg%2Favatars%2Fava_0012-512.png", "custom_css": null}, {"id": 7372, "slack_id": "U0929FSLD0R", "display_name": "renad", "bio": null, "projects_count": 0, "devlogs_count": 0, "votes_count": 0, "ships_count": 0, "projects": [], "coding_time_seconds": 0, "coding_time_seconds_today": 0, "balance": "You need to have a pocket watcher badge to view this.", "badges": [], "created_at": "2025-06-17T16:20:16.590-04:00", "updated_at": "2025-07-03T19:43:52.795-04:00", "avatar": "https://secure.gravatar.com/avatar/064baedaa5ba5c39b22b98df01fca121.jpg?s=512&d=https%3A%2F%2Fa.slack-edge.com%2Fdf10d%2Fimg%2Favatars%2Fava_0016-512.png", "custom_css": null}, {"id": 7373, "slack_id": "U0929G13AD7", "display_name": "Taliesin Jones", "bio": null, "projects_count": 0, "devlogs_count": 0, "votes_count": 0, "ships_count": 0, "projects": [], "coding_time_seconds": 0, "coding_time_seconds_today": 0, "balance": "You need to have a pocket watcher badge to view this.", "badges": [], "created_at": "2025-06-17T16:20:56.201-04:00", "updated_at": "2025-08-19T05:16:32.661-04:00", "avatar": "https://secure.gravatar.com/avatar/c4ca69ec04ffde41435214730d048616.jpg?s=512&d=https%3A%2F%2Fa.slack-edge.com%2Fdf10d%2Fimg%2Favatars%2Fava_0021-512.png", "custom_css": null}, {"id": 7374, "slack_id": "U092268K2LR", "display_name": "Ev", "bio": null, "projects_count": 0, "devlogs_count": 0, "votes_count": 0, "ships_count": 0, "projects": [], "coding_time_seconds": 0, "coding_time_seconds_today": 0, "balance": "You need to have a pocket watcher badge to view this.", "badges": [], "created_at": "2025-06-17T16:21:42.084-04:00", "updated_at": "2025-07-03T21:45:19.272-04:00", "avatar": "https://secure.gravatar.com/avatar/414f2c2acf323c53d5914b75f55989c7.jpg?s=512&d=https%3A%2F%2Fa.slack-edge.com%2Fdf10d%2Fimg%2Favatars%2Fava_0003-512.png", "custom_css": null}, {"id": 7375, "slack_id": "U091VAA2B1B", "display_name": "Artem Deineko", "bio": null, "projects_count": 0, "devlogs_count": 0, "votes_count": 0, "ships_count": 0, "projects": [], "coding_time_seconds": 0, "coding_time_seconds_today": 0, "balance": "You need to have a pocket watcher badge to view this.", "badges": [], "created_at": "2025-06-17T16:23:13.925-04:00", "updated_at": "2025-07-03T22:35:47.856-04:00", "avatar": "https://secure.gravatar.com/avatar/4ec92131dae38af2d83f372b68016006.jpg?s=512&d=https%3A%2F%2Fa.slack-edge.com%2Fdf10d%2Fimg%2Favatars%2Fava_0016-512.png", "custom_css": null}, {"id": 7376, "slack_id": "U091WTQ5WH0", "display_name": "Vishnu S", "bio": null, "projects_count": 0, "devlogs_count": 0, "votes_count": 0, "ships_count": 0, "projects": [], "coding_time_seconds": 0, "coding_time_seconds_today": 0, "balance": "You need to have a pocket watcher badge to view this.", "badges": [], "created_at": "2025-06-17T16:24:19.841-04:00", "updated_at": "2025-07-03T21:57:13.474-04:00", "avatar": "https://avatars.slack-edge.com/2025-06-17/9063372705781_f7bc6585fbc18e798d10_original.png", "custom_css": null}, {"id": 7377, "slack_id": "U092KAU20D6", "display_name": "Jimi", "bio": null, "projects_count": 1, "devlogs_count": 0, "votes_count": 0, "ships_count": 0, "projects": [{"id": 1109, "title": "Website", "devlogs_count": 0, "created_at": "2025-06-17T16:32:53.944-04:00"}], "coding_time_seconds": 1401, "coding_time_seconds_today": 0, "balance": "You need to have a pocket watcher badge to view this.", "badges": [], "created_at": "2025-06-17T16:24:34.996-04:00", "updated_at": "2025-07-03T19:43:53.743-04:00", "avatar": "https://secure.gravatar.com/avatar/274cf6c553cb506e820ac4eef1071ca2.jpg?s=512&d=https%3A%2F%2Fa.slack-edge.com%2Fdf10d%2Fimg%2Favatars%2Fava_0003-512.png", "custom_css": null}, {"id": 7378, "slack_id": "U0929GGACAD", "display_name": "moksh nihalani", "bio": null, "projects_count": 0, "devlogs_count": 0, "votes_count": 0, "ships_count": 0, "projects": [], "coding_time_seconds": 0, "coding_time_seconds_today": 0, "balance": "You need to have a pocket watcher badge to view this.", "badges": [], "created_at": "2025-06-17T16:24:36.891-04:00", "updated_at": "2025-07-03T19:43:54.021-04:00", "avatar": "https://secure.gravatar.com/avatar/7bbc029dbe87e741c3c2e6baf784e22d.jpg?s=512&d=https%3A%2F%2Fa.slack-edge.com%2Fdf10d%2Fimg%2Favatars%2Fava_0003-512.png", "custom_css": null}, {"id": 7379, "slack_id": "U091WTWA2MQ", "display_name": "Dani", "bio": null, "projects_count": 2, "devlogs_count": 8, "votes_count": 1, "ships_count": 0, "projects": [{"id": 5465, "title": "Fivem Lua", "devlogs_count": 1, "created_at": "2025-07-05T13:19:58.115-04:00"}, {"id": 5478, "title": "Titanfall\u00ae 2 chat app", "devlogs_count": 7, "created_at": "2025-07-05T14:53:50.105-04:00"}], "coding_time_seconds": 127637, "coding_time_seconds_today": 0, "balance": "You need to have a pocket watcher badge to view this.", "badges": [], "created_at": "2025-06-17T16:25:22.921-04:00", "updated_at": "2025-07-09T09:19:22.833-04:00", "avatar": "https://secure.gravatar.com/avatar/dcd5d34cafd5512e9a3531d2890a08f0.jpg?s=512&d=https%3A%2F%2Fa.slack-edge.com%2Fdf10d%2Fimg%2Favatars%2Fava_0000-512.png", "custom_css": null}, {"id": 7380, "slack_id": "U091VAWLJAH", "display_name": "Serkan", "bio": null, "projects_count": 0, "devlogs_count": 0, "votes_count": 0, "ships_count": 0, "projects": [], "coding_time_seconds": 0, "coding_time_seconds_today": 0, "balance": "You need to have a pocket watcher badge to view this.", "badges": [], "created_at": "2025-06-17T16:26:42.493-04:00", "updated_at": "2025-07-03T19:43:54.539-04:00", "avatar": "https://secure.gravatar.com/avatar/c64881da8233809a71583b5c6a659071.jpg?s=512&d=https%3A%2F%2Fa.slack-edge.com%2Fdf10d%2Fimg%2Favatars%2Fava_0002-512.png", "custom_css": null}], "pagination": {"page": 369, "pages": 1192, "count": 23828, "items": 20}}