{"users": [{"id": 7381, "slack_id": "U080YU735H8", "display_name": "ViviTheQueen", "bio": null, "projects_count": 0, "devlogs_count": 0, "votes_count": 0, "ships_count": 0, "projects": [], "coding_time_seconds": 706124, "coding_time_seconds_today": 0, "balance": "You need to have a pocket watcher badge to view this.", "badges": [], "created_at": "2025-06-17T16:27:03.097-04:00", "updated_at": "2025-09-07T20:36:00.504-04:00", "avatar": "https://avatars.slack-edge.com/2025-09-07/9460855849575_56a2aa290ac2f089982c_original.png", "custom_css": null}, {"id": 7382, "slack_id": "U090L1AB3AB", "display_name": "queen_fairie", "bio": null, "projects_count": 0, "devlogs_count": 0, "votes_count": 0, "ships_count": 0, "projects": [], "coding_time_seconds": 0, "coding_time_seconds_today": 0, "balance": "You need to have a pocket watcher badge to view this.", "badges": [], "created_at": "2025-06-17T16:27:06.953-04:00", "updated_at": "2025-07-03T19:43:54.950-04:00", "avatar": "https://secure.gravatar.com/avatar/09adb3fa5bc78dfd830377e827925a19.jpg?s=512&d=https%3A%2F%2Fa.slack-edge.com%2Fdf10d%2Fimg%2Favatars%2Fava_0026-512.png", "custom_css": null}, {"id": 7383, "slack_id": "U0929GVTUN5", "display_name": "Ravi", "bio": null, "projects_count": 0, "devlogs_count": 0, "votes_count": 0, "ships_count": 0, "projects": [], "coding_time_seconds": 0, "coding_time_seconds_today": 0, "balance": "You need to have a pocket watcher badge to view this.", "badges": [], "created_at": "2025-06-17T16:27:29.992-04:00", "updated_at": "2025-07-03T19:43:55.212-04:00", "avatar": "https://secure.gravatar.com/avatar/cd4111815e096c4ec2d466521fa13f5b.jpg?s=512&d=https%3A%2F%2Fa.slack-edge.com%2Fdf10d%2Fimg%2Favatars%2Fava_0025-512.png", "custom_css": null}, {"id": 7384, "slack_id": "U091QDZE77G", "display_name": "mem64-bits", "bio": null, "projects_count": 0, "devlogs_count": 0, "votes_count": 0, "ships_count": 0, "projects": [], "coding_time_seconds": 0, "coding_time_seconds_today": 0, "balance": "You need to have a pocket watcher badge to view this.", "badges": [], "created_at": "2025-06-17T16:27:33.630-04:00", "updated_at": "2025-07-03T19:43:55.478-04:00", "avatar": "https://secure.gravatar.com/avatar/58369598d57ad5f4659e857833f57aba.jpg?s=512&d=https%3A%2F%2Fa.slack-edge.com%2Fdf10d%2Fimg%2Favatars%2Fava_0008-512.png", "custom_css": null}, {"id": 7385, "slack_id": "U0929GUSFJ5", "display_name": "Julien S", "bio": null, "projects_count": 0, "devlogs_count": 0, "votes_count": 0, "ships_count": 0, "projects": [], "coding_time_seconds": 0, "coding_time_seconds_today": 0, "balance": "You need to have a pocket watcher badge to view this.", "badges": [], "created_at": "2025-06-17T16:28:09.851-04:00", "updated_at": "2025-07-03T19:43:55.775-04:00", "avatar": "https://secure.gravatar.com/avatar/807ef81a9ff278a74581d9c08a574718.jpg?s=512&d=https%3A%2F%2Fa.slack-edge.com%2Fdf10d%2Fimg%2Favatars%2Fava_0004-512.png", "custom_css": null}, {"id": 7386, "slack_id": "U079V8EPV5H", "display_name": "Super", "bio": null, "projects_count": 0, "devlogs_count": 0, "votes_count": 0, "ships_count": 0, "projects": [], "coding_time_seconds": 594783, "coding_time_seconds_today": 0, "balance": "You need to have a pocket watcher badge to view this.", "badges": [], "created_at": "2025-06-17T16:28:48.170-04:00", "updated_at": "2025-07-03T19:43:56.038-04:00", "avatar": "https://secure.gravatar.com/avatar/6f10c7b14ec2dd51cb300667840d5d2c.jpg?s=512&d=https%3A%2F%2Fa.slack-edge.com%2Fdf10d%2Fimg%2Favatars%2Fava_0026-512.png", "custom_css": null}, {"id": 7387, "slack_id": "U091FKXF9P1", "display_name": "Si Moon", "bio": null, "projects_count": 0, "devlogs_count": 0, "votes_count": 0, "ships_count": 0, "projects": [], "coding_time_seconds": 0, "coding_time_seconds_today": 0, "balance": "You need to have a pocket watcher badge to view this.", "badges": [], "created_at": "2025-06-17T16:29:41.871-04:00", "updated_at": "2025-07-03T22:35:48.666-04:00", "avatar": "https://secure.gravatar.com/avatar/c03945240f8aa5009363a9d12d5ec3fe.jpg?s=512&d=https%3A%2F%2Fa.slack-edge.com%2Fdf10d%2Fimg%2Favatars%2Fava_0006-512.png", "custom_css": null}, {"id": 7388, "slack_id": "U091WUUDAG2", "display_name": "Mika", "bio": null, "projects_count": 0, "devlogs_count": 0, "votes_count": 0, "ships_count": 0, "projects": [], "coding_time_seconds": 8489, "coding_time_seconds_today": 0, "balance": "You need to have a pocket watcher badge to view this.", "badges": [], "created_at": "2025-06-17T16:29:49.500-04:00", "updated_at": "2025-07-03T19:43:56.445-04:00", "avatar": "https://secure.gravatar.com/avatar/6ed67edc343653e0a2ba95205d866d15.jpg?s=512&d=https%3A%2F%2Fa.slack-edge.com%2Fdf10d%2Fimg%2Favatars%2Fava_0026-512.png", "custom_css": null}, {"id": 7389, "slack_id": "U091Q99G89H", "display_name": "Aryan Patel", "bio": null, "projects_count": 0, "devlogs_count": 0, "votes_count": 0, "ships_count": 0, "projects": [], "coding_time_seconds": 111007, "coding_time_seconds_today": 0, "balance": "You need to have a pocket watcher badge to view this.", "badges": [], "created_at": "2025-06-17T16:29:57.152-04:00", "updated_at": "2025-07-03T19:43:56.704-04:00", "avatar": "https://avatars.slack-edge.com/2025-06-17/9064997559218_01638ad3a4b513411278_original.png", "custom_css": null}, {"id": 7390, "slack_id": "U07AF4653DW", "display_name": "Nich", "bio": null, "projects_count": 0, "devlogs_count": 0, "votes_count": 0, "ships_count": 0, "projects": [], "coding_time_seconds": 32701, "coding_time_seconds_today": 0, "balance": "You need to have a pocket watcher badge to view this.", "badges": [], "created_at": "2025-06-17T16:30:01.013-04:00", "updated_at": "2025-07-03T19:43:56.972-04:00", "avatar": "https://avatars.slack-edge.com/2024-07-23/7462469223394_8055a2a3eb420896d511_original.jpg", "custom_css": null}, {"id": 7391, "slack_id": "U091FL0NZJT", "display_name": "Ahmed Ebrahem", "bio": null, "projects_count": 0, "devlogs_count": 0, "votes_count": 0, "ships_count": 0, "projects": [], "coding_time_seconds": 16780, "coding_time_seconds_today": 0, "balance": "You need to have a pocket watcher badge to view this.", "badges": [], "created_at": "2025-06-17T16:30:01.598-04:00", "updated_at": "2025-07-03T19:43:57.238-04:00", "avatar": "https://avatars.slack-edge.com/2025-06-17/9064997387938_545fcc641251846d66b8_original.jpg", "custom_css": null}, {"id": 7392, "slack_id": "U091XBZ8SA0", "display_name": "Mizan T", "bio": null, "projects_count": 0, "devlogs_count": 0, "votes_count": 0, "ships_count": 0, "projects": [], "coding_time_seconds": 39649, "coding_time_seconds_today": 0, "balance": "You need to have a pocket watcher badge to view this.", "badges": [], "created_at": "2025-06-17T16:30:16.358-04:00", "updated_at": "2025-07-03T19:43:57.515-04:00", "avatar": "https://avatars.slack-edge.com/2025-06-17/9065001013826_a1f437dcbb54414a4920_original.jpg", "custom_css": null}, {"id": 7393, "slack_id": "U091XBSNJ68", "display_name": "Aurel", "bio": null, "projects_count": 0, "devlogs_count": 0, "votes_count": 0, "ships_count": 0, "projects": [], "coding_time_seconds": 18395, "coding_time_seconds_today": 0, "balance": "You need to have a pocket watcher badge to view this.", "badges": [], "created_at": "2025-06-17T16:30:33.688-04:00", "updated_at": "2025-07-03T19:43:57.786-04:00", "avatar": "https://secure.gravatar.com/avatar/baef02af848d33a9238f6e1abee01934.jpg?s=512&d=https%3A%2F%2Fa.slack-edge.com%2Fdf10d%2Fimg%2Favatars%2Fava_0006-512.png", "custom_css": null}, {"id": 7394, "slack_id": "U092K4W1ZB2", "display_name": "Skyfly", "bio": null, "projects_count": 3, "devlogs_count": 8, "votes_count": 56, "ships_count": 1, "projects": [{"id": 11051, "title": "Threadly", "devlogs_count": 2, "created_at": "2025-08-12T18:18:54.331-04:00"}, {"id": 11122, "title": "SkyPlayer (Flutter Plugin)", "devlogs_count": 1, "created_at": "2025-08-13T10:35:08.118-04:00"}, {"id": 3539, "title": "Docklord \u2014 Container Management and Monitoring Tool (\u26a1\ufe0f Written in Rust \u26a1\ufe0f)", "devlogs_count": 5, "created_at": "2025-06-24T16:03:51.616-04:00"}], "coding_time_seconds": 750089, "coding_time_seconds_today": 0, "balance": "You need to have a pocket watcher badge to view this.", "badges": [{"name": "Maiden Voyage", "text": "you shipped your first project! the journey begins...", "icon": "\ud83d\udea2"}], "created_at": "2025-06-17T16:31:15.401-04:00", "updated_at": "2025-09-10T22:54:50.673-04:00", "avatar": "https://secure.gravatar.com/avatar/e38c185de920c34ad557de76bc6c0b5d.jpg?s=512&d=https%3A%2F%2Fa.slack-edge.com%2Fdf10d%2Fimg%2Favatars%2Fava_0011-512.png", "custom_css": null}, {"id": 7395, "slack_id": "U091Q9M0JAF", "display_name": "Isa", "bio": null, "projects_count": 0, "devlogs_count": 0, "votes_count": 0, "ships_count": 0, "projects": [], "coding_time_seconds": 0, "coding_time_seconds_today": 0, "balance": "You need to have a pocket watcher badge to view this.", "badges": [], "created_at": "2025-06-17T16:31:46.348-04:00", "updated_at": "2025-07-03T19:43:58.336-04:00", "avatar": "https://secure.gravatar.com/avatar/5fb7c41d45aa67db2d7d28b7e68ce0b8.jpg?s=512&d=https%3A%2F%2Fa.slack-edge.com%2Fdf10d%2Fimg%2Favatars%2Fava_0022-512.png", "custom_css": null}, {"id": 7396, "slack_id": "U091FLQREQP", "display_name": "Samiru Hemaka", "bio": null, "projects_count": 0, "devlogs_count": 0, "votes_count": 0, "ships_count": 0, "projects": [], "coding_time_seconds": 30559, "coding_time_seconds_today": 0, "balance": "You need to have a pocket watcher badge to view this.", "badges": [], "created_at": "2025-06-17T16:35:25.570-04:00", "updated_at": "2025-07-05T08:08:37.054-04:00", "avatar": "https://secure.gravatar.com/avatar/abb80c525bd87304dd14b53d644e1f87.jpg?s=512&d=https%3A%2F%2Fa.slack-edge.com%2Fdf10d%2Fimg%2Favatars%2Fava_0002-512.png", "custom_css": null}, {"id": 7397, "slack_id": "U091QFL7RGW", "display_name": "Juan David Rojas Fernandez", "bio": null, "projects_count": 0, "devlogs_count": 0, "votes_count": 0, "ships_count": 0, "projects": [], "coding_time_seconds": 1168, "coding_time_seconds_today": 0, "balance": "You need to have a pocket watcher badge to view this.", "badges": [], "created_at": "2025-06-17T16:35:39.247-04:00", "updated_at": "2025-07-03T19:43:58.743-04:00", "avatar": "https://secure.gravatar.com/avatar/95e9e1cc9d7e33ea4c1c72a984c0fb3a.jpg?s=512&d=https%3A%2F%2Fa.slack-edge.com%2Fdf10d%2Fimg%2Favatars%2Fava_0000-512.png", "custom_css": null}, {"id": 7398, "slack_id": "U091VCF0WE9", "display_name": "17med", "bio": null, "projects_count": 0, "devlogs_count": 0, "votes_count": 0, "ships_count": 0, "projects": [], "coding_time_seconds": 0, "coding_time_seconds_today": 0, "balance": "You need to have a pocket watcher badge to view this.", "badges": [], "created_at": "2025-06-17T16:37:09.278-04:00", "updated_at": "2025-07-03T19:43:59.005-04:00", "avatar": "https://secure.gravatar.com/avatar/9b5a6e43cb2d088cda7b0cf9795f9345.jpg?s=512&d=https%3A%2F%2Fa.slack-edge.com%2Fdf10d%2Fimg%2Favatars%2Fava_0002-512.png", "custom_css": null}, {"id": 7399, "slack_id": "U053DV31ATD", "display_name": "cott", "bio": null, "projects_count": 0, "devlogs_count": 0, "votes_count": 0, "ships_count": 0, "projects": [], "coding_time_seconds": 0, "coding_time_seconds_today": 0, "balance": "You need to have a pocket watcher badge to view this.", "badges": [], "created_at": "2025-06-17T16:37:26.658-04:00", "updated_at": "2025-07-03T19:43:59.269-04:00", "avatar": "https://avatars.slack-edge.com/2025-05-05/8860875201505_8b3bbaf376a1b9a3c702_original.png", "custom_css": null}, {"id": 7400, "slack_id": "U0929BG77RP", "display_name": "Witty", "bio": null, "projects_count": 0, "devlogs_count": 0, "votes_count": 0, "ships_count": 0, "projects": [], "coding_time_seconds": 0, "coding_time_seconds_today": 0, "balance": "You need to have a pocket watcher badge to view this.", "badges": [], "created_at": "2025-06-17T16:38:07.741-04:00", "updated_at": "2025-07-03T21:57:15.205-04:00", "avatar": "https://secure.gravatar.com/avatar/9dd80210472c94ed73c33baf3e1166e9.jpg?s=512&d=https%3A%2F%2Fa.slack-edge.com%2Fdf10d%2Fimg%2Favatars%2Fava_0011-512.png", "custom_css": null}], "pagination": {"page": 370, "pages": 1192, "count": 23828, "items": 20}}