{"users": [{"id": 7401, "slack_id": "U092KCSMRFA", "display_name": "Ayu", "bio": null, "projects_count": 0, "devlogs_count": 0, "votes_count": 0, "ships_count": 0, "projects": [], "coding_time_seconds": 0, "coding_time_seconds_today": 0, "balance": "You need to have a pocket watcher badge to view this.", "badges": [], "created_at": "2025-06-17T16:38:24.185-04:00", "updated_at": "2025-07-04T20:07:53.212-04:00", "avatar": "https://avatars.slack-edge.com/2025-06-17/9049739464327_0c4066b8780feb9b4916_original.jpg", "custom_css": null}, {"id": 7402, "slack_id": "U092KCJ9MHN", "display_name": "Yareli Aguilar", "bio": null, "projects_count": 0, "devlogs_count": 0, "votes_count": 0, "ships_count": 0, "projects": [], "coding_time_seconds": 0, "coding_time_seconds_today": 0, "balance": "You need to have a pocket watcher badge to view this.", "badges": [], "created_at": "2025-06-17T16:39:32.123-04:00", "updated_at": "2025-07-03T22:35:49.665-04:00", "avatar": "https://secure.gravatar.com/avatar/247763f4f47387351dce1b254af54353.jpg?s=512&d=https%3A%2F%2Fa.slack-edge.com%2Fdf10d%2Fimg%2Favatars%2Fava_0009-512.png", "custom_css": null}, {"id": 7403, "slack_id": "U091FLWSSUX", "display_name": "Julio Fernandez", "bio": null, "projects_count": 0, "devlogs_count": 0, "votes_count": 0, "ships_count": 0, "projects": [], "coding_time_seconds": 0, "coding_time_seconds_today": 0, "balance": "You need to have a pocket watcher badge to view this.", "badges": [], "created_at": "2025-06-17T16:41:39.477-04:00", "updated_at": "2025-07-03T19:43:59.947-04:00", "avatar": "https://avatars.slack-edge.com/2025-06-17/9058576185430_e13e0830a5db9b9f7b90_original.jpg", "custom_css": null}, {"id": 7404, "slack_id": "U091QGM0EQN", "display_name": "Colin", "bio": null, "projects_count": 0, "devlogs_count": 0, "votes_count": 0, "ships_count": 0, "projects": [], "coding_time_seconds": 0, "coding_time_seconds_today": 0, "balance": "You need to have a pocket watcher badge to view this.", "badges": [], "created_at": "2025-06-17T16:41:56.675-04:00", "updated_at": "2025-07-03T19:44:00.209-04:00", "avatar": "https://secure.gravatar.com/avatar/b19e2dfbb29c26ae6db4582e4ecb11a8.jpg?s=512&d=https%3A%2F%2Fa.slack-edge.com%2Fdf10d%2Fimg%2Favatars%2Fava_0015-512.png", "custom_css": null}, {"id": 7405, "slack_id": "U091Q9VH2DR", "display_name": "Mack Navickas", "bio": null, "projects_count": 3, "devlogs_count": 4, "votes_count": 6, "ships_count": 2, "projects": [{"id": 5185, "title": "Math learning app", "devlogs_count": 1, "created_at": "2025-07-03T16:52:38.370-04:00"}, {"id": 7897, "title": "Metreo", "devlogs_count": 1, "created_at": "2025-07-23T13:38:15.260-04:00"}, {"id": 6763, "title": "School schedule tracking app", "devlogs_count": 2, "created_at": "2025-07-15T23:16:50.052-04:00"}], "coding_time_seconds": 370913, "coding_time_seconds_today": 0, "balance": "You need to have a pocket watcher badge to view this.", "badges": [{"name": "Maiden Voyage", "text": "you shipped your first project! the journey begins...", "icon": "\ud83d\udea2"}], "created_at": "2025-06-17T16:42:32.085-04:00", "updated_at": "2025-09-10T22:54:51.056-04:00", "avatar": "https://avatars.slack-edge.com/2025-06-17/9058581037574_9b7870f316f33d71a7a0_original.png", "custom_css": null}, {"id": 7406, "slack_id": "U091XD7K9EG", "display_name": "Adrivit Ghosal", "bio": null, "projects_count": 0, "devlogs_count": 0, "votes_count": 0, "ships_count": 0, "projects": [], "coding_time_seconds": 301, "coding_time_seconds_today": 0, "balance": "You need to have a pocket watcher badge to view this.", "badges": [], "created_at": "2025-06-17T16:43:49.382-04:00", "updated_at": "2025-07-03T19:44:00.761-04:00", "avatar": "https://avatars.slack-edge.com/2025-06-17/9058613256886_1ac1f5a498a86f1764b6_original.png", "custom_css": null}, {"id": 7407, "slack_id": "U091VDGR1MK", "display_name": "Pranav Raghavendra Setty", "bio": null, "projects_count": 0, "devlogs_count": 0, "votes_count": 0, "ships_count": 0, "projects": [], "coding_time_seconds": 0, "coding_time_seconds_today": 0, "balance": "You need to have a pocket watcher badge to view this.", "badges": [], "created_at": "2025-06-17T16:45:10.388-04:00", "updated_at": "2025-07-03T19:44:01.046-04:00", "avatar": "https://secure.gravatar.com/avatar/b76b2e3079c334d4fe27f7541d1aeecd.jpg?s=512&d=https%3A%2F%2Fa.slack-edge.com%2Fdf10d%2Fimg%2Favatars%2Fava_0018-512.png", "custom_css": null}, {"id": 7408, "slack_id": "U0929KHLLQH", "display_name": "Jocelyn Mathew", "bio": null, "projects_count": 0, "devlogs_count": 0, "votes_count": 0, "ships_count": 0, "projects": [], "coding_time_seconds": 0, "coding_time_seconds_today": 0, "balance": "You need to have a pocket watcher badge to view this.", "badges": [], "created_at": "2025-06-17T16:45:37.469-04:00", "updated_at": "2025-07-03T19:44:01.307-04:00", "avatar": "https://avatars.slack-edge.com/2025-06-17/9058595243398_9251709f09a3ab26cbcd_original.jpg", "custom_css": null}, {"id": 7409, "slack_id": "U091XE7JYMA", "display_name": "Robert Lu", "bio": null, "projects_count": 0, "devlogs_count": 0, "votes_count": 0, "ships_count": 0, "projects": [], "coding_time_seconds": 120639, "coding_time_seconds_today": 0, "balance": "You need to have a pocket watcher badge to view this.", "badges": [], "created_at": "2025-06-17T16:46:26.556-04:00", "updated_at": "2025-07-03T19:44:01.579-04:00", "avatar": "https://secure.gravatar.com/avatar/5fc091a3d9af35df0e4474e7b2d9067e.jpg?s=512&d=https%3A%2F%2Fa.slack-edge.com%2Fdf10d%2Fimg%2Favatars%2Fava_0018-512.png", "custom_css": null}, {"id": 7410, "slack_id": "U091WBA3WAY", "display_name": "amadeoc", "bio": null, "projects_count": 0, "devlogs_count": 0, "votes_count": 0, "ships_count": 0, "projects": [], "coding_time_seconds": 751, "coding_time_seconds_today": 0, "balance": "You need to have a pocket watcher badge to view this.", "badges": [], "created_at": "2025-06-17T16:46:41.179-04:00", "updated_at": "2025-07-03T21:45:21.722-04:00", "avatar": "https://secure.gravatar.com/avatar/c63e518d64742967f24095886e5c6e75.jpg?s=512&d=https%3A%2F%2Fa.slack-edge.com%2Fdf10d%2Fimg%2Favatars%2Fava_0018-512.png", "custom_css": null}, {"id": 7411, "slack_id": "U091FN8SK0F", "display_name": "Karla Martinez", "bio": null, "projects_count": 0, "devlogs_count": 0, "votes_count": 0, "ships_count": 0, "projects": [], "coding_time_seconds": 0, "coding_time_seconds_today": 0, "balance": "You need to have a pocket watcher badge to view this.", "badges": [], "created_at": "2025-06-17T16:47:38.793-04:00", "updated_at": "2025-07-03T19:44:02.045-04:00", "avatar": "https://secure.gravatar.com/avatar/1937869605ea3955e58111cfa8289976.jpg?s=512&d=https%3A%2F%2Fa.slack-edge.com%2Fdf10d%2Fimg%2Favatars%2Fava_0000-512.png", "custom_css": null}, {"id": 7412, "slack_id": "U091VE79TS9", "display_name": "Abrar Fahim", "bio": null, "projects_count": 0, "devlogs_count": 0, "votes_count": 0, "ships_count": 0, "projects": [], "coding_time_seconds": 0, "coding_time_seconds_today": 0, "balance": "You need to have a pocket watcher badge to view this.", "badges": [], "created_at": "2025-06-17T16:49:10.485-04:00", "updated_at": "2025-07-03T19:44:02.318-04:00", "avatar": "https://avatars.slack-edge.com/2025-06-18/9077722500369_1c15099b72a14e6f63f2_original.jpg", "custom_css": null}, {"id": 7413, "slack_id": "U091QBW15H9", "display_name": "Jay Suthar", "bio": null, "projects_count": 0, "devlogs_count": 0, "votes_count": 0, "ships_count": 0, "projects": [], "coding_time_seconds": 0, "coding_time_seconds_today": 0, "balance": "You need to have a pocket watcher badge to view this.", "badges": [], "created_at": "2025-06-17T16:50:07.675-04:00", "updated_at": "2025-07-03T19:44:02.582-04:00", "avatar": "https://secure.gravatar.com/avatar/77954f5d9c0f9da24e614d9926a02b50.jpg?s=512&d=https%3A%2F%2Fa.slack-edge.com%2Fdf10d%2Fimg%2Favatars%2Fava_0005-512.png", "custom_css": null}, {"id": 7414, "slack_id": "U091HSMR7C3", "display_name": "Pratham Jangra", "bio": null, "projects_count": 0, "devlogs_count": 0, "votes_count": 0, "ships_count": 0, "projects": [], "coding_time_seconds": 0, "coding_time_seconds_today": 0, "balance": "You need to have a pocket watcher badge to view this.", "badges": [], "created_at": "2025-06-17T16:50:36.075-04:00", "updated_at": "2025-07-07T14:36:47.038-04:00", "avatar": "https://avatars.slack-edge.com/2025-06-17/9077700362545_a3b053eabdbfef9c9ebf_original.png", "custom_css": null}, {"id": 7415, "slack_id": "U091FP0U1GF", "display_name": "vin", "bio": null, "projects_count": 0, "devlogs_count": 0, "votes_count": 0, "ships_count": 0, "projects": [], "coding_time_seconds": 5942, "coding_time_seconds_today": 0, "balance": "You need to have a pocket watcher badge to view this.", "badges": [], "created_at": "2025-06-17T16:50:52.736-04:00", "updated_at": "2025-07-03T19:44:02.990-04:00", "avatar": "https://secure.gravatar.com/avatar/c20a40f707d1203c0db35a8f88f4831a.jpg?s=512&d=https%3A%2F%2Fa.slack-edge.com%2Fdf10d%2Fimg%2Favatars%2Fava_0000-512.png", "custom_css": null}, {"id": 7416, "slack_id": "U091FP5BGNT", "display_name": "Jakob", "bio": null, "projects_count": 0, "devlogs_count": 0, "votes_count": 0, "ships_count": 0, "projects": [], "coding_time_seconds": 0, "coding_time_seconds_today": 0, "balance": "You need to have a pocket watcher badge to view this.", "badges": [], "created_at": "2025-06-17T16:50:54.852-04:00", "updated_at": "2025-07-03T19:44:03.254-04:00", "avatar": "https://secure.gravatar.com/avatar/ff51865c5f5c3188b4175aa5e302de31.jpg?s=512&d=https%3A%2F%2Fa.slack-edge.com%2Fdf10d%2Fimg%2Favatars%2Fava_0004-512.png", "custom_css": null}, {"id": 7417, "slack_id": "U091VECD57F", "display_name": "Andrew Smiley", "bio": null, "projects_count": 0, "devlogs_count": 0, "votes_count": 0, "ships_count": 0, "projects": [], "coding_time_seconds": 0, "coding_time_seconds_today": 0, "balance": "You need to have a pocket watcher badge to view this.", "badges": [], "created_at": "2025-06-17T16:51:24.191-04:00", "updated_at": "2025-07-03T19:44:03.519-04:00", "avatar": "https://secure.gravatar.com/avatar/a6d66d8ac1229d52020b544604c170b0.jpg?s=512&d=https%3A%2F%2Fa.slack-edge.com%2Fdf10d%2Fimg%2Favatars%2Fava_0025-512.png", "custom_css": null}, {"id": 7418, "slack_id": "U091VEHC0VB", "display_name": "ThunderBlaze", "bio": null, "projects_count": 0, "devlogs_count": 0, "votes_count": 0, "ships_count": 0, "projects": [], "coding_time_seconds": 116313, "coding_time_seconds_today": 0, "balance": "You need to have a pocket watcher badge to view this.", "badges": [], "created_at": "2025-06-17T16:51:42.145-04:00", "updated_at": "2025-07-03T19:44:03.775-04:00", "avatar": "https://secure.gravatar.com/avatar/1afa3052fd895de2154fae15788da33f.jpg?s=512&d=https%3A%2F%2Fa.slack-edge.com%2Fdf10d%2Fimg%2Favatars%2Fava_0001-512.png", "custom_css": null}, {"id": 7419, "slack_id": "U0929LGPLQ1", "display_name": "Santi", "bio": null, "projects_count": 2, "devlogs_count": 4, "votes_count": 0, "ships_count": 0, "projects": [{"id": 1540, "title": "Better Url", "devlogs_count": 3, "created_at": "2025-06-18T17:50:07.936-04:00"}, {"id": 4332, "title": "bun chess engine", "devlogs_count": 1, "created_at": "2025-06-29T02:53:02.375-04:00"}], "coding_time_seconds": 454972, "coding_time_seconds_today": 0, "balance": "You need to have a pocket watcher badge to view this.", "badges": [], "created_at": "2025-06-17T16:54:19.817-04:00", "updated_at": "2025-08-15T14:27:08.533-04:00", "avatar": "https://avatars.slack-edge.com/2025-06-17/9063520562181_5cdfebf10efa977a3c4d_original.png", "custom_css": null}, {"id": 7420, "slack_id": "U091XFH2W2G", "display_name": "Denis", "bio": null, "projects_count": 0, "devlogs_count": 0, "votes_count": 0, "ships_count": 0, "projects": [], "coding_time_seconds": 8982, "coding_time_seconds_today": 0, "balance": "You need to have a pocket watcher badge to view this.", "badges": [], "created_at": "2025-06-17T16:55:57.149-04:00", "updated_at": "2025-07-04T08:22:58.989-04:00", "avatar": "https://secure.gravatar.com/avatar/ad457649da63af238c5fa3269dbafb90.jpg?s=512&d=https%3A%2F%2Fa.slack-edge.com%2Fdf10d%2Fimg%2Favatars%2Fava_0020-512.png", "custom_css": null}], "pagination": {"page": 371, "pages": 1192, "count": 23828, "items": 20}}