{"users": [{"id": 7421, "slack_id": "U091FPU1BF1", "display_name": "Cookie Wookie", "bio": null, "projects_count": 0, "devlogs_count": 0, "votes_count": 0, "ships_count": 0, "projects": [], "coding_time_seconds": 0, "coding_time_seconds_today": 0, "balance": "You need to have a pocket watcher badge to view this.", "badges": [], "created_at": "2025-06-17T16:59:09.650-04:00", "updated_at": "2025-07-06T14:08:13.993-04:00", "avatar": "https://secure.gravatar.com/avatar/0365d3d2b903033d794f4e731d39b974.jpg?s=512&d=https%3A%2F%2Fa.slack-edge.com%2Fdf10d%2Fimg%2Favatars%2Fava_0016-512.png", "custom_css": null}, {"id": 7422, "slack_id": "U092FRETLAC", "display_name": "Moses Man", "bio": null, "projects_count": 0, "devlogs_count": 0, "votes_count": 0, "ships_count": 0, "projects": [], "coding_time_seconds": 0, "coding_time_seconds_today": 0, "balance": "You need to have a pocket watcher badge to view this.", "badges": [], "created_at": "2025-06-17T16:59:20.771-04:00", "updated_at": "2025-07-05T08:08:39.298-04:00", "avatar": "https://avatars.slack-edge.com/2025-06-17/9058470081699_594756ea0bade2842f97_original.png", "custom_css": null}, {"id": 7423, "slack_id": "U091CSGJY6B", "display_name": "Empezeeet", "bio": null, "projects_count": 0, "devlogs_count": 0, "votes_count": 0, "ships_count": 0, "projects": [], "coding_time_seconds": 0, "coding_time_seconds_today": 0, "balance": "You need to have a pocket watcher badge to view this.", "badges": [], "created_at": "2025-06-17T17:00:11.976-04:00", "updated_at": "2025-07-03T21:57:16.684-04:00", "avatar": "https://secure.gravatar.com/avatar/542d2ac893c4c6264271c90b345e7c1e.jpg?s=512&d=https%3A%2F%2Fa.slack-edge.com%2Fdf10d%2Fimg%2Favatars%2Fava_0022-512.png", "custom_css": null}, {"id": 7424, "slack_id": "U091XFJ4E0L", "display_name": "Brett-k-cs", "bio": null, "projects_count": 0, "devlogs_count": 0, "votes_count": 0, "ships_count": 0, "projects": [], "coding_time_seconds": 0, "coding_time_seconds_today": 0, "balance": "You need to have a pocket watcher badge to view this.", "badges": [], "created_at": "2025-06-17T17:00:22.369-04:00", "updated_at": "2025-07-03T21:45:22.731-04:00", "avatar": "https://secure.gravatar.com/avatar/923ca93661668f3728376735eb2b936f.jpg?s=512&d=https%3A%2F%2Fa.slack-edge.com%2Fdf10d%2Fimg%2Favatars%2Fava_0008-512.png", "custom_css": null}, {"id": 7425, "slack_id": "U081HLUV753", "display_name": "rice", "bio": "", "projects_count": 2, "devlogs_count": 13, "votes_count": 0, "ships_count": 0, "projects": [{"id": 3353, "title": "Sirius | AI voice assistant", "devlogs_count": 12, "created_at": "2025-06-23T23:37:46.995-04:00"}, {"id": 11893, "title": "2d farming game", "devlogs_count": 1, "created_at": "2025-08-20T19:34:04.924-04:00"}], "coding_time_seconds": 75168, "coding_time_seconds_today": 0, "balance": "You need to have a pocket watcher badge to view this.", "badges": [], "created_at": "2025-06-17T17:02:34.010-04:00", "updated_at": "2025-08-07T13:30:14.765-04:00", "avatar": "https://avatars.slack-edge.com/2024-11-20/8058875823588_987d4a14ce7e50322157_original.png", "custom_css": null}, {"id": 7426, "slack_id": "U091QD4DGTD", "display_name": "Owen Lusis", "bio": null, "projects_count": 3, "devlogs_count": 33, "votes_count": 29, "ships_count": 2, "projects": [{"id": 5204, "title": "Settings Creator", "devlogs_count": 2, "created_at": "2025-07-03T17:38:31.499-04:00"}, {"id": 1537, "title": "Site Blocker", "devlogs_count": 29, "created_at": "2025-06-18T17:45:47.726-04:00"}, {"id": 5401, "title": "Book Recommendations Website", "devlogs_count": 2, "created_at": "2025-07-05T02:47:44.125-04:00"}], "coding_time_seconds": 203489, "coding_time_seconds_today": 0, "balance": "You need to have a pocket watcher badge to view this.", "badges": [{"name": "Maiden Voyage", "text": "you shipped your first project! the journey begins...", "icon": "\ud83d\udea2"}], "created_at": "2025-06-17T17:03:30.754-04:00", "updated_at": "2025-09-10T22:54:51.661-04:00", "avatar": "https://secure.gravatar.com/avatar/0d48d8aa4316c22f3b9267a4567719f1.jpg?s=512&d=https%3A%2F%2Fa.slack-edge.com%2Fdf10d%2Fimg%2Favatars%2Fava_0012-512.png", "custom_css": null}, {"id": 7427, "slack_id": "U091PJJ78GL", "display_name": "Franclim Ndala", "bio": null, "projects_count": 0, "devlogs_count": 0, "votes_count": 0, "ships_count": 0, "projects": [], "coding_time_seconds": 0, "coding_time_seconds_today": 0, "balance": "You need to have a pocket watcher badge to view this.", "badges": [], "created_at": "2025-06-17T17:03:49.959-04:00", "updated_at": "2025-07-03T19:44:05.271-04:00", "avatar": "https://avatars.slack-edge.com/2025-06-17/9065581853636_2d4c6b9b159dcd7e6f0d_original.jpg", "custom_css": null}, {"id": 7428, "slack_id": "U091FR7D3K9", "display_name": "Sumit", "bio": null, "projects_count": 0, "devlogs_count": 0, "votes_count": 0, "ships_count": 0, "projects": [], "coding_time_seconds": 0, "coding_time_seconds_today": 0, "balance": "You need to have a pocket watcher badge to view this.", "badges": [], "created_at": "2025-06-17T17:03:55.439-04:00", "updated_at": "2025-07-07T14:36:52.031-04:00", "avatar": "https://secure.gravatar.com/avatar/b2fda0da4e436c90002d37e60457384a.jpg?s=512&d=https%3A%2F%2Fa.slack-edge.com%2Fdf10d%2Fimg%2Favatars%2Fava_0020-512.png", "custom_css": null}, {"id": 7429, "slack_id": "U082PHH711U", "display_name": "Hazel Viswanath", "bio": null, "projects_count": 1, "devlogs_count": 0, "votes_count": 0, "ships_count": 0, "projects": [{"id": 2734, "title": "RougeLand", "devlogs_count": 0, "created_at": "2025-06-21T22:29:57.208-04:00"}], "coding_time_seconds": 170160, "coding_time_seconds_today": 0, "balance": "You need to have a pocket watcher badge to view this.", "badges": [], "created_at": "2025-06-17T17:04:36.449-04:00", "updated_at": "2025-07-03T19:44:05.672-04:00", "avatar": "https://avatars.slack-edge.com/2024-11-28/8098219987186_bfc53ef9272cb0d25504_original.jpg", "custom_css": null}, {"id": 7430, "slack_id": "U091FQZL0K1", "display_name": "Medha Gupta", "bio": null, "projects_count": 0, "devlogs_count": 0, "votes_count": 0, "ships_count": 0, "projects": [], "coding_time_seconds": 148154, "coding_time_seconds_today": 0, "balance": "You need to have a pocket watcher badge to view this.", "badges": [], "created_at": "2025-06-17T17:06:22.183-04:00", "updated_at": "2025-07-04T02:26:44.702-04:00", "avatar": "https://secure.gravatar.com/avatar/5fd190cb8ba1a810c9cb6ab99a4981aa.jpg?s=512&d=https%3A%2F%2Fa.slack-edge.com%2Fdf10d%2Fimg%2Favatars%2Fava_0004-512.png", "custom_css": null}, {"id": 7431, "slack_id": "U082UQ7GCF2", "display_name": "Nelson", "bio": null, "projects_count": 2, "devlogs_count": 7, "votes_count": 11, "ships_count": 0, "projects": [{"id": 2704, "title": "Meal Hub", "devlogs_count": 7, "created_at": "2025-06-21T18:39:01.317-04:00"}, {"id": 12809, "title": "Personal Website", "devlogs_count": 0, "created_at": "2025-09-03T02:21:08.912-04:00"}], "coding_time_seconds": 74213, "coding_time_seconds_today": 0, "balance": "You need to have a pocket watcher badge to view this.", "badges": [], "created_at": "2025-06-17T17:07:51.413-04:00", "updated_at": "2025-07-25T13:53:55.683-04:00", "avatar": "https://secure.gravatar.com/avatar/00564b3a928c8e1cb3ffa595007739ac.jpg?s=512&d=https%3A%2F%2Fa.slack-edge.com%2Fdf10d%2Fimg%2Favatars%2Fava_0015-512.png", "custom_css": null}, {"id": 7432, "slack_id": "U092KFYNBPA", "display_name": "chandra suda", "bio": null, "projects_count": 0, "devlogs_count": 0, "votes_count": 0, "ships_count": 0, "projects": [], "coding_time_seconds": 147876, "coding_time_seconds_today": 120, "balance": "You need to have a pocket watcher badge to view this.", "badges": [], "created_at": "2025-06-17T17:09:09.255-04:00", "updated_at": "2025-07-03T19:44:06.330-04:00", "avatar": "https://secure.gravatar.com/avatar/f3acca686a012234a54adc104607faf7.jpg?s=512&d=https%3A%2F%2Fa.slack-edge.com%2Fdf10d%2Fimg%2Favatars%2Fava_0012-512.png", "custom_css": null}, {"id": 7433, "slack_id": "U0827CL509G", "display_name": "Ronan V.", "bio": null, "projects_count": 7, "devlogs_count": 16, "votes_count": 43, "ships_count": 3, "projects": [{"id": 2968, "title": "Waveband Project (WIP)", "devlogs_count": 1, "created_at": "2025-06-22T15:47:24.235-04:00"}, {"id": 4156, "title": "15 Puzzle", "devlogs_count": 4, "created_at": "2025-06-27T23:10:16.147-04:00"}, {"id": 12729, "title": "Dasher", "devlogs_count": 3, "created_at": "2025-09-01T16:16:02.549-04:00"}, {"id": 13151, "title": "Catch Quest", "devlogs_count": 0, "created_at": "2025-09-09T22:20:55.291-04:00"}, {"id": 2365, "title": "Invest == Free Money?", "devlogs_count": 1, "created_at": "2025-06-20T20:33:42.700-04:00"}, {"id": 6860, "title": "Block Rush", "devlogs_count": 1, "created_at": "2025-07-16T22:57:40.527-04:00"}, {"id": 5040, "title": "Hypixel Stat Checker", "devlogs_count": 6, "created_at": "2025-07-02T21:46:45.854-04:00"}], "coding_time_seconds": 458277, "coding_time_seconds_today": 0, "balance": "You need to have a pocket watcher badge to view this.", "badges": [{"name": "Maiden Voyage", "text": "you shipped your first project! the journey begins...", "icon": "\ud83d\udea2"}], "created_at": "2025-06-17T17:12:06.298-04:00", "updated_at": "2025-09-10T22:54:51.833-04:00", "avatar": "https://secure.gravatar.com/avatar/3cff903154dbb44451d4fc6b249de334.jpg?s=512&d=https%3A%2F%2Fa.slack-edge.com%2Fdf10d%2Fimg%2Favatars%2Fava_0006-512.png", "custom_css": null}, {"id": 7434, "slack_id": "U091RB44QPL", "display_name": "Anwar", "bio": "", "projects_count": 3, "devlogs_count": 5, "votes_count": 3, "ships_count": 1, "projects": [{"id": 4535, "title": "Unicom", "devlogs_count": 2, "created_at": "2025-06-30T13:42:19.467-04:00"}, {"id": 10096, "title": "Payroll Manager", "devlogs_count": 0, "created_at": "2025-08-04T01:24:01.237-04:00"}, {"id": 9599, "title": "UofT Webring", "devlogs_count": 3, "created_at": "2025-08-01T19:11:51.685-04:00"}], "coding_time_seconds": 328069, "coding_time_seconds_today": 0, "balance": "You need to have a pocket watcher badge to view this.", "badges": [{"name": "Maiden Voyage", "text": "you shipped your first project! the journey begins...", "icon": "\ud83d\udea2"}], "created_at": "2025-06-17T17:14:00.840-04:00", "updated_at": "2025-09-10T22:54:51.859-04:00", "avatar": "https://secure.gravatar.com/avatar/ef216998368b92f5276f3ef94959aca1.jpg?s=512&d=https%3A%2F%2Fa.slack-edge.com%2Fdf10d%2Fimg%2Favatars%2Fava_0017-512.png", "custom_css": null}, {"id": 7435, "slack_id": "U091X5Q34TU", "display_name": "Deku", "bio": null, "projects_count": 1, "devlogs_count": 7, "votes_count": 1, "ships_count": 0, "projects": [{"id": 2770, "title": "Workout_Tracker", "devlogs_count": 7, "created_at": "2025-06-22T03:00:32.460-04:00"}], "coding_time_seconds": 166512, "coding_time_seconds_today": 0, "balance": "You need to have a pocket watcher badge to view this.", "badges": [], "created_at": "2025-06-17T17:14:25.459-04:00", "updated_at": "2025-07-03T19:44:06.878-04:00", "avatar": "https://avatars.slack-edge.com/2025-06-17/9058573314915_ae779f7bb01a2895f64e_original.jpg", "custom_css": null}, {"id": 7436, "slack_id": "U091QLSGC4E", "display_name": "aa_here", "bio": null, "projects_count": 0, "devlogs_count": 0, "votes_count": 0, "ships_count": 0, "projects": [], "coding_time_seconds": 0, "coding_time_seconds_today": 0, "balance": "You need to have a pocket watcher badge to view this.", "badges": [], "created_at": "2025-06-17T17:17:15.013-04:00", "updated_at": "2025-07-03T22:35:52.030-04:00", "avatar": "https://secure.gravatar.com/avatar/0e1d0674caffe8925ba307523b8153ac.jpg?s=512&d=https%3A%2F%2Fa.slack-edge.com%2Fdf10d%2Fimg%2Favatars%2Fava_0004-512.png", "custom_css": null}, {"id": 7437, "slack_id": "U0929PK5C5P", "display_name": "Owen Humphreys", "bio": null, "projects_count": 0, "devlogs_count": 0, "votes_count": 0, "ships_count": 0, "projects": [], "coding_time_seconds": 0, "coding_time_seconds_today": 0, "balance": "You need to have a pocket watcher badge to view this.", "badges": [], "created_at": "2025-06-17T17:18:17.869-04:00", "updated_at": "2025-07-03T21:45:23.688-04:00", "avatar": "https://secure.gravatar.com/avatar/2166e5795995b291b6592fd1bcddf883.jpg?s=512&d=https%3A%2F%2Fa.slack-edge.com%2Fdf10d%2Fimg%2Favatars%2Fava_0024-512.png", "custom_css": null}, {"id": 7438, "slack_id": "U091QG67WP5", "display_name": "areck", "bio": null, "projects_count": 0, "devlogs_count": 0, "votes_count": 0, "ships_count": 0, "projects": [], "coding_time_seconds": 34987, "coding_time_seconds_today": 0, "balance": "You need to have a pocket watcher badge to view this.", "badges": [], "created_at": "2025-06-17T17:19:07.812-04:00", "updated_at": "2025-07-03T19:44:07.426-04:00", "avatar": "https://secure.gravatar.com/avatar/45119f2bd030dad02afe6efe8d3a5fb0.jpg?s=512&d=https%3A%2F%2Fa.slack-edge.com%2Fdf10d%2Fimg%2Favatars%2Fava_0002-512.png", "custom_css": null}, {"id": 7439, "slack_id": "U0929N9R2PK", "display_name": "Theo Isaac", "bio": null, "projects_count": 5, "devlogs_count": 17, "votes_count": 10, "ships_count": 5, "projects": [{"id": 1664, "title": "Reddit post tracker", "devlogs_count": 2, "created_at": "2025-06-19T01:14:56.553-04:00"}, {"id": 6363, "title": "Simple Whack-a-mole", "devlogs_count": 2, "created_at": "2025-07-12T17:36:47.497-04:00"}, {"id": 6475, "title": "Simple Brick Breaker Game", "devlogs_count": 3, "created_at": "2025-07-13T16:49:27.039-04:00"}, {"id": 6791, "title": "Web Darts", "devlogs_count": 4, "created_at": "2025-07-16T08:30:18.347-04:00"}, {"id": 4738, "title": "Simple Slot Machine", "devlogs_count": 6, "created_at": "2025-07-01T10:01:24.668-04:00"}], "coding_time_seconds": 183889, "coding_time_seconds_today": 0, "balance": "You need to have a pocket watcher badge to view this.", "badges": [{"name": "Maiden Voyage", "text": "you shipped your first project! the journey begins...", "icon": "\ud83d\udea2"}, {"name": "Ballot Stuffer", "text": "vote 100 times.", "icon": "https://summer.hackclub.com/assets/i_voted-bf851b48.png"}], "created_at": "2025-06-17T17:20:02.413-04:00", "updated_at": "2025-09-10T22:54:51.981-04:00", "avatar": "https://secure.gravatar.com/avatar/05c55f1b167fd7675b3835edaf4e06d6.jpg?s=512&d=https%3A%2F%2Fa.slack-edge.com%2Fdf10d%2Fimg%2Favatars%2Fava_0006-512.png", "custom_css": null}, {"id": 7440, "slack_id": "U091QGHSS6P", "display_name": "Wesley117738", "bio": null, "projects_count": 0, "devlogs_count": 0, "votes_count": 3, "ships_count": 0, "projects": [], "coding_time_seconds": 51503, "coding_time_seconds_today": 0, "balance": "You need to have a pocket watcher badge to view this.", "badges": [], "created_at": "2025-06-17T17:22:08.801-04:00", "updated_at": "2025-07-10T08:10:46.204-04:00", "avatar": "https://secure.gravatar.com/avatar/c170ced12ffc8175dfb5a1a640bd2ce5.jpg?s=512&d=https%3A%2F%2Fa.slack-edge.com%2Fdf10d%2Fimg%2Favatars%2Fava_0003-512.png", "custom_css": null}], "pagination": {"page": 372, "pages": 1192, "count": 23828, "items": 20}}