{"users": [{"id": 7441, "slack_id": "U0929QK6QPK", "display_name": "Rodrigo P.", "bio": null, "projects_count": 0, "devlogs_count": 0, "votes_count": 0, "ships_count": 0, "projects": [], "coding_time_seconds": 227, "coding_time_seconds_today": 0, "balance": "You need to have a pocket watcher badge to view this.", "badges": [], "created_at": "2025-06-17T17:24:22.221-04:00", "updated_at": "2025-07-03T22:35:52.389-04:00", "avatar": "https://avatars.slack-edge.com/2025-06-18/9064087363443_3bf098a4d5affc1b108e_original.jpg", "custom_css": null}, {"id": 7442, "slack_id": "U091XK7R61J", "display_name": "nullnet", "bio": null, "projects_count": 5, "devlogs_count": 2, "votes_count": 6, "ships_count": 1, "projects": [{"id": 1470, "title": "NEURON", "devlogs_count": 1, "created_at": "2025-06-18T15:50:26.416-04:00"}, {"id": 1473, "title": "Status Website", "devlogs_count": 0, "created_at": "2025-06-18T15:54:30.016-04:00"}, {"id": 4372, "title": "CustomExplosives", "devlogs_count": 0, "created_at": "2025-06-29T12:17:06.609-04:00"}, {"id": 4376, "title": "eternal", "devlogs_count": 1, "created_at": "2025-06-29T12:27:59.553-04:00"}, {"id": 7648, "title": "CoolGuiLib", "devlogs_count": 0, "created_at": "2025-07-22T11:55:42.000-04:00"}], "coding_time_seconds": 380430, "coding_time_seconds_today": 0, "balance": "You need to have a pocket watcher badge to view this.", "badges": [{"name": "Maiden Voyage", "text": "you shipped your first project! the journey begins...", "icon": "\ud83d\udea2"}], "created_at": "2025-06-17T17:24:26.138-04:00", "updated_at": "2025-09-10T22:54:52.051-04:00", "avatar": "https://avatars.slack-edge.com/2025-06-29/9121668625378_dec104efeed64475c672_original.jpg", "custom_css": null}, {"id": 7443, "slack_id": "U08TNEW9KJM", "display_name": "Felix", "bio": null, "projects_count": 0, "devlogs_count": 0, "votes_count": 0, "ships_count": 0, "projects": [], "coding_time_seconds": 41020, "coding_time_seconds_today": 0, "balance": "You need to have a pocket watcher badge to view this.", "badges": [], "created_at": "2025-06-17T17:24:44.392-04:00", "updated_at": "2025-07-03T21:57:18.020-04:00", "avatar": "https://secure.gravatar.com/avatar/a0f3517168e7dce9ee584b745b034761.jpg?s=512&d=https%3A%2F%2Fa.slack-edge.com%2Fdf10d%2Fimg%2Favatars%2Fava_0013-512.png", "custom_css": null}, {"id": 7444, "slack_id": "U0929QNBCSV", "display_name": "Sam", "bio": null, "projects_count": 1, "devlogs_count": 0, "votes_count": 0, "ships_count": 0, "projects": [{"id": 9362, "title": "small pong game", "devlogs_count": 0, "created_at": "2025-07-31T19:40:10.595-04:00"}], "coding_time_seconds": 8152, "coding_time_seconds_today": 0, "balance": "You need to have a pocket watcher badge to view this.", "badges": [], "created_at": "2025-06-17T17:24:51.293-04:00", "updated_at": "2025-07-31T19:34:43.987-04:00", "avatar": "https://secure.gravatar.com/avatar/58ea1b78e004f700af7b14714dfa1b56.jpg?s=512&d=https%3A%2F%2Fa.slack-edge.com%2Fdf10d%2Fimg%2Favatars%2Fava_0003-512.png", "custom_css": null}, {"id": 7445, "slack_id": "U091X91E8GL", "display_name": "Filip", "bio": null, "projects_count": 0, "devlogs_count": 0, "votes_count": 0, "ships_count": 0, "projects": [], "coding_time_seconds": 0, "coding_time_seconds_today": 0, "balance": "You need to have a pocket watcher badge to view this.", "badges": [], "created_at": "2025-06-17T17:25:36.116-04:00", "updated_at": "2025-07-04T02:26:45.723-04:00", "avatar": "https://secure.gravatar.com/avatar/ff863fd3b4568b94685cb3bdc36cc308.jpg?s=512&d=https%3A%2F%2Fa.slack-edge.com%2Fdf10d%2Fimg%2Favatars%2Fava_0022-512.png", "custom_css": null}, {"id": 7446, "slack_id": "U091QNFPPSS", "display_name": "Tanish Rastogi", "bio": null, "projects_count": 0, "devlogs_count": 0, "votes_count": 0, "ships_count": 0, "projects": [], "coding_time_seconds": 0, "coding_time_seconds_today": 0, "balance": "You need to have a pocket watcher badge to view this.", "badges": [], "created_at": "2025-06-17T17:26:58.293-04:00", "updated_at": "2025-08-14T14:33:04.726-04:00", "avatar": "https://secure.gravatar.com/avatar/e366d10ac3563bebd5dcc7d735beef6d.jpg?s=512&d=https%3A%2F%2Fa.slack-edge.com%2Fdf10d%2Fimg%2Favatars%2Fava_0014-512.png", "custom_css": null}, {"id": 7447, "slack_id": "U091XK80MHS", "display_name": "sthitadhee", "bio": null, "projects_count": 0, "devlogs_count": 0, "votes_count": 0, "ships_count": 0, "projects": [], "coding_time_seconds": 0, "coding_time_seconds_today": 0, "balance": "You need to have a pocket watcher badge to view this.", "badges": [], "created_at": "2025-06-17T17:27:24.045-04:00", "updated_at": "2025-07-03T19:44:09.033-04:00", "avatar": "https://secure.gravatar.com/avatar/656dd6bddafe7fdd48a129395c8d6a1f.jpg?s=512&d=https%3A%2F%2Fa.slack-edge.com%2Fdf10d%2Fimg%2Favatars%2Fava_0004-512.png", "custom_css": null}, {"id": 7448, "slack_id": "U092KKEEVDW", "display_name": "Ram", "bio": null, "projects_count": 0, "devlogs_count": 0, "votes_count": 0, "ships_count": 0, "projects": [], "coding_time_seconds": 0, "coding_time_seconds_today": 0, "balance": "You need to have a pocket watcher badge to view this.", "badges": [], "created_at": "2025-06-17T17:28:13.548-04:00", "updated_at": "2025-07-03T21:57:18.374-04:00", "avatar": "https://secure.gravatar.com/avatar/3ea788430fc331fc0e3be7c8de773893.jpg?s=512&d=https%3A%2F%2Fa.slack-edge.com%2Fdf10d%2Fimg%2Favatars%2Fava_0005-512.png", "custom_css": null}, {"id": 7449, "slack_id": "U091FUBFFJB", "display_name": "Diya Shah", "bio": null, "projects_count": 0, "devlogs_count": 0, "votes_count": 0, "ships_count": 0, "projects": [], "coding_time_seconds": 120806, "coding_time_seconds_today": 1320, "balance": "You need to have a pocket watcher badge to view this.", "badges": [], "created_at": "2025-06-17T17:28:33.398-04:00", "updated_at": "2025-07-03T19:44:09.431-04:00", "avatar": "https://secure.gravatar.com/avatar/3cd3fed863e9dbee465d6e565eb01d7d.jpg?s=512&d=https%3A%2F%2Fa.slack-edge.com%2Fdf10d%2Fimg%2Favatars%2Fava_0014-512.png", "custom_css": null}, {"id": 7450, "slack_id": "U091VKETMGV", "display_name": "Fabi\u00e1n Montoya", "bio": null, "projects_count": 0, "devlogs_count": 0, "votes_count": 0, "ships_count": 0, "projects": [], "coding_time_seconds": 0, "coding_time_seconds_today": 0, "balance": "You need to have a pocket watcher badge to view this.", "badges": [], "created_at": "2025-06-17T17:28:42.756-04:00", "updated_at": "2025-07-03T19:44:09.689-04:00", "avatar": "https://secure.gravatar.com/avatar/0984263c4e226d89fd0ab2151e6ea12d.jpg?s=512&d=https%3A%2F%2Fa.slack-edge.com%2Fdf10d%2Fimg%2Favatars%2Fava_0000-512.png", "custom_css": null}, {"id": 7451, "slack_id": "U07V3RRA1A7", "display_name": "Theo Holroyd", "bio": null, "projects_count": 0, "devlogs_count": 0, "votes_count": 0, "ships_count": 0, "projects": [], "coding_time_seconds": 0, "coding_time_seconds_today": 0, "balance": "You need to have a pocket watcher badge to view this.", "badges": [], "created_at": "2025-06-17T17:29:12.201-04:00", "updated_at": "2025-07-07T15:57:00.373-04:00", "avatar": "https://secure.gravatar.com/avatar/3e331bb44bd3de14b2f7ee13076d51a3.jpg?s=512&d=https%3A%2F%2Fa.slack-edge.com%2Fdf10d%2Fimg%2Favatars%2Fava_0013-512.png", "custom_css": null}, {"id": 7452, "slack_id": "U07972SC7A9", "display_name": "Shibam Roy", "bio": null, "projects_count": 2, "devlogs_count": 35, "votes_count": 14, "ships_count": 1, "projects": [{"id": 5560, "title": "Mizuha", "devlogs_count": 12, "created_at": "2025-07-06T07:39:49.768-04:00"}, {"id": 11324, "title": "HackNet", "devlogs_count": 23, "created_at": "2025-08-14T23:05:45.130-04:00"}], "coding_time_seconds": 704849, "coding_time_seconds_today": 0, "balance": "You need to have a pocket watcher badge to view this.", "badges": [{"name": "Maiden Voyage", "text": "you shipped your first project! the journey begins...", "icon": "\ud83d\udea2"}], "created_at": "2025-06-17T17:29:47.688-04:00", "updated_at": "2025-09-19T08:14:29.021-04:00", "avatar": "https://avatars.slack-edge.com/2025-08-19/9378560692372_fd92a6d21c85c065569b_original.png", "custom_css": null}, {"id": 7453, "slack_id": "U091NV5PR5Y", "display_name": "Gaoussou SANOU", "bio": null, "projects_count": 0, "devlogs_count": 0, "votes_count": 0, "ships_count": 0, "projects": [], "coding_time_seconds": 0, "coding_time_seconds_today": 0, "balance": "You need to have a pocket watcher badge to view this.", "badges": [], "created_at": "2025-06-17T17:30:40.164-04:00", "updated_at": "2025-07-04T02:26:46.700-04:00", "avatar": "https://secure.gravatar.com/avatar/f3770afe59a23b0f761f31c79f4b55f6.jpg?s=512&d=https%3A%2F%2Fa.slack-edge.com%2Fdf10d%2Fimg%2Favatars%2Fava_0010-512.png", "custom_css": null}, {"id": 7454, "slack_id": "U08S6ACGMGT", "display_name": "Tanish R.", "bio": null, "projects_count": 3, "devlogs_count": 4, "votes_count": 36, "ships_count": 2, "projects": [{"id": 1521, "title": "Scheduler Powered by AI", "devlogs_count": 2, "created_at": "2025-06-18T17:16:39.187-04:00"}, {"id": 11036, "title": "AppliRemind", "devlogs_count": 1, "created_at": "2025-08-12T14:28:03.454-04:00"}, {"id": 11130, "title": "Personal Portfolio", "devlogs_count": 1, "created_at": "2025-08-13T11:29:24.926-04:00"}], "coding_time_seconds": 132598, "coding_time_seconds_today": 0, "balance": "You need to have a pocket watcher badge to view this.", "badges": [{"name": "Maiden Voyage", "text": "you shipped your first project! the journey begins...", "icon": "\ud83d\udea2"}], "created_at": "2025-06-17T17:31:28.507-04:00", "updated_at": "2025-09-10T22:54:52.407-04:00", "avatar": "https://secure.gravatar.com/avatar/82bba7aac60834f555b6493c2500c3ca.jpg?s=512&d=https%3A%2F%2Fa.slack-edge.com%2Fdf10d%2Fimg%2Favatars%2Fava_0002-512.png", "custom_css": null}, {"id": 7455, "slack_id": "U091X7AMGQ2", "display_name": "Pyro", "bio": null, "projects_count": 0, "devlogs_count": 0, "votes_count": 0, "ships_count": 0, "projects": [], "coding_time_seconds": 6453, "coding_time_seconds_today": 0, "balance": "You need to have a pocket watcher badge to view this.", "badges": [], "created_at": "2025-06-17T17:31:37.609-04:00", "updated_at": "2025-07-05T08:08:41.827-04:00", "avatar": "https://secure.gravatar.com/avatar/434af0a8c8228708b05ac0a255d99fd6.jpg?s=512&d=https%3A%2F%2Fa.slack-edge.com%2Fdf10d%2Fimg%2Favatars%2Fava_0009-512.png", "custom_css": null}, {"id": 7456, "slack_id": "U06TNUUN05B", "display_name": "hatanuk", "bio": null, "projects_count": 1, "devlogs_count": 1, "votes_count": 0, "ships_count": 0, "projects": [{"id": 12881, "title": "SubTile Sprig Renderer V2.0", "devlogs_count": 1, "created_at": "2025-09-04T10:29:02.252-04:00"}], "coding_time_seconds": 197727, "coding_time_seconds_today": 1632, "balance": "You need to have a pocket watcher badge to view this.", "badges": [], "created_at": "2025-06-17T17:32:05.308-04:00", "updated_at": "2025-08-11T15:19:04.248-04:00", "avatar": "https://avatars.slack-edge.com/2024-04-10/6946368853396_9cfbaeb9b2b151d318e6_original.jpg", "custom_css": null}, {"id": 7457, "slack_id": "U091XL7TSJY", "display_name": "Ulises", "bio": null, "projects_count": 0, "devlogs_count": 0, "votes_count": 0, "ships_count": 0, "projects": [], "coding_time_seconds": 2496, "coding_time_seconds_today": 0, "balance": "You need to have a pocket watcher badge to view this.", "badges": [], "created_at": "2025-06-17T17:32:44.716-04:00", "updated_at": "2025-07-03T22:35:53.601-04:00", "avatar": "https://secure.gravatar.com/avatar/802e9ff3ab59888feb03819b2825fa28.jpg?s=512&d=https%3A%2F%2Fa.slack-edge.com%2Fdf10d%2Fimg%2Favatars%2Fava_0022-512.png", "custom_css": null}, {"id": 7458, "slack_id": "U091QGYJJLB", "display_name": "Philipp Diesler", "bio": null, "projects_count": 0, "devlogs_count": 0, "votes_count": 0, "ships_count": 0, "projects": [], "coding_time_seconds": 0, "coding_time_seconds_today": 0, "balance": "You need to have a pocket watcher badge to view this.", "badges": [], "created_at": "2025-06-17T17:33:14.853-04:00", "updated_at": "2025-07-04T02:26:47.051-04:00", "avatar": "https://avatars.slack-edge.com/2025-06-17/9063698436725_68cc776b42e37d836108_original.png", "custom_css": null}, {"id": 7459, "slack_id": "U091QHL60H1", "display_name": "NoRodLocated", "bio": null, "projects_count": 0, "devlogs_count": 0, "votes_count": 0, "ships_count": 0, "projects": [], "coding_time_seconds": 0, "coding_time_seconds_today": 0, "balance": "You need to have a pocket watcher badge to view this.", "badges": [], "created_at": "2025-06-17T17:34:13.303-04:00", "updated_at": "2025-07-06T08:08:11.433-04:00", "avatar": "https://secure.gravatar.com/avatar/a3650546b6bc907ffd2da46a02249290.jpg?s=512&d=https%3A%2F%2Fa.slack-edge.com%2Fdf10d%2Fimg%2Favatars%2Fava_0000-512.png", "custom_css": null}, {"id": 7460, "slack_id": "U09263YA36V", "display_name": "Jatin Gera", "bio": null, "projects_count": 0, "devlogs_count": 0, "votes_count": 0, "ships_count": 0, "projects": [], "coding_time_seconds": 0, "coding_time_seconds_today": 0, "balance": "You need to have a pocket watcher badge to view this.", "badges": [], "created_at": "2025-06-17T17:34:27.519-04:00", "updated_at": "2025-07-05T14:09:24.085-04:00", "avatar": "https://secure.gravatar.com/avatar/5231024f3a36d5f245adfe59c918b4db.jpg?s=512&d=https%3A%2F%2Fa.slack-edge.com%2Fdf10d%2Fimg%2Favatars%2Fava_0009-512.png", "custom_css": null}], "pagination": {"page": 373, "pages": 1192, "count": 23828, "items": 20}}