{"users": [{"id": 7461, "slack_id": "U091XLAE1SQ", "display_name": "Kwizera Caleb", "bio": null, "projects_count": 0, "devlogs_count": 0, "votes_count": 0, "ships_count": 0, "projects": [], "coding_time_seconds": 4084, "coding_time_seconds_today": 0, "balance": "You need to have a pocket watcher badge to view this.", "badges": [], "created_at": "2025-06-17T17:35:33.802-04:00", "updated_at": "2025-07-03T19:44:11.672-04:00", "avatar": "https://secure.gravatar.com/avatar/ec1baa1562ed4b43fcddbb221b1af183.jpg?s=512&d=https%3A%2F%2Fa.slack-edge.com%2Fdf10d%2Fimg%2Favatars%2Fava_0008-512.png", "custom_css": null}, {"id": 7462, "slack_id": "U0833CLP5FE", "display_name": "emburn_", "bio": null, "projects_count": 0, "devlogs_count": 0, "votes_count": 0, "ships_count": 0, "projects": [], "coding_time_seconds": 0, "coding_time_seconds_today": 0, "balance": "You need to have a pocket watcher badge to view this.", "badges": [], "created_at": "2025-06-17T17:37:18.359-04:00", "updated_at": "2025-07-03T19:44:11.935-04:00", "avatar": "https://avatars.slack-edge.com/2024-11-29/8103016027330_bcba40ada1fac0ed0a21_original.png", "custom_css": null}, {"id": 7463, "slack_id": "U075FEXF3UZ", "display_name": "Kishi", "bio": null, "projects_count": 0, "devlogs_count": 0, "votes_count": 0, "ships_count": 0, "projects": [], "coding_time_seconds": 14555, "coding_time_seconds_today": 0, "balance": "You need to have a pocket watcher badge to view this.", "badges": [], "created_at": "2025-06-17T17:37:33.831-04:00", "updated_at": "2025-07-03T21:45:25.417-04:00", "avatar": "https://avatars.slack-edge.com/2025-06-10/9051472645808_9902b19afef596108833_original.png", "custom_css": null}, {"id": 7464, "slack_id": "U091FTB1YCF", "display_name": "DonickPL", "bio": null, "projects_count": 1, "devlogs_count": 1, "votes_count": 0, "ships_count": 0, "projects": [{"id": 2304, "title": "Python City Builder", "devlogs_count": 1, "created_at": "2025-06-20T16:48:38.183-04:00"}], "coding_time_seconds": 13137, "coding_time_seconds_today": 0, "balance": "You need to have a pocket watcher badge to view this.", "badges": [], "created_at": "2025-06-17T17:38:39.384-04:00", "updated_at": "2025-07-03T19:44:12.341-04:00", "avatar": "https://avatars.slack-edge.com/2025-06-18/9067917232100_8ebeb1d28a94240ff3dd_original.jpg", "custom_css": null}, {"id": 7465, "slack_id": "U092KLN8C0Y", "display_name": "Frazer", "bio": null, "projects_count": 0, "devlogs_count": 0, "votes_count": 0, "ships_count": 0, "projects": [], "coding_time_seconds": 0, "coding_time_seconds_today": 0, "balance": "You need to have a pocket watcher badge to view this.", "badges": [], "created_at": "2025-06-17T17:39:26.987-04:00", "updated_at": "2025-07-03T19:44:12.615-04:00", "avatar": "https://secure.gravatar.com/avatar/b573eaa2fe27f07dddbe2ad4586f8764.jpg?s=512&d=https%3A%2F%2Fa.slack-edge.com%2Fdf10d%2Fimg%2Favatars%2Fava_0019-512.png", "custom_css": null}, {"id": 7466, "slack_id": "U092HTRBYGG", "display_name": "Lucas", "bio": null, "projects_count": 0, "devlogs_count": 0, "votes_count": 0, "ships_count": 0, "projects": [], "coding_time_seconds": 0, "coding_time_seconds_today": 0, "balance": "You need to have a pocket watcher badge to view this.", "badges": [], "created_at": "2025-06-17T17:40:24.152-04:00", "updated_at": "2025-07-03T19:44:12.875-04:00", "avatar": "https://secure.gravatar.com/avatar/bb860b10046f62f635612f0bd97d3a5b.jpg?s=512&d=https%3A%2F%2Fa.slack-edge.com%2Fdf10d%2Fimg%2Favatars%2Fava_0021-512.png", "custom_css": null}, {"id": 7467, "slack_id": "U091QQJ7QMC", "display_name": "Honza", "bio": null, "projects_count": 0, "devlogs_count": 0, "votes_count": 0, "ships_count": 0, "projects": [], "coding_time_seconds": 0, "coding_time_seconds_today": 0, "balance": "You need to have a pocket watcher badge to view this.", "badges": [], "created_at": "2025-06-17T17:41:42.008-04:00", "updated_at": "2025-07-03T21:45:25.744-04:00", "avatar": "https://secure.gravatar.com/avatar/662e2a69afff833209923b55ddd65962.jpg?s=512&d=https%3A%2F%2Fa.slack-edge.com%2Fdf10d%2Fimg%2Favatars%2Fava_0016-512.png", "custom_css": null}, {"id": 7468, "slack_id": "U091XMC6ZE0", "display_name": "Aarnav", "bio": null, "projects_count": 0, "devlogs_count": 0, "votes_count": 0, "ships_count": 0, "projects": [], "coding_time_seconds": 17592, "coding_time_seconds_today": 0, "balance": "You need to have a pocket watcher badge to view this.", "badges": [], "created_at": "2025-06-17T17:41:49.704-04:00", "updated_at": "2025-07-03T19:44:13.628-04:00", "avatar": "https://secure.gravatar.com/avatar/94666c7fe04e95e6f50a3ea15c73fc3a.jpg?s=512&d=https%3A%2F%2Fa.slack-edge.com%2Fdf10d%2Fimg%2Favatars%2Fava_0011-512.png", "custom_css": null}, {"id": 7469, "slack_id": "U07QEF2S2KD", "display_name": "Celeste", "bio": null, "projects_count": 0, "devlogs_count": 0, "votes_count": 0, "ships_count": 0, "projects": [], "coding_time_seconds": 0, "coding_time_seconds_today": 0, "balance": "You need to have a pocket watcher badge to view this.", "badges": [], "created_at": "2025-06-17T17:41:57.589-04:00", "updated_at": "2025-07-03T19:44:13.892-04:00", "avatar": "https://secure.gravatar.com/avatar/ffdc3e67818edaf7e935ab7631b5ce76.jpg?s=512&d=https%3A%2F%2Fa.slack-edge.com%2Fdf10d%2Fimg%2Favatars%2Fava_0006-512.png", "custom_css": null}, {"id": 7470, "slack_id": "U091FN84Q9M", "display_name": "Ren l", "bio": null, "projects_count": 2, "devlogs_count": 2, "votes_count": 1, "ships_count": 1, "projects": [{"id": 2249, "title": "KaitoianOS", "devlogs_count": 1, "created_at": "2025-06-20T14:45:20.985-04:00"}, {"id": 8119, "title": "Stonks - A full feature Stock Predictor", "devlogs_count": 1, "created_at": "2025-07-24T18:18:13.962-04:00"}], "coding_time_seconds": 115564, "coding_time_seconds_today": 0, "balance": "You need to have a pocket watcher badge to view this.", "badges": [{"name": "Maiden Voyage", "text": "you shipped your first project! the journey begins...", "icon": "\ud83d\udea2"}], "created_at": "2025-06-17T17:42:09.548-04:00", "updated_at": "2025-09-10T22:54:52.900-04:00", "avatar": "https://secure.gravatar.com/avatar/ac923760c18a6bcad59f04bc4af52b55.jpg?s=512&d=https%3A%2F%2Fa.slack-edge.com%2Fdf10d%2Fimg%2Favatars%2Fava_0001-512.png", "custom_css": null}, {"id": 7471, "slack_id": "U091QK1B24B", "display_name": "Adam Croft", "bio": null, "projects_count": 2, "devlogs_count": 1, "votes_count": 4, "ships_count": 0, "projects": [{"id": 2976, "title": "DelEverything", "devlogs_count": 1, "created_at": "2025-06-22T16:08:45.080-04:00"}, {"id": 3716, "title": "Screen2Docx", "devlogs_count": 0, "created_at": "2025-06-25T10:49:57.099-04:00"}], "coding_time_seconds": 179644, "coding_time_seconds_today": 0, "balance": "You need to have a pocket watcher badge to view this.", "badges": [], "created_at": "2025-06-17T17:42:42.891-04:00", "updated_at": "2025-08-07T15:34:05.883-04:00", "avatar": "https://secure.gravatar.com/avatar/15ad473288263dd26aa9a16aa067ef53.jpg?s=512&d=https%3A%2F%2Fa.slack-edge.com%2Fdf10d%2Fimg%2Favatars%2Fava_0010-512.png", "custom_css": null}, {"id": 7472, "slack_id": "U091XMDSM9A", "display_name": "Advait Borole", "bio": null, "projects_count": 0, "devlogs_count": 0, "votes_count": 0, "ships_count": 0, "projects": [], "coding_time_seconds": 19917, "coding_time_seconds_today": 0, "balance": "You need to have a pocket watcher badge to view this.", "badges": [], "created_at": "2025-06-17T17:42:48.123-04:00", "updated_at": "2025-07-03T19:44:14.544-04:00", "avatar": "https://secure.gravatar.com/avatar/1fe0bdf54d5e76d5285c29b34d894797.jpg?s=512&d=https%3A%2F%2Fa.slack-edge.com%2Fdf10d%2Fimg%2Favatars%2Fava_0006-512.png", "custom_css": null}, {"id": 7473, "slack_id": "U07CLC4NNTW", "display_name": "czcx", "bio": null, "projects_count": 0, "devlogs_count": 0, "votes_count": 0, "ships_count": 0, "projects": [], "coding_time_seconds": 0, "coding_time_seconds_today": 0, "balance": "You need to have a pocket watcher badge to view this.", "badges": [], "created_at": "2025-06-17T17:45:40.037-04:00", "updated_at": "2025-07-03T19:44:14.810-04:00", "avatar": "https://secure.gravatar.com/avatar/c8f69e1a5431b3927e6ab8743dd1f15c.jpg?s=512&d=https%3A%2F%2Fa.slack-edge.com%2Fdf10d%2Fimg%2Favatars%2Fava_0017-512.png", "custom_css": null}, {"id": 7474, "slack_id": "U087MEYR2SU", "display_name": "Daniel Li", "bio": null, "projects_count": 0, "devlogs_count": 0, "votes_count": 0, "ships_count": 0, "projects": [], "coding_time_seconds": 7808, "coding_time_seconds_today": 0, "balance": "You need to have a pocket watcher badge to view this.", "badges": [], "created_at": "2025-06-17T17:45:44.280-04:00", "updated_at": "2025-07-03T19:44:15.077-04:00", "avatar": "https://avatars.slack-edge.com/2024-12-31/8239208671252_5ea602bf18e422b74471_original.png", "custom_css": null}, {"id": 7475, "slack_id": "U092KMH5T1N", "display_name": "mannan tariq", "bio": null, "projects_count": 0, "devlogs_count": 0, "votes_count": 0, "ships_count": 0, "projects": [], "coding_time_seconds": 24039, "coding_time_seconds_today": 0, "balance": "You need to have a pocket watcher badge to view this.", "badges": [], "created_at": "2025-06-17T17:46:28.186-04:00", "updated_at": "2025-07-07T14:37:11.376-04:00", "avatar": "https://avatars.slack-edge.com/2025-06-17/9058866353606_db94538f865e25e6368c_original.png", "custom_css": null}, {"id": 7476, "slack_id": "U08R2DMDVPC", "display_name": "Adib", "bio": null, "projects_count": 0, "devlogs_count": 0, "votes_count": 0, "ships_count": 0, "projects": [], "coding_time_seconds": 0, "coding_time_seconds_today": 0, "balance": "You need to have a pocket watcher badge to view this.", "badges": [], "created_at": "2025-06-17T17:48:03.708-04:00", "updated_at": "2025-09-19T12:36:38.788-04:00", "avatar": "https://avatars.slack-edge.com/2025-09-19/9548591040274_652bc0014072c43a4bd9_original.png", "custom_css": null}, {"id": 7477, "slack_id": "U091XMV9PN0", "display_name": "Anish Pallati", "bio": null, "projects_count": 2, "devlogs_count": 5, "votes_count": 0, "ships_count": 1, "projects": [{"id": 1733, "title": "cerulean (CMU 2029 Discord Bot)", "devlogs_count": 3, "created_at": "2025-06-19T05:49:50.978-04:00"}, {"id": 5634, "title": "CMU Courses Backend", "devlogs_count": 2, "created_at": "2025-07-06T19:10:46.178-04:00"}], "coding_time_seconds": 249760, "coding_time_seconds_today": 0, "balance": "You need to have a pocket watcher badge to view this.", "badges": [{"name": "Maiden Voyage", "text": "you shipped your first project! the journey begins...", "icon": "\ud83d\udea2"}], "created_at": "2025-06-17T17:48:17.154-04:00", "updated_at": "2025-09-10T22:54:53.058-04:00", "avatar": "https://avatars.slack-edge.com/2025-06-17/9077939191521_70a4fd7f7f5162a7e684_original.png", "custom_css": null}, {"id": 7478, "slack_id": "U07F7GAJ5DJ", "display_name": "barab", "bio": null, "projects_count": 1, "devlogs_count": 3, "votes_count": 2, "ships_count": 1, "projects": [{"id": 1508, "title": "brice - barab's nixos ricing", "devlogs_count": 3, "created_at": "2025-06-18T16:49:28.402-04:00"}], "coding_time_seconds": 136337, "coding_time_seconds_today": 0, "balance": "You need to have a pocket watcher badge to view this.", "badges": [{"name": "Maiden Voyage", "text": "you shipped your first project! the journey begins...", "icon": "\ud83d\udea2"}], "created_at": "2025-06-17T17:49:00.964-04:00", "updated_at": "2025-09-21T12:12:10.857-04:00", "avatar": "https://secure.gravatar.com/avatar/ea08c7ad511c16d1c9ed313cd2415cc8.jpg?s=512&d=https%3A%2F%2Fa.slack-edge.com%2Fdf10d%2Fimg%2Favatars%2Fava_0024-512.png", "custom_css": null}, {"id": 7479, "slack_id": "U081PP0P9SB", "display_name": "Wyatt B.", "bio": null, "projects_count": 1, "devlogs_count": 3, "votes_count": 0, "ships_count": 0, "projects": [{"id": 2967, "title": "Weet", "devlogs_count": 3, "created_at": "2025-06-22T15:43:11.034-04:00"}], "coding_time_seconds": 35968, "coding_time_seconds_today": 0, "balance": "You need to have a pocket watcher badge to view this.", "badges": [], "created_at": "2025-06-17T17:49:02.126-04:00", "updated_at": "2025-07-03T19:44:16.279-04:00", "avatar": "https://avatars.slack-edge.com/2025-05-05/8847759925493_b806404825128623524b_original.jpg", "custom_css": null}, {"id": 7480, "slack_id": "U0929T5FUKB", "display_name": "Ali", "bio": null, "projects_count": 0, "devlogs_count": 0, "votes_count": 0, "ships_count": 0, "projects": [], "coding_time_seconds": 0, "coding_time_seconds_today": 0, "balance": "You need to have a pocket watcher badge to view this.", "badges": [], "created_at": "2025-06-17T17:49:49.145-04:00", "updated_at": "2025-07-07T02:09:34.716-04:00", "avatar": "https://secure.gravatar.com/avatar/68a870cb3f2e183702de9f1d6c5c74bb.jpg?s=512&d=https%3A%2F%2Fa.slack-edge.com%2Fdf10d%2Fimg%2Favatars%2Fava_0007-512.png", "custom_css": null}], "pagination": {"page": 374, "pages": 1192, "count": 23828, "items": 20}}