{"users": [{"id": 7481, "slack_id": "U07GS1Y6733", "display_name": "Julia", "bio": null, "projects_count": 0, "devlogs_count": 0, "votes_count": 0, "ships_count": 0, "projects": [], "coding_time_seconds": 4192, "coding_time_seconds_today": 0, "balance": "You need to have a pocket watcher badge to view this.", "badges": [], "created_at": "2025-06-17T17:51:29.478-04:00", "updated_at": "2025-07-03T19:44:16.684-04:00", "avatar": "https://avatars.slack-edge.com/2025-03-10/8581545502770_c45c07a782d1adc1f397_original.png", "custom_css": null}, {"id": 7482, "slack_id": "U091VN5T39B", "display_name": "Ruilin Peng", "bio": null, "projects_count": 0, "devlogs_count": 0, "votes_count": 0, "ships_count": 0, "projects": [], "coding_time_seconds": 0, "coding_time_seconds_today": 0, "balance": "You need to have a pocket watcher badge to view this.", "badges": [], "created_at": "2025-06-17T17:51:36.778-04:00", "updated_at": "2025-07-03T19:44:16.945-04:00", "avatar": "https://secure.gravatar.com/avatar/65c1cf3a57b1d86c7a1690c016c9edbd.jpg?s=512&d=https%3A%2F%2Fa.slack-edge.com%2Fdf10d%2Fimg%2Favatars%2Fava_0023-512.png", "custom_css": null}, {"id": 7483, "slack_id": "U092BHVC6JU", "display_name": "Fidel", "bio": null, "projects_count": 0, "devlogs_count": 0, "votes_count": 0, "ships_count": 0, "projects": [], "coding_time_seconds": 121, "coding_time_seconds_today": 0, "balance": "You need to have a pocket watcher badge to view this.", "badges": [], "created_at": "2025-06-17T17:52:15.589-04:00", "updated_at": "2025-07-03T19:44:17.202-04:00", "avatar": "https://avatars.slack-edge.com/2025-06-17/9077952624081_17fbe7baf9da3192da48_original.jpg", "custom_css": null}, {"id": 7484, "slack_id": "U079G100T7A", "display_name": "sky", "bio": null, "projects_count": 0, "devlogs_count": 0, "votes_count": 0, "ships_count": 0, "projects": [], "coding_time_seconds": 43239, "coding_time_seconds_today": 0, "balance": "You need to have a pocket watcher badge to view this.", "badges": [], "created_at": "2025-06-17T17:54:54.440-04:00", "updated_at": "2025-07-03T21:57:20.827-04:00", "avatar": "https://secure.gravatar.com/avatar/04502da9a2bfe3d0d32447d0cf62e9d7.jpg?s=512&d=https%3A%2F%2Fa.slack-edge.com%2Fdf10d%2Fimg%2Favatars%2Fava_0005-512.png", "custom_css": null}, {"id": 7485, "slack_id": "U091PTKT5D1", "display_name": "Nikhil Reddy", "bio": null, "projects_count": 0, "devlogs_count": 0, "votes_count": 0, "ships_count": 0, "projects": [], "coding_time_seconds": 0, "coding_time_seconds_today": 0, "balance": "You need to have a pocket watcher badge to view this.", "badges": [], "created_at": "2025-06-17T17:56:19.107-04:00", "updated_at": "2025-07-03T19:44:17.613-04:00", "avatar": "https://secure.gravatar.com/avatar/db95d61b7b21858edf1f21d09864460f.jpg?s=512&d=https%3A%2F%2Fa.slack-edge.com%2Fdf10d%2Fimg%2Favatars%2Fava_0016-512.png", "custom_css": null}, {"id": 7486, "slack_id": "U081HG9H6N8", "display_name": "Mukhil", "bio": null, "projects_count": 1, "devlogs_count": 1, "votes_count": 20, "ships_count": 1, "projects": [{"id": 6208, "title": "CleanIt", "devlogs_count": 1, "created_at": "2025-07-11T10:16:41.866-04:00"}], "coding_time_seconds": 57257, "coding_time_seconds_today": 0, "balance": "You need to have a pocket watcher badge to view this.", "badges": [{"name": "Maiden Voyage", "text": "you shipped your first project! the journey begins...", "icon": "\ud83d\udea2"}], "created_at": "2025-06-17T17:56:59.412-04:00", "updated_at": "2025-09-10T22:54:53.298-04:00", "avatar": "https://secure.gravatar.com/avatar/3e00bf767b188772a0e8ea6bb8a682d1.jpg?s=512&d=https%3A%2F%2Fa.slack-edge.com%2Fdf10d%2Fimg%2Favatars%2Fava_0017-512.png", "custom_css": null}, {"id": 7487, "slack_id": "U06U13RSLH2", "display_name": "Karman", "bio": null, "projects_count": 0, "devlogs_count": 0, "votes_count": 0, "ships_count": 0, "projects": [], "coding_time_seconds": 0, "coding_time_seconds_today": 0, "balance": "You need to have a pocket watcher badge to view this.", "badges": [], "created_at": "2025-06-17T17:59:13.299-04:00", "updated_at": "2025-07-03T19:44:18.204-04:00", "avatar": "https://secure.gravatar.com/avatar/77c73fadd4cf78511f3ae1ae288e562c.jpg?s=512&d=https%3A%2F%2Fa.slack-edge.com%2Fdf10d%2Fimg%2Favatars%2Fava_0026-512.png", "custom_css": null}, {"id": 7488, "slack_id": "U091QSS9J7Q", "display_name": "[redacted content] (TheTank07)", "bio": null, "projects_count": 0, "devlogs_count": 0, "votes_count": 0, "ships_count": 0, "projects": [], "coding_time_seconds": 0, "coding_time_seconds_today": 0, "balance": "You need to have a pocket watcher badge to view this.", "badges": [], "created_at": "2025-06-17T18:01:12.617-04:00", "updated_at": "2025-07-03T22:35:55.655-04:00", "avatar": "https://avatars.slack-edge.com/2025-06-17/9058730956675_48abd426991e32863d3a_original.jpg", "custom_css": null}, {"id": 7489, "slack_id": "U091VPDH4JZ", "display_name": "James", "bio": null, "projects_count": 0, "devlogs_count": 0, "votes_count": 0, "ships_count": 0, "projects": [], "coding_time_seconds": 0, "coding_time_seconds_today": 0, "balance": "You need to have a pocket watcher badge to view this.", "badges": [], "created_at": "2025-06-17T18:02:50.187-04:00", "updated_at": "2025-07-03T19:44:18.601-04:00", "avatar": "https://secure.gravatar.com/avatar/56ee7d7c606a657be188e63c9717c5af.jpg?s=512&d=https%3A%2F%2Fa.slack-edge.com%2Fdf10d%2Fimg%2Favatars%2Fava_0012-512.png", "custom_css": null}, {"id": 7490, "slack_id": "U091PPW4W12", "display_name": "Devanshu Tripathi", "bio": null, "projects_count": 0, "devlogs_count": 0, "votes_count": 0, "ships_count": 0, "projects": [], "coding_time_seconds": 0, "coding_time_seconds_today": 0, "balance": "You need to have a pocket watcher badge to view this.", "badges": [], "created_at": "2025-06-17T18:02:51.545-04:00", "updated_at": "2025-07-03T19:44:18.936-04:00", "avatar": "https://secure.gravatar.com/avatar/75c4a1ddd8aa97cd3ae1a1079636687c.jpg?s=512&d=https%3A%2F%2Fa.slack-edge.com%2Fdf10d%2Fimg%2Favatars%2Fava_0013-512.png", "custom_css": null}, {"id": 7491, "slack_id": "U07A5NGSPJQ", "display_name": "a_mishmash", "bio": null, "projects_count": 0, "devlogs_count": 0, "votes_count": 0, "ships_count": 0, "projects": [], "coding_time_seconds": 0, "coding_time_seconds_today": 0, "balance": "You need to have a pocket watcher badge to view this.", "badges": [], "created_at": "2025-06-17T18:04:47.992-04:00", "updated_at": "2025-07-03T19:44:19.219-04:00", "avatar": "https://secure.gravatar.com/avatar/d031fca68e3be23afde85dc164c4787a.jpg?s=512&d=https%3A%2F%2Fa.slack-edge.com%2Fdf10d%2Fimg%2Favatars%2Fava_0004-512.png", "custom_css": null}, {"id": 7492, "slack_id": "U091QMEDU5R", "display_name": "anoureen tamer", "bio": null, "projects_count": 0, "devlogs_count": 0, "votes_count": 0, "ships_count": 0, "projects": [], "coding_time_seconds": 4478, "coding_time_seconds_today": 0, "balance": "You need to have a pocket watcher badge to view this.", "badges": [], "created_at": "2025-06-17T18:05:00.029-04:00", "updated_at": "2025-07-03T19:44:19.496-04:00", "avatar": "https://avatars.slack-edge.com/2025-06-17/9078001777537_52347d8e5df288fb8711_original.png", "custom_css": null}, {"id": 7493, "slack_id": "U091QJ7KVAP", "display_name": "Noah", "bio": null, "projects_count": 0, "devlogs_count": 0, "votes_count": 0, "ships_count": 0, "projects": [], "coding_time_seconds": 0, "coding_time_seconds_today": 0, "balance": "You need to have a pocket watcher badge to view this.", "badges": [], "created_at": "2025-06-17T18:05:03.064-04:00", "updated_at": "2025-07-04T08:23:04.223-04:00", "avatar": "https://secure.gravatar.com/avatar/8e18b78518dc30efd9b5c0c3a75d2cd7.jpg?s=512&d=https%3A%2F%2Fa.slack-edge.com%2Fdf10d%2Fimg%2Favatars%2Fava_0012-512.png", "custom_css": null}, {"id": 7494, "slack_id": "U091XPVLETW", "display_name": "0teir", "bio": null, "projects_count": 0, "devlogs_count": 0, "votes_count": 0, "ships_count": 0, "projects": [], "coding_time_seconds": 0, "coding_time_seconds_today": 0, "balance": "You need to have a pocket watcher badge to view this.", "badges": [], "created_at": "2025-06-17T18:06:48.511-04:00", "updated_at": "2025-07-03T19:44:19.894-04:00", "avatar": "https://secure.gravatar.com/avatar/cf38bb987a3e6dc37b774f4d2b7c8a24.jpg?s=512&d=https%3A%2F%2Fa.slack-edge.com%2Fdf10d%2Fimg%2Favatars%2Fava_0022-512.png", "custom_css": null}, {"id": 7495, "slack_id": "U08234LELFP", "display_name": "selina", "bio": null, "projects_count": 0, "devlogs_count": 0, "votes_count": 0, "ships_count": 0, "projects": [], "coding_time_seconds": 17844, "coding_time_seconds_today": 0, "balance": "You need to have a pocket watcher badge to view this.", "badges": [], "created_at": "2025-06-17T18:07:38.144-04:00", "updated_at": "2025-09-06T20:36:41.907-04:00", "avatar": "https://avatars.slack-edge.com/2025-09-06/9470521728085_35e712a5410ba0769c04_original.png", "custom_css": null}, {"id": 7496, "slack_id": "U072ZMXRDCK", "display_name": "Kunshpreet", "bio": null, "projects_count": 1, "devlogs_count": 1, "votes_count": 0, "ships_count": 0, "projects": [{"id": 3568, "title": "SaturnArm", "devlogs_count": 1, "created_at": "2025-06-24T18:20:36.552-04:00"}], "coding_time_seconds": 21667, "coding_time_seconds_today": 0, "balance": "You need to have a pocket watcher badge to view this.", "badges": [], "created_at": "2025-06-17T18:08:09.390-04:00", "updated_at": "2025-07-03T22:35:56.255-04:00", "avatar": "https://avatars.slack-edge.com/2024-05-10/7101861126130_9879c6f8f4fa6111a6de_original.jpg", "custom_css": null}, {"id": 7497, "slack_id": "U08RKLBHRMM", "display_name": "Shrish", "bio": null, "projects_count": 0, "devlogs_count": 0, "votes_count": 0, "ships_count": 0, "projects": [], "coding_time_seconds": 0, "coding_time_seconds_today": 0, "balance": "You need to have a pocket watcher badge to view this.", "badges": [], "created_at": "2025-06-17T18:08:10.224-04:00", "updated_at": "2025-07-03T19:44:20.537-04:00", "avatar": "https://secure.gravatar.com/avatar/663bdf6767644f04b030658d22b7dd9b.jpg?s=512&d=https%3A%2F%2Fa.slack-edge.com%2Fdf10d%2Fimg%2Favatars%2Fava_0015-512.png", "custom_css": null}, {"id": 7498, "slack_id": "U08UGTGS4HE", "display_name": "Esther", "bio": null, "projects_count": 2, "devlogs_count": 12, "votes_count": 2, "ships_count": 0, "projects": [{"id": 1602, "title": "The Lord's Staff", "devlogs_count": 11, "created_at": "2025-06-18T20:56:21.428-04:00"}, {"id": 5575, "title": "musicislife", "devlogs_count": 1, "created_at": "2025-07-06T10:21:52.436-04:00"}], "coding_time_seconds": 225779, "coding_time_seconds_today": 0, "balance": "You need to have a pocket watcher badge to view this.", "badges": [], "created_at": "2025-06-17T18:09:14.494-04:00", "updated_at": "2025-09-13T21:51:56.705-04:00", "avatar": "https://avatars.slack-edge.com/2025-09-13/9514066007890_e8b0fc8e47b61576933c_original.png", "custom_css": null}, {"id": 7499, "slack_id": "U091QT73QGN", "display_name": "Artemis Kelly", "bio": null, "projects_count": 0, "devlogs_count": 0, "votes_count": 0, "ships_count": 0, "projects": [], "coding_time_seconds": 0, "coding_time_seconds_today": 0, "balance": "You need to have a pocket watcher badge to view this.", "badges": [], "created_at": "2025-06-17T18:09:29.285-04:00", "updated_at": "2025-07-03T19:44:20.936-04:00", "avatar": "https://secure.gravatar.com/avatar/b4950ab94cb99b1d8313d53d8d497ed1.jpg?s=512&d=https%3A%2F%2Fa.slack-edge.com%2Fdf10d%2Fimg%2Favatars%2Fava_0017-512.png", "custom_css": null}, {"id": 7500, "slack_id": "U091X79EZA6", "display_name": "mel", "bio": null, "projects_count": 0, "devlogs_count": 2, "votes_count": 0, "ships_count": 0, "projects": [], "coding_time_seconds": 333955, "coding_time_seconds_today": 0, "balance": "You need to have a pocket watcher badge to view this.", "badges": [], "created_at": "2025-06-17T18:10:17.990-04:00", "updated_at": "2025-07-09T16:57:03.978-04:00", "avatar": "https://secure.gravatar.com/avatar/861049bee515322f432f485f2186af5a.jpg?s=512&d=https%3A%2F%2Fa.slack-edge.com%2Fdf10d%2Fimg%2Favatars%2Fava_0018-512.png", "custom_css": null}], "pagination": {"page": 375, "pages": 1192, "count": 23828, "items": 20}}