{"users": [{"id": 7501, "slack_id": "U092A070LD7", "display_name": "martin", "bio": null, "projects_count": 0, "devlogs_count": 0, "votes_count": 0, "ships_count": 0, "projects": [], "coding_time_seconds": 0, "coding_time_seconds_today": 0, "balance": "You need to have a pocket watcher badge to view this.", "badges": [], "created_at": "2025-06-17T18:10:26.831-04:00", "updated_at": "2025-07-03T19:44:21.347-04:00", "avatar": "https://secure.gravatar.com/avatar/987f8b8ba879beabef35c4c3f314fcc1.jpg?s=512&d=https%3A%2F%2Fa.slack-edge.com%2Fdf10d%2Fimg%2Favatars%2Fava_0010-512.png", "custom_css": null}, {"id": 7502, "slack_id": "U07EA5CHMQB", "display_name": "wfrsk", "bio": null, "projects_count": 0, "devlogs_count": 0, "votes_count": 0, "ships_count": 0, "projects": [], "coding_time_seconds": 0, "coding_time_seconds_today": 0, "balance": "You need to have a pocket watcher badge to view this.", "badges": [], "created_at": "2025-06-17T18:13:02.696-04:00", "updated_at": "2025-07-03T19:44:21.613-04:00", "avatar": "https://avatars.slack-edge.com/2024-07-26/7509504812160_b56130a1681908b401dd_original.png", "custom_css": null}, {"id": 7503, "slack_id": "U091QNAM4NP", "display_name": "Pedro Henrique Martins da Silva", "bio": null, "projects_count": 0, "devlogs_count": 0, "votes_count": 0, "ships_count": 0, "projects": [], "coding_time_seconds": 34914, "coding_time_seconds_today": 0, "balance": "You need to have a pocket watcher badge to view this.", "badges": [], "created_at": "2025-06-17T18:13:29.710-04:00", "updated_at": "2025-07-03T19:44:21.875-04:00", "avatar": "https://secure.gravatar.com/avatar/8f78756fed48c8a48b9e31209382cc23.jpg?s=512&d=https%3A%2F%2Fa.slack-edge.com%2Fdf10d%2Fimg%2Favatars%2Fava_0004-512.png", "custom_css": null}, {"id": 7504, "slack_id": "U091CQFE7FZ", "display_name": "Neal White", "bio": null, "projects_count": 0, "devlogs_count": 0, "votes_count": 0, "ships_count": 0, "projects": [], "coding_time_seconds": 0, "coding_time_seconds_today": 0, "balance": "You need to have a pocket watcher badge to view this.", "badges": [], "created_at": "2025-06-17T18:14:04.190-04:00", "updated_at": "2025-07-05T20:08:47.685-04:00", "avatar": "https://secure.gravatar.com/avatar/c94e1c1e3d730fa57b2c5fc46c029914.jpg?s=512&d=https%3A%2F%2Fa.slack-edge.com%2Fdf10d%2Fimg%2Favatars%2Fava_0000-512.png", "custom_css": null}, {"id": 7505, "slack_id": "U091VQSRYGM", "display_name": "Rodrigo", "bio": null, "projects_count": 0, "devlogs_count": 0, "votes_count": 0, "ships_count": 0, "projects": [], "coding_time_seconds": 9113, "coding_time_seconds_today": 0, "balance": "You need to have a pocket watcher badge to view this.", "badges": [], "created_at": "2025-06-17T18:14:42.328-04:00", "updated_at": "2025-07-03T19:44:22.267-04:00", "avatar": "https://secure.gravatar.com/avatar/e56570e529f0b1bc2ce4677c2cd99a47.jpg?s=512&d=https%3A%2F%2Fa.slack-edge.com%2Fdf10d%2Fimg%2Favatars%2Fava_0016-512.png", "custom_css": null}, {"id": 7506, "slack_id": "U091XCCPCFL", "display_name": "Totoro", "bio": null, "projects_count": 0, "devlogs_count": 0, "votes_count": 0, "ships_count": 0, "projects": [], "coding_time_seconds": 0, "coding_time_seconds_today": 0, "balance": "You need to have a pocket watcher badge to view this.", "badges": [], "created_at": "2025-06-17T18:15:00.931-04:00", "updated_at": "2025-07-04T08:23:05.148-04:00", "avatar": "https://secure.gravatar.com/avatar/615b4e8571862b727c56ebed44d82f3d.jpg?s=512&d=https%3A%2F%2Fa.slack-edge.com%2Fdf10d%2Fimg%2Favatars%2Fava_0001-512.png", "custom_css": null}, {"id": 7507, "slack_id": "U091G4C6SRM", "display_name": "Vikhyath", "bio": null, "projects_count": 0, "devlogs_count": 11, "votes_count": 15, "ships_count": 0, "projects": [], "coding_time_seconds": 232507, "coding_time_seconds_today": 0, "balance": "You need to have a pocket watcher badge to view this.", "badges": [{"name": "Maiden Voyage", "text": "you shipped your first project! the journey begins...", "icon": "\ud83d\udea2"}], "created_at": "2025-06-17T18:15:14.975-04:00", "updated_at": "2025-09-10T22:54:53.855-04:00", "avatar": "https://secure.gravatar.com/avatar/2cc6f11e22fa43d9fcbb62b9effc7689.jpg?s=512&d=https%3A%2F%2Fa.slack-edge.com%2Fdf10d%2Fimg%2Favatars%2Fava_0021-512.png", "custom_css": null}, {"id": 7508, "slack_id": "U092KQM4QP2", "display_name": "Rodrigo", "bio": null, "projects_count": 0, "devlogs_count": 0, "votes_count": 0, "ships_count": 0, "projects": [], "coding_time_seconds": 0, "coding_time_seconds_today": 0, "balance": "You need to have a pocket watcher badge to view this.", "badges": [], "created_at": "2025-06-17T18:15:48.432-04:00", "updated_at": "2025-07-03T19:44:22.936-04:00", "avatar": "https://avatars.slack-edge.com/2025-06-17/9065434821730_1a9ee8541b5533f33ce7_original.png", "custom_css": null}, {"id": 7509, "slack_id": "U091QUBUPT8", "display_name": "HDMI (Balogh J\u00e1nos)", "bio": null, "projects_count": 0, "devlogs_count": 0, "votes_count": 0, "ships_count": 0, "projects": [], "coding_time_seconds": 0, "coding_time_seconds_today": 0, "balance": "You need to have a pocket watcher badge to view this.", "badges": [], "created_at": "2025-06-17T18:16:07.610-04:00", "updated_at": "2025-07-03T19:44:23.205-04:00", "avatar": "https://avatars.slack-edge.com/2025-06-17/9050167892935_876a487ab4a906f92213_original.jpg", "custom_css": null}, {"id": 7510, "slack_id": "U092A0URV6D", "display_name": "Aizon", "bio": null, "projects_count": 0, "devlogs_count": 0, "votes_count": 0, "ships_count": 0, "projects": [], "coding_time_seconds": 114, "coding_time_seconds_today": 0, "balance": "You need to have a pocket watcher badge to view this.", "badges": [], "created_at": "2025-06-17T18:16:25.600-04:00", "updated_at": "2025-07-03T19:44:23.477-04:00", "avatar": "https://secure.gravatar.com/avatar/a8529eb382a9c4baca26cfc917b08600.jpg?s=512&d=https%3A%2F%2Fa.slack-edge.com%2Fdf10d%2Fimg%2Favatars%2Fava_0016-512.png", "custom_css": null}, {"id": 7511, "slack_id": "U091XCLT7MG", "display_name": "Sana Mngadi", "bio": null, "projects_count": 0, "devlogs_count": 0, "votes_count": 0, "ships_count": 0, "projects": [], "coding_time_seconds": 0, "coding_time_seconds_today": 0, "balance": "You need to have a pocket watcher badge to view this.", "badges": [], "created_at": "2025-06-17T18:18:22.170-04:00", "updated_at": "2025-07-03T19:44:23.735-04:00", "avatar": "https://secure.gravatar.com/avatar/a40028af84962b3124fc8ee68dfede74.jpg?s=512&d=https%3A%2F%2Fa.slack-edge.com%2Fdf10d%2Fimg%2Favatars%2Fava_0008-512.png", "custom_css": null}, {"id": 7512, "slack_id": "U091HNMMH4K", "display_name": "Leonardo", "bio": null, "projects_count": 0, "devlogs_count": 0, "votes_count": 0, "ships_count": 0, "projects": [], "coding_time_seconds": 0, "coding_time_seconds_today": 0, "balance": "You need to have a pocket watcher badge to view this.", "badges": [], "created_at": "2025-06-17T18:18:55.366-04:00", "updated_at": "2025-07-03T19:44:23.998-04:00", "avatar": "https://secure.gravatar.com/avatar/c84bf4f1bba4e25ac486449736570784.jpg?s=512&d=https%3A%2F%2Fa.slack-edge.com%2Fdf10d%2Fimg%2Favatars%2Fava_0022-512.png", "custom_css": null}, {"id": 7513, "slack_id": "U08HJJX4D3K", "display_name": "David Shcherbatykh", "bio": null, "projects_count": 2, "devlogs_count": 0, "votes_count": 0, "ships_count": 0, "projects": [{"id": 1912, "title": "MacroMind", "devlogs_count": 0, "created_at": "2025-06-19T15:39:54.414-04:00"}, {"id": 10950, "title": "Sax-o-Vision", "devlogs_count": 0, "created_at": "2025-08-12T01:52:13.023-04:00"}], "coding_time_seconds": 42105, "coding_time_seconds_today": 0, "balance": "You need to have a pocket watcher badge to view this.", "badges": [], "created_at": "2025-06-17T18:19:21.376-04:00", "updated_at": "2025-08-11T13:01:10.859-04:00", "avatar": "https://avatars.slack-edge.com/2025-03-11/8585018043749_1e7664b2528d84505d0c_original.png", "custom_css": null}, {"id": 7514, "slack_id": "U090V24JV36", "display_name": "Kyle Devlin", "bio": null, "projects_count": 0, "devlogs_count": 0, "votes_count": 0, "ships_count": 0, "projects": [], "coding_time_seconds": 0, "coding_time_seconds_today": 0, "balance": "You need to have a pocket watcher badge to view this.", "badges": [], "created_at": "2025-06-17T18:19:48.784-04:00", "updated_at": "2025-07-03T19:44:24.399-04:00", "avatar": "https://avatars.slack-edge.com/2025-06-17/9050180070359_dadaf3b12115cd7687f8_original.png", "custom_css": null}, {"id": 7515, "slack_id": "U08EX9ZNLDS", "display_name": "Ferghany", "bio": null, "projects_count": 1, "devlogs_count": 3, "votes_count": 0, "ships_count": 0, "projects": [{"id": 2381, "title": "Ferghany's NumberSpace", "devlogs_count": 2, "created_at": "2025-06-20T21:54:39.077-04:00"}], "coding_time_seconds": 170671, "coding_time_seconds_today": 0, "balance": "You need to have a pocket watcher badge to view this.", "badges": [], "created_at": "2025-06-17T18:20:06.804-04:00", "updated_at": "2025-07-04T02:26:51.676-04:00", "avatar": "https://secure.gravatar.com/avatar/4c7a2504bc8c4872b62766f8ff60ea48.jpg?s=512&d=https%3A%2F%2Fa.slack-edge.com%2Fdf10d%2Fimg%2Favatars%2Fava_0021-512.png", "custom_css": null}, {"id": 7516, "slack_id": "U091QNV9K5Z", "display_name": "Isaiah Sesay", "bio": null, "projects_count": 0, "devlogs_count": 0, "votes_count": 0, "ships_count": 0, "projects": [], "coding_time_seconds": 0, "coding_time_seconds_today": 0, "balance": "You need to have a pocket watcher badge to view this.", "badges": [], "created_at": "2025-06-17T18:20:53.034-04:00", "updated_at": "2025-07-03T21:57:23.379-04:00", "avatar": "https://avatars.slack-edge.com/2025-06-17/9063874326853_024e677d43e238f61459_original.jpg", "custom_css": null}, {"id": 7517, "slack_id": "U091XD3K8BU", "display_name": "Jasveer", "bio": null, "projects_count": 0, "devlogs_count": 0, "votes_count": 0, "ships_count": 0, "projects": [], "coding_time_seconds": 21677, "coding_time_seconds_today": 0, "balance": "You need to have a pocket watcher badge to view this.", "badges": [], "created_at": "2025-06-17T18:23:21.309-04:00", "updated_at": "2025-07-05T02:08:25.468-04:00", "avatar": "https://secure.gravatar.com/avatar/353737cefdac4c39e36208ed86303b5d.jpg?s=512&d=https%3A%2F%2Fa.slack-edge.com%2Fdf10d%2Fimg%2Favatars%2Fava_0003-512.png", "custom_css": null}, {"id": 7518, "slack_id": "U07UKLZT9N1", "display_name": "Nirvaan", "bio": null, "projects_count": 0, "devlogs_count": 50, "votes_count": 2, "ships_count": 0, "projects": [], "coding_time_seconds": 820770, "coding_time_seconds_today": 0, "balance": "You need to have a pocket watcher badge to view this.", "badges": [{"name": "Yapper I", "text": "Posted 10 comments on devlogs.", "icon": "\ud83d\udcac"}], "created_at": "2025-06-17T18:23:29.749-04:00", "updated_at": "2025-09-10T22:54:54.109-04:00", "avatar": "https://avatars.slack-edge.com/2025-08-10/9318931443879_f4792ed6a8100652f05b_original.png", "custom_css": null}, {"id": 7519, "slack_id": "U091XR9SK36", "display_name": "Abdullah Jan", "bio": null, "projects_count": 0, "devlogs_count": 0, "votes_count": 0, "ships_count": 0, "projects": [], "coding_time_seconds": 136104, "coding_time_seconds_today": 0, "balance": "You need to have a pocket watcher badge to view this.", "badges": [], "created_at": "2025-06-17T18:23:37.330-04:00", "updated_at": "2025-07-03T19:44:25.360-04:00", "avatar": "https://secure.gravatar.com/avatar/42f7e22a4ccf0ea52ad62c6179357e0f.jpg?s=512&d=https%3A%2F%2Fa.slack-edge.com%2Fdf10d%2Fimg%2Favatars%2Fava_0012-512.png", "custom_css": null}, {"id": 7520, "slack_id": "U091G4YDNJK", "display_name": "Edoardo", "bio": null, "projects_count": 0, "devlogs_count": 0, "votes_count": 0, "ships_count": 0, "projects": [], "coding_time_seconds": 0, "coding_time_seconds_today": 0, "balance": "You need to have a pocket watcher badge to view this.", "badges": [], "created_at": "2025-06-17T18:25:04.504-04:00", "updated_at": "2025-07-03T19:44:25.625-04:00", "avatar": "https://secure.gravatar.com/avatar/e7e8ab0db8f5b150a44e53f0d7ab9e73.jpg?s=512&d=https%3A%2F%2Fa.slack-edge.com%2Fdf10d%2Fimg%2Favatars%2Fava_0015-512.png", "custom_css": null}], "pagination": {"page": 376, "pages": 1192, "count": 23828, "items": 20}}