{"users": [{"id": 7521, "slack_id": "U041URY9TD1", "display_name": "blobbybilb", "bio": null, "projects_count": 2, "devlogs_count": 5, "votes_count": 20, "ships_count": 1, "projects": [{"id": 6964, "title": "Programming Language", "devlogs_count": 1, "created_at": "2025-07-17T16:48:37.655-04:00"}, {"id": 4662, "title": "Textbox Calculator", "devlogs_count": 4, "created_at": "2025-07-01T02:06:31.894-04:00"}], "coding_time_seconds": 65314, "coding_time_seconds_today": 0, "balance": "You need to have a pocket watcher badge to view this.", "badges": [{"name": "Maiden Voyage", "text": "you shipped your first project! the journey begins...", "icon": "\ud83d\udea2"}], "created_at": "2025-06-17T18:27:05.915-04:00", "updated_at": "2025-09-10T22:54:54.209-04:00", "avatar": "https://avatars.slack-edge.com/2022-09-09/4056426147590_794a68efd870c8dd70f0_original.png", "custom_css": null}, {"id": 7522, "slack_id": "U092KRFBKMW", "display_name": "Nelson Enrique Herrera Diaz", "bio": null, "projects_count": 1, "devlogs_count": 0, "votes_count": 0, "ships_count": 0, "projects": [{"id": 1545, "title": "Gestor de Tareas", "devlogs_count": 0, "created_at": "2025-06-18T17:59:46.103-04:00"}], "coding_time_seconds": 20600, "coding_time_seconds_today": 0, "balance": "You need to have a pocket watcher badge to view this.", "badges": [], "created_at": "2025-06-17T18:27:15.114-04:00", "updated_at": "2025-07-03T19:44:26.168-04:00", "avatar": "https://secure.gravatar.com/avatar/4a6f147de9188b54ffdc81c1c0583b9e.jpg?s=512&d=https%3A%2F%2Fa.slack-edge.com%2Fdf10d%2Fimg%2Favatars%2Fava_0003-512.png", "custom_css": null}, {"id": 7523, "slack_id": "U080Z4TA4EP", "display_name": "Shayan Ahmed", "bio": null, "projects_count": 0, "devlogs_count": 0, "votes_count": 0, "ships_count": 0, "projects": [], "coding_time_seconds": 0, "coding_time_seconds_today": 0, "balance": "You need to have a pocket watcher badge to view this.", "badges": [], "created_at": "2025-06-17T18:27:30.828-04:00", "updated_at": "2025-07-03T19:44:26.429-04:00", "avatar": "https://avatars.slack-edge.com/2024-11-14/8026711599286_1f4269adf25f0431930f_original.png", "custom_css": null}, {"id": 7524, "slack_id": "U091G5UETMM", "display_name": "Rabeea Fatima", "bio": null, "projects_count": 0, "devlogs_count": 0, "votes_count": 0, "ships_count": 0, "projects": [], "coding_time_seconds": 0, "coding_time_seconds_today": 0, "balance": "You need to have a pocket watcher badge to view this.", "badges": [], "created_at": "2025-06-17T18:29:36.625-04:00", "updated_at": "2025-07-03T19:44:26.708-04:00", "avatar": "https://secure.gravatar.com/avatar/eb09af3884ae833b616c4f6d8acaa20c.jpg?s=512&d=https%3A%2F%2Fa.slack-edge.com%2Fdf10d%2Fimg%2Favatars%2Fava_0023-512.png", "custom_css": null}, {"id": 7525, "slack_id": "U090BP84F7F", "display_name": "Stefanos", "bio": "\ud83d\udc4b Hi, I\u2019m Stefanos. I am 13 years old, code in Python and work on projects like AutoEmailAI, SwampXecret and SignAI. I\u2019m also learning Unity and exploring AI.", "projects_count": 3, "devlogs_count": 11, "votes_count": 28, "ships_count": 1, "projects": [{"id": 13594, "title": "GitLines", "devlogs_count": 3, "created_at": "2025-09-20T10:59:13.242-04:00"}, {"id": 13391, "title": "SIgnAI", "devlogs_count": 0, "created_at": "2025-09-15T06:15:32.822-04:00"}, {"id": 10104, "title": "AutoEmailAI", "devlogs_count": 8, "created_at": "2025-08-04T05:11:32.891-04:00"}], "coding_time_seconds": 196235, "coding_time_seconds_today": 423, "balance": "You need to have a pocket watcher badge to view this.", "badges": [{"name": "Maiden Voyage", "text": "you shipped your first project! the journey begins...", "icon": "\ud83d\udea2"}], "created_at": "2025-06-17T18:29:43.714-04:00", "updated_at": "2025-09-18T12:37:05.462-04:00", "avatar": "https://avatars.slack-edge.com/2025-09-18/9541067339218_d5a356df9ce227ff9598_original.jpg", "custom_css": null}, {"id": 7526, "slack_id": "U091G5S7VBR", "display_name": "Seif Shaheen", "bio": null, "projects_count": 0, "devlogs_count": 0, "votes_count": 0, "ships_count": 0, "projects": [], "coding_time_seconds": 0, "coding_time_seconds_today": 0, "balance": "You need to have a pocket watcher badge to view this.", "badges": [], "created_at": "2025-06-17T18:30:18.706-04:00", "updated_at": "2025-07-03T19:44:27.246-04:00", "avatar": "https://secure.gravatar.com/avatar/ea23af64edcb3222c55666c3c94ac95c.jpg?s=512&d=https%3A%2F%2Fa.slack-edge.com%2Fdf10d%2Fimg%2Favatars%2Fava_0018-512.png", "custom_css": null}, {"id": 7527, "slack_id": "U091XE6A04S", "display_name": "Eshaan Sinha", "bio": null, "projects_count": 0, "devlogs_count": 0, "votes_count": 0, "ships_count": 0, "projects": [], "coding_time_seconds": 0, "coding_time_seconds_today": 0, "balance": "You need to have a pocket watcher badge to view this.", "badges": [], "created_at": "2025-06-17T18:35:32.890-04:00", "updated_at": "2025-07-05T02:08:26.079-04:00", "avatar": "https://avatars.slack-edge.com/2025-06-17/9050233198327_37d9724754a77d2259de_original.jpg", "custom_css": null}, {"id": 7528, "slack_id": "U091R0Y0SCW", "display_name": "Keczuu", "bio": null, "projects_count": 2, "devlogs_count": 7, "votes_count": 20, "ships_count": 1, "projects": [{"id": 1462, "title": "Webhook AIO", "devlogs_count": 0, "created_at": "2025-06-18T15:38:35.945-04:00"}, {"id": 1511, "title": "Possum API", "devlogs_count": 7, "created_at": "2025-06-18T16:53:24.026-04:00"}], "coding_time_seconds": 55861, "coding_time_seconds_today": 0, "balance": "You need to have a pocket watcher badge to view this.", "badges": [{"name": "Maiden Voyage", "text": "you shipped your first project! the journey begins...", "icon": "\ud83d\udea2"}], "created_at": "2025-06-17T18:37:14.734-04:00", "updated_at": "2025-09-10T22:54:54.464-04:00", "avatar": "https://avatars.slack-edge.com/2025-06-20/9082385509620_d9a1a757cf0031efaa13_original.jpg", "custom_css": null}, {"id": 7529, "slack_id": "U091QQM2ZB5", "display_name": "Hiram8A", "bio": null, "projects_count": 0, "devlogs_count": 0, "votes_count": 0, "ships_count": 0, "projects": [], "coding_time_seconds": 17903, "coding_time_seconds_today": 0, "balance": "You need to have a pocket watcher badge to view this.", "badges": [], "created_at": "2025-06-17T18:37:35.125-04:00", "updated_at": "2025-07-03T19:44:27.912-04:00", "avatar": "https://secure.gravatar.com/avatar/06d0da643216fb18f0f5e4902da3fa94.jpg?s=512&d=https%3A%2F%2Fa.slack-edge.com%2Fdf10d%2Fimg%2Favatars%2Fava_0021-512.png", "custom_css": null}, {"id": 7530, "slack_id": "U092KSNJ2QG", "display_name": "Anthony Zhu", "bio": null, "projects_count": 0, "devlogs_count": 0, "votes_count": 0, "ships_count": 0, "projects": [], "coding_time_seconds": 0, "coding_time_seconds_today": 0, "balance": "You need to have a pocket watcher badge to view this.", "badges": [], "created_at": "2025-06-17T18:37:41.711-04:00", "updated_at": "2025-07-03T19:44:28.181-04:00", "avatar": "https://secure.gravatar.com/avatar/b8bcdc0b6c5941e0dd9b4234173b1456.jpg?s=512&d=https%3A%2F%2Fa.slack-edge.com%2Fdf10d%2Fimg%2Favatars%2Fava_0015-512.png", "custom_css": null}, {"id": 7531, "slack_id": "U091XEEGJ1G", "display_name": "Lass", "bio": null, "projects_count": 0, "devlogs_count": 0, "votes_count": 0, "ships_count": 0, "projects": [], "coding_time_seconds": 0, "coding_time_seconds_today": 0, "balance": "You need to have a pocket watcher badge to view this.", "badges": [], "created_at": "2025-06-17T18:38:06.039-04:00", "updated_at": "2025-07-03T19:44:28.441-04:00", "avatar": "https://secure.gravatar.com/avatar/109f5c54ec32f56880fb3b78ae41fcb0.jpg?s=512&d=https%3A%2F%2Fa.slack-edge.com%2Fdf10d%2Fimg%2Favatars%2Fava_0018-512.png", "custom_css": null}, {"id": 7532, "slack_id": "U091G6RPWCF", "display_name": "Nathaniel Girard", "bio": null, "projects_count": 0, "devlogs_count": 0, "votes_count": 0, "ships_count": 0, "projects": [], "coding_time_seconds": 0, "coding_time_seconds_today": 0, "balance": "You need to have a pocket watcher badge to view this.", "badges": [], "created_at": "2025-06-17T18:38:21.998-04:00", "updated_at": "2025-07-03T19:44:28.705-04:00", "avatar": "https://avatars.slack-edge.com/2025-06-17/9059050484070_19330683cfe28d1ec0b4_original.jpg", "custom_css": null}, {"id": 7533, "slack_id": "U091XED45CJ", "display_name": "mallets_master", "bio": null, "projects_count": 0, "devlogs_count": 0, "votes_count": 0, "ships_count": 0, "projects": [], "coding_time_seconds": 0, "coding_time_seconds_today": 0, "balance": "You need to have a pocket watcher badge to view this.", "badges": [], "created_at": "2025-06-17T18:38:58.146-04:00", "updated_at": "2025-07-03T19:44:28.974-04:00", "avatar": "https://secure.gravatar.com/avatar/3354824cbfe6d5e32930bb8fd5b7b900.jpg?s=512&d=https%3A%2F%2Fa.slack-edge.com%2Fdf10d%2Fimg%2Favatars%2Fava_0000-512.png", "custom_css": null}, {"id": 7534, "slack_id": "U091QTNJFH8", "display_name": "Leonardo Andrade", "bio": null, "projects_count": 0, "devlogs_count": 0, "votes_count": 0, "ships_count": 0, "projects": [], "coding_time_seconds": 0, "coding_time_seconds_today": 0, "balance": "You need to have a pocket watcher badge to view this.", "badges": [], "created_at": "2025-06-17T18:39:26.063-04:00", "updated_at": "2025-07-03T19:44:29.232-04:00", "avatar": "https://secure.gravatar.com/avatar/80dd632fb3ee4e48db5f42a6896feac3.jpg?s=512&d=https%3A%2F%2Fa.slack-edge.com%2Fdf10d%2Fimg%2Favatars%2Fava_0025-512.png", "custom_css": null}, {"id": 7535, "slack_id": "U092DBJPZ6C", "display_name": "Brooklyn Baylis", "bio": null, "projects_count": 0, "devlogs_count": 0, "votes_count": 0, "ships_count": 0, "projects": [], "coding_time_seconds": 0, "coding_time_seconds_today": 0, "balance": "You need to have a pocket watcher badge to view this.", "badges": [], "created_at": "2025-06-17T18:40:49.670-04:00", "updated_at": "2025-07-04T18:44:14.940-04:00", "avatar": "https://secure.gravatar.com/avatar/3e157b466f6d521e160453c5b1336167.jpg?s=512&d=https%3A%2F%2Fa.slack-edge.com%2Fdf10d%2Fimg%2Favatars%2Fava_0005-512.png", "custom_css": null}, {"id": 7536, "slack_id": "U091XEPFZ6W", "display_name": "Abdul", "bio": null, "projects_count": 0, "devlogs_count": 0, "votes_count": 0, "ships_count": 0, "projects": [], "coding_time_seconds": 0, "coding_time_seconds_today": 0, "balance": "You need to have a pocket watcher badge to view this.", "badges": [], "created_at": "2025-06-17T18:40:53.367-04:00", "updated_at": "2025-07-03T19:44:29.756-04:00", "avatar": "https://secure.gravatar.com/avatar/29e9d194f526f6188d1b2424bec73fb9.jpg?s=512&d=https%3A%2F%2Fa.slack-edge.com%2Fdf10d%2Fimg%2Favatars%2Fava_0021-512.png", "custom_css": null}, {"id": 7537, "slack_id": "U091R1LHSNN", "display_name": "anjil", "bio": null, "projects_count": 0, "devlogs_count": 0, "votes_count": 0, "ships_count": 0, "projects": [], "coding_time_seconds": 0, "coding_time_seconds_today": 0, "balance": "You need to have a pocket watcher badge to view this.", "badges": [], "created_at": "2025-06-17T18:40:56.902-04:00", "updated_at": "2025-07-03T19:44:30.042-04:00", "avatar": "https://secure.gravatar.com/avatar/eba462eb274a56dd6da7851fe6264d76.jpg?s=512&d=https%3A%2F%2Fa.slack-edge.com%2Fdf10d%2Fimg%2Favatars%2Fava_0024-512.png", "custom_css": null}, {"id": 7538, "slack_id": "U04J5APLPJ9", "display_name": "Jeffrey Wang", "bio": null, "projects_count": 1, "devlogs_count": 1, "votes_count": 4, "ships_count": 1, "projects": [{"id": 11032, "title": "Wakatime for kicad", "devlogs_count": 1, "created_at": "2025-08-12T13:51:08.367-04:00"}], "coding_time_seconds": 134064, "coding_time_seconds_today": 0, "balance": "You need to have a pocket watcher badge to view this.", "badges": [{"name": "Maiden Voyage", "text": "you shipped your first project! the journey begins...", "icon": "\ud83d\udea2"}], "created_at": "2025-06-17T18:42:45.131-04:00", "updated_at": "2025-09-10T22:54:54.737-04:00", "avatar": "https://avatars.slack-edge.com/2023-01-10/4605840490551_43a86e121d4838edc2c6_original.png", "custom_css": null}, {"id": 7539, "slack_id": "U091R196YNS", "display_name": "Davide", "bio": null, "projects_count": 0, "devlogs_count": 0, "votes_count": 0, "ships_count": 0, "projects": [], "coding_time_seconds": 0, "coding_time_seconds_today": 0, "balance": "You need to have a pocket watcher badge to view this.", "badges": [], "created_at": "2025-06-17T18:42:52.734-04:00", "updated_at": "2025-07-03T19:44:30.576-04:00", "avatar": "https://secure.gravatar.com/avatar/5f2999892d6e3032e590abb405a1e849.jpg?s=512&d=https%3A%2F%2Fa.slack-edge.com%2Fdf10d%2Fimg%2Favatars%2Fava_0011-512.png", "custom_css": null}, {"id": 7540, "slack_id": "U08SS80BBK3", "display_name": "Adrith Iyer", "bio": null, "projects_count": 0, "devlogs_count": 0, "votes_count": 0, "ships_count": 0, "projects": [], "coding_time_seconds": 0, "coding_time_seconds_today": 0, "balance": "You need to have a pocket watcher badge to view this.", "badges": [], "created_at": "2025-06-17T18:43:01.444-04:00", "updated_at": "2025-07-03T19:44:30.849-04:00", "avatar": "https://secure.gravatar.com/avatar/5833f5d996f79571c512fae9179934d9.jpg?s=512&d=https%3A%2F%2Fa.slack-edge.com%2Fdf10d%2Fimg%2Favatars%2Fava_0008-512.png", "custom_css": null}], "pagination": {"page": 377, "pages": 1192, "count": 23828, "items": 20}}