{"users": [{"id": 7561, "slack_id": "U0929F6RWL9", "display_name": "One For Freedom", "bio": null, "projects_count": 2, "devlogs_count": 27, "votes_count": 41, "ships_count": 1, "projects": [{"id": 12310, "title": "Orpheus.", "devlogs_count": 1, "created_at": "2025-08-25T12:52:04.613-04:00"}, {"id": 12242, "title": "The infinitely adjustable phone holder", "devlogs_count": 1, "created_at": "2025-08-24T18:25:10.461-04:00"}], "coding_time_seconds": 534950, "coding_time_seconds_today": 0, "balance": "You need to have a pocket watcher badge to view this.", "badges": [{"name": "Maiden Voyage", "text": "you shipped your first project! the journey begins...", "icon": "\ud83d\udea2"}, {"name": "Ballot Stuffer", "text": "vote 100 times.", "icon": "https://summer.hackclub.com/assets/i_voted-bf851b48.png"}], "created_at": "2025-06-17T19:04:46.406-04:00", "updated_at": "2025-09-16T18:59:17.334-04:00", "avatar": "https://avatars.slack-edge.com/2025-09-16/9543614851441_3f16b86a515a53e5d658_original.png", "custom_css": null}, {"id": 7562, "slack_id": "U091G9DUL6B", "display_name": "Miriam Viegas De Jesus", "bio": null, "projects_count": 0, "devlogs_count": 0, "votes_count": 0, "ships_count": 0, "projects": [], "coding_time_seconds": 0, "coding_time_seconds_today": 0, "balance": "You need to have a pocket watcher badge to view this.", "badges": [], "created_at": "2025-06-17T19:06:27.810-04:00", "updated_at": "2025-07-03T21:45:32.998-04:00", "avatar": "https://secure.gravatar.com/avatar/b3fd12f01042827bceeb77b3e900d823.jpg?s=512&d=https%3A%2F%2Fa.slack-edge.com%2Fdf10d%2Fimg%2Favatars%2Fava_0026-512.png", "custom_css": null}, {"id": 7563, "slack_id": "U091W08C3BP", "display_name": "Andrew X", "bio": null, "projects_count": 0, "devlogs_count": 0, "votes_count": 0, "ships_count": 0, "projects": [], "coding_time_seconds": 0, "coding_time_seconds_today": 0, "balance": "You need to have a pocket watcher badge to view this.", "badges": [], "created_at": "2025-06-17T19:06:41.973-04:00", "updated_at": "2025-07-03T19:44:35.836-04:00", "avatar": "https://avatars.slack-edge.com/2025-06-17/9050335491655_36701bda4f0b650e1d73_original.png", "custom_css": null}, {"id": 7564, "slack_id": "U092A5BK6Q1", "display_name": "Om Kanabar", "bio": null, "projects_count": 3, "devlogs_count": 26, "votes_count": 45, "ships_count": 2, "projects": [{"id": 10914, "title": "War", "devlogs_count": 9, "created_at": "2025-08-11T18:30:48.865-04:00"}, {"id": 4799, "title": "Personal Website", "devlogs_count": 16, "created_at": "2025-07-01T15:31:12.644-04:00"}, {"id": 10267, "title": "Boba", "devlogs_count": 1, "created_at": "2025-08-05T12:36:38.728-04:00"}], "coding_time_seconds": 224209, "coding_time_seconds_today": 0, "balance": "You need to have a pocket watcher badge to view this.", "badges": [{"name": "Maiden Voyage", "text": "you shipped your first project! the journey begins...", "icon": "\ud83d\udea2"}], "created_at": "2025-06-17T19:08:10.496-04:00", "updated_at": "2025-09-10T22:54:55.533-04:00", "avatar": "https://secure.gravatar.com/avatar/8c0fc73ccfade24dac52652c9c5e5ab9.jpg?s=512&d=https%3A%2F%2Fa.slack-edge.com%2Fdf10d%2Fimg%2Favatars%2Fava_0011-512.png", "custom_css": null}, {"id": 7565, "slack_id": "U091Y08NHPW", "display_name": "Obi", "bio": null, "projects_count": 0, "devlogs_count": 0, "votes_count": 0, "ships_count": 0, "projects": [], "coding_time_seconds": 0, "coding_time_seconds_today": 0, "balance": "You need to have a pocket watcher badge to view this.", "badges": [], "created_at": "2025-06-17T19:10:43.250-04:00", "updated_at": "2025-07-03T19:44:36.369-04:00", "avatar": "https://avatars.slack-edge.com/2025-06-17/9059152379078_12c78daebde16d353a17_original.jpg", "custom_css": null}, {"id": 7566, "slack_id": "U091G9SLYMD", "display_name": "Reda Er", "bio": null, "projects_count": 0, "devlogs_count": 0, "votes_count": 0, "ships_count": 0, "projects": [], "coding_time_seconds": 867128, "coding_time_seconds_today": 434, "balance": "You need to have a pocket watcher badge to view this.", "badges": [], "created_at": "2025-06-17T19:10:58.283-04:00", "updated_at": "2025-07-04T20:08:04.299-04:00", "avatar": "https://avatars.slack-edge.com/2025-06-17/9050347726247_17ed900f58542a0b67b1_original.png", "custom_css": null}, {"id": 7567, "slack_id": "U091NDKL8MT", "display_name": "Amish Singh", "bio": null, "projects_count": 2, "devlogs_count": 15, "votes_count": 21, "ships_count": 1, "projects": [{"id": 6845, "title": "The F1 Histoire", "devlogs_count": 7, "created_at": "2025-07-16T19:58:36.786-04:00"}, {"id": 1623, "title": "The Potatoist", "devlogs_count": 8, "created_at": "2025-06-18T21:52:57.952-04:00"}], "coding_time_seconds": 76073, "coding_time_seconds_today": 0, "balance": "You need to have a pocket watcher badge to view this.", "badges": [{"name": "Maiden Voyage", "text": "you shipped your first project! the journey begins...", "icon": "\ud83d\udea2"}], "created_at": "2025-06-17T19:11:25.156-04:00", "updated_at": "2025-09-10T22:54:55.626-04:00", "avatar": "https://avatars.slack-edge.com/2025-06-17/9050349247847_84cc06462e77472b30b7_original.png", "custom_css": null}, {"id": 7568, "slack_id": "U091QTZPXL3", "display_name": "John", "bio": null, "projects_count": 0, "devlogs_count": 0, "votes_count": 0, "ships_count": 0, "projects": [], "coding_time_seconds": 32968, "coding_time_seconds_today": 0, "balance": "You need to have a pocket watcher badge to view this.", "badges": [], "created_at": "2025-06-17T19:14:36.821-04:00", "updated_at": "2025-07-04T02:26:55.263-04:00", "avatar": "https://secure.gravatar.com/avatar/497b180b574c0a2ce76fe33f3f10d064.jpg?s=512&d=https%3A%2F%2Fa.slack-edge.com%2Fdf10d%2Fimg%2Favatars%2Fava_0011-512.png", "custom_css": null}, {"id": 7569, "slack_id": "U092L0GQR0Q", "display_name": "Max MacGillivray", "bio": null, "projects_count": 0, "devlogs_count": 0, "votes_count": 0, "ships_count": 0, "projects": [], "coding_time_seconds": 0, "coding_time_seconds_today": 0, "balance": "You need to have a pocket watcher badge to view this.", "badges": [], "created_at": "2025-06-17T19:14:57.362-04:00", "updated_at": "2025-07-03T21:45:33.459-04:00", "avatar": "https://avatars.slack-edge.com/2025-06-17/9064045758917_9a590d87d2ef254d3aad_original.jpg", "custom_css": null}, {"id": 7570, "slack_id": "U091Y0PHRFE", "display_name": "Jason", "bio": null, "projects_count": 0, "devlogs_count": 0, "votes_count": 0, "ships_count": 0, "projects": [], "coding_time_seconds": 645894, "coding_time_seconds_today": 0, "balance": "You need to have a pocket watcher badge to view this.", "badges": [], "created_at": "2025-06-17T19:16:25.802-04:00", "updated_at": "2025-07-20T02:37:41.226-04:00", "avatar": "https://avatars.slack-edge.com/2025-07-19/9221372542790_ebafe79a7791735b6875_original.jpg", "custom_css": null}, {"id": 7571, "slack_id": "U092A61FGPK", "display_name": "h", "bio": null, "projects_count": 0, "devlogs_count": 0, "votes_count": 0, "ships_count": 0, "projects": [], "coding_time_seconds": 0, "coding_time_seconds_today": 0, "balance": "You need to have a pocket watcher badge to view this.", "badges": [], "created_at": "2025-06-17T19:17:31.248-04:00", "updated_at": "2025-07-04T02:26:55.499-04:00", "avatar": "https://secure.gravatar.com/avatar/48a66d6066c14ceb6b15b82419966ec6.jpg?s=512&d=https%3A%2F%2Fa.slack-edge.com%2Fdf10d%2Fimg%2Favatars%2Fava_0004-512.png", "custom_css": null}, {"id": 7572, "slack_id": "U091XHRDJMQ", "display_name": "Aniket Fasate", "bio": null, "projects_count": 0, "devlogs_count": 0, "votes_count": 0, "ships_count": 0, "projects": [], "coding_time_seconds": 0, "coding_time_seconds_today": 0, "balance": "You need to have a pocket watcher badge to view this.", "badges": [], "created_at": "2025-06-17T19:21:32.618-04:00", "updated_at": "2025-07-04T08:23:09.892-04:00", "avatar": "https://secure.gravatar.com/avatar/af513c9db8511207e8d42384dcdbf5ba.jpg?s=512&d=https%3A%2F%2Fa.slack-edge.com%2Fdf10d%2Fimg%2Favatars%2Fava_0010-512.png", "custom_css": null}, {"id": 7573, "slack_id": "U091Y19TRLL", "display_name": "Ju Seungmin", "bio": null, "projects_count": 2, "devlogs_count": 2, "votes_count": 0, "ships_count": 0, "projects": [{"id": 2520, "title": "coder.ac : Profile and Blog for All Coders", "devlogs_count": 1, "created_at": "2025-06-21T07:38:15.321-04:00"}, {"id": 7803, "title": "Dimiplan", "devlogs_count": 1, "created_at": "2025-07-23T05:00:28.777-04:00"}], "coding_time_seconds": 273684, "coding_time_seconds_today": 368, "balance": "You need to have a pocket watcher badge to view this.", "badges": [], "created_at": "2025-06-17T19:25:14.656-04:00", "updated_at": "2025-07-23T04:57:40.633-04:00", "avatar": "https://secure.gravatar.com/avatar/1d33b308d929f944e80129c0a2f3cd6b.jpg?s=512&d=https%3A%2F%2Fa.slack-edge.com%2Fdf10d%2Fimg%2Favatars%2Fava_0023-512.png", "custom_css": null}, {"id": 7574, "slack_id": "U092L1EH6JC", "display_name": "M. Talha Farooqi", "bio": null, "projects_count": 0, "devlogs_count": 0, "votes_count": 0, "ships_count": 0, "projects": [], "coding_time_seconds": 0, "coding_time_seconds_today": 0, "balance": "You need to have a pocket watcher badge to view this.", "badges": [], "created_at": "2025-06-17T19:26:09.664-04:00", "updated_at": "2025-07-03T19:44:37.990-04:00", "avatar": "https://secure.gravatar.com/avatar/e926c5ddc9e95f379121f702c2aa58d3.jpg?s=512&d=https%3A%2F%2Fa.slack-edge.com%2Fdf10d%2Fimg%2Favatars%2Fava_0020-512.png", "custom_css": null}, {"id": 7575, "slack_id": "U091XTA7R4L", "display_name": "taiwon", "bio": null, "projects_count": 0, "devlogs_count": 0, "votes_count": 0, "ships_count": 0, "projects": [], "coding_time_seconds": 0, "coding_time_seconds_today": 0, "balance": "You need to have a pocket watcher badge to view this.", "badges": [], "created_at": "2025-06-17T19:26:18.171-04:00", "updated_at": "2025-07-05T08:08:49.651-04:00", "avatar": "https://secure.gravatar.com/avatar/7be748b0f3b2c11218787d5c25b46c83.jpg?s=512&d=https%3A%2F%2Fa.slack-edge.com%2Fdf10d%2Fimg%2Favatars%2Fava_0014-512.png", "custom_css": null}, {"id": 7576, "slack_id": "U07E74JUC48", "display_name": "Rohan", "bio": null, "projects_count": 1, "devlogs_count": 2, "votes_count": 1, "ships_count": 0, "projects": [{"id": 1589, "title": "Modium", "devlogs_count": 2, "created_at": "2025-06-18T20:27:05.853-04:00"}], "coding_time_seconds": 54761, "coding_time_seconds_today": 0, "balance": "You need to have a pocket watcher badge to view this.", "badges": [], "created_at": "2025-06-17T19:26:51.161-04:00", "updated_at": "2025-07-03T19:44:38.383-04:00", "avatar": "https://avatars.slack-edge.com/2024-07-22/7460370522962_d3bfbefa3d0a9e441342_original.jpg", "custom_css": null}, {"id": 7577, "slack_id": "U092A6WD2P3", "display_name": "Ashish", "bio": null, "projects_count": 0, "devlogs_count": 0, "votes_count": 0, "ships_count": 0, "projects": [], "coding_time_seconds": 0, "coding_time_seconds_today": 0, "balance": "You need to have a pocket watcher badge to view this.", "badges": [], "created_at": "2025-06-17T19:27:46.127-04:00", "updated_at": "2025-07-06T14:08:27.714-04:00", "avatar": "https://secure.gravatar.com/avatar/3fb8a498addaf91aa6ef38354d713c2e.jpg?s=512&d=https%3A%2F%2Fa.slack-edge.com%2Fdf10d%2Fimg%2Favatars%2Fava_0014-512.png", "custom_css": null}, {"id": 7578, "slack_id": "U091PGA583C", "display_name": "Douglas Fugazi", "bio": null, "projects_count": 0, "devlogs_count": 0, "votes_count": 0, "ships_count": 0, "projects": [], "coding_time_seconds": 0, "coding_time_seconds_today": 0, "balance": "You need to have a pocket watcher badge to view this.", "badges": [], "created_at": "2025-06-17T19:33:16.228-04:00", "updated_at": "2025-07-03T19:44:38.783-04:00", "avatar": "https://secure.gravatar.com/avatar/ecaf1e7d8f7d6dddcd942ccc0e0fb513.jpg?s=512&d=https%3A%2F%2Fa.slack-edge.com%2Fdf10d%2Fimg%2Favatars%2Fava_0022-512.png", "custom_css": null}, {"id": 7579, "slack_id": "U0929PN2S4R", "display_name": "Hunter Nguyen", "bio": null, "projects_count": 0, "devlogs_count": 0, "votes_count": 0, "ships_count": 0, "projects": [], "coding_time_seconds": 0, "coding_time_seconds_today": 0, "balance": "You need to have a pocket watcher badge to view this.", "badges": [], "created_at": "2025-06-17T19:34:34.576-04:00", "updated_at": "2025-07-03T19:44:39.043-04:00", "avatar": "https://avatars.slack-edge.com/2025-06-17/9066082553972_468387c761d942403d27_original.jpg", "custom_css": null}, {"id": 7580, "slack_id": "U091XK2JNFL", "display_name": "Jimmy Mercuri", "bio": null, "projects_count": 0, "devlogs_count": 0, "votes_count": 0, "ships_count": 0, "projects": [], "coding_time_seconds": 0, "coding_time_seconds_today": 0, "balance": "You need to have a pocket watcher badge to view this.", "badges": [], "created_at": "2025-06-17T19:35:47.717-04:00", "updated_at": "2025-07-03T19:44:39.325-04:00", "avatar": "https://secure.gravatar.com/avatar/da995e9fe85b30cee61d35979f48c019.jpg?s=512&d=https%3A%2F%2Fa.slack-edge.com%2Fdf10d%2Fimg%2Favatars%2Fava_0003-512.png", "custom_css": null}], "pagination": {"page": 379, "pages": 1192, "count": 23828, "items": 20}}