{"users": [{"id": 741, "slack_id": "U092BG06TNC", "display_name": "Harshit Chauhan", "bio": null, "projects_count": 2, "devlogs_count": 12, "votes_count": 40, "ships_count": 2, "projects": [{"id": 6599, "title": "Inspect3D", "devlogs_count": 6, "created_at": "2025-07-14T13:21:05.290-04:00"}, {"id": 1379, "title": "Helionix", "devlogs_count": 6, "created_at": "2025-06-18T12:47:16.185-04:00"}], "coding_time_seconds": 278961, "coding_time_seconds_today": 0, "balance": "You need to have a pocket watcher badge to view this.", "badges": [{"name": "Maiden Voyage", "text": "you shipped your first project! the journey begins...", "icon": "\ud83d\udea2"}], "created_at": "2025-06-16T12:12:39.630-04:00", "updated_at": "2025-09-10T22:51:30.705-04:00", "avatar": "https://avatars.slack-edge.com/2025-06-16/9057679080916_182e90d1a8dd81fdf68e_original.webp", "custom_css": null}, {"id": 742, "slack_id": "U091GAA283G", "display_name": "Carolina Valeriano", "bio": null, "projects_count": 0, "devlogs_count": 0, "votes_count": 0, "ships_count": 0, "projects": [], "coding_time_seconds": 0, "coding_time_seconds_today": 0, "balance": "You need to have a pocket watcher badge to view this.", "badges": [], "created_at": "2025-06-16T12:12:50.248-04:00", "updated_at": "2025-07-03T19:14:23.255-04:00", "avatar": "https://secure.gravatar.com/avatar/7890155e58de872326464da20a6f9f43.jpg?s=512&d=https%3A%2F%2Fa.slack-edge.com%2Fdf10d%2Fimg%2Favatars%2Fava_0005-512.png", "custom_css": null}, {"id": 743, "slack_id": "U0792ACK93L", "display_name": "Gestolennaam", "bio": null, "projects_count": 0, "devlogs_count": 0, "votes_count": 0, "ships_count": 0, "projects": [], "coding_time_seconds": 0, "coding_time_seconds_today": 0, "balance": "You need to have a pocket watcher badge to view this.", "badges": [], "created_at": "2025-06-16T12:12:51.211-04:00", "updated_at": "2025-07-03T19:14:23.521-04:00", "avatar": "https://secure.gravatar.com/avatar/62daa8658e8703f1e2e88d8f7b13ea82.jpg?s=512&d=https%3A%2F%2Fa.slack-edge.com%2Fdf10d%2Fimg%2Favatars%2Fava_0021-512.png", "custom_css": null}, {"id": 744, "slack_id": "U091P64TLNN", "display_name": "MD. Habibur Rahman Jesan", "bio": null, "projects_count": 0, "devlogs_count": 0, "votes_count": 0, "ships_count": 0, "projects": [], "coding_time_seconds": 0, "coding_time_seconds_today": 0, "balance": "You need to have a pocket watcher badge to view this.", "badges": [], "created_at": "2025-06-16T12:12:52.120-04:00", "updated_at": "2025-07-03T19:14:23.804-04:00", "avatar": "https://avatars.slack-edge.com/2025-06-16/9050367800406_998bb3dec66ec43ee072_original.jpg", "custom_css": null}, {"id": 745, "slack_id": "U051R9A1Q9X", "display_name": "Chaste", "bio": null, "projects_count": 0, "devlogs_count": 0, "votes_count": 0, "ships_count": 0, "projects": [], "coding_time_seconds": 43097, "coding_time_seconds_today": 0, "balance": "You need to have a pocket watcher badge to view this.", "badges": [], "created_at": "2025-06-16T12:12:53.436-04:00", "updated_at": "2025-07-03T19:14:24.071-04:00", "avatar": "https://avatars.slack-edge.com/2025-03-21/8634044838854_da57fe61f2307eaad6c9_original.jpg", "custom_css": null}, {"id": 746, "slack_id": "U091P4YF2F4", "display_name": "Axel Angulo", "bio": null, "projects_count": 0, "devlogs_count": 0, "votes_count": 0, "ships_count": 0, "projects": [], "coding_time_seconds": 256877, "coding_time_seconds_today": 0, "balance": "You need to have a pocket watcher badge to view this.", "badges": [], "created_at": "2025-06-16T12:12:55.477-04:00", "updated_at": "2025-07-03T19:14:24.353-04:00", "avatar": "https://avatars.slack-edge.com/2025-06-16/9055473087013_92818bf21e951675ccb4_original.png", "custom_css": null}, {"id": 747, "slack_id": "U0921P651B3", "display_name": "Raghav", "bio": null, "projects_count": 0, "devlogs_count": 0, "votes_count": 0, "ships_count": 0, "projects": [], "coding_time_seconds": 0, "coding_time_seconds_today": 0, "balance": "You need to have a pocket watcher badge to view this.", "badges": [], "created_at": "2025-06-16T12:13:16.180-04:00", "updated_at": "2025-07-03T19:14:24.623-04:00", "avatar": "https://avatars.slack-edge.com/2025-06-16/9041934735415_a1134fd88c74216f83eb_original.jpg", "custom_css": null}, {"id": 748, "slack_id": "U091GADUW78", "display_name": "Harshvir Singh", "bio": null, "projects_count": 1, "devlogs_count": 1, "votes_count": 0, "ships_count": 0, "projects": [{"id": 900, "title": "Escrow Bot", "devlogs_count": 1, "created_at": "2025-06-17T10:52:46.814-04:00"}], "coding_time_seconds": 116026, "coding_time_seconds_today": 0, "balance": "You need to have a pocket watcher badge to view this.", "badges": [], "created_at": "2025-06-16T12:13:23.459-04:00", "updated_at": "2025-07-03T19:14:24.884-04:00", "avatar": "https://secure.gravatar.com/avatar/f95e5fbb014351132ee25b2c3fa9d85a.jpg?s=512&d=https%3A%2F%2Fa.slack-edge.com%2Fdf10d%2Fimg%2Favatars%2Fava_0013-512.png", "custom_css": null}, {"id": 749, "slack_id": "U07L45U4CTX", "display_name": "Paolo Carino", "bio": null, "projects_count": 0, "devlogs_count": 0, "votes_count": 0, "ships_count": 0, "projects": [], "coding_time_seconds": 0, "coding_time_seconds_today": 0, "balance": "You need to have a pocket watcher badge to view this.", "badges": [], "created_at": "2025-06-16T12:13:36.502-04:00", "updated_at": "2025-07-03T19:14:25.150-04:00", "avatar": "https://avatars.slack-edge.com/2024-09-05/7709920963760_b86a123ca3ff811d4738_original.jpg", "custom_css": null}, {"id": 750, "slack_id": "U07GBCYTEQ6", "display_name": "Lluc", "bio": null, "projects_count": 0, "devlogs_count": 0, "votes_count": 0, "ships_count": 0, "projects": [], "coding_time_seconds": 0, "coding_time_seconds_today": 0, "balance": "You need to have a pocket watcher badge to view this.", "badges": [], "created_at": "2025-06-16T12:13:47.894-04:00", "updated_at": "2025-07-03T19:14:25.414-04:00", "avatar": "https://avatars.slack-edge.com/2025-01-19/8314261363157_0da2be92ad38b6ecf81f_original.jpg", "custom_css": null}, {"id": 751, "slack_id": "U0921PB3A7K", "display_name": "ArB", "bio": null, "projects_count": 0, "devlogs_count": 0, "votes_count": 0, "ships_count": 0, "projects": [], "coding_time_seconds": 0, "coding_time_seconds_today": 0, "balance": "You need to have a pocket watcher badge to view this.", "badges": [], "created_at": "2025-06-16T12:13:48.229-04:00", "updated_at": "2025-07-03T19:14:25.691-04:00", "avatar": "https://secure.gravatar.com/avatar/c503d457a95d0e021a61b11349214bd6.jpg?s=512&d=https%3A%2F%2Fa.slack-edge.com%2Fdf10d%2Fimg%2Favatars%2Fava_0018-512.png", "custom_css": null}, {"id": 752, "slack_id": "U0917T16H9D", "display_name": "Kaushal Gupta", "bio": null, "projects_count": 0, "devlogs_count": 0, "votes_count": 0, "ships_count": 0, "projects": [], "coding_time_seconds": 0, "coding_time_seconds_today": 0, "balance": "You need to have a pocket watcher badge to view this.", "badges": [], "created_at": "2025-06-16T12:13:49.407-04:00", "updated_at": "2025-07-03T19:14:25.961-04:00", "avatar": "https://avatars.slack-edge.com/2025-06-16/9069809001521_27c13413e851361659b4_original.jpg", "custom_css": null}, {"id": 753, "slack_id": "U0921GFBHPT", "display_name": "Micah Friedman", "bio": null, "projects_count": 2, "devlogs_count": 23, "votes_count": 35, "ships_count": 2, "projects": [{"id": 13000, "title": "garfiedl", "devlogs_count": 8, "created_at": "2025-09-06T18:00:00.512-04:00"}, {"id": 310, "title": "loq.to", "devlogs_count": 15, "created_at": "2025-06-16T17:41:26.271-04:00"}], "coding_time_seconds": 280716, "coding_time_seconds_today": 0, "balance": "You need to have a pocket watcher badge to view this.", "badges": [{"name": "Maiden Voyage", "text": "you shipped your first project! the journey begins...", "icon": "\ud83d\udea2"}], "created_at": "2025-06-16T12:14:24.222-04:00", "updated_at": "2025-09-10T22:51:31.057-04:00", "avatar": "https://avatars.slack-edge.com/2025-06-16/9050275265347_2fa8f38fb5befdaa12ba_original.png", "custom_css": null}, {"id": 754, "slack_id": "U091PKG4E0L", "display_name": "lilyy", "bio": null, "projects_count": 0, "devlogs_count": 0, "votes_count": 0, "ships_count": 0, "projects": [], "coding_time_seconds": 7794, "coding_time_seconds_today": 0, "balance": "You need to have a pocket watcher badge to view this.", "badges": [], "created_at": "2025-06-16T12:14:28.500-04:00", "updated_at": "2025-07-03T19:14:26.493-04:00", "avatar": "https://secure.gravatar.com/avatar/7c5aa9b0a9c844d6a0f2a7273ee820b6.jpg?s=512&d=https%3A%2F%2Fa.slack-edge.com%2Fdf10d%2Fimg%2Favatars%2Fava_0008-512.png", "custom_css": null}, {"id": 755, "slack_id": "U092BLVBURE", "display_name": "Guerra", "bio": null, "projects_count": 2, "devlogs_count": 7, "votes_count": 20, "ships_count": 1, "projects": [{"id": 875, "title": "Learning C", "devlogs_count": 6, "created_at": "2025-06-17T10:21:27.025-04:00"}, {"id": 5025, "title": "History", "devlogs_count": 1, "created_at": "2025-07-02T19:28:10.742-04:00"}], "coding_time_seconds": 158273, "coding_time_seconds_today": 0, "balance": "You need to have a pocket watcher badge to view this.", "badges": [{"name": "Maiden Voyage", "text": "you shipped your first project! the journey begins...", "icon": "\ud83d\udea2"}, {"name": "Yapper I", "text": "Posted 10 comments on devlogs.", "icon": "\ud83d\udcac"}], "created_at": "2025-06-16T12:14:33.833-04:00", "updated_at": "2025-09-10T22:51:31.120-04:00", "avatar": "https://avatars.slack-edge.com/2025-06-16/9080470649968_38ad8569cab1b9996a6b_original.jpg", "custom_css": null}, {"id": 756, "slack_id": "U092BLTH9MW", "display_name": "Akshay V", "bio": null, "projects_count": 0, "devlogs_count": 0, "votes_count": 0, "ships_count": 0, "projects": [], "coding_time_seconds": 13775, "coding_time_seconds_today": 0, "balance": "You need to have a pocket watcher badge to view this.", "badges": [], "created_at": "2025-06-16T12:14:37.815-04:00", "updated_at": "2025-07-03T19:14:27.050-04:00", "avatar": "https://avatars.slack-edge.com/2025-06-16/9041941917831_8ea881a039fa39cf3123_original.jpg", "custom_css": null}, {"id": 757, "slack_id": "U092BLGFYHE", "display_name": "Jay Berryman", "bio": null, "projects_count": 3, "devlogs_count": 5, "votes_count": 0, "ships_count": 0, "projects": [{"id": 190, "title": "AutoCaption", "devlogs_count": 1, "created_at": "2025-06-16T15:12:12.810-04:00"}, {"id": 1153, "title": "LockIt", "devlogs_count": 3, "created_at": "2025-06-17T18:36:36.867-04:00"}, {"id": 2420, "title": "Keysmash", "devlogs_count": 1, "created_at": "2025-06-21T01:47:38.717-04:00"}], "coding_time_seconds": 163693, "coding_time_seconds_today": 0, "balance": "You need to have a pocket watcher badge to view this.", "badges": [], "created_at": "2025-06-16T12:14:37.843-04:00", "updated_at": "2025-07-03T19:14:27.335-04:00", "avatar": "https://secure.gravatar.com/avatar/40be77b3278293b42cbf9f07dee43705.jpg?s=512&d=https%3A%2F%2Fa.slack-edge.com%2Fdf10d%2Fimg%2Favatars%2Fava_0000-512.png", "custom_css": null}, {"id": 758, "slack_id": "U0917R2U0TH", "display_name": "Elliot", "bio": null, "projects_count": 0, "devlogs_count": 0, "votes_count": 0, "ships_count": 0, "projects": [], "coding_time_seconds": 0, "coding_time_seconds_today": 0, "balance": "You need to have a pocket watcher badge to view this.", "badges": [], "created_at": "2025-06-16T12:14:43.544-04:00", "updated_at": "2025-07-03T19:14:27.630-04:00", "avatar": "https://secure.gravatar.com/avatar/b2b8cfe2f8d2d8cf89863662ee79a928.jpg?s=512&d=https%3A%2F%2Fa.slack-edge.com%2Fdf10d%2Fimg%2Favatars%2Fava_0024-512.png", "custom_css": null}, {"id": 759, "slack_id": "U091P6JV2SE", "display_name": "Silimim", "bio": null, "projects_count": 0, "devlogs_count": 0, "votes_count": 0, "ships_count": 0, "projects": [], "coding_time_seconds": 0, "coding_time_seconds_today": 0, "balance": "You need to have a pocket watcher badge to view this.", "badges": [], "created_at": "2025-06-16T12:14:43.907-04:00", "updated_at": "2025-07-03T19:14:27.896-04:00", "avatar": "https://secure.gravatar.com/avatar/c0a04ff0f67eb6d7a5853320bd2b981b.jpg?s=512&d=https%3A%2F%2Fa.slack-edge.com%2Fdf10d%2Fimg%2Favatars%2Fava_0023-512.png", "custom_css": null}, {"id": 760, "slack_id": "U091GAM25CN", "display_name": "Samarth Jain", "bio": null, "projects_count": 0, "devlogs_count": 0, "votes_count": 0, "ships_count": 0, "projects": [], "coding_time_seconds": 0, "coding_time_seconds_today": 0, "balance": "You need to have a pocket watcher badge to view this.", "badges": [], "created_at": "2025-06-16T12:14:46.974-04:00", "updated_at": "2025-07-03T19:14:28.156-04:00", "avatar": "https://secure.gravatar.com/avatar/1b66ea4db674a691c4fd5196d8a19619.jpg?s=512&d=https%3A%2F%2Fa.slack-edge.com%2Fdf10d%2Fimg%2Favatars%2Fava_0017-512.png", "custom_css": null}], "pagination": {"page": 38, "pages": 1192, "count": 23827, "items": 20}}