{"users": [{"id": 7581, "slack_id": "U079P441494", "display_name": "Mokwugwo Paul", "bio": null, "projects_count": 0, "devlogs_count": 0, "votes_count": 0, "ships_count": 0, "projects": [], "coding_time_seconds": 787423, "coding_time_seconds_today": 0, "balance": "You need to have a pocket watcher badge to view this.", "badges": [], "created_at": "2025-06-17T19:36:13.720-04:00", "updated_at": "2025-07-07T18:13:31.015-04:00", "avatar": "https://secure.gravatar.com/avatar/ad5e1058e466d0016e3028d34b00ccca.jpg?s=512&d=https%3A%2F%2Fa.slack-edge.com%2Fdf10d%2Fimg%2Favatars%2Fava_0024-512.png", "custom_css": null}, {"id": 7582, "slack_id": "U091W2YRG2H", "display_name": "Aidan Holmes", "bio": null, "projects_count": 0, "devlogs_count": 0, "votes_count": 0, "ships_count": 0, "projects": [], "coding_time_seconds": 0, "coding_time_seconds_today": 0, "balance": "You need to have a pocket watcher badge to view this.", "badges": [], "created_at": "2025-06-17T19:37:07.874-04:00", "updated_at": "2025-07-03T19:44:39.932-04:00", "avatar": "https://secure.gravatar.com/avatar/8f26da3f6eff82016fcd3c5a8e46e7dc.jpg?s=512&d=https%3A%2F%2Fa.slack-edge.com%2Fdf10d%2Fimg%2Favatars%2Fava_0006-512.png", "custom_css": null}, {"id": 7583, "slack_id": "U092A7XFNC9", "display_name": "aungs8430", "bio": "Hi I'm AungS8430, I'm a developer from Thailand. I love building some random stuff. I don't have a lot of free time so not a lot of projects anymore lol. I always started projects that I don't know how to build, so I learn when building it, but it takes a lot of time, I like trial and error so yeah", "projects_count": 2, "devlogs_count": 13, "votes_count": 25, "ships_count": 1, "projects": [{"id": 12469, "title": "Formulistic1", "devlogs_count": 2, "created_at": "2025-08-28T02:43:34.410-04:00"}, {"id": 2007, "title": "Kotoboss", "devlogs_count": 11, "created_at": "2025-06-19T21:50:26.792-04:00"}], "coding_time_seconds": 344149, "coding_time_seconds_today": 1792, "balance": "You need to have a pocket watcher badge to view this.", "badges": [{"name": "Maiden Voyage", "text": "you shipped your first project! the journey begins...", "icon": "\ud83d\udea2"}], "created_at": "2025-06-17T19:39:08.145-04:00", "updated_at": "2025-09-10T22:54:56.003-04:00", "avatar": "https://secure.gravatar.com/avatar/3e67047dc1ca5538fe12d056cb9241a7.jpg?s=512&d=https%3A%2F%2Fa.slack-edge.com%2Fdf10d%2Fimg%2Favatars%2Fava_0004-512.png", "custom_css": null}, {"id": 7584, "slack_id": "U091W30BR45", "display_name": "Jack", "bio": "", "projects_count": 2, "devlogs_count": 11, "votes_count": 43, "ships_count": 2, "projects": [{"id": 11617, "title": "Cord Organizer", "devlogs_count": 7, "created_at": "2025-08-17T18:45:13.021-04:00"}, {"id": 3018, "title": "Pretty Pong", "devlogs_count": 4, "created_at": "2025-06-22T19:44:43.349-04:00"}], "coding_time_seconds": 30366, "coding_time_seconds_today": 0, "balance": "You need to have a pocket watcher badge to view this.", "badges": [{"name": "Maiden Voyage", "text": "you shipped your first project! the journey begins...", "icon": "\ud83d\udea2"}], "created_at": "2025-06-17T19:39:25.370-04:00", "updated_at": "2025-09-14T16:59:36.357-04:00", "avatar": "https://avatars.slack-edge.com/2025-07-17/9213700387621_b2ff6d58cb04b53c5516_original.png", "custom_css": null}, {"id": 7585, "slack_id": "U091GCAA5HD", "display_name": "Lenin Sanchez", "bio": null, "projects_count": 0, "devlogs_count": 0, "votes_count": 0, "ships_count": 0, "projects": [], "coding_time_seconds": 6827, "coding_time_seconds_today": 0, "balance": "You need to have a pocket watcher badge to view this.", "badges": [], "created_at": "2025-06-17T19:43:08.864-04:00", "updated_at": "2025-07-03T19:44:40.738-04:00", "avatar": "https://avatars.slack-edge.com/2025-06-17/9059066615939_f92062496f6a07a1b145_original.jpg", "custom_css": null}, {"id": 7586, "slack_id": "U091Y2R59EG", "display_name": "missures", "bio": null, "projects_count": 0, "devlogs_count": 0, "votes_count": 0, "ships_count": 0, "projects": [], "coding_time_seconds": 0, "coding_time_seconds_today": 0, "balance": "You need to have a pocket watcher badge to view this.", "badges": [], "created_at": "2025-06-17T19:43:57.184-04:00", "updated_at": "2025-07-03T19:44:41.004-04:00", "avatar": "https://secure.gravatar.com/avatar/e950a8eadc13aa3fa7e780d2c6619ba6.jpg?s=512&d=https%3A%2F%2Fa.slack-edge.com%2Fdf10d%2Fimg%2Favatars%2Fava_0023-512.png", "custom_css": null}, {"id": 7587, "slack_id": "U07LH6W1L04", "display_name": "pixi", "bio": null, "projects_count": 1, "devlogs_count": 1, "votes_count": 19, "ships_count": 1, "projects": [{"id": 9409, "title": "DREAMSKATER", "devlogs_count": 1, "created_at": "2025-08-01T04:34:59.689-04:00"}], "coding_time_seconds": 390580, "coding_time_seconds_today": 0, "balance": "You need to have a pocket watcher badge to view this.", "badges": [{"name": "Maiden Voyage", "text": "you shipped your first project! the journey begins...", "icon": "\ud83d\udea2"}], "created_at": "2025-06-17T19:47:55.208-04:00", "updated_at": "2025-09-10T22:54:56.121-04:00", "avatar": "https://avatars.slack-edge.com/2025-08-14/9346017448275_af1953f04368518fbf2e_original.png", "custom_css": null}, {"id": 7588, "slack_id": "U09259P1GBS", "display_name": "Andy Lin", "bio": null, "projects_count": 0, "devlogs_count": 0, "votes_count": 0, "ships_count": 0, "projects": [], "coding_time_seconds": 0, "coding_time_seconds_today": 0, "balance": "You need to have a pocket watcher badge to view this.", "badges": [], "created_at": "2025-06-17T19:48:28.939-04:00", "updated_at": "2025-07-03T19:44:41.537-04:00", "avatar": "https://avatars.slack-edge.com/2025-06-14/9051423734484_f9803c00a0c89eedf3e7_original.png", "custom_css": null}, {"id": 7589, "slack_id": "U092A8PG3UZ", "display_name": "Glenn", "bio": null, "projects_count": 0, "devlogs_count": 0, "votes_count": 0, "ships_count": 0, "projects": [], "coding_time_seconds": 0, "coding_time_seconds_today": 0, "balance": "You need to have a pocket watcher badge to view this.", "badges": [], "created_at": "2025-06-17T19:48:43.695-04:00", "updated_at": "2025-07-03T19:44:41.797-04:00", "avatar": "https://secure.gravatar.com/avatar/6a92545cb9b4ce845f2a5afb71e423a4.jpg?s=512&d=https%3A%2F%2Fa.slack-edge.com%2Fdf10d%2Fimg%2Favatars%2Fava_0020-512.png", "custom_css": null}, {"id": 7590, "slack_id": "U091Y2W18MA", "display_name": "Osbone04", "bio": null, "projects_count": 0, "devlogs_count": 0, "votes_count": 0, "ships_count": 0, "projects": [], "coding_time_seconds": 0, "coding_time_seconds_today": 0, "balance": "You need to have a pocket watcher badge to view this.", "badges": [], "created_at": "2025-06-17T19:50:41.895-04:00", "updated_at": "2025-07-03T21:57:28.483-04:00", "avatar": "https://secure.gravatar.com/avatar/2a1d4ec6a710e9b48301c5853917bb9d.jpg?s=512&d=https%3A%2F%2Fa.slack-edge.com%2Fdf10d%2Fimg%2Favatars%2Fava_0010-512.png", "custom_css": null}, {"id": 7591, "slack_id": "U091QUB2GTG", "display_name": "Deanna", "bio": null, "projects_count": 0, "devlogs_count": 0, "votes_count": 0, "ships_count": 0, "projects": [], "coding_time_seconds": 0, "coding_time_seconds_today": 0, "balance": "You need to have a pocket watcher badge to view this.", "badges": [], "created_at": "2025-06-17T19:50:52.550-04:00", "updated_at": "2025-07-03T19:44:42.191-04:00", "avatar": "https://secure.gravatar.com/avatar/ef6819ddf6a715c37e95047284fef6b5.jpg?s=512&d=https%3A%2F%2Fa.slack-edge.com%2Fdf10d%2Fimg%2Favatars%2Fava_0019-512.png", "custom_css": null}, {"id": 7592, "slack_id": "U091W47U4Q5", "display_name": "Abdullah Mohammad", "bio": null, "projects_count": 1, "devlogs_count": 1, "votes_count": 1, "ships_count": 1, "projects": [{"id": 3633, "title": "CheeseBoard", "devlogs_count": 1, "created_at": "2025-06-25T03:48:14.878-04:00"}], "coding_time_seconds": 149071, "coding_time_seconds_today": 0, "balance": "You need to have a pocket watcher badge to view this.", "badges": [{"name": "Maiden Voyage", "text": "you shipped your first project! the journey begins...", "icon": "\ud83d\udea2"}], "created_at": "2025-06-17T19:52:13.000-04:00", "updated_at": "2025-09-10T22:54:56.272-04:00", "avatar": "https://secure.gravatar.com/avatar/f6e474e14e2dd2440e80836bf31df19e.jpg?s=512&d=https%3A%2F%2Fa.slack-edge.com%2Fdf10d%2Fimg%2Favatars%2Fava_0022-512.png", "custom_css": null}, {"id": 7593, "slack_id": "U079B4R3KB5", "display_name": "ethanprivette", "bio": null, "projects_count": 1, "devlogs_count": 1, "votes_count": 0, "ships_count": 0, "projects": [{"id": 4277, "title": "MiniFRC Path Follower", "devlogs_count": 1, "created_at": "2025-06-28T16:19:55.894-04:00"}], "coding_time_seconds": 80273, "coding_time_seconds_today": 0, "balance": "You need to have a pocket watcher badge to view this.", "badges": [], "created_at": "2025-06-17T19:52:24.288-04:00", "updated_at": "2025-08-29T21:09:19.600-04:00", "avatar": "https://avatars.slack-edge.com/2024-06-22/7310654638566_f14ef12eb1681aebdd2c_original.jpg", "custom_css": null}, {"id": 7594, "slack_id": "U082KMLM7DW", "display_name": "RezHackXYZ", "bio": "", "projects_count": 0, "devlogs_count": 2, "votes_count": 0, "ships_count": 0, "projects": [], "coding_time_seconds": 246671, "coding_time_seconds_today": 0, "balance": "You need to have a pocket watcher badge to view this.", "badges": [], "created_at": "2025-06-17T19:58:42.476-04:00", "updated_at": "2025-09-18T06:37:01.680-04:00", "avatar": "https://avatars.slack-edge.com/2025-09-18/9524157019575_d6d955e3e9919c6051ff_original.jpg", "custom_css": null}, {"id": 7595, "slack_id": "U07V869K5EW", "display_name": "QuizzityMC", "bio": null, "projects_count": 1, "devlogs_count": 7, "votes_count": 20, "ships_count": 1, "projects": [{"id": 1580, "title": "OpenListen", "devlogs_count": 7, "created_at": "2025-06-18T19:41:33.249-04:00"}], "coding_time_seconds": 23263, "coding_time_seconds_today": 0, "balance": "You need to have a pocket watcher badge to view this.", "badges": [{"name": "Maiden Voyage", "text": "you shipped your first project! the journey begins...", "icon": "\ud83d\udea2"}], "created_at": "2025-06-17T20:04:19.841-04:00", "updated_at": "2025-09-10T22:54:56.362-04:00", "avatar": "https://secure.gravatar.com/avatar/dcde2e269f5576d3982e57e2eb70705d.jpg?s=512&d=https%3A%2F%2Fa.slack-edge.com%2Fdf10d%2Fimg%2Favatars%2Fava_0023-512.png", "custom_css": null}, {"id": 7596, "slack_id": "U091XMRRZB4", "display_name": "Dev Shroff", "bio": null, "projects_count": 1, "devlogs_count": 3, "votes_count": 0, "ships_count": 1, "projects": [{"id": 1421, "title": "Financial Analysis Visualizer", "devlogs_count": 3, "created_at": "2025-06-18T14:30:04.600-04:00"}], "coding_time_seconds": 66776, "coding_time_seconds_today": 0, "balance": "You need to have a pocket watcher badge to view this.", "badges": [{"name": "Maiden Voyage", "text": "you shipped your first project! the journey begins...", "icon": "\ud83d\udea2"}], "created_at": "2025-06-17T20:04:35.996-04:00", "updated_at": "2025-09-10T22:54:56.395-04:00", "avatar": "https://avatars.slack-edge.com/2025-06-17/9065748451746_2e359715a3e92696445b_original.png", "custom_css": null}, {"id": 7597, "slack_id": "U091GEK8VT9", "display_name": "Starlight", "bio": null, "projects_count": 0, "devlogs_count": 0, "votes_count": 0, "ships_count": 0, "projects": [], "coding_time_seconds": 0, "coding_time_seconds_today": 0, "balance": "You need to have a pocket watcher badge to view this.", "badges": [], "created_at": "2025-06-17T20:05:06.309-04:00", "updated_at": "2025-07-03T21:57:29.015-04:00", "avatar": "https://secure.gravatar.com/avatar/d48f0ba6e4c0f67a9c2892d0b568ac46.jpg?s=512&d=https%3A%2F%2Fa.slack-edge.com%2Fdf10d%2Fimg%2Favatars%2Fava_0013-512.png", "custom_css": null}, {"id": 7598, "slack_id": "U092L4XBBC0", "display_name": "Ariya Mukherjee-Gandhi", "bio": null, "projects_count": 0, "devlogs_count": 0, "votes_count": 0, "ships_count": 0, "projects": [], "coding_time_seconds": 0, "coding_time_seconds_today": 0, "balance": "You need to have a pocket watcher badge to view this.", "badges": [], "created_at": "2025-06-17T20:05:07.113-04:00", "updated_at": "2025-07-03T19:44:43.508-04:00", "avatar": "https://avatars.slack-edge.com/2025-06-17/9088174433888_1f48c3e739ff0fa1c62f_original.png", "custom_css": null}, {"id": 7599, "slack_id": "U08CHPFKUJ0", "display_name": "sisuisthebest", "bio": "", "projects_count": 2, "devlogs_count": 9, "votes_count": 27, "ships_count": 2, "projects": [{"id": 9590, "title": "Day: A simple platformer", "devlogs_count": 6, "created_at": "2025-08-01T18:49:00.457-04:00"}, {"id": 10904, "title": "The most annoying Minecraft shader", "devlogs_count": 3, "created_at": "2025-08-11T17:17:08.720-04:00"}], "coding_time_seconds": 54378, "coding_time_seconds_today": 0, "balance": "You need to have a pocket watcher badge to view this.", "badges": [{"name": "Maiden Voyage", "text": "you shipped your first project! the journey begins...", "icon": "\ud83d\udea2"}, {"name": "No Fun", "text": "opt-out added for the whimsy-impaired", "icon": "\ud83d\udeab"}, {"name": "Graphic Design is My Passion", "text": "Oh God How Did This Get Here I Am Not Good With Computer", "icon": "\ud83c\udfa8"}], "created_at": "2025-06-17T20:05:25.161-04:00", "updated_at": "2025-09-11T21:06:34.932-04:00", "avatar": "https://avatars.slack-edge.com/2025-08-02/9293124376934_c058c73613a2725dc33c_original.jpg", "custom_css": "body { background: linear-gradient(35deg, #ffffff, #123456); }"}, {"id": 7600, "slack_id": "U07QLD6TQ94", "display_name": "Vishal Parvannan", "bio": null, "projects_count": 0, "devlogs_count": 0, "votes_count": 0, "ships_count": 0, "projects": [], "coding_time_seconds": 30376, "coding_time_seconds_today": 0, "balance": "You need to have a pocket watcher badge to view this.", "badges": [], "created_at": "2025-06-17T20:07:03.574-04:00", "updated_at": "2025-07-03T19:44:43.900-04:00", "avatar": "https://avatars.slack-edge.com/2025-06-17/9088180951072_f1265208e585f53d98b2_original.png", "custom_css": null}], "pagination": {"page": 380, "pages": 1192, "count": 23828, "items": 20}}