{"users": [{"id": 7601, "slack_id": "U07F2PS3QBA", "display_name": "Julian Givens", "bio": null, "projects_count": 0, "devlogs_count": 0, "votes_count": 0, "ships_count": 0, "projects": [], "coding_time_seconds": 0, "coding_time_seconds_today": 0, "balance": "You need to have a pocket watcher badge to view this.", "badges": [], "created_at": "2025-06-17T20:07:09.562-04:00", "updated_at": "2025-07-03T19:44:44.158-04:00", "avatar": "https://avatars.slack-edge.com/2025-06-17/9088181616960_2c88c2bc969144faea17_original.png", "custom_css": null}, {"id": 7602, "slack_id": "U092L52AR7S", "display_name": "Sarah Vigliotti", "bio": null, "projects_count": 0, "devlogs_count": 0, "votes_count": 0, "ships_count": 0, "projects": [], "coding_time_seconds": 0, "coding_time_seconds_today": 0, "balance": "You need to have a pocket watcher badge to view this.", "badges": [], "created_at": "2025-06-17T20:08:57.541-04:00", "updated_at": "2025-07-03T19:44:44.416-04:00", "avatar": "https://avatars.slack-edge.com/2025-06-17/9088185993200_9d91c54c4eed282de4ee_original.png", "custom_css": null}, {"id": 7603, "slack_id": "U092AAQ002V", "display_name": "Leong Jin Zhou", "bio": null, "projects_count": 0, "devlogs_count": 0, "votes_count": 0, "ships_count": 0, "projects": [], "coding_time_seconds": 0, "coding_time_seconds_today": 0, "balance": "You need to have a pocket watcher badge to view this.", "badges": [], "created_at": "2025-06-17T20:10:10.743-04:00", "updated_at": "2025-07-03T19:44:44.685-04:00", "avatar": "https://secure.gravatar.com/avatar/0164acb11816739f902de300515fda82.jpg?s=512&d=https%3A%2F%2Fa.slack-edge.com%2Fdf10d%2Fimg%2Favatars%2Fava_0016-512.png", "custom_css": null}, {"id": 7604, "slack_id": "U091Y5BMGMS", "display_name": "Ahmad Abrar", "bio": null, "projects_count": 0, "devlogs_count": 0, "votes_count": 0, "ships_count": 0, "projects": [], "coding_time_seconds": 30645, "coding_time_seconds_today": 0, "balance": "You need to have a pocket watcher badge to view this.", "badges": [], "created_at": "2025-06-17T20:11:06.098-04:00", "updated_at": "2025-07-03T19:44:44.949-04:00", "avatar": "https://avatars.slack-edge.com/2025-06-17/9064219174853_94ca191a1a259a77f6da_original.jpg", "custom_css": null}, {"id": 7605, "slack_id": "U078LRX5BGC", "display_name": "r3tr0", "bio": null, "projects_count": 0, "devlogs_count": 0, "votes_count": 0, "ships_count": 0, "projects": [], "coding_time_seconds": 0, "coding_time_seconds_today": 0, "balance": "You need to have a pocket watcher badge to view this.", "badges": [], "created_at": "2025-06-17T20:11:42.056-04:00", "updated_at": "2025-07-06T20:08:58.193-04:00", "avatar": "https://avatars.slack-edge.com/2025-06-14/9062408017265_3951a30cb1a0b7bdff26_original.png", "custom_css": null}, {"id": 7606, "slack_id": "U092L5E9AKS", "display_name": "Nguy\u1ec5n Ho\u00e0ng Gia Huy", "bio": null, "projects_count": 0, "devlogs_count": 0, "votes_count": 0, "ships_count": 0, "projects": [], "coding_time_seconds": 0, "coding_time_seconds_today": 0, "balance": "You need to have a pocket watcher badge to view this.", "badges": [], "created_at": "2025-06-17T20:11:43.761-04:00", "updated_at": "2025-07-03T21:57:29.663-04:00", "avatar": "https://secure.gravatar.com/avatar/dd98bcee9119252f2fbeb064806b0354.jpg?s=512&d=https%3A%2F%2Fa.slack-edge.com%2Fdf10d%2Fimg%2Favatars%2Fava_0016-512.png", "custom_css": null}, {"id": 7607, "slack_id": "U091GFLAWA3", "display_name": "mikexen", "bio": null, "projects_count": 0, "devlogs_count": 0, "votes_count": 0, "ships_count": 0, "projects": [], "coding_time_seconds": 0, "coding_time_seconds_today": 0, "balance": "You need to have a pocket watcher badge to view this.", "badges": [], "created_at": "2025-06-17T20:12:06.439-04:00", "updated_at": "2025-07-04T08:23:12.161-04:00", "avatar": "https://secure.gravatar.com/avatar/56ed701d2265522679d3f0a179373c32.jpg?s=512&d=https%3A%2F%2Fa.slack-edge.com%2Fdf10d%2Fimg%2Favatars%2Fava_0011-512.png", "custom_css": null}, {"id": 7608, "slack_id": "U091R9U4WP8", "display_name": "Afra", "bio": null, "projects_count": 0, "devlogs_count": 0, "votes_count": 0, "ships_count": 0, "projects": [], "coding_time_seconds": 0, "coding_time_seconds_today": 0, "balance": "You need to have a pocket watcher badge to view this.", "badges": [], "created_at": "2025-06-17T20:12:27.204-04:00", "updated_at": "2025-07-03T19:44:45.615-04:00", "avatar": "https://secure.gravatar.com/avatar/b19e3ed30d116eb733cb966078127d34.jpg?s=512&d=https%3A%2F%2Fa.slack-edge.com%2Fdf10d%2Fimg%2Favatars%2Fava_0011-512.png", "custom_css": null}, {"id": 7609, "slack_id": "U07F643UA02", "display_name": "evan", "bio": null, "projects_count": 0, "devlogs_count": 0, "votes_count": 0, "ships_count": 0, "projects": [], "coding_time_seconds": 0, "coding_time_seconds_today": 0, "balance": "You need to have a pocket watcher badge to view this.", "badges": [], "created_at": "2025-06-17T20:14:34.610-04:00", "updated_at": "2025-07-03T19:44:45.890-04:00", "avatar": "https://avatars.slack-edge.com/2024-08-02/7510611262406_cc248e2733dbb8ca544d_original.png", "custom_css": null}, {"id": 7610, "slack_id": "U091RA83F0W", "display_name": "Brian", "bio": null, "projects_count": 0, "devlogs_count": 0, "votes_count": 0, "ships_count": 0, "projects": [], "coding_time_seconds": 0, "coding_time_seconds_today": 0, "balance": "You need to have a pocket watcher badge to view this.", "badges": [], "created_at": "2025-06-17T20:18:13.496-04:00", "updated_at": "2025-07-03T22:36:03.654-04:00", "avatar": "https://secure.gravatar.com/avatar/fbd0e620b0f21cd2562e465ea2bdf0d6.jpg?s=512&d=https%3A%2F%2Fa.slack-edge.com%2Fdf10d%2Fimg%2Favatars%2Fava_0012-512.png", "custom_css": null}, {"id": 7611, "slack_id": "U091RAD7EMU", "display_name": "Amaan Ali", "bio": null, "projects_count": 0, "devlogs_count": 0, "votes_count": 0, "ships_count": 0, "projects": [], "coding_time_seconds": 229, "coding_time_seconds_today": 0, "balance": "You need to have a pocket watcher badge to view this.", "badges": [], "created_at": "2025-06-17T20:18:31.982-04:00", "updated_at": "2025-07-03T19:44:46.287-04:00", "avatar": "https://avatars.slack-edge.com/2025-06-17/9059363595542_2582b3523b1c9db06520_original.png", "custom_css": null}, {"id": 7612, "slack_id": "U091XHRB7D0", "display_name": "jonathan B tellez", "bio": null, "projects_count": 0, "devlogs_count": 0, "votes_count": 0, "ships_count": 0, "projects": [], "coding_time_seconds": 99174, "coding_time_seconds_today": 0, "balance": "You need to have a pocket watcher badge to view this.", "badges": [], "created_at": "2025-06-17T20:18:34.735-04:00", "updated_at": "2025-07-03T19:44:46.541-04:00", "avatar": "https://avatars.slack-edge.com/2025-06-17/9065789218562_75955dda1fe1811a2d8c_original.png", "custom_css": null}, {"id": 7613, "slack_id": "U091W6NPJUV", "display_name": "Nishant", "bio": null, "projects_count": 0, "devlogs_count": 0, "votes_count": 0, "ships_count": 0, "projects": [], "coding_time_seconds": 0, "coding_time_seconds_today": 0, "balance": "You need to have a pocket watcher badge to view this.", "badges": [], "created_at": "2025-06-17T20:19:00.508-04:00", "updated_at": "2025-07-04T20:08:07.155-04:00", "avatar": "https://secure.gravatar.com/avatar/119623da8723673c60a3dd5024a3844d.jpg?s=512&d=https%3A%2F%2Fa.slack-edge.com%2Fdf10d%2Fimg%2Favatars%2Fava_0026-512.png", "custom_css": null}, {"id": 7614, "slack_id": "U091GGBM0HM", "display_name": "summ3rhax0r", "bio": null, "projects_count": 0, "devlogs_count": 0, "votes_count": 0, "ships_count": 0, "projects": [], "coding_time_seconds": 0, "coding_time_seconds_today": 0, "balance": "You need to have a pocket watcher badge to view this.", "badges": [], "created_at": "2025-06-17T20:19:46.961-04:00", "updated_at": "2025-07-03T19:44:46.940-04:00", "avatar": "https://secure.gravatar.com/avatar/b6cc4711cc7b3cc88e219d30ab89c90c.jpg?s=512&d=https%3A%2F%2Fa.slack-edge.com%2Fdf10d%2Fimg%2Favatars%2Fava_0017-512.png", "custom_css": null}, {"id": 7615, "slack_id": "U07V3BSCSF2", "display_name": "Kevin Zheng", "bio": null, "projects_count": 2, "devlogs_count": 3, "votes_count": 0, "ships_count": 0, "projects": [{"id": 1928, "title": "StudySync", "devlogs_count": 1, "created_at": "2025-06-19T16:28:41.146-04:00"}, {"id": 2675, "title": "PurrPurr.io", "devlogs_count": 2, "created_at": "2025-06-21T16:27:33.523-04:00"}], "coding_time_seconds": 189559, "coding_time_seconds_today": 0, "balance": "You need to have a pocket watcher badge to view this.", "badges": [], "created_at": "2025-06-17T20:20:27.621-04:00", "updated_at": "2025-08-28T20:58:56.304-04:00", "avatar": "https://secure.gravatar.com/avatar/91018ecfb83d51c3bc76c3218a61ddbd.jpg?s=512&d=https%3A%2F%2Fa.slack-edge.com%2Fdf10d%2Fimg%2Favatars%2Fava_0001-512.png", "custom_css": null}, {"id": 7616, "slack_id": "U07UE65BQHG", "display_name": "Eric Lin", "bio": null, "projects_count": 0, "devlogs_count": 11, "votes_count": 20, "ships_count": 0, "projects": [], "coding_time_seconds": 169945, "coding_time_seconds_today": 0, "balance": "You need to have a pocket watcher badge to view this.", "badges": [{"name": "Maiden Voyage", "text": "you shipped your first project! the journey begins...", "icon": "\ud83d\udea2"}], "created_at": "2025-06-17T20:20:35.620-04:00", "updated_at": "2025-09-10T22:54:57.041-04:00", "avatar": "https://avatars.slack-edge.com/2024-10-31/7989360954224_3b7fe8288117e072158c_original.jpg", "custom_css": null}, {"id": 7617, "slack_id": "U04LJ6RLPCP", "display_name": "Aarnav Bhat", "bio": null, "projects_count": 0, "devlogs_count": 0, "votes_count": 0, "ships_count": 0, "projects": [], "coding_time_seconds": 281311, "coding_time_seconds_today": 0, "balance": "You need to have a pocket watcher badge to view this.", "badges": [], "created_at": "2025-06-17T20:21:11.697-04:00", "updated_at": "2025-07-03T19:44:47.725-04:00", "avatar": "https://avatars.slack-edge.com/2023-01-27/4715235582244_d19677e3f9c1ea16ea8e_original.jpg", "custom_css": null}, {"id": 7618, "slack_id": "U091W7AS961", "display_name": "Ivan Ratushny", "bio": null, "projects_count": 0, "devlogs_count": 0, "votes_count": 0, "ships_count": 0, "projects": [], "coding_time_seconds": 473, "coding_time_seconds_today": 0, "balance": "You need to have a pocket watcher badge to view this.", "badges": [], "created_at": "2025-06-17T20:24:22.547-04:00", "updated_at": "2025-07-03T19:44:47.980-04:00", "avatar": "https://avatars.slack-edge.com/2025-06-17/9088285465504_a42de0ec4564bba64eac_original.png", "custom_css": null}, {"id": 7619, "slack_id": "U091RAYH2CE", "display_name": "AhmadO", "bio": null, "projects_count": 0, "devlogs_count": 0, "votes_count": 0, "ships_count": 0, "projects": [], "coding_time_seconds": 0, "coding_time_seconds_today": 0, "balance": "You need to have a pocket watcher badge to view this.", "badges": [], "created_at": "2025-06-17T20:25:16.362-04:00", "updated_at": "2025-07-03T19:44:48.252-04:00", "avatar": "https://secure.gravatar.com/avatar/6f9242d97560387621511863fbaa8c36.jpg?s=512&d=https%3A%2F%2Fa.slack-edge.com%2Fdf10d%2Fimg%2Favatars%2Fava_0003-512.png", "custom_css": null}, {"id": 7620, "slack_id": "U091W6ND02Z", "display_name": "Lucy Hans", "bio": null, "projects_count": 0, "devlogs_count": 0, "votes_count": 0, "ships_count": 0, "projects": [], "coding_time_seconds": 0, "coding_time_seconds_today": 0, "balance": "You need to have a pocket watcher badge to view this.", "badges": [], "created_at": "2025-06-17T20:27:13.238-04:00", "updated_at": "2025-07-03T19:44:48.510-04:00", "avatar": "https://secure.gravatar.com/avatar/20718471e657ebc8c5d219214057723c.jpg?s=512&d=https%3A%2F%2Fa.slack-edge.com%2Fdf10d%2Fimg%2Favatars%2Fava_0003-512.png", "custom_css": null}], "pagination": {"page": 381, "pages": 1192, "count": 23828, "items": 20}}