{"users": [{"id": 7621, "slack_id": "U091QL9FMU2", "display_name": "R...", "bio": null, "projects_count": 0, "devlogs_count": 0, "votes_count": 0, "ships_count": 0, "projects": [], "coding_time_seconds": 0, "coding_time_seconds_today": 0, "balance": "You need to have a pocket watcher badge to view this.", "badges": [], "created_at": "2025-06-17T20:27:31.894-04:00", "updated_at": "2025-07-03T19:44:48.779-04:00", "avatar": "https://secure.gravatar.com/avatar/cd6e853a678e96bb699edc92677f8aa3.jpg?s=512&d=https%3A%2F%2Fa.slack-edge.com%2Fdf10d%2Fimg%2Favatars%2Fava_0000-512.png", "custom_css": null}, {"id": 7622, "slack_id": "U092ABEL281", "display_name": "Georges Michel", "bio": null, "projects_count": 0, "devlogs_count": 0, "votes_count": 0, "ships_count": 0, "projects": [], "coding_time_seconds": 480, "coding_time_seconds_today": 0, "balance": "You need to have a pocket watcher badge to view this.", "badges": [], "created_at": "2025-06-17T20:27:35.414-04:00", "updated_at": "2025-07-03T19:44:49.039-04:00", "avatar": "https://secure.gravatar.com/avatar/26a45acbafdfd09da0c2967fb799eeb0.jpg?s=512&d=https%3A%2F%2Fa.slack-edge.com%2Fdf10d%2Fimg%2Favatars%2Fava_0010-512.png", "custom_css": null}, {"id": 7623, "slack_id": "U091R5E7K1R", "display_name": "Sadikshya Bashyal", "bio": null, "projects_count": 6, "devlogs_count": 44, "votes_count": 45, "ships_count": 5, "projects": [{"id": 2429, "title": "Todo", "devlogs_count": 18, "created_at": "2025-06-21T02:23:18.625-04:00"}, {"id": 2125, "title": "Hangman Game", "devlogs_count": 1, "created_at": "2025-06-20T07:44:36.085-04:00"}, {"id": 6993, "title": "Escape Temple", "devlogs_count": 7, "created_at": "2025-07-18T04:03:54.901-04:00"}, {"id": 2029, "title": "Oscillart-Play", "devlogs_count": 4, "created_at": "2025-06-19T23:33:29.601-04:00"}, {"id": 4370, "title": "IQ Test", "devlogs_count": 13, "created_at": "2025-06-29T12:07:22.367-04:00"}, {"id": 1779, "title": "Portfolio Website", "devlogs_count": 1, "created_at": "2025-06-19T08:25:48.763-04:00"}], "coding_time_seconds": 325600, "coding_time_seconds_today": 0, "balance": "You need to have a pocket watcher badge to view this.", "badges": [{"name": "Maiden Voyage", "text": "you shipped your first project! the journey begins...", "icon": "\ud83d\udea2"}, {"name": "Ballot Stuffer", "text": "vote 100 times.", "icon": "https://summer.hackclub.com/assets/i_voted-bf851b48.png"}], "created_at": "2025-06-17T20:27:58.208-04:00", "updated_at": "2025-09-10T22:54:57.211-04:00", "avatar": "https://secure.gravatar.com/avatar/d4d1d290931b6d375904d0ee3d836e9a.jpg?s=512&d=https%3A%2F%2Fa.slack-edge.com%2Fdf10d%2Fimg%2Favatars%2Fava_0019-512.png", "custom_css": null}, {"id": 7624, "slack_id": "U07E7GDMZMJ", "display_name": "Mehroosh Riona", "bio": null, "projects_count": 0, "devlogs_count": 0, "votes_count": 0, "ships_count": 0, "projects": [], "coding_time_seconds": 0, "coding_time_seconds_today": 0, "balance": "You need to have a pocket watcher badge to view this.", "badges": [], "created_at": "2025-06-17T20:28:54.321-04:00", "updated_at": "2025-07-03T19:44:49.579-04:00", "avatar": "https://avatars.slack-edge.com/2024-07-26/7509526615360_f7430c6e0cde000e17c4_original.png", "custom_css": null}, {"id": 7625, "slack_id": "U091QBXRTAQ", "display_name": "carlocho", "bio": null, "projects_count": 0, "devlogs_count": 0, "votes_count": 0, "ships_count": 0, "projects": [], "coding_time_seconds": 0, "coding_time_seconds_today": 0, "balance": "You need to have a pocket watcher badge to view this.", "badges": [], "created_at": "2025-06-17T20:30:00.591-04:00", "updated_at": "2025-07-03T19:44:49.855-04:00", "avatar": "https://secure.gravatar.com/avatar/de882660bd571ec56f6b6f0a74987b45.jpg?s=512&d=https%3A%2F%2Fa.slack-edge.com%2Fdf10d%2Fimg%2Favatars%2Fava_0026-512.png", "custom_css": null}, {"id": 7626, "slack_id": "U091RBE8FFY", "display_name": "David k", "bio": null, "projects_count": 0, "devlogs_count": 0, "votes_count": 0, "ships_count": 0, "projects": [], "coding_time_seconds": 0, "coding_time_seconds_today": 0, "balance": "You need to have a pocket watcher badge to view this.", "badges": [], "created_at": "2025-06-17T20:30:01.370-04:00", "updated_at": "2025-07-05T08:08:52.894-04:00", "avatar": "https://secure.gravatar.com/avatar/e987dc1e83d04b2e42aaed57aebd150f.jpg?s=512&d=https%3A%2F%2Fa.slack-edge.com%2Fdf10d%2Fimg%2Favatars%2Fava_0019-512.png", "custom_css": null}, {"id": 7627, "slack_id": "U091R5KCE3D", "display_name": "Sadeepa Ranasinghe", "bio": null, "projects_count": 0, "devlogs_count": 0, "votes_count": 0, "ships_count": 0, "projects": [], "coding_time_seconds": 0, "coding_time_seconds_today": 0, "balance": "You need to have a pocket watcher badge to view this.", "badges": [], "created_at": "2025-06-17T20:30:24.156-04:00", "updated_at": "2025-07-03T19:44:50.263-04:00", "avatar": "https://avatars.slack-edge.com/2025-06-17/9066247062804_ea26a6d9da9a38615c4f_original.png", "custom_css": null}, {"id": 7628, "slack_id": "U092L6JHFQ8", "display_name": "Subham Roushan", "bio": null, "projects_count": 0, "devlogs_count": 0, "votes_count": 0, "ships_count": 0, "projects": [], "coding_time_seconds": 0, "coding_time_seconds_today": 0, "balance": "You need to have a pocket watcher badge to view this.", "badges": [], "created_at": "2025-06-17T20:31:41.753-04:00", "updated_at": "2025-07-03T19:44:50.635-04:00", "avatar": "https://secure.gravatar.com/avatar/952cf70897ff976a5852012671291355.jpg?s=512&d=https%3A%2F%2Fa.slack-edge.com%2Fdf10d%2Fimg%2Favatars%2Fava_0013-512.png", "custom_css": null}, {"id": 7629, "slack_id": "U083GDANXKJ", "display_name": "ItzLamo", "bio": null, "projects_count": 0, "devlogs_count": 0, "votes_count": 0, "ships_count": 0, "projects": [], "coding_time_seconds": 136004, "coding_time_seconds_today": 240, "balance": "You need to have a pocket watcher badge to view this.", "badges": [], "created_at": "2025-06-17T20:31:49.728-04:00", "updated_at": "2025-09-19T18:37:39.570-04:00", "avatar": "https://avatars.slack-edge.com/2025-09-19/9577909157648_5d2adcb29f3c750eb0f0_original.png", "custom_css": null}, {"id": 7630, "slack_id": "U091R5SNU9Z", "display_name": "Zijin Chen", "bio": null, "projects_count": 0, "devlogs_count": 0, "votes_count": 0, "ships_count": 0, "projects": [], "coding_time_seconds": 0, "coding_time_seconds_today": 0, "balance": "You need to have a pocket watcher badge to view this.", "badges": [], "created_at": "2025-06-17T20:34:00.672-04:00", "updated_at": "2025-07-03T19:44:51.159-04:00", "avatar": "https://secure.gravatar.com/avatar/b604abf3c7583efabf9818df8441df79.jpg?s=512&d=https%3A%2F%2Fa.slack-edge.com%2Fdf10d%2Fimg%2Favatars%2Fava_0008-512.png", "custom_css": null}, {"id": 7631, "slack_id": "U079E6G1Q31", "display_name": "Xorte", "bio": null, "projects_count": 0, "devlogs_count": 0, "votes_count": 0, "ships_count": 0, "projects": [], "coding_time_seconds": 56359, "coding_time_seconds_today": 0, "balance": "You need to have a pocket watcher badge to view this.", "badges": [], "created_at": "2025-06-17T20:34:13.763-04:00", "updated_at": "2025-07-03T19:44:51.414-04:00", "avatar": "https://avatars.slack-edge.com/2024-10-05/7835291278083_65a87ade29a80dcc0caa_original.png", "custom_css": null}, {"id": 7632, "slack_id": "U091EG63UQ7", "display_name": "LUIS", "bio": null, "projects_count": 0, "devlogs_count": 0, "votes_count": 0, "ships_count": 0, "projects": [], "coding_time_seconds": 0, "coding_time_seconds_today": 0, "balance": "You need to have a pocket watcher badge to view this.", "badges": [], "created_at": "2025-06-17T20:34:24.709-04:00", "updated_at": "2025-07-07T14:37:54.224-04:00", "avatar": "https://secure.gravatar.com/avatar/bbfd87d6a7a917163843e2198b73857b.jpg?s=512&d=https%3A%2F%2Fa.slack-edge.com%2Fdf10d%2Fimg%2Favatars%2Fava_0008-512.png", "custom_css": null}, {"id": 7633, "slack_id": "U091R60GQDR", "display_name": "Shankar", "bio": null, "projects_count": 0, "devlogs_count": 0, "votes_count": 0, "ships_count": 0, "projects": [], "coding_time_seconds": 0, "coding_time_seconds_today": 0, "balance": "You need to have a pocket watcher badge to view this.", "badges": [], "created_at": "2025-06-17T20:35:54.087-04:00", "updated_at": "2025-07-03T19:44:51.802-04:00", "avatar": "https://avatars.slack-edge.com/2025-06-17/9059219575155_39b45407b94aeca29f40_original.png", "custom_css": null}, {"id": 7634, "slack_id": "U091QD6014K", "display_name": "Thomas Breno", "bio": null, "projects_count": 0, "devlogs_count": 0, "votes_count": 0, "ships_count": 0, "projects": [], "coding_time_seconds": 0, "coding_time_seconds_today": 0, "balance": "You need to have a pocket watcher badge to view this.", "badges": [], "created_at": "2025-06-17T20:38:37.925-04:00", "updated_at": "2025-07-03T19:44:52.073-04:00", "avatar": "https://secure.gravatar.com/avatar/37ca26f9b683b416a59405a120dadca5.jpg?s=512&d=https%3A%2F%2Fa.slack-edge.com%2Fdf10d%2Fimg%2Favatars%2Fava_0021-512.png", "custom_css": null}, {"id": 7635, "slack_id": "U091XQLPEFL", "display_name": "Disco", "bio": null, "projects_count": 1, "devlogs_count": 1, "votes_count": 4, "ships_count": 1, "projects": [{"id": 3837, "title": "Bruce esp32 Wroom port", "devlogs_count": 1, "created_at": "2025-06-25T23:52:41.645-04:00"}], "coding_time_seconds": 37576, "coding_time_seconds_today": 0, "balance": "You need to have a pocket watcher badge to view this.", "badges": [{"name": "Maiden Voyage", "text": "you shipped your first project! the journey begins...", "icon": "\ud83d\udea2"}], "created_at": "2025-06-17T20:40:10.721-04:00", "updated_at": "2025-09-10T22:54:57.502-04:00", "avatar": "https://secure.gravatar.com/avatar/d4c2af3ba3069f3fe3a94bea37b6040e.jpg?s=512&d=https%3A%2F%2Fa.slack-edge.com%2Fdf10d%2Fimg%2Favatars%2Fava_0003-512.png", "custom_css": null}, {"id": 7636, "slack_id": "U091Y6A10CC", "display_name": "Muhammad Nouman", "bio": null, "projects_count": 0, "devlogs_count": 0, "votes_count": 0, "ships_count": 0, "projects": [], "coding_time_seconds": 0, "coding_time_seconds_today": 0, "balance": "You need to have a pocket watcher badge to view this.", "badges": [], "created_at": "2025-06-17T20:40:25.232-04:00", "updated_at": "2025-07-03T19:44:52.472-04:00", "avatar": "https://secure.gravatar.com/avatar/f11719f5b35b20c3d30911ef8bce8107.jpg?s=512&d=https%3A%2F%2Fa.slack-edge.com%2Fdf10d%2Fimg%2Favatars%2Fava_0022-512.png", "custom_css": null}, {"id": 7637, "slack_id": "U091W8PCDRB", "display_name": "Jashan Singh", "bio": null, "projects_count": 0, "devlogs_count": 0, "votes_count": 0, "ships_count": 0, "projects": [], "coding_time_seconds": 0, "coding_time_seconds_today": 0, "balance": "You need to have a pocket watcher badge to view this.", "badges": [], "created_at": "2025-06-17T20:40:59.716-04:00", "updated_at": "2025-07-05T02:08:34.230-04:00", "avatar": "https://secure.gravatar.com/avatar/d9ac5ef9b63eb970c1fd388172aca2a1.jpg?s=512&d=https%3A%2F%2Fa.slack-edge.com%2Fdf10d%2Fimg%2Favatars%2Fava_0013-512.png", "custom_css": null}, {"id": 7638, "slack_id": "U091GJ3N11V", "display_name": "Hoyoverse accout", "bio": null, "projects_count": 0, "devlogs_count": 0, "votes_count": 0, "ships_count": 0, "projects": [], "coding_time_seconds": 0, "coding_time_seconds_today": 0, "balance": "You need to have a pocket watcher badge to view this.", "badges": [], "created_at": "2025-06-17T20:41:01.866-04:00", "updated_at": "2025-07-03T21:45:38.094-04:00", "avatar": "https://avatars.slack-edge.com/2025-06-17/9064317367301_e67e7619e00d68a217a6_original.jpg", "custom_css": null}, {"id": 7639, "slack_id": "U091W8RNFHB", "display_name": "Alex Wood", "bio": null, "projects_count": 1, "devlogs_count": 0, "votes_count": 0, "ships_count": 0, "projects": [{"id": 1981, "title": "Boardroom", "devlogs_count": 0, "created_at": "2025-06-19T20:03:37.597-04:00"}], "coding_time_seconds": 1814, "coding_time_seconds_today": 0, "balance": "You need to have a pocket watcher badge to view this.", "badges": [], "created_at": "2025-06-17T20:42:02.366-04:00", "updated_at": "2025-07-03T19:44:53.004-04:00", "avatar": "https://avatars.slack-edge.com/2025-06-17/9050637686263_de0930b2573da847f3d9_original.jpg", "custom_css": null}, {"id": 7640, "slack_id": "U0828CN2BL4", "display_name": "BennyGaming635", "bio": null, "projects_count": 0, "devlogs_count": 0, "votes_count": 0, "ships_count": 0, "projects": [], "coding_time_seconds": 155805, "coding_time_seconds_today": 0, "balance": "You need to have a pocket watcher badge to view this.", "badges": [], "created_at": "2025-06-17T20:43:49.926-04:00", "updated_at": "2025-07-03T19:44:53.270-04:00", "avatar": "https://avatars.slack-edge.com/2024-12-17/8181023363797_fc967de6a6ef400326ba_original.jpg", "custom_css": null}], "pagination": {"page": 382, "pages": 1192, "count": 23828, "items": 20}}