{"users": [{"id": 7641, "slack_id": "U091RCX238E", "display_name": "Avery Ramsey", "bio": null, "projects_count": 0, "devlogs_count": 0, "votes_count": 0, "ships_count": 0, "projects": [], "coding_time_seconds": 0, "coding_time_seconds_today": 0, "balance": "You need to have a pocket watcher badge to view this.", "badges": [], "created_at": "2025-06-17T20:45:46.825-04:00", "updated_at": "2025-07-04T20:08:08.787-04:00", "avatar": "https://avatars.slack-edge.com/2025-06-17/9065866278498_4194ecd065bd1ebb52af_original.gif", "custom_css": null}, {"id": 7642, "slack_id": "U092AE0CBUZ", "display_name": "Noelle", "bio": null, "projects_count": 0, "devlogs_count": 0, "votes_count": 0, "ships_count": 0, "projects": [], "coding_time_seconds": 16228, "coding_time_seconds_today": 0, "balance": "You need to have a pocket watcher badge to view this.", "badges": [], "created_at": "2025-06-17T20:47:37.275-04:00", "updated_at": "2025-07-03T19:44:53.685-04:00", "avatar": "https://avatars.slack-edge.com/2025-06-17/9050662703383_1089c895ec4eaa66ad82_original.png", "custom_css": null}, {"id": 7643, "slack_id": "U08U5QL1EUV", "display_name": "Antonella Ardila G", "bio": null, "projects_count": 0, "devlogs_count": 0, "votes_count": 0, "ships_count": 0, "projects": [], "coding_time_seconds": 0, "coding_time_seconds_today": 0, "balance": "You need to have a pocket watcher badge to view this.", "badges": [], "created_at": "2025-06-17T20:51:48.820-04:00", "updated_at": "2025-07-03T21:45:38.486-04:00", "avatar": "https://avatars.slack-edge.com/2025-05-27/8957850049093_b135f1b3054ccdcfd562_original.png", "custom_css": null}, {"id": 7644, "slack_id": "U08TN1KNH8E", "display_name": "DinoNuggetLord", "bio": "", "projects_count": 3, "devlogs_count": 18, "votes_count": 39, "ships_count": 2, "projects": [{"id": 11309, "title": "Capslocker", "devlogs_count": 6, "created_at": "2025-08-14T20:36:58.933-04:00"}, {"id": 9191, "title": "Hummus Talk", "devlogs_count": 1, "created_at": "2025-07-30T23:28:18.965-04:00"}, {"id": 8118, "title": "PING- The Game!", "devlogs_count": 11, "created_at": "2025-07-24T18:03:30.760-04:00"}], "coding_time_seconds": 74476, "coding_time_seconds_today": 0, "balance": "You need to have a pocket watcher badge to view this.", "badges": [{"name": "Maiden Voyage", "text": "you shipped your first project! the journey begins...", "icon": "\ud83d\udea2"}], "created_at": "2025-06-17T20:52:07.296-04:00", "updated_at": "2025-09-10T22:54:57.764-04:00", "avatar": "https://avatars.slack-edge.com/2025-08-31/9450924365089_c271f82e23b5650d81bd_original.png", "custom_css": null}, {"id": 7645, "slack_id": "U092AEA9E3B", "display_name": "Petr\u00f4nio Valentini", "bio": null, "projects_count": 0, "devlogs_count": 0, "votes_count": 0, "ships_count": 0, "projects": [], "coding_time_seconds": 0, "coding_time_seconds_today": 0, "balance": "You need to have a pocket watcher badge to view this.", "badges": [], "created_at": "2025-06-17T20:52:46.988-04:00", "updated_at": "2025-07-03T19:44:54.352-04:00", "avatar": "https://avatars.slack-edge.com/2025-06-17/9065886062786_e5a8c80b42ddb67f1bde_original.jpg", "custom_css": null}, {"id": 7646, "slack_id": "U092L90BZL0", "display_name": "Sigma Keby", "bio": null, "projects_count": 0, "devlogs_count": 0, "votes_count": 0, "ships_count": 0, "projects": [], "coding_time_seconds": 0, "coding_time_seconds_today": 0, "balance": "You need to have a pocket watcher badge to view this.", "badges": [], "created_at": "2025-06-17T20:53:15.742-04:00", "updated_at": "2025-07-03T19:44:54.623-04:00", "avatar": "https://secure.gravatar.com/avatar/c0f8ae9ec7f4e525efbb638c92f25912.jpg?s=512&d=https%3A%2F%2Fa.slack-edge.com%2Fdf10d%2Fimg%2Favatars%2Fava_0007-512.png", "custom_css": null}, {"id": 7647, "slack_id": "U091W9SFDA9", "display_name": "Sivamad", "bio": null, "projects_count": 0, "devlogs_count": 0, "votes_count": 0, "ships_count": 0, "projects": [], "coding_time_seconds": 0, "coding_time_seconds_today": 0, "balance": "You need to have a pocket watcher badge to view this.", "badges": [], "created_at": "2025-06-17T20:53:59.257-04:00", "updated_at": "2025-07-03T21:45:38.785-04:00", "avatar": "https://secure.gravatar.com/avatar/2555c71039aeaabeb1cfe194bb41c72e.jpg?s=512&d=https%3A%2F%2Fa.slack-edge.com%2Fdf10d%2Fimg%2Favatars%2Fava_0008-512.png", "custom_css": null}, {"id": 7648, "slack_id": "U092L9EH4TA", "display_name": "Puneet Shah", "bio": null, "projects_count": 0, "devlogs_count": 0, "votes_count": 0, "ships_count": 0, "projects": [], "coding_time_seconds": 0, "coding_time_seconds_today": 0, "balance": "You need to have a pocket watcher badge to view this.", "badges": [], "created_at": "2025-06-17T20:57:47.771-04:00", "updated_at": "2025-07-03T19:44:55.022-04:00", "avatar": "https://secure.gravatar.com/avatar/d00c7ae18bf485a829f2c0c9be239a93.jpg?s=512&d=https%3A%2F%2Fa.slack-edge.com%2Fdf10d%2Fimg%2Favatars%2Fava_0025-512.png", "custom_css": null}, {"id": 7649, "slack_id": "U091PD6C98S", "display_name": "Siddhartha Rai", "bio": null, "projects_count": 0, "devlogs_count": 0, "votes_count": 0, "ships_count": 0, "projects": [], "coding_time_seconds": 124562, "coding_time_seconds_today": 3991, "balance": "You need to have a pocket watcher badge to view this.", "badges": [], "created_at": "2025-06-17T20:57:58.178-04:00", "updated_at": "2025-07-03T19:44:55.295-04:00", "avatar": "https://secure.gravatar.com/avatar/73562c79911f7a3a52df5e6c8d9b0efb.jpg?s=512&d=https%3A%2F%2Fa.slack-edge.com%2Fdf10d%2Fimg%2Favatars%2Fava_0013-512.png", "custom_css": null}, {"id": 7650, "slack_id": "U091WAG579T", "display_name": "Madhu Sudhana Reddy Satti", "bio": null, "projects_count": 0, "devlogs_count": 0, "votes_count": 0, "ships_count": 0, "projects": [], "coding_time_seconds": 0, "coding_time_seconds_today": 0, "balance": "You need to have a pocket watcher badge to view this.", "badges": [], "created_at": "2025-06-17T20:59:22.329-04:00", "updated_at": "2025-07-03T19:44:55.569-04:00", "avatar": "https://secure.gravatar.com/avatar/0d794c9d81d88c8d11bf46cf0d05a79d.jpg?s=512&d=https%3A%2F%2Fa.slack-edge.com%2Fdf10d%2Fimg%2Favatars%2Fava_0024-512.png", "custom_css": null}, {"id": 7651, "slack_id": "U079ZKY1CTU", "display_name": "Jay", "bio": null, "projects_count": 1, "devlogs_count": 0, "votes_count": 0, "ships_count": 0, "projects": [{"id": 10415, "title": "Echo - A HTTP request client for Raycast", "devlogs_count": 0, "created_at": "2025-08-06T19:29:02.300-04:00"}], "coding_time_seconds": 92353, "coding_time_seconds_today": 0, "balance": "You need to have a pocket watcher badge to view this.", "badges": [], "created_at": "2025-06-17T21:01:31.640-04:00", "updated_at": "2025-08-06T19:19:52.196-04:00", "avatar": "https://avatars.slack-edge.com/2024-09-15/7730764703267_c53fc7c46519b09d2769_original.jpg", "custom_css": null}, {"id": 7652, "slack_id": "U091Y9SPZ0C", "display_name": "Nitya Sahni", "bio": null, "projects_count": 0, "devlogs_count": 0, "votes_count": 0, "ships_count": 0, "projects": [], "coding_time_seconds": 0, "coding_time_seconds_today": 0, "balance": "You need to have a pocket watcher badge to view this.", "badges": [], "created_at": "2025-06-17T21:02:33.345-04:00", "updated_at": "2025-08-19T10:41:04.900-04:00", "avatar": "https://avatars.slack-edge.com/2025-06-17/9065918924050_fb47c2e3fc9ef9162911_original.jpg", "custom_css": null}, {"id": 7653, "slack_id": "U07H4PSN7NU", "display_name": "ConfusedHello", "bio": null, "projects_count": 0, "devlogs_count": 0, "votes_count": 0, "ships_count": 0, "projects": [], "coding_time_seconds": 0, "coding_time_seconds_today": 0, "balance": "You need to have a pocket watcher badge to view this.", "badges": [], "created_at": "2025-06-17T21:05:12.137-04:00", "updated_at": "2025-07-08T07:21:11.160-04:00", "avatar": "https://avatars.slack-edge.com/2024-08-14/7559094685207_fcc639c10778906e1520_original.jpg", "custom_css": null}, {"id": 7654, "slack_id": "U091Q43HF4M", "display_name": "wenli yu", "bio": null, "projects_count": 0, "devlogs_count": 0, "votes_count": 0, "ships_count": 0, "projects": [], "coding_time_seconds": 19442, "coding_time_seconds_today": 0, "balance": "You need to have a pocket watcher badge to view this.", "badges": [], "created_at": "2025-06-17T21:06:55.925-04:00", "updated_at": "2025-07-04T08:23:16.409-04:00", "avatar": "https://secure.gravatar.com/avatar/247d74035e6354e06b7c38df50a14573.jpg?s=512&d=https%3A%2F%2Fa.slack-edge.com%2Fdf10d%2Fimg%2Favatars%2Fava_0021-512.png", "custom_css": null}, {"id": 7655, "slack_id": "U091YA8AP2Q", "display_name": "hn", "bio": null, "projects_count": 0, "devlogs_count": 0, "votes_count": 0, "ships_count": 0, "projects": [], "coding_time_seconds": 0, "coding_time_seconds_today": 0, "balance": "You need to have a pocket watcher badge to view this.", "badges": [], "created_at": "2025-06-17T21:07:27.647-04:00", "updated_at": "2025-07-03T21:45:39.306-04:00", "avatar": "https://avatars.slack-edge.com/2025-06-18/9050748989895_b506581d69c6a9abe43e_original.jpg", "custom_css": null}, {"id": 7656, "slack_id": "U088BVD2XA6", "display_name": "Rajveer", "bio": null, "projects_count": 0, "devlogs_count": 0, "votes_count": 0, "ships_count": 0, "projects": [], "coding_time_seconds": 385, "coding_time_seconds_today": 0, "balance": "You need to have a pocket watcher badge to view this.", "badges": [], "created_at": "2025-06-17T21:08:23.741-04:00", "updated_at": "2025-07-03T19:44:56.770-04:00", "avatar": "https://secure.gravatar.com/avatar/d0190c3c9da96ed2e0352982b94bd4da.jpg?s=512&d=https%3A%2F%2Fa.slack-edge.com%2Fdf10d%2Fimg%2Favatars%2Fava_0013-512.png", "custom_css": null}, {"id": 7657, "slack_id": "U091GM8GTN3", "display_name": "Lance De Guzman", "bio": null, "projects_count": 0, "devlogs_count": 0, "votes_count": 0, "ships_count": 0, "projects": [], "coding_time_seconds": 329984, "coding_time_seconds_today": 0, "balance": "You need to have a pocket watcher badge to view this.", "badges": [], "created_at": "2025-06-17T21:09:42.358-04:00", "updated_at": "2025-07-03T19:44:57.032-04:00", "avatar": "https://secure.gravatar.com/avatar/a7b2411c895b2917e620be9cb243dd0e.jpg?s=512&d=https%3A%2F%2Fa.slack-edge.com%2Fdf10d%2Fimg%2Favatars%2Fava_0026-512.png", "custom_css": null}, {"id": 7658, "slack_id": "U07GCRLHG90", "display_name": "Aditya Singh", "bio": null, "projects_count": 0, "devlogs_count": 9, "votes_count": 21, "ships_count": 0, "projects": [], "coding_time_seconds": 779465, "coding_time_seconds_today": 0, "balance": "You need to have a pocket watcher badge to view this.", "badges": [{"name": "Maiden Voyage", "text": "you shipped your first project! the journey begins...", "icon": "\ud83d\udea2"}], "created_at": "2025-06-17T21:09:44.115-04:00", "updated_at": "2025-09-10T22:54:58.083-04:00", "avatar": "https://avatars.slack-edge.com/2024-08-09/7559367819764_4075bdee7a90d2764a48_original.png", "custom_css": null}, {"id": 7659, "slack_id": "U091XSS5EQJ", "display_name": "Papangkon Ninarundech", "bio": null, "projects_count": 0, "devlogs_count": 0, "votes_count": 0, "ships_count": 0, "projects": [], "coding_time_seconds": 0, "coding_time_seconds_today": 0, "balance": "You need to have a pocket watcher badge to view this.", "badges": [], "created_at": "2025-06-17T21:10:58.939-04:00", "updated_at": "2025-07-03T21:45:39.591-04:00", "avatar": "https://avatars.slack-edge.com/2025-06-17/9065944365250_b465102a1362fbaaa3ba_original.gif", "custom_css": null}, {"id": 7660, "slack_id": "U091XTNU7A6", "display_name": "Raman Thakur", "bio": null, "projects_count": 0, "devlogs_count": 0, "votes_count": 0, "ships_count": 0, "projects": [], "coding_time_seconds": 180, "coding_time_seconds_today": 0, "balance": "You need to have a pocket watcher badge to view this.", "badges": [], "created_at": "2025-06-17T21:13:27.945-04:00", "updated_at": "2025-08-27T15:08:46.232-04:00", "avatar": "https://secure.gravatar.com/avatar/05beb02da175df1744ebf2cf499302a3.jpg?s=512&d=https%3A%2F%2Fa.slack-edge.com%2Fdf10d%2Fimg%2Favatars%2Fava_0009-512.png", "custom_css": null}], "pagination": {"page": 383, "pages": 1192, "count": 23828, "items": 20}}