{"users": [{"id": 7661, "slack_id": "U091GMJKPL7", "display_name": "sam", "bio": null, "projects_count": 0, "devlogs_count": 0, "votes_count": 0, "ships_count": 0, "projects": [], "coding_time_seconds": 0, "coding_time_seconds_today": 0, "balance": "You need to have a pocket watcher badge to view this.", "badges": [], "created_at": "2025-06-17T21:14:00.311-04:00", "updated_at": "2025-07-03T19:44:57.842-04:00", "avatar": "https://secure.gravatar.com/avatar/88d2d90185f75c7ce577728b8f429e34.jpg?s=512&d=https%3A%2F%2Fa.slack-edge.com%2Fdf10d%2Fimg%2Favatars%2Fava_0006-512.png", "custom_css": null}, {"id": 7662, "slack_id": "U091YAWRCLC", "display_name": "Logan Wang", "bio": null, "projects_count": 0, "devlogs_count": 0, "votes_count": 0, "ships_count": 0, "projects": [], "coding_time_seconds": 0, "coding_time_seconds_today": 0, "balance": "You need to have a pocket watcher badge to view this.", "badges": [], "created_at": "2025-06-17T21:15:34.843-04:00", "updated_at": "2025-07-04T20:08:10.616-04:00", "avatar": "https://avatars.slack-edge.com/2025-06-17/9088390312848_e9f045a78f144bd1dc73_original.jpg", "custom_css": null}, {"id": 7663, "slack_id": "U08DK1Y1R47", "display_name": "Maverick", "bio": null, "projects_count": 2, "devlogs_count": 2, "votes_count": 1, "ships_count": 0, "projects": [{"id": 4589, "title": "Axon Backend ", "devlogs_count": 1, "created_at": "2025-06-30T19:36:13.255-04:00"}, {"id": 7077, "title": "Github Skyline", "devlogs_count": 1, "created_at": "2025-07-18T19:00:23.777-04:00"}], "coding_time_seconds": 312355, "coding_time_seconds_today": 16077, "balance": "You need to have a pocket watcher badge to view this.", "badges": [], "created_at": "2025-06-17T21:16:35.239-04:00", "updated_at": "2025-07-03T19:44:58.245-04:00", "avatar": "https://avatars.slack-edge.com/2025-02-19/8478454888180_7ebb3c92a4e05f43c75c_original.jpg", "custom_css": null}, {"id": 7664, "slack_id": "U091RFZP5EJ", "display_name": "Manan Patel", "bio": null, "projects_count": 0, "devlogs_count": 0, "votes_count": 0, "ships_count": 0, "projects": [], "coding_time_seconds": 0, "coding_time_seconds_today": 0, "balance": "You need to have a pocket watcher badge to view this.", "badges": [], "created_at": "2025-06-17T21:16:51.739-04:00", "updated_at": "2025-07-03T19:44:58.503-04:00", "avatar": "https://avatars.slack-edge.com/2025-06-17/9059555814742_9ef9d1b16df7049b6f9c_original.jpg", "custom_css": null}, {"id": 7665, "slack_id": "U092LBBTZLG", "display_name": "EMMANUEL ISAAC GARCIA SANABRIA", "bio": null, "projects_count": 0, "devlogs_count": 0, "votes_count": 0, "ships_count": 0, "projects": [], "coding_time_seconds": 56227, "coding_time_seconds_today": 0, "balance": "You need to have a pocket watcher badge to view this.", "badges": [], "created_at": "2025-06-17T21:16:55.398-04:00", "updated_at": "2025-07-03T19:44:58.772-04:00", "avatar": "https://avatars.slack-edge.com/2025-06-17/9059350268483_dfe3a7f34bb9b845a082_original.jpg", "custom_css": null}, {"id": 7666, "slack_id": "U091XTQN9NE", "display_name": "Jedidiah Lim", "bio": null, "projects_count": 0, "devlogs_count": 0, "votes_count": 0, "ships_count": 0, "projects": [], "coding_time_seconds": 26741, "coding_time_seconds_today": 0, "balance": "You need to have a pocket watcher badge to view this.", "badges": [], "created_at": "2025-06-17T21:18:56.115-04:00", "updated_at": "2025-07-03T19:44:59.041-04:00", "avatar": "https://secure.gravatar.com/avatar/015a1851308677b2c3f8eeacc67cdbb1.jpg?s=512&d=https%3A%2F%2Fa.slack-edge.com%2Fdf10d%2Fimg%2Favatars%2Fava_0007-512.png", "custom_css": null}, {"id": 7667, "slack_id": "U092LBKLKNC", "display_name": "Jo\u00e3o Pedro", "bio": null, "projects_count": 0, "devlogs_count": 0, "votes_count": 0, "ships_count": 0, "projects": [], "coding_time_seconds": 0, "coding_time_seconds_today": 0, "balance": "You need to have a pocket watcher badge to view this.", "badges": [], "created_at": "2025-06-17T21:20:15.646-04:00", "updated_at": "2025-07-03T19:44:59.303-04:00", "avatar": "https://secure.gravatar.com/avatar/960902338858b1ae9caa50d2e88cbbd7.jpg?s=512&d=https%3A%2F%2Fa.slack-edge.com%2Fdf10d%2Fimg%2Favatars%2Fava_0001-512.png", "custom_css": null}, {"id": 7668, "slack_id": "U092LBSRJ5N", "display_name": "Ishit Dua", "bio": null, "projects_count": 0, "devlogs_count": 0, "votes_count": 0, "ships_count": 0, "projects": [], "coding_time_seconds": 0, "coding_time_seconds_today": 0, "balance": "You need to have a pocket watcher badge to view this.", "badges": [], "created_at": "2025-06-17T21:22:52.741-04:00", "updated_at": "2025-07-04T08:23:17.489-04:00", "avatar": "https://secure.gravatar.com/avatar/2d1ef929eae2804a4f3d5d526c8cafd3.jpg?s=512&d=https%3A%2F%2Fa.slack-edge.com%2Fdf10d%2Fimg%2Favatars%2Fava_0007-512.png", "custom_css": null}, {"id": 7669, "slack_id": "U091XUJPVFU", "display_name": "Andrew", "bio": null, "projects_count": 0, "devlogs_count": 0, "votes_count": 0, "ships_count": 0, "projects": [], "coding_time_seconds": 0, "coding_time_seconds_today": 0, "balance": "You need to have a pocket watcher badge to view this.", "badges": [], "created_at": "2025-06-17T21:24:11.372-04:00", "updated_at": "2025-07-03T19:44:59.703-04:00", "avatar": "https://secure.gravatar.com/avatar/ab689474b2a05cb1d78cafa8b0299c65.jpg?s=512&d=https%3A%2F%2Fa.slack-edge.com%2Fdf10d%2Fimg%2Favatars%2Fava_0026-512.png", "custom_css": null}, {"id": 7670, "slack_id": "U091YBR80CC", "display_name": "RockySolute", "bio": null, "projects_count": 0, "devlogs_count": 0, "votes_count": 0, "ships_count": 0, "projects": [], "coding_time_seconds": 0, "coding_time_seconds_today": 0, "balance": "You need to have a pocket watcher badge to view this.", "badges": [], "created_at": "2025-06-17T21:24:31.109-04:00", "updated_at": "2025-07-05T14:09:38.451-04:00", "avatar": "https://secure.gravatar.com/avatar/6f426b3fb50d0798d28effcba06e5808.jpg?s=512&d=https%3A%2F%2Fa.slack-edge.com%2Fdf10d%2Fimg%2Favatars%2Fava_0017-512.png", "custom_css": null}, {"id": 7671, "slack_id": "U092LABHYAU", "display_name": "Bujee", "bio": null, "projects_count": 0, "devlogs_count": 0, "votes_count": 0, "ships_count": 0, "projects": [], "coding_time_seconds": 0, "coding_time_seconds_today": 0, "balance": "You need to have a pocket watcher badge to view this.", "badges": [], "created_at": "2025-06-17T21:25:14.322-04:00", "updated_at": "2025-07-03T19:45:00.094-04:00", "avatar": "https://secure.gravatar.com/avatar/707be6399485b25714d87eb69cfdcc59.jpg?s=512&d=https%3A%2F%2Fa.slack-edge.com%2Fdf10d%2Fimg%2Favatars%2Fava_0006-512.png", "custom_css": null}, {"id": 7672, "slack_id": "U091RAV95S7", "display_name": "ysb", "bio": null, "projects_count": 0, "devlogs_count": 0, "votes_count": 0, "ships_count": 0, "projects": [], "coding_time_seconds": 0, "coding_time_seconds_today": 0, "balance": "You need to have a pocket watcher badge to view this.", "badges": [], "created_at": "2025-06-17T21:27:42.195-04:00", "updated_at": "2025-07-03T21:57:34.643-04:00", "avatar": "https://secure.gravatar.com/avatar/22091ca1bfc9d61500784c6f61040cc6.jpg?s=512&d=https%3A%2F%2Fa.slack-edge.com%2Fdf10d%2Fimg%2Favatars%2Fava_0014-512.png", "custom_css": null}, {"id": 7673, "slack_id": "U091YC2NZV2", "display_name": "Sanyam Jain", "bio": null, "projects_count": 0, "devlogs_count": 0, "votes_count": 0, "ships_count": 0, "projects": [], "coding_time_seconds": 0, "coding_time_seconds_today": 0, "balance": "You need to have a pocket watcher badge to view this.", "badges": [], "created_at": "2025-06-17T21:28:03.373-04:00", "updated_at": "2025-07-04T20:08:11.340-04:00", "avatar": "https://secure.gravatar.com/avatar/a1b81a11e8ed9f9c81d36b50c66181cf.jpg?s=512&d=https%3A%2F%2Fa.slack-edge.com%2Fdf10d%2Fimg%2Favatars%2Fava_0014-512.png", "custom_css": null}, {"id": 7674, "slack_id": "U07P2NKLN6B", "display_name": "swapnil", "bio": null, "projects_count": 0, "devlogs_count": 0, "votes_count": 0, "ships_count": 0, "projects": [], "coding_time_seconds": 0, "coding_time_seconds_today": 0, "balance": "You need to have a pocket watcher badge to view this.", "badges": [], "created_at": "2025-06-17T21:28:23.287-04:00", "updated_at": "2025-07-03T19:45:00.627-04:00", "avatar": "https://avatars.slack-edge.com/2024-09-28/7799241684723_f19616c58c12c688d9a0_original.png", "custom_css": null}, {"id": 7675, "slack_id": "U091WD04TEH", "display_name": "Bailey", "bio": null, "projects_count": 0, "devlogs_count": 0, "votes_count": 0, "ships_count": 0, "projects": [], "coding_time_seconds": 0, "coding_time_seconds_today": 0, "balance": "You need to have a pocket watcher badge to view this.", "badges": [], "created_at": "2025-06-17T21:28:35.557-04:00", "updated_at": "2025-07-03T19:45:00.889-04:00", "avatar": "https://secure.gravatar.com/avatar/6879f7f6d2f48238f638d9988d03ec97.jpg?s=512&d=https%3A%2F%2Fa.slack-edge.com%2Fdf10d%2Fimg%2Favatars%2Fava_0008-512.png", "custom_css": null}, {"id": 7676, "slack_id": "U07RYM4Q29F", "display_name": "Stan", "bio": null, "projects_count": 0, "devlogs_count": 0, "votes_count": 0, "ships_count": 0, "projects": [], "coding_time_seconds": 0, "coding_time_seconds_today": 0, "balance": "You need to have a pocket watcher badge to view this.", "badges": [], "created_at": "2025-06-17T21:28:39.174-04:00", "updated_at": "2025-07-03T19:45:01.147-04:00", "avatar": "https://secure.gravatar.com/avatar/435614136085be7582e2a62648cb7968.jpg?s=512&d=https%3A%2F%2Fa.slack-edge.com%2Fdf10d%2Fimg%2Favatars%2Fava_0005-512.png", "custom_css": null}, {"id": 7677, "slack_id": "U091GNUTQG7", "display_name": "Christian M", "bio": null, "projects_count": 0, "devlogs_count": 0, "votes_count": 0, "ships_count": 0, "projects": [], "coding_time_seconds": 0, "coding_time_seconds_today": 0, "balance": "You need to have a pocket watcher badge to view this.", "badges": [], "created_at": "2025-06-17T21:30:59.981-04:00", "updated_at": "2025-07-03T19:45:01.402-04:00", "avatar": "https://secure.gravatar.com/avatar/db60e351b6cc470040d3ff6141942f66.jpg?s=512&d=https%3A%2F%2Fa.slack-edge.com%2Fdf10d%2Fimg%2Favatars%2Fava_0008-512.png", "custom_css": null}, {"id": 7678, "slack_id": "U091YC8NRC4", "display_name": "Zakir M.T.M", "bio": null, "projects_count": 0, "devlogs_count": 0, "votes_count": 0, "ships_count": 0, "projects": [], "coding_time_seconds": 0, "coding_time_seconds_today": 0, "balance": "You need to have a pocket watcher badge to view this.", "badges": [], "created_at": "2025-06-17T21:31:20.529-04:00", "updated_at": "2025-07-03T19:45:01.674-04:00", "avatar": "https://avatars.slack-edge.com/2025-06-17/9066002258770_50dee1725f324ce3cc56_original.jpg", "custom_css": null}, {"id": 7679, "slack_id": "U074ETGQ60N", "display_name": "Anubhav Shivam Nath", "bio": null, "projects_count": 0, "devlogs_count": 0, "votes_count": 0, "ships_count": 0, "projects": [], "coding_time_seconds": 0, "coding_time_seconds_today": 0, "balance": "You need to have a pocket watcher badge to view this.", "badges": [], "created_at": "2025-06-17T21:31:44.272-04:00", "updated_at": "2025-07-03T19:45:02.008-04:00", "avatar": "https://secure.gravatar.com/avatar/c919e3c330357c1d48350c2721144242.jpg?s=512&d=https%3A%2F%2Fa.slack-edge.com%2Fdf10d%2Fimg%2Favatars%2Fava_0007-512.png", "custom_css": null}, {"id": 7680, "slack_id": "U07QQUVK1EZ", "display_name": "Lauren", "bio": null, "projects_count": 1, "devlogs_count": 3, "votes_count": 0, "ships_count": 0, "projects": [{"id": 3028, "title": "Reverie", "devlogs_count": 3, "created_at": "2025-06-22T20:43:52.940-04:00"}], "coding_time_seconds": 174901, "coding_time_seconds_today": 0, "balance": "You need to have a pocket watcher badge to view this.", "badges": [], "created_at": "2025-06-17T21:31:50.185-04:00", "updated_at": "2025-08-07T10:12:51.435-04:00", "avatar": "https://avatars.slack-edge.com/2024-11-16/8053751484081_8d0d4d96edc22ee9c016_original.png", "custom_css": null}], "pagination": {"page": 384, "pages": 1192, "count": 23828, "items": 20}}