{"users": [{"id": 7681, "slack_id": "U092AHZTQ2V", "display_name": "Kriss", "bio": null, "projects_count": 3, "devlogs_count": 10, "votes_count": 14, "ships_count": 3, "projects": [{"id": 2020, "title": "Portafolio Web - Mi primer sitio con HTML y CSS", "devlogs_count": 3, "created_at": "2025-06-19T22:34:10.488-04:00"}, {"id": 8117, "title": "Tienda Capybara", "devlogs_count": 4, "created_at": "2025-07-24T17:58:11.468-04:00"}, {"id": 8370, "title": "Blog de Cafes de Capybaras", "devlogs_count": 3, "created_at": "2025-07-26T16:39:13.576-04:00"}], "coding_time_seconds": 110986, "coding_time_seconds_today": 0, "balance": "You need to have a pocket watcher badge to view this.", "badges": [{"name": "Maiden Voyage", "text": "you shipped your first project! the journey begins...", "icon": "\ud83d\udea2"}], "created_at": "2025-06-17T21:35:39.715-04:00", "updated_at": "2025-09-10T22:54:58.677-04:00", "avatar": "https://avatars.slack-edge.com/2025-06-17/9059409191043_3dd740a075cef91ddeaa_original.png", "custom_css": null}, {"id": 7682, "slack_id": "U091WE418TX", "display_name": "Rohit Madhupada", "bio": null, "projects_count": 0, "devlogs_count": 0, "votes_count": 0, "ships_count": 0, "projects": [], "coding_time_seconds": 0, "coding_time_seconds_today": 0, "balance": "You need to have a pocket watcher badge to view this.", "badges": [], "created_at": "2025-06-17T21:36:24.396-04:00", "updated_at": "2025-07-03T19:45:02.784-04:00", "avatar": "https://avatars.slack-edge.com/2025-06-17/9088454124752_f63b1511bc7d7b9ae8e7_original.png", "custom_css": null}, {"id": 7683, "slack_id": "U091Y0B2ZM0", "display_name": "Zander", "bio": null, "projects_count": 0, "devlogs_count": 0, "votes_count": 0, "ships_count": 0, "projects": [], "coding_time_seconds": 75437, "coding_time_seconds_today": 0, "balance": "You need to have a pocket watcher badge to view this.", "badges": [], "created_at": "2025-06-17T21:37:18.758-04:00", "updated_at": "2025-07-03T19:45:03.053-04:00", "avatar": "https://secure.gravatar.com/avatar/e3b5f3da487b38136d5fa52e0efd5b54.jpg?s=512&d=https%3A%2F%2Fa.slack-edge.com%2Fdf10d%2Fimg%2Favatars%2Fava_0005-512.png", "custom_css": null}, {"id": 7684, "slack_id": "U091GPVL92T", "display_name": "Ethan I (Vespine)", "bio": null, "projects_count": 0, "devlogs_count": 0, "votes_count": 0, "ships_count": 0, "projects": [], "coding_time_seconds": 0, "coding_time_seconds_today": 0, "balance": "You need to have a pocket watcher badge to view this.", "badges": [], "created_at": "2025-06-17T21:37:30.336-04:00", "updated_at": "2025-07-03T19:45:03.325-04:00", "avatar": "https://avatars.slack-edge.com/2025-06-17/9059414558435_629ed0f2ec16e9f08b89_original.jpg", "custom_css": null}, {"id": 7685, "slack_id": "U091YD1NWSY", "display_name": "Aiden Ballou", "bio": null, "projects_count": 0, "devlogs_count": 0, "votes_count": 0, "ships_count": 0, "projects": [], "coding_time_seconds": 0, "coding_time_seconds_today": 0, "balance": "You need to have a pocket watcher badge to view this.", "badges": [], "created_at": "2025-06-17T21:40:54.173-04:00", "updated_at": "2025-07-03T19:45:03.589-04:00", "avatar": "https://avatars.slack-edge.com/2025-06-17/9066457262884_716d16b40dd5802b8b5a_original.jpg", "custom_css": null}, {"id": 7686, "slack_id": "U091Y0R9ZMG", "display_name": "Kalec Marcony Rodriguez Calvo", "bio": null, "projects_count": 0, "devlogs_count": 0, "votes_count": 0, "ships_count": 0, "projects": [], "coding_time_seconds": 0, "coding_time_seconds_today": 0, "balance": "You need to have a pocket watcher badge to view this.", "badges": [], "created_at": "2025-06-17T21:44:56.087-04:00", "updated_at": "2025-07-04T20:08:12.196-04:00", "avatar": "https://secure.gravatar.com/avatar/5fb143f01dc3dc4d2a89ded6e5f28414.jpg?s=512&d=https%3A%2F%2Fa.slack-edge.com%2Fdf10d%2Fimg%2Favatars%2Fava_0016-512.png", "custom_css": null}, {"id": 7687, "slack_id": "U091RCNMW5R", "display_name": "Het Patel", "bio": null, "projects_count": 0, "devlogs_count": 0, "votes_count": 0, "ships_count": 0, "projects": [], "coding_time_seconds": 0, "coding_time_seconds_today": 0, "balance": "You need to have a pocket watcher badge to view this.", "badges": [], "created_at": "2025-06-17T21:46:29.012-04:00", "updated_at": "2025-07-03T21:57:35.789-04:00", "avatar": "https://avatars.slack-edge.com/2025-06-17/9050848275511_0626400ef61ef1d0edc6_original.jpg", "custom_css": null}, {"id": 7688, "slack_id": "U07VC7PKWJJ", "display_name": "Hans", "bio": null, "projects_count": 0, "devlogs_count": 0, "votes_count": 0, "ships_count": 0, "projects": [], "coding_time_seconds": 144467, "coding_time_seconds_today": 708, "balance": "You need to have a pocket watcher badge to view this.", "badges": [], "created_at": "2025-06-17T21:47:15.913-04:00", "updated_at": "2025-07-03T19:45:04.128-04:00", "avatar": "https://secure.gravatar.com/avatar/2ed2efd3ed0f399eb3bf2073241b61a9.jpg?s=512&d=https%3A%2F%2Fa.slack-edge.com%2Fdf10d%2Fimg%2Favatars%2Fava_0010-512.png", "custom_css": null}, {"id": 7689, "slack_id": "U091GQM9PJB", "display_name": "Helen", "bio": null, "projects_count": 0, "devlogs_count": 0, "votes_count": 0, "ships_count": 0, "projects": [], "coding_time_seconds": 37456, "coding_time_seconds_today": 0, "balance": "You need to have a pocket watcher badge to view this.", "badges": [], "created_at": "2025-06-17T21:47:31.984-04:00", "updated_at": "2025-07-03T19:45:04.391-04:00", "avatar": "https://avatars.slack-edge.com/2025-06-17/9059651030486_3d8ac632e993acf4f4a1_original.png", "custom_css": null}, {"id": 7690, "slack_id": "U08EE4WPYLU", "display_name": "Neer Sheth", "bio": null, "projects_count": 2, "devlogs_count": 60, "votes_count": 40, "ships_count": 2, "projects": [{"id": 1966, "title": "Studymate Tracker", "devlogs_count": 49, "created_at": "2025-06-19T18:34:46.098-04:00"}, {"id": 11347, "title": "AlgoVis", "devlogs_count": 11, "created_at": "2025-08-15T04:35:28.082-04:00"}], "coding_time_seconds": 166891, "coding_time_seconds_today": 0, "balance": "You need to have a pocket watcher badge to view this.", "badges": [{"name": "Maiden Voyage", "text": "you shipped your first project! the journey begins...", "icon": "\ud83d\udea2"}], "created_at": "2025-06-17T21:48:13.958-04:00", "updated_at": "2025-09-10T22:54:58.914-04:00", "avatar": "https://avatars.slack-edge.com/2025-02-20/8480810570486_9ded7cd9a057c20f24b3_original.png", "custom_css": null}, {"id": 7691, "slack_id": "U091Y181EHY", "display_name": "Louis", "bio": null, "projects_count": 0, "devlogs_count": 0, "votes_count": 0, "ships_count": 0, "projects": [], "coding_time_seconds": 0, "coding_time_seconds_today": 0, "balance": "You need to have a pocket watcher badge to view this.", "badges": [], "created_at": "2025-06-17T21:48:42.375-04:00", "updated_at": "2025-07-03T22:36:08.925-04:00", "avatar": "https://secure.gravatar.com/avatar/46042c747bfe277808b1f10146910eea.jpg?s=512&d=https%3A%2F%2Fa.slack-edge.com%2Fdf10d%2Fimg%2Favatars%2Fava_0010-512.png", "custom_css": null}, {"id": 7692, "slack_id": "U06G02KH487", "display_name": "Aditya", "bio": null, "projects_count": 1, "devlogs_count": 0, "votes_count": 0, "ships_count": 0, "projects": [{"id": 4940, "title": "Gwent-online", "devlogs_count": 0, "created_at": "2025-07-02T10:21:54.928-04:00"}], "coding_time_seconds": 18461, "coding_time_seconds_today": 0, "balance": "You need to have a pocket watcher badge to view this.", "badges": [], "created_at": "2025-06-17T21:49:11.011-04:00", "updated_at": "2025-07-03T19:45:05.045-04:00", "avatar": "https://avatars.slack-edge.com/2024-06-01/7200859845126_608294a49c14bb0b8970_original.png", "custom_css": null}, {"id": 7693, "slack_id": "U091WF74B1T", "display_name": "Hafsa", "bio": null, "projects_count": 0, "devlogs_count": 0, "votes_count": 0, "ships_count": 0, "projects": [], "coding_time_seconds": 0, "coding_time_seconds_today": 0, "balance": "You need to have a pocket watcher badge to view this.", "badges": [], "created_at": "2025-06-17T21:49:37.240-04:00", "updated_at": "2025-07-03T19:45:05.307-04:00", "avatar": "https://secure.gravatar.com/avatar/14e776e8dd0155317bbe01312ea7c215.jpg?s=512&d=https%3A%2F%2Fa.slack-edge.com%2Fdf10d%2Fimg%2Favatars%2Fava_0019-512.png", "custom_css": null}, {"id": 7694, "slack_id": "U091GR41XE3", "display_name": "Nishanth Gandhe", "bio": null, "projects_count": 0, "devlogs_count": 0, "votes_count": 0, "ships_count": 0, "projects": [], "coding_time_seconds": 102291, "coding_time_seconds_today": 0, "balance": "You need to have a pocket watcher badge to view this.", "badges": [], "created_at": "2025-06-17T21:51:50.260-04:00", "updated_at": "2025-07-03T19:45:05.568-04:00", "avatar": "https://secure.gravatar.com/avatar/154fa7c027a2e0d021d9887ed0ae39c3.jpg?s=512&d=https%3A%2F%2Fa.slack-edge.com%2Fdf10d%2Fimg%2Favatars%2Fava_0004-512.png", "custom_css": null}, {"id": 7695, "slack_id": "U091W2HFDNH", "display_name": "Wohee", "bio": null, "projects_count": 0, "devlogs_count": 0, "votes_count": 0, "ships_count": 0, "projects": [], "coding_time_seconds": 0, "coding_time_seconds_today": 0, "balance": "You need to have a pocket watcher badge to view this.", "badges": [], "created_at": "2025-06-17T21:53:59.021-04:00", "updated_at": "2025-07-03T19:45:05.838-04:00", "avatar": "https://secure.gravatar.com/avatar/fff5b77b1ebf4c5d43858620d160b4e3.jpg?s=512&d=https%3A%2F%2Fa.slack-edge.com%2Fdf10d%2Fimg%2Favatars%2Fava_0019-512.png", "custom_css": null}, {"id": 7696, "slack_id": "U091Y1RJZ2N", "display_name": "Aiden Oradan", "bio": null, "projects_count": 0, "devlogs_count": 0, "votes_count": 0, "ships_count": 0, "projects": [], "coding_time_seconds": 482, "coding_time_seconds_today": 0, "balance": "You need to have a pocket watcher badge to view this.", "badges": [], "created_at": "2025-06-17T21:55:55.327-04:00", "updated_at": "2025-07-03T19:45:06.093-04:00", "avatar": "https://secure.gravatar.com/avatar/0df0e06494fc77fc6b3779cf4a7bb80e.jpg?s=512&d=https%3A%2F%2Fa.slack-edge.com%2Fdf10d%2Fimg%2Favatars%2Fava_0006-512.png", "custom_css": null}, {"id": 7697, "slack_id": "U092AKU8CQZ", "display_name": "Prahsanth", "bio": null, "projects_count": 0, "devlogs_count": 0, "votes_count": 0, "ships_count": 0, "projects": [], "coding_time_seconds": 59499, "coding_time_seconds_today": 0, "balance": "You need to have a pocket watcher badge to view this.", "badges": [], "created_at": "2025-06-17T21:56:02.841-04:00", "updated_at": "2025-07-03T21:45:42.076-04:00", "avatar": "https://secure.gravatar.com/avatar/d9df2568ae57f1a52420a85ad3f21203.jpg?s=512&d=https%3A%2F%2Fa.slack-edge.com%2Fdf10d%2Fimg%2Favatars%2Fava_0026-512.png", "custom_css": null}, {"id": 7698, "slack_id": "U091RJWSXRC", "display_name": "Putra Prassiesa Abimanyu", "bio": null, "projects_count": 0, "devlogs_count": 0, "votes_count": 0, "ships_count": 0, "projects": [], "coding_time_seconds": 0, "coding_time_seconds_today": 0, "balance": "You need to have a pocket watcher badge to view this.", "badges": [], "created_at": "2025-06-17T21:57:01.285-04:00", "updated_at": "2025-07-03T19:45:06.510-04:00", "avatar": "https://secure.gravatar.com/avatar/dcae401b8c22a2ae5c5b329529ad76ca.jpg?s=512&d=https%3A%2F%2Fa.slack-edge.com%2Fdf10d%2Fimg%2Favatars%2Fava_0022-512.png", "custom_css": null}, {"id": 7699, "slack_id": "U0925C2CAF3", "display_name": "Bima", "bio": null, "projects_count": 0, "devlogs_count": 0, "votes_count": 0, "ships_count": 0, "projects": [], "coding_time_seconds": 15218, "coding_time_seconds_today": 0, "balance": "You need to have a pocket watcher badge to view this.", "badges": [], "created_at": "2025-06-17T21:57:26.186-04:00", "updated_at": "2025-07-03T19:45:06.772-04:00", "avatar": "https://secure.gravatar.com/avatar/db1b3a39ccc46daf1abae85803379e5a.jpg?s=512&d=https%3A%2F%2Fa.slack-edge.com%2Fdf10d%2Fimg%2Favatars%2Fava_0013-512.png", "custom_css": null}, {"id": 7700, "slack_id": "U091WG2PFFF", "display_name": "Wohee", "bio": null, "projects_count": 0, "devlogs_count": 0, "votes_count": 0, "ships_count": 0, "projects": [], "coding_time_seconds": 0, "coding_time_seconds_today": 0, "balance": "You need to have a pocket watcher badge to view this.", "badges": [], "created_at": "2025-06-17T21:58:25.150-04:00", "updated_at": "2025-07-03T19:45:07.036-04:00", "avatar": "https://secure.gravatar.com/avatar/6f854c3ea3cbc3c129b259a42db036cb.jpg?s=512&d=https%3A%2F%2Fa.slack-edge.com%2Fdf10d%2Fimg%2Favatars%2Fava_0026-512.png", "custom_css": null}], "pagination": {"page": 385, "pages": 1192, "count": 23828, "items": 20}}