{"users": [{"id": 7701, "slack_id": "U091Y2251A6", "display_name": "Mohammed Tabriz Zarek", "bio": null, "projects_count": 0, "devlogs_count": 0, "votes_count": 0, "ships_count": 0, "projects": [], "coding_time_seconds": 826, "coding_time_seconds_today": 0, "balance": "You need to have a pocket watcher badge to view this.", "badges": [], "created_at": "2025-06-17T21:58:27.378-04:00", "updated_at": "2025-07-03T19:45:07.303-04:00", "avatar": "https://secure.gravatar.com/avatar/15d6b7ff945325c2fe9c40c22fb735d9.jpg?s=512&d=https%3A%2F%2Fa.slack-edge.com%2Fdf10d%2Fimg%2Favatars%2Fava_0004-512.png", "custom_css": null}, {"id": 7702, "slack_id": "U091Y1UKAJE", "display_name": "Eduardo Colocho", "bio": null, "projects_count": 0, "devlogs_count": 0, "votes_count": 0, "ships_count": 0, "projects": [], "coding_time_seconds": 2514, "coding_time_seconds_today": 0, "balance": "You need to have a pocket watcher badge to view this.", "badges": [], "created_at": "2025-06-17T21:58:47.686-04:00", "updated_at": "2025-07-03T19:45:07.579-04:00", "avatar": "https://secure.gravatar.com/avatar/3b2febabbff1b41321425dbb6719d437.jpg?s=512&d=https%3A%2F%2Fa.slack-edge.com%2Fdf10d%2Fimg%2Favatars%2Fava_0013-512.png", "custom_css": null}, {"id": 7703, "slack_id": "U091WG19E69", "display_name": "Clyde Heinrich", "bio": null, "projects_count": 0, "devlogs_count": 0, "votes_count": 0, "ships_count": 0, "projects": [], "coding_time_seconds": 0, "coding_time_seconds_today": 0, "balance": "You need to have a pocket watcher badge to view this.", "badges": [], "created_at": "2025-06-17T21:58:54.326-04:00", "updated_at": "2025-07-04T08:23:19.757-04:00", "avatar": "https://avatars.slack-edge.com/2025-06-17/9059480242067_d5fe83c5385e6609869f_original.png", "custom_css": null}, {"id": 7704, "slack_id": "U091WG84UUD", "display_name": "Angus", "bio": null, "projects_count": 0, "devlogs_count": 0, "votes_count": 0, "ships_count": 0, "projects": [], "coding_time_seconds": 1041, "coding_time_seconds_today": 0, "balance": "You need to have a pocket watcher badge to view this.", "badges": [], "created_at": "2025-06-17T22:00:01.358-04:00", "updated_at": "2025-07-03T21:45:42.727-04:00", "avatar": "https://secure.gravatar.com/avatar/b49cd5d0db15765360c0514c311c1de5.jpg?s=512&d=https%3A%2F%2Fa.slack-edge.com%2Fdf10d%2Fimg%2Favatars%2Fava_0022-512.png", "custom_css": null}, {"id": 7705, "slack_id": "U092AK9TTJ5", "display_name": "nandan r", "bio": null, "projects_count": 0, "devlogs_count": 0, "votes_count": 0, "ships_count": 0, "projects": [], "coding_time_seconds": 0, "coding_time_seconds_today": 0, "balance": "You need to have a pocket watcher badge to view this.", "badges": [], "created_at": "2025-06-17T22:00:07.359-04:00", "updated_at": "2025-07-03T19:45:08.124-04:00", "avatar": "https://secure.gravatar.com/avatar/24de5b2236d715270a6dfb7b7dea502a.jpg?s=512&d=https%3A%2F%2Fa.slack-edge.com%2Fdf10d%2Fimg%2Favatars%2Fava_0023-512.png", "custom_css": null}, {"id": 7706, "slack_id": "U08U6RCA4EA", "display_name": "celia", "bio": null, "projects_count": 0, "devlogs_count": 0, "votes_count": 4, "ships_count": 0, "projects": [], "coding_time_seconds": 20437, "coding_time_seconds_today": 0, "balance": "You need to have a pocket watcher badge to view this.", "badges": [], "created_at": "2025-06-17T22:00:47.576-04:00", "updated_at": "2025-07-03T21:45:42.900-04:00", "avatar": "https://avatars.slack-edge.com/2025-06-09/9021729391061_adb6bf0748f5c0400f0f_original.jpg", "custom_css": null}, {"id": 7707, "slack_id": "U092LFEEC8G", "display_name": "Aaditya Shirke", "bio": null, "projects_count": 0, "devlogs_count": 0, "votes_count": 0, "ships_count": 0, "projects": [], "coding_time_seconds": 0, "coding_time_seconds_today": 0, "balance": "You need to have a pocket watcher badge to view this.", "badges": [], "created_at": "2025-06-17T22:02:47.011-04:00", "updated_at": "2025-07-25T14:37:21.351-04:00", "avatar": "https://avatars.slack-edge.com/2025-06-17/9066094969874_df0a2bfeb264a0a197a8_original.jpg", "custom_css": null}, {"id": 7708, "slack_id": "U08260EFLG2", "display_name": "Kota Neil Aryan", "bio": null, "projects_count": 0, "devlogs_count": 0, "votes_count": 1, "ships_count": 0, "projects": [], "coding_time_seconds": 99407, "coding_time_seconds_today": 0, "balance": "You need to have a pocket watcher badge to view this.", "badges": [], "created_at": "2025-06-17T22:02:51.873-04:00", "updated_at": "2025-07-03T19:45:08.664-04:00", "avatar": "https://secure.gravatar.com/avatar/42b192a50e8b6a0a916c50d82e94a0cb.jpg?s=512&d=https%3A%2F%2Fa.slack-edge.com%2Fdf10d%2Fimg%2Favatars%2Fava_0023-512.png", "custom_css": null}, {"id": 7709, "slack_id": "U091VDUUQNN", "display_name": "Robert Yin", "bio": null, "projects_count": 0, "devlogs_count": 0, "votes_count": 0, "ships_count": 0, "projects": [], "coding_time_seconds": 0, "coding_time_seconds_today": 0, "balance": "You need to have a pocket watcher badge to view this.", "badges": [], "created_at": "2025-06-17T22:03:03.435-04:00", "updated_at": "2025-07-03T19:45:08.925-04:00", "avatar": "https://secure.gravatar.com/avatar/e059d4e454ab7e72d9d99979538aeb3f.jpg?s=512&d=https%3A%2F%2Fa.slack-edge.com%2Fdf10d%2Fimg%2Favatars%2Fava_0018-512.png", "custom_css": null}, {"id": 7710, "slack_id": "U091R1LFJUW", "display_name": "Dakot Bolt", "bio": null, "projects_count": 0, "devlogs_count": 0, "votes_count": 0, "ships_count": 0, "projects": [], "coding_time_seconds": 0, "coding_time_seconds_today": 0, "balance": "You need to have a pocket watcher badge to view this.", "badges": [], "created_at": "2025-06-17T22:04:33.459-04:00", "updated_at": "2025-07-03T19:45:09.186-04:00", "avatar": "https://secure.gravatar.com/avatar/eb2e4c418a7d69cc291626fa5826fd73.jpg?s=512&d=https%3A%2F%2Fa.slack-edge.com%2Fdf10d%2Fimg%2Favatars%2Fava_0025-512.png", "custom_css": null}, {"id": 7711, "slack_id": "U091REGFRM1", "display_name": "JacobL", "bio": null, "projects_count": 1, "devlogs_count": 27, "votes_count": 12, "ships_count": 0, "projects": [{"id": 1890, "title": "FIXAPL", "devlogs_count": 27, "created_at": "2025-06-19T14:41:59.357-04:00"}], "coding_time_seconds": 362567, "coding_time_seconds_today": 0, "balance": "You need to have a pocket watcher badge to view this.", "badges": [], "created_at": "2025-06-17T22:05:13.982-04:00", "updated_at": "2025-08-25T12:15:43.065-04:00", "avatar": "https://secure.gravatar.com/avatar/b1748eee6d0a93a444f82626e7175d87.jpg?s=512&d=https%3A%2F%2Fa.slack-edge.com%2Fdf10d%2Fimg%2Favatars%2Fava_0008-512.png", "custom_css": null}, {"id": 7712, "slack_id": "U091RERLA91", "display_name": "Prince kumar", "bio": null, "projects_count": 0, "devlogs_count": 0, "votes_count": 0, "ships_count": 0, "projects": [], "coding_time_seconds": 0, "coding_time_seconds_today": 0, "balance": "You need to have a pocket watcher badge to view this.", "badges": [], "created_at": "2025-06-17T22:08:08.070-04:00", "updated_at": "2025-07-03T19:45:09.719-04:00", "avatar": "https://secure.gravatar.com/avatar/cbb021cf046adbb767cdcbd5210e4091.jpg?s=512&d=https%3A%2F%2Fa.slack-edge.com%2Fdf10d%2Fimg%2Favatars%2Fava_0025-512.png", "custom_css": null}, {"id": 7713, "slack_id": "U092LFYM64Q", "display_name": "Benjamin Slatt", "bio": null, "projects_count": 0, "devlogs_count": 0, "votes_count": 0, "ships_count": 0, "projects": [], "coding_time_seconds": 340, "coding_time_seconds_today": 0, "balance": "You need to have a pocket watcher badge to view this.", "badges": [], "created_at": "2025-06-17T22:08:11.584-04:00", "updated_at": "2025-07-03T19:45:09.993-04:00", "avatar": "https://secure.gravatar.com/avatar/1fda6b7cd2da78cbedd3e3b4fd7e4b8e.jpg?s=512&d=https%3A%2F%2Fa.slack-edge.com%2Fdf10d%2Fimg%2Favatars%2Fava_0016-512.png", "custom_css": null}, {"id": 7714, "slack_id": "U092AM0D7A5", "display_name": "James", "bio": null, "projects_count": 0, "devlogs_count": 0, "votes_count": 0, "ships_count": 0, "projects": [], "coding_time_seconds": 0, "coding_time_seconds_today": 0, "balance": "You need to have a pocket watcher badge to view this.", "badges": [], "created_at": "2025-06-17T22:08:17.356-04:00", "updated_at": "2025-07-04T02:27:04.719-04:00", "avatar": "https://secure.gravatar.com/avatar/a6eb81d68e07d3525bdb95878864d275.jpg?s=512&d=https%3A%2F%2Fa.slack-edge.com%2Fdf10d%2Fimg%2Favatars%2Fava_0011-512.png", "custom_css": null}, {"id": 7715, "slack_id": "U092LFRK3FA", "display_name": "Erika", "bio": null, "projects_count": 0, "devlogs_count": 0, "votes_count": 0, "ships_count": 0, "projects": [], "coding_time_seconds": 0, "coding_time_seconds_today": 0, "balance": "You need to have a pocket watcher badge to view this.", "badges": [], "created_at": "2025-06-17T22:08:19.642-04:00", "updated_at": "2025-07-03T19:45:10.400-04:00", "avatar": "https://secure.gravatar.com/avatar/410e26442c090798f2095b2af39c4f4c.jpg?s=512&d=https%3A%2F%2Fa.slack-edge.com%2Fdf10d%2Fimg%2Favatars%2Fava_0008-512.png", "custom_css": null}, {"id": 7716, "slack_id": "U092CHKAK96", "display_name": "Sara B", "bio": null, "projects_count": 0, "devlogs_count": 0, "votes_count": 0, "ships_count": 0, "projects": [], "coding_time_seconds": 724, "coding_time_seconds_today": 0, "balance": "You need to have a pocket watcher badge to view this.", "badges": [], "created_at": "2025-06-17T22:10:39.419-04:00", "updated_at": "2025-07-03T19:45:10.663-04:00", "avatar": "https://secure.gravatar.com/avatar/a2d87ff841a0bbf779ab8fc885c3dbc3.jpg?s=512&d=https%3A%2F%2Fa.slack-edge.com%2Fdf10d%2Fimg%2Favatars%2Fava_0023-512.png", "custom_css": null}, {"id": 7717, "slack_id": "U092LG5Q5NU", "display_name": "Anuj", "bio": null, "projects_count": 0, "devlogs_count": 0, "votes_count": 0, "ships_count": 0, "projects": [], "coding_time_seconds": 21906, "coding_time_seconds_today": 0, "balance": "You need to have a pocket watcher badge to view this.", "badges": [], "created_at": "2025-06-17T22:11:19.434-04:00", "updated_at": "2025-07-03T19:45:10.933-04:00", "avatar": "https://secure.gravatar.com/avatar/eefc29add3fc095f45870cbeed9a093c.jpg?s=512&d=https%3A%2F%2Fa.slack-edge.com%2Fdf10d%2Fimg%2Favatars%2Fava_0004-512.png", "custom_css": null}, {"id": 7718, "slack_id": "U091Y3BGPM0", "display_name": "rithwik", "bio": null, "projects_count": 0, "devlogs_count": 0, "votes_count": 0, "ships_count": 0, "projects": [], "coding_time_seconds": 0, "coding_time_seconds_today": 0, "balance": "You need to have a pocket watcher badge to view this.", "badges": [], "created_at": "2025-06-17T22:12:42.947-04:00", "updated_at": "2025-07-03T19:45:11.209-04:00", "avatar": "https://secure.gravatar.com/avatar/4d65d76d67ea04aaa073c8c9671a5153.jpg?s=512&d=https%3A%2F%2Fa.slack-edge.com%2Fdf10d%2Fimg%2Favatars%2Fava_0012-512.png", "custom_css": null}, {"id": 7719, "slack_id": "U0919S6TVN3", "display_name": "Reece Atkinson", "bio": null, "projects_count": 0, "devlogs_count": 0, "votes_count": 0, "ships_count": 0, "projects": [], "coding_time_seconds": 0, "coding_time_seconds_today": 0, "balance": "You need to have a pocket watcher badge to view this.", "badges": [], "created_at": "2025-06-17T22:13:52.191-04:00", "updated_at": "2025-07-03T19:45:11.508-04:00", "avatar": "https://secure.gravatar.com/avatar/afd9166c085df908fdda312b68314dc8.jpg?s=512&d=https%3A%2F%2Fa.slack-edge.com%2Fdf10d%2Fimg%2Favatars%2Fava_0024-512.png", "custom_css": null}, {"id": 7720, "slack_id": "U092LGFHZ5E", "display_name": "Duc Hai", "bio": null, "projects_count": 0, "devlogs_count": 0, "votes_count": 0, "ships_count": 0, "projects": [], "coding_time_seconds": 0, "coding_time_seconds_today": 0, "balance": "You need to have a pocket watcher badge to view this.", "badges": [], "created_at": "2025-06-17T22:14:33.539-04:00", "updated_at": "2025-07-03T19:45:11.768-04:00", "avatar": "https://secure.gravatar.com/avatar/e266fc08bc2050d5a571831815ec411a.jpg?s=512&d=https%3A%2F%2Fa.slack-edge.com%2Fdf10d%2Fimg%2Favatars%2Fava_0012-512.png", "custom_css": null}], "pagination": {"page": 386, "pages": 1192, "count": 23828, "items": 20}}