{"users": [{"id": 7721, "slack_id": "U092LGK3532", "display_name": "Xu Jessica", "bio": null, "projects_count": 0, "devlogs_count": 0, "votes_count": 0, "ships_count": 0, "projects": [], "coding_time_seconds": 0, "coding_time_seconds_today": 0, "balance": "You need to have a pocket watcher badge to view this.", "badges": [], "created_at": "2025-06-17T22:15:59.423-04:00", "updated_at": "2025-07-03T21:57:38.130-04:00", "avatar": "https://avatars.slack-edge.com/2025-06-17/9066132250162_473fbd12fdddf062a2f2_original.png", "custom_css": null}, {"id": 7722, "slack_id": "U079CJRSKK5", "display_name": "Carter Tollman", "bio": null, "projects_count": 0, "devlogs_count": 0, "votes_count": 0, "ships_count": 0, "projects": [], "coding_time_seconds": 0, "coding_time_seconds_today": 0, "balance": "You need to have a pocket watcher badge to view this.", "badges": [], "created_at": "2025-06-17T22:18:01.767-04:00", "updated_at": "2025-07-03T19:45:12.162-04:00", "avatar": "https://secure.gravatar.com/avatar/1f9fee22b99e65aa53b79b2b6844406e.jpg?s=512&d=https%3A%2F%2Fa.slack-edge.com%2Fdf10d%2Fimg%2Favatars%2Fava_0015-512.png", "custom_css": null}, {"id": 7723, "slack_id": "U091GTSAD0X", "display_name": "Kimleum", "bio": null, "projects_count": 0, "devlogs_count": 0, "votes_count": 0, "ships_count": 0, "projects": [], "coding_time_seconds": 0, "coding_time_seconds_today": 0, "balance": "You need to have a pocket watcher badge to view this.", "badges": [], "created_at": "2025-06-17T22:18:19.304-04:00", "updated_at": "2025-07-03T19:45:12.432-04:00", "avatar": "https://secure.gravatar.com/avatar/685541f51ae9d6cec6e40ea876aaa173.jpg?s=512&d=https%3A%2F%2Fa.slack-edge.com%2Fdf10d%2Fimg%2Favatars%2Fava_0006-512.png", "custom_css": null}, {"id": 7724, "slack_id": "U08QPP1M9R9", "display_name": "Gabriel Armando Medina", "bio": null, "projects_count": 1, "devlogs_count": 0, "votes_count": 16, "ships_count": 1, "projects": [{"id": 6383, "title": "BizVerse Academy", "devlogs_count": 0, "created_at": "2025-07-12T22:52:26.699-04:00"}], "coding_time_seconds": 9482, "coding_time_seconds_today": 0, "balance": "You need to have a pocket watcher badge to view this.", "badges": [{"name": "Maiden Voyage", "text": "you shipped your first project! the journey begins...", "icon": "\ud83d\udea2"}], "created_at": "2025-06-17T22:18:40.539-04:00", "updated_at": "2025-09-10T22:54:59.720-04:00", "avatar": "https://avatars.slack-edge.com/2025-05-01/8840149311412_f63dd3a73ae8f43bcff1_original.png", "custom_css": null}, {"id": 7725, "slack_id": "U092LGP6124", "display_name": "Griffin", "bio": null, "projects_count": 2, "devlogs_count": 9, "votes_count": 15, "ships_count": 1, "projects": [{"id": 2407, "title": "Pick Your Poison", "devlogs_count": 4, "created_at": "2025-06-21T00:21:50.773-04:00"}, {"id": 3808, "title": "Beasts & Breakfast", "devlogs_count": 5, "created_at": "2025-06-25T20:59:01.968-04:00"}], "coding_time_seconds": 267772, "coding_time_seconds_today": 0, "balance": "You need to have a pocket watcher badge to view this.", "badges": [{"name": "Maiden Voyage", "text": "you shipped your first project! the journey begins...", "icon": "\ud83d\udea2"}], "created_at": "2025-06-17T22:18:59.107-04:00", "updated_at": "2025-09-10T22:54:59.749-04:00", "avatar": "https://secure.gravatar.com/avatar/636d763e1f384eb66cb4e24a6b6ba759.jpg?s=512&d=https%3A%2F%2Fa.slack-edge.com%2Fdf10d%2Fimg%2Favatars%2Fava_0007-512.png", "custom_css": null}, {"id": 7726, "slack_id": "U08U1KF8FHV", "display_name": "jz", "bio": null, "projects_count": 1, "devlogs_count": 1, "votes_count": 1, "ships_count": 0, "projects": [{"id": 8102, "title": "Animalia", "devlogs_count": 1, "created_at": "2025-07-24T16:14:25.864-04:00"}], "coding_time_seconds": 5018, "coding_time_seconds_today": 0, "balance": "You need to have a pocket watcher badge to view this.", "badges": [], "created_at": "2025-06-17T22:19:21.858-04:00", "updated_at": "2025-07-22T16:00:44.058-04:00", "avatar": "https://avatars.slack-edge.com/2025-05-28/8960085194323_279fd55a09a8847ddef1_original.jpg", "custom_css": null}, {"id": 7727, "slack_id": "U091RMQ0MRC", "display_name": "Giacomo SM", "bio": "just a chill guy :D", "projects_count": 0, "devlogs_count": 32, "votes_count": 25, "ships_count": 0, "projects": [], "coding_time_seconds": 387101, "coding_time_seconds_today": 0, "balance": "You need to have a pocket watcher badge to view this.", "badges": [{"name": "Maiden Voyage", "text": "you shipped your first project! the journey begins...", "icon": "\ud83d\udea2"}], "created_at": "2025-06-17T22:19:28.073-04:00", "updated_at": "2025-09-10T22:54:59.801-04:00", "avatar": "https://avatars.slack-edge.com/2025-06-18/9072391898722_7f21cff2466bac10ff83_original.gif", "custom_css": null}, {"id": 7728, "slack_id": "U07RWNM1K88", "display_name": "Issac", "bio": "", "projects_count": 3, "devlogs_count": 11, "votes_count": 41, "ships_count": 2, "projects": [{"id": 8997, "title": "XrossMediaBar - PS3 Menus, For The Web!", "devlogs_count": 1, "created_at": "2025-07-30T06:13:07.523-04:00"}, {"id": 9969, "title": "Juicebox Orpheus Minecraft Mod", "devlogs_count": 4, "created_at": "2025-08-03T08:03:42.811-04:00"}, {"id": 11775, "title": "InfiniteTOV (TerminalOperatedVehicle)", "devlogs_count": 6, "created_at": "2025-08-19T12:03:35.492-04:00"}], "coding_time_seconds": 536517, "coding_time_seconds_today": 120, "balance": "You need to have a pocket watcher badge to view this.", "badges": [{"name": "Maiden Voyage", "text": "you shipped your first project! the journey begins...", "icon": "\ud83d\udea2"}], "created_at": "2025-06-17T22:21:22.362-04:00", "updated_at": "2025-09-10T22:54:59.826-04:00", "avatar": "https://avatars.slack-edge.com/2025-08-02/9315730368560_850a044e2bb0f130e1d6_original.png", "custom_css": null}, {"id": 7729, "slack_id": "U08B177THB9", "display_name": "William King", "bio": null, "projects_count": 0, "devlogs_count": 0, "votes_count": 0, "ships_count": 0, "projects": [], "coding_time_seconds": 0, "coding_time_seconds_today": 0, "balance": "You need to have a pocket watcher badge to view this.", "badges": [], "created_at": "2025-06-17T22:23:29.496-04:00", "updated_at": "2025-07-03T19:45:14.002-04:00", "avatar": "https://avatars.slack-edge.com/2025-02-04/8417141734672_57d34404ddd8f86c0c9f_original.jpg", "custom_css": null}, {"id": 7730, "slack_id": "U091GU5E2LF", "display_name": "Ramos", "bio": null, "projects_count": 0, "devlogs_count": 0, "votes_count": 0, "ships_count": 0, "projects": [], "coding_time_seconds": 0, "coding_time_seconds_today": 0, "balance": "You need to have a pocket watcher badge to view this.", "badges": [], "created_at": "2025-06-17T22:23:59.354-04:00", "updated_at": "2025-07-03T19:45:14.266-04:00", "avatar": "https://secure.gravatar.com/avatar/25418adc41f8744254a521a515749874.jpg?s=512&d=https%3A%2F%2Fa.slack-edge.com%2Fdf10d%2Fimg%2Favatars%2Fava_0012-512.png", "custom_css": null}, {"id": 7731, "slack_id": "U091RGB28PM", "display_name": "Nick Arruzza", "bio": null, "projects_count": 0, "devlogs_count": 0, "votes_count": 0, "ships_count": 0, "projects": [], "coding_time_seconds": 1246, "coding_time_seconds_today": 0, "balance": "You need to have a pocket watcher badge to view this.", "badges": [], "created_at": "2025-06-17T22:24:56.990-04:00", "updated_at": "2025-07-03T19:45:14.532-04:00", "avatar": "https://secure.gravatar.com/avatar/19b0e93533f503cb34d709c3ab09e082.jpg?s=512&d=https%3A%2F%2Fa.slack-edge.com%2Fdf10d%2Fimg%2Favatars%2Fava_0015-512.png", "custom_css": null}, {"id": 7732, "slack_id": "U091YHAMCCU", "display_name": "Nikita", "bio": null, "projects_count": 0, "devlogs_count": 0, "votes_count": 0, "ships_count": 0, "projects": [], "coding_time_seconds": 0, "coding_time_seconds_today": 0, "balance": "You need to have a pocket watcher badge to view this.", "badges": [], "created_at": "2025-06-17T22:31:21.231-04:00", "updated_at": "2025-07-04T20:08:14.983-04:00", "avatar": "https://secure.gravatar.com/avatar/3f83908e2c9663c8daba27efc2d48d52.jpg?s=512&d=https%3A%2F%2Fa.slack-edge.com%2Fdf10d%2Fimg%2Favatars%2Fava_0001-512.png", "custom_css": null}, {"id": 7733, "slack_id": "U092ANL15S5", "display_name": "Kunal Sachan", "bio": null, "projects_count": 0, "devlogs_count": 0, "votes_count": 0, "ships_count": 0, "projects": [], "coding_time_seconds": 7230, "coding_time_seconds_today": 0, "balance": "You need to have a pocket watcher badge to view this.", "badges": [], "created_at": "2025-06-17T22:31:32.863-04:00", "updated_at": "2025-07-03T19:45:14.940-04:00", "avatar": "https://secure.gravatar.com/avatar/736b841d52512678e165d0245acbd281.jpg?s=512&d=https%3A%2F%2Fa.slack-edge.com%2Fdf10d%2Fimg%2Favatars%2Fava_0010-512.png", "custom_css": null}, {"id": 7734, "slack_id": "U091MTD75L5", "display_name": "Howling_Duke", "bio": null, "projects_count": 0, "devlogs_count": 0, "votes_count": 0, "ships_count": 0, "projects": [], "coding_time_seconds": 0, "coding_time_seconds_today": 0, "balance": "You need to have a pocket watcher badge to view this.", "badges": [], "created_at": "2025-06-17T22:34:20.642-04:00", "updated_at": "2025-07-03T19:45:15.201-04:00", "avatar": "https://secure.gravatar.com/avatar/f34402afab044714183096c1b1f8017c.jpg?s=512&d=https%3A%2F%2Fa.slack-edge.com%2Fdf10d%2Fimg%2Favatars%2Fava_0010-512.png", "custom_css": null}, {"id": 7735, "slack_id": "U091GV2BQ8P", "display_name": "Shen\u00e0l", "bio": null, "projects_count": 0, "devlogs_count": 0, "votes_count": 0, "ships_count": 0, "projects": [], "coding_time_seconds": 47004, "coding_time_seconds_today": 0, "balance": "You need to have a pocket watcher badge to view this.", "badges": [], "created_at": "2025-06-17T22:34:24.662-04:00", "updated_at": "2025-07-03T19:45:15.475-04:00", "avatar": "https://secure.gravatar.com/avatar/1ce1a143aeca9d4651c15a2457d8c6fc.jpg?s=512&d=https%3A%2F%2Fa.slack-edge.com%2Fdf10d%2Fimg%2Favatars%2Fava_0018-512.png", "custom_css": null}, {"id": 7736, "slack_id": "U091WKCDKKP", "display_name": "Sharif Hasan", "bio": null, "projects_count": 0, "devlogs_count": 0, "votes_count": 0, "ships_count": 0, "projects": [], "coding_time_seconds": 907, "coding_time_seconds_today": 0, "balance": "You need to have a pocket watcher badge to view this.", "badges": [], "created_at": "2025-06-17T22:34:30.858-04:00", "updated_at": "2025-07-03T19:45:15.756-04:00", "avatar": "https://secure.gravatar.com/avatar/f9039d62aac2139f1cb9b3f0db331977.jpg?s=512&d=https%3A%2F%2Fa.slack-edge.com%2Fdf10d%2Fimg%2Favatars%2Fava_0023-512.png", "custom_css": null}, {"id": 7737, "slack_id": "U091WKK821K", "display_name": "GMedranda", "bio": null, "projects_count": 0, "devlogs_count": 0, "votes_count": 0, "ships_count": 0, "projects": [], "coding_time_seconds": 119613, "coding_time_seconds_today": 0, "balance": "You need to have a pocket watcher badge to view this.", "badges": [], "created_at": "2025-06-17T22:35:26.507-04:00", "updated_at": "2025-07-03T19:45:16.024-04:00", "avatar": "https://secure.gravatar.com/avatar/4bf1a74904f4054a2f9157e75d8fbe6e.jpg?s=512&d=https%3A%2F%2Fa.slack-edge.com%2Fdf10d%2Fimg%2Favatars%2Fava_0003-512.png", "custom_css": null}, {"id": 7738, "slack_id": "U091GTDDXRD", "display_name": "Advik Keshri", "bio": null, "projects_count": 0, "devlogs_count": 0, "votes_count": 0, "ships_count": 0, "projects": [], "coding_time_seconds": 0, "coding_time_seconds_today": 0, "balance": "You need to have a pocket watcher badge to view this.", "badges": [], "created_at": "2025-06-17T22:39:30.857-04:00", "updated_at": "2025-07-03T19:45:16.282-04:00", "avatar": "https://secure.gravatar.com/avatar/0284ad6553cff875342439cb3d7e6109.jpg?s=512&d=https%3A%2F%2Fa.slack-edge.com%2Fdf10d%2Fimg%2Favatars%2Fava_0013-512.png", "custom_css": null}, {"id": 7739, "slack_id": "U092L5JB4QY", "display_name": "Seonguk Choi", "bio": null, "projects_count": 0, "devlogs_count": 0, "votes_count": 0, "ships_count": 0, "projects": [], "coding_time_seconds": 0, "coding_time_seconds_today": 0, "balance": "You need to have a pocket watcher badge to view this.", "badges": [], "created_at": "2025-06-17T22:41:02.277-04:00", "updated_at": "2025-07-07T02:09:51.818-04:00", "avatar": "https://secure.gravatar.com/avatar/f82daec1a564b47465173c15726758d4.jpg?s=512&d=https%3A%2F%2Fa.slack-edge.com%2Fdf10d%2Fimg%2Favatars%2Fava_0011-512.png", "custom_css": null}, {"id": 7740, "slack_id": "U091NEBTNG6", "display_name": "Abdulrahman akram", "bio": null, "projects_count": 0, "devlogs_count": 0, "votes_count": 0, "ships_count": 0, "projects": [], "coding_time_seconds": 120, "coding_time_seconds_today": 0, "balance": "You need to have a pocket watcher badge to view this.", "badges": [], "created_at": "2025-06-17T22:41:46.628-04:00", "updated_at": "2025-07-03T21:57:39.564-04:00", "avatar": "https://avatars.slack-edge.com/2025-06-17/9078821117361_9b066a7846c0b024394c_original.png", "custom_css": null}], "pagination": {"page": 387, "pages": 1192, "count": 23828, "items": 20}}