{"users": [{"id": 7741, "slack_id": "U091YJDEF8U", "display_name": "Bruno Almeida", "bio": null, "projects_count": 0, "devlogs_count": 0, "votes_count": 0, "ships_count": 0, "projects": [], "coding_time_seconds": 2071, "coding_time_seconds_today": 0, "balance": "You need to have a pocket watcher badge to view this.", "badges": [], "created_at": "2025-06-17T22:42:56.236-04:00", "updated_at": "2025-07-03T21:45:45.176-04:00", "avatar": "https://secure.gravatar.com/avatar/9c85d2358c4a0667d9e40e4c0cf4108c.jpg?s=512&d=https%3A%2F%2Fa.slack-edge.com%2Fdf10d%2Fimg%2Favatars%2Fava_0008-512.png", "custom_css": null}, {"id": 7742, "slack_id": "U092LK5C4D6", "display_name": "Sai Nivedh", "bio": null, "projects_count": 0, "devlogs_count": 0, "votes_count": 0, "ships_count": 0, "projects": [], "coding_time_seconds": 0, "coding_time_seconds_today": 0, "balance": "You need to have a pocket watcher badge to view this.", "badges": [], "created_at": "2025-06-17T22:45:46.777-04:00", "updated_at": "2025-07-03T19:45:17.057-04:00", "avatar": "https://secure.gravatar.com/avatar/f766ead6c02c6781372219df2490753e.jpg?s=512&d=https%3A%2F%2Fa.slack-edge.com%2Fdf10d%2Fimg%2Favatars%2Fava_0023-512.png", "custom_css": null}, {"id": 7743, "slack_id": "U091RJ4K2E7", "display_name": "Frank Cai", "bio": null, "projects_count": 0, "devlogs_count": 0, "votes_count": 0, "ships_count": 0, "projects": [], "coding_time_seconds": 240, "coding_time_seconds_today": 0, "balance": "You need to have a pocket watcher badge to view this.", "badges": [], "created_at": "2025-06-17T22:46:31.347-04:00", "updated_at": "2025-07-03T21:57:39.780-04:00", "avatar": "https://secure.gravatar.com/avatar/ffb6e238b5794cc5e86708f42760669d.jpg?s=512&d=https%3A%2F%2Fa.slack-edge.com%2Fdf10d%2Fimg%2Favatars%2Fava_0024-512.png", "custom_css": null}, {"id": 7744, "slack_id": "U092LKCJWRE", "display_name": "Vishnuuu", "bio": null, "projects_count": 0, "devlogs_count": 0, "votes_count": 0, "ships_count": 0, "projects": [], "coding_time_seconds": 0, "coding_time_seconds_today": 0, "balance": "You need to have a pocket watcher badge to view this.", "badges": [], "created_at": "2025-06-17T22:48:11.163-04:00", "updated_at": "2025-07-04T20:08:15.716-04:00", "avatar": "https://secure.gravatar.com/avatar/017d4cc0c5bd4687a05efd7dbcd7028b.jpg?s=512&d=https%3A%2F%2Fa.slack-edge.com%2Fdf10d%2Fimg%2Favatars%2Fava_0021-512.png", "custom_css": null}, {"id": 7745, "slack_id": "U091WLN6ULD", "display_name": "Sairam Suresh", "bio": null, "projects_count": 0, "devlogs_count": 0, "votes_count": 0, "ships_count": 0, "projects": [], "coding_time_seconds": 20373, "coding_time_seconds_today": 0, "balance": "You need to have a pocket watcher badge to view this.", "badges": [], "created_at": "2025-06-17T22:48:38.428-04:00", "updated_at": "2025-07-03T19:45:17.582-04:00", "avatar": "https://secure.gravatar.com/avatar/86070e7c5df884e9f38d6d99277615b3.jpg?s=512&d=https%3A%2F%2Fa.slack-edge.com%2Fdf10d%2Fimg%2Favatars%2Fava_0007-512.png", "custom_css": null}, {"id": 7746, "slack_id": "U091H0MHT2B", "display_name": "snyeg", "bio": "professional amateur programminator", "projects_count": 3, "devlogs_count": 15, "votes_count": 20, "ships_count": 1, "projects": [{"id": 2699, "title": "Prism 4 Steam", "devlogs_count": 5, "created_at": "2025-06-21T17:58:35.826-04:00"}, {"id": 13042, "title": "hackstuff", "devlogs_count": 1, "created_at": "2025-09-07T12:22:16.076-04:00"}, {"id": 4426, "title": "jamtime", "devlogs_count": 9, "created_at": "2025-06-29T19:37:36.804-04:00"}], "coding_time_seconds": 102060, "coding_time_seconds_today": 0, "balance": "You need to have a pocket watcher badge to view this.", "badges": [{"name": "Maiden Voyage", "text": "you shipped your first project! the journey begins...", "icon": "\ud83d\udea2"}], "created_at": "2025-06-17T22:49:12.906-04:00", "updated_at": "2025-09-10T22:55:00.357-04:00", "avatar": "https://avatars.slack-edge.com/2025-06-18/9056086280807_3c0e66cdb14cd99fe3c8_original.png", "custom_css": null}, {"id": 7747, "slack_id": "U091W2J0B3P", "display_name": "lavendosaii", "bio": null, "projects_count": 0, "devlogs_count": 0, "votes_count": 0, "ships_count": 0, "projects": [], "coding_time_seconds": 0, "coding_time_seconds_today": 0, "balance": "You need to have a pocket watcher badge to view this.", "badges": [], "created_at": "2025-06-17T22:51:05.215-04:00", "updated_at": "2025-07-03T19:45:18.127-04:00", "avatar": "https://secure.gravatar.com/avatar/7779701d4d84697ccdc5409359c0cfd7.jpg?s=512&d=https%3A%2F%2Fa.slack-edge.com%2Fdf10d%2Fimg%2Favatars%2Fava_0001-512.png", "custom_css": null}, {"id": 7748, "slack_id": "U091RQML630", "display_name": "Raymond Lin", "bio": null, "projects_count": 0, "devlogs_count": 0, "votes_count": 0, "ships_count": 0, "projects": [], "coding_time_seconds": 13837, "coding_time_seconds_today": 2442, "balance": "You need to have a pocket watcher badge to view this.", "badges": [], "created_at": "2025-06-17T22:51:39.883-04:00", "updated_at": "2025-07-03T19:45:18.387-04:00", "avatar": "https://secure.gravatar.com/avatar/759cb4f7e0e0256f3671d58564e0545b.jpg?s=512&d=https%3A%2F%2Fa.slack-edge.com%2Fdf10d%2Fimg%2Favatars%2Fava_0005-512.png", "custom_css": null}, {"id": 7749, "slack_id": "U091Y6Q11H8", "display_name": "Neek Kafle", "bio": null, "projects_count": 0, "devlogs_count": 0, "votes_count": 0, "ships_count": 0, "projects": [], "coding_time_seconds": 14326, "coding_time_seconds_today": 0, "balance": "You need to have a pocket watcher badge to view this.", "badges": [], "created_at": "2025-06-17T22:54:38.049-04:00", "updated_at": "2025-07-03T19:45:18.680-04:00", "avatar": "https://avatars.slack-edge.com/2025-06-17/9059858235814_f9a1c605b27f930ccf45_original.png", "custom_css": null}, {"id": 7750, "slack_id": "U091WM7DBSR", "display_name": "Nguyen Tan Hao", "bio": null, "projects_count": 0, "devlogs_count": 0, "votes_count": 0, "ships_count": 0, "projects": [], "coding_time_seconds": 0, "coding_time_seconds_today": 0, "balance": "You need to have a pocket watcher badge to view this.", "badges": [], "created_at": "2025-06-17T22:55:41.752-04:00", "updated_at": "2025-07-03T19:45:18.950-04:00", "avatar": "https://secure.gravatar.com/avatar/9595ffe6c594531791db1544a4a164fe.jpg?s=512&d=https%3A%2F%2Fa.slack-edge.com%2Fdf10d%2Fimg%2Favatars%2Fava_0012-512.png", "custom_css": null}, {"id": 7751, "slack_id": "U092AQV8HAM", "display_name": "varun", "bio": null, "projects_count": 0, "devlogs_count": 0, "votes_count": 0, "ships_count": 0, "projects": [], "coding_time_seconds": 0, "coding_time_seconds_today": 0, "balance": "You need to have a pocket watcher badge to view this.", "badges": [], "created_at": "2025-06-17T22:56:17.186-04:00", "updated_at": "2025-07-03T19:45:19.229-04:00", "avatar": "https://secure.gravatar.com/avatar/aaea8b9c40772e52f082420a0237650f.jpg?s=512&d=https%3A%2F%2Fa.slack-edge.com%2Fdf10d%2Fimg%2Favatars%2Fava_0002-512.png", "custom_css": null}, {"id": 7752, "slack_id": "U092AQU3KED", "display_name": "peippo", "bio": "gaming", "projects_count": 2, "devlogs_count": 33, "votes_count": 85, "ships_count": 1, "projects": [{"id": 2019, "title": "Pepe's Puzzle Playland", "devlogs_count": 1, "created_at": "2025-06-19T22:31:53.988-04:00"}, {"id": 2713, "title": "bosa", "devlogs_count": 32, "created_at": "2025-06-21T20:08:00.353-04:00"}], "coding_time_seconds": 573307, "coding_time_seconds_today": 3004, "balance": "You need to have a pocket watcher badge to view this.", "badges": [{"name": "Maiden Voyage", "text": "you shipped your first project! the journey begins...", "icon": "\ud83d\udea2"}, {"name": "Ballot Stuffer", "text": "vote 100 times.", "icon": "https://summer.hackclub.com/assets/i_voted-bf851b48.png"}], "created_at": "2025-06-17T22:57:00.948-04:00", "updated_at": "2025-09-10T22:55:00.491-04:00", "avatar": "https://secure.gravatar.com/avatar/150e35d366e1dde18927465a66670708.jpg?s=512&d=https%3A%2F%2Fa.slack-edge.com%2Fdf10d%2Fimg%2Favatars%2Fava_0016-512.png", "custom_css": null}, {"id": 7753, "slack_id": "U091RJZTE2F", "display_name": "suikabirb", "bio": null, "projects_count": 0, "devlogs_count": 0, "votes_count": 0, "ships_count": 0, "projects": [], "coding_time_seconds": 0, "coding_time_seconds_today": 0, "balance": "You need to have a pocket watcher badge to view this.", "badges": [], "created_at": "2025-06-17T22:57:31.909-04:00", "updated_at": "2025-07-03T19:45:19.645-04:00", "avatar": "https://secure.gravatar.com/avatar/674be996e61116eda0ebcc9f5c9e7a8e.jpg?s=512&d=https%3A%2F%2Fa.slack-edge.com%2Fdf10d%2Fimg%2Favatars%2Fava_0016-512.png", "custom_css": null}, {"id": 7754, "slack_id": "U091RK0RWM9", "display_name": "Ch V M Kiran", "bio": null, "projects_count": 0, "devlogs_count": 0, "votes_count": 0, "ships_count": 0, "projects": [], "coding_time_seconds": 0, "coding_time_seconds_today": 0, "balance": "You need to have a pocket watcher badge to view this.", "badges": [], "created_at": "2025-06-17T22:57:47.341-04:00", "updated_at": "2025-07-05T08:09:00.494-04:00", "avatar": "https://secure.gravatar.com/avatar/6e8c1c6105ead45dfc8d63e64e64190f.jpg?s=512&d=https%3A%2F%2Fa.slack-edge.com%2Fdf10d%2Fimg%2Favatars%2Fava_0010-512.png", "custom_css": null}, {"id": 7755, "slack_id": "U091PLDFCRY", "display_name": "Tayyab", "bio": null, "projects_count": 0, "devlogs_count": 0, "votes_count": 0, "ships_count": 0, "projects": [], "coding_time_seconds": 0, "coding_time_seconds_today": 0, "balance": "You need to have a pocket watcher badge to view this.", "badges": [], "created_at": "2025-06-17T22:58:26.063-04:00", "updated_at": "2025-07-03T19:45:20.044-04:00", "avatar": "https://secure.gravatar.com/avatar/7981aaa97e6d6d87339202a3a1310315.jpg?s=512&d=https%3A%2F%2Fa.slack-edge.com%2Fdf10d%2Fimg%2Favatars%2Fava_0000-512.png", "custom_css": null}, {"id": 7756, "slack_id": "U091RR58QCW", "display_name": "musdax", "bio": null, "projects_count": 0, "devlogs_count": 0, "votes_count": 0, "ships_count": 0, "projects": [], "coding_time_seconds": 360, "coding_time_seconds_today": 0, "balance": "You need to have a pocket watcher badge to view this.", "badges": [], "created_at": "2025-06-17T22:59:03.233-04:00", "updated_at": "2025-07-05T08:09:00.645-04:00", "avatar": "https://secure.gravatar.com/avatar/336301c2eb73b0c9e3abd37add30f2be.jpg?s=512&d=https%3A%2F%2Fa.slack-edge.com%2Fdf10d%2Fimg%2Favatars%2Fava_0005-512.png", "custom_css": null}, {"id": 7757, "slack_id": "U091RR6HR70", "display_name": "Jacky Ho", "bio": null, "projects_count": 3, "devlogs_count": 5, "votes_count": 3, "ships_count": 1, "projects": [{"id": 1854, "title": "Fracture", "devlogs_count": 3, "created_at": "2025-06-19T12:49:00.589-04:00"}, {"id": 3244, "title": "2048 Remake", "devlogs_count": 2, "created_at": "2025-06-23T14:44:12.367-04:00"}, {"id": 6116, "title": "Rocky", "devlogs_count": 0, "created_at": "2025-07-10T16:08:21.922-04:00"}], "coding_time_seconds": 68406, "coding_time_seconds_today": 0, "balance": "You need to have a pocket watcher badge to view this.", "badges": [{"name": "Maiden Voyage", "text": "you shipped your first project! the journey begins...", "icon": "\ud83d\udea2"}], "created_at": "2025-06-17T22:59:38.366-04:00", "updated_at": "2025-09-10T22:55:00.674-04:00", "avatar": "https://secure.gravatar.com/avatar/8dc2c11385fd7c13650aceb6efc154b2.jpg?s=512&d=https%3A%2F%2Fa.slack-edge.com%2Fdf10d%2Fimg%2Favatars%2Fava_0004-512.png", "custom_css": null}, {"id": 7758, "slack_id": "U092LLBKGPJ", "display_name": "Vinayaka Voleti", "bio": null, "projects_count": 0, "devlogs_count": 0, "votes_count": 0, "ships_count": 0, "projects": [], "coding_time_seconds": 110737, "coding_time_seconds_today": 0, "balance": "You need to have a pocket watcher badge to view this.", "badges": [], "created_at": "2025-06-17T23:00:26.523-04:00", "updated_at": "2025-07-04T08:23:25.111-04:00", "avatar": "https://secure.gravatar.com/avatar/6f8ed7dac630a945a35b8a478dcb92be.jpg?s=512&d=https%3A%2F%2Fa.slack-edge.com%2Fdf10d%2Fimg%2Favatars%2Fava_0004-512.png", "custom_css": null}, {"id": 7759, "slack_id": "U091WMJ82GM", "display_name": "Amandeep Kaur", "bio": null, "projects_count": 0, "devlogs_count": 0, "votes_count": 0, "ships_count": 0, "projects": [], "coding_time_seconds": 0, "coding_time_seconds_today": 0, "balance": "You need to have a pocket watcher badge to view this.", "badges": [], "created_at": "2025-06-17T23:02:59.691-04:00", "updated_at": "2025-07-20T22:41:14.524-04:00", "avatar": "https://secure.gravatar.com/avatar/9352fb5dc2f8c94e9aff802025273f89.jpg?s=512&d=https%3A%2F%2Fa.slack-edge.com%2Fdf10d%2Fimg%2Favatars%2Fava_0002-512.png", "custom_css": null}, {"id": 7760, "slack_id": "U091H24KV2B", "display_name": "Monica M\u0105ka", "bio": null, "projects_count": 0, "devlogs_count": 0, "votes_count": 0, "ships_count": 0, "projects": [], "coding_time_seconds": 0, "coding_time_seconds_today": 0, "balance": "You need to have a pocket watcher badge to view this.", "badges": [], "created_at": "2025-06-17T23:03:14.363-04:00", "updated_at": "2025-07-03T19:45:20.993-04:00", "avatar": "https://secure.gravatar.com/avatar/cd04a7de2b50d4fa21af8fe506f952aa.jpg?s=512&d=https%3A%2F%2Fa.slack-edge.com%2Fdf10d%2Fimg%2Favatars%2Fava_0025-512.png", "custom_css": null}], "pagination": {"page": 388, "pages": 1192, "count": 23828, "items": 20}}