{"users": [{"id": 7761, "slack_id": "U091RRCB7U6", "display_name": "Bhavy Patel", "bio": null, "projects_count": 0, "devlogs_count": 0, "votes_count": 0, "ships_count": 0, "projects": [], "coding_time_seconds": 0, "coding_time_seconds_today": 0, "balance": "You need to have a pocket watcher badge to view this.", "badges": [], "created_at": "2025-06-17T23:04:10.321-04:00", "updated_at": "2025-07-03T19:45:21.250-04:00", "avatar": "https://secure.gravatar.com/avatar/3955e31d2b07fb8dde58d9ff3daa5b6b.jpg?s=512&d=https%3A%2F%2Fa.slack-edge.com%2Fdf10d%2Fimg%2Favatars%2Fava_0016-512.png", "custom_css": null}, {"id": 7762, "slack_id": "U091WMV8N4D", "display_name": "Aman Kumar", "bio": null, "projects_count": 0, "devlogs_count": 0, "votes_count": 0, "ships_count": 0, "projects": [], "coding_time_seconds": 0, "coding_time_seconds_today": 0, "balance": "You need to have a pocket watcher badge to view this.", "badges": [], "created_at": "2025-06-17T23:05:18.891-04:00", "updated_at": "2025-07-06T20:09:08.196-04:00", "avatar": "https://secure.gravatar.com/avatar/a9c7073509e275db1a7ecdca1b44b473.jpg?s=512&d=https%3A%2F%2Fa.slack-edge.com%2Fdf10d%2Fimg%2Favatars%2Fava_0011-512.png", "custom_css": null}, {"id": 7763, "slack_id": "U091WQVUXMY", "display_name": "Raj Bains", "bio": null, "projects_count": 0, "devlogs_count": 0, "votes_count": 0, "ships_count": 0, "projects": [], "coding_time_seconds": 56336, "coding_time_seconds_today": 0, "balance": "You need to have a pocket watcher badge to view this.", "badges": [], "created_at": "2025-06-17T23:07:04.258-04:00", "updated_at": "2025-07-05T02:08:45.815-04:00", "avatar": "https://avatars.slack-edge.com/2025-06-17/9066705101300_b20abf91afd111ade7c3_original.jpg", "custom_css": null}, {"id": 7764, "slack_id": "U091Y7T1KDG", "display_name": "Samdani Anik", "bio": null, "projects_count": 0, "devlogs_count": 0, "votes_count": 0, "ships_count": 0, "projects": [], "coding_time_seconds": 0, "coding_time_seconds_today": 0, "balance": "You need to have a pocket watcher badge to view this.", "badges": [], "created_at": "2025-06-17T23:07:54.666-04:00", "updated_at": "2025-07-03T19:45:21.812-04:00", "avatar": "https://avatars.slack-edge.com/2025-06-17/9059901534022_bfc9e5e5985e7147fff5_original.jpg", "custom_css": null}, {"id": 7765, "slack_id": "U091RSCA99C", "display_name": "Chinmoy Saikia", "bio": null, "projects_count": 0, "devlogs_count": 0, "votes_count": 0, "ships_count": 0, "projects": [], "coding_time_seconds": 0, "coding_time_seconds_today": 0, "balance": "You need to have a pocket watcher badge to view this.", "badges": [], "created_at": "2025-06-17T23:10:08.403-04:00", "updated_at": "2025-07-03T19:45:22.071-04:00", "avatar": "https://secure.gravatar.com/avatar/74547f68c26a59571d0782fe13ae5c88.jpg?s=512&d=https%3A%2F%2Fa.slack-edge.com%2Fdf10d%2Fimg%2Favatars%2Fava_0019-512.png", "custom_css": null}, {"id": 7766, "slack_id": "U092LM5MEKA", "display_name": "Omkar Bhor", "bio": null, "projects_count": 1, "devlogs_count": 0, "votes_count": 0, "ships_count": 0, "projects": [{"id": 2250, "title": "Sahas", "devlogs_count": 0, "created_at": "2025-06-20T14:54:44.122-04:00"}], "coding_time_seconds": 6996, "coding_time_seconds_today": 0, "balance": "You need to have a pocket watcher badge to view this.", "badges": [], "created_at": "2025-06-17T23:10:29.556-04:00", "updated_at": "2025-07-03T19:45:22.342-04:00", "avatar": "https://secure.gravatar.com/avatar/f932a7d6b12bccf0c6117050d8070904.jpg?s=512&d=https%3A%2F%2Fa.slack-edge.com%2Fdf10d%2Fimg%2Favatars%2Fava_0007-512.png", "custom_css": null}, {"id": 7767, "slack_id": "U091RSDJ1L6", "display_name": "athorid", "bio": null, "projects_count": 0, "devlogs_count": 0, "votes_count": 0, "ships_count": 0, "projects": [], "coding_time_seconds": 0, "coding_time_seconds_today": 0, "balance": "You need to have a pocket watcher badge to view this.", "badges": [], "created_at": "2025-06-17T23:11:06.466-04:00", "updated_at": "2025-07-03T19:45:22.602-04:00", "avatar": "https://secure.gravatar.com/avatar/6305065f0d637ae63364e21d369a7fc2.jpg?s=512&d=https%3A%2F%2Fa.slack-edge.com%2Fdf10d%2Fimg%2Favatars%2Fava_0003-512.png", "custom_css": null}, {"id": 7768, "slack_id": "U092ASBNFMX", "display_name": "yylevi", "bio": null, "projects_count": 0, "devlogs_count": 0, "votes_count": 0, "ships_count": 0, "projects": [], "coding_time_seconds": 0, "coding_time_seconds_today": 0, "balance": "You need to have a pocket watcher badge to view this.", "badges": [], "created_at": "2025-06-17T23:11:38.928-04:00", "updated_at": "2025-07-03T19:45:22.869-04:00", "avatar": "https://secure.gravatar.com/avatar/cb92b10fd7020991c507555edaf9332c.jpg?s=512&d=https%3A%2F%2Fa.slack-edge.com%2Fdf10d%2Fimg%2Favatars%2Fava_0023-512.png", "custom_css": null}, {"id": 7769, "slack_id": "U091H36TE4F", "display_name": "Aiden", "bio": null, "projects_count": 0, "devlogs_count": 0, "votes_count": 0, "ships_count": 0, "projects": [], "coding_time_seconds": 0, "coding_time_seconds_today": 0, "balance": "You need to have a pocket watcher badge to view this.", "badges": [], "created_at": "2025-06-17T23:12:18.140-04:00", "updated_at": "2025-07-03T21:57:41.449-04:00", "avatar": "https://secure.gravatar.com/avatar/1aaf3af4446f7e42261e2a9a542854d6.jpg?s=512&d=https%3A%2F%2Fa.slack-edge.com%2Fdf10d%2Fimg%2Favatars%2Fava_0003-512.png", "custom_css": null}, {"id": 7770, "slack_id": "U091WNZ32F7", "display_name": "Aravindh Prabu", "bio": null, "projects_count": 0, "devlogs_count": 0, "votes_count": 0, "ships_count": 0, "projects": [], "coding_time_seconds": 0, "coding_time_seconds_today": 0, "balance": "You need to have a pocket watcher badge to view this.", "badges": [], "created_at": "2025-06-17T23:14:48.821-04:00", "updated_at": "2025-07-03T21:57:41.587-04:00", "avatar": "https://secure.gravatar.com/avatar/26c70e8166e31d2eb2533394681c7de7.jpg?s=512&d=https%3A%2F%2Fa.slack-edge.com%2Fdf10d%2Fimg%2Favatars%2Fava_0000-512.png", "custom_css": null}, {"id": 7771, "slack_id": "U091RSTR4UW", "display_name": "SANJAY S", "bio": null, "projects_count": 0, "devlogs_count": 0, "votes_count": 0, "ships_count": 0, "projects": [], "coding_time_seconds": 0, "coding_time_seconds_today": 0, "balance": "You need to have a pocket watcher badge to view this.", "badges": [], "created_at": "2025-06-17T23:15:31.465-04:00", "updated_at": "2025-07-03T19:45:23.411-04:00", "avatar": "https://avatars.slack-edge.com/2025-06-17/9066726574692_ff3a89cbd0c1d08935d4_original.jpg", "custom_css": null}, {"id": 7772, "slack_id": "U086HJ78ACU", "display_name": "xuhan", "bio": null, "projects_count": 3, "devlogs_count": 25, "votes_count": 47, "ships_count": 3, "projects": [{"id": 1506, "title": "Gomoku", "devlogs_count": 6, "created_at": "2025-06-18T16:45:20.208-04:00"}, {"id": 1456, "title": "Extract: Zombie Shooter", "devlogs_count": 15, "created_at": "2025-06-18T15:30:22.585-04:00"}, {"id": 6658, "title": "The Unconventional Units Converter", "devlogs_count": 4, "created_at": "2025-07-14T22:23:24.548-04:00"}], "coding_time_seconds": 343233, "coding_time_seconds_today": 0, "balance": "You need to have a pocket watcher badge to view this.", "badges": [{"name": "Maiden Voyage", "text": "you shipped your first project! the journey begins...", "icon": "\ud83d\udea2"}], "created_at": "2025-06-17T23:15:46.531-04:00", "updated_at": "2025-09-10T22:55:01.273-04:00", "avatar": "https://avatars.slack-edge.com/2024-12-24/8212515885030_d50f5dcfa8250d97c139_original.jpg", "custom_css": null}, {"id": 7773, "slack_id": "U091H3DT7V5", "display_name": "Istiyak Amin", "bio": null, "projects_count": 0, "devlogs_count": 0, "votes_count": 0, "ships_count": 0, "projects": [], "coding_time_seconds": 0, "coding_time_seconds_today": 0, "balance": "You need to have a pocket watcher badge to view this.", "badges": [], "created_at": "2025-06-17T23:15:54.389-04:00", "updated_at": "2025-07-03T19:45:23.956-04:00", "avatar": "https://secure.gravatar.com/avatar/ce29711c7d0e48866e08354779b617ee.jpg?s=512&d=https%3A%2F%2Fa.slack-edge.com%2Fdf10d%2Fimg%2Favatars%2Fava_0026-512.png", "custom_css": null}, {"id": 7774, "slack_id": "U091TTZ4BGD", "display_name": "Lai Agojo", "bio": null, "projects_count": 0, "devlogs_count": 0, "votes_count": 0, "ships_count": 0, "projects": [], "coding_time_seconds": 0, "coding_time_seconds_today": 0, "balance": "You need to have a pocket watcher badge to view this.", "badges": [], "created_at": "2025-06-17T23:16:55.973-04:00", "updated_at": "2025-07-03T19:45:24.229-04:00", "avatar": "https://secure.gravatar.com/avatar/18702d443acfc37afbc1c69810131c6b.jpg?s=512&d=https%3A%2F%2Fa.slack-edge.com%2Fdf10d%2Fimg%2Favatars%2Fava_0002-512.png", "custom_css": null}, {"id": 7775, "slack_id": "U091RT0DCVC", "display_name": "hakumai", "bio": null, "projects_count": 0, "devlogs_count": 0, "votes_count": 0, "ships_count": 0, "projects": [], "coding_time_seconds": 0, "coding_time_seconds_today": 0, "balance": "You need to have a pocket watcher badge to view this.", "badges": [], "created_at": "2025-06-17T23:16:57.774-04:00", "updated_at": "2025-07-03T21:57:41.973-04:00", "avatar": "https://secure.gravatar.com/avatar/c216aa6a4a5faa9a0c0fed3f60762252.jpg?s=512&d=https%3A%2F%2Fa.slack-edge.com%2Fdf10d%2Fimg%2Favatars%2Fava_0021-512.png", "custom_css": null}, {"id": 7776, "slack_id": "U091G81FRE2", "display_name": "Pranav Saraswat", "bio": null, "projects_count": 0, "devlogs_count": 0, "votes_count": 0, "ships_count": 0, "projects": [], "coding_time_seconds": 33411, "coding_time_seconds_today": 0, "balance": "You need to have a pocket watcher badge to view this.", "badges": [], "created_at": "2025-06-17T23:17:17.087-04:00", "updated_at": "2025-07-03T19:45:24.629-04:00", "avatar": "https://secure.gravatar.com/avatar/19ebed0fea537b13a134c7d5670148a3.jpg?s=512&d=https%3A%2F%2Fa.slack-edge.com%2Fdf10d%2Fimg%2Favatars%2Fava_0014-512.png", "custom_css": null}, {"id": 7777, "slack_id": "U091YMBUML4", "display_name": "ThongVDab", "bio": null, "projects_count": 0, "devlogs_count": 0, "votes_count": 0, "ships_count": 0, "projects": [], "coding_time_seconds": 0, "coding_time_seconds_today": 0, "balance": "You need to have a pocket watcher badge to view this.", "badges": [], "created_at": "2025-06-17T23:19:13.408-04:00", "updated_at": "2025-07-03T21:57:42.138-04:00", "avatar": "https://secure.gravatar.com/avatar/f534e45ee463dd311e3dbddf7e3b879b.jpg?s=512&d=https%3A%2F%2Fa.slack-edge.com%2Fdf10d%2Fimg%2Favatars%2Fava_0010-512.png", "custom_css": null}, {"id": 7778, "slack_id": "U092LN5SCJC", "display_name": "Utkarsh Choudhary", "bio": null, "projects_count": 0, "devlogs_count": 0, "votes_count": 0, "ships_count": 0, "projects": [], "coding_time_seconds": 0, "coding_time_seconds_today": 0, "balance": "You need to have a pocket watcher badge to view this.", "badges": [], "created_at": "2025-06-17T23:22:03.585-04:00", "updated_at": "2025-07-04T08:23:26.445-04:00", "avatar": "https://secure.gravatar.com/avatar/4db2d11f22459c4ad1da0481e8d7f09a.jpg?s=512&d=https%3A%2F%2Fa.slack-edge.com%2Fdf10d%2Fimg%2Favatars%2Fava_0008-512.png", "custom_css": null}, {"id": 7779, "slack_id": "U08QP5Z2N8J", "display_name": "Lin", "bio": null, "projects_count": 0, "devlogs_count": 0, "votes_count": 0, "ships_count": 0, "projects": [], "coding_time_seconds": 271589, "coding_time_seconds_today": 671, "balance": "You need to have a pocket watcher badge to view this.", "badges": [], "created_at": "2025-06-17T23:22:24.331-04:00", "updated_at": "2025-07-03T19:45:25.522-04:00", "avatar": "https://secure.gravatar.com/avatar/a921c40bf9d6f0594aabaf44a1bdac2d.jpg?s=512&d=https%3A%2F%2Fa.slack-edge.com%2Fdf10d%2Fimg%2Favatars%2Fava_0002-512.png", "custom_css": null}, {"id": 7780, "slack_id": "U091RTFVCTY", "display_name": "Muhammad Anas Kusuma Amir", "bio": null, "projects_count": 0, "devlogs_count": 0, "votes_count": 0, "ships_count": 0, "projects": [], "coding_time_seconds": 310388, "coding_time_seconds_today": 0, "balance": "You need to have a pocket watcher badge to view this.", "badges": [], "created_at": "2025-06-17T23:23:32.065-04:00", "updated_at": "2025-07-03T19:45:25.801-04:00", "avatar": "https://secure.gravatar.com/avatar/20639bf71374e49f91fa5dd241d49178.jpg?s=512&d=https%3A%2F%2Fa.slack-edge.com%2Fdf10d%2Fimg%2Favatars%2Fava_0004-512.png", "custom_css": null}], "pagination": {"page": 389, "pages": 1192, "count": 23828, "items": 20}}