{"users": [{"id": 761, "slack_id": "U0917T9LC79", "display_name": "kritarth", "bio": null, "projects_count": 0, "devlogs_count": 0, "votes_count": 0, "ships_count": 0, "projects": [], "coding_time_seconds": 0, "coding_time_seconds_today": 0, "balance": "You need to have a pocket watcher badge to view this.", "badges": [], "created_at": "2025-06-16T12:14:47.727-04:00", "updated_at": "2025-07-03T19:14:28.419-04:00", "avatar": "https://secure.gravatar.com/avatar/9dad3eafa590fc8e877425d5970b9daa.jpg?s=512&d=https%3A%2F%2Fa.slack-edge.com%2Fdf10d%2Fimg%2Favatars%2Fava_0021-512.png", "custom_css": null}, {"id": 762, "slack_id": "U091GAMJJDC", "display_name": "Hugo Olda", "bio": null, "projects_count": 0, "devlogs_count": 0, "votes_count": 0, "ships_count": 0, "projects": [], "coding_time_seconds": 0, "coding_time_seconds_today": 0, "balance": "You need to have a pocket watcher badge to view this.", "badges": [], "created_at": "2025-06-16T12:14:52.362-04:00", "updated_at": "2025-07-03T19:14:28.708-04:00", "avatar": "https://secure.gravatar.com/avatar/df5cc81a2ab0f0bdf571ccb26170002e.jpg?s=512&d=https%3A%2F%2Fa.slack-edge.com%2Fdf10d%2Fimg%2Favatars%2Fava_0004-512.png", "custom_css": null}, {"id": 763, "slack_id": "U091NV8F7J6", "display_name": "Ali Macky", "bio": null, "projects_count": 1, "devlogs_count": 3, "votes_count": 0, "ships_count": 0, "projects": [{"id": 353, "title": "Huda", "devlogs_count": 3, "created_at": "2025-06-16T18:57:13.227-04:00"}], "coding_time_seconds": 12631, "coding_time_seconds_today": 0, "balance": "You need to have a pocket watcher badge to view this.", "badges": [], "created_at": "2025-06-16T12:14:55.944-04:00", "updated_at": "2025-07-03T19:14:28.971-04:00", "avatar": "https://secure.gravatar.com/avatar/683129b82361247d8aa9e92cf1cafeb2.jpg?s=512&d=https%3A%2F%2Fa.slack-edge.com%2Fdf10d%2Fimg%2Favatars%2Fava_0001-512.png", "custom_css": null}, {"id": 764, "slack_id": "U092BLW8124", "display_name": "Abhishek Verma", "bio": null, "projects_count": 0, "devlogs_count": 0, "votes_count": 0, "ships_count": 0, "projects": [], "coding_time_seconds": 0, "coding_time_seconds_today": 0, "balance": "You need to have a pocket watcher badge to view this.", "badges": [], "created_at": "2025-06-16T12:15:05.292-04:00", "updated_at": "2025-07-03T19:14:29.247-04:00", "avatar": "https://secure.gravatar.com/avatar/46e5949f350829186bb3974ebc8954bc.jpg?s=512&d=https%3A%2F%2Fa.slack-edge.com%2Fdf10d%2Fimg%2Favatars%2Fava_0021-512.png", "custom_css": null}, {"id": 765, "slack_id": "U092BLYDJ72", "display_name": "XYZ", "bio": null, "projects_count": 0, "devlogs_count": 0, "votes_count": 0, "ships_count": 0, "projects": [], "coding_time_seconds": 0, "coding_time_seconds_today": 0, "balance": "You need to have a pocket watcher badge to view this.", "badges": [], "created_at": "2025-06-16T12:15:05.863-04:00", "updated_at": "2025-07-03T19:14:29.519-04:00", "avatar": "https://secure.gravatar.com/avatar/d991900f583fa0cefbe18ae2fb7c870b.jpg?s=512&d=https%3A%2F%2Fa.slack-edge.com%2Fdf10d%2Fimg%2Favatars%2Fava_0025-512.png", "custom_css": null}, {"id": 766, "slack_id": "U07RLARSK6K", "display_name": "Youssef Ahmed", "bio": null, "projects_count": 1, "devlogs_count": 1, "votes_count": 22, "ships_count": 1, "projects": [{"id": 5020, "title": "Jawa", "devlogs_count": 1, "created_at": "2025-07-02T18:27:52.428-04:00"}], "coding_time_seconds": 82542, "coding_time_seconds_today": 0, "balance": "You need to have a pocket watcher badge to view this.", "badges": [{"name": "Maiden Voyage", "text": "you shipped your first project! the journey begins...", "icon": "\ud83d\udea2"}], "created_at": "2025-06-16T12:15:16.507-04:00", "updated_at": "2025-09-10T22:51:31.613-04:00", "avatar": "https://avatars.slack-edge.com/2024-10-15/7897691799089_90c90834ee19749fa928_original.png", "custom_css": null}, {"id": 767, "slack_id": "U091MDHJESH", "display_name": "Raju D", "bio": null, "projects_count": 0, "devlogs_count": 0, "votes_count": 0, "ships_count": 0, "projects": [], "coding_time_seconds": 0, "coding_time_seconds_today": 0, "balance": "You need to have a pocket watcher badge to view this.", "badges": [], "created_at": "2025-06-16T12:15:19.094-04:00", "updated_at": "2025-08-18T23:41:02.321-04:00", "avatar": "https://avatars.slack-edge.com/2025-06-16/9041947263319_6d3b0b59b9e673a00191_original.png", "custom_css": null}, {"id": 768, "slack_id": "U0921PG9PPB", "display_name": "Raul Paul", "bio": null, "projects_count": 0, "devlogs_count": 0, "votes_count": 0, "ships_count": 0, "projects": [], "coding_time_seconds": 0, "coding_time_seconds_today": 0, "balance": "You need to have a pocket watcher badge to view this.", "badges": [], "created_at": "2025-06-16T12:15:21.818-04:00", "updated_at": "2025-07-03T19:14:30.366-04:00", "avatar": "https://secure.gravatar.com/avatar/42d9a1fd886ae69989b0189188b9c2fe.jpg?s=512&d=https%3A%2F%2Fa.slack-edge.com%2Fdf10d%2Fimg%2Favatars%2Fava_0015-512.png", "custom_css": null}, {"id": 769, "slack_id": "U091GAMUNBY", "display_name": "Arnab Majee", "bio": null, "projects_count": 0, "devlogs_count": 0, "votes_count": 0, "ships_count": 0, "projects": [], "coding_time_seconds": 0, "coding_time_seconds_today": 0, "balance": "You need to have a pocket watcher badge to view this.", "badges": [], "created_at": "2025-06-16T12:15:31.853-04:00", "updated_at": "2025-07-16T02:01:04.952-04:00", "avatar": "https://secure.gravatar.com/avatar/0bceeb28feb5dc55c4c02cfb37c586e4.jpg?s=512&d=https%3A%2F%2Fa.slack-edge.com%2Fdf10d%2Fimg%2Favatars%2Fava_0003-512.png", "custom_css": null}, {"id": 770, "slack_id": "U04GJH9JV2R", "display_name": "Edward Choi", "bio": null, "projects_count": 4, "devlogs_count": 3, "votes_count": 3, "ships_count": 0, "projects": [{"id": 299, "title": "awaken game", "devlogs_count": 0, "created_at": "2025-06-16T17:31:07.781-04:00"}, {"id": 2032, "title": "2d game engine", "devlogs_count": 0, "created_at": "2025-06-20T00:12:13.454-04:00"}, {"id": 2610, "title": "summer game", "devlogs_count": 0, "created_at": "2025-06-21T12:47:14.904-04:00"}, {"id": 3997, "title": "lua game", "devlogs_count": 3, "created_at": "2025-06-26T18:34:53.587-04:00"}], "coding_time_seconds": 52135, "coding_time_seconds_today": 0, "balance": "You need to have a pocket watcher badge to view this.", "badges": [], "created_at": "2025-06-16T12:15:33.851-04:00", "updated_at": "2025-07-03T19:14:30.935-04:00", "avatar": "https://avatars.slack-edge.com/2022-12-25/4558986629158_e13f638e7b027bb8882e_original.webp", "custom_css": null}, {"id": 771, "slack_id": "U07UDATMUSH", "display_name": "laitdsgn", "bio": null, "projects_count": 1, "devlogs_count": 1, "votes_count": 16, "ships_count": 1, "projects": [{"id": 5466, "title": "Flip Bot - C# bot for finding iphone deals on olx.pl", "devlogs_count": 1, "created_at": "2025-07-05T13:24:36.276-04:00"}], "coding_time_seconds": 83338, "coding_time_seconds_today": 0, "balance": "You need to have a pocket watcher badge to view this.", "badges": [{"name": "Maiden Voyage", "text": "you shipped your first project! the journey begins...", "icon": "\ud83d\udea2"}], "created_at": "2025-06-16T12:15:35.471-04:00", "updated_at": "2025-09-10T22:51:31.768-04:00", "avatar": "https://avatars.slack-edge.com/2024-11-26/8110264831536_2734542a6b6ff2574024_original.jpg", "custom_css": null}, {"id": 772, "slack_id": "U091G7W70CT", "display_name": "PiyushY111", "bio": null, "projects_count": 0, "devlogs_count": 0, "votes_count": 0, "ships_count": 0, "projects": [], "coding_time_seconds": 0, "coding_time_seconds_today": 0, "balance": "You need to have a pocket watcher badge to view this.", "badges": [], "created_at": "2025-06-16T12:15:36.033-04:00", "updated_at": "2025-07-03T19:14:31.489-04:00", "avatar": "https://secure.gravatar.com/avatar/d0537a2b4a63520dd08f23fb8efd4516.jpg?s=512&d=https%3A%2F%2Fa.slack-edge.com%2Fdf10d%2Fimg%2Favatars%2Fava_0025-512.png", "custom_css": null}, {"id": 773, "slack_id": "U0789R39ZHU", "display_name": "Poyo the lotus biscoff gangsta", "bio": "I usually code cool stuff, but this summer I ran out of creative ideas D:", "projects_count": 2, "devlogs_count": 38, "votes_count": 40, "ships_count": 2, "projects": [{"id": 12582, "title": "GET REKT!!! - Fake \"dox\" your friends", "devlogs_count": 2, "created_at": "2025-08-30T06:38:04.538-04:00"}, {"id": 12911, "title": "Dofi - Fantasy Console", "devlogs_count": 12, "created_at": "2025-09-05T06:13:54.999-04:00"}], "coding_time_seconds": 538819, "coding_time_seconds_today": 0, "balance": "You need to have a pocket watcher badge to view this.", "badges": [{"name": "Maiden Voyage", "text": "you shipped your first project! the journey begins...", "icon": "\ud83d\udea2"}], "created_at": "2025-06-16T12:15:36.203-04:00", "updated_at": "2025-09-10T22:51:31.830-04:00", "avatar": "https://avatars.slack-edge.com/2025-07-04/9142862570355_ce314c6e06e9444abeb8_original.png", "custom_css": null}, {"id": 774, "slack_id": "U091PKN8T60", "display_name": "Aman Julka", "bio": null, "projects_count": 0, "devlogs_count": 0, "votes_count": 0, "ships_count": 0, "projects": [], "coding_time_seconds": 0, "coding_time_seconds_today": 0, "balance": "You need to have a pocket watcher badge to view this.", "badges": [], "created_at": "2025-06-16T12:15:37.427-04:00", "updated_at": "2025-07-03T19:14:32.026-04:00", "avatar": "https://secure.gravatar.com/avatar/6b28774daaee3301c55764af1c259466.jpg?s=512&d=https%3A%2F%2Fa.slack-edge.com%2Fdf10d%2Fimg%2Favatars%2Fava_0017-512.png", "custom_css": null}, {"id": 775, "slack_id": "U09214DE4M7", "display_name": "Denys", "bio": null, "projects_count": 0, "devlogs_count": 0, "votes_count": 0, "ships_count": 0, "projects": [], "coding_time_seconds": 0, "coding_time_seconds_today": 0, "balance": "You need to have a pocket watcher badge to view this.", "badges": [], "created_at": "2025-06-16T12:15:40.259-04:00", "updated_at": "2025-07-03T19:14:32.295-04:00", "avatar": "https://secure.gravatar.com/avatar/3cd16432e178700f425e5397207cd8d8.jpg?s=512&d=https%3A%2F%2Fa.slack-edge.com%2Fdf10d%2Fimg%2Favatars%2Fava_0013-512.png", "custom_css": null}, {"id": 776, "slack_id": "U091NHLA9D0", "display_name": "Dogu Cigsar", "bio": null, "projects_count": 0, "devlogs_count": 0, "votes_count": 0, "ships_count": 0, "projects": [], "coding_time_seconds": 0, "coding_time_seconds_today": 0, "balance": "You need to have a pocket watcher badge to view this.", "badges": [], "created_at": "2025-06-16T12:15:43.026-04:00", "updated_at": "2025-07-03T19:14:32.590-04:00", "avatar": "https://secure.gravatar.com/avatar/eccd57e9840e1414f8832d233fde263b.jpg?s=512&d=https%3A%2F%2Fa.slack-edge.com%2Fdf10d%2Fimg%2Favatars%2Fava_0008-512.png", "custom_css": null}, {"id": 777, "slack_id": "U092BM265CG", "display_name": "Ashder Karim", "bio": null, "projects_count": 0, "devlogs_count": 0, "votes_count": 0, "ships_count": 0, "projects": [], "coding_time_seconds": 0, "coding_time_seconds_today": 0, "balance": "You need to have a pocket watcher badge to view this.", "badges": [], "created_at": "2025-06-16T12:15:55.707-04:00", "updated_at": "2025-07-03T19:14:32.865-04:00", "avatar": "https://secure.gravatar.com/avatar/3fc035871e22aeb7598d9a72f5218fab.jpg?s=512&d=https%3A%2F%2Fa.slack-edge.com%2Fdf10d%2Fimg%2Favatars%2Fava_0012-512.png", "custom_css": null}, {"id": 778, "slack_id": "U091P71CZEW", "display_name": "Adrian", "bio": null, "projects_count": 0, "devlogs_count": 0, "votes_count": 0, "ships_count": 0, "projects": [], "coding_time_seconds": 0, "coding_time_seconds_today": 0, "balance": "You need to have a pocket watcher badge to view this.", "badges": [], "created_at": "2025-06-16T12:16:05.253-04:00", "updated_at": "2025-07-03T19:14:33.150-04:00", "avatar": "https://secure.gravatar.com/avatar/e02e0a715aadc4c8f40eb384a3fb91e2.jpg?s=512&d=https%3A%2F%2Fa.slack-edge.com%2Fdf10d%2Fimg%2Favatars%2Fava_0002-512.png", "custom_css": null}, {"id": 779, "slack_id": "U0917T5BXRV", "display_name": "Bijay", "bio": null, "projects_count": 0, "devlogs_count": 0, "votes_count": 0, "ships_count": 0, "projects": [], "coding_time_seconds": 0, "coding_time_seconds_today": 0, "balance": "You need to have a pocket watcher badge to view this.", "badges": [], "created_at": "2025-06-16T12:16:08.344-04:00", "updated_at": "2025-07-03T19:14:33.423-04:00", "avatar": "https://secure.gravatar.com/avatar/ad09e5b647e2d89b78096e8fe52b5772.jpg?s=512&d=https%3A%2F%2Fa.slack-edge.com%2Fdf10d%2Fimg%2Favatars%2Fava_0015-512.png", "custom_css": null}, {"id": 780, "slack_id": "U092BLWCUE4", "display_name": "Harjot Singh", "bio": null, "projects_count": 0, "devlogs_count": 0, "votes_count": 0, "ships_count": 0, "projects": [], "coding_time_seconds": 0, "coding_time_seconds_today": 0, "balance": "You need to have a pocket watcher badge to view this.", "badges": [], "created_at": "2025-06-16T12:16:17.590-04:00", "updated_at": "2025-07-03T19:14:33.704-04:00", "avatar": "https://secure.gravatar.com/avatar/29f0365e8496a829b9e8fd9af0d920eb.jpg?s=512&d=https%3A%2F%2Fa.slack-edge.com%2Fdf10d%2Fimg%2Favatars%2Fava_0025-512.png", "custom_css": null}], "pagination": {"page": 39, "pages": 1192, "count": 23827, "items": 20}}