{"users": [{"id": 7781, "slack_id": "U091Y8W9EQJ", "display_name": "SHOUBHIT WANDILE", "bio": null, "projects_count": 0, "devlogs_count": 0, "votes_count": 0, "ships_count": 0, "projects": [], "coding_time_seconds": 937, "coding_time_seconds_today": 0, "balance": "You need to have a pocket watcher badge to view this.", "badges": [], "created_at": "2025-06-17T23:23:32.076-04:00", "updated_at": "2025-07-03T19:45:26.073-04:00", "avatar": "https://secure.gravatar.com/avatar/3835daef3e763d3bd119ac5c26204f61.jpg?s=512&d=https%3A%2F%2Fa.slack-edge.com%2Fdf10d%2Fimg%2Favatars%2Fava_0020-512.png", "custom_css": null}, {"id": 7782, "slack_id": "U091WPU2F6Z", "display_name": "Victor", "bio": null, "projects_count": 0, "devlogs_count": 0, "votes_count": 0, "ships_count": 0, "projects": [], "coding_time_seconds": 0, "coding_time_seconds_today": 0, "balance": "You need to have a pocket watcher badge to view this.", "badges": [], "created_at": "2025-06-17T23:24:34.878-04:00", "updated_at": "2025-07-03T21:57:42.504-04:00", "avatar": "https://secure.gravatar.com/avatar/da0c0a70725d272bec046978e61a34f9.jpg?s=512&d=https%3A%2F%2Fa.slack-edge.com%2Fdf10d%2Fimg%2Favatars%2Fava_0023-512.png", "custom_css": null}, {"id": 7783, "slack_id": "U091YMJ7RMJ", "display_name": "yusuf", "bio": null, "projects_count": 0, "devlogs_count": 0, "votes_count": 0, "ships_count": 0, "projects": [], "coding_time_seconds": 0, "coding_time_seconds_today": 0, "balance": "You need to have a pocket watcher badge to view this.", "badges": [], "created_at": "2025-06-17T23:26:01.670-04:00", "updated_at": "2025-07-04T02:27:09.366-04:00", "avatar": "https://secure.gravatar.com/avatar/52d1f90af9c261f809e5e28d0014700d.jpg?s=512&d=https%3A%2F%2Fa.slack-edge.com%2Fdf10d%2Fimg%2Favatars%2Fava_0023-512.png", "custom_css": null}, {"id": 7784, "slack_id": "U091PMFR62E", "display_name": "mahesh", "bio": null, "projects_count": 0, "devlogs_count": 0, "votes_count": 0, "ships_count": 0, "projects": [], "coding_time_seconds": 0, "coding_time_seconds_today": 0, "balance": "You need to have a pocket watcher badge to view this.", "badges": [], "created_at": "2025-06-17T23:26:39.478-04:00", "updated_at": "2025-07-03T19:45:26.600-04:00", "avatar": "https://secure.gravatar.com/avatar/ff1afa6978989f5294ffbe790973d80d.jpg?s=512&d=https%3A%2F%2Fa.slack-edge.com%2Fdf10d%2Fimg%2Favatars%2Fava_0020-512.png", "custom_css": null}, {"id": 7785, "slack_id": "U091YMX4068", "display_name": "Younes Benelmegarni", "bio": null, "projects_count": 0, "devlogs_count": 0, "votes_count": 0, "ships_count": 0, "projects": [], "coding_time_seconds": 0, "coding_time_seconds_today": 0, "balance": "You need to have a pocket watcher badge to view this.", "badges": [], "created_at": "2025-06-17T23:26:50.948-04:00", "updated_at": "2025-07-07T14:38:54.692-04:00", "avatar": "https://avatars.slack-edge.com/2025-06-17/9066756460948_55ae0fb2223227873502_original.png", "custom_css": null}, {"id": 7786, "slack_id": "U091W31FQDB", "display_name": "Manha H", "bio": null, "projects_count": 0, "devlogs_count": 0, "votes_count": 0, "ships_count": 0, "projects": [], "coding_time_seconds": 0, "coding_time_seconds_today": 0, "balance": "You need to have a pocket watcher badge to view this.", "badges": [], "created_at": "2025-06-17T23:27:48.055-04:00", "updated_at": "2025-07-03T19:45:27.012-04:00", "avatar": "https://secure.gravatar.com/avatar/08e6e12b9bc7aa9ca5a3e92bba77bd92.jpg?s=512&d=https%3A%2F%2Fa.slack-edge.com%2Fdf10d%2Fimg%2Favatars%2Fava_0015-512.png", "custom_css": null}, {"id": 7787, "slack_id": "U091WPGP37X", "display_name": "Golla Rambabu", "bio": null, "projects_count": 0, "devlogs_count": 0, "votes_count": 0, "ships_count": 0, "projects": [], "coding_time_seconds": 7360, "coding_time_seconds_today": 0, "balance": "You need to have a pocket watcher badge to view this.", "badges": [], "created_at": "2025-06-17T23:28:36.697-04:00", "updated_at": "2025-07-03T19:45:27.278-04:00", "avatar": "https://secure.gravatar.com/avatar/a60461412e48513169cd8aea0b55b91d.jpg?s=512&d=https%3A%2F%2Fa.slack-edge.com%2Fdf10d%2Fimg%2Favatars%2Fava_0001-512.png", "custom_css": null}, {"id": 7788, "slack_id": "U08TYFNC9GC", "display_name": "sprinkles", "bio": null, "projects_count": 0, "devlogs_count": 0, "votes_count": 1, "ships_count": 0, "projects": [], "coding_time_seconds": 66248, "coding_time_seconds_today": 0, "balance": "You need to have a pocket watcher badge to view this.", "badges": [], "created_at": "2025-06-17T23:29:05.916-04:00", "updated_at": "2025-07-03T19:45:27.546-04:00", "avatar": "https://avatars.slack-edge.com/2025-05-24/8934947692519_4af5b394c98fb8cc6358_original.png", "custom_css": null}, {"id": 7789, "slack_id": "U092LNQJPR6", "display_name": "Luighi", "bio": null, "projects_count": 0, "devlogs_count": 0, "votes_count": 0, "ships_count": 0, "projects": [], "coding_time_seconds": 0, "coding_time_seconds_today": 0, "balance": "You need to have a pocket watcher badge to view this.", "badges": [], "created_at": "2025-06-17T23:29:06.469-04:00", "updated_at": "2025-07-03T19:45:27.821-04:00", "avatar": "https://secure.gravatar.com/avatar/95549694fd7ad940a750b804304b1f15.jpg?s=512&d=https%3A%2F%2Fa.slack-edge.com%2Fdf10d%2Fimg%2Favatars%2Fava_0006-512.png", "custom_css": null}, {"id": 7790, "slack_id": "U091RTY8UAJ", "display_name": "Martin", "bio": null, "projects_count": 0, "devlogs_count": 3, "votes_count": 1, "ships_count": 0, "projects": [], "coding_time_seconds": 69436, "coding_time_seconds_today": 0, "balance": "You need to have a pocket watcher badge to view this.", "badges": [], "created_at": "2025-06-17T23:29:38.248-04:00", "updated_at": "2025-08-25T12:51:56.616-04:00", "avatar": "https://secure.gravatar.com/avatar/c578aa24ed63336bc5c732cd61740e45.jpg?s=512&d=https%3A%2F%2Fa.slack-edge.com%2Fdf10d%2Fimg%2Favatars%2Fava_0010-512.png", "custom_css": null}, {"id": 7791, "slack_id": "U091YN7BLTW", "display_name": "Joel", "bio": null, "projects_count": 0, "devlogs_count": 0, "votes_count": 0, "ships_count": 0, "projects": [], "coding_time_seconds": 5458, "coding_time_seconds_today": 0, "balance": "You need to have a pocket watcher badge to view this.", "badges": [], "created_at": "2025-06-17T23:29:52.252-04:00", "updated_at": "2025-07-05T14:09:47.556-04:00", "avatar": "https://secure.gravatar.com/avatar/ef7cd617c18a54892529ea805519b66e.jpg?s=512&d=https%3A%2F%2Fa.slack-edge.com%2Fdf10d%2Fimg%2Favatars%2Fava_0019-512.png", "custom_css": null}, {"id": 7792, "slack_id": "U092FNVRQ5N", "display_name": "Yuvraj", "bio": null, "projects_count": 0, "devlogs_count": 0, "votes_count": 0, "ships_count": 0, "projects": [], "coding_time_seconds": 1800, "coding_time_seconds_today": 0, "balance": "You need to have a pocket watcher badge to view this.", "badges": [], "created_at": "2025-06-17T23:30:57.162-04:00", "updated_at": "2025-07-03T19:45:28.503-04:00", "avatar": "https://secure.gravatar.com/avatar/7b530100b4e538d489ab1b8b1bbb22b6.jpg?s=512&d=https%3A%2F%2Fa.slack-edge.com%2Fdf10d%2Fimg%2Favatars%2Fava_0013-512.png", "custom_css": null}, {"id": 7793, "slack_id": "U091H4VCXD5", "display_name": "Usman Ghani", "bio": null, "projects_count": 0, "devlogs_count": 0, "votes_count": 0, "ships_count": 0, "projects": [], "coding_time_seconds": 0, "coding_time_seconds_today": 0, "balance": "You need to have a pocket watcher badge to view this.", "badges": [], "created_at": "2025-06-17T23:31:45.452-04:00", "updated_at": "2025-07-07T02:09:55.280-04:00", "avatar": "https://avatars.slack-edge.com/2025-06-17/9066768638532_d3a96413d3e79f34ebcc_original.jpg", "custom_css": null}, {"id": 7794, "slack_id": "U091RUB940N", "display_name": "DARSHAN RAJPUT", "bio": null, "projects_count": 0, "devlogs_count": 0, "votes_count": 0, "ships_count": 0, "projects": [], "coding_time_seconds": 0, "coding_time_seconds_today": 0, "balance": "You need to have a pocket watcher badge to view this.", "badges": [], "created_at": "2025-06-17T23:32:44.416-04:00", "updated_at": "2025-07-03T21:45:48.797-04:00", "avatar": "https://avatars.slack-edge.com/2025-06-17/9066338548290_e44562140a65becb7942_original.png", "custom_css": null}, {"id": 7795, "slack_id": "U091RUEA72A", "display_name": "Prince Pun", "bio": null, "projects_count": 0, "devlogs_count": 0, "votes_count": 0, "ships_count": 0, "projects": [], "coding_time_seconds": 0, "coding_time_seconds_today": 0, "balance": "You need to have a pocket watcher badge to view this.", "badges": [], "created_at": "2025-06-17T23:33:24.199-04:00", "updated_at": "2025-07-03T21:45:48.902-04:00", "avatar": "https://secure.gravatar.com/avatar/2d4ac0b6031fa5877c9198f78d698dea.jpg?s=512&d=https%3A%2F%2Fa.slack-edge.com%2Fdf10d%2Fimg%2Favatars%2Fava_0020-512.png", "custom_css": null}, {"id": 7796, "slack_id": "U091GQ9JC4F", "display_name": "Linus Honer", "bio": null, "projects_count": 0, "devlogs_count": 0, "votes_count": 0, "ships_count": 0, "projects": [], "coding_time_seconds": 0, "coding_time_seconds_today": 0, "balance": "You need to have a pocket watcher badge to view this.", "badges": [], "created_at": "2025-06-17T23:34:00.775-04:00", "updated_at": "2025-07-03T19:45:29.168-04:00", "avatar": "https://secure.gravatar.com/avatar/7b6b35a630d1f007c1ee9b17e2b3315b.jpg?s=512&d=https%3A%2F%2Fa.slack-edge.com%2Fdf10d%2Fimg%2Favatars%2Fava_0019-512.png", "custom_css": null}, {"id": 7797, "slack_id": "U091H58CCPR", "display_name": "Sasikumar S", "bio": null, "projects_count": 0, "devlogs_count": 0, "votes_count": 0, "ships_count": 0, "projects": [], "coding_time_seconds": 0, "coding_time_seconds_today": 0, "balance": "You need to have a pocket watcher badge to view this.", "badges": [], "created_at": "2025-06-17T23:37:58.160-04:00", "updated_at": "2025-07-03T19:45:29.432-04:00", "avatar": "https://secure.gravatar.com/avatar/c645287a8b6aa748c43e79225639973f.jpg?s=512&d=https%3A%2F%2Fa.slack-edge.com%2Fdf10d%2Fimg%2Favatars%2Fava_0012-512.png", "custom_css": null}, {"id": 7798, "slack_id": "U091YLB36BE", "display_name": "Abhijeet Shashwat", "bio": null, "projects_count": 0, "devlogs_count": 0, "votes_count": 0, "ships_count": 0, "projects": [], "coding_time_seconds": 51, "coding_time_seconds_today": 0, "balance": "You need to have a pocket watcher badge to view this.", "badges": [], "created_at": "2025-06-17T23:38:07.984-04:00", "updated_at": "2025-07-05T08:09:03.660-04:00", "avatar": "https://secure.gravatar.com/avatar/e85f0554b8a423c36d057c6662e7db1e.jpg?s=512&d=https%3A%2F%2Fa.slack-edge.com%2Fdf10d%2Fimg%2Favatars%2Fava_0010-512.png", "custom_css": null}, {"id": 7799, "slack_id": "U091TQTBNQ5", "display_name": "Malia", "bio": null, "projects_count": 0, "devlogs_count": 0, "votes_count": 0, "ships_count": 0, "projects": [], "coding_time_seconds": 0, "coding_time_seconds_today": 0, "balance": "You need to have a pocket watcher badge to view this.", "badges": [], "created_at": "2025-06-17T23:38:17.107-04:00", "updated_at": "2025-07-04T08:23:27.871-04:00", "avatar": "https://secure.gravatar.com/avatar/ee9157c990adf77952eea3881b04f92b.jpg?s=512&d=https%3A%2F%2Fa.slack-edge.com%2Fdf10d%2Fimg%2Favatars%2Fava_0002-512.png", "custom_css": null}, {"id": 7800, "slack_id": "U091Y9WM4FL", "display_name": "Aarush Goradia", "bio": null, "projects_count": 0, "devlogs_count": 0, "votes_count": 0, "ships_count": 0, "projects": [], "coding_time_seconds": 0, "coding_time_seconds_today": 0, "balance": "You need to have a pocket watcher badge to view this.", "badges": [], "created_at": "2025-06-17T23:38:53.685-04:00", "updated_at": "2025-07-03T19:45:30.003-04:00", "avatar": "https://avatars.slack-edge.com/2025-06-17/9051194289191_0f1134cbbc0b162d77ba_original.jpg", "custom_css": null}], "pagination": {"page": 390, "pages": 1192, "count": 23828, "items": 20}}