{"users": [{"id": 7801, "slack_id": "U07UPK0PPUL", "display_name": "Battle Cats Sweater", "bio": null, "projects_count": 1, "devlogs_count": 3, "votes_count": 0, "ships_count": 1, "projects": [{"id": 8496, "title": "Dodge Spike Curveball", "devlogs_count": 3, "created_at": "2025-07-27T15:07:45.634-04:00"}], "coding_time_seconds": 33001, "coding_time_seconds_today": 0, "balance": "You need to have a pocket watcher badge to view this.", "badges": [{"name": "Maiden Voyage", "text": "you shipped your first project! the journey begins...", "icon": "\ud83d\udea2"}], "created_at": "2025-06-17T23:40:04.116-04:00", "updated_at": "2025-09-10T22:55:02.283-04:00", "avatar": "https://avatars.slack-edge.com/2025-03-31/8688738068243_5fa2a7138bfc55d57d89_original.png", "custom_css": null}, {"id": 7802, "slack_id": "U091RUYRTRU", "display_name": "Lucas", "bio": null, "projects_count": 0, "devlogs_count": 0, "votes_count": 0, "ships_count": 0, "projects": [], "coding_time_seconds": 10231, "coding_time_seconds_today": 0, "balance": "You need to have a pocket watcher badge to view this.", "badges": [], "created_at": "2025-06-17T23:40:51.060-04:00", "updated_at": "2025-07-03T19:45:30.537-04:00", "avatar": "https://secure.gravatar.com/avatar/a86defcd2f3d52157b54bcdeba13b07a.jpg?s=512&d=https%3A%2F%2Fa.slack-edge.com%2Fdf10d%2Fimg%2Favatars%2Fava_0000-512.png", "custom_css": null}, {"id": 7803, "slack_id": "U092LPJFFH6", "display_name": "Johne Medel", "bio": null, "projects_count": 0, "devlogs_count": 0, "votes_count": 0, "ships_count": 0, "projects": [], "coding_time_seconds": 0, "coding_time_seconds_today": 0, "balance": "You need to have a pocket watcher badge to view this.", "badges": [], "created_at": "2025-06-17T23:40:55.918-04:00", "updated_at": "2025-07-03T19:45:30.804-04:00", "avatar": "https://avatars.slack-edge.com/2025-06-17/9066358053346_e77d7f0c7a17d166facd_original.png", "custom_css": null}, {"id": 7804, "slack_id": "U092LPNH1FS", "display_name": "aayush", "bio": null, "projects_count": 0, "devlogs_count": 0, "votes_count": 0, "ships_count": 0, "projects": [], "coding_time_seconds": 0, "coding_time_seconds_today": 0, "balance": "You need to have a pocket watcher badge to view this.", "badges": [], "created_at": "2025-06-17T23:42:24.217-04:00", "updated_at": "2025-07-03T19:45:31.073-04:00", "avatar": "https://secure.gravatar.com/avatar/4198219c10edbed82151be3f9f34330d.jpg?s=512&d=https%3A%2F%2Fa.slack-edge.com%2Fdf10d%2Fimg%2Favatars%2Fava_0008-512.png", "custom_css": null}, {"id": 7805, "slack_id": "U091YP7TRJQ", "display_name": "Terensu777", "bio": null, "projects_count": 0, "devlogs_count": 0, "votes_count": 0, "ships_count": 0, "projects": [], "coding_time_seconds": 39486, "coding_time_seconds_today": 0, "balance": "You need to have a pocket watcher badge to view this.", "badges": [], "created_at": "2025-06-17T23:43:02.094-04:00", "updated_at": "2025-07-04T20:08:19.455-04:00", "avatar": "https://secure.gravatar.com/avatar/ed7a7bd70e4b0d7311824f58edb99307.jpg?s=512&d=https%3A%2F%2Fa.slack-edge.com%2Fdf10d%2Fimg%2Favatars%2Fava_0013-512.png", "custom_css": null}, {"id": 7806, "slack_id": "U091F5DFMK3", "display_name": "trisha", "bio": null, "projects_count": 0, "devlogs_count": 0, "votes_count": 0, "ships_count": 0, "projects": [], "coding_time_seconds": 0, "coding_time_seconds_today": 0, "balance": "You need to have a pocket watcher badge to view this.", "badges": [], "created_at": "2025-06-17T23:43:18.759-04:00", "updated_at": "2025-09-21T18:38:38.564-04:00", "avatar": "https://avatars.slack-edge.com/2025-09-21/9556274273218_76ede0d601d1b7a599fe_original.jpg", "custom_css": null}, {"id": 7807, "slack_id": "U091S9FGLTE", "display_name": "Saptarshi Sarkar", "bio": null, "projects_count": 0, "devlogs_count": 0, "votes_count": 0, "ships_count": 0, "projects": [], "coding_time_seconds": 306, "coding_time_seconds_today": 0, "balance": "You need to have a pocket watcher badge to view this.", "badges": [], "created_at": "2025-06-17T23:44:01.494-04:00", "updated_at": "2025-08-29T08:39:05.279-04:00", "avatar": "https://avatars.slack-edge.com/2025-08-29/9434386654052_e6999a18082015a25ec6_original.jpg", "custom_css": null}, {"id": 7808, "slack_id": "U092LPP16UQ", "display_name": "Bartu", "bio": null, "projects_count": 0, "devlogs_count": 0, "votes_count": 0, "ships_count": 0, "projects": [], "coding_time_seconds": 53664, "coding_time_seconds_today": 0, "balance": "You need to have a pocket watcher badge to view this.", "badges": [], "created_at": "2025-06-17T23:44:12.115-04:00", "updated_at": "2025-07-03T22:36:16.945-04:00", "avatar": "https://secure.gravatar.com/avatar/7c14b5245e0397b9c5b6c73e6a6e97b1.jpg?s=512&d=https%3A%2F%2Fa.slack-edge.com%2Fdf10d%2Fimg%2Favatars%2Fava_0017-512.png", "custom_css": null}, {"id": 7809, "slack_id": "U07AZEGA20Z", "display_name": "Neo The Great III", "bio": null, "projects_count": 2, "devlogs_count": 0, "votes_count": 0, "ships_count": 0, "projects": [{"id": 1768, "title": "FIRST Tech Challenge Off-season robot", "devlogs_count": 0, "created_at": "2025-06-19T07:49:58.567-04:00"}, {"id": 3329, "title": "MiniFRC11 Robot", "devlogs_count": 0, "created_at": "2025-06-23T20:54:24.045-04:00"}], "coding_time_seconds": 379, "coding_time_seconds_today": 0, "balance": "You need to have a pocket watcher badge to view this.", "badges": [], "created_at": "2025-06-17T23:45:43.990-04:00", "updated_at": "2025-07-04T08:23:28.571-04:00", "avatar": "https://avatars.slack-edge.com/2024-07-03/7368874794002_087759da501011346d15_original.jpg", "custom_css": null}, {"id": 7810, "slack_id": "U091RVAG98E", "display_name": "Alejandro M", "bio": null, "projects_count": 0, "devlogs_count": 0, "votes_count": 0, "ships_count": 0, "projects": [], "coding_time_seconds": 0, "coding_time_seconds_today": 0, "balance": "You need to have a pocket watcher badge to view this.", "badges": [], "created_at": "2025-06-17T23:45:59.547-04:00", "updated_at": "2025-07-03T19:45:32.145-04:00", "avatar": "https://secure.gravatar.com/avatar/c09a70c2eaa7a31a387772d9d8ad6e29.jpg?s=512&d=https%3A%2F%2Fa.slack-edge.com%2Fdf10d%2Fimg%2Favatars%2Fava_0002-512.png", "custom_css": null}, {"id": 7811, "slack_id": "U091YP9Q0SG", "display_name": "Metawat Rojniweth", "bio": null, "projects_count": 0, "devlogs_count": 0, "votes_count": 0, "ships_count": 0, "projects": [], "coding_time_seconds": 0, "coding_time_seconds_today": 0, "balance": "You need to have a pocket watcher badge to view this.", "badges": [], "created_at": "2025-06-17T23:46:00.553-04:00", "updated_at": "2025-07-03T19:45:32.411-04:00", "avatar": "https://avatars.slack-edge.com/2025-06-17/9066804709764_4f369c3e977d6fe6349b_original.jpg", "custom_css": null}, {"id": 7812, "slack_id": "U091WRLRL85", "display_name": "Jasmitha", "bio": null, "projects_count": 0, "devlogs_count": 0, "votes_count": 0, "ships_count": 0, "projects": [], "coding_time_seconds": 0, "coding_time_seconds_today": 0, "balance": "You need to have a pocket watcher badge to view this.", "badges": [], "created_at": "2025-06-17T23:47:56.114-04:00", "updated_at": "2025-07-03T19:45:32.682-04:00", "avatar": "https://secure.gravatar.com/avatar/62fabbab21f0358e02343db916ea2a79.jpg?s=512&d=https%3A%2F%2Fa.slack-edge.com%2Fdf10d%2Fimg%2Favatars%2Fava_0013-512.png", "custom_css": null}, {"id": 7813, "slack_id": "U092AV2BDMF", "display_name": "Adwik Sharma", "bio": null, "projects_count": 0, "devlogs_count": 0, "votes_count": 0, "ships_count": 0, "projects": [], "coding_time_seconds": 0, "coding_time_seconds_today": 0, "balance": "You need to have a pocket watcher badge to view this.", "badges": [], "created_at": "2025-06-17T23:48:33.864-04:00", "updated_at": "2025-07-05T14:09:49.451-04:00", "avatar": "https://secure.gravatar.com/avatar/230f8db6812858e3bb0a0627f7ed4639.jpg?s=512&d=https%3A%2F%2Fa.slack-edge.com%2Fdf10d%2Fimg%2Favatars%2Fava_0009-512.png", "custom_css": null}, {"id": 7814, "slack_id": "U091S04HMSA", "display_name": "GRAVIT", "bio": null, "projects_count": 0, "devlogs_count": 0, "votes_count": 0, "ships_count": 0, "projects": [], "coding_time_seconds": 13778, "coding_time_seconds_today": 0, "balance": "You need to have a pocket watcher badge to view this.", "badges": [], "created_at": "2025-06-17T23:49:17.937-04:00", "updated_at": "2025-07-03T19:45:33.428-04:00", "avatar": "https://avatars.slack-edge.com/2025-06-17/9079001487441_34bcf8cd893fb0a5593a_original.jpg", "custom_css": null}, {"id": 7815, "slack_id": "U091WRYK79T", "display_name": "Alchemist", "bio": null, "projects_count": 0, "devlogs_count": 0, "votes_count": 0, "ships_count": 0, "projects": [], "coding_time_seconds": 0, "coding_time_seconds_today": 0, "balance": "You need to have a pocket watcher badge to view this.", "badges": [], "created_at": "2025-06-17T23:52:38.234-04:00", "updated_at": "2025-07-03T19:45:33.714-04:00", "avatar": "https://secure.gravatar.com/avatar/b0b9847b79e3b566485881b0fa29d8ce.jpg?s=512&d=https%3A%2F%2Fa.slack-edge.com%2Fdf10d%2Fimg%2Favatars%2Fava_0014-512.png", "custom_css": null}, {"id": 7816, "slack_id": "U092EBXBL9E", "display_name": "Adekunle Bolaji Olaitan", "bio": null, "projects_count": 0, "devlogs_count": 0, "votes_count": 0, "ships_count": 0, "projects": [], "coding_time_seconds": 0, "coding_time_seconds_today": 0, "balance": "You need to have a pocket watcher badge to view this.", "badges": [], "created_at": "2025-06-17T23:53:43.717-04:00", "updated_at": "2025-07-05T20:09:07.371-04:00", "avatar": "https://secure.gravatar.com/avatar/f63ee5bf08056a37026ae162b4186e16.jpg?s=512&d=https%3A%2F%2Fa.slack-edge.com%2Fdf10d%2Fimg%2Favatars%2Fava_0012-512.png", "custom_css": null}, {"id": 7817, "slack_id": "U091YQ57TPE", "display_name": "luis", "bio": null, "projects_count": 0, "devlogs_count": 0, "votes_count": 0, "ships_count": 0, "projects": [], "coding_time_seconds": 0, "coding_time_seconds_today": 0, "balance": "You need to have a pocket watcher badge to view this.", "badges": [], "created_at": "2025-06-17T23:56:50.481-04:00", "updated_at": "2025-07-03T19:45:34.116-04:00", "avatar": "https://secure.gravatar.com/avatar/3604b98a44aa7e105093bca47ee0f8a1.jpg?s=512&d=https%3A%2F%2Fa.slack-edge.com%2Fdf10d%2Fimg%2Favatars%2Fava_0008-512.png", "custom_css": null}, {"id": 7818, "slack_id": "U091WSE4RQD", "display_name": "Siddharth Mali", "bio": null, "projects_count": 0, "devlogs_count": 0, "votes_count": 0, "ships_count": 0, "projects": [], "coding_time_seconds": 4888, "coding_time_seconds_today": 0, "balance": "You need to have a pocket watcher badge to view this.", "badges": [], "created_at": "2025-06-17T23:58:00.635-04:00", "updated_at": "2025-07-05T02:08:49.235-04:00", "avatar": "https://avatars.slack-edge.com/2025-06-17/9088855022736_79b628ca2c1233e61064_original.png", "custom_css": null}, {"id": 7819, "slack_id": "U092LQXE34G", "display_name": "Kartikey Tiwari", "bio": null, "projects_count": 0, "devlogs_count": 0, "votes_count": 0, "ships_count": 0, "projects": [], "coding_time_seconds": 0, "coding_time_seconds_today": 0, "balance": "You need to have a pocket watcher badge to view this.", "badges": [], "created_at": "2025-06-17T23:59:45.469-04:00", "updated_at": "2025-07-03T19:45:34.520-04:00", "avatar": "https://secure.gravatar.com/avatar/d844077e919e69b3eecff9eae55f0ad0.jpg?s=512&d=https%3A%2F%2Fa.slack-edge.com%2Fdf10d%2Fimg%2Favatars%2Fava_0010-512.png", "custom_css": null}, {"id": 7820, "slack_id": "U091P60GWCB", "display_name": "Suraj Prajapati", "bio": null, "projects_count": 0, "devlogs_count": 0, "votes_count": 0, "ships_count": 0, "projects": [], "coding_time_seconds": 0, "coding_time_seconds_today": 0, "balance": "You need to have a pocket watcher badge to view this.", "badges": [], "created_at": "2025-06-18T00:00:33.622-04:00", "updated_at": "2025-07-03T19:45:34.792-04:00", "avatar": "https://avatars.slack-edge.com/2025-06-18/9079408417073_fef968bd0efbeb35aa1e_original.png", "custom_css": null}], "pagination": {"page": 391, "pages": 1192, "count": 23828, "items": 20}}