{"users": [{"id": 7821, "slack_id": "U091RUNNCK0", "display_name": "rahul dadhich", "bio": null, "projects_count": 0, "devlogs_count": 0, "votes_count": 0, "ships_count": 0, "projects": [], "coding_time_seconds": 73081, "coding_time_seconds_today": 0, "balance": "You need to have a pocket watcher badge to view this.", "badges": [], "created_at": "2025-06-18T00:00:59.372-04:00", "updated_at": "2025-07-03T19:45:35.055-04:00", "avatar": "https://avatars.slack-edge.com/2025-06-17/9079034263233_ff6950701022d930c482_original.webp", "custom_css": null}, {"id": 7822, "slack_id": "U092CDB9D3J", "display_name": "Arijit Khanra", "bio": null, "projects_count": 0, "devlogs_count": 0, "votes_count": 0, "ships_count": 0, "projects": [], "coding_time_seconds": 0, "coding_time_seconds_today": 0, "balance": "You need to have a pocket watcher badge to view this.", "badges": [], "created_at": "2025-06-18T00:01:16.626-04:00", "updated_at": "2025-07-04T02:27:11.875-04:00", "avatar": "https://secure.gravatar.com/avatar/92a2b9cb74d7fb301ad2a07ee784e21f.jpg?s=512&d=https%3A%2F%2Fa.slack-edge.com%2Fdf10d%2Fimg%2Favatars%2Fava_0007-512.png", "custom_css": null}, {"id": 7823, "slack_id": "U091H7JP6NB", "display_name": "Minh Qu\u00e2n Cao", "bio": null, "projects_count": 0, "devlogs_count": 0, "votes_count": 0, "ships_count": 0, "projects": [], "coding_time_seconds": 0, "coding_time_seconds_today": 0, "balance": "You need to have a pocket watcher badge to view this.", "badges": [], "created_at": "2025-06-18T00:03:56.904-04:00", "updated_at": "2025-07-03T21:57:45.266-04:00", "avatar": "https://avatars.slack-edge.com/2025-06-17/9088876351824_42ce40d096f6f24480ce_original.png", "custom_css": null}, {"id": 7824, "slack_id": "U091YBL3HAN", "display_name": "crystal", "bio": null, "projects_count": 0, "devlogs_count": 0, "votes_count": 0, "ships_count": 0, "projects": [], "coding_time_seconds": 0, "coding_time_seconds_today": 0, "balance": "You need to have a pocket watcher badge to view this.", "badges": [], "created_at": "2025-06-18T00:04:09.055-04:00", "updated_at": "2025-07-03T19:45:35.586-04:00", "avatar": "https://secure.gravatar.com/avatar/8aea23faa42218562dc692689304d944.jpg?s=512&d=https%3A%2F%2Fa.slack-edge.com%2Fdf10d%2Fimg%2Favatars%2Fava_0022-512.png", "custom_css": null}, {"id": 7825, "slack_id": "U091RQRA8QK", "display_name": "Thomas", "bio": null, "projects_count": 0, "devlogs_count": 0, "votes_count": 0, "ships_count": 0, "projects": [], "coding_time_seconds": 0, "coding_time_seconds_today": 0, "balance": "You need to have a pocket watcher badge to view this.", "badges": [], "created_at": "2025-06-18T00:04:35.507-04:00", "updated_at": "2025-07-03T19:45:35.847-04:00", "avatar": "https://secure.gravatar.com/avatar/d10ee16eefaff3c15d2e4daae88ec5e2.jpg?s=512&d=https%3A%2F%2Fa.slack-edge.com%2Fdf10d%2Fimg%2Favatars%2Fava_0022-512.png", "custom_css": null}, {"id": 7826, "slack_id": "U091H7LHZPZ", "display_name": "Akhand Pratap Singh", "bio": null, "projects_count": 0, "devlogs_count": 0, "votes_count": 0, "ships_count": 0, "projects": [], "coding_time_seconds": 0, "coding_time_seconds_today": 0, "balance": "You need to have a pocket watcher badge to view this.", "badges": [], "created_at": "2025-06-18T00:04:46.384-04:00", "updated_at": "2025-07-03T19:45:36.140-04:00", "avatar": "https://avatars.slack-edge.com/2025-06-17/9088878429440_567bebb4e30e9cac9e70_original.jpg", "custom_css": null}, {"id": 7827, "slack_id": "U08S00249M3", "display_name": "Kendell", "bio": null, "projects_count": 4, "devlogs_count": 54, "votes_count": 60, "ships_count": 4, "projects": [{"id": 1868, "title": "Tangent", "devlogs_count": 24, "created_at": "2025-06-19T13:29:52.009-04:00"}, {"id": 11434, "title": "tinyentities", "devlogs_count": 11, "created_at": "2025-08-15T21:43:17.289-04:00"}, {"id": 12688, "title": "monoserve", "devlogs_count": 7, "created_at": "2025-08-31T21:28:36.625-04:00"}, {"id": 10026, "title": "Does Prime Intellect Have The Best Price?", "devlogs_count": 12, "created_at": "2025-08-03T14:35:07.093-04:00"}], "coding_time_seconds": 881812, "coding_time_seconds_today": 0, "balance": "You need to have a pocket watcher badge to view this.", "badges": [{"name": "Maiden Voyage", "text": "you shipped your first project! the journey begins...", "icon": "\ud83d\udea2"}], "created_at": "2025-06-18T00:05:15.073-04:00", "updated_at": "2025-09-10T22:55:03.121-04:00", "avatar": "https://avatars.slack-edge.com/2025-05-12/8908470334784_ddaaf5aaaffee89b35d7_original.png", "custom_css": null}, {"id": 7828, "slack_id": "U091YPLS3HA", "display_name": "Ayaan Jain", "bio": null, "projects_count": 0, "devlogs_count": 0, "votes_count": 0, "ships_count": 0, "projects": [], "coding_time_seconds": 0, "coding_time_seconds_today": 0, "balance": "You need to have a pocket watcher badge to view this.", "badges": [], "created_at": "2025-06-18T00:06:36.797-04:00", "updated_at": "2025-07-03T19:45:36.679-04:00", "avatar": "https://avatars.slack-edge.com/2025-06-17/9060071091398_4d337adfc72566704969_original.jpg", "custom_css": null}, {"id": 7829, "slack_id": "U091YCC0WP4", "display_name": "Yungeon Ahn", "bio": null, "projects_count": 0, "devlogs_count": 0, "votes_count": 0, "ships_count": 0, "projects": [], "coding_time_seconds": 0, "coding_time_seconds_today": 0, "balance": "You need to have a pocket watcher badge to view this.", "badges": [], "created_at": "2025-06-18T00:08:58.306-04:00", "updated_at": "2025-07-03T19:45:36.941-04:00", "avatar": "https://secure.gravatar.com/avatar/831d0fe3c70f59b9503cd4b193bb553d.jpg?s=512&d=https%3A%2F%2Fa.slack-edge.com%2Fdf10d%2Fimg%2Favatars%2Fava_0006-512.png", "custom_css": null}, {"id": 7830, "slack_id": "U092LS3857A", "display_name": "GodderE2D", "bio": null, "projects_count": 1, "devlogs_count": 3, "votes_count": 0, "ships_count": 0, "projects": [{"id": 2276, "title": "CyberStudents Website", "devlogs_count": 3, "created_at": "2025-06-20T16:00:31.841-04:00"}], "coding_time_seconds": 136853, "coding_time_seconds_today": 0, "balance": "You need to have a pocket watcher badge to view this.", "badges": [], "created_at": "2025-06-18T00:12:01.132-04:00", "updated_at": "2025-07-03T19:45:37.274-04:00", "avatar": "https://secure.gravatar.com/avatar/a7e558eac6dc6b67c42e004bb233f127.jpg?s=512&d=https%3A%2F%2Fa.slack-edge.com%2Fdf10d%2Fimg%2Favatars%2Fava_0012-512.png", "custom_css": null}, {"id": 7831, "slack_id": "U091H7NDN1M", "display_name": "blocky34", "bio": null, "projects_count": 0, "devlogs_count": 0, "votes_count": 0, "ships_count": 0, "projects": [], "coding_time_seconds": 0, "coding_time_seconds_today": 0, "balance": "You need to have a pocket watcher badge to view this.", "badges": [], "created_at": "2025-06-18T00:12:53.374-04:00", "updated_at": "2025-07-22T03:50:05.053-04:00", "avatar": "https://secure.gravatar.com/avatar/d6f2fff8cf9d26bce142fb1fd49ab203.jpg?s=512&d=https%3A%2F%2Fa.slack-edge.com%2Fdf10d%2Fimg%2Favatars%2Fava_0006-512.png", "custom_css": null}, {"id": 7832, "slack_id": "U092LS64JKS", "display_name": "Abhijeet Shashwat Pathak", "bio": null, "projects_count": 0, "devlogs_count": 0, "votes_count": 0, "ships_count": 0, "projects": [], "coding_time_seconds": 0, "coding_time_seconds_today": 0, "balance": "You need to have a pocket watcher badge to view this.", "badges": [], "created_at": "2025-06-18T00:13:03.330-04:00", "updated_at": "2025-07-03T19:45:37.665-04:00", "avatar": "https://avatars.slack-edge.com/2025-06-17/9066879006676_7859939c7e2ea5f7dbd0_original.jpg", "custom_css": null}, {"id": 7833, "slack_id": "U091H8J00KZ", "display_name": "L\u00fd Tr\u00ed \u0110\u1ee9c", "bio": null, "projects_count": 0, "devlogs_count": 0, "votes_count": 0, "ships_count": 0, "projects": [], "coding_time_seconds": 10097, "coding_time_seconds_today": 0, "balance": "You need to have a pocket watcher badge to view this.", "badges": [], "created_at": "2025-06-18T00:14:53.615-04:00", "updated_at": "2025-07-03T19:45:37.936-04:00", "avatar": "https://avatars.slack-edge.com/2025-06-17/9060095315510_7ac89204b45e16712fa8_original.png", "custom_css": null}, {"id": 7834, "slack_id": "U092LS4MUM6", "display_name": "Akash Singh", "bio": null, "projects_count": 0, "devlogs_count": 0, "votes_count": 0, "ships_count": 0, "projects": [], "coding_time_seconds": 429, "coding_time_seconds_today": 0, "balance": "You need to have a pocket watcher badge to view this.", "badges": [], "created_at": "2025-06-18T00:15:43.302-04:00", "updated_at": "2025-07-03T19:45:38.206-04:00", "avatar": "https://secure.gravatar.com/avatar/2721afaa87573d96f2bb8e1a2c6dbf42.jpg?s=512&d=https%3A%2F%2Fa.slack-edge.com%2Fdf10d%2Fimg%2Favatars%2Fava_0004-512.png", "custom_css": null}, {"id": 7835, "slack_id": "U08RHUDMF9T", "display_name": "Rojan", "bio": null, "projects_count": 1, "devlogs_count": 0, "votes_count": 0, "ships_count": 0, "projects": [{"id": 2197, "title": "MindScribe", "devlogs_count": 0, "created_at": "2025-06-20T12:09:53.167-04:00"}], "coding_time_seconds": 39237, "coding_time_seconds_today": 0, "balance": "You need to have a pocket watcher badge to view this.", "badges": [], "created_at": "2025-06-18T00:16:24.147-04:00", "updated_at": "2025-07-03T19:45:38.473-04:00", "avatar": "https://avatars.slack-edge.com/2025-05-09/8863784468486_1319b95ec0b2682990ac_original.png", "custom_css": null}, {"id": 7836, "slack_id": "U091YCY04TU", "display_name": "vksingh", "bio": null, "projects_count": 0, "devlogs_count": 0, "votes_count": 0, "ships_count": 0, "projects": [], "coding_time_seconds": 0, "coding_time_seconds_today": 0, "balance": "You need to have a pocket watcher badge to view this.", "badges": [], "created_at": "2025-06-18T00:16:50.410-04:00", "updated_at": "2025-07-03T21:45:51.730-04:00", "avatar": "https://secure.gravatar.com/avatar/8a7312424eb8aad0ad641e8216f9692e.jpg?s=512&d=https%3A%2F%2Fa.slack-edge.com%2Fdf10d%2Fimg%2Favatars%2Fava_0005-512.png", "custom_css": null}, {"id": 7837, "slack_id": "U091H6T7GTY", "display_name": "Avinash Anand", "bio": null, "projects_count": 0, "devlogs_count": 0, "votes_count": 0, "ships_count": 0, "projects": [], "coding_time_seconds": 0, "coding_time_seconds_today": 0, "balance": "You need to have a pocket watcher badge to view this.", "badges": [], "created_at": "2025-06-18T00:17:58.473-04:00", "updated_at": "2025-07-03T21:45:51.884-04:00", "avatar": "https://secure.gravatar.com/avatar/8f0bd305ab04100e8438a63178a9a935.jpg?s=512&d=https%3A%2F%2Fa.slack-edge.com%2Fdf10d%2Fimg%2Favatars%2Fava_0016-512.png", "custom_css": null}, {"id": 7838, "slack_id": "U092LRHPTFA", "display_name": "UD", "bio": null, "projects_count": 0, "devlogs_count": 0, "votes_count": 0, "ships_count": 0, "projects": [], "coding_time_seconds": 17133, "coding_time_seconds_today": 0, "balance": "You need to have a pocket watcher badge to view this.", "badges": [], "created_at": "2025-06-18T00:18:54.679-04:00", "updated_at": "2025-07-03T19:45:39.036-04:00", "avatar": "https://secure.gravatar.com/avatar/9c657ad6228f419bda81bc689e17d059.jpg?s=512&d=https%3A%2F%2Fa.slack-edge.com%2Fdf10d%2Fimg%2Favatars%2Fava_0006-512.png", "custom_css": null}, {"id": 7839, "slack_id": "U092B2B326M", "display_name": "David Gomez", "bio": null, "projects_count": 0, "devlogs_count": 0, "votes_count": 0, "ships_count": 0, "projects": [], "coding_time_seconds": 0, "coding_time_seconds_today": 0, "balance": "You need to have a pocket watcher badge to view this.", "badges": [], "created_at": "2025-06-18T00:21:58.231-04:00", "updated_at": "2025-07-05T08:09:06.148-04:00", "avatar": "https://secure.gravatar.com/avatar/4ae0c001cc23a6dd2ac44ac5d50384f7.jpg?s=512&d=https%3A%2F%2Fa.slack-edge.com%2Fdf10d%2Fimg%2Favatars%2Fava_0005-512.png", "custom_css": null}, {"id": 7840, "slack_id": "U092LSSM5DW", "display_name": "Manshi", "bio": null, "projects_count": 0, "devlogs_count": 0, "votes_count": 0, "ships_count": 0, "projects": [], "coding_time_seconds": 0, "coding_time_seconds_today": 0, "balance": "You need to have a pocket watcher badge to view this.", "badges": [], "created_at": "2025-06-18T00:22:12.783-04:00", "updated_at": "2025-07-04T20:08:21.459-04:00", "avatar": "https://secure.gravatar.com/avatar/c15b99956d64403c83e2e5d1df2073b8.jpg?s=512&d=https%3A%2F%2Fa.slack-edge.com%2Fdf10d%2Fimg%2Favatars%2Fava_0003-512.png", "custom_css": null}], "pagination": {"page": 392, "pages": 1192, "count": 23828, "items": 20}}