{"users": [{"id": 7841, "slack_id": "U091RSH9B19", "display_name": "\u5468\u80b2\u5b89", "bio": null, "projects_count": 0, "devlogs_count": 0, "votes_count": 0, "ships_count": 0, "projects": [], "coding_time_seconds": 0, "coding_time_seconds_today": 0, "balance": "You need to have a pocket watcher badge to view this.", "badges": [], "created_at": "2025-06-18T00:25:34.356-04:00", "updated_at": "2025-07-03T19:45:39.585-04:00", "avatar": "https://avatars.slack-edge.com/2025-06-17/9051333213399_7d7d10ef19cd25a35937_original.png", "custom_css": null}, {"id": 7842, "slack_id": "U091YD9HBDY", "display_name": "Abhijit47", "bio": null, "projects_count": 0, "devlogs_count": 0, "votes_count": 0, "ships_count": 0, "projects": [], "coding_time_seconds": 0, "coding_time_seconds_today": 0, "balance": "You need to have a pocket watcher badge to view this.", "badges": [], "created_at": "2025-06-18T00:25:37.232-04:00", "updated_at": "2025-07-03T19:45:39.852-04:00", "avatar": "https://secure.gravatar.com/avatar/79e4e9a25756cb8d8f1197bcb5aafc7e.jpg?s=512&d=https%3A%2F%2Fa.slack-edge.com%2Fdf10d%2Fimg%2Favatars%2Fava_0010-512.png", "custom_css": null}, {"id": 7843, "slack_id": "U091WUREZ37", "display_name": "Sufyan Ali", "bio": null, "projects_count": 0, "devlogs_count": 0, "votes_count": 0, "ships_count": 0, "projects": [], "coding_time_seconds": 6263, "coding_time_seconds_today": 0, "balance": "You need to have a pocket watcher badge to view this.", "badges": [], "created_at": "2025-06-18T00:25:40.119-04:00", "updated_at": "2025-07-14T05:09:57.900-04:00", "avatar": "https://secure.gravatar.com/avatar/6ab4fa7431e7b68011a20f467d474d40.jpg?s=512&d=https%3A%2F%2Fa.slack-edge.com%2Fdf10d%2Fimg%2Favatars%2Fava_0024-512.png", "custom_css": null}, {"id": 7844, "slack_id": "U091YCJDP34", "display_name": "Shubham Khakha", "bio": null, "projects_count": 1, "devlogs_count": 5, "votes_count": 19, "ships_count": 1, "projects": [{"id": 3148, "title": "Taskee - A Vintage-Styled Todo Application", "devlogs_count": 5, "created_at": "2025-06-23T08:34:31.243-04:00"}], "coding_time_seconds": 305377, "coding_time_seconds_today": 3114, "balance": "You need to have a pocket watcher badge to view this.", "badges": [{"name": "Maiden Voyage", "text": "you shipped your first project! the journey begins...", "icon": "\ud83d\udea2"}], "created_at": "2025-06-18T00:26:15.328-04:00", "updated_at": "2025-09-10T22:55:03.621-04:00", "avatar": "https://avatars.slack-edge.com/2025-06-19/9060374236903_58b01ba70c2e88d13883_original.jpg", "custom_css": null}, {"id": 7845, "slack_id": "U091S3CKC1L", "display_name": "Sri Anjaneyam", "bio": null, "projects_count": 0, "devlogs_count": 0, "votes_count": 0, "ships_count": 0, "projects": [], "coding_time_seconds": 14839, "coding_time_seconds_today": 0, "balance": "You need to have a pocket watcher badge to view this.", "badges": [], "created_at": "2025-06-18T00:27:20.459-04:00", "updated_at": "2025-07-03T19:45:40.505-04:00", "avatar": "https://avatars.slack-edge.com/2025-06-17/9066917428996_6bd8f1bf5170c007ef04_original.jpg", "custom_css": null}, {"id": 7846, "slack_id": "U092B30DKBK", "display_name": "Stanley Lu", "bio": null, "projects_count": 0, "devlogs_count": 0, "votes_count": 0, "ships_count": 0, "projects": [], "coding_time_seconds": 0, "coding_time_seconds_today": 0, "balance": "You need to have a pocket watcher badge to view this.", "badges": [], "created_at": "2025-06-18T00:27:38.138-04:00", "updated_at": "2025-07-03T19:45:40.778-04:00", "avatar": "https://avatars.slack-edge.com/2025-06-17/9079102661633_563932efd69a30421388_original.png", "custom_css": null}, {"id": 7847, "slack_id": "U091YSU9WLU", "display_name": "Bridget G", "bio": null, "projects_count": 0, "devlogs_count": 0, "votes_count": 0, "ships_count": 0, "projects": [], "coding_time_seconds": 0, "coding_time_seconds_today": 0, "balance": "You need to have a pocket watcher badge to view this.", "badges": [], "created_at": "2025-06-18T00:28:20.292-04:00", "updated_at": "2025-07-03T19:45:41.046-04:00", "avatar": "https://secure.gravatar.com/avatar/97e05cbc39d1445b45d3874dbc64f806.jpg?s=512&d=https%3A%2F%2Fa.slack-edge.com%2Fdf10d%2Fimg%2Favatars%2Fava_0018-512.png", "custom_css": null}, {"id": 7848, "slack_id": "U08RSUKP4CA", "display_name": "om bhagat", "bio": "I am making projects as a rising sophmore.", "projects_count": 10, "devlogs_count": 25, "votes_count": 162, "ships_count": 9, "projects": [{"id": 3734, "title": "Project Brunson", "devlogs_count": 7, "created_at": "2025-06-25T12:34:08.150-04:00"}, {"id": 6716, "title": "Myth Generator", "devlogs_count": 1, "created_at": "2025-07-15T12:51:36.879-04:00"}, {"id": 7060, "title": "PokemonXChess", "devlogs_count": 3, "created_at": "2025-07-18T16:17:48.288-04:00"}, {"id": 12222, "title": "History of USA", "devlogs_count": 0, "created_at": "2025-08-24T13:34:29.743-04:00"}, {"id": 6579, "title": "PokemonXMinicrossword", "devlogs_count": 2, "created_at": "2025-07-14T10:59:38.971-04:00"}, {"id": 7062, "title": "Pokemon X Casino", "devlogs_count": 3, "created_at": "2025-07-18T16:33:40.380-04:00"}, {"id": 6364, "title": "Pokemon Back and Forth", "devlogs_count": 4, "created_at": "2025-07-12T17:42:59.725-04:00"}, {"id": 10844, "title": "Project ANT", "devlogs_count": 2, "created_at": "2025-08-11T09:19:07.736-04:00"}, {"id": 5663, "title": "Pokemon X 2048", "devlogs_count": 1, "created_at": "2025-07-06T23:01:35.231-04:00"}, {"id": 11717, "title": "Food Logger", "devlogs_count": 2, "created_at": "2025-08-18T17:24:05.347-04:00"}], "coding_time_seconds": 366642, "coding_time_seconds_today": 0, "balance": "You need to have a pocket watcher badge to view this.", "badges": [{"name": "Maiden Voyage", "text": "you shipped your first project! the journey begins...", "icon": "\ud83d\udea2"}, {"name": "Ballot Stuffer", "text": "vote 100 times.", "icon": "https://summer.hackclub.com/assets/i_voted-bf851b48.png"}], "created_at": "2025-06-18T00:28:29.171-04:00", "updated_at": "2025-09-10T22:55:03.730-04:00", "avatar": "https://avatars.slack-edge.com/2025-05-09/8887355562273_03d29658cf852503762f_original.png", "custom_css": null}, {"id": 7849, "slack_id": "U0814SQE9NZ", "display_name": "Pragya Rana", "bio": null, "projects_count": 0, "devlogs_count": 0, "votes_count": 0, "ships_count": 0, "projects": [], "coding_time_seconds": 0, "coding_time_seconds_today": 0, "balance": "You need to have a pocket watcher badge to view this.", "badges": [], "created_at": "2025-06-18T00:28:33.533-04:00", "updated_at": "2025-07-03T19:45:41.587-04:00", "avatar": "https://avatars.slack-edge.com/2024-12-01/8104038224885_7b5c08e71608b35a2865_original.png", "custom_css": null}, {"id": 7850, "slack_id": "U092242VCLR", "display_name": "Arshpreet Kaur", "bio": null, "projects_count": 0, "devlogs_count": 0, "votes_count": 0, "ships_count": 0, "projects": [], "coding_time_seconds": 0, "coding_time_seconds_today": 0, "balance": "You need to have a pocket watcher badge to view this.", "badges": [], "created_at": "2025-06-18T00:28:48.636-04:00", "updated_at": "2025-07-03T19:45:41.847-04:00", "avatar": "https://secure.gravatar.com/avatar/284be5455f41e44014cd6e2f926d3066.jpg?s=512&d=https%3A%2F%2Fa.slack-edge.com%2Fdf10d%2Fimg%2Favatars%2Fava_0002-512.png", "custom_css": null}, {"id": 7851, "slack_id": "U091RSVHG4B", "display_name": "JustPlaying4306", "bio": null, "projects_count": 0, "devlogs_count": 0, "votes_count": 0, "ships_count": 0, "projects": [], "coding_time_seconds": 0, "coding_time_seconds_today": 0, "balance": "You need to have a pocket watcher badge to view this.", "badges": [], "created_at": "2025-06-18T00:29:38.959-04:00", "updated_at": "2025-07-03T21:45:52.946-04:00", "avatar": "https://secure.gravatar.com/avatar/bd8df2f1716c3c493997946d531d6f02.jpg?s=512&d=https%3A%2F%2Fa.slack-edge.com%2Fdf10d%2Fimg%2Favatars%2Fava_0012-512.png", "custom_css": null}, {"id": 7852, "slack_id": "U092LTVBW8G", "display_name": "Joe", "bio": null, "projects_count": 0, "devlogs_count": 0, "votes_count": 0, "ships_count": 0, "projects": [], "coding_time_seconds": 0, "coding_time_seconds_today": 0, "balance": "You need to have a pocket watcher badge to view this.", "badges": [], "created_at": "2025-06-18T00:32:41.636-04:00", "updated_at": "2025-07-03T21:45:53.157-04:00", "avatar": "https://secure.gravatar.com/avatar/1c06a81bf98adc3c5757b9d6a9dea7d7.jpg?s=512&d=https%3A%2F%2Fa.slack-edge.com%2Fdf10d%2Fimg%2Favatars%2Fava_0017-512.png", "custom_css": null}, {"id": 7853, "slack_id": "U05D9BJD4UC", "display_name": "Sahil", "bio": null, "projects_count": 5, "devlogs_count": 7, "votes_count": 13, "ships_count": 1, "projects": [{"id": 5299, "title": "Road to 1100 ELO  ", "devlogs_count": 0, "created_at": "2025-07-04T10:24:58.358-04:00"}, {"id": 8479, "title": "New Game 3D", "devlogs_count": 0, "created_at": "2025-07-27T12:31:54.338-04:00"}, {"id": 8504, "title": "Hackcraft V3", "devlogs_count": 0, "created_at": "2025-07-27T16:08:21.256-04:00"}, {"id": 5193, "title": "Everyday App OS", "devlogs_count": 4, "created_at": "2025-07-03T17:14:51.113-04:00"}, {"id": 10005, "title": "Terminal Craft ", "devlogs_count": 0, "created_at": "2025-08-03T11:56:12.771-04:00"}], "coding_time_seconds": 130478, "coding_time_seconds_today": 0, "balance": "You need to have a pocket watcher badge to view this.", "badges": [{"name": "Maiden Voyage", "text": "you shipped your first project! the journey begins...", "icon": "\ud83d\udea2"}], "created_at": "2025-06-18T00:33:37.571-04:00", "updated_at": "2025-09-10T22:55:03.855-04:00", "avatar": "https://avatars.slack-edge.com/2025-05-31/8967154468135_1f605f43b4fa6322a3dd_original.png", "custom_css": null}, {"id": 7854, "slack_id": "U045HPTP1GX", "display_name": "abhay (silvermango)", "bio": null, "projects_count": 2, "devlogs_count": 2, "votes_count": 4, "ships_count": 1, "projects": [{"id": 1747, "title": "Creating GPT from Scratch (somewhat)", "devlogs_count": 2, "created_at": "2025-06-19T06:49:28.583-04:00"}, {"id": 3831, "title": "AI Interview Simulator", "devlogs_count": 0, "created_at": "2025-06-25T23:06:05.702-04:00"}], "coding_time_seconds": 14225, "coding_time_seconds_today": 0, "balance": "You need to have a pocket watcher badge to view this.", "badges": [{"name": "Maiden Voyage", "text": "you shipped your first project! the journey begins...", "icon": "\ud83d\udea2"}], "created_at": "2025-06-18T00:33:56.769-04:00", "updated_at": "2025-09-10T22:55:03.877-04:00", "avatar": "https://avatars.slack-edge.com/2024-09-25/7783842226164_3ab25ab9abae23946f44_original.jpg", "custom_css": null}, {"id": 7855, "slack_id": "U08RK5YHA5S", "display_name": "foglomon", "bio": null, "projects_count": 0, "devlogs_count": 0, "votes_count": 0, "ships_count": 0, "projects": [], "coding_time_seconds": 334600, "coding_time_seconds_today": 0, "balance": "You need to have a pocket watcher badge to view this.", "badges": [], "created_at": "2025-06-18T00:34:27.122-04:00", "updated_at": "2025-09-23T06:38:32.558-04:00", "avatar": "https://avatars.slack-edge.com/2025-09-23/9562701226949_e7bfeb12eadc821059cc_original.png", "custom_css": null}, {"id": 7856, "slack_id": "U07BHR9GWB0", "display_name": "Lily Martin", "bio": null, "projects_count": 0, "devlogs_count": 0, "votes_count": 0, "ships_count": 0, "projects": [], "coding_time_seconds": 107476, "coding_time_seconds_today": 0, "balance": "You need to have a pocket watcher badge to view this.", "badges": [], "created_at": "2025-06-18T00:34:32.977-04:00", "updated_at": "2025-08-19T02:39:24.155-04:00", "avatar": "https://avatars.slack-edge.com/2025-08-18/9400078884560_848b79270b7eceb4f519_original.png", "custom_css": null}, {"id": 7857, "slack_id": "U091S43V48N", "display_name": "Yenlik", "bio": null, "projects_count": 0, "devlogs_count": 0, "votes_count": 0, "ships_count": 0, "projects": [], "coding_time_seconds": 0, "coding_time_seconds_today": 0, "balance": "You need to have a pocket watcher badge to view this.", "badges": [], "created_at": "2025-06-18T00:35:25.449-04:00", "updated_at": "2025-07-04T08:23:31.600-04:00", "avatar": "https://secure.gravatar.com/avatar/10bfaa76604e1b696cf082e82fe96239.jpg?s=512&d=https%3A%2F%2Fa.slack-edge.com%2Fdf10d%2Fimg%2Favatars%2Fava_0015-512.png", "custom_css": null}, {"id": 7858, "slack_id": "U092B3G5873", "display_name": "Hamza Tanveer", "bio": null, "projects_count": 0, "devlogs_count": 0, "votes_count": 0, "ships_count": 0, "projects": [], "coding_time_seconds": 0, "coding_time_seconds_today": 0, "balance": "You need to have a pocket watcher badge to view this.", "badges": [], "created_at": "2025-06-18T00:35:32.492-04:00", "updated_at": "2025-07-03T19:45:43.608-04:00", "avatar": "https://secure.gravatar.com/avatar/15966b0793aaf11fdea537df92d3a543.jpg?s=512&d=https%3A%2F%2Fa.slack-edge.com%2Fdf10d%2Fimg%2Favatars%2Fava_0014-512.png", "custom_css": null}, {"id": 7859, "slack_id": "U091X0F7UUV", "display_name": "Ateeq Ur Rehman", "bio": null, "projects_count": 0, "devlogs_count": 0, "votes_count": 0, "ships_count": 0, "projects": [], "coding_time_seconds": 0, "coding_time_seconds_today": 0, "balance": "You need to have a pocket watcher badge to view this.", "badges": [], "created_at": "2025-06-18T00:36:01.558-04:00", "updated_at": "2025-07-03T19:45:43.876-04:00", "avatar": "https://secure.gravatar.com/avatar/133ae6b2344ba197b6ea33b0ee764336.jpg?s=512&d=https%3A%2F%2Fa.slack-edge.com%2Fdf10d%2Fimg%2Favatars%2Fava_0005-512.png", "custom_css": null}, {"id": 7860, "slack_id": "U091RTGCSCB", "display_name": "Sumit suthar", "bio": null, "projects_count": 0, "devlogs_count": 0, "votes_count": 0, "ships_count": 0, "projects": [], "coding_time_seconds": 11938, "coding_time_seconds_today": 0, "balance": "You need to have a pocket watcher badge to view this.", "badges": [], "created_at": "2025-06-18T00:37:03.374-04:00", "updated_at": "2025-07-04T20:08:22.653-04:00", "avatar": "https://secure.gravatar.com/avatar/f6511e0c89839759ddecc1cbbadbe73b.jpg?s=512&d=https%3A%2F%2Fa.slack-edge.com%2Fdf10d%2Fimg%2Favatars%2Fava_0016-512.png", "custom_css": null}], "pagination": {"page": 393, "pages": 1192, "count": 23828, "items": 20}}