{"users": [{"id": 7861, "slack_id": "U091YEDV6D8", "display_name": "Rahul Devrani", "bio": null, "projects_count": 0, "devlogs_count": 0, "votes_count": 0, "ships_count": 0, "projects": [], "coding_time_seconds": 0, "coding_time_seconds_today": 0, "balance": "You need to have a pocket watcher badge to view this.", "badges": [], "created_at": "2025-06-18T00:37:50.076-04:00", "updated_at": "2025-07-04T08:23:31.898-04:00", "avatar": "https://secure.gravatar.com/avatar/ca37b780db638a818dc9dc5ad9a051b1.jpg?s=512&d=https%3A%2F%2Fa.slack-edge.com%2Fdf10d%2Fimg%2Favatars%2Fava_0011-512.png", "custom_css": null}, {"id": 7862, "slack_id": "U0828FYS2UC", "display_name": "Iamalive", "bio": null, "projects_count": 3, "devlogs_count": 4, "votes_count": 3, "ships_count": 0, "projects": [{"id": 9371, "title": "Jumper", "devlogs_count": 1, "created_at": "2025-07-31T21:49:46.116-04:00"}, {"id": 10072, "title": "MockMarket", "devlogs_count": 3, "created_at": "2025-08-03T20:58:11.593-04:00"}, {"id": 10931, "title": "MockMarket-SoM", "devlogs_count": 0, "created_at": "2025-08-11T22:10:06.879-04:00"}], "coding_time_seconds": 172747, "coding_time_seconds_today": 311, "balance": "You need to have a pocket watcher badge to view this.", "badges": [], "created_at": "2025-06-18T00:39:01.016-04:00", "updated_at": "2025-08-06T12:57:00.237-04:00", "avatar": "https://avatars.slack-edge.com/2024-11-23/8068174026726_ecccafb24d270c38d34a_original.png", "custom_css": null}, {"id": 7863, "slack_id": "U091X0K4X7X", "display_name": "Bhargav Karande", "bio": null, "projects_count": 0, "devlogs_count": 0, "votes_count": 0, "ships_count": 0, "projects": [], "coding_time_seconds": 7580, "coding_time_seconds_today": 0, "balance": "You need to have a pocket watcher badge to view this.", "badges": [], "created_at": "2025-06-18T00:39:09.839-04:00", "updated_at": "2025-07-03T19:45:44.729-04:00", "avatar": "https://secure.gravatar.com/avatar/452bfc1dcb7e154e60d39134e6b38b48.jpg?s=512&d=https%3A%2F%2Fa.slack-edge.com%2Fdf10d%2Fimg%2Favatars%2Fava_0004-512.png", "custom_css": null}, {"id": 7864, "slack_id": "U091H9WHYBZ", "display_name": "pmf", "bio": null, "projects_count": 0, "devlogs_count": 0, "votes_count": 0, "ships_count": 0, "projects": [], "coding_time_seconds": 0, "coding_time_seconds_today": 0, "balance": "You need to have a pocket watcher badge to view this.", "badges": [], "created_at": "2025-06-18T00:41:03.195-04:00", "updated_at": "2025-07-03T19:45:44.997-04:00", "avatar": "https://secure.gravatar.com/avatar/c1382f8ce98a2cd01b0edee65d73acfc.jpg?s=512&d=https%3A%2F%2Fa.slack-edge.com%2Fdf10d%2Fimg%2Favatars%2Fava_0018-512.png", "custom_css": null}, {"id": 7865, "slack_id": "U091YTMKR0U", "display_name": "Aadit Talele", "bio": null, "projects_count": 0, "devlogs_count": 0, "votes_count": 0, "ships_count": 0, "projects": [], "coding_time_seconds": 0, "coding_time_seconds_today": 0, "balance": "You need to have a pocket watcher badge to view this.", "badges": [], "created_at": "2025-06-18T00:41:15.223-04:00", "updated_at": "2025-07-03T19:45:45.264-04:00", "avatar": "https://avatars.slack-edge.com/2025-06-17/9051382341175_a0c82b86ebb6135d6d82_original.png", "custom_css": null}, {"id": 7866, "slack_id": "U091S4TEPGE", "display_name": "Tochukwu", "bio": null, "projects_count": 0, "devlogs_count": 0, "votes_count": 0, "ships_count": 0, "projects": [], "coding_time_seconds": 0, "coding_time_seconds_today": 0, "balance": "You need to have a pocket watcher badge to view this.", "badges": [], "created_at": "2025-06-18T00:42:33.295-04:00", "updated_at": "2025-07-03T19:45:45.528-04:00", "avatar": "https://secure.gravatar.com/avatar/a9252fda6e34d14197e5c0a501d4dcdc.jpg?s=512&d=https%3A%2F%2Fa.slack-edge.com%2Fdf10d%2Fimg%2Favatars%2Fava_0004-512.png", "custom_css": null}, {"id": 7867, "slack_id": "U091YTXBK36", "display_name": "Daniel Gu", "bio": null, "projects_count": 0, "devlogs_count": 0, "votes_count": 0, "ships_count": 0, "projects": [], "coding_time_seconds": 66114, "coding_time_seconds_today": 0, "balance": "You need to have a pocket watcher badge to view this.", "badges": [], "created_at": "2025-06-18T00:43:01.128-04:00", "updated_at": "2025-07-04T02:27:15.171-04:00", "avatar": "https://secure.gravatar.com/avatar/48e99cd19d1f54f3fe32f48683b4b0f7.jpg?s=512&d=https%3A%2F%2Fa.slack-edge.com%2Fdf10d%2Fimg%2Favatars%2Fava_0015-512.png", "custom_css": null}, {"id": 7868, "slack_id": "U091ULQP5QC", "display_name": "david", "bio": null, "projects_count": 0, "devlogs_count": 0, "votes_count": 0, "ships_count": 0, "projects": [], "coding_time_seconds": 0, "coding_time_seconds_today": 0, "balance": "You need to have a pocket watcher badge to view this.", "badges": [], "created_at": "2025-06-18T00:44:59.793-04:00", "updated_at": "2025-07-03T19:45:45.942-04:00", "avatar": "https://secure.gravatar.com/avatar/1f7f98ecf5bde041c56d1f319411327d.jpg?s=512&d=https%3A%2F%2Fa.slack-edge.com%2Fdf10d%2Fimg%2Favatars%2Fava_0022-512.png", "custom_css": null}, {"id": 7869, "slack_id": "U0924RFPALR", "display_name": "Safi ur rehman", "bio": null, "projects_count": 0, "devlogs_count": 0, "votes_count": 0, "ships_count": 0, "projects": [], "coding_time_seconds": 0, "coding_time_seconds_today": 0, "balance": "You need to have a pocket watcher badge to view this.", "badges": [], "created_at": "2025-06-18T00:45:06.519-04:00", "updated_at": "2025-07-03T19:45:46.229-04:00", "avatar": "https://secure.gravatar.com/avatar/48601925f0d03f772f00c0cf294ec887.jpg?s=512&d=https%3A%2F%2Fa.slack-edge.com%2Fdf10d%2Fimg%2Favatars%2Fava_0012-512.png", "custom_css": null}, {"id": 7870, "slack_id": "U091YF2UBMG", "display_name": "Abhishek", "bio": null, "projects_count": 0, "devlogs_count": 0, "votes_count": 0, "ships_count": 0, "projects": [], "coding_time_seconds": 0, "coding_time_seconds_today": 0, "balance": "You need to have a pocket watcher badge to view this.", "badges": [], "created_at": "2025-06-18T00:45:06.520-04:00", "updated_at": "2025-07-03T19:45:46.522-04:00", "avatar": "https://secure.gravatar.com/avatar/b440e21a60dd0c4a3e63a8546fef9517.jpg?s=512&d=https%3A%2F%2Fa.slack-edge.com%2Fdf10d%2Fimg%2Favatars%2Fava_0019-512.png", "custom_css": null}, {"id": 7871, "slack_id": "U078GE25A7L", "display_name": "Cozy", "bio": null, "projects_count": 0, "devlogs_count": 0, "votes_count": 0, "ships_count": 0, "projects": [], "coding_time_seconds": 0, "coding_time_seconds_today": 0, "balance": "You need to have a pocket watcher badge to view this.", "badges": [], "created_at": "2025-06-18T00:46:36.750-04:00", "updated_at": "2025-07-07T08:08:49.261-04:00", "avatar": "https://secure.gravatar.com/avatar/9eec3ad9cd6ebb9ba19b7d42826bbf75.jpg?s=512&d=https%3A%2F%2Fa.slack-edge.com%2Fdf10d%2Fimg%2Favatars%2Fava_0006-512.png", "custom_css": null}, {"id": 7872, "slack_id": "U092B4FTG9X", "display_name": "Aaryan V Anulal", "bio": null, "projects_count": 0, "devlogs_count": 0, "votes_count": 0, "ships_count": 0, "projects": [], "coding_time_seconds": 261636, "coding_time_seconds_today": 0, "balance": "You need to have a pocket watcher badge to view this.", "badges": [], "created_at": "2025-06-18T00:47:38.170-04:00", "updated_at": "2025-07-07T14:39:24.903-04:00", "avatar": "https://avatars.slack-edge.com/2025-06-17/9065059072069_8cedaae64bdd1316a025_original.png", "custom_css": null}, {"id": 7873, "slack_id": "U091RUD7L03", "display_name": "Philip Joshua Lucas", "bio": null, "projects_count": 0, "devlogs_count": 0, "votes_count": 0, "ships_count": 0, "projects": [], "coding_time_seconds": 0, "coding_time_seconds_today": 0, "balance": "You need to have a pocket watcher badge to view this.", "badges": [], "created_at": "2025-06-18T00:47:47.748-04:00", "updated_at": "2025-07-03T19:45:47.087-04:00", "avatar": "https://secure.gravatar.com/avatar/9e675e3781d6352e7b4a5a50e7c7998e.jpg?s=512&d=https%3A%2F%2Fa.slack-edge.com%2Fdf10d%2Fimg%2Favatars%2Fava_0018-512.png", "custom_css": null}, {"id": 7874, "slack_id": "U091YU911T6", "display_name": "Cristhian Mero", "bio": null, "projects_count": 0, "devlogs_count": 0, "votes_count": 0, "ships_count": 0, "projects": [], "coding_time_seconds": 0, "coding_time_seconds_today": 0, "balance": "You need to have a pocket watcher badge to view this.", "badges": [], "created_at": "2025-06-18T00:47:52.766-04:00", "updated_at": "2025-07-03T19:45:47.353-04:00", "avatar": "https://secure.gravatar.com/avatar/6408f122aeca2d077b82db316e320780.jpg?s=512&d=https%3A%2F%2Fa.slack-edge.com%2Fdf10d%2Fimg%2Favatars%2Fava_0014-512.png", "custom_css": null}, {"id": 7875, "slack_id": "U092ASR1ALR", "display_name": "George Jacob", "bio": null, "projects_count": 0, "devlogs_count": 0, "votes_count": 0, "ships_count": 0, "projects": [], "coding_time_seconds": 0, "coding_time_seconds_today": 0, "balance": "You need to have a pocket watcher badge to view this.", "badges": [], "created_at": "2025-06-18T00:48:17.791-04:00", "updated_at": "2025-07-03T19:45:47.618-04:00", "avatar": "https://avatars.slack-edge.com/2025-06-17/9051403618727_748f64fca5eeca8b49aa_original.jpg", "custom_css": null}, {"id": 7876, "slack_id": "U091T00CWE8", "display_name": "Sanket Shrestha", "bio": null, "projects_count": 0, "devlogs_count": 0, "votes_count": 0, "ships_count": 0, "projects": [], "coding_time_seconds": 3258, "coding_time_seconds_today": 0, "balance": "You need to have a pocket watcher badge to view this.", "badges": [], "created_at": "2025-06-18T00:49:52.841-04:00", "updated_at": "2025-07-03T19:45:47.882-04:00", "avatar": "https://avatars.slack-edge.com/2025-06-17/9089006664800_5c5daea9a325139c43b5_original.gif", "custom_css": null}, {"id": 7877, "slack_id": "U091YFPHXFC", "display_name": "Dineshkumar Suresh", "bio": null, "projects_count": 0, "devlogs_count": 0, "votes_count": 0, "ships_count": 0, "projects": [], "coding_time_seconds": 54225, "coding_time_seconds_today": 0, "balance": "You need to have a pocket watcher badge to view this.", "badges": [], "created_at": "2025-06-18T00:50:58.323-04:00", "updated_at": "2025-07-03T22:36:21.444-04:00", "avatar": "https://secure.gravatar.com/avatar/6d38d68a3f505c6272dd929ee3e6eb37.jpg?s=512&d=https%3A%2F%2Fa.slack-edge.com%2Fdf10d%2Fimg%2Favatars%2Fava_0024-512.png", "custom_css": null}, {"id": 7878, "slack_id": "U091YFQCRUJ", "display_name": "Ishita", "bio": null, "projects_count": 0, "devlogs_count": 0, "votes_count": 0, "ships_count": 0, "projects": [], "coding_time_seconds": 0, "coding_time_seconds_today": 0, "balance": "You need to have a pocket watcher badge to view this.", "badges": [], "created_at": "2025-06-18T00:51:26.471-04:00", "updated_at": "2025-07-03T19:45:48.304-04:00", "avatar": "https://secure.gravatar.com/avatar/d1c5fc083d1fcb3e75e4788e72e1142c.jpg?s=512&d=https%3A%2F%2Fa.slack-edge.com%2Fdf10d%2Fimg%2Favatars%2Fava_0026-512.png", "custom_css": null}, {"id": 7879, "slack_id": "U091YUPMYE8", "display_name": "Mahidhar N", "bio": null, "projects_count": 0, "devlogs_count": 0, "votes_count": 0, "ships_count": 0, "projects": [], "coding_time_seconds": 0, "coding_time_seconds_today": 0, "balance": "You need to have a pocket watcher badge to view this.", "badges": [], "created_at": "2025-06-18T00:51:49.194-04:00", "updated_at": "2025-07-03T19:45:48.571-04:00", "avatar": "https://avatars.slack-edge.com/2025-06-17/9051414115751_2818445354115f38e677_original.png", "custom_css": null}, {"id": 7880, "slack_id": "U092M03GZ7A", "display_name": "Kavin Mathivanan", "bio": null, "projects_count": 0, "devlogs_count": 0, "votes_count": 0, "ships_count": 0, "projects": [], "coding_time_seconds": 0, "coding_time_seconds_today": 0, "balance": "You need to have a pocket watcher badge to view this.", "badges": [], "created_at": "2025-06-18T00:52:00.893-04:00", "updated_at": "2025-07-03T21:45:55.130-04:00", "avatar": "https://avatars.slack-edge.com/2025-06-17/9051415242343_ade46d72ddf143fa79e1_original.png", "custom_css": null}], "pagination": {"page": 394, "pages": 1192, "count": 23828, "items": 20}}