{"users": [{"id": 7881, "slack_id": "U091PTTKHL5", "display_name": "Senuka Chandunu", "bio": null, "projects_count": 0, "devlogs_count": 0, "votes_count": 0, "ships_count": 0, "projects": [], "coding_time_seconds": 0, "coding_time_seconds_today": 0, "balance": "You need to have a pocket watcher badge to view this.", "badges": [], "created_at": "2025-06-18T00:52:28.139-04:00", "updated_at": "2025-07-03T21:45:55.257-04:00", "avatar": "https://secure.gravatar.com/avatar/6e1b69b27da52238bdf9698b648000ac.jpg?s=512&d=https%3A%2F%2Fa.slack-edge.com%2Fdf10d%2Fimg%2Favatars%2Fava_0025-512.png", "custom_css": null}, {"id": 7882, "slack_id": "U091YUNMM9S", "display_name": "Jining Liu", "bio": null, "projects_count": 1, "devlogs_count": 0, "votes_count": 0, "ships_count": 0, "projects": [{"id": 3066, "title": "Chronostamp", "devlogs_count": 0, "created_at": "2025-06-23T00:29:28.604-04:00"}], "coding_time_seconds": 740611, "coding_time_seconds_today": 0, "balance": "You need to have a pocket watcher badge to view this.", "badges": [], "created_at": "2025-06-18T00:53:02.452-04:00", "updated_at": "2025-07-03T19:45:50.083-04:00", "avatar": "https://secure.gravatar.com/avatar/1ba01a747f20b156fc3d5bd4f00fe9bd.jpg?s=512&d=https%3A%2F%2Fa.slack-edge.com%2Fdf10d%2Fimg%2Favatars%2Fava_0014-512.png", "custom_css": null}, {"id": 7883, "slack_id": "U091WT564CD", "display_name": "Alok Sharma", "bio": null, "projects_count": 0, "devlogs_count": 0, "votes_count": 0, "ships_count": 0, "projects": [], "coding_time_seconds": 0, "coding_time_seconds_today": 0, "balance": "You need to have a pocket watcher badge to view this.", "badges": [], "created_at": "2025-06-18T00:54:51.750-04:00", "updated_at": "2025-07-03T19:45:50.356-04:00", "avatar": "https://avatars.slack-edge.com/2025-06-18/9060383231526_556ac44e90aace06faf8_original.jpg", "custom_css": null}, {"id": 7884, "slack_id": "U05Q0UAKQN8", "display_name": "Tom-on", "bio": null, "projects_count": 1, "devlogs_count": 4, "votes_count": 6, "ships_count": 1, "projects": [{"id": 10964, "title": "editor.c", "devlogs_count": 4, "created_at": "2025-08-12T04:21:09.938-04:00"}], "coding_time_seconds": 83410, "coding_time_seconds_today": 4534, "balance": "You need to have a pocket watcher badge to view this.", "badges": [{"name": "Maiden Voyage", "text": "you shipped your first project! the journey begins...", "icon": "\ud83d\udea2"}], "created_at": "2025-06-18T00:55:27.351-04:00", "updated_at": "2025-09-10T22:55:04.658-04:00", "avatar": "https://avatars.slack-edge.com/2023-08-29/5841799811344_a93f20b94a044b7f6f89_original.jpg", "custom_css": null}, {"id": 7885, "slack_id": "U091X246YNR", "display_name": "Tanishq", "bio": null, "projects_count": 0, "devlogs_count": 0, "votes_count": 0, "ships_count": 0, "projects": [], "coding_time_seconds": 0, "coding_time_seconds_today": 0, "balance": "You need to have a pocket watcher badge to view this.", "badges": [], "created_at": "2025-06-18T00:56:52.897-04:00", "updated_at": "2025-07-03T19:45:50.882-04:00", "avatar": "https://secure.gravatar.com/avatar/b52975575c336fc18b3c430e77c73fea.jpg?s=512&d=https%3A%2F%2Fa.slack-edge.com%2Fdf10d%2Fimg%2Favatars%2Fava_0010-512.png", "custom_css": null}, {"id": 7886, "slack_id": "U091X24LQJZ", "display_name": "Connor A. Hopley", "bio": null, "projects_count": 0, "devlogs_count": 0, "votes_count": 0, "ships_count": 0, "projects": [], "coding_time_seconds": 0, "coding_time_seconds_today": 0, "balance": "You need to have a pocket watcher badge to view this.", "badges": [], "created_at": "2025-06-18T00:57:25.220-04:00", "updated_at": "2025-07-03T19:45:51.215-04:00", "avatar": "https://secure.gravatar.com/avatar/d9183e7fbfb9899463866c5dd397a927.jpg?s=512&d=https%3A%2F%2Fa.slack-edge.com%2Fdf10d%2Fimg%2Favatars%2Fava_0026-512.png", "custom_css": null}, {"id": 7887, "slack_id": "U092M0B8URW", "display_name": "Arth Vansola", "bio": null, "projects_count": 0, "devlogs_count": 0, "votes_count": 0, "ships_count": 0, "projects": [], "coding_time_seconds": 0, "coding_time_seconds_today": 0, "balance": "You need to have a pocket watcher badge to view this.", "badges": [], "created_at": "2025-06-18T00:57:25.321-04:00", "updated_at": "2025-07-03T19:45:51.471-04:00", "avatar": "https://secure.gravatar.com/avatar/581be3cea9da446ca840440df7b9c2d2.jpg?s=512&d=https%3A%2F%2Fa.slack-edge.com%2Fdf10d%2Fimg%2Favatars%2Fava_0019-512.png", "custom_css": null}, {"id": 7888, "slack_id": "U091YG2JQ8J", "display_name": "Atharv Hiremath", "bio": null, "projects_count": 0, "devlogs_count": 0, "votes_count": 0, "ships_count": 0, "projects": [], "coding_time_seconds": 13842, "coding_time_seconds_today": 0, "balance": "You need to have a pocket watcher badge to view this.", "badges": [], "created_at": "2025-06-18T00:57:31.237-04:00", "updated_at": "2025-07-06T08:08:37.240-04:00", "avatar": "https://avatars.slack-edge.com/2025-06-17/9051431774983_748aade3aead5d45d49b_original.jpg", "custom_css": null}, {"id": 7889, "slack_id": "U091YV69GEQ", "display_name": "Prince Agrawal", "bio": null, "projects_count": 0, "devlogs_count": 0, "votes_count": 0, "ships_count": 0, "projects": [], "coding_time_seconds": 155946, "coding_time_seconds_today": 0, "balance": "You need to have a pocket watcher badge to view this.", "badges": [], "created_at": "2025-06-18T00:58:06.685-04:00", "updated_at": "2025-07-03T19:45:51.866-04:00", "avatar": "https://secure.gravatar.com/avatar/81e240a58342a700b44dd74d224c02a6.jpg?s=512&d=https%3A%2F%2Fa.slack-edge.com%2Fdf10d%2Fimg%2Favatars%2Fava_0012-512.png", "custom_css": null}, {"id": 7890, "slack_id": "U092B5G60Q1", "display_name": "Devansh Verma", "bio": null, "projects_count": 0, "devlogs_count": 0, "votes_count": 0, "ships_count": 0, "projects": [], "coding_time_seconds": 0, "coding_time_seconds_today": 0, "balance": "You need to have a pocket watcher badge to view this.", "badges": [], "created_at": "2025-06-18T00:58:25.507-04:00", "updated_at": "2025-07-03T19:45:52.138-04:00", "avatar": "https://avatars.slack-edge.com/2025-06-17/9066562706642_21a8e0cd1d83bcc4ae31_original.gif", "custom_css": null}, {"id": 7891, "slack_id": "U091YV94D3N", "display_name": "Fersho", "bio": null, "projects_count": 0, "devlogs_count": 0, "votes_count": 0, "ships_count": 0, "projects": [], "coding_time_seconds": 164414, "coding_time_seconds_today": 0, "balance": "You need to have a pocket watcher badge to view this.", "badges": [], "created_at": "2025-06-18T00:59:10.922-04:00", "updated_at": "2025-07-03T19:45:52.416-04:00", "avatar": "https://secure.gravatar.com/avatar/4e8bbcf47a81846574a17d65b7c91b45.jpg?s=512&d=https%3A%2F%2Fa.slack-edge.com%2Fdf10d%2Fimg%2Favatars%2Fava_0003-512.png", "custom_css": null}, {"id": 7892, "slack_id": "U092B51S325", "display_name": "Aadi", "bio": null, "projects_count": 0, "devlogs_count": 0, "votes_count": 0, "ships_count": 0, "projects": [], "coding_time_seconds": 0, "coding_time_seconds_today": 0, "balance": "You need to have a pocket watcher badge to view this.", "badges": [], "created_at": "2025-06-18T00:59:21.877-04:00", "updated_at": "2025-07-03T19:45:52.688-04:00", "avatar": "https://secure.gravatar.com/avatar/32a9d47633a0d80a16b05a0cef282975.jpg?s=512&d=https%3A%2F%2Fa.slack-edge.com%2Fdf10d%2Fimg%2Favatars%2Fava_0015-512.png", "custom_css": null}, {"id": 7893, "slack_id": "U091RUJ8QKD", "display_name": "Vishnu", "bio": null, "projects_count": 0, "devlogs_count": 0, "votes_count": 0, "ships_count": 0, "projects": [], "coding_time_seconds": 0, "coding_time_seconds_today": 0, "balance": "You need to have a pocket watcher badge to view this.", "badges": [], "created_at": "2025-06-18T00:59:24.242-04:00", "updated_at": "2025-07-03T19:45:52.968-04:00", "avatar": "https://secure.gravatar.com/avatar/87fdb1060b9749caf47962201dd94c10.jpg?s=512&d=https%3A%2F%2Fa.slack-edge.com%2Fdf10d%2Fimg%2Favatars%2Fava_0010-512.png", "custom_css": null}, {"id": 7894, "slack_id": "U091S004RMH", "display_name": "Kishar", "bio": null, "projects_count": 0, "devlogs_count": 0, "votes_count": 0, "ships_count": 0, "projects": [], "coding_time_seconds": 0, "coding_time_seconds_today": 0, "balance": "You need to have a pocket watcher badge to view this.", "badges": [], "created_at": "2025-06-18T00:59:26.864-04:00", "updated_at": "2025-07-03T19:45:53.237-04:00", "avatar": "https://secure.gravatar.com/avatar/c79e9d4b062be29596386d4bd805b59c.jpg?s=512&d=https%3A%2F%2Fa.slack-edge.com%2Fdf10d%2Fimg%2Favatars%2Fava_0001-512.png", "custom_css": null}, {"id": 7895, "slack_id": "U091X1JTZ53", "display_name": "ishant", "bio": null, "projects_count": 0, "devlogs_count": 0, "votes_count": 0, "ships_count": 0, "projects": [], "coding_time_seconds": 0, "coding_time_seconds_today": 0, "balance": "You need to have a pocket watcher badge to view this.", "badges": [], "created_at": "2025-06-18T01:01:14.438-04:00", "updated_at": "2025-07-03T19:45:53.501-04:00", "avatar": "https://secure.gravatar.com/avatar/9b6f62a48a112adee99ae6abd31e3436.jpg?s=512&d=https%3A%2F%2Fa.slack-edge.com%2Fdf10d%2Fimg%2Favatars%2Fava_0017-512.png", "custom_css": null}, {"id": 7896, "slack_id": "U091S099H9R", "display_name": "Adi", "bio": null, "projects_count": 0, "devlogs_count": 0, "votes_count": 0, "ships_count": 0, "projects": [], "coding_time_seconds": 0, "coding_time_seconds_today": 0, "balance": "You need to have a pocket watcher badge to view this.", "badges": [], "created_at": "2025-06-18T01:02:39.000-04:00", "updated_at": "2025-07-03T19:45:53.774-04:00", "avatar": "https://secure.gravatar.com/avatar/999cb81928b1e76a971762b0542d0d84.jpg?s=512&d=https%3A%2F%2Fa.slack-edge.com%2Fdf10d%2Fimg%2Favatars%2Fava_0006-512.png", "custom_css": null}, {"id": 7897, "slack_id": "U091YGCP4M8", "display_name": "Aditya", "bio": null, "projects_count": 0, "devlogs_count": 0, "votes_count": 0, "ships_count": 0, "projects": [], "coding_time_seconds": 27243, "coding_time_seconds_today": 0, "balance": "You need to have a pocket watcher badge to view this.", "badges": [], "created_at": "2025-06-18T01:03:13.784-04:00", "updated_at": "2025-07-03T19:45:54.040-04:00", "avatar": "https://secure.gravatar.com/avatar/8f18f133f95ad5e863e5b75cfd80d6f4.jpg?s=512&d=https%3A%2F%2Fa.slack-edge.com%2Fdf10d%2Fimg%2Favatars%2Fava_0023-512.png", "custom_css": null}, {"id": 7898, "slack_id": "U092M1B9GJU", "display_name": "ANMOL SHARMA", "bio": null, "projects_count": 0, "devlogs_count": 0, "votes_count": 0, "ships_count": 0, "projects": [], "coding_time_seconds": 0, "coding_time_seconds_today": 0, "balance": "You need to have a pocket watcher badge to view this.", "badges": [], "created_at": "2025-06-18T01:05:33.405-04:00", "updated_at": "2025-07-03T19:45:54.311-04:00", "avatar": "https://avatars.slack-edge.com/2025-06-17/9060250252806_12cf12e34ce627e17f29_original.jpg", "custom_css": null}, {"id": 7899, "slack_id": "U091S6T8NB0", "display_name": "Ahmad Fathir", "bio": null, "projects_count": 0, "devlogs_count": 0, "votes_count": 0, "ships_count": 0, "projects": [], "coding_time_seconds": 6243, "coding_time_seconds_today": 0, "balance": "You need to have a pocket watcher badge to view this.", "badges": [], "created_at": "2025-06-18T01:05:33.570-04:00", "updated_at": "2025-07-03T19:45:54.579-04:00", "avatar": "https://secure.gravatar.com/avatar/92e84b36b8bfd01c1f231f373b9cbeee.jpg?s=512&d=https%3A%2F%2Fa.slack-edge.com%2Fdf10d%2Fimg%2Favatars%2Fava_0020-512.png", "custom_css": null}, {"id": 7900, "slack_id": "U091HD2FN15", "display_name": "code in code", "bio": null, "projects_count": 0, "devlogs_count": 0, "votes_count": 0, "ships_count": 0, "projects": [], "coding_time_seconds": 0, "coding_time_seconds_today": 0, "balance": "You need to have a pocket watcher badge to view this.", "badges": [], "created_at": "2025-06-18T01:06:16.856-04:00", "updated_at": "2025-07-03T19:45:54.837-04:00", "avatar": "https://secure.gravatar.com/avatar/8c69c6712bb37a09f9e9974fbcf35aa6.jpg?s=512&d=https%3A%2F%2Fa.slack-edge.com%2Fdf10d%2Fimg%2Favatars%2Fava_0004-512.png", "custom_css": null}], "pagination": {"page": 395, "pages": 1192, "count": 23828, "items": 20}}