{"users": [{"id": 7901, "slack_id": "U091YUEBZ8C", "display_name": "dk", "bio": null, "projects_count": 0, "devlogs_count": 0, "votes_count": 0, "ships_count": 0, "projects": [], "coding_time_seconds": 0, "coding_time_seconds_today": 0, "balance": "You need to have a pocket watcher badge to view this.", "badges": [], "created_at": "2025-06-18T01:06:31.722-04:00", "updated_at": "2025-07-03T19:45:55.108-04:00", "avatar": "https://secure.gravatar.com/avatar/dca2dce98eb477c40a7f6ce59e802a2e.jpg?s=512&d=https%3A%2F%2Fa.slack-edge.com%2Fdf10d%2Fimg%2Favatars%2Fava_0016-512.png", "custom_css": null}, {"id": 7902, "slack_id": "U08N735N7GQ", "display_name": "trinexty", "bio": null, "projects_count": 0, "devlogs_count": 0, "votes_count": 1, "ships_count": 0, "projects": [], "coding_time_seconds": 240, "coding_time_seconds_today": 0, "balance": "You need to have a pocket watcher badge to view this.", "badges": [], "created_at": "2025-06-18T01:08:05.508-04:00", "updated_at": "2025-09-15T13:26:21.930-04:00", "avatar": "https://secure.gravatar.com/avatar/ab4588fc459b6e997c6703ea5029bfc2.jpg?s=512&d=https%3A%2F%2Fa.slack-edge.com%2Fdf10d%2Fimg%2Favatars%2Fava_0000-512.png", "custom_css": null}, {"id": 7903, "slack_id": "U091S11SKC3", "display_name": "shaswath arunshankar", "bio": null, "projects_count": 0, "devlogs_count": 0, "votes_count": 0, "ships_count": 0, "projects": [], "coding_time_seconds": 0, "coding_time_seconds_today": 0, "balance": "You need to have a pocket watcher badge to view this.", "badges": [], "created_at": "2025-06-18T01:08:18.315-04:00", "updated_at": "2025-07-03T19:45:55.502-04:00", "avatar": "https://avatars.slack-edge.com/2025-06-17/9067024754804_9ef2b8322e4915a00a48_original.png", "custom_css": null}, {"id": 7904, "slack_id": "U091X3FSPM3", "display_name": "Sumit Kumar", "bio": null, "projects_count": 7, "devlogs_count": 13, "votes_count": 57, "ships_count": 7, "projects": [{"id": 13480, "title": "TODOLIST", "devlogs_count": 1, "created_at": "2025-09-17T12:54:38.566-04:00"}, {"id": 9672, "title": "TYPING SPEED GAME", "devlogs_count": 1, "created_at": "2025-08-02T01:49:53.668-04:00"}, {"id": 9657, "title": "CALCULATOR", "devlogs_count": 1, "created_at": "2025-08-02T01:21:21.925-04:00"}, {"id": 4086, "title": "TIC TAK TOE", "devlogs_count": 1, "created_at": "2025-06-27T11:21:45.667-04:00"}, {"id": 3924, "title": "CHESS", "devlogs_count": 4, "created_at": "2025-06-26T10:50:09.945-04:00"}, {"id": 3690, "title": "OLD SCHOOL RELOADED", "devlogs_count": 2, "created_at": "2025-06-25T08:31:01.580-04:00"}, {"id": 10210, "title": "WEATHER", "devlogs_count": 1, "created_at": "2025-08-05T00:42:50.373-04:00"}], "coding_time_seconds": 239258, "coding_time_seconds_today": 424, "balance": "You need to have a pocket watcher badge to view this.", "badges": [{"name": "Maiden Voyage", "text": "you shipped your first project! the journey begins...", "icon": "\ud83d\udea2"}, {"name": "Ballot Stuffer", "text": "vote 100 times.", "icon": "https://summer.hackclub.com/assets/i_voted-bf851b48.png"}], "created_at": "2025-06-18T01:10:36.952-04:00", "updated_at": "2025-09-10T22:55:05.126-04:00", "avatar": "https://secure.gravatar.com/avatar/5fba955bbf241526d890278aa02b877c.jpg?s=512&d=https%3A%2F%2Fa.slack-edge.com%2Fdf10d%2Fimg%2Favatars%2Fava_0004-512.png", "custom_css": null}, {"id": 7905, "slack_id": "U091S7JRQS2", "display_name": "AMAN KASHYAP", "bio": null, "projects_count": 0, "devlogs_count": 0, "votes_count": 0, "ships_count": 0, "projects": [], "coding_time_seconds": 20739, "coding_time_seconds_today": 0, "balance": "You need to have a pocket watcher badge to view this.", "badges": [], "created_at": "2025-06-18T01:10:48.846-04:00", "updated_at": "2025-07-03T19:45:55.899-04:00", "avatar": "https://avatars.slack-edge.com/2025-06-17/9089072660864_21aee0adbc614169476e_original.jpg", "custom_css": null}, {"id": 7906, "slack_id": "U091S41HDLN", "display_name": "shaurya", "bio": null, "projects_count": 0, "devlogs_count": 0, "votes_count": 0, "ships_count": 0, "projects": [], "coding_time_seconds": 0, "coding_time_seconds_today": 0, "balance": "You need to have a pocket watcher badge to view this.", "badges": [], "created_at": "2025-06-18T01:11:04.770-04:00", "updated_at": "2025-07-05T08:09:10.929-04:00", "avatar": "https://secure.gravatar.com/avatar/2f38df180ad77f7db41ef02015004084.jpg?s=512&d=https%3A%2F%2Fa.slack-edge.com%2Fdf10d%2Fimg%2Favatars%2Fava_0024-512.png", "custom_css": null}, {"id": 7907, "slack_id": "U092M194P9N", "display_name": "Sarath", "bio": null, "projects_count": 0, "devlogs_count": 0, "votes_count": 0, "ships_count": 0, "projects": [], "coding_time_seconds": 60833, "coding_time_seconds_today": 0, "balance": "You need to have a pocket watcher badge to view this.", "badges": [], "created_at": "2025-06-18T01:11:22.165-04:00", "updated_at": "2025-07-03T19:45:56.294-04:00", "avatar": "https://secure.gravatar.com/avatar/4430efcab5317590407a82273257db86.jpg?s=512&d=https%3A%2F%2Fa.slack-edge.com%2Fdf10d%2Fimg%2Favatars%2Fava_0001-512.png", "custom_css": null}, {"id": 7908, "slack_id": "U091X3PREJH", "display_name": "adikr30", "bio": null, "projects_count": 0, "devlogs_count": 0, "votes_count": 0, "ships_count": 0, "projects": [], "coding_time_seconds": 64331, "coding_time_seconds_today": 0, "balance": "You need to have a pocket watcher badge to view this.", "badges": [], "created_at": "2025-06-18T01:13:31.381-04:00", "updated_at": "2025-07-03T19:45:56.561-04:00", "avatar": "https://secure.gravatar.com/avatar/f4c1e1365256bbaa526769dc993ab984.jpg?s=512&d=https%3A%2F%2Fa.slack-edge.com%2Fdf10d%2Fimg%2Favatars%2Fava_0008-512.png", "custom_css": null}, {"id": 7909, "slack_id": "U091S139E8K", "display_name": "Matthew Belony", "bio": null, "projects_count": 0, "devlogs_count": 0, "votes_count": 0, "ships_count": 0, "projects": [], "coding_time_seconds": 0, "coding_time_seconds_today": 0, "balance": "You need to have a pocket watcher badge to view this.", "badges": [], "created_at": "2025-06-18T01:14:09.799-04:00", "updated_at": "2025-07-03T19:45:56.832-04:00", "avatar": "https://secure.gravatar.com/avatar/90b7ae84027a4fab0ebe07cefe2a3d47.jpg?s=512&d=https%3A%2F%2Fa.slack-edge.com%2Fdf10d%2Fimg%2Favatars%2Fava_0017-512.png", "custom_css": null}, {"id": 7910, "slack_id": "U092B71G509", "display_name": "kryptic", "bio": null, "projects_count": 0, "devlogs_count": 0, "votes_count": 0, "ships_count": 0, "projects": [], "coding_time_seconds": 0, "coding_time_seconds_today": 0, "balance": "You need to have a pocket watcher badge to view this.", "badges": [], "created_at": "2025-06-18T01:15:15.203-04:00", "updated_at": "2025-07-03T19:45:57.090-04:00", "avatar": "https://secure.gravatar.com/avatar/2e6338564be68313182eda907c2e51eb.jpg?s=512&d=https%3A%2F%2Fa.slack-edge.com%2Fdf10d%2Fimg%2Favatars%2Fava_0018-512.png", "custom_css": null}, {"id": 7911, "slack_id": "U091HE5JAKH", "display_name": "Angel Monrroy", "bio": null, "projects_count": 0, "devlogs_count": 0, "votes_count": 0, "ships_count": 0, "projects": [], "coding_time_seconds": 0, "coding_time_seconds_today": 0, "balance": "You need to have a pocket watcher badge to view this.", "badges": [], "created_at": "2025-06-18T01:16:01.691-04:00", "updated_at": "2025-07-03T19:45:57.355-04:00", "avatar": "https://secure.gravatar.com/avatar/37a00c55dcac15bd478789769c2c887c.jpg?s=512&d=https%3A%2F%2Fa.slack-edge.com%2Fdf10d%2Fimg%2Favatars%2Fava_0016-512.png", "custom_css": null}, {"id": 7912, "slack_id": "U091X4A1BHT", "display_name": "Jose Eduardo Barrios Vargas", "bio": null, "projects_count": 0, "devlogs_count": 0, "votes_count": 0, "ships_count": 0, "projects": [], "coding_time_seconds": 0, "coding_time_seconds_today": 0, "balance": "You need to have a pocket watcher badge to view this.", "badges": [], "created_at": "2025-06-18T01:16:23.263-04:00", "updated_at": "2025-07-03T21:57:51.764-04:00", "avatar": "https://avatars.slack-edge.com/2025-06-17/9060284531574_ee59269d0e659b3bce32_original.jpg", "custom_css": null}, {"id": 7913, "slack_id": "U091S828AT0", "display_name": "ricdex", "bio": null, "projects_count": 0, "devlogs_count": 0, "votes_count": 0, "ships_count": 0, "projects": [], "coding_time_seconds": 0, "coding_time_seconds_today": 0, "balance": "You need to have a pocket watcher badge to view this.", "badges": [], "created_at": "2025-06-18T01:16:47.523-04:00", "updated_at": "2025-07-03T19:45:57.754-04:00", "avatar": "https://secure.gravatar.com/avatar/d0e912cfa986061da2204a375b450b1a.jpg?s=512&d=https%3A%2F%2Fa.slack-edge.com%2Fdf10d%2Fimg%2Favatars%2Fava_0012-512.png", "custom_css": null}, {"id": 7914, "slack_id": "U092B73297B", "display_name": "arie", "bio": null, "projects_count": 0, "devlogs_count": 0, "votes_count": 0, "ships_count": 0, "projects": [], "coding_time_seconds": 43792, "coding_time_seconds_today": 0, "balance": "You need to have a pocket watcher badge to view this.", "badges": [], "created_at": "2025-06-18T01:17:03.918-04:00", "updated_at": "2025-07-27T14:03:19.957-04:00", "avatar": "https://secure.gravatar.com/avatar/baec505a8f6988a51daeb19b442297bf.jpg?s=512&d=https%3A%2F%2Fa.slack-edge.com%2Fdf10d%2Fimg%2Favatars%2Fava_0002-512.png", "custom_css": null}, {"id": 7915, "slack_id": "U091S1LPWKV", "display_name": "kroft", "bio": null, "projects_count": 0, "devlogs_count": 0, "votes_count": 0, "ships_count": 0, "projects": [], "coding_time_seconds": 47458, "coding_time_seconds_today": 0, "balance": "You need to have a pocket watcher badge to view this.", "badges": [], "created_at": "2025-06-18T01:17:29.110-04:00", "updated_at": "2025-07-05T08:09:11.457-04:00", "avatar": "https://secure.gravatar.com/avatar/41f579e661531ceb833ad6768824086d.jpg?s=512&d=https%3A%2F%2Fa.slack-edge.com%2Fdf10d%2Fimg%2Favatars%2Fava_0002-512.png", "custom_css": null}, {"id": 7916, "slack_id": "U01751C6SA3", "display_name": "Angel", "bio": null, "projects_count": 0, "devlogs_count": 0, "votes_count": 0, "ships_count": 0, "projects": [], "coding_time_seconds": 76558, "coding_time_seconds_today": 0, "balance": "You need to have a pocket watcher badge to view this.", "badges": [], "created_at": "2025-06-18T01:17:42.882-04:00", "updated_at": "2025-07-05T14:09:57.832-04:00", "avatar": "https://avatars.slack-edge.com/2025-03-09/8575946879843_d9fbd4615103f80e593d_original.webp", "custom_css": null}, {"id": 7917, "slack_id": "U091X4C9YAZ", "display_name": "Phillipp Gliffe", "bio": null, "projects_count": 0, "devlogs_count": 0, "votes_count": 0, "ships_count": 0, "projects": [], "coding_time_seconds": 0, "coding_time_seconds_today": 0, "balance": "You need to have a pocket watcher badge to view this.", "badges": [], "created_at": "2025-06-18T01:17:54.815-04:00", "updated_at": "2025-07-03T21:57:52.207-04:00", "avatar": "https://secure.gravatar.com/avatar/2b3c7ee15737c2b729173abaf696cc2d.jpg?s=512&d=https%3A%2F%2Fa.slack-edge.com%2Fdf10d%2Fimg%2Favatars%2Fava_0009-512.png", "custom_css": null}, {"id": 7918, "slack_id": "U091S1YT0QK", "display_name": "Smit", "bio": null, "projects_count": 0, "devlogs_count": 0, "votes_count": 0, "ships_count": 0, "projects": [], "coding_time_seconds": 0, "coding_time_seconds_today": 0, "balance": "You need to have a pocket watcher badge to view this.", "badges": [], "created_at": "2025-06-18T01:18:49.525-04:00", "updated_at": "2025-07-03T19:45:58.706-04:00", "avatar": "https://secure.gravatar.com/avatar/4153c09ce346e81b96024a858af12954.jpg?s=512&d=https%3A%2F%2Fa.slack-edge.com%2Fdf10d%2Fimg%2Favatars%2Fava_0025-512.png", "custom_css": null}, {"id": 7919, "slack_id": "U091S86NHRU", "display_name": "D-Zanark", "bio": null, "projects_count": 0, "devlogs_count": 0, "votes_count": 2, "ships_count": 0, "projects": [], "coding_time_seconds": 0, "coding_time_seconds_today": 0, "balance": "You need to have a pocket watcher badge to view this.", "badges": [], "created_at": "2025-06-18T01:19:00.151-04:00", "updated_at": "2025-07-27T15:36:47.560-04:00", "avatar": "https://secure.gravatar.com/avatar/3cef0154964a3b2a817c11dec39eb73d.jpg?s=512&d=https%3A%2F%2Fa.slack-edge.com%2Fdf10d%2Fimg%2Favatars%2Fava_0023-512.png", "custom_css": null}, {"id": 7920, "slack_id": "U091YJ2CQH0", "display_name": "Wenwei Lin", "bio": null, "projects_count": 0, "devlogs_count": 0, "votes_count": 0, "ships_count": 0, "projects": [], "coding_time_seconds": 0, "coding_time_seconds_today": 0, "balance": "You need to have a pocket watcher badge to view this.", "badges": [], "created_at": "2025-06-18T01:19:18.575-04:00", "updated_at": "2025-07-03T19:45:59.106-04:00", "avatar": "https://avatars.slack-edge.com/2025-06-17/9089099183168_9b0638b64b1dfac0a6b9_original.jpg", "custom_css": null}], "pagination": {"page": 396, "pages": 1192, "count": 23828, "items": 20}}