{"users": [{"id": 7941, "slack_id": "U091YKRAGD8", "display_name": "eleganthermann", "bio": null, "projects_count": 0, "devlogs_count": 0, "votes_count": 0, "ships_count": 0, "projects": [], "coding_time_seconds": 0, "coding_time_seconds_today": 0, "balance": "You need to have a pocket watcher badge to view this.", "badges": [], "created_at": "2025-06-18T01:37:28.967-04:00", "updated_at": "2025-07-03T19:46:03.776-04:00", "avatar": "https://secure.gravatar.com/avatar/29e3d6b2e5c5b62db5056c82e4f53e4b.jpg?s=512&d=https%3A%2F%2Fa.slack-edge.com%2Fdf10d%2Fimg%2Favatars%2Fava_0023-512.png", "custom_css": null}, {"id": 7942, "slack_id": "U092B94218R", "display_name": "SamB", "bio": null, "projects_count": 1, "devlogs_count": 0, "votes_count": 0, "ships_count": 0, "projects": [{"id": 1451, "title": "Automated Cellular Abstraction", "devlogs_count": 0, "created_at": "2025-06-18T15:10:50.533-04:00"}], "coding_time_seconds": 39929, "coding_time_seconds_today": 0, "balance": "You need to have a pocket watcher badge to view this.", "badges": [], "created_at": "2025-06-18T01:38:10.368-04:00", "updated_at": "2025-07-03T19:46:04.040-04:00", "avatar": "https://secure.gravatar.com/avatar/b9c95bf4ab8772a05ed090d07827b817.jpg?s=512&d=https%3A%2F%2Fa.slack-edge.com%2Fdf10d%2Fimg%2Favatars%2Fava_0015-512.png", "custom_css": null}, {"id": 7943, "slack_id": "U092M48PGTS", "display_name": "om", "bio": null, "projects_count": 0, "devlogs_count": 0, "votes_count": 0, "ships_count": 0, "projects": [], "coding_time_seconds": 0, "coding_time_seconds_today": 0, "balance": "You need to have a pocket watcher badge to view this.", "badges": [], "created_at": "2025-06-18T01:38:37.640-04:00", "updated_at": "2025-07-03T19:46:04.307-04:00", "avatar": "https://secure.gravatar.com/avatar/84925e10e35de8b78007b3710932e8b2.jpg?s=512&d=https%3A%2F%2Fa.slack-edge.com%2Fdf10d%2Fimg%2Favatars%2Fava_0014-512.png", "custom_css": null}, {"id": 7944, "slack_id": "U092M39A9LY", "display_name": "Alessandro Poli", "bio": null, "projects_count": 1, "devlogs_count": 3, "votes_count": 17, "ships_count": 1, "projects": [{"id": 6959, "title": "ErlChat", "devlogs_count": 3, "created_at": "2025-07-17T15:44:21.663-04:00"}], "coding_time_seconds": 60057, "coding_time_seconds_today": 0, "balance": "You need to have a pocket watcher badge to view this.", "badges": [{"name": "Maiden Voyage", "text": "you shipped your first project! the journey begins...", "icon": "\ud83d\udea2"}], "created_at": "2025-06-18T01:41:19.142-04:00", "updated_at": "2025-09-10T22:55:06.234-04:00", "avatar": "https://secure.gravatar.com/avatar/2e894d1d329643b2dc6d566ede785ccc.jpg?s=512&d=https%3A%2F%2Fa.slack-edge.com%2Fdf10d%2Fimg%2Favatars%2Fava_0008-512.png", "custom_css": null}, {"id": 7945, "slack_id": "U091X6H0HQD", "display_name": "Tole Hoy", "bio": null, "projects_count": 0, "devlogs_count": 0, "votes_count": 0, "ships_count": 0, "projects": [], "coding_time_seconds": 0, "coding_time_seconds_today": 0, "balance": "You need to have a pocket watcher badge to view this.", "badges": [], "created_at": "2025-06-18T01:41:20.229-04:00", "updated_at": "2025-07-03T19:46:04.718-04:00", "avatar": "https://secure.gravatar.com/avatar/1f1fabda98da96111e29c830fcaadd22.jpg?s=512&d=https%3A%2F%2Fa.slack-edge.com%2Fdf10d%2Fimg%2Favatars%2Fava_0009-512.png", "custom_css": null}, {"id": 7946, "slack_id": "U091X6BMUQ5", "display_name": "SillyBee", "bio": null, "projects_count": 0, "devlogs_count": 0, "votes_count": 0, "ships_count": 0, "projects": [], "coding_time_seconds": 0, "coding_time_seconds_today": 0, "balance": "You need to have a pocket watcher badge to view this.", "badges": [], "created_at": "2025-06-18T01:41:41.777-04:00", "updated_at": "2025-07-03T19:46:04.997-04:00", "avatar": "https://secure.gravatar.com/avatar/8460adfb16137a88e65f256a4cc2b10f.jpg?s=512&d=https%3A%2F%2Fa.slack-edge.com%2Fdf10d%2Fimg%2Favatars%2Fava_0024-512.png", "custom_css": null}, {"id": 7947, "slack_id": "U091YKZF8BC", "display_name": "Sarah Shafi", "bio": null, "projects_count": 0, "devlogs_count": 0, "votes_count": 0, "ships_count": 0, "projects": [], "coding_time_seconds": 0, "coding_time_seconds_today": 0, "balance": "You need to have a pocket watcher badge to view this.", "badges": [], "created_at": "2025-06-18T01:41:50.793-04:00", "updated_at": "2025-07-03T21:57:54.666-04:00", "avatar": "https://secure.gravatar.com/avatar/e2c4c8bb17efe5f91168759252426a76.jpg?s=512&d=https%3A%2F%2Fa.slack-edge.com%2Fdf10d%2Fimg%2Favatars%2Fava_0013-512.png", "custom_css": null}, {"id": 7948, "slack_id": "U091X6MLK8D", "display_name": "Pallavi", "bio": null, "projects_count": 0, "devlogs_count": 0, "votes_count": 0, "ships_count": 0, "projects": [], "coding_time_seconds": 0, "coding_time_seconds_today": 0, "balance": "You need to have a pocket watcher badge to view this.", "badges": [], "created_at": "2025-06-18T01:42:04.400-04:00", "updated_at": "2025-07-05T02:08:57.108-04:00", "avatar": "https://secure.gravatar.com/avatar/e660ad3c67852e1a2eaf906e15ac8b8e.jpg?s=512&d=https%3A%2F%2Fa.slack-edge.com%2Fdf10d%2Fimg%2Favatars%2Fava_0012-512.png", "custom_css": null}, {"id": 7949, "slack_id": "U092B9G17DX", "display_name": "Sunaina", "bio": null, "projects_count": 0, "devlogs_count": 0, "votes_count": 0, "ships_count": 0, "projects": [], "coding_time_seconds": 0, "coding_time_seconds_today": 0, "balance": "You need to have a pocket watcher badge to view this.", "badges": [], "created_at": "2025-06-18T01:42:07.395-04:00", "updated_at": "2025-07-06T08:08:41.022-04:00", "avatar": "https://secure.gravatar.com/avatar/fe4f65efb5bf64c5eef8d7a291e746ed.jpg?s=512&d=https%3A%2F%2Fa.slack-edge.com%2Fdf10d%2Fimg%2Favatars%2Fava_0001-512.png", "custom_css": null}, {"id": 7950, "slack_id": "U091HGMM5N3", "display_name": "Vishal", "bio": null, "projects_count": 0, "devlogs_count": 0, "votes_count": 0, "ships_count": 0, "projects": [], "coding_time_seconds": 4577, "coding_time_seconds_today": 0, "balance": "You need to have a pocket watcher badge to view this.", "badges": [], "created_at": "2025-06-18T01:42:12.320-04:00", "updated_at": "2025-07-04T08:23:38.480-04:00", "avatar": "https://secure.gravatar.com/avatar/0debdf249d6a9c692b39296409c75e70.jpg?s=512&d=https%3A%2F%2Fa.slack-edge.com%2Fdf10d%2Fimg%2Favatars%2Fava_0012-512.png", "custom_css": null}, {"id": 7951, "slack_id": "U091Z3Y3ZHS", "display_name": "Aman Sharma", "bio": null, "projects_count": 0, "devlogs_count": 0, "votes_count": 0, "ships_count": 0, "projects": [], "coding_time_seconds": 5616, "coding_time_seconds_today": 0, "balance": "You need to have a pocket watcher badge to view this.", "badges": [], "created_at": "2025-06-18T01:42:45.700-04:00", "updated_at": "2025-07-03T19:46:05.818-04:00", "avatar": "https://avatars.slack-edge.com/2025-06-18/9065253396597_9decc42a56f759083808_original.jpg", "custom_css": null}, {"id": 7952, "slack_id": "U091RTB117Y", "display_name": "shubham Govardhane", "bio": null, "projects_count": 0, "devlogs_count": 0, "votes_count": 0, "ships_count": 0, "projects": [], "coding_time_seconds": 0, "coding_time_seconds_today": 0, "balance": "You need to have a pocket watcher badge to view this.", "badges": [], "created_at": "2025-06-18T01:43:05.414-04:00", "updated_at": "2025-07-03T19:46:06.081-04:00", "avatar": "https://secure.gravatar.com/avatar/edac10e2c50d7ed99f7f128a1c2e69ab.jpg?s=512&d=https%3A%2F%2Fa.slack-edge.com%2Fdf10d%2Fimg%2Favatars%2Fava_0008-512.png", "custom_css": null}, {"id": 7953, "slack_id": "U091Z3WBMT6", "display_name": "Shushant", "bio": null, "projects_count": 0, "devlogs_count": 0, "votes_count": 0, "ships_count": 0, "projects": [], "coding_time_seconds": 120, "coding_time_seconds_today": 0, "balance": "You need to have a pocket watcher badge to view this.", "badges": [], "created_at": "2025-06-18T01:43:09.271-04:00", "updated_at": "2025-07-03T19:46:06.353-04:00", "avatar": "https://secure.gravatar.com/avatar/95319a44b2e182aeb9d3a6c24cd64029.jpg?s=512&d=https%3A%2F%2Fa.slack-edge.com%2Fdf10d%2Fimg%2Favatars%2Fava_0023-512.png", "custom_css": null}, {"id": 7954, "slack_id": "U091Z3YT2EQ", "display_name": "ADITYA PATHAK", "bio": null, "projects_count": 0, "devlogs_count": 0, "votes_count": 0, "ships_count": 0, "projects": [], "coding_time_seconds": 205077, "coding_time_seconds_today": 0, "balance": "You need to have a pocket watcher badge to view this.", "badges": [], "created_at": "2025-06-18T01:43:29.729-04:00", "updated_at": "2025-07-05T13:36:36.674-04:00", "avatar": "https://secure.gravatar.com/avatar/fb880f9874fa49d435a5484f92cae592.jpg?s=512&d=https%3A%2F%2Fa.slack-edge.com%2Fdf10d%2Fimg%2Favatars%2Fava_0016-512.png", "custom_css": null}, {"id": 7955, "slack_id": "U091S45AXCK", "display_name": "Baljit Panda", "bio": null, "projects_count": 0, "devlogs_count": 0, "votes_count": 0, "ships_count": 0, "projects": [], "coding_time_seconds": 1248, "coding_time_seconds_today": 0, "balance": "You need to have a pocket watcher badge to view this.", "badges": [], "created_at": "2025-06-18T01:43:35.873-04:00", "updated_at": "2025-07-03T19:46:06.755-04:00", "avatar": "https://secure.gravatar.com/avatar/1f56c9141d047920cff76defc1ee06c7.jpg?s=512&d=https%3A%2F%2Fa.slack-edge.com%2Fdf10d%2Fimg%2Favatars%2Fava_0015-512.png", "custom_css": null}, {"id": 7956, "slack_id": "U091X6ZCVQV", "display_name": "Tero Korpela", "bio": null, "projects_count": 0, "devlogs_count": 0, "votes_count": 0, "ships_count": 0, "projects": [], "coding_time_seconds": 0, "coding_time_seconds_today": 0, "balance": "You need to have a pocket watcher badge to view this.", "badges": [], "created_at": "2025-06-18T01:45:42.542-04:00", "updated_at": "2025-07-03T19:46:07.024-04:00", "avatar": "https://secure.gravatar.com/avatar/269fde6d74437c850b7a2c144f9585ba.jpg?s=512&d=https%3A%2F%2Fa.slack-edge.com%2Fdf10d%2Fimg%2Favatars%2Fava_0013-512.png", "custom_css": null}, {"id": 7957, "slack_id": "U091X749BCM", "display_name": "Lazaro", "bio": null, "projects_count": 0, "devlogs_count": 0, "votes_count": 0, "ships_count": 0, "projects": [], "coding_time_seconds": 0, "coding_time_seconds_today": 0, "balance": "You need to have a pocket watcher badge to view this.", "badges": [], "created_at": "2025-06-18T01:46:41.751-04:00", "updated_at": "2025-07-03T19:46:07.306-04:00", "avatar": "https://secure.gravatar.com/avatar/e50dcf6e91574894cfa0d49329526c55.jpg?s=512&d=https%3A%2F%2Fa.slack-edge.com%2Fdf10d%2Fimg%2Favatars%2Fava_0017-512.png", "custom_css": null}, {"id": 7958, "slack_id": "U091Z4839DJ", "display_name": "Hephhay", "bio": null, "projects_count": 0, "devlogs_count": 0, "votes_count": 0, "ships_count": 0, "projects": [], "coding_time_seconds": 0, "coding_time_seconds_today": 0, "balance": "You need to have a pocket watcher badge to view this.", "badges": [], "created_at": "2025-06-18T01:47:34.055-04:00", "updated_at": "2025-07-03T19:46:07.577-04:00", "avatar": "https://secure.gravatar.com/avatar/4d7c2e45961565e0c31114f55dcc975d.jpg?s=512&d=https%3A%2F%2Fa.slack-edge.com%2Fdf10d%2Fimg%2Favatars%2Fava_0004-512.png", "custom_css": null}, {"id": 7959, "slack_id": "U091YLN9ZC2", "display_name": "Abhiroop Santra", "bio": null, "projects_count": 0, "devlogs_count": 0, "votes_count": 0, "ships_count": 0, "projects": [], "coding_time_seconds": 0, "coding_time_seconds_today": 0, "balance": "You need to have a pocket watcher badge to view this.", "badges": [], "created_at": "2025-06-18T01:48:59.976-04:00", "updated_at": "2025-07-03T19:46:07.854-04:00", "avatar": "https://avatars.slack-edge.com/2025-06-17/9079356669297_a245baccce218051ef87_original.jpg", "custom_css": null}, {"id": 7960, "slack_id": "U092M5J3B2L", "display_name": "Maryam Saba", "bio": null, "projects_count": 1, "devlogs_count": 1, "votes_count": 0, "ships_count": 1, "projects": [{"id": 13364, "title": "Sarcasm Code Generator", "devlogs_count": 1, "created_at": "2025-09-14T14:34:23.964-04:00"}], "coding_time_seconds": 54355, "coding_time_seconds_today": 0, "balance": "You need to have a pocket watcher badge to view this.", "badges": [{"name": "Maiden Voyage", "text": "you shipped your first project! the journey begins...", "icon": "\ud83d\udea2"}], "created_at": "2025-06-18T01:51:12.940-04:00", "updated_at": "2025-09-14T14:57:09.115-04:00", "avatar": "https://avatars.slack-edge.com/2025-06-17/9060399351830_6365c1034aa5a4a3cc03_original.png", "custom_css": null}], "pagination": {"page": 398, "pages": 1192, "count": 23828, "items": 20}}