{"users": [{"id": 7961, "slack_id": "U091X73TYTX", "display_name": "Gitika Bansal", "bio": null, "projects_count": 0, "devlogs_count": 0, "votes_count": 0, "ships_count": 0, "projects": [], "coding_time_seconds": 0, "coding_time_seconds_today": 0, "balance": "You need to have a pocket watcher badge to view this.", "badges": [], "created_at": "2025-06-18T01:51:14.907-04:00", "updated_at": "2025-07-03T19:46:08.392-04:00", "avatar": "https://secure.gravatar.com/avatar/33bcf5eee2389076d604b8f5fd245bb2.jpg?s=512&d=https%3A%2F%2Fa.slack-edge.com%2Fdf10d%2Fimg%2Favatars%2Fava_0009-512.png", "custom_css": null}, {"id": 7962, "slack_id": "U091YLW7ZUJ", "display_name": "Ahmed Waheed", "bio": null, "projects_count": 0, "devlogs_count": 0, "votes_count": 0, "ships_count": 0, "projects": [], "coding_time_seconds": 0, "coding_time_seconds_today": 0, "balance": "You need to have a pocket watcher badge to view this.", "badges": [], "created_at": "2025-06-18T01:51:16.057-04:00", "updated_at": "2025-07-04T02:27:21.914-04:00", "avatar": "https://avatars.slack-edge.com/2025-06-17/9079364109153_67149187aa1d8fe0e8c5_original.jpg", "custom_css": null}, {"id": 7963, "slack_id": "U091S57LG91", "display_name": "Ganesh Mysore", "bio": null, "projects_count": 0, "devlogs_count": 0, "votes_count": 0, "ships_count": 0, "projects": [], "coding_time_seconds": 0, "coding_time_seconds_today": 0, "balance": "You need to have a pocket watcher badge to view this.", "badges": [], "created_at": "2025-06-18T01:52:27.641-04:00", "updated_at": "2025-07-03T19:46:08.794-04:00", "avatar": "https://secure.gravatar.com/avatar/7eebb547ea6c57b225214839a0d15cc9.jpg?s=512&d=https%3A%2F%2Fa.slack-edge.com%2Fdf10d%2Fimg%2Favatars%2Fava_0004-512.png", "custom_css": null}, {"id": 7964, "slack_id": "U091HHY3XFH", "display_name": "Kizawen", "bio": null, "projects_count": 0, "devlogs_count": 0, "votes_count": 0, "ships_count": 0, "projects": [], "coding_time_seconds": 0, "coding_time_seconds_today": 0, "balance": "You need to have a pocket watcher badge to view this.", "badges": [], "created_at": "2025-06-18T01:53:26.098-04:00", "updated_at": "2025-07-05T14:10:00.889-04:00", "avatar": "https://secure.gravatar.com/avatar/fd837bd7d99ee106d8df51e84f69e4de.jpg?s=512&d=https%3A%2F%2Fa.slack-edge.com%2Fdf10d%2Fimg%2Favatars%2Fava_0012-512.png", "custom_css": null}, {"id": 7965, "slack_id": "U091SBNPT8W", "display_name": "Sander", "bio": null, "projects_count": 0, "devlogs_count": 0, "votes_count": 0, "ships_count": 0, "projects": [], "coding_time_seconds": 0, "coding_time_seconds_today": 0, "balance": "You need to have a pocket watcher badge to view this.", "badges": [], "created_at": "2025-06-18T01:54:51.704-04:00", "updated_at": "2025-07-03T19:46:09.200-04:00", "avatar": "https://secure.gravatar.com/avatar/aafab0a52169f62cb924a58f63746775.jpg?s=512&d=https%3A%2F%2Fa.slack-edge.com%2Fdf10d%2Fimg%2Favatars%2Fava_0004-512.png", "custom_css": null}, {"id": 7966, "slack_id": "U082UHRGHDY", "display_name": "404 error", "bio": null, "projects_count": 0, "devlogs_count": 0, "votes_count": 0, "ships_count": 0, "projects": [], "coding_time_seconds": 0, "coding_time_seconds_today": 0, "balance": "You need to have a pocket watcher badge to view this.", "badges": [], "created_at": "2025-06-18T01:54:54.568-04:00", "updated_at": "2025-08-09T15:22:35.494-04:00", "avatar": "https://avatars.slack-edge.com/2025-06-18/9068047887605_ea62a5f233db890349a2_original.jpg", "custom_css": null}, {"id": 7967, "slack_id": "U091PAJUJKV", "display_name": "Chenul Dulmika Thenuwara", "bio": null, "projects_count": 0, "devlogs_count": 0, "votes_count": 0, "ships_count": 0, "projects": [], "coding_time_seconds": 0, "coding_time_seconds_today": 0, "balance": "You need to have a pocket watcher badge to view this.", "badges": [], "created_at": "2025-06-18T01:54:57.213-04:00", "updated_at": "2025-07-03T19:46:09.753-04:00", "avatar": "https://secure.gravatar.com/avatar/ec3d2ce580d2d735ef6ac77b2461b7a3.jpg?s=512&d=https%3A%2F%2Fa.slack-edge.com%2Fdf10d%2Fimg%2Favatars%2Fava_0025-512.png", "custom_css": null}, {"id": 7968, "slack_id": "U091YLXDJFL", "display_name": "Deepthi", "bio": null, "projects_count": 0, "devlogs_count": 0, "votes_count": 0, "ships_count": 0, "projects": [], "coding_time_seconds": 0, "coding_time_seconds_today": 0, "balance": "You need to have a pocket watcher badge to view this.", "badges": [], "created_at": "2025-06-18T01:55:44.906-04:00", "updated_at": "2025-07-07T14:39:47.658-04:00", "avatar": "https://secure.gravatar.com/avatar/3a1e2e95c446bfa4ca2a281310a6d98a.jpg?s=512&d=https%3A%2F%2Fa.slack-edge.com%2Fdf10d%2Fimg%2Favatars%2Fava_0018-512.png", "custom_css": null}, {"id": 7969, "slack_id": "U091Z4UMYBE", "display_name": "unfav", "bio": null, "projects_count": 0, "devlogs_count": 0, "votes_count": 0, "ships_count": 0, "projects": [], "coding_time_seconds": 0, "coding_time_seconds_today": 0, "balance": "You need to have a pocket watcher badge to view this.", "badges": [], "created_at": "2025-06-18T01:56:04.908-04:00", "updated_at": "2025-07-05T08:09:14.653-04:00", "avatar": "https://secure.gravatar.com/avatar/ff2863de68a9bbf330421fd3a3ccf0fc.jpg?s=512&d=https%3A%2F%2Fa.slack-edge.com%2Fdf10d%2Fimg%2Favatars%2Fava_0000-512.png", "custom_css": null}, {"id": 7970, "slack_id": "U091KK4942F", "display_name": "Ravindu Jayasekara", "bio": null, "projects_count": 0, "devlogs_count": 0, "votes_count": 0, "ships_count": 0, "projects": [], "coding_time_seconds": 0, "coding_time_seconds_today": 0, "balance": "You need to have a pocket watcher badge to view this.", "badges": [], "created_at": "2025-06-18T01:56:15.355-04:00", "updated_at": "2025-07-03T21:46:01.428-04:00", "avatar": "https://avatars.slack-edge.com/2025-06-17/9066734922610_bbec22b6bf44ad255435_original.jpg", "custom_css": null}, {"id": 7971, "slack_id": "U091SBX8AR4", "display_name": "djb", "bio": null, "projects_count": 0, "devlogs_count": 0, "votes_count": 0, "ships_count": 0, "projects": [], "coding_time_seconds": 0, "coding_time_seconds_today": 0, "balance": "You need to have a pocket watcher badge to view this.", "badges": [], "created_at": "2025-06-18T01:56:51.549-04:00", "updated_at": "2025-07-03T19:46:10.448-04:00", "avatar": "https://secure.gravatar.com/avatar/5a6995c6a4c9d55fcc04de3a1a079aba.jpg?s=512&d=https%3A%2F%2Fa.slack-edge.com%2Fdf10d%2Fimg%2Favatars%2Fava_0002-512.png", "custom_css": null}, {"id": 7972, "slack_id": "U092M60Q6TA", "display_name": "Deleena Rana", "bio": null, "projects_count": 0, "devlogs_count": 0, "votes_count": 0, "ships_count": 0, "projects": [], "coding_time_seconds": 0, "coding_time_seconds_today": 0, "balance": "You need to have a pocket watcher badge to view this.", "badges": [], "created_at": "2025-06-18T01:56:54.019-04:00", "updated_at": "2025-07-03T19:46:10.717-04:00", "avatar": "https://secure.gravatar.com/avatar/a5ea78c226125355052fa94d20e12e0d.jpg?s=512&d=https%3A%2F%2Fa.slack-edge.com%2Fdf10d%2Fimg%2Favatars%2Fava_0022-512.png", "custom_css": null}, {"id": 7973, "slack_id": "U092BAY4H5X", "display_name": "Sravan Kumar Reddy Siddi Reddy", "bio": null, "projects_count": 0, "devlogs_count": 0, "votes_count": 0, "ships_count": 0, "projects": [], "coding_time_seconds": 0, "coding_time_seconds_today": 0, "balance": "You need to have a pocket watcher badge to view this.", "badges": [], "created_at": "2025-06-18T01:59:11.045-04:00", "updated_at": "2025-07-05T14:10:01.731-04:00", "avatar": "https://secure.gravatar.com/avatar/780c2147d93276d8130f2bb3c10a2633.jpg?s=512&d=https%3A%2F%2Fa.slack-edge.com%2Fdf10d%2Fimg%2Favatars%2Fava_0003-512.png", "custom_css": null}, {"id": 7974, "slack_id": "U091S5T9Z6F", "display_name": "Hari Saran", "bio": null, "projects_count": 0, "devlogs_count": 0, "votes_count": 0, "ships_count": 0, "projects": [], "coding_time_seconds": 0, "coding_time_seconds_today": 0, "balance": "You need to have a pocket watcher badge to view this.", "badges": [], "created_at": "2025-06-18T01:59:26.408-04:00", "updated_at": "2025-07-03T19:46:11.956-04:00", "avatar": "https://avatars.slack-edge.com/2025-06-17/9060210405187_9a80710a6ae27b78abf0_original.jpg", "custom_css": null}, {"id": 7975, "slack_id": "U091WJ3CTSR", "display_name": "Yapa Glover", "bio": null, "projects_count": 1, "devlogs_count": 5, "votes_count": 2, "ships_count": 0, "projects": [{"id": 2739, "title": "Tempescope", "devlogs_count": 5, "created_at": "2025-06-21T23:17:49.289-04:00"}], "coding_time_seconds": 22463, "coding_time_seconds_today": 0, "balance": "You need to have a pocket watcher badge to view this.", "badges": [], "created_at": "2025-06-18T01:59:29.403-04:00", "updated_at": "2025-08-14T11:42:31.012-04:00", "avatar": "https://secure.gravatar.com/avatar/0780706587ca97d08200ca49c34968cf.jpg?s=512&d=https%3A%2F%2Fa.slack-edge.com%2Fdf10d%2Fimg%2Favatars%2Fava_0021-512.png", "custom_css": null}, {"id": 7976, "slack_id": "U092M4W3PPS", "display_name": "C", "bio": null, "projects_count": 0, "devlogs_count": 0, "votes_count": 0, "ships_count": 0, "projects": [], "coding_time_seconds": 0, "coding_time_seconds_today": 0, "balance": "You need to have a pocket watcher badge to view this.", "badges": [], "created_at": "2025-06-18T01:59:55.838-04:00", "updated_at": "2025-07-03T19:46:12.487-04:00", "avatar": "https://secure.gravatar.com/avatar/f3f57c255e73185f8764645a358a72f3.jpg?s=512&d=https%3A%2F%2Fa.slack-edge.com%2Fdf10d%2Fimg%2Favatars%2Fava_0015-512.png", "custom_css": null}, {"id": 7977, "slack_id": "U091HJBT0EB", "display_name": "Sokhib Jaynarov", "bio": null, "projects_count": 0, "devlogs_count": 0, "votes_count": 0, "ships_count": 0, "projects": [], "coding_time_seconds": 0, "coding_time_seconds_today": 0, "balance": "You need to have a pocket watcher badge to view this.", "badges": [], "created_at": "2025-06-18T02:00:36.044-04:00", "updated_at": "2025-07-03T19:46:12.757-04:00", "avatar": "https://secure.gravatar.com/avatar/a21efbd3d0a970ae6538d6b1a1f57c09.jpg?s=512&d=https%3A%2F%2Fa.slack-edge.com%2Fdf10d%2Fimg%2Favatars%2Fava_0001-512.png", "custom_css": null}, {"id": 7978, "slack_id": "U091SCL94NA", "display_name": "Lakshya", "bio": null, "projects_count": 0, "devlogs_count": 0, "votes_count": 0, "ships_count": 0, "projects": [], "coding_time_seconds": 4432, "coding_time_seconds_today": 0, "balance": "You need to have a pocket watcher badge to view this.", "badges": [], "created_at": "2025-06-18T02:01:41.358-04:00", "updated_at": "2025-07-03T19:46:13.403-04:00", "avatar": "https://secure.gravatar.com/avatar/d3797d2d3f0548f9f399e998fc9a04f8.jpg?s=512&d=https%3A%2F%2Fa.slack-edge.com%2Fdf10d%2Fimg%2Favatars%2Fava_0015-512.png", "custom_css": null}, {"id": 7979, "slack_id": "U091HJY9MUP", "display_name": "CODE_RED", "bio": null, "projects_count": 0, "devlogs_count": 0, "votes_count": 0, "ships_count": 0, "projects": [], "coding_time_seconds": 0, "coding_time_seconds_today": 0, "balance": "You need to have a pocket watcher badge to view this.", "badges": [], "created_at": "2025-06-18T02:01:56.292-04:00", "updated_at": "2025-07-03T21:46:02.153-04:00", "avatar": "https://secure.gravatar.com/avatar/e4bba42a78233ae8b8d2d5dc3523bb3b.jpg?s=512&d=https%3A%2F%2Fa.slack-edge.com%2Fdf10d%2Fimg%2Favatars%2Fava_0006-512.png", "custom_css": null}, {"id": 7980, "slack_id": "U092M6MGGAC", "display_name": "Vedant Pahariya", "bio": null, "projects_count": 2, "devlogs_count": 9, "votes_count": 10, "ships_count": 1, "projects": [{"id": 2046, "title": "FashionVision: Neural Style Classifier with PyTorch", "devlogs_count": 7, "created_at": "2025-06-20T01:53:16.877-04:00"}, {"id": 6425, "title": "CVA6 RISC-V Core: In-Depth Analysis & Python Test Framework", "devlogs_count": 2, "created_at": "2025-07-13T06:54:31.525-04:00"}], "coding_time_seconds": 404545, "coding_time_seconds_today": 1007, "balance": "You need to have a pocket watcher badge to view this.", "badges": [{"name": "Maiden Voyage", "text": "you shipped your first project! the journey begins...", "icon": "\ud83d\udea2"}], "created_at": "2025-06-18T02:02:08.970-04:00", "updated_at": "2025-09-10T22:55:07.333-04:00", "avatar": "https://secure.gravatar.com/avatar/dad7812fe3d135d25ed606c6647cf1b4.jpg?s=512&d=https%3A%2F%2Fa.slack-edge.com%2Fdf10d%2Fimg%2Favatars%2Fava_0021-512.png", "custom_css": null}], "pagination": {"page": 399, "pages": 1192, "count": 23828, "items": 20}}