{"users": [{"id": 61, "slack_id": "U0892EVDF26", "display_name": "Rohan Gupta", "bio": null, "projects_count": 0, "devlogs_count": 0, "votes_count": 0, "ships_count": 0, "projects": [], "coding_time_seconds": 99967, "coding_time_seconds_today": 0, "balance": "You need to have a pocket watcher badge to view this.", "badges": [], "created_at": "2025-06-15T21:26:59.235-04:00", "updated_at": "2025-07-03T19:11:12.832-04:00", "avatar": "https://secure.gravatar.com/avatar/197c3ba44c1fe8fe8a703048ba1f3fbc.jpg?s=512&d=https%3A%2F%2Fa.slack-edge.com%2Fdf10d%2Fimg%2Favatars%2Fava_0018-512.png", "custom_css": null}, {"id": 62, "slack_id": "U07C4TK524Q", "display_name": "ayaangrover", "bio": "student", "projects_count": 0, "devlogs_count": 28, "votes_count": 36, "ships_count": 0, "projects": [], "coding_time_seconds": 578726, "coding_time_seconds_today": 0, "balance": "You need to have a pocket watcher badge to view this.", "badges": [{"name": "Maiden Voyage", "text": "you shipped your first project! the journey begins...", "icon": "\ud83d\udea2"}], "created_at": "2025-06-15T21:27:57.976-04:00", "updated_at": "2025-09-10T22:51:07.749-04:00", "avatar": "https://avatars.slack-edge.com/2025-08-18/9373221145702_c457a5f1d01245c9cd35_original.png", "custom_css": null}, {"id": 63, "slack_id": "U07EB2Y76DP", "display_name": "fsh", "bio": "", "projects_count": 4, "devlogs_count": 28, "votes_count": 65, "ships_count": 4, "projects": [{"id": 6972, "title": "Atmosbot", "devlogs_count": 10, "created_at": "2025-07-17T19:36:58.074-04:00"}, {"id": 11995, "title": "QuoteThat", "devlogs_count": 6, "created_at": "2025-08-22T00:16:33.301-04:00"}, {"id": 13264, "title": "StatusChecker", "devlogs_count": 7, "created_at": "2025-09-12T22:08:06.736-04:00"}, {"id": 11444, "title": "AutoCat", "devlogs_count": 5, "created_at": "2025-08-16T01:00:10.325-04:00"}], "coding_time_seconds": 84601, "coding_time_seconds_today": 0, "balance": "You need to have a pocket watcher badge to view this.", "badges": [{"name": "Maiden Voyage", "text": "you shipped your first project! the journey begins...", "icon": "\ud83d\udea2"}], "created_at": "2025-06-15T21:30:14.922-04:00", "updated_at": "2025-09-21T17:48:36.273-04:00", "avatar": "https://avatars.slack-edge.com/2025-07-26/9257341375301_30a82c44addccc02d0fd_original.png", "custom_css": null}, {"id": 64, "slack_id": "U01581HFAGZ", "display_name": "alex (p variant)", "bio": null, "projects_count": 0, "devlogs_count": 0, "votes_count": 0, "ships_count": 0, "projects": [], "coding_time_seconds": 185352, "coding_time_seconds_today": 0, "balance": "You need to have a pocket watcher badge to view this.", "badges": [], "created_at": "2025-06-15T21:30:41.130-04:00", "updated_at": "2025-07-03T19:11:13.644-04:00", "avatar": "https://avatars.slack-edge.com/2025-04-24/8813501420913_cea7b8b16f9aec64ea8a_original.png", "custom_css": null}, {"id": 65, "slack_id": "U08QMC72ZST", "display_name": "Kaylee", "bio": null, "projects_count": 0, "devlogs_count": 0, "votes_count": 1, "ships_count": 0, "projects": [], "coding_time_seconds": 83482, "coding_time_seconds_today": 0, "balance": "You need to have a pocket watcher badge to view this.", "badges": [], "created_at": "2025-06-15T21:31:35.775-04:00", "updated_at": "2025-07-03T19:11:13.925-04:00", "avatar": "https://avatars.slack-edge.com/2025-06-03/8997387062114_0299571ab9b499efcd7e_original.png", "custom_css": null}, {"id": 66, "slack_id": "U05PRRU5GSJ", "display_name": "mihi", "bio": null, "projects_count": 0, "devlogs_count": 0, "votes_count": 0, "ships_count": 0, "projects": [], "coding_time_seconds": 0, "coding_time_seconds_today": 0, "balance": "You need to have a pocket watcher badge to view this.", "badges": [], "created_at": "2025-06-15T21:33:11.482-04:00", "updated_at": "2025-07-03T19:11:14.197-04:00", "avatar": "https://avatars.slack-edge.com/2024-09-08/7717628635968_746c7cf382a692115d89_original.png", "custom_css": null}, {"id": 67, "slack_id": "U06P62WGWAV", "display_name": "Meghana", "bio": null, "projects_count": 5, "devlogs_count": 7, "votes_count": 0, "ships_count": 1, "projects": [{"id": 3771, "title": "pathfinder", "devlogs_count": 6, "created_at": "2025-06-25T16:56:13.252-04:00"}, {"id": 10, "title": "meghana's website", "devlogs_count": 0, "created_at": "2025-06-15T21:40:21.165-04:00"}, {"id": 12, "title": "Delorean", "devlogs_count": 0, "created_at": "2025-06-15T21:43:09.361-04:00"}, {"id": 16, "title": "Odyssey", "devlogs_count": 1, "created_at": "2025-06-15T21:49:19.871-04:00"}, {"id": 14, "title": "zuck test", "devlogs_count": 0, "created_at": "2025-06-15T21:45:16.822-04:00"}], "coding_time_seconds": 215295, "coding_time_seconds_today": 0, "balance": "You need to have a pocket watcher badge to view this.", "badges": [{"name": "Maiden Voyage", "text": "you shipped your first project! the journey begins...", "icon": "\ud83d\udea2"}], "created_at": "2025-06-15T21:33:13.180-04:00", "updated_at": "2025-09-10T22:51:07.909-04:00", "avatar": "https://avatars.slack-edge.com/2025-07-03/9168867805872_f9e2b8fa17b8cf169b46_original.jpg", "custom_css": null}, {"id": 68, "slack_id": "U07FXPUDYDC", "display_name": "Cyril Li", "bio": "heat from fire", "projects_count": 3, "devlogs_count": 11, "votes_count": 0, "ships_count": 0, "projects": [{"id": 2363, "title": "mpris-lan", "devlogs_count": 8, "created_at": "2025-06-20T20:15:36.657-04:00"}, {"id": 3092, "title": "apple_maps_shield", "devlogs_count": 2, "created_at": "2025-06-23T04:19:43.999-04:00"}, {"id": 5059, "title": "tpov", "devlogs_count": 1, "created_at": "2025-07-03T01:26:32.552-04:00"}], "coding_time_seconds": 418505, "coding_time_seconds_today": 0, "balance": "You need to have a pocket watcher badge to view this.", "badges": [], "created_at": "2025-06-15T21:33:15.020-04:00", "updated_at": "2025-09-06T20:37:21.432-04:00", "avatar": "https://avatars.slack-edge.com/2025-08-16/9362213660901_9cc1fc1e05b9e1314e2e_original.png", "custom_css": null}, {"id": 69, "slack_id": "U07FCRNHS1J", "display_name": "augie", "bio": null, "projects_count": 2, "devlogs_count": 1, "votes_count": 1, "ships_count": 0, "projects": [{"id": 10252, "title": "Dashboarded", "devlogs_count": 1, "created_at": "2025-08-05T11:44:04.661-04:00"}, {"id": 10398, "title": "asdf", "devlogs_count": 0, "created_at": "2025-08-06T15:50:34.567-04:00"}], "coding_time_seconds": 351923, "coding_time_seconds_today": 0, "balance": "You need to have a pocket watcher badge to view this.", "badges": [], "created_at": "2025-06-15T21:33:20.677-04:00", "updated_at": "2025-09-09T14:00:08.497-04:00", "avatar": "https://avatars.slack-edge.com/2025-09-09/9500477653457_7b22b2908f423d28e7f8_original.png", "custom_css": null}, {"id": 70, "slack_id": "U08R4FKN8DD", "display_name": "Jason Zhang", "bio": null, "projects_count": 0, "devlogs_count": 0, "votes_count": 0, "ships_count": 0, "projects": [], "coding_time_seconds": 0, "coding_time_seconds_today": 0, "balance": "You need to have a pocket watcher badge to view this.", "badges": [], "created_at": "2025-06-15T21:34:27.297-04:00", "updated_at": "2025-07-03T19:11:15.306-04:00", "avatar": "https://avatars.slack-edge.com/2025-05-08/8862449910614_4346845ca93b7bd407a8_original.png", "custom_css": null}, {"id": 71, "slack_id": "U07FEFY2DNC", "display_name": "crabby605", "bio": null, "projects_count": 1, "devlogs_count": 1, "votes_count": 0, "ships_count": 0, "projects": [{"id": 1289, "title": "Review Pipeline", "devlogs_count": 1, "created_at": "2025-06-18T05:54:20.105-04:00"}], "coding_time_seconds": 38207, "coding_time_seconds_today": 0, "balance": "You need to have a pocket watcher badge to view this.", "badges": [], "created_at": "2025-06-15T21:36:29.888-04:00", "updated_at": "2025-08-29T14:00:08.744-04:00", "avatar": "https://avatars.slack-edge.com/2025-08-29/9435574746644_c6edd969e2a4379a3451_original.jpg", "custom_css": null}, {"id": 72, "slack_id": "U07QNKS5SKA", "display_name": "Person20020 (Koji)", "bio": null, "projects_count": 1, "devlogs_count": 1, "votes_count": 0, "ships_count": 0, "projects": [{"id": 7069, "title": "Meme Bot", "devlogs_count": 1, "created_at": "2025-07-18T17:27:43.983-04:00"}], "coding_time_seconds": 184891, "coding_time_seconds_today": 1304, "balance": "You need to have a pocket watcher badge to view this.", "badges": [], "created_at": "2025-06-15T21:38:18.122-04:00", "updated_at": "2025-07-03T19:11:15.837-04:00", "avatar": "https://avatars.slack-edge.com/2025-03-23/8647185842963_21b550ff736b09e47203_original.png", "custom_css": null}, {"id": 73, "slack_id": "U08BXU0CBHN", "display_name": "gabe", "bio": null, "projects_count": 1, "devlogs_count": 1, "votes_count": 19, "ships_count": 1, "projects": [{"id": 10801, "title": "Ugoku!", "devlogs_count": 1, "created_at": "2025-08-11T00:44:39.094-04:00"}], "coding_time_seconds": 238001, "coding_time_seconds_today": 0, "balance": "You need to have a pocket watcher badge to view this.", "badges": [{"name": "Maiden Voyage", "text": "you shipped your first project! the journey begins...", "icon": "\ud83d\udea2"}], "created_at": "2025-06-15T21:38:28.630-04:00", "updated_at": "2025-09-10T22:51:08.055-04:00", "avatar": "https://avatars.slack-edge.com/2025-06-30/9129289050644_e9589ac5b1c4c8d7ebf5_original.png", "custom_css": null}, {"id": 74, "slack_id": "U08AP4Z9S9F", "display_name": "Samhith", "bio": null, "projects_count": 1, "devlogs_count": 3, "votes_count": 0, "ships_count": 0, "projects": [{"id": 155, "title": "Reboot2015", "devlogs_count": 3, "created_at": "2025-06-16T14:38:47.187-04:00"}], "coding_time_seconds": 155005, "coding_time_seconds_today": 0, "balance": "You need to have a pocket watcher badge to view this.", "badges": [], "created_at": "2025-06-15T21:42:12.790-04:00", "updated_at": "2025-08-12T02:00:12.904-04:00", "avatar": "https://avatars.slack-edge.com/2025-08-11/9337461334997_00fcc1ce89dcd528c23b_original.png", "custom_css": null}, {"id": 75, "slack_id": "U078K08NN2Y", "display_name": "Saumil", "bio": null, "projects_count": 1, "devlogs_count": 1, "votes_count": 6, "ships_count": 1, "projects": [{"id": 1291, "title": "iBlot", "devlogs_count": 1, "created_at": "2025-06-18T06:07:02.880-04:00"}], "coding_time_seconds": 46749, "coding_time_seconds_today": 0, "balance": "You need to have a pocket watcher badge to view this.", "badges": [{"name": "Maiden Voyage", "text": "you shipped your first project! the journey begins...", "icon": "\ud83d\udea2"}], "created_at": "2025-06-15T21:43:26.714-04:00", "updated_at": "2025-09-10T22:51:08.114-04:00", "avatar": "https://avatars.slack-edge.com/2024-06-17/7288551423778_0043560ae385e0709638_original.jpg", "custom_css": null}, {"id": 76, "slack_id": "U081C6XT885", "display_name": "sahana", "bio": null, "projects_count": 2, "devlogs_count": 5, "votes_count": 21, "ships_count": 1, "projects": [{"id": 12331, "title": "cli-chat", "devlogs_count": 2, "created_at": "2025-08-25T20:57:52.774-04:00"}, {"id": 10708, "title": "at-channel Private Channel Update", "devlogs_count": 2, "created_at": "2025-08-10T01:21:42.767-04:00"}], "coding_time_seconds": 215327, "coding_time_seconds_today": 0, "balance": "You need to have a pocket watcher badge to view this.", "badges": [{"name": "Maiden Voyage", "text": "you shipped your first project! the journey begins...", "icon": "\ud83d\udea2"}], "created_at": "2025-06-15T21:43:33.565-04:00", "updated_at": "2025-09-14T06:00:12.666-04:00", "avatar": "https://avatars.slack-edge.com/2025-09-14/9528027324257_92058824a345283b1ce6_original.png", "custom_css": null}, {"id": 77, "slack_id": "U079Y8M0Q4B", "display_name": "End", "bio": null, "projects_count": 3, "devlogs_count": 2, "votes_count": 0, "ships_count": 0, "projects": [{"id": 529, "title": "Foxify", "devlogs_count": 1, "created_at": "2025-06-17T00:25:50.000-04:00"}, {"id": 3137, "title": "Dotfiles", "devlogs_count": 1, "created_at": "2025-06-23T07:42:49.447-04:00"}, {"id": 642, "title": "Website", "devlogs_count": 0, "created_at": "2025-06-17T03:57:21.760-04:00"}], "coding_time_seconds": 23680, "coding_time_seconds_today": 0, "balance": "You need to have a pocket watcher badge to view this.", "badges": [], "created_at": "2025-06-15T21:48:18.413-04:00", "updated_at": "2025-09-18T12:00:17.103-04:00", "avatar": "https://avatars.slack-edge.com/2025-09-18/9556278082529_9dce7d64d287606c9553_original.png", "custom_css": null}, {"id": 78, "slack_id": "U08BH57AZKP", "display_name": "Ethan (very cool)", "bio": null, "projects_count": 1, "devlogs_count": 2, "votes_count": 4, "ships_count": 0, "projects": [{"id": 1227, "title": "AI Deltarune", "devlogs_count": 2, "created_at": "2025-06-18T00:21:50.018-04:00"}], "coding_time_seconds": 141098, "coding_time_seconds_today": 0, "balance": "You need to have a pocket watcher badge to view this.", "badges": [{"name": "<%= admin_tool do %>", "text": "with great power comes great responsibility... and a ban hammer.", "icon": "\ud83d\udd28"}, {"name": "Preferred Customer", "text": "you'll never know what this does...", "icon": "https://summer.hackclub.com/assets/cool-9a1241d0.png"}, {"name": "Lived Mas", "text": "you know what you did.", "icon": "https://summer.hackclub.com/assets/bong-2a18e50d.png"}], "created_at": "2025-06-15T21:48:53.234-04:00", "updated_at": "2025-09-17T19:02:37.605-04:00", "avatar": "https://avatars.slack-edge.com/2025-09-11/9519105167953_83b606e8a2ba1fedee35_original.png", "custom_css": null}, {"id": 79, "slack_id": "U084KTR8W3H", "display_name": "Hash-AK", "bio": null, "projects_count": 0, "devlogs_count": 0, "votes_count": 0, "ships_count": 0, "projects": [], "coding_time_seconds": 16858, "coding_time_seconds_today": 0, "balance": "You need to have a pocket watcher badge to view this.", "badges": [], "created_at": "2025-06-15T21:49:53.739-04:00", "updated_at": "2025-07-10T21:34:19.094-04:00", "avatar": "https://avatars.slack-edge.com/2025-05-30/8964925914167_c91a9e82c712d31d9dd4_original.png", "custom_css": null}, {"id": 80, "slack_id": "U08CJCZ2Z9S", "display_name": "jollyroger182", "bio": null, "projects_count": 2, "devlogs_count": 2, "votes_count": 21, "ships_count": 2, "projects": [{"id": 4628, "title": "Palettette", "devlogs_count": 1, "created_at": "2025-06-30T23:09:21.056-04:00"}, {"id": 11591, "title": "Recipe API", "devlogs_count": 1, "created_at": "2025-08-17T11:04:03.985-04:00"}], "coding_time_seconds": 921296, "coding_time_seconds_today": 2102, "balance": "You need to have a pocket watcher badge to view this.", "badges": [{"name": "Maiden Voyage", "text": "you shipped your first project! the journey begins...", "icon": "\ud83d\udea2"}], "created_at": "2025-06-15T21:51:15.677-04:00", "updated_at": "2025-09-10T22:51:08.253-04:00", "avatar": "https://avatars.slack-edge.com/2025-07-04/9161213699009_ed47b20679cb77cb3721_original.png", "custom_css": null}], "pagination": {"page": 4, "pages": 1192, "count": 23827, "items": 20}}