{"users": [{"id": 781, "slack_id": "U091P5D91FC", "display_name": "Mayur Ghorpade", "bio": null, "projects_count": 0, "devlogs_count": 0, "votes_count": 0, "ships_count": 0, "projects": [], "coding_time_seconds": 0, "coding_time_seconds_today": 0, "balance": "You need to have a pocket watcher badge to view this.", "badges": [], "created_at": "2025-06-16T12:16:21.629-04:00", "updated_at": "2025-07-03T19:14:33.970-04:00", "avatar": "https://secure.gravatar.com/avatar/a570d67ca7cea498c82d3971c25e17f9.jpg?s=512&d=https%3A%2F%2Fa.slack-edge.com%2Fdf10d%2Fimg%2Favatars%2Fava_0019-512.png", "custom_css": null}, {"id": 782, "slack_id": "U091P2RAGF6", "display_name": "Gabriel Montini", "bio": null, "projects_count": 0, "devlogs_count": 0, "votes_count": 0, "ships_count": 0, "projects": [], "coding_time_seconds": 0, "coding_time_seconds_today": 0, "balance": "You need to have a pocket watcher badge to view this.", "badges": [], "created_at": "2025-06-16T12:16:25.417-04:00", "updated_at": "2025-07-03T19:14:34.236-04:00", "avatar": "https://secure.gravatar.com/avatar/e24ebc4955d58d34493fbe55425a7261.jpg?s=512&d=https%3A%2F%2Fa.slack-edge.com%2Fdf10d%2Fimg%2Favatars%2Fava_0008-512.png", "custom_css": null}, {"id": 783, "slack_id": "U0921PS0SN5", "display_name": "Jes\u00fas Joaquin", "bio": null, "projects_count": 0, "devlogs_count": 0, "votes_count": 0, "ships_count": 0, "projects": [], "coding_time_seconds": 118809, "coding_time_seconds_today": 0, "balance": "You need to have a pocket watcher badge to view this.", "badges": [], "created_at": "2025-06-16T12:16:26.048-04:00", "updated_at": "2025-07-26T00:45:33.832-04:00", "avatar": "https://avatars.slack-edge.com/2025-06-16/9050387632230_2b6ea881d010395db8ac_original.png", "custom_css": null}, {"id": 784, "slack_id": "U0917THNKMM", "display_name": "Sharanya Chowdhury", "bio": null, "projects_count": 0, "devlogs_count": 0, "votes_count": 0, "ships_count": 0, "projects": [], "coding_time_seconds": 0, "coding_time_seconds_today": 0, "balance": "You need to have a pocket watcher badge to view this.", "badges": [], "created_at": "2025-06-16T12:16:27.021-04:00", "updated_at": "2025-07-03T19:14:34.779-04:00", "avatar": "https://avatars.slack-edge.com/2025-06-16/9041953507287_b6219a4614624ead3845_original.jpg", "custom_css": null}, {"id": 785, "slack_id": "U09216A4DNV", "display_name": "madhu", "bio": null, "projects_count": 0, "devlogs_count": 0, "votes_count": 0, "ships_count": 0, "projects": [], "coding_time_seconds": 0, "coding_time_seconds_today": 0, "balance": "You need to have a pocket watcher badge to view this.", "badges": [], "created_at": "2025-06-16T12:16:27.338-04:00", "updated_at": "2025-07-03T19:14:35.046-04:00", "avatar": "https://secure.gravatar.com/avatar/915468f9cc0493f78d0820593469b114.jpg?s=512&d=https%3A%2F%2Fa.slack-edge.com%2Fdf10d%2Fimg%2Favatars%2Fava_0008-512.png", "custom_css": null}, {"id": 786, "slack_id": "U092162UK4Z", "display_name": "Kacper", "bio": null, "projects_count": 0, "devlogs_count": 0, "votes_count": 0, "ships_count": 0, "projects": [], "coding_time_seconds": 0, "coding_time_seconds_today": 0, "balance": "You need to have a pocket watcher badge to view this.", "badges": [], "created_at": "2025-06-16T12:16:29.655-04:00", "updated_at": "2025-07-03T19:14:35.431-04:00", "avatar": "https://secure.gravatar.com/avatar/0f611350834fa1b93644726995225313.jpg?s=512&d=https%3A%2F%2Fa.slack-edge.com%2Fdf10d%2Fimg%2Favatars%2Fava_0006-512.png", "custom_css": null}, {"id": 787, "slack_id": "U091FKML76F", "display_name": "Kevin Ekart", "bio": null, "projects_count": 0, "devlogs_count": 0, "votes_count": 0, "ships_count": 0, "projects": [], "coding_time_seconds": 0, "coding_time_seconds_today": 0, "balance": "You need to have a pocket watcher badge to view this.", "badges": [], "created_at": "2025-06-16T12:16:31.537-04:00", "updated_at": "2025-07-03T19:14:35.702-04:00", "avatar": "https://secure.gravatar.com/avatar/db612d0abcbcd48dcae3bf3b66d6fbfe.jpg?s=512&d=https%3A%2F%2Fa.slack-edge.com%2Fdf10d%2Fimg%2Favatars%2Fava_0015-512.png", "custom_css": null}, {"id": 788, "slack_id": "U091LS9503F", "display_name": "WinG4merBR", "bio": null, "projects_count": 0, "devlogs_count": 0, "votes_count": 0, "ships_count": 0, "projects": [], "coding_time_seconds": 0, "coding_time_seconds_today": 0, "balance": "You need to have a pocket watcher badge to view this.", "badges": [], "created_at": "2025-06-16T12:16:33.360-04:00", "updated_at": "2025-07-03T19:14:35.966-04:00", "avatar": "https://secure.gravatar.com/avatar/0d441085977fb2a905eb1272cc5bed09.jpg?s=512&d=https%3A%2F%2Fa.slack-edge.com%2Fdf10d%2Fimg%2Favatars%2Fava_0017-512.png", "custom_css": null}, {"id": 789, "slack_id": "U0821HXCSLE", "display_name": "Siddhant", "bio": "fullstack Web developer! i like doing fun stuff with golang!", "projects_count": 0, "devlogs_count": 14, "votes_count": 52, "ships_count": 0, "projects": [], "coding_time_seconds": 603416, "coding_time_seconds_today": 0, "balance": "You need to have a pocket watcher badge to view this.", "badges": [{"name": "Maiden Voyage", "text": "you shipped your first project! the journey begins...", "icon": "\ud83d\udea2"}, {"name": "Graphic Design is My Passion", "text": "Oh God How Did This Get Here I Am Not Good With Computer", "icon": "\ud83c\udfa8"}], "created_at": "2025-06-16T12:16:34.123-04:00", "updated_at": "2025-09-23T16:19:52.567-04:00", "avatar": "https://avatars.slack-edge.com/2025-06-19/9067037521894_766ba3451a0f0f2ac2b7_original.png", "custom_css": "* {\r\n    margin: 0;\r\n    padding: 0;\r\n    box-sizing: border-box;\r\n}\r\n\r\nbody {\r\n    font-family: 'Press Start 2P', monospace;\r\n    color: #ffffff;\r\n    min-height: 100vh;\r\n    image-rendering: pixelated;\r\n    image-rendering: -moz-crisp-edges;\r\n    image-rendering: crisp-edges;\r\n    background: #0f0f23;\r\n    position: relative;\r\n    overflow-x: hidden;\r\n    padding: 5vw;\r\n}\r\n\r\nbody::before {\r\n    content: '';\r\n    position: fixed;\r\n    top: 0;\r\n    left: 0;\r\n    width: 100vw;\r\n    height: 100vh;\r\n    z-index: -1;\r\n    background: \r\n        repeating-linear-gradient(0deg, transparent, transparent 4px, rgba(255, 255, 255, 0.03) 4px, rgba(255, 255, 255, 0.03) 8px),\r\n        repeating-linear-gradient(90deg, transparent, transparent 4px, rgba(255, 255, 255, 0.03) 4px, rgba(255, 255, 255, 0.03) 8px),\r\n        repeating-linear-gradient(45deg, transparent, transparent 8px, rgba(255, 0, 0, 0.02) 8px, rgba(255, 0, 0, 0.02) 16px),\r\n        repeating-linear-gradient(-45deg, transparent, transparent 8px, rgba(0, 255, 255, 0.02) 8px, rgba(0, 255, 255, 0.02) 16px);\r\n    pointer-events: none;\r\n}\r\n\r\n\r\n\r\n@keyframes header-glow {\r\n    0%, 100% {\r\n        box-shadow: 0 4px 0 #000, 0 8px 8px rgba(0, 0, 0, 0.3), inset 0 2px 0 rgba(255, 255, 255, 0.2), 0 0 10px #ffff00;\r\n    }\r\n    50% {\r\n        box-shadow: 0 4px 0 #000, 0 8px 8px rgba(0, 0, 0, 0.3), inset 0 2px 0 rgba(255, 255, 255, 0.2), 0 0 20px #ffff00, 0 0 30px #ffff00;\r\n    }\r\n}\r\n\r\n.profile-avatar {\r\n    width: 18vw;\r\n    height: 18vw;\r\n    min-width: 120px;\r\n    min-height: 120px;\r\n    max-width: 300px;\r\n    max-height: 300px;\r\n    background: rgba(0,0,0,0.7);\r\n    border: 0.4vw solid #2977f5;\r\n    border-radius: 0;\r\n    margin: 0 auto 4vw auto;\r\n    display: block;\r\n    box-shadow: 0 0.8vw 2vw 0 rgba(0,0,0,0.7);\r\n    transition: all 0.3s ease;\r\n    animation: avatar-pulse 4s ease-in-out infinite;\r\n    flex-shrink: 0;\r\n}\r\n\r\n@keyframes avatar-pulse {\r\n    0%, 100% {\r\n        transform: scale(1);\r\n        border-color: #ffff00;\r\n    }\r\n    50% {\r\n        transform: scale(1.05);\r\n        border-color: #ff4444;\r\n    }\r\n}\r\n\r\n.profile-avatar:hover {\r\n    transform: translateY(-4px) scale(1.1);\r\n    box-shadow: \r\n        0 8px 0 #ff4444,\r\n        0 12px 12px rgba(0, 0, 0, 0.4),\r\n        inset 0 2px 0 rgba(255, 255, 255, 0.2);\r\n}\r\n\r\n.profile-name {\r\n    font-size: 2rem;\r\n    color: #ffff00;\r\n    text-shadow: 4px 4px 0px #ff4444, 8px 8px 0px #000;\r\n    text-transform: uppercase;\r\n    letter-spacing: 2px;\r\n    animation: name-glow 2s ease-in-out infinite alternate;\r\n    margin-bottom: 2rem;\r\n    white-space: nowrap;\r\n    overflow: hidden;\r\n    text-overflow: ellipsis;\r\n    max-width: 100%;\r\n}\r\n\r\n@keyframes name-glow {\r\n    from {\r\n        text-shadow: 4px 4px 0px #ff4444, 8px 8px 0px #000, 0 0 20px #ffff00;\r\n    }\r\n    to {\r\n        text-shadow: 4px 4px 0px #ff4444, 8px 8px 0px #000, 0 0 30px #ffff00, 0 0 40px #ffff00;\r\n    }\r\n}\r\n\r\n.profile-bio-section {\r\n    background: rgba(0,0,0,0.7);\r\n    border: 0.3vw solid #2977f5;\r\n    border-radius: 0;\r\n    padding: 4vw 5vw;\r\n    margin: 6vw 0;\r\n    box-shadow: 0 1vw 2.5vw 0 rgba(0,0,0,0.7);\r\n    animation: section-bounce 4s ease-in-out infinite;\r\n    display: flex;\r\n    flex-direction: column;\r\n    align-items: center;\r\n    width: 100%;\r\n}\r\n\r\n@keyframes section-bounce {\r\n    0%, 100% {\r\n        transform: translateY(0px);\r\n    }\r\n    50% {\r\n        transform: translateY(-5px);\r\n    }\r\n}\r\n\r\n.profile-bio {\r\n    color: #ffff00;\r\n    font-size: 1rem;\r\n    text-shadow: 2px 2px 0px #000;\r\n    line-height: 1.6;\r\n    text-align: center;\r\n    white-space: pre-wrap;\r\n    word-break: break-word;\r\n    overflow-wrap: break-word;\r\n    max-width: 100%;\r\n}\r\n\r\n.profile-stats {\r\n    display: flex !important;\r\n    flex-wrap: wrap !important;\r\n    gap: 4vw !important;\r\n    margin: 6vw 0 !important;\r\n    width: 100% !important;\r\n    justify-content: center !important;\r\n    align-items: center !important;\r\n    padding: 3vw !important;\r\n    max-width: 100% !important;\r\n    box-sizing: border-box !important;\r\n}\r\n\r\n.profile-stat {\r\n    color: #ffffff !important;\r\n    font-size: clamp(1rem, 2vw, 1.5rem) !important;\r\n    padding: 3vw 2vw !important;\r\n    text-transform: uppercase !important;\r\n    letter-spacing: 0.1rem !important;\r\n    text-shadow: 2px 2px 0px #000 !important;\r\n    transition: all 0.2s ease !important;\r\n    position: relative !important;\r\n    cursor: pointer !important;\r\n    user-select: none !important;\r\n    flex: 0 0 auto !important;\r\n    min-width: clamp(200px, 20vw, 300px) !important;\r\n    max-width: clamp(250px, 25vw, 400px) !important;\r\n    display: flex !important;\r\n    flex-direction: column !important;\r\n    align-items: center !important;\r\n    justify-content: center !important;\r\n    margin: 1vw !important;\r\n    box-sizing: border-box !important;\r\n    text-align: center !important;\r\n}\r\n\r\n.profile-stat:hover {\r\n    transform: translateY(-4px) !important;\r\n    color: #ffff00 !important;\r\n}\r\n\r\n.profile-stat:active {\r\n    transform: translateY(-2px) !important;\r\n    color: #ff4444 !important;\r\n}\r\n\r\n.profile-stat *, .profile-stat a {\r\n    color: #ffffff !important;\r\n    text-shadow: 2px 2px 0px #000;\r\n    white-space: nowrap;\r\n    overflow: hidden;\r\n    text-overflow: ellipsis;\r\n    max-width: 100%;\r\n}\r\n\r\n.profile-avatar.size-300 {\r\n    width: 300px !important;\r\n    height: 300px !important;\r\n}\r\n\r\n.profile-avatar.square {\r\n    border-radius: 25px !important;\r\n}\r\n\r\n.profile-avatar.rounded {\r\n    border-radius: 50% !important;\r\n}\r\n\r\n.profile-avatar.hide {\r\n    display: none !important;\r\n}\r\n\r\n.profile-header.custom-avatar::before {\r\n    content: \"\";\r\n    display: block;\r\n    width: 256px;\r\n    height: 256px;\r\n    background-image: url(\"https://placehold.co/256x256/png\");\r\n    background-size: cover;\r\n    background-position: center;\r\n    border-radius: 50%;\r\n    margin: 0 auto 2rem auto;\r\n    border: 4px solid #ffff00;\r\n    box-shadow: 0 4px 0 #ff4444, 0 8px 8px rgba(0, 0, 0, 0.3);\r\n}\r\n\r\n.card-with-gradient,\r\n.card-with-gradient *,\r\n.card-with-gradient a {\r\n    font-family: 'Press Start 2P', monospace !important;\r\n    color: #ffff00 !important;\r\n    text-shadow: 2px 2px 0px #000 !important;\r\n    text-transform: uppercase !important;\r\n    letter-spacing: 0.08em !important;\r\n    font-size: 1.1vw !important;\r\n    line-height: 1.7 !important;\r\n}\r\n\r\n.card-with-gradient {\r\n    background: rgba(0,0,0,0.7) !important;\r\n    border: 0.4vw solid #2977f5 !important;\r\n    border-radius: 0 !important;\r\n    box-shadow: 0 0.5vw 0 #2977f5, 0 1vw 1vw rgba(0,0,0,0.3), inset 0 0.2vw 0 rgba(255,255,255,0.15) !important;\r\n    padding: 5vw 6vw !important;\r\n    margin: 6vw 0 !important;\r\n    transition: all 0.1s ease !important;\r\n    position: relative !important;\r\n    display: flex !important;\r\n    flex-direction: column !important;\r\n    gap: 2vw !important;\r\n    animation: card-float 6s ease-in-out infinite !important;\r\n    width: 100% !important;\r\n    align-items: center !important;\r\n}\r\n\r\n.card-with-gradient:hover {\r\n    transform: translateY(0.5vw) scale(1.01) !important;\r\n    box-shadow: 0 0.2vw 0 #ff6b6b, 0 0.5vw 0 #2977f5, 0 1vw 1vw rgba(0,0,0,0.4) !important;\r\n    border-color: #ff6b6b !important;\r\n}\r\n\r\n.card-with-gradient::before {\r\n    content: '';\r\n    position: absolute;\r\n    top: 0;\r\n    left: 0;\r\n    right: 0;\r\n    bottom: 0;\r\n    background: linear-gradient(45deg, transparent 30%, rgba(255,255,255,0.08) 50%, transparent 70%);\r\n    transform: translateX(-100%);\r\n    transition: transform 0.3s ease;\r\n    pointer-events: none;\r\n    z-index: 0;\r\n}\r\n\r\n.card-with-gradient:hover::before {\r\n    transform: translateX(100%);\r\n}\r\n\r\nh1, h2, h3, h4, h5, h6 {\r\n    font-family: 'Press Start 2P', monospace !important;\r\n    color: #ffff00 !important;\r\n    text-shadow: 2px 2px 0px #000 !important;\r\n    text-transform: uppercase !important;\r\n    animation: pixel-glow 3s ease-in-out infinite alternate !important;\r\n    white-space: nowrap !important;\r\n    overflow: hidden !important;\r\n    text-overflow: ellipsis !important;\r\n    max-width: 100% !important;\r\n    margin-bottom: 2rem !important;\r\n}\r\n\r\n@keyframes pixel-glow {\r\n    0%, 100% {\r\n        text-shadow: 2px 2px 0px #000, 0 0 10px #ffff00;\r\n    }\r\n    50% {\r\n        text-shadow: 2px 2px 0px #000, 0 0 20px #ffff00, 0 0 30px #ffff00;\r\n    }\r\n}\r\n\r\nh2.text-2xl.font-bold.text-gray-800 {\r\n    font-size: 2rem !important;\r\n    font-weight: bold !important;\r\n}\r\n\r\n@media (max-width: 768px) {\r\n    body {\r\n        padding: 3vw;\r\n    }\r\n    \r\n    .profile-stats {\r\n        flex-direction: column !important;\r\n        align-items: center !important;\r\n        gap: 6vw !important;\r\n        padding: 4vw !important;\r\n        max-width: 100% !important;\r\n    }\r\n    \r\n    .profile-stat {\r\n        min-width: 90vw !important;\r\n        max-width: 90vw !important;\r\n        font-size: clamp(0.8rem, 4vw, 1.2rem) !important;\r\n        margin: 2vw 0 !important;\r\n        padding: 6vw 4vw !important;\r\n        text-align: center !important;\r\n    }\r\n    \r\n    .profile-name {\r\n        font-size: 1.5rem;\r\n    }\r\n    \r\n    .profile-bio {\r\n        font-size: 0.9rem;\r\n    }\r\n    \r\n    .profile-header {\r\n        margin-bottom: 8vw;\r\n    }\r\n    \r\n    .profile-bio-section {\r\n        margin: 8vw 0;\r\n    }\r\n}"}, {"id": 790, "slack_id": "U091LSEJ3TP", "display_name": "Alzomra", "bio": null, "projects_count": 0, "devlogs_count": 0, "votes_count": 0, "ships_count": 0, "projects": [], "coding_time_seconds": 0, "coding_time_seconds_today": 0, "balance": "You need to have a pocket watcher badge to view this.", "badges": [], "created_at": "2025-06-16T12:16:35.246-04:00", "updated_at": "2025-07-03T19:14:36.505-04:00", "avatar": "https://secure.gravatar.com/avatar/00dc14e0959771c34bd1959eafe32dc6.jpg?s=512&d=https%3A%2F%2Fa.slack-edge.com%2Fdf10d%2Fimg%2Favatars%2Fava_0017-512.png", "custom_css": null}, {"id": 791, "slack_id": "U091NJWMJLA", "display_name": "Kacper", "bio": null, "projects_count": 0, "devlogs_count": 0, "votes_count": 0, "ships_count": 0, "projects": [], "coding_time_seconds": 0, "coding_time_seconds_today": 0, "balance": "You need to have a pocket watcher badge to view this.", "badges": [], "created_at": "2025-06-16T12:16:37.061-04:00", "updated_at": "2025-07-03T19:14:36.773-04:00", "avatar": "https://secure.gravatar.com/avatar/e90d6104004296edf41af4f80dc19ca6.jpg?s=512&d=https%3A%2F%2Fa.slack-edge.com%2Fdf10d%2Fimg%2Favatars%2Fava_0018-512.png", "custom_css": null}, {"id": 792, "slack_id": "U091NKH293L", "display_name": "mirki_240", "bio": null, "projects_count": 0, "devlogs_count": 0, "votes_count": 0, "ships_count": 0, "projects": [], "coding_time_seconds": 0, "coding_time_seconds_today": 0, "balance": "You need to have a pocket watcher badge to view this.", "badges": [], "created_at": "2025-06-16T12:16:39.245-04:00", "updated_at": "2025-07-03T19:14:37.049-04:00", "avatar": "https://secure.gravatar.com/avatar/0dcbb4853672479ceab187d91365af76.jpg?s=512&d=https%3A%2F%2Fa.slack-edge.com%2Fdf10d%2Fimg%2Favatars%2Fava_0010-512.png", "custom_css": null}, {"id": 793, "slack_id": "U091P71LSM8", "display_name": "GamerFuryAction", "bio": null, "projects_count": 1, "devlogs_count": 1, "votes_count": 0, "ships_count": 0, "projects": [{"id": 1324, "title": "PingMe", "devlogs_count": 1, "created_at": "2025-06-18T08:33:45.137-04:00"}], "coding_time_seconds": 1698, "coding_time_seconds_today": 0, "balance": "You need to have a pocket watcher badge to view this.", "badges": [], "created_at": "2025-06-16T12:16:40.257-04:00", "updated_at": "2025-07-03T19:14:37.312-04:00", "avatar": "https://secure.gravatar.com/avatar/e1e78891f2f42a40205c91c3ce4648ab.jpg?s=512&d=https%3A%2F%2Fa.slack-edge.com%2Fdf10d%2Fimg%2Favatars%2Fava_0024-512.png", "custom_css": null}, {"id": 794, "slack_id": "U091FL36C5R", "display_name": "Hasan B\u00d6CEK", "bio": null, "projects_count": 1, "devlogs_count": 3, "votes_count": 1, "ships_count": 0, "projects": [{"id": 6217, "title": "Tennis Club Management System", "devlogs_count": 2, "created_at": "2025-07-11T11:57:00.892-04:00"}], "coding_time_seconds": 282584, "coding_time_seconds_today": 0, "balance": "You need to have a pocket watcher badge to view this.", "badges": [], "created_at": "2025-06-16T12:16:41.336-04:00", "updated_at": "2025-08-08T13:41:51.839-04:00", "avatar": "https://secure.gravatar.com/avatar/698a645cc4fd8ada43711b13073eb7ee.jpg?s=512&d=https%3A%2F%2Fa.slack-edge.com%2Fdf10d%2Fimg%2Favatars%2Fava_0006-512.png", "custom_css": null}, {"id": 795, "slack_id": "U08260D58NN", "display_name": "Stevens", "bio": null, "projects_count": 0, "devlogs_count": 37, "votes_count": 35, "ships_count": 0, "projects": [], "coding_time_seconds": 672391, "coding_time_seconds_today": 0, "balance": "You need to have a pocket watcher badge to view this.", "badges": [{"name": "Maiden Voyage", "text": "you shipped your first project! the journey begins...", "icon": "\ud83d\udea2"}, {"name": "Ballot Stuffer", "text": "vote 100 times.", "icon": "https://summer.hackclub.com/assets/i_voted-bf851b48.png"}], "created_at": "2025-06-16T12:16:42.291-04:00", "updated_at": "2025-09-10T22:51:32.536-04:00", "avatar": "https://avatars.slack-edge.com/2025-03-17/8622593771025_074e1121c7c99e818a3a_original.png", "custom_css": null}, {"id": 796, "slack_id": "U091NKJPKEE", "display_name": "Elijah", "bio": null, "projects_count": 0, "devlogs_count": 0, "votes_count": 0, "ships_count": 0, "projects": [], "coding_time_seconds": 0, "coding_time_seconds_today": 0, "balance": "You need to have a pocket watcher badge to view this.", "badges": [], "created_at": "2025-06-16T12:16:43.296-04:00", "updated_at": "2025-07-03T19:14:38.126-04:00", "avatar": "https://secure.gravatar.com/avatar/bd3fb1786e4df09939a7742ce4b3f950.jpg?s=512&d=https%3A%2F%2Fa.slack-edge.com%2Fdf10d%2Fimg%2Favatars%2Fava_0022-512.png", "custom_css": null}, {"id": 797, "slack_id": "U091G7YTNV9", "display_name": "KG", "bio": null, "projects_count": 0, "devlogs_count": 0, "votes_count": 0, "ships_count": 0, "projects": [], "coding_time_seconds": 0, "coding_time_seconds_today": 0, "balance": "You need to have a pocket watcher badge to view this.", "badges": [], "created_at": "2025-06-16T12:16:45.183-04:00", "updated_at": "2025-07-03T19:14:38.398-04:00", "avatar": "https://secure.gravatar.com/avatar/e170291949d6de1a59103946758029e8.jpg?s=512&d=https%3A%2F%2Fa.slack-edge.com%2Fdf10d%2Fimg%2Favatars%2Fava_0018-512.png", "custom_css": null}, {"id": 798, "slack_id": "U09217XAWC9", "display_name": "Gustavo Bugs", "bio": null, "projects_count": 0, "devlogs_count": 0, "votes_count": 0, "ships_count": 0, "projects": [], "coding_time_seconds": 0, "coding_time_seconds_today": 0, "balance": "You need to have a pocket watcher badge to view this.", "badges": [], "created_at": "2025-06-16T12:16:45.985-04:00", "updated_at": "2025-07-03T19:14:38.666-04:00", "avatar": "https://secure.gravatar.com/avatar/ed0bfc67660e5a9dfc5efb56b74ba523.jpg?s=512&d=https%3A%2F%2Fa.slack-edge.com%2Fdf10d%2Fimg%2Favatars%2Fava_0004-512.png", "custom_css": null}, {"id": 799, "slack_id": "U091FQE9QR4", "display_name": "Michael Emil", "bio": null, "projects_count": 6, "devlogs_count": 3, "votes_count": 19, "ships_count": 2, "projects": [{"id": 2564, "title": "Egyptian Realms", "devlogs_count": 1, "created_at": "2025-06-21T10:46:44.370-04:00"}, {"id": 2951, "title": "Beyond Planet Earth", "devlogs_count": 1, "created_at": "2025-06-22T14:39:11.804-04:00"}, {"id": 4250, "title": "Christmas Time Capsule", "devlogs_count": 0, "created_at": "2025-06-28T13:22:48.877-04:00"}, {"id": 4252, "title": "Personal Profile", "devlogs_count": 0, "created_at": "2025-06-28T13:25:31.815-04:00"}, {"id": 4253, "title": "EcoEnergy", "devlogs_count": 0, "created_at": "2025-06-28T13:26:39.202-04:00"}, {"id": 11760, "title": "City Snap", "devlogs_count": 1, "created_at": "2025-08-19T08:48:59.514-04:00"}], "coding_time_seconds": 54326, "coding_time_seconds_today": 0, "balance": "You need to have a pocket watcher badge to view this.", "badges": [{"name": "Maiden Voyage", "text": "you shipped your first project! the journey begins...", "icon": "\ud83d\udea2"}], "created_at": "2025-06-16T12:16:48.627-04:00", "updated_at": "2025-09-10T22:51:32.648-04:00", "avatar": "https://avatars.slack-edge.com/2025-06-16/9049830808310_ea700a9ff24c8fbf853a_original.png", "custom_css": null}, {"id": 800, "slack_id": "U092BDLR4KS", "display_name": "igor", "bio": null, "projects_count": 0, "devlogs_count": 0, "votes_count": 0, "ships_count": 0, "projects": [], "coding_time_seconds": 4030, "coding_time_seconds_today": 0, "balance": "You need to have a pocket watcher badge to view this.", "badges": [], "created_at": "2025-06-16T12:16:51.097-04:00", "updated_at": "2025-07-03T19:14:39.201-04:00", "avatar": "https://secure.gravatar.com/avatar/d206bfc02ffcbb324e841bd493275827.jpg?s=512&d=https%3A%2F%2Fa.slack-edge.com%2Fdf10d%2Fimg%2Favatars%2Fava_0014-512.png", "custom_css": null}], "pagination": {"page": 40, "pages": 1192, "count": 23827, "items": 20}}