{"users": [{"id": 7981, "slack_id": "U091HJMR3EK", "display_name": "StarEntity", "bio": null, "projects_count": 0, "devlogs_count": 0, "votes_count": 0, "ships_count": 0, "projects": [], "coding_time_seconds": 0, "coding_time_seconds_today": 0, "balance": "You need to have a pocket watcher badge to view this.", "badges": [], "created_at": "2025-06-18T02:02:24.218-04:00", "updated_at": "2025-07-03T19:46:14.106-04:00", "avatar": "https://secure.gravatar.com/avatar/e1aa628a7a7d11c696e49bb9105b53c8.jpg?s=512&d=https%3A%2F%2Fa.slack-edge.com%2Fdf10d%2Fimg%2Favatars%2Fava_0025-512.png", "custom_css": null}, {"id": 7982, "slack_id": "U091Y33KU4A", "display_name": "Ian Yeh", "bio": null, "projects_count": 0, "devlogs_count": 0, "votes_count": 0, "ships_count": 0, "projects": [], "coding_time_seconds": 73820, "coding_time_seconds_today": 0, "balance": "You need to have a pocket watcher badge to view this.", "badges": [], "created_at": "2025-06-18T02:03:19.026-04:00", "updated_at": "2025-07-04T02:27:23.347-04:00", "avatar": "https://secure.gravatar.com/avatar/6fef613836246abb3c61666775b1b361.jpg?s=512&d=https%3A%2F%2Fa.slack-edge.com%2Fdf10d%2Fimg%2Favatars%2Fava_0010-512.png", "custom_css": null}, {"id": 7983, "slack_id": "U091HJG84VD", "display_name": "Khaled Wael", "bio": null, "projects_count": 1, "devlogs_count": 1, "votes_count": 0, "ships_count": 0, "projects": [{"id": 1821, "title": "early cancer allert ", "devlogs_count": 1, "created_at": "2025-06-19T10:43:50.533-04:00"}], "coding_time_seconds": 27390, "coding_time_seconds_today": 0, "balance": "You need to have a pocket watcher badge to view this.", "badges": [], "created_at": "2025-06-18T02:03:40.995-04:00", "updated_at": "2025-07-05T02:08:59.255-04:00", "avatar": "https://avatars.slack-edge.com/2025-06-17/9089247612208_99b4d84b87baa9e6036d_original.png", "custom_css": null}, {"id": 7984, "slack_id": "U092BB9EPFT", "display_name": "Amir", "bio": null, "projects_count": 0, "devlogs_count": 0, "votes_count": 0, "ships_count": 0, "projects": [], "coding_time_seconds": 0, "coding_time_seconds_today": 0, "balance": "You need to have a pocket watcher badge to view this.", "badges": [], "created_at": "2025-06-18T02:04:42.869-04:00", "updated_at": "2025-07-03T19:46:14.714-04:00", "avatar": "https://avatars.slack-edge.com/2025-06-18/9051678164391_3d44e2615dde6308d0bb_original.jpg", "custom_css": null}, {"id": 7985, "slack_id": "U092M72H6CQ", "display_name": "Haoxiang Li", "bio": null, "projects_count": 0, "devlogs_count": 0, "votes_count": 0, "ships_count": 0, "projects": [], "coding_time_seconds": 6070, "coding_time_seconds_today": 0, "balance": "You need to have a pocket watcher badge to view this.", "badges": [], "created_at": "2025-06-18T02:05:03.750-04:00", "updated_at": "2025-07-03T19:46:14.984-04:00", "avatar": "https://avatars.slack-edge.com/2025-06-17/9089252826912_87010cf2d0a272ccd122_original.png", "custom_css": null}, {"id": 7986, "slack_id": "U091X924T4M", "display_name": "Mayank Suthar", "bio": null, "projects_count": 0, "devlogs_count": 0, "votes_count": 0, "ships_count": 0, "projects": [], "coding_time_seconds": 0, "coding_time_seconds_today": 0, "balance": "You need to have a pocket watcher badge to view this.", "badges": [], "created_at": "2025-06-18T02:05:29.542-04:00", "updated_at": "2025-07-03T19:46:15.285-04:00", "avatar": "https://secure.gravatar.com/avatar/50cf841912dc00cc23b09946cb73e47d.jpg?s=512&d=https%3A%2F%2Fa.slack-edge.com%2Fdf10d%2Fimg%2Favatars%2Fava_0023-512.png", "custom_css": null}, {"id": 7987, "slack_id": "U092BBUQ5ND", "display_name": "Mohit Patil", "bio": null, "projects_count": 0, "devlogs_count": 0, "votes_count": 0, "ships_count": 0, "projects": [], "coding_time_seconds": 0, "coding_time_seconds_today": 0, "balance": "You need to have a pocket watcher badge to view this.", "badges": [], "created_at": "2025-06-18T02:05:43.999-04:00", "updated_at": "2025-07-03T19:46:15.545-04:00", "avatar": "https://secure.gravatar.com/avatar/8fc09454f903660cacb495e59863338f.jpg?s=512&d=https%3A%2F%2Fa.slack-edge.com%2Fdf10d%2Fimg%2Favatars%2Fava_0016-512.png", "custom_css": null}, {"id": 7988, "slack_id": "U08L6BJ4C9L", "display_name": "Sahaza", "bio": null, "projects_count": 0, "devlogs_count": 0, "votes_count": 0, "ships_count": 0, "projects": [], "coding_time_seconds": 2327, "coding_time_seconds_today": 0, "balance": "You need to have a pocket watcher badge to view this.", "badges": [], "created_at": "2025-06-18T02:08:26.676-04:00", "updated_at": "2025-08-07T10:55:13.347-04:00", "avatar": "https://secure.gravatar.com/avatar/0d3335b82bd0d0539f111246a9613c62.jpg?s=512&d=https%3A%2F%2Fa.slack-edge.com%2Fdf10d%2Fimg%2Favatars%2Fava_0015-512.png", "custom_css": null}, {"id": 7989, "slack_id": "U091Z6R9X9S", "display_name": "Rupam Manna", "bio": null, "projects_count": 1, "devlogs_count": 0, "votes_count": 1, "ships_count": 0, "projects": [{"id": 2048, "title": "Health Chat", "devlogs_count": 0, "created_at": "2025-06-20T02:02:21.010-04:00"}], "coding_time_seconds": 61710, "coding_time_seconds_today": 0, "balance": "You need to have a pocket watcher badge to view this.", "badges": [], "created_at": "2025-06-18T02:10:42.699-04:00", "updated_at": "2025-07-03T21:46:02.815-04:00", "avatar": "https://avatars.slack-edge.com/2025-06-20/9076552184706_122b51f65ca4e4f67fcc_original.jpg", "custom_css": null}, {"id": 7990, "slack_id": "U091S73TD51", "display_name": "Khanhlam Tran", "bio": null, "projects_count": 0, "devlogs_count": 0, "votes_count": 0, "ships_count": 0, "projects": [], "coding_time_seconds": 0, "coding_time_seconds_today": 0, "balance": "You need to have a pocket watcher badge to view this.", "badges": [], "created_at": "2025-06-18T02:10:47.875-04:00", "updated_at": "2025-07-03T21:46:02.955-04:00", "avatar": "https://avatars.slack-edge.com/2025-06-17/9060475508070_9b2ef3770b55a893fe27_original.png", "custom_css": null}, {"id": 7991, "slack_id": "U091HHDKFL7", "display_name": "Sris", "bio": null, "projects_count": 0, "devlogs_count": 0, "votes_count": 0, "ships_count": 0, "projects": [], "coding_time_seconds": 0, "coding_time_seconds_today": 0, "balance": "You need to have a pocket watcher badge to view this.", "badges": [], "created_at": "2025-06-18T02:10:59.205-04:00", "updated_at": "2025-07-03T19:46:16.345-04:00", "avatar": "https://secure.gravatar.com/avatar/4568433a7974f1f38df954a8776c10f8.jpg?s=512&d=https%3A%2F%2Fa.slack-edge.com%2Fdf10d%2Fimg%2Favatars%2Fava_0025-512.png", "custom_css": null}, {"id": 7992, "slack_id": "U091YP53LV8", "display_name": "Sushmeli", "bio": null, "projects_count": 0, "devlogs_count": 0, "votes_count": 0, "ships_count": 0, "projects": [], "coding_time_seconds": 28134, "coding_time_seconds_today": 0, "balance": "You need to have a pocket watcher badge to view this.", "badges": [], "created_at": "2025-06-18T02:13:56.351-04:00", "updated_at": "2025-07-03T19:46:16.677-04:00", "avatar": "https://secure.gravatar.com/avatar/c8d3cf073b6ba5f76d1383c57160a54a.jpg?s=512&d=https%3A%2F%2Fa.slack-edge.com%2Fdf10d%2Fimg%2Favatars%2Fava_0009-512.png", "custom_css": null}, {"id": 7993, "slack_id": "U091HL7CJ4F", "display_name": "Vaibhav Soni", "bio": null, "projects_count": 0, "devlogs_count": 0, "votes_count": 0, "ships_count": 0, "projects": [], "coding_time_seconds": 7833, "coding_time_seconds_today": 0, "balance": "You need to have a pocket watcher badge to view this.", "badges": [], "created_at": "2025-06-18T02:15:20.207-04:00", "updated_at": "2025-07-03T19:46:16.946-04:00", "avatar": "https://avatars.slack-edge.com/2025-06-17/9060492197126_4295feee6ae13b7dcf8c_original.png", "custom_css": null}, {"id": 7994, "slack_id": "U091SE37HUN", "display_name": "Nishin", "bio": null, "projects_count": 0, "devlogs_count": 0, "votes_count": 0, "ships_count": 0, "projects": [], "coding_time_seconds": 145782, "coding_time_seconds_today": 0, "balance": "You need to have a pocket watcher badge to view this.", "badges": [], "created_at": "2025-06-18T02:15:48.400-04:00", "updated_at": "2025-07-05T11:56:12.974-04:00", "avatar": "https://secure.gravatar.com/avatar/8ff6cbc3a653062badb282423b9095c4.jpg?s=512&d=https%3A%2F%2Fa.slack-edge.com%2Fdf10d%2Fimg%2Favatars%2Fava_0014-512.png", "custom_css": null}, {"id": 7995, "slack_id": "U091CBAHACX", "display_name": "Kibo no shirei-kan", "bio": null, "projects_count": 1, "devlogs_count": 1, "votes_count": 3, "ships_count": 0, "projects": [{"id": 10105, "title": "KiboUtils", "devlogs_count": 1, "created_at": "2025-08-04T05:24:05.557-04:00"}], "coding_time_seconds": 10773, "coding_time_seconds_today": 0, "balance": "You need to have a pocket watcher badge to view this.", "badges": [], "created_at": "2025-06-18T02:15:58.578-04:00", "updated_at": "2025-08-06T23:02:14.856-04:00", "avatar": "https://avatars.slack-edge.com/2025-07-26/9280861927200_83254cf9b2ac91ab07ad_original.jpg", "custom_css": null}, {"id": 7996, "slack_id": "U091XACLJLD", "display_name": "ShadowLegend007", "bio": null, "projects_count": 0, "devlogs_count": 0, "votes_count": 0, "ships_count": 0, "projects": [], "coding_time_seconds": 0, "coding_time_seconds_today": 0, "balance": "You need to have a pocket watcher badge to view this.", "badges": [], "created_at": "2025-06-18T02:16:02.347-04:00", "updated_at": "2025-07-03T21:57:58.012-04:00", "avatar": "https://avatars.slack-edge.com/2025-06-18/9067267477508_82779bbfb523badcd82b_original.jpg", "custom_css": null}, {"id": 7997, "slack_id": "U091850N695", "display_name": "Katharina Dippolt", "bio": null, "projects_count": 0, "devlogs_count": 0, "votes_count": 0, "ships_count": 0, "projects": [], "coding_time_seconds": 499, "coding_time_seconds_today": 0, "balance": "You need to have a pocket watcher badge to view this.", "badges": [], "created_at": "2025-06-18T02:16:42.401-04:00", "updated_at": "2025-07-03T19:46:17.881-04:00", "avatar": "https://secure.gravatar.com/avatar/ae5828a159f99245e962f1c53d0dc89f.jpg?s=512&d=https%3A%2F%2Fa.slack-edge.com%2Fdf10d%2Fimg%2Favatars%2Fava_0012-512.png", "custom_css": null}, {"id": 7998, "slack_id": "U092M8H9XH6", "display_name": "Jiahua Jiang", "bio": null, "projects_count": 0, "devlogs_count": 0, "votes_count": 0, "ships_count": 0, "projects": [], "coding_time_seconds": 14004, "coding_time_seconds_today": 0, "balance": "You need to have a pocket watcher badge to view this.", "badges": [], "created_at": "2025-06-18T02:18:32.839-04:00", "updated_at": "2025-07-03T19:46:18.154-04:00", "avatar": "https://secure.gravatar.com/avatar/6f00109551a75739a258f96cc95bc2d3.jpg?s=512&d=https%3A%2F%2Fa.slack-edge.com%2Fdf10d%2Fimg%2Favatars%2Fava_0003-512.png", "custom_css": null}, {"id": 7999, "slack_id": "U091BE0CHK9", "display_name": "Nauman Yousaf", "bio": null, "projects_count": 0, "devlogs_count": 0, "votes_count": 0, "ships_count": 0, "projects": [], "coding_time_seconds": 0, "coding_time_seconds_today": 0, "balance": "You need to have a pocket watcher badge to view this.", "badges": [], "created_at": "2025-06-18T02:19:02.209-04:00", "updated_at": "2025-07-03T19:46:18.418-04:00", "avatar": "https://secure.gravatar.com/avatar/a1c3ec1a90374a7542e8c977c4862d57.jpg?s=512&d=https%3A%2F%2Fa.slack-edge.com%2Fdf10d%2Fimg%2Favatars%2Fava_0000-512.png", "custom_css": null}, {"id": 8000, "slack_id": "U091SEJFR62", "display_name": "Himanshu", "bio": null, "projects_count": 0, "devlogs_count": 0, "votes_count": 0, "ships_count": 0, "projects": [], "coding_time_seconds": 29060, "coding_time_seconds_today": 0, "balance": "You need to have a pocket watcher badge to view this.", "badges": [], "created_at": "2025-06-18T02:19:43.981-04:00", "updated_at": "2025-07-03T19:46:18.682-04:00", "avatar": "https://secure.gravatar.com/avatar/74f6d0e4b59266e03d3e6c32065c38e5.jpg?s=512&d=https%3A%2F%2Fa.slack-edge.com%2Fdf10d%2Fimg%2Favatars%2Fava_0012-512.png", "custom_css": null}], "pagination": {"page": 400, "pages": 1192, "count": 23828, "items": 20}}