{"users": [{"id": 8001, "slack_id": "U092M8QTCQG", "display_name": "ahmad", "bio": null, "projects_count": 0, "devlogs_count": 0, "votes_count": 0, "ships_count": 0, "projects": [], "coding_time_seconds": 0, "coding_time_seconds_today": 0, "balance": "You need to have a pocket watcher badge to view this.", "badges": [], "created_at": "2025-06-18T02:20:34.118-04:00", "updated_at": "2025-07-03T19:46:18.963-04:00", "avatar": "https://secure.gravatar.com/avatar/2c24e4a15d7fa831959b3ff165ab8c07.jpg?s=512&d=https%3A%2F%2Fa.slack-edge.com%2Fdf10d%2Fimg%2Favatars%2Fava_0007-512.png", "custom_css": null}, {"id": 8002, "slack_id": "U091HASUF55", "display_name": "Flare", "bio": null, "projects_count": 0, "devlogs_count": 0, "votes_count": 0, "ships_count": 0, "projects": [], "coding_time_seconds": 0, "coding_time_seconds_today": 0, "balance": "You need to have a pocket watcher badge to view this.", "badges": [], "created_at": "2025-06-18T02:20:37.259-04:00", "updated_at": "2025-07-03T19:46:19.231-04:00", "avatar": "https://secure.gravatar.com/avatar/e3c59342e0252563472309d8945b57ab.jpg?s=512&d=https%3A%2F%2Fa.slack-edge.com%2Fdf10d%2Fimg%2Favatars%2Fava_0008-512.png", "custom_css": null}, {"id": 8003, "slack_id": "U091YAHM092", "display_name": "Muhammad Qasim", "bio": null, "projects_count": 0, "devlogs_count": 0, "votes_count": 0, "ships_count": 0, "projects": [], "coding_time_seconds": 0, "coding_time_seconds_today": 0, "balance": "You need to have a pocket watcher badge to view this.", "badges": [], "created_at": "2025-06-18T02:20:50.866-04:00", "updated_at": "2025-07-05T08:09:16.676-04:00", "avatar": "https://secure.gravatar.com/avatar/7fcfc18246ce6bc37349e3c26da88a76.jpg?s=512&d=https%3A%2F%2Fa.slack-edge.com%2Fdf10d%2Fimg%2Favatars%2Fava_0023-512.png", "custom_css": null}, {"id": 8004, "slack_id": "U091S8BSQN7", "display_name": "viraat", "bio": null, "projects_count": 1, "devlogs_count": 1, "votes_count": 11, "ships_count": 1, "projects": [{"id": 3933, "title": "INDIAN-AGE-CARITERIA", "devlogs_count": 1, "created_at": "2025-06-26T11:37:16.498-04:00"}], "coding_time_seconds": 7828, "coding_time_seconds_today": 0, "balance": "You need to have a pocket watcher badge to view this.", "badges": [{"name": "Maiden Voyage", "text": "you shipped your first project! the journey begins...", "icon": "\ud83d\udea2"}], "created_at": "2025-06-18T02:21:36.204-04:00", "updated_at": "2025-09-21T12:35:30.925-04:00", "avatar": "https://secure.gravatar.com/avatar/471674ce49ce5b2c0d903afe356480fa.jpg?s=512&d=https%3A%2F%2Fa.slack-edge.com%2Fdf10d%2Fimg%2Favatars%2Fava_0016-512.png", "custom_css": null}, {"id": 8005, "slack_id": "U091S8APQ83", "display_name": "Jishnu Setia", "bio": null, "projects_count": 0, "devlogs_count": 0, "votes_count": 0, "ships_count": 0, "projects": [], "coding_time_seconds": 0, "coding_time_seconds_today": 0, "balance": "You need to have a pocket watcher badge to view this.", "badges": [], "created_at": "2025-06-18T02:21:40.356-04:00", "updated_at": "2025-07-03T19:46:19.904-04:00", "avatar": "https://avatars.slack-edge.com/2025-06-17/9079475669201_82bb5e836f1c1743e63e_original.jpg", "custom_css": null}, {"id": 8006, "slack_id": "U092M06MSGY", "display_name": "Syed Mozamil Shah", "bio": null, "projects_count": 0, "devlogs_count": 0, "votes_count": 0, "ships_count": 0, "projects": [], "coding_time_seconds": 0, "coding_time_seconds_today": 0, "balance": "You need to have a pocket watcher badge to view this.", "badges": [], "created_at": "2025-06-18T02:21:54.139-04:00", "updated_at": "2025-07-03T22:36:30.295-04:00", "avatar": "https://secure.gravatar.com/avatar/a345683029577bb59727ecb2100226e6.jpg?s=512&d=https%3A%2F%2Fa.slack-edge.com%2Fdf10d%2Fimg%2Favatars%2Fava_0020-512.png", "custom_css": null}, {"id": 8007, "slack_id": "U091SETUKK8", "display_name": "CloudyHacker", "bio": null, "projects_count": 6, "devlogs_count": 22, "votes_count": 22, "ships_count": 4, "projects": [{"id": 3993, "title": "Advance Backend system in Node.js", "devlogs_count": 1, "created_at": "2025-06-26T18:11:53.336-04:00"}, {"id": 4428, "title": "Online Events Scraper", "devlogs_count": 5, "created_at": "2025-06-29T19:40:17.738-04:00"}, {"id": 4741, "title": "Junk Food Calorie Counter", "devlogs_count": 1, "created_at": "2025-07-01T10:08:02.433-04:00"}, {"id": 5641, "title": "BrainrotLang", "devlogs_count": 7, "created_at": "2025-07-06T20:15:30.151-04:00"}, {"id": 4833, "title": "Multiplayer Thrower Game", "devlogs_count": 8, "created_at": "2025-07-01T19:03:02.761-04:00"}, {"id": 4410, "title": "AI Agent SAAS Platform (Interview calls)", "devlogs_count": 0, "created_at": "2025-06-29T16:54:44.512-04:00"}], "coding_time_seconds": 136615, "coding_time_seconds_today": 1154, "balance": "You need to have a pocket watcher badge to view this.", "badges": [{"name": "Maiden Voyage", "text": "you shipped your first project! the journey begins...", "icon": "\ud83d\udea2"}], "created_at": "2025-06-18T02:22:45.508-04:00", "updated_at": "2025-09-10T22:55:08.126-04:00", "avatar": "https://secure.gravatar.com/avatar/948e985bf72d86c08a378dca4d2786b0.jpg?s=512&d=https%3A%2F%2Fa.slack-edge.com%2Fdf10d%2Fimg%2Favatars%2Fava_0005-512.png", "custom_css": null}, {"id": 8008, "slack_id": "U091YQ8H2D8", "display_name": "Swagata Dey", "bio": null, "projects_count": 0, "devlogs_count": 0, "votes_count": 0, "ships_count": 0, "projects": [], "coding_time_seconds": 0, "coding_time_seconds_today": 0, "balance": "You need to have a pocket watcher badge to view this.", "badges": [], "created_at": "2025-06-18T02:24:55.517-04:00", "updated_at": "2025-07-03T19:46:20.498-04:00", "avatar": "https://secure.gravatar.com/avatar/007e7f125d1305cab3ecbb1e2fd19a9e.jpg?s=512&d=https%3A%2F%2Fa.slack-edge.com%2Fdf10d%2Fimg%2Favatars%2Fava_0004-512.png", "custom_css": null}, {"id": 8009, "slack_id": "U091JCNU57Y", "display_name": "Kevin", "bio": null, "projects_count": 0, "devlogs_count": 0, "votes_count": 0, "ships_count": 0, "projects": [], "coding_time_seconds": 0, "coding_time_seconds_today": 0, "balance": "You need to have a pocket watcher badge to view this.", "badges": [], "created_at": "2025-06-18T02:25:08.885-04:00", "updated_at": "2025-07-05T08:09:17.042-04:00", "avatar": "https://secure.gravatar.com/avatar/60fe8afffb96a14c238e1fd49a29340b.jpg?s=512&d=https%3A%2F%2Fa.slack-edge.com%2Fdf10d%2Fimg%2Favatars%2Fava_0012-512.png", "custom_css": null}, {"id": 8010, "slack_id": "U091YQDLEUS", "display_name": "Andrea Toska", "bio": null, "projects_count": 0, "devlogs_count": 0, "votes_count": 0, "ships_count": 0, "projects": [], "coding_time_seconds": 0, "coding_time_seconds_today": 0, "balance": "You need to have a pocket watcher badge to view this.", "badges": [], "created_at": "2025-06-18T02:25:22.359-04:00", "updated_at": "2025-07-04T08:23:42.868-04:00", "avatar": "https://avatars.slack-edge.com/2025-06-17/9067294190724_b1223598c1d79e6fccf2_original.png", "custom_css": null}, {"id": 8011, "slack_id": "U091YQE3KM0", "display_name": "Hao", "bio": null, "projects_count": 0, "devlogs_count": 0, "votes_count": 0, "ships_count": 0, "projects": [], "coding_time_seconds": 0, "coding_time_seconds_today": 0, "balance": "You need to have a pocket watcher badge to view this.", "badges": [], "created_at": "2025-06-18T02:25:29.440-04:00", "updated_at": "2025-07-03T19:46:21.045-04:00", "avatar": "https://secure.gravatar.com/avatar/84ee5a511363fd9f7e93230590bf3766.jpg?s=512&d=https%3A%2F%2Fa.slack-edge.com%2Fdf10d%2Fimg%2Favatars%2Fava_0025-512.png", "custom_css": null}, {"id": 8012, "slack_id": "U091HMRTJPR", "display_name": "crockrocks", "bio": null, "projects_count": 0, "devlogs_count": 0, "votes_count": 0, "ships_count": 0, "projects": [], "coding_time_seconds": 0, "coding_time_seconds_today": 0, "balance": "You need to have a pocket watcher badge to view this.", "badges": [], "created_at": "2025-06-18T02:25:59.287-04:00", "updated_at": "2025-07-03T19:46:21.376-04:00", "avatar": "https://secure.gravatar.com/avatar/0588e2c349aadf4194a305797b1810a5.jpg?s=512&d=https%3A%2F%2Fa.slack-edge.com%2Fdf10d%2Fimg%2Favatars%2Fava_0015-512.png", "custom_css": null}, {"id": 8013, "slack_id": "U091VN5TNSE", "display_name": "Shreyash Gupta", "bio": null, "projects_count": 0, "devlogs_count": 0, "votes_count": 0, "ships_count": 0, "projects": [], "coding_time_seconds": 0, "coding_time_seconds_today": 0, "balance": "You need to have a pocket watcher badge to view this.", "badges": [], "created_at": "2025-06-18T02:28:15.215-04:00", "updated_at": "2025-07-03T19:46:21.636-04:00", "avatar": "https://secure.gravatar.com/avatar/52a5d74c086bf6561f609e0047db585a.jpg?s=512&d=https%3A%2F%2Fa.slack-edge.com%2Fdf10d%2Fimg%2Favatars%2Fava_0002-512.png", "custom_css": null}, {"id": 8014, "slack_id": "U092M9H1NEL", "display_name": "Adrian Lin", "bio": null, "projects_count": 0, "devlogs_count": 0, "votes_count": 0, "ships_count": 0, "projects": [], "coding_time_seconds": 0, "coding_time_seconds_today": 0, "balance": "You need to have a pocket watcher badge to view this.", "badges": [], "created_at": "2025-06-18T02:28:52.541-04:00", "updated_at": "2025-07-04T02:27:25.505-04:00", "avatar": "https://avatars.slack-edge.com/2025-06-17/9065413752645_8f7f8553c7e5d1989351_original.jpg", "custom_css": null}, {"id": 8015, "slack_id": "U091HMU7BT9", "display_name": "Ananya", "bio": null, "projects_count": 0, "devlogs_count": 0, "votes_count": 0, "ships_count": 0, "projects": [], "coding_time_seconds": 0, "coding_time_seconds_today": 0, "balance": "You need to have a pocket watcher badge to view this.", "badges": [], "created_at": "2025-06-18T02:29:11.809-04:00", "updated_at": "2025-07-03T19:46:22.040-04:00", "avatar": "https://secure.gravatar.com/avatar/dae75e9deb3d849a7abf74801d938da8.jpg?s=512&d=https%3A%2F%2Fa.slack-edge.com%2Fdf10d%2Fimg%2Favatars%2Fava_0015-512.png", "custom_css": null}, {"id": 8016, "slack_id": "U092M9P55BJ", "display_name": "Sohan Bhattarai", "bio": null, "projects_count": 0, "devlogs_count": 0, "votes_count": 0, "ships_count": 0, "projects": [], "coding_time_seconds": 0, "coding_time_seconds_today": 0, "balance": "You need to have a pocket watcher badge to view this.", "badges": [], "created_at": "2025-06-18T02:29:13.834-04:00", "updated_at": "2025-07-07T14:40:03.155-04:00", "avatar": "https://secure.gravatar.com/avatar/9f955680100fda36d10524155b371107.jpg?s=512&d=https%3A%2F%2Fa.slack-edge.com%2Fdf10d%2Fimg%2Favatars%2Fava_0000-512.png", "custom_css": null}, {"id": 8017, "slack_id": "U091SF8V6TG", "display_name": "Yash Singla", "bio": null, "projects_count": 0, "devlogs_count": 0, "votes_count": 0, "ships_count": 0, "projects": [], "coding_time_seconds": 0, "coding_time_seconds_today": 0, "balance": "You need to have a pocket watcher badge to view this.", "badges": [], "created_at": "2025-06-18T02:29:45.210-04:00", "updated_at": "2025-07-03T19:46:22.439-04:00", "avatar": "https://secure.gravatar.com/avatar/bb03b6d916bd46f1ce775ecd009892ba.jpg?s=512&d=https%3A%2F%2Fa.slack-edge.com%2Fdf10d%2Fimg%2Favatars%2Fava_0009-512.png", "custom_css": null}, {"id": 8018, "slack_id": "U092M9V0NQY", "display_name": "Abhijeet Singh", "bio": null, "projects_count": 0, "devlogs_count": 0, "votes_count": 0, "ships_count": 0, "projects": [], "coding_time_seconds": 0, "coding_time_seconds_today": 0, "balance": "You need to have a pocket watcher badge to view this.", "badges": [], "created_at": "2025-06-18T02:30:38.424-04:00", "updated_at": "2025-07-03T19:46:22.710-04:00", "avatar": "https://secure.gravatar.com/avatar/0c38c3c672d069d1a5d52f2909ce0940.jpg?s=512&d=https%3A%2F%2Fa.slack-edge.com%2Fdf10d%2Fimg%2Favatars%2Fava_0006-512.png", "custom_css": null}, {"id": 8019, "slack_id": "U091S73GRUK", "display_name": "Juan Jose Trujillo Cardozo", "bio": null, "projects_count": 0, "devlogs_count": 0, "votes_count": 0, "ships_count": 0, "projects": [], "coding_time_seconds": 0, "coding_time_seconds_today": 0, "balance": "You need to have a pocket watcher badge to view this.", "badges": [], "created_at": "2025-06-18T02:32:06.867-04:00", "updated_at": "2025-07-04T20:08:32.433-04:00", "avatar": "https://secure.gravatar.com/avatar/f2c60e059a41d50531df97dcb287b1e4.jpg?s=512&d=https%3A%2F%2Fa.slack-edge.com%2Fdf10d%2Fimg%2Favatars%2Fava_0001-512.png", "custom_css": null}, {"id": 8020, "slack_id": "U092B4ZGZ96", "display_name": "Laraib Memon", "bio": null, "projects_count": 0, "devlogs_count": 0, "votes_count": 0, "ships_count": 0, "projects": [], "coding_time_seconds": 0, "coding_time_seconds_today": 0, "balance": "You need to have a pocket watcher badge to view this.", "badges": [], "created_at": "2025-06-18T02:32:52.565-04:00", "updated_at": "2025-07-04T20:08:32.508-04:00", "avatar": "https://avatars.slack-edge.com/2025-06-17/9065432348869_6ef8b539554095412a70_original.jpg", "custom_css": null}], "pagination": {"page": 401, "pages": 1192, "count": 23828, "items": 20}}