{"users": [{"id": 8021, "slack_id": "U07AQBH8QER", "display_name": "Stefan Lighezan", "bio": null, "projects_count": 0, "devlogs_count": 0, "votes_count": 0, "ships_count": 0, "projects": [], "coding_time_seconds": 5116, "coding_time_seconds_today": 0, "balance": "You need to have a pocket watcher badge to view this.", "badges": [], "created_at": "2025-06-18T02:36:25.826-04:00", "updated_at": "2025-07-03T19:46:23.235-04:00", "avatar": "https://secure.gravatar.com/avatar/ce30a59ae2856678834fc28c8f778a4e.jpg?s=512&d=https%3A%2F%2Fa.slack-edge.com%2Fdf10d%2Fimg%2Favatars%2Fava_0014-512.png", "custom_css": null}, {"id": 8022, "slack_id": "U07AQEPDUG0", "display_name": "VishalRashmika", "bio": null, "projects_count": 0, "devlogs_count": 0, "votes_count": 0, "ships_count": 0, "projects": [], "coding_time_seconds": 0, "coding_time_seconds_today": 0, "balance": "You need to have a pocket watcher badge to view this.", "badges": [], "created_at": "2025-06-18T02:36:33.927-04:00", "updated_at": "2025-07-03T19:46:23.494-04:00", "avatar": "https://secure.gravatar.com/avatar/de4242dcb4b3d3899433c82777be46a0.jpg?s=512&d=https%3A%2F%2Fa.slack-edge.com%2Fdf10d%2Fimg%2Favatars%2Fava_0015-512.png", "custom_css": null}, {"id": 8023, "slack_id": "U091H7QE96K", "display_name": "shimaenaga1123", "bio": null, "projects_count": 2, "devlogs_count": 0, "votes_count": 0, "ships_count": 0, "projects": [{"id": 1573, "title": "Fast Math Calculation test with C", "devlogs_count": 0, "created_at": "2025-06-18T19:08:49.156-04:00"}, {"id": 3150, "title": "Making my homepage", "devlogs_count": 0, "created_at": "2025-06-23T08:43:20.093-04:00"}], "coding_time_seconds": 181278, "coding_time_seconds_today": 0, "balance": "You need to have a pocket watcher badge to view this.", "badges": [], "created_at": "2025-06-18T02:38:44.416-04:00", "updated_at": "2025-07-03T19:46:23.764-04:00", "avatar": "https://secure.gravatar.com/avatar/4724cf2e233f412322623d73287ea56f.jpg?s=512&d=https%3A%2F%2Fa.slack-edge.com%2Fdf10d%2Fimg%2Favatars%2Fava_0006-512.png", "custom_css": null}, {"id": 8024, "slack_id": "U092MAMBPTJ", "display_name": "Dylan Jones", "bio": null, "projects_count": 0, "devlogs_count": 0, "votes_count": 0, "ships_count": 0, "projects": [], "coding_time_seconds": 0, "coding_time_seconds_today": 0, "balance": "You need to have a pocket watcher badge to view this.", "badges": [], "created_at": "2025-06-18T02:38:52.919-04:00", "updated_at": "2025-07-04T02:27:26.217-04:00", "avatar": "https://secure.gravatar.com/avatar/22a3c06a4d465c71252669ad5d0b49c7.jpg?s=512&d=https%3A%2F%2Fa.slack-edge.com%2Fdf10d%2Fimg%2Favatars%2Fava_0010-512.png", "custom_css": null}, {"id": 8025, "slack_id": "U091SGTDGRL", "display_name": "Sam", "bio": null, "projects_count": 0, "devlogs_count": 0, "votes_count": 0, "ships_count": 0, "projects": [], "coding_time_seconds": 0, "coding_time_seconds_today": 0, "balance": "You need to have a pocket watcher badge to view this.", "badges": [], "created_at": "2025-06-18T02:39:07.520-04:00", "updated_at": "2025-07-03T19:46:24.177-04:00", "avatar": "https://secure.gravatar.com/avatar/9a37422c7c41ce4f858643c2f3933e79.jpg?s=512&d=https%3A%2F%2Fa.slack-edge.com%2Fdf10d%2Fimg%2Favatars%2Fava_0005-512.png", "custom_css": null}, {"id": 8026, "slack_id": "U092MAAQZQ8", "display_name": "Fernando Merida Magni", "bio": null, "projects_count": 0, "devlogs_count": 0, "votes_count": 0, "ships_count": 0, "projects": [], "coding_time_seconds": 0, "coding_time_seconds_today": 0, "balance": "You need to have a pocket watcher badge to view this.", "badges": [], "created_at": "2025-06-18T02:39:16.518-04:00", "updated_at": "2025-07-03T19:46:24.436-04:00", "avatar": "https://avatars.slack-edge.com/2025-06-18/9066893274258_d078cc460914008aea36_original.png", "custom_css": null}, {"id": 8027, "slack_id": "U091SGTH9HC", "display_name": "KARTHIK LAL", "bio": null, "projects_count": 0, "devlogs_count": 0, "votes_count": 0, "ships_count": 0, "projects": [], "coding_time_seconds": 0, "coding_time_seconds_today": 0, "balance": "You need to have a pocket watcher badge to view this.", "badges": [], "created_at": "2025-06-18T02:39:49.111-04:00", "updated_at": "2025-07-04T02:27:26.437-04:00", "avatar": "https://avatars.slack-edge.com/2025-06-18/9067543246564_19dc0fc2bab65209f241_original.jpg", "custom_css": null}, {"id": 8028, "slack_id": "U091HPKJK7H", "display_name": "Mathieu", "bio": null, "projects_count": 1, "devlogs_count": 4, "votes_count": 2, "ships_count": 1, "projects": [{"id": 1495, "title": "decimal Game of Life", "devlogs_count": 4, "created_at": "2025-06-18T16:28:58.331-04:00"}], "coding_time_seconds": 103821, "coding_time_seconds_today": 0, "balance": "You need to have a pocket watcher badge to view this.", "badges": [{"name": "Maiden Voyage", "text": "you shipped your first project! the journey begins...", "icon": "\ud83d\udea2"}], "created_at": "2025-06-18T02:42:19.757-04:00", "updated_at": "2025-09-22T18:05:50.280-04:00", "avatar": "https://secure.gravatar.com/avatar/de61ca935cc142361e6d13db77f31d75.jpg?s=512&d=https%3A%2F%2Fa.slack-edge.com%2Fdf10d%2Fimg%2Favatars%2Fava_0022-512.png", "custom_css": null}, {"id": 8029, "slack_id": "U091HPTLZST", "display_name": "Denis Anikiev", "bio": null, "projects_count": 0, "devlogs_count": 0, "votes_count": 0, "ships_count": 0, "projects": [], "coding_time_seconds": 0, "coding_time_seconds_today": 0, "balance": "You need to have a pocket watcher badge to view this.", "badges": [], "created_at": "2025-06-18T02:43:00.517-04:00", "updated_at": "2025-07-03T19:46:25.091-04:00", "avatar": "https://avatars.slack-edge.com/2025-06-17/9051822781863_7a9e93e945615d55adaa_original.png", "custom_css": null}, {"id": 8030, "slack_id": "U08S64CBHHC", "display_name": "Harshit", "bio": "", "projects_count": 0, "devlogs_count": 30, "votes_count": 58, "ships_count": 0, "projects": [], "coding_time_seconds": 1073855, "coding_time_seconds_today": 0, "balance": "You need to have a pocket watcher badge to view this.", "badges": [{"name": "Maiden Voyage", "text": "you shipped your first project! the journey begins...", "icon": "\ud83d\udea2"}], "created_at": "2025-06-18T02:43:28.574-04:00", "updated_at": "2025-09-10T22:55:08.912-04:00", "avatar": "https://avatars.slack-edge.com/2025-05-14/8920294378928_d57cc74036e58f114829_original.jpg", "custom_css": null}, {"id": 8031, "slack_id": "U077C11T3A8", "display_name": "chxshi", "bio": null, "projects_count": 0, "devlogs_count": 2, "votes_count": 0, "ships_count": 0, "projects": [], "coding_time_seconds": 185089, "coding_time_seconds_today": 0, "balance": "You need to have a pocket watcher badge to view this.", "badges": [], "created_at": "2025-06-18T02:45:27.587-04:00", "updated_at": "2025-07-03T19:46:25.636-04:00", "avatar": "https://avatars.slack-edge.com/2024-06-23/7302709207975_fbdfa7b256a49b567cd5_original.jpg", "custom_css": null}, {"id": 8032, "slack_id": "U091SBBDDFV", "display_name": "Kirill", "bio": null, "projects_count": 1, "devlogs_count": 6, "votes_count": 13, "ships_count": 1, "projects": [{"id": 5097, "title": "Personal Portfolio", "devlogs_count": 5, "created_at": "2025-07-03T08:17:16.643-04:00"}], "coding_time_seconds": 20964, "coding_time_seconds_today": 0, "balance": "You need to have a pocket watcher badge to view this.", "badges": [{"name": "Maiden Voyage", "text": "you shipped your first project! the journey begins...", "icon": "\ud83d\udea2"}], "created_at": "2025-06-18T02:47:22.134-04:00", "updated_at": "2025-09-10T22:55:08.973-04:00", "avatar": "https://avatars.slack-edge.com/2025-07-23/9257464388561_9dd41a2da3ec2ad5cc9c_original.png", "custom_css": null}, {"id": 8033, "slack_id": "U08RSLYA2DB", "display_name": "Luca", "bio": null, "projects_count": 1, "devlogs_count": 4, "votes_count": 20, "ships_count": 1, "projects": [{"id": 4729, "title": "local-ftp", "devlogs_count": 4, "created_at": "2025-07-01T09:16:20.322-04:00"}], "coding_time_seconds": 145056, "coding_time_seconds_today": 0, "balance": "You need to have a pocket watcher badge to view this.", "badges": [{"name": "Maiden Voyage", "text": "you shipped your first project! the journey begins...", "icon": "\ud83d\udea2"}], "created_at": "2025-06-18T02:47:36.067-04:00", "updated_at": "2025-09-10T22:55:09.006-04:00", "avatar": "https://avatars.slack-edge.com/2025-05-12/8875414833862_cf223140418c214542e3_original.png", "custom_css": null}, {"id": 8034, "slack_id": "U091YSNEAE6", "display_name": "Pixel", "bio": null, "projects_count": 0, "devlogs_count": 0, "votes_count": 0, "ships_count": 0, "projects": [], "coding_time_seconds": 29299, "coding_time_seconds_today": 0, "balance": "You need to have a pocket watcher badge to view this.", "badges": [], "created_at": "2025-06-18T02:48:09.779-04:00", "updated_at": "2025-08-15T07:37:30.631-04:00", "avatar": "https://avatars.slack-edge.com/2025-07-28/9264449064260_d43e58a3b80f5beebd54_original.jpg", "custom_css": null}, {"id": 8035, "slack_id": "U092BGK414H", "display_name": "imnoob59", "bio": null, "projects_count": 0, "devlogs_count": 0, "votes_count": 0, "ships_count": 0, "projects": [], "coding_time_seconds": 0, "coding_time_seconds_today": 0, "balance": "You need to have a pocket watcher badge to view this.", "badges": [], "created_at": "2025-06-18T02:48:28.515-04:00", "updated_at": "2025-07-03T19:46:26.735-04:00", "avatar": "https://secure.gravatar.com/avatar/78edcffc3bc71a06e2d1952b7bcd6985.jpg?s=512&d=https%3A%2F%2Fa.slack-edge.com%2Fdf10d%2Fimg%2Favatars%2Fava_0020-512.png", "custom_css": null}, {"id": 8036, "slack_id": "U091SHZHDK8", "display_name": "addy", "bio": null, "projects_count": 0, "devlogs_count": 0, "votes_count": 0, "ships_count": 0, "projects": [], "coding_time_seconds": 0, "coding_time_seconds_today": 0, "balance": "You need to have a pocket watcher badge to view this.", "badges": [], "created_at": "2025-06-18T02:49:15.172-04:00", "updated_at": "2025-07-03T19:46:27.081-04:00", "avatar": "https://secure.gravatar.com/avatar/4953cbf5d9a6bf3c9afd5f65a3c18bd5.jpg?s=512&d=https%3A%2F%2Fa.slack-edge.com%2Fdf10d%2Fimg%2Favatars%2Fava_0003-512.png", "custom_css": null}, {"id": 8037, "slack_id": "U092MBZA38Q", "display_name": "saketha", "bio": null, "projects_count": 0, "devlogs_count": 0, "votes_count": 0, "ships_count": 0, "projects": [], "coding_time_seconds": 0, "coding_time_seconds_today": 0, "balance": "You need to have a pocket watcher badge to view this.", "badges": [], "created_at": "2025-06-18T02:49:24.430-04:00", "updated_at": "2025-07-05T20:09:23.576-04:00", "avatar": "https://secure.gravatar.com/avatar/5a7b18ec32081c5e5b58bfff9461395b.jpg?s=512&d=https%3A%2F%2Fa.slack-edge.com%2Fdf10d%2Fimg%2Favatars%2Fava_0018-512.png", "custom_css": null}, {"id": 8038, "slack_id": "U0926M52EF3", "display_name": "Siva Sai Prakash Rayudu", "bio": null, "projects_count": 2, "devlogs_count": 2, "votes_count": 1, "ships_count": 1, "projects": [{"id": 2049, "title": "Portfolio Of Me", "devlogs_count": 1, "created_at": "2025-06-20T02:03:34.739-04:00"}, {"id": 2160, "title": "Movie List", "devlogs_count": 1, "created_at": "2025-06-20T10:30:49.728-04:00"}], "coding_time_seconds": 36629, "coding_time_seconds_today": 0, "balance": "You need to have a pocket watcher badge to view this.", "badges": [{"name": "Maiden Voyage", "text": "you shipped your first project! the journey begins...", "icon": "\ud83d\udea2"}], "created_at": "2025-06-18T02:49:44.809-04:00", "updated_at": "2025-09-10T22:55:09.184-04:00", "avatar": "https://avatars.slack-edge.com/2025-06-17/9060627713446_f180cf7bd3190312ed2e_original.png", "custom_css": null}, {"id": 8039, "slack_id": "U092L1KK4E4", "display_name": "Zoomyum", "bio": null, "projects_count": 0, "devlogs_count": 0, "votes_count": 0, "ships_count": 0, "projects": [], "coding_time_seconds": 1110, "coding_time_seconds_today": 0, "balance": "You need to have a pocket watcher badge to view this.", "badges": [], "created_at": "2025-06-18T02:50:26.573-04:00", "updated_at": "2025-07-03T21:46:06.314-04:00", "avatar": "https://avatars.slack-edge.com/2025-06-18/9060765163059_b97f3aae938b9cc5781b_original.png", "custom_css": null}, {"id": 8040, "slack_id": "U091HQSFT2T", "display_name": "Akshat", "bio": null, "projects_count": 0, "devlogs_count": 0, "votes_count": 0, "ships_count": 0, "projects": [], "coding_time_seconds": 0, "coding_time_seconds_today": 0, "balance": "You need to have a pocket watcher badge to view this.", "badges": [], "created_at": "2025-06-18T02:51:11.919-04:00", "updated_at": "2025-07-03T19:46:27.919-04:00", "avatar": "https://secure.gravatar.com/avatar/6c26f3cd14a116567c045a309269bc22.jpg?s=512&d=https%3A%2F%2Fa.slack-edge.com%2Fdf10d%2Fimg%2Favatars%2Fava_0011-512.png", "custom_css": null}], "pagination": {"page": 402, "pages": 1192, "count": 23828, "items": 20}}