{"users": [{"id": 8041, "slack_id": "U091HP6T9QF", "display_name": "Kabelo Moobi", "bio": null, "projects_count": 0, "devlogs_count": 0, "votes_count": 0, "ships_count": 0, "projects": [], "coding_time_seconds": 621781, "coding_time_seconds_today": 0, "balance": "You need to have a pocket watcher badge to view this.", "badges": [], "created_at": "2025-06-18T02:51:15.127-04:00", "updated_at": "2025-07-03T21:46:06.464-04:00", "avatar": "https://avatars.slack-edge.com/2025-06-17/9067392818804_09938eda00952925cf26_original.jpg", "custom_css": null}, {"id": 8042, "slack_id": "U091YT1M21Y", "display_name": "Mohammed Muulayl", "bio": null, "projects_count": 0, "devlogs_count": 0, "votes_count": 0, "ships_count": 0, "projects": [], "coding_time_seconds": 0, "coding_time_seconds_today": 0, "balance": "You need to have a pocket watcher badge to view this.", "badges": [], "created_at": "2025-06-18T02:51:22.998-04:00", "updated_at": "2025-07-03T19:46:28.327-04:00", "avatar": "https://secure.gravatar.com/avatar/86c6c2be86109682e8e8e76aae898634.jpg?s=512&d=https%3A%2F%2Fa.slack-edge.com%2Fdf10d%2Fimg%2Favatars%2Fava_0026-512.png", "custom_css": null}, {"id": 8043, "slack_id": "U091YT2Q3A6", "display_name": "Ejaz Ul Haq", "bio": null, "projects_count": 0, "devlogs_count": 0, "votes_count": 0, "ships_count": 0, "projects": [], "coding_time_seconds": 0, "coding_time_seconds_today": 0, "balance": "You need to have a pocket watcher badge to view this.", "badges": [], "created_at": "2025-06-18T02:52:43.262-04:00", "updated_at": "2025-07-03T19:46:28.615-04:00", "avatar": "https://secure.gravatar.com/avatar/4c79c56e30366f7c88449c7e082675c3.jpg?s=512&d=https%3A%2F%2Fa.slack-edge.com%2Fdf10d%2Fimg%2Favatars%2Fava_0004-512.png", "custom_css": null}, {"id": 8044, "slack_id": "U091SBYJR27", "display_name": "Lalith Sai Kumar", "bio": null, "projects_count": 0, "devlogs_count": 0, "votes_count": 0, "ships_count": 0, "projects": [], "coding_time_seconds": 0, "coding_time_seconds_today": 0, "balance": "You need to have a pocket watcher badge to view this.", "badges": [], "created_at": "2025-06-18T02:53:22.039-04:00", "updated_at": "2025-07-03T19:46:28.872-04:00", "avatar": "https://secure.gravatar.com/avatar/63ee137a0e4d8bb22ba0efdeedefbf0f.jpg?s=512&d=https%3A%2F%2Fa.slack-edge.com%2Fdf10d%2Fimg%2Favatars%2Fava_0010-512.png", "custom_css": null}, {"id": 8045, "slack_id": "U091W4M244U", "display_name": "Arvid Bouziane", "bio": null, "projects_count": 6, "devlogs_count": 19, "votes_count": 70, "ships_count": 4, "projects": [{"id": 11489, "title": "Quizle", "devlogs_count": 4, "created_at": "2025-08-16T09:23:37.078-04:00"}, {"id": 11109, "title": "face-search2.0", "devlogs_count": 6, "created_at": "2025-08-13T08:21:23.805-04:00"}, {"id": 13699, "title": "file-encryption", "devlogs_count": 1, "created_at": "2025-09-23T06:45:35.271-04:00"}, {"id": 13713, "title": "svg-generator", "devlogs_count": 1, "created_at": "2025-09-23T13:37:50.288-04:00"}, {"id": 2597, "title": "face-search", "devlogs_count": 4, "created_at": "2025-06-21T12:12:30.718-04:00"}, {"id": 5463, "title": "morse-code translator", "devlogs_count": 3, "created_at": "2025-07-05T13:06:10.316-04:00"}], "coding_time_seconds": 364274, "coding_time_seconds_today": 0, "balance": "You need to have a pocket watcher badge to view this.", "badges": [{"name": "Maiden Voyage", "text": "you shipped your first project! the journey begins...", "icon": "\ud83d\udea2"}], "created_at": "2025-06-18T02:54:47.559-04:00", "updated_at": "2025-09-10T22:55:09.391-04:00", "avatar": "https://secure.gravatar.com/avatar/267cac622ae41b7a503d60fb8a7cf922.jpg?s=512&d=https%3A%2F%2Fa.slack-edge.com%2Fdf10d%2Fimg%2Favatars%2Fava_0020-512.png", "custom_css": null}, {"id": 8046, "slack_id": "U091XERTGG5", "display_name": "Michaelihc", "bio": null, "projects_count": 0, "devlogs_count": 0, "votes_count": 0, "ships_count": 0, "projects": [], "coding_time_seconds": 36421, "coding_time_seconds_today": 0, "balance": "You need to have a pocket watcher badge to view this.", "badges": [], "created_at": "2025-06-18T02:54:57.894-04:00", "updated_at": "2025-07-05T02:09:03.991-04:00", "avatar": "https://secure.gravatar.com/avatar/964357eb430afd7f59a23074eafa0b4d.jpg?s=512&d=https%3A%2F%2Fa.slack-edge.com%2Fdf10d%2Fimg%2Favatars%2Fava_0025-512.png", "custom_css": null}, {"id": 8047, "slack_id": "U091ZBB6ZK6", "display_name": "kishor kunwar", "bio": null, "projects_count": 0, "devlogs_count": 0, "votes_count": 0, "ships_count": 0, "projects": [], "coding_time_seconds": 0, "coding_time_seconds_today": 0, "balance": "You need to have a pocket watcher badge to view this.", "badges": [], "created_at": "2025-06-18T02:55:04.154-04:00", "updated_at": "2025-07-03T19:46:29.409-04:00", "avatar": "https://avatars.slack-edge.com/2025-06-17/9060428785683_6786d3e477e9eaf1c7f6_original.png", "custom_css": null}, {"id": 8048, "slack_id": "U091XENV6ER", "display_name": "Aayuah Bhandari", "bio": null, "projects_count": 0, "devlogs_count": 0, "votes_count": 0, "ships_count": 0, "projects": [], "coding_time_seconds": 0, "coding_time_seconds_today": 0, "balance": "You need to have a pocket watcher badge to view this.", "badges": [], "created_at": "2025-06-18T02:55:08.646-04:00", "updated_at": "2025-07-03T19:46:29.678-04:00", "avatar": "https://avatars.slack-edge.com/2025-06-17/9079606087233_f3fee16a86c890f77e66_original.png", "custom_css": null}, {"id": 8049, "slack_id": "U091ZBC57L4", "display_name": "Dipsan Neupane", "bio": null, "projects_count": 0, "devlogs_count": 0, "votes_count": 0, "ships_count": 0, "projects": [], "coding_time_seconds": 0, "coding_time_seconds_today": 0, "balance": "You need to have a pocket watcher badge to view this.", "badges": [], "created_at": "2025-06-18T02:55:11.209-04:00", "updated_at": "2025-07-09T22:51:21.011-04:00", "avatar": "https://avatars.slack-edge.com/2025-06-17/9060650200070_53976f8a825415c9f011_original.png", "custom_css": null}, {"id": 8050, "slack_id": "U091SJCDJ9L", "display_name": "Roshani Bhattarai", "bio": null, "projects_count": 0, "devlogs_count": 0, "votes_count": 0, "ships_count": 0, "projects": [], "coding_time_seconds": 0, "coding_time_seconds_today": 0, "balance": "You need to have a pocket watcher badge to view this.", "badges": [], "created_at": "2025-06-18T02:55:15.996-04:00", "updated_at": "2025-07-04T20:08:34.452-04:00", "avatar": "https://avatars.slack-edge.com/2025-06-17/9060650809494_ad6c20e198356312b86c_original.jpg", "custom_css": null}, {"id": 8051, "slack_id": "U092BH42R7B", "display_name": "Milan Ghimire", "bio": null, "projects_count": 0, "devlogs_count": 0, "votes_count": 0, "ships_count": 0, "projects": [], "coding_time_seconds": 0, "coding_time_seconds_today": 0, "balance": "You need to have a pocket watcher badge to view this.", "badges": [], "created_at": "2025-06-18T02:55:20.735-04:00", "updated_at": "2025-07-03T21:58:02.957-04:00", "avatar": "https://avatars.slack-edge.com/2025-06-18/9065753208533_e32f11e9f18cbe7d3344_original.jpg", "custom_css": null}, {"id": 8052, "slack_id": "U091ZBSU5E0", "display_name": "Adi", "bio": null, "projects_count": 0, "devlogs_count": 0, "votes_count": 0, "ships_count": 0, "projects": [], "coding_time_seconds": 0, "coding_time_seconds_today": 0, "balance": "You need to have a pocket watcher badge to view this.", "badges": [], "created_at": "2025-06-18T02:56:24.602-04:00", "updated_at": "2025-07-03T19:46:30.376-04:00", "avatar": "https://secure.gravatar.com/avatar/deb24ee4f18575821f9d517b61260c53.jpg?s=512&d=https%3A%2F%2Fa.slack-edge.com%2Fdf10d%2Fimg%2Favatars%2Fava_0002-512.png", "custom_css": null}, {"id": 8053, "slack_id": "U08HXRLQ62E", "display_name": "yodin2327", "bio": null, "projects_count": 0, "devlogs_count": 0, "votes_count": 0, "ships_count": 0, "projects": [], "coding_time_seconds": 0, "coding_time_seconds_today": 0, "balance": "You need to have a pocket watcher badge to view this.", "badges": [], "created_at": "2025-06-18T02:56:57.263-04:00", "updated_at": "2025-07-03T19:46:30.644-04:00", "avatar": "https://secure.gravatar.com/avatar/34cbd976bb9599d45a7fb82bd152a672.jpg?s=512&d=https%3A%2F%2Fa.slack-edge.com%2Fdf10d%2Fimg%2Favatars%2Fava_0013-512.png", "custom_css": null}, {"id": 8054, "slack_id": "U091X9MTNP4", "display_name": "Jon", "bio": null, "projects_count": 0, "devlogs_count": 0, "votes_count": 0, "ships_count": 0, "projects": [], "coding_time_seconds": 463, "coding_time_seconds_today": 0, "balance": "You need to have a pocket watcher badge to view this.", "badges": [], "created_at": "2025-06-18T02:57:20.614-04:00", "updated_at": "2025-07-03T22:36:33.710-04:00", "avatar": "https://secure.gravatar.com/avatar/c27c7eb67a297b2e0c838f47276e21ad.jpg?s=512&d=https%3A%2F%2Fa.slack-edge.com%2Fdf10d%2Fimg%2Favatars%2Fava_0025-512.png", "custom_css": null}, {"id": 8055, "slack_id": "U092MCUH9LY", "display_name": "NinzaPanda", "bio": null, "projects_count": 0, "devlogs_count": 0, "votes_count": 0, "ships_count": 0, "projects": [], "coding_time_seconds": 0, "coding_time_seconds_today": 0, "balance": "You need to have a pocket watcher badge to view this.", "badges": [], "created_at": "2025-06-18T02:58:36.004-04:00", "updated_at": "2025-07-03T19:46:31.072-04:00", "avatar": "https://secure.gravatar.com/avatar/ce95aa4fae8d0d4b4444e03c86f7399f.jpg?s=512&d=https%3A%2F%2Fa.slack-edge.com%2Fdf10d%2Fimg%2Favatars%2Fava_0003-512.png", "custom_css": null}, {"id": 8056, "slack_id": "U091SCJ94EP", "display_name": "MUDIT KHATER", "bio": null, "projects_count": 0, "devlogs_count": 0, "votes_count": 0, "ships_count": 0, "projects": [], "coding_time_seconds": 0, "coding_time_seconds_today": 0, "balance": "You need to have a pocket watcher badge to view this.", "badges": [], "created_at": "2025-06-18T02:58:38.090-04:00", "updated_at": "2025-07-03T19:46:31.342-04:00", "avatar": "https://secure.gravatar.com/avatar/bdb6e59cbea0e735a9091d6ddbaf4c55.jpg?s=512&d=https%3A%2F%2Fa.slack-edge.com%2Fdf10d%2Fimg%2Favatars%2Fava_0026-512.png", "custom_css": null}, {"id": 8057, "slack_id": "U091HRLRZP1", "display_name": "Mutahar", "bio": null, "projects_count": 0, "devlogs_count": 0, "votes_count": 0, "ships_count": 0, "projects": [], "coding_time_seconds": 0, "coding_time_seconds_today": 0, "balance": "You need to have a pocket watcher badge to view this.", "badges": [], "created_at": "2025-06-18T02:58:56.899-04:00", "updated_at": "2025-07-03T19:46:31.615-04:00", "avatar": "https://secure.gravatar.com/avatar/5fab522fbd2cc40b7770a0badcb1c1fa.jpg?s=512&d=https%3A%2F%2Fa.slack-edge.com%2Fdf10d%2Fimg%2Favatars%2Fava_0019-512.png", "custom_css": null}, {"id": 8058, "slack_id": "U092BHUGWN5", "display_name": "Rohan", "bio": null, "projects_count": 0, "devlogs_count": 0, "votes_count": 0, "ships_count": 0, "projects": [], "coding_time_seconds": 0, "coding_time_seconds_today": 0, "balance": "You need to have a pocket watcher badge to view this.", "badges": [], "created_at": "2025-06-18T02:59:06.988-04:00", "updated_at": "2025-07-03T19:46:31.884-04:00", "avatar": "https://secure.gravatar.com/avatar/f3e57404daa8bb7cac0e119f9cf9cbfb.jpg?s=512&d=https%3A%2F%2Fa.slack-edge.com%2Fdf10d%2Fimg%2Favatars%2Fava_0004-512.png", "custom_css": null}, {"id": 8059, "slack_id": "U081EB7FF0F", "display_name": "Bhav Kartik Jindal", "bio": "", "projects_count": 7, "devlogs_count": 27, "votes_count": 78, "ships_count": 5, "projects": [{"id": 5782, "title": "VidTube (Youtube Clone)", "devlogs_count": 0, "created_at": "2025-07-08T00:40:09.588-04:00"}, {"id": 12100, "title": "Chess Project", "devlogs_count": 6, "created_at": "2025-08-23T04:33:28.580-04:00"}, {"id": 13194, "title": "Recycled Wonders - Turning Plastic Into Art", "devlogs_count": 3, "created_at": "2025-09-11T11:24:49.216-04:00"}, {"id": 5783, "title": "VidTube (Youtube Clone)", "devlogs_count": 9, "created_at": "2025-07-08T00:40:10.999-04:00"}, {"id": 7122, "title": "Rock-Paper-Scissors Game", "devlogs_count": 5, "created_at": "2025-07-19T08:02:48.361-04:00"}, {"id": 4248, "title": "Some Really Cool Buttons", "devlogs_count": 1, "created_at": "2025-06-28T12:55:41.206-04:00"}, {"id": 10588, "title": "ToDo List Project", "devlogs_count": 3, "created_at": "2025-08-08T13:14:00.231-04:00"}], "coding_time_seconds": 93765, "coding_time_seconds_today": 0, "balance": "You need to have a pocket watcher badge to view this.", "badges": [{"name": "Maiden Voyage", "text": "you shipped your first project! the journey begins...", "icon": "\ud83d\udea2"}], "created_at": "2025-06-18T02:59:32.645-04:00", "updated_at": "2025-09-10T22:55:09.747-04:00", "avatar": "https://avatars.slack-edge.com/2025-08-24/9400837767954_db09e3df1816f019827a_original.jpg", "custom_css": null}, {"id": 8060, "slack_id": "U091SCSFTRR", "display_name": "Tanishq", "bio": null, "projects_count": 0, "devlogs_count": 0, "votes_count": 0, "ships_count": 0, "projects": [], "coding_time_seconds": 0, "coding_time_seconds_today": 0, "balance": "You need to have a pocket watcher badge to view this.", "badges": [], "created_at": "2025-06-18T03:00:25.821-04:00", "updated_at": "2025-09-02T14:33:37.293-04:00", "avatar": "https://secure.gravatar.com/avatar/29f1666decaed32fbe3488dc9d2b1030.jpg?s=512&d=https%3A%2F%2Fa.slack-edge.com%2Fdf10d%2Fimg%2Favatars%2Fava_0008-512.png", "custom_css": null}], "pagination": {"page": 403, "pages": 1192, "count": 23828, "items": 20}}