{"users": [{"id": 8061, "slack_id": "U05NKQS9ZMG", "display_name": "Zmhang", "bio": null, "projects_count": 0, "devlogs_count": 0, "votes_count": 0, "ships_count": 0, "projects": [], "coding_time_seconds": 8217, "coding_time_seconds_today": 0, "balance": "You need to have a pocket watcher badge to view this.", "badges": [], "created_at": "2025-06-18T03:01:11.532-04:00", "updated_at": "2025-07-03T19:46:32.710-04:00", "avatar": "https://secure.gravatar.com/avatar/703da6ad9e6d0c19f82c4e9bcf33db2c.jpg?s=512&d=https%3A%2F%2Fa.slack-edge.com%2Fdf10d%2Fimg%2Favatars%2Fava_0016-512.png", "custom_css": null}, {"id": 8062, "slack_id": "U091ZCQF97W", "display_name": "Romil Patel", "bio": null, "projects_count": 0, "devlogs_count": 0, "votes_count": 0, "ships_count": 0, "projects": [], "coding_time_seconds": 0, "coding_time_seconds_today": 0, "balance": "You need to have a pocket watcher badge to view this.", "badges": [], "created_at": "2025-06-18T03:01:33.454-04:00", "updated_at": "2025-07-04T08:23:46.279-04:00", "avatar": "https://secure.gravatar.com/avatar/ae8b97981f136fffbf874d84f56f56f6.jpg?s=512&d=https%3A%2F%2Fa.slack-edge.com%2Fdf10d%2Fimg%2Favatars%2Fava_0004-512.png", "custom_css": null}, {"id": 8063, "slack_id": "U092MDKT96U", "display_name": "Darshan Singh", "bio": null, "projects_count": 0, "devlogs_count": 0, "votes_count": 0, "ships_count": 0, "projects": [], "coding_time_seconds": 49088, "coding_time_seconds_today": 0, "balance": "You need to have a pocket watcher badge to view this.", "badges": [], "created_at": "2025-06-18T03:01:39.192-04:00", "updated_at": "2025-07-03T19:46:33.147-04:00", "avatar": "https://avatars.slack-edge.com/2025-06-18/9065554448517_e811867d497f6dfb758b_original.jpg", "custom_css": null}, {"id": 8064, "slack_id": "U091HSDD0P9", "display_name": "oli", "bio": null, "projects_count": 0, "devlogs_count": 0, "votes_count": 0, "ships_count": 0, "projects": [], "coding_time_seconds": 0, "coding_time_seconds_today": 0, "balance": "You need to have a pocket watcher badge to view this.", "badges": [], "created_at": "2025-06-18T03:02:11.416-04:00", "updated_at": "2025-07-23T08:06:11.871-04:00", "avatar": "https://secure.gravatar.com/avatar/4e51a04fa4aad2341d8d9433fdc984cd.jpg?s=512&d=https%3A%2F%2Fa.slack-edge.com%2Fdf10d%2Fimg%2Favatars%2Fava_0018-512.png", "custom_css": null}, {"id": 8065, "slack_id": "U07E2HCS5V2", "display_name": "kora", "bio": null, "projects_count": 1, "devlogs_count": 10, "votes_count": 4, "ships_count": 1, "projects": [{"id": 8234, "title": "(Project-2) Mind Garden.", "devlogs_count": 10, "created_at": "2025-07-25T13:14:16.177-04:00"}], "coding_time_seconds": 799322, "coding_time_seconds_today": 0, "balance": "You need to have a pocket watcher badge to view this.", "badges": [{"name": "Maiden Voyage", "text": "you shipped your first project! the journey begins...", "icon": "\ud83d\udea2"}], "created_at": "2025-06-18T03:02:27.388-04:00", "updated_at": "2025-09-10T22:55:09.883-04:00", "avatar": "https://secure.gravatar.com/avatar/9721c2cc191c3000d96e8fb5daf75d24.jpg?s=512&d=https%3A%2F%2Fa.slack-edge.com%2Fdf10d%2Fimg%2Favatars%2Fava_0014-512.png", "custom_css": null}, {"id": 8066, "slack_id": "U091ZCTE9U4", "display_name": "Sriram Nagandla", "bio": null, "projects_count": 0, "devlogs_count": 0, "votes_count": 0, "ships_count": 0, "projects": [], "coding_time_seconds": 52868, "coding_time_seconds_today": 0, "balance": "You need to have a pocket watcher badge to view this.", "badges": [], "created_at": "2025-06-18T03:02:31.492-04:00", "updated_at": "2025-07-03T19:46:33.962-04:00", "avatar": "https://secure.gravatar.com/avatar/672fca91f6310368831193d7e5156f7a.jpg?s=512&d=https%3A%2F%2Fa.slack-edge.com%2Fdf10d%2Fimg%2Favatars%2Fava_0010-512.png", "custom_css": null}, {"id": 8067, "slack_id": "U08RQRD6NDQ", "display_name": "Himanshu Sapkota", "bio": null, "projects_count": 1, "devlogs_count": 0, "votes_count": 0, "ships_count": 0, "projects": [{"id": 3461, "title": "A BLOG WEBSITE", "devlogs_count": 0, "created_at": "2025-06-24T11:09:39.661-04:00"}], "coding_time_seconds": 33572, "coding_time_seconds_today": 0, "balance": "You need to have a pocket watcher badge to view this.", "badges": [], "created_at": "2025-06-18T03:04:10.356-04:00", "updated_at": "2025-08-09T06:34:54.046-04:00", "avatar": "https://avatars.slack-edge.com/2025-05-09/8861841557911_9fbaf3cbba32480d2762_original.png", "custom_css": null}, {"id": 8068, "slack_id": "U091XG26UQ5", "display_name": "Jay", "bio": "", "projects_count": 5, "devlogs_count": 20, "votes_count": 80, "ships_count": 4, "projects": [{"id": 13248, "title": "EmeraldDawn", "devlogs_count": 7, "created_at": "2025-09-12T13:08:33.008-04:00"}, {"id": 13554, "title": "FinSage", "devlogs_count": 1, "created_at": "2025-09-19T09:12:37.266-04:00"}, {"id": 11599, "title": "ManiMagic", "devlogs_count": 8, "created_at": "2025-08-17T12:08:01.583-04:00"}, {"id": 13278, "title": "FloatChat", "devlogs_count": 0, "created_at": "2025-09-13T05:59:39.701-04:00"}, {"id": 10861, "title": "ShopBase", "devlogs_count": 4, "created_at": "2025-08-11T11:28:19.540-04:00"}], "coding_time_seconds": 416997, "coding_time_seconds_today": 3196, "balance": "You need to have a pocket watcher badge to view this.", "badges": [{"name": "Maiden Voyage", "text": "you shipped your first project! the journey begins...", "icon": "\ud83d\udea2"}], "created_at": "2025-06-18T03:04:28.983-04:00", "updated_at": "2025-09-24T18:40:10.725-04:00", "avatar": "https://avatars.slack-edge.com/2025-09-24/9576167511446_c98cf760324340b539fb_original.png", "custom_css": null}, {"id": 8069, "slack_id": "U091YUW5K18", "display_name": "Asif Mehedi Haris", "bio": null, "projects_count": 0, "devlogs_count": 0, "votes_count": 0, "ships_count": 0, "projects": [], "coding_time_seconds": 0, "coding_time_seconds_today": 0, "balance": "You need to have a pocket watcher badge to view this.", "badges": [], "created_at": "2025-06-18T03:05:12.159-04:00", "updated_at": "2025-07-03T19:46:34.630-04:00", "avatar": "https://secure.gravatar.com/avatar/ea1b7fa939a405ab1ca917198ca32e05.jpg?s=512&d=https%3A%2F%2Fa.slack-edge.com%2Fdf10d%2Fimg%2Favatars%2Fava_0015-512.png", "custom_css": null}, {"id": 8070, "slack_id": "U091HSY9CTH", "display_name": "Abhishek Kumar", "bio": null, "projects_count": 0, "devlogs_count": 0, "votes_count": 0, "ships_count": 0, "projects": [], "coding_time_seconds": 122907, "coding_time_seconds_today": 0, "balance": "You need to have a pocket watcher badge to view this.", "badges": [], "created_at": "2025-06-18T03:05:12.181-04:00", "updated_at": "2025-07-04T20:08:35.762-04:00", "avatar": "https://secure.gravatar.com/avatar/bd5c5c5b018d1fb96cbe79cc783e779e.jpg?s=512&d=https%3A%2F%2Fa.slack-edge.com%2Fdf10d%2Fimg%2Favatars%2Fava_0011-512.png", "custom_css": null}, {"id": 8071, "slack_id": "U091SL6LKF0", "display_name": "Zara fathima", "bio": null, "projects_count": 0, "devlogs_count": 0, "votes_count": 0, "ships_count": 0, "projects": [], "coding_time_seconds": 0, "coding_time_seconds_today": 0, "balance": "You need to have a pocket watcher badge to view this.", "badges": [], "created_at": "2025-06-18T03:05:51.862-04:00", "updated_at": "2025-07-03T19:46:35.025-04:00", "avatar": "https://avatars.slack-edge.com/2025-06-18/9060483726931_a4ebaecb17648b26df72_original.png", "custom_css": null}, {"id": 8072, "slack_id": "U091ZCUBT8U", "display_name": "Narendra Rajput", "bio": null, "projects_count": 0, "devlogs_count": 0, "votes_count": 0, "ships_count": 0, "projects": [], "coding_time_seconds": 0, "coding_time_seconds_today": 0, "balance": "You need to have a pocket watcher badge to view this.", "badges": [], "created_at": "2025-06-18T03:06:06.121-04:00", "updated_at": "2025-07-03T19:46:35.304-04:00", "avatar": "https://avatars.slack-edge.com/2025-06-18/9060484415683_875a99784baf0b5f9aa8_original.png", "custom_css": null}, {"id": 8073, "slack_id": "U07TYDZCCPR", "display_name": "Suchit Vemula", "bio": null, "projects_count": 0, "devlogs_count": 0, "votes_count": 0, "ships_count": 0, "projects": [], "coding_time_seconds": 0, "coding_time_seconds_today": 0, "balance": "You need to have a pocket watcher badge to view this.", "badges": [], "created_at": "2025-06-18T03:08:33.298-04:00", "updated_at": "2025-07-04T20:08:35.983-04:00", "avatar": "https://secure.gravatar.com/avatar/2ea4383679614fd36d0981302d493575.jpg?s=512&d=https%3A%2F%2Fa.slack-edge.com%2Fdf10d%2Fimg%2Favatars%2Fava_0012-512.png", "custom_css": null}, {"id": 8074, "slack_id": "U091YVC52TU", "display_name": "Arman Garg", "bio": null, "projects_count": 0, "devlogs_count": 0, "votes_count": 0, "ships_count": 0, "projects": [], "coding_time_seconds": 0, "coding_time_seconds_today": 0, "balance": "You need to have a pocket watcher badge to view this.", "badges": [], "created_at": "2025-06-18T03:09:18.026-04:00", "updated_at": "2025-07-03T19:46:35.804-04:00", "avatar": "https://secure.gravatar.com/avatar/821f40f109c452002e4bf741c2f3030d.jpg?s=512&d=https%3A%2F%2Fa.slack-edge.com%2Fdf10d%2Fimg%2Favatars%2Fava_0011-512.png", "custom_css": null}, {"id": 8075, "slack_id": "U091Z017ER0", "display_name": "Gnaneswar", "bio": null, "projects_count": 0, "devlogs_count": 0, "votes_count": 0, "ships_count": 0, "projects": [], "coding_time_seconds": 0, "coding_time_seconds_today": 0, "balance": "You need to have a pocket watcher badge to view this.", "badges": [], "created_at": "2025-06-18T03:09:38.681-04:00", "updated_at": "2025-07-03T19:46:36.083-04:00", "avatar": "https://secure.gravatar.com/avatar/88038b91069de0545c51a395629c426b.jpg?s=512&d=https%3A%2F%2Fa.slack-edge.com%2Fdf10d%2Fimg%2Favatars%2Fava_0022-512.png", "custom_css": null}, {"id": 8076, "slack_id": "U07EHAJDZFV", "display_name": "ken", "bio": null, "projects_count": 1, "devlogs_count": 12, "votes_count": 26, "ships_count": 1, "projects": [{"id": 3442, "title": "lifehacker", "devlogs_count": 12, "created_at": "2025-06-24T09:10:47.333-04:00"}], "coding_time_seconds": 147237, "coding_time_seconds_today": 0, "balance": "You need to have a pocket watcher badge to view this.", "badges": [{"name": "Maiden Voyage", "text": "you shipped your first project! the journey begins...", "icon": "\ud83d\udea2"}], "created_at": "2025-06-18T03:09:49.148-04:00", "updated_at": "2025-09-10T22:55:10.176-04:00", "avatar": "https://secure.gravatar.com/avatar/344b3c7c5a49dfd2dc00eb0319f4fb74.jpg?s=512&d=https%3A%2F%2Fa.slack-edge.com%2Fdf10d%2Fimg%2Favatars%2Fava_0015-512.png", "custom_css": null}, {"id": 8077, "slack_id": "U092ME7QHQ8", "display_name": "Nikhil Chauhan", "bio": null, "projects_count": 0, "devlogs_count": 0, "votes_count": 0, "ships_count": 0, "projects": [], "coding_time_seconds": 0, "coding_time_seconds_today": 0, "balance": "You need to have a pocket watcher badge to view this.", "badges": [], "created_at": "2025-06-18T03:09:57.089-04:00", "updated_at": "2025-07-03T19:46:36.613-04:00", "avatar": "https://avatars.slack-edge.com/2025-06-18/9089515969184_36ff2763c869a211d8f6_original.jpg", "custom_css": null}, {"id": 8078, "slack_id": "U091YVAPRAN", "display_name": "Leily", "bio": null, "projects_count": 0, "devlogs_count": 0, "votes_count": 0, "ships_count": 0, "projects": [], "coding_time_seconds": 0, "coding_time_seconds_today": 0, "balance": "You need to have a pocket watcher badge to view this.", "badges": [], "created_at": "2025-06-18T03:10:15.331-04:00", "updated_at": "2025-07-03T19:46:36.882-04:00", "avatar": "https://avatars.slack-edge.com/2025-06-18/9065605698245_3d519e36423f7a22045b_original.jpg", "custom_css": null}, {"id": 8079, "slack_id": "U092BHE9Q73", "display_name": "Vatsalya Bhadaurya", "bio": null, "projects_count": 0, "devlogs_count": 0, "votes_count": 0, "ships_count": 0, "projects": [], "coding_time_seconds": 0, "coding_time_seconds_today": 0, "balance": "You need to have a pocket watcher badge to view this.", "badges": [], "created_at": "2025-06-18T03:10:26.985-04:00", "updated_at": "2025-07-03T19:46:37.150-04:00", "avatar": "https://secure.gravatar.com/avatar/1fb16863d96dd03402bb139423dde028.jpg?s=512&d=https%3A%2F%2Fa.slack-edge.com%2Fdf10d%2Fimg%2Favatars%2Fava_0004-512.png", "custom_css": null}, {"id": 8080, "slack_id": "U091HTQHT7Z", "display_name": "CARL JOHNWESLEY CHAVEZ", "bio": null, "projects_count": 0, "devlogs_count": 0, "votes_count": 0, "ships_count": 0, "projects": [], "coding_time_seconds": 0, "coding_time_seconds_today": 0, "balance": "You need to have a pocket watcher badge to view this.", "badges": [], "created_at": "2025-06-18T03:10:53.487-04:00", "updated_at": "2025-07-03T19:46:37.419-04:00", "avatar": "https://avatars.slack-edge.com/2025-06-18/9067483151492_9ff2b9bac4de78d82789_original.jpg", "custom_css": null}], "pagination": {"page": 404, "pages": 1192, "count": 23828, "items": 20}}