{"users": [{"id": 8081, "slack_id": "U091HTN2S95", "display_name": "Denis Bercu", "bio": null, "projects_count": 0, "devlogs_count": 0, "votes_count": 0, "ships_count": 0, "projects": [], "coding_time_seconds": 3996, "coding_time_seconds_today": 0, "balance": "You need to have a pocket watcher badge to view this.", "badges": [], "created_at": "2025-06-18T03:12:00.265-04:00", "updated_at": "2025-07-03T19:46:37.704-04:00", "avatar": "https://secure.gravatar.com/avatar/5694381bd5b4852d7fff5f97acc059e7.jpg?s=512&d=https%3A%2F%2Fa.slack-edge.com%2Fdf10d%2Fimg%2Favatars%2Fava_0000-512.png", "custom_css": null}, {"id": 8082, "slack_id": "U091ZDW1936", "display_name": "Varshini", "bio": null, "projects_count": 0, "devlogs_count": 0, "votes_count": 0, "ships_count": 0, "projects": [], "coding_time_seconds": 0, "coding_time_seconds_today": 0, "balance": "You need to have a pocket watcher badge to view this.", "badges": [], "created_at": "2025-06-18T03:12:39.835-04:00", "updated_at": "2025-07-03T19:46:37.974-04:00", "avatar": "https://secure.gravatar.com/avatar/a130083778996132de9edf11038bb614.jpg?s=512&d=https%3A%2F%2Fa.slack-edge.com%2Fdf10d%2Fimg%2Favatars%2Fava_0016-512.png", "custom_css": null}, {"id": 8083, "slack_id": "U091HE2BN8P", "display_name": "Aditya Srivastav", "bio": null, "projects_count": 0, "devlogs_count": 0, "votes_count": 0, "ships_count": 0, "projects": [], "coding_time_seconds": 33179, "coding_time_seconds_today": 0, "balance": "You need to have a pocket watcher badge to view this.", "badges": [], "created_at": "2025-06-18T03:13:42.923-04:00", "updated_at": "2025-07-03T19:46:38.255-04:00", "avatar": "https://secure.gravatar.com/avatar/47ecb3df45e164ca4f196dbfee6c16ee.jpg?s=512&d=https%3A%2F%2Fa.slack-edge.com%2Fdf10d%2Fimg%2Favatars%2Fava_0016-512.png", "custom_css": null}, {"id": 8084, "slack_id": "U091SE5SL7M", "display_name": "Anton Hristov", "bio": null, "projects_count": 0, "devlogs_count": 0, "votes_count": 0, "ships_count": 0, "projects": [], "coding_time_seconds": 22724, "coding_time_seconds_today": 0, "balance": "You need to have a pocket watcher badge to view this.", "badges": [], "created_at": "2025-06-18T03:15:48.145-04:00", "updated_at": "2025-07-03T19:46:38.537-04:00", "avatar": "https://secure.gravatar.com/avatar/95a0ed5bd365312073c955f4f4b96237.jpg?s=512&d=https%3A%2F%2Fa.slack-edge.com%2Fdf10d%2Fimg%2Favatars%2Fava_0002-512.png", "custom_css": null}, {"id": 8085, "slack_id": "U091SMSRN86", "display_name": "Ignis", "bio": null, "projects_count": 0, "devlogs_count": 0, "votes_count": 0, "ships_count": 0, "projects": [], "coding_time_seconds": 0, "coding_time_seconds_today": 0, "balance": "You need to have a pocket watcher badge to view this.", "badges": [], "created_at": "2025-06-18T03:17:31.676-04:00", "updated_at": "2025-07-03T19:46:38.808-04:00", "avatar": "https://avatars.slack-edge.com/2025-06-18/9060536369011_d8f8e497d8de6b592425_original.jpg", "custom_css": null}, {"id": 8086, "slack_id": "U01CAGQGTMH", "display_name": "CyberFowl", "bio": null, "projects_count": 1, "devlogs_count": 1, "votes_count": 0, "ships_count": 0, "projects": [{"id": 12126, "title": "Daedalus", "devlogs_count": 1, "created_at": "2025-08-23T10:06:42.546-04:00"}], "coding_time_seconds": 47953, "coding_time_seconds_today": 0, "balance": "You need to have a pocket watcher badge to view this.", "badges": [], "created_at": "2025-06-18T03:18:42.651-04:00", "updated_at": "2025-08-23T13:52:14.904-04:00", "avatar": "https://avatars.slack-edge.com/2020-10-09/1424613108996_9248d74c81df6fbce81d_original.png", "custom_css": null}, {"id": 8087, "slack_id": "U078CB5JL3Y", "display_name": "Darshan", "bio": null, "projects_count": 0, "devlogs_count": 0, "votes_count": 0, "ships_count": 0, "projects": [], "coding_time_seconds": 0, "coding_time_seconds_today": 0, "balance": "You need to have a pocket watcher badge to view this.", "badges": [], "created_at": "2025-06-18T03:18:47.851-04:00", "updated_at": "2025-07-03T22:36:35.905-04:00", "avatar": "https://avatars.slack-edge.com/2024-07-17/7438241055443_116067d417b21794e544_original.jpg", "custom_css": null}, {"id": 8088, "slack_id": "U091YATPU74", "display_name": "Andrzej Krakowski", "bio": "My ID looks great for a test http server...", "projects_count": 4, "devlogs_count": 18, "votes_count": 32, "ships_count": 1, "projects": [{"id": 8566, "title": "TreeBase", "devlogs_count": 1, "created_at": "2025-07-28T07:10:20.124-04:00"}, {"id": 11699, "title": "Repetitor", "devlogs_count": 2, "created_at": "2025-08-18T14:23:58.597-04:00"}, {"id": 12221, "title": "CherryMC", "devlogs_count": 3, "created_at": "2025-08-24T12:59:04.424-04:00"}, {"id": 2936, "title": "Lava Chicken", "devlogs_count": 12, "created_at": "2025-06-22T13:56:47.466-04:00"}], "coding_time_seconds": 310881, "coding_time_seconds_today": 0, "balance": "You need to have a pocket watcher badge to view this.", "badges": [{"name": "Maiden Voyage", "text": "you shipped your first project! the journey begins...", "icon": "\ud83d\udea2"}], "created_at": "2025-06-18T03:19:17.184-04:00", "updated_at": "2025-09-10T22:55:10.463-04:00", "avatar": "https://avatars.slack-edge.com/2025-08-20/9379699416933_edec7eaa06944e861993_original.png", "custom_css": null}, {"id": 8089, "slack_id": "U091XK65LUD", "display_name": "Andrian Syah", "bio": null, "projects_count": 0, "devlogs_count": 0, "votes_count": 0, "ships_count": 0, "projects": [], "coding_time_seconds": 20094, "coding_time_seconds_today": 0, "balance": "You need to have a pocket watcher badge to view this.", "badges": [], "created_at": "2025-06-18T03:25:29.541-04:00", "updated_at": "2025-07-05T14:10:10.440-04:00", "avatar": "https://avatars.slack-edge.com/2025-06-18/9067082912562_7099dcd9c5bd20f3761f_original.jpg", "custom_css": null}, {"id": 8090, "slack_id": "U091Z1RBA6N", "display_name": "Germen Liezenga", "bio": null, "projects_count": 0, "devlogs_count": 0, "votes_count": 0, "ships_count": 0, "projects": [], "coding_time_seconds": 0, "coding_time_seconds_today": 0, "balance": "You need to have a pocket watcher badge to view this.", "badges": [], "created_at": "2025-06-18T03:27:09.027-04:00", "updated_at": "2025-07-04T20:08:37.042-04:00", "avatar": "https://secure.gravatar.com/avatar/e3ad96317254b0513fb2bf6b22326a12.jpg?s=512&d=https%3A%2F%2Fa.slack-edge.com%2Fdf10d%2Fimg%2Favatars%2Fava_0016-512.png", "custom_css": null}, {"id": 8091, "slack_id": "U092MGB3U48", "display_name": "Ime", "bio": null, "projects_count": 0, "devlogs_count": 0, "votes_count": 0, "ships_count": 0, "projects": [], "coding_time_seconds": 15312, "coding_time_seconds_today": 0, "balance": "You need to have a pocket watcher badge to view this.", "badges": [], "created_at": "2025-06-18T03:27:53.939-04:00", "updated_at": "2025-07-06T14:08:59.972-04:00", "avatar": "https://avatars.slack-edge.com/2025-06-18/9089595980240_aa4500ba016d3ef4b22b_original.png", "custom_css": null}, {"id": 8092, "slack_id": "U092BMMMR17", "display_name": "Sparsh", "bio": null, "projects_count": 0, "devlogs_count": 0, "votes_count": 0, "ships_count": 0, "projects": [], "coding_time_seconds": 0, "coding_time_seconds_today": 0, "balance": "You need to have a pocket watcher badge to view this.", "badges": [], "created_at": "2025-06-18T03:28:00.280-04:00", "updated_at": "2025-07-03T19:46:40.210-04:00", "avatar": "https://secure.gravatar.com/avatar/db52e340c896ff298a510be3b412e1ad.jpg?s=512&d=https%3A%2F%2Fa.slack-edge.com%2Fdf10d%2Fimg%2Favatars%2Fava_0024-512.png", "custom_css": null}, {"id": 8093, "slack_id": "U091YDJA0N6", "display_name": "vegitator", "bio": null, "projects_count": 0, "devlogs_count": 0, "votes_count": 0, "ships_count": 0, "projects": [], "coding_time_seconds": 0, "coding_time_seconds_today": 0, "balance": "You need to have a pocket watcher badge to view this.", "badges": [], "created_at": "2025-06-18T03:28:09.048-04:00", "updated_at": "2025-07-03T19:46:40.488-04:00", "avatar": "https://secure.gravatar.com/avatar/fb37a411f46d7c81d1e6d20d4a4034b9.jpg?s=512&d=https%3A%2F%2Fa.slack-edge.com%2Fdf10d%2Fimg%2Favatars%2Fava_0014-512.png", "custom_css": null}, {"id": 8094, "slack_id": "U091ZFW0ZEY", "display_name": "Musaddique", "bio": null, "projects_count": 1, "devlogs_count": 1, "votes_count": 0, "ships_count": 0, "projects": [{"id": 3634, "title": "Smart Lunch Voting System", "devlogs_count": 1, "created_at": "2025-06-25T03:48:28.595-04:00"}], "coding_time_seconds": 23154, "coding_time_seconds_today": 0, "balance": "You need to have a pocket watcher badge to view this.", "badges": [], "created_at": "2025-06-18T03:29:17.466-04:00", "updated_at": "2025-07-03T19:46:40.765-04:00", "avatar": "https://secure.gravatar.com/avatar/d8a37b60156ec7594cd58d1c7da02958.jpg?s=512&d=https%3A%2F%2Fa.slack-edge.com%2Fdf10d%2Fimg%2Favatars%2Fava_0001-512.png", "custom_css": null}, {"id": 8095, "slack_id": "U091XKFMW05", "display_name": "jo.sh", "bio": null, "projects_count": 0, "devlogs_count": 0, "votes_count": 0, "ships_count": 0, "projects": [], "coding_time_seconds": 10531, "coding_time_seconds_today": 0, "balance": "You need to have a pocket watcher badge to view this.", "badges": [], "created_at": "2025-06-18T03:30:15.784-04:00", "updated_at": "2025-07-03T19:46:41.035-04:00", "avatar": "https://secure.gravatar.com/avatar/3e11717a23ed07e03d96480069cdd9a9.jpg?s=512&d=https%3A%2F%2Fa.slack-edge.com%2Fdf10d%2Fimg%2Favatars%2Fava_0020-512.png", "custom_css": null}, {"id": 8096, "slack_id": "U091SPNJDU6", "display_name": "Harsha", "bio": null, "projects_count": 0, "devlogs_count": 0, "votes_count": 0, "ships_count": 0, "projects": [], "coding_time_seconds": 1291, "coding_time_seconds_today": 0, "balance": "You need to have a pocket watcher badge to view this.", "badges": [], "created_at": "2025-06-18T03:31:43.701-04:00", "updated_at": "2025-07-03T19:46:41.288-04:00", "avatar": "https://secure.gravatar.com/avatar/cf5aaf70fe854fc9501f1d684b0d95c6.jpg?s=512&d=https%3A%2F%2Fa.slack-edge.com%2Fdf10d%2Fimg%2Favatars%2Fava_0017-512.png", "custom_css": null}, {"id": 8097, "slack_id": "U07AMN4R481", "display_name": "tizinia", "bio": null, "projects_count": 3, "devlogs_count": 3, "votes_count": 1, "ships_count": 1, "projects": [{"id": 2470, "title": "defaultbox.xyz (personal website)", "devlogs_count": 1, "created_at": "2025-06-21T04:51:58.996-04:00"}, {"id": 4178, "title": "Makeshift Files", "devlogs_count": 1, "created_at": "2025-06-28T03:32:42.952-04:00"}, {"id": 6408, "title": "Vocainfo for spotify", "devlogs_count": 1, "created_at": "2025-07-13T04:38:50.959-04:00"}], "coding_time_seconds": 33129, "coding_time_seconds_today": 0, "balance": "You need to have a pocket watcher badge to view this.", "badges": [{"name": "Maiden Voyage", "text": "you shipped your first project! the journey begins...", "icon": "\ud83d\udea2"}], "created_at": "2025-06-18T03:33:09.800-04:00", "updated_at": "2025-09-10T22:55:10.700-04:00", "avatar": "https://avatars.slack-edge.com/2024-09-30/7797682506150_8333aecd927ffaee1dd8_original.png", "custom_css": null}, {"id": 8098, "slack_id": "U092H22RML0", "display_name": "c4vxl Manage", "bio": null, "projects_count": 0, "devlogs_count": 0, "votes_count": 0, "ships_count": 0, "projects": [], "coding_time_seconds": 0, "coding_time_seconds_today": 0, "balance": "You need to have a pocket watcher badge to view this.", "badges": [], "created_at": "2025-06-18T03:33:26.763-04:00", "updated_at": "2025-07-03T19:46:41.817-04:00", "avatar": "https://avatars.slack-edge.com/2025-06-18/9067585482468_746070a887eb1a28f8c9_original.png", "custom_css": null}, {"id": 8099, "slack_id": "U091XLDMCQM", "display_name": "glitched", "bio": null, "projects_count": 0, "devlogs_count": 0, "votes_count": 0, "ships_count": 0, "projects": [], "coding_time_seconds": 0, "coding_time_seconds_today": 0, "balance": "You need to have a pocket watcher badge to view this.", "badges": [], "created_at": "2025-06-18T03:34:30.930-04:00", "updated_at": "2025-09-24T18:40:17.298-04:00", "avatar": "https://avatars.slack-edge.com/2025-09-24/9576181739186_37bfa66a8f90aa66a374_original.jpg", "custom_css": null}, {"id": 8100, "slack_id": "U092MJ1BHDW", "display_name": "fabxdev", "bio": null, "projects_count": 0, "devlogs_count": 0, "votes_count": 0, "ships_count": 0, "projects": [], "coding_time_seconds": 0, "coding_time_seconds_today": 0, "balance": "You need to have a pocket watcher badge to view this.", "badges": [], "created_at": "2025-06-18T03:35:24.708-04:00", "updated_at": "2025-07-03T19:46:42.347-04:00", "avatar": "https://secure.gravatar.com/avatar/4de6b591c4999f26778574c7ed00b04b.jpg?s=512&d=https%3A%2F%2Fa.slack-edge.com%2Fdf10d%2Fimg%2Favatars%2Fava_0026-512.png", "custom_css": null}], "pagination": {"page": 405, "pages": 1192, "count": 23828, "items": 20}}