{"users": [{"id": 8101, "slack_id": "U091Z3Q31S6", "display_name": "Osama Azab", "bio": null, "projects_count": 0, "devlogs_count": 0, "votes_count": 0, "ships_count": 0, "projects": [], "coding_time_seconds": 0, "coding_time_seconds_today": 0, "balance": "You need to have a pocket watcher badge to view this.", "badges": [], "created_at": "2025-06-18T03:37:11.581-04:00", "updated_at": "2025-07-03T19:46:42.611-04:00", "avatar": "https://secure.gravatar.com/avatar/5824341905eee69b8c3ca604d59f83dc.jpg?s=512&d=https%3A%2F%2Fa.slack-edge.com%2Fdf10d%2Fimg%2Favatars%2Fava_0021-512.png", "custom_css": null}, {"id": 8102, "slack_id": "U092MJNRN1E", "display_name": "zawadi", "bio": null, "projects_count": 0, "devlogs_count": 0, "votes_count": 0, "ships_count": 0, "projects": [], "coding_time_seconds": 0, "coding_time_seconds_today": 0, "balance": "You need to have a pocket watcher badge to view this.", "badges": [], "created_at": "2025-06-18T03:39:53.449-04:00", "updated_at": "2025-07-04T08:23:49.204-04:00", "avatar": "https://secure.gravatar.com/avatar/0eba92fe33f3b888720ee078ffe444b0.jpg?s=512&d=https%3A%2F%2Fa.slack-edge.com%2Fdf10d%2Fimg%2Favatars%2Fava_0002-512.png", "custom_css": null}, {"id": 8103, "slack_id": "U091ZHEJR7E", "display_name": "mota genda", "bio": null, "projects_count": 0, "devlogs_count": 0, "votes_count": 0, "ships_count": 0, "projects": [], "coding_time_seconds": 0, "coding_time_seconds_today": 0, "balance": "You need to have a pocket watcher badge to view this.", "badges": [], "created_at": "2025-06-18T03:39:53.926-04:00", "updated_at": "2025-07-03T19:46:43.007-04:00", "avatar": "https://avatars.slack-edge.com/2025-06-18/9089653688656_ef927acb9848e541ec63_original.png", "custom_css": null}, {"id": 8104, "slack_id": "U092BPHHETB", "display_name": "Gunawan", "bio": null, "projects_count": 0, "devlogs_count": 0, "votes_count": 0, "ships_count": 0, "projects": [], "coding_time_seconds": 0, "coding_time_seconds_today": 0, "balance": "You need to have a pocket watcher badge to view this.", "badges": [], "created_at": "2025-06-18T03:39:56.228-04:00", "updated_at": "2025-07-03T19:46:43.304-04:00", "avatar": "https://avatars.slack-edge.com/2025-06-18/9060865037398_44206e2492b54fbbfd36_original.png", "custom_css": null}, {"id": 8105, "slack_id": "U091J2DHUNT", "display_name": "Sabbir Ahmed", "bio": null, "projects_count": 0, "devlogs_count": 0, "votes_count": 0, "ships_count": 0, "projects": [], "coding_time_seconds": 0, "coding_time_seconds_today": 0, "balance": "You need to have a pocket watcher badge to view this.", "badges": [], "created_at": "2025-06-18T03:40:33.585-04:00", "updated_at": "2025-07-03T21:46:10.810-04:00", "avatar": "https://secure.gravatar.com/avatar/088b17c6b72bf630cc079aa3c5ae5c7a.jpg?s=512&d=https%3A%2F%2Fa.slack-edge.com%2Fdf10d%2Fimg%2Favatars%2Fava_0004-512.png", "custom_css": null}, {"id": 8106, "slack_id": "U091XM667HT", "display_name": "Siddharth P", "bio": null, "projects_count": 0, "devlogs_count": 0, "votes_count": 0, "ships_count": 0, "projects": [], "coding_time_seconds": 0, "coding_time_seconds_today": 0, "balance": "You need to have a pocket watcher badge to view this.", "badges": [], "created_at": "2025-06-18T03:41:16.220-04:00", "updated_at": "2025-07-05T14:10:11.590-04:00", "avatar": "https://avatars.slack-edge.com/2025-06-18/9079819351009_30dedb82b20c723c6fc2_original.jpg", "custom_css": null}, {"id": 8107, "slack_id": "U091Z3TF198", "display_name": "Dng1la", "bio": null, "projects_count": 0, "devlogs_count": 0, "votes_count": 0, "ships_count": 0, "projects": [], "coding_time_seconds": 0, "coding_time_seconds_today": 0, "balance": "You need to have a pocket watcher badge to view this.", "badges": [], "created_at": "2025-06-18T03:43:18.572-04:00", "updated_at": "2025-07-03T19:46:43.834-04:00", "avatar": "https://secure.gravatar.com/avatar/f189f4613f3fddd8ee570ee76cf6246d.jpg?s=512&d=https%3A%2F%2Fa.slack-edge.com%2Fdf10d%2Fimg%2Favatars%2Fava_0015-512.png", "custom_css": null}, {"id": 8108, "slack_id": "U091Z4C2FM0", "display_name": "Wasee", "bio": null, "projects_count": 0, "devlogs_count": 0, "votes_count": 0, "ships_count": 0, "projects": [], "coding_time_seconds": 112, "coding_time_seconds_today": 0, "balance": "You need to have a pocket watcher badge to view this.", "badges": [], "created_at": "2025-06-18T03:44:04.104-04:00", "updated_at": "2025-07-03T19:46:44.106-04:00", "avatar": "https://secure.gravatar.com/avatar/bb3687f7986132044d85e8a2834fb5e3.jpg?s=512&d=https%3A%2F%2Fa.slack-edge.com%2Fdf10d%2Fimg%2Favatars%2Fava_0014-512.png", "custom_css": null}, {"id": 8109, "slack_id": "U091SRP1AH4", "display_name": "Jack Ryan", "bio": null, "projects_count": 0, "devlogs_count": 0, "votes_count": 0, "ships_count": 0, "projects": [], "coding_time_seconds": 0, "coding_time_seconds_today": 0, "balance": "You need to have a pocket watcher badge to view this.", "badges": [], "created_at": "2025-06-18T03:45:44.713-04:00", "updated_at": "2025-07-03T19:46:44.390-04:00", "avatar": "https://secure.gravatar.com/avatar/fb43f56867cbf66d6d514c47100b055a.jpg?s=512&d=https%3A%2F%2Fa.slack-edge.com%2Fdf10d%2Fimg%2Favatars%2Fava_0005-512.png", "custom_css": null}, {"id": 8110, "slack_id": "U091J34F4K1", "display_name": "Arjun", "bio": null, "projects_count": 0, "devlogs_count": 0, "votes_count": 0, "ships_count": 0, "projects": [], "coding_time_seconds": 120169, "coding_time_seconds_today": 0, "balance": "You need to have a pocket watcher badge to view this.", "badges": [], "created_at": "2025-06-18T03:46:31.748-04:00", "updated_at": "2025-07-03T19:46:44.656-04:00", "avatar": "https://secure.gravatar.com/avatar/bd2d2ed32f71972bc7e51781f6bf6277.jpg?s=512&d=https%3A%2F%2Fa.slack-edge.com%2Fdf10d%2Fimg%2Favatars%2Fava_0000-512.png", "custom_css": null}, {"id": 8111, "slack_id": "U091XMZ2AHK", "display_name": "Rajkumar Bhakta", "bio": null, "projects_count": 0, "devlogs_count": 0, "votes_count": 0, "ships_count": 0, "projects": [], "coding_time_seconds": 0, "coding_time_seconds_today": 0, "balance": "You need to have a pocket watcher badge to view this.", "badges": [], "created_at": "2025-06-18T03:47:12.738-04:00", "updated_at": "2025-07-03T19:46:44.927-04:00", "avatar": "https://secure.gravatar.com/avatar/10eb75b59754787f2c92ed83d2e22b56.jpg?s=512&d=https%3A%2F%2Fa.slack-edge.com%2Fdf10d%2Fimg%2Favatars%2Fava_0000-512.png", "custom_css": null}, {"id": 8112, "slack_id": "U091J37LCG7", "display_name": "Maulik Daga", "bio": null, "projects_count": 0, "devlogs_count": 22, "votes_count": 20, "ships_count": 0, "projects": [], "coding_time_seconds": 145059, "coding_time_seconds_today": 0, "balance": "You need to have a pocket watcher badge to view this.", "badges": [{"name": "Maiden Voyage", "text": "you shipped your first project! the journey begins...", "icon": "\ud83d\udea2"}, {"name": "Ballot Stuffer", "text": "vote 100 times.", "icon": "https://summer.hackclub.com/assets/i_voted-bf851b48.png"}], "created_at": "2025-06-18T03:47:42.461-04:00", "updated_at": "2025-09-10T22:55:11.051-04:00", "avatar": "https://secure.gravatar.com/avatar/60136db4cedb818a729d22bd58be0208.jpg?s=512&d=https%3A%2F%2Fa.slack-edge.com%2Fdf10d%2Fimg%2Favatars%2Fava_0001-512.png", "custom_css": null}, {"id": 8113, "slack_id": "U091SKFNKMH", "display_name": "Luai Al-Harazi", "bio": null, "projects_count": 0, "devlogs_count": 0, "votes_count": 0, "ships_count": 0, "projects": [], "coding_time_seconds": 2982, "coding_time_seconds_today": 0, "balance": "You need to have a pocket watcher badge to view this.", "badges": [], "created_at": "2025-06-18T03:48:30.769-04:00", "updated_at": "2025-07-03T21:46:11.376-04:00", "avatar": "https://secure.gravatar.com/avatar/f9167e1b310aea001f2a86c49a90e44a.jpg?s=512&d=https%3A%2F%2Fa.slack-edge.com%2Fdf10d%2Fimg%2Favatars%2Fava_0013-512.png", "custom_css": null}, {"id": 8114, "slack_id": "U091Z55R4RY", "display_name": "Ryunaja", "bio": null, "projects_count": 2, "devlogs_count": 0, "votes_count": 2, "ships_count": 0, "projects": [{"id": 5927, "title": "Sphalerite", "devlogs_count": 0, "created_at": "2025-07-09T06:59:50.036-04:00"}, {"id": 12468, "title": "formulistic1", "devlogs_count": 0, "created_at": "2025-08-28T02:30:09.651-04:00"}], "coding_time_seconds": 86071, "coding_time_seconds_today": 0, "balance": "You need to have a pocket watcher badge to view this.", "badges": [], "created_at": "2025-06-18T03:49:03.302-04:00", "updated_at": "2025-07-03T19:46:45.464-04:00", "avatar": "https://secure.gravatar.com/avatar/d64b9b91bfe3c9b6dc3bc9d74f78b7c9.jpg?s=512&d=https%3A%2F%2Fa.slack-edge.com%2Fdf10d%2Fimg%2Favatars%2Fava_0008-512.png", "custom_css": null}, {"id": 8115, "slack_id": "U091Z4VU1J6", "display_name": "Igorchunk", "bio": null, "projects_count": 0, "devlogs_count": 0, "votes_count": 0, "ships_count": 0, "projects": [], "coding_time_seconds": 0, "coding_time_seconds_today": 0, "balance": "You need to have a pocket watcher badge to view this.", "badges": [], "created_at": "2025-06-18T03:49:21.461-04:00", "updated_at": "2025-07-03T19:46:45.736-04:00", "avatar": "https://secure.gravatar.com/avatar/3f138117c692032d3d49016b4a262061.jpg?s=512&d=https%3A%2F%2Fa.slack-edge.com%2Fdf10d%2Fimg%2Favatars%2Fava_0005-512.png", "custom_css": null}, {"id": 8116, "slack_id": "U091Z47USRG", "display_name": "Oliver Hoffman", "bio": null, "projects_count": 1, "devlogs_count": 0, "votes_count": 0, "ships_count": 0, "projects": [{"id": 1568, "title": "ZenTrade", "devlogs_count": 0, "created_at": "2025-06-18T18:59:53.619-04:00"}], "coding_time_seconds": 48183, "coding_time_seconds_today": 0, "balance": "You need to have a pocket watcher badge to view this.", "badges": [], "created_at": "2025-06-18T03:50:10.393-04:00", "updated_at": "2025-07-03T19:46:45.998-04:00", "avatar": "https://secure.gravatar.com/avatar/26c8128c1d63595bcc80679430d51ff9.jpg?s=512&d=https%3A%2F%2Fa.slack-edge.com%2Fdf10d%2Fimg%2Favatars%2Fava_0008-512.png", "custom_css": null}, {"id": 8117, "slack_id": "U092ML9NW56", "display_name": "Rajith Bhargav Sankara", "bio": null, "projects_count": 0, "devlogs_count": 0, "votes_count": 0, "ships_count": 0, "projects": [], "coding_time_seconds": 0, "coding_time_seconds_today": 0, "balance": "You need to have a pocket watcher badge to view this.", "badges": [], "created_at": "2025-06-18T03:51:20.811-04:00", "updated_at": "2025-07-03T21:46:11.698-04:00", "avatar": "https://avatars.slack-edge.com/2025-06-18/9067665007764_d54aa3e3927d5279ecd2_original.jpg", "custom_css": null}, {"id": 8118, "slack_id": "U091XNQLUA1", "display_name": "Mohit Raj Sinha", "bio": null, "projects_count": 0, "devlogs_count": 0, "votes_count": 0, "ships_count": 0, "projects": [], "coding_time_seconds": 0, "coding_time_seconds_today": 0, "balance": "You need to have a pocket watcher badge to view this.", "badges": [], "created_at": "2025-06-18T03:51:29.094-04:00", "updated_at": "2025-07-03T21:46:11.801-04:00", "avatar": "https://secure.gravatar.com/avatar/e0208232478e5b9e6e610359a63bff37.jpg?s=512&d=https%3A%2F%2Fa.slack-edge.com%2Fdf10d%2Fimg%2Favatars%2Fava_0023-512.png", "custom_css": null}, {"id": 8119, "slack_id": "U091YU0SRPU", "display_name": "Ryan Freeman", "bio": null, "projects_count": 0, "devlogs_count": 0, "votes_count": 0, "ships_count": 0, "projects": [], "coding_time_seconds": 0, "coding_time_seconds_today": 0, "balance": "You need to have a pocket watcher badge to view this.", "badges": [], "created_at": "2025-06-18T03:51:55.725-04:00", "updated_at": "2025-07-03T19:46:46.560-04:00", "avatar": "https://avatars.slack-edge.com/2025-06-18/9065788534485_8009e89e046ef736387e_original.png", "custom_css": null}, {"id": 8120, "slack_id": "U091XNR5Q4D", "display_name": "Alonge Adetomiwa", "bio": null, "projects_count": 0, "devlogs_count": 0, "votes_count": 0, "ships_count": 0, "projects": [], "coding_time_seconds": 0, "coding_time_seconds_today": 0, "balance": "You need to have a pocket watcher badge to view this.", "badges": [], "created_at": "2025-06-18T03:52:53.273-04:00", "updated_at": "2025-07-03T19:46:46.832-04:00", "avatar": "https://secure.gravatar.com/avatar/49ff049ee9e8bd6258f75bfe1e98d52c.jpg?s=512&d=https%3A%2F%2Fa.slack-edge.com%2Fdf10d%2Fimg%2Favatars%2Fava_0019-512.png", "custom_css": null}], "pagination": {"page": 406, "pages": 1192, "count": 23828, "items": 20}}