{"users": [{"id": 8121, "slack_id": "U091ZKCTQ9J", "display_name": "Tai.Ha", "bio": null, "projects_count": 0, "devlogs_count": 0, "votes_count": 0, "ships_count": 0, "projects": [], "coding_time_seconds": 0, "coding_time_seconds_today": 0, "balance": "You need to have a pocket watcher badge to view this.", "badges": [], "created_at": "2025-06-18T03:54:08.556-04:00", "updated_at": "2025-07-03T19:46:47.156-04:00", "avatar": "https://secure.gravatar.com/avatar/3d39099b287a8ce078022c596b8ebcea.jpg?s=512&d=https%3A%2F%2Fa.slack-edge.com%2Fdf10d%2Fimg%2Favatars%2Fava_0024-512.png", "custom_css": null}, {"id": 8122, "slack_id": "U078Y1PPU2V", "display_name": "Johann", "bio": null, "projects_count": 0, "devlogs_count": 0, "votes_count": 0, "ships_count": 0, "projects": [], "coding_time_seconds": 0, "coding_time_seconds_today": 0, "balance": "You need to have a pocket watcher badge to view this.", "badges": [], "created_at": "2025-06-18T03:54:29.337-04:00", "updated_at": "2025-07-03T19:46:47.415-04:00", "avatar": "https://avatars.slack-edge.com/2025-03-26/8661209528035_138e1c433f6f3a0fcb69_original.jpg", "custom_css": null}, {"id": 8123, "slack_id": "U092MLRQH0Q", "display_name": "Hardik Garg", "bio": null, "projects_count": 0, "devlogs_count": 0, "votes_count": 0, "ships_count": 0, "projects": [], "coding_time_seconds": 826, "coding_time_seconds_today": 0, "balance": "You need to have a pocket watcher badge to view this.", "badges": [], "created_at": "2025-06-18T03:54:53.924-04:00", "updated_at": "2025-07-03T21:46:12.197-04:00", "avatar": "https://secure.gravatar.com/avatar/65e71d31f0d8797357cb3365926b5f29.jpg?s=512&d=https%3A%2F%2Fa.slack-edge.com%2Fdf10d%2Fimg%2Favatars%2Fava_0020-512.png", "custom_css": null}, {"id": 8124, "slack_id": "U091Z5VTCQ2", "display_name": "Ashutosh Khanal Upadhyay", "bio": null, "projects_count": 0, "devlogs_count": 0, "votes_count": 0, "ships_count": 0, "projects": [], "coding_time_seconds": 0, "coding_time_seconds_today": 0, "balance": "You need to have a pocket watcher badge to view this.", "badges": [], "created_at": "2025-06-18T03:54:56.552-04:00", "updated_at": "2025-07-03T19:46:47.841-04:00", "avatar": "https://avatars.slack-edge.com/2025-06-18/9067214685506_9eeac8caa3df4a331474_original.jpg", "custom_css": null}, {"id": 8125, "slack_id": "U091ZJUR30C", "display_name": "Tam\u00e1s", "bio": null, "projects_count": 2, "devlogs_count": 10, "votes_count": 0, "ships_count": 0, "projects": [{"id": 2978, "title": "RakNetAgain", "devlogs_count": 9, "created_at": "2025-06-22T16:13:28.994-04:00"}, {"id": 4131, "title": "BedNet", "devlogs_count": 1, "created_at": "2025-06-27T16:46:42.368-04:00"}], "coding_time_seconds": 221289, "coding_time_seconds_today": 0, "balance": "You need to have a pocket watcher badge to view this.", "badges": [], "created_at": "2025-06-18T03:55:43.637-04:00", "updated_at": "2025-07-03T19:46:48.109-04:00", "avatar": "https://avatars.slack-edge.com/2025-06-28/9120488858164_5062df8466a55b842a2c_original.png", "custom_css": null}, {"id": 8126, "slack_id": "U091Z3M7YRY", "display_name": "franco francis", "bio": null, "projects_count": 1, "devlogs_count": 0, "votes_count": 0, "ships_count": 0, "projects": [{"id": 3740, "title": "Trust Vendor", "devlogs_count": 0, "created_at": "2025-06-25T13:13:34.906-04:00"}], "coding_time_seconds": 250, "coding_time_seconds_today": 0, "balance": "You need to have a pocket watcher badge to view this.", "badges": [], "created_at": "2025-06-18T03:56:20.542-04:00", "updated_at": "2025-07-03T19:46:48.376-04:00", "avatar": "https://avatars.slack-edge.com/2025-06-26/9102208218067_233e7cc4cbaf7f45d772_original.png", "custom_css": null}, {"id": 8127, "slack_id": "U091ZKWNEQL", "display_name": "Rakibul Hasan", "bio": null, "projects_count": 0, "devlogs_count": 0, "votes_count": 0, "ships_count": 0, "projects": [], "coding_time_seconds": 0, "coding_time_seconds_today": 0, "balance": "You need to have a pocket watcher badge to view this.", "badges": [], "created_at": "2025-06-18T03:56:39.210-04:00", "updated_at": "2025-07-03T19:46:48.634-04:00", "avatar": "https://secure.gravatar.com/avatar/2556dc470d5e7b5cd235636e674d230f.jpg?s=512&d=https%3A%2F%2Fa.slack-edge.com%2Fdf10d%2Fimg%2Favatars%2Fava_0005-512.png", "custom_css": null}, {"id": 8128, "slack_id": "U092MMDJGL8", "display_name": "noiseless", "bio": null, "projects_count": 0, "devlogs_count": 0, "votes_count": 0, "ships_count": 0, "projects": [], "coding_time_seconds": 222144, "coding_time_seconds_today": 0, "balance": "You need to have a pocket watcher badge to view this.", "badges": [], "created_at": "2025-06-18T04:00:28.348-04:00", "updated_at": "2025-07-03T19:46:48.892-04:00", "avatar": "https://avatars.slack-edge.com/2025-06-18/9061728612371_eb2368e99559751ce9f1_original.png", "custom_css": null}, {"id": 8129, "slack_id": "U091Z6K9VJ6", "display_name": "Esther Assena", "bio": null, "projects_count": 0, "devlogs_count": 0, "votes_count": 0, "ships_count": 0, "projects": [], "coding_time_seconds": 0, "coding_time_seconds_today": 0, "balance": "You need to have a pocket watcher badge to view this.", "badges": [], "created_at": "2025-06-18T04:01:28.028-04:00", "updated_at": "2025-07-03T21:58:08.793-04:00", "avatar": "https://secure.gravatar.com/avatar/7cc477edc437f842b1d1276581c80421.jpg?s=512&d=https%3A%2F%2Fa.slack-edge.com%2Fdf10d%2Fimg%2Favatars%2Fava_0008-512.png", "custom_css": null}, {"id": 8130, "slack_id": "U091Z6DEFDY", "display_name": "teja", "bio": null, "projects_count": 0, "devlogs_count": 0, "votes_count": 0, "ships_count": 0, "projects": [], "coding_time_seconds": 0, "coding_time_seconds_today": 0, "balance": "You need to have a pocket watcher badge to view this.", "badges": [], "created_at": "2025-06-18T04:02:24.384-04:00", "updated_at": "2025-07-03T19:46:49.329-04:00", "avatar": "https://secure.gravatar.com/avatar/453c7cbd9550a76ff6b9bc130fdb5785.jpg?s=512&d=https%3A%2F%2Fa.slack-edge.com%2Fdf10d%2Fimg%2Favatars%2Fava_0020-512.png", "custom_css": null}, {"id": 8131, "slack_id": "U091J5HB0Q7", "display_name": "Megh Jawale", "bio": null, "projects_count": 0, "devlogs_count": 0, "votes_count": 0, "ships_count": 0, "projects": [], "coding_time_seconds": 0, "coding_time_seconds_today": 0, "balance": "You need to have a pocket watcher badge to view this.", "badges": [], "created_at": "2025-06-18T04:03:42.798-04:00", "updated_at": "2025-07-03T19:46:49.587-04:00", "avatar": "https://secure.gravatar.com/avatar/9b547263e6a96c9a438b75c1f6c52c45.jpg?s=512&d=https%3A%2F%2Fa.slack-edge.com%2Fdf10d%2Fimg%2Favatars%2Fava_0009-512.png", "custom_css": null}, {"id": 8132, "slack_id": "U089LP4FT51", "display_name": "Hacker", "bio": null, "projects_count": 1, "devlogs_count": 1, "votes_count": 0, "ships_count": 0, "projects": [{"id": 10386, "title": "Face Blur and Emojis on face using Computer Vision", "devlogs_count": 1, "created_at": "2025-08-06T13:53:09.883-04:00"}], "coding_time_seconds": 23013, "coding_time_seconds_today": 0, "balance": "You need to have a pocket watcher badge to view this.", "badges": [], "created_at": "2025-06-18T04:04:18.577-04:00", "updated_at": "2025-08-06T13:48:43.430-04:00", "avatar": "https://avatars.slack-edge.com/2025-02-04/8398284487426_330476078055375ee6de_original.jpg", "custom_css": null}, {"id": 8133, "slack_id": "U091SN7M3J7", "display_name": "Jesvanth Sabarish V K", "bio": null, "projects_count": 0, "devlogs_count": 0, "votes_count": 0, "ships_count": 0, "projects": [], "coding_time_seconds": 9116, "coding_time_seconds_today": 0, "balance": "You need to have a pocket watcher badge to view this.", "badges": [], "created_at": "2025-06-18T04:04:28.096-04:00", "updated_at": "2025-07-03T19:46:50.119-04:00", "avatar": "https://secure.gravatar.com/avatar/0d5cbbdd4d86628db9538e0ee04459dc.jpg?s=512&d=https%3A%2F%2Fa.slack-edge.com%2Fdf10d%2Fimg%2Favatars%2Fava_0013-512.png", "custom_css": null}, {"id": 8134, "slack_id": "U092BT40L3B", "display_name": "Tristan Irani", "bio": null, "projects_count": 0, "devlogs_count": 0, "votes_count": 0, "ships_count": 0, "projects": [], "coding_time_seconds": 0, "coding_time_seconds_today": 0, "balance": "You need to have a pocket watcher badge to view this.", "badges": [], "created_at": "2025-06-18T04:04:33.171-04:00", "updated_at": "2025-07-03T19:46:50.408-04:00", "avatar": "https://secure.gravatar.com/avatar/d8f44da304414c44a9794bca5cd28cf3.jpg?s=512&d=https%3A%2F%2Fa.slack-edge.com%2Fdf10d%2Fimg%2Favatars%2Fava_0025-512.png", "custom_css": null}, {"id": 8135, "slack_id": "U091XQSTLRK", "display_name": "vkouvelis", "bio": null, "projects_count": 0, "devlogs_count": 0, "votes_count": 0, "ships_count": 0, "projects": [], "coding_time_seconds": 0, "coding_time_seconds_today": 0, "balance": "You need to have a pocket watcher badge to view this.", "badges": [], "created_at": "2025-06-18T04:04:48.894-04:00", "updated_at": "2025-07-03T19:46:50.681-04:00", "avatar": "https://secure.gravatar.com/avatar/a28bb2949c5111aaebed2405ef6f27d8.jpg?s=512&d=https%3A%2F%2Fa.slack-edge.com%2Fdf10d%2Fimg%2Favatars%2Fava_0025-512.png", "custom_css": null}, {"id": 8136, "slack_id": "U091J6F1P1D", "display_name": "Khush Patel", "bio": null, "projects_count": 0, "devlogs_count": 0, "votes_count": 0, "ships_count": 0, "projects": [], "coding_time_seconds": 0, "coding_time_seconds_today": 0, "balance": "You need to have a pocket watcher badge to view this.", "badges": [], "created_at": "2025-06-18T04:05:24.329-04:00", "updated_at": "2025-07-03T19:46:50.974-04:00", "avatar": "https://secure.gravatar.com/avatar/8aa23041fceb71a5259b316a1512d13c.jpg?s=512&d=https%3A%2F%2Fa.slack-edge.com%2Fdf10d%2Fimg%2Favatars%2Fava_0023-512.png", "custom_css": null}, {"id": 8137, "slack_id": "U091J66JZK9", "display_name": "MostafijurJ", "bio": null, "projects_count": 0, "devlogs_count": 0, "votes_count": 0, "ships_count": 0, "projects": [], "coding_time_seconds": 0, "coding_time_seconds_today": 0, "balance": "You need to have a pocket watcher badge to view this.", "badges": [], "created_at": "2025-06-18T04:06:40.835-04:00", "updated_at": "2025-07-03T19:46:51.246-04:00", "avatar": "https://secure.gravatar.com/avatar/e1df91cd7789d21d542ab2a9521154df.jpg?s=512&d=https%3A%2F%2Fa.slack-edge.com%2Fdf10d%2Fimg%2Favatars%2Fava_0004-512.png", "custom_css": null}, {"id": 8138, "slack_id": "U091XR601FF", "display_name": "ujwala", "bio": null, "projects_count": 0, "devlogs_count": 0, "votes_count": 0, "ships_count": 0, "projects": [], "coding_time_seconds": 53541, "coding_time_seconds_today": 0, "balance": "You need to have a pocket watcher badge to view this.", "badges": [], "created_at": "2025-06-18T04:06:45.901-04:00", "updated_at": "2025-07-03T19:46:51.515-04:00", "avatar": "https://secure.gravatar.com/avatar/2d761e653c07d9d360c2dd3300d5ad96.jpg?s=512&d=https%3A%2F%2Fa.slack-edge.com%2Fdf10d%2Fimg%2Favatars%2Fava_0013-512.png", "custom_css": null}, {"id": 8139, "slack_id": "U092MP1KB32", "display_name": "Mallek GHASSEN", "bio": null, "projects_count": 0, "devlogs_count": 0, "votes_count": 0, "ships_count": 0, "projects": [], "coding_time_seconds": 0, "coding_time_seconds_today": 0, "balance": "You need to have a pocket watcher badge to view this.", "badges": [], "created_at": "2025-06-18T04:08:58.479-04:00", "updated_at": "2025-07-03T19:46:51.783-04:00", "avatar": "https://avatars.slack-edge.com/2025-06-18/9067755291956_23029fe64439a3c8ff69_original.jpg", "custom_css": null}, {"id": 8140, "slack_id": "U092MNGS47J", "display_name": "dronzer", "bio": null, "projects_count": 0, "devlogs_count": 0, "votes_count": 0, "ships_count": 0, "projects": [], "coding_time_seconds": 0, "coding_time_seconds_today": 0, "balance": "You need to have a pocket watcher badge to view this.", "badges": [], "created_at": "2025-06-18T04:10:09.483-04:00", "updated_at": "2025-07-03T21:58:09.626-04:00", "avatar": "https://secure.gravatar.com/avatar/150e2e54fb933187b71110052be2ecc5.jpg?s=512&d=https%3A%2F%2Fa.slack-edge.com%2Fdf10d%2Fimg%2Favatars%2Fava_0010-512.png", "custom_css": null}], "pagination": {"page": 407, "pages": 1192, "count": 23828, "items": 20}}