{"users": [{"id": 8141, "slack_id": "U092BSDJ5Q9", "display_name": "apcodesphere", "bio": null, "projects_count": 0, "devlogs_count": 0, "votes_count": 0, "ships_count": 0, "projects": [], "coding_time_seconds": 0, "coding_time_seconds_today": 0, "balance": "You need to have a pocket watcher badge to view this.", "badges": [], "created_at": "2025-06-18T04:10:30.342-04:00", "updated_at": "2025-07-04T02:27:34.131-04:00", "avatar": "https://secure.gravatar.com/avatar/7fd1e71068496f8cfb23a6f131505fa8.jpg?s=512&d=https%3A%2F%2Fa.slack-edge.com%2Fdf10d%2Fimg%2Favatars%2Fava_0011-512.png", "custom_css": null}, {"id": 8142, "slack_id": "U091Z8GCA0J", "display_name": "Muhammet Onur Kuk", "bio": null, "projects_count": 0, "devlogs_count": 0, "votes_count": 0, "ships_count": 0, "projects": [], "coding_time_seconds": 0, "coding_time_seconds_today": 0, "balance": "You need to have a pocket watcher badge to view this.", "badges": [], "created_at": "2025-06-18T04:12:16.391-04:00", "updated_at": "2025-07-07T02:10:17.776-04:00", "avatar": "https://secure.gravatar.com/avatar/d4c0fe44647b8ca5105db9ec3260119c.jpg?s=512&d=https%3A%2F%2Fa.slack-edge.com%2Fdf10d%2Fimg%2Favatars%2Fava_0004-512.png", "custom_css": null}, {"id": 8143, "slack_id": "U091J7AKH1D", "display_name": "Mounesh", "bio": null, "projects_count": 0, "devlogs_count": 0, "votes_count": 0, "ships_count": 0, "projects": [], "coding_time_seconds": 0, "coding_time_seconds_today": 0, "balance": "You need to have a pocket watcher badge to view this.", "badges": [], "created_at": "2025-06-18T04:12:21.399-04:00", "updated_at": "2025-07-03T19:46:52.466-04:00", "avatar": "https://secure.gravatar.com/avatar/e3438fe5fbb6ee4afb0a39fe23e7eb9c.jpg?s=512&d=https%3A%2F%2Fa.slack-edge.com%2Fdf10d%2Fimg%2Favatars%2Fava_0008-512.png", "custom_css": null}, {"id": 8144, "slack_id": "U091SPGA5M1", "display_name": "Faiz", "bio": null, "projects_count": 0, "devlogs_count": 0, "votes_count": 0, "ships_count": 0, "projects": [], "coding_time_seconds": 0, "coding_time_seconds_today": 0, "balance": "You need to have a pocket watcher badge to view this.", "badges": [], "created_at": "2025-06-18T04:14:13.424-04:00", "updated_at": "2025-07-03T19:46:52.739-04:00", "avatar": "https://secure.gravatar.com/avatar/a9bd5fa5a78aed335aaa5da95044f20c.jpg?s=512&d=https%3A%2F%2Fa.slack-edge.com%2Fdf10d%2Fimg%2Favatars%2Fava_0007-512.png", "custom_css": null}, {"id": 8145, "slack_id": "U091J7THW7R", "display_name": "retake", "bio": null, "projects_count": 0, "devlogs_count": 0, "votes_count": 0, "ships_count": 0, "projects": [], "coding_time_seconds": 0, "coding_time_seconds_today": 0, "balance": "You need to have a pocket watcher badge to view this.", "badges": [], "created_at": "2025-06-18T04:14:51.467-04:00", "updated_at": "2025-07-03T19:46:53.015-04:00", "avatar": "https://secure.gravatar.com/avatar/c33c9198a5e31215fb8838002a32623f.jpg?s=512&d=https%3A%2F%2Fa.slack-edge.com%2Fdf10d%2Fimg%2Favatars%2Fava_0007-512.png", "custom_css": null}, {"id": 8146, "slack_id": "U091J7YMYMV", "display_name": "Sameer", "bio": null, "projects_count": 8, "devlogs_count": 13, "votes_count": 58, "ships_count": 7, "projects": [{"id": 11369, "title": "Browser Talks ", "devlogs_count": 1, "created_at": "2025-08-15T09:43:20.637-04:00"}, {"id": 11454, "title": "Arc-4", "devlogs_count": 1, "created_at": "2025-08-16T03:18:31.834-04:00"}, {"id": 11481, "title": "SMXY-3D", "devlogs_count": 1, "created_at": "2025-08-16T08:35:35.074-04:00"}, {"id": 11484, "title": "Airsoft-Turrent", "devlogs_count": 1, "created_at": "2025-08-16T08:40:50.508-04:00"}, {"id": 11598, "title": "Geo-Link-RX", "devlogs_count": 1, "created_at": "2025-08-17T12:05:29.564-04:00"}, {"id": 12702, "title": "Power-Bird", "devlogs_count": 1, "created_at": "2025-09-01T05:32:44.161-04:00"}, {"id": 12703, "title": "Shadow-Link", "devlogs_count": 1, "created_at": "2025-09-01T05:41:01.039-04:00"}, {"id": 2729, "title": "Arc-16", "devlogs_count": 3, "created_at": "2025-06-21T21:36:13.653-04:00"}], "coding_time_seconds": 291046, "coding_time_seconds_today": 1466, "balance": "You need to have a pocket watcher badge to view this.", "badges": [{"name": "Maiden Voyage", "text": "you shipped your first project! the journey begins...", "icon": "\ud83d\udea2"}], "created_at": "2025-06-18T04:15:44.900-04:00", "updated_at": "2025-09-10T22:55:11.902-04:00", "avatar": "https://avatars.slack-edge.com/2025-07-27/9257876753606_9aad8283f8ffb4f3ff21_original.jpg", "custom_css": null}, {"id": 8147, "slack_id": "U092BUNT6G1", "display_name": "Circle Mak", "bio": null, "projects_count": 0, "devlogs_count": 0, "votes_count": 0, "ships_count": 0, "projects": [], "coding_time_seconds": 0, "coding_time_seconds_today": 0, "balance": "You need to have a pocket watcher badge to view this.", "badges": [], "created_at": "2025-06-18T04:16:57.824-04:00", "updated_at": "2025-07-03T19:46:53.415-04:00", "avatar": "https://secure.gravatar.com/avatar/1cc83d45c99430b755a94342b237225c.jpg?s=512&d=https%3A%2F%2Fa.slack-edge.com%2Fdf10d%2Fimg%2Favatars%2Fava_0011-512.png", "custom_css": null}, {"id": 8148, "slack_id": "U091SPW06LB", "display_name": "Manish Kumar", "bio": null, "projects_count": 0, "devlogs_count": 0, "votes_count": 0, "ships_count": 0, "projects": [], "coding_time_seconds": 12718, "coding_time_seconds_today": 0, "balance": "You need to have a pocket watcher badge to view this.", "badges": [], "created_at": "2025-06-18T04:17:46.186-04:00", "updated_at": "2025-07-03T19:46:53.680-04:00", "avatar": "https://avatars.slack-edge.com/2025-06-18/9068715504740_e4b7c7329977720bde86_original.jpg", "custom_css": null}, {"id": 8149, "slack_id": "U091J8K2T7H", "display_name": "gmck", "bio": null, "projects_count": 0, "devlogs_count": 0, "votes_count": 0, "ships_count": 0, "projects": [], "coding_time_seconds": 1157527, "coding_time_seconds_today": 0, "balance": "You need to have a pocket watcher badge to view this.", "badges": [], "created_at": "2025-06-18T04:18:22.476-04:00", "updated_at": "2025-07-04T20:08:40.685-04:00", "avatar": "https://secure.gravatar.com/avatar/997adad016ad6d7736d5a8044ac8a99c.jpg?s=512&d=https%3A%2F%2Fa.slack-edge.com%2Fdf10d%2Fimg%2Favatars%2Fava_0026-512.png", "custom_css": null}, {"id": 8150, "slack_id": "U091SPX9Z6F", "display_name": "Sanjay Kumar", "bio": null, "projects_count": 0, "devlogs_count": 0, "votes_count": 0, "ships_count": 0, "projects": [], "coding_time_seconds": 0, "coding_time_seconds_today": 0, "balance": "You need to have a pocket watcher badge to view this.", "badges": [], "created_at": "2025-06-18T04:18:28.114-04:00", "updated_at": "2025-07-03T19:46:54.158-04:00", "avatar": "https://secure.gravatar.com/avatar/9b9d18d29f7f3490661312d301da0dff.jpg?s=512&d=https%3A%2F%2Fa.slack-edge.com%2Fdf10d%2Fimg%2Favatars%2Fava_0018-512.png", "custom_css": null}, {"id": 8151, "slack_id": "U091XA25PBN", "display_name": "Mariomix6", "bio": null, "projects_count": 0, "devlogs_count": 0, "votes_count": 0, "ships_count": 0, "projects": [], "coding_time_seconds": 4722, "coding_time_seconds_today": 0, "balance": "You need to have a pocket watcher badge to view this.", "badges": [], "created_at": "2025-06-18T04:18:39.966-04:00", "updated_at": "2025-07-03T19:46:54.417-04:00", "avatar": "https://secure.gravatar.com/avatar/b88aa37ae9ccbb5e8eedb6bb5815bf35.jpg?s=512&d=https%3A%2F%2Fa.slack-edge.com%2Fdf10d%2Fimg%2Favatars%2Fava_0022-512.png", "custom_css": null}, {"id": 8152, "slack_id": "U091ZPA7Z5J", "display_name": "Felix Byrjall", "bio": null, "projects_count": 0, "devlogs_count": 0, "votes_count": 0, "ships_count": 0, "projects": [], "coding_time_seconds": 0, "coding_time_seconds_today": 0, "balance": "You need to have a pocket watcher badge to view this.", "badges": [], "created_at": "2025-06-18T04:19:36.794-04:00", "updated_at": "2025-07-05T08:09:27.126-04:00", "avatar": "https://avatars.slack-edge.com/2025-06-18/9080010069649_9967823ea38fa10c59a5_original.png", "custom_css": null}, {"id": 8153, "slack_id": "U091J8PH91V", "display_name": "Andrew W", "bio": null, "projects_count": 1, "devlogs_count": 4, "votes_count": 0, "ships_count": 0, "projects": [{"id": 3389, "title": "Essence", "devlogs_count": 4, "created_at": "2025-06-24T04:12:56.302-04:00"}], "coding_time_seconds": 239783, "coding_time_seconds_today": 0, "balance": "You need to have a pocket watcher badge to view this.", "badges": [], "created_at": "2025-06-18T04:20:16.547-04:00", "updated_at": "2025-08-07T12:03:29.447-04:00", "avatar": "https://secure.gravatar.com/avatar/1e989dfd39181263c8722171df454282.jpg?s=512&d=https%3A%2F%2Fa.slack-edge.com%2Fdf10d%2Fimg%2Favatars%2Fava_0002-512.png", "custom_css": null}, {"id": 8154, "slack_id": "U07DMRDHZ36", "display_name": "Quinten", "bio": null, "projects_count": 0, "devlogs_count": 0, "votes_count": 0, "ships_count": 0, "projects": [], "coding_time_seconds": 7685, "coding_time_seconds_today": 0, "balance": "You need to have a pocket watcher badge to view this.", "badges": [], "created_at": "2025-06-18T04:21:17.943-04:00", "updated_at": "2025-07-03T19:46:55.078-04:00", "avatar": "https://avatars.slack-edge.com/2024-07-22/7454751767270_724e8a2e25534814869b_original.jpg", "custom_css": null}, {"id": 8155, "slack_id": "U091SQGV327", "display_name": "HR10J44T", "bio": null, "projects_count": 0, "devlogs_count": 0, "votes_count": 0, "ships_count": 0, "projects": [], "coding_time_seconds": 0, "coding_time_seconds_today": 0, "balance": "You need to have a pocket watcher badge to view this.", "badges": [], "created_at": "2025-06-18T04:21:46.613-04:00", "updated_at": "2025-07-06T14:09:03.948-04:00", "avatar": "https://secure.gravatar.com/avatar/a12708293265b5a42ceb3088782ae8e3.jpg?s=512&d=https%3A%2F%2Fa.slack-edge.com%2Fdf10d%2Fimg%2Favatars%2Fava_0011-512.png", "custom_css": null}, {"id": 8156, "slack_id": "U092MPC59NU", "display_name": "MattMes", "bio": null, "projects_count": 0, "devlogs_count": 0, "votes_count": 0, "ships_count": 0, "projects": [], "coding_time_seconds": 1453, "coding_time_seconds_today": 0, "balance": "You need to have a pocket watcher badge to view this.", "badges": [], "created_at": "2025-06-18T04:21:49.077-04:00", "updated_at": "2025-07-04T20:08:41.107-04:00", "avatar": "https://secure.gravatar.com/avatar/fce50de13cb5d531069e5a8a135d57a7.jpg?s=512&d=https%3A%2F%2Fa.slack-edge.com%2Fdf10d%2Fimg%2Favatars%2Fava_0010-512.png", "custom_css": null}, {"id": 8157, "slack_id": "U091J932YJK", "display_name": "gev", "bio": null, "projects_count": 0, "devlogs_count": 0, "votes_count": 0, "ships_count": 0, "projects": [], "coding_time_seconds": 0, "coding_time_seconds_today": 0, "balance": "You need to have a pocket watcher badge to view this.", "badges": [], "created_at": "2025-06-18T04:22:25.731-04:00", "updated_at": "2025-07-03T19:46:55.613-04:00", "avatar": "https://secure.gravatar.com/avatar/e6df6b1491dc5c7b7bd1165b6d0b71e0.jpg?s=512&d=https%3A%2F%2Fa.slack-edge.com%2Fdf10d%2Fimg%2Favatars%2Fava_0002-512.png", "custom_css": null}, {"id": 8158, "slack_id": "U092MR30QDN", "display_name": "Chaitanya", "bio": null, "projects_count": 0, "devlogs_count": 0, "votes_count": 0, "ships_count": 0, "projects": [], "coding_time_seconds": 0, "coding_time_seconds_today": 0, "balance": "You need to have a pocket watcher badge to view this.", "badges": [], "created_at": "2025-06-18T04:22:46.303-04:00", "updated_at": "2025-07-04T02:27:35.229-04:00", "avatar": "https://secure.gravatar.com/avatar/1f8ccd1f65fdc921ce981a1bf58537de.jpg?s=512&d=https%3A%2F%2Fa.slack-edge.com%2Fdf10d%2Fimg%2Favatars%2Fava_0002-512.png", "custom_css": null}, {"id": 8159, "slack_id": "U092C0E2RLH", "display_name": "Elliot", "bio": null, "projects_count": 0, "devlogs_count": 0, "votes_count": 0, "ships_count": 0, "projects": [], "coding_time_seconds": 0, "coding_time_seconds_today": 0, "balance": "You need to have a pocket watcher badge to view this.", "badges": [], "created_at": "2025-06-18T04:23:39.002-04:00", "updated_at": "2025-07-03T19:46:56.013-04:00", "avatar": "https://secure.gravatar.com/avatar/cfd5bd297c43da5a6eb919d787a1b27d.jpg?s=512&d=https%3A%2F%2Fa.slack-edge.com%2Fdf10d%2Fimg%2Favatars%2Fava_0007-512.png", "custom_css": null}, {"id": 8160, "slack_id": "U092MR86TUY", "display_name": "Aditya", "bio": null, "projects_count": 1, "devlogs_count": 30, "votes_count": 14, "ships_count": 0, "projects": [{"id": 10433, "title": "Designer Portfolio", "devlogs_count": 1, "created_at": "2025-08-07T00:55:14.997-04:00"}], "coding_time_seconds": 1628495, "coding_time_seconds_today": 0, "balance": "You need to have a pocket watcher badge to view this.", "badges": [], "created_at": "2025-06-18T04:24:43.688-04:00", "updated_at": "2025-08-07T00:47:55.505-04:00", "avatar": "https://secure.gravatar.com/avatar/ccbba96b4755d75bd8f34ea82f2b2a21.jpg?s=512&d=https%3A%2F%2Fa.slack-edge.com%2Fdf10d%2Fimg%2Favatars%2Fava_0000-512.png", "custom_css": null}], "pagination": {"page": 408, "pages": 1192, "count": 23828, "items": 20}}