{"users": [{"id": 8161, "slack_id": "U091J9JQX8X", "display_name": "Hikmat Samadov", "bio": null, "projects_count": 0, "devlogs_count": 0, "votes_count": 0, "ships_count": 0, "projects": [], "coding_time_seconds": 0, "coding_time_seconds_today": 0, "balance": "You need to have a pocket watcher badge to view this.", "badges": [], "created_at": "2025-06-18T04:25:10.993-04:00", "updated_at": "2025-07-03T19:46:56.418-04:00", "avatar": "https://secure.gravatar.com/avatar/4901ab68d3c57346f0939153b2a633bd.jpg?s=512&d=https%3A%2F%2Fa.slack-edge.com%2Fdf10d%2Fimg%2Favatars%2Fava_0016-512.png", "custom_css": null}, {"id": 8162, "slack_id": "U091XTS5URK", "display_name": "Kellio", "bio": null, "projects_count": 0, "devlogs_count": 0, "votes_count": 0, "ships_count": 0, "projects": [], "coding_time_seconds": 40763, "coding_time_seconds_today": 0, "balance": "You need to have a pocket watcher badge to view this.", "badges": [], "created_at": "2025-06-18T04:25:35.451-04:00", "updated_at": "2025-07-03T19:46:56.691-04:00", "avatar": "https://secure.gravatar.com/avatar/85cc088db2753f5c5014185fa0b6213f.jpg?s=512&d=https%3A%2F%2Fa.slack-edge.com%2Fdf10d%2Fimg%2Favatars%2Fava_0014-512.png", "custom_css": null}, {"id": 8163, "slack_id": "U091XTVJA05", "display_name": "Zoran Duric", "bio": null, "projects_count": 0, "devlogs_count": 0, "votes_count": 0, "ships_count": 0, "projects": [], "coding_time_seconds": 0, "coding_time_seconds_today": 0, "balance": "You need to have a pocket watcher badge to view this.", "badges": [], "created_at": "2025-06-18T04:26:06.023-04:00", "updated_at": "2025-07-03T19:46:56.964-04:00", "avatar": "https://avatars.slack-edge.com/2025-06-18/9061101782358_97083c24b0e2aac88e1a_original.png", "custom_css": null}, {"id": 8164, "slack_id": "U091ZAALL9Y", "display_name": "Lukas W\u00f6senb\u00f6ck", "bio": null, "projects_count": 0, "devlogs_count": 0, "votes_count": 0, "ships_count": 0, "projects": [], "coding_time_seconds": 0, "coding_time_seconds_today": 0, "balance": "You need to have a pocket watcher badge to view this.", "badges": [], "created_at": "2025-06-18T04:26:13.939-04:00", "updated_at": "2025-07-05T14:10:15.485-04:00", "avatar": "https://secure.gravatar.com/avatar/d6f76a42abe48ba2fb32cc0f690d5ba0.jpg?s=512&d=https%3A%2F%2Fa.slack-edge.com%2Fdf10d%2Fimg%2Favatars%2Fava_0012-512.png", "custom_css": null}, {"id": 8165, "slack_id": "U092MRKEYEL", "display_name": "FenyMufyd", "bio": null, "projects_count": 0, "devlogs_count": 0, "votes_count": 0, "ships_count": 0, "projects": [], "coding_time_seconds": 0, "coding_time_seconds_today": 0, "balance": "You need to have a pocket watcher badge to view this.", "badges": [], "created_at": "2025-06-18T04:26:28.635-04:00", "updated_at": "2025-07-03T19:46:57.358-04:00", "avatar": "https://secure.gravatar.com/avatar/278d6169ba3708c53fbeaf4141a9b56e.jpg?s=512&d=https%3A%2F%2Fa.slack-edge.com%2Fdf10d%2Fimg%2Favatars%2Fava_0005-512.png", "custom_css": null}, {"id": 8166, "slack_id": "U091T1RQJHL", "display_name": "Sarthak Yadav", "bio": null, "projects_count": 0, "devlogs_count": 0, "votes_count": 0, "ships_count": 0, "projects": [], "coding_time_seconds": 0, "coding_time_seconds_today": 0, "balance": "You need to have a pocket watcher badge to view this.", "badges": [], "created_at": "2025-06-18T04:26:37.624-04:00", "updated_at": "2025-07-03T19:46:57.616-04:00", "avatar": "https://secure.gravatar.com/avatar/a84a9ac51608c2dd19d107bfdbce63c6.jpg?s=512&d=https%3A%2F%2Fa.slack-edge.com%2Fdf10d%2Fimg%2Favatars%2Fava_0001-512.png", "custom_css": null}, {"id": 8167, "slack_id": "U091T2PPKUN", "display_name": "Shuvo Dev", "bio": null, "projects_count": 0, "devlogs_count": 0, "votes_count": 0, "ships_count": 0, "projects": [], "coding_time_seconds": 0, "coding_time_seconds_today": 0, "balance": "You need to have a pocket watcher badge to view this.", "badges": [], "created_at": "2025-06-18T04:27:22.702-04:00", "updated_at": "2025-07-03T19:46:57.887-04:00", "avatar": "https://secure.gravatar.com/avatar/d84883cfd992222b26719fb3259704c7.jpg?s=512&d=https%3A%2F%2Fa.slack-edge.com%2Fdf10d%2Fimg%2Favatars%2Fava_0020-512.png", "custom_css": null}, {"id": 8168, "slack_id": "U092AQWRF17", "display_name": "Aditi", "bio": null, "projects_count": 0, "devlogs_count": 0, "votes_count": 0, "ships_count": 0, "projects": [], "coding_time_seconds": 0, "coding_time_seconds_today": 0, "balance": "You need to have a pocket watcher badge to view this.", "badges": [], "created_at": "2025-06-18T04:27:39.407-04:00", "updated_at": "2025-07-03T19:46:58.161-04:00", "avatar": "https://secure.gravatar.com/avatar/dcceeef189660bf5ac19fc83ee75838a.jpg?s=512&d=https%3A%2F%2Fa.slack-edge.com%2Fdf10d%2Fimg%2Favatars%2Fava_0015-512.png", "custom_css": null}, {"id": 8169, "slack_id": "U092MRYSH7A", "display_name": "Spiros Diochnos", "bio": null, "projects_count": 0, "devlogs_count": 0, "votes_count": 0, "ships_count": 0, "projects": [], "coding_time_seconds": 0, "coding_time_seconds_today": 0, "balance": "You need to have a pocket watcher badge to view this.", "badges": [], "created_at": "2025-06-18T04:28:11.044-04:00", "updated_at": "2025-07-03T19:46:58.437-04:00", "avatar": "https://avatars.slack-edge.com/2025-06-18/9060887427267_591087d30956dc7b2eb4_original.jpg", "custom_css": null}, {"id": 8170, "slack_id": "U091XUA8HSR", "display_name": "Tai Nguyen", "bio": null, "projects_count": 0, "devlogs_count": 0, "votes_count": 0, "ships_count": 0, "projects": [], "coding_time_seconds": 0, "coding_time_seconds_today": 0, "balance": "You need to have a pocket watcher badge to view this.", "badges": [], "created_at": "2025-06-18T04:28:28.178-04:00", "updated_at": "2025-07-03T22:36:41.411-04:00", "avatar": "https://secure.gravatar.com/avatar/58a9c0e1f53585b231a0f87479482b2f.jpg?s=512&d=https%3A%2F%2Fa.slack-edge.com%2Fdf10d%2Fimg%2Favatars%2Fava_0010-512.png", "custom_css": null}, {"id": 8171, "slack_id": "U091T2HAY5C", "display_name": "Otto Rohenkohl", "bio": null, "projects_count": 0, "devlogs_count": 0, "votes_count": 0, "ships_count": 0, "projects": [], "coding_time_seconds": 884, "coding_time_seconds_today": 0, "balance": "You need to have a pocket watcher badge to view this.", "badges": [], "created_at": "2025-06-18T04:29:07.523-04:00", "updated_at": "2025-07-03T21:46:15.467-04:00", "avatar": "https://secure.gravatar.com/avatar/76aa75a66f7288aa125c09cd38a208ad.jpg?s=512&d=https%3A%2F%2Fa.slack-edge.com%2Fdf10d%2Fimg%2Favatars%2Fava_0014-512.png", "custom_css": null}, {"id": 8172, "slack_id": "U091JAACPT9", "display_name": "blyenn", "bio": null, "projects_count": 0, "devlogs_count": 0, "votes_count": 0, "ships_count": 0, "projects": [], "coding_time_seconds": 14206, "coding_time_seconds_today": 0, "balance": "You need to have a pocket watcher badge to view this.", "badges": [], "created_at": "2025-06-18T04:29:25.167-04:00", "updated_at": "2025-07-03T19:46:58.978-04:00", "avatar": "https://secure.gravatar.com/avatar/569244a0eb139f07683521026d6bece8.jpg?s=512&d=https%3A%2F%2Fa.slack-edge.com%2Fdf10d%2Fimg%2Favatars%2Fava_0008-512.png", "custom_css": null}, {"id": 8173, "slack_id": "U091ZQW4Q0L", "display_name": "0xbaitan", "bio": null, "projects_count": 0, "devlogs_count": 0, "votes_count": 0, "ships_count": 0, "projects": [], "coding_time_seconds": 0, "coding_time_seconds_today": 0, "balance": "You need to have a pocket watcher badge to view this.", "badges": [], "created_at": "2025-06-18T04:30:28.210-04:00", "updated_at": "2025-07-03T19:46:59.250-04:00", "avatar": "https://secure.gravatar.com/avatar/ceed810d56b1973298222f720397cbe5.jpg?s=512&d=https%3A%2F%2Fa.slack-edge.com%2Fdf10d%2Fimg%2Favatars%2Fava_0018-512.png", "custom_css": null}, {"id": 8174, "slack_id": "U07L48Q6BUY", "display_name": "Oliver Lacika", "bio": null, "projects_count": 0, "devlogs_count": 0, "votes_count": 0, "ships_count": 0, "projects": [], "coding_time_seconds": 16532, "coding_time_seconds_today": 0, "balance": "You need to have a pocket watcher badge to view this.", "badges": [], "created_at": "2025-06-18T04:31:20.810-04:00", "updated_at": "2025-07-08T14:40:25.454-04:00", "avatar": "https://avatars.slack-edge.com/2025-07-08/9167704560644_f0658d98e7d3010d8697_original.jpg", "custom_css": null}, {"id": 8175, "slack_id": "U091T3DM41L", "display_name": "sudo-kk", "bio": null, "projects_count": 0, "devlogs_count": 0, "votes_count": 0, "ships_count": 0, "projects": [], "coding_time_seconds": 41443, "coding_time_seconds_today": 0, "balance": "You need to have a pocket watcher badge to view this.", "badges": [], "created_at": "2025-06-18T04:31:32.631-04:00", "updated_at": "2025-07-03T19:46:59.783-04:00", "avatar": "https://secure.gravatar.com/avatar/190821cfc1566bff63a6be5220420936.jpg?s=512&d=https%3A%2F%2Fa.slack-edge.com%2Fdf10d%2Fimg%2Favatars%2Fava_0016-512.png", "custom_css": null}, {"id": 8176, "slack_id": "U092MS58KJ4", "display_name": "Shwetkamal Gaud", "bio": null, "projects_count": 2, "devlogs_count": 0, "votes_count": 0, "ships_count": 0, "projects": [{"id": 4670, "title": "Doctor Dashbaord", "devlogs_count": 0, "created_at": "2025-07-01T03:18:06.737-04:00"}, {"id": 4672, "title": "Feedback System", "devlogs_count": 0, "created_at": "2025-07-01T03:21:38.917-04:00"}], "coding_time_seconds": 1348975, "coding_time_seconds_today": 2440, "balance": "You need to have a pocket watcher badge to view this.", "badges": [], "created_at": "2025-06-18T04:32:28.191-04:00", "updated_at": "2025-07-03T19:47:00.054-04:00", "avatar": "https://secure.gravatar.com/avatar/fde3d4a005d93882b2658b8244024620.jpg?s=512&d=https%3A%2F%2Fa.slack-edge.com%2Fdf10d%2Fimg%2Favatars%2Fava_0016-512.png", "custom_css": null}, {"id": 8177, "slack_id": "U091ZRAD9SQ", "display_name": "\u05e9\u05de\u05d5\u05dc\u05d9\u05e7 \u05db\u05d4\u05df", "bio": null, "projects_count": 0, "devlogs_count": 0, "votes_count": 0, "ships_count": 0, "projects": [], "coding_time_seconds": 46687, "coding_time_seconds_today": 0, "balance": "You need to have a pocket watcher badge to view this.", "badges": [], "created_at": "2025-06-18T04:33:36.674-04:00", "updated_at": "2025-07-03T19:47:00.322-04:00", "avatar": "https://avatars.slack-edge.com/2025-06-18/9060918865299_ff4fd7de1da7f17760a2_original.jpg", "custom_css": null}, {"id": 8178, "slack_id": "U091ZBE4FH8", "display_name": "Arabella Mejorada", "bio": null, "projects_count": 0, "devlogs_count": 0, "votes_count": 0, "ships_count": 0, "projects": [], "coding_time_seconds": 0, "coding_time_seconds_today": 0, "balance": "You need to have a pocket watcher badge to view this.", "badges": [], "created_at": "2025-06-18T04:34:21.639-04:00", "updated_at": "2025-07-03T21:58:12.829-04:00", "avatar": "https://avatars.slack-edge.com/2025-06-18/9067881062884_07a0baf9634e406ec9f3_original.png", "custom_css": null}, {"id": 8179, "slack_id": "U07UD5XM5LJ", "display_name": "Ahmed", "bio": null, "projects_count": 1, "devlogs_count": 1, "votes_count": 2, "ships_count": 0, "projects": [{"id": 3939, "title": "minesweeper", "devlogs_count": 1, "created_at": "2025-06-26T12:06:18.897-04:00"}], "coding_time_seconds": 122783, "coding_time_seconds_today": 0, "balance": "You need to have a pocket watcher badge to view this.", "badges": [], "created_at": "2025-06-18T04:34:23.638-04:00", "updated_at": "2025-07-03T21:58:12.917-04:00", "avatar": "https://secure.gravatar.com/avatar/cc7d928fc7ac0293341c299d17bc3ae9.jpg?s=512&d=https%3A%2F%2Fa.slack-edge.com%2Fdf10d%2Fimg%2Favatars%2Fava_0013-512.png", "custom_css": null}, {"id": 8180, "slack_id": "U092C26MQ2D", "display_name": "walid", "bio": null, "projects_count": 0, "devlogs_count": 0, "votes_count": 0, "ships_count": 0, "projects": [], "coding_time_seconds": 0, "coding_time_seconds_today": 0, "balance": "You need to have a pocket watcher badge to view this.", "badges": [], "created_at": "2025-06-18T04:36:43.245-04:00", "updated_at": "2025-07-03T19:47:00.857-04:00", "avatar": "https://secure.gravatar.com/avatar/d515e855c045f6a11ba88334ea339e05.jpg?s=512&d=https%3A%2F%2Fa.slack-edge.com%2Fdf10d%2Fimg%2Favatars%2Fava_0009-512.png", "custom_css": null}], "pagination": {"page": 409, "pages": 1192, "count": 23828, "items": 20}}