{"users": [{"id": 801, "slack_id": "U09218H3SEM", "display_name": "Denys Oryshych", "bio": null, "projects_count": 0, "devlogs_count": 0, "votes_count": 0, "ships_count": 0, "projects": [], "coding_time_seconds": 41365, "coding_time_seconds_today": 0, "balance": "You need to have a pocket watcher badge to view this.", "badges": [], "created_at": "2025-06-16T12:16:53.520-04:00", "updated_at": "2025-07-03T19:14:39.470-04:00", "avatar": "https://secure.gravatar.com/avatar/6f47be00dbd3622ec49f8802bf21ec3c.jpg?s=512&d=https%3A%2F%2Fa.slack-edge.com%2Fdf10d%2Fimg%2Favatars%2Fava_0004-512.png", "custom_css": null}, {"id": 802, "slack_id": "U091LUE39U5", "display_name": "zela2000", "bio": null, "projects_count": 0, "devlogs_count": 0, "votes_count": 0, "ships_count": 0, "projects": [], "coding_time_seconds": 0, "coding_time_seconds_today": 0, "balance": "You need to have a pocket watcher badge to view this.", "badges": [], "created_at": "2025-06-16T12:16:55.893-04:00", "updated_at": "2025-07-03T19:14:39.730-04:00", "avatar": "https://secure.gravatar.com/avatar/c955122dda3d2702267880185b44c2f2.jpg?s=512&d=https%3A%2F%2Fa.slack-edge.com%2Fdf10d%2Fimg%2Favatars%2Fava_0015-512.png", "custom_css": null}, {"id": 803, "slack_id": "U0921A8HQ1X", "display_name": "Victor Pagliuso", "bio": null, "projects_count": 0, "devlogs_count": 0, "votes_count": 0, "ships_count": 0, "projects": [], "coding_time_seconds": 0, "coding_time_seconds_today": 0, "balance": "You need to have a pocket watcher badge to view this.", "badges": [], "created_at": "2025-06-16T12:16:58.299-04:00", "updated_at": "2025-07-03T19:14:40.000-04:00", "avatar": "https://secure.gravatar.com/avatar/0d895af1d05efbc81d4fc77448ce1ce8.jpg?s=512&d=https%3A%2F%2Fa.slack-edge.com%2Fdf10d%2Fimg%2Favatars%2Fava_0019-512.png", "custom_css": null}, {"id": 804, "slack_id": "U091M07RMHB", "display_name": "Birat Roka", "bio": null, "projects_count": 0, "devlogs_count": 0, "votes_count": 0, "ships_count": 0, "projects": [], "coding_time_seconds": 0, "coding_time_seconds_today": 0, "balance": "You need to have a pocket watcher badge to view this.", "badges": [], "created_at": "2025-06-16T12:17:00.234-04:00", "updated_at": "2025-07-03T19:14:40.257-04:00", "avatar": "https://secure.gravatar.com/avatar/549bf5fc7f0ae69843ad313cebbea2d5.jpg?s=512&d=https%3A%2F%2Fa.slack-edge.com%2Fdf10d%2Fimg%2Favatars%2Fava_0002-512.png", "custom_css": null}, {"id": 805, "slack_id": "U091MDNLQJ1", "display_name": "Nazar", "bio": null, "projects_count": 1, "devlogs_count": 0, "votes_count": 0, "ships_count": 0, "projects": [{"id": 744, "title": "University start project ", "devlogs_count": 0, "created_at": "2025-06-17T07:09:03.213-04:00"}], "coding_time_seconds": 4018, "coding_time_seconds_today": 0, "balance": "You need to have a pocket watcher badge to view this.", "badges": [], "created_at": "2025-06-16T12:17:01.988-04:00", "updated_at": "2025-07-03T19:14:40.525-04:00", "avatar": "https://secure.gravatar.com/avatar/3f3d277b524cde0566d7171dcb44e412.jpg?s=512&d=https%3A%2F%2Fa.slack-edge.com%2Fdf10d%2Fimg%2Favatars%2Fava_0021-512.png", "custom_css": null}, {"id": 806, "slack_id": "U084T4KCZ8Q", "display_name": "Charlotte", "bio": null, "projects_count": 0, "devlogs_count": 0, "votes_count": 0, "ships_count": 0, "projects": [], "coding_time_seconds": 319318, "coding_time_seconds_today": 0, "balance": "You need to have a pocket watcher badge to view this.", "badges": [], "created_at": "2025-06-16T12:17:02.627-04:00", "updated_at": "2025-09-17T12:01:22.295-04:00", "avatar": "https://avatars.slack-edge.com/2025-09-17/9519542303351_e6cdf6459440520f133c_original.png", "custom_css": null}, {"id": 807, "slack_id": "U091NN8EM50", "display_name": "PG", "bio": null, "projects_count": 0, "devlogs_count": 0, "votes_count": 0, "ships_count": 0, "projects": [], "coding_time_seconds": 0, "coding_time_seconds_today": 0, "balance": "You need to have a pocket watcher badge to view this.", "badges": [], "created_at": "2025-06-16T12:17:02.911-04:00", "updated_at": "2025-07-05T08:26:07.638-04:00", "avatar": "https://secure.gravatar.com/avatar/c63229f3e67e1d4b7a40de4ed8f246fa.jpg?s=512&d=https%3A%2F%2Fa.slack-edge.com%2Fdf10d%2Fimg%2Favatars%2Fava_0019-512.png", "custom_css": null}, {"id": 808, "slack_id": "U092B7G1QQG", "display_name": "wenkai", "bio": null, "projects_count": 0, "devlogs_count": 0, "votes_count": 0, "ships_count": 0, "projects": [], "coding_time_seconds": 0, "coding_time_seconds_today": 0, "balance": "You need to have a pocket watcher badge to view this.", "badges": [], "created_at": "2025-06-16T12:17:04.753-04:00", "updated_at": "2025-07-03T19:14:41.339-04:00", "avatar": "https://secure.gravatar.com/avatar/57c4d065fd1627a0eb2c506615a86133.jpg?s=512&d=https%3A%2F%2Fa.slack-edge.com%2Fdf10d%2Fimg%2Favatars%2Fava_0026-512.png", "custom_css": null}, {"id": 809, "slack_id": "U0921A7MQD7", "display_name": "pushpesh raj", "bio": null, "projects_count": 0, "devlogs_count": 0, "votes_count": 0, "ships_count": 0, "projects": [], "coding_time_seconds": 0, "coding_time_seconds_today": 0, "balance": "You need to have a pocket watcher badge to view this.", "badges": [], "created_at": "2025-06-16T12:17:06.955-04:00", "updated_at": "2025-07-03T19:14:41.634-04:00", "avatar": "https://secure.gravatar.com/avatar/322791b723e7317c3d4481a9400a849c.jpg?s=512&d=https%3A%2F%2Fa.slack-edge.com%2Fdf10d%2Fimg%2Favatars%2Fava_0026-512.png", "custom_css": null}, {"id": 810, "slack_id": "U092B83CCMN", "display_name": "Tobias", "bio": null, "projects_count": 4, "devlogs_count": 32, "votes_count": 117, "ships_count": 4, "projects": [{"id": 3478, "title": "fireRESTy", "devlogs_count": 11, "created_at": "2025-06-24T12:01:22.486-04:00"}, {"id": 6083, "title": "HyScript", "devlogs_count": 9, "created_at": "2025-07-10T12:57:26.377-04:00"}, {"id": 8371, "title": "Car repair shop web", "devlogs_count": 4, "created_at": "2025-07-26T16:40:32.601-04:00"}, {"id": 5760, "title": "EnjoyPDF", "devlogs_count": 8, "created_at": "2025-07-07T19:11:48.817-04:00"}], "coding_time_seconds": 261980, "coding_time_seconds_today": 0, "balance": "You need to have a pocket watcher badge to view this.", "badges": [{"name": "Maiden Voyage", "text": "you shipped your first project! the journey begins...", "icon": "\ud83d\udea2"}, {"name": "Ballot Stuffer", "text": "vote 100 times.", "icon": "https://summer.hackclub.com/assets/i_voted-bf851b48.png"}], "created_at": "2025-06-16T12:17:09.012-04:00", "updated_at": "2025-09-10T22:51:32.969-04:00", "avatar": "https://avatars.slack-edge.com/2025-06-16/9041842889607_eb232030c616fb4ecb95_original.png", "custom_css": null}, {"id": 811, "slack_id": "U091FPLSRHR", "display_name": "Pratheek Shetty", "bio": null, "projects_count": 0, "devlogs_count": 0, "votes_count": 0, "ships_count": 0, "projects": [], "coding_time_seconds": 0, "coding_time_seconds_today": 0, "balance": "You need to have a pocket watcher badge to view this.", "badges": [], "created_at": "2025-06-16T12:17:11.277-04:00", "updated_at": "2025-07-03T19:14:42.181-04:00", "avatar": "https://secure.gravatar.com/avatar/c5d02aa6898ce08c91403fecb7988b7e.jpg?s=512&d=https%3A%2F%2Fa.slack-edge.com%2Fdf10d%2Fimg%2Favatars%2Fava_0000-512.png", "custom_css": null}, {"id": 812, "slack_id": "U08LKMB349K", "display_name": "Lucas11", "bio": "ello! Im working in the frontend of Helpers and shiped RanBoom! check my website lucas11.dev !", "projects_count": 7, "devlogs_count": 31, "votes_count": 64, "ships_count": 2, "projects": [{"id": 3164, "title": "Lucas11 Website", "devlogs_count": 6, "created_at": "2025-06-23T09:40:06.029-04:00"}, {"id": 3414, "title": "RanBoom", "devlogs_count": 12, "created_at": "2025-06-24T06:12:13.742-04:00"}, {"id": 6721, "title": "Helpers Frontend", "devlogs_count": 3, "created_at": "2025-07-15T13:24:40.055-04:00"}, {"id": 7123, "title": "Helpers Go", "devlogs_count": 9, "created_at": "2025-07-19T08:18:34.836-04:00"}, {"id": 11115, "title": "SprOS", "devlogs_count": 0, "created_at": "2025-08-13T09:34:43.178-04:00"}, {"id": 11878, "title": "Lunardactyl", "devlogs_count": 1, "created_at": "2025-08-20T15:11:59.280-04:00"}, {"id": 13591, "title": "Sprog PC", "devlogs_count": 0, "created_at": "2025-09-20T10:20:26.904-04:00"}], "coding_time_seconds": 275511, "coding_time_seconds_today": 0, "balance": "You need to have a pocket watcher badge to view this.", "badges": [{"name": "Maiden Voyage", "text": "you shipped your first project! the journey begins...", "icon": "\ud83d\udea2"}], "created_at": "2025-06-16T12:17:13.756-04:00", "updated_at": "2025-09-10T22:51:33.016-04:00", "avatar": "https://avatars.slack-edge.com/2025-07-19/9247111306896_71f7d0f1970520d0202f_original.png", "custom_css": null}, {"id": 813, "slack_id": "U091NNWRRC2", "display_name": "Cesar Freire", "bio": null, "projects_count": 0, "devlogs_count": 0, "votes_count": 0, "ships_count": 0, "projects": [], "coding_time_seconds": 0, "coding_time_seconds_today": 0, "balance": "You need to have a pocket watcher badge to view this.", "badges": [], "created_at": "2025-06-16T12:17:14.876-04:00", "updated_at": "2025-07-03T19:14:42.717-04:00", "avatar": "https://secure.gravatar.com/avatar/20c47fe57b38efefcdd69293d30166a0.jpg?s=512&d=https%3A%2F%2Fa.slack-edge.com%2Fdf10d%2Fimg%2Favatars%2Fava_0016-512.png", "custom_css": null}, {"id": 814, "slack_id": "U091FT5F38W", "display_name": "Thyago Martins0", "bio": null, "projects_count": 0, "devlogs_count": 0, "votes_count": 0, "ships_count": 0, "projects": [], "coding_time_seconds": 0, "coding_time_seconds_today": 0, "balance": "You need to have a pocket watcher badge to view this.", "badges": [], "created_at": "2025-06-16T12:17:16.960-04:00", "updated_at": "2025-07-03T19:14:42.988-04:00", "avatar": "https://avatars.slack-edge.com/2025-06-16/9057283020580_ed08f666bca4b28433a3_original.jpg", "custom_css": null}, {"id": 815, "slack_id": "U091P58V1RA", "display_name": "Sadiq Mohammed", "bio": null, "projects_count": 0, "devlogs_count": 0, "votes_count": 0, "ships_count": 0, "projects": [], "coding_time_seconds": 0, "coding_time_seconds_today": 0, "balance": "You need to have a pocket watcher badge to view this.", "badges": [], "created_at": "2025-06-16T12:17:19.810-04:00", "updated_at": "2025-07-03T19:14:43.263-04:00", "avatar": "https://secure.gravatar.com/avatar/d13c2830d24714e9d905680343774a40.jpg?s=512&d=https%3A%2F%2Fa.slack-edge.com%2Fdf10d%2Fimg%2Favatars%2Fava_0011-512.png", "custom_css": null}, {"id": 816, "slack_id": "U091FTHPEKG", "display_name": "Syntax-Surfer", "bio": null, "projects_count": 0, "devlogs_count": 10, "votes_count": 65, "ships_count": 0, "projects": [], "coding_time_seconds": 122584, "coding_time_seconds_today": 0, "balance": "You need to have a pocket watcher badge to view this.", "badges": [{"name": "Maiden Voyage", "text": "you shipped your first project! the journey begins...", "icon": "\ud83d\udea2"}, {"name": "Ballot Stuffer", "text": "vote 100 times.", "icon": "https://summer.hackclub.com/assets/i_voted-bf851b48.png"}], "created_at": "2025-06-16T12:17:22.464-04:00", "updated_at": "2025-09-10T22:51:33.148-04:00", "avatar": "https://avatars.slack-edge.com/2025-06-16/9070388037665_b222404651502e125ab1_original.webp", "custom_css": null}, {"id": 817, "slack_id": "U091M0PPT61", "display_name": "Julian Gebhard", "bio": null, "projects_count": 0, "devlogs_count": 0, "votes_count": 0, "ships_count": 0, "projects": [], "coding_time_seconds": 0, "coding_time_seconds_today": 0, "balance": "You need to have a pocket watcher badge to view this.", "badges": [], "created_at": "2025-06-16T12:17:24.507-04:00", "updated_at": "2025-07-03T19:14:43.816-04:00", "avatar": "https://secure.gravatar.com/avatar/2bb7a0d5ac651a7767388981128acf35.jpg?s=512&d=https%3A%2F%2Fa.slack-edge.com%2Fdf10d%2Fimg%2Favatars%2Fava_0015-512.png", "custom_css": null}, {"id": 818, "slack_id": "U091FQE57V1", "display_name": "Maneesh Malepati", "bio": null, "projects_count": 0, "devlogs_count": 0, "votes_count": 0, "ships_count": 0, "projects": [], "coding_time_seconds": 0, "coding_time_seconds_today": 0, "balance": "You need to have a pocket watcher badge to view this.", "badges": [], "created_at": "2025-06-16T12:17:26.338-04:00", "updated_at": "2025-07-03T19:14:44.080-04:00", "avatar": "https://secure.gravatar.com/avatar/10750755d34499d5bf6e6865f582b958.jpg?s=512&d=https%3A%2F%2Fa.slack-edge.com%2Fdf10d%2Fimg%2Favatars%2Fava_0003-512.png", "custom_css": null}, {"id": 819, "slack_id": "U091P74LCTC", "display_name": "Paracetamol56", "bio": null, "projects_count": 0, "devlogs_count": 0, "votes_count": 0, "ships_count": 0, "projects": [], "coding_time_seconds": 0, "coding_time_seconds_today": 0, "balance": "You need to have a pocket watcher badge to view this.", "badges": [], "created_at": "2025-06-16T12:17:27.424-04:00", "updated_at": "2025-07-03T19:14:44.428-04:00", "avatar": "https://secure.gravatar.com/avatar/a06a970ca413ae9635ad2fd46000b5a1.jpg?s=512&d=https%3A%2F%2Fa.slack-edge.com%2Fdf10d%2Fimg%2Favatars%2Fava_0002-512.png", "custom_css": null}, {"id": 820, "slack_id": "U091P7NDFC4", "display_name": "Somila", "bio": null, "projects_count": 0, "devlogs_count": 0, "votes_count": 0, "ships_count": 0, "projects": [], "coding_time_seconds": 0, "coding_time_seconds_today": 0, "balance": "You need to have a pocket watcher badge to view this.", "badges": [], "created_at": "2025-06-16T12:17:28.245-04:00", "updated_at": "2025-07-03T19:14:44.701-04:00", "avatar": "https://secure.gravatar.com/avatar/70cb0da0d01025cb8f6b66b2121430f5.jpg?s=512&d=https%3A%2F%2Fa.slack-edge.com%2Fdf10d%2Fimg%2Favatars%2Fava_0005-512.png", "custom_css": null}], "pagination": {"page": 41, "pages": 1192, "count": 23827, "items": 20}}