{"users": [{"id": 8181, "slack_id": "U091T4B4CCW", "display_name": "Bui Hong Son", "bio": null, "projects_count": 0, "devlogs_count": 0, "votes_count": 0, "ships_count": 0, "projects": [], "coding_time_seconds": 0, "coding_time_seconds_today": 0, "balance": "You need to have a pocket watcher badge to view this.", "badges": [], "created_at": "2025-06-18T04:36:45.832-04:00", "updated_at": "2025-07-03T19:47:01.123-04:00", "avatar": "https://secure.gravatar.com/avatar/ed126c9c0a1ff6c89b40023462dbdde8.jpg?s=512&d=https%3A%2F%2Fa.slack-edge.com%2Fdf10d%2Fimg%2Favatars%2Fava_0019-512.png", "custom_css": null}, {"id": 8182, "slack_id": "U091JBHSGRM", "display_name": "Patrick Sandquist", "bio": null, "projects_count": 0, "devlogs_count": 0, "votes_count": 0, "ships_count": 0, "projects": [], "coding_time_seconds": 3317, "coding_time_seconds_today": 0, "balance": "You need to have a pocket watcher badge to view this.", "badges": [], "created_at": "2025-06-18T04:37:04.645-04:00", "updated_at": "2025-07-03T19:47:01.379-04:00", "avatar": "https://avatars.slack-edge.com/2025-06-18/9052406062023_ddee4656ffcbff7ad7b7_original.jpg", "custom_css": null}, {"id": 8183, "slack_id": "U091ST5UBFV", "display_name": "Lenesley", "bio": null, "projects_count": 0, "devlogs_count": 0, "votes_count": 0, "ships_count": 0, "projects": [], "coding_time_seconds": 0, "coding_time_seconds_today": 0, "balance": "You need to have a pocket watcher badge to view this.", "badges": [], "created_at": "2025-06-18T04:37:58.642-04:00", "updated_at": "2025-07-03T19:47:01.640-04:00", "avatar": "https://secure.gravatar.com/avatar/301808e546b351870b18da1525cc9049.jpg?s=512&d=https%3A%2F%2Fa.slack-edge.com%2Fdf10d%2Fimg%2Favatars%2Fava_0017-512.png", "custom_css": null}, {"id": 8184, "slack_id": "U07DLGCQ9T7", "display_name": "Noah G.", "bio": null, "projects_count": 0, "devlogs_count": 0, "votes_count": 0, "ships_count": 0, "projects": [], "coding_time_seconds": 0, "coding_time_seconds_today": 0, "balance": "You need to have a pocket watcher badge to view this.", "badges": [], "created_at": "2025-06-18T04:38:35.431-04:00", "updated_at": "2025-07-03T19:47:01.915-04:00", "avatar": "https://secure.gravatar.com/avatar/d4ca36fe062fad8aa1d4a9810c58451a.jpg?s=512&d=https%3A%2F%2Fa.slack-edge.com%2Fdf10d%2Fimg%2Favatars%2Fava_0022-512.png", "custom_css": null}, {"id": 8185, "slack_id": "U092MTCUG7J", "display_name": "Oreofeoluwa Adegoke", "bio": null, "projects_count": 0, "devlogs_count": 0, "votes_count": 0, "ships_count": 0, "projects": [], "coding_time_seconds": 0, "coding_time_seconds_today": 0, "balance": "You need to have a pocket watcher badge to view this.", "badges": [], "created_at": "2025-06-18T04:38:49.582-04:00", "updated_at": "2025-07-03T19:47:02.199-04:00", "avatar": "https://secure.gravatar.com/avatar/41b42dbec52fd3a9557c46a55a473a15.jpg?s=512&d=https%3A%2F%2Fa.slack-edge.com%2Fdf10d%2Fimg%2Favatars%2Fava_0009-512.png", "custom_css": null}, {"id": 8186, "slack_id": "U092MT9E0QY", "display_name": "Philipos Hailu", "bio": null, "projects_count": 0, "devlogs_count": 0, "votes_count": 0, "ships_count": 0, "projects": [], "coding_time_seconds": 0, "coding_time_seconds_today": 0, "balance": "You need to have a pocket watcher badge to view this.", "badges": [], "created_at": "2025-06-18T04:39:42.185-04:00", "updated_at": "2025-07-03T21:46:16.445-04:00", "avatar": "https://avatars.slack-edge.com/2025-06-18/9066036528533_9f2875aaa9dcc3162fb9_original.jpg", "custom_css": null}, {"id": 8187, "slack_id": "U091T4J1QNS", "display_name": "Nhat Minh Tran Ngoc", "bio": null, "projects_count": 0, "devlogs_count": 0, "votes_count": 0, "ships_count": 0, "projects": [], "coding_time_seconds": 0, "coding_time_seconds_today": 0, "balance": "You need to have a pocket watcher badge to view this.", "badges": [], "created_at": "2025-06-18T04:39:52.231-04:00", "updated_at": "2025-07-03T19:47:02.594-04:00", "avatar": "https://avatars.slack-edge.com/2025-06-18/9067906831684_3f045c952732be62c469_original.png", "custom_css": null}, {"id": 8188, "slack_id": "U091T4HUG6A", "display_name": "Saurabh Ramteke", "bio": null, "projects_count": 0, "devlogs_count": 0, "votes_count": 0, "ships_count": 0, "projects": [], "coding_time_seconds": 0, "coding_time_seconds_today": 0, "balance": "You need to have a pocket watcher badge to view this.", "badges": [], "created_at": "2025-06-18T04:40:09.242-04:00", "updated_at": "2025-07-05T20:09:32.764-04:00", "avatar": "https://secure.gravatar.com/avatar/443c738d7ac271bb820cb01f8bf3f578.jpg?s=512&d=https%3A%2F%2Fa.slack-edge.com%2Fdf10d%2Fimg%2Favatars%2Fava_0021-512.png", "custom_css": null}, {"id": 8189, "slack_id": "U091ZS15AAG", "display_name": "Swastik Bhattarai", "bio": null, "projects_count": 0, "devlogs_count": 0, "votes_count": 0, "ships_count": 0, "projects": [], "coding_time_seconds": 86052, "coding_time_seconds_today": 1494, "balance": "You need to have a pocket watcher badge to view this.", "badges": [], "created_at": "2025-06-18T04:42:51.581-04:00", "updated_at": "2025-07-05T08:09:29.578-04:00", "avatar": "https://secure.gravatar.com/avatar/d0e79398cd74146d1562039e5e47251e.jpg?s=512&d=https%3A%2F%2Fa.slack-edge.com%2Fdf10d%2Fimg%2Favatars%2Fava_0023-512.png", "custom_css": null}, {"id": 8190, "slack_id": "U091KM3G7B5", "display_name": "WG", "bio": null, "projects_count": 0, "devlogs_count": 0, "votes_count": 0, "ships_count": 0, "projects": [], "coding_time_seconds": 0, "coding_time_seconds_today": 0, "balance": "You need to have a pocket watcher badge to view this.", "badges": [], "created_at": "2025-06-18T04:43:26.548-04:00", "updated_at": "2025-07-03T19:47:03.193-04:00", "avatar": "https://secure.gravatar.com/avatar/ebbce8997d354ca6662efadab5738689.jpg?s=512&d=https%3A%2F%2Fa.slack-edge.com%2Fdf10d%2Fimg%2Favatars%2Fava_0012-512.png", "custom_css": null}, {"id": 8191, "slack_id": "U08NPBLURLM", "display_name": "arjanchaudharyy", "bio": null, "projects_count": 0, "devlogs_count": 0, "votes_count": 0, "ships_count": 0, "projects": [], "coding_time_seconds": 0, "coding_time_seconds_today": 0, "balance": "You need to have a pocket watcher badge to view this.", "badges": [], "created_at": "2025-06-18T04:43:54.643-04:00", "updated_at": "2025-07-06T02:10:16.245-04:00", "avatar": "https://secure.gravatar.com/avatar/00c146023675472483cc41bca71bb40d.jpg?s=512&d=https%3A%2F%2Fa.slack-edge.com%2Fdf10d%2Fimg%2Favatars%2Fava_0004-512.png", "custom_css": null}, {"id": 8192, "slack_id": "U091Y0ZJTJR", "display_name": "Gladiator", "bio": null, "projects_count": 0, "devlogs_count": 0, "votes_count": 0, "ships_count": 0, "projects": [], "coding_time_seconds": 0, "coding_time_seconds_today": 0, "balance": "You need to have a pocket watcher badge to view this.", "badges": [], "created_at": "2025-06-18T04:44:07.236-04:00", "updated_at": "2025-07-03T19:47:03.859-04:00", "avatar": "https://secure.gravatar.com/avatar/2a91a45ac9ae8bbddcb5a22abcbeead8.jpg?s=512&d=https%3A%2F%2Fa.slack-edge.com%2Fdf10d%2Fimg%2Favatars%2Fava_0007-512.png", "custom_css": null}, {"id": 8193, "slack_id": "U091ZCYLZNE", "display_name": "Aditya Singh", "bio": null, "projects_count": 0, "devlogs_count": 0, "votes_count": 0, "ships_count": 0, "projects": [], "coding_time_seconds": 0, "coding_time_seconds_today": 0, "balance": "You need to have a pocket watcher badge to view this.", "badges": [], "created_at": "2025-06-18T04:44:27.532-04:00", "updated_at": "2025-07-03T19:47:04.127-04:00", "avatar": "https://secure.gravatar.com/avatar/f5225e84fd0bf9fecaacf3715677df16.jpg?s=512&d=https%3A%2F%2Fa.slack-edge.com%2Fdf10d%2Fimg%2Favatars%2Fava_0017-512.png", "custom_css": null}, {"id": 8194, "slack_id": "U07F74HD1NW", "display_name": "Riz", "bio": "", "projects_count": 0, "devlogs_count": 0, "votes_count": 1, "ships_count": 0, "projects": [], "coding_time_seconds": 0, "coding_time_seconds_today": 0, "balance": "You need to have a pocket watcher badge to view this.", "badges": [], "created_at": "2025-06-18T04:45:38.144-04:00", "updated_at": "2025-08-09T09:54:31.405-04:00", "avatar": "https://secure.gravatar.com/avatar/8ee0e60755be2bd0dd58c2445ee3d189.jpg?s=512&d=https%3A%2F%2Fa.slack-edge.com%2Fdf10d%2Fimg%2Favatars%2Fava_0006-512.png", "custom_css": null}, {"id": 8195, "slack_id": "U091XBJUGE8", "display_name": "Vihaan Singh (VS)", "bio": null, "projects_count": 1, "devlogs_count": 0, "votes_count": 0, "ships_count": 0, "projects": [{"id": 1773, "title": "Buckshot Bullet Count", "devlogs_count": 0, "created_at": "2025-06-19T08:02:24.148-04:00"}], "coding_time_seconds": 10596, "coding_time_seconds_today": 0, "balance": "You need to have a pocket watcher badge to view this.", "badges": [], "created_at": "2025-06-18T04:45:50.674-04:00", "updated_at": "2025-07-03T19:47:04.654-04:00", "avatar": "https://avatars.slack-edge.com/2025-06-18/9089985020624_94520c543546444ef13b_original.jpg", "custom_css": null}, {"id": 8196, "slack_id": "U091JCTGUDV", "display_name": "Pixel", "bio": "", "projects_count": 7, "devlogs_count": 31, "votes_count": 94, "ships_count": 7, "projects": [{"id": 1780, "title": "SHG Management", "devlogs_count": 6, "created_at": "2025-06-19T08:27:37.599-04:00"}, {"id": 8157, "title": "Github Profile", "devlogs_count": 1, "created_at": "2025-07-25T01:51:46.823-04:00"}, {"id": 8985, "title": "Syllabo", "devlogs_count": 10, "created_at": "2025-07-30T05:00:49.186-04:00"}, {"id": 12524, "title": "Birthday Time Capsule", "devlogs_count": 1, "created_at": "2025-08-29T00:54:48.972-04:00"}, {"id": 1790, "title": "YouTube Screenshot Helper Extension", "devlogs_count": 8, "created_at": "2025-06-19T08:55:10.013-04:00"}, {"id": 10241, "title": "UIBloatwareRegistry", "devlogs_count": 1, "created_at": "2025-08-05T10:32:43.424-04:00"}, {"id": 4678, "title": "Echo Weaver", "devlogs_count": 4, "created_at": "2025-07-01T04:28:18.317-04:00"}], "coding_time_seconds": 279495, "coding_time_seconds_today": 0, "balance": "You need to have a pocket watcher badge to view this.", "badges": [{"name": "Maiden Voyage", "text": "you shipped your first project! the journey begins...", "icon": "\ud83d\udea2"}, {"name": "Ballot Stuffer", "text": "vote 100 times.", "icon": "https://summer.hackclub.com/assets/i_voted-bf851b48.png"}], "created_at": "2025-06-18T04:45:55.800-04:00", "updated_at": "2025-09-10T22:55:13.559-04:00", "avatar": "https://avatars.slack-edge.com/2025-07-07/9155959789701_536c44252b3faf102258_original.png", "custom_css": null}, {"id": 8197, "slack_id": "U091Y1WQAP7", "display_name": "Pingu", "bio": null, "projects_count": 1, "devlogs_count": 2, "votes_count": 0, "ships_count": 0, "projects": [{"id": 1533, "title": "Blitzo", "devlogs_count": 2, "created_at": "2025-06-18T17:38:35.243-04:00"}], "coding_time_seconds": 382264, "coding_time_seconds_today": 0, "balance": "You need to have a pocket watcher badge to view this.", "badges": [], "created_at": "2025-06-18T04:48:00.281-04:00", "updated_at": "2025-08-10T05:15:55.445-04:00", "avatar": "https://avatars.slack-edge.com/2025-06-18/9066319373669_df48a32cda7b5edfee02_original.jpg", "custom_css": null}, {"id": 8198, "slack_id": "U091JCZMFC7", "display_name": "omar amrouss", "bio": null, "projects_count": 0, "devlogs_count": 0, "votes_count": 0, "ships_count": 0, "projects": [], "coding_time_seconds": 0, "coding_time_seconds_today": 0, "balance": "You need to have a pocket watcher badge to view this.", "badges": [], "created_at": "2025-06-18T04:49:03.139-04:00", "updated_at": "2025-07-05T02:09:13.520-04:00", "avatar": "https://secure.gravatar.com/avatar/d2250066d20e47e846c694fc62f3fb5b.jpg?s=512&d=https%3A%2F%2Fa.slack-edge.com%2Fdf10d%2Fimg%2Favatars%2Fava_0010-512.png", "custom_css": null}, {"id": 8199, "slack_id": "U091ZTGSFFE", "display_name": "Quark", "bio": null, "projects_count": 0, "devlogs_count": 0, "votes_count": 0, "ships_count": 0, "projects": [], "coding_time_seconds": 12532, "coding_time_seconds_today": 0, "balance": "You need to have a pocket watcher badge to view this.", "badges": [], "created_at": "2025-06-18T04:50:35.761-04:00", "updated_at": "2025-07-03T21:58:14.271-04:00", "avatar": "https://secure.gravatar.com/avatar/8ca4f1f17c60180224baaf509d46fd32.jpg?s=512&d=https%3A%2F%2Fa.slack-edge.com%2Fdf10d%2Fimg%2Favatars%2Fava_0019-512.png", "custom_css": null}, {"id": 8200, "slack_id": "U091T5S1EA2", "display_name": "hkhanh_28", "bio": null, "projects_count": 0, "devlogs_count": 0, "votes_count": 0, "ships_count": 0, "projects": [], "coding_time_seconds": 0, "coding_time_seconds_today": 0, "balance": "You need to have a pocket watcher badge to view this.", "badges": [], "created_at": "2025-06-18T04:50:43.546-04:00", "updated_at": "2025-07-04T02:27:37.967-04:00", "avatar": "https://secure.gravatar.com/avatar/5ced442d0f6a0005d86d0a0a1e8376f1.jpg?s=512&d=https%3A%2F%2Fa.slack-edge.com%2Fdf10d%2Fimg%2Favatars%2Fava_0012-512.png", "custom_css": null}], "pagination": {"page": 410, "pages": 1192, "count": 23828, "items": 20}}