{"users": [{"id": 8201, "slack_id": "U091T6MCC1L", "display_name": "Jaydev Singh", "bio": null, "projects_count": 0, "devlogs_count": 0, "votes_count": 0, "ships_count": 0, "projects": [], "coding_time_seconds": 57175, "coding_time_seconds_today": 0, "balance": "You need to have a pocket watcher badge to view this.", "badges": [], "created_at": "2025-06-18T04:53:20.712-04:00", "updated_at": "2025-07-04T02:27:38.125-04:00", "avatar": "https://avatars.slack-edge.com/2025-06-18/9061017767027_533517d47bed33356d45_original.jpg", "custom_css": null}, {"id": 8202, "slack_id": "U091SQ4P8DR", "display_name": "Brian Murithi", "bio": null, "projects_count": 0, "devlogs_count": 0, "votes_count": 0, "ships_count": 0, "projects": [], "coding_time_seconds": 0, "coding_time_seconds_today": 0, "balance": "You need to have a pocket watcher badge to view this.", "badges": [], "created_at": "2025-06-18T04:53:35.219-04:00", "updated_at": "2025-07-03T19:47:05.980-04:00", "avatar": "https://secure.gravatar.com/avatar/b164ba69464d54c69ebb58bee7d26d8c.jpg?s=512&d=https%3A%2F%2Fa.slack-edge.com%2Fdf10d%2Fimg%2Favatars%2Fava_0015-512.png", "custom_css": null}, {"id": 8203, "slack_id": "U091J3Q811V", "display_name": "Wisdom Ofogba", "bio": null, "projects_count": 0, "devlogs_count": 0, "votes_count": 0, "ships_count": 0, "projects": [], "coding_time_seconds": 0, "coding_time_seconds_today": 0, "balance": "You need to have a pocket watcher badge to view this.", "badges": [], "created_at": "2025-06-18T04:54:44.806-04:00", "updated_at": "2025-07-03T19:47:06.252-04:00", "avatar": "https://secure.gravatar.com/avatar/cc9d7be4ef198d5365b73840d7d08052.jpg?s=512&d=https%3A%2F%2Fa.slack-edge.com%2Fdf10d%2Fimg%2Favatars%2Fava_0012-512.png", "custom_css": null}, {"id": 8204, "slack_id": "U091ZEDE1S6", "display_name": "bozkurt", "bio": null, "projects_count": 0, "devlogs_count": 0, "votes_count": 0, "ships_count": 0, "projects": [], "coding_time_seconds": 0, "coding_time_seconds_today": 0, "balance": "You need to have a pocket watcher badge to view this.", "badges": [], "created_at": "2025-06-18T04:55:04.542-04:00", "updated_at": "2025-07-03T19:47:06.508-04:00", "avatar": "https://secure.gravatar.com/avatar/a021e6751e0972e5eee8b8d0002b588d.jpg?s=512&d=https%3A%2F%2Fa.slack-edge.com%2Fdf10d%2Fimg%2Favatars%2Fava_0017-512.png", "custom_css": null}, {"id": 8205, "slack_id": "U092C51KYBB", "display_name": "Ritesh Saini", "bio": null, "projects_count": 0, "devlogs_count": 0, "votes_count": 0, "ships_count": 0, "projects": [], "coding_time_seconds": 0, "coding_time_seconds_today": 0, "balance": "You need to have a pocket watcher badge to view this.", "badges": [], "created_at": "2025-06-18T04:55:25.882-04:00", "updated_at": "2025-07-03T19:47:06.776-04:00", "avatar": "https://secure.gravatar.com/avatar/605aea819fac89625f367d46cf01fc61.jpg?s=512&d=https%3A%2F%2Fa.slack-edge.com%2Fdf10d%2Fimg%2Favatars%2Fava_0010-512.png", "custom_css": null}, {"id": 8206, "slack_id": "U092N0WE0NL", "display_name": "Nikita", "bio": null, "projects_count": 0, "devlogs_count": 0, "votes_count": 0, "ships_count": 0, "projects": [], "coding_time_seconds": 0, "coding_time_seconds_today": 0, "balance": "You need to have a pocket watcher badge to view this.", "badges": [], "created_at": "2025-06-18T04:58:32.884-04:00", "updated_at": "2025-07-03T19:47:07.035-04:00", "avatar": "https://secure.gravatar.com/avatar/9698bbdfe7882e1762069f0a09cb91ac.jpg?s=512&d=https%3A%2F%2Fa.slack-edge.com%2Fdf10d%2Fimg%2Favatars%2Fava_0002-512.png", "custom_css": null}, {"id": 8207, "slack_id": "U091ZF388G2", "display_name": "Zanden Koh", "bio": null, "projects_count": 0, "devlogs_count": 0, "votes_count": 0, "ships_count": 0, "projects": [], "coding_time_seconds": 0, "coding_time_seconds_today": 0, "balance": "You need to have a pocket watcher badge to view this.", "badges": [], "created_at": "2025-06-18T05:00:03.608-04:00", "updated_at": "2025-07-07T14:41:16.618-04:00", "avatar": "https://avatars.slack-edge.com/2025-06-18/9061053539107_4cdd3ca4c35660d6c042_original.jpg", "custom_css": null}, {"id": 8208, "slack_id": "U091ZF27VFU", "display_name": "Pedro Teixeira", "bio": null, "projects_count": 0, "devlogs_count": 0, "votes_count": 0, "ships_count": 0, "projects": [], "coding_time_seconds": 0, "coding_time_seconds_today": 0, "balance": "You need to have a pocket watcher badge to view this.", "badges": [], "created_at": "2025-06-18T05:00:08.928-04:00", "updated_at": "2025-07-03T19:47:07.443-04:00", "avatar": "https://secure.gravatar.com/avatar/cacb6b822b307a6a8f3272ccc1b59d32.jpg?s=512&d=https%3A%2F%2Fa.slack-edge.com%2Fdf10d%2Fimg%2Favatars%2Fava_0022-512.png", "custom_css": null}, {"id": 8209, "slack_id": "U08PFQZAH0F", "display_name": "jennie", "bio": null, "projects_count": 1, "devlogs_count": 10, "votes_count": 24, "ships_count": 1, "projects": [{"id": 7334, "title": "Bucket List App", "devlogs_count": 10, "created_at": "2025-07-21T02:39:47.862-04:00"}], "coding_time_seconds": 492531, "coding_time_seconds_today": 0, "balance": "You need to have a pocket watcher badge to view this.", "badges": [{"name": "Maiden Voyage", "text": "you shipped your first project! the journey begins...", "icon": "\ud83d\udea2"}], "created_at": "2025-06-18T05:00:21.795-04:00", "updated_at": "2025-09-10T22:55:14.015-04:00", "avatar": "https://avatars.slack-edge.com/2025-05-31/9004372173136_5ef8fd734f785b917dd4_original.png", "custom_css": null}, {"id": 8210, "slack_id": "U092N14NKQ8", "display_name": "alvaro", "bio": null, "projects_count": 0, "devlogs_count": 0, "votes_count": 0, "ships_count": 0, "projects": [], "coding_time_seconds": 2506, "coding_time_seconds_today": 0, "balance": "You need to have a pocket watcher badge to view this.", "badges": [], "created_at": "2025-06-18T05:00:35.016-04:00", "updated_at": "2025-07-03T19:47:08.001-04:00", "avatar": "https://secure.gravatar.com/avatar/3c7a162aa177619d1857345bb02dbf92.jpg?s=512&d=https%3A%2F%2Fa.slack-edge.com%2Fdf10d%2Fimg%2Favatars%2Fava_0025-512.png", "custom_css": null}, {"id": 8211, "slack_id": "U0823D7UYN9", "display_name": "Talha", "bio": null, "projects_count": 1, "devlogs_count": 1, "votes_count": 2, "ships_count": 1, "projects": [{"id": 2320, "title": "Discord Bot", "devlogs_count": 1, "created_at": "2025-06-20T17:22:28.191-04:00"}], "coding_time_seconds": 25771, "coding_time_seconds_today": 0, "balance": "You need to have a pocket watcher badge to view this.", "badges": [{"name": "Maiden Voyage", "text": "you shipped your first project! the journey begins...", "icon": "\ud83d\udea2"}], "created_at": "2025-06-18T05:03:02.982-04:00", "updated_at": "2025-09-10T22:55:14.070-04:00", "avatar": "https://secure.gravatar.com/avatar/604cda62783b9676b8d6b5bcc8c8e6e9.jpg?s=512&d=https%3A%2F%2Fa.slack-edge.com%2Fdf10d%2Fimg%2Favatars%2Fava_0013-512.png", "custom_css": null}, {"id": 8212, "slack_id": "U092N1XUD6U", "display_name": "Faisal Ansari", "bio": null, "projects_count": 0, "devlogs_count": 0, "votes_count": 0, "ships_count": 0, "projects": [], "coding_time_seconds": 19131, "coding_time_seconds_today": 0, "balance": "You need to have a pocket watcher badge to view this.", "badges": [], "created_at": "2025-06-18T05:04:10.435-04:00", "updated_at": "2025-07-03T19:47:08.450-04:00", "avatar": "https://avatars.slack-edge.com/2025-06-18/9080240046529_77c9e58a911c32744d10_original.png", "custom_css": null}, {"id": 8213, "slack_id": "U091T8NPY8N", "display_name": "CtrlAltYeet", "bio": null, "projects_count": 0, "devlogs_count": 0, "votes_count": 0, "ships_count": 0, "projects": [], "coding_time_seconds": 0, "coding_time_seconds_today": 0, "balance": "You need to have a pocket watcher badge to view this.", "badges": [], "created_at": "2025-06-18T05:08:18.436-04:00", "updated_at": "2025-07-03T19:47:08.808-04:00", "avatar": "https://secure.gravatar.com/avatar/0ae1efd91d37b53cc14a9c0344ba05d7.jpg?s=512&d=https%3A%2F%2Fa.slack-edge.com%2Fdf10d%2Fimg%2Favatars%2Fava_0001-512.png", "custom_css": null}, {"id": 8214, "slack_id": "U091JFMK3D5", "display_name": "Sujit Dwivedi", "bio": null, "projects_count": 0, "devlogs_count": 0, "votes_count": 0, "ships_count": 0, "projects": [], "coding_time_seconds": 0, "coding_time_seconds_today": 0, "balance": "You need to have a pocket watcher badge to view this.", "badges": [], "created_at": "2025-06-18T05:08:32.096-04:00", "updated_at": "2025-07-04T08:23:56.716-04:00", "avatar": "https://secure.gravatar.com/avatar/e7f038d75b15ae4488295ad6b422e773.jpg?s=512&d=https%3A%2F%2Fa.slack-edge.com%2Fdf10d%2Fimg%2Favatars%2Fava_0016-512.png", "custom_css": null}, {"id": 8215, "slack_id": "U091JGRR4FR", "display_name": "Lokesh Mishra", "bio": null, "projects_count": 0, "devlogs_count": 0, "votes_count": 0, "ships_count": 0, "projects": [], "coding_time_seconds": 0, "coding_time_seconds_today": 0, "balance": "You need to have a pocket watcher badge to view this.", "badges": [], "created_at": "2025-06-18T05:10:01.633-04:00", "updated_at": "2025-07-05T02:09:14.746-04:00", "avatar": "https://avatars.slack-edge.com/2025-06-18/9080269674481_3e8b70186367322239d5_original.jpg", "custom_css": null}, {"id": 8216, "slack_id": "U091T2RJS2F", "display_name": "Lethabo", "bio": null, "projects_count": 0, "devlogs_count": 0, "votes_count": 0, "ships_count": 0, "projects": [], "coding_time_seconds": 0, "coding_time_seconds_today": 0, "balance": "You need to have a pocket watcher badge to view this.", "badges": [], "created_at": "2025-06-18T05:11:34.452-04:00", "updated_at": "2025-07-03T21:58:15.442-04:00", "avatar": "https://secure.gravatar.com/avatar/867689b599a0dc3fdc75e329c58c94cf.jpg?s=512&d=https%3A%2F%2Fa.slack-edge.com%2Fdf10d%2Fimg%2Favatars%2Fava_0019-512.png", "custom_css": null}, {"id": 8217, "slack_id": "U091T9KPMML", "display_name": "Elliot C.", "bio": null, "projects_count": 0, "devlogs_count": 0, "votes_count": 0, "ships_count": 0, "projects": [], "coding_time_seconds": 0, "coding_time_seconds_today": 0, "balance": "You need to have a pocket watcher badge to view this.", "badges": [], "created_at": "2025-06-18T05:11:53.052-04:00", "updated_at": "2025-07-03T19:47:09.572-04:00", "avatar": "https://secure.gravatar.com/avatar/3db449d9e9d18a4474ad5e8afed89bf0.jpg?s=512&d=https%3A%2F%2Fa.slack-edge.com%2Fdf10d%2Fimg%2Favatars%2Fava_0025-512.png", "custom_css": null}, {"id": 8218, "slack_id": "U03BTM52CN6", "display_name": "Vedant", "bio": null, "projects_count": 0, "devlogs_count": 1, "votes_count": 0, "ships_count": 0, "projects": [], "coding_time_seconds": 269281, "coding_time_seconds_today": 0, "balance": "You need to have a pocket watcher badge to view this.", "badges": [{"name": "Maiden Voyage", "text": "you shipped your first project! the journey begins...", "icon": "\ud83d\udea2"}], "created_at": "2025-06-18T05:13:27.049-04:00", "updated_at": "2025-09-10T22:55:14.315-04:00", "avatar": "https://avatars.slack-edge.com/2022-04-17/3401723433938_f8d3913952c2248768fd_original.png", "custom_css": null}, {"id": 8219, "slack_id": "U092018M468", "display_name": "Salodo", "bio": null, "projects_count": 1, "devlogs_count": 0, "votes_count": 0, "ships_count": 0, "projects": [{"id": 1406, "title": "Imagine Game Dev", "devlogs_count": 0, "created_at": "2025-06-18T13:53:52.802-04:00"}], "coding_time_seconds": 57410, "coding_time_seconds_today": 0, "balance": "You need to have a pocket watcher badge to view this.", "badges": [], "created_at": "2025-06-18T05:14:19.921-04:00", "updated_at": "2025-07-27T13:50:04.377-04:00", "avatar": "https://secure.gravatar.com/avatar/8e6677a2badabb4bd9063a31d2c1f3ce.jpg?s=512&d=https%3A%2F%2Fa.slack-edge.com%2Fdf10d%2Fimg%2Favatars%2Fava_0012-512.png", "custom_css": null}, {"id": 8220, "slack_id": "U091T9X0KPY", "display_name": "Kim Th\u00e1i Th\u1ecb Ng\u1ecdc", "bio": null, "projects_count": 0, "devlogs_count": 0, "votes_count": 0, "ships_count": 0, "projects": [], "coding_time_seconds": 0, "coding_time_seconds_today": 0, "balance": "You need to have a pocket watcher badge to view this.", "badges": [], "created_at": "2025-06-18T05:15:02.234-04:00", "updated_at": "2025-07-03T19:47:10.293-04:00", "avatar": "https://avatars.slack-edge.com/2025-06-18/9068086578580_ff4cfa7164b00da57923_original.jpg", "custom_css": null}], "pagination": {"page": 411, "pages": 1192, "count": 23828, "items": 20}}