{"users": [{"id": 8221, "slack_id": "U091VDXTA3E", "display_name": "Vaishnav Uppalapati", "bio": null, "projects_count": 0, "devlogs_count": 0, "votes_count": 0, "ships_count": 0, "projects": [], "coding_time_seconds": 0, "coding_time_seconds_today": 0, "balance": "You need to have a pocket watcher badge to view this.", "badges": [], "created_at": "2025-06-18T05:15:36.113-04:00", "updated_at": "2025-07-03T21:58:15.821-04:00", "avatar": "https://secure.gravatar.com/avatar/533b62a7fe5d01873b545eb664e5c1e4.jpg?s=512&d=https%3A%2F%2Fa.slack-edge.com%2Fdf10d%2Fimg%2Favatars%2Fava_0018-512.png", "custom_css": null}, {"id": 8222, "slack_id": "U0920200V9S", "display_name": "Taco", "bio": null, "projects_count": 0, "devlogs_count": 0, "votes_count": 0, "ships_count": 0, "projects": [], "coding_time_seconds": 0, "coding_time_seconds_today": 0, "balance": "You need to have a pocket watcher badge to view this.", "badges": [], "created_at": "2025-06-18T05:15:53.526-04:00", "updated_at": "2025-07-03T21:58:15.955-04:00", "avatar": "https://secure.gravatar.com/avatar/983f128b43350bc75abf1b793706186a.jpg?s=512&d=https%3A%2F%2Fa.slack-edge.com%2Fdf10d%2Fimg%2Favatars%2Fava_0010-512.png", "custom_css": null}, {"id": 8223, "slack_id": "U092C8D7U4R", "display_name": "Ying Xuan", "bio": null, "projects_count": 0, "devlogs_count": 0, "votes_count": 0, "ships_count": 0, "projects": [], "coding_time_seconds": 0, "coding_time_seconds_today": 0, "balance": "You need to have a pocket watcher badge to view this.", "badges": [], "created_at": "2025-06-18T05:16:08.888-04:00", "updated_at": "2025-07-03T19:47:10.853-04:00", "avatar": "https://secure.gravatar.com/avatar/bd104c954fe3cc5014bce6479dd29175.jpg?s=512&d=https%3A%2F%2Fa.slack-edge.com%2Fdf10d%2Fimg%2Favatars%2Fava_0022-512.png", "custom_css": null}, {"id": 8224, "slack_id": "U06LL38T4CB", "display_name": "Golam Yasin", "bio": null, "projects_count": 0, "devlogs_count": 0, "votes_count": 0, "ships_count": 0, "projects": [], "coding_time_seconds": 0, "coding_time_seconds_today": 0, "balance": "You need to have a pocket watcher badge to view this.", "badges": [], "created_at": "2025-06-18T05:16:52.299-04:00", "updated_at": "2025-07-03T19:47:11.115-04:00", "avatar": "https://secure.gravatar.com/avatar/5e62d9b301dc47dbde15c4a1a83c78ea.jpg?s=512&d=https%3A%2F%2Fa.slack-edge.com%2Fdf10d%2Fimg%2Favatars%2Fava_0018-512.png", "custom_css": null}, {"id": 8225, "slack_id": "U091ZHNBVMG", "display_name": "Nikolai", "bio": null, "projects_count": 1, "devlogs_count": 9, "votes_count": 0, "ships_count": 0, "projects": [{"id": 2817, "title": "WeatherBus", "devlogs_count": 9, "created_at": "2025-06-22T06:24:11.370-04:00"}], "coding_time_seconds": 285470, "coding_time_seconds_today": 0, "balance": "You need to have a pocket watcher badge to view this.", "badges": [], "created_at": "2025-06-18T05:17:23.067-04:00", "updated_at": "2025-08-09T08:03:53.462-04:00", "avatar": "https://secure.gravatar.com/avatar/c81653b11a0f0efa300ced559d2452f1.jpg?s=512&d=https%3A%2F%2Fa.slack-edge.com%2Fdf10d%2Fimg%2Favatars%2Fava_0026-512.png", "custom_css": null}, {"id": 8226, "slack_id": "U091Z9CUQ2E", "display_name": "HamZaTiK", "bio": null, "projects_count": 0, "devlogs_count": 0, "votes_count": 0, "ships_count": 0, "projects": [], "coding_time_seconds": 0, "coding_time_seconds_today": 0, "balance": "You need to have a pocket watcher badge to view this.", "badges": [], "created_at": "2025-06-18T05:19:25.841-04:00", "updated_at": "2025-07-03T19:47:11.662-04:00", "avatar": "https://secure.gravatar.com/avatar/8376acbb055f17fa4a14100b205eaab5.jpg?s=512&d=https%3A%2F%2Fa.slack-edge.com%2Fdf10d%2Fimg%2Favatars%2Fava_0005-512.png", "custom_css": null}, {"id": 8227, "slack_id": "U09202SDJCU", "display_name": "Taseeb Ali", "bio": null, "projects_count": 0, "devlogs_count": 0, "votes_count": 0, "ships_count": 0, "projects": [], "coding_time_seconds": 0, "coding_time_seconds_today": 0, "balance": "You need to have a pocket watcher badge to view this.", "badges": [], "created_at": "2025-06-18T05:20:13.558-04:00", "updated_at": "2025-07-03T19:47:11.923-04:00", "avatar": "https://secure.gravatar.com/avatar/a0d8336060a5deaa3dfc117a87e70af0.jpg?s=512&d=https%3A%2F%2Fa.slack-edge.com%2Fdf10d%2Fimg%2Favatars%2Fava_0005-512.png", "custom_css": null}, {"id": 8228, "slack_id": "U092N4EJY00", "display_name": "KEVIN ANTHONY VELASCO ORJALO Student", "bio": null, "projects_count": 0, "devlogs_count": 0, "votes_count": 0, "ships_count": 0, "projects": [], "coding_time_seconds": 0, "coding_time_seconds_today": 0, "balance": "You need to have a pocket watcher badge to view this.", "badges": [], "created_at": "2025-06-18T05:20:38.122-04:00", "updated_at": "2025-07-03T19:47:12.205-04:00", "avatar": "https://avatars.slack-edge.com/2025-06-18/9080321107137_aa689bf5e88d461ada9c_original.png", "custom_css": null}, {"id": 8229, "slack_id": "U091JJ9MA87", "display_name": "Timothy", "bio": null, "projects_count": 0, "devlogs_count": 0, "votes_count": 0, "ships_count": 0, "projects": [], "coding_time_seconds": 0, "coding_time_seconds_today": 0, "balance": "You need to have a pocket watcher badge to view this.", "badges": [], "created_at": "2025-06-18T05:20:43.152-04:00", "updated_at": "2025-07-03T19:47:12.474-04:00", "avatar": "https://secure.gravatar.com/avatar/c51af31d188840b915832648f9a5a28c.jpg?s=512&d=https%3A%2F%2Fa.slack-edge.com%2Fdf10d%2Fimg%2Favatars%2Fava_0004-512.png", "custom_css": null}, {"id": 8230, "slack_id": "U092032LABW", "display_name": "Tree", "bio": null, "projects_count": 0, "devlogs_count": 0, "votes_count": 0, "ships_count": 0, "projects": [], "coding_time_seconds": 0, "coding_time_seconds_today": 0, "balance": "You need to have a pocket watcher badge to view this.", "badges": [], "created_at": "2025-06-18T05:21:17.983-04:00", "updated_at": "2025-07-03T19:47:12.730-04:00", "avatar": "https://secure.gravatar.com/avatar/8a59b36d343afc46adce59824b6f4aca.jpg?s=512&d=https%3A%2F%2Fa.slack-edge.com%2Fdf10d%2Fimg%2Favatars%2Fava_0014-512.png", "custom_css": null}, {"id": 8231, "slack_id": "U092C8XCZ41", "display_name": "Prasandika Balage", "bio": null, "projects_count": 0, "devlogs_count": 0, "votes_count": 0, "ships_count": 0, "projects": [], "coding_time_seconds": 0, "coding_time_seconds_today": 0, "balance": "You need to have a pocket watcher badge to view this.", "badges": [], "created_at": "2025-06-18T05:21:58.371-04:00", "updated_at": "2025-07-03T21:46:19.700-04:00", "avatar": "https://secure.gravatar.com/avatar/bda0a617b96b1f4487c1ada66b4ef45c.jpg?s=512&d=https%3A%2F%2Fa.slack-edge.com%2Fdf10d%2Fimg%2Favatars%2Fava_0011-512.png", "custom_css": null}, {"id": 8232, "slack_id": "U091Y75HR29", "display_name": "Vivaan Mathematics", "bio": null, "projects_count": 0, "devlogs_count": 0, "votes_count": 0, "ships_count": 0, "projects": [], "coding_time_seconds": 0, "coding_time_seconds_today": 0, "balance": "You need to have a pocket watcher badge to view this.", "badges": [], "created_at": "2025-06-18T05:22:06.427-04:00", "updated_at": "2025-07-03T19:47:13.131-04:00", "avatar": "https://avatars.slack-edge.com/2025-06-18/9090169750112_1e5f9d2d530293b02087_original.png", "custom_css": null}, {"id": 8233, "slack_id": "U07BBQS0Z5J", "display_name": "twa", "bio": null, "projects_count": 0, "devlogs_count": 0, "votes_count": 0, "ships_count": 0, "projects": [], "coding_time_seconds": 1156, "coding_time_seconds_today": 0, "balance": "You need to have a pocket watcher badge to view this.", "badges": [], "created_at": "2025-06-18T05:22:22.041-04:00", "updated_at": "2025-08-19T04:32:28.128-04:00", "avatar": "https://avatars.slack-edge.com/2024-11-12/7998584178951_7db918a1621ca572c55c_original.png", "custom_css": null}, {"id": 8234, "slack_id": "U091Y6N9B37", "display_name": "Amanze Bruno", "bio": null, "projects_count": 0, "devlogs_count": 0, "votes_count": 0, "ships_count": 0, "projects": [], "coding_time_seconds": 0, "coding_time_seconds_today": 0, "balance": "You need to have a pocket watcher badge to view this.", "badges": [], "created_at": "2025-06-18T05:23:38.469-04:00", "updated_at": "2025-07-03T19:47:13.545-04:00", "avatar": "https://secure.gravatar.com/avatar/b4c8c99027194b95cf9b7f4681f530f1.jpg?s=512&d=https%3A%2F%2Fa.slack-edge.com%2Fdf10d%2Fimg%2Favatars%2Fava_0021-512.png", "custom_css": null}, {"id": 8235, "slack_id": "U091S79TJKU", "display_name": "4rkal", "bio": null, "projects_count": 0, "devlogs_count": 11, "votes_count": 42, "ships_count": 0, "projects": [], "coding_time_seconds": 467848, "coding_time_seconds_today": 515, "balance": "You need to have a pocket watcher badge to view this.", "badges": [{"name": "Maiden Voyage", "text": "you shipped your first project! the journey begins...", "icon": "\ud83d\udea2"}], "created_at": "2025-06-18T05:24:40.548-04:00", "updated_at": "2025-09-14T04:27:40.781-04:00", "avatar": "https://secure.gravatar.com/avatar/289478e869cd20f0772982a4971665c8.jpg?s=512&d=https%3A%2F%2Fa.slack-edge.com%2Fdf10d%2Fimg%2Favatars%2Fava_0017-512.png", "custom_css": null}, {"id": 8236, "slack_id": "U092N51GPG8", "display_name": "Marcos Sardina", "bio": null, "projects_count": 1, "devlogs_count": 11, "votes_count": 1, "ships_count": 1, "projects": [{"id": 3086, "title": "The Eternaut", "devlogs_count": 11, "created_at": "2025-06-23T04:02:13.347-04:00"}], "coding_time_seconds": 76429, "coding_time_seconds_today": 3274, "balance": "You need to have a pocket watcher badge to view this.", "badges": [{"name": "Maiden Voyage", "text": "you shipped your first project! the journey begins...", "icon": "\ud83d\udea2"}], "created_at": "2025-06-18T05:25:14.115-04:00", "updated_at": "2025-09-10T22:55:14.818-04:00", "avatar": "https://avatars.slack-edge.com/2025-06-18/9066271413333_700c6b7759066aaf3ec8_original.png", "custom_css": null}, {"id": 8237, "slack_id": "U092N57AYPJ", "display_name": "raj_dhende", "bio": null, "projects_count": 0, "devlogs_count": 0, "votes_count": 0, "ships_count": 0, "projects": [], "coding_time_seconds": 0, "coding_time_seconds_today": 0, "balance": "You need to have a pocket watcher badge to view this.", "badges": [], "created_at": "2025-06-18T05:27:08.669-04:00", "updated_at": "2025-07-07T14:41:18.615-04:00", "avatar": "https://secure.gravatar.com/avatar/abc0e4ce07ff691126f9e8b4ee348be6.jpg?s=512&d=https%3A%2F%2Fa.slack-edge.com%2Fdf10d%2Fimg%2Favatars%2Fava_0011-512.png", "custom_css": null}, {"id": 8238, "slack_id": "U091Y7309GV", "display_name": "Sankeerth Naidu", "bio": null, "projects_count": 0, "devlogs_count": 0, "votes_count": 0, "ships_count": 0, "projects": [], "coding_time_seconds": 0, "coding_time_seconds_today": 0, "balance": "You need to have a pocket watcher badge to view this.", "badges": [], "created_at": "2025-06-18T05:27:25.967-04:00", "updated_at": "2025-07-04T20:08:46.083-04:00", "avatar": "https://secure.gravatar.com/avatar/b4392b74fc3da7fe0725fa1eb46ffc04.jpg?s=512&d=https%3A%2F%2Fa.slack-edge.com%2Fdf10d%2Fimg%2Favatars%2Fava_0015-512.png", "custom_css": null}, {"id": 8239, "slack_id": "U091JKA3QJK", "display_name": "Abdul Wahab", "bio": null, "projects_count": 0, "devlogs_count": 0, "votes_count": 0, "ships_count": 0, "projects": [], "coding_time_seconds": 0, "coding_time_seconds_today": 0, "balance": "You need to have a pocket watcher badge to view this.", "badges": [], "created_at": "2025-06-18T05:27:28.745-04:00", "updated_at": "2025-07-03T19:47:14.352-04:00", "avatar": "https://secure.gravatar.com/avatar/1e4a23b708514ce2b233f226c5d2feae.jpg?s=512&d=https%3A%2F%2Fa.slack-edge.com%2Fdf10d%2Fimg%2Favatars%2Fava_0001-512.png", "custom_css": null}, {"id": 8240, "slack_id": "U091JKL01JT", "display_name": "Anuj Fulari", "bio": null, "projects_count": 0, "devlogs_count": 0, "votes_count": 0, "ships_count": 0, "projects": [], "coding_time_seconds": 0, "coding_time_seconds_today": 0, "balance": "You need to have a pocket watcher badge to view this.", "badges": [], "created_at": "2025-06-18T05:28:40.976-04:00", "updated_at": "2025-07-03T19:47:14.615-04:00", "avatar": "https://secure.gravatar.com/avatar/1c3d9107ddca1a215a6ce2d3dddbd051.jpg?s=512&d=https%3A%2F%2Fa.slack-edge.com%2Fdf10d%2Fimg%2Favatars%2Fava_0019-512.png", "custom_css": null}], "pagination": {"page": 412, "pages": 1192, "count": 23828, "items": 20}}