{"users": [{"id": 8241, "slack_id": "U091JKJ26S3", "display_name": "Abdul Khaled Arafat", "bio": null, "projects_count": 0, "devlogs_count": 0, "votes_count": 0, "ships_count": 0, "projects": [], "coding_time_seconds": 0, "coding_time_seconds_today": 0, "balance": "You need to have a pocket watcher badge to view this.", "badges": [], "created_at": "2025-06-18T05:29:55.607-04:00", "updated_at": "2025-07-03T19:47:14.879-04:00", "avatar": "https://secure.gravatar.com/avatar/92528e7e1139bc39c758172f77297a01.jpg?s=512&d=https%3A%2F%2Fa.slack-edge.com%2Fdf10d%2Fimg%2Favatars%2Fava_0016-512.png", "custom_css": null}, {"id": 8242, "slack_id": "U091SHWTABE", "display_name": "wyki", "bio": null, "projects_count": 0, "devlogs_count": 0, "votes_count": 0, "ships_count": 0, "projects": [], "coding_time_seconds": 0, "coding_time_seconds_today": 0, "balance": "You need to have a pocket watcher badge to view this.", "badges": [], "created_at": "2025-06-18T05:29:56.070-04:00", "updated_at": "2025-07-03T19:47:15.148-04:00", "avatar": "https://secure.gravatar.com/avatar/461ddf16a1014818d23e55cbfc3a5e1c.jpg?s=512&d=https%3A%2F%2Fa.slack-edge.com%2Fdf10d%2Fimg%2Favatars%2Fava_0020-512.png", "custom_css": null}, {"id": 8243, "slack_id": "U092N5X4DH6", "display_name": "Juhi Ghosh", "bio": null, "projects_count": 4, "devlogs_count": 8, "votes_count": 44, "ships_count": 3, "projects": [{"id": 10717, "title": "\ud83c\udf7d WHAT TO EAT? \u2013 Smart CLI Meal Recommender", "devlogs_count": 3, "created_at": "2025-08-10T02:27:13.057-04:00"}, {"id": 11460, "title": "KFC Website", "devlogs_count": 0, "created_at": "2025-08-16T05:04:50.890-04:00"}, {"id": 7325, "title": "Broadband vs Education", "devlogs_count": 2, "created_at": "2025-07-20T23:59:16.843-04:00"}, {"id": 10136, "title": "Life: In Pieces", "devlogs_count": 3, "created_at": "2025-08-04T09:20:58.845-04:00"}], "coding_time_seconds": 103318, "coding_time_seconds_today": 0, "balance": "You need to have a pocket watcher badge to view this.", "badges": [{"name": "Maiden Voyage", "text": "you shipped your first project! the journey begins...", "icon": "\ud83d\udea2"}], "created_at": "2025-06-18T05:31:02.805-04:00", "updated_at": "2025-09-10T22:55:15.025-04:00", "avatar": "https://avatars.slack-edge.com/2025-06-18/9066390283957_10b3d0c05a9456fc5bf3_original.jpg", "custom_css": null}, {"id": 8244, "slack_id": "U09204H6JG4", "display_name": "Ghanashyam Kadam (shyam)", "bio": null, "projects_count": 0, "devlogs_count": 0, "votes_count": 0, "ships_count": 0, "projects": [], "coding_time_seconds": 0, "coding_time_seconds_today": 0, "balance": "You need to have a pocket watcher badge to view this.", "badges": [], "created_at": "2025-06-18T05:31:54.907-04:00", "updated_at": "2025-07-03T19:47:15.559-04:00", "avatar": "https://avatars.slack-edge.com/2025-06-18/9061222824803_195f51a422829d5c4fc2_original.png", "custom_css": null}, {"id": 8245, "slack_id": "U091R8BKXPC", "display_name": "Dani", "bio": null, "projects_count": 0, "devlogs_count": 0, "votes_count": 0, "ships_count": 0, "projects": [], "coding_time_seconds": 0, "coding_time_seconds_today": 0, "balance": "You need to have a pocket watcher badge to view this.", "badges": [], "created_at": "2025-06-18T05:32:22.385-04:00", "updated_at": "2025-07-03T19:47:15.824-04:00", "avatar": "https://secure.gravatar.com/avatar/be67124d4bfda5cc83edaf0b4a46cf86.jpg?s=512&d=https%3A%2F%2Fa.slack-edge.com%2Fdf10d%2Fimg%2Favatars%2Fava_0013-512.png", "custom_css": null}, {"id": 8246, "slack_id": "U091Q9N1YKV", "display_name": "arcsin", "bio": null, "projects_count": 1, "devlogs_count": 13, "votes_count": 24, "ships_count": 1, "projects": [{"id": 2132, "title": "OhmCalc-sv", "devlogs_count": 13, "created_at": "2025-06-20T08:19:06.201-04:00"}], "coding_time_seconds": 75865, "coding_time_seconds_today": 0, "balance": "You need to have a pocket watcher badge to view this.", "badges": [{"name": "Maiden Voyage", "text": "you shipped your first project! the journey begins...", "icon": "\ud83d\udea2"}], "created_at": "2025-06-18T05:34:06.344-04:00", "updated_at": "2025-09-10T22:55:15.113-04:00", "avatar": "https://secure.gravatar.com/avatar/3a2e40cec6cf199b3ea992f39483a053.jpg?s=512&d=https%3A%2F%2Fa.slack-edge.com%2Fdf10d%2Fimg%2Favatars%2Fava_0012-512.png", "custom_css": null}, {"id": 8247, "slack_id": "U091Y9045RB", "display_name": "Prateek", "bio": null, "projects_count": 0, "devlogs_count": 0, "votes_count": 0, "ships_count": 0, "projects": [], "coding_time_seconds": 0, "coding_time_seconds_today": 0, "balance": "You need to have a pocket watcher badge to view this.", "badges": [], "created_at": "2025-06-18T05:34:31.759-04:00", "updated_at": "2025-07-03T19:47:16.352-04:00", "avatar": "https://secure.gravatar.com/avatar/05979d394aacc9d41b21950946cbc9d2.jpg?s=512&d=https%3A%2F%2Fa.slack-edge.com%2Fdf10d%2Fimg%2Favatars%2Fava_0003-512.png", "custom_css": null}, {"id": 8248, "slack_id": "U091ZL2LENN", "display_name": "ranim", "bio": null, "projects_count": 0, "devlogs_count": 0, "votes_count": 0, "ships_count": 0, "projects": [], "coding_time_seconds": 0, "coding_time_seconds_today": 0, "balance": "You need to have a pocket watcher badge to view this.", "badges": [], "created_at": "2025-06-18T05:34:56.631-04:00", "updated_at": "2025-07-03T19:47:16.656-04:00", "avatar": "https://secure.gravatar.com/avatar/4e02c7083a28699117b7be71adac3a11.jpg?s=512&d=https%3A%2F%2Fa.slack-edge.com%2Fdf10d%2Fimg%2Favatars%2Fava_0006-512.png", "custom_css": null}, {"id": 8249, "slack_id": "U091HGY7X0F", "display_name": "jayrajsinh jadeja", "bio": null, "projects_count": 0, "devlogs_count": 0, "votes_count": 0, "ships_count": 0, "projects": [], "coding_time_seconds": 120, "coding_time_seconds_today": 0, "balance": "You need to have a pocket watcher badge to view this.", "badges": [], "created_at": "2025-06-18T05:35:19.360-04:00", "updated_at": "2025-07-03T19:47:16.920-04:00", "avatar": "https://secure.gravatar.com/avatar/42cc71c9ca199984caef027a800cb3ff.jpg?s=512&d=https%3A%2F%2Fa.slack-edge.com%2Fdf10d%2Fimg%2Favatars%2Fava_0014-512.png", "custom_css": null}, {"id": 8250, "slack_id": "U091ZL4EN5Q", "display_name": "Habib", "bio": null, "projects_count": 0, "devlogs_count": 0, "votes_count": 0, "ships_count": 0, "projects": [], "coding_time_seconds": 843, "coding_time_seconds_today": 0, "balance": "You need to have a pocket watcher badge to view this.", "badges": [], "created_at": "2025-06-18T05:36:31.640-04:00", "updated_at": "2025-07-03T19:47:17.205-04:00", "avatar": "https://secure.gravatar.com/avatar/4f6da45ff56037e9688ab515e1abe567.jpg?s=512&d=https%3A%2F%2Fa.slack-edge.com%2Fdf10d%2Fimg%2Favatars%2Fava_0017-512.png", "custom_css": null}, {"id": 8251, "slack_id": "U091Y77EVJQ", "display_name": "Beatriz", "bio": null, "projects_count": 0, "devlogs_count": 0, "votes_count": 0, "ships_count": 0, "projects": [], "coding_time_seconds": 0, "coding_time_seconds_today": 0, "balance": "You need to have a pocket watcher badge to view this.", "badges": [], "created_at": "2025-06-18T05:36:33.338-04:00", "updated_at": "2025-07-03T21:58:17.929-04:00", "avatar": "https://secure.gravatar.com/avatar/fc5ef0c76c1fdecc38d8603b5bfd79df.jpg?s=512&d=https%3A%2F%2Fa.slack-edge.com%2Fdf10d%2Fimg%2Favatars%2Fava_0007-512.png", "custom_css": null}, {"id": 8252, "slack_id": "U08T1CD0DGD", "display_name": "Khusi Nisa Banu", "bio": null, "projects_count": 0, "devlogs_count": 0, "votes_count": 0, "ships_count": 0, "projects": [], "coding_time_seconds": 0, "coding_time_seconds_today": 0, "balance": "You need to have a pocket watcher badge to view this.", "badges": [], "created_at": "2025-06-18T05:37:07.591-04:00", "updated_at": "2025-08-10T11:52:13.253-04:00", "avatar": "https://secure.gravatar.com/avatar/5cd3239270c6f85a1c0a8f76a094c88e.jpg?s=512&d=https%3A%2F%2Fa.slack-edge.com%2Fdf10d%2Fimg%2Favatars%2Fava_0003-512.png", "custom_css": null}, {"id": 8253, "slack_id": "U091TDGE2G6", "display_name": "milvh.rar", "bio": null, "projects_count": 0, "devlogs_count": 0, "votes_count": 0, "ships_count": 0, "projects": [], "coding_time_seconds": 0, "coding_time_seconds_today": 0, "balance": "You need to have a pocket watcher badge to view this.", "badges": [], "created_at": "2025-06-18T05:39:02.847-04:00", "updated_at": "2025-07-03T19:47:17.832-04:00", "avatar": "https://secure.gravatar.com/avatar/2592376309aa8de55335d149e3373800.jpg?s=512&d=https%3A%2F%2Fa.slack-edge.com%2Fdf10d%2Fimg%2Favatars%2Fava_0002-512.png", "custom_css": null}, {"id": 8254, "slack_id": "U092N6ZQUL8", "display_name": "Nivesh Jain", "bio": null, "projects_count": 0, "devlogs_count": 0, "votes_count": 0, "ships_count": 0, "projects": [], "coding_time_seconds": 0, "coding_time_seconds_today": 0, "balance": "You need to have a pocket watcher badge to view this.", "badges": [], "created_at": "2025-06-18T05:39:21.204-04:00", "updated_at": "2025-07-03T19:47:18.106-04:00", "avatar": "https://secure.gravatar.com/avatar/0c8070346e2bd04d9a77c34853dc3bbc.jpg?s=512&d=https%3A%2F%2Fa.slack-edge.com%2Fdf10d%2Fimg%2Favatars%2Fava_0020-512.png", "custom_css": null}, {"id": 8255, "slack_id": "U092N79U27J", "display_name": "Utkarsh Kumar", "bio": "aka DS", "projects_count": 5, "devlogs_count": 77, "votes_count": 0, "ships_count": 4, "projects": [{"id": 2228, "title": "DITMail - Fancy email infra", "devlogs_count": 32, "created_at": "2025-06-20T13:41:03.792-04:00"}, {"id": 7691, "title": "WhatsYour.Info - Your Unified Digital Identity Platform", "devlogs_count": 25, "created_at": "2025-07-22T14:59:50.111-04:00"}, {"id": 10463, "title": "DITBlogs - The Effortless Blogging Platform for Every App", "devlogs_count": 12, "created_at": "2025-08-07T09:10:08.399-04:00"}, {"id": 6237, "title": "FreeCustom.Email - Temporary Email Service", "devlogs_count": 4, "created_at": "2025-07-11T13:35:58.585-04:00"}, {"id": 1675, "title": "Exam Response Analyzer - Detailed Subject-wise Analysis", "devlogs_count": 4, "created_at": "2025-06-19T02:21:38.464-04:00"}], "coding_time_seconds": 964749, "coding_time_seconds_today": 0, "balance": "You need to have a pocket watcher badge to view this.", "badges": [{"name": "Maiden Voyage", "text": "you shipped your first project! the journey begins...", "icon": "\ud83d\udea2"}, {"name": "Ballot Stuffer", "text": "vote 100 times.", "icon": "https://summer.hackclub.com/assets/i_voted-bf851b48.png"}], "created_at": "2025-06-18T05:40:45.474-04:00", "updated_at": "2025-09-10T22:55:15.380-04:00", "avatar": "https://secure.gravatar.com/avatar/0a3334853b6cc3295c2e5c158a42fbaa.jpg?s=512&d=https%3A%2F%2Fa.slack-edge.com%2Fdf10d%2Fimg%2Favatars%2Fava_0022-512.png", "custom_css": null}, {"id": 8256, "slack_id": "U09204V6T5J", "display_name": "Samuel Desmon", "bio": null, "projects_count": 0, "devlogs_count": 0, "votes_count": 0, "ships_count": 0, "projects": [], "coding_time_seconds": 0, "coding_time_seconds_today": 0, "balance": "You need to have a pocket watcher badge to view this.", "badges": [], "created_at": "2025-06-18T05:40:51.444-04:00", "updated_at": "2025-07-03T19:47:18.637-04:00", "avatar": "https://secure.gravatar.com/avatar/b04bd5b7c5bd5a27a8498f89e1072b63.jpg?s=512&d=https%3A%2F%2Fa.slack-edge.com%2Fdf10d%2Fimg%2Favatars%2Fava_0014-512.png", "custom_css": null}, {"id": 8257, "slack_id": "U091ZLU64DQ", "display_name": "Ermitanyo", "bio": null, "projects_count": 0, "devlogs_count": 0, "votes_count": 0, "ships_count": 0, "projects": [], "coding_time_seconds": 0, "coding_time_seconds_today": 0, "balance": "You need to have a pocket watcher badge to view this.", "badges": [], "created_at": "2025-06-18T05:40:52.805-04:00", "updated_at": "2025-07-03T21:58:18.468-04:00", "avatar": "https://secure.gravatar.com/avatar/4156deaad54c94a7be00999bd74d4b7c.jpg?s=512&d=https%3A%2F%2Fa.slack-edge.com%2Fdf10d%2Fimg%2Favatars%2Fava_0026-512.png", "custom_css": null}, {"id": 8258, "slack_id": "U09206C64LC", "display_name": "Maciej mble B\u0142\u0119dkowski", "bio": null, "projects_count": 0, "devlogs_count": 0, "votes_count": 0, "ships_count": 0, "projects": [], "coding_time_seconds": 0, "coding_time_seconds_today": 0, "balance": "You need to have a pocket watcher badge to view this.", "badges": [], "created_at": "2025-06-18T05:43:53.350-04:00", "updated_at": "2025-07-05T02:09:18.304-04:00", "avatar": "https://secure.gravatar.com/avatar/623ad668dd85145643fdbd9240aa8179.jpg?s=512&d=https%3A%2F%2Fa.slack-edge.com%2Fdf10d%2Fimg%2Favatars%2Fava_0009-512.png", "custom_css": null}, {"id": 8259, "slack_id": "U091XU003A9", "display_name": "Daniel Dube", "bio": null, "projects_count": 0, "devlogs_count": 0, "votes_count": 0, "ships_count": 0, "projects": [], "coding_time_seconds": 0, "coding_time_seconds_today": 0, "balance": "You need to have a pocket watcher badge to view this.", "badges": [], "created_at": "2025-06-18T05:44:32.013-04:00", "updated_at": "2025-07-03T21:46:21.601-04:00", "avatar": "https://avatars.slack-edge.com/2025-06-18/9067740945586_21df56f17df0212074f8_original.jpg", "custom_css": null}, {"id": 8260, "slack_id": "U09206NNPDJ", "display_name": "mthinh", "bio": null, "projects_count": 0, "devlogs_count": 0, "votes_count": 0, "ships_count": 0, "projects": [], "coding_time_seconds": 0, "coding_time_seconds_today": 0, "balance": "You need to have a pocket watcher badge to view this.", "badges": [], "created_at": "2025-06-18T05:47:41.063-04:00", "updated_at": "2025-07-03T19:47:19.310-04:00", "avatar": "https://secure.gravatar.com/avatar/31a97383a2a85ac5f1c67445c8d03966.jpg?s=512&d=https%3A%2F%2Fa.slack-edge.com%2Fdf10d%2Fimg%2Favatars%2Fava_0016-512.png", "custom_css": null}], "pagination": {"page": 413, "pages": 1192, "count": 23828, "items": 20}}