{"users": [{"id": 8261, "slack_id": "U091ZN8TALS", "display_name": "krishna progammer", "bio": null, "projects_count": 0, "devlogs_count": 0, "votes_count": 0, "ships_count": 0, "projects": [], "coding_time_seconds": 57080, "coding_time_seconds_today": 0, "balance": "You need to have a pocket watcher badge to view this.", "badges": [], "created_at": "2025-06-18T05:51:44.287-04:00", "updated_at": "2025-07-03T21:58:18.801-04:00", "avatar": "https://avatars.slack-edge.com/2025-06-18/9067772530962_43094ce0d9ff4de6f1ad_original.png", "custom_css": null}, {"id": 8262, "slack_id": "U092075S6MS", "display_name": "Christian", "bio": null, "projects_count": 0, "devlogs_count": 0, "votes_count": 0, "ships_count": 0, "projects": [], "coding_time_seconds": 0, "coding_time_seconds_today": 0, "balance": "You need to have a pocket watcher badge to view this.", "badges": [], "created_at": "2025-06-18T05:53:04.076-04:00", "updated_at": "2025-07-03T19:47:19.709-04:00", "avatar": "https://secure.gravatar.com/avatar/e5a709d84db1b938e7ceb4a70f6b1c9a.jpg?s=512&d=https%3A%2F%2Fa.slack-edge.com%2Fdf10d%2Fimg%2Favatars%2Fava_0010-512.png", "custom_css": null}, {"id": 8263, "slack_id": "U08UF2Y4GF7", "display_name": "Sawyer", "bio": null, "projects_count": 0, "devlogs_count": 0, "votes_count": 0, "ships_count": 0, "projects": [], "coding_time_seconds": 0, "coding_time_seconds_today": 0, "balance": "You need to have a pocket watcher badge to view this.", "badges": [], "created_at": "2025-06-18T05:53:25.374-04:00", "updated_at": "2025-07-03T19:47:19.976-04:00", "avatar": "https://secure.gravatar.com/avatar/99a40921f7f92028a38e549446beb506.jpg?s=512&d=https%3A%2F%2Fa.slack-edge.com%2Fdf10d%2Fimg%2Favatars%2Fava_0021-512.png", "custom_css": null}, {"id": 8264, "slack_id": "U091Y75JLQ5", "display_name": "Yamuna", "bio": null, "projects_count": 0, "devlogs_count": 0, "votes_count": 0, "ships_count": 0, "projects": [], "coding_time_seconds": 0, "coding_time_seconds_today": 0, "balance": "You need to have a pocket watcher badge to view this.", "badges": [], "created_at": "2025-06-18T05:54:24.391-04:00", "updated_at": "2025-07-04T02:27:42.969-04:00", "avatar": "https://secure.gravatar.com/avatar/1da7fec109961eaa033883db4ef98d94.jpg?s=512&d=https%3A%2F%2Fa.slack-edge.com%2Fdf10d%2Fimg%2Favatars%2Fava_0022-512.png", "custom_css": null}, {"id": 8265, "slack_id": "U09207VUQEQ", "display_name": "Sepehr", "bio": null, "projects_count": 0, "devlogs_count": 0, "votes_count": 0, "ships_count": 0, "projects": [], "coding_time_seconds": 0, "coding_time_seconds_today": 0, "balance": "You need to have a pocket watcher badge to view this.", "badges": [], "created_at": "2025-06-18T05:55:50.404-04:00", "updated_at": "2025-07-03T19:47:20.404-04:00", "avatar": "https://secure.gravatar.com/avatar/ae5ab21ca37339eb3bd091cacd591c38.jpg?s=512&d=https%3A%2F%2Fa.slack-edge.com%2Fdf10d%2Fimg%2Favatars%2Fava_0018-512.png", "custom_css": null}, {"id": 8266, "slack_id": "U092C8PS1EV", "display_name": "Ragul R", "bio": null, "projects_count": 0, "devlogs_count": 0, "votes_count": 0, "ships_count": 0, "projects": [], "coding_time_seconds": 0, "coding_time_seconds_today": 0, "balance": "You need to have a pocket watcher badge to view this.", "badges": [], "created_at": "2025-06-18T05:57:06.647-04:00", "updated_at": "2025-07-03T19:47:20.669-04:00", "avatar": "https://secure.gravatar.com/avatar/e255e3e94314ddaa6a8c0d5a7afcc6f6.jpg?s=512&d=https%3A%2F%2Fa.slack-edge.com%2Fdf10d%2Fimg%2Favatars%2Fava_0013-512.png", "custom_css": null}, {"id": 8267, "slack_id": "U091YC8V9C5", "display_name": "Nhat Le", "bio": null, "projects_count": 0, "devlogs_count": 0, "votes_count": 0, "ships_count": 0, "projects": [], "coding_time_seconds": 2236, "coding_time_seconds_today": 0, "balance": "You need to have a pocket watcher badge to view this.", "badges": [], "created_at": "2025-06-18T05:58:25.176-04:00", "updated_at": "2025-07-03T19:47:20.936-04:00", "avatar": "https://avatars.slack-edge.com/2025-06-18/9090342884464_ee05bda2ab03607c8a31_original.png", "custom_css": null}, {"id": 8268, "slack_id": "U0921KZJ0SD", "display_name": "Lianecx", "bio": null, "projects_count": 1, "devlogs_count": 1, "votes_count": 0, "ships_count": 0, "projects": [{"id": 7610, "title": "MC Linker", "devlogs_count": 1, "created_at": "2025-07-22T09:31:09.103-04:00"}], "coding_time_seconds": 632, "coding_time_seconds_today": 0, "balance": "You need to have a pocket watcher badge to view this.", "badges": [], "created_at": "2025-06-18T05:59:23.537-04:00", "updated_at": "2025-07-23T01:21:01.723-04:00", "avatar": "https://secure.gravatar.com/avatar/e9a2146b9dace462f446a0bd58fd2c2d.jpg?s=512&d=https%3A%2F%2Fa.slack-edge.com%2Fdf10d%2Fimg%2Favatars%2Fava_0024-512.png", "custom_css": null}, {"id": 8269, "slack_id": "U091T9HTCKV", "display_name": "Joseph Tadesse", "bio": null, "projects_count": 0, "devlogs_count": 0, "votes_count": 0, "ships_count": 0, "projects": [], "coding_time_seconds": 551918, "coding_time_seconds_today": 0, "balance": "You need to have a pocket watcher badge to view this.", "badges": [], "created_at": "2025-06-18T05:59:50.520-04:00", "updated_at": "2025-07-03T21:58:19.371-04:00", "avatar": "https://avatars.slack-edge.com/2025-06-18/9061575067558_48cfed4e00874ce0fad6_original.jpg", "custom_css": null}, {"id": 8270, "slack_id": "U092N9SLUQG", "display_name": "waleed javed", "bio": null, "projects_count": 0, "devlogs_count": 0, "votes_count": 0, "ships_count": 0, "projects": [], "coding_time_seconds": 0, "coding_time_seconds_today": 0, "balance": "You need to have a pocket watcher badge to view this.", "badges": [], "created_at": "2025-06-18T05:59:54.918-04:00", "updated_at": "2025-07-03T19:47:21.607-04:00", "avatar": "https://secure.gravatar.com/avatar/446f543089a2981e51c909d5a4f9c077.jpg?s=512&d=https%3A%2F%2Fa.slack-edge.com%2Fdf10d%2Fimg%2Favatars%2Fava_0001-512.png", "custom_css": null}, {"id": 8271, "slack_id": "U091Y8AAACV", "display_name": "Veldrine Evelia Kaharwa", "bio": null, "projects_count": 0, "devlogs_count": 0, "votes_count": 0, "ships_count": 0, "projects": [], "coding_time_seconds": 71289, "coding_time_seconds_today": 0, "balance": "You need to have a pocket watcher badge to view this.", "badges": [], "created_at": "2025-06-18T06:00:02.133-04:00", "updated_at": "2025-07-05T14:10:24.263-04:00", "avatar": "https://secure.gravatar.com/avatar/c96899bc4c8677a3494dd5b155ae2917.jpg?s=512&d=https%3A%2F%2Fa.slack-edge.com%2Fdf10d%2Fimg%2Favatars%2Fava_0004-512.png", "custom_css": null}, {"id": 8272, "slack_id": "U091ZPARK7C", "display_name": "daixinwang", "bio": null, "projects_count": 0, "devlogs_count": 0, "votes_count": 0, "ships_count": 0, "projects": [], "coding_time_seconds": 0, "coding_time_seconds_today": 0, "balance": "You need to have a pocket watcher badge to view this.", "badges": [], "created_at": "2025-06-18T06:00:04.935-04:00", "updated_at": "2025-07-04T08:24:00.388-04:00", "avatar": "https://secure.gravatar.com/avatar/dbe2701b501cd55a42589efc77d8a6e4.jpg?s=512&d=https%3A%2F%2Fa.slack-edge.com%2Fdf10d%2Fimg%2Favatars%2Fava_0012-512.png", "custom_css": null}, {"id": 8273, "slack_id": "U091Y2TJJKX", "display_name": "Adeola Enitanayo", "bio": null, "projects_count": 0, "devlogs_count": 0, "votes_count": 0, "ships_count": 0, "projects": [], "coding_time_seconds": 8860, "coding_time_seconds_today": 0, "balance": "You need to have a pocket watcher badge to view this.", "badges": [], "created_at": "2025-06-18T06:02:42.418-04:00", "updated_at": "2025-07-03T21:46:22.650-04:00", "avatar": "https://secure.gravatar.com/avatar/8a920a4a3bc08e94d47a226aadca76c6.jpg?s=512&d=https%3A%2F%2Fa.slack-edge.com%2Fdf10d%2Fimg%2Favatars%2Fava_0011-512.png", "custom_css": null}, {"id": 8274, "slack_id": "U091YD0TY3F", "display_name": "Subhava Ojha", "bio": null, "projects_count": 0, "devlogs_count": 0, "votes_count": 0, "ships_count": 0, "projects": [], "coding_time_seconds": 0, "coding_time_seconds_today": 0, "balance": "You need to have a pocket watcher badge to view this.", "badges": [], "created_at": "2025-06-18T06:02:50.585-04:00", "updated_at": "2025-07-03T19:47:22.281-04:00", "avatar": "https://secure.gravatar.com/avatar/8eb360eced345796b5771fc0b5cf5eac.jpg?s=512&d=https%3A%2F%2Fa.slack-edge.com%2Fdf10d%2Fimg%2Favatars%2Fava_0014-512.png", "custom_css": null}, {"id": 8275, "slack_id": "U092CF09X97", "display_name": "Lords", "bio": null, "projects_count": 0, "devlogs_count": 0, "votes_count": 0, "ships_count": 0, "projects": [], "coding_time_seconds": 43160, "coding_time_seconds_today": 0, "balance": "You need to have a pocket watcher badge to view this.", "badges": [], "created_at": "2025-06-18T06:02:51.218-04:00", "updated_at": "2025-07-03T19:47:22.547-04:00", "avatar": "https://avatars.slack-edge.com/2025-06-18/9066457913765_738bdfcac1317657cf62_original.png", "custom_css": null}, {"id": 8276, "slack_id": "U091JQMFK1V", "display_name": "Mat\u011bj Du\u0161ek", "bio": null, "projects_count": 0, "devlogs_count": 0, "votes_count": 0, "ships_count": 0, "projects": [], "coding_time_seconds": 70997, "coding_time_seconds_today": 0, "balance": "You need to have a pocket watcher badge to view this.", "badges": [], "created_at": "2025-06-18T06:03:07.306-04:00", "updated_at": "2025-07-03T19:47:22.820-04:00", "avatar": "https://secure.gravatar.com/avatar/36801c260538e128adf4283837c2f6e8.jpg?s=512&d=https%3A%2F%2Fa.slack-edge.com%2Fdf10d%2Fimg%2Favatars%2Fava_0025-512.png", "custom_css": null}, {"id": 8277, "slack_id": "U091TAUK1FV", "display_name": "Rahul Anbalagan", "bio": null, "projects_count": 0, "devlogs_count": 0, "votes_count": 0, "ships_count": 0, "projects": [], "coding_time_seconds": 118953, "coding_time_seconds_today": 0, "balance": "You need to have a pocket watcher badge to view this.", "badges": [], "created_at": "2025-06-18T06:03:47.157-04:00", "updated_at": "2025-07-03T19:47:23.084-04:00", "avatar": "https://secure.gravatar.com/avatar/0661987324939cc41500335e42e129a8.jpg?s=512&d=https%3A%2F%2Fa.slack-edge.com%2Fdf10d%2Fimg%2Favatars%2Fava_0025-512.png", "custom_css": null}, {"id": 8278, "slack_id": "U091YC7GXK7", "display_name": "Trinal", "bio": null, "projects_count": 0, "devlogs_count": 0, "votes_count": 0, "ships_count": 0, "projects": [], "coding_time_seconds": 0, "coding_time_seconds_today": 0, "balance": "You need to have a pocket watcher badge to view this.", "badges": [], "created_at": "2025-06-18T06:04:53.366-04:00", "updated_at": "2025-07-03T19:47:23.362-04:00", "avatar": "https://avatars.slack-edge.com/2025-06-18/9068328030260_53fe016e2c70e189f429_original.png", "custom_css": null}, {"id": 8279, "slack_id": "U092CFENRB3", "display_name": "Harshit", "bio": null, "projects_count": 0, "devlogs_count": 0, "votes_count": 0, "ships_count": 0, "projects": [], "coding_time_seconds": 0, "coding_time_seconds_today": 0, "balance": "You need to have a pocket watcher badge to view this.", "badges": [], "created_at": "2025-06-18T06:05:11.490-04:00", "updated_at": "2025-07-03T21:46:23.079-04:00", "avatar": "https://secure.gravatar.com/avatar/786c949f80321894c40a003adde817be.jpg?s=512&d=https%3A%2F%2Fa.slack-edge.com%2Fdf10d%2Fimg%2Favatars%2Fava_0016-512.png", "custom_css": null}, {"id": 8280, "slack_id": "U091TH994S2", "display_name": "Frobbbb", "bio": null, "projects_count": 0, "devlogs_count": 0, "votes_count": 0, "ships_count": 0, "projects": [], "coding_time_seconds": 0, "coding_time_seconds_today": 0, "balance": "You need to have a pocket watcher badge to view this.", "badges": [], "created_at": "2025-06-18T06:05:59.596-04:00", "updated_at": "2025-07-03T19:47:23.785-04:00", "avatar": "https://secure.gravatar.com/avatar/487121a325d4011f72e75afbc97973fe.jpg?s=512&d=https%3A%2F%2Fa.slack-edge.com%2Fdf10d%2Fimg%2Favatars%2Fava_0008-512.png", "custom_css": null}], "pagination": {"page": 414, "pages": 1192, "count": 23828, "items": 20}}