{"users": [{"id": 8281, "slack_id": "U07E70AR1UG", "display_name": "Bye", "bio": null, "projects_count": 3, "devlogs_count": 12, "votes_count": 27, "ships_count": 2, "projects": [{"id": 2194, "title": "PSMetadataLib", "devlogs_count": 8, "created_at": "2025-06-20T12:00:41.404-04:00"}, {"id": 12993, "title": "Mildly Annoyed Mountains [SOM Survey submission]", "devlogs_count": 1, "created_at": "2025-09-06T16:51:37.634-04:00"}, {"id": 6255, "title": "quicklint", "devlogs_count": 3, "created_at": "2025-07-11T15:58:52.576-04:00"}], "coding_time_seconds": 183482, "coding_time_seconds_today": 0, "balance": "You need to have a pocket watcher badge to view this.", "badges": [{"name": "Maiden Voyage", "text": "you shipped your first project! the journey begins...", "icon": "\ud83d\udea2"}], "created_at": "2025-06-18T06:06:35.433-04:00", "updated_at": "2025-09-10T22:55:15.989-04:00", "avatar": "https://avatars.slack-edge.com/2025-07-11/9186249721652_5be46767d6417abc8932_original.png", "custom_css": null}, {"id": 8282, "slack_id": "U092CFKRPFT", "display_name": "Vito \u0160o\u0161tari\u0107 Nagli\u0107", "bio": null, "projects_count": 0, "devlogs_count": 0, "votes_count": 0, "ships_count": 0, "projects": [], "coding_time_seconds": 0, "coding_time_seconds_today": 0, "balance": "You need to have a pocket watcher badge to view this.", "badges": [], "created_at": "2025-06-18T06:06:54.172-04:00", "updated_at": "2025-07-03T19:47:24.377-04:00", "avatar": "https://secure.gravatar.com/avatar/43f1d2bc18f6fe1cd14648139f202fff.jpg?s=512&d=https%3A%2F%2Fa.slack-edge.com%2Fdf10d%2Fimg%2Favatars%2Fava_0006-512.png", "custom_css": null}, {"id": 8283, "slack_id": "U091MT386HH", "display_name": "hemanth maddali", "bio": null, "projects_count": 0, "devlogs_count": 0, "votes_count": 0, "ships_count": 0, "projects": [], "coding_time_seconds": 91921, "coding_time_seconds_today": 0, "balance": "You need to have a pocket watcher badge to view this.", "badges": [], "created_at": "2025-06-18T06:08:43.683-04:00", "updated_at": "2025-07-03T19:47:24.638-04:00", "avatar": "https://avatars.slack-edge.com/2025-06-18/9080556260945_ffd0f6bca42b6c7f027b_original.png", "custom_css": null}, {"id": 8284, "slack_id": "U091ZQS9XS6", "display_name": "Sheharyar Rana", "bio": null, "projects_count": 0, "devlogs_count": 0, "votes_count": 0, "ships_count": 0, "projects": [], "coding_time_seconds": 0, "coding_time_seconds_today": 0, "balance": "You need to have a pocket watcher badge to view this.", "badges": [], "created_at": "2025-06-18T06:10:02.095-04:00", "updated_at": "2025-07-03T19:47:24.910-04:00", "avatar": "https://avatars.slack-edge.com/2025-06-18/9080561275169_77a7b804aa96072063b5_original.png", "custom_css": null}, {"id": 8285, "slack_id": "U0923LH8FCH", "display_name": "Chris McAtear", "bio": null, "projects_count": 0, "devlogs_count": 0, "votes_count": 0, "ships_count": 0, "projects": [], "coding_time_seconds": 24179, "coding_time_seconds_today": 0, "balance": "You need to have a pocket watcher badge to view this.", "badges": [], "created_at": "2025-06-18T06:10:30.098-04:00", "updated_at": "2025-07-03T19:47:25.181-04:00", "avatar": "https://secure.gravatar.com/avatar/a3a0ff963a7d96a76772cad5188e47d5.jpg?s=512&d=https%3A%2F%2Fa.slack-edge.com%2Fdf10d%2Fimg%2Favatars%2Fava_0010-512.png", "custom_css": null}, {"id": 8286, "slack_id": "U07960J6ND7", "display_name": "Aaryan", "bio": null, "projects_count": 0, "devlogs_count": 0, "votes_count": 0, "ships_count": 0, "projects": [], "coding_time_seconds": 0, "coding_time_seconds_today": 0, "balance": "You need to have a pocket watcher badge to view this.", "badges": [], "created_at": "2025-06-18T06:11:40.246-04:00", "updated_at": "2025-07-03T19:47:25.447-04:00", "avatar": "https://avatars.slack-edge.com/2024-09-08/7697407490100_bf2a596110176080acb4_original.jpg", "custom_css": null}, {"id": 8287, "slack_id": "U092BJK16TB", "display_name": "Prakash Roy", "bio": null, "projects_count": 1, "devlogs_count": 0, "votes_count": 0, "ships_count": 0, "projects": [{"id": 1674, "title": "Flutter Project", "devlogs_count": 0, "created_at": "2025-06-19T02:19:32.159-04:00"}], "coding_time_seconds": 244, "coding_time_seconds_today": 0, "balance": "You need to have a pocket watcher badge to view this.", "badges": [], "created_at": "2025-06-18T06:12:55.676-04:00", "updated_at": "2025-07-22T02:00:45.667-04:00", "avatar": "https://secure.gravatar.com/avatar/7616985d64ed56968a8927b5588b1f5c.jpg?s=512&d=https%3A%2F%2Fa.slack-edge.com%2Fdf10d%2Fimg%2Favatars%2Fava_0024-512.png", "custom_css": null}, {"id": 8288, "slack_id": "U091T6925V1", "display_name": "Zoomyum", "bio": null, "projects_count": 1, "devlogs_count": 2, "votes_count": 14, "ships_count": 1, "projects": [{"id": 1683, "title": "CryptChat", "devlogs_count": 2, "created_at": "2025-06-19T02:51:05.460-04:00"}], "coding_time_seconds": 30967, "coding_time_seconds_today": 0, "balance": "You need to have a pocket watcher badge to view this.", "badges": [{"name": "Maiden Voyage", "text": "you shipped your first project! the journey begins...", "icon": "\ud83d\udea2"}], "created_at": "2025-06-18T06:14:05.486-04:00", "updated_at": "2025-09-10T22:55:16.146-04:00", "avatar": "https://avatars.slack-edge.com/2025-06-18/9061581726438_4dae3e2ead153d743cba_original.png", "custom_css": null}, {"id": 8289, "slack_id": "U091YENP3FF", "display_name": "MrMarvel", "bio": null, "projects_count": 0, "devlogs_count": 0, "votes_count": 0, "ships_count": 0, "projects": [], "coding_time_seconds": 0, "coding_time_seconds_today": 0, "balance": "You need to have a pocket watcher badge to view this.", "badges": [], "created_at": "2025-06-18T06:14:36.906-04:00", "updated_at": "2025-07-04T20:08:49.525-04:00", "avatar": "https://secure.gravatar.com/avatar/9019efb3b979fbcac3fd97a58a45350d.jpg?s=512&d=https%3A%2F%2Fa.slack-edge.com%2Fdf10d%2Fimg%2Favatars%2Fava_0014-512.png", "custom_css": null}, {"id": 8290, "slack_id": "U092CANAAP3", "display_name": "Francesco Laiti", "bio": null, "projects_count": 0, "devlogs_count": 0, "votes_count": 0, "ships_count": 0, "projects": [], "coding_time_seconds": 13466, "coding_time_seconds_today": 0, "balance": "You need to have a pocket watcher badge to view this.", "badges": [], "created_at": "2025-06-18T06:16:17.340-04:00", "updated_at": "2025-07-04T08:24:01.592-04:00", "avatar": "https://avatars.slack-edge.com/2025-06-18/9068377890660_d616226c0b9a40e59172_original.jpg", "custom_css": null}, {"id": 8291, "slack_id": "U091ZRJV8RY", "display_name": "Walid", "bio": null, "projects_count": 0, "devlogs_count": 0, "votes_count": 0, "ships_count": 0, "projects": [], "coding_time_seconds": 0, "coding_time_seconds_today": 0, "balance": "You need to have a pocket watcher badge to view this.", "badges": [], "created_at": "2025-06-18T06:17:05.444-04:00", "updated_at": "2025-07-03T19:47:26.537-04:00", "avatar": "https://secure.gravatar.com/avatar/813e9d61b1e54a59b238a47f8d5c5da6.jpg?s=512&d=https%3A%2F%2Fa.slack-edge.com%2Fdf10d%2Fimg%2Favatars%2Fava_0013-512.png", "custom_css": null}, {"id": 8292, "slack_id": "U092CH8A5LZ", "display_name": "Alperen M\u00fcft\u00fco\u011flu", "bio": null, "projects_count": 0, "devlogs_count": 0, "votes_count": 0, "ships_count": 0, "projects": [], "coding_time_seconds": 0, "coding_time_seconds_today": 0, "balance": "You need to have a pocket watcher badge to view this.", "badges": [], "created_at": "2025-06-18T06:19:02.085-04:00", "updated_at": "2025-07-03T19:47:26.808-04:00", "avatar": "https://avatars.slack-edge.com/2025-06-18/9066532186741_a4a0da018ec06bb1961f_original.jpg", "custom_css": null}, {"id": 8293, "slack_id": "U091YFANPJR", "display_name": "Billiam", "bio": null, "projects_count": 0, "devlogs_count": 0, "votes_count": 0, "ships_count": 0, "projects": [], "coding_time_seconds": 0, "coding_time_seconds_today": 0, "balance": "You need to have a pocket watcher badge to view this.", "badges": [], "created_at": "2025-06-18T06:19:19.900-04:00", "updated_at": "2025-07-03T19:47:27.081-04:00", "avatar": "https://secure.gravatar.com/avatar/e9850134acf64378e5c2d9f0c96bcd48.jpg?s=512&d=https%3A%2F%2Fa.slack-edge.com%2Fdf10d%2Fimg%2Favatars%2Fava_0004-512.png", "custom_css": null}, {"id": 8294, "slack_id": "U091TCVB8TD", "display_name": "KhattarHammad", "bio": null, "projects_count": 0, "devlogs_count": 0, "votes_count": 0, "ships_count": 0, "projects": [], "coding_time_seconds": 0, "coding_time_seconds_today": 0, "balance": "You need to have a pocket watcher badge to view this.", "badges": [], "created_at": "2025-06-18T06:19:28.291-04:00", "updated_at": "2025-07-03T19:47:27.386-04:00", "avatar": "https://secure.gravatar.com/avatar/b1e9049ef63b88dd1cae549ec579e8a6.jpg?s=512&d=https%3A%2F%2Fa.slack-edge.com%2Fdf10d%2Fimg%2Favatars%2Fava_0017-512.png", "custom_css": null}, {"id": 8295, "slack_id": "U091TD9S2G3", "display_name": "LJ Lucraft", "bio": null, "projects_count": 0, "devlogs_count": 0, "votes_count": 0, "ships_count": 0, "projects": [], "coding_time_seconds": 0, "coding_time_seconds_today": 0, "balance": "You need to have a pocket watcher badge to view this.", "badges": [], "created_at": "2025-06-18T06:21:57.945-04:00", "updated_at": "2025-07-03T19:47:27.659-04:00", "avatar": "https://avatars.slack-edge.com/2025-06-18/9061678915830_546a31f5a852b0dafadf_original.jpg", "custom_css": null}, {"id": 8296, "slack_id": "U091ZSJ41LJ", "display_name": "Aiko", "bio": null, "projects_count": 0, "devlogs_count": 0, "votes_count": 0, "ships_count": 0, "projects": [], "coding_time_seconds": 24976, "coding_time_seconds_today": 0, "balance": "You need to have a pocket watcher badge to view this.", "badges": [], "created_at": "2025-06-18T06:24:45.665-04:00", "updated_at": "2025-07-03T19:47:27.930-04:00", "avatar": "https://secure.gravatar.com/avatar/4635516df3020a8d1281af74a81c0e02.jpg?s=512&d=https%3A%2F%2Fa.slack-edge.com%2Fdf10d%2Fimg%2Favatars%2Fava_0025-512.png", "custom_css": null}, {"id": 8297, "slack_id": "U092CHU4T1P", "display_name": "Arthur", "bio": null, "projects_count": 0, "devlogs_count": 0, "votes_count": 0, "ships_count": 0, "projects": [], "coding_time_seconds": 0, "coding_time_seconds_today": 0, "balance": "You need to have a pocket watcher badge to view this.", "badges": [], "created_at": "2025-06-18T06:24:53.540-04:00", "updated_at": "2025-07-05T02:09:20.634-04:00", "avatar": "https://secure.gravatar.com/avatar/8bc94387d1974a5ec18b3c5f996aa984.jpg?s=512&d=https%3A%2F%2Fa.slack-edge.com%2Fdf10d%2Fimg%2Favatars%2Fava_0004-512.png", "custom_css": null}, {"id": 8298, "slack_id": "U0897D1UY1Y", "display_name": "CinnamonRoll", "bio": null, "projects_count": 1, "devlogs_count": 0, "votes_count": 0, "ships_count": 0, "projects": [{"id": 5236, "title": "Void Frontier", "devlogs_count": 0, "created_at": "2025-07-03T23:55:01.194-04:00"}], "coding_time_seconds": 6414, "coding_time_seconds_today": 0, "balance": "You need to have a pocket watcher badge to view this.", "badges": [], "created_at": "2025-06-18T06:26:11.319-04:00", "updated_at": "2025-08-14T12:32:25.644-04:00", "avatar": "https://avatars.slack-edge.com/2025-02-01/8386276146307_0da39563fffad8202ec0_original.png", "custom_css": null}, {"id": 8299, "slack_id": "U091BC0M30X", "display_name": "Amanda Toma", "bio": null, "projects_count": 0, "devlogs_count": 0, "votes_count": 0, "ships_count": 0, "projects": [], "coding_time_seconds": 0, "coding_time_seconds_today": 0, "balance": "You need to have a pocket watcher badge to view this.", "badges": [], "created_at": "2025-06-18T06:26:46.049-04:00", "updated_at": "2025-07-03T19:47:28.488-04:00", "avatar": "https://secure.gravatar.com/avatar/59a0b81ab67c915bba13ad7f2ab4c1a3.jpg?s=512&d=https%3A%2F%2Fa.slack-edge.com%2Fdf10d%2Fimg%2Favatars%2Fava_0019-512.png", "custom_css": null}, {"id": 8300, "slack_id": "U091TLDRNMU", "display_name": "KS", "bio": null, "projects_count": 1, "devlogs_count": 1, "votes_count": 4, "ships_count": 0, "projects": [{"id": 11564, "title": "Compete It", "devlogs_count": 1, "created_at": "2025-08-17T05:34:18.810-04:00"}], "coding_time_seconds": 380143, "coding_time_seconds_today": 0, "balance": "You need to have a pocket watcher badge to view this.", "badges": [], "created_at": "2025-06-18T06:28:16.325-04:00", "updated_at": "2025-09-11T16:56:57.822-04:00", "avatar": "https://avatars.slack-edge.com/2025-06-18/9052974295543_c97581858cb1f375df57_original.jpg", "custom_css": null}], "pagination": {"page": 415, "pages": 1192, "count": 23828, "items": 20}}