{"users": [{"id": 8301, "slack_id": "U092CJCG2SD", "display_name": "Levin Weichert", "bio": null, "projects_count": 0, "devlogs_count": 0, "votes_count": 0, "ships_count": 0, "projects": [], "coding_time_seconds": 19149, "coding_time_seconds_today": 0, "balance": "You need to have a pocket watcher badge to view this.", "badges": [], "created_at": "2025-06-18T06:28:43.810-04:00", "updated_at": "2025-07-03T21:46:24.526-04:00", "avatar": "https://secure.gravatar.com/avatar/de50da88de2efdb955e546ecb78ccb03.jpg?s=512&d=https%3A%2F%2Fa.slack-edge.com%2Fdf10d%2Fimg%2Favatars%2Fava_0012-512.png", "custom_css": null}, {"id": 8302, "slack_id": "U0814DVTCBF", "display_name": "Aditya Kumar", "bio": null, "projects_count": 0, "devlogs_count": 0, "votes_count": 0, "ships_count": 0, "projects": [], "coding_time_seconds": 0, "coding_time_seconds_today": 0, "balance": "You need to have a pocket watcher badge to view this.", "badges": [], "created_at": "2025-06-18T06:29:35.300-04:00", "updated_at": "2025-07-03T19:47:29.176-04:00", "avatar": "https://avatars.slack-edge.com/2025-05-22/8936220479156_5fb31cd0da32905db367_original.jpg", "custom_css": null}, {"id": 8303, "slack_id": "U091TLG6CS2", "display_name": "Mohammad Ghanayem", "bio": null, "projects_count": 0, "devlogs_count": 0, "votes_count": 0, "ships_count": 0, "projects": [], "coding_time_seconds": 28889, "coding_time_seconds_today": 0, "balance": "You need to have a pocket watcher badge to view this.", "badges": [], "created_at": "2025-06-18T06:30:57.741-04:00", "updated_at": "2025-07-03T19:47:29.451-04:00", "avatar": "https://avatars.slack-edge.com/2025-06-18/9090495426608_4ef44a59dca41ec30069_original.jpg", "custom_css": null}, {"id": 8304, "slack_id": "U091YE2FFFF", "display_name": "Dileepa", "bio": null, "projects_count": 0, "devlogs_count": 0, "votes_count": 0, "ships_count": 0, "projects": [], "coding_time_seconds": 1616, "coding_time_seconds_today": 0, "balance": "You need to have a pocket watcher badge to view this.", "badges": [], "created_at": "2025-06-18T06:31:09.397-04:00", "updated_at": "2025-07-03T19:47:29.723-04:00", "avatar": "https://secure.gravatar.com/avatar/9ffc6430859bc13730d6bc20748a49b3.jpg?s=512&d=https%3A%2F%2Fa.slack-edge.com%2Fdf10d%2Fimg%2Favatars%2Fava_0024-512.png", "custom_css": null}, {"id": 8305, "slack_id": "U092N1VQ9LG", "display_name": "\u041c\u0430\u0442\u0432\u0435\u0439 \u041c\u0435\u0440\u0437\u043b\u0438\u043a\u0438\u043d", "bio": null, "projects_count": 0, "devlogs_count": 0, "votes_count": 0, "ships_count": 0, "projects": [], "coding_time_seconds": 48722, "coding_time_seconds_today": 0, "balance": "You need to have a pocket watcher badge to view this.", "badges": [], "created_at": "2025-06-18T06:31:18.442-04:00", "updated_at": "2025-07-03T19:47:29.998-04:00", "avatar": "https://avatars.slack-edge.com/2025-06-18/9052988349431_61280794c86a358ca407_original.png", "custom_css": null}, {"id": 8306, "slack_id": "U092CJWT38R", "display_name": "Harshil Goyal", "bio": null, "projects_count": 0, "devlogs_count": 0, "votes_count": 0, "ships_count": 0, "projects": [], "coding_time_seconds": 0, "coding_time_seconds_today": 0, "balance": "You need to have a pocket watcher badge to view this.", "badges": [], "created_at": "2025-06-18T06:32:57.085-04:00", "updated_at": "2025-07-03T19:47:30.283-04:00", "avatar": "https://secure.gravatar.com/avatar/8cf85e5bac4e5e5dece8bd3aeec8d211.jpg?s=512&d=https%3A%2F%2Fa.slack-edge.com%2Fdf10d%2Fimg%2Favatars%2Fava_0003-512.png", "custom_css": null}, {"id": 8307, "slack_id": "U091JUQ7S87", "display_name": "Mehdi Jafarpour", "bio": null, "projects_count": 0, "devlogs_count": 0, "votes_count": 0, "ships_count": 0, "projects": [], "coding_time_seconds": 168754, "coding_time_seconds_today": 0, "balance": "You need to have a pocket watcher badge to view this.", "badges": [], "created_at": "2025-06-18T06:33:25.340-04:00", "updated_at": "2025-07-12T11:40:38.566-04:00", "avatar": "https://avatars.slack-edge.com/2025-06-18/9052998448279_6d11100f6f28c46c05b4_original.jpg", "custom_css": null}, {"id": 8308, "slack_id": "U091TEPG4CB", "display_name": "Nihil", "bio": null, "projects_count": 0, "devlogs_count": 0, "votes_count": 0, "ships_count": 0, "projects": [], "coding_time_seconds": 0, "coding_time_seconds_today": 0, "balance": "You need to have a pocket watcher badge to view this.", "badges": [], "created_at": "2025-06-18T06:34:10.193-04:00", "updated_at": "2025-07-03T19:47:30.822-04:00", "avatar": "https://secure.gravatar.com/avatar/880d188d9a1ee487b27729f8ad2e1efa.jpg?s=512&d=https%3A%2F%2Fa.slack-edge.com%2Fdf10d%2Fimg%2Favatars%2Fava_0022-512.png", "custom_css": null}, {"id": 8309, "slack_id": "U091JUPLQG7", "display_name": "Jupiter", "bio": null, "projects_count": 0, "devlogs_count": 0, "votes_count": 0, "ships_count": 0, "projects": [], "coding_time_seconds": 0, "coding_time_seconds_today": 0, "balance": "You need to have a pocket watcher badge to view this.", "badges": [], "created_at": "2025-06-18T06:34:10.617-04:00", "updated_at": "2025-07-21T12:17:21.898-04:00", "avatar": "https://avatars.slack-edge.com/2025-06-18/9090509388896_712221faa5ac5aca48b2_original.jpg", "custom_css": null}, {"id": 8310, "slack_id": "U08FH04BSNM", "display_name": "Crystal", "bio": null, "projects_count": 0, "devlogs_count": 0, "votes_count": 0, "ships_count": 0, "projects": [], "coding_time_seconds": 28744, "coding_time_seconds_today": 0, "balance": "You need to have a pocket watcher badge to view this.", "badges": [], "created_at": "2025-06-18T06:35:18.162-04:00", "updated_at": "2025-08-22T05:26:09.735-04:00", "avatar": "https://secure.gravatar.com/avatar/31af3fa63a4cb17bb17c4b60c78d1407.jpg?s=512&d=https%3A%2F%2Fa.slack-edge.com%2Fdf10d%2Fimg%2Favatars%2Fava_0008-512.png", "custom_css": null}, {"id": 8311, "slack_id": "U091ZU5658S", "display_name": "RISHIL T K", "bio": null, "projects_count": 0, "devlogs_count": 0, "votes_count": 0, "ships_count": 0, "projects": [], "coding_time_seconds": 0, "coding_time_seconds_today": 0, "balance": "You need to have a pocket watcher badge to view this.", "badges": [], "created_at": "2025-06-18T06:37:23.278-04:00", "updated_at": "2025-07-03T19:47:31.627-04:00", "avatar": "https://secure.gravatar.com/avatar/b540239f309ba7aec77f3259257a3af9.jpg?s=512&d=https%3A%2F%2Fa.slack-edge.com%2Fdf10d%2Fimg%2Favatars%2Fava_0021-512.png", "custom_css": null}, {"id": 8312, "slack_id": "U07V4QG7FGQ", "display_name": "nomansofi", "bio": null, "projects_count": 0, "devlogs_count": 0, "votes_count": 0, "ships_count": 0, "projects": [], "coding_time_seconds": 53847, "coding_time_seconds_today": 0, "balance": "You need to have a pocket watcher badge to view this.", "badges": [], "created_at": "2025-06-18T06:37:25.571-04:00", "updated_at": "2025-09-22T04:06:10.103-04:00", "avatar": "https://avatars.slack-edge.com/2025-02-12/8438908978723_26a18de8b03c552622a4_original.png", "custom_css": null}, {"id": 8313, "slack_id": "U092CKERHNV", "display_name": "Emerson Trindade", "bio": null, "projects_count": 0, "devlogs_count": 0, "votes_count": 0, "ships_count": 0, "projects": [], "coding_time_seconds": 0, "coding_time_seconds_today": 0, "balance": "You need to have a pocket watcher badge to view this.", "badges": [], "created_at": "2025-06-18T06:39:22.096-04:00", "updated_at": "2025-07-04T08:24:03.123-04:00", "avatar": "https://secure.gravatar.com/avatar/e10b68db60ad48c97f8aa00934c1a886.jpg?s=512&d=https%3A%2F%2Fa.slack-edge.com%2Fdf10d%2Fimg%2Favatars%2Fava_0024-512.png", "custom_css": null}, {"id": 8314, "slack_id": "U091YHTLWMT", "display_name": "Muhammad Fazeel", "bio": null, "projects_count": 0, "devlogs_count": 0, "votes_count": 0, "ships_count": 0, "projects": [], "coding_time_seconds": 0, "coding_time_seconds_today": 0, "balance": "You need to have a pocket watcher badge to view this.", "badges": [], "created_at": "2025-06-18T06:39:57.970-04:00", "updated_at": "2025-07-03T19:47:32.188-04:00", "avatar": "https://secure.gravatar.com/avatar/569f56b310be66df492a3fa1c4308dd7.jpg?s=512&d=https%3A%2F%2Fa.slack-edge.com%2Fdf10d%2Fimg%2Favatars%2Fava_0020-512.png", "custom_css": null}, {"id": 8315, "slack_id": "U0920DT3FPE", "display_name": "Mehtab Khan", "bio": null, "projects_count": 0, "devlogs_count": 0, "votes_count": 0, "ships_count": 0, "projects": [], "coding_time_seconds": 0, "coding_time_seconds_today": 0, "balance": "You need to have a pocket watcher badge to view this.", "badges": [], "created_at": "2025-06-18T06:40:43.845-04:00", "updated_at": "2025-07-03T19:47:32.450-04:00", "avatar": "https://avatars.slack-edge.com/2025-06-18/9053029939495_cf8ad06334128c41233c_original.jpg", "custom_css": null}, {"id": 8316, "slack_id": "U092NFGC2SU", "display_name": "Pranav", "bio": null, "projects_count": 0, "devlogs_count": 0, "votes_count": 0, "ships_count": 0, "projects": [], "coding_time_seconds": 0, "coding_time_seconds_today": 0, "balance": "You need to have a pocket watcher badge to view this.", "badges": [], "created_at": "2025-06-18T06:41:28.479-04:00", "updated_at": "2025-07-03T19:47:32.716-04:00", "avatar": "https://secure.gravatar.com/avatar/15e05fa2d4c0c90cca381be1f45af90e.jpg?s=512&d=https%3A%2F%2Fa.slack-edge.com%2Fdf10d%2Fimg%2Favatars%2Fava_0026-512.png", "custom_css": null}, {"id": 8317, "slack_id": "U08PLELBG85", "display_name": "Bob the Builder", "bio": null, "projects_count": 2, "devlogs_count": 17, "votes_count": 33, "ships_count": 1, "projects": [{"id": 13117, "title": "Dash", "devlogs_count": 3, "created_at": "2025-09-08T23:32:15.044-04:00"}, {"id": 11724, "title": "Reimagined Variants ", "devlogs_count": 14, "created_at": "2025-08-18T20:42:49.392-04:00"}], "coding_time_seconds": 268235, "coding_time_seconds_today": 0, "balance": "You need to have a pocket watcher badge to view this.", "badges": [{"name": "Maiden Voyage", "text": "you shipped your first project! the journey begins...", "icon": "\ud83d\udea2"}], "created_at": "2025-06-18T06:42:08.660-04:00", "updated_at": "2025-09-19T08:14:57.652-04:00", "avatar": "https://secure.gravatar.com/avatar/2c4e905c6520a4df549e7aac65eec961.jpg?s=512&d=https%3A%2F%2Fa.slack-edge.com%2Fdf10d%2Fimg%2Favatars%2Fava_0019-512.png", "custom_css": null}, {"id": 8318, "slack_id": "U092NFQSRU0", "display_name": "OTHMAN", "bio": null, "projects_count": 0, "devlogs_count": 0, "votes_count": 0, "ships_count": 0, "projects": [], "coding_time_seconds": 0, "coding_time_seconds_today": 0, "balance": "You need to have a pocket watcher badge to view this.", "badges": [], "created_at": "2025-06-18T06:44:34.477-04:00", "updated_at": "2025-07-03T19:47:33.119-04:00", "avatar": "https://secure.gravatar.com/avatar/f83c8d234fbcd6a1a4833494cab18010.jpg?s=512&d=https%3A%2F%2Fa.slack-edge.com%2Fdf10d%2Fimg%2Favatars%2Fava_0025-512.png", "custom_css": null}, {"id": 8319, "slack_id": "U091TNC4U5C", "display_name": "Samiksha", "bio": null, "projects_count": 0, "devlogs_count": 0, "votes_count": 0, "ships_count": 0, "projects": [], "coding_time_seconds": 0, "coding_time_seconds_today": 0, "balance": "You need to have a pocket watcher badge to view this.", "badges": [], "created_at": "2025-06-18T06:44:38.117-04:00", "updated_at": "2025-07-03T19:47:33.383-04:00", "avatar": "https://secure.gravatar.com/avatar/28d5ab1bc1bc25ff6eba994c06969281.jpg?s=512&d=https%3A%2F%2Fa.slack-edge.com%2Fdf10d%2Fimg%2Favatars%2Fava_0022-512.png", "custom_css": null}, {"id": 8320, "slack_id": "U091TG3HELB", "display_name": "Piyush", "bio": null, "projects_count": 0, "devlogs_count": 0, "votes_count": 0, "ships_count": 0, "projects": [], "coding_time_seconds": 0, "coding_time_seconds_today": 0, "balance": "You need to have a pocket watcher badge to view this.", "badges": [], "created_at": "2025-06-18T06:45:38.881-04:00", "updated_at": "2025-07-03T19:47:33.649-04:00", "avatar": "https://secure.gravatar.com/avatar/6c9f5b9fd8606b6bcaeee58eb0cae998.jpg?s=512&d=https%3A%2F%2Fa.slack-edge.com%2Fdf10d%2Fimg%2Favatars%2Fava_0014-512.png", "custom_css": null}], "pagination": {"page": 416, "pages": 1192, "count": 23828, "items": 20}}