{"users": [{"id": 8321, "slack_id": "U08PE6H1PL6", "display_name": "Muzammil", "bio": null, "projects_count": 0, "devlogs_count": 0, "votes_count": 0, "ships_count": 0, "projects": [], "coding_time_seconds": 0, "coding_time_seconds_today": 0, "balance": "You need to have a pocket watcher badge to view this.", "badges": [], "created_at": "2025-06-18T06:46:39.495-04:00", "updated_at": "2025-07-03T19:47:33.912-04:00", "avatar": "https://secure.gravatar.com/avatar/42c930e2916f33367e979d1aa9f87389.jpg?s=512&d=https%3A%2F%2Fa.slack-edge.com%2Fdf10d%2Fimg%2Favatars%2Fava_0014-512.png", "custom_css": null}, {"id": 8322, "slack_id": "U091ZV6QHK4", "display_name": "Ritwik Banerjee", "bio": null, "projects_count": 0, "devlogs_count": 0, "votes_count": 0, "ships_count": 0, "projects": [], "coding_time_seconds": 0, "coding_time_seconds_today": 0, "balance": "You need to have a pocket watcher badge to view this.", "badges": [], "created_at": "2025-06-18T06:47:09.689-04:00", "updated_at": "2025-07-05T20:09:40.961-04:00", "avatar": "https://secure.gravatar.com/avatar/af372d6d952130face1b8f0c076e8be4.jpg?s=512&d=https%3A%2F%2Fa.slack-edge.com%2Fdf10d%2Fimg%2Favatars%2Fava_0025-512.png", "custom_css": null}, {"id": 8323, "slack_id": "U092002AT9Q", "display_name": "TimLiz", "bio": null, "projects_count": 0, "devlogs_count": 0, "votes_count": 0, "ships_count": 0, "projects": [], "coding_time_seconds": 0, "coding_time_seconds_today": 0, "balance": "You need to have a pocket watcher badge to view this.", "badges": [], "created_at": "2025-06-18T06:49:54.775-04:00", "updated_at": "2025-07-03T19:47:34.307-04:00", "avatar": "https://secure.gravatar.com/avatar/5151522e9620c717ca16e0a6e6564324.jpg?s=512&d=https%3A%2F%2Fa.slack-edge.com%2Fdf10d%2Fimg%2Favatars%2Fava_0022-512.png", "custom_css": null}, {"id": 8324, "slack_id": "U0920E066JG", "display_name": "Khrishnav Parasuraman", "bio": null, "projects_count": 2, "devlogs_count": 1, "votes_count": 2, "ships_count": 0, "projects": [{"id": 1564, "title": "Science Bowl Pro", "devlogs_count": 0, "created_at": "2025-06-18T18:44:47.610-04:00"}, {"id": 4489, "title": "SmartShade", "devlogs_count": 1, "created_at": "2025-06-30T09:42:21.703-04:00"}], "coding_time_seconds": 83589, "coding_time_seconds_today": 0, "balance": "You need to have a pocket watcher badge to view this.", "badges": [], "created_at": "2025-06-18T06:50:16.183-04:00", "updated_at": "2025-08-24T12:28:33.169-04:00", "avatar": "https://avatars.slack-edge.com/2025-06-18/9061797948150_0ba8666de16b89d932cd_original.jpg", "custom_css": null}, {"id": 8325, "slack_id": "U092NGLKR4Y", "display_name": "Sabhya Vashist", "bio": null, "projects_count": 0, "devlogs_count": 0, "votes_count": 0, "ships_count": 0, "projects": [], "coding_time_seconds": 0, "coding_time_seconds_today": 0, "balance": "You need to have a pocket watcher badge to view this.", "badges": [], "created_at": "2025-06-18T06:52:30.186-04:00", "updated_at": "2025-07-03T21:46:26.157-04:00", "avatar": "https://avatars.slack-edge.com/2025-06-18/9068027612562_cdc21ccad365ea547ec3_original.jpg", "custom_css": null}, {"id": 8326, "slack_id": "U091TGZU7LK", "display_name": "Vyankatesh", "bio": null, "projects_count": 0, "devlogs_count": 0, "votes_count": 0, "ships_count": 0, "projects": [], "coding_time_seconds": 35, "coding_time_seconds_today": 0, "balance": "You need to have a pocket watcher badge to view this.", "badges": [], "created_at": "2025-06-18T06:52:36.068-04:00", "updated_at": "2025-07-03T19:47:34.965-04:00", "avatar": "https://secure.gravatar.com/avatar/efac2560c24edb0c5176726115670144.jpg?s=512&d=https%3A%2F%2Fa.slack-edge.com%2Fdf10d%2Fimg%2Favatars%2Fava_0011-512.png", "custom_css": null}, {"id": 8327, "slack_id": "U091JEA31HD", "display_name": "Mike Nillo", "bio": null, "projects_count": 0, "devlogs_count": 0, "votes_count": 0, "ships_count": 0, "projects": [], "coding_time_seconds": 0, "coding_time_seconds_today": 0, "balance": "You need to have a pocket watcher badge to view this.", "badges": [], "created_at": "2025-06-18T06:53:41.330-04:00", "updated_at": "2025-07-03T19:47:35.227-04:00", "avatar": "https://avatars.slack-edge.com/2025-06-18/9053084387271_08c68f152b9b0f6b620e_original.jpg", "custom_css": null}, {"id": 8328, "slack_id": "U0920FC8KLL", "display_name": "Shantanu Kumar", "bio": null, "projects_count": 0, "devlogs_count": 0, "votes_count": 0, "ships_count": 0, "projects": [], "coding_time_seconds": 9168, "coding_time_seconds_today": 0, "balance": "You need to have a pocket watcher badge to view this.", "badges": [], "created_at": "2025-06-18T06:54:11.727-04:00", "updated_at": "2025-07-03T21:46:26.391-04:00", "avatar": "https://secure.gravatar.com/avatar/1f9a820f73ee41c7baec0858de45668b.jpg?s=512&d=https%3A%2F%2Fa.slack-edge.com%2Fdf10d%2Fimg%2Favatars%2Fava_0019-512.png", "custom_css": null}, {"id": 8329, "slack_id": "U091K261371", "display_name": "Mateus Loubach", "bio": null, "projects_count": 0, "devlogs_count": 0, "votes_count": 0, "ships_count": 0, "projects": [], "coding_time_seconds": 0, "coding_time_seconds_today": 0, "balance": "You need to have a pocket watcher badge to view this.", "badges": [], "created_at": "2025-06-18T06:54:41.808-04:00", "updated_at": "2025-07-04T02:27:47.288-04:00", "avatar": "https://avatars.slack-edge.com/2025-06-18/9053088086919_d891519df8cd4b47e3a8_original.png", "custom_css": null}, {"id": 8330, "slack_id": "U0920148CV8", "display_name": "640324", "bio": null, "projects_count": 0, "devlogs_count": 0, "votes_count": 0, "ships_count": 0, "projects": [], "coding_time_seconds": 0, "coding_time_seconds_today": 0, "balance": "You need to have a pocket watcher badge to view this.", "badges": [], "created_at": "2025-06-18T06:57:22.434-04:00", "updated_at": "2025-07-03T19:47:35.760-04:00", "avatar": "https://secure.gravatar.com/avatar/f0d75e6350938ac55450bfdd5fc1a707.jpg?s=512&d=https%3A%2F%2Fa.slack-edge.com%2Fdf10d%2Fimg%2Favatars%2Fava_0009-512.png", "custom_css": null}, {"id": 8331, "slack_id": "U092011FBQS", "display_name": "Naufal", "bio": null, "projects_count": 0, "devlogs_count": 0, "votes_count": 0, "ships_count": 0, "projects": [], "coding_time_seconds": 410763, "coding_time_seconds_today": 0, "balance": "You need to have a pocket watcher badge to view this.", "badges": [], "created_at": "2025-06-18T06:58:42.071-04:00", "updated_at": "2025-07-03T19:47:36.021-04:00", "avatar": "https://secure.gravatar.com/avatar/07b2319ee07d747ffc78461848d72150.jpg?s=512&d=https%3A%2F%2Fa.slack-edge.com%2Fdf10d%2Fimg%2Favatars%2Fava_0013-512.png", "custom_css": null}, {"id": 8332, "slack_id": "U091TGE344T", "display_name": "Tomas Fernandes", "bio": null, "projects_count": 0, "devlogs_count": 0, "votes_count": 0, "ships_count": 0, "projects": [], "coding_time_seconds": 0, "coding_time_seconds_today": 0, "balance": "You need to have a pocket watcher badge to view this.", "badges": [], "created_at": "2025-06-18T06:59:09.541-04:00", "updated_at": "2025-07-04T08:24:04.460-04:00", "avatar": "https://secure.gravatar.com/avatar/cac354abcb296b3a7f75c10b8dfafd55.jpg?s=512&d=https%3A%2F%2Fa.slack-edge.com%2Fdf10d%2Fimg%2Favatars%2Fava_0026-512.png", "custom_css": null}, {"id": 8333, "slack_id": "U092CN5CLPK", "display_name": "Nussi", "bio": null, "projects_count": 0, "devlogs_count": 0, "votes_count": 0, "ships_count": 0, "projects": [], "coding_time_seconds": 0, "coding_time_seconds_today": 0, "balance": "You need to have a pocket watcher badge to view this.", "badges": [], "created_at": "2025-06-18T07:00:02.155-04:00", "updated_at": "2025-07-03T19:47:36.422-04:00", "avatar": "https://secure.gravatar.com/avatar/407cedc1cbe9c8daf254cade086c0631.jpg?s=512&d=https%3A%2F%2Fa.slack-edge.com%2Fdf10d%2Fimg%2Favatars%2Fava_0014-512.png", "custom_css": null}, {"id": 8334, "slack_id": "U0920G60AEQ", "display_name": "Pawan 123", "bio": null, "projects_count": 0, "devlogs_count": 0, "votes_count": 0, "ships_count": 0, "projects": [], "coding_time_seconds": 0, "coding_time_seconds_today": 0, "balance": "You need to have a pocket watcher badge to view this.", "badges": [], "created_at": "2025-06-18T07:01:05.745-04:00", "updated_at": "2025-07-03T19:47:36.686-04:00", "avatar": "https://secure.gravatar.com/avatar/798d021f366be32a4c37eb063436f00e.jpg?s=512&d=https%3A%2F%2Fa.slack-edge.com%2Fdf10d%2Fimg%2Favatars%2Fava_0024-512.png", "custom_css": null}, {"id": 8335, "slack_id": "U0920GFV8G4", "display_name": "sz0msz3dvagy0k", "bio": null, "projects_count": 1, "devlogs_count": 5, "votes_count": 0, "ships_count": 0, "projects": [{"id": 2191, "title": "Spotify Analysis", "devlogs_count": 5, "created_at": "2025-06-20T11:48:51.313-04:00"}], "coding_time_seconds": 58851, "coding_time_seconds_today": 0, "balance": "You need to have a pocket watcher badge to view this.", "badges": [], "created_at": "2025-06-18T07:03:32.271-04:00", "updated_at": "2025-07-03T19:47:37.023-04:00", "avatar": "https://secure.gravatar.com/avatar/29db4914028ddb3f86349914941fb1e1.jpg?s=512&d=https%3A%2F%2Fa.slack-edge.com%2Fdf10d%2Fimg%2Favatars%2Fava_0003-512.png", "custom_css": null}, {"id": 8336, "slack_id": "U092CK959B3", "display_name": "Fahad Jameel", "bio": null, "projects_count": 0, "devlogs_count": 0, "votes_count": 0, "ships_count": 0, "projects": [], "coding_time_seconds": 0, "coding_time_seconds_today": 0, "balance": "You need to have a pocket watcher badge to view this.", "badges": [], "created_at": "2025-06-18T07:05:03.306-04:00", "updated_at": "2025-07-04T02:27:47.770-04:00", "avatar": "https://secure.gravatar.com/avatar/10dedf11723031a2350804dd91bd2d33.jpg?s=512&d=https%3A%2F%2Fa.slack-edge.com%2Fdf10d%2Fimg%2Favatars%2Fava_0016-512.png", "custom_css": null}, {"id": 8337, "slack_id": "U091TJTNRPD", "display_name": "prithvi", "bio": null, "projects_count": 0, "devlogs_count": 0, "votes_count": 0, "ships_count": 0, "projects": [], "coding_time_seconds": 0, "coding_time_seconds_today": 0, "balance": "You need to have a pocket watcher badge to view this.", "badges": [], "created_at": "2025-06-18T07:05:11.977-04:00", "updated_at": "2025-07-03T19:47:37.428-04:00", "avatar": "https://avatars.slack-edge.com/2025-06-18/9068585855252_66adb2d638ebac2e7d36_original.png", "custom_css": null}, {"id": 8338, "slack_id": "U092NJHAD16", "display_name": "mats", "bio": null, "projects_count": 0, "devlogs_count": 0, "votes_count": 0, "ships_count": 0, "projects": [], "coding_time_seconds": 0, "coding_time_seconds_today": 0, "balance": "You need to have a pocket watcher badge to view this.", "badges": [], "created_at": "2025-06-18T07:05:57.443-04:00", "updated_at": "2025-07-03T19:47:37.698-04:00", "avatar": "https://secure.gravatar.com/avatar/f4cac77d6bd7222c5a66543e64e5f24f.jpg?s=512&d=https%3A%2F%2Fa.slack-edge.com%2Fdf10d%2Fimg%2Favatars%2Fava_0015-512.png", "custom_css": null}, {"id": 8339, "slack_id": "U091YM249HT", "display_name": "Lambdan", "bio": null, "projects_count": 1, "devlogs_count": 2, "votes_count": 2, "ships_count": 0, "projects": [{"id": 3108, "title": "OpenGL Renderer", "devlogs_count": 2, "created_at": "2025-06-23T05:57:03.637-04:00"}], "coding_time_seconds": 9647, "coding_time_seconds_today": 0, "balance": "You need to have a pocket watcher badge to view this.", "badges": [], "created_at": "2025-06-18T07:05:58.862-04:00", "updated_at": "2025-07-03T19:47:37.969-04:00", "avatar": "https://secure.gravatar.com/avatar/440c1ecb3070be8d649abb6b39c78b93.jpg?s=512&d=https%3A%2F%2Fa.slack-edge.com%2Fdf10d%2Fimg%2Favatars%2Fava_0021-512.png", "custom_css": null}, {"id": 8340, "slack_id": "U0920GRV0NQ", "display_name": "J\u00e4ssin", "bio": null, "projects_count": 0, "devlogs_count": 0, "votes_count": 0, "ships_count": 0, "projects": [], "coding_time_seconds": 0, "coding_time_seconds_today": 0, "balance": "You need to have a pocket watcher badge to view this.", "badges": [], "created_at": "2025-06-18T07:06:29.295-04:00", "updated_at": "2025-07-03T19:47:38.231-04:00", "avatar": "https://secure.gravatar.com/avatar/7ec54dedd59ec957687a9638a03ec722.jpg?s=512&d=https%3A%2F%2Fa.slack-edge.com%2Fdf10d%2Fimg%2Favatars%2Fava_0003-512.png", "custom_css": null}], "pagination": {"page": 417, "pages": 1192, "count": 23828, "items": 20}}