{"users": [{"id": 8341, "slack_id": "U091TR21PD4", "display_name": "Alexander Freitag", "bio": null, "projects_count": 0, "devlogs_count": 0, "votes_count": 0, "ships_count": 0, "projects": [], "coding_time_seconds": 0, "coding_time_seconds_today": 0, "balance": "You need to have a pocket watcher badge to view this.", "badges": [], "created_at": "2025-06-18T07:06:38.857-04:00", "updated_at": "2025-07-03T19:47:38.496-04:00", "avatar": "https://secure.gravatar.com/avatar/e1faeed420c2afa712ac090e14ae14af.jpg?s=512&d=https%3A%2F%2Fa.slack-edge.com%2Fdf10d%2Fimg%2Favatars%2Fava_0017-512.png", "custom_css": null}, {"id": 8342, "slack_id": "U092NJN3KGQ", "display_name": "Vitor Hugo Dallanol", "bio": null, "projects_count": 0, "devlogs_count": 0, "votes_count": 0, "ships_count": 0, "projects": [], "coding_time_seconds": 0, "coding_time_seconds_today": 0, "balance": "You need to have a pocket watcher badge to view this.", "badges": [], "created_at": "2025-06-18T07:06:48.371-04:00", "updated_at": "2025-07-05T14:10:29.305-04:00", "avatar": "https://secure.gravatar.com/avatar/fb0d8473615bca08008255b60280416e.jpg?s=512&d=https%3A%2F%2Fa.slack-edge.com%2Fdf10d%2Fimg%2Favatars%2Fava_0014-512.png", "custom_css": null}, {"id": 8343, "slack_id": "U091K3WCFST", "display_name": "Samiksha Sai Thogeti", "bio": null, "projects_count": 0, "devlogs_count": 0, "votes_count": 0, "ships_count": 0, "projects": [], "coding_time_seconds": 0, "coding_time_seconds_today": 0, "balance": "You need to have a pocket watcher badge to view this.", "badges": [], "created_at": "2025-06-18T07:06:52.031-04:00", "updated_at": "2025-07-04T20:08:52.818-04:00", "avatar": "https://avatars.slack-edge.com/2025-06-18/9061666387875_62aff7bd4f885aae4312_original.png", "custom_css": null}, {"id": 8344, "slack_id": "U091TFAGS4T", "display_name": "Tim_the_Tree", "bio": null, "projects_count": 0, "devlogs_count": 0, "votes_count": 0, "ships_count": 0, "projects": [], "coding_time_seconds": 1, "coding_time_seconds_today": 0, "balance": "You need to have a pocket watcher badge to view this.", "badges": [], "created_at": "2025-06-18T07:07:09.137-04:00", "updated_at": "2025-07-03T19:47:39.029-04:00", "avatar": "https://secure.gravatar.com/avatar/291e85af843b0d10295c5103f1baf0e2.jpg?s=512&d=https%3A%2F%2Fa.slack-edge.com%2Fdf10d%2Fimg%2Favatars%2Fava_0004-512.png", "custom_css": null}, {"id": 8345, "slack_id": "U092NJX6A2C", "display_name": "Anel", "bio": null, "projects_count": 0, "devlogs_count": 0, "votes_count": 0, "ships_count": 0, "projects": [], "coding_time_seconds": 47335, "coding_time_seconds_today": 0, "balance": "You need to have a pocket watcher badge to view this.", "badges": [], "created_at": "2025-06-18T07:10:27.248-04:00", "updated_at": "2025-07-06T02:10:27.838-04:00", "avatar": "https://secure.gravatar.com/avatar/1a85e951c3c38fe36188cdd599d4b8f9.jpg?s=512&d=https%3A%2F%2Fa.slack-edge.com%2Fdf10d%2Fimg%2Favatars%2Fava_0024-512.png", "custom_css": null}, {"id": 8346, "slack_id": "U091YQ3UEM8", "display_name": "Manu Agarwal", "bio": null, "projects_count": 0, "devlogs_count": 0, "votes_count": 0, "ships_count": 0, "projects": [], "coding_time_seconds": 38695, "coding_time_seconds_today": 0, "balance": "You need to have a pocket watcher badge to view this.", "badges": [], "created_at": "2025-06-18T07:11:49.887-04:00", "updated_at": "2025-07-03T19:47:39.422-04:00", "avatar": "https://avatars.slack-edge.com/2025-06-18/9090868584496_1187bdb2d43aa6ac263e_original.jpg", "custom_css": null}, {"id": 8347, "slack_id": "U091TRXETM4", "display_name": "Ameya K S", "bio": null, "projects_count": 0, "devlogs_count": 0, "votes_count": 0, "ships_count": 0, "projects": [], "coding_time_seconds": 22202, "coding_time_seconds_today": 0, "balance": "You need to have a pocket watcher badge to view this.", "badges": [], "created_at": "2025-06-18T07:11:53.415-04:00", "updated_at": "2025-07-03T19:47:39.692-04:00", "avatar": "https://secure.gravatar.com/avatar/eb9164b97ca7229c1304ec3a7616615d.jpg?s=512&d=https%3A%2F%2Fa.slack-edge.com%2Fdf10d%2Fimg%2Favatars%2Fava_0006-512.png", "custom_css": null}, {"id": 8348, "slack_id": "U091TRR6VC6", "display_name": "Kamal Aliyu (CogniEdufy)", "bio": null, "projects_count": 0, "devlogs_count": 0, "votes_count": 0, "ships_count": 0, "projects": [], "coding_time_seconds": 0, "coding_time_seconds_today": 0, "balance": "You need to have a pocket watcher badge to view this.", "badges": [], "created_at": "2025-06-18T07:12:34.081-04:00", "updated_at": "2025-07-04T02:27:48.617-04:00", "avatar": "https://avatars.slack-edge.com/2025-06-18/9068114699202_8bb15623f41387225867_original.png", "custom_css": null}, {"id": 8349, "slack_id": "U086Q8HU7UH", "display_name": "Dr.Gregory.House", "bio": null, "projects_count": 2, "devlogs_count": 1, "votes_count": 4, "ships_count": 0, "projects": [{"id": 12626, "title": "Baymax", "devlogs_count": 0, "created_at": "2025-08-30T17:43:21.765-04:00"}, {"id": 12628, "title": "Wallpaper scalper", "devlogs_count": 1, "created_at": "2025-08-30T18:03:52.776-04:00"}], "coding_time_seconds": 4095, "coding_time_seconds_today": 0, "balance": "You need to have a pocket watcher badge to view this.", "badges": [], "created_at": "2025-06-18T07:13:13.043-04:00", "updated_at": "2025-08-31T01:30:06.164-04:00", "avatar": "https://avatars.slack-edge.com/2024-12-23/8215511158739_5b555385998e2ddbf6a8_original.gif", "custom_css": null}, {"id": 8350, "slack_id": "U091YN60V6H", "display_name": "Deepali Mohapatra", "bio": null, "projects_count": 0, "devlogs_count": 0, "votes_count": 0, "ships_count": 0, "projects": [], "coding_time_seconds": 0, "coding_time_seconds_today": 0, "balance": "You need to have a pocket watcher badge to view this.", "badges": [], "created_at": "2025-06-18T07:13:25.437-04:00", "updated_at": "2025-07-03T19:47:40.348-04:00", "avatar": "https://avatars.slack-edge.com/2025-06-18/9066767399349_2bd927064323c80598d3_original.png", "custom_css": null}, {"id": 8351, "slack_id": "U092CQ0F75F", "display_name": "Pratham seth", "bio": null, "projects_count": 0, "devlogs_count": 0, "votes_count": 0, "ships_count": 0, "projects": [], "coding_time_seconds": 0, "coding_time_seconds_today": 0, "balance": "You need to have a pocket watcher badge to view this.", "badges": [], "created_at": "2025-06-18T07:13:25.549-04:00", "updated_at": "2025-07-04T02:27:48.853-04:00", "avatar": "https://avatars.slack-edge.com/2025-06-18/9090674921248_3cc0b1fbf66ac6be3f5e_original.jpg", "custom_css": null}, {"id": 8352, "slack_id": "U091YN9C8N9", "display_name": "Krishna Kumar Reddy Alavalapati", "bio": null, "projects_count": 0, "devlogs_count": 0, "votes_count": 0, "ships_count": 0, "projects": [], "coding_time_seconds": 0, "coding_time_seconds_today": 0, "balance": "You need to have a pocket watcher badge to view this.", "badges": [], "created_at": "2025-06-18T07:13:56.413-04:00", "updated_at": "2025-07-04T20:08:53.398-04:00", "avatar": "https://avatars.slack-edge.com/2025-06-18/9080832752401_0951c14a437f74396fff_original.jpg", "custom_css": null}, {"id": 8353, "slack_id": "U091PM2GV42", "display_name": "Manav Adhyaru", "bio": null, "projects_count": 0, "devlogs_count": 0, "votes_count": 0, "ships_count": 0, "projects": [], "coding_time_seconds": 0, "coding_time_seconds_today": 0, "balance": "You need to have a pocket watcher badge to view this.", "badges": [], "created_at": "2025-06-18T07:15:24.980-04:00", "updated_at": "2025-07-06T20:09:44.770-04:00", "avatar": "https://avatars.slack-edge.com/2025-06-18/9068125091010_fea37d285f4024aec7c2_original.jpg", "custom_css": null}, {"id": 8354, "slack_id": "U07QVGFRW01", "display_name": "Berk", "bio": "Hi", "projects_count": 1, "devlogs_count": 7, "votes_count": 11, "ships_count": 1, "projects": [{"id": 7788, "title": "Quiz Quest", "devlogs_count": 7, "created_at": "2025-07-23T03:47:32.124-04:00"}], "coding_time_seconds": 233626, "coding_time_seconds_today": 0, "balance": "You need to have a pocket watcher badge to view this.", "badges": [{"name": "Maiden Voyage", "text": "you shipped your first project! the journey begins...", "icon": "\ud83d\udea2"}, {"name": "Spider", "text": "this user has a pet!", "icon": "\ud83d\udd77\ufe0f"}], "created_at": "2025-06-18T07:21:25.951-04:00", "updated_at": "2025-09-10T22:55:17.887-04:00", "avatar": "https://avatars.slack-edge.com/2025-07-25/9265016359841_0933aad74ac442f3ad7f_original.jpg", "custom_css": null}, {"id": 8355, "slack_id": "U092NLC3ZLY", "display_name": "Marek", "bio": null, "projects_count": 0, "devlogs_count": 0, "votes_count": 0, "ships_count": 0, "projects": [], "coding_time_seconds": 0, "coding_time_seconds_today": 0, "balance": "You need to have a pocket watcher badge to view this.", "badges": [], "created_at": "2025-06-18T07:22:06.929-04:00", "updated_at": "2025-07-03T19:47:41.151-04:00", "avatar": "https://secure.gravatar.com/avatar/fc238b7ac6b5c17899b5b09dc00a78d3.jpg?s=512&d=https%3A%2F%2Fa.slack-edge.com%2Fdf10d%2Fimg%2Favatars%2Fava_0010-512.png", "custom_css": null}, {"id": 8356, "slack_id": "U092CR0C065", "display_name": "Rohit Joshi", "bio": null, "projects_count": 0, "devlogs_count": 0, "votes_count": 0, "ships_count": 0, "projects": [], "coding_time_seconds": 518547, "coding_time_seconds_today": 0, "balance": "You need to have a pocket watcher badge to view this.", "badges": [], "created_at": "2025-06-18T07:23:15.182-04:00", "updated_at": "2025-07-03T19:47:41.412-04:00", "avatar": "https://avatars.slack-edge.com/2025-06-18/9090713188048_74b1dc106e1eee5da1fb_original.jpg", "custom_css": null}, {"id": 8357, "slack_id": "U092CR69SFK", "display_name": "Hamza (Elreahy)", "bio": null, "projects_count": 0, "devlogs_count": 0, "votes_count": 0, "ships_count": 0, "projects": [], "coding_time_seconds": 4898, "coding_time_seconds_today": 0, "balance": "You need to have a pocket watcher badge to view this.", "badges": [], "created_at": "2025-06-18T07:26:02.365-04:00", "updated_at": "2025-07-03T19:47:41.682-04:00", "avatar": "https://secure.gravatar.com/avatar/ae0bff053519f2c7e20ed7d89b630e07.jpg?s=512&d=https%3A%2F%2Fa.slack-edge.com%2Fdf10d%2Fimg%2Favatars%2Fava_0024-512.png", "custom_css": null}, {"id": 8358, "slack_id": "U092NM2GSHE", "display_name": "Felix Windel", "bio": null, "projects_count": 0, "devlogs_count": 0, "votes_count": 0, "ships_count": 0, "projects": [], "coding_time_seconds": 1727, "coding_time_seconds_today": 0, "balance": "You need to have a pocket watcher badge to view this.", "badges": [], "created_at": "2025-06-18T07:28:28.039-04:00", "updated_at": "2025-07-03T21:58:25.508-04:00", "avatar": "https://avatars.slack-edge.com/2025-06-18/9081015469537_86b16b08c0b277e8f283_original.png", "custom_css": null}, {"id": 8359, "slack_id": "U092NM2B188", "display_name": "Shivam Tiwari", "bio": null, "projects_count": 0, "devlogs_count": 0, "votes_count": 0, "ships_count": 0, "projects": [], "coding_time_seconds": 0, "coding_time_seconds_today": 0, "balance": "You need to have a pocket watcher badge to view this.", "badges": [], "created_at": "2025-06-18T07:28:36.871-04:00", "updated_at": "2025-07-03T19:47:42.078-04:00", "avatar": "https://avatars.slack-edge.com/2025-06-18/9068175105138_d54b94e85f6e4d146ce9_original.png", "custom_css": null}, {"id": 8360, "slack_id": "U091YQ7LFA9", "display_name": "oumaima el", "bio": null, "projects_count": 0, "devlogs_count": 0, "votes_count": 0, "ships_count": 0, "projects": [], "coding_time_seconds": 0, "coding_time_seconds_today": 0, "balance": "You need to have a pocket watcher badge to view this.", "badges": [], "created_at": "2025-06-18T07:29:17.547-04:00", "updated_at": "2025-07-03T19:47:42.349-04:00", "avatar": "https://avatars.slack-edge.com/2025-06-18/9090744461440_027ed0ef3847d497f274_original.jpg", "custom_css": null}], "pagination": {"page": 418, "pages": 1192, "count": 23828, "items": 20}}