{"users": [{"id": 8361, "slack_id": "U0920KNKF52", "display_name": "Oskar", "bio": null, "projects_count": 0, "devlogs_count": 0, "votes_count": 0, "ships_count": 0, "projects": [], "coding_time_seconds": 0, "coding_time_seconds_today": 0, "balance": "You need to have a pocket watcher badge to view this.", "badges": [], "created_at": "2025-06-18T07:30:06.480-04:00", "updated_at": "2025-07-03T19:47:42.613-04:00", "avatar": "https://secure.gravatar.com/avatar/cf89ceac62a4823889d324b1e5f601ce.jpg?s=512&d=https%3A%2F%2Fa.slack-edge.com%2Fdf10d%2Fimg%2Favatars%2Fava_0023-512.png", "custom_css": null}, {"id": 8362, "slack_id": "U091TU2QH54", "display_name": "leviipope", "bio": null, "projects_count": 0, "devlogs_count": 0, "votes_count": 0, "ships_count": 0, "projects": [], "coding_time_seconds": 0, "coding_time_seconds_today": 0, "balance": "You need to have a pocket watcher badge to view this.", "badges": [], "created_at": "2025-06-18T07:31:11.738-04:00", "updated_at": "2025-07-03T19:47:42.873-04:00", "avatar": "https://secure.gravatar.com/avatar/39484d5228abcb696ad97f3ac0609f5e.jpg?s=512&d=https%3A%2F%2Fa.slack-edge.com%2Fdf10d%2Fimg%2Favatars%2Fava_0008-512.png", "custom_css": null}, {"id": 8363, "slack_id": "U091YQBFVU5", "display_name": "Muhammad Rehan Baig", "bio": null, "projects_count": 0, "devlogs_count": 0, "votes_count": 0, "ships_count": 0, "projects": [], "coding_time_seconds": 0, "coding_time_seconds_today": 0, "balance": "You need to have a pocket watcher badge to view this.", "badges": [], "created_at": "2025-06-18T07:31:20.411-04:00", "updated_at": "2025-07-03T21:46:28.660-04:00", "avatar": "https://secure.gravatar.com/avatar/648b82b267345765e9965f9fe82ac138.jpg?s=512&d=https%3A%2F%2Fa.slack-edge.com%2Fdf10d%2Fimg%2Favatars%2Fava_0011-512.png", "custom_css": null}, {"id": 8364, "slack_id": "U091YQ7SNR3", "display_name": "utkarsh shahare", "bio": null, "projects_count": 0, "devlogs_count": 0, "votes_count": 0, "ships_count": 0, "projects": [], "coding_time_seconds": 71, "coding_time_seconds_today": 0, "balance": "You need to have a pocket watcher badge to view this.", "badges": [], "created_at": "2025-06-18T07:31:35.024-04:00", "updated_at": "2025-07-03T19:47:43.269-04:00", "avatar": "https://avatars.slack-edge.com/2025-06-18/9090749356432_9af7a3b0052be9419c97_original.jpg", "custom_css": null}, {"id": 8365, "slack_id": "U091YQGBF0D", "display_name": "Sandra", "bio": null, "projects_count": 0, "devlogs_count": 0, "votes_count": 0, "ships_count": 0, "projects": [], "coding_time_seconds": 0, "coding_time_seconds_today": 0, "balance": "You need to have a pocket watcher badge to view this.", "badges": [], "created_at": "2025-06-18T07:32:28.522-04:00", "updated_at": "2025-07-03T19:47:43.537-04:00", "avatar": "https://secure.gravatar.com/avatar/d4ab50acb67b739c95a4e7e4ff882cc6.jpg?s=512&d=https%3A%2F%2Fa.slack-edge.com%2Fdf10d%2Fimg%2Favatars%2Fava_0024-512.png", "custom_css": null}, {"id": 8366, "slack_id": "U078JTEMPV0", "display_name": "Benpai", "bio": null, "projects_count": 4, "devlogs_count": 5, "votes_count": 4, "ships_count": 2, "projects": [{"id": 1546, "title": "Venture", "devlogs_count": 1, "created_at": "2025-06-18T18:01:40.460-04:00"}, {"id": 5325, "title": "Discord QR Code Auth Client", "devlogs_count": 2, "created_at": "2025-07-04T12:54:50.788-04:00"}, {"id": 8150, "title": "Personal Code", "devlogs_count": 0, "created_at": "2025-07-24T23:47:22.289-04:00"}, {"id": 1465, "title": "Personal Website", "devlogs_count": 2, "created_at": "2025-06-18T15:44:13.960-04:00"}], "coding_time_seconds": 167949, "coding_time_seconds_today": 0, "balance": "You need to have a pocket watcher badge to view this.", "badges": [{"name": "Maiden Voyage", "text": "you shipped your first project! the journey begins...", "icon": "\ud83d\udea2"}], "created_at": "2025-06-18T07:34:54.766-04:00", "updated_at": "2025-09-10T22:55:18.218-04:00", "avatar": "https://avatars.slack-edge.com/2024-06-17/7303603168849_0b97fd43d8e750df6f13_original.jpg", "custom_css": null}, {"id": 8367, "slack_id": "U091K7JR3QX", "display_name": "Mayank", "bio": null, "projects_count": 0, "devlogs_count": 0, "votes_count": 0, "ships_count": 0, "projects": [], "coding_time_seconds": 120773, "coding_time_seconds_today": 0, "balance": "You need to have a pocket watcher badge to view this.", "badges": [], "created_at": "2025-06-18T07:35:29.881-04:00", "updated_at": "2025-07-06T20:09:45.631-04:00", "avatar": "https://secure.gravatar.com/avatar/e23cfff7fc8935f68fd7abf5b76bcc71.jpg?s=512&d=https%3A%2F%2Fa.slack-edge.com%2Fdf10d%2Fimg%2Favatars%2Fava_0026-512.png", "custom_css": null}, {"id": 8368, "slack_id": "U09204DGE7L", "display_name": "Sabareesh S P", "bio": null, "projects_count": 0, "devlogs_count": 0, "votes_count": 0, "ships_count": 0, "projects": [], "coding_time_seconds": 0, "coding_time_seconds_today": 0, "balance": "You need to have a pocket watcher badge to view this.", "badges": [], "created_at": "2025-06-18T07:36:12.956-04:00", "updated_at": "2025-07-03T19:47:44.217-04:00", "avatar": "https://secure.gravatar.com/avatar/d74ab98061d922b0b64a6649ee8eacee.jpg?s=512&d=https%3A%2F%2Fa.slack-edge.com%2Fdf10d%2Fimg%2Favatars%2Fava_0006-512.png", "custom_css": null}, {"id": 8369, "slack_id": "U092CRLU03T", "display_name": "Adam", "bio": null, "projects_count": 0, "devlogs_count": 0, "votes_count": 0, "ships_count": 0, "projects": [], "coding_time_seconds": 0, "coding_time_seconds_today": 0, "balance": "You need to have a pocket watcher badge to view this.", "badges": [], "created_at": "2025-06-18T07:37:33.592-04:00", "updated_at": "2025-07-03T19:47:44.475-04:00", "avatar": "https://secure.gravatar.com/avatar/4a889475595f754c66d456062d888754.jpg?s=512&d=https%3A%2F%2Fa.slack-edge.com%2Fdf10d%2Fimg%2Favatars%2Fava_0001-512.png", "custom_css": null}, {"id": 8370, "slack_id": "U0920LRRNKW", "display_name": "novak38", "bio": null, "projects_count": 0, "devlogs_count": 0, "votes_count": 0, "ships_count": 0, "projects": [], "coding_time_seconds": 0, "coding_time_seconds_today": 0, "balance": "You need to have a pocket watcher badge to view this.", "badges": [], "created_at": "2025-06-18T07:38:17.814-04:00", "updated_at": "2025-07-03T19:47:44.742-04:00", "avatar": "https://secure.gravatar.com/avatar/b52a3a9c7f0bd6b2c7b3ed3be390ce99.jpg?s=512&d=https%3A%2F%2Fa.slack-edge.com%2Fdf10d%2Fimg%2Favatars%2Fava_0009-512.png", "custom_css": null}, {"id": 8371, "slack_id": "U091TP76QTV", "display_name": "Roshi Venkat", "bio": null, "projects_count": 0, "devlogs_count": 0, "votes_count": 0, "ships_count": 0, "projects": [], "coding_time_seconds": 1973, "coding_time_seconds_today": 0, "balance": "You need to have a pocket watcher badge to view this.", "badges": [], "created_at": "2025-06-18T07:39:22.008-04:00", "updated_at": "2025-07-03T19:47:44.996-04:00", "avatar": "https://secure.gravatar.com/avatar/c0548d847dbd08ec1320bd420b594d1c.jpg?s=512&d=https%3A%2F%2Fa.slack-edge.com%2Fdf10d%2Fimg%2Favatars%2Fava_0014-512.png", "custom_css": null}, {"id": 8372, "slack_id": "U091YRXJ49K", "display_name": "Emilio", "bio": null, "projects_count": 0, "devlogs_count": 0, "votes_count": 0, "ships_count": 0, "projects": [], "coding_time_seconds": 0, "coding_time_seconds_today": 0, "balance": "You need to have a pocket watcher badge to view this.", "badges": [], "created_at": "2025-06-18T07:42:53.022-04:00", "updated_at": "2025-07-03T19:47:45.256-04:00", "avatar": "https://secure.gravatar.com/avatar/0fa95872ebc5bf9f737ccc7c613435e4.jpg?s=512&d=https%3A%2F%2Fa.slack-edge.com%2Fdf10d%2Fimg%2Favatars%2Fava_0023-512.png", "custom_css": null}, {"id": 8373, "slack_id": "U092NP6EY64", "display_name": "Rexley Shum", "bio": null, "projects_count": 0, "devlogs_count": 0, "votes_count": 0, "ships_count": 0, "projects": [], "coding_time_seconds": 0, "coding_time_seconds_today": 0, "balance": "You need to have a pocket watcher badge to view this.", "badges": [], "created_at": "2025-06-18T07:44:42.053-04:00", "updated_at": "2025-07-03T19:47:45.523-04:00", "avatar": "https://secure.gravatar.com/avatar/07bab2887b236cf802a619a6f9fce9c7.jpg?s=512&d=https%3A%2F%2Fa.slack-edge.com%2Fdf10d%2Fimg%2Favatars%2Fava_0014-512.png", "custom_css": null}, {"id": 8374, "slack_id": "U091TQ1R8SF", "display_name": "salah eddine bendyab", "bio": null, "projects_count": 0, "devlogs_count": 0, "votes_count": 0, "ships_count": 0, "projects": [], "coding_time_seconds": 524075, "coding_time_seconds_today": 0, "balance": "You need to have a pocket watcher badge to view this.", "badges": [], "created_at": "2025-06-18T07:46:01.820-04:00", "updated_at": "2025-07-03T19:47:45.788-04:00", "avatar": "https://secure.gravatar.com/avatar/11285e247f0ffa0d4f7264b2f62b149b.jpg?s=512&d=https%3A%2F%2Fa.slack-edge.com%2Fdf10d%2Fimg%2Favatars%2Fava_0002-512.png", "custom_css": null}, {"id": 8375, "slack_id": "U092NP0NRCG", "display_name": "Tayyaba Noor Ansari", "bio": null, "projects_count": 0, "devlogs_count": 0, "votes_count": 0, "ships_count": 0, "projects": [], "coding_time_seconds": 26801, "coding_time_seconds_today": 0, "balance": "You need to have a pocket watcher badge to view this.", "badges": [], "created_at": "2025-06-18T07:46:19.508-04:00", "updated_at": "2025-07-03T19:47:46.051-04:00", "avatar": "https://secure.gravatar.com/avatar/6e0b87240502a48dee42af1617c55a74.jpg?s=512&d=https%3A%2F%2Fa.slack-edge.com%2Fdf10d%2Fimg%2Favatars%2Fava_0009-512.png", "custom_css": null}, {"id": 8376, "slack_id": "U09206VNX2N", "display_name": "Anas", "bio": null, "projects_count": 0, "devlogs_count": 0, "votes_count": 0, "ships_count": 0, "projects": [], "coding_time_seconds": 0, "coding_time_seconds_today": 0, "balance": "You need to have a pocket watcher badge to view this.", "badges": [], "created_at": "2025-06-18T07:46:45.865-04:00", "updated_at": "2025-07-03T19:47:46.315-04:00", "avatar": "https://secure.gravatar.com/avatar/b0db3ea29320d96ebe82dd222254040e.jpg?s=512&d=https%3A%2F%2Fa.slack-edge.com%2Fdf10d%2Fimg%2Favatars%2Fava_0005-512.png", "custom_css": null}, {"id": 8377, "slack_id": "U092CU2D9MX", "display_name": "alpha diallo", "bio": null, "projects_count": 0, "devlogs_count": 0, "votes_count": 0, "ships_count": 0, "projects": [], "coding_time_seconds": 407227, "coding_time_seconds_today": 0, "balance": "You need to have a pocket watcher badge to view this.", "badges": [], "created_at": "2025-06-18T07:47:08.143-04:00", "updated_at": "2025-07-03T19:47:46.583-04:00", "avatar": "https://secure.gravatar.com/avatar/550e0b2edab969e1aab7e3a3898eb2bd.jpg?s=512&d=https%3A%2F%2Fa.slack-edge.com%2Fdf10d%2Fimg%2Favatars%2Fava_0008-512.png", "custom_css": null}, {"id": 8378, "slack_id": "U092074L9A6", "display_name": "Joe ElKhaiat", "bio": null, "projects_count": 0, "devlogs_count": 0, "votes_count": 0, "ships_count": 0, "projects": [], "coding_time_seconds": 2566, "coding_time_seconds_today": 0, "balance": "You need to have a pocket watcher badge to view this.", "badges": [], "created_at": "2025-06-18T07:48:40.653-04:00", "updated_at": "2025-07-03T19:47:46.909-04:00", "avatar": "https://avatars.slack-edge.com/2025-06-18/9068243222002_c80c128a94988f8c290f_original.jpg", "custom_css": null}, {"id": 8379, "slack_id": "U091U1373QE", "display_name": "Waleed Ahmed Shahid", "bio": null, "projects_count": 0, "devlogs_count": 0, "votes_count": 0, "ships_count": 0, "projects": [], "coding_time_seconds": 0, "coding_time_seconds_today": 0, "balance": "You need to have a pocket watcher badge to view this.", "badges": [], "created_at": "2025-06-18T07:49:16.069-04:00", "updated_at": "2025-07-03T21:58:27.094-04:00", "avatar": "https://secure.gravatar.com/avatar/c51443752d0e72de2190fb3eeaf6e1de.jpg?s=512&d=https%3A%2F%2Fa.slack-edge.com%2Fdf10d%2Fimg%2Favatars%2Fava_0018-512.png", "custom_css": null}, {"id": 8380, "slack_id": "U026T27FC5S", "display_name": "Proton", "bio": null, "projects_count": 0, "devlogs_count": 0, "votes_count": 0, "ships_count": 0, "projects": [], "coding_time_seconds": 106706, "coding_time_seconds_today": 0, "balance": "You need to have a pocket watcher badge to view this.", "badges": [], "created_at": "2025-06-18T07:50:04.280-04:00", "updated_at": "2025-07-03T19:47:47.313-04:00", "avatar": "https://avatars.slack-edge.com/2024-01-08/6438354864437_48652cd8951b75ff3567_original.png", "custom_css": null}], "pagination": {"page": 419, "pages": 1192, "count": 23828, "items": 20}}