{"users": [{"id": 821, "slack_id": "U091FTLS8GN", "display_name": "Fernando Tello", "bio": null, "projects_count": 1, "devlogs_count": 0, "votes_count": 0, "ships_count": 0, "projects": [{"id": 2449, "title": "Echomind", "devlogs_count": 0, "created_at": "2025-06-21T04:03:08.557-04:00"}], "coding_time_seconds": 131041, "coding_time_seconds_today": 5302, "balance": "You need to have a pocket watcher badge to view this.", "badges": [], "created_at": "2025-06-16T12:17:30.150-04:00", "updated_at": "2025-07-03T19:14:44.980-04:00", "avatar": "https://secure.gravatar.com/avatar/4d654be3195fb3fa3689b2a9e70384da.jpg?s=512&d=https%3A%2F%2Fa.slack-edge.com%2Fdf10d%2Fimg%2Favatars%2Fava_0000-512.png", "custom_css": null}, {"id": 822, "slack_id": "U091MDXS16Z", "display_name": "priyanshu Verma", "bio": null, "projects_count": 0, "devlogs_count": 0, "votes_count": 0, "ships_count": 0, "projects": [], "coding_time_seconds": 0, "coding_time_seconds_today": 0, "balance": "You need to have a pocket watcher badge to view this.", "badges": [], "created_at": "2025-06-16T12:17:30.502-04:00", "updated_at": "2025-07-03T19:14:45.247-04:00", "avatar": "https://secure.gravatar.com/avatar/d22606cfb98878d7dcabcd50d9cca332.jpg?s=512&d=https%3A%2F%2Fa.slack-edge.com%2Fdf10d%2Fimg%2Favatars%2Fava_0015-512.png", "custom_css": null}, {"id": 823, "slack_id": "U091M19PNSZ", "display_name": "Sedar", "bio": null, "projects_count": 3, "devlogs_count": 1, "votes_count": 0, "ships_count": 1, "projects": [{"id": 184, "title": "Network Pokemon", "devlogs_count": 0, "created_at": "2025-06-16T15:06:57.876-04:00"}, {"id": 195, "title": "DysnomiaJs", "devlogs_count": 0, "created_at": "2025-06-16T15:13:38.359-04:00"}, {"id": 263, "title": "ReserGo", "devlogs_count": 1, "created_at": "2025-06-16T16:34:25.722-04:00"}], "coding_time_seconds": 259519, "coding_time_seconds_today": 0, "balance": "You need to have a pocket watcher badge to view this.", "badges": [{"name": "Maiden Voyage", "text": "you shipped your first project! the journey begins...", "icon": "\ud83d\udea2"}], "created_at": "2025-06-16T12:17:31.871-04:00", "updated_at": "2025-09-10T22:51:33.418-04:00", "avatar": "https://avatars.slack-edge.com/2025-06-16/9056834190002_0f10eaeda58769fef066_original.png", "custom_css": null}, {"id": 824, "slack_id": "U0917EVP5L7", "display_name": "Caionagy", "bio": null, "projects_count": 0, "devlogs_count": 0, "votes_count": 0, "ships_count": 0, "projects": [], "coding_time_seconds": 0, "coding_time_seconds_today": 0, "balance": "You need to have a pocket watcher badge to view this.", "badges": [], "created_at": "2025-06-16T12:17:34.142-04:00", "updated_at": "2025-07-03T19:14:45.807-04:00", "avatar": "https://secure.gravatar.com/avatar/257767cf48daf3a5310d2b133dc53722.jpg?s=512&d=https%3A%2F%2Fa.slack-edge.com%2Fdf10d%2Fimg%2Favatars%2Fava_0016-512.png", "custom_css": null}, {"id": 825, "slack_id": "U0917FK2V6K", "display_name": "samruddhi11", "bio": null, "projects_count": 0, "devlogs_count": 0, "votes_count": 0, "ships_count": 0, "projects": [], "coding_time_seconds": 0, "coding_time_seconds_today": 0, "balance": "You need to have a pocket watcher badge to view this.", "badges": [], "created_at": "2025-06-16T12:17:36.004-04:00", "updated_at": "2025-07-03T19:14:46.075-04:00", "avatar": "https://secure.gravatar.com/avatar/3143cfa0092a5357ffcafd90cfb89b3c.jpg?s=512&d=https%3A%2F%2Fa.slack-edge.com%2Fdf10d%2Fimg%2Favatars%2Fava_0023-512.png", "custom_css": null}, {"id": 826, "slack_id": "U091G7ZMRFD", "display_name": "Alfred Jijo", "bio": null, "projects_count": 0, "devlogs_count": 0, "votes_count": 0, "ships_count": 0, "projects": [], "coding_time_seconds": 15117, "coding_time_seconds_today": 0, "balance": "You need to have a pocket watcher badge to view this.", "badges": [], "created_at": "2025-06-16T12:17:36.303-04:00", "updated_at": "2025-07-03T19:14:46.365-04:00", "avatar": "https://avatars.slack-edge.com/2025-06-16/9069830500721_75b74156cff758a20767_original.png", "custom_css": null}, {"id": 827, "slack_id": "U08B2HD1JNA", "display_name": "phoebe", "bio": null, "projects_count": 1, "devlogs_count": 2, "votes_count": 3, "ships_count": 1, "projects": [{"id": 6659, "title": "News-Room", "devlogs_count": 2, "created_at": "2025-07-14T22:37:53.164-04:00"}], "coding_time_seconds": 107892, "coding_time_seconds_today": 0, "balance": "You need to have a pocket watcher badge to view this.", "badges": [{"name": "Maiden Voyage", "text": "you shipped your first project! the journey begins...", "icon": "\ud83d\udea2"}], "created_at": "2025-06-16T12:17:36.640-04:00", "updated_at": "2025-09-10T22:51:33.537-04:00", "avatar": "https://avatars.slack-edge.com/2025-03-20/8638359407060_af8fa755df1503704bbe_original.png", "custom_css": null}, {"id": 828, "slack_id": "U0917FRG355", "display_name": "kevin", "bio": "", "projects_count": 2, "devlogs_count": 20, "votes_count": 84, "ships_count": 2, "projects": [{"id": 2153, "title": "feynman-docs", "devlogs_count": 3, "created_at": "2025-06-20T09:54:57.611-04:00"}, {"id": 2150, "title": "feynman", "devlogs_count": 17, "created_at": "2025-06-20T09:44:00.222-04:00"}], "coding_time_seconds": 485729, "coding_time_seconds_today": 0, "balance": "You need to have a pocket watcher badge to view this.", "badges": [{"name": "Maiden Voyage", "text": "you shipped your first project! the journey begins...", "icon": "\ud83d\udea2"}, {"name": "Yapper I", "text": "Posted 10 comments on devlogs.", "icon": "\ud83d\udcac"}, {"name": "Ballot Stuffer", "text": "vote 100 times.", "icon": "https://summer.hackclub.com/assets/i_voted-bf851b48.png"}], "created_at": "2025-06-16T12:17:37.800-04:00", "updated_at": "2025-09-10T22:51:33.595-04:00", "avatar": "https://secure.gravatar.com/avatar/e368ed481ee9be60997c698350080fdf.jpg?s=512&d=https%3A%2F%2Fa.slack-edge.com%2Fdf10d%2Fimg%2Favatars%2Fava_0020-512.png", "custom_css": null}, {"id": 829, "slack_id": "U091FRFD5D1", "display_name": "Youssef Emad", "bio": null, "projects_count": 0, "devlogs_count": 0, "votes_count": 0, "ships_count": 0, "projects": [], "coding_time_seconds": 0, "coding_time_seconds_today": 0, "balance": "You need to have a pocket watcher badge to view this.", "badges": [], "created_at": "2025-06-16T12:17:39.603-04:00", "updated_at": "2025-07-03T19:14:47.195-04:00", "avatar": "https://avatars.slack-edge.com/2025-06-16/9049986714406_d61da3d51ff9d3e492f0_original.png", "custom_css": null}, {"id": 830, "slack_id": "U091P9AELCC", "display_name": "Jay P", "bio": null, "projects_count": 0, "devlogs_count": 0, "votes_count": 0, "ships_count": 0, "projects": [], "coding_time_seconds": 120, "coding_time_seconds_today": 0, "balance": "You need to have a pocket watcher badge to view this.", "badges": [], "created_at": "2025-06-16T12:17:41.726-04:00", "updated_at": "2025-07-03T19:14:47.464-04:00", "avatar": "https://secure.gravatar.com/avatar/392b29c5b31595a7609bd0da147277fd.jpg?s=512&d=https%3A%2F%2Fa.slack-edge.com%2Fdf10d%2Fimg%2Favatars%2Fava_0025-512.png", "custom_css": null}, {"id": 831, "slack_id": "U0917GB56AK", "display_name": "Juan Samayoa", "bio": null, "projects_count": 0, "devlogs_count": 0, "votes_count": 0, "ships_count": 0, "projects": [], "coding_time_seconds": 140944, "coding_time_seconds_today": 0, "balance": "You need to have a pocket watcher badge to view this.", "badges": [], "created_at": "2025-06-16T12:17:44.014-04:00", "updated_at": "2025-07-03T19:14:47.777-04:00", "avatar": "https://secure.gravatar.com/avatar/0e4c72afb9afd773934c5a9fac4fc3dc.jpg?s=512&d=https%3A%2F%2Fa.slack-edge.com%2Fdf10d%2Fimg%2Favatars%2Fava_0022-512.png", "custom_css": null}, {"id": 832, "slack_id": "U0917FNGBP1", "display_name": "Pilz0", "bio": null, "projects_count": 2, "devlogs_count": 3, "votes_count": 21, "ships_count": 2, "projects": [{"id": 868, "title": "nixpkgs mcp PRs", "devlogs_count": 1, "created_at": "2025-06-17T10:06:17.779-04:00"}, {"id": 4733, "title": "AS214958 NixOS Config", "devlogs_count": 2, "created_at": "2025-07-01T09:33:21.183-04:00"}], "coding_time_seconds": 295919, "coding_time_seconds_today": 0, "balance": "You need to have a pocket watcher badge to view this.", "badges": [{"name": "Maiden Voyage", "text": "you shipped your first project! the journey begins...", "icon": "\ud83d\udea2"}], "created_at": "2025-06-16T12:17:46.436-04:00", "updated_at": "2025-09-10T22:51:33.737-04:00", "avatar": "https://secure.gravatar.com/avatar/374715e42dc640325a0a293cdabe39b9.jpg?s=512&d=https%3A%2F%2Fa.slack-edge.com%2Fdf10d%2Fimg%2Favatars%2Fava_0015-512.png", "custom_css": null}, {"id": 833, "slack_id": "U091FS4CQ03", "display_name": "pratiyush", "bio": null, "projects_count": 0, "devlogs_count": 0, "votes_count": 0, "ships_count": 0, "projects": [], "coding_time_seconds": 0, "coding_time_seconds_today": 0, "balance": "You need to have a pocket watcher badge to view this.", "badges": [], "created_at": "2025-06-16T12:17:48.489-04:00", "updated_at": "2025-07-03T19:14:48.318-04:00", "avatar": "https://secure.gravatar.com/avatar/31b126b38fbcfe06217752bb8e3ac6d3.jpg?s=512&d=https%3A%2F%2Fa.slack-edge.com%2Fdf10d%2Fimg%2Favatars%2Fava_0003-512.png", "custom_css": null}, {"id": 834, "slack_id": "U0917GP3X1V", "display_name": "Ink", "bio": null, "projects_count": 0, "devlogs_count": 0, "votes_count": 0, "ships_count": 0, "projects": [], "coding_time_seconds": 24596, "coding_time_seconds_today": 0, "balance": "You need to have a pocket watcher badge to view this.", "badges": [], "created_at": "2025-06-16T12:17:50.658-04:00", "updated_at": "2025-07-23T14:01:13.602-04:00", "avatar": "https://avatars.slack-edge.com/2025-07-23/9240254175478_7956b8c8c98e0dd7be9f_original.png", "custom_css": null}, {"id": 835, "slack_id": "U091PL3TN8L", "display_name": "Math", "bio": null, "projects_count": 0, "devlogs_count": 0, "votes_count": 0, "ships_count": 0, "projects": [], "coding_time_seconds": 0, "coding_time_seconds_today": 0, "balance": "You need to have a pocket watcher badge to view this.", "badges": [], "created_at": "2025-06-16T12:17:50.686-04:00", "updated_at": "2025-07-03T19:14:48.857-04:00", "avatar": "https://secure.gravatar.com/avatar/950861f4d602fb27be0d43c35cb26a4f.jpg?s=512&d=https%3A%2F%2Fa.slack-edge.com%2Fdf10d%2Fimg%2Favatars%2Fava_0017-512.png", "custom_css": null}, {"id": 836, "slack_id": "U091FUC6JTG", "display_name": "Robert", "bio": null, "projects_count": 0, "devlogs_count": 0, "votes_count": 0, "ships_count": 0, "projects": [], "coding_time_seconds": 0, "coding_time_seconds_today": 0, "balance": "You need to have a pocket watcher badge to view this.", "badges": [], "created_at": "2025-06-16T12:17:52.627-04:00", "updated_at": "2025-07-03T19:14:49.135-04:00", "avatar": "https://secure.gravatar.com/avatar/f792a085aad95ea9ecf94ef2e3980de0.jpg?s=512&d=https%3A%2F%2Fa.slack-edge.com%2Fdf10d%2Fimg%2Favatars%2Fava_0022-512.png", "custom_css": null}, {"id": 837, "slack_id": "U091PL1V8DA", "display_name": "Eliott Mieze", "bio": null, "projects_count": 1, "devlogs_count": 0, "votes_count": 1, "ships_count": 0, "projects": [{"id": 7856, "title": "My daily tracking", "devlogs_count": 0, "created_at": "2025-07-23T10:08:52.596-04:00"}], "coding_time_seconds": 4061, "coding_time_seconds_today": 0, "balance": "You need to have a pocket watcher badge to view this.", "badges": [], "created_at": "2025-06-16T12:17:54.125-04:00", "updated_at": "2025-07-03T19:14:49.392-04:00", "avatar": "https://avatars.slack-edge.com/2025-06-16/9055493976597_ece646baf9ea3b89681a_original.jpg", "custom_css": null}, {"id": 838, "slack_id": "U091NQZADPU", "display_name": "Sasha", "bio": null, "projects_count": 0, "devlogs_count": 0, "votes_count": 0, "ships_count": 0, "projects": [], "coding_time_seconds": 3743, "coding_time_seconds_today": 0, "balance": "You need to have a pocket watcher badge to view this.", "badges": [], "created_at": "2025-06-16T12:17:54.385-04:00", "updated_at": "2025-07-03T19:14:49.658-04:00", "avatar": "https://secure.gravatar.com/avatar/b1fabed3ea1de858dca72a56b87a066b.jpg?s=512&d=https%3A%2F%2Fa.slack-edge.com%2Fdf10d%2Fimg%2Favatars%2Fava_0002-512.png", "custom_css": null}, {"id": 839, "slack_id": "U091PKYCH7E", "display_name": "Mohamed Sabaa", "bio": null, "projects_count": 0, "devlogs_count": 0, "votes_count": 0, "ships_count": 0, "projects": [], "coding_time_seconds": 37224, "coding_time_seconds_today": 0, "balance": "You need to have a pocket watcher badge to view this.", "badges": [], "created_at": "2025-06-16T12:17:55.470-04:00", "updated_at": "2025-07-03T19:14:49.951-04:00", "avatar": "https://avatars.slack-edge.com/2025-06-16/9041962698615_107403748e17d8762033_original.jpg", "custom_css": null}, {"id": 840, "slack_id": "U091M03N1HT", "display_name": "Ahmed Dowedar", "bio": null, "projects_count": 0, "devlogs_count": 0, "votes_count": 0, "ships_count": 0, "projects": [], "coding_time_seconds": 0, "coding_time_seconds_today": 0, "balance": "You need to have a pocket watcher badge to view this.", "badges": [], "created_at": "2025-06-16T12:17:56.251-04:00", "updated_at": "2025-07-03T19:14:50.239-04:00", "avatar": "https://secure.gravatar.com/avatar/b90f8fdabe366718025f8e0786a12846.jpg?s=512&d=https%3A%2F%2Fa.slack-edge.com%2Fdf10d%2Fimg%2Favatars%2Fava_0004-512.png", "custom_css": null}], "pagination": {"page": 42, "pages": 1192, "count": 23827, "items": 20}}