{"users": [{"id": 8381, "slack_id": "U091YT0TYE9", "display_name": "Mandeep Patwa", "bio": null, "projects_count": 0, "devlogs_count": 0, "votes_count": 0, "ships_count": 0, "projects": [], "coding_time_seconds": 0, "coding_time_seconds_today": 0, "balance": "You need to have a pocket watcher badge to view this.", "badges": [], "created_at": "2025-06-18T07:52:23.106-04:00", "updated_at": "2025-07-03T19:47:47.567-04:00", "avatar": "https://secure.gravatar.com/avatar/6a4530cdcbf1441a95ae33774256418b.jpg?s=512&d=https%3A%2F%2Fa.slack-edge.com%2Fdf10d%2Fimg%2Favatars%2Fava_0004-512.png", "custom_css": null}, {"id": 8382, "slack_id": "U09207K1A7L", "display_name": "huzaifa qureshi", "bio": null, "projects_count": 0, "devlogs_count": 0, "votes_count": 0, "ships_count": 0, "projects": [], "coding_time_seconds": 0, "coding_time_seconds_today": 0, "balance": "You need to have a pocket watcher badge to view this.", "badges": [], "created_at": "2025-06-18T07:52:32.984-04:00", "updated_at": "2025-07-03T19:47:47.832-04:00", "avatar": "https://avatars.slack-edge.com/2025-06-18/9090833044768_eeea10156ce8ee78a998_original.png", "custom_css": null}, {"id": 8383, "slack_id": "U091U1L7ZM4", "display_name": "Zehel Nehil", "bio": null, "projects_count": 0, "devlogs_count": 0, "votes_count": 0, "ships_count": 0, "projects": [], "coding_time_seconds": 902, "coding_time_seconds_today": 0, "balance": "You need to have a pocket watcher badge to view this.", "badges": [], "created_at": "2025-06-18T07:53:02.594-04:00", "updated_at": "2025-07-03T19:47:48.106-04:00", "avatar": "https://secure.gravatar.com/avatar/78f501c5c8cf3a75397c3a73f347873b.jpg?s=512&d=https%3A%2F%2Fa.slack-edge.com%2Fdf10d%2Fimg%2Favatars%2Fava_0017-512.png", "custom_css": null}, {"id": 8384, "slack_id": "U091K9SJZ1V", "display_name": "Mert \u00c7etin", "bio": null, "projects_count": 0, "devlogs_count": 0, "votes_count": 0, "ships_count": 0, "projects": [], "coding_time_seconds": 0, "coding_time_seconds_today": 0, "balance": "You need to have a pocket watcher badge to view this.", "badges": [], "created_at": "2025-06-18T07:53:32.546-04:00", "updated_at": "2025-07-04T08:24:08.073-04:00", "avatar": "https://secure.gravatar.com/avatar/b43dce54a81168fe83aa04f7207a0c53.jpg?s=512&d=https%3A%2F%2Fa.slack-edge.com%2Fdf10d%2Fimg%2Favatars%2Fava_0006-512.png", "custom_css": null}, {"id": 8385, "slack_id": "U09207SVBJ6", "display_name": "Shubham Dev", "bio": null, "projects_count": 0, "devlogs_count": 0, "votes_count": 0, "ships_count": 0, "projects": [], "coding_time_seconds": 0, "coding_time_seconds_today": 0, "balance": "You need to have a pocket watcher badge to view this.", "badges": [], "created_at": "2025-06-18T07:53:38.038-04:00", "updated_at": "2025-07-03T19:47:48.512-04:00", "avatar": "https://avatars.slack-edge.com/2025-06-18/9090838035216_0b6ac1a71eeaacc8f044_original.jpg", "custom_css": null}, {"id": 8386, "slack_id": "U091TR17LGK", "display_name": "CHIRAG KUMAR", "bio": null, "projects_count": 0, "devlogs_count": 0, "votes_count": 0, "ships_count": 0, "projects": [], "coding_time_seconds": 468360, "coding_time_seconds_today": 0, "balance": "You need to have a pocket watcher badge to view this.", "badges": [], "created_at": "2025-06-18T07:53:38.137-04:00", "updated_at": "2025-07-04T08:24:08.230-04:00", "avatar": "https://avatars.slack-edge.com/2025-06-18/9055729999047_f2d98e79ecccda5e876c_original.png", "custom_css": null}, {"id": 8387, "slack_id": "U091TR1LQ11", "display_name": "Darsh Patel", "bio": null, "projects_count": 0, "devlogs_count": 0, "votes_count": 0, "ships_count": 0, "projects": [], "coding_time_seconds": 0, "coding_time_seconds_today": 0, "balance": "You need to have a pocket watcher badge to view this.", "badges": [], "created_at": "2025-06-18T07:53:41.499-04:00", "updated_at": "2025-07-03T21:58:28.045-04:00", "avatar": "https://avatars.slack-edge.com/2025-06-18/9080994469713_c8435ce038d17a9bac38_original.jpg", "custom_css": null}, {"id": 8388, "slack_id": "U092CM2CZLH", "display_name": "Aaron", "bio": null, "projects_count": 0, "devlogs_count": 0, "votes_count": 0, "ships_count": 0, "projects": [], "coding_time_seconds": 47778, "coding_time_seconds_today": 0, "balance": "You need to have a pocket watcher badge to view this.", "badges": [], "created_at": "2025-06-18T07:54:52.449-04:00", "updated_at": "2025-07-03T19:47:49.035-04:00", "avatar": "https://secure.gravatar.com/avatar/053a0d48bec1e5aa6e2cbbe2fdd1b2aa.jpg?s=512&d=https%3A%2F%2Fa.slack-edge.com%2Fdf10d%2Fimg%2Favatars%2Fava_0004-512.png", "custom_css": null}, {"id": 8389, "slack_id": "U091TR8GX3M", "display_name": "Sri Ram", "bio": null, "projects_count": 0, "devlogs_count": 0, "votes_count": 0, "ships_count": 0, "projects": [], "coding_time_seconds": 200002, "coding_time_seconds_today": 6173, "balance": "You need to have a pocket watcher badge to view this.", "badges": [], "created_at": "2025-06-18T07:55:10.846-04:00", "updated_at": "2025-07-03T19:47:49.299-04:00", "avatar": "https://secure.gravatar.com/avatar/9fcb008c74bf6e5e3c0d685d1ee7baea.jpg?s=512&d=https%3A%2F%2Fa.slack-edge.com%2Fdf10d%2Fimg%2Favatars%2Fava_0023-512.png", "custom_css": null}, {"id": 8390, "slack_id": "U091U1HNL0N", "display_name": "semyon", "bio": null, "projects_count": 0, "devlogs_count": 0, "votes_count": 0, "ships_count": 0, "projects": [], "coding_time_seconds": 0, "coding_time_seconds_today": 0, "balance": "You need to have a pocket watcher badge to view this.", "badges": [], "created_at": "2025-06-18T07:55:30.498-04:00", "updated_at": "2025-07-03T21:58:28.328-04:00", "avatar": "https://secure.gravatar.com/avatar/4447a7e2faae8aa1e36456c6d7352fb9.jpg?s=512&d=https%3A%2F%2Fa.slack-edge.com%2Fdf10d%2Fimg%2Favatars%2Fava_0007-512.png", "custom_css": null}, {"id": 8391, "slack_id": "U08PC8VKWEP", "display_name": "aalill", "bio": null, "projects_count": 0, "devlogs_count": 0, "votes_count": 0, "ships_count": 0, "projects": [], "coding_time_seconds": 51852, "coding_time_seconds_today": 0, "balance": "You need to have a pocket watcher badge to view this.", "badges": [], "created_at": "2025-06-18T07:55:31.150-04:00", "updated_at": "2025-07-22T14:17:33.982-04:00", "avatar": "https://secure.gravatar.com/avatar/3d9f732392dc84cf02760d53e6258283.jpg?s=512&d=https%3A%2F%2Fa.slack-edge.com%2Fdf10d%2Fimg%2Favatars%2Fava_0014-512.png", "custom_css": null}, {"id": 8392, "slack_id": "U091KRUCCH1", "display_name": "Herr Chaos", "bio": null, "projects_count": 0, "devlogs_count": 0, "votes_count": 0, "ships_count": 0, "projects": [], "coding_time_seconds": 0, "coding_time_seconds_today": 0, "balance": "You need to have a pocket watcher badge to view this.", "badges": [], "created_at": "2025-06-18T07:55:58.939-04:00", "updated_at": "2025-07-03T21:58:28.509-04:00", "avatar": "https://secure.gravatar.com/avatar/e79e901ce2475feb450e7d4bbe7be49c.jpg?s=512&d=https%3A%2F%2Fa.slack-edge.com%2Fdf10d%2Fimg%2Favatars%2Fava_0000-512.png", "custom_css": null}, {"id": 8393, "slack_id": "U092NQP34JU", "display_name": "Schmidt N\u00e1ndor", "bio": "", "projects_count": 3, "devlogs_count": 23, "votes_count": 66, "ships_count": 2, "projects": [{"id": 11743, "title": "ProductiveMe", "devlogs_count": 6, "created_at": "2025-08-19T02:18:10.461-04:00"}, {"id": 12146, "title": "WinKit", "devlogs_count": 2, "created_at": "2025-08-23T15:57:36.220-04:00"}, {"id": 2796, "title": "Subway Surfers Remake", "devlogs_count": 15, "created_at": "2025-06-22T04:43:05.091-04:00"}], "coding_time_seconds": 252203, "coding_time_seconds_today": 0, "balance": "You need to have a pocket watcher badge to view this.", "badges": [{"name": "Maiden Voyage", "text": "you shipped your first project! the journey begins...", "icon": "\ud83d\udea2"}], "created_at": "2025-06-18T07:57:33.463-04:00", "updated_at": "2025-09-10T22:55:18.979-04:00", "avatar": "https://secure.gravatar.com/avatar/12270d34700bfe5b7e9934332b614474.jpg?s=512&d=https%3A%2F%2Fa.slack-edge.com%2Fdf10d%2Fimg%2Favatars%2Fava_0017-512.png", "custom_css": null}, {"id": 8394, "slack_id": "U09208PL72N", "display_name": "Werzu25", "bio": null, "projects_count": 0, "devlogs_count": 0, "votes_count": 0, "ships_count": 0, "projects": [], "coding_time_seconds": 0, "coding_time_seconds_today": 0, "balance": "You need to have a pocket watcher badge to view this.", "badges": [], "created_at": "2025-06-18T08:00:52.166-04:00", "updated_at": "2025-07-03T19:47:50.378-04:00", "avatar": "https://secure.gravatar.com/avatar/eb35c32dc7d0b36775217e1525aea5fb.jpg?s=512&d=https%3A%2F%2Fa.slack-edge.com%2Fdf10d%2Fimg%2Favatars%2Fava_0021-512.png", "custom_css": null}, {"id": 8395, "slack_id": "U091U2XQRAA", "display_name": "Felipe Almeida", "bio": null, "projects_count": 0, "devlogs_count": 0, "votes_count": 0, "ships_count": 0, "projects": [], "coding_time_seconds": 0, "coding_time_seconds_today": 0, "balance": "You need to have a pocket watcher badge to view this.", "badges": [], "created_at": "2025-06-18T08:01:25.503-04:00", "updated_at": "2025-07-04T20:08:56.134-04:00", "avatar": "https://secure.gravatar.com/avatar/4ce75f1c812ecda2163bc3aba39227ea.jpg?s=512&d=https%3A%2F%2Fa.slack-edge.com%2Fdf10d%2Fimg%2Favatars%2Fava_0003-512.png", "custom_css": null}, {"id": 8396, "slack_id": "U0920PTDW12", "display_name": "prasanna Kumar", "bio": null, "projects_count": 0, "devlogs_count": 0, "votes_count": 0, "ships_count": 0, "projects": [], "coding_time_seconds": 0, "coding_time_seconds_today": 0, "balance": "You need to have a pocket watcher badge to view this.", "badges": [], "created_at": "2025-06-18T08:02:04.584-04:00", "updated_at": "2025-07-03T19:47:50.860-04:00", "avatar": "https://secure.gravatar.com/avatar/e6fb492a7a3193521d59f9f50092b205.jpg?s=512&d=https%3A%2F%2Fa.slack-edge.com%2Fdf10d%2Fimg%2Favatars%2Fava_0022-512.png", "custom_css": null}, {"id": 8397, "slack_id": "U091KB7T0VD", "display_name": "Tejas Bhurbhure", "bio": null, "projects_count": 0, "devlogs_count": 0, "votes_count": 0, "ships_count": 0, "projects": [], "coding_time_seconds": 286416, "coding_time_seconds_today": 0, "balance": "You need to have a pocket watcher badge to view this.", "badges": [], "created_at": "2025-06-18T08:02:59.491-04:00", "updated_at": "2025-07-07T14:42:14.762-04:00", "avatar": "https://secure.gravatar.com/avatar/12e1fc677c51073731252ff7447ab6c2.jpg?s=512&d=https%3A%2F%2Fa.slack-edge.com%2Fdf10d%2Fimg%2Favatars%2Fava_0000-512.png", "custom_css": null}, {"id": 8398, "slack_id": "U092091ABQA", "display_name": "Erik", "bio": null, "projects_count": 0, "devlogs_count": 0, "votes_count": 0, "ships_count": 0, "projects": [], "coding_time_seconds": 0, "coding_time_seconds_today": 0, "balance": "You need to have a pocket watcher badge to view this.", "badges": [], "created_at": "2025-06-18T08:04:01.713-04:00", "updated_at": "2025-07-03T21:58:29.052-04:00", "avatar": "https://secure.gravatar.com/avatar/ef61d71464be80e55f8320aed8f3eb13.jpg?s=512&d=https%3A%2F%2Fa.slack-edge.com%2Fdf10d%2Fimg%2Favatars%2Fava_0016-512.png", "custom_css": null}, {"id": 8399, "slack_id": "U0920Q374HJ", "display_name": "Aryan Rai", "bio": null, "projects_count": 0, "devlogs_count": 0, "votes_count": 0, "ships_count": 0, "projects": [], "coding_time_seconds": 0, "coding_time_seconds_today": 0, "balance": "You need to have a pocket watcher badge to view this.", "badges": [], "created_at": "2025-06-18T08:04:16.978-04:00", "updated_at": "2025-07-03T19:47:51.413-04:00", "avatar": "https://secure.gravatar.com/avatar/3e4562d5717a4b4da4c7b581b61e9e96.jpg?s=512&d=https%3A%2F%2Fa.slack-edge.com%2Fdf10d%2Fimg%2Favatars%2Fava_0001-512.png", "custom_css": null}, {"id": 8400, "slack_id": "U091U38E20N", "display_name": "Draedon", "bio": "", "projects_count": 5, "devlogs_count": 53, "votes_count": 52, "ships_count": 4, "projects": [{"id": 1763, "title": "Double Pendulum", "devlogs_count": 3, "created_at": "2025-06-19T07:40:45.654-04:00"}, {"id": 8327, "title": "Path Tracer", "devlogs_count": 14, "created_at": "2025-07-26T08:53:40.264-04:00"}, {"id": 11746, "title": "Black Hole Simulation", "devlogs_count": 2, "created_at": "2025-08-19T04:53:06.743-04:00"}, {"id": 13520, "title": "HP Bad Apple", "devlogs_count": 10, "created_at": "2025-09-18T12:07:20.825-04:00"}, {"id": 1986, "title": "Ocean Simulation", "devlogs_count": 24, "created_at": "2025-06-19T20:25:35.939-04:00"}], "coding_time_seconds": 620719, "coding_time_seconds_today": 5922, "balance": "You need to have a pocket watcher badge to view this.", "badges": [{"name": "Maiden Voyage", "text": "you shipped your first project! the journey begins...", "icon": "\ud83d\udea2"}], "created_at": "2025-06-18T08:04:35.406-04:00", "updated_at": "2025-09-19T08:15:58.974-04:00", "avatar": "https://secure.gravatar.com/avatar/ac0b3ea0eef6db5bfd23f7a773582cdf.jpg?s=512&d=https%3A%2F%2Fa.slack-edge.com%2Fdf10d%2Fimg%2Favatars%2Fava_0014-512.png", "custom_css": null}], "pagination": {"page": 420, "pages": 1192, "count": 23828, "items": 20}}