{"users": [{"id": 8401, "slack_id": "U0920QCBVBN", "display_name": "ROSHITH NOORBASHA", "bio": null, "projects_count": 0, "devlogs_count": 0, "votes_count": 0, "ships_count": 0, "projects": [], "coding_time_seconds": 0, "coding_time_seconds_today": 0, "balance": "You need to have a pocket watcher badge to view this.", "badges": [], "created_at": "2025-06-18T08:05:43.102-04:00", "updated_at": "2025-07-03T19:47:51.951-04:00", "avatar": "https://avatars.slack-edge.com/2025-06-18/9068338106466_c1d7e661b407d179982a_original.jpg", "custom_css": null}, {"id": 8402, "slack_id": "U0920QD9GKE", "display_name": "Joseph Awuah Baffour", "bio": null, "projects_count": 0, "devlogs_count": 0, "votes_count": 0, "ships_count": 0, "projects": [], "coding_time_seconds": 0, "coding_time_seconds_today": 0, "balance": "You need to have a pocket watcher badge to view this.", "badges": [], "created_at": "2025-06-18T08:06:39.663-04:00", "updated_at": "2025-07-03T19:47:52.222-04:00", "avatar": "https://secure.gravatar.com/avatar/819f49b1d459a8d579e4e6e60886ccac.jpg?s=512&d=https%3A%2F%2Fa.slack-edge.com%2Fdf10d%2Fimg%2Favatars%2Fava_0010-512.png", "custom_css": null}, {"id": 8403, "slack_id": "U091U3GHSAJ", "display_name": "Abdullah Wassal", "bio": null, "projects_count": 0, "devlogs_count": 0, "votes_count": 0, "ships_count": 0, "projects": [], "coding_time_seconds": 1275, "coding_time_seconds_today": 0, "balance": "You need to have a pocket watcher badge to view this.", "badges": [], "created_at": "2025-06-18T08:07:18.752-04:00", "updated_at": "2025-07-03T19:47:52.485-04:00", "avatar": "https://secure.gravatar.com/avatar/27a77cffda4f276981bfb2db897f20f1.jpg?s=512&d=https%3A%2F%2Fa.slack-edge.com%2Fdf10d%2Fimg%2Favatars%2Fava_0017-512.png", "custom_css": null}, {"id": 8404, "slack_id": "U091U3P7ER4", "display_name": "Kevin Rodriguez", "bio": null, "projects_count": 0, "devlogs_count": 0, "votes_count": 0, "ships_count": 0, "projects": [], "coding_time_seconds": 0, "coding_time_seconds_today": 0, "balance": "You need to have a pocket watcher badge to view this.", "badges": [], "created_at": "2025-06-18T08:08:02.530-04:00", "updated_at": "2025-07-03T19:47:52.746-04:00", "avatar": "https://secure.gravatar.com/avatar/525c582ad0a9e0ddd91f94d25c4ce2b6.jpg?s=512&d=https%3A%2F%2Fa.slack-edge.com%2Fdf10d%2Fimg%2Favatars%2Fava_0026-512.png", "custom_css": null}, {"id": 8405, "slack_id": "U091U3KKE1L", "display_name": "Akshaj Khare", "bio": null, "projects_count": 0, "devlogs_count": 0, "votes_count": 0, "ships_count": 0, "projects": [], "coding_time_seconds": 0, "coding_time_seconds_today": 0, "balance": "You need to have a pocket watcher badge to view this.", "badges": [], "created_at": "2025-06-18T08:08:59.162-04:00", "updated_at": "2025-07-03T21:46:31.420-04:00", "avatar": "https://secure.gravatar.com/avatar/6b0205db9db0477b1d76b63e67dbd6b7.jpg?s=512&d=https%3A%2F%2Fa.slack-edge.com%2Fdf10d%2Fimg%2Favatars%2Fava_0012-512.png", "custom_css": null}, {"id": 8406, "slack_id": "U091TTJSWRZ", "display_name": "Gagan", "bio": null, "projects_count": 0, "devlogs_count": 0, "votes_count": 0, "ships_count": 0, "projects": [], "coding_time_seconds": 0, "coding_time_seconds_today": 0, "balance": "You need to have a pocket watcher badge to view this.", "badges": [], "created_at": "2025-06-18T08:09:51.929-04:00", "updated_at": "2025-07-03T19:47:53.137-04:00", "avatar": "https://secure.gravatar.com/avatar/307a046a2f75618960974cee9f2fe07d.jpg?s=512&d=https%3A%2F%2Fa.slack-edge.com%2Fdf10d%2Fimg%2Favatars%2Fava_0015-512.png", "custom_css": null}, {"id": 8407, "slack_id": "U092NSKSSHE", "display_name": "shekhar", "bio": null, "projects_count": 0, "devlogs_count": 0, "votes_count": 0, "ships_count": 0, "projects": [], "coding_time_seconds": 0, "coding_time_seconds_today": 0, "balance": "You need to have a pocket watcher badge to view this.", "badges": [], "created_at": "2025-06-18T08:11:10.107-04:00", "updated_at": "2025-07-03T21:46:31.580-04:00", "avatar": "https://secure.gravatar.com/avatar/3099f3dc3857ac715dccd186c92fee78.jpg?s=512&d=https%3A%2F%2Fa.slack-edge.com%2Fdf10d%2Fimg%2Favatars%2Fava_0017-512.png", "custom_css": null}, {"id": 8408, "slack_id": "U091TTHF36F", "display_name": "Sameer", "bio": null, "projects_count": 0, "devlogs_count": 0, "votes_count": 0, "ships_count": 0, "projects": [], "coding_time_seconds": 84091, "coding_time_seconds_today": 0, "balance": "You need to have a pocket watcher badge to view this.", "badges": [], "created_at": "2025-06-18T08:11:34.459-04:00", "updated_at": "2025-07-03T19:47:53.541-04:00", "avatar": "https://avatars.slack-edge.com/2025-06-18/9068362521522_5ad7fca527bc8a57a748_original.png", "custom_css": null}, {"id": 8409, "slack_id": "U092NSUEE48", "display_name": "Amin", "bio": null, "projects_count": 0, "devlogs_count": 0, "votes_count": 0, "ships_count": 0, "projects": [], "coding_time_seconds": 133915, "coding_time_seconds_today": 0, "balance": "You need to have a pocket watcher badge to view this.", "badges": [], "created_at": "2025-06-18T08:12:57.527-04:00", "updated_at": "2025-07-04T08:24:09.663-04:00", "avatar": "https://secure.gravatar.com/avatar/e9b57facf3e8d01ea540bd2b80c8ac5a.jpg?s=512&d=https%3A%2F%2Fa.slack-edge.com%2Fdf10d%2Fimg%2Favatars%2Fava_0013-512.png", "custom_css": null}, {"id": 8410, "slack_id": "U091U4KB99C", "display_name": "Elias Slettemark", "bio": null, "projects_count": 0, "devlogs_count": 0, "votes_count": 0, "ships_count": 0, "projects": [], "coding_time_seconds": 1290328, "coding_time_seconds_today": 0, "balance": "You need to have a pocket watcher badge to view this.", "badges": [], "created_at": "2025-06-18T08:13:45.026-04:00", "updated_at": "2025-07-03T19:47:53.938-04:00", "avatar": "https://avatars.slack-edge.com/2025-06-18/9093543452736_a26f486d5fb098bcfc8f_original.jpg", "custom_css": null}, {"id": 8411, "slack_id": "U0928JUTEUR", "display_name": "Humberto J\u00fanior", "bio": null, "projects_count": 0, "devlogs_count": 0, "votes_count": 0, "ships_count": 0, "projects": [], "coding_time_seconds": 0, "coding_time_seconds_today": 0, "balance": "You need to have a pocket watcher badge to view this.", "badges": [], "created_at": "2025-06-18T08:15:18.588-04:00", "updated_at": "2025-07-03T19:47:54.204-04:00", "avatar": "https://avatars.slack-edge.com/2025-06-18/9090944283984_ca1926445ddafac516b1_original.jpg", "custom_css": null}, {"id": 8412, "slack_id": "U091KCUMKBR", "display_name": "Siran", "bio": null, "projects_count": 3, "devlogs_count": 5, "votes_count": 0, "ships_count": 0, "projects": [{"id": 1644, "title": "MoodTrackAIAgent", "devlogs_count": 3, "created_at": "2025-06-18T23:31:30.828-04:00"}, {"id": 1667, "title": "Matplotlib", "devlogs_count": 2, "created_at": "2025-06-19T01:22:55.495-04:00"}, {"id": 3938, "title": "FirstAiAgent", "devlogs_count": 0, "created_at": "2025-06-26T11:58:03.676-04:00"}], "coding_time_seconds": 84507, "coding_time_seconds_today": 0, "balance": "You need to have a pocket watcher badge to view this.", "badges": [], "created_at": "2025-06-18T08:16:57.572-04:00", "updated_at": "2025-07-03T19:47:54.463-04:00", "avatar": "https://secure.gravatar.com/avatar/87c87eea96660097be0938c948096cac.jpg?s=512&d=https%3A%2F%2Fa.slack-edge.com%2Fdf10d%2Fimg%2Favatars%2Fava_0025-512.png", "custom_css": null}, {"id": 8413, "slack_id": "U0920ALQM34", "display_name": "Mostafa_XS1", "bio": null, "projects_count": 1, "devlogs_count": 1, "votes_count": 0, "ships_count": 1, "projects": [{"id": 8747, "title": "Quran Iframe Viewer", "devlogs_count": 1, "created_at": "2025-07-29T05:30:09.079-04:00"}], "coding_time_seconds": 19459, "coding_time_seconds_today": 0, "balance": "You need to have a pocket watcher badge to view this.", "badges": [{"name": "Maiden Voyage", "text": "you shipped your first project! the journey begins...", "icon": "\ud83d\udea2"}], "created_at": "2025-06-18T08:17:56.414-04:00", "updated_at": "2025-09-10T22:55:19.748-04:00", "avatar": "https://secure.gravatar.com/avatar/b1378c614ec86c585583dab1bb253a88.jpg?s=512&d=https%3A%2F%2Fa.slack-edge.com%2Fdf10d%2Fimg%2Favatars%2Fava_0025-512.png", "custom_css": null}, {"id": 8414, "slack_id": "U091KDAFQ1M", "display_name": "Aditya Pandey", "bio": null, "projects_count": 0, "devlogs_count": 0, "votes_count": 0, "ships_count": 0, "projects": [], "coding_time_seconds": 949, "coding_time_seconds_today": 0, "balance": "You need to have a pocket watcher badge to view this.", "badges": [], "created_at": "2025-06-18T08:18:03.170-04:00", "updated_at": "2025-07-03T19:47:55.010-04:00", "avatar": "https://avatars.slack-edge.com/2025-06-18/9068393875026_e8ddb975d7613d1b0b75_original.jpg", "custom_css": null}, {"id": 8415, "slack_id": "U091RDN2WAJ", "display_name": "kacsss", "bio": null, "projects_count": 0, "devlogs_count": 0, "votes_count": 0, "ships_count": 0, "projects": [], "coding_time_seconds": 0, "coding_time_seconds_today": 0, "balance": "You need to have a pocket watcher badge to view this.", "badges": [], "created_at": "2025-06-18T08:18:13.998-04:00", "updated_at": "2025-07-03T19:47:55.277-04:00", "avatar": "https://secure.gravatar.com/avatar/a0e7e1c276d970ee4bbe800fee14948e.jpg?s=512&d=https%3A%2F%2Fa.slack-edge.com%2Fdf10d%2Fimg%2Favatars%2Fava_0024-512.png", "custom_css": null}, {"id": 8416, "slack_id": "U0920B6U5B4", "display_name": "Pranjal Mahajan", "bio": null, "projects_count": 0, "devlogs_count": 0, "votes_count": 0, "ships_count": 0, "projects": [], "coding_time_seconds": 0, "coding_time_seconds_today": 0, "balance": "You need to have a pocket watcher badge to view this.", "badges": [], "created_at": "2025-06-18T08:18:38.245-04:00", "updated_at": "2025-07-03T19:47:55.543-04:00", "avatar": "https://secure.gravatar.com/avatar/16efc8c6e5ffeae4278f2ed2889ccf25.jpg?s=512&d=https%3A%2F%2Fa.slack-edge.com%2Fdf10d%2Fimg%2Favatars%2Fava_0012-512.png", "custom_css": null}, {"id": 8417, "slack_id": "U0920R9UT3N", "display_name": "Syeda Sara", "bio": null, "projects_count": 0, "devlogs_count": 0, "votes_count": 0, "ships_count": 0, "projects": [], "coding_time_seconds": 0, "coding_time_seconds_today": 0, "balance": "You need to have a pocket watcher badge to view this.", "badges": [], "created_at": "2025-06-18T08:18:52.994-04:00", "updated_at": "2025-07-03T19:47:55.813-04:00", "avatar": "https://avatars.slack-edge.com/2025-06-18/9062196308054_d1b06ba7ff94316feb8e_original.png", "custom_css": null}, {"id": 8418, "slack_id": "U08JLQKQX6J", "display_name": "Andrew", "bio": null, "projects_count": 2, "devlogs_count": 12, "votes_count": 20, "ships_count": 1, "projects": [{"id": 11401, "title": "TicTacJava", "devlogs_count": 1, "created_at": "2025-08-15T14:16:12.187-04:00"}, {"id": 7318, "title": "Maze Game", "devlogs_count": 3, "created_at": "2025-07-20T23:02:16.865-04:00"}], "coding_time_seconds": 230180, "coding_time_seconds_today": 0, "balance": "You need to have a pocket watcher badge to view this.", "badges": [{"name": "Maiden Voyage", "text": "you shipped your first project! the journey begins...", "icon": "\ud83d\udea2"}], "created_at": "2025-06-18T08:20:13.790-04:00", "updated_at": "2025-09-10T22:55:19.984-04:00", "avatar": "https://avatars.slack-edge.com/2025-04-29/8820088282053_5f9ed5e53a8bc98e71ee_original.png", "custom_css": null}, {"id": 8419, "slack_id": "U07EYS63HST", "display_name": "Teo Welton", "bio": null, "projects_count": 2, "devlogs_count": 4, "votes_count": 27, "ships_count": 1, "projects": [{"id": 3992, "title": "chip8-rs", "devlogs_count": 4, "created_at": "2025-06-26T18:09:25.995-04:00"}, {"id": 7335, "title": "gb-rs", "devlogs_count": 0, "created_at": "2025-07-21T03:10:43.413-04:00"}], "coding_time_seconds": 157581, "coding_time_seconds_today": 562, "balance": "You need to have a pocket watcher badge to view this.", "badges": [{"name": "Maiden Voyage", "text": "you shipped your first project! the journey begins...", "icon": "\ud83d\udea2"}], "created_at": "2025-06-18T08:20:54.641-04:00", "updated_at": "2025-09-10T22:55:20.012-04:00", "avatar": "https://secure.gravatar.com/avatar/55906d3d9982c4d78d455dc794e056b7.jpg?s=512&d=https%3A%2F%2Fa.slack-edge.com%2Fdf10d%2Fimg%2Favatars%2Fava_0004-512.png", "custom_css": null}, {"id": 8420, "slack_id": "U092NTWAT2L", "display_name": "Rithwik V", "bio": null, "projects_count": 0, "devlogs_count": 0, "votes_count": 0, "ships_count": 0, "projects": [], "coding_time_seconds": 0, "coding_time_seconds_today": 0, "balance": "You need to have a pocket watcher badge to view this.", "badges": [], "created_at": "2025-06-18T08:21:01.413-04:00", "updated_at": "2025-07-03T19:47:56.495-04:00", "avatar": "https://avatars.slack-edge.com/2025-06-18/9090970455584_66213587ea94a03fe18f_original.png", "custom_css": null}], "pagination": {"page": 421, "pages": 1192, "count": 23828, "items": 20}}