{"users": [{"id": 8421, "slack_id": "U091KDW9895", "display_name": "Aditya Mehta", "bio": null, "projects_count": 0, "devlogs_count": 0, "votes_count": 0, "ships_count": 0, "projects": [], "coding_time_seconds": 1086, "coding_time_seconds_today": 0, "balance": "You need to have a pocket watcher badge to view this.", "badges": [], "created_at": "2025-06-18T08:21:32.518-04:00", "updated_at": "2025-07-03T19:47:56.769-04:00", "avatar": "https://secure.gravatar.com/avatar/aeb3d241a9806eb39f514a9b4da61216.jpg?s=512&d=https%3A%2F%2Fa.slack-edge.com%2Fdf10d%2Fimg%2Favatars%2Fava_0004-512.png", "custom_css": null}, {"id": 8422, "slack_id": "U04FLAFRT0V", "display_name": "Manan Goyal", "bio": null, "projects_count": 0, "devlogs_count": 0, "votes_count": 0, "ships_count": 0, "projects": [], "coding_time_seconds": 0, "coding_time_seconds_today": 0, "balance": "You need to have a pocket watcher badge to view this.", "badges": [], "created_at": "2025-06-18T08:24:19.185-04:00", "updated_at": "2025-07-03T19:47:57.033-04:00", "avatar": "https://secure.gravatar.com/avatar/d04f9d3a9312b95e49ea3a2f7727c885.jpg?s=512&d=https%3A%2F%2Fa.slack-edge.com%2Fdf10d%2Fimg%2Favatars%2Fava_0015-512.png", "custom_css": null}, {"id": 8423, "slack_id": "U0920BSGA4A", "display_name": "Souharda Roy", "bio": null, "projects_count": 0, "devlogs_count": 0, "votes_count": 0, "ships_count": 0, "projects": [], "coding_time_seconds": 126930, "coding_time_seconds_today": 0, "balance": "You need to have a pocket watcher badge to view this.", "badges": [], "created_at": "2025-06-18T08:24:25.096-04:00", "updated_at": "2025-07-03T19:47:57.301-04:00", "avatar": "https://secure.gravatar.com/avatar/cd8c66c3ec5bb546de2a5a64bbaea138.jpg?s=512&d=https%3A%2F%2Fa.slack-edge.com%2Fdf10d%2Fimg%2Favatars%2Fava_0025-512.png", "custom_css": null}, {"id": 8424, "slack_id": "U087Y3H1PD1", "display_name": "Moriaan Michiels", "bio": null, "projects_count": 1, "devlogs_count": 6, "votes_count": 4, "ships_count": 1, "projects": [{"id": 7359, "title": "env-spy", "devlogs_count": 6, "created_at": "2025-07-21T08:36:45.453-04:00"}], "coding_time_seconds": 86113, "coding_time_seconds_today": 0, "balance": "You need to have a pocket watcher badge to view this.", "badges": [{"name": "Maiden Voyage", "text": "you shipped your first project! the journey begins...", "icon": "\ud83d\udea2"}], "created_at": "2025-06-18T08:24:50.985-04:00", "updated_at": "2025-09-23T12:21:14.408-04:00", "avatar": "https://avatars.slack-edge.com/2025-01-09/8285537215057_c87a7166b13e24b674c2_original.png", "custom_css": null}, {"id": 8425, "slack_id": "U092D3AJZ0R", "display_name": "The_Het_0", "bio": null, "projects_count": 0, "devlogs_count": 0, "votes_count": 0, "ships_count": 0, "projects": [], "coding_time_seconds": 0, "coding_time_seconds_today": 0, "balance": "You need to have a pocket watcher badge to view this.", "badges": [], "created_at": "2025-06-18T08:25:21.044-04:00", "updated_at": "2025-07-03T21:58:31.668-04:00", "avatar": "https://secure.gravatar.com/avatar/9393c2c7c50cb28048f4d870989c9ac6.jpg?s=512&d=https%3A%2F%2Fa.slack-edge.com%2Fdf10d%2Fimg%2Favatars%2Fava_0022-512.png", "custom_css": null}, {"id": 8426, "slack_id": "U0920SNSL3W", "display_name": "Arber", "bio": null, "projects_count": 0, "devlogs_count": 0, "votes_count": 0, "ships_count": 0, "projects": [], "coding_time_seconds": 0, "coding_time_seconds_today": 0, "balance": "You need to have a pocket watcher badge to view this.", "badges": [], "created_at": "2025-06-18T08:25:45.711-04:00", "updated_at": "2025-07-04T02:27:54.390-04:00", "avatar": "https://secure.gravatar.com/avatar/afd40a5166eff949495b61dbcdf90c01.jpg?s=512&d=https%3A%2F%2Fa.slack-edge.com%2Fdf10d%2Fimg%2Favatars%2Fava_0010-512.png", "custom_css": null}, {"id": 8427, "slack_id": "U091KEADS6T", "display_name": "Dhhyey", "bio": null, "projects_count": 0, "devlogs_count": 0, "votes_count": 0, "ships_count": 0, "projects": [], "coding_time_seconds": 0, "coding_time_seconds_today": 0, "balance": "You need to have a pocket watcher badge to view this.", "badges": [], "created_at": "2025-06-18T08:26:07.649-04:00", "updated_at": "2025-07-03T21:46:32.914-04:00", "avatar": "https://secure.gravatar.com/avatar/9a9ef6e245a1bfc55402f1c5aa5d3dc8.jpg?s=512&d=https%3A%2F%2Fa.slack-edge.com%2Fdf10d%2Fimg%2Favatars%2Fava_0024-512.png", "custom_css": null}, {"id": 8428, "slack_id": "U0920SRUC84", "display_name": "advait", "bio": null, "projects_count": 2, "devlogs_count": 2, "votes_count": 3, "ships_count": 1, "projects": [{"id": 12968, "title": "aeonik", "devlogs_count": 1, "created_at": "2025-09-06T10:39:42.480-04:00"}, {"id": 12969, "title": "better-auth-mono", "devlogs_count": 1, "created_at": "2025-09-06T11:01:49.672-04:00"}], "coding_time_seconds": 629506, "coding_time_seconds_today": 0, "balance": "You need to have a pocket watcher badge to view this.", "badges": [{"name": "Maiden Voyage", "text": "you shipped your first project! the journey begins...", "icon": "\ud83d\udea2"}], "created_at": "2025-06-18T08:26:44.040-04:00", "updated_at": "2025-09-14T11:00:12.052-04:00", "avatar": "https://avatars.slack-edge.com/2025-06-18/9062263512630_e9045cd96db1d66e7b06_original.png", "custom_css": null}, {"id": 8429, "slack_id": "U091KE91A15", "display_name": "RITIK SHEKHAR PARIDA", "bio": null, "projects_count": 0, "devlogs_count": 0, "votes_count": 0, "ships_count": 0, "projects": [], "coding_time_seconds": 0, "coding_time_seconds_today": 0, "balance": "You need to have a pocket watcher badge to view this.", "badges": [], "created_at": "2025-06-18T08:26:45.272-04:00", "updated_at": "2025-07-03T19:47:58.510-04:00", "avatar": "https://secure.gravatar.com/avatar/e61992401723c1ecda1db7ebf084c505.jpg?s=512&d=https%3A%2F%2Fa.slack-edge.com%2Fdf10d%2Fimg%2Favatars%2Fava_0002-512.png", "custom_css": null}, {"id": 8430, "slack_id": "U0920CB58Q2", "display_name": "Shina", "bio": null, "projects_count": 0, "devlogs_count": 0, "votes_count": 0, "ships_count": 0, "projects": [], "coding_time_seconds": 62706, "coding_time_seconds_today": 0, "balance": "You need to have a pocket watcher badge to view this.", "badges": [], "created_at": "2025-06-18T08:27:26.322-04:00", "updated_at": "2025-07-04T08:24:11.049-04:00", "avatar": "https://secure.gravatar.com/avatar/1f90299219e7bd601bb6df3a41f27208.jpg?s=512&d=https%3A%2F%2Fa.slack-edge.com%2Fdf10d%2Fimg%2Favatars%2Fava_0024-512.png", "custom_css": null}, {"id": 8431, "slack_id": "U0920T7LSRJ", "display_name": "Hitkar Miglani", "bio": null, "projects_count": 0, "devlogs_count": 0, "votes_count": 0, "ships_count": 0, "projects": [], "coding_time_seconds": 3539, "coding_time_seconds_today": 0, "balance": "You need to have a pocket watcher badge to view this.", "badges": [], "created_at": "2025-06-18T08:28:58.268-04:00", "updated_at": "2025-07-03T21:58:32.076-04:00", "avatar": "https://secure.gravatar.com/avatar/a5c8cb9e87cf72c9a43949b830006d42.jpg?s=512&d=https%3A%2F%2Fa.slack-edge.com%2Fdf10d%2Fimg%2Favatars%2Fava_0008-512.png", "custom_css": null}, {"id": 8432, "slack_id": "U0823B2NLNP", "display_name": "Ondkos", "bio": null, "projects_count": 0, "devlogs_count": 0, "votes_count": 0, "ships_count": 0, "projects": [], "coding_time_seconds": 2768, "coding_time_seconds_today": 0, "balance": "You need to have a pocket watcher badge to view this.", "badges": [], "created_at": "2025-06-18T08:29:09.086-04:00", "updated_at": "2025-07-04T08:24:11.219-04:00", "avatar": "https://avatars.slack-edge.com/2025-05-23/8956144555345_4ab293e48919fd6f3cf5_original.jpg", "custom_css": null}, {"id": 8433, "slack_id": "U092P03F6QG", "display_name": "Sigma Hassnain", "bio": null, "projects_count": 0, "devlogs_count": 0, "votes_count": 0, "ships_count": 0, "projects": [], "coding_time_seconds": 0, "coding_time_seconds_today": 0, "balance": "You need to have a pocket watcher badge to view this.", "badges": [], "created_at": "2025-06-18T08:31:02.543-04:00", "updated_at": "2025-07-03T19:47:59.178-04:00", "avatar": "https://avatars.slack-edge.com/2025-06-18/9053536764167_f77a00e5b84b7c2571c1_original.png", "custom_css": null}, {"id": 8434, "slack_id": "U092D42UA57", "display_name": "Cybdo", "bio": null, "projects_count": 3, "devlogs_count": 10, "votes_count": 8, "ships_count": 1, "projects": [{"id": 1795, "title": "SnakeOS", "devlogs_count": 4, "created_at": "2025-06-19T09:04:06.221-04:00"}, {"id": 11580, "title": "Better Fletching Tables", "devlogs_count": 4, "created_at": "2025-08-17T07:38:45.827-04:00"}, {"id": 8326, "title": "Battery Bltiz", "devlogs_count": 2, "created_at": "2025-07-26T08:52:52.933-04:00"}], "coding_time_seconds": 74201, "coding_time_seconds_today": 280, "balance": "You need to have a pocket watcher badge to view this.", "badges": [{"name": "Maiden Voyage", "text": "you shipped your first project! the journey begins...", "icon": "\ud83d\udea2"}], "created_at": "2025-06-18T08:32:00.284-04:00", "updated_at": "2025-09-10T22:55:20.499-04:00", "avatar": "https://secure.gravatar.com/avatar/4aef408b1265b858f6370883b1046f22.jpg?s=512&d=https%3A%2F%2Fa.slack-edge.com%2Fdf10d%2Fimg%2Favatars%2Fava_0005-512.png", "custom_css": null}, {"id": 8435, "slack_id": "U092D50RARX", "display_name": "Domonkos Folt\u00e1nyi", "bio": null, "projects_count": 0, "devlogs_count": 0, "votes_count": 0, "ships_count": 0, "projects": [], "coding_time_seconds": 240, "coding_time_seconds_today": 0, "balance": "You need to have a pocket watcher badge to view this.", "badges": [], "created_at": "2025-06-18T08:33:12.392-04:00", "updated_at": "2025-07-03T19:47:59.809-04:00", "avatar": "https://avatars.slack-edge.com/2025-06-18/9053547677335_8ebc64afc043ea7ce697_original.jpg", "custom_css": null}, {"id": 8436, "slack_id": "U091U124YHZ", "display_name": "Rohit Solanki", "bio": null, "projects_count": 0, "devlogs_count": 0, "votes_count": 0, "ships_count": 0, "projects": [], "coding_time_seconds": 0, "coding_time_seconds_today": 0, "balance": "You need to have a pocket watcher badge to view this.", "badges": [], "created_at": "2025-06-18T08:33:15.446-04:00", "updated_at": "2025-07-03T21:58:32.441-04:00", "avatar": "https://secure.gravatar.com/avatar/29412fde0207540ae575fa846d47cd7d.jpg?s=512&d=https%3A%2F%2Fa.slack-edge.com%2Fdf10d%2Fimg%2Favatars%2Fava_0023-512.png", "custom_css": null}, {"id": 8437, "slack_id": "U091PMGKG58", "display_name": "asiertxo09", "bio": null, "projects_count": 0, "devlogs_count": 0, "votes_count": 0, "ships_count": 0, "projects": [], "coding_time_seconds": 0, "coding_time_seconds_today": 0, "balance": "You need to have a pocket watcher badge to view this.", "badges": [], "created_at": "2025-06-18T08:33:55.127-04:00", "updated_at": "2025-07-04T20:08:58.741-04:00", "avatar": "https://secure.gravatar.com/avatar/44a51164172bec6971b688512e395ae4.jpg?s=512&d=https%3A%2F%2Fa.slack-edge.com%2Fdf10d%2Fimg%2Favatars%2Fava_0003-512.png", "custom_css": null}, {"id": 8438, "slack_id": "U092NAJPPCY", "display_name": "Mahmoud Elsayad", "bio": null, "projects_count": 0, "devlogs_count": 11, "votes_count": 26, "ships_count": 0, "projects": [], "coding_time_seconds": 217350, "coding_time_seconds_today": 0, "balance": "You need to have a pocket watcher badge to view this.", "badges": [], "created_at": "2025-06-18T08:33:55.177-04:00", "updated_at": "2025-07-09T16:58:14.522-04:00", "avatar": "https://secure.gravatar.com/avatar/56cf3d66eafa3b3b059d006a1065953f.jpg?s=512&d=https%3A%2F%2Fa.slack-edge.com%2Fdf10d%2Fimg%2Favatars%2Fava_0003-512.png", "custom_css": null}, {"id": 8439, "slack_id": "U091U1ERWTD", "display_name": "0y0s", "bio": null, "projects_count": 0, "devlogs_count": 0, "votes_count": 0, "ships_count": 0, "projects": [], "coding_time_seconds": 35570, "coding_time_seconds_today": 0, "balance": "You need to have a pocket watcher badge to view this.", "badges": [], "created_at": "2025-06-18T08:35:32.931-04:00", "updated_at": "2025-07-03T19:48:00.489-04:00", "avatar": "https://secure.gravatar.com/avatar/5b0267a5903a9e8c1b5cde97a1ae028c.jpg?s=512&d=https%3A%2F%2Fa.slack-edge.com%2Fdf10d%2Fimg%2Favatars%2Fava_0002-512.png", "custom_css": null}, {"id": 8440, "slack_id": "U092P0WAVNU", "display_name": "PIYUSH NEGI", "bio": null, "projects_count": 0, "devlogs_count": 0, "votes_count": 0, "ships_count": 0, "projects": [], "coding_time_seconds": 0, "coding_time_seconds_today": 0, "balance": "You need to have a pocket watcher badge to view this.", "badges": [], "created_at": "2025-06-18T08:35:51.775-04:00", "updated_at": "2025-07-04T02:27:55.279-04:00", "avatar": "https://avatars.slack-edge.com/2025-06-18/9062082294739_90dfd2f9887bac67e3ee_original.jpg", "custom_css": null}], "pagination": {"page": 422, "pages": 1192, "count": 23828, "items": 20}}