{"users": [{"id": 8461, "slack_id": "U08PGAD2KC1", "display_name": "SK", "bio": null, "projects_count": 3, "devlogs_count": 19, "votes_count": 21, "ships_count": 3, "projects": [{"id": 3044, "title": "Vidminal", "devlogs_count": 12, "created_at": "2025-06-22T22:36:26.227-04:00"}, {"id": 4452, "title": "Compapet", "devlogs_count": 6, "created_at": "2025-06-30T00:48:59.673-04:00"}, {"id": 5440, "title": "Raaawr! Programming Language ", "devlogs_count": 1, "created_at": "2025-07-05T10:08:18.797-04:00"}], "coding_time_seconds": 393484, "coding_time_seconds_today": 4692, "balance": "You need to have a pocket watcher badge to view this.", "badges": [{"name": "Maiden Voyage", "text": "you shipped your first project! the journey begins...", "icon": "\ud83d\udea2"}], "created_at": "2025-06-18T09:00:31.562-04:00", "updated_at": "2025-09-10T22:55:21.271-04:00", "avatar": "https://avatars.slack-edge.com/2025-04-22/8792110361202_928bd84f614a00eb8816_original.jpg", "custom_css": null}, {"id": 8462, "slack_id": "U092CL79TC1", "display_name": "Folktro", "bio": null, "projects_count": 0, "devlogs_count": 0, "votes_count": 0, "ships_count": 0, "projects": [], "coding_time_seconds": 0, "coding_time_seconds_today": 0, "balance": "You need to have a pocket watcher badge to view this.", "badges": [], "created_at": "2025-06-18T09:01:08.442-04:00", "updated_at": "2025-07-05T12:47:37.385-04:00", "avatar": "https://secure.gravatar.com/avatar/d5f7563e378165a19ea0c27cfd672166.jpg?s=512&d=https%3A%2F%2Fa.slack-edge.com%2Fdf10d%2Fimg%2Favatars%2Fava_0013-512.png", "custom_css": null}, {"id": 8463, "slack_id": "U091LUV34D9", "display_name": "Gaurav Mukherjee", "bio": null, "projects_count": 0, "devlogs_count": 0, "votes_count": 0, "ships_count": 0, "projects": [], "coding_time_seconds": 0, "coding_time_seconds_today": 0, "balance": "You need to have a pocket watcher badge to view this.", "badges": [], "created_at": "2025-06-18T09:01:22.963-04:00", "updated_at": "2025-07-03T19:48:05.924-04:00", "avatar": "https://secure.gravatar.com/avatar/fcdb55b2dc9bd7d314978550fd2951c4.jpg?s=512&d=https%3A%2F%2Fa.slack-edge.com%2Fdf10d%2Fimg%2Favatars%2Fava_0017-512.png", "custom_css": null}, {"id": 8464, "slack_id": "U091UBB4BLN", "display_name": "Arcka", "bio": null, "projects_count": 0, "devlogs_count": 0, "votes_count": 0, "ships_count": 0, "projects": [], "coding_time_seconds": 0, "coding_time_seconds_today": 0, "balance": "You need to have a pocket watcher badge to view this.", "badges": [], "created_at": "2025-06-18T09:01:24.077-04:00", "updated_at": "2025-07-03T19:48:06.186-04:00", "avatar": "https://secure.gravatar.com/avatar/fd9f7bf04293ebb5b235bff7cc1d5f8c.jpg?s=512&d=https%3A%2F%2Fa.slack-edge.com%2Fdf10d%2Fimg%2Favatars%2Fava_0012-512.png", "custom_css": null}, {"id": 8465, "slack_id": "U08RM1FSXRQ", "display_name": "developer priyansh", "bio": null, "projects_count": 0, "devlogs_count": 0, "votes_count": 0, "ships_count": 0, "projects": [], "coding_time_seconds": 148994, "coding_time_seconds_today": 0, "balance": "You need to have a pocket watcher badge to view this.", "badges": [], "created_at": "2025-06-18T09:02:40.834-04:00", "updated_at": "2025-09-02T16:18:27.121-04:00", "avatar": "https://avatars.slack-edge.com/2025-09-03/9446468296213_12b3ccb86859f008af9e_original.jpg", "custom_css": null}, {"id": 8466, "slack_id": "U092P5B65S4", "display_name": "rohit", "bio": null, "projects_count": 0, "devlogs_count": 0, "votes_count": 0, "ships_count": 0, "projects": [], "coding_time_seconds": 0, "coding_time_seconds_today": 0, "balance": "You need to have a pocket watcher badge to view this.", "badges": [], "created_at": "2025-06-18T09:02:49.820-04:00", "updated_at": "2025-07-04T20:09:01.175-04:00", "avatar": "https://secure.gravatar.com/avatar/0267616f905a824a84b2ea4238644aa1.jpg?s=512&d=https%3A%2F%2Fa.slack-edge.com%2Fdf10d%2Fimg%2Favatars%2Fava_0017-512.png", "custom_css": null}, {"id": 8467, "slack_id": "U0920HY11MG", "display_name": "Soki", "bio": null, "projects_count": 0, "devlogs_count": 0, "votes_count": 0, "ships_count": 0, "projects": [], "coding_time_seconds": 24369, "coding_time_seconds_today": 0, "balance": "You need to have a pocket watcher badge to view this.", "badges": [], "created_at": "2025-06-18T09:03:01.981-04:00", "updated_at": "2025-07-05T02:09:32.674-04:00", "avatar": "https://secure.gravatar.com/avatar/c7d5b5a7ea4b55bebc7901ae1097be32.jpg?s=512&d=https%3A%2F%2Fa.slack-edge.com%2Fdf10d%2Fimg%2Favatars%2Fava_0009-512.png", "custom_css": null}, {"id": 8468, "slack_id": "U0920HV3EQJ", "display_name": "venice", "bio": null, "projects_count": 0, "devlogs_count": 0, "votes_count": 0, "ships_count": 0, "projects": [], "coding_time_seconds": 0, "coding_time_seconds_today": 0, "balance": "You need to have a pocket watcher badge to view this.", "badges": [], "created_at": "2025-06-18T09:03:18.018-04:00", "updated_at": "2025-07-03T21:46:35.779-04:00", "avatar": "https://secure.gravatar.com/avatar/0519f6ddf8689b2df15757b46260a273.jpg?s=512&d=https%3A%2F%2Fa.slack-edge.com%2Fdf10d%2Fimg%2Favatars%2Fava_0005-512.png", "custom_css": null}, {"id": 8469, "slack_id": "U092P5DHRNC", "display_name": "Narotam Kumar", "bio": null, "projects_count": 0, "devlogs_count": 0, "votes_count": 0, "ships_count": 0, "projects": [], "coding_time_seconds": 0, "coding_time_seconds_today": 0, "balance": "You need to have a pocket watcher badge to view this.", "badges": [], "created_at": "2025-06-18T09:03:54.162-04:00", "updated_at": "2025-07-03T19:48:06.993-04:00", "avatar": "https://avatars.slack-edge.com/2025-06-18/9062246333635_f00aa0bc2181d2c65658_original.jpg", "custom_css": null}, {"id": 8470, "slack_id": "U091UCHBADC", "display_name": "Aliraza", "bio": null, "projects_count": 0, "devlogs_count": 0, "votes_count": 0, "ships_count": 0, "projects": [], "coding_time_seconds": 0, "coding_time_seconds_today": 0, "balance": "You need to have a pocket watcher badge to view this.", "badges": [], "created_at": "2025-06-18T09:03:59.335-04:00", "updated_at": "2025-07-03T19:48:07.249-04:00", "avatar": "https://secure.gravatar.com/avatar/45262c30827714fa62f6cf89441e8c19.jpg?s=512&d=https%3A%2F%2Fa.slack-edge.com%2Fdf10d%2Fimg%2Favatars%2Fava_0001-512.png", "custom_css": null}, {"id": 8471, "slack_id": "U092D9T5XTK", "display_name": "aronfd", "bio": null, "projects_count": 0, "devlogs_count": 0, "votes_count": 0, "ships_count": 0, "projects": [], "coding_time_seconds": 0, "coding_time_seconds_today": 0, "balance": "You need to have a pocket watcher badge to view this.", "badges": [], "created_at": "2025-06-18T09:04:22.779-04:00", "updated_at": "2025-07-03T19:48:07.514-04:00", "avatar": "https://secure.gravatar.com/avatar/0353ce310038e63de9739310f96ca789.jpg?s=512&d=https%3A%2F%2Fa.slack-edge.com%2Fdf10d%2Fimg%2Favatars%2Fava_0004-512.png", "custom_css": null}, {"id": 8472, "slack_id": "U06L34CUPL7", "display_name": "blue", "bio": null, "projects_count": 0, "devlogs_count": 0, "votes_count": 0, "ships_count": 0, "projects": [], "coding_time_seconds": 12707, "coding_time_seconds_today": 0, "balance": "You need to have a pocket watcher badge to view this.", "badges": [], "created_at": "2025-06-18T09:04:25.321-04:00", "updated_at": "2025-07-03T19:48:07.786-04:00", "avatar": "https://avatars.slack-edge.com/2024-08-12/7575701917953_9e43faecc4034024a637_original.jpg", "custom_css": null}, {"id": 8473, "slack_id": "U091KLWB2Q7", "display_name": "Diego Castro Gaviria", "bio": null, "projects_count": 0, "devlogs_count": 0, "votes_count": 0, "ships_count": 0, "projects": [], "coding_time_seconds": 0, "coding_time_seconds_today": 0, "balance": "You need to have a pocket watcher badge to view this.", "badges": [], "created_at": "2025-06-18T09:04:59.423-04:00", "updated_at": "2025-07-03T21:58:34.901-04:00", "avatar": "https://avatars.slack-edge.com/2025-06-18/9062452294662_9d7c420354ff2beee91e_original.png", "custom_css": null}, {"id": 8474, "slack_id": "U092109476Y", "display_name": "Vincent Maximilian samsz", "bio": null, "projects_count": 0, "devlogs_count": 0, "votes_count": 0, "ships_count": 0, "projects": [], "coding_time_seconds": 133727, "coding_time_seconds_today": 0, "balance": "You need to have a pocket watcher badge to view this.", "badges": [], "created_at": "2025-06-18T09:05:37.757-04:00", "updated_at": "2025-07-03T19:48:08.188-04:00", "avatar": "https://secure.gravatar.com/avatar/a7434ca18f5c30e3981d31f175dc7996.jpg?s=512&d=https%3A%2F%2Fa.slack-edge.com%2Fdf10d%2Fimg%2Favatars%2Fava_0001-512.png", "custom_css": null}, {"id": 8475, "slack_id": "U091Z8S2ASH", "display_name": "47-Sathwik Suresh Shetty", "bio": null, "projects_count": 0, "devlogs_count": 0, "votes_count": 0, "ships_count": 0, "projects": [], "coding_time_seconds": 0, "coding_time_seconds_today": 0, "balance": "You need to have a pocket watcher badge to view this.", "badges": [], "created_at": "2025-06-18T09:05:40.973-04:00", "updated_at": "2025-07-03T21:46:36.294-04:00", "avatar": "https://avatars.slack-edge.com/2025-06-18/9053734610759_c9f01344b3b747d60d78_original.png", "custom_css": null}, {"id": 8476, "slack_id": "U092DAF7CN5", "display_name": "Walter Amorella", "bio": null, "projects_count": 0, "devlogs_count": 0, "votes_count": 0, "ships_count": 0, "projects": [], "coding_time_seconds": 0, "coding_time_seconds_today": 0, "balance": "You need to have a pocket watcher badge to view this.", "badges": [], "created_at": "2025-06-18T09:06:34.426-04:00", "updated_at": "2025-07-03T21:46:36.406-04:00", "avatar": "https://avatars.slack-edge.com/2025-06-18/9067331100117_ec6538e3d1bb907bf78b_original.png", "custom_css": null}, {"id": 8477, "slack_id": "U07F2PHQ9UN", "display_name": "xHector", "bio": null, "projects_count": 0, "devlogs_count": 0, "votes_count": 0, "ships_count": 0, "projects": [], "coding_time_seconds": 0, "coding_time_seconds_today": 0, "balance": "You need to have a pocket watcher badge to view this.", "badges": [], "created_at": "2025-06-18T09:06:35.402-04:00", "updated_at": "2025-07-14T08:01:24.192-04:00", "avatar": "https://avatars.slack-edge.com/2024-08-25/7626046085779_53c7ecb74b0338278096_original.jpg", "custom_css": null}, {"id": 8478, "slack_id": "U091Z933EAZ", "display_name": "Naz", "bio": null, "projects_count": 0, "devlogs_count": 0, "votes_count": 0, "ships_count": 0, "projects": [], "coding_time_seconds": 0, "coding_time_seconds_today": 0, "balance": "You need to have a pocket watcher badge to view this.", "badges": [], "created_at": "2025-06-18T09:06:57.002-04:00", "updated_at": "2025-07-03T21:58:35.331-04:00", "avatar": "https://secure.gravatar.com/avatar/ced9ad1f7fd192ae65263f2688407e62.jpg?s=512&d=https%3A%2F%2Fa.slack-edge.com%2Fdf10d%2Fimg%2Favatars%2Fava_0003-512.png", "custom_css": null}, {"id": 8479, "slack_id": "U092BRGH9FA", "display_name": "George", "bio": null, "projects_count": 0, "devlogs_count": 0, "votes_count": 0, "ships_count": 0, "projects": [], "coding_time_seconds": 0, "coding_time_seconds_today": 0, "balance": "You need to have a pocket watcher badge to view this.", "badges": [], "created_at": "2025-06-18T09:07:19.719-04:00", "updated_at": "2025-07-03T19:48:09.127-04:00", "avatar": "https://secure.gravatar.com/avatar/fffd0f2f4ebf8ec858701cbce2d90ef3.jpg?s=512&d=https%3A%2F%2Fa.slack-edge.com%2Fdf10d%2Fimg%2Favatars%2Fava_0000-512.png", "custom_css": null}, {"id": 8480, "slack_id": "U091U7LS9D1", "display_name": "Ratul Hasan Ruhan", "bio": null, "projects_count": 0, "devlogs_count": 0, "votes_count": 0, "ships_count": 0, "projects": [], "coding_time_seconds": 13175, "coding_time_seconds_today": 0, "balance": "You need to have a pocket watcher badge to view this.", "badges": [], "created_at": "2025-06-18T09:08:52.694-04:00", "updated_at": "2025-07-03T19:48:09.399-04:00", "avatar": "https://avatars.slack-edge.com/2025-06-18/9067344924821_00781f21667b1e8a0157_original.png", "custom_css": null}], "pagination": {"page": 424, "pages": 1192, "count": 23828, "items": 20}}