{"users": [{"id": 8501, "slack_id": "U091SHY114J", "display_name": "negishi_tako", "bio": null, "projects_count": 0, "devlogs_count": 0, "votes_count": 0, "ships_count": 0, "projects": [], "coding_time_seconds": 0, "coding_time_seconds_today": 0, "balance": "You need to have a pocket watcher badge to view this.", "badges": [], "created_at": "2025-06-18T09:25:07.011-04:00", "updated_at": "2025-07-03T19:48:14.606-04:00", "avatar": "https://avatars.slack-edge.com/2025-06-18/9062377267587_17f1317a7be3ab3c21a0_original.jpg", "custom_css": null}, {"id": 8502, "slack_id": "U092DDB0YL9", "display_name": "David", "bio": null, "projects_count": 0, "devlogs_count": 0, "votes_count": 0, "ships_count": 0, "projects": [], "coding_time_seconds": 0, "coding_time_seconds_today": 0, "balance": "You need to have a pocket watcher badge to view this.", "badges": [], "created_at": "2025-06-18T09:25:31.127-04:00", "updated_at": "2025-07-03T19:48:14.869-04:00", "avatar": "https://secure.gravatar.com/avatar/1c857678076edc208ccdf0b38698eb0b.jpg?s=512&d=https%3A%2F%2Fa.slack-edge.com%2Fdf10d%2Fimg%2Favatars%2Fava_0019-512.png", "custom_css": null}, {"id": 8503, "slack_id": "U086F6W775L", "display_name": "Samy", "bio": null, "projects_count": 0, "devlogs_count": 0, "votes_count": 0, "ships_count": 0, "projects": [], "coding_time_seconds": 12716, "coding_time_seconds_today": 0, "balance": "You need to have a pocket watcher badge to view this.", "badges": [], "created_at": "2025-06-18T09:26:35.553-04:00", "updated_at": "2025-07-03T19:48:15.153-04:00", "avatar": "https://avatars.slack-edge.com/2025-01-29/8352877861655_bc7eb80ef3e06d391959_original.png", "custom_css": null}, {"id": 8504, "slack_id": "U08B7K7FXCY", "display_name": "sia", "bio": null, "projects_count": 0, "devlogs_count": 0, "votes_count": 0, "ships_count": 0, "projects": [], "coding_time_seconds": 3864, "coding_time_seconds_today": 0, "balance": "You need to have a pocket watcher badge to view this.", "badges": [], "created_at": "2025-06-18T09:26:52.254-04:00", "updated_at": "2025-07-03T21:46:38.150-04:00", "avatar": "https://avatars.slack-edge.com/2025-04-01/8681953413958_c9495fc90370b94df9e5_original.jpg", "custom_css": null}, {"id": 8505, "slack_id": "U09216YN78U", "display_name": "Akhileswar", "bio": null, "projects_count": 0, "devlogs_count": 0, "votes_count": 0, "ships_count": 0, "projects": [], "coding_time_seconds": 0, "coding_time_seconds_today": 0, "balance": "You need to have a pocket watcher badge to view this.", "badges": [], "created_at": "2025-06-18T09:28:44.117-04:00", "updated_at": "2025-07-03T19:48:15.557-04:00", "avatar": "https://secure.gravatar.com/avatar/760d8141b006c863b34b07bf2c631a51.jpg?s=512&d=https%3A%2F%2Fa.slack-edge.com%2Fdf10d%2Fimg%2Favatars%2Fava_0002-512.png", "custom_css": null}, {"id": 8506, "slack_id": "U0920MZTJSE", "display_name": "Arun Das", "bio": null, "projects_count": 0, "devlogs_count": 0, "votes_count": 0, "ships_count": 0, "projects": [], "coding_time_seconds": 0, "coding_time_seconds_today": 0, "balance": "You need to have a pocket watcher badge to view this.", "badges": [], "created_at": "2025-06-18T09:28:58.056-04:00", "updated_at": "2025-07-03T19:48:15.825-04:00", "avatar": "https://secure.gravatar.com/avatar/2e00bc75e6c0fb07e3552ab149ff4345.jpg?s=512&d=https%3A%2F%2Fa.slack-edge.com%2Fdf10d%2Fimg%2Favatars%2Fava_0025-512.png", "custom_css": null}, {"id": 8507, "slack_id": "U092P9D3GQ0", "display_name": "\u7530\u6fa4\u79c0\u6771", "bio": null, "projects_count": 0, "devlogs_count": 0, "votes_count": 0, "ships_count": 0, "projects": [], "coding_time_seconds": 0, "coding_time_seconds_today": 0, "balance": "You need to have a pocket watcher badge to view this.", "badges": [], "created_at": "2025-06-18T09:29:14.592-04:00", "updated_at": "2025-07-04T20:09:03.684-04:00", "avatar": "https://secure.gravatar.com/avatar/9d3f2b1e7185b71ee46c2ff09852d4c3.jpg?s=512&d=https%3A%2F%2Fa.slack-edge.com%2Fdf10d%2Fimg%2Favatars%2Fava_0016-512.png", "custom_css": null}, {"id": 8508, "slack_id": "U091KRCESH5", "display_name": "xayewem", "bio": null, "projects_count": 0, "devlogs_count": 0, "votes_count": 0, "ships_count": 0, "projects": [], "coding_time_seconds": 0, "coding_time_seconds_today": 0, "balance": "You need to have a pocket watcher badge to view this.", "badges": [], "created_at": "2025-06-18T09:30:26.455-04:00", "updated_at": "2025-07-03T19:48:16.229-04:00", "avatar": "https://secure.gravatar.com/avatar/6a12341d046f5b67841e4c367b55d9bb.jpg?s=512&d=https%3A%2F%2Fa.slack-edge.com%2Fdf10d%2Fimg%2Favatars%2Fava_0005-512.png", "custom_css": null}, {"id": 8509, "slack_id": "U091ZDHDJUD", "display_name": "shitij", "bio": null, "projects_count": 0, "devlogs_count": 0, "votes_count": 0, "ships_count": 0, "projects": [], "coding_time_seconds": 0, "coding_time_seconds_today": 0, "balance": "You need to have a pocket watcher badge to view this.", "badges": [], "created_at": "2025-06-18T09:30:39.203-04:00", "updated_at": "2025-07-04T08:24:16.175-04:00", "avatar": "https://secure.gravatar.com/avatar/3ce38152b6d0db6b9fcf3da52a6cd5c2.jpg?s=512&d=https%3A%2F%2Fa.slack-edge.com%2Fdf10d%2Fimg%2Favatars%2Fava_0021-512.png", "custom_css": null}, {"id": 8510, "slack_id": "U092KTE9RS4", "display_name": "Lorenzo Mol Massariol", "bio": null, "projects_count": 0, "devlogs_count": 0, "votes_count": 0, "ships_count": 0, "projects": [], "coding_time_seconds": 0, "coding_time_seconds_today": 0, "balance": "You need to have a pocket watcher badge to view this.", "badges": [], "created_at": "2025-06-18T09:30:58.945-04:00", "updated_at": "2025-07-03T21:46:38.602-04:00", "avatar": "https://secure.gravatar.com/avatar/a4b4793924d9631da99f788b866f3730.jpg?s=512&d=https%3A%2F%2Fa.slack-edge.com%2Fdf10d%2Fimg%2Favatars%2Fava_0004-512.png", "custom_css": null}, {"id": 8511, "slack_id": "U092DEGC6U9", "display_name": "RomainMoreau", "bio": null, "projects_count": 0, "devlogs_count": 0, "votes_count": 0, "ships_count": 0, "projects": [], "coding_time_seconds": 0, "coding_time_seconds_today": 0, "balance": "You need to have a pocket watcher badge to view this.", "badges": [], "created_at": "2025-06-18T09:31:02.185-04:00", "updated_at": "2025-07-03T19:48:16.754-04:00", "avatar": "https://secure.gravatar.com/avatar/76e30491d9bb46a2169da887cd100945.jpg?s=512&d=https%3A%2F%2Fa.slack-edge.com%2Fdf10d%2Fimg%2Favatars%2Fava_0025-512.png", "custom_css": null}, {"id": 8512, "slack_id": "U09218RAYAY", "display_name": "Chakrasai", "bio": null, "projects_count": 0, "devlogs_count": 0, "votes_count": 0, "ships_count": 0, "projects": [], "coding_time_seconds": 0, "coding_time_seconds_today": 0, "balance": "You need to have a pocket watcher badge to view this.", "badges": [], "created_at": "2025-06-18T09:34:14.798-04:00", "updated_at": "2025-07-03T19:48:17.014-04:00", "avatar": "https://avatars.slack-edge.com/2025-06-18/9091385113696_7edc2bc20199e7c99d8f_original.png", "custom_css": null}, {"id": 8513, "slack_id": "U091UHWK5ML", "display_name": "Mario Esmeral Quintero", "bio": null, "projects_count": 0, "devlogs_count": 0, "votes_count": 0, "ships_count": 0, "projects": [], "coding_time_seconds": 0, "coding_time_seconds_today": 0, "balance": "You need to have a pocket watcher badge to view this.", "badges": [], "created_at": "2025-06-18T09:34:33.885-04:00", "updated_at": "2025-07-05T02:09:35.410-04:00", "avatar": "https://avatars.slack-edge.com/2025-06-18/9068806828306_b07e93adc82b06459638_original.png", "custom_css": null}, {"id": 8514, "slack_id": "U09218UBASG", "display_name": "Grayson Wallace", "bio": null, "projects_count": 0, "devlogs_count": 0, "votes_count": 0, "ships_count": 0, "projects": [], "coding_time_seconds": 0, "coding_time_seconds_today": 0, "balance": "You need to have a pocket watcher badge to view this.", "badges": [], "created_at": "2025-06-18T09:35:13.214-04:00", "updated_at": "2025-07-03T21:46:39.005-04:00", "avatar": "https://secure.gravatar.com/avatar/e04de6448f58f3a4ea0849dc7d462479.jpg?s=512&d=https%3A%2F%2Fa.slack-edge.com%2Fdf10d%2Fimg%2Favatars%2Fava_0015-512.png", "custom_css": null}, {"id": 8515, "slack_id": "U08L1V1K11Q", "display_name": "HARISH GL", "bio": null, "projects_count": 0, "devlogs_count": 0, "votes_count": 0, "ships_count": 0, "projects": [], "coding_time_seconds": 0, "coding_time_seconds_today": 0, "balance": "You need to have a pocket watcher badge to view this.", "badges": [], "created_at": "2025-06-18T09:36:29.195-04:00", "updated_at": "2025-07-03T19:48:17.553-04:00", "avatar": "https://secure.gravatar.com/avatar/b89c3c4ff2219d8e8598a7571d85f106.jpg?s=512&d=https%3A%2F%2Fa.slack-edge.com%2Fdf10d%2Fimg%2Favatars%2Fava_0003-512.png", "custom_css": null}, {"id": 8516, "slack_id": "U092P7HTHCG", "display_name": "Yisokunpitou", "bio": null, "projects_count": 0, "devlogs_count": 0, "votes_count": 0, "ships_count": 0, "projects": [], "coding_time_seconds": 0, "coding_time_seconds_today": 0, "balance": "You need to have a pocket watcher badge to view this.", "badges": [], "created_at": "2025-06-18T09:36:40.957-04:00", "updated_at": "2025-07-03T19:48:17.815-04:00", "avatar": "https://secure.gravatar.com/avatar/62f96cc1fb4ba5db817abd6d5009049d.jpg?s=512&d=https%3A%2F%2Fa.slack-edge.com%2Fdf10d%2Fimg%2Favatars%2Fava_0009-512.png", "custom_css": null}, {"id": 8517, "slack_id": "U091ZEZ34MB", "display_name": "Gonzalo Vattino", "bio": null, "projects_count": 7, "devlogs_count": 11, "votes_count": 56, "ships_count": 3, "projects": [{"id": 9172, "title": "basic-text-compress", "devlogs_count": 0, "created_at": "2025-07-30T20:39:17.091-04:00"}, {"id": 9303, "title": "Raffles Manager REST API", "devlogs_count": 5, "created_at": "2025-07-31T12:39:12.202-04:00"}, {"id": 11982, "title": "Raffles Manager APP", "devlogs_count": 2, "created_at": "2025-08-21T20:32:22.689-04:00"}, {"id": 12027, "title": "Notes in C", "devlogs_count": 1, "created_at": "2025-08-22T09:05:17.039-04:00"}, {"id": 13552, "title": "Count Numbers - Practice C", "devlogs_count": 1, "created_at": "2025-09-19T08:41:54.581-04:00"}, {"id": 13737, "title": "Search Country", "devlogs_count": 1, "created_at": "2025-09-24T11:26:52.295-04:00"}, {"id": 9667, "title": "I like SOM hackclub", "devlogs_count": 1, "created_at": "2025-08-02T01:42:28.292-04:00"}], "coding_time_seconds": 219467, "coding_time_seconds_today": 0, "balance": "You need to have a pocket watcher badge to view this.", "badges": [{"name": "Maiden Voyage", "text": "you shipped your first project! the journey begins...", "icon": "\ud83d\udea2"}], "created_at": "2025-06-18T09:38:05.450-04:00", "updated_at": "2025-09-10T22:55:22.791-04:00", "avatar": "https://secure.gravatar.com/avatar/68972930384683902001335e14eed470.jpg?s=512&d=https%3A%2F%2Fa.slack-edge.com%2Fdf10d%2Fimg%2Favatars%2Fava_0021-512.png", "custom_css": null}, {"id": 8518, "slack_id": "U091UJ0CJHL", "display_name": "varum", "bio": null, "projects_count": 0, "devlogs_count": 0, "votes_count": 0, "ships_count": 0, "projects": [], "coding_time_seconds": 0, "coding_time_seconds_today": 0, "balance": "You need to have a pocket watcher badge to view this.", "badges": [], "created_at": "2025-06-18T09:38:16.923-04:00", "updated_at": "2025-07-03T19:48:18.245-04:00", "avatar": "https://secure.gravatar.com/avatar/defef3a62bf31d0746ea3d160c9828d6.jpg?s=512&d=https%3A%2F%2Fa.slack-edge.com%2Fdf10d%2Fimg%2Favatars%2Fava_0025-512.png", "custom_css": null}, {"id": 8519, "slack_id": "U092DG2U55X", "display_name": "Alvaro", "bio": null, "projects_count": 0, "devlogs_count": 0, "votes_count": 0, "ships_count": 0, "projects": [], "coding_time_seconds": 0, "coding_time_seconds_today": 0, "balance": "You need to have a pocket watcher badge to view this.", "badges": [], "created_at": "2025-06-18T09:38:45.938-04:00", "updated_at": "2025-07-03T19:48:18.530-04:00", "avatar": "https://secure.gravatar.com/avatar/76f826a0e9c290de7846b842aa1297b1.jpg?s=512&d=https%3A%2F%2Fa.slack-edge.com%2Fdf10d%2Fimg%2Favatars%2Fava_0024-512.png", "custom_css": null}, {"id": 8520, "slack_id": "U091UJXT2NA", "display_name": "Rohan", "bio": null, "projects_count": 0, "devlogs_count": 0, "votes_count": 0, "ships_count": 0, "projects": [], "coding_time_seconds": 0, "coding_time_seconds_today": 0, "balance": "You need to have a pocket watcher badge to view this.", "badges": [], "created_at": "2025-06-18T09:39:05.235-04:00", "updated_at": "2025-07-05T14:10:41.543-04:00", "avatar": "https://secure.gravatar.com/avatar/a2e9f163cb2ad3096f272f5611414473.jpg?s=512&d=https%3A%2F%2Fa.slack-edge.com%2Fdf10d%2Fimg%2Favatars%2Fava_0004-512.png", "custom_css": null}], "pagination": {"page": 426, "pages": 1192, "count": 23828, "items": 20}}