{"users": [{"id": 8521, "slack_id": "U09219NT1A8", "display_name": "Jayaprakash", "bio": null, "projects_count": 0, "devlogs_count": 0, "votes_count": 0, "ships_count": 0, "projects": [], "coding_time_seconds": 0, "coding_time_seconds_today": 0, "balance": "You need to have a pocket watcher badge to view this.", "badges": [], "created_at": "2025-06-18T09:39:38.328-04:00", "updated_at": "2025-07-03T19:48:18.942-04:00", "avatar": "https://secure.gravatar.com/avatar/874d3bba7fdb170324f8b335cb4a21c2.jpg?s=512&d=https%3A%2F%2Fa.slack-edge.com%2Fdf10d%2Fimg%2Favatars%2Fava_0025-512.png", "custom_css": null}, {"id": 8522, "slack_id": "U09219V79GC", "display_name": "de Lara", "bio": null, "projects_count": 0, "devlogs_count": 0, "votes_count": 0, "ships_count": 0, "projects": [], "coding_time_seconds": 252567, "coding_time_seconds_today": 0, "balance": "You need to have a pocket watcher badge to view this.", "badges": [], "created_at": "2025-06-18T09:39:50.832-04:00", "updated_at": "2025-07-03T19:48:19.216-04:00", "avatar": "https://secure.gravatar.com/avatar/81d7a63fbdd288ec577c3cacd2b7796a.jpg?s=512&d=https%3A%2F%2Fa.slack-edge.com%2Fdf10d%2Fimg%2Favatars%2Fava_0020-512.png", "custom_css": null}, {"id": 8523, "slack_id": "U091UKD8EGN", "display_name": "Hardik Baviskar", "bio": null, "projects_count": 0, "devlogs_count": 0, "votes_count": 0, "ships_count": 0, "projects": [], "coding_time_seconds": 49996, "coding_time_seconds_today": 0, "balance": "You need to have a pocket watcher badge to view this.", "badges": [], "created_at": "2025-06-18T09:42:20.956-04:00", "updated_at": "2025-07-03T19:48:19.537-04:00", "avatar": "https://secure.gravatar.com/avatar/c230e6455d70c9423210aa20d4ac0153.jpg?s=512&d=https%3A%2F%2Fa.slack-edge.com%2Fdf10d%2Fimg%2Favatars%2Fava_0015-512.png", "custom_css": null}, {"id": 8524, "slack_id": "U092DGMDQCR", "display_name": "M Maaz Aleem", "bio": null, "projects_count": 0, "devlogs_count": 0, "votes_count": 0, "ships_count": 0, "projects": [], "coding_time_seconds": 0, "coding_time_seconds_today": 0, "balance": "You need to have a pocket watcher badge to view this.", "badges": [], "created_at": "2025-06-18T09:42:28.871-04:00", "updated_at": "2025-07-03T21:58:38.827-04:00", "avatar": "https://secure.gravatar.com/avatar/67d18fc68c386427417903fae18e6e84.jpg?s=512&d=https%3A%2F%2Fa.slack-edge.com%2Fdf10d%2Fimg%2Favatars%2Fava_0008-512.png", "custom_css": null}, {"id": 8525, "slack_id": "U091UKG79C6", "display_name": "Natalie Nyamisa", "bio": null, "projects_count": 0, "devlogs_count": 0, "votes_count": 0, "ships_count": 0, "projects": [], "coding_time_seconds": 59583, "coding_time_seconds_today": 0, "balance": "You need to have a pocket watcher badge to view this.", "badges": [], "created_at": "2025-06-18T09:42:29.989-04:00", "updated_at": "2025-07-03T19:48:19.952-04:00", "avatar": "https://secure.gravatar.com/avatar/25a68bea4af237c8c00d40d0035678a5.jpg?s=512&d=https%3A%2F%2Fa.slack-edge.com%2Fdf10d%2Fimg%2Favatars%2Fava_0013-512.png", "custom_css": null}, {"id": 8526, "slack_id": "U08A6K0TG5N", "display_name": "H XR", "bio": null, "projects_count": 2, "devlogs_count": 1, "votes_count": 20, "ships_count": 1, "projects": [{"id": 3407, "title": "Quiz game", "devlogs_count": 0, "created_at": "2025-06-24T05:15:20.901-04:00"}, {"id": 8261, "title": "Cubix Esolang", "devlogs_count": 1, "created_at": "2025-07-25T19:14:04.305-04:00"}], "coding_time_seconds": 227708, "coding_time_seconds_today": 0, "balance": "You need to have a pocket watcher badge to view this.", "badges": [{"name": "Maiden Voyage", "text": "you shipped your first project! the journey begins...", "icon": "\ud83d\udea2"}], "created_at": "2025-06-18T09:43:06.815-04:00", "updated_at": "2025-09-10T22:55:23.078-04:00", "avatar": "https://avatars.slack-edge.com/2025-01-20/8323750032771_010730af36ff4b4cb3aa_original.png", "custom_css": null}, {"id": 8527, "slack_id": "U091X5S4GLU", "display_name": "S\u00e9l\u00e9fin", "bio": null, "projects_count": 0, "devlogs_count": 0, "votes_count": 0, "ships_count": 0, "projects": [], "coding_time_seconds": 0, "coding_time_seconds_today": 0, "balance": "You need to have a pocket watcher badge to view this.", "badges": [], "created_at": "2025-06-18T09:46:31.708-04:00", "updated_at": "2025-07-03T19:48:20.481-04:00", "avatar": "https://secure.gravatar.com/avatar/4a9df4bfc3c43d8494b8eb3e148b5fba.jpg?s=512&d=https%3A%2F%2Fa.slack-edge.com%2Fdf10d%2Fimg%2Favatars%2Fava_0023-512.png", "custom_css": null}, {"id": 8528, "slack_id": "U0920RAMV8A", "display_name": "onuralp", "bio": null, "projects_count": 0, "devlogs_count": 0, "votes_count": 0, "ships_count": 0, "projects": [], "coding_time_seconds": 0, "coding_time_seconds_today": 0, "balance": "You need to have a pocket watcher badge to view this.", "badges": [], "created_at": "2025-06-18T09:47:13.275-04:00", "updated_at": "2025-07-03T19:48:20.749-04:00", "avatar": "https://secure.gravatar.com/avatar/d8c3a180cd8ae134a77a018a2f252190.jpg?s=512&d=https%3A%2F%2Fa.slack-edge.com%2Fdf10d%2Fimg%2Favatars%2Fava_0026-512.png", "custom_css": null}, {"id": 8529, "slack_id": "U091ZG9JHE1", "display_name": "109 14\u80e1\u51f1\u7fd4", "bio": null, "projects_count": 3, "devlogs_count": 21, "votes_count": 35, "ships_count": 3, "projects": [{"id": 11587, "title": "maze game", "devlogs_count": 4, "created_at": "2025-08-17T09:47:00.741-04:00"}, {"id": 6518, "title": "php mysql guide", "devlogs_count": 5, "created_at": "2025-07-14T00:39:59.943-04:00"}, {"id": 1751, "title": "Anonymous posting platform - g4o2.me", "devlogs_count": 12, "created_at": "2025-06-19T06:52:12.913-04:00"}], "coding_time_seconds": 539114, "coding_time_seconds_today": 0, "balance": "You need to have a pocket watcher badge to view this.", "badges": [{"name": "Maiden Voyage", "text": "you shipped your first project! the journey begins...", "icon": "\ud83d\udea2"}], "created_at": "2025-06-18T09:47:54.351-04:00", "updated_at": "2025-09-10T22:55:23.176-04:00", "avatar": "https://avatars.slack-edge.com/2025-06-18/9081618236929_9f8b87eff3c6f0343121_original.png", "custom_css": null}, {"id": 8530, "slack_id": "U0921BE1S04", "display_name": "Linnov", "bio": null, "projects_count": 1, "devlogs_count": 0, "votes_count": 0, "ships_count": 0, "projects": [{"id": 2530, "title": "Sutom Solver", "devlogs_count": 0, "created_at": "2025-06-21T08:13:53.905-04:00"}], "coding_time_seconds": 49900, "coding_time_seconds_today": 0, "balance": "You need to have a pocket watcher badge to view this.", "badges": [], "created_at": "2025-06-18T09:49:25.847-04:00", "updated_at": "2025-08-10T05:25:59.253-04:00", "avatar": "https://avatars.slack-edge.com/2025-06-18/9054018507639_ec4f5c1da8104f56f222_original.png", "custom_css": null}, {"id": 8531, "slack_id": "U091UPUBWBU", "display_name": "KYLIE", "bio": null, "projects_count": 0, "devlogs_count": 0, "votes_count": 0, "ships_count": 0, "projects": [], "coding_time_seconds": 19735, "coding_time_seconds_today": 0, "balance": "You need to have a pocket watcher badge to view this.", "badges": [], "created_at": "2025-06-18T09:49:54.709-04:00", "updated_at": "2025-07-03T19:48:21.413-04:00", "avatar": "https://secure.gravatar.com/avatar/eae823996846511d20618bf58661801c.jpg?s=512&d=https%3A%2F%2Fa.slack-edge.com%2Fdf10d%2Fimg%2Favatars%2Fava_0023-512.png", "custom_css": null}, {"id": 8532, "slack_id": "U091ZH5QVFX", "display_name": "Piero Guizado", "bio": null, "projects_count": 0, "devlogs_count": 0, "votes_count": 0, "ships_count": 0, "projects": [], "coding_time_seconds": 0, "coding_time_seconds_today": 0, "balance": "You need to have a pocket watcher badge to view this.", "badges": [], "created_at": "2025-06-18T09:50:31.474-04:00", "updated_at": "2025-07-03T19:48:21.681-04:00", "avatar": "https://secure.gravatar.com/avatar/b4f57bbed03c3860d36996b258ab8928.jpg?s=512&d=https%3A%2F%2Fa.slack-edge.com%2Fdf10d%2Fimg%2Favatars%2Fava_0009-512.png", "custom_css": null}, {"id": 8533, "slack_id": "U091UJ6FT1C", "display_name": "Nabil Shaikh", "bio": null, "projects_count": 0, "devlogs_count": 0, "votes_count": 0, "ships_count": 0, "projects": [], "coding_time_seconds": 0, "coding_time_seconds_today": 0, "balance": "You need to have a pocket watcher badge to view this.", "badges": [], "created_at": "2025-06-18T09:50:56.798-04:00", "updated_at": "2025-07-03T19:48:21.946-04:00", "avatar": "https://avatars.slack-edge.com/2025-06-18/9054024713303_148ec4d7233d254fb864_original.jpg", "custom_css": null}, {"id": 8534, "slack_id": "U091P4NL6H0", "display_name": "Diya", "bio": null, "projects_count": 0, "devlogs_count": 0, "votes_count": 0, "ships_count": 0, "projects": [], "coding_time_seconds": 0, "coding_time_seconds_today": 0, "balance": "You need to have a pocket watcher badge to view this.", "badges": [], "created_at": "2025-06-18T09:52:37.989-04:00", "updated_at": "2025-07-03T19:48:22.214-04:00", "avatar": "https://secure.gravatar.com/avatar/46ac82732538888ecb8be6d94517dad1.jpg?s=512&d=https%3A%2F%2Fa.slack-edge.com%2Fdf10d%2Fimg%2Favatars%2Fava_0022-512.png", "custom_css": null}, {"id": 8535, "slack_id": "U08QE6P4U48", "display_name": "boringhooman", "bio": null, "projects_count": 2, "devlogs_count": 0, "votes_count": 0, "ships_count": 0, "projects": [{"id": 9994, "title": "Glow-Mix", "devlogs_count": 0, "created_at": "2025-08-03T11:04:55.955-04:00"}, {"id": 3878, "title": "Aurion AI", "devlogs_count": 0, "created_at": "2025-06-26T05:02:32.923-04:00"}], "coding_time_seconds": 56071, "coding_time_seconds_today": 0, "balance": "You need to have a pocket watcher badge to view this.", "badges": [], "created_at": "2025-06-18T09:53:19.110-04:00", "updated_at": "2025-07-28T03:53:03.503-04:00", "avatar": "https://avatars.slack-edge.com/2025-04-26/8795018686295_89e64cb94bfc034c7a0c_original.jpg", "custom_css": null}, {"id": 8536, "slack_id": "U092PDAK5L0", "display_name": "Edzel", "bio": null, "projects_count": 0, "devlogs_count": 0, "votes_count": 0, "ships_count": 0, "projects": [], "coding_time_seconds": 0, "coding_time_seconds_today": 0, "balance": "You need to have a pocket watcher badge to view this.", "badges": [], "created_at": "2025-06-18T09:53:46.726-04:00", "updated_at": "2025-07-03T19:48:22.624-04:00", "avatar": "https://secure.gravatar.com/avatar/5c0ef0c857ff0597ebd087cbdabada00.jpg?s=512&d=https%3A%2F%2Fa.slack-edge.com%2Fdf10d%2Fimg%2Favatars%2Fava_0008-512.png", "custom_css": null}, {"id": 8537, "slack_id": "U091ZHZT013", "display_name": "Baljit Coding", "bio": null, "projects_count": 0, "devlogs_count": 0, "votes_count": 0, "ships_count": 0, "projects": [], "coding_time_seconds": 8833, "coding_time_seconds_today": 0, "balance": "You need to have a pocket watcher badge to view this.", "badges": [], "created_at": "2025-06-18T09:53:59.353-04:00", "updated_at": "2025-07-03T19:48:22.883-04:00", "avatar": "https://avatars.slack-edge.com/2025-06-18/9054037783367_2c84fa05355823d791ac_original.png", "custom_css": null}, {"id": 8538, "slack_id": "U091UM8D85U", "display_name": "Gyashu", "bio": null, "projects_count": 0, "devlogs_count": 0, "votes_count": 0, "ships_count": 0, "projects": [], "coding_time_seconds": 0, "coding_time_seconds_today": 0, "balance": "You need to have a pocket watcher badge to view this.", "badges": [], "created_at": "2025-06-18T09:54:04.681-04:00", "updated_at": "2025-07-03T19:48:23.157-04:00", "avatar": "https://secure.gravatar.com/avatar/078b1681d2cb5b2194bec5d8e5245aa3.jpg?s=512&d=https%3A%2F%2Fa.slack-edge.com%2Fdf10d%2Fimg%2Favatars%2Fava_0000-512.png", "custom_css": null}, {"id": 8539, "slack_id": "U091UMRJXD4", "display_name": "matchasnow", "bio": null, "projects_count": 0, "devlogs_count": 0, "votes_count": 0, "ships_count": 0, "projects": [], "coding_time_seconds": 0, "coding_time_seconds_today": 0, "balance": "You need to have a pocket watcher badge to view this.", "badges": [], "created_at": "2025-06-18T09:54:27.326-04:00", "updated_at": "2025-07-03T19:48:23.415-04:00", "avatar": "https://secure.gravatar.com/avatar/464a7c2964892dce72dbac8b4fb4af35.jpg?s=512&d=https%3A%2F%2Fa.slack-edge.com%2Fdf10d%2Fimg%2Favatars%2Fava_0009-512.png", "custom_css": null}, {"id": 8540, "slack_id": "U091ZHFA8GM", "display_name": "Javier Vargas", "bio": null, "projects_count": 0, "devlogs_count": 2, "votes_count": 0, "ships_count": 0, "projects": [], "coding_time_seconds": 89448, "coding_time_seconds_today": 0, "balance": "You need to have a pocket watcher badge to view this.", "badges": [], "created_at": "2025-06-18T09:54:30.246-04:00", "updated_at": "2025-08-15T11:38:04.787-04:00", "avatar": "https://avatars.slack-edge.com/2025-06-18/9062565658659_1edc6a3f801019a11454_original.jpg", "custom_css": null}], "pagination": {"page": 427, "pages": 1192, "count": 23828, "items": 20}}