{"users": [{"id": 8541, "slack_id": "U08UKJ6T70D", "display_name": "Saurabh Kumar", "bio": null, "projects_count": 0, "devlogs_count": 0, "votes_count": 0, "ships_count": 0, "projects": [], "coding_time_seconds": 0, "coding_time_seconds_today": 0, "balance": "You need to have a pocket watcher badge to view this.", "badges": [], "created_at": "2025-06-18T09:56:58.963-04:00", "updated_at": "2025-07-03T19:48:23.959-04:00", "avatar": "https://secure.gravatar.com/avatar/01c0977a6bf69827994b4e11b39a53c2.jpg?s=512&d=https%3A%2F%2Fa.slack-edge.com%2Fdf10d%2Fimg%2Favatars%2Fava_0020-512.png", "custom_css": null}, {"id": 8542, "slack_id": "U07E8S7BJ76", "display_name": "Harsh", "bio": null, "projects_count": 0, "devlogs_count": 0, "votes_count": 0, "ships_count": 0, "projects": [], "coding_time_seconds": 0, "coding_time_seconds_today": 0, "balance": "You need to have a pocket watcher badge to view this.", "badges": [], "created_at": "2025-06-18T09:58:06.785-04:00", "updated_at": "2025-07-03T19:48:24.221-04:00", "avatar": "https://avatars.slack-edge.com/2024-07-26/7475793062022_0cee8698e6c493853a51_original.jpg", "custom_css": null}, {"id": 8543, "slack_id": "U091UGLSD8B", "display_name": "Sushen Nandalike", "bio": null, "projects_count": 0, "devlogs_count": 0, "votes_count": 0, "ships_count": 0, "projects": [], "coding_time_seconds": 0, "coding_time_seconds_today": 0, "balance": "You need to have a pocket watcher badge to view this.", "badges": [], "created_at": "2025-06-18T09:58:45.023-04:00", "updated_at": "2025-07-03T21:58:40.279-04:00", "avatar": "https://secure.gravatar.com/avatar/3c7d19522391934d7ab486541602bdea.jpg?s=512&d=https%3A%2F%2Fa.slack-edge.com%2Fdf10d%2Fimg%2Favatars%2Fava_0019-512.png", "custom_css": null}, {"id": 8544, "slack_id": "U091UGR9AM9", "display_name": "Filip", "bio": null, "projects_count": 0, "devlogs_count": 0, "votes_count": 0, "ships_count": 0, "projects": [], "coding_time_seconds": 3550, "coding_time_seconds_today": 0, "balance": "You need to have a pocket watcher badge to view this.", "badges": [], "created_at": "2025-06-18T09:58:56.061-04:00", "updated_at": "2025-08-14T09:24:30.490-04:00", "avatar": "https://secure.gravatar.com/avatar/1485ee414065ea999462ff166f789e88.jpg?s=512&d=https%3A%2F%2Fa.slack-edge.com%2Fdf10d%2Fimg%2Favatars%2Fava_0013-512.png", "custom_css": null}, {"id": 8545, "slack_id": "U092DKLG5KK", "display_name": "Arnav Shetty", "bio": null, "projects_count": 0, "devlogs_count": 0, "votes_count": 0, "ships_count": 0, "projects": [], "coding_time_seconds": 337, "coding_time_seconds_today": 0, "balance": "You need to have a pocket watcher badge to view this.", "badges": [], "created_at": "2025-06-18T09:59:15.423-04:00", "updated_at": "2025-07-03T19:48:24.893-04:00", "avatar": "https://avatars.slack-edge.com/2025-06-18/9068952313218_bc071f2d0410b5aa7f99_original.png", "custom_css": null}, {"id": 8546, "slack_id": "U092PF63A7J", "display_name": "Nadir Hussain", "bio": null, "projects_count": 0, "devlogs_count": 0, "votes_count": 0, "ships_count": 0, "projects": [], "coding_time_seconds": 0, "coding_time_seconds_today": 0, "balance": "You need to have a pocket watcher badge to view this.", "badges": [], "created_at": "2025-06-18T09:59:40.223-04:00", "updated_at": "2025-07-03T19:48:25.153-04:00", "avatar": "https://secure.gravatar.com/avatar/9540dfd182d0c0607ca06302494315a8.jpg?s=512&d=https%3A%2F%2Fa.slack-edge.com%2Fdf10d%2Fimg%2Favatars%2Fava_0017-512.png", "custom_css": null}, {"id": 8547, "slack_id": "U091ZK9GW5T", "display_name": "Mehmet", "bio": null, "projects_count": 0, "devlogs_count": 0, "votes_count": 0, "ships_count": 0, "projects": [], "coding_time_seconds": 0, "coding_time_seconds_today": 0, "balance": "You need to have a pocket watcher badge to view this.", "badges": [], "created_at": "2025-06-18T10:00:43.989-04:00", "updated_at": "2025-07-05T08:09:53.858-04:00", "avatar": "https://secure.gravatar.com/avatar/5c30d2db7a61ec2f4cf75eacb0e57d9a.jpg?s=512&d=https%3A%2F%2Fa.slack-edge.com%2Fdf10d%2Fimg%2Favatars%2Fava_0015-512.png", "custom_css": null}, {"id": 8548, "slack_id": "U0921DBNWBE", "display_name": "Michalix", "bio": null, "projects_count": 0, "devlogs_count": 0, "votes_count": 0, "ships_count": 0, "projects": [], "coding_time_seconds": 0, "coding_time_seconds_today": 0, "balance": "You need to have a pocket watcher badge to view this.", "badges": [], "created_at": "2025-06-18T10:01:23.676-04:00", "updated_at": "2025-07-03T19:48:25.597-04:00", "avatar": "https://secure.gravatar.com/avatar/7e4bf8d2bb877ab9ba717572b7e702b4.jpg?s=512&d=https%3A%2F%2Fa.slack-edge.com%2Fdf10d%2Fimg%2Favatars%2Fava_0005-512.png", "custom_css": null}, {"id": 8549, "slack_id": "U091WTB7W4S", "display_name": "Tudor", "bio": null, "projects_count": 0, "devlogs_count": 0, "votes_count": 0, "ships_count": 0, "projects": [], "coding_time_seconds": 0, "coding_time_seconds_today": 0, "balance": "You need to have a pocket watcher badge to view this.", "badges": [], "created_at": "2025-06-18T10:04:29.735-04:00", "updated_at": "2025-07-03T19:48:25.868-04:00", "avatar": "https://secure.gravatar.com/avatar/cf64435fef1d9a8c0b5f629ccd24f772.jpg?s=512&d=https%3A%2F%2Fa.slack-edge.com%2Fdf10d%2Fimg%2Favatars%2Fava_0025-512.png", "custom_css": null}, {"id": 8550, "slack_id": "U091ZLP5ZHB", "display_name": "Hoshiko", "bio": null, "projects_count": 4, "devlogs_count": 12, "votes_count": 32, "ships_count": 3, "projects": [{"id": 6986, "title": "Windows XP Meida Player", "devlogs_count": 1, "created_at": "2025-07-18T00:42:55.014-04:00"}, {"id": 2043, "title": "Celestialite", "devlogs_count": 6, "created_at": "2025-06-20T01:22:15.352-04:00"}, {"id": 8017, "title": "3D Music Visualizer ", "devlogs_count": 1, "created_at": "2025-07-24T03:51:45.678-04:00"}, {"id": 10344, "title": "IdeaZine", "devlogs_count": 4, "created_at": "2025-08-06T05:17:10.525-04:00"}], "coding_time_seconds": 80938, "coding_time_seconds_today": 0, "balance": "You need to have a pocket watcher badge to view this.", "badges": [{"name": "Maiden Voyage", "text": "you shipped your first project! the journey begins...", "icon": "\ud83d\udea2"}], "created_at": "2025-06-18T10:05:30.885-04:00", "updated_at": "2025-09-10T22:55:23.709-04:00", "avatar": "https://avatars.slack-edge.com/2025-06-18/9069518899492_c85d398b2ee1325d9560_original.jpg", "custom_css": null}, {"id": 8551, "slack_id": "U091L36MR0F", "display_name": "Alexis", "bio": null, "projects_count": 0, "devlogs_count": 0, "votes_count": 0, "ships_count": 0, "projects": [], "coding_time_seconds": 0, "coding_time_seconds_today": 0, "balance": "You need to have a pocket watcher badge to view this.", "badges": [], "created_at": "2025-06-18T10:05:53.630-04:00", "updated_at": "2025-07-07T14:43:09.693-04:00", "avatar": "https://secure.gravatar.com/avatar/185766c2e6bf68bc8a44778e90418c6d.jpg?s=512&d=https%3A%2F%2Fa.slack-edge.com%2Fdf10d%2Fimg%2Favatars%2Fava_0025-512.png", "custom_css": null}, {"id": 8552, "slack_id": "U091UJQ0YJF", "display_name": "Mahid", "bio": null, "projects_count": 0, "devlogs_count": 0, "votes_count": 0, "ships_count": 0, "projects": [], "coding_time_seconds": 0, "coding_time_seconds_today": 0, "balance": "You need to have a pocket watcher badge to view this.", "badges": [], "created_at": "2025-06-18T10:05:54.713-04:00", "updated_at": "2025-07-03T19:48:26.544-04:00", "avatar": "https://secure.gravatar.com/avatar/07ae78ec143c7e5d4407e792ea48b7f4.jpg?s=512&d=https%3A%2F%2Fa.slack-edge.com%2Fdf10d%2Fimg%2Favatars%2Fava_0011-512.png", "custom_css": null}, {"id": 8553, "slack_id": "U091UJE9F4K", "display_name": "Ibrohim Abdivokhidov", "bio": null, "projects_count": 0, "devlogs_count": 0, "votes_count": 0, "ships_count": 0, "projects": [], "coding_time_seconds": 318647, "coding_time_seconds_today": 0, "balance": "You need to have a pocket watcher badge to view this.", "badges": [], "created_at": "2025-06-18T10:06:26.396-04:00", "updated_at": "2025-07-03T19:48:26.813-04:00", "avatar": "https://secure.gravatar.com/avatar/3a1292ff8d9c9274adc1595c31d21908.jpg?s=512&d=https%3A%2F%2Fa.slack-edge.com%2Fdf10d%2Fimg%2Favatars%2Fava_0017-512.png", "custom_css": null}, {"id": 8554, "slack_id": "U091MKMFCP8", "display_name": "Jot", "bio": null, "projects_count": 1, "devlogs_count": 0, "votes_count": 0, "ships_count": 0, "projects": [{"id": 12873, "title": "CITY PULSE", "devlogs_count": 0, "created_at": "2025-09-04T06:31:47.671-04:00"}], "coding_time_seconds": 980, "coding_time_seconds_today": 0, "balance": "You need to have a pocket watcher badge to view this.", "badges": [], "created_at": "2025-06-18T10:06:37.093-04:00", "updated_at": "2025-09-04T06:32:45.341-04:00", "avatar": "https://secure.gravatar.com/avatar/ee772c1912278d92c05d809c8bfee23f.jpg?s=512&d=https%3A%2F%2Fa.slack-edge.com%2Fdf10d%2Fimg%2Favatars%2Fava_0016-512.png", "custom_css": null}, {"id": 8555, "slack_id": "U092PGV4L0G", "display_name": "Quang Sang Truong", "bio": null, "projects_count": 0, "devlogs_count": 0, "votes_count": 0, "ships_count": 0, "projects": [], "coding_time_seconds": 0, "coding_time_seconds_today": 0, "balance": "You need to have a pocket watcher badge to view this.", "badges": [], "created_at": "2025-06-18T10:07:34.693-04:00", "updated_at": "2025-07-03T19:48:27.226-04:00", "avatar": "https://avatars.slack-edge.com/2025-06-18/9054140483799_d2dd58f88eb6e6914eb3_original.png", "custom_css": null}, {"id": 8556, "slack_id": "U0920V7P82E", "display_name": "dikansha bindal", "bio": null, "projects_count": 0, "devlogs_count": 0, "votes_count": 0, "ships_count": 0, "projects": [], "coding_time_seconds": 0, "coding_time_seconds_today": 0, "balance": "You need to have a pocket watcher badge to view this.", "badges": [], "created_at": "2025-06-18T10:07:54.736-04:00", "updated_at": "2025-07-03T19:48:27.495-04:00", "avatar": "https://avatars.slack-edge.com/2025-06-18/9067733588741_c8287a9196eb7080482b_original.png", "custom_css": null}, {"id": 8557, "slack_id": "U0921FB4E12", "display_name": "Ivan", "bio": null, "projects_count": 0, "devlogs_count": 0, "votes_count": 0, "ships_count": 0, "projects": [], "coding_time_seconds": 0, "coding_time_seconds_today": 0, "balance": "You need to have a pocket watcher badge to view this.", "badges": [], "created_at": "2025-06-18T10:09:34.157-04:00", "updated_at": "2025-07-03T21:46:41.919-04:00", "avatar": "https://secure.gravatar.com/avatar/b1294abaa816400e14650f091fd3ae5f.jpg?s=512&d=https%3A%2F%2Fa.slack-edge.com%2Fdf10d%2Fimg%2Favatars%2Fava_0024-512.png", "custom_css": null}, {"id": 8558, "slack_id": "U092PHX9F6U", "display_name": "vegonza Ramos Tarifa", "bio": null, "projects_count": 0, "devlogs_count": 0, "votes_count": 0, "ships_count": 0, "projects": [], "coding_time_seconds": 0, "coding_time_seconds_today": 0, "balance": "You need to have a pocket watcher badge to view this.", "badges": [], "created_at": "2025-06-18T10:10:26.458-04:00", "updated_at": "2025-07-05T08:09:54.515-04:00", "avatar": "https://avatars.slack-edge.com/2025-06-18/9081771898433_78c2c9713a2ea692455c_original.jpg", "custom_css": null}, {"id": 8559, "slack_id": "U091QTLCZHU", "display_name": "python 3", "bio": null, "projects_count": 2, "devlogs_count": 11, "votes_count": 12, "ships_count": 1, "projects": [{"id": 8077, "title": "rgp.py the genaric rpg", "devlogs_count": 2, "created_at": "2025-07-24T12:27:58.319-04:00"}, {"id": 3575, "title": "pie.py", "devlogs_count": 9, "created_at": "2025-06-24T18:55:53.240-04:00"}], "coding_time_seconds": 120610, "coding_time_seconds_today": 0, "balance": "You need to have a pocket watcher badge to view this.", "badges": [{"name": "Maiden Voyage", "text": "you shipped your first project! the journey begins...", "icon": "\ud83d\udea2"}, {"name": "Yapper I", "text": "Posted 10 comments on devlogs.", "icon": "\ud83d\udcac"}], "created_at": "2025-06-18T10:10:51.811-04:00", "updated_at": "2025-09-21T18:43:00.156-04:00", "avatar": "https://avatars.slack-edge.com/2025-09-21/9555821139730_0b3ab53e30ddc04d0255_original.jpg", "custom_css": null}, {"id": 8560, "slack_id": "U091UKNP13M", "display_name": "Lutfur Rahman Tanvir", "bio": null, "projects_count": 1, "devlogs_count": 0, "votes_count": 1, "ships_count": 0, "projects": [{"id": 9429, "title": "Travel BD", "devlogs_count": 0, "created_at": "2025-08-01T06:42:15.994-04:00"}], "coding_time_seconds": 649, "coding_time_seconds_today": 0, "balance": "You need to have a pocket watcher badge to view this.", "badges": [], "created_at": "2025-06-18T10:10:57.764-04:00", "updated_at": "2025-08-01T10:05:52.864-04:00", "avatar": "https://secure.gravatar.com/avatar/9417abb5e96dd27d52fce761de96f204.jpg?s=512&d=https%3A%2F%2Fa.slack-edge.com%2Fdf10d%2Fimg%2Favatars%2Fava_0015-512.png", "custom_css": null}], "pagination": {"page": 428, "pages": 1192, "count": 23828, "items": 20}}