{"users": [{"id": 8561, "slack_id": "U092PJE27UG", "display_name": "Jovanney", "bio": null, "projects_count": 0, "devlogs_count": 0, "votes_count": 0, "ships_count": 0, "projects": [], "coding_time_seconds": 0, "coding_time_seconds_today": 0, "balance": "You need to have a pocket watcher badge to view this.", "badges": [], "created_at": "2025-06-18T10:12:57.924-04:00", "updated_at": "2025-07-03T21:58:41.552-04:00", "avatar": "https://secure.gravatar.com/avatar/7a2048ee47ad09ab65897008887ed259.jpg?s=512&d=https%3A%2F%2Fa.slack-edge.com%2Fdf10d%2Fimg%2Favatars%2Fava_0017-512.png", "custom_css": null}, {"id": 8562, "slack_id": "U091URR1YAJ", "display_name": "Dory", "bio": null, "projects_count": 6, "devlogs_count": 147, "votes_count": 160, "ships_count": 5, "projects": [{"id": 2888, "title": "Queer or Not", "devlogs_count": 16, "created_at": "2025-06-22T11:14:00.073-04:00"}, {"id": 12932, "title": "\"The Silly Silly Hilly Silly Hills\"", "devlogs_count": 5, "created_at": "2025-09-05T15:22:09.842-04:00"}, {"id": 7819, "title": "TransforMate", "devlogs_count": 56, "created_at": "2025-07-23T06:40:25.929-04:00"}, {"id": 13736, "title": "Matrinator V2", "devlogs_count": 3, "created_at": "2025-09-24T11:22:55.571-04:00"}, {"id": 11882, "title": "Election Simulator", "devlogs_count": 6, "created_at": "2025-08-20T16:53:42.240-04:00"}, {"id": 1730, "title": "Caesar Engine", "devlogs_count": 45, "created_at": "2025-06-19T05:43:36.632-04:00"}], "coding_time_seconds": 844657, "coding_time_seconds_today": 0, "balance": "You need to have a pocket watcher badge to view this.", "badges": [{"name": "Maiden Voyage", "text": "you shipped your first project! the journey begins...", "icon": "\ud83d\udea2"}, {"name": "Ballot Stuffer", "text": "vote 100 times.", "icon": "https://summer.hackclub.com/assets/i_voted-bf851b48.png"}], "created_at": "2025-06-18T10:13:00.568-04:00", "updated_at": "2025-09-10T22:55:23.955-04:00", "avatar": "https://secure.gravatar.com/avatar/c0cc440664fcf42104641877f80da1da.jpg?s=512&d=https%3A%2F%2Fa.slack-edge.com%2Fdf10d%2Fimg%2Favatars%2Fava_0019-512.png", "custom_css": null}, {"id": 8563, "slack_id": "U092DNCJD33", "display_name": "Divy Arora", "bio": null, "projects_count": 1, "devlogs_count": 3, "votes_count": 5, "ships_count": 1, "projects": [{"id": 5909, "title": "AI Chacha", "devlogs_count": 3, "created_at": "2025-07-09T04:01:25.159-04:00"}], "coding_time_seconds": 231408, "coding_time_seconds_today": 0, "balance": "You need to have a pocket watcher badge to view this.", "badges": [{"name": "Maiden Voyage", "text": "you shipped your first project! the journey begins...", "icon": "\ud83d\udea2"}], "created_at": "2025-06-18T10:14:57.325-04:00", "updated_at": "2025-09-10T22:55:23.975-04:00", "avatar": "https://secure.gravatar.com/avatar/a23c8425a91337c97dd5b1f79341d323.jpg?s=512&d=https%3A%2F%2Fa.slack-edge.com%2Fdf10d%2Fimg%2Favatars%2Fava_0001-512.png", "custom_css": null}, {"id": 8564, "slack_id": "U091ULDKA1Z", "display_name": "zishan", "bio": null, "projects_count": 0, "devlogs_count": 0, "votes_count": 0, "ships_count": 0, "projects": [], "coding_time_seconds": 0, "coding_time_seconds_today": 0, "balance": "You need to have a pocket watcher badge to view this.", "badges": [], "created_at": "2025-06-18T10:16:14.314-04:00", "updated_at": "2025-07-03T19:48:28.850-04:00", "avatar": "https://secure.gravatar.com/avatar/7638067d1ce427dd3b6010ff363c62f9.jpg?s=512&d=https%3A%2F%2Fa.slack-edge.com%2Fdf10d%2Fimg%2Favatars%2Fava_0021-512.png", "custom_css": null}, {"id": 8565, "slack_id": "U091ULV9403", "display_name": "Tushant", "bio": null, "projects_count": 0, "devlogs_count": 0, "votes_count": 0, "ships_count": 0, "projects": [], "coding_time_seconds": 0, "coding_time_seconds_today": 0, "balance": "You need to have a pocket watcher badge to view this.", "badges": [], "created_at": "2025-06-18T10:16:20.101-04:00", "updated_at": "2025-07-03T19:48:29.118-04:00", "avatar": "https://secure.gravatar.com/avatar/97c7ecb280a27052a8faf3aa6b290239.jpg?s=512&d=https%3A%2F%2Fa.slack-edge.com%2Fdf10d%2Fimg%2Favatars%2Fava_0016-512.png", "custom_css": null}, {"id": 8566, "slack_id": "U09211MDNUA", "display_name": "Emanuel", "bio": null, "projects_count": 0, "devlogs_count": 0, "votes_count": 0, "ships_count": 0, "projects": [], "coding_time_seconds": 0, "coding_time_seconds_today": 0, "balance": "You need to have a pocket watcher badge to view this.", "badges": [], "created_at": "2025-06-18T10:16:43.559-04:00", "updated_at": "2025-07-03T19:48:29.382-04:00", "avatar": "https://secure.gravatar.com/avatar/b5e7bbf652de03e9648fd025f1f35247.jpg?s=512&d=https%3A%2F%2Fa.slack-edge.com%2Fdf10d%2Fimg%2Favatars%2Fava_0022-512.png", "custom_css": null}, {"id": 8567, "slack_id": "U091EC4BBHA", "display_name": "Julia BarbosaSolorzano", "bio": null, "projects_count": 0, "devlogs_count": 0, "votes_count": 0, "ships_count": 0, "projects": [], "coding_time_seconds": 0, "coding_time_seconds_today": 0, "balance": "You need to have a pocket watcher badge to view this.", "badges": [], "created_at": "2025-06-18T10:16:44.474-04:00", "updated_at": "2025-07-05T14:10:45.106-04:00", "avatar": "https://avatars.slack-edge.com/2025-06-18/9069073061458_57219de43f00374956d0_original.jpg", "custom_css": null}, {"id": 8568, "slack_id": "U091ZNUF1EZ", "display_name": "Sanyam Gandhi", "bio": null, "projects_count": 2, "devlogs_count": 2, "votes_count": 1, "ships_count": 0, "projects": [{"id": 1786, "title": "ISAQC-Website", "devlogs_count": 0, "created_at": "2025-06-19T08:40:21.895-04:00"}, {"id": 1797, "title": "Carrot", "devlogs_count": 2, "created_at": "2025-06-19T09:08:24.160-04:00"}], "coding_time_seconds": 320588, "coding_time_seconds_today": 0, "balance": "You need to have a pocket watcher badge to view this.", "badges": [], "created_at": "2025-06-18T10:17:17.201-04:00", "updated_at": "2025-07-03T19:48:29.782-04:00", "avatar": "https://secure.gravatar.com/avatar/0ad2f5761430e66ad606a52e9ea048d0.jpg?s=512&d=https%3A%2F%2Fa.slack-edge.com%2Fdf10d%2Fimg%2Favatars%2Fava_0021-512.png", "custom_css": null}, {"id": 8569, "slack_id": "U091USR4E4W", "display_name": "Zay.", "bio": null, "projects_count": 0, "devlogs_count": 0, "votes_count": 0, "ships_count": 0, "projects": [], "coding_time_seconds": 8757, "coding_time_seconds_today": 0, "balance": "You need to have a pocket watcher badge to view this.", "badges": [], "created_at": "2025-06-18T10:18:16.146-04:00", "updated_at": "2025-07-03T19:48:30.061-04:00", "avatar": "https://secure.gravatar.com/avatar/ddd70333c7129645748fe478ace926e0.jpg?s=512&d=https%3A%2F%2Fa.slack-edge.com%2Fdf10d%2Fimg%2Favatars%2Fava_0019-512.png", "custom_css": null}, {"id": 8570, "slack_id": "U091L5DCGUF", "display_name": "Natpakan Tabudda (Ohm)", "bio": null, "projects_count": 2, "devlogs_count": 5, "votes_count": 0, "ships_count": 0, "projects": [{"id": 1608, "title": "Nexora", "devlogs_count": 0, "created_at": "2025-06-18T21:11:37.453-04:00"}, {"id": 2548, "title": "Japanese Homework", "devlogs_count": 5, "created_at": "2025-06-21T09:38:28.515-04:00"}], "coding_time_seconds": 139493, "coding_time_seconds_today": 0, "balance": "You need to have a pocket watcher badge to view this.", "badges": [], "created_at": "2025-06-18T10:18:18.619-04:00", "updated_at": "2025-07-03T21:46:43.014-04:00", "avatar": "https://avatars.slack-edge.com/2025-06-18/9054211448167_7b7545bf1556deaa052b_original.jpg", "custom_css": null}, {"id": 8571, "slack_id": "U092126784A", "display_name": "ijp", "bio": null, "projects_count": 0, "devlogs_count": 0, "votes_count": 0, "ships_count": 0, "projects": [], "coding_time_seconds": 0, "coding_time_seconds_today": 0, "balance": "You need to have a pocket watcher badge to view this.", "badges": [], "created_at": "2025-06-18T10:19:19.223-04:00", "updated_at": "2025-07-03T19:48:30.454-04:00", "avatar": "https://secure.gravatar.com/avatar/0118480b73a133e8feff3902e4722577.jpg?s=512&d=https%3A%2F%2Fa.slack-edge.com%2Fdf10d%2Fimg%2Favatars%2Fava_0014-512.png", "custom_css": null}, {"id": 8572, "slack_id": "U0921HCFFAQ", "display_name": "Abdullah Mohammed Helmy", "bio": null, "projects_count": 1, "devlogs_count": 2, "votes_count": 0, "ships_count": 0, "projects": [{"id": 1778, "title": "Task Manager", "devlogs_count": 2, "created_at": "2025-06-19T08:23:13.704-04:00"}], "coding_time_seconds": 17423, "coding_time_seconds_today": 0, "balance": "You need to have a pocket watcher badge to view this.", "badges": [], "created_at": "2025-06-18T10:20:15.689-04:00", "updated_at": "2025-07-03T19:48:30.719-04:00", "avatar": "https://secure.gravatar.com/avatar/2dda6fbd23845190b1ad76eb47a7bb55.jpg?s=512&d=https%3A%2F%2Fa.slack-edge.com%2Fdf10d%2Fimg%2Favatars%2Fava_0025-512.png", "custom_css": null}, {"id": 8573, "slack_id": "U092PK7CPUY", "display_name": "Linus", "bio": null, "projects_count": 0, "devlogs_count": 0, "votes_count": 0, "ships_count": 0, "projects": [], "coding_time_seconds": 0, "coding_time_seconds_today": 0, "balance": "You need to have a pocket watcher badge to view this.", "badges": [], "created_at": "2025-06-18T10:20:58.323-04:00", "updated_at": "2025-07-03T19:48:30.991-04:00", "avatar": "https://secure.gravatar.com/avatar/052d17efb898db5ecd91824777d407ad.jpg?s=512&d=https%3A%2F%2Fa.slack-edge.com%2Fdf10d%2Fimg%2Favatars%2Fava_0011-512.png", "custom_css": null}, {"id": 8574, "slack_id": "U091USX9PNJ", "display_name": "Gabriel Prisco", "bio": null, "projects_count": 0, "devlogs_count": 0, "votes_count": 0, "ships_count": 0, "projects": [], "coding_time_seconds": 40111, "coding_time_seconds_today": 0, "balance": "You need to have a pocket watcher badge to view this.", "badges": [], "created_at": "2025-06-18T10:21:20.420-04:00", "updated_at": "2025-07-03T19:48:31.267-04:00", "avatar": "https://secure.gravatar.com/avatar/81a09caf4b9368929179cc5d648b5739.jpg?s=512&d=https%3A%2F%2Fa.slack-edge.com%2Fdf10d%2Fimg%2Favatars%2Fava_0015-512.png", "custom_css": null}, {"id": 8575, "slack_id": "U0921HRGNE8", "display_name": "P.Vyshali", "bio": "Hi there,\r\nMy intrests are in web technologies, backend, UI/UX!\r\nand also designing 3d animations, videos & photos editing, calligraphy writing, sometimes learning music!\r\n", "projects_count": 2, "devlogs_count": 7, "votes_count": 48, "ships_count": 2, "projects": [{"id": 12921, "title": "Tick Tock& Code!", "devlogs_count": 5, "created_at": "2025-09-05T10:07:15.354-04:00"}, {"id": 3877, "title": "AI Resume Analyzer", "devlogs_count": 3, "created_at": "2025-06-26T05:01:22.226-04:00"}], "coding_time_seconds": 54769, "coding_time_seconds_today": 0, "balance": "You need to have a pocket watcher badge to view this.", "badges": [{"name": "Maiden Voyage", "text": "you shipped your first project! the journey begins...", "icon": "\ud83d\udea2"}], "created_at": "2025-06-18T10:21:22.610-04:00", "updated_at": "2025-09-10T22:55:24.233-04:00", "avatar": "https://avatars.slack-edge.com/2025-07-08/9186678170080_8ea44b0973c4e86d978c_original.jpg", "custom_css": null}, {"id": 8576, "slack_id": "U092H0GFV4G", "display_name": "Shivam Dwivedi", "bio": null, "projects_count": 0, "devlogs_count": 0, "votes_count": 0, "ships_count": 0, "projects": [], "coding_time_seconds": 0, "coding_time_seconds_today": 0, "balance": "You need to have a pocket watcher badge to view this.", "badges": [], "created_at": "2025-06-18T10:24:24.818-04:00", "updated_at": "2025-07-03T21:58:42.764-04:00", "avatar": "https://secure.gravatar.com/avatar/3402feaeaaeec7b0e8670027e2f02fe3.jpg?s=512&d=https%3A%2F%2Fa.slack-edge.com%2Fdf10d%2Fimg%2Favatars%2Fava_0016-512.png", "custom_css": null}, {"id": 8577, "slack_id": "U091ZQC3QJH", "display_name": "Adi", "bio": null, "projects_count": 0, "devlogs_count": 27, "votes_count": 55, "ships_count": 0, "projects": [], "coding_time_seconds": 728378, "coding_time_seconds_today": 0, "balance": "You need to have a pocket watcher badge to view this.", "badges": [{"name": "Maiden Voyage", "text": "you shipped your first project! the journey begins...", "icon": "\ud83d\udea2"}], "created_at": "2025-06-18T10:24:47.683-04:00", "updated_at": "2025-09-10T22:55:24.308-04:00", "avatar": "https://secure.gravatar.com/avatar/296a8d5be86dfe6dd761b70d08782bc1.jpg?s=512&d=https%3A%2F%2Fa.slack-edge.com%2Fdf10d%2Fimg%2Favatars%2Fava_0026-512.png", "custom_css": null}, {"id": 8578, "slack_id": "U091UMWL3MH", "display_name": "Muti Aaron", "bio": null, "projects_count": 0, "devlogs_count": 0, "votes_count": 0, "ships_count": 0, "projects": [], "coding_time_seconds": 0, "coding_time_seconds_today": 0, "balance": "You need to have a pocket watcher badge to view this.", "badges": [], "created_at": "2025-06-18T10:25:24.135-04:00", "updated_at": "2025-07-03T21:46:43.545-04:00", "avatar": "https://avatars.slack-edge.com/2025-06-18/9081866805457_430bc9d72213a258cf03_original.jpg", "custom_css": null}, {"id": 8579, "slack_id": "U091KTNG8NT", "display_name": "T\u1eb9\u0301kd\u00ec", "bio": null, "projects_count": 1, "devlogs_count": 3, "votes_count": 0, "ships_count": 0, "projects": [{"id": 3774, "title": "S\u00e0f\u00e0", "devlogs_count": 3, "created_at": "2025-06-25T17:21:23.851-04:00"}], "coding_time_seconds": 57682, "coding_time_seconds_today": 0, "balance": "You need to have a pocket watcher badge to view this.", "badges": [], "created_at": "2025-06-18T10:26:01.045-04:00", "updated_at": "2025-08-02T08:46:14.947-04:00", "avatar": "https://avatars.slack-edge.com/2025-06-19/9069384242902_3d006a67f63ac0ae474a_original.png", "custom_css": null}, {"id": 8580, "slack_id": "U091UNRSFM1", "display_name": "D\u00e1rio Bastos", "bio": null, "projects_count": 0, "devlogs_count": 0, "votes_count": 0, "ships_count": 0, "projects": [], "coding_time_seconds": 171289, "coding_time_seconds_today": 0, "balance": "You need to have a pocket watcher badge to view this.", "badges": [], "created_at": "2025-06-18T10:26:17.258-04:00", "updated_at": "2025-07-04T08:24:20.947-04:00", "avatar": "https://avatars.slack-edge.com/2025-06-18/9062978027446_609a3d40f76e2d451bf8_original.png", "custom_css": null}], "pagination": {"page": 429, "pages": 1192, "count": 23828, "items": 20}}