{"users": [{"id": 841, "slack_id": "U091FT2G5L3", "display_name": "TimHagel", "bio": null, "projects_count": 1, "devlogs_count": 1, "votes_count": 0, "ships_count": 0, "projects": [{"id": 364, "title": "Substronaut", "devlogs_count": 1, "created_at": "2025-06-16T19:18:15.020-04:00"}], "coding_time_seconds": 97087, "coding_time_seconds_today": 0, "balance": "You need to have a pocket watcher badge to view this.", "badges": [], "created_at": "2025-06-16T12:17:58.567-04:00", "updated_at": "2025-07-03T19:14:50.515-04:00", "avatar": "https://secure.gravatar.com/avatar/2adab4e1ab8d37c839b77c0d7dbf7e32.jpg?s=512&d=https%3A%2F%2Fa.slack-edge.com%2Fdf10d%2Fimg%2Favatars%2Fava_0017-512.png", "custom_css": null}, {"id": 842, "slack_id": "U091PAE5HD2", "display_name": "Antonio Mancini", "bio": null, "projects_count": 0, "devlogs_count": 0, "votes_count": 0, "ships_count": 0, "projects": [], "coding_time_seconds": 0, "coding_time_seconds_today": 0, "balance": "You need to have a pocket watcher badge to view this.", "badges": [], "created_at": "2025-06-16T12:18:00.602-04:00", "updated_at": "2025-07-03T19:14:50.779-04:00", "avatar": "https://avatars.slack-edge.com/2025-06-16/9057371583092_1eb6ce6daf113b0e0436_original.png", "custom_css": null}, {"id": 843, "slack_id": "U0921DY255F", "display_name": "Rahkel-Pekins", "bio": null, "projects_count": 0, "devlogs_count": 0, "votes_count": 0, "ships_count": 0, "projects": [], "coding_time_seconds": 0, "coding_time_seconds_today": 0, "balance": "You need to have a pocket watcher badge to view this.", "badges": [], "created_at": "2025-06-16T12:18:02.574-04:00", "updated_at": "2025-07-03T19:14:51.047-04:00", "avatar": "https://secure.gravatar.com/avatar/6d955ff942ff8aa775deb2cdaafbc93a.jpg?s=512&d=https%3A%2F%2Fa.slack-edge.com%2Fdf10d%2Fimg%2Favatars%2Fava_0015-512.png", "custom_css": null}, {"id": 844, "slack_id": "U091NS1CZK4", "display_name": "kaizen", "bio": null, "projects_count": 0, "devlogs_count": 0, "votes_count": 0, "ships_count": 0, "projects": [], "coding_time_seconds": 0, "coding_time_seconds_today": 0, "balance": "You need to have a pocket watcher badge to view this.", "badges": [], "created_at": "2025-06-16T12:18:04.598-04:00", "updated_at": "2025-07-03T19:14:51.312-04:00", "avatar": "https://secure.gravatar.com/avatar/395b3de1cc873c900fb314b6dc1ca98a.jpg?s=512&d=https%3A%2F%2Fa.slack-edge.com%2Fdf10d%2Fimg%2Favatars%2Fava_0011-512.png", "custom_css": null}, {"id": 845, "slack_id": "U091PKWAFTN", "display_name": "Yukti", "bio": null, "projects_count": 0, "devlogs_count": 0, "votes_count": 0, "ships_count": 0, "projects": [], "coding_time_seconds": 140970, "coding_time_seconds_today": 0, "balance": "You need to have a pocket watcher badge to view this.", "badges": [], "created_at": "2025-06-16T12:18:05.085-04:00", "updated_at": "2025-07-03T19:14:51.584-04:00", "avatar": "https://secure.gravatar.com/avatar/207d4f2414ce2d25294ee868cea09230.jpg?s=512&d=https%3A%2F%2Fa.slack-edge.com%2Fdf10d%2Fimg%2Favatars%2Fava_0026-512.png", "custom_css": null}, {"id": 846, "slack_id": "U091P7F6PSN", "display_name": "Tayyab Sami", "bio": null, "projects_count": 0, "devlogs_count": 0, "votes_count": 0, "ships_count": 0, "projects": [], "coding_time_seconds": 0, "coding_time_seconds_today": 0, "balance": "You need to have a pocket watcher badge to view this.", "badges": [], "created_at": "2025-06-16T12:18:06.127-04:00", "updated_at": "2025-07-03T19:14:51.851-04:00", "avatar": "https://avatars.slack-edge.com/2025-06-16/9050394315190_4bf4a9d3d8c7954fb5b6_original.png", "custom_css": null}, {"id": 847, "slack_id": "U091G0T87V4", "display_name": "Celestial", "bio": "https://www.hikabra.tech/", "projects_count": 2, "devlogs_count": 17, "votes_count": 20, "ships_count": 1, "projects": [{"id": 10678, "title": "AnemoScan", "devlogs_count": 6, "created_at": "2025-08-09T14:28:10.822-04:00"}, {"id": 11800, "title": "PopX", "devlogs_count": 1, "created_at": "2025-08-19T16:18:13.996-04:00"}], "coding_time_seconds": 389629, "coding_time_seconds_today": 1349, "balance": "You need to have a pocket watcher badge to view this.", "badges": [{"name": "Maiden Voyage", "text": "you shipped your first project! the journey begins...", "icon": "\ud83d\udea2"}], "created_at": "2025-06-16T12:18:06.683-04:00", "updated_at": "2025-09-10T22:51:34.131-04:00", "avatar": "https://avatars.slack-edge.com/2025-06-25/9096948222806_6e498ff09cd91d414826_original.jpg", "custom_css": null}, {"id": 848, "slack_id": "U091PAM7N8L", "display_name": "Febin Sebastian", "bio": null, "projects_count": 0, "devlogs_count": 0, "votes_count": 0, "ships_count": 0, "projects": [], "coding_time_seconds": 0, "coding_time_seconds_today": 0, "balance": "You need to have a pocket watcher badge to view this.", "badges": [], "created_at": "2025-06-16T12:18:09.565-04:00", "updated_at": "2025-07-03T19:14:52.400-04:00", "avatar": "https://secure.gravatar.com/avatar/faaf44a6893de054fc7a97e49cdee86e.jpg?s=512&d=https%3A%2F%2Fa.slack-edge.com%2Fdf10d%2Fimg%2Favatars%2Fava_0012-512.png", "custom_css": null}, {"id": 849, "slack_id": "U091FTY1YQ3", "display_name": "Supreeth C", "bio": null, "projects_count": 0, "devlogs_count": 0, "votes_count": 0, "ships_count": 0, "projects": [], "coding_time_seconds": 0, "coding_time_seconds_today": 0, "balance": "You need to have a pocket watcher badge to view this.", "badges": [], "created_at": "2025-06-16T12:18:13.764-04:00", "updated_at": "2025-07-03T19:14:52.749-04:00", "avatar": "https://avatars.slack-edge.com/2025-06-16/9055178675413_324a81cfc6442d695db9_original.jpg", "custom_css": null}, {"id": 850, "slack_id": "U091M2VPL3F", "display_name": "sauron", "bio": null, "projects_count": 0, "devlogs_count": 0, "votes_count": 0, "ships_count": 0, "projects": [], "coding_time_seconds": 0, "coding_time_seconds_today": 0, "balance": "You need to have a pocket watcher badge to view this.", "badges": [], "created_at": "2025-06-16T12:18:16.121-04:00", "updated_at": "2025-07-03T19:14:53.027-04:00", "avatar": "https://secure.gravatar.com/avatar/28f1c8b41323ed77bd74700f25db0dbd.jpg?s=512&d=https%3A%2F%2Fa.slack-edge.com%2Fdf10d%2Fimg%2Favatars%2Fava_0001-512.png", "custom_css": null}, {"id": 851, "slack_id": "U091P9C581J", "display_name": "Ilya De Groeve", "bio": null, "projects_count": 0, "devlogs_count": 0, "votes_count": 0, "ships_count": 0, "projects": [], "coding_time_seconds": 0, "coding_time_seconds_today": 0, "balance": "You need to have a pocket watcher badge to view this.", "badges": [], "created_at": "2025-06-16T12:18:18.216-04:00", "updated_at": "2025-07-03T19:14:53.298-04:00", "avatar": "https://avatars.slack-edge.com/2025-06-16/9049974367875_9638db7eff3fcd7dbc88_original.png", "custom_css": null}, {"id": 852, "slack_id": "U07B8BB7JQ7", "display_name": "Darsh Jindal", "bio": null, "projects_count": 1, "devlogs_count": 5, "votes_count": 24, "ships_count": 1, "projects": [{"id": 3918, "title": "DeepPly", "devlogs_count": 5, "created_at": "2025-06-26T10:18:14.792-04:00"}], "coding_time_seconds": 232593, "coding_time_seconds_today": 0, "balance": "You need to have a pocket watcher badge to view this.", "badges": [{"name": "Maiden Voyage", "text": "you shipped your first project! the journey begins...", "icon": "\ud83d\udea2"}], "created_at": "2025-06-16T12:18:19.593-04:00", "updated_at": "2025-09-10T22:51:34.292-04:00", "avatar": "https://secure.gravatar.com/avatar/cdbc613c1b50eddd177f0c9b063d9999.jpg?s=512&d=https%3A%2F%2Fa.slack-edge.com%2Fdf10d%2Fimg%2Favatars%2Fava_0026-512.png", "custom_css": null}, {"id": 853, "slack_id": "U091GB56Z8W", "display_name": "Bhavesh Saad", "bio": null, "projects_count": 1, "devlogs_count": 3, "votes_count": 0, "ships_count": 0, "projects": [{"id": 838, "title": "NN Visualizer", "devlogs_count": 3, "created_at": "2025-06-17T09:34:34.639-04:00"}], "coding_time_seconds": 40120, "coding_time_seconds_today": 0, "balance": "You need to have a pocket watcher badge to view this.", "badges": [], "created_at": "2025-06-16T12:18:19.657-04:00", "updated_at": "2025-07-03T19:14:53.847-04:00", "avatar": "https://avatars.slack-edge.com/2025-06-16/9050599972739_29caaafa5ecf8c19c5c5_original.jpg", "custom_css": null}, {"id": 854, "slack_id": "U091P78JYM8", "display_name": "Abhishek Rakesh Bharti", "bio": null, "projects_count": 0, "devlogs_count": 0, "votes_count": 0, "ships_count": 0, "projects": [], "coding_time_seconds": 354607, "coding_time_seconds_today": 0, "balance": "You need to have a pocket watcher badge to view this.", "badges": [], "created_at": "2025-06-16T12:18:27.710-04:00", "updated_at": "2025-07-03T19:14:54.131-04:00", "avatar": "https://secure.gravatar.com/avatar/03a9a20aa0f2a96c463eab6d04badde1.jpg?s=512&d=https%3A%2F%2Fa.slack-edge.com%2Fdf10d%2Fimg%2Favatars%2Fava_0016-512.png", "custom_css": null}, {"id": 855, "slack_id": "U092BMGE77A", "display_name": "Hamdi Ben Mansour", "bio": null, "projects_count": 0, "devlogs_count": 0, "votes_count": 0, "ships_count": 0, "projects": [], "coding_time_seconds": 0, "coding_time_seconds_today": 0, "balance": "You need to have a pocket watcher badge to view this.", "badges": [], "created_at": "2025-06-16T12:18:27.777-04:00", "updated_at": "2025-07-03T19:14:54.404-04:00", "avatar": "https://avatars.slack-edge.com/2025-06-16/9050399385846_fc485d9ba2720c81b7d5_original.jpg", "custom_css": null}, {"id": 856, "slack_id": "U091P7DKYHY", "display_name": "Martin Maroyan", "bio": null, "projects_count": 1, "devlogs_count": 0, "votes_count": 0, "ships_count": 0, "projects": [{"id": 1599, "title": "FloStats", "devlogs_count": 0, "created_at": "2025-06-18T20:47:14.443-04:00"}], "coding_time_seconds": 82162, "coding_time_seconds_today": 0, "balance": "You need to have a pocket watcher badge to view this.", "badges": [], "created_at": "2025-06-16T12:18:28.277-04:00", "updated_at": "2025-07-03T19:14:54.674-04:00", "avatar": "https://secure.gravatar.com/avatar/570f2a3ce7fc83f5b694b86d49485d40.jpg?s=512&d=https%3A%2F%2Fa.slack-edge.com%2Fdf10d%2Fimg%2Favatars%2Fava_0019-512.png", "custom_css": null}, {"id": 857, "slack_id": "U091G2T9VL3", "display_name": "Vivek H S", "bio": null, "projects_count": 0, "devlogs_count": 0, "votes_count": 0, "ships_count": 0, "projects": [], "coding_time_seconds": 165, "coding_time_seconds_today": 0, "balance": "You need to have a pocket watcher badge to view this.", "badges": [], "created_at": "2025-06-16T12:18:45.335-04:00", "updated_at": "2025-07-03T19:14:54.949-04:00", "avatar": "https://avatars.slack-edge.com/2025-06-16/9050308191171_0e0002717cc8a30f91b2_original.jpg", "custom_css": null}, {"id": 858, "slack_id": "U091PKZQM5J", "display_name": "Y", "bio": null, "projects_count": 0, "devlogs_count": 0, "votes_count": 0, "ships_count": 0, "projects": [], "coding_time_seconds": 0, "coding_time_seconds_today": 0, "balance": "You need to have a pocket watcher badge to view this.", "badges": [], "created_at": "2025-06-16T12:18:45.906-04:00", "updated_at": "2025-07-03T19:14:55.217-04:00", "avatar": "https://avatars.slack-edge.com/2025-06-16/9041967943575_0fe9bd8ef546ba1127a6_original.png", "custom_css": null}, {"id": 859, "slack_id": "U0840LYSD1D", "display_name": "grace", "bio": null, "projects_count": 8, "devlogs_count": 8, "votes_count": 11, "ships_count": 7, "projects": [{"id": 5734, "title": "Cineverse", "devlogs_count": 1, "created_at": "2025-07-07T16:01:10.099-04:00"}, {"id": 12212, "title": "Tic-Tac-Toe", "devlogs_count": 1, "created_at": "2025-08-24T12:12:41.850-04:00"}, {"id": 6474, "title": "Igrace's Notes", "devlogs_count": 1, "created_at": "2025-07-13T16:49:12.887-04:00"}, {"id": 6093, "title": "Igrace's Password", "devlogs_count": 1, "created_at": "2025-07-10T13:56:28.612-04:00"}, {"id": 6025, "title": "igraceQuiz", "devlogs_count": 1, "created_at": "2025-07-10T03:22:38.178-04:00"}, {"id": 2756, "title": "Calculator", "devlogs_count": 1, "created_at": "2025-06-22T01:07:42.062-04:00"}, {"id": 7575, "title": "Age Calculator", "devlogs_count": 1, "created_at": "2025-07-22T07:03:00.309-04:00"}, {"id": 3765, "title": "Weather App", "devlogs_count": 1, "created_at": "2025-06-25T16:18:58.494-04:00"}], "coding_time_seconds": 904083, "coding_time_seconds_today": 0, "balance": "You need to have a pocket watcher badge to view this.", "badges": [{"name": "Maiden Voyage", "text": "you shipped your first project! the journey begins...", "icon": "\ud83d\udea2"}], "created_at": "2025-06-16T12:18:57.372-04:00", "updated_at": "2025-09-10T22:51:34.503-04:00", "avatar": "https://secure.gravatar.com/avatar/4ce5715f891fa73594ff8376cf21ece5.jpg?s=512&d=https%3A%2F%2Fa.slack-edge.com%2Fdf10d%2Fimg%2Favatars%2Fava_0026-512.png", "custom_css": null}, {"id": 860, "slack_id": "U0917TWKK1V", "display_name": "Whayn", "bio": null, "projects_count": 0, "devlogs_count": 0, "votes_count": 0, "ships_count": 0, "projects": [], "coding_time_seconds": 11010, "coding_time_seconds_today": 0, "balance": "You need to have a pocket watcher badge to view this.", "badges": [], "created_at": "2025-06-16T12:18:57.722-04:00", "updated_at": "2025-07-30T15:54:02.218-04:00", "avatar": "https://avatars.slack-edge.com/2025-07-29/9275122057908_972e587b84cc9c4ae611_original.jpg", "custom_css": null}], "pagination": {"page": 43, "pages": 1192, "count": 23827, "items": 20}}