{"users": [{"id": 8601, "slack_id": "U068CDNRUTH", "display_name": "Mohit", "bio": null, "projects_count": 0, "devlogs_count": 0, "votes_count": 0, "ships_count": 0, "projects": [], "coding_time_seconds": 1952, "coding_time_seconds_today": 0, "balance": "You need to have a pocket watcher badge to view this.", "badges": [], "created_at": "2025-06-18T10:41:29.199-04:00", "updated_at": "2025-07-03T19:48:36.793-04:00", "avatar": "https://avatars.slack-edge.com/2025-05-03/8836359814902_844acfff8b567cb3ca54_original.jpg", "custom_css": null}, {"id": 8602, "slack_id": "U092DUCTA2V", "display_name": "Jos\u00e9", "bio": null, "projects_count": 0, "devlogs_count": 0, "votes_count": 0, "ships_count": 0, "projects": [], "coding_time_seconds": 62, "coding_time_seconds_today": 0, "balance": "You need to have a pocket watcher badge to view this.", "badges": [], "created_at": "2025-06-18T10:43:31.965-04:00", "updated_at": "2025-07-03T21:46:45.161-04:00", "avatar": "https://secure.gravatar.com/avatar/1d6135807c1cbc8a74bd93ccdf6c17a4.jpg?s=512&d=https%3A%2F%2Fa.slack-edge.com%2Fdf10d%2Fimg%2Favatars%2Fava_0026-512.png", "custom_css": null}, {"id": 8603, "slack_id": "U0921N3DTC4", "display_name": "Ritik Singh", "bio": null, "projects_count": 0, "devlogs_count": 0, "votes_count": 0, "ships_count": 0, "projects": [], "coding_time_seconds": 0, "coding_time_seconds_today": 0, "balance": "You need to have a pocket watcher badge to view this.", "badges": [], "created_at": "2025-06-18T10:44:34.976-04:00", "updated_at": "2025-07-03T21:46:45.256-04:00", "avatar": "https://secure.gravatar.com/avatar/93cdeb7dbb9fb85636a838bb213ac2bb.jpg?s=512&d=https%3A%2F%2Fa.slack-edge.com%2Fdf10d%2Fimg%2Favatars%2Fava_0017-512.png", "custom_css": null}, {"id": 8604, "slack_id": "U091LB09CAK", "display_name": "Jersey", "bio": null, "projects_count": 0, "devlogs_count": 0, "votes_count": 0, "ships_count": 0, "projects": [], "coding_time_seconds": 0, "coding_time_seconds_today": 0, "balance": "You need to have a pocket watcher badge to view this.", "badges": [], "created_at": "2025-06-18T10:45:19.921-04:00", "updated_at": "2025-07-03T21:46:45.349-04:00", "avatar": "https://secure.gravatar.com/avatar/764b1c4baddb0f47d76f5d353da94656.jpg?s=512&d=https%3A%2F%2Fa.slack-edge.com%2Fdf10d%2Fimg%2Favatars%2Fava_0002-512.png", "custom_css": null}, {"id": 8605, "slack_id": "U09225CKNQZ", "display_name": "Harshit Kandpal", "bio": null, "projects_count": 2, "devlogs_count": 1, "votes_count": 4, "ships_count": 0, "projects": [{"id": 5116, "title": "Docucomms-Ledger", "devlogs_count": 1, "created_at": "2025-07-03T10:50:09.620-04:00"}, {"id": 12816, "title": "ChainChronicle \u2013 Blockchain Proof-of-Existence & Timestamping", "devlogs_count": 0, "created_at": "2025-09-03T06:58:33.118-04:00"}], "coding_time_seconds": 190475, "coding_time_seconds_today": 0, "balance": "You need to have a pocket watcher badge to view this.", "badges": [], "created_at": "2025-06-18T10:48:04.937-04:00", "updated_at": "2025-08-22T08:47:03.548-04:00", "avatar": "https://avatars.slack-edge.com/2025-06-18/9062941764051_070b848a5579224ab092_original.png", "custom_css": null}, {"id": 8606, "slack_id": "U092DVD31U1", "display_name": "Harshal Arora", "bio": null, "projects_count": 0, "devlogs_count": 0, "votes_count": 0, "ships_count": 0, "projects": [], "coding_time_seconds": 17762, "coding_time_seconds_today": 0, "balance": "You need to have a pocket watcher badge to view this.", "badges": [], "created_at": "2025-06-18T10:48:16.776-04:00", "updated_at": "2025-07-03T21:46:45.494-04:00", "avatar": "https://secure.gravatar.com/avatar/f425b46fdbe974c16e1a98f8b470bd07.jpg?s=512&d=https%3A%2F%2Fa.slack-edge.com%2Fdf10d%2Fimg%2Favatars%2Fava_0003-512.png", "custom_css": null}, {"id": 8607, "slack_id": "U0921NKSM6G", "display_name": "Sasankh Reddy", "bio": null, "projects_count": 0, "devlogs_count": 0, "votes_count": 0, "ships_count": 0, "projects": [], "coding_time_seconds": 0, "coding_time_seconds_today": 0, "balance": "You need to have a pocket watcher badge to view this.", "badges": [], "created_at": "2025-06-18T10:48:20.942-04:00", "updated_at": "2025-07-03T21:46:45.593-04:00", "avatar": "https://secure.gravatar.com/avatar/8019183ca7be135fbeca95c205a9c765.jpg?s=512&d=https%3A%2F%2Fa.slack-edge.com%2Fdf10d%2Fimg%2Favatars%2Fava_0018-512.png", "custom_css": null}, {"id": 8608, "slack_id": "U091ZV9783X", "display_name": "IHaveQuestions", "bio": null, "projects_count": 2, "devlogs_count": 7, "votes_count": 7, "ships_count": 1, "projects": [{"id": 1410, "title": "Song Lyrics Generator", "devlogs_count": 1, "created_at": "2025-06-18T14:08:38.440-04:00"}, {"id": 1559, "title": "Tabzer", "devlogs_count": 6, "created_at": "2025-06-18T18:34:36.368-04:00"}], "coding_time_seconds": 183331, "coding_time_seconds_today": 0, "balance": "You need to have a pocket watcher badge to view this.", "badges": [{"name": "Maiden Voyage", "text": "you shipped your first project! the journey begins...", "icon": "\ud83d\udea2"}], "created_at": "2025-06-18T10:49:59.367-04:00", "updated_at": "2025-09-10T22:55:25.220-04:00", "avatar": "https://secure.gravatar.com/avatar/c9c3301599ba3e06c3a4366c63298f0b.jpg?s=512&d=https%3A%2F%2Fa.slack-edge.com%2Fdf10d%2Fimg%2Favatars%2Fava_0001-512.png", "custom_css": null}, {"id": 8609, "slack_id": "U091ZU90UQ5", "display_name": "Srishti", "bio": null, "projects_count": 0, "devlogs_count": 0, "votes_count": 0, "ships_count": 0, "projects": [], "coding_time_seconds": 114875, "coding_time_seconds_today": 2135, "balance": "You need to have a pocket watcher badge to view this.", "badges": [], "created_at": "2025-06-18T10:50:51.114-04:00", "updated_at": "2025-07-03T19:48:38.206-04:00", "avatar": "https://secure.gravatar.com/avatar/450ad98c6b23feca8e85bd91d7b2a35b.jpg?s=512&d=https%3A%2F%2Fa.slack-edge.com%2Fdf10d%2Fimg%2Favatars%2Fava_0012-512.png", "custom_css": null}, {"id": 8610, "slack_id": "U092E0HD30R", "display_name": "creos", "bio": null, "projects_count": 0, "devlogs_count": 0, "votes_count": 0, "ships_count": 0, "projects": [], "coding_time_seconds": 116710, "coding_time_seconds_today": 0, "balance": "You need to have a pocket watcher badge to view this.", "badges": [], "created_at": "2025-06-18T10:51:51.929-04:00", "updated_at": "2025-07-03T19:48:38.464-04:00", "avatar": "https://secure.gravatar.com/avatar/818e377bb82b5bf9cbc3ec4ebf18aa5c.jpg?s=512&d=https%3A%2F%2Fa.slack-edge.com%2Fdf10d%2Fimg%2Favatars%2Fava_0011-512.png", "custom_css": null}, {"id": 8611, "slack_id": "U07ETNZGD4M", "display_name": "Alejandro Monroy", "bio": null, "projects_count": 0, "devlogs_count": 0, "votes_count": 0, "ships_count": 0, "projects": [], "coding_time_seconds": 0, "coding_time_seconds_today": 0, "balance": "You need to have a pocket watcher badge to view this.", "badges": [], "created_at": "2025-06-18T10:51:56.540-04:00", "updated_at": "2025-07-03T19:48:38.729-04:00", "avatar": "https://avatars.slack-edge.com/2024-08-03/7546133433984_803465030058a7e89205_original.png", "custom_css": null}, {"id": 8612, "slack_id": "U092E12PV0R", "display_name": "Shubhankar Dixit", "bio": null, "projects_count": 0, "devlogs_count": 0, "votes_count": 0, "ships_count": 0, "projects": [], "coding_time_seconds": 249575, "coding_time_seconds_today": 0, "balance": "You need to have a pocket watcher badge to view this.", "badges": [], "created_at": "2025-06-18T10:53:22.598-04:00", "updated_at": "2025-07-03T19:48:38.991-04:00", "avatar": "https://avatars.slack-edge.com/2025-06-18/9082052851089_9f2330e8c7377bdb913d_original.png", "custom_css": null}, {"id": 8613, "slack_id": "U081P6U1623", "display_name": "manzi pitiee", "bio": null, "projects_count": 0, "devlogs_count": 0, "votes_count": 0, "ships_count": 0, "projects": [], "coding_time_seconds": 123098, "coding_time_seconds_today": 0, "balance": "You need to have a pocket watcher badge to view this.", "badges": [], "created_at": "2025-06-18T10:53:39.868-04:00", "updated_at": "2025-08-01T14:18:36.557-04:00", "avatar": "https://avatars.slack-edge.com/2024-11-25/8067460341159_a58d13cd3c40ded8859d_original.png", "custom_css": null}, {"id": 8614, "slack_id": "U08GJDX90MU", "display_name": "finley", "bio": null, "projects_count": 0, "devlogs_count": 0, "votes_count": 0, "ships_count": 0, "projects": [], "coding_time_seconds": 0, "coding_time_seconds_today": 0, "balance": "You need to have a pocket watcher badge to view this.", "badges": [], "created_at": "2025-06-18T10:56:45.841-04:00", "updated_at": "2025-07-03T19:48:39.524-04:00", "avatar": "https://avatars.slack-edge.com/2025-04-15/8751310164374_206828d21c3a1c99eb9c_original.png", "custom_css": null}, {"id": 8615, "slack_id": "U092E19KA3T", "display_name": "liliana", "bio": null, "projects_count": 0, "devlogs_count": 0, "votes_count": 0, "ships_count": 0, "projects": [], "coding_time_seconds": 0, "coding_time_seconds_today": 0, "balance": "You need to have a pocket watcher badge to view this.", "badges": [], "created_at": "2025-06-18T10:57:23.540-04:00", "updated_at": "2025-07-03T19:48:39.790-04:00", "avatar": "https://secure.gravatar.com/avatar/b8152a9631bc7fc3e50d2c4967076856.jpg?s=512&d=https%3A%2F%2Fa.slack-edge.com%2Fdf10d%2Fimg%2Favatars%2Fava_0002-512.png", "custom_css": null}, {"id": 8616, "slack_id": "U091PDS9Q9L", "display_name": "Tushar Verma", "bio": null, "projects_count": 0, "devlogs_count": 0, "votes_count": 0, "ships_count": 0, "projects": [], "coding_time_seconds": 0, "coding_time_seconds_today": 0, "balance": "You need to have a pocket watcher badge to view this.", "badges": [], "created_at": "2025-06-18T10:57:56.726-04:00", "updated_at": "2025-07-03T19:48:40.051-04:00", "avatar": "https://secure.gravatar.com/avatar/b73e2a30e97e3df9dae7ee4e728c28a1.jpg?s=512&d=https%3A%2F%2Fa.slack-edge.com%2Fdf10d%2Fimg%2Favatars%2Fava_0008-512.png", "custom_css": null}, {"id": 8617, "slack_id": "U081HL71GN7", "display_name": "Trynocs", "bio": null, "projects_count": 0, "devlogs_count": 0, "votes_count": 0, "ships_count": 0, "projects": [], "coding_time_seconds": 0, "coding_time_seconds_today": 0, "balance": "You need to have a pocket watcher badge to view this.", "badges": [], "created_at": "2025-06-18T10:58:53.007-04:00", "updated_at": "2025-07-05T20:10:00.668-04:00", "avatar": "https://avatars.slack-edge.com/2024-11-19/8074594026368_d40cc2989dce64e33dcc_original.png", "custom_css": null}, {"id": 8618, "slack_id": "U09201J7WQ5", "display_name": "Sreejesh S", "bio": null, "projects_count": 0, "devlogs_count": 0, "votes_count": 0, "ships_count": 0, "projects": [], "coding_time_seconds": 180856, "coding_time_seconds_today": 0, "balance": "You need to have a pocket watcher badge to view this.", "badges": [], "created_at": "2025-06-18T10:58:56.226-04:00", "updated_at": "2025-07-05T14:10:49.018-04:00", "avatar": "https://avatars.slack-edge.com/2025-06-18/9068075049541_24f974ad49bf72165642_original.jpg", "custom_css": null}, {"id": 8619, "slack_id": "U091V4USVPG", "display_name": "Nguyen Duy", "bio": null, "projects_count": 0, "devlogs_count": 0, "votes_count": 0, "ships_count": 0, "projects": [], "coding_time_seconds": 0, "coding_time_seconds_today": 0, "balance": "You need to have a pocket watcher badge to view this.", "badges": [], "created_at": "2025-06-18T10:59:09.622-04:00", "updated_at": "2025-07-03T19:48:40.606-04:00", "avatar": "https://secure.gravatar.com/avatar/1f55459c11d79a206bf2078f026d37fe.jpg?s=512&d=https%3A%2F%2Fa.slack-edge.com%2Fdf10d%2Fimg%2Favatars%2Fava_0010-512.png", "custom_css": null}, {"id": 8620, "slack_id": "U03R60BSJ6S", "display_name": "vietanh", "bio": null, "projects_count": 1, "devlogs_count": 1, "votes_count": 1, "ships_count": 0, "projects": [{"id": 2944, "title": "sidepad", "devlogs_count": 1, "created_at": "2025-06-22T14:23:14.400-04:00"}], "coding_time_seconds": 4762, "coding_time_seconds_today": 0, "balance": "You need to have a pocket watcher badge to view this.", "badges": [], "created_at": "2025-06-18T11:00:18.946-04:00", "updated_at": "2025-08-11T12:08:54.862-04:00", "avatar": "https://avatars.slack-edge.com/2025-07-22/9247793608913_87832decd93d771baad6_original.png", "custom_css": null}], "pagination": {"page": 431, "pages": 1192, "count": 23828, "items": 20}}