{"users": [{"id": 8621, "slack_id": "U091UTU0W86", "display_name": "Stephan Geisser", "bio": null, "projects_count": 0, "devlogs_count": 0, "votes_count": 0, "ships_count": 0, "projects": [], "coding_time_seconds": 0, "coding_time_seconds_today": 0, "balance": "You need to have a pocket watcher badge to view this.", "badges": [], "created_at": "2025-06-18T11:00:31.491-04:00", "updated_at": "2025-07-03T19:48:41.178-04:00", "avatar": "https://avatars.slack-edge.com/2025-06-18/9069872242164_2f204a843bbba2d899a4_original.png", "custom_css": null}, {"id": 8622, "slack_id": "U091JRDA8G6", "display_name": "Surya Prakash Panda", "bio": null, "projects_count": 0, "devlogs_count": 0, "votes_count": 0, "ships_count": 0, "projects": [], "coding_time_seconds": 240, "coding_time_seconds_today": 0, "balance": "You need to have a pocket watcher badge to view this.", "badges": [], "created_at": "2025-06-18T11:00:55.888-04:00", "updated_at": "2025-09-14T10:16:49.496-04:00", "avatar": "https://secure.gravatar.com/avatar/8be6ef0d3221d454a9c02b92e6c8239f.jpg?s=512&d=https%3A%2F%2Fa.slack-edge.com%2Fdf10d%2Fimg%2Favatars%2Fava_0007-512.png", "custom_css": null}, {"id": 8623, "slack_id": "U0921A19N2W", "display_name": "Moustafa Ahmed", "bio": null, "projects_count": 0, "devlogs_count": 0, "votes_count": 0, "ships_count": 0, "projects": [], "coding_time_seconds": 0, "coding_time_seconds_today": 0, "balance": "You need to have a pocket watcher badge to view this.", "badges": [], "created_at": "2025-06-18T11:01:48.187-04:00", "updated_at": "2025-07-03T19:48:41.700-04:00", "avatar": "https://secure.gravatar.com/avatar/be7f953466e48c7301484d0e8052c122.jpg?s=512&d=https%3A%2F%2Fa.slack-edge.com%2Fdf10d%2Fimg%2Favatars%2Fava_0021-512.png", "custom_css": null}, {"id": 8624, "slack_id": "U0921BDV0P4", "display_name": "Cheung Chan", "bio": null, "projects_count": 2, "devlogs_count": 82, "votes_count": 83, "ships_count": 2, "projects": [{"id": 3813, "title": "Crypto mining simulator", "devlogs_count": 16, "created_at": "2025-06-25T21:23:22.301-04:00"}, {"id": 1522, "title": "stock simulator", "devlogs_count": 66, "created_at": "2025-06-18T17:17:37.672-04:00"}], "coding_time_seconds": 497532, "coding_time_seconds_today": 0, "balance": "You need to have a pocket watcher badge to view this.", "badges": [{"name": "Maiden Voyage", "text": "you shipped your first project! the journey begins...", "icon": "\ud83d\udea2"}, {"name": "Ballot Stuffer", "text": "vote 100 times.", "icon": "https://summer.hackclub.com/assets/i_voted-bf851b48.png"}], "created_at": "2025-06-18T11:06:05.635-04:00", "updated_at": "2025-09-10T22:55:25.988-04:00", "avatar": "https://avatars.slack-edge.com/2025-06-18/9054545053943_48ec88e5a5ac3e167d44_original.png", "custom_css": null}, {"id": 8625, "slack_id": "U0921S4PSQL", "display_name": "Recordarse", "bio": null, "projects_count": 0, "devlogs_count": 0, "votes_count": 0, "ships_count": 0, "projects": [], "coding_time_seconds": 0, "coding_time_seconds_today": 0, "balance": "You need to have a pocket watcher badge to view this.", "badges": [], "created_at": "2025-06-18T11:06:36.178-04:00", "updated_at": "2025-07-07T14:43:34.926-04:00", "avatar": "https://avatars.slack-edge.com/2025-06-18/9063116236243_130c4609889a18821748_original.jpg", "custom_css": null}, {"id": 8626, "slack_id": "U091V71Q2K0", "display_name": "Tosin", "bio": null, "projects_count": 0, "devlogs_count": 0, "votes_count": 0, "ships_count": 0, "projects": [], "coding_time_seconds": 239235, "coding_time_seconds_today": 0, "balance": "You need to have a pocket watcher badge to view this.", "badges": [], "created_at": "2025-06-18T11:06:57.051-04:00", "updated_at": "2025-07-03T19:48:42.377-04:00", "avatar": "https://secure.gravatar.com/avatar/5145346f4b0b3233ee62c3c87dc201c4.jpg?s=512&d=https%3A%2F%2Fa.slack-edge.com%2Fdf10d%2Fimg%2Favatars%2Fava_0006-512.png", "custom_css": null}, {"id": 8627, "slack_id": "U0921SS250C", "display_name": "Aurelio", "bio": null, "projects_count": 0, "devlogs_count": 0, "votes_count": 0, "ships_count": 0, "projects": [], "coding_time_seconds": 0, "coding_time_seconds_today": 0, "balance": "You need to have a pocket watcher badge to view this.", "badges": [], "created_at": "2025-06-18T11:08:38.302-04:00", "updated_at": "2025-07-03T21:46:46.930-04:00", "avatar": "https://secure.gravatar.com/avatar/65d1727fdb3f253cb0c0ee48eb17763c.jpg?s=512&d=https%3A%2F%2Fa.slack-edge.com%2Fdf10d%2Fimg%2Favatars%2Fava_0004-512.png", "custom_css": null}, {"id": 8628, "slack_id": "U091V7FHNKG", "display_name": "Pubudu Ishan Wickrama Arachchi", "bio": null, "projects_count": 0, "devlogs_count": 0, "votes_count": 0, "ships_count": 0, "projects": [], "coding_time_seconds": 0, "coding_time_seconds_today": 0, "balance": "You need to have a pocket watcher badge to view this.", "badges": [], "created_at": "2025-06-18T11:08:51.735-04:00", "updated_at": "2025-07-03T19:48:42.768-04:00", "avatar": "https://secure.gravatar.com/avatar/a2c74c239be8fd423bc4eb4bac6f0a57.jpg?s=512&d=https%3A%2F%2Fa.slack-edge.com%2Fdf10d%2Fimg%2Favatars%2Fava_0020-512.png", "custom_css": null}, {"id": 8629, "slack_id": "U091V29SV6X", "display_name": "Aditya Singh", "bio": null, "projects_count": 4, "devlogs_count": 7, "votes_count": 0, "ships_count": 0, "projects": [{"id": 1624, "title": "NextGen Biomaterials Lab", "devlogs_count": 4, "created_at": "2025-06-18T21:55:57.021-04:00"}, {"id": 1634, "title": "TravelAgencyPage", "devlogs_count": 1, "created_at": "2025-06-18T22:23:37.766-04:00"}, {"id": 1726, "title": "CatPhotoApp", "devlogs_count": 2, "created_at": "2025-06-19T05:29:46.801-04:00"}, {"id": 6989, "title": "Personal Portfolio", "devlogs_count": 0, "created_at": "2025-07-18T01:27:15.522-04:00"}], "coding_time_seconds": 74624, "coding_time_seconds_today": 0, "balance": "You need to have a pocket watcher badge to view this.", "badges": [], "created_at": "2025-06-18T11:09:53.296-04:00", "updated_at": "2025-07-03T19:48:43.030-04:00", "avatar": "https://secure.gravatar.com/avatar/6625ab04571ebbea2f6613d86ce86fb5.jpg?s=512&d=https%3A%2F%2Fa.slack-edge.com%2Fdf10d%2Fimg%2Favatars%2Fava_0014-512.png", "custom_css": null}, {"id": 8630, "slack_id": "U091WTUFLF6", "display_name": "Shakil", "bio": null, "projects_count": 0, "devlogs_count": 0, "votes_count": 0, "ships_count": 0, "projects": [], "coding_time_seconds": 0, "coding_time_seconds_today": 0, "balance": "You need to have a pocket watcher badge to view this.", "badges": [], "created_at": "2025-06-18T11:10:42.040-04:00", "updated_at": "2025-07-04T02:28:08.208-04:00", "avatar": "https://secure.gravatar.com/avatar/34203475b75fd31f7c31a0f24132a9cb.jpg?s=512&d=https%3A%2F%2Fa.slack-edge.com%2Fdf10d%2Fimg%2Favatars%2Fava_0020-512.png", "custom_css": null}, {"id": 8631, "slack_id": "U091TKA46UA", "display_name": "Yashraj Sharma", "bio": null, "projects_count": 0, "devlogs_count": 0, "votes_count": 0, "ships_count": 0, "projects": [], "coding_time_seconds": 0, "coding_time_seconds_today": 0, "balance": "You need to have a pocket watcher badge to view this.", "badges": [], "created_at": "2025-06-18T11:13:11.202-04:00", "updated_at": "2025-07-03T19:48:43.460-04:00", "avatar": "https://secure.gravatar.com/avatar/f69ec9cf59ec7db090354df98eebb54d.jpg?s=512&d=https%3A%2F%2Fa.slack-edge.com%2Fdf10d%2Fimg%2Favatars%2Fava_0024-512.png", "custom_css": null}, {"id": 8632, "slack_id": "U091V8EFMPY", "display_name": "Lenny", "bio": null, "projects_count": 0, "devlogs_count": 6, "votes_count": 60, "ships_count": 0, "projects": [], "coding_time_seconds": 288659, "coding_time_seconds_today": 0, "balance": "You need to have a pocket watcher badge to view this.", "badges": [], "created_at": "2025-06-18T11:13:54.715-04:00", "updated_at": "2025-08-26T18:12:58.921-04:00", "avatar": "https://secure.gravatar.com/avatar/f511b9299a5c52b285413b891fe880d4.jpg?s=512&d=https%3A%2F%2Fa.slack-edge.com%2Fdf10d%2Fimg%2Favatars%2Fava_0022-512.png", "custom_css": null}, {"id": 8633, "slack_id": "U091V39E0KV", "display_name": "Hiranmay", "bio": null, "projects_count": 0, "devlogs_count": 0, "votes_count": 0, "ships_count": 0, "projects": [], "coding_time_seconds": 0, "coding_time_seconds_today": 0, "balance": "You need to have a pocket watcher badge to view this.", "badges": [], "created_at": "2025-06-18T11:13:55.038-04:00", "updated_at": "2025-07-03T19:48:44.009-04:00", "avatar": "https://secure.gravatar.com/avatar/9a614323c8d26afaebcc571a0898aa57.jpg?s=512&d=https%3A%2F%2Fa.slack-edge.com%2Fdf10d%2Fimg%2Favatars%2Fava_0017-512.png", "custom_css": null}, {"id": 8634, "slack_id": "U091V08LQTV", "display_name": "sagar", "bio": null, "projects_count": 0, "devlogs_count": 0, "votes_count": 0, "ships_count": 0, "projects": [], "coding_time_seconds": 0, "coding_time_seconds_today": 0, "balance": "You need to have a pocket watcher badge to view this.", "badges": [], "created_at": "2025-06-18T11:16:36.431-04:00", "updated_at": "2025-07-07T14:43:35.637-04:00", "avatar": "https://secure.gravatar.com/avatar/07cb3417f3133a3b83e56d70457bb8da.jpg?s=512&d=https%3A%2F%2Fa.slack-edge.com%2Fdf10d%2Fimg%2Favatars%2Fava_0004-512.png", "custom_css": null}, {"id": 8635, "slack_id": "U0866C8JUG3", "display_name": "Auri", "bio": null, "projects_count": 0, "devlogs_count": 0, "votes_count": 0, "ships_count": 0, "projects": [], "coding_time_seconds": 56417, "coding_time_seconds_today": 0, "balance": "You need to have a pocket watcher badge to view this.", "badges": [], "created_at": "2025-06-18T11:17:12.696-04:00", "updated_at": "2025-07-03T19:48:44.450-04:00", "avatar": "https://avatars.slack-edge.com/2025-05-16/8931448820624_059c3f6f09fa247f0868_original.png", "custom_css": null}, {"id": 8636, "slack_id": "U091V2ECT46", "display_name": "Manraj Singh", "bio": null, "projects_count": 0, "devlogs_count": 0, "votes_count": 0, "ships_count": 0, "projects": [], "coding_time_seconds": 0, "coding_time_seconds_today": 0, "balance": "You need to have a pocket watcher badge to view this.", "badges": [], "created_at": "2025-06-18T11:17:23.003-04:00", "updated_at": "2025-07-04T02:28:08.647-04:00", "avatar": "https://secure.gravatar.com/avatar/45ddd03094a945f9ea73810ef77dc76a.jpg?s=512&d=https%3A%2F%2Fa.slack-edge.com%2Fdf10d%2Fimg%2Favatars%2Fava_0010-512.png", "custom_css": null}, {"id": 8637, "slack_id": "U09204X21RB", "display_name": "411", "bio": null, "projects_count": 0, "devlogs_count": 0, "votes_count": 0, "ships_count": 0, "projects": [], "coding_time_seconds": 0, "coding_time_seconds_today": 0, "balance": "You need to have a pocket watcher badge to view this.", "badges": [], "created_at": "2025-06-18T11:18:03.097-04:00", "updated_at": "2025-07-03T19:48:44.854-04:00", "avatar": "https://secure.gravatar.com/avatar/f03152aa1c22203f3e579ba4a35ca1ea.jpg?s=512&d=https%3A%2F%2Fa.slack-edge.com%2Fdf10d%2Fimg%2Favatars%2Fava_0012-512.png", "custom_css": null}, {"id": 8638, "slack_id": "U092Q1QTUQ0", "display_name": "Sakshi", "bio": null, "projects_count": 0, "devlogs_count": 0, "votes_count": 0, "ships_count": 0, "projects": [], "coding_time_seconds": 0, "coding_time_seconds_today": 0, "balance": "You need to have a pocket watcher badge to view this.", "badges": [], "created_at": "2025-06-18T11:18:10.952-04:00", "updated_at": "2025-07-03T19:48:45.132-04:00", "avatar": "https://secure.gravatar.com/avatar/6ae521e0aa3905de33b2843e9fefc528.jpg?s=512&d=https%3A%2F%2Fa.slack-edge.com%2Fdf10d%2Fimg%2Favatars%2Fava_0007-512.png", "custom_css": null}, {"id": 8639, "slack_id": "U091LJ84PGX", "display_name": "Arvin", "bio": null, "projects_count": 0, "devlogs_count": 0, "votes_count": 0, "ships_count": 0, "projects": [], "coding_time_seconds": 8176, "coding_time_seconds_today": 0, "balance": "You need to have a pocket watcher badge to view this.", "badges": [], "created_at": "2025-06-18T11:20:16.357-04:00", "updated_at": "2025-07-03T19:48:45.441-04:00", "avatar": "https://secure.gravatar.com/avatar/1b74ac8aba00ee8302d0c8336f14fd38.jpg?s=512&d=https%3A%2F%2Fa.slack-edge.com%2Fdf10d%2Fimg%2Favatars%2Fava_0005-512.png", "custom_css": null}, {"id": 8640, "slack_id": "U091V4JQM27", "display_name": "Sameul", "bio": null, "projects_count": 0, "devlogs_count": 0, "votes_count": 0, "ships_count": 0, "projects": [], "coding_time_seconds": 0, "coding_time_seconds_today": 0, "balance": "You need to have a pocket watcher badge to view this.", "badges": [], "created_at": "2025-06-18T11:21:04.349-04:00", "updated_at": "2025-07-03T19:48:45.726-04:00", "avatar": "https://secure.gravatar.com/avatar/38e077f245fd152d7be348be035d108e.jpg?s=512&d=https%3A%2F%2Fa.slack-edge.com%2Fdf10d%2Fimg%2Favatars%2Fava_0021-512.png", "custom_css": null}], "pagination": {"page": 432, "pages": 1192, "count": 23828, "items": 20}}