{"users": [{"id": 8641, "slack_id": "U091V9UM0TG", "display_name": "Jose", "bio": null, "projects_count": 0, "devlogs_count": 0, "votes_count": 0, "ships_count": 0, "projects": [], "coding_time_seconds": 23342, "coding_time_seconds_today": 0, "balance": "You need to have a pocket watcher badge to view this.", "badges": [], "created_at": "2025-06-18T11:21:34.096-04:00", "updated_at": "2025-07-04T08:24:24.835-04:00", "avatar": "https://secure.gravatar.com/avatar/c0c075833d5022e702f56f772def5c8c.jpg?s=512&d=https%3A%2F%2Fa.slack-edge.com%2Fdf10d%2Fimg%2Favatars%2Fava_0001-512.png", "custom_css": null}, {"id": 8642, "slack_id": "U0922032LUC", "display_name": "Niranjan S Prasanth", "bio": null, "projects_count": 0, "devlogs_count": 0, "votes_count": 0, "ships_count": 0, "projects": [], "coding_time_seconds": 643, "coding_time_seconds_today": 0, "balance": "You need to have a pocket watcher badge to view this.", "badges": [], "created_at": "2025-06-18T11:22:09.663-04:00", "updated_at": "2025-07-03T19:48:46.128-04:00", "avatar": "https://avatars.slack-edge.com/2025-06-18/9063356703558_b5c15f2410e24735acba_original.png", "custom_css": null}, {"id": 8643, "slack_id": "U092E6YKGV7", "display_name": "Edu Falcon", "bio": null, "projects_count": 0, "devlogs_count": 0, "votes_count": 0, "ships_count": 0, "projects": [], "coding_time_seconds": 0, "coding_time_seconds_today": 0, "balance": "You need to have a pocket watcher badge to view this.", "badges": [], "created_at": "2025-06-18T11:22:25.786-04:00", "updated_at": "2025-07-03T19:48:46.393-04:00", "avatar": "https://avatars.slack-edge.com/2025-06-18/9063358537478_d98996284e0214f08e6e_original.png", "custom_css": null}, {"id": 8644, "slack_id": "U091U0UQYTY", "display_name": "Zeina", "bio": null, "projects_count": 0, "devlogs_count": 0, "votes_count": 0, "ships_count": 0, "projects": [], "coding_time_seconds": 0, "coding_time_seconds_today": 0, "balance": "You need to have a pocket watcher badge to view this.", "badges": [], "created_at": "2025-06-18T11:22:26.198-04:00", "updated_at": "2025-07-03T19:48:46.661-04:00", "avatar": "https://secure.gravatar.com/avatar/27529450c42b0c9331e2b099226516c5.jpg?s=512&d=https%3A%2F%2Fa.slack-edge.com%2Fdf10d%2Fimg%2Favatars%2Fava_0016-512.png", "custom_css": null}, {"id": 8645, "slack_id": "U092Q23T2V6", "display_name": "AAYUSH neupane", "bio": "hi every one i am a secuirty researcher , and programmer", "projects_count": 2, "devlogs_count": 2, "votes_count": 1, "ships_count": 1, "projects": [{"id": 8871, "title": "Bug bounty hunting learning way", "devlogs_count": 2, "created_at": "2025-07-29T14:02:24.228-04:00"}, {"id": 8870, "title": "Bug bounty hunting learning way", "devlogs_count": 0, "created_at": "2025-07-29T14:02:24.165-04:00"}], "coding_time_seconds": 22316, "coding_time_seconds_today": 0, "balance": "You need to have a pocket watcher badge to view this.", "badges": [{"name": "Maiden Voyage", "text": "you shipped your first project! the journey begins...", "icon": "\ud83d\udea2"}], "created_at": "2025-06-18T11:22:35.590-04:00", "updated_at": "2025-09-10T22:55:26.686-04:00", "avatar": "https://secure.gravatar.com/avatar/44455b6d79ee18d37d848518ac430c60.jpg?s=512&d=https%3A%2F%2Fa.slack-edge.com%2Fdf10d%2Fimg%2Favatars%2Fava_0022-512.png", "custom_css": null}, {"id": 8646, "slack_id": "U0921EF30CS", "display_name": "Sergio Diaz", "bio": null, "projects_count": 0, "devlogs_count": 0, "votes_count": 0, "ships_count": 0, "projects": [], "coding_time_seconds": 0, "coding_time_seconds_today": 0, "balance": "You need to have a pocket watcher badge to view this.", "badges": [], "created_at": "2025-06-18T11:22:45.096-04:00", "updated_at": "2025-07-03T19:48:47.085-04:00", "avatar": "https://secure.gravatar.com/avatar/cd1c24ca3c59ea2ee55a94ed7fef7c4f.jpg?s=512&d=https%3A%2F%2Fa.slack-edge.com%2Fdf10d%2Fimg%2Favatars%2Fava_0023-512.png", "custom_css": null}, {"id": 8647, "slack_id": "U09206X3NFP", "display_name": "XY", "bio": null, "projects_count": 0, "devlogs_count": 0, "votes_count": 0, "ships_count": 0, "projects": [], "coding_time_seconds": 1458, "coding_time_seconds_today": 0, "balance": "You need to have a pocket watcher badge to view this.", "badges": [], "created_at": "2025-06-18T11:23:21.572-04:00", "updated_at": "2025-07-03T19:48:47.358-04:00", "avatar": "https://secure.gravatar.com/avatar/3ef76f10f6f5020f24355bf96f958e71.jpg?s=512&d=https%3A%2F%2Fa.slack-edge.com%2Fdf10d%2Fimg%2Favatars%2Fava_0009-512.png", "custom_css": null}, {"id": 8648, "slack_id": "U092DDB2G9F", "display_name": "Do do hee", "bio": null, "projects_count": 0, "devlogs_count": 0, "votes_count": 0, "ships_count": 0, "projects": [], "coding_time_seconds": 0, "coding_time_seconds_today": 0, "balance": "You need to have a pocket watcher badge to view this.", "badges": [], "created_at": "2025-06-18T11:24:09.362-04:00", "updated_at": "2025-07-03T19:48:47.632-04:00", "avatar": "https://secure.gravatar.com/avatar/3adc61cda1a8f4ad252ada16974cebc6.jpg?s=512&d=https%3A%2F%2Fa.slack-edge.com%2Fdf10d%2Fimg%2Favatars%2Fava_0000-512.png", "custom_css": null}, {"id": 8649, "slack_id": "U079V9Y7PMX", "display_name": "Fabian", "bio": null, "projects_count": 0, "devlogs_count": 0, "votes_count": 1, "ships_count": 0, "projects": [], "coding_time_seconds": 0, "coding_time_seconds_today": 0, "balance": "You need to have a pocket watcher badge to view this.", "badges": [], "created_at": "2025-06-18T11:24:52.440-04:00", "updated_at": "2025-09-02T13:30:08.971-04:00", "avatar": "https://avatars.slack-edge.com/2025-06-20/9080928952965_efca36bb3739d1f3218b_original.png", "custom_css": null}, {"id": 8650, "slack_id": "U091V9EB78W", "display_name": "Hariom", "bio": null, "projects_count": 0, "devlogs_count": 0, "votes_count": 0, "ships_count": 0, "projects": [], "coding_time_seconds": 28961, "coding_time_seconds_today": 0, "balance": "You need to have a pocket watcher badge to view this.", "badges": [], "created_at": "2025-06-18T11:25:11.775-04:00", "updated_at": "2025-08-19T14:09:30.788-04:00", "avatar": "https://secure.gravatar.com/avatar/5d15bc89dbf6e100ed9755c56296d409.jpg?s=512&d=https%3A%2F%2Fa.slack-edge.com%2Fdf10d%2Fimg%2Favatars%2Fava_0008-512.png", "custom_css": null}, {"id": 8651, "slack_id": "U091K93L9PZ", "display_name": "Kyle", "bio": null, "projects_count": 0, "devlogs_count": 0, "votes_count": 0, "ships_count": 0, "projects": [], "coding_time_seconds": 256, "coding_time_seconds_today": 0, "balance": "You need to have a pocket watcher badge to view this.", "badges": [], "created_at": "2025-06-18T11:25:36.378-04:00", "updated_at": "2025-07-03T19:48:48.417-04:00", "avatar": "https://secure.gravatar.com/avatar/05343e555845d537377122ea4fe65c16.jpg?s=512&d=https%3A%2F%2Fa.slack-edge.com%2Fdf10d%2Fimg%2Favatars%2Fava_0019-512.png", "custom_css": null}, {"id": 8652, "slack_id": "U092207DXM2", "display_name": "Gravfu", "bio": null, "projects_count": 0, "devlogs_count": 0, "votes_count": 0, "ships_count": 0, "projects": [], "coding_time_seconds": 0, "coding_time_seconds_today": 0, "balance": "You need to have a pocket watcher badge to view this.", "badges": [], "created_at": "2025-06-18T11:26:51.453-04:00", "updated_at": "2025-07-03T19:48:48.678-04:00", "avatar": "https://secure.gravatar.com/avatar/d07120c422ac4319886b6a005a78d7e2.jpg?s=512&d=https%3A%2F%2Fa.slack-edge.com%2Fdf10d%2Fimg%2Favatars%2Fava_0001-512.png", "custom_css": null}, {"id": 8653, "slack_id": "U092PS71ABA", "display_name": "humayan", "bio": null, "projects_count": 0, "devlogs_count": 0, "votes_count": 0, "ships_count": 0, "projects": [], "coding_time_seconds": 0, "coding_time_seconds_today": 0, "balance": "You need to have a pocket watcher badge to view this.", "badges": [], "created_at": "2025-06-18T11:27:19.576-04:00", "updated_at": "2025-07-03T21:58:47.889-04:00", "avatar": "https://secure.gravatar.com/avatar/224a4303373cbb366b710a72fcdaece4.jpg?s=512&d=https%3A%2F%2Fa.slack-edge.com%2Fdf10d%2Fimg%2Favatars%2Fava_0023-512.png", "custom_css": null}, {"id": 8654, "slack_id": "U08RE7RUD9C", "display_name": "aera", "bio": null, "projects_count": 0, "devlogs_count": 27, "votes_count": 125, "ships_count": 0, "projects": [], "coding_time_seconds": 135056, "coding_time_seconds_today": 0, "balance": "You need to have a pocket watcher badge to view this.", "badges": [{"name": "Maiden Voyage", "text": "you shipped your first project! the journey begins...", "icon": "\ud83d\udea2"}, {"name": "Ballot Stuffer", "text": "vote 100 times.", "icon": "https://summer.hackclub.com/assets/i_voted-bf851b48.png"}], "created_at": "2025-06-18T11:27:38.755-04:00", "updated_at": "2025-09-16T15:37:16.239-04:00", "avatar": "https://avatars.slack-edge.com/2025-07-29/9287437814273_5215408af71a49b307f2_original.png", "custom_css": null}, {"id": 8655, "slack_id": "U092E86HTA5", "display_name": "Tanmoy Mishra", "bio": null, "projects_count": 0, "devlogs_count": 0, "votes_count": 0, "ships_count": 0, "projects": [], "coding_time_seconds": 0, "coding_time_seconds_today": 0, "balance": "You need to have a pocket watcher badge to view this.", "badges": [], "created_at": "2025-06-18T11:27:55.496-04:00", "updated_at": "2025-07-03T19:48:49.215-04:00", "avatar": "https://secure.gravatar.com/avatar/e6a293bf4d97f8762403da7f5b12f1d5.jpg?s=512&d=https%3A%2F%2Fa.slack-edge.com%2Fdf10d%2Fimg%2Favatars%2Fava_0005-512.png", "custom_css": null}, {"id": 8656, "slack_id": "U092E86V7R7", "display_name": "Sanketh Kumar", "bio": null, "projects_count": 0, "devlogs_count": 0, "votes_count": 0, "ships_count": 0, "projects": [], "coding_time_seconds": 52552, "coding_time_seconds_today": 0, "balance": "You need to have a pocket watcher badge to view this.", "badges": [], "created_at": "2025-06-18T11:29:38.208-04:00", "updated_at": "2025-07-07T14:43:41.240-04:00", "avatar": "https://secure.gravatar.com/avatar/68d1c84709d19a0771b456dc08250e6d.jpg?s=512&d=https%3A%2F%2Fa.slack-edge.com%2Fdf10d%2Fimg%2Favatars%2Fava_0014-512.png", "custom_css": null}, {"id": 8657, "slack_id": "U091LKV3UT1", "display_name": "Aditya Balodi", "bio": null, "projects_count": 0, "devlogs_count": 0, "votes_count": 0, "ships_count": 0, "projects": [], "coding_time_seconds": 0, "coding_time_seconds_today": 0, "balance": "You need to have a pocket watcher badge to view this.", "badges": [], "created_at": "2025-06-18T11:30:08.156-04:00", "updated_at": "2025-07-03T19:48:49.625-04:00", "avatar": "https://secure.gravatar.com/avatar/85b984254947f21ed181554279f75f24.jpg?s=512&d=https%3A%2F%2Fa.slack-edge.com%2Fdf10d%2Fimg%2Favatars%2Fava_0023-512.png", "custom_css": null}, {"id": 8658, "slack_id": "U082510A4GK", "display_name": "Owen", "bio": null, "projects_count": 2, "devlogs_count": 1, "votes_count": 0, "ships_count": 0, "projects": [{"id": 1528, "title": "Drone Vision", "devlogs_count": 0, "created_at": "2025-06-18T17:24:08.510-04:00"}, {"id": 4101, "title": "AdventureMap", "devlogs_count": 1, "created_at": "2025-06-27T12:51:08.172-04:00"}], "coding_time_seconds": 92215, "coding_time_seconds_today": 0, "balance": "You need to have a pocket watcher badge to view this.", "badges": [], "created_at": "2025-06-18T11:30:36.252-04:00", "updated_at": "2025-07-03T19:48:49.892-04:00", "avatar": "https://avatars.slack-edge.com/2024-11-22/8073130243426_15695828ad8cc09fa9a4_original.jpg", "custom_css": null}, {"id": 8659, "slack_id": "U091V6R0LH1", "display_name": "Sthephany Viana", "bio": null, "projects_count": 0, "devlogs_count": 0, "votes_count": 0, "ships_count": 0, "projects": [], "coding_time_seconds": 24618, "coding_time_seconds_today": 0, "balance": "You need to have a pocket watcher badge to view this.", "badges": [], "created_at": "2025-06-18T11:30:38.646-04:00", "updated_at": "2025-07-03T21:58:48.333-04:00", "avatar": "https://secure.gravatar.com/avatar/997fd46f9ada9ce466f2432eaf9a6a93.jpg?s=512&d=https%3A%2F%2Fa.slack-edge.com%2Fdf10d%2Fimg%2Favatars%2Fava_0005-512.png", "custom_css": null}, {"id": 8660, "slack_id": "U091LLE2YQ7", "display_name": "Jonah", "bio": null, "projects_count": 1, "devlogs_count": 7, "votes_count": 1, "ships_count": 0, "projects": [{"id": 2231, "title": "Game Library", "devlogs_count": 7, "created_at": "2025-06-20T13:52:22.228-04:00"}], "coding_time_seconds": 155896, "coding_time_seconds_today": 0, "balance": "You need to have a pocket watcher badge to view this.", "badges": [], "created_at": "2025-06-18T11:30:51.962-04:00", "updated_at": "2025-07-03T19:48:50.291-04:00", "avatar": "https://avatars.slack-edge.com/2025-06-18/9063854503718_0abadb994fbbe10ffad3_original.jpg", "custom_css": null}], "pagination": {"page": 433, "pages": 1192, "count": 23828, "items": 20}}