{"users": [{"id": 8661, "slack_id": "U091VBR23K8", "display_name": "Pat", "bio": null, "projects_count": 0, "devlogs_count": 3, "votes_count": 9, "ships_count": 0, "projects": [], "coding_time_seconds": 135739, "coding_time_seconds_today": 0, "balance": "You need to have a pocket watcher badge to view this.", "badges": [], "created_at": "2025-06-18T11:31:37.084-04:00", "updated_at": "2025-07-09T16:58:31.448-04:00", "avatar": "https://secure.gravatar.com/avatar/337855d4b72626490410b29fcb6f9a62.jpg?s=512&d=https%3A%2F%2Fa.slack-edge.com%2Fdf10d%2Fimg%2Favatars%2Fava_0023-512.png", "custom_css": null}, {"id": 8662, "slack_id": "U091LK74RQX", "display_name": "Okan Akdemir", "bio": null, "projects_count": 0, "devlogs_count": 0, "votes_count": 0, "ships_count": 0, "projects": [], "coding_time_seconds": 40663, "coding_time_seconds_today": 0, "balance": "You need to have a pocket watcher badge to view this.", "badges": [], "created_at": "2025-06-18T11:32:22.585-04:00", "updated_at": "2025-07-03T19:48:50.700-04:00", "avatar": "https://secure.gravatar.com/avatar/030987824eb535f804ace29b07410364.jpg?s=512&d=https%3A%2F%2Fa.slack-edge.com%2Fdf10d%2Fimg%2Favatars%2Fava_0009-512.png", "custom_css": null}, {"id": 8663, "slack_id": "U0922291BJ8", "display_name": "Lady Miyacah Sakura Diesta", "bio": null, "projects_count": 0, "devlogs_count": 0, "votes_count": 0, "ships_count": 0, "projects": [], "coding_time_seconds": 111579, "coding_time_seconds_today": 0, "balance": "You need to have a pocket watcher badge to view this.", "badges": [], "created_at": "2025-06-18T11:33:43.028-04:00", "updated_at": "2025-07-03T19:48:50.958-04:00", "avatar": "https://secure.gravatar.com/avatar/f2cfd53644e03781d8218c9cdf0389f7.jpg?s=512&d=https%3A%2F%2Fa.slack-edge.com%2Fdf10d%2Fimg%2Favatars%2Fava_0017-512.png", "custom_css": null}, {"id": 8664, "slack_id": "U0921HAV84S", "display_name": "Stake 1", "bio": null, "projects_count": 0, "devlogs_count": 0, "votes_count": 0, "ships_count": 0, "projects": [], "coding_time_seconds": 0, "coding_time_seconds_today": 0, "balance": "You need to have a pocket watcher badge to view this.", "badges": [], "created_at": "2025-06-18T11:37:31.266-04:00", "updated_at": "2025-07-03T19:48:51.262-04:00", "avatar": "https://avatars.slack-edge.com/2025-06-18/9070119913844_7740085a1b22ea1805bd_original.png", "custom_css": null}, {"id": 8665, "slack_id": "U091LMH8MHD", "display_name": "AKHILESH YERRAM", "bio": null, "projects_count": 0, "devlogs_count": 0, "votes_count": 0, "ships_count": 0, "projects": [], "coding_time_seconds": 63, "coding_time_seconds_today": 0, "balance": "You need to have a pocket watcher badge to view this.", "badges": [], "created_at": "2025-06-18T11:37:49.245-04:00", "updated_at": "2025-09-21T04:29:03.954-04:00", "avatar": "https://secure.gravatar.com/avatar/dd96b57ce4eb7005eef9c7c1a30698cc.jpg?s=512&d=https%3A%2F%2Fa.slack-edge.com%2Fdf10d%2Fimg%2Favatars%2Fava_0020-512.png", "custom_css": null}, {"id": 8666, "slack_id": "U08QDN1J7B8", "display_name": "Asmita Adak", "bio": null, "projects_count": 1, "devlogs_count": 0, "votes_count": 1, "ships_count": 0, "projects": [{"id": 5385, "title": "Kairos ", "devlogs_count": 0, "created_at": "2025-07-05T01:06:20.836-04:00"}], "coding_time_seconds": 28938, "coding_time_seconds_today": 0, "balance": "You need to have a pocket watcher badge to view this.", "badges": [], "created_at": "2025-06-18T11:39:16.060-04:00", "updated_at": "2025-08-21T07:44:59.803-04:00", "avatar": "https://secure.gravatar.com/avatar/cc86fec1f9d29718a93058c1782b18d6.jpg?s=512&d=https%3A%2F%2Fa.slack-edge.com%2Fdf10d%2Fimg%2Favatars%2Fava_0002-512.png", "custom_css": null}, {"id": 8667, "slack_id": "U092Q64MFLY", "display_name": "Alok Kumar Raghuwanshi", "bio": null, "projects_count": 0, "devlogs_count": 0, "votes_count": 0, "ships_count": 0, "projects": [], "coding_time_seconds": 0, "coding_time_seconds_today": 0, "balance": "You need to have a pocket watcher badge to view this.", "badges": [], "created_at": "2025-06-18T11:40:40.118-04:00", "updated_at": "2025-07-04T08:24:26.496-04:00", "avatar": "https://secure.gravatar.com/avatar/de7212c5b16e6397e7417aec283a30b8.jpg?s=512&d=https%3A%2F%2Fa.slack-edge.com%2Fdf10d%2Fimg%2Favatars%2Fava_0010-512.png", "custom_css": null}, {"id": 8668, "slack_id": "U09222SB6QL", "display_name": "Tri Phuong Nguyen", "bio": null, "projects_count": 0, "devlogs_count": 0, "votes_count": 0, "ships_count": 0, "projects": [], "coding_time_seconds": 0, "coding_time_seconds_today": 0, "balance": "You need to have a pocket watcher badge to view this.", "badges": [], "created_at": "2025-06-18T11:41:55.779-04:00", "updated_at": "2025-07-03T19:48:52.069-04:00", "avatar": "https://secure.gravatar.com/avatar/1cd307a20c129a351dad0fde87728390.jpg?s=512&d=https%3A%2F%2Fa.slack-edge.com%2Fdf10d%2Fimg%2Favatars%2Fava_0001-512.png", "custom_css": null}, {"id": 8669, "slack_id": "U0920AK40J1", "display_name": "oussama boubakri", "bio": null, "projects_count": 0, "devlogs_count": 0, "votes_count": 0, "ships_count": 0, "projects": [], "coding_time_seconds": 0, "coding_time_seconds_today": 0, "balance": "You need to have a pocket watcher badge to view this.", "badges": [], "created_at": "2025-06-18T11:42:12.394-04:00", "updated_at": "2025-07-03T19:48:52.341-04:00", "avatar": "https://secure.gravatar.com/avatar/97ef7c9e11f9447d7fb84bbd24d1daec.jpg?s=512&d=https%3A%2F%2Fa.slack-edge.com%2Fdf10d%2Fimg%2Favatars%2Fava_0020-512.png", "custom_css": null}, {"id": 8670, "slack_id": "U091V7D8F5L", "display_name": "CoderMauro", "bio": null, "projects_count": 2, "devlogs_count": 5, "votes_count": 18, "ships_count": 1, "projects": [{"id": 1756, "title": "Smartschool MCP", "devlogs_count": 3, "created_at": "2025-06-19T07:17:47.812-04:00"}, {"id": 6256, "title": "SwimRankings Python Library", "devlogs_count": 2, "created_at": "2025-07-11T16:07:17.437-04:00"}], "coding_time_seconds": 69624, "coding_time_seconds_today": 0, "balance": "You need to have a pocket watcher badge to view this.", "badges": [{"name": "Maiden Voyage", "text": "you shipped your first project! the journey begins...", "icon": "\ud83d\udea2"}], "created_at": "2025-06-18T11:42:32.115-04:00", "updated_at": "2025-09-10T22:55:27.333-04:00", "avatar": "https://secure.gravatar.com/avatar/9ea4de5ee1596bde4815ad04c13c798f.jpg?s=512&d=https%3A%2F%2Fa.slack-edge.com%2Fdf10d%2Fimg%2Favatars%2Fava_0018-512.png", "custom_css": null}, {"id": 8671, "slack_id": "U082UBDCR1A", "display_name": "Shree Jesuriya", "bio": null, "projects_count": 0, "devlogs_count": 0, "votes_count": 0, "ships_count": 0, "projects": [], "coding_time_seconds": 0, "coding_time_seconds_today": 0, "balance": "You need to have a pocket watcher badge to view this.", "badges": [], "created_at": "2025-06-18T11:43:44.809-04:00", "updated_at": "2025-07-03T19:48:52.878-04:00", "avatar": "https://secure.gravatar.com/avatar/27c2c5889d87bbffa363734ed0a6da76.jpg?s=512&d=https%3A%2F%2Fa.slack-edge.com%2Fdf10d%2Fimg%2Favatars%2Fava_0018-512.png", "custom_css": null}, {"id": 8672, "slack_id": "U091V7C4E2X", "display_name": "Yohan", "bio": null, "projects_count": 0, "devlogs_count": 0, "votes_count": 0, "ships_count": 0, "projects": [], "coding_time_seconds": 0, "coding_time_seconds_today": 0, "balance": "You need to have a pocket watcher badge to view this.", "badges": [], "created_at": "2025-06-18T11:44:03.628-04:00", "updated_at": "2025-07-03T19:48:53.136-04:00", "avatar": "https://avatars.slack-edge.com/2025-06-28/9133104384657_4e1ece397044156c1186_original.jpg", "custom_css": null}, {"id": 8673, "slack_id": "U092243KHD2", "display_name": "Nishant Kumar", "bio": null, "projects_count": 0, "devlogs_count": 0, "votes_count": 0, "ships_count": 0, "projects": [], "coding_time_seconds": 0, "coding_time_seconds_today": 0, "balance": "You need to have a pocket watcher badge to view this.", "badges": [], "created_at": "2025-06-18T11:44:34.147-04:00", "updated_at": "2025-07-03T19:48:53.403-04:00", "avatar": "https://secure.gravatar.com/avatar/0b21e6a638871d8c185f49e72a19af87.jpg?s=512&d=https%3A%2F%2Fa.slack-edge.com%2Fdf10d%2Fimg%2Favatars%2Fava_0000-512.png", "custom_css": null}, {"id": 8674, "slack_id": "U092EBBA9FT", "display_name": "kithmini", "bio": null, "projects_count": 0, "devlogs_count": 0, "votes_count": 0, "ships_count": 0, "projects": [], "coding_time_seconds": 0, "coding_time_seconds_today": 0, "balance": "You need to have a pocket watcher badge to view this.", "badges": [], "created_at": "2025-06-18T11:45:14.625-04:00", "updated_at": "2025-07-03T19:48:53.661-04:00", "avatar": "https://secure.gravatar.com/avatar/927ab1850ba4da3326217ef430315100.jpg?s=512&d=https%3A%2F%2Fa.slack-edge.com%2Fdf10d%2Fimg%2Favatars%2Fava_0022-512.png", "custom_css": null}, {"id": 8675, "slack_id": "U09217ZFU3U", "display_name": "tommy", "bio": null, "projects_count": 0, "devlogs_count": 0, "votes_count": 0, "ships_count": 0, "projects": [], "coding_time_seconds": 0, "coding_time_seconds_today": 0, "balance": "You need to have a pocket watcher badge to view this.", "badges": [], "created_at": "2025-06-18T11:45:31.729-04:00", "updated_at": "2025-07-03T19:48:53.921-04:00", "avatar": "https://secure.gravatar.com/avatar/c7e35730db67589ba0eec4c1709738e8.jpg?s=512&d=https%3A%2F%2Fa.slack-edge.com%2Fdf10d%2Fimg%2Favatars%2Fava_0020-512.png", "custom_css": null}, {"id": 8676, "slack_id": "U0920BDGWA1", "display_name": "NikSne", "bio": null, "projects_count": 2, "devlogs_count": 0, "votes_count": 0, "ships_count": 0, "projects": [{"id": 1801, "title": "Minizord", "devlogs_count": 0, "created_at": "2025-06-19T09:21:32.832-04:00"}, {"id": 2460, "title": "Packet Auth", "devlogs_count": 0, "created_at": "2025-06-21T04:28:50.852-04:00"}], "coding_time_seconds": 177171, "coding_time_seconds_today": 0, "balance": "You need to have a pocket watcher badge to view this.", "badges": [], "created_at": "2025-06-18T11:45:37.955-04:00", "updated_at": "2025-07-03T19:48:54.193-04:00", "avatar": "https://secure.gravatar.com/avatar/3a3f653dbce2acdafae9126fec52ec48.jpg?s=512&d=https%3A%2F%2Fa.slack-edge.com%2Fdf10d%2Fimg%2Favatars%2Fava_0024-512.png", "custom_css": null}, {"id": 8677, "slack_id": "U0783RXJZ5M", "display_name": "Jaewook Jung", "bio": null, "projects_count": 0, "devlogs_count": 0, "votes_count": 0, "ships_count": 0, "projects": [], "coding_time_seconds": 310051, "coding_time_seconds_today": 4430, "balance": "You need to have a pocket watcher badge to view this.", "badges": [], "created_at": "2025-06-18T11:45:54.744-04:00", "updated_at": "2025-07-03T19:48:54.452-04:00", "avatar": "https://secure.gravatar.com/avatar/708ebe1616e918f50cc45e6af8e8550b.jpg?s=512&d=https%3A%2F%2Fa.slack-edge.com%2Fdf10d%2Fimg%2Favatars%2Fava_0026-512.png", "custom_css": null}, {"id": 8678, "slack_id": "U091WCF1Y3T", "display_name": "Ahmed naoui", "bio": null, "projects_count": 0, "devlogs_count": 0, "votes_count": 1, "ships_count": 0, "projects": [], "coding_time_seconds": 2333, "coding_time_seconds_today": 0, "balance": "You need to have a pocket watcher badge to view this.", "badges": [], "created_at": "2025-06-18T11:47:24.089-04:00", "updated_at": "2025-08-24T13:26:31.788-04:00", "avatar": "https://secure.gravatar.com/avatar/3e071fea74fed0b94c8811d9af0b7f16.jpg?s=512&d=https%3A%2F%2Fa.slack-edge.com%2Fdf10d%2Fimg%2Favatars%2Fava_0006-512.png", "custom_css": null}, {"id": 8679, "slack_id": "U07UYP6B12N", "display_name": "Hammerton", "bio": "Just someone making things on the interwebs, or something like that", "projects_count": 2, "devlogs_count": 11, "votes_count": 25, "ships_count": 1, "projects": [{"id": 3646, "title": "Idle Game", "devlogs_count": 5, "created_at": "2025-06-25T04:42:31.413-04:00"}, {"id": 3558, "title": "Maple-iOS", "devlogs_count": 6, "created_at": "2025-06-24T17:02:02.743-04:00"}], "coding_time_seconds": 197255, "coding_time_seconds_today": 0, "balance": "You need to have a pocket watcher badge to view this.", "badges": [{"name": "Maiden Voyage", "text": "you shipped your first project! the journey begins...", "icon": "\ud83d\udea2"}], "created_at": "2025-06-18T11:47:44.777-04:00", "updated_at": "2025-09-10T22:55:27.588-04:00", "avatar": "https://avatars.slack-edge.com/2025-03-17/8617651160179_86785059ad249c67d0e3_original.png", "custom_css": null}, {"id": 8680, "slack_id": "U0920C74HB7", "display_name": "Thomas", "bio": null, "projects_count": 0, "devlogs_count": 0, "votes_count": 0, "ships_count": 0, "projects": [], "coding_time_seconds": 6451, "coding_time_seconds_today": 0, "balance": "You need to have a pocket watcher badge to view this.", "badges": [], "created_at": "2025-06-18T11:50:18.543-04:00", "updated_at": "2025-07-03T19:48:55.119-04:00", "avatar": "https://secure.gravatar.com/avatar/f25d49986439517ed63febb217e28a3a.jpg?s=512&d=https%3A%2F%2Fa.slack-edge.com%2Fdf10d%2Fimg%2Favatars%2Fava_0021-512.png", "custom_css": null}], "pagination": {"page": 434, "pages": 1192, "count": 23828, "items": 20}}