{"users": [{"id": 8681, "slack_id": "U0920CEG153", "display_name": "Nilesh", "bio": null, "projects_count": 0, "devlogs_count": 0, "votes_count": 0, "ships_count": 0, "projects": [], "coding_time_seconds": 0, "coding_time_seconds_today": 0, "balance": "You need to have a pocket watcher badge to view this.", "badges": [], "created_at": "2025-06-18T11:50:42.421-04:00", "updated_at": "2025-07-03T19:48:55.390-04:00", "avatar": "https://secure.gravatar.com/avatar/7629d84547b54a60c8afbc8ae7175f06.jpg?s=512&d=https%3A%2F%2Fa.slack-edge.com%2Fdf10d%2Fimg%2Favatars%2Fava_0016-512.png", "custom_css": null}, {"id": 8682, "slack_id": "U091LRK0HNK", "display_name": "Shibre", "bio": null, "projects_count": 0, "devlogs_count": 0, "votes_count": 0, "ships_count": 0, "projects": [], "coding_time_seconds": 0, "coding_time_seconds_today": 0, "balance": "You need to have a pocket watcher badge to view this.", "badges": [], "created_at": "2025-06-18T11:57:22.354-04:00", "updated_at": "2025-07-04T02:28:11.869-04:00", "avatar": "https://secure.gravatar.com/avatar/3611c821d29c597a76b24662bad31a37.jpg?s=512&d=https%3A%2F%2Fa.slack-edge.com%2Fdf10d%2Fimg%2Favatars%2Fava_0001-512.png", "custom_css": null}, {"id": 8683, "slack_id": "U092251NXFW", "display_name": "Gaurav Tailor", "bio": null, "projects_count": 0, "devlogs_count": 0, "votes_count": 0, "ships_count": 0, "projects": [], "coding_time_seconds": 118828, "coding_time_seconds_today": 0, "balance": "You need to have a pocket watcher badge to view this.", "badges": [], "created_at": "2025-06-18T11:57:27.870-04:00", "updated_at": "2025-07-04T02:28:11.965-04:00", "avatar": "https://secure.gravatar.com/avatar/425eba90d1f092dff2752c6130515132.jpg?s=512&d=https%3A%2F%2Fa.slack-edge.com%2Fdf10d%2Fimg%2Favatars%2Fava_0023-512.png", "custom_css": null}, {"id": 8684, "slack_id": "U0921LGQ82W", "display_name": "smit", "bio": null, "projects_count": 0, "devlogs_count": 0, "votes_count": 0, "ships_count": 0, "projects": [], "coding_time_seconds": 2316, "coding_time_seconds_today": 0, "balance": "You need to have a pocket watcher badge to view this.", "badges": [], "created_at": "2025-06-18T11:57:35.759-04:00", "updated_at": "2025-07-03T19:48:55.934-04:00", "avatar": "https://secure.gravatar.com/avatar/170e3837f605af7e1a665b0e7c89ceb0.jpg?s=512&d=https%3A%2F%2Fa.slack-edge.com%2Fdf10d%2Fimg%2Favatars%2Fava_0004-512.png", "custom_css": null}, {"id": 8685, "slack_id": "U092Q92BMDW", "display_name": "Bishoy Mina", "bio": null, "projects_count": 0, "devlogs_count": 0, "votes_count": 0, "ships_count": 0, "projects": [], "coding_time_seconds": 108, "coding_time_seconds_today": 0, "balance": "You need to have a pocket watcher badge to view this.", "badges": [], "created_at": "2025-06-18T11:58:00.706-04:00", "updated_at": "2025-07-03T19:48:56.202-04:00", "avatar": "https://avatars.slack-edge.com/2025-06-18/9070248460276_72fa00d35da1af4b3ebf_original.jpg", "custom_css": null}, {"id": 8686, "slack_id": "U0920VBJ7M0", "display_name": "Yael", "bio": null, "projects_count": 0, "devlogs_count": 0, "votes_count": 0, "ships_count": 0, "projects": [], "coding_time_seconds": 0, "coding_time_seconds_today": 0, "balance": "You need to have a pocket watcher badge to view this.", "badges": [], "created_at": "2025-06-18T11:58:12.191-04:00", "updated_at": "2025-07-05T08:10:03.893-04:00", "avatar": "https://secure.gravatar.com/avatar/005e8472f2aba17abb8d82c17465eb01.jpg?s=512&d=https%3A%2F%2Fa.slack-edge.com%2Fdf10d%2Fimg%2Favatars%2Fava_0010-512.png", "custom_css": null}, {"id": 8687, "slack_id": "U091VGV9G0N", "display_name": "Ahmad Jawad", "bio": null, "projects_count": 0, "devlogs_count": 0, "votes_count": 0, "ships_count": 0, "projects": [], "coding_time_seconds": 0, "coding_time_seconds_today": 0, "balance": "You need to have a pocket watcher badge to view this.", "badges": [], "created_at": "2025-06-18T11:59:16.581-04:00", "updated_at": "2025-07-07T14:43:51.588-04:00", "avatar": "https://secure.gravatar.com/avatar/7c2884a15a749b80979dc51b9b1c8a42.jpg?s=512&d=https%3A%2F%2Fa.slack-edge.com%2Fdf10d%2Fimg%2Favatars%2Fava_0020-512.png", "custom_css": null}, {"id": 8688, "slack_id": "U0920E4FXAR", "display_name": "Sameer", "bio": null, "projects_count": 0, "devlogs_count": 0, "votes_count": 0, "ships_count": 0, "projects": [], "coding_time_seconds": 0, "coding_time_seconds_today": 0, "balance": "You need to have a pocket watcher badge to view this.", "badges": [], "created_at": "2025-06-18T11:59:48.452-04:00", "updated_at": "2025-07-19T01:47:04.989-04:00", "avatar": "https://secure.gravatar.com/avatar/576b0bc5ca14444f1ed6c83818c66272.jpg?s=512&d=https%3A%2F%2Fa.slack-edge.com%2Fdf10d%2Fimg%2Favatars%2Fava_0015-512.png", "custom_css": null}, {"id": 8689, "slack_id": "U091VFE04KY", "display_name": "cherenkoveffect", "bio": null, "projects_count": 0, "devlogs_count": 0, "votes_count": 0, "ships_count": 0, "projects": [], "coding_time_seconds": 33128, "coding_time_seconds_today": 0, "balance": "You need to have a pocket watcher badge to view this.", "badges": [], "created_at": "2025-06-18T11:59:54.842-04:00", "updated_at": "2025-07-03T19:48:57.093-04:00", "avatar": "https://secure.gravatar.com/avatar/47b57196a125200416f061383139d211.jpg?s=512&d=https%3A%2F%2Fa.slack-edge.com%2Fdf10d%2Fimg%2Favatars%2Fava_0007-512.png", "custom_css": null}, {"id": 8690, "slack_id": "U0921MAMSM8", "display_name": "Selemon Brahanu", "bio": null, "projects_count": 0, "devlogs_count": 0, "votes_count": 0, "ships_count": 0, "projects": [], "coding_time_seconds": 0, "coding_time_seconds_today": 0, "balance": "You need to have a pocket watcher badge to view this.", "badges": [], "created_at": "2025-06-18T12:00:35.715-04:00", "updated_at": "2025-08-23T02:44:09.882-04:00", "avatar": "https://avatars.slack-edge.com/2025-08-23/9396766339349_9661eed4bc05ada0886f_original.jpg", "custom_css": null}, {"id": 8691, "slack_id": "U092Q9BQR8Q", "display_name": "Code-Z", "bio": null, "projects_count": 0, "devlogs_count": 0, "votes_count": 0, "ships_count": 0, "projects": [], "coding_time_seconds": 0, "coding_time_seconds_today": 0, "balance": "You need to have a pocket watcher badge to view this.", "badges": [], "created_at": "2025-06-18T12:02:01.364-04:00", "updated_at": "2025-07-03T19:48:57.632-04:00", "avatar": "https://secure.gravatar.com/avatar/5dd82d817adfda285cf171e15b548d1a.jpg?s=512&d=https%3A%2F%2Fa.slack-edge.com%2Fdf10d%2Fimg%2Favatars%2Fava_0003-512.png", "custom_css": null}, {"id": 8692, "slack_id": "U091VDC7LM9", "display_name": "kle", "bio": null, "projects_count": 0, "devlogs_count": 0, "votes_count": 1, "ships_count": 0, "projects": [], "coding_time_seconds": 3054, "coding_time_seconds_today": 0, "balance": "You need to have a pocket watcher badge to view this.", "badges": [], "created_at": "2025-06-18T12:02:21.979-04:00", "updated_at": "2025-07-03T19:48:57.980-04:00", "avatar": "https://secure.gravatar.com/avatar/56bbc8dd1a384f11f7d39448505e0f6f.jpg?s=512&d=https%3A%2F%2Fa.slack-edge.com%2Fdf10d%2Fimg%2Favatars%2Fava_0009-512.png", "custom_css": null}, {"id": 8693, "slack_id": "U091VDKJ203", "display_name": "Theo", "bio": null, "projects_count": 0, "devlogs_count": 0, "votes_count": 0, "ships_count": 0, "projects": [], "coding_time_seconds": 10280, "coding_time_seconds_today": 0, "balance": "You need to have a pocket watcher badge to view this.", "badges": [], "created_at": "2025-06-18T12:02:45.269-04:00", "updated_at": "2025-07-03T19:48:58.261-04:00", "avatar": "https://secure.gravatar.com/avatar/17da0f7a6bdbcc162c9a1ff821e62bf6.jpg?s=512&d=https%3A%2F%2Fa.slack-edge.com%2Fdf10d%2Fimg%2Favatars%2Fava_0023-512.png", "custom_css": null}, {"id": 8694, "slack_id": "U0921NKMQPL", "display_name": "Tobias Gabriel Lauxmann", "bio": null, "projects_count": 0, "devlogs_count": 0, "votes_count": 0, "ships_count": 0, "projects": [], "coding_time_seconds": 22396, "coding_time_seconds_today": 0, "balance": "You need to have a pocket watcher badge to view this.", "badges": [], "created_at": "2025-06-18T12:03:23.981-04:00", "updated_at": "2025-07-03T19:48:58.524-04:00", "avatar": "https://avatars.slack-edge.com/2025-06-18/9070291893364_7c3e6de1f68f0a41911d_original.jpg", "custom_css": null}, {"id": 8695, "slack_id": "U0920FBA9V3", "display_name": "slim shady", "bio": null, "projects_count": 0, "devlogs_count": 0, "votes_count": 0, "ships_count": 0, "projects": [], "coding_time_seconds": 0, "coding_time_seconds_today": 0, "balance": "You need to have a pocket watcher badge to view this.", "badges": [], "created_at": "2025-06-18T12:03:58.785-04:00", "updated_at": "2025-07-03T19:48:58.790-04:00", "avatar": "https://secure.gravatar.com/avatar/5a143077b3265a384b63797d42cae50b.jpg?s=512&d=https%3A%2F%2Fa.slack-edge.com%2Fdf10d%2Fimg%2Favatars%2Fava_0015-512.png", "custom_css": null}, {"id": 8696, "slack_id": "U09226WF2P6", "display_name": "Sierra", "bio": null, "projects_count": 0, "devlogs_count": 0, "votes_count": 0, "ships_count": 0, "projects": [], "coding_time_seconds": 0, "coding_time_seconds_today": 0, "balance": "You need to have a pocket watcher badge to view this.", "badges": [], "created_at": "2025-06-18T12:04:06.609-04:00", "updated_at": "2025-07-03T19:48:59.057-04:00", "avatar": "https://secure.gravatar.com/avatar/2fd663803abe85d1d89707a2c1bed99d.jpg?s=512&d=https%3A%2F%2Fa.slack-edge.com%2Fdf10d%2Fimg%2Favatars%2Fava_0004-512.png", "custom_css": null}, {"id": 8697, "slack_id": "U092Q9K85LG", "display_name": "Atroush", "bio": null, "projects_count": 0, "devlogs_count": 0, "votes_count": 0, "ships_count": 0, "projects": [], "coding_time_seconds": 205603, "coding_time_seconds_today": 0, "balance": "You need to have a pocket watcher badge to view this.", "badges": [], "created_at": "2025-06-18T12:04:17.196-04:00", "updated_at": "2025-07-03T19:48:59.318-04:00", "avatar": "https://secure.gravatar.com/avatar/d74dd724398a4c227ffa6a8cc018ef92.jpg?s=512&d=https%3A%2F%2Fa.slack-edge.com%2Fdf10d%2Fimg%2Favatars%2Fava_0001-512.png", "custom_css": null}, {"id": 8698, "slack_id": "U091VJBBJ8N", "display_name": "Pranav", "bio": null, "projects_count": 0, "devlogs_count": 0, "votes_count": 0, "ships_count": 0, "projects": [], "coding_time_seconds": 480, "coding_time_seconds_today": 0, "balance": "You need to have a pocket watcher badge to view this.", "badges": [], "created_at": "2025-06-18T12:04:51.990-04:00", "updated_at": "2025-07-03T19:48:59.579-04:00", "avatar": "https://secure.gravatar.com/avatar/e53efdb29c51f5f4f52b3390a04c5741.jpg?s=512&d=https%3A%2F%2Fa.slack-edge.com%2Fdf10d%2Fimg%2Favatars%2Fava_0011-512.png", "custom_css": null}, {"id": 8699, "slack_id": "U091VDSJPA7", "display_name": "Raja Adan Ali", "bio": null, "projects_count": 0, "devlogs_count": 0, "votes_count": 0, "ships_count": 0, "projects": [], "coding_time_seconds": 0, "coding_time_seconds_today": 0, "balance": "You need to have a pocket watcher badge to view this.", "badges": [], "created_at": "2025-06-18T12:06:23.680-04:00", "updated_at": "2025-07-03T19:48:59.852-04:00", "avatar": "https://secure.gravatar.com/avatar/5145f25e57215189846f6ccbea006c76.jpg?s=512&d=https%3A%2F%2Fa.slack-edge.com%2Fdf10d%2Fimg%2Favatars%2Fava_0010-512.png", "custom_css": null}, {"id": 8700, "slack_id": "U0920FQCWGM", "display_name": "Raja Adan ali", "bio": null, "projects_count": 0, "devlogs_count": 0, "votes_count": 0, "ships_count": 0, "projects": [], "coding_time_seconds": 0, "coding_time_seconds_today": 0, "balance": "You need to have a pocket watcher badge to view this.", "badges": [], "created_at": "2025-06-18T12:06:50.885-04:00", "updated_at": "2025-07-03T19:49:00.122-04:00", "avatar": "https://secure.gravatar.com/avatar/cefe87fe4de7b7d3c37c70cae616497f.jpg?s=512&d=https%3A%2F%2Fa.slack-edge.com%2Fdf10d%2Fimg%2Favatars%2Fava_0004-512.png", "custom_css": null}], "pagination": {"page": 435, "pages": 1192, "count": 23828, "items": 20}}