{"users": [{"id": 8701, "slack_id": "U092EG707CH", "display_name": "Ashmit", "bio": null, "projects_count": 0, "devlogs_count": 0, "votes_count": 0, "ships_count": 0, "projects": [], "coding_time_seconds": 8454, "coding_time_seconds_today": 0, "balance": "You need to have a pocket watcher badge to view this.", "badges": [], "created_at": "2025-06-18T12:08:11.873-04:00", "updated_at": "2025-07-03T19:49:00.393-04:00", "avatar": "https://secure.gravatar.com/avatar/7f2fddc4321991f613048d1cb6db673f.jpg?s=512&d=https%3A%2F%2Fa.slack-edge.com%2Fdf10d%2Fimg%2Favatars%2Fava_0000-512.png", "custom_css": null}, {"id": 8702, "slack_id": "U09229A299A", "display_name": "\u694a\u5927\u70ba", "bio": null, "projects_count": 0, "devlogs_count": 0, "votes_count": 0, "ships_count": 0, "projects": [], "coding_time_seconds": 0, "coding_time_seconds_today": 0, "balance": "You need to have a pocket watcher badge to view this.", "badges": [], "created_at": "2025-06-18T12:09:54.444-04:00", "updated_at": "2025-07-03T19:49:00.673-04:00", "avatar": "https://avatars.slack-edge.com/2025-06-18/9070333361076_9814fa6107f524226e49_original.png", "custom_css": null}, {"id": 8703, "slack_id": "U092EGQFN81", "display_name": "Rushikesh Ponnala", "bio": null, "projects_count": 0, "devlogs_count": 0, "votes_count": 0, "ships_count": 0, "projects": [], "coding_time_seconds": 0, "coding_time_seconds_today": 0, "balance": "You need to have a pocket watcher badge to view this.", "badges": [], "created_at": "2025-06-18T12:10:04.259-04:00", "updated_at": "2025-07-03T19:49:00.929-04:00", "avatar": "https://avatars.slack-edge.com/2025-06-18/9070334373652_1266b27fed54c8f1a30a_original.webp", "custom_css": null}, {"id": 8704, "slack_id": "U092QC6P6GY", "display_name": "Maryam", "bio": null, "projects_count": 1, "devlogs_count": 2, "votes_count": 0, "ships_count": 0, "projects": [{"id": 1924, "title": "Todo Website", "devlogs_count": 2, "created_at": "2025-06-19T16:16:27.054-04:00"}], "coding_time_seconds": 9999, "coding_time_seconds_today": 0, "balance": "You need to have a pocket watcher badge to view this.", "badges": [], "created_at": "2025-06-18T12:10:47.846-04:00", "updated_at": "2025-07-03T19:49:01.217-04:00", "avatar": "https://avatars.slack-edge.com/2025-06-18/9068581942005_7fcb813b053f2e4c476b_original.jpg", "custom_css": null}, {"id": 8705, "slack_id": "U092EGY8733", "display_name": "RubiksProP", "bio": null, "projects_count": 0, "devlogs_count": 0, "votes_count": 0, "ships_count": 0, "projects": [], "coding_time_seconds": 0, "coding_time_seconds_today": 0, "balance": "You need to have a pocket watcher badge to view this.", "badges": [], "created_at": "2025-06-18T12:11:09.180-04:00", "updated_at": "2025-07-03T19:49:01.485-04:00", "avatar": "https://secure.gravatar.com/avatar/594dd9360d780ad29adff3bb1d295816.jpg?s=512&d=https%3A%2F%2Fa.slack-edge.com%2Fdf10d%2Fimg%2Favatars%2Fava_0006-512.png", "custom_css": null}, {"id": 8706, "slack_id": "U091VKMH35L", "display_name": "yummyyayyay", "bio": null, "projects_count": 0, "devlogs_count": 0, "votes_count": 0, "ships_count": 0, "projects": [], "coding_time_seconds": 0, "coding_time_seconds_today": 0, "balance": "You need to have a pocket watcher badge to view this.", "badges": [], "created_at": "2025-06-18T12:12:06.760-04:00", "updated_at": "2025-07-03T19:49:02.715-04:00", "avatar": "https://secure.gravatar.com/avatar/3c8db8b7dc27b1e3f815da3bc858c76d.jpg?s=512&d=https%3A%2F%2Fa.slack-edge.com%2Fdf10d%2Fimg%2Favatars%2Fava_0015-512.png", "custom_css": null}, {"id": 8707, "slack_id": "U09229H7HMJ", "display_name": "Shardul Joshi", "bio": null, "projects_count": 0, "devlogs_count": 0, "votes_count": 0, "ships_count": 0, "projects": [], "coding_time_seconds": 0, "coding_time_seconds_today": 0, "balance": "You need to have a pocket watcher badge to view this.", "badges": [], "created_at": "2025-06-18T12:12:16.556-04:00", "updated_at": "2025-07-03T19:49:03.003-04:00", "avatar": "https://secure.gravatar.com/avatar/e18dba243f17b6bec0ead45a3045f99d.jpg?s=512&d=https%3A%2F%2Fa.slack-edge.com%2Fdf10d%2Fimg%2Favatars%2Fava_0015-512.png", "custom_css": null}, {"id": 8708, "slack_id": "U091VF5LKCK", "display_name": "Victor", "bio": null, "projects_count": 0, "devlogs_count": 0, "votes_count": 0, "ships_count": 0, "projects": [], "coding_time_seconds": 154747, "coding_time_seconds_today": 0, "balance": "You need to have a pocket watcher badge to view this.", "badges": [], "created_at": "2025-06-18T12:12:17.639-04:00", "updated_at": "2025-07-03T19:49:03.277-04:00", "avatar": "https://secure.gravatar.com/avatar/e7f6bdc3c18cd890126922f635c50a81.jpg?s=512&d=https%3A%2F%2Fa.slack-edge.com%2Fdf10d%2Fimg%2Favatars%2Fava_0019-512.png", "custom_css": null}, {"id": 8709, "slack_id": "U08D9CAUZMM", "display_name": "3maar..", "bio": "S'27 STEMer - 6th of October", "projects_count": 4, "devlogs_count": 7, "votes_count": 81, "ships_count": 4, "projects": [{"id": 13292, "title": "Try-to-Die", "devlogs_count": 1, "created_at": "2025-09-13T14:13:41.367-04:00"}, {"id": 10849, "title": "Snake", "devlogs_count": 1, "created_at": "2025-08-11T10:06:54.607-04:00"}, {"id": 10898, "title": "Flappy Bird", "devlogs_count": 1, "created_at": "2025-08-11T16:22:18.492-04:00"}, {"id": 2521, "title": "HTML - CSS Reference", "devlogs_count": 1, "created_at": "2025-06-21T07:38:33.362-04:00"}], "coding_time_seconds": 342732, "coding_time_seconds_today": 0, "balance": "You need to have a pocket watcher badge to view this.", "badges": [{"name": "Maiden Voyage", "text": "you shipped your first project! the journey begins...", "icon": "\ud83d\udea2"}, {"name": "Ballot Stuffer", "text": "vote 100 times.", "icon": "https://summer.hackclub.com/assets/i_voted-bf851b48.png"}], "created_at": "2025-06-18T12:14:16.236-04:00", "updated_at": "2025-09-10T22:55:28.349-04:00", "avatar": "https://avatars.slack-edge.com/2025-09-09/9489540212898_cea729225204de172030_original.png", "custom_css": null}, {"id": 8710, "slack_id": "U0921QH9D6E", "display_name": "Reshal", "bio": null, "projects_count": 0, "devlogs_count": 0, "votes_count": 0, "ships_count": 0, "projects": [], "coding_time_seconds": 0, "coding_time_seconds_today": 0, "balance": "You need to have a pocket watcher badge to view this.", "badges": [], "created_at": "2025-06-18T12:14:17.856-04:00", "updated_at": "2025-07-03T19:49:03.811-04:00", "avatar": "https://secure.gravatar.com/avatar/ce3f2abdd3609110cb24ee21e25bb991.jpg?s=512&d=https%3A%2F%2Fa.slack-edge.com%2Fdf10d%2Fimg%2Favatars%2Fava_0024-512.png", "custom_css": null}, {"id": 8711, "slack_id": "U0827F41X0V", "display_name": "Elliot", "bio": null, "projects_count": 2, "devlogs_count": 5, "votes_count": 3, "ships_count": 1, "projects": [{"id": 1953, "title": "Python Ninja Game", "devlogs_count": 2, "created_at": "2025-06-19T17:43:05.286-04:00"}, {"id": 1494, "title": "Calculator project", "devlogs_count": 3, "created_at": "2025-06-18T16:26:48.116-04:00"}], "coding_time_seconds": 30592, "coding_time_seconds_today": 0, "balance": "You need to have a pocket watcher badge to view this.", "badges": [{"name": "Maiden Voyage", "text": "you shipped your first project! the journey begins...", "icon": "\ud83d\udea2"}], "created_at": "2025-06-18T12:15:02.276-04:00", "updated_at": "2025-09-10T22:55:28.410-04:00", "avatar": "https://avatars.slack-edge.com/2025-06-18/9065274983587_0486b43afe302dc473bd_original.jpg", "custom_css": null}, {"id": 8712, "slack_id": "U092EHV8W0Z", "display_name": "MLGCombosYT", "bio": null, "projects_count": 0, "devlogs_count": 0, "votes_count": 0, "ships_count": 0, "projects": [], "coding_time_seconds": 0, "coding_time_seconds_today": 0, "balance": "You need to have a pocket watcher badge to view this.", "badges": [], "created_at": "2025-06-18T12:15:46.585-04:00", "updated_at": "2025-07-03T19:49:04.358-04:00", "avatar": "https://avatars.slack-edge.com/2025-06-18/9069858730386_77dd5da1092eafb2fae0_original.png", "custom_css": null}, {"id": 8713, "slack_id": "U0922ADLC2Y", "display_name": "Miguel Padrino", "bio": null, "projects_count": 0, "devlogs_count": 0, "votes_count": 0, "ships_count": 0, "projects": [], "coding_time_seconds": 523442, "coding_time_seconds_today": 0, "balance": "You need to have a pocket watcher badge to view this.", "badges": [], "created_at": "2025-06-18T12:15:51.240-04:00", "updated_at": "2025-07-07T08:09:43.112-04:00", "avatar": "https://secure.gravatar.com/avatar/452766ee41f0bbaafe0657c07ba4d047.jpg?s=512&d=https%3A%2F%2Fa.slack-edge.com%2Fdf10d%2Fimg%2Favatars%2Fava_0009-512.png", "custom_css": null}, {"id": 8714, "slack_id": "U092QD58HDE", "display_name": "Nils Pike", "bio": null, "projects_count": 0, "devlogs_count": 0, "votes_count": 0, "ships_count": 0, "projects": [], "coding_time_seconds": 637, "coding_time_seconds_today": 0, "balance": "You need to have a pocket watcher badge to view this.", "badges": [], "created_at": "2025-06-18T12:16:22.494-04:00", "updated_at": "2025-07-03T19:49:04.769-04:00", "avatar": "https://avatars.slack-edge.com/2025-06-18/9068617031973_62549af97665f718a05b_original.png", "custom_css": null}, {"id": 8715, "slack_id": "U091VFWAQTV", "display_name": "Jose", "bio": null, "projects_count": 0, "devlogs_count": 0, "votes_count": 0, "ships_count": 0, "projects": [], "coding_time_seconds": 0, "coding_time_seconds_today": 0, "balance": "You need to have a pocket watcher badge to view this.", "badges": [], "created_at": "2025-06-18T12:17:07.037-04:00", "updated_at": "2025-07-03T21:58:52.037-04:00", "avatar": "https://secure.gravatar.com/avatar/20d27489f818d99f8c035dcd85d9e00c.jpg?s=512&d=https%3A%2F%2Fa.slack-edge.com%2Fdf10d%2Fimg%2Favatars%2Fava_0015-512.png", "custom_css": null}, {"id": 8716, "slack_id": "U091VLCKB70", "display_name": "Siraaj Qadir", "bio": null, "projects_count": 0, "devlogs_count": 0, "votes_count": 0, "ships_count": 0, "projects": [], "coding_time_seconds": 0, "coding_time_seconds_today": 0, "balance": "You need to have a pocket watcher badge to view this.", "badges": [], "created_at": "2025-06-18T12:18:15.149-04:00", "updated_at": "2025-07-03T19:49:05.169-04:00", "avatar": "https://secure.gravatar.com/avatar/bb935bd34c60b816f191b53460208b19.jpg?s=512&d=https%3A%2F%2Fa.slack-edge.com%2Fdf10d%2Fimg%2Favatars%2Fava_0004-512.png", "custom_css": null}, {"id": 8717, "slack_id": "U08Q8V594G7", "display_name": "wt", "bio": null, "projects_count": 0, "devlogs_count": 0, "votes_count": 0, "ships_count": 0, "projects": [], "coding_time_seconds": 2716, "coding_time_seconds_today": 0, "balance": "You need to have a pocket watcher badge to view this.", "badges": [], "created_at": "2025-06-18T12:18:27.424-04:00", "updated_at": "2025-08-26T20:42:53.284-04:00", "avatar": "https://avatars.slack-edge.com/2025-05-04/8837870900630_d060a94ba666898b1ce1_original.png", "custom_css": null}, {"id": 8718, "slack_id": "U08UD6LC2A1", "display_name": "MT", "bio": null, "projects_count": 0, "devlogs_count": 0, "votes_count": 2, "ships_count": 0, "projects": [], "coding_time_seconds": 338000, "coding_time_seconds_today": 0, "balance": "You need to have a pocket watcher badge to view this.", "badges": [], "created_at": "2025-06-18T12:18:29.981-04:00", "updated_at": "2025-09-03T10:46:33.708-04:00", "avatar": "https://avatars.slack-edge.com/2025-05-29/8973284019826_1b6f88d29049af1e3965_original.jpg", "custom_css": null}, {"id": 8719, "slack_id": "U092QDLK0P2", "display_name": "Ocman Nazir Briet", "bio": null, "projects_count": 0, "devlogs_count": 0, "votes_count": 0, "ships_count": 0, "projects": [], "coding_time_seconds": 0, "coding_time_seconds_today": 0, "balance": "You need to have a pocket watcher badge to view this.", "badges": [], "created_at": "2025-06-18T12:18:30.476-04:00", "updated_at": "2025-07-03T19:49:05.841-04:00", "avatar": "https://secure.gravatar.com/avatar/1c14b58ecd6dbfba4a54bd8dc67bfef2.jpg?s=512&d=https%3A%2F%2Fa.slack-edge.com%2Fdf10d%2Fimg%2Favatars%2Fava_0026-512.png", "custom_css": null}, {"id": 8720, "slack_id": "U03TBSL8R1N", "display_name": "Dhananjay Porwal", "bio": null, "projects_count": 0, "devlogs_count": 0, "votes_count": 0, "ships_count": 0, "projects": [], "coding_time_seconds": 0, "coding_time_seconds_today": 0, "balance": "You need to have a pocket watcher badge to view this.", "badges": [], "created_at": "2025-06-18T12:20:10.833-04:00", "updated_at": "2025-07-03T19:49:06.113-04:00", "avatar": "https://avatars.slack-edge.com/2025-06-18/9070393123636_9d55ef1d245ec352b3b2_original.png", "custom_css": null}], "pagination": {"page": 436, "pages": 1192, "count": 23828, "items": 20}}