{"users": [{"id": 8761, "slack_id": "U06FG6G6SNL", "display_name": "TheTridentGuy", "bio": "meoww", "projects_count": 3, "devlogs_count": 1, "votes_count": 3, "ships_count": 1, "projects": [{"id": 7737, "title": "Personal Website", "devlogs_count": 0, "created_at": "2025-07-22T19:08:13.017-04:00"}, {"id": 10901, "title": "Amateur radio to Slack link", "devlogs_count": 0, "created_at": "2025-08-11T17:01:00.843-04:00"}, {"id": 11302, "title": "Cobalt for Slack", "devlogs_count": 1, "created_at": "2025-08-14T19:32:13.976-04:00"}], "coding_time_seconds": 272552, "coding_time_seconds_today": 0, "balance": "You need to have a pocket watcher badge to view this.", "badges": [{"name": "Maiden Voyage", "text": "you shipped your first project! the journey begins...", "icon": "\ud83d\udea2"}], "created_at": "2025-06-18T12:47:26.551-04:00", "updated_at": "2025-09-10T22:55:29.809-04:00", "avatar": "https://avatars.slack-edge.com/2024-11-09/8029267012720_580119a03125560c649b_original.png", "custom_css": null}, {"id": 8762, "slack_id": "U0922134DJN", "display_name": "Igor Machado", "bio": null, "projects_count": 0, "devlogs_count": 0, "votes_count": 0, "ships_count": 0, "projects": [], "coding_time_seconds": 0, "coding_time_seconds_today": 0, "balance": "You need to have a pocket watcher badge to view this.", "badges": [], "created_at": "2025-06-18T12:48:19.228-04:00", "updated_at": "2025-07-03T19:49:16.126-04:00", "avatar": "https://avatars.slack-edge.com/2025-06-18/9082822129729_dd3e1b17324a3c0a4c7e_original.jpg", "custom_css": null}, {"id": 8763, "slack_id": "U091SFHPM29", "display_name": "Ashrita Gogula", "bio": null, "projects_count": 0, "devlogs_count": 0, "votes_count": 0, "ships_count": 0, "projects": [], "coding_time_seconds": 0, "coding_time_seconds_today": 0, "balance": "You need to have a pocket watcher badge to view this.", "badges": [], "created_at": "2025-06-18T12:48:37.974-04:00", "updated_at": "2025-07-03T19:49:16.388-04:00", "avatar": "https://secure.gravatar.com/avatar/cace136220cea389e815a745b7caf99b.jpg?s=512&d=https%3A%2F%2Fa.slack-edge.com%2Fdf10d%2Fimg%2Favatars%2Fava_0016-512.png", "custom_css": null}, {"id": 8764, "slack_id": "U09221516F4", "display_name": "Amogh Hongal", "bio": null, "projects_count": 0, "devlogs_count": 0, "votes_count": 0, "ships_count": 0, "projects": [], "coding_time_seconds": 0, "coding_time_seconds_today": 0, "balance": "You need to have a pocket watcher badge to view this.", "badges": [], "created_at": "2025-06-18T12:49:46.374-04:00", "updated_at": "2025-07-03T21:58:55.612-04:00", "avatar": "https://secure.gravatar.com/avatar/fff7564ed3af97bd93035f11d2e713f4.jpg?s=512&d=https%3A%2F%2Fa.slack-edge.com%2Fdf10d%2Fimg%2Favatars%2Fava_0014-512.png", "custom_css": null}, {"id": 8765, "slack_id": "U091VS70PGE", "display_name": "Nakul", "bio": null, "projects_count": 0, "devlogs_count": 0, "votes_count": 0, "ships_count": 0, "projects": [], "coding_time_seconds": 525531, "coding_time_seconds_today": 1997, "balance": "You need to have a pocket watcher badge to view this.", "badges": [], "created_at": "2025-06-18T12:50:22.272-04:00", "updated_at": "2025-07-03T21:46:56.390-04:00", "avatar": "https://secure.gravatar.com/avatar/cdc94140eb2255e7749d5b25bd08d7ef.jpg?s=512&d=https%3A%2F%2Fa.slack-edge.com%2Fdf10d%2Fimg%2Favatars%2Fava_0014-512.png", "custom_css": null}, {"id": 8766, "slack_id": "U091VNNHYFM", "display_name": "vnb12", "bio": null, "projects_count": 0, "devlogs_count": 0, "votes_count": 0, "ships_count": 0, "projects": [], "coding_time_seconds": 0, "coding_time_seconds_today": 0, "balance": "You need to have a pocket watcher badge to view this.", "badges": [], "created_at": "2025-06-18T12:53:29.203-04:00", "updated_at": "2025-07-03T19:49:17.130-04:00", "avatar": "https://secure.gravatar.com/avatar/018ebf0013dde96a31012be832efd32e.jpg?s=512&d=https%3A%2F%2Fa.slack-edge.com%2Fdf10d%2Fimg%2Favatars%2Fava_0007-512.png", "custom_css": null}, {"id": 8767, "slack_id": "U091M6FS5MM", "display_name": "D\u00e1niel T\u00f3th", "bio": null, "projects_count": 1, "devlogs_count": 5, "votes_count": 20, "ships_count": 1, "projects": [{"id": 1927, "title": "Calculator+", "devlogs_count": 5, "created_at": "2025-06-19T16:25:37.208-04:00"}], "coding_time_seconds": 109790, "coding_time_seconds_today": 0, "balance": "You need to have a pocket watcher badge to view this.", "badges": [{"name": "Maiden Voyage", "text": "you shipped your first project! the journey begins...", "icon": "\ud83d\udea2"}], "created_at": "2025-06-18T12:53:36.725-04:00", "updated_at": "2025-09-10T22:55:29.948-04:00", "avatar": "https://secure.gravatar.com/avatar/85b237cd7c0aba6624a5b00b35fa102f.jpg?s=512&d=https%3A%2F%2Fa.slack-edge.com%2Fdf10d%2Fimg%2Favatars%2Fava_0004-512.png", "custom_css": null}, {"id": 8768, "slack_id": "U091M6UFV3R", "display_name": "emmanuel meireles", "bio": null, "projects_count": 0, "devlogs_count": 0, "votes_count": 0, "ships_count": 0, "projects": [], "coding_time_seconds": 0, "coding_time_seconds_today": 0, "balance": "You need to have a pocket watcher badge to view this.", "badges": [], "created_at": "2025-06-18T12:54:38.656-04:00", "updated_at": "2025-07-03T19:49:17.534-04:00", "avatar": "https://avatars.slack-edge.com/2025-06-18/9082858149953_c53160ccb3b4d6140a82_original.jpg", "custom_css": null}, {"id": 8769, "slack_id": "U091VR80ZP0", "display_name": "Felipe Gluck", "bio": null, "projects_count": 0, "devlogs_count": 0, "votes_count": 0, "ships_count": 0, "projects": [], "coding_time_seconds": 0, "coding_time_seconds_today": 0, "balance": "You need to have a pocket watcher badge to view this.", "badges": [], "created_at": "2025-06-18T12:55:06.339-04:00", "updated_at": "2025-07-03T19:49:17.816-04:00", "avatar": "https://secure.gravatar.com/avatar/ae0d42a172d7f9f1380f27fa0f460644.jpg?s=512&d=https%3A%2F%2Fa.slack-edge.com%2Fdf10d%2Fimg%2Favatars%2Fava_0005-512.png", "custom_css": null}, {"id": 8770, "slack_id": "U091VT5N7BQ", "display_name": "David", "bio": null, "projects_count": 0, "devlogs_count": 0, "votes_count": 0, "ships_count": 0, "projects": [], "coding_time_seconds": 0, "coding_time_seconds_today": 0, "balance": "You need to have a pocket watcher badge to view this.", "badges": [], "created_at": "2025-06-18T12:55:31.939-04:00", "updated_at": "2025-07-03T19:49:18.079-04:00", "avatar": "https://secure.gravatar.com/avatar/1148ce803c3ec9b98bc5bc72e0acbeaf.jpg?s=512&d=https%3A%2F%2Fa.slack-edge.com%2Fdf10d%2Fimg%2Favatars%2Fava_0019-512.png", "custom_css": null}, {"id": 8771, "slack_id": "U091VQ6GFEX", "display_name": "Subi", "bio": null, "projects_count": 0, "devlogs_count": 0, "votes_count": 0, "ships_count": 0, "projects": [], "coding_time_seconds": 0, "coding_time_seconds_today": 0, "balance": "You need to have a pocket watcher badge to view this.", "badges": [], "created_at": "2025-06-18T13:00:40.654-04:00", "updated_at": "2025-07-03T19:49:18.341-04:00", "avatar": "https://secure.gravatar.com/avatar/541f48844b271c783f2843e60a38ad2e.jpg?s=512&d=https%3A%2F%2Fa.slack-edge.com%2Fdf10d%2Fimg%2Favatars%2Fava_0013-512.png", "custom_css": null}, {"id": 8772, "slack_id": "U092QL8U3UY", "display_name": "Chris Adabla Edudzi", "bio": null, "projects_count": 0, "devlogs_count": 0, "votes_count": 0, "ships_count": 0, "projects": [], "coding_time_seconds": 47963, "coding_time_seconds_today": 0, "balance": "You need to have a pocket watcher badge to view this.", "badges": [], "created_at": "2025-06-18T13:01:39.310-04:00", "updated_at": "2025-07-03T19:49:18.602-04:00", "avatar": "https://secure.gravatar.com/avatar/d745654c4db7758217611a76189148b9.jpg?s=512&d=https%3A%2F%2Fa.slack-edge.com%2Fdf10d%2Fimg%2Favatars%2Fava_0022-512.png", "custom_css": null}, {"id": 8773, "slack_id": "U07DM00FVLL", "display_name": "Maximilian Dorninger", "bio": null, "projects_count": 0, "devlogs_count": 9, "votes_count": 0, "ships_count": 0, "projects": [], "coding_time_seconds": 628121, "coding_time_seconds_today": 0, "balance": "You need to have a pocket watcher badge to view this.", "badges": [], "created_at": "2025-06-18T13:02:05.724-04:00", "updated_at": "2025-07-09T16:58:39.679-04:00", "avatar": "https://avatars.slack-edge.com/2024-08-04/7537013966929_4dc069a34cb98f767698_original.png", "custom_css": null}, {"id": 8774, "slack_id": "U0922JK1DB6", "display_name": "Sandrine Joy", "bio": null, "projects_count": 0, "devlogs_count": 0, "votes_count": 0, "ships_count": 0, "projects": [], "coding_time_seconds": 0, "coding_time_seconds_today": 0, "balance": "You need to have a pocket watcher badge to view this.", "badges": [], "created_at": "2025-06-18T13:02:32.364-04:00", "updated_at": "2025-07-23T20:44:55.598-04:00", "avatar": "https://secure.gravatar.com/avatar/450ccdfba3381ca6b91177c94ab2293d.jpg?s=512&d=https%3A%2F%2Fa.slack-edge.com%2Fdf10d%2Fimg%2Favatars%2Fava_0022-512.png", "custom_css": null}, {"id": 8775, "slack_id": "U091XDL1M7W", "display_name": "Tejas", "bio": null, "projects_count": 0, "devlogs_count": 0, "votes_count": 0, "ships_count": 0, "projects": [], "coding_time_seconds": 0, "coding_time_seconds_today": 0, "balance": "You need to have a pocket watcher badge to view this.", "badges": [], "created_at": "2025-06-18T13:03:03.565-04:00", "updated_at": "2025-07-03T19:49:19.708-04:00", "avatar": "https://secure.gravatar.com/avatar/408a42078685d9d5c771e70a3732f405.jpg?s=512&d=https%3A%2F%2Fa.slack-edge.com%2Fdf10d%2Fimg%2Favatars%2Fava_0026-512.png", "custom_css": null}, {"id": 8776, "slack_id": "U091M8PQJ7R", "display_name": "Salahudheen Thajudheen", "bio": null, "projects_count": 0, "devlogs_count": 0, "votes_count": 0, "ships_count": 0, "projects": [], "coding_time_seconds": 0, "coding_time_seconds_today": 0, "balance": "You need to have a pocket watcher badge to view this.", "badges": [], "created_at": "2025-06-18T13:03:19.659-04:00", "updated_at": "2025-07-03T19:49:19.968-04:00", "avatar": "https://secure.gravatar.com/avatar/7a3dd07b752a072dcf55ee708d546cd3.jpg?s=512&d=https%3A%2F%2Fa.slack-edge.com%2Fdf10d%2Fimg%2Favatars%2Fava_0017-512.png", "custom_css": null}, {"id": 8777, "slack_id": "U092QMQJMGQ", "display_name": "Formiga", "bio": null, "projects_count": 0, "devlogs_count": 0, "votes_count": 0, "ships_count": 0, "projects": [], "coding_time_seconds": 0, "coding_time_seconds_today": 0, "balance": "You need to have a pocket watcher badge to view this.", "badges": [], "created_at": "2025-06-18T13:04:13.480-04:00", "updated_at": "2025-07-05T02:09:52.608-04:00", "avatar": "https://secure.gravatar.com/avatar/27a46af555cb77f6b085524d9a7ad21f.jpg?s=512&d=https%3A%2F%2Fa.slack-edge.com%2Fdf10d%2Fimg%2Favatars%2Fava_0013-512.png", "custom_css": null}, {"id": 8778, "slack_id": "U091VUZHDPG", "display_name": "Ahad Channa", "bio": null, "projects_count": 0, "devlogs_count": 0, "votes_count": 0, "ships_count": 0, "projects": [], "coding_time_seconds": 104027, "coding_time_seconds_today": 0, "balance": "You need to have a pocket watcher badge to view this.", "badges": [], "created_at": "2025-06-18T13:04:39.366-04:00", "updated_at": "2025-07-03T21:58:56.721-04:00", "avatar": "https://secure.gravatar.com/avatar/b587d837d98ec28c138f1300e642b1ed.jpg?s=512&d=https%3A%2F%2Fa.slack-edge.com%2Fdf10d%2Fimg%2Favatars%2Fava_0012-512.png", "custom_css": null}, {"id": 8779, "slack_id": "U091VRFCJ5R", "display_name": "tonklasakritx", "bio": null, "projects_count": 0, "devlogs_count": 0, "votes_count": 0, "ships_count": 0, "projects": [], "coding_time_seconds": 35582, "coding_time_seconds_today": 0, "balance": "You need to have a pocket watcher badge to view this.", "badges": [], "created_at": "2025-06-18T13:06:55.894-04:00", "updated_at": "2025-07-03T19:49:20.511-04:00", "avatar": "https://secure.gravatar.com/avatar/b4ddebffbfa8e0515304d62619626090.jpg?s=512&d=https%3A%2F%2Fa.slack-edge.com%2Fdf10d%2Fimg%2Favatars%2Fava_0000-512.png", "custom_css": null}, {"id": 8780, "slack_id": "U04JK417U79", "display_name": "Upmanyu", "bio": null, "projects_count": 0, "devlogs_count": 0, "votes_count": 0, "ships_count": 0, "projects": [], "coding_time_seconds": 0, "coding_time_seconds_today": 0, "balance": "You need to have a pocket watcher badge to view this.", "badges": [], "created_at": "2025-06-18T13:07:21.086-04:00", "updated_at": "2025-07-03T19:49:20.772-04:00", "avatar": "https://secure.gravatar.com/avatar/85e9001145f1bdab6e0fdaf96ec2d3a8.jpg?s=512&d=https%3A%2F%2Fa.slack-edge.com%2Fdf10d%2Fimg%2Favatars%2Fava_0000-512.png", "custom_css": null}], "pagination": {"page": 439, "pages": 1192, "count": 23828, "items": 20}}