{"users": [{"id": 8801, "slack_id": "U091VTR01FD", "display_name": "abhinjadhav14", "bio": null, "projects_count": 1, "devlogs_count": 0, "votes_count": 0, "ships_count": 0, "projects": [{"id": 1396, "title": "Avoid the Enemies", "devlogs_count": 0, "created_at": "2025-06-18T13:30:58.173-04:00"}], "coding_time_seconds": 9037, "coding_time_seconds_today": 1865, "balance": "You need to have a pocket watcher badge to view this.", "badges": [], "created_at": "2025-06-18T13:20:58.706-04:00", "updated_at": "2025-07-03T19:49:25.972-04:00", "avatar": "https://secure.gravatar.com/avatar/596276464e35da91f86bb2b38af70fe3.jpg?s=512&d=https%3A%2F%2Fa.slack-edge.com%2Fdf10d%2Fimg%2Favatars%2Fava_0011-512.png", "custom_css": null}, {"id": 8802, "slack_id": "U08S0H2UQCX", "display_name": "Bhanu", "bio": null, "projects_count": 0, "devlogs_count": 0, "votes_count": 0, "ships_count": 0, "projects": [], "coding_time_seconds": 98042, "coding_time_seconds_today": 0, "balance": "You need to have a pocket watcher badge to view this.", "badges": [], "created_at": "2025-06-18T13:21:44.166-04:00", "updated_at": "2025-07-26T06:42:24.444-04:00", "avatar": "https://avatars.slack-edge.com/2025-07-26/9280834876352_ade6355fc710899ae975_original.jpg", "custom_css": null}, {"id": 8803, "slack_id": "U091VTYLWSX", "display_name": "David Nguyen", "bio": null, "projects_count": 0, "devlogs_count": 0, "votes_count": 0, "ships_count": 0, "projects": [], "coding_time_seconds": 2816, "coding_time_seconds_today": 0, "balance": "You need to have a pocket watcher badge to view this.", "badges": [], "created_at": "2025-06-18T13:22:18.498-04:00", "updated_at": "2025-07-03T19:49:26.404-04:00", "avatar": "https://secure.gravatar.com/avatar/caf366810412a1aa279a8cfe2bb346e9.jpg?s=512&d=https%3A%2F%2Fa.slack-edge.com%2Fdf10d%2Fimg%2Favatars%2Fava_0005-512.png", "custom_css": null}, {"id": 8804, "slack_id": "U091MC3TG7R", "display_name": "tontide1", "bio": null, "projects_count": 0, "devlogs_count": 0, "votes_count": 0, "ships_count": 0, "projects": [], "coding_time_seconds": 0, "coding_time_seconds_today": 0, "balance": "You need to have a pocket watcher badge to view this.", "badges": [], "created_at": "2025-06-18T13:22:36.937-04:00", "updated_at": "2025-07-03T21:46:58.814-04:00", "avatar": "https://secure.gravatar.com/avatar/51ee8fbe34d2d4831df93794f0f22280.jpg?s=512&d=https%3A%2F%2Fa.slack-edge.com%2Fdf10d%2Fimg%2Favatars%2Fava_0009-512.png", "custom_css": null}, {"id": 8805, "slack_id": "U092276N8V8", "display_name": "Moses", "bio": null, "projects_count": 0, "devlogs_count": 0, "votes_count": 0, "ships_count": 0, "projects": [], "coding_time_seconds": 0, "coding_time_seconds_today": 0, "balance": "You need to have a pocket watcher badge to view this.", "badges": [], "created_at": "2025-06-18T13:23:21.136-04:00", "updated_at": "2025-07-03T19:49:26.831-04:00", "avatar": "https://secure.gravatar.com/avatar/a9d1d79bf25fc0f15c23d8d6019fd9ad.jpg?s=512&d=https%3A%2F%2Fa.slack-edge.com%2Fdf10d%2Fimg%2Favatars%2Fava_0022-512.png", "custom_css": null}, {"id": 8806, "slack_id": "U07FN9Y0M63", "display_name": "Ronit Raj", "bio": null, "projects_count": 0, "devlogs_count": 0, "votes_count": 0, "ships_count": 0, "projects": [], "coding_time_seconds": 37153, "coding_time_seconds_today": 0, "balance": "You need to have a pocket watcher badge to view this.", "badges": [], "created_at": "2025-06-18T13:24:25.218-04:00", "updated_at": "2025-08-25T02:15:34.016-04:00", "avatar": "https://avatars.slack-edge.com/2024-08-08/7544005735477_b625403c629f3078f1e5_original.jpg", "custom_css": null}, {"id": 8807, "slack_id": "U091W1U45SS", "display_name": "ivv12", "bio": null, "projects_count": 0, "devlogs_count": 0, "votes_count": 0, "ships_count": 0, "projects": [], "coding_time_seconds": 215909, "coding_time_seconds_today": 0, "balance": "You need to have a pocket watcher badge to view this.", "badges": [], "created_at": "2025-06-18T13:25:08.134-04:00", "updated_at": "2025-07-05T02:09:54.461-04:00", "avatar": "https://secure.gravatar.com/avatar/25de57c65adf68ec7cfb37f80afb84ae.jpg?s=512&d=https%3A%2F%2Fa.slack-edge.com%2Fdf10d%2Fimg%2Favatars%2Fava_0025-512.png", "custom_css": null}, {"id": 8808, "slack_id": "U0920VCGYTF", "display_name": "Sharon Addae", "bio": null, "projects_count": 0, "devlogs_count": 0, "votes_count": 0, "ships_count": 0, "projects": [], "coding_time_seconds": 0, "coding_time_seconds_today": 0, "balance": "You need to have a pocket watcher badge to view this.", "badges": [], "created_at": "2025-06-18T13:25:15.436-04:00", "updated_at": "2025-07-03T19:49:27.511-04:00", "avatar": "https://avatars.slack-edge.com/2025-06-18/9083046380897_b0e76788616eaf88da74_original.png", "custom_css": null}, {"id": 8809, "slack_id": "U07UB9V16E9", "display_name": "Kashvik Gutha", "bio": null, "projects_count": 0, "devlogs_count": 0, "votes_count": 0, "ships_count": 0, "projects": [], "coding_time_seconds": 5926, "coding_time_seconds_today": 247, "balance": "You need to have a pocket watcher badge to view this.", "badges": [], "created_at": "2025-06-18T13:25:19.194-04:00", "updated_at": "2025-09-06T19:36:35.613-04:00", "avatar": "https://secure.gravatar.com/avatar/8b6e1c083cc783dd8a715d5f2af3a127.jpg?s=512&d=https%3A%2F%2Fa.slack-edge.com%2Fdf10d%2Fimg%2Favatars%2Fava_0012-512.png", "custom_css": null}, {"id": 8810, "slack_id": "U09210B6293", "display_name": "JOHANERIS SAYRIN AVALOS FERNANDEZ", "bio": null, "projects_count": 1, "devlogs_count": 3, "votes_count": 1, "ships_count": 0, "projects": [{"id": 4312, "title": "web", "devlogs_count": 3, "created_at": "2025-06-28T21:56:25.001-04:00"}], "coding_time_seconds": 214317, "coding_time_seconds_today": 0, "balance": "You need to have a pocket watcher badge to view this.", "badges": [], "created_at": "2025-06-18T13:25:43.404-04:00", "updated_at": "2025-09-03T11:39:07.762-04:00", "avatar": "https://avatars.slack-edge.com/2025-06-18/9070771480564_bde7bcdd8431fe1f4dd3_original.png", "custom_css": null}, {"id": 8811, "slack_id": "U091W2XLCKY", "display_name": "Saadullah Khan", "bio": null, "projects_count": 0, "devlogs_count": 0, "votes_count": 0, "ships_count": 0, "projects": [], "coding_time_seconds": 10285, "coding_time_seconds_today": 0, "balance": "You need to have a pocket watcher badge to view this.", "badges": [], "created_at": "2025-06-18T13:28:25.431-04:00", "updated_at": "2025-07-03T19:49:28.337-04:00", "avatar": "https://secure.gravatar.com/avatar/0097811a2a609a4b5b7c4104fb9d4e8e.jpg?s=512&d=https%3A%2F%2Fa.slack-edge.com%2Fdf10d%2Fimg%2Favatars%2Fava_0020-512.png", "custom_css": null}, {"id": 8812, "slack_id": "U091VV9TK99", "display_name": "Divine Akuburu", "bio": null, "projects_count": 0, "devlogs_count": 0, "votes_count": 0, "ships_count": 0, "projects": [], "coding_time_seconds": 0, "coding_time_seconds_today": 0, "balance": "You need to have a pocket watcher badge to view this.", "badges": [], "created_at": "2025-06-18T13:31:24.597-04:00", "updated_at": "2025-07-03T19:49:28.600-04:00", "avatar": "https://avatars.slack-edge.com/2025-06-18/9064150507174_f1fbf1cd639e099d4bde_original.png", "custom_css": null}, {"id": 8813, "slack_id": "U0922P76DK6", "display_name": "shabbir Abbas", "bio": null, "projects_count": 0, "devlogs_count": 0, "votes_count": 0, "ships_count": 0, "projects": [], "coding_time_seconds": 0, "coding_time_seconds_today": 0, "balance": "You need to have a pocket watcher badge to view this.", "badges": [], "created_at": "2025-06-18T13:32:05.947-04:00", "updated_at": "2025-07-05T20:10:13.876-04:00", "avatar": "https://secure.gravatar.com/avatar/3c3dd0e7fc414f41388f6e38ea8c8a62.jpg?s=512&d=https%3A%2F%2Fa.slack-edge.com%2Fdf10d%2Fimg%2Favatars%2Fava_0005-512.png", "custom_css": null}, {"id": 8814, "slack_id": "U092F20UU2D", "display_name": "I\u00f1aki Llorens", "bio": null, "projects_count": 0, "devlogs_count": 0, "votes_count": 0, "ships_count": 0, "projects": [], "coding_time_seconds": 0, "coding_time_seconds_today": 0, "balance": "You need to have a pocket watcher badge to view this.", "badges": [], "created_at": "2025-06-18T13:32:25.330-04:00", "updated_at": "2025-07-04T20:09:23.156-04:00", "avatar": "https://avatars.slack-edge.com/2025-06-18/9092913810064_9f5c9b91575fa5340022_original.jpg", "custom_css": null}, {"id": 8815, "slack_id": "U091MDM778F", "display_name": "Yuugoo", "bio": null, "projects_count": 1, "devlogs_count": 0, "votes_count": 0, "ships_count": 0, "projects": [{"id": 1661, "title": "florabit", "devlogs_count": 0, "created_at": "2025-06-19T00:42:06.793-04:00"}], "coding_time_seconds": 18408, "coding_time_seconds_today": 0, "balance": "You need to have a pocket watcher badge to view this.", "badges": [], "created_at": "2025-06-18T13:32:43.445-04:00", "updated_at": "2025-07-04T08:24:36.005-04:00", "avatar": "https://secure.gravatar.com/avatar/8bd756d847626bdb7aa1a406c828eaa3.jpg?s=512&d=https%3A%2F%2Fa.slack-edge.com%2Fdf10d%2Fimg%2Favatars%2Fava_0019-512.png", "custom_css": null}, {"id": 8816, "slack_id": "U08CU335HQU", "display_name": "Makerinator", "bio": null, "projects_count": 1, "devlogs_count": 0, "votes_count": 0, "ships_count": 0, "projects": [{"id": 1413, "title": "Portfolio", "devlogs_count": 0, "created_at": "2025-06-18T14:13:23.638-04:00"}], "coding_time_seconds": 6983, "coding_time_seconds_today": 0, "balance": "You need to have a pocket watcher badge to view this.", "badges": [], "created_at": "2025-06-18T13:32:56.653-04:00", "updated_at": "2025-07-03T19:49:29.271-04:00", "avatar": "https://avatars.slack-edge.com/2025-02-11/8446444982945_ce18022d9a8587056e50_original.png", "custom_css": null}, {"id": 8817, "slack_id": "U091VV5U2TV", "display_name": "abok-cymk", "bio": null, "projects_count": 0, "devlogs_count": 0, "votes_count": 0, "ships_count": 0, "projects": [], "coding_time_seconds": 0, "coding_time_seconds_today": 0, "balance": "You need to have a pocket watcher badge to view this.", "badges": [], "created_at": "2025-06-18T13:34:39.098-04:00", "updated_at": "2025-07-03T21:46:59.790-04:00", "avatar": "https://secure.gravatar.com/avatar/7cc2e43a8e0ce2a7edbe5ec3a676bdd5.jpg?s=512&d=https%3A%2F%2Fa.slack-edge.com%2Fdf10d%2Fimg%2Favatars%2Fava_0011-512.png", "custom_css": null}, {"id": 8818, "slack_id": "U091W0QMDRR", "display_name": "Daniel", "bio": null, "projects_count": 0, "devlogs_count": 0, "votes_count": 0, "ships_count": 0, "projects": [], "coding_time_seconds": 0, "coding_time_seconds_today": 0, "balance": "You need to have a pocket watcher badge to view this.", "badges": [], "created_at": "2025-06-18T13:34:43.615-04:00", "updated_at": "2025-07-05T20:10:14.214-04:00", "avatar": "https://secure.gravatar.com/avatar/a94d044f6cb3ce9e7e8030b5b99c782d.jpg?s=512&d=https%3A%2F%2Fa.slack-edge.com%2Fdf10d%2Fimg%2Favatars%2Fava_0009-512.png", "custom_css": null}, {"id": 8819, "slack_id": "U092QSR97UG", "display_name": "Hesh77", "bio": null, "projects_count": 0, "devlogs_count": 0, "votes_count": 0, "ships_count": 0, "projects": [], "coding_time_seconds": 0, "coding_time_seconds_today": 0, "balance": "You need to have a pocket watcher badge to view this.", "badges": [], "created_at": "2025-06-18T13:34:53.069-04:00", "updated_at": "2025-07-03T19:49:29.814-04:00", "avatar": "https://secure.gravatar.com/avatar/e8b85945f16ef099cdbfd51783d9d0c9.jpg?s=512&d=https%3A%2F%2Fa.slack-edge.com%2Fdf10d%2Fimg%2Favatars%2Fava_0012-512.png", "custom_css": null}, {"id": 8820, "slack_id": "U08RZ8M3LLF", "display_name": "jason", "bio": null, "projects_count": 0, "devlogs_count": 0, "votes_count": 1, "ships_count": 0, "projects": [], "coding_time_seconds": 5086, "coding_time_seconds_today": 0, "balance": "You need to have a pocket watcher badge to view this.", "badges": [], "created_at": "2025-06-18T13:35:57.735-04:00", "updated_at": "2025-07-05T09:26:35.021-04:00", "avatar": "https://avatars.slack-edge.com/2025-05-21/8955769677888_34108b8822e8b9933fa0_original.jpg", "custom_css": null}], "pagination": {"page": 441, "pages": 1192, "count": 23828, "items": 20}}