{"users": [{"id": 8841, "slack_id": "U06ULMCGT25", "display_name": "Nina", "bio": null, "projects_count": 0, "devlogs_count": 0, "votes_count": 0, "ships_count": 0, "projects": [], "coding_time_seconds": 0, "coding_time_seconds_today": 0, "balance": "You need to have a pocket watcher badge to view this.", "badges": [], "created_at": "2025-06-18T13:57:10.968-04:00", "updated_at": "2025-07-06T14:09:45.645-04:00", "avatar": "https://avatars.slack-edge.com/2024-06-02/7223280038001_9de9054a16ff083865aa_original.jpg", "custom_css": null}, {"id": 8842, "slack_id": "U091W75A1RU", "display_name": "Bruno Rog\u00e9rio Fernandes", "bio": null, "projects_count": 0, "devlogs_count": 0, "votes_count": 0, "ships_count": 0, "projects": [], "coding_time_seconds": 0, "coding_time_seconds_today": 0, "balance": "You need to have a pocket watcher badge to view this.", "badges": [], "created_at": "2025-06-18T13:58:18.781-04:00", "updated_at": "2025-07-03T19:49:35.144-04:00", "avatar": "https://secure.gravatar.com/avatar/6d3e79e0722de0c22c820916cfb3052f.jpg?s=512&d=https%3A%2F%2Fa.slack-edge.com%2Fdf10d%2Fimg%2Favatars%2Fava_0004-512.png", "custom_css": null}, {"id": 8843, "slack_id": "U092R11RT7S", "display_name": "Mahir", "bio": null, "projects_count": 0, "devlogs_count": 31, "votes_count": 0, "ships_count": 0, "projects": [], "coding_time_seconds": 485294, "coding_time_seconds_today": 6372, "balance": "You need to have a pocket watcher badge to view this.", "badges": [{"name": "Maiden Voyage", "text": "you shipped your first project! the journey begins...", "icon": "\ud83d\udea2"}, {"name": "Ballot Stuffer", "text": "vote 100 times.", "icon": "https://summer.hackclub.com/assets/i_voted-bf851b48.png"}], "created_at": "2025-06-18T13:58:59.326-04:00", "updated_at": "2025-09-10T22:55:32.303-04:00", "avatar": "https://avatars.slack-edge.com/2025-06-18/9069218555653_64421c821a5922300142_original.png", "custom_css": null}, {"id": 8844, "slack_id": "U0922C04WG2", "display_name": "Victoria Lamy", "bio": null, "projects_count": 1, "devlogs_count": 0, "votes_count": 0, "ships_count": 0, "projects": [{"id": 1412, "title": "Japan~", "devlogs_count": 0, "created_at": "2025-06-18T14:11:14.345-04:00"}], "coding_time_seconds": 17965, "coding_time_seconds_today": 0, "balance": "You need to have a pocket watcher badge to view this.", "badges": [], "created_at": "2025-06-18T13:59:15.052-04:00", "updated_at": "2025-07-03T19:49:35.546-04:00", "avatar": "https://avatars.slack-edge.com/2025-06-18/9069324247349_33e23eab6be153041226_original.jpg", "custom_css": null}, {"id": 8845, "slack_id": "U092F6HFF41", "display_name": "Parth Gupta", "bio": null, "projects_count": 0, "devlogs_count": 0, "votes_count": 0, "ships_count": 0, "projects": [], "coding_time_seconds": 0, "coding_time_seconds_today": 0, "balance": "You need to have a pocket watcher badge to view this.", "badges": [], "created_at": "2025-06-18T13:59:17.993-04:00", "updated_at": "2025-07-03T19:49:35.814-04:00", "avatar": "https://avatars.slack-edge.com/2025-06-18/9070952530180_fdf4f8bd4bbe24e57d3f_original.jpg", "custom_css": null}, {"id": 8846, "slack_id": "U091W2U2067", "display_name": "fyrot", "bio": null, "projects_count": 1, "devlogs_count": 3, "votes_count": 0, "ships_count": 0, "projects": [{"id": 4961, "title": "Rhymx", "devlogs_count": 3, "created_at": "2025-07-02T12:12:45.024-04:00"}], "coding_time_seconds": 277122, "coding_time_seconds_today": 0, "balance": "You need to have a pocket watcher badge to view this.", "badges": [], "created_at": "2025-06-18T13:59:27.631-04:00", "updated_at": "2025-07-03T19:49:36.080-04:00", "avatar": "https://secure.gravatar.com/avatar/62c5ecd1eff4d11a47af9572e336a7bc.jpg?s=512&d=https%3A%2F%2Fa.slack-edge.com%2Fdf10d%2Fimg%2Favatars%2Fava_0009-512.png", "custom_css": null}, {"id": 8847, "slack_id": "U092F6KN8AD", "display_name": "WaizHaider", "bio": null, "projects_count": 0, "devlogs_count": 0, "votes_count": 0, "ships_count": 0, "projects": [], "coding_time_seconds": 0, "coding_time_seconds_today": 0, "balance": "You need to have a pocket watcher badge to view this.", "badges": [], "created_at": "2025-06-18T13:59:32.317-04:00", "updated_at": "2025-07-05T02:09:56.910-04:00", "avatar": "https://secure.gravatar.com/avatar/89788b17bdba58106417d0521da4b32a.jpg?s=512&d=https%3A%2F%2Fa.slack-edge.com%2Fdf10d%2Fimg%2Favatars%2Fava_0002-512.png", "custom_css": null}, {"id": 8848, "slack_id": "U092F70HAHF", "display_name": "Micha\u0142 Romaszewski", "bio": null, "projects_count": 0, "devlogs_count": 0, "votes_count": 0, "ships_count": 0, "projects": [], "coding_time_seconds": 0, "coding_time_seconds_today": 0, "balance": "You need to have a pocket watcher badge to view this.", "badges": [], "created_at": "2025-06-18T14:00:39.133-04:00", "updated_at": "2025-07-03T19:49:36.478-04:00", "avatar": "https://secure.gravatar.com/avatar/0f416ce8269912b4d91929f643b30e80.jpg?s=512&d=https%3A%2F%2Fa.slack-edge.com%2Fdf10d%2Fimg%2Favatars%2Fava_0020-512.png", "custom_css": null}, {"id": 8849, "slack_id": "U08KURZKZ9P", "display_name": "Paper78", "bio": null, "projects_count": 1, "devlogs_count": 0, "votes_count": 0, "ships_count": 0, "projects": [{"id": 4575, "title": "World quiz", "devlogs_count": 0, "created_at": "2025-06-30T18:05:58.894-04:00"}], "coding_time_seconds": 133988, "coding_time_seconds_today": 0, "balance": "You need to have a pocket watcher badge to view this.", "badges": [], "created_at": "2025-06-18T14:04:02.989-04:00", "updated_at": "2025-07-03T19:49:36.744-04:00", "avatar": "https://secure.gravatar.com/avatar/92052b8830035475a8c53b5af52eefac.jpg?s=512&d=https%3A%2F%2Fa.slack-edge.com%2Fdf10d%2Fimg%2Favatars%2Fava_0009-512.png", "custom_css": null}, {"id": 8850, "slack_id": "U091MK96MLP", "display_name": "Simon", "bio": null, "projects_count": 1, "devlogs_count": 2, "votes_count": 21, "ships_count": 0, "projects": [{"id": 12449, "title": "Throw the rock", "devlogs_count": 2, "created_at": "2025-08-27T17:59:09.944-04:00"}], "coding_time_seconds": 96795, "coding_time_seconds_today": 0, "balance": "You need to have a pocket watcher badge to view this.", "badges": [], "created_at": "2025-06-18T14:04:29.162-04:00", "updated_at": "2025-08-25T11:24:46.072-04:00", "avatar": "https://secure.gravatar.com/avatar/0b4cefff1add9dc6229cf0bddfc55416.jpg?s=512&d=https%3A%2F%2Fa.slack-edge.com%2Fdf10d%2Fimg%2Favatars%2Fava_0010-512.png", "custom_css": null}, {"id": 8851, "slack_id": "U092F7D8J8Z", "display_name": "Atanu", "bio": null, "projects_count": 1, "devlogs_count": 2, "votes_count": 1, "ships_count": 0, "projects": [{"id": 5965, "title": "Health care fraud detection ", "devlogs_count": 2, "created_at": "2025-07-09T12:51:40.104-04:00"}], "coding_time_seconds": 102546, "coding_time_seconds_today": 0, "balance": "You need to have a pocket watcher badge to view this.", "badges": [], "created_at": "2025-06-18T14:05:18.398-04:00", "updated_at": "2025-08-13T02:24:46.893-04:00", "avatar": "https://secure.gravatar.com/avatar/f43b7dd30d49b4b060a89e281b488f58.jpg?s=512&d=https%3A%2F%2Fa.slack-edge.com%2Fdf10d%2Fimg%2Favatars%2Fava_0001-512.png", "custom_css": null}, {"id": 8852, "slack_id": "U091W5NAPMH", "display_name": "Harsh Kori", "bio": null, "projects_count": 0, "devlogs_count": 0, "votes_count": 0, "ships_count": 0, "projects": [], "coding_time_seconds": 0, "coding_time_seconds_today": 0, "balance": "You need to have a pocket watcher badge to view this.", "badges": [], "created_at": "2025-06-18T14:05:58.258-04:00", "updated_at": "2025-07-03T19:49:37.331-04:00", "avatar": "https://secure.gravatar.com/avatar/dd6d54b8b8e638ce2cdfd02ebbd7dbdd.jpg?s=512&d=https%3A%2F%2Fa.slack-edge.com%2Fdf10d%2Fimg%2Favatars%2Fava_0014-512.png", "custom_css": null}, {"id": 8853, "slack_id": "U0922UZJE92", "display_name": "Sarah", "bio": null, "projects_count": 0, "devlogs_count": 0, "votes_count": 0, "ships_count": 0, "projects": [], "coding_time_seconds": 0, "coding_time_seconds_today": 0, "balance": "You need to have a pocket watcher badge to view this.", "badges": [], "created_at": "2025-06-18T14:06:21.623-04:00", "updated_at": "2025-07-03T19:49:37.593-04:00", "avatar": "https://secure.gravatar.com/avatar/487f801e050599af75c1e67cf3defcac.jpg?s=512&d=https%3A%2F%2Fa.slack-edge.com%2Fdf10d%2Fimg%2Favatars%2Fava_0016-512.png", "custom_css": null}, {"id": 8854, "slack_id": "U091W9Q2ZK8", "display_name": "Cameron Virtue", "bio": null, "projects_count": 0, "devlogs_count": 0, "votes_count": 0, "ships_count": 0, "projects": [], "coding_time_seconds": 0, "coding_time_seconds_today": 0, "balance": "You need to have a pocket watcher badge to view this.", "badges": [], "created_at": "2025-06-18T14:07:00.439-04:00", "updated_at": "2025-07-03T21:59:02.111-04:00", "avatar": "https://avatars.slack-edge.com/2025-06-18/9064220520675_2c54ba1205b208336efd_original.png", "custom_css": null}, {"id": 8855, "slack_id": "U092R2SAWQ0", "display_name": "hackerman123", "bio": null, "projects_count": 0, "devlogs_count": 0, "votes_count": 0, "ships_count": 0, "projects": [], "coding_time_seconds": 0, "coding_time_seconds_today": 0, "balance": "You need to have a pocket watcher badge to view this.", "badges": [], "created_at": "2025-06-18T14:07:35.077-04:00", "updated_at": "2025-07-03T19:49:38.005-04:00", "avatar": "https://secure.gravatar.com/avatar/2fe41f31bcc4b4329f89bef699853fe1.jpg?s=512&d=https%3A%2F%2Fa.slack-edge.com%2Fdf10d%2Fimg%2Favatars%2Fava_0025-512.png", "custom_css": null}, {"id": 8856, "slack_id": "U092R31L40Y", "display_name": "Zaamaloid", "bio": null, "projects_count": 0, "devlogs_count": 0, "votes_count": 0, "ships_count": 0, "projects": [], "coding_time_seconds": 0, "coding_time_seconds_today": 0, "balance": "You need to have a pocket watcher badge to view this.", "badges": [], "created_at": "2025-06-18T14:08:15.653-04:00", "updated_at": "2025-07-03T19:49:38.276-04:00", "avatar": "https://secure.gravatar.com/avatar/acaf6f6d65a4fb84e729607a853887fc.jpg?s=512&d=https%3A%2F%2Fa.slack-edge.com%2Fdf10d%2Fimg%2Favatars%2Fava_0014-512.png", "custom_css": null}, {"id": 8857, "slack_id": "U0922V384CU", "display_name": "LeNooby09", "bio": null, "projects_count": 4, "devlogs_count": 3, "votes_count": 0, "ships_count": 1, "projects": [{"id": 1446, "title": "My Site", "devlogs_count": 1, "created_at": "2025-06-18T15:00:25.016-04:00"}, {"id": 2631, "title": "Kotlin Inf-Dev", "devlogs_count": 0, "created_at": "2025-06-21T14:06:55.909-04:00"}, {"id": 2670, "title": "ascii text corruptor", "devlogs_count": 1, "created_at": "2025-06-21T16:06:36.250-04:00"}, {"id": 5508, "title": "ProtonVPN linux natpmpc wraper", "devlogs_count": 1, "created_at": "2025-07-05T20:19:03.601-04:00"}], "coding_time_seconds": 196360, "coding_time_seconds_today": 0, "balance": "You need to have a pocket watcher badge to view this.", "badges": [{"name": "Maiden Voyage", "text": "you shipped your first project! the journey begins...", "icon": "\ud83d\udea2"}], "created_at": "2025-06-18T14:08:30.690-04:00", "updated_at": "2025-09-10T22:55:32.692-04:00", "avatar": "https://avatars.slack-edge.com/2025-06-20/9079704930962_945374e784df39d81eaf_original.jpg", "custom_css": null}, {"id": 8858, "slack_id": "U092R34D516", "display_name": "Oscar Yeung", "bio": null, "projects_count": 0, "devlogs_count": 0, "votes_count": 0, "ships_count": 0, "projects": [], "coding_time_seconds": 0, "coding_time_seconds_today": 0, "balance": "You need to have a pocket watcher badge to view this.", "badges": [], "created_at": "2025-06-18T14:08:53.391-04:00", "updated_at": "2025-07-03T21:47:02.687-04:00", "avatar": "https://secure.gravatar.com/avatar/56dbae22041d7a484ce36e2758b6aea8.jpg?s=512&d=https%3A%2F%2Fa.slack-edge.com%2Fdf10d%2Fimg%2Favatars%2Fava_0001-512.png", "custom_css": null}, {"id": 8859, "slack_id": "U091W9ZTJ3Y", "display_name": "Kristopher Moxley", "bio": null, "projects_count": 0, "devlogs_count": 0, "votes_count": 0, "ships_count": 0, "projects": [], "coding_time_seconds": 0, "coding_time_seconds_today": 0, "balance": "You need to have a pocket watcher badge to view this.", "badges": [], "created_at": "2025-06-18T14:08:56.117-04:00", "updated_at": "2025-07-03T19:49:38.930-04:00", "avatar": "https://secure.gravatar.com/avatar/d77c79f3cea20e1a1fe4a6ea2ff4910d.jpg?s=512&d=https%3A%2F%2Fa.slack-edge.com%2Fdf10d%2Fimg%2Favatars%2Fava_0017-512.png", "custom_css": null}, {"id": 8860, "slack_id": "U092F8Q5LKT", "display_name": "ninjawarrior", "bio": null, "projects_count": 0, "devlogs_count": 0, "votes_count": 0, "ships_count": 0, "projects": [], "coding_time_seconds": 0, "coding_time_seconds_today": 0, "balance": "You need to have a pocket watcher badge to view this.", "badges": [], "created_at": "2025-06-18T14:09:25.980-04:00", "updated_at": "2025-07-03T19:49:39.188-04:00", "avatar": "https://secure.gravatar.com/avatar/2a8752b487a80c26f50fa591bedd4f7a.jpg?s=512&d=https%3A%2F%2Fa.slack-edge.com%2Fdf10d%2Fimg%2Favatars%2Fava_0026-512.png", "custom_css": null}], "pagination": {"page": 443, "pages": 1192, "count": 23828, "items": 20}}