{"users": [{"id": 8861, "slack_id": "U091P2H4ZHR", "display_name": "ElectricSteve", "bio": null, "projects_count": 4, "devlogs_count": 19, "votes_count": 25, "ships_count": 1, "projects": [{"id": 6834, "title": "Mob Biscuits", "devlogs_count": 8, "created_at": "2025-07-16T17:30:49.648-04:00"}, {"id": 9891, "title": "Five Towers", "devlogs_count": 4, "created_at": "2025-08-02T17:09:40.408-04:00"}, {"id": 12815, "title": "Lubach Calendar", "devlogs_count": 1, "created_at": "2025-09-03T05:34:57.440-04:00"}, {"id": 3987, "title": "UploadImch", "devlogs_count": 6, "created_at": "2025-06-26T17:29:56.218-04:00"}], "coding_time_seconds": 140490, "coding_time_seconds_today": 0, "balance": "You need to have a pocket watcher badge to view this.", "badges": [{"name": "Maiden Voyage", "text": "you shipped your first project! the journey begins...", "icon": "\ud83d\udea2"}], "created_at": "2025-06-18T14:10:42.394-04:00", "updated_at": "2025-09-10T22:55:32.829-04:00", "avatar": "https://secure.gravatar.com/avatar/81f79d3cc184fa18fb8f21960033bd9d.jpg?s=512&d=https%3A%2F%2Fa.slack-edge.com%2Fdf10d%2Fimg%2Favatars%2Fava_0016-512.png", "custom_css": null}, {"id": 8862, "slack_id": "U092F8UB2D7", "display_name": "YukiShidori", "bio": null, "projects_count": 0, "devlogs_count": 0, "votes_count": 0, "ships_count": 0, "projects": [], "coding_time_seconds": 44298, "coding_time_seconds_today": 0, "balance": "You need to have a pocket watcher badge to view this.", "badges": [], "created_at": "2025-06-18T14:10:51.313-04:00", "updated_at": "2025-07-03T19:49:39.720-04:00", "avatar": "https://secure.gravatar.com/avatar/cc497d9e95ed3f4580e3129ef77689cd.jpg?s=512&d=https%3A%2F%2Fa.slack-edge.com%2Fdf10d%2Fimg%2Favatars%2Fava_0015-512.png", "custom_css": null}, {"id": 8863, "slack_id": "U0922838LQH", "display_name": "Matheus Hipolito Carvalho", "bio": null, "projects_count": 0, "devlogs_count": 0, "votes_count": 0, "ships_count": 0, "projects": [], "coding_time_seconds": 0, "coding_time_seconds_today": 0, "balance": "You need to have a pocket watcher badge to view this.", "badges": [], "created_at": "2025-06-18T14:10:58.066-04:00", "updated_at": "2025-07-03T19:49:39.987-04:00", "avatar": "https://avatars.slack-edge.com/2025-06-18/9070530279282_6784bd0f5604d4d7347f_original.jpg", "custom_css": null}, {"id": 8864, "slack_id": "U091W6RNH99", "display_name": "Thomas", "bio": null, "projects_count": 0, "devlogs_count": 0, "votes_count": 0, "ships_count": 0, "projects": [], "coding_time_seconds": 0, "coding_time_seconds_today": 0, "balance": "You need to have a pocket watcher badge to view this.", "badges": [], "created_at": "2025-06-18T14:13:15.953-04:00", "updated_at": "2025-07-03T19:49:40.359-04:00", "avatar": "https://secure.gravatar.com/avatar/2d27afa9fb7b9fa031b54e2a32d9211b.jpg?s=512&d=https%3A%2F%2Fa.slack-edge.com%2Fdf10d%2Fimg%2Favatars%2Fava_0000-512.png", "custom_css": null}, {"id": 8865, "slack_id": "U091MLX94Q7", "display_name": "Ash", "bio": null, "projects_count": 1, "devlogs_count": 1, "votes_count": 0, "ships_count": 0, "projects": [{"id": 1439, "title": "Fruitlands Alpha", "devlogs_count": 1, "created_at": "2025-06-18T14:53:20.592-04:00"}], "coding_time_seconds": 3809, "coding_time_seconds_today": 0, "balance": "You need to have a pocket watcher badge to view this.", "badges": [], "created_at": "2025-06-18T14:14:41.536-04:00", "updated_at": "2025-07-03T21:59:02.997-04:00", "avatar": "https://secure.gravatar.com/avatar/f2a832252539bfd5bc250c65b41388a4.jpg?s=512&d=https%3A%2F%2Fa.slack-edge.com%2Fdf10d%2Fimg%2Favatars%2Fava_0026-512.png", "custom_css": null}, {"id": 8866, "slack_id": "U091Q0YGZPC", "display_name": "Rafa", "bio": null, "projects_count": 0, "devlogs_count": 0, "votes_count": 0, "ships_count": 0, "projects": [], "coding_time_seconds": 0, "coding_time_seconds_today": 0, "balance": "You need to have a pocket watcher badge to view this.", "badges": [], "created_at": "2025-06-18T14:16:21.571-04:00", "updated_at": "2025-07-03T19:49:40.763-04:00", "avatar": "https://secure.gravatar.com/avatar/8cfb4769f8311977bca09240adf9fa38.jpg?s=512&d=https%3A%2F%2Fa.slack-edge.com%2Fdf10d%2Fimg%2Favatars%2Fava_0021-512.png", "custom_css": null}, {"id": 8867, "slack_id": "U092R488CV6", "display_name": "Parth", "bio": null, "projects_count": 0, "devlogs_count": 0, "votes_count": 0, "ships_count": 0, "projects": [], "coding_time_seconds": 0, "coding_time_seconds_today": 0, "balance": "You need to have a pocket watcher badge to view this.", "badges": [], "created_at": "2025-06-18T14:16:31.714-04:00", "updated_at": "2025-07-03T19:49:41.034-04:00", "avatar": "https://secure.gravatar.com/avatar/7214402d103e5db2ed3af63299206705.jpg?s=512&d=https%3A%2F%2Fa.slack-edge.com%2Fdf10d%2Fimg%2Favatars%2Fava_0007-512.png", "custom_css": null}, {"id": 8868, "slack_id": "U092F9UENCR", "display_name": "Nanja Tandre", "bio": null, "projects_count": 0, "devlogs_count": 0, "votes_count": 0, "ships_count": 0, "projects": [], "coding_time_seconds": 0, "coding_time_seconds_today": 0, "balance": "You need to have a pocket watcher badge to view this.", "badges": [], "created_at": "2025-06-18T14:17:10.986-04:00", "updated_at": "2025-07-04T08:24:40.603-04:00", "avatar": "https://secure.gravatar.com/avatar/bc594598054de936434be4bc9b74b179.jpg?s=512&d=https%3A%2F%2Fa.slack-edge.com%2Fdf10d%2Fimg%2Favatars%2Fava_0013-512.png", "custom_css": null}, {"id": 8869, "slack_id": "U092R2TE7HN", "display_name": "Abhijay Ahuja", "bio": null, "projects_count": 0, "devlogs_count": 0, "votes_count": 0, "ships_count": 0, "projects": [], "coding_time_seconds": 0, "coding_time_seconds_today": 0, "balance": "You need to have a pocket watcher badge to view this.", "badges": [], "created_at": "2025-06-18T14:17:36.806-04:00", "updated_at": "2025-07-03T19:49:41.439-04:00", "avatar": "https://secure.gravatar.com/avatar/a5ea7c6cd98ae2cf4c39b428c741c62a.jpg?s=512&d=https%3A%2F%2Fa.slack-edge.com%2Fdf10d%2Fimg%2Favatars%2Fava_0003-512.png", "custom_css": null}, {"id": 8870, "slack_id": "U092312Q2AY", "display_name": "Bidintha Machahary", "bio": null, "projects_count": 0, "devlogs_count": 0, "votes_count": 0, "ships_count": 0, "projects": [], "coding_time_seconds": 0, "coding_time_seconds_today": 0, "balance": "You need to have a pocket watcher badge to view this.", "badges": [], "created_at": "2025-06-18T14:17:39.341-04:00", "updated_at": "2025-07-03T19:49:42.195-04:00", "avatar": "https://secure.gravatar.com/avatar/8c63b765b64e33619fd09583106a7698.jpg?s=512&d=https%3A%2F%2Fa.slack-edge.com%2Fdf10d%2Fimg%2Favatars%2Fava_0002-512.png", "custom_css": null}, {"id": 8871, "slack_id": "U0902K21031", "display_name": "Lincoln", "bio": null, "projects_count": 2, "devlogs_count": 6, "votes_count": 0, "ships_count": 0, "projects": [{"id": 1536, "title": "The Foundry", "devlogs_count": 1, "created_at": "2025-06-18T17:44:47.577-04:00"}, {"id": 2158, "title": "Rogupong", "devlogs_count": 5, "created_at": "2025-06-20T10:25:54.722-04:00"}], "coding_time_seconds": 64921, "coding_time_seconds_today": 0, "balance": "You need to have a pocket watcher badge to view this.", "badges": [], "created_at": "2025-06-18T14:19:01.010-04:00", "updated_at": "2025-07-03T19:49:42.459-04:00", "avatar": "https://secure.gravatar.com/avatar/bffb9241db17e3c363c5efe0a5e90a84.jpg?s=512&d=https%3A%2F%2Fa.slack-edge.com%2Fdf10d%2Fimg%2Favatars%2Fava_0002-512.png", "custom_css": null}, {"id": 8872, "slack_id": "U092R48G7HN", "display_name": "omar ibrahim", "bio": null, "projects_count": 0, "devlogs_count": 0, "votes_count": 0, "ships_count": 0, "projects": [], "coding_time_seconds": 0, "coding_time_seconds_today": 0, "balance": "You need to have a pocket watcher badge to view this.", "badges": [], "created_at": "2025-06-18T14:19:33.672-04:00", "updated_at": "2025-07-05T02:09:58.682-04:00", "avatar": "https://secure.gravatar.com/avatar/271d5eebb311d3057ce1519d44b8bda5.jpg?s=512&d=https%3A%2F%2Fa.slack-edge.com%2Fdf10d%2Fimg%2Favatars%2Fava_0017-512.png", "custom_css": null}, {"id": 8873, "slack_id": "U0922GMGGTU", "display_name": "JGJ52", "bio": null, "projects_count": 3, "devlogs_count": 6, "votes_count": 9, "ships_count": 0, "projects": [{"id": 11779, "title": "GIF-Sharer", "devlogs_count": 0, "created_at": "2025-08-19T12:55:37.267-04:00"}, {"id": 12355, "title": "Minecraft Server Panel", "devlogs_count": 6, "created_at": "2025-08-26T06:21:44.999-04:00"}, {"id": 12889, "title": "Music Player", "devlogs_count": 0, "created_at": "2025-09-04T13:04:14.342-04:00"}], "coding_time_seconds": 100723, "coding_time_seconds_today": 1016, "balance": "You need to have a pocket watcher badge to view this.", "badges": [], "created_at": "2025-06-18T14:19:39.179-04:00", "updated_at": "2025-08-13T05:49:04.832-04:00", "avatar": "https://secure.gravatar.com/avatar/62d705fba795183c2ed0cba90f524941.jpg?s=512&d=https%3A%2F%2Fa.slack-edge.com%2Fdf10d%2Fimg%2Favatars%2Fava_0021-512.png", "custom_css": null}, {"id": 8874, "slack_id": "U091WBXJ59C", "display_name": "Supraja Aravamudhan", "bio": null, "projects_count": 0, "devlogs_count": 0, "votes_count": 0, "ships_count": 0, "projects": [], "coding_time_seconds": 31265, "coding_time_seconds_today": 0, "balance": "You need to have a pocket watcher badge to view this.", "badges": [], "created_at": "2025-06-18T14:20:48.594-04:00", "updated_at": "2025-07-03T19:49:43.129-04:00", "avatar": "https://secure.gravatar.com/avatar/e8ff498c4a105507535123f5abdc5715.jpg?s=512&d=https%3A%2F%2Fa.slack-edge.com%2Fdf10d%2Fimg%2Favatars%2Fava_0017-512.png", "custom_css": null}, {"id": 8875, "slack_id": "U092R5ALE8G", "display_name": "Guus", "bio": null, "projects_count": 0, "devlogs_count": 0, "votes_count": 0, "ships_count": 0, "projects": [], "coding_time_seconds": 16157, "coding_time_seconds_today": 0, "balance": "You need to have a pocket watcher badge to view this.", "badges": [], "created_at": "2025-06-18T14:22:32.036-04:00", "updated_at": "2025-07-03T21:47:03.758-04:00", "avatar": "https://secure.gravatar.com/avatar/766f6878557095358c6e09f3c59b8a34.jpg?s=512&d=https%3A%2F%2Fa.slack-edge.com%2Fdf10d%2Fimg%2Favatars%2Fava_0010-512.png", "custom_css": null}, {"id": 8876, "slack_id": "U092A2PHBDX", "display_name": "sai.d", "bio": null, "projects_count": 0, "devlogs_count": 0, "votes_count": 1, "ships_count": 0, "projects": [], "coding_time_seconds": 403, "coding_time_seconds_today": 0, "balance": "You need to have a pocket watcher badge to view this.", "badges": [], "created_at": "2025-06-18T14:22:55.422-04:00", "updated_at": "2025-07-28T02:16:59.474-04:00", "avatar": "https://secure.gravatar.com/avatar/b9721cfb8a6e018d5fbe7ca78715891a.jpg?s=512&d=https%3A%2F%2Fa.slack-edge.com%2Fdf10d%2Fimg%2Favatars%2Fava_0009-512.png", "custom_css": null}, {"id": 8877, "slack_id": "U092E008ZG9", "display_name": "Mohammad Sayem Chowdhury", "bio": null, "projects_count": 0, "devlogs_count": 0, "votes_count": 0, "ships_count": 0, "projects": [], "coding_time_seconds": 490749, "coding_time_seconds_today": 0, "balance": "You need to have a pocket watcher badge to view this.", "badges": [], "created_at": "2025-06-18T14:24:26.774-04:00", "updated_at": "2025-07-03T19:49:43.873-04:00", "avatar": "https://avatars.slack-edge.com/2025-06-18/9055776123303_eec385a27488f4bedb27_original.jpg", "custom_css": null}, {"id": 8878, "slack_id": "U08QN1JBN5Q", "display_name": "sankalp", "bio": null, "projects_count": 0, "devlogs_count": 0, "votes_count": 0, "ships_count": 0, "projects": [], "coding_time_seconds": 0, "coding_time_seconds_today": 0, "balance": "You need to have a pocket watcher badge to view this.", "badges": [], "created_at": "2025-06-18T14:24:48.560-04:00", "updated_at": "2025-07-03T19:49:44.126-04:00", "avatar": "https://secure.gravatar.com/avatar/eda0ace6c9970feca9c7d25825674260.jpg?s=512&d=https%3A%2F%2Fa.slack-edge.com%2Fdf10d%2Fimg%2Favatars%2Fava_0023-512.png", "custom_css": null}, {"id": 8879, "slack_id": "U0922GZ3HCJ", "display_name": "pramesh", "bio": null, "projects_count": 0, "devlogs_count": 0, "votes_count": 0, "ships_count": 0, "projects": [], "coding_time_seconds": 0, "coding_time_seconds_today": 0, "balance": "You need to have a pocket watcher badge to view this.", "badges": [], "created_at": "2025-06-18T14:24:59.436-04:00", "updated_at": "2025-07-04T02:28:24.943-04:00", "avatar": "https://secure.gravatar.com/avatar/ffaeee804c9b2f7d9646120f5ca23f12.jpg?s=512&d=https%3A%2F%2Fa.slack-edge.com%2Fdf10d%2Fimg%2Favatars%2Fava_0005-512.png", "custom_css": null}, {"id": 8880, "slack_id": "U091TB430Q2", "display_name": "Soumaditya", "bio": null, "projects_count": 0, "devlogs_count": 0, "votes_count": 0, "ships_count": 0, "projects": [], "coding_time_seconds": 0, "coding_time_seconds_today": 0, "balance": "You need to have a pocket watcher badge to view this.", "badges": [], "created_at": "2025-06-18T14:26:15.845-04:00", "updated_at": "2025-07-03T19:49:44.527-04:00", "avatar": "https://secure.gravatar.com/avatar/84116860caf4c01cbf3c46a53f45bf12.jpg?s=512&d=https%3A%2F%2Fa.slack-edge.com%2Fdf10d%2Fimg%2Favatars%2Fava_0002-512.png", "custom_css": null}], "pagination": {"page": 444, "pages": 1192, "count": 23828, "items": 20}}