{"users": [{"id": 8881, "slack_id": "U091WCY8KCN", "display_name": "Purushotham Kurchavati", "bio": "", "projects_count": 0, "devlogs_count": 0, "votes_count": 0, "ships_count": 0, "projects": [], "coding_time_seconds": 2043, "coding_time_seconds_today": 0, "balance": "You need to have a pocket watcher badge to view this.", "badges": [], "created_at": "2025-06-18T14:28:10.382-04:00", "updated_at": "2025-08-05T09:20:11.136-04:00", "avatar": "https://secure.gravatar.com/avatar/ea8168caf2bcb9ae7aa5470a44ab9f57.jpg?s=512&d=https%3A%2F%2Fa.slack-edge.com%2Fdf10d%2Fimg%2Favatars%2Fava_0019-512.png", "custom_css": null}, {"id": 8882, "slack_id": "U08SVD1U8PP", "display_name": "mekupelet", "bio": null, "projects_count": 0, "devlogs_count": 0, "votes_count": 0, "ships_count": 0, "projects": [], "coding_time_seconds": 102427, "coding_time_seconds_today": 120, "balance": "You need to have a pocket watcher badge to view this.", "badges": [], "created_at": "2025-06-18T14:29:24.107-04:00", "updated_at": "2025-07-03T19:49:45.072-04:00", "avatar": "https://secure.gravatar.com/avatar/bbe692657cfa69674cff56929906ca4f.jpg?s=512&d=https%3A%2F%2Fa.slack-edge.com%2Fdf10d%2Fimg%2Favatars%2Fava_0010-512.png", "custom_css": null}, {"id": 8883, "slack_id": "U091W9C9ASF", "display_name": "Josue Martins", "bio": null, "projects_count": 0, "devlogs_count": 0, "votes_count": 0, "ships_count": 0, "projects": [], "coding_time_seconds": 0, "coding_time_seconds_today": 0, "balance": "You need to have a pocket watcher badge to view this.", "badges": [], "created_at": "2025-06-18T14:29:28.610-04:00", "updated_at": "2025-07-03T19:49:45.370-04:00", "avatar": "https://secure.gravatar.com/avatar/ad941f87f8c3919e22da5d17ff4d4513.jpg?s=512&d=https%3A%2F%2Fa.slack-edge.com%2Fdf10d%2Fimg%2Favatars%2Fava_0000-512.png", "custom_css": null}, {"id": 8884, "slack_id": "U0918S427QX", "display_name": "Ashutosh Singh", "bio": null, "projects_count": 0, "devlogs_count": 0, "votes_count": 0, "ships_count": 0, "projects": [], "coding_time_seconds": 0, "coding_time_seconds_today": 0, "balance": "You need to have a pocket watcher badge to view this.", "badges": [], "created_at": "2025-06-18T14:31:03.256-04:00", "updated_at": "2025-07-03T19:49:45.635-04:00", "avatar": "https://secure.gravatar.com/avatar/89cfb5a3cf191cced1e2c50c35a23231.jpg?s=512&d=https%3A%2F%2Fa.slack-edge.com%2Fdf10d%2Fimg%2Favatars%2Fava_0004-512.png", "custom_css": null}, {"id": 8885, "slack_id": "U091F905SR5", "display_name": "cesar", "bio": null, "projects_count": 0, "devlogs_count": 0, "votes_count": 0, "ships_count": 0, "projects": [], "coding_time_seconds": 0, "coding_time_seconds_today": 0, "balance": "You need to have a pocket watcher badge to view this.", "badges": [], "created_at": "2025-06-18T14:31:26.976-04:00", "updated_at": "2025-07-03T19:49:45.910-04:00", "avatar": "https://secure.gravatar.com/avatar/4157e24cfeb7e6978bd6c4fb638d7ada.jpg?s=512&d=https%3A%2F%2Fa.slack-edge.com%2Fdf10d%2Fimg%2Favatars%2Fava_0025-512.png", "custom_css": null}, {"id": 8886, "slack_id": "U082JLMUC81", "display_name": "Nano", "bio": null, "projects_count": 0, "devlogs_count": 0, "votes_count": 0, "ships_count": 0, "projects": [], "coding_time_seconds": 0, "coding_time_seconds_today": 0, "balance": "You need to have a pocket watcher badge to view this.", "badges": [], "created_at": "2025-06-18T14:32:34.960-04:00", "updated_at": "2025-07-03T19:49:46.170-04:00", "avatar": "https://secure.gravatar.com/avatar/c93452870c7be8888afd83c5a7bf1531.jpg?s=512&d=https%3A%2F%2Fa.slack-edge.com%2Fdf10d%2Fimg%2Favatars%2Fava_0022-512.png", "custom_css": null}, {"id": 8887, "slack_id": "U091K5Q4SFM", "display_name": "Hritik Dua", "bio": null, "projects_count": 0, "devlogs_count": 0, "votes_count": 0, "ships_count": 0, "projects": [], "coding_time_seconds": 0, "coding_time_seconds_today": 0, "balance": "You need to have a pocket watcher badge to view this.", "badges": [], "created_at": "2025-06-18T14:32:37.880-04:00", "updated_at": "2025-07-03T19:49:46.450-04:00", "avatar": "https://secure.gravatar.com/avatar/678e762e2e6af90d4ab5303f0ad0f7f5.jpg?s=512&d=https%3A%2F%2Fa.slack-edge.com%2Fdf10d%2Fimg%2Favatars%2Fava_0018-512.png", "custom_css": null}, {"id": 8888, "slack_id": "U091MDFK2EP", "display_name": "Mzz", "bio": null, "projects_count": 0, "devlogs_count": 0, "votes_count": 0, "ships_count": 0, "projects": [], "coding_time_seconds": 120, "coding_time_seconds_today": 0, "balance": "You need to have a pocket watcher badge to view this.", "badges": [], "created_at": "2025-06-18T14:33:10.630-04:00", "updated_at": "2025-07-03T19:49:47.726-04:00", "avatar": "https://secure.gravatar.com/avatar/7898172ec3f09e03aa10adeacd664f54.jpg?s=512&d=https%3A%2F%2Fa.slack-edge.com%2Fdf10d%2Fimg%2Favatars%2Fava_0013-512.png", "custom_css": null}, {"id": 8889, "slack_id": "U08BDF6BP62", "display_name": "Idont", "bio": null, "projects_count": 0, "devlogs_count": 0, "votes_count": 0, "ships_count": 0, "projects": [], "coding_time_seconds": 0, "coding_time_seconds_today": 0, "balance": "You need to have a pocket watcher badge to view this.", "badges": [], "created_at": "2025-06-18T14:34:22.877-04:00", "updated_at": "2025-07-03T19:49:48.000-04:00", "avatar": "https://avatars.slack-edge.com/2025-02-04/8379626994167_3d08fbbae03d77acec3a_original.jpg", "custom_css": null}, {"id": 8890, "slack_id": "U091N7ES9DK", "display_name": "Pekka", "bio": null, "projects_count": 0, "devlogs_count": 0, "votes_count": 0, "ships_count": 0, "projects": [], "coding_time_seconds": 0, "coding_time_seconds_today": 0, "balance": "You need to have a pocket watcher badge to view this.", "badges": [], "created_at": "2025-06-18T14:35:12.420-04:00", "updated_at": "2025-07-03T19:49:48.261-04:00", "avatar": "https://secure.gravatar.com/avatar/c656e81ee58e0bbeb8bb9a9a133af22b.jpg?s=512&d=https%3A%2F%2Fa.slack-edge.com%2Fdf10d%2Fimg%2Favatars%2Fava_0004-512.png", "custom_css": null}, {"id": 8891, "slack_id": "U091Q73ETNZ", "display_name": "Meet Jain", "bio": null, "projects_count": 0, "devlogs_count": 0, "votes_count": 0, "ships_count": 0, "projects": [], "coding_time_seconds": 0, "coding_time_seconds_today": 0, "balance": "You need to have a pocket watcher badge to view this.", "badges": [], "created_at": "2025-06-18T14:37:17.674-04:00", "updated_at": "2025-07-03T19:49:48.540-04:00", "avatar": "https://avatars.slack-edge.com/2025-06-18/9064385785539_0ece8d3a62b6b3a1a8c2_original.webp", "custom_css": null}, {"id": 8892, "slack_id": "U091G6R2FD1", "display_name": "steph", "bio": null, "projects_count": 0, "devlogs_count": 0, "votes_count": 0, "ships_count": 0, "projects": [], "coding_time_seconds": 0, "coding_time_seconds_today": 0, "balance": "You need to have a pocket watcher badge to view this.", "badges": [], "created_at": "2025-06-18T14:37:55.907-04:00", "updated_at": "2025-07-03T19:49:48.806-04:00", "avatar": "https://secure.gravatar.com/avatar/52527629a7c567adeb5e3ef744120d64.jpg?s=512&d=https%3A%2F%2Fa.slack-edge.com%2Fdf10d%2Fimg%2Favatars%2Fava_0013-512.png", "custom_css": null}, {"id": 8893, "slack_id": "U091JJUMW3G", "display_name": "jayanthi krishnan", "bio": null, "projects_count": 0, "devlogs_count": 0, "votes_count": 0, "ships_count": 0, "projects": [], "coding_time_seconds": 0, "coding_time_seconds_today": 0, "balance": "You need to have a pocket watcher badge to view this.", "badges": [], "created_at": "2025-06-18T14:38:06.963-04:00", "updated_at": "2025-07-03T21:47:05.069-04:00", "avatar": "https://avatars.slack-edge.com/2025-06-18/9070677636882_f827f2ef4e40e15774bd_original.png", "custom_css": null}, {"id": 8894, "slack_id": "U091KM6M9CN", "display_name": "Vipul shetty", "bio": null, "projects_count": 0, "devlogs_count": 0, "votes_count": 0, "ships_count": 0, "projects": [], "coding_time_seconds": 0, "coding_time_seconds_today": 0, "balance": "You need to have a pocket watcher badge to view this.", "badges": [], "created_at": "2025-06-18T14:39:27.294-04:00", "updated_at": "2025-07-03T19:49:49.243-04:00", "avatar": "https://avatars.slack-edge.com/2025-06-18/9093285852048_89240b81a7bc534781b2_original.png", "custom_css": null}, {"id": 8895, "slack_id": "U0921D2JA93", "display_name": "Rakesh Singh", "bio": null, "projects_count": 0, "devlogs_count": 0, "votes_count": 0, "ships_count": 0, "projects": [], "coding_time_seconds": 0, "coding_time_seconds_today": 0, "balance": "You need to have a pocket watcher badge to view this.", "badges": [], "created_at": "2025-06-18T14:40:48.872-04:00", "updated_at": "2025-07-03T19:49:49.523-04:00", "avatar": "https://secure.gravatar.com/avatar/a1d43762f50e47fc8aa6df4333aef8ad.jpg?s=512&d=https%3A%2F%2Fa.slack-edge.com%2Fdf10d%2Fimg%2Favatars%2Fava_0013-512.png", "custom_css": null}, {"id": 8896, "slack_id": "U07GB12UST0", "display_name": "Vieira", "bio": null, "projects_count": 0, "devlogs_count": 0, "votes_count": 0, "ships_count": 0, "projects": [], "coding_time_seconds": 95039, "coding_time_seconds_today": 1219, "balance": "You need to have a pocket watcher badge to view this.", "badges": [], "created_at": "2025-06-18T14:41:07.083-04:00", "updated_at": "2025-07-03T19:49:49.803-04:00", "avatar": "https://avatars.slack-edge.com/2024-08-12/7561757979490_71989045c671512fd871_original.jpg", "custom_css": null}, {"id": 8897, "slack_id": "U092PMZQJ9E", "display_name": "Nat Louis", "bio": null, "projects_count": 0, "devlogs_count": 0, "votes_count": 0, "ships_count": 0, "projects": [], "coding_time_seconds": 0, "coding_time_seconds_today": 0, "balance": "You need to have a pocket watcher badge to view this.", "badges": [], "created_at": "2025-06-18T14:42:44.604-04:00", "updated_at": "2025-07-03T19:49:50.072-04:00", "avatar": "https://secure.gravatar.com/avatar/682a241588b2c4e1f336ad2ee02eb620.jpg?s=512&d=https%3A%2F%2Fa.slack-edge.com%2Fdf10d%2Fimg%2Favatars%2Fava_0020-512.png", "custom_css": null}, {"id": 8898, "slack_id": "U04GCL9CWRW", "display_name": "Shishir", "bio": null, "projects_count": 0, "devlogs_count": 0, "votes_count": 0, "ships_count": 0, "projects": [], "coding_time_seconds": 26466, "coding_time_seconds_today": 0, "balance": "You need to have a pocket watcher badge to view this.", "badges": [], "created_at": "2025-06-18T14:43:11.928-04:00", "updated_at": "2025-07-03T21:47:05.410-04:00", "avatar": "https://avatars.slack-edge.com/2022-12-17/4533005807282_034e300b5805e9e7b7c4_original.jpg", "custom_css": null}, {"id": 8899, "slack_id": "U092FE4F2V7", "display_name": "Bishal Bagale", "bio": null, "projects_count": 0, "devlogs_count": 0, "votes_count": 0, "ships_count": 0, "projects": [], "coding_time_seconds": 0, "coding_time_seconds_today": 0, "balance": "You need to have a pocket watcher badge to view this.", "badges": [], "created_at": "2025-06-18T14:43:39.885-04:00", "updated_at": "2025-07-03T19:49:50.478-04:00", "avatar": "https://avatars.slack-edge.com/2025-06-18/9064540741654_3ae53566670e5fbcaa52_original.png", "custom_css": null}, {"id": 8900, "slack_id": "U091WAY4Y2X", "display_name": "Atharva Rao", "bio": null, "projects_count": 1, "devlogs_count": 0, "votes_count": 0, "ships_count": 0, "projects": [{"id": 4276, "title": "Meta-Robot", "devlogs_count": 0, "created_at": "2025-06-28T16:19:50.117-04:00"}], "coding_time_seconds": 4628, "coding_time_seconds_today": 0, "balance": "You need to have a pocket watcher badge to view this.", "badges": [], "created_at": "2025-06-18T14:44:04.968-04:00", "updated_at": "2025-08-04T04:03:12.381-04:00", "avatar": "https://avatars.slack-edge.com/2025-06-18/9064420603763_3d78bb38d73e593e80f8_original.png", "custom_css": null}], "pagination": {"page": 445, "pages": 1192, "count": 23828, "items": 20}}