{"users": [{"id": 8901, "slack_id": "U0922G4NSKC", "display_name": "Anyelwisye Mwamkinga", "bio": null, "projects_count": 0, "devlogs_count": 0, "votes_count": 0, "ships_count": 0, "projects": [], "coding_time_seconds": 0, "coding_time_seconds_today": 0, "balance": "You need to have a pocket watcher badge to view this.", "badges": [], "created_at": "2025-06-18T14:44:29.117-04:00", "updated_at": "2025-07-03T19:49:51.033-04:00", "avatar": "https://secure.gravatar.com/avatar/7b2e1e02f1d14f3f73b742ddce817a9c.jpg?s=512&d=https%3A%2F%2Fa.slack-edge.com%2Fdf10d%2Fimg%2Favatars%2Fava_0001-512.png", "custom_css": null}, {"id": 8902, "slack_id": "U091MRJ547R", "display_name": "Nagendra", "bio": null, "projects_count": 0, "devlogs_count": 0, "votes_count": 0, "ships_count": 0, "projects": [], "coding_time_seconds": 0, "coding_time_seconds_today": 0, "balance": "You need to have a pocket watcher badge to view this.", "badges": [], "created_at": "2025-06-18T14:45:10.399-04:00", "updated_at": "2025-07-03T19:49:51.304-04:00", "avatar": "https://secure.gravatar.com/avatar/a2168da70294cdf188e7cffaad9c5ff7.jpg?s=512&d=https%3A%2F%2Fa.slack-edge.com%2Fdf10d%2Fimg%2Favatars%2Fava_0005-512.png", "custom_css": null}, {"id": 8903, "slack_id": "U092R8UPA6L", "display_name": "darrkenn", "bio": null, "projects_count": 5, "devlogs_count": 45, "votes_count": 57, "ships_count": 3, "projects": [{"id": 1449, "title": "DarkShell", "devlogs_count": 1, "created_at": "2025-06-18T15:07:19.909-04:00"}, {"id": 6969, "title": "Jade", "devlogs_count": 9, "created_at": "2025-07-17T18:35:57.147-04:00"}, {"id": 11884, "title": "kitty-cat", "devlogs_count": 1, "created_at": "2025-08-20T17:21:15.464-04:00"}, {"id": 2238, "title": "PiStation", "devlogs_count": 16, "created_at": "2025-06-20T14:02:47.868-04:00"}, {"id": 5051, "title": "HomeClip", "devlogs_count": 18, "created_at": "2025-07-02T23:15:12.196-04:00"}], "coding_time_seconds": 843973, "coding_time_seconds_today": 0, "balance": "You need to have a pocket watcher badge to view this.", "badges": [{"name": "Maiden Voyage", "text": "you shipped your first project! the journey begins...", "icon": "\ud83d\udea2"}], "created_at": "2025-06-18T14:46:57.654-04:00", "updated_at": "2025-09-10T22:55:33.895-04:00", "avatar": "https://avatars.slack-edge.com/2025-06-21/9076584595603_684597df2b9f1cca5d30_original.jpg", "custom_css": null}, {"id": 8904, "slack_id": "U09235T3T2Q", "display_name": "qwertychomp", "bio": null, "projects_count": 0, "devlogs_count": 0, "votes_count": 0, "ships_count": 0, "projects": [], "coding_time_seconds": 2096, "coding_time_seconds_today": 0, "balance": "You need to have a pocket watcher badge to view this.", "badges": [], "created_at": "2025-06-18T14:47:30.046-04:00", "updated_at": "2025-07-03T19:49:51.832-04:00", "avatar": "https://secure.gravatar.com/avatar/e014202a25588614d393db2b04f02475.jpg?s=512&d=https%3A%2F%2Fa.slack-edge.com%2Fdf10d%2Fimg%2Favatars%2Fava_0005-512.png", "custom_css": null}, {"id": 8905, "slack_id": "U09235Z0SSY", "display_name": "Ishant", "bio": null, "projects_count": 0, "devlogs_count": 0, "votes_count": 0, "ships_count": 0, "projects": [], "coding_time_seconds": 0, "coding_time_seconds_today": 0, "balance": "You need to have a pocket watcher badge to view this.", "badges": [], "created_at": "2025-06-18T14:49:11.756-04:00", "updated_at": "2025-08-01T19:17:00.396-04:00", "avatar": "https://secure.gravatar.com/avatar/c622c8661846fd0ad53ca4481a2d6c76.jpg?s=512&d=https%3A%2F%2Fa.slack-edge.com%2Fdf10d%2Fimg%2Favatars%2Fava_0024-512.png", "custom_css": null}, {"id": 8906, "slack_id": "U091KS8JMRU", "display_name": "Hasindu Navanjana", "bio": null, "projects_count": 0, "devlogs_count": 0, "votes_count": 0, "ships_count": 0, "projects": [], "coding_time_seconds": 0, "coding_time_seconds_today": 0, "balance": "You need to have a pocket watcher badge to view this.", "badges": [], "created_at": "2025-06-18T14:49:40.618-04:00", "updated_at": "2025-07-03T21:47:06.020-04:00", "avatar": "https://secure.gravatar.com/avatar/816a7049002bbf21dbcd354dd98f1aa3.jpg?s=512&d=https%3A%2F%2Fa.slack-edge.com%2Fdf10d%2Fimg%2Favatars%2Fava_0026-512.png", "custom_css": null}, {"id": 8907, "slack_id": "U07F3A1JG4V", "display_name": "Flex10", "bio": null, "projects_count": 1, "devlogs_count": 6, "votes_count": 0, "ships_count": 0, "projects": [{"id": 2540, "title": "DTB-Hub v3", "devlogs_count": 6, "created_at": "2025-06-21T09:09:44.145-04:00"}], "coding_time_seconds": 202985, "coding_time_seconds_today": 0, "balance": "You need to have a pocket watcher badge to view this.", "badges": [], "created_at": "2025-06-18T14:49:41.408-04:00", "updated_at": "2025-07-03T19:49:52.517-04:00", "avatar": "https://avatars.slack-edge.com/2025-06-18/9069801216245_0399e59cb8108e05dc0e_original.png", "custom_css": null}, {"id": 8908, "slack_id": "U091WCZ6GUB", "display_name": "Marie Lunau", "bio": null, "projects_count": 0, "devlogs_count": 0, "votes_count": 0, "ships_count": 0, "projects": [], "coding_time_seconds": 1756, "coding_time_seconds_today": 0, "balance": "You need to have a pocket watcher badge to view this.", "badges": [], "created_at": "2025-06-18T14:51:06.813-04:00", "updated_at": "2025-07-06T08:09:40.857-04:00", "avatar": "https://secure.gravatar.com/avatar/7a3493653f80da09f78bd352a73b995a.jpg?s=512&d=https%3A%2F%2Fa.slack-edge.com%2Fdf10d%2Fimg%2Favatars%2Fava_0022-512.png", "custom_css": null}, {"id": 8909, "slack_id": "U0922MKQ2CA", "display_name": "A360", "bio": null, "projects_count": 0, "devlogs_count": 0, "votes_count": 0, "ships_count": 0, "projects": [], "coding_time_seconds": 31869, "coding_time_seconds_today": 0, "balance": "You need to have a pocket watcher badge to view this.", "badges": [], "created_at": "2025-06-18T14:51:40.289-04:00", "updated_at": "2025-07-03T19:49:52.976-04:00", "avatar": "https://secure.gravatar.com/avatar/ecee3e57dd62584d65ed9172df7c3d9c.jpg?s=512&d=https%3A%2F%2Fa.slack-edge.com%2Fdf10d%2Fimg%2Favatars%2Fava_0021-512.png", "custom_css": null}, {"id": 8910, "slack_id": "U092FFBFYBT", "display_name": "Odqin", "bio": null, "projects_count": 0, "devlogs_count": 0, "votes_count": 0, "ships_count": 0, "projects": [], "coding_time_seconds": 0, "coding_time_seconds_today": 0, "balance": "You need to have a pocket watcher badge to view this.", "badges": [], "created_at": "2025-06-18T14:52:33.222-04:00", "updated_at": "2025-07-04T08:24:43.418-04:00", "avatar": "https://secure.gravatar.com/avatar/84f8b8db221763061d42167fbb26af74.jpg?s=512&d=https%3A%2F%2Fa.slack-edge.com%2Fdf10d%2Fimg%2Favatars%2Fava_0025-512.png", "custom_css": null}, {"id": 8911, "slack_id": "U091WD7218B", "display_name": "Raj Aryan", "bio": null, "projects_count": 0, "devlogs_count": 0, "votes_count": 0, "ships_count": 0, "projects": [], "coding_time_seconds": 100232, "coding_time_seconds_today": 0, "balance": "You need to have a pocket watcher badge to view this.", "badges": [], "created_at": "2025-06-18T14:52:37.422-04:00", "updated_at": "2025-07-03T19:49:53.385-04:00", "avatar": "https://secure.gravatar.com/avatar/71d3e0db80deb797ec4fea24479f0b7a.jpg?s=512&d=https%3A%2F%2Fa.slack-edge.com%2Fdf10d%2Fimg%2Favatars%2Fava_0001-512.png", "custom_css": null}, {"id": 8912, "slack_id": "U091QDAUTU4", "display_name": "Revanta Biswas", "bio": null, "projects_count": 0, "devlogs_count": 0, "votes_count": 0, "ships_count": 0, "projects": [], "coding_time_seconds": 0, "coding_time_seconds_today": 0, "balance": "You need to have a pocket watcher badge to view this.", "badges": [], "created_at": "2025-06-18T14:54:07.324-04:00", "updated_at": "2025-07-03T19:49:53.651-04:00", "avatar": "https://avatars.slack-edge.com/2025-06-18/9069526529701_cbcf9c36eb33d2685e90_original.jpg", "custom_css": null}, {"id": 8913, "slack_id": "U0921F1J93P", "display_name": "Mohammed", "bio": null, "projects_count": 2, "devlogs_count": 14, "votes_count": 94, "ships_count": 2, "projects": [{"id": 9664, "title": "Minecraft Server Wizard", "devlogs_count": 7, "created_at": "2025-08-02T01:39:04.359-04:00"}, {"id": 5021, "title": "Hour Zero", "devlogs_count": 7, "created_at": "2025-07-02T18:44:44.591-04:00"}], "coding_time_seconds": 157985, "coding_time_seconds_today": 0, "balance": "You need to have a pocket watcher badge to view this.", "badges": [{"name": "Maiden Voyage", "text": "you shipped your first project! the journey begins...", "icon": "\ud83d\udea2"}, {"name": "Ballot Stuffer", "text": "vote 100 times.", "icon": "https://summer.hackclub.com/assets/i_voted-bf851b48.png"}], "created_at": "2025-06-18T14:54:20.842-04:00", "updated_at": "2025-09-10T22:55:34.158-04:00", "avatar": "https://secure.gravatar.com/avatar/52a73c12a8034fc44152f320de8c66a6.jpg?s=512&d=https%3A%2F%2Fa.slack-edge.com%2Fdf10d%2Fimg%2Favatars%2Fava_0017-512.png", "custom_css": null}, {"id": 8914, "slack_id": "U0921F2HSGM", "display_name": "KingofEvil568", "bio": null, "projects_count": 0, "devlogs_count": 0, "votes_count": 0, "ships_count": 0, "projects": [], "coding_time_seconds": 0, "coding_time_seconds_today": 0, "balance": "You need to have a pocket watcher badge to view this.", "badges": [], "created_at": "2025-06-18T14:54:29.814-04:00", "updated_at": "2025-07-03T19:49:54.042-04:00", "avatar": "https://avatars.slack-edge.com/2025-06-18/9093361107712_f5bd9143f1ea55892cfc_original.gif", "custom_css": null}, {"id": 8915, "slack_id": "U0922MJF9S6", "display_name": "Ou12", "bio": null, "projects_count": 0, "devlogs_count": 0, "votes_count": 0, "ships_count": 0, "projects": [], "coding_time_seconds": 2496, "coding_time_seconds_today": 0, "balance": "You need to have a pocket watcher badge to view this.", "badges": [], "created_at": "2025-06-18T14:55:10.720-04:00", "updated_at": "2025-07-03T19:49:54.311-04:00", "avatar": "https://avatars.slack-edge.com/2025-06-18/9064599535158_924d7b814db590315ba6_original.png", "custom_css": null}, {"id": 8916, "slack_id": "U081FTB0NDT", "display_name": "aboalghait", "bio": null, "projects_count": 0, "devlogs_count": 0, "votes_count": 0, "ships_count": 0, "projects": [], "coding_time_seconds": 289080, "coding_time_seconds_today": 0, "balance": "You need to have a pocket watcher badge to view this.", "badges": [], "created_at": "2025-06-18T14:56:28.412-04:00", "updated_at": "2025-08-09T10:38:47.733-04:00", "avatar": "https://secure.gravatar.com/avatar/d338d4be56b393f4e23a2887ad259081.jpg?s=512&d=https%3A%2F%2Fa.slack-edge.com%2Fdf10d%2Fimg%2Favatars%2Fava_0005-512.png", "custom_css": null}, {"id": 8917, "slack_id": "U092376QKM2", "display_name": "Yash Karakoti", "bio": null, "projects_count": 0, "devlogs_count": 0, "votes_count": 0, "ships_count": 0, "projects": [], "coding_time_seconds": 0, "coding_time_seconds_today": 0, "balance": "You need to have a pocket watcher badge to view this.", "badges": [], "created_at": "2025-06-18T14:56:37.566-04:00", "updated_at": "2025-07-03T19:49:54.828-04:00", "avatar": "https://avatars.slack-edge.com/2025-06-18/9071261722132_b8754b0117975be232a8_original.jpg", "custom_css": null}, {"id": 8918, "slack_id": "U091MTTK7U7", "display_name": "Sachi Fernando", "bio": null, "projects_count": 0, "devlogs_count": 0, "votes_count": 0, "ships_count": 0, "projects": [], "coding_time_seconds": 0, "coding_time_seconds_today": 0, "balance": "You need to have a pocket watcher badge to view this.", "badges": [], "created_at": "2025-06-18T14:58:46.494-04:00", "updated_at": "2025-07-03T19:49:55.091-04:00", "avatar": "https://secure.gravatar.com/avatar/7bb55a47283f622cff8183839e9d6539.jpg?s=512&d=https%3A%2F%2Fa.slack-edge.com%2Fdf10d%2Fimg%2Favatars%2Fava_0019-512.png", "custom_css": null}, {"id": 8919, "slack_id": "U092RBDDUD6", "display_name": "Felipe Cardona Lora", "bio": null, "projects_count": 0, "devlogs_count": 0, "votes_count": 0, "ships_count": 0, "projects": [], "coding_time_seconds": 99282, "coding_time_seconds_today": 0, "balance": "You need to have a pocket watcher badge to view this.", "badges": [], "created_at": "2025-06-18T15:01:53.871-04:00", "updated_at": "2025-07-03T19:49:55.359-04:00", "avatar": "https://avatars.slack-edge.com/2025-06-18/9071296936676_52bc263f6b4b17d0f86c_original.png", "custom_css": null}, {"id": 8920, "slack_id": "U091AS8AS79", "display_name": "Jenith", "bio": null, "projects_count": 0, "devlogs_count": 0, "votes_count": 0, "ships_count": 0, "projects": [], "coding_time_seconds": 0, "coding_time_seconds_today": 0, "balance": "You need to have a pocket watcher badge to view this.", "badges": [], "created_at": "2025-06-18T15:01:57.167-04:00", "updated_at": "2025-07-23T02:51:34.491-04:00", "avatar": "https://secure.gravatar.com/avatar/261bd9a284e313a922b0219304a8a319.jpg?s=512&d=https%3A%2F%2Fa.slack-edge.com%2Fdf10d%2Fimg%2Favatars%2Fava_0019-512.png", "custom_css": null}], "pagination": {"page": 446, "pages": 1192, "count": 23828, "items": 20}}