{"users": [{"id": 8921, "slack_id": "U0921GNK5RT", "display_name": "Samia", "bio": null, "projects_count": 0, "devlogs_count": 0, "votes_count": 0, "ships_count": 0, "projects": [], "coding_time_seconds": 0, "coding_time_seconds_today": 0, "balance": "You need to have a pocket watcher badge to view this.", "badges": [], "created_at": "2025-06-18T15:02:09.104-04:00", "updated_at": "2025-07-03T21:47:06.947-04:00", "avatar": "https://secure.gravatar.com/avatar/672d22f8fe4be984a2658df92204324f.jpg?s=512&d=https%3A%2F%2Fa.slack-edge.com%2Fdf10d%2Fimg%2Favatars%2Fava_0016-512.png", "custom_css": null}, {"id": 8922, "slack_id": "U09209URE76", "display_name": "Aiton C", "bio": null, "projects_count": 0, "devlogs_count": 0, "votes_count": 0, "ships_count": 0, "projects": [], "coding_time_seconds": 0, "coding_time_seconds_today": 0, "balance": "You need to have a pocket watcher badge to view this.", "badges": [], "created_at": "2025-06-18T15:02:29.604-04:00", "updated_at": "2025-07-03T19:49:56.027-04:00", "avatar": "https://secure.gravatar.com/avatar/ef307b30302216999a87a60571ea11d5.jpg?s=512&d=https%3A%2F%2Fa.slack-edge.com%2Fdf10d%2Fimg%2Favatars%2Fava_0001-512.png", "custom_css": null}, {"id": 8923, "slack_id": "U091PQTV03X", "display_name": "Tiago L.", "bio": null, "projects_count": 0, "devlogs_count": 0, "votes_count": 0, "ships_count": 0, "projects": [], "coding_time_seconds": 0, "coding_time_seconds_today": 0, "balance": "You need to have a pocket watcher badge to view this.", "badges": [], "created_at": "2025-06-18T15:03:28.506-04:00", "updated_at": "2025-07-04T02:28:27.866-04:00", "avatar": "https://avatars.slack-edge.com/2025-06-18/9069585835173_c45b63a0ba3518a952d3_original.png", "custom_css": null}, {"id": 8924, "slack_id": "U091WJWVB9C", "display_name": "Neel", "bio": null, "projects_count": 0, "devlogs_count": 0, "votes_count": 0, "ships_count": 0, "projects": [], "coding_time_seconds": 7761, "coding_time_seconds_today": 0, "balance": "You need to have a pocket watcher badge to view this.", "badges": [], "created_at": "2025-06-18T15:04:17.065-04:00", "updated_at": "2025-07-03T19:49:56.434-04:00", "avatar": "https://secure.gravatar.com/avatar/81f689b92f91588bb3e96bb7ad068175.jpg?s=512&d=https%3A%2F%2Fa.slack-edge.com%2Fdf10d%2Fimg%2Favatars%2Fava_0019-512.png", "custom_css": null}, {"id": 8925, "slack_id": "U092RC0QEAC", "display_name": "Bhagya", "bio": null, "projects_count": 0, "devlogs_count": 0, "votes_count": 0, "ships_count": 0, "projects": [], "coding_time_seconds": 0, "coding_time_seconds_today": 0, "balance": "You need to have a pocket watcher badge to view this.", "badges": [], "created_at": "2025-06-18T15:04:49.339-04:00", "updated_at": "2025-07-03T19:49:56.695-04:00", "avatar": "https://secure.gravatar.com/avatar/7cdc62ca7264f8a160b11e95a4b82eab.jpg?s=512&d=https%3A%2F%2Fa.slack-edge.com%2Fdf10d%2Fimg%2Favatars%2Fava_0021-512.png", "custom_css": null}, {"id": 8926, "slack_id": "U092EGWUAP2", "display_name": "Hemil Dudhat", "bio": null, "projects_count": 0, "devlogs_count": 0, "votes_count": 0, "ships_count": 0, "projects": [], "coding_time_seconds": 0, "coding_time_seconds_today": 0, "balance": "You need to have a pocket watcher badge to view this.", "badges": [], "created_at": "2025-06-18T15:05:19.374-04:00", "updated_at": "2025-07-05T14:11:14.038-04:00", "avatar": "https://secure.gravatar.com/avatar/db2011f9915d927ef25a4e73ca2b56a3.jpg?s=512&d=https%3A%2F%2Fa.slack-edge.com%2Fdf10d%2Fimg%2Favatars%2Fava_0018-512.png", "custom_css": null}, {"id": 8927, "slack_id": "U09122K8CET", "display_name": "Syona", "bio": null, "projects_count": 0, "devlogs_count": 0, "votes_count": 0, "ships_count": 0, "projects": [], "coding_time_seconds": 5415, "coding_time_seconds_today": 0, "balance": "You need to have a pocket watcher badge to view this.", "badges": [], "created_at": "2025-06-18T15:06:12.471-04:00", "updated_at": "2025-07-03T19:49:57.083-04:00", "avatar": "https://avatars.slack-edge.com/2025-06-14/9051839168402_bd1e055079dcfe618eab_original.png", "custom_css": null}, {"id": 8928, "slack_id": "U092393F6S0", "display_name": "KnaxiLP", "bio": null, "projects_count": 0, "devlogs_count": 0, "votes_count": 0, "ships_count": 0, "projects": [], "coding_time_seconds": 102163, "coding_time_seconds_today": 0, "balance": "You need to have a pocket watcher badge to view this.", "badges": [], "created_at": "2025-06-18T15:07:40.688-04:00", "updated_at": "2025-07-03T19:49:57.343-04:00", "avatar": "https://secure.gravatar.com/avatar/07f421c7762ed016354c2dbd4ec7c152.jpg?s=512&d=https%3A%2F%2Fa.slack-edge.com%2Fdf10d%2Fimg%2Favatars%2Fava_0023-512.png", "custom_css": null}, {"id": 8929, "slack_id": "U09239B97PE", "display_name": "Luke Harding", "bio": null, "projects_count": 1, "devlogs_count": 1, "votes_count": 0, "ships_count": 0, "projects": [{"id": 1534, "title": "Inventory Tracker", "devlogs_count": 1, "created_at": "2025-06-18T17:41:43.292-04:00"}], "coding_time_seconds": 8398, "coding_time_seconds_today": 0, "balance": "You need to have a pocket watcher badge to view this.", "badges": [], "created_at": "2025-06-18T15:08:40.665-04:00", "updated_at": "2025-07-03T19:49:57.610-04:00", "avatar": "https://avatars.slack-edge.com/2025-06-18/9071971194596_c7a31e69891122281756_original.png", "custom_css": null}, {"id": 8930, "slack_id": "U092RD16Z16", "display_name": "Asharab", "bio": null, "projects_count": 0, "devlogs_count": 0, "votes_count": 0, "ships_count": 0, "projects": [], "coding_time_seconds": 0, "coding_time_seconds_today": 0, "balance": "You need to have a pocket watcher badge to view this.", "badges": [], "created_at": "2025-06-18T15:10:55.438-04:00", "updated_at": "2025-07-03T21:59:08.107-04:00", "avatar": "https://secure.gravatar.com/avatar/7eb80621dfcb776938ee40a20b330629.jpg?s=512&d=https%3A%2F%2Fa.slack-edge.com%2Fdf10d%2Fimg%2Favatars%2Fava_0007-512.png", "custom_css": null}, {"id": 8931, "slack_id": "U07NGDU5PPT", "display_name": "Milan", "bio": null, "projects_count": 0, "devlogs_count": 0, "votes_count": 0, "ships_count": 0, "projects": [], "coding_time_seconds": 69, "coding_time_seconds_today": 0, "balance": "You need to have a pocket watcher badge to view this.", "badges": [], "created_at": "2025-06-18T15:11:29.625-04:00", "updated_at": "2025-08-03T02:49:45.810-04:00", "avatar": "https://secure.gravatar.com/avatar/f5269f61b11ac8b28b42000bf40dc462.jpg?s=512&d=https%3A%2F%2Fa.slack-edge.com%2Fdf10d%2Fimg%2Favatars%2Fava_0003-512.png", "custom_css": null}, {"id": 8932, "slack_id": "U078WK062Q6", "display_name": "wizarddos", "bio": null, "projects_count": 0, "devlogs_count": 0, "votes_count": 0, "ships_count": 0, "projects": [], "coding_time_seconds": 23158, "coding_time_seconds_today": 0, "balance": "You need to have a pocket watcher badge to view this.", "badges": [], "created_at": "2025-06-18T15:11:54.478-04:00", "updated_at": "2025-07-03T19:49:58.165-04:00", "avatar": "https://avatars.slack-edge.com/2024-06-20/7321945866161_9ad200bb96d088e71f23_original.png", "custom_css": null}, {"id": 8933, "slack_id": "U07GBQNDVD1", "display_name": "Eve", "bio": null, "projects_count": 3, "devlogs_count": 10, "votes_count": 54, "ships_count": 3, "projects": [{"id": 1527, "title": "Eve's Website: PHP Rewrite", "devlogs_count": 8, "created_at": "2025-06-18T17:21:37.634-04:00"}, {"id": 6840, "title": "Brown Pixelstuck Website", "devlogs_count": 1, "created_at": "2025-07-16T19:02:21.899-04:00"}, {"id": 5457, "title": "Azi's Website", "devlogs_count": 1, "created_at": "2025-07-05T12:16:56.393-04:00"}], "coding_time_seconds": 79266, "coding_time_seconds_today": 0, "balance": "You need to have a pocket watcher badge to view this.", "badges": [{"name": "Maiden Voyage", "text": "you shipped your first project! the journey begins...", "icon": "\ud83d\udea2"}], "created_at": "2025-06-18T15:12:03.483-04:00", "updated_at": "2025-09-10T22:55:34.672-04:00", "avatar": "https://avatars.slack-edge.com/2024-08-09/7553088949301_ff19f665594a3cda554d_original.png", "custom_css": null}, {"id": 8934, "slack_id": "U092FK298D7", "display_name": "Yuhsuan Lee", "bio": null, "projects_count": 0, "devlogs_count": 0, "votes_count": 0, "ships_count": 0, "projects": [], "coding_time_seconds": 0, "coding_time_seconds_today": 0, "balance": "You need to have a pocket watcher badge to view this.", "badges": [], "created_at": "2025-06-18T15:13:38.859-04:00", "updated_at": "2025-07-07T14:45:14.003-04:00", "avatar": "https://avatars.slack-edge.com/2025-06-18/9093469148656_9e66f1f7ade8909f6355_original.png", "custom_css": null}, {"id": 8935, "slack_id": "U092RD14A80", "display_name": "Uriel Patino", "bio": null, "projects_count": 1, "devlogs_count": 0, "votes_count": 0, "ships_count": 0, "projects": [{"id": 1455, "title": "simple site ", "devlogs_count": 0, "created_at": "2025-06-18T15:27:44.656-04:00"}], "coding_time_seconds": 14682, "coding_time_seconds_today": 0, "balance": "You need to have a pocket watcher badge to view this.", "badges": [], "created_at": "2025-06-18T15:13:54.851-04:00", "updated_at": "2025-07-03T19:49:58.873-04:00", "avatar": "https://avatars.slack-edge.com/2025-06-18/9056052516167_5a6c98828e2c27603d4e_original.png", "custom_css": null}, {"id": 8936, "slack_id": "U091NK5F7AR", "display_name": "Joanna", "bio": null, "projects_count": 0, "devlogs_count": 0, "votes_count": 0, "ships_count": 0, "projects": [], "coding_time_seconds": 0, "coding_time_seconds_today": 0, "balance": "You need to have a pocket watcher badge to view this.", "badges": [], "created_at": "2025-06-18T15:15:52.393-04:00", "updated_at": "2025-07-03T19:49:59.137-04:00", "avatar": "https://secure.gravatar.com/avatar/ede53bd2391daef1b9cb53d2c8cef647.jpg?s=512&d=https%3A%2F%2Fa.slack-edge.com%2Fdf10d%2Fimg%2Favatars%2Fava_0018-512.png", "custom_css": null}, {"id": 8937, "slack_id": "U0922JVM3V0", "display_name": "Adjoa Sarpong", "bio": null, "projects_count": 0, "devlogs_count": 0, "votes_count": 0, "ships_count": 0, "projects": [], "coding_time_seconds": 0, "coding_time_seconds_today": 0, "balance": "You need to have a pocket watcher badge to view this.", "badges": [], "created_at": "2025-06-18T15:16:18.188-04:00", "updated_at": "2025-07-03T19:49:59.398-04:00", "avatar": "https://secure.gravatar.com/avatar/25931317b1a1bfc45c3d910494ba3862.jpg?s=512&d=https%3A%2F%2Fa.slack-edge.com%2Fdf10d%2Fimg%2Favatars%2Fava_0002-512.png", "custom_css": null}, {"id": 8938, "slack_id": "U091WH5F95Z", "display_name": "ninclub (bee)", "bio": null, "projects_count": 0, "devlogs_count": 0, "votes_count": 0, "ships_count": 0, "projects": [], "coding_time_seconds": 120, "coding_time_seconds_today": 0, "balance": "You need to have a pocket watcher badge to view this.", "badges": [], "created_at": "2025-06-18T15:16:18.874-04:00", "updated_at": "2025-07-03T19:49:59.663-04:00", "avatar": "https://avatars.slack-edge.com/2025-06-18/9093482447904_d64c21760e11f62be90f_original.png", "custom_css": null}, {"id": 8939, "slack_id": "U091WLUNFTQ", "display_name": "haneef moheb", "bio": null, "projects_count": 0, "devlogs_count": 0, "votes_count": 0, "ships_count": 0, "projects": [], "coding_time_seconds": 0, "coding_time_seconds_today": 0, "balance": "You need to have a pocket watcher badge to view this.", "badges": [], "created_at": "2025-06-18T15:17:53.252-04:00", "updated_at": "2025-07-04T02:28:29.107-04:00", "avatar": "https://secure.gravatar.com/avatar/d0c4e52b89554f740a0082476b35fc5c.jpg?s=512&d=https%3A%2F%2Fa.slack-edge.com%2Fdf10d%2Fimg%2Favatars%2Fava_0004-512.png", "custom_css": null}, {"id": 8940, "slack_id": "U08268QNF9Q", "display_name": "hobo rat", "bio": "buns at programming but oh well", "projects_count": 3, "devlogs_count": 9, "votes_count": 27, "ships_count": 0, "projects": [{"id": 2409, "title": "Farm Game 3D", "devlogs_count": 1, "created_at": "2025-06-21T00:31:28.983-04:00"}, {"id": 3054, "title": "the red goose game", "devlogs_count": 8, "created_at": "2025-06-22T23:32:24.285-04:00"}, {"id": 12522, "title": "nameless roguelike", "devlogs_count": 0, "created_at": "2025-08-29T00:44:40.762-04:00"}], "coding_time_seconds": 256554, "coding_time_seconds_today": 0, "balance": "You need to have a pocket watcher badge to view this.", "badges": [], "created_at": "2025-06-18T15:18:06.764-04:00", "updated_at": "2025-08-24T02:45:15.637-04:00", "avatar": "https://avatars.slack-edge.com/2025-08-24/9401949766086_4197e51bf9211ffec41b_original.jpg", "custom_css": null}], "pagination": {"page": 447, "pages": 1192, "count": 23828, "items": 20}}