{"users": [{"id": 8941, "slack_id": "U0922QWDFCJ", "display_name": "Reis", "bio": null, "projects_count": 0, "devlogs_count": 0, "votes_count": 0, "ships_count": 0, "projects": [], "coding_time_seconds": 0, "coding_time_seconds_today": 0, "balance": "You need to have a pocket watcher badge to view this.", "badges": [], "created_at": "2025-06-18T15:19:22.600-04:00", "updated_at": "2025-07-03T21:47:08.327-04:00", "avatar": "https://secure.gravatar.com/avatar/3accf38967b0f10fa1659b8297322dde.jpg?s=512&d=https%3A%2F%2Fa.slack-edge.com%2Fdf10d%2Fimg%2Favatars%2Fava_0019-512.png", "custom_css": null}, {"id": 8942, "slack_id": "U0923AZ07M2", "display_name": "itz_AbU 2008", "bio": null, "projects_count": 0, "devlogs_count": 0, "votes_count": 0, "ships_count": 0, "projects": [], "coding_time_seconds": 0, "coding_time_seconds_today": 0, "balance": "You need to have a pocket watcher badge to view this.", "badges": [], "created_at": "2025-06-18T15:19:56.118-04:00", "updated_at": "2025-07-03T19:50:00.349-04:00", "avatar": "https://avatars.slack-edge.com/2025-06-18/9070901404482_ff0861e76cc3dadfd36f_original.png", "custom_css": null}, {"id": 8943, "slack_id": "U091WMA9AB0", "display_name": "OMKAR DIXIT", "bio": null, "projects_count": 1, "devlogs_count": 0, "votes_count": 0, "ships_count": 0, "projects": [{"id": 3433, "title": "Grocery App", "devlogs_count": 0, "created_at": "2025-06-24T08:14:30.659-04:00"}], "coding_time_seconds": 15311, "coding_time_seconds_today": 0, "balance": "You need to have a pocket watcher badge to view this.", "badges": [], "created_at": "2025-06-18T15:21:03.338-04:00", "updated_at": "2025-07-03T21:47:08.501-04:00", "avatar": "https://secure.gravatar.com/avatar/bb9af62e43e788792b6c506762623cca.jpg?s=512&d=https%3A%2F%2Fa.slack-edge.com%2Fdf10d%2Fimg%2Favatars%2Fava_0015-512.png", "custom_css": null}, {"id": 8944, "slack_id": "U091WMH8J78", "display_name": "Rachel", "bio": null, "projects_count": 0, "devlogs_count": 0, "votes_count": 0, "ships_count": 0, "projects": [], "coding_time_seconds": 0, "coding_time_seconds_today": 0, "balance": "You need to have a pocket watcher badge to view this.", "badges": [], "created_at": "2025-06-18T15:22:52.230-04:00", "updated_at": "2025-07-03T21:59:09.162-04:00", "avatar": "https://secure.gravatar.com/avatar/98080a59bb2fdb909353c179fe02adc1.jpg?s=512&d=https%3A%2F%2Fa.slack-edge.com%2Fdf10d%2Fimg%2Favatars%2Fava_0023-512.png", "custom_css": null}, {"id": 8945, "slack_id": "U08QKG072VC", "display_name": "Nexon", "bio": null, "projects_count": 2, "devlogs_count": 3, "votes_count": 20, "ships_count": 1, "projects": [{"id": 4137, "title": "HackLog", "devlogs_count": 3, "created_at": "2025-06-27T17:31:28.016-04:00"}, {"id": 5982, "title": "FineBank", "devlogs_count": 0, "created_at": "2025-07-09T16:59:19.006-04:00"}], "coding_time_seconds": 653671, "coding_time_seconds_today": 1294, "balance": "You need to have a pocket watcher badge to view this.", "badges": [{"name": "Maiden Voyage", "text": "you shipped your first project! the journey begins...", "icon": "\ud83d\udea2"}], "created_at": "2025-06-18T15:23:57.914-04:00", "updated_at": "2025-09-10T22:55:35.105-04:00", "avatar": "https://avatars.slack-edge.com/2025-07-26/9280667453296_b4c6b2cace30df5ba36c_original.jpg", "custom_css": null}, {"id": 8946, "slack_id": "U091SD869RQ", "display_name": "Fabio Roberto Rojas", "bio": null, "projects_count": 1, "devlogs_count": 0, "votes_count": 0, "ships_count": 0, "projects": [{"id": 1896, "title": "Filterfx", "devlogs_count": 0, "created_at": "2025-06-19T14:53:50.753-04:00"}], "coding_time_seconds": 1695, "coding_time_seconds_today": 0, "balance": "You need to have a pocket watcher badge to view this.", "badges": [], "created_at": "2025-06-18T15:24:05.050-04:00", "updated_at": "2025-07-03T19:50:01.029-04:00", "avatar": "https://avatars.slack-edge.com/2025-06-18/9071411778532_f79d5243dc32216c1221_original.jpg", "custom_css": null}, {"id": 8947, "slack_id": "U091D3WUAK1", "display_name": "Momin", "bio": null, "projects_count": 0, "devlogs_count": 0, "votes_count": 0, "ships_count": 0, "projects": [], "coding_time_seconds": 0, "coding_time_seconds_today": 0, "balance": "You need to have a pocket watcher badge to view this.", "badges": [], "created_at": "2025-06-18T15:25:52.534-04:00", "updated_at": "2025-07-03T21:59:09.411-04:00", "avatar": "https://secure.gravatar.com/avatar/d1a0d170576f172e5a2432d71ebdd4d8.jpg?s=512&d=https%3A%2F%2Fa.slack-edge.com%2Fdf10d%2Fimg%2Favatars%2Fava_0016-512.png", "custom_css": null}, {"id": 8948, "slack_id": "U092F7B021E", "display_name": "om pathak", "bio": null, "projects_count": 0, "devlogs_count": 0, "votes_count": 0, "ships_count": 0, "projects": [], "coding_time_seconds": 0, "coding_time_seconds_today": 0, "balance": "You need to have a pocket watcher badge to view this.", "badges": [], "created_at": "2025-06-18T15:27:29.105-04:00", "updated_at": "2025-07-03T19:50:01.448-04:00", "avatar": "https://secure.gravatar.com/avatar/c3c3f8483f7bce0248bb0dda798e2d34.jpg?s=512&d=https%3A%2F%2Fa.slack-edge.com%2Fdf10d%2Fimg%2Favatars%2Fava_0023-512.png", "custom_css": null}, {"id": 8949, "slack_id": "U091WJ92KEX", "display_name": "Kwabena Obeng", "bio": null, "projects_count": 0, "devlogs_count": 0, "votes_count": 0, "ships_count": 0, "projects": [], "coding_time_seconds": 1736, "coding_time_seconds_today": 0, "balance": "You need to have a pocket watcher badge to view this.", "badges": [], "created_at": "2025-06-18T15:29:17.105-04:00", "updated_at": "2025-07-03T19:50:01.729-04:00", "avatar": "https://avatars.slack-edge.com/2025-06-18/9064775815238_9ab8c275adb97ee8ef12_original.png", "custom_css": null}, {"id": 8950, "slack_id": "U07F7JFCVSN", "display_name": "Giacomo", "bio": null, "projects_count": 1, "devlogs_count": 3, "votes_count": 0, "ships_count": 0, "projects": [{"id": 2198, "title": "Simple blog", "devlogs_count": 3, "created_at": "2025-06-20T12:10:03.893-04:00"}], "coding_time_seconds": 168383, "coding_time_seconds_today": 0, "balance": "You need to have a pocket watcher badge to view this.", "badges": [], "created_at": "2025-06-18T15:29:47.301-04:00", "updated_at": "2025-07-03T19:50:01.997-04:00", "avatar": "https://secure.gravatar.com/avatar/23251b20ca8c834649ef2a7eb631be1e.jpg?s=512&d=https%3A%2F%2Fa.slack-edge.com%2Fdf10d%2Fimg%2Favatars%2Fava_0020-512.png", "custom_css": null}, {"id": 8951, "slack_id": "U091WJV7HPV", "display_name": "Abhinav Atul", "bio": null, "projects_count": 0, "devlogs_count": 0, "votes_count": 0, "ships_count": 0, "projects": [], "coding_time_seconds": 0, "coding_time_seconds_today": 0, "balance": "You need to have a pocket watcher badge to view this.", "badges": [], "created_at": "2025-06-18T15:31:18.928-04:00", "updated_at": "2025-07-03T21:47:09.134-04:00", "avatar": "https://secure.gravatar.com/avatar/75f2ca116be9e3a7ac9400c53b99e805.jpg?s=512&d=https%3A%2F%2Fa.slack-edge.com%2Fdf10d%2Fimg%2Favatars%2Fava_0013-512.png", "custom_css": null}, {"id": 8952, "slack_id": "U092FMN59FB", "display_name": "Luke Nelson", "bio": null, "projects_count": 1, "devlogs_count": 5, "votes_count": 1, "ships_count": 1, "projects": [{"id": 2378, "title": "CHOOSE YOUR OWN ADVENTURE: MINECRAFT SURVIVAL MODE.", "devlogs_count": 5, "created_at": "2025-06-20T21:39:39.737-04:00"}], "coding_time_seconds": 31232, "coding_time_seconds_today": 0, "balance": "You need to have a pocket watcher badge to view this.", "badges": [{"name": "Maiden Voyage", "text": "you shipped your first project! the journey begins...", "icon": "\ud83d\udea2"}], "created_at": "2025-06-18T15:31:22.132-04:00", "updated_at": "2025-09-10T22:55:35.330-04:00", "avatar": "https://avatars.slack-edge.com/2025-06-18/9083756101601_4330e9ac70d05d6786eb_original.png", "custom_css": null}, {"id": 8953, "slack_id": "U092FMTBAGZ", "display_name": "Pinak Oza", "bio": null, "projects_count": 0, "devlogs_count": 0, "votes_count": 0, "ships_count": 0, "projects": [], "coding_time_seconds": 0, "coding_time_seconds_today": 0, "balance": "You need to have a pocket watcher badge to view this.", "badges": [], "created_at": "2025-06-18T15:31:42.688-04:00", "updated_at": "2025-07-04T08:24:46.137-04:00", "avatar": "https://secure.gravatar.com/avatar/70ec4335a331130a6f01323d6cc696d8.jpg?s=512&d=https%3A%2F%2Fa.slack-edge.com%2Fdf10d%2Fimg%2Favatars%2Fava_0016-512.png", "custom_css": null}, {"id": 8954, "slack_id": "U092FMN3W4R", "display_name": "Oxtruly", "bio": null, "projects_count": 0, "devlogs_count": 0, "votes_count": 0, "ships_count": 0, "projects": [], "coding_time_seconds": 38901, "coding_time_seconds_today": 0, "balance": "You need to have a pocket watcher badge to view this.", "badges": [], "created_at": "2025-06-18T15:32:06.640-04:00", "updated_at": "2025-07-07T14:45:23.442-04:00", "avatar": "https://secure.gravatar.com/avatar/29ea262ecd6d811c03e57a313bdab98e.jpg?s=512&d=https%3A%2F%2Fa.slack-edge.com%2Fdf10d%2Fimg%2Favatars%2Fava_0023-512.png", "custom_css": null}, {"id": 8955, "slack_id": "U092J8N7TJL", "display_name": "Neeraj", "bio": null, "projects_count": 0, "devlogs_count": 0, "votes_count": 0, "ships_count": 0, "projects": [], "coding_time_seconds": 0, "coding_time_seconds_today": 0, "balance": "You need to have a pocket watcher badge to view this.", "badges": [], "created_at": "2025-06-18T15:33:45.576-04:00", "updated_at": "2025-07-03T19:50:02.938-04:00", "avatar": "https://secure.gravatar.com/avatar/4f586041c0206a1a9f39ae1f05077067.jpg?s=512&d=https%3A%2F%2Fa.slack-edge.com%2Fdf10d%2Fimg%2Favatars%2Fava_0006-512.png", "custom_css": null}, {"id": 8956, "slack_id": "U09212FNWQ2", "display_name": "Dhanush Vanarasa", "bio": null, "projects_count": 0, "devlogs_count": 0, "votes_count": 0, "ships_count": 0, "projects": [], "coding_time_seconds": 0, "coding_time_seconds_today": 0, "balance": "You need to have a pocket watcher badge to view this.", "badges": [], "created_at": "2025-06-18T15:34:46.117-04:00", "updated_at": "2025-07-03T21:59:10.043-04:00", "avatar": "https://secure.gravatar.com/avatar/fbfa25465cd7f35f182c68232429367f.jpg?s=512&d=https%3A%2F%2Fa.slack-edge.com%2Fdf10d%2Fimg%2Favatars%2Fava_0003-512.png", "custom_css": null}, {"id": 8957, "slack_id": "U091JK1KZ27", "display_name": "Adwait Vaidya", "bio": null, "projects_count": 0, "devlogs_count": 0, "votes_count": 0, "ships_count": 0, "projects": [], "coding_time_seconds": 0, "coding_time_seconds_today": 0, "balance": "You need to have a pocket watcher badge to view this.", "badges": [], "created_at": "2025-06-18T15:35:35.581-04:00", "updated_at": "2025-07-03T19:50:03.352-04:00", "avatar": "https://secure.gravatar.com/avatar/87ecf2d55b10d4415eece554123f00fe.jpg?s=512&d=https%3A%2F%2Fa.slack-edge.com%2Fdf10d%2Fimg%2Favatars%2Fava_0025-512.png", "custom_css": null}, {"id": 8958, "slack_id": "U091WPZV7LN", "display_name": "Audrey", "bio": null, "projects_count": 0, "devlogs_count": 0, "votes_count": 0, "ships_count": 0, "projects": [], "coding_time_seconds": 0, "coding_time_seconds_today": 0, "balance": "You need to have a pocket watcher badge to view this.", "badges": [], "created_at": "2025-06-18T15:39:46.432-04:00", "updated_at": "2025-07-03T19:50:03.625-04:00", "avatar": "https://secure.gravatar.com/avatar/18e37c8f752bae8647414c7bb1c988a7.jpg?s=512&d=https%3A%2F%2Fa.slack-edge.com%2Fdf10d%2Fimg%2Favatars%2Fava_0021-512.png", "custom_css": null}, {"id": 8959, "slack_id": "U07NAK5676J", "display_name": "Skyree (Inactive for a while)", "bio": null, "projects_count": 0, "devlogs_count": 0, "votes_count": 0, "ships_count": 0, "projects": [], "coding_time_seconds": 0, "coding_time_seconds_today": 0, "balance": "You need to have a pocket watcher badge to view this.", "badges": [], "created_at": "2025-06-18T15:40:17.792-04:00", "updated_at": "2025-07-20T02:45:37.096-04:00", "avatar": "https://avatars.slack-edge.com/2025-07-19/9237793973553_7d35da4b8b0e5fbf6cf0_original.png", "custom_css": null}, {"id": 8960, "slack_id": "U091WQ57ZFY", "display_name": "Pie854", "bio": null, "projects_count": 0, "devlogs_count": 0, "votes_count": 0, "ships_count": 0, "projects": [], "coding_time_seconds": 0, "coding_time_seconds_today": 0, "balance": "You need to have a pocket watcher badge to view this.", "badges": [], "created_at": "2025-06-18T15:40:53.833-04:00", "updated_at": "2025-07-03T19:50:04.153-04:00", "avatar": "https://secure.gravatar.com/avatar/9e793f180e0e6582bee2d3ca40c8adaa.jpg?s=512&d=https%3A%2F%2Fa.slack-edge.com%2Fdf10d%2Fimg%2Favatars%2Fava_0003-512.png", "custom_css": null}], "pagination": {"page": 448, "pages": 1192, "count": 23828, "items": 20}}