{"users": [{"id": 8961, "slack_id": "U092RH8AN2C", "display_name": "Abdelrahman El-zawawy", "bio": null, "projects_count": 0, "devlogs_count": 0, "votes_count": 0, "ships_count": 0, "projects": [], "coding_time_seconds": 0, "coding_time_seconds_today": 0, "balance": "You need to have a pocket watcher badge to view this.", "badges": [], "created_at": "2025-06-18T15:41:21.869-04:00", "updated_at": "2025-07-04T08:24:46.765-04:00", "avatar": "https://secure.gravatar.com/avatar/22b62dbb1b34843fac6e6430ca7a931b.jpg?s=512&d=https%3A%2F%2Fa.slack-edge.com%2Fdf10d%2Fimg%2Favatars%2Fava_0010-512.png", "custom_css": null}, {"id": 8962, "slack_id": "U0820T1LBEH", "display_name": "ponesicek", "bio": null, "projects_count": 0, "devlogs_count": 0, "votes_count": 0, "ships_count": 0, "projects": [], "coding_time_seconds": 55276, "coding_time_seconds_today": 0, "balance": "You need to have a pocket watcher badge to view this.", "badges": [], "created_at": "2025-06-18T15:44:08.654-04:00", "updated_at": "2025-07-04T08:24:46.874-04:00", "avatar": "https://secure.gravatar.com/avatar/a9cd1a03cd4c1f78bff8099aa09417dc.jpg?s=512&d=https%3A%2F%2Fa.slack-edge.com%2Fdf10d%2Fimg%2Favatars%2Fava_0023-512.png", "custom_css": null}, {"id": 8963, "slack_id": "U092E5LQE4Q", "display_name": "Artur Rios", "bio": null, "projects_count": 0, "devlogs_count": 0, "votes_count": 0, "ships_count": 0, "projects": [], "coding_time_seconds": 34314, "coding_time_seconds_today": 0, "balance": "You need to have a pocket watcher badge to view this.", "badges": [], "created_at": "2025-06-18T15:47:03.081-04:00", "updated_at": "2025-07-03T19:50:04.746-04:00", "avatar": "https://secure.gravatar.com/avatar/1fbb467a4469b439afd3b55c4919e1ff.jpg?s=512&d=https%3A%2F%2Fa.slack-edge.com%2Fdf10d%2Fimg%2Favatars%2Fava_0018-512.png", "custom_css": null}, {"id": 8964, "slack_id": "U091N60TZ5M", "display_name": "Arthur Fiolet", "bio": null, "projects_count": 3, "devlogs_count": 21, "votes_count": 3, "ships_count": 0, "projects": [{"id": 1696, "title": "SQL MCP", "devlogs_count": 20, "created_at": "2025-06-19T03:13:48.540-04:00"}, {"id": 8048, "title": "VSCode auto commenter", "devlogs_count": 1, "created_at": "2025-07-24T09:47:30.962-04:00"}, {"id": 1489, "title": "Portfolio", "devlogs_count": 0, "created_at": "2025-06-18T16:16:39.075-04:00"}], "coding_time_seconds": 242312, "coding_time_seconds_today": 0, "balance": "You need to have a pocket watcher badge to view this.", "badges": [], "created_at": "2025-06-18T15:47:23.615-04:00", "updated_at": "2025-07-03T19:50:05.009-04:00", "avatar": "https://secure.gravatar.com/avatar/2f64d02bdc7f6c7eb181c9d51d9eef1d.jpg?s=512&d=https%3A%2F%2Fa.slack-edge.com%2Fdf10d%2Fimg%2Favatars%2Fava_0008-512.png", "custom_css": null}, {"id": 8965, "slack_id": "U0921PHACLD", "display_name": "Towfique Hasan", "bio": null, "projects_count": 0, "devlogs_count": 0, "votes_count": 0, "ships_count": 0, "projects": [], "coding_time_seconds": 0, "coding_time_seconds_today": 0, "balance": "You need to have a pocket watcher badge to view this.", "badges": [], "created_at": "2025-06-18T15:48:04.270-04:00", "updated_at": "2025-07-04T20:09:32.171-04:00", "avatar": "https://secure.gravatar.com/avatar/7fb1c20e10e37fed077bf1fd62ba645b.jpg?s=512&d=https%3A%2F%2Fa.slack-edge.com%2Fdf10d%2Fimg%2Favatars%2Fava_0019-512.png", "custom_css": null}, {"id": 8966, "slack_id": "U04E110FXPS", "display_name": "Rylan Berry", "bio": null, "projects_count": 0, "devlogs_count": 0, "votes_count": 0, "ships_count": 0, "projects": [], "coding_time_seconds": 0, "coding_time_seconds_today": 0, "balance": "You need to have a pocket watcher badge to view this.", "badges": [], "created_at": "2025-06-18T15:48:59.144-04:00", "updated_at": "2025-07-03T19:50:05.413-04:00", "avatar": "https://avatars.slack-edge.com/2022-12-01/4453378964034_617491a484bad809eed2_original.png", "custom_css": null}, {"id": 8967, "slack_id": "U091WRH4EQN", "display_name": "Spiyse", "bio": null, "projects_count": 0, "devlogs_count": 0, "votes_count": 0, "ships_count": 0, "projects": [], "coding_time_seconds": 8562, "coding_time_seconds_today": 0, "balance": "You need to have a pocket watcher badge to view this.", "badges": [], "created_at": "2025-06-18T15:50:56.584-04:00", "updated_at": "2025-07-03T19:50:05.678-04:00", "avatar": "https://secure.gravatar.com/avatar/3c8595f9de1a137100aa00e8a12dd66f.jpg?s=512&d=https%3A%2F%2Fa.slack-edge.com%2Fdf10d%2Fimg%2Favatars%2Fava_0016-512.png", "custom_css": null}, {"id": 8968, "slack_id": "U08480LCZ1S", "display_name": "Martin", "bio": null, "projects_count": 1, "devlogs_count": 1, "votes_count": 19, "ships_count": 1, "projects": [{"id": 7036, "title": "\ud83c\udfae Matching Game \ud83c\udf89\ud83c\udfc6", "devlogs_count": 1, "created_at": "2025-07-18T13:03:29.959-04:00"}], "coding_time_seconds": 34192, "coding_time_seconds_today": 0, "balance": "You need to have a pocket watcher badge to view this.", "badges": [{"name": "Maiden Voyage", "text": "you shipped your first project! the journey begins...", "icon": "\ud83d\udea2"}], "created_at": "2025-06-18T15:51:10.382-04:00", "updated_at": "2025-09-10T22:55:35.726-04:00", "avatar": "https://avatars.slack-edge.com/2025-01-20/8322323964962_d6522cb9d55f3a5d793f_original.jpg", "custom_css": null}, {"id": 8969, "slack_id": "U091WS45CBG", "display_name": "scalp", "bio": null, "projects_count": 0, "devlogs_count": 0, "votes_count": 0, "ships_count": 0, "projects": [], "coding_time_seconds": 0, "coding_time_seconds_today": 0, "balance": "You need to have a pocket watcher badge to view this.", "badges": [], "created_at": "2025-06-18T15:53:38.382-04:00", "updated_at": "2025-07-04T08:24:47.387-04:00", "avatar": "https://secure.gravatar.com/avatar/e78c3b564c11a9e677c176a31193b70e.jpg?s=512&d=https%3A%2F%2Fa.slack-edge.com%2Fdf10d%2Fimg%2Favatars%2Fava_0005-512.png", "custom_css": null}, {"id": 8970, "slack_id": "U092FR21YG1", "display_name": "sky", "bio": null, "projects_count": 0, "devlogs_count": 61, "votes_count": 130, "ships_count": 0, "projects": [], "coding_time_seconds": 462887, "coding_time_seconds_today": 0, "balance": "You need to have a pocket watcher badge to view this.", "badges": [{"name": "Ballot Stuffer", "text": "vote 100 times.", "icon": "https://summer.hackclub.com/assets/i_voted-bf851b48.png"}], "created_at": "2025-06-18T15:55:51.181-04:00", "updated_at": "2025-09-10T22:55:35.784-04:00", "avatar": "https://avatars.slack-edge.com/2025-06-20/9079878372164_5f9d581fcac24aec2ebf_original.jpg", "custom_css": null}, {"id": 8971, "slack_id": "U092RBNGYL8", "display_name": "Josh Ebeling", "bio": null, "projects_count": 0, "devlogs_count": 0, "votes_count": 0, "ships_count": 0, "projects": [], "coding_time_seconds": 0, "coding_time_seconds_today": 0, "balance": "You need to have a pocket watcher badge to view this.", "badges": [], "created_at": "2025-06-18T15:56:01.595-04:00", "updated_at": "2025-07-03T19:50:06.487-04:00", "avatar": "https://secure.gravatar.com/avatar/e971aeb74b1a573a4533dda35c6c9ce2.jpg?s=512&d=https%3A%2F%2Fa.slack-edge.com%2Fdf10d%2Fimg%2Favatars%2Fava_0022-512.png", "custom_css": null}, {"id": 8972, "slack_id": "U091WS60TE2", "display_name": "Tomas L", "bio": null, "projects_count": 2, "devlogs_count": 4, "votes_count": 0, "ships_count": 0, "projects": [{"id": 1554, "title": "Vexmaps", "devlogs_count": 2, "created_at": "2025-06-18T18:22:40.811-04:00"}, {"id": 2169, "title": "Vexlog", "devlogs_count": 2, "created_at": "2025-06-20T10:59:51.761-04:00"}], "coding_time_seconds": 718538, "coding_time_seconds_today": 0, "balance": "You need to have a pocket watcher badge to view this.", "badges": [], "created_at": "2025-06-18T15:56:11.924-04:00", "updated_at": "2025-07-03T19:50:06.752-04:00", "avatar": "https://secure.gravatar.com/avatar/bd1a259c52a99bdcadaf8f54e0d14f6f.jpg?s=512&d=https%3A%2F%2Fa.slack-edge.com%2Fdf10d%2Fimg%2Favatars%2Fava_0019-512.png", "custom_css": null}, {"id": 8973, "slack_id": "U091N79THPH", "display_name": "STEVEN JOSE MEJIA TORREZ", "bio": null, "projects_count": 3, "devlogs_count": 3, "votes_count": 0, "ships_count": 0, "projects": [{"id": 2311, "title": "Python Learning", "devlogs_count": 1, "created_at": "2025-06-20T16:59:03.148-04:00"}, {"id": 3932, "title": "Romantic Bubble Web", "devlogs_count": 2, "created_at": "2025-06-26T11:36:44.634-04:00"}, {"id": 2326, "title": "Estadistic Project", "devlogs_count": 0, "created_at": "2025-06-20T17:45:01.347-04:00"}], "coding_time_seconds": 168329, "coding_time_seconds_today": 0, "balance": "You need to have a pocket watcher badge to view this.", "badges": [], "created_at": "2025-06-18T15:56:20.367-04:00", "updated_at": "2025-07-03T19:50:07.018-04:00", "avatar": "https://avatars.slack-edge.com/2025-06-18/9071081639634_a00dd9952ae7c0c4d44f_original.jpg", "custom_css": null}, {"id": 8974, "slack_id": "U0923FXG27N", "display_name": "Bacus", "bio": null, "projects_count": 0, "devlogs_count": 0, "votes_count": 0, "ships_count": 0, "projects": [], "coding_time_seconds": 0, "coding_time_seconds_today": 0, "balance": "You need to have a pocket watcher badge to view this.", "badges": [], "created_at": "2025-06-18T15:56:27.790-04:00", "updated_at": "2025-07-03T19:50:07.289-04:00", "avatar": "https://secure.gravatar.com/avatar/442a379b4c7bea3bc112b073b462d4de.jpg?s=512&d=https%3A%2F%2Fa.slack-edge.com%2Fdf10d%2Fimg%2Favatars%2Fava_0023-512.png", "custom_css": null}, {"id": 8975, "slack_id": "U092322EX7C", "display_name": "seb moore", "bio": null, "projects_count": 0, "devlogs_count": 0, "votes_count": 0, "ships_count": 0, "projects": [], "coding_time_seconds": 0, "coding_time_seconds_today": 0, "balance": "You need to have a pocket watcher badge to view this.", "badges": [], "created_at": "2025-06-18T15:56:57.863-04:00", "updated_at": "2025-07-03T19:50:07.552-04:00", "avatar": "https://avatars.slack-edge.com/2025-06-18/9069856215253_0ed7c745df638742635a_original.png", "custom_css": null}, {"id": 8976, "slack_id": "U092328984S", "display_name": "ClouD", "bio": null, "projects_count": 1, "devlogs_count": 0, "votes_count": 0, "ships_count": 0, "projects": [{"id": 1507, "title": "Customizable bio page project", "devlogs_count": 0, "created_at": "2025-06-18T16:49:00.340-04:00"}], "coding_time_seconds": 48913, "coding_time_seconds_today": 0, "balance": "You need to have a pocket watcher badge to view this.", "badges": [], "created_at": "2025-06-18T15:58:01.707-04:00", "updated_at": "2025-07-03T19:50:07.809-04:00", "avatar": "https://avatars.slack-edge.com/2025-06-19/9059984211623_d5daec5630a331548d85_original.jpg", "custom_css": null}, {"id": 8977, "slack_id": "U0921QYV9JR", "display_name": "sushovan", "bio": null, "projects_count": 0, "devlogs_count": 0, "votes_count": 0, "ships_count": 0, "projects": [], "coding_time_seconds": 0, "coding_time_seconds_today": 0, "balance": "You need to have a pocket watcher badge to view this.", "badges": [], "created_at": "2025-06-18T16:00:32.411-04:00", "updated_at": "2025-07-03T19:50:08.086-04:00", "avatar": "https://secure.gravatar.com/avatar/6641db93dfe8c1394cfdda1194188f12.jpg?s=512&d=https%3A%2F%2Fa.slack-edge.com%2Fdf10d%2Fimg%2Favatars%2Fava_0012-512.png", "custom_css": null}, {"id": 8978, "slack_id": "U08096C79E0", "display_name": "Anthony Braden", "bio": null, "projects_count": 0, "devlogs_count": 0, "votes_count": 0, "ships_count": 0, "projects": [], "coding_time_seconds": 36639, "coding_time_seconds_today": 0, "balance": "You need to have a pocket watcher badge to view this.", "badges": [], "created_at": "2025-06-18T16:02:13.173-04:00", "updated_at": "2025-09-01T14:12:00.624-04:00", "avatar": "https://avatars.slack-edge.com/2024-11-09/8019690676289_bdae7ec748702e2dba7a_original.jpg", "custom_css": null}, {"id": 8979, "slack_id": "U091WT9AL1L", "display_name": "Marco", "bio": null, "projects_count": 2, "devlogs_count": 33, "votes_count": 40, "ships_count": 1, "projects": [{"id": 2471, "title": "Camcorder", "devlogs_count": 2, "created_at": "2025-06-21T04:53:35.786-04:00"}, {"id": 1515, "title": "RealTime", "devlogs_count": 31, "created_at": "2025-06-18T16:59:31.298-04:00"}], "coding_time_seconds": 103314, "coding_time_seconds_today": 0, "balance": "You need to have a pocket watcher badge to view this.", "badges": [{"name": "Maiden Voyage", "text": "you shipped your first project! the journey begins...", "icon": "\ud83d\udea2"}], "created_at": "2025-06-18T16:04:29.286-04:00", "updated_at": "2025-09-10T22:55:36.031-04:00", "avatar": "https://secure.gravatar.com/avatar/ed4d6c10f5d43acfc4d138fb2b20d44c.jpg?s=512&d=https%3A%2F%2Fa.slack-edge.com%2Fdf10d%2Fimg%2Favatars%2Fava_0009-512.png", "custom_css": null}, {"id": 8980, "slack_id": "U092RLT8LAU", "display_name": "Erique", "bio": null, "projects_count": 0, "devlogs_count": 0, "votes_count": 0, "ships_count": 0, "projects": [], "coding_time_seconds": 0, "coding_time_seconds_today": 0, "balance": "You need to have a pocket watcher badge to view this.", "badges": [], "created_at": "2025-06-18T16:05:18.112-04:00", "updated_at": "2025-07-03T19:50:08.957-04:00", "avatar": "https://avatars.slack-edge.com/2025-06-18/9071613301332_6a88c8d9154721bbb1ee_original.png", "custom_css": null}], "pagination": {"page": 449, "pages": 1192, "count": 23828, "items": 20}}