{"users": [{"id": 881, "slack_id": "U091PLJ9S1J", "display_name": "Davide Infantino", "bio": null, "projects_count": 0, "devlogs_count": 0, "votes_count": 0, "ships_count": 0, "projects": [], "coding_time_seconds": 18131, "coding_time_seconds_today": 0, "balance": "You need to have a pocket watcher badge to view this.", "badges": [], "created_at": "2025-06-16T12:20:30.362-04:00", "updated_at": "2025-07-03T19:15:01.576-04:00", "avatar": "https://secure.gravatar.com/avatar/6a9e787a058b5527f29d59431872693a.jpg?s=512&d=https%3A%2F%2Fa.slack-edge.com%2Fdf10d%2Fimg%2Favatars%2Fava_0006-512.png", "custom_css": null}, {"id": 882, "slack_id": "U091P7QF674", "display_name": "Tashi Penjor", "bio": null, "projects_count": 0, "devlogs_count": 0, "votes_count": 0, "ships_count": 0, "projects": [], "coding_time_seconds": 0, "coding_time_seconds_today": 0, "balance": "You need to have a pocket watcher badge to view this.", "badges": [], "created_at": "2025-06-16T12:20:31.285-04:00", "updated_at": "2025-07-03T19:15:01.863-04:00", "avatar": "https://secure.gravatar.com/avatar/2eee722a5133a27eb0cda8e7b3f589ea.jpg?s=512&d=https%3A%2F%2Fa.slack-edge.com%2Fdf10d%2Fimg%2Favatars%2Fava_0002-512.png", "custom_css": null}, {"id": 883, "slack_id": "U0786TENDM5", "display_name": "Kaeniya", "bio": null, "projects_count": 2, "devlogs_count": 7, "votes_count": 12, "ships_count": 1, "projects": [{"id": 11964, "title": "Rhythm:tm:", "devlogs_count": 4, "created_at": "2025-08-21T14:16:47.630-04:00"}, {"id": 2131, "title": "Rustcord", "devlogs_count": 2, "created_at": "2025-06-20T08:13:57.357-04:00"}], "coding_time_seconds": 145116, "coding_time_seconds_today": 0, "balance": "You need to have a pocket watcher badge to view this.", "badges": [{"name": "Maiden Voyage", "text": "you shipped your first project! the journey begins...", "icon": "\ud83d\udea2"}], "created_at": "2025-06-16T12:20:34.317-04:00", "updated_at": "2025-09-10T22:51:35.224-04:00", "avatar": "https://avatars.slack-edge.com/2025-05-29/8996284040608_744403ea3bed354f5876_original.png", "custom_css": null}, {"id": 884, "slack_id": "U091GBKSU3Y", "display_name": "Shuo", "bio": null, "projects_count": 0, "devlogs_count": 0, "votes_count": 0, "ships_count": 0, "projects": [], "coding_time_seconds": 0, "coding_time_seconds_today": 0, "balance": "You need to have a pocket watcher badge to view this.", "badges": [], "created_at": "2025-06-16T12:20:35.303-04:00", "updated_at": "2025-07-03T19:15:02.394-04:00", "avatar": "https://secure.gravatar.com/avatar/0fa1e02c1b5a6ea247d5d36e6e988735.jpg?s=512&d=https%3A%2F%2Fa.slack-edge.com%2Fdf10d%2Fimg%2Favatars%2Fava_0020-512.png", "custom_css": null}, {"id": 885, "slack_id": "U092BMLGF24", "display_name": "happyshot10", "bio": null, "projects_count": 1, "devlogs_count": 2, "votes_count": 2, "ships_count": 1, "projects": [{"id": 422, "title": "PlanIt", "devlogs_count": 2, "created_at": "2025-06-16T20:59:04.004-04:00"}], "coding_time_seconds": 24385, "coding_time_seconds_today": 0, "balance": "You need to have a pocket watcher badge to view this.", "badges": [{"name": "Maiden Voyage", "text": "you shipped your first project! the journey begins...", "icon": "\ud83d\udea2"}], "created_at": "2025-06-16T12:20:35.919-04:00", "updated_at": "2025-09-10T22:51:35.332-04:00", "avatar": "https://avatars.slack-edge.com/2025-06-16/9079756501568_acd0af5fa910558db357_original.gif", "custom_css": null}, {"id": 886, "slack_id": "U091PLDTMLL", "display_name": "Bartosz Pacyga", "bio": null, "projects_count": 0, "devlogs_count": 0, "votes_count": 0, "ships_count": 0, "projects": [], "coding_time_seconds": 0, "coding_time_seconds_today": 0, "balance": "You need to have a pocket watcher badge to view this.", "badges": [], "created_at": "2025-06-16T12:20:37.318-04:00", "updated_at": "2025-07-03T19:15:02.925-04:00", "avatar": "https://secure.gravatar.com/avatar/8a907f83068a86be8247908778de8b84.jpg?s=512&d=https%3A%2F%2Fa.slack-edge.com%2Fdf10d%2Fimg%2Favatars%2Fava_0019-512.png", "custom_css": null}, {"id": 887, "slack_id": "U07963V1L0Y", "display_name": "Joel Joby", "bio": null, "projects_count": 5, "devlogs_count": 33, "votes_count": 63, "ships_count": 2, "projects": [{"id": 5127, "title": "ShipStack", "devlogs_count": 7, "created_at": "2025-07-03T11:36:00.590-04:00"}, {"id": 6319, "title": "Zap - Virtual Queues", "devlogs_count": 11, "created_at": "2025-07-12T09:58:52.528-04:00"}, {"id": 8039, "title": "shipstack-cli", "devlogs_count": 2, "created_at": "2025-07-24T08:36:48.768-04:00"}, {"id": 12920, "title": "TraceKey", "devlogs_count": 7, "created_at": "2025-09-05T09:43:00.750-04:00"}, {"id": 2901, "title": "Person-ite Site", "devlogs_count": 6, "created_at": "2025-06-22T12:03:56.277-04:00"}], "coding_time_seconds": 240974, "coding_time_seconds_today": 0, "balance": "You need to have a pocket watcher badge to view this.", "badges": [{"name": "Maiden Voyage", "text": "you shipped your first project! the journey begins...", "icon": "\ud83d\udea2"}], "created_at": "2025-06-16T12:21:01.873-04:00", "updated_at": "2025-09-10T22:51:35.435-04:00", "avatar": "https://avatars.slack-edge.com/2024-10-13/7872018235363_5787e0ac2390890975f7_original.jpg", "custom_css": null}, {"id": 888, "slack_id": "U0921QPMFFT", "display_name": "Jeffrey Zhu", "bio": null, "projects_count": 0, "devlogs_count": 0, "votes_count": 0, "ships_count": 0, "projects": [], "coding_time_seconds": 0, "coding_time_seconds_today": 0, "balance": "You need to have a pocket watcher badge to view this.", "badges": [], "created_at": "2025-06-16T12:21:05.459-04:00", "updated_at": "2025-07-03T19:15:03.475-04:00", "avatar": "https://avatars.slack-edge.com/2025-06-16/9041976406455_afc12d85327e43ef7b4a_original.jpg", "custom_css": null}, {"id": 889, "slack_id": "U091P7X41NE", "display_name": "Rishikesh Kumar", "bio": null, "projects_count": 0, "devlogs_count": 0, "votes_count": 0, "ships_count": 0, "projects": [], "coding_time_seconds": 69, "coding_time_seconds_today": 0, "balance": "You need to have a pocket watcher badge to view this.", "badges": [], "created_at": "2025-06-16T12:21:07.695-04:00", "updated_at": "2025-07-03T19:15:03.744-04:00", "avatar": "https://secure.gravatar.com/avatar/374eda9a1baecf26423b5ac70d16c25b.jpg?s=512&d=https%3A%2F%2Fa.slack-edge.com%2Fdf10d%2Fimg%2Favatars%2Fava_0008-512.png", "custom_css": null}, {"id": 890, "slack_id": "U07UD57S0N7", "display_name": "Nicol\u00f2 Tarter", "bio": null, "projects_count": 1, "devlogs_count": 4, "votes_count": 2, "ships_count": 0, "projects": [{"id": 898, "title": "Gestione Studente", "devlogs_count": 4, "created_at": "2025-06-17T10:45:07.560-04:00"}], "coding_time_seconds": 71654, "coding_time_seconds_today": 0, "balance": "You need to have a pocket watcher badge to view this.", "badges": [], "created_at": "2025-06-16T12:21:13.125-04:00", "updated_at": "2025-09-09T13:51:50.446-04:00", "avatar": "https://secure.gravatar.com/avatar/860fad38c991c3b47aa51e49d488ed1d.jpg?s=512&d=https%3A%2F%2Fa.slack-edge.com%2Fdf10d%2Fimg%2Favatars%2Fava_0019-512.png", "custom_css": null}, {"id": 891, "slack_id": "U091GBU5SMC", "display_name": "Adam Rohal", "bio": null, "projects_count": 0, "devlogs_count": 0, "votes_count": 0, "ships_count": 0, "projects": [], "coding_time_seconds": 174770, "coding_time_seconds_today": 0, "balance": "You need to have a pocket watcher badge to view this.", "badges": [], "created_at": "2025-06-16T12:21:27.280-04:00", "updated_at": "2025-07-03T19:15:04.291-04:00", "avatar": "https://secure.gravatar.com/avatar/5280ce8a1ca2ccd2919b4cc3354c62f7.jpg?s=512&d=https%3A%2F%2Fa.slack-edge.com%2Fdf10d%2Fimg%2Favatars%2Fava_0004-512.png", "custom_css": null}, {"id": 892, "slack_id": "U091MEESEDT", "display_name": "Brian", "bio": null, "projects_count": 8, "devlogs_count": 111, "votes_count": 251, "ships_count": 7, "projects": [{"id": 10034, "title": "whiptail-js", "devlogs_count": 8, "created_at": "2025-08-03T15:09:22.540-04:00"}, {"id": 11542, "title": "Bitwarden Duplicate Checker", "devlogs_count": 6, "created_at": "2025-08-16T21:46:38.271-04:00"}, {"id": 12255, "title": "Stockbin", "devlogs_count": 18, "created_at": "2025-08-24T23:12:19.885-04:00"}, {"id": 12784, "title": "echoMail", "devlogs_count": 26, "created_at": "2025-09-02T11:46:07.736-04:00"}, {"id": 13101, "title": "Dispatch", "devlogs_count": 21, "created_at": "2025-09-08T15:07:44.321-04:00"}, {"id": 4872, "title": "Bitwarden Auto-Backup Manager", "devlogs_count": 8, "created_at": "2025-07-02T01:25:30.163-04:00"}, {"id": 419, "title": "Timer Bot", "devlogs_count": 22, "created_at": "2025-06-16T20:55:33.210-04:00"}, {"id": 10307, "title": "Personal Website", "devlogs_count": 5, "created_at": "2025-08-05T18:45:00.927-04:00"}], "coding_time_seconds": 526006, "coding_time_seconds_today": 0, "balance": "You need to have a pocket watcher badge to view this.", "badges": [{"name": "Maiden Voyage", "text": "you shipped your first project! the journey begins...", "icon": "\ud83d\udea2"}, {"name": "Ballot Stuffer", "text": "vote 100 times.", "icon": "https://summer.hackclub.com/assets/i_voted-bf851b48.png"}], "created_at": "2025-06-16T12:21:32.875-04:00", "updated_at": "2025-09-10T22:51:35.609-04:00", "avatar": "https://avatars.slack-edge.com/2025-09-03/9464370217505_59aaccb3f26eb1a49ecb_original.jpg", "custom_css": null}, {"id": 893, "slack_id": "U091MEL3TC5", "display_name": "ozzy", "bio": null, "projects_count": 0, "devlogs_count": 0, "votes_count": 0, "ships_count": 0, "projects": [], "coding_time_seconds": 0, "coding_time_seconds_today": 0, "balance": "You need to have a pocket watcher badge to view this.", "badges": [], "created_at": "2025-06-16T12:21:39.506-04:00", "updated_at": "2025-07-03T19:15:04.848-04:00", "avatar": "https://secure.gravatar.com/avatar/3088421f819df73f622eb7ef200ac906.jpg?s=512&d=https%3A%2F%2Fa.slack-edge.com%2Fdf10d%2Fimg%2Favatars%2Fava_0002-512.png", "custom_css": null}, {"id": 894, "slack_id": "U092BN1070Q", "display_name": "Joel Singh", "bio": null, "projects_count": 0, "devlogs_count": 0, "votes_count": 0, "ships_count": 0, "projects": [], "coding_time_seconds": 10657, "coding_time_seconds_today": 0, "balance": "You need to have a pocket watcher badge to view this.", "badges": [], "created_at": "2025-06-16T12:21:39.771-04:00", "updated_at": "2025-07-03T19:15:05.121-04:00", "avatar": "https://secure.gravatar.com/avatar/24f368c2dca5a6edb333e3474963fd72.jpg?s=512&d=https%3A%2F%2Fa.slack-edge.com%2Fdf10d%2Fimg%2Favatars%2Fava_0004-512.png", "custom_css": null}, {"id": 895, "slack_id": "U091MEHAJMB", "display_name": "Luca", "bio": null, "projects_count": 0, "devlogs_count": 0, "votes_count": 0, "ships_count": 0, "projects": [], "coding_time_seconds": 0, "coding_time_seconds_today": 0, "balance": "You need to have a pocket watcher badge to view this.", "badges": [], "created_at": "2025-06-16T12:21:43.063-04:00", "updated_at": "2025-07-03T19:15:05.445-04:00", "avatar": "https://secure.gravatar.com/avatar/bded6783441743857060518364b22a17.jpg?s=512&d=https%3A%2F%2Fa.slack-edge.com%2Fdf10d%2Fimg%2Favatars%2Fava_0003-512.png", "custom_css": null}, {"id": 896, "slack_id": "U091MERKQ93", "display_name": "Leonardo", "bio": null, "projects_count": 0, "devlogs_count": 0, "votes_count": 0, "ships_count": 0, "projects": [], "coding_time_seconds": 2491, "coding_time_seconds_today": 0, "balance": "You need to have a pocket watcher badge to view this.", "badges": [], "created_at": "2025-06-16T12:21:49.842-04:00", "updated_at": "2025-07-03T19:15:06.576-04:00", "avatar": "https://secure.gravatar.com/avatar/f9924a08c44b40ebbd020c59f5f9b621.jpg?s=512&d=https%3A%2F%2Fa.slack-edge.com%2Fdf10d%2Fimg%2Favatars%2Fava_0007-512.png", "custom_css": null}, {"id": 897, "slack_id": "U091MEP0QER", "display_name": "Viovyx", "bio": null, "projects_count": 1, "devlogs_count": 2, "votes_count": 2, "ships_count": 1, "projects": [{"id": 5863, "title": "Project GWAS", "devlogs_count": 2, "created_at": "2025-07-08T14:35:55.580-04:00"}], "coding_time_seconds": 154544, "coding_time_seconds_today": 152, "balance": "You need to have a pocket watcher badge to view this.", "badges": [{"name": "Maiden Voyage", "text": "you shipped your first project! the journey begins...", "icon": "\ud83d\udea2"}], "created_at": "2025-06-16T12:21:54.925-04:00", "updated_at": "2025-09-10T22:51:35.782-04:00", "avatar": "https://secure.gravatar.com/avatar/a79e81f1faf8e73e3d42a466ecd58eaf.jpg?s=512&d=https%3A%2F%2Fa.slack-edge.com%2Fdf10d%2Fimg%2Favatars%2Fava_0012-512.png", "custom_css": null}, {"id": 898, "slack_id": "U023UND4D26", "display_name": "atharv", "bio": null, "projects_count": 0, "devlogs_count": 0, "votes_count": 0, "ships_count": 0, "projects": [], "coding_time_seconds": 0, "coding_time_seconds_today": 0, "balance": "You need to have a pocket watcher badge to view this.", "badges": [], "created_at": "2025-06-16T12:22:07.264-04:00", "updated_at": "2025-07-03T19:15:07.113-04:00", "avatar": "https://avatars.slack-edge.com/2025-03-02/8537855721602_0bfa82256a6ea6c4575d_original.png", "custom_css": null}, {"id": 899, "slack_id": "U0917UJAUR5", "display_name": "Lucas Vandermaarel", "bio": null, "projects_count": 0, "devlogs_count": 0, "votes_count": 0, "ships_count": 0, "projects": [], "coding_time_seconds": 9690, "coding_time_seconds_today": 0, "balance": "You need to have a pocket watcher badge to view this.", "badges": [], "created_at": "2025-06-16T12:22:12.787-04:00", "updated_at": "2025-07-03T19:15:07.390-04:00", "avatar": "https://avatars.slack-edge.com/2025-06-16/9050318073075_6de1772caac00c286f15_original.jpg", "custom_css": null}, {"id": 900, "slack_id": "U07C5A9K52L", "display_name": "Didoub74", "bio": null, "projects_count": 0, "devlogs_count": 0, "votes_count": 0, "ships_count": 0, "projects": [], "coding_time_seconds": 0, "coding_time_seconds_today": 0, "balance": "You need to have a pocket watcher badge to view this.", "badges": [], "created_at": "2025-06-16T12:22:20.610-04:00", "updated_at": "2025-07-03T19:15:07.660-04:00", "avatar": "https://avatars.slack-edge.com/2024-11-29/8087146837751_305c625f8c484f9957b4_original.png", "custom_css": null}], "pagination": {"page": 45, "pages": 1192, "count": 23827, "items": 20}}