{"users": [{"id": 8981, "slack_id": "U091GTMAP5H", "display_name": "Davi", "bio": null, "projects_count": 0, "devlogs_count": 0, "votes_count": 0, "ships_count": 0, "projects": [], "coding_time_seconds": 0, "coding_time_seconds_today": 0, "balance": "You need to have a pocket watcher badge to view this.", "badges": [], "created_at": "2025-06-18T16:06:13.037-04:00", "updated_at": "2025-07-03T19:50:09.225-04:00", "avatar": "https://secure.gravatar.com/avatar/fbf94b87ff6b33b405a6493bd97415db.jpg?s=512&d=https%3A%2F%2Fa.slack-edge.com%2Fdf10d%2Fimg%2Favatars%2Fava_0010-512.png", "custom_css": null}, {"id": 8982, "slack_id": "U091BDC7CT1", "display_name": "alayna shahjahan", "bio": null, "projects_count": 0, "devlogs_count": 0, "votes_count": 0, "ships_count": 0, "projects": [], "coding_time_seconds": 0, "coding_time_seconds_today": 0, "balance": "You need to have a pocket watcher badge to view this.", "badges": [], "created_at": "2025-06-18T16:06:31.140-04:00", "updated_at": "2025-07-03T19:50:09.494-04:00", "avatar": "https://secure.gravatar.com/avatar/eb49c5f3bb1eb47133dd8f18f71cad93.jpg?s=512&d=https%3A%2F%2Fa.slack-edge.com%2Fdf10d%2Fimg%2Favatars%2Fava_0008-512.png", "custom_css": null}, {"id": 8983, "slack_id": "U091N989C3Z", "display_name": "Arsh", "bio": null, "projects_count": 0, "devlogs_count": 0, "votes_count": 0, "ships_count": 0, "projects": [], "coding_time_seconds": 0, "coding_time_seconds_today": 0, "balance": "You need to have a pocket watcher badge to view this.", "badges": [], "created_at": "2025-06-18T16:07:33.290-04:00", "updated_at": "2025-07-03T19:50:09.760-04:00", "avatar": "https://secure.gravatar.com/avatar/c267afedc87a9afc6e677bb56d03d387.jpg?s=512&d=https%3A%2F%2Fa.slack-edge.com%2Fdf10d%2Fimg%2Favatars%2Fava_0021-512.png", "custom_css": null}, {"id": 8984, "slack_id": "U0923J2JA5S", "display_name": "jXD20072", "bio": null, "projects_count": 1, "devlogs_count": 5, "votes_count": 1, "ships_count": 0, "projects": [{"id": 2196, "title": "Isle", "devlogs_count": 5, "created_at": "2025-06-20T12:08:32.664-04:00"}], "coding_time_seconds": 93447, "coding_time_seconds_today": 0, "balance": "You need to have a pocket watcher badge to view this.", "badges": [], "created_at": "2025-06-18T16:08:15.652-04:00", "updated_at": "2025-07-03T19:50:10.043-04:00", "avatar": "https://secure.gravatar.com/avatar/c013e0ddd891218b0d1f498899867e2a.jpg?s=512&d=https%3A%2F%2Fa.slack-edge.com%2Fdf10d%2Fimg%2Favatars%2Fava_0008-512.png", "custom_css": null}, {"id": 8985, "slack_id": "U09234922M8", "display_name": "Binnisha Minocha", "bio": null, "projects_count": 0, "devlogs_count": 0, "votes_count": 0, "ships_count": 0, "projects": [], "coding_time_seconds": 3977, "coding_time_seconds_today": 0, "balance": "You need to have a pocket watcher badge to view this.", "badges": [], "created_at": "2025-06-18T16:10:09.083-04:00", "updated_at": "2025-07-03T19:50:10.324-04:00", "avatar": "https://secure.gravatar.com/avatar/fa8fcf875ade9c8d86629c14f7b1c23f.jpg?s=512&d=https%3A%2F%2Fa.slack-edge.com%2Fdf10d%2Fimg%2Favatars%2Fava_0009-512.png", "custom_css": null}, {"id": 8986, "slack_id": "U092RMN4T88", "display_name": "RandomLegoBrick", "bio": null, "projects_count": 0, "devlogs_count": 0, "votes_count": 0, "ships_count": 0, "projects": [], "coding_time_seconds": 0, "coding_time_seconds_today": 0, "balance": "You need to have a pocket watcher badge to view this.", "badges": [], "created_at": "2025-06-18T16:10:50.022-04:00", "updated_at": "2025-07-03T19:50:10.658-04:00", "avatar": "https://secure.gravatar.com/avatar/b09150ae633221b3f69121bd2140ceb8.jpg?s=512&d=https%3A%2F%2Fa.slack-edge.com%2Fdf10d%2Fimg%2Favatars%2Fava_0011-512.png", "custom_css": null}, {"id": 8987, "slack_id": "U09234J75LJ", "display_name": "Rohan Minocha", "bio": null, "projects_count": 0, "devlogs_count": 0, "votes_count": 0, "ships_count": 0, "projects": [], "coding_time_seconds": 0, "coding_time_seconds_today": 0, "balance": "You need to have a pocket watcher badge to view this.", "badges": [], "created_at": "2025-06-18T16:11:14.621-04:00", "updated_at": "2025-07-03T19:50:10.922-04:00", "avatar": "https://secure.gravatar.com/avatar/5490e755b155ca28eeaaffa8744c406a.jpg?s=512&d=https%3A%2F%2Fa.slack-edge.com%2Fdf10d%2Fimg%2Favatars%2Fava_0023-512.png", "custom_css": null}, {"id": 8988, "slack_id": "U09234GK7A6", "display_name": "Wasee", "bio": null, "projects_count": 0, "devlogs_count": 0, "votes_count": 0, "ships_count": 0, "projects": [], "coding_time_seconds": 0, "coding_time_seconds_today": 0, "balance": "You need to have a pocket watcher badge to view this.", "badges": [], "created_at": "2025-06-18T16:12:16.760-04:00", "updated_at": "2025-07-03T19:50:11.190-04:00", "avatar": "https://secure.gravatar.com/avatar/787d4aec51af8af3ae00456b8e2ebaea.jpg?s=512&d=https%3A%2F%2Fa.slack-edge.com%2Fdf10d%2Fimg%2Favatars%2Fava_0000-512.png", "custom_css": null}, {"id": 8989, "slack_id": "U08TXNXAQ56", "display_name": "ShortKing", "bio": null, "projects_count": 0, "devlogs_count": 0, "votes_count": 0, "ships_count": 0, "projects": [], "coding_time_seconds": 0, "coding_time_seconds_today": 0, "balance": "You need to have a pocket watcher badge to view this.", "badges": [], "created_at": "2025-06-18T16:13:52.058-04:00", "updated_at": "2025-07-07T02:11:10.425-04:00", "avatar": "https://avatars.slack-edge.com/2025-07-05/9155083845620_58470413fde9661d2c79_original.jpg", "custom_css": null}, {"id": 8990, "slack_id": "U0921TXHXJ9", "display_name": "Daniel", "bio": null, "projects_count": 1, "devlogs_count": 2, "votes_count": 3, "ships_count": 0, "projects": [{"id": 1905, "title": "dev-tools", "devlogs_count": 2, "created_at": "2025-06-19T15:11:03.520-04:00"}], "coding_time_seconds": 158082, "coding_time_seconds_today": 0, "balance": "You need to have a pocket watcher badge to view this.", "badges": [], "created_at": "2025-06-18T16:17:13.749-04:00", "updated_at": "2025-08-27T08:45:34.204-04:00", "avatar": "https://avatars.slack-edge.com/2025-08-27/9430939657265_3a51c00b2be72f30a1ea_original.jpg", "custom_css": null}, {"id": 8991, "slack_id": "U091NAUP2UX", "display_name": "Matthy", "bio": null, "projects_count": 1, "devlogs_count": 16, "votes_count": 18, "ships_count": 1, "projects": [{"id": 1934, "title": "AI-Shell", "devlogs_count": 16, "created_at": "2025-06-19T16:43:55.289-04:00"}], "coding_time_seconds": 287920, "coding_time_seconds_today": 147, "balance": "You need to have a pocket watcher badge to view this.", "badges": [{"name": "Maiden Voyage", "text": "you shipped your first project! the journey begins...", "icon": "\ud83d\udea2"}], "created_at": "2025-06-18T16:19:12.756-04:00", "updated_at": "2025-09-10T22:55:36.304-04:00", "avatar": "https://secure.gravatar.com/avatar/0d68bd723e2f22490682fe082f6194c9.jpg?s=512&d=https%3A%2F%2Fa.slack-edge.com%2Fdf10d%2Fimg%2Favatars%2Fava_0012-512.png", "custom_css": null}, {"id": 8992, "slack_id": "U0797DZ75SP", "display_name": "Neetre", "bio": null, "projects_count": 0, "devlogs_count": 0, "votes_count": 0, "ships_count": 0, "projects": [], "coding_time_seconds": 97695, "coding_time_seconds_today": 0, "balance": "You need to have a pocket watcher badge to view this.", "badges": [], "created_at": "2025-06-18T16:19:34.798-04:00", "updated_at": "2025-07-05T20:10:25.360-04:00", "avatar": "https://avatars.slack-edge.com/2024-06-23/7303534220359_be43eb7c1c390eb610a8_original.png", "custom_css": null}, {"id": 8993, "slack_id": "U092FV1CNQ1", "display_name": "keyed0wt", "bio": null, "projects_count": 0, "devlogs_count": 0, "votes_count": 0, "ships_count": 0, "projects": [], "coding_time_seconds": 30125, "coding_time_seconds_today": 0, "balance": "You need to have a pocket watcher badge to view this.", "badges": [], "created_at": "2025-06-18T16:19:35.230-04:00", "updated_at": "2025-07-03T19:50:12.395-04:00", "avatar": "https://secure.gravatar.com/avatar/76270216c2f2f3e12c86fb47d46050c2.jpg?s=512&d=https%3A%2F%2Fa.slack-edge.com%2Fdf10d%2Fimg%2Favatars%2Fava_0005-512.png", "custom_css": null}, {"id": 8994, "slack_id": "U092RNL9WGG", "display_name": "Saransh", "bio": null, "projects_count": 0, "devlogs_count": 0, "votes_count": 0, "ships_count": 0, "projects": [], "coding_time_seconds": 0, "coding_time_seconds_today": 0, "balance": "You need to have a pocket watcher badge to view this.", "badges": [], "created_at": "2025-06-18T16:20:01.094-04:00", "updated_at": "2025-07-03T19:50:12.668-04:00", "avatar": "https://secure.gravatar.com/avatar/a885d21cbd8519d414e094442055eee5.jpg?s=512&d=https%3A%2F%2Fa.slack-edge.com%2Fdf10d%2Fimg%2Favatars%2Fava_0005-512.png", "custom_css": null}, {"id": 8995, "slack_id": "U0921U9S745", "display_name": "Imran", "bio": null, "projects_count": 2, "devlogs_count": 61, "votes_count": 60, "ships_count": 2, "projects": [{"id": 5203, "title": "GitLeague", "devlogs_count": 13, "created_at": "2025-07-03T17:36:48.451-04:00"}, {"id": 6813, "title": "WeatherLounge", "devlogs_count": 46, "created_at": "2025-07-16T13:43:38.671-04:00"}], "coding_time_seconds": 267755, "coding_time_seconds_today": 0, "balance": "You need to have a pocket watcher badge to view this.", "badges": [{"name": "Maiden Voyage", "text": "you shipped your first project! the journey begins...", "icon": "\ud83d\udea2"}], "created_at": "2025-06-18T16:20:57.243-04:00", "updated_at": "2025-09-10T22:55:36.432-04:00", "avatar": "https://secure.gravatar.com/avatar/c28d0e72f8da5bdb5c6f5aa667d653a5.jpg?s=512&d=https%3A%2F%2Fa.slack-edge.com%2Fdf10d%2Fimg%2Favatars%2Fava_0006-512.png", "custom_css": null}, {"id": 8996, "slack_id": "U0923L85QBE", "display_name": "Brad", "bio": null, "projects_count": 0, "devlogs_count": 0, "votes_count": 0, "ships_count": 0, "projects": [], "coding_time_seconds": 0, "coding_time_seconds_today": 0, "balance": "You need to have a pocket watcher badge to view this.", "badges": [], "created_at": "2025-06-18T16:25:06.553-04:00", "updated_at": "2025-07-03T19:50:13.199-04:00", "avatar": "https://secure.gravatar.com/avatar/1407f38a8ddaadad1950d99d626f1afa.jpg?s=512&d=https%3A%2F%2Fa.slack-edge.com%2Fdf10d%2Fimg%2Favatars%2Fava_0015-512.png", "custom_css": null}, {"id": 8997, "slack_id": "U0923L78P9S", "display_name": "Kahea Sako", "bio": null, "projects_count": 0, "devlogs_count": 0, "votes_count": 0, "ships_count": 0, "projects": [], "coding_time_seconds": 0, "coding_time_seconds_today": 0, "balance": "You need to have a pocket watcher badge to view this.", "badges": [], "created_at": "2025-06-18T16:25:15.617-04:00", "updated_at": "2025-07-03T19:50:13.471-04:00", "avatar": "https://secure.gravatar.com/avatar/8996a198e51e3370f46eb19ab9dc5a31.jpg?s=512&d=https%3A%2F%2Fa.slack-edge.com%2Fdf10d%2Fimg%2Favatars%2Fava_0006-512.png", "custom_css": null}, {"id": 8998, "slack_id": "U0918VD5VFZ", "display_name": "Othmane Lourini", "bio": null, "projects_count": 0, "devlogs_count": 0, "votes_count": 0, "ships_count": 0, "projects": [], "coding_time_seconds": 1196, "coding_time_seconds_today": 0, "balance": "You need to have a pocket watcher badge to view this.", "badges": [], "created_at": "2025-06-18T16:25:51.227-04:00", "updated_at": "2025-07-03T19:50:13.757-04:00", "avatar": "https://avatars.slack-edge.com/2025-06-18/9084032400833_ebe28bc4f32509d8861e_original.jpg", "custom_css": null}, {"id": 8999, "slack_id": "U092RPEB2BA", "display_name": "Thomas", "bio": null, "projects_count": 0, "devlogs_count": 0, "votes_count": 0, "ships_count": 0, "projects": [], "coding_time_seconds": 0, "coding_time_seconds_today": 0, "balance": "You need to have a pocket watcher badge to view this.", "badges": [], "created_at": "2025-06-18T16:27:11.565-04:00", "updated_at": "2025-07-03T19:50:14.031-04:00", "avatar": "https://secure.gravatar.com/avatar/c90735fb791721ababae4e3c51ff8c13.jpg?s=512&d=https%3A%2F%2Fa.slack-edge.com%2Fdf10d%2Fimg%2Favatars%2Fava_0004-512.png", "custom_css": null}, {"id": 9000, "slack_id": "U0828FJ3JP6", "display_name": "Jimmy", "bio": null, "projects_count": 0, "devlogs_count": 0, "votes_count": 0, "ships_count": 0, "projects": [], "coding_time_seconds": 0, "coding_time_seconds_today": 0, "balance": "You need to have a pocket watcher badge to view this.", "badges": [], "created_at": "2025-06-18T16:27:30.042-04:00", "updated_at": "2025-09-24T06:44:56.968-04:00", "avatar": "https://avatars.slack-edge.com/2025-09-24/9578171548916_199658bca6698bfa0fa9_original.png", "custom_css": null}], "pagination": {"page": 450, "pages": 1192, "count": 23828, "items": 20}}