{"users": [{"id": 9021, "slack_id": "U091X52E7NJ", "display_name": "sukanya", "bio": null, "projects_count": 0, "devlogs_count": 0, "votes_count": 0, "ships_count": 0, "projects": [], "coding_time_seconds": 0, "coding_time_seconds_today": 0, "balance": "You need to have a pocket watcher badge to view this.", "badges": [], "created_at": "2025-06-18T16:54:39.872-04:00", "updated_at": "2025-07-03T19:50:20.206-04:00", "avatar": "https://secure.gravatar.com/avatar/c10b7a7d3c36e81e57366f29607fcd87.jpg?s=512&d=https%3A%2F%2Fa.slack-edge.com%2Fdf10d%2Fimg%2Favatars%2Fava_0007-512.png", "custom_css": null}, {"id": 9022, "slack_id": "U0920K6EDN1", "display_name": "Andriel Nguyen", "bio": null, "projects_count": 0, "devlogs_count": 0, "votes_count": 0, "ships_count": 0, "projects": [], "coding_time_seconds": 0, "coding_time_seconds_today": 0, "balance": "You need to have a pocket watcher badge to view this.", "badges": [], "created_at": "2025-06-18T16:57:19.813-04:00", "updated_at": "2025-07-03T21:47:13.943-04:00", "avatar": "https://secure.gravatar.com/avatar/9075fb7c3450b0ebf625c47ea1170c53.jpg?s=512&d=https%3A%2F%2Fa.slack-edge.com%2Fdf10d%2Fimg%2Favatars%2Fava_0023-512.png", "custom_css": null}, {"id": 9023, "slack_id": "U091X5G0JF8", "display_name": "ToBeTobi", "bio": null, "projects_count": 0, "devlogs_count": 0, "votes_count": 0, "ships_count": 0, "projects": [], "coding_time_seconds": 0, "coding_time_seconds_today": 0, "balance": "You need to have a pocket watcher badge to view this.", "badges": [], "created_at": "2025-06-18T16:57:26.412-04:00", "updated_at": "2025-07-03T21:59:14.635-04:00", "avatar": "https://secure.gravatar.com/avatar/555eab0eb9f7d8552f03ec921a6fe243.jpg?s=512&d=https%3A%2F%2Fa.slack-edge.com%2Fdf10d%2Fimg%2Favatars%2Fava_0023-512.png", "custom_css": null}, {"id": 9024, "slack_id": "U0923AT58HG", "display_name": "Ritesh Shukla", "bio": null, "projects_count": 0, "devlogs_count": 0, "votes_count": 0, "ships_count": 0, "projects": [], "coding_time_seconds": 0, "coding_time_seconds_today": 0, "balance": "You need to have a pocket watcher badge to view this.", "badges": [], "created_at": "2025-06-18T16:57:44.405-04:00", "updated_at": "2025-07-03T19:50:20.770-04:00", "avatar": "https://secure.gravatar.com/avatar/2aed424a1d972d249a8feb0568104c13.jpg?s=512&d=https%3A%2F%2Fa.slack-edge.com%2Fdf10d%2Fimg%2Favatars%2Fava_0016-512.png", "custom_css": null}, {"id": 9025, "slack_id": "U092RUE30E4", "display_name": "Aleksandar", "bio": null, "projects_count": 0, "devlogs_count": 0, "votes_count": 0, "ships_count": 0, "projects": [], "coding_time_seconds": 15077, "coding_time_seconds_today": 0, "balance": "You need to have a pocket watcher badge to view this.", "badges": [], "created_at": "2025-06-18T16:57:57.761-04:00", "updated_at": "2025-07-03T19:50:21.037-04:00", "avatar": "https://secure.gravatar.com/avatar/0b8e569ddb49f29e0c5ca5f04ab8fd59.jpg?s=512&d=https%3A%2F%2Fa.slack-edge.com%2Fdf10d%2Fimg%2Favatars%2Fava_0015-512.png", "custom_css": null}, {"id": 9026, "slack_id": "U0922481PRT", "display_name": "Rahul Chauhan", "bio": null, "projects_count": 0, "devlogs_count": 0, "votes_count": 0, "ships_count": 0, "projects": [], "coding_time_seconds": 0, "coding_time_seconds_today": 0, "balance": "You need to have a pocket watcher badge to view this.", "badges": [], "created_at": "2025-06-18T16:59:09.635-04:00", "updated_at": "2025-07-03T19:50:21.294-04:00", "avatar": "https://avatars.slack-edge.com/2025-06-18/9070167502885_92b8f8b534b423b6676d_original.jpg", "custom_css": null}, {"id": 9027, "slack_id": "U0923BW1DJN", "display_name": "Yahya Mekerrmi", "bio": null, "projects_count": 0, "devlogs_count": 0, "votes_count": 0, "ships_count": 0, "projects": [], "coding_time_seconds": 0, "coding_time_seconds_today": 0, "balance": "You need to have a pocket watcher badge to view this.", "badges": [], "created_at": "2025-06-18T17:04:56.668-04:00", "updated_at": "2025-07-03T19:50:21.558-04:00", "avatar": "https://secure.gravatar.com/avatar/74a44319c3c42eba0eadacba0187d478.jpg?s=512&d=https%3A%2F%2Fa.slack-edge.com%2Fdf10d%2Fimg%2Favatars%2Fava_0006-512.png", "custom_css": null}, {"id": 9028, "slack_id": "U091X6V7RRU", "display_name": "Seif Ali", "bio": null, "projects_count": 0, "devlogs_count": 0, "votes_count": 0, "ships_count": 0, "projects": [], "coding_time_seconds": 0, "coding_time_seconds_today": 0, "balance": "You need to have a pocket watcher badge to view this.", "badges": [], "created_at": "2025-06-18T17:05:58.164-04:00", "updated_at": "2025-07-03T19:50:21.852-04:00", "avatar": "https://secure.gravatar.com/avatar/15dcde844d5a9009a1ed446e9003a449.jpg?s=512&d=https%3A%2F%2Fa.slack-edge.com%2Fdf10d%2Fimg%2Favatars%2Fava_0007-512.png", "custom_css": null}, {"id": 9029, "slack_id": "U08RWSPN7MF", "display_name": "Michael Pham", "bio": null, "projects_count": 0, "devlogs_count": 0, "votes_count": 0, "ships_count": 0, "projects": [], "coding_time_seconds": 94747, "coding_time_seconds_today": 0, "balance": "You need to have a pocket watcher badge to view this.", "badges": [], "created_at": "2025-06-18T17:08:31.069-04:00", "updated_at": "2025-07-03T19:50:22.111-04:00", "avatar": "https://secure.gravatar.com/avatar/6b12b1a30a921193dca49b22e59c6b37.jpg?s=512&d=https%3A%2F%2Fa.slack-edge.com%2Fdf10d%2Fimg%2Favatars%2Fava_0026-512.png", "custom_css": null}, {"id": 9030, "slack_id": "U0923SHR7QC", "display_name": "Ayhem Kouki", "bio": null, "projects_count": 0, "devlogs_count": 0, "votes_count": 0, "ships_count": 0, "projects": [], "coding_time_seconds": 0, "coding_time_seconds_today": 0, "balance": "You need to have a pocket watcher badge to view this.", "badges": [], "created_at": "2025-06-18T17:10:10.431-04:00", "updated_at": "2025-07-03T19:50:22.383-04:00", "avatar": "https://avatars.slack-edge.com/2025-06-18/9071914513252_3f76f431b7ae9b8cada6_original.png", "custom_css": null}, {"id": 9031, "slack_id": "U091NJBQ38X", "display_name": "Marcelo", "bio": null, "projects_count": 0, "devlogs_count": 0, "votes_count": 0, "ships_count": 0, "projects": [], "coding_time_seconds": 0, "coding_time_seconds_today": 0, "balance": "You need to have a pocket watcher badge to view this.", "badges": [], "created_at": "2025-06-18T17:12:55.894-04:00", "updated_at": "2025-07-03T19:50:22.654-04:00", "avatar": "https://secure.gravatar.com/avatar/8ed81b4f726b6a44f24ed4c33c2725c8.jpg?s=512&d=https%3A%2F%2Fa.slack-edge.com%2Fdf10d%2Fimg%2Favatars%2Fava_0015-512.png", "custom_css": null}, {"id": 9032, "slack_id": "U092S12FDCY", "display_name": "Luke Fu", "bio": null, "projects_count": 0, "devlogs_count": 0, "votes_count": 0, "ships_count": 0, "projects": [], "coding_time_seconds": 0, "coding_time_seconds_today": 0, "balance": "You need to have a pocket watcher badge to view this.", "badges": [], "created_at": "2025-06-18T17:13:39.813-04:00", "updated_at": "2025-07-03T19:50:22.938-04:00", "avatar": "https://secure.gravatar.com/avatar/99cb23e5f6b3507f1c2e926f288d808f.jpg?s=512&d=https%3A%2F%2Fa.slack-edge.com%2Fdf10d%2Fimg%2Favatars%2Fava_0018-512.png", "custom_css": null}, {"id": 9033, "slack_id": "U092265HGJ1", "display_name": "Sai M", "bio": null, "projects_count": 0, "devlogs_count": 0, "votes_count": 0, "ships_count": 0, "projects": [], "coding_time_seconds": 0, "coding_time_seconds_today": 0, "balance": "You need to have a pocket watcher badge to view this.", "badges": [], "created_at": "2025-06-18T17:13:50.324-04:00", "updated_at": "2025-07-03T19:50:23.203-04:00", "avatar": "https://avatars.slack-edge.com/2025-06-18/9070209946837_87308c83ad1aef9e027b_original.png", "custom_css": null}, {"id": 9034, "slack_id": "U092G7LSH2M", "display_name": "csen", "bio": null, "projects_count": 0, "devlogs_count": 0, "votes_count": 0, "ships_count": 0, "projects": [], "coding_time_seconds": 0, "coding_time_seconds_today": 0, "balance": "You need to have a pocket watcher badge to view this.", "badges": [], "created_at": "2025-06-18T17:14:30.335-04:00", "updated_at": "2025-07-03T19:50:23.469-04:00", "avatar": "https://secure.gravatar.com/avatar/652e811792948a909e34511e880b3274.jpg?s=512&d=https%3A%2F%2Fa.slack-edge.com%2Fdf10d%2Fimg%2Favatars%2Fava_0018-512.png", "custom_css": null}, {"id": 9035, "slack_id": "U07FYBP13A4", "display_name": "marci1175", "bio": null, "projects_count": 0, "devlogs_count": 25, "votes_count": 38, "ships_count": 0, "projects": [], "coding_time_seconds": 1119397, "coding_time_seconds_today": 120, "balance": "You need to have a pocket watcher badge to view this.", "badges": [{"name": "Maiden Voyage", "text": "you shipped your first project! the journey begins...", "icon": "\ud83d\udea2"}], "created_at": "2025-06-18T17:19:33.936-04:00", "updated_at": "2025-09-10T22:55:37.680-04:00", "avatar": "https://secure.gravatar.com/avatar/e0c8e6ec391fb4c8e7e793cfad459dab.jpg?s=512&d=https%3A%2F%2Fa.slack-edge.com%2Fdf10d%2Fimg%2Favatars%2Fava_0003-512.png", "custom_css": null}, {"id": 9036, "slack_id": "U091QGL9MA8", "display_name": "MOLINA", "bio": null, "projects_count": 0, "devlogs_count": 0, "votes_count": 0, "ships_count": 0, "projects": [], "coding_time_seconds": 0, "coding_time_seconds_today": 0, "balance": "You need to have a pocket watcher badge to view this.", "badges": [], "created_at": "2025-06-18T17:20:22.214-04:00", "updated_at": "2025-07-03T19:50:24.078-04:00", "avatar": "https://secure.gravatar.com/avatar/c66cb3546b097cd4d5df1ab3ddf3433a.jpg?s=512&d=https%3A%2F%2Fa.slack-edge.com%2Fdf10d%2Fimg%2Favatars%2Fava_0000-512.png", "custom_css": null}, {"id": 9037, "slack_id": "U091X5CSZSP", "display_name": "thegreatmewer", "bio": null, "projects_count": 2, "devlogs_count": 4, "votes_count": 17, "ships_count": 1, "projects": [{"id": 5164, "title": "Calculator", "devlogs_count": 3, "created_at": "2025-07-03T14:27:03.345-04:00"}, {"id": 5789, "title": "Brainfuck compiler, editor, and maker", "devlogs_count": 1, "created_at": "2025-07-08T02:02:12.025-04:00"}], "coding_time_seconds": 17318, "coding_time_seconds_today": 0, "balance": "You need to have a pocket watcher badge to view this.", "badges": [{"name": "Maiden Voyage", "text": "you shipped your first project! the journey begins...", "icon": "\ud83d\udea2"}], "created_at": "2025-06-18T17:21:47.132-04:00", "updated_at": "2025-09-10T22:55:37.729-04:00", "avatar": "https://avatars.slack-edge.com/2025-06-18/9065331961427_c2045601b6a269e9bb89_original.jpg", "custom_css": null}, {"id": 9038, "slack_id": "U079AUN40QP", "display_name": "flemmi", "bio": null, "projects_count": 0, "devlogs_count": 0, "votes_count": 0, "ships_count": 0, "projects": [], "coding_time_seconds": 0, "coding_time_seconds_today": 0, "balance": "You need to have a pocket watcher badge to view this.", "badges": [], "created_at": "2025-06-18T17:25:02.242-04:00", "updated_at": "2025-07-03T19:50:24.612-04:00", "avatar": "https://secure.gravatar.com/avatar/83ff9416ff07258cceda7eded10137cb.jpg?s=512&d=https%3A%2F%2Fa.slack-edge.com%2Fdf10d%2Fimg%2Favatars%2Fava_0003-512.png", "custom_css": null}, {"id": 9039, "slack_id": "U092284KG77", "display_name": "Renan", "bio": null, "projects_count": 0, "devlogs_count": 0, "votes_count": 0, "ships_count": 0, "projects": [], "coding_time_seconds": 247597, "coding_time_seconds_today": 0, "balance": "You need to have a pocket watcher badge to view this.", "badges": [], "created_at": "2025-06-18T17:26:22.052-04:00", "updated_at": "2025-07-03T19:50:24.880-04:00", "avatar": "https://secure.gravatar.com/avatar/8f54b6874680e8d2b90ed3f8551adc8f.jpg?s=512&d=https%3A%2F%2Fa.slack-edge.com%2Fdf10d%2Fimg%2Favatars%2Fava_0016-512.png", "custom_css": null}, {"id": 9040, "slack_id": "U091NL49JJ3", "display_name": "Ian", "bio": null, "projects_count": 1, "devlogs_count": 2, "votes_count": 0, "ships_count": 0, "projects": [{"id": 6139, "title": "password creater", "devlogs_count": 2, "created_at": "2025-07-10T20:19:07.306-04:00"}], "coding_time_seconds": 34588, "coding_time_seconds_today": 0, "balance": "You need to have a pocket watcher badge to view this.", "badges": [], "created_at": "2025-06-18T17:28:11.061-04:00", "updated_at": "2025-08-06T20:31:49.759-04:00", "avatar": "https://secure.gravatar.com/avatar/529e45f8ad99e8b855a1d3e25993e3cf.jpg?s=512&d=https%3A%2F%2Fa.slack-edge.com%2Fdf10d%2Fimg%2Favatars%2Fava_0021-512.png", "custom_css": null}], "pagination": {"page": 452, "pages": 1192, "count": 23828, "items": 20}}