{"users": [{"id": 9041, "slack_id": "U092S338CE4", "display_name": "pui4", "bio": null, "projects_count": 0, "devlogs_count": 0, "votes_count": 0, "ships_count": 0, "projects": [], "coding_time_seconds": 226897, "coding_time_seconds_today": 0, "balance": "You need to have a pocket watcher badge to view this.", "badges": [], "created_at": "2025-06-18T17:29:53.866-04:00", "updated_at": "2025-07-03T19:50:25.436-04:00", "avatar": "https://secure.gravatar.com/avatar/f84316a3591607043adda7b2f9f17cb0.jpg?s=512&d=https%3A%2F%2Fa.slack-edge.com%2Fdf10d%2Fimg%2Favatars%2Fava_0008-512.png", "custom_css": null}, {"id": 9042, "slack_id": "U092S3LJP96", "display_name": "Xslead", "bio": null, "projects_count": 0, "devlogs_count": 0, "votes_count": 0, "ships_count": 0, "projects": [], "coding_time_seconds": 0, "coding_time_seconds_today": 0, "balance": "You need to have a pocket watcher badge to view this.", "badges": [], "created_at": "2025-06-18T17:32:00.338-04:00", "updated_at": "2025-07-03T19:50:25.704-04:00", "avatar": "https://secure.gravatar.com/avatar/7d922edb4ea6563b42454c92a75769d6.jpg?s=512&d=https%3A%2F%2Fa.slack-edge.com%2Fdf10d%2Fimg%2Favatars%2Fava_0002-512.png", "custom_css": null}, {"id": 9043, "slack_id": "U07H80N0DJ9", "display_name": "Gamer123", "bio": null, "projects_count": 0, "devlogs_count": 0, "votes_count": 0, "ships_count": 0, "projects": [], "coding_time_seconds": 36628, "coding_time_seconds_today": 0, "balance": "You need to have a pocket watcher badge to view this.", "badges": [], "created_at": "2025-06-18T17:35:47.973-04:00", "updated_at": "2025-07-05T20:10:29.178-04:00", "avatar": "https://avatars.slack-edge.com/2025-06-26/9134163996352_f78641bb0e328651382f_original.jpg", "custom_css": null}, {"id": 9044, "slack_id": "U0923JS41V2", "display_name": "yaqub", "bio": null, "projects_count": 0, "devlogs_count": 0, "votes_count": 0, "ships_count": 0, "projects": [], "coding_time_seconds": 0, "coding_time_seconds_today": 0, "balance": "You need to have a pocket watcher badge to view this.", "badges": [], "created_at": "2025-06-18T17:36:35.403-04:00", "updated_at": "2025-07-03T19:50:26.108-04:00", "avatar": "https://secure.gravatar.com/avatar/a5f862fff4d549a45a40f6645313c2d0.jpg?s=512&d=https%3A%2F%2Fa.slack-edge.com%2Fdf10d%2Fimg%2Favatars%2Fava_0018-512.png", "custom_css": null}, {"id": 9045, "slack_id": "U0923G38W9G", "display_name": "Suman", "bio": null, "projects_count": 0, "devlogs_count": 0, "votes_count": 0, "ships_count": 0, "projects": [], "coding_time_seconds": 0, "coding_time_seconds_today": 0, "balance": "You need to have a pocket watcher badge to view this.", "badges": [], "created_at": "2025-06-18T17:37:14.392-04:00", "updated_at": "2025-07-04T20:09:37.128-04:00", "avatar": "https://secure.gravatar.com/avatar/5e0cb358e6a2c6b483c8f5aa6fdf04fd.jpg?s=512&d=https%3A%2F%2Fa.slack-edge.com%2Fdf10d%2Fimg%2Favatars%2Fava_0003-512.png", "custom_css": null}, {"id": 9046, "slack_id": "U09229NNNN9", "display_name": "httpsmojojojo", "bio": null, "projects_count": 0, "devlogs_count": 0, "votes_count": 0, "ships_count": 0, "projects": [], "coding_time_seconds": 0, "coding_time_seconds_today": 0, "balance": "You need to have a pocket watcher badge to view this.", "badges": [], "created_at": "2025-06-18T17:38:10.391-04:00", "updated_at": "2025-07-03T19:50:26.504-04:00", "avatar": "https://secure.gravatar.com/avatar/2253a62784449d49e011771636404289.jpg?s=512&d=https%3A%2F%2Fa.slack-edge.com%2Fdf10d%2Fimg%2Favatars%2Fava_0015-512.png", "custom_css": null}, {"id": 9047, "slack_id": "U09229W2EQM", "display_name": "taskmgr11", "bio": null, "projects_count": 0, "devlogs_count": 0, "votes_count": 0, "ships_count": 0, "projects": [], "coding_time_seconds": 0, "coding_time_seconds_today": 0, "balance": "You need to have a pocket watcher badge to view this.", "badges": [], "created_at": "2025-06-18T17:40:06.101-04:00", "updated_at": "2025-07-04T02:28:36.161-04:00", "avatar": "https://secure.gravatar.com/avatar/a814c2423ad22b0f85c845866c6690a5.jpg?s=512&d=https%3A%2F%2Fa.slack-edge.com%2Fdf10d%2Fimg%2Favatars%2Fava_0001-512.png", "custom_css": null}, {"id": 9048, "slack_id": "U07A2HWUE75", "display_name": "Farida Ouf", "bio": null, "projects_count": 0, "devlogs_count": 0, "votes_count": 0, "ships_count": 0, "projects": [], "coding_time_seconds": 0, "coding_time_seconds_today": 0, "balance": "You need to have a pocket watcher badge to view this.", "badges": [], "created_at": "2025-06-18T17:43:27.699-04:00", "updated_at": "2025-07-03T19:50:26.919-04:00", "avatar": "https://secure.gravatar.com/avatar/cf0419b13657305cc89570318af9ac06.jpg?s=512&d=https%3A%2F%2Fa.slack-edge.com%2Fdf10d%2Fimg%2Favatars%2Fava_0021-512.png", "custom_css": null}, {"id": 9049, "slack_id": "U07TSJW9F33", "display_name": "Dhairya Shah", "bio": null, "projects_count": 2, "devlogs_count": 0, "votes_count": 0, "ships_count": 0, "projects": [{"id": 4406, "title": "Lifelinee", "devlogs_count": 0, "created_at": "2025-06-29T16:27:25.231-04:00"}, {"id": 4142, "title": "Glade", "devlogs_count": 0, "created_at": "2025-06-27T19:04:22.427-04:00"}], "coding_time_seconds": 51016, "coding_time_seconds_today": 0, "balance": "You need to have a pocket watcher badge to view this.", "badges": [], "created_at": "2025-06-18T17:43:44.253-04:00", "updated_at": "2025-07-19T21:58:54.187-04:00", "avatar": "https://secure.gravatar.com/avatar/d10b5a317564698cd7a849a4e9eae5de.jpg?s=512&d=https%3A%2F%2Fa.slack-edge.com%2Fdf10d%2Fimg%2Favatars%2Fava_0021-512.png", "custom_css": null}, {"id": 9050, "slack_id": "U091XB7U0CE", "display_name": "Lincoln Duck", "bio": null, "projects_count": 0, "devlogs_count": 0, "votes_count": 0, "ships_count": 0, "projects": [], "coding_time_seconds": 164, "coding_time_seconds_today": 0, "balance": "You need to have a pocket watcher badge to view this.", "badges": [], "created_at": "2025-06-18T17:44:22.441-04:00", "updated_at": "2025-07-05T02:10:09.877-04:00", "avatar": "https://avatars.slack-edge.com/2025-06-18/9072045360724_711a74acf26c0cd7ba6a_original.gif", "custom_css": null}, {"id": 9051, "slack_id": "U0923GH6G7L", "display_name": "starknight", "bio": null, "projects_count": 1, "devlogs_count": 2, "votes_count": 0, "ships_count": 0, "projects": [{"id": 2356, "title": "metatracks", "devlogs_count": 2, "created_at": "2025-06-20T19:47:18.829-04:00"}], "coding_time_seconds": 483659, "coding_time_seconds_today": 0, "balance": "You need to have a pocket watcher badge to view this.", "badges": [], "created_at": "2025-06-18T17:44:23.168-04:00", "updated_at": "2025-08-30T00:19:21.856-04:00", "avatar": "https://avatars.slack-edge.com/2025-06-18/9084970077729_ebe048ae306e6a2d4d87_original.png", "custom_css": null}, {"id": 9052, "slack_id": "U091J6T8XN2", "display_name": "Joshua W", "bio": null, "projects_count": 0, "devlogs_count": 0, "votes_count": 0, "ships_count": 0, "projects": [], "coding_time_seconds": 0, "coding_time_seconds_today": 0, "balance": "You need to have a pocket watcher badge to view this.", "badges": [], "created_at": "2025-06-18T17:46:15.289-04:00", "updated_at": "2025-07-03T19:50:27.859-04:00", "avatar": "https://secure.gravatar.com/avatar/6e42590ca4534ef63f22d3e6c1542d6a.jpg?s=512&d=https%3A%2F%2Fa.slack-edge.com%2Fdf10d%2Fimg%2Favatars%2Fava_0000-512.png", "custom_css": null}, {"id": 9053, "slack_id": "U0922AMTDLM", "display_name": "sirox", "bio": null, "projects_count": 0, "devlogs_count": 0, "votes_count": 0, "ships_count": 0, "projects": [], "coding_time_seconds": 0, "coding_time_seconds_today": 0, "balance": "You need to have a pocket watcher badge to view this.", "badges": [], "created_at": "2025-06-18T17:48:55.895-04:00", "updated_at": "2025-07-03T19:50:28.117-04:00", "avatar": "https://secure.gravatar.com/avatar/f52218548189dbcd77e68d4338b4fda0.jpg?s=512&d=https%3A%2F%2Fa.slack-edge.com%2Fdf10d%2Fimg%2Favatars%2Fava_0012-512.png", "custom_css": null}, {"id": 9054, "slack_id": "U092A9062SD", "display_name": "mark", "bio": null, "projects_count": 0, "devlogs_count": 0, "votes_count": 0, "ships_count": 0, "projects": [], "coding_time_seconds": 0, "coding_time_seconds_today": 0, "balance": "You need to have a pocket watcher badge to view this.", "badges": [], "created_at": "2025-06-18T17:49:51.510-04:00", "updated_at": "2025-07-03T19:50:28.381-04:00", "avatar": "https://secure.gravatar.com/avatar/f327c14adcb68c24e29fe9da589095bc.jpg?s=512&d=https%3A%2F%2Fa.slack-edge.com%2Fdf10d%2Fimg%2Favatars%2Fava_0023-512.png", "custom_css": null}, {"id": 9055, "slack_id": "U091NPL7MAT", "display_name": "Jubilee", "bio": null, "projects_count": 0, "devlogs_count": 0, "votes_count": 0, "ships_count": 0, "projects": [], "coding_time_seconds": 0, "coding_time_seconds_today": 0, "balance": "You need to have a pocket watcher badge to view this.", "badges": [], "created_at": "2025-06-18T17:55:17.751-04:00", "updated_at": "2025-07-03T19:50:28.663-04:00", "avatar": "https://secure.gravatar.com/avatar/07311317f538d7a8694e15d9e7dda04e.jpg?s=512&d=https%3A%2F%2Fa.slack-edge.com%2Fdf10d%2Fimg%2Favatars%2Fava_0005-512.png", "custom_css": null}, {"id": 9056, "slack_id": "U08NFJYQ7GA", "display_name": "Bashir", "bio": null, "projects_count": 0, "devlogs_count": 75, "votes_count": 297, "ships_count": 0, "projects": [], "coding_time_seconds": 507305, "coding_time_seconds_today": 0, "balance": "You need to have a pocket watcher badge to view this.", "badges": [{"name": "Maiden Voyage", "text": "you shipped your first project! the journey begins...", "icon": "\ud83d\udea2"}, {"name": "Ballot Stuffer", "text": "vote 100 times.", "icon": "https://summer.hackclub.com/assets/i_voted-bf851b48.png"}], "created_at": "2025-06-18T17:58:45.081-04:00", "updated_at": "2025-09-10T22:55:38.189-04:00", "avatar": "https://secure.gravatar.com/avatar/7a5110aa7f8e9bf7e32f5e9900b8cf00.jpg?s=512&d=https%3A%2F%2Fa.slack-edge.com%2Fdf10d%2Fimg%2Favatars%2Fava_0000-512.png", "custom_css": null}, {"id": 9057, "slack_id": "U091N8BF70D", "display_name": "Kishan", "bio": null, "projects_count": 0, "devlogs_count": 0, "votes_count": 0, "ships_count": 0, "projects": [], "coding_time_seconds": 0, "coding_time_seconds_today": 0, "balance": "You need to have a pocket watcher badge to view this.", "badges": [], "created_at": "2025-06-18T18:01:07.141-04:00", "updated_at": "2025-07-03T19:50:29.193-04:00", "avatar": "https://secure.gravatar.com/avatar/c9de0bfeca1237cac8a6ee9fa6a9e7e9.jpg?s=512&d=https%3A%2F%2Fa.slack-edge.com%2Fdf10d%2Fimg%2Favatars%2Fava_0017-512.png", "custom_css": null}, {"id": 9058, "slack_id": "U092S71F4GG", "display_name": "Domenico", "bio": null, "projects_count": 0, "devlogs_count": 0, "votes_count": 0, "ships_count": 0, "projects": [], "coding_time_seconds": 0, "coding_time_seconds_today": 0, "balance": "You need to have a pocket watcher badge to view this.", "badges": [], "created_at": "2025-06-18T18:02:16.683-04:00", "updated_at": "2025-07-03T19:50:29.483-04:00", "avatar": "https://secure.gravatar.com/avatar/ba322c1dabbd24f40bc35edc9d679658.jpg?s=512&d=https%3A%2F%2Fa.slack-edge.com%2Fdf10d%2Fimg%2Favatars%2Fava_0021-512.png", "custom_css": null}, {"id": 9059, "slack_id": "U092S73NK24", "display_name": "Luiz Wanderson", "bio": null, "projects_count": 0, "devlogs_count": 0, "votes_count": 0, "ships_count": 0, "projects": [], "coding_time_seconds": 0, "coding_time_seconds_today": 0, "balance": "You need to have a pocket watcher badge to view this.", "badges": [], "created_at": "2025-06-18T18:03:02.474-04:00", "updated_at": "2025-07-03T19:50:29.757-04:00", "avatar": "https://avatars.slack-edge.com/2025-06-18/9071659648338_cf7477ce7a2b8d01d426_original.png", "custom_css": null}, {"id": 9060, "slack_id": "U091PPUJ4V9", "display_name": "Adam Attia", "bio": null, "projects_count": 0, "devlogs_count": 0, "votes_count": 0, "ships_count": 0, "projects": [], "coding_time_seconds": 0, "coding_time_seconds_today": 0, "balance": "You need to have a pocket watcher badge to view this.", "badges": [], "created_at": "2025-06-18T18:05:36.475-04:00", "updated_at": "2025-07-26T13:59:25.759-04:00", "avatar": "https://avatars.slack-edge.com/2025-06-19/9065491787286_7c9a74ab33a0726e8c73_original.png", "custom_css": null}], "pagination": {"page": 453, "pages": 1192, "count": 23828, "items": 20}}