{"users": [{"id": 9061, "slack_id": "U0919HB67PZ", "display_name": "Santiago Barajas", "bio": "hi, i make music and i am a dev :)", "projects_count": 1, "devlogs_count": 1, "votes_count": 19, "ships_count": 1, "projects": [{"id": 10327, "title": "Luvl\u00f8rn | Official Website", "devlogs_count": 1, "created_at": "2025-08-05T23:20:38.604-04:00"}], "coding_time_seconds": 78067, "coding_time_seconds_today": 0, "balance": "You need to have a pocket watcher badge to view this.", "badges": [{"name": "Maiden Voyage", "text": "you shipped your first project! the journey begins...", "icon": "\ud83d\udea2"}], "created_at": "2025-06-18T18:06:04.152-04:00", "updated_at": "2025-09-10T22:55:38.357-04:00", "avatar": "https://secure.gravatar.com/avatar/94351b8839e147d3a142d27389e61be7.jpg?s=512&d=https%3A%2F%2Fa.slack-edge.com%2Fdf10d%2Fimg%2Favatars%2Fava_0000-512.png", "custom_css": null}, {"id": 9062, "slack_id": "U0922D0AFPX", "display_name": "Danilo Diaz", "bio": null, "projects_count": 0, "devlogs_count": 0, "votes_count": 0, "ships_count": 0, "projects": [], "coding_time_seconds": 0, "coding_time_seconds_today": 0, "balance": "You need to have a pocket watcher badge to view this.", "badges": [], "created_at": "2025-06-18T18:06:43.987-04:00", "updated_at": "2025-07-03T19:50:30.552-04:00", "avatar": "https://secure.gravatar.com/avatar/73db309e9b7559aaf99a3f2fb94fc076.jpg?s=512&d=https%3A%2F%2Fa.slack-edge.com%2Fdf10d%2Fimg%2Favatars%2Fava_0007-512.png", "custom_css": null}, {"id": 9063, "slack_id": "U092GDRDZ41", "display_name": "Ryan", "bio": null, "projects_count": 0, "devlogs_count": 0, "votes_count": 2, "ships_count": 0, "projects": [], "coding_time_seconds": 1087, "coding_time_seconds_today": 0, "balance": "You need to have a pocket watcher badge to view this.", "badges": [], "created_at": "2025-06-18T18:07:37.745-04:00", "updated_at": "2025-07-03T19:50:30.814-04:00", "avatar": "https://secure.gravatar.com/avatar/5b034e14eafa34640397d9c7851b6900.jpg?s=512&d=https%3A%2F%2Fa.slack-edge.com%2Fdf10d%2Fimg%2Favatars%2Fava_0018-512.png", "custom_css": null}, {"id": 9064, "slack_id": "U091XAYMQ11", "display_name": "Nasreddine Soltani", "bio": null, "projects_count": 0, "devlogs_count": 0, "votes_count": 0, "ships_count": 0, "projects": [], "coding_time_seconds": 0, "coding_time_seconds_today": 0, "balance": "You need to have a pocket watcher badge to view this.", "badges": [], "created_at": "2025-06-18T18:07:42.358-04:00", "updated_at": "2025-07-03T19:50:31.087-04:00", "avatar": "https://secure.gravatar.com/avatar/a3fb4c34380286866bffe426d7790c66.jpg?s=512&d=https%3A%2F%2Fa.slack-edge.com%2Fdf10d%2Fimg%2Favatars%2Fava_0017-512.png", "custom_css": null}, {"id": 9065, "slack_id": "U07U6M1CD55", "display_name": "KindOne", "bio": null, "projects_count": 0, "devlogs_count": 0, "votes_count": 0, "ships_count": 0, "projects": [], "coding_time_seconds": 0, "coding_time_seconds_today": 0, "balance": "You need to have a pocket watcher badge to view this.", "badges": [], "created_at": "2025-06-18T18:10:20.016-04:00", "updated_at": "2025-07-03T19:50:31.393-04:00", "avatar": "https://avatars.slack-edge.com/2024-11-03/7973182151603_613394287360bc258e95_original.jpg", "custom_css": null}, {"id": 9066, "slack_id": "U0923L23Y8J", "display_name": "asd", "bio": null, "projects_count": 0, "devlogs_count": 0, "votes_count": 0, "ships_count": 0, "projects": [], "coding_time_seconds": 0, "coding_time_seconds_today": 0, "balance": "You need to have a pocket watcher badge to view this.", "badges": [], "created_at": "2025-06-18T18:12:58.110-04:00", "updated_at": "2025-07-03T19:50:31.672-04:00", "avatar": "https://avatars.slack-edge.com/2025-06-18/9065508210166_0add176c64a5c2bbea48_original.png", "custom_css": null}, {"id": 9067, "slack_id": "U0924139FBN", "display_name": "Yaw Osei Adjei", "bio": null, "projects_count": 0, "devlogs_count": 0, "votes_count": 0, "ships_count": 0, "projects": [], "coding_time_seconds": 0, "coding_time_seconds_today": 0, "balance": "You need to have a pocket watcher badge to view this.", "badges": [], "created_at": "2025-06-18T18:15:53.760-04:00", "updated_at": "2025-07-05T20:10:31.419-04:00", "avatar": "https://secure.gravatar.com/avatar/ac52812129752e82d554327f8ea2b4e2.jpg?s=512&d=https%3A%2F%2Fa.slack-edge.com%2Fdf10d%2Fimg%2Favatars%2Fava_0015-512.png", "custom_css": null}, {"id": 9068, "slack_id": "U091QF9R4EP", "display_name": "Vrishank Joshi", "bio": null, "projects_count": 1, "devlogs_count": 0, "votes_count": 31, "ships_count": 1, "projects": [{"id": 2709, "title": "Fooda", "devlogs_count": 0, "created_at": "2025-06-21T19:30:45.934-04:00"}], "coding_time_seconds": 127, "coding_time_seconds_today": 0, "balance": "You need to have a pocket watcher badge to view this.", "badges": [{"name": "Maiden Voyage", "text": "you shipped your first project! the journey begins...", "icon": "\ud83d\udea2"}], "created_at": "2025-06-18T18:19:20.464-04:00", "updated_at": "2025-09-10T22:55:38.535-04:00", "avatar": "https://secure.gravatar.com/avatar/a982e99a531452dada57787a7aa571ad.jpg?s=512&d=https%3A%2F%2Fa.slack-edge.com%2Fdf10d%2Fimg%2Favatars%2Fava_0003-512.png", "custom_css": null}, {"id": 9069, "slack_id": "U0923LUS666", "display_name": "Kepa", "bio": null, "projects_count": 2, "devlogs_count": 0, "votes_count": 0, "ships_count": 0, "projects": [{"id": 1557, "title": "IDE", "devlogs_count": 0, "created_at": "2025-06-18T18:33:25.262-04:00"}, {"id": 1562, "title": "GuessMyLoadout", "devlogs_count": 0, "created_at": "2025-06-18T18:37:11.724-04:00"}], "coding_time_seconds": 9729, "coding_time_seconds_today": 0, "balance": "You need to have a pocket watcher badge to view this.", "badges": [], "created_at": "2025-06-18T18:20:52.653-04:00", "updated_at": "2025-07-04T08:24:53.929-04:00", "avatar": "https://secure.gravatar.com/avatar/68610491784d5e761521c762f2821930.jpg?s=512&d=https%3A%2F%2Fa.slack-edge.com%2Fdf10d%2Fimg%2Favatars%2Fava_0020-512.png", "custom_css": null}, {"id": 9070, "slack_id": "U092GEZEN01", "display_name": "rayne cloudy", "bio": "https://raynec.dev", "projects_count": 4, "devlogs_count": 19, "votes_count": 21, "ships_count": 3, "projects": [{"id": 3070, "title": "NekoMIDE", "devlogs_count": 10, "created_at": "2025-06-23T01:34:05.815-04:00"}, {"id": 4602, "title": "rayne's fs", "devlogs_count": 3, "created_at": "2025-06-30T20:46:07.351-04:00"}, {"id": 3567, "title": "scratch.js", "devlogs_count": 2, "created_at": "2025-06-24T18:18:42.580-04:00"}, {"id": 6851, "title": "my new website", "devlogs_count": 4, "created_at": "2025-07-16T21:11:08.278-04:00"}], "coding_time_seconds": 401380, "coding_time_seconds_today": 0, "balance": "You need to have a pocket watcher badge to view this.", "badges": [{"name": "Maiden Voyage", "text": "you shipped your first project! the journey begins...", "icon": "\ud83d\udea2"}], "created_at": "2025-06-18T18:21:06.894-04:00", "updated_at": "2025-09-10T22:55:38.592-04:00", "avatar": "https://avatars.slack-edge.com/2025-06-22/9088104454372_c86ec58740dd3e934f7f_original.png", "custom_css": null}, {"id": 9071, "slack_id": "U092S8VSS80", "display_name": "Caio Micael", "bio": null, "projects_count": 0, "devlogs_count": 0, "votes_count": 0, "ships_count": 0, "projects": [], "coding_time_seconds": 7862, "coding_time_seconds_today": 0, "balance": "You need to have a pocket watcher badge to view this.", "badges": [], "created_at": "2025-06-18T18:23:09.215-04:00", "updated_at": "2025-07-03T19:50:32.734-04:00", "avatar": "https://secure.gravatar.com/avatar/b6ea72bbe9b8b03fca751f24ad7b9eda.jpg?s=512&d=https%3A%2F%2Fa.slack-edge.com%2Fdf10d%2Fimg%2Favatars%2Fava_0021-512.png", "custom_css": null}, {"id": 9072, "slack_id": "U092453263E", "display_name": "hameza 369", "bio": null, "projects_count": 0, "devlogs_count": 0, "votes_count": 0, "ships_count": 0, "projects": [], "coding_time_seconds": 0, "coding_time_seconds_today": 0, "balance": "You need to have a pocket watcher badge to view this.", "badges": [], "created_at": "2025-06-18T18:25:15.181-04:00", "updated_at": "2025-07-03T19:50:32.994-04:00", "avatar": "https://avatars.slack-edge.com/2025-06-18/9071733835602_43b615b7eaa285ad44e4_original.png", "custom_css": null}, {"id": 9073, "slack_id": "U091W5LF2J2", "display_name": "Akshar Desai", "bio": null, "projects_count": 0, "devlogs_count": 0, "votes_count": 0, "ships_count": 0, "projects": [], "coding_time_seconds": 0, "coding_time_seconds_today": 0, "balance": "You need to have a pocket watcher badge to view this.", "badges": [], "created_at": "2025-06-18T18:29:15.923-04:00", "updated_at": "2025-07-03T19:50:33.266-04:00", "avatar": "https://secure.gravatar.com/avatar/07d37fb24d16508ba8f130e8b3ee0dfe.jpg?s=512&d=https%3A%2F%2Fa.slack-edge.com%2Fdf10d%2Fimg%2Favatars%2Fava_0019-512.png", "custom_css": null}, {"id": 9074, "slack_id": "U092456AYDA", "display_name": "Enzo", "bio": null, "projects_count": 0, "devlogs_count": 0, "votes_count": 0, "ships_count": 0, "projects": [], "coding_time_seconds": 0, "coding_time_seconds_today": 0, "balance": "You need to have a pocket watcher badge to view this.", "badges": [], "created_at": "2025-06-18T18:29:41.209-04:00", "updated_at": "2025-07-03T19:50:33.535-04:00", "avatar": "https://secure.gravatar.com/avatar/3b6632503754bc3f7ed654148885bfaf.jpg?s=512&d=https%3A%2F%2Fa.slack-edge.com%2Fdf10d%2Fimg%2Favatars%2Fava_0014-512.png", "custom_css": null}, {"id": 9075, "slack_id": "U0922D91V42", "display_name": "Denise D", "bio": null, "projects_count": 0, "devlogs_count": 0, "votes_count": 0, "ships_count": 0, "projects": [], "coding_time_seconds": 0, "coding_time_seconds_today": 0, "balance": "You need to have a pocket watcher badge to view this.", "badges": [], "created_at": "2025-06-18T18:31:53.167-04:00", "updated_at": "2025-07-03T19:50:33.811-04:00", "avatar": "https://secure.gravatar.com/avatar/e25d357fcd530c8b61a42b0a3a19fb36.jpg?s=512&d=https%3A%2F%2Fa.slack-edge.com%2Fdf10d%2Fimg%2Favatars%2Fava_0012-512.png", "custom_css": null}, {"id": 9076, "slack_id": "U080F22CTJN", "display_name": "Admiral Wauzivuff", "bio": null, "projects_count": 4, "devlogs_count": 0, "votes_count": 0, "ships_count": 0, "projects": [{"id": 8754, "title": "Henry Wauzivuff's Tasmanian Flight Simulator", "devlogs_count": 0, "created_at": "2025-07-29T05:46:12.021-04:00"}, {"id": 8756, "title": "Openlisten Henry Wauzivuff Fork", "devlogs_count": 0, "created_at": "2025-07-29T06:10:56.882-04:00"}, {"id": 8762, "title": "Demo thing", "devlogs_count": 0, "created_at": "2025-07-29T06:40:49.715-04:00"}, {"id": 8763, "title": "Demo thing", "devlogs_count": 0, "created_at": "2025-07-29T06:40:49.726-04:00"}], "coding_time_seconds": 3501, "coding_time_seconds_today": 0, "balance": "You need to have a pocket watcher badge to view this.", "badges": [], "created_at": "2025-06-18T18:33:10.137-04:00", "updated_at": "2025-08-23T05:45:49.771-04:00", "avatar": "https://avatars.slack-edge.com/2024-12-10/8150614141075_dcb2d064792fc7fa1975_original.png", "custom_css": null}, {"id": 9077, "slack_id": "U091JP15L9Z", "display_name": "KaiS", "bio": null, "projects_count": 0, "devlogs_count": 0, "votes_count": 0, "ships_count": 0, "projects": [], "coding_time_seconds": 0, "coding_time_seconds_today": 0, "balance": "You need to have a pocket watcher badge to view this.", "badges": [], "created_at": "2025-06-18T18:35:34.541-04:00", "updated_at": "2025-07-03T19:50:34.409-04:00", "avatar": "https://secure.gravatar.com/avatar/426de4b6fc9ea7071a7cd2616405619d.jpg?s=512&d=https%3A%2F%2Fa.slack-edge.com%2Fdf10d%2Fimg%2Favatars%2Fava_0016-512.png", "custom_css": null}, {"id": 9078, "slack_id": "U07HSVAKTAM", "display_name": "Iplay64 32", "bio": null, "projects_count": 1, "devlogs_count": 0, "votes_count": 0, "ships_count": 0, "projects": [{"id": 3949, "title": "PianoPython3", "devlogs_count": 0, "created_at": "2025-06-26T12:34:45.045-04:00"}], "coding_time_seconds": 9509, "coding_time_seconds_today": 0, "balance": "You need to have a pocket watcher badge to view this.", "badges": [], "created_at": "2025-06-18T18:36:39.479-04:00", "updated_at": "2025-07-04T02:28:38.239-04:00", "avatar": "https://avatars.slack-edge.com/2024-08-18/7585699156998_b440160ccf4abf91464c_original.png", "custom_css": null}, {"id": 9079, "slack_id": "U091H4G3SK1", "display_name": "Ajith Kumar MS", "bio": null, "projects_count": 0, "devlogs_count": 0, "votes_count": 0, "ships_count": 0, "projects": [], "coding_time_seconds": 4051, "coding_time_seconds_today": 0, "balance": "You need to have a pocket watcher badge to view this.", "badges": [], "created_at": "2025-06-18T18:38:30.306-04:00", "updated_at": "2025-07-03T19:50:34.824-04:00", "avatar": "https://secure.gravatar.com/avatar/ca3b10f290d338d5859eca210d66e4f9.jpg?s=512&d=https%3A%2F%2Fa.slack-edge.com%2Fdf10d%2Fimg%2Favatars%2Fava_0019-512.png", "custom_css": null}, {"id": 9080, "slack_id": "U091NU0R3RD", "display_name": "C\u00e9sar", "bio": null, "projects_count": 1, "devlogs_count": 2, "votes_count": 0, "ships_count": 0, "projects": [{"id": 3582, "title": "RequestaCV", "devlogs_count": 2, "created_at": "2025-06-24T19:36:18.349-04:00"}], "coding_time_seconds": 19509, "coding_time_seconds_today": 0, "balance": "You need to have a pocket watcher badge to view this.", "badges": [], "created_at": "2025-06-18T18:39:06.796-04:00", "updated_at": "2025-08-07T19:11:36.738-04:00", "avatar": "https://secure.gravatar.com/avatar/07656ef6954204415ddf2c0946a739b0.jpg?s=512&d=https%3A%2F%2Fa.slack-edge.com%2Fdf10d%2Fimg%2Favatars%2Fava_0015-512.png", "custom_css": null}], "pagination": {"page": 454, "pages": 1192, "count": 23828, "items": 20}}