{"users": [{"id": 9081, "slack_id": "U091V2FUW12", "display_name": "Alexsandro", "bio": null, "projects_count": 0, "devlogs_count": 0, "votes_count": 0, "ships_count": 0, "projects": [], "coding_time_seconds": 0, "coding_time_seconds_today": 0, "balance": "You need to have a pocket watcher badge to view this.", "badges": [], "created_at": "2025-06-18T18:39:18.719-04:00", "updated_at": "2025-07-03T19:50:35.350-04:00", "avatar": "https://secure.gravatar.com/avatar/c145e5b3cfd5f5d31f0bfd98ceb5e030.jpg?s=512&d=https%3A%2F%2Fa.slack-edge.com%2Fdf10d%2Fimg%2Favatars%2Fava_0019-512.png", "custom_css": null}, {"id": 9082, "slack_id": "U091XE12UN7", "display_name": "James Agib", "bio": null, "projects_count": 1, "devlogs_count": 0, "votes_count": 0, "ships_count": 0, "projects": [{"id": 1622, "title": "remra", "devlogs_count": 0, "created_at": "2025-06-18T21:49:49.936-04:00"}], "coding_time_seconds": 233960, "coding_time_seconds_today": 0, "balance": "You need to have a pocket watcher badge to view this.", "badges": [], "created_at": "2025-06-18T18:39:38.111-04:00", "updated_at": "2025-07-03T19:50:35.609-04:00", "avatar": "https://avatars.slack-edge.com/2025-06-18/9071779727058_eede897d881991c16bf3_original.jpg", "custom_css": null}, {"id": 9083, "slack_id": "U092356AQUA", "display_name": "Akanbi Opeyemi", "bio": null, "projects_count": 0, "devlogs_count": 0, "votes_count": 0, "ships_count": 0, "projects": [], "coding_time_seconds": 0, "coding_time_seconds_today": 0, "balance": "You need to have a pocket watcher badge to view this.", "badges": [], "created_at": "2025-06-18T18:42:25.760-04:00", "updated_at": "2025-07-03T19:50:35.881-04:00", "avatar": "https://avatars.slack-edge.com/2025-06-18/9065601064054_681afa76decec9f7e588_original.png", "custom_css": null}, {"id": 9084, "slack_id": "U092GEKLN01", "display_name": "HyperTags", "bio": null, "projects_count": 0, "devlogs_count": 0, "votes_count": 0, "ships_count": 0, "projects": [], "coding_time_seconds": 0, "coding_time_seconds_today": 0, "balance": "You need to have a pocket watcher badge to view this.", "badges": [], "created_at": "2025-06-18T18:42:46.895-04:00", "updated_at": "2025-07-03T19:50:36.147-04:00", "avatar": "https://secure.gravatar.com/avatar/975b526a671ab908960e9d3372c678d6.jpg?s=512&d=https%3A%2F%2Fa.slack-edge.com%2Fdf10d%2Fimg%2Favatars%2Fava_0001-512.png", "custom_css": null}, {"id": 9085, "slack_id": "U09246L9SBW", "display_name": "dheeraj", "bio": null, "projects_count": 0, "devlogs_count": 0, "votes_count": 0, "ships_count": 0, "projects": [], "coding_time_seconds": 0, "coding_time_seconds_today": 0, "balance": "You need to have a pocket watcher badge to view this.", "badges": [], "created_at": "2025-06-18T18:42:47.107-04:00", "updated_at": "2025-07-03T19:50:36.420-04:00", "avatar": "https://secure.gravatar.com/avatar/107eadcf2d09c8af570784510de08aff.jpg?s=512&d=https%3A%2F%2Fa.slack-edge.com%2Fdf10d%2Fimg%2Favatars%2Fava_0007-512.png", "custom_css": null}, {"id": 9086, "slack_id": "U091NUM0U9M", "display_name": "Nirmal Fageria", "bio": null, "projects_count": 0, "devlogs_count": 0, "votes_count": 0, "ships_count": 0, "projects": [], "coding_time_seconds": 62423, "coding_time_seconds_today": 0, "balance": "You need to have a pocket watcher badge to view this.", "badges": [], "created_at": "2025-06-18T18:45:10.351-04:00", "updated_at": "2025-07-03T21:59:18.850-04:00", "avatar": "https://avatars.slack-edge.com/2025-06-21/9067805699351_4cfc13b1b17fa6e7657b_original.jpg", "custom_css": null}, {"id": 9087, "slack_id": "U091XHS1ZD4", "display_name": "Dan", "bio": null, "projects_count": 0, "devlogs_count": 0, "votes_count": 0, "ships_count": 0, "projects": [], "coding_time_seconds": 0, "coding_time_seconds_today": 0, "balance": "You need to have a pocket watcher badge to view this.", "badges": [], "created_at": "2025-06-18T18:48:43.920-04:00", "updated_at": "2025-07-03T19:50:36.823-04:00", "avatar": "https://secure.gravatar.com/avatar/ecef298d39cc3655020a067850683274.jpg?s=512&d=https%3A%2F%2Fa.slack-edge.com%2Fdf10d%2Fimg%2Favatars%2Fava_0000-512.png", "custom_css": null}, {"id": 9088, "slack_id": "U0922GUKF8V", "display_name": "Haroon Waqas", "bio": null, "projects_count": 0, "devlogs_count": 0, "votes_count": 0, "ships_count": 0, "projects": [], "coding_time_seconds": 0, "coding_time_seconds_today": 0, "balance": "You need to have a pocket watcher badge to view this.", "badges": [], "created_at": "2025-06-18T18:49:18.960-04:00", "updated_at": "2025-07-03T19:50:37.082-04:00", "avatar": "https://avatars.slack-edge.com/2025-06-18/9084615321233_eecda2f0401eef21372e_original.png", "custom_css": null}, {"id": 9089, "slack_id": "U091NUWT12T", "display_name": "Wenhao", "bio": null, "projects_count": 0, "devlogs_count": 0, "votes_count": 0, "ships_count": 0, "projects": [], "coding_time_seconds": 0, "coding_time_seconds_today": 0, "balance": "You need to have a pocket watcher badge to view this.", "badges": [], "created_at": "2025-06-18T18:52:01.123-04:00", "updated_at": "2025-07-03T19:50:37.349-04:00", "avatar": "https://secure.gravatar.com/avatar/960a9bffe5e08d4ec24182aacf58b6ff.jpg?s=512&d=https%3A%2F%2Fa.slack-edge.com%2Fdf10d%2Fimg%2Favatars%2Fava_0015-512.png", "custom_css": null}, {"id": 9090, "slack_id": "U091XF1SZT5", "display_name": "Jairo", "bio": null, "projects_count": 0, "devlogs_count": 0, "votes_count": 0, "ships_count": 0, "projects": [], "coding_time_seconds": 0, "coding_time_seconds_today": 0, "balance": "You need to have a pocket watcher badge to view this.", "badges": [], "created_at": "2025-06-18T18:52:30.121-04:00", "updated_at": "2025-07-03T19:50:37.617-04:00", "avatar": "https://secure.gravatar.com/avatar/b41ceed1799ae615112b2592661eea34.jpg?s=512&d=https%3A%2F%2Fa.slack-edge.com%2Fdf10d%2Fimg%2Favatars%2Fava_0004-512.png", "custom_css": null}, {"id": 9091, "slack_id": "U091NVB7P7Z", "display_name": "Josef Kahoun", "bio": null, "projects_count": 0, "devlogs_count": 0, "votes_count": 0, "ships_count": 0, "projects": [], "coding_time_seconds": 0, "coding_time_seconds_today": 0, "balance": "You need to have a pocket watcher badge to view this.", "badges": [], "created_at": "2025-06-18T18:53:08.629-04:00", "updated_at": "2025-07-03T21:59:19.241-04:00", "avatar": "https://avatars.slack-edge.com/2025-06-18/9094407307536_8fe50c9e1da796f23102_original.png", "custom_css": null}, {"id": 9092, "slack_id": "U091XF9D8GK", "display_name": "Ulifly", "bio": null, "projects_count": 0, "devlogs_count": 0, "votes_count": 0, "ships_count": 0, "projects": [], "coding_time_seconds": 85852, "coding_time_seconds_today": 0, "balance": "You need to have a pocket watcher badge to view this.", "badges": [], "created_at": "2025-06-18T18:54:12.191-04:00", "updated_at": "2025-07-04T02:28:39.339-04:00", "avatar": "https://secure.gravatar.com/avatar/9c4fe7891dd39ce8c74d28923529f7bf.jpg?s=512&d=https%3A%2F%2Fa.slack-edge.com%2Fdf10d%2Fimg%2Favatars%2Fava_0014-512.png", "custom_css": null}, {"id": 9093, "slack_id": "U092FRBU5CZ", "display_name": "yuwei", "bio": null, "projects_count": 0, "devlogs_count": 0, "votes_count": 0, "ships_count": 0, "projects": [], "coding_time_seconds": 0, "coding_time_seconds_today": 0, "balance": "You need to have a pocket watcher badge to view this.", "badges": [], "created_at": "2025-06-18T18:56:00.252-04:00", "updated_at": "2025-07-03T21:59:19.390-04:00", "avatar": "https://secure.gravatar.com/avatar/4489b4f2bf6eb888b20abd736857b9dd.jpg?s=512&d=https%3A%2F%2Fa.slack-edge.com%2Fdf10d%2Fimg%2Favatars%2Fava_0021-512.png", "custom_css": null}, {"id": 9094, "slack_id": "U086L6D4ZS9", "display_name": "Amukta Panchangam", "bio": null, "projects_count": 0, "devlogs_count": 0, "votes_count": 0, "ships_count": 0, "projects": [], "coding_time_seconds": 63177, "coding_time_seconds_today": 0, "balance": "You need to have a pocket watcher badge to view this.", "badges": [], "created_at": "2025-06-18T18:56:38.097-04:00", "updated_at": "2025-08-03T20:25:17.026-04:00", "avatar": "https://secure.gravatar.com/avatar/39fd0a941eb2afcc30bfccc28439a2e2.jpg?s=512&d=https%3A%2F%2Fa.slack-edge.com%2Fdf10d%2Fimg%2Favatars%2Fava_0009-512.png", "custom_css": null}, {"id": 9095, "slack_id": "U09247NAL1J", "display_name": "Silvestre Cusicanqui Morrison", "bio": null, "projects_count": 0, "devlogs_count": 0, "votes_count": 10, "ships_count": 0, "projects": [], "coding_time_seconds": 142, "coding_time_seconds_today": 0, "balance": "You need to have a pocket watcher badge to view this.", "badges": [], "created_at": "2025-06-18T18:57:58.035-04:00", "updated_at": "2025-07-03T19:50:38.555-04:00", "avatar": "https://secure.gravatar.com/avatar/5c8f6ed7ea3d76ca1a82300d3f338d29.jpg?s=512&d=https%3A%2F%2Fa.slack-edge.com%2Fdf10d%2Fimg%2Favatars%2Fava_0007-512.png", "custom_css": null}, {"id": 9096, "slack_id": "U091NV9GXKR", "display_name": "Wood Eddy Donald Jean Julien (Deddy)", "bio": null, "projects_count": 0, "devlogs_count": 0, "votes_count": 0, "ships_count": 0, "projects": [], "coding_time_seconds": 0, "coding_time_seconds_today": 0, "balance": "You need to have a pocket watcher badge to view this.", "badges": [], "created_at": "2025-06-18T18:58:20.390-04:00", "updated_at": "2025-07-04T02:28:39.623-04:00", "avatar": "https://avatars.slack-edge.com/2025-06-18/9084642432369_9b0dfcb19ed323ea6ed9_original.png", "custom_css": null}, {"id": 9097, "slack_id": "U09247XH9QC", "display_name": "andre-cmd-rgb", "bio": null, "projects_count": 0, "devlogs_count": 6, "votes_count": 40, "ships_count": 0, "projects": [], "coding_time_seconds": 135959, "coding_time_seconds_today": 0, "balance": "You need to have a pocket watcher badge to view this.", "badges": [{"name": "Maiden Voyage", "text": "you shipped your first project! the journey begins...", "icon": "\ud83d\udea2"}], "created_at": "2025-06-18T18:58:47.913-04:00", "updated_at": "2025-09-10T22:55:39.334-04:00", "avatar": "https://avatars.slack-edge.com/2025-06-19/9077026899972_e6422694807593370cce_original.png", "custom_css": null}, {"id": 9098, "slack_id": "U092GJMDPHP", "display_name": "Zannatul Tasnim Tahiti", "bio": null, "projects_count": 0, "devlogs_count": 0, "votes_count": 0, "ships_count": 0, "projects": [], "coding_time_seconds": 0, "coding_time_seconds_today": 0, "balance": "You need to have a pocket watcher badge to view this.", "badges": [], "created_at": "2025-06-18T18:59:20.483-04:00", "updated_at": "2025-07-03T19:50:39.106-04:00", "avatar": "https://avatars.slack-edge.com/2025-06-18/9094424869664_9678a2d63b33df580257_original.jpg", "custom_css": null}, {"id": 9099, "slack_id": "U0924882XE0", "display_name": "Mark Agib", "bio": null, "projects_count": 2, "devlogs_count": 1, "votes_count": 3, "ships_count": 1, "projects": [{"id": 1600, "title": "Research Decoder", "devlogs_count": 0, "created_at": "2025-06-18T20:47:35.399-04:00"}, {"id": 6639, "title": "7/11", "devlogs_count": 1, "created_at": "2025-07-14T17:55:01.188-04:00"}], "coding_time_seconds": 148062, "coding_time_seconds_today": 0, "balance": "You need to have a pocket watcher badge to view this.", "badges": [{"name": "Maiden Voyage", "text": "you shipped your first project! the journey begins...", "icon": "\ud83d\udea2"}], "created_at": "2025-06-18T19:01:12.894-04:00", "updated_at": "2025-09-10T22:55:39.380-04:00", "avatar": "https://avatars.slack-edge.com/2025-06-18/9072291094516_f3661f266017e9f2278e_original.png", "custom_css": null}, {"id": 9100, "slack_id": "U0923R1N2EN", "display_name": "barancan", "bio": null, "projects_count": 0, "devlogs_count": 0, "votes_count": 0, "ships_count": 0, "projects": [], "coding_time_seconds": 0, "coding_time_seconds_today": 0, "balance": "You need to have a pocket watcher badge to view this.", "badges": [], "created_at": "2025-06-18T19:06:13.802-04:00", "updated_at": "2025-07-03T19:50:39.653-04:00", "avatar": "https://secure.gravatar.com/avatar/6624fec7e10746c730f26dbd509cf24f.jpg?s=512&d=https%3A%2F%2Fa.slack-edge.com%2Fdf10d%2Fimg%2Favatars%2Fava_0006-512.png", "custom_css": null}], "pagination": {"page": 455, "pages": 1192, "count": 23828, "items": 20}}