{"users": [{"id": 9101, "slack_id": "U079JE3HKC0", "display_name": "AverySeeman", "bio": null, "projects_count": 0, "devlogs_count": 0, "votes_count": 0, "ships_count": 0, "projects": [], "coding_time_seconds": 156876, "coding_time_seconds_today": 0, "balance": "You need to have a pocket watcher badge to view this.", "badges": [], "created_at": "2025-06-18T19:13:29.456-04:00", "updated_at": "2025-07-11T14:10:28.062-04:00", "avatar": "https://secure.gravatar.com/avatar/afb606e6585b1e8cf05a9f87d712d150.jpg?s=512&d=https%3A%2F%2Fa.slack-edge.com%2Fdf10d%2Fimg%2Favatars%2Fava_0006-512.png", "custom_css": null}, {"id": 9102, "slack_id": "U0923RXF3M0", "display_name": "Priyanshu Kansal", "bio": null, "projects_count": 0, "devlogs_count": 0, "votes_count": 0, "ships_count": 0, "projects": [], "coding_time_seconds": 0, "coding_time_seconds_today": 0, "balance": "You need to have a pocket watcher badge to view this.", "badges": [], "created_at": "2025-06-18T19:16:44.285-04:00", "updated_at": "2025-07-03T19:50:40.185-04:00", "avatar": "https://avatars.slack-edge.com/2025-06-18/9070671498837_e05efc69e034243170a8_original.png", "custom_css": null}, {"id": 9103, "slack_id": "U092GLLTPS5", "display_name": "Skyler Song", "bio": null, "projects_count": 0, "devlogs_count": 0, "votes_count": 0, "ships_count": 0, "projects": [], "coding_time_seconds": 5146, "coding_time_seconds_today": 0, "balance": "You need to have a pocket watcher badge to view this.", "badges": [], "created_at": "2025-06-18T19:20:06.573-04:00", "updated_at": "2025-07-03T19:50:40.465-04:00", "avatar": "https://secure.gravatar.com/avatar/7a1257b22f2619b30437ad891d4eb845.jpg?s=512&d=https%3A%2F%2Fa.slack-edge.com%2Fdf10d%2Fimg%2Favatars%2Fava_0021-512.png", "custom_css": null}, {"id": 9104, "slack_id": "U092SE2R5HN", "display_name": "Autumn_Kwe", "bio": null, "projects_count": 0, "devlogs_count": 0, "votes_count": 0, "ships_count": 0, "projects": [], "coding_time_seconds": 0, "coding_time_seconds_today": 0, "balance": "You need to have a pocket watcher badge to view this.", "badges": [], "created_at": "2025-06-18T19:21:52.497-04:00", "updated_at": "2025-07-03T19:50:40.809-04:00", "avatar": "https://secure.gravatar.com/avatar/8affd39edfa64cd94a294cccfcdaa9ac.jpg?s=512&d=https%3A%2F%2Fa.slack-edge.com%2Fdf10d%2Fimg%2Favatars%2Fava_0024-512.png", "custom_css": null}, {"id": 9105, "slack_id": "U091RS6LATW", "display_name": "Insidious Fiddler", "bio": null, "projects_count": 0, "devlogs_count": 0, "votes_count": 0, "ships_count": 0, "projects": [], "coding_time_seconds": 530888, "coding_time_seconds_today": 0, "balance": "You need to have a pocket watcher badge to view this.", "badges": [], "created_at": "2025-06-18T19:22:55.766-04:00", "updated_at": "2025-07-03T21:47:19.540-04:00", "avatar": "https://secure.gravatar.com/avatar/e1692872d42fd0a9a3cf4a324078aab2.jpg?s=512&d=https%3A%2F%2Fa.slack-edge.com%2Fdf10d%2Fimg%2Favatars%2Fava_0018-512.png", "custom_css": null}, {"id": 9106, "slack_id": "U092SE28SE4", "display_name": "Pi", "bio": null, "projects_count": 0, "devlogs_count": 0, "votes_count": 0, "ships_count": 0, "projects": [], "coding_time_seconds": 0, "coding_time_seconds_today": 0, "balance": "You need to have a pocket watcher badge to view this.", "badges": [], "created_at": "2025-06-18T19:24:22.772-04:00", "updated_at": "2025-07-03T19:50:41.205-04:00", "avatar": "https://secure.gravatar.com/avatar/713e02c29d34aa13fe07fc061ae690be.jpg?s=512&d=https%3A%2F%2Fa.slack-edge.com%2Fdf10d%2Fimg%2Favatars%2Fava_0022-512.png", "custom_css": null}, {"id": 9107, "slack_id": "U091XKYL570", "display_name": "faiz", "bio": null, "projects_count": 1, "devlogs_count": 0, "votes_count": 0, "ships_count": 0, "projects": [{"id": 4431, "title": "Simple TODO LIST ", "devlogs_count": 0, "created_at": "2025-06-29T19:51:57.386-04:00"}], "coding_time_seconds": 229033, "coding_time_seconds_today": 0, "balance": "You need to have a pocket watcher badge to view this.", "badges": [], "created_at": "2025-06-18T19:25:47.375-04:00", "updated_at": "2025-07-03T19:50:41.492-04:00", "avatar": "https://avatars.slack-edge.com/2025-06-19/9072607637956_74b1d2266f4e38f89bf5_original.jpg", "custom_css": null}, {"id": 9108, "slack_id": "U091XGA0ZHR", "display_name": "Nh\u1eadt Linh", "bio": null, "projects_count": 0, "devlogs_count": 0, "votes_count": 0, "ships_count": 0, "projects": [], "coding_time_seconds": 132600, "coding_time_seconds_today": 0, "balance": "You need to have a pocket watcher badge to view this.", "badges": [], "created_at": "2025-06-18T19:28:09.517-04:00", "updated_at": "2025-07-05T02:10:13.545-04:00", "avatar": "https://avatars.slack-edge.com/2025-06-18/9070702091317_737f3da952572ff5dec0_original.webp", "custom_css": null}, {"id": 9109, "slack_id": "U092SD9EGHW", "display_name": "Ahmed Mahim", "bio": null, "projects_count": 0, "devlogs_count": 0, "votes_count": 0, "ships_count": 0, "projects": [], "coding_time_seconds": 247, "coding_time_seconds_today": 0, "balance": "You need to have a pocket watcher badge to view this.", "badges": [], "created_at": "2025-06-18T19:29:20.474-04:00", "updated_at": "2025-07-03T19:50:41.908-04:00", "avatar": "https://avatars.slack-edge.com/2025-06-19/9057130235335_159be7ceaa43b52f0e23_original.png", "custom_css": null}, {"id": 9110, "slack_id": "U091XC3641Z", "display_name": "Haseeb Ullah", "bio": null, "projects_count": 0, "devlogs_count": 0, "votes_count": 0, "ships_count": 0, "projects": [], "coding_time_seconds": 0, "coding_time_seconds_today": 0, "balance": "You need to have a pocket watcher badge to view this.", "badges": [], "created_at": "2025-06-18T19:30:14.243-04:00", "updated_at": "2025-07-03T19:50:42.166-04:00", "avatar": "https://secure.gravatar.com/avatar/faf9cbbb4d59602c1f2b9b2f7213611a.jpg?s=512&d=https%3A%2F%2Fa.slack-edge.com%2Fdf10d%2Fimg%2Favatars%2Fava_0005-512.png", "custom_css": null}, {"id": 9111, "slack_id": "U091XMA10PQ", "display_name": "Pulsed", "bio": null, "projects_count": 0, "devlogs_count": 0, "votes_count": 0, "ships_count": 0, "projects": [], "coding_time_seconds": 31101, "coding_time_seconds_today": 0, "balance": "You need to have a pocket watcher badge to view this.", "badges": [], "created_at": "2025-06-18T19:30:26.264-04:00", "updated_at": "2025-07-03T19:50:42.438-04:00", "avatar": "https://secure.gravatar.com/avatar/ecc9f9418f4f75f6ea66348c03c559c7.jpg?s=512&d=https%3A%2F%2Fa.slack-edge.com%2Fdf10d%2Fimg%2Favatars%2Fava_0003-512.png", "custom_css": null}, {"id": 9112, "slack_id": "U091RNL8WT0", "display_name": "mikazukimo", "bio": null, "projects_count": 0, "devlogs_count": 0, "votes_count": 0, "ships_count": 0, "projects": [], "coding_time_seconds": 0, "coding_time_seconds_today": 0, "balance": "You need to have a pocket watcher badge to view this.", "badges": [], "created_at": "2025-06-18T19:31:49.026-04:00", "updated_at": "2025-07-03T19:50:42.717-04:00", "avatar": "https://secure.gravatar.com/avatar/7b2314c4857bb1cf745ee507bbc327b9.jpg?s=512&d=https%3A%2F%2Fa.slack-edge.com%2Fdf10d%2Fimg%2Favatars%2Fava_0005-512.png", "custom_css": null}, {"id": 9113, "slack_id": "U091YAK3YAZ", "display_name": "Hamza Ahmed Rajab", "bio": null, "projects_count": 0, "devlogs_count": 0, "votes_count": 0, "ships_count": 0, "projects": [], "coding_time_seconds": 0, "coding_time_seconds_today": 0, "balance": "You need to have a pocket watcher badge to view this.", "badges": [], "created_at": "2025-06-18T19:33:05.257-04:00", "updated_at": "2025-07-03T19:50:43.008-04:00", "avatar": "https://secure.gravatar.com/avatar/d10c6bb9ca20e382ee66f6e5cf0bbcd9.jpg?s=512&d=https%3A%2F%2Fa.slack-edge.com%2Fdf10d%2Fimg%2Favatars%2Fava_0021-512.png", "custom_css": null}, {"id": 9114, "slack_id": "U0814Q5D6S1", "display_name": "Eric Ning", "bio": null, "projects_count": 1, "devlogs_count": 9, "votes_count": 2, "ships_count": 1, "projects": [{"id": 5876, "title": "mini dungeon", "devlogs_count": 9, "created_at": "2025-07-08T16:36:52.075-04:00"}], "coding_time_seconds": 119184, "coding_time_seconds_today": 0, "balance": "You need to have a pocket watcher badge to view this.", "badges": [{"name": "Maiden Voyage", "text": "you shipped your first project! the journey begins...", "icon": "\ud83d\udea2"}], "created_at": "2025-06-18T19:33:16.027-04:00", "updated_at": "2025-09-13T20:52:31.524-04:00", "avatar": "https://secure.gravatar.com/avatar/17cc55296ee32a54a91cb674848d2967.jpg?s=512&d=https%3A%2F%2Fa.slack-edge.com%2Fdf10d%2Fimg%2Favatars%2Fava_0010-512.png", "custom_css": null}, {"id": 9115, "slack_id": "U086P6UNTD0", "display_name": "Ayman Eslam", "bio": null, "projects_count": 0, "devlogs_count": 0, "votes_count": 0, "ships_count": 0, "projects": [], "coding_time_seconds": 0, "coding_time_seconds_today": 0, "balance": "You need to have a pocket watcher badge to view this.", "badges": [], "created_at": "2025-06-18T19:33:32.192-04:00", "updated_at": "2025-07-05T20:10:34.821-04:00", "avatar": "https://secure.gravatar.com/avatar/f8dbac6df91358268ebc1fe8c922b295.jpg?s=512&d=https%3A%2F%2Fa.slack-edge.com%2Fdf10d%2Fimg%2Favatars%2Fava_0002-512.png", "custom_css": null}, {"id": 9116, "slack_id": "U08687DK7K2", "display_name": "aaron huang", "bio": null, "projects_count": 1, "devlogs_count": 2, "votes_count": 0, "ships_count": 0, "projects": [{"id": 1871, "title": "KiCad WakaTime", "devlogs_count": 2, "created_at": "2025-06-19T13:37:40.580-04:00"}], "coding_time_seconds": 181255, "coding_time_seconds_today": 0, "balance": "You need to have a pocket watcher badge to view this.", "badges": [], "created_at": "2025-06-18T19:34:30.827-04:00", "updated_at": "2025-07-03T19:50:43.691-04:00", "avatar": "https://avatars.slack-edge.com/2024-12-17/8182822317718_2dee03c48226e690c3f4_original.jpg", "custom_css": null}, {"id": 9117, "slack_id": "U0922LGBCE9", "display_name": "atoxicarrow", "bio": null, "projects_count": 0, "devlogs_count": 0, "votes_count": 0, "ships_count": 0, "projects": [], "coding_time_seconds": 0, "coding_time_seconds_today": 0, "balance": "You need to have a pocket watcher badge to view this.", "badges": [], "created_at": "2025-06-18T19:34:55.140-04:00", "updated_at": "2025-07-03T19:50:43.957-04:00", "avatar": "https://secure.gravatar.com/avatar/54ce435293caac65e4e82a374d5220fb.jpg?s=512&d=https%3A%2F%2Fa.slack-edge.com%2Fdf10d%2Fimg%2Favatars%2Fava_0007-512.png", "custom_css": null}, {"id": 9118, "slack_id": "U091P3QN57H", "display_name": "Krish Kalla", "bio": null, "projects_count": 0, "devlogs_count": 0, "votes_count": 0, "ships_count": 0, "projects": [], "coding_time_seconds": 0, "coding_time_seconds_today": 0, "balance": "You need to have a pocket watcher badge to view this.", "badges": [], "created_at": "2025-06-18T19:34:57.451-04:00", "updated_at": "2025-07-03T19:50:44.239-04:00", "avatar": "https://secure.gravatar.com/avatar/b585a836aa50cef59d4378da0a94e84f.jpg?s=512&d=https%3A%2F%2Fa.slack-edge.com%2Fdf10d%2Fimg%2Favatars%2Fava_0009-512.png", "custom_css": null}, {"id": 9119, "slack_id": "U091P3NQPSB", "display_name": "Sayfulla Mirxoliqov", "bio": null, "projects_count": 0, "devlogs_count": 0, "votes_count": 0, "ships_count": 0, "projects": [], "coding_time_seconds": 0, "coding_time_seconds_today": 0, "balance": "You need to have a pocket watcher badge to view this.", "badges": [], "created_at": "2025-06-18T19:35:46.209-04:00", "updated_at": "2025-07-03T19:50:44.500-04:00", "avatar": "https://avatars.slack-edge.com/2025-06-18/9065761652694_afe0bfd2d38a9a4c435e_original.png", "custom_css": null}, {"id": 9120, "slack_id": "U0923TECXGS", "display_name": "Zimo", "bio": null, "projects_count": 0, "devlogs_count": 0, "votes_count": 0, "ships_count": 0, "projects": [], "coding_time_seconds": 0, "coding_time_seconds_today": 0, "balance": "You need to have a pocket watcher badge to view this.", "badges": [], "created_at": "2025-06-18T19:36:33.868-04:00", "updated_at": "2025-07-03T19:50:44.766-04:00", "avatar": "https://secure.gravatar.com/avatar/5f11d3ec953c2981e9f60dbc462a7d0c.jpg?s=512&d=https%3A%2F%2Fa.slack-edge.com%2Fdf10d%2Fimg%2Favatars%2Fava_0010-512.png", "custom_css": null}], "pagination": {"page": 456, "pages": 1192, "count": 23828, "items": 20}}