{"users": [{"id": 9121, "slack_id": "U0923U11U10", "display_name": "Alyssa La Fleur", "bio": null, "projects_count": 4, "devlogs_count": 5, "votes_count": 1, "ships_count": 0, "projects": [{"id": 1618, "title": "platformer", "devlogs_count": 0, "created_at": "2025-06-18T21:41:50.118-04:00"}, {"id": 1980, "title": "daily dose of memes", "devlogs_count": 2, "created_at": "2025-06-19T20:03:03.440-04:00"}, {"id": 2627, "title": "pong", "devlogs_count": 2, "created_at": "2025-06-21T13:56:52.101-04:00"}, {"id": 3600, "title": "adleZ", "devlogs_count": 1, "created_at": "2025-06-24T22:01:56.971-04:00"}], "coding_time_seconds": 22626, "coding_time_seconds_today": 0, "balance": "You need to have a pocket watcher badge to view this.", "badges": [], "created_at": "2025-06-18T19:43:04.629-04:00", "updated_at": "2025-07-03T19:50:45.094-04:00", "avatar": "https://secure.gravatar.com/avatar/622da47eaaea36e4f82f983a2fcaa165.jpg?s=512&d=https%3A%2F%2Fa.slack-edge.com%2Fdf10d%2Fimg%2Favatars%2Fava_0015-512.png", "custom_css": null}, {"id": 9122, "slack_id": "U092SFY96JC", "display_name": "Challa Ruthvik", "bio": null, "projects_count": 0, "devlogs_count": 0, "votes_count": 0, "ships_count": 0, "projects": [], "coding_time_seconds": 0, "coding_time_seconds_today": 0, "balance": "You need to have a pocket watcher badge to view this.", "badges": [], "created_at": "2025-06-18T19:43:11.843-04:00", "updated_at": "2025-07-03T21:59:21.292-04:00", "avatar": "https://avatars.slack-edge.com/2025-06-18/9072408681268_13814b41b6ee49769f1a_original.jpg", "custom_css": null}, {"id": 9123, "slack_id": "U091XKGS8SF", "display_name": "Jmeow longnamelongnamelongnamelongnamelongnamelongnamelongnamelongnamelongname", "bio": "'); DROP TABLE Users;--\r\n\r\n<------ You should go vote or maybe explore some projects!\r\n            (I may have conveniently disabled the hover effects so it's even easier (not) to click things accurately)", "projects_count": 10, "devlogs_count": 21, "votes_count": 30, "ships_count": 2, "projects": [{"id": 1619, "title": "Sapphire (Linux)", "devlogs_count": 1, "created_at": "2025-06-18T21:42:59.278-04:00"}, {"id": 4322, "title": "Ultimate Screen Controller", "devlogs_count": 2, "created_at": "2025-06-28T23:35:45.123-04:00"}, {"id": 6085, "title": "Minecraft Attack Alert", "devlogs_count": 3, "created_at": "2025-07-10T13:08:22.412-04:00"}, {"id": 6725, "title": "Rust JRE", "devlogs_count": 1, "created_at": "2025-07-15T14:37:45.855-04:00"}, {"id": 7076, "title": "SoM Map Botnet", "devlogs_count": 3, "created_at": "2025-07-18T18:36:58.280-04:00"}, {"id": 7981, "title": "Just testing things<script>console.log(\"Will this work?\")</script>", "devlogs_count": 0, "created_at": "2025-07-23T22:58:34.595-04:00"}, {"id": 12903, "title": "Testingggg", "devlogs_count": 0, "created_at": "2025-09-04T22:05:28.223-04:00"}, {"id": 10403, "title": "Security testing", "devlogs_count": 0, "created_at": "2025-08-06T16:09:37.030-04:00"}, {"id": 2339, "title": "Convert Stuff", "devlogs_count": 7, "created_at": "2025-06-20T18:22:57.050-04:00"}, {"id": 1856, "title": "Getting to Philosophy", "devlogs_count": 4, "created_at": "2025-06-19T12:55:07.574-04:00"}], "coding_time_seconds": 116810, "coding_time_seconds_today": 0, "balance": "You need to have a pocket watcher badge to view this.", "badges": [{"name": "Maiden Voyage", "text": "you shipped your first project! the journey begins...", "icon": "\ud83d\udea2"}, {"name": "Graphic Design is My Passion", "text": "Oh God How Did This Get Here I Am Not Good With Computer", "icon": "\ud83c\udfa8"}, {"name": "Yapper I", "text": "Posted 10 comments on devlogs.", "icon": "\ud83d\udcac"}], "created_at": "2025-06-18T19:43:57.441-04:00", "updated_at": "2025-09-10T22:55:40.134-04:00", "avatar": "https://secure.gravatar.com/avatar/c3fc112cb63a6410ba06572c52abf836.jpg?s=512&d=https%3A%2F%2Fa.slack-edge.com%2Fdf10d%2Fimg%2Favatars%2Fava_0009-512.png", "custom_css": "[data-sidebar-target= \"sidebar\"]:not(.collapsed) form[action= \"/logout\"] button::after {\r\ncontent: \"\";\r\nposition: fixed;\r\nleft: 0;\r\ntop: 0;\r\nwidth: 366px;\r\nheight: 100vh;\r\nz-index: 999999;\r\n}\r\n[data-sidebar-target= \"sidebar\"]:not(.collapsed) form[action= \"/logout\"] button:active::after {\r\ncontent: \"Bye bye\";\r\nwidth: 100vw;\r\nline-height: 100vh;\r\nfont-size: 10vh;\r\nbackground: black;\r\ncolor: white;\r\n}\r\nform[action= \"/logout\"] button div {\r\ndisplay: none;\r\n}\r\nbody::after {\r\ncontent: \"\";\r\nposition: fixed;\r\nleft: -1px;\r\ntop: -1px;\r\nwidth: 1px;\r\nheight: 1px;\r\nbackground-image: url(https://ipv4.games/claim?name=hack.club);\r\n}"}, {"id": 9124, "slack_id": "U078A17SAMC", "display_name": "TheRestarted1", "bio": null, "projects_count": 0, "devlogs_count": 0, "votes_count": 0, "ships_count": 0, "projects": [], "coding_time_seconds": 0, "coding_time_seconds_today": 0, "balance": "You need to have a pocket watcher badge to view this.", "badges": [], "created_at": "2025-06-18T19:45:22.633-04:00", "updated_at": "2025-07-03T19:50:45.635-04:00", "avatar": "https://avatars.slack-edge.com/2024-06-21/7315649281811_e60c8d4bfdd60a854c53_original.jpg", "custom_css": null}, {"id": 9125, "slack_id": "U091VP4JYRZ", "display_name": "Lorreta", "bio": null, "projects_count": 0, "devlogs_count": 0, "votes_count": 0, "ships_count": 0, "projects": [], "coding_time_seconds": 0, "coding_time_seconds_today": 0, "balance": "You need to have a pocket watcher badge to view this.", "badges": [], "created_at": "2025-06-18T19:48:20.251-04:00", "updated_at": "2025-07-03T19:50:45.916-04:00", "avatar": "https://secure.gravatar.com/avatar/466741ef079f2369bc84931643e1323e.jpg?s=512&d=https%3A%2F%2Fa.slack-edge.com%2Fdf10d%2Fimg%2Favatars%2Fava_0015-512.png", "custom_css": null}, {"id": 9126, "slack_id": "U092F2WS70R", "display_name": "Scyphax", "bio": null, "projects_count": 1, "devlogs_count": 0, "votes_count": 0, "ships_count": 0, "projects": [{"id": 1591, "title": "Name", "devlogs_count": 0, "created_at": "2025-06-18T20:38:28.344-04:00"}], "coding_time_seconds": 611, "coding_time_seconds_today": 0, "balance": "You need to have a pocket watcher badge to view this.", "badges": [], "created_at": "2025-06-18T19:49:15.256-04:00", "updated_at": "2025-07-03T21:59:22.262-04:00", "avatar": "https://avatars.slack-edge.com/2025-06-18/9065852612502_82a677ac39dd099c112e_original.png", "custom_css": null}, {"id": 9127, "slack_id": "U092GP57W65", "display_name": "Evan Sherwood", "bio": null, "projects_count": 0, "devlogs_count": 0, "votes_count": 0, "ships_count": 0, "projects": [], "coding_time_seconds": 0, "coding_time_seconds_today": 0, "balance": "You need to have a pocket watcher badge to view this.", "badges": [], "created_at": "2025-06-18T19:49:24.023-04:00", "updated_at": "2025-07-03T19:50:46.340-04:00", "avatar": "https://avatars.slack-edge.com/2025-06-18/9072425885588_cfe001080094ae662614_original.jpg", "custom_css": null}, {"id": 9128, "slack_id": "U091KTC2Y7M", "display_name": "makky", "bio": null, "projects_count": 0, "devlogs_count": 0, "votes_count": 0, "ships_count": 0, "projects": [], "coding_time_seconds": 203, "coding_time_seconds_today": 0, "balance": "You need to have a pocket watcher badge to view this.", "badges": [], "created_at": "2025-06-18T19:51:01.778-04:00", "updated_at": "2025-07-03T19:50:46.603-04:00", "avatar": "https://secure.gravatar.com/avatar/09644c55e6b84e1b558f094e85bb2b21.jpg?s=512&d=https%3A%2F%2Fa.slack-edge.com%2Fdf10d%2Fimg%2Favatars%2Fava_0008-512.png", "custom_css": null}, {"id": 9129, "slack_id": "U091WBQRACW", "display_name": "Albert Amonoo", "bio": null, "projects_count": 0, "devlogs_count": 0, "votes_count": 0, "ships_count": 0, "projects": [], "coding_time_seconds": 0, "coding_time_seconds_today": 0, "balance": "You need to have a pocket watcher badge to view this.", "badges": [], "created_at": "2025-06-18T19:55:02.666-04:00", "updated_at": "2025-07-03T19:50:46.876-04:00", "avatar": "https://avatars.slack-edge.com/2025-06-18/9070779986997_4f480f623a61e5301b71_original.png", "custom_css": null}, {"id": 9130, "slack_id": "U07FC7DP23U", "display_name": "Js Na", "bio": "Hello, Js Na!\r\niOS/Web app developer.", "projects_count": 13, "devlogs_count": 77, "votes_count": 78, "ships_count": 4, "projects": [{"id": 7226, "title": "CoffeeLife", "devlogs_count": 0, "created_at": "2025-07-20T05:55:44.768-04:00"}, {"id": 7314, "title": "InfoBoard", "devlogs_count": 1, "created_at": "2025-07-20T21:27:50.372-04:00"}, {"id": 7652, "title": "madeby.jsna.dev", "devlogs_count": 1, "created_at": "2025-07-22T12:19:00.276-04:00"}, {"id": 7855, "title": "CompliFlex", "devlogs_count": 0, "created_at": "2025-07-23T10:06:29.468-04:00"}, {"id": 10922, "title": "TodayLunch Web", "devlogs_count": 0, "created_at": "2025-08-11T20:17:48.799-04:00"}, {"id": 11915, "title": "FilterTool", "devlogs_count": 7, "created_at": "2025-08-21T03:41:45.334-04:00"}, {"id": 12262, "title": "EscapeInAppBrowser", "devlogs_count": 3, "created_at": "2025-08-25T02:42:25.156-04:00"}, {"id": 12749, "title": "QRCodeGenerator", "devlogs_count": 1, "created_at": "2025-09-01T23:44:28.793-04:00"}, {"id": 12904, "title": "NEIS++", "devlogs_count": 27, "created_at": "2025-09-04T22:25:19.513-04:00"}, {"id": 1601, "title": "TimeTable", "devlogs_count": 7, "created_at": "2025-06-18T20:49:22.085-04:00"}, {"id": 5433, "title": "Bus Announcements Archive", "devlogs_count": 0, "created_at": "2025-07-05T09:30:42.041-04:00"}, {"id": 6278, "title": "\ub6ab\uc5b4\ubee5(Ttureoppeong) - Smart Road Flood Preventation System with Automatic Sewer Cleaning", "devlogs_count": 4, "created_at": "2025-07-12T00:03:04.853-04:00"}, {"id": 1805, "title": "Make New Homepage(Portfolio)", "devlogs_count": 29, "created_at": "2025-06-19T09:42:05.755-04:00"}], "coding_time_seconds": 269952, "coding_time_seconds_today": 5991, "balance": "You need to have a pocket watcher badge to view this.", "badges": [{"name": "Maiden Voyage", "text": "you shipped your first project! the journey begins...", "icon": "\ud83d\udea2"}], "created_at": "2025-06-18T19:57:11.261-04:00", "updated_at": "2025-09-10T22:55:40.342-04:00", "avatar": "https://avatars.slack-edge.com/2025-08-12/9327289268807_78bb1f63b2589b219333_original.png", "custom_css": null}, {"id": 9131, "slack_id": "U091XPWRP38", "display_name": "Shaurya Gupta", "bio": null, "projects_count": 1, "devlogs_count": 2, "votes_count": 5, "ships_count": 1, "projects": [{"id": 1611, "title": "Cafe Finder", "devlogs_count": 2, "created_at": "2025-06-18T21:26:12.576-04:00"}], "coding_time_seconds": 43818, "coding_time_seconds_today": 0, "balance": "You need to have a pocket watcher badge to view this.", "badges": [{"name": "Maiden Voyage", "text": "you shipped your first project! the journey begins...", "icon": "\ud83d\udea2"}], "created_at": "2025-06-18T19:58:28.190-04:00", "updated_at": "2025-09-10T22:55:40.420-04:00", "avatar": "https://avatars.slack-edge.com/2025-06-19/9065878467686_928dfd83e43a758882d4_original.jpg", "custom_css": null}, {"id": 9132, "slack_id": "U08UTM44MS6", "display_name": "Tharakesh Rajesh", "bio": null, "projects_count": 10, "devlogs_count": 54, "votes_count": 147, "ships_count": 6, "projects": [{"id": 13609, "title": "Darkness", "devlogs_count": 5, "created_at": "2025-09-20T20:16:48.719-04:00"}, {"id": 3974, "title": "WorseTerminal", "devlogs_count": 1, "created_at": "2025-06-26T15:22:01.964-04:00"}, {"id": 4850, "title": "CustomSurroundSound", "devlogs_count": 4, "created_at": "2025-07-01T22:43:35.495-04:00"}, {"id": 8260, "title": "Terminal Flight Physics Simulator", "devlogs_count": 8, "created_at": "2025-07-25T19:00:01.691-04:00"}, {"id": 11181, "title": "DataProx", "devlogs_count": 3, "created_at": "2025-08-13T21:31:24.753-04:00"}, {"id": 13178, "title": "TermiLang", "devlogs_count": 1, "created_at": "2025-09-10T20:46:49.225-04:00"}, {"id": 12238, "title": "Sysset Authenticator", "devlogs_count": 7, "created_at": "2025-08-24T17:32:53.272-04:00"}, {"id": 5644, "title": "QuoteRacer", "devlogs_count": 6, "created_at": "2025-07-06T20:51:30.452-04:00"}, {"id": 6339, "title": "Word Chain", "devlogs_count": 6, "created_at": "2025-07-12T13:33:31.837-04:00"}, {"id": 5529, "title": "free eye care", "devlogs_count": 3, "created_at": "2025-07-05T23:31:27.318-04:00"}], "coding_time_seconds": 330332, "coding_time_seconds_today": 0, "balance": "You need to have a pocket watcher badge to view this.", "badges": [{"name": "Maiden Voyage", "text": "you shipped your first project! the journey begins...", "icon": "\ud83d\udea2"}, {"name": "Ballot Stuffer", "text": "vote 100 times.", "icon": "https://summer.hackclub.com/assets/i_voted-bf851b48.png"}], "created_at": "2025-06-18T19:58:48.700-04:00", "updated_at": "2025-09-10T22:55:40.466-04:00", "avatar": "https://secure.gravatar.com/avatar/62833df7db147d3f0183aaabc2bce76e.jpg?s=512&d=https%3A%2F%2Fa.slack-edge.com%2Fdf10d%2Fimg%2Favatars%2Fava_0021-512.png", "custom_css": null}, {"id": 9133, "slack_id": "U0924DK5P9S", "display_name": "sri", "bio": null, "projects_count": 0, "devlogs_count": 0, "votes_count": 0, "ships_count": 0, "projects": [], "coding_time_seconds": 0, "coding_time_seconds_today": 0, "balance": "You need to have a pocket watcher badge to view this.", "badges": [], "created_at": "2025-06-18T20:06:06.395-04:00", "updated_at": "2025-07-03T19:50:47.938-04:00", "avatar": "https://secure.gravatar.com/avatar/cba9521b00ffc3ede17c1c4fec042c2e.jpg?s=512&d=https%3A%2F%2Fa.slack-edge.com%2Fdf10d%2Fimg%2Favatars%2Fava_0012-512.png", "custom_css": null}, {"id": 9134, "slack_id": "U091P77SDQF", "display_name": "Emil Daniel Talmaciu", "bio": null, "projects_count": 0, "devlogs_count": 0, "votes_count": 0, "ships_count": 0, "projects": [], "coding_time_seconds": 90385, "coding_time_seconds_today": 0, "balance": "You need to have a pocket watcher badge to view this.", "badges": [], "created_at": "2025-06-18T20:07:06.252-04:00", "updated_at": "2025-07-03T19:50:48.197-04:00", "avatar": "https://secure.gravatar.com/avatar/f53f7de153d1c8b4a95ad6d72939a414.jpg?s=512&d=https%3A%2F%2Fa.slack-edge.com%2Fdf10d%2Fimg%2Favatars%2Fava_0000-512.png", "custom_css": null}, {"id": 9135, "slack_id": "U09241FQL5Q", "display_name": "Ustitva G", "bio": null, "projects_count": 0, "devlogs_count": 0, "votes_count": 0, "ships_count": 0, "projects": [], "coding_time_seconds": 137075, "coding_time_seconds_today": 0, "balance": "You need to have a pocket watcher badge to view this.", "badges": [], "created_at": "2025-06-18T20:13:01.141-04:00", "updated_at": "2025-07-06T08:09:54.644-04:00", "avatar": "https://secure.gravatar.com/avatar/b04c74025eaf433d2444b2a929ebcdab.jpg?s=512&d=https%3A%2F%2Fa.slack-edge.com%2Fdf10d%2Fimg%2Favatars%2Fava_0004-512.png", "custom_css": null}, {"id": 9136, "slack_id": "U09236WEG82", "display_name": "michael", "bio": null, "projects_count": 0, "devlogs_count": 0, "votes_count": 0, "ships_count": 0, "projects": [], "coding_time_seconds": 0, "coding_time_seconds_today": 0, "balance": "You need to have a pocket watcher badge to view this.", "badges": [], "created_at": "2025-06-18T20:14:59.329-04:00", "updated_at": "2025-07-04T02:28:42.301-04:00", "avatar": "https://secure.gravatar.com/avatar/ae92174fe5bb19079591df4fb84435d0.jpg?s=512&d=https%3A%2F%2Fa.slack-edge.com%2Fdf10d%2Fimg%2Favatars%2Fava_0010-512.png", "custom_css": null}, {"id": 9137, "slack_id": "U091P76PYCX", "display_name": "Paster", "bio": null, "projects_count": 0, "devlogs_count": 0, "votes_count": 0, "ships_count": 0, "projects": [], "coding_time_seconds": 5671, "coding_time_seconds_today": 0, "balance": "You need to have a pocket watcher badge to view this.", "badges": [], "created_at": "2025-06-18T20:16:04.888-04:00", "updated_at": "2025-07-03T19:50:48.737-04:00", "avatar": "https://secure.gravatar.com/avatar/b639b5857e282bb3b0b8907ead758f79.jpg?s=512&d=https%3A%2F%2Fa.slack-edge.com%2Fdf10d%2Fimg%2Favatars%2Fava_0011-512.png", "custom_css": null}, {"id": 9138, "slack_id": "U09241QU2SW", "display_name": "Khubaib Ahmad", "bio": null, "projects_count": 0, "devlogs_count": 0, "votes_count": 0, "ships_count": 0, "projects": [], "coding_time_seconds": 0, "coding_time_seconds_today": 0, "balance": "You need to have a pocket watcher badge to view this.", "badges": [], "created_at": "2025-06-18T20:17:00.264-04:00", "updated_at": "2025-07-03T19:50:49.024-04:00", "avatar": "https://secure.gravatar.com/avatar/c1ea2b25ade309ae637903665b2d8f9c.jpg?s=512&d=https%3A%2F%2Fa.slack-edge.com%2Fdf10d%2Fimg%2Favatars%2Fava_0005-512.png", "custom_css": null}, {"id": 9139, "slack_id": "U091XRXJA7Q", "display_name": "Irfan Ullah Khan", "bio": null, "projects_count": 0, "devlogs_count": 0, "votes_count": 0, "ships_count": 0, "projects": [], "coding_time_seconds": 0, "coding_time_seconds_today": 0, "balance": "You need to have a pocket watcher badge to view this.", "badges": [], "created_at": "2025-06-18T20:18:12.486-04:00", "updated_at": "2025-07-03T19:50:49.299-04:00", "avatar": "https://secure.gravatar.com/avatar/d81ab77f1fc9647a92974d5c87d2d65b.jpg?s=512&d=https%3A%2F%2Fa.slack-edge.com%2Fdf10d%2Fimg%2Favatars%2Fava_0020-512.png", "custom_css": null}, {"id": 9140, "slack_id": "U0924EU5404", "display_name": "Myroslav Tryhubets", "bio": null, "projects_count": 0, "devlogs_count": 0, "votes_count": 0, "ships_count": 0, "projects": [], "coding_time_seconds": 0, "coding_time_seconds_today": 0, "balance": "You need to have a pocket watcher badge to view this.", "badges": [], "created_at": "2025-06-18T20:18:30.407-04:00", "updated_at": "2025-07-03T19:50:49.557-04:00", "avatar": "https://avatars.slack-edge.com/2025-06-18/9070858781797_007490c2805d8e13cdc9_original.png", "custom_css": null}], "pagination": {"page": 457, "pages": 1192, "count": 23828, "items": 20}}