{"users": [{"id": 9141, "slack_id": "U09241Z923C", "display_name": "Juan", "bio": null, "projects_count": 0, "devlogs_count": 0, "votes_count": 0, "ships_count": 0, "projects": [], "coding_time_seconds": 0, "coding_time_seconds_today": 0, "balance": "You need to have a pocket watcher badge to view this.", "badges": [], "created_at": "2025-06-18T20:19:59.478-04:00", "updated_at": "2025-07-03T19:50:49.826-04:00", "avatar": "https://secure.gravatar.com/avatar/d9daf14de306869012eb3b205b3a942d.jpg?s=512&d=https%3A%2F%2Fa.slack-edge.com%2Fdf10d%2Fimg%2Favatars%2Fava_0017-512.png", "custom_css": null}, {"id": 9142, "slack_id": "U091P6QN015", "display_name": "Abdo Mezo", "bio": null, "projects_count": 0, "devlogs_count": 0, "votes_count": 0, "ships_count": 0, "projects": [], "coding_time_seconds": 0, "coding_time_seconds_today": 0, "balance": "You need to have a pocket watcher badge to view this.", "badges": [], "created_at": "2025-06-18T20:20:07.652-04:00", "updated_at": "2025-07-03T19:50:50.090-04:00", "avatar": "https://avatars.slack-edge.com/2025-06-18/9084895460801_af3a03600c205109ec41_original.webp", "custom_css": null}, {"id": 9143, "slack_id": "U092GRZGP1P", "display_name": "Madeleine Ulanday", "bio": null, "projects_count": 0, "devlogs_count": 0, "votes_count": 0, "ships_count": 0, "projects": [], "coding_time_seconds": 0, "coding_time_seconds_today": 0, "balance": "You need to have a pocket watcher badge to view this.", "badges": [], "created_at": "2025-06-18T20:20:21.248-04:00", "updated_at": "2025-07-04T02:28:42.770-04:00", "avatar": "https://avatars.slack-edge.com/2025-06-18/9065787401795_4f575101281ab0ca97ef_original.png", "custom_css": null}, {"id": 9144, "slack_id": "U091JR513L6", "display_name": "SiHoo Hwang", "bio": null, "projects_count": 0, "devlogs_count": 0, "votes_count": 0, "ships_count": 0, "projects": [], "coding_time_seconds": 0, "coding_time_seconds_today": 0, "balance": "You need to have a pocket watcher badge to view this.", "badges": [], "created_at": "2025-06-18T20:21:17.974-04:00", "updated_at": "2025-07-06T02:11:24.267-04:00", "avatar": "https://secure.gravatar.com/avatar/759a1ca393ab53541b3907cafff85da8.jpg?s=512&d=https%3A%2F%2Fa.slack-edge.com%2Fdf10d%2Fimg%2Favatars%2Fava_0021-512.png", "custom_css": null}, {"id": 9145, "slack_id": "U091XS7U85U", "display_name": "Gabriel Alejandro Garc\u00eda Angulo", "bio": null, "projects_count": 2, "devlogs_count": 4, "votes_count": 1, "ships_count": 0, "projects": [{"id": 2351, "title": "A love page", "devlogs_count": 3, "created_at": "2025-06-20T19:10:32.170-04:00"}, {"id": 3829, "title": "Integral Calculator", "devlogs_count": 1, "created_at": "2025-06-25T22:54:03.654-04:00"}], "coding_time_seconds": 97192, "coding_time_seconds_today": 0, "balance": "You need to have a pocket watcher badge to view this.", "badges": [], "created_at": "2025-06-18T20:22:04.438-04:00", "updated_at": "2025-08-14T13:01:24.077-04:00", "avatar": "https://secure.gravatar.com/avatar/fa355a157883af534c322e9d3f3adb98.jpg?s=512&d=https%3A%2F%2Fa.slack-edge.com%2Fdf10d%2Fimg%2Favatars%2Fava_0024-512.png", "custom_css": null}, {"id": 9146, "slack_id": "U0922R5MEAZ", "display_name": "Storm", "bio": null, "projects_count": 0, "devlogs_count": 0, "votes_count": 0, "ships_count": 0, "projects": [], "coding_time_seconds": 0, "coding_time_seconds_today": 0, "balance": "You need to have a pocket watcher badge to view this.", "badges": [], "created_at": "2025-06-18T20:22:36.052-04:00", "updated_at": "2025-07-04T20:09:45.611-04:00", "avatar": "https://secure.gravatar.com/avatar/13d148281a09a5b0bdb3e1594731f127.jpg?s=512&d=https%3A%2F%2Fa.slack-edge.com%2Fdf10d%2Fimg%2Favatars%2Fava_0021-512.png", "custom_css": null}, {"id": 9147, "slack_id": "U0924EZ7TFW", "display_name": "Gitmaster", "bio": null, "projects_count": 0, "devlogs_count": 0, "votes_count": 0, "ships_count": 0, "projects": [], "coding_time_seconds": 0, "coding_time_seconds_today": 0, "balance": "You need to have a pocket watcher badge to view this.", "badges": [], "created_at": "2025-06-18T20:22:41.806-04:00", "updated_at": "2025-08-03T03:39:42.959-04:00", "avatar": "https://secure.gravatar.com/avatar/2d925a4b52c4144a84bb702682648df9.jpg?s=512&d=https%3A%2F%2Fa.slack-edge.com%2Fdf10d%2Fimg%2Favatars%2Fava_0022-512.png", "custom_css": null}, {"id": 9148, "slack_id": "U092SKL9Q8G", "display_name": "Xin", "bio": null, "projects_count": 0, "devlogs_count": 0, "votes_count": 0, "ships_count": 0, "projects": [], "coding_time_seconds": 0, "coding_time_seconds_today": 0, "balance": "You need to have a pocket watcher badge to view this.", "badges": [], "created_at": "2025-06-18T20:22:47.259-04:00", "updated_at": "2025-07-03T19:50:51.152-04:00", "avatar": "https://secure.gravatar.com/avatar/2199965ab589411b7cb050515dd2aa6d.jpg?s=512&d=https%3A%2F%2Fa.slack-edge.com%2Fdf10d%2Fimg%2Favatars%2Fava_0024-512.png", "custom_css": null}, {"id": 9149, "slack_id": "U0922RYU1CM", "display_name": "amanraz2802", "bio": null, "projects_count": 0, "devlogs_count": 0, "votes_count": 0, "ships_count": 0, "projects": [], "coding_time_seconds": 0, "coding_time_seconds_today": 0, "balance": "You need to have a pocket watcher badge to view this.", "badges": [], "created_at": "2025-06-18T20:30:56.206-04:00", "updated_at": "2025-07-03T19:50:51.418-04:00", "avatar": "https://secure.gravatar.com/avatar/728557c304161fb754274b94f1400778.jpg?s=512&d=https%3A%2F%2Fa.slack-edge.com%2Fdf10d%2Fimg%2Favatars%2Fava_0005-512.png", "custom_css": null}, {"id": 9150, "slack_id": "U0922S1UP0V", "display_name": "Lachlan", "bio": null, "projects_count": 1, "devlogs_count": 2, "votes_count": 0, "ships_count": 0, "projects": [{"id": 3614, "title": "Mafia Online", "devlogs_count": 2, "created_at": "2025-06-25T00:33:19.938-04:00"}], "coding_time_seconds": 18803, "coding_time_seconds_today": 0, "balance": "You need to have a pocket watcher badge to view this.", "badges": [], "created_at": "2025-06-18T20:32:40.862-04:00", "updated_at": "2025-07-05T14:11:30.927-04:00", "avatar": "https://secure.gravatar.com/avatar/8994ccae29b2f2e42283f80c779521a3.jpg?s=512&d=https%3A%2F%2Fa.slack-edge.com%2Fdf10d%2Fimg%2Favatars%2Fava_0005-512.png", "custom_css": null}, {"id": 9151, "slack_id": "U09243936Q2", "display_name": "Vincent", "bio": null, "projects_count": 1, "devlogs_count": 0, "votes_count": 0, "ships_count": 0, "projects": [{"id": 1626, "title": "4 Axis Robotic Arm", "devlogs_count": 0, "created_at": "2025-06-18T22:00:47.417-04:00"}], "coding_time_seconds": 0, "coding_time_seconds_today": 0, "balance": "You need to have a pocket watcher badge to view this.", "badges": [], "created_at": "2025-06-18T20:33:41.806-04:00", "updated_at": "2025-07-03T19:50:51.817-04:00", "avatar": "https://secure.gravatar.com/avatar/894a7cc68fc2c254c6b083060002ab16.jpg?s=512&d=https%3A%2F%2Fa.slack-edge.com%2Fdf10d%2Fimg%2Favatars%2Fava_0008-512.png", "custom_css": null}, {"id": 9152, "slack_id": "U083V1RGM2N", "display_name": "mageowl", "bio": null, "projects_count": 0, "devlogs_count": 0, "votes_count": 0, "ships_count": 0, "projects": [], "coding_time_seconds": 0, "coding_time_seconds_today": 0, "balance": "You need to have a pocket watcher badge to view this.", "badges": [], "created_at": "2025-06-18T20:36:45.748-04:00", "updated_at": "2025-07-03T19:50:52.541-04:00", "avatar": "https://avatars.slack-edge.com/2024-12-07/8140000780899_d0d1911b81d071f1e542_original.png", "custom_css": null}, {"id": 9153, "slack_id": "U092GTK276D", "display_name": "Aiden Lyons", "bio": null, "projects_count": 0, "devlogs_count": 0, "votes_count": 0, "ships_count": 0, "projects": [], "coding_time_seconds": 67919, "coding_time_seconds_today": 0, "balance": "You need to have a pocket watcher badge to view this.", "badges": [], "created_at": "2025-06-18T20:37:52.097-04:00", "updated_at": "2025-07-03T19:50:52.813-04:00", "avatar": "https://avatars.slack-edge.com/2025-06-22/9099607582369_764baa1f01431ca92f80_original.jpg", "custom_css": null}, {"id": 9154, "slack_id": "U091ME5M1TR", "display_name": "Josh C", "bio": null, "projects_count": 0, "devlogs_count": 0, "votes_count": 0, "ships_count": 0, "projects": [], "coding_time_seconds": 0, "coding_time_seconds_today": 0, "balance": "You need to have a pocket watcher badge to view this.", "badges": [], "created_at": "2025-06-18T20:39:25.580-04:00", "updated_at": "2025-07-03T19:50:53.082-04:00", "avatar": "https://secure.gravatar.com/avatar/e04df36a579be4a77ff65ed30f1fbdb8.jpg?s=512&d=https%3A%2F%2Fa.slack-edge.com%2Fdf10d%2Fimg%2Favatars%2Fava_0011-512.png", "custom_css": null}, {"id": 9155, "slack_id": "U0917GL29EY", "display_name": "SAISUMEDHAR ANNABATHINI", "bio": null, "projects_count": 0, "devlogs_count": 0, "votes_count": 0, "ships_count": 0, "projects": [], "coding_time_seconds": 0, "coding_time_seconds_today": 0, "balance": "You need to have a pocket watcher badge to view this.", "badges": [], "created_at": "2025-06-18T20:39:55.723-04:00", "updated_at": "2025-07-04T08:25:00.000-04:00", "avatar": "https://avatars.slack-edge.com/2025-06-12/9034210174579_4ebe7f703451d9760aea_original.png", "custom_css": null}, {"id": 9156, "slack_id": "U091XMMMW30", "display_name": "Oliver Prowse", "bio": null, "projects_count": 0, "devlogs_count": 0, "votes_count": 0, "ships_count": 0, "projects": [], "coding_time_seconds": 10260, "coding_time_seconds_today": 0, "balance": "You need to have a pocket watcher badge to view this.", "badges": [], "created_at": "2025-06-18T20:40:18.336-04:00", "updated_at": "2025-07-04T20:09:46.220-04:00", "avatar": "https://secure.gravatar.com/avatar/175f326e2cec73ec190ba63f7c9ef352.jpg?s=512&d=https%3A%2F%2Fa.slack-edge.com%2Fdf10d%2Fimg%2Favatars%2Fava_0009-512.png", "custom_css": null}, {"id": 9157, "slack_id": "U07TZGB5BGX", "display_name": "Harsha", "bio": null, "projects_count": 0, "devlogs_count": 0, "votes_count": 0, "ships_count": 0, "projects": [], "coding_time_seconds": 82800, "coding_time_seconds_today": 1948, "balance": "You need to have a pocket watcher badge to view this.", "badges": [], "created_at": "2025-06-18T20:40:51.719-04:00", "updated_at": "2025-07-03T19:50:53.700-04:00", "avatar": "https://secure.gravatar.com/avatar/3c8641d5e1239a6e27fb165bfa0268a5.jpg?s=512&d=https%3A%2F%2Fa.slack-edge.com%2Fdf10d%2Fimg%2Favatars%2Fava_0000-512.png", "custom_css": null}, {"id": 9158, "slack_id": "U0924H03VEG", "display_name": "zzzz", "bio": null, "projects_count": 0, "devlogs_count": 0, "votes_count": 0, "ships_count": 0, "projects": [], "coding_time_seconds": 0, "coding_time_seconds_today": 0, "balance": "You need to have a pocket watcher badge to view this.", "badges": [], "created_at": "2025-06-18T20:44:30.612-04:00", "updated_at": "2025-07-03T19:50:53.971-04:00", "avatar": "https://secure.gravatar.com/avatar/aed54524979b1e676826dff0d2598bb7.jpg?s=512&d=https%3A%2F%2Fa.slack-edge.com%2Fdf10d%2Fimg%2Favatars%2Fava_0002-512.png", "custom_css": null}, {"id": 9159, "slack_id": "U08PUBJ9E0L", "display_name": "Vinay Katta", "bio": null, "projects_count": 0, "devlogs_count": 0, "votes_count": 0, "ships_count": 0, "projects": [], "coding_time_seconds": 0, "coding_time_seconds_today": 0, "balance": "You need to have a pocket watcher badge to view this.", "badges": [], "created_at": "2025-06-18T20:46:58.877-04:00", "updated_at": "2025-07-12T02:46:56.188-04:00", "avatar": "https://avatars.slack-edge.com/2025-07-11/9185854251349_4b5b9834d773114c5f3d_original.png", "custom_css": null}, {"id": 9160, "slack_id": "U092SMGHA80", "display_name": "Aster", "bio": null, "projects_count": 4, "devlogs_count": 4, "votes_count": 0, "ships_count": 0, "projects": [{"id": 3014, "title": "RiceShucker", "devlogs_count": 0, "created_at": "2025-06-22T19:20:42.876-04:00"}, {"id": 3016, "title": "Portfolio Site", "devlogs_count": 1, "created_at": "2025-06-22T19:35:41.402-04:00"}, {"id": 3032, "title": "Discord Bot", "devlogs_count": 0, "created_at": "2025-06-22T21:10:14.288-04:00"}, {"id": 3047, "title": "Interlinker", "devlogs_count": 3, "created_at": "2025-06-22T22:50:00.917-04:00"}], "coding_time_seconds": 55419, "coding_time_seconds_today": 0, "balance": "You need to have a pocket watcher badge to view this.", "badges": [], "created_at": "2025-06-18T20:47:05.036-04:00", "updated_at": "2025-07-03T19:50:54.494-04:00", "avatar": "https://avatars.slack-edge.com/2025-06-22/9085337517557_5dbfc3e260a4fbc8e209_original.png", "custom_css": null}], "pagination": {"page": 458, "pages": 1192, "count": 23828, "items": 20}}