{"users": [{"id": 9161, "slack_id": "U091PAECSUX", "display_name": "Sam S", "bio": null, "projects_count": 0, "devlogs_count": 0, "votes_count": 0, "ships_count": 0, "projects": [], "coding_time_seconds": 0, "coding_time_seconds_today": 0, "balance": "You need to have a pocket watcher badge to view this.", "badges": [], "created_at": "2025-06-18T20:47:06.764-04:00", "updated_at": "2025-07-03T19:50:54.766-04:00", "avatar": "https://secure.gravatar.com/avatar/acab43f69d98fd8649e4196df7d572ec.jpg?s=512&d=https%3A%2F%2Fa.slack-edge.com%2Fdf10d%2Fimg%2Favatars%2Fava_0013-512.png", "custom_css": null}, {"id": 9162, "slack_id": "U092SMV629E", "display_name": "Harsha Poonepalle", "bio": null, "projects_count": 1, "devlogs_count": 0, "votes_count": 0, "ships_count": 0, "projects": [{"id": 1604, "title": "F1 Analytics Dashboard", "devlogs_count": 0, "created_at": "2025-06-18T21:06:54.865-04:00"}], "coding_time_seconds": 4730, "coding_time_seconds_today": 0, "balance": "You need to have a pocket watcher badge to view this.", "badges": [], "created_at": "2025-06-18T20:48:54.545-04:00", "updated_at": "2025-07-03T19:50:55.037-04:00", "avatar": "https://secure.gravatar.com/avatar/38292c1cd8fee76eeaf7eaadae8c0a5f.jpg?s=512&d=https%3A%2F%2Fa.slack-edge.com%2Fdf10d%2Fimg%2Favatars%2Fava_0013-512.png", "custom_css": null}, {"id": 9163, "slack_id": "U091N94UX7Z", "display_name": "Toope Oladunjoye", "bio": "", "projects_count": 8, "devlogs_count": 9, "votes_count": 44, "ships_count": 8, "projects": [{"id": 11711, "title": "Rizz Machine", "devlogs_count": 1, "created_at": "2025-08-18T16:27:01.098-04:00"}, {"id": 12088, "title": "Word Bridger", "devlogs_count": 1, "created_at": "2025-08-22T23:12:31.646-04:00"}, {"id": 12089, "title": "Calorie Watcher", "devlogs_count": 1, "created_at": "2025-08-22T23:51:27.624-04:00"}, {"id": 12090, "title": "MiniMidi", "devlogs_count": 1, "created_at": "2025-08-23T00:02:29.517-04:00"}, {"id": 12861, "title": "Vent ", "devlogs_count": 1, "created_at": "2025-09-03T20:53:29.577-04:00"}, {"id": 11681, "title": "Tamagotchi Desktop", "devlogs_count": 1, "created_at": "2025-08-18T11:45:46.360-04:00"}, {"id": 11680, "title": "Storify", "devlogs_count": 2, "created_at": "2025-08-18T11:30:11.030-04:00"}, {"id": 11693, "title": "Bop it Remastered", "devlogs_count": 1, "created_at": "2025-08-18T13:23:08.110-04:00"}], "coding_time_seconds": 151788, "coding_time_seconds_today": 0, "balance": "You need to have a pocket watcher badge to view this.", "badges": [{"name": "Maiden Voyage", "text": "you shipped your first project! the journey begins...", "icon": "\ud83d\udea2"}, {"name": "Ballot Stuffer", "text": "vote 100 times.", "icon": "https://summer.hackclub.com/assets/i_voted-bf851b48.png"}], "created_at": "2025-06-18T20:49:24.070-04:00", "updated_at": "2025-09-10T22:55:41.387-04:00", "avatar": "https://avatars.slack-edge.com/2025-06-18/9072605170116_4e6e459e85c71d84cbf5_original.jpg", "custom_css": null}, {"id": 9164, "slack_id": "U0922TUJWN9", "display_name": "Aarav Gaur", "bio": null, "projects_count": 0, "devlogs_count": 0, "votes_count": 0, "ships_count": 0, "projects": [], "coding_time_seconds": 0, "coding_time_seconds_today": 0, "balance": "You need to have a pocket watcher badge to view this.", "badges": [], "created_at": "2025-06-18T20:51:12.260-04:00", "updated_at": "2025-07-03T19:50:55.570-04:00", "avatar": "https://avatars.slack-edge.com/2025-06-18/9094760281536_cdd8bcad38256bba7854_original.jpg", "custom_css": null}, {"id": 9165, "slack_id": "U092GV4FJAD", "display_name": "Ry", "bio": null, "projects_count": 0, "devlogs_count": 0, "votes_count": 0, "ships_count": 0, "projects": [], "coding_time_seconds": 0, "coding_time_seconds_today": 0, "balance": "You need to have a pocket watcher badge to view this.", "badges": [], "created_at": "2025-06-18T20:55:24.693-04:00", "updated_at": "2025-07-03T19:50:55.829-04:00", "avatar": "https://secure.gravatar.com/avatar/92cc47638c06fa16b27b2b2f550fe8fb.jpg?s=512&d=https%3A%2F%2Fa.slack-edge.com%2Fdf10d%2Fimg%2Favatars%2Fava_0017-512.png", "custom_css": null}, {"id": 9166, "slack_id": "U0924HQPHK6", "display_name": "Omar Lashin", "bio": null, "projects_count": 0, "devlogs_count": 0, "votes_count": 0, "ships_count": 0, "projects": [], "coding_time_seconds": 79727, "coding_time_seconds_today": 0, "balance": "You need to have a pocket watcher badge to view this.", "badges": [], "created_at": "2025-06-18T20:56:04.375-04:00", "updated_at": "2025-07-03T19:50:56.088-04:00", "avatar": "https://secure.gravatar.com/avatar/9824103bd881664174c0f0d1518b0c99.jpg?s=512&d=https%3A%2F%2Fa.slack-edge.com%2Fdf10d%2Fimg%2Favatars%2Fava_0020-512.png", "custom_css": null}, {"id": 9167, "slack_id": "U08NT84R3EH", "display_name": "Noah H", "bio": null, "projects_count": 0, "devlogs_count": 0, "votes_count": 0, "ships_count": 0, "projects": [], "coding_time_seconds": 0, "coding_time_seconds_today": 0, "balance": "You need to have a pocket watcher badge to view this.", "badges": [], "created_at": "2025-06-18T20:57:33.515-04:00", "updated_at": "2025-07-03T19:50:56.358-04:00", "avatar": "https://secure.gravatar.com/avatar/61d3536e3fb3027b89f7b8760167c637.jpg?s=512&d=https%3A%2F%2Fa.slack-edge.com%2Fdf10d%2Fimg%2Favatars%2Fava_0023-512.png", "custom_css": null}, {"id": 9168, "slack_id": "U092H0G0RPB", "display_name": "Ari Sachdev", "bio": null, "projects_count": 0, "devlogs_count": 0, "votes_count": 0, "ships_count": 0, "projects": [], "coding_time_seconds": 0, "coding_time_seconds_today": 0, "balance": "You need to have a pocket watcher badge to view this.", "badges": [], "created_at": "2025-06-18T21:01:16.130-04:00", "updated_at": "2025-07-03T19:50:56.645-04:00", "avatar": "https://avatars.slack-edge.com/2025-06-18/9070992795381_aa5257a75712179936e0_original.png", "custom_css": null}, {"id": 9169, "slack_id": "U091XS329TM", "display_name": "emma", "bio": null, "projects_count": 0, "devlogs_count": 0, "votes_count": 0, "ships_count": 0, "projects": [], "coding_time_seconds": 0, "coding_time_seconds_today": 0, "balance": "You need to have a pocket watcher badge to view this.", "badges": [], "created_at": "2025-06-18T21:05:33.606-04:00", "updated_at": "2025-07-03T19:50:56.915-04:00", "avatar": "https://avatars.slack-edge.com/2025-06-20/9071350595939_11ff4aa31516f6d926ea_original.jpg", "custom_css": null}, {"id": 9170, "slack_id": "U091XTH0AR1", "display_name": "Test1", "bio": null, "projects_count": 0, "devlogs_count": 0, "votes_count": 0, "ships_count": 0, "projects": [], "coding_time_seconds": 1447, "coding_time_seconds_today": 0, "balance": "You need to have a pocket watcher badge to view this.", "badges": [], "created_at": "2025-06-18T21:12:54.946-04:00", "updated_at": "2025-07-03T21:59:25.388-04:00", "avatar": "https://secure.gravatar.com/avatar/4f72316a8d3e3dc4de89eae5efd5c58a.jpg?s=512&d=https%3A%2F%2Fa.slack-edge.com%2Fdf10d%2Fimg%2Favatars%2Fava_0024-512.png", "custom_css": null}, {"id": 9171, "slack_id": "U091XTPRUV9", "display_name": "Mister Trig", "bio": null, "projects_count": 0, "devlogs_count": 0, "votes_count": 0, "ships_count": 0, "projects": [], "coding_time_seconds": 0, "coding_time_seconds_today": 0, "balance": "You need to have a pocket watcher badge to view this.", "badges": [], "created_at": "2025-06-18T21:13:48.994-04:00", "updated_at": "2025-07-04T08:25:01.972-04:00", "avatar": "https://secure.gravatar.com/avatar/5c838a10128dbc08b6726e654250792e.jpg?s=512&d=https%3A%2F%2Fa.slack-edge.com%2Fdf10d%2Fimg%2Favatars%2Fava_0010-512.png", "custom_css": null}, {"id": 9172, "slack_id": "U092SQ4GKB2", "display_name": "Hadi", "bio": null, "projects_count": 0, "devlogs_count": 0, "votes_count": 0, "ships_count": 0, "projects": [], "coding_time_seconds": 0, "coding_time_seconds_today": 0, "balance": "You need to have a pocket watcher badge to view this.", "badges": [], "created_at": "2025-06-18T21:14:10.084-04:00", "updated_at": "2025-07-03T19:50:57.446-04:00", "avatar": "https://secure.gravatar.com/avatar/e5ec3051655940e42b113b60960b341e.jpg?s=512&d=https%3A%2F%2Fa.slack-edge.com%2Fdf10d%2Fimg%2Favatars%2Fava_0021-512.png", "custom_css": null}, {"id": 9173, "slack_id": "U04JRBGPH5G", "display_name": "Ruien", "bio": null, "projects_count": 0, "devlogs_count": 0, "votes_count": 0, "ships_count": 0, "projects": [], "coding_time_seconds": 0, "coding_time_seconds_today": 0, "balance": "You need to have a pocket watcher badge to view this.", "badges": [{"name": "<%= admin_tool do %>", "text": "with great power comes great responsibility... and a ban hammer.", "icon": "\ud83d\udd28"}], "created_at": "2025-06-18T21:16:34.078-04:00", "updated_at": "2025-09-10T22:55:41.617-04:00", "avatar": "https://avatars.slack-edge.com/2024-09-03/7673686961540_06467d37835ffcec9c6a_original.png", "custom_css": null}, {"id": 9174, "slack_id": "U091XU5GL67", "display_name": "Manuel Lamsen", "bio": null, "projects_count": 2, "devlogs_count": 1, "votes_count": 0, "ships_count": 0, "projects": [{"id": 2018, "title": "meowlang", "devlogs_count": 0, "created_at": "2025-06-19T22:28:16.861-04:00"}, {"id": 3262, "title": "discord-bot", "devlogs_count": 1, "created_at": "2025-06-23T15:58:58.970-04:00"}], "coding_time_seconds": 3997, "coding_time_seconds_today": 0, "balance": "You need to have a pocket watcher badge to view this.", "badges": [], "created_at": "2025-06-18T21:17:59.968-04:00", "updated_at": "2025-07-03T19:50:57.860-04:00", "avatar": "https://avatars.slack-edge.com/2025-06-23/9092526760084_0541df7e3d5336169bea_original.jpg", "custom_css": null}, {"id": 9175, "slack_id": "U092H1TQ34Z", "display_name": "Saurav", "bio": null, "projects_count": 0, "devlogs_count": 0, "votes_count": 0, "ships_count": 0, "projects": [], "coding_time_seconds": 0, "coding_time_seconds_today": 0, "balance": "You need to have a pocket watcher badge to view this.", "badges": [], "created_at": "2025-06-18T21:18:01.621-04:00", "updated_at": "2025-07-03T19:50:58.124-04:00", "avatar": "https://secure.gravatar.com/avatar/12ad1bf0873a8f1ea0d60c22c863bf1c.jpg?s=512&d=https%3A%2F%2Fa.slack-edge.com%2Fdf10d%2Fimg%2Favatars%2Fava_0016-512.png", "custom_css": null}, {"id": 9176, "slack_id": "U0923122S77", "display_name": "will", "bio": null, "projects_count": 0, "devlogs_count": 0, "votes_count": 0, "ships_count": 0, "projects": [], "coding_time_seconds": 0, "coding_time_seconds_today": 0, "balance": "You need to have a pocket watcher badge to view this.", "badges": [], "created_at": "2025-06-18T21:18:41.443-04:00", "updated_at": "2025-07-03T19:50:58.387-04:00", "avatar": "https://secure.gravatar.com/avatar/3f066744bfbbacf272c4cf884cc68f16.jpg?s=512&d=https%3A%2F%2Fa.slack-edge.com%2Fdf10d%2Fimg%2Favatars%2Fava_0015-512.png", "custom_css": null}, {"id": 9177, "slack_id": "U09247J2QTC", "display_name": "Ch\u00ednh C\u00f4ng", "bio": null, "projects_count": 0, "devlogs_count": 0, "votes_count": 0, "ships_count": 0, "projects": [], "coding_time_seconds": 391648, "coding_time_seconds_today": 0, "balance": "You need to have a pocket watcher badge to view this.", "badges": [], "created_at": "2025-06-18T21:21:17.182-04:00", "updated_at": "2025-07-03T19:50:58.667-04:00", "avatar": "https://avatars.slack-edge.com/2025-06-18/9094856171952_46d1c8166b257ca4ea8e_original.jpg", "custom_css": null}, {"id": 9178, "slack_id": "U091XU8NTFV", "display_name": "Bayar J", "bio": null, "projects_count": 0, "devlogs_count": 0, "votes_count": 0, "ships_count": 0, "projects": [], "coding_time_seconds": 0, "coding_time_seconds_today": 0, "balance": "You need to have a pocket watcher badge to view this.", "badges": [], "created_at": "2025-06-18T21:21:21.397-04:00", "updated_at": "2025-07-03T21:59:26.073-04:00", "avatar": "https://secure.gravatar.com/avatar/10eaa65d4222f6bf5a6e724952ef22f2.jpg?s=512&d=https%3A%2F%2Fa.slack-edge.com%2Fdf10d%2Fimg%2Favatars%2Fava_0018-512.png", "custom_css": null}, {"id": 9179, "slack_id": "U080Z1MHC56", "display_name": "itisacrouton", "bio": null, "projects_count": 1, "devlogs_count": 1, "votes_count": 0, "ships_count": 0, "projects": [{"id": 1612, "title": "Strata", "devlogs_count": 1, "created_at": "2025-06-18T21:26:14.482-04:00"}], "coding_time_seconds": 125754, "coding_time_seconds_today": 0, "balance": "You need to have a pocket watcher badge to view this.", "badges": [], "created_at": "2025-06-18T21:21:36.719-04:00", "updated_at": "2025-07-04T20:09:47.969-04:00", "avatar": "https://avatars.slack-edge.com/2024-11-14/8025174719973_eb9a2c8c8009d2cf8874_original.png", "custom_css": null}, {"id": 9180, "slack_id": "U0923MW5RCL", "display_name": "Emiliano", "bio": null, "projects_count": 0, "devlogs_count": 0, "votes_count": 0, "ships_count": 0, "projects": [], "coding_time_seconds": 0, "coding_time_seconds_today": 0, "balance": "You need to have a pocket watcher badge to view this.", "badges": [], "created_at": "2025-06-18T21:21:52.621-04:00", "updated_at": "2025-07-07T02:11:22.349-04:00", "avatar": "https://secure.gravatar.com/avatar/afd7c83652ee4819ffd3e012a255e8f5.jpg?s=512&d=https%3A%2F%2Fa.slack-edge.com%2Fdf10d%2Fimg%2Favatars%2Fava_0002-512.png", "custom_css": null}], "pagination": {"page": 459, "pages": 1192, "count": 23828, "items": 20}}