{"users": [{"id": 901, "slack_id": "U091P7ZKMB4", "display_name": "soumaya", "bio": null, "projects_count": 0, "devlogs_count": 0, "votes_count": 0, "ships_count": 0, "projects": [], "coding_time_seconds": 0, "coding_time_seconds_today": 0, "balance": "You need to have a pocket watcher badge to view this.", "badges": [], "created_at": "2025-06-16T12:22:27.333-04:00", "updated_at": "2025-07-03T19:15:07.953-04:00", "avatar": "https://secure.gravatar.com/avatar/7112253935d56a9c1af48ea6a47d18db.jpg?s=512&d=https%3A%2F%2Fa.slack-edge.com%2Fdf10d%2Fimg%2Favatars%2Fava_0019-512.png", "custom_css": null}, {"id": 902, "slack_id": "U091M8KMADB", "display_name": "ben d\u011bdi\u010d", "bio": null, "projects_count": 0, "devlogs_count": 0, "votes_count": 0, "ships_count": 0, "projects": [], "coding_time_seconds": 65280, "coding_time_seconds_today": 0, "balance": "You need to have a pocket watcher badge to view this.", "badges": [], "created_at": "2025-06-16T12:22:37.762-04:00", "updated_at": "2025-07-03T19:15:08.231-04:00", "avatar": "https://avatars.slack-edge.com/2025-06-16/9055519113781_cbf9dbe516e66ba1d769_original.jpg", "custom_css": null}, {"id": 903, "slack_id": "U091P847W6N", "display_name": "JUANDIEGOU", "bio": null, "projects_count": 0, "devlogs_count": 0, "votes_count": 0, "ships_count": 0, "projects": [], "coding_time_seconds": 0, "coding_time_seconds_today": 0, "balance": "You need to have a pocket watcher badge to view this.", "badges": [], "created_at": "2025-06-16T12:22:39.665-04:00", "updated_at": "2025-07-03T19:15:08.508-04:00", "avatar": "https://secure.gravatar.com/avatar/b62402ce14cdf8690bdff9444fa20720.jpg?s=512&d=https%3A%2F%2Fa.slack-edge.com%2Fdf10d%2Fimg%2Favatars%2Fava_0008-512.png", "custom_css": null}, {"id": 904, "slack_id": "U091MCNLL13", "display_name": "safi_ullah_031", "bio": null, "projects_count": 0, "devlogs_count": 0, "votes_count": 0, "ships_count": 0, "projects": [], "coding_time_seconds": 17909, "coding_time_seconds_today": 0, "balance": "You need to have a pocket watcher badge to view this.", "badges": [], "created_at": "2025-06-16T12:22:40.673-04:00", "updated_at": "2025-07-03T19:15:08.781-04:00", "avatar": "https://secure.gravatar.com/avatar/154b7ba8bffe8a4e755babab0fce9301.jpg?s=512&d=https%3A%2F%2Fa.slack-edge.com%2Fdf10d%2Fimg%2Favatars%2Fava_0008-512.png", "custom_css": null}, {"id": 905, "slack_id": "U0917S6LRU7", "display_name": "Harry Seaton", "bio": null, "projects_count": 0, "devlogs_count": 0, "votes_count": 0, "ships_count": 0, "projects": [], "coding_time_seconds": 0, "coding_time_seconds_today": 0, "balance": "You need to have a pocket watcher badge to view this.", "badges": [], "created_at": "2025-06-16T12:22:41.164-04:00", "updated_at": "2025-07-03T19:15:09.052-04:00", "avatar": "https://avatars.slack-edge.com/2025-06-16/9079777299936_ef54a34232987fdc2e8a_original.jpg", "custom_css": null}, {"id": 906, "slack_id": "U091GC49PPY", "display_name": "Himan", "bio": null, "projects_count": 0, "devlogs_count": 0, "votes_count": 0, "ships_count": 0, "projects": [], "coding_time_seconds": 0, "coding_time_seconds_today": 0, "balance": "You need to have a pocket watcher badge to view this.", "badges": [], "created_at": "2025-06-16T12:22:46.170-04:00", "updated_at": "2025-07-03T19:15:09.338-04:00", "avatar": "https://secure.gravatar.com/avatar/61e592d2031c434b902b2f77993012e6.jpg?s=512&d=https%3A%2F%2Fa.slack-edge.com%2Fdf10d%2Fimg%2Favatars%2Fava_0009-512.png", "custom_css": null}, {"id": 907, "slack_id": "U091G951WHZ", "display_name": "Narayan", "bio": null, "projects_count": 0, "devlogs_count": 0, "votes_count": 0, "ships_count": 0, "projects": [], "coding_time_seconds": 0, "coding_time_seconds_today": 0, "balance": "You need to have a pocket watcher badge to view this.", "badges": [], "created_at": "2025-06-16T12:22:59.958-04:00", "updated_at": "2025-07-03T19:15:09.652-04:00", "avatar": "https://secure.gravatar.com/avatar/6fda456751a8021ce3ccb06a76104e0e.jpg?s=512&d=https%3A%2F%2Fa.slack-edge.com%2Fdf10d%2Fimg%2Favatars%2Fava_0000-512.png", "custom_css": null}, {"id": 908, "slack_id": "U091PLAAC92", "display_name": "Dominique Popp", "bio": null, "projects_count": 0, "devlogs_count": 0, "votes_count": 0, "ships_count": 0, "projects": [], "coding_time_seconds": 0, "coding_time_seconds_today": 0, "balance": "You need to have a pocket watcher badge to view this.", "badges": [], "created_at": "2025-06-16T12:23:03.497-04:00", "updated_at": "2025-07-03T19:15:09.951-04:00", "avatar": "https://secure.gravatar.com/avatar/32f43950b0f9d26a9272a3618ffa8999.jpg?s=512&d=https%3A%2F%2Fa.slack-edge.com%2Fdf10d%2Fimg%2Favatars%2Fava_0012-512.png", "custom_css": null}, {"id": 909, "slack_id": "U092BN5BGN4", "display_name": "Krist\u00f3f Hauser", "bio": null, "projects_count": 0, "devlogs_count": 0, "votes_count": 0, "ships_count": 0, "projects": [], "coding_time_seconds": 0, "coding_time_seconds_today": 0, "balance": "You need to have a pocket watcher badge to view this.", "badges": [], "created_at": "2025-06-16T12:23:10.434-04:00", "updated_at": "2025-07-03T19:15:10.223-04:00", "avatar": "https://avatars.slack-edge.com/2025-06-16/9050326903363_ac033a1b503f3dfe296b_original.jpg", "custom_css": null}, {"id": 910, "slack_id": "U0921QXHXG9", "display_name": "Siddharth Soni", "bio": null, "projects_count": 0, "devlogs_count": 0, "votes_count": 0, "ships_count": 0, "projects": [], "coding_time_seconds": 166804, "coding_time_seconds_today": 0, "balance": "You need to have a pocket watcher badge to view this.", "badges": [], "created_at": "2025-06-16T12:23:18.162-04:00", "updated_at": "2025-07-03T19:15:10.503-04:00", "avatar": "https://secure.gravatar.com/avatar/e3fea572765ef73e946c3ae842f423d1.jpg?s=512&d=https%3A%2F%2Fa.slack-edge.com%2Fdf10d%2Fimg%2Favatars%2Fava_0001-512.png", "custom_css": null}, {"id": 911, "slack_id": "U091P8674JE", "display_name": "Kim Seohyeon", "bio": null, "projects_count": 2, "devlogs_count": 2, "votes_count": 5, "ships_count": 0, "projects": [{"id": 857, "title": "AutoBrowser", "devlogs_count": 1, "created_at": "2025-06-17T09:55:19.567-04:00"}, {"id": 6413, "title": "YTTEdit", "devlogs_count": 1, "created_at": "2025-07-13T05:14:06.157-04:00"}], "coding_time_seconds": 146766, "coding_time_seconds_today": 154, "balance": "You need to have a pocket watcher badge to view this.", "badges": [], "created_at": "2025-06-16T12:23:19.670-04:00", "updated_at": "2025-07-03T19:15:10.773-04:00", "avatar": "https://secure.gravatar.com/avatar/dd3dd2f51ffa3e9c5875d0a9dbd7a151.jpg?s=512&d=https%3A%2F%2Fa.slack-edge.com%2Fdf10d%2Fimg%2Favatars%2Fava_0004-512.png", "custom_css": null}, {"id": 912, "slack_id": "U091PLUTTHA", "display_name": "Dishant Gandhi", "bio": null, "projects_count": 0, "devlogs_count": 0, "votes_count": 0, "ships_count": 0, "projects": [], "coding_time_seconds": 123, "coding_time_seconds_today": 0, "balance": "You need to have a pocket watcher badge to view this.", "badges": [], "created_at": "2025-06-16T12:23:21.414-04:00", "updated_at": "2025-07-03T19:15:11.053-04:00", "avatar": "https://avatars.slack-edge.com/2025-06-16/9069863022897_57ad6cec14718cd9d53f_original.jpg", "custom_css": null}, {"id": 913, "slack_id": "U091G97SPSP", "display_name": "A", "bio": null, "projects_count": 0, "devlogs_count": 0, "votes_count": 0, "ships_count": 0, "projects": [], "coding_time_seconds": 0, "coding_time_seconds_today": 0, "balance": "You need to have a pocket watcher badge to view this.", "badges": [], "created_at": "2025-06-16T12:23:22.737-04:00", "updated_at": "2025-07-03T19:15:11.400-04:00", "avatar": "https://secure.gravatar.com/avatar/fd86e57008341c518b4e74104f17b5ec.jpg?s=512&d=https%3A%2F%2Fa.slack-edge.com%2Fdf10d%2Fimg%2Favatars%2Fava_0005-512.png", "custom_css": null}, {"id": 914, "slack_id": "U091P8FL04A", "display_name": "Giacomo", "bio": null, "projects_count": 0, "devlogs_count": 0, "votes_count": 0, "ships_count": 0, "projects": [], "coding_time_seconds": 0, "coding_time_seconds_today": 0, "balance": "You need to have a pocket watcher badge to view this.", "badges": [], "created_at": "2025-06-16T12:23:25.649-04:00", "updated_at": "2025-07-03T19:15:11.668-04:00", "avatar": "https://secure.gravatar.com/avatar/5b77d3da8b9166b7c5d3b28dba84547c.jpg?s=512&d=https%3A%2F%2Fa.slack-edge.com%2Fdf10d%2Fimg%2Favatars%2Fava_0016-512.png", "custom_css": null}, {"id": 915, "slack_id": "U0917UBP5NK", "display_name": "xcomp", "bio": null, "projects_count": 1, "devlogs_count": 18, "votes_count": 7, "ships_count": 0, "projects": [{"id": 11980, "title": "Ice2K/XP.sys", "devlogs_count": 18, "created_at": "2025-08-21T19:18:14.905-04:00"}], "coding_time_seconds": 216147, "coding_time_seconds_today": 3228, "balance": "You need to have a pocket watcher badge to view this.", "badges": [], "created_at": "2025-06-16T12:23:33.242-04:00", "updated_at": "2025-09-06T02:28:36.346-04:00", "avatar": "https://avatars.slack-edge.com/2025-08-22/9394770859605_51c84646a2498bdf4b70_original.png", "custom_css": null}, {"id": 916, "slack_id": "U091MEU74PP", "display_name": "Sanmay", "bio": null, "projects_count": 0, "devlogs_count": 0, "votes_count": 0, "ships_count": 0, "projects": [], "coding_time_seconds": 38211, "coding_time_seconds_today": 0, "balance": "You need to have a pocket watcher badge to view this.", "badges": [], "created_at": "2025-06-16T12:23:34.850-04:00", "updated_at": "2025-07-03T19:15:12.221-04:00", "avatar": "https://secure.gravatar.com/avatar/58487ea051144790891f090ee3c414c3.jpg?s=512&d=https%3A%2F%2Fa.slack-edge.com%2Fdf10d%2Fimg%2Favatars%2Fava_0021-512.png", "custom_css": null}, {"id": 917, "slack_id": "U091PLULXA8", "display_name": "Sparsh Sharma", "bio": null, "projects_count": 0, "devlogs_count": 0, "votes_count": 0, "ships_count": 0, "projects": [], "coding_time_seconds": 0, "coding_time_seconds_today": 0, "balance": "You need to have a pocket watcher badge to view this.", "badges": [], "created_at": "2025-06-16T12:23:37.899-04:00", "updated_at": "2025-07-03T19:15:12.486-04:00", "avatar": "https://secure.gravatar.com/avatar/4f8080aaf537888a190455a89f315d31.jpg?s=512&d=https%3A%2F%2Fa.slack-edge.com%2Fdf10d%2Fimg%2Favatars%2Fava_0006-512.png", "custom_css": null}, {"id": 918, "slack_id": "U0917UMLEDV", "display_name": "Rahul Harpal", "bio": null, "projects_count": 0, "devlogs_count": 0, "votes_count": 0, "ships_count": 0, "projects": [], "coding_time_seconds": 0, "coding_time_seconds_today": 0, "balance": "You need to have a pocket watcher badge to view this.", "badges": [], "created_at": "2025-06-16T12:23:40.732-04:00", "updated_at": "2025-07-03T19:15:12.752-04:00", "avatar": "https://secure.gravatar.com/avatar/af3d4ff5a889cb325d3c7f74131e6810.jpg?s=512&d=https%3A%2F%2Fa.slack-edge.com%2Fdf10d%2Fimg%2Favatars%2Fava_0004-512.png", "custom_css": null}, {"id": 919, "slack_id": "U0917UV19K9", "display_name": "Jules", "bio": null, "projects_count": 2, "devlogs_count": 2, "votes_count": 5, "ships_count": 0, "projects": [{"id": 2945, "title": "Moodly - Mobile application for childrens", "devlogs_count": 0, "created_at": "2025-06-22T14:26:57.265-04:00"}, {"id": 5624, "title": "ASL DETAILING", "devlogs_count": 2, "created_at": "2025-07-06T16:53:18.145-04:00"}], "coding_time_seconds": 108834, "coding_time_seconds_today": 1296, "balance": "You need to have a pocket watcher badge to view this.", "badges": [], "created_at": "2025-06-16T12:23:41.845-04:00", "updated_at": "2025-07-03T19:15:13.021-04:00", "avatar": "https://secure.gravatar.com/avatar/027239b038f9022fc93e54990507bc15.jpg?s=512&d=https%3A%2F%2Fa.slack-edge.com%2Fdf10d%2Fimg%2Favatars%2Fava_0023-512.png", "custom_css": null}, {"id": 920, "slack_id": "U091P86LR4J", "display_name": "Aayush", "bio": null, "projects_count": 0, "devlogs_count": 0, "votes_count": 0, "ships_count": 0, "projects": [], "coding_time_seconds": 0, "coding_time_seconds_today": 0, "balance": "You need to have a pocket watcher badge to view this.", "badges": [], "created_at": "2025-06-16T12:23:42.115-04:00", "updated_at": "2025-07-03T19:15:13.295-04:00", "avatar": "https://secure.gravatar.com/avatar/7ee9534afbc42984ee1083d3119a29bc.jpg?s=512&d=https%3A%2F%2Fa.slack-edge.com%2Fdf10d%2Fimg%2Favatars%2Fava_0022-512.png", "custom_css": null}], "pagination": {"page": 46, "pages": 1192, "count": 23827, "items": 20}}