{"users": [{"id": 9181, "slack_id": "U09247FGPR8", "display_name": "Joao Silva", "bio": null, "projects_count": 0, "devlogs_count": 0, "votes_count": 0, "ships_count": 0, "projects": [], "coding_time_seconds": 0, "coding_time_seconds_today": 0, "balance": "You need to have a pocket watcher badge to view this.", "badges": [], "created_at": "2025-06-18T21:22:33.469-04:00", "updated_at": "2025-07-03T21:59:26.375-04:00", "avatar": "https://avatars.slack-edge.com/2025-06-18/9065978466531_06c0372d8c0e7baa54fc_original.png", "custom_css": null}, {"id": 9182, "slack_id": "U091XUFKHUK", "display_name": "Rodrigo Rey", "bio": null, "projects_count": 0, "devlogs_count": 0, "votes_count": 0, "ships_count": 0, "projects": [], "coding_time_seconds": 0, "coding_time_seconds_today": 0, "balance": "You need to have a pocket watcher badge to view this.", "badges": [], "created_at": "2025-06-18T21:23:16.990-04:00", "updated_at": "2025-07-03T19:50:59.562-04:00", "avatar": "https://avatars.slack-edge.com/2025-06-18/9072270875826_5650922a048fd8b0cd2d_original.png", "custom_css": null}, {"id": 9183, "slack_id": "U07S252DWJD", "display_name": "Terence Zhang", "bio": null, "projects_count": 0, "devlogs_count": 0, "votes_count": 0, "ships_count": 0, "projects": [], "coding_time_seconds": 0, "coding_time_seconds_today": 0, "balance": "You need to have a pocket watcher badge to view this.", "badges": [], "created_at": "2025-06-18T21:25:50.108-04:00", "updated_at": "2025-07-03T21:47:24.828-04:00", "avatar": "https://avatars.slack-edge.com/2024-10-13/7866869972998_50f9148a419b94d462bf_original.png", "custom_css": null}, {"id": 9184, "slack_id": "U092H2HRMTK", "display_name": "krishna R", "bio": null, "projects_count": 7, "devlogs_count": 18, "votes_count": 52, "ships_count": 3, "projects": [{"id": 2563, "title": " SIGN LANG INTREPRETOR ", "devlogs_count": 5, "created_at": "2025-06-21T10:45:06.535-04:00"}, {"id": 4714, "title": "HealTrack", "devlogs_count": 7, "created_at": "2025-07-01T07:41:39.919-04:00"}, {"id": 11114, "title": "Persanoflux", "devlogs_count": 1, "created_at": "2025-08-13T09:22:26.078-04:00"}, {"id": 12907, "title": "Dereverb", "devlogs_count": 0, "created_at": "2025-09-05T03:07:54.043-04:00"}, {"id": 12015, "title": "Portfolio", "devlogs_count": 0, "created_at": "2025-08-22T07:06:08.792-04:00"}, {"id": 13020, "title": "rangolitime", "devlogs_count": 0, "created_at": "2025-09-07T01:58:45.244-04:00"}, {"id": 8285, "title": "DiabeticsAnalyst", "devlogs_count": 5, "created_at": "2025-07-26T00:54:03.468-04:00"}], "coding_time_seconds": 236416, "coding_time_seconds_today": 0, "balance": "You need to have a pocket watcher badge to view this.", "badges": [{"name": "Maiden Voyage", "text": "you shipped your first project! the journey begins...", "icon": "\ud83d\udea2"}], "created_at": "2025-06-18T21:28:02.752-04:00", "updated_at": "2025-09-10T22:55:41.904-04:00", "avatar": "https://secure.gravatar.com/avatar/c10e047e4920a47d3153e834220fd00a.jpg?s=512&d=https%3A%2F%2Fa.slack-edge.com%2Fdf10d%2Fimg%2Favatars%2Fava_0026-512.png", "custom_css": null}, {"id": 9185, "slack_id": "U091PE1T8CX", "display_name": "Jack Xie", "bio": null, "projects_count": 0, "devlogs_count": 0, "votes_count": 0, "ships_count": 0, "projects": [], "coding_time_seconds": 0, "coding_time_seconds_today": 0, "balance": "You need to have a pocket watcher badge to view this.", "badges": [], "created_at": "2025-06-18T21:29:35.642-04:00", "updated_at": "2025-07-03T19:51:00.227-04:00", "avatar": "https://avatars.slack-edge.com/2025-06-18/9057508175063_428e03b92fd229d154cb_original.png", "custom_css": null}, {"id": 9186, "slack_id": "U091HKUCCNP", "display_name": "Sam Padilla", "bio": null, "projects_count": 2, "devlogs_count": 3, "votes_count": 20, "ships_count": 1, "projects": [{"id": 1636, "title": "Plateu", "devlogs_count": 2, "created_at": "2025-06-18T22:31:21.981-04:00"}, {"id": 4016, "title": "notMacroBoard", "devlogs_count": 1, "created_at": "2025-06-26T21:56:22.837-04:00"}], "coding_time_seconds": 300040, "coding_time_seconds_today": 0, "balance": "You need to have a pocket watcher badge to view this.", "badges": [{"name": "Maiden Voyage", "text": "you shipped your first project! the journey begins...", "icon": "\ud83d\udea2"}], "created_at": "2025-06-18T21:30:49.774-04:00", "updated_at": "2025-09-10T22:55:41.968-04:00", "avatar": "https://avatars.slack-edge.com/2025-07-21/9233739409394_fb03d8f74a14406ca99e_original.png", "custom_css": null}, {"id": 9187, "slack_id": "U092SRUUSTS", "display_name": "Biraj Bhattarai", "bio": null, "projects_count": 1, "devlogs_count": 2, "votes_count": 1, "ships_count": 1, "projects": [{"id": 1635, "title": "INTmap", "devlogs_count": 2, "created_at": "2025-06-18T22:25:30.755-04:00"}], "coding_time_seconds": 6226, "coding_time_seconds_today": 0, "balance": "You need to have a pocket watcher badge to view this.", "badges": [{"name": "Maiden Voyage", "text": "you shipped your first project! the journey begins...", "icon": "\ud83d\udea2"}], "created_at": "2025-06-18T21:37:26.838-04:00", "updated_at": "2025-09-10T22:55:42.044-04:00", "avatar": "https://secure.gravatar.com/avatar/64e5f6b68ed00deb626aa085dcb1c207.jpg?s=512&d=https%3A%2F%2Fa.slack-edge.com%2Fdf10d%2Fimg%2Favatars%2Fava_0005-512.png", "custom_css": null}, {"id": 9188, "slack_id": "U091PF8E3JT", "display_name": "Naga Jala Suryanarayana", "bio": null, "projects_count": 0, "devlogs_count": 0, "votes_count": 0, "ships_count": 0, "projects": [], "coding_time_seconds": 0, "coding_time_seconds_today": 0, "balance": "You need to have a pocket watcher badge to view this.", "badges": [], "created_at": "2025-06-18T21:39:40.164-04:00", "updated_at": "2025-07-03T19:51:00.780-04:00", "avatar": "https://secure.gravatar.com/avatar/c4ea320a60c66e9471037da40ef84184.jpg?s=512&d=https%3A%2F%2Fa.slack-edge.com%2Fdf10d%2Fimg%2Favatars%2Fava_0011-512.png", "custom_css": null}, {"id": 9189, "slack_id": "U078RCEUJ11", "display_name": "KingHenry6621", "bio": null, "projects_count": 2, "devlogs_count": 0, "votes_count": 0, "ships_count": 0, "projects": [{"id": 5861, "title": "Melatonin Client", "devlogs_count": 0, "created_at": "2025-07-08T14:27:43.280-04:00"}, {"id": 5862, "title": "Minecraft RPG Server (Unnamed)", "devlogs_count": 0, "created_at": "2025-07-08T14:28:37.057-04:00"}], "coding_time_seconds": 71756, "coding_time_seconds_today": 0, "balance": "You need to have a pocket watcher badge to view this.", "badges": [], "created_at": "2025-06-18T21:43:02.973-04:00", "updated_at": "2025-07-09T14:33:52.825-04:00", "avatar": "https://avatars.slack-edge.com/2024-06-18/7294639294885_e2a6b73faf8f1d136dec_original.png", "custom_css": null}, {"id": 9190, "slack_id": "U092SSZ1KRN", "display_name": "Shivansh", "bio": null, "projects_count": 1, "devlogs_count": 0, "votes_count": 1, "ships_count": 0, "projects": [{"id": 7912, "title": "Nexora", "devlogs_count": 0, "created_at": "2025-07-23T14:57:37.648-04:00"}], "coding_time_seconds": 155, "coding_time_seconds_today": 0, "balance": "You need to have a pocket watcher badge to view this.", "badges": [], "created_at": "2025-06-18T21:45:40.524-04:00", "updated_at": "2025-08-11T12:37:41.010-04:00", "avatar": "https://secure.gravatar.com/avatar/6d69b4caf2723b4ecfc8d0f3d9a209d4.jpg?s=512&d=https%3A%2F%2Fa.slack-edge.com%2Fdf10d%2Fimg%2Favatars%2Fava_0007-512.png", "custom_css": null}, {"id": 9191, "slack_id": "U09229STNGM", "display_name": "Michael Liu", "bio": null, "projects_count": 1, "devlogs_count": 4, "votes_count": 0, "ships_count": 0, "projects": [{"id": 1637, "title": "lily", "devlogs_count": 4, "created_at": "2025-06-18T22:43:25.137-04:00"}], "coding_time_seconds": 103241, "coding_time_seconds_today": 0, "balance": "You need to have a pocket watcher badge to view this.", "badges": [], "created_at": "2025-06-18T21:47:13.474-04:00", "updated_at": "2025-07-03T19:51:01.469-04:00", "avatar": "https://avatars.slack-edge.com/2025-06-18/9072779822228_5b0dcae14a4f90a0cf7c_original.png", "custom_css": null}, {"id": 9192, "slack_id": "U080C7UM1HT", "display_name": "Vann_man", "bio": null, "projects_count": 1, "devlogs_count": 2, "votes_count": 20, "ships_count": 1, "projects": [{"id": 4480, "title": "Personal portfolio website", "devlogs_count": 2, "created_at": "2025-06-30T07:36:05.751-04:00"}], "coding_time_seconds": 109477, "coding_time_seconds_today": 2951, "balance": "You need to have a pocket watcher badge to view this.", "badges": [{"name": "Maiden Voyage", "text": "you shipped your first project! the journey begins...", "icon": "\ud83d\udea2"}], "created_at": "2025-06-18T21:47:43.008-04:00", "updated_at": "2025-09-10T22:55:42.270-04:00", "avatar": "https://secure.gravatar.com/avatar/a0840f97d69dee4c4efbc4976962940b.jpg?s=512&d=https%3A%2F%2Fa.slack-edge.com%2Fdf10d%2Fimg%2Favatars%2Fava_0024-512.png", "custom_css": null}, {"id": 9193, "slack_id": "U092STH5TAL", "display_name": "KaitoJD", "bio": null, "projects_count": 4, "devlogs_count": 20, "votes_count": 77, "ships_count": 3, "projects": [{"id": 12902, "title": "BTChess", "devlogs_count": 1, "created_at": "2025-09-04T21:41:16.020-04:00"}, {"id": 13179, "title": "WAIT", "devlogs_count": 3, "created_at": "2025-09-10T23:39:09.782-04:00"}, {"id": 5135, "title": "About Me", "devlogs_count": 2, "created_at": "2025-07-03T12:19:39.370-04:00"}, {"id": 10793, "title": "Fomoduct", "devlogs_count": 2, "created_at": "2025-08-10T23:10:36.111-04:00"}], "coding_time_seconds": 155707, "coding_time_seconds_today": 0, "balance": "You need to have a pocket watcher badge to view this.", "badges": [{"name": "Maiden Voyage", "text": "you shipped your first project! the journey begins...", "icon": "\ud83d\udea2"}], "created_at": "2025-06-18T21:51:49.404-04:00", "updated_at": "2025-09-10T22:55:42.366-04:00", "avatar": "https://avatars.slack-edge.com/2025-07-08/9162083922886_6c981057e9de308ec34d_original.png", "custom_css": null}, {"id": 9194, "slack_id": "U091PGP9VL7", "display_name": "Joshua Christian", "bio": null, "projects_count": 0, "devlogs_count": 0, "votes_count": 0, "ships_count": 0, "projects": [], "coding_time_seconds": 0, "coding_time_seconds_today": 0, "balance": "You need to have a pocket watcher badge to view this.", "badges": [], "created_at": "2025-06-18T21:53:12.177-04:00", "updated_at": "2025-07-03T21:47:25.707-04:00", "avatar": "https://secure.gravatar.com/avatar/959043522084239cb778ea6a4144ae85.jpg?s=512&d=https%3A%2F%2Fa.slack-edge.com%2Fdf10d%2Fimg%2Favatars%2Fava_0023-512.png", "custom_css": null}, {"id": 9195, "slack_id": "U0924PCB81J", "display_name": "Hemanth", "bio": null, "projects_count": 0, "devlogs_count": 0, "votes_count": 0, "ships_count": 0, "projects": [], "coding_time_seconds": 0, "coding_time_seconds_today": 0, "balance": "You need to have a pocket watcher badge to view this.", "badges": [], "created_at": "2025-06-18T21:58:04.616-04:00", "updated_at": "2025-07-03T19:51:02.153-04:00", "avatar": "https://secure.gravatar.com/avatar/8b2f222e878c326833a8baf41f1095d4.jpg?s=512&d=https%3A%2F%2Fa.slack-edge.com%2Fdf10d%2Fimg%2Favatars%2Fava_0002-512.png", "custom_css": null}, {"id": 9196, "slack_id": "U092472GSHX", "display_name": "Daksh", "bio": null, "projects_count": 0, "devlogs_count": 0, "votes_count": 0, "ships_count": 0, "projects": [], "coding_time_seconds": 0, "coding_time_seconds_today": 0, "balance": "You need to have a pocket watcher badge to view this.", "badges": [], "created_at": "2025-06-18T22:14:50.522-04:00", "updated_at": "2025-07-03T19:51:02.412-04:00", "avatar": "https://secure.gravatar.com/avatar/59dd6af73c1309ad846e3ed3d143d85c.jpg?s=512&d=https%3A%2F%2Fa.slack-edge.com%2Fdf10d%2Fimg%2Favatars%2Fava_0018-512.png", "custom_css": null}, {"id": 9197, "slack_id": "U078SHVQH7D", "display_name": "Stavros Purdie", "bio": null, "projects_count": 0, "devlogs_count": 0, "votes_count": 0, "ships_count": 0, "projects": [], "coding_time_seconds": 2364, "coding_time_seconds_today": 0, "balance": "You need to have a pocket watcher badge to view this.", "badges": [], "created_at": "2025-06-18T22:15:07.018-04:00", "updated_at": "2025-07-03T19:51:02.691-04:00", "avatar": "https://secure.gravatar.com/avatar/c440cf67d40255036beb45a2a200a7bb.jpg?s=512&d=https%3A%2F%2Fa.slack-edge.com%2Fdf10d%2Fimg%2Favatars%2Fava_0004-512.png", "custom_css": null}, {"id": 9198, "slack_id": "U0904E5KJGZ", "display_name": "Phish", "bio": null, "projects_count": 0, "devlogs_count": 0, "votes_count": 0, "ships_count": 0, "projects": [], "coding_time_seconds": 0, "coding_time_seconds_today": 0, "balance": "You need to have a pocket watcher badge to view this.", "badges": [], "created_at": "2025-06-18T22:15:25.040-04:00", "updated_at": "2025-07-03T19:51:02.959-04:00", "avatar": "https://avatars.slack-edge.com/2025-06-03/9016116564480_b16e042dbed5eb0d8dda_original.png", "custom_css": null}, {"id": 9199, "slack_id": "U0926FACTND", "display_name": "Miles Szymanski", "bio": null, "projects_count": 0, "devlogs_count": 0, "votes_count": 0, "ships_count": 0, "projects": [], "coding_time_seconds": 0, "coding_time_seconds_today": 0, "balance": "You need to have a pocket watcher badge to view this.", "badges": [], "created_at": "2025-06-18T22:15:34.573-04:00", "updated_at": "2025-07-03T19:51:03.230-04:00", "avatar": "https://secure.gravatar.com/avatar/9adab91d1f2175e1d1b727aa2089ef4d.jpg?s=512&d=https%3A%2F%2Fa.slack-edge.com%2Fdf10d%2Fimg%2Favatars%2Fava_0008-512.png", "custom_css": null}, {"id": 9200, "slack_id": "U091Y3QDCCB", "display_name": "Sreedhar", "bio": null, "projects_count": 0, "devlogs_count": 0, "votes_count": 0, "ships_count": 0, "projects": [], "coding_time_seconds": 0, "coding_time_seconds_today": 0, "balance": "You need to have a pocket watcher badge to view this.", "badges": [], "created_at": "2025-06-18T22:17:01.366-04:00", "updated_at": "2025-07-03T19:51:03.501-04:00", "avatar": "https://secure.gravatar.com/avatar/c5fe9f6026edf56a6e45617c6539a584.jpg?s=512&d=https%3A%2F%2Fa.slack-edge.com%2Fdf10d%2Fimg%2Favatars%2Fava_0009-512.png", "custom_css": null}], "pagination": {"page": 460, "pages": 1192, "count": 23828, "items": 20}}