{"users": [{"id": 9201, "slack_id": "U092391MF25", "display_name": "Arnob", "bio": null, "projects_count": 3, "devlogs_count": 3, "votes_count": 1, "ships_count": 0, "projects": [{"id": 3584, "title": "Native Notes", "devlogs_count": 0, "created_at": "2025-06-24T19:52:31.613-04:00"}, {"id": 4438, "title": "Pico Remote", "devlogs_count": 1, "created_at": "2025-06-29T21:44:32.963-04:00"}, {"id": 10176, "title": "Simple Social", "devlogs_count": 2, "created_at": "2025-08-04T16:34:09.233-04:00"}], "coding_time_seconds": 43639, "coding_time_seconds_today": 0, "balance": "You need to have a pocket watcher badge to view this.", "badges": [], "created_at": "2025-06-18T22:25:19.348-04:00", "updated_at": "2025-08-06T19:36:33.147-04:00", "avatar": "https://secure.gravatar.com/avatar/058d076dd86e344005aded302117b912.jpg?s=512&d=https%3A%2F%2Fa.slack-edge.com%2Fdf10d%2Fimg%2Favatars%2Fava_0019-512.png", "custom_css": null}, {"id": 9202, "slack_id": "U07S3E08VL0", "display_name": "Ciaran", "bio": null, "projects_count": 1, "devlogs_count": 1, "votes_count": 0, "ships_count": 0, "projects": [{"id": 1640, "title": "HackStockExchange", "devlogs_count": 1, "created_at": "2025-06-18T22:58:52.862-04:00"}], "coding_time_seconds": 57229, "coding_time_seconds_today": 1524, "balance": "You need to have a pocket watcher badge to view this.", "badges": [], "created_at": "2025-06-18T22:26:35.467-04:00", "updated_at": "2025-08-24T15:52:29.212-04:00", "avatar": "https://secure.gravatar.com/avatar/848e214bb1f3da35df04f9dd6fe9935c.jpg?s=512&d=https%3A%2F%2Fa.slack-edge.com%2Fdf10d%2Fimg%2Favatars%2Fava_0009-512.png", "custom_css": null}, {"id": 9203, "slack_id": "U092T13AQKS", "display_name": "Emily Mustafa", "bio": null, "projects_count": 1, "devlogs_count": 0, "votes_count": 0, "ships_count": 0, "projects": [{"id": 4303, "title": "Todo Dragger", "devlogs_count": 0, "created_at": "2025-06-28T20:00:02.514-04:00"}], "coding_time_seconds": 44010, "coding_time_seconds_today": 0, "balance": "You need to have a pocket watcher badge to view this.", "badges": [], "created_at": "2025-06-18T22:26:58.825-04:00", "updated_at": "2025-07-05T02:10:19.241-04:00", "avatar": "https://secure.gravatar.com/avatar/84c8ad4b261903c3ab7844d97026f3f8.jpg?s=512&d=https%3A%2F%2Fa.slack-edge.com%2Fdf10d%2Fimg%2Favatars%2Fava_0010-512.png", "custom_css": null}, {"id": 9204, "slack_id": "U0924RDNUTE", "display_name": "Tushyan", "bio": null, "projects_count": 2, "devlogs_count": 2, "votes_count": 4, "ships_count": 1, "projects": [{"id": 1653, "title": "ReactJs Learning", "devlogs_count": 1, "created_at": "2025-06-19T00:11:58.059-04:00"}, {"id": 1841, "title": "Music Player using ReactJs", "devlogs_count": 1, "created_at": "2025-06-19T11:57:24.463-04:00"}], "coding_time_seconds": 25401, "coding_time_seconds_today": 0, "balance": "You need to have a pocket watcher badge to view this.", "badges": [{"name": "Maiden Voyage", "text": "you shipped your first project! the journey begins...", "icon": "\ud83d\udea2"}], "created_at": "2025-06-18T22:27:29.618-04:00", "updated_at": "2025-09-10T22:55:42.692-04:00", "avatar": "https://secure.gravatar.com/avatar/571a5147224b2df89eaf8027edeabcec.jpg?s=512&d=https%3A%2F%2Fa.slack-edge.com%2Fdf10d%2Fimg%2Favatars%2Fava_0007-512.png", "custom_css": null}, {"id": 9205, "slack_id": "U09237CGDGD", "display_name": "Elvin", "bio": null, "projects_count": 0, "devlogs_count": 0, "votes_count": 0, "ships_count": 0, "projects": [], "coding_time_seconds": 0, "coding_time_seconds_today": 0, "balance": "You need to have a pocket watcher badge to view this.", "badges": [], "created_at": "2025-06-18T22:27:35.822-04:00", "updated_at": "2025-07-03T19:51:04.705-04:00", "avatar": "https://avatars.slack-edge.com/2025-06-18/9066300874102_a2767a9bb2590aa49383_original.png", "custom_css": null}, {"id": 9206, "slack_id": "U092H8EP6HF", "display_name": "Ari Yellin-Levine", "bio": null, "projects_count": 0, "devlogs_count": 0, "votes_count": 0, "ships_count": 0, "projects": [], "coding_time_seconds": 159056, "coding_time_seconds_today": 0, "balance": "You need to have a pocket watcher badge to view this.", "badges": [], "created_at": "2025-06-18T22:29:46.382-04:00", "updated_at": "2025-07-03T19:51:04.963-04:00", "avatar": "https://avatars.slack-edge.com/2025-06-18/9071268006965_574e0a5b802b57d3c074_original.jpg", "custom_css": null}, {"id": 9207, "slack_id": "U091Y4W9RRR", "display_name": "Shoice", "bio": null, "projects_count": 0, "devlogs_count": 0, "votes_count": 0, "ships_count": 0, "projects": [], "coding_time_seconds": 0, "coding_time_seconds_today": 0, "balance": "You need to have a pocket watcher badge to view this.", "badges": [], "created_at": "2025-06-18T22:29:47.830-04:00", "updated_at": "2025-07-03T19:51:05.229-04:00", "avatar": "https://secure.gravatar.com/avatar/7c1789c15d51bac5917ba05cfc5aed12.jpg?s=512&d=https%3A%2F%2Fa.slack-edge.com%2Fdf10d%2Fimg%2Favatars%2Fava_0018-512.png", "custom_css": null}, {"id": 9208, "slack_id": "U09237KFMNZ", "display_name": "nilum", "bio": null, "projects_count": 0, "devlogs_count": 0, "votes_count": 0, "ships_count": 0, "projects": [], "coding_time_seconds": 0, "coding_time_seconds_today": 0, "balance": "You need to have a pocket watcher badge to view this.", "badges": [], "created_at": "2025-06-18T22:31:15.452-04:00", "updated_at": "2025-08-12T08:46:56.985-04:00", "avatar": "https://avatars.slack-edge.com/2025-08-12/9353330486001_99bf3b9dad616a246bf2_original.jpg", "custom_css": null}, {"id": 9209, "slack_id": "U091Y8XT9FY", "display_name": "Shimanshu chouhan", "bio": null, "projects_count": 0, "devlogs_count": 0, "votes_count": 0, "ships_count": 0, "projects": [], "coding_time_seconds": 10199, "coding_time_seconds_today": 0, "balance": "You need to have a pocket watcher badge to view this.", "badges": [], "created_at": "2025-06-18T22:32:17.563-04:00", "updated_at": "2025-07-03T19:51:05.760-04:00", "avatar": "https://secure.gravatar.com/avatar/06e57c321daeb70d75a83d543eba780e.jpg?s=512&d=https%3A%2F%2Fa.slack-edge.com%2Fdf10d%2Fimg%2Favatars%2Fava_0011-512.png", "custom_css": null}, {"id": 9210, "slack_id": "U092MDPN3FA", "display_name": "pmf", "bio": null, "projects_count": 1, "devlogs_count": 0, "votes_count": 0, "ships_count": 0, "projects": [{"id": 2763, "title": "HackFor.Fun \u2013 Your Browser-Based Hacker Lab", "devlogs_count": 0, "created_at": "2025-06-22T01:49:45.142-04:00"}], "coding_time_seconds": 13895, "coding_time_seconds_today": 0, "balance": "You need to have a pocket watcher badge to view this.", "badges": [], "created_at": "2025-06-18T22:32:44.627-04:00", "updated_at": "2025-07-03T19:51:06.028-04:00", "avatar": "https://avatars.slack-edge.com/2025-06-20/9074993077590_c19fdb412609a635efa4_original.jpg", "custom_css": null}, {"id": 9211, "slack_id": "U0922605R7C", "display_name": "Yash Gupta", "bio": null, "projects_count": 0, "devlogs_count": 0, "votes_count": 0, "ships_count": 0, "projects": [], "coding_time_seconds": 609, "coding_time_seconds_today": 0, "balance": "You need to have a pocket watcher badge to view this.", "badges": [], "created_at": "2025-06-18T22:34:01.221-04:00", "updated_at": "2025-07-04T02:28:48.245-04:00", "avatar": "https://secure.gravatar.com/avatar/c1e31aa9275557763ca22fb87af3d649.jpg?s=512&d=https%3A%2F%2Fa.slack-edge.com%2Fdf10d%2Fimg%2Favatars%2Fava_0013-512.png", "custom_css": null}, {"id": 9212, "slack_id": "U092H90HMLZ", "display_name": "syed hussain", "bio": null, "projects_count": 0, "devlogs_count": 0, "votes_count": 0, "ships_count": 0, "projects": [], "coding_time_seconds": 0, "coding_time_seconds_today": 0, "balance": "You need to have a pocket watcher badge to view this.", "badges": [], "created_at": "2025-06-18T22:36:05.744-04:00", "updated_at": "2025-07-03T19:51:06.424-04:00", "avatar": "https://avatars.slack-edge.com/2025-06-18/9072486486514_18454983d781a2c32a74_original.jpg", "custom_css": null}, {"id": 9213, "slack_id": "U091X9X7ZN1", "display_name": "Abdul Ahad", "bio": null, "projects_count": 0, "devlogs_count": 0, "votes_count": 0, "ships_count": 0, "projects": [], "coding_time_seconds": 1239, "coding_time_seconds_today": 0, "balance": "You need to have a pocket watcher badge to view this.", "badges": [], "created_at": "2025-06-18T22:37:26.577-04:00", "updated_at": "2025-07-03T21:59:28.515-04:00", "avatar": "https://avatars.slack-edge.com/2025-06-18/9072925940964_00b8fed7dbdbd40eafc3_original.jpg", "custom_css": null}, {"id": 9214, "slack_id": "U09238CUYBF", "display_name": "Mario Esmeral Palacio", "bio": null, "projects_count": 0, "devlogs_count": 0, "votes_count": 0, "ships_count": 0, "projects": [], "coding_time_seconds": 0, "coding_time_seconds_today": 0, "balance": "You need to have a pocket watcher badge to view this.", "badges": [], "created_at": "2025-06-18T22:38:39.361-04:00", "updated_at": "2025-07-03T19:51:06.822-04:00", "avatar": "https://avatars.slack-edge.com/2025-06-18/9066333838358_0130b8033fbcba1558fa_original.jpg", "custom_css": null}, {"id": 9215, "slack_id": "U092H91G3DX", "display_name": "Keith Teng", "bio": null, "projects_count": 0, "devlogs_count": 0, "votes_count": 0, "ships_count": 0, "projects": [], "coding_time_seconds": 46891, "coding_time_seconds_today": 0, "balance": "You need to have a pocket watcher badge to view this.", "badges": [], "created_at": "2025-06-18T22:39:40.715-04:00", "updated_at": "2025-07-03T19:51:07.082-04:00", "avatar": "https://secure.gravatar.com/avatar/68c28b30d0c6bea665a064771a384bd9.jpg?s=512&d=https%3A%2F%2Fa.slack-edge.com%2Fdf10d%2Fimg%2Favatars%2Fava_0021-512.png", "custom_css": null}, {"id": 9216, "slack_id": "U0924EADTS6", "display_name": "HuynhTanDuyBao", "bio": null, "projects_count": 0, "devlogs_count": 0, "votes_count": 0, "ships_count": 0, "projects": [], "coding_time_seconds": 0, "coding_time_seconds_today": 0, "balance": "You need to have a pocket watcher badge to view this.", "badges": [], "created_at": "2025-06-18T22:39:48.399-04:00", "updated_at": "2025-07-03T19:51:07.342-04:00", "avatar": "https://secure.gravatar.com/avatar/b385a1f275c67cf2809a2e56b4d86c67.jpg?s=512&d=https%3A%2F%2Fa.slack-edge.com%2Fdf10d%2Fimg%2Favatars%2Fava_0009-512.png", "custom_css": null}, {"id": 9217, "slack_id": "U091PM2JFDM", "display_name": "Fabyan", "bio": null, "projects_count": 0, "devlogs_count": 0, "votes_count": 0, "ships_count": 0, "projects": [], "coding_time_seconds": 0, "coding_time_seconds_today": 0, "balance": "You need to have a pocket watcher badge to view this.", "badges": [], "created_at": "2025-06-18T22:41:17.987-04:00", "updated_at": "2025-07-03T19:51:07.616-04:00", "avatar": "https://secure.gravatar.com/avatar/df140827f9a1769bfa7ca785a0b3319b.jpg?s=512&d=https%3A%2F%2Fa.slack-edge.com%2Fdf10d%2Fimg%2Favatars%2Fava_0010-512.png", "custom_css": null}, {"id": 9218, "slack_id": "U0924EPAJ3U", "display_name": "Aadesh Kumar Yadav", "bio": null, "projects_count": 0, "devlogs_count": 0, "votes_count": 0, "ships_count": 0, "projects": [], "coding_time_seconds": 0, "coding_time_seconds_today": 0, "balance": "You need to have a pocket watcher badge to view this.", "badges": [], "created_at": "2025-06-18T22:44:16.870-04:00", "updated_at": "2025-07-03T19:51:07.868-04:00", "avatar": "https://avatars.slack-edge.com/2025-06-18/9072508846066_0934777001fe109d6c07_original.jpg", "custom_css": null}, {"id": 9219, "slack_id": "U0924EW7RC2", "display_name": "Patrick Selby", "bio": null, "projects_count": 0, "devlogs_count": 0, "votes_count": 0, "ships_count": 0, "projects": [], "coding_time_seconds": 16172, "coding_time_seconds_today": 0, "balance": "You need to have a pocket watcher badge to view this.", "badges": [], "created_at": "2025-06-18T22:50:50.936-04:00", "updated_at": "2025-07-03T19:51:08.145-04:00", "avatar": "https://secure.gravatar.com/avatar/5b86247299d565e30d7b3db7510ddc7f.jpg?s=512&d=https%3A%2F%2Fa.slack-edge.com%2Fdf10d%2Fimg%2Favatars%2Fava_0025-512.png", "custom_css": null}, {"id": 9220, "slack_id": "U091Y6R3GCB", "display_name": "duck", "bio": null, "projects_count": 0, "devlogs_count": 0, "votes_count": 0, "ships_count": 0, "projects": [], "coding_time_seconds": 0, "coding_time_seconds_today": 0, "balance": "You need to have a pocket watcher badge to view this.", "badges": [], "created_at": "2025-06-18T22:52:36.873-04:00", "updated_at": "2025-07-03T19:51:08.403-04:00", "avatar": "https://secure.gravatar.com/avatar/68615a5a166d234020bec9ef61ff63e4.jpg?s=512&d=https%3A%2F%2Fa.slack-edge.com%2Fdf10d%2Fimg%2Favatars%2Fava_0024-512.png", "custom_css": null}], "pagination": {"page": 461, "pages": 1192, "count": 23828, "items": 20}}