{"users": [{"id": 9221, "slack_id": "U092T3VAEU8", "display_name": "Daniel Pellowski", "bio": null, "projects_count": 0, "devlogs_count": 0, "votes_count": 0, "ships_count": 0, "projects": [], "coding_time_seconds": 0, "coding_time_seconds_today": 0, "balance": "You need to have a pocket watcher badge to view this.", "badges": [], "created_at": "2025-06-18T22:57:07.954-04:00", "updated_at": "2025-07-03T19:51:08.668-04:00", "avatar": "https://secure.gravatar.com/avatar/defe31e296155a3049bcc8250ecb9fb1.jpg?s=512&d=https%3A%2F%2Fa.slack-edge.com%2Fdf10d%2Fimg%2Favatars%2Fava_0018-512.png", "custom_css": null}, {"id": 9222, "slack_id": "U092HBD6MA5", "display_name": "Rohit", "bio": null, "projects_count": 0, "devlogs_count": 0, "votes_count": 0, "ships_count": 0, "projects": [], "coding_time_seconds": 0, "coding_time_seconds_today": 0, "balance": "You need to have a pocket watcher badge to view this.", "badges": [], "created_at": "2025-06-18T23:04:21.137-04:00", "updated_at": "2025-07-03T19:51:08.938-04:00", "avatar": "https://secure.gravatar.com/avatar/2536b81529e5c0345f7249c2a807b90e.jpg?s=512&d=https%3A%2F%2Fa.slack-edge.com%2Fdf10d%2Fimg%2Favatars%2Fava_0003-512.png", "custom_css": null}, {"id": 9223, "slack_id": "U08DKSMHH1A", "display_name": "Anaskiiled", "bio": null, "projects_count": 6, "devlogs_count": 8, "votes_count": 68, "ships_count": 5, "projects": [{"id": 12709, "title": "Anas's town", "devlogs_count": 1, "created_at": "2025-09-01T08:26:36.421-04:00"}, {"id": 12923, "title": "solo.js", "devlogs_count": 1, "created_at": "2025-09-05T12:06:21.285-04:00"}, {"id": 13108, "title": "GenO", "devlogs_count": 1, "created_at": "2025-09-08T16:53:06.125-04:00"}, {"id": 13445, "title": "Recipe API", "devlogs_count": 2, "created_at": "2025-09-16T16:09:06.942-04:00"}, {"id": 6450, "title": "anas_grub", "devlogs_count": 1, "created_at": "2025-07-13T12:39:39.681-04:00"}, {"id": 10520, "title": "tapyslap", "devlogs_count": 2, "created_at": "2025-08-07T18:27:46.712-04:00"}], "coding_time_seconds": 144595, "coding_time_seconds_today": 0, "balance": "You need to have a pocket watcher badge to view this.", "badges": [{"name": "Maiden Voyage", "text": "you shipped your first project! the journey begins...", "icon": "\ud83d\udea2"}, {"name": "Ballot Stuffer", "text": "vote 100 times.", "icon": "https://summer.hackclub.com/assets/i_voted-bf851b48.png"}], "created_at": "2025-06-18T23:10:18.301-04:00", "updated_at": "2025-09-10T22:55:43.505-04:00", "avatar": "https://avatars.slack-edge.com/2025-02-15/8482207592672_2db5af31b11ce3e10f4a_original.jpg", "custom_css": null}, {"id": 9224, "slack_id": "U0924GRQFA6", "display_name": "Durgesh Bhardwaj", "bio": null, "projects_count": 0, "devlogs_count": 0, "votes_count": 0, "ships_count": 0, "projects": [], "coding_time_seconds": 0, "coding_time_seconds_today": 0, "balance": "You need to have a pocket watcher badge to view this.", "badges": [], "created_at": "2025-06-18T23:11:13.091-04:00", "updated_at": "2025-07-03T19:51:09.333-04:00", "avatar": "https://secure.gravatar.com/avatar/9ec3a9ec0bad646d68042c2bd7227fc4.jpg?s=512&d=https%3A%2F%2Fa.slack-edge.com%2Fdf10d%2Fimg%2Favatars%2Fava_0016-512.png", "custom_css": null}, {"id": 9225, "slack_id": "U091YCCGF6J", "display_name": "anshuman singh", "bio": null, "projects_count": 0, "devlogs_count": 0, "votes_count": 0, "ships_count": 0, "projects": [], "coding_time_seconds": 0, "coding_time_seconds_today": 0, "balance": "You need to have a pocket watcher badge to view this.", "badges": [], "created_at": "2025-06-18T23:11:41.474-04:00", "updated_at": "2025-07-03T19:51:09.588-04:00", "avatar": "https://avatars.slack-edge.com/2025-06-18/9066299385523_ac33e209d3daef9fa723_original.jpg", "custom_css": null}, {"id": 9226, "slack_id": "U092T58EHEU", "display_name": "Philip", "bio": null, "projects_count": 0, "devlogs_count": 0, "votes_count": 0, "ships_count": 0, "projects": [], "coding_time_seconds": 0, "coding_time_seconds_today": 0, "balance": "You need to have a pocket watcher badge to view this.", "badges": [], "created_at": "2025-06-18T23:13:18.659-04:00", "updated_at": "2025-07-03T21:59:29.408-04:00", "avatar": "https://secure.gravatar.com/avatar/166fced6e63b41f4ce35946144051671.jpg?s=512&d=https%3A%2F%2Fa.slack-edge.com%2Fdf10d%2Fimg%2Favatars%2Fava_0025-512.png", "custom_css": null}, {"id": 9227, "slack_id": "U091YCHRYEA", "display_name": "Deepak Singh Kushwaha", "bio": null, "projects_count": 0, "devlogs_count": 0, "votes_count": 0, "ships_count": 0, "projects": [], "coding_time_seconds": 0, "coding_time_seconds_today": 0, "balance": "You need to have a pocket watcher badge to view this.", "badges": [], "created_at": "2025-06-18T23:16:40.309-04:00", "updated_at": "2025-07-03T21:59:29.549-04:00", "avatar": "https://avatars.slack-edge.com/2025-06-18/9095199242640_3cb076aae1bb114e7a61_original.png", "custom_css": null}, {"id": 9228, "slack_id": "U091Y8S0L3V", "display_name": "Manish Kumar", "bio": null, "projects_count": 0, "devlogs_count": 0, "votes_count": 0, "ships_count": 0, "projects": [], "coding_time_seconds": 22712, "coding_time_seconds_today": 0, "balance": "You need to have a pocket watcher badge to view this.", "badges": [], "created_at": "2025-06-18T23:17:29.486-04:00", "updated_at": "2025-07-03T19:51:10.110-04:00", "avatar": "https://avatars.slack-edge.com/2025-06-19/9095293839888_5287b3e992d05c4e1de5_original.png", "custom_css": null}, {"id": 9229, "slack_id": "U0924HRK4NN", "display_name": "Dhanesh", "bio": null, "projects_count": 0, "devlogs_count": 0, "votes_count": 0, "ships_count": 0, "projects": [], "coding_time_seconds": 0, "coding_time_seconds_today": 0, "balance": "You need to have a pocket watcher badge to view this.", "badges": [], "created_at": "2025-06-18T23:21:18.224-04:00", "updated_at": "2025-07-03T19:51:10.389-04:00", "avatar": "https://secure.gravatar.com/avatar/761e41d4ddded3aaf82994c23a676f8d.jpg?s=512&d=https%3A%2F%2Fa.slack-edge.com%2Fdf10d%2Fimg%2Favatars%2Fava_0016-512.png", "custom_css": null}, {"id": 9230, "slack_id": "U092CDS1X24", "display_name": "Kaveen Sanchana", "bio": null, "projects_count": 0, "devlogs_count": 0, "votes_count": 0, "ships_count": 0, "projects": [], "coding_time_seconds": 0, "coding_time_seconds_today": 0, "balance": "You need to have a pocket watcher badge to view this.", "badges": [], "created_at": "2025-06-18T23:21:32.852-04:00", "updated_at": "2025-07-03T19:51:10.664-04:00", "avatar": "https://secure.gravatar.com/avatar/fad446ddb34e1aeb7a5b90b43544b776.jpg?s=512&d=https%3A%2F%2Fa.slack-edge.com%2Fdf10d%2Fimg%2Favatars%2Fava_0002-512.png", "custom_css": null}, {"id": 9231, "slack_id": "U091PQMH7HD", "display_name": "Zachary Winslow", "bio": null, "projects_count": 0, "devlogs_count": 0, "votes_count": 0, "ships_count": 0, "projects": [], "coding_time_seconds": 0, "coding_time_seconds_today": 0, "balance": "You need to have a pocket watcher badge to view this.", "badges": [], "created_at": "2025-06-18T23:22:11.207-04:00", "updated_at": "2025-07-03T19:51:10.952-04:00", "avatar": "https://avatars.slack-edge.com/2025-06-18/9071421230917_ce663d235e5e49a5c671_original.jpg", "custom_css": null}, {"id": 9232, "slack_id": "U091YA23G9L", "display_name": "Richard Chen", "bio": null, "projects_count": 0, "devlogs_count": 0, "votes_count": 0, "ships_count": 0, "projects": [], "coding_time_seconds": 7979, "coding_time_seconds_today": 0, "balance": "You need to have a pocket watcher badge to view this.", "badges": [], "created_at": "2025-06-18T23:22:41.719-04:00", "updated_at": "2025-07-03T19:51:11.236-04:00", "avatar": "https://secure.gravatar.com/avatar/44c222c7a45e7152393d3aa68f2b4638.jpg?s=512&d=https%3A%2F%2Fa.slack-edge.com%2Fdf10d%2Fimg%2Favatars%2Fava_0012-512.png", "custom_css": null}, {"id": 9233, "slack_id": "U09251CMN5S", "display_name": "Lucas Angelo dos Santos Belizario", "bio": null, "projects_count": 0, "devlogs_count": 0, "votes_count": 0, "ships_count": 0, "projects": [], "coding_time_seconds": 241, "coding_time_seconds_today": 0, "balance": "You need to have a pocket watcher badge to view this.", "badges": [], "created_at": "2025-06-18T23:23:58.563-04:00", "updated_at": "2025-07-03T19:51:11.506-04:00", "avatar": "https://secure.gravatar.com/avatar/9806da154e3ced10b1790bf085f02300.jpg?s=512&d=https%3A%2F%2Fa.slack-edge.com%2Fdf10d%2Fimg%2Favatars%2Fava_0014-512.png", "custom_css": null}, {"id": 9234, "slack_id": "U09251M0KLL", "display_name": "Aziz Ahmed", "bio": null, "projects_count": 0, "devlogs_count": 0, "votes_count": 0, "ships_count": 0, "projects": [], "coding_time_seconds": 0, "coding_time_seconds_today": 0, "balance": "You need to have a pocket watcher badge to view this.", "badges": [], "created_at": "2025-06-18T23:27:03.762-04:00", "updated_at": "2025-07-03T19:51:11.778-04:00", "avatar": "https://secure.gravatar.com/avatar/3c3182a5664416798223efdcedb55ec4.jpg?s=512&d=https%3A%2F%2Fa.slack-edge.com%2Fdf10d%2Fimg%2Favatars%2Fava_0017-512.png", "custom_css": null}, {"id": 9235, "slack_id": "U0924J5MYCA", "display_name": "Olievia Syach", "bio": null, "projects_count": 1, "devlogs_count": 0, "votes_count": 0, "ships_count": 0, "projects": [{"id": 2490, "title": "Habbit Heatmap", "devlogs_count": 0, "created_at": "2025-06-21T06:06:26.007-04:00"}], "coding_time_seconds": 45205, "coding_time_seconds_today": 0, "balance": "You need to have a pocket watcher badge to view this.", "badges": [], "created_at": "2025-06-18T23:27:04.111-04:00", "updated_at": "2025-07-03T19:51:12.055-04:00", "avatar": "https://secure.gravatar.com/avatar/cdada2c78276db8d4bf152673d3c5d95.jpg?s=512&d=https%3A%2F%2Fa.slack-edge.com%2Fdf10d%2Fimg%2Favatars%2Fava_0003-512.png", "custom_css": null}, {"id": 9236, "slack_id": "U0828FG0N12", "display_name": "Youssef", "bio": null, "projects_count": 5, "devlogs_count": 37, "votes_count": 51, "ships_count": 3, "projects": [{"id": 1646, "title": "Auro - AI Productivity Friend", "devlogs_count": 24, "created_at": "2025-06-18T23:40:48.585-04:00"}, {"id": 10684, "title": "Auro Habit", "devlogs_count": 0, "created_at": "2025-08-09T15:05:14.627-04:00"}, {"id": 10800, "title": "REST API for Auro's Database", "devlogs_count": 7, "created_at": "2025-08-11T00:19:03.644-04:00"}, {"id": 10906, "title": "Auro Extension For Ultra-Focus mode.", "devlogs_count": 1, "created_at": "2025-08-11T17:36:27.913-04:00"}, {"id": 11243, "title": "AUROCORE YUP! \u2013 Your way to Ultimate Productivity", "devlogs_count": 5, "created_at": "2025-08-14T08:40:42.555-04:00"}], "coding_time_seconds": 628966, "coding_time_seconds_today": 6201, "balance": "You need to have a pocket watcher badge to view this.", "badges": [{"name": "Maiden Voyage", "text": "you shipped your first project! the journey begins...", "icon": "\ud83d\udea2"}], "created_at": "2025-06-18T23:28:08.212-04:00", "updated_at": "2025-09-10T22:55:43.989-04:00", "avatar": "https://avatars.slack-edge.com/2025-06-22/9085014828389_b1f7eea2e394f2fe31fc_original.jpg", "custom_css": null}, {"id": 9237, "slack_id": "U091PR5J6UX", "display_name": "Sherry", "bio": null, "projects_count": 0, "devlogs_count": 0, "votes_count": 0, "ships_count": 0, "projects": [], "coding_time_seconds": 0, "coding_time_seconds_today": 0, "balance": "You need to have a pocket watcher badge to view this.", "badges": [], "created_at": "2025-06-18T23:30:49.170-04:00", "updated_at": "2025-07-03T19:51:12.583-04:00", "avatar": "https://secure.gravatar.com/avatar/5dc2b6bc5c52eac7bd779ba83ee7ed62.jpg?s=512&d=https%3A%2F%2Fa.slack-edge.com%2Fdf10d%2Fimg%2Favatars%2Fava_0008-512.png", "custom_css": null}, {"id": 9238, "slack_id": "U08P78KTA3C", "display_name": "Eliza", "bio": null, "projects_count": 3, "devlogs_count": 13, "votes_count": 0, "ships_count": 0, "projects": [{"id": 2023, "title": "Pathtracing Part 2", "devlogs_count": 4, "created_at": "2025-06-19T23:11:07.786-04:00"}, {"id": 2033, "title": "SSLM", "devlogs_count": 0, "created_at": "2025-06-20T00:21:37.538-04:00"}, {"id": 2139, "title": "Hello IDE", "devlogs_count": 9, "created_at": "2025-06-20T08:49:15.403-04:00"}], "coding_time_seconds": 80822, "coding_time_seconds_today": 0, "balance": "You need to have a pocket watcher badge to view this.", "badges": [], "created_at": "2025-06-18T23:32:35.722-04:00", "updated_at": "2025-07-03T19:51:12.866-04:00", "avatar": "https://avatars.slack-edge.com/2025-06-20/9074027940707_12a321f11afb717bd677_original.png", "custom_css": null}, {"id": 9239, "slack_id": "U091Q8FLECV", "display_name": "Prince Katiyar", "bio": null, "projects_count": 0, "devlogs_count": 0, "votes_count": 0, "ships_count": 0, "projects": [], "coding_time_seconds": 675, "coding_time_seconds_today": 0, "balance": "You need to have a pocket watcher badge to view this.", "badges": [], "created_at": "2025-06-18T23:34:40.651-04:00", "updated_at": "2025-07-03T19:51:13.127-04:00", "avatar": "https://avatars.slack-edge.com/2025-06-18/9073086371748_4993676cca9a3c71cb3f_original.png", "custom_css": null}, {"id": 9240, "slack_id": "U091LSH4S5C", "display_name": "Dependra Basnet", "bio": null, "projects_count": 0, "devlogs_count": 0, "votes_count": 0, "ships_count": 0, "projects": [], "coding_time_seconds": 0, "coding_time_seconds_today": 0, "balance": "You need to have a pocket watcher badge to view this.", "badges": [], "created_at": "2025-06-18T23:34:55.311-04:00", "updated_at": "2025-07-03T19:51:13.397-04:00", "avatar": "https://avatars.slack-edge.com/2025-06-18/9066493908838_433ac2d7ccc163b19e32_original.jpg", "custom_css": null}], "pagination": {"page": 462, "pages": 1192, "count": 23828, "items": 20}}