{"users": [{"id": 9241, "slack_id": "U091A9NB279", "display_name": "Gia B\u1ea3o", "bio": null, "projects_count": 0, "devlogs_count": 0, "votes_count": 0, "ships_count": 0, "projects": [], "coding_time_seconds": 0, "coding_time_seconds_today": 0, "balance": "You need to have a pocket watcher badge to view this.", "badges": [], "created_at": "2025-06-18T23:38:20.039-04:00", "updated_at": "2025-07-04T20:09:51.969-04:00", "avatar": "https://avatars.slack-edge.com/2025-06-18/9095257292624_3086be5886685d166099_original.jpg", "custom_css": null}, {"id": 9242, "slack_id": "U0924K8RS7L", "display_name": "Razka Setiawan", "bio": null, "projects_count": 0, "devlogs_count": 0, "votes_count": 0, "ships_count": 0, "projects": [], "coding_time_seconds": 40401, "coding_time_seconds_today": 0, "balance": "You need to have a pocket watcher badge to view this.", "badges": [], "created_at": "2025-06-18T23:42:04.998-04:00", "updated_at": "2025-07-03T19:51:13.819-04:00", "avatar": "https://secure.gravatar.com/avatar/92e2ea31a6a4f0dc0c037f54d977d83d.jpg?s=512&d=https%3A%2F%2Fa.slack-edge.com%2Fdf10d%2Fimg%2Favatars%2Fava_0000-512.png", "custom_css": null}, {"id": 9243, "slack_id": "U07UP8XE8CU", "display_name": "ZachLTech", "bio": null, "projects_count": 0, "devlogs_count": 0, "votes_count": 0, "ships_count": 0, "projects": [], "coding_time_seconds": 252006, "coding_time_seconds_today": 0, "balance": "You need to have a pocket watcher badge to view this.", "badges": [], "created_at": "2025-06-18T23:45:01.481-04:00", "updated_at": "2025-07-04T08:25:07.583-04:00", "avatar": "https://avatars.slack-edge.com/2024-11-02/7966176550806_09f68aa15c4236b7bc0a_original.jpg", "custom_css": null}, {"id": 9244, "slack_id": "U086UB4P22K", "display_name": "manystarsapart", "bio": null, "projects_count": 1, "devlogs_count": 1, "votes_count": 0, "ships_count": 1, "projects": [{"id": 1651, "title": "SkySynth", "devlogs_count": 1, "created_at": "2025-06-19T00:05:49.249-04:00"}], "coding_time_seconds": 111212, "coding_time_seconds_today": 120, "balance": "You need to have a pocket watcher badge to view this.", "badges": [{"name": "Maiden Voyage", "text": "you shipped your first project! the journey begins...", "icon": "\ud83d\udea2"}], "created_at": "2025-06-18T23:48:13.606-04:00", "updated_at": "2025-09-10T22:55:44.239-04:00", "avatar": "https://avatars.slack-edge.com/2025-01-04/8249425846420_332fd3e0567e4ca80d65_original.png", "custom_css": null}, {"id": 9245, "slack_id": "U091YFAKN7Q", "display_name": "mohdwarish", "bio": null, "projects_count": 0, "devlogs_count": 0, "votes_count": 0, "ships_count": 0, "projects": [], "coding_time_seconds": 0, "coding_time_seconds_today": 0, "balance": "You need to have a pocket watcher badge to view this.", "badges": [], "created_at": "2025-06-18T23:52:19.894-04:00", "updated_at": "2025-07-03T19:51:14.487-04:00", "avatar": "https://avatars.slack-edge.com/2025-06-18/9073130008068_2f67929c2dbce02c902d_original.png", "custom_css": null}, {"id": 9246, "slack_id": "U091YFUFWLW", "display_name": "Varsha Kotegar", "bio": null, "projects_count": 0, "devlogs_count": 0, "votes_count": 0, "ships_count": 0, "projects": [], "coding_time_seconds": 0, "coding_time_seconds_today": 0, "balance": "You need to have a pocket watcher badge to view this.", "badges": [], "created_at": "2025-06-18T23:55:48.429-04:00", "updated_at": "2025-07-03T19:51:14.770-04:00", "avatar": "https://avatars.slack-edge.com/2025-06-18/9095302012560_32aac9081de515b22812_original.png", "custom_css": null}, {"id": 9247, "slack_id": "U0924KYG3HQ", "display_name": "Vansh Kaushal", "bio": null, "projects_count": 0, "devlogs_count": 0, "votes_count": 0, "ships_count": 0, "projects": [], "coding_time_seconds": 0, "coding_time_seconds_today": 0, "balance": "You need to have a pocket watcher badge to view this.", "badges": [], "created_at": "2025-06-18T23:56:50.791-04:00", "updated_at": "2025-07-03T19:51:15.038-04:00", "avatar": "https://secure.gravatar.com/avatar/addf35ce7d10118a3627e7c7b5544a7c.jpg?s=512&d=https%3A%2F%2Fa.slack-edge.com%2Fdf10d%2Fimg%2Favatars%2Fava_0015-512.png", "custom_css": null}, {"id": 9248, "slack_id": "U091PTDGENT", "display_name": "RooCraft", "bio": null, "projects_count": 0, "devlogs_count": 0, "votes_count": 0, "ships_count": 0, "projects": [], "coding_time_seconds": 34305, "coding_time_seconds_today": 0, "balance": "You need to have a pocket watcher badge to view this.", "badges": [], "created_at": "2025-06-18T23:57:18.590-04:00", "updated_at": "2025-07-03T19:51:15.307-04:00", "avatar": "https://avatars.slack-edge.com/2025-06-20/9079787284596_7e1f92a45aa7bc992d33_original.jpg", "custom_css": null}, {"id": 9249, "slack_id": "U092HFTNWFK", "display_name": "Manuel Mantovani", "bio": null, "projects_count": 0, "devlogs_count": 0, "votes_count": 0, "ships_count": 0, "projects": [], "coding_time_seconds": 55634, "coding_time_seconds_today": 0, "balance": "You need to have a pocket watcher badge to view this.", "badges": [], "created_at": "2025-06-18T23:58:06.123-04:00", "updated_at": "2025-07-03T19:51:15.563-04:00", "avatar": "https://secure.gravatar.com/avatar/92cb1a0344130028b2e659e980410b87.jpg?s=512&d=https%3A%2F%2Fa.slack-edge.com%2Fdf10d%2Fimg%2Favatars%2Fava_0011-512.png", "custom_css": null}, {"id": 9250, "slack_id": "U08U4G0D85A", "display_name": "WalterGary", "bio": null, "projects_count": 0, "devlogs_count": 0, "votes_count": 0, "ships_count": 0, "projects": [], "coding_time_seconds": 178, "coding_time_seconds_today": 0, "balance": "You need to have a pocket watcher badge to view this.", "badges": [], "created_at": "2025-06-18T23:58:12.733-04:00", "updated_at": "2025-07-03T19:51:15.826-04:00", "avatar": "https://secure.gravatar.com/avatar/7c98c1e56bafc2c881301a7001ff86e2.jpg?s=512&d=https%3A%2F%2Fa.slack-edge.com%2Fdf10d%2Fimg%2Favatars%2Fava_0009-512.png", "custom_css": null}, {"id": 9251, "slack_id": "U091YGF6L3G", "display_name": "Harshad", "bio": null, "projects_count": 1, "devlogs_count": 8, "votes_count": 3, "ships_count": 1, "projects": [{"id": 1817, "title": "fishnapped", "devlogs_count": 8, "created_at": "2025-06-19T10:36:50.579-04:00"}], "coding_time_seconds": 26960, "coding_time_seconds_today": 0, "balance": "You need to have a pocket watcher badge to view this.", "badges": [{"name": "Maiden Voyage", "text": "you shipped your first project! the journey begins...", "icon": "\ud83d\udea2"}], "created_at": "2025-06-19T00:04:34.116-04:00", "updated_at": "2025-09-10T22:55:44.469-04:00", "avatar": "https://secure.gravatar.com/avatar/8adaf69f2f3776b6df02cd6a802a1b4b.jpg?s=512&d=https%3A%2F%2Fa.slack-edge.com%2Fdf10d%2Fimg%2Favatars%2Fava_0018-512.png", "custom_css": null}, {"id": 9252, "slack_id": "U0924M5JCGJ", "display_name": "RITIK KUMAR", "bio": null, "projects_count": 0, "devlogs_count": 0, "votes_count": 0, "ships_count": 0, "projects": [], "coding_time_seconds": 0, "coding_time_seconds_today": 0, "balance": "You need to have a pocket watcher badge to view this.", "badges": [], "created_at": "2025-06-19T00:05:30.868-04:00", "updated_at": "2025-07-03T21:47:29.733-04:00", "avatar": "https://avatars.slack-edge.com/2025-06-18/9066581077574_d49d72a84c8cd894411f_original.png", "custom_css": null}, {"id": 9253, "slack_id": "U091YCSF3EF", "display_name": "HAck QUad", "bio": null, "projects_count": 1, "devlogs_count": 1, "votes_count": 0, "ships_count": 0, "projects": [{"id": 12752, "title": "pakman", "devlogs_count": 1, "created_at": "2025-09-02T00:35:37.333-04:00"}], "coding_time_seconds": 600, "coding_time_seconds_today": 0, "balance": "You need to have a pocket watcher badge to view this.", "badges": [], "created_at": "2025-06-19T00:06:21.353-04:00", "updated_at": "2025-08-28T09:46:31.679-04:00", "avatar": "https://secure.gravatar.com/avatar/03e8c33fb8f056cea5b14b26a116c802.jpg?s=512&d=https%3A%2F%2Fa.slack-edge.com%2Fdf10d%2Fimg%2Favatars%2Fava_0005-512.png", "custom_css": null}, {"id": 9254, "slack_id": "U0923FS6YCD", "display_name": "Injamamul Haq", "bio": null, "projects_count": 0, "devlogs_count": 0, "votes_count": 0, "ships_count": 0, "projects": [], "coding_time_seconds": 0, "coding_time_seconds_today": 0, "balance": "You need to have a pocket watcher badge to view this.", "badges": [], "created_at": "2025-06-19T00:06:42.255-04:00", "updated_at": "2025-07-03T19:51:16.512-04:00", "avatar": "https://secure.gravatar.com/avatar/05cd266d78b4e3d8bbe7311bcc67d024.jpg?s=512&d=https%3A%2F%2Fa.slack-edge.com%2Fdf10d%2Fimg%2Favatars%2Fava_0009-512.png", "custom_css": null}, {"id": 9255, "slack_id": "U091YGRUW9L", "display_name": "Ratnajeet Patil", "bio": null, "projects_count": 0, "devlogs_count": 0, "votes_count": 0, "ships_count": 0, "projects": [], "coding_time_seconds": 0, "coding_time_seconds_today": 0, "balance": "You need to have a pocket watcher badge to view this.", "badges": [], "created_at": "2025-06-19T00:07:07.267-04:00", "updated_at": "2025-07-05T08:10:40.169-04:00", "avatar": "https://secure.gravatar.com/avatar/c7cc0986d30321b45fd25e0f32130ede.jpg?s=512&d=https%3A%2F%2Fa.slack-edge.com%2Fdf10d%2Fimg%2Favatars%2Fava_0012-512.png", "custom_css": null}, {"id": 9256, "slack_id": "U092GFG8A3B", "display_name": "Aarush Gurram", "bio": null, "projects_count": 0, "devlogs_count": 0, "votes_count": 0, "ships_count": 0, "projects": [], "coding_time_seconds": 0, "coding_time_seconds_today": 0, "balance": "You need to have a pocket watcher badge to view this.", "badges": [], "created_at": "2025-06-19T00:07:37.718-04:00", "updated_at": "2025-07-03T19:51:16.919-04:00", "avatar": "https://secure.gravatar.com/avatar/8a4ea6935ea1fd6e3a38ba5e3f3f5304.jpg?s=512&d=https%3A%2F%2Fa.slack-edge.com%2Fdf10d%2Fimg%2Favatars%2Fava_0017-512.png", "custom_css": null}, {"id": 9257, "slack_id": "U09254U8CP6", "display_name": "rajan", "bio": null, "projects_count": 0, "devlogs_count": 0, "votes_count": 0, "ships_count": 0, "projects": [], "coding_time_seconds": 4742, "coding_time_seconds_today": 0, "balance": "You need to have a pocket watcher badge to view this.", "badges": [], "created_at": "2025-06-19T00:07:40.247-04:00", "updated_at": "2025-07-03T19:51:17.190-04:00", "avatar": "https://secure.gravatar.com/avatar/b20fa899719c25150fe07cea46cb848f.jpg?s=512&d=https%3A%2F%2Fa.slack-edge.com%2Fdf10d%2Fimg%2Favatars%2Fava_0019-512.png", "custom_css": null}, {"id": 9258, "slack_id": "U092E48VA5N", "display_name": "TechyKunj", "bio": null, "projects_count": 0, "devlogs_count": 0, "votes_count": 0, "ships_count": 0, "projects": [], "coding_time_seconds": 0, "coding_time_seconds_today": 0, "balance": "You need to have a pocket watcher badge to view this.", "badges": [], "created_at": "2025-06-19T00:09:56.867-04:00", "updated_at": "2025-07-03T19:51:17.458-04:00", "avatar": "https://secure.gravatar.com/avatar/287db22d239eefce59878aa2c8c23819.jpg?s=512&d=https%3A%2F%2Fa.slack-edge.com%2Fdf10d%2Fimg%2Favatars%2Fava_0000-512.png", "custom_css": null}, {"id": 9259, "slack_id": "U091PUTFB0F", "display_name": "Bittu", "bio": null, "projects_count": 0, "devlogs_count": 0, "votes_count": 0, "ships_count": 0, "projects": [], "coding_time_seconds": 0, "coding_time_seconds_today": 0, "balance": "You need to have a pocket watcher badge to view this.", "badges": [], "created_at": "2025-06-19T00:13:11.172-04:00", "updated_at": "2025-07-03T19:51:17.938-04:00", "avatar": "https://secure.gravatar.com/avatar/9b857e6dad30df75309baa8d5f5cedf9.jpg?s=512&d=https%3A%2F%2Fa.slack-edge.com%2Fdf10d%2Fimg%2Favatars%2Fava_0023-512.png", "custom_css": null}, {"id": 9260, "slack_id": "U091PV4PZT9", "display_name": "Ashwaneeth HS", "bio": null, "projects_count": 0, "devlogs_count": 0, "votes_count": 0, "ships_count": 0, "projects": [], "coding_time_seconds": 113320, "coding_time_seconds_today": 0, "balance": "You need to have a pocket watcher badge to view this.", "badges": [], "created_at": "2025-06-19T00:14:15.460-04:00", "updated_at": "2025-07-03T21:59:31.840-04:00", "avatar": "https://avatars.slack-edge.com/2025-06-18/9071570372693_9a3da07ce9ff05149c04_original.png", "custom_css": null}], "pagination": {"page": 463, "pages": 1192, "count": 23828, "items": 20}}