{"users": [{"id": 9261, "slack_id": "U091YBMMP51", "display_name": "imran", "bio": null, "projects_count": 0, "devlogs_count": 0, "votes_count": 0, "ships_count": 0, "projects": [], "coding_time_seconds": 0, "coding_time_seconds_today": 0, "balance": "You need to have a pocket watcher badge to view this.", "badges": [], "created_at": "2025-06-19T00:17:30.296-04:00", "updated_at": "2025-07-03T19:51:18.356-04:00", "avatar": "https://secure.gravatar.com/avatar/bfd28327ec17af3eb115dbf70cd3b106.jpg?s=512&d=https%3A%2F%2Fa.slack-edge.com%2Fdf10d%2Fimg%2Favatars%2Fava_0017-512.png", "custom_css": null}, {"id": 9262, "slack_id": "U091YDETGUB", "display_name": "Archit Jain", "bio": null, "projects_count": 0, "devlogs_count": 0, "votes_count": 0, "ships_count": 0, "projects": [], "coding_time_seconds": 0, "coding_time_seconds_today": 0, "balance": "You need to have a pocket watcher badge to view this.", "badges": [], "created_at": "2025-06-19T00:17:49.325-04:00", "updated_at": "2025-07-03T19:51:18.626-04:00", "avatar": "https://secure.gravatar.com/avatar/1fc57890e0d9fb0da06e04f49484a5fd.jpg?s=512&d=https%3A%2F%2Fa.slack-edge.com%2Fdf10d%2Fimg%2Favatars%2Fava_0007-512.png", "custom_css": null}, {"id": 9263, "slack_id": "U080PBCC4KH", "display_name": "GavinTheGreat19", "bio": null, "projects_count": 1, "devlogs_count": 5, "votes_count": 8, "ships_count": 1, "projects": [{"id": 11925, "title": "Music Metadata Manager", "devlogs_count": 5, "created_at": "2025-08-21T06:04:23.104-04:00"}], "coding_time_seconds": 26379, "coding_time_seconds_today": 0, "balance": "You need to have a pocket watcher badge to view this.", "badges": [{"name": "Maiden Voyage", "text": "you shipped your first project! the journey begins...", "icon": "\ud83d\udea2"}], "created_at": "2025-06-19T00:19:57.165-04:00", "updated_at": "2025-09-10T22:55:44.830-04:00", "avatar": "https://avatars.slack-edge.com/2024-12-25/8206962633191_a50a8c5cc0a9ab48acef_original.png", "custom_css": null}, {"id": 9264, "slack_id": "U091Q099YVD", "display_name": "Raffa van de Ketteru", "bio": null, "projects_count": 0, "devlogs_count": 0, "votes_count": 0, "ships_count": 0, "projects": [], "coding_time_seconds": 0, "coding_time_seconds_today": 0, "balance": "You need to have a pocket watcher badge to view this.", "badges": [], "created_at": "2025-06-19T00:20:56.074-04:00", "updated_at": "2025-07-05T02:10:23.042-04:00", "avatar": "https://secure.gravatar.com/avatar/1aa77c96fee53196cb2a0ef36477ab30.jpg?s=512&d=https%3A%2F%2Fa.slack-edge.com%2Fdf10d%2Fimg%2Favatars%2Fava_0014-512.png", "custom_css": null}, {"id": 9265, "slack_id": "U0924NGEFC2", "display_name": "Asaraf Ali A", "bio": null, "projects_count": 0, "devlogs_count": 0, "votes_count": 0, "ships_count": 0, "projects": [], "coding_time_seconds": 0, "coding_time_seconds_today": 0, "balance": "You need to have a pocket watcher badge to view this.", "badges": [], "created_at": "2025-06-19T00:21:55.674-04:00", "updated_at": "2025-07-03T19:51:19.307-04:00", "avatar": "https://secure.gravatar.com/avatar/94ceca57ddb217a0602ecc1b1d72a606.jpg?s=512&d=https%3A%2F%2Fa.slack-edge.com%2Fdf10d%2Fimg%2Favatars%2Fava_0010-512.png", "custom_css": null}, {"id": 9266, "slack_id": "U091Q0K6PHD", "display_name": "Pranav Mulpuri", "bio": null, "projects_count": 1, "devlogs_count": 2, "votes_count": 1, "ships_count": 0, "projects": [{"id": 3732, "title": "Reflex clicker", "devlogs_count": 2, "created_at": "2025-06-25T12:25:29.564-04:00"}], "coding_time_seconds": 22114, "coding_time_seconds_today": 0, "balance": "You need to have a pocket watcher badge to view this.", "badges": [], "created_at": "2025-06-19T00:24:46.731-04:00", "updated_at": "2025-07-03T19:51:19.566-04:00", "avatar": "https://secure.gravatar.com/avatar/d0820c002846b7a528d4a4c900ab8b56.jpg?s=512&d=https%3A%2F%2Fa.slack-edge.com%2Fdf10d%2Fimg%2Favatars%2Fava_0008-512.png", "custom_css": null}, {"id": 9267, "slack_id": "U08U2DV75B8", "display_name": "Zainab", "bio": null, "projects_count": 0, "devlogs_count": 0, "votes_count": 0, "ships_count": 0, "projects": [], "coding_time_seconds": 0, "coding_time_seconds_today": 0, "balance": "You need to have a pocket watcher badge to view this.", "badges": [], "created_at": "2025-06-19T00:26:43.312-04:00", "updated_at": "2025-07-05T02:10:23.247-04:00", "avatar": "https://avatars.slack-edge.com/2025-06-19/9061618171255_798486c54fef8b424a5d_original.jpg", "custom_css": null}, {"id": 9268, "slack_id": "U0923GGBGKE", "display_name": "Sumanyu Aggarwal", "bio": null, "projects_count": 1, "devlogs_count": 0, "votes_count": 1, "ships_count": 0, "projects": [{"id": 1717, "title": "LangChat", "devlogs_count": 0, "created_at": "2025-06-19T04:48:29.479-04:00"}], "coding_time_seconds": 11004, "coding_time_seconds_today": 0, "balance": "You need to have a pocket watcher badge to view this.", "badges": [], "created_at": "2025-06-19T00:27:27.227-04:00", "updated_at": "2025-07-03T19:51:20.001-04:00", "avatar": "https://secure.gravatar.com/avatar/e048b725b23e2453f211e0c7bcf7bbe5.jpg?s=512&d=https%3A%2F%2Fa.slack-edge.com%2Fdf10d%2Fimg%2Favatars%2Fava_0024-512.png", "custom_css": null}, {"id": 9269, "slack_id": "U091YJDVAKG", "display_name": "Alejandro Camarena Castro", "bio": null, "projects_count": 0, "devlogs_count": 0, "votes_count": 0, "ships_count": 0, "projects": [], "coding_time_seconds": 0, "coding_time_seconds_today": 0, "balance": "You need to have a pocket watcher badge to view this.", "badges": [], "created_at": "2025-06-19T00:27:30.171-04:00", "updated_at": "2025-07-03T19:51:20.268-04:00", "avatar": "https://secure.gravatar.com/avatar/1a33d945e05fc3aaf669c5a165964c84.jpg?s=512&d=https%3A%2F%2Fa.slack-edge.com%2Fdf10d%2Fimg%2Favatars%2Fava_0011-512.png", "custom_css": null}, {"id": 9270, "slack_id": "U092HK7GU9X", "display_name": "Daniel B", "bio": null, "projects_count": 0, "devlogs_count": 0, "votes_count": 0, "ships_count": 0, "projects": [], "coding_time_seconds": 67344, "coding_time_seconds_today": 0, "balance": "You need to have a pocket watcher badge to view this.", "badges": [], "created_at": "2025-06-19T00:32:35.624-04:00", "updated_at": "2025-07-03T19:51:20.541-04:00", "avatar": "https://secure.gravatar.com/avatar/9dc0b57b2a39206ff15be92c21514596.jpg?s=512&d=https%3A%2F%2Fa.slack-edge.com%2Fdf10d%2Fimg%2Favatars%2Fava_0018-512.png", "custom_css": null}, {"id": 9271, "slack_id": "U092HK6TWSD", "display_name": "Leo B", "bio": null, "projects_count": 0, "devlogs_count": 0, "votes_count": 0, "ships_count": 0, "projects": [], "coding_time_seconds": 156, "coding_time_seconds_today": 0, "balance": "You need to have a pocket watcher badge to view this.", "badges": [], "created_at": "2025-06-19T00:32:36.592-04:00", "updated_at": "2025-09-12T19:59:04.037-04:00", "avatar": "https://avatars.slack-edge.com/2025-06-21/9075776395235_0ca49616a51eae81be7c_original.jpg", "custom_css": null}, {"id": 9272, "slack_id": "U091YK68R0E", "display_name": "MANOJKUMAR A", "bio": null, "projects_count": 0, "devlogs_count": 0, "votes_count": 0, "ships_count": 0, "projects": [], "coding_time_seconds": 0, "coding_time_seconds_today": 0, "balance": "You need to have a pocket watcher badge to view this.", "badges": [], "created_at": "2025-06-19T00:33:34.153-04:00", "updated_at": "2025-07-03T19:51:21.686-04:00", "avatar": "https://secure.gravatar.com/avatar/ed260af2d6c47c40d67b02944abaa7ce.jpg?s=512&d=https%3A%2F%2Fa.slack-edge.com%2Fdf10d%2Fimg%2Favatars%2Fava_0014-512.png", "custom_css": null}, {"id": 9273, "slack_id": "U091YF7FBR9", "display_name": "Lakmana Thabrew", "bio": null, "projects_count": 0, "devlogs_count": 0, "votes_count": 0, "ships_count": 0, "projects": [], "coding_time_seconds": 0, "coding_time_seconds_today": 0, "balance": "You need to have a pocket watcher badge to view this.", "badges": [], "created_at": "2025-06-19T00:34:22.157-04:00", "updated_at": "2025-07-03T19:51:21.969-04:00", "avatar": "https://secure.gravatar.com/avatar/67c03b5ab6dbf00832e3f3f36280df8e.jpg?s=512&d=https%3A%2F%2Fa.slack-edge.com%2Fdf10d%2Fimg%2Favatars%2Fava_0003-512.png", "custom_css": null}, {"id": 9274, "slack_id": "U092H06ECM7", "display_name": "Yourui", "bio": null, "projects_count": 1, "devlogs_count": 3, "votes_count": 11, "ships_count": 1, "projects": [{"id": 1736, "title": "Multitasking Coding Agent", "devlogs_count": 3, "created_at": "2025-06-19T06:03:56.975-04:00"}], "coding_time_seconds": 157491, "coding_time_seconds_today": 0, "balance": "You need to have a pocket watcher badge to view this.", "badges": [{"name": "Maiden Voyage", "text": "you shipped your first project! the journey begins...", "icon": "\ud83d\udea2"}], "created_at": "2025-06-19T00:35:27.054-04:00", "updated_at": "2025-09-10T22:55:45.122-04:00", "avatar": "https://avatars.slack-edge.com/2025-07-10/9172322910214_931798a047339815c860_original.jpg", "custom_css": null}, {"id": 9275, "slack_id": "U091YK77X1U", "display_name": "Prathamesh Yadav", "bio": null, "projects_count": 0, "devlogs_count": 0, "votes_count": 0, "ships_count": 0, "projects": [], "coding_time_seconds": 0, "coding_time_seconds_today": 0, "balance": "You need to have a pocket watcher badge to view this.", "badges": [], "created_at": "2025-06-19T00:36:12.424-04:00", "updated_at": "2025-07-03T19:51:22.512-04:00", "avatar": "https://avatars.slack-edge.com/2025-06-18/9071634884277_d58fceb462b501b25fd0_original.png", "custom_css": null}, {"id": 9276, "slack_id": "U0923J943L5", "display_name": "SSKS", "bio": null, "projects_count": 0, "devlogs_count": 0, "votes_count": 0, "ships_count": 0, "projects": [], "coding_time_seconds": 1725, "coding_time_seconds_today": 0, "balance": "You need to have a pocket watcher badge to view this.", "badges": [], "created_at": "2025-06-19T00:38:14.465-04:00", "updated_at": "2025-07-03T19:51:22.803-04:00", "avatar": "https://secure.gravatar.com/avatar/bfdccfa55300415aaae1e102ccf3c69e.jpg?s=512&d=https%3A%2F%2Fa.slack-edge.com%2Fdf10d%2Fimg%2Favatars%2Fava_0014-512.png", "custom_css": null}, {"id": 9277, "slack_id": "U0923JTAJF7", "display_name": "AneFaiz", "bio": null, "projects_count": 0, "devlogs_count": 0, "votes_count": 0, "ships_count": 0, "projects": [], "coding_time_seconds": 0, "coding_time_seconds_today": 0, "balance": "You need to have a pocket watcher badge to view this.", "badges": [], "created_at": "2025-06-19T00:42:01.158-04:00", "updated_at": "2025-07-03T19:51:23.093-04:00", "avatar": "https://secure.gravatar.com/avatar/dceaa787539764b0ca9f7a9b7c9a14e8.jpg?s=512&d=https%3A%2F%2Fa.slack-edge.com%2Fdf10d%2Fimg%2Favatars%2Fava_0011-512.png", "custom_css": null}, {"id": 9278, "slack_id": "U091HCC0QKZ", "display_name": "Sahil Gupta", "bio": null, "projects_count": 2, "devlogs_count": 1, "votes_count": 0, "ships_count": 0, "projects": [{"id": 1669, "title": "Movie App", "devlogs_count": 1, "created_at": "2025-06-19T01:42:05.945-04:00"}, {"id": 1679, "title": "Coding", "devlogs_count": 0, "created_at": "2025-06-19T02:33:19.019-04:00"}], "coding_time_seconds": 15678, "coding_time_seconds_today": 0, "balance": "You need to have a pocket watcher badge to view this.", "badges": [], "created_at": "2025-06-19T00:43:01.190-04:00", "updated_at": "2025-07-03T19:51:23.364-04:00", "avatar": "https://secure.gravatar.com/avatar/c6d2157fd425d06ecbf368bb806f4851.jpg?s=512&d=https%3A%2F%2Fa.slack-edge.com%2Fdf10d%2Fimg%2Favatars%2Fava_0001-512.png", "custom_css": null}, {"id": 9279, "slack_id": "U09281XV1ND", "display_name": "Sumit Dwivedi", "bio": null, "projects_count": 0, "devlogs_count": 0, "votes_count": 0, "ships_count": 0, "projects": [], "coding_time_seconds": 0, "coding_time_seconds_today": 0, "balance": "You need to have a pocket watcher badge to view this.", "badges": [], "created_at": "2025-06-19T00:44:45.165-04:00", "updated_at": "2025-07-03T19:51:23.653-04:00", "avatar": "https://secure.gravatar.com/avatar/998bcd2d38a0bf4b8273f1a31a3b4547.jpg?s=512&d=https%3A%2F%2Fa.slack-edge.com%2Fdf10d%2Fimg%2Favatars%2Fava_0020-512.png", "custom_css": null}, {"id": 9280, "slack_id": "U091YKZLN86", "display_name": "Faizan", "bio": null, "projects_count": 0, "devlogs_count": 0, "votes_count": 0, "ships_count": 0, "projects": [], "coding_time_seconds": 0, "coding_time_seconds_today": 0, "balance": "You need to have a pocket watcher badge to view this.", "badges": [], "created_at": "2025-06-19T00:46:18.146-04:00", "updated_at": "2025-07-03T19:51:23.915-04:00", "avatar": "https://secure.gravatar.com/avatar/de831e0898169324e4010b7a571ccd07.jpg?s=512&d=https%3A%2F%2Fa.slack-edge.com%2Fdf10d%2Fimg%2Favatars%2Fava_0008-512.png", "custom_css": null}], "pagination": {"page": 464, "pages": 1192, "count": 23828, "items": 20}}