{"users": [{"id": 9281, "slack_id": "U0924QA0JUS", "display_name": "Abhishek", "bio": null, "projects_count": 0, "devlogs_count": 0, "votes_count": 0, "ships_count": 0, "projects": [], "coding_time_seconds": 0, "coding_time_seconds_today": 0, "balance": "You need to have a pocket watcher badge to view this.", "badges": [], "created_at": "2025-06-19T00:47:20.891-04:00", "updated_at": "2025-07-03T21:47:31.932-04:00", "avatar": "https://secure.gravatar.com/avatar/1eb094ffaee34171a0e1068c8dcfba84.jpg?s=512&d=https%3A%2F%2Fa.slack-edge.com%2Fdf10d%2Fimg%2Favatars%2Fava_0024-512.png", "custom_css": null}, {"id": 9282, "slack_id": "U0923JP623X", "display_name": "innu", "bio": null, "projects_count": 0, "devlogs_count": 0, "votes_count": 0, "ships_count": 0, "projects": [], "coding_time_seconds": 0, "coding_time_seconds_today": 0, "balance": "You need to have a pocket watcher badge to view this.", "badges": [], "created_at": "2025-06-19T00:47:25.407-04:00", "updated_at": "2025-07-03T19:51:24.317-04:00", "avatar": "https://secure.gravatar.com/avatar/0ce41c4fd30e5791f9836e48b5fc6653.jpg?s=512&d=https%3A%2F%2Fa.slack-edge.com%2Fdf10d%2Fimg%2Favatars%2Fava_0015-512.png", "custom_css": null}, {"id": 9283, "slack_id": "U091Q2MS3T9", "display_name": "Korange", "bio": "i want macbook!!", "projects_count": 6, "devlogs_count": 52, "votes_count": 27, "ships_count": 1, "projects": [{"id": 2376, "title": "Butabako", "devlogs_count": 1, "created_at": "2025-06-20T21:29:54.803-04:00"}, {"id": 2854, "title": "Grassguardian (Tentative name)", "devlogs_count": 1, "created_at": "2025-06-22T08:28:38.094-04:00"}, {"id": 10649, "title": "Rakuten Ichiba Header Collapse", "devlogs_count": 0, "created_at": "2025-08-09T09:41:37.930-04:00"}, {"id": 12810, "title": "SSH Social", "devlogs_count": 2, "created_at": "2025-09-03T03:19:39.893-04:00"}, {"id": 2818, "title": "Citronote 3 \ud83d\udcdd\u2728\ufe0f", "devlogs_count": 40, "created_at": "2025-06-22T06:30:12.413-04:00"}, {"id": 4479, "title": "Korange's Lab / Relaytale", "devlogs_count": 8, "created_at": "2025-06-30T07:23:28.950-04:00"}], "coding_time_seconds": 911117, "coding_time_seconds_today": 1635, "balance": "You need to have a pocket watcher badge to view this.", "badges": [{"name": "Maiden Voyage", "text": "you shipped your first project! the journey begins...", "icon": "\ud83d\udea2"}, {"name": "Graphic Design is My Passion", "text": "Oh God How Did This Get Here I Am Not Good With Computer", "icon": "\ud83c\udfa8"}], "created_at": "2025-06-19T00:48:16.556-04:00", "updated_at": "2025-09-10T22:55:45.352-04:00", "avatar": "https://avatars.slack-edge.com/2025-06-18/9066567347619_3d7056dc31009870c2b1_original.webp", "custom_css": "/* \u57fa\u672c\u8a2d\u5b9a */\r\nhtml, body {\r\n  height: 100% !important;\r\n  margin: 0 !important;\r\n  border-radius: 64px !important;\r\n  overflow: hidden !important;\r\n  perspective: 1500px !important; /* 3D\u52b9\u679c\u306e\u5f37\u3055 */\r\n}\r\n\r\nhtml {\r\n  background-image: url(https://u.cubeupload.com/K_Orange/room.png) !important;\r\n  background-repeat: no-repeat !important;\r\n  background-size: cover !important;\r\n}\r\n\r\nbody {\r\n  transform-style: preserve-3d !important;\r\n  transition: transform 1.25s ease !important; /* \u30a2\u30cb\u30e1\u30fc\u30b7\u30e7\u30f3 */\r\n  background: rgba(255, 255, 255, 0.2) !important;\r\n  border-radius: 16px !important;\r\n  box-shadow: 0 4px 30px rgba(0, 0, 0, 0.1), inset 0 4px 16px rgba(0, 0, 0, 0.3) !important;\r\n  BAcKdroP-filter: blur(5px) !important;\r\n  -webkit-backdrop-filter: blur(5px) !important;\r\n  border: 24px solid rgba(255, 255, 255, 0.5) !important;\r\n  color: #00000099 !important;\r\n}\r\n\r\n.som-link-content, \r\nbody > div.sinkening-container > div:nth-child(2) > div > div > div > div > div.flex.-mt-\\[1px\\].relative.h-full > div.bg-linear-to-b.from-\\[\\#E6D4BE\\].to-\\[\\#F6DBBA\\].h-full.w-full.flex-1 > div > div.flex.flex-col.gap-4 > div > div.flex.items-center.w-full > div {\r\n  color: #00000055 !important;\r\n}\r\n\r\n.card-content > * > * >*, \r\n.card-content > *, \r\n.text-som-dark, \r\nspan {\r\n  color: #000000aa !important;\r\n}\r\n\r\nbody::before {\r\n  background: rgba(255, 255, 255, 0.2) !important;\r\n  backdrop-filter: blur(5px) !important;\r\nwidth: 10000000px;\r\n    height: 100000000px;\r\n}\r\n\r\nhtml::before {\r\n  content: \"\" !important;\r\n  position: fixed !important;\r\n  opacity: 0.5 !important;\r\n  text-shadow: 0 2px 16px rgba(0, 0, 0, 0.5) !important;\r\n  top: -100 !important;\r\n  text-align: center !important;\r\n  width: 100vw !important;\r\n  padding-top: 58px !important;\r\n  font-size: 40px !important;\r\n}\r\n\r\nbody > div.sinkening-container > div:nth-child(2) > div > div > div > div img {\r\n  display: none !important;\r\n}\r\n\r\nbody > div.sinkening-container > div:nth-child(2) > div > div > div > div > div.flex.-mt-\\[1px\\].relative.h-full > div.bg-linear-to-b.from-\\[\\#E6D4BE\\].to-\\[\\#F6DBBA\\].h-full.w-full.flex-1 {\r\n  background: none !important;\r\n}\r\n\r\nsvg {\r\n  opacity: 0.25 !important;\r\n}\r\n\r\npath {\r\n  fill: black !important;\r\n  backdrop-filter: blur(5px) !important;\r\n  box-shadow: 0 2px 16px rgba(0, 0, 0, 0.5) !important;\r\n}\r\n\r\nsvg:hover {\r\n  opacity: 0.5 !important;\r\n  transition-duration: 200ms !important;\r\n}\r\n\r\n/* \u30d5\u30a9\u30fc\u30ab\u30b9\u6642\u306e\u56de\u8ee2\u52b9\u679c */\r\n.focusable:focus {\r\n  outline: none !important;\r\n}\r\n\r\nbody > div.sinkening-container > div:nth-child(2) > div > div > div > div > div.flex.-mt-\\[1px\\].relative.h-full > div.w-\\[46px\\].h-full {\r\n  width: 10px !important;\r\n}\r\n\r\n/* \u8981\u7d20A\u304c\u30d5\u30a9\u30fc\u30ab\u30b9\u3055\u308c\u305f\u5834\u5408\u306e\u56de\u8ee2 */\r\nbody {\r\n  transform: translateZ(-290px) rotateX(30deg) !important;\r\n}\r\n\r\nbody:has(.card-with-gradient:hover) {\r\n  transform: \r\n    translateZ(100px)\r\n    translateX(150px)\r\n    rotateY(-30deg)\r\n    rotateX(10deg) !important;\r\n}\r\n\r\n/* \u8981\u7d20B\u304c\u30d5\u30a9\u30fc\u30ab\u30b9\u3055\u308c\u305f\u5834\u5408\u306e\u56de\u8ee2 */\r\nbody:has(div.sinkening-container > div:nth-child(2) > div > div > div > div:hover) {\r\n  transform:\r\n    translateX(100px)\r\n    translateY(50px)\r\n    translateZ(100px)\r\n    rotateY(-15deg)\r\n    rotateX(10deg) !important;\r\n}\r\n\r\nbody:has(#activities-list:hover) {\r\n  transform:\r\n    translateX(-20px)\r\n    translateY(50px)\r\n    translateZ(50px) \r\n    rotateY(12deg) \r\n    rotateX(-15deg) !important;\r\n}\r\n\r\ndiv {\r\n  overflow: visible !important;\r\n}\r\n\r\n.card-with-gradient {\r\n  background: rgba(255, 255, 255, 0.2) !important;\r\n  border-radius: 16px !important;\r\n  box-shadow: 0 4px 30px rgba(0, 0, 0, 0.2) !important;\r\n  backdrop-filter: blur(5px) !important;\r\n  -webkit-backdrop-filter: blur(5px) !important;\r\n  border: 2px solid rgba(255, 255, 255, 0.3) !important;\r\n  z-index: 99999 !important;\r\n}\r\n\r\nimg.w-full.object-contain {\r\n  background: rgba(255, 255, 255, 0) !important;\r\n  box-shadow: 0 4px 30px rgba(0, 0, 0, 0.2) !important;\r\n  backdrop-filter: blur(5px) !important;\r\n  -webkit-backdrop-filter: blur(5px) !important;\r\n  border: 2px solid rgba(255, 255, 255, 0.3) !important;\r\n  z-index: 99999 !important;\r\n}\r\n\r\n.bg-som-highlight {\r\n  display: none !important;\r\n}\r\n\r\nimg.w-full.object-contain.cursor-pointer.hover:opacity-90.transition-opacity.rounded-lg.max-h-96 {\r\n  background: rgba(255, 255, 255, 0) !important;\r\n  box-shadow: 0 4px 30px rgba(0, 0, 0, 0.2) !important;\r\n  backdrop-filter: blur(5px) !important;\r\n  -webkit-backdrop-filter: blur(5px) !important;\r\n  border: 2px solid rgba(255, 255, 255, 0.3) !important;\r\n  z-index: 99999 !important;\r\n}\r\n\r\n.sinkening-container {\r\n  transform: none !important;\r\n}\r\n\r\n.floating-balloon-container {\r\n  display: none;\r\n}\r\n\r\nbody > div.w-full.overflow-hidden {\r\n  display: none;\r\n}\r\n\r\n*:not(img,html) {\r\n  overflow: visible;\r\n}\r\n\r\nbody {\r\n  overflow-y: scroll;\r\n}"}, {"id": 9284, "slack_id": "U079BVAEMSB", "display_name": "Mihir", "bio": null, "projects_count": 0, "devlogs_count": 0, "votes_count": 0, "ships_count": 0, "projects": [], "coding_time_seconds": 3416, "coding_time_seconds_today": 0, "balance": "You need to have a pocket watcher badge to view this.", "badges": [], "created_at": "2025-06-19T00:48:36.495-04:00", "updated_at": "2025-07-03T19:51:24.846-04:00", "avatar": "https://secure.gravatar.com/avatar/72553a150aa5ae201e549faeab42c493.jpg?s=512&d=https%3A%2F%2Fa.slack-edge.com%2Fdf10d%2Fimg%2Favatars%2Fava_0015-512.png", "custom_css": null}, {"id": 9285, "slack_id": "U0924QH6UJW", "display_name": "Maddy", "bio": null, "projects_count": 0, "devlogs_count": 0, "votes_count": 0, "ships_count": 0, "projects": [], "coding_time_seconds": 1401, "coding_time_seconds_today": 0, "balance": "You need to have a pocket watcher badge to view this.", "badges": [], "created_at": "2025-06-19T00:48:41.039-04:00", "updated_at": "2025-07-03T19:51:25.108-04:00", "avatar": "https://secure.gravatar.com/avatar/4cb2bfd48a392b46d6b31130f4934342.jpg?s=512&d=https%3A%2F%2Fa.slack-edge.com%2Fdf10d%2Fimg%2Favatars%2Fava_0010-512.png", "custom_css": null}, {"id": 9286, "slack_id": "U0923KY6GDB", "display_name": "Levi", "bio": null, "projects_count": 1, "devlogs_count": 1, "votes_count": 0, "ships_count": 1, "projects": [{"id": 1688, "title": "Bee movie printable", "devlogs_count": 1, "created_at": "2025-06-19T02:58:49.484-04:00"}], "coding_time_seconds": 2831, "coding_time_seconds_today": 0, "balance": "You need to have a pocket watcher badge to view this.", "badges": [{"name": "Maiden Voyage", "text": "you shipped your first project! the journey begins...", "icon": "\ud83d\udea2"}], "created_at": "2025-06-19T00:54:17.131-04:00", "updated_at": "2025-09-10T22:55:45.426-04:00", "avatar": "https://secure.gravatar.com/avatar/4a5c4d1f72258793126475d930e7f498.jpg?s=512&d=https%3A%2F%2Fa.slack-edge.com%2Fdf10d%2Fimg%2Favatars%2Fava_0025-512.png", "custom_css": null}, {"id": 9287, "slack_id": "U0924RDU0MQ", "display_name": "cpk", "bio": null, "projects_count": 0, "devlogs_count": 0, "votes_count": 0, "ships_count": 0, "projects": [], "coding_time_seconds": 35256, "coding_time_seconds_today": 0, "balance": "You need to have a pocket watcher badge to view this.", "badges": [], "created_at": "2025-06-19T00:57:01.425-04:00", "updated_at": "2025-07-03T19:51:25.639-04:00", "avatar": "https://avatars.slack-edge.com/2025-06-18/9072874088226_53bc5e7c7674eae9c7cf_original.png", "custom_css": null}, {"id": 9288, "slack_id": "U091YH7K45R", "display_name": "cerryol", "bio": null, "projects_count": 0, "devlogs_count": 0, "votes_count": 0, "ships_count": 0, "projects": [], "coding_time_seconds": 327, "coding_time_seconds_today": 0, "balance": "You need to have a pocket watcher badge to view this.", "badges": [], "created_at": "2025-06-19T00:59:30.718-04:00", "updated_at": "2025-07-03T21:59:33.811-04:00", "avatar": "https://secure.gravatar.com/avatar/bdfcaf068b8b69802763ac0b1bb99a7a.jpg?s=512&d=https%3A%2F%2Fa.slack-edge.com%2Fdf10d%2Fimg%2Favatars%2Fava_0008-512.png", "custom_css": null}, {"id": 9289, "slack_id": "U092TE8P116", "display_name": "Kevin Onu", "bio": null, "projects_count": 1, "devlogs_count": 1, "votes_count": 0, "ships_count": 0, "projects": [{"id": 3233, "title": "Scribbly", "devlogs_count": 1, "created_at": "2025-06-23T14:14:53.116-04:00"}], "coding_time_seconds": 23848, "coding_time_seconds_today": 0, "balance": "You need to have a pocket watcher badge to view this.", "badges": [], "created_at": "2025-06-19T01:02:36.261-04:00", "updated_at": "2025-07-04T08:25:10.588-04:00", "avatar": "https://avatars.slack-edge.com/2025-06-18/9085753889073_19e3c40c179038d41716_original.png", "custom_css": null}, {"id": 9290, "slack_id": "U0918DG699V", "display_name": "Zoe Cheng", "bio": null, "projects_count": 1, "devlogs_count": 3, "votes_count": 0, "ships_count": 0, "projects": [{"id": 2209, "title": "Debt Collector", "devlogs_count": 3, "created_at": "2025-06-20T12:40:43.604-04:00"}], "coding_time_seconds": 22331, "coding_time_seconds_today": 0, "balance": "You need to have a pocket watcher badge to view this.", "badges": [], "created_at": "2025-06-19T01:02:58.984-04:00", "updated_at": "2025-07-03T19:51:26.235-04:00", "avatar": "https://avatars.slack-edge.com/2025-06-18/9066613923635_b31c26ed114bc9ea21d9_original.png", "custom_css": null}, {"id": 9291, "slack_id": "U092TETFT5W", "display_name": "Ariv Diggi", "bio": null, "projects_count": 1, "devlogs_count": 0, "votes_count": 0, "ships_count": 0, "projects": [{"id": 2673, "title": "The Hackpad", "devlogs_count": 0, "created_at": "2025-06-21T16:21:31.950-04:00"}], "coding_time_seconds": 34685, "coding_time_seconds_today": 0, "balance": "You need to have a pocket watcher badge to view this.", "badges": [], "created_at": "2025-06-19T01:05:22.563-04:00", "updated_at": "2025-07-03T21:47:32.686-04:00", "avatar": "https://secure.gravatar.com/avatar/cf3d085155f4c7ad947a23e4c2b72d10.jpg?s=512&d=https%3A%2F%2Fa.slack-edge.com%2Fdf10d%2Fimg%2Favatars%2Fava_0008-512.png", "custom_css": null}, {"id": 9292, "slack_id": "U092HN42Y2D", "display_name": "Kuldeep Patel", "bio": null, "projects_count": 0, "devlogs_count": 0, "votes_count": 0, "ships_count": 0, "projects": [], "coding_time_seconds": 0, "coding_time_seconds_today": 0, "balance": "You need to have a pocket watcher badge to view this.", "badges": [], "created_at": "2025-06-19T01:06:32.155-04:00", "updated_at": "2025-07-03T19:51:27.089-04:00", "avatar": "https://secure.gravatar.com/avatar/463f19f1348da9e7f1746cf172f63425.jpg?s=512&d=https%3A%2F%2Fa.slack-edge.com%2Fdf10d%2Fimg%2Favatars%2Fava_0019-512.png", "custom_css": null}, {"id": 9293, "slack_id": "U0924QS1XB4", "display_name": "Lalit", "bio": null, "projects_count": 3, "devlogs_count": 0, "votes_count": 0, "ships_count": 0, "projects": [{"id": 1711, "title": "VibelyAI", "devlogs_count": 0, "created_at": "2025-06-19T04:25:07.826-04:00"}, {"id": 3834, "title": "Hashly AI", "devlogs_count": 0, "created_at": "2025-06-25T23:23:14.527-04:00"}, {"id": 2014, "title": "Ai Therapist", "devlogs_count": 0, "created_at": "2025-06-19T22:18:51.296-04:00"}], "coding_time_seconds": 63277, "coding_time_seconds_today": 0, "balance": "You need to have a pocket watcher badge to view this.", "badges": [], "created_at": "2025-06-19T01:06:35.649-04:00", "updated_at": "2025-07-03T19:51:27.346-04:00", "avatar": "https://secure.gravatar.com/avatar/349230d077ca5be6f582e38519a1a83b.jpg?s=512&d=https%3A%2F%2Fa.slack-edge.com%2Fdf10d%2Fimg%2Favatars%2Fava_0011-512.png", "custom_css": null}, {"id": 9294, "slack_id": "U092HNL16UR", "display_name": "B\u00e1lint Kondoray", "bio": null, "projects_count": 0, "devlogs_count": 0, "votes_count": 0, "ships_count": 0, "projects": [], "coding_time_seconds": 0, "coding_time_seconds_today": 0, "balance": "You need to have a pocket watcher badge to view this.", "badges": [], "created_at": "2025-06-19T01:11:40.457-04:00", "updated_at": "2025-07-03T19:51:27.612-04:00", "avatar": "https://avatars.slack-edge.com/2025-06-18/9095525254736_d14457865b60ba8bf567_original.jpg", "custom_css": null}, {"id": 9295, "slack_id": "U091YJ9G3SP", "display_name": "Jguevarag", "bio": null, "projects_count": 0, "devlogs_count": 0, "votes_count": 0, "ships_count": 0, "projects": [], "coding_time_seconds": 0, "coding_time_seconds_today": 0, "balance": "You need to have a pocket watcher badge to view this.", "badges": [], "created_at": "2025-06-19T01:11:56.192-04:00", "updated_at": "2025-07-03T19:51:27.897-04:00", "avatar": "https://secure.gravatar.com/avatar/063f3907011296258b51ed3d35dd26ce.jpg?s=512&d=https%3A%2F%2Fa.slack-edge.com%2Fdf10d%2Fimg%2Favatars%2Fava_0023-512.png", "custom_css": null}, {"id": 9296, "slack_id": "U092TB6BW48", "display_name": "Phito", "bio": null, "projects_count": 0, "devlogs_count": 0, "votes_count": 0, "ships_count": 0, "projects": [], "coding_time_seconds": 1793, "coding_time_seconds_today": 0, "balance": "You need to have a pocket watcher badge to view this.", "badges": [], "created_at": "2025-06-19T01:13:32.913-04:00", "updated_at": "2025-07-05T02:10:25.109-04:00", "avatar": "https://secure.gravatar.com/avatar/ab91e5c51ab6d5f6623113b9242555bf.jpg?s=512&d=https%3A%2F%2Fa.slack-edge.com%2Fdf10d%2Fimg%2Favatars%2Fava_0008-512.png", "custom_css": null}, {"id": 9297, "slack_id": "U091Y15FJ22", "display_name": "Myint Myat Pyae Sone", "bio": null, "projects_count": 0, "devlogs_count": 0, "votes_count": 0, "ships_count": 0, "projects": [], "coding_time_seconds": 47717, "coding_time_seconds_today": 0, "balance": "You need to have a pocket watcher badge to view this.", "badges": [], "created_at": "2025-06-19T01:13:47.643-04:00", "updated_at": "2025-07-03T19:51:28.300-04:00", "avatar": "https://avatars.slack-edge.com/2025-06-18/9095531229968_66144c2a10bb99deb5aa_original.jpg", "custom_css": null}, {"id": 9298, "slack_id": "U0924SWHLRY", "display_name": "\ub0b4\uba4b\uc73c\ub85c", "bio": null, "projects_count": 0, "devlogs_count": 0, "votes_count": 0, "ships_count": 0, "projects": [], "coding_time_seconds": 0, "coding_time_seconds_today": 0, "balance": "You need to have a pocket watcher badge to view this.", "badges": [], "created_at": "2025-06-19T01:14:45.171-04:00", "updated_at": "2025-07-03T19:51:28.571-04:00", "avatar": "https://secure.gravatar.com/avatar/8c9462fb7948d38284912e2021455234.jpg?s=512&d=https%3A%2F%2Fa.slack-edge.com%2Fdf10d%2Fimg%2Favatars%2Fava_0022-512.png", "custom_css": null}, {"id": 9299, "slack_id": "U0923UZ1NBU", "display_name": "Gus", "bio": null, "projects_count": 0, "devlogs_count": 0, "votes_count": 0, "ships_count": 0, "projects": [], "coding_time_seconds": 0, "coding_time_seconds_today": 0, "balance": "You need to have a pocket watcher badge to view this.", "badges": [], "created_at": "2025-06-19T01:15:37.099-04:00", "updated_at": "2025-07-03T19:51:28.838-04:00", "avatar": "https://secure.gravatar.com/avatar/198378429cb6267ad00c743d17ac7fca.jpg?s=512&d=https%3A%2F%2Fa.slack-edge.com%2Fdf10d%2Fimg%2Favatars%2Fava_0026-512.png", "custom_css": null}, {"id": 9300, "slack_id": "U091Q58P095", "display_name": "mahmoud", "bio": null, "projects_count": 0, "devlogs_count": 0, "votes_count": 0, "ships_count": 0, "projects": [], "coding_time_seconds": 24231, "coding_time_seconds_today": 0, "balance": "You need to have a pocket watcher badge to view this.", "badges": [], "created_at": "2025-06-19T01:16:43.390-04:00", "updated_at": "2025-07-24T19:22:01.595-04:00", "avatar": "https://secure.gravatar.com/avatar/e6743deef581e5404146b049d93074c4.jpg?s=512&d=https%3A%2F%2Fa.slack-edge.com%2Fdf10d%2Fimg%2Favatars%2Fava_0013-512.png", "custom_css": null}], "pagination": {"page": 465, "pages": 1192, "count": 23828, "items": 20}}