{"users": [{"id": 9301, "slack_id": "U0923N41MBP", "display_name": "Rooster", "bio": null, "projects_count": 0, "devlogs_count": 0, "votes_count": 0, "ships_count": 0, "projects": [], "coding_time_seconds": 0, "coding_time_seconds_today": 0, "balance": "You need to have a pocket watcher badge to view this.", "badges": [], "created_at": "2025-06-19T01:17:35.530-04:00", "updated_at": "2025-07-04T20:09:55.513-04:00", "avatar": "https://secure.gravatar.com/avatar/08064334248d693da5c5d58417193dc5.jpg?s=512&d=https%3A%2F%2Fa.slack-edge.com%2Fdf10d%2Fimg%2Favatars%2Fava_0020-512.png", "custom_css": null}, {"id": 9302, "slack_id": "U091YPJ6K5L", "display_name": "Yazad Hilloowala", "bio": null, "projects_count": 0, "devlogs_count": 0, "votes_count": 0, "ships_count": 0, "projects": [], "coding_time_seconds": 0, "coding_time_seconds_today": 0, "balance": "You need to have a pocket watcher badge to view this.", "badges": [], "created_at": "2025-06-19T01:23:14.915-04:00", "updated_at": "2025-07-03T19:51:29.511-04:00", "avatar": "https://secure.gravatar.com/avatar/59096256bd0695f11295ec3753ff7915.jpg?s=512&d=https%3A%2F%2Fa.slack-edge.com%2Fdf10d%2Fimg%2Favatars%2Fava_0008-512.png", "custom_css": null}, {"id": 9303, "slack_id": "U091YKFCXNX", "display_name": "Caleb Suh", "bio": null, "projects_count": 0, "devlogs_count": 0, "votes_count": 0, "ships_count": 0, "projects": [], "coding_time_seconds": 0, "coding_time_seconds_today": 0, "balance": "You need to have a pocket watcher badge to view this.", "badges": [], "created_at": "2025-06-19T01:23:17.435-04:00", "updated_at": "2025-07-03T19:51:29.774-04:00", "avatar": "https://secure.gravatar.com/avatar/b2dd531667b47a3ff67842e812547077.jpg?s=512&d=https%3A%2F%2Fa.slack-edge.com%2Fdf10d%2Fimg%2Favatars%2Fava_0003-512.png", "custom_css": null}, {"id": 9304, "slack_id": "U091Q5YH12T", "display_name": "Gowtham Durai", "bio": null, "projects_count": 1, "devlogs_count": 0, "votes_count": 0, "ships_count": 0, "projects": [{"id": 1682, "title": "Chit_management", "devlogs_count": 0, "created_at": "2025-06-19T02:48:08.447-04:00"}], "coding_time_seconds": 29504, "coding_time_seconds_today": 0, "balance": "You need to have a pocket watcher badge to view this.", "badges": [], "created_at": "2025-06-19T01:23:48.683-04:00", "updated_at": "2025-07-03T19:51:30.036-04:00", "avatar": "https://secure.gravatar.com/avatar/5ffdce175c5ab69a7d38cfe7fabfbe7e.jpg?s=512&d=https%3A%2F%2Fa.slack-edge.com%2Fdf10d%2Fimg%2Favatars%2Fava_0026-512.png", "custom_css": null}, {"id": 9305, "slack_id": "U0923NXQX7X", "display_name": "kartik", "bio": null, "projects_count": 0, "devlogs_count": 0, "votes_count": 0, "ships_count": 0, "projects": [], "coding_time_seconds": 69552, "coding_time_seconds_today": 0, "balance": "You need to have a pocket watcher badge to view this.", "badges": [], "created_at": "2025-06-19T01:26:27.600-04:00", "updated_at": "2025-07-03T19:51:30.318-04:00", "avatar": "https://secure.gravatar.com/avatar/57ff70c4f3d812cf00a8fa3072f863d2.jpg?s=512&d=https%3A%2F%2Fa.slack-edge.com%2Fdf10d%2Fimg%2Favatars%2Fava_0009-512.png", "custom_css": null}, {"id": 9306, "slack_id": "U091YKXJDGT", "display_name": "Rohan", "bio": null, "projects_count": 0, "devlogs_count": 0, "votes_count": 0, "ships_count": 0, "projects": [], "coding_time_seconds": 0, "coding_time_seconds_today": 0, "balance": "You need to have a pocket watcher badge to view this.", "badges": [], "created_at": "2025-06-19T01:27:08.107-04:00", "updated_at": "2025-07-03T19:51:30.583-04:00", "avatar": "https://secure.gravatar.com/avatar/45d3bfa9be223f1f2234895f9655dc77.jpg?s=512&d=https%3A%2F%2Fa.slack-edge.com%2Fdf10d%2Fimg%2Favatars%2Fava_0008-512.png", "custom_css": null}, {"id": 9307, "slack_id": "U0923P4CX37", "display_name": "Jack Richardson", "bio": null, "projects_count": 0, "devlogs_count": 0, "votes_count": 0, "ships_count": 0, "projects": [], "coding_time_seconds": 2814, "coding_time_seconds_today": 0, "balance": "You need to have a pocket watcher badge to view this.", "badges": [], "created_at": "2025-06-19T01:28:15.103-04:00", "updated_at": "2025-07-03T19:51:30.846-04:00", "avatar": "https://avatars.slack-edge.com/2025-06-19/9074682384612_9af040f68d997d351191_original.gif", "custom_css": null}, {"id": 9308, "slack_id": "U092HPH0997", "display_name": "Oumar Nahor Ngawara", "bio": null, "projects_count": 0, "devlogs_count": 0, "votes_count": 0, "ships_count": 0, "projects": [], "coding_time_seconds": 0, "coding_time_seconds_today": 0, "balance": "You need to have a pocket watcher badge to view this.", "badges": [], "created_at": "2025-06-19T01:30:05.927-04:00", "updated_at": "2025-07-03T19:51:31.112-04:00", "avatar": "https://secure.gravatar.com/avatar/c6afe739fa23ae68a8535c0963d449b9.jpg?s=512&d=https%3A%2F%2Fa.slack-edge.com%2Fdf10d%2Fimg%2Favatars%2Fava_0025-512.png", "custom_css": null}, {"id": 9309, "slack_id": "U0925BUSAHJ", "display_name": "Samay Garg", "bio": null, "projects_count": 1, "devlogs_count": 1, "votes_count": 1, "ships_count": 0, "projects": [{"id": 1694, "title": "summer github", "devlogs_count": 1, "created_at": "2025-06-19T03:12:29.889-04:00"}], "coding_time_seconds": 1831, "coding_time_seconds_today": 0, "balance": "You need to have a pocket watcher badge to view this.", "badges": [], "created_at": "2025-06-19T01:30:20.484-04:00", "updated_at": "2025-07-03T19:51:31.372-04:00", "avatar": "https://secure.gravatar.com/avatar/d6d2a698a1b8569fbc5d269c7c32e8b7.jpg?s=512&d=https%3A%2F%2Fa.slack-edge.com%2Fdf10d%2Fimg%2Favatars%2Fava_0005-512.png", "custom_css": null}, {"id": 9310, "slack_id": "U083VTV7162", "display_name": "kijenasa", "bio": null, "projects_count": 1, "devlogs_count": 4, "votes_count": 20, "ships_count": 1, "projects": [{"id": 3612, "title": "Spaced repetition Toki Pona vocab trainer in C", "devlogs_count": 4, "created_at": "2025-06-24T23:56:02.771-04:00"}], "coding_time_seconds": 48161, "coding_time_seconds_today": 0, "balance": "You need to have a pocket watcher badge to view this.", "badges": [{"name": "Maiden Voyage", "text": "you shipped your first project! the journey begins...", "icon": "\ud83d\udea2"}], "created_at": "2025-06-19T01:35:16.973-04:00", "updated_at": "2025-09-10T22:55:46.133-04:00", "avatar": "https://avatars.slack-edge.com/2024-12-06/8124765074135_ea769fcfd925d2056180_original.png", "custom_css": null}, {"id": 9311, "slack_id": "U091PV7H2PR", "display_name": "shreyash singh", "bio": null, "projects_count": 0, "devlogs_count": 0, "votes_count": 0, "ships_count": 0, "projects": [], "coding_time_seconds": 0, "coding_time_seconds_today": 0, "balance": "You need to have a pocket watcher badge to view this.", "badges": [], "created_at": "2025-06-19T01:35:47.688-04:00", "updated_at": "2025-07-03T19:51:31.911-04:00", "avatar": "https://secure.gravatar.com/avatar/86a5a24d2f3d58aa655a5e41e60f4841.jpg?s=512&d=https%3A%2F%2Fa.slack-edge.com%2Fdf10d%2Fimg%2Favatars%2Fava_0010-512.png", "custom_css": null}, {"id": 9312, "slack_id": "U0924U6JAHG", "display_name": "Divyansh Khare", "bio": null, "projects_count": 0, "devlogs_count": 0, "votes_count": 0, "ships_count": 0, "projects": [], "coding_time_seconds": 0, "coding_time_seconds_today": 0, "balance": "You need to have a pocket watcher badge to view this.", "badges": [], "created_at": "2025-06-19T01:35:59.457-04:00", "updated_at": "2025-07-03T19:51:32.167-04:00", "avatar": "https://secure.gravatar.com/avatar/701f0e031a5ac0dead42a63846c92cbe.jpg?s=512&d=https%3A%2F%2Fa.slack-edge.com%2Fdf10d%2Fimg%2Favatars%2Fava_0001-512.png", "custom_css": null}, {"id": 9313, "slack_id": "U0923Q3KQBF", "display_name": "Rishav Ganguly", "bio": null, "projects_count": 1, "devlogs_count": 0, "votes_count": 0, "ships_count": 0, "projects": [{"id": 1670, "title": "My portfolio", "devlogs_count": 0, "created_at": "2025-06-19T01:53:31.596-04:00"}], "coding_time_seconds": 38110, "coding_time_seconds_today": 0, "balance": "You need to have a pocket watcher badge to view this.", "badges": [], "created_at": "2025-06-19T01:38:41.968-04:00", "updated_at": "2025-07-03T19:51:32.440-04:00", "avatar": "https://avatars.slack-edge.com/2025-06-18/9073005026482_db4f614853f4b0a6a84e_original.png", "custom_css": null}, {"id": 9314, "slack_id": "U092THL40QY", "display_name": "djairo", "bio": null, "projects_count": 0, "devlogs_count": 0, "votes_count": 0, "ships_count": 0, "projects": [], "coding_time_seconds": 0, "coding_time_seconds_today": 0, "balance": "You need to have a pocket watcher badge to view this.", "badges": [], "created_at": "2025-06-19T01:39:18.966-04:00", "updated_at": "2025-07-03T19:51:32.726-04:00", "avatar": "https://secure.gravatar.com/avatar/29e9ed70f0ac26fccaa0be111e737d76.jpg?s=512&d=https%3A%2F%2Fa.slack-edge.com%2Fdf10d%2Fimg%2Favatars%2Fava_0012-512.png", "custom_css": null}, {"id": 9315, "slack_id": "U0924AHJ6DP", "display_name": "KHORNEFLAEKS", "bio": null, "projects_count": 1, "devlogs_count": 0, "votes_count": 0, "ships_count": 0, "projects": [{"id": 1676, "title": "Factorio Calculator", "devlogs_count": 0, "created_at": "2025-06-19T02:21:38.587-04:00"}], "coding_time_seconds": 59734, "coding_time_seconds_today": 0, "balance": "You need to have a pocket watcher badge to view this.", "badges": [], "created_at": "2025-06-19T01:40:22.917-04:00", "updated_at": "2025-07-03T19:51:32.983-04:00", "avatar": "https://secure.gravatar.com/avatar/35171131ffa12db725f3298bee3484cb.jpg?s=512&d=https%3A%2F%2Fa.slack-edge.com%2Fdf10d%2Fimg%2Favatars%2Fava_0003-512.png", "custom_css": null}, {"id": 9316, "slack_id": "U0923QEA8DT", "display_name": "Ashbil Shahid", "bio": null, "projects_count": 0, "devlogs_count": 0, "votes_count": 0, "ships_count": 0, "projects": [], "coding_time_seconds": 942, "coding_time_seconds_today": 0, "balance": "You need to have a pocket watcher badge to view this.", "badges": [], "created_at": "2025-06-19T01:41:05.190-04:00", "updated_at": "2025-07-03T19:51:33.263-04:00", "avatar": "https://secure.gravatar.com/avatar/16a28b39844b28cb29e6ea068e132a4f.jpg?s=512&d=https%3A%2F%2Fa.slack-edge.com%2Fdf10d%2Fimg%2Favatars%2Fava_0007-512.png", "custom_css": null}, {"id": 9317, "slack_id": "U0923Q9CK45", "display_name": "Ananthadatta Eranti", "bio": null, "projects_count": 0, "devlogs_count": 0, "votes_count": 0, "ships_count": 0, "projects": [], "coding_time_seconds": 0, "coding_time_seconds_today": 0, "balance": "You need to have a pocket watcher badge to view this.", "badges": [], "created_at": "2025-06-19T01:41:26.891-04:00", "updated_at": "2025-09-19T14:14:59.113-04:00", "avatar": "https://avatars.slack-edge.com/2025-09-19/9549478413382_daeccba89f1996f84125_original.jpg", "custom_css": null}, {"id": 9318, "slack_id": "U091Q7K06LF", "display_name": "Jeff Domingo", "bio": null, "projects_count": 0, "devlogs_count": 0, "votes_count": 0, "ships_count": 0, "projects": [], "coding_time_seconds": 0, "coding_time_seconds_today": 0, "balance": "You need to have a pocket watcher badge to view this.", "badges": [], "created_at": "2025-06-19T01:41:32.653-04:00", "updated_at": "2025-07-03T19:51:33.678-04:00", "avatar": "https://secure.gravatar.com/avatar/eefbb5b4c3b4742383a45773c6b287ff.jpg?s=512&d=https%3A%2F%2Fa.slack-edge.com%2Fdf10d%2Fimg%2Favatars%2Fava_0026-512.png", "custom_css": null}, {"id": 9319, "slack_id": "U092508HYRG", "display_name": "Rana Korkmaz", "bio": null, "projects_count": 0, "devlogs_count": 0, "votes_count": 0, "ships_count": 0, "projects": [], "coding_time_seconds": 0, "coding_time_seconds_today": 0, "balance": "You need to have a pocket watcher badge to view this.", "badges": [], "created_at": "2025-06-19T01:44:21.100-04:00", "updated_at": "2025-07-05T20:10:47.709-04:00", "avatar": "https://secure.gravatar.com/avatar/44513045d0b0589f66afa2d8d668a83c.jpg?s=512&d=https%3A%2F%2Fa.slack-edge.com%2Fdf10d%2Fimg%2Favatars%2Fava_0018-512.png", "custom_css": null}, {"id": 9320, "slack_id": "U08HR9MJ29M", "display_name": "redbigz", "bio": null, "projects_count": 0, "devlogs_count": 0, "votes_count": 0, "ships_count": 0, "projects": [], "coding_time_seconds": 25143, "coding_time_seconds_today": 0, "balance": "You need to have a pocket watcher badge to view this.", "badges": [], "created_at": "2025-06-19T01:47:09.977-04:00", "updated_at": "2025-07-03T19:51:34.073-04:00", "avatar": "https://avatars.slack-edge.com/2025-05-17/8924718851537_dcb465792c6538094a54_original.png", "custom_css": null}], "pagination": {"page": 466, "pages": 1192, "count": 23828, "items": 20}}