{"users": [{"id": 9321, "slack_id": "U091L0GMCLB", "display_name": "Hussein H.", "bio": null, "projects_count": 0, "devlogs_count": 0, "votes_count": 0, "ships_count": 0, "projects": [], "coding_time_seconds": 0, "coding_time_seconds_today": 0, "balance": "You need to have a pocket watcher badge to view this.", "badges": [], "created_at": "2025-06-19T01:49:28.630-04:00", "updated_at": "2025-07-03T19:51:34.331-04:00", "avatar": "https://secure.gravatar.com/avatar/a15864993b5ade2d4aa44e86d15e31a3.jpg?s=512&d=https%3A%2F%2Fa.slack-edge.com%2Fdf10d%2Fimg%2Favatars%2Fava_0013-512.png", "custom_css": null}, {"id": 9322, "slack_id": "U092HSB9BND", "display_name": "G.O.A.T", "bio": null, "projects_count": 0, "devlogs_count": 0, "votes_count": 0, "ships_count": 0, "projects": [], "coding_time_seconds": 1533, "coding_time_seconds_today": 0, "balance": "You need to have a pocket watcher badge to view this.", "badges": [], "created_at": "2025-06-19T01:52:12.495-04:00", "updated_at": "2025-07-03T19:51:34.614-04:00", "avatar": "https://avatars.slack-edge.com/2025-06-19/9087170761505_9157dd2e98fbf67c4e6e_original.webp", "custom_css": null}, {"id": 9323, "slack_id": "U092HSBRVS5", "display_name": "Nikhil Nagori", "bio": null, "projects_count": 0, "devlogs_count": 0, "votes_count": 1, "ships_count": 0, "projects": [], "coding_time_seconds": 67156, "coding_time_seconds_today": 0, "balance": "You need to have a pocket watcher badge to view this.", "badges": [], "created_at": "2025-06-19T01:52:53.650-04:00", "updated_at": "2025-07-03T19:51:34.891-04:00", "avatar": "https://avatars.slack-edge.com/2025-06-18/9095652224560_73f7642b068597919b40_original.jpg", "custom_css": null}, {"id": 9324, "slack_id": "U092HSGAHRP", "display_name": "Ramzy", "bio": null, "projects_count": 0, "devlogs_count": 0, "votes_count": 0, "ships_count": 0, "projects": [], "coding_time_seconds": 0, "coding_time_seconds_today": 0, "balance": "You need to have a pocket watcher badge to view this.", "badges": [], "created_at": "2025-06-19T01:54:10.079-04:00", "updated_at": "2025-07-05T08:10:44.172-04:00", "avatar": "https://secure.gravatar.com/avatar/7a21b5cde48771b73cd4d6173984f092.jpg?s=512&d=https%3A%2F%2Fa.slack-edge.com%2Fdf10d%2Fimg%2Favatars%2Fava_0015-512.png", "custom_css": null}, {"id": 9325, "slack_id": "U091Q8JL5EK", "display_name": "HodeiDz", "bio": null, "projects_count": 0, "devlogs_count": 0, "votes_count": 0, "ships_count": 0, "projects": [], "coding_time_seconds": 368, "coding_time_seconds_today": 0, "balance": "You need to have a pocket watcher badge to view this.", "badges": [], "created_at": "2025-06-19T01:54:10.800-04:00", "updated_at": "2025-07-05T20:10:48.083-04:00", "avatar": "https://secure.gravatar.com/avatar/56aa56fd428301739fa4f43aac7dc809.jpg?s=512&d=https%3A%2F%2Fa.slack-edge.com%2Fdf10d%2Fimg%2Favatars%2Fava_0019-512.png", "custom_css": null}, {"id": 9326, "slack_id": "U092ARMPK6D", "display_name": "Lucas Zhang", "bio": null, "projects_count": 0, "devlogs_count": 0, "votes_count": 0, "ships_count": 0, "projects": [], "coding_time_seconds": 0, "coding_time_seconds_today": 0, "balance": "You need to have a pocket watcher badge to view this.", "badges": [], "created_at": "2025-06-19T01:54:44.517-04:00", "updated_at": "2025-07-06T08:10:06.073-04:00", "avatar": "https://avatars.slack-edge.com/2025-06-18/9085916186705_d794f31e18446977957a_original.png", "custom_css": null}, {"id": 9327, "slack_id": "U07SSTK6YEQ", "display_name": "Timothy L", "bio": null, "projects_count": 0, "devlogs_count": 0, "votes_count": 0, "ships_count": 0, "projects": [], "coding_time_seconds": 32825, "coding_time_seconds_today": 0, "balance": "You need to have a pocket watcher badge to view this.", "badges": [], "created_at": "2025-06-19T01:55:13.099-04:00", "updated_at": "2025-09-05T04:36:21.429-04:00", "avatar": "https://avatars.slack-edge.com/2024-10-20/7908349579955_30bdb2476feb09da56cf_original.jpg", "custom_css": null}, {"id": 9328, "slack_id": "U091YSG13JS", "display_name": "Nate", "bio": null, "projects_count": 0, "devlogs_count": 0, "votes_count": 0, "ships_count": 0, "projects": [], "coding_time_seconds": 0, "coding_time_seconds_today": 0, "balance": "You need to have a pocket watcher badge to view this.", "badges": [], "created_at": "2025-06-19T01:55:38.680-04:00", "updated_at": "2025-07-03T19:51:35.909-04:00", "avatar": "https://secure.gravatar.com/avatar/c66b0428490eb279ef9b622bbcbb7333.jpg?s=512&d=https%3A%2F%2Fa.slack-edge.com%2Fdf10d%2Fimg%2Favatars%2Fava_0000-512.png", "custom_css": null}, {"id": 9329, "slack_id": "U092TK4DF6C", "display_name": "Shreeya Reddy L", "bio": null, "projects_count": 0, "devlogs_count": 0, "votes_count": 0, "ships_count": 0, "projects": [], "coding_time_seconds": 0, "coding_time_seconds_today": 0, "balance": "You need to have a pocket watcher badge to view this.", "badges": [], "created_at": "2025-06-19T01:58:30.312-04:00", "updated_at": "2025-07-03T19:51:36.191-04:00", "avatar": "https://secure.gravatar.com/avatar/3c41882c8254d881995466ab90c15635.jpg?s=512&d=https%3A%2F%2Fa.slack-edge.com%2Fdf10d%2Fimg%2Favatars%2Fava_0025-512.png", "custom_css": null}, {"id": 9330, "slack_id": "U09251WAV3L", "display_name": "Felipe Augusto", "bio": null, "projects_count": 0, "devlogs_count": 0, "votes_count": 0, "ships_count": 0, "projects": [], "coding_time_seconds": 0, "coding_time_seconds_today": 0, "balance": "You need to have a pocket watcher badge to view this.", "badges": [], "created_at": "2025-06-19T02:00:41.971-04:00", "updated_at": "2025-07-03T19:51:36.462-04:00", "avatar": "https://secure.gravatar.com/avatar/c61ef69e33efb8edfba3cf9979203b84.jpg?s=512&d=https%3A%2F%2Fa.slack-edge.com%2Fdf10d%2Fimg%2Favatars%2Fava_0005-512.png", "custom_css": null}, {"id": 9331, "slack_id": "U08F8DWND7Z", "display_name": "immaeatu", "bio": null, "projects_count": 1, "devlogs_count": 1, "votes_count": 0, "ships_count": 1, "projects": [{"id": 10059, "title": "Rock paper scissors game", "devlogs_count": 1, "created_at": "2025-08-03T18:39:59.953-04:00"}], "coding_time_seconds": 20153, "coding_time_seconds_today": 0, "balance": "You need to have a pocket watcher badge to view this.", "badges": [{"name": "Maiden Voyage", "text": "you shipped your first project! the journey begins...", "icon": "\ud83d\udea2"}], "created_at": "2025-06-19T02:02:41.303-04:00", "updated_at": "2025-09-10T22:55:46.666-04:00", "avatar": "https://avatars.slack-edge.com/2025-08-03/9297143443170_7bf9bea11914955d9862_original.jpg", "custom_css": null}, {"id": 9332, "slack_id": "U091Q9TG1HV", "display_name": "Prashant Agale", "bio": null, "projects_count": 0, "devlogs_count": 0, "votes_count": 0, "ships_count": 0, "projects": [], "coding_time_seconds": 0, "coding_time_seconds_today": 0, "balance": "You need to have a pocket watcher badge to view this.", "badges": [], "created_at": "2025-06-19T02:03:55.294-04:00", "updated_at": "2025-07-04T02:28:56.777-04:00", "avatar": "https://secure.gravatar.com/avatar/2fcd51424825b282082497cfa3d368c9.jpg?s=512&d=https%3A%2F%2Fa.slack-edge.com%2Fdf10d%2Fimg%2Favatars%2Fava_0018-512.png", "custom_css": null}, {"id": 9333, "slack_id": "U091YP53APM", "display_name": "Deborah Soromtochi Chukwu", "bio": null, "projects_count": 0, "devlogs_count": 0, "votes_count": 0, "ships_count": 0, "projects": [], "coding_time_seconds": 0, "coding_time_seconds_today": 0, "balance": "You need to have a pocket watcher badge to view this.", "badges": [], "created_at": "2025-06-19T02:07:56.138-04:00", "updated_at": "2025-07-03T19:51:36.983-04:00", "avatar": "https://secure.gravatar.com/avatar/a5d9778aa2ae769b057bdf399d105d8f.jpg?s=512&d=https%3A%2F%2Fa.slack-edge.com%2Fdf10d%2Fimg%2Favatars%2Fava_0024-512.png", "custom_css": null}, {"id": 9334, "slack_id": "U091YU0F4TG", "display_name": "Cyberaksh", "bio": null, "projects_count": 0, "devlogs_count": 0, "votes_count": 0, "ships_count": 0, "projects": [], "coding_time_seconds": 0, "coding_time_seconds_today": 0, "balance": "You need to have a pocket watcher badge to view this.", "badges": [], "created_at": "2025-06-19T02:09:07.867-04:00", "updated_at": "2025-07-03T21:47:35.775-04:00", "avatar": "https://secure.gravatar.com/avatar/e84a7318673f84a5cfd59c6058ceeb47.jpg?s=512&d=https%3A%2F%2Fa.slack-edge.com%2Fdf10d%2Fimg%2Favatars%2Fava_0017-512.png", "custom_css": null}, {"id": 9335, "slack_id": "U09252T898A", "display_name": "Ben", "bio": null, "projects_count": 0, "devlogs_count": 0, "votes_count": 0, "ships_count": 0, "projects": [], "coding_time_seconds": 0, "coding_time_seconds_today": 0, "balance": "You need to have a pocket watcher badge to view this.", "badges": [], "created_at": "2025-06-19T02:10:11.356-04:00", "updated_at": "2025-07-03T21:47:35.893-04:00", "avatar": "https://secure.gravatar.com/avatar/b50871a72b5197d0d969d478851158b9.jpg?s=512&d=https%3A%2F%2Fa.slack-edge.com%2Fdf10d%2Fimg%2Favatars%2Fava_0023-512.png", "custom_css": null}, {"id": 9336, "slack_id": "U092TLL6ZH6", "display_name": "Harshit Gupta", "bio": null, "projects_count": 1, "devlogs_count": 20, "votes_count": 23, "ships_count": 1, "projects": [{"id": 2118, "title": "The Last Whisper", "devlogs_count": 20, "created_at": "2025-06-20T07:20:34.945-04:00"}], "coding_time_seconds": 220409, "coding_time_seconds_today": 0, "balance": "You need to have a pocket watcher badge to view this.", "badges": [{"name": "Maiden Voyage", "text": "you shipped your first project! the journey begins...", "icon": "\ud83d\udea2"}], "created_at": "2025-06-19T02:10:53.043-04:00", "updated_at": "2025-09-10T22:55:46.762-04:00", "avatar": "https://secure.gravatar.com/avatar/02cc0b34d93f74296389a23039ca809a.jpg?s=512&d=https%3A%2F%2Fa.slack-edge.com%2Fdf10d%2Fimg%2Favatars%2Fava_0011-512.png", "custom_css": null}, {"id": 9337, "slack_id": "U0925FUC2E8", "display_name": "Vivek AI", "bio": null, "projects_count": 0, "devlogs_count": 0, "votes_count": 0, "ships_count": 0, "projects": [], "coding_time_seconds": 0, "coding_time_seconds_today": 0, "balance": "You need to have a pocket watcher badge to view this.", "badges": [], "created_at": "2025-06-19T02:12:29.294-04:00", "updated_at": "2025-07-03T19:51:37.808-04:00", "avatar": "https://avatars.slack-edge.com/2025-06-18/9066840514243_62be199f268e3c777689_original.png", "custom_css": null}, {"id": 9338, "slack_id": "U092FDCACFJ", "display_name": "Kapios", "bio": "", "projects_count": 2, "devlogs_count": 18, "votes_count": 20, "ships_count": 1, "projects": [{"id": 7028, "title": "Discord Slash Commands", "devlogs_count": 16, "created_at": "2025-07-18T12:16:59.405-04:00"}, {"id": 12990, "title": "SoM Expedition - Scene 86", "devlogs_count": 2, "created_at": "2025-09-06T15:56:22.902-04:00"}], "coding_time_seconds": 402093, "coding_time_seconds_today": 817, "balance": "You need to have a pocket watcher badge to view this.", "badges": [{"name": "Maiden Voyage", "text": "you shipped your first project! the journey begins...", "icon": "\ud83d\udea2"}], "created_at": "2025-06-19T02:14:46.105-04:00", "updated_at": "2025-09-10T22:55:46.801-04:00", "avatar": "https://avatars.slack-edge.com/2025-09-05/9464963392067_b3d51542bfe71c291393_original.png", "custom_css": null}, {"id": 9339, "slack_id": "U08RULHS718", "display_name": "baibhav kumar jha", "bio": null, "projects_count": 9, "devlogs_count": 32, "votes_count": 110, "ships_count": 6, "projects": [{"id": 2400, "title": "Textullar", "devlogs_count": 5, "created_at": "2025-06-20T23:33:42.418-04:00"}, {"id": 8715, "title": "Desktop Style Meter", "devlogs_count": 1, "created_at": "2025-07-29T02:24:01.563-04:00"}, {"id": 13548, "title": "Keymouse", "devlogs_count": 1, "created_at": "2025-09-19T07:10:56.583-04:00"}, {"id": 12886, "title": "PyConText", "devlogs_count": 3, "created_at": "2025-09-04T12:19:28.361-04:00"}, {"id": 8714, "title": "All Day All Life", "devlogs_count": 7, "created_at": "2025-07-29T02:20:29.139-04:00"}, {"id": 6439, "title": "You Stupid Prank", "devlogs_count": 5, "created_at": "2025-07-13T10:06:59.342-04:00"}, {"id": 10927, "title": "ADless", "devlogs_count": 6, "created_at": "2025-08-11T21:33:46.900-04:00"}, {"id": 10258, "title": "Fast Vid Extension", "devlogs_count": 1, "created_at": "2025-08-05T12:05:04.653-04:00"}, {"id": 7831, "title": "Vriksh", "devlogs_count": 3, "created_at": "2025-07-23T07:41:03.195-04:00"}], "coding_time_seconds": 258799, "coding_time_seconds_today": 0, "balance": "You need to have a pocket watcher badge to view this.", "badges": [{"name": "Maiden Voyage", "text": "you shipped your first project! the journey begins...", "icon": "\ud83d\udea2"}, {"name": "Ballot Stuffer", "text": "vote 100 times.", "icon": "https://summer.hackclub.com/assets/i_voted-bf851b48.png"}], "created_at": "2025-06-19T02:15:32.735-04:00", "updated_at": "2025-09-10T22:55:46.826-04:00", "avatar": "https://avatars.slack-edge.com/2025-05-10/8876654364067_262b0cc3fccaaa972b56_original.png", "custom_css": null}, {"id": 9340, "slack_id": "U0923TQGV7X", "display_name": "S.S.B Lucky 7", "bio": null, "projects_count": 0, "devlogs_count": 0, "votes_count": 0, "ships_count": 0, "projects": [], "coding_time_seconds": 0, "coding_time_seconds_today": 0, "balance": "You need to have a pocket watcher badge to view this.", "badges": [], "created_at": "2025-06-19T02:15:33.508-04:00", "updated_at": "2025-07-03T19:51:38.518-04:00", "avatar": "https://secure.gravatar.com/avatar/b70d1469d18c3ef87597d69a4ec1e028.jpg?s=512&d=https%3A%2F%2Fa.slack-edge.com%2Fdf10d%2Fimg%2Favatars%2Fava_0005-512.png", "custom_css": null}], "pagination": {"page": 467, "pages": 1192, "count": 23828, "items": 20}}