{"users": [{"id": 9341, "slack_id": "U091KM2HE59", "display_name": "Advay pervatikar", "bio": null, "projects_count": 0, "devlogs_count": 0, "votes_count": 0, "ships_count": 0, "projects": [], "coding_time_seconds": 0, "coding_time_seconds_today": 0, "balance": "You need to have a pocket watcher badge to view this.", "badges": [], "created_at": "2025-06-19T02:15:35.955-04:00", "updated_at": "2025-07-03T19:51:38.782-04:00", "avatar": "https://avatars.slack-edge.com/2025-06-18/9066853065379_df598050879c68cbffa1_original.jpg", "custom_css": null}, {"id": 9342, "slack_id": "U09253JHU6N", "display_name": "Korn\u00e9l Leitner", "bio": null, "projects_count": 0, "devlogs_count": 0, "votes_count": 0, "ships_count": 0, "projects": [], "coding_time_seconds": 0, "coding_time_seconds_today": 0, "balance": "You need to have a pocket watcher badge to view this.", "badges": [], "created_at": "2025-06-19T02:16:09.871-04:00", "updated_at": "2025-07-03T19:51:39.054-04:00", "avatar": "https://secure.gravatar.com/avatar/bd653dc773c36cc13eca8f1a20f0b96c.jpg?s=512&d=https%3A%2F%2Fa.slack-edge.com%2Fdf10d%2Fimg%2Favatars%2Fava_0022-512.png", "custom_css": null}, {"id": 9343, "slack_id": "U092TMFRFLY", "display_name": "Patel Yax", "bio": null, "projects_count": 6, "devlogs_count": 11, "votes_count": 0, "ships_count": 6, "projects": [{"id": 12425, "title": "Bright Smiles Dental Website", "devlogs_count": 1, "created_at": "2025-08-27T08:39:47.516-04:00"}, {"id": 12520, "title": "Online Smart Class ", "devlogs_count": 3, "created_at": "2025-08-28T23:21:28.400-04:00"}, {"id": 12358, "title": "Krish Portfolio", "devlogs_count": 5, "created_at": "2025-08-26T07:00:58.578-04:00"}, {"id": 12356, "title": "Cipher", "devlogs_count": 1, "created_at": "2025-08-26T06:27:19.078-04:00"}, {"id": 11594, "title": "FastCreeperMod", "devlogs_count": 2, "created_at": "2025-08-17T11:18:03.409-04:00"}, {"id": 12099, "title": "Vyom", "devlogs_count": 1, "created_at": "2025-08-23T04:24:10.834-04:00"}], "coding_time_seconds": 119434, "coding_time_seconds_today": 3767, "balance": "You need to have a pocket watcher badge to view this.", "badges": [{"name": "Maiden Voyage", "text": "you shipped your first project! the journey begins...", "icon": "\ud83d\udea2"}, {"name": "Ballot Stuffer", "text": "vote 100 times.", "icon": "https://summer.hackclub.com/assets/i_voted-bf851b48.png"}], "created_at": "2025-06-19T02:16:43.919-04:00", "updated_at": "2025-09-10T22:55:46.912-04:00", "avatar": "https://avatars.slack-edge.com/2025-06-18/9066857735619_ec2c26f8325494976214_original.jpg", "custom_css": null}, {"id": 9344, "slack_id": "U091YR1AQCT", "display_name": "Andy Jenef", "bio": null, "projects_count": 0, "devlogs_count": 0, "votes_count": 0, "ships_count": 0, "projects": [], "coding_time_seconds": 0, "coding_time_seconds_today": 0, "balance": "You need to have a pocket watcher badge to view this.", "badges": [], "created_at": "2025-06-19T02:17:57.277-04:00", "updated_at": "2025-07-03T19:51:39.603-04:00", "avatar": "https://secure.gravatar.com/avatar/687fd8d9722594152a84b5611afef611.jpg?s=512&d=https%3A%2F%2Fa.slack-edge.com%2Fdf10d%2Fimg%2Favatars%2Fava_0016-512.png", "custom_css": null}, {"id": 9345, "slack_id": "U091N18NW7P", "display_name": "Prathamesh Nimkar", "bio": null, "projects_count": 0, "devlogs_count": 0, "votes_count": 0, "ships_count": 0, "projects": [], "coding_time_seconds": 0, "coding_time_seconds_today": 0, "balance": "You need to have a pocket watcher badge to view this.", "badges": [], "created_at": "2025-06-19T02:18:38.252-04:00", "updated_at": "2025-07-03T19:51:39.866-04:00", "avatar": "https://secure.gravatar.com/avatar/1e5fa3b7aaceb91a0c12a1301e721de9.jpg?s=512&d=https%3A%2F%2Fa.slack-edge.com%2Fdf10d%2Fimg%2Favatars%2Fava_0013-512.png", "custom_css": null}, {"id": 9346, "slack_id": "U01NUF2KS4Q", "display_name": "Aayush anand", "bio": null, "projects_count": 3, "devlogs_count": 12, "votes_count": 44, "ships_count": 3, "projects": [{"id": 4310, "title": "To-do-app", "devlogs_count": 3, "created_at": "2025-06-28T21:27:10.160-04:00"}, {"id": 6385, "title": "Summify", "devlogs_count": 3, "created_at": "2025-07-12T23:24:11.229-04:00"}, {"id": 9888, "title": "Landing Page for AI Worksheet Evaluation ", "devlogs_count": 3, "created_at": "2025-08-02T16:56:31.195-04:00"}], "coding_time_seconds": 378375, "coding_time_seconds_today": 0, "balance": "You need to have a pocket watcher badge to view this.", "badges": [{"name": "Maiden Voyage", "text": "you shipped your first project! the journey begins...", "icon": "\ud83d\udea2"}], "created_at": "2025-06-19T02:20:03.686-04:00", "updated_at": "2025-09-10T22:55:47.035-04:00", "avatar": "https://secure.gravatar.com/avatar/bfba35f9d8096c8c1d3d843603e70052.jpg?s=512&d=https%3A%2F%2Fa.slack-edge.com%2Fdf10d%2Fimg%2Favatars%2Fava_0022-512.png", "custom_css": null}, {"id": 9347, "slack_id": "U0925GT85RA", "display_name": "Mohamed Ali", "bio": null, "projects_count": 0, "devlogs_count": 0, "votes_count": 0, "ships_count": 0, "projects": [], "coding_time_seconds": 0, "coding_time_seconds_today": 0, "balance": "You need to have a pocket watcher badge to view this.", "badges": [], "created_at": "2025-06-19T02:20:23.242-04:00", "updated_at": "2025-07-04T20:09:58.169-04:00", "avatar": "https://secure.gravatar.com/avatar/6aa67bb0769db937d61d1b328462d922.jpg?s=512&d=https%3A%2F%2Fa.slack-edge.com%2Fdf10d%2Fimg%2Favatars%2Fava_0003-512.png", "custom_css": null}, {"id": 9348, "slack_id": "U092J044WSV", "display_name": "Cecil", "bio": null, "projects_count": 0, "devlogs_count": 0, "votes_count": 0, "ships_count": 0, "projects": [], "coding_time_seconds": 0, "coding_time_seconds_today": 0, "balance": "You need to have a pocket watcher badge to view this.", "badges": [], "created_at": "2025-06-19T02:21:01.040-04:00", "updated_at": "2025-07-03T19:51:40.546-04:00", "avatar": "https://secure.gravatar.com/avatar/9468fa9e6a6eeab0485e069114ca89f0.jpg?s=512&d=https%3A%2F%2Fa.slack-edge.com%2Fdf10d%2Fimg%2Favatars%2Fava_0026-512.png", "custom_css": null}, {"id": 9349, "slack_id": "U092J06Q6TB", "display_name": "ayushman yash nayak", "bio": null, "projects_count": 1, "devlogs_count": 0, "votes_count": 0, "ships_count": 0, "projects": [{"id": 1690, "title": "SkillFLowAI", "devlogs_count": 0, "created_at": "2025-06-19T03:08:33.733-04:00"}], "coding_time_seconds": 68831, "coding_time_seconds_today": 2001, "balance": "You need to have a pocket watcher badge to view this.", "badges": [], "created_at": "2025-06-19T02:22:01.506-04:00", "updated_at": "2025-07-03T21:59:37.992-04:00", "avatar": "https://avatars.slack-edge.com/2025-06-18/9095758221488_639c3c7ca8327c1422a7_original.png", "custom_css": null}, {"id": 9350, "slack_id": "U092HVB297B", "display_name": "Mwaron", "bio": null, "projects_count": 3, "devlogs_count": 24, "votes_count": 22, "ships_count": 2, "projects": [{"id": 2567, "title": "Hungarian final exam solution", "devlogs_count": 2, "created_at": "2025-06-21T10:47:35.531-04:00"}, {"id": 3926, "title": "Fancy Note Application", "devlogs_count": 1, "created_at": "2025-06-26T10:56:58.638-04:00"}, {"id": 4499, "title": "A_photos portfolio", "devlogs_count": 21, "created_at": "2025-06-30T10:37:12.910-04:00"}], "coding_time_seconds": 157158, "coding_time_seconds_today": 0, "balance": "You need to have a pocket watcher badge to view this.", "badges": [{"name": "Maiden Voyage", "text": "you shipped your first project! the journey begins...", "icon": "\ud83d\udea2"}], "created_at": "2025-06-19T02:22:21.735-04:00", "updated_at": "2025-09-10T22:55:47.178-04:00", "avatar": "https://secure.gravatar.com/avatar/8f5753fa41354a2d1ce90b5904487f0c.jpg?s=512&d=https%3A%2F%2Fa.slack-edge.com%2Fdf10d%2Fimg%2Favatars%2Fava_0002-512.png", "custom_css": null}, {"id": 9351, "slack_id": "U091Z03277G", "display_name": "gurmeet", "bio": null, "projects_count": 0, "devlogs_count": 0, "votes_count": 0, "ships_count": 0, "projects": [], "coding_time_seconds": 6955, "coding_time_seconds_today": 0, "balance": "You need to have a pocket watcher badge to view this.", "badges": [], "created_at": "2025-06-19T02:22:50.420-04:00", "updated_at": "2025-07-03T19:51:41.218-04:00", "avatar": "https://secure.gravatar.com/avatar/34e1ce250dc04c93d8a14ada0ad8a1c6.jpg?s=512&d=https%3A%2F%2Fa.slack-edge.com%2Fdf10d%2Fimg%2Favatars%2Fava_0005-512.png", "custom_css": null}, {"id": 9352, "slack_id": "U092HR96CQZ", "display_name": "ameen", "bio": null, "projects_count": 0, "devlogs_count": 0, "votes_count": 0, "ships_count": 0, "projects": [], "coding_time_seconds": 0, "coding_time_seconds_today": 0, "balance": "You need to have a pocket watcher badge to view this.", "badges": [], "created_at": "2025-06-19T02:26:06.585-04:00", "updated_at": "2025-07-03T19:51:41.491-04:00", "avatar": "https://avatars.slack-edge.com/2025-06-26/9131466509632_31747eeb0122254967d5_original.jpg", "custom_css": null}, {"id": 9353, "slack_id": "U091QC96L1M", "display_name": "Jape Yaser", "bio": null, "projects_count": 0, "devlogs_count": 0, "votes_count": 0, "ships_count": 0, "projects": [], "coding_time_seconds": 0, "coding_time_seconds_today": 0, "balance": "You need to have a pocket watcher badge to view this.", "badges": [], "created_at": "2025-06-19T02:26:19.440-04:00", "updated_at": "2025-07-03T19:51:41.759-04:00", "avatar": "https://avatars.slack-edge.com/2025-06-18/9073169166402_f0318b46354eb60509f1_original.png", "custom_css": null}, {"id": 9354, "slack_id": "U091YRHD9RR", "display_name": "Petr Vurm", "bio": null, "projects_count": 0, "devlogs_count": 0, "votes_count": 0, "ships_count": 0, "projects": [], "coding_time_seconds": 0, "coding_time_seconds_today": 0, "balance": "You need to have a pocket watcher badge to view this.", "badges": [], "created_at": "2025-06-19T02:26:57.940-04:00", "updated_at": "2025-07-03T19:51:42.034-04:00", "avatar": "https://secure.gravatar.com/avatar/72c2f3746a2b74072e900052084127dd.jpg?s=512&d=https%3A%2F%2Fa.slack-edge.com%2Fdf10d%2Fimg%2Favatars%2Fava_0003-512.png", "custom_css": null}, {"id": 9355, "slack_id": "U09252PDAR0", "display_name": "Victor Yllescas", "bio": null, "projects_count": 0, "devlogs_count": 0, "votes_count": 0, "ships_count": 0, "projects": [], "coding_time_seconds": 0, "coding_time_seconds_today": 0, "balance": "You need to have a pocket watcher badge to view this.", "badges": [], "created_at": "2025-06-19T02:27:37.223-04:00", "updated_at": "2025-07-03T19:51:42.308-04:00", "avatar": "https://secure.gravatar.com/avatar/5cc594d2e93bfaaafef8a56f624693e1.jpg?s=512&d=https%3A%2F%2Fa.slack-edge.com%2Fdf10d%2Fimg%2Favatars%2Fava_0006-512.png", "custom_css": null}, {"id": 9356, "slack_id": "U08S94SNC5N", "display_name": "Shane", "bio": null, "projects_count": 1, "devlogs_count": 0, "votes_count": 0, "ships_count": 0, "projects": [{"id": 1684, "title": "CP Mate", "devlogs_count": 0, "created_at": "2025-06-19T02:52:43.887-04:00"}], "coding_time_seconds": 530834, "coding_time_seconds_today": 0, "balance": "You need to have a pocket watcher badge to view this.", "badges": [], "created_at": "2025-06-19T02:29:17.794-04:00", "updated_at": "2025-08-12T01:32:08.978-04:00", "avatar": "https://avatars.slack-edge.com/2025-08-03/9281784571911_f6d4f66415fa902ca4d4_original.jpg", "custom_css": null}, {"id": 9357, "slack_id": "U092553V5MG", "display_name": "King", "bio": null, "projects_count": 0, "devlogs_count": 0, "votes_count": 0, "ships_count": 0, "projects": [], "coding_time_seconds": 0, "coding_time_seconds_today": 0, "balance": "You need to have a pocket watcher badge to view this.", "badges": [], "created_at": "2025-06-19T02:31:11.496-04:00", "updated_at": "2025-07-04T02:28:58.514-04:00", "avatar": "https://secure.gravatar.com/avatar/ed61d8b76fa425cda909b2c79a160eff.jpg?s=512&d=https%3A%2F%2Fa.slack-edge.com%2Fdf10d%2Fimg%2Favatars%2Fava_0020-512.png", "custom_css": null}, {"id": 9358, "slack_id": "U092TP8KPJL", "display_name": "Elvis Havi", "bio": null, "projects_count": 0, "devlogs_count": 0, "votes_count": 0, "ships_count": 0, "projects": [], "coding_time_seconds": 0, "coding_time_seconds_today": 0, "balance": "You need to have a pocket watcher badge to view this.", "badges": [], "created_at": "2025-06-19T02:33:13.424-04:00", "updated_at": "2025-07-03T19:51:42.866-04:00", "avatar": "https://secure.gravatar.com/avatar/8e81519b20685f973007ffeb7fb9dd9a.jpg?s=512&d=https%3A%2F%2Fa.slack-edge.com%2Fdf10d%2Fimg%2Favatars%2Fava_0005-512.png", "custom_css": null}, {"id": 9359, "slack_id": "U09240QG7PX", "display_name": "RobertI", "bio": null, "projects_count": 0, "devlogs_count": 0, "votes_count": 0, "ships_count": 0, "projects": [], "coding_time_seconds": 0, "coding_time_seconds_today": 0, "balance": "You need to have a pocket watcher badge to view this.", "badges": [], "created_at": "2025-06-19T02:33:37.044-04:00", "updated_at": "2025-07-03T21:59:38.785-04:00", "avatar": "https://secure.gravatar.com/avatar/ef0da0db45fbbd6d9bf78b9fffddef24.jpg?s=512&d=https%3A%2F%2Fa.slack-edge.com%2Fdf10d%2Fimg%2Favatars%2Fava_0014-512.png", "custom_css": null}, {"id": 9360, "slack_id": "U092TP8MW56", "display_name": "Aayush Pudasaini", "bio": null, "projects_count": 0, "devlogs_count": 0, "votes_count": 0, "ships_count": 0, "projects": [], "coding_time_seconds": 0, "coding_time_seconds_today": 0, "balance": "You need to have a pocket watcher badge to view this.", "badges": [], "created_at": "2025-06-19T02:33:44.370-04:00", "updated_at": "2025-07-07T02:11:33.506-04:00", "avatar": "https://avatars.slack-edge.com/2025-06-18/9073642587956_40c080178401b4a1cc36_original.jpg", "custom_css": null}], "pagination": {"page": 468, "pages": 1192, "count": 23828, "items": 20}}