{"users": [{"id": 9361, "slack_id": "U0925JC4GBE", "display_name": "Luis", "bio": null, "projects_count": 2, "devlogs_count": 2, "votes_count": 4, "ships_count": 0, "projects": [{"id": 1687, "title": "Artafera - Einzigart Eisenart", "devlogs_count": 2, "created_at": "2025-06-19T02:56:38.771-04:00"}, {"id": 1697, "title": "Switzerlang", "devlogs_count": 0, "created_at": "2025-06-19T03:18:35.981-04:00"}], "coding_time_seconds": 74599, "coding_time_seconds_today": 0, "balance": "You need to have a pocket watcher badge to view this.", "badges": [], "created_at": "2025-06-19T02:34:05.724-04:00", "updated_at": "2025-08-19T02:32:37.584-04:00", "avatar": "https://secure.gravatar.com/avatar/41dccddc0709fa59b66359466113366d.jpg?s=512&d=https%3A%2F%2Fa.slack-edge.com%2Fdf10d%2Fimg%2Favatars%2Fava_0000-512.png", "custom_css": null}, {"id": 9362, "slack_id": "U0924103X1T", "display_name": "teddy", "bio": null, "projects_count": 0, "devlogs_count": 0, "votes_count": 0, "ships_count": 0, "projects": [], "coding_time_seconds": 362, "coding_time_seconds_today": 0, "balance": "You need to have a pocket watcher badge to view this.", "badges": [], "created_at": "2025-06-19T02:37:30.975-04:00", "updated_at": "2025-07-04T02:28:58.934-04:00", "avatar": "https://secure.gravatar.com/avatar/598b3167f07a0b553c73bac4d757278e.jpg?s=512&d=https%3A%2F%2Fa.slack-edge.com%2Fdf10d%2Fimg%2Favatars%2Fava_0005-512.png", "custom_css": null}, {"id": 9363, "slack_id": "U092J1YT2P3", "display_name": "Deepika R N", "bio": null, "projects_count": 0, "devlogs_count": 0, "votes_count": 0, "ships_count": 0, "projects": [], "coding_time_seconds": 0, "coding_time_seconds_today": 0, "balance": "You need to have a pocket watcher badge to view this.", "badges": [], "created_at": "2025-06-19T02:37:40.633-04:00", "updated_at": "2025-07-03T21:59:39.091-04:00", "avatar": "https://avatars.slack-edge.com/2025-06-18/9066935925459_a57d1eba3444eb0c746a_original.jpg", "custom_css": null}, {"id": 9364, "slack_id": "U09255XFR34", "display_name": "S D", "bio": null, "projects_count": 0, "devlogs_count": 0, "votes_count": 0, "ships_count": 0, "projects": [], "coding_time_seconds": 0, "coding_time_seconds_today": 0, "balance": "You need to have a pocket watcher badge to view this.", "badges": [], "created_at": "2025-06-19T02:39:29.545-04:00", "updated_at": "2025-07-03T19:51:44.011-04:00", "avatar": "https://secure.gravatar.com/avatar/31e8a97bc97ac175e68c87f33160f531.jpg?s=512&d=https%3A%2F%2Fa.slack-edge.com%2Fdf10d%2Fimg%2Favatars%2Fava_0020-512.png", "custom_css": null}, {"id": 9365, "slack_id": "U091Z1TDLAJ", "display_name": "Hemanth Sai", "bio": null, "projects_count": 0, "devlogs_count": 0, "votes_count": 0, "ships_count": 0, "projects": [], "coding_time_seconds": 0, "coding_time_seconds_today": 0, "balance": "You need to have a pocket watcher badge to view this.", "badges": [], "created_at": "2025-06-19T02:40:19.620-04:00", "updated_at": "2025-07-03T19:51:44.280-04:00", "avatar": "https://secure.gravatar.com/avatar/0114c8cb3107dce9368f35ee3296f81f.jpg?s=512&d=https%3A%2F%2Fa.slack-edge.com%2Fdf10d%2Fimg%2Favatars%2Fava_0010-512.png", "custom_css": null}, {"id": 9366, "slack_id": "U0925K0UTHA", "display_name": "Matthew Chen", "bio": null, "projects_count": 0, "devlogs_count": 0, "votes_count": 0, "ships_count": 0, "projects": [], "coding_time_seconds": 86, "coding_time_seconds_today": 0, "balance": "You need to have a pocket watcher badge to view this.", "badges": [], "created_at": "2025-06-19T02:40:34.505-04:00", "updated_at": "2025-07-05T08:10:47.319-04:00", "avatar": "https://avatars.slack-edge.com/2025-06-18/9066946925795_3220a90f6d1e175997d6_original.png", "custom_css": null}, {"id": 9367, "slack_id": "U09256ATQAE", "display_name": "Sejal Mahajan", "bio": null, "projects_count": 0, "devlogs_count": 0, "votes_count": 0, "ships_count": 0, "projects": [], "coding_time_seconds": 7209, "coding_time_seconds_today": 0, "balance": "You need to have a pocket watcher badge to view this.", "badges": [], "created_at": "2025-06-19T02:41:09.006-04:00", "updated_at": "2025-07-03T19:51:44.685-04:00", "avatar": "https://secure.gravatar.com/avatar/c370ddd60cc460139780c7c0f90fe0f4.jpg?s=512&d=https%3A%2F%2Fa.slack-edge.com%2Fdf10d%2Fimg%2Favatars%2Fava_0000-512.png", "custom_css": null}, {"id": 9368, "slack_id": "U091YTGAMRR", "display_name": "Tanmay Murkute", "bio": null, "projects_count": 0, "devlogs_count": 0, "votes_count": 0, "ships_count": 0, "projects": [], "coding_time_seconds": 1998, "coding_time_seconds_today": 0, "balance": "You need to have a pocket watcher badge to view this.", "badges": [], "created_at": "2025-06-19T02:41:22.990-04:00", "updated_at": "2025-07-03T19:51:44.970-04:00", "avatar": "https://secure.gravatar.com/avatar/2de23449d6045b06a5c0910947ce1145.jpg?s=512&d=https%3A%2F%2Fa.slack-edge.com%2Fdf10d%2Fimg%2Favatars%2Fava_0021-512.png", "custom_css": null}, {"id": 9369, "slack_id": "U092J1XL9CH", "display_name": "kirthana", "bio": null, "projects_count": 0, "devlogs_count": 15, "votes_count": 9, "ships_count": 0, "projects": [], "coding_time_seconds": 892721, "coding_time_seconds_today": 0, "balance": "You need to have a pocket watcher badge to view this.", "badges": [], "created_at": "2025-06-19T02:41:26.706-04:00", "updated_at": "2025-08-11T12:49:38.688-04:00", "avatar": "https://secure.gravatar.com/avatar/42e654c03ea7d83f5447a499f0ab6896.jpg?s=512&d=https%3A%2F%2Fa.slack-edge.com%2Fdf10d%2Fimg%2Favatars%2Fava_0007-512.png", "custom_css": null}, {"id": 9370, "slack_id": "U091Z2BUD9C", "display_name": "Pratul Kumar", "bio": null, "projects_count": 0, "devlogs_count": 0, "votes_count": 0, "ships_count": 0, "projects": [], "coding_time_seconds": 84847, "coding_time_seconds_today": 0, "balance": "You need to have a pocket watcher badge to view this.", "badges": [], "created_at": "2025-06-19T02:42:05.138-04:00", "updated_at": "2025-07-03T19:51:45.495-04:00", "avatar": "https://avatars.slack-edge.com/2025-06-18/9067091178934_7efcf70dc272db96bdbc_original.png", "custom_css": null}, {"id": 9371, "slack_id": "U092TQLAX7S", "display_name": "dv", "bio": null, "projects_count": 0, "devlogs_count": 0, "votes_count": 0, "ships_count": 0, "projects": [], "coding_time_seconds": 0, "coding_time_seconds_today": 0, "balance": "You need to have a pocket watcher badge to view this.", "badges": [], "created_at": "2025-06-19T02:44:56.861-04:00", "updated_at": "2025-07-03T19:51:45.761-04:00", "avatar": "https://secure.gravatar.com/avatar/01a21abaf2b19c900981eb53cf1ff3a2.jpg?s=512&d=https%3A%2F%2Fa.slack-edge.com%2Fdf10d%2Fimg%2Favatars%2Fava_0014-512.png", "custom_css": null}, {"id": 9372, "slack_id": "U091QE6PBGF", "display_name": "Abhinav", "bio": null, "projects_count": 0, "devlogs_count": 0, "votes_count": 0, "ships_count": 0, "projects": [], "coding_time_seconds": 0, "coding_time_seconds_today": 0, "balance": "You need to have a pocket watcher badge to view this.", "badges": [], "created_at": "2025-06-19T02:45:28.528-04:00", "updated_at": "2025-07-03T19:51:46.021-04:00", "avatar": "https://secure.gravatar.com/avatar/18e8178bb253eb482dd303df033c99e6.jpg?s=512&d=https%3A%2F%2Fa.slack-edge.com%2Fdf10d%2Fimg%2Favatars%2Fava_0002-512.png", "custom_css": null}, {"id": 9373, "slack_id": "U09242CBL2H", "display_name": "Chelsea Wong", "bio": null, "projects_count": 0, "devlogs_count": 0, "votes_count": 0, "ships_count": 0, "projects": [], "coding_time_seconds": 70046, "coding_time_seconds_today": 0, "balance": "You need to have a pocket watcher badge to view this.", "badges": [], "created_at": "2025-06-19T02:47:52.078-04:00", "updated_at": "2025-07-03T19:51:46.286-04:00", "avatar": "https://secure.gravatar.com/avatar/8d12bf30f424bdc6b47befb0bdb2aff8.jpg?s=512&d=https%3A%2F%2Fa.slack-edge.com%2Fdf10d%2Fimg%2Favatars%2Fava_0020-512.png", "custom_css": null}, {"id": 9374, "slack_id": "U091YTK30TV", "display_name": "kurunin4", "bio": null, "projects_count": 1, "devlogs_count": 0, "votes_count": 0, "ships_count": 0, "projects": [{"id": 1722, "title": "static-website-on-aws", "devlogs_count": 0, "created_at": "2025-06-19T04:59:57.270-04:00"}], "coding_time_seconds": 7148, "coding_time_seconds_today": 0, "balance": "You need to have a pocket watcher badge to view this.", "badges": [], "created_at": "2025-06-19T02:48:21.938-04:00", "updated_at": "2025-07-03T19:51:46.544-04:00", "avatar": "https://avatars.slack-edge.com/2025-06-19/9096546687984_66e8e8dcbc685258a04e_original.jpg", "custom_css": null}, {"id": 9375, "slack_id": "U091YU83WN7", "display_name": "Divyanshu_shinde", "bio": null, "projects_count": 0, "devlogs_count": 0, "votes_count": 0, "ships_count": 0, "projects": [], "coding_time_seconds": 30249, "coding_time_seconds_today": 179, "balance": "You need to have a pocket watcher badge to view this.", "badges": [], "created_at": "2025-06-19T02:52:13.448-04:00", "updated_at": "2025-07-03T19:51:46.797-04:00", "avatar": "https://secure.gravatar.com/avatar/7ff8b9da9e5c1068495d4ff141368a3b.jpg?s=512&d=https%3A%2F%2Fa.slack-edge.com%2Fdf10d%2Fimg%2Favatars%2Fava_0023-512.png", "custom_css": null}, {"id": 9376, "slack_id": "U091L32QLDC", "display_name": "Nipuna", "bio": null, "projects_count": 0, "devlogs_count": 0, "votes_count": 0, "ships_count": 0, "projects": [], "coding_time_seconds": 0, "coding_time_seconds_today": 0, "balance": "You need to have a pocket watcher badge to view this.", "badges": [], "created_at": "2025-06-19T02:52:51.103-04:00", "updated_at": "2025-07-03T19:51:47.079-04:00", "avatar": "https://secure.gravatar.com/avatar/b49cd757b517a3336c40d94dc2f58ad1.jpg?s=512&d=https%3A%2F%2Fa.slack-edge.com%2Fdf10d%2Fimg%2Favatars%2Fava_0021-512.png", "custom_css": null}, {"id": 9377, "slack_id": "U092J3XD1G9", "display_name": "Gagandeep Singh", "bio": null, "projects_count": 1, "devlogs_count": 0, "votes_count": 0, "ships_count": 0, "projects": [{"id": 1698, "title": "Portfolio", "devlogs_count": 0, "created_at": "2025-06-19T03:26:13.840-04:00"}], "coding_time_seconds": 103831, "coding_time_seconds_today": 0, "balance": "You need to have a pocket watcher badge to view this.", "badges": [], "created_at": "2025-06-19T02:54:59.461-04:00", "updated_at": "2025-07-03T19:51:47.366-04:00", "avatar": "https://secure.gravatar.com/avatar/d947f2cd37533fc3742386c2f5c1fda4.jpg?s=512&d=https%3A%2F%2Fa.slack-edge.com%2Fdf10d%2Fimg%2Favatars%2Fava_0024-512.png", "custom_css": null}, {"id": 9378, "slack_id": "U09257SAZ42", "display_name": "Richie Havoc", "bio": null, "projects_count": 0, "devlogs_count": 0, "votes_count": 0, "ships_count": 0, "projects": [], "coding_time_seconds": 0, "coding_time_seconds_today": 0, "balance": "You need to have a pocket watcher badge to view this.", "badges": [], "created_at": "2025-06-19T02:55:09.751-04:00", "updated_at": "2025-07-03T19:51:47.628-04:00", "avatar": "https://secure.gravatar.com/avatar/d7293f6a5a2ca9daf9a803c6da5b16fd.jpg?s=512&d=https%3A%2F%2Fa.slack-edge.com%2Fdf10d%2Fimg%2Favatars%2Fava_0025-512.png", "custom_css": null}, {"id": 9379, "slack_id": "U09257VGXMY", "display_name": "Sami3160", "bio": null, "projects_count": 0, "devlogs_count": 0, "votes_count": 0, "ships_count": 0, "projects": [], "coding_time_seconds": 0, "coding_time_seconds_today": 0, "balance": "You need to have a pocket watcher badge to view this.", "badges": [], "created_at": "2025-06-19T02:56:38.115-04:00", "updated_at": "2025-07-03T21:47:38.839-04:00", "avatar": "https://secure.gravatar.com/avatar/539483db7d86820e2f246ede7546d196.jpg?s=512&d=https%3A%2F%2Fa.slack-edge.com%2Fdf10d%2Fimg%2Favatars%2Fava_0025-512.png", "custom_css": null}, {"id": 9380, "slack_id": "U092J4H9W0H", "display_name": "jaisal k jain", "bio": null, "projects_count": 0, "devlogs_count": 0, "votes_count": 0, "ships_count": 0, "projects": [], "coding_time_seconds": 0, "coding_time_seconds_today": 0, "balance": "You need to have a pocket watcher badge to view this.", "badges": [], "created_at": "2025-06-19T02:58:27.057-04:00", "updated_at": "2025-07-03T19:51:48.042-04:00", "avatar": "https://secure.gravatar.com/avatar/9a0372a14c908e7c29ebfab7ce4afc12.jpg?s=512&d=https%3A%2F%2Fa.slack-edge.com%2Fdf10d%2Fimg%2Favatars%2Fava_0002-512.png", "custom_css": null}], "pagination": {"page": 469, "pages": 1192, "count": 23828, "items": 20}}