{"users": [{"id": 921, "slack_id": "U092BN4QB5W", "display_name": "Osinachukwu Nnanna", "bio": null, "projects_count": 4, "devlogs_count": 13, "votes_count": 19, "ships_count": 4, "projects": [{"id": 2080, "title": "React-A-Flap", "devlogs_count": 2, "created_at": "2025-06-20T04:27:53.010-04:00"}, {"id": 5824, "title": "Youtube Playlist Manager", "devlogs_count": 1, "created_at": "2025-07-08T09:15:46.388-04:00"}, {"id": 11866, "title": "JobHive", "devlogs_count": 3, "created_at": "2025-08-20T12:51:47.169-04:00"}, {"id": 5017, "title": "LyricsCli", "devlogs_count": 7, "created_at": "2025-07-02T18:19:52.380-04:00"}], "coding_time_seconds": 354775, "coding_time_seconds_today": 0, "balance": "You need to have a pocket watcher badge to view this.", "badges": [{"name": "Maiden Voyage", "text": "you shipped your first project! the journey begins...", "icon": "\ud83d\udea2"}], "created_at": "2025-06-16T12:23:43.305-04:00", "updated_at": "2025-09-10T22:51:36.554-04:00", "avatar": "https://secure.gravatar.com/avatar/f4dc91c17625ce71fd873e713e62954b.jpg?s=512&d=https%3A%2F%2Fa.slack-edge.com%2Fdf10d%2Fimg%2Favatars%2Fava_0001-512.png", "custom_css": null}, {"id": 922, "slack_id": "U092BLECAD6", "display_name": "manish", "bio": null, "projects_count": 0, "devlogs_count": 0, "votes_count": 0, "ships_count": 0, "projects": [], "coding_time_seconds": 466228, "coding_time_seconds_today": 0, "balance": "You need to have a pocket watcher badge to view this.", "badges": [], "created_at": "2025-06-16T12:23:46.495-04:00", "updated_at": "2025-07-03T19:15:13.853-04:00", "avatar": "https://secure.gravatar.com/avatar/d2a031bd85955436d01bdedae0927668.jpg?s=512&d=https%3A%2F%2Fa.slack-edge.com%2Fdf10d%2Fimg%2Favatars%2Fava_0002-512.png", "custom_css": null}, {"id": 923, "slack_id": "U091PLYDPV2", "display_name": "Kartikey Sharma", "bio": null, "projects_count": 0, "devlogs_count": 0, "votes_count": 0, "ships_count": 0, "projects": [], "coding_time_seconds": 161608, "coding_time_seconds_today": 0, "balance": "You need to have a pocket watcher badge to view this.", "badges": [], "created_at": "2025-06-16T12:23:53.882-04:00", "updated_at": "2025-07-03T19:15:14.115-04:00", "avatar": "https://avatars.slack-edge.com/2025-06-16/9055528055877_40fce9a23c9a8dec7657_original.jpg", "custom_css": null}, {"id": 924, "slack_id": "U091P8BM090", "display_name": "Vinitha Sri Prathipati", "bio": null, "projects_count": 0, "devlogs_count": 0, "votes_count": 0, "ships_count": 0, "projects": [], "coding_time_seconds": 0, "coding_time_seconds_today": 0, "balance": "You need to have a pocket watcher badge to view this.", "badges": [], "created_at": "2025-06-16T12:24:06.665-04:00", "updated_at": "2025-07-03T19:15:14.375-04:00", "avatar": "https://secure.gravatar.com/avatar/636d874fe403fcec829ec13634a526b1.jpg?s=512&d=https%3A%2F%2Fa.slack-edge.com%2Fdf10d%2Fimg%2Favatars%2Fava_0021-512.png", "custom_css": null}, {"id": 925, "slack_id": "U0917UQB44F", "display_name": "BIKRAM SOREN", "bio": null, "projects_count": 1, "devlogs_count": 0, "votes_count": 0, "ships_count": 0, "projects": [{"id": 4047, "title": "AI-Powered Sketch Recognizer", "devlogs_count": 0, "created_at": "2025-06-27T03:59:35.088-04:00"}], "coding_time_seconds": 144666, "coding_time_seconds_today": 5523, "balance": "You need to have a pocket watcher badge to view this.", "badges": [], "created_at": "2025-06-16T12:24:08.476-04:00", "updated_at": "2025-07-03T19:15:14.642-04:00", "avatar": "https://avatars.slack-edge.com/2025-06-27/9135918028160_9ebfbbe133f338d80def_original.jpg", "custom_css": null}, {"id": 926, "slack_id": "U08HVK3J55Y", "display_name": "Amrloksha151", "bio": null, "projects_count": 4, "devlogs_count": 5, "votes_count": 18, "ships_count": 1, "projects": [{"id": 639, "title": "Financer", "devlogs_count": 1, "created_at": "2025-06-17T03:50:53.594-04:00"}, {"id": 2522, "title": "Dir Fuzzer", "devlogs_count": 0, "created_at": "2025-06-21T07:50:07.561-04:00"}, {"id": 5404, "title": "School website", "devlogs_count": 1, "created_at": "2025-07-05T03:13:52.560-04:00"}, {"id": 7561, "title": "Spidey", "devlogs_count": 3, "created_at": "2025-07-22T05:44:04.487-04:00"}], "coding_time_seconds": 252443, "coding_time_seconds_today": 0, "balance": "You need to have a pocket watcher badge to view this.", "badges": [{"name": "Maiden Voyage", "text": "you shipped your first project! the journey begins...", "icon": "\ud83d\udea2"}], "created_at": "2025-06-16T12:24:09.027-04:00", "updated_at": "2025-09-10T22:51:36.737-04:00", "avatar": "https://avatars.slack-edge.com/2025-03-16/8610979535138_e8f3d43bda3fa2d51e22_original.png", "custom_css": null}, {"id": 927, "slack_id": "U0921R64LAV", "display_name": "Shantanu Shinde", "bio": null, "projects_count": 0, "devlogs_count": 0, "votes_count": 0, "ships_count": 0, "projects": [], "coding_time_seconds": 0, "coding_time_seconds_today": 0, "balance": "You need to have a pocket watcher badge to view this.", "badges": [], "created_at": "2025-06-16T12:24:16.821-04:00", "updated_at": "2025-07-03T19:15:15.186-04:00", "avatar": "https://secure.gravatar.com/avatar/fa910680a289d8d5a85aac554f13050c.jpg?s=512&d=https%3A%2F%2Fa.slack-edge.com%2Fdf10d%2Fimg%2Favatars%2Fava_0012-512.png", "custom_css": null}, {"id": 928, "slack_id": "U092BNP3K6C", "display_name": "FormulaCarbon", "bio": null, "projects_count": 0, "devlogs_count": 0, "votes_count": 0, "ships_count": 0, "projects": [], "coding_time_seconds": 0, "coding_time_seconds_today": 0, "balance": "You need to have a pocket watcher badge to view this.", "badges": [], "created_at": "2025-06-16T12:24:29.767-04:00", "updated_at": "2025-07-03T19:15:15.462-04:00", "avatar": "https://secure.gravatar.com/avatar/6253a8f0faf2dfdb6dff43a206e2002e.jpg?s=512&d=https%3A%2F%2Fa.slack-edge.com%2Fdf10d%2Fimg%2Favatars%2Fava_0013-512.png", "custom_css": null}, {"id": 929, "slack_id": "U091GCAFLTY", "display_name": "Logan Waller", "bio": null, "projects_count": 0, "devlogs_count": 0, "votes_count": 0, "ships_count": 0, "projects": [], "coding_time_seconds": 12501, "coding_time_seconds_today": 0, "balance": "You need to have a pocket watcher badge to view this.", "badges": [], "created_at": "2025-06-16T12:24:36.166-04:00", "updated_at": "2025-07-03T19:15:15.726-04:00", "avatar": "https://secure.gravatar.com/avatar/8c21b9ea4261beef6366678d1c7493a5.jpg?s=512&d=https%3A%2F%2Fa.slack-edge.com%2Fdf10d%2Fimg%2Favatars%2Fava_0022-512.png", "custom_css": null}, {"id": 930, "slack_id": "U091G8W1X19", "display_name": "Clyde (clydesu)", "bio": null, "projects_count": 0, "devlogs_count": 0, "votes_count": 0, "ships_count": 0, "projects": [], "coding_time_seconds": 0, "coding_time_seconds_today": 0, "balance": "You need to have a pocket watcher badge to view this.", "badges": [], "created_at": "2025-06-16T12:24:41.042-04:00", "updated_at": "2025-07-03T19:15:15.998-04:00", "avatar": "https://avatars.slack-edge.com/2025-06-16/9041994880359_789e57972b1ac148cc2d_original.png", "custom_css": null}, {"id": 931, "slack_id": "U091MF6QC7P", "display_name": "Wayne", "bio": null, "projects_count": 0, "devlogs_count": 0, "votes_count": 0, "ships_count": 0, "projects": [], "coding_time_seconds": 63352, "coding_time_seconds_today": 0, "balance": "You need to have a pocket watcher badge to view this.", "badges": [], "created_at": "2025-06-16T12:24:47.204-04:00", "updated_at": "2025-07-03T19:15:16.269-04:00", "avatar": "https://secure.gravatar.com/avatar/b45acf95d12e0a27e372a8250a32b21c.jpg?s=512&d=https%3A%2F%2Fa.slack-edge.com%2Fdf10d%2Fimg%2Favatars%2Fava_0009-512.png", "custom_css": null}, {"id": 932, "slack_id": "U091PM8MLAG", "display_name": "Klaas Van Mechelen", "bio": null, "projects_count": 0, "devlogs_count": 0, "votes_count": 0, "ships_count": 0, "projects": [], "coding_time_seconds": 0, "coding_time_seconds_today": 0, "balance": "You need to have a pocket watcher badge to view this.", "badges": [], "created_at": "2025-06-16T12:24:51.548-04:00", "updated_at": "2025-07-03T19:15:16.531-04:00", "avatar": "https://secure.gravatar.com/avatar/83a5a5311d8fde115f99df70005e875f.jpg?s=512&d=https%3A%2F%2Fa.slack-edge.com%2Fdf10d%2Fimg%2Favatars%2Fava_0010-512.png", "custom_css": null}, {"id": 933, "slack_id": "U092BNGKDB2", "display_name": "rithas", "bio": null, "projects_count": 2, "devlogs_count": 2, "votes_count": 18, "ships_count": 2, "projects": [{"id": 7119, "title": "Tic Tac Toe with an unbeatable AI bot", "devlogs_count": 1, "created_at": "2025-07-19T07:09:22.993-04:00"}, {"id": 4192, "title": "Calculator", "devlogs_count": 1, "created_at": "2025-06-28T05:22:20.174-04:00"}], "coding_time_seconds": 282179, "coding_time_seconds_today": 0, "balance": "You need to have a pocket watcher badge to view this.", "badges": [{"name": "Maiden Voyage", "text": "you shipped your first project! the journey begins...", "icon": "\ud83d\udea2"}], "created_at": "2025-06-16T12:24:53.195-04:00", "updated_at": "2025-09-10T22:51:36.995-04:00", "avatar": "https://secure.gravatar.com/avatar/2f31a0afe499dcc33fcae79fb335f9b0.jpg?s=512&d=https%3A%2F%2Fa.slack-edge.com%2Fdf10d%2Fimg%2Favatars%2Fava_0009-512.png", "custom_css": null}, {"id": 934, "slack_id": "U0917V1N6EB", "display_name": "Victor", "bio": null, "projects_count": 0, "devlogs_count": 0, "votes_count": 0, "ships_count": 0, "projects": [], "coding_time_seconds": 0, "coding_time_seconds_today": 0, "balance": "You need to have a pocket watcher badge to view this.", "badges": [], "created_at": "2025-06-16T12:24:53.474-04:00", "updated_at": "2025-07-03T19:15:17.119-04:00", "avatar": "https://secure.gravatar.com/avatar/4583f611f0f46e1a0f7d5945da7cdfd2.jpg?s=512&d=https%3A%2F%2Fa.slack-edge.com%2Fdf10d%2Fimg%2Favatars%2Fava_0026-512.png", "custom_css": null}, {"id": 935, "slack_id": "U091G5HRVS7", "display_name": "Stephen", "bio": null, "projects_count": 0, "devlogs_count": 0, "votes_count": 0, "ships_count": 0, "projects": [], "coding_time_seconds": 0, "coding_time_seconds_today": 0, "balance": "You need to have a pocket watcher badge to view this.", "badges": [], "created_at": "2025-06-16T12:24:56.941-04:00", "updated_at": "2025-07-03T19:15:17.389-04:00", "avatar": "https://secure.gravatar.com/avatar/c57a12f202f898bd178ce212e096334c.jpg?s=512&d=https%3A%2F%2Fa.slack-edge.com%2Fdf10d%2Fimg%2Favatars%2Fava_0015-512.png", "custom_css": null}, {"id": 936, "slack_id": "U0917V2MHV5", "display_name": "Neeraj Kumar Prajapati", "bio": null, "projects_count": 0, "devlogs_count": 0, "votes_count": 0, "ships_count": 0, "projects": [], "coding_time_seconds": 0, "coding_time_seconds_today": 0, "balance": "You need to have a pocket watcher badge to view this.", "badges": [], "created_at": "2025-06-16T12:24:58.830-04:00", "updated_at": "2025-07-03T19:15:17.674-04:00", "avatar": "https://avatars.slack-edge.com/2025-06-16/9057304846818_919b901591f893f81159_original.png", "custom_css": null}, {"id": 937, "slack_id": "U0834SYBY3E", "display_name": "kapitalny", "bio": null, "projects_count": 1, "devlogs_count": 1, "votes_count": 0, "ships_count": 0, "projects": [{"id": 3551, "title": "WakeMate", "devlogs_count": 1, "created_at": "2025-06-24T16:38:43.468-04:00"}], "coding_time_seconds": 10729, "coding_time_seconds_today": 0, "balance": "You need to have a pocket watcher badge to view this.", "badges": [], "created_at": "2025-06-16T12:25:06.827-04:00", "updated_at": "2025-08-14T06:27:42.103-04:00", "avatar": "https://secure.gravatar.com/avatar/6ebfd309fe68f8178e35a40894a6853e.jpg?s=512&d=https%3A%2F%2Fa.slack-edge.com%2Fdf10d%2Fimg%2Favatars%2Fava_0009-512.png", "custom_css": null}, {"id": 938, "slack_id": "U091G9APT5Z", "display_name": "Mohit Upadhyay", "bio": null, "projects_count": 0, "devlogs_count": 0, "votes_count": 0, "ships_count": 0, "projects": [], "coding_time_seconds": 0, "coding_time_seconds_today": 0, "balance": "You need to have a pocket watcher badge to view this.", "badges": [], "created_at": "2025-06-16T12:25:07.130-04:00", "updated_at": "2025-07-03T19:15:18.216-04:00", "avatar": "https://secure.gravatar.com/avatar/4da48378d4bb42363986955f5f74f545.jpg?s=512&d=https%3A%2F%2Fa.slack-edge.com%2Fdf10d%2Fimg%2Favatars%2Fava_0013-512.png", "custom_css": null}, {"id": 939, "slack_id": "U091G9FVB7D", "display_name": "chemokita13", "bio": null, "projects_count": 1, "devlogs_count": 0, "votes_count": 0, "ships_count": 0, "projects": [{"id": 301, "title": "BackEnd app", "devlogs_count": 0, "created_at": "2025-06-16T17:33:18.456-04:00"}], "coding_time_seconds": 5422, "coding_time_seconds_today": 0, "balance": "You need to have a pocket watcher badge to view this.", "badges": [], "created_at": "2025-06-16T12:25:11.233-04:00", "updated_at": "2025-07-03T19:15:18.484-04:00", "avatar": "https://secure.gravatar.com/avatar/30aa6934522b5e233b10edd00b84038d.jpg?s=512&d=https%3A%2F%2Fa.slack-edge.com%2Fdf10d%2Fimg%2Favatars%2Fava_0006-512.png", "custom_css": null}, {"id": 940, "slack_id": "U091PM7AG2G", "display_name": "Ollie", "bio": null, "projects_count": 1, "devlogs_count": 3, "votes_count": 0, "ships_count": 0, "projects": [{"id": 2441, "title": "Price Compare", "devlogs_count": 3, "created_at": "2025-06-21T03:34:00.715-04:00"}], "coding_time_seconds": 188202, "coding_time_seconds_today": 0, "balance": "You need to have a pocket watcher badge to view this.", "badges": [], "created_at": "2025-06-16T12:25:18.286-04:00", "updated_at": "2025-07-03T19:15:18.756-04:00", "avatar": "https://secure.gravatar.com/avatar/76845882ac6938363148d0f9a55a52c9.jpg?s=512&d=https%3A%2F%2Fa.slack-edge.com%2Fdf10d%2Fimg%2Favatars%2Fava_0008-512.png", "custom_css": null}], "pagination": {"page": 47, "pages": 1192, "count": 23827, "items": 20}}