{"users": [{"id": 9401, "slack_id": "U0925PBMK8U", "display_name": "TCoding", "bio": null, "projects_count": 0, "devlogs_count": 0, "votes_count": 0, "ships_count": 0, "projects": [], "coding_time_seconds": 0, "coding_time_seconds_today": 0, "balance": "You need to have a pocket watcher badge to view this.", "badges": [], "created_at": "2025-06-19T03:13:33.377-04:00", "updated_at": "2025-07-03T19:51:52.944-04:00", "avatar": "https://secure.gravatar.com/avatar/a55883f62d9e39b646cd152f8940babf.jpg?s=512&d=https%3A%2F%2Fa.slack-edge.com%2Fdf10d%2Fimg%2Favatars%2Fava_0007-512.png", "custom_css": null}, {"id": 9402, "slack_id": "U092J6YH257", "display_name": "Rithvik Mahankali", "bio": null, "projects_count": 0, "devlogs_count": 0, "votes_count": 0, "ships_count": 0, "projects": [], "coding_time_seconds": 0, "coding_time_seconds_today": 0, "balance": "You need to have a pocket watcher badge to view this.", "badges": [], "created_at": "2025-06-19T03:15:52.802-04:00", "updated_at": "2025-07-04T02:29:01.993-04:00", "avatar": "https://avatars.slack-edge.com/2025-06-19/9073818073268_7ef2897f28331946bbfc_original.jpg", "custom_css": null}, {"id": 9403, "slack_id": "U092TUXEA3S", "display_name": "Sabdo Triatmojo", "bio": null, "projects_count": 0, "devlogs_count": 0, "votes_count": 0, "ships_count": 0, "projects": [], "coding_time_seconds": 0, "coding_time_seconds_today": 0, "balance": "You need to have a pocket watcher badge to view this.", "badges": [], "created_at": "2025-06-19T03:18:57.962-04:00", "updated_at": "2025-07-03T21:59:42.019-04:00", "avatar": "https://avatars.slack-edge.com/2025-06-19/9086262740609_ec864c2d9fae13438f2f_original.png", "custom_css": null}, {"id": 9404, "slack_id": "U092J5K3XUH", "display_name": "shareeff", "bio": null, "projects_count": 0, "devlogs_count": 0, "votes_count": 0, "ships_count": 0, "projects": [], "coding_time_seconds": 0, "coding_time_seconds_today": 0, "balance": "You need to have a pocket watcher badge to view this.", "badges": [], "created_at": "2025-06-19T03:23:06.271-04:00", "updated_at": "2025-07-03T19:51:53.475-04:00", "avatar": "https://secure.gravatar.com/avatar/2ce6ecd95d270d19290100f34d6ba847.jpg?s=512&d=https%3A%2F%2Fa.slack-edge.com%2Fdf10d%2Fimg%2Favatars%2Fava_0022-512.png", "custom_css": null}, {"id": 9405, "slack_id": "U092TUP6H6C", "display_name": "Punith V", "bio": null, "projects_count": 0, "devlogs_count": 0, "votes_count": 0, "ships_count": 0, "projects": [], "coding_time_seconds": 0, "coding_time_seconds_today": 0, "balance": "You need to have a pocket watcher badge to view this.", "badges": [], "created_at": "2025-06-19T03:24:46.487-04:00", "updated_at": "2025-07-03T19:51:53.749-04:00", "avatar": "https://secure.gravatar.com/avatar/ca6beb08038f107075ec367ffca936bf.jpg?s=512&d=https%3A%2F%2Fa.slack-edge.com%2Fdf10d%2Fimg%2Favatars%2Fava_0005-512.png", "custom_css": null}, {"id": 9406, "slack_id": "U0925BW6GUS", "display_name": "Foysal Ahmmed Limon", "bio": null, "projects_count": 0, "devlogs_count": 0, "votes_count": 0, "ships_count": 0, "projects": [], "coding_time_seconds": 0, "coding_time_seconds_today": 0, "balance": "You need to have a pocket watcher badge to view this.", "badges": [], "created_at": "2025-06-19T03:26:53.886-04:00", "updated_at": "2025-07-03T19:51:54.030-04:00", "avatar": "https://secure.gravatar.com/avatar/2a3d181cf9802c1ddbd6f0e6691fcc8f.jpg?s=512&d=https%3A%2F%2Fa.slack-edge.com%2Fdf10d%2Fimg%2Favatars%2Fava_0010-512.png", "custom_css": null}, {"id": 9407, "slack_id": "U09247LM9HT", "display_name": "Juan Cruz Francitorra", "bio": null, "projects_count": 1, "devlogs_count": 0, "votes_count": 0, "ships_count": 0, "projects": [{"id": 4613, "title": "Program to improve in lol", "devlogs_count": 0, "created_at": "2025-06-30T21:25:28.113-04:00"}], "coding_time_seconds": 102851, "coding_time_seconds_today": 0, "balance": "You need to have a pocket watcher badge to view this.", "badges": [], "created_at": "2025-06-19T03:27:52.439-04:00", "updated_at": "2025-07-03T19:51:54.290-04:00", "avatar": "https://avatars.slack-edge.com/2025-06-19/9067149068627_15a41a818295c4db8e0a_original.png", "custom_css": null}, {"id": 9408, "slack_id": "U07GRAPMN5N", "display_name": "Sachin Bhati", "bio": null, "projects_count": 0, "devlogs_count": 0, "votes_count": 0, "ships_count": 0, "projects": [], "coding_time_seconds": 0, "coding_time_seconds_today": 0, "balance": "You need to have a pocket watcher badge to view this.", "badges": [], "created_at": "2025-06-19T03:29:45.382-04:00", "updated_at": "2025-07-04T08:25:18.428-04:00", "avatar": "https://avatars.slack-edge.com/2025-03-23/8648233643940_ebbb53625748083f7019_original.jpg", "custom_css": null}, {"id": 9409, "slack_id": "U091QKYSJF9", "display_name": "Aditya kumar", "bio": null, "projects_count": 0, "devlogs_count": 0, "votes_count": 0, "ships_count": 0, "projects": [], "coding_time_seconds": 0, "coding_time_seconds_today": 0, "balance": "You need to have a pocket watcher badge to view this.", "badges": [], "created_at": "2025-06-19T03:30:03.818-04:00", "updated_at": "2025-07-03T19:51:54.699-04:00", "avatar": "https://secure.gravatar.com/avatar/1828a3c06662478889e2a2f2278b9072.jpg?s=512&d=https%3A%2F%2Fa.slack-edge.com%2Fdf10d%2Fimg%2Favatars%2Fava_0017-512.png", "custom_css": null}, {"id": 9410, "slack_id": "U092U0ZTLNL", "display_name": "Cristian Cerasuolo", "bio": null, "projects_count": 0, "devlogs_count": 0, "votes_count": 0, "ships_count": 0, "projects": [], "coding_time_seconds": 0, "coding_time_seconds_today": 0, "balance": "You need to have a pocket watcher badge to view this.", "badges": [], "created_at": "2025-06-19T03:31:21.188-04:00", "updated_at": "2025-07-03T19:51:54.964-04:00", "avatar": "https://avatars.slack-edge.com/2025-06-19/9096049858064_62b3dd62188333f05a02_original.png", "custom_css": null}, {"id": 9411, "slack_id": "U092J93D15F", "display_name": "Dipan", "bio": null, "projects_count": 0, "devlogs_count": 0, "votes_count": 0, "ships_count": 0, "projects": [], "coding_time_seconds": 0, "coding_time_seconds_today": 0, "balance": "You need to have a pocket watcher badge to view this.", "badges": [], "created_at": "2025-06-19T03:31:37.504-04:00", "updated_at": "2025-07-03T21:59:42.606-04:00", "avatar": "https://secure.gravatar.com/avatar/3b2b4e65eca952bcf4324f0a7aed8817.jpg?s=512&d=https%3A%2F%2Fa.slack-edge.com%2Fdf10d%2Fimg%2Favatars%2Fava_0007-512.png", "custom_css": null}, {"id": 9412, "slack_id": "U092U1V7YSU", "display_name": "Celia L\u00f3pez Gala", "bio": null, "projects_count": 2, "devlogs_count": 0, "votes_count": 0, "ships_count": 0, "projects": [{"id": 1725, "title": "Celia Lab", "devlogs_count": 0, "created_at": "2025-06-19T05:26:34.513-04:00"}, {"id": 3540, "title": "EPFL Pre Univerity Week", "devlogs_count": 0, "created_at": "2025-06-24T16:04:13.053-04:00"}], "coding_time_seconds": 7712, "coding_time_seconds_today": 0, "balance": "You need to have a pocket watcher badge to view this.", "badges": [], "created_at": "2025-06-19T03:37:09.640-04:00", "updated_at": "2025-07-04T20:10:02.117-04:00", "avatar": "https://avatars.slack-edge.com/2025-06-19/9073468779474_e179bbc424e06bc55af5_original.jpg", "custom_css": null}, {"id": 9413, "slack_id": "U092U1P4YPJ", "display_name": "Gurshaan Singh", "bio": null, "projects_count": 0, "devlogs_count": 0, "votes_count": 0, "ships_count": 0, "projects": [], "coding_time_seconds": 0, "coding_time_seconds_today": 0, "balance": "You need to have a pocket watcher badge to view this.", "badges": [], "created_at": "2025-06-19T03:37:14.260-04:00", "updated_at": "2025-07-03T19:51:55.509-04:00", "avatar": "https://secure.gravatar.com/avatar/dabbb9d069e7c3a1dad6388b2966c6da.jpg?s=512&d=https%3A%2F%2Fa.slack-edge.com%2Fdf10d%2Fimg%2Favatars%2Fava_0023-512.png", "custom_css": null}, {"id": 9414, "slack_id": "U07F5P1K529", "display_name": "rusted", "bio": null, "projects_count": 0, "devlogs_count": 0, "votes_count": 0, "ships_count": 0, "projects": [], "coding_time_seconds": 0, "coding_time_seconds_today": 0, "balance": "You need to have a pocket watcher badge to view this.", "badges": [], "created_at": "2025-06-19T03:38:35.484-04:00", "updated_at": "2025-07-03T19:51:55.767-04:00", "avatar": "https://secure.gravatar.com/avatar/2b21d504b87c563bc4389c484900f4b5.jpg?s=512&d=https%3A%2F%2Fa.slack-edge.com%2Fdf10d%2Fimg%2Favatars%2Fava_0026-512.png", "custom_css": null}, {"id": 9415, "slack_id": "U091Z9TGBE2", "display_name": "Srinivasan V", "bio": null, "projects_count": 0, "devlogs_count": 0, "votes_count": 0, "ships_count": 0, "projects": [], "coding_time_seconds": 18576, "coding_time_seconds_today": 0, "balance": "You need to have a pocket watcher badge to view this.", "badges": [], "created_at": "2025-06-19T03:40:30.921-04:00", "updated_at": "2025-07-03T19:51:56.034-04:00", "avatar": "https://secure.gravatar.com/avatar/9807f806941a6449348b6fedcf47a461.jpg?s=512&d=https%3A%2F%2Fa.slack-edge.com%2Fdf10d%2Fimg%2Favatars%2Fava_0007-512.png", "custom_css": null}, {"id": 9416, "slack_id": "U091ZA79X9C", "display_name": "Akshit mahajan", "bio": null, "projects_count": 0, "devlogs_count": 0, "votes_count": 0, "ships_count": 0, "projects": [], "coding_time_seconds": 502801, "coding_time_seconds_today": 0, "balance": "You need to have a pocket watcher badge to view this.", "badges": [], "created_at": "2025-06-19T03:42:39.486-04:00", "updated_at": "2025-07-03T19:51:56.296-04:00", "avatar": "https://avatars.slack-edge.com/2025-06-19/9067215251699_99a51c9c691463c92b0f_original.png", "custom_css": null}, {"id": 9417, "slack_id": "U0925TD4PEG", "display_name": "Vivek Upadhayay", "bio": null, "projects_count": 0, "devlogs_count": 0, "votes_count": 0, "ships_count": 0, "projects": [], "coding_time_seconds": 67953, "coding_time_seconds_today": 2538, "balance": "You need to have a pocket watcher badge to view this.", "badges": [], "created_at": "2025-06-19T03:44:03.654-04:00", "updated_at": "2025-07-03T19:51:56.563-04:00", "avatar": "https://secure.gravatar.com/avatar/fcdf6f69e2bd01995670118a623927ef.jpg?s=512&d=https%3A%2F%2Fa.slack-edge.com%2Fdf10d%2Fimg%2Favatars%2Fava_0003-512.png", "custom_css": null}, {"id": 9418, "slack_id": "U092J8QUVU1", "display_name": "adam_2_0", "bio": null, "projects_count": 0, "devlogs_count": 0, "votes_count": 0, "ships_count": 0, "projects": [], "coding_time_seconds": 15091, "coding_time_seconds_today": 0, "balance": "You need to have a pocket watcher badge to view this.", "badges": [], "created_at": "2025-06-19T03:44:09.614-04:00", "updated_at": "2025-07-03T19:51:56.842-04:00", "avatar": "https://secure.gravatar.com/avatar/723b9573a34bf0d9bbfe16535e5e95dd.jpg?s=512&d=https%3A%2F%2Fa.slack-edge.com%2Fdf10d%2Fimg%2Favatars%2Fava_0017-512.png", "custom_css": null}, {"id": 9419, "slack_id": "U07BPR1JHGA", "display_name": "giacomo", "bio": null, "projects_count": 0, "devlogs_count": 0, "votes_count": 0, "ships_count": 0, "projects": [], "coding_time_seconds": 9183, "coding_time_seconds_today": 0, "balance": "You need to have a pocket watcher badge to view this.", "badges": [], "created_at": "2025-06-19T03:44:37.002-04:00", "updated_at": "2025-08-09T14:19:18.383-04:00", "avatar": "https://avatars.slack-edge.com/2024-07-11/7407758154931_89ea5bc0fa5a0df0db1f_original.png", "custom_css": null}, {"id": 9420, "slack_id": "U092JATFFLZ", "display_name": "Swapnil Suraj", "bio": null, "projects_count": 0, "devlogs_count": 0, "votes_count": 0, "ships_count": 0, "projects": [], "coding_time_seconds": 0, "coding_time_seconds_today": 0, "balance": "You need to have a pocket watcher badge to view this.", "badges": [], "created_at": "2025-06-19T03:45:20.389-04:00", "updated_at": "2025-07-06T14:10:22.060-04:00", "avatar": "https://avatars.slack-edge.com/2025-06-19/9073951414020_55899fc75a6c1571ed58_original.jpg", "custom_css": null}], "pagination": {"page": 471, "pages": 1192, "count": 23828, "items": 20}}