{"users": [{"id": 9421, "slack_id": "U089B1M6NTU", "display_name": "itsthatgeorge", "bio": null, "projects_count": 0, "devlogs_count": 0, "votes_count": 0, "ships_count": 0, "projects": [], "coding_time_seconds": 0, "coding_time_seconds_today": 0, "balance": "You need to have a pocket watcher badge to view this.", "badges": [], "created_at": "2025-06-19T03:46:21.433-04:00", "updated_at": "2025-07-04T08:25:19.290-04:00", "avatar": "https://avatars.slack-edge.com/2025-01-19/8317101308658_cd15097ef343f057c976_original.png", "custom_css": null}, {"id": 9422, "slack_id": "U0924A8QXNH", "display_name": "Aayush Kumar", "bio": null, "projects_count": 0, "devlogs_count": 0, "votes_count": 0, "ships_count": 0, "projects": [], "coding_time_seconds": 0, "coding_time_seconds_today": 0, "balance": "You need to have a pocket watcher badge to view this.", "badges": [], "created_at": "2025-06-19T03:46:23.866-04:00", "updated_at": "2025-07-03T19:51:58.026-04:00", "avatar": "https://avatars.slack-edge.com/2025-06-19/9067232483219_fffb5ac2ad82aa985828_original.png", "custom_css": null}, {"id": 9423, "slack_id": "U0925EJ1NJE", "display_name": "Devesh Kumar", "bio": null, "projects_count": 0, "devlogs_count": 0, "votes_count": 0, "ships_count": 0, "projects": [], "coding_time_seconds": 0, "coding_time_seconds_today": 0, "balance": "You need to have a pocket watcher badge to view this.", "badges": [], "created_at": "2025-06-19T03:46:38.359-04:00", "updated_at": "2025-07-04T20:10:02.801-04:00", "avatar": "https://secure.gravatar.com/avatar/209d1657cab76a2cff766d6713606339.jpg?s=512&d=https%3A%2F%2Fa.slack-edge.com%2Fdf10d%2Fimg%2Favatars%2Fava_0007-512.png", "custom_css": null}, {"id": 9424, "slack_id": "U091QNMSPTR", "display_name": "satya", "bio": null, "projects_count": 0, "devlogs_count": 0, "votes_count": 0, "ships_count": 0, "projects": [], "coding_time_seconds": 0, "coding_time_seconds_today": 0, "balance": "You need to have a pocket watcher badge to view this.", "badges": [], "created_at": "2025-06-19T03:48:23.433-04:00", "updated_at": "2025-07-03T19:51:58.431-04:00", "avatar": "https://secure.gravatar.com/avatar/e33a6f64c18afda19a55a38213fc6d56.jpg?s=512&d=https%3A%2F%2Fa.slack-edge.com%2Fdf10d%2Fimg%2Favatars%2Fava_0014-512.png", "custom_css": null}, {"id": 9425, "slack_id": "U092JBKM6QH", "display_name": "Fabboy", "bio": null, "projects_count": 2, "devlogs_count": 0, "votes_count": 0, "ships_count": 0, "projects": [{"id": 1706, "title": "Sable Compiler", "devlogs_count": 0, "created_at": "2025-06-19T04:15:36.018-04:00"}, {"id": 3624, "title": "minc", "devlogs_count": 0, "created_at": "2025-06-25T02:08:25.096-04:00"}], "coding_time_seconds": 907680, "coding_time_seconds_today": 4112, "balance": "You need to have a pocket watcher badge to view this.", "badges": [], "created_at": "2025-06-19T03:51:53.970-04:00", "updated_at": "2025-07-03T19:51:58.691-04:00", "avatar": "https://secure.gravatar.com/avatar/ab7d5a286b90f4f89ef9ec118b920682.jpg?s=512&d=https%3A%2F%2Fa.slack-edge.com%2Fdf10d%2Fimg%2Favatars%2Fava_0014-512.png", "custom_css": null}, {"id": 9426, "slack_id": "U091QPDNU4X", "display_name": "gi0n", "bio": null, "projects_count": 0, "devlogs_count": 0, "votes_count": 0, "ships_count": 0, "projects": [], "coding_time_seconds": 0, "coding_time_seconds_today": 0, "balance": "You need to have a pocket watcher badge to view this.", "badges": [], "created_at": "2025-06-19T03:52:36.571-04:00", "updated_at": "2025-07-03T19:51:58.975-04:00", "avatar": "https://secure.gravatar.com/avatar/fe0d39cf4b729aae75591b4cfa329049.jpg?s=512&d=https%3A%2F%2Fa.slack-edge.com%2Fdf10d%2Fimg%2Favatars%2Fava_0025-512.png", "custom_css": null}, {"id": 9427, "slack_id": "U092JBYME2D", "display_name": "Robin B\u00e4rtschi", "bio": null, "projects_count": 2, "devlogs_count": 1, "votes_count": 0, "ships_count": 0, "projects": [{"id": 1709, "title": "ezs", "devlogs_count": 1, "created_at": "2025-06-19T04:22:53.357-04:00"}, {"id": 3870, "title": "rb", "devlogs_count": 0, "created_at": "2025-06-26T04:33:29.874-04:00"}], "coding_time_seconds": 50079, "coding_time_seconds_today": 0, "balance": "You need to have a pocket watcher badge to view this.", "badges": [], "created_at": "2025-06-19T03:54:00.285-04:00", "updated_at": "2025-07-03T19:51:59.253-04:00", "avatar": "https://secure.gravatar.com/avatar/6b594ec62be2b015dfe58fdf7b79923c.jpg?s=512&d=https%3A%2F%2Fa.slack-edge.com%2Fdf10d%2Fimg%2Favatars%2Fava_0026-512.png", "custom_css": null}, {"id": 9428, "slack_id": "U0925TLV70U", "display_name": "JeshanSavani", "bio": null, "projects_count": 0, "devlogs_count": 0, "votes_count": 0, "ships_count": 0, "projects": [], "coding_time_seconds": 32228, "coding_time_seconds_today": 0, "balance": "You need to have a pocket watcher badge to view this.", "badges": [], "created_at": "2025-06-19T03:56:09.487-04:00", "updated_at": "2025-07-03T19:51:59.517-04:00", "avatar": "https://secure.gravatar.com/avatar/935eda9c523a6c41f8ca37e82415da56.jpg?s=512&d=https%3A%2F%2Fa.slack-edge.com%2Fdf10d%2Fimg%2Favatars%2Fava_0022-512.png", "custom_css": null}, {"id": 9429, "slack_id": "U092U487QBS", "display_name": "Masudur Rahaman Kazi", "bio": null, "projects_count": 0, "devlogs_count": 0, "votes_count": 0, "ships_count": 0, "projects": [], "coding_time_seconds": 0, "coding_time_seconds_today": 0, "balance": "You need to have a pocket watcher badge to view this.", "badges": [], "created_at": "2025-06-19T03:56:57.443-04:00", "updated_at": "2025-07-03T19:51:59.776-04:00", "avatar": "https://secure.gravatar.com/avatar/d4e8e6c4c56f2642ca60a0d1f7f51365.jpg?s=512&d=https%3A%2F%2Fa.slack-edge.com%2Fdf10d%2Fimg%2Favatars%2Fava_0014-512.png", "custom_css": null}, {"id": 9430, "slack_id": "U0794S6UVCM", "display_name": "Op Nis", "bio": null, "projects_count": 1, "devlogs_count": 0, "votes_count": 0, "ships_count": 0, "projects": [{"id": 2442, "title": "Amazon.com Clone ", "devlogs_count": 0, "created_at": "2025-06-21T03:34:07.333-04:00"}], "coding_time_seconds": 1757, "coding_time_seconds_today": 0, "balance": "You need to have a pocket watcher badge to view this.", "badges": [], "created_at": "2025-06-19T03:58:01.047-04:00", "updated_at": "2025-07-06T23:07:27.949-04:00", "avatar": "https://avatars.slack-edge.com/2024-06-21/7311005616757_77e2fb4d4a105cc5d3b2_original.jpg", "custom_css": null}, {"id": 9431, "slack_id": "U092U54T0RW", "display_name": "Akbar Hamaminatu", "bio": null, "projects_count": 0, "devlogs_count": 0, "votes_count": 0, "ships_count": 0, "projects": [], "coding_time_seconds": 0, "coding_time_seconds_today": 0, "balance": "You need to have a pocket watcher badge to view this.", "badges": [], "created_at": "2025-06-19T04:00:50.546-04:00", "updated_at": "2025-07-03T19:52:00.173-04:00", "avatar": "https://secure.gravatar.com/avatar/77fa760b7246e4085ed91c876b1d32c0.jpg?s=512&d=https%3A%2F%2Fa.slack-edge.com%2Fdf10d%2Fimg%2Favatars%2Fava_0016-512.png", "custom_css": null}, {"id": 9432, "slack_id": "U091QQC6E87", "display_name": "Abdullah", "bio": null, "projects_count": 0, "devlogs_count": 0, "votes_count": 0, "ships_count": 0, "projects": [], "coding_time_seconds": 0, "coding_time_seconds_today": 0, "balance": "You need to have a pocket watcher badge to view this.", "badges": [], "created_at": "2025-06-19T04:04:45.196-04:00", "updated_at": "2025-07-04T20:10:03.327-04:00", "avatar": "https://secure.gravatar.com/avatar/02a2a7c69ee3731d5b3da6fabb110c71.jpg?s=512&d=https%3A%2F%2Fa.slack-edge.com%2Fdf10d%2Fimg%2Favatars%2Fava_0011-512.png", "custom_css": null}, {"id": 9433, "slack_id": "U091Q2ZV1K9", "display_name": "MD KAIF", "bio": null, "projects_count": 0, "devlogs_count": 0, "votes_count": 0, "ships_count": 0, "projects": [], "coding_time_seconds": 0, "coding_time_seconds_today": 0, "balance": "You need to have a pocket watcher badge to view this.", "badges": [], "created_at": "2025-06-19T04:06:00.479-04:00", "updated_at": "2025-07-03T19:52:00.564-04:00", "avatar": "https://avatars.slack-edge.com/2025-06-19/9074052964292_e211b4c0b4311bfe9260_original.jpg", "custom_css": null}, {"id": 9434, "slack_id": "U0925HC7GRG", "display_name": "Duc Nguyen", "bio": null, "projects_count": 1, "devlogs_count": 0, "votes_count": 0, "ships_count": 0, "projects": [{"id": 1705, "title": "BLE_VR_Glove", "devlogs_count": 0, "created_at": "2025-06-19T04:13:55.429-04:00"}], "coding_time_seconds": 4154, "coding_time_seconds_today": 0, "balance": "You need to have a pocket watcher badge to view this.", "badges": [], "created_at": "2025-06-19T04:06:09.129-04:00", "updated_at": "2025-07-03T19:52:00.866-04:00", "avatar": "https://secure.gravatar.com/avatar/833be419422a2dedaab846e297df55a8.jpg?s=512&d=https%3A%2F%2Fa.slack-edge.com%2Fdf10d%2Fimg%2Favatars%2Fava_0013-512.png", "custom_css": null}, {"id": 9435, "slack_id": "U091Z9DL6F5", "display_name": "Tyrone Mariano", "bio": null, "projects_count": 1, "devlogs_count": 0, "votes_count": 0, "ships_count": 0, "projects": [{"id": 1712, "title": "Image Interpolator", "devlogs_count": 0, "created_at": "2025-06-19T04:34:22.409-04:00"}], "coding_time_seconds": 39677, "coding_time_seconds_today": 960, "balance": "You need to have a pocket watcher badge to view this.", "badges": [], "created_at": "2025-06-19T04:07:18.211-04:00", "updated_at": "2025-07-03T19:52:01.138-04:00", "avatar": "https://avatars.slack-edge.com/2025-06-19/9067334599763_660de6a84ca37558e6c4_original.png", "custom_css": null}, {"id": 9436, "slack_id": "U0925J0RZB4", "display_name": "Vishnu Srivatsava", "bio": null, "projects_count": 0, "devlogs_count": 0, "votes_count": 0, "ships_count": 0, "projects": [], "coding_time_seconds": 0, "coding_time_seconds_today": 0, "balance": "You need to have a pocket watcher badge to view this.", "badges": [], "created_at": "2025-06-19T04:10:48.226-04:00", "updated_at": "2025-07-03T19:52:01.400-04:00", "avatar": "https://secure.gravatar.com/avatar/74ca3a4c6bfb634c688ab809e9a616e0.jpg?s=512&d=https%3A%2F%2Fa.slack-edge.com%2Fdf10d%2Fimg%2Favatars%2Fava_0019-512.png", "custom_css": null}, {"id": 9437, "slack_id": "U0921EFPE3F", "display_name": "batti", "bio": null, "projects_count": 0, "devlogs_count": 0, "votes_count": 0, "ships_count": 0, "projects": [], "coding_time_seconds": 881, "coding_time_seconds_today": 0, "balance": "You need to have a pocket watcher badge to view this.", "badges": [], "created_at": "2025-06-19T04:12:03.246-04:00", "updated_at": "2025-07-03T19:52:01.671-04:00", "avatar": "https://secure.gravatar.com/avatar/2ae0920f1bd902fc5baa89abe363a7a4.jpg?s=512&d=https%3A%2F%2Fa.slack-edge.com%2Fdf10d%2Fimg%2Favatars%2Fava_0022-512.png", "custom_css": null}, {"id": 9438, "slack_id": "U092JEXC333", "display_name": "b", "bio": null, "projects_count": 0, "devlogs_count": 0, "votes_count": 0, "ships_count": 0, "projects": [], "coding_time_seconds": 0, "coding_time_seconds_today": 0, "balance": "You need to have a pocket watcher badge to view this.", "badges": [], "created_at": "2025-06-19T04:14:20.296-04:00", "updated_at": "2025-07-03T19:52:01.937-04:00", "avatar": "https://secure.gravatar.com/avatar/c5713c2f8b757b91c614dabb90f82894.jpg?s=512&d=https%3A%2F%2Fa.slack-edge.com%2Fdf10d%2Fimg%2Favatars%2Fava_0003-512.png", "custom_css": null}, {"id": 9439, "slack_id": "U091ZF0JNBG", "display_name": "Efe", "bio": null, "projects_count": 5, "devlogs_count": 31, "votes_count": 84, "ships_count": 5, "projects": [{"id": 1921, "title": "MeTracker", "devlogs_count": 19, "created_at": "2025-06-19T16:13:07.121-04:00"}, {"id": 5136, "title": "CipherCLI", "devlogs_count": 4, "created_at": "2025-07-03T12:22:01.286-04:00"}, {"id": 12970, "title": "Color Box Detector", "devlogs_count": 1, "created_at": "2025-09-06T11:03:05.876-04:00"}, {"id": 2863, "title": "TaskOrganizer", "devlogs_count": 2, "created_at": "2025-06-22T09:06:21.488-04:00"}, {"id": 5699, "title": "ChatRoomAI", "devlogs_count": 5, "created_at": "2025-07-07T08:54:00.526-04:00"}], "coding_time_seconds": 406073, "coding_time_seconds_today": 0, "balance": "You need to have a pocket watcher badge to view this.", "badges": [{"name": "Maiden Voyage", "text": "you shipped your first project! the journey begins...", "icon": "\ud83d\udea2"}], "created_at": "2025-06-19T04:15:55.031-04:00", "updated_at": "2025-09-10T22:55:50.044-04:00", "avatar": "https://avatars.slack-edge.com/2025-06-19/9067525922198_1cba921e3478bd859369_original.png", "custom_css": null}, {"id": 9440, "slack_id": "U091QT9UHAT", "display_name": "parkseongjun", "bio": null, "projects_count": 0, "devlogs_count": 0, "votes_count": 0, "ships_count": 0, "projects": [], "coding_time_seconds": 0, "coding_time_seconds_today": 0, "balance": "You need to have a pocket watcher badge to view this.", "badges": [], "created_at": "2025-06-19T04:19:04.733-04:00", "updated_at": "2025-07-03T19:52:02.466-04:00", "avatar": "https://secure.gravatar.com/avatar/907c610df39019155537b9749364c668.jpg?s=512&d=https%3A%2F%2Fa.slack-edge.com%2Fdf10d%2Fimg%2Favatars%2Fava_0013-512.png", "custom_css": null}], "pagination": {"page": 472, "pages": 1192, "count": 23828, "items": 20}}