{"users": [{"id": 9441, "slack_id": "U0924TE2QLR", "display_name": "DreamHunter", "bio": null, "projects_count": 0, "devlogs_count": 0, "votes_count": 0, "ships_count": 0, "projects": [], "coding_time_seconds": 0, "coding_time_seconds_today": 0, "balance": "You need to have a pocket watcher badge to view this.", "badges": [], "created_at": "2025-06-19T04:19:31.041-04:00", "updated_at": "2025-07-03T19:52:02.732-04:00", "avatar": "https://secure.gravatar.com/avatar/a0daccca69e2c3eae2d277a5dc1b1c39.jpg?s=512&d=https%3A%2F%2Fa.slack-edge.com%2Fdf10d%2Fimg%2Favatars%2Fava_0014-512.png", "custom_css": null}, {"id": 9442, "slack_id": "U092JF97TPB", "display_name": "Muhammad Anus", "bio": null, "projects_count": 0, "devlogs_count": 0, "votes_count": 0, "ships_count": 0, "projects": [], "coding_time_seconds": 234188, "coding_time_seconds_today": 0, "balance": "You need to have a pocket watcher badge to view this.", "badges": [], "created_at": "2025-06-19T04:20:29.986-04:00", "updated_at": "2025-07-03T19:52:02.995-04:00", "avatar": "https://secure.gravatar.com/avatar/a4ac447293fe51ce5ff31950015caf3c.jpg?s=512&d=https%3A%2F%2Fa.slack-edge.com%2Fdf10d%2Fimg%2Favatars%2Fava_0005-512.png", "custom_css": null}, {"id": 9443, "slack_id": "U091T4G5BU5", "display_name": "Guido Plugge", "bio": null, "projects_count": 0, "devlogs_count": 0, "votes_count": 0, "ships_count": 0, "projects": [], "coding_time_seconds": 0, "coding_time_seconds_today": 0, "balance": "You need to have a pocket watcher badge to view this.", "badges": [], "created_at": "2025-06-19T04:20:56.078-04:00", "updated_at": "2025-07-04T02:29:04.920-04:00", "avatar": "https://secure.gravatar.com/avatar/2db39b63dae64a4fe7e7846ef7b620b2.jpg?s=512&d=https%3A%2F%2Fa.slack-edge.com%2Fdf10d%2Fimg%2Favatars%2Fava_0004-512.png", "custom_css": null}, {"id": 9444, "slack_id": "U091ZB8TQUT", "display_name": "Ferid Babayev", "bio": null, "projects_count": 0, "devlogs_count": 0, "votes_count": 0, "ships_count": 0, "projects": [], "coding_time_seconds": 0, "coding_time_seconds_today": 0, "balance": "You need to have a pocket watcher badge to view this.", "badges": [], "created_at": "2025-06-19T04:21:30.350-04:00", "updated_at": "2025-07-05T02:10:36.932-04:00", "avatar": "https://secure.gravatar.com/avatar/4df1206994bf0cb628e0a0ea7460abd1.jpg?s=512&d=https%3A%2F%2Fa.slack-edge.com%2Fdf10d%2Fimg%2Favatars%2Fava_0004-512.png", "custom_css": null}, {"id": 9445, "slack_id": "U092JG2NY6M", "display_name": "Bilkes Elias", "bio": null, "projects_count": 0, "devlogs_count": 0, "votes_count": 0, "ships_count": 0, "projects": [], "coding_time_seconds": 209855, "coding_time_seconds_today": 120, "balance": "You need to have a pocket watcher badge to view this.", "badges": [], "created_at": "2025-06-19T04:21:48.466-04:00", "updated_at": "2025-07-03T21:59:45.669-04:00", "avatar": "https://secure.gravatar.com/avatar/e3817d8bf2f67f77d96d203f88030523.jpg?s=512&d=https%3A%2F%2Fa.slack-edge.com%2Fdf10d%2Fimg%2Favatars%2Fava_0006-512.png", "custom_css": null}, {"id": 9446, "slack_id": "U091ZAR11QT", "display_name": "maryS", "bio": null, "projects_count": 0, "devlogs_count": 0, "votes_count": 0, "ships_count": 0, "projects": [], "coding_time_seconds": 66174, "coding_time_seconds_today": 0, "balance": "You need to have a pocket watcher badge to view this.", "badges": [], "created_at": "2025-06-19T04:23:25.841-04:00", "updated_at": "2025-07-05T14:11:50.972-04:00", "avatar": "https://secure.gravatar.com/avatar/8e3e4416515d2124ce237b04bf92bb42.jpg?s=512&d=https%3A%2F%2Fa.slack-edge.com%2Fdf10d%2Fimg%2Favatars%2Fava_0014-512.png", "custom_css": null}, {"id": 9447, "slack_id": "U091WA5TN91", "display_name": "Mozzam Shahid", "bio": null, "projects_count": 0, "devlogs_count": 0, "votes_count": 0, "ships_count": 0, "projects": [], "coding_time_seconds": 104936, "coding_time_seconds_today": 0, "balance": "You need to have a pocket watcher badge to view this.", "badges": [], "created_at": "2025-06-19T04:27:58.996-04:00", "updated_at": "2025-07-04T20:10:04.804-04:00", "avatar": "https://avatars.slack-edge.com/2025-06-19/9067584518934_5cf6c7b9c05abc143d01_original.png", "custom_css": null}, {"id": 9448, "slack_id": "U091ZGNDNQN", "display_name": "Nguyen Xuan Chien (K18 HL)", "bio": null, "projects_count": 0, "devlogs_count": 0, "votes_count": 0, "ships_count": 0, "projects": [], "coding_time_seconds": 0, "coding_time_seconds_today": 0, "balance": "You need to have a pocket watcher badge to view this.", "badges": [], "created_at": "2025-06-19T04:28:08.904-04:00", "updated_at": "2025-07-04T02:29:05.284-04:00", "avatar": "https://avatars.slack-edge.com/2025-06-19/9096311988112_74389dd72322dadc3213_original.jpg", "custom_css": null}, {"id": 9449, "slack_id": "U0924GB0QE9", "display_name": "Mostafejur Rahman", "bio": null, "projects_count": 0, "devlogs_count": 0, "votes_count": 0, "ships_count": 0, "projects": [], "coding_time_seconds": 0, "coding_time_seconds_today": 0, "balance": "You need to have a pocket watcher badge to view this.", "badges": [], "created_at": "2025-06-19T04:28:57.259-04:00", "updated_at": "2025-07-03T21:47:43.742-04:00", "avatar": "https://secure.gravatar.com/avatar/631bd8f8658ec069cafc6552575d96c3.jpg?s=512&d=https%3A%2F%2Fa.slack-edge.com%2Fdf10d%2Fimg%2Favatars%2Fava_0023-512.png", "custom_css": null}, {"id": 9450, "slack_id": "U0923KZV789", "display_name": "Eric Fisher", "bio": null, "projects_count": 0, "devlogs_count": 0, "votes_count": 0, "ships_count": 0, "projects": [], "coding_time_seconds": 0, "coding_time_seconds_today": 0, "balance": "You need to have a pocket watcher badge to view this.", "badges": [], "created_at": "2025-06-19T04:35:53.233-04:00", "updated_at": "2025-07-03T19:52:04.222-04:00", "avatar": "https://avatars.slack-edge.com/2025-06-19/9067628338118_002fc3d63ed354e0305f_original.jpg", "custom_css": null}, {"id": 9451, "slack_id": "U0925LVLRHQ", "display_name": "Sahil Ahmad", "bio": null, "projects_count": 0, "devlogs_count": 0, "votes_count": 0, "ships_count": 0, "projects": [], "coding_time_seconds": 0, "coding_time_seconds_today": 0, "balance": "You need to have a pocket watcher badge to view this.", "badges": [], "created_at": "2025-06-19T04:36:24.698-04:00", "updated_at": "2025-07-03T19:52:04.501-04:00", "avatar": "https://avatars.slack-edge.com/2025-06-19/9072616380981_70274ee3d8f3a8f68732_original.jpg", "custom_css": null}, {"id": 9452, "slack_id": "U081WN7EX55", "display_name": "Aftab", "bio": null, "projects_count": 0, "devlogs_count": 0, "votes_count": 0, "ships_count": 0, "projects": [], "coding_time_seconds": 65761, "coding_time_seconds_today": 0, "balance": "You need to have a pocket watcher badge to view this.", "badges": [], "created_at": "2025-06-19T04:36:41.026-04:00", "updated_at": "2025-07-03T19:52:04.761-04:00", "avatar": "https://secure.gravatar.com/avatar/00720535cb77059fad79ae4113ba9543.jpg?s=512&d=https%3A%2F%2Fa.slack-edge.com%2Fdf10d%2Fimg%2Favatars%2Fava_0007-512.png", "custom_css": null}, {"id": 9453, "slack_id": "U091R02DVEK", "display_name": "Chitransh", "bio": null, "projects_count": 0, "devlogs_count": 0, "votes_count": 0, "ships_count": 0, "projects": [], "coding_time_seconds": 0, "coding_time_seconds_today": 0, "balance": "You need to have a pocket watcher badge to view this.", "badges": [], "created_at": "2025-06-19T04:36:53.951-04:00", "updated_at": "2025-07-03T19:52:05.032-04:00", "avatar": "https://secure.gravatar.com/avatar/7e6aa17b5732c9869854ba09283fd593.jpg?s=512&d=https%3A%2F%2Fa.slack-edge.com%2Fdf10d%2Fimg%2Favatars%2Fava_0021-512.png", "custom_css": null}, {"id": 9454, "slack_id": "U092U9VQTQ8", "display_name": "Jayant", "bio": null, "projects_count": 0, "devlogs_count": 0, "votes_count": 0, "ships_count": 0, "projects": [], "coding_time_seconds": 0, "coding_time_seconds_today": 0, "balance": "You need to have a pocket watcher badge to view this.", "badges": [], "created_at": "2025-06-19T04:36:55.044-04:00", "updated_at": "2025-07-03T21:59:46.294-04:00", "avatar": "https://secure.gravatar.com/avatar/f35e7485a21e3295dad755a280708a15.jpg?s=512&d=https%3A%2F%2Fa.slack-edge.com%2Fdf10d%2Fimg%2Favatars%2Fava_0020-512.png", "custom_css": null}, {"id": 9455, "slack_id": "U0925MTGDUJ", "display_name": "celia", "bio": null, "projects_count": 0, "devlogs_count": 0, "votes_count": 0, "ships_count": 0, "projects": [], "coding_time_seconds": 14619, "coding_time_seconds_today": 0, "balance": "You need to have a pocket watcher badge to view this.", "badges": [], "created_at": "2025-06-19T04:37:21.131-04:00", "updated_at": "2025-07-04T02:29:05.850-04:00", "avatar": "https://secure.gravatar.com/avatar/49e1cd5c48f340e4c9d6ad684411dc6b.jpg?s=512&d=https%3A%2F%2Fa.slack-edge.com%2Fdf10d%2Fimg%2Favatars%2Fava_0015-512.png", "custom_css": null}, {"id": 9456, "slack_id": "U0925MWUUHG", "display_name": "HR Noob", "bio": null, "projects_count": 1, "devlogs_count": 1, "votes_count": 0, "ships_count": 0, "projects": [{"id": 1737, "title": "Validea: Your AI Co-Founder for Instant Idea Validation", "devlogs_count": 1, "created_at": "2025-06-19T06:21:04.634-04:00"}], "coding_time_seconds": 5927, "coding_time_seconds_today": 0, "balance": "You need to have a pocket watcher badge to view this.", "badges": [], "created_at": "2025-06-19T04:40:13.491-04:00", "updated_at": "2025-07-05T14:11:51.581-04:00", "avatar": "https://secure.gravatar.com/avatar/0c7decc0efa225eef14802eb1eba97bf.jpg?s=512&d=https%3A%2F%2Fa.slack-edge.com%2Fdf10d%2Fimg%2Favatars%2Fava_0008-512.png", "custom_css": null}, {"id": 9457, "slack_id": "U091ZDS50R1", "display_name": "Satvik", "bio": null, "projects_count": 0, "devlogs_count": 0, "votes_count": 0, "ships_count": 0, "projects": [], "coding_time_seconds": 189330, "coding_time_seconds_today": 0, "balance": "You need to have a pocket watcher badge to view this.", "badges": [], "created_at": "2025-06-19T04:41:15.483-04:00", "updated_at": "2025-07-03T19:52:05.718-04:00", "avatar": "https://avatars.slack-edge.com/2025-06-19/9059048946199_dc3e129e30d939185bb6_original.png", "custom_css": null}, {"id": 9458, "slack_id": "U092UAMCY9E", "display_name": "Bibi Aysha", "bio": null, "projects_count": 0, "devlogs_count": 0, "votes_count": 0, "ships_count": 0, "projects": [], "coding_time_seconds": 0, "coding_time_seconds_today": 0, "balance": "You need to have a pocket watcher badge to view this.", "badges": [], "created_at": "2025-06-19T04:42:42.072-04:00", "updated_at": "2025-07-03T19:52:05.990-04:00", "avatar": "https://secure.gravatar.com/avatar/5e9b727246f3020dde5e954a7778e783.jpg?s=512&d=https%3A%2F%2Fa.slack-edge.com%2Fdf10d%2Fimg%2Favatars%2Fava_0004-512.png", "custom_css": null}, {"id": 9459, "slack_id": "U09266CH7QC", "display_name": "Luke Barkess", "bio": null, "projects_count": 2, "devlogs_count": 56, "votes_count": 43, "ships_count": 1, "projects": [{"id": 9904, "title": "Physics Simulator", "devlogs_count": 34, "created_at": "2025-08-02T19:30:38.579-04:00"}, {"id": 1731, "title": "HTTP Server", "devlogs_count": 22, "created_at": "2025-06-19T05:44:28.576-04:00"}], "coding_time_seconds": 667510, "coding_time_seconds_today": 1318, "balance": "You need to have a pocket watcher badge to view this.", "badges": [{"name": "Maiden Voyage", "text": "you shipped your first project! the journey begins...", "icon": "\ud83d\udea2"}], "created_at": "2025-06-19T04:43:48.100-04:00", "updated_at": "2025-09-12T21:12:05.673-04:00", "avatar": "https://secure.gravatar.com/avatar/75575624bea822422dfb8008a083acf0.jpg?s=512&d=https%3A%2F%2Fa.slack-edge.com%2Fdf10d%2Fimg%2Favatars%2Fava_0009-512.png", "custom_css": null}, {"id": 9460, "slack_id": "U091ZEM9Y3D", "display_name": "Harun", "bio": null, "projects_count": 0, "devlogs_count": 0, "votes_count": 0, "ships_count": 0, "projects": [], "coding_time_seconds": 170, "coding_time_seconds_today": 0, "balance": "You need to have a pocket watcher badge to view this.", "badges": [], "created_at": "2025-06-19T04:45:44.477-04:00", "updated_at": "2025-07-03T19:52:06.542-04:00", "avatar": "https://secure.gravatar.com/avatar/e0e2c16f5ce9560d1d8b6c145b2e53ae.jpg?s=512&d=https%3A%2F%2Fa.slack-edge.com%2Fdf10d%2Fimg%2Favatars%2Fava_0021-512.png", "custom_css": null}], "pagination": {"page": 473, "pages": 1192, "count": 23828, "items": 20}}