{"users": [{"id": 9481, "slack_id": "U0924NFBVN1", "display_name": "Vishal", "bio": null, "projects_count": 0, "devlogs_count": 0, "votes_count": 0, "ships_count": 0, "projects": [], "coding_time_seconds": 0, "coding_time_seconds_today": 0, "balance": "You need to have a pocket watcher badge to view this.", "badges": [], "created_at": "2025-06-19T05:14:57.375-04:00", "updated_at": "2025-07-03T19:52:11.640-04:00", "avatar": "https://secure.gravatar.com/avatar/11ea25268029080a8d76b4a806f2f5a8.jpg?s=512&d=https%3A%2F%2Fa.slack-edge.com%2Fdf10d%2Fimg%2Favatars%2Fava_0018-512.png", "custom_css": null}, {"id": 9482, "slack_id": "U092JQ44XJ5", "display_name": "Anushka Gupta", "bio": null, "projects_count": 0, "devlogs_count": 0, "votes_count": 0, "ships_count": 0, "projects": [], "coding_time_seconds": 0, "coding_time_seconds_today": 0, "balance": "You need to have a pocket watcher badge to view this.", "badges": [], "created_at": "2025-06-19T05:17:50.670-04:00", "updated_at": "2025-07-03T19:52:11.898-04:00", "avatar": "https://secure.gravatar.com/avatar/6204f398cf5ad42f36ce4d912c3e9ac1.jpg?s=512&d=https%3A%2F%2Fa.slack-edge.com%2Fdf10d%2Fimg%2Favatars%2Fava_0001-512.png", "custom_css": null}, {"id": 9483, "slack_id": "U092JQADE1F", "display_name": "Being Artist", "bio": null, "projects_count": 0, "devlogs_count": 0, "votes_count": 0, "ships_count": 0, "projects": [], "coding_time_seconds": 683454, "coding_time_seconds_today": 0, "balance": "You need to have a pocket watcher badge to view this.", "badges": [], "created_at": "2025-06-19T05:18:56.824-04:00", "updated_at": "2025-08-07T16:09:55.307-04:00", "avatar": "https://avatars.slack-edge.com/2025-06-19/9073950200802_aeeb2cf06f7fbecf3f85_original.jpg", "custom_css": null}, {"id": 9484, "slack_id": "U092UFXCCPJ", "display_name": "wandala", "bio": null, "projects_count": 1, "devlogs_count": 0, "votes_count": 0, "ships_count": 0, "projects": [{"id": 2058, "title": "Portfolio ", "devlogs_count": 0, "created_at": "2025-06-20T03:02:32.129-04:00"}], "coding_time_seconds": 39388, "coding_time_seconds_today": 0, "balance": "You need to have a pocket watcher badge to view this.", "badges": [], "created_at": "2025-06-19T05:20:18.345-04:00", "updated_at": "2025-07-05T08:10:55.850-04:00", "avatar": "https://secure.gravatar.com/avatar/2e089485aadfbcbba97bf40e1531302c.jpg?s=512&d=https%3A%2F%2Fa.slack-edge.com%2Fdf10d%2Fimg%2Favatars%2Fava_0005-512.png", "custom_css": null}, {"id": 9485, "slack_id": "U0924QG9S0M", "display_name": "Sahin Mallick", "bio": null, "projects_count": 0, "devlogs_count": 0, "votes_count": 0, "ships_count": 0, "projects": [], "coding_time_seconds": 0, "coding_time_seconds_today": 0, "balance": "You need to have a pocket watcher badge to view this.", "badges": [], "created_at": "2025-06-19T05:22:31.423-04:00", "updated_at": "2025-07-03T19:52:12.589-04:00", "avatar": "https://avatars.slack-edge.com/2025-06-19/9059249808999_767b6e246d1c98c52ff7_original.jpg", "custom_css": null}, {"id": 9486, "slack_id": "U092JQV25JM", "display_name": "Harsh Kumar", "bio": null, "projects_count": 0, "devlogs_count": 0, "votes_count": 0, "ships_count": 0, "projects": [], "coding_time_seconds": 0, "coding_time_seconds_today": 0, "balance": "You need to have a pocket watcher badge to view this.", "badges": [], "created_at": "2025-06-19T05:23:42.405-04:00", "updated_at": "2025-07-03T19:52:12.857-04:00", "avatar": "https://secure.gravatar.com/avatar/0195aec82d2286f0e1110b75e518716b.jpg?s=512&d=https%3A%2F%2Fa.slack-edge.com%2Fdf10d%2Fimg%2Favatars%2Fava_0004-512.png", "custom_css": null}, {"id": 9487, "slack_id": "U092UGXGH8Q", "display_name": "Nikhil Prince", "bio": null, "projects_count": 0, "devlogs_count": 0, "votes_count": 0, "ships_count": 0, "projects": [], "coding_time_seconds": 0, "coding_time_seconds_today": 0, "balance": "You need to have a pocket watcher badge to view this.", "badges": [], "created_at": "2025-06-19T05:27:35.327-04:00", "updated_at": "2025-07-03T21:47:46.388-04:00", "avatar": "https://avatars.slack-edge.com/2025-06-19/9087150235697_789fd4e27931720eca52_original.jpg", "custom_css": null}, {"id": 9488, "slack_id": "U0909BPEKTN", "display_name": "Andy Mascarenhas", "bio": "", "projects_count": 5, "devlogs_count": 60, "votes_count": 54, "ships_count": 3, "projects": [{"id": 13462, "title": "Hand tracking robotic hand (Computer vision).", "devlogs_count": 1, "created_at": "2025-09-17T01:16:31.236-04:00"}, {"id": 5265, "title": "Lumen", "devlogs_count": 17, "created_at": "2025-07-04T05:31:36.802-04:00"}, {"id": 9713, "title": "Health Hub", "devlogs_count": 20, "created_at": "2025-08-02T04:48:17.794-04:00"}, {"id": 13501, "title": "Digitit - Computer vision OCR to convert handwriting to PDF", "devlogs_count": 0, "created_at": "2025-09-18T01:00:20.875-04:00"}, {"id": 2010, "title": "Document and Handwriting Digitizer", "devlogs_count": 22, "created_at": "2025-06-19T22:00:03.626-04:00"}], "coding_time_seconds": 770836, "coding_time_seconds_today": 0, "balance": "You need to have a pocket watcher badge to view this.", "badges": [{"name": "Maiden Voyage", "text": "you shipped your first project! the journey begins...", "icon": "\ud83d\udea2"}], "created_at": "2025-06-19T05:27:46.199-04:00", "updated_at": "2025-09-10T22:55:51.972-04:00", "avatar": "https://avatars.slack-edge.com/2025-06-05/9033393657968_084e91a766de6f4f4c30_original.png", "custom_css": null}, {"id": 9489, "slack_id": "U092UGZT388", "display_name": "Manas Raj", "bio": null, "projects_count": 0, "devlogs_count": 0, "votes_count": 0, "ships_count": 0, "projects": [], "coding_time_seconds": 0, "coding_time_seconds_today": 0, "balance": "You need to have a pocket watcher badge to view this.", "badges": [], "created_at": "2025-06-19T05:29:49.972-04:00", "updated_at": "2025-07-03T19:52:13.546-04:00", "avatar": "https://secure.gravatar.com/avatar/ffa14d86067202b44d71a12a6cb23190.jpg?s=512&d=https%3A%2F%2Fa.slack-edge.com%2Fdf10d%2Fimg%2Favatars%2Fava_0013-512.png", "custom_css": null}, {"id": 9490, "slack_id": "U0925V26CAW", "display_name": "zeynep", "bio": null, "projects_count": 0, "devlogs_count": 0, "votes_count": 0, "ships_count": 0, "projects": [], "coding_time_seconds": 0, "coding_time_seconds_today": 0, "balance": "You need to have a pocket watcher badge to view this.", "badges": [], "created_at": "2025-06-19T05:30:45.437-04:00", "updated_at": "2025-07-05T02:10:39.749-04:00", "avatar": "https://secure.gravatar.com/avatar/96652a9f017245d22b1de7d0a6fec238.jpg?s=512&d=https%3A%2F%2Fa.slack-edge.com%2Fdf10d%2Fimg%2Favatars%2Fava_0019-512.png", "custom_css": null}, {"id": 9491, "slack_id": "U09260JHYDQ", "display_name": "h4ck_d4n", "bio": null, "projects_count": 0, "devlogs_count": 0, "votes_count": 0, "ships_count": 0, "projects": [], "coding_time_seconds": 0, "coding_time_seconds_today": 0, "balance": "You need to have a pocket watcher badge to view this.", "badges": [], "created_at": "2025-06-19T05:38:09.436-04:00", "updated_at": "2025-07-03T19:52:13.943-04:00", "avatar": "https://secure.gravatar.com/avatar/23f73e5026a27a75b789c5d936592aa4.jpg?s=512&d=https%3A%2F%2Fa.slack-edge.com%2Fdf10d%2Fimg%2Favatars%2Fava_0023-512.png", "custom_css": null}, {"id": 9492, "slack_id": "U0924SQLWHK", "display_name": "Leonor", "bio": null, "projects_count": 0, "devlogs_count": 0, "votes_count": 0, "ships_count": 0, "projects": [], "coding_time_seconds": 0, "coding_time_seconds_today": 0, "balance": "You need to have a pocket watcher badge to view this.", "badges": [], "created_at": "2025-06-19T05:40:32.082-04:00", "updated_at": "2025-07-03T19:52:14.203-04:00", "avatar": "https://secure.gravatar.com/avatar/e147e1ab201900f06252756cf909d001.jpg?s=512&d=https%3A%2F%2Fa.slack-edge.com%2Fdf10d%2Fimg%2Favatars%2Fava_0011-512.png", "custom_css": null}, {"id": 9493, "slack_id": "U091ZTA3JP8", "display_name": "In\u00eas", "bio": null, "projects_count": 0, "devlogs_count": 0, "votes_count": 0, "ships_count": 0, "projects": [], "coding_time_seconds": 0, "coding_time_seconds_today": 0, "balance": "You need to have a pocket watcher badge to view this.", "badges": [], "created_at": "2025-06-19T05:41:43.291-04:00", "updated_at": "2025-07-05T14:11:54.048-04:00", "avatar": "https://secure.gravatar.com/avatar/dc6a2e35b1439c2db8dda9d02dd1f298.jpg?s=512&d=https%3A%2F%2Fa.slack-edge.com%2Fdf10d%2Fimg%2Favatars%2Fava_0019-512.png", "custom_css": null}, {"id": 9494, "slack_id": "U092JTD671P", "display_name": "yadhusingh", "bio": null, "projects_count": 0, "devlogs_count": 0, "votes_count": 0, "ships_count": 0, "projects": [], "coding_time_seconds": 0, "coding_time_seconds_today": 0, "balance": "You need to have a pocket watcher badge to view this.", "badges": [], "created_at": "2025-06-19T05:43:19.822-04:00", "updated_at": "2025-09-16T12:30:09.228-04:00", "avatar": "https://secure.gravatar.com/avatar/e27be55f256aa5f21524d4c83aad858d.jpg?s=512&d=https%3A%2F%2Fa.slack-edge.com%2Fdf10d%2Fimg%2Favatars%2Fava_0025-512.png", "custom_css": null}, {"id": 9495, "slack_id": "U091HC61H46", "display_name": "Erik Fabrizzi", "bio": null, "projects_count": 0, "devlogs_count": 0, "votes_count": 0, "ships_count": 0, "projects": [], "coding_time_seconds": 0, "coding_time_seconds_today": 0, "balance": "You need to have a pocket watcher badge to view this.", "badges": [], "created_at": "2025-06-19T05:44:57.940-04:00", "updated_at": "2025-07-04T02:29:08.545-04:00", "avatar": "https://secure.gravatar.com/avatar/526e0635e407294196c8e3596f909f0a.jpg?s=512&d=https%3A%2F%2Fa.slack-edge.com%2Fdf10d%2Fimg%2Favatars%2Fava_0004-512.png", "custom_css": null}, {"id": 9496, "slack_id": "U091ZU5BGLW", "display_name": "Akshay", "bio": null, "projects_count": 0, "devlogs_count": 0, "votes_count": 0, "ships_count": 0, "projects": [], "coding_time_seconds": 0, "coding_time_seconds_today": 0, "balance": "You need to have a pocket watcher badge to view this.", "badges": [], "created_at": "2025-06-19T05:45:34.621-04:00", "updated_at": "2025-07-03T19:52:15.015-04:00", "avatar": "https://secure.gravatar.com/avatar/29edd507268d9b2486059e2d864829c0.jpg?s=512&d=https%3A%2F%2Fa.slack-edge.com%2Fdf10d%2Fimg%2Favatars%2Fava_0020-512.png", "custom_css": null}, {"id": 9497, "slack_id": "U0924U75CFK", "display_name": "Shiv\u00e8", "bio": null, "projects_count": 0, "devlogs_count": 0, "votes_count": 0, "ships_count": 0, "projects": [], "coding_time_seconds": 0, "coding_time_seconds_today": 0, "balance": "You need to have a pocket watcher badge to view this.", "badges": [], "created_at": "2025-06-19T05:47:37.510-04:00", "updated_at": "2025-07-03T19:52:15.279-04:00", "avatar": "https://secure.gravatar.com/avatar/234b974144d24f2ff6cbdda98cb53145.jpg?s=512&d=https%3A%2F%2Fa.slack-edge.com%2Fdf10d%2Fimg%2Favatars%2Fava_0009-512.png", "custom_css": null}, {"id": 9498, "slack_id": "U091RANTG5D", "display_name": "Rahman Nurudin", "bio": null, "projects_count": 0, "devlogs_count": 0, "votes_count": 0, "ships_count": 0, "projects": [], "coding_time_seconds": 454355, "coding_time_seconds_today": 0, "balance": "You need to have a pocket watcher badge to view this.", "badges": [], "created_at": "2025-06-19T05:49:12.120-04:00", "updated_at": "2025-07-03T19:52:15.544-04:00", "avatar": "https://avatars.slack-edge.com/2025-06-19/9059373055687_11f522326de2503b94f8_original.jpg", "custom_css": null}, {"id": 9499, "slack_id": "U091RAS87L7", "display_name": "Zacky Mrf", "bio": null, "projects_count": 0, "devlogs_count": 0, "votes_count": 0, "ships_count": 0, "projects": [], "coding_time_seconds": 8264, "coding_time_seconds_today": 0, "balance": "You need to have a pocket watcher badge to view this.", "badges": [], "created_at": "2025-06-19T05:50:05.544-04:00", "updated_at": "2025-07-03T19:52:15.806-04:00", "avatar": "https://secure.gravatar.com/avatar/5cd3dc2146525ad0a7e5267c0281766d.jpg?s=512&d=https%3A%2F%2Fa.slack-edge.com%2Fdf10d%2Fimg%2Favatars%2Fava_0021-512.png", "custom_css": null}, {"id": 9500, "slack_id": "U0924U8PTGV", "display_name": "Muhammad Abdullah", "bio": null, "projects_count": 0, "devlogs_count": 0, "votes_count": 0, "ships_count": 0, "projects": [], "coding_time_seconds": 120, "coding_time_seconds_today": 0, "balance": "You need to have a pocket watcher badge to view this.", "badges": [], "created_at": "2025-06-19T05:50:40.927-04:00", "updated_at": "2025-07-03T19:52:16.068-04:00", "avatar": "https://secure.gravatar.com/avatar/4b2f4964686e7145fc05ee7899894e78.jpg?s=512&d=https%3A%2F%2Fa.slack-edge.com%2Fdf10d%2Fimg%2Favatars%2Fava_0005-512.png", "custom_css": null}], "pagination": {"page": 475, "pages": 1192, "count": 23828, "items": 20}}