{"users": [{"id": 9501, "slack_id": "U091ZUQ90SJ", "display_name": "aclgh", "bio": null, "projects_count": 1, "devlogs_count": 0, "votes_count": 0, "ships_count": 0, "projects": [{"id": 1739, "title": "dxpass-maker", "devlogs_count": 0, "created_at": "2025-06-19T06:23:45.041-04:00"}], "coding_time_seconds": 81027, "coding_time_seconds_today": 0, "balance": "You need to have a pocket watcher badge to view this.", "badges": [], "created_at": "2025-06-19T05:50:41.321-04:00", "updated_at": "2025-07-03T21:59:49.507-04:00", "avatar": "https://secure.gravatar.com/avatar/45b6508a89991facc9f24fc0e63140c4.jpg?s=512&d=https%3A%2F%2Fa.slack-edge.com%2Fdf10d%2Fimg%2Favatars%2Fava_0020-512.png", "custom_css": null}, {"id": 9502, "slack_id": "U092UL1BV16", "display_name": "Farhan", "bio": null, "projects_count": 0, "devlogs_count": 0, "votes_count": 0, "ships_count": 0, "projects": [], "coding_time_seconds": 0, "coding_time_seconds_today": 0, "balance": "You need to have a pocket watcher badge to view this.", "badges": [], "created_at": "2025-06-19T05:51:05.332-04:00", "updated_at": "2025-07-03T21:59:49.652-04:00", "avatar": "https://secure.gravatar.com/avatar/c9dbaf9d36166f928439e02812e66b68.jpg?s=512&d=https%3A%2F%2Fa.slack-edge.com%2Fdf10d%2Fimg%2Favatars%2Fava_0011-512.png", "custom_css": null}, {"id": 9503, "slack_id": "U092ULU9HDW", "display_name": "Abdul Basit", "bio": null, "projects_count": 0, "devlogs_count": 0, "votes_count": 0, "ships_count": 0, "projects": [], "coding_time_seconds": 0, "coding_time_seconds_today": 0, "balance": "You need to have a pocket watcher badge to view this.", "badges": [], "created_at": "2025-06-19T05:58:01.885-04:00", "updated_at": "2025-07-03T19:52:16.591-04:00", "avatar": "https://secure.gravatar.com/avatar/ba395187545fa5d8187c87794da02720.jpg?s=512&d=https%3A%2F%2Fa.slack-edge.com%2Fdf10d%2Fimg%2Favatars%2Fava_0012-512.png", "custom_css": null}, {"id": 9504, "slack_id": "U092JUWFTMF", "display_name": "Stanley", "bio": null, "projects_count": 0, "devlogs_count": 0, "votes_count": 0, "ships_count": 0, "projects": [], "coding_time_seconds": 0, "coding_time_seconds_today": 0, "balance": "You need to have a pocket watcher badge to view this.", "badges": [], "created_at": "2025-06-19T05:59:36.686-04:00", "updated_at": "2025-07-03T19:52:16.853-04:00", "avatar": "https://secure.gravatar.com/avatar/02346af479dd2b392a97402605789f90.jpg?s=512&d=https%3A%2F%2Fa.slack-edge.com%2Fdf10d%2Fimg%2Favatars%2Fava_0024-512.png", "custom_css": null}, {"id": 9505, "slack_id": "U0926GR52AG", "display_name": "Rohan Sardar", "bio": null, "projects_count": 0, "devlogs_count": 0, "votes_count": 0, "ships_count": 0, "projects": [], "coding_time_seconds": 0, "coding_time_seconds_today": 0, "balance": "You need to have a pocket watcher badge to view this.", "badges": [], "created_at": "2025-06-19T06:02:06.903-04:00", "updated_at": "2025-07-03T19:52:17.132-04:00", "avatar": "https://secure.gravatar.com/avatar/19b5141bdd47c71bda42c832e0e3142d.jpg?s=512&d=https%3A%2F%2Fa.slack-edge.com%2Fdf10d%2Fimg%2Favatars%2Fava_0015-512.png", "custom_css": null}, {"id": 9506, "slack_id": "U0926H4P7UL", "display_name": "Chandan Singh", "bio": null, "projects_count": 0, "devlogs_count": 0, "votes_count": 0, "ships_count": 0, "projects": [], "coding_time_seconds": 240, "coding_time_seconds_today": 0, "balance": "You need to have a pocket watcher badge to view this.", "badges": [], "created_at": "2025-06-19T06:02:41.188-04:00", "updated_at": "2025-07-03T19:52:17.409-04:00", "avatar": "https://avatars.slack-edge.com/2025-06-19/9059436723207_e09d8d3c32b3a4f07bf3_original.png", "custom_css": null}, {"id": 9507, "slack_id": "U092K0UF1DF", "display_name": "Kolbenik", "bio": null, "projects_count": 1, "devlogs_count": 1, "votes_count": 0, "ships_count": 0, "projects": [{"id": 4383, "title": "Lumina", "devlogs_count": 1, "created_at": "2025-06-29T13:16:37.867-04:00"}], "coding_time_seconds": 73994, "coding_time_seconds_today": 0, "balance": "You need to have a pocket watcher badge to view this.", "badges": [], "created_at": "2025-06-19T06:03:02.817-04:00", "updated_at": "2025-07-04T02:29:09.354-04:00", "avatar": "https://secure.gravatar.com/avatar/3616e74caa2ada70de9d473e1a55fb47.jpg?s=512&d=https%3A%2F%2Fa.slack-edge.com%2Fdf10d%2Fimg%2Favatars%2Fava_0023-512.png", "custom_css": null}, {"id": 9508, "slack_id": "U091CCK678X", "display_name": "David", "bio": null, "projects_count": 0, "devlogs_count": 0, "votes_count": 0, "ships_count": 0, "projects": [], "coding_time_seconds": 48208, "coding_time_seconds_today": 0, "balance": "You need to have a pocket watcher badge to view this.", "badges": [], "created_at": "2025-06-19T06:05:01.003-04:00", "updated_at": "2025-07-03T19:52:17.814-04:00", "avatar": "https://secure.gravatar.com/avatar/70dde22ba065a58cb7165c8e4a4b1c66.jpg?s=512&d=https%3A%2F%2Fa.slack-edge.com%2Fdf10d%2Fimg%2Favatars%2Fava_0001-512.png", "custom_css": null}, {"id": 9509, "slack_id": "U091P6CFUKX", "display_name": "Stephen Stenberg", "bio": null, "projects_count": 1, "devlogs_count": 0, "votes_count": 0, "ships_count": 0, "projects": [{"id": 1885, "title": "Digital mixer table", "devlogs_count": 0, "created_at": "2025-06-19T14:26:02.481-04:00"}], "coding_time_seconds": 101, "coding_time_seconds_today": 0, "balance": "You need to have a pocket watcher badge to view this.", "badges": [], "created_at": "2025-06-19T06:12:42.713-04:00", "updated_at": "2025-07-03T19:52:18.091-04:00", "avatar": "https://avatars.slack-edge.com/2025-06-19/9068097633222_ba5848576143e38b38f5_original.png", "custom_css": null}, {"id": 9510, "slack_id": "U091GF1EC22", "display_name": "Ahmad Khalil", "bio": null, "projects_count": 0, "devlogs_count": 0, "votes_count": 0, "ships_count": 0, "projects": [], "coding_time_seconds": 11940, "coding_time_seconds_today": 0, "balance": "You need to have a pocket watcher badge to view this.", "badges": [], "created_at": "2025-06-19T06:13:37.333-04:00", "updated_at": "2025-07-05T14:11:55.364-04:00", "avatar": "https://secure.gravatar.com/avatar/ade7fccbc81d866af126e330c322ae99.jpg?s=512&d=https%3A%2F%2Fa.slack-edge.com%2Fdf10d%2Fimg%2Favatars%2Fava_0018-512.png", "custom_css": null}, {"id": 9511, "slack_id": "U08UJL68048", "display_name": "sahilthecoder", "bio": null, "projects_count": 0, "devlogs_count": 0, "votes_count": 0, "ships_count": 0, "projects": [], "coding_time_seconds": 0, "coding_time_seconds_today": 0, "balance": "You need to have a pocket watcher badge to view this.", "badges": [], "created_at": "2025-06-19T06:17:54.472-04:00", "updated_at": "2025-07-03T21:59:50.262-04:00", "avatar": "https://secure.gravatar.com/avatar/72a6f81743956056e4017713c36d4fe1.jpg?s=512&d=https%3A%2F%2Fa.slack-edge.com%2Fdf10d%2Fimg%2Favatars%2Fava_0011-512.png", "custom_css": null}, {"id": 9512, "slack_id": "U0926JN1UTE", "display_name": "dWS", "bio": null, "projects_count": 0, "devlogs_count": 0, "votes_count": 0, "ships_count": 0, "projects": [], "coding_time_seconds": 0, "coding_time_seconds_today": 0, "balance": "You need to have a pocket watcher badge to view this.", "badges": [], "created_at": "2025-06-19T06:18:42.356-04:00", "updated_at": "2025-07-03T19:52:18.638-04:00", "avatar": "https://secure.gravatar.com/avatar/ee127697ab3854498a1fe2ace2fc3691.jpg?s=512&d=https%3A%2F%2Fa.slack-edge.com%2Fdf10d%2Fimg%2Favatars%2Fava_0022-512.png", "custom_css": null}, {"id": 9513, "slack_id": "U091ZSS3XJ7", "display_name": "Pandit Pan", "bio": null, "projects_count": 1, "devlogs_count": 0, "votes_count": 0, "ships_count": 0, "projects": [{"id": 13514, "title": "Automation Project", "devlogs_count": 0, "created_at": "2025-09-18T09:26:01.291-04:00"}], "coding_time_seconds": 57837, "coding_time_seconds_today": 0, "balance": "You need to have a pocket watcher badge to view this.", "badges": [], "created_at": "2025-06-19T06:18:54.790-04:00", "updated_at": "2025-09-18T09:22:53.388-04:00", "avatar": "https://secure.gravatar.com/avatar/e280ab43255a0c026771164d9b5a9857.jpg?s=512&d=https%3A%2F%2Fa.slack-edge.com%2Fdf10d%2Fimg%2Favatars%2Fava_0023-512.png", "custom_css": null}, {"id": 9514, "slack_id": "U092K32CNMP", "display_name": "Andrei", "bio": null, "projects_count": 0, "devlogs_count": 0, "votes_count": 0, "ships_count": 0, "projects": [], "coding_time_seconds": 0, "coding_time_seconds_today": 0, "balance": "You need to have a pocket watcher badge to view this.", "badges": [], "created_at": "2025-06-19T06:20:58.397-04:00", "updated_at": "2025-07-04T08:25:25.658-04:00", "avatar": "https://secure.gravatar.com/avatar/cbc30f3804164eb6bc1f3f18e5ed69bd.jpg?s=512&d=https%3A%2F%2Fa.slack-edge.com%2Fdf10d%2Fimg%2Favatars%2Fava_0006-512.png", "custom_css": null}, {"id": 9515, "slack_id": "U092531422H", "display_name": "Shaurya Thakur", "bio": null, "projects_count": 0, "devlogs_count": 0, "votes_count": 0, "ships_count": 0, "projects": [], "coding_time_seconds": 0, "coding_time_seconds_today": 0, "balance": "You need to have a pocket watcher badge to view this.", "badges": [], "created_at": "2025-06-19T06:21:53.501-04:00", "updated_at": "2025-07-03T21:47:48.345-04:00", "avatar": "https://avatars.slack-edge.com/2025-06-19/9073124807941_5753d9853c902e45c2d3_original.jpg", "custom_css": null}, {"id": 9516, "slack_id": "U0926667PM0", "display_name": "Nyi Lynn Htwe", "bio": null, "projects_count": 0, "devlogs_count": 0, "votes_count": 0, "ships_count": 0, "projects": [], "coding_time_seconds": 489985, "coding_time_seconds_today": 0, "balance": "You need to have a pocket watcher badge to view this.", "badges": [], "created_at": "2025-06-19T06:22:05.834-04:00", "updated_at": "2025-07-03T19:52:19.433-04:00", "avatar": "https://secure.gravatar.com/avatar/bb2dcc5b896874729b820ce4563581d3.jpg?s=512&d=https%3A%2F%2Fa.slack-edge.com%2Fdf10d%2Fimg%2Favatars%2Fava_0003-512.png", "custom_css": null}, {"id": 9517, "slack_id": "U0926KMCVDJ", "display_name": "Bailey", "bio": "Hi! I'm Bailey and I love to learn about coding and applying that knowledge to my own games/websites! I strive to be the best I can when it comes to coding. Other things I enjoy are video games and exploring new places!", "projects_count": 1, "devlogs_count": 137, "votes_count": 339, "ships_count": 1, "projects": [{"id": 12669, "title": "Zombie survival", "devlogs_count": 31, "created_at": "2025-08-31T11:26:30.868-04:00"}], "coding_time_seconds": 989857, "coding_time_seconds_today": 5092, "balance": "You need to have a pocket watcher badge to view this.", "badges": [{"name": "Maiden Voyage", "text": "you shipped your first project! the journey begins...", "icon": "\ud83d\udea2"}, {"name": "Ballot Stuffer", "text": "vote 100 times.", "icon": "https://summer.hackclub.com/assets/i_voted-bf851b48.png"}, {"name": "Yapper I", "text": "Posted 10 comments on devlogs.", "icon": "\ud83d\udcac"}, {"name": "Graphic Design is My Passion", "text": "Oh God How Did This Get Here I Am Not Good With Computer", "icon": "\ud83c\udfa8"}], "created_at": "2025-06-19T06:22:59.391-04:00", "updated_at": "2025-09-10T22:55:52.740-04:00", "avatar": "https://avatars.slack-edge.com/2025-08-17/9365347441858_5e82a94ac7558b628722_original.jpg", "custom_css": "body::before {\r\n  background: url(\"https://external-content.duckduckgo.com/iu/?u=https%3A%2F%2Fi.pinimg.com%2Foriginals%2F4f%2F15%2F61%2F4f1561ac8aa21c7077149eb47b9cc8a7.jpg\") !important;\r\n  background-size: cover;\r\n  background-repeat: no-repeat;\r\n  background-position: center center;\r\n  background-attachment: fixed;\r\n}\r\n\r\n.profile-name {\r\n    color: salmon;\r\n}\r\n\r\n.text-som-dark {\r\n    color: whitesmoke;\r\n}\r\n\r\n.text-gray-900 {\r\n    color: whitesmoke;\r\n}\r\n\r\n.text-gray-800 {\r\n    color: whitesmoke;\r\n}\r\n\r\n.text-gray-500 {\r\n    color: whitesmoke;\r\n}\r\n\r\n.text-gray-700 {\r\n    color: whitesmoke;\r\n}\r\n\r\n.-inset-0 {\r\n    color: black;\r\n  background: url(\"https://external-content.duckduckgo.com/iu/?u=https%3A%2F%2Fmedia.giphy.com%2Fmedia%2FyskYsLI62NSjS%2Fgiphy.gif\") !important;\r\n    background-size: 100% 100%;\r\n    background-repeat: no-repeat;\r\n    background-position: center center;\r\n    background-attachment: fixed;\r\n}\r\n\r\n.card-with-gradient {\r\n  background: url(\"https://external-content.duckduckgo.com/iu/?u=https%3A%2F%2Fgiffiles.alphacoders.com%2F263%2F26315.gif\") !important;\r\n    background-size: 100% 100%;\r\n    background-repeat: no-repeat;\r\n    background-position: center center;\r\n    background-attachment: fixed;\r\n}\r\n\r\n.from-\\[\\#E6D4BE\\] {\r\n    background: url('https://external-content.duckduckgo.com/iu/?u=https%3A%2F%2Fvignette.wikia.nocookie.net%2Fthebigbangtheory%2Fimages%2Ff%2Ffa%2FSheldonCooper.jpg%2Frevision%2Flatest%3Fcb%3D20160118193007%26path-prefix%3Des&f=1&nofb=1&ipt=56f0014b13e30e4ad8a840b733776044050ed3dca1a51c21e85717085e6af9dc');\r\n    background-size: 100% 100%;\r\n    background-repeat: no-repeat;\r\n}\r\n\r\n.bg-gray-50 {\r\n    color: black;\r\n}\r\n\r\n.shadow-lg::after {\r\n    content: \"skibidi ohio fanum tax\";\r\n}"}, {"id": 9518, "slack_id": "U092UPNAK2L", "display_name": "pie", "bio": null, "projects_count": 0, "devlogs_count": 0, "votes_count": 0, "ships_count": 0, "projects": [], "coding_time_seconds": 0, "coding_time_seconds_today": 0, "balance": "You need to have a pocket watcher badge to view this.", "badges": [], "created_at": "2025-06-19T06:25:26.435-04:00", "updated_at": "2025-07-04T20:10:09.410-04:00", "avatar": "https://secure.gravatar.com/avatar/46899476f868974751834015cc161d2b.jpg?s=512&d=https%3A%2F%2Fa.slack-edge.com%2Fdf10d%2Fimg%2Favatars%2Fava_0015-512.png", "custom_css": null}, {"id": 9519, "slack_id": "U091RFG3JNT", "display_name": "Ceyhun Nagiev", "bio": null, "projects_count": 14, "devlogs_count": 25, "votes_count": 201, "ships_count": 13, "projects": [{"id": 12649, "title": "Tic Tac Toe", "devlogs_count": 1, "created_at": "2025-08-31T03:16:22.105-04:00"}, {"id": 12070, "title": "Spotify Clone", "devlogs_count": 2, "created_at": "2025-08-22T16:46:06.183-04:00"}, {"id": 5411, "title": "Portfolio website", "devlogs_count": 3, "created_at": "2025-07-05T06:00:48.787-04:00"}, {"id": 7591, "title": "Markeplace", "devlogs_count": 1, "created_at": "2025-07-22T07:52:18.257-04:00"}, {"id": 8500, "title": "Chess  and Checkers", "devlogs_count": 3, "created_at": "2025-07-27T15:48:00.737-04:00"}, {"id": 11807, "title": "Typing speed", "devlogs_count": 2, "created_at": "2025-08-19T16:49:59.112-04:00"}, {"id": 12937, "title": "2D-Zombie-Survival-Shooter", "devlogs_count": 1, "created_at": "2025-09-05T16:39:23.019-04:00"}, {"id": 12977, "title": "2D Racing Game", "devlogs_count": 1, "created_at": "2025-09-06T12:58:44.298-04:00"}, {"id": 7593, "title": "Stickman game", "devlogs_count": 2, "created_at": "2025-07-22T08:03:34.092-04:00"}, {"id": 9863, "title": "Flappy-Bird", "devlogs_count": 1, "created_at": "2025-08-02T14:07:43.067-04:00"}, {"id": 10140, "title": "Platform game", "devlogs_count": 1, "created_at": "2025-08-04T10:10:22.392-04:00"}, {"id": 11583, "title": "Tower-Defense", "devlogs_count": 1, "created_at": "2025-08-17T08:18:29.276-04:00"}, {"id": 11611, "title": "Space Invaders", "devlogs_count": 1, "created_at": "2025-08-17T17:23:37.661-04:00"}, {"id": 11657, "title": "Typing-game", "devlogs_count": 2, "created_at": "2025-08-18T07:29:42.345-04:00"}], "coding_time_seconds": 383907, "coding_time_seconds_today": 0, "balance": "You need to have a pocket watcher badge to view this.", "badges": [{"name": "Maiden Voyage", "text": "you shipped your first project! the journey begins...", "icon": "\ud83d\udea2"}, {"name": "Ballot Stuffer", "text": "vote 100 times.", "icon": "https://summer.hackclub.com/assets/i_voted-bf851b48.png"}], "created_at": "2025-06-19T06:28:26.930-04:00", "updated_at": "2025-09-10T22:55:52.796-04:00", "avatar": "https://avatars.slack-edge.com/2025-06-19/9073151586085_b9b7a35c3b594007640c_original.png", "custom_css": null}, {"id": 9520, "slack_id": "U07V291UY8J", "display_name": "ZXMushroom63", "bio": null, "projects_count": 1, "devlogs_count": 2, "votes_count": 4, "ships_count": 1, "projects": [{"id": 4328, "title": "Color Calendar", "devlogs_count": 2, "created_at": "2025-06-29T01:07:36.933-04:00"}], "coding_time_seconds": 569059, "coding_time_seconds_today": 6342, "balance": "You need to have a pocket watcher badge to view this.", "badges": [{"name": "Maiden Voyage", "text": "you shipped your first project! the journey begins...", "icon": "\ud83d\udea2"}], "created_at": "2025-06-19T06:29:21.017-04:00", "updated_at": "2025-09-10T22:55:52.824-04:00", "avatar": "https://avatars.slack-edge.com/2024-12-21/8208380457795_d29b3f1e04fe495aaff8_original.png", "custom_css": null}], "pagination": {"page": 476, "pages": 1192, "count": 23828, "items": 20}}