{"users": [{"id": 9521, "slack_id": "U09254GBXRB", "display_name": "Mujitha", "bio": null, "projects_count": 0, "devlogs_count": 0, "votes_count": 0, "ships_count": 0, "projects": [], "coding_time_seconds": 0, "coding_time_seconds_today": 0, "balance": "You need to have a pocket watcher badge to view this.", "badges": [], "created_at": "2025-06-19T06:32:26.845-04:00", "updated_at": "2025-07-03T19:52:20.372-04:00", "avatar": "https://secure.gravatar.com/avatar/6f61d1d61af843ed3f38d07eabd97252.jpg?s=512&d=https%3A%2F%2Fa.slack-edge.com%2Fdf10d%2Fimg%2Favatars%2Fava_0024-512.png", "custom_css": null}, {"id": 9522, "slack_id": "U09204N7W30", "display_name": "Yuvashree Rajaraman", "bio": null, "projects_count": 0, "devlogs_count": 0, "votes_count": 0, "ships_count": 0, "projects": [], "coding_time_seconds": 0, "coding_time_seconds_today": 0, "balance": "You need to have a pocket watcher badge to view this.", "badges": [], "created_at": "2025-06-19T06:34:03.078-04:00", "updated_at": "2025-07-03T19:52:20.633-04:00", "avatar": "https://avatars.slack-edge.com/2025-06-19/9087175568449_aa7fe516bafdd3b874aa_original.png", "custom_css": null}, {"id": 9523, "slack_id": "U092K04PC7K", "display_name": "Bjarnos", "bio": null, "projects_count": 0, "devlogs_count": 0, "votes_count": 0, "ships_count": 0, "projects": [], "coding_time_seconds": 403743, "coding_time_seconds_today": 0, "balance": "You need to have a pocket watcher badge to view this.", "badges": [], "created_at": "2025-06-19T06:34:28.056-04:00", "updated_at": "2025-07-03T21:47:48.953-04:00", "avatar": "https://secure.gravatar.com/avatar/5c320f35290df1f18e45dfc03ec585ad.jpg?s=512&d=https%3A%2F%2Fa.slack-edge.com%2Fdf10d%2Fimg%2Favatars%2Fava_0025-512.png", "custom_css": null}, {"id": 9524, "slack_id": "U0920C5NQRY", "display_name": "Samet", "bio": null, "projects_count": 0, "devlogs_count": 0, "votes_count": 0, "ships_count": 0, "projects": [], "coding_time_seconds": 3607, "coding_time_seconds_today": 0, "balance": "You need to have a pocket watcher badge to view this.", "badges": [], "created_at": "2025-06-19T06:36:20.074-04:00", "updated_at": "2025-07-03T19:52:21.050-04:00", "avatar": "https://secure.gravatar.com/avatar/cb760c4339d0c34308a18f433390b740.jpg?s=512&d=https%3A%2F%2Fa.slack-edge.com%2Fdf10d%2Fimg%2Favatars%2Fava_0007-512.png", "custom_css": null}, {"id": 9525, "slack_id": "U09254YTL1K", "display_name": "aditya mokkapati", "bio": null, "projects_count": 0, "devlogs_count": 0, "votes_count": 0, "ships_count": 0, "projects": [], "coding_time_seconds": 0, "coding_time_seconds_today": 0, "balance": "You need to have a pocket watcher badge to view this.", "badges": [], "created_at": "2025-06-19T06:36:28.045-04:00", "updated_at": "2025-07-03T19:52:21.302-04:00", "avatar": "https://avatars.slack-edge.com/2025-06-19/9074737669556_62dd0b227e1a4735307c_original.png", "custom_css": null}, {"id": 9526, "slack_id": "U092K57QNF3", "display_name": "Patrik", "bio": null, "projects_count": 0, "devlogs_count": 0, "votes_count": 0, "ships_count": 0, "projects": [], "coding_time_seconds": 0, "coding_time_seconds_today": 0, "balance": "You need to have a pocket watcher badge to view this.", "badges": [], "created_at": "2025-06-19T06:38:38.042-04:00", "updated_at": "2025-07-03T19:52:21.564-04:00", "avatar": "https://secure.gravatar.com/avatar/dc9ba5f830b3937252bdcd8d16ca35d0.jpg?s=512&d=https%3A%2F%2Fa.slack-edge.com%2Fdf10d%2Fimg%2Favatars%2Fava_0001-512.png", "custom_css": null}, {"id": 9527, "slack_id": "U084NC30FP0", "display_name": "Your local femboy", "bio": null, "projects_count": 0, "devlogs_count": 0, "votes_count": 0, "ships_count": 0, "projects": [], "coding_time_seconds": 0, "coding_time_seconds_today": 0, "balance": "You need to have a pocket watcher badge to view this.", "badges": [], "created_at": "2025-06-19T06:40:14.692-04:00", "updated_at": "2025-09-20T19:40:50.726-04:00", "avatar": "https://avatars.slack-edge.com/2025-09-20/9548813155411_438f82ba1c3cc8b573a8_original.png", "custom_css": null}, {"id": 9528, "slack_id": "U09267WCH1Q", "display_name": "Simon", "bio": null, "projects_count": 0, "devlogs_count": 0, "votes_count": 0, "ships_count": 0, "projects": [], "coding_time_seconds": 2332, "coding_time_seconds_today": 0, "balance": "You need to have a pocket watcher badge to view this.", "badges": [], "created_at": "2025-06-19T06:45:11.745-04:00", "updated_at": "2025-07-03T19:52:22.098-04:00", "avatar": "https://secure.gravatar.com/avatar/e7fb9c4638fb9803055f6a33cfc232c7.jpg?s=512&d=https%3A%2F%2Fa.slack-edge.com%2Fdf10d%2Fimg%2Favatars%2Fava_0024-512.png", "custom_css": null}, {"id": 9529, "slack_id": "U092URRRW5N", "display_name": "mambo", "bio": null, "projects_count": 3, "devlogs_count": 5, "votes_count": 21, "ships_count": 1, "projects": [{"id": 2355, "title": "portfolio website", "devlogs_count": 1, "created_at": "2025-06-20T19:34:11.404-04:00"}, {"id": 2416, "title": "hexapod", "devlogs_count": 0, "created_at": "2025-06-21T01:24:41.222-04:00"}, {"id": 9100, "title": "corporate loop", "devlogs_count": 4, "created_at": "2025-07-30T15:47:57.736-04:00"}], "coding_time_seconds": 91140, "coding_time_seconds_today": 0, "balance": "You need to have a pocket watcher badge to view this.", "badges": [{"name": "Maiden Voyage", "text": "you shipped your first project! the journey begins...", "icon": "\ud83d\udea2"}], "created_at": "2025-06-19T06:46:14.102-04:00", "updated_at": "2025-09-10T22:55:53.056-04:00", "avatar": "https://secure.gravatar.com/avatar/ee13048a3364d7853207e1bf056698e0.jpg?s=512&d=https%3A%2F%2Fa.slack-edge.com%2Fdf10d%2Fimg%2Favatars%2Fava_0019-512.png", "custom_css": null}, {"id": 9530, "slack_id": "U091RHZA8G7", "display_name": "Ayush Hang", "bio": null, "projects_count": 0, "devlogs_count": 0, "votes_count": 0, "ships_count": 0, "projects": [], "coding_time_seconds": 66511, "coding_time_seconds_today": 0, "balance": "You need to have a pocket watcher badge to view this.", "badges": [], "created_at": "2025-06-19T06:48:55.761-04:00", "updated_at": "2025-07-03T19:52:22.501-04:00", "avatar": "https://secure.gravatar.com/avatar/2f3edb9f0064cb58f296a1ad8f56714c.jpg?s=512&d=https%3A%2F%2Fa.slack-edge.com%2Fdf10d%2Fimg%2Favatars%2Fava_0008-512.png", "custom_css": null}, {"id": 9531, "slack_id": "U09269992P4", "display_name": "Brian Ongoro", "bio": null, "projects_count": 0, "devlogs_count": 0, "votes_count": 0, "ships_count": 0, "projects": [], "coding_time_seconds": 0, "coding_time_seconds_today": 0, "balance": "You need to have a pocket watcher badge to view this.", "badges": [], "created_at": "2025-06-19T06:50:02.339-04:00", "updated_at": "2025-07-04T08:25:26.799-04:00", "avatar": "https://secure.gravatar.com/avatar/6892023157765cdde43bc8f53b8a1f9a.jpg?s=512&d=https%3A%2F%2Fa.slack-edge.com%2Fdf10d%2Fimg%2Favatars%2Fava_0014-512.png", "custom_css": null}, {"id": 9532, "slack_id": "U0926NYGDGC", "display_name": "Leonardo Monforte", "bio": null, "projects_count": 2, "devlogs_count": 19, "votes_count": 32, "ships_count": 2, "projects": [{"id": 1757, "title": "Milano Public Transport Tracker", "devlogs_count": 12, "created_at": "2025-06-19T07:21:47.659-04:00"}, {"id": 11107, "title": "\u26a1StromScope \u2013 Lightning Awareness in Real Time", "devlogs_count": 7, "created_at": "2025-08-13T08:02:41.962-04:00"}], "coding_time_seconds": 180659, "coding_time_seconds_today": 0, "balance": "You need to have a pocket watcher badge to view this.", "badges": [{"name": "Maiden Voyage", "text": "you shipped your first project! the journey begins...", "icon": "\ud83d\udea2"}], "created_at": "2025-06-19T06:51:03.758-04:00", "updated_at": "2025-09-22T04:21:36.350-04:00", "avatar": "https://avatars.slack-edge.com/2025-06-19/9060041608279_361d53d307f698323f81_original.jpg", "custom_css": null}, {"id": 9533, "slack_id": "U07A0P82J59", "display_name": "sapmix", "bio": null, "projects_count": 5, "devlogs_count": 18, "votes_count": 13, "ships_count": 1, "projects": [{"id": 1761, "title": "blutils", "devlogs_count": 1, "created_at": "2025-06-19T07:39:13.199-04:00"}, {"id": 1887, "title": "ComNote", "devlogs_count": 9, "created_at": "2025-06-19T14:34:27.665-04:00"}, {"id": 11076, "title": "RPanel - Modular TUI status panel in Rust", "devlogs_count": 4, "created_at": "2025-08-13T01:38:47.716-04:00"}, {"id": 6355, "title": "NuED", "devlogs_count": 1, "created_at": "2025-07-12T16:10:38.819-04:00"}, {"id": 10625, "title": "AccentPaper: Automatic accent color based on wallpaper on macOS", "devlogs_count": 3, "created_at": "2025-08-09T04:45:02.029-04:00"}], "coding_time_seconds": 867149, "coding_time_seconds_today": 0, "balance": "You need to have a pocket watcher badge to view this.", "badges": [{"name": "Maiden Voyage", "text": "you shipped your first project! the journey begins...", "icon": "\ud83d\udea2"}], "created_at": "2025-06-19T06:51:34.973-04:00", "updated_at": "2025-09-10T22:55:53.166-04:00", "avatar": "https://avatars.slack-edge.com/2024-06-27/7341027054274_fd080c41f98810ca622e_original.png", "custom_css": null}, {"id": 9534, "slack_id": "U0922P6D73P", "display_name": "Bhavana Rupakula", "bio": null, "projects_count": 0, "devlogs_count": 0, "votes_count": 0, "ships_count": 0, "projects": [], "coding_time_seconds": 111508, "coding_time_seconds_today": 0, "balance": "You need to have a pocket watcher badge to view this.", "badges": [], "created_at": "2025-06-19T06:52:19.988-04:00", "updated_at": "2025-07-03T19:52:23.459-04:00", "avatar": "https://secure.gravatar.com/avatar/8efa20b2d60a0c198eabef305c2a7dc7.jpg?s=512&d=https%3A%2F%2Fa.slack-edge.com%2Fdf10d%2Fimg%2Favatars%2Fava_0007-512.png", "custom_css": null}, {"id": 9535, "slack_id": "U091TKV6N2Z", "display_name": "Roshan Padit", "bio": null, "projects_count": 0, "devlogs_count": 0, "votes_count": 0, "ships_count": 0, "projects": [], "coding_time_seconds": 0, "coding_time_seconds_today": 0, "balance": "You need to have a pocket watcher badge to view this.", "badges": [], "created_at": "2025-06-19T06:53:12.552-04:00", "updated_at": "2025-07-03T19:52:23.745-04:00", "avatar": "https://secure.gravatar.com/avatar/7abad26b4dc7fb04f25c760e67fd802d.jpg?s=512&d=https%3A%2F%2Fa.slack-edge.com%2Fdf10d%2Fimg%2Favatars%2Fava_0003-512.png", "custom_css": null}, {"id": 9536, "slack_id": "U0923F9RS0M", "display_name": "Ritik Mehta", "bio": null, "projects_count": 0, "devlogs_count": 0, "votes_count": 0, "ships_count": 0, "projects": [], "coding_time_seconds": 0, "coding_time_seconds_today": 0, "balance": "You need to have a pocket watcher badge to view this.", "badges": [], "created_at": "2025-06-19T06:55:05.211-04:00", "updated_at": "2025-07-03T19:52:24.008-04:00", "avatar": "https://secure.gravatar.com/avatar/d51471ac22a0c29e5950f0d81960fb19.jpg?s=512&d=https%3A%2F%2Fa.slack-edge.com%2Fdf10d%2Fimg%2Favatars%2Fava_0006-512.png", "custom_css": null}, {"id": 9537, "slack_id": "U09207R04GN", "display_name": "diti", "bio": null, "projects_count": 0, "devlogs_count": 0, "votes_count": 0, "ships_count": 0, "projects": [], "coding_time_seconds": 3067, "coding_time_seconds_today": 0, "balance": "You need to have a pocket watcher badge to view this.", "badges": [], "created_at": "2025-06-19T06:55:22.837-04:00", "updated_at": "2025-07-05T14:11:57.667-04:00", "avatar": "https://secure.gravatar.com/avatar/0630b235af8f1cffb040657dfbc1057b.jpg?s=512&d=https%3A%2F%2Fa.slack-edge.com%2Fdf10d%2Fimg%2Favatars%2Fava_0003-512.png", "custom_css": null}, {"id": 9538, "slack_id": "U07SVH22EBF", "display_name": "OC", "bio": null, "projects_count": 0, "devlogs_count": 0, "votes_count": 0, "ships_count": 0, "projects": [], "coding_time_seconds": 106329, "coding_time_seconds_today": 0, "balance": "You need to have a pocket watcher badge to view this.", "badges": [], "created_at": "2025-06-19T06:57:57.912-04:00", "updated_at": "2025-08-25T11:50:51.342-04:00", "avatar": "https://avatars.slack-edge.com/2025-07-25/9270040446385_0c66f2421f87b1b7c713_original.png", "custom_css": null}, {"id": 9539, "slack_id": "U040X9BB30C", "display_name": "wylited", "bio": null, "projects_count": 1, "devlogs_count": 1, "votes_count": 0, "ships_count": 0, "projects": [{"id": 1832, "title": "Walkaton", "devlogs_count": 1, "created_at": "2025-06-19T11:23:35.386-04:00"}], "coding_time_seconds": 93499, "coding_time_seconds_today": 0, "balance": "You need to have a pocket watcher badge to view this.", "badges": [], "created_at": "2025-06-19T06:59:09.758-04:00", "updated_at": "2025-07-24T06:08:45.787-04:00", "avatar": "https://avatars.slack-edge.com/2022-09-02/4014303954887_7ac397d9ca9fad4f1600_original.png", "custom_css": null}, {"id": 9540, "slack_id": "U08109MLWAF", "display_name": "Tayem Farouk", "bio": null, "projects_count": 0, "devlogs_count": 0, "votes_count": 0, "ships_count": 0, "projects": [], "coding_time_seconds": 0, "coding_time_seconds_today": 0, "balance": "You need to have a pocket watcher badge to view this.", "badges": [], "created_at": "2025-06-19T07:03:17.073-04:00", "updated_at": "2025-07-05T02:10:43.144-04:00", "avatar": "https://avatars.slack-edge.com/2025-02-01/8397070859873_a171a5c46c87c313b77a_original.jpg", "custom_css": null}], "pagination": {"page": 477, "pages": 1192, "count": 23828, "items": 20}}