{"users": [{"id": 9541, "slack_id": "U09258MQ35K", "display_name": "Arif \u00c7akmak", "bio": null, "projects_count": 0, "devlogs_count": 0, "votes_count": 0, "ships_count": 0, "projects": [], "coding_time_seconds": 110378, "coding_time_seconds_today": 0, "balance": "You need to have a pocket watcher badge to view this.", "badges": [], "created_at": "2025-06-19T07:06:30.133-04:00", "updated_at": "2025-07-03T19:52:25.167-04:00", "avatar": "https://secure.gravatar.com/avatar/7ffe64e1fba25e9404dc0514fba3bc21.jpg?s=512&d=https%3A%2F%2Fa.slack-edge.com%2Fdf10d%2Fimg%2Favatars%2Fava_0009-512.png", "custom_css": null}, {"id": 9542, "slack_id": "U09209KTG06", "display_name": "Ghulam Hasnain", "bio": null, "projects_count": 0, "devlogs_count": 0, "votes_count": 0, "ships_count": 0, "projects": [], "coding_time_seconds": 0, "coding_time_seconds_today": 0, "balance": "You need to have a pocket watcher badge to view this.", "badges": [], "created_at": "2025-06-19T07:08:46.858-04:00", "updated_at": "2025-07-03T21:59:52.265-04:00", "avatar": "https://secure.gravatar.com/avatar/0eea514cfba66446da4b43604a1f3319.jpg?s=512&d=https%3A%2F%2Fa.slack-edge.com%2Fdf10d%2Fimg%2Favatars%2Fava_0022-512.png", "custom_css": null}, {"id": 9543, "slack_id": "U092K8HU389", "display_name": "Mayank disae", "bio": null, "projects_count": 0, "devlogs_count": 0, "votes_count": 0, "ships_count": 0, "projects": [], "coding_time_seconds": 0, "coding_time_seconds_today": 0, "balance": "You need to have a pocket watcher badge to view this.", "badges": [], "created_at": "2025-06-19T07:08:47.077-04:00", "updated_at": "2025-07-03T19:52:25.564-04:00", "avatar": "https://secure.gravatar.com/avatar/5821bf1b38201674f1a9036e2e14a3dc.jpg?s=512&d=https%3A%2F%2Fa.slack-edge.com%2Fdf10d%2Fimg%2Favatars%2Fava_0021-512.png", "custom_css": null}, {"id": 9544, "slack_id": "U091RLCFJJK", "display_name": "Adrian Claxton", "bio": null, "projects_count": 0, "devlogs_count": 0, "votes_count": 0, "ships_count": 0, "projects": [], "coding_time_seconds": 0, "coding_time_seconds_today": 0, "balance": "You need to have a pocket watcher badge to view this.", "badges": [], "created_at": "2025-06-19T07:09:20.314-04:00", "updated_at": "2025-07-03T21:59:52.427-04:00", "avatar": "https://secure.gravatar.com/avatar/c5594c20cfd4a7a6905a58dbdf0568b8.jpg?s=512&d=https%3A%2F%2Fa.slack-edge.com%2Fdf10d%2Fimg%2Favatars%2Fava_0025-512.png", "custom_css": null}, {"id": 9545, "slack_id": "U09202P8JUB", "display_name": "Aditya Teja Mokkapati", "bio": null, "projects_count": 1, "devlogs_count": 5, "votes_count": 4, "ships_count": 1, "projects": [{"id": 2735, "title": "snoopy chilling", "devlogs_count": 5, "created_at": "2025-06-21T22:42:36.560-04:00"}], "coding_time_seconds": 20262, "coding_time_seconds_today": 0, "balance": "You need to have a pocket watcher badge to view this.", "badges": [{"name": "Maiden Voyage", "text": "you shipped your first project! the journey begins...", "icon": "\ud83d\udea2"}], "created_at": "2025-06-19T07:10:22.142-04:00", "updated_at": "2025-09-10T22:55:53.529-04:00", "avatar": "https://avatars.slack-edge.com/2025-09-07/9486779235329_8d8c93f14e64f5a67867_original.jpg", "custom_css": null}, {"id": 9546, "slack_id": "U092K91BBEV", "display_name": "BishwasShrestha", "bio": null, "projects_count": 0, "devlogs_count": 0, "votes_count": 0, "ships_count": 0, "projects": [], "coding_time_seconds": 0, "coding_time_seconds_today": 0, "balance": "You need to have a pocket watcher badge to view this.", "badges": [], "created_at": "2025-06-19T07:10:38.204-04:00", "updated_at": "2025-07-03T19:52:26.248-04:00", "avatar": "https://secure.gravatar.com/avatar/f65b7ee26eae64f77d804a0d06cdd15e.jpg?s=512&d=https%3A%2F%2Fa.slack-edge.com%2Fdf10d%2Fimg%2Favatars%2Fava_0026-512.png", "custom_css": null}, {"id": 9547, "slack_id": "U091ZTZ5ZU3", "display_name": "e", "bio": null, "projects_count": 0, "devlogs_count": 0, "votes_count": 0, "ships_count": 0, "projects": [], "coding_time_seconds": 0, "coding_time_seconds_today": 0, "balance": "You need to have a pocket watcher badge to view this.", "badges": [], "created_at": "2025-06-19T07:11:25.837-04:00", "updated_at": "2025-07-05T02:10:43.589-04:00", "avatar": "https://secure.gravatar.com/avatar/aa2b9ff1dc4d60d974cca7082427ea70.jpg?s=512&d=https%3A%2F%2Fa.slack-edge.com%2Fdf10d%2Fimg%2Favatars%2Fava_0024-512.png", "custom_css": null}, {"id": 9548, "slack_id": "U055C5E9C0N", "display_name": "Aikagra Gupta", "bio": null, "projects_count": 0, "devlogs_count": 0, "votes_count": 0, "ships_count": 0, "projects": [], "coding_time_seconds": 4481, "coding_time_seconds_today": 0, "balance": "You need to have a pocket watcher badge to view this.", "badges": [], "created_at": "2025-06-19T07:13:28.018-04:00", "updated_at": "2025-07-09T16:59:40.173-04:00", "avatar": "https://avatars.slack-edge.com/2023-04-28/5188797251170_d7f8514afa9e4d06d9e0_original.jpg", "custom_css": null}, {"id": 9549, "slack_id": "U091RM1T2LX", "display_name": "Ibrahim Fahmi", "bio": null, "projects_count": 0, "devlogs_count": 0, "votes_count": 0, "ships_count": 0, "projects": [], "coding_time_seconds": 2812, "coding_time_seconds_today": 0, "balance": "You need to have a pocket watcher badge to view this.", "badges": [], "created_at": "2025-06-19T07:14:55.854-04:00", "updated_at": "2025-07-03T19:52:26.929-04:00", "avatar": "https://secure.gravatar.com/avatar/e35c94969ffcb792cf3986b46d484d51.jpg?s=512&d=https%3A%2F%2Fa.slack-edge.com%2Fdf10d%2Fimg%2Favatars%2Fava_0011-512.png", "custom_css": null}, {"id": 9550, "slack_id": "U092UTJ472L", "display_name": "Suhail", "bio": null, "projects_count": 0, "devlogs_count": 55, "votes_count": 85, "ships_count": 0, "projects": [], "coding_time_seconds": 98482, "coding_time_seconds_today": 0, "balance": "You need to have a pocket watcher badge to view this.", "badges": [{"name": "Maiden Voyage", "text": "you shipped your first project! the journey begins...", "icon": "\ud83d\udea2"}, {"name": "Ballot Stuffer", "text": "vote 100 times.", "icon": "https://summer.hackclub.com/assets/i_voted-bf851b48.png"}, {"name": "Spider", "text": "this user has a pet!", "icon": "\ud83d\udd77\ufe0f"}], "created_at": "2025-06-19T07:15:22.622-04:00", "updated_at": "2025-09-10T22:55:53.674-04:00", "avatar": "https://secure.gravatar.com/avatar/5047a5d9c5bee11bd3f2c23739b49fd8.jpg?s=512&d=https%3A%2F%2Fa.slack-edge.com%2Fdf10d%2Fimg%2Favatars%2Fava_0015-512.png", "custom_css": null}, {"id": 9551, "slack_id": "U092K97A8EM", "display_name": "Yash B", "bio": null, "projects_count": 0, "devlogs_count": 0, "votes_count": 0, "ships_count": 0, "projects": [], "coding_time_seconds": 154, "coding_time_seconds_today": 0, "balance": "You need to have a pocket watcher badge to view this.", "badges": [], "created_at": "2025-06-19T07:16:49.881-04:00", "updated_at": "2025-07-06T14:10:30.357-04:00", "avatar": "https://secure.gravatar.com/avatar/27a21189c759de956fafa5090566121e.jpg?s=512&d=https%3A%2F%2Fa.slack-edge.com%2Fdf10d%2Fimg%2Favatars%2Fava_0008-512.png", "custom_css": null}, {"id": 9552, "slack_id": "U092K9766QH", "display_name": "Josh", "bio": null, "projects_count": 0, "devlogs_count": 0, "votes_count": 0, "ships_count": 0, "projects": [], "coding_time_seconds": 0, "coding_time_seconds_today": 0, "balance": "You need to have a pocket watcher badge to view this.", "badges": [], "created_at": "2025-06-19T07:17:11.473-04:00", "updated_at": "2025-07-03T19:52:27.456-04:00", "avatar": "https://secure.gravatar.com/avatar/9e096481818854e88653bda5fdd86ab0.jpg?s=512&d=https%3A%2F%2Fa.slack-edge.com%2Fdf10d%2Fimg%2Favatars%2Fava_0017-512.png", "custom_css": null}, {"id": 9553, "slack_id": "U07U75Y0ZKQ", "display_name": "Abigail Loken", "bio": null, "projects_count": 0, "devlogs_count": 0, "votes_count": 0, "ships_count": 0, "projects": [], "coding_time_seconds": 132121, "coding_time_seconds_today": 0, "balance": "You need to have a pocket watcher badge to view this.", "badges": [], "created_at": "2025-06-19T07:19:33.785-04:00", "updated_at": "2025-07-30T08:53:05.906-04:00", "avatar": "https://avatars.slack-edge.com/2025-07-29/9276220969252_9bd2425dedbbcea2a29b_original.png", "custom_css": null}, {"id": 9554, "slack_id": "U092V0USMGQ", "display_name": "Jakub Oliva", "bio": null, "projects_count": 0, "devlogs_count": 0, "votes_count": 0, "ships_count": 0, "projects": [], "coding_time_seconds": 0, "coding_time_seconds_today": 0, "balance": "You need to have a pocket watcher badge to view this.", "badges": [], "created_at": "2025-06-19T07:19:53.590-04:00", "updated_at": "2025-07-03T21:47:51.288-04:00", "avatar": "https://secure.gravatar.com/avatar/35db88c065d33eb22296efc34917a8c3.jpg?s=512&d=https%3A%2F%2Fa.slack-edge.com%2Fdf10d%2Fimg%2Favatars%2Fava_0015-512.png", "custom_css": null}, {"id": 9555, "slack_id": "U0926SE8NN8", "display_name": "Jagannatha Durley", "bio": null, "projects_count": 0, "devlogs_count": 0, "votes_count": 0, "ships_count": 0, "projects": [], "coding_time_seconds": 0, "coding_time_seconds_today": 0, "balance": "You need to have a pocket watcher badge to view this.", "badges": [], "created_at": "2025-06-19T07:21:14.953-04:00", "updated_at": "2025-07-05T14:11:58.889-04:00", "avatar": "https://secure.gravatar.com/avatar/0c8796cddf0637d72be79ab373787967.jpg?s=512&d=https%3A%2F%2Fa.slack-edge.com%2Fdf10d%2Fimg%2Favatars%2Fava_0024-512.png", "custom_css": null}, {"id": 9556, "slack_id": "U08QSK22KFF", "display_name": "Slimi", "bio": null, "projects_count": 1, "devlogs_count": 1, "votes_count": 0, "ships_count": 0, "projects": [{"id": 1888, "title": "corepeek", "devlogs_count": 1, "created_at": "2025-06-19T14:37:00.275-04:00"}], "coding_time_seconds": 15145, "coding_time_seconds_today": 0, "balance": "You need to have a pocket watcher badge to view this.", "badges": [], "created_at": "2025-06-19T07:21:54.215-04:00", "updated_at": "2025-07-03T19:52:28.300-04:00", "avatar": "https://secure.gravatar.com/avatar/ff5d6d0867480c3d9490ecaf99ec44a4.jpg?s=512&d=https%3A%2F%2Fa.slack-edge.com%2Fdf10d%2Fimg%2Favatars%2Fava_0018-512.png", "custom_css": null}, {"id": 9557, "slack_id": "U092564PEAH", "display_name": "Raya", "bio": null, "projects_count": 1, "devlogs_count": 6, "votes_count": 19, "ships_count": 1, "projects": [{"id": 1838, "title": "Defying in Heaven", "devlogs_count": 6, "created_at": "2025-06-19T11:45:03.741-04:00"}], "coding_time_seconds": 185236, "coding_time_seconds_today": 0, "balance": "You need to have a pocket watcher badge to view this.", "badges": [{"name": "Maiden Voyage", "text": "you shipped your first project! the journey begins...", "icon": "\ud83d\udea2"}], "created_at": "2025-06-19T07:23:00.801-04:00", "updated_at": "2025-09-10T22:55:53.830-04:00", "avatar": "https://avatars.slack-edge.com/2025-06-19/9068197746419_a2844f1981761bada03e_original.png", "custom_css": null}, {"id": 9558, "slack_id": "U092KAJV0TT", "display_name": "mubasheer", "bio": null, "projects_count": 0, "devlogs_count": 0, "votes_count": 0, "ships_count": 0, "projects": [], "coding_time_seconds": 4061, "coding_time_seconds_today": 0, "balance": "You need to have a pocket watcher badge to view this.", "badges": [], "created_at": "2025-06-19T07:24:04.500-04:00", "updated_at": "2025-07-06T02:11:53.190-04:00", "avatar": "https://secure.gravatar.com/avatar/b300c4b0fd86fdb8fda41501083a016a.jpg?s=512&d=https%3A%2F%2Fa.slack-edge.com%2Fdf10d%2Fimg%2Favatars%2Fava_0014-512.png", "custom_css": null}, {"id": 9559, "slack_id": "U092V14QQGY", "display_name": "Zaid Sheikh", "bio": null, "projects_count": 0, "devlogs_count": 0, "votes_count": 0, "ships_count": 0, "projects": [], "coding_time_seconds": 14461, "coding_time_seconds_today": 0, "balance": "You need to have a pocket watcher badge to view this.", "badges": [], "created_at": "2025-06-19T07:25:12.047-04:00", "updated_at": "2025-07-03T19:52:28.974-04:00", "avatar": "https://secure.gravatar.com/avatar/3826b8e111246f1c8c426d2d602cd90d.jpg?s=512&d=https%3A%2F%2Fa.slack-edge.com%2Fdf10d%2Fimg%2Favatars%2Fava_0012-512.png", "custom_css": null}, {"id": 9560, "slack_id": "U08G485VBKN", "display_name": "Pranav sandeep", "bio": null, "projects_count": 1, "devlogs_count": 3, "votes_count": 0, "ships_count": 0, "projects": [{"id": 3458, "title": "Minimal Git Client using Go", "devlogs_count": 3, "created_at": "2025-06-24T11:01:42.888-04:00"}], "coding_time_seconds": 9781, "coding_time_seconds_today": 0, "balance": "You need to have a pocket watcher badge to view this.", "badges": [], "created_at": "2025-06-19T07:25:16.773-04:00", "updated_at": "2025-09-14T11:07:25.094-04:00", "avatar": "https://avatars.slack-edge.com/2025-03-04/8542658948917_5d4aa20784cc698ea18a_original.jpg", "custom_css": null}], "pagination": {"page": 478, "pages": 1192, "count": 23828, "items": 20}}