{"users": [{"id": 9561, "slack_id": "U091RN62AT1", "display_name": "Nonolar", "bio": null, "projects_count": 1, "devlogs_count": 12, "votes_count": 18, "ships_count": 1, "projects": [{"id": 2961, "title": "Chess engine", "devlogs_count": 12, "created_at": "2025-06-22T15:13:50.121-04:00"}], "coding_time_seconds": 77101, "coding_time_seconds_today": 0, "balance": "You need to have a pocket watcher badge to view this.", "badges": [{"name": "Maiden Voyage", "text": "you shipped your first project! the journey begins...", "icon": "\ud83d\udea2"}], "created_at": "2025-06-19T07:27:28.938-04:00", "updated_at": "2025-09-10T22:55:54.114-04:00", "avatar": "https://secure.gravatar.com/avatar/45e7830c0c36397f272edbf47ae66497.jpg?s=512&d=https%3A%2F%2Fa.slack-edge.com%2Fdf10d%2Fimg%2Favatars%2Fava_0025-512.png", "custom_css": null}, {"id": 9562, "slack_id": "U0925AWQ2ER", "display_name": "Wade Hofer", "bio": null, "projects_count": 0, "devlogs_count": 0, "votes_count": 0, "ships_count": 0, "projects": [], "coding_time_seconds": 0, "coding_time_seconds_today": 0, "balance": "You need to have a pocket watcher badge to view this.", "badges": [], "created_at": "2025-06-19T07:27:30.372-04:00", "updated_at": "2025-07-03T19:52:29.644-04:00", "avatar": "https://secure.gravatar.com/avatar/601f6896cf808432dcd049dda893d946.jpg?s=512&d=https%3A%2F%2Fa.slack-edge.com%2Fdf10d%2Fimg%2Favatars%2Fava_0023-512.png", "custom_css": null}, {"id": 9563, "slack_id": "U09205BKQKV", "display_name": "Alexander Wessblad H\u00e5rdh", "bio": null, "projects_count": 0, "devlogs_count": 0, "votes_count": 0, "ships_count": 0, "projects": [], "coding_time_seconds": 600, "coding_time_seconds_today": 0, "balance": "You need to have a pocket watcher badge to view this.", "badges": [], "created_at": "2025-06-19T07:31:59.542-04:00", "updated_at": "2025-07-03T19:52:29.910-04:00", "avatar": "https://secure.gravatar.com/avatar/adbd67aa5b7905d9643009ffe4914604.jpg?s=512&d=https%3A%2F%2Fa.slack-edge.com%2Fdf10d%2Fimg%2Favatars%2Fava_0022-512.png", "custom_css": null}, {"id": 9564, "slack_id": "U091AMABVP1", "display_name": "Dheeraj Shrivastav", "bio": null, "projects_count": 0, "devlogs_count": 0, "votes_count": 0, "ships_count": 0, "projects": [], "coding_time_seconds": 0, "coding_time_seconds_today": 0, "balance": "You need to have a pocket watcher badge to view this.", "badges": [], "created_at": "2025-06-19T07:32:32.080-04:00", "updated_at": "2025-07-05T20:11:04.264-04:00", "avatar": "https://avatars.slack-edge.com/2025-06-19/9059795987879_c351516864891f3c8cf4_original.png", "custom_css": null}, {"id": 9565, "slack_id": "U092TN1C49W", "display_name": "samarth", "bio": null, "projects_count": 0, "devlogs_count": 0, "votes_count": 0, "ships_count": 0, "projects": [], "coding_time_seconds": 0, "coding_time_seconds_today": 0, "balance": "You need to have a pocket watcher badge to view this.", "badges": [], "created_at": "2025-06-19T07:32:59.618-04:00", "updated_at": "2025-07-04T20:10:12.089-04:00", "avatar": "https://secure.gravatar.com/avatar/897c1e96c7a581bac211e212900af7a5.jpg?s=512&d=https%3A%2F%2Fa.slack-edge.com%2Fdf10d%2Fimg%2Favatars%2Fava_0019-512.png", "custom_css": null}, {"id": 9566, "slack_id": "U092HR9PB4G", "display_name": "Michael Owino", "bio": null, "projects_count": 0, "devlogs_count": 0, "votes_count": 0, "ships_count": 0, "projects": [], "coding_time_seconds": 0, "coding_time_seconds_today": 0, "balance": "You need to have a pocket watcher badge to view this.", "badges": [], "created_at": "2025-06-19T07:37:25.046-04:00", "updated_at": "2025-07-03T19:52:30.451-04:00", "avatar": "https://secure.gravatar.com/avatar/c1a67f64396ced198dc7ff4428705a3c.jpg?s=512&d=https%3A%2F%2Fa.slack-edge.com%2Fdf10d%2Fimg%2Favatars%2Fava_0000-512.png", "custom_css": null}, {"id": 9567, "slack_id": "U08GZGKEE2Y", "display_name": "Omar Rabie", "bio": null, "projects_count": 1, "devlogs_count": 2, "votes_count": 0, "ships_count": 0, "projects": [{"id": 3527, "title": "particle-under effect-of-magnetic-field-simulator", "devlogs_count": 2, "created_at": "2025-06-24T15:18:40.700-04:00"}], "coding_time_seconds": 7065, "coding_time_seconds_today": 0, "balance": "You need to have a pocket watcher badge to view this.", "badges": [], "created_at": "2025-06-19T07:38:58.663-04:00", "updated_at": "2025-07-03T19:52:30.722-04:00", "avatar": "https://avatars.slack-edge.com/2025-03-09/8577575730948_9f695c3de638a5206d98_original.jpg", "custom_css": null}, {"id": 9568, "slack_id": "U0925C4M56Z", "display_name": "Sid", "bio": null, "projects_count": 0, "devlogs_count": 0, "votes_count": 0, "ships_count": 0, "projects": [], "coding_time_seconds": 0, "coding_time_seconds_today": 0, "balance": "You need to have a pocket watcher badge to view this.", "badges": [], "created_at": "2025-06-19T07:40:32.164-04:00", "updated_at": "2025-07-03T19:52:31.023-04:00", "avatar": "https://secure.gravatar.com/avatar/fa40f97937bd4954ae629d88a21ae3cb.jpg?s=512&d=https%3A%2F%2Fa.slack-edge.com%2Fdf10d%2Fimg%2Favatars%2Fava_0011-512.png", "custom_css": null}, {"id": 9569, "slack_id": "U079DFNSYQ2", "display_name": "itsmehecker", "bio": null, "projects_count": 0, "devlogs_count": 0, "votes_count": 0, "ships_count": 0, "projects": [], "coding_time_seconds": 0, "coding_time_seconds_today": 0, "balance": "You need to have a pocket watcher badge to view this.", "badges": [], "created_at": "2025-06-19T07:42:16.103-04:00", "updated_at": "2025-07-03T19:52:31.283-04:00", "avatar": "https://secure.gravatar.com/avatar/6182023b20a38b6893c3e488600bd61a.jpg?s=512&d=https%3A%2F%2Fa.slack-edge.com%2Fdf10d%2Fimg%2Favatars%2Fava_0006-512.png", "custom_css": null}, {"id": 9570, "slack_id": "U091RR0DVB9", "display_name": "Prashant Kumar Garg", "bio": null, "projects_count": 3, "devlogs_count": 4, "votes_count": 3, "ships_count": 2, "projects": [{"id": 2603, "title": "Portfolio Website ", "devlogs_count": 2, "created_at": "2025-06-21T12:39:15.778-04:00"}, {"id": 4078, "title": "Cafe DJ Discord Bot", "devlogs_count": 2, "created_at": "2025-06-27T10:32:49.022-04:00"}, {"id": 5100, "title": "ExtinguishX", "devlogs_count": 0, "created_at": "2025-07-03T08:27:57.169-04:00"}], "coding_time_seconds": 70966, "coding_time_seconds_today": 0, "balance": "You need to have a pocket watcher badge to view this.", "badges": [{"name": "Maiden Voyage", "text": "you shipped your first project! the journey begins...", "icon": "\ud83d\udea2"}], "created_at": "2025-06-19T07:51:20.223-04:00", "updated_at": "2025-09-10T22:55:54.688-04:00", "avatar": "https://avatars.slack-edge.com/2025-07-05/9150419485685_d972f3d1462b82acde66_original.png", "custom_css": null}, {"id": 9571, "slack_id": "U091RR5HXAB", "display_name": "hindzight", "bio": null, "projects_count": 0, "devlogs_count": 0, "votes_count": 0, "ships_count": 0, "projects": [], "coding_time_seconds": 0, "coding_time_seconds_today": 0, "balance": "You need to have a pocket watcher badge to view this.", "badges": [], "created_at": "2025-06-19T07:52:52.825-04:00", "updated_at": "2025-07-03T19:52:31.821-04:00", "avatar": "https://secure.gravatar.com/avatar/a16021a19026a0645e728063171dc51b.jpg?s=512&d=https%3A%2F%2Fa.slack-edge.com%2Fdf10d%2Fimg%2Favatars%2Fava_0015-512.png", "custom_css": null}, {"id": 9572, "slack_id": "U092087841H", "display_name": "Peter", "bio": null, "projects_count": 1, "devlogs_count": 2, "votes_count": 0, "ships_count": 0, "projects": [{"id": 1897, "title": "peters website", "devlogs_count": 2, "created_at": "2025-06-19T14:53:59.077-04:00"}], "coding_time_seconds": 4842, "coding_time_seconds_today": 0, "balance": "You need to have a pocket watcher badge to view this.", "badges": [], "created_at": "2025-06-19T07:56:27.877-04:00", "updated_at": "2025-07-03T19:52:32.095-04:00", "avatar": "https://secure.gravatar.com/avatar/949db803df098247a0c8d83b91f60f56.jpg?s=512&d=https%3A%2F%2Fa.slack-edge.com%2Fdf10d%2Fimg%2Favatars%2Fava_0003-512.png", "custom_css": null}, {"id": 9573, "slack_id": "U0920FA271U", "display_name": "Kshitij Verma", "bio": null, "projects_count": 6, "devlogs_count": 7, "votes_count": 0, "ships_count": 0, "projects": [{"id": 3487, "title": "Learning MongoDB", "devlogs_count": 2, "created_at": "2025-06-24T12:38:22.802-04:00"}, {"id": 3490, "title": "Learning WebScraping", "devlogs_count": 1, "created_at": "2025-06-24T12:40:48.376-04:00"}, {"id": 3657, "title": "House-Price-Prediction", "devlogs_count": 1, "created_at": "2025-06-25T05:42:07.689-04:00"}, {"id": 4039, "title": "C++ practice", "devlogs_count": 1, "created_at": "2025-06-27T02:49:37.499-04:00"}, {"id": 4202, "title": "Churn Prediction Model", "devlogs_count": 1, "created_at": "2025-06-28T06:19:37.092-04:00"}, {"id": 3485, "title": "HTML-CSS practice", "devlogs_count": 1, "created_at": "2025-06-24T12:32:17.728-04:00"}], "coding_time_seconds": 114332, "coding_time_seconds_today": 0, "balance": "You need to have a pocket watcher badge to view this.", "badges": [], "created_at": "2025-06-19T07:58:10.456-04:00", "updated_at": "2025-07-03T19:52:32.356-04:00", "avatar": "https://secure.gravatar.com/avatar/3878551c8082d3232bed3c3f918fc904.jpg?s=512&d=https%3A%2F%2Fa.slack-edge.com%2Fdf10d%2Fimg%2Favatars%2Fava_0002-512.png", "custom_css": null}, {"id": 9574, "slack_id": "U09270BT3S8", "display_name": "Megha Karmakar", "bio": null, "projects_count": 0, "devlogs_count": 0, "votes_count": 0, "ships_count": 0, "projects": [], "coding_time_seconds": 416524, "coding_time_seconds_today": 0, "balance": "You need to have a pocket watcher badge to view this.", "badges": [], "created_at": "2025-06-19T07:59:17.298-04:00", "updated_at": "2025-07-03T19:52:32.819-04:00", "avatar": "https://avatars.slack-edge.com/2025-06-19/9068535668662_93202b47a128daab1fc9_original.jpg", "custom_css": null}, {"id": 9575, "slack_id": "U092H70CJTS", "display_name": "Clara", "bio": null, "projects_count": 0, "devlogs_count": 0, "votes_count": 0, "ships_count": 0, "projects": [], "coding_time_seconds": 0, "coding_time_seconds_today": 0, "balance": "You need to have a pocket watcher badge to view this.", "badges": [], "created_at": "2025-06-19T08:00:17.675-04:00", "updated_at": "2025-07-04T17:30:45.225-04:00", "avatar": "https://secure.gravatar.com/avatar/7397c768c2565e7b4fed6a1041c151e2.jpg?s=512&d=https%3A%2F%2Fa.slack-edge.com%2Fdf10d%2Fimg%2Favatars%2Fava_0020-512.png", "custom_css": null}, {"id": 9576, "slack_id": "U092V5FU93J", "display_name": "sethupathi", "bio": null, "projects_count": 0, "devlogs_count": 0, "votes_count": 0, "ships_count": 0, "projects": [], "coding_time_seconds": 0, "coding_time_seconds_today": 0, "balance": "You need to have a pocket watcher badge to view this.", "badges": [], "created_at": "2025-06-19T08:01:20.229-04:00", "updated_at": "2025-07-03T19:52:33.347-04:00", "avatar": "https://secure.gravatar.com/avatar/ffff3df41ef0161e72d140f915e8fb42.jpg?s=512&d=https%3A%2F%2Fa.slack-edge.com%2Fdf10d%2Fimg%2Favatars%2Fava_0001-512.png", "custom_css": null}, {"id": 9577, "slack_id": "U0925FB04G5", "display_name": "Sumit Kumar Ranjan", "bio": null, "projects_count": 0, "devlogs_count": 0, "votes_count": 0, "ships_count": 0, "projects": [], "coding_time_seconds": 0, "coding_time_seconds_today": 0, "balance": "You need to have a pocket watcher badge to view this.", "badges": [], "created_at": "2025-06-19T08:02:05.429-04:00", "updated_at": "2025-07-03T19:52:33.611-04:00", "avatar": "https://secure.gravatar.com/avatar/af3e9c5e7537a5810fc33616584098ec.jpg?s=512&d=https%3A%2F%2Fa.slack-edge.com%2Fdf10d%2Fimg%2Favatars%2Fava_0013-512.png", "custom_css": null}, {"id": 9578, "slack_id": "U092715KHFE", "display_name": "Tommy", "bio": null, "projects_count": 0, "devlogs_count": 0, "votes_count": 0, "ships_count": 0, "projects": [], "coding_time_seconds": 1159, "coding_time_seconds_today": 0, "balance": "You need to have a pocket watcher badge to view this.", "badges": [], "created_at": "2025-06-19T08:02:50.847-04:00", "updated_at": "2025-08-01T12:57:45.743-04:00", "avatar": "https://secure.gravatar.com/avatar/c1ffd5a5f4ba9a1e8b0388dba4b1963c.jpg?s=512&d=https%3A%2F%2Fa.slack-edge.com%2Fdf10d%2Fimg%2Favatars%2Fava_0026-512.png", "custom_css": null}, {"id": 9579, "slack_id": "U0926JGQN4A", "display_name": "Gopal Dwivedi", "bio": null, "projects_count": 0, "devlogs_count": 0, "votes_count": 0, "ships_count": 0, "projects": [], "coding_time_seconds": 12037, "coding_time_seconds_today": 0, "balance": "You need to have a pocket watcher badge to view this.", "badges": [], "created_at": "2025-06-19T08:09:00.537-04:00", "updated_at": "2025-07-03T19:52:34.011-04:00", "avatar": "https://secure.gravatar.com/avatar/3786efdb414a5e93e26595d18c0e70a7.jpg?s=512&d=https%3A%2F%2Fa.slack-edge.com%2Fdf10d%2Fimg%2Favatars%2Fava_0012-512.png", "custom_css": null}, {"id": 9580, "slack_id": "U09272GHVJQ", "display_name": "Hammad Mustafa", "bio": null, "projects_count": 1, "devlogs_count": 1, "votes_count": 0, "ships_count": 0, "projects": [{"id": 6199, "title": "PlayNet", "devlogs_count": 1, "created_at": "2025-07-11T09:33:33.698-04:00"}], "coding_time_seconds": 111293, "coding_time_seconds_today": 0, "balance": "You need to have a pocket watcher badge to view this.", "badges": [], "created_at": "2025-06-19T08:10:23.608-04:00", "updated_at": "2025-07-03T19:52:34.271-04:00", "avatar": "https://secure.gravatar.com/avatar/8accea8d71187c1d63112ac1f8ba6d3a.jpg?s=512&d=https%3A%2F%2Fa.slack-edge.com%2Fdf10d%2Fimg%2Favatars%2Fava_0001-512.png", "custom_css": null}], "pagination": {"page": 479, "pages": 1192, "count": 23828, "items": 20}}