{"users": [{"id": 9581, "slack_id": "U0926JV6VA6", "display_name": "Yash", "bio": null, "projects_count": 0, "devlogs_count": 0, "votes_count": 0, "ships_count": 0, "projects": [], "coding_time_seconds": 340097, "coding_time_seconds_today": 0, "balance": "You need to have a pocket watcher badge to view this.", "badges": [], "created_at": "2025-06-19T08:12:07.717-04:00", "updated_at": "2025-07-03T19:52:34.533-04:00", "avatar": "https://secure.gravatar.com/avatar/a52f660c7f37b5e95b0e8cf957f5de7c.jpg?s=512&d=https%3A%2F%2Fa.slack-edge.com%2Fdf10d%2Fimg%2Favatars%2Fava_0012-512.png", "custom_css": null}, {"id": 9582, "slack_id": "U0926JUHLG2", "display_name": "Shiva", "bio": null, "projects_count": 1, "devlogs_count": 0, "votes_count": 0, "ships_count": 0, "projects": [{"id": 3249, "title": "PokeVision", "devlogs_count": 0, "created_at": "2025-06-23T15:03:19.902-04:00"}], "coding_time_seconds": 157, "coding_time_seconds_today": 0, "balance": "You need to have a pocket watcher badge to view this.", "badges": [], "created_at": "2025-06-19T08:12:36.784-04:00", "updated_at": "2025-07-03T19:52:34.799-04:00", "avatar": "https://secure.gravatar.com/avatar/cb486c42ba021d0fda7bd0613b707e40.jpg?s=512&d=https%3A%2F%2Fa.slack-edge.com%2Fdf10d%2Fimg%2Favatars%2Fava_0010-512.png", "custom_css": null}, {"id": 9583, "slack_id": "U08184UKUPL", "display_name": "Ishita", "bio": null, "projects_count": 0, "devlogs_count": 0, "votes_count": 0, "ships_count": 0, "projects": [], "coding_time_seconds": 159487, "coding_time_seconds_today": 0, "balance": "You need to have a pocket watcher badge to view this.", "badges": [], "created_at": "2025-06-19T08:13:02.182-04:00", "updated_at": "2025-07-05T14:12:00.961-04:00", "avatar": "https://avatars.slack-edge.com/2025-01-15/8297102711251_e556a2a9f2b4669210d3_original.jpg", "custom_css": null}, {"id": 9584, "slack_id": "U0925GPHA4D", "display_name": "Rigo Amgao", "bio": null, "projects_count": 0, "devlogs_count": 0, "votes_count": 0, "ships_count": 0, "projects": [], "coding_time_seconds": 0, "coding_time_seconds_today": 0, "balance": "You need to have a pocket watcher badge to view this.", "badges": [], "created_at": "2025-06-19T08:14:18.555-04:00", "updated_at": "2025-07-03T19:52:35.499-04:00", "avatar": "https://avatars.slack-edge.com/2025-06-19/9075354756084_296a0ceccdba2cfafeb9_original.jpg", "custom_css": null}, {"id": 9585, "slack_id": "U07U6D2TLKY", "display_name": "Oskar Manhart", "bio": null, "projects_count": 2, "devlogs_count": 1, "votes_count": 2, "ships_count": 0, "projects": [{"id": 4288, "title": "WinApps rewrite", "devlogs_count": 1, "created_at": "2025-06-28T17:07:55.529-04:00"}, {"id": 13232, "title": "quotes-website", "devlogs_count": 0, "created_at": "2025-09-12T06:48:58.324-04:00"}], "coding_time_seconds": 54273, "coding_time_seconds_today": 0, "balance": "You need to have a pocket watcher badge to view this.", "badges": [], "created_at": "2025-06-19T08:20:35.321-04:00", "updated_at": "2025-09-11T08:48:54.747-04:00", "avatar": "https://secure.gravatar.com/avatar/b0feda8dcba323d34d1b429473b41ae0.jpg?s=512&d=https%3A%2F%2Fa.slack-edge.com%2Fdf10d%2Fimg%2Favatars%2Fava_0023-512.png", "custom_css": null}, {"id": 9586, "slack_id": "U0926KWLBH8", "display_name": "nbg", "bio": null, "projects_count": 1, "devlogs_count": 2, "votes_count": 0, "ships_count": 0, "projects": [{"id": 2375, "title": "gbemu", "devlogs_count": 2, "created_at": "2025-06-20T21:26:32.705-04:00"}], "coding_time_seconds": 50845, "coding_time_seconds_today": 0, "balance": "You need to have a pocket watcher badge to view this.", "badges": [], "created_at": "2025-06-19T08:21:01.895-04:00", "updated_at": "2025-07-03T19:52:36.057-04:00", "avatar": "https://secure.gravatar.com/avatar/9af4495a788b1cfa0b45a44c1df6c010.jpg?s=512&d=https%3A%2F%2Fa.slack-edge.com%2Fdf10d%2Fimg%2Favatars%2Fava_0008-512.png", "custom_css": null}, {"id": 9587, "slack_id": "U091RUVMMSB", "display_name": "Kurpol", "bio": null, "projects_count": 2, "devlogs_count": 3, "votes_count": 0, "ships_count": 0, "projects": [{"id": 5180, "title": "Ainese Whispers", "devlogs_count": 3, "created_at": "2025-07-03T16:20:08.832-04:00"}, {"id": 5723, "title": "AI learns to play match3 games! ", "devlogs_count": 0, "created_at": "2025-07-07T13:22:08.707-04:00"}], "coding_time_seconds": 178621, "coding_time_seconds_today": 0, "balance": "You need to have a pocket watcher badge to view this.", "badges": [], "created_at": "2025-06-19T08:22:12.250-04:00", "updated_at": "2025-08-08T07:37:45.943-04:00", "avatar": "https://avatars.slack-edge.com/2025-06-19/9073614970661_2d5a34fa348d178b8fc5_original.jpg", "custom_css": null}, {"id": 9588, "slack_id": "U0920B8MPJ7", "display_name": "Harshit Borana", "bio": null, "projects_count": 0, "devlogs_count": 0, "votes_count": 0, "ships_count": 0, "projects": [], "coding_time_seconds": 66452, "coding_time_seconds_today": 124, "balance": "You need to have a pocket watcher badge to view this.", "badges": [], "created_at": "2025-06-19T08:23:50.129-04:00", "updated_at": "2025-07-04T08:25:31.041-04:00", "avatar": "https://avatars.slack-edge.com/2025-06-19/9097295447168_2968075726b4ef2c4d1c_original.png", "custom_css": null}, {"id": 9589, "slack_id": "U091YHJJ5RU", "display_name": "aashika  pesaladinne", "bio": null, "projects_count": 0, "devlogs_count": 0, "votes_count": 0, "ships_count": 0, "projects": [], "coding_time_seconds": 0, "coding_time_seconds_today": 0, "balance": "You need to have a pocket watcher badge to view this.", "badges": [], "created_at": "2025-06-19T08:24:21.913-04:00", "updated_at": "2025-07-05T08:11:03.254-04:00", "avatar": "https://secure.gravatar.com/avatar/a7cfda2d74ccac40bf4e61998ccf490b.jpg?s=512&d=https%3A%2F%2Fa.slack-edge.com%2Fdf10d%2Fimg%2Favatars%2Fava_0010-512.png", "custom_css": null}, {"id": 9590, "slack_id": "U09274FTURJ", "display_name": "PAVAN KUMAR JAGARAPU", "bio": null, "projects_count": 0, "devlogs_count": 0, "votes_count": 0, "ships_count": 0, "projects": [], "coding_time_seconds": 271155, "coding_time_seconds_today": 2149, "balance": "You need to have a pocket watcher badge to view this.", "badges": [], "created_at": "2025-06-19T08:26:59.615-04:00", "updated_at": "2025-07-03T19:52:36.796-04:00", "avatar": "https://secure.gravatar.com/avatar/ef1d8213a8870170efc70e78f95308ff.jpg?s=512&d=https%3A%2F%2Fa.slack-edge.com%2Fdf10d%2Fimg%2Favatars%2Fava_0005-512.png", "custom_css": null}, {"id": 9591, "slack_id": "U080AFMNF26", "display_name": "Avinash", "bio": null, "projects_count": 0, "devlogs_count": 0, "votes_count": 0, "ships_count": 0, "projects": [], "coding_time_seconds": 0, "coding_time_seconds_today": 0, "balance": "You need to have a pocket watcher badge to view this.", "badges": [], "created_at": "2025-06-19T08:27:03.686-04:00", "updated_at": "2025-07-03T21:59:55.641-04:00", "avatar": "https://avatars.slack-edge.com/2024-12-08/8164324351984_8b7aad0cebda62c4cdc2_original.jpg", "custom_css": null}, {"id": 9592, "slack_id": "U0920JC52MC", "display_name": "Tushar kushwah", "bio": null, "projects_count": 0, "devlogs_count": 0, "votes_count": 0, "ships_count": 0, "projects": [], "coding_time_seconds": 0, "coding_time_seconds_today": 0, "balance": "You need to have a pocket watcher badge to view this.", "badges": [], "created_at": "2025-06-19T08:27:21.521-04:00", "updated_at": "2025-07-03T19:52:37.197-04:00", "avatar": "https://secure.gravatar.com/avatar/c61a224e92d132549f4afdc761752e5d.jpg?s=512&d=https%3A%2F%2Fa.slack-edge.com%2Fdf10d%2Fimg%2Favatars%2Fava_0007-512.png", "custom_css": null}, {"id": 9593, "slack_id": "U092V8SJYSC", "display_name": "sampat", "bio": null, "projects_count": 0, "devlogs_count": 0, "votes_count": 0, "ships_count": 0, "projects": [], "coding_time_seconds": 0, "coding_time_seconds_today": 0, "balance": "You need to have a pocket watcher badge to view this.", "badges": [], "created_at": "2025-06-19T08:28:41.015-04:00", "updated_at": "2025-07-03T21:47:54.034-04:00", "avatar": "https://secure.gravatar.com/avatar/9552dd5a9622337e7d12bb6fe931d05f.jpg?s=512&d=https%3A%2F%2Fa.slack-edge.com%2Fdf10d%2Fimg%2Favatars%2Fava_0001-512.png", "custom_css": null}, {"id": 9594, "slack_id": "U091Q8BDHU5", "display_name": "MurerwaDaniel", "bio": null, "projects_count": 0, "devlogs_count": 0, "votes_count": 0, "ships_count": 0, "projects": [], "coding_time_seconds": 0, "coding_time_seconds_today": 0, "balance": "You need to have a pocket watcher badge to view this.", "badges": [], "created_at": "2025-06-19T08:29:15.913-04:00", "updated_at": "2025-07-03T19:52:37.617-04:00", "avatar": "https://secure.gravatar.com/avatar/23974db1605ea708c011293f0baaf140.jpg?s=512&d=https%3A%2F%2Fa.slack-edge.com%2Fdf10d%2Fimg%2Favatars%2Fava_0012-512.png", "custom_css": null}, {"id": 9595, "slack_id": "U0920KFMHTQ", "display_name": "1amSuraj", "bio": null, "projects_count": 0, "devlogs_count": 0, "votes_count": 0, "ships_count": 0, "projects": [], "coding_time_seconds": 0, "coding_time_seconds_today": 0, "balance": "You need to have a pocket watcher badge to view this.", "badges": [], "created_at": "2025-06-19T08:31:05.901-04:00", "updated_at": "2025-07-04T02:29:15.403-04:00", "avatar": "https://secure.gravatar.com/avatar/317889a63ce3a3b380442dfea9375f3d.jpg?s=512&d=https%3A%2F%2Fa.slack-edge.com%2Fdf10d%2Fimg%2Favatars%2Fava_0026-512.png", "custom_css": null}, {"id": 9596, "slack_id": "U07ANFM6BDW", "display_name": "Jost B\u00f6hmann", "bio": null, "projects_count": 0, "devlogs_count": 0, "votes_count": 0, "ships_count": 0, "projects": [], "coding_time_seconds": 69475, "coding_time_seconds_today": 0, "balance": "You need to have a pocket watcher badge to view this.", "badges": [], "created_at": "2025-06-19T08:32:34.970-04:00", "updated_at": "2025-07-03T19:52:38.030-04:00", "avatar": "https://secure.gravatar.com/avatar/02196f03874999e0f705330a35127f7d.jpg?s=512&d=https%3A%2F%2Fa.slack-edge.com%2Fdf10d%2Fimg%2Favatars%2Fava_0012-512.png", "custom_css": null}, {"id": 9597, "slack_id": "U0920CQAA6P", "display_name": "Sam", "bio": null, "projects_count": 0, "devlogs_count": 0, "votes_count": 0, "ships_count": 0, "projects": [], "coding_time_seconds": 49218, "coding_time_seconds_today": 0, "balance": "You need to have a pocket watcher badge to view this.", "badges": [], "created_at": "2025-06-19T08:33:11.772-04:00", "updated_at": "2025-07-05T02:10:46.593-04:00", "avatar": "https://secure.gravatar.com/avatar/4e1ba26afdef3851ee85ee4af8815be9.jpg?s=512&d=https%3A%2F%2Fa.slack-edge.com%2Fdf10d%2Fimg%2Favatars%2Fava_0010-512.png", "custom_css": null}, {"id": 9598, "slack_id": "U091S1CMKQF", "display_name": "Stephane", "bio": null, "projects_count": 0, "devlogs_count": 0, "votes_count": 0, "ships_count": 0, "projects": [], "coding_time_seconds": 0, "coding_time_seconds_today": 0, "balance": "You need to have a pocket watcher badge to view this.", "badges": [], "created_at": "2025-06-19T08:37:43.969-04:00", "updated_at": "2025-07-03T19:52:38.441-04:00", "avatar": "https://secure.gravatar.com/avatar/cecf3b96db8b4889907e0c0a98f4a7d0.jpg?s=512&d=https%3A%2F%2Fa.slack-edge.com%2Fdf10d%2Fimg%2Favatars%2Fava_0025-512.png", "custom_css": null}, {"id": 9599, "slack_id": "U091S1H9L23", "display_name": "GaAs9000", "bio": null, "projects_count": 0, "devlogs_count": 0, "votes_count": 0, "ships_count": 0, "projects": [], "coding_time_seconds": 0, "coding_time_seconds_today": 0, "balance": "You need to have a pocket watcher badge to view this.", "badges": [], "created_at": "2025-06-19T08:38:25.961-04:00", "updated_at": "2025-07-04T02:29:15.836-04:00", "avatar": "https://secure.gravatar.com/avatar/20b22dad0999109ad16b7de1f5a4d321.jpg?s=512&d=https%3A%2F%2Fa.slack-edge.com%2Fdf10d%2Fimg%2Favatars%2Fava_0019-512.png", "custom_css": null}, {"id": 9600, "slack_id": "U091S1XBQ15", "display_name": "\u092c\u093e\u0932 \u092b\u0941\u091f\u092c\u0949\u0932 \u0938\u0902\u0917\u0920\u0928", "bio": null, "projects_count": 0, "devlogs_count": 0, "votes_count": 0, "ships_count": 0, "projects": [], "coding_time_seconds": 0, "coding_time_seconds_today": 0, "balance": "You need to have a pocket watcher badge to view this.", "badges": [], "created_at": "2025-06-19T08:42:59.953-04:00", "updated_at": "2025-07-03T19:52:38.847-04:00", "avatar": "https://avatars.slack-edge.com/2025-06-19/9073705003189_a647c614d35e76011682_original.png", "custom_css": null}], "pagination": {"page": 480, "pages": 1192, "count": 23828, "items": 20}}