{"users": [{"id": 9601, "slack_id": "U092VAM3J9W", "display_name": "Viet Hoang", "bio": null, "projects_count": 1, "devlogs_count": 0, "votes_count": 0, "ships_count": 0, "projects": [{"id": 1794, "title": "MyFirstProject", "devlogs_count": 0, "created_at": "2025-06-19T08:59:13.200-04:00"}], "coding_time_seconds": 50685, "coding_time_seconds_today": 0, "balance": "You need to have a pocket watcher badge to view this.", "badges": [], "created_at": "2025-06-19T08:43:00.985-04:00", "updated_at": "2025-07-03T19:52:39.134-04:00", "avatar": "https://secure.gravatar.com/avatar/b7a16aa15c8462ddf5fcafa77537b58c.jpg?s=512&d=https%3A%2F%2Fa.slack-edge.com%2Fdf10d%2Fimg%2Favatars%2Fava_0024-512.png", "custom_css": null}, {"id": 9602, "slack_id": "U091S1TU8EB", "display_name": "lisboathecoder", "bio": null, "projects_count": 2, "devlogs_count": 8, "votes_count": 76, "ships_count": 2, "projects": [{"id": 10584, "title": "My Goat Page", "devlogs_count": 2, "created_at": "2025-08-08T12:44:39.124-04:00"}, {"id": 5885, "title": "Goat's Game Helper", "devlogs_count": 6, "created_at": "2025-07-08T21:33:04.471-04:00"}], "coding_time_seconds": 201706, "coding_time_seconds_today": 0, "balance": "You need to have a pocket watcher badge to view this.", "badges": [{"name": "Maiden Voyage", "text": "you shipped your first project! the journey begins...", "icon": "\ud83d\udea2"}], "created_at": "2025-06-19T08:45:53.462-04:00", "updated_at": "2025-09-15T19:10:47.990-04:00", "avatar": "https://secure.gravatar.com/avatar/a336645c5725098e42d7aabddb7be373.jpg?s=512&d=https%3A%2F%2Fa.slack-edge.com%2Fdf10d%2Fimg%2Favatars%2Fava_0016-512.png", "custom_css": null}, {"id": 9603, "slack_id": "U09276SM4TE", "display_name": "Mohil", "bio": null, "projects_count": 0, "devlogs_count": 0, "votes_count": 0, "ships_count": 0, "projects": [], "coding_time_seconds": 0, "coding_time_seconds_today": 0, "balance": "You need to have a pocket watcher badge to view this.", "badges": [], "created_at": "2025-06-19T08:46:29.722-04:00", "updated_at": "2025-07-03T19:52:39.730-04:00", "avatar": "https://secure.gravatar.com/avatar/d0a3946678954b661a1d6ee9c5df1533.jpg?s=512&d=https%3A%2F%2Fa.slack-edge.com%2Fdf10d%2Fimg%2Favatars%2Fava_0003-512.png", "custom_css": null}, {"id": 9604, "slack_id": "U092KLB9BB3", "display_name": "MohamedTamer", "bio": null, "projects_count": 0, "devlogs_count": 0, "votes_count": 0, "ships_count": 0, "projects": [], "coding_time_seconds": 0, "coding_time_seconds_today": 0, "balance": "You need to have a pocket watcher badge to view this.", "badges": [], "created_at": "2025-06-19T08:46:29.934-04:00", "updated_at": "2025-07-03T19:52:39.994-04:00", "avatar": "https://secure.gravatar.com/avatar/c1a841858e26a8576be4dfcf7e6fcce8.jpg?s=512&d=https%3A%2F%2Fa.slack-edge.com%2Fdf10d%2Fimg%2Favatars%2Fava_0019-512.png", "custom_css": null}, {"id": 9605, "slack_id": "U091N4X8LH3", "display_name": "Aleks", "bio": null, "projects_count": 0, "devlogs_count": 0, "votes_count": 0, "ships_count": 0, "projects": [], "coding_time_seconds": 0, "coding_time_seconds_today": 0, "balance": "You need to have a pocket watcher badge to view this.", "badges": [], "created_at": "2025-06-19T08:46:32.515-04:00", "updated_at": "2025-07-03T19:52:40.251-04:00", "avatar": "https://secure.gravatar.com/avatar/237ddd4974b4fea5c9e4e1a0be1b4ff9.jpg?s=512&d=https%3A%2F%2Fa.slack-edge.com%2Fdf10d%2Fimg%2Favatars%2Fava_0009-512.png", "custom_css": null}, {"id": 9606, "slack_id": "U092VB2SWKS", "display_name": "\u8c22\u5609\u6960", "bio": null, "projects_count": 0, "devlogs_count": 0, "votes_count": 0, "ships_count": 0, "projects": [], "coding_time_seconds": 0, "coding_time_seconds_today": 0, "balance": "You need to have a pocket watcher badge to view this.", "badges": [], "created_at": "2025-06-19T08:47:35.591-04:00", "updated_at": "2025-07-03T21:47:55.032-04:00", "avatar": "https://secure.gravatar.com/avatar/bc1ef3300b8cc514a68ed7c5f828cba8.jpg?s=512&d=https%3A%2F%2Fa.slack-edge.com%2Fdf10d%2Fimg%2Favatars%2Fava_0020-512.png", "custom_css": null}, {"id": 9607, "slack_id": "U0920ENES59", "display_name": "Bryan", "bio": null, "projects_count": 0, "devlogs_count": 0, "votes_count": 0, "ships_count": 0, "projects": [], "coding_time_seconds": 234114, "coding_time_seconds_today": 0, "balance": "You need to have a pocket watcher badge to view this.", "badges": [], "created_at": "2025-06-19T08:49:52.590-04:00", "updated_at": "2025-07-03T21:47:55.146-04:00", "avatar": "https://secure.gravatar.com/avatar/0d5bf58acb891c4d5b3e6c0f191a8490.jpg?s=512&d=https%3A%2F%2Fa.slack-edge.com%2Fdf10d%2Fimg%2Favatars%2Fava_0006-512.png", "custom_css": null}, {"id": 9608, "slack_id": "U091S33V9JB", "display_name": "Carlos", "bio": null, "projects_count": 0, "devlogs_count": 0, "votes_count": 0, "ships_count": 0, "projects": [], "coding_time_seconds": 411414, "coding_time_seconds_today": 0, "balance": "You need to have a pocket watcher badge to view this.", "badges": [], "created_at": "2025-06-19T08:53:02.345-04:00", "updated_at": "2025-09-10T10:52:22.710-04:00", "avatar": "https://avatars.slack-edge.com/2025-07-28/9256717121603_1ed6862f3b8a83172579_original.png", "custom_css": null}, {"id": 9609, "slack_id": "U0925N6STL5", "display_name": "siva", "bio": null, "projects_count": 0, "devlogs_count": 0, "votes_count": 0, "ships_count": 0, "projects": [], "coding_time_seconds": 0, "coding_time_seconds_today": 0, "balance": "You need to have a pocket watcher badge to view this.", "badges": [], "created_at": "2025-06-19T09:00:28.878-04:00", "updated_at": "2025-07-03T19:52:41.054-04:00", "avatar": "https://secure.gravatar.com/avatar/9b4b4b3d3de5633d1f0a7ac59e3e6b6e.jpg?s=512&d=https%3A%2F%2Fa.slack-edge.com%2Fdf10d%2Fimg%2Favatars%2Fava_0003-512.png", "custom_css": null}, {"id": 9610, "slack_id": "U092VD8MMHN", "display_name": "ezekaj", "bio": null, "projects_count": 0, "devlogs_count": 0, "votes_count": 0, "ships_count": 0, "projects": [], "coding_time_seconds": 182999, "coding_time_seconds_today": 0, "balance": "You need to have a pocket watcher badge to view this.", "badges": [], "created_at": "2025-06-19T09:03:08.075-04:00", "updated_at": "2025-07-03T19:52:41.322-04:00", "avatar": "https://secure.gravatar.com/avatar/5d2920cce25240eb1353a158b40d3c66.jpg?s=512&d=https%3A%2F%2Fa.slack-edge.com%2Fdf10d%2Fimg%2Favatars%2Fava_0012-512.png", "custom_css": null}, {"id": 9611, "slack_id": "U0925NR5RSR", "display_name": "Alex Saar", "bio": null, "projects_count": 0, "devlogs_count": 0, "votes_count": 0, "ships_count": 0, "projects": [], "coding_time_seconds": 0, "coding_time_seconds_today": 0, "balance": "You need to have a pocket watcher badge to view this.", "badges": [], "created_at": "2025-06-19T09:03:09.161-04:00", "updated_at": "2025-07-03T21:47:55.469-04:00", "avatar": "https://secure.gravatar.com/avatar/5e9df618ca38153c1b3a27c1ecdc72d9.jpg?s=512&d=https%3A%2F%2Fa.slack-edge.com%2Fdf10d%2Fimg%2Favatars%2Fava_0024-512.png", "custom_css": null}, {"id": 9612, "slack_id": "U0920GPS6D9", "display_name": "ciseviw233", "bio": null, "projects_count": 0, "devlogs_count": 0, "votes_count": 0, "ships_count": 0, "projects": [], "coding_time_seconds": 3820, "coding_time_seconds_today": 0, "balance": "You need to have a pocket watcher badge to view this.", "badges": [], "created_at": "2025-06-19T09:03:46.134-04:00", "updated_at": "2025-07-03T19:52:41.732-04:00", "avatar": "https://secure.gravatar.com/avatar/0e3696a4c316b080fd5b7c2cd9e780ff.jpg?s=512&d=https%3A%2F%2Fa.slack-edge.com%2Fdf10d%2Fimg%2Favatars%2Fava_0018-512.png", "custom_css": null}, {"id": 9613, "slack_id": "U0920GJCG1Z", "display_name": "Matthew Fuchs", "bio": null, "projects_count": 0, "devlogs_count": 0, "votes_count": 0, "ships_count": 0, "projects": [], "coding_time_seconds": 0, "coding_time_seconds_today": 0, "balance": "You need to have a pocket watcher badge to view this.", "badges": [], "created_at": "2025-06-19T09:04:17.871-04:00", "updated_at": "2025-07-03T19:52:41.992-04:00", "avatar": "https://secure.gravatar.com/avatar/84e8438bf5e0ec5e1636ba8094d84406.jpg?s=512&d=https%3A%2F%2Fa.slack-edge.com%2Fdf10d%2Fimg%2Favatars%2Fava_0005-512.png", "custom_css": null}, {"id": 9614, "slack_id": "U091S5338T1", "display_name": "Akhil A", "bio": null, "projects_count": 0, "devlogs_count": 0, "votes_count": 0, "ships_count": 0, "projects": [], "coding_time_seconds": 0, "coding_time_seconds_today": 0, "balance": "You need to have a pocket watcher badge to view this.", "badges": [], "created_at": "2025-06-19T09:04:42.800-04:00", "updated_at": "2025-07-03T19:52:42.265-04:00", "avatar": "https://secure.gravatar.com/avatar/686da2a0236322bf8b19445af52feaf6.jpg?s=512&d=https%3A%2F%2Fa.slack-edge.com%2Fdf10d%2Fimg%2Favatars%2Fava_0003-512.png", "custom_css": null}, {"id": 9615, "slack_id": "U091S58AUEB", "display_name": "Jai Prakash Shah", "bio": null, "projects_count": 0, "devlogs_count": 0, "votes_count": 0, "ships_count": 0, "projects": [], "coding_time_seconds": 0, "coding_time_seconds_today": 0, "balance": "You need to have a pocket watcher badge to view this.", "badges": [], "created_at": "2025-06-19T09:05:50.139-04:00", "updated_at": "2025-07-03T19:52:42.525-04:00", "avatar": "https://secure.gravatar.com/avatar/b6b8d8748181ad566f840d506b2d68f9.jpg?s=512&d=https%3A%2F%2Fa.slack-edge.com%2Fdf10d%2Fimg%2Favatars%2Fava_0018-512.png", "custom_css": null}, {"id": 9616, "slack_id": "U0920PXECQ6", "display_name": "Awesome Guy Gaming MC", "bio": null, "projects_count": 0, "devlogs_count": 0, "votes_count": 0, "ships_count": 0, "projects": [], "coding_time_seconds": 0, "coding_time_seconds_today": 0, "balance": "You need to have a pocket watcher badge to view this.", "badges": [], "created_at": "2025-06-19T09:06:25.403-04:00", "updated_at": "2025-07-03T19:52:42.792-04:00", "avatar": "https://avatars.slack-edge.com/2025-06-19/9075347385636_41fc1ef87a3cf1d8d051_original.png", "custom_css": null}, {"id": 9617, "slack_id": "U0925PUVACV", "display_name": "Irene Li", "bio": null, "projects_count": 0, "devlogs_count": 0, "votes_count": 0, "ships_count": 0, "projects": [], "coding_time_seconds": 262, "coding_time_seconds_today": 0, "balance": "You need to have a pocket watcher badge to view this.", "badges": [], "created_at": "2025-06-19T09:07:13.642-04:00", "updated_at": "2025-07-03T19:52:43.060-04:00", "avatar": "https://secure.gravatar.com/avatar/39fd40cf1cb95cb0d75830622261cc0e.jpg?s=512&d=https%3A%2F%2Fa.slack-edge.com%2Fdf10d%2Fimg%2Favatars%2Fava_0002-512.png", "custom_css": null}, {"id": 9618, "slack_id": "U07QDDJSXB8", "display_name": "Yoshlix", "bio": null, "projects_count": 0, "devlogs_count": 0, "votes_count": 0, "ships_count": 0, "projects": [], "coding_time_seconds": 30460, "coding_time_seconds_today": 0, "balance": "You need to have a pocket watcher badge to view this.", "badges": [], "created_at": "2025-06-19T09:10:43.579-04:00", "updated_at": "2025-07-03T19:52:43.324-04:00", "avatar": "https://secure.gravatar.com/avatar/e049e672a654d5a703ab02599bb73f9f.jpg?s=512&d=https%3A%2F%2Fa.slack-edge.com%2Fdf10d%2Fimg%2Favatars%2Fava_0001-512.png", "custom_css": null}, {"id": 9619, "slack_id": "U092KNW6UQ1", "display_name": "Naoual Hattan", "bio": null, "projects_count": 0, "devlogs_count": 0, "votes_count": 0, "ships_count": 0, "projects": [], "coding_time_seconds": 0, "coding_time_seconds_today": 0, "balance": "You need to have a pocket watcher badge to view this.", "badges": [], "created_at": "2025-06-19T09:11:40.177-04:00", "updated_at": "2025-07-03T21:47:56.043-04:00", "avatar": "https://secure.gravatar.com/avatar/74c4ae51c988e27c6587b8994a7a16cd.jpg?s=512&d=https%3A%2F%2Fa.slack-edge.com%2Fdf10d%2Fimg%2Favatars%2Fava_0023-512.png", "custom_css": null}, {"id": 9620, "slack_id": "U0925QJ3EKX", "display_name": "Andr3y7", "bio": null, "projects_count": 0, "devlogs_count": 0, "votes_count": 0, "ships_count": 0, "projects": [], "coding_time_seconds": 0, "coding_time_seconds_today": 0, "balance": "You need to have a pocket watcher badge to view this.", "badges": [], "created_at": "2025-06-19T09:12:36.842-04:00", "updated_at": "2025-07-03T19:52:43.726-04:00", "avatar": "https://secure.gravatar.com/avatar/1a53d4b88ee888d793722aae438dd9fd.jpg?s=512&d=https%3A%2F%2Fa.slack-edge.com%2Fdf10d%2Fimg%2Favatars%2Fava_0010-512.png", "custom_css": null}], "pagination": {"page": 481, "pages": 1192, "count": 23828, "items": 20}}