{"users": [{"id": 9621, "slack_id": "U0920RUL5P0", "display_name": "envysager", "bio": null, "projects_count": 0, "devlogs_count": 0, "votes_count": 0, "ships_count": 0, "projects": [], "coding_time_seconds": 0, "coding_time_seconds_today": 0, "balance": "You need to have a pocket watcher badge to view this.", "badges": [], "created_at": "2025-06-19T09:12:50.922-04:00", "updated_at": "2025-07-04T08:25:34.731-04:00", "avatar": "https://secure.gravatar.com/avatar/a4655e3d7f9e0b8daf586b4b28a7c999.jpg?s=512&d=https%3A%2F%2Fa.slack-edge.com%2Fdf10d%2Fimg%2Favatars%2Fava_0009-512.png", "custom_css": null}, {"id": 9622, "slack_id": "U092VEJFSKA", "display_name": "RSB-Dev", "bio": null, "projects_count": 0, "devlogs_count": 0, "votes_count": 0, "ships_count": 0, "projects": [], "coding_time_seconds": 0, "coding_time_seconds_today": 0, "balance": "You need to have a pocket watcher badge to view this.", "badges": [], "created_at": "2025-06-19T09:13:32.946-04:00", "updated_at": "2025-07-04T08:25:34.825-04:00", "avatar": "https://secure.gravatar.com/avatar/7bc1697c63db3fcc9eef7832199c966c.jpg?s=512&d=https%3A%2F%2Fa.slack-edge.com%2Fdf10d%2Fimg%2Favatars%2Fava_0004-512.png", "custom_css": null}, {"id": 9623, "slack_id": "U0920HW9RL3", "display_name": "holyunicornballs", "bio": null, "projects_count": 0, "devlogs_count": 0, "votes_count": 0, "ships_count": 0, "projects": [], "coding_time_seconds": 707, "coding_time_seconds_today": 0, "balance": "You need to have a pocket watcher badge to view this.", "badges": [], "created_at": "2025-06-19T09:13:39.309-04:00", "updated_at": "2025-07-05T14:12:04.267-04:00", "avatar": "https://secure.gravatar.com/avatar/9ed4a8de8369cf8ac6b9f4ca54bcab8c.jpg?s=512&d=https%3A%2F%2Fa.slack-edge.com%2Fdf10d%2Fimg%2Favatars%2Fava_0015-512.png", "custom_css": null}, {"id": 9624, "slack_id": "U092KPV1Z6D", "display_name": "Kratosin", "bio": null, "projects_count": 0, "devlogs_count": 0, "votes_count": 0, "ships_count": 0, "projects": [], "coding_time_seconds": 6771, "coding_time_seconds_today": 0, "balance": "You need to have a pocket watcher badge to view this.", "badges": [], "created_at": "2025-06-19T09:15:21.375-04:00", "updated_at": "2025-07-03T19:52:44.419-04:00", "avatar": "https://secure.gravatar.com/avatar/0919090020811a2e3a50b2377521af35.jpg?s=512&d=https%3A%2F%2Fa.slack-edge.com%2Fdf10d%2Fimg%2Favatars%2Fava_0014-512.png", "custom_css": null}, {"id": 9625, "slack_id": "U0920J4U4BV", "display_name": "Marco", "bio": null, "projects_count": 0, "devlogs_count": 0, "votes_count": 0, "ships_count": 0, "projects": [], "coding_time_seconds": 0, "coding_time_seconds_today": 0, "balance": "You need to have a pocket watcher badge to view this.", "badges": [], "created_at": "2025-06-19T09:15:53.418-04:00", "updated_at": "2025-07-03T19:52:44.675-04:00", "avatar": "https://secure.gravatar.com/avatar/135bacd40e723fa8310ff63b2f9ffa19.jpg?s=512&d=https%3A%2F%2Fa.slack-edge.com%2Fdf10d%2Fimg%2Favatars%2Fava_0009-512.png", "custom_css": null}, {"id": 9626, "slack_id": "U082JJ09WAV", "display_name": "asdf4090", "bio": null, "projects_count": 0, "devlogs_count": 0, "votes_count": 0, "ships_count": 0, "projects": [], "coding_time_seconds": 0, "coding_time_seconds_today": 0, "balance": "You need to have a pocket watcher badge to view this.", "badges": [], "created_at": "2025-06-19T09:16:24.602-04:00", "updated_at": "2025-07-03T19:52:44.941-04:00", "avatar": "https://secure.gravatar.com/avatar/eb285db81409568e6cd1dfad0c647e4d.jpg?s=512&d=https%3A%2F%2Fa.slack-edge.com%2Fdf10d%2Fimg%2Favatars%2Fava_0003-512.png", "custom_css": null}, {"id": 9627, "slack_id": "U091SKW9H36", "display_name": "Munduru Gnana Sameera", "bio": null, "projects_count": 0, "devlogs_count": 0, "votes_count": 0, "ships_count": 0, "projects": [], "coding_time_seconds": 0, "coding_time_seconds_today": 0, "balance": "You need to have a pocket watcher badge to view this.", "badges": [], "created_at": "2025-06-19T09:17:06.573-04:00", "updated_at": "2025-07-03T21:59:58.137-04:00", "avatar": "https://secure.gravatar.com/avatar/fb58a9c566234cb7e69f138102038be1.jpg?s=512&d=https%3A%2F%2Fa.slack-edge.com%2Fdf10d%2Fimg%2Favatars%2Fava_0026-512.png", "custom_css": null}, {"id": 9628, "slack_id": "U0926TG30HG", "display_name": "Bernardo Oliveira", "bio": null, "projects_count": 0, "devlogs_count": 0, "votes_count": 0, "ships_count": 0, "projects": [], "coding_time_seconds": 0, "coding_time_seconds_today": 0, "balance": "You need to have a pocket watcher badge to view this.", "badges": [], "created_at": "2025-06-19T09:19:14.310-04:00", "updated_at": "2025-07-03T21:59:58.247-04:00", "avatar": "https://avatars.slack-edge.com/2025-06-19/9073881969877_99b7e964cdaebe6d4bc1_original.jpg", "custom_css": null}, {"id": 9629, "slack_id": "U092KR9JNJV", "display_name": "Keshav Sharma", "bio": null, "projects_count": 6, "devlogs_count": 3, "votes_count": 2, "ships_count": 0, "projects": [{"id": 2500, "title": "System-Resource-Services", "devlogs_count": 1, "created_at": "2025-06-21T06:35:08.445-04:00"}, {"id": 2501, "title": "Zyntax", "devlogs_count": 0, "created_at": "2025-06-21T06:36:00.515-04:00"}, {"id": 2502, "title": "LaunchBoard", "devlogs_count": 0, "created_at": "2025-06-21T06:36:42.825-04:00"}, {"id": 4901, "title": "Filvanta", "devlogs_count": 1, "created_at": "2025-07-02T05:08:30.984-04:00"}, {"id": 5096, "title": "Tithika", "devlogs_count": 1, "created_at": "2025-07-03T08:17:03.357-04:00"}, {"id": 5252, "title": "AquaVita", "devlogs_count": 0, "created_at": "2025-07-04T02:40:15.546-04:00"}], "coding_time_seconds": 141416, "coding_time_seconds_today": 0, "balance": "You need to have a pocket watcher badge to view this.", "badges": [], "created_at": "2025-06-19T09:24:12.416-04:00", "updated_at": "2025-07-18T11:30:00.351-04:00", "avatar": "https://secure.gravatar.com/avatar/65630784a3cfc95f7985c2bca2a5e17d.jpg?s=512&d=https%3A%2F%2Fa.slack-edge.com%2Fdf10d%2Fimg%2Favatars%2Fava_0006-512.png", "custom_css": null}, {"id": 9630, "slack_id": "U092614RARJ", "display_name": "Olakunle Isaac", "bio": null, "projects_count": 0, "devlogs_count": 0, "votes_count": 0, "ships_count": 0, "projects": [], "coding_time_seconds": 0, "coding_time_seconds_today": 0, "balance": "You need to have a pocket watcher badge to view this.", "badges": [], "created_at": "2025-06-19T09:25:49.699-04:00", "updated_at": "2025-07-05T14:12:04.774-04:00", "avatar": "https://secure.gravatar.com/avatar/76e351f21eb5be59050a2dabefd8e3ea.jpg?s=512&d=https%3A%2F%2Fa.slack-edge.com%2Fdf10d%2Fimg%2Favatars%2Fava_0000-512.png", "custom_css": null}, {"id": 9631, "slack_id": "U091S81G8RM", "display_name": "samuu", "bio": null, "projects_count": 0, "devlogs_count": 0, "votes_count": 0, "ships_count": 0, "projects": [], "coding_time_seconds": 0, "coding_time_seconds_today": 0, "balance": "You need to have a pocket watcher badge to view this.", "badges": [], "created_at": "2025-06-19T09:27:23.033-04:00", "updated_at": "2025-07-03T19:52:45.849-04:00", "avatar": "https://secure.gravatar.com/avatar/eb00bb906d949d02a49ae3fda4570049.jpg?s=512&d=https%3A%2F%2Fa.slack-edge.com%2Fdf10d%2Fimg%2Favatars%2Fava_0019-512.png", "custom_css": null}, {"id": 9632, "slack_id": "U092VGDHH2L", "display_name": "Girindra Raditya Rizki", "bio": null, "projects_count": 0, "devlogs_count": 0, "votes_count": 0, "ships_count": 0, "projects": [], "coding_time_seconds": 331911, "coding_time_seconds_today": 6175, "balance": "You need to have a pocket watcher badge to view this.", "badges": [], "created_at": "2025-06-19T09:27:35.644-04:00", "updated_at": "2025-07-03T19:52:46.123-04:00", "avatar": "https://secure.gravatar.com/avatar/622d5b8c41f01613e25451b719c1b312.jpg?s=512&d=https%3A%2F%2Fa.slack-edge.com%2Fdf10d%2Fimg%2Favatars%2Fava_0008-512.png", "custom_css": null}, {"id": 9633, "slack_id": "U0920SWJKTQ", "display_name": "Stapler", "bio": null, "projects_count": 1, "devlogs_count": 2, "votes_count": 0, "ships_count": 0, "projects": [{"id": 2904, "title": "Number Guesser", "devlogs_count": 2, "created_at": "2025-06-22T12:12:26.025-04:00"}], "coding_time_seconds": 20729, "coding_time_seconds_today": 0, "balance": "You need to have a pocket watcher badge to view this.", "badges": [], "created_at": "2025-06-19T09:28:32.456-04:00", "updated_at": "2025-07-03T19:52:46.398-04:00", "avatar": "https://avatars.slack-edge.com/2025-06-19/9075446269300_a29ea07343d0f6680ab0_original.png", "custom_css": null}, {"id": 9634, "slack_id": "U0925SVJDEZ", "display_name": "Leonard", "bio": null, "projects_count": 0, "devlogs_count": 0, "votes_count": 0, "ships_count": 0, "projects": [], "coding_time_seconds": 0, "coding_time_seconds_today": 0, "balance": "You need to have a pocket watcher badge to view this.", "badges": [], "created_at": "2025-06-19T09:29:08.701-04:00", "updated_at": "2025-07-03T19:52:46.657-04:00", "avatar": "https://avatars.slack-edge.com/2025-06-19/9097580082240_a2433beb279c5c2849f0_original.jpg", "custom_css": null}, {"id": 9635, "slack_id": "U0925SZGFS9", "display_name": "Gajera Rudra Pravinkumar", "bio": null, "projects_count": 1, "devlogs_count": 0, "votes_count": 0, "ships_count": 0, "projects": [{"id": 1809, "title": "First Project", "devlogs_count": 0, "created_at": "2025-06-19T09:49:25.326-04:00"}], "coding_time_seconds": 265, "coding_time_seconds_today": 0, "balance": "You need to have a pocket watcher badge to view this.", "badges": [], "created_at": "2025-06-19T09:29:51.510-04:00", "updated_at": "2025-07-03T19:52:46.925-04:00", "avatar": "https://secure.gravatar.com/avatar/dc0c4e85ba969071fa6747ce41ca5f1a.jpg?s=512&d=https%3A%2F%2Fa.slack-edge.com%2Fdf10d%2Fimg%2Favatars%2Fava_0021-512.png", "custom_css": null}, {"id": 9636, "slack_id": "U0925SUV32R", "display_name": "Feyzullah", "bio": null, "projects_count": 0, "devlogs_count": 0, "votes_count": 0, "ships_count": 0, "projects": [], "coding_time_seconds": 165391, "coding_time_seconds_today": 0, "balance": "You need to have a pocket watcher badge to view this.", "badges": [], "created_at": "2025-06-19T09:30:01.200-04:00", "updated_at": "2025-07-03T19:52:47.187-04:00", "avatar": "https://secure.gravatar.com/avatar/99b821d71455b4ca4af38f93ff07ac6a.jpg?s=512&d=https%3A%2F%2Fa.slack-edge.com%2Fdf10d%2Fimg%2Favatars%2Fava_0002-512.png", "custom_css": null}, {"id": 9637, "slack_id": "U092KSEMH4H", "display_name": "Asghar Raza", "bio": null, "projects_count": 0, "devlogs_count": 0, "votes_count": 0, "ships_count": 0, "projects": [], "coding_time_seconds": 120, "coding_time_seconds_today": 0, "balance": "You need to have a pocket watcher badge to view this.", "badges": [], "created_at": "2025-06-19T09:31:17.539-04:00", "updated_at": "2025-07-03T21:59:58.968-04:00", "avatar": "https://avatars.slack-edge.com/2025-06-19/9073942381093_fe9e6b6eb470c775106f_original.jpg", "custom_css": null}, {"id": 9638, "slack_id": "U092VFUNDGQ", "display_name": "Alex", "bio": null, "projects_count": 0, "devlogs_count": 0, "votes_count": 0, "ships_count": 0, "projects": [], "coding_time_seconds": 183199, "coding_time_seconds_today": 0, "balance": "You need to have a pocket watcher badge to view this.", "badges": [], "created_at": "2025-06-19T09:32:56.026-04:00", "updated_at": "2025-07-03T19:52:47.629-04:00", "avatar": "https://secure.gravatar.com/avatar/8559f6f22e5eac18fe58e9abf69145ff.jpg?s=512&d=https%3A%2F%2Fa.slack-edge.com%2Fdf10d%2Fimg%2Favatars%2Fava_0006-512.png", "custom_css": null}, {"id": 9639, "slack_id": "U08LDMUN90C", "display_name": "Richard Scott", "bio": null, "projects_count": 0, "devlogs_count": 0, "votes_count": 0, "ships_count": 0, "projects": [], "coding_time_seconds": 43134, "coding_time_seconds_today": 0, "balance": "You need to have a pocket watcher badge to view this.", "badges": [], "created_at": "2025-06-19T09:33:42.346-04:00", "updated_at": "2025-07-03T19:52:47.959-04:00", "avatar": "https://avatars.slack-edge.com/2025-04-01/8693752811044_447c0d9605dd10476f35_original.png", "custom_css": null}, {"id": 9640, "slack_id": "U0920QN6VDL", "display_name": "Malika EL HANAFY", "bio": null, "projects_count": 0, "devlogs_count": 0, "votes_count": 0, "ships_count": 0, "projects": [], "coding_time_seconds": 0, "coding_time_seconds_today": 0, "balance": "You need to have a pocket watcher badge to view this.", "badges": [], "created_at": "2025-06-19T09:34:44.137-04:00", "updated_at": "2025-07-03T19:52:48.238-04:00", "avatar": "https://secure.gravatar.com/avatar/358019b83a99972fbde433c3653a9a7f.jpg?s=512&d=https%3A%2F%2Fa.slack-edge.com%2Fdf10d%2Fimg%2Favatars%2Fava_0020-512.png", "custom_css": null}], "pagination": {"page": 482, "pages": 1192, "count": 23828, "items": 20}}