{"users": [{"id": 9641, "slack_id": "U0920LR13RU", "display_name": "Araoluwa", "bio": null, "projects_count": 1, "devlogs_count": 0, "votes_count": 0, "ships_count": 0, "projects": [{"id": 10985, "title": "Rust File Downloader", "devlogs_count": 0, "created_at": "2025-08-12T08:00:05.338-04:00"}], "coding_time_seconds": 60521, "coding_time_seconds_today": 0, "balance": "You need to have a pocket watcher badge to view this.", "badges": [], "created_at": "2025-06-19T09:36:55.583-04:00", "updated_at": "2025-08-07T12:46:04.794-04:00", "avatar": "https://secure.gravatar.com/avatar/0724778c3076f18bf0e280a0c121c818.jpg?s=512&d=https%3A%2F%2Fa.slack-edge.com%2Fdf10d%2Fimg%2Favatars%2Fava_0024-512.png", "custom_css": null}, {"id": 9642, "slack_id": "U092D2QD4KB", "display_name": "eyepatch", "bio": null, "projects_count": 0, "devlogs_count": 0, "votes_count": 0, "ships_count": 0, "projects": [], "coding_time_seconds": 0, "coding_time_seconds_today": 0, "balance": "You need to have a pocket watcher badge to view this.", "badges": [], "created_at": "2025-06-19T09:37:51.064-04:00", "updated_at": "2025-07-03T19:52:48.775-04:00", "avatar": "https://secure.gravatar.com/avatar/8467de15450465a728b425431596bb2c.jpg?s=512&d=https%3A%2F%2Fa.slack-edge.com%2Fdf10d%2Fimg%2Favatars%2Fava_0023-512.png", "custom_css": null}, {"id": 9643, "slack_id": "U092KTFDBB3", "display_name": "rembo", "bio": null, "projects_count": 0, "devlogs_count": 0, "votes_count": 0, "ships_count": 0, "projects": [], "coding_time_seconds": 0, "coding_time_seconds_today": 0, "balance": "You need to have a pocket watcher badge to view this.", "badges": [], "created_at": "2025-06-19T09:38:16.719-04:00", "updated_at": "2025-07-03T19:52:49.050-04:00", "avatar": "https://secure.gravatar.com/avatar/f1cb4817066feb4ed23418d41ee2f2c0.jpg?s=512&d=https%3A%2F%2Fa.slack-edge.com%2Fdf10d%2Fimg%2Favatars%2Fava_0020-512.png", "custom_css": null}, {"id": 9644, "slack_id": "U0920U2RS6A", "display_name": "ARUN SANJEEV M S", "bio": null, "projects_count": 0, "devlogs_count": 0, "votes_count": 0, "ships_count": 0, "projects": [], "coding_time_seconds": 0, "coding_time_seconds_today": 0, "balance": "You need to have a pocket watcher badge to view this.", "badges": [], "created_at": "2025-06-19T09:38:28.900-04:00", "updated_at": "2025-07-03T19:52:49.355-04:00", "avatar": "https://avatars.slack-edge.com/2025-06-19/9075496659332_96820ffc8965e49f72b4_original.jpg", "custom_css": null}, {"id": 9645, "slack_id": "U092JJJQF2M", "display_name": "Harsh Bajpay", "bio": null, "projects_count": 0, "devlogs_count": 0, "votes_count": 0, "ships_count": 0, "projects": [], "coding_time_seconds": 3211, "coding_time_seconds_today": 0, "balance": "You need to have a pocket watcher badge to view this.", "badges": [], "created_at": "2025-06-19T09:39:57.815-04:00", "updated_at": "2025-07-03T21:59:59.536-04:00", "avatar": "https://secure.gravatar.com/avatar/def617174d8bc25fca50339e5294267d.jpg?s=512&d=https%3A%2F%2Fa.slack-edge.com%2Fdf10d%2Fimg%2Favatars%2Fava_0002-512.png", "custom_css": null}, {"id": 9646, "slack_id": "U08SJA9NWMV", "display_name": "Saymon Islam", "bio": null, "projects_count": 1, "devlogs_count": 0, "votes_count": 0, "ships_count": 0, "projects": [{"id": 8598, "title": "LUNAR CAVE EXPLORER", "devlogs_count": 0, "created_at": "2025-07-28T13:08:09.675-04:00"}], "coding_time_seconds": 0, "coding_time_seconds_today": 0, "balance": "You need to have a pocket watcher badge to view this.", "badges": [], "created_at": "2025-06-19T09:40:10.649-04:00", "updated_at": "2025-08-14T10:12:17.900-04:00", "avatar": "https://avatars.slack-edge.com/2025-05-22/8925023607399_c53a3f8eb32819f6331a_original.jpg", "custom_css": null}, {"id": 9647, "slack_id": "U0920ML77EX", "display_name": "Cheikh DEME", "bio": null, "projects_count": 1, "devlogs_count": 0, "votes_count": 0, "ships_count": 0, "projects": [{"id": 1812, "title": "data processing", "devlogs_count": 0, "created_at": "2025-06-19T10:09:18.019-04:00"}], "coding_time_seconds": 129477, "coding_time_seconds_today": 0, "balance": "You need to have a pocket watcher badge to view this.", "badges": [], "created_at": "2025-06-19T09:40:29.377-04:00", "updated_at": "2025-07-03T19:52:49.952-04:00", "avatar": "https://avatars.slack-edge.com/2025-06-19/9075505261300_86c879cc3614cbaecee9_original.png", "custom_css": null}, {"id": 9648, "slack_id": "U0920MYQM8T", "display_name": "Mark", "bio": null, "projects_count": 0, "devlogs_count": 0, "votes_count": 0, "ships_count": 0, "projects": [], "coding_time_seconds": 0, "coding_time_seconds_today": 0, "balance": "You need to have a pocket watcher badge to view this.", "badges": [], "created_at": "2025-06-19T09:43:26.173-04:00", "updated_at": "2025-07-03T21:59:59.802-04:00", "avatar": "https://secure.gravatar.com/avatar/560a664128616397fd4f4e0746ce3d22.jpg?s=512&d=https%3A%2F%2Fa.slack-edge.com%2Fdf10d%2Fimg%2Favatars%2Fava_0002-512.png", "custom_css": null}, {"id": 9649, "slack_id": "U06AEK3LC49", "display_name": "William", "bio": null, "projects_count": 0, "devlogs_count": 0, "votes_count": 0, "ships_count": 0, "projects": [], "coding_time_seconds": 0, "coding_time_seconds_today": 0, "balance": "You need to have a pocket watcher badge to view this.", "badges": [], "created_at": "2025-06-19T09:44:00.345-04:00", "updated_at": "2025-07-07T14:49:22.623-04:00", "avatar": "https://secure.gravatar.com/avatar/31419b2a23459fe60e3a81cafeb2baf2.jpg?s=512&d=https%3A%2F%2Fa.slack-edge.com%2Fdf10d%2Fimg%2Favatars%2Fava_0000-512.png", "custom_css": null}, {"id": 9650, "slack_id": "U0925V3K3EH", "display_name": "arbitraryvectors", "bio": null, "projects_count": 0, "devlogs_count": 0, "votes_count": 0, "ships_count": 0, "projects": [], "coding_time_seconds": 0, "coding_time_seconds_today": 0, "balance": "You need to have a pocket watcher badge to view this.", "badges": [], "created_at": "2025-06-19T09:44:59.677-04:00", "updated_at": "2025-07-05T20:11:10.483-04:00", "avatar": "https://secure.gravatar.com/avatar/07bb629820b1a0e5717bf7dc3e69b9af.jpg?s=512&d=https%3A%2F%2Fa.slack-edge.com%2Fdf10d%2Fimg%2Favatars%2Fava_0008-512.png", "custom_css": null}, {"id": 9651, "slack_id": "U0920LZ2RHS", "display_name": "Naman Maheshwari", "bio": null, "projects_count": 0, "devlogs_count": 0, "votes_count": 0, "ships_count": 0, "projects": [], "coding_time_seconds": 11723, "coding_time_seconds_today": 0, "balance": "You need to have a pocket watcher badge to view this.", "badges": [], "created_at": "2025-06-19T09:45:07.025-04:00", "updated_at": "2025-07-03T19:52:50.620-04:00", "avatar": "https://avatars.slack-edge.com/2025-06-19/9069038367542_f9debfd6dad9635d2005_original.jpg", "custom_css": null}, {"id": 9652, "slack_id": "U0921107M0E", "display_name": "b068931", "bio": null, "projects_count": 3, "devlogs_count": 20, "votes_count": 20, "ships_count": 2, "projects": [{"id": 2147, "title": "Typename Array", "devlogs_count": 5, "created_at": "2025-06-20T09:41:04.962-04:00"}, {"id": 2433, "title": "From Scratch Interpreter (FSI)", "devlogs_count": 14, "created_at": "2025-06-21T02:55:50.946-04:00"}, {"id": 7043, "title": "BMP Reader", "devlogs_count": 1, "created_at": "2025-07-18T13:43:53.153-04:00"}], "coding_time_seconds": 305986, "coding_time_seconds_today": 0, "balance": "You need to have a pocket watcher badge to view this.", "badges": [{"name": "Maiden Voyage", "text": "you shipped your first project! the journey begins...", "icon": "\ud83d\udea2"}], "created_at": "2025-06-19T09:47:37.936-04:00", "updated_at": "2025-09-10T22:55:58.046-04:00", "avatar": "https://secure.gravatar.com/avatar/b3ef2eaa1d34ec7cda1e749ed19e5f42.jpg?s=512&d=https%3A%2F%2Fa.slack-edge.com%2Fdf10d%2Fimg%2Favatars%2Fava_0003-512.png", "custom_css": null}, {"id": 9653, "slack_id": "U091SADGB9D", "display_name": "Alex", "bio": null, "projects_count": 0, "devlogs_count": 0, "votes_count": 0, "ships_count": 0, "projects": [], "coding_time_seconds": 0, "coding_time_seconds_today": 0, "balance": "You need to have a pocket watcher badge to view this.", "badges": [], "created_at": "2025-06-19T09:48:28.540-04:00", "updated_at": "2025-07-03T19:52:51.025-04:00", "avatar": "https://secure.gravatar.com/avatar/6e2d4312fd7a0828f889e70ef1d8f0eb.jpg?s=512&d=https%3A%2F%2Fa.slack-edge.com%2Fdf10d%2Fimg%2Favatars%2Fava_0010-512.png", "custom_css": null}, {"id": 9654, "slack_id": "U079B58E2KE", "display_name": "Roberto E", "bio": null, "projects_count": 0, "devlogs_count": 0, "votes_count": 1, "ships_count": 0, "projects": [], "coding_time_seconds": 31810, "coding_time_seconds_today": 0, "balance": "You need to have a pocket watcher badge to view this.", "badges": [], "created_at": "2025-06-19T09:48:45.195-04:00", "updated_at": "2025-07-18T09:31:55.672-04:00", "avatar": "https://secure.gravatar.com/avatar/f608cb01eefa66918b6ede873435cbf6.jpg?s=512&d=https%3A%2F%2Fa.slack-edge.com%2Fdf10d%2Fimg%2Favatars%2Fava_0004-512.png", "custom_css": null}, {"id": 9655, "slack_id": "U091ZF5FF3M", "display_name": "Kugelblitz", "bio": null, "projects_count": 0, "devlogs_count": 0, "votes_count": 0, "ships_count": 0, "projects": [], "coding_time_seconds": 0, "coding_time_seconds_today": 0, "balance": "You need to have a pocket watcher badge to view this.", "badges": [], "created_at": "2025-06-19T09:48:50.399-04:00", "updated_at": "2025-07-03T21:47:58.406-04:00", "avatar": "https://secure.gravatar.com/avatar/3fcf4a05364fab27cd5915d0fd071594.jpg?s=512&d=https%3A%2F%2Fa.slack-edge.com%2Fdf10d%2Fimg%2Favatars%2Fava_0000-512.png", "custom_css": null}, {"id": 9656, "slack_id": "U091Q0KNHAT", "display_name": "Maruf Shawkat Hossain", "bio": null, "projects_count": 0, "devlogs_count": 0, "votes_count": 0, "ships_count": 0, "projects": [], "coding_time_seconds": 0, "coding_time_seconds_today": 0, "balance": "You need to have a pocket watcher badge to view this.", "badges": [], "created_at": "2025-06-19T09:49:37.951-04:00", "updated_at": "2025-07-03T19:52:51.701-04:00", "avatar": "https://secure.gravatar.com/avatar/671e2b71523be1d53a6b44e75f4a6f4c.jpg?s=512&d=https%3A%2F%2Fa.slack-edge.com%2Fdf10d%2Fimg%2Favatars%2Fava_0025-512.png", "custom_css": null}, {"id": 9657, "slack_id": "U09260MTEHK", "display_name": "mohamedabotir", "bio": null, "projects_count": 0, "devlogs_count": 0, "votes_count": 0, "ships_count": 0, "projects": [], "coding_time_seconds": 0, "coding_time_seconds_today": 0, "balance": "You need to have a pocket watcher badge to view this.", "badges": [], "created_at": "2025-06-19T09:51:10.703-04:00", "updated_at": "2025-07-03T19:52:51.994-04:00", "avatar": "https://secure.gravatar.com/avatar/a01369706fd6866ff487e07b0ec52d37.jpg?s=512&d=https%3A%2F%2Fa.slack-edge.com%2Fdf10d%2Fimg%2Favatars%2Fava_0017-512.png", "custom_css": null}, {"id": 9658, "slack_id": "U08T80633V1", "display_name": "gopher", "bio": null, "projects_count": 1, "devlogs_count": 0, "votes_count": 0, "ships_count": 0, "projects": [{"id": 2178, "title": "pico", "devlogs_count": 0, "created_at": "2025-06-20T11:20:19.718-04:00"}], "coding_time_seconds": 7986, "coding_time_seconds_today": 0, "balance": "You need to have a pocket watcher badge to view this.", "badges": [], "created_at": "2025-06-19T09:51:26.802-04:00", "updated_at": "2025-07-03T19:52:52.271-04:00", "avatar": "https://avatars.slack-edge.com/2025-05-22/8926260545731_6b377581404382fe3162_original.png", "custom_css": null}, {"id": 9659, "slack_id": "U092KVCN3J5", "display_name": "Aya", "bio": null, "projects_count": 0, "devlogs_count": 0, "votes_count": 0, "ships_count": 0, "projects": [], "coding_time_seconds": 13853, "coding_time_seconds_today": 0, "balance": "You need to have a pocket watcher badge to view this.", "badges": [], "created_at": "2025-06-19T09:52:14.753-04:00", "updated_at": "2025-07-03T19:52:52.554-04:00", "avatar": "https://secure.gravatar.com/avatar/02e32fb4a9afc3b7a863a5cd2d187e5d.jpg?s=512&d=https%3A%2F%2Fa.slack-edge.com%2Fdf10d%2Fimg%2Favatars%2Fava_0018-512.png", "custom_css": null}, {"id": 9660, "slack_id": "U091SAWP1EK", "display_name": "Orkun", "bio": null, "projects_count": 0, "devlogs_count": 0, "votes_count": 0, "ships_count": 0, "projects": [], "coding_time_seconds": 0, "coding_time_seconds_today": 0, "balance": "You need to have a pocket watcher badge to view this.", "badges": [], "created_at": "2025-06-19T09:54:36.354-04:00", "updated_at": "2025-07-03T19:52:52.822-04:00", "avatar": "https://secure.gravatar.com/avatar/c7df6986a2dfade59a5f1d7b1de88f1c.jpg?s=512&d=https%3A%2F%2Fa.slack-edge.com%2Fdf10d%2Fimg%2Favatars%2Fava_0009-512.png", "custom_css": null}], "pagination": {"page": 483, "pages": 1192, "count": 23828, "items": 20}}