{"users": [{"id": 9661, "slack_id": "U0902CM340K", "display_name": "FundimanDEV", "bio": null, "projects_count": 0, "devlogs_count": 0, "votes_count": 0, "ships_count": 0, "projects": [], "coding_time_seconds": 0, "coding_time_seconds_today": 0, "balance": "You need to have a pocket watcher badge to view this.", "badges": [], "created_at": "2025-06-19T09:54:45.196-04:00", "updated_at": "2025-07-03T21:47:58.852-04:00", "avatar": "https://avatars.slack-edge.com/2025-06-06/9007571279605_6cdd00b154f05322b1f2_original.jpg", "custom_css": null}, {"id": 9662, "slack_id": "U091SC124HM", "display_name": "Biresh Biswas", "bio": null, "projects_count": 0, "devlogs_count": 0, "votes_count": 0, "ships_count": 0, "projects": [], "coding_time_seconds": 169138, "coding_time_seconds_today": 0, "balance": "You need to have a pocket watcher badge to view this.", "badges": [], "created_at": "2025-06-19T09:54:52.400-04:00", "updated_at": "2025-07-03T19:52:53.238-04:00", "avatar": "https://secure.gravatar.com/avatar/98c82f8f892565488f99305637aa7bbb.jpg?s=512&d=https%3A%2F%2Fa.slack-edge.com%2Fdf10d%2Fimg%2Favatars%2Fava_0023-512.png", "custom_css": null}, {"id": 9663, "slack_id": "U091UC9L6QN", "display_name": "Judy Ahmed", "bio": null, "projects_count": 0, "devlogs_count": 0, "votes_count": 0, "ships_count": 0, "projects": [], "coding_time_seconds": 0, "coding_time_seconds_today": 0, "balance": "You need to have a pocket watcher badge to view this.", "badges": [], "created_at": "2025-06-19T09:56:23.185-04:00", "updated_at": "2025-07-03T19:52:53.510-04:00", "avatar": "https://avatars.slack-edge.com/2025-06-19/9088035973377_51652f2c8f87e3154c1c_original.png", "custom_css": null}, {"id": 9664, "slack_id": "U0927GEL6GL", "display_name": "John", "bio": null, "projects_count": 0, "devlogs_count": 0, "votes_count": 0, "ships_count": 0, "projects": [], "coding_time_seconds": 0, "coding_time_seconds_today": 0, "balance": "You need to have a pocket watcher badge to view this.", "badges": [], "created_at": "2025-06-19T09:56:25.031-04:00", "updated_at": "2025-07-03T19:52:53.789-04:00", "avatar": "https://secure.gravatar.com/avatar/088fb461c8a3e19b982fbfb7e5ad1022.jpg?s=512&d=https%3A%2F%2Fa.slack-edge.com%2Fdf10d%2Fimg%2Favatars%2Fava_0008-512.png", "custom_css": null}, {"id": 9665, "slack_id": "U091SL3HXRC", "display_name": "CodePirat", "bio": null, "projects_count": 0, "devlogs_count": 0, "votes_count": 0, "ships_count": 0, "projects": [], "coding_time_seconds": 34959, "coding_time_seconds_today": 700, "balance": "You need to have a pocket watcher badge to view this.", "badges": [], "created_at": "2025-06-19T09:58:36.154-04:00", "updated_at": "2025-07-03T19:52:54.058-04:00", "avatar": "https://secure.gravatar.com/avatar/70c9b9d89673cc8d6d92753d8fafd48b.jpg?s=512&d=https%3A%2F%2Fa.slack-edge.com%2Fdf10d%2Fimg%2Favatars%2Fava_0013-512.png", "custom_css": null}, {"id": 9666, "slack_id": "U09261UR8BX", "display_name": "Fuad Amin", "bio": null, "projects_count": 0, "devlogs_count": 0, "votes_count": 0, "ships_count": 0, "projects": [], "coding_time_seconds": 0, "coding_time_seconds_today": 0, "balance": "You need to have a pocket watcher badge to view this.", "badges": [], "created_at": "2025-06-19T09:59:01.709-04:00", "updated_at": "2025-07-03T19:52:54.327-04:00", "avatar": "https://secure.gravatar.com/avatar/ee15c5a5243ef121f96d1970683c4a6c.jpg?s=512&d=https%3A%2F%2Fa.slack-edge.com%2Fdf10d%2Fimg%2Favatars%2Fava_0021-512.png", "custom_css": null}, {"id": 9667, "slack_id": "U0920QCTK27", "display_name": "Magnus", "bio": null, "projects_count": 3, "devlogs_count": 12, "votes_count": 29, "ships_count": 2, "projects": [{"id": 13669, "title": "Physical portfolio showcase", "devlogs_count": 0, "created_at": "2025-09-22T11:21:30.493-04:00"}, {"id": 13344, "title": "Tree, Please (scene 55 of the survey)", "devlogs_count": 2, "created_at": "2025-09-14T10:29:27.730-04:00"}, {"id": 11015, "title": "Config Manager", "devlogs_count": 10, "created_at": "2025-08-12T11:52:37.599-04:00"}], "coding_time_seconds": 322294, "coding_time_seconds_today": 0, "balance": "You need to have a pocket watcher badge to view this.", "badges": [{"name": "Maiden Voyage", "text": "you shipped your first project! the journey begins...", "icon": "\ud83d\udea2"}], "created_at": "2025-06-19T10:01:06.751-04:00", "updated_at": "2025-09-17T13:00:05.008-04:00", "avatar": "https://secure.gravatar.com/avatar/eb3c887d27bfe48b324e869beb091cee.jpg?s=512&d=https%3A%2F%2Fa.slack-edge.com%2Fdf10d%2Fimg%2Favatars%2Fava_0013-512.png", "custom_css": null}, {"id": 9668, "slack_id": "U092L1E9N57", "display_name": "Michael kung", "bio": null, "projects_count": 0, "devlogs_count": 0, "votes_count": 0, "ships_count": 0, "projects": [], "coding_time_seconds": 0, "coding_time_seconds_today": 0, "balance": "You need to have a pocket watcher badge to view this.", "badges": [], "created_at": "2025-06-19T10:01:52.924-04:00", "updated_at": "2025-07-03T19:52:54.724-04:00", "avatar": "https://secure.gravatar.com/avatar/3553d8b7fbbcad37f75f6ff6b579ae43.jpg?s=512&d=https%3A%2F%2Fa.slack-edge.com%2Fdf10d%2Fimg%2Favatars%2Fava_0019-512.png", "custom_css": null}, {"id": 9669, "slack_id": "U091SC11E79", "display_name": "Boago Mos", "bio": null, "projects_count": 0, "devlogs_count": 0, "votes_count": 0, "ships_count": 0, "projects": [], "coding_time_seconds": 0, "coding_time_seconds_today": 0, "balance": "You need to have a pocket watcher badge to view this.", "badges": [], "created_at": "2025-06-19T10:01:57.481-04:00", "updated_at": "2025-07-03T19:52:54.980-04:00", "avatar": "https://secure.gravatar.com/avatar/a2bbfa2d4530f084cd32745d85280004.jpg?s=512&d=https%3A%2F%2Fa.slack-edge.com%2Fdf10d%2Fimg%2Favatars%2Fava_0025-512.png", "custom_css": null}, {"id": 9670, "slack_id": "U091WNVD63X", "display_name": "Bhushan Karape", "bio": null, "projects_count": 0, "devlogs_count": 0, "votes_count": 0, "ships_count": 0, "projects": [], "coding_time_seconds": 0, "coding_time_seconds_today": 0, "balance": "You need to have a pocket watcher badge to view this.", "badges": [], "created_at": "2025-06-19T10:02:53.333-04:00", "updated_at": "2025-07-03T22:00:01.370-04:00", "avatar": "https://avatars.slack-edge.com/2025-06-19/9088076727617_acc9922bbe8f7b4b2900_original.png", "custom_css": null}, {"id": 9671, "slack_id": "U09262QEJE9", "display_name": "RichTrash", "bio": null, "projects_count": 0, "devlogs_count": 0, "votes_count": 0, "ships_count": 0, "projects": [], "coding_time_seconds": 0, "coding_time_seconds_today": 0, "balance": "You need to have a pocket watcher badge to view this.", "badges": [], "created_at": "2025-06-19T10:04:34.668-04:00", "updated_at": "2025-07-03T19:52:55.387-04:00", "avatar": "https://secure.gravatar.com/avatar/672faa4c86fcb97a5a16b1d5aa609266.jpg?s=512&d=https%3A%2F%2Fa.slack-edge.com%2Fdf10d%2Fimg%2Favatars%2Fava_0007-512.png", "custom_css": null}, {"id": 9672, "slack_id": "U0927HY69JQ", "display_name": "shreenish shakya", "bio": null, "projects_count": 0, "devlogs_count": 0, "votes_count": 0, "ships_count": 0, "projects": [], "coding_time_seconds": 8488, "coding_time_seconds_today": 0, "balance": "You need to have a pocket watcher badge to view this.", "badges": [], "created_at": "2025-06-19T10:05:46.322-04:00", "updated_at": "2025-07-03T21:47:59.542-04:00", "avatar": "https://secure.gravatar.com/avatar/61a3c60b6d2e2ffab345fa3cbd3d98af.jpg?s=512&d=https%3A%2F%2Fa.slack-edge.com%2Fdf10d%2Fimg%2Favatars%2Fava_0012-512.png", "custom_css": null}, {"id": 9673, "slack_id": "U0922JTR8M7", "display_name": "Dominik", "bio": null, "projects_count": 0, "devlogs_count": 0, "votes_count": 0, "ships_count": 0, "projects": [], "coding_time_seconds": 20873, "coding_time_seconds_today": 0, "balance": "You need to have a pocket watcher badge to view this.", "badges": [], "created_at": "2025-06-19T10:05:53.969-04:00", "updated_at": "2025-07-03T19:52:55.783-04:00", "avatar": "https://secure.gravatar.com/avatar/ac6592fee216b501a283efafbd3e6583.jpg?s=512&d=https%3A%2F%2Fa.slack-edge.com%2Fdf10d%2Fimg%2Favatars%2Fava_0013-512.png", "custom_css": null}, {"id": 9674, "slack_id": "U0784SY5NDD", "display_name": "aryan, the creator", "bio": null, "projects_count": 0, "devlogs_count": 0, "votes_count": 0, "ships_count": 0, "projects": [], "coding_time_seconds": 1098, "coding_time_seconds_today": 0, "balance": "You need to have a pocket watcher badge to view this.", "badges": [], "created_at": "2025-06-19T10:06:52.899-04:00", "updated_at": "2025-09-08T08:48:56.172-04:00", "avatar": "https://avatars.slack-edge.com/2025-09-08/9482745120468_c5ff52e5f328cc04b004_original.jpg", "custom_css": null}, {"id": 9675, "slack_id": "U091SEHCN6A", "display_name": "Priyanshu", "bio": null, "projects_count": 0, "devlogs_count": 0, "votes_count": 0, "ships_count": 0, "projects": [], "coding_time_seconds": 30612, "coding_time_seconds_today": 0, "balance": "You need to have a pocket watcher badge to view this.", "badges": [], "created_at": "2025-06-19T10:08:05.376-04:00", "updated_at": "2025-07-06T02:12:02.188-04:00", "avatar": "https://secure.gravatar.com/avatar/9a02d2c85f5b0e740a800ca5b3f6e286.jpg?s=512&d=https%3A%2F%2Fa.slack-edge.com%2Fdf10d%2Fimg%2Favatars%2Fava_0023-512.png", "custom_css": null}, {"id": 9676, "slack_id": "U092VNFLZFS", "display_name": "mousaa", "bio": null, "projects_count": 0, "devlogs_count": 0, "votes_count": 0, "ships_count": 0, "projects": [], "coding_time_seconds": 0, "coding_time_seconds_today": 0, "balance": "You need to have a pocket watcher badge to view this.", "badges": [], "created_at": "2025-06-19T10:09:24.609-04:00", "updated_at": "2025-07-05T08:11:12.783-04:00", "avatar": "https://secure.gravatar.com/avatar/55f8ce1894d78f874e93d84dabc52a67.jpg?s=512&d=https%3A%2F%2Fa.slack-edge.com%2Fdf10d%2Fimg%2Favatars%2Fava_0007-512.png", "custom_css": null}, {"id": 9677, "slack_id": "U091JEEBKL6", "display_name": "fumbaaa", "bio": null, "projects_count": 0, "devlogs_count": 0, "votes_count": 0, "ships_count": 0, "projects": [], "coding_time_seconds": 0, "coding_time_seconds_today": 0, "balance": "You need to have a pocket watcher badge to view this.", "badges": [], "created_at": "2025-06-19T10:09:28.896-04:00", "updated_at": "2025-07-03T22:00:01.958-04:00", "avatar": "https://secure.gravatar.com/avatar/7853294bf984e216d545deeae284564b.jpg?s=512&d=https%3A%2F%2Fa.slack-edge.com%2Fdf10d%2Fimg%2Favatars%2Fava_0026-512.png", "custom_css": null}, {"id": 9678, "slack_id": "U091VE4E47N", "display_name": "Bhakti", "bio": null, "projects_count": 0, "devlogs_count": 0, "votes_count": 0, "ships_count": 0, "projects": [], "coding_time_seconds": 0, "coding_time_seconds_today": 0, "balance": "You need to have a pocket watcher badge to view this.", "badges": [], "created_at": "2025-06-19T10:10:02.546-04:00", "updated_at": "2025-07-03T19:52:56.720-04:00", "avatar": "https://secure.gravatar.com/avatar/754028a255edd5bdbc2cf3d2fef3e1d0.jpg?s=512&d=https%3A%2F%2Fa.slack-edge.com%2Fdf10d%2Fimg%2Favatars%2Fava_0011-512.png", "custom_css": null}, {"id": 9679, "slack_id": "U0917DQ88MD", "display_name": "Abderrahim El Azzaoui", "bio": null, "projects_count": 0, "devlogs_count": 0, "votes_count": 0, "ships_count": 0, "projects": [], "coding_time_seconds": 0, "coding_time_seconds_today": 0, "balance": "You need to have a pocket watcher badge to view this.", "badges": [], "created_at": "2025-06-19T10:10:02.556-04:00", "updated_at": "2025-07-03T19:52:57.019-04:00", "avatar": "https://avatars.slack-edge.com/2025-06-19/9097780300496_75fc60f6ad42f3b700a9_original.png", "custom_css": null}, {"id": 9680, "slack_id": "U0927491JSE", "display_name": "Luka Trojan", "bio": null, "projects_count": 3, "devlogs_count": 48, "votes_count": 80, "ships_count": 1, "projects": [{"id": 5766, "title": "Operating System development", "devlogs_count": 2, "created_at": "2025-07-07T19:48:56.496-04:00"}, {"id": 12797, "title": "Dice mania", "devlogs_count": 1, "created_at": "2025-09-02T18:05:24.915-04:00"}, {"id": 2000, "title": "Ferrum Engine", "devlogs_count": 45, "created_at": "2025-06-19T21:23:45.712-04:00"}], "coding_time_seconds": 411291, "coding_time_seconds_today": 0, "balance": "You need to have a pocket watcher badge to view this.", "badges": [{"name": "Maiden Voyage", "text": "you shipped your first project! the journey begins...", "icon": "\ud83d\udea2"}], "created_at": "2025-06-19T10:10:28.925-04:00", "updated_at": "2025-09-10T22:55:58.767-04:00", "avatar": "https://avatars.slack-edge.com/2025-06-20/9100192048896_c862b4f74a3b8d7a2140_original.png", "custom_css": null}], "pagination": {"page": 484, "pages": 1192, "count": 23828, "items": 20}}