{"users": [{"id": 9681, "slack_id": "U091SDXACJK", "display_name": "Ayush Bhandari", "bio": null, "projects_count": 5, "devlogs_count": 12, "votes_count": 27, "ships_count": 5, "projects": [{"id": 1816, "title": "Weather website ", "devlogs_count": 1, "created_at": "2025-06-19T10:35:20.113-04:00"}, {"id": 2333, "title": "Balls Collision Model", "devlogs_count": 2, "created_at": "2025-06-20T18:10:50.201-04:00"}, {"id": 7061, "title": "Food Recipe ", "devlogs_count": 6, "created_at": "2025-07-18T16:19:07.144-04:00"}, {"id": 6114, "title": "ToDo App", "devlogs_count": 1, "created_at": "2025-07-10T15:40:30.616-04:00"}, {"id": 3532, "title": "Audio Player", "devlogs_count": 2, "created_at": "2025-06-24T15:38:11.761-04:00"}], "coding_time_seconds": 379680, "coding_time_seconds_today": 0, "balance": "You need to have a pocket watcher badge to view this.", "badges": [{"name": "Maiden Voyage", "text": "you shipped your first project! the journey begins...", "icon": "\ud83d\udea2"}], "created_at": "2025-06-19T10:12:28.062-04:00", "updated_at": "2025-09-10T22:55:58.791-04:00", "avatar": "https://avatars.slack-edge.com/2025-07-26/9257263625170_c8c57d9c8e12fcd4fa08_original.png", "custom_css": null}, {"id": 9682, "slack_id": "U09214U70GN", "display_name": "Axrye", "bio": null, "projects_count": 2, "devlogs_count": 4, "votes_count": 16, "ships_count": 1, "projects": [{"id": 3672, "title": "Revolving Revolver", "devlogs_count": 1, "created_at": "2025-06-25T07:02:00.181-04:00"}, {"id": 2472, "title": "Flappy Shot", "devlogs_count": 3, "created_at": "2025-06-21T04:55:20.960-04:00"}], "coding_time_seconds": 30513, "coding_time_seconds_today": 0, "balance": "You need to have a pocket watcher badge to view this.", "badges": [{"name": "Maiden Voyage", "text": "you shipped your first project! the journey begins...", "icon": "\ud83d\udea2"}], "created_at": "2025-06-19T10:12:46.251-04:00", "updated_at": "2025-09-10T22:55:58.825-04:00", "avatar": "https://secure.gravatar.com/avatar/e9f6fb8cd9bc47cbda865664c351832b.jpg?s=512&d=https%3A%2F%2Fa.slack-edge.com%2Fdf10d%2Fimg%2Favatars%2Fava_0021-512.png", "custom_css": null}, {"id": 9683, "slack_id": "U091R7E2N4B", "display_name": "Stephanie", "bio": null, "projects_count": 0, "devlogs_count": 0, "votes_count": 0, "ships_count": 0, "projects": [], "coding_time_seconds": 0, "coding_time_seconds_today": 0, "balance": "You need to have a pocket watcher badge to view this.", "badges": [], "created_at": "2025-06-19T10:15:20.051-04:00", "updated_at": "2025-07-03T19:52:58.086-04:00", "avatar": "https://secure.gravatar.com/avatar/ddc7c80dd5c5e5519496c64ef815a7e0.jpg?s=512&d=https%3A%2F%2Fa.slack-edge.com%2Fdf10d%2Fimg%2Favatars%2Fava_0021-512.png", "custom_css": null}, {"id": 9684, "slack_id": "U08C6GE40GH", "display_name": "FundimanDEV", "bio": null, "projects_count": 0, "devlogs_count": 0, "votes_count": 0, "ships_count": 0, "projects": [], "coding_time_seconds": 78531, "coding_time_seconds_today": 0, "balance": "You need to have a pocket watcher badge to view this.", "badges": [], "created_at": "2025-06-19T10:15:31.876-04:00", "updated_at": "2025-07-03T19:52:58.354-04:00", "avatar": "https://secure.gravatar.com/avatar/88e5f319b3d1eec7947cf7230154f0e5.jpg?s=512&d=https%3A%2F%2Fa.slack-edge.com%2Fdf10d%2Fimg%2Favatars%2Fava_0022-512.png", "custom_css": null}, {"id": 9685, "slack_id": "U091SFLRSFR", "display_name": "Bhavesh Petkar", "bio": null, "projects_count": 0, "devlogs_count": 0, "votes_count": 0, "ships_count": 0, "projects": [], "coding_time_seconds": 0, "coding_time_seconds_today": 0, "balance": "You need to have a pocket watcher badge to view this.", "badges": [], "created_at": "2025-06-19T10:16:46.219-04:00", "updated_at": "2025-07-05T08:11:13.356-04:00", "avatar": "https://avatars.slack-edge.com/2025-06-19/9074173194933_b80c005847329530218f_original.jpg", "custom_css": null}, {"id": 9686, "slack_id": "U0927KU5L04", "display_name": "Lucas", "bio": null, "projects_count": 11, "devlogs_count": 37, "votes_count": 123, "ships_count": 9, "projects": [{"id": 1873, "title": "Apogee", "devlogs_count": 0, "created_at": "2025-06-19T13:42:11.723-04:00"}, {"id": 2553, "title": "Portfolio", "devlogs_count": 1, "created_at": "2025-06-21T09:51:16.812-04:00"}, {"id": 3186, "title": "[Fork] RealFuels-Stock", "devlogs_count": 1, "created_at": "2025-06-23T11:22:01.470-04:00"}, {"id": 7104, "title": "Time calculator", "devlogs_count": 1, "created_at": "2025-07-19T02:42:41.991-04:00"}, {"id": 12908, "title": "skill-badges", "devlogs_count": 1, "created_at": "2025-09-05T04:40:30.943-04:00"}, {"id": 2144, "title": "github-licenses-stats", "devlogs_count": 14, "created_at": "2025-06-20T09:36:33.930-04:00"}, {"id": 13305, "title": "Exercism", "devlogs_count": 2, "created_at": "2025-09-13T17:18:19.883-04:00"}, {"id": 5309, "title": "KPM", "devlogs_count": 9, "created_at": "2025-07-04T11:32:09.327-04:00"}, {"id": 10783, "title": "[Rust] dioxus-leaflet", "devlogs_count": 3, "created_at": "2025-08-10T19:20:18.271-04:00"}, {"id": 2127, "title": "Userscripts", "devlogs_count": 2, "created_at": "2025-06-20T08:10:26.785-04:00"}, {"id": 1814, "title": "Skill-icons", "devlogs_count": 3, "created_at": "2025-06-19T10:27:35.600-04:00"}], "coding_time_seconds": 440357, "coding_time_seconds_today": 0, "balance": "You need to have a pocket watcher badge to view this.", "badges": [{"name": "Maiden Voyage", "text": "you shipped your first project! the journey begins...", "icon": "\ud83d\udea2"}, {"name": "Ballot Stuffer", "text": "vote 100 times.", "icon": "https://summer.hackclub.com/assets/i_voted-bf851b48.png"}], "created_at": "2025-06-19T10:16:56.477-04:00", "updated_at": "2025-09-10T22:55:58.941-04:00", "avatar": "https://avatars.slack-edge.com/2025-06-19/9075688854356_4aa81888b701b2a0b536_original.png", "custom_css": null}, {"id": 9687, "slack_id": "U0927KYSDC4", "display_name": "Daan", "bio": null, "projects_count": 0, "devlogs_count": 0, "votes_count": 0, "ships_count": 0, "projects": [], "coding_time_seconds": 0, "coding_time_seconds_today": 0, "balance": "You need to have a pocket watcher badge to view this.", "badges": [], "created_at": "2025-06-19T10:17:44.338-04:00", "updated_at": "2025-07-03T19:52:58.884-04:00", "avatar": "https://secure.gravatar.com/avatar/baa8a05262fbd50796e6898e1ae58d92.jpg?s=512&d=https%3A%2F%2Fa.slack-edge.com%2Fdf10d%2Fimg%2Favatars%2Fava_0013-512.png", "custom_css": null}, {"id": 9688, "slack_id": "U09264WBFRB", "display_name": "Fernanda Souza", "bio": null, "projects_count": 0, "devlogs_count": 0, "votes_count": 0, "ships_count": 0, "projects": [], "coding_time_seconds": 0, "coding_time_seconds_today": 0, "balance": "You need to have a pocket watcher badge to view this.", "badges": [], "created_at": "2025-06-19T10:19:48.302-04:00", "updated_at": "2025-07-03T19:52:59.148-04:00", "avatar": "https://secure.gravatar.com/avatar/5cc31db0cf46cfae08db566c6a092a60.jpg?s=512&d=https%3A%2F%2Fa.slack-edge.com%2Fdf10d%2Fimg%2Favatars%2Fava_0008-512.png", "custom_css": null}, {"id": 9689, "slack_id": "U091N82U7T5", "display_name": "Siddhant", "bio": null, "projects_count": 0, "devlogs_count": 0, "votes_count": 0, "ships_count": 0, "projects": [], "coding_time_seconds": 0, "coding_time_seconds_today": 0, "balance": "You need to have a pocket watcher badge to view this.", "badges": [], "created_at": "2025-06-19T10:21:09.497-04:00", "updated_at": "2025-07-03T19:52:59.424-04:00", "avatar": "https://secure.gravatar.com/avatar/fda19b1e33fc77396eaa71584ccc373d.jpg?s=512&d=https%3A%2F%2Fa.slack-edge.com%2Fdf10d%2Fimg%2Favatars%2Fava_0019-512.png", "custom_css": null}, {"id": 9690, "slack_id": "U09265GDTAR", "display_name": "Pranjal Vishwakarma", "bio": null, "projects_count": 0, "devlogs_count": 0, "votes_count": 0, "ships_count": 0, "projects": [], "coding_time_seconds": 0, "coding_time_seconds_today": 0, "balance": "You need to have a pocket watcher badge to view this.", "badges": [], "created_at": "2025-06-19T10:23:03.773-04:00", "updated_at": "2025-07-03T19:52:59.682-04:00", "avatar": "https://secure.gravatar.com/avatar/0f45a83293daf736f45541ffab73d298.jpg?s=512&d=https%3A%2F%2Fa.slack-edge.com%2Fdf10d%2Fimg%2Favatars%2Fava_0024-512.png", "custom_css": null}, {"id": 9691, "slack_id": "U07AE70NTAN", "display_name": "Jameson", "bio": null, "projects_count": 0, "devlogs_count": 0, "votes_count": 0, "ships_count": 0, "projects": [], "coding_time_seconds": 0, "coding_time_seconds_today": 0, "balance": "You need to have a pocket watcher badge to view this.", "badges": [], "created_at": "2025-06-19T10:24:45.737-04:00", "updated_at": "2025-07-03T19:52:59.933-04:00", "avatar": "https://secure.gravatar.com/avatar/dabb669f8ce6105d9aa56f31f1061146.jpg?s=512&d=https%3A%2F%2Fa.slack-edge.com%2Fdf10d%2Fimg%2Favatars%2Fava_0003-512.png", "custom_css": null}, {"id": 9692, "slack_id": "U092L4RDTRP", "display_name": "atlantis", "bio": null, "projects_count": 0, "devlogs_count": 0, "votes_count": 0, "ships_count": 0, "projects": [], "coding_time_seconds": 0, "coding_time_seconds_today": 0, "balance": "You need to have a pocket watcher badge to view this.", "badges": [], "created_at": "2025-06-19T10:24:52.017-04:00", "updated_at": "2025-07-03T19:53:00.191-04:00", "avatar": "https://secure.gravatar.com/avatar/ecad37078a2c4389f65d2e8ad8108fb1.jpg?s=512&d=https%3A%2F%2Fa.slack-edge.com%2Fdf10d%2Fimg%2Favatars%2Fava_0019-512.png", "custom_css": null}, {"id": 9693, "slack_id": "U09265XNT9T", "display_name": "doesn't matter", "bio": null, "projects_count": 0, "devlogs_count": 5, "votes_count": 1, "ships_count": 0, "projects": [], "coding_time_seconds": 379531, "coding_time_seconds_today": 0, "balance": "You need to have a pocket watcher badge to view this.", "badges": [], "created_at": "2025-06-19T10:25:20.668-04:00", "updated_at": "2025-09-14T10:33:00.580-04:00", "avatar": "https://avatars.slack-edge.com/2025-07-17/9212994370789_b8f29299ad66eb0ac5f0_original.png", "custom_css": null}, {"id": 9694, "slack_id": "U09265V06R3", "display_name": "Dinesh", "bio": null, "projects_count": 0, "devlogs_count": 0, "votes_count": 0, "ships_count": 0, "projects": [], "coding_time_seconds": 0, "coding_time_seconds_today": 0, "balance": "You need to have a pocket watcher badge to view this.", "badges": [], "created_at": "2025-06-19T10:26:21.456-04:00", "updated_at": "2025-07-04T02:29:22.829-04:00", "avatar": "https://secure.gravatar.com/avatar/7fde1db11390c8e1f4ddab5c3e46cf36.jpg?s=512&d=https%3A%2F%2Fa.slack-edge.com%2Fdf10d%2Fimg%2Favatars%2Fava_0022-512.png", "custom_css": null}, {"id": 9695, "slack_id": "U078A5HKZ9D", "display_name": "Oliv\u00e9r Pirger", "bio": "", "projects_count": 4, "devlogs_count": 38, "votes_count": 51, "ships_count": 2, "projects": [{"id": 11103, "title": "Libre Invites", "devlogs_count": 0, "created_at": "2025-08-13T07:20:19.458-04:00"}, {"id": 11786, "title": "Link: URL shortener", "devlogs_count": 0, "created_at": "2025-08-19T13:30:07.454-04:00"}, {"id": 9525, "title": "Overwatch Diff Avoider", "devlogs_count": 4, "created_at": "2025-08-01T15:02:05.358-04:00"}, {"id": 1825, "title": "SoundStash", "devlogs_count": 34, "created_at": "2025-06-19T11:04:26.933-04:00"}], "coding_time_seconds": 534891, "coding_time_seconds_today": 0, "balance": "You need to have a pocket watcher badge to view this.", "badges": [{"name": "Maiden Voyage", "text": "you shipped your first project! the journey begins...", "icon": "\ud83d\udea2"}], "created_at": "2025-06-19T10:27:15.154-04:00", "updated_at": "2025-09-10T22:55:59.179-04:00", "avatar": "https://avatars.slack-edge.com/2025-06-23/9091830635794_8b64e6dcdd056d286a98_original.png", "custom_css": null}, {"id": 9696, "slack_id": "U09277L7XFC", "display_name": "gaurav", "bio": null, "projects_count": 0, "devlogs_count": 0, "votes_count": 0, "ships_count": 0, "projects": [], "coding_time_seconds": 0, "coding_time_seconds_today": 0, "balance": "You need to have a pocket watcher badge to view this.", "badges": [], "created_at": "2025-06-19T10:27:29.800-04:00", "updated_at": "2025-07-03T19:53:01.135-04:00", "avatar": "https://secure.gravatar.com/avatar/18bd73a1a0f3104e816fe0ac42084aa6.jpg?s=512&d=https%3A%2F%2Fa.slack-edge.com%2Fdf10d%2Fimg%2Favatars%2Fava_0008-512.png", "custom_css": null}, {"id": 9697, "slack_id": "U092EPRNJ00", "display_name": "Saurav Khanal", "bio": null, "projects_count": 2, "devlogs_count": 1, "votes_count": 0, "ships_count": 0, "projects": [{"id": 1828, "title": "File Organizer", "devlogs_count": 1, "created_at": "2025-06-19T11:06:26.678-04:00"}, {"id": 1849, "title": "Personal Productivity Dashboard", "devlogs_count": 0, "created_at": "2025-06-19T12:10:50.812-04:00"}], "coding_time_seconds": 13921, "coding_time_seconds_today": 0, "balance": "You need to have a pocket watcher badge to view this.", "badges": [], "created_at": "2025-06-19T10:28:39.925-04:00", "updated_at": "2025-07-03T19:53:01.395-04:00", "avatar": "https://secure.gravatar.com/avatar/75b036fa4f7573a89ffb5971d1f7ea5a.jpg?s=512&d=https%3A%2F%2Fa.slack-edge.com%2Fdf10d%2Fimg%2Favatars%2Fava_0010-512.png", "custom_css": null}, {"id": 9698, "slack_id": "U0920UANG03", "display_name": "jnis", "bio": null, "projects_count": 0, "devlogs_count": 0, "votes_count": 0, "ships_count": 0, "projects": [], "coding_time_seconds": 0, "coding_time_seconds_today": 0, "balance": "You need to have a pocket watcher badge to view this.", "badges": [], "created_at": "2025-06-19T10:31:56.829-04:00", "updated_at": "2025-07-03T19:53:01.771-04:00", "avatar": "https://secure.gravatar.com/avatar/511963193975add2d1a65d79e2deaee3.jpg?s=512&d=https%3A%2F%2Fa.slack-edge.com%2Fdf10d%2Fimg%2Favatars%2Fava_0011-512.png", "custom_css": null}, {"id": 9699, "slack_id": "U09218J0E94", "display_name": "YogyaChugh", "bio": "Logic Grinding with unlimited coffee ! Do you even need oxygen after that ??\r\nJust trying to code unique stuff especially cross-platform softwares, such as my website builder and some others I am gonna build throughout this program !!", "projects_count": 6, "devlogs_count": 123, "votes_count": 130, "ships_count": 3, "projects": [{"id": 13256, "title": "Western Upside-Down Island", "devlogs_count": 1, "created_at": "2025-09-12T14:56:34.119-04:00"}, {"id": 13293, "title": "Vote Leaderboard", "devlogs_count": 3, "created_at": "2025-09-13T14:21:58.160-04:00"}, {"id": 6871, "title": "WEBBER", "devlogs_count": 25, "created_at": "2025-07-17T01:58:27.289-04:00"}, {"id": 3865, "title": "WEBELO", "devlogs_count": 49, "created_at": "2025-06-26T03:33:11.406-04:00"}, {"id": 12898, "title": "Jumping Ninja", "devlogs_count": 0, "created_at": "2025-09-04T20:48:59.263-04:00"}, {"id": 11077, "title": "Timberly", "devlogs_count": 45, "created_at": "2025-08-13T02:19:41.424-04:00"}], "coding_time_seconds": 1305306, "coding_time_seconds_today": 18310, "balance": "You need to have a pocket watcher badge to view this.", "badges": [{"name": "Maiden Voyage", "text": "you shipped your first project! the journey begins...", "icon": "\ud83d\udea2"}, {"name": "Ballot Stuffer", "text": "vote 100 times.", "icon": "https://summer.hackclub.com/assets/i_voted-bf851b48.png"}, {"name": "Yapper I", "text": "Posted 10 comments on devlogs.", "icon": "\ud83d\udcac"}], "created_at": "2025-06-19T10:36:45.959-04:00", "updated_at": "2025-09-12T03:21:25.446-04:00", "avatar": "https://avatars.slack-edge.com/2025-06-20/9090345160833_3cde8fc12be9701293ef_original.png", "custom_css": null}, {"id": 9700, "slack_id": "U09267QN1JR", "display_name": "Liam", "bio": null, "projects_count": 0, "devlogs_count": 0, "votes_count": 0, "ships_count": 0, "projects": [], "coding_time_seconds": 0, "coding_time_seconds_today": 0, "balance": "You need to have a pocket watcher badge to view this.", "badges": [], "created_at": "2025-06-19T10:37:04.482-04:00", "updated_at": "2025-07-03T19:53:02.303-04:00", "avatar": "https://secure.gravatar.com/avatar/8d3418fee920a3da94b0faf167048263.jpg?s=512&d=https%3A%2F%2Fa.slack-edge.com%2Fdf10d%2Fimg%2Favatars%2Fava_0009-512.png", "custom_css": null}], "pagination": {"page": 485, "pages": 1192, "count": 23828, "items": 20}}