{"users": [{"id": 9701, "slack_id": "U0927NYMMHA", "display_name": "Khanh Nguyen", "bio": null, "projects_count": 0, "devlogs_count": 0, "votes_count": 0, "ships_count": 0, "projects": [], "coding_time_seconds": 0, "coding_time_seconds_today": 0, "balance": "You need to have a pocket watcher badge to view this.", "badges": [], "created_at": "2025-06-19T10:40:58.507-04:00", "updated_at": "2025-07-04T20:10:20.283-04:00", "avatar": "https://avatars.slack-edge.com/2025-06-19/9075806050100_efa179d01d2cb1aa75a2_original.png", "custom_css": null}, {"id": 9702, "slack_id": "U092L7GAS0H", "display_name": "Syed Anas Ahmed", "bio": null, "projects_count": 0, "devlogs_count": 0, "votes_count": 0, "ships_count": 0, "projects": [], "coding_time_seconds": 0, "coding_time_seconds_today": 0, "balance": "You need to have a pocket watcher badge to view this.", "badges": [], "created_at": "2025-06-19T10:42:17.145-04:00", "updated_at": "2025-07-03T19:53:02.713-04:00", "avatar": "https://secure.gravatar.com/avatar/09e1fb063a1253b78ba68991aef3cefb.jpg?s=512&d=https%3A%2F%2Fa.slack-edge.com%2Fdf10d%2Fimg%2Favatars%2Fava_0005-512.png", "custom_css": null}, {"id": 9703, "slack_id": "U092197CLDC", "display_name": "Benjamin", "bio": null, "projects_count": 0, "devlogs_count": 0, "votes_count": 0, "ships_count": 0, "projects": [], "coding_time_seconds": 1435, "coding_time_seconds_today": 0, "balance": "You need to have a pocket watcher badge to view this.", "badges": [], "created_at": "2025-06-19T10:42:25.530-04:00", "updated_at": "2025-07-03T19:53:02.990-04:00", "avatar": "https://secure.gravatar.com/avatar/86bf6c6821b5787bf7dd11ab3aae322c.jpg?s=512&d=https%3A%2F%2Fa.slack-edge.com%2Fdf10d%2Fimg%2Favatars%2Fava_0018-512.png", "custom_css": null}, {"id": 9704, "slack_id": "U092L7QJA3B", "display_name": "susindran", "bio": null, "projects_count": 0, "devlogs_count": 6, "votes_count": 18, "ships_count": 0, "projects": [], "coding_time_seconds": 492170, "coding_time_seconds_today": 0, "balance": "You need to have a pocket watcher badge to view this.", "badges": [{"name": "Maiden Voyage", "text": "you shipped your first project! the journey begins...", "icon": "\ud83d\udea2"}], "created_at": "2025-06-19T10:43:31.955-04:00", "updated_at": "2025-09-10T22:55:59.419-04:00", "avatar": "https://secure.gravatar.com/avatar/49407acc6579ce959501ba82af4b01e5.jpg?s=512&d=https%3A%2F%2Fa.slack-edge.com%2Fdf10d%2Fimg%2Favatars%2Fava_0006-512.png", "custom_css": null}, {"id": 9705, "slack_id": "U092L4VLTDF", "display_name": "Sujeet", "bio": null, "projects_count": 0, "devlogs_count": 0, "votes_count": 0, "ships_count": 0, "projects": [], "coding_time_seconds": 0, "coding_time_seconds_today": 0, "balance": "You need to have a pocket watcher badge to view this.", "badges": [], "created_at": "2025-06-19T10:46:02.842-04:00", "updated_at": "2025-07-03T19:53:03.529-04:00", "avatar": "https://secure.gravatar.com/avatar/93d548deff9008fd7dc06b2fc5e9f47b.jpg?s=512&d=https%3A%2F%2Fa.slack-edge.com%2Fdf10d%2Fimg%2Favatars%2Fava_0003-512.png", "custom_css": null}, {"id": 9706, "slack_id": "U091QNQR56G", "display_name": "Israr Ahmad", "bio": null, "projects_count": 0, "devlogs_count": 0, "votes_count": 0, "ships_count": 0, "projects": [], "coding_time_seconds": 0, "coding_time_seconds_today": 0, "balance": "You need to have a pocket watcher badge to view this.", "badges": [], "created_at": "2025-06-19T10:46:48.840-04:00", "updated_at": "2025-07-03T19:53:03.791-04:00", "avatar": "https://avatars.slack-edge.com/2025-06-19/9097962770704_54e4d221ababcbab225b_original.png", "custom_css": null}, {"id": 9707, "slack_id": "U09269CJPRB", "display_name": "Luke", "bio": null, "projects_count": 0, "devlogs_count": 0, "votes_count": 0, "ships_count": 0, "projects": [], "coding_time_seconds": 0, "coding_time_seconds_today": 0, "balance": "You need to have a pocket watcher badge to view this.", "badges": [], "created_at": "2025-06-19T10:48:29.483-04:00", "updated_at": "2025-07-07T15:07:21.849-04:00", "avatar": "https://secure.gravatar.com/avatar/0c51ce8d0dd983d497491a5a740520e7.jpg?s=512&d=https%3A%2F%2Fa.slack-edge.com%2Fdf10d%2Fimg%2Favatars%2Fava_0011-512.png", "custom_css": null}, {"id": 9708, "slack_id": "U09211TMNG3", "display_name": "Eraquos", "bio": null, "projects_count": 0, "devlogs_count": 0, "votes_count": 0, "ships_count": 0, "projects": [], "coding_time_seconds": 0, "coding_time_seconds_today": 0, "balance": "You need to have a pocket watcher badge to view this.", "badges": [], "created_at": "2025-06-19T10:49:30.354-04:00", "updated_at": "2025-07-05T08:11:14.806-04:00", "avatar": "https://secure.gravatar.com/avatar/42123bb0f52685eaba4e9de46e752979.jpg?s=512&d=https%3A%2F%2Fa.slack-edge.com%2Fdf10d%2Fimg%2Favatars%2Fava_0014-512.png", "custom_css": null}, {"id": 9709, "slack_id": "U0927QHRXSQ", "display_name": "Krupa Bhosale", "bio": null, "projects_count": 0, "devlogs_count": 0, "votes_count": 0, "ships_count": 0, "projects": [], "coding_time_seconds": 0, "coding_time_seconds_today": 0, "balance": "You need to have a pocket watcher badge to view this.", "badges": [], "created_at": "2025-06-19T10:49:59.892-04:00", "updated_at": "2025-07-04T08:25:40.483-04:00", "avatar": "https://avatars.slack-edge.com/2025-06-19/9088308889329_fe384b7fee9f85913b6a_original.png", "custom_css": null}, {"id": 9710, "slack_id": "U0927QMTSS0", "display_name": "TruckiHD", "bio": null, "projects_count": 2, "devlogs_count": 0, "votes_count": 0, "ships_count": 0, "projects": [{"id": 1867, "title": "Reframe", "devlogs_count": 0, "created_at": "2025-06-19T13:18:56.123-04:00"}, {"id": 3528, "title": "MemoryLane", "devlogs_count": 0, "created_at": "2025-06-24T15:19:23.930-04:00"}], "coding_time_seconds": 540200, "coding_time_seconds_today": 1552, "balance": "You need to have a pocket watcher badge to view this.", "badges": [], "created_at": "2025-06-19T10:51:09.173-04:00", "updated_at": "2025-07-03T19:53:04.652-04:00", "avatar": "https://secure.gravatar.com/avatar/885646737f562365d9030318f551cc2b.jpg?s=512&d=https%3A%2F%2Fa.slack-edge.com%2Fdf10d%2Fimg%2Favatars%2Fava_0019-512.png", "custom_css": null}, {"id": 9711, "slack_id": "U092L8TS6BB", "display_name": "suyoung kim", "bio": null, "projects_count": 0, "devlogs_count": 0, "votes_count": 0, "ships_count": 0, "projects": [], "coding_time_seconds": 0, "coding_time_seconds_today": 0, "balance": "You need to have a pocket watcher badge to view this.", "badges": [], "created_at": "2025-06-19T10:51:27.717-04:00", "updated_at": "2025-07-03T19:53:04.912-04:00", "avatar": "https://avatars.slack-edge.com/2025-06-19/9069084506963_b63ff2228cdfa21809e3_original.png", "custom_css": null}, {"id": 9712, "slack_id": "U091SLCJN95", "display_name": "Sam", "bio": null, "projects_count": 0, "devlogs_count": 0, "votes_count": 0, "ships_count": 0, "projects": [], "coding_time_seconds": 4920, "coding_time_seconds_today": 0, "balance": "You need to have a pocket watcher badge to view this.", "badges": [], "created_at": "2025-06-19T10:51:30.628-04:00", "updated_at": "2025-07-03T19:53:05.165-04:00", "avatar": "https://secure.gravatar.com/avatar/a3df25d4417fb7225335679618471304.jpg?s=512&d=https%3A%2F%2Fa.slack-edge.com%2Fdf10d%2Fimg%2Favatars%2Fava_0000-512.png", "custom_css": null}, {"id": 9713, "slack_id": "U0927QDS62G", "display_name": "sanjith", "bio": null, "projects_count": 0, "devlogs_count": 0, "votes_count": 0, "ships_count": 0, "projects": [], "coding_time_seconds": 0, "coding_time_seconds_today": 0, "balance": "You need to have a pocket watcher badge to view this.", "badges": [], "created_at": "2025-06-19T10:51:52.733-04:00", "updated_at": "2025-07-06T20:11:13.783-04:00", "avatar": "https://avatars.slack-edge.com/2025-06-19/9075388612866_740d26a35523c63eadc7_original.jpg", "custom_css": null}, {"id": 9714, "slack_id": "U082SGQTX6C", "display_name": "aa55h", "bio": null, "projects_count": 1, "devlogs_count": 1, "votes_count": 0, "ships_count": 0, "projects": [{"id": 3083, "title": "CraftPanel", "devlogs_count": 1, "created_at": "2025-06-23T03:24:32.679-04:00"}], "coding_time_seconds": 736263, "coding_time_seconds_today": 189, "balance": "You need to have a pocket watcher badge to view this.", "badges": [], "created_at": "2025-06-19T10:52:05.215-04:00", "updated_at": "2025-07-03T19:53:05.562-04:00", "avatar": "https://avatars.slack-edge.com/2025-02-23/8497479602466_283f762e0a4ab62db461_original.png", "custom_css": null}, {"id": 9715, "slack_id": "U0926AGTP61", "display_name": "Alex Munasinghe", "bio": null, "projects_count": 0, "devlogs_count": 0, "votes_count": 0, "ships_count": 0, "projects": [], "coding_time_seconds": 0, "coding_time_seconds_today": 0, "balance": "You need to have a pocket watcher badge to view this.", "badges": [], "created_at": "2025-06-19T10:57:16.165-04:00", "updated_at": "2025-07-03T19:53:05.832-04:00", "avatar": "https://secure.gravatar.com/avatar/391806b5c79c012b72c6433960981192.jpg?s=512&d=https%3A%2F%2Fa.slack-edge.com%2Fdf10d%2Fimg%2Favatars%2Fava_0012-512.png", "custom_css": null}, {"id": 9716, "slack_id": "U0927RJ9YSG", "display_name": "Shubham", "bio": null, "projects_count": 0, "devlogs_count": 0, "votes_count": 0, "ships_count": 0, "projects": [], "coding_time_seconds": 0, "coding_time_seconds_today": 0, "balance": "You need to have a pocket watcher badge to view this.", "badges": [], "created_at": "2025-06-19T11:00:09.162-04:00", "updated_at": "2025-07-03T19:53:06.091-04:00", "avatar": "https://secure.gravatar.com/avatar/1ef71f5538fc041765092877e9e6e942.jpg?s=512&d=https%3A%2F%2Fa.slack-edge.com%2Fdf10d%2Fimg%2Favatars%2Fava_0023-512.png", "custom_css": null}, {"id": 9717, "slack_id": "U092L9VLF17", "display_name": "Malya Choudhary", "bio": null, "projects_count": 1, "devlogs_count": 3, "votes_count": 1, "ships_count": 0, "projects": [{"id": 12542, "title": "HangO", "devlogs_count": 3, "created_at": "2025-08-29T07:48:57.775-04:00"}], "coding_time_seconds": 34606, "coding_time_seconds_today": 0, "balance": "You need to have a pocket watcher badge to view this.", "badges": [], "created_at": "2025-06-19T11:00:47.594-04:00", "updated_at": "2025-08-24T14:30:03.813-04:00", "avatar": "https://secure.gravatar.com/avatar/60c33c721f73ea6b7e2b5cb41dd0233a.jpg?s=512&d=https%3A%2F%2Fa.slack-edge.com%2Fdf10d%2Fimg%2Favatars%2Fava_0007-512.png", "custom_css": null}, {"id": 9718, "slack_id": "U092W0CG848", "display_name": "Ashrith Velisoju", "bio": null, "projects_count": 0, "devlogs_count": 0, "votes_count": 0, "ships_count": 0, "projects": [], "coding_time_seconds": 0, "coding_time_seconds_today": 0, "balance": "You need to have a pocket watcher badge to view this.", "badges": [], "created_at": "2025-06-19T11:00:53.467-04:00", "updated_at": "2025-07-03T19:53:06.628-04:00", "avatar": "https://secure.gravatar.com/avatar/4eab5ffb63c5304f29f4f364cd9baf74.jpg?s=512&d=https%3A%2F%2Fa.slack-edge.com%2Fdf10d%2Fimg%2Favatars%2Fava_0021-512.png", "custom_css": null}, {"id": 9719, "slack_id": "U092VV5LRC0", "display_name": "Sebastian Sierra", "bio": null, "projects_count": 0, "devlogs_count": 0, "votes_count": 0, "ships_count": 0, "projects": [], "coding_time_seconds": 0, "coding_time_seconds_today": 0, "balance": "You need to have a pocket watcher badge to view this.", "badges": [], "created_at": "2025-06-19T11:02:15.661-04:00", "updated_at": "2025-07-03T19:53:06.893-04:00", "avatar": "https://secure.gravatar.com/avatar/5655be5761b4af62166d5aee61d137e5.jpg?s=512&d=https%3A%2F%2Fa.slack-edge.com%2Fdf10d%2Fimg%2Favatars%2Fava_0006-512.png", "custom_css": null}, {"id": 9720, "slack_id": "U092LASE72M", "display_name": "Sanjay", "bio": null, "projects_count": 1, "devlogs_count": 1, "votes_count": 0, "ships_count": 0, "projects": [{"id": 1839, "title": "Visa CMS", "devlogs_count": 1, "created_at": "2025-06-19T11:47:21.027-04:00"}], "coding_time_seconds": 7754, "coding_time_seconds_today": 0, "balance": "You need to have a pocket watcher badge to view this.", "badges": [], "created_at": "2025-06-19T11:03:08.378-04:00", "updated_at": "2025-07-03T19:53:07.162-04:00", "avatar": "https://secure.gravatar.com/avatar/7a73c8a95f136763f0131affcb162271.jpg?s=512&d=https%3A%2F%2Fa.slack-edge.com%2Fdf10d%2Fimg%2Favatars%2Fava_0005-512.png", "custom_css": null}], "pagination": {"page": 486, "pages": 1192, "count": 23828, "items": 20}}