{"users": [{"id": 9721, "slack_id": "U091SADRC5V", "display_name": "3nderall", "bio": null, "projects_count": 0, "devlogs_count": 0, "votes_count": 0, "ships_count": 0, "projects": [], "coding_time_seconds": 0, "coding_time_seconds_today": 0, "balance": "You need to have a pocket watcher badge to view this.", "badges": [], "created_at": "2025-06-19T11:04:58.043-04:00", "updated_at": "2025-07-03T19:53:07.422-04:00", "avatar": "https://secure.gravatar.com/avatar/cf27fc24b2bfb9a59b94432859ac1603.jpg?s=512&d=https%3A%2F%2Fa.slack-edge.com%2Fdf10d%2Fimg%2Favatars%2Fava_0008-512.png", "custom_css": null}, {"id": 9722, "slack_id": "U091KRP25ML", "display_name": "Rujjal Sada", "bio": null, "projects_count": 0, "devlogs_count": 0, "votes_count": 0, "ships_count": 0, "projects": [], "coding_time_seconds": 0, "coding_time_seconds_today": 0, "balance": "You need to have a pocket watcher badge to view this.", "badges": [], "created_at": "2025-06-19T11:06:12.564-04:00", "updated_at": "2025-07-03T21:48:02.980-04:00", "avatar": "https://avatars.slack-edge.com/2025-06-19/9069162342387_6731f80c5cf7dd0e34d9_original.png", "custom_css": null}, {"id": 9723, "slack_id": "U092W13P5R6", "display_name": "Krishna chaitanya Ethamukkala", "bio": null, "projects_count": 0, "devlogs_count": 0, "votes_count": 0, "ships_count": 0, "projects": [], "coding_time_seconds": 5971, "coding_time_seconds_today": 0, "balance": "You need to have a pocket watcher badge to view this.", "badges": [], "created_at": "2025-06-19T11:07:02.937-04:00", "updated_at": "2025-07-03T19:53:07.826-04:00", "avatar": "https://secure.gravatar.com/avatar/26da4909e3b6a0de972586aaf81bf021.jpg?s=512&d=https%3A%2F%2Fa.slack-edge.com%2Fdf10d%2Fimg%2Favatars%2Fava_0023-512.png", "custom_css": null}, {"id": 9724, "slack_id": "U092LBB12KT", "display_name": "kabir", "bio": null, "projects_count": 0, "devlogs_count": 0, "votes_count": 0, "ships_count": 0, "projects": [], "coding_time_seconds": 0, "coding_time_seconds_today": 0, "balance": "You need to have a pocket watcher badge to view this.", "badges": [], "created_at": "2025-06-19T11:09:29.291-04:00", "updated_at": "2025-07-03T19:53:08.092-04:00", "avatar": "https://secure.gravatar.com/avatar/9dd36b31469d3010b33656807d91fbff.jpg?s=512&d=https%3A%2F%2Fa.slack-edge.com%2Fdf10d%2Fimg%2Favatars%2Fava_0007-512.png", "custom_css": null}, {"id": 9725, "slack_id": "U091SNPGGTV", "display_name": "babstiaan Pepertjes", "bio": null, "projects_count": 1, "devlogs_count": 1, "votes_count": 0, "ships_count": 0, "projects": [{"id": 3653, "title": "stopwatch", "devlogs_count": 1, "created_at": "2025-06-25T05:22:57.215-04:00"}], "coding_time_seconds": 11244, "coding_time_seconds_today": 0, "balance": "You need to have a pocket watcher badge to view this.", "badges": [], "created_at": "2025-06-19T11:11:47.504-04:00", "updated_at": "2025-07-03T19:53:08.348-04:00", "avatar": "https://avatars.slack-edge.com/2025-06-19/9069489938854_909fdf5f5f59d31fe1ab_original.png", "custom_css": null}, {"id": 9726, "slack_id": "U0921E1VAKG", "display_name": "Pranav A", "bio": null, "projects_count": 0, "devlogs_count": 0, "votes_count": 0, "ships_count": 0, "projects": [], "coding_time_seconds": 0, "coding_time_seconds_today": 0, "balance": "You need to have a pocket watcher badge to view this.", "badges": [], "created_at": "2025-06-19T11:12:57.237-04:00", "updated_at": "2025-07-05T08:11:15.913-04:00", "avatar": "https://secure.gravatar.com/avatar/2092799a6bc88cbdf1f375220b209247.jpg?s=512&d=https%3A%2F%2Fa.slack-edge.com%2Fdf10d%2Fimg%2Favatars%2Fava_0011-512.png", "custom_css": null}, {"id": 9727, "slack_id": "U0926DCK42H", "display_name": "Jes\u00fas", "bio": null, "projects_count": 0, "devlogs_count": 0, "votes_count": 0, "ships_count": 0, "projects": [], "coding_time_seconds": 0, "coding_time_seconds_today": 0, "balance": "You need to have a pocket watcher badge to view this.", "badges": [], "created_at": "2025-06-19T11:14:03.145-04:00", "updated_at": "2025-07-03T19:53:08.818-04:00", "avatar": "https://secure.gravatar.com/avatar/d6651abd856e179a2c1328de2223b122.jpg?s=512&d=https%3A%2F%2Fa.slack-edge.com%2Fdf10d%2Fimg%2Favatars%2Fava_0006-512.png", "custom_css": null}, {"id": 9728, "slack_id": "U09214SBWP5", "display_name": "FestinoHS", "bio": null, "projects_count": 0, "devlogs_count": 0, "votes_count": 0, "ships_count": 0, "projects": [], "coding_time_seconds": 12338, "coding_time_seconds_today": 0, "balance": "You need to have a pocket watcher badge to view this.", "badges": [], "created_at": "2025-06-19T11:14:49.050-04:00", "updated_at": "2025-07-03T19:53:09.078-04:00", "avatar": "https://secure.gravatar.com/avatar/d867224df3bc965056583552a72f736f.jpg?s=512&d=https%3A%2F%2Fa.slack-edge.com%2Fdf10d%2Fimg%2Favatars%2Fava_0003-512.png", "custom_css": null}, {"id": 9729, "slack_id": "U0926D9DN69", "display_name": "Tejas Kakani", "bio": null, "projects_count": 0, "devlogs_count": 0, "votes_count": 0, "ships_count": 0, "projects": [], "coding_time_seconds": 99185, "coding_time_seconds_today": 0, "balance": "You need to have a pocket watcher badge to view this.", "badges": [], "created_at": "2025-06-19T11:14:49.312-04:00", "updated_at": "2025-07-03T19:53:09.345-04:00", "avatar": "https://secure.gravatar.com/avatar/3dd2994afb705dcb835528b5b8d8fa4e.jpg?s=512&d=https%3A%2F%2Fa.slack-edge.com%2Fdf10d%2Fimg%2Favatars%2Fava_0002-512.png", "custom_css": null}, {"id": 9730, "slack_id": "U0926DKCTGD", "display_name": "Oren", "bio": null, "projects_count": 3, "devlogs_count": 4, "votes_count": 18, "ships_count": 1, "projects": [{"id": 11526, "title": "MonoGame Colors Tool", "devlogs_count": 1, "created_at": "2025-08-16T15:32:55.672-04:00"}, {"id": 13138, "title": "Minesweeper", "devlogs_count": 1, "created_at": "2025-09-09T12:33:01.723-04:00"}, {"id": 9092, "title": "Projects Directory CLI Tool", "devlogs_count": 2, "created_at": "2025-07-30T14:44:01.562-04:00"}], "coding_time_seconds": 189955, "coding_time_seconds_today": 0, "balance": "You need to have a pocket watcher badge to view this.", "badges": [{"name": "Maiden Voyage", "text": "you shipped your first project! the journey begins...", "icon": "\ud83d\udea2"}], "created_at": "2025-06-19T11:15:01.908-04:00", "updated_at": "2025-09-10T22:56:00.084-04:00", "avatar": "https://avatars.slack-edge.com/2025-07-30/9277187191926_4c44cb4eab115fde8775_original.png", "custom_css": null}, {"id": 9731, "slack_id": "U0921EHK546", "display_name": "arya", "bio": null, "projects_count": 0, "devlogs_count": 0, "votes_count": 0, "ships_count": 0, "projects": [], "coding_time_seconds": 0, "coding_time_seconds_today": 0, "balance": "You need to have a pocket watcher badge to view this.", "badges": [], "created_at": "2025-06-19T11:15:39.371-04:00", "updated_at": "2025-07-03T19:53:09.859-04:00", "avatar": "https://secure.gravatar.com/avatar/537295e8c6c90954f06b5aef64572365.jpg?s=512&d=https%3A%2F%2Fa.slack-edge.com%2Fdf10d%2Fimg%2Favatars%2Fava_0010-512.png", "custom_css": null}, {"id": 9732, "slack_id": "U08J5J81CJH", "display_name": "Nefm", "bio": null, "projects_count": 0, "devlogs_count": 0, "votes_count": 0, "ships_count": 0, "projects": [], "coding_time_seconds": 119237, "coding_time_seconds_today": 0, "balance": "You need to have a pocket watcher badge to view this.", "badges": [], "created_at": "2025-06-19T11:17:15.884-04:00", "updated_at": "2025-09-10T08:49:13.534-04:00", "avatar": "https://secure.gravatar.com/avatar/e702840116ed7e4802e61cf307440e60.jpg?s=512&d=https%3A%2F%2Fa.slack-edge.com%2Fdf10d%2Fimg%2Favatars%2Fava_0000-512.png", "custom_css": null}, {"id": 9733, "slack_id": "U0927ESH9BL", "display_name": "shimstart", "bio": null, "projects_count": 2, "devlogs_count": 3, "votes_count": 0, "ships_count": 0, "projects": [{"id": 2966, "title": "Crossdump", "devlogs_count": 3, "created_at": "2025-06-22T15:43:10.948-04:00"}, {"id": 4146, "title": "project_inout", "devlogs_count": 0, "created_at": "2025-06-27T21:07:11.825-04:00"}], "coding_time_seconds": 301022, "coding_time_seconds_today": 0, "balance": "You need to have a pocket watcher badge to view this.", "badges": [], "created_at": "2025-06-19T11:17:16.065-04:00", "updated_at": "2025-08-24T15:31:33.541-04:00", "avatar": "https://secure.gravatar.com/avatar/7d64fc1f3ef8423502a77c29339cbe08.jpg?s=512&d=https%3A%2F%2Fa.slack-edge.com%2Fdf10d%2Fimg%2Favatars%2Fava_0009-512.png", "custom_css": null}, {"id": 9734, "slack_id": "U0921F9AR46", "display_name": "zinitex", "bio": null, "projects_count": 0, "devlogs_count": 0, "votes_count": 0, "ships_count": 0, "projects": [], "coding_time_seconds": 0, "coding_time_seconds_today": 0, "balance": "You need to have a pocket watcher badge to view this.", "badges": [], "created_at": "2025-06-19T11:20:30.019-04:00", "updated_at": "2025-07-04T20:10:22.208-04:00", "avatar": "https://secure.gravatar.com/avatar/78e73e34002a796ec40ceeb93cf4eaf4.jpg?s=512&d=https%3A%2F%2Fa.slack-edge.com%2Fdf10d%2Fimg%2Favatars%2Fava_0021-512.png", "custom_css": null}, {"id": 9735, "slack_id": "U092W3C0ARE", "display_name": "MohamedAbdelaziz", "bio": null, "projects_count": 0, "devlogs_count": 0, "votes_count": 0, "ships_count": 0, "projects": [], "coding_time_seconds": 12227, "coding_time_seconds_today": 0, "balance": "You need to have a pocket watcher badge to view this.", "badges": [], "created_at": "2025-06-19T11:24:02.974-04:00", "updated_at": "2025-07-03T22:00:06.089-04:00", "avatar": "https://avatars.slack-edge.com/2025-06-19/9070385049299_658a5c6247c18b15813c_original.jpg", "custom_css": null}, {"id": 9736, "slack_id": "U08UXCJQ7LL", "display_name": "Chloe", "bio": null, "projects_count": 1, "devlogs_count": 0, "votes_count": 0, "ships_count": 0, "projects": [{"id": 1840, "title": "which new balance shoe are you ?!", "devlogs_count": 0, "created_at": "2025-06-19T11:49:09.046-04:00"}], "coding_time_seconds": 39110, "coding_time_seconds_today": 0, "balance": "You need to have a pocket watcher badge to view this.", "badges": [], "created_at": "2025-06-19T11:25:01.839-04:00", "updated_at": "2025-07-03T19:53:10.810-04:00", "avatar": "https://avatars.slack-edge.com/2025-06-19/9060999714535_e8391aa142a930afb613_original.jpg", "custom_css": null}, {"id": 9737, "slack_id": "U0921G195DL", "display_name": "Sarvesh Kishore", "bio": null, "projects_count": 0, "devlogs_count": 0, "votes_count": 0, "ships_count": 0, "projects": [], "coding_time_seconds": 0, "coding_time_seconds_today": 0, "balance": "You need to have a pocket watcher badge to view this.", "badges": [], "created_at": "2025-06-19T11:25:47.507-04:00", "updated_at": "2025-07-03T22:00:06.268-04:00", "avatar": "https://avatars.slack-edge.com/2025-06-19/9075552432626_60ac5d145ba139345a7f_original.jpg", "custom_css": null}, {"id": 9738, "slack_id": "U092LE42USV", "display_name": "ezekaj", "bio": null, "projects_count": 0, "devlogs_count": 0, "votes_count": 0, "ships_count": 0, "projects": [], "coding_time_seconds": 0, "coding_time_seconds_today": 0, "balance": "You need to have a pocket watcher badge to view this.", "badges": [], "created_at": "2025-06-19T11:26:38.800-04:00", "updated_at": "2025-07-03T19:53:11.221-04:00", "avatar": "https://secure.gravatar.com/avatar/169fc1ceaa9a056a330cda60cfe9bc83.jpg?s=512&d=https%3A%2F%2Fa.slack-edge.com%2Fdf10d%2Fimg%2Favatars%2Fava_0010-512.png", "custom_css": null}, {"id": 9739, "slack_id": "U091SS0BXLP", "display_name": "Samuel", "bio": null, "projects_count": 0, "devlogs_count": 0, "votes_count": 1, "ships_count": 0, "projects": [], "coding_time_seconds": 29163, "coding_time_seconds_today": 0, "balance": "You need to have a pocket watcher badge to view this.", "badges": [], "created_at": "2025-06-19T11:26:48.398-04:00", "updated_at": "2025-07-03T19:53:12.128-04:00", "avatar": "https://secure.gravatar.com/avatar/2ce0a3fb9a5c6440c0c567e039263aef.jpg?s=512&d=https%3A%2F%2Fa.slack-edge.com%2Fdf10d%2Fimg%2Favatars%2Fava_0001-512.png", "custom_css": null}, {"id": 9740, "slack_id": "U091SS26TGX", "display_name": "Aryan", "bio": null, "projects_count": 1, "devlogs_count": 0, "votes_count": 1, "ships_count": 0, "projects": [{"id": 4824, "title": "Mosquito's Scape run", "devlogs_count": 0, "created_at": "2025-07-01T18:00:28.622-04:00"}], "coding_time_seconds": 35275, "coding_time_seconds_today": 0, "balance": "You need to have a pocket watcher badge to view this.", "badges": [], "created_at": "2025-06-19T11:28:27.840-04:00", "updated_at": "2025-07-12T11:12:10.055-04:00", "avatar": "https://avatars.slack-edge.com/2025-06-28/9104910325639_61f3071dea74b523cd82_original.jpg", "custom_css": null}], "pagination": {"page": 487, "pages": 1192, "count": 23828, "items": 20}}