{"users": [{"id": 9741, "slack_id": "U092W3SJAP2", "display_name": "Taha Rawjani", "bio": null, "projects_count": 2, "devlogs_count": 3, "votes_count": 0, "ships_count": 0, "projects": [{"id": 2022, "title": "Competitive Programming", "devlogs_count": 2, "created_at": "2025-06-19T23:04:20.846-04:00"}, {"id": 2401, "title": "CHIP8-EMU", "devlogs_count": 1, "created_at": "2025-06-20T23:34:38.185-04:00"}], "coding_time_seconds": 50124, "coding_time_seconds_today": 0, "balance": "You need to have a pocket watcher badge to view this.", "badges": [], "created_at": "2025-06-19T11:28:47.446-04:00", "updated_at": "2025-07-03T19:53:12.725-04:00", "avatar": "https://secure.gravatar.com/avatar/55db2236cf39c9f72ca8e38f5ae5cfe9.jpg?s=512&d=https%3A%2F%2Fa.slack-edge.com%2Fdf10d%2Fimg%2Favatars%2Fava_0002-512.png", "custom_css": null}, {"id": 9742, "slack_id": "U0921GN5L30", "display_name": "Faisal sayed", "bio": null, "projects_count": 0, "devlogs_count": 0, "votes_count": 0, "ships_count": 0, "projects": [], "coding_time_seconds": 0, "coding_time_seconds_today": 0, "balance": "You need to have a pocket watcher badge to view this.", "badges": [], "created_at": "2025-06-19T11:30:25.886-04:00", "updated_at": "2025-07-03T19:53:12.986-04:00", "avatar": "https://avatars.slack-edge.com/2025-06-19/9076051008100_5e7aefe324def9508b48_original.png", "custom_css": null}, {"id": 9743, "slack_id": "U092W4XKFEC", "display_name": "Abdullah Al Mamun Apu", "bio": null, "projects_count": 0, "devlogs_count": 0, "votes_count": 0, "ships_count": 0, "projects": [], "coding_time_seconds": 0, "coding_time_seconds_today": 0, "balance": "You need to have a pocket watcher badge to view this.", "badges": [], "created_at": "2025-06-19T11:33:30.951-04:00", "updated_at": "2025-07-03T19:53:13.254-04:00", "avatar": "https://secure.gravatar.com/avatar/c4615fcfd4edeca723be54e3b4a35cc4.jpg?s=512&d=https%3A%2F%2Fa.slack-edge.com%2Fdf10d%2Fimg%2Favatars%2Fava_0015-512.png", "custom_css": null}, {"id": 9744, "slack_id": "U092LEL2QKB", "display_name": "motene", "bio": null, "projects_count": 0, "devlogs_count": 0, "votes_count": 0, "ships_count": 0, "projects": [], "coding_time_seconds": 8339, "coding_time_seconds_today": 0, "balance": "You need to have a pocket watcher badge to view this.", "badges": [], "created_at": "2025-06-19T11:33:48.074-04:00", "updated_at": "2025-07-03T19:53:13.528-04:00", "avatar": "https://secure.gravatar.com/avatar/23a1f0e83475c098f0b87075146bc877.jpg?s=512&d=https%3A%2F%2Fa.slack-edge.com%2Fdf10d%2Fimg%2Favatars%2Fava_0020-512.png", "custom_css": null}, {"id": 9745, "slack_id": "U091ST5451V", "display_name": "Archer House", "bio": null, "projects_count": 0, "devlogs_count": 0, "votes_count": 0, "ships_count": 0, "projects": [], "coding_time_seconds": 0, "coding_time_seconds_today": 0, "balance": "You need to have a pocket watcher badge to view this.", "badges": [], "created_at": "2025-06-19T11:35:12.862-04:00", "updated_at": "2025-07-03T19:53:13.803-04:00", "avatar": "https://secure.gravatar.com/avatar/09568aef44e7fb7237517c3fb8051d9d.jpg?s=512&d=https%3A%2F%2Fa.slack-edge.com%2Fdf10d%2Fimg%2Favatars%2Fava_0015-512.png", "custom_css": null}, {"id": 9746, "slack_id": "U091ST9DULF", "display_name": "James Lakko", "bio": null, "projects_count": 0, "devlogs_count": 0, "votes_count": 0, "ships_count": 0, "projects": [], "coding_time_seconds": 0, "coding_time_seconds_today": 0, "balance": "You need to have a pocket watcher badge to view this.", "badges": [], "created_at": "2025-06-19T11:38:29.446-04:00", "updated_at": "2025-07-03T19:53:14.075-04:00", "avatar": "https://secure.gravatar.com/avatar/0e8f180ba6c9e94733d6cd145ccb6e40.jpg?s=512&d=https%3A%2F%2Fa.slack-edge.com%2Fdf10d%2Fimg%2Favatars%2Fava_0004-512.png", "custom_css": null}, {"id": 9747, "slack_id": "U082UCK9610", "display_name": "Satyam Kumar", "bio": null, "projects_count": 3, "devlogs_count": 5, "votes_count": 81, "ships_count": 3, "projects": [{"id": 12299, "title": "Buzzy_Mosquito", "devlogs_count": 1, "created_at": "2025-08-25T11:18:48.791-04:00"}, {"id": 11477, "title": "Dodge", "devlogs_count": 3, "created_at": "2025-08-16T08:17:06.969-04:00"}, {"id": 13406, "title": "Hot_Choices", "devlogs_count": 1, "created_at": "2025-09-15T13:56:43.944-04:00"}], "coding_time_seconds": 245691, "coding_time_seconds_today": 240, "balance": "You need to have a pocket watcher badge to view this.", "badges": [{"name": "Maiden Voyage", "text": "you shipped your first project! the journey begins...", "icon": "\ud83d\udea2"}], "created_at": "2025-06-19T11:38:30.868-04:00", "updated_at": "2025-09-10T22:56:02.171-04:00", "avatar": "https://secure.gravatar.com/avatar/bf1c3278a13ecf1e6205917835d6a697.jpg?s=512&d=https%3A%2F%2Fa.slack-edge.com%2Fdf10d%2Fimg%2Favatars%2Fava_0022-512.png", "custom_css": null}, {"id": 9748, "slack_id": "U092LCQUSTT", "display_name": "Modmaker101", "bio": null, "projects_count": 5, "devlogs_count": 28, "votes_count": 34, "ships_count": 1, "projects": [{"id": 4467, "title": "CoprOS", "devlogs_count": 2, "created_at": "2025-06-30T04:58:56.595-04:00"}, {"id": 7375, "title": "Delta", "devlogs_count": 8, "created_at": "2025-07-21T11:45:12.857-04:00"}, {"id": 11046, "title": "ide", "devlogs_count": 1, "created_at": "2025-08-12T17:37:46.818-04:00"}, {"id": 12686, "title": "BedrockOverflow", "devlogs_count": 1, "created_at": "2025-08-31T20:50:44.418-04:00"}, {"id": 3511, "title": "Crimson", "devlogs_count": 10, "created_at": "2025-06-24T14:40:16.011-04:00"}], "coding_time_seconds": 1324032, "coding_time_seconds_today": 3027, "balance": "You need to have a pocket watcher badge to view this.", "badges": [{"name": "Maiden Voyage", "text": "you shipped your first project! the journey begins...", "icon": "\ud83d\udea2"}, {"name": "Yapper I", "text": "Posted 10 comments on devlogs.", "icon": "\ud83d\udcac"}], "created_at": "2025-06-19T11:38:45.624-04:00", "updated_at": "2025-09-10T22:56:02.207-04:00", "avatar": "https://avatars.slack-edge.com/2025-08-31/9436122335717_01588a3a8f764d7bbb8f_original.png", "custom_css": null}, {"id": 9749, "slack_id": "U0921JFDF2A", "display_name": "Lucas", "bio": null, "projects_count": 0, "devlogs_count": 0, "votes_count": 0, "ships_count": 0, "projects": [], "coding_time_seconds": 0, "coding_time_seconds_today": 0, "balance": "You need to have a pocket watcher badge to view this.", "badges": [], "created_at": "2025-06-19T11:42:52.508-04:00", "updated_at": "2025-07-05T08:11:17.379-04:00", "avatar": "https://secure.gravatar.com/avatar/982cf2863b21fa095bd8ea47e7bd0994.jpg?s=512&d=https%3A%2F%2Fa.slack-edge.com%2Fdf10d%2Fimg%2Favatars%2Fava_0022-512.png", "custom_css": null}, {"id": 9750, "slack_id": "U0922EZEPMJ", "display_name": "Rahma khaled", "bio": null, "projects_count": 0, "devlogs_count": 0, "votes_count": 0, "ships_count": 0, "projects": [], "coding_time_seconds": 0, "coding_time_seconds_today": 0, "balance": "You need to have a pocket watcher badge to view this.", "badges": [], "created_at": "2025-06-19T11:43:23.363-04:00", "updated_at": "2025-07-11T23:39:13.796-04:00", "avatar": "https://secure.gravatar.com/avatar/3e84eed0735206d0957370c2ea3f7e4b.jpg?s=512&d=https%3A%2F%2Fa.slack-edge.com%2Fdf10d%2Fimg%2Favatars%2Fava_0016-512.png", "custom_css": null}, {"id": 9751, "slack_id": "U0926HMV0MB", "display_name": "Liam Evans", "bio": null, "projects_count": 1, "devlogs_count": 0, "votes_count": 0, "ships_count": 0, "projects": [{"id": 1936, "title": "Tortoiseshell \u2014 Tabbycat/Calico Tab Tools", "devlogs_count": 0, "created_at": "2025-06-19T16:50:39.826-04:00"}], "coding_time_seconds": 12737, "coding_time_seconds_today": 0, "balance": "You need to have a pocket watcher badge to view this.", "badges": [], "created_at": "2025-06-19T11:45:32.456-04:00", "updated_at": "2025-07-05T02:10:56.417-04:00", "avatar": "https://secure.gravatar.com/avatar/ef0477f0b4de2c0c834e3aacfa7cb26c.jpg?s=512&d=https%3A%2F%2Fa.slack-edge.com%2Fdf10d%2Fimg%2Favatars%2Fava_0010-512.png", "custom_css": null}, {"id": 9752, "slack_id": "U092839B9K6", "display_name": "tndreka", "bio": null, "projects_count": 0, "devlogs_count": 0, "votes_count": 0, "ships_count": 0, "projects": [], "coding_time_seconds": 173250, "coding_time_seconds_today": 0, "balance": "You need to have a pocket watcher badge to view this.", "badges": [], "created_at": "2025-06-19T11:46:05.840-04:00", "updated_at": "2025-07-03T19:53:15.159-04:00", "avatar": "https://secure.gravatar.com/avatar/477b3d4e6e9d0a1eeb71b2d076145bcc.jpg?s=512&d=https%3A%2F%2Fa.slack-edge.com%2Fdf10d%2Fimg%2Favatars%2Fava_0009-512.png", "custom_css": null}, {"id": 9753, "slack_id": "U09283DFSAY", "display_name": "Emir David Bruges Belaides", "bio": null, "projects_count": 5, "devlogs_count": 23, "votes_count": 59, "ships_count": 2, "projects": [{"id": 9048, "title": "Unravel", "devlogs_count": 1, "created_at": "2025-07-30T09:56:27.783-04:00"}, {"id": 12120, "title": "Catdoku Roadmap", "devlogs_count": 10, "created_at": "2025-08-23T08:54:43.454-04:00"}, {"id": 12676, "title": "Web Notification ", "devlogs_count": 1, "created_at": "2025-08-31T13:25:56.617-04:00"}, {"id": 12995, "title": "Aleph wallpapers", "devlogs_count": 2, "created_at": "2025-09-06T17:25:17.096-04:00"}, {"id": 1952, "title": "Local SysPilot", "devlogs_count": 9, "created_at": "2025-06-19T17:36:19.190-04:00"}], "coding_time_seconds": 253264, "coding_time_seconds_today": 0, "balance": "You need to have a pocket watcher badge to view this.", "badges": [{"name": "Maiden Voyage", "text": "you shipped your first project! the journey begins...", "icon": "\ud83d\udea2"}], "created_at": "2025-06-19T11:47:52.044-04:00", "updated_at": "2025-09-10T22:56:02.504-04:00", "avatar": "https://avatars.slack-edge.com/2025-07-07/9142417444503_5ad74040d4769bbcd7e3_original.png", "custom_css": null}, {"id": 9754, "slack_id": "U091Y2MTAVC", "display_name": "MiaowFISH", "bio": null, "projects_count": 1, "devlogs_count": 0, "votes_count": 0, "ships_count": 0, "projects": [{"id": 1861, "title": "YesImBot / Athena", "devlogs_count": 0, "created_at": "2025-06-19T13:03:42.490-04:00"}], "coding_time_seconds": 3922, "coding_time_seconds_today": 0, "balance": "You need to have a pocket watcher badge to view this.", "badges": [], "created_at": "2025-06-19T11:48:28.013-04:00", "updated_at": "2025-07-03T19:53:15.689-04:00", "avatar": "https://secure.gravatar.com/avatar/85923afd8320566d5f48f81e4124fc48.jpg?s=512&d=https%3A%2F%2Fa.slack-edge.com%2Fdf10d%2Fimg%2Favatars%2Fava_0009-512.png", "custom_css": null}, {"id": 9755, "slack_id": "U0926J349LM", "display_name": "Gaurav", "bio": null, "projects_count": 0, "devlogs_count": 0, "votes_count": 0, "ships_count": 0, "projects": [], "coding_time_seconds": 101366, "coding_time_seconds_today": 0, "balance": "You need to have a pocket watcher badge to view this.", "badges": [], "created_at": "2025-06-19T11:48:59.932-04:00", "updated_at": "2025-07-14T15:35:15.092-04:00", "avatar": "https://secure.gravatar.com/avatar/ce92d1f9d1e3b9a94196c987093c2bfe.jpg?s=512&d=https%3A%2F%2Fa.slack-edge.com%2Fdf10d%2Fimg%2Favatars%2Fava_0009-512.png", "custom_css": null}, {"id": 9756, "slack_id": "U092LH4N665", "display_name": "Autumn Peters", "bio": null, "projects_count": 0, "devlogs_count": 0, "votes_count": 0, "ships_count": 0, "projects": [], "coding_time_seconds": 0, "coding_time_seconds_today": 0, "balance": "You need to have a pocket watcher badge to view this.", "badges": [], "created_at": "2025-06-19T11:51:01.113-04:00", "updated_at": "2025-07-05T08:11:18.103-04:00", "avatar": "https://avatars.slack-edge.com/2025-06-19/9069679777334_fc2944566022cc0758f7_original.png", "custom_css": null}, {"id": 9757, "slack_id": "U0928405152", "display_name": "Vaibhav", "bio": null, "projects_count": 0, "devlogs_count": 0, "votes_count": 0, "ships_count": 0, "projects": [], "coding_time_seconds": 122223, "coding_time_seconds_today": 0, "balance": "You need to have a pocket watcher badge to view this.", "badges": [], "created_at": "2025-06-19T11:52:00.512-04:00", "updated_at": "2025-07-04T08:25:44.152-04:00", "avatar": "https://secure.gravatar.com/avatar/e483d6cd9d52554fea66b0a37d61d02f.jpg?s=512&d=https%3A%2F%2Fa.slack-edge.com%2Fdf10d%2Fimg%2Favatars%2Fava_0019-512.png", "custom_css": null}, {"id": 9758, "slack_id": "U09283ZV5FW", "display_name": "Abhishek Padhi", "bio": null, "projects_count": 2, "devlogs_count": 1, "votes_count": 0, "ships_count": 0, "projects": [{"id": 1848, "title": "cv-app", "devlogs_count": 0, "created_at": "2025-06-19T12:09:51.081-04:00"}, {"id": 2838, "title": "Memory Card Game", "devlogs_count": 1, "created_at": "2025-06-22T07:52:13.674-04:00"}], "coding_time_seconds": 63526, "coding_time_seconds_today": 0, "balance": "You need to have a pocket watcher badge to view this.", "badges": [], "created_at": "2025-06-19T11:52:48.126-04:00", "updated_at": "2025-07-03T19:53:16.520-04:00", "avatar": "https://avatars.slack-edge.com/2025-06-19/9074654711573_dc50723ed8b7021ce305_original.png", "custom_css": null}, {"id": 9759, "slack_id": "U0921KN2ZM4", "display_name": "Vishal", "bio": null, "projects_count": 0, "devlogs_count": 0, "votes_count": 0, "ships_count": 0, "projects": [], "coding_time_seconds": 0, "coding_time_seconds_today": 0, "balance": "You need to have a pocket watcher badge to view this.", "badges": [], "created_at": "2025-06-19T11:53:53.116-04:00", "updated_at": "2025-07-03T19:53:16.782-04:00", "avatar": "https://secure.gravatar.com/avatar/0fc9a48f804bfc8149c290a47911a955.jpg?s=512&d=https%3A%2F%2Fa.slack-edge.com%2Fdf10d%2Fimg%2Favatars%2Fava_0009-512.png", "custom_css": null}, {"id": 9760, "slack_id": "U0926JPRYE9", "display_name": "Alvin", "bio": null, "projects_count": 0, "devlogs_count": 0, "votes_count": 0, "ships_count": 0, "projects": [], "coding_time_seconds": 0, "coding_time_seconds_today": 0, "balance": "You need to have a pocket watcher badge to view this.", "badges": [], "created_at": "2025-06-19T11:53:59.360-04:00", "updated_at": "2025-07-03T19:53:17.052-04:00", "avatar": "https://secure.gravatar.com/avatar/49f556583de3355fd707e5eb63582caa.jpg?s=512&d=https%3A%2F%2Fa.slack-edge.com%2Fdf10d%2Fimg%2Favatars%2Fava_0017-512.png", "custom_css": null}], "pagination": {"page": 488, "pages": 1192, "count": 23828, "items": 20}}