{"users": [{"id": 9761, "slack_id": "U091T09F9TR", "display_name": "Paul", "bio": null, "projects_count": 0, "devlogs_count": 0, "votes_count": 0, "ships_count": 0, "projects": [], "coding_time_seconds": 40346, "coding_time_seconds_today": 0, "balance": "You need to have a pocket watcher badge to view this.", "badges": [], "created_at": "2025-06-19T11:54:54.330-04:00", "updated_at": "2025-07-03T19:53:17.322-04:00", "avatar": "https://avatars.slack-edge.com/2025-06-19/9069379307315_f08768a88ddb1fe5b6e7_original.png", "custom_css": null}, {"id": 9762, "slack_id": "U0927EKV4RJ", "display_name": "Lordmike", "bio": "", "projects_count": 3, "devlogs_count": 17, "votes_count": 73, "ships_count": 2, "projects": [{"id": 7264, "title": "Daileap", "devlogs_count": 6, "created_at": "2025-07-20T14:19:24.915-04:00"}, {"id": 2531, "title": "JumperJam - My first mobile game", "devlogs_count": 6, "created_at": "2025-06-21T08:21:29.427-04:00"}, {"id": 9115, "title": "VINYLITY", "devlogs_count": 5, "created_at": "2025-07-30T16:36:34.018-04:00"}], "coding_time_seconds": 334495, "coding_time_seconds_today": 158, "balance": "You need to have a pocket watcher badge to view this.", "badges": [{"name": "Maiden Voyage", "text": "you shipped your first project! the journey begins...", "icon": "\ud83d\udea2"}], "created_at": "2025-06-19T11:57:31.168-04:00", "updated_at": "2025-09-10T22:56:02.749-04:00", "avatar": "https://secure.gravatar.com/avatar/6c7fad5310e2c14e85a500af0c8addc0.jpg?s=512&d=https%3A%2F%2Fa.slack-edge.com%2Fdf10d%2Fimg%2Favatars%2Fava_0022-512.png", "custom_css": null}, {"id": 9763, "slack_id": "U0921MB29FY", "display_name": "Phil", "bio": null, "projects_count": 0, "devlogs_count": 0, "votes_count": 0, "ships_count": 0, "projects": [], "coding_time_seconds": 2931, "coding_time_seconds_today": 0, "balance": "You need to have a pocket watcher badge to view this.", "badges": [], "created_at": "2025-06-19T12:01:07.886-04:00", "updated_at": "2025-07-03T19:53:17.845-04:00", "avatar": "https://secure.gravatar.com/avatar/b7048c4eb18cc5800142df72e11908c6.jpg?s=512&d=https%3A%2F%2Fa.slack-edge.com%2Fdf10d%2Fimg%2Favatars%2Fava_0025-512.png", "custom_css": null}, {"id": 9764, "slack_id": "U092LKEFG57", "display_name": "Markus Costanzo", "bio": null, "projects_count": 0, "devlogs_count": 0, "votes_count": 0, "ships_count": 0, "projects": [], "coding_time_seconds": 0, "coding_time_seconds_today": 0, "balance": "You need to have a pocket watcher badge to view this.", "badges": [], "created_at": "2025-06-19T12:04:15.722-04:00", "updated_at": "2025-07-03T19:53:18.107-04:00", "avatar": "https://secure.gravatar.com/avatar/f1952a4197b312f14c1132a060ebd85f.jpg?s=512&d=https%3A%2F%2Fa.slack-edge.com%2Fdf10d%2Fimg%2Favatars%2Fava_0001-512.png", "custom_css": null}, {"id": 9765, "slack_id": "U09285RS99S", "display_name": "mervil vinent", "bio": null, "projects_count": 0, "devlogs_count": 0, "votes_count": 0, "ships_count": 0, "projects": [], "coding_time_seconds": 0, "coding_time_seconds_today": 0, "balance": "You need to have a pocket watcher badge to view this.", "badges": [], "created_at": "2025-06-19T12:05:54.030-04:00", "updated_at": "2025-07-03T22:00:08.761-04:00", "avatar": "https://avatars.slack-edge.com/2025-06-19/9076218956436_b388b234e3ab82c2164d_original.png", "custom_css": null}, {"id": 9766, "slack_id": "U092W960X7A", "display_name": "Xu\u00e2n Minh B\u00f9i", "bio": null, "projects_count": 0, "devlogs_count": 0, "votes_count": 0, "ships_count": 0, "projects": [], "coding_time_seconds": 545, "coding_time_seconds_today": 0, "balance": "You need to have a pocket watcher badge to view this.", "badges": [], "created_at": "2025-06-19T12:07:05.808-04:00", "updated_at": "2025-07-03T19:53:18.523-04:00", "avatar": "https://avatars.slack-edge.com/2025-06-19/9075743381842_6a19ffd4c8843330b768_original.png", "custom_css": null}, {"id": 9767, "slack_id": "U0928669EQL", "display_name": "Erik Klaus", "bio": null, "projects_count": 0, "devlogs_count": 0, "votes_count": 0, "ships_count": 0, "projects": [], "coding_time_seconds": 0, "coding_time_seconds_today": 0, "balance": "You need to have a pocket watcher badge to view this.", "badges": [], "created_at": "2025-06-19T12:08:02.993-04:00", "updated_at": "2025-07-03T19:53:18.785-04:00", "avatar": "https://secure.gravatar.com/avatar/acbe97bfb5b5f37167cd567f85688d57.jpg?s=512&d=https%3A%2F%2Fa.slack-edge.com%2Fdf10d%2Fimg%2Favatars%2Fava_0022-512.png", "custom_css": null}, {"id": 9768, "slack_id": "U0927MF2DS6", "display_name": "Kevin Fong", "bio": null, "projects_count": 0, "devlogs_count": 0, "votes_count": 0, "ships_count": 0, "projects": [], "coding_time_seconds": 0, "coding_time_seconds_today": 0, "balance": "You need to have a pocket watcher badge to view this.", "badges": [], "created_at": "2025-06-19T12:09:43.441-04:00", "updated_at": "2025-07-03T19:53:19.055-04:00", "avatar": "https://secure.gravatar.com/avatar/a0485374c5da64a7098b1bad5e6e6ebd.jpg?s=512&d=https%3A%2F%2Fa.slack-edge.com%2Fdf10d%2Fimg%2Favatars%2Fava_0026-512.png", "custom_css": null}, {"id": 9769, "slack_id": "U082YDJPCEA", "display_name": "Vedant Tejaswi", "bio": "", "projects_count": 0, "devlogs_count": 0, "votes_count": 3, "ships_count": 0, "projects": [], "coding_time_seconds": 7233, "coding_time_seconds_today": 0, "balance": "You need to have a pocket watcher badge to view this.", "badges": [], "created_at": "2025-06-19T12:11:01.909-04:00", "updated_at": "2025-08-06T12:38:43.829-04:00", "avatar": "https://avatars.slack-edge.com/2024-12-01/8107148462930_18e1edd4eeb816fe9308_original.png", "custom_css": null}, {"id": 9770, "slack_id": "U09286XPXAQ", "display_name": "Soham", "bio": null, "projects_count": 0, "devlogs_count": 0, "votes_count": 0, "ships_count": 0, "projects": [], "coding_time_seconds": 0, "coding_time_seconds_today": 0, "balance": "You need to have a pocket watcher badge to view this.", "badges": [], "created_at": "2025-06-19T12:12:33.916-04:00", "updated_at": "2025-07-03T19:53:19.587-04:00", "avatar": "https://secure.gravatar.com/avatar/66abd09477a3b504e178e242fcea54d4.jpg?s=512&d=https%3A%2F%2Fa.slack-edge.com%2Fdf10d%2Fimg%2Favatars%2Fava_0016-512.png", "custom_css": null}, {"id": 9771, "slack_id": "U0921NG04MU", "display_name": "Adriel Babalola", "bio": null, "projects_count": 4, "devlogs_count": 18, "votes_count": 2, "ships_count": 1, "projects": [{"id": 3243, "title": "Baymax", "devlogs_count": 0, "created_at": "2025-06-23T14:43:43.721-04:00"}, {"id": 3305, "title": "Note-n-Code", "devlogs_count": 3, "created_at": "2025-06-23T18:29:57.528-04:00"}, {"id": 3803, "title": "Lofi-Code", "devlogs_count": 15, "created_at": "2025-06-25T20:20:23.722-04:00"}, {"id": 4225, "title": "My Personal Growth During This Hackathon", "devlogs_count": 0, "created_at": "2025-06-28T09:51:48.300-04:00"}], "coding_time_seconds": 189345, "coding_time_seconds_today": 0, "balance": "You need to have a pocket watcher badge to view this.", "badges": [{"name": "Maiden Voyage", "text": "you shipped your first project! the journey begins...", "icon": "\ud83d\udea2"}], "created_at": "2025-06-19T12:12:44.730-04:00", "updated_at": "2025-09-10T22:56:03.238-04:00", "avatar": "https://avatars.slack-edge.com/2025-06-23/9105185398625_7a78beedc785e948bee3_original.png", "custom_css": null}, {"id": 9772, "slack_id": "U09287ACB1A", "display_name": "dragonfly", "bio": null, "projects_count": 0, "devlogs_count": 0, "votes_count": 0, "ships_count": 0, "projects": [], "coding_time_seconds": 0, "coding_time_seconds_today": 0, "balance": "You need to have a pocket watcher badge to view this.", "badges": [], "created_at": "2025-06-19T12:15:25.698-04:00", "updated_at": "2025-07-04T02:29:27.987-04:00", "avatar": "https://secure.gravatar.com/avatar/378f88fba19ecf0dbc675d1a429f99c2.jpg?s=512&d=https%3A%2F%2Fa.slack-edge.com%2Fdf10d%2Fimg%2Favatars%2Fava_0004-512.png", "custom_css": null}, {"id": 9773, "slack_id": "U092LM2SBLH", "display_name": "Anton Moroz", "bio": null, "projects_count": 0, "devlogs_count": 0, "votes_count": 0, "ships_count": 0, "projects": [], "coding_time_seconds": 17726, "coding_time_seconds_today": 0, "balance": "You need to have a pocket watcher badge to view this.", "badges": [], "created_at": "2025-06-19T12:16:28.785-04:00", "updated_at": "2025-07-03T21:48:06.445-04:00", "avatar": "https://secure.gravatar.com/avatar/a07aab99af8df24dca4b2428bee666b4.jpg?s=512&d=https%3A%2F%2Fa.slack-edge.com%2Fdf10d%2Fimg%2Favatars%2Fava_0026-512.png", "custom_css": null}, {"id": 9774, "slack_id": "U0926EESQPP", "display_name": "Domas", "bio": null, "projects_count": 0, "devlogs_count": 0, "votes_count": 0, "ships_count": 0, "projects": [], "coding_time_seconds": 0, "coding_time_seconds_today": 0, "balance": "You need to have a pocket watcher badge to view this.", "badges": [], "created_at": "2025-06-19T12:20:22.165-04:00", "updated_at": "2025-07-03T19:53:20.410-04:00", "avatar": "https://secure.gravatar.com/avatar/3e68c51d6193ebd2295a1c1ba6142e2e.jpg?s=512&d=https%3A%2F%2Fa.slack-edge.com%2Fdf10d%2Fimg%2Favatars%2Fava_0012-512.png", "custom_css": null}, {"id": 9775, "slack_id": "U08A7LCFFM3", "display_name": "Rishabh", "bio": null, "projects_count": 0, "devlogs_count": 0, "votes_count": 0, "ships_count": 0, "projects": [], "coding_time_seconds": 0, "coding_time_seconds_today": 0, "balance": "You need to have a pocket watcher badge to view this.", "badges": [], "created_at": "2025-06-19T12:22:22.634-04:00", "updated_at": "2025-07-03T19:53:20.684-04:00", "avatar": "https://secure.gravatar.com/avatar/b4786f0cead82775c0372ede4388f297.jpg?s=512&d=https%3A%2F%2Fa.slack-edge.com%2Fdf10d%2Fimg%2Favatars%2Fava_0000-512.png", "custom_css": null}, {"id": 9776, "slack_id": "U092LMZLH6D", "display_name": "Kalan Warusa", "bio": null, "projects_count": 0, "devlogs_count": 0, "votes_count": 0, "ships_count": 0, "projects": [], "coding_time_seconds": 0, "coding_time_seconds_today": 0, "balance": "You need to have a pocket watcher badge to view this.", "badges": [], "created_at": "2025-06-19T12:23:57.901-04:00", "updated_at": "2025-07-03T19:53:20.970-04:00", "avatar": "https://avatars.slack-edge.com/2025-06-19/9061174131415_190edd742f41b83663e2_original.png", "custom_css": null}, {"id": 9777, "slack_id": "U092884072Q", "display_name": "Raj", "bio": null, "projects_count": 0, "devlogs_count": 0, "votes_count": 0, "ships_count": 0, "projects": [], "coding_time_seconds": 13001, "coding_time_seconds_today": 0, "balance": "You need to have a pocket watcher badge to view this.", "badges": [], "created_at": "2025-06-19T12:24:10.405-04:00", "updated_at": "2025-07-03T19:53:21.281-04:00", "avatar": "https://secure.gravatar.com/avatar/d0dde0c35a62ae287b801da3fc03ddb6.jpg?s=512&d=https%3A%2F%2Fa.slack-edge.com%2Fdf10d%2Fimg%2Favatars%2Fava_0018-512.png", "custom_css": null}, {"id": 9778, "slack_id": "U091TJABZDG", "display_name": "Avani", "bio": null, "projects_count": 0, "devlogs_count": 0, "votes_count": 0, "ships_count": 0, "projects": [], "coding_time_seconds": 0, "coding_time_seconds_today": 0, "balance": "You need to have a pocket watcher badge to view this.", "badges": [], "created_at": "2025-06-19T12:24:17.637-04:00", "updated_at": "2025-07-03T19:53:21.558-04:00", "avatar": "https://secure.gravatar.com/avatar/7ba1f194866e3d6ab8413b3eeb45bfd7.jpg?s=512&d=https%3A%2F%2Fa.slack-edge.com%2Fdf10d%2Fimg%2Favatars%2Fava_0001-512.png", "custom_css": null}, {"id": 9779, "slack_id": "U092875DQHJ", "display_name": "t", "bio": null, "projects_count": 0, "devlogs_count": 0, "votes_count": 0, "ships_count": 0, "projects": [], "coding_time_seconds": 0, "coding_time_seconds_today": 0, "balance": "You need to have a pocket watcher badge to view this.", "badges": [], "created_at": "2025-06-19T12:24:20.577-04:00", "updated_at": "2025-07-03T19:53:21.855-04:00", "avatar": "https://secure.gravatar.com/avatar/ea3863fd86ab9793692e5275fff76053.jpg?s=512&d=https%3A%2F%2Fa.slack-edge.com%2Fdf10d%2Fimg%2Favatars%2Fava_0009-512.png", "custom_css": null}, {"id": 9780, "slack_id": "U0921EJBZU3", "display_name": "Boyan", "bio": null, "projects_count": 0, "devlogs_count": 0, "votes_count": 0, "ships_count": 0, "projects": [], "coding_time_seconds": 0, "coding_time_seconds_today": 0, "balance": "You need to have a pocket watcher badge to view this.", "badges": [], "created_at": "2025-06-19T12:25:15.057-04:00", "updated_at": "2025-07-04T02:29:28.568-04:00", "avatar": "https://secure.gravatar.com/avatar/e5d9b0930363a5444a36e9487a497be9.jpg?s=512&d=https%3A%2F%2Fa.slack-edge.com%2Fdf10d%2Fimg%2Favatars%2Fava_0012-512.png", "custom_css": null}], "pagination": {"page": 489, "pages": 1192, "count": 23828, "items": 20}}