{"users": [{"id": 961, "slack_id": "U076T94S9MY", "display_name": "Ventengo", "bio": null, "projects_count": 2, "devlogs_count": 9, "votes_count": 55, "ships_count": 2, "projects": [{"id": 1939, "title": "Sentiment Analysis App", "devlogs_count": 5, "created_at": "2025-06-19T16:53:11.431-04:00"}, {"id": 6329, "title": "Household Cost Splitter", "devlogs_count": 4, "created_at": "2025-07-12T11:21:44.277-04:00"}], "coding_time_seconds": 15876, "coding_time_seconds_today": 0, "balance": "You need to have a pocket watcher badge to view this.", "badges": [{"name": "Maiden Voyage", "text": "you shipped your first project! the journey begins...", "icon": "\ud83d\udea2"}], "created_at": "2025-06-16T12:28:05.688-04:00", "updated_at": "2025-09-10T22:51:37.950-04:00", "avatar": "https://avatars.slack-edge.com/2024-08-25/7626385635634_af4128a80310d6ee83cd_original.jpg", "custom_css": null}, {"id": 962, "slack_id": "U091GA2PW59", "display_name": "Rohan", "bio": null, "projects_count": 0, "devlogs_count": 0, "votes_count": 0, "ships_count": 0, "projects": [], "coding_time_seconds": 0, "coding_time_seconds_today": 0, "balance": "You need to have a pocket watcher badge to view this.", "badges": [], "created_at": "2025-06-16T12:28:08.197-04:00", "updated_at": "2025-07-03T19:15:24.813-04:00", "avatar": "https://secure.gravatar.com/avatar/bbf8b69b500d5ef61c361cb3703099d6.jpg?s=512&d=https%3A%2F%2Fa.slack-edge.com%2Fdf10d%2Fimg%2Favatars%2Fava_0019-512.png", "custom_css": null}, {"id": 963, "slack_id": "U07DJ30CF51", "display_name": "fede", "bio": null, "projects_count": 3, "devlogs_count": 6, "votes_count": 30, "ships_count": 2, "projects": [{"id": 158, "title": "PyNumberWizard", "devlogs_count": 2, "created_at": "2025-06-16T14:41:17.052-04:00"}, {"id": 1469, "title": "ProNumbers", "devlogs_count": 1, "created_at": "2025-06-18T15:50:09.114-04:00"}, {"id": 3291, "title": "Toro Giallo", "devlogs_count": 3, "created_at": "2025-06-23T17:14:25.305-04:00"}], "coding_time_seconds": 46054, "coding_time_seconds_today": 0, "balance": "You need to have a pocket watcher badge to view this.", "badges": [{"name": "Maiden Voyage", "text": "you shipped your first project! the journey begins...", "icon": "\ud83d\udea2"}], "created_at": "2025-06-16T12:28:13.863-04:00", "updated_at": "2025-09-10T22:51:38.021-04:00", "avatar": "https://avatars.slack-edge.com/2024-07-23/7487390669904_58c367bfef8738c05572_original.jpg", "custom_css": null}, {"id": 964, "slack_id": "U092BNZJQKA", "display_name": "Extrem", "bio": null, "projects_count": 0, "devlogs_count": 0, "votes_count": 0, "ships_count": 0, "projects": [], "coding_time_seconds": 0, "coding_time_seconds_today": 0, "balance": "You need to have a pocket watcher badge to view this.", "badges": [], "created_at": "2025-06-16T12:28:23.166-04:00", "updated_at": "2025-07-03T19:15:25.379-04:00", "avatar": "https://secure.gravatar.com/avatar/4e0033d680d1091a023d99cb906bba4a.jpg?s=512&d=https%3A%2F%2Fa.slack-edge.com%2Fdf10d%2Fimg%2Favatars%2Fava_0023-512.png", "custom_css": null}, {"id": 965, "slack_id": "U092BNXN4GY", "display_name": "Reshob Roychoudhury", "bio": null, "projects_count": 0, "devlogs_count": 0, "votes_count": 0, "ships_count": 0, "projects": [], "coding_time_seconds": 17294, "coding_time_seconds_today": 0, "balance": "You need to have a pocket watcher badge to view this.", "badges": [], "created_at": "2025-06-16T12:28:26.935-04:00", "updated_at": "2025-07-03T19:15:25.655-04:00", "avatar": "https://secure.gravatar.com/avatar/bfc4764bd8e5baa236617a7081088705.jpg?s=512&d=https%3A%2F%2Fa.slack-edge.com%2Fdf10d%2Fimg%2Favatars%2Fava_0005-512.png", "custom_css": null}, {"id": 966, "slack_id": "U091GA73H8T", "display_name": "Siem van Keulen", "bio": "", "projects_count": 4, "devlogs_count": 24, "votes_count": 36, "ships_count": 3, "projects": [{"id": 240, "title": "theme store for Studytools backend", "devlogs_count": 7, "created_at": "2025-06-16T16:10:22.133-04:00"}, {"id": 814, "title": "mkapp", "devlogs_count": 2, "created_at": "2025-06-17T08:51:17.325-04:00"}, {"id": 11956, "title": "hackclub events list ", "devlogs_count": 2, "created_at": "2025-08-21T12:30:53.231-04:00"}, {"id": 2461, "title": "Pyspotui", "devlogs_count": 13, "created_at": "2025-06-21T04:34:04.775-04:00"}], "coding_time_seconds": 479276, "coding_time_seconds_today": 1848, "balance": "You need to have a pocket watcher badge to view this.", "badges": [{"name": "Maiden Voyage", "text": "you shipped your first project! the journey begins...", "icon": "\ud83d\udea2"}], "created_at": "2025-06-16T12:28:27.917-04:00", "updated_at": "2025-09-10T22:51:38.182-04:00", "avatar": "https://avatars.slack-edge.com/2025-08-08/9330075031620_35a2f94cc4ecdeb162d6_original.gif", "custom_css": null}, {"id": 967, "slack_id": "U091GA0DFFD", "display_name": "Medhavi", "bio": null, "projects_count": 0, "devlogs_count": 0, "votes_count": 0, "ships_count": 0, "projects": [], "coding_time_seconds": 0, "coding_time_seconds_today": 0, "balance": "You need to have a pocket watcher badge to view this.", "badges": [], "created_at": "2025-06-16T12:28:38.045-04:00", "updated_at": "2025-07-03T19:15:26.198-04:00", "avatar": "https://secure.gravatar.com/avatar/5cf6252e1a0f3db5df9c7d98a768d38e.jpg?s=512&d=https%3A%2F%2Fa.slack-edge.com%2Fdf10d%2Fimg%2Favatars%2Fava_0008-512.png", "custom_css": null}, {"id": 968, "slack_id": "U091PMTPE04", "display_name": "Dimitar Tashkov", "bio": null, "projects_count": 0, "devlogs_count": 0, "votes_count": 0, "ships_count": 0, "projects": [], "coding_time_seconds": 10993, "coding_time_seconds_today": 0, "balance": "You need to have a pocket watcher badge to view this.", "badges": [], "created_at": "2025-06-16T12:28:40.212-04:00", "updated_at": "2025-07-03T19:15:26.477-04:00", "avatar": "https://secure.gravatar.com/avatar/f370e48952ac53915c4465be5c23bf50.jpg?s=512&d=https%3A%2F%2Fa.slack-edge.com%2Fdf10d%2Fimg%2Favatars%2Fava_0017-512.png", "custom_css": null}, {"id": 969, "slack_id": "U091MF6JTDK", "display_name": "Rosiel Victor", "bio": null, "projects_count": 0, "devlogs_count": 0, "votes_count": 0, "ships_count": 0, "projects": [], "coding_time_seconds": 75448, "coding_time_seconds_today": 0, "balance": "You need to have a pocket watcher badge to view this.", "badges": [], "created_at": "2025-06-16T12:28:40.905-04:00", "updated_at": "2025-07-03T19:15:26.744-04:00", "avatar": "https://secure.gravatar.com/avatar/1580dedd7e393a241f60866e72b2ad4b.jpg?s=512&d=https%3A%2F%2Fa.slack-edge.com%2Fdf10d%2Fimg%2Favatars%2Fava_0020-512.png", "custom_css": null}, {"id": 970, "slack_id": "U091MG0K16Z", "display_name": "Aditya Katre", "bio": null, "projects_count": 1, "devlogs_count": 0, "votes_count": 0, "ships_count": 0, "projects": [{"id": 1036, "title": "Personal Repository", "devlogs_count": 0, "created_at": "2025-06-17T14:07:55.741-04:00"}], "coding_time_seconds": 8359, "coding_time_seconds_today": 0, "balance": "You need to have a pocket watcher badge to view this.", "badges": [], "created_at": "2025-06-16T12:28:55.265-04:00", "updated_at": "2025-07-03T19:15:27.107-04:00", "avatar": "https://avatars.slack-edge.com/2025-06-16/9069893371425_48fc3193e49e8642956d_original.jpg", "custom_css": null}, {"id": 971, "slack_id": "U091P96QACS", "display_name": "Arthur GODFROY", "bio": null, "projects_count": 0, "devlogs_count": 0, "votes_count": 0, "ships_count": 0, "projects": [], "coding_time_seconds": 57593, "coding_time_seconds_today": 0, "balance": "You need to have a pocket watcher badge to view this.", "badges": [], "created_at": "2025-06-16T12:29:20.410-04:00", "updated_at": "2025-07-03T19:15:27.380-04:00", "avatar": "https://avatars.slack-edge.com/2025-06-16/9050363778979_7b02d94e390c6ed7888d_original.png", "custom_css": null}, {"id": 972, "slack_id": "U092BP8CYTS", "display_name": "Rinma", "bio": null, "projects_count": 0, "devlogs_count": 0, "votes_count": 0, "ships_count": 0, "projects": [], "coding_time_seconds": 0, "coding_time_seconds_today": 0, "balance": "You need to have a pocket watcher badge to view this.", "badges": [], "created_at": "2025-06-16T12:29:21.777-04:00", "updated_at": "2025-07-03T19:15:27.654-04:00", "avatar": "https://secure.gravatar.com/avatar/a41245986a4cbc2df74e8d20ab160a5d.jpg?s=512&d=https%3A%2F%2Fa.slack-edge.com%2Fdf10d%2Fimg%2Favatars%2Fava_0007-512.png", "custom_css": null}, {"id": 973, "slack_id": "U0921REC873", "display_name": "Appolon", "bio": null, "projects_count": 0, "devlogs_count": 0, "votes_count": 0, "ships_count": 0, "projects": [], "coding_time_seconds": 0, "coding_time_seconds_today": 0, "balance": "You need to have a pocket watcher badge to view this.", "badges": [], "created_at": "2025-06-16T12:29:36.026-04:00", "updated_at": "2025-07-03T19:15:27.948-04:00", "avatar": "https://avatars.slack-edge.com/2025-06-16/9051818303795_6521bce7e92e931fd7cf_original.png", "custom_css": null}, {"id": 974, "slack_id": "U091PN0SNTW", "display_name": "David", "bio": null, "projects_count": 0, "devlogs_count": 0, "votes_count": 0, "ships_count": 0, "projects": [], "coding_time_seconds": 9525, "coding_time_seconds_today": 0, "balance": "You need to have a pocket watcher badge to view this.", "badges": [], "created_at": "2025-06-16T12:29:56.889-04:00", "updated_at": "2025-07-03T19:15:28.237-04:00", "avatar": "https://avatars.slack-edge.com/2025-06-16/9055563606405_7b852a4e584e5ae215de_original.jpg", "custom_css": null}, {"id": 975, "slack_id": "U091PN0P59A", "display_name": "Ali Jamadi", "bio": null, "projects_count": 0, "devlogs_count": 0, "votes_count": 0, "ships_count": 0, "projects": [], "coding_time_seconds": 0, "coding_time_seconds_today": 0, "balance": "You need to have a pocket watcher badge to view this.", "badges": [], "created_at": "2025-06-16T12:30:13.470-04:00", "updated_at": "2025-07-03T19:15:28.512-04:00", "avatar": "https://secure.gravatar.com/avatar/957581a9932abd78a3d5b34c9b9d2772.jpg?s=512&d=https%3A%2F%2Fa.slack-edge.com%2Fdf10d%2Fimg%2Favatars%2Fava_0023-512.png", "custom_css": null}, {"id": 976, "slack_id": "U0921RVPZ41", "display_name": "migalha", "bio": null, "projects_count": 0, "devlogs_count": 0, "votes_count": 0, "ships_count": 0, "projects": [], "coding_time_seconds": 0, "coding_time_seconds_today": 0, "balance": "You need to have a pocket watcher badge to view this.", "badges": [], "created_at": "2025-06-16T12:30:22.676-04:00", "updated_at": "2025-07-03T19:15:28.778-04:00", "avatar": "https://secure.gravatar.com/avatar/ddc614f22f3b0226f86e33a6c747e119.jpg?s=512&d=https%3A%2F%2Fa.slack-edge.com%2Fdf10d%2Fimg%2Favatars%2Fava_0007-512.png", "custom_css": null}, {"id": 977, "slack_id": "U091P98QYCA", "display_name": "Antoine", "bio": null, "projects_count": 0, "devlogs_count": 0, "votes_count": 0, "ships_count": 0, "projects": [], "coding_time_seconds": 0, "coding_time_seconds_today": 0, "balance": "You need to have a pocket watcher badge to view this.", "badges": [], "created_at": "2025-06-16T12:30:25.962-04:00", "updated_at": "2025-07-03T19:15:29.053-04:00", "avatar": "https://secure.gravatar.com/avatar/ba996ec8ebc663e361270b1b15e6a9ed.jpg?s=512&d=https%3A%2F%2Fa.slack-edge.com%2Fdf10d%2Fimg%2Favatars%2Fava_0024-512.png", "custom_css": null}, {"id": 978, "slack_id": "U08B1CDTWR1", "display_name": "Xlep_", "bio": null, "projects_count": 0, "devlogs_count": 0, "votes_count": 0, "ships_count": 0, "projects": [], "coding_time_seconds": 511797, "coding_time_seconds_today": 0, "balance": "You need to have a pocket watcher badge to view this.", "badges": [], "created_at": "2025-06-16T12:30:26.177-04:00", "updated_at": "2025-08-06T14:39:38.888-04:00", "avatar": "https://avatars.slack-edge.com/2025-01-30/8378119566564_9edc26cae071e062a087_original.png", "custom_css": null}, {"id": 979, "slack_id": "U0921RFM4AD", "display_name": "Vedant", "bio": null, "projects_count": 0, "devlogs_count": 0, "votes_count": 0, "ships_count": 0, "projects": [], "coding_time_seconds": 0, "coding_time_seconds_today": 0, "balance": "You need to have a pocket watcher badge to view this.", "badges": [], "created_at": "2025-06-16T12:30:27.844-04:00", "updated_at": "2025-07-03T19:15:29.594-04:00", "avatar": "https://secure.gravatar.com/avatar/a3ef216d9beae4df12915709e20f563a.jpg?s=512&d=https%3A%2F%2Fa.slack-edge.com%2Fdf10d%2Fimg%2Favatars%2Fava_0018-512.png", "custom_css": null}, {"id": 980, "slack_id": "U091P99BYLS", "display_name": "\ub2c8\uc5bc\uad74", "bio": null, "projects_count": 0, "devlogs_count": 0, "votes_count": 0, "ships_count": 0, "projects": [], "coding_time_seconds": 0, "coding_time_seconds_today": 0, "balance": "You need to have a pocket watcher badge to view this.", "badges": [], "created_at": "2025-06-16T12:30:29.714-04:00", "updated_at": "2025-07-03T19:15:29.866-04:00", "avatar": "https://avatars.slack-edge.com/2025-06-16/9050373757651_be6f26b08d39946f652d_original.png", "custom_css": null}], "pagination": {"page": 49, "pages": 1192, "count": 23827, "items": 20}}