{"users": [{"id": 9781, "slack_id": "U0921EKN14K", "display_name": "Anurag", "bio": null, "projects_count": 0, "devlogs_count": 0, "votes_count": 0, "ships_count": 0, "projects": [], "coding_time_seconds": 0, "coding_time_seconds_today": 0, "balance": "You need to have a pocket watcher badge to view this.", "badges": [], "created_at": "2025-06-19T12:26:51.882-04:00", "updated_at": "2025-07-04T02:29:28.657-04:00", "avatar": "https://secure.gravatar.com/avatar/5a021ec4ff3fa85d8ecf16e67a272e88.jpg?s=512&d=https%3A%2F%2Fa.slack-edge.com%2Fdf10d%2Fimg%2Favatars%2Fava_0013-512.png", "custom_css": null}, {"id": 9782, "slack_id": "U091T4SNC4F", "display_name": "Gopika Sreenidhi Varadaraj", "bio": null, "projects_count": 0, "devlogs_count": 0, "votes_count": 0, "ships_count": 0, "projects": [], "coding_time_seconds": 120, "coding_time_seconds_today": 0, "balance": "You need to have a pocket watcher badge to view this.", "badges": [], "created_at": "2025-06-19T12:26:52.198-04:00", "updated_at": "2025-07-18T08:50:25.136-04:00", "avatar": "https://avatars.slack-edge.com/2025-07-18/9213672820531_18de4650237602d69a9c_original.png", "custom_css": null}, {"id": 9783, "slack_id": "U09288RLU5S", "display_name": "Karthik Kishor", "bio": null, "projects_count": 0, "devlogs_count": 0, "votes_count": 0, "ships_count": 0, "projects": [], "coding_time_seconds": 0, "coding_time_seconds_today": 0, "balance": "You need to have a pocket watcher badge to view this.", "badges": [], "created_at": "2025-06-19T12:27:57.083-04:00", "updated_at": "2025-07-03T19:53:22.531-04:00", "avatar": "https://secure.gravatar.com/avatar/448079c0d22c1ce06366c10e3ce9f550.jpg?s=512&d=https%3A%2F%2Fa.slack-edge.com%2Fdf10d%2Fimg%2Favatars%2Fava_0013-512.png", "custom_css": null}, {"id": 9784, "slack_id": "U091K2QCHC3", "display_name": "Hack3r Oneness", "bio": null, "projects_count": 0, "devlogs_count": 0, "votes_count": 0, "ships_count": 0, "projects": [], "coding_time_seconds": 0, "coding_time_seconds_today": 0, "balance": "You need to have a pocket watcher badge to view this.", "badges": [], "created_at": "2025-06-19T12:28:25.801-04:00", "updated_at": "2025-07-03T19:53:22.801-04:00", "avatar": "https://secure.gravatar.com/avatar/be6af1fb0f5137b79c1ab7ceae6cd2ce.jpg?s=512&d=https%3A%2F%2Fa.slack-edge.com%2Fdf10d%2Fimg%2Favatars%2Fava_0026-512.png", "custom_css": null}, {"id": 9785, "slack_id": "U092WBYQ38Q", "display_name": "haroonabbass", "bio": null, "projects_count": 0, "devlogs_count": 0, "votes_count": 0, "ships_count": 0, "projects": [], "coding_time_seconds": 0, "coding_time_seconds_today": 0, "balance": "You need to have a pocket watcher badge to view this.", "badges": [], "created_at": "2025-06-19T12:28:44.221-04:00", "updated_at": "2025-07-06T02:12:09.490-04:00", "avatar": "https://secure.gravatar.com/avatar/b3edafa3b7e7b23d2e3c916be0301b07.jpg?s=512&d=https%3A%2F%2Fa.slack-edge.com%2Fdf10d%2Fimg%2Favatars%2Fava_0008-512.png", "custom_css": null}, {"id": 9786, "slack_id": "U0927Q2DB42", "display_name": "Ivan Yochev", "bio": null, "projects_count": 1, "devlogs_count": 3, "votes_count": 1, "ships_count": 0, "projects": [{"id": 6571, "title": "3D graph", "devlogs_count": 1, "created_at": "2025-07-14T10:17:16.617-04:00"}], "coding_time_seconds": 111077, "coding_time_seconds_today": 851, "balance": "You need to have a pocket watcher badge to view this.", "badges": [{"name": "Maiden Voyage", "text": "you shipped your first project! the journey begins...", "icon": "\ud83d\udea2"}], "created_at": "2025-06-19T12:28:50.250-04:00", "updated_at": "2025-09-10T22:56:03.687-04:00", "avatar": "https://secure.gravatar.com/avatar/a7f5917e8633d68c8c915da7ca66a047.jpg?s=512&d=https%3A%2F%2Fa.slack-edge.com%2Fdf10d%2Fimg%2Favatars%2Fava_0024-512.png", "custom_css": null}, {"id": 9787, "slack_id": "U092WBUQKQ8", "display_name": "Dhyanarth", "bio": null, "projects_count": 0, "devlogs_count": 0, "votes_count": 0, "ships_count": 0, "projects": [], "coding_time_seconds": 0, "coding_time_seconds_today": 0, "balance": "You need to have a pocket watcher badge to view this.", "badges": [], "created_at": "2025-06-19T12:28:52.290-04:00", "updated_at": "2025-07-03T19:53:23.340-04:00", "avatar": "https://secure.gravatar.com/avatar/1cabe345a3f4a8d1c008a3a5c73a0e6e.jpg?s=512&d=https%3A%2F%2Fa.slack-edge.com%2Fdf10d%2Fimg%2Favatars%2Fava_0012-512.png", "custom_css": null}, {"id": 9788, "slack_id": "U09288SJMS8", "display_name": "Rafael Thiago Campos Ribeiro", "bio": null, "projects_count": 0, "devlogs_count": 0, "votes_count": 0, "ships_count": 0, "projects": [], "coding_time_seconds": 0, "coding_time_seconds_today": 0, "balance": "You need to have a pocket watcher badge to view this.", "badges": [], "created_at": "2025-06-19T12:29:15.142-04:00", "updated_at": "2025-07-04T20:10:25.527-04:00", "avatar": "https://secure.gravatar.com/avatar/884e64927c7cb24df2dd648ce6654417.jpg?s=512&d=https%3A%2F%2Fa.slack-edge.com%2Fdf10d%2Fimg%2Favatars%2Fava_0013-512.png", "custom_css": null}, {"id": 9789, "slack_id": "U092LNREY4R", "display_name": "Federico Toluzzo", "bio": null, "projects_count": 0, "devlogs_count": 0, "votes_count": 0, "ships_count": 0, "projects": [], "coding_time_seconds": 0, "coding_time_seconds_today": 0, "balance": "You need to have a pocket watcher badge to view this.", "badges": [], "created_at": "2025-06-19T12:30:30.106-04:00", "updated_at": "2025-07-03T19:53:23.758-04:00", "avatar": "https://secure.gravatar.com/avatar/4e61427cbeaa73d589b4d2a20694848b.jpg?s=512&d=https%3A%2F%2Fa.slack-edge.com%2Fdf10d%2Fimg%2Favatars%2Fava_0021-512.png", "custom_css": null}, {"id": 9790, "slack_id": "U092893C1C4", "display_name": "Karan Rathore", "bio": null, "projects_count": 1, "devlogs_count": 3, "votes_count": 0, "ships_count": 0, "projects": [{"id": 2446, "title": "Netflix Clone", "devlogs_count": 3, "created_at": "2025-06-21T03:47:59.785-04:00"}], "coding_time_seconds": 8657, "coding_time_seconds_today": 0, "balance": "You need to have a pocket watcher badge to view this.", "badges": [], "created_at": "2025-06-19T12:31:22.512-04:00", "updated_at": "2025-07-03T19:53:24.033-04:00", "avatar": "https://avatars.slack-edge.com/2025-06-19/9098432224816_f9aded71b631ca3092dd_original.jpg", "custom_css": null}, {"id": 9791, "slack_id": "U0926Q1HUCV", "display_name": "Atul Ganvir", "bio": null, "projects_count": 0, "devlogs_count": 0, "votes_count": 0, "ships_count": 0, "projects": [], "coding_time_seconds": 98248, "coding_time_seconds_today": 0, "balance": "You need to have a pocket watcher badge to view this.", "badges": [], "created_at": "2025-06-19T12:31:45.695-04:00", "updated_at": "2025-07-03T19:53:24.305-04:00", "avatar": "https://secure.gravatar.com/avatar/7b5337878d84f3e28bac0f1fe86ee0a9.jpg?s=512&d=https%3A%2F%2Fa.slack-edge.com%2Fdf10d%2Fimg%2Favatars%2Fava_0017-512.png", "custom_css": null}, {"id": 9792, "slack_id": "U092WCBDARE", "display_name": "BhavyaOP", "bio": null, "projects_count": 0, "devlogs_count": 0, "votes_count": 0, "ships_count": 0, "projects": [], "coding_time_seconds": 0, "coding_time_seconds_today": 0, "balance": "You need to have a pocket watcher badge to view this.", "badges": [], "created_at": "2025-06-19T12:32:10.124-04:00", "updated_at": "2025-07-03T19:53:24.578-04:00", "avatar": "https://avatars.slack-edge.com/2025-06-20/9076779647828_b29683bbf32ed494af48_original.jpg", "custom_css": null}, {"id": 9793, "slack_id": "U0921RKCD8E", "display_name": "Wendy Afi Adeti", "bio": null, "projects_count": 0, "devlogs_count": 0, "votes_count": 0, "ships_count": 0, "projects": [], "coding_time_seconds": 0, "coding_time_seconds_today": 0, "balance": "You need to have a pocket watcher badge to view this.", "badges": [], "created_at": "2025-06-19T12:35:27.571-04:00", "updated_at": "2025-07-03T19:53:24.856-04:00", "avatar": "https://secure.gravatar.com/avatar/d961835cea4cfa0a965cd51ee93e28b8.jpg?s=512&d=https%3A%2F%2Fa.slack-edge.com%2Fdf10d%2Fimg%2Favatars%2Fava_0005-512.png", "custom_css": null}, {"id": 9794, "slack_id": "U0927QYG482", "display_name": "Nikhil Choudhary", "bio": null, "projects_count": 0, "devlogs_count": 0, "votes_count": 0, "ships_count": 0, "projects": [], "coding_time_seconds": 17146, "coding_time_seconds_today": 0, "balance": "You need to have a pocket watcher badge to view this.", "badges": [], "created_at": "2025-06-19T12:36:48.175-04:00", "updated_at": "2025-07-03T19:53:25.120-04:00", "avatar": "https://secure.gravatar.com/avatar/16f41e6aadcfdc1e27590d31d3ca2110.jpg?s=512&d=https%3A%2F%2Fa.slack-edge.com%2Fdf10d%2Fimg%2Favatars%2Fava_0012-512.png", "custom_css": null}, {"id": 9795, "slack_id": "U07BCKM3MT8", "display_name": "David", "bio": null, "projects_count": 0, "devlogs_count": 0, "votes_count": 0, "ships_count": 0, "projects": [], "coding_time_seconds": 0, "coding_time_seconds_today": 0, "balance": "You need to have a pocket watcher badge to view this.", "badges": [], "created_at": "2025-06-19T12:38:48.878-04:00", "updated_at": "2025-07-03T19:53:25.379-04:00", "avatar": "https://avatars.slack-edge.com/2024-07-11/7405873239746_313819042a123fbdbf05_original.jpg", "custom_css": null}, {"id": 9796, "slack_id": "U092WCVPV0Q", "display_name": "Kartik Patil", "bio": null, "projects_count": 5, "devlogs_count": 36, "votes_count": 86, "ships_count": 4, "projects": [{"id": 5063, "title": "ChaiHub", "devlogs_count": 13, "created_at": "2025-07-03T02:18:56.357-04:00"}, {"id": 11261, "title": "AirHopNet", "devlogs_count": 3, "created_at": "2025-08-14T11:18:24.957-04:00"}, {"id": 13476, "title": "Pixel Alchemy", "devlogs_count": 4, "created_at": "2025-09-17T11:21:58.836-04:00"}, {"id": 3618, "title": "Student Registory", "devlogs_count": 5, "created_at": "2025-06-25T01:15:33.524-04:00"}, {"id": 1883, "title": "Darkmesh", "devlogs_count": 11, "created_at": "2025-06-19T14:22:34.269-04:00"}], "coding_time_seconds": 506552, "coding_time_seconds_today": 0, "balance": "You need to have a pocket watcher badge to view this.", "badges": [{"name": "Maiden Voyage", "text": "you shipped your first project! the journey begins...", "icon": "\ud83d\udea2"}, {"name": "Ballot Stuffer", "text": "vote 100 times.", "icon": "https://summer.hackclub.com/assets/i_voted-bf851b48.png"}], "created_at": "2025-06-19T12:39:50.791-04:00", "updated_at": "2025-09-10T22:56:03.927-04:00", "avatar": "https://avatars.slack-edge.com/2025-07-29/9270479324180_0df912e98b6ec819b822_original.png", "custom_css": null}, {"id": 9797, "slack_id": "U092WDD054Y", "display_name": "Evan", "bio": null, "projects_count": 0, "devlogs_count": 0, "votes_count": 0, "ships_count": 0, "projects": [], "coding_time_seconds": 22985, "coding_time_seconds_today": 0, "balance": "You need to have a pocket watcher badge to view this.", "badges": [], "created_at": "2025-06-19T12:41:53.662-04:00", "updated_at": "2025-07-24T13:11:32.714-04:00", "avatar": "https://secure.gravatar.com/avatar/b59a99630f81b73283ada8a52b512a92.jpg?s=512&d=https%3A%2F%2Fa.slack-edge.com%2Fdf10d%2Fimg%2Favatars%2Fava_0011-512.png", "custom_css": null}, {"id": 9798, "slack_id": "U091KJPDSBV", "display_name": "JJ", "bio": null, "projects_count": 0, "devlogs_count": 0, "votes_count": 0, "ships_count": 0, "projects": [], "coding_time_seconds": 0, "coding_time_seconds_today": 0, "balance": "You need to have a pocket watcher badge to view this.", "badges": [], "created_at": "2025-06-19T12:43:56.384-04:00", "updated_at": "2025-07-03T19:53:26.254-04:00", "avatar": "https://secure.gravatar.com/avatar/89ce36554d42391ecd8a65d02369d3ce.jpg?s=512&d=https%3A%2F%2Fa.slack-edge.com%2Fdf10d%2Fimg%2Favatars%2Fava_0007-512.png", "custom_css": null}, {"id": 9799, "slack_id": "U092WDWP788", "display_name": "happy", "bio": null, "projects_count": 3, "devlogs_count": 7, "votes_count": 10, "ships_count": 1, "projects": [{"id": 1877, "title": "resumyy", "devlogs_count": 0, "created_at": "2025-06-19T13:53:12.600-04:00"}, {"id": 2284, "title": "Disable Video Autoplay", "devlogs_count": 2, "created_at": "2025-06-20T16:13:02.999-04:00"}, {"id": 1973, "title": "Assignme", "devlogs_count": 5, "created_at": "2025-06-19T19:11:43.877-04:00"}], "coding_time_seconds": 73677, "coding_time_seconds_today": 0, "balance": "You need to have a pocket watcher badge to view this.", "badges": [{"name": "Maiden Voyage", "text": "you shipped your first project! the journey begins...", "icon": "\ud83d\udea2"}], "created_at": "2025-06-19T12:45:30.352-04:00", "updated_at": "2025-09-10T22:56:03.995-04:00", "avatar": "https://secure.gravatar.com/avatar/5c5c35eaa7efe81f7c7dafc713575940.jpg?s=512&d=https%3A%2F%2Fa.slack-edge.com%2Fdf10d%2Fimg%2Favatars%2Fava_0016-512.png", "custom_css": null}, {"id": 9800, "slack_id": "U092LQR5RQR", "display_name": "Aadesh", "bio": null, "projects_count": 0, "devlogs_count": 0, "votes_count": 0, "ships_count": 0, "projects": [], "coding_time_seconds": 0, "coding_time_seconds_today": 0, "balance": "You need to have a pocket watcher badge to view this.", "badges": [], "created_at": "2025-06-19T12:47:54.409-04:00", "updated_at": "2025-07-03T19:53:26.801-04:00", "avatar": "https://secure.gravatar.com/avatar/63e45bc0a7cde844ec7bd4e302216c4e.jpg?s=512&d=https%3A%2F%2Fa.slack-edge.com%2Fdf10d%2Fimg%2Favatars%2Fava_0010-512.png", "custom_css": null}], "pagination": {"page": 490, "pages": 1192, "count": 23828, "items": 20}}