{"users": [{"id": 9801, "slack_id": "U091T7MGCTH", "display_name": "Thuan Nguyen", "bio": null, "projects_count": 0, "devlogs_count": 0, "votes_count": 0, "ships_count": 0, "projects": [], "coding_time_seconds": 0, "coding_time_seconds_today": 0, "balance": "You need to have a pocket watcher badge to view this.", "badges": [], "created_at": "2025-06-19T12:48:09.927-04:00", "updated_at": "2025-07-03T19:53:27.066-04:00", "avatar": "https://secure.gravatar.com/avatar/24178c652a58cb56c5baaa6db871040c.jpg?s=512&d=https%3A%2F%2Fa.slack-edge.com%2Fdf10d%2Fimg%2Favatars%2Fava_0006-512.png", "custom_css": null}, {"id": 9802, "slack_id": "U0921T621QE", "display_name": "erwin", "bio": null, "projects_count": 0, "devlogs_count": 0, "votes_count": 0, "ships_count": 0, "projects": [], "coding_time_seconds": 0, "coding_time_seconds_today": 0, "balance": "You need to have a pocket watcher badge to view this.", "badges": [], "created_at": "2025-06-19T12:49:35.144-04:00", "updated_at": "2025-07-03T19:53:27.338-04:00", "avatar": "https://secure.gravatar.com/avatar/7a8e1a08747081ea173cc768bcf94a99.jpg?s=512&d=https%3A%2F%2Fa.slack-edge.com%2Fdf10d%2Fimg%2Favatars%2Fava_0008-512.png", "custom_css": null}, {"id": 9803, "slack_id": "U091T7WLLCX", "display_name": "Krishna", "bio": null, "projects_count": 3, "devlogs_count": 6, "votes_count": 20, "ships_count": 1, "projects": [{"id": 3077, "title": "Spectral", "devlogs_count": 4, "created_at": "2025-06-23T02:44:40.077-04:00"}, {"id": 10090, "title": "Scrambler", "devlogs_count": 1, "created_at": "2025-08-04T00:16:03.863-04:00"}, {"id": 10203, "title": "Palladium", "devlogs_count": 1, "created_at": "2025-08-04T21:46:27.713-04:00"}], "coding_time_seconds": 70557, "coding_time_seconds_today": 0, "balance": "You need to have a pocket watcher badge to view this.", "badges": [{"name": "Maiden Voyage", "text": "you shipped your first project! the journey begins...", "icon": "\ud83d\udea2"}], "created_at": "2025-06-19T12:50:32.074-04:00", "updated_at": "2025-09-10T22:56:04.091-04:00", "avatar": "https://secure.gravatar.com/avatar/77230353757d7aec10609dd8246222c3.jpg?s=512&d=https%3A%2F%2Fa.slack-edge.com%2Fdf10d%2Fimg%2Favatars%2Fava_0005-512.png", "custom_css": null}, {"id": 9804, "slack_id": "U087DL97UN4", "display_name": "Marwan Algharably", "bio": null, "projects_count": 0, "devlogs_count": 29, "votes_count": 118, "ships_count": 0, "projects": [], "coding_time_seconds": 665784, "coding_time_seconds_today": 0, "balance": "You need to have a pocket watcher badge to view this.", "badges": [{"name": "Maiden Voyage", "text": "you shipped your first project! the journey begins...", "icon": "\ud83d\udea2"}, {"name": "Ballot Stuffer", "text": "vote 100 times.", "icon": "https://summer.hackclub.com/assets/i_voted-bf851b48.png"}], "created_at": "2025-06-19T12:51:18.401-04:00", "updated_at": "2025-09-10T22:56:04.132-04:00", "avatar": "https://avatars.slack-edge.com/2025-06-19/9098514865408_4ccec03bd4a4a1feacdc_original.jpg", "custom_css": null}, {"id": 9805, "slack_id": "U091MU1G27R", "display_name": "Sumama", "bio": null, "projects_count": 0, "devlogs_count": 0, "votes_count": 0, "ships_count": 0, "projects": [], "coding_time_seconds": 0, "coding_time_seconds_today": 0, "balance": "You need to have a pocket watcher badge to view this.", "badges": [], "created_at": "2025-06-19T12:51:25.665-04:00", "updated_at": "2025-07-03T19:53:28.133-04:00", "avatar": "https://secure.gravatar.com/avatar/12fcd0074e27ea28711419cddaf5f5bb.jpg?s=512&d=https%3A%2F%2Fa.slack-edge.com%2Fdf10d%2Fimg%2Favatars%2Fava_0026-512.png", "custom_css": null}, {"id": 9806, "slack_id": "U092T6CLWM6", "display_name": "Auburger", "bio": null, "projects_count": 0, "devlogs_count": 0, "votes_count": 0, "ships_count": 0, "projects": [], "coding_time_seconds": 0, "coding_time_seconds_today": 0, "balance": "You need to have a pocket watcher badge to view this.", "badges": [], "created_at": "2025-06-19T12:53:59.588-04:00", "updated_at": "2025-07-04T20:10:26.575-04:00", "avatar": "https://secure.gravatar.com/avatar/906b321e5ad77d1cd646be5cd9aa94be.jpg?s=512&d=https%3A%2F%2Fa.slack-edge.com%2Fdf10d%2Fimg%2Favatars%2Fava_0026-512.png", "custom_css": null}, {"id": 9807, "slack_id": "U0921TN9JTY", "display_name": "Vidush Jindal", "bio": null, "projects_count": 0, "devlogs_count": 0, "votes_count": 0, "ships_count": 0, "projects": [], "coding_time_seconds": 0, "coding_time_seconds_today": 0, "balance": "You need to have a pocket watcher badge to view this.", "badges": [], "created_at": "2025-06-19T12:54:35.363-04:00", "updated_at": "2025-07-03T19:53:28.541-04:00", "avatar": "https://secure.gravatar.com/avatar/ef84fa634d672dd7f0e39a5f663055e0.jpg?s=512&d=https%3A%2F%2Fa.slack-edge.com%2Fdf10d%2Fimg%2Favatars%2Fava_0005-512.png", "custom_css": null}, {"id": 9808, "slack_id": "U092LRJQYPK", "display_name": "firas kh", "bio": null, "projects_count": 0, "devlogs_count": 0, "votes_count": 0, "ships_count": 0, "projects": [], "coding_time_seconds": 0, "coding_time_seconds_today": 0, "balance": "You need to have a pocket watcher badge to view this.", "badges": [], "created_at": "2025-06-19T12:55:41.933-04:00", "updated_at": "2025-07-03T19:53:28.796-04:00", "avatar": "https://secure.gravatar.com/avatar/b65ee99625feaa1cfa343a531e022fbc.jpg?s=512&d=https%3A%2F%2Fa.slack-edge.com%2Fdf10d%2Fimg%2Favatars%2Fava_0002-512.png", "custom_css": null}, {"id": 9809, "slack_id": "U091T8FQBN3", "display_name": "Tim Heitmann", "bio": null, "projects_count": 0, "devlogs_count": 0, "votes_count": 0, "ships_count": 0, "projects": [], "coding_time_seconds": 1119, "coding_time_seconds_today": 0, "balance": "You need to have a pocket watcher badge to view this.", "badges": [], "created_at": "2025-06-19T12:56:06.606-04:00", "updated_at": "2025-07-03T21:48:10.055-04:00", "avatar": "https://secure.gravatar.com/avatar/3d0b1ae3397260daa0764bf047dc28e2.jpg?s=512&d=https%3A%2F%2Fa.slack-edge.com%2Fdf10d%2Fimg%2Favatars%2Fava_0012-512.png", "custom_css": null}, {"id": 9810, "slack_id": "U092WF3V6D6", "display_name": "Kushal Shakya", "bio": null, "projects_count": 1, "devlogs_count": 0, "votes_count": 3, "ships_count": 0, "projects": [{"id": 1880, "title": "DevDeck", "devlogs_count": 0, "created_at": "2025-06-19T14:05:03.305-04:00"}], "coding_time_seconds": 19169, "coding_time_seconds_today": 0, "balance": "You need to have a pocket watcher badge to view this.", "badges": [], "created_at": "2025-06-19T12:56:48.434-04:00", "updated_at": "2025-07-03T19:53:29.192-04:00", "avatar": "https://secure.gravatar.com/avatar/d6ca2a2dbab09184e4da73126ff99e0c.jpg?s=512&d=https%3A%2F%2Fa.slack-edge.com%2Fdf10d%2Fimg%2Favatars%2Fava_0009-512.png", "custom_css": null}, {"id": 9811, "slack_id": "U091T8Z2QGP", "display_name": "Luis Gaxioal", "bio": null, "projects_count": 1, "devlogs_count": 1, "votes_count": 0, "ships_count": 0, "projects": [{"id": 1866, "title": "Inventory and Tickets sistem", "devlogs_count": 1, "created_at": "2025-06-19T13:13:47.319-04:00"}], "coding_time_seconds": 5684, "coding_time_seconds_today": 0, "balance": "You need to have a pocket watcher badge to view this.", "badges": [], "created_at": "2025-06-19T13:00:24.415-04:00", "updated_at": "2025-07-03T22:00:12.137-04:00", "avatar": "https://secure.gravatar.com/avatar/955c057fc4e81e88f7fde4cfef4ac738.jpg?s=512&d=https%3A%2F%2Fa.slack-edge.com%2Fdf10d%2Fimg%2Favatars%2Fava_0011-512.png", "custom_css": null}, {"id": 9812, "slack_id": "U0928D10K7E", "display_name": "Caleb Rodriguez", "bio": null, "projects_count": 0, "devlogs_count": 0, "votes_count": 0, "ships_count": 0, "projects": [], "coding_time_seconds": 0, "coding_time_seconds_today": 0, "balance": "You need to have a pocket watcher badge to view this.", "badges": [], "created_at": "2025-06-19T13:04:41.985-04:00", "updated_at": "2025-07-03T19:53:29.592-04:00", "avatar": "https://secure.gravatar.com/avatar/a372d4add8050ec5c9115e540c37a0e5.jpg?s=512&d=https%3A%2F%2Fa.slack-edge.com%2Fdf10d%2Fimg%2Favatars%2Fava_0001-512.png", "custom_css": null}, {"id": 9813, "slack_id": "U08S635DBUN", "display_name": "Eli Peters", "bio": "", "projects_count": 3, "devlogs_count": 19, "votes_count": 40, "ships_count": 2, "projects": [{"id": 13315, "title": "Web Dev Journey", "devlogs_count": 12, "created_at": "2025-09-13T21:43:56.957-04:00"}, {"id": 5047, "title": "Slider Game", "devlogs_count": 5, "created_at": "2025-07-02T22:57:24.240-04:00"}, {"id": 10074, "title": "Learning C#", "devlogs_count": 2, "created_at": "2025-08-03T21:05:10.400-04:00"}], "coding_time_seconds": 92377, "coding_time_seconds_today": 0, "balance": "You need to have a pocket watcher badge to view this.", "badges": [{"name": "Maiden Voyage", "text": "you shipped your first project! the journey begins...", "icon": "\ud83d\udea2"}], "created_at": "2025-06-19T13:07:09.336-04:00", "updated_at": "2025-09-10T22:56:04.342-04:00", "avatar": "https://secure.gravatar.com/avatar/65edcc8c28f3837f6428d5d36d7d4003.jpg?s=512&d=https%3A%2F%2Fa.slack-edge.com%2Fdf10d%2Fimg%2Favatars%2Fava_0023-512.png", "custom_css": null}, {"id": 9814, "slack_id": "U0927UD94M8", "display_name": "Gabriel Baume", "bio": null, "projects_count": 0, "devlogs_count": 0, "votes_count": 0, "ships_count": 0, "projects": [], "coding_time_seconds": 0, "coding_time_seconds_today": 0, "balance": "You need to have a pocket watcher badge to view this.", "badges": [], "created_at": "2025-06-19T13:07:59.470-04:00", "updated_at": "2025-07-03T22:00:12.389-04:00", "avatar": "https://secure.gravatar.com/avatar/42797c03726952d6d5877a3e29591752.jpg?s=512&d=https%3A%2F%2Fa.slack-edge.com%2Fdf10d%2Fimg%2Favatars%2Fava_0006-512.png", "custom_css": null}, {"id": 9815, "slack_id": "U0921NXJN65", "display_name": "bananaking6", "bio": null, "projects_count": 3, "devlogs_count": 8, "votes_count": 28, "ships_count": 3, "projects": [{"id": 2598, "title": "Square Game", "devlogs_count": 5, "created_at": "2025-06-21T12:20:42.026-04:00"}, {"id": 4998, "title": "P2P Transfer", "devlogs_count": 2, "created_at": "2025-07-02T15:39:16.656-04:00"}, {"id": 10487, "title": "MC Stats Viewer (JAVA EDITION)", "devlogs_count": 1, "created_at": "2025-08-07T12:55:22.354-04:00"}], "coding_time_seconds": 110599, "coding_time_seconds_today": 0, "balance": "You need to have a pocket watcher badge to view this.", "badges": [{"name": "Maiden Voyage", "text": "you shipped your first project! the journey begins...", "icon": "\ud83d\udea2"}], "created_at": "2025-06-19T13:08:25.289-04:00", "updated_at": "2025-09-10T22:56:04.381-04:00", "avatar": "https://secure.gravatar.com/avatar/ffd357c36d8aabd8130e9700d63a6aeb.jpg?s=512&d=https%3A%2F%2Fa.slack-edge.com%2Fdf10d%2Fimg%2Favatars%2Fava_0006-512.png", "custom_css": null}, {"id": 9816, "slack_id": "U092LSZR20Z", "display_name": "Igor Cardoso", "bio": null, "projects_count": 0, "devlogs_count": 0, "votes_count": 0, "ships_count": 0, "projects": [], "coding_time_seconds": 0, "coding_time_seconds_today": 0, "balance": "You need to have a pocket watcher badge to view this.", "badges": [], "created_at": "2025-06-19T13:09:06.681-04:00", "updated_at": "2025-07-04T08:25:48.025-04:00", "avatar": "https://avatars.slack-edge.com/2025-06-19/9088939080385_5e795e2051a4f589e80a_original.png", "custom_css": null}, {"id": 9817, "slack_id": "U07QL8DTV6W", "display_name": "sekenspy", "bio": null, "projects_count": 0, "devlogs_count": 0, "votes_count": 0, "ships_count": 0, "projects": [], "coding_time_seconds": 58060, "coding_time_seconds_today": 0, "balance": "You need to have a pocket watcher badge to view this.", "badges": [], "created_at": "2025-06-19T13:09:58.655-04:00", "updated_at": "2025-07-03T21:48:10.759-04:00", "avatar": "https://secure.gravatar.com/avatar/543fc1479d050a35d8c8988aa96d35d6.jpg?s=512&d=https%3A%2F%2Fa.slack-edge.com%2Fdf10d%2Fimg%2Favatars%2Fava_0020-512.png", "custom_css": null}, {"id": 9818, "slack_id": "U091T9NLK7H", "display_name": "Golden Morning", "bio": null, "projects_count": 1, "devlogs_count": 44, "votes_count": 27, "ships_count": 1, "projects": [{"id": 3990, "title": "Rebirth - 2107", "devlogs_count": 44, "created_at": "2025-06-26T17:46:37.940-04:00"}], "coding_time_seconds": 447903, "coding_time_seconds_today": 0, "balance": "You need to have a pocket watcher badge to view this.", "badges": [{"name": "Maiden Voyage", "text": "you shipped your first project! the journey begins...", "icon": "\ud83d\udea2"}], "created_at": "2025-06-19T13:10:07.744-04:00", "updated_at": "2025-09-10T22:56:04.448-04:00", "avatar": "https://secure.gravatar.com/avatar/6fef12f0250208da33263fabda2489e5.jpg?s=512&d=https%3A%2F%2Fa.slack-edge.com%2Fdf10d%2Fimg%2Favatars%2Fava_0009-512.png", "custom_css": null}, {"id": 9819, "slack_id": "U0928DLRDAQ", "display_name": "Anurag Pal", "bio": null, "projects_count": 0, "devlogs_count": 0, "votes_count": 0, "ships_count": 0, "projects": [], "coding_time_seconds": 0, "coding_time_seconds_today": 0, "balance": "You need to have a pocket watcher badge to view this.", "badges": [], "created_at": "2025-06-19T13:10:25.299-04:00", "updated_at": "2025-07-03T19:53:30.950-04:00", "avatar": "https://secure.gravatar.com/avatar/de5f6c8729042f1357a979aa6aa0ec7b.jpg?s=512&d=https%3A%2F%2Fa.slack-edge.com%2Fdf10d%2Fimg%2Favatars%2Fava_0012-512.png", "custom_css": null}, {"id": 9820, "slack_id": "U0928E07JDA", "display_name": "Jett2106", "bio": null, "projects_count": 0, "devlogs_count": 0, "votes_count": 0, "ships_count": 0, "projects": [], "coding_time_seconds": 0, "coding_time_seconds_today": 0, "balance": "You need to have a pocket watcher badge to view this.", "badges": [], "created_at": "2025-06-19T13:14:07.915-04:00", "updated_at": "2025-07-03T19:53:31.203-04:00", "avatar": "https://secure.gravatar.com/avatar/34c0451ea99454522c4fcbcc4562c264.jpg?s=512&d=https%3A%2F%2Fa.slack-edge.com%2Fdf10d%2Fimg%2Favatars%2Fava_0006-512.png", "custom_css": null}], "pagination": {"page": 491, "pages": 1192, "count": 23828, "items": 20}}