{"users": [{"id": 9821, "slack_id": "U092WH4CZ6U", "display_name": "Khushal Yadav", "bio": null, "projects_count": 0, "devlogs_count": 0, "votes_count": 0, "ships_count": 0, "projects": [], "coding_time_seconds": 0, "coding_time_seconds_today": 0, "balance": "You need to have a pocket watcher badge to view this.", "badges": [], "created_at": "2025-06-19T13:14:46.456-04:00", "updated_at": "2025-07-03T19:53:31.463-04:00", "avatar": "https://secure.gravatar.com/avatar/44102ed60cd3c73ef2cce9fd44d35a4e.jpg?s=512&d=https%3A%2F%2Fa.slack-edge.com%2Fdf10d%2Fimg%2Favatars%2Fava_0025-512.png", "custom_css": null}, {"id": 9822, "slack_id": "U0927VD7TDY", "display_name": "Ayush", "bio": null, "projects_count": 0, "devlogs_count": 0, "votes_count": 0, "ships_count": 0, "projects": [], "coding_time_seconds": 0, "coding_time_seconds_today": 0, "balance": "You need to have a pocket watcher badge to view this.", "badges": [], "created_at": "2025-06-19T13:15:31.626-04:00", "updated_at": "2025-07-03T19:53:31.733-04:00", "avatar": "https://secure.gravatar.com/avatar/a6355e9094ca2e3d72fec90e187ce192.jpg?s=512&d=https%3A%2F%2Fa.slack-edge.com%2Fdf10d%2Fimg%2Favatars%2Fava_0010-512.png", "custom_css": null}, {"id": 9823, "slack_id": "U091MBX5VAT", "display_name": "Rohan Saini", "bio": null, "projects_count": 0, "devlogs_count": 0, "votes_count": 0, "ships_count": 0, "projects": [], "coding_time_seconds": 0, "coding_time_seconds_today": 0, "balance": "You need to have a pocket watcher badge to view this.", "badges": [], "created_at": "2025-06-19T13:16:06.178-04:00", "updated_at": "2025-07-03T19:53:32.006-04:00", "avatar": "https://avatars.slack-edge.com/2025-06-19/9076497348180_c38e279a09604b2d9e00_original.png", "custom_css": null}, {"id": 9824, "slack_id": "U09220QUXQW", "display_name": "Samuel K Mensah", "bio": null, "projects_count": 0, "devlogs_count": 0, "votes_count": 0, "ships_count": 0, "projects": [], "coding_time_seconds": 572541, "coding_time_seconds_today": 0, "balance": "You need to have a pocket watcher badge to view this.", "badges": [], "created_at": "2025-06-19T13:17:15.920-04:00", "updated_at": "2025-07-03T21:48:11.253-04:00", "avatar": "https://avatars.slack-edge.com/2025-06-19/9098606562432_387ac15f817a33cd6156_original.png", "custom_css": null}, {"id": 9825, "slack_id": "U092WHRPV3J", "display_name": "Vikash Kumar", "bio": null, "projects_count": 0, "devlogs_count": 0, "votes_count": 0, "ships_count": 0, "projects": [], "coding_time_seconds": 0, "coding_time_seconds_today": 0, "balance": "You need to have a pocket watcher badge to view this.", "badges": [], "created_at": "2025-06-19T13:19:45.423-04:00", "updated_at": "2025-07-03T21:48:11.376-04:00", "avatar": "https://secure.gravatar.com/avatar/447d2debc51d8e70363fb4b8e42f3661.jpg?s=512&d=https%3A%2F%2Fa.slack-edge.com%2Fdf10d%2Fimg%2Favatars%2Fava_0013-512.png", "custom_css": null}, {"id": 9826, "slack_id": "U091TBCHM0F", "display_name": "byteSlinger", "bio": null, "projects_count": 0, "devlogs_count": 0, "votes_count": 0, "ships_count": 0, "projects": [], "coding_time_seconds": 6740, "coding_time_seconds_today": 0, "balance": "You need to have a pocket watcher badge to view this.", "badges": [], "created_at": "2025-06-19T13:23:08.714-04:00", "updated_at": "2025-07-04T02:29:31.861-04:00", "avatar": "https://secure.gravatar.com/avatar/a8f6a18372226e617328109abbece1d2.jpg?s=512&d=https%3A%2F%2Fa.slack-edge.com%2Fdf10d%2Fimg%2Favatars%2Fava_0020-512.png", "custom_css": null}, {"id": 9827, "slack_id": "U09280Q8VAN", "display_name": "Navaneedan S", "bio": null, "projects_count": 0, "devlogs_count": 0, "votes_count": 0, "ships_count": 0, "projects": [], "coding_time_seconds": 0, "coding_time_seconds_today": 0, "balance": "You need to have a pocket watcher badge to view this.", "badges": [], "created_at": "2025-06-19T13:23:24.133-04:00", "updated_at": "2025-07-03T19:53:32.725-04:00", "avatar": "https://secure.gravatar.com/avatar/01f6e933ea90466c13af91f8456d9608.jpg?s=512&d=https%3A%2F%2Fa.slack-edge.com%2Fdf10d%2Fimg%2Favatars%2Fava_0015-512.png", "custom_css": null}, {"id": 9828, "slack_id": "U0923FBGRFE", "display_name": "M Adu", "bio": null, "projects_count": 0, "devlogs_count": 0, "votes_count": 0, "ships_count": 0, "projects": [], "coding_time_seconds": 243, "coding_time_seconds_today": 0, "balance": "You need to have a pocket watcher badge to view this.", "badges": [], "created_at": "2025-06-19T13:23:58.877-04:00", "updated_at": "2025-07-03T19:53:32.983-04:00", "avatar": "https://avatars.slack-edge.com/2025-06-19/9069730621123_5481576e6424372c08b6_original.jpg", "custom_css": null}, {"id": 9829, "slack_id": "U09271223PX", "display_name": "Nikhil Nagori", "bio": null, "projects_count": 0, "devlogs_count": 0, "votes_count": 0, "ships_count": 0, "projects": [], "coding_time_seconds": 1198, "coding_time_seconds_today": 0, "balance": "You need to have a pocket watcher badge to view this.", "badges": [], "created_at": "2025-06-19T13:24:07.077-04:00", "updated_at": "2025-07-03T19:53:33.264-04:00", "avatar": "https://secure.gravatar.com/avatar/a657b9c375a05dfd782a2df08dc3f473.jpg?s=512&d=https%3A%2F%2Fa.slack-edge.com%2Fdf10d%2Fimg%2Favatars%2Fava_0020-512.png", "custom_css": null}, {"id": 9830, "slack_id": "U092WJ67C3S", "display_name": "Alex Yuan", "bio": null, "projects_count": 0, "devlogs_count": 0, "votes_count": 0, "ships_count": 0, "projects": [], "coding_time_seconds": 0, "coding_time_seconds_today": 0, "balance": "You need to have a pocket watcher badge to view this.", "badges": [], "created_at": "2025-06-19T13:24:31.659-04:00", "updated_at": "2025-07-03T19:53:33.521-04:00", "avatar": "https://secure.gravatar.com/avatar/d58ca5a46b5aee44cde424246172fd56.jpg?s=512&d=https%3A%2F%2Fa.slack-edge.com%2Fdf10d%2Fimg%2Favatars%2Fava_0000-512.png", "custom_css": null}, {"id": 9831, "slack_id": "U091TBR0W1M", "display_name": "Vanshika Shah", "bio": null, "projects_count": 0, "devlogs_count": 0, "votes_count": 0, "ships_count": 0, "projects": [], "coding_time_seconds": 0, "coding_time_seconds_today": 0, "balance": "You need to have a pocket watcher badge to view this.", "badges": [], "created_at": "2025-06-19T13:24:50.218-04:00", "updated_at": "2025-07-03T19:53:33.799-04:00", "avatar": "https://secure.gravatar.com/avatar/65bc6a3da9a752d9ada1479b6ec98802.jpg?s=512&d=https%3A%2F%2Fa.slack-edge.com%2Fdf10d%2Fimg%2Favatars%2Fava_0004-512.png", "custom_css": null}, {"id": 9832, "slack_id": "U07Q4KBRFKL", "display_name": "ameera", "bio": null, "projects_count": 0, "devlogs_count": 0, "votes_count": 0, "ships_count": 0, "projects": [], "coding_time_seconds": 45384, "coding_time_seconds_today": 0, "balance": "You need to have a pocket watcher badge to view this.", "badges": [], "created_at": "2025-06-19T13:26:22.193-04:00", "updated_at": "2025-07-03T19:53:34.099-04:00", "avatar": "https://secure.gravatar.com/avatar/61c78f5f2ea03bdb00a28c2832d8f228.jpg?s=512&d=https%3A%2F%2Fa.slack-edge.com%2Fdf10d%2Fimg%2Favatars%2Fava_0019-512.png", "custom_css": null}, {"id": 9833, "slack_id": "U0921MGV491", "display_name": "salma", "bio": null, "projects_count": 0, "devlogs_count": 0, "votes_count": 0, "ships_count": 0, "projects": [], "coding_time_seconds": 0, "coding_time_seconds_today": 0, "balance": "You need to have a pocket watcher badge to view this.", "badges": [], "created_at": "2025-06-19T13:29:35.897-04:00", "updated_at": "2025-07-03T19:53:34.365-04:00", "avatar": "https://secure.gravatar.com/avatar/02fe680078ab4b81641475f5d1a9568e.jpg?s=512&d=https%3A%2F%2Fa.slack-edge.com%2Fdf10d%2Fimg%2Favatars%2Fava_0001-512.png", "custom_css": null}, {"id": 9834, "slack_id": "U07DTTS0AHK", "display_name": "kat", "bio": null, "projects_count": 0, "devlogs_count": 0, "votes_count": 0, "ships_count": 0, "projects": [], "coding_time_seconds": 16859, "coding_time_seconds_today": 0, "balance": "You need to have a pocket watcher badge to view this.", "badges": [], "created_at": "2025-06-19T13:30:06.357-04:00", "updated_at": "2025-07-03T19:53:34.635-04:00", "avatar": "https://avatars.slack-edge.com/2025-01-22/8336141394754_aaa41dcc65dd76104ffc_original.png", "custom_css": null}, {"id": 9835, "slack_id": "U09271K7HNH", "display_name": "Nathan Le", "bio": null, "projects_count": 0, "devlogs_count": 0, "votes_count": 0, "ships_count": 0, "projects": [], "coding_time_seconds": 0, "coding_time_seconds_today": 0, "balance": "You need to have a pocket watcher badge to view this.", "badges": [], "created_at": "2025-06-19T13:31:36.232-04:00", "updated_at": "2025-07-03T19:53:34.895-04:00", "avatar": "https://secure.gravatar.com/avatar/ad8ae5278c42e1d21f879d04bf041f05.jpg?s=512&d=https%3A%2F%2Fa.slack-edge.com%2Fdf10d%2Fimg%2Favatars%2Fava_0021-512.png", "custom_css": null}, {"id": 9836, "slack_id": "U092M06UP25", "display_name": "a h", "bio": null, "projects_count": 1, "devlogs_count": 1, "votes_count": 0, "ships_count": 0, "projects": [{"id": 6336, "title": "Study-Brawl", "devlogs_count": 1, "created_at": "2025-07-12T13:13:31.269-04:00"}], "coding_time_seconds": 7005, "coding_time_seconds_today": 0, "balance": "You need to have a pocket watcher badge to view this.", "badges": [], "created_at": "2025-06-19T13:31:54.240-04:00", "updated_at": "2025-08-26T08:29:33.294-04:00", "avatar": "https://avatars.slack-edge.com/2025-06-19/9076067823570_9c7c61f09345df31ef17_original.png", "custom_css": null}, {"id": 9837, "slack_id": "U09222J5NG6", "display_name": "Vikram Sathish", "bio": null, "projects_count": 2, "devlogs_count": 6, "votes_count": 4, "ships_count": 1, "projects": [{"id": 3590, "title": "Radiant College Guidance Website", "devlogs_count": 1, "created_at": "2025-06-24T20:34:20.395-04:00"}, {"id": 3977, "title": "RCG Site", "devlogs_count": 5, "created_at": "2025-06-26T15:32:47.377-04:00"}], "coding_time_seconds": 39313, "coding_time_seconds_today": 0, "balance": "You need to have a pocket watcher badge to view this.", "badges": [{"name": "Maiden Voyage", "text": "you shipped your first project! the journey begins...", "icon": "\ud83d\udea2"}], "created_at": "2025-06-19T13:32:13.520-04:00", "updated_at": "2025-09-10T22:56:04.835-04:00", "avatar": "https://secure.gravatar.com/avatar/fb3d5ca31ff436c180841f55e30c35a8.jpg?s=512&d=https%3A%2F%2Fa.slack-edge.com%2Fdf10d%2Fimg%2Favatars%2Fava_0013-512.png", "custom_css": null}, {"id": 9838, "slack_id": "U09271EC63X", "display_name": "Sukarth Acharya", "bio": null, "projects_count": 0, "devlogs_count": 0, "votes_count": 0, "ships_count": 0, "projects": [], "coding_time_seconds": 109236, "coding_time_seconds_today": 0, "balance": "You need to have a pocket watcher badge to view this.", "badges": [], "created_at": "2025-06-19T13:33:22.722-04:00", "updated_at": "2025-07-03T19:53:35.582-04:00", "avatar": "https://avatars.slack-edge.com/2025-06-19/9076073937314_87578b0024dd94e01e50_original.jpg", "custom_css": null}, {"id": 9839, "slack_id": "U092WK6RHPA", "display_name": "Altin Haziri", "bio": null, "projects_count": 0, "devlogs_count": 0, "votes_count": 0, "ships_count": 0, "projects": [], "coding_time_seconds": 0, "coding_time_seconds_today": 0, "balance": "You need to have a pocket watcher badge to view this.", "badges": [], "created_at": "2025-06-19T13:34:48.244-04:00", "updated_at": "2025-07-03T19:53:35.865-04:00", "avatar": "https://secure.gravatar.com/avatar/acc22c6d0ad874b33a6caa83cfe29e01.jpg?s=512&d=https%3A%2F%2Fa.slack-edge.com%2Fdf10d%2Fimg%2Favatars%2Fava_0012-512.png", "custom_css": null}, {"id": 9840, "slack_id": "U091N0JLZTQ", "display_name": "Will Carter", "bio": null, "projects_count": 0, "devlogs_count": 0, "votes_count": 0, "ships_count": 0, "projects": [], "coding_time_seconds": 0, "coding_time_seconds_today": 0, "balance": "You need to have a pocket watcher badge to view this.", "badges": [], "created_at": "2025-06-19T13:35:58.104-04:00", "updated_at": "2025-07-03T19:53:36.135-04:00", "avatar": "https://avatars.slack-edge.com/2025-06-19/9089035989377_51be0cd98b55b558de46_original.jpg", "custom_css": null}], "pagination": {"page": 492, "pages": 1192, "count": 23828, "items": 20}}