{"users": [{"id": 9841, "slack_id": "U0928C01MFW", "display_name": "Zahrah", "bio": null, "projects_count": 0, "devlogs_count": 0, "votes_count": 0, "ships_count": 0, "projects": [], "coding_time_seconds": 825, "coding_time_seconds_today": 0, "balance": "You need to have a pocket watcher badge to view this.", "badges": [], "created_at": "2025-06-19T13:36:09.804-04:00", "updated_at": "2025-07-04T02:29:32.972-04:00", "avatar": "https://secure.gravatar.com/avatar/481974989b20616aec6797da6cc32d0c.jpg?s=512&d=https%3A%2F%2Fa.slack-edge.com%2Fdf10d%2Fimg%2Favatars%2Fava_0001-512.png", "custom_css": null}, {"id": 9842, "slack_id": "U092822PKHQ", "display_name": "Daan", "bio": null, "projects_count": 0, "devlogs_count": 0, "votes_count": 0, "ships_count": 0, "projects": [], "coding_time_seconds": 0, "coding_time_seconds_today": 0, "balance": "You need to have a pocket watcher badge to view this.", "badges": [], "created_at": "2025-06-19T13:37:39.553-04:00", "updated_at": "2025-07-03T19:53:36.543-04:00", "avatar": "https://secure.gravatar.com/avatar/a99ebd07f61cc1157408e19b2cdcfbe4.jpg?s=512&d=https%3A%2F%2Fa.slack-edge.com%2Fdf10d%2Fimg%2Favatars%2Fava_0026-512.png", "custom_css": null}, {"id": 9843, "slack_id": "U09223K0CDU", "display_name": "Klimenko Andriy", "bio": null, "projects_count": 0, "devlogs_count": 0, "votes_count": 0, "ships_count": 0, "projects": [], "coding_time_seconds": 0, "coding_time_seconds_today": 0, "balance": "You need to have a pocket watcher badge to view this.", "badges": [], "created_at": "2025-06-19T13:40:04.806-04:00", "updated_at": "2025-07-04T08:25:49.816-04:00", "avatar": "https://secure.gravatar.com/avatar/6d4cf2d489302a743d504d9f6e8b7e0d.jpg?s=512&d=https%3A%2F%2Fa.slack-edge.com%2Fdf10d%2Fimg%2Favatars%2Fava_0023-512.png", "custom_css": null}, {"id": 9844, "slack_id": "U091NLAHW05", "display_name": "Vaibhav Vanage", "bio": null, "projects_count": 0, "devlogs_count": 0, "votes_count": 0, "ships_count": 0, "projects": [], "coding_time_seconds": 0, "coding_time_seconds_today": 0, "balance": "You need to have a pocket watcher badge to view this.", "badges": [], "created_at": "2025-06-19T13:42:29.520-04:00", "updated_at": "2025-07-05T08:11:23.865-04:00", "avatar": "https://avatars.slack-edge.com/2025-06-19/9089057966097_898364a080aadabdf224_original.png", "custom_css": null}, {"id": 9845, "slack_id": "U081P2JSWR5", "display_name": "i z", "bio": null, "projects_count": 2, "devlogs_count": 8, "votes_count": 1, "ships_count": 0, "projects": [{"id": 1955, "title": "Siddur Gen", "devlogs_count": 8, "created_at": "2025-06-19T17:44:18.408-04:00"}, {"id": 1956, "title": "Siddur Gen", "devlogs_count": 0, "created_at": "2025-06-19T17:44:19.021-04:00"}], "coding_time_seconds": 58362, "coding_time_seconds_today": 0, "balance": "You need to have a pocket watcher badge to view this.", "badges": [], "created_at": "2025-06-19T13:45:06.734-04:00", "updated_at": "2025-07-03T19:53:37.086-04:00", "avatar": "https://secure.gravatar.com/avatar/0a4c6c17332e71d038a916739459057f.jpg?s=512&d=https%3A%2F%2Fa.slack-edge.com%2Fdf10d%2Fimg%2Favatars%2Fava_0014-512.png", "custom_css": null}, {"id": 9846, "slack_id": "U0304PML9UH", "display_name": "Avni Kashyap", "bio": null, "projects_count": 0, "devlogs_count": 0, "votes_count": 0, "ships_count": 0, "projects": [], "coding_time_seconds": 0, "coding_time_seconds_today": 0, "balance": "You need to have a pocket watcher badge to view this.", "badges": [], "created_at": "2025-06-19T13:50:03.599-04:00", "updated_at": "2025-07-03T19:53:37.346-04:00", "avatar": "https://avatars.slack-edge.com/2022-01-22/2992161864802_a2f0ecd13660f79c7f44_original.jpg", "custom_css": null}, {"id": 9847, "slack_id": "U091TEJNGPR", "display_name": "Kip", "bio": null, "projects_count": 1, "devlogs_count": 5, "votes_count": 2, "ships_count": 0, "projects": [{"id": 13686, "title": "FTC Decode Launch Simulator", "devlogs_count": 3, "created_at": "2025-09-22T21:59:28.366-04:00"}], "coding_time_seconds": 227647, "coding_time_seconds_today": 1211, "balance": "You need to have a pocket watcher badge to view this.", "badges": [], "created_at": "2025-06-19T13:51:04.545-04:00", "updated_at": "2025-09-02T13:19:12.440-04:00", "avatar": "https://avatars.slack-edge.com/2025-07-07/9152136461715_b63afcc79b82ce7a8bfd_original.jpg", "custom_css": null}, {"id": 9848, "slack_id": "U09236CEGCR", "display_name": "Sujas", "bio": null, "projects_count": 0, "devlogs_count": 0, "votes_count": 0, "ships_count": 0, "projects": [], "coding_time_seconds": 0, "coding_time_seconds_today": 0, "balance": "You need to have a pocket watcher badge to view this.", "badges": [], "created_at": "2025-06-19T13:52:41.475-04:00", "updated_at": "2025-07-03T19:53:37.897-04:00", "avatar": "https://secure.gravatar.com/avatar/740402a11605cca3637c97b190275c36.jpg?s=512&d=https%3A%2F%2Fa.slack-edge.com%2Fdf10d%2Fimg%2Favatars%2Fava_0007-512.png", "custom_css": null}, {"id": 9849, "slack_id": "U092WM5K0UQ", "display_name": "Omar Zaky Elhosary", "bio": null, "projects_count": 0, "devlogs_count": 0, "votes_count": 0, "ships_count": 0, "projects": [], "coding_time_seconds": 0, "coding_time_seconds_today": 0, "balance": "You need to have a pocket watcher badge to view this.", "badges": [], "created_at": "2025-06-19T13:53:26.663-04:00", "updated_at": "2025-07-03T19:53:38.155-04:00", "avatar": "https://secure.gravatar.com/avatar/29ad9e475cf763ac6f11d23d818d159b.jpg?s=512&d=https%3A%2F%2Fa.slack-edge.com%2Fdf10d%2Fimg%2Favatars%2Fava_0002-512.png", "custom_css": null}, {"id": 9850, "slack_id": "U0928J8TARJ", "display_name": "Levi", "bio": null, "projects_count": 2, "devlogs_count": 3, "votes_count": 4, "ships_count": 0, "projects": [{"id": 2643, "title": "Drive Duster", "devlogs_count": 2, "created_at": "2025-06-21T14:45:01.095-04:00"}, {"id": 6596, "title": "Spears Deluxe (Minecraft Mod)", "devlogs_count": 1, "created_at": "2025-07-14T12:35:20.817-04:00"}], "coding_time_seconds": 12479, "coding_time_seconds_today": 0, "balance": "You need to have a pocket watcher badge to view this.", "badges": [], "created_at": "2025-06-19T13:55:53.086-04:00", "updated_at": "2025-08-26T16:31:19.994-04:00", "avatar": "https://secure.gravatar.com/avatar/ce81a6dc279c37d1454164cbb3aa13bb.jpg?s=512&d=https%3A%2F%2Fa.slack-edge.com%2Fdf10d%2Fimg%2Favatars%2Fava_0014-512.png", "custom_css": null}, {"id": 9851, "slack_id": "U0928JFUEBW", "display_name": "Rachel", "bio": null, "projects_count": 1, "devlogs_count": 0, "votes_count": 0, "ships_count": 0, "projects": [{"id": 10872, "title": "Learning Game dev", "devlogs_count": 0, "created_at": "2025-08-11T13:07:03.112-04:00"}], "coding_time_seconds": 17083, "coding_time_seconds_today": 0, "balance": "You need to have a pocket watcher badge to view this.", "badges": [], "created_at": "2025-06-19T13:57:55.736-04:00", "updated_at": "2025-08-11T15:00:04.067-04:00", "avatar": "https://secure.gravatar.com/avatar/b97a87a6a371f7ba204ba9b02bbc5728.jpg?s=512&d=https%3A%2F%2Fa.slack-edge.com%2Fdf10d%2Fimg%2Favatars%2Fava_0020-512.png", "custom_css": null}, {"id": 9852, "slack_id": "U09283ZPNTU", "display_name": "BitDavide125", "bio": null, "projects_count": 0, "devlogs_count": 0, "votes_count": 0, "ships_count": 0, "projects": [], "coding_time_seconds": 0, "coding_time_seconds_today": 0, "balance": "You need to have a pocket watcher badge to view this.", "badges": [], "created_at": "2025-06-19T13:58:34.218-04:00", "updated_at": "2025-07-03T22:00:15.066-04:00", "avatar": "https://secure.gravatar.com/avatar/55081b36c4c988bc0fc93ded87d82654.jpg?s=512&d=https%3A%2F%2Fa.slack-edge.com%2Fdf10d%2Fimg%2Favatars%2Fava_0022-512.png", "custom_css": null}, {"id": 9853, "slack_id": "U091TFJUF8X", "display_name": "Sangharsha Dhakal", "bio": null, "projects_count": 0, "devlogs_count": 0, "votes_count": 0, "ships_count": 0, "projects": [], "coding_time_seconds": 0, "coding_time_seconds_today": 0, "balance": "You need to have a pocket watcher badge to view this.", "badges": [], "created_at": "2025-06-19T14:00:51.458-04:00", "updated_at": "2025-07-03T19:53:39.086-04:00", "avatar": "https://secure.gravatar.com/avatar/f032ac25c169dd35a242ad07674c695b.jpg?s=512&d=https%3A%2F%2Fa.slack-edge.com%2Fdf10d%2Fimg%2Favatars%2Fava_0001-512.png", "custom_css": null}, {"id": 9854, "slack_id": "U0928JYJUP6", "display_name": "Gold Master", "bio": null, "projects_count": 0, "devlogs_count": 0, "votes_count": 0, "ships_count": 0, "projects": [], "coding_time_seconds": 0, "coding_time_seconds_today": 0, "balance": "You need to have a pocket watcher badge to view this.", "badges": [], "created_at": "2025-06-19T14:01:02.429-04:00", "updated_at": "2025-07-03T19:53:39.346-04:00", "avatar": "https://avatars.slack-edge.com/2025-06-19/9069857166387_e0a6c92eae73aada428f_original.png", "custom_css": null}, {"id": 9855, "slack_id": "U09284X1CFL", "display_name": "Rakin M.", "bio": null, "projects_count": 0, "devlogs_count": 0, "votes_count": 0, "ships_count": 0, "projects": [], "coding_time_seconds": 202, "coding_time_seconds_today": 0, "balance": "You need to have a pocket watcher badge to view this.", "badges": [], "created_at": "2025-06-19T14:05:24.365-04:00", "updated_at": "2025-07-03T19:53:39.604-04:00", "avatar": "https://secure.gravatar.com/avatar/0a63cf8c9533460e1e20d2810201951c.jpg?s=512&d=https%3A%2F%2Fa.slack-edge.com%2Fdf10d%2Fimg%2Favatars%2Fava_0009-512.png", "custom_css": null}, {"id": 9856, "slack_id": "U092M3RJKDX", "display_name": "Yasir Aquil", "bio": null, "projects_count": 0, "devlogs_count": 0, "votes_count": 0, "ships_count": 0, "projects": [], "coding_time_seconds": 49711, "coding_time_seconds_today": 0, "balance": "You need to have a pocket watcher badge to view this.", "badges": [], "created_at": "2025-06-19T14:05:53.488-04:00", "updated_at": "2025-07-04T08:25:50.707-04:00", "avatar": "https://secure.gravatar.com/avatar/7d7db95259621cdb9ceefe400061c597.jpg?s=512&d=https%3A%2F%2Fa.slack-edge.com%2Fdf10d%2Fimg%2Favatars%2Fava_0024-512.png", "custom_css": null}, {"id": 9857, "slack_id": "U091TGA8K9D", "display_name": "Muba _", "bio": null, "projects_count": 0, "devlogs_count": 0, "votes_count": 0, "ships_count": 0, "projects": [], "coding_time_seconds": 49944, "coding_time_seconds_today": 0, "balance": "You need to have a pocket watcher badge to view this.", "badges": [], "created_at": "2025-06-19T14:07:11.568-04:00", "updated_at": "2025-07-03T22:00:15.419-04:00", "avatar": "https://avatars.slack-edge.com/2025-06-19/9069879114195_4efbd32440eaf604154a_original.jpg", "custom_css": null}, {"id": 9858, "slack_id": "U0928KV63C4", "display_name": "Japmann Khiva", "bio": null, "projects_count": 0, "devlogs_count": 0, "votes_count": 0, "ships_count": 0, "projects": [], "coding_time_seconds": 11137, "coding_time_seconds_today": 0, "balance": "You need to have a pocket watcher badge to view this.", "badges": [], "created_at": "2025-06-19T14:10:04.349-04:00", "updated_at": "2025-07-03T22:00:15.536-04:00", "avatar": "https://secure.gravatar.com/avatar/f99710e8387fde414901c5cbf10b38e9.jpg?s=512&d=https%3A%2F%2Fa.slack-edge.com%2Fdf10d%2Fimg%2Favatars%2Fava_0025-512.png", "custom_css": null}, {"id": 9859, "slack_id": "U09226MJVC6", "display_name": "ArnimTaliyan", "bio": null, "projects_count": 0, "devlogs_count": 0, "votes_count": 0, "ships_count": 0, "projects": [], "coding_time_seconds": 0, "coding_time_seconds_today": 0, "balance": "You need to have a pocket watcher badge to view this.", "badges": [], "created_at": "2025-06-19T14:10:09.343-04:00", "updated_at": "2025-07-05T02:11:03.813-04:00", "avatar": "https://secure.gravatar.com/avatar/63bd6a3302a504eeea63b13a8bb69dec.jpg?s=512&d=https%3A%2F%2Fa.slack-edge.com%2Fdf10d%2Fimg%2Favatars%2Fava_0002-512.png", "custom_css": null}, {"id": 9860, "slack_id": "U09275ZT02Z", "display_name": "Jonah Frostick", "bio": null, "projects_count": 0, "devlogs_count": 0, "votes_count": 0, "ships_count": 0, "projects": [], "coding_time_seconds": 0, "coding_time_seconds_today": 0, "balance": "You need to have a pocket watcher badge to view this.", "badges": [], "created_at": "2025-06-19T14:13:30.745-04:00", "updated_at": "2025-07-03T19:53:40.443-04:00", "avatar": "https://secure.gravatar.com/avatar/234cdd31dd3729b21e009a74f3b86221.jpg?s=512&d=https%3A%2F%2Fa.slack-edge.com%2Fdf10d%2Fimg%2Favatars%2Fava_0020-512.png", "custom_css": null}], "pagination": {"page": 493, "pages": 1192, "count": 23828, "items": 20}}