{"users": [{"id": 9861, "slack_id": "U092M4J5FS5", "display_name": "Bishwa Bhusal", "bio": null, "projects_count": 0, "devlogs_count": 0, "votes_count": 0, "ships_count": 0, "projects": [], "coding_time_seconds": 0, "coding_time_seconds_today": 0, "balance": "You need to have a pocket watcher badge to view this.", "badges": [], "created_at": "2025-06-19T14:14:12.445-04:00", "updated_at": "2025-07-03T19:53:40.732-04:00", "avatar": "https://secure.gravatar.com/avatar/3b8fc70fe6741cd202dde7c5f738fd7c.jpg?s=512&d=https%3A%2F%2Fa.slack-edge.com%2Fdf10d%2Fimg%2Favatars%2Fava_0021-512.png", "custom_css": null}, {"id": 9862, "slack_id": "U091MQE1HE3", "display_name": "Abhinav pandey", "bio": null, "projects_count": 0, "devlogs_count": 0, "votes_count": 0, "ships_count": 0, "projects": [], "coding_time_seconds": 0, "coding_time_seconds_today": 0, "balance": "You need to have a pocket watcher badge to view this.", "badges": [], "created_at": "2025-06-19T14:14:36.648-04:00", "updated_at": "2025-07-03T19:53:40.998-04:00", "avatar": "https://secure.gravatar.com/avatar/e1cb3c29ab23d57363d109b5bfceb22f.jpg?s=512&d=https%3A%2F%2Fa.slack-edge.com%2Fdf10d%2Fimg%2Favatars%2Fava_0017-512.png", "custom_css": null}, {"id": 9863, "slack_id": "U092WM4CA0Y", "display_name": "Edwin", "bio": null, "projects_count": 0, "devlogs_count": 0, "votes_count": 0, "ships_count": 0, "projects": [], "coding_time_seconds": 0, "coding_time_seconds_today": 0, "balance": "You need to have a pocket watcher badge to view this.", "badges": [], "created_at": "2025-06-19T14:14:59.953-04:00", "updated_at": "2025-07-03T19:53:41.276-04:00", "avatar": "https://secure.gravatar.com/avatar/1097a74c88ee7fbb163039e9fbcf47f3.jpg?s=512&d=https%3A%2F%2Fa.slack-edge.com%2Fdf10d%2Fimg%2Favatars%2Fava_0018-512.png", "custom_css": null}, {"id": 9864, "slack_id": "U0928LAR2J0", "display_name": "Saddock", "bio": null, "projects_count": 0, "devlogs_count": 0, "votes_count": 0, "ships_count": 0, "projects": [], "coding_time_seconds": 0, "coding_time_seconds_today": 0, "balance": "You need to have a pocket watcher badge to view this.", "badges": [], "created_at": "2025-06-19T14:15:21.258-04:00", "updated_at": "2025-07-03T19:53:41.546-04:00", "avatar": "https://secure.gravatar.com/avatar/5652d289a3ab0222db5a57144c94d3cf.jpg?s=512&d=https%3A%2F%2Fa.slack-edge.com%2Fdf10d%2Fimg%2Favatars%2Fava_0006-512.png", "custom_css": null}, {"id": 9865, "slack_id": "U04J3MRQYGY", "display_name": "Kevin Chang", "bio": null, "projects_count": 0, "devlogs_count": 0, "votes_count": 0, "ships_count": 0, "projects": [], "coding_time_seconds": 0, "coding_time_seconds_today": 0, "balance": "You need to have a pocket watcher badge to view this.", "badges": [], "created_at": "2025-06-19T14:18:08.395-04:00", "updated_at": "2025-08-12T22:59:27.998-04:00", "avatar": "https://avatars.slack-edge.com/2023-01-03/4577506527559_1f524c459c34475ef556_original.png", "custom_css": null}, {"id": 9866, "slack_id": "U09276STYP7", "display_name": "Riyaz Ahmed", "bio": null, "projects_count": 0, "devlogs_count": 0, "votes_count": 0, "ships_count": 0, "projects": [], "coding_time_seconds": 0, "coding_time_seconds_today": 0, "balance": "You need to have a pocket watcher badge to view this.", "badges": [], "created_at": "2025-06-19T14:18:30.156-04:00", "updated_at": "2025-07-03T19:53:42.071-04:00", "avatar": "https://secure.gravatar.com/avatar/077f504e0369a26ae172f8dcbfcb3b15.jpg?s=512&d=https%3A%2F%2Fa.slack-edge.com%2Fdf10d%2Fimg%2Favatars%2Fava_0011-512.png", "custom_css": null}, {"id": 9867, "slack_id": "U09276ZA80M", "display_name": "Levente Bacs\u00f3", "bio": null, "projects_count": 2, "devlogs_count": 4, "votes_count": 19, "ships_count": 1, "projects": [{"id": 1900, "title": "Rald", "devlogs_count": 1, "created_at": "2025-06-19T15:08:01.608-04:00"}, {"id": 2050, "title": "Pady", "devlogs_count": 3, "created_at": "2025-06-20T02:05:31.824-04:00"}], "coding_time_seconds": 123646, "coding_time_seconds_today": 0, "balance": "You need to have a pocket watcher badge to view this.", "badges": [{"name": "Maiden Voyage", "text": "you shipped your first project! the journey begins...", "icon": "\ud83d\udea2"}], "created_at": "2025-06-19T14:19:45.115-04:00", "updated_at": "2025-09-10T22:56:05.545-04:00", "avatar": "https://secure.gravatar.com/avatar/e104bfa496295b0c6b821103ed9bbe63.jpg?s=512&d=https%3A%2F%2Fa.slack-edge.com%2Fdf10d%2Fimg%2Favatars%2Fava_0018-512.png", "custom_css": null}, {"id": 9868, "slack_id": "U091TCN3UUX", "display_name": "Lucas de Souza Silva", "bio": null, "projects_count": 0, "devlogs_count": 0, "votes_count": 0, "ships_count": 0, "projects": [], "coding_time_seconds": 0, "coding_time_seconds_today": 0, "balance": "You need to have a pocket watcher badge to view this.", "badges": [], "created_at": "2025-06-19T14:23:50.489-04:00", "updated_at": "2025-07-03T19:53:42.484-04:00", "avatar": "https://secure.gravatar.com/avatar/839f7d854845eddf1546129dab88ec89.jpg?s=512&d=https%3A%2F%2Fa.slack-edge.com%2Fdf10d%2Fimg%2Favatars%2Fava_0006-512.png", "custom_css": null}, {"id": 9869, "slack_id": "U09214M830C", "display_name": "Warren", "bio": null, "projects_count": 0, "devlogs_count": 0, "votes_count": 0, "ships_count": 0, "projects": [], "coding_time_seconds": 0, "coding_time_seconds_today": 0, "balance": "You need to have a pocket watcher badge to view this.", "badges": [], "created_at": "2025-06-19T14:27:24.174-04:00", "updated_at": "2025-07-03T19:53:42.748-04:00", "avatar": "https://secure.gravatar.com/avatar/7acfb3cc463c560e5ae312108a40f2ef.jpg?s=512&d=https%3A%2F%2Fa.slack-edge.com%2Fdf10d%2Fimg%2Favatars%2Fava_0017-512.png", "custom_css": null}, {"id": 9870, "slack_id": "U07FKKDA0GH", "display_name": "Anuradha", "bio": null, "projects_count": 1, "devlogs_count": 23, "votes_count": 37, "ships_count": 1, "projects": [{"id": 12896, "title": "Split Bills", "devlogs_count": 23, "created_at": "2025-09-04T15:12:03.332-04:00"}], "coding_time_seconds": 144983, "coding_time_seconds_today": 0, "balance": "You need to have a pocket watcher badge to view this.", "badges": [{"name": "Maiden Voyage", "text": "you shipped your first project! the journey begins...", "icon": "\ud83d\udea2"}], "created_at": "2025-06-19T14:27:28.488-04:00", "updated_at": "2025-09-10T22:56:05.631-04:00", "avatar": "https://avatars.slack-edge.com/2024-08-06/7534770726260_75ddbeeeb28fbd65d682_original.jpg", "custom_css": null}, {"id": 9871, "slack_id": "U09277TUT7X", "display_name": "Likitha", "bio": null, "projects_count": 0, "devlogs_count": 0, "votes_count": 0, "ships_count": 0, "projects": [], "coding_time_seconds": 0, "coding_time_seconds_today": 0, "balance": "You need to have a pocket watcher badge to view this.", "badges": [], "created_at": "2025-06-19T14:30:20.798-04:00", "updated_at": "2025-07-04T02:29:35.504-04:00", "avatar": "https://secure.gravatar.com/avatar/6bced3183068c91bca5a31fe8569be9f.jpg?s=512&d=https%3A%2F%2Fa.slack-edge.com%2Fdf10d%2Fimg%2Favatars%2Fava_0006-512.png", "custom_css": null}, {"id": 9872, "slack_id": "U091RLMQBBR", "display_name": "Hendrik Leethaus", "bio": null, "projects_count": 0, "devlogs_count": 0, "votes_count": 0, "ships_count": 0, "projects": [], "coding_time_seconds": 0, "coding_time_seconds_today": 0, "balance": "You need to have a pocket watcher badge to view this.", "badges": [], "created_at": "2025-06-19T14:32:32.547-04:00", "updated_at": "2025-07-04T02:29:35.635-04:00", "avatar": "https://avatars.slack-edge.com/2025-06-19/9061663684263_07e98dfa7b68b5c81fb8_original.png", "custom_css": null}, {"id": 9873, "slack_id": "U0921TXEHSP", "display_name": "Nadhi", "bio": null, "projects_count": 0, "devlogs_count": 0, "votes_count": 0, "ships_count": 0, "projects": [], "coding_time_seconds": 42385, "coding_time_seconds_today": 0, "balance": "You need to have a pocket watcher badge to view this.", "badges": [], "created_at": "2025-06-19T14:34:15.614-04:00", "updated_at": "2025-07-03T19:53:43.557-04:00", "avatar": "https://secure.gravatar.com/avatar/1a081af49d45595be40b6a62995ed89a.jpg?s=512&d=https%3A%2F%2Fa.slack-edge.com%2Fdf10d%2Fimg%2Favatars%2Fava_0023-512.png", "custom_css": null}, {"id": 9874, "slack_id": "U092WR8RHGQ", "display_name": "Astronic", "bio": null, "projects_count": 1, "devlogs_count": 0, "votes_count": 0, "ships_count": 0, "projects": [{"id": 1910, "title": "Slack Arcade Bot", "devlogs_count": 0, "created_at": "2025-06-19T15:31:05.994-04:00"}], "coding_time_seconds": 694199, "coding_time_seconds_today": 9442, "balance": "You need to have a pocket watcher badge to view this.", "badges": [], "created_at": "2025-06-19T14:34:22.671-04:00", "updated_at": "2025-07-04T20:10:32.174-04:00", "avatar": "https://secure.gravatar.com/avatar/5bf50740dca2e37076f7ca5227cfb761.jpg?s=512&d=https%3A%2F%2Fa.slack-edge.com%2Fdf10d%2Fimg%2Favatars%2Fava_0004-512.png", "custom_css": null}, {"id": 9875, "slack_id": "U0921U2U0D9", "display_name": "ch4t5ky", "bio": null, "projects_count": 0, "devlogs_count": 0, "votes_count": 0, "ships_count": 0, "projects": [], "coding_time_seconds": 0, "coding_time_seconds_today": 0, "balance": "You need to have a pocket watcher badge to view this.", "badges": [], "created_at": "2025-06-19T14:35:23.825-04:00", "updated_at": "2025-07-03T19:53:43.949-04:00", "avatar": "https://secure.gravatar.com/avatar/dca156ee49e15d0c40d8f88891c12380.jpg?s=512&d=https%3A%2F%2Fa.slack-edge.com%2Fdf10d%2Fimg%2Favatars%2Fava_0026-512.png", "custom_css": null}, {"id": 9876, "slack_id": "U091P3HEZEZ", "display_name": "Philip", "bio": null, "projects_count": 0, "devlogs_count": 0, "votes_count": 0, "ships_count": 0, "projects": [], "coding_time_seconds": 0, "coding_time_seconds_today": 0, "balance": "You need to have a pocket watcher badge to view this.", "badges": [], "created_at": "2025-06-19T14:36:11.252-04:00", "updated_at": "2025-07-03T19:53:44.215-04:00", "avatar": "https://avatars.slack-edge.com/2025-06-19/9070338202374_0d10dfb842430e8d04fb_original.jpg", "custom_css": null}, {"id": 9877, "slack_id": "U09228RCEUW", "display_name": "Yash Pawar", "bio": null, "projects_count": 0, "devlogs_count": 0, "votes_count": 0, "ships_count": 0, "projects": [], "coding_time_seconds": 0, "coding_time_seconds_today": 0, "balance": "You need to have a pocket watcher badge to view this.", "badges": [], "created_at": "2025-06-19T14:36:13.591-04:00", "updated_at": "2025-07-03T19:53:44.475-04:00", "avatar": "https://secure.gravatar.com/avatar/66101a724d9fc374949833fa43eed66f.jpg?s=512&d=https%3A%2F%2Fa.slack-edge.com%2Fdf10d%2Fimg%2Favatars%2Fava_0000-512.png", "custom_css": null}, {"id": 9878, "slack_id": "U08HLKGG56H", "display_name": "Emma V", "bio": null, "projects_count": 1, "devlogs_count": 5, "votes_count": 2, "ships_count": 0, "projects": [{"id": 3516, "title": "Bee's Potions", "devlogs_count": 5, "created_at": "2025-06-24T14:51:30.891-04:00"}], "coding_time_seconds": 44422, "coding_time_seconds_today": 0, "balance": "You need to have a pocket watcher badge to view this.", "badges": [], "created_at": "2025-06-19T14:38:13.995-04:00", "updated_at": "2025-07-03T21:48:14.737-04:00", "avatar": "https://secure.gravatar.com/avatar/1f7389b17080b74660f9405fb3467ed9.jpg?s=512&d=https%3A%2F%2Fa.slack-edge.com%2Fdf10d%2Fimg%2Favatars%2Fava_0014-512.png", "custom_css": null}, {"id": 9879, "slack_id": "U091T45P26Q", "display_name": "keschler", "bio": null, "projects_count": 0, "devlogs_count": 0, "votes_count": 0, "ships_count": 0, "projects": [], "coding_time_seconds": 0, "coding_time_seconds_today": 0, "balance": "You need to have a pocket watcher badge to view this.", "badges": [], "created_at": "2025-06-19T14:42:56.850-04:00", "updated_at": "2025-07-03T19:53:44.883-04:00", "avatar": "https://secure.gravatar.com/avatar/5beeabc9aa1cbded7520a95ea345c00c.jpg?s=512&d=https%3A%2F%2Fa.slack-edge.com%2Fdf10d%2Fimg%2Favatars%2Fava_0013-512.png", "custom_css": null}, {"id": 9880, "slack_id": "U092Q9GACF2", "display_name": "Mohd Farhan Nawaz", "bio": null, "projects_count": 0, "devlogs_count": 0, "votes_count": 0, "ships_count": 0, "projects": [], "coding_time_seconds": 0, "coding_time_seconds_today": 0, "balance": "You need to have a pocket watcher badge to view this.", "badges": [], "created_at": "2025-06-19T14:43:06.179-04:00", "updated_at": "2025-07-03T19:53:45.152-04:00", "avatar": "https://avatars.slack-edge.com/2025-06-19/9089268156337_233f726cb26a04464be4_original.png", "custom_css": null}], "pagination": {"page": 494, "pages": 1192, "count": 23828, "items": 20}}