{"users": [{"id": 9881, "slack_id": "U0921V5QRQT", "display_name": "Ash", "bio": null, "projects_count": 0, "devlogs_count": 0, "votes_count": 0, "ships_count": 0, "projects": [], "coding_time_seconds": 0, "coding_time_seconds_today": 0, "balance": "You need to have a pocket watcher badge to view this.", "badges": [], "created_at": "2025-06-19T14:46:59.422-04:00", "updated_at": "2025-07-03T21:48:14.966-04:00", "avatar": "https://secure.gravatar.com/avatar/beecf61bf786e176df88aff19414e1dd.jpg?s=512&d=https%3A%2F%2Fa.slack-edge.com%2Fdf10d%2Fimg%2Favatars%2Fava_0010-512.png", "custom_css": null}, {"id": 9882, "slack_id": "U092WC3SBA4", "display_name": "James Warner", "bio": null, "projects_count": 0, "devlogs_count": 0, "votes_count": 0, "ships_count": 0, "projects": [], "coding_time_seconds": 880, "coding_time_seconds_today": 0, "balance": "You need to have a pocket watcher badge to view this.", "badges": [], "created_at": "2025-06-19T14:50:54.655-04:00", "updated_at": "2025-07-04T20:10:32.671-04:00", "avatar": "https://avatars.slack-edge.com/2025-06-19/9089292673665_a820bdc7ce02f0845ba0_original.png", "custom_css": null}, {"id": 9883, "slack_id": "U0922AW7W6A", "display_name": "ishitaa", "bio": null, "projects_count": 0, "devlogs_count": 0, "votes_count": 0, "ships_count": 0, "projects": [], "coding_time_seconds": 70093, "coding_time_seconds_today": 0, "balance": "You need to have a pocket watcher badge to view this.", "badges": [], "created_at": "2025-06-19T14:52:41.515-04:00", "updated_at": "2025-07-03T19:53:45.721-04:00", "avatar": "https://secure.gravatar.com/avatar/43a4ae93f8ee2377027db30fec7d1b77.jpg?s=512&d=https%3A%2F%2Fa.slack-edge.com%2Fdf10d%2Fimg%2Favatars%2Fava_0023-512.png", "custom_css": null}, {"id": 9884, "slack_id": "U091WKRR9JS", "display_name": "carolina arellano", "bio": null, "projects_count": 0, "devlogs_count": 0, "votes_count": 0, "ships_count": 0, "projects": [], "coding_time_seconds": 0, "coding_time_seconds_today": 0, "balance": "You need to have a pocket watcher badge to view this.", "badges": [], "created_at": "2025-06-19T14:54:51.892-04:00", "updated_at": "2025-07-05T08:11:26.229-04:00", "avatar": "https://secure.gravatar.com/avatar/c6e66d3e9bcc59d3114f9a54102feefe.jpg?s=512&d=https%3A%2F%2Fa.slack-edge.com%2Fdf10d%2Fimg%2Favatars%2Fava_0012-512.png", "custom_css": null}, {"id": 9885, "slack_id": "U09286XTU0J", "display_name": "Erika Santos Da Silva", "bio": null, "projects_count": 0, "devlogs_count": 0, "votes_count": 0, "ships_count": 0, "projects": [], "coding_time_seconds": 0, "coding_time_seconds_today": 0, "balance": "You need to have a pocket watcher badge to view this.", "badges": [], "created_at": "2025-06-19T14:58:31.872-04:00", "updated_at": "2025-07-03T21:48:15.365-04:00", "avatar": "https://secure.gravatar.com/avatar/80a7815f57495523cc1af6a60d94464d.jpg?s=512&d=https%3A%2F%2Fa.slack-edge.com%2Fdf10d%2Fimg%2Favatars%2Fava_0019-512.png", "custom_css": null}, {"id": 9886, "slack_id": "U092WTUAP0Q", "display_name": "marouan", "bio": null, "projects_count": 0, "devlogs_count": 0, "votes_count": 0, "ships_count": 0, "projects": [], "coding_time_seconds": 37, "coding_time_seconds_today": 0, "balance": "You need to have a pocket watcher badge to view this.", "badges": [], "created_at": "2025-06-19T15:01:48.851-04:00", "updated_at": "2025-07-03T19:53:46.258-04:00", "avatar": "https://secure.gravatar.com/avatar/9a647d5ef7b7cdbe0bb50233ac2fad06.jpg?s=512&d=https%3A%2F%2Fa.slack-edge.com%2Fdf10d%2Fimg%2Favatars%2Fava_0009-512.png", "custom_css": null}, {"id": 9887, "slack_id": "U091TMR1F1D", "display_name": "Carlos Eduardo Henkes", "bio": null, "projects_count": 0, "devlogs_count": 0, "votes_count": 0, "ships_count": 0, "projects": [], "coding_time_seconds": 0, "coding_time_seconds_today": 0, "balance": "You need to have a pocket watcher badge to view this.", "badges": [], "created_at": "2025-06-19T15:02:18.943-04:00", "updated_at": "2025-07-03T19:53:46.528-04:00", "avatar": "https://secure.gravatar.com/avatar/7b16ea15192d54727a631aa49b24fb57.jpg?s=512&d=https%3A%2F%2Fa.slack-edge.com%2Fdf10d%2Fimg%2Favatars%2Fava_0015-512.png", "custom_css": null}, {"id": 9888, "slack_id": "U0928RAN0DS", "display_name": "Akhil", "bio": null, "projects_count": 0, "devlogs_count": 0, "votes_count": 0, "ships_count": 0, "projects": [], "coding_time_seconds": 0, "coding_time_seconds_today": 0, "balance": "You need to have a pocket watcher badge to view this.", "badges": [], "created_at": "2025-06-19T15:06:36.060-04:00", "updated_at": "2025-07-03T19:53:46.913-04:00", "avatar": "https://avatars.slack-edge.com/2025-06-19/9075415947413_95c253e2f10222d2c18e_original.jpg", "custom_css": null}, {"id": 9889, "slack_id": "U092L97H9LZ", "display_name": "Turtle Key", "bio": null, "projects_count": 3, "devlogs_count": 35, "votes_count": 33, "ships_count": 2, "projects": [{"id": 10038, "title": "Arcitect", "devlogs_count": 1, "created_at": "2025-08-03T15:51:47.354-04:00"}, {"id": 12109, "title": "Oregano Prestashop Theme", "devlogs_count": 2, "created_at": "2025-08-23T06:59:21.675-04:00"}, {"id": 2109, "title": "TabLift", "devlogs_count": 32, "created_at": "2025-06-20T06:57:44.558-04:00"}], "coding_time_seconds": 454169, "coding_time_seconds_today": 0, "balance": "You need to have a pocket watcher badge to view this.", "badges": [{"name": "Maiden Voyage", "text": "you shipped your first project! the journey begins...", "icon": "\ud83d\udea2"}], "created_at": "2025-06-19T15:06:42.122-04:00", "updated_at": "2025-09-10T22:56:06.333-04:00", "avatar": "https://avatars.slack-edge.com/2025-06-20/9079978216340_949c7f3a7c4bdaac0c9a_original.png", "custom_css": null}, {"id": 9890, "slack_id": "U091KTCVBA8", "display_name": "Asurant", "bio": null, "projects_count": 3, "devlogs_count": 9, "votes_count": 2, "ships_count": 1, "projects": [{"id": 13313, "title": "Summer Of Making Scene 15", "devlogs_count": 4, "created_at": "2025-09-13T20:24:30.196-04:00"}, {"id": 13496, "title": "About Me Website", "devlogs_count": 2, "created_at": "2025-09-17T21:23:11.252-04:00"}, {"id": 2340, "title": "Pomodoro Timer", "devlogs_count": 3, "created_at": "2025-06-20T18:26:40.714-04:00"}], "coding_time_seconds": 98758, "coding_time_seconds_today": 0, "balance": "You need to have a pocket watcher badge to view this.", "badges": [{"name": "Maiden Voyage", "text": "you shipped your first project! the journey begins...", "icon": "\ud83d\udea2"}], "created_at": "2025-06-19T15:07:00.455-04:00", "updated_at": "2025-09-10T22:56:06.369-04:00", "avatar": "https://secure.gravatar.com/avatar/7418af5f4b876e0d0d63f8d60b6c730d.jpg?s=512&d=https%3A%2F%2Fa.slack-edge.com%2Fdf10d%2Fimg%2Favatars%2Fava_0022-512.png", "custom_css": null}, {"id": 9891, "slack_id": "U0922CUK4P8", "display_name": "Arzumify", "bio": null, "projects_count": 2, "devlogs_count": 5, "votes_count": 0, "ships_count": 0, "projects": [{"id": 2468, "title": "Waymux", "devlogs_count": 3, "created_at": "2025-06-21T04:47:36.776-04:00"}, {"id": 2862, "title": "Let's get going!", "devlogs_count": 2, "created_at": "2025-06-22T08:59:34.981-04:00"}], "coding_time_seconds": 34656, "coding_time_seconds_today": 0, "balance": "You need to have a pocket watcher badge to view this.", "badges": [], "created_at": "2025-06-19T15:07:03.398-04:00", "updated_at": "2025-07-03T19:53:47.580-04:00", "avatar": "https://secure.gravatar.com/avatar/1fc717988f3874c2acac6628a9e9db52.jpg?s=512&d=https%3A%2F%2Fa.slack-edge.com%2Fdf10d%2Fimg%2Favatars%2Fava_0009-512.png", "custom_css": null}, {"id": 9892, "slack_id": "U0928B95DGS", "display_name": "Jonnel Dosado", "bio": null, "projects_count": 0, "devlogs_count": 0, "votes_count": 0, "ships_count": 0, "projects": [], "coding_time_seconds": 107086, "coding_time_seconds_today": 0, "balance": "You need to have a pocket watcher badge to view this.", "badges": [], "created_at": "2025-06-19T15:11:01.984-04:00", "updated_at": "2025-07-03T19:53:47.852-04:00", "avatar": "https://secure.gravatar.com/avatar/01377f427dd7415fb64aa723db2efc8d.jpg?s=512&d=https%3A%2F%2Fa.slack-edge.com%2Fdf10d%2Fimg%2Favatars%2Fava_0024-512.png", "custom_css": null}, {"id": 9893, "slack_id": "U092WUPQKK2", "display_name": "L", "bio": null, "projects_count": 0, "devlogs_count": 0, "votes_count": 1, "ships_count": 0, "projects": [], "coding_time_seconds": 0, "coding_time_seconds_today": 0, "balance": "You need to have a pocket watcher badge to view this.", "badges": [], "created_at": "2025-06-19T15:13:25.037-04:00", "updated_at": "2025-07-03T21:48:16.000-04:00", "avatar": "https://secure.gravatar.com/avatar/6b9f40b7410173301550ddea4abff7f3.jpg?s=512&d=https%3A%2F%2Fa.slack-edge.com%2Fdf10d%2Fimg%2Favatars%2Fava_0025-512.png", "custom_css": null}, {"id": 9894, "slack_id": "U0922DF6TB8", "display_name": "Sandip Shil", "bio": null, "projects_count": 0, "devlogs_count": 0, "votes_count": 0, "ships_count": 0, "projects": [], "coding_time_seconds": 0, "coding_time_seconds_today": 0, "balance": "You need to have a pocket watcher badge to view this.", "badges": [], "created_at": "2025-06-19T15:14:26.039-04:00", "updated_at": "2025-07-03T19:53:48.264-04:00", "avatar": "https://secure.gravatar.com/avatar/62b93d8f8ac4be0d9f096a4946d2718a.jpg?s=512&d=https%3A%2F%2Fa.slack-edge.com%2Fdf10d%2Fimg%2Favatars%2Fava_0019-512.png", "custom_css": null}, {"id": 9895, "slack_id": "U0928C3L5RQ", "display_name": "Sneha S", "bio": null, "projects_count": 0, "devlogs_count": 0, "votes_count": 0, "ships_count": 0, "projects": [], "coding_time_seconds": 0, "coding_time_seconds_today": 0, "balance": "You need to have a pocket watcher badge to view this.", "badges": [], "created_at": "2025-06-19T15:16:32.520-04:00", "updated_at": "2025-07-03T19:53:48.532-04:00", "avatar": "https://secure.gravatar.com/avatar/542c090b01ce95d870fb070cd9a92cb9.jpg?s=512&d=https%3A%2F%2Fa.slack-edge.com%2Fdf10d%2Fimg%2Favatars%2Fava_0020-512.png", "custom_css": null}, {"id": 9896, "slack_id": "U091R57F4TH", "display_name": "Sai Srujan Reddy Pothamsetti", "bio": null, "projects_count": 0, "devlogs_count": 0, "votes_count": 0, "ships_count": 0, "projects": [], "coding_time_seconds": 0, "coding_time_seconds_today": 0, "balance": "You need to have a pocket watcher badge to view this.", "badges": [], "created_at": "2025-06-19T15:21:50.550-04:00", "updated_at": "2025-07-03T22:00:18.452-04:00", "avatar": "https://avatars.slack-edge.com/2025-06-19/9070493126502_2b05e406c8e61201595e_original.jpg", "custom_css": null}, {"id": 9897, "slack_id": "U0922384ELB", "display_name": "Prachi Patel", "bio": null, "projects_count": 0, "devlogs_count": 0, "votes_count": 0, "ships_count": 0, "projects": [], "coding_time_seconds": 65721, "coding_time_seconds_today": 0, "balance": "You need to have a pocket watcher badge to view this.", "badges": [], "created_at": "2025-06-19T15:24:09.490-04:00", "updated_at": "2025-07-03T22:00:18.577-04:00", "avatar": "https://secure.gravatar.com/avatar/eea8b0d6964489db2d2421c8f6b0cf22.jpg?s=512&d=https%3A%2F%2Fa.slack-edge.com%2Fdf10d%2Fimg%2Favatars%2Fava_0004-512.png", "custom_css": null}, {"id": 9898, "slack_id": "U0928CSKZ5Y", "display_name": "Mohammed Saleh", "bio": null, "projects_count": 0, "devlogs_count": 0, "votes_count": 0, "ships_count": 0, "projects": [], "coding_time_seconds": 0, "coding_time_seconds_today": 0, "balance": "You need to have a pocket watcher badge to view this.", "badges": [], "created_at": "2025-06-19T15:24:46.675-04:00", "updated_at": "2025-07-03T19:53:49.084-04:00", "avatar": "https://secure.gravatar.com/avatar/0995f865d7165d52797e2840950ee8ab.jpg?s=512&d=https%3A%2F%2Fa.slack-edge.com%2Fdf10d%2Fimg%2Favatars%2Fava_0017-512.png", "custom_css": null}, {"id": 9899, "slack_id": "U0921LWDKFV", "display_name": "Christopher Carlton", "bio": null, "projects_count": 0, "devlogs_count": 0, "votes_count": 0, "ships_count": 0, "projects": [], "coding_time_seconds": 0, "coding_time_seconds_today": 0, "balance": "You need to have a pocket watcher badge to view this.", "badges": [], "created_at": "2025-06-19T15:25:18.061-04:00", "updated_at": "2025-07-03T19:53:49.352-04:00", "avatar": "https://secure.gravatar.com/avatar/2f87bc0a8f66db7d2b8f8a9000c34b6a.jpg?s=512&d=https%3A%2F%2Fa.slack-edge.com%2Fdf10d%2Fimg%2Favatars%2Fava_0001-512.png", "custom_css": null}, {"id": 9900, "slack_id": "U091ZA5FFMG", "display_name": "\u017dan", "bio": null, "projects_count": 0, "devlogs_count": 0, "votes_count": 0, "ships_count": 0, "projects": [], "coding_time_seconds": 0, "coding_time_seconds_today": 0, "balance": "You need to have a pocket watcher badge to view this.", "badges": [], "created_at": "2025-06-19T15:25:25.518-04:00", "updated_at": "2025-07-03T19:53:49.616-04:00", "avatar": "https://secure.gravatar.com/avatar/ec9039ce88d2b788cf2d49409a2d526a.jpg?s=512&d=https%3A%2F%2Fa.slack-edge.com%2Fdf10d%2Fimg%2Favatars%2Fava_0013-512.png", "custom_css": null}], "pagination": {"page": 495, "pages": 1192, "count": 23828, "items": 20}}