{"users": [{"id": 9901, "slack_id": "U0928T0B11S", "display_name": "Deneth", "bio": null, "projects_count": 0, "devlogs_count": 0, "votes_count": 0, "ships_count": 0, "projects": [], "coding_time_seconds": 719412, "coding_time_seconds_today": 8889, "balance": "You need to have a pocket watcher badge to view this.", "badges": [], "created_at": "2025-06-19T15:26:23.523-04:00", "updated_at": "2025-07-03T22:00:18.985-04:00", "avatar": "https://secure.gravatar.com/avatar/8b4c73bac6af09d2c1cfbc9230ffa74a.jpg?s=512&d=https%3A%2F%2Fa.slack-edge.com%2Fdf10d%2Fimg%2Favatars%2Fava_0003-512.png", "custom_css": null}, {"id": 9902, "slack_id": "U091TQBC93R", "display_name": "Manan Goel", "bio": null, "projects_count": 0, "devlogs_count": 0, "votes_count": 0, "ships_count": 0, "projects": [], "coding_time_seconds": 127, "coding_time_seconds_today": 0, "balance": "You need to have a pocket watcher badge to view this.", "badges": [], "created_at": "2025-06-19T15:26:47.585-04:00", "updated_at": "2025-07-03T19:53:50.024-04:00", "avatar": "https://secure.gravatar.com/avatar/5497de5558e03c53e3a29a2db5cf8670.jpg?s=512&d=https%3A%2F%2Fa.slack-edge.com%2Fdf10d%2Fimg%2Favatars%2Fava_0004-512.png", "custom_css": null}, {"id": 9903, "slack_id": "U091TQHJJ23", "display_name": "Abdul Ahad", "bio": null, "projects_count": 0, "devlogs_count": 0, "votes_count": 0, "ships_count": 0, "projects": [], "coding_time_seconds": 205009, "coding_time_seconds_today": 0, "balance": "You need to have a pocket watcher badge to view this.", "badges": [], "created_at": "2025-06-19T15:28:25.246-04:00", "updated_at": "2025-07-03T19:53:50.299-04:00", "avatar": "https://avatars.slack-edge.com/2025-06-20/9099096005872_97c28a8dad124265f73b_original.jpg", "custom_css": null}, {"id": 9904, "slack_id": "U092MBXFFUZ", "display_name": "Anmol Singh Josan", "bio": "", "projects_count": 0, "devlogs_count": 23, "votes_count": 50, "ships_count": 0, "projects": [], "coding_time_seconds": 681788, "coding_time_seconds_today": 0, "balance": "You need to have a pocket watcher badge to view this.", "badges": [{"name": "Maiden Voyage", "text": "you shipped your first project! the journey begins...", "icon": "\ud83d\udea2"}], "created_at": "2025-06-19T15:29:15.507-04:00", "updated_at": "2025-09-10T22:56:06.772-04:00", "avatar": "https://avatars.slack-edge.com/2025-07-12/9186132277382_5c636355f7c3c71ddee0_original.jpg", "custom_css": null}, {"id": 9905, "slack_id": "U0921S2R50B", "display_name": "Cristian Ramirez", "bio": null, "projects_count": 0, "devlogs_count": 0, "votes_count": 0, "ships_count": 0, "projects": [], "coding_time_seconds": 0, "coding_time_seconds_today": 0, "balance": "You need to have a pocket watcher badge to view this.", "badges": [], "created_at": "2025-06-19T15:30:41.191-04:00", "updated_at": "2025-07-03T19:53:50.817-04:00", "avatar": "https://avatars.slack-edge.com/2025-06-19/9076950062788_e63ca5e91f900de7d19e_original.jpg", "custom_css": null}, {"id": 9906, "slack_id": "U0922EZF2A2", "display_name": "kavez", "bio": null, "projects_count": 0, "devlogs_count": 0, "votes_count": 0, "ships_count": 0, "projects": [], "coding_time_seconds": 0, "coding_time_seconds_today": 0, "balance": "You need to have a pocket watcher badge to view this.", "badges": [], "created_at": "2025-06-19T15:31:59.185-04:00", "updated_at": "2025-07-03T19:53:51.078-04:00", "avatar": "https://secure.gravatar.com/avatar/6fe42ae917535ba5ac00ce2d92ef37f8.jpg?s=512&d=https%3A%2F%2Fa.slack-edge.com%2Fdf10d%2Fimg%2Favatars%2Fava_0017-512.png", "custom_css": null}, {"id": 9907, "slack_id": "U092737K17F", "display_name": "Alicia", "bio": null, "projects_count": 0, "devlogs_count": 0, "votes_count": 0, "ships_count": 0, "projects": [], "coding_time_seconds": 0, "coding_time_seconds_today": 0, "balance": "You need to have a pocket watcher badge to view this.", "badges": [], "created_at": "2025-06-19T15:33:02.637-04:00", "updated_at": "2025-07-03T19:53:51.361-04:00", "avatar": "https://avatars.slack-edge.com/2025-06-19/9075506317109_29b18338ed36a8221e3c_original.png", "custom_css": null}, {"id": 9908, "slack_id": "U0927E8BLQ5", "display_name": "Mihail", "bio": null, "projects_count": 0, "devlogs_count": 0, "votes_count": 0, "ships_count": 0, "projects": [], "coding_time_seconds": 0, "coding_time_seconds_today": 0, "balance": "You need to have a pocket watcher badge to view this.", "badges": [], "created_at": "2025-06-19T15:33:41.660-04:00", "updated_at": "2025-07-04T20:10:34.278-04:00", "avatar": "https://secure.gravatar.com/avatar/f1f2fedbd35f7bef17ee557f054e9dce.jpg?s=512&d=https%3A%2F%2Fa.slack-edge.com%2Fdf10d%2Fimg%2Favatars%2Fava_0000-512.png", "custom_css": null}, {"id": 9909, "slack_id": "U091RV4UE3H", "display_name": "sat", "bio": null, "projects_count": 0, "devlogs_count": 0, "votes_count": 0, "ships_count": 0, "projects": [], "coding_time_seconds": 11673, "coding_time_seconds_today": 0, "balance": "You need to have a pocket watcher badge to view this.", "badges": [], "created_at": "2025-06-19T15:33:48.747-04:00", "updated_at": "2025-07-03T19:53:51.759-04:00", "avatar": "https://secure.gravatar.com/avatar/558db1e001d38f664d1d33e7d750fedf.jpg?s=512&d=https%3A%2F%2Fa.slack-edge.com%2Fdf10d%2Fimg%2Favatars%2Fava_0005-512.png", "custom_css": null}, {"id": 9910, "slack_id": "U0927EPFEH3", "display_name": "Harsh Mangal", "bio": null, "projects_count": 0, "devlogs_count": 0, "votes_count": 0, "ships_count": 0, "projects": [], "coding_time_seconds": 0, "coding_time_seconds_today": 0, "balance": "You need to have a pocket watcher badge to view this.", "badges": [], "created_at": "2025-06-19T15:35:58.587-04:00", "updated_at": "2025-07-03T19:53:52.047-04:00", "avatar": "https://avatars.slack-edge.com/2025-06-19/9076484736274_1b0447f171720bc69cef_original.png", "custom_css": null}, {"id": 9911, "slack_id": "U0922FDKH7G", "display_name": "BO_BLAQ", "bio": null, "projects_count": 0, "devlogs_count": 0, "votes_count": 0, "ships_count": 0, "projects": [], "coding_time_seconds": 0, "coding_time_seconds_today": 0, "balance": "You need to have a pocket watcher badge to view this.", "badges": [], "created_at": "2025-06-19T15:36:20.889-04:00", "updated_at": "2025-07-03T22:00:19.704-04:00", "avatar": "https://secure.gravatar.com/avatar/1672c61d970c9bc53eedf59e5a059837.jpg?s=512&d=https%3A%2F%2Fa.slack-edge.com%2Fdf10d%2Fimg%2Favatars%2Fava_0026-512.png", "custom_css": null}, {"id": 9912, "slack_id": "U0922425UV9", "display_name": "Xx Rmotion", "bio": null, "projects_count": 0, "devlogs_count": 0, "votes_count": 0, "ships_count": 0, "projects": [], "coding_time_seconds": 0, "coding_time_seconds_today": 0, "balance": "You need to have a pocket watcher badge to view this.", "badges": [], "created_at": "2025-06-19T15:36:21.331-04:00", "updated_at": "2025-07-26T08:02:49.293-04:00", "avatar": "https://secure.gravatar.com/avatar/d3967f4e90debb5b62e6188faeef0447.jpg?s=512&d=https%3A%2F%2Fa.slack-edge.com%2Fdf10d%2Fimg%2Favatars%2Fava_0005-512.png", "custom_css": null}, {"id": 9913, "slack_id": "U091TRMBWKZ", "display_name": "nake", "bio": null, "projects_count": 0, "devlogs_count": 0, "votes_count": 0, "ships_count": 0, "projects": [], "coding_time_seconds": 0, "coding_time_seconds_today": 0, "balance": "You need to have a pocket watcher badge to view this.", "badges": [], "created_at": "2025-06-19T15:39:30.363-04:00", "updated_at": "2025-07-03T19:53:52.746-04:00", "avatar": "https://secure.gravatar.com/avatar/bc5aa7268b1f8b29e266d01afe4121db.jpg?s=512&d=https%3A%2F%2Fa.slack-edge.com%2Fdf10d%2Fimg%2Favatars%2Fava_0003-512.png", "custom_css": null}, {"id": 9914, "slack_id": "U09224ATW4T", "display_name": "Nhura", "bio": "Proprietary this, proprietary that... it's everywhere", "projects_count": 3, "devlogs_count": 33, "votes_count": 21, "ships_count": 0, "projects": [{"id": 2259, "title": "ThouSands Site", "devlogs_count": 31, "created_at": "2025-06-20T15:16:16.139-04:00"}, {"id": 3772, "title": "ThouSands Shores", "devlogs_count": 1, "created_at": "2025-06-25T17:10:40.606-04:00"}, {"id": 10941, "title": "SandBridges", "devlogs_count": 1, "created_at": "2025-08-12T00:43:44.800-04:00"}], "coding_time_seconds": 997203, "coding_time_seconds_today": 8314, "balance": "You need to have a pocket watcher badge to view this.", "badges": [], "created_at": "2025-06-19T15:39:40.639-04:00", "updated_at": "2025-08-07T04:32:50.151-04:00", "avatar": "https://avatars.slack-edge.com/2025-06-20/9067529513383_ba95abc20cecdecc4439_original.png", "custom_css": null}, {"id": 9915, "slack_id": "U091R944QUB", "display_name": "Zhang", "bio": null, "projects_count": 1, "devlogs_count": 4, "votes_count": 2, "ships_count": 0, "projects": [{"id": 9057, "title": "Mini Metro Clone", "devlogs_count": 4, "created_at": "2025-07-30T11:01:45.046-04:00"}], "coding_time_seconds": 18688, "coding_time_seconds_today": 0, "balance": "You need to have a pocket watcher badge to view this.", "badges": [], "created_at": "2025-06-19T15:42:50.245-04:00", "updated_at": "2025-07-03T19:53:53.145-04:00", "avatar": "https://secure.gravatar.com/avatar/5bf839b761e99f8157d6b05e9241154d.jpg?s=512&d=https%3A%2F%2Fa.slack-edge.com%2Fdf10d%2Fimg%2Favatars%2Fava_0016-512.png", "custom_css": null}, {"id": 9916, "slack_id": "U091XCLMAFP", "display_name": "Agastya Kumar Yadav", "bio": null, "projects_count": 0, "devlogs_count": 0, "votes_count": 0, "ships_count": 0, "projects": [], "coding_time_seconds": 0, "coding_time_seconds_today": 0, "balance": "You need to have a pocket watcher badge to view this.", "badges": [], "created_at": "2025-06-19T15:43:10.817-04:00", "updated_at": "2025-07-03T19:53:53.414-04:00", "avatar": "https://secure.gravatar.com/avatar/0d98f68fe07af8d3d966461cfca71ad8.jpg?s=512&d=https%3A%2F%2Fa.slack-edge.com%2Fdf10d%2Fimg%2Favatars%2Fava_0015-512.png", "custom_css": null}, {"id": 9917, "slack_id": "U07V16ZF38T", "display_name": "Jake (of the S. variety)", "bio": null, "projects_count": 0, "devlogs_count": 0, "votes_count": 0, "ships_count": 0, "projects": [], "coding_time_seconds": 100448, "coding_time_seconds_today": 0, "balance": "You need to have a pocket watcher badge to view this.", "badges": [], "created_at": "2025-06-19T15:43:44.407-04:00", "updated_at": "2025-07-06T02:12:18.568-04:00", "avatar": "https://avatars.slack-edge.com/2024-11-05/8010129887792_4a2f0efab61dce8522cb_original.png", "custom_css": null}, {"id": 9918, "slack_id": "U0928V1H8CC", "display_name": "Tincho", "bio": null, "projects_count": 0, "devlogs_count": 0, "votes_count": 0, "ships_count": 0, "projects": [], "coding_time_seconds": 0, "coding_time_seconds_today": 0, "balance": "You need to have a pocket watcher badge to view this.", "badges": [], "created_at": "2025-06-19T15:47:47.564-04:00", "updated_at": "2025-07-03T19:53:53.887-04:00", "avatar": "https://secure.gravatar.com/avatar/36826860eab129dbff5a30e31bca0bf1.jpg?s=512&d=https%3A%2F%2Fa.slack-edge.com%2Fdf10d%2Fimg%2Favatars%2Fava_0007-512.png", "custom_css": null}, {"id": 9919, "slack_id": "U0928EVULAW", "display_name": "shahd adel", "bio": null, "projects_count": 0, "devlogs_count": 0, "votes_count": 0, "ships_count": 0, "projects": [], "coding_time_seconds": 0, "coding_time_seconds_today": 0, "balance": "You need to have a pocket watcher badge to view this.", "badges": [], "created_at": "2025-06-19T15:48:28.522-04:00", "updated_at": "2025-07-03T19:53:54.155-04:00", "avatar": "https://secure.gravatar.com/avatar/04c537d4055338ed464de93f78f76ec0.jpg?s=512&d=https%3A%2F%2Fa.slack-edge.com%2Fdf10d%2Fimg%2Favatars%2Fava_0019-512.png", "custom_css": null}, {"id": 9920, "slack_id": "U091YJ77SG4", "display_name": "ava", "bio": null, "projects_count": 0, "devlogs_count": 0, "votes_count": 0, "ships_count": 0, "projects": [], "coding_time_seconds": 0, "coding_time_seconds_today": 0, "balance": "You need to have a pocket watcher badge to view this.", "badges": [], "created_at": "2025-06-19T15:48:36.870-04:00", "updated_at": "2025-07-03T19:53:54.419-04:00", "avatar": "https://secure.gravatar.com/avatar/316415fa63b30e9519a9dcf9e7d19ece.jpg?s=512&d=https%3A%2F%2Fa.slack-edge.com%2Fdf10d%2Fimg%2Favatars%2Fava_0002-512.png", "custom_css": null}], "pagination": {"page": 496, "pages": 1192, "count": 23828, "items": 20}}