{"users": [{"id": 9921, "slack_id": "U0928F9L3B4", "display_name": "Manan hacker", "bio": "pizzaaaa...", "projects_count": 7, "devlogs_count": 64, "votes_count": 176, "ships_count": 6, "projects": [{"id": 6407, "title": "Secret Club of Teens", "devlogs_count": 3, "created_at": "2025-07-13T04:26:16.303-04:00"}, {"id": 12401, "title": "Two Days", "devlogs_count": 1, "created_at": "2025-08-27T01:14:24.709-04:00"}, {"id": 12599, "title": "Git roaster", "devlogs_count": 5, "created_at": "2025-08-30T09:12:17.172-04:00"}, {"id": 12715, "title": "WaifuOS #) (web based OS)", "devlogs_count": 18, "created_at": "2025-09-01T10:36:37.731-04:00"}, {"id": 1933, "title": "Snippix is a simple and awesome code art generator", "devlogs_count": 14, "created_at": "2025-06-19T16:38:47.789-04:00"}, {"id": 7058, "title": "Whatdidisign", "devlogs_count": 7, "created_at": "2025-07-18T16:10:37.193-04:00"}, {"id": 4268, "title": "Hodor", "devlogs_count": 3, "created_at": "2025-06-28T14:59:47.248-04:00"}], "coding_time_seconds": 832921, "coding_time_seconds_today": 0, "balance": "You need to have a pocket watcher badge to view this.", "badges": [{"name": "Maiden Voyage", "text": "you shipped your first project! the journey begins...", "icon": "\ud83d\udea2"}, {"name": "Ballot Stuffer", "text": "vote 100 times.", "icon": "https://summer.hackclub.com/assets/i_voted-bf851b48.png"}], "created_at": "2025-06-19T15:51:32.733-04:00", "updated_at": "2025-09-19T15:10:26.886-04:00", "avatar": "https://avatars.slack-edge.com/2025-09-01/9466917781264_e8c1ef101d2f39cc9cd3_original.jpg", "custom_css": null}, {"id": 9922, "slack_id": "U09225HU6JF", "display_name": "mmgg", "bio": null, "projects_count": 3, "devlogs_count": 6, "votes_count": 1, "ships_count": 1, "projects": [{"id": 2691, "title": "Making a game for my school", "devlogs_count": 2, "created_at": "2025-06-21T17:28:11.622-04:00"}, {"id": 2695, "title": "Random Python adventures", "devlogs_count": 2, "created_at": "2025-06-21T17:33:50.709-04:00"}, {"id": 2696, "title": "Learning C++ to build a nnn from scratch", "devlogs_count": 2, "created_at": "2025-06-21T17:35:50.738-04:00"}], "coding_time_seconds": 35046, "coding_time_seconds_today": 0, "balance": "You need to have a pocket watcher badge to view this.", "badges": [{"name": "Maiden Voyage", "text": "you shipped your first project! the journey begins...", "icon": "\ud83d\udea2"}], "created_at": "2025-06-19T15:52:34.268-04:00", "updated_at": "2025-09-10T22:56:07.273-04:00", "avatar": "https://secure.gravatar.com/avatar/8a01e845005334b904b61a33ca3e058a.jpg?s=512&d=https%3A%2F%2Fa.slack-edge.com%2Fdf10d%2Fimg%2Favatars%2Fava_0019-512.png", "custom_css": null}, {"id": 9923, "slack_id": "U091YH5QZMG", "display_name": "Lily Gutierrez", "bio": null, "projects_count": 0, "devlogs_count": 0, "votes_count": 0, "ships_count": 0, "projects": [], "coding_time_seconds": 0, "coding_time_seconds_today": 0, "balance": "You need to have a pocket watcher badge to view this.", "badges": [], "created_at": "2025-06-19T15:57:21.214-04:00", "updated_at": "2025-07-03T19:53:55.112-04:00", "avatar": "https://avatars.slack-edge.com/2025-06-19/9089503279729_e32c1884caf8c48267fc_original.jpg", "custom_css": null}, {"id": 9924, "slack_id": "U0928FUEEEN", "display_name": "Majd Alddin Sukkary", "bio": null, "projects_count": 0, "devlogs_count": 0, "votes_count": 0, "ships_count": 0, "projects": [], "coding_time_seconds": 139063, "coding_time_seconds_today": 0, "balance": "You need to have a pocket watcher badge to view this.", "badges": [], "created_at": "2025-06-19T15:57:36.153-04:00", "updated_at": "2025-07-04T08:25:55.219-04:00", "avatar": "https://secure.gravatar.com/avatar/d88dd1d0fd0af7ee9b2b6b831078dd93.jpg?s=512&d=https%3A%2F%2Fa.slack-edge.com%2Fdf10d%2Fimg%2Favatars%2Fava_0016-512.png", "custom_css": null}, {"id": 9925, "slack_id": "U091LGZGT2S", "display_name": "Antoine Duteyrat", "bio": null, "projects_count": 1, "devlogs_count": 0, "votes_count": 0, "ships_count": 0, "projects": [{"id": 2923, "title": "pictionary", "devlogs_count": 0, "created_at": "2025-06-22T13:17:31.160-04:00"}], "coding_time_seconds": 8517, "coding_time_seconds_today": 0, "balance": "You need to have a pocket watcher badge to view this.", "badges": [], "created_at": "2025-06-19T15:59:25.581-04:00", "updated_at": "2025-07-03T21:48:18.192-04:00", "avatar": "https://secure.gravatar.com/avatar/6c503f2c3115f373bce90587e8fd72f4.jpg?s=512&d=https%3A%2F%2Fa.slack-edge.com%2Fdf10d%2Fimg%2Favatars%2Fava_0017-512.png", "custom_css": null}, {"id": 9926, "slack_id": "U09226VU8R1", "display_name": "Vindhya Vasini Kaku", "bio": null, "projects_count": 0, "devlogs_count": 0, "votes_count": 0, "ships_count": 0, "projects": [], "coding_time_seconds": 12534, "coding_time_seconds_today": 0, "balance": "You need to have a pocket watcher badge to view this.", "badges": [], "created_at": "2025-06-19T16:04:53.469-04:00", "updated_at": "2025-07-03T19:53:55.641-04:00", "avatar": "https://secure.gravatar.com/avatar/8c0faf27dc12212b068e6fcfa0765ce2.jpg?s=512&d=https%3A%2F%2Fa.slack-edge.com%2Fdf10d%2Fimg%2Favatars%2Fava_0002-512.png", "custom_css": null}, {"id": 9927, "slack_id": "U07TRJXQL3T", "display_name": "Douglas Smith", "bio": null, "projects_count": 0, "devlogs_count": 0, "votes_count": 0, "ships_count": 0, "projects": [], "coding_time_seconds": 0, "coding_time_seconds_today": 0, "balance": "You need to have a pocket watcher badge to view this.", "badges": [], "created_at": "2025-06-19T16:08:28.008-04:00", "updated_at": "2025-09-18T14:01:30.878-04:00", "avatar": "https://avatars.slack-edge.com/2024-10-24/7931536790099_d6ea5ab7c84e947dbc40_original.jpg", "custom_css": null}, {"id": 9928, "slack_id": "U09223GKZTM", "display_name": "sixela", "bio": null, "projects_count": 0, "devlogs_count": 0, "votes_count": 0, "ships_count": 0, "projects": [], "coding_time_seconds": 0, "coding_time_seconds_today": 0, "balance": "You need to have a pocket watcher badge to view this.", "badges": [], "created_at": "2025-06-19T16:10:40.403-04:00", "updated_at": "2025-07-03T21:48:18.453-04:00", "avatar": "https://secure.gravatar.com/avatar/484776b2429a3e9daf0cecb218f3f8c4.jpg?s=512&d=https%3A%2F%2Fa.slack-edge.com%2Fdf10d%2Fimg%2Favatars%2Fava_0025-512.png", "custom_css": null}, {"id": 9929, "slack_id": "U092MG5P54H", "display_name": "Iirontools", "bio": null, "projects_count": 0, "devlogs_count": 0, "votes_count": 0, "ships_count": 0, "projects": [], "coding_time_seconds": 0, "coding_time_seconds_today": 0, "balance": "You need to have a pocket watcher badge to view this.", "badges": [], "created_at": "2025-06-19T16:13:04.227-04:00", "updated_at": "2025-07-03T19:53:56.315-04:00", "avatar": "https://secure.gravatar.com/avatar/12a1cb63b8a23ee3856e4d733582e1bf.jpg?s=512&d=https%3A%2F%2Fa.slack-edge.com%2Fdf10d%2Fimg%2Favatars%2Fava_0022-512.png", "custom_css": null}, {"id": 9930, "slack_id": "U092X590XUG", "display_name": "Keyboard1000n17", "bio": "me no good at web development. skill level <= 0.0001 :(", "projects_count": 1, "devlogs_count": 49, "votes_count": 50, "ships_count": 1, "projects": [{"id": 2183, "title": "OSPedia", "devlogs_count": 49, "created_at": "2025-06-20T11:38:59.062-04:00"}], "coding_time_seconds": 235596, "coding_time_seconds_today": 0, "balance": "You need to have a pocket watcher badge to view this.", "badges": [{"name": "Maiden Voyage", "text": "you shipped your first project! the journey begins...", "icon": "\ud83d\udea2"}, {"name": "Spider", "text": "this user has a pet!", "icon": "\ud83d\udd77\ufe0f"}, {"name": "Graphic Design is My Passion", "text": "Oh God How Did This Get Here I Am Not Good With Computer", "icon": "\ud83c\udfa8"}, {"name": "Yapper I", "text": "Posted 10 comments on devlogs.", "icon": "\ud83d\udcac"}, {"name": "No Fun", "text": "opt-out added for the whimsy-impaired", "icon": "\ud83d\udeab"}, {"name": "Verified", "text": "this user is verified (i.e. gave us $8)", "icon": "https://summer.hackclub.com/assets/verified-c9457a9f.png"}], "created_at": "2025-06-19T16:17:05.681-04:00", "updated_at": "2025-09-20T11:43:15.178-04:00", "avatar": "https://avatars.slack-edge.com/2025-06-19/9099193859040_baec610ae81aa3acc9f9_original.jpg", "custom_css": ".profile-avatar {\r\n  width: 256px;\r\n  height: 256px;\r\n  border-radius: 25px;\r\n}\r\n\r\n.profile-name {\r\n  font-size: 21px;\r\n}\r\n\r\nbody::before {\r\n  background: url(\"https://wallpapercrafter.com/th800/32857-Moraine-Lake-Banff-Canada-mountains-forest-4k.jpg\");\r\n  background-size: cover;\r\n  background-repeat: no-repeat;\r\n  background-position: center center;\r\n}\r\n\r\nh2.text-2xl.font-bold.text-gray-800 {\r\n  font-size: 36px;\r\n  font-weight: 700;\r\n  background-color: rgba(255, 255, 255, 0.7);\r\n  padding: 10px;\r\n  border-radius: 10px;\r\n}\r\n\r\nh2.text-2xl.font-bold.text-gray-800:hover {\r\n   background-color: rgba(255, 255, 255, 0.9) \r\n}\r\n\r\n.card-with-gradient {\r\n  background: rgba(255, 255, 255, 0.7) !important;\r\n}\r\n\r\n.card-with-gradient:hover {\r\n    background: rgba(255, 255, 255, 0.9) !important;\r\n}\r\n\r\ndiv.inline-flex.items-center.justify-center.w-12.h-12.font-bold {\r\n  border-radius: 10px;\r\n}\r\n\r\n* {\r\n  transition: all ease 0.3s;\r\n}\r\n\r\ndiv.lg\\:col-span-1.space-y-6 {\r\n  /*position: fixed !important;*/\r\n  top: 10px;\r\n  left: 20px;\r\n}"}, {"id": 9931, "slack_id": "U0928HVN66N", "display_name": "Lukas Breuer", "bio": null, "projects_count": 0, "devlogs_count": 0, "votes_count": 0, "ships_count": 0, "projects": [], "coding_time_seconds": 0, "coding_time_seconds_today": 0, "balance": "You need to have a pocket watcher badge to view this.", "badges": [], "created_at": "2025-06-19T16:19:19.363-04:00", "updated_at": "2025-07-03T19:53:56.723-04:00", "avatar": "https://secure.gravatar.com/avatar/799c76f07241984d4b6520e7a0e1e173.jpg?s=512&d=https%3A%2F%2Fa.slack-edge.com%2Fdf10d%2Fimg%2Favatars%2Fava_0008-512.png", "custom_css": null}, {"id": 9932, "slack_id": "U092X5KDGMN", "display_name": "Manas Gughan Karthikeyan", "bio": null, "projects_count": 0, "devlogs_count": 0, "votes_count": 0, "ships_count": 0, "projects": [], "coding_time_seconds": 1647, "coding_time_seconds_today": 0, "balance": "You need to have a pocket watcher badge to view this.", "badges": [], "created_at": "2025-06-19T16:19:57.731-04:00", "updated_at": "2025-07-07T08:11:00.372-04:00", "avatar": "https://secure.gravatar.com/avatar/c6af71669d6a209884f35f11dc8a436b.jpg?s=512&d=https%3A%2F%2Fa.slack-edge.com%2Fdf10d%2Fimg%2Favatars%2Fava_0006-512.png", "custom_css": null}, {"id": 9933, "slack_id": "U07E6T8JAHJ", "display_name": "Leah(aaaaaaaaaaaaaa)", "bio": null, "projects_count": 4, "devlogs_count": 16, "votes_count": 40, "ships_count": 2, "projects": [{"id": 5716, "title": "Pinkeeb", "devlogs_count": 1, "created_at": "2025-07-07T12:11:39.018-04:00"}, {"id": 12157, "title": "World's Worst Dating Sim", "devlogs_count": 0, "created_at": "2025-08-23T20:13:10.849-04:00"}, {"id": 9359, "title": "tbengine", "devlogs_count": 5, "created_at": "2025-07-31T19:29:34.436-04:00"}, {"id": 2630, "title": "BL\u00c5HAJ+", "devlogs_count": 10, "created_at": "2025-06-21T14:05:47.971-04:00"}], "coding_time_seconds": 81992, "coding_time_seconds_today": 0, "balance": "You need to have a pocket watcher badge to view this.", "badges": [{"name": "Maiden Voyage", "text": "you shipped your first project! the journey begins...", "icon": "\ud83d\udea2"}], "created_at": "2025-06-19T16:20:30.461-04:00", "updated_at": "2025-09-10T22:56:07.610-04:00", "avatar": "https://avatars.slack-edge.com/2025-04-18/8785369495601_baf2be68ecf7ae53f5ac_original.png", "custom_css": null}, {"id": 9934, "slack_id": "U0920RJU8H4", "display_name": "Hatina", "bio": null, "projects_count": 0, "devlogs_count": 0, "votes_count": 0, "ships_count": 0, "projects": [], "coding_time_seconds": 0, "coding_time_seconds_today": 0, "balance": "You need to have a pocket watcher badge to view this.", "badges": [], "created_at": "2025-06-19T16:25:48.806-04:00", "updated_at": "2025-07-03T19:53:57.389-04:00", "avatar": "https://secure.gravatar.com/avatar/632767f2e5cc0c481dce0fd4109eeed3.jpg?s=512&d=https%3A%2F%2Fa.slack-edge.com%2Fdf10d%2Fimg%2Favatars%2Fava_0003-512.png", "custom_css": null}, {"id": 9935, "slack_id": "U05NSH44ABF", "display_name": "Eric", "bio": null, "projects_count": 0, "devlogs_count": 0, "votes_count": 0, "ships_count": 0, "projects": [], "coding_time_seconds": 0, "coding_time_seconds_today": 0, "balance": "You need to have a pocket watcher badge to view this.", "badges": [], "created_at": "2025-06-19T16:26:33.620-04:00", "updated_at": "2025-07-03T19:53:57.651-04:00", "avatar": "https://secure.gravatar.com/avatar/8d541269dc54e8ea4d09ab26b047b7ab.jpg?s=512&d=https%3A%2F%2Fa.slack-edge.com%2Fdf10d%2Fimg%2Favatars%2Fava_0022-512.png", "custom_css": null}, {"id": 9936, "slack_id": "U091PC201M0", "display_name": "Michael Maslowski", "bio": null, "projects_count": 0, "devlogs_count": 0, "votes_count": 0, "ships_count": 0, "projects": [], "coding_time_seconds": 0, "coding_time_seconds_today": 0, "balance": "You need to have a pocket watcher badge to view this.", "badges": [], "created_at": "2025-06-19T16:26:46.061-04:00", "updated_at": "2025-07-03T21:48:19.039-04:00", "avatar": "https://secure.gravatar.com/avatar/115733f640aad408b042bf8a53901678.jpg?s=512&d=https%3A%2F%2Fa.slack-edge.com%2Fdf10d%2Fimg%2Favatars%2Fava_0013-512.png", "custom_css": null}, {"id": 9937, "slack_id": "U09228JRT0B", "display_name": "Jaymee Kruetzmann", "bio": null, "projects_count": 0, "devlogs_count": 0, "votes_count": 0, "ships_count": 0, "projects": [], "coding_time_seconds": 0, "coding_time_seconds_today": 0, "balance": "You need to have a pocket watcher badge to view this.", "badges": [], "created_at": "2025-06-19T16:27:01.290-04:00", "updated_at": "2025-07-03T19:53:58.057-04:00", "avatar": "https://avatars.slack-edge.com/2025-06-19/9077156663524_3e6db53d32c62fb8d81b_original.png", "custom_css": null}, {"id": 9938, "slack_id": "U091U0S7479", "display_name": "Luiz Gustavo", "bio": null, "projects_count": 0, "devlogs_count": 0, "votes_count": 0, "ships_count": 0, "projects": [], "coding_time_seconds": 0, "coding_time_seconds_today": 0, "balance": "You need to have a pocket watcher badge to view this.", "badges": [], "created_at": "2025-06-19T16:28:30.519-04:00", "updated_at": "2025-07-03T19:53:58.335-04:00", "avatar": "https://avatars.slack-edge.com/2025-06-19/9062043519847_0563b356a67833c9292f_original.jpg", "custom_css": null}, {"id": 9939, "slack_id": "U0868PKRB3R", "display_name": "Future-X", "bio": null, "projects_count": 0, "devlogs_count": 0, "votes_count": 0, "ships_count": 0, "projects": [], "coding_time_seconds": 65573, "coding_time_seconds_today": 0, "balance": "You need to have a pocket watcher badge to view this.", "badges": [], "created_at": "2025-06-19T16:28:53.588-04:00", "updated_at": "2025-07-03T19:53:58.595-04:00", "avatar": "https://avatars.slack-edge.com/2025-03-06/8582888922960_f9ff9e567aeff71ec5c6_original.jpg", "custom_css": null}, {"id": 9940, "slack_id": "U09228CL2LB", "display_name": "Abhishek Jaiswal", "bio": null, "projects_count": 1, "devlogs_count": 0, "votes_count": 0, "ships_count": 0, "projects": [{"id": 2056, "title": "SnapCast", "devlogs_count": 0, "created_at": "2025-06-20T02:33:46.352-04:00"}], "coding_time_seconds": 45909, "coding_time_seconds_today": 0, "balance": "You need to have a pocket watcher badge to view this.", "badges": [], "created_at": "2025-06-19T16:30:50.328-04:00", "updated_at": "2025-07-03T22:00:21.513-04:00", "avatar": "https://secure.gravatar.com/avatar/c12e93630d76b21f2c7ba8ed6a58f0e7.jpg?s=512&d=https%3A%2F%2Fa.slack-edge.com%2Fdf10d%2Fimg%2Favatars%2Fava_0023-512.png", "custom_css": null}], "pagination": {"page": 497, "pages": 1192, "count": 23828, "items": 20}}