{"users": [{"id": 9941, "slack_id": "U092DMRJ6N4", "display_name": "Aisha", "bio": null, "projects_count": 0, "devlogs_count": 0, "votes_count": 0, "ships_count": 0, "projects": [], "coding_time_seconds": 0, "coding_time_seconds_today": 0, "balance": "You need to have a pocket watcher badge to view this.", "badges": [], "created_at": "2025-06-19T16:31:58.698-04:00", "updated_at": "2025-08-08T19:29:34.768-04:00", "avatar": "https://secure.gravatar.com/avatar/c4a045227d53d4de279da195345410ff.jpg?s=512&d=https%3A%2F%2Fa.slack-edge.com%2Fdf10d%2Fimg%2Favatars%2Fava_0020-512.png", "custom_css": null}, {"id": 9942, "slack_id": "U092295169Z", "display_name": "Aaron Zhu", "bio": null, "projects_count": 0, "devlogs_count": 22, "votes_count": 36, "ships_count": 0, "projects": [], "coding_time_seconds": 472716, "coding_time_seconds_today": 0, "balance": "You need to have a pocket watcher badge to view this.", "badges": [], "created_at": "2025-06-19T16:32:40.926-04:00", "updated_at": "2025-09-07T01:36:29.258-04:00", "avatar": "https://avatars.slack-edge.com/2025-06-19/9099239025072_471a2e9b2c8e4d1a9d04_original.png", "custom_css": null}, {"id": 9943, "slack_id": "U091U175FU7", "display_name": "truf", "bio": null, "projects_count": 2, "devlogs_count": 12, "votes_count": 23, "ships_count": 0, "projects": [{"id": 2199, "title": "PolyPanic", "devlogs_count": 9, "created_at": "2025-06-20T12:26:28.788-04:00"}, {"id": 4771, "title": "CapeInjector", "devlogs_count": 3, "created_at": "2025-07-01T12:41:45.569-04:00"}], "coding_time_seconds": 265522, "coding_time_seconds_today": 0, "balance": "You need to have a pocket watcher badge to view this.", "badges": [], "created_at": "2025-06-19T16:33:33.337-04:00", "updated_at": "2025-08-28T15:21:42.983-04:00", "avatar": "https://avatars.slack-edge.com/2025-06-19/9089783028465_bf7f9ed27b064bf6385f_original.jpg", "custom_css": null}, {"id": 9944, "slack_id": "U092MHY0DJM", "display_name": "HiiamSheep", "bio": null, "projects_count": 1, "devlogs_count": 6, "votes_count": 15, "ships_count": 1, "projects": [{"id": 2874, "title": "Uco Tracker", "devlogs_count": 6, "created_at": "2025-06-22T09:46:06.152-04:00"}], "coding_time_seconds": 95720, "coding_time_seconds_today": 0, "balance": "You need to have a pocket watcher badge to view this.", "badges": [{"name": "Maiden Voyage", "text": "you shipped your first project! the journey begins...", "icon": "\ud83d\udea2"}], "created_at": "2025-06-19T16:33:45.472-04:00", "updated_at": "2025-09-10T22:56:07.855-04:00", "avatar": "https://avatars.slack-edge.com/2025-06-19/9076718060450_eaaac1cc1657e80630ed_original.png", "custom_css": null}, {"id": 9945, "slack_id": "U09229UEV2P", "display_name": "leocerv", "bio": null, "projects_count": 0, "devlogs_count": 61, "votes_count": 154, "ships_count": 0, "projects": [], "coding_time_seconds": 1421533, "coding_time_seconds_today": 0, "balance": "You need to have a pocket watcher badge to view this.", "badges": [{"name": "Maiden Voyage", "text": "you shipped your first project! the journey begins...", "icon": "\ud83d\udea2"}, {"name": "Ballot Stuffer", "text": "vote 100 times.", "icon": "https://summer.hackclub.com/assets/i_voted-bf851b48.png"}], "created_at": "2025-06-19T16:41:55.453-04:00", "updated_at": "2025-09-10T22:56:07.915-04:00", "avatar": "https://avatars.slack-edge.com/2025-07-01/9120321302567_fdd90c97543e7c9f1161_original.jpg", "custom_css": null}, {"id": 9946, "slack_id": "U092MJRFV4Z", "display_name": "Abdulsalam", "bio": null, "projects_count": 0, "devlogs_count": 0, "votes_count": 0, "ships_count": 0, "projects": [], "coding_time_seconds": 3503, "coding_time_seconds_today": 0, "balance": "You need to have a pocket watcher badge to view this.", "badges": [], "created_at": "2025-06-19T16:45:57.709-04:00", "updated_at": "2025-07-03T19:54:00.149-04:00", "avatar": "https://secure.gravatar.com/avatar/ae26b47830317cb9fb8493159e87934e.jpg?s=512&d=https%3A%2F%2Fa.slack-edge.com%2Fdf10d%2Fimg%2Favatars%2Fava_0006-512.png", "custom_css": null}, {"id": 9947, "slack_id": "U0922GHRX54", "display_name": "Rita", "bio": null, "projects_count": 0, "devlogs_count": 0, "votes_count": 0, "ships_count": 0, "projects": [], "coding_time_seconds": 0, "coding_time_seconds_today": 0, "balance": "You need to have a pocket watcher badge to view this.", "badges": [], "created_at": "2025-06-19T16:47:52.654-04:00", "updated_at": "2025-07-03T22:00:22.035-04:00", "avatar": "https://secure.gravatar.com/avatar/f6c0babfc5f4baa9d19b28ecbc728e79.jpg?s=512&d=https%3A%2F%2Fa.slack-edge.com%2Fdf10d%2Fimg%2Favatars%2Fava_0002-512.png", "custom_css": null}, {"id": 9948, "slack_id": "U08955L1NSZ", "display_name": "Arka", "bio": null, "projects_count": 0, "devlogs_count": 0, "votes_count": 0, "ships_count": 0, "projects": [], "coding_time_seconds": 3316, "coding_time_seconds_today": 0, "balance": "You need to have a pocket watcher badge to view this.", "badges": [], "created_at": "2025-06-19T16:48:28.059-04:00", "updated_at": "2025-07-03T19:54:00.563-04:00", "avatar": "https://secure.gravatar.com/avatar/2cd56ceaed498301212d9f20e770fcfe.jpg?s=512&d=https%3A%2F%2Fa.slack-edge.com%2Fdf10d%2Fimg%2Favatars%2Fava_0001-512.png", "custom_css": null}, {"id": 9949, "slack_id": "U092X8BK4GG", "display_name": "Samuel Saar", "bio": null, "projects_count": 0, "devlogs_count": 0, "votes_count": 0, "ships_count": 0, "projects": [], "coding_time_seconds": 104, "coding_time_seconds_today": 0, "balance": "You need to have a pocket watcher badge to view this.", "badges": [], "created_at": "2025-06-19T16:53:52.245-04:00", "updated_at": "2025-07-07T14:51:05.045-04:00", "avatar": "https://avatars.slack-edge.com/2025-06-27/9115886165092_07588383adfa6fd3c5f4_original.jpg", "custom_css": null}, {"id": 9950, "slack_id": "U0922NLD1K8", "display_name": "Kris Cross", "bio": null, "projects_count": 1, "devlogs_count": 1, "votes_count": 0, "ships_count": 0, "projects": [{"id": 2367, "title": "Rhythm Game", "devlogs_count": 1, "created_at": "2025-06-20T20:50:25.928-04:00"}], "coding_time_seconds": 26926, "coding_time_seconds_today": 0, "balance": "You need to have a pocket watcher badge to view this.", "badges": [], "created_at": "2025-06-19T16:53:55.790-04:00", "updated_at": "2025-07-03T22:00:22.247-04:00", "avatar": "https://secure.gravatar.com/avatar/3b63760ca65db2ff3540514d84a5dd1a.jpg?s=512&d=https%3A%2F%2Fa.slack-edge.com%2Fdf10d%2Fimg%2Favatars%2Fava_0017-512.png", "custom_css": null}, {"id": 9951, "slack_id": "U0928LQAPA6", "display_name": "Pratik Ranjan", "bio": null, "projects_count": 0, "devlogs_count": 0, "votes_count": 0, "ships_count": 0, "projects": [], "coding_time_seconds": 106282, "coding_time_seconds_today": 0, "balance": "You need to have a pocket watcher badge to view this.", "badges": [], "created_at": "2025-06-19T16:54:28.565-04:00", "updated_at": "2025-07-03T19:54:01.102-04:00", "avatar": "https://secure.gravatar.com/avatar/32036eb15c96c82f993f47d5ce5bd711.jpg?s=512&d=https%3A%2F%2Fa.slack-edge.com%2Fdf10d%2Fimg%2Favatars%2Fava_0007-512.png", "custom_css": null}, {"id": 9952, "slack_id": "U091Y8DMDSP", "display_name": "Oluwatobisimi Ilori", "bio": null, "projects_count": 0, "devlogs_count": 0, "votes_count": 0, "ships_count": 0, "projects": [], "coding_time_seconds": 15080, "coding_time_seconds_today": 0, "balance": "You need to have a pocket watcher badge to view this.", "badges": [], "created_at": "2025-06-19T16:57:20.849-04:00", "updated_at": "2025-07-03T22:00:22.403-04:00", "avatar": "https://secure.gravatar.com/avatar/04f332997e638d5d0321a5451cd11b32.jpg?s=512&d=https%3A%2F%2Fa.slack-edge.com%2Fdf10d%2Fimg%2Favatars%2Fava_0014-512.png", "custom_css": null}, {"id": 9953, "slack_id": "U0828FHT7PW", "display_name": "Abdulrahman", "bio": null, "projects_count": 0, "devlogs_count": 0, "votes_count": 0, "ships_count": 0, "projects": [], "coding_time_seconds": 5312, "coding_time_seconds_today": 0, "balance": "You need to have a pocket watcher badge to view this.", "badges": [], "created_at": "2025-06-19T16:57:26.372-04:00", "updated_at": "2025-07-03T20:36:20.763-04:00", "avatar": "https://secure.gravatar.com/avatar/719b92b0f704cfcef9034ccdd885702d.jpg?s=512&d=https%3A%2F%2Fa.slack-edge.com%2Fdf10d%2Fimg%2Favatars%2Fava_0009-512.png", "custom_css": null}, {"id": 9954, "slack_id": "U091WP2T6DS", "display_name": "Anna", "bio": null, "projects_count": 0, "devlogs_count": 0, "votes_count": 0, "ships_count": 0, "projects": [], "coding_time_seconds": 0, "coding_time_seconds_today": 0, "balance": "You need to have a pocket watcher badge to view this.", "badges": [], "created_at": "2025-06-19T16:57:38.134-04:00", "updated_at": "2025-07-03T19:54:01.673-04:00", "avatar": "https://secure.gravatar.com/avatar/f7dd67df89cc969fcecc32bca6e9a2ef.jpg?s=512&d=https%3A%2F%2Fa.slack-edge.com%2Fdf10d%2Fimg%2Favatars%2Fava_0015-512.png", "custom_css": null}, {"id": 9955, "slack_id": "U091BNPJWDC", "display_name": "nosrep", "bio": "\"Tell us about yourself\"? who are you? why do you want to know? who sent you?", "projects_count": 3, "devlogs_count": 107, "votes_count": 69, "ships_count": 2, "projects": [{"id": 2234, "title": "my website", "devlogs_count": 2, "created_at": "2025-06-20T13:59:39.064-04:00"}, {"id": 2753, "title": "trout", "devlogs_count": 81, "created_at": "2025-06-22T00:28:19.024-04:00"}, {"id": 6816, "title": "human benchy", "devlogs_count": 23, "created_at": "2025-07-16T14:32:27.707-04:00"}], "coding_time_seconds": 916873, "coding_time_seconds_today": 0, "balance": "You need to have a pocket watcher badge to view this.", "badges": [{"name": "Maiden Voyage", "text": "you shipped your first project! the journey begins...", "icon": "\ud83d\udea2"}, {"name": "Yapper I", "text": "Posted 10 comments on devlogs.", "icon": "\ud83d\udcac"}], "created_at": "2025-06-19T16:59:21.305-04:00", "updated_at": "2025-09-10T22:56:08.202-04:00", "avatar": "https://secure.gravatar.com/avatar/65708c2afbb0237dd70beb30de54de07.jpg?s=512&d=https%3A%2F%2Fa.slack-edge.com%2Fdf10d%2Fimg%2Favatars%2Fava_0016-512.png", "custom_css": null}, {"id": 9956, "slack_id": "U092MLEMHC1", "display_name": "Georg Tawadrous", "bio": null, "projects_count": 0, "devlogs_count": 0, "votes_count": 0, "ships_count": 0, "projects": [], "coding_time_seconds": 0, "coding_time_seconds_today": 0, "balance": "You need to have a pocket watcher badge to view this.", "badges": [], "created_at": "2025-06-19T17:02:15.181-04:00", "updated_at": "2025-07-03T19:54:02.217-04:00", "avatar": "https://avatars.slack-edge.com/2025-06-19/9077220053876_dfd129258949fb71a18d_original.jpg", "custom_css": null}, {"id": 9957, "slack_id": "U092HAWPHJM", "display_name": "Andy Li", "bio": null, "projects_count": 0, "devlogs_count": 0, "votes_count": 0, "ships_count": 0, "projects": [], "coding_time_seconds": 0, "coding_time_seconds_today": 0, "balance": "You need to have a pocket watcher badge to view this.", "badges": [], "created_at": "2025-06-19T17:04:07.106-04:00", "updated_at": "2025-07-03T19:54:02.485-04:00", "avatar": "https://secure.gravatar.com/avatar/83cc082cd82012bb5612bfc4ef88af5c.jpg?s=512&d=https%3A%2F%2Fa.slack-edge.com%2Fdf10d%2Fimg%2Favatars%2Fava_0001-512.png", "custom_css": null}, {"id": 9958, "slack_id": "U0922BQBHJP", "display_name": "harshal parekh", "bio": null, "projects_count": 0, "devlogs_count": 0, "votes_count": 0, "ships_count": 0, "projects": [], "coding_time_seconds": 0, "coding_time_seconds_today": 0, "balance": "You need to have a pocket watcher badge to view this.", "badges": [], "created_at": "2025-06-19T17:05:50.338-04:00", "updated_at": "2025-07-04T02:29:41.399-04:00", "avatar": "https://avatars.slack-edge.com/2025-06-19/9075802855445_7b51fcb80751fb6edcf4_original.png", "custom_css": null}, {"id": 9959, "slack_id": "U09295P178U", "display_name": "Djontop", "bio": null, "projects_count": 0, "devlogs_count": 0, "votes_count": 0, "ships_count": 0, "projects": [], "coding_time_seconds": 0, "coding_time_seconds_today": 0, "balance": "You need to have a pocket watcher badge to view this.", "badges": [], "created_at": "2025-06-19T17:07:24.479-04:00", "updated_at": "2025-07-04T08:25:57.507-04:00", "avatar": "https://secure.gravatar.com/avatar/6bb2a19723bb69e2098116b95cb76254.jpg?s=512&d=https%3A%2F%2Fa.slack-edge.com%2Fdf10d%2Fimg%2Favatars%2Fava_0017-512.png", "custom_css": null}, {"id": 9960, "slack_id": "U092MM51ZJ5", "display_name": "david", "bio": null, "projects_count": 0, "devlogs_count": 0, "votes_count": 0, "ships_count": 0, "projects": [], "coding_time_seconds": 0, "coding_time_seconds_today": 0, "balance": "You need to have a pocket watcher badge to view this.", "badges": [], "created_at": "2025-06-19T17:09:55.681-04:00", "updated_at": "2025-07-04T02:29:41.567-04:00", "avatar": "https://secure.gravatar.com/avatar/c394ca0a12b2bc02f26ca1a774942427.jpg?s=512&d=https%3A%2F%2Fa.slack-edge.com%2Fdf10d%2Fimg%2Favatars%2Fava_0009-512.png", "custom_css": null}], "pagination": {"page": 498, "pages": 1192, "count": 23828, "items": 20}}