{"users": [{"id": 9961, "slack_id": "U0922Q4Q27Q", "display_name": "Rohan", "bio": null, "projects_count": 0, "devlogs_count": 0, "votes_count": 0, "ships_count": 0, "projects": [], "coding_time_seconds": 0, "coding_time_seconds_today": 0, "balance": "You need to have a pocket watcher badge to view this.", "badges": [], "created_at": "2025-06-19T17:10:52.286-04:00", "updated_at": "2025-07-06T20:11:29.986-04:00", "avatar": "https://secure.gravatar.com/avatar/1bee5be217b245f0854cb5ab045cfead.jpg?s=512&d=https%3A%2F%2Fa.slack-edge.com%2Fdf10d%2Fimg%2Favatars%2Fava_0000-512.png", "custom_css": null}, {"id": 9962, "slack_id": "U0922PT1RJA", "display_name": "may", "bio": null, "projects_count": 1, "devlogs_count": 0, "votes_count": 0, "ships_count": 0, "projects": [{"id": 3810, "title": "celesttial's site!!", "devlogs_count": 0, "created_at": "2025-06-25T21:18:01.220-04:00"}], "coding_time_seconds": 394, "coding_time_seconds_today": 0, "balance": "You need to have a pocket watcher badge to view this.", "badges": [], "created_at": "2025-06-19T17:13:46.753-04:00", "updated_at": "2025-07-03T19:54:03.305-04:00", "avatar": "https://avatars.slack-edge.com/2025-06-19/9099519248432_a51a2bac0cb2f8ca608d_original.png", "custom_css": null}, {"id": 9963, "slack_id": "U0922AS3SR1", "display_name": "Havisha Jaitley", "bio": null, "projects_count": 0, "devlogs_count": 0, "votes_count": 0, "ships_count": 0, "projects": [], "coding_time_seconds": 0, "coding_time_seconds_today": 0, "balance": "You need to have a pocket watcher badge to view this.", "badges": [], "created_at": "2025-06-19T17:14:31.043-04:00", "updated_at": "2025-07-03T19:54:03.563-04:00", "avatar": "https://avatars.slack-edge.com/2025-06-19/9099360262480_e0e6ab40e902fa3784b0_original.png", "custom_css": null}, {"id": 9964, "slack_id": "U0927PZCHSR", "display_name": "FastBolt", "bio": null, "projects_count": 0, "devlogs_count": 0, "votes_count": 0, "ships_count": 0, "projects": [], "coding_time_seconds": 168, "coding_time_seconds_today": 0, "balance": "You need to have a pocket watcher badge to view this.", "badges": [], "created_at": "2025-06-19T17:14:58.945-04:00", "updated_at": "2025-07-03T22:00:23.249-04:00", "avatar": "https://secure.gravatar.com/avatar/af0aa32e14f8a40db958081bb120222d.jpg?s=512&d=https%3A%2F%2Fa.slack-edge.com%2Fdf10d%2Fimg%2Favatars%2Fava_0011-512.png", "custom_css": null}, {"id": 9965, "slack_id": "U0927QC9NJH", "display_name": "Austin Torino", "bio": null, "projects_count": 1, "devlogs_count": 4, "votes_count": 20, "ships_count": 1, "projects": [{"id": 3780, "title": "BookmarkPy", "devlogs_count": 4, "created_at": "2025-06-25T18:01:22.206-04:00"}], "coding_time_seconds": 65905, "coding_time_seconds_today": 0, "balance": "You need to have a pocket watcher badge to view this.", "badges": [{"name": "Maiden Voyage", "text": "you shipped your first project! the journey begins...", "icon": "\ud83d\udea2"}], "created_at": "2025-06-19T17:19:11.268-04:00", "updated_at": "2025-09-10T22:56:08.467-04:00", "avatar": "https://avatars.slack-edge.com/2025-06-19/9089755346289_e499c282ae7a072c2632_original.png", "custom_css": null}, {"id": 9966, "slack_id": "U079NGFAJ6A", "display_name": "z1az", "bio": null, "projects_count": 4, "devlogs_count": 8, "votes_count": 12, "ships_count": 1, "projects": [{"id": 1951, "title": "DCHacks", "devlogs_count": 1, "created_at": "2025-06-19T17:29:38.631-04:00"}, {"id": 1954, "title": "Summit", "devlogs_count": 5, "created_at": "2025-06-19T17:43:18.151-04:00"}, {"id": 7030, "title": "Portfolio", "devlogs_count": 1, "created_at": "2025-07-18T12:22:19.407-04:00"}, {"id": 6392, "title": "BlairHacks Website", "devlogs_count": 1, "created_at": "2025-07-13T01:39:48.114-04:00"}], "coding_time_seconds": 138241, "coding_time_seconds_today": 0, "balance": "You need to have a pocket watcher badge to view this.", "badges": [{"name": "Maiden Voyage", "text": "you shipped your first project! the journey begins...", "icon": "\ud83d\udea2"}], "created_at": "2025-06-19T17:21:21.050-04:00", "updated_at": "2025-09-10T22:56:08.525-04:00", "avatar": "https://secure.gravatar.com/avatar/b1adac9e4264c2e4c6af26a4268df3d7.jpg?s=512&d=https%3A%2F%2Fa.slack-edge.com%2Fdf10d%2Fimg%2Favatars%2Fava_0005-512.png", "custom_css": null}, {"id": 9967, "slack_id": "U0927QJF6DT", "display_name": "Sijin", "bio": null, "projects_count": 0, "devlogs_count": 0, "votes_count": 0, "ships_count": 0, "projects": [], "coding_time_seconds": 0, "coding_time_seconds_today": 0, "balance": "You need to have a pocket watcher badge to view this.", "badges": [], "created_at": "2025-06-19T17:21:28.904-04:00", "updated_at": "2025-07-04T02:29:42.088-04:00", "avatar": "https://secure.gravatar.com/avatar/a7d7fe6247bb8bb0f9d1cb1181904437.jpg?s=512&d=https%3A%2F%2Fa.slack-edge.com%2Fdf10d%2Fimg%2Favatars%2Fava_0013-512.png", "custom_css": null}, {"id": 9968, "slack_id": "U0922QUGQBG", "display_name": "Mateusz Trzmiel", "bio": null, "projects_count": 0, "devlogs_count": 0, "votes_count": 0, "ships_count": 0, "projects": [], "coding_time_seconds": 0, "coding_time_seconds_today": 0, "balance": "You need to have a pocket watcher badge to view this.", "badges": [], "created_at": "2025-06-19T17:22:01.510-04:00", "updated_at": "2025-07-03T19:54:04.784-04:00", "avatar": "https://avatars.slack-edge.com/2025-06-19/9076800812674_ea6ef4bdaf75f490950b_original.png", "custom_css": null}, {"id": 9969, "slack_id": "U0922AFKGTY", "display_name": "Aldrin Thomas", "bio": null, "projects_count": 0, "devlogs_count": 0, "votes_count": 0, "ships_count": 0, "projects": [], "coding_time_seconds": 0, "coding_time_seconds_today": 0, "balance": "You need to have a pocket watcher badge to view this.", "badges": [], "created_at": "2025-06-19T17:25:01.901-04:00", "updated_at": "2025-07-03T19:54:05.042-04:00", "avatar": "https://secure.gravatar.com/avatar/240df42e165673049de69cfb71946cb8.jpg?s=512&d=https%3A%2F%2Fa.slack-edge.com%2Fdf10d%2Fimg%2Favatars%2Fava_0019-512.png", "custom_css": null}, {"id": 9970, "slack_id": "U09297X5XE0", "display_name": "Lakshan Venkatakrishnan", "bio": null, "projects_count": 0, "devlogs_count": 0, "votes_count": 0, "ships_count": 0, "projects": [], "coding_time_seconds": 0, "coding_time_seconds_today": 0, "balance": "You need to have a pocket watcher badge to view this.", "badges": [], "created_at": "2025-06-19T17:26:39.240-04:00", "updated_at": "2025-07-03T19:54:05.315-04:00", "avatar": "https://secure.gravatar.com/avatar/5940d1d9d1f54d4678095832e033f2bd.jpg?s=512&d=https%3A%2F%2Fa.slack-edge.com%2Fdf10d%2Fimg%2Favatars%2Fava_0002-512.png", "custom_css": null}, {"id": 9971, "slack_id": "U079PB6EM9C", "display_name": "Kaj795", "bio": null, "projects_count": 4, "devlogs_count": 5, "votes_count": 37, "ships_count": 2, "projects": [{"id": 6128, "title": "Pong with C++ and Raylib", "devlogs_count": 0, "created_at": "2025-07-10T17:23:39.292-04:00"}, {"id": 9558, "title": "Pong in Python", "devlogs_count": 3, "created_at": "2025-08-01T16:33:35.684-04:00"}, {"id": 10699, "title": "Space Invaders", "devlogs_count": 0, "created_at": "2025-08-09T20:31:04.728-04:00"}, {"id": 9884, "title": "Snake in Python", "devlogs_count": 2, "created_at": "2025-08-02T16:34:50.369-04:00"}], "coding_time_seconds": 82804, "coding_time_seconds_today": 0, "balance": "You need to have a pocket watcher badge to view this.", "badges": [{"name": "Maiden Voyage", "text": "you shipped your first project! the journey begins...", "icon": "\ud83d\udea2"}], "created_at": "2025-06-19T17:28:32.968-04:00", "updated_at": "2025-09-10T22:56:08.683-04:00", "avatar": "https://secure.gravatar.com/avatar/6df03cc16972b3dcef959430b61b34fe.jpg?s=512&d=https%3A%2F%2Fa.slack-edge.com%2Fdf10d%2Fimg%2Favatars%2Fava_0005-512.png", "custom_css": null}, {"id": 9972, "slack_id": "U092983RAEQ", "display_name": "Nath", "bio": null, "projects_count": 0, "devlogs_count": 0, "votes_count": 0, "ships_count": 0, "projects": [], "coding_time_seconds": 0, "coding_time_seconds_today": 0, "balance": "You need to have a pocket watcher badge to view this.", "badges": [], "created_at": "2025-06-19T17:28:33.805-04:00", "updated_at": "2025-07-03T19:54:05.868-04:00", "avatar": "https://secure.gravatar.com/avatar/fa5da20730ee51f1e1cdeda42999656c.jpg?s=512&d=https%3A%2F%2Fa.slack-edge.com%2Fdf10d%2Fimg%2Favatars%2Fava_0010-512.png", "custom_css": null}, {"id": 9973, "slack_id": "U0928MAHZFC", "display_name": "Zaheu", "bio": null, "projects_count": 0, "devlogs_count": 0, "votes_count": 0, "ships_count": 0, "projects": [], "coding_time_seconds": 0, "coding_time_seconds_today": 0, "balance": "You need to have a pocket watcher badge to view this.", "badges": [], "created_at": "2025-06-19T17:31:30.323-04:00", "updated_at": "2025-07-03T19:54:06.358-04:00", "avatar": "https://secure.gravatar.com/avatar/a1738ec09ca1d48ca1612c4715549bb4.jpg?s=512&d=https%3A%2F%2Fa.slack-edge.com%2Fdf10d%2Fimg%2Favatars%2Fava_0026-512.png", "custom_css": null}, {"id": 9974, "slack_id": "U091VMPH7GE", "display_name": "Paradox.Zarck", "bio": null, "projects_count": 0, "devlogs_count": 0, "votes_count": 0, "ships_count": 0, "projects": [], "coding_time_seconds": 0, "coding_time_seconds_today": 0, "balance": "You need to have a pocket watcher badge to view this.", "badges": [], "created_at": "2025-06-19T17:35:05.718-04:00", "updated_at": "2025-07-03T19:54:06.661-04:00", "avatar": "https://secure.gravatar.com/avatar/e1a872fd8b5447374edd982e37d8186a.jpg?s=512&d=https%3A%2F%2Fa.slack-edge.com%2Fdf10d%2Fimg%2Favatars%2Fava_0009-512.png", "custom_css": null}, {"id": 9975, "slack_id": "U091CMUGL49", "display_name": "Camden", "bio": "", "projects_count": 2, "devlogs_count": 1, "votes_count": 0, "ships_count": 0, "projects": [{"id": 2163, "title": "Autocorrect", "devlogs_count": 0, "created_at": "2025-06-20T10:46:11.161-04:00"}, {"id": 8933, "title": "Vanish Plus", "devlogs_count": 1, "created_at": "2025-07-29T19:04:22.123-04:00"}], "coding_time_seconds": 102492, "coding_time_seconds_today": 0, "balance": "You need to have a pocket watcher badge to view this.", "badges": [], "created_at": "2025-06-19T17:37:04.709-04:00", "updated_at": "2025-08-01T15:27:31.643-04:00", "avatar": "https://avatars.slack-edge.com/2025-06-19/9077351757924_d8b3584805852a4675f5_original.png", "custom_css": null}, {"id": 9976, "slack_id": "U09298WHS3W", "display_name": "jawad", "bio": null, "projects_count": 0, "devlogs_count": 0, "votes_count": 0, "ships_count": 0, "projects": [], "coding_time_seconds": 0, "coding_time_seconds_today": 0, "balance": "You need to have a pocket watcher badge to view this.", "badges": [], "created_at": "2025-06-19T17:38:58.587-04:00", "updated_at": "2025-07-04T02:29:42.728-04:00", "avatar": "https://secure.gravatar.com/avatar/b8605cc1665171e57e0a77ba430ab1fa.jpg?s=512&d=https%3A%2F%2Fa.slack-edge.com%2Fdf10d%2Fimg%2Favatars%2Fava_0007-512.png", "custom_css": null}, {"id": 9977, "slack_id": "U0922EJKNAF", "display_name": "swarnayu", "bio": null, "projects_count": 0, "devlogs_count": 0, "votes_count": 0, "ships_count": 0, "projects": [], "coding_time_seconds": 0, "coding_time_seconds_today": 0, "balance": "You need to have a pocket watcher badge to view this.", "badges": [], "created_at": "2025-06-19T17:44:07.529-04:00", "updated_at": "2025-07-03T19:54:07.338-04:00", "avatar": "https://secure.gravatar.com/avatar/58a373bc8745ee206a13c2963cf7be56.jpg?s=512&d=https%3A%2F%2Fa.slack-edge.com%2Fdf10d%2Fimg%2Favatars%2Fava_0024-512.png", "custom_css": null}, {"id": 9978, "slack_id": "U0928QUPFRQ", "display_name": "anghelmatei", "bio": null, "projects_count": 0, "devlogs_count": 0, "votes_count": 0, "ships_count": 0, "projects": [], "coding_time_seconds": 0, "coding_time_seconds_today": 0, "balance": "You need to have a pocket watcher badge to view this.", "badges": [], "created_at": "2025-06-19T17:44:57.434-04:00", "updated_at": "2025-07-03T19:54:07.614-04:00", "avatar": "https://secure.gravatar.com/avatar/64b1c2365f9bfc973f14450af9370b47.jpg?s=512&d=https%3A%2F%2Fa.slack-edge.com%2Fdf10d%2Fimg%2Favatars%2Fava_0024-512.png", "custom_css": null}, {"id": 9979, "slack_id": "U0825U4K39Q", "display_name": "Alex", "bio": null, "projects_count": 4, "devlogs_count": 17, "votes_count": 45, "ships_count": 2, "projects": [{"id": 2031, "title": "Rust Encryption", "devlogs_count": 5, "created_at": "2025-06-19T23:38:19.730-04:00"}, {"id": 13626, "title": "Custom Mattermost fork", "devlogs_count": 0, "created_at": "2025-09-21T10:37:45.329-04:00"}, {"id": 12257, "title": "Sort Downloads", "devlogs_count": 2, "created_at": "2025-08-25T00:15:06.642-04:00"}, {"id": 12028, "title": "Project Creation", "devlogs_count": 8, "created_at": "2025-08-22T09:07:29.721-04:00"}], "coding_time_seconds": 424365, "coding_time_seconds_today": 2956, "balance": "You need to have a pocket watcher badge to view this.", "badges": [{"name": "Maiden Voyage", "text": "you shipped your first project! the journey begins...", "icon": "\ud83d\udea2"}], "created_at": "2025-06-19T17:45:02.949-04:00", "updated_at": "2025-09-16T19:14:49.230-04:00", "avatar": "https://avatars.slack-edge.com/2025-09-06/9472558449814_89c6efe9ead58be3016e_original.png", "custom_css": null}, {"id": 9980, "slack_id": "U092XCDDK96", "display_name": "Alexander M Andersson", "bio": null, "projects_count": 0, "devlogs_count": 0, "votes_count": 0, "ships_count": 0, "projects": [], "coding_time_seconds": 0, "coding_time_seconds_today": 0, "balance": "You need to have a pocket watcher badge to view this.", "badges": [], "created_at": "2025-06-19T17:45:46.663-04:00", "updated_at": "2025-07-03T19:54:08.154-04:00", "avatar": "https://avatars.slack-edge.com/2025-06-19/9075913706821_d10fb7b43eb9666071ff_original.png", "custom_css": null}], "pagination": {"page": 499, "pages": 1192, "count": 23828, "items": 20}}