{"users": [{"id": 81, "slack_id": "U076N7ANA2Y", "display_name": "Malav", "bio": null, "projects_count": 0, "devlogs_count": 0, "votes_count": 0, "ships_count": 0, "projects": [], "coding_time_seconds": 31332, "coding_time_seconds_today": 0, "balance": "You need to have a pocket watcher badge to view this.", "badges": [], "created_at": "2025-06-15T21:53:00.449-04:00", "updated_at": "2025-08-09T22:51:03.717-04:00", "avatar": "https://avatars.slack-edge.com/2025-06-03/9007885719441_d313987045d50b10a73c_original.png", "custom_css": null}, {"id": 82, "slack_id": "U078G4NHBJR", "display_name": "bcon", "bio": null, "projects_count": 0, "devlogs_count": 0, "votes_count": 0, "ships_count": 0, "projects": [], "coding_time_seconds": 0, "coding_time_seconds_today": 0, "balance": "You need to have a pocket watcher badge to view this.", "badges": [], "created_at": "2025-06-15T21:56:09.958-04:00", "updated_at": "2025-07-03T19:11:18.634-04:00", "avatar": "https://avatars.slack-edge.com/2024-06-17/7290949809507_a33242fd31a3403bbe6b_original.jpg", "custom_css": null}, {"id": 83, "slack_id": "U07UY7CP9LM", "display_name": "perc", "bio": null, "projects_count": 1, "devlogs_count": 0, "votes_count": 0, "ships_count": 0, "projects": [{"id": 12569, "title": "Streamline", "devlogs_count": 0, "created_at": "2025-08-29T20:37:24.553-04:00"}], "coding_time_seconds": 431594, "coding_time_seconds_today": 0, "balance": "You need to have a pocket watcher badge to view this.", "badges": [], "created_at": "2025-06-15T21:59:03.362-04:00", "updated_at": "2025-08-12T20:40:59.188-04:00", "avatar": "https://avatars.slack-edge.com/2025-07-09/9168232079427_5c1ac52341557711a81c_original.png", "custom_css": null}, {"id": 84, "slack_id": "U082PKSD15L", "display_name": "Candy", "bio": null, "projects_count": 1, "devlogs_count": 3, "votes_count": 0, "ships_count": 0, "projects": [{"id": 1179, "title": "NoTube", "devlogs_count": 3, "created_at": "2025-06-17T20:39:13.711-04:00"}], "coding_time_seconds": 217927, "coding_time_seconds_today": 0, "balance": "You need to have a pocket watcher badge to view this.", "badges": [], "created_at": "2025-06-15T22:00:35.693-04:00", "updated_at": "2025-07-03T19:11:19.181-04:00", "avatar": "https://avatars.slack-edge.com/2025-06-15/9051140092754_fc20f297b673326cb22a_original.png", "custom_css": null}, {"id": 85, "slack_id": "U06FA8M4NGP", "display_name": "Simone", "bio": null, "projects_count": 2, "devlogs_count": 0, "votes_count": 3, "ships_count": 0, "projects": [{"id": 9481, "title": "booking hotel", "devlogs_count": 0, "created_at": "2025-08-01T11:38:43.737-04:00"}, {"id": 9480, "title": "booking hotel", "devlogs_count": 0, "created_at": "2025-08-01T11:38:43.742-04:00"}], "coding_time_seconds": 223824, "coding_time_seconds_today": 0, "balance": "You need to have a pocket watcher badge to view this.", "badges": [], "created_at": "2025-06-15T22:04:03.171-04:00", "updated_at": "2025-07-03T19:11:19.451-04:00", "avatar": "https://avatars.slack-edge.com/2025-06-24/9081952585223_9ee9aae195a627a8c862_original.png", "custom_css": null}, {"id": 86, "slack_id": "U07F2P4EDBP", "display_name": "Lucas", "bio": null, "projects_count": 2, "devlogs_count": 9, "votes_count": 17, "ships_count": 1, "projects": [{"id": 3031, "title": "Sync-it", "devlogs_count": 4, "created_at": "2025-06-22T20:51:20.534-04:00"}, {"id": 89, "title": "FieldCollector", "devlogs_count": 5, "created_at": "2025-06-16T12:41:58.408-04:00"}], "coding_time_seconds": 79313, "coding_time_seconds_today": 0, "balance": "You need to have a pocket watcher badge to view this.", "badges": [{"name": "Maiden Voyage", "text": "you shipped your first project! the journey begins...", "icon": "\ud83d\udea2"}], "created_at": "2025-06-15T22:08:33.688-04:00", "updated_at": "2025-09-10T22:51:08.450-04:00", "avatar": "https://avatars.slack-edge.com/2025-04-03/8706815136500_dc02689e7a57588e68ad_original.png", "custom_css": null}, {"id": 87, "slack_id": "U06L6GPJYUR", "display_name": "Json C", "bio": null, "projects_count": 3, "devlogs_count": 6, "votes_count": 4, "ships_count": 3, "projects": [{"id": 408, "title": "Anubis", "devlogs_count": 3, "created_at": "2025-06-16T20:28:25.351-04:00"}, {"id": 1895, "title": "Summer Of Code (yes this is real, I worked on it)", "devlogs_count": 2, "created_at": "2025-06-19T14:53:44.041-04:00"}, {"id": 1399, "title": "Nyx ", "devlogs_count": 1, "created_at": "2025-06-18T13:34:30.331-04:00"}], "coding_time_seconds": 104442, "coding_time_seconds_today": 0, "balance": "You need to have a pocket watcher badge to view this.", "badges": [{"name": "Maiden Voyage", "text": "you shipped your first project! the journey begins...", "icon": "\ud83d\udea2"}, {"name": "Yapper I", "text": "Posted 10 comments on devlogs.", "icon": "\ud83d\udcac"}], "created_at": "2025-06-15T22:10:32.933-04:00", "updated_at": "2025-09-10T22:51:08.483-04:00", "avatar": "https://avatars.slack-edge.com/2025-01-04/8245121797125_3403eb54c08c9373c273_original.jpg", "custom_css": null}, {"id": 88, "slack_id": "U07KSFH1GGP", "display_name": "\u180b", "bio": null, "projects_count": 0, "devlogs_count": 0, "votes_count": 0, "ships_count": 0, "projects": [], "coding_time_seconds": 237323, "coding_time_seconds_today": 0, "balance": "You need to have a pocket watcher badge to view this.", "badges": [], "created_at": "2025-06-15T22:12:49.609-04:00", "updated_at": "2025-08-17T12:25:32.502-04:00", "avatar": "https://avatars.slack-edge.com/2025-08-06/9299922436359_e67bc0941d1a82514660_original.png", "custom_css": null}, {"id": 89, "slack_id": "U04KNK837S4", "display_name": "whatware", "bio": null, "projects_count": 1, "devlogs_count": 4, "votes_count": 3, "ships_count": 0, "projects": [{"id": 13540, "title": "PeanutButterGB", "devlogs_count": 4, "created_at": "2025-09-18T23:20:46.126-04:00"}], "coding_time_seconds": 64412, "coding_time_seconds_today": 0, "balance": "You need to have a pocket watcher badge to view this.", "badges": [], "created_at": "2025-06-15T22:13:20.759-04:00", "updated_at": "2025-09-19T00:20:00.859-04:00", "avatar": "https://avatars.slack-edge.com/2025-08-31/9451067359521_de2eb1ac69fe5b65c58b_original.jpg", "custom_css": null}, {"id": 90, "slack_id": "U08EMT46G3V", "display_name": "Ghost of L87", "bio": "Ik ben niet een man. Ik ben een boterham ^w^. NYS Hack Club Leader and sleep deprived..", "projects_count": 6, "devlogs_count": 42, "votes_count": 44, "ships_count": 3, "projects": [{"id": 3585, "title": "Hack Club Badges", "devlogs_count": 8, "created_at": "2025-06-24T20:07:58.242-04:00"}, {"id": 4634, "title": "Vogel", "devlogs_count": 0, "created_at": "2025-06-30T23:34:29.123-04:00"}, {"id": 8949, "title": "Portal", "devlogs_count": 0, "created_at": "2025-07-29T22:28:31.386-04:00"}, {"id": 5054, "title": "The Zoo Main Site", "devlogs_count": 16, "created_at": "2025-07-03T00:33:58.706-04:00"}, {"id": 3588, "title": "Red Panda - The Zoo Demo", "devlogs_count": 17, "created_at": "2025-06-24T20:19:17.945-04:00"}, {"id": 6402, "title": "Make Voting Great (Again)!", "devlogs_count": 1, "created_at": "2025-07-13T03:38:43.696-04:00"}], "coding_time_seconds": 298244, "coding_time_seconds_today": 0, "balance": "You need to have a pocket watcher badge to view this.", "badges": [{"name": "Verified", "text": "this user is verified (i.e. gave us $8)", "icon": "https://summer.hackclub.com/assets/verified-c9457a9f.png"}, {"name": "Maiden Voyage", "text": "you shipped your first project! the journey begins...", "icon": "\ud83d\udea2"}, {"name": "Spider", "text": "this user has a pet!", "icon": "\ud83d\udd77\ufe0f"}, {"name": "Lived Mas", "text": "you know what you did.", "icon": "https://summer.hackclub.com/assets/bong-2a18e50d.png"}], "created_at": "2025-06-15T22:14:50.763-04:00", "updated_at": "2025-09-23T12:00:14.039-04:00", "avatar": "https://avatars.slack-edge.com/2025-09-23/9566580103842_a3cb36e1433f7b787923_original.png", "custom_css": null}, {"id": 91, "slack_id": "U083754J341", "display_name": "son", "bio": null, "projects_count": 3, "devlogs_count": 56, "votes_count": 83, "ships_count": 2, "projects": [{"id": 1244, "title": "MemeStream", "devlogs_count": 5, "created_at": "2025-06-18T01:24:20.112-04:00"}, {"id": 5111, "title": "Newton's Law Of Viscosity", "devlogs_count": 5, "created_at": "2025-07-03T10:22:54.989-04:00"}, {"id": 46, "title": "Walley", "devlogs_count": 46, "created_at": "2025-06-16T09:17:15.444-04:00"}], "coding_time_seconds": 1291179, "coding_time_seconds_today": 18247, "balance": "You need to have a pocket watcher badge to view this.", "badges": [{"name": "Maiden Voyage", "text": "you shipped your first project! the journey begins...", "icon": "\ud83d\udea2"}, {"name": "Ballot Stuffer", "text": "vote 100 times.", "icon": "https://summer.hackclub.com/assets/i_voted-bf851b48.png"}], "created_at": "2025-06-15T22:17:44.099-04:00", "updated_at": "2025-09-10T22:51:08.721-04:00", "avatar": "https://secure.gravatar.com/avatar/ad5dc3517e41b077553850c69e2453c0.jpg?s=512&d=https%3A%2F%2Fa.slack-edge.com%2Fdf10d%2Fimg%2Favatars%2Fava_0023-512.png", "custom_css": null}, {"id": 92, "slack_id": "U06PUN13XHT", "display_name": "alb", "bio": null, "projects_count": 2, "devlogs_count": 35, "votes_count": 40, "ships_count": 2, "projects": [{"id": 8348, "title": "Grindline", "devlogs_count": 34, "created_at": "2025-07-26T11:43:39.110-04:00"}, {"id": 6267, "title": "FocusForge ", "devlogs_count": 1, "created_at": "2025-07-11T20:59:37.344-04:00"}], "coding_time_seconds": 141998, "coding_time_seconds_today": 0, "balance": "You need to have a pocket watcher badge to view this.", "badges": [{"name": "Maiden Voyage", "text": "you shipped your first project! the journey begins...", "icon": "\ud83d\udea2"}], "created_at": "2025-06-15T22:20:01.936-04:00", "updated_at": "2025-09-10T22:51:08.751-04:00", "avatar": "https://avatars.slack-edge.com/2025-06-18/9068284087794_7099a8e81c4d33c3968b_original.png", "custom_css": null}, {"id": 93, "slack_id": "U078GJ63AQ0", "display_name": "uniquepersun", "bio": "", "projects_count": 0, "devlogs_count": 0, "votes_count": 0, "ships_count": 0, "projects": [], "coding_time_seconds": 94877, "coding_time_seconds_today": 0, "balance": "You need to have a pocket watcher badge to view this.", "badges": [], "created_at": "2025-06-15T22:29:50.501-04:00", "updated_at": "2025-07-27T11:11:58.385-04:00", "avatar": "https://avatars.slack-edge.com/2025-07-27/9283318375552_fa1cb6b7d70c610322ff_original.jpg", "custom_css": null}, {"id": 94, "slack_id": "U07BDGCAD6Z", "display_name": "itsnoone", "bio": null, "projects_count": 0, "devlogs_count": 0, "votes_count": 0, "ships_count": 0, "projects": [], "coding_time_seconds": 256776, "coding_time_seconds_today": 14511, "balance": "You need to have a pocket watcher badge to view this.", "badges": [], "created_at": "2025-06-15T22:30:18.544-04:00", "updated_at": "2025-07-03T19:11:22.443-04:00", "avatar": "https://avatars.slack-edge.com/2024-07-12/7409572069157_da01193ddce2f86ac872_original.jpg", "custom_css": null}, {"id": 95, "slack_id": "U08D6MSQW0M", "display_name": "rowyn", "bio": null, "projects_count": 0, "devlogs_count": 0, "votes_count": 0, "ships_count": 0, "projects": [], "coding_time_seconds": 409, "coding_time_seconds_today": 0, "balance": "You need to have a pocket watcher badge to view this.", "badges": [], "created_at": "2025-06-15T22:35:31.410-04:00", "updated_at": "2025-07-03T19:11:22.712-04:00", "avatar": "https://avatars.slack-edge.com/2025-06-04/8983251290263_88907e9966d15ad9ddbd_original.png", "custom_css": null}, {"id": 96, "slack_id": "U03NJ5A39B7", "display_name": "shuchir", "bio": null, "projects_count": 1, "devlogs_count": 3, "votes_count": 0, "ships_count": 1, "projects": [{"id": 8136, "title": "devenv", "devlogs_count": 2, "created_at": "2025-07-24T20:34:17.372-04:00"}], "coding_time_seconds": 48795, "coding_time_seconds_today": 0, "balance": "You need to have a pocket watcher badge to view this.", "badges": [{"name": "Maiden Voyage", "text": "you shipped your first project! the journey begins...", "icon": "\ud83d\udea2"}], "created_at": "2025-06-15T22:36:54.197-04:00", "updated_at": "2025-09-10T22:51:08.864-04:00", "avatar": "https://avatars.slack-edge.com/2024-07-27/7482146300374_769fb33a7a8564269286_original.jpg", "custom_css": null}, {"id": 97, "slack_id": "U079GD7PG4R", "display_name": "Arush Y", "bio": null, "projects_count": 0, "devlogs_count": 0, "votes_count": 0, "ships_count": 0, "projects": [], "coding_time_seconds": 390510, "coding_time_seconds_today": 0, "balance": "You need to have a pocket watcher badge to view this.", "badges": [], "created_at": "2025-06-15T22:38:46.948-04:00", "updated_at": "2025-07-03T19:11:23.260-04:00", "avatar": "https://avatars.slack-edge.com/2024-06-20/7312284733748_867b3aa5f86a4c8c9bac_original.jpg", "custom_css": null}, {"id": 98, "slack_id": "U0325L71XQR", "display_name": "Scott", "bio": null, "projects_count": 0, "devlogs_count": 0, "votes_count": 0, "ships_count": 0, "projects": [], "coding_time_seconds": 0, "coding_time_seconds_today": 0, "balance": "You need to have a pocket watcher badge to view this.", "badges": [], "created_at": "2025-06-15T22:41:07.001-04:00", "updated_at": "2025-07-03T19:11:23.527-04:00", "avatar": "https://avatars.slack-edge.com/2024-05-21/7176235593456_1abe552f212a4c005f2e_original.png", "custom_css": null}, {"id": 99, "slack_id": "U063QV6B8LD", "display_name": "bright li", "bio": null, "projects_count": 1, "devlogs_count": 0, "votes_count": 0, "ships_count": 0, "projects": [{"id": 1198, "title": "Tab Lock", "devlogs_count": 0, "created_at": "2025-06-17T22:04:54.016-04:00"}], "coding_time_seconds": 153020, "coding_time_seconds_today": 0, "balance": "You need to have a pocket watcher badge to view this.", "badges": [], "created_at": "2025-06-15T22:41:15.602-04:00", "updated_at": "2025-07-03T19:11:23.800-04:00", "avatar": "https://avatars.slack-edge.com/2025-06-27/9111607922709_c5acabda362a56387d52_original.png", "custom_css": null}, {"id": 100, "slack_id": "U078XLAFNMQ", "display_name": "Arnav (back monday)", "bio": null, "projects_count": 5, "devlogs_count": 5, "votes_count": 36, "ships_count": 1, "projects": [{"id": 3475, "title": "Reunited - Find what you've lost", "devlogs_count": 4, "created_at": "2025-06-24T11:50:02.262-04:00"}, {"id": 4443, "title": "Study Buddy", "devlogs_count": 0, "created_at": "2025-06-29T23:01:21.488-04:00"}, {"id": 6654, "title": "Solvr", "devlogs_count": 0, "created_at": "2025-07-14T22:16:14.504-04:00"}, {"id": 6655, "title": "Rizzlingo", "devlogs_count": 0, "created_at": "2025-07-14T22:17:19.275-04:00"}, {"id": 39, "title": "Plateful", "devlogs_count": 1, "created_at": "2025-06-16T06:59:42.586-04:00"}], "coding_time_seconds": 69100, "coding_time_seconds_today": 0, "balance": "You need to have a pocket watcher badge to view this.", "badges": [{"name": "<%= admin_tool do %>", "text": "with great power comes great responsibility... and a ban hammer.", "icon": "\ud83d\udd28"}, {"name": "Maiden Voyage", "text": "you shipped your first project! the journey begins...", "icon": "\ud83d\udea2"}], "created_at": "2025-06-15T22:46:02.393-04:00", "updated_at": "2025-09-15T11:56:57.403-04:00", "avatar": "https://avatars.slack-edge.com/2025-08-24/9399189706197_62a213477b1f1d24fcf3_original.png", "custom_css": null}], "pagination": {"page": 5, "pages": 1192, "count": 23827, "items": 20}}