{"users": [{"id": 9981, "slack_id": "U0922EWPN91", "display_name": "David Hernandez", "bio": null, "projects_count": 0, "devlogs_count": 0, "votes_count": 0, "ships_count": 0, "projects": [], "coding_time_seconds": 42292, "coding_time_seconds_today": 0, "balance": "You need to have a pocket watcher badge to view this.", "badges": [], "created_at": "2025-06-19T17:49:10.362-04:00", "updated_at": "2025-07-03T19:54:08.420-04:00", "avatar": "https://secure.gravatar.com/avatar/7fa2e7200079b4c8d2149d3af84cc48c.jpg?s=512&d=https%3A%2F%2Fa.slack-edge.com%2Fdf10d%2Fimg%2Favatars%2Fava_0004-512.png", "custom_css": null}, {"id": 9982, "slack_id": "U0927SXP085", "display_name": "aadasf", "bio": null, "projects_count": 0, "devlogs_count": 0, "votes_count": 0, "ships_count": 0, "projects": [], "coding_time_seconds": 0, "coding_time_seconds_today": 0, "balance": "You need to have a pocket watcher badge to view this.", "badges": [], "created_at": "2025-06-19T17:51:47.304-04:00", "updated_at": "2025-07-03T21:48:22.143-04:00", "avatar": "https://secure.gravatar.com/avatar/01137b9d036c9b80e01db19b2223c601.jpg?s=512&d=https%3A%2F%2Fa.slack-edge.com%2Fdf10d%2Fimg%2Favatars%2Fava_0006-512.png", "custom_css": null}, {"id": 9983, "slack_id": "U0928QXBN1Y", "display_name": "Dominik B\u00fcttgenbach", "bio": null, "projects_count": 0, "devlogs_count": 0, "votes_count": 0, "ships_count": 0, "projects": [], "coding_time_seconds": 21221, "coding_time_seconds_today": 0, "balance": "You need to have a pocket watcher badge to view this.", "badges": [], "created_at": "2025-06-19T17:54:45.935-04:00", "updated_at": "2025-07-03T19:54:08.875-04:00", "avatar": "https://secure.gravatar.com/avatar/3d7aacec626f0e11d156d152fa76d952.jpg?s=512&d=https%3A%2F%2Fa.slack-edge.com%2Fdf10d%2Fimg%2Favatars%2Fava_0003-512.png", "custom_css": null}, {"id": 9984, "slack_id": "U091WE5R1K8", "display_name": "David Weng", "bio": null, "projects_count": 0, "devlogs_count": 0, "votes_count": 0, "ships_count": 0, "projects": [], "coding_time_seconds": 0, "coding_time_seconds_today": 0, "balance": "You need to have a pocket watcher badge to view this.", "badges": [], "created_at": "2025-06-19T17:54:45.998-04:00", "updated_at": "2025-07-03T19:54:09.142-04:00", "avatar": "https://avatars.slack-edge.com/2025-06-19/9077349731268_6d7983c6a0851b7acc39_original.png", "custom_css": null}, {"id": 9985, "slack_id": "U083QCWEJ3H", "display_name": "101zh", "bio": null, "projects_count": 1, "devlogs_count": 11, "votes_count": 0, "ships_count": 0, "projects": [{"id": 4648, "title": "Falling Through Space", "devlogs_count": 11, "created_at": "2025-07-01T00:52:36.057-04:00"}], "coding_time_seconds": 107621, "coding_time_seconds_today": 0, "balance": "You need to have a pocket watcher badge to view this.", "badges": [], "created_at": "2025-06-19T18:01:44.778-04:00", "updated_at": "2025-08-21T17:04:16.217-04:00", "avatar": "https://avatars.slack-edge.com/2025-07-01/9128353002435_cdd178ceca8fc3f2a8be_original.png", "custom_css": null}, {"id": 9986, "slack_id": "U0928RYUT1Q", "display_name": "ABDUL NAYEEMUDDIN RASHED 160420735109", "bio": null, "projects_count": 0, "devlogs_count": 0, "votes_count": 0, "ships_count": 0, "projects": [], "coding_time_seconds": 0, "coding_time_seconds_today": 0, "balance": "You need to have a pocket watcher badge to view this.", "badges": [], "created_at": "2025-06-19T18:01:53.165-04:00", "updated_at": "2025-07-04T20:10:39.054-04:00", "avatar": "https://avatars.slack-edge.com/2025-06-19/9070959668966_fd000db79e554aff3b81_original.png", "custom_css": null}, {"id": 9987, "slack_id": "U091U8JP3V5", "display_name": "Alex Kaiser", "bio": null, "projects_count": 0, "devlogs_count": 0, "votes_count": 0, "ships_count": 0, "projects": [], "coding_time_seconds": 0, "coding_time_seconds_today": 0, "balance": "You need to have a pocket watcher badge to view this.", "badges": [], "created_at": "2025-06-19T18:02:19.736-04:00", "updated_at": "2025-07-03T19:54:09.817-04:00", "avatar": "https://avatars.slack-edge.com/2025-06-19/9070551757859_334f227af04facfb90d6_original.png", "custom_css": null}, {"id": 9988, "slack_id": "U091J0PEQQN", "display_name": "James", "bio": null, "projects_count": 0, "devlogs_count": 0, "votes_count": 0, "ships_count": 0, "projects": [], "coding_time_seconds": 0, "coding_time_seconds_today": 0, "balance": "You need to have a pocket watcher badge to view this.", "badges": [], "created_at": "2025-06-19T18:06:31.927-04:00", "updated_at": "2025-07-03T19:54:10.073-04:00", "avatar": "https://secure.gravatar.com/avatar/a6f7c16299525b4fe1d6f086228f6228.jpg?s=512&d=https%3A%2F%2Fa.slack-edge.com%2Fdf10d%2Fimg%2Favatars%2Fava_0015-512.png", "custom_css": null}, {"id": 9989, "slack_id": "U092MRR2P0R", "display_name": "Ghaleb Sarsour", "bio": null, "projects_count": 2, "devlogs_count": 10, "votes_count": 20, "ships_count": 1, "projects": [{"id": 4256, "title": "NixOS Server Configuration", "devlogs_count": 6, "created_at": "2025-06-28T13:36:58.891-04:00"}, {"id": 1970, "title": "Personal Website Portfolio", "devlogs_count": 4, "created_at": "2025-06-19T18:53:14.467-04:00"}], "coding_time_seconds": 112827, "coding_time_seconds_today": 0, "balance": "You need to have a pocket watcher badge to view this.", "badges": [{"name": "Maiden Voyage", "text": "you shipped your first project! the journey begins...", "icon": "\ud83d\udea2"}], "created_at": "2025-06-19T18:13:29.860-04:00", "updated_at": "2025-09-10T22:56:09.313-04:00", "avatar": "https://secure.gravatar.com/avatar/9840be80ba00882e526943ffca5f06cb.jpg?s=512&d=https%3A%2F%2Fa.slack-edge.com%2Fdf10d%2Fimg%2Favatars%2Fava_0008-512.png", "custom_css": null}, {"id": 9990, "slack_id": "U081WSBU9CN", "display_name": "andrew", "bio": null, "projects_count": 0, "devlogs_count": 0, "votes_count": 0, "ships_count": 0, "projects": [], "coding_time_seconds": 0, "coding_time_seconds_today": 0, "balance": "You need to have a pocket watcher badge to view this.", "badges": [], "created_at": "2025-06-19T18:31:52.064-04:00", "updated_at": "2025-07-03T19:54:10.475-04:00", "avatar": "https://secure.gravatar.com/avatar/f547c075c34cdb02ed8c08fb0f807b21.jpg?s=512&d=https%3A%2F%2Fa.slack-edge.com%2Fdf10d%2Fimg%2Favatars%2Fava_0014-512.png", "custom_css": null}, {"id": 9991, "slack_id": "U07A77KBY1W", "display_name": "pmvrsi", "bio": null, "projects_count": 0, "devlogs_count": 0, "votes_count": 0, "ships_count": 0, "projects": [], "coding_time_seconds": 9269, "coding_time_seconds_today": 0, "balance": "You need to have a pocket watcher badge to view this.", "badges": [], "created_at": "2025-06-19T18:32:09.371-04:00", "updated_at": "2025-08-26T14:51:07.380-04:00", "avatar": "https://avatars.slack-edge.com/2025-08-26/9440508325936_d7b7065af0030ccaf90e_original.jpg", "custom_css": null}, {"id": 9992, "slack_id": "U08786HRBFT", "display_name": "Hala ELAMORY", "bio": null, "projects_count": 0, "devlogs_count": 0, "votes_count": 0, "ships_count": 0, "projects": [], "coding_time_seconds": 0, "coding_time_seconds_today": 0, "balance": "You need to have a pocket watcher badge to view this.", "badges": [], "created_at": "2025-06-19T18:33:03.750-04:00", "updated_at": "2025-07-06T20:11:32.303-04:00", "avatar": "https://secure.gravatar.com/avatar/b294c5efefbfea5cb9f957b2851be11d.jpg?s=512&d=https%3A%2F%2Fa.slack-edge.com%2Fdf10d%2Fimg%2Favatars%2Fava_0021-512.png", "custom_css": null}, {"id": 9993, "slack_id": "U079PFZ0PFH", "display_name": "George Kosmas", "bio": null, "projects_count": 1, "devlogs_count": 2, "votes_count": 0, "ships_count": 0, "projects": [{"id": 5285, "title": "SolarPanel Controler", "devlogs_count": 2, "created_at": "2025-07-04T07:52:57.245-04:00"}], "coding_time_seconds": 8788, "coding_time_seconds_today": 0, "balance": "You need to have a pocket watcher badge to view this.", "badges": [], "created_at": "2025-06-19T18:33:55.590-04:00", "updated_at": "2025-07-03T18:51:24.518-04:00", "avatar": "https://secure.gravatar.com/avatar/fed1911530a8da8d88f1ae192922c75e.jpg?s=512&d=https%3A%2F%2Fa.slack-edge.com%2Fdf10d%2Fimg%2Favatars%2Fava_0010-512.png", "custom_css": null}, {"id": 9994, "slack_id": "U092XGF822U", "display_name": "Michael", "bio": null, "projects_count": 0, "devlogs_count": 0, "votes_count": 0, "ships_count": 0, "projects": [], "coding_time_seconds": 0, "coding_time_seconds_today": 0, "balance": "You need to have a pocket watcher badge to view this.", "badges": [], "created_at": "2025-06-19T18:43:36.489-04:00", "updated_at": "2025-07-03T19:54:11.294-04:00", "avatar": "https://secure.gravatar.com/avatar/e2308d4f3fa13d0415c40adffc01257b.jpg?s=512&d=https%3A%2F%2Fa.slack-edge.com%2Fdf10d%2Fimg%2Favatars%2Fava_0019-512.png", "custom_css": null}, {"id": 9995, "slack_id": "U09281P9V2R", "display_name": "Christian", "bio": null, "projects_count": 0, "devlogs_count": 0, "votes_count": 0, "ships_count": 0, "projects": [], "coding_time_seconds": 0, "coding_time_seconds_today": 0, "balance": "You need to have a pocket watcher badge to view this.", "badges": [], "created_at": "2025-06-19T18:48:07.547-04:00", "updated_at": "2025-07-03T19:54:11.559-04:00", "avatar": "https://secure.gravatar.com/avatar/e953b976792a0b5c5d506f1d67313140.jpg?s=512&d=https%3A%2F%2Fa.slack-edge.com%2Fdf10d%2Fimg%2Favatars%2Fava_0023-512.png", "custom_css": null}, {"id": 9996, "slack_id": "U09281DMZQD", "display_name": "TrinCotter59", "bio": null, "projects_count": 0, "devlogs_count": 0, "votes_count": 0, "ships_count": 0, "projects": [], "coding_time_seconds": 0, "coding_time_seconds_today": 0, "balance": "You need to have a pocket watcher badge to view this.", "badges": [], "created_at": "2025-06-19T18:48:11.877-04:00", "updated_at": "2025-07-03T19:54:11.815-04:00", "avatar": "https://secure.gravatar.com/avatar/827c977797eb83307556267ad51e56aa.jpg?s=512&d=https%3A%2F%2Fa.slack-edge.com%2Fdf10d%2Fimg%2Favatars%2Fava_0010-512.png", "custom_css": null}, {"id": 9997, "slack_id": "U06L1N1A5T9", "display_name": "mustafa", "bio": null, "projects_count": 2, "devlogs_count": 3, "votes_count": 15, "ships_count": 1, "projects": [{"id": 12164, "title": "Agent Z", "devlogs_count": 1, "created_at": "2025-08-23T21:51:24.999-04:00"}, {"id": 10196, "title": "QuickToolsHQ", "devlogs_count": 2, "created_at": "2025-08-04T20:59:05.577-04:00"}], "coding_time_seconds": 67650, "coding_time_seconds_today": 0, "balance": "You need to have a pocket watcher badge to view this.", "badges": [{"name": "Maiden Voyage", "text": "you shipped your first project! the journey begins...", "icon": "\ud83d\udea2"}], "created_at": "2025-06-19T18:48:56.913-04:00", "updated_at": "2025-09-10T22:56:09.526-04:00", "avatar": "https://avatars.slack-edge.com/2024-09-09/7694205194885_936a766e2869f4e25dfb_original.png", "custom_css": null}, {"id": 9998, "slack_id": "U09231KREUE", "display_name": "Fatema", "bio": null, "projects_count": 1, "devlogs_count": 2, "votes_count": 0, "ships_count": 0, "projects": [{"id": 3986, "title": "Quiz", "devlogs_count": 2, "created_at": "2025-06-26T17:25:42.533-04:00"}], "coding_time_seconds": 9249, "coding_time_seconds_today": 0, "balance": "You need to have a pocket watcher badge to view this.", "badges": [], "created_at": "2025-06-19T18:49:47.961-04:00", "updated_at": "2025-07-03T19:54:12.399-04:00", "avatar": "https://secure.gravatar.com/avatar/fe12a7f2f4aec957ba03577f5afc1bf7.jpg?s=512&d=https%3A%2F%2Fa.slack-edge.com%2Fdf10d%2Fimg%2Favatars%2Fava_0021-512.png", "custom_css": null}, {"id": 9999, "slack_id": "U092XH2FRG8", "display_name": "chen", "bio": null, "projects_count": 2, "devlogs_count": 5, "votes_count": 9, "ships_count": 2, "projects": [{"id": 3133, "title": "[WH] Working Healthily \u5de5\u4f4d\u5929\u4f7f", "devlogs_count": 3, "created_at": "2025-06-23T07:35:42.348-04:00"}, {"id": 3899, "title": "Just Thanks Exchange", "devlogs_count": 2, "created_at": "2025-06-26T07:33:43.387-04:00"}], "coding_time_seconds": 216536, "coding_time_seconds_today": 4942, "balance": "You need to have a pocket watcher badge to view this.", "badges": [{"name": "Maiden Voyage", "text": "you shipped your first project! the journey begins...", "icon": "\ud83d\udea2"}], "created_at": "2025-06-19T18:52:04.253-04:00", "updated_at": "2025-09-10T22:56:09.595-04:00", "avatar": "https://secure.gravatar.com/avatar/b5f7a88ab5127e59d0ca83d208b7ce64.jpg?s=512&d=https%3A%2F%2Fa.slack-edge.com%2Fdf10d%2Fimg%2Favatars%2Fava_0007-512.png", "custom_css": null}, {"id": 10000, "slack_id": "U092MUCDYTT", "display_name": "Eniola Irinoye", "bio": null, "projects_count": 0, "devlogs_count": 0, "votes_count": 0, "ships_count": 0, "projects": [], "coding_time_seconds": 0, "coding_time_seconds_today": 0, "balance": "You need to have a pocket watcher badge to view this.", "badges": [], "created_at": "2025-06-19T18:52:59.088-04:00", "updated_at": "2025-07-03T19:54:12.928-04:00", "avatar": "https://avatars.slack-edge.com/2025-06-19/9077480185716_1a49418f763fc0269b70_original.png", "custom_css": null}], "pagination": {"page": 500, "pages": 1192, "count": 23828, "items": 20}}