{"users": [{"id": 10001, "slack_id": "U0929E067NY", "display_name": "Faxo", "bio": null, "projects_count": 0, "devlogs_count": 0, "votes_count": 0, "ships_count": 0, "projects": [], "coding_time_seconds": 0, "coding_time_seconds_today": 0, "balance": "You need to have a pocket watcher badge to view this.", "badges": [], "created_at": "2025-06-19T18:56:09.131-04:00", "updated_at": "2025-07-03T19:54:13.514-04:00", "avatar": "https://secure.gravatar.com/avatar/d5285238bf55be6cf40b7a4e2b264c43.jpg?s=512&d=https%3A%2F%2Fa.slack-edge.com%2Fdf10d%2Fimg%2Favatars%2Fava_0019-512.png", "custom_css": null}, {"id": 10002, "slack_id": "U09282JK85B", "display_name": "Kaan", "bio": null, "projects_count": 0, "devlogs_count": 0, "votes_count": 0, "ships_count": 0, "projects": [], "coding_time_seconds": 0, "coding_time_seconds_today": 0, "balance": "You need to have a pocket watcher badge to view this.", "badges": [], "created_at": "2025-06-19T18:58:49.932-04:00", "updated_at": "2025-07-03T19:54:13.778-04:00", "avatar": "https://secure.gravatar.com/avatar/2d25062df7cbceeab536c2537bc59ce1.jpg?s=512&d=https%3A%2F%2Fa.slack-edge.com%2Fdf10d%2Fimg%2Favatars%2Fava_0025-512.png", "custom_css": null}, {"id": 10003, "slack_id": "U07F36NGL21", "display_name": "BlueFalconHD", "bio": null, "projects_count": 2, "devlogs_count": 3, "votes_count": 18, "ships_count": 1, "projects": [{"id": 4295, "title": "apple_generative_model_safety_decrypted", "devlogs_count": 1, "created_at": "2025-06-28T18:21:26.822-04:00"}, {"id": 6380, "title": "kinspect", "devlogs_count": 2, "created_at": "2025-07-12T22:37:56.735-04:00"}], "coding_time_seconds": 585065, "coding_time_seconds_today": 0, "balance": "You need to have a pocket watcher badge to view this.", "badges": [{"name": "Maiden Voyage", "text": "you shipped your first project! the journey begins...", "icon": "\ud83d\udea2"}], "created_at": "2025-06-19T18:59:20.394-04:00", "updated_at": "2025-09-10T22:56:09.713-04:00", "avatar": "https://secure.gravatar.com/avatar/a65aa2b621670f0b3d91749cfa18a8af.jpg?s=512&d=https%3A%2F%2Fa.slack-edge.com%2Fdf10d%2Fimg%2Favatars%2Fava_0012-512.png", "custom_css": null}, {"id": 10004, "slack_id": "U092XHC7W5N", "display_name": "George Orange", "bio": null, "projects_count": 0, "devlogs_count": 0, "votes_count": 7, "ships_count": 0, "projects": [], "coding_time_seconds": 1781, "coding_time_seconds_today": 0, "balance": "You need to have a pocket watcher badge to view this.", "badges": [], "created_at": "2025-06-19T19:04:14.360-04:00", "updated_at": "2025-07-03T19:54:14.312-04:00", "avatar": "https://secure.gravatar.com/avatar/8cb6deef456eecf864dc28faa1935535.jpg?s=512&d=https%3A%2F%2Fa.slack-edge.com%2Fdf10d%2Fimg%2Favatars%2Fava_0001-512.png", "custom_css": null}, {"id": 10005, "slack_id": "U0928K9CJGJ", "display_name": "Ayomide Olajide", "bio": null, "projects_count": 0, "devlogs_count": 0, "votes_count": 0, "ships_count": 0, "projects": [], "coding_time_seconds": 51491, "coding_time_seconds_today": 0, "balance": "You need to have a pocket watcher badge to view this.", "badges": [], "created_at": "2025-06-19T19:06:48.348-04:00", "updated_at": "2025-07-03T19:54:14.592-04:00", "avatar": "https://avatars.slack-edge.com/2025-06-19/9090009995473_1dd247731e55305389eb_original.png", "custom_css": null}, {"id": 10006, "slack_id": "U092N0983A5", "display_name": "James", "bio": null, "projects_count": 0, "devlogs_count": 0, "votes_count": 0, "ships_count": 0, "projects": [], "coding_time_seconds": 2188, "coding_time_seconds_today": 0, "balance": "You need to have a pocket watcher badge to view this.", "badges": [], "created_at": "2025-06-19T19:11:33.597-04:00", "updated_at": "2025-07-03T19:54:14.887-04:00", "avatar": "https://secure.gravatar.com/avatar/12a4ba940b98045b7dc4a3e343df2426.jpg?s=512&d=https%3A%2F%2Fa.slack-edge.com%2Fdf10d%2Fimg%2Favatars%2Fava_0026-512.png", "custom_css": null}, {"id": 10007, "slack_id": "U091ZMN7R9S", "display_name": "Drishti Sharma", "bio": null, "projects_count": 0, "devlogs_count": 0, "votes_count": 0, "ships_count": 0, "projects": [], "coding_time_seconds": 9610, "coding_time_seconds_today": 0, "balance": "You need to have a pocket watcher badge to view this.", "badges": [], "created_at": "2025-06-19T19:16:19.900-04:00", "updated_at": "2025-07-03T19:54:15.147-04:00", "avatar": "https://avatars.slack-edge.com/2025-06-19/9070709345251_490c4b08dc8c498bbb91_original.png", "custom_css": null}, {"id": 10008, "slack_id": "U0920E09570", "display_name": "Matan", "bio": null, "projects_count": 0, "devlogs_count": 0, "votes_count": 0, "ships_count": 0, "projects": [], "coding_time_seconds": 0, "coding_time_seconds_today": 0, "balance": "You need to have a pocket watcher badge to view this.", "badges": [], "created_at": "2025-06-19T19:18:27.490-04:00", "updated_at": "2025-07-03T19:54:15.418-04:00", "avatar": "https://secure.gravatar.com/avatar/5e3b154e52202f2829416b5dcd1794a9.jpg?s=512&d=https%3A%2F%2Fa.slack-edge.com%2Fdf10d%2Fimg%2Favatars%2Fava_0009-512.png", "custom_css": null}, {"id": 10009, "slack_id": "U092841065B", "display_name": "James Stimson", "bio": null, "projects_count": 0, "devlogs_count": 0, "votes_count": 0, "ships_count": 0, "projects": [], "coding_time_seconds": 0, "coding_time_seconds_today": 0, "balance": "You need to have a pocket watcher badge to view this.", "badges": [], "created_at": "2025-06-19T19:21:20.062-04:00", "updated_at": "2025-07-03T19:54:15.696-04:00", "avatar": "https://avatars.slack-edge.com/2025-06-19/9071133411590_021513b02b83dbc72352_original.png", "custom_css": null}, {"id": 10010, "slack_id": "U092M1H2E3B", "display_name": "Tilek 911", "bio": null, "projects_count": 0, "devlogs_count": 0, "votes_count": 0, "ships_count": 0, "projects": [], "coding_time_seconds": 0, "coding_time_seconds_today": 0, "balance": "You need to have a pocket watcher badge to view this.", "badges": [], "created_at": "2025-06-19T19:21:34.064-04:00", "updated_at": "2025-07-03T19:54:15.968-04:00", "avatar": "https://secure.gravatar.com/avatar/8662c34dfd13c9126986fdf19222906c.jpg?s=512&d=https%3A%2F%2Fa.slack-edge.com%2Fdf10d%2Fimg%2Favatars%2Fava_0006-512.png", "custom_css": null}, {"id": 10011, "slack_id": "U0929FQHXM2", "display_name": "SHRAVYA PAMU (RA2111026010078)", "bio": null, "projects_count": 0, "devlogs_count": 0, "votes_count": 0, "ships_count": 0, "projects": [], "coding_time_seconds": 0, "coding_time_seconds_today": 0, "balance": "You need to have a pocket watcher badge to view this.", "badges": [], "created_at": "2025-06-19T19:22:01.288-04:00", "updated_at": "2025-07-06T08:10:48.742-04:00", "avatar": "https://avatars.slack-edge.com/2025-06-19/9077082626066_aff1ccd0e936c719af1b_original.png", "custom_css": null}, {"id": 10012, "slack_id": "U092N1186C9", "display_name": "Imoleayo", "bio": null, "projects_count": 1, "devlogs_count": 0, "votes_count": 0, "ships_count": 0, "projects": [{"id": 3226, "title": "Booksy", "devlogs_count": 0, "created_at": "2025-06-23T13:58:27.203-04:00"}], "coding_time_seconds": 9794, "coding_time_seconds_today": 0, "balance": "You need to have a pocket watcher badge to view this.", "badges": [], "created_at": "2025-06-19T19:22:40.539-04:00", "updated_at": "2025-09-02T19:17:25.931-04:00", "avatar": "https://secure.gravatar.com/avatar/6af6e4efecffc41e8a9fa4c72a75a6fd.jpg?s=512&d=https%3A%2F%2Fa.slack-edge.com%2Fdf10d%2Fimg%2Favatars%2Fava_0020-512.png", "custom_css": null}, {"id": 10013, "slack_id": "U0929D9HAAG", "display_name": "Micle", "bio": null, "projects_count": 0, "devlogs_count": 0, "votes_count": 0, "ships_count": 0, "projects": [], "coding_time_seconds": 10199, "coding_time_seconds_today": 0, "balance": "You need to have a pocket watcher badge to view this.", "badges": [], "created_at": "2025-06-19T19:23:13.207-04:00", "updated_at": "2025-07-03T19:54:16.553-04:00", "avatar": "https://secure.gravatar.com/avatar/3601c80050b82160f12f0cc8716aa85f.jpg?s=512&d=https%3A%2F%2Fa.slack-edge.com%2Fdf10d%2Fimg%2Favatars%2Fava_0026-512.png", "custom_css": null}, {"id": 10014, "slack_id": "U09292P39BL", "display_name": "Russ Henderson", "bio": null, "projects_count": 0, "devlogs_count": 0, "votes_count": 0, "ships_count": 0, "projects": [], "coding_time_seconds": 0, "coding_time_seconds_today": 0, "balance": "You need to have a pocket watcher badge to view this.", "badges": [], "created_at": "2025-06-19T19:41:26.964-04:00", "updated_at": "2025-07-04T02:29:45.831-04:00", "avatar": "https://secure.gravatar.com/avatar/12a5ccd184a4135d5841a517f748caae.jpg?s=512&d=https%3A%2F%2Fa.slack-edge.com%2Fdf10d%2Fimg%2Favatars%2Fava_0019-512.png", "custom_css": null}, {"id": 10015, "slack_id": "U0929H70E2Y", "display_name": "Ella", "bio": null, "projects_count": 0, "devlogs_count": 0, "votes_count": 0, "ships_count": 0, "projects": [], "coding_time_seconds": 0, "coding_time_seconds_today": 0, "balance": "You need to have a pocket watcher badge to view this.", "badges": [], "created_at": "2025-06-19T19:43:15.248-04:00", "updated_at": "2025-07-05T08:11:35.415-04:00", "avatar": "https://secure.gravatar.com/avatar/a851b7c60599d212ee1b24d53b06a02b.jpg?s=512&d=https%3A%2F%2Fa.slack-edge.com%2Fdf10d%2Fimg%2Favatars%2Fava_0006-512.png", "custom_css": null}, {"id": 10016, "slack_id": "U092351DV7Y", "display_name": "papo_1011", "bio": null, "projects_count": 0, "devlogs_count": 0, "votes_count": 0, "ships_count": 0, "projects": [], "coding_time_seconds": 15244, "coding_time_seconds_today": 0, "balance": "You need to have a pocket watcher badge to view this.", "badges": [], "created_at": "2025-06-19T19:43:42.748-04:00", "updated_at": "2025-07-03T19:54:17.116-04:00", "avatar": "https://secure.gravatar.com/avatar/9805e1d2a390a519cecb10af747adf67.jpg?s=512&d=https%3A%2F%2Fa.slack-edge.com%2Fdf10d%2Fimg%2Favatars%2Fava_0012-512.png", "custom_css": null}, {"id": 10017, "slack_id": "U092355NF70", "display_name": "Andrew Verbovsky", "bio": null, "projects_count": 0, "devlogs_count": 0, "votes_count": 0, "ships_count": 0, "projects": [], "coding_time_seconds": 0, "coding_time_seconds_today": 0, "balance": "You need to have a pocket watcher badge to view this.", "badges": [], "created_at": "2025-06-19T19:46:02.458-04:00", "updated_at": "2025-07-03T21:48:24.656-04:00", "avatar": "https://secure.gravatar.com/avatar/724f4a13ec6437ef9557b29e736c9bef.jpg?s=512&d=https%3A%2F%2Fa.slack-edge.com%2Fdf10d%2Fimg%2Favatars%2Fava_0002-512.png", "custom_css": null}, {"id": 10018, "slack_id": "U0923565R0W", "display_name": "Chirag", "bio": null, "projects_count": 2, "devlogs_count": 4, "votes_count": 0, "ships_count": 0, "projects": [{"id": 2028, "title": "My first project- hackpad", "devlogs_count": 3, "created_at": "2025-06-19T23:27:32.203-04:00"}, {"id": 3784, "title": "hackpad case", "devlogs_count": 1, "created_at": "2025-06-25T18:18:28.177-04:00"}], "coding_time_seconds": 17202, "coding_time_seconds_today": 0, "balance": "You need to have a pocket watcher badge to view this.", "badges": [], "created_at": "2025-06-19T19:47:05.136-04:00", "updated_at": "2025-07-03T19:54:17.520-04:00", "avatar": "https://avatars.slack-edge.com/2025-06-19/9063182841271_9d5b4a5556f021368d7e_original.png", "custom_css": null}, {"id": 10019, "slack_id": "U09286BD46R", "display_name": "Till", "bio": null, "projects_count": 6, "devlogs_count": 8, "votes_count": 0, "ships_count": 0, "projects": [{"id": 2453, "title": "AppStore Connect API Client", "devlogs_count": 1, "created_at": "2025-06-21T04:10:58.908-04:00"}, {"id": 2462, "title": "stoobit trips", "devlogs_count": 2, "created_at": "2025-06-21T04:38:46.044-04:00"}, {"id": 2469, "title": "stoobit analytics", "devlogs_count": 2, "created_at": "2025-06-21T04:49:33.731-04:00"}, {"id": 3104, "title": "Gravitron", "devlogs_count": 1, "created_at": "2025-06-23T05:32:38.490-04:00"}, {"id": 3105, "title": "stoobit analytics swift client", "devlogs_count": 1, "created_at": "2025-06-23T05:34:52.458-04:00"}, {"id": 2929, "title": "Notfall", "devlogs_count": 1, "created_at": "2025-06-22T13:37:02.487-04:00"}], "coding_time_seconds": 148197, "coding_time_seconds_today": 0, "balance": "You need to have a pocket watcher badge to view this.", "badges": [], "created_at": "2025-06-19T19:51:02.856-04:00", "updated_at": "2025-07-03T21:48:24.818-04:00", "avatar": "https://secure.gravatar.com/avatar/426f845accd91605441aaf662e3386a0.jpg?s=512&d=https%3A%2F%2Fa.slack-edge.com%2Fdf10d%2Fimg%2Favatars%2Fava_0000-512.png", "custom_css": null}, {"id": 10020, "slack_id": "U091UGEE8SK", "display_name": "Delean Mafra", "bio": null, "projects_count": 1, "devlogs_count": 0, "votes_count": 0, "ships_count": 0, "projects": [{"id": 2047, "title": "PEX 2", "devlogs_count": 0, "created_at": "2025-06-20T01:57:40.516-04:00"}], "coding_time_seconds": 344004, "coding_time_seconds_today": 0, "balance": "You need to have a pocket watcher badge to view this.", "badges": [], "created_at": "2025-06-19T19:55:28.893-04:00", "updated_at": "2025-07-03T22:00:28.208-04:00", "avatar": "https://avatars.slack-edge.com/2025-06-19/9090114984385_4fcdfb44e9b7cb993008_original.png", "custom_css": null}], "pagination": {"page": 501, "pages": 1192, "count": 23828, "items": 20}}