{"users": [{"id": 10021, "slack_id": "U092XMF1J1W", "display_name": "Brian Nolan", "bio": null, "projects_count": 0, "devlogs_count": 0, "votes_count": 0, "ships_count": 0, "projects": [], "coding_time_seconds": 0, "coding_time_seconds_today": 0, "balance": "You need to have a pocket watcher badge to view this.", "badges": [], "created_at": "2025-06-19T19:56:55.088-04:00", "updated_at": "2025-07-03T19:54:18.063-04:00", "avatar": "https://avatars.slack-edge.com/2025-06-19/9071208777814_aab40240908cc93b4a73_original.jpg", "custom_css": null}, {"id": 10022, "slack_id": "U092M62L9HP", "display_name": "Ratul Anjum", "bio": null, "projects_count": 1, "devlogs_count": 2, "votes_count": 2, "ships_count": 0, "projects": [{"id": 2171, "title": "Java Learning", "devlogs_count": 2, "created_at": "2025-06-20T11:03:28.758-04:00"}], "coding_time_seconds": 57495, "coding_time_seconds_today": 0, "balance": "You need to have a pocket watcher badge to view this.", "badges": [], "created_at": "2025-06-19T20:01:11.906-04:00", "updated_at": "2025-07-03T19:54:18.352-04:00", "avatar": "https://avatars.slack-edge.com/2025-06-19/9090132315841_5be9fb4a756c78c8c168_original.png", "custom_css": null}, {"id": 10023, "slack_id": "U09294ZAATC", "display_name": "ToxicStarfall", "bio": null, "projects_count": 5, "devlogs_count": 37, "votes_count": 42, "ships_count": 2, "projects": [{"id": 10051, "title": "Medicines and Maladies", "devlogs_count": 2, "created_at": "2025-08-03T17:42:40.697-04:00"}, {"id": 13062, "title": "Grand Survey Expedition - 28", "devlogs_count": 1, "created_at": "2025-09-07T22:51:22.495-04:00"}, {"id": 13297, "title": "Godot Addon", "devlogs_count": 3, "created_at": "2025-09-13T15:55:33.656-04:00"}, {"id": 2316, "title": "An Idle Game", "devlogs_count": 24, "created_at": "2025-06-20T17:16:52.839-04:00"}, {"id": 6323, "title": "Quick Tools in Terminal", "devlogs_count": 7, "created_at": "2025-07-12T10:17:24.732-04:00"}], "coding_time_seconds": 1136851, "coding_time_seconds_today": 0, "balance": "You need to have a pocket watcher badge to view this.", "badges": [{"name": "Maiden Voyage", "text": "you shipped your first project! the journey begins...", "icon": "\ud83d\udea2"}], "created_at": "2025-06-19T20:01:47.618-04:00", "updated_at": "2025-09-13T10:13:16.340-04:00", "avatar": "https://secure.gravatar.com/avatar/e4fbaebf6b87f1de6c67744c9058c1c6.jpg?s=512&d=https%3A%2F%2Fa.slack-edge.com%2Fdf10d%2Fimg%2Favatars%2Fava_0011-512.png", "custom_css": null}, {"id": 10024, "slack_id": "U0922Q0K535", "display_name": "Sebastian", "bio": null, "projects_count": 0, "devlogs_count": 0, "votes_count": 0, "ships_count": 0, "projects": [], "coding_time_seconds": 0, "coding_time_seconds_today": 0, "balance": "You need to have a pocket watcher badge to view this.", "badges": [], "created_at": "2025-06-19T20:07:44.950-04:00", "updated_at": "2025-07-03T19:54:18.764-04:00", "avatar": "https://secure.gravatar.com/avatar/145ed3f9eafcc1795612825229663200.jpg?s=512&d=https%3A%2F%2Fa.slack-edge.com%2Fdf10d%2Fimg%2Favatars%2Fava_0002-512.png", "custom_css": null}, {"id": 10025, "slack_id": "U09295J8X34", "display_name": "Dennis K", "bio": null, "projects_count": 0, "devlogs_count": 0, "votes_count": 1, "ships_count": 0, "projects": [], "coding_time_seconds": 52995, "coding_time_seconds_today": 0, "balance": "You need to have a pocket watcher badge to view this.", "badges": [], "created_at": "2025-06-19T20:11:01.163-04:00", "updated_at": "2025-07-03T19:54:19.028-04:00", "avatar": "https://avatars.slack-edge.com/2025-06-19/9076287874773_2d48b23c8972c9252d0c_original.jpg", "custom_css": null}, {"id": 10026, "slack_id": "U091UHPSV71", "display_name": "Rafael", "bio": null, "projects_count": 0, "devlogs_count": 0, "votes_count": 0, "ships_count": 0, "projects": [], "coding_time_seconds": 0, "coding_time_seconds_today": 0, "balance": "You need to have a pocket watcher badge to view this.", "badges": [], "created_at": "2025-06-19T20:12:39.599-04:00", "updated_at": "2025-07-03T19:54:19.317-04:00", "avatar": "https://secure.gravatar.com/avatar/cb67b7fd18cabea1812e72db429f3264.jpg?s=512&d=https%3A%2F%2Fa.slack-edge.com%2Fdf10d%2Fimg%2Favatars%2Fava_0018-512.png", "custom_css": null}, {"id": 10027, "slack_id": "U092N2LK457", "display_name": "Nikhil", "bio": null, "projects_count": 1, "devlogs_count": 4, "votes_count": 0, "ships_count": 0, "projects": [{"id": 2720, "title": "Pathfinding Algorithms", "devlogs_count": 4, "created_at": "2025-06-21T21:14:06.446-04:00"}], "coding_time_seconds": 68367, "coding_time_seconds_today": 0, "balance": "You need to have a pocket watcher badge to view this.", "badges": [], "created_at": "2025-06-19T20:19:45.587-04:00", "updated_at": "2025-07-03T21:48:25.369-04:00", "avatar": "https://secure.gravatar.com/avatar/4d987aefa2d801c4813b896f5d70a9ce.jpg?s=512&d=https%3A%2F%2Fa.slack-edge.com%2Fdf10d%2Fimg%2Favatars%2Fava_0017-512.png", "custom_css": null}, {"id": 10028, "slack_id": "U09288G01M3", "display_name": "Umarali", "bio": null, "projects_count": 0, "devlogs_count": 0, "votes_count": 0, "ships_count": 0, "projects": [], "coding_time_seconds": 0, "coding_time_seconds_today": 0, "balance": "You need to have a pocket watcher badge to view this.", "badges": [], "created_at": "2025-06-19T20:20:18.936-04:00", "updated_at": "2025-07-03T19:54:19.726-04:00", "avatar": "https://secure.gravatar.com/avatar/9e74737654198009cff00dde2f6f4334.jpg?s=512&d=https%3A%2F%2Fa.slack-edge.com%2Fdf10d%2Fimg%2Favatars%2Fava_0016-512.png", "custom_css": null}, {"id": 10029, "slack_id": "U05HSJ7G7EV", "display_name": "Wenya Wang", "bio": null, "projects_count": 0, "devlogs_count": 0, "votes_count": 0, "ships_count": 0, "projects": [], "coding_time_seconds": 16204, "coding_time_seconds_today": 0, "balance": "You need to have a pocket watcher badge to view this.", "badges": [], "created_at": "2025-06-19T20:21:00.387-04:00", "updated_at": "2025-07-03T19:54:20.002-04:00", "avatar": "https://avatars.slack-edge.com/2023-07-28/5641006825703_71dc452e7a34544bfaad_original.jpg", "custom_css": null}, {"id": 10030, "slack_id": "U05JQMUMTC6", "display_name": "Golden", "bio": null, "projects_count": 0, "devlogs_count": 0, "votes_count": 0, "ships_count": 0, "projects": [], "coding_time_seconds": 14026, "coding_time_seconds_today": 0, "balance": "You need to have a pocket watcher badge to view this.", "badges": [], "created_at": "2025-06-19T20:22:29.139-04:00", "updated_at": "2025-07-03T19:54:20.265-04:00", "avatar": "https://avatars.slack-edge.com/2023-07-26/5645860213828_78b45c8971e2d6355388_original.png", "custom_css": null}, {"id": 10031, "slack_id": "U0922R59YF5", "display_name": "0xBenCantCode", "bio": null, "projects_count": 2, "devlogs_count": 2, "votes_count": 0, "ships_count": 0, "projects": [{"id": 1990, "title": "RepoAudit", "devlogs_count": 2, "created_at": "2025-06-19T20:40:34.522-04:00"}, {"id": 2006, "title": "BlooketBot", "devlogs_count": 0, "created_at": "2025-06-19T21:46:44.008-04:00"}], "coding_time_seconds": 27524, "coding_time_seconds_today": 0, "balance": "You need to have a pocket watcher badge to view this.", "badges": [], "created_at": "2025-06-19T20:23:55.878-04:00", "updated_at": "2025-07-04T20:10:42.131-04:00", "avatar": "https://avatars.slack-edge.com/2025-06-20/9081811090805_cfb2ac4d0f938378b988_original.jpg", "custom_css": null}, {"id": 10032, "slack_id": "U0923835WLW", "display_name": "Zach", "bio": null, "projects_count": 0, "devlogs_count": 0, "votes_count": 0, "ships_count": 0, "projects": [], "coding_time_seconds": 0, "coding_time_seconds_today": 0, "balance": "You need to have a pocket watcher badge to view this.", "badges": [], "created_at": "2025-06-19T20:25:35.238-04:00", "updated_at": "2025-07-04T20:10:42.285-04:00", "avatar": "https://secure.gravatar.com/avatar/ce9a7999aa17d5e122087bd4f25aaf54.jpg?s=512&d=https%3A%2F%2Fa.slack-edge.com%2Fdf10d%2Fimg%2Favatars%2Fava_0019-512.png", "custom_css": null}, {"id": 10033, "slack_id": "U09289MA9LM", "display_name": "vixez", "bio": null, "projects_count": 1, "devlogs_count": 1, "votes_count": 6, "ships_count": 1, "projects": [{"id": 9938, "title": "Texr Bot", "devlogs_count": 1, "created_at": "2025-08-03T02:29:57.495-04:00"}], "coding_time_seconds": 4151, "coding_time_seconds_today": 0, "balance": "You need to have a pocket watcher badge to view this.", "badges": [{"name": "Maiden Voyage", "text": "you shipped your first project! the journey begins...", "icon": "\ud83d\udea2"}], "created_at": "2025-06-19T20:29:28.001-04:00", "updated_at": "2025-09-10T22:56:10.436-04:00", "avatar": "https://secure.gravatar.com/avatar/677bca710babe0f11778bcef35eb000e.jpg?s=512&d=https%3A%2F%2Fa.slack-edge.com%2Fdf10d%2Fimg%2Favatars%2Fava_0024-512.png", "custom_css": null}, {"id": 10034, "slack_id": "U092WKR8S72", "display_name": "Sanjay Kumar", "bio": null, "projects_count": 0, "devlogs_count": 0, "votes_count": 0, "ships_count": 0, "projects": [], "coding_time_seconds": 0, "coding_time_seconds_today": 0, "balance": "You need to have a pocket watcher badge to view this.", "badges": [], "created_at": "2025-06-19T20:31:31.708-04:00", "updated_at": "2025-07-03T19:54:21.071-04:00", "avatar": "https://secure.gravatar.com/avatar/5e958416d11535855fc30dcd923a1ef0.jpg?s=512&d=https%3A%2F%2Fa.slack-edge.com%2Fdf10d%2Fimg%2Favatars%2Fava_0025-512.png", "custom_css": null}, {"id": 10035, "slack_id": "U092N5TJKUZ", "display_name": "qihang", "bio": null, "projects_count": 1, "devlogs_count": 5, "votes_count": 9, "ships_count": 1, "projects": [{"id": 2382, "title": "PDF Parser", "devlogs_count": 5, "created_at": "2025-06-20T22:07:39.693-04:00"}], "coding_time_seconds": 267327, "coding_time_seconds_today": 0, "balance": "You need to have a pocket watcher badge to view this.", "badges": [{"name": "Maiden Voyage", "text": "you shipped your first project! the journey begins...", "icon": "\ud83d\udea2"}], "created_at": "2025-06-19T20:31:34.970-04:00", "updated_at": "2025-09-10T22:56:10.500-04:00", "avatar": "https://secure.gravatar.com/avatar/906d906f0f5053cda6a4be48c8a4e0e2.jpg?s=512&d=https%3A%2F%2Fa.slack-edge.com%2Fdf10d%2Fimg%2Favatars%2Fava_0023-512.png", "custom_css": null}, {"id": 10036, "slack_id": "U09238N0YLE", "display_name": "FaisalLeo", "bio": null, "projects_count": 0, "devlogs_count": 0, "votes_count": 0, "ships_count": 0, "projects": [], "coding_time_seconds": 0, "coding_time_seconds_today": 0, "balance": "You need to have a pocket watcher badge to view this.", "badges": [], "created_at": "2025-06-19T20:33:02.374-04:00", "updated_at": "2025-07-03T19:54:21.628-04:00", "avatar": "https://secure.gravatar.com/avatar/cd289b32ddd6621b1642bf2c878ad72d.jpg?s=512&d=https%3A%2F%2Fa.slack-edge.com%2Fdf10d%2Fimg%2Favatars%2Fava_0024-512.png", "custom_css": null}, {"id": 10037, "slack_id": "U092N6CH92M", "display_name": "Bhavya", "bio": null, "projects_count": 0, "devlogs_count": 0, "votes_count": 0, "ships_count": 0, "projects": [], "coding_time_seconds": 0, "coding_time_seconds_today": 0, "balance": "You need to have a pocket watcher badge to view this.", "badges": [], "created_at": "2025-06-19T20:35:39.154-04:00", "updated_at": "2025-07-03T19:54:21.911-04:00", "avatar": "https://secure.gravatar.com/avatar/ef205a022a112d861c5622c642050925.jpg?s=512&d=https%3A%2F%2Fa.slack-edge.com%2Fdf10d%2Fimg%2Favatars%2Fava_0001-512.png", "custom_css": null}, {"id": 10038, "slack_id": "U0922S6LF27", "display_name": "Nana Asibey", "bio": null, "projects_count": 0, "devlogs_count": 0, "votes_count": 0, "ships_count": 0, "projects": [], "coding_time_seconds": 0, "coding_time_seconds_today": 0, "balance": "You need to have a pocket watcher badge to view this.", "badges": [], "created_at": "2025-06-19T20:37:48.080-04:00", "updated_at": "2025-07-03T19:54:22.183-04:00", "avatar": "https://secure.gravatar.com/avatar/dcd2f88350c00aa3fa6c1d15e2bb3708.jpg?s=512&d=https%3A%2F%2Fa.slack-edge.com%2Fdf10d%2Fimg%2Favatars%2Fava_0014-512.png", "custom_css": null}, {"id": 10039, "slack_id": "U0922SG78H1", "display_name": "manwhar", "bio": null, "projects_count": 0, "devlogs_count": 0, "votes_count": 0, "ships_count": 0, "projects": [], "coding_time_seconds": 183100, "coding_time_seconds_today": 0, "balance": "You need to have a pocket watcher badge to view this.", "badges": [], "created_at": "2025-06-19T20:41:20.304-04:00", "updated_at": "2025-07-04T20:10:42.711-04:00", "avatar": "https://secure.gravatar.com/avatar/814d73066f0ee02e1de2e92ba26cbc86.jpg?s=512&d=https%3A%2F%2Fa.slack-edge.com%2Fdf10d%2Fimg%2Favatars%2Fava_0015-512.png", "custom_css": null}, {"id": 10040, "slack_id": "U0928ANP2MT", "display_name": "afifa", "bio": null, "projects_count": 0, "devlogs_count": 0, "votes_count": 0, "ships_count": 0, "projects": [], "coding_time_seconds": 0, "coding_time_seconds_today": 0, "balance": "You need to have a pocket watcher badge to view this.", "badges": [], "created_at": "2025-06-19T20:43:12.174-04:00", "updated_at": "2025-07-03T19:54:22.632-04:00", "avatar": "https://secure.gravatar.com/avatar/8ed37c43922d98f672f3f1703f51c359.jpg?s=512&d=https%3A%2F%2Fa.slack-edge.com%2Fdf10d%2Fimg%2Favatars%2Fava_0013-512.png", "custom_css": null}], "pagination": {"page": 502, "pages": 1192, "count": 23828, "items": 20}}