{"users": [{"id": 10041, "slack_id": "U0922STGQLT", "display_name": "Mystery Bhai", "bio": null, "projects_count": 1, "devlogs_count": 0, "votes_count": 0, "ships_count": 0, "projects": [{"id": 2091, "title": "VOID", "devlogs_count": 0, "created_at": "2025-06-20T05:29:09.559-04:00"}], "coding_time_seconds": 58772, "coding_time_seconds_today": 0, "balance": "You need to have a pocket watcher badge to view this.", "badges": [], "created_at": "2025-06-19T20:46:40.203-04:00", "updated_at": "2025-07-03T19:54:22.895-04:00", "avatar": "https://avatars.slack-edge.com/2025-06-19/9076389318277_72293d4d60147efa319e_original.png", "custom_css": null}, {"id": 10042, "slack_id": "U091W6AC153", "display_name": "siddharthan pradeep", "bio": null, "projects_count": 0, "devlogs_count": 0, "votes_count": 0, "ships_count": 0, "projects": [], "coding_time_seconds": 0, "coding_time_seconds_today": 0, "balance": "You need to have a pocket watcher badge to view this.", "badges": [], "created_at": "2025-06-19T20:47:30.294-04:00", "updated_at": "2025-07-03T19:54:23.167-04:00", "avatar": "https://avatars.slack-edge.com/2025-06-19/9077757241172_abb5d756abee34d06374_original.jpg", "custom_css": null}, {"id": 10043, "slack_id": "U09239ZEUH4", "display_name": "Ashbin", "bio": null, "projects_count": 0, "devlogs_count": 0, "votes_count": 0, "ships_count": 0, "projects": [], "coding_time_seconds": 0, "coding_time_seconds_today": 0, "balance": "You need to have a pocket watcher badge to view this.", "badges": [], "created_at": "2025-06-19T20:52:31.408-04:00", "updated_at": "2025-07-03T19:54:23.444-04:00", "avatar": "https://secure.gravatar.com/avatar/44d4366d4493442ba9405e17ffb38262.jpg?s=512&d=https%3A%2F%2Fa.slack-edge.com%2Fdf10d%2Fimg%2Favatars%2Fava_0006-512.png", "custom_css": null}, {"id": 10044, "slack_id": "U0922T8FTR9", "display_name": "shinchan-op", "bio": null, "projects_count": 0, "devlogs_count": 0, "votes_count": 0, "ships_count": 0, "projects": [], "coding_time_seconds": 0, "coding_time_seconds_today": 0, "balance": "You need to have a pocket watcher badge to view this.", "badges": [], "created_at": "2025-06-19T20:53:34.461-04:00", "updated_at": "2025-07-03T22:00:29.950-04:00", "avatar": "https://secure.gravatar.com/avatar/4b5bea21f787ec6d103045b74d5c9c07.jpg?s=512&d=https%3A%2F%2Fa.slack-edge.com%2Fdf10d%2Fimg%2Favatars%2Fava_0019-512.png", "custom_css": null}, {"id": 10045, "slack_id": "U0928BZET0V", "display_name": "Devagon", "bio": null, "projects_count": 0, "devlogs_count": 0, "votes_count": 0, "ships_count": 0, "projects": [], "coding_time_seconds": 0, "coding_time_seconds_today": 0, "balance": "You need to have a pocket watcher badge to view this.", "badges": [], "created_at": "2025-06-19T21:00:25.251-04:00", "updated_at": "2025-07-03T19:54:23.848-04:00", "avatar": "https://secure.gravatar.com/avatar/c7ba26b37a0c0574d28a361615955241.jpg?s=512&d=https%3A%2F%2Fa.slack-edge.com%2Fdf10d%2Fimg%2Favatars%2Fava_0019-512.png", "custom_css": null}, {"id": 10046, "slack_id": "U09299JRDUJ", "display_name": "jacob", "bio": null, "projects_count": 0, "devlogs_count": 0, "votes_count": 0, "ships_count": 0, "projects": [], "coding_time_seconds": 0, "coding_time_seconds_today": 0, "balance": "You need to have a pocket watcher badge to view this.", "badges": [], "created_at": "2025-06-19T21:00:48.280-04:00", "updated_at": "2025-07-03T19:54:24.132-04:00", "avatar": "https://secure.gravatar.com/avatar/756785e25771f96ca9a2869ed4521a61.jpg?s=512&d=https%3A%2F%2Fa.slack-edge.com%2Fdf10d%2Fimg%2Favatars%2Fava_0024-512.png", "custom_css": null}, {"id": 10047, "slack_id": "U0923FU2CQZ", "display_name": "Moatasem", "bio": null, "projects_count": 0, "devlogs_count": 0, "votes_count": 0, "ships_count": 0, "projects": [], "coding_time_seconds": 0, "coding_time_seconds_today": 0, "balance": "You need to have a pocket watcher badge to view this.", "badges": [], "created_at": "2025-06-19T21:00:58.687-04:00", "updated_at": "2025-07-03T19:54:24.389-04:00", "avatar": "https://secure.gravatar.com/avatar/22d418da29bb8faa2e7abfb141260393.jpg?s=512&d=https%3A%2F%2Fa.slack-edge.com%2Fdf10d%2Fimg%2Favatars%2Fava_0011-512.png", "custom_css": null}, {"id": 10048, "slack_id": "U091M82P203", "display_name": "Dev Shah", "bio": null, "projects_count": 1, "devlogs_count": 1, "votes_count": 0, "ships_count": 0, "projects": [{"id": 2210, "title": "PortFolio", "devlogs_count": 1, "created_at": "2025-06-20T12:44:52.727-04:00"}], "coding_time_seconds": 46334, "coding_time_seconds_today": 0, "balance": "You need to have a pocket watcher badge to view this.", "badges": [], "created_at": "2025-06-19T21:03:34.341-04:00", "updated_at": "2025-07-05T08:11:37.411-04:00", "avatar": "https://secure.gravatar.com/avatar/07d933885ffd060bc118ce94e5e768fc.jpg?s=512&d=https%3A%2F%2Fa.slack-edge.com%2Fdf10d%2Fimg%2Favatars%2Fava_0004-512.png", "custom_css": null}, {"id": 10049, "slack_id": "U091UN7UXUP", "display_name": "Logan K", "bio": null, "projects_count": 0, "devlogs_count": 0, "votes_count": 0, "ships_count": 0, "projects": [], "coding_time_seconds": 0, "coding_time_seconds_today": 0, "balance": "You need to have a pocket watcher badge to view this.", "badges": [], "created_at": "2025-06-19T21:04:35.407-04:00", "updated_at": "2025-07-07T02:12:17.003-04:00", "avatar": "https://secure.gravatar.com/avatar/153f239ec121f88bdc3ac212c44e75b8.jpg?s=512&d=https%3A%2F%2Fa.slack-edge.com%2Fdf10d%2Fimg%2Favatars%2Fava_0014-512.png", "custom_css": null}, {"id": 10050, "slack_id": "U0929PPJ5SQ", "display_name": "Devagon", "bio": null, "projects_count": 0, "devlogs_count": 0, "votes_count": 0, "ships_count": 0, "projects": [], "coding_time_seconds": 0, "coding_time_seconds_today": 0, "balance": "You need to have a pocket watcher badge to view this.", "badges": [], "created_at": "2025-06-19T21:04:35.885-04:00", "updated_at": "2025-07-04T08:26:03.968-04:00", "avatar": "https://secure.gravatar.com/avatar/1a1224e476ec4152dba4aa6fc741ead6.jpg?s=512&d=https%3A%2F%2Fa.slack-edge.com%2Fdf10d%2Fimg%2Favatars%2Fava_0013-512.png", "custom_css": null}, {"id": 10051, "slack_id": "U091UN9BW5D", "display_name": "Madhuri", "bio": null, "projects_count": 0, "devlogs_count": 0, "votes_count": 0, "ships_count": 0, "projects": [], "coding_time_seconds": 0, "coding_time_seconds_today": 0, "balance": "You need to have a pocket watcher badge to view this.", "badges": [], "created_at": "2025-06-19T21:07:48.506-04:00", "updated_at": "2025-07-04T08:26:04.103-04:00", "avatar": "https://secure.gravatar.com/avatar/5fb965d4b6ff05518f401ac00c844cef.jpg?s=512&d=https%3A%2F%2Fa.slack-edge.com%2Fdf10d%2Fimg%2Favatars%2Fava_0020-512.png", "custom_css": null}, {"id": 10052, "slack_id": "U09147NCYEL", "display_name": "Saanvi", "bio": null, "projects_count": 0, "devlogs_count": 0, "votes_count": 0, "ships_count": 0, "projects": [], "coding_time_seconds": 0, "coding_time_seconds_today": 0, "balance": "You need to have a pocket watcher badge to view this.", "badges": [], "created_at": "2025-06-19T21:24:50.170-04:00", "updated_at": "2025-07-03T19:54:25.269-04:00", "avatar": "https://secure.gravatar.com/avatar/435f92dc64986bd8556bd8f77b04575a.jpg?s=512&d=https%3A%2F%2Fa.slack-edge.com%2Fdf10d%2Fimg%2Favatars%2Fava_0018-512.png", "custom_css": null}, {"id": 10053, "slack_id": "U0929C38MJN", "display_name": "coderLonely", "bio": null, "projects_count": 0, "devlogs_count": 0, "votes_count": 0, "ships_count": 0, "projects": [], "coding_time_seconds": 647367, "coding_time_seconds_today": 120, "balance": "You need to have a pocket watcher badge to view this.", "badges": [], "created_at": "2025-06-19T21:28:40.491-04:00", "updated_at": "2025-07-03T19:54:25.544-04:00", "avatar": "https://secure.gravatar.com/avatar/1db3153fea4184bacf7462cf68de55a3.jpg?s=512&d=https%3A%2F%2Fa.slack-edge.com%2Fdf10d%2Fimg%2Favatars%2Fava_0009-512.png", "custom_css": null}, {"id": 10054, "slack_id": "U092XV6LBB2", "display_name": "jaywalker", "bio": null, "projects_count": 0, "devlogs_count": 0, "votes_count": 0, "ships_count": 0, "projects": [], "coding_time_seconds": 0, "coding_time_seconds_today": 0, "balance": "You need to have a pocket watcher badge to view this.", "badges": [], "created_at": "2025-06-19T21:28:57.999-04:00", "updated_at": "2025-07-04T08:26:04.369-04:00", "avatar": "https://secure.gravatar.com/avatar/91b4a2127db9ad2927a08335e9df4572.jpg?s=512&d=https%3A%2F%2Fa.slack-edge.com%2Fdf10d%2Fimg%2Favatars%2Fava_0014-512.png", "custom_css": null}, {"id": 10055, "slack_id": "U092NA02FNV", "display_name": "diksha", "bio": null, "projects_count": 0, "devlogs_count": 0, "votes_count": 0, "ships_count": 0, "projects": [], "coding_time_seconds": 0, "coding_time_seconds_today": 0, "balance": "You need to have a pocket watcher badge to view this.", "badges": [], "created_at": "2025-06-19T21:30:06.171-04:00", "updated_at": "2025-07-05T02:11:16.070-04:00", "avatar": "https://secure.gravatar.com/avatar/6aa40d3e34ea7972bf9dbd77d1f6e008.jpg?s=512&d=https%3A%2F%2Fa.slack-edge.com%2Fdf10d%2Fimg%2Favatars%2Fava_0023-512.png", "custom_css": null}, {"id": 10056, "slack_id": "U0928F19ABX", "display_name": "Tirth", "bio": null, "projects_count": 0, "devlogs_count": 0, "votes_count": 0, "ships_count": 0, "projects": [], "coding_time_seconds": 0, "coding_time_seconds_today": 0, "balance": "You need to have a pocket watcher badge to view this.", "badges": [], "created_at": "2025-06-19T21:31:56.888-04:00", "updated_at": "2025-07-03T19:54:26.075-04:00", "avatar": "https://secure.gravatar.com/avatar/9a5450c3a4eae8e5234cffa778ee9e59.jpg?s=512&d=https%3A%2F%2Fa.slack-edge.com%2Fdf10d%2Fimg%2Favatars%2Fava_0019-512.png", "custom_css": null}, {"id": 10057, "slack_id": "U091NQVV32A", "display_name": "Eduardo Bruggmann", "bio": null, "projects_count": 0, "devlogs_count": 0, "votes_count": 0, "ships_count": 0, "projects": [], "coding_time_seconds": 0, "coding_time_seconds_today": 0, "balance": "You need to have a pocket watcher badge to view this.", "badges": [], "created_at": "2025-06-19T21:33:47.190-04:00", "updated_at": "2025-07-03T19:54:26.360-04:00", "avatar": "https://secure.gravatar.com/avatar/448660c0926fa7416368d4c711db0028.jpg?s=512&d=https%3A%2F%2Fa.slack-edge.com%2Fdf10d%2Fimg%2Favatars%2Fava_0014-512.png", "custom_css": null}, {"id": 10058, "slack_id": "U091UQ8LW23", "display_name": "ALO", "bio": null, "projects_count": 0, "devlogs_count": 0, "votes_count": 0, "ships_count": 0, "projects": [], "coding_time_seconds": 0, "coding_time_seconds_today": 0, "balance": "You need to have a pocket watcher badge to view this.", "badges": [], "created_at": "2025-06-19T21:33:47.979-04:00", "updated_at": "2025-07-03T19:54:26.632-04:00", "avatar": "https://secure.gravatar.com/avatar/581ae930ffa00d9e2965bc724ada4c16.jpg?s=512&d=https%3A%2F%2Fa.slack-edge.com%2Fdf10d%2Fimg%2Favatars%2Fava_0025-512.png", "custom_css": null}, {"id": 10059, "slack_id": "U091Z15T1PW", "display_name": "Steve Tang", "bio": null, "projects_count": 0, "devlogs_count": 0, "votes_count": 0, "ships_count": 0, "projects": [], "coding_time_seconds": 814, "coding_time_seconds_today": 0, "balance": "You need to have a pocket watcher badge to view this.", "badges": [], "created_at": "2025-06-19T21:38:25.437-04:00", "updated_at": "2025-07-04T02:29:48.608-04:00", "avatar": "https://avatars.slack-edge.com/2025-06-19/9077901333172_60522bf91cdcf41cac2f_original.jpg", "custom_css": null}, {"id": 10060, "slack_id": "U091URQ5FBR", "display_name": "Nikolas D", "bio": null, "projects_count": 0, "devlogs_count": 0, "votes_count": 0, "ships_count": 0, "projects": [], "coding_time_seconds": 5426, "coding_time_seconds_today": 0, "balance": "You need to have a pocket watcher badge to view this.", "badges": [], "created_at": "2025-06-19T21:48:00.827-04:00", "updated_at": "2025-07-03T19:54:27.032-04:00", "avatar": "https://secure.gravatar.com/avatar/5354cee5dbdc6fbf37c9a057b7f58e70.jpg?s=512&d=https%3A%2F%2Fa.slack-edge.com%2Fdf10d%2Fimg%2Favatars%2Fava_0017-512.png", "custom_css": null}], "pagination": {"page": 503, "pages": 1192, "count": 23828, "items": 20}}