{"users": [{"id": 10061, "slack_id": "U08CGU6F3V0", "display_name": "Conor B", "bio": null, "projects_count": 0, "devlogs_count": 0, "votes_count": 0, "ships_count": 0, "projects": [], "coding_time_seconds": 6661, "coding_time_seconds_today": 0, "balance": "You need to have a pocket watcher badge to view this.", "badges": [], "created_at": "2025-06-19T21:49:46.830-04:00", "updated_at": "2025-07-04T02:29:48.797-04:00", "avatar": "https://secure.gravatar.com/avatar/0867938e888f302d479c6025891ffa4f.jpg?s=512&d=https%3A%2F%2Fa.slack-edge.com%2Fdf10d%2Fimg%2Favatars%2Fava_0014-512.png", "custom_css": null}, {"id": 10062, "slack_id": "U092NC96SHX", "display_name": "Mahi Mahitcha", "bio": null, "projects_count": 0, "devlogs_count": 0, "votes_count": 0, "ships_count": 0, "projects": [], "coding_time_seconds": 0, "coding_time_seconds_today": 0, "balance": "You need to have a pocket watcher badge to view this.", "badges": [], "created_at": "2025-06-19T21:52:39.827-04:00", "updated_at": "2025-07-03T19:54:27.434-04:00", "avatar": "https://secure.gravatar.com/avatar/2640d9a6674571ab6f43d09d93f43119.jpg?s=512&d=https%3A%2F%2Fa.slack-edge.com%2Fdf10d%2Fimg%2Favatars%2Fava_0002-512.png", "custom_css": null}, {"id": 10063, "slack_id": "U092Y1PSUHW", "display_name": "Namrata", "bio": null, "projects_count": 0, "devlogs_count": 0, "votes_count": 0, "ships_count": 0, "projects": [], "coding_time_seconds": 0, "coding_time_seconds_today": 0, "balance": "You need to have a pocket watcher badge to view this.", "badges": [], "created_at": "2025-06-19T21:55:05.993-04:00", "updated_at": "2025-07-03T19:54:27.700-04:00", "avatar": "https://secure.gravatar.com/avatar/b59fdcd6728c82e463184e67121868c4.jpg?s=512&d=https%3A%2F%2Fa.slack-edge.com%2Fdf10d%2Fimg%2Favatars%2Fava_0008-512.png", "custom_css": null}, {"id": 10064, "slack_id": "U0929T8SP1S", "display_name": "Kay Hacker", "bio": null, "projects_count": 0, "devlogs_count": 0, "votes_count": 0, "ships_count": 0, "projects": [], "coding_time_seconds": 0, "coding_time_seconds_today": 0, "balance": "You need to have a pocket watcher badge to view this.", "badges": [], "created_at": "2025-06-19T21:55:08.117-04:00", "updated_at": "2025-07-03T19:54:27.963-04:00", "avatar": "https://secure.gravatar.com/avatar/757fb84ea6c58b8f6f2fafe4637c74e7.jpg?s=512&d=https%3A%2F%2Fa.slack-edge.com%2Fdf10d%2Fimg%2Favatars%2Fava_0022-512.png", "custom_css": null}, {"id": 10065, "slack_id": "U0928H8JXHB", "display_name": "kunal Panigrahi", "bio": null, "projects_count": 0, "devlogs_count": 0, "votes_count": 0, "ships_count": 0, "projects": [], "coding_time_seconds": 0, "coding_time_seconds_today": 0, "balance": "You need to have a pocket watcher badge to view this.", "badges": [], "created_at": "2025-06-19T22:01:05.045-04:00", "updated_at": "2025-07-03T19:54:28.231-04:00", "avatar": "https://secure.gravatar.com/avatar/895ab4358305bcffcb13379e7cf6db80.jpg?s=512&d=https%3A%2F%2Fa.slack-edge.com%2Fdf10d%2Fimg%2Favatars%2Fava_0017-512.png", "custom_css": null}, {"id": 10066, "slack_id": "U092NCPT41F", "display_name": "Rohit Yadav", "bio": null, "projects_count": 0, "devlogs_count": 0, "votes_count": 0, "ships_count": 0, "projects": [], "coding_time_seconds": 0, "coding_time_seconds_today": 0, "balance": "You need to have a pocket watcher badge to view this.", "badges": [], "created_at": "2025-06-19T22:02:29.454-04:00", "updated_at": "2025-07-03T19:54:28.501-04:00", "avatar": "https://secure.gravatar.com/avatar/ed7bed30da25c9912758cb38fd4c31bb.jpg?s=512&d=https%3A%2F%2Fa.slack-edge.com%2Fdf10d%2Fimg%2Favatars%2Fava_0026-512.png", "custom_css": null}, {"id": 10067, "slack_id": "U09233JNQLT", "display_name": "Ketan", "bio": null, "projects_count": 0, "devlogs_count": 0, "votes_count": 0, "ships_count": 0, "projects": [], "coding_time_seconds": 0, "coding_time_seconds_today": 0, "balance": "You need to have a pocket watcher badge to view this.", "badges": [], "created_at": "2025-06-19T22:03:46.376-04:00", "updated_at": "2025-07-05T02:11:16.884-04:00", "avatar": "https://secure.gravatar.com/avatar/20330c77b784443367240994db28b82a.jpg?s=512&d=https%3A%2F%2Fa.slack-edge.com%2Fdf10d%2Fimg%2Favatars%2Fava_0021-512.png", "custom_css": null}, {"id": 10068, "slack_id": "U08HX6D4DMG", "display_name": "Mitchell Krummell", "bio": null, "projects_count": 7, "devlogs_count": 23, "votes_count": 33, "ships_count": 2, "projects": [{"id": 10198, "title": "Devboard YEK-DE1", "devlogs_count": 0, "created_at": "2025-08-04T21:07:03.466-04:00"}, {"id": 10200, "title": "Platfmorer Game", "devlogs_count": 0, "created_at": "2025-08-04T21:15:24.339-04:00"}, {"id": 11176, "title": "Blogging Platform", "devlogs_count": 6, "created_at": "2025-08-13T20:06:51.007-04:00"}, {"id": 12209, "title": "Touch grass", "devlogs_count": 1, "created_at": "2025-08-24T11:35:13.411-04:00"}, {"id": 13410, "title": "Shores Of Sorrow", "devlogs_count": 1, "created_at": "2025-09-15T17:47:14.771-04:00"}, {"id": 10202, "title": "Bracket Generator", "devlogs_count": 0, "created_at": "2025-08-04T21:27:36.449-04:00"}, {"id": 12452, "title": "Quest Mod", "devlogs_count": 15, "created_at": "2025-08-27T19:23:25.858-04:00"}], "coding_time_seconds": 446178, "coding_time_seconds_today": 0, "balance": "You need to have a pocket watcher badge to view this.", "badges": [{"name": "Maiden Voyage", "text": "you shipped your first project! the journey begins...", "icon": "\ud83d\udea2"}], "created_at": "2025-06-19T22:05:36.669-04:00", "updated_at": "2025-09-21T18:04:46.961-04:00", "avatar": "https://secure.gravatar.com/avatar/3cf3cb1273e761cc742b21769c757b0b.jpg?s=512&d=https%3A%2F%2Fa.slack-edge.com%2Fdf10d%2Fimg%2Favatars%2Fava_0015-512.png", "custom_css": null}, {"id": 10069, "slack_id": "U08JMSKV03F", "display_name": "Sarthak Pant", "bio": null, "projects_count": 0, "devlogs_count": 0, "votes_count": 0, "ships_count": 0, "projects": [], "coding_time_seconds": 3470, "coding_time_seconds_today": 0, "balance": "You need to have a pocket watcher badge to view this.", "badges": [], "created_at": "2025-06-19T22:07:33.573-04:00", "updated_at": "2025-07-03T19:54:29.165-04:00", "avatar": "https://secure.gravatar.com/avatar/329f9305b8ce409ff95b67b033ce33e5.jpg?s=512&d=https%3A%2F%2Fa.slack-edge.com%2Fdf10d%2Fimg%2Favatars%2Fava_0023-512.png", "custom_css": null}, {"id": 10070, "slack_id": "U091P3G3LD8", "display_name": "Jhandry Chimbo", "bio": null, "projects_count": 0, "devlogs_count": 0, "votes_count": 0, "ships_count": 0, "projects": [], "coding_time_seconds": 0, "coding_time_seconds_today": 0, "balance": "You need to have a pocket watcher badge to view this.", "badges": [], "created_at": "2025-06-19T22:12:44.918-04:00", "updated_at": "2025-07-03T19:54:29.432-04:00", "avatar": "https://avatars.slack-edge.com/2025-06-19/9090487624001_c05df782e3b2282b490f_original.jpg", "custom_css": null}, {"id": 10071, "slack_id": "U0929V35VQC", "display_name": "stacey", "bio": null, "projects_count": 0, "devlogs_count": 0, "votes_count": 0, "ships_count": 0, "projects": [], "coding_time_seconds": 0, "coding_time_seconds_today": 0, "balance": "You need to have a pocket watcher badge to view this.", "badges": [], "created_at": "2025-06-19T22:14:51.911-04:00", "updated_at": "2025-07-03T19:54:29.706-04:00", "avatar": "https://secure.gravatar.com/avatar/e49e2e014a2127acfa1b38b75b8d56e5.jpg?s=512&d=https%3A%2F%2Fa.slack-edge.com%2Fdf10d%2Fimg%2Favatars%2Fava_0001-512.png", "custom_css": null}, {"id": 10072, "slack_id": "U0929UZEXN0", "display_name": "Brandon Chan", "bio": null, "projects_count": 2, "devlogs_count": 1, "votes_count": 0, "ships_count": 0, "projects": [{"id": 2313, "title": "Personal Website", "devlogs_count": 0, "created_at": "2025-06-20T17:04:27.046-04:00"}, {"id": 2421, "title": "MoTown Stuff", "devlogs_count": 1, "created_at": "2025-06-21T01:56:01.033-04:00"}], "coding_time_seconds": 32394, "coding_time_seconds_today": 0, "balance": "You need to have a pocket watcher badge to view this.", "badges": [], "created_at": "2025-06-19T22:18:00.268-04:00", "updated_at": "2025-07-03T19:54:29.969-04:00", "avatar": "https://secure.gravatar.com/avatar/cbe710f604f187fc5b4599c75c45f21f.jpg?s=512&d=https%3A%2F%2Fa.slack-edge.com%2Fdf10d%2Fimg%2Favatars%2Fava_0013-512.png", "custom_css": null}, {"id": 10073, "slack_id": "U0921HXDJ75", "display_name": "Lakshya D", "bio": null, "projects_count": 0, "devlogs_count": 0, "votes_count": 0, "ships_count": 0, "projects": [], "coding_time_seconds": 0, "coding_time_seconds_today": 0, "balance": "You need to have a pocket watcher badge to view this.", "badges": [], "created_at": "2025-06-19T22:18:26.886-04:00", "updated_at": "2025-07-03T19:54:30.239-04:00", "avatar": "https://avatars.slack-edge.com/2025-06-19/9090502531441_6dcec7a65fb1531054a9_original.png", "custom_css": null}, {"id": 10074, "slack_id": "U092A04HV44", "display_name": "Jonah", "bio": null, "projects_count": 0, "devlogs_count": 0, "votes_count": 0, "ships_count": 0, "projects": [], "coding_time_seconds": 15654, "coding_time_seconds_today": 0, "balance": "You need to have a pocket watcher badge to view this.", "badges": [], "created_at": "2025-06-19T22:19:00.338-04:00", "updated_at": "2025-07-06T14:11:04.043-04:00", "avatar": "https://secure.gravatar.com/avatar/ba9c85c8f36c0fead76aeb514c9656d6.jpg?s=512&d=https%3A%2F%2Fa.slack-edge.com%2Fdf10d%2Fimg%2Favatars%2Fava_0018-512.png", "custom_css": null}, {"id": 10075, "slack_id": "U0923H3MGNA", "display_name": "shiran", "bio": null, "projects_count": 0, "devlogs_count": 0, "votes_count": 0, "ships_count": 0, "projects": [], "coding_time_seconds": 0, "coding_time_seconds_today": 0, "balance": "You need to have a pocket watcher badge to view this.", "badges": [], "created_at": "2025-06-19T22:21:29.821-04:00", "updated_at": "2025-07-04T02:29:49.712-04:00", "avatar": "https://secure.gravatar.com/avatar/4b50b3664c183fbbab7729520d09ed0c.jpg?s=512&d=https%3A%2F%2Fa.slack-edge.com%2Fdf10d%2Fimg%2Favatars%2Fava_0003-512.png", "custom_css": null}, {"id": 10076, "slack_id": "U092HAB6R0R", "display_name": "blat", "bio": null, "projects_count": 0, "devlogs_count": 0, "votes_count": 0, "ships_count": 0, "projects": [], "coding_time_seconds": 0, "coding_time_seconds_today": 0, "balance": "You need to have a pocket watcher badge to view this.", "badges": [], "created_at": "2025-06-19T22:24:07.609-04:00", "updated_at": "2025-07-03T19:54:30.811-04:00", "avatar": "https://secure.gravatar.com/avatar/81119b9b15c5978ce10c0a7c995f11b8.jpg?s=512&d=https%3A%2F%2Fa.slack-edge.com%2Fdf10d%2Fimg%2Favatars%2Fava_0011-512.png", "custom_css": null}, {"id": 10077, "slack_id": "U092NF1C1NV", "display_name": "WindySummer", "bio": null, "projects_count": 0, "devlogs_count": 0, "votes_count": 0, "ships_count": 0, "projects": [], "coding_time_seconds": 0, "coding_time_seconds_today": 0, "balance": "You need to have a pocket watcher badge to view this.", "badges": [], "created_at": "2025-06-19T22:26:46.725-04:00", "updated_at": "2025-07-03T22:00:32.055-04:00", "avatar": "https://secure.gravatar.com/avatar/27f40c90727139bdaccd4d51dcdbead3.jpg?s=512&d=https%3A%2F%2Fa.slack-edge.com%2Fdf10d%2Fimg%2Favatars%2Fava_0025-512.png", "custom_css": null}, {"id": 10078, "slack_id": "U0923HLGH8E", "display_name": "Michael", "bio": null, "projects_count": 0, "devlogs_count": 0, "votes_count": 0, "ships_count": 0, "projects": [], "coding_time_seconds": 13717, "coding_time_seconds_today": 0, "balance": "You need to have a pocket watcher badge to view this.", "badges": [], "created_at": "2025-06-19T22:26:56.451-04:00", "updated_at": "2025-07-03T19:54:31.222-04:00", "avatar": "https://secure.gravatar.com/avatar/5221590bada7a61313f38b51ca554442.jpg?s=512&d=https%3A%2F%2Fa.slack-edge.com%2Fdf10d%2Fimg%2Favatars%2Fava_0010-512.png", "custom_css": null}, {"id": 10079, "slack_id": "U092Y4HCBQQ", "display_name": "Antonio", "bio": null, "projects_count": 0, "devlogs_count": 0, "votes_count": 0, "ships_count": 0, "projects": [], "coding_time_seconds": 0, "coding_time_seconds_today": 0, "balance": "You need to have a pocket watcher badge to view this.", "badges": [], "created_at": "2025-06-19T22:27:56.442-04:00", "updated_at": "2025-07-03T19:54:31.529-04:00", "avatar": "https://secure.gravatar.com/avatar/d0bb17ebb216951a5e266832be4b694c.jpg?s=512&d=https%3A%2F%2Fa.slack-edge.com%2Fdf10d%2Fimg%2Favatars%2Fava_0017-512.png", "custom_css": null}, {"id": 10080, "slack_id": "U091UV4BGUX", "display_name": "Akash", "bio": null, "projects_count": 0, "devlogs_count": 0, "votes_count": 0, "ships_count": 0, "projects": [], "coding_time_seconds": 0, "coding_time_seconds_today": 0, "balance": "You need to have a pocket watcher badge to view this.", "badges": [], "created_at": "2025-06-19T22:29:38.910-04:00", "updated_at": "2025-07-03T19:54:31.821-04:00", "avatar": "https://secure.gravatar.com/avatar/526d14d8850fb6959da70dabb933de30.jpg?s=512&d=https%3A%2F%2Fa.slack-edge.com%2Fdf10d%2Fimg%2Favatars%2Fava_0023-512.png", "custom_css": null}], "pagination": {"page": 504, "pages": 1192, "count": 23828, "items": 20}}