{"users": [{"id": 10081, "slack_id": "U092Y4YGERE", "display_name": "Pooja Reddy Kallur", "bio": null, "projects_count": 0, "devlogs_count": 0, "votes_count": 0, "ships_count": 0, "projects": [], "coding_time_seconds": 0, "coding_time_seconds_today": 0, "balance": "You need to have a pocket watcher badge to view this.", "badges": [], "created_at": "2025-06-19T22:32:36.616-04:00", "updated_at": "2025-07-05T08:11:39.546-04:00", "avatar": "https://secure.gravatar.com/avatar/a3e086e28f4ef39b43bfb6bd57faab74.jpg?s=512&d=https%3A%2F%2Fa.slack-edge.com%2Fdf10d%2Fimg%2Favatars%2Fava_0018-512.png", "custom_css": null}, {"id": 10082, "slack_id": "U0923GYE88N", "display_name": "Shubham Patel", "bio": null, "projects_count": 0, "devlogs_count": 0, "votes_count": 0, "ships_count": 0, "projects": [], "coding_time_seconds": 68864, "coding_time_seconds_today": 0, "balance": "You need to have a pocket watcher badge to view this.", "badges": [], "created_at": "2025-06-19T22:34:41.166-04:00", "updated_at": "2025-07-05T14:12:39.030-04:00", "avatar": "https://avatars.slack-edge.com/2025-06-19/9090545596289_146ba4ff38c5c12ed568_original.jpg", "custom_css": null}, {"id": 10083, "slack_id": "U0923JBJFKQ", "display_name": "Divine (DE ICON)", "bio": null, "projects_count": 0, "devlogs_count": 0, "votes_count": 0, "ships_count": 0, "projects": [], "coding_time_seconds": 0, "coding_time_seconds_today": 0, "balance": "You need to have a pocket watcher badge to view this.", "badges": [], "created_at": "2025-06-19T22:39:29.827-04:00", "updated_at": "2025-07-03T19:54:32.366-04:00", "avatar": "https://secure.gravatar.com/avatar/d6ad41528876b4f6fde2b4250d93b57d.jpg?s=512&d=https%3A%2F%2Fa.slack-edge.com%2Fdf10d%2Fimg%2Favatars%2Fava_0001-512.png", "custom_css": null}, {"id": 10084, "slack_id": "U091V0M578X", "display_name": "GohAsh", "bio": null, "projects_count": 0, "devlogs_count": 0, "votes_count": 0, "ships_count": 0, "projects": [], "coding_time_seconds": 0, "coding_time_seconds_today": 0, "balance": "You need to have a pocket watcher badge to view this.", "badges": [], "created_at": "2025-06-19T22:43:19.629-04:00", "updated_at": "2025-07-04T08:26:06.445-04:00", "avatar": "https://secure.gravatar.com/avatar/6a4f34f36b27d78a75a6fa7a6b79e6c6.jpg?s=512&d=https%3A%2F%2Fa.slack-edge.com%2Fdf10d%2Fimg%2Favatars%2Fava_0021-512.png", "custom_css": null}, {"id": 10085, "slack_id": "U091UTDUTL7", "display_name": "Kanishk", "bio": null, "projects_count": 0, "devlogs_count": 0, "votes_count": 0, "ships_count": 0, "projects": [], "coding_time_seconds": 0, "coding_time_seconds_today": 0, "balance": "You need to have a pocket watcher badge to view this.", "badges": [], "created_at": "2025-06-19T22:44:58.764-04:00", "updated_at": "2025-07-03T19:54:32.772-04:00", "avatar": "https://secure.gravatar.com/avatar/c3d56948f173b3582a1efed81ffdad1b.jpg?s=512&d=https%3A%2F%2Fa.slack-edge.com%2Fdf10d%2Fimg%2Favatars%2Fava_0019-512.png", "custom_css": null}, {"id": 10086, "slack_id": "U09236LTZR9", "display_name": "Nysha Reddy Kallur", "bio": null, "projects_count": 0, "devlogs_count": 0, "votes_count": 0, "ships_count": 0, "projects": [], "coding_time_seconds": 0, "coding_time_seconds_today": 0, "balance": "You need to have a pocket watcher badge to view this.", "badges": [], "created_at": "2025-06-19T22:47:24.252-04:00", "updated_at": "2025-07-03T19:54:33.032-04:00", "avatar": "https://secure.gravatar.com/avatar/d6972d304c625f89609bb4f73a0803f1.jpg?s=512&d=https%3A%2F%2Fa.slack-edge.com%2Fdf10d%2Fimg%2Favatars%2Fava_0001-512.png", "custom_css": null}, {"id": 10087, "slack_id": "U091V1794NB", "display_name": "mai", "bio": null, "projects_count": 0, "devlogs_count": 0, "votes_count": 0, "ships_count": 0, "projects": [], "coding_time_seconds": 0, "coding_time_seconds_today": 0, "balance": "You need to have a pocket watcher badge to view this.", "badges": [], "created_at": "2025-06-19T22:51:34.508-04:00", "updated_at": "2025-07-03T19:54:33.293-04:00", "avatar": "https://secure.gravatar.com/avatar/68405365deb17fb6defd626f222d577e.jpg?s=512&d=https%3A%2F%2Fa.slack-edge.com%2Fdf10d%2Fimg%2Favatars%2Fava_0016-512.png", "custom_css": null}, {"id": 10088, "slack_id": "U091GN74XD4", "display_name": "Krish", "bio": null, "projects_count": 0, "devlogs_count": 0, "votes_count": 0, "ships_count": 0, "projects": [], "coding_time_seconds": 0, "coding_time_seconds_today": 0, "balance": "You need to have a pocket watcher badge to view this.", "badges": [], "created_at": "2025-06-19T22:52:40.611-04:00", "updated_at": "2025-07-03T19:54:33.552-04:00", "avatar": "https://secure.gravatar.com/avatar/069cbb9194f9669c456e8fa246cb58f5.jpg?s=512&d=https%3A%2F%2Fa.slack-edge.com%2Fdf10d%2Fimg%2Favatars%2Fava_0019-512.png", "custom_css": null}, {"id": 10089, "slack_id": "U0929GEP926", "display_name": "Nobel", "bio": null, "projects_count": 0, "devlogs_count": 0, "votes_count": 0, "ships_count": 0, "projects": [], "coding_time_seconds": 0, "coding_time_seconds_today": 0, "balance": "You need to have a pocket watcher badge to view this.", "badges": [], "created_at": "2025-06-19T22:54:09.497-04:00", "updated_at": "2025-07-04T20:10:45.894-04:00", "avatar": "https://secure.gravatar.com/avatar/40544983d1d88679f08f5ba996e0cc44.jpg?s=512&d=https%3A%2F%2Fa.slack-edge.com%2Fdf10d%2Fimg%2Favatars%2Fava_0001-512.png", "custom_css": null}, {"id": 10090, "slack_id": "U092Y63DJ48", "display_name": "gabo", "bio": null, "projects_count": 0, "devlogs_count": 0, "votes_count": 0, "ships_count": 0, "projects": [], "coding_time_seconds": 0, "coding_time_seconds_today": 0, "balance": "You need to have a pocket watcher badge to view this.", "badges": [], "created_at": "2025-06-19T23:02:52.327-04:00", "updated_at": "2025-07-03T19:54:33.956-04:00", "avatar": "https://secure.gravatar.com/avatar/03e7cf3035c4459015198d2dcd37eade.jpg?s=512&d=https%3A%2F%2Fa.slack-edge.com%2Fdf10d%2Fimg%2Favatars%2Fava_0010-512.png", "custom_css": null}, {"id": 10091, "slack_id": "U091V2D6R5M", "display_name": "Felix", "bio": null, "projects_count": 0, "devlogs_count": 0, "votes_count": 0, "ships_count": 0, "projects": [], "coding_time_seconds": 324, "coding_time_seconds_today": 0, "balance": "You need to have a pocket watcher badge to view this.", "badges": [], "created_at": "2025-06-19T23:04:35.011-04:00", "updated_at": "2025-07-03T19:54:34.224-04:00", "avatar": "https://secure.gravatar.com/avatar/50693b0d1168ef84f3a17818e07beef9.jpg?s=512&d=https%3A%2F%2Fa.slack-edge.com%2Fdf10d%2Fimg%2Favatars%2Fava_0015-512.png", "custom_css": null}, {"id": 10092, "slack_id": "U08REU1TNNT", "display_name": "FMG", "bio": null, "projects_count": 3, "devlogs_count": 3, "votes_count": 19, "ships_count": 1, "projects": [{"id": 2030, "title": "WebChat", "devlogs_count": 0, "created_at": "2025-06-19T23:36:47.298-04:00"}, {"id": 3845, "title": "credits song for my death but its in python", "devlogs_count": 2, "created_at": "2025-06-26T01:32:17.811-04:00"}, {"id": 8788, "title": "Endurium", "devlogs_count": 1, "created_at": "2025-07-29T09:27:17.507-04:00"}], "coding_time_seconds": 264639, "coding_time_seconds_today": 0, "balance": "You need to have a pocket watcher badge to view this.", "badges": [{"name": "Maiden Voyage", "text": "you shipped your first project! the journey begins...", "icon": "\ud83d\udea2"}], "created_at": "2025-06-19T23:06:16.159-04:00", "updated_at": "2025-09-10T22:56:12.098-04:00", "avatar": "https://avatars.slack-edge.com/2025-06-23/9085460287942_54772c48d0af318b1f0b_original.png", "custom_css": null}, {"id": 10093, "slack_id": "U091T16EBRQ", "display_name": "Rzky", "bio": null, "projects_count": 0, "devlogs_count": 0, "votes_count": 0, "ships_count": 0, "projects": [], "coding_time_seconds": 61797, "coding_time_seconds_today": 0, "balance": "You need to have a pocket watcher badge to view this.", "badges": [], "created_at": "2025-06-19T23:09:48.219-04:00", "updated_at": "2025-07-03T19:54:34.628-04:00", "avatar": "https://secure.gravatar.com/avatar/4146ab2648faaa274612db573d505ce4.jpg?s=512&d=https%3A%2F%2Fa.slack-edge.com%2Fdf10d%2Fimg%2Favatars%2Fava_0011-512.png", "custom_css": null}, {"id": 10094, "slack_id": "U0929LT7N02", "display_name": "Aarush Goradia", "bio": null, "projects_count": 2, "devlogs_count": 1, "votes_count": 0, "ships_count": 0, "projects": [{"id": 2380, "title": "When Reaper", "devlogs_count": 0, "created_at": "2025-06-20T21:47:09.762-04:00"}, {"id": 2418, "title": "AoPS Userscripts", "devlogs_count": 1, "created_at": "2025-06-21T01:38:39.470-04:00"}], "coding_time_seconds": 186239, "coding_time_seconds_today": 0, "balance": "You need to have a pocket watcher badge to view this.", "badges": [], "created_at": "2025-06-19T23:10:08.198-04:00", "updated_at": "2025-07-03T19:54:34.888-04:00", "avatar": "https://secure.gravatar.com/avatar/75e764d8758c8543c1af2ecccf5dc356.jpg?s=512&d=https%3A%2F%2Fa.slack-edge.com%2Fdf10d%2Fimg%2Favatars%2Fava_0019-512.png", "custom_css": null}, {"id": 10095, "slack_id": "U0834RFQLE8", "display_name": "Aansh", "bio": null, "projects_count": 1, "devlogs_count": 0, "votes_count": 0, "ships_count": 0, "projects": [{"id": 12296, "title": "Rap lyric Elo Ranking", "devlogs_count": 0, "created_at": "2025-08-25T11:00:59.539-04:00"}], "coding_time_seconds": 19734, "coding_time_seconds_today": 0, "balance": "You need to have a pocket watcher badge to view this.", "badges": [], "created_at": "2025-06-19T23:12:29.494-04:00", "updated_at": "2025-08-25T09:02:14.685-04:00", "avatar": "https://secure.gravatar.com/avatar/70f68b6a94964401bceb04187a9466ab.jpg?s=512&d=https%3A%2F%2Fa.slack-edge.com%2Fdf10d%2Fimg%2Favatars%2Fava_0024-512.png", "custom_css": null}, {"id": 10096, "slack_id": "U091V2R578F", "display_name": "I. LAMEEA MARYAM BI", "bio": null, "projects_count": 0, "devlogs_count": 0, "votes_count": 0, "ships_count": 0, "projects": [], "coding_time_seconds": 0, "coding_time_seconds_today": 0, "balance": "You need to have a pocket watcher badge to view this.", "badges": [], "created_at": "2025-06-19T23:12:55.248-04:00", "updated_at": "2025-07-03T19:54:35.425-04:00", "avatar": "https://secure.gravatar.com/avatar/690d1e1c46927cf345b705032a2c653c.jpg?s=512&d=https%3A%2F%2Fa.slack-edge.com%2Fdf10d%2Fimg%2Favatars%2Fava_0005-512.png", "custom_css": null}, {"id": 10097, "slack_id": "U0923MDAUDU", "display_name": "Kingsley Zhuo", "bio": null, "projects_count": 0, "devlogs_count": 0, "votes_count": 0, "ships_count": 0, "projects": [], "coding_time_seconds": 0, "coding_time_seconds_today": 0, "balance": "You need to have a pocket watcher badge to view this.", "badges": [], "created_at": "2025-06-19T23:14:55.629-04:00", "updated_at": "2025-07-04T08:26:08.475-04:00", "avatar": "https://avatars.slack-edge.com/2025-06-19/9071312392611_95e86e49bed4fba7ff13_original.png", "custom_css": null}, {"id": 10098, "slack_id": "U0929LQ8PNW", "display_name": "Manmohan", "bio": null, "projects_count": 0, "devlogs_count": 0, "votes_count": 0, "ships_count": 0, "projects": [], "coding_time_seconds": 0, "coding_time_seconds_today": 0, "balance": "You need to have a pocket watcher badge to view this.", "badges": [], "created_at": "2025-06-19T23:17:39.925-04:00", "updated_at": "2025-07-03T19:54:35.832-04:00", "avatar": "https://secure.gravatar.com/avatar/edfb30ce8c3a01986c97519ec3cad54d.jpg?s=512&d=https%3A%2F%2Fa.slack-edge.com%2Fdf10d%2Fimg%2Favatars%2Fava_0020-512.png", "custom_css": null}, {"id": 10099, "slack_id": "U0928QYF0VB", "display_name": "zenik", "bio": null, "projects_count": 0, "devlogs_count": 0, "votes_count": 0, "ships_count": 0, "projects": [], "coding_time_seconds": 0, "coding_time_seconds_today": 0, "balance": "You need to have a pocket watcher badge to view this.", "badges": [], "created_at": "2025-06-19T23:19:13.308-04:00", "updated_at": "2025-07-04T02:29:51.398-04:00", "avatar": "https://secure.gravatar.com/avatar/306abb05994f66b0180a7f3641e2ac68.jpg?s=512&d=https%3A%2F%2Fa.slack-edge.com%2Fdf10d%2Fimg%2Favatars%2Fava_0022-512.png", "custom_css": null}, {"id": 10100, "slack_id": "U09239AUNTD", "display_name": "Muhamad Nabil", "bio": null, "projects_count": 0, "devlogs_count": 0, "votes_count": 0, "ships_count": 0, "projects": [], "coding_time_seconds": 390680, "coding_time_seconds_today": 0, "balance": "You need to have a pocket watcher badge to view this.", "badges": [], "created_at": "2025-06-19T23:20:00.480-04:00", "updated_at": "2025-07-03T19:54:36.239-04:00", "avatar": "https://secure.gravatar.com/avatar/4208d0abdab2c908d7cbf820f6fefc2e.jpg?s=512&d=https%3A%2F%2Fa.slack-edge.com%2Fdf10d%2Fimg%2Favatars%2Fava_0015-512.png", "custom_css": null}], "pagination": {"page": 505, "pages": 1192, "count": 23828, "items": 20}}