{"users": [{"id": 10101, "slack_id": "U09239USN3V", "display_name": "Evandersen Pandji", "bio": null, "projects_count": 0, "devlogs_count": 0, "votes_count": 0, "ships_count": 0, "projects": [], "coding_time_seconds": 0, "coding_time_seconds_today": 0, "balance": "You need to have a pocket watcher badge to view this.", "badges": [], "created_at": "2025-06-19T23:28:35.282-04:00", "updated_at": "2025-07-04T02:29:51.590-04:00", "avatar": "https://secure.gravatar.com/avatar/abb06108a17a8d4d5f969ba599b75ab7.jpg?s=512&d=https%3A%2F%2Fa.slack-edge.com%2Fdf10d%2Fimg%2Favatars%2Fava_0011-512.png", "custom_css": null}, {"id": 10102, "slack_id": "U0923NMP0BG", "display_name": "Alagwudavid", "bio": null, "projects_count": 2, "devlogs_count": 2, "votes_count": 0, "ships_count": 0, "projects": [{"id": 2703, "title": "MailCraft", "devlogs_count": 2, "created_at": "2025-06-21T18:34:49.214-04:00"}, {"id": 3084, "title": "Bucket App", "devlogs_count": 0, "created_at": "2025-06-23T03:27:41.465-04:00"}], "coding_time_seconds": 949024, "coding_time_seconds_today": 0, "balance": "You need to have a pocket watcher badge to view this.", "badges": [], "created_at": "2025-06-19T23:31:37.012-04:00", "updated_at": "2025-08-16T19:00:03.735-04:00", "avatar": "https://secure.gravatar.com/avatar/b6933159256fe8809dcb1d668f7730c6.jpg?s=512&d=https%3A%2F%2Fa.slack-edge.com%2Fdf10d%2Fimg%2Favatars%2Fava_0011-512.png", "custom_css": null}, {"id": 10103, "slack_id": "U092NL0SJAV", "display_name": "JK Gaming", "bio": null, "projects_count": 0, "devlogs_count": 0, "votes_count": 0, "ships_count": 0, "projects": [], "coding_time_seconds": 19465, "coding_time_seconds_today": 0, "balance": "You need to have a pocket watcher badge to view this.", "badges": [], "created_at": "2025-06-19T23:32:26.809-04:00", "updated_at": "2025-07-07T02:12:20.369-04:00", "avatar": "https://secure.gravatar.com/avatar/ee73c73777ffa0c4066fb0099054ac4c.jpg?s=512&d=https%3A%2F%2Fa.slack-edge.com%2Fdf10d%2Fimg%2Favatars%2Fava_0002-512.png", "custom_css": null}, {"id": 10104, "slack_id": "U0923A7PECB", "display_name": "Harsh", "bio": null, "projects_count": 0, "devlogs_count": 0, "votes_count": 0, "ships_count": 0, "projects": [], "coding_time_seconds": 0, "coding_time_seconds_today": 0, "balance": "You need to have a pocket watcher badge to view this.", "badges": [], "created_at": "2025-06-19T23:32:55.474-04:00", "updated_at": "2025-07-03T19:54:37.085-04:00", "avatar": "https://secure.gravatar.com/avatar/953cdfed678d2235262df16dff990b57.jpg?s=512&d=https%3A%2F%2Fa.slack-edge.com%2Fdf10d%2Fimg%2Favatars%2Fava_0000-512.png", "custom_css": null}, {"id": 10105, "slack_id": "U09239V3YTD", "display_name": "Luthfi", "bio": null, "projects_count": 0, "devlogs_count": 0, "votes_count": 0, "ships_count": 0, "projects": [], "coding_time_seconds": 2295, "coding_time_seconds_today": 0, "balance": "You need to have a pocket watcher badge to view this.", "badges": [], "created_at": "2025-06-19T23:38:06.772-04:00", "updated_at": "2025-07-03T19:54:37.358-04:00", "avatar": "https://secure.gravatar.com/avatar/ace84fc85b6d26363e1a7c4ae740efab.jpg?s=512&d=https%3A%2F%2Fa.slack-edge.com%2Fdf10d%2Fimg%2Favatars%2Fava_0012-512.png", "custom_css": null}, {"id": 10106, "slack_id": "U0928SK0C5T", "display_name": "Mreowie", "bio": null, "projects_count": 0, "devlogs_count": 0, "votes_count": 0, "ships_count": 0, "projects": [], "coding_time_seconds": 162042, "coding_time_seconds_today": 8171, "balance": "You need to have a pocket watcher badge to view this.", "badges": [], "created_at": "2025-06-19T23:39:40.756-04:00", "updated_at": "2025-07-04T02:29:51.961-04:00", "avatar": "https://avatars.slack-edge.com/2025-06-19/9090710123265_d5fe8f3427ee14704933_original.jpg", "custom_css": null}, {"id": 10107, "slack_id": "U087HSJ4JV7", "display_name": "David Tian", "bio": null, "projects_count": 0, "devlogs_count": 0, "votes_count": 1, "ships_count": 0, "projects": [], "coding_time_seconds": 26607, "coding_time_seconds_today": 0, "balance": "You need to have a pocket watcher badge to view this.", "badges": [], "created_at": "2025-06-19T23:40:24.915-04:00", "updated_at": "2025-07-10T22:58:27.055-04:00", "avatar": "https://secure.gravatar.com/avatar/ef738d2b2296cd3f9e7880881c2c690d.jpg?s=512&d=https%3A%2F%2Fa.slack-edge.com%2Fdf10d%2Fimg%2Favatars%2Fava_0013-512.png", "custom_css": null}, {"id": 10108, "slack_id": "U0929849VTL", "display_name": "Vu Thanh Trung", "bio": null, "projects_count": 0, "devlogs_count": 0, "votes_count": 0, "ships_count": 0, "projects": [], "coding_time_seconds": 0, "coding_time_seconds_today": 0, "balance": "You need to have a pocket watcher badge to view this.", "badges": [], "created_at": "2025-06-19T23:46:38.686-04:00", "updated_at": "2025-07-03T19:54:38.347-04:00", "avatar": "https://secure.gravatar.com/avatar/445f2d7a7246531762a742d2347b0970.jpg?s=512&d=https%3A%2F%2Fa.slack-edge.com%2Fdf10d%2Fimg%2Favatars%2Fava_0004-512.png", "custom_css": null}, {"id": 10109, "slack_id": "U0923PN6E0N", "display_name": "Franclin Sousa", "bio": null, "projects_count": 0, "devlogs_count": 0, "votes_count": 0, "ships_count": 0, "projects": [], "coding_time_seconds": 0, "coding_time_seconds_today": 0, "balance": "You need to have a pocket watcher badge to view this.", "badges": [], "created_at": "2025-06-19T23:47:06.865-04:00", "updated_at": "2025-07-03T19:54:38.620-04:00", "avatar": "https://avatars.slack-edge.com/2025-06-19/9076935302149_ef90efe32d5a9589874b_original.jpg", "custom_css": null}, {"id": 10110, "slack_id": "U0923BA4QQ3", "display_name": "Rohith Enjety", "bio": null, "projects_count": 0, "devlogs_count": 0, "votes_count": 0, "ships_count": 0, "projects": [], "coding_time_seconds": 1410, "coding_time_seconds_today": 0, "balance": "You need to have a pocket watcher badge to view this.", "badges": [], "created_at": "2025-06-19T23:47:38.539-04:00", "updated_at": "2025-07-03T19:54:38.899-04:00", "avatar": "https://secure.gravatar.com/avatar/38a7ca4fed397c47557806afb3f55d69.jpg?s=512&d=https%3A%2F%2Fa.slack-edge.com%2Fdf10d%2Fimg%2Favatars%2Fava_0007-512.png", "custom_css": null}, {"id": 10111, "slack_id": "U0923B91AHH", "display_name": "Levi Jone", "bio": null, "projects_count": 0, "devlogs_count": 0, "votes_count": 0, "ships_count": 0, "projects": [], "coding_time_seconds": 0, "coding_time_seconds_today": 0, "balance": "You need to have a pocket watcher badge to view this.", "badges": [], "created_at": "2025-06-19T23:48:37.688-04:00", "updated_at": "2025-07-05T02:11:19.606-04:00", "avatar": "https://secure.gravatar.com/avatar/188dbae3f48f8020f6169eb6cd0583c0.jpg?s=512&d=https%3A%2F%2Fa.slack-edge.com%2Fdf10d%2Fimg%2Favatars%2Fava_0018-512.png", "custom_css": null}, {"id": 10112, "slack_id": "U091RC1DNUA", "display_name": "Najeeb", "bio": null, "projects_count": 0, "devlogs_count": 0, "votes_count": 0, "ships_count": 0, "projects": [], "coding_time_seconds": 0, "coding_time_seconds_today": 0, "balance": "You need to have a pocket watcher badge to view this.", "badges": [], "created_at": "2025-06-19T23:50:04.591-04:00", "updated_at": "2025-07-04T02:29:52.399-04:00", "avatar": "https://secure.gravatar.com/avatar/6535899ef1407d93be400dc392905630.jpg?s=512&d=https%3A%2F%2Fa.slack-edge.com%2Fdf10d%2Fimg%2Favatars%2Fava_0022-512.png", "custom_css": null}, {"id": 10113, "slack_id": "U0921NT2ZJS", "display_name": "kinglove", "bio": null, "projects_count": 0, "devlogs_count": 0, "votes_count": 0, "ships_count": 0, "projects": [], "coding_time_seconds": 112847, "coding_time_seconds_today": 0, "balance": "You need to have a pocket watcher badge to view this.", "badges": [], "created_at": "2025-06-19T23:50:42.808-04:00", "updated_at": "2025-07-05T02:11:19.746-04:00", "avatar": "https://secure.gravatar.com/avatar/2659ed8d83870e82c10bef2a355b3a66.jpg?s=512&d=https%3A%2F%2Fa.slack-edge.com%2Fdf10d%2Fimg%2Favatars%2Fava_0010-512.png", "custom_css": null}, {"id": 10114, "slack_id": "U091V4QJAH5", "display_name": "Werty", "bio": null, "projects_count": 0, "devlogs_count": 0, "votes_count": 0, "ships_count": 0, "projects": [], "coding_time_seconds": 0, "coding_time_seconds_today": 0, "balance": "You need to have a pocket watcher badge to view this.", "badges": [], "created_at": "2025-06-19T23:53:09.894-04:00", "updated_at": "2025-07-04T02:29:52.600-04:00", "avatar": "https://secure.gravatar.com/avatar/37fb9a37a9a0f397b2c50194a3f6ac42.jpg?s=512&d=https%3A%2F%2Fa.slack-edge.com%2Fdf10d%2Fimg%2Favatars%2Fava_0017-512.png", "custom_css": null}, {"id": 10115, "slack_id": "U092NMNG7DF", "display_name": "saa938", "bio": null, "projects_count": 0, "devlogs_count": 0, "votes_count": 0, "ships_count": 0, "projects": [], "coding_time_seconds": 14631, "coding_time_seconds_today": 0, "balance": "You need to have a pocket watcher badge to view this.", "badges": [], "created_at": "2025-06-19T23:55:07.962-04:00", "updated_at": "2025-07-03T22:00:34.639-04:00", "avatar": "https://secure.gravatar.com/avatar/e1c9965a16497b9a0df1547317feff45.jpg?s=512&d=https%3A%2F%2Fa.slack-edge.com%2Fdf10d%2Fimg%2Favatars%2Fava_0009-512.png", "custom_css": null}, {"id": 10116, "slack_id": "U0745EDC53L", "display_name": "fbn", "bio": null, "projects_count": 1, "devlogs_count": 2, "votes_count": 0, "ships_count": 0, "projects": [{"id": 2035, "title": "ExpressCraft", "devlogs_count": 2, "created_at": "2025-06-20T00:23:20.743-04:00"}], "coding_time_seconds": 10917, "coding_time_seconds_today": 0, "balance": "You need to have a pocket watcher badge to view this.", "badges": [], "created_at": "2025-06-19T23:56:00.381-04:00", "updated_at": "2025-07-03T19:54:39.838-04:00", "avatar": "https://avatars.slack-edge.com/2024-05-19/7138695488885_04737675998f738085f9_original.png", "custom_css": null}, {"id": 10117, "slack_id": "U092A805AS0", "display_name": "anonymous", "bio": null, "projects_count": 0, "devlogs_count": 0, "votes_count": 0, "ships_count": 0, "projects": [], "coding_time_seconds": 0, "coding_time_seconds_today": 0, "balance": "You need to have a pocket watcher badge to view this.", "badges": [], "created_at": "2025-06-20T00:01:20.446-04:00", "updated_at": "2025-07-03T19:54:40.105-04:00", "avatar": "https://secure.gravatar.com/avatar/ef0af43d165f761263569fbe92c9cc11.jpg?s=512&d=https%3A%2F%2Fa.slack-edge.com%2Fdf10d%2Fimg%2Favatars%2Fava_0011-512.png", "custom_css": null}, {"id": 10118, "slack_id": "U092YC4GF96", "display_name": "jay doshi", "bio": null, "projects_count": 0, "devlogs_count": 0, "votes_count": 0, "ships_count": 0, "projects": [], "coding_time_seconds": 0, "coding_time_seconds_today": 0, "balance": "You need to have a pocket watcher badge to view this.", "badges": [], "created_at": "2025-06-20T00:01:37.013-04:00", "updated_at": "2025-07-03T22:00:34.870-04:00", "avatar": "https://secure.gravatar.com/avatar/0074eae333e675bac924b4c0548ec1bb.jpg?s=512&d=https%3A%2F%2Fa.slack-edge.com%2Fdf10d%2Fimg%2Favatars%2Fava_0007-512.png", "custom_css": null}, {"id": 10119, "slack_id": "U092A5ZDJVA", "display_name": "Dinesh  P", "bio": null, "projects_count": 0, "devlogs_count": 0, "votes_count": 0, "ships_count": 0, "projects": [], "coding_time_seconds": 0, "coding_time_seconds_today": 0, "balance": "You need to have a pocket watcher badge to view this.", "badges": [], "created_at": "2025-06-20T00:04:22.072-04:00", "updated_at": "2025-07-03T22:00:34.966-04:00", "avatar": "https://secure.gravatar.com/avatar/7cce0c752392cebf0a22af83ca69bec5.jpg?s=512&d=https%3A%2F%2Fa.slack-edge.com%2Fdf10d%2Fimg%2Favatars%2Fava_0025-512.png", "custom_css": null}, {"id": 10120, "slack_id": "U0929RBT9GA", "display_name": "mel k", "bio": null, "projects_count": 0, "devlogs_count": 0, "votes_count": 0, "ships_count": 0, "projects": [], "coding_time_seconds": 0, "coding_time_seconds_today": 0, "balance": "You need to have a pocket watcher badge to view this.", "badges": [], "created_at": "2025-06-20T00:05:44.971-04:00", "updated_at": "2025-07-03T19:54:40.669-04:00", "avatar": "https://avatars.slack-edge.com/2025-06-19/9063254431383_6c76c9c61942a13ab720_original.png", "custom_css": null}], "pagination": {"page": 506, "pages": 1192, "count": 23828, "items": 20}}