{"users": [{"id": 10121, "slack_id": "U0929RBNHD0", "display_name": "Hasini", "bio": null, "projects_count": 0, "devlogs_count": 0, "votes_count": 0, "ships_count": 0, "projects": [], "coding_time_seconds": 6791, "coding_time_seconds_today": 0, "balance": "You need to have a pocket watcher badge to view this.", "badges": [], "created_at": "2025-06-20T00:06:41.606-04:00", "updated_at": "2025-07-06T20:11:40.554-04:00", "avatar": "https://secure.gravatar.com/avatar/b246545c0ec7f2449c4006ada9bbb387.jpg?s=512&d=https%3A%2F%2Fa.slack-edge.com%2Fdf10d%2Fimg%2Favatars%2Fava_0019-512.png", "custom_css": null}, {"id": 10122, "slack_id": "U0924PSPDU5", "display_name": "Rounak", "bio": null, "projects_count": 1, "devlogs_count": 0, "votes_count": 0, "ships_count": 0, "projects": [{"id": 3417, "title": "Learning Python Basics", "devlogs_count": 0, "created_at": "2025-06-24T06:44:42.866-04:00"}], "coding_time_seconds": 3753, "coding_time_seconds_today": 0, "balance": "You need to have a pocket watcher badge to view this.", "badges": [], "created_at": "2025-06-20T00:13:11.688-04:00", "updated_at": "2025-08-28T15:21:12.357-04:00", "avatar": "https://secure.gravatar.com/avatar/de05f36c398e1d74e6806855b34cd3dc.jpg?s=512&d=https%3A%2F%2Fa.slack-edge.com%2Fdf10d%2Fimg%2Favatars%2Fava_0024-512.png", "custom_css": null}, {"id": 10123, "slack_id": "U092A98RHC4", "display_name": "Shawnxe", "bio": null, "projects_count": 0, "devlogs_count": 0, "votes_count": 0, "ships_count": 0, "projects": [], "coding_time_seconds": 0, "coding_time_seconds_today": 0, "balance": "You need to have a pocket watcher badge to view this.", "badges": [], "created_at": "2025-06-20T00:17:45.575-04:00", "updated_at": "2025-07-03T19:54:41.196-04:00", "avatar": "https://secure.gravatar.com/avatar/3bf8b203997ce96478aab83be17176ef.jpg?s=512&d=https%3A%2F%2Fa.slack-edge.com%2Fdf10d%2Fimg%2Favatars%2Fava_0010-512.png", "custom_css": null}, {"id": 10124, "slack_id": "U092YDKFDFA", "display_name": "Asher Holmberg", "bio": null, "projects_count": 0, "devlogs_count": 0, "votes_count": 0, "ships_count": 0, "projects": [], "coding_time_seconds": 0, "coding_time_seconds_today": 0, "balance": "You need to have a pocket watcher badge to view this.", "badges": [], "created_at": "2025-06-20T00:23:07.479-04:00", "updated_at": "2025-07-03T19:54:41.460-04:00", "avatar": "https://secure.gravatar.com/avatar/3f082d23a5391d447fa3f0368236ae09.jpg?s=512&d=https%3A%2F%2Fa.slack-edge.com%2Fdf10d%2Fimg%2Favatars%2Fava_0017-512.png", "custom_css": null}, {"id": 10125, "slack_id": "U08PPGL2LAG", "display_name": "Ethan Huang", "bio": null, "projects_count": 0, "devlogs_count": 0, "votes_count": 0, "ships_count": 0, "projects": [], "coding_time_seconds": 20266, "coding_time_seconds_today": 0, "balance": "You need to have a pocket watcher badge to view this.", "badges": [], "created_at": "2025-06-20T00:23:28.530-04:00", "updated_at": "2025-07-04T08:26:10.388-04:00", "avatar": "https://secure.gravatar.com/avatar/0dcbabaf615da7c5b9c3aec3dc9c7f95.jpg?s=512&d=https%3A%2F%2Fa.slack-edge.com%2Fdf10d%2Fimg%2Favatars%2Fava_0012-512.png", "custom_css": null}, {"id": 10126, "slack_id": "U0929SM25TL", "display_name": "Venkatesan", "bio": null, "projects_count": 0, "devlogs_count": 0, "votes_count": 0, "ships_count": 0, "projects": [], "coding_time_seconds": 0, "coding_time_seconds_today": 0, "balance": "You need to have a pocket watcher badge to view this.", "badges": [], "created_at": "2025-06-20T00:25:05.004-04:00", "updated_at": "2025-07-03T19:54:41.863-04:00", "avatar": "https://secure.gravatar.com/avatar/6daf30a1abb7fdd7c7f0bd3e1ac07146.jpg?s=512&d=https%3A%2F%2Fa.slack-edge.com%2Fdf10d%2Fimg%2Favatars%2Fava_0012-512.png", "custom_css": null}, {"id": 10127, "slack_id": "U092917CSCD", "display_name": "Kamal", "bio": null, "projects_count": 0, "devlogs_count": 0, "votes_count": 0, "ships_count": 0, "projects": [], "coding_time_seconds": 0, "coding_time_seconds_today": 0, "balance": "You need to have a pocket watcher badge to view this.", "badges": [], "created_at": "2025-06-20T00:25:53.498-04:00", "updated_at": "2025-07-03T19:54:42.124-04:00", "avatar": "https://secure.gravatar.com/avatar/6d3fbeeb74580b81196bfe204b4c59ca.jpg?s=512&d=https%3A%2F%2Fa.slack-edge.com%2Fdf10d%2Fimg%2Favatars%2Fava_0018-512.png", "custom_css": null}, {"id": 10128, "slack_id": "U0923E2KMK5", "display_name": "Srushti", "bio": null, "projects_count": 0, "devlogs_count": 0, "votes_count": 0, "ships_count": 0, "projects": [], "coding_time_seconds": 0, "coding_time_seconds_today": 0, "balance": "You need to have a pocket watcher badge to view this.", "badges": [], "created_at": "2025-06-20T00:26:07.416-04:00", "updated_at": "2025-07-03T19:54:42.388-04:00", "avatar": "https://avatars.slack-edge.com/2025-06-19/9071490319715_b599eb8ae76356885a49_original.png", "custom_css": null}, {"id": 10129, "slack_id": "U0923SLLZ5L", "display_name": "Ayush", "bio": null, "projects_count": 2, "devlogs_count": 0, "votes_count": 0, "ships_count": 0, "projects": [{"id": 2063, "title": "Cropdeal", "devlogs_count": 0, "created_at": "2025-06-20T03:21:40.752-04:00"}, {"id": 2447, "title": "The bad guys 2 website", "devlogs_count": 0, "created_at": "2025-06-21T03:48:22.198-04:00"}], "coding_time_seconds": 5072, "coding_time_seconds_today": 0, "balance": "You need to have a pocket watcher badge to view this.", "badges": [], "created_at": "2025-06-20T00:26:57.464-04:00", "updated_at": "2025-07-03T19:54:42.659-04:00", "avatar": "https://secure.gravatar.com/avatar/e529bb6f2bc3f221368edcdc6568bc63.jpg?s=512&d=https%3A%2F%2Fa.slack-edge.com%2Fdf10d%2Fimg%2Favatars%2Fava_0012-512.png", "custom_css": null}, {"id": 10130, "slack_id": "U08B8LTV9FX", "display_name": "Yorukot", "bio": null, "projects_count": 1, "devlogs_count": 1, "votes_count": 0, "ships_count": 0, "projects": [{"id": 4855, "title": "superfile", "devlogs_count": 1, "created_at": "2025-07-01T23:39:50.374-04:00"}], "coding_time_seconds": 809918, "coding_time_seconds_today": 301, "balance": "You need to have a pocket watcher badge to view this.", "badges": [], "created_at": "2025-06-20T00:27:02.923-04:00", "updated_at": "2025-08-14T23:14:46.453-04:00", "avatar": "https://avatars.slack-edge.com/2025-02-01/8388065458836_596b6160c3b095c18b11_original.jpg", "custom_css": null}, {"id": 10131, "slack_id": "U0928G2M03B", "display_name": "Deepak", "bio": null, "projects_count": 0, "devlogs_count": 0, "votes_count": 0, "ships_count": 0, "projects": [], "coding_time_seconds": 0, "coding_time_seconds_today": 0, "balance": "You need to have a pocket watcher badge to view this.", "badges": [], "created_at": "2025-06-20T00:31:41.828-04:00", "updated_at": "2025-07-03T19:54:43.200-04:00", "avatar": "https://secure.gravatar.com/avatar/c81f7a7cded0f3ee331567f57ac17ae8.jpg?s=512&d=https%3A%2F%2Fa.slack-edge.com%2Fdf10d%2Fimg%2Favatars%2Fava_0017-512.png", "custom_css": null}, {"id": 10132, "slack_id": "U092NMRPW65", "display_name": "Alson", "bio": null, "projects_count": 0, "devlogs_count": 0, "votes_count": 0, "ships_count": 0, "projects": [], "coding_time_seconds": 0, "coding_time_seconds_today": 0, "balance": "You need to have a pocket watcher badge to view this.", "badges": [], "created_at": "2025-06-20T00:32:23.563-04:00", "updated_at": "2025-07-06T02:12:34.081-04:00", "avatar": "https://secure.gravatar.com/avatar/4bdf356a83be15f0cfcbdd6675a1af21.jpg?s=512&d=https%3A%2F%2Fa.slack-edge.com%2Fdf10d%2Fimg%2Favatars%2Fava_0022-512.png", "custom_css": null}, {"id": 10133, "slack_id": "U092NQNT7GR", "display_name": "Rushi", "bio": null, "projects_count": 0, "devlogs_count": 0, "votes_count": 0, "ships_count": 0, "projects": [], "coding_time_seconds": 0, "coding_time_seconds_today": 0, "balance": "You need to have a pocket watcher badge to view this.", "badges": [], "created_at": "2025-06-20T00:33:55.733-04:00", "updated_at": "2025-07-03T22:00:35.876-04:00", "avatar": "https://secure.gravatar.com/avatar/3e38ca3afddff55aca7e186d6d4b20ce.jpg?s=512&d=https%3A%2F%2Fa.slack-edge.com%2Fdf10d%2Fimg%2Favatars%2Fava_0009-512.png", "custom_css": null}, {"id": 10134, "slack_id": "U0923TG705C", "display_name": "Kishor Kunwar", "bio": null, "projects_count": 0, "devlogs_count": 0, "votes_count": 0, "ships_count": 0, "projects": [], "coding_time_seconds": 3186, "coding_time_seconds_today": 0, "balance": "You need to have a pocket watcher badge to view this.", "badges": [], "created_at": "2025-06-20T00:35:19.922-04:00", "updated_at": "2025-07-05T02:11:20.979-04:00", "avatar": "https://avatars.slack-edge.com/2025-06-19/9090855335777_1dc62e7faa294b295992_original.jpg", "custom_css": null}, {"id": 10135, "slack_id": "U092YEVES5N", "display_name": "Alson", "bio": null, "projects_count": 0, "devlogs_count": 0, "votes_count": 0, "ships_count": 0, "projects": [], "coding_time_seconds": 0, "coding_time_seconds_today": 0, "balance": "You need to have a pocket watcher badge to view this.", "badges": [], "created_at": "2025-06-20T00:35:41.965-04:00", "updated_at": "2025-07-03T19:54:43.874-04:00", "avatar": "https://secure.gravatar.com/avatar/064504b983b4ac9e5613e3b1566bea56.jpg?s=512&d=https%3A%2F%2Fa.slack-edge.com%2Fdf10d%2Fimg%2Favatars%2Fava_0019-512.png", "custom_css": null}, {"id": 10136, "slack_id": "U0923TEF214", "display_name": "Tea.", "bio": null, "projects_count": 0, "devlogs_count": 0, "votes_count": 0, "ships_count": 0, "projects": [], "coding_time_seconds": 0, "coding_time_seconds_today": 0, "balance": "You need to have a pocket watcher badge to view this.", "badges": [], "created_at": "2025-06-20T00:36:42.700-04:00", "updated_at": "2025-07-04T08:26:11.246-04:00", "avatar": "https://secure.gravatar.com/avatar/cebee11a85c5a165832a69ae6e231355.jpg?s=512&d=https%3A%2F%2Fa.slack-edge.com%2Fdf10d%2Fimg%2Favatars%2Fava_0010-512.png", "custom_css": null}, {"id": 10137, "slack_id": "U0929U43KHQ", "display_name": "Nisha Kumari", "bio": null, "projects_count": 3, "devlogs_count": 12, "votes_count": 3, "ships_count": 3, "projects": [{"id": 2039, "title": "quiz website", "devlogs_count": 10, "created_at": "2025-06-20T00:56:03.372-04:00"}, {"id": 2748, "title": "Zerodha UI clone Only( No Backend Integration )", "devlogs_count": 1, "created_at": "2025-06-21T23:45:28.832-04:00"}, {"id": 2746, "title": " portfolio", "devlogs_count": 1, "created_at": "2025-06-21T23:40:38.522-04:00"}], "coding_time_seconds": 83672, "coding_time_seconds_today": 0, "balance": "You need to have a pocket watcher badge to view this.", "badges": [{"name": "Maiden Voyage", "text": "you shipped your first project! the journey begins...", "icon": "\ud83d\udea2"}], "created_at": "2025-06-20T00:40:22.297-04:00", "updated_at": "2025-09-10T22:56:13.477-04:00", "avatar": "https://secure.gravatar.com/avatar/d6fe9225838099b1c364917c015736f6.jpg?s=512&d=https%3A%2F%2Fa.slack-edge.com%2Fdf10d%2Fimg%2Favatars%2Fava_0021-512.png", "custom_css": null}, {"id": 10138, "slack_id": "U0923U7EC8N", "display_name": "Lenny B", "bio": null, "projects_count": 0, "devlogs_count": 0, "votes_count": 0, "ships_count": 0, "projects": [], "coding_time_seconds": 0, "coding_time_seconds_today": 0, "balance": "You need to have a pocket watcher badge to view this.", "badges": [], "created_at": "2025-06-20T00:44:51.168-04:00", "updated_at": "2025-07-03T19:54:44.540-04:00", "avatar": "https://secure.gravatar.com/avatar/4e9a8dd1812854268ae8ba8501526fe6.jpg?s=512&d=https%3A%2F%2Fa.slack-edge.com%2Fdf10d%2Fimg%2Favatars%2Fava_0026-512.png", "custom_css": null}, {"id": 10139, "slack_id": "U091VAF9H7H", "display_name": "Abigail (Abbie)", "bio": null, "projects_count": 0, "devlogs_count": 0, "votes_count": 0, "ships_count": 0, "projects": [], "coding_time_seconds": 0, "coding_time_seconds_today": 0, "balance": "You need to have a pocket watcher badge to view this.", "badges": [], "created_at": "2025-06-20T00:48:29.982-04:00", "updated_at": "2025-07-04T20:10:49.010-04:00", "avatar": "https://avatars.slack-edge.com/2025-06-19/9077122504549_ed478dc8d6e4f9fe77b7_original.png", "custom_css": null}, {"id": 10140, "slack_id": "U09224Z8AJE", "display_name": "Abdullah", "bio": null, "projects_count": 0, "devlogs_count": 0, "votes_count": 0, "ships_count": 0, "projects": [], "coding_time_seconds": 0, "coding_time_seconds_today": 0, "balance": "You need to have a pocket watcher badge to view this.", "badges": [], "created_at": "2025-06-20T00:49:33.914-04:00", "updated_at": "2025-07-06T02:12:34.847-04:00", "avatar": "https://secure.gravatar.com/avatar/135cc8c289a58527ebd443a409f4dc93.jpg?s=512&d=https%3A%2F%2Fa.slack-edge.com%2Fdf10d%2Fimg%2Favatars%2Fava_0017-512.png", "custom_css": null}], "pagination": {"page": 507, "pages": 1192, "count": 23828, "items": 20}}