{"users": [{"id": 10141, "slack_id": "U091VAW6QET", "display_name": "Kristian Minchev", "bio": null, "projects_count": 0, "devlogs_count": 0, "votes_count": 0, "ships_count": 0, "projects": [], "coding_time_seconds": 0, "coding_time_seconds_today": 0, "balance": "You need to have a pocket watcher badge to view this.", "badges": [], "created_at": "2025-06-20T00:54:03.001-04:00", "updated_at": "2025-07-03T19:54:45.083-04:00", "avatar": "https://avatars.slack-edge.com/2025-06-19/9063382496599_f610909e7af7d77d0b84_original.png", "custom_css": null}, {"id": 10142, "slack_id": "U0923V0MP8E", "display_name": "Krishna Thakar", "bio": null, "projects_count": 0, "devlogs_count": 0, "votes_count": 0, "ships_count": 0, "projects": [], "coding_time_seconds": 0, "coding_time_seconds_today": 0, "balance": "You need to have a pocket watcher badge to view this.", "badges": [], "created_at": "2025-06-20T00:55:38.370-04:00", "updated_at": "2025-07-03T19:54:45.355-04:00", "avatar": "https://avatars.slack-edge.com/2025-06-19/9078008587266_e3e523d6d3526ced383c_original.png", "custom_css": null}, {"id": 10143, "slack_id": "U092AC62LUU", "display_name": "HoangNhism", "bio": null, "projects_count": 0, "devlogs_count": 0, "votes_count": 0, "ships_count": 0, "projects": [], "coding_time_seconds": 0, "coding_time_seconds_today": 0, "balance": "You need to have a pocket watcher badge to view this.", "badges": [], "created_at": "2025-06-20T00:55:53.182-04:00", "updated_at": "2025-07-07T08:11:14.632-04:00", "avatar": "https://secure.gravatar.com/avatar/2045370bb8b2f156c4942e76bc5c8171.jpg?s=512&d=https%3A%2F%2Fa.slack-edge.com%2Fdf10d%2Fimg%2Favatars%2Fava_0015-512.png", "custom_css": null}, {"id": 10144, "slack_id": "U092NSPCJF3", "display_name": "Nilay Mehta", "bio": null, "projects_count": 0, "devlogs_count": 0, "votes_count": 0, "ships_count": 0, "projects": [], "coding_time_seconds": 0, "coding_time_seconds_today": 0, "balance": "You need to have a pocket watcher badge to view this.", "badges": [], "created_at": "2025-06-20T00:59:50.034-04:00", "updated_at": "2025-07-04T08:26:11.796-04:00", "avatar": "https://secure.gravatar.com/avatar/ba852b18846ade8e116ae7aa3c5010a3.jpg?s=512&d=https%3A%2F%2Fa.slack-edge.com%2Fdf10d%2Fimg%2Favatars%2Fava_0021-512.png", "custom_css": null}, {"id": 10145, "slack_id": "U092ACCHNTE", "display_name": "Mohamed El Sayed Abdel Raouf El Sayed", "bio": null, "projects_count": 0, "devlogs_count": 0, "votes_count": 0, "ships_count": 0, "projects": [], "coding_time_seconds": 0, "coding_time_seconds_today": 0, "balance": "You need to have a pocket watcher badge to view this.", "badges": [], "created_at": "2025-06-20T01:00:17.696-04:00", "updated_at": "2025-07-05T08:11:43.605-04:00", "avatar": "https://avatars.slack-edge.com/2025-06-20/9090932492545_e1b841b5e316f144d541_original.jpg", "custom_css": null}, {"id": 10146, "slack_id": "U092YHBQTEC", "display_name": "Kar", "bio": null, "projects_count": 0, "devlogs_count": 0, "votes_count": 0, "ships_count": 0, "projects": [], "coding_time_seconds": 66562, "coding_time_seconds_today": 0, "balance": "You need to have a pocket watcher badge to view this.", "badges": [], "created_at": "2025-06-20T01:05:09.089-04:00", "updated_at": "2025-07-03T19:54:46.017-04:00", "avatar": "https://avatars.slack-edge.com/2025-06-19/9077180592245_530a6178297ca071620c_original.png", "custom_css": null}, {"id": 10147, "slack_id": "U0923H5FQMR", "display_name": "Najam Ali Abass", "bio": null, "projects_count": 0, "devlogs_count": 0, "votes_count": 0, "ships_count": 0, "projects": [], "coding_time_seconds": 0, "coding_time_seconds_today": 0, "balance": "You need to have a pocket watcher badge to view this.", "badges": [], "created_at": "2025-06-20T01:05:13.222-04:00", "updated_at": "2025-07-03T19:54:46.286-04:00", "avatar": "https://avatars.slack-edge.com/2025-06-19/9071595709219_1afe2d15c73c27c21142_original.jpg", "custom_css": null}, {"id": 10148, "slack_id": "U092YF30CUQ", "display_name": "Tanvir Chowdhury", "bio": null, "projects_count": 0, "devlogs_count": 0, "votes_count": 0, "ships_count": 0, "projects": [], "coding_time_seconds": 0, "coding_time_seconds_today": 0, "balance": "You need to have a pocket watcher badge to view this.", "badges": [], "created_at": "2025-06-20T01:05:50.885-04:00", "updated_at": "2025-07-03T19:54:46.544-04:00", "avatar": "https://avatars.slack-edge.com/2025-06-19/9077182279237_92afe3c180bda50e1421_original.png", "custom_css": null}, {"id": 10149, "slack_id": "U092A10CYH0", "display_name": "Sahithya Hegde", "bio": null, "projects_count": 0, "devlogs_count": 0, "votes_count": 0, "ships_count": 0, "projects": [], "coding_time_seconds": 0, "coding_time_seconds_today": 0, "balance": "You need to have a pocket watcher badge to view this.", "badges": [], "created_at": "2025-06-20T01:08:26.689-04:00", "updated_at": "2025-07-03T19:54:46.819-04:00", "avatar": "https://secure.gravatar.com/avatar/c556689b5bc82aa80d23dccfacbf6cdb.jpg?s=512&d=https%3A%2F%2Fa.slack-edge.com%2Fdf10d%2Fimg%2Favatars%2Fava_0019-512.png", "custom_css": null}, {"id": 10150, "slack_id": "U08FN9KBS3U", "display_name": "Samy", "bio": null, "projects_count": 1, "devlogs_count": 1, "votes_count": 17, "ships_count": 1, "projects": [{"id": 10453, "title": "Versort", "devlogs_count": 1, "created_at": "2025-08-07T06:08:26.618-04:00"}], "coding_time_seconds": 155648, "coding_time_seconds_today": 0, "balance": "You need to have a pocket watcher badge to view this.", "badges": [{"name": "Maiden Voyage", "text": "you shipped your first project! the journey begins...", "icon": "\ud83d\udea2"}], "created_at": "2025-06-20T01:10:57.602-04:00", "updated_at": "2025-09-10T22:56:14.074-04:00", "avatar": "https://avatars.slack-edge.com/2025-03-01/8542679851345_baf5472b941529730e0f_original.jpg", "custom_css": null}, {"id": 10151, "slack_id": "U09295F46R3", "display_name": "Sazidul", "bio": null, "projects_count": 0, "devlogs_count": 0, "votes_count": 0, "ships_count": 0, "projects": [], "coding_time_seconds": 0, "coding_time_seconds_today": 0, "balance": "You need to have a pocket watcher badge to view this.", "badges": [], "created_at": "2025-06-20T01:11:08.266-04:00", "updated_at": "2025-07-03T19:54:47.350-04:00", "avatar": "https://secure.gravatar.com/avatar/6a82e54c3c6452f91eb1567e8d706f26.jpg?s=512&d=https%3A%2F%2Fa.slack-edge.com%2Fdf10d%2Fimg%2Favatars%2Fava_0023-512.png", "custom_css": null}, {"id": 10152, "slack_id": "U091T7NAXL6", "display_name": "Rajdeep Sarker", "bio": null, "projects_count": 0, "devlogs_count": 0, "votes_count": 0, "ships_count": 0, "projects": [], "coding_time_seconds": 0, "coding_time_seconds_today": 0, "balance": "You need to have a pocket watcher badge to view this.", "badges": [], "created_at": "2025-06-20T01:14:05.453-04:00", "updated_at": "2025-07-03T19:54:47.612-04:00", "avatar": "https://secure.gravatar.com/avatar/ca0a94856d00e27526c805704e1c56e7.jpg?s=512&d=https%3A%2F%2Fa.slack-edge.com%2Fdf10d%2Fimg%2Favatars%2Fava_0004-512.png", "custom_css": null}, {"id": 10153, "slack_id": "U092NU1LBC1", "display_name": "Nishitha", "bio": null, "projects_count": 0, "devlogs_count": 0, "votes_count": 0, "ships_count": 0, "projects": [], "coding_time_seconds": 0, "coding_time_seconds_today": 0, "balance": "You need to have a pocket watcher badge to view this.", "badges": [], "created_at": "2025-06-20T01:15:04.606-04:00", "updated_at": "2025-07-03T22:00:37.163-04:00", "avatar": "https://secure.gravatar.com/avatar/0e991543448174ff54d68323ff874c70.jpg?s=512&d=https%3A%2F%2Fa.slack-edge.com%2Fdf10d%2Fimg%2Favatars%2Fava_0020-512.png", "custom_css": null}, {"id": 10154, "slack_id": "U092963617X", "display_name": "GT", "bio": null, "projects_count": 0, "devlogs_count": 0, "votes_count": 0, "ships_count": 0, "projects": [], "coding_time_seconds": 15575, "coding_time_seconds_today": 0, "balance": "You need to have a pocket watcher badge to view this.", "badges": [], "created_at": "2025-06-20T01:17:49.454-04:00", "updated_at": "2025-07-03T19:54:48.210-04:00", "avatar": "https://secure.gravatar.com/avatar/00dbab3bb4101e817ae70e89ec6408e3.jpg?s=512&d=https%3A%2F%2Fa.slack-edge.com%2Fdf10d%2Fimg%2Favatars%2Fava_0015-512.png", "custom_css": null}, {"id": 10155, "slack_id": "U091VCY54BH", "display_name": "Prince Vaviya", "bio": "I am a student and i am here to explore the platform", "projects_count": 1, "devlogs_count": 1, "votes_count": 20, "ships_count": 1, "projects": [{"id": 10365, "title": "X-O GAME", "devlogs_count": 1, "created_at": "2025-08-06T09:59:35.742-04:00"}], "coding_time_seconds": 104065, "coding_time_seconds_today": 0, "balance": "You need to have a pocket watcher badge to view this.", "badges": [{"name": "Maiden Voyage", "text": "you shipped your first project! the journey begins...", "icon": "\ud83d\udea2"}], "created_at": "2025-06-20T01:17:54.607-04:00", "updated_at": "2025-09-10T22:56:14.199-04:00", "avatar": "https://avatars.slack-edge.com/2025-06-19/9077221035573_b4d639afa37df4d58da7_original.png", "custom_css": null}, {"id": 10156, "slack_id": "U08TGBLK7JB", "display_name": "Space_Duck", "bio": null, "projects_count": 1, "devlogs_count": 0, "votes_count": 0, "ships_count": 0, "projects": [{"id": 2140, "title": "Flashing Heart", "devlogs_count": 0, "created_at": "2025-06-20T09:06:48.038-04:00"}], "coding_time_seconds": 4363, "coding_time_seconds_today": 0, "balance": "You need to have a pocket watcher badge to view this.", "badges": [], "created_at": "2025-06-20T01:18:04.059-04:00", "updated_at": "2025-07-03T19:54:48.733-04:00", "avatar": "https://avatars.slack-edge.com/2025-06-07/9014513770805_3487b3fa52310311573c_original.png", "custom_css": null}, {"id": 10157, "slack_id": "U092966HCLD", "display_name": "leonardomedranotorres", "bio": null, "projects_count": 0, "devlogs_count": 0, "votes_count": 0, "ships_count": 0, "projects": [], "coding_time_seconds": 0, "coding_time_seconds_today": 0, "balance": "You need to have a pocket watcher badge to view this.", "badges": [], "created_at": "2025-06-20T01:18:15.349-04:00", "updated_at": "2025-07-03T19:54:48.994-04:00", "avatar": "https://secure.gravatar.com/avatar/4106308ab89ce99d3e2f250ae994ae04.jpg?s=512&d=https%3A%2F%2Fa.slack-edge.com%2Fdf10d%2Fimg%2Favatars%2Fava_0014-512.png", "custom_css": null}, {"id": 10158, "slack_id": "U091VCT09CP", "display_name": "Shaurya Singh", "bio": null, "projects_count": 0, "devlogs_count": 0, "votes_count": 0, "ships_count": 0, "projects": [], "coding_time_seconds": 0, "coding_time_seconds_today": 0, "balance": "You need to have a pocket watcher badge to view this.", "badges": [], "created_at": "2025-06-20T01:18:42.639-04:00", "updated_at": "2025-07-03T19:54:49.255-04:00", "avatar": "https://secure.gravatar.com/avatar/60049b2b44da705cd7053f2bb897efa1.jpg?s=512&d=https%3A%2F%2Fa.slack-edge.com%2Fdf10d%2Fimg%2Favatars%2Fava_0008-512.png", "custom_css": null}, {"id": 10159, "slack_id": "U092NUGHYRF", "display_name": "Neeraj Meena", "bio": null, "projects_count": 0, "devlogs_count": 0, "votes_count": 0, "ships_count": 0, "projects": [], "coding_time_seconds": 0, "coding_time_seconds_today": 0, "balance": "You need to have a pocket watcher badge to view this.", "badges": [], "created_at": "2025-06-20T01:18:46.809-04:00", "updated_at": "2025-09-06T08:12:09.594-04:00", "avatar": "https://avatars.slack-edge.com/2025-06-19/9063455305703_48c0ba7dac94759f7021_original.jpg", "custom_css": null}, {"id": 10160, "slack_id": "U092YJHEAJC", "display_name": "codemintah", "bio": null, "projects_count": 0, "devlogs_count": 0, "votes_count": 0, "ships_count": 0, "projects": [], "coding_time_seconds": 0, "coding_time_seconds_today": 0, "balance": "You need to have a pocket watcher badge to view this.", "badges": [], "created_at": "2025-06-20T01:18:53.997-04:00", "updated_at": "2025-07-03T19:54:49.786-04:00", "avatar": "https://secure.gravatar.com/avatar/1f4ff3a703d76d2cbce886ba5f4ecfb3.jpg?s=512&d=https%3A%2F%2Fa.slack-edge.com%2Fdf10d%2Fimg%2Favatars%2Fava_0003-512.png", "custom_css": null}], "pagination": {"page": 508, "pages": 1192, "count": 23828, "items": 20}}