{"users": [{"id": 10161, "slack_id": "U07A1GL1VNG", "display_name": "Siva S", "bio": null, "projects_count": 7, "devlogs_count": 12, "votes_count": 20, "ships_count": 3, "projects": [{"id": 8394, "title": "Turret ", "devlogs_count": 0, "created_at": "2025-07-26T19:56:15.483-04:00"}, {"id": 10041, "title": "Reaction Test", "devlogs_count": 0, "created_at": "2025-08-03T16:28:02.446-04:00"}, {"id": 11201, "title": "Mac Mini Wall Mount", "devlogs_count": 3, "created_at": "2025-08-14T02:42:25.518-04:00"}, {"id": 11314, "title": "Door Handle Replacement ", "devlogs_count": 0, "created_at": "2025-08-14T21:24:43.390-04:00"}, {"id": 8397, "title": "Lego Key Switch", "devlogs_count": 3, "created_at": "2025-07-26T20:21:48.153-04:00"}, {"id": 9111, "title": "Pinewood Derby Club Scouts", "devlogs_count": 3, "created_at": "2025-07-30T16:17:58.110-04:00"}, {"id": 10721, "title": "Custom Drive Train", "devlogs_count": 3, "created_at": "2025-08-10T03:34:39.545-04:00"}], "coding_time_seconds": 198262, "coding_time_seconds_today": 0, "balance": "You need to have a pocket watcher badge to view this.", "badges": [{"name": "Maiden Voyage", "text": "you shipped your first project! the journey begins...", "icon": "\ud83d\udea2"}], "created_at": "2025-06-20T01:26:38.610-04:00", "updated_at": "2025-09-10T22:56:14.318-04:00", "avatar": "https://avatars.slack-edge.com/2025-08-04/9318981364769_6744ae1a237c789bc3e3_original.jpg", "custom_css": null}, {"id": 10162, "slack_id": "U092P0EC2F3", "display_name": "Konstantin Minihuber", "bio": null, "projects_count": 0, "devlogs_count": 0, "votes_count": 0, "ships_count": 0, "projects": [], "coding_time_seconds": 3075, "coding_time_seconds_today": 0, "balance": "You need to have a pocket watcher badge to view this.", "badges": [], "created_at": "2025-06-20T01:34:24.781-04:00", "updated_at": "2025-07-03T22:00:38.441-04:00", "avatar": "https://secure.gravatar.com/avatar/548f4ccddcf9ded0597d9dc363db4bb4.jpg?s=512&d=https%3A%2F%2Fa.slack-edge.com%2Fdf10d%2Fimg%2Favatars%2Fava_0005-512.png", "custom_css": null}, {"id": 10163, "slack_id": "U092AFKLKAQ", "display_name": "Faizan", "bio": null, "projects_count": 0, "devlogs_count": 0, "votes_count": 0, "ships_count": 0, "projects": [], "coding_time_seconds": 153108, "coding_time_seconds_today": 0, "balance": "You need to have a pocket watcher badge to view this.", "badges": [], "created_at": "2025-06-20T01:34:33.060-04:00", "updated_at": "2025-07-03T22:00:38.545-04:00", "avatar": "https://avatars.slack-edge.com/2025-06-19/9091024538913_e6becfa2b9d770149203_original.jpg", "custom_css": null}, {"id": 10164, "slack_id": "U09297YB7D3", "display_name": "Yash", "bio": null, "projects_count": 0, "devlogs_count": 0, "votes_count": 0, "ships_count": 0, "projects": [], "coding_time_seconds": 0, "coding_time_seconds_today": 0, "balance": "You need to have a pocket watcher badge to view this.", "badges": [], "created_at": "2025-06-20T01:38:43.044-04:00", "updated_at": "2025-07-03T19:54:50.613-04:00", "avatar": "https://secure.gravatar.com/avatar/c4b736170a6d3f85d8bb399002454637.jpg?s=512&d=https%3A%2F%2Fa.slack-edge.com%2Fdf10d%2Fimg%2Favatars%2Fava_0016-512.png", "custom_css": null}, {"id": 10165, "slack_id": "U092982CC3F", "display_name": "Saish Mungase", "bio": null, "projects_count": 0, "devlogs_count": 0, "votes_count": 0, "ships_count": 0, "projects": [], "coding_time_seconds": 0, "coding_time_seconds_today": 0, "balance": "You need to have a pocket watcher badge to view this.", "badges": [], "created_at": "2025-06-20T01:39:40.028-04:00", "updated_at": "2025-07-03T22:00:38.693-04:00", "avatar": "https://avatars.slack-edge.com/2025-06-19/9091041101153_e3450a85017356bc53ae_original.jpg", "custom_css": null}, {"id": 10166, "slack_id": "U079599QWE4", "display_name": "Jalen Chen", "bio": null, "projects_count": 2, "devlogs_count": 3, "votes_count": 0, "ships_count": 0, "projects": [{"id": 11917, "title": "Image Detection Autoclicker", "devlogs_count": 1, "created_at": "2025-08-21T04:02:12.487-04:00"}, {"id": 11918, "title": "Taskforce Bot", "devlogs_count": 2, "created_at": "2025-08-21T04:34:56.579-04:00"}], "coding_time_seconds": 33940, "coding_time_seconds_today": 0, "balance": "You need to have a pocket watcher badge to view this.", "badges": [], "created_at": "2025-06-20T01:40:02.227-04:00", "updated_at": "2025-08-21T03:34:16.668-04:00", "avatar": "https://secure.gravatar.com/avatar/7103133064e8c601dbe339555b1ffd1c.jpg?s=512&d=https%3A%2F%2Fa.slack-edge.com%2Fdf10d%2Fimg%2Favatars%2Fava_0003-512.png", "custom_css": null}, {"id": 10167, "slack_id": "U092A47FTK4", "display_name": "Tin", "bio": null, "projects_count": 2, "devlogs_count": 9, "votes_count": 3, "ships_count": 0, "projects": [{"id": 8699, "title": "Micro-controller Virtual Keyboard", "devlogs_count": 0, "created_at": "2025-07-29T00:54:15.240-04:00"}, {"id": 8812, "title": "AutoPlaylist", "devlogs_count": 9, "created_at": "2025-07-29T10:39:39.233-04:00"}], "coding_time_seconds": 467484, "coding_time_seconds_today": 0, "balance": "You need to have a pocket watcher badge to view this.", "badges": [], "created_at": "2025-06-20T01:42:09.650-04:00", "updated_at": "2025-07-03T19:54:51.257-04:00", "avatar": "https://secure.gravatar.com/avatar/f81e82df4e2175f34763f92b3e9815e8.jpg?s=512&d=https%3A%2F%2Fa.slack-edge.com%2Fdf10d%2Fimg%2Favatars%2Fava_0026-512.png", "custom_css": null}, {"id": 10168, "slack_id": "U092YLPKKRN", "display_name": "electroshock night", "bio": null, "projects_count": 0, "devlogs_count": 0, "votes_count": 0, "ships_count": 0, "projects": [], "coding_time_seconds": 0, "coding_time_seconds_today": 0, "balance": "You need to have a pocket watcher badge to view this.", "badges": [], "created_at": "2025-06-20T01:43:48.998-04:00", "updated_at": "2025-07-03T19:54:51.524-04:00", "avatar": "https://secure.gravatar.com/avatar/09ffb0a9ba733632a154d662515738f6.jpg?s=512&d=https%3A%2F%2Fa.slack-edge.com%2Fdf10d%2Fimg%2Favatars%2Fava_0025-512.png", "custom_css": null}, {"id": 10169, "slack_id": "U092S1RRR7S", "display_name": "Dankwah Ellen Baah", "bio": null, "projects_count": 0, "devlogs_count": 0, "votes_count": 0, "ships_count": 0, "projects": [], "coding_time_seconds": 0, "coding_time_seconds_today": 0, "balance": "You need to have a pocket watcher badge to view this.", "badges": [], "created_at": "2025-06-20T01:44:23.748-04:00", "updated_at": "2025-07-06T02:12:36.837-04:00", "avatar": "https://secure.gravatar.com/avatar/4a78a708c1f230a7bafd7d01c9df386c.jpg?s=512&d=https%3A%2F%2Fa.slack-edge.com%2Fdf10d%2Fimg%2Favatars%2Fava_0005-512.png", "custom_css": null}, {"id": 10170, "slack_id": "U091VFBC5GF", "display_name": "Lokanath Reddy", "bio": null, "projects_count": 0, "devlogs_count": 0, "votes_count": 0, "ships_count": 0, "projects": [], "coding_time_seconds": 0, "coding_time_seconds_today": 0, "balance": "You need to have a pocket watcher badge to view this.", "badges": [], "created_at": "2025-06-20T01:45:39.846-04:00", "updated_at": "2025-07-03T22:00:39.087-04:00", "avatar": "https://secure.gravatar.com/avatar/c88ad53c9dd9f65bc9542fb414c620ef.jpg?s=512&d=https%3A%2F%2Fa.slack-edge.com%2Fdf10d%2Fimg%2Favatars%2Fava_0000-512.png", "custom_css": null}, {"id": 10171, "slack_id": "U04GUGM31B7", "display_name": "PHANTOMPULSE", "bio": null, "projects_count": 0, "devlogs_count": 2, "votes_count": 0, "ships_count": 0, "projects": [], "coding_time_seconds": 44512, "coding_time_seconds_today": 0, "balance": "You need to have a pocket watcher badge to view this.", "badges": [], "created_at": "2025-06-20T01:47:02.623-04:00", "updated_at": "2025-08-15T11:56:32.738-04:00", "avatar": "https://avatars.slack-edge.com/2023-12-07/6310726867971_c9a07d1d76ade3e43453_original.png", "custom_css": null}, {"id": 10172, "slack_id": "U0921MX68E8", "display_name": "mwihoti", "bio": null, "projects_count": 0, "devlogs_count": 0, "votes_count": 0, "ships_count": 0, "projects": [], "coding_time_seconds": 555167, "coding_time_seconds_today": 0, "balance": "You need to have a pocket watcher badge to view this.", "badges": [], "created_at": "2025-06-20T01:47:55.230-04:00", "updated_at": "2025-07-03T19:54:52.331-04:00", "avatar": "https://secure.gravatar.com/avatar/d0add3985719db8f4d9b7378ca433d23.jpg?s=512&d=https%3A%2F%2Fa.slack-edge.com%2Fdf10d%2Fimg%2Favatars%2Fava_0021-512.png", "custom_css": null}, {"id": 10173, "slack_id": "U092KGPCHFT", "display_name": "Neel", "bio": null, "projects_count": 5, "devlogs_count": 4, "votes_count": 14, "ships_count": 2, "projects": [{"id": 3609, "title": "Map, zip, dict, and list comprehension Practice", "devlogs_count": 1, "created_at": "2025-06-24T23:12:51.765-04:00"}, {"id": 9353, "title": "Click The Turtle Game", "devlogs_count": 0, "created_at": "2025-07-31T18:39:04.436-04:00"}, {"id": 9354, "title": "Click The Turtle Game", "devlogs_count": 0, "created_at": "2025-07-31T18:39:04.614-04:00"}, {"id": 6073, "title": "Cricket Equipment Online Shop", "devlogs_count": 2, "created_at": "2025-07-10T11:45:17.438-04:00"}, {"id": 11442, "title": "Opportunity Finder Website ", "devlogs_count": 1, "created_at": "2025-08-16T00:31:47.130-04:00"}], "coding_time_seconds": 158256, "coding_time_seconds_today": 0, "balance": "You need to have a pocket watcher badge to view this.", "badges": [{"name": "Maiden Voyage", "text": "you shipped your first project! the journey begins...", "icon": "\ud83d\udea2"}], "created_at": "2025-06-20T01:48:11.742-04:00", "updated_at": "2025-09-10T22:56:14.594-04:00", "avatar": "https://avatars.slack-edge.com/2025-08-08/9316023549463_ef5c54e15722e31ca7fb_original.jpg", "custom_css": null}, {"id": 10174, "slack_id": "U092P1TKYD7", "display_name": "Kamal", "bio": null, "projects_count": 0, "devlogs_count": 0, "votes_count": 0, "ships_count": 0, "projects": [], "coding_time_seconds": 80588, "coding_time_seconds_today": 0, "balance": "You need to have a pocket watcher badge to view this.", "badges": [], "created_at": "2025-06-20T01:51:58.333-04:00", "updated_at": "2025-07-03T19:54:52.860-04:00", "avatar": "https://secure.gravatar.com/avatar/f93937f5b684738cf6d5fedff4cfd08b.jpg?s=512&d=https%3A%2F%2Fa.slack-edge.com%2Fdf10d%2Fimg%2Favatars%2Fava_0020-512.png", "custom_css": null}, {"id": 10175, "slack_id": "U0921EDD2M8", "display_name": "Hussain", "bio": null, "projects_count": 0, "devlogs_count": 0, "votes_count": 0, "ships_count": 0, "projects": [], "coding_time_seconds": 0, "coding_time_seconds_today": 0, "balance": "You need to have a pocket watcher badge to view this.", "badges": [], "created_at": "2025-06-20T01:55:25.018-04:00", "updated_at": "2025-07-14T21:58:19.647-04:00", "avatar": "https://avatars.slack-edge.com/2025-07-14/9194018363061_a7a3de46d3953ccb29f6_original.jpg", "custom_css": null}, {"id": 10176, "slack_id": "U092966NDRB", "display_name": "aksh", "bio": null, "projects_count": 0, "devlogs_count": 0, "votes_count": 0, "ships_count": 0, "projects": [], "coding_time_seconds": 0, "coding_time_seconds_today": 0, "balance": "You need to have a pocket watcher badge to view this.", "badges": [], "created_at": "2025-06-20T01:56:02.655-04:00", "updated_at": "2025-07-03T19:54:53.376-04:00", "avatar": "https://secure.gravatar.com/avatar/1bff6b008bb9fc4f20c4578a48b7d522.jpg?s=512&d=https%3A%2F%2Fa.slack-edge.com%2Fdf10d%2Fimg%2Favatars%2Fava_0002-512.png", "custom_css": null}, {"id": 10177, "slack_id": "U0920KJMBDJ", "display_name": "Rakshit Verma", "bio": null, "projects_count": 0, "devlogs_count": 0, "votes_count": 0, "ships_count": 0, "projects": [], "coding_time_seconds": 0, "coding_time_seconds_today": 0, "balance": "You need to have a pocket watcher badge to view this.", "badges": [], "created_at": "2025-06-20T02:02:01.196-04:00", "updated_at": "2025-07-20T14:33:21.614-04:00", "avatar": "https://secure.gravatar.com/avatar/ad0c068f59361755904e964438e66202.jpg?s=512&d=https%3A%2F%2Fa.slack-edge.com%2Fdf10d%2Fimg%2Favatars%2Fava_0024-512.png", "custom_css": null}, {"id": 10178, "slack_id": "U092AJ8EXV2", "display_name": "Prince Adhikari", "bio": null, "projects_count": 0, "devlogs_count": 0, "votes_count": 0, "ships_count": 0, "projects": [], "coding_time_seconds": 0, "coding_time_seconds_today": 0, "balance": "You need to have a pocket watcher badge to view this.", "badges": [], "created_at": "2025-06-20T02:04:44.767-04:00", "updated_at": "2025-07-03T19:54:53.916-04:00", "avatar": "https://secure.gravatar.com/avatar/48576c3ae0cf96b34319b30fddfc1de8.jpg?s=512&d=https%3A%2F%2Fa.slack-edge.com%2Fdf10d%2Fimg%2Favatars%2Fava_0010-512.png", "custom_css": null}, {"id": 10179, "slack_id": "U092P3XHVU1", "display_name": "Abhigyan Tiwari", "bio": null, "projects_count": 0, "devlogs_count": 0, "votes_count": 0, "ships_count": 0, "projects": [], "coding_time_seconds": 5218, "coding_time_seconds_today": 0, "balance": "You need to have a pocket watcher badge to view this.", "badges": [], "created_at": "2025-06-20T02:12:13.737-04:00", "updated_at": "2025-07-03T19:54:54.184-04:00", "avatar": "https://avatars.slack-edge.com/2025-06-19/9072239149798_b2197cd4fb05785302fc_original.png", "custom_css": null}, {"id": 10180, "slack_id": "U092YPP6WEL", "display_name": "Manas Choudhary", "bio": null, "projects_count": 0, "devlogs_count": 0, "votes_count": 0, "ships_count": 0, "projects": [], "coding_time_seconds": 0, "coding_time_seconds_today": 0, "balance": "You need to have a pocket watcher badge to view this.", "badges": [], "created_at": "2025-06-20T02:15:29.999-04:00", "updated_at": "2025-07-04T02:29:57.042-04:00", "avatar": "https://secure.gravatar.com/avatar/8abe6ad9fad139401192814e32f05a83.jpg?s=512&d=https%3A%2F%2Fa.slack-edge.com%2Fdf10d%2Fimg%2Favatars%2Fava_0001-512.png", "custom_css": null}], "pagination": {"page": 509, "pages": 1192, "count": 23828, "items": 20}}