{"users": [{"id": 1001, "slack_id": "U08U12MNF97", "display_name": "Ginobeano", "bio": "", "projects_count": 0, "devlogs_count": 61, "votes_count": 90, "ships_count": 0, "projects": [], "coding_time_seconds": 799631, "coding_time_seconds_today": 0, "balance": "You need to have a pocket watcher badge to view this.", "badges": [{"name": "Maiden Voyage", "text": "you shipped your first project! the journey begins...", "icon": "\ud83d\udea2"}, {"name": "Ballot Stuffer", "text": "vote 100 times.", "icon": "https://summer.hackclub.com/assets/i_voted-bf851b48.png"}], "created_at": "2025-06-16T12:32:07.225-04:00", "updated_at": "2025-09-10T22:51:39.241-04:00", "avatar": "https://avatars.slack-edge.com/2025-08-31/9441491531316_1998e392242497255da0_original.png", "custom_css": null}, {"id": 1002, "slack_id": "U091GAP7M5H", "display_name": "Rajat Balda", "bio": null, "projects_count": 0, "devlogs_count": 0, "votes_count": 0, "ships_count": 0, "projects": [], "coding_time_seconds": 893, "coding_time_seconds_today": 0, "balance": "You need to have a pocket watcher badge to view this.", "badges": [], "created_at": "2025-06-16T12:32:12.504-04:00", "updated_at": "2025-07-03T19:15:38.616-04:00", "avatar": "https://secure.gravatar.com/avatar/78191d72781f7f5ebd7035437a5bf712.jpg?s=512&d=https%3A%2F%2Fa.slack-edge.com%2Fdf10d%2Fimg%2Favatars%2Fava_0014-512.png", "custom_css": null}, {"id": 1003, "slack_id": "U091GDQECA2", "display_name": "vishal", "bio": null, "projects_count": 0, "devlogs_count": 0, "votes_count": 0, "ships_count": 0, "projects": [], "coding_time_seconds": 254, "coding_time_seconds_today": 0, "balance": "You need to have a pocket watcher badge to view this.", "badges": [], "created_at": "2025-06-16T12:32:20.655-04:00", "updated_at": "2025-07-03T19:15:39.113-04:00", "avatar": "https://secure.gravatar.com/avatar/a930256fa84a9a353c5e9f6921b48c0e.jpg?s=512&d=https%3A%2F%2Fa.slack-edge.com%2Fdf10d%2Fimg%2Favatars%2Fava_0020-512.png", "custom_css": null}, {"id": 1004, "slack_id": "U07CCRS7U56", "display_name": "GrkDev", "bio": null, "projects_count": 1, "devlogs_count": 0, "votes_count": 0, "ships_count": 0, "projects": [{"id": 995, "title": "Bot Books", "devlogs_count": 0, "created_at": "2025-06-17T13:11:58.018-04:00"}], "coding_time_seconds": 319, "coding_time_seconds_today": 0, "balance": "You need to have a pocket watcher badge to view this.", "badges": [], "created_at": "2025-06-16T12:32:27.231-04:00", "updated_at": "2025-08-22T12:18:01.487-04:00", "avatar": "https://secure.gravatar.com/avatar/9798d66b6c6c30b45ad470667a071d1d.jpg?s=512&d=https%3A%2F%2Fa.slack-edge.com%2Fdf10d%2Fimg%2Favatars%2Fava_0010-512.png", "custom_css": null}, {"id": 1005, "slack_id": "U092BPXMSE4", "display_name": "Ed", "bio": null, "projects_count": 0, "devlogs_count": 0, "votes_count": 0, "ships_count": 0, "projects": [], "coding_time_seconds": 0, "coding_time_seconds_today": 0, "balance": "You need to have a pocket watcher badge to view this.", "badges": [], "created_at": "2025-06-16T12:32:40.035-04:00", "updated_at": "2025-07-03T19:15:39.762-04:00", "avatar": "https://secure.gravatar.com/avatar/8507952631b1cc50186f58d4640f123b.jpg?s=512&d=https%3A%2F%2Fa.slack-edge.com%2Fdf10d%2Fimg%2Favatars%2Fava_0005-512.png", "custom_css": null}, {"id": 1006, "slack_id": "U091PNKJ420", "display_name": "Aaron", "bio": null, "projects_count": 0, "devlogs_count": 0, "votes_count": 0, "ships_count": 0, "projects": [], "coding_time_seconds": 0, "coding_time_seconds_today": 0, "balance": "You need to have a pocket watcher badge to view this.", "badges": [], "created_at": "2025-06-16T12:32:50.288-04:00", "updated_at": "2025-07-03T19:15:40.040-04:00", "avatar": "https://secure.gravatar.com/avatar/a01128827cd460dc2f74f81ec5cd5231.jpg?s=512&d=https%3A%2F%2Fa.slack-edge.com%2Fdf10d%2Fimg%2Favatars%2Fava_0009-512.png", "custom_css": null}, {"id": 1007, "slack_id": "U091P9V5JBU", "display_name": "Dhruv", "bio": null, "projects_count": 0, "devlogs_count": 0, "votes_count": 0, "ships_count": 0, "projects": [], "coding_time_seconds": 0, "coding_time_seconds_today": 0, "balance": "You need to have a pocket watcher badge to view this.", "badges": [], "created_at": "2025-06-16T12:32:51.985-04:00", "updated_at": "2025-07-03T19:15:40.377-04:00", "avatar": "https://secure.gravatar.com/avatar/f8663da89f36df576b9a90cbe46322f7.jpg?s=512&d=https%3A%2F%2Fa.slack-edge.com%2Fdf10d%2Fimg%2Favatars%2Fava_0023-512.png", "custom_css": null}, {"id": 1008, "slack_id": "U091GDZ6G4W", "display_name": "Salo Soja Edwin", "bio": null, "projects_count": 0, "devlogs_count": 0, "votes_count": 0, "ships_count": 0, "projects": [], "coding_time_seconds": 810, "coding_time_seconds_today": 0, "balance": "You need to have a pocket watcher badge to view this.", "badges": [], "created_at": "2025-06-16T12:32:53.801-04:00", "updated_at": "2025-07-03T19:15:40.662-04:00", "avatar": "https://avatars.slack-edge.com/2025-06-16/9055585270261_6191350ec6469a310e74_original.png", "custom_css": null}, {"id": 1009, "slack_id": "U091GAKEG2F", "display_name": "Usevalad", "bio": null, "projects_count": 0, "devlogs_count": 0, "votes_count": 0, "ships_count": 0, "projects": [], "coding_time_seconds": 0, "coding_time_seconds_today": 0, "balance": "You need to have a pocket watcher badge to view this.", "badges": [], "created_at": "2025-06-16T12:33:03.165-04:00", "updated_at": "2025-07-03T19:15:40.943-04:00", "avatar": "https://secure.gravatar.com/avatar/6c13049e3412a84af855bf6872d0d2e3.jpg?s=512&d=https%3A%2F%2Fa.slack-edge.com%2Fdf10d%2Fimg%2Favatars%2Fava_0008-512.png", "custom_css": null}, {"id": 1010, "slack_id": "U092BQ4UH8Q", "display_name": "Hritik Bharti", "bio": null, "projects_count": 0, "devlogs_count": 0, "votes_count": 0, "ships_count": 0, "projects": [], "coding_time_seconds": 0, "coding_time_seconds_today": 0, "balance": "You need to have a pocket watcher badge to view this.", "badges": [], "created_at": "2025-06-16T12:33:08.835-04:00", "updated_at": "2025-07-03T19:15:41.217-04:00", "avatar": "https://secure.gravatar.com/avatar/bae2db0eff340750f8fd7281b2cf4da4.jpg?s=512&d=https%3A%2F%2Fa.slack-edge.com%2Fdf10d%2Fimg%2Favatars%2Fava_0023-512.png", "custom_css": null}, {"id": 1011, "slack_id": "U091PA1QB7U", "display_name": "Morpheus", "bio": null, "projects_count": 0, "devlogs_count": 0, "votes_count": 0, "ships_count": 0, "projects": [], "coding_time_seconds": 38547, "coding_time_seconds_today": 0, "balance": "You need to have a pocket watcher badge to view this.", "badges": [], "created_at": "2025-06-16T12:33:11.282-04:00", "updated_at": "2025-07-03T19:15:41.484-04:00", "avatar": "https://secure.gravatar.com/avatar/6025bc84b93fb93d6461bb67e5ceb98e.jpg?s=512&d=https%3A%2F%2Fa.slack-edge.com%2Fdf10d%2Fimg%2Favatars%2Fava_0013-512.png", "custom_css": null}, {"id": 1012, "slack_id": "U09181A45SB", "display_name": "Bharath Senthil", "bio": null, "projects_count": 0, "devlogs_count": 0, "votes_count": 0, "ships_count": 0, "projects": [], "coding_time_seconds": 0, "coding_time_seconds_today": 0, "balance": "You need to have a pocket watcher badge to view this.", "badges": [], "created_at": "2025-06-16T12:33:18.154-04:00", "updated_at": "2025-07-03T19:15:41.768-04:00", "avatar": "https://secure.gravatar.com/avatar/8aac2f8ed1de5dc4d1e88952c0764f69.jpg?s=512&d=https%3A%2F%2Fa.slack-edge.com%2Fdf10d%2Fimg%2Favatars%2Fava_0010-512.png", "custom_css": null}, {"id": 1013, "slack_id": "U091GDD3ZRU", "display_name": "Jacob-Hawksley", "bio": null, "projects_count": 0, "devlogs_count": 0, "votes_count": 0, "ships_count": 0, "projects": [], "coding_time_seconds": 254691, "coding_time_seconds_today": 0, "balance": "You need to have a pocket watcher badge to view this.", "badges": [], "created_at": "2025-06-16T12:33:23.552-04:00", "updated_at": "2025-08-22T08:01:39.155-04:00", "avatar": "https://avatars.slack-edge.com/2025-08-22/9397618171268_4a4f35fcfb5a40aecdbd_original.jpg", "custom_css": null}, {"id": 1014, "slack_id": "U091GB128MR", "display_name": "aryaman jaiswal", "bio": null, "projects_count": 3, "devlogs_count": 4, "votes_count": 1, "ships_count": 0, "projects": [{"id": 6244, "title": "portfolio", "devlogs_count": 3, "created_at": "2025-07-11T15:04:52.132-04:00"}, {"id": 7683, "title": "NSUTrack", "devlogs_count": 0, "created_at": "2025-07-22T14:24:09.818-04:00"}, {"id": 1884, "title": "LoveAll", "devlogs_count": 1, "created_at": "2025-06-19T14:25:40.042-04:00"}], "coding_time_seconds": 251729, "coding_time_seconds_today": 0, "balance": "You need to have a pocket watcher badge to view this.", "badges": [], "created_at": "2025-06-16T12:33:26.052-04:00", "updated_at": "2025-07-11T15:02:58.134-04:00", "avatar": "https://avatars.slack-edge.com/2025-06-16/9079837018032_8f7bbdb8c43074a809cf_original.webp", "custom_css": null}, {"id": 1015, "slack_id": "U07N24APCA3", "display_name": "khang200923", "bio": null, "projects_count": 7, "devlogs_count": 26, "votes_count": 7, "ships_count": 0, "projects": [{"id": 2809, "title": "manifold-aggr", "devlogs_count": 1, "created_at": "2025-06-22T05:57:36.924-04:00"}, {"id": 3211, "title": "logical-ind", "devlogs_count": 1, "created_at": "2025-06-23T13:16:11.687-04:00"}, {"id": 9422, "title": "qdrust", "devlogs_count": 0, "created_at": "2025-08-01T06:28:33.942-04:00"}, {"id": 11994, "title": "oiac", "devlogs_count": 7, "created_at": "2025-08-22T00:10:16.409-04:00"}, {"id": 9423, "title": "qdrust", "devlogs_count": 4, "created_at": "2025-08-01T06:28:33.950-04:00"}, {"id": 4035, "title": "queen-duel-bot", "devlogs_count": 2, "created_at": "2025-06-27T02:08:41.480-04:00"}, {"id": 12529, "title": "SAT Solver", "devlogs_count": 12, "created_at": "2025-08-29T02:35:51.776-04:00"}], "coding_time_seconds": 538061, "coding_time_seconds_today": 0, "balance": "You need to have a pocket watcher badge to view this.", "badges": [], "created_at": "2025-06-16T12:33:28.486-04:00", "updated_at": "2025-08-31T02:04:23.443-04:00", "avatar": "https://secure.gravatar.com/avatar/8ead6770983f2a1ff6f802f1ffc0ed43.jpg?s=512&d=https%3A%2F%2Fa.slack-edge.com%2Fdf10d%2Fimg%2Favatars%2Fava_0003-512.png", "custom_css": null}, {"id": 1016, "slack_id": "U078N4A4DFW", "display_name": "Kapilarny", "bio": null, "projects_count": 0, "devlogs_count": 0, "votes_count": 0, "ships_count": 0, "projects": [], "coding_time_seconds": 10121, "coding_time_seconds_today": 0, "balance": "You need to have a pocket watcher badge to view this.", "badges": [], "created_at": "2025-06-16T12:33:30.090-04:00", "updated_at": "2025-07-03T19:15:42.864-04:00", "avatar": "https://secure.gravatar.com/avatar/e8ebb7d1f65a0de0ad9f1398e110ec06.jpg?s=512&d=https%3A%2F%2Fa.slack-edge.com%2Fdf10d%2Fimg%2Favatars%2Fava_0014-512.png", "custom_css": null}, {"id": 1017, "slack_id": "U0921SSE20H", "display_name": "Henry", "bio": null, "projects_count": 0, "devlogs_count": 0, "votes_count": 0, "ships_count": 0, "projects": [], "coding_time_seconds": 0, "coding_time_seconds_today": 0, "balance": "You need to have a pocket watcher badge to view this.", "badges": [], "created_at": "2025-06-16T12:33:32.928-04:00", "updated_at": "2025-07-03T19:15:43.139-04:00", "avatar": "https://secure.gravatar.com/avatar/1b635bfb2aa31d5db2fa6182993fca8e.jpg?s=512&d=https%3A%2F%2Fa.slack-edge.com%2Fdf10d%2Fimg%2Favatars%2Fava_0009-512.png", "custom_css": null}, {"id": 1018, "slack_id": "U091MGW6S85", "display_name": "Jake Portnoi", "bio": null, "projects_count": 2, "devlogs_count": 0, "votes_count": 0, "ships_count": 0, "projects": [{"id": 279, "title": "Tour Tracker", "devlogs_count": 0, "created_at": "2025-06-16T17:02:57.980-04:00"}, {"id": 280, "title": "Tour Tracker", "devlogs_count": 0, "created_at": "2025-06-16T17:02:59.370-04:00"}], "coding_time_seconds": 13504, "coding_time_seconds_today": 0, "balance": "You need to have a pocket watcher badge to view this.", "badges": [], "created_at": "2025-06-16T12:33:34.120-04:00", "updated_at": "2025-07-03T19:15:43.409-04:00", "avatar": "https://avatars.slack-edge.com/2025-06-16/9050493860454_d9d097ca7a6b0ed855fd_original.png", "custom_css": null}, {"id": 1019, "slack_id": "U0917PNRABZ", "display_name": "Jaures Beinjamin", "bio": null, "projects_count": 0, "devlogs_count": 0, "votes_count": 0, "ships_count": 0, "projects": [], "coding_time_seconds": 0, "coding_time_seconds_today": 0, "balance": "You need to have a pocket watcher badge to view this.", "badges": [], "created_at": "2025-06-16T12:33:36.021-04:00", "updated_at": "2025-07-03T19:15:43.687-04:00", "avatar": "https://secure.gravatar.com/avatar/e470fb553d6d406ea56a89e3e4cddb43.jpg?s=512&d=https%3A%2F%2Fa.slack-edge.com%2Fdf10d%2Fimg%2Favatars%2Fava_0025-512.png", "custom_css": null}, {"id": 1020, "slack_id": "U07DGB8VD7X", "display_name": "Luca Luisi", "bio": null, "projects_count": 1, "devlogs_count": 0, "votes_count": 0, "ships_count": 0, "projects": [{"id": 13564, "title": "Unitree Go2 Hand Gesture Control", "devlogs_count": 0, "created_at": "2025-09-19T15:47:17.388-04:00"}], "coding_time_seconds": 50364, "coding_time_seconds_today": 0, "balance": "You need to have a pocket watcher badge to view this.", "badges": [], "created_at": "2025-06-16T12:33:40.932-04:00", "updated_at": "2025-08-07T13:07:09.299-04:00", "avatar": "https://avatars.slack-edge.com/2024-07-22/7461174963651_c9b11f1c5f60c16272dd_original.jpg", "custom_css": null}], "pagination": {"page": 51, "pages": 1192, "count": 23827, "items": 20}}