{"users": [{"id": 10181, "slack_id": "U07FL52D5FT", "display_name": "Mohammad", "bio": null, "projects_count": 0, "devlogs_count": 0, "votes_count": 0, "ships_count": 0, "projects": [], "coding_time_seconds": 0, "coding_time_seconds_today": 0, "balance": "You need to have a pocket watcher badge to view this.", "badges": [], "created_at": "2025-06-20T02:15:56.122-04:00", "updated_at": "2025-07-03T19:54:54.608-04:00", "avatar": "https://secure.gravatar.com/avatar/46cba56c0fcca8f932bec1e3e54c7d78.jpg?s=512&d=https%3A%2F%2Fa.slack-edge.com%2Fdf10d%2Fimg%2Favatars%2Fava_0012-512.png", "custom_css": null}, {"id": 10182, "slack_id": "U092P488Y5P", "display_name": "Jatin", "bio": null, "projects_count": 0, "devlogs_count": 0, "votes_count": 0, "ships_count": 0, "projects": [], "coding_time_seconds": 0, "coding_time_seconds_today": 0, "balance": "You need to have a pocket watcher badge to view this.", "badges": [], "created_at": "2025-06-20T02:16:26.357-04:00", "updated_at": "2025-07-03T19:54:54.882-04:00", "avatar": "https://secure.gravatar.com/avatar/de58810c42c8e427ae233f6a82278718.jpg?s=512&d=https%3A%2F%2Fa.slack-edge.com%2Fdf10d%2Fimg%2Favatars%2Fava_0011-512.png", "custom_css": null}, {"id": 10183, "slack_id": "U091VG8FHDM", "display_name": "Anish Vernekar", "bio": null, "projects_count": 0, "devlogs_count": 0, "votes_count": 0, "ships_count": 0, "projects": [], "coding_time_seconds": 0, "coding_time_seconds_today": 0, "balance": "You need to have a pocket watcher badge to view this.", "badges": [], "created_at": "2025-06-20T02:19:10.092-04:00", "updated_at": "2025-07-03T19:54:55.156-04:00", "avatar": "https://secure.gravatar.com/avatar/807c6478afddc62455e51989f0bea040.jpg?s=512&d=https%3A%2F%2Fa.slack-edge.com%2Fdf10d%2Fimg%2Favatars%2Fava_0018-512.png", "custom_css": null}, {"id": 10184, "slack_id": "U09247D09D4", "display_name": "bigshaem40", "bio": null, "projects_count": 0, "devlogs_count": 0, "votes_count": 0, "ships_count": 0, "projects": [], "coding_time_seconds": 0, "coding_time_seconds_today": 0, "balance": "You need to have a pocket watcher badge to view this.", "badges": [], "created_at": "2025-06-20T02:22:35.919-04:00", "updated_at": "2025-07-03T19:54:55.419-04:00", "avatar": "https://secure.gravatar.com/avatar/a0ba9d647414d5932d00156d91ef9fb2.jpg?s=512&d=https%3A%2F%2Fa.slack-edge.com%2Fdf10d%2Fimg%2Favatars%2Fava_0023-512.png", "custom_css": null}, {"id": 10185, "slack_id": "U0929CXNJTX", "display_name": "daw", "bio": null, "projects_count": 2, "devlogs_count": 2, "votes_count": 1, "ships_count": 0, "projects": [{"id": 5277, "title": "Crawl & Brawl", "devlogs_count": 2, "created_at": "2025-07-04T06:51:06.253-04:00"}, {"id": 5287, "title": "Crawl & Brawl Godot", "devlogs_count": 0, "created_at": "2025-07-04T08:27:04.897-04:00"}], "coding_time_seconds": 34199, "coding_time_seconds_today": 0, "balance": "You need to have a pocket watcher badge to view this.", "badges": [], "created_at": "2025-06-20T02:23:52.764-04:00", "updated_at": "2025-07-03T22:00:40.092-04:00", "avatar": "https://avatars.slack-edge.com/2025-06-21/9083074678018_c81dbd972cbe4c6cac64_original.jpg", "custom_css": null}, {"id": 10186, "slack_id": "U09247TL9C6", "display_name": "Nick", "bio": null, "projects_count": 0, "devlogs_count": 0, "votes_count": 0, "ships_count": 0, "projects": [], "coding_time_seconds": 0, "coding_time_seconds_today": 0, "balance": "You need to have a pocket watcher badge to view this.", "badges": [], "created_at": "2025-06-20T02:24:25.083-04:00", "updated_at": "2025-07-03T19:54:55.823-04:00", "avatar": "https://secure.gravatar.com/avatar/8d2c13e8093a2f315feddbc90513c5ca.jpg?s=512&d=https%3A%2F%2Fa.slack-edge.com%2Fdf10d%2Fimg%2Favatars%2Fava_0023-512.png", "custom_css": null}, {"id": 10187, "slack_id": "U0927D07C7P", "display_name": "Hans Vogel", "bio": null, "projects_count": 0, "devlogs_count": 0, "votes_count": 0, "ships_count": 0, "projects": [], "coding_time_seconds": 0, "coding_time_seconds_today": 0, "balance": "You need to have a pocket watcher badge to view this.", "badges": [], "created_at": "2025-06-20T02:29:51.772-04:00", "updated_at": "2025-07-03T19:54:56.081-04:00", "avatar": "https://secure.gravatar.com/avatar/86df581064b1985fbd432c86882ecf25.jpg?s=512&d=https%3A%2F%2Fa.slack-edge.com%2Fdf10d%2Fimg%2Favatars%2Fava_0025-512.png", "custom_css": null}, {"id": 10188, "slack_id": "U0929DXCRFF", "display_name": "Anant Singhal", "bio": "", "projects_count": 9, "devlogs_count": 20, "votes_count": 34, "ships_count": 6, "projects": [{"id": 5416, "title": "codexspace", "devlogs_count": 0, "created_at": "2025-07-05T06:58:35.333-04:00"}, {"id": 5417, "title": "OrbitTTS", "devlogs_count": 0, "created_at": "2025-07-05T07:00:21.540-04:00"}, {"id": 7343, "title": "Minesweeper AI", "devlogs_count": 3, "created_at": "2025-07-21T04:51:48.512-04:00"}, {"id": 12692, "title": "Earth Patch", "devlogs_count": 4, "created_at": "2025-09-01T00:28:03.271-04:00"}, {"id": 13135, "title": "Project Next", "devlogs_count": 3, "created_at": "2025-09-09T11:56:56.567-04:00"}, {"id": 2057, "title": "DUEL ", "devlogs_count": 2, "created_at": "2025-06-20T02:58:23.614-04:00"}, {"id": 9723, "title": "Carbon Eye", "devlogs_count": 1, "created_at": "2025-08-02T05:21:34.087-04:00"}, {"id": 9724, "title": "Carbon Eye", "devlogs_count": 2, "created_at": "2025-08-02T05:21:36.328-04:00"}, {"id": 3902, "title": "Lemura", "devlogs_count": 4, "created_at": "2025-06-26T07:52:21.608-04:00"}], "coding_time_seconds": 491148, "coding_time_seconds_today": 0, "balance": "You need to have a pocket watcher badge to view this.", "badges": [{"name": "Maiden Voyage", "text": "you shipped your first project! the journey begins...", "icon": "\ud83d\udea2"}, {"name": "Ballot Stuffer", "text": "vote 100 times.", "icon": "https://summer.hackclub.com/assets/i_voted-bf851b48.png"}], "created_at": "2025-06-20T02:32:05.905-04:00", "updated_at": "2025-09-10T22:56:15.123-04:00", "avatar": "https://avatars.slack-edge.com/2025-08-14/9351347126853_0e4ed3100cf675c03698_original.png", "custom_css": null}, {"id": 10189, "slack_id": "U092YQZ578Q", "display_name": "czjing", "bio": null, "projects_count": 0, "devlogs_count": 0, "votes_count": 0, "ships_count": 0, "projects": [], "coding_time_seconds": 0, "coding_time_seconds_today": 0, "balance": "You need to have a pocket watcher badge to view this.", "badges": [], "created_at": "2025-06-20T02:32:15.846-04:00", "updated_at": "2025-07-03T19:54:56.481-04:00", "avatar": "https://secure.gravatar.com/avatar/cd970a191cc203bee873586fb6ee2f3b.jpg?s=512&d=https%3A%2F%2Fa.slack-edge.com%2Fdf10d%2Fimg%2Favatars%2Fava_0014-512.png", "custom_css": null}, {"id": 10190, "slack_id": "U092P68F1K3", "display_name": "MrExtremist", "bio": null, "projects_count": 0, "devlogs_count": 0, "votes_count": 0, "ships_count": 0, "projects": [], "coding_time_seconds": 0, "coding_time_seconds_today": 0, "balance": "You need to have a pocket watcher badge to view this.", "badges": [], "created_at": "2025-06-20T02:35:02.615-04:00", "updated_at": "2025-07-03T19:54:56.739-04:00", "avatar": "https://avatars.slack-edge.com/2025-06-20/9078756492852_a2c2ff9122d819d19c33_original.jpg", "custom_css": null}, {"id": 10191, "slack_id": "U092AMH2HGC", "display_name": "Yeshwanth Nandigama", "bio": null, "projects_count": 0, "devlogs_count": 0, "votes_count": 0, "ships_count": 0, "projects": [], "coding_time_seconds": 0, "coding_time_seconds_today": 0, "balance": "You need to have a pocket watcher badge to view this.", "badges": [], "created_at": "2025-06-20T02:36:24.700-04:00", "updated_at": "2025-07-03T19:54:57.000-04:00", "avatar": "https://secure.gravatar.com/avatar/0537dd3a59a88732ac497c5e8e24aeb8.jpg?s=512&d=https%3A%2F%2Fa.slack-edge.com%2Fdf10d%2Fimg%2Favatars%2Fava_0020-512.png", "custom_css": null}, {"id": 10192, "slack_id": "U087ZJRGUGG", "display_name": "cognitivity", "bio": "", "projects_count": 2, "devlogs_count": 48, "votes_count": 37, "ships_count": 1, "projects": [{"id": 5531, "title": "Weather for Android", "devlogs_count": 12, "created_at": "2025-07-05T23:46:28.060-04:00"}, {"id": 2218, "title": "Chronal - Metronome for Android", "devlogs_count": 36, "created_at": "2025-06-20T13:19:12.895-04:00"}], "coding_time_seconds": 1069564, "coding_time_seconds_today": 0, "balance": "You need to have a pocket watcher badge to view this.", "badges": [{"name": "Maiden Voyage", "text": "you shipped your first project! the journey begins...", "icon": "\ud83d\udea2"}], "created_at": "2025-06-20T02:41:51.370-04:00", "updated_at": "2025-09-10T22:56:15.349-04:00", "avatar": "https://secure.gravatar.com/avatar/2c4aa815707be1c45ba110559ebc61ee.jpg?s=512&d=https%3A%2F%2Fa.slack-edge.com%2Fdf10d%2Fimg%2Favatars%2Fava_0025-512.png", "custom_css": null}, {"id": 10193, "slack_id": "U092AMZAZNG", "display_name": "Bishal Das", "bio": null, "projects_count": 0, "devlogs_count": 0, "votes_count": 0, "ships_count": 0, "projects": [], "coding_time_seconds": 0, "coding_time_seconds_today": 0, "balance": "You need to have a pocket watcher badge to view this.", "badges": [], "created_at": "2025-06-20T02:42:13.106-04:00", "updated_at": "2025-07-03T19:54:57.550-04:00", "avatar": "https://secure.gravatar.com/avatar/45700efd28b6ee6484a94b93111ac00c.jpg?s=512&d=https%3A%2F%2Fa.slack-edge.com%2Fdf10d%2Fimg%2Favatars%2Fava_0003-512.png", "custom_css": null}, {"id": 10194, "slack_id": "U092YSSHUGY", "display_name": "Sajani", "bio": null, "projects_count": 0, "devlogs_count": 0, "votes_count": 0, "ships_count": 0, "projects": [], "coding_time_seconds": 0, "coding_time_seconds_today": 0, "balance": "You need to have a pocket watcher badge to view this.", "badges": [], "created_at": "2025-06-20T02:45:10.505-04:00", "updated_at": "2025-07-03T19:54:57.835-04:00", "avatar": "https://secure.gravatar.com/avatar/ce4ac92071c3fa2db843a3c0a1242f54.jpg?s=512&d=https%3A%2F%2Fa.slack-edge.com%2Fdf10d%2Fimg%2Favatars%2Fava_0021-512.png", "custom_css": null}, {"id": 10195, "slack_id": "U092YSYUP2L", "display_name": "Sourabh Solanki", "bio": null, "projects_count": 0, "devlogs_count": 0, "votes_count": 0, "ships_count": 0, "projects": [], "coding_time_seconds": 0, "coding_time_seconds_today": 0, "balance": "You need to have a pocket watcher badge to view this.", "badges": [], "created_at": "2025-06-20T02:46:45.235-04:00", "updated_at": "2025-07-03T19:54:58.106-04:00", "avatar": "https://avatars.slack-edge.com/2025-06-19/9100929781152_703f69b2670d7ce2884d_original.jpg", "custom_css": null}, {"id": 10196, "slack_id": "U0929FMTU21", "display_name": "GyAdamgaming", "bio": null, "projects_count": 0, "devlogs_count": 0, "votes_count": 0, "ships_count": 0, "projects": [], "coding_time_seconds": 663, "coding_time_seconds_today": 0, "balance": "You need to have a pocket watcher badge to view this.", "badges": [], "created_at": "2025-06-20T02:47:47.067-04:00", "updated_at": "2025-07-07T08:11:17.992-04:00", "avatar": "https://secure.gravatar.com/avatar/59551904dbf32d5b3f866ee247a66139.jpg?s=512&d=https%3A%2F%2Fa.slack-edge.com%2Fdf10d%2Fimg%2Favatars%2Fava_0016-512.png", "custom_css": null}, {"id": 10197, "slack_id": "U0924AUQPHC", "display_name": "Deepayan", "bio": null, "projects_count": 0, "devlogs_count": 0, "votes_count": 0, "ships_count": 0, "projects": [], "coding_time_seconds": 0, "coding_time_seconds_today": 0, "balance": "You need to have a pocket watcher badge to view this.", "badges": [], "created_at": "2025-06-20T02:52:29.826-04:00", "updated_at": "2025-07-03T19:54:58.499-04:00", "avatar": "https://avatars.slack-edge.com/2025-06-20/9072411394838_985e2801bcdf4aa82bc3_original.jpg", "custom_css": null}, {"id": 10198, "slack_id": "U04GYQRV9FB", "display_name": "Skand Bajpai", "bio": null, "projects_count": 0, "devlogs_count": 0, "votes_count": 0, "ships_count": 0, "projects": [], "coding_time_seconds": 3366, "coding_time_seconds_today": 0, "balance": "You need to have a pocket watcher badge to view this.", "badges": [], "created_at": "2025-06-20T02:59:05.742-04:00", "updated_at": "2025-07-03T19:54:58.761-04:00", "avatar": "https://secure.gravatar.com/avatar/c25f80e0d8bf41060e8677906766fd22.jpg?s=512&d=https%3A%2F%2Fa.slack-edge.com%2Fdf10d%2Fimg%2Favatars%2Fava_0004-512.png", "custom_css": null}, {"id": 10199, "slack_id": "U0924BMAYLE", "display_name": "Chan Dun Li", "bio": null, "projects_count": 0, "devlogs_count": 0, "votes_count": 0, "ships_count": 0, "projects": [], "coding_time_seconds": 0, "coding_time_seconds_today": 0, "balance": "You need to have a pocket watcher badge to view this.", "badges": [], "created_at": "2025-06-20T03:00:54.958-04:00", "updated_at": "2025-07-03T19:54:59.029-04:00", "avatar": "https://avatars.slack-edge.com/2025-06-20/9077607232469_4ba1a13732c3e6a457ae_original.jpg", "custom_css": null}, {"id": 10200, "slack_id": "U092ACWCT4J", "display_name": "Usama Khan", "bio": null, "projects_count": 0, "devlogs_count": 0, "votes_count": 0, "ships_count": 0, "projects": [], "coding_time_seconds": 0, "coding_time_seconds_today": 0, "balance": "You need to have a pocket watcher badge to view this.", "badges": [], "created_at": "2025-06-20T03:03:07.312-04:00", "updated_at": "2025-07-05T14:12:47.289-04:00", "avatar": "https://avatars.slack-edge.com/2025-06-20/9078448888514_131f5c2ed164f8b5204f_original.jpg", "custom_css": null}], "pagination": {"page": 510, "pages": 1192, "count": 23828, "items": 20}}