{"users": [{"id": 10221, "slack_id": "U0929SDC145", "display_name": "L\u00e9o BECHET", "bio": null, "projects_count": 0, "devlogs_count": 0, "votes_count": 0, "ships_count": 0, "projects": [], "coding_time_seconds": 0, "coding_time_seconds_today": 0, "balance": "You need to have a pocket watcher badge to view this.", "badges": [], "created_at": "2025-06-20T04:10:45.561-04:00", "updated_at": "2025-07-03T19:55:04.058-04:00", "avatar": "https://avatars.slack-edge.com/2025-06-20/9077929784085_8d488d68a7f693fa8719_original.png", "custom_css": null}, {"id": 10222, "slack_id": "U092Z7JE4HE", "display_name": "Shivanshu Kumar", "bio": null, "projects_count": 2, "devlogs_count": 3, "votes_count": 44, "ships_count": 2, "projects": [{"id": 9410, "title": "Tic-Tac-Toe", "devlogs_count": 1, "created_at": "2025-08-01T04:47:31.327-04:00"}, {"id": 13363, "title": "The sea of glub", "devlogs_count": 2, "created_at": "2025-09-14T14:25:24.350-04:00"}], "coding_time_seconds": 79692, "coding_time_seconds_today": 0, "balance": "You need to have a pocket watcher badge to view this.", "badges": [{"name": "Maiden Voyage", "text": "you shipped your first project! the journey begins...", "icon": "\ud83d\udea2"}], "created_at": "2025-06-20T04:11:44.214-04:00", "updated_at": "2025-09-10T22:56:16.181-04:00", "avatar": "https://avatars.slack-edge.com/2025-06-20/9077934511365_253ec41a0d4c4d0e1786_original.jpg", "custom_css": null}, {"id": 10223, "slack_id": "U092PG2CRNV", "display_name": "Mehzabin", "bio": null, "projects_count": 0, "devlogs_count": 0, "votes_count": 0, "ships_count": 0, "projects": [], "coding_time_seconds": 0, "coding_time_seconds_today": 0, "balance": "You need to have a pocket watcher badge to view this.", "badges": [], "created_at": "2025-06-20T04:12:21.881-04:00", "updated_at": "2025-07-03T19:55:04.589-04:00", "avatar": "https://secure.gravatar.com/avatar/61b053205ddddafabfd5415d0258dbea.jpg?s=512&d=https%3A%2F%2Fa.slack-edge.com%2Fdf10d%2Fimg%2Favatars%2Fava_0022-512.png", "custom_css": null}, {"id": 10224, "slack_id": "U092Z7Z8D88", "display_name": "Yassine_Yazidi", "bio": null, "projects_count": 0, "devlogs_count": 0, "votes_count": 0, "ships_count": 0, "projects": [], "coding_time_seconds": 0, "coding_time_seconds_today": 0, "balance": "You need to have a pocket watcher badge to view this.", "badges": [], "created_at": "2025-06-20T04:12:23.061-04:00", "updated_at": "2025-07-03T19:55:04.896-04:00", "avatar": "https://secure.gravatar.com/avatar/ee6ac2032d350d5a05a5c049df04e29f.jpg?s=512&d=https%3A%2F%2Fa.slack-edge.com%2Fdf10d%2Fimg%2Favatars%2Fava_0025-512.png", "custom_css": null}, {"id": 10225, "slack_id": "U092Z7HQ73J", "display_name": "Nandani", "bio": null, "projects_count": 0, "devlogs_count": 0, "votes_count": 0, "ships_count": 0, "projects": [], "coding_time_seconds": 0, "coding_time_seconds_today": 0, "balance": "You need to have a pocket watcher badge to view this.", "badges": [], "created_at": "2025-06-20T04:13:32.816-04:00", "updated_at": "2025-07-03T19:55:05.190-04:00", "avatar": "https://secure.gravatar.com/avatar/c48e32d838dabcabf87d7e37e464ccb1.jpg?s=512&d=https%3A%2F%2Fa.slack-edge.com%2Fdf10d%2Fimg%2Favatars%2Fava_0025-512.png", "custom_css": null}, {"id": 10226, "slack_id": "U092PJ4J0LR", "display_name": "Ryogi Mutsuki", "bio": null, "projects_count": 0, "devlogs_count": 0, "votes_count": 0, "ships_count": 0, "projects": [], "coding_time_seconds": 24312, "coding_time_seconds_today": 0, "balance": "You need to have a pocket watcher badge to view this.", "badges": [], "created_at": "2025-06-20T04:15:57.726-04:00", "updated_at": "2025-07-05T02:11:26.834-04:00", "avatar": "https://secure.gravatar.com/avatar/d0d919092ba3a5cd48ff6b56afd01fa5.jpg?s=512&d=https%3A%2F%2Fa.slack-edge.com%2Fdf10d%2Fimg%2Favatars%2Fava_0021-512.png", "custom_css": null}, {"id": 10227, "slack_id": "U092PJS4U65", "display_name": "Md Anas Sabah", "bio": null, "projects_count": 0, "devlogs_count": 0, "votes_count": 0, "ships_count": 0, "projects": [], "coding_time_seconds": 0, "coding_time_seconds_today": 0, "balance": "You need to have a pocket watcher badge to view this.", "badges": [], "created_at": "2025-06-20T04:17:42.453-04:00", "updated_at": "2025-07-03T19:55:05.595-04:00", "avatar": "https://avatars.slack-edge.com/2025-06-20/9091651444721_9fd8ba673ced9485a55d_original.jpg", "custom_css": null}, {"id": 10228, "slack_id": "U09248249KM", "display_name": "bred", "bio": null, "projects_count": 0, "devlogs_count": 0, "votes_count": 0, "ships_count": 0, "projects": [], "coding_time_seconds": 23235, "coding_time_seconds_today": 0, "balance": "You need to have a pocket watcher badge to view this.", "badges": [], "created_at": "2025-06-20T04:19:31.170-04:00", "updated_at": "2025-07-03T22:00:43.168-04:00", "avatar": "https://secure.gravatar.com/avatar/1e81edba36f5e1445cfa5ac60d746053.jpg?s=512&d=https%3A%2F%2Fa.slack-edge.com%2Fdf10d%2Fimg%2Favatars%2Fava_0002-512.png", "custom_css": null}, {"id": 10229, "slack_id": "U0921C2MUG3", "display_name": "ciabatta", "bio": null, "projects_count": 0, "devlogs_count": 0, "votes_count": 0, "ships_count": 0, "projects": [], "coding_time_seconds": 46295, "coding_time_seconds_today": 0, "balance": "You need to have a pocket watcher badge to view this.", "badges": [], "created_at": "2025-06-20T04:21:32.017-04:00", "updated_at": "2025-07-03T19:55:06.008-04:00", "avatar": "https://secure.gravatar.com/avatar/d3b0f55f1358d2d0b6fc93ada0ce9c2d.jpg?s=512&d=https%3A%2F%2Fa.slack-edge.com%2Fdf10d%2Fimg%2Favatars%2Fava_0020-512.png", "custom_css": null}, {"id": 10230, "slack_id": "U091ZB31S6R", "display_name": "Gamitha", "bio": null, "projects_count": 0, "devlogs_count": 0, "votes_count": 0, "ships_count": 0, "projects": [], "coding_time_seconds": 0, "coding_time_seconds_today": 0, "balance": "You need to have a pocket watcher badge to view this.", "badges": [], "created_at": "2025-06-20T04:21:49.790-04:00", "updated_at": "2025-07-04T08:26:17.452-04:00", "avatar": "https://secure.gravatar.com/avatar/ca9bfc953c0b2c2e8c45f7bf7b258fe3.jpg?s=512&d=https%3A%2F%2Fa.slack-edge.com%2Fdf10d%2Fimg%2Favatars%2Fava_0019-512.png", "custom_css": null}, {"id": 10231, "slack_id": "U0929UKMBJ9", "display_name": "suman", "bio": null, "projects_count": 0, "devlogs_count": 0, "votes_count": 0, "ships_count": 0, "projects": [], "coding_time_seconds": 0, "coding_time_seconds_today": 0, "balance": "You need to have a pocket watcher badge to view this.", "badges": [], "created_at": "2025-06-20T04:23:16.230-04:00", "updated_at": "2025-07-03T19:55:06.415-04:00", "avatar": "https://secure.gravatar.com/avatar/79016ecbd43ae9eec2cd7c803c3a7709.jpg?s=512&d=https%3A%2F%2Fa.slack-edge.com%2Fdf10d%2Fimg%2Favatars%2Fava_0023-512.png", "custom_css": null}, {"id": 10232, "slack_id": "U08TB6U6SLB", "display_name": "Krist\u00f3f", "bio": null, "projects_count": 2, "devlogs_count": 0, "votes_count": 0, "ships_count": 0, "projects": [{"id": 2085, "title": "Factory Game", "devlogs_count": 0, "created_at": "2025-06-20T05:07:55.493-04:00"}, {"id": 4262, "title": "Dice Duel", "devlogs_count": 0, "created_at": "2025-06-28T14:13:44.629-04:00"}], "coding_time_seconds": 4095, "coding_time_seconds_today": 0, "balance": "You need to have a pocket watcher badge to view this.", "badges": [], "created_at": "2025-06-20T04:25:00.754-04:00", "updated_at": "2025-07-05T14:12:50.387-04:00", "avatar": "https://secure.gravatar.com/avatar/4b885dcc79ef487edf15c4f9ec73867c.jpg?s=512&d=https%3A%2F%2Fa.slack-edge.com%2Fdf10d%2Fimg%2Favatars%2Fava_0003-512.png", "custom_css": null}, {"id": 10233, "slack_id": "U092ZA65DG8", "display_name": "AdrianC", "bio": null, "projects_count": 0, "devlogs_count": 0, "votes_count": 0, "ships_count": 0, "projects": [], "coding_time_seconds": 0, "coding_time_seconds_today": 0, "balance": "You need to have a pocket watcher badge to view this.", "badges": [], "created_at": "2025-06-20T04:30:15.031-04:00", "updated_at": "2025-07-03T19:55:06.831-04:00", "avatar": "https://secure.gravatar.com/avatar/473a268893a74b537b69e09a4d845de8.jpg?s=512&d=https%3A%2F%2Fa.slack-edge.com%2Fdf10d%2Fimg%2Favatars%2Fava_0006-512.png", "custom_css": null}, {"id": 10234, "slack_id": "U092AQN3YP4", "display_name": "Wi\u015bniaN7", "bio": null, "projects_count": 1, "devlogs_count": 0, "votes_count": 0, "ships_count": 0, "projects": [{"id": 6024, "title": "Ultra Geniusz", "devlogs_count": 0, "created_at": "2025-07-10T03:03:21.711-04:00"}], "coding_time_seconds": 16589, "coding_time_seconds_today": 0, "balance": "You need to have a pocket watcher badge to view this.", "badges": [], "created_at": "2025-06-20T04:35:14.165-04:00", "updated_at": "2025-07-10T03:46:49.758-04:00", "avatar": "https://secure.gravatar.com/avatar/a37bb9e3b1f12d1a3973df20c75e3908.jpg?s=512&d=https%3A%2F%2Fa.slack-edge.com%2Fdf10d%2Fimg%2Favatars%2Fava_0002-512.png", "custom_css": null}, {"id": 10235, "slack_id": "U08475SS770", "display_name": "naruto dragon ball", "bio": null, "projects_count": 2, "devlogs_count": 5, "votes_count": 20, "ships_count": 1, "projects": [{"id": 4884, "title": "Shape Shooters", "devlogs_count": 1, "created_at": "2025-07-02T03:02:33.247-04:00"}, {"id": 2434, "title": "Plinko", "devlogs_count": 4, "created_at": "2025-06-21T02:56:31.300-04:00"}], "coding_time_seconds": 111647, "coding_time_seconds_today": 0, "balance": "You need to have a pocket watcher badge to view this.", "badges": [{"name": "Maiden Voyage", "text": "you shipped your first project! the journey begins...", "icon": "\ud83d\udea2"}], "created_at": "2025-06-20T04:35:19.553-04:00", "updated_at": "2025-09-10T22:56:16.543-04:00", "avatar": "https://avatars.slack-edge.com/2024-12-09/8149729847011_65844b245350c316b67e_original.png", "custom_css": null}, {"id": 10236, "slack_id": "U092MDNRZ41", "display_name": "Krish Koria", "bio": null, "projects_count": 1, "devlogs_count": 1, "votes_count": 0, "ships_count": 0, "projects": [{"id": 2089, "title": "Webhook Delivery Service", "devlogs_count": 1, "created_at": "2025-06-20T05:21:29.683-04:00"}], "coding_time_seconds": 15962, "coding_time_seconds_today": 0, "balance": "You need to have a pocket watcher badge to view this.", "badges": [], "created_at": "2025-06-20T04:37:02.231-04:00", "updated_at": "2025-07-03T19:55:07.665-04:00", "avatar": "https://secure.gravatar.com/avatar/aacbe864d499a052d12c496129fe2feb.jpg?s=512&d=https%3A%2F%2Fa.slack-edge.com%2Fdf10d%2Fimg%2Favatars%2Fava_0021-512.png", "custom_css": null}, {"id": 10237, "slack_id": "U092ZB89K6U", "display_name": "Lee", "bio": null, "projects_count": 0, "devlogs_count": 0, "votes_count": 0, "ships_count": 0, "projects": [], "coding_time_seconds": 0, "coding_time_seconds_today": 0, "balance": "You need to have a pocket watcher badge to view this.", "badges": [], "created_at": "2025-06-20T04:37:20.653-04:00", "updated_at": "2025-07-03T19:55:08.007-04:00", "avatar": "https://secure.gravatar.com/avatar/9cbac145dbcc0a23d4b82453c1fbcb4a.jpg?s=512&d=https%3A%2F%2Fa.slack-edge.com%2Fdf10d%2Fimg%2Favatars%2Fava_0017-512.png", "custom_css": null}, {"id": 10238, "slack_id": "U092N1Q574H", "display_name": "Mohamed Ramadan Abdulhaleem", "bio": null, "projects_count": 0, "devlogs_count": 0, "votes_count": 0, "ships_count": 0, "projects": [], "coding_time_seconds": 0, "coding_time_seconds_today": 0, "balance": "You need to have a pocket watcher badge to view this.", "badges": [], "created_at": "2025-06-20T04:39:15.970-04:00", "updated_at": "2025-07-05T02:11:27.587-04:00", "avatar": "https://secure.gravatar.com/avatar/39cea478549be88f75f4262663afc381.jpg?s=512&d=https%3A%2F%2Fa.slack-edge.com%2Fdf10d%2Fimg%2Favatars%2Fava_0006-512.png", "custom_css": null}, {"id": 10239, "slack_id": "U092B5Y5GTE", "display_name": "johan sebastian", "bio": null, "projects_count": 0, "devlogs_count": 0, "votes_count": 0, "ships_count": 0, "projects": [], "coding_time_seconds": 565, "coding_time_seconds_today": 0, "balance": "You need to have a pocket watcher badge to view this.", "badges": [], "created_at": "2025-06-20T04:42:21.874-04:00", "updated_at": "2025-07-03T19:55:08.422-04:00", "avatar": "https://avatars.slack-edge.com/2025-06-20/9072855310422_efcc318d01a293f01738_original.png", "custom_css": null}, {"id": 10240, "slack_id": "U092B7ENS4U", "display_name": "mole rat", "bio": null, "projects_count": 4, "devlogs_count": 15, "votes_count": 78, "ships_count": 3, "projects": [{"id": 4209, "title": "Dynamic morse code keyer", "devlogs_count": 1, "created_at": "2025-06-28T07:00:31.957-04:00"}, {"id": 10870, "title": "Learning Phaser with a fun little JS game!", "devlogs_count": 1, "created_at": "2025-08-11T12:39:13.048-04:00"}, {"id": 4125, "title": "The Dressed Mole-Rat's website", "devlogs_count": 6, "created_at": "2025-06-27T16:22:56.497-04:00"}, {"id": 7151, "title": "My own webring", "devlogs_count": 7, "created_at": "2025-07-19T13:40:14.998-04:00"}], "coding_time_seconds": 184165, "coding_time_seconds_today": 0, "balance": "You need to have a pocket watcher badge to view this.", "badges": [{"name": "Maiden Voyage", "text": "you shipped your first project! the journey begins...", "icon": "\ud83d\udea2"}], "created_at": "2025-06-20T04:42:42.938-04:00", "updated_at": "2025-09-10T22:56:16.682-04:00", "avatar": "https://avatars.slack-edge.com/2025-06-25/9097919975814_7cacabc63c478effe6f3_original.png", "custom_css": null}], "pagination": {"page": 512, "pages": 1192, "count": 23828, "items": 20}}