{"users": [{"id": 10241, "slack_id": "U092B7PQSE8", "display_name": "Khushi", "bio": null, "projects_count": 0, "devlogs_count": 0, "votes_count": 0, "ships_count": 0, "projects": [], "coding_time_seconds": 0, "coding_time_seconds_today": 0, "balance": "You need to have a pocket watcher badge to view this.", "badges": [], "created_at": "2025-06-20T04:44:06.876-04:00", "updated_at": "2025-07-04T13:33:00.459-04:00", "avatar": "https://secure.gravatar.com/avatar/2fe09ca761026a651425a8b8dc645657.jpg?s=512&d=https%3A%2F%2Fa.slack-edge.com%2Fdf10d%2Fimg%2Favatars%2Fava_0003-512.png", "custom_css": null}, {"id": 10242, "slack_id": "U091W70AFGX", "display_name": "Syed Naveedullah Hussaini", "bio": null, "projects_count": 0, "devlogs_count": 0, "votes_count": 0, "ships_count": 0, "projects": [], "coding_time_seconds": 94109, "coding_time_seconds_today": 0, "balance": "You need to have a pocket watcher badge to view this.", "badges": [], "created_at": "2025-06-20T04:44:30.069-04:00", "updated_at": "2025-07-04T08:26:18.238-04:00", "avatar": "https://secure.gravatar.com/avatar/f3abace5e07aee9edd43d605024b0652.jpg?s=512&d=https%3A%2F%2Fa.slack-edge.com%2Fdf10d%2Fimg%2Favatars%2Fava_0012-512.png", "custom_css": null}, {"id": 10243, "slack_id": "U091Y9S00KF", "display_name": "Jayla", "bio": null, "projects_count": 0, "devlogs_count": 0, "votes_count": 0, "ships_count": 0, "projects": [], "coding_time_seconds": 0, "coding_time_seconds_today": 0, "balance": "You need to have a pocket watcher badge to view this.", "badges": [], "created_at": "2025-06-20T04:46:06.235-04:00", "updated_at": "2025-07-03T19:55:09.391-04:00", "avatar": "https://avatars.slack-edge.com/2025-06-20/9101447073152_2b323e94c34c78f33c63_original.jpg", "custom_css": null}, {"id": 10244, "slack_id": "U092B80UX6G", "display_name": "Nick Gilgen", "bio": null, "projects_count": 0, "devlogs_count": 0, "votes_count": 0, "ships_count": 0, "projects": [], "coding_time_seconds": 0, "coding_time_seconds_today": 0, "balance": "You need to have a pocket watcher badge to view this.", "badges": [], "created_at": "2025-06-20T04:46:39.951-04:00", "updated_at": "2025-07-03T19:55:09.661-04:00", "avatar": "https://avatars.slack-edge.com/2025-06-20/9079284987492_1af941fafd742f301509_original.jpg", "custom_css": null}, {"id": 10245, "slack_id": "U092Z8X68D6", "display_name": "godsfreaks", "bio": null, "projects_count": 0, "devlogs_count": 0, "votes_count": 0, "ships_count": 0, "projects": [], "coding_time_seconds": 0, "coding_time_seconds_today": 0, "balance": "You need to have a pocket watcher badge to view this.", "badges": [], "created_at": "2025-06-20T04:48:10.449-04:00", "updated_at": "2025-07-03T19:55:09.943-04:00", "avatar": "https://secure.gravatar.com/avatar/fb8557dd2fec7448c34dbc3907f96221.jpg?s=512&d=https%3A%2F%2Fa.slack-edge.com%2Fdf10d%2Fimg%2Favatars%2Fava_0012-512.png", "custom_css": null}, {"id": 10246, "slack_id": "U092ZCYLLCQ", "display_name": "Senura", "bio": null, "projects_count": 0, "devlogs_count": 0, "votes_count": 0, "ships_count": 0, "projects": [], "coding_time_seconds": 0, "coding_time_seconds_today": 0, "balance": "You need to have a pocket watcher badge to view this.", "badges": [], "created_at": "2025-06-20T04:52:14.304-04:00", "updated_at": "2025-07-03T19:55:10.220-04:00", "avatar": "https://avatars.slack-edge.com/2025-06-20/9101458030304_688b75f15e7e76b388f9_original.png", "custom_css": null}, {"id": 10247, "slack_id": "U0924S03MKQ", "display_name": "Bhumika", "bio": null, "projects_count": 0, "devlogs_count": 0, "votes_count": 0, "ships_count": 0, "projects": [], "coding_time_seconds": 0, "coding_time_seconds_today": 0, "balance": "You need to have a pocket watcher badge to view this.", "badges": [], "created_at": "2025-06-20T04:53:37.702-04:00", "updated_at": "2025-07-27T01:01:00.754-04:00", "avatar": "https://secure.gravatar.com/avatar/7aac3234ab737d251311b8b8e3fb13ea.jpg?s=512&d=https%3A%2F%2Fa.slack-edge.com%2Fdf10d%2Fimg%2Favatars%2Fava_0010-512.png", "custom_css": null}, {"id": 10248, "slack_id": "U07EFCL1GDN", "display_name": "sportshead", "bio": null, "projects_count": 1, "devlogs_count": 0, "votes_count": 0, "ships_count": 0, "projects": [{"id": 2087, "title": "kronos", "devlogs_count": 0, "created_at": "2025-06-20T05:21:13.398-04:00"}], "coding_time_seconds": 39793, "coding_time_seconds_today": 648, "balance": "You need to have a pocket watcher badge to view this.", "badges": [], "created_at": "2025-06-20T05:01:57.150-04:00", "updated_at": "2025-07-03T19:55:10.755-04:00", "avatar": "https://secure.gravatar.com/avatar/e09ff491bcffcfe838a39a9761e0ccb6.jpg?s=512&d=https%3A%2F%2Fa.slack-edge.com%2Fdf10d%2Fimg%2Favatars%2Fava_0001-512.png", "custom_css": null}, {"id": 10249, "slack_id": "U091W9QL8KZ", "display_name": "Sahil Jaiswal", "bio": null, "projects_count": 0, "devlogs_count": 0, "votes_count": 0, "ships_count": 0, "projects": [], "coding_time_seconds": 0, "coding_time_seconds_today": 0, "balance": "You need to have a pocket watcher badge to view this.", "badges": [], "created_at": "2025-06-20T05:04:05.500-04:00", "updated_at": "2025-07-03T19:55:11.029-04:00", "avatar": "https://avatars.slack-edge.com/2025-06-20/9101515540048_4e4591721f76dfcb010a_original.jpg", "custom_css": null}, {"id": 10250, "slack_id": "U0926QFGASE", "display_name": "Abdelrahman Mostafa", "bio": null, "projects_count": 0, "devlogs_count": 0, "votes_count": 0, "ships_count": 0, "projects": [], "coding_time_seconds": 0, "coding_time_seconds_today": 0, "balance": "You need to have a pocket watcher badge to view this.", "badges": [], "created_at": "2025-06-20T05:07:02.836-04:00", "updated_at": "2025-07-04T20:10:55.655-04:00", "avatar": "https://secure.gravatar.com/avatar/712102de12d260aeab43bb33654e21e8.jpg?s=512&d=https%3A%2F%2Fa.slack-edge.com%2Fdf10d%2Fimg%2Favatars%2Fava_0021-512.png", "custom_css": null}, {"id": 10251, "slack_id": "U0924E27T4K", "display_name": "JITHU", "bio": null, "projects_count": 0, "devlogs_count": 0, "votes_count": 0, "ships_count": 0, "projects": [], "coding_time_seconds": 0, "coding_time_seconds_today": 0, "balance": "You need to have a pocket watcher badge to view this.", "badges": [], "created_at": "2025-06-20T05:08:50.559-04:00", "updated_at": "2025-07-03T19:55:11.417-04:00", "avatar": "https://secure.gravatar.com/avatar/c671ed9cfb47f79d1e11a83cafd4caa6.jpg?s=512&d=https%3A%2F%2Fa.slack-edge.com%2Fdf10d%2Fimg%2Favatars%2Fava_0015-512.png", "custom_css": null}, {"id": 10252, "slack_id": "U092A58FC21", "display_name": "Felix", "bio": null, "projects_count": 0, "devlogs_count": 0, "votes_count": 0, "ships_count": 0, "projects": [], "coding_time_seconds": 0, "coding_time_seconds_today": 0, "balance": "You need to have a pocket watcher badge to view this.", "badges": [], "created_at": "2025-06-20T05:08:50.788-04:00", "updated_at": "2025-07-05T14:12:51.612-04:00", "avatar": "https://secure.gravatar.com/avatar/09cc2228239e385c6ab9d39cd828bf57.jpg?s=512&d=https%3A%2F%2Fa.slack-edge.com%2Fdf10d%2Fimg%2Favatars%2Fava_0024-512.png", "custom_css": null}, {"id": 10253, "slack_id": "U091WB85B9V", "display_name": "lucasluca0000", "bio": null, "projects_count": 0, "devlogs_count": 0, "votes_count": 0, "ships_count": 0, "projects": [], "coding_time_seconds": 0, "coding_time_seconds_today": 0, "balance": "You need to have a pocket watcher badge to view this.", "badges": [], "created_at": "2025-06-20T05:14:05.115-04:00", "updated_at": "2025-07-03T19:55:11.841-04:00", "avatar": "https://secure.gravatar.com/avatar/0aba480714510d770daa15d0dd3a3ce0.jpg?s=512&d=https%3A%2F%2Fa.slack-edge.com%2Fdf10d%2Fimg%2Favatars%2Fava_0003-512.png", "custom_css": null}, {"id": 10254, "slack_id": "U091WBDGB39", "display_name": "MioGram", "bio": null, "projects_count": 0, "devlogs_count": 0, "votes_count": 0, "ships_count": 0, "projects": [], "coding_time_seconds": 0, "coding_time_seconds_today": 0, "balance": "You need to have a pocket watcher badge to view this.", "badges": [], "created_at": "2025-06-20T05:15:54.856-04:00", "updated_at": "2025-07-03T19:55:12.093-04:00", "avatar": "https://secure.gravatar.com/avatar/570b111fb03cd1b375f2575eb11399ea.jpg?s=512&d=https%3A%2F%2Fa.slack-edge.com%2Fdf10d%2Fimg%2Favatars%2Fava_0018-512.png", "custom_css": null}, {"id": 10255, "slack_id": "U090ACMPKLH", "display_name": "abby", "bio": null, "projects_count": 0, "devlogs_count": 5, "votes_count": 0, "ships_count": 0, "projects": [], "coding_time_seconds": 129670, "coding_time_seconds_today": 0, "balance": "You need to have a pocket watcher badge to view this.", "badges": [], "created_at": "2025-06-20T05:16:49.223-04:00", "updated_at": "2025-07-09T17:00:28.429-04:00", "avatar": "https://avatars.slack-edge.com/2025-06-04/9000911523620_45a3da40cfa87624bba7_original.jpg", "custom_css": null}, {"id": 10256, "slack_id": "U092ZGS5X32", "display_name": "Vijayshree", "bio": null, "projects_count": 0, "devlogs_count": 0, "votes_count": 0, "ships_count": 0, "projects": [], "coding_time_seconds": 0, "coding_time_seconds_today": 0, "balance": "You need to have a pocket watcher badge to view this.", "badges": [], "created_at": "2025-06-20T05:20:35.976-04:00", "updated_at": "2025-07-03T22:00:45.118-04:00", "avatar": "https://secure.gravatar.com/avatar/28932dd43aa6be654d438789c51043ee.jpg?s=512&d=https%3A%2F%2Fa.slack-edge.com%2Fdf10d%2Fimg%2Favatars%2Fava_0008-512.png", "custom_css": null}, {"id": 10257, "slack_id": "U091L77P0LF", "display_name": "Basavala Sri Harsha", "bio": null, "projects_count": 0, "devlogs_count": 0, "votes_count": 0, "ships_count": 0, "projects": [], "coding_time_seconds": 7738, "coding_time_seconds_today": 0, "balance": "You need to have a pocket watcher badge to view this.", "badges": [], "created_at": "2025-06-20T05:27:41.494-04:00", "updated_at": "2025-07-04T02:30:02.510-04:00", "avatar": "https://secure.gravatar.com/avatar/11fb05a561828091037f99bf362b729e.jpg?s=512&d=https%3A%2F%2Fa.slack-edge.com%2Fdf10d%2Fimg%2Favatars%2Fava_0019-512.png", "custom_css": null}, {"id": 10258, "slack_id": "U092VJV1FQQ", "display_name": "Mahaan bhat", "bio": null, "projects_count": 0, "devlogs_count": 0, "votes_count": 0, "ships_count": 0, "projects": [], "coding_time_seconds": 0, "coding_time_seconds_today": 0, "balance": "You need to have a pocket watcher badge to view this.", "badges": [], "created_at": "2025-06-20T05:31:05.332-04:00", "updated_at": "2025-07-03T19:55:12.909-04:00", "avatar": "https://avatars.slack-edge.com/2025-06-20/9064468321271_72f0cf1957cf26f3a8fe_original.png", "custom_css": null}, {"id": 10259, "slack_id": "U0924HAMPRR", "display_name": "kondas", "bio": null, "projects_count": 0, "devlogs_count": 0, "votes_count": 0, "ships_count": 0, "projects": [], "coding_time_seconds": 605630, "coding_time_seconds_today": 0, "balance": "You need to have a pocket watcher badge to view this.", "badges": [], "created_at": "2025-06-20T05:34:51.116-04:00", "updated_at": "2025-07-05T02:11:29.552-04:00", "avatar": "https://avatars.slack-edge.com/2025-06-20/9101679769728_a813dc8c0d7a7c4ee172_original.jpg", "custom_css": null}, {"id": 10260, "slack_id": "U091VF38Y6T", "display_name": "Vihaan Nathan Pinto", "bio": null, "projects_count": 0, "devlogs_count": 0, "votes_count": 15, "ships_count": 0, "projects": [], "coding_time_seconds": 123915, "coding_time_seconds_today": 0, "balance": "You need to have a pocket watcher badge to view this.", "badges": [{"name": "Maiden Voyage", "text": "you shipped your first project! the journey begins...", "icon": "\ud83d\udea2"}], "created_at": "2025-06-20T05:35:15.780-04:00", "updated_at": "2025-09-10T22:56:17.324-04:00", "avatar": "https://avatars.slack-edge.com/2025-06-20/9101649534976_14827464e694d97357f3_original.png", "custom_css": null}], "pagination": {"page": 513, "pages": 1192, "count": 23828, "items": 20}}