{"users": [{"id": 10261, "slack_id": "U092B31THAN", "display_name": "mustafa bhikhapurwala", "bio": null, "projects_count": 1, "devlogs_count": 0, "votes_count": 0, "ships_count": 0, "projects": [{"id": 2098, "title": "inventory management", "devlogs_count": 0, "created_at": "2025-06-20T05:58:52.873-04:00"}], "coding_time_seconds": 28388, "coding_time_seconds_today": 610, "balance": "You need to have a pocket watcher badge to view this.", "badges": [], "created_at": "2025-06-20T05:35:49.552-04:00", "updated_at": "2025-07-03T19:55:13.597-04:00", "avatar": "https://secure.gravatar.com/avatar/5709bae2e66eb8583509f881f33b8064.jpg?s=512&d=https%3A%2F%2Fa.slack-edge.com%2Fdf10d%2Fimg%2Favatars%2Fava_0001-512.png", "custom_css": null}, {"id": 10262, "slack_id": "U092A5VRUJH", "display_name": "Iqra Shahid Raja Shahid Ahmed Khan", "bio": null, "projects_count": 0, "devlogs_count": 0, "votes_count": 0, "ships_count": 0, "projects": [], "coding_time_seconds": 0, "coding_time_seconds_today": 0, "balance": "You need to have a pocket watcher badge to view this.", "badges": [], "created_at": "2025-06-20T05:36:27.052-04:00", "updated_at": "2025-07-03T19:55:13.870-04:00", "avatar": "https://avatars.slack-edge.com/2025-06-20/9073099344902_eec43bb8b45405cb5ca9_original.png", "custom_css": null}, {"id": 10263, "slack_id": "U091WE78T2B", "display_name": "cos", "bio": null, "projects_count": 0, "devlogs_count": 0, "votes_count": 0, "ships_count": 0, "projects": [], "coding_time_seconds": 0, "coding_time_seconds_today": 0, "balance": "You need to have a pocket watcher badge to view this.", "badges": [], "created_at": "2025-06-20T05:39:08.995-04:00", "updated_at": "2025-07-03T19:55:14.138-04:00", "avatar": "https://secure.gravatar.com/avatar/fd674139937b13429fac7bffc2dc507b.jpg?s=512&d=https%3A%2F%2Fa.slack-edge.com%2Fdf10d%2Fimg%2Favatars%2Fava_0000-512.png", "custom_css": null}, {"id": 10264, "slack_id": "U092A2UFMK7", "display_name": "Maro", "bio": null, "projects_count": 0, "devlogs_count": 0, "votes_count": 0, "ships_count": 0, "projects": [], "coding_time_seconds": 13841, "coding_time_seconds_today": 0, "balance": "You need to have a pocket watcher badge to view this.", "badges": [], "created_at": "2025-06-20T05:39:52.266-04:00", "updated_at": "2025-09-03T02:53:10.633-04:00", "avatar": "https://avatars.slack-edge.com/2025-09-02/9444137991827_338ff1975c82a81dd51c_original.jpg", "custom_css": null}, {"id": 10265, "slack_id": "U08F90T5J1W", "display_name": "Art3mis", "bio": null, "projects_count": 1, "devlogs_count": 1, "votes_count": 1, "ships_count": 0, "projects": [{"id": 2107, "title": "Recipe Book", "devlogs_count": 1, "created_at": "2025-06-20T06:57:15.905-04:00"}], "coding_time_seconds": 100979, "coding_time_seconds_today": 0, "balance": "You need to have a pocket watcher badge to view this.", "badges": [], "created_at": "2025-06-20T05:42:10.950-04:00", "updated_at": "2025-07-03T19:55:14.532-04:00", "avatar": "https://avatars.slack-edge.com/2025-06-04/9010806159665_995cf4435f97cddf4cb5_original.png", "custom_css": null}, {"id": 10266, "slack_id": "U092B475U0J", "display_name": "CsPS", "bio": null, "projects_count": 2, "devlogs_count": 0, "votes_count": 0, "ships_count": 0, "projects": [{"id": 2099, "title": "PDF-Processor", "devlogs_count": 0, "created_at": "2025-06-20T06:03:01.762-04:00"}, {"id": 2101, "title": "Neumann Survival Week", "devlogs_count": 0, "created_at": "2025-06-20T06:10:00.374-04:00"}], "coding_time_seconds": 26217, "coding_time_seconds_today": 0, "balance": "You need to have a pocket watcher badge to view this.", "badges": [], "created_at": "2025-06-20T05:42:26.812-04:00", "updated_at": "2025-07-03T19:55:14.797-04:00", "avatar": "https://secure.gravatar.com/avatar/0bbd80ea90d0dde9b466ade3740b8479.jpg?s=512&d=https%3A%2F%2Fa.slack-edge.com%2Fdf10d%2Fimg%2Favatars%2Fava_0000-512.png", "custom_css": null}, {"id": 10267, "slack_id": "U0924JGE69H", "display_name": "Maty\u00e1\u0161 Petr", "bio": null, "projects_count": 1, "devlogs_count": 0, "votes_count": 0, "ships_count": 0, "projects": [{"id": 2437, "title": "A1 Gopro Timelapse via an esp 32", "devlogs_count": 0, "created_at": "2025-06-21T03:14:12.207-04:00"}], "coding_time_seconds": 106374, "coding_time_seconds_today": 0, "balance": "You need to have a pocket watcher badge to view this.", "badges": [], "created_at": "2025-06-20T05:43:14.777-04:00", "updated_at": "2025-07-03T19:55:15.058-04:00", "avatar": "https://secure.gravatar.com/avatar/f6b828ca89496bed8b855e394f3805d2.jpg?s=512&d=https%3A%2F%2Fa.slack-edge.com%2Fdf10d%2Fimg%2Favatars%2Fava_0022-512.png", "custom_css": null}, {"id": 10268, "slack_id": "U092ZK5BV5W", "display_name": "Marcin", "bio": null, "projects_count": 0, "devlogs_count": 0, "votes_count": 0, "ships_count": 0, "projects": [], "coding_time_seconds": 0, "coding_time_seconds_today": 0, "balance": "You need to have a pocket watcher badge to view this.", "badges": [], "created_at": "2025-06-20T05:44:44.792-04:00", "updated_at": "2025-07-03T19:55:15.335-04:00", "avatar": "https://secure.gravatar.com/avatar/68142251c6e930603ceb3e866a54f786.jpg?s=512&d=https%3A%2F%2Fa.slack-edge.com%2Fdf10d%2Fimg%2Favatars%2Fava_0009-512.png", "custom_css": null}, {"id": 10269, "slack_id": "U092Q0E08RX", "display_name": "Atharv Mandlavdiya", "bio": null, "projects_count": 0, "devlogs_count": 0, "votes_count": 0, "ships_count": 0, "projects": [], "coding_time_seconds": 0, "coding_time_seconds_today": 0, "balance": "You need to have a pocket watcher badge to view this.", "badges": [], "created_at": "2025-06-20T05:47:02.904-04:00", "updated_at": "2025-07-03T19:55:15.593-04:00", "avatar": "https://avatars.slack-edge.com/2025-06-20/9078397677077_e84eceed10597364d73b_original.png", "custom_css": null}, {"id": 10270, "slack_id": "U0917TBR547", "display_name": "Naruto", "bio": null, "projects_count": 0, "devlogs_count": 0, "votes_count": 0, "ships_count": 0, "projects": [], "coding_time_seconds": 0, "coding_time_seconds_today": 0, "balance": "You need to have a pocket watcher badge to view this.", "badges": [], "created_at": "2025-06-20T05:47:09.569-04:00", "updated_at": "2025-07-03T19:55:15.855-04:00", "avatar": "https://secure.gravatar.com/avatar/45be345c798ab9c9f752df0f9526e578.jpg?s=512&d=https%3A%2F%2Fa.slack-edge.com%2Fdf10d%2Fimg%2Favatars%2Fava_0026-512.png", "custom_css": null}, {"id": 10271, "slack_id": "U092B4P7T26", "display_name": "Mohamad Ali", "bio": null, "projects_count": 0, "devlogs_count": 0, "votes_count": 0, "ships_count": 0, "projects": [], "coding_time_seconds": 1204, "coding_time_seconds_today": 0, "balance": "You need to have a pocket watcher badge to view this.", "badges": [], "created_at": "2025-06-20T05:49:12.514-04:00", "updated_at": "2025-07-07T02:12:30.671-04:00", "avatar": "https://secure.gravatar.com/avatar/6bb5cbec258463565a20e8f8db889227.jpg?s=512&d=https%3A%2F%2Fa.slack-edge.com%2Fdf10d%2Fimg%2Favatars%2Fava_0015-512.png", "custom_css": null}, {"id": 10272, "slack_id": "U092Q19T4RF", "display_name": "Project X", "bio": null, "projects_count": 0, "devlogs_count": 0, "votes_count": 0, "ships_count": 0, "projects": [], "coding_time_seconds": 0, "coding_time_seconds_today": 0, "balance": "You need to have a pocket watcher badge to view this.", "badges": [], "created_at": "2025-06-20T05:51:02.295-04:00", "updated_at": "2025-07-03T19:55:16.276-04:00", "avatar": "https://avatars.slack-edge.com/2025-06-20/9079199031410_c2f5d2ad73fce9c70ffd_original.png", "custom_css": null}, {"id": 10273, "slack_id": "U092ZKZ1116", "display_name": "Toby Walker", "bio": null, "projects_count": 1, "devlogs_count": 4, "votes_count": 4, "ships_count": 0, "projects": [{"id": 2119, "title": "OnlineGarden.net", "devlogs_count": 4, "created_at": "2025-06-20T07:24:43.710-04:00"}], "coding_time_seconds": 17887, "coding_time_seconds_today": 0, "balance": "You need to have a pocket watcher badge to view this.", "badges": [], "created_at": "2025-06-20T05:52:11.187-04:00", "updated_at": "2025-07-04T02:30:03.586-04:00", "avatar": "https://avatars.slack-edge.com/2025-06-22/9079535552534_eefce7ae1934b3e2eb0c_original.jpg", "custom_css": null}, {"id": 10274, "slack_id": "U092Q1S35B3", "display_name": "manan", "bio": null, "projects_count": 0, "devlogs_count": 0, "votes_count": 0, "ships_count": 0, "projects": [], "coding_time_seconds": 0, "coding_time_seconds_today": 0, "balance": "You need to have a pocket watcher badge to view this.", "badges": [], "created_at": "2025-06-20T05:54:01.512-04:00", "updated_at": "2025-07-03T19:55:16.668-04:00", "avatar": "https://secure.gravatar.com/avatar/8bf598c9e64a832d2b00088165f4d423.jpg?s=512&d=https%3A%2F%2Fa.slack-edge.com%2Fdf10d%2Fimg%2Favatars%2Fava_0025-512.png", "custom_css": null}, {"id": 10275, "slack_id": "U092B5HUY2E", "display_name": "John Martin", "bio": null, "projects_count": 0, "devlogs_count": 0, "votes_count": 0, "ships_count": 0, "projects": [], "coding_time_seconds": 501, "coding_time_seconds_today": 0, "balance": "You need to have a pocket watcher badge to view this.", "badges": [], "created_at": "2025-06-20T05:54:03.756-04:00", "updated_at": "2025-07-03T19:55:16.939-04:00", "avatar": "https://secure.gravatar.com/avatar/85ba514943b753200e2d9a7797bac95f.jpg?s=512&d=https%3A%2F%2Fa.slack-edge.com%2Fdf10d%2Fimg%2Favatars%2Fava_0013-512.png", "custom_css": null}, {"id": 10276, "slack_id": "U092ABUE8J1", "display_name": "Diego", "bio": null, "projects_count": 0, "devlogs_count": 0, "votes_count": 0, "ships_count": 0, "projects": [], "coding_time_seconds": 6834, "coding_time_seconds_today": 0, "balance": "You need to have a pocket watcher badge to view this.", "badges": [], "created_at": "2025-06-20T05:54:21.225-04:00", "updated_at": "2025-07-03T19:55:17.199-04:00", "avatar": "https://secure.gravatar.com/avatar/16c901f16ec1ae660e13b7b2e95a7619.jpg?s=512&d=https%3A%2F%2Fa.slack-edge.com%2Fdf10d%2Fimg%2Favatars%2Fava_0017-512.png", "custom_css": null}, {"id": 10277, "slack_id": "U08912PQYTA", "display_name": "Alex", "bio": null, "projects_count": 0, "devlogs_count": 0, "votes_count": 0, "ships_count": 0, "projects": [], "coding_time_seconds": 0, "coding_time_seconds_today": 0, "balance": "You need to have a pocket watcher badge to view this.", "badges": [], "created_at": "2025-06-20T05:55:20.909-04:00", "updated_at": "2025-07-03T19:55:17.474-04:00", "avatar": "https://secure.gravatar.com/avatar/8edb9571a8741cc567c1d283ae8a63f4.jpg?s=512&d=https%3A%2F%2Fa.slack-edge.com%2Fdf10d%2Fimg%2Favatars%2Fava_0021-512.png", "custom_css": null}, {"id": 10278, "slack_id": "U092Q1L3KQR", "display_name": "\u4f55\u7766", "bio": null, "projects_count": 0, "devlogs_count": 0, "votes_count": 0, "ships_count": 0, "projects": [], "coding_time_seconds": 0, "coding_time_seconds_today": 0, "balance": "You need to have a pocket watcher badge to view this.", "badges": [], "created_at": "2025-06-20T05:57:46.433-04:00", "updated_at": "2025-07-05T08:11:52.857-04:00", "avatar": "https://secure.gravatar.com/avatar/23b1087827d3e8f14895470770a6d9a2.jpg?s=512&d=https%3A%2F%2Fa.slack-edge.com%2Fdf10d%2Fimg%2Favatars%2Fava_0017-512.png", "custom_css": null}, {"id": 10279, "slack_id": "U092ZMVMS6L", "display_name": "Aryakumar Parmar", "bio": null, "projects_count": 0, "devlogs_count": 0, "votes_count": 0, "ships_count": 0, "projects": [], "coding_time_seconds": 0, "coding_time_seconds_today": 0, "balance": "You need to have a pocket watcher badge to view this.", "badges": [], "created_at": "2025-06-20T06:03:01.345-04:00", "updated_at": "2025-07-03T19:55:17.880-04:00", "avatar": "https://secure.gravatar.com/avatar/04455757b65c59f1ec7805afb5637a20.jpg?s=512&d=https%3A%2F%2Fa.slack-edge.com%2Fdf10d%2Fimg%2Favatars%2Fava_0019-512.png", "custom_css": null}, {"id": 10280, "slack_id": "U091UFB6W1M", "display_name": "Mark Odera", "bio": null, "projects_count": 0, "devlogs_count": 0, "votes_count": 0, "ships_count": 0, "projects": [], "coding_time_seconds": 0, "coding_time_seconds_today": 0, "balance": "You need to have a pocket watcher badge to view this.", "badges": [], "created_at": "2025-06-20T06:05:51.671-04:00", "updated_at": "2025-07-04T08:26:20.754-04:00", "avatar": "https://secure.gravatar.com/avatar/e3705c0938f9136e58f7b568da43c5b0.jpg?s=512&d=https%3A%2F%2Fa.slack-edge.com%2Fdf10d%2Fimg%2Favatars%2Fava_0019-512.png", "custom_css": null}], "pagination": {"page": 514, "pages": 1192, "count": 23828, "items": 20}}