{"users": [{"id": 10281, "slack_id": "U092ADQQYF7", "display_name": "Ahmed Meliane", "bio": null, "projects_count": 0, "devlogs_count": 0, "votes_count": 0, "ships_count": 0, "projects": [], "coding_time_seconds": 165880, "coding_time_seconds_today": 0, "balance": "You need to have a pocket watcher badge to view this.", "badges": [], "created_at": "2025-06-20T06:06:46.130-04:00", "updated_at": "2025-07-03T19:55:18.320-04:00", "avatar": "https://avatars.slack-edge.com/2025-06-20/9064621552039_c63851edb7395099cc98_original.jpg", "custom_css": null}, {"id": 10282, "slack_id": "U092ZNKDEF2", "display_name": "thanh ph\u01b0\u01a1ng", "bio": null, "projects_count": 0, "devlogs_count": 34, "votes_count": 1, "ships_count": 0, "projects": [], "coding_time_seconds": 434809, "coding_time_seconds_today": 0, "balance": "You need to have a pocket watcher badge to view this.", "badges": [{"name": "Maiden Voyage", "text": "you shipped your first project! the journey begins...", "icon": "\ud83d\udea2"}], "created_at": "2025-06-20T06:06:59.232-04:00", "updated_at": "2025-09-10T22:56:17.956-04:00", "avatar": "https://secure.gravatar.com/avatar/e09c6516c952d77c46798fa438ef2e41.jpg?s=512&d=https%3A%2F%2Fa.slack-edge.com%2Fdf10d%2Fimg%2Favatars%2Fava_0023-512.png", "custom_css": null}, {"id": 10283, "slack_id": "U092Q3VCPQR", "display_name": "Aradhya", "bio": null, "projects_count": 0, "devlogs_count": 0, "votes_count": 0, "ships_count": 0, "projects": [], "coding_time_seconds": 0, "coding_time_seconds_today": 0, "balance": "You need to have a pocket watcher badge to view this.", "badges": [], "created_at": "2025-06-20T06:11:11.360-04:00", "updated_at": "2025-07-03T19:55:18.841-04:00", "avatar": "https://secure.gravatar.com/avatar/bedaf46ecfacbe9dcd68fd008f674ead.jpg?s=512&d=https%3A%2F%2Fa.slack-edge.com%2Fdf10d%2Fimg%2Favatars%2Fava_0003-512.png", "custom_css": null}, {"id": 10284, "slack_id": "U08835GJUDU", "display_name": "25th_Bam", "bio": "", "projects_count": 0, "devlogs_count": 179, "votes_count": 258, "ships_count": 0, "projects": [], "coding_time_seconds": 1218387, "coding_time_seconds_today": 0, "balance": "You need to have a pocket watcher badge to view this.", "badges": [{"name": "Maiden Voyage", "text": "you shipped your first project! the journey begins...", "icon": "\ud83d\udea2"}, {"name": "Offshore Bank Account", "text": "away from the watchful eyes...", "icon": "https://summer.hackclub.com/assets/offshore_bank_account-8e65cc4d.png"}, {"name": "Ballot Stuffer", "text": "vote 100 times.", "icon": "https://summer.hackclub.com/assets/i_voted-bf851b48.png"}, {"name": "Yapper I", "text": "Posted 10 comments on devlogs.", "icon": "\ud83d\udcac"}], "created_at": "2025-06-20T06:12:04.568-04:00", "updated_at": "2025-09-16T01:44:33.137-04:00", "avatar": "https://secure.gravatar.com/avatar/6ca5b4493aeedfadc0f31d9246075992.jpg?s=512&d=https%3A%2F%2Fa.slack-edge.com%2Fdf10d%2Fimg%2Favatars%2Fava_0003-512.png", "custom_css": null}, {"id": 10285, "slack_id": "U092BJYCQ3E", "display_name": "jin", "bio": null, "projects_count": 0, "devlogs_count": 0, "votes_count": 0, "ships_count": 0, "projects": [], "coding_time_seconds": 0, "coding_time_seconds_today": 0, "balance": "You need to have a pocket watcher badge to view this.", "badges": [], "created_at": "2025-06-20T06:12:13.962-04:00", "updated_at": "2025-07-03T19:55:19.253-04:00", "avatar": "https://secure.gravatar.com/avatar/10bfa7379ff67dbc285640f6dbde1d67.jpg?s=512&d=https%3A%2F%2Fa.slack-edge.com%2Fdf10d%2Fimg%2Favatars%2Fava_0008-512.png", "custom_css": null}, {"id": 10286, "slack_id": "U092ZPA496C", "display_name": "Muhammad Ehsan", "bio": null, "projects_count": 0, "devlogs_count": 0, "votes_count": 0, "ships_count": 0, "projects": [], "coding_time_seconds": 0, "coding_time_seconds_today": 0, "balance": "You need to have a pocket watcher badge to view this.", "badges": [], "created_at": "2025-06-20T06:14:17.479-04:00", "updated_at": "2025-07-03T19:55:19.507-04:00", "avatar": "https://secure.gravatar.com/avatar/f9475ea2c3b79ef4975fd80d3a599156.jpg?s=512&d=https%3A%2F%2Fa.slack-edge.com%2Fdf10d%2Fimg%2Favatars%2Fava_0010-512.png", "custom_css": null}, {"id": 10287, "slack_id": "U091BU6HXN3", "display_name": "Servesh", "bio": null, "projects_count": 0, "devlogs_count": 0, "votes_count": 0, "ships_count": 0, "projects": [], "coding_time_seconds": 0, "coding_time_seconds_today": 0, "balance": "You need to have a pocket watcher badge to view this.", "badges": [], "created_at": "2025-06-20T06:15:17.810-04:00", "updated_at": "2025-07-03T22:00:47.131-04:00", "avatar": "https://secure.gravatar.com/avatar/ef3a7f89c9bba220ce5347d8a3678797.jpg?s=512&d=https%3A%2F%2Fa.slack-edge.com%2Fdf10d%2Fimg%2Favatars%2Fava_0010-512.png", "custom_css": null}, {"id": 10288, "slack_id": "U07SSRVGN30", "display_name": "Aditya_1819", "bio": "Only GOD can judge me", "projects_count": 1, "devlogs_count": 49, "votes_count": 74, "ships_count": 0, "projects": [{"id": 13093, "title": "MatchIT", "devlogs_count": 4, "created_at": "2025-09-08T12:47:00.842-04:00"}], "coding_time_seconds": 282136, "coding_time_seconds_today": 0, "balance": "You need to have a pocket watcher badge to view this.", "badges": [{"name": "Maiden Voyage", "text": "you shipped your first project! the journey begins...", "icon": "\ud83d\udea2"}], "created_at": "2025-06-20T06:15:24.317-04:00", "updated_at": "2025-09-10T22:56:18.248-04:00", "avatar": "https://avatars.slack-edge.com/2025-01-12/8278948844485_06b91e4bef1aea0b9b46_original.jpg", "custom_css": null}, {"id": 10289, "slack_id": "U092AEK0HQV", "display_name": "softcoder", "bio": null, "projects_count": 0, "devlogs_count": 0, "votes_count": 0, "ships_count": 0, "projects": [], "coding_time_seconds": 0, "coding_time_seconds_today": 0, "balance": "You need to have a pocket watcher badge to view this.", "badges": [], "created_at": "2025-06-20T06:15:48.441-04:00", "updated_at": "2025-07-03T19:55:20.212-04:00", "avatar": "https://secure.gravatar.com/avatar/6c2f64fe20e8d165a1f612bd66671fea.jpg?s=512&d=https%3A%2F%2Fa.slack-edge.com%2Fdf10d%2Fimg%2Favatars%2Fava_0025-512.png", "custom_css": null}, {"id": 10290, "slack_id": "U09258ABCPQ", "display_name": "Elyashiv", "bio": null, "projects_count": 0, "devlogs_count": 0, "votes_count": 0, "ships_count": 0, "projects": [], "coding_time_seconds": 0, "coding_time_seconds_today": 0, "balance": "You need to have a pocket watcher badge to view this.", "badges": [], "created_at": "2025-06-20T06:25:42.634-04:00", "updated_at": "2025-07-05T20:11:53.606-04:00", "avatar": "https://secure.gravatar.com/avatar/3fd1730b8f5f3aad1ddb7a6cc2b4dd82.jpg?s=512&d=https%3A%2F%2Fa.slack-edge.com%2Fdf10d%2Fimg%2Favatars%2Fava_0004-512.png", "custom_css": null}, {"id": 10291, "slack_id": "U09258H55V4", "display_name": "Amit Kumar", "bio": null, "projects_count": 0, "devlogs_count": 0, "votes_count": 0, "ships_count": 0, "projects": [], "coding_time_seconds": 0, "coding_time_seconds_today": 0, "balance": "You need to have a pocket watcher badge to view this.", "badges": [], "created_at": "2025-06-20T06:27:20.687-04:00", "updated_at": "2025-07-03T19:55:20.611-04:00", "avatar": "https://secure.gravatar.com/avatar/522cbb5f182d8c6cd3d95d17b3f6e65d.jpg?s=512&d=https%3A%2F%2Fa.slack-edge.com%2Fdf10d%2Fimg%2Favatars%2Fava_0004-512.png", "custom_css": null}, {"id": 10292, "slack_id": "U092AGPTJLD", "display_name": "Vaibhab", "bio": null, "projects_count": 0, "devlogs_count": 0, "votes_count": 0, "ships_count": 0, "projects": [], "coding_time_seconds": 0, "coding_time_seconds_today": 0, "balance": "You need to have a pocket watcher badge to view this.", "badges": [], "created_at": "2025-06-20T06:31:04.243-04:00", "updated_at": "2025-07-03T19:55:20.880-04:00", "avatar": "https://secure.gravatar.com/avatar/8e079934fc5c910475f080e3ae582cb3.jpg?s=512&d=https%3A%2F%2Fa.slack-edge.com%2Fdf10d%2Fimg%2Favatars%2Fava_0009-512.png", "custom_css": null}, {"id": 10293, "slack_id": "U092599B42J", "display_name": "David Abaya", "bio": null, "projects_count": 1, "devlogs_count": 0, "votes_count": 0, "ships_count": 0, "projects": [{"id": 2242, "title": "Multiplayer Tests", "devlogs_count": 0, "created_at": "2025-06-20T14:31:04.578-04:00"}], "coding_time_seconds": 1883, "coding_time_seconds_today": 0, "balance": "You need to have a pocket watcher badge to view this.", "badges": [], "created_at": "2025-06-20T06:33:53.441-04:00", "updated_at": "2025-07-03T19:55:21.148-04:00", "avatar": "https://avatars.slack-edge.com/2025-06-20/9064726408087_3ff3cccf674f3cf1e765_original.jpg", "custom_css": null}, {"id": 10294, "slack_id": "U092AH617U5", "display_name": "S. M. Nafim Niloy", "bio": null, "projects_count": 0, "devlogs_count": 0, "votes_count": 0, "ships_count": 0, "projects": [], "coding_time_seconds": 0, "coding_time_seconds_today": 0, "balance": "You need to have a pocket watcher badge to view this.", "badges": [], "created_at": "2025-06-20T06:34:54.635-04:00", "updated_at": "2025-07-05T08:11:53.825-04:00", "avatar": "https://secure.gravatar.com/avatar/2195b22909e2719b8efbc1256d2fd125.jpg?s=512&d=https%3A%2F%2Fa.slack-edge.com%2Fdf10d%2Fimg%2Favatars%2Fava_0026-512.png", "custom_css": null}, {"id": 10295, "slack_id": "U0921EKK79U", "display_name": "Markchai", "bio": null, "projects_count": 0, "devlogs_count": 0, "votes_count": 0, "ships_count": 0, "projects": [], "coding_time_seconds": 1328599, "coding_time_seconds_today": 0, "balance": "You need to have a pocket watcher badge to view this.", "badges": [], "created_at": "2025-06-20T06:35:28.029-04:00", "updated_at": "2025-07-03T19:55:21.554-04:00", "avatar": "https://avatars.slack-edge.com/2025-06-20/9072852014291_b485b4c4b99861096677_original.jpg", "custom_css": null}, {"id": 10296, "slack_id": "U092BASFX9Q", "display_name": "Prathish S", "bio": null, "projects_count": 1, "devlogs_count": 1, "votes_count": 0, "ships_count": 1, "projects": [{"id": 2897, "title": "Simon Game", "devlogs_count": 1, "created_at": "2025-06-22T11:53:36.318-04:00"}], "coding_time_seconds": 280757, "coding_time_seconds_today": 0, "balance": "You need to have a pocket watcher badge to view this.", "badges": [{"name": "Maiden Voyage", "text": "you shipped your first project! the journey begins...", "icon": "\ud83d\udea2"}], "created_at": "2025-06-20T06:35:38.357-04:00", "updated_at": "2025-09-10T22:56:18.599-04:00", "avatar": "https://secure.gravatar.com/avatar/5ba29f33a9feabb0a4f21ebd127217bb.jpg?s=512&d=https%3A%2F%2Fa.slack-edge.com%2Fdf10d%2Fimg%2Favatars%2Fava_0007-512.png", "custom_css": null}, {"id": 10297, "slack_id": "U0830J6PNRK", "display_name": "Neelakantan Kaplingat", "bio": null, "projects_count": 0, "devlogs_count": 0, "votes_count": 10, "ships_count": 0, "projects": [], "coding_time_seconds": 8314, "coding_time_seconds_today": 0, "balance": "You need to have a pocket watcher badge to view this.", "badges": [], "created_at": "2025-06-20T06:37:05.503-04:00", "updated_at": "2025-07-24T12:17:23.565-04:00", "avatar": "https://secure.gravatar.com/avatar/7174add758c19f7480af7c16cdd1b02f.jpg?s=512&d=https%3A%2F%2Fa.slack-edge.com%2Fdf10d%2Fimg%2Favatars%2Fava_0026-512.png", "custom_css": null}, {"id": 10298, "slack_id": "U092ZRWKX16", "display_name": "Smettbo7", "bio": null, "projects_count": 0, "devlogs_count": 0, "votes_count": 0, "ships_count": 0, "projects": [], "coding_time_seconds": 0, "coding_time_seconds_today": 0, "balance": "You need to have a pocket watcher badge to view this.", "badges": [], "created_at": "2025-06-20T06:37:49.134-04:00", "updated_at": "2025-07-05T08:11:54.087-04:00", "avatar": "https://secure.gravatar.com/avatar/1ad32835de46f074fa3e76e32dfdd959.jpg?s=512&d=https%3A%2F%2Fa.slack-edge.com%2Fdf10d%2Fimg%2Favatars%2Fava_0015-512.png", "custom_css": null}, {"id": 10299, "slack_id": "U092AHVATB7", "display_name": "Felipe Brasil", "bio": null, "projects_count": 0, "devlogs_count": 0, "votes_count": 0, "ships_count": 0, "projects": [], "coding_time_seconds": 0, "coding_time_seconds_today": 0, "balance": "You need to have a pocket watcher badge to view this.", "badges": [], "created_at": "2025-06-20T06:41:16.262-04:00", "updated_at": "2025-07-03T19:55:22.530-04:00", "avatar": "https://secure.gravatar.com/avatar/d0fba0967d6daa43aa85f0ba446ffe45.jpg?s=512&d=https%3A%2F%2Fa.slack-edge.com%2Fdf10d%2Fimg%2Favatars%2Fava_0019-512.png", "custom_css": null}, {"id": 10300, "slack_id": "U092BN3BU7N", "display_name": "Bibek Adhikari", "bio": null, "projects_count": 0, "devlogs_count": 0, "votes_count": 0, "ships_count": 0, "projects": [], "coding_time_seconds": 0, "coding_time_seconds_today": 0, "balance": "You need to have a pocket watcher badge to view this.", "badges": [], "created_at": "2025-06-20T06:41:50.010-04:00", "updated_at": "2025-07-03T19:55:22.805-04:00", "avatar": "https://avatars.slack-edge.com/2025-06-20/9078624732053_033858b5f53fdd87c14b_original.jpg", "custom_css": null}], "pagination": {"page": 515, "pages": 1192, "count": 23828, "items": 20}}