{"users": [{"id": 10301, "slack_id": "U092BBL5WTU", "display_name": "ninprat", "bio": null, "projects_count": 0, "devlogs_count": 0, "votes_count": 0, "ships_count": 0, "projects": [], "coding_time_seconds": 0, "coding_time_seconds_today": 0, "balance": "You need to have a pocket watcher badge to view this.", "badges": [], "created_at": "2025-06-20T06:43:29.905-04:00", "updated_at": "2025-07-03T19:55:23.072-04:00", "avatar": "https://secure.gravatar.com/avatar/ad56f5f9e3a4947762fb989a82e82ee8.jpg?s=512&d=https%3A%2F%2Fa.slack-edge.com%2Fdf10d%2Fimg%2Favatars%2Fava_0012-512.png", "custom_css": null}, {"id": 10302, "slack_id": "U091GPF1PK5", "display_name": "balint1414", "bio": null, "projects_count": 1, "devlogs_count": 5, "votes_count": 3, "ships_count": 1, "projects": [{"id": 8478, "title": "Pterodactyl Discord bot", "devlogs_count": 5, "created_at": "2025-07-27T12:30:48.293-04:00"}], "coding_time_seconds": 239768, "coding_time_seconds_today": 0, "balance": "You need to have a pocket watcher badge to view this.", "badges": [{"name": "Maiden Voyage", "text": "you shipped your first project! the journey begins...", "icon": "\ud83d\udea2"}], "created_at": "2025-06-20T06:48:36.284-04:00", "updated_at": "2025-09-10T22:56:18.780-04:00", "avatar": "https://secure.gravatar.com/avatar/f5f063a2a3ae16f528359fe21f8c8000.jpg?s=512&d=https%3A%2F%2Fa.slack-edge.com%2Fdf10d%2Fimg%2Favatars%2Fava_0006-512.png", "custom_css": null}, {"id": 10303, "slack_id": "U07958NCUCQ", "display_name": "Dawei Lin", "bio": null, "projects_count": 0, "devlogs_count": 0, "votes_count": 0, "ships_count": 0, "projects": [], "coding_time_seconds": 79898, "coding_time_seconds_today": 0, "balance": "You need to have a pocket watcher badge to view this.", "badges": [], "created_at": "2025-06-20T06:49:51.629-04:00", "updated_at": "2025-08-13T09:26:04.101-04:00", "avatar": "https://secure.gravatar.com/avatar/771fad7b18ae057ed74444724f521234.jpg?s=512&d=https%3A%2F%2Fa.slack-edge.com%2Fdf10d%2Fimg%2Favatars%2Fava_0004-512.png", "custom_css": null}, {"id": 10304, "slack_id": "U092ZTF8QMN", "display_name": "Darshit", "bio": null, "projects_count": 0, "devlogs_count": 0, "votes_count": 0, "ships_count": 0, "projects": [], "coding_time_seconds": 0, "coding_time_seconds_today": 0, "balance": "You need to have a pocket watcher badge to view this.", "badges": [], "created_at": "2025-06-20T06:53:56.996-04:00", "updated_at": "2025-07-03T19:55:23.871-04:00", "avatar": "https://secure.gravatar.com/avatar/bd6d81097b087ec9d41ea5a29f4b4fee.jpg?s=512&d=https%3A%2F%2Fa.slack-edge.com%2Fdf10d%2Fimg%2Favatars%2Fava_0006-512.png", "custom_css": null}, {"id": 10305, "slack_id": "U0924SRE95Z", "display_name": "Yaroslav", "bio": "Hehe)\r\n\r\nCheck info about me\r\nhttps://doctorixx.ru", "projects_count": 5, "devlogs_count": 33, "votes_count": 166, "ships_count": 5, "projects": [{"id": 2129, "title": "Codebattles", "devlogs_count": 17, "created_at": "2025-06-20T08:12:20.435-04:00"}, {"id": 6264, "title": "Github Skyline CLI", "devlogs_count": 3, "created_at": "2025-07-11T18:35:49.497-04:00"}, {"id": 10347, "title": "TOTP Authentificator App for Xiaomi Mi Band 9", "devlogs_count": 5, "created_at": "2025-08-06T06:22:31.420-04:00"}, {"id": 2506, "title": "Codebattles landing", "devlogs_count": 5, "created_at": "2025-06-21T06:55:38.418-04:00"}, {"id": 2800, "title": "Docust", "devlogs_count": 3, "created_at": "2025-06-22T05:18:07.990-04:00"}], "coding_time_seconds": 347334, "coding_time_seconds_today": 0, "balance": "You need to have a pocket watcher badge to view this.", "badges": [{"name": "Maiden Voyage", "text": "you shipped your first project! the journey begins...", "icon": "\ud83d\udea2"}, {"name": "Ballot Stuffer", "text": "vote 100 times.", "icon": "https://summer.hackclub.com/assets/i_voted-bf851b48.png"}], "created_at": "2025-06-20T06:59:20.683-04:00", "updated_at": "2025-09-10T22:56:18.861-04:00", "avatar": "https://secure.gravatar.com/avatar/639ebbf307c720733f51ec6274337f8b.jpg?s=512&d=https%3A%2F%2Fa.slack-edge.com%2Fdf10d%2Fimg%2Favatars%2Fava_0013-512.png", "custom_css": null}, {"id": 10306, "slack_id": "U092ZU98JE4", "display_name": "Arman", "bio": null, "projects_count": 0, "devlogs_count": 0, "votes_count": 0, "ships_count": 0, "projects": [], "coding_time_seconds": 0, "coding_time_seconds_today": 0, "balance": "You need to have a pocket watcher badge to view this.", "badges": [], "created_at": "2025-06-20T07:02:26.599-04:00", "updated_at": "2025-07-03T19:55:24.430-04:00", "avatar": "https://secure.gravatar.com/avatar/261f12a81aa9911e120c8e7c5a61d46b.jpg?s=512&d=https%3A%2F%2Fa.slack-edge.com%2Fdf10d%2Fimg%2Favatars%2Fava_0014-512.png", "custom_css": null}, {"id": 10307, "slack_id": "U091WQ5P4LF", "display_name": "Zay.", "bio": null, "projects_count": 1, "devlogs_count": 11, "votes_count": 0, "ships_count": 0, "projects": [{"id": 2116, "title": "Website for a Home developer company.", "devlogs_count": 11, "created_at": "2025-06-20T07:14:53.922-04:00"}], "coding_time_seconds": 91374, "coding_time_seconds_today": 0, "balance": "You need to have a pocket watcher badge to view this.", "badges": [], "created_at": "2025-06-20T07:03:14.941-04:00", "updated_at": "2025-07-03T19:55:24.703-04:00", "avatar": "https://secure.gravatar.com/avatar/e62c994076dabe08a8d9671152e4b655.jpg?s=512&d=https%3A%2F%2Fa.slack-edge.com%2Fdf10d%2Fimg%2Favatars%2Fava_0023-512.png", "custom_css": null}, {"id": 10308, "slack_id": "U092BQM7F9A", "display_name": "Quang Minh Nguyen", "bio": null, "projects_count": 0, "devlogs_count": 0, "votes_count": 0, "ships_count": 0, "projects": [], "coding_time_seconds": 0, "coding_time_seconds_today": 0, "balance": "You need to have a pocket watcher badge to view this.", "badges": [], "created_at": "2025-06-20T07:04:02.820-04:00", "updated_at": "2025-07-03T19:55:24.990-04:00", "avatar": "https://avatars.slack-edge.com/2025-06-20/9078713721141_24903ab171f8d914ddea_original.png", "custom_css": null}, {"id": 10309, "slack_id": "U092ZUK5QF2", "display_name": "Seera Charmi", "bio": null, "projects_count": 1, "devlogs_count": 0, "votes_count": 0, "ships_count": 0, "projects": [{"id": 2124, "title": "Student Task Manager", "devlogs_count": 0, "created_at": "2025-06-20T07:40:09.035-04:00"}], "coding_time_seconds": 113139, "coding_time_seconds_today": 1401, "balance": "You need to have a pocket watcher badge to view this.", "badges": [], "created_at": "2025-06-20T07:04:41.763-04:00", "updated_at": "2025-07-03T19:55:25.250-04:00", "avatar": "https://secure.gravatar.com/avatar/a6d45a1f78dc4843ba0673f0e788acba.jpg?s=512&d=https%3A%2F%2Fa.slack-edge.com%2Fdf10d%2Fimg%2Favatars%2Fava_0004-512.png", "custom_css": null}, {"id": 10310, "slack_id": "U092Q9LJFCH", "display_name": "KATARI TEJASWI", "bio": null, "projects_count": 0, "devlogs_count": 0, "votes_count": 0, "ships_count": 0, "projects": [], "coding_time_seconds": 0, "coding_time_seconds_today": 0, "balance": "You need to have a pocket watcher badge to view this.", "badges": [], "created_at": "2025-06-20T07:07:14.117-04:00", "updated_at": "2025-07-03T19:55:25.521-04:00", "avatar": "https://secure.gravatar.com/avatar/fb3ff7211243b49b19c1c4f8acb6d746.jpg?s=512&d=https%3A%2F%2Fa.slack-edge.com%2Fdf10d%2Fimg%2Favatars%2Fava_0026-512.png", "custom_css": null}, {"id": 10311, "slack_id": "U092QA7USG1", "display_name": "Adnan Qasim", "bio": null, "projects_count": 0, "devlogs_count": 0, "votes_count": 0, "ships_count": 0, "projects": [], "coding_time_seconds": 2496, "coding_time_seconds_today": 0, "balance": "You need to have a pocket watcher badge to view this.", "badges": [], "created_at": "2025-06-20T07:10:53.148-04:00", "updated_at": "2025-07-03T19:55:25.787-04:00", "avatar": "https://avatars.slack-edge.com/2025-06-22/9085783473076_06237435627a5201217a_original.jpg", "custom_css": null}, {"id": 10312, "slack_id": "U091WR1F1GX", "display_name": "hhhh", "bio": null, "projects_count": 0, "devlogs_count": 0, "votes_count": 0, "ships_count": 0, "projects": [], "coding_time_seconds": 839, "coding_time_seconds_today": 0, "balance": "You need to have a pocket watcher badge to view this.", "badges": [], "created_at": "2025-06-20T07:12:49.328-04:00", "updated_at": "2025-07-03T19:55:26.074-04:00", "avatar": "https://secure.gravatar.com/avatar/71b9652cd179128b099c4ae9a4d58f73.jpg?s=512&d=https%3A%2F%2Fa.slack-edge.com%2Fdf10d%2Fimg%2Favatars%2Fava_0006-512.png", "custom_css": null}, {"id": 10313, "slack_id": "U092BS2TFTN", "display_name": "arnedinio", "bio": null, "projects_count": 0, "devlogs_count": 0, "votes_count": 0, "ships_count": 0, "projects": [], "coding_time_seconds": 0, "coding_time_seconds_today": 0, "balance": "You need to have a pocket watcher badge to view this.", "badges": [], "created_at": "2025-06-20T07:16:59.507-04:00", "updated_at": "2025-07-03T19:55:26.410-04:00", "avatar": "https://secure.gravatar.com/avatar/1bbd310b696f8ec252b919a2249d6636.jpg?s=512&d=https%3A%2F%2Fa.slack-edge.com%2Fdf10d%2Fimg%2Favatars%2Fava_0010-512.png", "custom_css": null}, {"id": 10314, "slack_id": "U092BRTV1EG", "display_name": "Kushagra", "bio": null, "projects_count": 1, "devlogs_count": 0, "votes_count": 0, "ships_count": 0, "projects": [{"id": 2135, "title": "Locnix AI", "devlogs_count": 0, "created_at": "2025-06-20T08:29:44.613-04:00"}], "coding_time_seconds": 25881, "coding_time_seconds_today": 0, "balance": "You need to have a pocket watcher badge to view this.", "badges": [], "created_at": "2025-06-20T07:17:20.616-04:00", "updated_at": "2025-07-03T19:55:26.680-04:00", "avatar": "https://secure.gravatar.com/avatar/0f57a67f5a491bb28170b19767ed24a0.jpg?s=512&d=https%3A%2F%2Fa.slack-edge.com%2Fdf10d%2Fimg%2Favatars%2Fava_0021-512.png", "custom_css": null}, {"id": 10315, "slack_id": "U092QB67FBK", "display_name": "narjes al zawad", "bio": null, "projects_count": 0, "devlogs_count": 0, "votes_count": 0, "ships_count": 0, "projects": [], "coding_time_seconds": 0, "coding_time_seconds_today": 0, "balance": "You need to have a pocket watcher badge to view this.", "badges": [], "created_at": "2025-06-20T07:19:53.701-04:00", "updated_at": "2025-07-31T10:15:49.578-04:00", "avatar": "https://avatars.slack-edge.com/2025-06-20/9079906987492_25cfe98be9acf7c9f7d1_original.jpg", "custom_css": null}, {"id": 10316, "slack_id": "U092BFL9P5Y", "display_name": "Nikhil", "bio": null, "projects_count": 0, "devlogs_count": 0, "votes_count": 0, "ships_count": 0, "projects": [], "coding_time_seconds": 0, "coding_time_seconds_today": 0, "balance": "You need to have a pocket watcher badge to view this.", "badges": [], "created_at": "2025-06-20T07:20:41.126-04:00", "updated_at": "2025-07-04T20:10:59.617-04:00", "avatar": "https://secure.gravatar.com/avatar/899fdca14be63ca79e628f4e087b29d8.jpg?s=512&d=https%3A%2F%2Fa.slack-edge.com%2Fdf10d%2Fimg%2Favatars%2Fava_0018-512.png", "custom_css": null}, {"id": 10317, "slack_id": "U091GAMKN1L", "display_name": "yolocat", "bio": null, "projects_count": 0, "devlogs_count": 0, "votes_count": 0, "ships_count": 0, "projects": [], "coding_time_seconds": 225819, "coding_time_seconds_today": 0, "balance": "You need to have a pocket watcher badge to view this.", "badges": [], "created_at": "2025-06-20T07:22:16.264-04:00", "updated_at": "2025-07-03T19:55:27.406-04:00", "avatar": "https://secure.gravatar.com/avatar/a2431f2dbfa3dbae43d9595205d74dee.jpg?s=512&d=https%3A%2F%2Fa.slack-edge.com%2Fdf10d%2Fimg%2Favatars%2Fava_0020-512.png", "custom_css": null}, {"id": 10318, "slack_id": "U09301DC5HN", "display_name": "Luis", "bio": null, "projects_count": 0, "devlogs_count": 0, "votes_count": 0, "ships_count": 0, "projects": [], "coding_time_seconds": 0, "coding_time_seconds_today": 0, "balance": "You need to have a pocket watcher badge to view this.", "badges": [], "created_at": "2025-06-20T07:25:10.761-04:00", "updated_at": "2025-07-03T19:55:28.515-04:00", "avatar": "https://secure.gravatar.com/avatar/222ef8aa931d5aa3394a8510ec518483.jpg?s=512&d=https%3A%2F%2Fa.slack-edge.com%2Fdf10d%2Fimg%2Favatars%2Fava_0014-512.png", "custom_css": null}, {"id": 10319, "slack_id": "U09210V9XK7", "display_name": "hameedah", "bio": null, "projects_count": 0, "devlogs_count": 0, "votes_count": 0, "ships_count": 0, "projects": [], "coding_time_seconds": 0, "coding_time_seconds_today": 0, "balance": "You need to have a pocket watcher badge to view this.", "badges": [], "created_at": "2025-06-20T07:25:38.868-04:00", "updated_at": "2025-07-03T19:55:28.783-04:00", "avatar": "https://secure.gravatar.com/avatar/a0bf4732a1355b844a14ca1fab392b4b.jpg?s=512&d=https%3A%2F%2Fa.slack-edge.com%2Fdf10d%2Fimg%2Favatars%2Fava_0018-512.png", "custom_css": null}, {"id": 10320, "slack_id": "U07JET1TE5Q", "display_name": "Wiertelus", "bio": null, "projects_count": 0, "devlogs_count": 0, "votes_count": 0, "ships_count": 0, "projects": [], "coding_time_seconds": 6792, "coding_time_seconds_today": 0, "balance": "You need to have a pocket watcher badge to view this.", "badges": [], "created_at": "2025-06-20T07:25:52.825-04:00", "updated_at": "2025-07-03T19:55:29.068-04:00", "avatar": "https://avatars.slack-edge.com/2025-01-31/8383095253523_825378b3366e8f03454a_original.png", "custom_css": null}], "pagination": {"page": 516, "pages": 1192, "count": 23828, "items": 20}}