{"users": [{"id": 10321, "slack_id": "U092QAUUL8H", "display_name": "alperen", "bio": null, "projects_count": 0, "devlogs_count": 0, "votes_count": 0, "ships_count": 0, "projects": [], "coding_time_seconds": 0, "coding_time_seconds_today": 0, "balance": "You need to have a pocket watcher badge to view this.", "badges": [], "created_at": "2025-06-20T07:26:27.834-04:00", "updated_at": "2025-07-03T19:55:29.347-04:00", "avatar": "https://secure.gravatar.com/avatar/f468b9b6dd0fa6001ea1fdfc3f27401e.jpg?s=512&d=https%3A%2F%2Fa.slack-edge.com%2Fdf10d%2Fimg%2Favatars%2Fava_0019-512.png", "custom_css": null}, {"id": 10322, "slack_id": "U092QCHQ9EV", "display_name": "Shivam", "bio": null, "projects_count": 1, "devlogs_count": 0, "votes_count": 0, "ships_count": 0, "projects": [{"id": 2201, "title": "Texture Generation for 3d model using diffusion", "devlogs_count": 0, "created_at": "2025-06-20T12:29:35.577-04:00"}], "coding_time_seconds": 15221, "coding_time_seconds_today": 0, "balance": "You need to have a pocket watcher badge to view this.", "badges": [], "created_at": "2025-06-20T07:32:45.915-04:00", "updated_at": "2025-07-03T19:55:29.631-04:00", "avatar": "https://secure.gravatar.com/avatar/c147ad13cb5bb89cf358a7f0b48d5ff0.jpg?s=512&d=https%3A%2F%2Fa.slack-edge.com%2Fdf10d%2Fimg%2Favatars%2Fava_0007-512.png", "custom_css": null}, {"id": 10323, "slack_id": "U08QHG46Q6P", "display_name": "povario", "bio": null, "projects_count": 2, "devlogs_count": 5, "votes_count": 1, "ships_count": 1, "projects": [{"id": 12235, "title": "My Site", "devlogs_count": 1, "created_at": "2025-08-24T16:56:22.816-04:00"}, {"id": 12461, "title": "pchat", "devlogs_count": 4, "created_at": "2025-08-27T23:12:02.697-04:00"}], "coding_time_seconds": 583386, "coding_time_seconds_today": 0, "balance": "You need to have a pocket watcher badge to view this.", "badges": [{"name": "Maiden Voyage", "text": "you shipped your first project! the journey begins...", "icon": "\ud83d\udea2"}], "created_at": "2025-06-20T07:35:04.528-04:00", "updated_at": "2025-09-23T22:30:59.488-04:00", "avatar": "https://avatars.slack-edge.com/2025-05-01/8828353916742_8a8435d3640e6eb9d57b_original.png", "custom_css": null}, {"id": 10324, "slack_id": "U092QD5P03B", "display_name": "Yuvraj Singh Chauhan", "bio": null, "projects_count": 0, "devlogs_count": 0, "votes_count": 0, "ships_count": 0, "projects": [], "coding_time_seconds": 0, "coding_time_seconds_today": 0, "balance": "You need to have a pocket watcher badge to view this.", "badges": [], "created_at": "2025-06-20T07:38:05.249-04:00", "updated_at": "2025-07-03T22:00:49.701-04:00", "avatar": "https://avatars.slack-edge.com/2025-06-20/9079616103698_6da669d6510f064bde21_original.jpg", "custom_css": null}, {"id": 10325, "slack_id": "U0925K5US4A", "display_name": "tamila", "bio": null, "projects_count": 0, "devlogs_count": 0, "votes_count": 0, "ships_count": 0, "projects": [], "coding_time_seconds": 0, "coding_time_seconds_today": 0, "balance": "You need to have a pocket watcher badge to view this.", "badges": [], "created_at": "2025-06-20T07:39:44.173-04:00", "updated_at": "2025-07-03T19:55:30.301-04:00", "avatar": "https://secure.gravatar.com/avatar/d7677ddebb8711b480413c87e43d824f.jpg?s=512&d=https%3A%2F%2Fa.slack-edge.com%2Fdf10d%2Fimg%2Favatars%2Fava_0017-512.png", "custom_css": null}, {"id": 10326, "slack_id": "U092QE8A8P3", "display_name": "Oliver Revelo", "bio": null, "projects_count": 1, "devlogs_count": 0, "votes_count": 0, "ships_count": 0, "projects": [{"id": 2133, "title": "Data Gathering Tool for AlignMate", "devlogs_count": 0, "created_at": "2025-06-20T08:21:26.983-04:00"}], "coding_time_seconds": 460452, "coding_time_seconds_today": 0, "balance": "You need to have a pocket watcher badge to view this.", "badges": [], "created_at": "2025-06-20T07:51:52.587-04:00", "updated_at": "2025-07-03T22:00:49.893-04:00", "avatar": "https://avatars.slack-edge.com/2025-06-20/9073614530374_78b94fa304c9c1b5e99e_original.jpg", "custom_css": null}, {"id": 10327, "slack_id": "U092BK4961Y", "display_name": "Ricardo Nunes", "bio": null, "projects_count": 0, "devlogs_count": 0, "votes_count": 0, "ships_count": 0, "projects": [], "coding_time_seconds": 0, "coding_time_seconds_today": 0, "balance": "You need to have a pocket watcher badge to view this.", "badges": [], "created_at": "2025-06-20T07:53:15.440-04:00", "updated_at": "2025-07-03T19:55:30.706-04:00", "avatar": "https://avatars.slack-edge.com/2025-06-20/9080025230756_3872eda0e6121fedfe54_original.jpg", "custom_css": null}, {"id": 10328, "slack_id": "U08PK254MAT", "display_name": "Herculus", "bio": null, "projects_count": 0, "devlogs_count": 0, "votes_count": 0, "ships_count": 0, "projects": [], "coding_time_seconds": 0, "coding_time_seconds_today": 0, "balance": "You need to have a pocket watcher badge to view this.", "badges": [], "created_at": "2025-06-20T07:53:27.570-04:00", "updated_at": "2025-07-03T19:55:30.988-04:00", "avatar": "https://avatars.slack-edge.com/2025-04-28/8813810441541_d50be36e798edb31c85e_original.png", "custom_css": null}, {"id": 10329, "slack_id": "U07CK7NV18W", "display_name": "Henrique", "bio": null, "projects_count": 3, "devlogs_count": 32, "votes_count": 29, "ships_count": 2, "projects": [{"id": 4220, "title": "Online chess game via the terminal.", "devlogs_count": 21, "created_at": "2025-06-28T09:03:54.234-04:00"}, {"id": 13057, "title": "CLI todo list ", "devlogs_count": 3, "created_at": "2025-09-07T21:20:49.671-04:00"}, {"id": 2294, "title": "Editor de texto escrito e go", "devlogs_count": 8, "created_at": "2025-06-20T16:34:31.795-04:00"}], "coding_time_seconds": 329136, "coding_time_seconds_today": 0, "balance": "You need to have a pocket watcher badge to view this.", "badges": [{"name": "Maiden Voyage", "text": "you shipped your first project! the journey begins...", "icon": "\ud83d\udea2"}], "created_at": "2025-06-20T07:53:38.112-04:00", "updated_at": "2025-09-10T22:56:19.608-04:00", "avatar": "https://avatars.slack-edge.com/2024-11-17/8044942044708_2caeb0214eac53f38f8f_original.jpg", "custom_css": null}, {"id": 10330, "slack_id": "U0924S9NBFT", "display_name": "Tung Nguyen", "bio": null, "projects_count": 0, "devlogs_count": 0, "votes_count": 0, "ships_count": 0, "projects": [], "coding_time_seconds": 0, "coding_time_seconds_today": 0, "balance": "You need to have a pocket watcher badge to view this.", "badges": [], "created_at": "2025-06-20T07:56:21.933-04:00", "updated_at": "2025-07-03T19:55:31.541-04:00", "avatar": "https://secure.gravatar.com/avatar/8a73240569a4cbffb5e60baf7f35040b.jpg?s=512&d=https%3A%2F%2Fa.slack-edge.com%2Fdf10d%2Fimg%2Favatars%2Fava_0000-512.png", "custom_css": null}, {"id": 10331, "slack_id": "U092BLFSZEE", "display_name": "raspi0124", "bio": null, "projects_count": 0, "devlogs_count": 0, "votes_count": 0, "ships_count": 0, "projects": [], "coding_time_seconds": 0, "coding_time_seconds_today": 0, "balance": "You need to have a pocket watcher badge to view this.", "badges": [], "created_at": "2025-06-20T08:01:00.217-04:00", "updated_at": "2025-07-03T19:55:31.806-04:00", "avatar": "https://secure.gravatar.com/avatar/bc413d37044ae2c1e2c6415ba0c5f51b.jpg?s=512&d=https%3A%2F%2Fa.slack-edge.com%2Fdf10d%2Fimg%2Favatars%2Fava_0003-512.png", "custom_css": null}, {"id": 10332, "slack_id": "U0923CHS341", "display_name": "Ana G", "bio": null, "projects_count": 0, "devlogs_count": 0, "votes_count": 0, "ships_count": 0, "projects": [], "coding_time_seconds": 0, "coding_time_seconds_today": 0, "balance": "You need to have a pocket watcher badge to view this.", "badges": [], "created_at": "2025-06-20T08:02:05.887-04:00", "updated_at": "2025-07-03T19:55:32.076-04:00", "avatar": "https://secure.gravatar.com/avatar/734ba06c01cd2c12fc63756986d82698.jpg?s=512&d=https%3A%2F%2Fa.slack-edge.com%2Fdf10d%2Fimg%2Favatars%2Fava_0025-512.png", "custom_css": null}, {"id": 10333, "slack_id": "U0925K0BNNS", "display_name": "Sebok Andras", "bio": null, "projects_count": 3, "devlogs_count": 18, "votes_count": 38, "ships_count": 2, "projects": [{"id": 2474, "title": "demangar", "devlogs_count": 11, "created_at": "2025-06-21T05:00:01.303-04:00"}, {"id": 11014, "title": "Ram downloader", "devlogs_count": 2, "created_at": "2025-08-12T11:45:39.843-04:00"}, {"id": 4877, "title": "lblu", "devlogs_count": 5, "created_at": "2025-07-02T02:13:43.358-04:00"}], "coding_time_seconds": 198873, "coding_time_seconds_today": 0, "balance": "You need to have a pocket watcher badge to view this.", "badges": [{"name": "Maiden Voyage", "text": "you shipped your first project! the journey begins...", "icon": "\ud83d\udea2"}], "created_at": "2025-06-20T08:02:29.132-04:00", "updated_at": "2025-09-10T22:56:19.720-04:00", "avatar": "https://secure.gravatar.com/avatar/4b0851fba6a73741cea6cf28be5be0fd.jpg?s=512&d=https%3A%2F%2Fa.slack-edge.com%2Fdf10d%2Fimg%2Favatars%2Fava_0009-512.png", "custom_css": null}, {"id": 10334, "slack_id": "U0925K34Z2S", "display_name": "Badri Narayan", "bio": null, "projects_count": 0, "devlogs_count": 0, "votes_count": 0, "ships_count": 0, "projects": [], "coding_time_seconds": 0, "coding_time_seconds_today": 0, "balance": "You need to have a pocket watcher badge to view this.", "badges": [], "created_at": "2025-06-20T08:02:55.877-04:00", "updated_at": "2025-07-03T19:55:32.642-04:00", "avatar": "https://avatars.slack-edge.com/2025-06-20/9073154761411_68e3f487672a8263b2a1_original.png", "custom_css": null}, {"id": 10335, "slack_id": "U092C1LKZFW", "display_name": "Ibrahim Bukhari", "bio": null, "projects_count": 0, "devlogs_count": 0, "votes_count": 0, "ships_count": 0, "projects": [], "coding_time_seconds": 0, "coding_time_seconds_today": 0, "balance": "You need to have a pocket watcher badge to view this.", "badges": [], "created_at": "2025-06-20T08:03:08.450-04:00", "updated_at": "2025-07-03T19:55:32.910-04:00", "avatar": "https://secure.gravatar.com/avatar/c2569b33428a8397fec2d873dd0eb060.jpg?s=512&d=https%3A%2F%2Fa.slack-edge.com%2Fdf10d%2Fimg%2Favatars%2Fava_0004-512.png", "custom_css": null}, {"id": 10336, "slack_id": "U091X1BHGF9", "display_name": "Sugavaneshwaran S", "bio": null, "projects_count": 0, "devlogs_count": 0, "votes_count": 0, "ships_count": 0, "projects": [], "coding_time_seconds": 96996, "coding_time_seconds_today": 0, "balance": "You need to have a pocket watcher badge to view this.", "badges": [], "created_at": "2025-06-20T08:08:41.881-04:00", "updated_at": "2025-07-03T19:55:33.186-04:00", "avatar": "https://avatars.slack-edge.com/2025-06-20/9073177234371_903172ca371634ad9450_original.png", "custom_css": null}, {"id": 10337, "slack_id": "U092ATB8C9K", "display_name": "Daniel", "bio": null, "projects_count": 0, "devlogs_count": 0, "votes_count": 0, "ships_count": 0, "projects": [], "coding_time_seconds": 0, "coding_time_seconds_today": 0, "balance": "You need to have a pocket watcher badge to view this.", "badges": [], "created_at": "2025-06-20T08:10:26.709-04:00", "updated_at": "2025-07-03T19:55:33.459-04:00", "avatar": "https://secure.gravatar.com/avatar/5d854e6f4be623ddd9f2850c8765b836.jpg?s=512&d=https%3A%2F%2Fa.slack-edge.com%2Fdf10d%2Fimg%2Favatars%2Fava_0015-512.png", "custom_css": null}, {"id": 10338, "slack_id": "U092AUCTESH", "display_name": "Rishabh", "bio": null, "projects_count": 0, "devlogs_count": 0, "votes_count": 0, "ships_count": 0, "projects": [], "coding_time_seconds": 0, "coding_time_seconds_today": 0, "balance": "You need to have a pocket watcher badge to view this.", "badges": [], "created_at": "2025-06-20T08:13:34.332-04:00", "updated_at": "2025-07-03T19:55:33.730-04:00", "avatar": "https://secure.gravatar.com/avatar/6bf9e188ab12959bc686206834f962a3.jpg?s=512&d=https%3A%2F%2Fa.slack-edge.com%2Fdf10d%2Fimg%2Favatars%2Fava_0024-512.png", "custom_css": null}, {"id": 10339, "slack_id": "U0925KXF8K0", "display_name": "Lea", "bio": null, "projects_count": 3, "devlogs_count": 15, "votes_count": 14, "ships_count": 1, "projects": [{"id": 11798, "title": "Simple Snake Game", "devlogs_count": 2, "created_at": "2025-08-19T16:10:16.600-04:00"}, {"id": 12618, "title": "to do list", "devlogs_count": 1, "created_at": "2025-08-30T15:11:07.580-04:00"}, {"id": 2649, "title": "booklist", "devlogs_count": 12, "created_at": "2025-06-21T14:55:23.802-04:00"}], "coding_time_seconds": 94633, "coding_time_seconds_today": 0, "balance": "You need to have a pocket watcher badge to view this.", "badges": [{"name": "Maiden Voyage", "text": "you shipped your first project! the journey begins...", "icon": "\ud83d\udea2"}], "created_at": "2025-06-20T08:15:00.250-04:00", "updated_at": "2025-09-18T11:38:18.528-04:00", "avatar": "https://avatars.slack-edge.com/2025-06-21/9106530585840_1ea098c5af13d890a3bc_original.jpg", "custom_css": null}, {"id": 10340, "slack_id": "U092C2RMF28", "display_name": "PhanLamTran", "bio": null, "projects_count": 0, "devlogs_count": 0, "votes_count": 0, "ships_count": 0, "projects": [], "coding_time_seconds": 12520, "coding_time_seconds_today": 0, "balance": "You need to have a pocket watcher badge to view this.", "badges": [], "created_at": "2025-06-20T08:15:01.378-04:00", "updated_at": "2025-07-03T19:55:34.135-04:00", "avatar": "https://secure.gravatar.com/avatar/d2c6bcf82b317f85f9c6fc59cbedf90c.jpg?s=512&d=https%3A%2F%2Fa.slack-edge.com%2Fdf10d%2Fimg%2Favatars%2Fava_0022-512.png", "custom_css": null}], "pagination": {"page": 517, "pages": 1192, "count": 23828, "items": 20}}