{"users": [{"id": 10341, "slack_id": "U08AFJFPRJ7", "display_name": "Aly", "bio": "", "projects_count": 3, "devlogs_count": 30, "votes_count": 79, "ships_count": 3, "projects": [{"id": 3275, "title": "Aly's Personal Website", "devlogs_count": 5, "created_at": "2025-06-23T16:25:37.560-04:00"}, {"id": 6197, "title": "Captain Redbeard's Adventure", "devlogs_count": 12, "created_at": "2025-07-11T09:20:27.027-04:00"}, {"id": 11358, "title": "Oops, I'm innocent!", "devlogs_count": 13, "created_at": "2025-08-15T08:06:42.387-04:00"}], "coding_time_seconds": 319075, "coding_time_seconds_today": 0, "balance": "You need to have a pocket watcher badge to view this.", "badges": [{"name": "Maiden Voyage", "text": "you shipped your first project! the journey begins...", "icon": "\ud83d\udea2"}, {"name": "Yapper I", "text": "Posted 10 comments on devlogs.", "icon": "\ud83d\udcac"}], "created_at": "2025-06-20T08:19:35.762-04:00", "updated_at": "2025-09-10T22:56:20.002-04:00", "avatar": "https://avatars.slack-edge.com/2025-07-24/9247637374674_c0b3dcc5179c2ab963ac_original.jpg", "custom_css": null}, {"id": 10342, "slack_id": "U093069172L", "display_name": "Kenneth Garcia", "bio": null, "projects_count": 0, "devlogs_count": 0, "votes_count": 0, "ships_count": 0, "projects": [], "coding_time_seconds": 0, "coding_time_seconds_today": 0, "balance": "You need to have a pocket watcher badge to view this.", "badges": [], "created_at": "2025-06-20T08:19:55.882-04:00", "updated_at": "2025-07-03T19:55:34.744-04:00", "avatar": "https://secure.gravatar.com/avatar/8cec4054e4617bb95aaa4dd0f9e4139c.jpg?s=512&d=https%3A%2F%2Fa.slack-edge.com%2Fdf10d%2Fimg%2Favatars%2Fava_0021-512.png", "custom_css": null}, {"id": 10343, "slack_id": "U09307GQQ1E", "display_name": "Akila", "bio": null, "projects_count": 0, "devlogs_count": 0, "votes_count": 0, "ships_count": 0, "projects": [], "coding_time_seconds": 161, "coding_time_seconds_today": 0, "balance": "You need to have a pocket watcher badge to view this.", "badges": [], "created_at": "2025-06-20T08:23:22.499-04:00", "updated_at": "2025-07-03T19:55:35.015-04:00", "avatar": "https://secure.gravatar.com/avatar/469cbc8b99b1272d09676f5657a2d143.jpg?s=512&d=https%3A%2F%2Fa.slack-edge.com%2Fdf10d%2Fimg%2Favatars%2Fava_0024-512.png", "custom_css": null}, {"id": 10344, "slack_id": "U091S8VLCVC", "display_name": "svlord5", "bio": null, "projects_count": 0, "devlogs_count": 0, "votes_count": 0, "ships_count": 0, "projects": [], "coding_time_seconds": 0, "coding_time_seconds_today": 0, "balance": "You need to have a pocket watcher badge to view this.", "badges": [], "created_at": "2025-06-20T08:29:25.325-04:00", "updated_at": "2025-07-03T19:55:35.344-04:00", "avatar": "https://avatars.slack-edge.com/2025-06-20/9092674260417_8d21f76bbb2cd5beacd5_original.png", "custom_css": null}, {"id": 10345, "slack_id": "U092B18PQBX", "display_name": "Salar", "bio": null, "projects_count": 0, "devlogs_count": 0, "votes_count": 0, "ships_count": 0, "projects": [], "coding_time_seconds": 0, "coding_time_seconds_today": 0, "balance": "You need to have a pocket watcher badge to view this.", "badges": [], "created_at": "2025-06-20T08:31:11.724-04:00", "updated_at": "2025-07-03T19:55:35.619-04:00", "avatar": "https://secure.gravatar.com/avatar/b46ba6a404f95a35c164eb8eb9bba655.jpg?s=512&d=https%3A%2F%2Fa.slack-edge.com%2Fdf10d%2Fimg%2Favatars%2Fava_0023-512.png", "custom_css": null}, {"id": 10346, "slack_id": "U091YFG9ZBP", "display_name": "Ruperth", "bio": null, "projects_count": 0, "devlogs_count": 0, "votes_count": 0, "ships_count": 0, "projects": [], "coding_time_seconds": 172218, "coding_time_seconds_today": 0, "balance": "You need to have a pocket watcher badge to view this.", "badges": [], "created_at": "2025-06-20T08:32:47.145-04:00", "updated_at": "2025-07-03T19:55:35.897-04:00", "avatar": "https://avatars.slack-edge.com/2025-06-20/9092673103969_67555a9d79c3872646de_original.jpg", "custom_css": null}, {"id": 10347, "slack_id": "U093033SHL0", "display_name": "Nanda Safiq Alfiansyah", "bio": null, "projects_count": 0, "devlogs_count": 0, "votes_count": 0, "ships_count": 0, "projects": [], "coding_time_seconds": 0, "coding_time_seconds_today": 0, "balance": "You need to have a pocket watcher badge to view this.", "badges": [], "created_at": "2025-06-20T08:35:19.687-04:00", "updated_at": "2025-07-03T19:55:36.179-04:00", "avatar": "https://avatars.slack-edge.com/2025-06-20/9080199385492_b60ec592faf8f69a4291_original.png", "custom_css": null}, {"id": 10348, "slack_id": "U09257KLCGK", "display_name": "chandana", "bio": null, "projects_count": 0, "devlogs_count": 0, "votes_count": 0, "ships_count": 0, "projects": [], "coding_time_seconds": 0, "coding_time_seconds_today": 0, "balance": "You need to have a pocket watcher badge to view this.", "badges": [], "created_at": "2025-06-20T08:36:05.190-04:00", "updated_at": "2025-07-03T19:55:36.465-04:00", "avatar": "https://secure.gravatar.com/avatar/1e9f8a02c4482f16dcc50299ad2698d4.jpg?s=512&d=https%3A%2F%2Fa.slack-edge.com%2Fdf10d%2Fimg%2Favatars%2Fava_0013-512.png", "custom_css": null}, {"id": 10349, "slack_id": "U09309396HE", "display_name": "Md Shami", "bio": null, "projects_count": 0, "devlogs_count": 0, "votes_count": 0, "ships_count": 0, "projects": [], "coding_time_seconds": 33074, "coding_time_seconds_today": 0, "balance": "You need to have a pocket watcher badge to view this.", "badges": [], "created_at": "2025-06-20T08:36:52.336-04:00", "updated_at": "2025-07-03T19:55:36.732-04:00", "avatar": "https://secure.gravatar.com/avatar/e9b88c2ca84f00e1ea1c3e72b3697ff2.jpg?s=512&d=https%3A%2F%2Fa.slack-edge.com%2Fdf10d%2Fimg%2Favatars%2Fava_0013-512.png", "custom_css": null}, {"id": 10350, "slack_id": "U083L7RAM6X", "display_name": "qqqqq", "bio": null, "projects_count": 0, "devlogs_count": 0, "votes_count": 0, "ships_count": 0, "projects": [], "coding_time_seconds": 126415, "coding_time_seconds_today": 0, "balance": "You need to have a pocket watcher badge to view this.", "badges": [], "created_at": "2025-06-20T08:37:31.684-04:00", "updated_at": "2025-07-04T02:30:09.288-04:00", "avatar": "https://secure.gravatar.com/avatar/31aa6a050442200d8159af6f948db10c.jpg?s=512&d=https%3A%2F%2Fa.slack-edge.com%2Fdf10d%2Fimg%2Favatars%2Fava_0002-512.png", "custom_css": null}, {"id": 10351, "slack_id": "U091X58MY4F", "display_name": "Sumith Gupta", "bio": null, "projects_count": 0, "devlogs_count": 0, "votes_count": 0, "ships_count": 0, "projects": [], "coding_time_seconds": 0, "coding_time_seconds_today": 0, "balance": "You need to have a pocket watcher badge to view this.", "badges": [], "created_at": "2025-06-20T08:38:56.746-04:00", "updated_at": "2025-07-03T22:00:51.723-04:00", "avatar": "https://secure.gravatar.com/avatar/ab63097610b560c5b0aadd3438708545.jpg?s=512&d=https%3A%2F%2Fa.slack-edge.com%2Fdf10d%2Fimg%2Favatars%2Fava_0006-512.png", "custom_css": null}, {"id": 10352, "slack_id": "U092QLF3FT3", "display_name": "\u949f\u60e0\u8d24", "bio": null, "projects_count": 1, "devlogs_count": 0, "votes_count": 0, "ships_count": 0, "projects": [{"id": 4082, "title": "1", "devlogs_count": 0, "created_at": "2025-06-27T11:01:32.977-04:00"}], "coding_time_seconds": 55690, "coding_time_seconds_today": 0, "balance": "You need to have a pocket watcher badge to view this.", "badges": [], "created_at": "2025-06-20T08:42:01.513-04:00", "updated_at": "2025-07-03T19:55:37.279-04:00", "avatar": "https://avatars.slack-edge.com/2025-06-20/9102345659104_58b3d10db9183ff27cf2_original.png", "custom_css": null}, {"id": 10353, "slack_id": "U08CA10M5B4", "display_name": "BoKi", "bio": null, "projects_count": 8, "devlogs_count": 22, "votes_count": 119, "ships_count": 7, "projects": [{"id": 3081, "title": "Typemaster", "devlogs_count": 1, "created_at": "2025-06-23T03:06:45.043-04:00"}, {"id": 11809, "title": "Overengineered Calculator", "devlogs_count": 4, "created_at": "2025-08-19T16:58:33.912-04:00"}, {"id": 12622, "title": "Worst Website", "devlogs_count": 2, "created_at": "2025-08-30T17:04:25.126-04:00"}, {"id": 12906, "title": "Financial Pros", "devlogs_count": 1, "created_at": "2025-09-05T02:45:45.695-04:00"}, {"id": 13183, "title": "Teenage Life Tips", "devlogs_count": 1, "created_at": "2025-09-11T03:00:57.281-04:00"}, {"id": 3210, "title": "FinanceTree", "devlogs_count": 6, "created_at": "2025-06-23T13:16:08.738-04:00"}, {"id": 12142, "title": "To Do List", "devlogs_count": 3, "created_at": "2025-08-23T14:07:57.795-04:00"}, {"id": 11042, "title": "Byte Blaster", "devlogs_count": 4, "created_at": "2025-08-12T16:19:19.675-04:00"}], "coding_time_seconds": 242788, "coding_time_seconds_today": 0, "balance": "You need to have a pocket watcher badge to view this.", "badges": [{"name": "Maiden Voyage", "text": "you shipped your first project! the journey begins...", "icon": "\ud83d\udea2"}, {"name": "Ballot Stuffer", "text": "vote 100 times.", "icon": "https://summer.hackclub.com/assets/i_voted-bf851b48.png"}], "created_at": "2025-06-20T08:42:52.376-04:00", "updated_at": "2025-09-11T03:03:07.285-04:00", "avatar": "https://avatars.slack-edge.com/2025-03-26/8673926068241_19318c2edeca424e4b93_original.png", "custom_css": null}, {"id": 10354, "slack_id": "U092B3GFDGD", "display_name": "ML32", "bio": null, "projects_count": 0, "devlogs_count": 0, "votes_count": 0, "ships_count": 0, "projects": [], "coding_time_seconds": 0, "coding_time_seconds_today": 0, "balance": "You need to have a pocket watcher badge to view this.", "badges": [], "created_at": "2025-06-20T08:47:32.070-04:00", "updated_at": "2025-07-03T19:55:37.836-04:00", "avatar": "https://avatars.slack-edge.com/2025-06-20/9080250274276_d785c5ce6b524dbb0942_original.jpg", "custom_css": null}, {"id": 10355, "slack_id": "U092C71L11S", "display_name": "Salih Etka Akag\u00fcnd\u00fcz", "bio": null, "projects_count": 0, "devlogs_count": 0, "votes_count": 0, "ships_count": 0, "projects": [], "coding_time_seconds": 0, "coding_time_seconds_today": 0, "balance": "You need to have a pocket watcher badge to view this.", "badges": [], "created_at": "2025-06-20T08:48:24.445-04:00", "updated_at": "2025-07-03T19:55:38.095-04:00", "avatar": "https://secure.gravatar.com/avatar/fc69a5a7f666ac1bcb6d107b00d563c0.jpg?s=512&d=https%3A%2F%2Fa.slack-edge.com%2Fdf10d%2Fimg%2Favatars%2Fava_0012-512.png", "custom_css": null}, {"id": 10356, "slack_id": "U09309WLB24", "display_name": "MangoDeficiency", "bio": null, "projects_count": 0, "devlogs_count": 0, "votes_count": 0, "ships_count": 0, "projects": [], "coding_time_seconds": 0, "coding_time_seconds_today": 0, "balance": "You need to have a pocket watcher badge to view this.", "badges": [], "created_at": "2025-06-20T08:48:29.647-04:00", "updated_at": "2025-07-03T19:55:38.360-04:00", "avatar": "https://secure.gravatar.com/avatar/9d082c726800db89cac5d988a99b5caf.jpg?s=512&d=https%3A%2F%2Fa.slack-edge.com%2Fdf10d%2Fimg%2Favatars%2Fava_0007-512.png", "custom_css": null}, {"id": 10357, "slack_id": "U0930AJBJ56", "display_name": "simonfalke", "bio": null, "projects_count": 1, "devlogs_count": 0, "votes_count": 0, "ships_count": 0, "projects": [{"id": 5425, "title": "Backrooms FPS", "devlogs_count": 0, "created_at": "2025-07-05T08:28:19.981-04:00"}], "coding_time_seconds": 65126, "coding_time_seconds_today": 0, "balance": "You need to have a pocket watcher badge to view this.", "badges": [], "created_at": "2025-06-20T08:49:17.655-04:00", "updated_at": "2025-07-09T12:03:00.307-04:00", "avatar": "https://secure.gravatar.com/avatar/05d2b75daaccbdf00810c5eee3d06844.jpg?s=512&d=https%3A%2F%2Fa.slack-edge.com%2Fdf10d%2Fimg%2Favatars%2Fava_0001-512.png", "custom_css": null}, {"id": 10358, "slack_id": "U0930AM3TK2", "display_name": "Shyam Verma", "bio": null, "projects_count": 0, "devlogs_count": 0, "votes_count": 0, "ships_count": 0, "projects": [], "coding_time_seconds": 0, "coding_time_seconds_today": 0, "balance": "You need to have a pocket watcher badge to view this.", "badges": [], "created_at": "2025-06-20T08:49:34.597-04:00", "updated_at": "2025-07-03T22:00:52.240-04:00", "avatar": "https://avatars.slack-edge.com/2025-06-20/9073336279939_6fc94021759955124f3a_original.jpg", "custom_css": null}, {"id": 10359, "slack_id": "U0799LV018V", "display_name": "ZENO", "bio": null, "projects_count": 0, "devlogs_count": 0, "votes_count": 0, "ships_count": 0, "projects": [], "coding_time_seconds": 647, "coding_time_seconds_today": 0, "balance": "You need to have a pocket watcher badge to view this.", "badges": [], "created_at": "2025-06-20T08:50:54.117-04:00", "updated_at": "2025-07-04T20:11:02.310-04:00", "avatar": "https://avatars.slack-edge.com/2024-06-23/7311982396854_5910b0d6064019d31da4_original.jpg", "custom_css": null}, {"id": 10360, "slack_id": "U0930AR0ASU", "display_name": "Eruva Akhil", "bio": null, "projects_count": 0, "devlogs_count": 0, "votes_count": 0, "ships_count": 0, "projects": [], "coding_time_seconds": 0, "coding_time_seconds_today": 0, "balance": "You need to have a pocket watcher badge to view this.", "badges": [], "created_at": "2025-06-20T08:51:39.971-04:00", "updated_at": "2025-07-03T19:55:39.191-04:00", "avatar": "https://secure.gravatar.com/avatar/b93cec9a31e40b690f2582d77adccadd.jpg?s=512&d=https%3A%2F%2Fa.slack-edge.com%2Fdf10d%2Fimg%2Favatars%2Fava_0004-512.png", "custom_css": null}], "pagination": {"page": 518, "pages": 1192, "count": 23828, "items": 20}}