{"users": [{"id": 10361, "slack_id": "U092N90RCC9", "display_name": "Joel Trespalacios Peralta", "bio": null, "projects_count": 0, "devlogs_count": 0, "votes_count": 1, "ships_count": 0, "projects": [], "coding_time_seconds": 22208, "coding_time_seconds_today": 0, "balance": "You need to have a pocket watcher badge to view this.", "badges": [], "created_at": "2025-06-20T08:54:22.803-04:00", "updated_at": "2025-07-10T01:37:16.455-04:00", "avatar": "https://secure.gravatar.com/avatar/6df4c6cdf9fa24f68242d9264ad02507.jpg?s=512&d=https%3A%2F%2Fa.slack-edge.com%2Fdf10d%2Fimg%2Favatars%2Fava_0010-512.png", "custom_css": null}, {"id": 10362, "slack_id": "U078W6D1ZCZ", "display_name": "AG-88301", "bio": null, "projects_count": 0, "devlogs_count": 0, "votes_count": 0, "ships_count": 0, "projects": [], "coding_time_seconds": 0, "coding_time_seconds_today": 0, "balance": "You need to have a pocket watcher badge to view this.", "badges": [], "created_at": "2025-06-20T08:59:17.604-04:00", "updated_at": "2025-07-03T19:55:39.609-04:00", "avatar": "https://secure.gravatar.com/avatar/62ceb054ecc660be324217b764bb5df1.jpg?s=512&d=https%3A%2F%2Fa.slack-edge.com%2Fdf10d%2Fimg%2Favatars%2Fava_0022-512.png", "custom_css": null}, {"id": 10363, "slack_id": "U091X7R896K", "display_name": "Vinod Niloshana", "bio": null, "projects_count": 0, "devlogs_count": 0, "votes_count": 0, "ships_count": 0, "projects": [], "coding_time_seconds": 3, "coding_time_seconds_today": 0, "balance": "You need to have a pocket watcher badge to view this.", "badges": [], "created_at": "2025-06-20T09:00:31.432-04:00", "updated_at": "2025-07-03T19:55:39.873-04:00", "avatar": "https://secure.gravatar.com/avatar/712a25ef6c9184f148c4d926a942f59e.jpg?s=512&d=https%3A%2F%2Fa.slack-edge.com%2Fdf10d%2Fimg%2Favatars%2Fava_0018-512.png", "custom_css": null}, {"id": 10364, "slack_id": "U0930B4KMEC", "display_name": "Yu Xuan", "bio": null, "projects_count": 0, "devlogs_count": 18, "votes_count": 21, "ships_count": 0, "projects": [], "coding_time_seconds": 330313, "coding_time_seconds_today": 0, "balance": "You need to have a pocket watcher badge to view this.", "badges": [{"name": "Maiden Voyage", "text": "you shipped your first project! the journey begins...", "icon": "\ud83d\udea2"}], "created_at": "2025-06-20T09:01:10.331-04:00", "updated_at": "2025-09-10T22:56:20.608-04:00", "avatar": "https://secure.gravatar.com/avatar/7af470f18795bfb318e2736710fcf0df.jpg?s=512&d=https%3A%2F%2Fa.slack-edge.com%2Fdf10d%2Fimg%2Favatars%2Fava_0021-512.png", "custom_css": null}, {"id": 10365, "slack_id": "U091X8MCADD", "display_name": "Greg", "bio": null, "projects_count": 0, "devlogs_count": 0, "votes_count": 0, "ships_count": 0, "projects": [], "coding_time_seconds": 0, "coding_time_seconds_today": 0, "balance": "You need to have a pocket watcher badge to view this.", "badges": [], "created_at": "2025-06-20T09:03:24.690-04:00", "updated_at": "2025-07-03T19:55:40.316-04:00", "avatar": "https://secure.gravatar.com/avatar/492d7baf43391ebe83cd75bbc905f402.jpg?s=512&d=https%3A%2F%2Fa.slack-edge.com%2Fdf10d%2Fimg%2Favatars%2Fava_0009-512.png", "custom_css": null}, {"id": 10366, "slack_id": "U0925BRA7AP", "display_name": "Ivan Padeliya", "bio": null, "projects_count": 0, "devlogs_count": 0, "votes_count": 0, "ships_count": 0, "projects": [], "coding_time_seconds": 0, "coding_time_seconds_today": 0, "balance": "You need to have a pocket watcher badge to view this.", "badges": [], "created_at": "2025-06-20T09:05:27.078-04:00", "updated_at": "2025-07-03T19:55:40.594-04:00", "avatar": "https://avatars.slack-edge.com/2025-06-20/9079989441874_771be3094f746465055c_original.jpg", "custom_css": null}, {"id": 10367, "slack_id": "U0927PYFWUU", "display_name": "Avinash Shetty", "bio": null, "projects_count": 0, "devlogs_count": 0, "votes_count": 0, "ships_count": 0, "projects": [], "coding_time_seconds": 0, "coding_time_seconds_today": 0, "balance": "You need to have a pocket watcher badge to view this.", "badges": [], "created_at": "2025-06-20T09:05:28.483-04:00", "updated_at": "2025-07-06T08:11:11.183-04:00", "avatar": "https://avatars.slack-edge.com/2025-06-20/9073413434515_f76ec8b564d3fd10c5cd_original.png", "custom_css": null}, {"id": 10368, "slack_id": "U091Y8V9XEW", "display_name": "Jovany", "bio": null, "projects_count": 0, "devlogs_count": 0, "votes_count": 0, "ships_count": 0, "projects": [], "coding_time_seconds": 0, "coding_time_seconds_today": 0, "balance": "You need to have a pocket watcher badge to view this.", "badges": [], "created_at": "2025-06-20T09:11:40.334-04:00", "updated_at": "2025-07-03T19:55:41.000-04:00", "avatar": "https://secure.gravatar.com/avatar/3a56164735e1957e176d03ef98376671.jpg?s=512&d=https%3A%2F%2Fa.slack-edge.com%2Fdf10d%2Fimg%2Favatars%2Fava_0006-512.png", "custom_css": null}, {"id": 10369, "slack_id": "U0930DMR4BA", "display_name": "lasvejas", "bio": "", "projects_count": 3, "devlogs_count": 6, "votes_count": 20, "ships_count": 2, "projects": [{"id": 2642, "title": "3d picnic under the stars", "devlogs_count": 2, "created_at": "2025-06-21T14:40:57.378-04:00"}, {"id": 2844, "title": "Web Boba", "devlogs_count": 2, "created_at": "2025-06-22T08:04:06.737-04:00"}, {"id": 2279, "title": "Mario glaze website for grub", "devlogs_count": 2, "created_at": "2025-06-20T16:06:23.390-04:00"}], "coding_time_seconds": 31336, "coding_time_seconds_today": 0, "balance": "You need to have a pocket watcher badge to view this.", "badges": [{"name": "Maiden Voyage", "text": "you shipped your first project! the journey begins...", "icon": "\ud83d\udea2"}, {"name": "Graphic Design is My Passion", "text": "Oh God How Did This Get Here I Am Not Good With Computer", "icon": "\ud83c\udfa8"}], "created_at": "2025-06-20T09:12:21.737-04:00", "updated_at": "2025-09-10T22:56:20.742-04:00", "avatar": "https://avatars.slack-edge.com/2025-06-21/9106109844416_402e1a4a5d6c27ef5587_original.jpg", "custom_css": "background: #fff"}, {"id": 10370, "slack_id": "U0799U9102E", "display_name": "Arth Mishra", "bio": null, "projects_count": 0, "devlogs_count": 0, "votes_count": 0, "ships_count": 0, "projects": [], "coding_time_seconds": 0, "coding_time_seconds_today": 0, "balance": "You need to have a pocket watcher badge to view this.", "badges": [], "created_at": "2025-06-20T09:12:26.802-04:00", "updated_at": "2025-07-05T08:11:58.791-04:00", "avatar": "https://secure.gravatar.com/avatar/bbff81940aff7dfec2707776bde3c890.jpg?s=512&d=https%3A%2F%2Fa.slack-edge.com%2Fdf10d%2Fimg%2Favatars%2Fava_0008-512.png", "custom_css": null}, {"id": 10371, "slack_id": "U092QQFM1CH", "display_name": "Pme", "bio": null, "projects_count": 0, "devlogs_count": 0, "votes_count": 0, "ships_count": 0, "projects": [], "coding_time_seconds": 3695, "coding_time_seconds_today": 0, "balance": "You need to have a pocket watcher badge to view this.", "badges": [], "created_at": "2025-06-20T09:12:43.103-04:00", "updated_at": "2025-07-03T19:55:41.663-04:00", "avatar": "https://secure.gravatar.com/avatar/c2241d35263e54697999b6e429106f70.jpg?s=512&d=https%3A%2F%2Fa.slack-edge.com%2Fdf10d%2Fimg%2Favatars%2Fava_0006-512.png", "custom_css": null}, {"id": 10372, "slack_id": "U092CBBB7L4", "display_name": "Salar", "bio": null, "projects_count": 0, "devlogs_count": 0, "votes_count": 0, "ships_count": 0, "projects": [], "coding_time_seconds": 0, "coding_time_seconds_today": 0, "balance": "You need to have a pocket watcher badge to view this.", "badges": [], "created_at": "2025-06-20T09:17:13.178-04:00", "updated_at": "2025-07-03T19:55:41.931-04:00", "avatar": "https://secure.gravatar.com/avatar/4b0a9ff974bbeb2de8780c2c6fcf0f11.jpg?s=512&d=https%3A%2F%2Fa.slack-edge.com%2Fdf10d%2Fimg%2Favatars%2Fava_0012-512.png", "custom_css": null}, {"id": 10373, "slack_id": "U092BV27PR8", "display_name": "MrSpecter07", "bio": null, "projects_count": 0, "devlogs_count": 0, "votes_count": 0, "ships_count": 0, "projects": [], "coding_time_seconds": 0, "coding_time_seconds_today": 0, "balance": "You need to have a pocket watcher badge to view this.", "badges": [], "created_at": "2025-06-20T09:18:59.720-04:00", "updated_at": "2025-07-03T19:55:42.193-04:00", "avatar": "https://secure.gravatar.com/avatar/dd3cba45db5eaa55da13b9d234614bcb.jpg?s=512&d=https%3A%2F%2Fa.slack-edge.com%2Fdf10d%2Fimg%2Favatars%2Fava_0012-512.png", "custom_css": null}, {"id": 10374, "slack_id": "U092CBFLLLC", "display_name": "Theertha Santhosh", "bio": null, "projects_count": 0, "devlogs_count": 0, "votes_count": 0, "ships_count": 0, "projects": [], "coding_time_seconds": 0, "coding_time_seconds_today": 0, "balance": "You need to have a pocket watcher badge to view this.", "badges": [], "created_at": "2025-06-20T09:21:21.139-04:00", "updated_at": "2025-07-03T19:55:42.529-04:00", "avatar": "https://avatars.slack-edge.com/2025-06-20/9080416280132_eb62ad0438bbff521d92_original.png", "custom_css": null}, {"id": 10375, "slack_id": "U092QRLQGRX", "display_name": "Aryan Garg", "bio": null, "projects_count": 0, "devlogs_count": 0, "votes_count": 0, "ships_count": 0, "projects": [], "coding_time_seconds": 0, "coding_time_seconds_today": 0, "balance": "You need to have a pocket watcher badge to view this.", "badges": [], "created_at": "2025-06-20T09:22:01.400-04:00", "updated_at": "2025-07-03T19:55:42.792-04:00", "avatar": "https://secure.gravatar.com/avatar/850da4d4d21987ce29f66608284b3edc.jpg?s=512&d=https%3A%2F%2Fa.slack-edge.com%2Fdf10d%2Fimg%2Favatars%2Fava_0012-512.png", "custom_css": null}, {"id": 10376, "slack_id": "U092CC36LDA", "display_name": "Yash Patil", "bio": null, "projects_count": 1, "devlogs_count": 4, "votes_count": 0, "ships_count": 1, "projects": [{"id": 9674, "title": "Password manager ", "devlogs_count": 1, "created_at": "2025-08-02T01:50:10.491-04:00"}], "coding_time_seconds": 157612, "coding_time_seconds_today": 0, "balance": "You need to have a pocket watcher badge to view this.", "badges": [{"name": "Maiden Voyage", "text": "you shipped your first project! the journey begins...", "icon": "\ud83d\udea2"}], "created_at": "2025-06-20T09:24:07.701-04:00", "updated_at": "2025-09-10T22:56:20.974-04:00", "avatar": "https://avatars.slack-edge.com/2025-06-20/9092907732689_35192ab155fc8f51a959_original.png", "custom_css": null}, {"id": 10377, "slack_id": "U0925LKM0UW", "display_name": "Pedro Paino", "bio": null, "projects_count": 0, "devlogs_count": 0, "votes_count": 0, "ships_count": 0, "projects": [], "coding_time_seconds": 0, "coding_time_seconds_today": 0, "balance": "You need to have a pocket watcher badge to view this.", "badges": [], "created_at": "2025-06-20T09:29:32.063-04:00", "updated_at": "2025-07-03T19:55:43.218-04:00", "avatar": "https://secure.gravatar.com/avatar/c2ae96df1c7a879a16dc8a54c0f2a72f.jpg?s=512&d=https%3A%2F%2Fa.slack-edge.com%2Fdf10d%2Fimg%2Favatars%2Fava_0022-512.png", "custom_css": null}, {"id": 10378, "slack_id": "U091SK1Q1FE", "display_name": "Sujay Chavan", "bio": null, "projects_count": 0, "devlogs_count": 0, "votes_count": 0, "ships_count": 0, "projects": [], "coding_time_seconds": 0, "coding_time_seconds_today": 0, "balance": "You need to have a pocket watcher badge to view this.", "badges": [], "created_at": "2025-06-20T09:35:22.862-04:00", "updated_at": "2025-07-03T19:55:43.481-04:00", "avatar": "https://secure.gravatar.com/avatar/97838795bbaef726e367b8bb78333ab1.jpg?s=512&d=https%3A%2F%2Fa.slack-edge.com%2Fdf10d%2Fimg%2Favatars%2Fava_0018-512.png", "custom_css": null}, {"id": 10379, "slack_id": "U091XDTTNA3", "display_name": "Grace", "bio": null, "projects_count": 0, "devlogs_count": 0, "votes_count": 0, "ships_count": 0, "projects": [], "coding_time_seconds": 0, "coding_time_seconds_today": 0, "balance": "You need to have a pocket watcher badge to view this.", "badges": [], "created_at": "2025-06-20T09:38:28.436-04:00", "updated_at": "2025-07-03T19:55:43.749-04:00", "avatar": "https://secure.gravatar.com/avatar/a28ab0649908f9768ecb7d857401b7c1.jpg?s=512&d=https%3A%2F%2Fa.slack-edge.com%2Fdf10d%2Fimg%2Favatars%2Fava_0014-512.png", "custom_css": null}, {"id": 10380, "slack_id": "U0930HHLSHE", "display_name": "Siddharthan", "bio": null, "projects_count": 0, "devlogs_count": 0, "votes_count": 0, "ships_count": 0, "projects": [], "coding_time_seconds": 0, "coding_time_seconds_today": 0, "balance": "You need to have a pocket watcher badge to view this.", "badges": [], "created_at": "2025-06-20T09:39:30.202-04:00", "updated_at": "2025-07-03T19:55:44.009-04:00", "avatar": "https://secure.gravatar.com/avatar/260a591fe6e80b114ff8ac31d0009eaf.jpg?s=512&d=https%3A%2F%2Fa.slack-edge.com%2Fdf10d%2Fimg%2Favatars%2Fava_0002-512.png", "custom_css": null}], "pagination": {"page": 519, "pages": 1192, "count": 23828, "items": 20}}