{"users": [{"id": 1021, "slack_id": "U091GDVP00N", "display_name": "SAKTHI VIKKRAMAN", "bio": null, "projects_count": 0, "devlogs_count": 0, "votes_count": 0, "ships_count": 0, "projects": [], "coding_time_seconds": 0, "coding_time_seconds_today": 0, "balance": "You need to have a pocket watcher badge to view this.", "badges": [], "created_at": "2025-06-16T12:33:48.736-04:00", "updated_at": "2025-07-03T19:15:44.227-04:00", "avatar": "https://avatars.slack-edge.com/2025-06-16/9057360561442_f245702d0ddb69e9e95b_original.png", "custom_css": null}, {"id": 1022, "slack_id": "U091MGNTP3P", "display_name": "Jonathan", "bio": null, "projects_count": 0, "devlogs_count": 0, "votes_count": 0, "ships_count": 0, "projects": [], "coding_time_seconds": 470, "coding_time_seconds_today": 0, "balance": "You need to have a pocket watcher badge to view this.", "badges": [], "created_at": "2025-06-16T12:33:53.432-04:00", "updated_at": "2025-07-03T19:15:44.504-04:00", "avatar": "https://secure.gravatar.com/avatar/0cdd03fb60f376be16215bb1bd8ec1d4.jpg?s=512&d=https%3A%2F%2Fa.slack-edge.com%2Fdf10d%2Fimg%2Favatars%2Fava_0013-512.png", "custom_css": null}, {"id": 1023, "slack_id": "U091GAG95FV", "display_name": "Mujeeb", "bio": null, "projects_count": 0, "devlogs_count": 0, "votes_count": 0, "ships_count": 0, "projects": [], "coding_time_seconds": 0, "coding_time_seconds_today": 0, "balance": "You need to have a pocket watcher badge to view this.", "badges": [], "created_at": "2025-06-16T12:33:54.511-04:00", "updated_at": "2025-07-03T19:15:44.782-04:00", "avatar": "https://secure.gravatar.com/avatar/144374b30ab70be0e0a3235c24cdb956.jpg?s=512&d=https%3A%2F%2Fa.slack-edge.com%2Fdf10d%2Fimg%2Favatars%2Fava_0013-512.png", "custom_css": null}, {"id": 1024, "slack_id": "U091815S30X", "display_name": "Oli Tri\u0161ic", "bio": null, "projects_count": 0, "devlogs_count": 0, "votes_count": 0, "ships_count": 0, "projects": [], "coding_time_seconds": 0, "coding_time_seconds_today": 0, "balance": "You need to have a pocket watcher badge to view this.", "badges": [], "created_at": "2025-06-16T12:33:55.466-04:00", "updated_at": "2025-07-03T19:15:45.059-04:00", "avatar": "https://avatars.slack-edge.com/2025-06-16/9079839907232_cfe257acdfc38e6183aa_original.png", "custom_css": null}, {"id": 1025, "slack_id": "U08S82B46RW", "display_name": "Araan Sheikh", "bio": null, "projects_count": 0, "devlogs_count": 0, "votes_count": 0, "ships_count": 0, "projects": [], "coding_time_seconds": 0, "coding_time_seconds_today": 0, "balance": "You need to have a pocket watcher badge to view this.", "badges": [], "created_at": "2025-06-16T12:33:56.506-04:00", "updated_at": "2025-07-03T19:15:45.338-04:00", "avatar": "https://secure.gravatar.com/avatar/80dd94d24580807914d07c2e0b47f466.jpg?s=512&d=https%3A%2F%2Fa.slack-edge.com%2Fdf10d%2Fimg%2Favatars%2Fava_0023-512.png", "custom_css": null}, {"id": 1026, "slack_id": "U07LKN5LZ6D", "display_name": "Jannik", "bio": null, "projects_count": 0, "devlogs_count": 0, "votes_count": 0, "ships_count": 0, "projects": [], "coding_time_seconds": 0, "coding_time_seconds_today": 0, "balance": "You need to have a pocket watcher badge to view this.", "badges": [], "created_at": "2025-06-16T12:34:09.493-04:00", "updated_at": "2025-07-03T19:15:45.602-04:00", "avatar": "https://avatars.slack-edge.com/2025-03-30/8689885296849_b2cbeabd8e2a65e9f5cf_original.png", "custom_css": null}, {"id": 1027, "slack_id": "U091PA9FBDG", "display_name": "Maksiks", "bio": "I'm Maksiks. Something of a local wizard.", "projects_count": 0, "devlogs_count": 109, "votes_count": 114, "ships_count": 0, "projects": [], "coding_time_seconds": 1821820, "coding_time_seconds_today": 0, "balance": "You need to have a pocket watcher badge to view this.", "badges": [{"name": "Maiden Voyage", "text": "you shipped your first project! the journey begins...", "icon": "\ud83d\udea2"}, {"name": "Graphic Design is My Passion", "text": "Oh God How Did This Get Here I Am Not Good With Computer", "icon": "\ud83c\udfa8"}, {"name": "Ballot Stuffer", "text": "vote 100 times.", "icon": "https://summer.hackclub.com/assets/i_voted-bf851b48.png"}, {"name": "Yapper I", "text": "Posted 10 comments on devlogs.", "icon": "\ud83d\udcac"}, {"name": "No Fun", "text": "opt-out added for the whimsy-impaired", "icon": "\ud83d\udeab"}], "created_at": "2025-06-16T12:34:32.035-04:00", "updated_at": "2025-09-10T22:51:39.881-04:00", "avatar": "https://avatars.slack-edge.com/2025-06-16/9055594548693_ad4c73a2441ee334b612_original.png", "custom_css": "body::before {\r\nbackground: #2B2C2C;\r\n\r\n    }\r\n\r\n.sinkening-water {\r\ncolor: blue !important;\r\nfill: blue !important;\r\n}\r\n\r\n\r\n.sinkening-water > svg {\r\ncolor: blue !important;\r\nfill: blue !important;\r\n}\r\n\r\n*:not(.sinkening-water)\r\n  :not(.sinkening-water > svg)\r\n  :not(.w-full.overflow-hidden)\r\n  :not(.w-full.overflow-hidden *) {\r\n  fill: white;\r\n}\r\n\r\n\r\n* {\r\ncolor: white;\r\n}\r\n\r\n.bg-som-highlight {\r\n\r\n       background: #141515;\r\n\r\n    }\r\n    \r\n\r\n    .text-xs.px-2.py-1.bg-green-100.text-green-800.rounded-full {\r\n        color: black !important;\r\n    }\r\n\r\n    .container::before {\r\n        content: \"i css'd the hell of this lol\";\r\n        position: relative;\r\n        top: -0.5rem;\r\n    }\r\n\r\n.profile-bio {\r\n  white-space: nowrap;\r\n}\r\n\r\n    .card-with-gradient, .som-button-primary {\r\n        background: rgba(33, 34, 34) !important;\r\n        border-radius: 0;\r\n        border: 1px solid black;\r\n    }\r\n\r\n    [src=\"/assets/container/container-tl-588612b5.svg\"] {\r\n        display: none;\r\n    }\r\n\r\n    [src=\"/assets/container/container-tm-b678f005.svg\"] {\r\n        display: none;\r\n    }\r\n\r\n    [src=\"/assets/container/container-ml-61c63452.svg\"] {\r\n        display: none;\r\n    }\r\n\r\n    [src=\"/assets/container/container-mr-bf6da02e.svg\"] {\r\n        display: none;\r\n    }\r\n\r\n    [src=\"/assets/container/container-tr-0a17f012.svg\"] {\r\n        display: none;\r\n    }\r\n\r\n    [src=\"/assets/container/container-br-259cfcee.svg\"] {\r\n        display: none;\r\n    }\r\n\r\n    [src=\"/assets/container/container-bm-6ff3aaf2.svg\"] {\r\n        display: none;\r\n    }\r\n\r\n    [src=\"/assets/container/container-bl-379861a1.svg\"] {\r\n        display: none;\r\n    }\r\n\r\n    [src=\"/assets/container/container-mr-bf6da02e.svg\"] {\r\n        display: none;\r\n    }\r\n\r\n    [data-sidebar-target=\"sidebar\"] {\r\n        background: rgba(33, 34, 34) !important;\r\n        padding: 1rem 3.7rem 1rem 1rem;\r\n  \r\n        border-radius: 0;\r\n        border: 1px solid black;\r\n    }\r\n\r\n    .card-with-gradient.origin-top-right.-rotate-1 {\r\n        background: rgba(33, 34, 34) !important;\r\n    }"}, {"id": 1028, "slack_id": "U07V8RSA3G8", "display_name": "Abdur Rehman", "bio": null, "projects_count": 0, "devlogs_count": 71, "votes_count": 44, "ships_count": 0, "projects": [], "coding_time_seconds": 1026715, "coding_time_seconds_today": 0, "balance": "You need to have a pocket watcher badge to view this.", "badges": [{"name": "Maiden Voyage", "text": "you shipped your first project! the journey begins...", "icon": "\ud83d\udea2"}], "created_at": "2025-06-16T12:34:34.797-04:00", "updated_at": "2025-09-15T21:09:06.640-04:00", "avatar": "https://avatars.slack-edge.com/2025-03-03/8542987730020_fccb7a4cb32a26a1c6cc_original.png", "custom_css": null}, {"id": 1029, "slack_id": "U092BQDLD4Y", "display_name": "Srikanth Kandi", "bio": null, "projects_count": 0, "devlogs_count": 0, "votes_count": 0, "ships_count": 0, "projects": [], "coding_time_seconds": 0, "coding_time_seconds_today": 0, "balance": "You need to have a pocket watcher badge to view this.", "badges": [], "created_at": "2025-06-16T12:34:55.260-04:00", "updated_at": "2025-07-03T19:15:46.388-04:00", "avatar": "https://secure.gravatar.com/avatar/5e742b84ba065aedd81613a1f80d4774.jpg?s=512&d=https%3A%2F%2Fa.slack-edge.com%2Fdf10d%2Fimg%2Favatars%2Fava_0024-512.png", "custom_css": null}, {"id": 1030, "slack_id": "U05MKEZUY67", "display_name": "spc", "bio": null, "projects_count": 3, "devlogs_count": 17, "votes_count": 25, "ships_count": 2, "projects": [{"id": 7999, "title": "Spaceship TUI", "devlogs_count": 2, "created_at": "2025-07-24T01:29:47.068-04:00"}, {"id": 11689, "title": "Spc's website :D", "devlogs_count": 11, "created_at": "2025-08-18T12:54:55.657-04:00"}, {"id": 10279, "title": "Clicky devboard", "devlogs_count": 4, "created_at": "2025-08-05T14:01:39.420-04:00"}], "coding_time_seconds": 880973, "coding_time_seconds_today": 120, "balance": "You need to have a pocket watcher badge to view this.", "badges": [{"name": "Maiden Voyage", "text": "you shipped your first project! the journey begins...", "icon": "\ud83d\udea2"}], "created_at": "2025-06-16T12:34:55.390-04:00", "updated_at": "2025-09-10T22:51:39.961-04:00", "avatar": "https://avatars.slack-edge.com/2025-08-26/9401044181959_2e524e02f1ebd4fe8f8d_original.jpg", "custom_css": null}, {"id": 1031, "slack_id": "U07BN35AMJM", "display_name": "Tawhid", "bio": null, "projects_count": 0, "devlogs_count": 0, "votes_count": 0, "ships_count": 0, "projects": [], "coding_time_seconds": 302104, "coding_time_seconds_today": 0, "balance": "You need to have a pocket watcher badge to view this.", "badges": [], "created_at": "2025-06-16T12:34:59.399-04:00", "updated_at": "2025-07-03T19:15:46.930-04:00", "avatar": "https://avatars.slack-edge.com/2024-07-27/7510036072368_e6602756dc7c2730978a_original.png", "custom_css": null}, {"id": 1032, "slack_id": "U0917T0SPDM", "display_name": "Islam Imad", "bio": null, "projects_count": 0, "devlogs_count": 0, "votes_count": 0, "ships_count": 0, "projects": [], "coding_time_seconds": 479363, "coding_time_seconds_today": 0, "balance": "You need to have a pocket watcher badge to view this.", "badges": [], "created_at": "2025-06-16T12:35:04.902-04:00", "updated_at": "2025-07-03T19:15:47.208-04:00", "avatar": "https://avatars.slack-edge.com/2025-06-16/9042066457047_b709478538fe9563eb0b_original.jpg", "custom_css": null}, {"id": 1033, "slack_id": "U091MGQ3TD3", "display_name": "Linus", "bio": null, "projects_count": 0, "devlogs_count": 0, "votes_count": 0, "ships_count": 0, "projects": [], "coding_time_seconds": 18877, "coding_time_seconds_today": 0, "balance": "You need to have a pocket watcher badge to view this.", "badges": [], "created_at": "2025-06-16T12:35:20.338-04:00", "updated_at": "2025-07-03T19:15:47.475-04:00", "avatar": "https://secure.gravatar.com/avatar/b0b520ee5de7779cdd57e97176fecc4e.jpg?s=512&d=https%3A%2F%2Fa.slack-edge.com%2Fdf10d%2Fimg%2Favatars%2Fava_0007-512.png", "custom_css": null}, {"id": 1034, "slack_id": "U0921SY5DJ5", "display_name": "V Sai Vivek", "bio": null, "projects_count": 0, "devlogs_count": 0, "votes_count": 0, "ships_count": 0, "projects": [], "coding_time_seconds": 0, "coding_time_seconds_today": 0, "balance": "You need to have a pocket watcher badge to view this.", "badges": [], "created_at": "2025-06-16T12:35:22.589-04:00", "updated_at": "2025-07-03T19:15:47.760-04:00", "avatar": "https://secure.gravatar.com/avatar/74f458058063c8607e549bf0f100910c.jpg?s=512&d=https%3A%2F%2Fa.slack-edge.com%2Fdf10d%2Fimg%2Favatars%2Fava_0017-512.png", "custom_css": null}, {"id": 1035, "slack_id": "U091GDVNE2J", "display_name": "Mehmet Akif Tasci", "bio": null, "projects_count": 1, "devlogs_count": 2, "votes_count": 1, "ships_count": 1, "projects": [{"id": 288, "title": "MyPT", "devlogs_count": 2, "created_at": "2025-06-16T17:11:28.851-04:00"}], "coding_time_seconds": 11783, "coding_time_seconds_today": 0, "balance": "You need to have a pocket watcher badge to view this.", "badges": [{"name": "Maiden Voyage", "text": "you shipped your first project! the journey begins...", "icon": "\ud83d\udea2"}], "created_at": "2025-06-16T12:35:25.452-04:00", "updated_at": "2025-09-10T22:51:40.178-04:00", "avatar": "https://secure.gravatar.com/avatar/1069f10ff2b85f9a3a0e9079a34a8078.jpg?s=512&d=https%3A%2F%2Fa.slack-edge.com%2Fdf10d%2Fimg%2Favatars%2Fava_0011-512.png", "custom_css": null}, {"id": 1036, "slack_id": "U0921SZB3UH", "display_name": "gem1ineye", "bio": null, "projects_count": 1, "devlogs_count": 1, "votes_count": 0, "ships_count": 0, "projects": [{"id": 296, "title": "Bacteria Detection On Plants", "devlogs_count": 1, "created_at": "2025-06-16T17:24:53.225-04:00"}], "coding_time_seconds": 28753, "coding_time_seconds_today": 0, "balance": "You need to have a pocket watcher badge to view this.", "badges": [], "created_at": "2025-06-16T12:35:30.567-04:00", "updated_at": "2025-07-03T19:15:48.318-04:00", "avatar": "https://secure.gravatar.com/avatar/428202726b733b68b63d503b4462089d.jpg?s=512&d=https%3A%2F%2Fa.slack-edge.com%2Fdf10d%2Fimg%2Favatars%2Fava_0023-512.png", "custom_css": null}, {"id": 1037, "slack_id": "U091P9XQHR8", "display_name": "Medha Shinde", "bio": null, "projects_count": 0, "devlogs_count": 0, "votes_count": 0, "ships_count": 0, "projects": [], "coding_time_seconds": 0, "coding_time_seconds_today": 0, "balance": "You need to have a pocket watcher badge to view this.", "badges": [], "created_at": "2025-06-16T12:35:32.997-04:00", "updated_at": "2025-07-03T19:15:48.608-04:00", "avatar": "https://avatars.slack-edge.com/2025-06-16/9057371265250_ddd4bb339cfb23534154_original.jpg", "custom_css": null}, {"id": 1038, "slack_id": "U06MC2TRYNM", "display_name": "Charlie K", "bio": null, "projects_count": 0, "devlogs_count": 0, "votes_count": 0, "ships_count": 0, "projects": [], "coding_time_seconds": 74668, "coding_time_seconds_today": 0, "balance": "You need to have a pocket watcher badge to view this.", "badges": [], "created_at": "2025-06-16T12:35:33.110-04:00", "updated_at": "2025-08-11T12:36:10.838-04:00", "avatar": "https://avatars.slack-edge.com/2025-06-04/9002779122500_631d4e0ab9ce8ae4596d_original.png", "custom_css": null}, {"id": 1039, "slack_id": "U0921SFNF2M", "display_name": "msmahatha", "bio": null, "projects_count": 0, "devlogs_count": 0, "votes_count": 0, "ships_count": 0, "projects": [], "coding_time_seconds": 6, "coding_time_seconds_today": 0, "balance": "You need to have a pocket watcher badge to view this.", "badges": [], "created_at": "2025-06-16T12:35:37.980-04:00", "updated_at": "2025-07-03T19:15:49.159-04:00", "avatar": "https://secure.gravatar.com/avatar/354020bab2a49b1406ddba04c420f96f.jpg?s=512&d=https%3A%2F%2Fa.slack-edge.com%2Fdf10d%2Fimg%2Favatars%2Fava_0015-512.png", "custom_css": null}, {"id": 1040, "slack_id": "U04G7K77ZNV", "display_name": "louisgan", "bio": null, "projects_count": 0, "devlogs_count": 0, "votes_count": 0, "ships_count": 0, "projects": [], "coding_time_seconds": 157010, "coding_time_seconds_today": 0, "balance": "You need to have a pocket watcher badge to view this.", "badges": [], "created_at": "2025-06-16T12:35:41.890-04:00", "updated_at": "2025-08-16T23:10:22.665-04:00", "avatar": "https://avatars.slack-edge.com/2025-08-09/9354878175968_f6ca4d2fb33b28b26508_original.png", "custom_css": null}], "pagination": {"page": 52, "pages": 1192, "count": 23827, "items": 20}}