{"users": [{"id": 10381, "slack_id": "U078U9WEA31", "display_name": "Nerd Behind Computer", "bio": null, "projects_count": 0, "devlogs_count": 0, "votes_count": 0, "ships_count": 0, "projects": [], "coding_time_seconds": 0, "coding_time_seconds_today": 0, "balance": "You need to have a pocket watcher badge to view this.", "badges": [], "created_at": "2025-06-20T09:42:43.393-04:00", "updated_at": "2025-07-03T19:55:44.269-04:00", "avatar": "https://avatars.slack-edge.com/2024-06-21/7317391391540_b06406853403f2d5d742_original.png", "custom_css": null}, {"id": 10382, "slack_id": "U0925H7T97V", "display_name": "Sanjay Aski", "bio": null, "projects_count": 0, "devlogs_count": 0, "votes_count": 0, "ships_count": 0, "projects": [], "coding_time_seconds": 0, "coding_time_seconds_today": 0, "balance": "You need to have a pocket watcher badge to view this.", "badges": [], "created_at": "2025-06-20T09:45:26.667-04:00", "updated_at": "2025-07-04T08:26:27.355-04:00", "avatar": "https://avatars.slack-edge.com/2025-06-20/9080192863650_8ecf4c7cec7ff4377755_original.png", "custom_css": null}, {"id": 10383, "slack_id": "U092CFPEJF6", "display_name": "Omkar", "bio": null, "projects_count": 0, "devlogs_count": 0, "votes_count": 0, "ships_count": 0, "projects": [], "coding_time_seconds": 621826, "coding_time_seconds_today": 2723, "balance": "You need to have a pocket watcher badge to view this.", "badges": [], "created_at": "2025-06-20T09:48:00.954-04:00", "updated_at": "2025-07-03T19:55:44.662-04:00", "avatar": "https://secure.gravatar.com/avatar/61797ebe41a1583c3b4a9125dd725437.jpg?s=512&d=https%3A%2F%2Fa.slack-edge.com%2Fdf10d%2Fimg%2Favatars%2Fava_0011-512.png", "custom_css": null}, {"id": 10384, "slack_id": "U091VK0H4TZ", "display_name": "Alben Bagabaldo", "bio": null, "projects_count": 0, "devlogs_count": 0, "votes_count": 0, "ships_count": 0, "projects": [], "coding_time_seconds": 24820, "coding_time_seconds_today": 0, "balance": "You need to have a pocket watcher badge to view this.", "badges": [], "created_at": "2025-06-20T09:48:23.633-04:00", "updated_at": "2025-07-03T19:55:44.959-04:00", "avatar": "https://secure.gravatar.com/avatar/86da42801903dd693e1d817da26a5f3b.jpg?s=512&d=https%3A%2F%2Fa.slack-edge.com%2Fdf10d%2Fimg%2Favatars%2Fava_0021-512.png", "custom_css": null}, {"id": 10385, "slack_id": "U091XFBRDMM", "display_name": "Xalid", "bio": null, "projects_count": 0, "devlogs_count": 0, "votes_count": 0, "ships_count": 0, "projects": [], "coding_time_seconds": 0, "coding_time_seconds_today": 0, "balance": "You need to have a pocket watcher badge to view this.", "badges": [], "created_at": "2025-06-20T09:49:21.163-04:00", "updated_at": "2025-07-03T19:55:45.239-04:00", "avatar": "https://secure.gravatar.com/avatar/1fb3cacaa5ba67d17c1474895f18a84e.jpg?s=512&d=https%3A%2F%2Fa.slack-edge.com%2Fdf10d%2Fimg%2Favatars%2Fava_0005-512.png", "custom_css": null}, {"id": 10386, "slack_id": "U092BCGGJER", "display_name": "Jody Ayman", "bio": null, "projects_count": 0, "devlogs_count": 0, "votes_count": 0, "ships_count": 0, "projects": [], "coding_time_seconds": 0, "coding_time_seconds_today": 0, "balance": "You need to have a pocket watcher badge to view this.", "badges": [], "created_at": "2025-06-20T09:49:52.915-04:00", "updated_at": "2025-07-03T19:55:45.512-04:00", "avatar": "https://secure.gravatar.com/avatar/32ed831da7415529f37684b10234a79c.jpg?s=512&d=https%3A%2F%2Fa.slack-edge.com%2Fdf10d%2Fimg%2Favatars%2Fava_0010-512.png", "custom_css": null}, {"id": 10387, "slack_id": "U0926J6R00L", "display_name": "TouchOfDeath", "bio": null, "projects_count": 0, "devlogs_count": 0, "votes_count": 0, "ships_count": 0, "projects": [], "coding_time_seconds": 12081, "coding_time_seconds_today": 0, "balance": "You need to have a pocket watcher badge to view this.", "badges": [], "created_at": "2025-06-20T09:50:45.468-04:00", "updated_at": "2025-07-17T19:57:06.838-04:00", "avatar": "https://secure.gravatar.com/avatar/20ae4f7732088826ccac93c826834b70.jpg?s=512&d=https%3A%2F%2Fa.slack-edge.com%2Fdf10d%2Fimg%2Favatars%2Fava_0006-512.png", "custom_css": null}, {"id": 10388, "slack_id": "U07HEH4N8UV", "display_name": "jps", "bio": null, "projects_count": 0, "devlogs_count": 0, "votes_count": 0, "ships_count": 0, "projects": [], "coding_time_seconds": 21687, "coding_time_seconds_today": 0, "balance": "You need to have a pocket watcher badge to view this.", "badges": [], "created_at": "2025-06-20T09:51:17.942-04:00", "updated_at": "2025-09-23T18:53:01.496-04:00", "avatar": "https://avatars.slack-edge.com/2025-09-23/9566586893301_bf9057e52a89048292dc_original.png", "custom_css": null}, {"id": 10389, "slack_id": "U0925HVNR0B", "display_name": "Allan \u00d6rtegren", "bio": null, "projects_count": 1, "devlogs_count": 10, "votes_count": 0, "ships_count": 0, "projects": [{"id": 2157, "title": "AI robot", "devlogs_count": 10, "created_at": "2025-06-20T10:14:16.825-04:00"}], "coding_time_seconds": 171048, "coding_time_seconds_today": 0, "balance": "You need to have a pocket watcher badge to view this.", "badges": [], "created_at": "2025-06-20T09:51:35.534-04:00", "updated_at": "2025-07-03T19:55:46.183-04:00", "avatar": "https://avatars.slack-edge.com/2025-06-22/9078973459155_2fcd736aed16c0151fe7_original.png", "custom_css": null}, {"id": 10390, "slack_id": "U0823H0EPSP", "display_name": "Limit6", "bio": null, "projects_count": 1, "devlogs_count": 0, "votes_count": 0, "ships_count": 0, "projects": [{"id": 4103, "title": "MHD run", "devlogs_count": 0, "created_at": "2025-06-27T13:05:09.855-04:00"}], "coding_time_seconds": 197918, "coding_time_seconds_today": 5157, "balance": "You need to have a pocket watcher badge to view this.", "badges": [], "created_at": "2025-06-20T09:53:08.684-04:00", "updated_at": "2025-07-03T22:00:54.951-04:00", "avatar": "https://avatars.slack-edge.com/2024-11-29/8106162215028_95fb9512b2d18ef7d234_original.jpg", "custom_css": null}, {"id": 10391, "slack_id": "U0930K432BS", "display_name": "Mihai Hoara", "bio": null, "projects_count": 0, "devlogs_count": 0, "votes_count": 0, "ships_count": 0, "projects": [], "coding_time_seconds": 0, "coding_time_seconds_today": 0, "balance": "You need to have a pocket watcher badge to view this.", "badges": [], "created_at": "2025-06-20T09:53:54.525-04:00", "updated_at": "2025-07-03T19:55:46.590-04:00", "avatar": "https://secure.gravatar.com/avatar/9de717e9008a53463389f7f9e306b762.jpg?s=512&d=https%3A%2F%2Fa.slack-edge.com%2Fdf10d%2Fimg%2Favatars%2Fava_0018-512.png", "custom_css": null}, {"id": 10392, "slack_id": "U0930KHRT7A", "display_name": "Sonu Kumar Kushwaha", "bio": null, "projects_count": 0, "devlogs_count": 0, "votes_count": 0, "ships_count": 0, "projects": [], "coding_time_seconds": 0, "coding_time_seconds_today": 0, "balance": "You need to have a pocket watcher badge to view this.", "badges": [], "created_at": "2025-06-20T09:55:05.511-04:00", "updated_at": "2025-07-05T20:12:00.130-04:00", "avatar": "https://secure.gravatar.com/avatar/c20f69fbb8bd5f21d507357dc968ff02.jpg?s=512&d=https%3A%2F%2Fa.slack-edge.com%2Fdf10d%2Fimg%2Favatars%2Fava_0018-512.png", "custom_css": null}, {"id": 10393, "slack_id": "U092C6NAAUA", "display_name": "Samuel NLOGA NLOGA", "bio": null, "projects_count": 0, "devlogs_count": 0, "votes_count": 0, "ships_count": 0, "projects": [], "coding_time_seconds": 1715, "coding_time_seconds_today": 0, "balance": "You need to have a pocket watcher badge to view this.", "badges": [], "created_at": "2025-06-20T09:56:27.322-04:00", "updated_at": "2025-07-03T19:55:47.004-04:00", "avatar": "https://secure.gravatar.com/avatar/a53cab807ee895f1ed8c8ff0d1cfaf8d.jpg?s=512&d=https%3A%2F%2Fa.slack-edge.com%2Fdf10d%2Fimg%2Favatars%2Fava_0016-512.png", "custom_css": null}, {"id": 10394, "slack_id": "U092CH5Q1EG", "display_name": "Aryan", "bio": null, "projects_count": 0, "devlogs_count": 0, "votes_count": 0, "ships_count": 0, "projects": [], "coding_time_seconds": 23165, "coding_time_seconds_today": 0, "balance": "You need to have a pocket watcher badge to view this.", "badges": [], "created_at": "2025-06-20T09:57:32.218-04:00", "updated_at": "2025-08-02T21:00:32.543-04:00", "avatar": "https://secure.gravatar.com/avatar/2c6a9e0a1f96c2ed0e75a4362a18fc62.jpg?s=512&d=https%3A%2F%2Fa.slack-edge.com%2Fdf10d%2Fimg%2Favatars%2Fava_0013-512.png", "custom_css": null}, {"id": 10395, "slack_id": "U0926548HGW", "display_name": "Kerem", "bio": null, "projects_count": 1, "devlogs_count": 0, "votes_count": 0, "ships_count": 0, "projects": [{"id": 2168, "title": "Python To Html", "devlogs_count": 0, "created_at": "2025-06-20T10:57:32.530-04:00"}], "coding_time_seconds": 9631, "coding_time_seconds_today": 0, "balance": "You need to have a pocket watcher badge to view this.", "badges": [], "created_at": "2025-06-20T09:58:18.091-04:00", "updated_at": "2025-07-03T19:55:47.412-04:00", "avatar": "https://avatars.slack-edge.com/2025-06-20/9079518229077_bf9b14855ad35c2e33c2_original.jpg", "custom_css": null}, {"id": 10396, "slack_id": "U092CGEDE3E", "display_name": "Md. Arafat Islam", "bio": null, "projects_count": 0, "devlogs_count": 0, "votes_count": 0, "ships_count": 0, "projects": [], "coding_time_seconds": 0, "coding_time_seconds_today": 0, "balance": "You need to have a pocket watcher badge to view this.", "badges": [], "created_at": "2025-06-20T09:58:29.411-04:00", "updated_at": "2025-07-03T19:55:47.671-04:00", "avatar": "https://secure.gravatar.com/avatar/3d3549d3cf1cb06ea2b8bb58c5c665ac.jpg?s=512&d=https%3A%2F%2Fa.slack-edge.com%2Fdf10d%2Fimg%2Favatars%2Fava_0005-512.png", "custom_css": null}, {"id": 10397, "slack_id": "U092R1XBHR7", "display_name": "Krish", "bio": null, "projects_count": 0, "devlogs_count": 0, "votes_count": 0, "ships_count": 0, "projects": [], "coding_time_seconds": 0, "coding_time_seconds_today": 0, "balance": "You need to have a pocket watcher badge to view this.", "badges": [], "created_at": "2025-06-20T09:58:48.908-04:00", "updated_at": "2025-07-03T19:55:47.939-04:00", "avatar": "https://secure.gravatar.com/avatar/1ca6cdd1e5ee369991a1e97f30a77453.jpg?s=512&d=https%3A%2F%2Fa.slack-edge.com%2Fdf10d%2Fimg%2Favatars%2Fava_0006-512.png", "custom_css": null}, {"id": 10398, "slack_id": "U09265RQTF0", "display_name": "bompidom", "bio": null, "projects_count": 0, "devlogs_count": 0, "votes_count": 0, "ships_count": 0, "projects": [], "coding_time_seconds": 0, "coding_time_seconds_today": 0, "balance": "You need to have a pocket watcher badge to view this.", "badges": [], "created_at": "2025-06-20T09:59:48.641-04:00", "updated_at": "2025-07-07T08:11:30.938-04:00", "avatar": "https://secure.gravatar.com/avatar/c5a8f36b2abd2b726d4de5628ab02a2e.jpg?s=512&d=https%3A%2F%2Fa.slack-edge.com%2Fdf10d%2Fimg%2Favatars%2Fava_0003-512.png", "custom_css": null}, {"id": 10399, "slack_id": "U092KMTHLE5", "display_name": "Victor Larmet", "bio": null, "projects_count": 0, "devlogs_count": 0, "votes_count": 0, "ships_count": 0, "projects": [], "coding_time_seconds": 0, "coding_time_seconds_today": 0, "balance": "You need to have a pocket watcher badge to view this.", "badges": [], "created_at": "2025-06-20T10:06:57.779-04:00", "updated_at": "2025-07-03T19:55:48.361-04:00", "avatar": "https://secure.gravatar.com/avatar/51098e1ecb18c55dcfe9f176f513a482.jpg?s=512&d=https%3A%2F%2Fa.slack-edge.com%2Fdf10d%2Fimg%2Favatars%2Fava_0026-512.png", "custom_css": null}, {"id": 10400, "slack_id": "U091XJM5VQX", "display_name": "Antreas", "bio": null, "projects_count": 1, "devlogs_count": 0, "votes_count": 0, "ships_count": 0, "projects": [{"id": 2162, "title": "Test", "devlogs_count": 0, "created_at": "2025-06-20T10:38:48.111-04:00"}], "coding_time_seconds": 370, "coding_time_seconds_today": 0, "balance": "You need to have a pocket watcher badge to view this.", "badges": [], "created_at": "2025-06-20T10:07:11.207-04:00", "updated_at": "2025-07-03T19:55:48.623-04:00", "avatar": "https://secure.gravatar.com/avatar/ea6385bc876505a234fd8f4f28d4fe73.jpg?s=512&d=https%3A%2F%2Fa.slack-edge.com%2Fdf10d%2Fimg%2Favatars%2Fava_0020-512.png", "custom_css": null}], "pagination": {"page": 520, "pages": 1192, "count": 23828, "items": 20}}