{"users": [{"id": 10401, "slack_id": "U09267XUDAS", "display_name": "Li", "bio": null, "projects_count": 0, "devlogs_count": 0, "votes_count": 0, "ships_count": 0, "projects": [], "coding_time_seconds": 0, "coding_time_seconds_today": 0, "balance": "You need to have a pocket watcher badge to view this.", "badges": [], "created_at": "2025-06-20T10:12:24.495-04:00", "updated_at": "2025-07-03T19:55:48.912-04:00", "avatar": "https://secure.gravatar.com/avatar/599d118e49f3fb873fb650fd182be702.jpg?s=512&d=https%3A%2F%2Fa.slack-edge.com%2Fdf10d%2Fimg%2Favatars%2Fava_0008-512.png", "custom_css": null}, {"id": 10402, "slack_id": "U06T6QLV8LA", "display_name": "py660", "bio": null, "projects_count": 0, "devlogs_count": 0, "votes_count": 0, "ships_count": 0, "projects": [], "coding_time_seconds": 91557, "coding_time_seconds_today": 0, "balance": "You need to have a pocket watcher badge to view this.", "badges": [], "created_at": "2025-06-20T10:16:11.548-04:00", "updated_at": "2025-07-03T19:55:49.175-04:00", "avatar": "https://secure.gravatar.com/avatar/2ad00556837f717b1dbaec15aba0b1b3.jpg?s=512&d=https%3A%2F%2Fa.slack-edge.com%2Fdf10d%2Fimg%2Favatars%2Fava_0010-512.png", "custom_css": null}, {"id": 10403, "slack_id": "U092BHA2G21", "display_name": "R1ad", "bio": null, "projects_count": 1, "devlogs_count": 0, "votes_count": 0, "ships_count": 0, "projects": [{"id": 2202, "title": "Contractors Management", "devlogs_count": 0, "created_at": "2025-06-20T12:29:49.431-04:00"}], "coding_time_seconds": 2630, "coding_time_seconds_today": 0, "balance": "You need to have a pocket watcher badge to view this.", "badges": [], "created_at": "2025-06-20T10:16:20.421-04:00", "updated_at": "2025-07-03T22:00:55.902-04:00", "avatar": "https://secure.gravatar.com/avatar/41c4fa5102be46f228d26693874e1acd.jpg?s=512&d=https%3A%2F%2Fa.slack-edge.com%2Fdf10d%2Fimg%2Favatars%2Fava_0018-512.png", "custom_css": null}, {"id": 10404, "slack_id": "U092BJ3TNQ5", "display_name": "Abhinav Tripathi", "bio": null, "projects_count": 0, "devlogs_count": 0, "votes_count": 0, "ships_count": 0, "projects": [], "coding_time_seconds": 1459, "coding_time_seconds_today": 0, "balance": "You need to have a pocket watcher badge to view this.", "badges": [], "created_at": "2025-06-20T10:21:31.522-04:00", "updated_at": "2025-08-21T09:46:17.642-04:00", "avatar": "https://avatars.slack-edge.com/2025-06-21/9096281795265_6d9e9e4103226954b5d6_original.jpg", "custom_css": null}, {"id": 10405, "slack_id": "U0930N99F7S", "display_name": "Roshnee Gouda", "bio": null, "projects_count": 0, "devlogs_count": 0, "votes_count": 0, "ships_count": 0, "projects": [], "coding_time_seconds": 0, "coding_time_seconds_today": 0, "balance": "You need to have a pocket watcher badge to view this.", "badges": [], "created_at": "2025-06-20T10:21:42.623-04:00", "updated_at": "2025-07-05T08:12:00.990-04:00", "avatar": "https://secure.gravatar.com/avatar/5d8daed0a5091b642f61273dc6438e5b.jpg?s=512&d=https%3A%2F%2Fa.slack-edge.com%2Fdf10d%2Fimg%2Favatars%2Fava_0018-512.png", "custom_css": null}, {"id": 10406, "slack_id": "U08DHFTV25R", "display_name": "Yassin Emad", "bio": null, "projects_count": 4, "devlogs_count": 6, "votes_count": 4, "ships_count": 4, "projects": [{"id": 2625, "title": "Flabby Bird", "devlogs_count": 1, "created_at": "2025-06-21T13:52:19.585-04:00"}, {"id": 3541, "title": "2030 Time Capsule ", "devlogs_count": 2, "created_at": "2025-06-24T16:04:46.110-04:00"}, {"id": 4439, "title": "Illusion", "devlogs_count": 1, "created_at": "2025-06-29T22:05:41.738-04:00"}, {"id": 4839, "title": "Froggy", "devlogs_count": 2, "created_at": "2025-07-01T19:55:49.766-04:00"}], "coding_time_seconds": 78997, "coding_time_seconds_today": 0, "balance": "You need to have a pocket watcher badge to view this.", "badges": [{"name": "Maiden Voyage", "text": "you shipped your first project! the journey begins...", "icon": "\ud83d\udea2"}], "created_at": "2025-06-20T10:24:15.003-04:00", "updated_at": "2025-09-10T22:56:21.702-04:00", "avatar": "https://secure.gravatar.com/avatar/a7d518fde2d7eb02dd7976ab28ac0419.jpg?s=512&d=https%3A%2F%2Fa.slack-edge.com%2Fdf10d%2Fimg%2Favatars%2Fava_0022-512.png", "custom_css": null}, {"id": 10407, "slack_id": "U08A5RC4QH0", "display_name": "Rashmin Sharma", "bio": null, "projects_count": 0, "devlogs_count": 0, "votes_count": 0, "ships_count": 0, "projects": [], "coding_time_seconds": 0, "coding_time_seconds_today": 0, "balance": "You need to have a pocket watcher badge to view this.", "badges": [], "created_at": "2025-06-20T10:27:15.974-04:00", "updated_at": "2025-07-03T19:55:50.248-04:00", "avatar": "https://secure.gravatar.com/avatar/ac1fb304af662cc3f8da40d9caaa4971.jpg?s=512&d=https%3A%2F%2Fa.slack-edge.com%2Fdf10d%2Fimg%2Favatars%2Fava_0009-512.png", "custom_css": null}, {"id": 10408, "slack_id": "U080DNGDCCT", "display_name": "Amaar Mohamed", "bio": null, "projects_count": 0, "devlogs_count": 0, "votes_count": 0, "ships_count": 0, "projects": [], "coding_time_seconds": 0, "coding_time_seconds_today": 0, "balance": "You need to have a pocket watcher badge to view this.", "badges": [], "created_at": "2025-06-20T10:30:33.503-04:00", "updated_at": "2025-07-03T19:55:50.537-04:00", "avatar": "https://avatars.slack-edge.com/2024-11-11/8007246909046_60d174a01825ace1efdc_original.jpg", "custom_css": null}, {"id": 10409, "slack_id": "U07E7QK7EQN", "display_name": "fin", "bio": null, "projects_count": 0, "devlogs_count": 0, "votes_count": 0, "ships_count": 0, "projects": [], "coding_time_seconds": 19013, "coding_time_seconds_today": 0, "balance": "You need to have a pocket watcher badge to view this.", "badges": [], "created_at": "2025-06-20T10:31:38.043-04:00", "updated_at": "2025-07-04T20:11:05.501-04:00", "avatar": "https://avatars.slack-edge.com/2025-04-10/8761251540128_98c42185e5cd74760e89_original.png", "custom_css": null}, {"id": 10410, "slack_id": "U078GSJML1K", "display_name": "Vincent", "bio": null, "projects_count": 0, "devlogs_count": 0, "votes_count": 0, "ships_count": 0, "projects": [], "coding_time_seconds": 0, "coding_time_seconds_today": 0, "balance": "You need to have a pocket watcher badge to view this.", "badges": [], "created_at": "2025-06-20T10:32:05.687-04:00", "updated_at": "2025-07-04T20:11:05.581-04:00", "avatar": "https://secure.gravatar.com/avatar/ee5578f4edb8b403d1ace4764ea002fc.jpg?s=512&d=https%3A%2F%2Fa.slack-edge.com%2Fdf10d%2Fimg%2Favatars%2Fava_0004-512.png", "custom_css": null}, {"id": 10411, "slack_id": "U092BLBFDUM", "display_name": "AlbedoLinguine", "bio": null, "projects_count": 1, "devlogs_count": 1, "votes_count": 0, "ships_count": 0, "projects": [{"id": 2296, "title": "FRC Titan Robotics 5431 Website", "devlogs_count": 1, "created_at": "2025-06-20T16:38:24.113-04:00"}], "coding_time_seconds": 27783, "coding_time_seconds_today": 0, "balance": "You need to have a pocket watcher badge to view this.", "badges": [], "created_at": "2025-06-20T10:33:39.774-04:00", "updated_at": "2025-07-03T19:55:51.078-04:00", "avatar": "https://secure.gravatar.com/avatar/901e3859ad5fa99eb2096b19a9034c75.jpg?s=512&d=https%3A%2F%2Fa.slack-edge.com%2Fdf10d%2Fimg%2Favatars%2Fava_0011-512.png", "custom_css": null}, {"id": 10412, "slack_id": "U092BL53GJ1", "display_name": "Saurav", "bio": null, "projects_count": 0, "devlogs_count": 0, "votes_count": 0, "ships_count": 0, "projects": [], "coding_time_seconds": 0, "coding_time_seconds_today": 0, "balance": "You need to have a pocket watcher badge to view this.", "badges": [], "created_at": "2025-06-20T10:34:08.488-04:00", "updated_at": "2025-07-03T19:55:51.353-04:00", "avatar": "https://secure.gravatar.com/avatar/254c2e91eeaa07f4063a3a8b51ea9bcf.jpg?s=512&d=https%3A%2F%2Fa.slack-edge.com%2Fdf10d%2Fimg%2Favatars%2Fava_0002-512.png", "custom_css": null}, {"id": 10413, "slack_id": "U0926BEFF5L", "display_name": "Agent47", "bio": null, "projects_count": 0, "devlogs_count": 0, "votes_count": 0, "ships_count": 0, "projects": [], "coding_time_seconds": 0, "coding_time_seconds_today": 0, "balance": "You need to have a pocket watcher badge to view this.", "badges": [], "created_at": "2025-06-20T10:34:41.761-04:00", "updated_at": "2025-07-03T19:55:51.631-04:00", "avatar": "https://secure.gravatar.com/avatar/b91193198d7c74ded636d3cd4f7ba370.jpg?s=512&d=https%3A%2F%2Fa.slack-edge.com%2Fdf10d%2Fimg%2Favatars%2Fava_0013-512.png", "custom_css": null}, {"id": 10414, "slack_id": "U092CD3CUGJ", "display_name": "Nicola", "bio": null, "projects_count": 0, "devlogs_count": 0, "votes_count": 0, "ships_count": 0, "projects": [], "coding_time_seconds": 0, "coding_time_seconds_today": 0, "balance": "You need to have a pocket watcher badge to view this.", "badges": [], "created_at": "2025-06-20T10:35:27.788-04:00", "updated_at": "2025-07-05T20:12:01.556-04:00", "avatar": "https://secure.gravatar.com/avatar/dd92b8a793a8f344de433adc5908f047.jpg?s=512&d=https%3A%2F%2Fa.slack-edge.com%2Fdf10d%2Fimg%2Favatars%2Fava_0026-512.png", "custom_css": null}, {"id": 10415, "slack_id": "U092CD8SP7U", "display_name": "Nathan Romero", "bio": null, "projects_count": 0, "devlogs_count": 0, "votes_count": 0, "ships_count": 0, "projects": [], "coding_time_seconds": 0, "coding_time_seconds_today": 0, "balance": "You need to have a pocket watcher badge to view this.", "badges": [], "created_at": "2025-06-20T10:35:45.625-04:00", "updated_at": "2025-07-03T19:55:52.033-04:00", "avatar": "https://secure.gravatar.com/avatar/0d405c3a24871a375f38da3e748a34c8.jpg?s=512&d=https%3A%2F%2Fa.slack-edge.com%2Fdf10d%2Fimg%2Favatars%2Fava_0012-512.png", "custom_css": null}, {"id": 10416, "slack_id": "U092BLKDVMK", "display_name": "shahzan", "bio": null, "projects_count": 0, "devlogs_count": 0, "votes_count": 0, "ships_count": 0, "projects": [], "coding_time_seconds": 0, "coding_time_seconds_today": 0, "balance": "You need to have a pocket watcher badge to view this.", "badges": [], "created_at": "2025-06-20T10:37:29.857-04:00", "updated_at": "2025-07-05T08:12:01.696-04:00", "avatar": "https://secure.gravatar.com/avatar/2941d8be599dfcf69d1c46e5cd413fc2.jpg?s=512&d=https%3A%2F%2Fa.slack-edge.com%2Fdf10d%2Fimg%2Favatars%2Fava_0016-512.png", "custom_css": null}, {"id": 10417, "slack_id": "U092CCKHYHJ", "display_name": "ilmincode", "bio": null, "projects_count": 0, "devlogs_count": 0, "votes_count": 0, "ships_count": 0, "projects": [], "coding_time_seconds": 616, "coding_time_seconds_today": 0, "balance": "You need to have a pocket watcher badge to view this.", "badges": [], "created_at": "2025-06-20T10:40:19.051-04:00", "updated_at": "2025-07-03T19:55:52.432-04:00", "avatar": "https://secure.gravatar.com/avatar/c00513b8d6b1eac7322ab2d17b06dbcf.jpg?s=512&d=https%3A%2F%2Fa.slack-edge.com%2Fdf10d%2Fimg%2Favatars%2Fava_0018-512.png", "custom_css": null}, {"id": 10418, "slack_id": "U0926C27DML", "display_name": "Puneesh khanchandani", "bio": null, "projects_count": 0, "devlogs_count": 0, "votes_count": 0, "ships_count": 0, "projects": [], "coding_time_seconds": 0, "coding_time_seconds_today": 0, "balance": "You need to have a pocket watcher badge to view this.", "badges": [], "created_at": "2025-06-20T10:40:44.434-04:00", "updated_at": "2025-07-03T19:55:52.701-04:00", "avatar": "https://secure.gravatar.com/avatar/e5eb35359e6330f2a1f3e400f882ba80.jpg?s=512&d=https%3A%2F%2Fa.slack-edge.com%2Fdf10d%2Fimg%2Favatars%2Fava_0013-512.png", "custom_css": null}, {"id": 10419, "slack_id": "U0925ST8U4B", "display_name": "Phoebe Kielbasinski", "bio": null, "projects_count": 4, "devlogs_count": 13, "votes_count": 9, "ships_count": 1, "projects": [{"id": 2260, "title": "Fool's Gambit", "devlogs_count": 2, "created_at": "2025-06-20T15:19:10.271-04:00"}, {"id": 3193, "title": "VexU WPI program - Summer 2025", "devlogs_count": 4, "created_at": "2025-06-23T11:41:30.338-04:00"}, {"id": 4230, "title": "Gitpane", "devlogs_count": 6, "created_at": "2025-06-28T10:28:18.054-04:00"}, {"id": 3505, "title": "Sprigcraft", "devlogs_count": 1, "created_at": "2025-06-24T14:03:42.604-04:00"}], "coding_time_seconds": 148832, "coding_time_seconds_today": 0, "balance": "You need to have a pocket watcher badge to view this.", "badges": [{"name": "Maiden Voyage", "text": "you shipped your first project! the journey begins...", "icon": "\ud83d\udea2"}], "created_at": "2025-06-20T10:45:19.324-04:00", "updated_at": "2025-09-19T18:53:01.562-04:00", "avatar": "https://avatars.slack-edge.com/2025-09-19/9546331385235_8d4903ff3a574b5ab34e_original.png", "custom_css": null}, {"id": 10420, "slack_id": "U092R990T33", "display_name": "Sachith", "bio": null, "projects_count": 0, "devlogs_count": 0, "votes_count": 0, "ships_count": 0, "projects": [], "coding_time_seconds": 0, "coding_time_seconds_today": 0, "balance": "You need to have a pocket watcher badge to view this.", "badges": [], "created_at": "2025-06-20T10:45:31.642-04:00", "updated_at": "2025-07-06T02:12:56.463-04:00", "avatar": "https://secure.gravatar.com/avatar/38a97c21483f9e0c99c72a4ba2e7c1a5.jpg?s=512&d=https%3A%2F%2Fa.slack-edge.com%2Fdf10d%2Fimg%2Favatars%2Fava_0024-512.png", "custom_css": null}], "pagination": {"page": 521, "pages": 1192, "count": 23828, "items": 20}}