{"users": [{"id": 10421, "slack_id": "U091UHSKSF6", "display_name": "varun chindage", "bio": null, "projects_count": 0, "devlogs_count": 0, "votes_count": 0, "ships_count": 0, "projects": [], "coding_time_seconds": 0, "coding_time_seconds_today": 0, "balance": "You need to have a pocket watcher badge to view this.", "badges": [], "created_at": "2025-06-20T10:46:29.932-04:00", "updated_at": "2025-07-06T20:11:59.761-04:00", "avatar": "https://avatars.slack-edge.com/2025-06-20/9080871460564_d9ce4ad8076ffc4ffdee_original.jpg", "custom_css": null}, {"id": 10422, "slack_id": "U091XR41W1M", "display_name": "yookooyoo", "bio": null, "projects_count": 4, "devlogs_count": 3, "votes_count": 0, "ships_count": 0, "projects": [{"id": 2458, "title": "cses", "devlogs_count": 1, "created_at": "2025-06-21T04:28:22.140-04:00"}, {"id": 2557, "title": "contest practice", "devlogs_count": 1, "created_at": "2025-06-21T10:14:32.903-04:00"}, {"id": 2459, "title": "cses", "devlogs_count": 0, "created_at": "2025-06-21T04:28:22.984-04:00"}, {"id": 4945, "title": "cp practice", "devlogs_count": 1, "created_at": "2025-07-02T10:53:34.681-04:00"}], "coding_time_seconds": 361222, "coding_time_seconds_today": 3246, "balance": "You need to have a pocket watcher badge to view this.", "badges": [], "created_at": "2025-06-20T10:50:21.918-04:00", "updated_at": "2025-07-03T19:55:53.525-04:00", "avatar": "https://secure.gravatar.com/avatar/d3d5ef15bc6db4491892567510cdd5b3.jpg?s=512&d=https%3A%2F%2Fa.slack-edge.com%2Fdf10d%2Fimg%2Favatars%2Fava_0011-512.png", "custom_css": null}, {"id": 10423, "slack_id": "U0930TZN9J4", "display_name": "Nitesh Raj", "bio": null, "projects_count": 0, "devlogs_count": 0, "votes_count": 0, "ships_count": 0, "projects": [], "coding_time_seconds": 0, "coding_time_seconds_today": 0, "balance": "You need to have a pocket watcher badge to view this.", "badges": [], "created_at": "2025-06-20T10:51:31.132-04:00", "updated_at": "2025-07-03T19:55:53.783-04:00", "avatar": "https://secure.gravatar.com/avatar/db65d021fa7adeff590e494a7fb002dd.jpg?s=512&d=https%3A%2F%2Fa.slack-edge.com%2Fdf10d%2Fimg%2Favatars%2Fava_0023-512.png", "custom_css": null}, {"id": 10424, "slack_id": "U08QPGS0N8M", "display_name": "Artos", "bio": null, "projects_count": 0, "devlogs_count": 0, "votes_count": 0, "ships_count": 0, "projects": [], "coding_time_seconds": 121168, "coding_time_seconds_today": 0, "balance": "You need to have a pocket watcher badge to view this.", "badges": [], "created_at": "2025-06-20T10:53:57.400-04:00", "updated_at": "2025-08-28T22:49:45.221-04:00", "avatar": "https://secure.gravatar.com/avatar/f07954eeb8dcf6b4ae838aff1d7b3d55.jpg?s=512&d=https%3A%2F%2Fa.slack-edge.com%2Fdf10d%2Fimg%2Favatars%2Fava_0018-512.png", "custom_css": null}, {"id": 10425, "slack_id": "U0926EF5LGN", "display_name": "GUNDE ANANTHA GOWTHAM", "bio": null, "projects_count": 0, "devlogs_count": 0, "votes_count": 0, "ships_count": 0, "projects": [], "coding_time_seconds": 0, "coding_time_seconds_today": 0, "balance": "You need to have a pocket watcher badge to view this.", "badges": [], "created_at": "2025-06-20T10:54:50.977-04:00", "updated_at": "2025-07-03T19:55:54.231-04:00", "avatar": "https://secure.gravatar.com/avatar/9aa8196b0f54e5899028ea3d4cb4f339.jpg?s=512&d=https%3A%2F%2Fa.slack-edge.com%2Fdf10d%2Fimg%2Favatars%2Fava_0000-512.png", "custom_css": null}, {"id": 10426, "slack_id": "U092RASHKG9", "display_name": "The Harbinger Of Doom", "bio": null, "projects_count": 1, "devlogs_count": 1, "votes_count": 2, "ships_count": 0, "projects": [{"id": 2998, "title": "Knight Jumper", "devlogs_count": 1, "created_at": "2025-06-22T17:08:25.483-04:00"}], "coding_time_seconds": 6870, "coding_time_seconds_today": 0, "balance": "You need to have a pocket watcher badge to view this.", "badges": [], "created_at": "2025-06-20T10:55:29.845-04:00", "updated_at": "2025-07-03T19:55:54.494-04:00", "avatar": "https://avatars.slack-edge.com/2025-06-20/9074513377958_36c0ca7433c38df63acb_original.png", "custom_css": null}, {"id": 10427, "slack_id": "U092CSDT6SG", "display_name": "RJ", "bio": null, "projects_count": 0, "devlogs_count": 0, "votes_count": 0, "ships_count": 0, "projects": [], "coding_time_seconds": 0, "coding_time_seconds_today": 0, "balance": "You need to have a pocket watcher badge to view this.", "badges": [], "created_at": "2025-06-20T10:55:57.446-04:00", "updated_at": "2025-07-03T19:55:54.754-04:00", "avatar": "https://secure.gravatar.com/avatar/2f67dc144cf71edab83a81fd145270c6.jpg?s=512&d=https%3A%2F%2Fa.slack-edge.com%2Fdf10d%2Fimg%2Favatars%2Fava_0015-512.png", "custom_css": null}, {"id": 10428, "slack_id": "U092CG8ET9Q", "display_name": "Bot number 7", "bio": null, "projects_count": 0, "devlogs_count": 0, "votes_count": 0, "ships_count": 0, "projects": [], "coding_time_seconds": 0, "coding_time_seconds_today": 0, "balance": "You need to have a pocket watcher badge to view this.", "badges": [], "created_at": "2025-06-20T10:56:10.025-04:00", "updated_at": "2025-07-03T19:55:55.017-04:00", "avatar": "https://avatars.slack-edge.com/2025-06-20/9074516402534_d7766a734ba251dc9856_original.png", "custom_css": null}, {"id": 10429, "slack_id": "U0925U3NBQB", "display_name": "weichenleeeee", "bio": null, "projects_count": 2, "devlogs_count": 2, "votes_count": 0, "ships_count": 0, "projects": [{"id": 2180, "title": "Zhiyou", "devlogs_count": 0, "created_at": "2025-06-20T11:24:00.458-04:00"}, {"id": 2394, "title": "ppt-mcp-server", "devlogs_count": 2, "created_at": "2025-06-20T22:56:13.653-04:00"}], "coding_time_seconds": 131731, "coding_time_seconds_today": 0, "balance": "You need to have a pocket watcher badge to view this.", "badges": [], "created_at": "2025-06-20T10:56:40.319-04:00", "updated_at": "2025-07-03T19:55:55.291-04:00", "avatar": "https://secure.gravatar.com/avatar/231b9ee02707e22e4319a79c1600cd2a.jpg?s=512&d=https%3A%2F%2Fa.slack-edge.com%2Fdf10d%2Fimg%2Favatars%2Fava_0020-512.png", "custom_css": null}, {"id": 10430, "slack_id": "U092B34Q9R8", "display_name": "Irakli Gvelesiani", "bio": null, "projects_count": 0, "devlogs_count": 0, "votes_count": 0, "ships_count": 0, "projects": [], "coding_time_seconds": 0, "coding_time_seconds_today": 0, "balance": "You need to have a pocket watcher badge to view this.", "badges": [], "created_at": "2025-06-20T10:59:54.496-04:00", "updated_at": "2025-07-03T19:55:55.574-04:00", "avatar": "https://avatars.slack-edge.com/2025-06-21/9095162720385_d6b5a17e78a566e13ba3_original.png", "custom_css": null}, {"id": 10431, "slack_id": "U0925UWL0BV", "display_name": "Alex", "bio": null, "projects_count": 0, "devlogs_count": 0, "votes_count": 0, "ships_count": 0, "projects": [], "coding_time_seconds": 0, "coding_time_seconds_today": 0, "balance": "You need to have a pocket watcher badge to view this.", "badges": [], "created_at": "2025-06-20T10:59:56.319-04:00", "updated_at": "2025-07-05T20:12:02.871-04:00", "avatar": "https://secure.gravatar.com/avatar/a6af0f45d07498701e495acb4ff50a0d.jpg?s=512&d=https%3A%2F%2Fa.slack-edge.com%2Fdf10d%2Fimg%2Favatars%2Fava_0003-512.png", "custom_css": null}, {"id": 10432, "slack_id": "U08J2LJ3QBH", "display_name": "Mahesh dhingra", "bio": "wsppp ", "projects_count": 0, "devlogs_count": 36, "votes_count": 23, "ships_count": 0, "projects": [], "coding_time_seconds": 656856, "coding_time_seconds_today": 0, "balance": "You need to have a pocket watcher badge to view this.", "badges": [{"name": "Maiden Voyage", "text": "you shipped your first project! the journey begins...", "icon": "\ud83d\udea2"}, {"name": "Ballot Stuffer", "text": "vote 100 times.", "icon": "https://summer.hackclub.com/assets/i_voted-bf851b48.png"}], "created_at": "2025-06-20T11:00:30.748-04:00", "updated_at": "2025-09-10T22:56:22.365-04:00", "avatar": "https://avatars.slack-edge.com/2025-03-19/8639730964593_bfec1c40000597a59cc3_original.jpg", "custom_css": null}, {"id": 10433, "slack_id": "U0929BN31SQ", "display_name": "Vincent Tang", "bio": null, "projects_count": 0, "devlogs_count": 0, "votes_count": 0, "ships_count": 0, "projects": [], "coding_time_seconds": 237744, "coding_time_seconds_today": 0, "balance": "You need to have a pocket watcher badge to view this.", "badges": [], "created_at": "2025-06-20T11:01:11.709-04:00", "updated_at": "2025-07-03T19:55:56.273-04:00", "avatar": "https://avatars.slack-edge.com/2025-06-20/9074552079942_c829409b1869984f00f6_original.png", "custom_css": null}, {"id": 10434, "slack_id": "U092TMV05DW", "display_name": "Brijesh Singh", "bio": null, "projects_count": 0, "devlogs_count": 0, "votes_count": 0, "ships_count": 0, "projects": [], "coding_time_seconds": 0, "coding_time_seconds_today": 0, "balance": "You need to have a pocket watcher badge to view this.", "badges": [], "created_at": "2025-06-20T11:03:03.831-04:00", "updated_at": "2025-07-03T19:55:56.539-04:00", "avatar": "https://secure.gravatar.com/avatar/fdb8166fa19df7aa06163a8b590bde90.jpg?s=512&d=https%3A%2F%2Fa.slack-edge.com%2Fdf10d%2Fimg%2Favatars%2Fava_0018-512.png", "custom_css": null}, {"id": 10435, "slack_id": "U092BR3Q1FX", "display_name": "Pakdad Mousavi", "bio": null, "projects_count": 2, "devlogs_count": 53, "votes_count": 60, "ships_count": 2, "projects": [{"id": 11238, "title": "Knightless", "devlogs_count": 9, "created_at": "2025-08-14T08:01:43.057-04:00"}, {"id": 2359, "title": "Learning Algorithms", "devlogs_count": 43, "created_at": "2025-06-20T20:04:13.330-04:00"}], "coding_time_seconds": 865576, "coding_time_seconds_today": 5016, "balance": "You need to have a pocket watcher badge to view this.", "badges": [{"name": "Maiden Voyage", "text": "you shipped your first project! the journey begins...", "icon": "\ud83d\udea2"}], "created_at": "2025-06-20T11:03:25.993-04:00", "updated_at": "2025-09-10T22:56:22.465-04:00", "avatar": "https://avatars.slack-edge.com/2025-07-13/9186998429398_93f04c7047700dd5df25_original.jpg", "custom_css": null}, {"id": 10436, "slack_id": "U092CJ10K18", "display_name": "Siya", "bio": null, "projects_count": 0, "devlogs_count": 0, "votes_count": 0, "ships_count": 0, "projects": [], "coding_time_seconds": 126, "coding_time_seconds_today": 0, "balance": "You need to have a pocket watcher badge to view this.", "badges": [], "created_at": "2025-06-20T11:04:09.278-04:00", "updated_at": "2025-07-03T22:00:58.023-04:00", "avatar": "https://secure.gravatar.com/avatar/413a96399a7923c8634e1101c9697ddb.jpg?s=512&d=https%3A%2F%2Fa.slack-edge.com%2Fdf10d%2Fimg%2Favatars%2Fava_0007-512.png", "custom_css": null}, {"id": 10437, "slack_id": "U07H3AKMTFA", "display_name": "ayaan", "bio": null, "projects_count": 0, "devlogs_count": 0, "votes_count": 0, "ships_count": 0, "projects": [], "coding_time_seconds": 0, "coding_time_seconds_today": 0, "balance": "You need to have a pocket watcher badge to view this.", "badges": [], "created_at": "2025-06-20T11:05:44.062-04:00", "updated_at": "2025-07-03T19:55:57.213-04:00", "avatar": "https://avatars.slack-edge.com/2024-11-15/8039179295139_4e51ca43ae8aabba8237_original.png", "custom_css": null}, {"id": 10438, "slack_id": "U0922G1N7UK", "display_name": "Lavarite", "bio": null, "projects_count": 0, "devlogs_count": 47, "votes_count": 64, "ships_count": 0, "projects": [], "coding_time_seconds": 692942, "coding_time_seconds_today": 0, "balance": "You need to have a pocket watcher badge to view this.", "badges": [{"name": "Maiden Voyage", "text": "you shipped your first project! the journey begins...", "icon": "\ud83d\udea2"}], "created_at": "2025-06-20T11:10:27.561-04:00", "updated_at": "2025-09-10T22:56:22.583-04:00", "avatar": "https://avatars.slack-edge.com/2025-06-20/9093473006881_159431e9b53b6d5f07cf_original.png", "custom_css": null}, {"id": 10439, "slack_id": "U0926H94KD4", "display_name": "luke", "bio": null, "projects_count": 3, "devlogs_count": 22, "votes_count": 36, "ships_count": 2, "projects": [{"id": 5786, "title": "agar.io clone", "devlogs_count": 7, "created_at": "2025-07-08T01:00:42.003-04:00"}, {"id": 9935, "title": "dict_to_colormap", "devlogs_count": 2, "created_at": "2025-08-03T01:58:33.183-04:00"}, {"id": 2605, "title": "Snake2", "devlogs_count": 13, "created_at": "2025-06-21T12:42:10.160-04:00"}], "coding_time_seconds": 111161, "coding_time_seconds_today": 0, "balance": "You need to have a pocket watcher badge to view this.", "badges": [{"name": "Maiden Voyage", "text": "you shipped your first project! the journey begins...", "icon": "\ud83d\udea2"}], "created_at": "2025-06-20T11:10:33.632-04:00", "updated_at": "2025-09-10T22:56:22.616-04:00", "avatar": "https://secure.gravatar.com/avatar/e18d16fe8cc203fb886e5f1b7e1c2379.jpg?s=512&d=https%3A%2F%2Fa.slack-edge.com%2Fdf10d%2Fimg%2Favatars%2Fava_0007-512.png", "custom_css": null}, {"id": 10440, "slack_id": "U08DGU9E674", "display_name": "man from the fog", "bio": null, "projects_count": 0, "devlogs_count": 0, "votes_count": 0, "ships_count": 0, "projects": [], "coding_time_seconds": 0, "coding_time_seconds_today": 0, "balance": "You need to have a pocket watcher badge to view this.", "badges": [], "created_at": "2025-06-20T11:11:26.747-04:00", "updated_at": "2025-07-03T19:55:58.031-04:00", "avatar": "https://avatars.slack-edge.com/2025-06-20/9065966407847_656255e3ed3004bb61ba_original.jpg", "custom_css": null}], "pagination": {"page": 522, "pages": 1192, "count": 23828, "items": 20}}