{"users": [{"id": 10461, "slack_id": "U091Y3GBVGF", "display_name": "Dingel Felix", "bio": null, "projects_count": 0, "devlogs_count": 0, "votes_count": 0, "ships_count": 0, "projects": [], "coding_time_seconds": 132867, "coding_time_seconds_today": 0, "balance": "You need to have a pocket watcher badge to view this.", "badges": [], "created_at": "2025-06-20T11:38:48.664-04:00", "updated_at": "2025-07-04T08:26:33.315-04:00", "avatar": "https://secure.gravatar.com/avatar/006df45071cb4a0d3ec452b9b6fcf8fc.jpg?s=512&d=https%3A%2F%2Fa.slack-edge.com%2Fdf10d%2Fimg%2Favatars%2Fava_0017-512.png", "custom_css": null}, {"id": 10462, "slack_id": "U092C1CBEE9", "display_name": "Alan Costa", "bio": null, "projects_count": 0, "devlogs_count": 0, "votes_count": 0, "ships_count": 0, "projects": [], "coding_time_seconds": 0, "coding_time_seconds_today": 0, "balance": "You need to have a pocket watcher badge to view this.", "badges": [], "created_at": "2025-06-20T11:40:39.230-04:00", "updated_at": "2025-07-04T08:26:33.425-04:00", "avatar": "https://secure.gravatar.com/avatar/08aa15d10501579890143f4f78e35f10.jpg?s=512&d=https%3A%2F%2Fa.slack-edge.com%2Fdf10d%2Fimg%2Favatars%2Fava_0009-512.png", "custom_css": null}, {"id": 10463, "slack_id": "U091Y4H7NQ7", "display_name": "Kaito", "bio": null, "projects_count": 0, "devlogs_count": 0, "votes_count": 0, "ships_count": 0, "projects": [], "coding_time_seconds": 0, "coding_time_seconds_today": 0, "balance": "You need to have a pocket watcher badge to view this.", "badges": [], "created_at": "2025-06-20T11:44:55.508-04:00", "updated_at": "2025-07-03T19:56:03.281-04:00", "avatar": "https://secure.gravatar.com/avatar/5c1a1214071a727e91f0551e228e9ed2.jpg?s=512&d=https%3A%2F%2Fa.slack-edge.com%2Fdf10d%2Fimg%2Favatars%2Fava_0003-512.png", "custom_css": null}, {"id": 10464, "slack_id": "U091Y4GJNS3", "display_name": "Louis", "bio": null, "projects_count": 3, "devlogs_count": 2, "votes_count": 17, "ships_count": 1, "projects": [{"id": 3643, "title": "PhotoCompet", "devlogs_count": 1, "created_at": "2025-06-25T04:30:49.782-04:00"}, {"id": 4890, "title": "CubHertz", "devlogs_count": 1, "created_at": "2025-07-02T03:54:30.224-04:00"}, {"id": 10109, "title": "Site Kinesiologue", "devlogs_count": 0, "created_at": "2025-08-04T05:32:37.742-04:00"}], "coding_time_seconds": 39265, "coding_time_seconds_today": 0, "balance": "You need to have a pocket watcher badge to view this.", "badges": [{"name": "Maiden Voyage", "text": "you shipped your first project! the journey begins...", "icon": "\ud83d\udea2"}], "created_at": "2025-06-20T11:44:56.104-04:00", "updated_at": "2025-09-10T22:56:23.313-04:00", "avatar": "https://secure.gravatar.com/avatar/51e247319ff2cbb9386d58647005dd63.jpg?s=512&d=https%3A%2F%2Fa.slack-edge.com%2Fdf10d%2Fimg%2Favatars%2Fava_0009-512.png", "custom_css": null}, {"id": 10465, "slack_id": "U092D554KHA", "display_name": "Thimo Colditz", "bio": null, "projects_count": 1, "devlogs_count": 0, "votes_count": 0, "ships_count": 0, "projects": [{"id": 2200, "title": "Satiscraftory", "devlogs_count": 0, "created_at": "2025-06-20T12:27:59.346-04:00"}], "coding_time_seconds": 8368, "coding_time_seconds_today": 0, "balance": "You need to have a pocket watcher badge to view this.", "badges": [], "created_at": "2025-06-20T11:45:47.591-04:00", "updated_at": "2025-07-03T19:56:03.822-04:00", "avatar": "https://secure.gravatar.com/avatar/4946025dac7cd4996c9a3e711976d8d4.jpg?s=512&d=https%3A%2F%2Fa.slack-edge.com%2Fdf10d%2Fimg%2Favatars%2Fava_0014-512.png", "custom_css": null}, {"id": 10466, "slack_id": "U092D5T8E9J", "display_name": "fias abid", "bio": null, "projects_count": 2, "devlogs_count": 5, "votes_count": 40, "ships_count": 2, "projects": [{"id": 4787, "title": "Weather-onchain logger", "devlogs_count": 4, "created_at": "2025-07-01T13:55:22.218-04:00"}, {"id": 8770, "title": "Rescue eye global", "devlogs_count": 1, "created_at": "2025-07-29T07:40:05.098-04:00"}], "coding_time_seconds": 163121, "coding_time_seconds_today": 3280, "balance": "You need to have a pocket watcher badge to view this.", "badges": [{"name": "Maiden Voyage", "text": "you shipped your first project! the journey begins...", "icon": "\ud83d\udea2"}], "created_at": "2025-06-20T11:48:40.962-04:00", "updated_at": "2025-09-10T22:56:23.356-04:00", "avatar": "https://avatars.slack-edge.com/2025-06-20/9103259495168_34ec8b1ad2a11ecc682a_original.png", "custom_css": null}, {"id": 10467, "slack_id": "U092RJREE73", "display_name": "Root", "bio": null, "projects_count": 0, "devlogs_count": 0, "votes_count": 0, "ships_count": 0, "projects": [], "coding_time_seconds": 41, "coding_time_seconds_today": 0, "balance": "You need to have a pocket watcher badge to view this.", "badges": [], "created_at": "2025-06-20T11:48:51.078-04:00", "updated_at": "2025-07-03T19:56:04.238-04:00", "avatar": "https://avatars.slack-edge.com/2025-06-20/9081209856820_b9bf84aebe9bcaa587db_original.png", "custom_css": null}, {"id": 10468, "slack_id": "U0924APT27P", "display_name": "shudhanshu kumar yadav", "bio": null, "projects_count": 0, "devlogs_count": 0, "votes_count": 0, "ships_count": 0, "projects": [], "coding_time_seconds": 0, "coding_time_seconds_today": 0, "balance": "You need to have a pocket watcher badge to view this.", "badges": [], "created_at": "2025-06-20T11:49:56.548-04:00", "updated_at": "2025-07-05T02:11:43.073-04:00", "avatar": "https://secure.gravatar.com/avatar/f6a39679a50808332c685b40fe2f0a36.jpg?s=512&d=https%3A%2F%2Fa.slack-edge.com%2Fdf10d%2Fimg%2Favatars%2Fava_0020-512.png", "custom_css": null}, {"id": 10469, "slack_id": "U092D5USHM2", "display_name": "jafi", "bio": null, "projects_count": 0, "devlogs_count": 0, "votes_count": 0, "ships_count": 0, "projects": [], "coding_time_seconds": 0, "coding_time_seconds_today": 0, "balance": "You need to have a pocket watcher badge to view this.", "badges": [], "created_at": "2025-06-20T11:49:59.683-04:00", "updated_at": "2025-07-04T08:26:33.929-04:00", "avatar": "https://secure.gravatar.com/avatar/72290c3a752bb92af82c6446b8f82fa7.jpg?s=512&d=https%3A%2F%2Fa.slack-edge.com%2Fdf10d%2Fimg%2Favatars%2Fava_0024-512.png", "custom_css": null}, {"id": 10470, "slack_id": "U091Y5G7E4X", "display_name": "Joshuaalex123", "bio": null, "projects_count": 1, "devlogs_count": 0, "votes_count": 0, "ships_count": 0, "projects": [{"id": 2205, "title": "Cloud VM Monitoring", "devlogs_count": 0, "created_at": "2025-06-20T12:31:59.120-04:00"}], "coding_time_seconds": 35126, "coding_time_seconds_today": 0, "balance": "You need to have a pocket watcher badge to view this.", "badges": [], "created_at": "2025-06-20T11:50:18.024-04:00", "updated_at": "2025-07-03T19:56:04.779-04:00", "avatar": "https://secure.gravatar.com/avatar/f72cc911f1495c3efad01e8dbd06cdc8.jpg?s=512&d=https%3A%2F%2Fa.slack-edge.com%2Fdf10d%2Fimg%2Favatars%2Fava_0014-512.png", "custom_css": null}, {"id": 10471, "slack_id": "U078K6V9ZPC", "display_name": "Kan", "bio": null, "projects_count": 1, "devlogs_count": 1, "votes_count": 0, "ships_count": 0, "projects": [{"id": 3106, "title": "SkyWatch Alerts ", "devlogs_count": 1, "created_at": "2025-06-23T05:37:15.764-04:00"}], "coding_time_seconds": 95155, "coding_time_seconds_today": 0, "balance": "You need to have a pocket watcher badge to view this.", "badges": [], "created_at": "2025-06-20T11:51:55.541-04:00", "updated_at": "2025-07-03T19:56:05.056-04:00", "avatar": "https://avatars.slack-edge.com/2025-02-13/8469489989568_e8a938afff2e18d36b97_original.jpg", "custom_css": null}, {"id": 10472, "slack_id": "U09316DFCSC", "display_name": "T\u00ea\u00ea J\u00e4y", "bio": null, "projects_count": 0, "devlogs_count": 0, "votes_count": 0, "ships_count": 0, "projects": [], "coding_time_seconds": 0, "coding_time_seconds_today": 0, "balance": "You need to have a pocket watcher badge to view this.", "badges": [], "created_at": "2025-06-20T11:54:04.771-04:00", "updated_at": "2025-07-03T19:56:05.324-04:00", "avatar": "https://secure.gravatar.com/avatar/de24384304aef1b097dfb53e6c6f86c1.jpg?s=512&d=https%3A%2F%2Fa.slack-edge.com%2Fdf10d%2Fimg%2Favatars%2Fava_0014-512.png", "custom_css": null}, {"id": 10473, "slack_id": "U07D93G63E1", "display_name": "Chiara", "bio": null, "projects_count": 0, "devlogs_count": 0, "votes_count": 0, "ships_count": 0, "projects": [], "coding_time_seconds": 152227, "coding_time_seconds_today": 0, "balance": "You need to have a pocket watcher badge to view this.", "badges": [], "created_at": "2025-06-20T11:55:45.925-04:00", "updated_at": "2025-09-08T02:53:06.306-04:00", "avatar": "https://avatars.slack-edge.com/2025-09-08/9480579185556_dd4af8d5cfad676029ed_original.png", "custom_css": null}, {"id": 10474, "slack_id": "U092RLEUTLZ", "display_name": "Khalid Salman-yusuf", "bio": null, "projects_count": 1, "devlogs_count": 1, "votes_count": 0, "ships_count": 0, "projects": [{"id": 2544, "title": "Nextlify", "devlogs_count": 1, "created_at": "2025-06-21T09:19:45.774-04:00"}], "coding_time_seconds": 361954, "coding_time_seconds_today": 0, "balance": "You need to have a pocket watcher badge to view this.", "badges": [], "created_at": "2025-06-20T11:57:06.440-04:00", "updated_at": "2025-07-05T08:12:05.529-04:00", "avatar": "https://avatars.slack-edge.com/2025-06-20/9074300715219_d537e56d85344b40617b_original.png", "custom_css": null}, {"id": 10475, "slack_id": "U092C3TKKNZ", "display_name": "Salaheddine El Kaihal", "bio": null, "projects_count": 0, "devlogs_count": 0, "votes_count": 0, "ships_count": 0, "projects": [], "coding_time_seconds": 0, "coding_time_seconds_today": 0, "balance": "You need to have a pocket watcher badge to view this.", "badges": [], "created_at": "2025-06-20T11:58:09.549-04:00", "updated_at": "2025-07-03T19:56:06.029-04:00", "avatar": "https://secure.gravatar.com/avatar/3fe6cfbd78627542606a0bbd99670c62.jpg?s=512&d=https%3A%2F%2Fa.slack-edge.com%2Fdf10d%2Fimg%2Favatars%2Fava_0015-512.png", "custom_css": null}, {"id": 10476, "slack_id": "U092CSHM0BU", "display_name": "Muhammad Jundana Al Basyir", "bio": null, "projects_count": 0, "devlogs_count": 0, "votes_count": 0, "ships_count": 0, "projects": [], "coding_time_seconds": 0, "coding_time_seconds_today": 0, "balance": "You need to have a pocket watcher badge to view this.", "badges": [], "created_at": "2025-06-20T11:58:13.673-04:00", "updated_at": "2025-07-03T19:56:06.305-04:00", "avatar": "https://secure.gravatar.com/avatar/0264759c201c43a9873d6caae1543a1b.jpg?s=512&d=https%3A%2F%2Fa.slack-edge.com%2Fdf10d%2Fimg%2Favatars%2Fava_0009-512.png", "custom_css": null}, {"id": 10477, "slack_id": "U092RMR32C9", "display_name": "keval", "bio": null, "projects_count": 0, "devlogs_count": 0, "votes_count": 0, "ships_count": 0, "projects": [], "coding_time_seconds": 0, "coding_time_seconds_today": 0, "balance": "You need to have a pocket watcher badge to view this.", "badges": [], "created_at": "2025-06-20T12:02:07.456-04:00", "updated_at": "2025-07-05T14:13:09.682-04:00", "avatar": "https://secure.gravatar.com/avatar/df75e43196a7799f6550767e74797dfd.jpg?s=512&d=https%3A%2F%2Fa.slack-edge.com%2Fdf10d%2Fimg%2Favatars%2Fava_0008-512.png", "custom_css": null}, {"id": 10478, "slack_id": "U0928REKWTW", "display_name": "Lemar", "bio": null, "projects_count": 0, "devlogs_count": 0, "votes_count": 0, "ships_count": 0, "projects": [], "coding_time_seconds": 0, "coding_time_seconds_today": 0, "balance": "You need to have a pocket watcher badge to view this.", "badges": [], "created_at": "2025-06-20T12:02:24.224-04:00", "updated_at": "2025-07-04T02:30:18.103-04:00", "avatar": "https://secure.gravatar.com/avatar/c616f07c5ca4751958ae314f76023c44.jpg?s=512&d=https%3A%2F%2Fa.slack-edge.com%2Fdf10d%2Fimg%2Favatars%2Fava_0004-512.png", "custom_css": null}, {"id": 10479, "slack_id": "U09268Y4J59", "display_name": "Pam Popp", "bio": null, "projects_count": 0, "devlogs_count": 0, "votes_count": 0, "ships_count": 0, "projects": [], "coding_time_seconds": 0, "coding_time_seconds_today": 0, "balance": "You need to have a pocket watcher badge to view this.", "badges": [], "created_at": "2025-06-20T12:03:10.539-04:00", "updated_at": "2025-07-03T19:56:06.845-04:00", "avatar": "https://secure.gravatar.com/avatar/4170e886c34aad00d36bedac42a8ed93.jpg?s=512&d=https%3A%2F%2Fa.slack-edge.com%2Fdf10d%2Fimg%2Favatars%2Fava_0009-512.png", "custom_css": null}, {"id": 10480, "slack_id": "U0864RW812L", "display_name": "Ivan P", "bio": "My name is Ivan, I am 16 years old, I am a front-end web developer and junior programmer with more than 2 years of experience in project development.", "projects_count": 6, "devlogs_count": 68, "votes_count": 137, "ships_count": 5, "projects": [{"id": 12451, "title": "Xnorik", "devlogs_count": 15, "created_at": "2025-08-27T18:49:48.561-04:00"}, {"id": 12557, "title": "Galaga Game", "devlogs_count": 7, "created_at": "2025-08-29T13:12:59.368-04:00"}, {"id": 13318, "title": "Arkadia", "devlogs_count": 10, "created_at": "2025-09-13T22:43:31.488-04:00"}, {"id": 3203, "title": "Hack Circuit", "devlogs_count": 12, "created_at": "2025-06-23T12:45:30.604-04:00"}, {"id": 5043, "title": "Reactive Project", "devlogs_count": 1, "created_at": "2025-07-02T22:16:13.432-04:00"}, {"id": 7263, "title": "Interview Hack", "devlogs_count": 22, "created_at": "2025-07-20T14:11:24.655-04:00"}], "coding_time_seconds": 282424, "coding_time_seconds_today": 0, "balance": "You need to have a pocket watcher badge to view this.", "badges": [{"name": "Maiden Voyage", "text": "you shipped your first project! the journey begins...", "icon": "\ud83d\udea2"}, {"name": "Ballot Stuffer", "text": "vote 100 times.", "icon": "https://summer.hackclub.com/assets/i_voted-bf851b48.png"}], "created_at": "2025-06-20T12:04:23.795-04:00", "updated_at": "2025-09-16T00:52:56.415-04:00", "avatar": "https://avatars.slack-edge.com/2025-09-15/9523207125010_7df0502f4aaaef00a5d8_original.jpg", "custom_css": null}], "pagination": {"page": 524, "pages": 1192, "count": 23828, "items": 20}}