{"users": [{"id": 10481, "slack_id": "U091Y8AL30X", "display_name": "L", "bio": null, "projects_count": 0, "devlogs_count": 0, "votes_count": 0, "ships_count": 0, "projects": [], "coding_time_seconds": 0, "coding_time_seconds_today": 0, "balance": "You need to have a pocket watcher badge to view this.", "badges": [], "created_at": "2025-06-20T12:05:35.021-04:00", "updated_at": "2025-07-03T19:56:07.367-04:00", "avatar": "https://secure.gravatar.com/avatar/cf3a1d524ddc7529d634e41e71e9cbe3.jpg?s=512&d=https%3A%2F%2Fa.slack-edge.com%2Fdf10d%2Fimg%2Favatars%2Fava_0012-512.png", "custom_css": null}, {"id": 10482, "slack_id": "U09269NQ53M", "display_name": "ZODIAC", "bio": null, "projects_count": 0, "devlogs_count": 0, "votes_count": 0, "ships_count": 0, "projects": [], "coding_time_seconds": 0, "coding_time_seconds_today": 0, "balance": "You need to have a pocket watcher badge to view this.", "badges": [], "created_at": "2025-06-20T12:06:14.159-04:00", "updated_at": "2025-07-03T19:56:07.626-04:00", "avatar": "https://secure.gravatar.com/avatar/515040fb3f9fce585aa0562d3d84d5bf.jpg?s=512&d=https%3A%2F%2Fa.slack-edge.com%2Fdf10d%2Fimg%2Favatars%2Fava_0026-512.png", "custom_css": null}, {"id": 10483, "slack_id": "U06SR6SHDJR", "display_name": "Sasidhar Jasty", "bio": null, "projects_count": 0, "devlogs_count": 1, "votes_count": 0, "ships_count": 0, "projects": [], "coding_time_seconds": 387034, "coding_time_seconds_today": 0, "balance": "You need to have a pocket watcher badge to view this.", "badges": [], "created_at": "2025-06-20T12:06:31.537-04:00", "updated_at": "2025-07-24T16:06:57.407-04:00", "avatar": "https://secure.gravatar.com/avatar/54419f518e1c06584d45f2692d133aca.jpg?s=512&d=https%3A%2F%2Fa.slack-edge.com%2Fdf10d%2Fimg%2Favatars%2Fava_0013-512.png", "custom_css": null}, {"id": 10484, "slack_id": "U092RNMRG7K", "display_name": "mer4kie", "bio": null, "projects_count": 0, "devlogs_count": 0, "votes_count": 0, "ships_count": 0, "projects": [], "coding_time_seconds": 0, "coding_time_seconds_today": 0, "balance": "You need to have a pocket watcher badge to view this.", "badges": [], "created_at": "2025-06-20T12:07:07.359-04:00", "updated_at": "2025-07-03T19:56:08.158-04:00", "avatar": "https://avatars.slack-edge.com/2025-06-20/9081317142916_2838d9aaf8106f9a5773_original.png", "custom_css": null}, {"id": 10485, "slack_id": "U0926SU98BG", "display_name": "Sam", "bio": null, "projects_count": 0, "devlogs_count": 0, "votes_count": 0, "ships_count": 0, "projects": [], "coding_time_seconds": 0, "coding_time_seconds_today": 0, "balance": "You need to have a pocket watcher badge to view this.", "badges": [], "created_at": "2025-06-20T12:10:42.059-04:00", "updated_at": "2025-07-03T19:56:08.438-04:00", "avatar": "https://secure.gravatar.com/avatar/08bb4ca42934de6f4b5333ba068ce0ec.jpg?s=512&d=https%3A%2F%2Fa.slack-edge.com%2Fdf10d%2Fimg%2Favatars%2Fava_0002-512.png", "custom_css": null}, {"id": 10486, "slack_id": "U0931BB5S00", "display_name": "Krinal Krish K", "bio": null, "projects_count": 0, "devlogs_count": 0, "votes_count": 0, "ships_count": 0, "projects": [], "coding_time_seconds": 0, "coding_time_seconds_today": 0, "balance": "You need to have a pocket watcher badge to view this.", "badges": [], "created_at": "2025-06-20T12:15:58.819-04:00", "updated_at": "2025-07-03T19:56:08.710-04:00", "avatar": "https://secure.gravatar.com/avatar/9bd8f2e632b906bb895cc71676770206.jpg?s=512&d=https%3A%2F%2Fa.slack-edge.com%2Fdf10d%2Fimg%2Favatars%2Fava_0007-512.png", "custom_css": null}, {"id": 10487, "slack_id": "U0925GT285S", "display_name": "vivek", "bio": null, "projects_count": 0, "devlogs_count": 0, "votes_count": 0, "ships_count": 0, "projects": [], "coding_time_seconds": 0, "coding_time_seconds_today": 0, "balance": "You need to have a pocket watcher badge to view this.", "badges": [], "created_at": "2025-06-20T12:16:34.452-04:00", "updated_at": "2025-09-12T04:17:30.871-04:00", "avatar": "https://secure.gravatar.com/avatar/102d0be77e7d339a79257d83625c37fa.jpg?s=512&d=https%3A%2F%2Fa.slack-edge.com%2Fdf10d%2Fimg%2Favatars%2Fava_0002-512.png", "custom_css": null}, {"id": 10488, "slack_id": "U07K3KSB6NL", "display_name": "trisanth", "bio": null, "projects_count": 0, "devlogs_count": 0, "votes_count": 0, "ships_count": 0, "projects": [], "coding_time_seconds": 23146, "coding_time_seconds_today": 0, "balance": "You need to have a pocket watcher badge to view this.", "badges": [], "created_at": "2025-06-20T12:21:14.075-04:00", "updated_at": "2025-07-03T19:56:09.248-04:00", "avatar": "https://avatars.slack-edge.com/2024-08-25/7649674656656_27927a015fb973b371c2_original.jpg", "custom_css": null}, {"id": 10489, "slack_id": "U092RR27EGH", "display_name": "Titus Jurasius", "bio": null, "projects_count": 0, "devlogs_count": 0, "votes_count": 0, "ships_count": 0, "projects": [], "coding_time_seconds": 0, "coding_time_seconds_today": 0, "balance": "You need to have a pocket watcher badge to view this.", "badges": [], "created_at": "2025-06-20T12:26:26.508-04:00", "updated_at": "2025-07-04T08:26:35.292-04:00", "avatar": "https://secure.gravatar.com/avatar/f0d305b17ce61cdb400978d2fd91be6b.jpg?s=512&d=https%3A%2F%2Fa.slack-edge.com%2Fdf10d%2Fimg%2Favatars%2Fava_0003-512.png", "custom_css": null}, {"id": 10490, "slack_id": "U092D4BTGQ4", "display_name": "d3cxty", "bio": null, "projects_count": 1, "devlogs_count": 1, "votes_count": 0, "ships_count": 0, "projects": [{"id": 3253, "title": "TradZ", "devlogs_count": 1, "created_at": "2025-06-23T15:33:27.947-04:00"}], "coding_time_seconds": 20177, "coding_time_seconds_today": 0, "balance": "You need to have a pocket watcher badge to view this.", "badges": [], "created_at": "2025-06-20T12:27:35.884-04:00", "updated_at": "2025-08-15T11:36:13.517-04:00", "avatar": "https://secure.gravatar.com/avatar/67f15a885372f56bbd89c2ef206cf99c.jpg?s=512&d=https%3A%2F%2Fa.slack-edge.com%2Fdf10d%2Fimg%2Favatars%2Fava_0026-512.png", "custom_css": null}, {"id": 10491, "slack_id": "U092RR5NC73", "display_name": "Baylie Sprackman", "bio": null, "projects_count": 0, "devlogs_count": 0, "votes_count": 0, "ships_count": 0, "projects": [], "coding_time_seconds": 0, "coding_time_seconds_today": 0, "balance": "You need to have a pocket watcher badge to view this.", "badges": [], "created_at": "2025-06-20T12:28:03.998-04:00", "updated_at": "2025-07-04T02:30:19.079-04:00", "avatar": "https://secure.gravatar.com/avatar/9fe18c8ad724e921f4948fb19f884043.jpg?s=512&d=https%3A%2F%2Fa.slack-edge.com%2Fdf10d%2Fimg%2Favatars%2Fava_0002-512.png", "custom_css": null}, {"id": 10492, "slack_id": "U0931CQ9X4G", "display_name": "DDMPlayer", "bio": null, "projects_count": 0, "devlogs_count": 0, "votes_count": 0, "ships_count": 0, "projects": [], "coding_time_seconds": 154639, "coding_time_seconds_today": 0, "balance": "You need to have a pocket watcher badge to view this.", "badges": [], "created_at": "2025-06-20T12:28:27.778-04:00", "updated_at": "2025-07-03T19:56:09.912-04:00", "avatar": "https://avatars.slack-edge.com/2025-06-20/9066412221687_1ffabe5686651d150203_original.png", "custom_css": null}, {"id": 10493, "slack_id": "U0926CBG8TD", "display_name": "Daniel Wilfried", "bio": null, "projects_count": 2, "devlogs_count": 4, "votes_count": 17, "ships_count": 1, "projects": [{"id": 4591, "title": "The maestro ", "devlogs_count": 0, "created_at": "2025-06-30T19:45:19.903-04:00"}, {"id": 4590, "title": "Ystudy", "devlogs_count": 4, "created_at": "2025-06-30T19:42:54.260-04:00"}], "coding_time_seconds": 36070, "coding_time_seconds_today": 0, "balance": "You need to have a pocket watcher badge to view this.", "badges": [{"name": "Maiden Voyage", "text": "you shipped your first project! the journey begins...", "icon": "\ud83d\udea2"}], "created_at": "2025-06-20T12:28:36.265-04:00", "updated_at": "2025-09-10T22:56:24.186-04:00", "avatar": "https://secure.gravatar.com/avatar/db25b1058029e2eec2b2d0f6e590f6f6.jpg?s=512&d=https%3A%2F%2Fa.slack-edge.com%2Fdf10d%2Fimg%2Favatars%2Fava_0025-512.png", "custom_css": null}, {"id": 10494, "slack_id": "U0926D1TKR9", "display_name": "Michal", "bio": null, "projects_count": 0, "devlogs_count": 0, "votes_count": 0, "ships_count": 0, "projects": [], "coding_time_seconds": 0, "coding_time_seconds_today": 0, "balance": "You need to have a pocket watcher badge to view this.", "badges": [], "created_at": "2025-06-20T12:30:04.643-04:00", "updated_at": "2025-07-03T19:56:10.314-04:00", "avatar": "https://secure.gravatar.com/avatar/de61bb89321698d93506b9b5b8cc17a6.jpg?s=512&d=https%3A%2F%2Fa.slack-edge.com%2Fdf10d%2Fimg%2Favatars%2Fava_0014-512.png", "custom_css": null}, {"id": 10495, "slack_id": "U0931DDQYBS", "display_name": "saksham", "bio": null, "projects_count": 0, "devlogs_count": 0, "votes_count": 0, "ships_count": 0, "projects": [], "coding_time_seconds": 0, "coding_time_seconds_today": 0, "balance": "You need to have a pocket watcher badge to view this.", "badges": [], "created_at": "2025-06-20T12:31:55.366-04:00", "updated_at": "2025-07-03T19:56:10.596-04:00", "avatar": "https://secure.gravatar.com/avatar/e2fe1d7af981720b95f0d6c8c7251f66.jpg?s=512&d=https%3A%2F%2Fa.slack-edge.com%2Fdf10d%2Fimg%2Favatars%2Fava_0006-512.png", "custom_css": null}, {"id": 10496, "slack_id": "U091YCSFAGP", "display_name": "ThefCraft", "bio": null, "projects_count": 0, "devlogs_count": 0, "votes_count": 0, "ships_count": 0, "projects": [], "coding_time_seconds": 0, "coding_time_seconds_today": 0, "balance": "You need to have a pocket watcher badge to view this.", "badges": [], "created_at": "2025-06-20T12:35:52.071-04:00", "updated_at": "2025-07-03T19:56:10.861-04:00", "avatar": "https://secure.gravatar.com/avatar/1a170b5c7feec166f584057995d8f1fb.jpg?s=512&d=https%3A%2F%2Fa.slack-edge.com%2Fdf10d%2Fimg%2Favatars%2Fava_0007-512.png", "custom_css": null}, {"id": 10497, "slack_id": "U092D3MDX7U", "display_name": "Ayaan", "bio": null, "projects_count": 0, "devlogs_count": 0, "votes_count": 0, "ships_count": 0, "projects": [], "coding_time_seconds": 241820, "coding_time_seconds_today": 0, "balance": "You need to have a pocket watcher badge to view this.", "badges": [], "created_at": "2025-06-20T12:40:08.130-04:00", "updated_at": "2025-07-03T19:56:11.133-04:00", "avatar": "https://secure.gravatar.com/avatar/2b90f61f2295de1006a4ef2257433e89.jpg?s=512&d=https%3A%2F%2Fa.slack-edge.com%2Fdf10d%2Fimg%2Favatars%2Fava_0010-512.png", "custom_css": null}, {"id": 10498, "slack_id": "U092D3PF2F4", "display_name": "Suyash Vashishtha", "bio": null, "projects_count": 0, "devlogs_count": 0, "votes_count": 0, "ships_count": 0, "projects": [], "coding_time_seconds": 0, "coding_time_seconds_today": 0, "balance": "You need to have a pocket watcher badge to view this.", "badges": [], "created_at": "2025-06-20T12:40:27.606-04:00", "updated_at": "2025-07-03T19:56:11.395-04:00", "avatar": "https://avatars.slack-edge.com/2025-06-20/9075077612006_67bbd3ad3b584c395f72_original.png", "custom_css": null}, {"id": 10499, "slack_id": "U092DR0M796", "display_name": "Victor", "bio": null, "projects_count": 0, "devlogs_count": 0, "votes_count": 0, "ships_count": 0, "projects": [], "coding_time_seconds": 0, "coding_time_seconds_today": 0, "balance": "You need to have a pocket watcher badge to view this.", "badges": [], "created_at": "2025-06-20T12:41:18.751-04:00", "updated_at": "2025-07-03T19:56:11.666-04:00", "avatar": "https://secure.gravatar.com/avatar/0caf39327725b65f2eecce114958917c.jpg?s=512&d=https%3A%2F%2Fa.slack-edge.com%2Fdf10d%2Fimg%2Favatars%2Fava_0007-512.png", "custom_css": null}, {"id": 10500, "slack_id": "U091YE20E8P", "display_name": "Azaan and saifan Ali", "bio": null, "projects_count": 0, "devlogs_count": 0, "votes_count": 0, "ships_count": 0, "projects": [], "coding_time_seconds": 0, "coding_time_seconds_today": 0, "balance": "You need to have a pocket watcher badge to view this.", "badges": [], "created_at": "2025-06-20T12:44:45.380-04:00", "updated_at": "2025-07-04T20:11:12.141-04:00", "avatar": "https://avatars.slack-edge.com/2025-06-20/9080403635381_bf47212a36e5260f8a62_original.jpg", "custom_css": null}], "pagination": {"page": 525, "pages": 1192, "count": 23828, "items": 20}}