{"users": [{"id": 10521, "slack_id": "U09276AQZ7Y", "display_name": "Yash Vardhan", "bio": null, "projects_count": 0, "devlogs_count": 0, "votes_count": 0, "ships_count": 0, "projects": [], "coding_time_seconds": 0, "coding_time_seconds_today": 0, "balance": "You need to have a pocket watcher badge to view this.", "badges": [], "created_at": "2025-06-20T13:11:49.368-04:00", "updated_at": "2025-07-04T02:30:21.204-04:00", "avatar": "https://avatars.slack-edge.com/2025-06-20/9080541990277_c5facd6b677a762537bd_original.jpg", "custom_css": null}, {"id": 10522, "slack_id": "U092CFKN4AZ", "display_name": "Hannah Southby", "bio": null, "projects_count": 0, "devlogs_count": 0, "votes_count": 0, "ships_count": 0, "projects": [], "coding_time_seconds": 0, "coding_time_seconds_today": 0, "balance": "You need to have a pocket watcher badge to view this.", "badges": [], "created_at": "2025-06-20T13:12:27.010-04:00", "updated_at": "2025-07-03T19:56:16.994-04:00", "avatar": "https://avatars.slack-edge.com/2025-06-20/9103652600384_fe824f84a584dcbac9e4_original.png", "custom_css": null}, {"id": 10523, "slack_id": "U091YHWQS23", "display_name": "Alex", "bio": null, "projects_count": 0, "devlogs_count": 0, "votes_count": 0, "ships_count": 0, "projects": [], "coding_time_seconds": 0, "coding_time_seconds_today": 0, "balance": "You need to have a pocket watcher badge to view this.", "badges": [], "created_at": "2025-06-20T13:13:18.637-04:00", "updated_at": "2025-07-04T02:30:21.374-04:00", "avatar": "https://secure.gravatar.com/avatar/05aca7acb97b8dbd8d64ddc991c0b031.jpg?s=512&d=https%3A%2F%2Fa.slack-edge.com%2Fdf10d%2Fimg%2Favatars%2Fava_0022-512.png", "custom_css": null}, {"id": 10524, "slack_id": "U091STGUVH9", "display_name": "Dhruvil Patel", "bio": null, "projects_count": 0, "devlogs_count": 0, "votes_count": 0, "ships_count": 0, "projects": [], "coding_time_seconds": 201964, "coding_time_seconds_today": 0, "balance": "You need to have a pocket watcher badge to view this.", "badges": [], "created_at": "2025-06-20T13:13:45.293-04:00", "updated_at": "2025-07-03T19:56:17.403-04:00", "avatar": "https://avatars.slack-edge.com/2025-06-20/9081306543746_2320745866fba8661d6c_original.jpg", "custom_css": null}, {"id": 10525, "slack_id": "U092D8NMTU2", "display_name": "Ankith Kumar", "bio": null, "projects_count": 0, "devlogs_count": 0, "votes_count": 0, "ships_count": 0, "projects": [], "coding_time_seconds": 0, "coding_time_seconds_today": 0, "balance": "You need to have a pocket watcher badge to view this.", "badges": [], "created_at": "2025-06-20T13:14:53.587-04:00", "updated_at": "2025-07-03T19:56:17.680-04:00", "avatar": "https://secure.gravatar.com/avatar/c8790e6012b6eb8fedc49b722c70697b.jpg?s=512&d=https%3A%2F%2Fa.slack-edge.com%2Fdf10d%2Fimg%2Favatars%2Fava_0021-512.png", "custom_css": null}, {"id": 10526, "slack_id": "U0931J7G4PJ", "display_name": "Cailee", "bio": null, "projects_count": 0, "devlogs_count": 0, "votes_count": 0, "ships_count": 0, "projects": [], "coding_time_seconds": 5479, "coding_time_seconds_today": 0, "balance": "You need to have a pocket watcher badge to view this.", "badges": [], "created_at": "2025-06-20T13:15:14.845-04:00", "updated_at": "2025-07-03T19:56:17.949-04:00", "avatar": "https://secure.gravatar.com/avatar/885edf048560a7d00d88a46c35092ed7.jpg?s=512&d=https%3A%2F%2Fa.slack-edge.com%2Fdf10d%2Fimg%2Favatars%2Fava_0025-512.png", "custom_css": null}, {"id": 10527, "slack_id": "U0926KGE283", "display_name": "satvik", "bio": null, "projects_count": 0, "devlogs_count": 0, "votes_count": 0, "ships_count": 0, "projects": [], "coding_time_seconds": 0, "coding_time_seconds_today": 0, "balance": "You need to have a pocket watcher badge to view this.", "badges": [], "created_at": "2025-06-20T13:16:11.441-04:00", "updated_at": "2025-07-04T20:11:13.711-04:00", "avatar": "https://secure.gravatar.com/avatar/a2055789b0363023615b2428493b995b.jpg?s=512&d=https%3A%2F%2Fa.slack-edge.com%2Fdf10d%2Fimg%2Favatars%2Fava_0024-512.png", "custom_css": null}, {"id": 10528, "slack_id": "U092DJRTDE0", "display_name": "goyo", "bio": null, "projects_count": 0, "devlogs_count": 0, "votes_count": 0, "ships_count": 0, "projects": [], "coding_time_seconds": 0, "coding_time_seconds_today": 0, "balance": "You need to have a pocket watcher badge to view this.", "badges": [], "created_at": "2025-06-20T13:17:43.444-04:00", "updated_at": "2025-07-03T19:56:18.359-04:00", "avatar": "https://secure.gravatar.com/avatar/7851997f28f6b9e49c1d4b7ff69764fb.jpg?s=512&d=https%3A%2F%2Fa.slack-edge.com%2Fdf10d%2Fimg%2Favatars%2Fava_0003-512.png", "custom_css": null}, {"id": 10529, "slack_id": "U092CET28QM", "display_name": "oops", "bio": null, "projects_count": 0, "devlogs_count": 0, "votes_count": 0, "ships_count": 0, "projects": [], "coding_time_seconds": 0, "coding_time_seconds_today": 0, "balance": "You need to have a pocket watcher badge to view this.", "badges": [], "created_at": "2025-06-20T13:17:53.090-04:00", "updated_at": "2025-07-09T17:00:46.300-04:00", "avatar": "https://secure.gravatar.com/avatar/0e6e9e86975f4ce084b7b1fa15d76e6b.jpg?s=512&d=https%3A%2F%2Fa.slack-edge.com%2Fdf10d%2Fimg%2Favatars%2Fava_0022-512.png", "custom_css": null}, {"id": 10530, "slack_id": "U092DDHA95J", "display_name": "Ebin A", "bio": null, "projects_count": 0, "devlogs_count": 0, "votes_count": 0, "ships_count": 0, "projects": [], "coding_time_seconds": 412171, "coding_time_seconds_today": 0, "balance": "You need to have a pocket watcher badge to view this.", "badges": [], "created_at": "2025-06-20T13:20:19.543-04:00", "updated_at": "2025-07-03T19:56:18.897-04:00", "avatar": "https://secure.gravatar.com/avatar/e0bfe91a536ffbeb2557b3d58c0a425b.jpg?s=512&d=https%3A%2F%2Fa.slack-edge.com%2Fdf10d%2Fimg%2Favatars%2Fava_0024-512.png", "custom_css": null}, {"id": 10531, "slack_id": "U0926KQJXHR", "display_name": "b", "bio": null, "projects_count": 0, "devlogs_count": 0, "votes_count": 0, "ships_count": 0, "projects": [], "coding_time_seconds": 0, "coding_time_seconds_today": 0, "balance": "You need to have a pocket watcher badge to view this.", "badges": [], "created_at": "2025-06-20T13:22:45.867-04:00", "updated_at": "2025-07-03T19:56:19.160-04:00", "avatar": "https://secure.gravatar.com/avatar/91e0a392525847ab006ec51dce86b547.jpg?s=512&d=https%3A%2F%2Fa.slack-edge.com%2Fdf10d%2Fimg%2Favatars%2Fava_0004-512.png", "custom_css": null}, {"id": 10532, "slack_id": "U08BAHZFGBH", "display_name": "owrushxo", "bio": null, "projects_count": 0, "devlogs_count": 0, "votes_count": 0, "ships_count": 0, "projects": [], "coding_time_seconds": 0, "coding_time_seconds_today": 0, "balance": "You need to have a pocket watcher badge to view this.", "badges": [], "created_at": "2025-06-20T13:23:08.919-04:00", "updated_at": "2025-07-03T19:56:19.446-04:00", "avatar": "https://avatars.slack-edge.com/2025-02-04/8392532682070_e68476c770f71da86f87_original.jpg", "custom_css": null}, {"id": 10533, "slack_id": "U0758EXJF7W", "display_name": "Rishabh", "bio": null, "projects_count": 0, "devlogs_count": 0, "votes_count": 0, "ships_count": 0, "projects": [], "coding_time_seconds": 266281, "coding_time_seconds_today": 0, "balance": "You need to have a pocket watcher badge to view this.", "badges": [], "created_at": "2025-06-20T13:23:11.227-04:00", "updated_at": "2025-07-06T14:11:35.553-04:00", "avatar": "https://avatars.slack-edge.com/2025-07-04/9172631210816_95ac2b159b8e418eb0d7_original.png", "custom_css": null}, {"id": 10534, "slack_id": "U092D9URKA6", "display_name": "Ali Youssef", "bio": null, "projects_count": 0, "devlogs_count": 0, "votes_count": 0, "ships_count": 0, "projects": [], "coding_time_seconds": 0, "coding_time_seconds_today": 0, "balance": "You need to have a pocket watcher badge to view this.", "badges": [], "created_at": "2025-06-20T13:23:54.622-04:00", "updated_at": "2025-07-03T19:56:19.853-04:00", "avatar": "https://secure.gravatar.com/avatar/231a87acefbde07c9e0a850417235467.jpg?s=512&d=https%3A%2F%2Fa.slack-edge.com%2Fdf10d%2Fimg%2Favatars%2Fava_0000-512.png", "custom_css": null}, {"id": 10535, "slack_id": "U092C7T0MM3", "display_name": "Sam", "bio": null, "projects_count": 1, "devlogs_count": 0, "votes_count": 0, "ships_count": 0, "projects": [{"id": 2243, "title": "Building an RSVP app", "devlogs_count": 0, "created_at": "2025-06-20T14:35:29.295-04:00"}], "coding_time_seconds": 73872, "coding_time_seconds_today": 0, "balance": "You need to have a pocket watcher badge to view this.", "badges": [], "created_at": "2025-06-20T13:24:40.383-04:00", "updated_at": "2025-07-03T19:56:20.115-04:00", "avatar": "https://secure.gravatar.com/avatar/8553a5a47409bb254159ad60858d9d9f.jpg?s=512&d=https%3A%2F%2Fa.slack-edge.com%2Fdf10d%2Fimg%2Favatars%2Fava_0009-512.png", "custom_css": null}, {"id": 10536, "slack_id": "U0931LCNPNC", "display_name": "Gleb", "bio": null, "projects_count": 0, "devlogs_count": 0, "votes_count": 0, "ships_count": 0, "projects": [], "coding_time_seconds": 0, "coding_time_seconds_today": 0, "balance": "You need to have a pocket watcher badge to view this.", "badges": [], "created_at": "2025-06-20T13:25:51.819-04:00", "updated_at": "2025-07-04T02:30:22.284-04:00", "avatar": "https://secure.gravatar.com/avatar/0e754f807a44317760d699aeb3c08d90.jpg?s=512&d=https%3A%2F%2Fa.slack-edge.com%2Fdf10d%2Fimg%2Favatars%2Fava_0019-512.png", "custom_css": null}, {"id": 10537, "slack_id": "U091YL00YSK", "display_name": "ancxx", "bio": null, "projects_count": 2, "devlogs_count": 4, "votes_count": 0, "ships_count": 1, "projects": [{"id": 2236, "title": "Edu-Spark", "devlogs_count": 4, "created_at": "2025-06-20T14:02:05.435-04:00"}, {"id": 3866, "title": "ecom-website", "devlogs_count": 0, "created_at": "2025-06-26T03:46:37.493-04:00"}], "coding_time_seconds": 115157, "coding_time_seconds_today": 0, "balance": "You need to have a pocket watcher badge to view this.", "badges": [{"name": "Maiden Voyage", "text": "you shipped your first project! the journey begins...", "icon": "\ud83d\udea2"}], "created_at": "2025-06-20T13:27:40.187-04:00", "updated_at": "2025-09-10T22:56:25.704-04:00", "avatar": "https://avatars.slack-edge.com/2025-06-25/9097108212755_0800c147e81ca477118b_original.jpg", "custom_css": null}, {"id": 10538, "slack_id": "U0927KG2F97", "display_name": "oter", "bio": null, "projects_count": 0, "devlogs_count": 2, "votes_count": 42, "ships_count": 0, "projects": [], "coding_time_seconds": 281631, "coding_time_seconds_today": 0, "balance": "You need to have a pocket watcher badge to view this.", "badges": [{"name": "Maiden Voyage", "text": "you shipped your first project! the journey begins...", "icon": "\ud83d\udea2"}], "created_at": "2025-06-20T13:28:32.888-04:00", "updated_at": "2025-09-10T22:56:25.738-04:00", "avatar": "https://avatars.slack-edge.com/2025-08-24/9428309827200_e210a67c891cadd83c18_original.png", "custom_css": null}, {"id": 10539, "slack_id": "U092CHLMW85", "display_name": "Tumac Tupac", "bio": null, "projects_count": 0, "devlogs_count": 0, "votes_count": 0, "ships_count": 0, "projects": [], "coding_time_seconds": 0, "coding_time_seconds_today": 0, "balance": "You need to have a pocket watcher badge to view this.", "badges": [], "created_at": "2025-06-20T13:28:48.355-04:00", "updated_at": "2025-07-03T22:01:05.164-04:00", "avatar": "https://avatars.slack-edge.com/2025-06-20/9094169129409_3070b07df4cca0790c8c_original.png", "custom_css": null}, {"id": 10540, "slack_id": "U0931LUTCF2", "display_name": "Jayesh", "bio": null, "projects_count": 0, "devlogs_count": 0, "votes_count": 0, "ships_count": 0, "projects": [], "coding_time_seconds": 0, "coding_time_seconds_today": 0, "balance": "You need to have a pocket watcher badge to view this.", "badges": [], "created_at": "2025-06-20T13:29:21.316-04:00", "updated_at": "2025-07-04T08:26:38.639-04:00", "avatar": "https://secure.gravatar.com/avatar/fa6339b3ee91daadba55b5c4d0fb25a7.jpg?s=512&d=https%3A%2F%2Fa.slack-edge.com%2Fdf10d%2Fimg%2Favatars%2Fava_0011-512.png", "custom_css": null}], "pagination": {"page": 527, "pages": 1192, "count": 23828, "items": 20}}