{"users": [{"id": 10541, "slack_id": "U091YLEF339", "display_name": "Drake Tran", "bio": null, "projects_count": 0, "devlogs_count": 0, "votes_count": 0, "ships_count": 0, "projects": [], "coding_time_seconds": 0, "coding_time_seconds_today": 0, "balance": "You need to have a pocket watcher badge to view this.", "badges": [], "created_at": "2025-06-20T13:29:55.575-04:00", "updated_at": "2025-07-03T19:56:21.272-04:00", "avatar": "https://secure.gravatar.com/avatar/299eb4b690aeba5c9438656e2ffb4984.jpg?s=512&d=https%3A%2F%2Fa.slack-edge.com%2Fdf10d%2Fimg%2Favatars%2Fava_0003-512.png", "custom_css": null}, {"id": 10542, "slack_id": "U092S3MBV41", "display_name": "Nathaniel", "bio": null, "projects_count": 0, "devlogs_count": 14, "votes_count": 0, "ships_count": 0, "projects": [], "coding_time_seconds": 113496, "coding_time_seconds_today": 0, "balance": "You need to have a pocket watcher badge to view this.", "badges": [], "created_at": "2025-06-20T13:30:41.684-04:00", "updated_at": "2025-07-09T17:00:47.523-04:00", "avatar": "https://secure.gravatar.com/avatar/fd669e6af1f94b098ba4773719261fd1.jpg?s=512&d=https%3A%2F%2Fa.slack-edge.com%2Fdf10d%2Fimg%2Favatars%2Fava_0000-512.png", "custom_css": null}, {"id": 10543, "slack_id": "U092CJM90JZ", "display_name": "Lestlin Robins", "bio": null, "projects_count": 1, "devlogs_count": 2, "votes_count": 0, "ships_count": 0, "projects": [{"id": 2820, "title": "mui-test-2", "devlogs_count": 2, "created_at": "2025-06-22T06:36:49.326-04:00"}], "coding_time_seconds": 262460, "coding_time_seconds_today": 0, "balance": "You need to have a pocket watcher badge to view this.", "badges": [], "created_at": "2025-06-20T13:34:15.567-04:00", "updated_at": "2025-07-05T14:13:13.863-04:00", "avatar": "https://secure.gravatar.com/avatar/b29b57d49f3a0f0961b366583979aa6b.jpg?s=512&d=https%3A%2F%2Fa.slack-edge.com%2Fdf10d%2Fimg%2Favatars%2Fava_0006-512.png", "custom_css": null}, {"id": 10544, "slack_id": "U0926P2EL0K", "display_name": "Sahil Vaswani", "bio": null, "projects_count": 1, "devlogs_count": 1, "votes_count": 0, "ships_count": 1, "projects": [{"id": 5439, "title": "WonDaze", "devlogs_count": 1, "created_at": "2025-07-05T10:01:46.445-04:00"}], "coding_time_seconds": 433180, "coding_time_seconds_today": 120, "balance": "You need to have a pocket watcher badge to view this.", "badges": [{"name": "Maiden Voyage", "text": "you shipped your first project! the journey begins...", "icon": "\ud83d\udea2"}], "created_at": "2025-06-20T13:41:54.161-04:00", "updated_at": "2025-09-10T22:56:25.921-04:00", "avatar": "https://secure.gravatar.com/avatar/6a0a21c6c20cfbd91e25d2c63e7f49af.jpg?s=512&d=https%3A%2F%2Fa.slack-edge.com%2Fdf10d%2Fimg%2Favatars%2Fava_0002-512.png", "custom_css": null}, {"id": 10545, "slack_id": "U091TS907KL", "display_name": "Ishaan Singla", "bio": null, "projects_count": 0, "devlogs_count": 0, "votes_count": 0, "ships_count": 0, "projects": [], "coding_time_seconds": 17252, "coding_time_seconds_today": 0, "balance": "You need to have a pocket watcher badge to view this.", "badges": [], "created_at": "2025-06-20T13:44:19.202-04:00", "updated_at": "2025-07-03T19:56:22.198-04:00", "avatar": "https://secure.gravatar.com/avatar/a1191aa782c01973a0afac5870a71e29.jpg?s=512&d=https%3A%2F%2Fa.slack-edge.com%2Fdf10d%2Fimg%2Favatars%2Fava_0025-512.png", "custom_css": null}, {"id": 10546, "slack_id": "U092S6M1SGH", "display_name": "Sowrin Paul", "bio": null, "projects_count": 0, "devlogs_count": 0, "votes_count": 0, "ships_count": 0, "projects": [], "coding_time_seconds": 2199, "coding_time_seconds_today": 0, "balance": "You need to have a pocket watcher badge to view this.", "badges": [], "created_at": "2025-06-20T13:44:51.773-04:00", "updated_at": "2025-07-03T19:56:22.457-04:00", "avatar": "https://secure.gravatar.com/avatar/524f750e848f97a3092ef235a9e0d041.jpg?s=512&d=https%3A%2F%2Fa.slack-edge.com%2Fdf10d%2Fimg%2Favatars%2Fava_0000-512.png", "custom_css": null}, {"id": 10547, "slack_id": "U0926PN60KV", "display_name": "Sparsh Goyal", "bio": null, "projects_count": 0, "devlogs_count": 0, "votes_count": 0, "ships_count": 0, "projects": [], "coding_time_seconds": 69260, "coding_time_seconds_today": 0, "balance": "You need to have a pocket watcher badge to view this.", "badges": [], "created_at": "2025-06-20T13:47:23.210-04:00", "updated_at": "2025-07-03T19:56:22.733-04:00", "avatar": "https://secure.gravatar.com/avatar/bcdcf64f8efdd358d59c31e1673469e5.jpg?s=512&d=https%3A%2F%2Fa.slack-edge.com%2Fdf10d%2Fimg%2Favatars%2Fava_0015-512.png", "custom_css": null}, {"id": 10548, "slack_id": "U0817BH97RD", "display_name": "Nobodycares", "bio": null, "projects_count": 0, "devlogs_count": 0, "votes_count": 0, "ships_count": 0, "projects": [], "coding_time_seconds": 105185, "coding_time_seconds_today": 0, "balance": "You need to have a pocket watcher badge to view this.", "badges": [], "created_at": "2025-06-20T13:48:22.823-04:00", "updated_at": "2025-07-03T19:56:22.996-04:00", "avatar": "https://avatars.slack-edge.com/2025-06-25/9116983478257_5c82a014caff788b8cf2_original.jpg", "custom_css": null}, {"id": 10549, "slack_id": "U063V2TFK3R", "display_name": "ev", "bio": null, "projects_count": 5, "devlogs_count": 7, "votes_count": 0, "ships_count": 0, "projects": [{"id": 2604, "title": "fml", "devlogs_count": 2, "created_at": "2025-06-21T12:41:37.634-04:00"}, {"id": 2607, "title": "uhs purity score", "devlogs_count": 1, "created_at": "2025-06-21T12:42:25.073-04:00"}, {"id": 2611, "title": "custom keyboard", "devlogs_count": 2, "created_at": "2025-06-21T12:50:33.665-04:00"}, {"id": 3059, "title": "other custom keyboard", "devlogs_count": 1, "created_at": "2025-06-22T23:58:50.864-04:00"}, {"id": 4167, "title": "small talk", "devlogs_count": 1, "created_at": "2025-06-28T01:21:06.338-04:00"}], "coding_time_seconds": 36460, "coding_time_seconds_today": 0, "balance": "You need to have a pocket watcher badge to view this.", "badges": [], "created_at": "2025-06-20T13:50:50.384-04:00", "updated_at": "2025-07-03T19:56:23.264-04:00", "avatar": "https://avatars.slack-edge.com/2025-01-13/8302049696145_2d79039438cbd942009e_original.png", "custom_css": null}, {"id": 10550, "slack_id": "U091YP3NWSK", "display_name": "sodiq MOGAJI", "bio": null, "projects_count": 0, "devlogs_count": 0, "votes_count": 0, "ships_count": 0, "projects": [], "coding_time_seconds": 0, "coding_time_seconds_today": 0, "balance": "You need to have a pocket watcher badge to view this.", "badges": [], "created_at": "2025-06-20T13:52:34.220-04:00", "updated_at": "2025-07-03T19:56:23.529-04:00", "avatar": "https://avatars.slack-edge.com/2025-06-20/9066805740023_0916df9b05c82127e817_original.png", "custom_css": null}, {"id": 10551, "slack_id": "U092S7H70E5", "display_name": "Parth Parmar", "bio": null, "projects_count": 0, "devlogs_count": 0, "votes_count": 0, "ships_count": 0, "projects": [], "coding_time_seconds": 0, "coding_time_seconds_today": 0, "balance": "You need to have a pocket watcher badge to view this.", "badges": [], "created_at": "2025-06-20T13:53:20.893-04:00", "updated_at": "2025-07-03T19:56:23.803-04:00", "avatar": "https://avatars.slack-edge.com/2025-06-20/9074844601667_b60b47cb3f744f81e9b2_original.png", "custom_css": null}, {"id": 10552, "slack_id": "U091YNVEBKR", "display_name": "Yellow", "bio": null, "projects_count": 4, "devlogs_count": 12, "votes_count": 44, "ships_count": 3, "projects": [{"id": 6105, "title": "SentienceQ", "devlogs_count": 1, "created_at": "2025-07-10T15:03:42.287-04:00"}, {"id": 12697, "title": "flip-a-coin", "devlogs_count": 3, "created_at": "2025-09-01T04:36:43.843-04:00"}, {"id": 13677, "title": "Drawer", "devlogs_count": 0, "created_at": "2025-09-22T16:01:24.185-04:00"}, {"id": 13164, "title": "Imaginary SandCastle", "devlogs_count": 7, "created_at": "2025-09-10T10:08:59.454-04:00"}], "coding_time_seconds": 695331, "coding_time_seconds_today": 0, "balance": "You need to have a pocket watcher badge to view this.", "badges": [{"name": "Maiden Voyage", "text": "you shipped your first project! the journey begins...", "icon": "\ud83d\udea2"}], "created_at": "2025-06-20T13:56:16.126-04:00", "updated_at": "2025-09-10T22:56:26.203-04:00", "avatar": "https://avatars.slack-edge.com/2025-06-20/9080741400037_f36e600fb3e90085bf8b_original.png", "custom_css": null}, {"id": 10553, "slack_id": "U092DQ13ZQU", "display_name": "Nourhan", "bio": null, "projects_count": 0, "devlogs_count": 0, "votes_count": 0, "ships_count": 0, "projects": [], "coding_time_seconds": 0, "coding_time_seconds_today": 0, "balance": "You need to have a pocket watcher badge to view this.", "badges": [], "created_at": "2025-06-20T13:56:21.982-04:00", "updated_at": "2025-07-03T19:56:24.354-04:00", "avatar": "https://secure.gravatar.com/avatar/7651b5431d3ba60ad06c19d7529948ff.jpg?s=512&d=https%3A%2F%2Fa.slack-edge.com%2Fdf10d%2Fimg%2Favatars%2Fava_0007-512.png", "custom_css": null}, {"id": 10554, "slack_id": "U092D2WJ0EN", "display_name": "DoMax", "bio": null, "projects_count": 3, "devlogs_count": 53, "votes_count": 86, "ships_count": 3, "projects": [{"id": 2533, "title": "Crimson", "devlogs_count": 9, "created_at": "2025-06-21T08:36:51.877-04:00"}, {"id": 13203, "title": "PaperChat", "devlogs_count": 14, "created_at": "2025-09-11T13:24:30.572-04:00"}, {"id": 2989, "title": "EchoTuner", "devlogs_count": 30, "created_at": "2025-06-22T16:48:45.334-04:00"}], "coding_time_seconds": 779897, "coding_time_seconds_today": 0, "balance": "You need to have a pocket watcher badge to view this.", "badges": [{"name": "Maiden Voyage", "text": "you shipped your first project! the journey begins...", "icon": "\ud83d\udea2"}], "created_at": "2025-06-20T13:59:24.402-04:00", "updated_at": "2025-09-10T22:56:26.382-04:00", "avatar": "https://secure.gravatar.com/avatar/fbf5601bd9a73bc4bead0e79b3e11419.jpg?s=512&d=https%3A%2F%2Fa.slack-edge.com%2Fdf10d%2Fimg%2Favatars%2Fava_0003-512.png", "custom_css": null}, {"id": 10555, "slack_id": "U0931R48C64", "display_name": "Kanishk Raghav", "bio": null, "projects_count": 0, "devlogs_count": 0, "votes_count": 0, "ships_count": 0, "projects": [], "coding_time_seconds": 0, "coding_time_seconds_today": 0, "balance": "You need to have a pocket watcher badge to view this.", "badges": [], "created_at": "2025-06-20T14:03:41.035-04:00", "updated_at": "2025-07-05T02:11:49.615-04:00", "avatar": "https://secure.gravatar.com/avatar/049af728412bb6bad2e43f450d99cbba.jpg?s=512&d=https%3A%2F%2Fa.slack-edge.com%2Fdf10d%2Fimg%2Favatars%2Fava_0006-512.png", "custom_css": null}, {"id": 10556, "slack_id": "U091KFKDWTD", "display_name": "Iggy", "bio": null, "projects_count": 0, "devlogs_count": 0, "votes_count": 0, "ships_count": 0, "projects": [], "coding_time_seconds": 0, "coding_time_seconds_today": 0, "balance": "You need to have a pocket watcher badge to view this.", "badges": [], "created_at": "2025-06-20T14:06:37.949-04:00", "updated_at": "2025-07-04T08:26:39.679-04:00", "avatar": "https://secure.gravatar.com/avatar/5f1cbb7ade3c64e2e184aff5f4184076.jpg?s=512&d=https%3A%2F%2Fa.slack-edge.com%2Fdf10d%2Fimg%2Favatars%2Fava_0026-512.png", "custom_css": null}, {"id": 10557, "slack_id": "U0927DP714N", "display_name": "Preiium", "bio": null, "projects_count": 0, "devlogs_count": 0, "votes_count": 0, "ships_count": 0, "projects": [], "coding_time_seconds": 3000, "coding_time_seconds_today": 0, "balance": "You need to have a pocket watcher badge to view this.", "badges": [], "created_at": "2025-06-20T14:07:16.967-04:00", "updated_at": "2025-07-03T19:56:25.157-04:00", "avatar": "https://secure.gravatar.com/avatar/49cad457757a2c17a199181d87b411c6.jpg?s=512&d=https%3A%2F%2Fa.slack-edge.com%2Fdf10d%2Fimg%2Favatars%2Fava_0019-512.png", "custom_css": null}, {"id": 10558, "slack_id": "U092R22R5U1", "display_name": "A.F", "bio": null, "projects_count": 0, "devlogs_count": 0, "votes_count": 0, "ships_count": 0, "projects": [], "coding_time_seconds": 0, "coding_time_seconds_today": 0, "balance": "You need to have a pocket watcher badge to view this.", "badges": [], "created_at": "2025-06-20T14:08:47.705-04:00", "updated_at": "2025-07-03T19:56:25.481-04:00", "avatar": "https://secure.gravatar.com/avatar/d9b010b4dba095f8bc0e67bdbd286997.jpg?s=512&d=https%3A%2F%2Fa.slack-edge.com%2Fdf10d%2Fimg%2Favatars%2Fava_0026-512.png", "custom_css": null}, {"id": 10559, "slack_id": "U092S9MK917", "display_name": "Koei", "bio": "certified inefficient code writer.\r\n\r\ni only have two modes:\r\n1. 221 changes pushed in a day\r\n2. 6 changes pushed in a week\r\nthere is no in-between.\r\n\r\ni have some cool projects, check em out or something.", "projects_count": 3, "devlogs_count": 40, "votes_count": 53, "ships_count": 3, "projects": [{"id": 12220, "title": "Untitled Chat App", "devlogs_count": 14, "created_at": "2025-08-24T12:56:32.807-04:00"}, {"id": 2529, "title": "Conway's Game of Life in the terminal", "devlogs_count": 13, "created_at": "2025-06-21T08:07:01.715-04:00"}, {"id": 9491, "title": "Keyholder", "devlogs_count": 13, "created_at": "2025-08-01T12:40:27.649-04:00"}], "coding_time_seconds": 279302, "coding_time_seconds_today": 0, "balance": "You need to have a pocket watcher badge to view this.", "badges": [{"name": "Maiden Voyage", "text": "you shipped your first project! the journey begins...", "icon": "\ud83d\udea2"}, {"name": "Yapper I", "text": "Posted 10 comments on devlogs.", "icon": "\ud83d\udcac"}], "created_at": "2025-06-20T14:09:21.099-04:00", "updated_at": "2025-09-10T22:56:26.656-04:00", "avatar": "https://avatars.slack-edge.com/2025-07-07/9159164433058_b3a4a6fda7073afb0a8e_original.png", "custom_css": null}, {"id": 10560, "slack_id": "U092CPU8953", "display_name": "Eesa Faisal", "bio": null, "projects_count": 0, "devlogs_count": 0, "votes_count": 0, "ships_count": 0, "projects": [], "coding_time_seconds": 0, "coding_time_seconds_today": 0, "balance": "You need to have a pocket watcher badge to view this.", "badges": [], "created_at": "2025-06-20T14:13:21.022-04:00", "updated_at": "2025-07-03T19:56:26.020-04:00", "avatar": "https://avatars.slack-edge.com/2025-06-20/9080823528405_ff3678d40e12183c0811_original.jpg", "custom_css": null}], "pagination": {"page": 528, "pages": 1192, "count": 23828, "items": 20}}