{"users": [{"id": 1041, "slack_id": "U091PAB0RL2", "display_name": "Fernando A Ferraz", "bio": null, "projects_count": 0, "devlogs_count": 0, "votes_count": 0, "ships_count": 0, "projects": [], "coding_time_seconds": 0, "coding_time_seconds_today": 0, "balance": "You need to have a pocket watcher badge to view this.", "badges": [], "created_at": "2025-06-16T12:35:44.715-04:00", "updated_at": "2025-07-03T19:15:49.710-04:00", "avatar": "https://secure.gravatar.com/avatar/d9b94c757c7ba853e1370e0fc984b532.jpg?s=512&d=https%3A%2F%2Fa.slack-edge.com%2Fdf10d%2Fimg%2Favatars%2Fava_0005-512.png", "custom_css": null}, {"id": 1042, "slack_id": "U091GBLSZ6F", "display_name": "Vatsal", "bio": null, "projects_count": 0, "devlogs_count": 0, "votes_count": 0, "ships_count": 0, "projects": [], "coding_time_seconds": 0, "coding_time_seconds_today": 0, "balance": "You need to have a pocket watcher badge to view this.", "badges": [], "created_at": "2025-06-16T12:35:53.618-04:00", "updated_at": "2025-07-03T19:15:49.989-04:00", "avatar": "https://secure.gravatar.com/avatar/1b7ad72d39a4efee3f2acc62d06c518d.jpg?s=512&d=https%3A%2F%2Fa.slack-edge.com%2Fdf10d%2Fimg%2Favatars%2Fava_0002-512.png", "custom_css": null}, {"id": 1043, "slack_id": "U091PAGFV26", "display_name": "Lemmebeanon", "bio": null, "projects_count": 0, "devlogs_count": 0, "votes_count": 0, "ships_count": 0, "projects": [], "coding_time_seconds": 1480, "coding_time_seconds_today": 0, "balance": "You need to have a pocket watcher badge to view this.", "badges": [], "created_at": "2025-06-16T12:36:02.213-04:00", "updated_at": "2025-07-03T19:15:50.369-04:00", "avatar": "https://secure.gravatar.com/avatar/d39795c3178bcad5c7280a00faf29731.jpg?s=512&d=https%3A%2F%2Fa.slack-edge.com%2Fdf10d%2Fimg%2Favatars%2Fava_0019-512.png", "custom_css": null}, {"id": 1044, "slack_id": "U091GB0UJG3", "display_name": "Ashesh", "bio": null, "projects_count": 0, "devlogs_count": 0, "votes_count": 0, "ships_count": 0, "projects": [], "coding_time_seconds": 0, "coding_time_seconds_today": 0, "balance": "You need to have a pocket watcher badge to view this.", "badges": [], "created_at": "2025-06-16T12:36:26.434-04:00", "updated_at": "2025-07-03T19:15:50.644-04:00", "avatar": "https://secure.gravatar.com/avatar/1fca19641234dc3381d37925962c6aa3.jpg?s=512&d=https%3A%2F%2Fa.slack-edge.com%2Fdf10d%2Fimg%2Favatars%2Fava_0005-512.png", "custom_css": null}, {"id": 1045, "slack_id": "U09181N6T0X", "display_name": "Divya", "bio": null, "projects_count": 0, "devlogs_count": 0, "votes_count": 0, "ships_count": 0, "projects": [], "coding_time_seconds": 0, "coding_time_seconds_today": 0, "balance": "You need to have a pocket watcher badge to view this.", "badges": [], "created_at": "2025-06-16T12:36:39.378-04:00", "updated_at": "2025-07-03T19:15:50.911-04:00", "avatar": "https://secure.gravatar.com/avatar/711b3753fa8028f85e3a161f04dd0d4e.jpg?s=512&d=https%3A%2F%2Fa.slack-edge.com%2Fdf10d%2Fimg%2Favatars%2Fava_0019-512.png", "custom_css": null}, {"id": 1046, "slack_id": "U0921SQM3S5", "display_name": "Abishek", "bio": null, "projects_count": 0, "devlogs_count": 0, "votes_count": 0, "ships_count": 0, "projects": [], "coding_time_seconds": 77396, "coding_time_seconds_today": 0, "balance": "You need to have a pocket watcher badge to view this.", "badges": [], "created_at": "2025-06-16T12:36:44.222-04:00", "updated_at": "2025-07-03T19:15:51.190-04:00", "avatar": "https://secure.gravatar.com/avatar/3673659240e651138200e0561cf7f117.jpg?s=512&d=https%3A%2F%2Fa.slack-edge.com%2Fdf10d%2Fimg%2Favatars%2Fava_0013-512.png", "custom_css": null}, {"id": 1047, "slack_id": "U06D5V6MNMQ", "display_name": "dinesh", "bio": null, "projects_count": 1, "devlogs_count": 2, "votes_count": 5, "ships_count": 0, "projects": [{"id": 4724, "title": "Racecar!", "devlogs_count": 2, "created_at": "2025-07-01T08:37:49.346-04:00"}], "coding_time_seconds": 169057, "coding_time_seconds_today": 0, "balance": "You need to have a pocket watcher badge to view this.", "badges": [], "created_at": "2025-06-16T12:36:58.736-04:00", "updated_at": "2025-08-25T21:57:59.243-04:00", "avatar": "https://avatars.slack-edge.com/2024-02-18/6645570212775_be16b4ca5c61a0206d37_original.jpg", "custom_css": null}, {"id": 1048, "slack_id": "U09181R5D4P", "display_name": "Shrikant Kushwaha", "bio": null, "projects_count": 0, "devlogs_count": 0, "votes_count": 0, "ships_count": 0, "projects": [], "coding_time_seconds": 0, "coding_time_seconds_today": 0, "balance": "You need to have a pocket watcher badge to view this.", "badges": [], "created_at": "2025-06-16T12:37:09.244-04:00", "updated_at": "2025-07-03T19:15:51.736-04:00", "avatar": "https://secure.gravatar.com/avatar/7160f2c488dd42577be40686cf1c18f5.jpg?s=512&d=https%3A%2F%2Fa.slack-edge.com%2Fdf10d%2Fimg%2Favatars%2Fava_0018-512.png", "custom_css": null}, {"id": 1049, "slack_id": "U092BQPNJ72", "display_name": "Md Ashraf", "bio": null, "projects_count": 0, "devlogs_count": 0, "votes_count": 0, "ships_count": 0, "projects": [], "coding_time_seconds": 0, "coding_time_seconds_today": 0, "balance": "You need to have a pocket watcher badge to view this.", "badges": [], "created_at": "2025-06-16T12:37:11.657-04:00", "updated_at": "2025-07-03T19:15:52.006-04:00", "avatar": "https://avatars.slack-edge.com/2025-06-16/9069943545425_e0b04c3acc79dcfd8916_original.png", "custom_css": null}, {"id": 1050, "slack_id": "U0921TCUFQR", "display_name": "Rishabh", "bio": null, "projects_count": 0, "devlogs_count": 0, "votes_count": 0, "ships_count": 0, "projects": [], "coding_time_seconds": 0, "coding_time_seconds_today": 0, "balance": "You need to have a pocket watcher badge to view this.", "badges": [], "created_at": "2025-06-16T12:37:23.308-04:00", "updated_at": "2025-07-03T19:15:52.282-04:00", "avatar": "https://secure.gravatar.com/avatar/0282dfb41ff395a12082335c74a42f2e.jpg?s=512&d=https%3A%2F%2Fa.slack-edge.com%2Fdf10d%2Fimg%2Favatars%2Fava_0026-512.png", "custom_css": null}, {"id": 1051, "slack_id": "U0921TJ27BK", "display_name": "Igor gomes", "bio": null, "projects_count": 0, "devlogs_count": 0, "votes_count": 0, "ships_count": 0, "projects": [], "coding_time_seconds": 0, "coding_time_seconds_today": 0, "balance": "You need to have a pocket watcher badge to view this.", "badges": [], "created_at": "2025-06-16T12:37:30.407-04:00", "updated_at": "2025-07-03T19:15:52.567-04:00", "avatar": "https://secure.gravatar.com/avatar/c7060531d9a4ee53ca9f70bb4b5f3c9e.jpg?s=512&d=https%3A%2F%2Fa.slack-edge.com%2Fdf10d%2Fimg%2Favatars%2Fava_0009-512.png", "custom_css": null}, {"id": 1052, "slack_id": "U091MHKER1B", "display_name": "drew", "bio": null, "projects_count": 0, "devlogs_count": 0, "votes_count": 0, "ships_count": 0, "projects": [], "coding_time_seconds": 0, "coding_time_seconds_today": 0, "balance": "You need to have a pocket watcher badge to view this.", "badges": [], "created_at": "2025-06-16T12:37:36.774-04:00", "updated_at": "2025-07-03T19:15:52.840-04:00", "avatar": "https://secure.gravatar.com/avatar/190089b58e8a2797331df3686d5838e9.jpg?s=512&d=https%3A%2F%2Fa.slack-edge.com%2Fdf10d%2Fimg%2Favatars%2Fava_0006-512.png", "custom_css": null}, {"id": 1053, "slack_id": "U0825SVHFJL", "display_name": "Scutoid", "bio": "extra for no reason", "projects_count": 7, "devlogs_count": 16, "votes_count": 45, "ships_count": 3, "projects": [{"id": 1977, "title": "Lemini", "devlogs_count": 1, "created_at": "2025-06-19T19:40:32.821-04:00"}, {"id": 2315, "title": "Timex - Stopwatch", "devlogs_count": 0, "created_at": "2025-06-20T17:16:27.524-04:00"}, {"id": 5897, "title": "Glove", "devlogs_count": 1, "created_at": "2025-07-08T23:55:50.079-04:00"}, {"id": 10491, "title": "Daze Browser", "devlogs_count": 1, "created_at": "2025-08-07T13:33:13.855-04:00"}, {"id": 998, "title": "Audial", "devlogs_count": 7, "created_at": "2025-06-17T13:14:22.183-04:00"}, {"id": 4848, "title": "ComOS", "devlogs_count": 1, "created_at": "2025-07-01T22:16:01.445-04:00"}, {"id": 2623, "title": "LWK", "devlogs_count": 5, "created_at": "2025-06-21T13:45:14.501-04:00"}], "coding_time_seconds": 166953, "coding_time_seconds_today": 0, "balance": "You need to have a pocket watcher badge to view this.", "badges": [{"name": "Maiden Voyage", "text": "you shipped your first project! the journey begins...", "icon": "\ud83d\udea2"}, {"name": "Spider", "text": "this user has a pet!", "icon": "\ud83d\udd77\ufe0f"}], "created_at": "2025-06-16T12:37:39.157-04:00", "updated_at": "2025-09-10T22:51:40.836-04:00", "avatar": "https://avatars.slack-edge.com/2025-07-20/9219962004243_ac70c929d691d12a0113_original.jpg", "custom_css": null}, {"id": 1054, "slack_id": "U091GEM9V1C", "display_name": "H\u00e9ctor \u00c1lvarez", "bio": null, "projects_count": 0, "devlogs_count": 0, "votes_count": 0, "ships_count": 0, "projects": [], "coding_time_seconds": 244, "coding_time_seconds_today": 0, "balance": "You need to have a pocket watcher badge to view this.", "badges": [], "created_at": "2025-06-16T12:37:46.259-04:00", "updated_at": "2025-07-03T19:15:53.270-04:00", "avatar": "https://secure.gravatar.com/avatar/313b6cf04fc00478397c8d0ea0d0874c.jpg?s=512&d=https%3A%2F%2Fa.slack-edge.com%2Fdf10d%2Fimg%2Favatars%2Fava_0003-512.png", "custom_css": null}, {"id": 1055, "slack_id": "U09181ZGYCF", "display_name": "Laurin", "bio": null, "projects_count": 0, "devlogs_count": 0, "votes_count": 0, "ships_count": 0, "projects": [], "coding_time_seconds": 3269, "coding_time_seconds_today": 0, "balance": "You need to have a pocket watcher badge to view this.", "badges": [], "created_at": "2025-06-16T12:37:58.434-04:00", "updated_at": "2025-07-03T19:15:53.536-04:00", "avatar": "https://secure.gravatar.com/avatar/05d6d5928a2f352673a0156606ec8880.jpg?s=512&d=https%3A%2F%2Fa.slack-edge.com%2Fdf10d%2Fimg%2Favatars%2Fava_0000-512.png", "custom_css": null}, {"id": 1056, "slack_id": "U09181WU8Q7", "display_name": "Daniel Hall", "bio": null, "projects_count": 1, "devlogs_count": 2, "votes_count": 0, "ships_count": 0, "projects": [{"id": 112, "title": "LLMSender", "devlogs_count": 2, "created_at": "2025-06-16T13:56:20.214-04:00"}], "coding_time_seconds": 71007, "coding_time_seconds_today": 0, "balance": "You need to have a pocket watcher badge to view this.", "badges": [], "created_at": "2025-06-16T12:37:59.470-04:00", "updated_at": "2025-07-03T19:15:53.809-04:00", "avatar": "https://avatars.slack-edge.com/2025-06-17/9042290483655_c2a749b6f8b1a303911d_original.jpg", "custom_css": null}, {"id": 1057, "slack_id": "U091PAEH75G", "display_name": "Shruthika", "bio": null, "projects_count": 0, "devlogs_count": 0, "votes_count": 0, "ships_count": 0, "projects": [], "coding_time_seconds": 71053, "coding_time_seconds_today": 0, "balance": "You need to have a pocket watcher badge to view this.", "badges": [], "created_at": "2025-06-16T12:38:18.803-04:00", "updated_at": "2025-07-03T19:15:54.087-04:00", "avatar": "https://secure.gravatar.com/avatar/e5b5ba88bc1238f259b5af47eb67361a.jpg?s=512&d=https%3A%2F%2Fa.slack-edge.com%2Fdf10d%2Fimg%2Favatars%2Fava_0015-512.png", "custom_css": null}, {"id": 1058, "slack_id": "U080TNHKK32", "display_name": "CodingKitten", "bio": null, "projects_count": 3, "devlogs_count": 25, "votes_count": 42, "ships_count": 3, "projects": [{"id": 12306, "title": "Invio", "devlogs_count": 16, "created_at": "2025-08-25T12:05:40.831-04:00"}, {"id": 13619, "title": "Portfolio site", "devlogs_count": 5, "created_at": "2025-09-21T07:23:19.313-04:00"}, {"id": 7834, "title": "HumanEntropy (Research Site)", "devlogs_count": 1, "created_at": "2025-07-23T08:07:53.948-04:00"}], "coding_time_seconds": 124042, "coding_time_seconds_today": 0, "balance": "You need to have a pocket watcher badge to view this.", "badges": [{"name": "Maiden Voyage", "text": "you shipped your first project! the journey begins...", "icon": "\ud83d\udea2"}], "created_at": "2025-06-16T12:38:22.590-04:00", "updated_at": "2025-09-10T22:51:41.001-04:00", "avatar": "https://avatars.slack-edge.com/2024-11-10/8004921232901_e871c562c11db85cc4c0_original.jpg", "custom_css": null}, {"id": 1059, "slack_id": "U091820TMRD", "display_name": "Kumar Chandra Sheo Narayan", "bio": null, "projects_count": 0, "devlogs_count": 0, "votes_count": 0, "ships_count": 0, "projects": [], "coding_time_seconds": 127763, "coding_time_seconds_today": 0, "balance": "You need to have a pocket watcher badge to view this.", "badges": [], "created_at": "2025-06-16T12:38:33.855-04:00", "updated_at": "2025-07-03T19:15:54.649-04:00", "avatar": "https://avatars.slack-edge.com/2025-06-17/9059480487956_1802833f3245add4ffbe_original.png", "custom_css": null}, {"id": 1060, "slack_id": "U091PPG1RT6", "display_name": "Nayan Pohane", "bio": null, "projects_count": 0, "devlogs_count": 0, "votes_count": 0, "ships_count": 0, "projects": [], "coding_time_seconds": 0, "coding_time_seconds_today": 0, "balance": "You need to have a pocket watcher badge to view this.", "badges": [], "created_at": "2025-06-16T12:38:39.246-04:00", "updated_at": "2025-07-03T19:15:54.921-04:00", "avatar": "https://avatars.slack-edge.com/2025-06-16/9050423123747_3e11c2ec3ebfbd296627_original.png", "custom_css": null}], "pagination": {"page": 53, "pages": 1192, "count": 23827, "items": 20}}