{"users": [{"id": 10581, "slack_id": "U092CV7AU85", "display_name": "opo", "bio": null, "projects_count": 0, "devlogs_count": 0, "votes_count": 0, "ships_count": 0, "projects": [], "coding_time_seconds": 5173, "coding_time_seconds_today": 0, "balance": "You need to have a pocket watcher badge to view this.", "badges": [], "created_at": "2025-06-20T14:57:47.520-04:00", "updated_at": "2025-07-31T12:26:13.597-04:00", "avatar": "https://avatars.slack-edge.com/2025-06-20/9082092263668_7ee46ddab6cc200367a7_original.png", "custom_css": null}, {"id": 10582, "slack_id": "U093223L0L8", "display_name": "rishav", "bio": null, "projects_count": 0, "devlogs_count": 0, "votes_count": 0, "ships_count": 0, "projects": [], "coding_time_seconds": 24718, "coding_time_seconds_today": 0, "balance": "You need to have a pocket watcher badge to view this.", "badges": [], "created_at": "2025-06-20T14:58:23.265-04:00", "updated_at": "2025-07-03T22:01:08.074-04:00", "avatar": "https://secure.gravatar.com/avatar/eee6202893a72e2f93ea73f094cb6616.jpg?s=512&d=https%3A%2F%2Fa.slack-edge.com%2Fdf10d%2Fimg%2Favatars%2Fava_0018-512.png", "custom_css": null}, {"id": 10583, "slack_id": "U091Z2643L7", "display_name": "Mattia", "bio": null, "projects_count": 0, "devlogs_count": 0, "votes_count": 0, "ships_count": 0, "projects": [], "coding_time_seconds": 0, "coding_time_seconds_today": 0, "balance": "You need to have a pocket watcher badge to view this.", "badges": [], "created_at": "2025-06-20T14:59:37.946-04:00", "updated_at": "2025-07-04T08:26:41.495-04:00", "avatar": "https://secure.gravatar.com/avatar/ab60b38729db7a26657607b5d79b0f79.jpg?s=512&d=https%3A%2F%2Fa.slack-edge.com%2Fdf10d%2Fimg%2Favatars%2Fava_0016-512.png", "custom_css": null}, {"id": 10584, "slack_id": "U08DYHEA8U8", "display_name": "seal", "bio": null, "projects_count": 0, "devlogs_count": 0, "votes_count": 0, "ships_count": 0, "projects": [], "coding_time_seconds": 1044, "coding_time_seconds_today": 0, "balance": "You need to have a pocket watcher badge to view this.", "badges": [], "created_at": "2025-06-20T14:59:58.484-04:00", "updated_at": "2025-07-03T19:56:30.997-04:00", "avatar": "https://avatars.slack-edge.com/2025-02-13/8451716369219_85d34b2892020ed8ed2c_original.png", "custom_css": null}, {"id": 10585, "slack_id": "U092DMUFA9G", "display_name": "Moritz Wilhelm", "bio": null, "projects_count": 0, "devlogs_count": 0, "votes_count": 0, "ships_count": 0, "projects": [], "coding_time_seconds": 44223, "coding_time_seconds_today": 3946, "balance": "You need to have a pocket watcher badge to view this.", "badges": [], "created_at": "2025-06-20T15:00:26.127-04:00", "updated_at": "2025-07-03T19:56:31.268-04:00", "avatar": "https://secure.gravatar.com/avatar/fc78fd2169f9546833aede665bb95582.jpg?s=512&d=https%3A%2F%2Fa.slack-edge.com%2Fdf10d%2Fimg%2Favatars%2Fava_0005-512.png", "custom_css": null}, {"id": 10586, "slack_id": "U0927LHUKRC", "display_name": "react", "bio": null, "projects_count": 0, "devlogs_count": 0, "votes_count": 0, "ships_count": 0, "projects": [], "coding_time_seconds": 0, "coding_time_seconds_today": 0, "balance": "You need to have a pocket watcher badge to view this.", "badges": [], "created_at": "2025-06-20T15:01:08.168-04:00", "updated_at": "2025-07-08T02:54:03.672-04:00", "avatar": "https://secure.gravatar.com/avatar/05de874fd4537ee7273469df1e285729.jpg?s=512&d=https%3A%2F%2Fa.slack-edge.com%2Fdf10d%2Fimg%2Favatars%2Fava_0024-512.png", "custom_css": null}, {"id": 10587, "slack_id": "U092D0R4TE1", "display_name": "errico", "bio": null, "projects_count": 0, "devlogs_count": 0, "votes_count": 0, "ships_count": 0, "projects": [], "coding_time_seconds": 19601, "coding_time_seconds_today": 0, "balance": "You need to have a pocket watcher badge to view this.", "badges": [], "created_at": "2025-06-20T15:02:11.816-04:00", "updated_at": "2025-07-03T19:56:31.666-04:00", "avatar": "https://secure.gravatar.com/avatar/822524af1bd9621badbbf7cfb87d1121.jpg?s=512&d=https%3A%2F%2Fa.slack-edge.com%2Fdf10d%2Fimg%2Favatars%2Fava_0019-512.png", "custom_css": null}, {"id": 10588, "slack_id": "U091Z2XU571", "display_name": "rynko", "bio": null, "projects_count": 1, "devlogs_count": 0, "votes_count": 0, "ships_count": 0, "projects": [{"id": 2711, "title": "RAG test setup", "devlogs_count": 0, "created_at": "2025-06-21T19:38:49.657-04:00"}], "coding_time_seconds": 1280, "coding_time_seconds_today": 0, "balance": "You need to have a pocket watcher badge to view this.", "badges": [], "created_at": "2025-06-20T15:03:06.885-04:00", "updated_at": "2025-07-03T19:56:31.932-04:00", "avatar": "https://secure.gravatar.com/avatar/79d904823c6bd7945a5fd4c2ebc2b089.jpg?s=512&d=https%3A%2F%2Fa.slack-edge.com%2Fdf10d%2Fimg%2Favatars%2Fava_0008-512.png", "custom_css": null}, {"id": 10589, "slack_id": "U092D271C4D", "display_name": "Yashika", "bio": null, "projects_count": 1, "devlogs_count": 0, "votes_count": 0, "ships_count": 0, "projects": [{"id": 2612, "title": "meetwise", "devlogs_count": 0, "created_at": "2025-06-21T12:56:21.762-04:00"}], "coding_time_seconds": 24245, "coding_time_seconds_today": 0, "balance": "You need to have a pocket watcher badge to view this.", "badges": [], "created_at": "2025-06-20T15:14:38.782-04:00", "updated_at": "2025-07-03T19:56:32.207-04:00", "avatar": "https://secure.gravatar.com/avatar/8cf7b629880da532219b9694f9a96330.jpg?s=512&d=https%3A%2F%2Fa.slack-edge.com%2Fdf10d%2Fimg%2Favatars%2Fava_0006-512.png", "custom_css": null}, {"id": 10590, "slack_id": "U09274QBNFM", "display_name": "Devin", "bio": "", "projects_count": 7, "devlogs_count": 48, "votes_count": 42, "ships_count": 5, "projects": [{"id": 11664, "title": "BetterTkinter", "devlogs_count": 1, "created_at": "2025-08-18T08:28:28.184-04:00"}, {"id": 11665, "title": "Connecto ", "devlogs_count": 2, "created_at": "2025-08-18T08:36:01.765-04:00"}, {"id": 11667, "title": "InsightLog", "devlogs_count": 1, "created_at": "2025-08-18T08:43:21.414-04:00"}, {"id": 11713, "title": "WidgetDock", "devlogs_count": 0, "created_at": "2025-08-18T16:32:43.574-04:00"}, {"id": 12485, "title": "ChatBox", "devlogs_count": 0, "created_at": "2025-08-28T08:19:36.038-04:00"}, {"id": 11662, "title": "Clipo", "devlogs_count": 2, "created_at": "2025-08-18T08:20:52.601-04:00"}, {"id": 11663, "title": "Velink ", "devlogs_count": 5, "created_at": "2025-08-18T08:24:05.317-04:00"}], "coding_time_seconds": 1138747, "coding_time_seconds_today": 0, "balance": "You need to have a pocket watcher badge to view this.", "badges": [{"name": "Maiden Voyage", "text": "you shipped your first project! the journey begins...", "icon": "\ud83d\udea2"}, {"name": "Ballot Stuffer", "text": "vote 100 times.", "icon": "https://summer.hackclub.com/assets/i_voted-bf851b48.png"}, {"name": "No Fun", "text": "opt-out added for the whimsy-impaired", "icon": "\ud83d\udeab"}], "created_at": "2025-06-20T15:15:28.375-04:00", "updated_at": "2025-09-14T14:16:01.559-04:00", "avatar": "https://avatars.slack-edge.com/2025-09-14/9515497000226_be64be048a5fd2667eb4_original.png", "custom_css": null}, {"id": 10591, "slack_id": "U092D2RMRRT", "display_name": "shif", "bio": null, "projects_count": 0, "devlogs_count": 0, "votes_count": 0, "ships_count": 0, "projects": [], "coding_time_seconds": 0, "coding_time_seconds_today": 0, "balance": "You need to have a pocket watcher badge to view this.", "badges": [], "created_at": "2025-06-20T15:19:06.532-04:00", "updated_at": "2025-07-08T02:54:04.037-04:00", "avatar": "https://secure.gravatar.com/avatar/333b0b2a91a0f75e9a30cca5addf5cf4.jpg?s=512&d=https%3A%2F%2Fa.slack-edge.com%2Fdf10d%2Fimg%2Favatars%2Fava_0023-512.png", "custom_css": null}, {"id": 10592, "slack_id": "U081G35GC65", "display_name": "Linkjt9", "bio": null, "projects_count": 0, "devlogs_count": 0, "votes_count": 0, "ships_count": 0, "projects": [], "coding_time_seconds": 79750, "coding_time_seconds_today": 0, "balance": "You need to have a pocket watcher badge to view this.", "badges": [], "created_at": "2025-06-20T15:20:57.976-04:00", "updated_at": "2025-07-03T19:56:32.861-04:00", "avatar": "https://secure.gravatar.com/avatar/3eb0b58a760eb6b64975f9bbdadde67c.jpg?s=512&d=https%3A%2F%2Fa.slack-edge.com%2Fdf10d%2Fimg%2Favatars%2Fava_0009-512.png", "custom_css": null}, {"id": 10593, "slack_id": "U08B3QGFE6A", "display_name": "yesbecauseno", "bio": null, "projects_count": 0, "devlogs_count": 0, "votes_count": 0, "ships_count": 0, "projects": [], "coding_time_seconds": 38436, "coding_time_seconds_today": 0, "balance": "You need to have a pocket watcher badge to view this.", "badges": [], "created_at": "2025-06-20T15:22:19.789-04:00", "updated_at": "2025-07-03T19:56:33.131-04:00", "avatar": "https://secure.gravatar.com/avatar/4324948a8bb5052dc0d195bed6c01b93.jpg?s=512&d=https%3A%2F%2Fa.slack-edge.com%2Fdf10d%2Fimg%2Favatars%2Fava_0009-512.png", "custom_css": null}, {"id": 10594, "slack_id": "U092SK2G4NM", "display_name": "test", "bio": null, "projects_count": 0, "devlogs_count": 0, "votes_count": 0, "ships_count": 0, "projects": [], "coding_time_seconds": 0, "coding_time_seconds_today": 0, "balance": "You need to have a pocket watcher badge to view this.", "badges": [], "created_at": "2025-06-20T15:23:35.466-04:00", "updated_at": "2025-07-03T19:56:33.407-04:00", "avatar": "https://secure.gravatar.com/avatar/f78747a83951e1a014557b466d1d4a0c.jpg?s=512&d=https%3A%2F%2Fa.slack-edge.com%2Fdf10d%2Fimg%2Favatars%2Fava_0021-512.png", "custom_css": null}, {"id": 10595, "slack_id": "U0927NWKLTY", "display_name": "Ladon", "bio": null, "projects_count": 0, "devlogs_count": 0, "votes_count": 0, "ships_count": 0, "projects": [], "coding_time_seconds": 0, "coding_time_seconds_today": 0, "balance": "You need to have a pocket watcher badge to view this.", "badges": [], "created_at": "2025-06-20T15:25:27.111-04:00", "updated_at": "2025-07-04T02:30:26.435-04:00", "avatar": "https://secure.gravatar.com/avatar/0497d5249fa0b5cadf0c5ca12c39d072.jpg?s=512&d=https%3A%2F%2Fa.slack-edge.com%2Fdf10d%2Fimg%2Favatars%2Fava_0023-512.png", "custom_css": null}, {"id": 10596, "slack_id": "U08NLC41F7A", "display_name": "mars", "bio": null, "projects_count": 0, "devlogs_count": 0, "votes_count": 0, "ships_count": 0, "projects": [], "coding_time_seconds": 0, "coding_time_seconds_today": 0, "balance": "You need to have a pocket watcher badge to view this.", "badges": [], "created_at": "2025-06-20T15:26:40.770-04:00", "updated_at": "2025-07-03T19:56:33.807-04:00", "avatar": "https://avatars.slack-edge.com/2025-04-12/8757474570833_6beceaaad9c1003103ec_original.jpg", "custom_css": null}, {"id": 10597, "slack_id": "U092762SBJP", "display_name": "Jaiden", "bio": null, "projects_count": 1, "devlogs_count": 1, "votes_count": 0, "ships_count": 0, "projects": [{"id": 2337, "title": "Module Overhaul", "devlogs_count": 1, "created_at": "2025-06-20T18:17:37.771-04:00"}], "coding_time_seconds": 351877, "coding_time_seconds_today": 0, "balance": "You need to have a pocket watcher badge to view this.", "badges": [], "created_at": "2025-06-20T15:27:29.944-04:00", "updated_at": "2025-07-03T19:56:34.067-04:00", "avatar": "https://secure.gravatar.com/avatar/36b7e459cf060c5daef695eaac3a507d.jpg?s=512&d=https%3A%2F%2Fa.slack-edge.com%2Fdf10d%2Fimg%2Favatars%2Fava_0018-512.png", "custom_css": null}, {"id": 10598, "slack_id": "U092AH0ASJG", "display_name": "101", "bio": null, "projects_count": 0, "devlogs_count": 0, "votes_count": 0, "ships_count": 0, "projects": [], "coding_time_seconds": 14416, "coding_time_seconds_today": 0, "balance": "You need to have a pocket watcher badge to view this.", "badges": [], "created_at": "2025-06-20T15:28:36.944-04:00", "updated_at": "2025-07-03T19:56:34.334-04:00", "avatar": "https://secure.gravatar.com/avatar/37ef4deac8e1e05c755e27d886dce254.jpg?s=512&d=https%3A%2F%2Fa.slack-edge.com%2Fdf10d%2Fimg%2Favatars%2Fava_0022-512.png", "custom_css": null}, {"id": 10599, "slack_id": "U09276JKJ0K", "display_name": "Aisha I", "bio": null, "projects_count": 0, "devlogs_count": 0, "votes_count": 0, "ships_count": 0, "projects": [], "coding_time_seconds": 0, "coding_time_seconds_today": 0, "balance": "You need to have a pocket watcher badge to view this.", "badges": [], "created_at": "2025-06-20T15:29:05.792-04:00", "updated_at": "2025-07-03T19:56:34.602-04:00", "avatar": "https://secure.gravatar.com/avatar/e841d775fb5acb0a238e8e521ea30775.jpg?s=512&d=https%3A%2F%2Fa.slack-edge.com%2Fdf10d%2Fimg%2Favatars%2Fava_0008-512.png", "custom_css": null}, {"id": 10600, "slack_id": "U07FBAMDV3N", "display_name": "Timothy Nguyen", "bio": null, "projects_count": 0, "devlogs_count": 0, "votes_count": 0, "ships_count": 0, "projects": [], "coding_time_seconds": 0, "coding_time_seconds_today": 0, "balance": "You need to have a pocket watcher badge to view this.", "badges": [], "created_at": "2025-06-20T15:29:38.381-04:00", "updated_at": "2025-07-03T19:56:34.870-04:00", "avatar": "https://secure.gravatar.com/avatar/41376e8fb53fdd7646d71ac214a97729.jpg?s=512&d=https%3A%2F%2Fa.slack-edge.com%2Fdf10d%2Fimg%2Favatars%2Fava_0001-512.png", "custom_css": null}], "pagination": {"page": 530, "pages": 1192, "count": 23828, "items": 20}}