{"users": [{"id": 10601, "slack_id": "U07V7T93RHN", "display_name": "Hari Masalawala", "bio": null, "projects_count": 0, "devlogs_count": 0, "votes_count": 0, "ships_count": 0, "projects": [], "coding_time_seconds": 0, "coding_time_seconds_today": 0, "balance": "You need to have a pocket watcher badge to view this.", "badges": [], "created_at": "2025-06-20T15:32:24.075-04:00", "updated_at": "2025-07-03T19:56:35.135-04:00", "avatar": "https://avatars.slack-edge.com/2024-11-01/7971136575234_1f8f64c0022f2f405972_original.png", "custom_css": null}, {"id": 10602, "slack_id": "U092D4JD03X", "display_name": "Jullian", "bio": null, "projects_count": 1, "devlogs_count": 3, "votes_count": 0, "ships_count": 0, "projects": [{"id": 2715, "title": "CLI-todo", "devlogs_count": 3, "created_at": "2025-06-21T20:43:26.964-04:00"}], "coding_time_seconds": 37643, "coding_time_seconds_today": 0, "balance": "You need to have a pocket watcher badge to view this.", "badges": [], "created_at": "2025-06-20T15:34:54.867-04:00", "updated_at": "2025-07-03T19:56:35.408-04:00", "avatar": "https://avatars.slack-edge.com/2025-06-20/9075840096902_8bc86c1c27588efd1e9b_original.jpg", "custom_css": null}, {"id": 10603, "slack_id": "U092E6W4QGL", "display_name": "Konja", "bio": null, "projects_count": 4, "devlogs_count": 18, "votes_count": 40, "ships_count": 3, "projects": [{"id": 4365, "title": "CodeRace", "devlogs_count": 2, "created_at": "2025-06-29T10:53:31.263-04:00"}, {"id": 8755, "title": "ProjektManager ", "devlogs_count": 1, "created_at": "2025-07-29T05:48:31.733-04:00"}, {"id": 5001, "title": "Diary", "devlogs_count": 6, "created_at": "2025-07-02T16:07:04.752-04:00"}, {"id": 2291, "title": "Personal - Dashboard", "devlogs_count": 9, "created_at": "2025-06-20T16:24:55.850-04:00"}], "coding_time_seconds": 239907, "coding_time_seconds_today": 0, "balance": "You need to have a pocket watcher badge to view this.", "badges": [{"name": "Maiden Voyage", "text": "you shipped your first project! the journey begins...", "icon": "\ud83d\udea2"}], "created_at": "2025-06-20T15:35:14.548-04:00", "updated_at": "2025-09-10T22:56:27.876-04:00", "avatar": "https://secure.gravatar.com/avatar/c073d4a5a89b6926a147a1f819587021.jpg?s=512&d=https%3A%2F%2Fa.slack-edge.com%2Fdf10d%2Fimg%2Favatars%2Fava_0022-512.png", "custom_css": null}, {"id": 10604, "slack_id": "U092E79V7EG", "display_name": "test", "bio": null, "projects_count": 0, "devlogs_count": 0, "votes_count": 0, "ships_count": 0, "projects": [], "coding_time_seconds": 0, "coding_time_seconds_today": 0, "balance": "You need to have a pocket watcher badge to view this.", "badges": [], "created_at": "2025-06-20T15:39:32.464-04:00", "updated_at": "2025-07-03T19:56:35.956-04:00", "avatar": "https://secure.gravatar.com/avatar/dca4d901731ce27e119d4f49dea637c1.jpg?s=512&d=https%3A%2F%2Fa.slack-edge.com%2Fdf10d%2Fimg%2Favatars%2Fava_0000-512.png", "custom_css": null}, {"id": 10605, "slack_id": "U07BWRCNBQW", "display_name": "giragon", "bio": null, "projects_count": 0, "devlogs_count": 0, "votes_count": 0, "ships_count": 0, "projects": [], "coding_time_seconds": 992205, "coding_time_seconds_today": 0, "balance": "You need to have a pocket watcher badge to view this.", "badges": [], "created_at": "2025-06-20T15:43:52.604-04:00", "updated_at": "2025-08-12T15:12:13.298-04:00", "avatar": "https://avatars.slack-edge.com/2024-07-30/7505350396324_d730d98ce4c663f26267_original.jpg", "custom_css": null}, {"id": 10606, "slack_id": "U0927RG9LCW", "display_name": "Ethan", "bio": null, "projects_count": 0, "devlogs_count": 0, "votes_count": 0, "ships_count": 0, "projects": [], "coding_time_seconds": 0, "coding_time_seconds_today": 0, "balance": "You need to have a pocket watcher badge to view this.", "badges": [], "created_at": "2025-06-20T15:44:51.853-04:00", "updated_at": "2025-07-03T19:56:36.360-04:00", "avatar": "https://secure.gravatar.com/avatar/c3e67e027121722768832c681054777c.jpg?s=512&d=https%3A%2F%2Fa.slack-edge.com%2Fdf10d%2Fimg%2Favatars%2Fava_0008-512.png", "custom_css": null}, {"id": 10607, "slack_id": "U082VB2T61Y", "display_name": "Jeromos Kov\u00e1cs", "bio": null, "projects_count": 0, "devlogs_count": 0, "votes_count": 0, "ships_count": 0, "projects": [], "coding_time_seconds": 0, "coding_time_seconds_today": 0, "balance": "You need to have a pocket watcher badge to view this.", "badges": [], "created_at": "2025-06-20T15:48:11.549-04:00", "updated_at": "2025-07-03T19:56:36.620-04:00", "avatar": "https://secure.gravatar.com/avatar/0a536bd7dfd8adb00b5ac62918a5746d.jpg?s=512&d=https%3A%2F%2Fa.slack-edge.com%2Fdf10d%2Fimg%2Favatars%2Fava_0018-512.png", "custom_css": null}, {"id": 10608, "slack_id": "U0927R9FTGW", "display_name": "Omar Movilla", "bio": null, "projects_count": 0, "devlogs_count": 0, "votes_count": 0, "ships_count": 0, "projects": [], "coding_time_seconds": 0, "coding_time_seconds_today": 0, "balance": "You need to have a pocket watcher badge to view this.", "badges": [], "created_at": "2025-06-20T15:48:40.272-04:00", "updated_at": "2025-07-04T02:30:27.316-04:00", "avatar": "https://secure.gravatar.com/avatar/e73cf9e90367f42521d81ec6c14052c4.jpg?s=512&d=https%3A%2F%2Fa.slack-edge.com%2Fdf10d%2Fimg%2Favatars%2Fava_0004-512.png", "custom_css": null}, {"id": 10609, "slack_id": "U092DTUK3BL", "display_name": "Zekeriya AY", "bio": null, "projects_count": 1, "devlogs_count": 1, "votes_count": 0, "ships_count": 0, "projects": [{"id": 2278, "title": "Track Your Financial Journey", "devlogs_count": 1, "created_at": "2025-06-20T16:06:16.105-04:00"}], "coding_time_seconds": 10479, "coding_time_seconds_today": 0, "balance": "You need to have a pocket watcher badge to view this.", "badges": [], "created_at": "2025-06-20T15:48:42.918-04:00", "updated_at": "2025-07-11T16:00:45.706-04:00", "avatar": "https://secure.gravatar.com/avatar/4dcdadb40c0204e8e0ac993904f6e44e.jpg?s=512&d=https%3A%2F%2Fa.slack-edge.com%2Fdf10d%2Fimg%2Favatars%2Fava_0017-512.png", "custom_css": null}, {"id": 10610, "slack_id": "U09279BJU3D", "display_name": "StuffC0des", "bio": null, "projects_count": 2, "devlogs_count": 3, "votes_count": 8, "ships_count": 0, "projects": [{"id": 4274, "title": "iOSBreak", "devlogs_count": 1, "created_at": "2025-06-28T15:51:06.129-04:00"}, {"id": 3583, "title": "vertual aquerieum", "devlogs_count": 2, "created_at": "2025-06-24T19:48:15.471-04:00"}], "coding_time_seconds": 69484, "coding_time_seconds_today": 0, "balance": "You need to have a pocket watcher badge to view this.", "badges": [], "created_at": "2025-06-20T15:55:17.844-04:00", "updated_at": "2025-08-12T20:54:27.758-04:00", "avatar": "https://avatars.slack-edge.com/2025-08-12/9342775130917_0abd83a3a789efb85408_original.webp", "custom_css": null}, {"id": 10611, "slack_id": "U092SP10L8Z", "display_name": "E", "bio": null, "projects_count": 1, "devlogs_count": 48, "votes_count": 1, "ships_count": 0, "projects": [{"id": 2678, "title": "for the galaxy", "devlogs_count": 48, "created_at": "2025-06-21T16:34:58.102-04:00"}], "coding_time_seconds": 457125, "coding_time_seconds_today": 0, "balance": "You need to have a pocket watcher badge to view this.", "badges": [], "created_at": "2025-06-20T15:59:23.504-04:00", "updated_at": "2025-08-01T17:09:15.610-04:00", "avatar": "https://secure.gravatar.com/avatar/f643722cc418e029e99e9e570ad3ddaf.jpg?s=512&d=https%3A%2F%2Fa.slack-edge.com%2Fdf10d%2Fimg%2Favatars%2Fava_0001-512.png", "custom_css": null}, {"id": 10612, "slack_id": "U09279T57DH", "display_name": "JacobH", "bio": null, "projects_count": 1, "devlogs_count": 1, "votes_count": 0, "ships_count": 0, "projects": [{"id": 5617, "title": "Building a bot to solve worlde", "devlogs_count": 1, "created_at": "2025-07-06T15:18:35.690-04:00"}], "coding_time_seconds": 7323, "coding_time_seconds_today": 0, "balance": "You need to have a pocket watcher badge to view this.", "badges": [], "created_at": "2025-06-20T16:01:17.954-04:00", "updated_at": "2025-07-03T19:56:37.582-04:00", "avatar": "https://secure.gravatar.com/avatar/db4a56bc4d211ebb919aaaccd268d811.jpg?s=512&d=https%3A%2F%2Fa.slack-edge.com%2Fdf10d%2Fimg%2Favatars%2Fava_0015-512.png", "custom_css": null}, {"id": 10613, "slack_id": "U092E9SRZ7E", "display_name": "SWetivs", "bio": null, "projects_count": 3, "devlogs_count": 3, "votes_count": 0, "ships_count": 0, "projects": [{"id": 2697, "title": "Neural Chat Companion: AI-Powered Customer Interaction Bot", "devlogs_count": 1, "created_at": "2025-06-21T17:42:46.691-04:00"}, {"id": 2823, "title": "Learning HTML Basics \u2013 Course Exercises", "devlogs_count": 1, "created_at": "2025-06-22T06:51:09.466-04:00"}, {"id": 2918, "title": "Birthday Invitation \u2013 Intermediate HTML Project", "devlogs_count": 1, "created_at": "2025-06-22T13:01:42.880-04:00"}], "coding_time_seconds": 42725, "coding_time_seconds_today": 0, "balance": "You need to have a pocket watcher badge to view this.", "badges": [], "created_at": "2025-06-20T16:01:45.895-04:00", "updated_at": "2025-07-03T19:56:37.850-04:00", "avatar": "https://avatars.slack-edge.com/2025-06-22/9098894587873_b1eb6103ce204eb8f7fe_original.jpg", "custom_css": null}, {"id": 10614, "slack_id": "U092SQ6PQCR", "display_name": "redbackspider77", "bio": null, "projects_count": 2, "devlogs_count": 6, "votes_count": 27, "ships_count": 1, "projects": [{"id": 3788, "title": "Wordle Analytics", "devlogs_count": 3, "created_at": "2025-06-25T18:35:27.539-04:00"}, {"id": 3562, "title": "Emoji Copy Extension", "devlogs_count": 3, "created_at": "2025-06-24T17:28:40.486-04:00"}], "coding_time_seconds": 114180, "coding_time_seconds_today": 0, "balance": "You need to have a pocket watcher badge to view this.", "badges": [{"name": "Maiden Voyage", "text": "you shipped your first project! the journey begins...", "icon": "\ud83d\udea2"}], "created_at": "2025-06-20T16:07:22.236-04:00", "updated_at": "2025-09-10T22:56:28.213-04:00", "avatar": "https://avatars.slack-edge.com/2025-08-16/9350831059047_206cc5db65e326ca6389_original.png", "custom_css": null}, {"id": 10615, "slack_id": "U092EB6BGUC", "display_name": "Amine", "bio": null, "projects_count": 0, "devlogs_count": 0, "votes_count": 0, "ships_count": 0, "projects": [], "coding_time_seconds": 0, "coding_time_seconds_today": 0, "balance": "You need to have a pocket watcher badge to view this.", "badges": [], "created_at": "2025-06-20T16:11:21.340-04:00", "updated_at": "2025-07-03T19:56:38.383-04:00", "avatar": "https://secure.gravatar.com/avatar/5559a2c462bd7518063de18b16658c6c.jpg?s=512&d=https%3A%2F%2Fa.slack-edge.com%2Fdf10d%2Fimg%2Favatars%2Fava_0004-512.png", "custom_css": null}, {"id": 10616, "slack_id": "U092SQB1YKT", "display_name": "Lux", "bio": null, "projects_count": 0, "devlogs_count": 0, "votes_count": 0, "ships_count": 0, "projects": [], "coding_time_seconds": 0, "coding_time_seconds_today": 0, "balance": "You need to have a pocket watcher badge to view this.", "badges": [], "created_at": "2025-06-20T16:11:32.632-04:00", "updated_at": "2025-07-03T19:56:38.647-04:00", "avatar": "https://secure.gravatar.com/avatar/40c380d3fb14912b0dc91ca0de7c31d5.jpg?s=512&d=https%3A%2F%2Fa.slack-edge.com%2Fdf10d%2Fimg%2Favatars%2Fava_0010-512.png", "custom_css": null}, {"id": 10617, "slack_id": "U0927NCUA3Y", "display_name": "Reuben Roy", "bio": null, "projects_count": 1, "devlogs_count": 0, "votes_count": 0, "ships_count": 0, "projects": [{"id": 2295, "title": "Explosion-Fun", "devlogs_count": 0, "created_at": "2025-06-20T16:36:41.393-04:00"}], "coding_time_seconds": 14999, "coding_time_seconds_today": 0, "balance": "You need to have a pocket watcher badge to view this.", "badges": [], "created_at": "2025-06-20T16:12:36.338-04:00", "updated_at": "2025-07-03T22:01:10.566-04:00", "avatar": "https://avatars.slack-edge.com/2025-06-22/9107914804160_48535e5e83d343a85e1d_original.jpg", "custom_css": null}, {"id": 10618, "slack_id": "U091YTPP66A", "display_name": "Jao", "bio": null, "projects_count": 0, "devlogs_count": 0, "votes_count": 0, "ships_count": 0, "projects": [], "coding_time_seconds": 0, "coding_time_seconds_today": 0, "balance": "You need to have a pocket watcher badge to view this.", "badges": [], "created_at": "2025-06-20T16:14:43.588-04:00", "updated_at": "2025-07-05T20:12:15.215-04:00", "avatar": "https://secure.gravatar.com/avatar/aa36f6ddb3bdf04cd217c427511fc861.jpg?s=512&d=https%3A%2F%2Fa.slack-edge.com%2Fdf10d%2Fimg%2Favatars%2Fava_0003-512.png", "custom_css": null}, {"id": 10619, "slack_id": "U09233728CB", "display_name": "Muhammad Imran", "bio": null, "projects_count": 0, "devlogs_count": 0, "votes_count": 0, "ships_count": 0, "projects": [], "coding_time_seconds": 245983, "coding_time_seconds_today": 0, "balance": "You need to have a pocket watcher badge to view this.", "badges": [], "created_at": "2025-06-20T16:16:36.027-04:00", "updated_at": "2025-07-03T19:56:39.213-04:00", "avatar": "https://secure.gravatar.com/avatar/34ae5af03ce67e373e3d0de69c670464.jpg?s=512&d=https%3A%2F%2Fa.slack-edge.com%2Fdf10d%2Fimg%2Favatars%2Fava_0009-512.png", "custom_css": null}, {"id": 10620, "slack_id": "U091ZBJV13R", "display_name": "Bobo", "bio": null, "projects_count": 0, "devlogs_count": 0, "votes_count": 0, "ships_count": 0, "projects": [], "coding_time_seconds": 171, "coding_time_seconds_today": 0, "balance": "You need to have a pocket watcher badge to view this.", "badges": [], "created_at": "2025-06-20T16:20:02.960-04:00", "updated_at": "2025-07-03T19:56:39.493-04:00", "avatar": "https://secure.gravatar.com/avatar/ec8a09b6b780e3c9cf10770f1a0262d1.jpg?s=512&d=https%3A%2F%2Fa.slack-edge.com%2Fdf10d%2Fimg%2Favatars%2Fava_0007-512.png", "custom_css": null}], "pagination": {"page": 531, "pages": 1192, "count": 23828, "items": 20}}