{"users": [{"id": 10621, "slack_id": "U092D9N8ASZ", "display_name": "Gian Iglowstein", "bio": null, "projects_count": 0, "devlogs_count": 0, "votes_count": 0, "ships_count": 0, "projects": [], "coding_time_seconds": 7530, "coding_time_seconds_today": 0, "balance": "You need to have a pocket watcher badge to view this.", "badges": [], "created_at": "2025-06-20T16:20:50.408-04:00", "updated_at": "2025-07-04T20:11:19.285-04:00", "avatar": "https://secure.gravatar.com/avatar/deecec8b66bccdf1a40a2b2e4f6d374d.jpg?s=512&d=https%3A%2F%2Fa.slack-edge.com%2Fdf10d%2Fimg%2Favatars%2Fava_0011-512.png", "custom_css": null}, {"id": 10622, "slack_id": "U092EC6SWEQ", "display_name": "idris", "bio": null, "projects_count": 0, "devlogs_count": 0, "votes_count": 0, "ships_count": 0, "projects": [], "coding_time_seconds": 0, "coding_time_seconds_today": 0, "balance": "You need to have a pocket watcher badge to view this.", "badges": [], "created_at": "2025-06-20T16:21:28.840-04:00", "updated_at": "2025-07-04T02:30:28.213-04:00", "avatar": "https://secure.gravatar.com/avatar/0649e8401f9314b85a906731fceb8a19.jpg?s=512&d=https%3A%2F%2Fa.slack-edge.com%2Fdf10d%2Fimg%2Favatars%2Fava_0010-512.png", "custom_css": null}, {"id": 10623, "slack_id": "U07T4RP7BNH", "display_name": "ricky-lc", "bio": null, "projects_count": 0, "devlogs_count": 0, "votes_count": 0, "ships_count": 0, "projects": [], "coding_time_seconds": 0, "coding_time_seconds_today": 0, "balance": "You need to have a pocket watcher badge to view this.", "badges": [], "created_at": "2025-06-20T16:23:01.181-04:00", "updated_at": "2025-07-03T19:56:40.033-04:00", "avatar": "https://secure.gravatar.com/avatar/ecd1c2da3a70825452a9a84d5440022c.jpg?s=512&d=https%3A%2F%2Fa.slack-edge.com%2Fdf10d%2Fimg%2Favatars%2Fava_0015-512.png", "custom_css": null}, {"id": 10624, "slack_id": "U07BK6UEKV0", "display_name": "Eric Wang", "bio": null, "projects_count": 0, "devlogs_count": 0, "votes_count": 0, "ships_count": 0, "projects": [], "coding_time_seconds": 65489, "coding_time_seconds_today": 0, "balance": "You need to have a pocket watcher badge to view this.", "badges": [], "created_at": "2025-06-20T16:24:19.018-04:00", "updated_at": "2025-08-15T23:11:38.715-04:00", "avatar": "https://secure.gravatar.com/avatar/f3e39b5988ab77036469c66eee4fe08f.jpg?s=512&d=https%3A%2F%2Fa.slack-edge.com%2Fdf10d%2Fimg%2Favatars%2Fava_0023-512.png", "custom_css": null}, {"id": 10625, "slack_id": "U0932B538QY", "display_name": "Clayton Mo", "bio": null, "projects_count": 0, "devlogs_count": 0, "votes_count": 1, "ships_count": 0, "projects": [], "coding_time_seconds": 32744, "coding_time_seconds_today": 0, "balance": "You need to have a pocket watcher badge to view this.", "badges": [], "created_at": "2025-06-20T16:26:27.718-04:00", "updated_at": "2025-07-05T14:13:20.046-04:00", "avatar": "https://secure.gravatar.com/avatar/1e6a67567dddcf555e0227ef9164094f.jpg?s=512&d=https%3A%2F%2Fa.slack-edge.com%2Fdf10d%2Fimg%2Favatars%2Fava_0013-512.png", "custom_css": null}, {"id": 10626, "slack_id": "U0927CYBM2P", "display_name": "Aniket Sahu", "bio": null, "projects_count": 0, "devlogs_count": 0, "votes_count": 0, "ships_count": 0, "projects": [], "coding_time_seconds": 38075, "coding_time_seconds_today": 0, "balance": "You need to have a pocket watcher badge to view this.", "badges": [], "created_at": "2025-06-20T16:28:00.402-04:00", "updated_at": "2025-07-03T19:56:40.697-04:00", "avatar": "https://secure.gravatar.com/avatar/77ffc3423e062737860a5f98183a5373.jpg?s=512&d=https%3A%2F%2Fa.slack-edge.com%2Fdf10d%2Fimg%2Favatars%2Fava_0000-512.png", "custom_css": null}, {"id": 10627, "slack_id": "U08J8BCR9DJ", "display_name": "Anas Elwasifi", "bio": null, "projects_count": 1, "devlogs_count": 7, "votes_count": 25, "ships_count": 1, "projects": [{"id": 2546, "title": "Making a program that estimates the shapes of molecules", "devlogs_count": 7, "created_at": "2025-06-21T09:23:10.910-04:00"}], "coding_time_seconds": 218521, "coding_time_seconds_today": 0, "balance": "You need to have a pocket watcher badge to view this.", "badges": [{"name": "Maiden Voyage", "text": "you shipped your first project! the journey begins...", "icon": "\ud83d\udea2"}], "created_at": "2025-06-20T16:30:10.826-04:00", "updated_at": "2025-09-10T22:56:28.622-04:00", "avatar": "https://avatars.slack-edge.com/2025-03-17/8601629903143_70ef670b7ee4e72701a0_original.jpg", "custom_css": null}, {"id": 10628, "slack_id": "U092DAWUJJZ", "display_name": "Tanmay Deep Singh Dhanjal", "bio": null, "projects_count": 0, "devlogs_count": 0, "votes_count": 0, "ships_count": 0, "projects": [], "coding_time_seconds": 0, "coding_time_seconds_today": 0, "balance": "You need to have a pocket watcher badge to view this.", "badges": [], "created_at": "2025-06-20T16:33:36.940-04:00", "updated_at": "2025-07-03T19:56:41.213-04:00", "avatar": "https://secure.gravatar.com/avatar/b8bef383d9c6c6dabf6bafa971f8d65e.jpg?s=512&d=https%3A%2F%2Fa.slack-edge.com%2Fdf10d%2Fimg%2Favatars%2Fava_0022-512.png", "custom_css": null}, {"id": 10629, "slack_id": "U091ZDC9UF9", "display_name": "Muffin", "bio": null, "projects_count": 0, "devlogs_count": 0, "votes_count": 0, "ships_count": 0, "projects": [], "coding_time_seconds": 27760, "coding_time_seconds_today": 0, "balance": "You need to have a pocket watcher badge to view this.", "badges": [], "created_at": "2025-06-20T16:35:39.672-04:00", "updated_at": "2025-07-03T19:56:41.499-04:00", "avatar": "https://secure.gravatar.com/avatar/b57ca46a23af48f955924ea9d3f6a026.jpg?s=512&d=https%3A%2F%2Fa.slack-edge.com%2Fdf10d%2Fimg%2Favatars%2Fava_0016-512.png", "custom_css": null}, {"id": 10630, "slack_id": "U08234K7PK7", "display_name": "Annie", "bio": null, "projects_count": 2, "devlogs_count": 4, "votes_count": 0, "ships_count": 0, "projects": [{"id": 2722, "title": "Tribute to Clannad", "devlogs_count": 1, "created_at": "2025-06-21T21:23:51.305-04:00"}, {"id": 2738, "title": "Annie's Website", "devlogs_count": 3, "created_at": "2025-06-21T23:03:48.875-04:00"}], "coding_time_seconds": 96944, "coding_time_seconds_today": 0, "balance": "You need to have a pocket watcher badge to view this.", "badges": [], "created_at": "2025-06-20T16:37:35.328-04:00", "updated_at": "2025-07-03T22:01:11.376-04:00", "avatar": "https://secure.gravatar.com/avatar/9dbba3b84d87fd5f40da90e4046bd44e.jpg?s=512&d=https%3A%2F%2Fa.slack-edge.com%2Fdf10d%2Fimg%2Favatars%2Fava_0023-512.png", "custom_css": null}, {"id": 10631, "slack_id": "U092E3X08M8", "display_name": "Sandeep Poudel", "bio": null, "projects_count": 0, "devlogs_count": 0, "votes_count": 0, "ships_count": 0, "projects": [], "coding_time_seconds": 0, "coding_time_seconds_today": 0, "balance": "You need to have a pocket watcher badge to view this.", "badges": [], "created_at": "2025-06-20T16:38:35.989-04:00", "updated_at": "2025-07-03T19:56:41.928-04:00", "avatar": "https://secure.gravatar.com/avatar/9b4c30cf0a1125c4f1047c76aa8cafee.jpg?s=512&d=https%3A%2F%2Fa.slack-edge.com%2Fdf10d%2Fimg%2Favatars%2Fava_0001-512.png", "custom_css": null}, {"id": 10632, "slack_id": "U0932CM7R1N", "display_name": "Evelyn Keefner", "bio": null, "projects_count": 0, "devlogs_count": 0, "votes_count": 0, "ships_count": 0, "projects": [], "coding_time_seconds": 0, "coding_time_seconds_today": 0, "balance": "You need to have a pocket watcher badge to view this.", "badges": [], "created_at": "2025-06-20T16:39:12.194-04:00", "updated_at": "2025-07-04T02:30:29.327-04:00", "avatar": "https://secure.gravatar.com/avatar/9df9f71cc97a8e1e79095ade51ddd739.jpg?s=512&d=https%3A%2F%2Fa.slack-edge.com%2Fdf10d%2Fimg%2Favatars%2Fava_0022-512.png", "custom_css": null}, {"id": 10633, "slack_id": "U0927EESKK5", "display_name": "doctor112-1", "bio": null, "projects_count": 4, "devlogs_count": 18, "votes_count": 23, "ships_count": 1, "projects": [{"id": 2660, "title": "Raw Webassembly Guide", "devlogs_count": 3, "created_at": "2025-06-21T15:31:20.725-04:00"}, {"id": 12518, "title": "libgit2-wasm", "devlogs_count": 2, "created_at": "2025-08-28T22:46:39.632-04:00"}, {"id": 13220, "title": "hamsta", "devlogs_count": 6, "created_at": "2025-09-12T00:38:56.006-04:00"}, {"id": 6624, "title": "Hamster Vote", "devlogs_count": 6, "created_at": "2025-07-14T15:52:14.322-04:00"}], "coding_time_seconds": 308505, "coding_time_seconds_today": 0, "balance": "You need to have a pocket watcher badge to view this.", "badges": [{"name": "Maiden Voyage", "text": "you shipped your first project! the journey begins...", "icon": "\ud83d\udea2"}], "created_at": "2025-06-20T16:42:23.080-04:00", "updated_at": "2025-09-10T22:56:28.789-04:00", "avatar": "https://secure.gravatar.com/avatar/f6251681464279c28a13b23c850968c9.jpg?s=512&d=https%3A%2F%2Fa.slack-edge.com%2Fdf10d%2Fimg%2Favatars%2Fava_0015-512.png", "custom_css": null}, {"id": 10634, "slack_id": "U092E4QVB4J", "display_name": "Mohammed", "bio": null, "projects_count": 0, "devlogs_count": 0, "votes_count": 0, "ships_count": 0, "projects": [], "coding_time_seconds": 16277, "coding_time_seconds_today": 0, "balance": "You need to have a pocket watcher badge to view this.", "badges": [], "created_at": "2025-06-20T16:47:09.733-04:00", "updated_at": "2025-07-03T19:56:42.473-04:00", "avatar": "https://secure.gravatar.com/avatar/08e7592f6ba18260d080f71a75f573ca.jpg?s=512&d=https%3A%2F%2Fa.slack-edge.com%2Fdf10d%2Fimg%2Favatars%2Fava_0017-512.png", "custom_css": null}, {"id": 10635, "slack_id": "U092E5Z6HM0", "display_name": "Lintang Dwi Cahyo", "bio": null, "projects_count": 0, "devlogs_count": 0, "votes_count": 0, "ships_count": 0, "projects": [], "coding_time_seconds": 0, "coding_time_seconds_today": 0, "balance": "You need to have a pocket watcher badge to view this.", "badges": [], "created_at": "2025-06-20T16:57:57.735-04:00", "updated_at": "2025-07-03T19:56:42.735-04:00", "avatar": "https://avatars.slack-edge.com/2025-06-20/9082556250260_fb62580bb54270f573b3_original.jpg", "custom_css": null}, {"id": 10636, "slack_id": "U091Q15T076", "display_name": "Rohaan Erodas Ahmed", "bio": null, "projects_count": 0, "devlogs_count": 0, "votes_count": 0, "ships_count": 0, "projects": [], "coding_time_seconds": 0, "coding_time_seconds_today": 0, "balance": "You need to have a pocket watcher badge to view this.", "badges": [], "created_at": "2025-06-20T16:58:18.077-04:00", "updated_at": "2025-07-06T08:11:27.577-04:00", "avatar": "https://avatars.slack-edge.com/2025-06-20/9081469502341_9e6fb58438c2016e5c47_original.jpg", "custom_css": null}, {"id": 10637, "slack_id": "U0927CAJ45S", "display_name": "Silvia Wu", "bio": null, "projects_count": 0, "devlogs_count": 0, "votes_count": 0, "ships_count": 0, "projects": [], "coding_time_seconds": 0, "coding_time_seconds_today": 0, "balance": "You need to have a pocket watcher badge to view this.", "badges": [], "created_at": "2025-06-20T16:58:42.080-04:00", "updated_at": "2025-07-03T22:01:12.562-04:00", "avatar": "https://avatars.slack-edge.com/2025-06-20/9095014573985_bd0e437fdbb75b169c3c_original.jpg", "custom_css": null}, {"id": 10638, "slack_id": "U092T0VD3H7", "display_name": "Mohid", "bio": null, "projects_count": 0, "devlogs_count": 0, "votes_count": 0, "ships_count": 0, "projects": [], "coding_time_seconds": 0, "coding_time_seconds_today": 0, "balance": "You need to have a pocket watcher badge to view this.", "badges": [], "created_at": "2025-06-20T17:05:01.906-04:00", "updated_at": "2025-07-03T19:56:43.275-04:00", "avatar": "https://secure.gravatar.com/avatar/8841d1d45dca39a3724e29e49500c902.jpg?s=512&d=https%3A%2F%2Fa.slack-edge.com%2Fdf10d%2Fimg%2Favatars%2Fava_0004-512.png", "custom_css": null}, {"id": 10639, "slack_id": "U0927HM6AHH", "display_name": "Saurav Kumar", "bio": null, "projects_count": 0, "devlogs_count": 0, "votes_count": 0, "ships_count": 0, "projects": [], "coding_time_seconds": 0, "coding_time_seconds_today": 0, "balance": "You need to have a pocket watcher badge to view this.", "badges": [], "created_at": "2025-06-20T17:13:09.121-04:00", "updated_at": "2025-07-04T08:26:45.291-04:00", "avatar": "https://secure.gravatar.com/avatar/6b5171c6080c17e611ba851adff4328a.jpg?s=512&d=https%3A%2F%2Fa.slack-edge.com%2Fdf10d%2Fimg%2Favatars%2Fava_0026-512.png", "custom_css": null}, {"id": 10640, "slack_id": "U091ZH8SJ23", "display_name": "maaa", "bio": null, "projects_count": 0, "devlogs_count": 0, "votes_count": 0, "ships_count": 0, "projects": [], "coding_time_seconds": 29933, "coding_time_seconds_today": 0, "balance": "You need to have a pocket watcher badge to view this.", "badges": [], "created_at": "2025-06-20T17:20:49.048-04:00", "updated_at": "2025-07-04T02:30:29.926-04:00", "avatar": "https://secure.gravatar.com/avatar/15d3e023bf494c49ba141e1d36815b13.jpg?s=512&d=https%3A%2F%2Fa.slack-edge.com%2Fdf10d%2Fimg%2Favatars%2Fava_0001-512.png", "custom_css": null}], "pagination": {"page": 532, "pages": 1192, "count": 23828, "items": 20}}