{"users": [{"id": 10641, "slack_id": "U0927JJEGQ3", "display_name": "a", "bio": null, "projects_count": 0, "devlogs_count": 0, "votes_count": 0, "ships_count": 0, "projects": [], "coding_time_seconds": 0, "coding_time_seconds_today": 0, "balance": "You need to have a pocket watcher badge to view this.", "badges": [], "created_at": "2025-06-20T17:24:03.993-04:00", "updated_at": "2025-07-03T19:56:43.885-04:00", "avatar": "https://secure.gravatar.com/avatar/43c019fcdef2f8b905d8452090f354f3.jpg?s=512&d=https%3A%2F%2Fa.slack-edge.com%2Fdf10d%2Fimg%2Favatars%2Fava_0015-512.png", "custom_css": null}, {"id": 10642, "slack_id": "U0927JQEU11", "display_name": "Raufun Ahsan", "bio": null, "projects_count": 0, "devlogs_count": 0, "votes_count": 0, "ships_count": 0, "projects": [], "coding_time_seconds": 0, "coding_time_seconds_today": 0, "balance": "You need to have a pocket watcher badge to view this.", "badges": [], "created_at": "2025-06-20T17:26:12.035-04:00", "updated_at": "2025-07-03T22:01:12.933-04:00", "avatar": "https://secure.gravatar.com/avatar/53397f8ec03d631e57548b1b6c401357.jpg?s=512&d=https%3A%2F%2Fa.slack-edge.com%2Fdf10d%2Fimg%2Favatars%2Fava_0026-512.png", "custom_css": null}, {"id": 10643, "slack_id": "U091ZJFNTEK", "display_name": "Clinton Osoro", "bio": null, "projects_count": 0, "devlogs_count": 0, "votes_count": 0, "ships_count": 0, "projects": [], "coding_time_seconds": 0, "coding_time_seconds_today": 0, "balance": "You need to have a pocket watcher badge to view this.", "badges": [], "created_at": "2025-06-20T17:26:39.794-04:00", "updated_at": "2025-07-06T20:12:14.559-04:00", "avatar": "https://secure.gravatar.com/avatar/d0e5b966aa4d676c0bc70dbee98b0027.jpg?s=512&d=https%3A%2F%2Fa.slack-edge.com%2Fdf10d%2Fimg%2Favatars%2Fava_0001-512.png", "custom_css": null}, {"id": 10644, "slack_id": "U092E8NFWPL", "display_name": "Rafa", "bio": null, "projects_count": 0, "devlogs_count": 0, "votes_count": 0, "ships_count": 0, "projects": [], "coding_time_seconds": 0, "coding_time_seconds_today": 0, "balance": "You need to have a pocket watcher badge to view this.", "badges": [], "created_at": "2025-06-20T17:27:10.563-04:00", "updated_at": "2025-07-03T19:56:44.411-04:00", "avatar": "https://secure.gravatar.com/avatar/25991d7bae106208fc5031247cb8b9a9.jpg?s=512&d=https%3A%2F%2Fa.slack-edge.com%2Fdf10d%2Fimg%2Favatars%2Fava_0019-512.png", "custom_css": null}, {"id": 10645, "slack_id": "U09286RUXFG", "display_name": "ElectroSonic", "bio": null, "projects_count": 1, "devlogs_count": 1, "votes_count": 0, "ships_count": 0, "projects": [{"id": 4023, "title": "Snoozefeed", "devlogs_count": 1, "created_at": "2025-06-26T23:04:10.244-04:00"}], "coding_time_seconds": 38003, "coding_time_seconds_today": 0, "balance": "You need to have a pocket watcher badge to view this.", "badges": [], "created_at": "2025-06-20T17:40:52.050-04:00", "updated_at": "2025-07-03T19:56:44.672-04:00", "avatar": "https://avatars.slack-edge.com/2025-06-20/9067717471575_b1a39042142a89fe9403_original.png", "custom_css": null}, {"id": 10646, "slack_id": "U092EA12TSN", "display_name": "Manuel", "bio": null, "projects_count": 0, "devlogs_count": 0, "votes_count": 0, "ships_count": 0, "projects": [], "coding_time_seconds": 0, "coding_time_seconds_today": 0, "balance": "You need to have a pocket watcher badge to view this.", "badges": [], "created_at": "2025-06-20T17:41:18.520-04:00", "updated_at": "2025-07-03T19:56:44.948-04:00", "avatar": "https://secure.gravatar.com/avatar/007f54378b2b54a9bb0b788bc4d73acd.jpg?s=512&d=https%3A%2F%2Fa.slack-edge.com%2Fdf10d%2Fimg%2Favatars%2Fava_0002-512.png", "custom_css": null}, {"id": 10647, "slack_id": "U092T45H8LR", "display_name": "Shlok Tanna", "bio": null, "projects_count": 0, "devlogs_count": 0, "votes_count": 0, "ships_count": 0, "projects": [], "coding_time_seconds": 7259, "coding_time_seconds_today": 0, "balance": "You need to have a pocket watcher badge to view this.", "badges": [], "created_at": "2025-06-20T17:42:37.597-04:00", "updated_at": "2025-07-03T22:01:13.327-04:00", "avatar": "https://secure.gravatar.com/avatar/598b945bdc09df46ecc57fe66149973a.jpg?s=512&d=https%3A%2F%2Fa.slack-edge.com%2Fdf10d%2Fimg%2Favatars%2Fava_0022-512.png", "custom_css": null}, {"id": 10648, "slack_id": "U092DHX0EAH", "display_name": "Lev Mitchell", "bio": null, "projects_count": 1, "devlogs_count": 2, "votes_count": 1, "ships_count": 0, "projects": [{"id": 3258, "title": "Godot Building Game", "devlogs_count": 2, "created_at": "2025-06-23T15:49:58.382-04:00"}], "coding_time_seconds": 16919, "coding_time_seconds_today": 0, "balance": "You need to have a pocket watcher badge to view this.", "badges": [], "created_at": "2025-06-20T17:45:38.151-04:00", "updated_at": "2025-07-03T19:56:45.341-04:00", "avatar": "https://secure.gravatar.com/avatar/e9b380113f071eacbaa20f74fc139e67.jpg?s=512&d=https%3A%2F%2Fa.slack-edge.com%2Fdf10d%2Fimg%2Favatars%2Fava_0020-512.png", "custom_css": null}, {"id": 10649, "slack_id": "U07DJ7CRDFV", "display_name": "Raahat", "bio": null, "projects_count": 0, "devlogs_count": 0, "votes_count": 0, "ships_count": 0, "projects": [], "coding_time_seconds": 0, "coding_time_seconds_today": 0, "balance": "You need to have a pocket watcher badge to view this.", "badges": [], "created_at": "2025-06-20T17:50:27.175-04:00", "updated_at": "2025-07-03T19:56:45.603-04:00", "avatar": "https://secure.gravatar.com/avatar/e9d5af161e34fdf9d280f2f29766ad5a.jpg?s=512&d=https%3A%2F%2Fa.slack-edge.com%2Fdf10d%2Fimg%2Favatars%2Fava_0025-512.png", "custom_css": null}, {"id": 10650, "slack_id": "U0927MQC97V", "display_name": "Mihai Lungu", "bio": null, "projects_count": 0, "devlogs_count": 0, "votes_count": 0, "ships_count": 0, "projects": [], "coding_time_seconds": 0, "coding_time_seconds_today": 0, "balance": "You need to have a pocket watcher badge to view this.", "badges": [], "created_at": "2025-06-20T18:01:35.320-04:00", "updated_at": "2025-07-04T08:26:46.021-04:00", "avatar": "https://avatars.slack-edge.com/2025-06-20/9095209488657_78f5e38adc2dd066d359_original.jpg", "custom_css": null}, {"id": 10651, "slack_id": "U08PYFE303G", "display_name": "BioTomateDE", "bio": null, "projects_count": 0, "devlogs_count": 0, "votes_count": 0, "ships_count": 0, "projects": [], "coding_time_seconds": 0, "coding_time_seconds_today": 0, "balance": "You need to have a pocket watcher badge to view this.", "badges": [], "created_at": "2025-06-20T18:04:52.876-04:00", "updated_at": "2025-07-03T19:56:46.000-04:00", "avatar": "https://avatars.slack-edge.com/2025-04-29/8825015081762_b6141c4be5e18f4ea6e3_original.jpg", "custom_css": null}, {"id": 10652, "slack_id": "U091ZMRSPFH", "display_name": "Elliot", "bio": null, "projects_count": 1, "devlogs_count": 6, "votes_count": 0, "ships_count": 0, "projects": [{"id": 2338, "title": "Now Departing", "devlogs_count": 6, "created_at": "2025-06-20T18:20:12.793-04:00"}], "coding_time_seconds": 241248, "coding_time_seconds_today": 0, "balance": "You need to have a pocket watcher badge to view this.", "badges": [], "created_at": "2025-06-20T18:05:02.745-04:00", "updated_at": "2025-07-03T19:56:46.262-04:00", "avatar": "https://secure.gravatar.com/avatar/740f2368a2da36bc7c43f9a5519d5e77.jpg?s=512&d=https%3A%2F%2Fa.slack-edge.com%2Fdf10d%2Fimg%2Favatars%2Fava_0003-512.png", "custom_css": null}, {"id": 10653, "slack_id": "U092T6K6DDF", "display_name": "hristo", "bio": null, "projects_count": 0, "devlogs_count": 0, "votes_count": 0, "ships_count": 0, "projects": [], "coding_time_seconds": 151, "coding_time_seconds_today": 0, "balance": "You need to have a pocket watcher badge to view this.", "badges": [], "created_at": "2025-06-20T18:09:55.207-04:00", "updated_at": "2025-07-03T19:56:46.520-04:00", "avatar": "https://secure.gravatar.com/avatar/a76aa2517cd7b228c2dab8b84b00a8ef.jpg?s=512&d=https%3A%2F%2Fa.slack-edge.com%2Fdf10d%2Fimg%2Favatars%2Fava_0026-512.png", "custom_css": null}, {"id": 10654, "slack_id": "U078SLFEA4U", "display_name": "Allen", "bio": null, "projects_count": 1, "devlogs_count": 1, "votes_count": 0, "ships_count": 0, "projects": [{"id": 4183, "title": "Puyallup Control Hub", "devlogs_count": 1, "created_at": "2025-06-28T04:10:46.998-04:00"}], "coding_time_seconds": 5724, "coding_time_seconds_today": 0, "balance": "You need to have a pocket watcher badge to view this.", "badges": [], "created_at": "2025-06-20T18:13:10.984-04:00", "updated_at": "2025-08-10T19:14:24.814-04:00", "avatar": "https://avatars.slack-edge.com/2024-06-18/7296241696962_7d3fd5436fe0a82592ef_original.jpg", "custom_css": null}, {"id": 10655, "slack_id": "U0927PCDYJF", "display_name": "J P", "bio": null, "projects_count": 1, "devlogs_count": 3, "votes_count": 0, "ships_count": 0, "projects": [{"id": 2349, "title": "Video Game!", "devlogs_count": 3, "created_at": "2025-06-20T19:02:56.906-04:00"}], "coding_time_seconds": 54257, "coding_time_seconds_today": 0, "balance": "You need to have a pocket watcher badge to view this.", "badges": [], "created_at": "2025-06-20T18:23:04.796-04:00", "updated_at": "2025-07-03T19:56:47.055-04:00", "avatar": "https://avatars.slack-edge.com/2025-06-20/9075808019299_bfe89ab285b26c83d429_original.png", "custom_css": null}, {"id": 10656, "slack_id": "U092T7GCKT3", "display_name": "NotSoGreeeen", "bio": null, "projects_count": 2, "devlogs_count": 3, "votes_count": 4, "ships_count": 0, "projects": [{"id": 3313, "title": "A Minecraft Shader", "devlogs_count": 0, "created_at": "2025-06-23T19:18:31.350-04:00"}, {"id": 5552, "title": "NotSoGreeeen's Functional Shader Library", "devlogs_count": 3, "created_at": "2025-07-06T06:10:57.357-04:00"}], "coding_time_seconds": 47978, "coding_time_seconds_today": 0, "balance": "You need to have a pocket watcher badge to view this.", "badges": [], "created_at": "2025-06-20T18:26:31.207-04:00", "updated_at": "2025-07-03T19:56:47.315-04:00", "avatar": "https://avatars.slack-edge.com/2025-06-20/9095283166001_c6bd8830944dc6b08884_original.png", "custom_css": null}, {"id": 10657, "slack_id": "U092E6UFCRY", "display_name": "Amat al-Rahman", "bio": null, "projects_count": 0, "devlogs_count": 0, "votes_count": 0, "ships_count": 0, "projects": [], "coding_time_seconds": 0, "coding_time_seconds_today": 0, "balance": "You need to have a pocket watcher badge to view this.", "badges": [], "created_at": "2025-06-20T18:26:34.672-04:00", "updated_at": "2025-07-03T19:56:47.572-04:00", "avatar": "https://avatars.slack-edge.com/2025-06-21/9104740597888_7959f1f59f607fba6d71_original.png", "custom_css": null}, {"id": 10658, "slack_id": "U0928BN41B8", "display_name": "R H", "bio": null, "projects_count": 0, "devlogs_count": 0, "votes_count": 0, "ships_count": 0, "projects": [], "coding_time_seconds": 0, "coding_time_seconds_today": 0, "balance": "You need to have a pocket watcher badge to view this.", "badges": [], "created_at": "2025-06-20T18:28:07.589-04:00", "updated_at": "2025-07-03T19:56:47.840-04:00", "avatar": "https://secure.gravatar.com/avatar/1cc90daec066d7f89cbfc7fdb1d36591.jpg?s=512&d=https%3A%2F%2Fa.slack-edge.com%2Fdf10d%2Fimg%2Favatars%2Fava_0006-512.png", "custom_css": null}, {"id": 10659, "slack_id": "U07BBGWUA4W", "display_name": "Graden Gentry", "bio": null, "projects_count": 0, "devlogs_count": 0, "votes_count": 0, "ships_count": 0, "projects": [], "coding_time_seconds": 42667, "coding_time_seconds_today": 0, "balance": "You need to have a pocket watcher badge to view this.", "badges": [], "created_at": "2025-06-20T18:30:49.823-04:00", "updated_at": "2025-07-03T19:56:48.108-04:00", "avatar": "https://avatars.slack-edge.com/2024-07-08/7416165560672_21ddbb7aefa90e30e655_original.jpg", "custom_css": null}, {"id": 10660, "slack_id": "U092T93TGE5", "display_name": "92Ingwer", "bio": null, "projects_count": 0, "devlogs_count": 0, "votes_count": 0, "ships_count": 0, "projects": [], "coding_time_seconds": 0, "coding_time_seconds_today": 0, "balance": "You need to have a pocket watcher badge to view this.", "badges": [], "created_at": "2025-06-20T18:48:12.222-04:00", "updated_at": "2025-07-03T19:56:48.368-04:00", "avatar": "https://secure.gravatar.com/avatar/5b7c1dacf98958409ddcdb5dc835aa2b.jpg?s=512&d=https%3A%2F%2Fa.slack-edge.com%2Fdf10d%2Fimg%2Favatars%2Fava_0011-512.png", "custom_css": null}], "pagination": {"page": 533, "pages": 1192, "count": 23828, "items": 20}}