{"users": [{"id": 10661, "slack_id": "U092T9C6BBK", "display_name": "\u041c\u0430\u0442\u0432\u0435\u0439 \u0421\u0430\u043c\u043e\u0434\u0435\u043b\u043a\u0438\u043d", "bio": null, "projects_count": 0, "devlogs_count": 0, "votes_count": 0, "ships_count": 0, "projects": [], "coding_time_seconds": 95236, "coding_time_seconds_today": 0, "balance": "You need to have a pocket watcher badge to view this.", "badges": [], "created_at": "2025-06-20T18:49:15.615-04:00", "updated_at": "2025-07-03T19:56:48.661-04:00", "avatar": "https://avatars.slack-edge.com/2025-06-20/9104781071696_e676fb89b53e3852fb0b_original.jpg", "custom_css": null}, {"id": 10662, "slack_id": "U091ZQUAG8P", "display_name": "Charles", "bio": null, "projects_count": 0, "devlogs_count": 0, "votes_count": 0, "ships_count": 0, "projects": [], "coding_time_seconds": 0, "coding_time_seconds_today": 0, "balance": "You need to have a pocket watcher badge to view this.", "badges": [], "created_at": "2025-06-20T18:50:57.572-04:00", "updated_at": "2025-07-03T19:56:48.994-04:00", "avatar": "https://secure.gravatar.com/avatar/ed569638117fccff8528727c5ba1f909.jpg?s=512&d=https%3A%2F%2Fa.slack-edge.com%2Fdf10d%2Fimg%2Favatars%2Fava_0003-512.png", "custom_css": null}, {"id": 10663, "slack_id": "U092T9LHSQZ", "display_name": "owahai", "bio": null, "projects_count": 0, "devlogs_count": 0, "votes_count": 0, "ships_count": 0, "projects": [], "coding_time_seconds": 17439, "coding_time_seconds_today": 0, "balance": "You need to have a pocket watcher badge to view this.", "badges": [], "created_at": "2025-06-20T18:54:34.262-04:00", "updated_at": "2025-07-03T19:56:49.260-04:00", "avatar": "https://avatars.slack-edge.com/2025-06-25/9127320573520_d9bf9d7af6eeb29849bc_original.jpg", "custom_css": null}, {"id": 10664, "slack_id": "U091ZRYD7T9", "display_name": "Zetalasis", "bio": null, "projects_count": 1, "devlogs_count": 1, "votes_count": 0, "ships_count": 0, "projects": [{"id": 3604, "title": "CommonLoader", "devlogs_count": 1, "created_at": "2025-06-24T22:26:01.844-04:00"}], "coding_time_seconds": 91915, "coding_time_seconds_today": 0, "balance": "You need to have a pocket watcher badge to view this.", "badges": [], "created_at": "2025-06-20T19:04:56.199-04:00", "updated_at": "2025-07-03T19:56:49.539-04:00", "avatar": "https://secure.gravatar.com/avatar/4810c7bfb6ab457a5dedc14012715ba3.jpg?s=512&d=https%3A%2F%2Fa.slack-edge.com%2Fdf10d%2Fimg%2Favatars%2Fava_0026-512.png", "custom_css": null}, {"id": 10665, "slack_id": "U078WQ09X0T", "display_name": "Denis", "bio": null, "projects_count": 3, "devlogs_count": 9, "votes_count": 0, "ships_count": 0, "projects": [{"id": 6686, "title": "MP3 Player From Scratch", "devlogs_count": 4, "created_at": "2025-07-15T05:38:17.800-04:00"}, {"id": 7193, "title": "Volumetric (3D Hologram) Display", "devlogs_count": 3, "created_at": "2025-07-19T20:47:56.177-04:00"}, {"id": 4655, "title": "Keychain Pet", "devlogs_count": 2, "created_at": "2025-07-01T01:26:34.886-04:00"}], "coding_time_seconds": 112978, "coding_time_seconds_today": 0, "balance": "You need to have a pocket watcher badge to view this.", "badges": [], "created_at": "2025-06-20T19:06:43.170-04:00", "updated_at": "2025-08-17T04:15:01.525-04:00", "avatar": "https://secure.gravatar.com/avatar/504ce7c5529de81407ac450fa72c7f20.jpg?s=512&d=https%3A%2F%2Fa.slack-edge.com%2Fdf10d%2Fimg%2Favatars%2Fava_0013-512.png", "custom_css": null}, {"id": 10666, "slack_id": "U0928EJ5YVC", "display_name": "Hailey Kerlee", "bio": null, "projects_count": 0, "devlogs_count": 0, "votes_count": 0, "ships_count": 0, "projects": [], "coding_time_seconds": 0, "coding_time_seconds_today": 0, "balance": "You need to have a pocket watcher badge to view this.", "badges": [], "created_at": "2025-06-20T19:11:18.128-04:00", "updated_at": "2025-07-03T19:56:49.951-04:00", "avatar": "https://secure.gravatar.com/avatar/a7c74301c333507f27b3d0fd4f7e4ab3.jpg?s=512&d=https%3A%2F%2Fa.slack-edge.com%2Fdf10d%2Fimg%2Favatars%2Fava_0012-512.png", "custom_css": null}, {"id": 10667, "slack_id": "U09257YMP4G", "display_name": "Keerthi Anandkumar", "bio": null, "projects_count": 0, "devlogs_count": 0, "votes_count": 0, "ships_count": 0, "projects": [], "coding_time_seconds": 0, "coding_time_seconds_today": 0, "balance": "You need to have a pocket watcher badge to view this.", "badges": [], "created_at": "2025-06-20T19:12:23.041-04:00", "updated_at": "2025-07-03T19:56:50.286-04:00", "avatar": "https://secure.gravatar.com/avatar/d75fdda3a137799a577aaa876fe25f12.jpg?s=512&d=https%3A%2F%2Fa.slack-edge.com%2Fdf10d%2Fimg%2Favatars%2Fava_0025-512.png", "custom_css": null}, {"id": 10668, "slack_id": "U092DPXDZ7X", "display_name": "Marcel", "bio": null, "projects_count": 1, "devlogs_count": 0, "votes_count": 0, "ships_count": 0, "projects": [{"id": 2354, "title": "Automatic drum transcription", "devlogs_count": 0, "created_at": "2025-06-20T19:30:41.061-04:00"}], "coding_time_seconds": 197000, "coding_time_seconds_today": 0, "balance": "You need to have a pocket watcher badge to view this.", "badges": [], "created_at": "2025-06-20T19:13:24.896-04:00", "updated_at": "2025-07-04T08:26:47.448-04:00", "avatar": "https://secure.gravatar.com/avatar/a1eba31bb3fc0ccfa8b52484c6cf5859.jpg?s=512&d=https%3A%2F%2Fa.slack-edge.com%2Fdf10d%2Fimg%2Favatars%2Fava_0015-512.png", "custom_css": null}, {"id": 10669, "slack_id": "U0927SNTV99", "display_name": "Franco Paez", "bio": null, "projects_count": 0, "devlogs_count": 0, "votes_count": 0, "ships_count": 0, "projects": [], "coding_time_seconds": 0, "coding_time_seconds_today": 0, "balance": "You need to have a pocket watcher badge to view this.", "badges": [], "created_at": "2025-06-20T19:16:05.437-04:00", "updated_at": "2025-07-03T19:56:50.687-04:00", "avatar": "https://secure.gravatar.com/avatar/2869e9f5f8ed8e3d8ae3922244850450.jpg?s=512&d=https%3A%2F%2Fa.slack-edge.com%2Fdf10d%2Fimg%2Favatars%2Fava_0020-512.png", "custom_css": null}, {"id": 10670, "slack_id": "U0932QCPML0", "display_name": "B-Varner", "bio": null, "projects_count": 0, "devlogs_count": 0, "votes_count": 0, "ships_count": 0, "projects": [], "coding_time_seconds": 0, "coding_time_seconds_today": 0, "balance": "You need to have a pocket watcher badge to view this.", "badges": [], "created_at": "2025-06-20T19:17:15.375-04:00", "updated_at": "2025-07-04T20:11:22.141-04:00", "avatar": "https://secure.gravatar.com/avatar/e735aad88470392bab94138533df8049.jpg?s=512&d=https%3A%2F%2Fa.slack-edge.com%2Fdf10d%2Fimg%2Favatars%2Fava_0025-512.png", "custom_css": null}, {"id": 10671, "slack_id": "U07GYDTH4BG", "display_name": "codergautam", "bio": null, "projects_count": 0, "devlogs_count": 0, "votes_count": 0, "ships_count": 0, "projects": [], "coding_time_seconds": 112581, "coding_time_seconds_today": 0, "balance": "You need to have a pocket watcher badge to view this.", "badges": [], "created_at": "2025-06-20T19:17:55.618-04:00", "updated_at": "2025-07-03T19:56:51.077-04:00", "avatar": "https://secure.gravatar.com/avatar/d472f42a1d5f4d93dd58a2e290033493.jpg?s=512&d=https%3A%2F%2Fa.slack-edge.com%2Fdf10d%2Fimg%2Favatars%2Fava_0000-512.png", "custom_css": null}, {"id": 10672, "slack_id": "U092EU4RZ60", "display_name": "rickety", "bio": null, "projects_count": 0, "devlogs_count": 0, "votes_count": 0, "ships_count": 0, "projects": [], "coding_time_seconds": 47551, "coding_time_seconds_today": 0, "balance": "You need to have a pocket watcher badge to view this.", "badges": [], "created_at": "2025-06-20T19:29:32.954-04:00", "updated_at": "2025-07-03T22:01:15.135-04:00", "avatar": "https://secure.gravatar.com/avatar/f67dcc6a6c5b40577a541efcd7d59531.jpg?s=512&d=https%3A%2F%2Fa.slack-edge.com%2Fdf10d%2Fimg%2Favatars%2Fava_0007-512.png", "custom_css": null}, {"id": 10673, "slack_id": "U091ZT9ED2B", "display_name": "Robin", "bio": null, "projects_count": 0, "devlogs_count": 0, "votes_count": 0, "ships_count": 0, "projects": [], "coding_time_seconds": 48932, "coding_time_seconds_today": 0, "balance": "You need to have a pocket watcher badge to view this.", "badges": [], "created_at": "2025-06-20T19:29:44.168-04:00", "updated_at": "2025-07-03T19:56:51.475-04:00", "avatar": "https://secure.gravatar.com/avatar/593e01611ae5456044c02b61020c62dc.jpg?s=512&d=https%3A%2F%2Fa.slack-edge.com%2Fdf10d%2Fimg%2Favatars%2Fava_0001-512.png", "custom_css": null}, {"id": 10674, "slack_id": "U0932R310RW", "display_name": "Roboute Guilleman", "bio": null, "projects_count": 1, "devlogs_count": 2, "votes_count": 1, "ships_count": 0, "projects": [{"id": 3998, "title": "Money Game", "devlogs_count": 2, "created_at": "2025-06-26T18:42:34.948-04:00"}], "coding_time_seconds": 74657, "coding_time_seconds_today": 0, "balance": "You need to have a pocket watcher badge to view this.", "badges": [], "created_at": "2025-06-20T19:31:11.192-04:00", "updated_at": "2025-07-03T19:56:51.735-04:00", "avatar": "https://secure.gravatar.com/avatar/f80a23e5b9af8588ee18ee1db3d72031.jpg?s=512&d=https%3A%2F%2Fa.slack-edge.com%2Fdf10d%2Fimg%2Favatars%2Fava_0023-512.png", "custom_css": null}, {"id": 10675, "slack_id": "U091ZTDQUBZ", "display_name": "John", "bio": null, "projects_count": 0, "devlogs_count": 0, "votes_count": 0, "ships_count": 0, "projects": [], "coding_time_seconds": 0, "coding_time_seconds_today": 0, "balance": "You need to have a pocket watcher badge to view this.", "badges": [], "created_at": "2025-06-20T19:32:18.013-04:00", "updated_at": "2025-07-03T19:56:52.005-04:00", "avatar": "https://secure.gravatar.com/avatar/a2a2b7d900f0bd6e7f00be9418a10b55.jpg?s=512&d=https%3A%2F%2Fa.slack-edge.com%2Fdf10d%2Fimg%2Favatars%2Fava_0009-512.png", "custom_css": null}, {"id": 10676, "slack_id": "U0932RLHG4Q", "display_name": "H\u01b0ng Nguy\u1ec5n Qu\u1ed1c", "bio": null, "projects_count": 1, "devlogs_count": 7, "votes_count": 5, "ships_count": 0, "projects": [{"id": 4742, "title": "KOSC: Kind of scientific calculator?", "devlogs_count": 7, "created_at": "2025-07-01T10:08:50.797-04:00"}], "coding_time_seconds": 229050, "coding_time_seconds_today": 0, "balance": "You need to have a pocket watcher badge to view this.", "badges": [], "created_at": "2025-06-20T19:41:55.676-04:00", "updated_at": "2025-07-03T20:19:46.885-04:00", "avatar": "https://avatars.slack-edge.com/2025-07-02/9122574923431_e3f8d5906c549679d9f9_original.jpg", "custom_css": null}, {"id": 10677, "slack_id": "U0932RMFQ3A", "display_name": "Vlad", "bio": null, "projects_count": 0, "devlogs_count": 0, "votes_count": 0, "ships_count": 0, "projects": [], "coding_time_seconds": 0, "coding_time_seconds_today": 0, "balance": "You need to have a pocket watcher badge to view this.", "badges": [], "created_at": "2025-06-20T19:42:13.380-04:00", "updated_at": "2025-07-03T19:56:52.409-04:00", "avatar": "https://secure.gravatar.com/avatar/97e80665a2243c5b5eaa737c50ec4eb1.jpg?s=512&d=https%3A%2F%2Fa.slack-edge.com%2Fdf10d%2Fimg%2Favatars%2Fava_0025-512.png", "custom_css": null}, {"id": 10678, "slack_id": "U092T81S8AV", "display_name": "Jerry Liang", "bio": null, "projects_count": 0, "devlogs_count": 0, "votes_count": 0, "ships_count": 0, "projects": [], "coding_time_seconds": 69813, "coding_time_seconds_today": 0, "balance": "You need to have a pocket watcher badge to view this.", "badges": [], "created_at": "2025-06-20T19:44:27.888-04:00", "updated_at": "2025-07-03T19:56:52.664-04:00", "avatar": "https://avatars.slack-edge.com/2025-06-20/9075974432131_71bc6846beea4f5c5105_original.png", "custom_css": null}, {"id": 10679, "slack_id": "U0928GH18F8", "display_name": "\uc774\ud638\uc900", "bio": null, "projects_count": 1, "devlogs_count": 0, "votes_count": 0, "ships_count": 0, "projects": [{"id": 2362, "title": "gpta", "devlogs_count": 0, "created_at": "2025-06-20T20:11:17.696-04:00"}], "coding_time_seconds": 305812, "coding_time_seconds_today": 1050, "balance": "You need to have a pocket watcher badge to view this.", "badges": [], "created_at": "2025-06-20T19:45:06.683-04:00", "updated_at": "2025-07-03T19:56:52.940-04:00", "avatar": "https://avatars.slack-edge.com/2025-06-20/9082996563508_1cc579d1bcf5fdb9ba55_original.png", "custom_css": null}, {"id": 10680, "slack_id": "U091ZUE9L95", "display_name": "Rafi Ahmed", "bio": null, "projects_count": 0, "devlogs_count": 0, "votes_count": 0, "ships_count": 0, "projects": [], "coding_time_seconds": 95069, "coding_time_seconds_today": 0, "balance": "You need to have a pocket watcher badge to view this.", "badges": [], "created_at": "2025-06-20T19:48:59.937-04:00", "updated_at": "2025-07-03T19:56:53.205-04:00", "avatar": "https://secure.gravatar.com/avatar/82e541059d5637f457d30c61fb196300.jpg?s=512&d=https%3A%2F%2Fa.slack-edge.com%2Fdf10d%2Fimg%2Favatars%2Fava_0016-512.png", "custom_css": null}], "pagination": {"page": 534, "pages": 1192, "count": 23828, "items": 20}}