{"users": [{"id": 10681, "slack_id": "U07V9P0E680", "display_name": "Adam Lotfalla", "bio": null, "projects_count": 1, "devlogs_count": 1, "votes_count": 0, "ships_count": 0, "projects": [{"id": 10537, "title": "Notelet - A nonlinear notetaking app", "devlogs_count": 1, "created_at": "2025-08-07T23:44:23.698-04:00"}], "coding_time_seconds": 44269, "coding_time_seconds_today": 0, "balance": "You need to have a pocket watcher badge to view this.", "badges": [], "created_at": "2025-06-20T19:50:17.138-04:00", "updated_at": "2025-08-07T10:09:57.763-04:00", "avatar": "https://secure.gravatar.com/avatar/bde066a4dadd97fb2686cebe9a7fc501.jpg?s=512&d=https%3A%2F%2Fa.slack-edge.com%2Fdf10d%2Fimg%2Favatars%2Fava_0025-512.png", "custom_css": null}, {"id": 10682, "slack_id": "U091ZV94X2T", "display_name": "Shivansh Randhawa", "bio": null, "projects_count": 0, "devlogs_count": 0, "votes_count": 1, "ships_count": 0, "projects": [], "coding_time_seconds": 68127, "coding_time_seconds_today": 0, "balance": "You need to have a pocket watcher badge to view this.", "badges": [], "created_at": "2025-06-20T20:01:33.062-04:00", "updated_at": "2025-07-03T19:56:53.741-04:00", "avatar": "https://avatars.slack-edge.com/2025-06-20/9082672008498_99eb1ff9233245313d5f_original.jpg", "custom_css": null}, {"id": 10683, "slack_id": "U07A77325J7", "display_name": "Arjun", "bio": null, "projects_count": 1, "devlogs_count": 62, "votes_count": 2, "ships_count": 0, "projects": [{"id": 4667, "title": "Monotony", "devlogs_count": 62, "created_at": "2025-07-01T03:07:45.232-04:00"}], "coding_time_seconds": 354089, "coding_time_seconds_today": 0, "balance": "You need to have a pocket watcher badge to view this.", "badges": [{"name": "Yapper I", "text": "Posted 10 comments on devlogs.", "icon": "\ud83d\udcac"}], "created_at": "2025-06-20T20:05:08.847-04:00", "updated_at": "2025-09-10T22:56:30.220-04:00", "avatar": "https://avatars.slack-edge.com/2024-06-28/7340726938070_c874bc1544c4aacebcf9_original.png", "custom_css": null}, {"id": 10684, "slack_id": "U092003BSCF", "display_name": "Aurora s", "bio": null, "projects_count": 0, "devlogs_count": 0, "votes_count": 0, "ships_count": 0, "projects": [], "coding_time_seconds": 0, "coding_time_seconds_today": 0, "balance": "You need to have a pocket watcher badge to view this.", "badges": [], "created_at": "2025-06-20T20:06:03.993-04:00", "updated_at": "2025-07-03T19:56:54.135-04:00", "avatar": "https://avatars.slack-edge.com/2025-06-21/9081990515573_a37ce13867bc40e68961_original.jpg", "custom_css": null}, {"id": 10685, "slack_id": "U08JE5BTHD3", "display_name": "araaf", "bio": null, "projects_count": 0, "devlogs_count": 0, "votes_count": 0, "ships_count": 0, "projects": [], "coding_time_seconds": 4094, "coding_time_seconds_today": 0, "balance": "You need to have a pocket watcher badge to view this.", "badges": [], "created_at": "2025-06-20T20:09:09.606-04:00", "updated_at": "2025-07-04T07:50:35.983-04:00", "avatar": "https://secure.gravatar.com/avatar/e1ade72cf2fbfabe4386573eea7e7239.jpg?s=512&d=https%3A%2F%2Fa.slack-edge.com%2Fdf10d%2Fimg%2Favatars%2Fava_0003-512.png", "custom_css": null}, {"id": 10686, "slack_id": "U07BFSE4QFP", "display_name": "The Rainy Parakeet", "bio": null, "projects_count": 2, "devlogs_count": 19, "votes_count": 8, "ships_count": 1, "projects": [{"id": 3340, "title": "Idea Slack Bot", "devlogs_count": 5, "created_at": "2025-06-23T22:17:43.502-04:00"}, {"id": 4330, "title": "Scheduler App", "devlogs_count": 14, "created_at": "2025-06-29T01:18:18.511-04:00"}], "coding_time_seconds": 326659, "coding_time_seconds_today": 0, "balance": "You need to have a pocket watcher badge to view this.", "badges": [{"name": "Maiden Voyage", "text": "you shipped your first project! the journey begins...", "icon": "\ud83d\udea2"}], "created_at": "2025-06-20T20:09:23.592-04:00", "updated_at": "2025-09-20T12:54:19.420-04:00", "avatar": "https://avatars.slack-edge.com/2025-09-20/9538854058423_29739eac8995bf45a6bb_original.jpg", "custom_css": null}, {"id": 10687, "slack_id": "U092DT4CNKX", "display_name": "Aditya Jain", "bio": null, "projects_count": 0, "devlogs_count": 0, "votes_count": 0, "ships_count": 0, "projects": [], "coding_time_seconds": 0, "coding_time_seconds_today": 0, "balance": "You need to have a pocket watcher badge to view this.", "badges": [], "created_at": "2025-06-20T20:12:24.778-04:00", "updated_at": "2025-07-03T19:56:54.721-04:00", "avatar": "https://secure.gravatar.com/avatar/379ced54092e6e4863018a673331f073.jpg?s=512&d=https%3A%2F%2Fa.slack-edge.com%2Fdf10d%2Fimg%2Favatars%2Fava_0000-512.png", "custom_css": null}, {"id": 10688, "slack_id": "U091TDEPCJJ", "display_name": "Abiel M", "bio": null, "projects_count": 0, "devlogs_count": 0, "votes_count": 0, "ships_count": 0, "projects": [], "coding_time_seconds": 0, "coding_time_seconds_today": 0, "balance": "You need to have a pocket watcher badge to view this.", "badges": [], "created_at": "2025-06-20T20:15:29.173-04:00", "updated_at": "2025-07-03T19:56:54.993-04:00", "avatar": "https://secure.gravatar.com/avatar/ced4775edc7cced781358ebb21dc6ccc.jpg?s=512&d=https%3A%2F%2Fa.slack-edge.com%2Fdf10d%2Fimg%2Favatars%2Fava_0020-512.png", "custom_css": null}, {"id": 10689, "slack_id": "U08V3RWC11Q", "display_name": "Treasure Mayowa", "bio": null, "projects_count": 1, "devlogs_count": 2, "votes_count": 10, "ships_count": 1, "projects": [{"id": 6648, "title": "Triageflow", "devlogs_count": 2, "created_at": "2025-07-14T19:52:06.525-04:00"}], "coding_time_seconds": 113837, "coding_time_seconds_today": 803, "balance": "You need to have a pocket watcher badge to view this.", "badges": [{"name": "Maiden Voyage", "text": "you shipped your first project! the journey begins...", "icon": "\ud83d\udea2"}], "created_at": "2025-06-20T20:16:18.100-04:00", "updated_at": "2025-09-10T22:56:30.396-04:00", "avatar": "https://avatars.slack-edge.com/2025-06-03/8979320153495_6fd98273f9fcfa361771_original.jpg", "custom_css": null}, {"id": 10690, "slack_id": "U092F1LDYS0", "display_name": "Ella", "bio": "", "projects_count": 2, "devlogs_count": 6, "votes_count": 20, "ships_count": 1, "projects": [{"id": 10076, "title": "Spirit Animal Personality Quiz", "devlogs_count": 1, "created_at": "2025-08-03T21:37:32.356-04:00"}, {"id": 2372, "title": "Hangman", "devlogs_count": 5, "created_at": "2025-06-20T21:12:42.232-04:00"}], "coding_time_seconds": 35697, "coding_time_seconds_today": 0, "balance": "You need to have a pocket watcher badge to view this.", "badges": [{"name": "Maiden Voyage", "text": "you shipped your first project! the journey begins...", "icon": "\ud83d\udea2"}], "created_at": "2025-06-20T20:19:44.944-04:00", "updated_at": "2025-09-10T22:56:30.437-04:00", "avatar": "https://secure.gravatar.com/avatar/3d4d91bb77753d56f6b0aa7a3b2ec081.jpg?s=512&d=https%3A%2F%2Fa.slack-edge.com%2Fdf10d%2Fimg%2Favatars%2Fava_0008-512.png", "custom_css": null}, {"id": 10691, "slack_id": "U092TF167A5", "display_name": "EstePrime", "bio": null, "projects_count": 0, "devlogs_count": 0, "votes_count": 0, "ships_count": 0, "projects": [], "coding_time_seconds": 0, "coding_time_seconds_today": 0, "balance": "You need to have a pocket watcher badge to view this.", "badges": [], "created_at": "2025-06-20T20:19:45.906-04:00", "updated_at": "2025-07-03T19:56:55.889-04:00", "avatar": "https://secure.gravatar.com/avatar/3c960f9efc550702d46abdbd8cb3b251.jpg?s=512&d=https%3A%2F%2Fa.slack-edge.com%2Fdf10d%2Fimg%2Favatars%2Fava_0016-512.png", "custom_css": null}, {"id": 10692, "slack_id": "U092F1RNHTN", "display_name": "Will", "bio": null, "projects_count": 0, "devlogs_count": 0, "votes_count": 0, "ships_count": 0, "projects": [], "coding_time_seconds": 0, "coding_time_seconds_today": 0, "balance": "You need to have a pocket watcher badge to view this.", "badges": [], "created_at": "2025-06-20T20:22:32.362-04:00", "updated_at": "2025-07-03T19:56:56.153-04:00", "avatar": "https://secure.gravatar.com/avatar/a5d20ed10d7903604d5583421068c02f.jpg?s=512&d=https%3A%2F%2Fa.slack-edge.com%2Fdf10d%2Fimg%2Favatars%2Fava_0004-512.png", "custom_css": null}, {"id": 10693, "slack_id": "U092DTS29KP", "display_name": "Enoch", "bio": null, "projects_count": 1, "devlogs_count": 4, "votes_count": 13, "ships_count": 1, "projects": [{"id": 8132, "title": "AI Rural health Assistant", "devlogs_count": 4, "created_at": "2025-07-24T20:17:28.424-04:00"}], "coding_time_seconds": 170030, "coding_time_seconds_today": 0, "balance": "You need to have a pocket watcher badge to view this.", "badges": [{"name": "Maiden Voyage", "text": "you shipped your first project! the journey begins...", "icon": "\ud83d\udea2"}], "created_at": "2025-06-20T20:25:50.266-04:00", "updated_at": "2025-09-10T22:56:30.538-04:00", "avatar": "https://secure.gravatar.com/avatar/455f8d0f7e8caf97dfa752530c15d78c.jpg?s=512&d=https%3A%2F%2Fa.slack-edge.com%2Fdf10d%2Fimg%2Favatars%2Fava_0017-512.png", "custom_css": null}, {"id": 10694, "slack_id": "U092F2AS59A", "display_name": "Romzyytv", "bio": null, "projects_count": 0, "devlogs_count": 0, "votes_count": 0, "ships_count": 0, "projects": [], "coding_time_seconds": 0, "coding_time_seconds_today": 0, "balance": "You need to have a pocket watcher badge to view this.", "badges": [], "created_at": "2025-06-20T20:34:10.069-04:00", "updated_at": "2025-07-03T19:56:56.710-04:00", "avatar": "https://secure.gravatar.com/avatar/b2884d666c937e1b91a7c36304ce56d3.jpg?s=512&d=https%3A%2F%2Fa.slack-edge.com%2Fdf10d%2Fimg%2Favatars%2Fava_0017-512.png", "custom_css": null}, {"id": 10695, "slack_id": "U092DUETMEH", "display_name": "zero2hero", "bio": null, "projects_count": 0, "devlogs_count": 0, "votes_count": 0, "ships_count": 0, "projects": [], "coding_time_seconds": 0, "coding_time_seconds_today": 0, "balance": "You need to have a pocket watcher badge to view this.", "badges": [], "created_at": "2025-06-20T20:36:13.517-04:00", "updated_at": "2025-07-03T19:56:57.009-04:00", "avatar": "https://secure.gravatar.com/avatar/cd319b01601707740a185998caa5b598.jpg?s=512&d=https%3A%2F%2Fa.slack-edge.com%2Fdf10d%2Fimg%2Favatars%2Fava_0001-512.png", "custom_css": null}, {"id": 10696, "slack_id": "U092DUUC84V", "display_name": "luna kang", "bio": null, "projects_count": 0, "devlogs_count": 0, "votes_count": 0, "ships_count": 0, "projects": [], "coding_time_seconds": 0, "coding_time_seconds_today": 0, "balance": "You need to have a pocket watcher badge to view this.", "badges": [], "created_at": "2025-06-20T20:45:58.537-04:00", "updated_at": "2025-07-05T08:12:20.424-04:00", "avatar": "https://secure.gravatar.com/avatar/efa092d242a06f9e90b033d15f563fc4.jpg?s=512&d=https%3A%2F%2Fa.slack-edge.com%2Fdf10d%2Fimg%2Favatars%2Fava_0014-512.png", "custom_css": null}, {"id": 10697, "slack_id": "U0928KNAAMC", "display_name": "Lei Zaakjyu", "bio": null, "projects_count": 1, "devlogs_count": 1, "votes_count": 0, "ships_count": 0, "projects": [{"id": 12169, "title": "A Rusty JVM: Klover", "devlogs_count": 1, "created_at": "2025-08-23T23:11:11.418-04:00"}], "coding_time_seconds": 267322, "coding_time_seconds_today": 0, "balance": "You need to have a pocket watcher badge to view this.", "badges": [], "created_at": "2025-06-20T20:46:33.404-04:00", "updated_at": "2025-08-23T23:05:14.521-04:00", "avatar": "https://secure.gravatar.com/avatar/04c9635a538603e9e5e6208b6c299566.jpg?s=512&d=https%3A%2F%2Fa.slack-edge.com%2Fdf10d%2Fimg%2Favatars%2Fava_0023-512.png", "custom_css": null}, {"id": 10698, "slack_id": "U08TUA00H7U", "display_name": "Aden", "bio": null, "projects_count": 1, "devlogs_count": 0, "votes_count": 0, "ships_count": 0, "projects": [{"id": 2393, "title": "WorkCenter", "devlogs_count": 0, "created_at": "2025-06-20T22:54:16.885-04:00"}], "coding_time_seconds": 23127, "coding_time_seconds_today": 0, "balance": "You need to have a pocket watcher badge to view this.", "badges": [], "created_at": "2025-06-20T20:46:37.441-04:00", "updated_at": "2025-07-05T08:12:20.542-04:00", "avatar": "https://secure.gravatar.com/avatar/904ed6a737cbd7e643d44964703f15ac.jpg?s=512&d=https%3A%2F%2Fa.slack-edge.com%2Fdf10d%2Fimg%2Favatars%2Fava_0013-512.png", "custom_css": null}, {"id": 10699, "slack_id": "U092F26FS0L", "display_name": "Krzysztof", "bio": null, "projects_count": 0, "devlogs_count": 0, "votes_count": 0, "ships_count": 0, "projects": [], "coding_time_seconds": 811, "coding_time_seconds_today": 0, "balance": "You need to have a pocket watcher badge to view this.", "badges": [], "created_at": "2025-06-20T20:48:26.061-04:00", "updated_at": "2025-07-03T19:56:57.718-04:00", "avatar": "https://secure.gravatar.com/avatar/36b164a0ab36fe6931c70662b6295544.jpg?s=512&d=https%3A%2F%2Fa.slack-edge.com%2Fdf10d%2Fimg%2Favatars%2Fava_0016-512.png", "custom_css": null}, {"id": 10700, "slack_id": "U091JC6G3TL", "display_name": "Laeticia Shin-Torres", "bio": null, "projects_count": 0, "devlogs_count": 0, "votes_count": 0, "ships_count": 0, "projects": [], "coding_time_seconds": 0, "coding_time_seconds_today": 0, "balance": "You need to have a pocket watcher badge to view this.", "badges": [], "created_at": "2025-06-20T20:54:13.687-04:00", "updated_at": "2025-07-05T20:12:20.372-04:00", "avatar": "https://avatars.slack-edge.com/2025-06-15/9050578260469_99fd3193f6bb28327f68_original.jpg", "custom_css": null}], "pagination": {"page": 535, "pages": 1192, "count": 23828, "items": 20}}