{"users": [{"id": 10701, "slack_id": "U0928LCTFNJ", "display_name": "pratij", "bio": null, "projects_count": 0, "devlogs_count": 0, "votes_count": 0, "ships_count": 0, "projects": [], "coding_time_seconds": 0, "coding_time_seconds_today": 0, "balance": "You need to have a pocket watcher badge to view this.", "badges": [], "created_at": "2025-06-20T20:54:19.990-04:00", "updated_at": "2025-07-04T08:26:49.609-04:00", "avatar": "https://secure.gravatar.com/avatar/e732f85b027bd8110331301cd8f1dc24.jpg?s=512&d=https%3A%2F%2Fa.slack-edge.com%2Fdf10d%2Fimg%2Favatars%2Fava_0025-512.png", "custom_css": null}, {"id": 10702, "slack_id": "U08THSDGXTR", "display_name": "Hannah Liu", "bio": null, "projects_count": 0, "devlogs_count": 0, "votes_count": 0, "ships_count": 0, "projects": [], "coding_time_seconds": 578906, "coding_time_seconds_today": 0, "balance": "You need to have a pocket watcher badge to view this.", "badges": [], "created_at": "2025-06-20T20:59:26.998-04:00", "updated_at": "2025-07-03T19:56:58.258-04:00", "avatar": "https://avatars.slack-edge.com/2025-05-25/8972847447024_8c94fbe8a6491ac93251_original.png", "custom_css": null}, {"id": 10703, "slack_id": "U092839T3A7", "display_name": "Benjamin Yang", "bio": null, "projects_count": 5, "devlogs_count": 53, "votes_count": 80, "ships_count": 3, "projects": [{"id": 2452, "title": "print_mate", "devlogs_count": 21, "created_at": "2025-06-21T04:09:58.674-04:00"}, {"id": 10406, "title": "stickfigure", "devlogs_count": 1, "created_at": "2025-08-06T17:17:41.418-04:00"}, {"id": 13319, "title": "YetAnotherParcelTracker", "devlogs_count": 0, "created_at": "2025-09-13T23:50:07.572-04:00"}, {"id": 10546, "title": "MCServer++", "devlogs_count": 19, "created_at": "2025-08-08T01:34:42.685-04:00"}, {"id": 7499, "title": "crx_to_xpi", "devlogs_count": 11, "created_at": "2025-07-22T00:49:57.083-04:00"}], "coding_time_seconds": 495323, "coding_time_seconds_today": 0, "balance": "You need to have a pocket watcher badge to view this.", "badges": [{"name": "Maiden Voyage", "text": "you shipped your first project! the journey begins...", "icon": "\ud83d\udea2"}], "created_at": "2025-06-20T21:11:14.221-04:00", "updated_at": "2025-09-10T22:56:30.926-04:00", "avatar": "https://avatars.slack-edge.com/2025-09-05/9465355286354_1803c61754b5d97fed1e_original.png", "custom_css": null}, {"id": 10704, "slack_id": "U091HJJRR6X", "display_name": "William Aisawa", "bio": null, "projects_count": 0, "devlogs_count": 0, "votes_count": 0, "ships_count": 0, "projects": [], "coding_time_seconds": 66600, "coding_time_seconds_today": 0, "balance": "You need to have a pocket watcher badge to view this.", "badges": [], "created_at": "2025-06-20T21:29:02.467-04:00", "updated_at": "2025-07-06T20:12:18.386-04:00", "avatar": "https://secure.gravatar.com/avatar/2464688bb7a0c65d3cd2287fa3d5ec76.jpg?s=512&d=https%3A%2F%2Fa.slack-edge.com%2Fdf10d%2Fimg%2Favatars%2Fava_0003-512.png", "custom_css": null}, {"id": 10705, "slack_id": "U09284FMFFD", "display_name": "Lukman HH", "bio": null, "projects_count": 0, "devlogs_count": 0, "votes_count": 0, "ships_count": 0, "projects": [], "coding_time_seconds": 0, "coding_time_seconds_today": 0, "balance": "You need to have a pocket watcher badge to view this.", "badges": [], "created_at": "2025-06-20T21:34:20.919-04:00", "updated_at": "2025-07-03T19:56:58.786-04:00", "avatar": "https://secure.gravatar.com/avatar/d57957c216e02fe3a41c616b894d92ad.jpg?s=512&d=https%3A%2F%2Fa.slack-edge.com%2Fdf10d%2Fimg%2Favatars%2Fava_0010-512.png", "custom_css": null}, {"id": 10706, "slack_id": "U092F5SU2QL", "display_name": "Sanyam Ahuja", "bio": null, "projects_count": 0, "devlogs_count": 0, "votes_count": 0, "ships_count": 0, "projects": [], "coding_time_seconds": 0, "coding_time_seconds_today": 0, "balance": "You need to have a pocket watcher badge to view this.", "badges": [], "created_at": "2025-06-20T21:46:50.204-04:00", "updated_at": "2025-07-05T08:12:21.038-04:00", "avatar": "https://secure.gravatar.com/avatar/043ccd0931f3df4f5317fbddd71511df.jpg?s=512&d=https%3A%2F%2Fa.slack-edge.com%2Fdf10d%2Fimg%2Favatars%2Fava_0008-512.png", "custom_css": null}, {"id": 10707, "slack_id": "U091WF3TTGV", "display_name": "Gavin", "bio": null, "projects_count": 0, "devlogs_count": 0, "votes_count": 0, "ships_count": 0, "projects": [], "coding_time_seconds": 0, "coding_time_seconds_today": 0, "balance": "You need to have a pocket watcher badge to view this.", "badges": [], "created_at": "2025-06-20T21:47:34.044-04:00", "updated_at": "2025-07-03T19:56:59.184-04:00", "avatar": "https://secure.gravatar.com/avatar/e0db9497b8e0e9a3503953fbabf8b1de.jpg?s=512&d=https%3A%2F%2Fa.slack-edge.com%2Fdf10d%2Fimg%2Favatars%2Fava_0006-512.png", "custom_css": null}, {"id": 10708, "slack_id": "U0925TRTJTV", "display_name": "Arsema", "bio": null, "projects_count": 0, "devlogs_count": 0, "votes_count": 0, "ships_count": 0, "projects": [], "coding_time_seconds": 128708, "coding_time_seconds_today": 503, "balance": "You need to have a pocket watcher badge to view this.", "badges": [], "created_at": "2025-06-20T21:49:48.306-04:00", "updated_at": "2025-07-03T19:56:59.465-04:00", "avatar": "https://secure.gravatar.com/avatar/98357b01242f4707d976eff4116fdbff.jpg?s=512&d=https%3A%2F%2Fa.slack-edge.com%2Fdf10d%2Fimg%2Favatars%2Fava_0020-512.png", "custom_css": null}, {"id": 10709, "slack_id": "U07UYJTASDP", "display_name": "ByzantineProcess", "bio": null, "projects_count": 0, "devlogs_count": 0, "votes_count": 0, "ships_count": 0, "projects": [], "coding_time_seconds": 125713, "coding_time_seconds_today": 330, "balance": "You need to have a pocket watcher badge to view this.", "badges": [], "created_at": "2025-06-20T21:52:12.247-04:00", "updated_at": "2025-07-03T19:56:59.721-04:00", "avatar": "https://secure.gravatar.com/avatar/ebc27503c7d82020d72eb9394edb0ed5.jpg?s=512&d=https%3A%2F%2Fa.slack-edge.com%2Fdf10d%2Fimg%2Favatars%2Fava_0021-512.png", "custom_css": null}, {"id": 10710, "slack_id": "U0928P69SS2", "display_name": "Dhaval", "bio": null, "projects_count": 1, "devlogs_count": 1, "votes_count": 0, "ships_count": 0, "projects": [{"id": 2387, "title": "aircraft-info-extension", "devlogs_count": 1, "created_at": "2025-06-20T22:35:25.689-04:00"}], "coding_time_seconds": 29077, "coding_time_seconds_today": 0, "balance": "You need to have a pocket watcher badge to view this.", "badges": [], "created_at": "2025-06-20T21:52:26.473-04:00", "updated_at": "2025-07-04T02:30:34.517-04:00", "avatar": "https://secure.gravatar.com/avatar/b2df8a6ec8bc30914c3318da20a2e999.jpg?s=512&d=https%3A%2F%2Fa.slack-edge.com%2Fdf10d%2Fimg%2Favatars%2Fava_0003-512.png", "custom_css": null}, {"id": 10711, "slack_id": "U09332CHG6L", "display_name": "Qasim Gadriwala", "bio": null, "projects_count": 0, "devlogs_count": 0, "votes_count": 0, "ships_count": 0, "projects": [], "coding_time_seconds": 18848, "coding_time_seconds_today": 0, "balance": "You need to have a pocket watcher badge to view this.", "badges": [], "created_at": "2025-06-20T21:53:59.258-04:00", "updated_at": "2025-07-04T02:30:34.644-04:00", "avatar": "https://avatars.slack-edge.com/2025-06-20/9083219095172_944343df2ecdf096dbc5_original.png", "custom_css": null}, {"id": 10712, "slack_id": "U09205Y0JUX", "display_name": "Osagani Perera", "bio": null, "projects_count": 0, "devlogs_count": 0, "votes_count": 0, "ships_count": 0, "projects": [], "coding_time_seconds": 0, "coding_time_seconds_today": 0, "balance": "You need to have a pocket watcher badge to view this.", "badges": [], "created_at": "2025-06-20T22:07:30.324-04:00", "updated_at": "2025-07-03T19:57:00.258-04:00", "avatar": "https://secure.gravatar.com/avatar/1d2101dd496ae4d792c08fd576a4dd11.jpg?s=512&d=https%3A%2F%2Fa.slack-edge.com%2Fdf10d%2Fimg%2Favatars%2Fava_0002-512.png", "custom_css": null}, {"id": 10713, "slack_id": "U092TLDB01X", "display_name": "sarah", "bio": null, "projects_count": 0, "devlogs_count": 0, "votes_count": 0, "ships_count": 0, "projects": [], "coding_time_seconds": 0, "coding_time_seconds_today": 0, "balance": "You need to have a pocket watcher badge to view this.", "badges": [], "created_at": "2025-06-20T22:10:06.381-04:00", "updated_at": "2025-07-05T02:11:59.351-04:00", "avatar": "https://secure.gravatar.com/avatar/b56a8ac17ac06fcd0ca82bc22a0303a7.jpg?s=512&d=https%3A%2F%2Fa.slack-edge.com%2Fdf10d%2Fimg%2Favatars%2Fava_0007-512.png", "custom_css": null}, {"id": 10714, "slack_id": "U09205UDUPR", "display_name": "Malak", "bio": null, "projects_count": 0, "devlogs_count": 0, "votes_count": 0, "ships_count": 0, "projects": [], "coding_time_seconds": 0, "coding_time_seconds_today": 0, "balance": "You need to have a pocket watcher badge to view this.", "badges": [], "created_at": "2025-06-20T22:10:22.587-04:00", "updated_at": "2025-07-03T19:57:00.669-04:00", "avatar": "https://secure.gravatar.com/avatar/7790684403e4b00327f33f2bbd815194.jpg?s=512&d=https%3A%2F%2Fa.slack-edge.com%2Fdf10d%2Fimg%2Favatars%2Fava_0008-512.png", "custom_css": null}, {"id": 10715, "slack_id": "U092E395YHK", "display_name": "Lizzie Casaleno", "bio": null, "projects_count": 0, "devlogs_count": 0, "votes_count": 0, "ships_count": 0, "projects": [], "coding_time_seconds": 18306, "coding_time_seconds_today": 0, "balance": "You need to have a pocket watcher badge to view this.", "badges": [], "created_at": "2025-06-20T22:12:55.523-04:00", "updated_at": "2025-07-03T19:57:00.936-04:00", "avatar": "https://avatars.slack-edge.com/2025-06-20/9076830725046_2042a19c242a6d953293_original.png", "custom_css": null}, {"id": 10716, "slack_id": "U091XS725UK", "display_name": "Zach", "bio": null, "projects_count": 0, "devlogs_count": 0, "votes_count": 0, "ships_count": 0, "projects": [], "coding_time_seconds": 0, "coding_time_seconds_today": 0, "balance": "You need to have a pocket watcher badge to view this.", "badges": [], "created_at": "2025-06-20T22:15:13.637-04:00", "updated_at": "2025-07-03T19:57:01.194-04:00", "avatar": "https://secure.gravatar.com/avatar/e21f893814f2e9f5e0eef4a084c45bc7.jpg?s=512&d=https%3A%2F%2Fa.slack-edge.com%2Fdf10d%2Fimg%2Favatars%2Fava_0018-512.png", "custom_css": null}, {"id": 10717, "slack_id": "U092863LSG3", "display_name": "Amelia", "bio": null, "projects_count": 0, "devlogs_count": 0, "votes_count": 0, "ships_count": 0, "projects": [], "coding_time_seconds": 0, "coding_time_seconds_today": 0, "balance": "You need to have a pocket watcher badge to view this.", "badges": [], "created_at": "2025-06-20T22:15:50.211-04:00", "updated_at": "2025-07-03T19:57:01.446-04:00", "avatar": "https://secure.gravatar.com/avatar/c27d8b6437a6e040989b91e15d30e7b7.jpg?s=512&d=https%3A%2F%2Fa.slack-edge.com%2Fdf10d%2Fimg%2Favatars%2Fava_0011-512.png", "custom_css": null}, {"id": 10718, "slack_id": "U07BZ0WJYH2", "display_name": "Alistair", "bio": null, "projects_count": 0, "devlogs_count": 0, "votes_count": 0, "ships_count": 0, "projects": [], "coding_time_seconds": 0, "coding_time_seconds_today": 0, "balance": "You need to have a pocket watcher badge to view this.", "badges": [], "created_at": "2025-06-20T22:15:55.164-04:00", "updated_at": "2025-07-03T19:57:01.710-04:00", "avatar": "https://avatars.slack-edge.com/2024-07-10/7397947676086_f02254cf2dd16d83f3a0_original.jpg", "custom_css": null}, {"id": 10719, "slack_id": "U09333E2HPA", "display_name": "Champa Siraj", "bio": null, "projects_count": 0, "devlogs_count": 0, "votes_count": 0, "ships_count": 0, "projects": [], "coding_time_seconds": 816, "coding_time_seconds_today": 0, "balance": "You need to have a pocket watcher badge to view this.", "badges": [], "created_at": "2025-06-20T22:20:54.419-04:00", "updated_at": "2025-07-04T02:30:35.194-04:00", "avatar": "https://avatars.slack-edge.com/2025-06-20/9076225513907_c9db34562616e5fe678f_original.png", "custom_css": null}, {"id": 10720, "slack_id": "U0928QMQ3N2", "display_name": "Tales", "bio": null, "projects_count": 0, "devlogs_count": 0, "votes_count": 0, "ships_count": 0, "projects": [], "coding_time_seconds": 0, "coding_time_seconds_today": 0, "balance": "You need to have a pocket watcher badge to view this.", "badges": [], "created_at": "2025-06-20T22:22:13.857-04:00", "updated_at": "2025-07-03T19:57:02.110-04:00", "avatar": "https://secure.gravatar.com/avatar/5bbabfe525da9ab6490d9655f0b6bf6b.jpg?s=512&d=https%3A%2F%2Fa.slack-edge.com%2Fdf10d%2Fimg%2Favatars%2Fava_0003-512.png", "custom_css": null}], "pagination": {"page": 536, "pages": 1192, "count": 23828, "items": 20}}