{"users": [{"id": 10721, "slack_id": "U0928QR7UF8", "display_name": "pUOL", "bio": null, "projects_count": 0, "devlogs_count": 0, "votes_count": 0, "ships_count": 0, "projects": [], "coding_time_seconds": 0, "coding_time_seconds_today": 0, "balance": "You need to have a pocket watcher badge to view this.", "badges": [], "created_at": "2025-06-20T22:24:19.763-04:00", "updated_at": "2025-07-03T19:57:02.381-04:00", "avatar": "https://secure.gravatar.com/avatar/cca03b6c6f7422163c4a0d3f4a84e889.jpg?s=512&d=https%3A%2F%2Fa.slack-edge.com%2Fdf10d%2Fimg%2Favatars%2Fava_0001-512.png", "custom_css": null}, {"id": 10722, "slack_id": "U09206LTK3R", "display_name": "Mohammad Khalid Al Harahsheh", "bio": null, "projects_count": 0, "devlogs_count": 0, "votes_count": 0, "ships_count": 0, "projects": [], "coding_time_seconds": 11395, "coding_time_seconds_today": 0, "balance": "You need to have a pocket watcher badge to view this.", "badges": [], "created_at": "2025-06-20T22:24:58.566-04:00", "updated_at": "2025-07-03T19:57:02.643-04:00", "avatar": "https://secure.gravatar.com/avatar/9fce505c75ca191a0c6b5b3c93579898.jpg?s=512&d=https%3A%2F%2Fa.slack-edge.com%2Fdf10d%2Fimg%2Favatars%2Fava_0011-512.png", "custom_css": null}, {"id": 10723, "slack_id": "U092ESE8BJN", "display_name": "Mateo Grgic", "bio": null, "projects_count": 5, "devlogs_count": 9, "votes_count": 3, "ships_count": 1, "projects": [{"id": 3744, "title": "D&D Dice Roller Project ", "devlogs_count": 9, "created_at": "2025-06-25T14:09:58.478-04:00"}, {"id": 3973, "title": "Weather App for Linux ", "devlogs_count": 0, "created_at": "2025-06-26T15:05:58.720-04:00"}, {"id": 5049, "title": "Website for my Satirical School Newspaper ", "devlogs_count": 0, "created_at": "2025-07-02T23:11:05.645-04:00"}, {"id": 6196, "title": "Stocks app", "devlogs_count": 0, "created_at": "2025-07-11T09:10:40.500-04:00"}, {"id": 3970, "title": "Personal Website ", "devlogs_count": 0, "created_at": "2025-06-26T15:04:57.095-04:00"}], "coding_time_seconds": 53384, "coding_time_seconds_today": 0, "balance": "You need to have a pocket watcher badge to view this.", "badges": [{"name": "Maiden Voyage", "text": "you shipped your first project! the journey begins...", "icon": "\ud83d\udea2"}], "created_at": "2025-06-20T22:26:35.971-04:00", "updated_at": "2025-09-10T22:56:31.492-04:00", "avatar": "https://secure.gravatar.com/avatar/164e770c23cea0a5c471653f128c2aac.jpg?s=512&d=https%3A%2F%2Fa.slack-edge.com%2Fdf10d%2Fimg%2Favatars%2Fava_0026-512.png", "custom_css": null}, {"id": 10724, "slack_id": "U09234V4C4R", "display_name": "Ben", "bio": null, "projects_count": 0, "devlogs_count": 0, "votes_count": 0, "ships_count": 0, "projects": [], "coding_time_seconds": 0, "coding_time_seconds_today": 0, "balance": "You need to have a pocket watcher badge to view this.", "badges": [], "created_at": "2025-06-20T22:27:31.660-04:00", "updated_at": "2025-07-04T02:30:35.560-04:00", "avatar": "https://secure.gravatar.com/avatar/649911acb00f826962ee2d274cce682f.jpg?s=512&d=https%3A%2F%2Fa.slack-edge.com%2Fdf10d%2Fimg%2Favatars%2Fava_0012-512.png", "custom_css": null}, {"id": 10725, "slack_id": "U079DUZK0EQ", "display_name": "Arymus", "bio": null, "projects_count": 1, "devlogs_count": 9, "votes_count": 0, "ships_count": 0, "projects": [{"id": 10097, "title": "Student Registry System", "devlogs_count": 6, "created_at": "2025-08-04T02:21:20.730-04:00"}], "coding_time_seconds": 299398, "coding_time_seconds_today": 0, "balance": "You need to have a pocket watcher badge to view this.", "badges": [], "created_at": "2025-06-20T22:33:05.237-04:00", "updated_at": "2025-08-06T15:06:20.323-04:00", "avatar": "https://avatars.slack-edge.com/2024-09-01/7674554945457_9a12bd0663ffc8d193e1_original.png", "custom_css": null}, {"id": 10726, "slack_id": "U092TMPB5PB", "display_name": "Raul", "bio": null, "projects_count": 0, "devlogs_count": 0, "votes_count": 0, "ships_count": 0, "projects": [], "coding_time_seconds": 0, "coding_time_seconds_today": 0, "balance": "You need to have a pocket watcher badge to view this.", "badges": [], "created_at": "2025-06-20T22:35:53.185-04:00", "updated_at": "2025-07-04T20:11:25.496-04:00", "avatar": "https://secure.gravatar.com/avatar/ffa3ba36bb18000f8c9c97759cadca7e.jpg?s=512&d=https%3A%2F%2Fa.slack-edge.com%2Fdf10d%2Fimg%2Favatars%2Fava_0011-512.png", "custom_css": null}, {"id": 10727, "slack_id": "U092EJQN09Y", "display_name": "Rida Kashif", "bio": null, "projects_count": 0, "devlogs_count": 0, "votes_count": 0, "ships_count": 0, "projects": [], "coding_time_seconds": 0, "coding_time_seconds_today": 0, "balance": "You need to have a pocket watcher badge to view this.", "badges": [], "created_at": "2025-06-20T22:36:37.643-04:00", "updated_at": "2025-07-03T19:57:03.665-04:00", "avatar": "https://secure.gravatar.com/avatar/9e325dc80b5b0167f17b4aca4d528be6.jpg?s=512&d=https%3A%2F%2Fa.slack-edge.com%2Fdf10d%2Fimg%2Favatars%2Fava_0006-512.png", "custom_css": null}, {"id": 10728, "slack_id": "U092076LE31", "display_name": "F3r214", "bio": null, "projects_count": 0, "devlogs_count": 0, "votes_count": 0, "ships_count": 0, "projects": [], "coding_time_seconds": 7623, "coding_time_seconds_today": 0, "balance": "You need to have a pocket watcher badge to view this.", "badges": [], "created_at": "2025-06-20T22:37:06.963-04:00", "updated_at": "2025-07-06T20:12:19.868-04:00", "avatar": "https://avatars.slack-edge.com/2025-06-20/9068250860647_a0e4126e22aa90feefad_original.png", "custom_css": null}, {"id": 10729, "slack_id": "U0928MHEE78", "display_name": "Rafaeldcx", "bio": null, "projects_count": 0, "devlogs_count": 0, "votes_count": 0, "ships_count": 0, "projects": [], "coding_time_seconds": 0, "coding_time_seconds_today": 0, "balance": "You need to have a pocket watcher badge to view this.", "badges": [], "created_at": "2025-06-20T22:37:18.464-04:00", "updated_at": "2025-07-05T20:12:22.252-04:00", "avatar": "https://secure.gravatar.com/avatar/2eb52b8357d473350e09cfd8b2325eeb.jpg?s=512&d=https%3A%2F%2Fa.slack-edge.com%2Fdf10d%2Fimg%2Favatars%2Fava_0007-512.png", "custom_css": null}, {"id": 10730, "slack_id": "U092TMTQ3KK", "display_name": "ethan", "bio": null, "projects_count": 1, "devlogs_count": 3, "votes_count": 0, "ships_count": 0, "projects": [{"id": 3345, "title": "Tetris Bot", "devlogs_count": 3, "created_at": "2025-06-23T22:46:38.709-04:00"}], "coding_time_seconds": 94031, "coding_time_seconds_today": 0, "balance": "You need to have a pocket watcher badge to view this.", "badges": [], "created_at": "2025-06-20T22:40:35.502-04:00", "updated_at": "2025-07-03T19:57:04.202-04:00", "avatar": "https://secure.gravatar.com/avatar/3ed07eeca0c18becf47a77f0312d5f2c.jpg?s=512&d=https%3A%2F%2Fa.slack-edge.com%2Fdf10d%2Fimg%2Favatars%2Fava_0026-512.png", "custom_css": null}, {"id": 10731, "slack_id": "U092TMFFS0H", "display_name": "Karim Mohamed", "bio": null, "projects_count": 0, "devlogs_count": 0, "votes_count": 0, "ships_count": 0, "projects": [], "coding_time_seconds": 0, "coding_time_seconds_today": 0, "balance": "You need to have a pocket watcher badge to view this.", "badges": [], "created_at": "2025-06-20T22:40:49.170-04:00", "updated_at": "2025-07-03T19:57:04.473-04:00", "avatar": "https://avatars.slack-edge.com/2025-06-20/9068255875719_49e0386bad2e08db03ba_original.jpg", "custom_css": null}, {"id": 10732, "slack_id": "U09286Q626Q", "display_name": "Dandu Yeshwanth", "bio": null, "projects_count": 0, "devlogs_count": 0, "votes_count": 0, "ships_count": 0, "projects": [], "coding_time_seconds": 12025, "coding_time_seconds_today": 0, "balance": "You need to have a pocket watcher badge to view this.", "badges": [], "created_at": "2025-06-20T22:41:48.574-04:00", "updated_at": "2025-07-03T22:01:19.030-04:00", "avatar": "https://avatars.slack-edge.com/2025-06-20/9095750911217_d9d8a583a2ecb3cd8482_original.png", "custom_css": null}, {"id": 10733, "slack_id": "U07GV6PJU57", "display_name": "Dalton Ma", "bio": null, "projects_count": 1, "devlogs_count": 9, "votes_count": 0, "ships_count": 0, "projects": [{"id": 2396, "title": "Examsystem (Eduveris)", "devlogs_count": 9, "created_at": "2025-06-20T23:03:05.891-04:00"}], "coding_time_seconds": 62848, "coding_time_seconds_today": 5147, "balance": "You need to have a pocket watcher badge to view this.", "badges": [], "created_at": "2025-06-20T22:43:54.770-04:00", "updated_at": "2025-08-09T18:14:52.012-04:00", "avatar": "https://secure.gravatar.com/avatar/f97aa8fe112129ebd20addbe04728777.jpg?s=512&d=https%3A%2F%2Fa.slack-edge.com%2Fdf10d%2Fimg%2Favatars%2Fava_0007-512.png", "custom_css": null}, {"id": 10734, "slack_id": "U06SYK3M62J", "display_name": "Vuk", "bio": "", "projects_count": 2, "devlogs_count": 4, "votes_count": 20, "ships_count": 1, "projects": [{"id": 11311, "title": "BCYDC Website", "devlogs_count": 0, "created_at": "2025-08-14T21:05:11.578-04:00"}, {"id": 10698, "title": "Personal Website", "devlogs_count": 4, "created_at": "2025-08-09T20:07:55.345-04:00"}], "coding_time_seconds": 437198, "coding_time_seconds_today": 0, "balance": "You need to have a pocket watcher badge to view this.", "badges": [{"name": "Maiden Voyage", "text": "you shipped your first project! the journey begins...", "icon": "\ud83d\udea2"}], "created_at": "2025-06-20T22:45:41.997-04:00", "updated_at": "2025-09-10T22:56:31.867-04:00", "avatar": "https://avatars.slack-edge.com/2025-03-05/8541442628151_bb6fc1b657cdcd5357e8_original.jpg", "custom_css": null}, {"id": 10735, "slack_id": "U09334E8XNC", "display_name": "Edward", "bio": null, "projects_count": 0, "devlogs_count": 0, "votes_count": 0, "ships_count": 0, "projects": [], "coding_time_seconds": 0, "coding_time_seconds_today": 0, "balance": "You need to have a pocket watcher badge to view this.", "badges": [], "created_at": "2025-06-20T22:49:08.879-04:00", "updated_at": "2025-07-03T19:57:05.407-04:00", "avatar": "https://secure.gravatar.com/avatar/c0a5134b85b4ad04c29f17dd19797b4f.jpg?s=512&d=https%3A%2F%2Fa.slack-edge.com%2Fdf10d%2Fimg%2Favatars%2Fava_0010-512.png", "custom_css": null}, {"id": 10736, "slack_id": "U092TNED0L9", "display_name": "Bohnas", "bio": null, "projects_count": 0, "devlogs_count": 0, "votes_count": 0, "ships_count": 0, "projects": [], "coding_time_seconds": 0, "coding_time_seconds_today": 0, "balance": "You need to have a pocket watcher badge to view this.", "badges": [], "created_at": "2025-06-20T22:55:04.373-04:00", "updated_at": "2025-07-03T19:57:06.306-04:00", "avatar": "https://secure.gravatar.com/avatar/467c3f0cc4bf29e381713cf9151b99ea.jpg?s=512&d=https%3A%2F%2Fa.slack-edge.com%2Fdf10d%2Fimg%2Favatars%2Fava_0024-512.png", "custom_css": null}, {"id": 10737, "slack_id": "U091WKK46G4", "display_name": "Polina Predius", "bio": null, "projects_count": 1, "devlogs_count": 1, "votes_count": 2, "ships_count": 0, "projects": [{"id": 4883, "title": "CashDash", "devlogs_count": 1, "created_at": "2025-07-02T02:49:50.427-04:00"}], "coding_time_seconds": 170641, "coding_time_seconds_today": 0, "balance": "You need to have a pocket watcher badge to view this.", "badges": [], "created_at": "2025-06-20T22:55:57.199-04:00", "updated_at": "2025-07-03T19:57:06.575-04:00", "avatar": "https://avatars.slack-edge.com/2025-06-18/9071475395717_09df18f5fe78c879705b_original.png", "custom_css": null}, {"id": 10738, "slack_id": "U092F8YM0PN", "display_name": "Deepanshu", "bio": null, "projects_count": 0, "devlogs_count": 0, "votes_count": 0, "ships_count": 0, "projects": [], "coding_time_seconds": 0, "coding_time_seconds_today": 0, "balance": "You need to have a pocket watcher badge to view this.", "badges": [], "created_at": "2025-06-20T23:01:20.339-04:00", "updated_at": "2025-07-03T19:57:06.837-04:00", "avatar": "https://secure.gravatar.com/avatar/d7126975d6e029c88467e3b1471e76fe.jpg?s=512&d=https%3A%2F%2Fa.slack-edge.com%2Fdf10d%2Fimg%2Favatars%2Fava_0006-512.png", "custom_css": null}, {"id": 10739, "slack_id": "U092883LF2P", "display_name": "Dhanush G N", "bio": null, "projects_count": 0, "devlogs_count": 0, "votes_count": 0, "ships_count": 0, "projects": [], "coding_time_seconds": 0, "coding_time_seconds_today": 0, "balance": "You need to have a pocket watcher badge to view this.", "badges": [], "created_at": "2025-06-20T23:03:20.956-04:00", "updated_at": "2025-07-03T19:57:07.105-04:00", "avatar": "https://secure.gravatar.com/avatar/0d4f9f47964cbfebc90a630afecdc702.jpg?s=512&d=https%3A%2F%2Fa.slack-edge.com%2Fdf10d%2Fimg%2Favatars%2Fava_0003-512.png", "custom_css": null}, {"id": 10740, "slack_id": "U09208CBQ0P", "display_name": "Nadya", "bio": null, "projects_count": 0, "devlogs_count": 0, "votes_count": 0, "ships_count": 0, "projects": [], "coding_time_seconds": 68449, "coding_time_seconds_today": 0, "balance": "You need to have a pocket watcher badge to view this.", "badges": [], "created_at": "2025-06-20T23:04:07.645-04:00", "updated_at": "2025-07-03T19:57:07.381-04:00", "avatar": "https://secure.gravatar.com/avatar/b8cd4bbefaccbaa667512ec2c6ac1bda.jpg?s=512&d=https%3A%2F%2Fa.slack-edge.com%2Fdf10d%2Fimg%2Favatars%2Fava_0016-512.png", "custom_css": null}], "pagination": {"page": 537, "pages": 1192, "count": 23828, "items": 20}}