{"users": [{"id": 10741, "slack_id": "U0933547F24", "display_name": "Atulya Subedi", "bio": null, "projects_count": 0, "devlogs_count": 0, "votes_count": 0, "ships_count": 0, "projects": [], "coding_time_seconds": 166, "coding_time_seconds_today": 0, "balance": "You need to have a pocket watcher badge to view this.", "badges": [], "created_at": "2025-06-20T23:04:40.201-04:00", "updated_at": "2025-07-03T19:57:07.645-04:00", "avatar": "https://avatars.slack-edge.com/2025-06-20/9105179105552_6db0dd5b6f91a3805b39_original.png", "custom_css": null}, {"id": 10742, "slack_id": "U0928T2GG8N", "display_name": "Mohammad Aarif Ansari", "bio": null, "projects_count": 0, "devlogs_count": 0, "votes_count": 0, "ships_count": 0, "projects": [], "coding_time_seconds": 0, "coding_time_seconds_today": 0, "balance": "You need to have a pocket watcher badge to view this.", "badges": [], "created_at": "2025-06-20T23:17:33.750-04:00", "updated_at": "2025-07-03T19:57:07.919-04:00", "avatar": "https://secure.gravatar.com/avatar/c974844c9e47897efc3c0b51a9159803.jpg?s=512&d=https%3A%2F%2Fa.slack-edge.com%2Fdf10d%2Fimg%2Favatars%2Fava_0017-512.png", "custom_css": null}, {"id": 10743, "slack_id": "U092AHB2STU", "display_name": "Harihar Binwal", "bio": null, "projects_count": 0, "devlogs_count": 0, "votes_count": 0, "ships_count": 0, "projects": [], "coding_time_seconds": 0, "coding_time_seconds_today": 0, "balance": "You need to have a pocket watcher badge to view this.", "badges": [], "created_at": "2025-06-20T23:18:55.776-04:00", "updated_at": "2025-07-03T19:57:08.178-04:00", "avatar": "https://secure.gravatar.com/avatar/d757a38e2425010f09099aa705dbbf17.jpg?s=512&d=https%3A%2F%2Fa.slack-edge.com%2Fdf10d%2Fimg%2Favatars%2Fava_0014-512.png", "custom_css": null}, {"id": 10744, "slack_id": "U09335WDN2U", "display_name": "Arjit Gupta", "bio": null, "projects_count": 1, "devlogs_count": 5, "votes_count": 1, "ships_count": 1, "projects": [{"id": 2431, "title": "Discord Bot for Vencord Plugin (FakeProfile) ", "devlogs_count": 5, "created_at": "2025-06-21T02:48:26.930-04:00"}], "coding_time_seconds": 24728, "coding_time_seconds_today": 0, "balance": "You need to have a pocket watcher badge to view this.", "badges": [{"name": "Maiden Voyage", "text": "you shipped your first project! the journey begins...", "icon": "\ud83d\udea2"}], "created_at": "2025-06-20T23:22:58.744-04:00", "updated_at": "2025-09-10T22:56:32.140-04:00", "avatar": "https://avatars.slack-edge.com/2025-06-20/9082983573890_1afbbc4a69b3d0ffef49_original.gif", "custom_css": null}, {"id": 10745, "slack_id": "U09335U5AQ0", "display_name": "Noah", "bio": null, "projects_count": 1, "devlogs_count": 0, "votes_count": 0, "ships_count": 0, "projects": [{"id": 3823, "title": "creator34.dev", "devlogs_count": 0, "created_at": "2025-06-25T22:16:52.496-04:00"}], "coding_time_seconds": 15496, "coding_time_seconds_today": 0, "balance": "You need to have a pocket watcher badge to view this.", "badges": [], "created_at": "2025-06-20T23:24:09.448-04:00", "updated_at": "2025-07-03T19:57:08.690-04:00", "avatar": "https://secure.gravatar.com/avatar/114c7d90bdff489912c02f0afeb5c52e.jpg?s=512&d=https%3A%2F%2Fa.slack-edge.com%2Fdf10d%2Fimg%2Favatars%2Fava_0024-512.png", "custom_css": null}, {"id": 10746, "slack_id": "U09335V16QY", "display_name": "Joabe", "bio": null, "projects_count": 0, "devlogs_count": 0, "votes_count": 0, "ships_count": 0, "projects": [], "coding_time_seconds": 0, "coding_time_seconds_today": 0, "balance": "You need to have a pocket watcher badge to view this.", "badges": [], "created_at": "2025-06-20T23:24:38.961-04:00", "updated_at": "2025-07-03T19:57:08.946-04:00", "avatar": "https://secure.gravatar.com/avatar/42ff99eb92db16cf16a31609dc9d3e2c.jpg?s=512&d=https%3A%2F%2Fa.slack-edge.com%2Fdf10d%2Fimg%2Favatars%2Fava_0024-512.png", "custom_css": null}, {"id": 10747, "slack_id": "U092890QQAX", "display_name": "weirdsomeone", "bio": null, "projects_count": 0, "devlogs_count": 0, "votes_count": 0, "ships_count": 0, "projects": [], "coding_time_seconds": 0, "coding_time_seconds_today": 0, "balance": "You need to have a pocket watcher badge to view this.", "badges": [], "created_at": "2025-06-20T23:26:17.200-04:00", "updated_at": "2025-07-03T19:57:09.264-04:00", "avatar": "https://secure.gravatar.com/avatar/c8697cebe0b06ea0f13b5f5271cda947.jpg?s=512&d=https%3A%2F%2Fa.slack-edge.com%2Fdf10d%2Fimg%2Favatars%2Fava_0023-512.png", "custom_css": null}, {"id": 10748, "slack_id": "U092E6775NZ", "display_name": "person20020-test-summer-of-making", "bio": null, "projects_count": 0, "devlogs_count": 0, "votes_count": 0, "ships_count": 0, "projects": [], "coding_time_seconds": 0, "coding_time_seconds_today": 0, "balance": "You need to have a pocket watcher badge to view this.", "badges": [], "created_at": "2025-06-20T23:30:21.471-04:00", "updated_at": "2025-07-03T19:57:09.532-04:00", "avatar": "https://secure.gravatar.com/avatar/ac3ec5894b03a89207136b1919eb4845.jpg?s=512&d=https%3A%2F%2Fa.slack-edge.com%2Fdf10d%2Fimg%2Favatars%2Fava_0025-512.png", "custom_css": null}, {"id": 10749, "slack_id": "U092EV460R0", "display_name": "Chan", "bio": null, "projects_count": 0, "devlogs_count": 0, "votes_count": 0, "ships_count": 0, "projects": [], "coding_time_seconds": 0, "coding_time_seconds_today": 0, "balance": "You need to have a pocket watcher badge to view this.", "badges": [], "created_at": "2025-06-20T23:31:20.070-04:00", "updated_at": "2025-07-03T19:57:09.796-04:00", "avatar": "https://secure.gravatar.com/avatar/668718bb354b5531b5c3d55c518496aa.jpg?s=512&d=https%3A%2F%2Fa.slack-edge.com%2Fdf10d%2Fimg%2Favatars%2Fava_0001-512.png", "custom_css": null}, {"id": 10750, "slack_id": "U0930PEDLHE", "display_name": "Sherlyn Saavedra", "bio": null, "projects_count": 0, "devlogs_count": 0, "votes_count": 0, "ships_count": 0, "projects": [], "coding_time_seconds": 66149, "coding_time_seconds_today": 0, "balance": "You need to have a pocket watcher badge to view this.", "badges": [], "created_at": "2025-06-20T23:33:01.976-04:00", "updated_at": "2025-07-03T19:57:10.076-04:00", "avatar": "https://secure.gravatar.com/avatar/af2d26743cc87725c3982b472434b7f5.jpg?s=512&d=https%3A%2F%2Fa.slack-edge.com%2Fdf10d%2Fimg%2Favatars%2Fava_0001-512.png", "custom_css": null}, {"id": 10751, "slack_id": "U091VTXT223", "display_name": "zayan", "bio": null, "projects_count": 0, "devlogs_count": 0, "votes_count": 0, "ships_count": 0, "projects": [], "coding_time_seconds": 0, "coding_time_seconds_today": 0, "balance": "You need to have a pocket watcher badge to view this.", "badges": [], "created_at": "2025-06-20T23:39:06.181-04:00", "updated_at": "2025-07-03T19:57:10.348-04:00", "avatar": "https://secure.gravatar.com/avatar/8fd3d63b2dcf3a58de4c7dcb611b625a.jpg?s=512&d=https%3A%2F%2Fa.slack-edge.com%2Fdf10d%2Fimg%2Favatars%2Fava_0019-512.png", "custom_css": null}, {"id": 10752, "slack_id": "U09232TU7B5", "display_name": "Papangkorn Apinyanon", "bio": null, "projects_count": 0, "devlogs_count": 0, "votes_count": 0, "ships_count": 0, "projects": [], "coding_time_seconds": 61569, "coding_time_seconds_today": 0, "balance": "You need to have a pocket watcher badge to view this.", "badges": [], "created_at": "2025-06-20T23:41:57.326-04:00", "updated_at": "2025-07-06T08:11:34.625-04:00", "avatar": "https://secure.gravatar.com/avatar/d1505c007e0b73732de377756d51efd6.jpg?s=512&d=https%3A%2F%2Fa.slack-edge.com%2Fdf10d%2Fimg%2Favatars%2Fava_0015-512.png", "custom_css": null}, {"id": 10753, "slack_id": "U092FBGJR3N", "display_name": "pankaj", "bio": null, "projects_count": 0, "devlogs_count": 0, "votes_count": 0, "ships_count": 0, "projects": [], "coding_time_seconds": 0, "coding_time_seconds_today": 0, "balance": "You need to have a pocket watcher badge to view this.", "badges": [], "created_at": "2025-06-21T00:00:45.702-04:00", "updated_at": "2025-07-05T08:12:24.218-04:00", "avatar": "https://secure.gravatar.com/avatar/3800e81da2a3cb440f23d54d1a8d57f7.jpg?s=512&d=https%3A%2F%2Fa.slack-edge.com%2Fdf10d%2Fimg%2Favatars%2Fava_0005-512.png", "custom_css": null}, {"id": 10754, "slack_id": "U0928V9E2PQ", "display_name": "Kshitij Koyande", "bio": null, "projects_count": 0, "devlogs_count": 0, "votes_count": 0, "ships_count": 0, "projects": [], "coding_time_seconds": 0, "coding_time_seconds_today": 0, "balance": "You need to have a pocket watcher badge to view this.", "badges": [], "created_at": "2025-06-21T00:06:57.185-04:00", "updated_at": "2025-07-04T20:11:27.161-04:00", "avatar": "https://avatars.slack-edge.com/2025-06-20/9077002975366_3dfd792b5281cd51f1ae_original.jpg", "custom_css": null}, {"id": 10755, "slack_id": "U0920AVTN95", "display_name": "Guy", "bio": null, "projects_count": 0, "devlogs_count": 0, "votes_count": 0, "ships_count": 0, "projects": [], "coding_time_seconds": 0, "coding_time_seconds_today": 0, "balance": "You need to have a pocket watcher badge to view this.", "badges": [], "created_at": "2025-06-21T00:08:38.709-04:00", "updated_at": "2025-07-04T08:26:53.114-04:00", "avatar": "https://secure.gravatar.com/avatar/8174579acd36d7ca88607764c41055d8.jpg?s=512&d=https%3A%2F%2Fa.slack-edge.com%2Fdf10d%2Fimg%2Favatars%2Fava_0009-512.png", "custom_css": null}, {"id": 10756, "slack_id": "U093371FT7A", "display_name": "Namya", "bio": null, "projects_count": 0, "devlogs_count": 0, "votes_count": 0, "ships_count": 0, "projects": [], "coding_time_seconds": 0, "coding_time_seconds_today": 0, "balance": "You need to have a pocket watcher badge to view this.", "badges": [], "created_at": "2025-06-21T00:11:33.408-04:00", "updated_at": "2025-07-03T19:57:11.181-04:00", "avatar": "https://secure.gravatar.com/avatar/efd03252721921f839a36e69ae12b0a3.jpg?s=512&d=https%3A%2F%2Fa.slack-edge.com%2Fdf10d%2Fimg%2Favatars%2Fava_0002-512.png", "custom_css": null}, {"id": 10757, "slack_id": "U0920B3DC6T", "display_name": "William Chou", "bio": null, "projects_count": 0, "devlogs_count": 0, "votes_count": 0, "ships_count": 0, "projects": [], "coding_time_seconds": 4765, "coding_time_seconds_today": 0, "balance": "You need to have a pocket watcher badge to view this.", "badges": [], "created_at": "2025-06-21T00:16:54.488-04:00", "updated_at": "2025-07-03T19:57:11.448-04:00", "avatar": "https://avatars.slack-edge.com/2025-06-20/9083427645668_bba07d15b7bd8feca9a4_original.jpg", "custom_css": null}, {"id": 10758, "slack_id": "U0928B66151", "display_name": "Alex Wang", "bio": null, "projects_count": 0, "devlogs_count": 0, "votes_count": 0, "ships_count": 0, "projects": [], "coding_time_seconds": 0, "coding_time_seconds_today": 0, "balance": "You need to have a pocket watcher badge to view this.", "badges": [], "created_at": "2025-06-21T00:21:10.951-04:00", "updated_at": "2025-07-03T19:57:11.721-04:00", "avatar": "https://avatars.slack-edge.com/2025-06-20/9095898040865_8086e8fcd04a105962c4_original.png", "custom_css": null}, {"id": 10759, "slack_id": "U083RK3EDQF", "display_name": "Adel", "bio": null, "projects_count": 1, "devlogs_count": 1, "votes_count": 0, "ships_count": 0, "projects": [{"id": 9988, "title": "What Summer Are You?", "devlogs_count": 1, "created_at": "2025-08-03T10:15:45.209-04:00"}], "coding_time_seconds": 24762, "coding_time_seconds_today": 0, "balance": "You need to have a pocket watcher badge to view this.", "badges": [], "created_at": "2025-06-21T00:34:39.807-04:00", "updated_at": "2025-07-16T05:03:30.189-04:00", "avatar": "https://secure.gravatar.com/avatar/760168dc3d3e99678c28e0b011f40345.jpg?s=512&d=https%3A%2F%2Fa.slack-edge.com%2Fdf10d%2Fimg%2Favatars%2Fava_0024-512.png", "custom_css": null}, {"id": 10760, "slack_id": "U0928BYBHMH", "display_name": "Puru Thakur", "bio": null, "projects_count": 0, "devlogs_count": 0, "votes_count": 0, "ships_count": 0, "projects": [], "coding_time_seconds": 2435, "coding_time_seconds_today": 0, "balance": "You need to have a pocket watcher badge to view this.", "badges": [], "created_at": "2025-06-21T00:40:29.700-04:00", "updated_at": "2025-07-03T19:57:12.258-04:00", "avatar": "https://secure.gravatar.com/avatar/c9623f22af1e9e6a57dba176cc6169ef.jpg?s=512&d=https%3A%2F%2Fa.slack-edge.com%2Fdf10d%2Fimg%2Favatars%2Fava_0015-512.png", "custom_css": null}], "pagination": {"page": 538, "pages": 1192, "count": 23828, "items": 20}}