{"users": [{"id": 10761, "slack_id": "U092F2HUMNW", "display_name": "yash kambaria", "bio": null, "projects_count": 0, "devlogs_count": 0, "votes_count": 0, "ships_count": 0, "projects": [], "coding_time_seconds": 436, "coding_time_seconds_today": 0, "balance": "You need to have a pocket watcher badge to view this.", "badges": [], "created_at": "2025-06-21T00:43:25.407-04:00", "updated_at": "2025-07-03T19:57:12.558-04:00", "avatar": "https://avatars.slack-edge.com/2025-06-20/9077054912518_ac016dbf064000a7a3be_original.png", "custom_css": null}, {"id": 10762, "slack_id": "U08TZ712A3E", "display_name": "Alon Ragoler", "bio": null, "projects_count": 0, "devlogs_count": 0, "votes_count": 0, "ships_count": 0, "projects": [], "coding_time_seconds": 0, "coding_time_seconds_today": 0, "balance": "You need to have a pocket watcher badge to view this.", "badges": [], "created_at": "2025-06-21T00:44:01.127-04:00", "updated_at": "2025-07-03T19:57:12.827-04:00", "avatar": "https://avatars.slack-edge.com/2025-06-20/9077056430806_fd97619267e13ff6c992_original.png", "custom_css": null}, {"id": 10763, "slack_id": "U092E9689E1", "display_name": "priincce", "bio": null, "projects_count": 0, "devlogs_count": 0, "votes_count": 0, "ships_count": 0, "projects": [], "coding_time_seconds": 0, "coding_time_seconds_today": 0, "balance": "You need to have a pocket watcher badge to view this.", "badges": [], "created_at": "2025-06-21T00:50:11.220-04:00", "updated_at": "2025-07-08T02:54:58.010-04:00", "avatar": "https://secure.gravatar.com/avatar/83f0cfcdc37a460fddd906d766cae8b5.jpg?s=512&d=https%3A%2F%2Fa.slack-edge.com%2Fdf10d%2Fimg%2Favatars%2Fava_0002-512.png", "custom_css": null}, {"id": 10764, "slack_id": "U092E7PPT9Q", "display_name": "Aakrisht Srivastava", "bio": null, "projects_count": 1, "devlogs_count": 3, "votes_count": 0, "ships_count": 0, "projects": [{"id": 2772, "title": "Bobby, the website builder", "devlogs_count": 3, "created_at": "2025-06-22T03:31:30.302-04:00"}], "coding_time_seconds": 158670, "coding_time_seconds_today": 0, "balance": "You need to have a pocket watcher badge to view this.", "badges": [], "created_at": "2025-06-21T00:56:19.206-04:00", "updated_at": "2025-07-19T09:19:33.152-04:00", "avatar": "https://avatars.slack-edge.com/2025-06-20/9083479464004_b609246285d29d9b3cbf_original.png", "custom_css": null}, {"id": 10765, "slack_id": "U091B34205V", "display_name": "Itamar Yurman", "bio": null, "projects_count": 0, "devlogs_count": 0, "votes_count": 0, "ships_count": 0, "projects": [], "coding_time_seconds": 0, "coding_time_seconds_today": 0, "balance": "You need to have a pocket watcher badge to view this.", "badges": [], "created_at": "2025-06-21T00:58:09.349-04:00", "updated_at": "2025-07-03T19:57:13.507-04:00", "avatar": "https://secure.gravatar.com/avatar/e61964e505094746bb90de3ecbb13277.jpg?s=512&d=https%3A%2F%2Fa.slack-edge.com%2Fdf10d%2Fimg%2Favatars%2Fava_0024-512.png", "custom_css": null}, {"id": 10766, "slack_id": "U092FDZBYBW", "display_name": "Shivam Kumar Lal", "bio": null, "projects_count": 0, "devlogs_count": 0, "votes_count": 0, "ships_count": 0, "projects": [], "coding_time_seconds": 0, "coding_time_seconds_today": 0, "balance": "You need to have a pocket watcher badge to view this.", "badges": [], "created_at": "2025-06-21T00:58:48.236-04:00", "updated_at": "2025-07-04T02:30:38.337-04:00", "avatar": "https://secure.gravatar.com/avatar/3b1412d00e6c4f61d2b7dc67acddc22a.jpg?s=512&d=https%3A%2F%2Fa.slack-edge.com%2Fdf10d%2Fimg%2Favatars%2Fava_0000-512.png", "custom_css": null}, {"id": 10767, "slack_id": "U0928CP1527", "display_name": "Farhan Pravej", "bio": null, "projects_count": 0, "devlogs_count": 0, "votes_count": 0, "ships_count": 0, "projects": [], "coding_time_seconds": 240, "coding_time_seconds_today": 0, "balance": "You need to have a pocket watcher badge to view this.", "badges": [], "created_at": "2025-06-21T01:00:47.006-04:00", "updated_at": "2025-07-03T19:57:13.925-04:00", "avatar": "https://secure.gravatar.com/avatar/9b38d6b2cab1cf23882f5a28cef7d5d5.jpg?s=512&d=https%3A%2F%2Fa.slack-edge.com%2Fdf10d%2Fimg%2Favatars%2Fava_0006-512.png", "custom_css": null}, {"id": 10768, "slack_id": "U092F37MRGS", "display_name": "Adarsh Kumar", "bio": null, "projects_count": 0, "devlogs_count": 0, "votes_count": 0, "ships_count": 0, "projects": [], "coding_time_seconds": 0, "coding_time_seconds_today": 0, "balance": "You need to have a pocket watcher badge to view this.", "badges": [], "created_at": "2025-06-21T01:02:01.370-04:00", "updated_at": "2025-07-03T19:57:14.193-04:00", "avatar": "https://secure.gravatar.com/avatar/307534856e8c2e1b2a203f2fb02eb4ec.jpg?s=512&d=https%3A%2F%2Fa.slack-edge.com%2Fdf10d%2Fimg%2Favatars%2Fava_0013-512.png", "custom_css": null}, {"id": 10769, "slack_id": "U08V3EWK6TW", "display_name": "hackmon", "bio": null, "projects_count": 1, "devlogs_count": 4, "votes_count": 0, "ships_count": 0, "projects": [{"id": 2419, "title": "Maker Profile", "devlogs_count": 4, "created_at": "2025-06-21T01:39:28.613-04:00"}], "coding_time_seconds": 48258, "coding_time_seconds_today": 120, "balance": "You need to have a pocket watcher badge to view this.", "badges": [], "created_at": "2025-06-21T01:07:08.364-04:00", "updated_at": "2025-07-03T19:57:14.468-04:00", "avatar": "https://avatars.slack-edge.com/2025-06-02/8985505741429_b6c40eda02b290173cc7_original.jpg", "custom_css": null}, {"id": 10770, "slack_id": "U09339M5WGG", "display_name": "MODI HET", "bio": null, "projects_count": 0, "devlogs_count": 0, "votes_count": 0, "ships_count": 0, "projects": [], "coding_time_seconds": 74613, "coding_time_seconds_today": 0, "balance": "You need to have a pocket watcher badge to view this.", "badges": [], "created_at": "2025-06-21T01:11:56.428-04:00", "updated_at": "2025-07-03T19:57:14.737-04:00", "avatar": "https://avatars.slack-edge.com/2025-06-20/9083131302258_c164a2681edf64bc54a6_original.png", "custom_css": null}, {"id": 10771, "slack_id": "U092EA0A5B7", "display_name": "Master Yug", "bio": null, "projects_count": 2, "devlogs_count": 14, "votes_count": 60, "ships_count": 1, "projects": [{"id": 12748, "title": "CircuPlay \u2013 Pixel Sandbox for Circuits", "devlogs_count": 10, "created_at": "2025-09-01T23:32:34.165-04:00"}, {"id": 13577, "title": "ICONIC SNAKE for sprig", "devlogs_count": 1, "created_at": "2025-09-19T23:05:38.632-04:00"}], "coding_time_seconds": 354880, "coding_time_seconds_today": 0, "balance": "You need to have a pocket watcher badge to view this.", "badges": [{"name": "Maiden Voyage", "text": "you shipped your first project! the journey begins...", "icon": "\ud83d\udea2"}], "created_at": "2025-06-21T01:14:26.704-04:00", "updated_at": "2025-09-10T22:56:32.870-04:00", "avatar": "https://secure.gravatar.com/avatar/14842d2830d72d3829ac760da224d4e1.jpg?s=512&d=https%3A%2F%2Fa.slack-edge.com%2Fdf10d%2Fimg%2Favatars%2Fava_0024-512.png", "custom_css": null}, {"id": 10772, "slack_id": "U08TSH003LL", "display_name": "Bhupendra Lekhak", "bio": null, "projects_count": 3, "devlogs_count": 9, "votes_count": 22, "ships_count": 1, "projects": [{"id": 2464, "title": "Routine_Tracker", "devlogs_count": 0, "created_at": "2025-06-21T04:43:49.989-04:00"}, {"id": 2465, "title": "Routine_Tracker", "devlogs_count": 0, "created_at": "2025-06-21T04:43:53.147-04:00"}, {"id": 2466, "title": "Routine_Tracker", "devlogs_count": 9, "created_at": "2025-06-21T04:43:55.283-04:00"}], "coding_time_seconds": 100251, "coding_time_seconds_today": 0, "balance": "You need to have a pocket watcher badge to view this.", "badges": [{"name": "Maiden Voyage", "text": "you shipped your first project! the journey begins...", "icon": "\ud83d\udea2"}], "created_at": "2025-06-21T01:15:02.716-04:00", "updated_at": "2025-09-10T22:56:32.911-04:00", "avatar": "https://secure.gravatar.com/avatar/0e08b20d08e07d474da6bdca9a587c4b.jpg?s=512&d=https%3A%2F%2Fa.slack-edge.com%2Fdf10d%2Fimg%2Favatars%2Fava_0001-512.png", "custom_css": null}, {"id": 10773, "slack_id": "U092FEZS268", "display_name": "Sachith", "bio": null, "projects_count": 0, "devlogs_count": 0, "votes_count": 0, "ships_count": 0, "projects": [], "coding_time_seconds": 60, "coding_time_seconds_today": 0, "balance": "You need to have a pocket watcher badge to view this.", "badges": [], "created_at": "2025-06-21T01:21:44.584-04:00", "updated_at": "2025-07-03T19:57:15.431-04:00", "avatar": "https://secure.gravatar.com/avatar/d3d2516d003fac330e5420213b42fb06.jpg?s=512&d=https%3A%2F%2Fa.slack-edge.com%2Fdf10d%2Fimg%2Favatars%2Fava_0018-512.png", "custom_css": null}, {"id": 10774, "slack_id": "U092CEANN2Z", "display_name": "Naidhana Srinivas", "bio": null, "projects_count": 0, "devlogs_count": 0, "votes_count": 0, "ships_count": 0, "projects": [], "coding_time_seconds": 0, "coding_time_seconds_today": 0, "balance": "You need to have a pocket watcher badge to view this.", "badges": [], "created_at": "2025-06-21T01:24:59.201-04:00", "updated_at": "2025-07-03T19:57:15.738-04:00", "avatar": "https://secure.gravatar.com/avatar/384a86ebe3d3907ee3b9e32c7bb630de.jpg?s=512&d=https%3A%2F%2Fa.slack-edge.com%2Fdf10d%2Fimg%2Favatars%2Fava_0007-512.png", "custom_css": null}, {"id": 10775, "slack_id": "U0920E4KDPZ", "display_name": "Infinity_Leo", "bio": null, "projects_count": 0, "devlogs_count": 0, "votes_count": 0, "ships_count": 0, "projects": [], "coding_time_seconds": 609120, "coding_time_seconds_today": 3834, "balance": "You need to have a pocket watcher badge to view this.", "badges": [], "created_at": "2025-06-21T01:31:44.568-04:00", "updated_at": "2025-07-04T02:30:39.219-04:00", "avatar": "https://secure.gravatar.com/avatar/f6adec2d3e18ad81966767f393d666d8.jpg?s=512&d=https%3A%2F%2Fa.slack-edge.com%2Fdf10d%2Fimg%2Favatars%2Fava_0016-512.png", "custom_css": null}, {"id": 10776, "slack_id": "U092FFEJ744", "display_name": "Divyam Seksaria", "bio": null, "projects_count": 2, "devlogs_count": 12, "votes_count": 34, "ships_count": 2, "projects": [{"id": 6333, "title": "LimitIt", "devlogs_count": 4, "created_at": "2025-07-12T12:19:19.690-04:00"}, {"id": 3674, "title": "Optimal Bus Route", "devlogs_count": 8, "created_at": "2025-06-25T07:06:24.547-04:00"}], "coding_time_seconds": 99914, "coding_time_seconds_today": 0, "balance": "You need to have a pocket watcher badge to view this.", "badges": [{"name": "Maiden Voyage", "text": "you shipped your first project! the journey begins...", "icon": "\ud83d\udea2"}], "created_at": "2025-06-21T01:32:53.514-04:00", "updated_at": "2025-09-10T22:56:33.031-04:00", "avatar": "https://avatars.slack-edge.com/2025-06-20/9077127409942_37b8f1772d18fa4df01a_original.png", "custom_css": null}, {"id": 10777, "slack_id": "U09293N96LW", "display_name": "Adeeb Khan", "bio": null, "projects_count": 0, "devlogs_count": 0, "votes_count": 0, "ships_count": 0, "projects": [], "coding_time_seconds": 0, "coding_time_seconds_today": 0, "balance": "You need to have a pocket watcher badge to view this.", "badges": [], "created_at": "2025-06-21T01:35:47.872-04:00", "updated_at": "2025-07-03T19:57:16.291-04:00", "avatar": "https://secure.gravatar.com/avatar/7a142fbd2e392fd13b2e17c4997424e4.jpg?s=512&d=https%3A%2F%2Fa.slack-edge.com%2Fdf10d%2Fimg%2Favatars%2Fava_0023-512.png", "custom_css": null}, {"id": 10778, "slack_id": "U092AEHK20J", "display_name": "Kyo", "bio": null, "projects_count": 0, "devlogs_count": 0, "votes_count": 0, "ships_count": 0, "projects": [], "coding_time_seconds": 2232, "coding_time_seconds_today": 0, "balance": "You need to have a pocket watcher badge to view this.", "badges": [], "created_at": "2025-06-21T01:38:42.608-04:00", "updated_at": "2025-07-03T22:01:22.041-04:00", "avatar": "https://secure.gravatar.com/avatar/bc4c3c0293c845d6eb590b2e76948704.jpg?s=512&d=https%3A%2F%2Fa.slack-edge.com%2Fdf10d%2Fimg%2Favatars%2Fava_0018-512.png", "custom_css": null}, {"id": 10779, "slack_id": "U0928DS8BD1", "display_name": "Ravindu Atthanayake", "bio": null, "projects_count": 0, "devlogs_count": 0, "votes_count": 0, "ships_count": 0, "projects": [], "coding_time_seconds": 0, "coding_time_seconds_today": 0, "balance": "You need to have a pocket watcher badge to view this.", "badges": [], "created_at": "2025-06-21T01:39:33.787-04:00", "updated_at": "2025-07-03T19:57:16.714-04:00", "avatar": "https://secure.gravatar.com/avatar/08c73d6462aa91da2e1248e88da359df.jpg?s=512&d=https%3A%2F%2Fa.slack-edge.com%2Fdf10d%2Fimg%2Favatars%2Fava_0024-512.png", "custom_css": null}, {"id": 10780, "slack_id": "U092FFW8NN8", "display_name": "Devika", "bio": null, "projects_count": 0, "devlogs_count": 0, "votes_count": 0, "ships_count": 0, "projects": [], "coding_time_seconds": 0, "coding_time_seconds_today": 0, "balance": "You need to have a pocket watcher badge to view this.", "badges": [], "created_at": "2025-06-21T01:49:10.080-04:00", "updated_at": "2025-07-03T19:57:16.987-04:00", "avatar": "https://secure.gravatar.com/avatar/d349b444fdfbfa9b080ef95d1a11b436.jpg?s=512&d=https%3A%2F%2Fa.slack-edge.com%2Fdf10d%2Fimg%2Favatars%2Fava_0024-512.png", "custom_css": null}], "pagination": {"page": 539, "pages": 1192, "count": 23828, "items": 20}}