{"users": [{"id": 1061, "slack_id": "U091MHTM17X", "display_name": "Lara", "bio": null, "projects_count": 0, "devlogs_count": 0, "votes_count": 0, "ships_count": 0, "projects": [], "coding_time_seconds": 0, "coding_time_seconds_today": 0, "balance": "You need to have a pocket watcher badge to view this.", "badges": [], "created_at": "2025-06-16T12:38:47.672-04:00", "updated_at": "2025-07-03T19:15:55.229-04:00", "avatar": "https://secure.gravatar.com/avatar/2cd73414580177b3fe1c224149f03cc6.jpg?s=512&d=https%3A%2F%2Fa.slack-edge.com%2Fdf10d%2Fimg%2Favatars%2Fava_0012-512.png", "custom_css": null}, {"id": 1062, "slack_id": "U091MHKR5E1", "display_name": "PKA-LeTheTran", "bio": null, "projects_count": 0, "devlogs_count": 0, "votes_count": 0, "ships_count": 0, "projects": [], "coding_time_seconds": 0, "coding_time_seconds_today": 0, "balance": "You need to have a pocket watcher badge to view this.", "badges": [], "created_at": "2025-06-16T12:38:50.502-04:00", "updated_at": "2025-07-03T19:15:55.502-04:00", "avatar": "https://secure.gravatar.com/avatar/82e69d8553ec7956c66157529104d35f.jpg?s=512&d=https%3A%2F%2Fa.slack-edge.com%2Fdf10d%2Fimg%2Favatars%2Fava_0009-512.png", "custom_css": null}, {"id": 1063, "slack_id": "U091GC5LL1Z", "display_name": "Enilson", "bio": null, "projects_count": 0, "devlogs_count": 0, "votes_count": 0, "ships_count": 0, "projects": [], "coding_time_seconds": 0, "coding_time_seconds_today": 0, "balance": "You need to have a pocket watcher badge to view this.", "badges": [], "created_at": "2025-06-16T12:38:54.495-04:00", "updated_at": "2025-07-03T19:15:55.780-04:00", "avatar": "https://secure.gravatar.com/avatar/673dc481c7b9728675a579b4df3641bd.jpg?s=512&d=https%3A%2F%2Fa.slack-edge.com%2Fdf10d%2Fimg%2Favatars%2Fava_0011-512.png", "custom_css": null}, {"id": 1064, "slack_id": "U086MAW7K6Z", "display_name": "AlDeep", "bio": null, "projects_count": 0, "devlogs_count": 29, "votes_count": 236, "ships_count": 0, "projects": [], "coding_time_seconds": 274601, "coding_time_seconds_today": 0, "balance": "You need to have a pocket watcher badge to view this.", "badges": [{"name": "Maiden Voyage", "text": "you shipped your first project! the journey begins...", "icon": "\ud83d\udea2"}, {"name": "Ballot Stuffer", "text": "vote 100 times.", "icon": "https://summer.hackclub.com/assets/i_voted-bf851b48.png"}], "created_at": "2025-06-16T12:38:57.935-04:00", "updated_at": "2025-09-10T22:51:41.171-04:00", "avatar": "https://secure.gravatar.com/avatar/68d0328863aaaba0103910ea88cf6313.jpg?s=512&d=https%3A%2F%2Fa.slack-edge.com%2Fdf10d%2Fimg%2Favatars%2Fava_0008-512.png", "custom_css": null}, {"id": 1065, "slack_id": "U078E2KK5NH", "display_name": "Lara", "bio": null, "projects_count": 0, "devlogs_count": 0, "votes_count": 0, "ships_count": 0, "projects": [], "coding_time_seconds": 133424, "coding_time_seconds_today": 0, "balance": "You need to have a pocket watcher badge to view this.", "badges": [], "created_at": "2025-06-16T12:39:04.141-04:00", "updated_at": "2025-09-05T17:31:55.400-04:00", "avatar": "https://avatars.slack-edge.com/2025-05-08/8887689144656_3269e29798c965b11208_original.png", "custom_css": null}, {"id": 1066, "slack_id": "U09181UE66B", "display_name": "Raphael", "bio": null, "projects_count": 0, "devlogs_count": 0, "votes_count": 0, "ships_count": 0, "projects": [], "coding_time_seconds": 0, "coding_time_seconds_today": 0, "balance": "You need to have a pocket watcher badge to view this.", "badges": [], "created_at": "2025-06-16T12:39:08.200-04:00", "updated_at": "2025-07-03T19:15:56.608-04:00", "avatar": "https://avatars.slack-edge.com/2025-06-16/9057390897394_dca1122b3635ff0fbf97_original.png", "custom_css": null}, {"id": 1067, "slack_id": "U091FTESTL6", "display_name": "kubabisi", "bio": null, "projects_count": 1, "devlogs_count": 1, "votes_count": 0, "ships_count": 0, "projects": [{"id": 3269, "title": "MusicGenreMap", "devlogs_count": 1, "created_at": "2025-06-23T16:11:49.022-04:00"}], "coding_time_seconds": 131225, "coding_time_seconds_today": 0, "balance": "You need to have a pocket watcher badge to view this.", "badges": [], "created_at": "2025-06-16T12:39:10.988-04:00", "updated_at": "2025-08-08T04:12:56.894-04:00", "avatar": "https://secure.gravatar.com/avatar/d6c7a1999f296d3c4b37c5dfb95b9f80.jpg?s=512&d=https%3A%2F%2Fa.slack-edge.com%2Fdf10d%2Fimg%2Favatars%2Fava_0004-512.png", "custom_css": null}, {"id": 1068, "slack_id": "U0921TBLW0Z", "display_name": "Pierre Natiez", "bio": null, "projects_count": 0, "devlogs_count": 0, "votes_count": 0, "ships_count": 0, "projects": [], "coding_time_seconds": 0, "coding_time_seconds_today": 0, "balance": "You need to have a pocket watcher badge to view this.", "badges": [], "created_at": "2025-06-16T12:39:18.939-04:00", "updated_at": "2025-07-03T19:15:57.157-04:00", "avatar": "https://avatars.slack-edge.com/2025-06-16/9057392619074_22e537f28ab90bf72c43_original.png", "custom_css": null}, {"id": 1069, "slack_id": "U091GEWQ1NJ", "display_name": "Dakshh", "bio": null, "projects_count": 4, "devlogs_count": 5, "votes_count": 3, "ships_count": 2, "projects": [{"id": 606, "title": "FeedBackGram", "devlogs_count": 1, "created_at": "2025-06-17T02:39:03.066-04:00"}, {"id": 914, "title": "MyPortfolio", "devlogs_count": 2, "created_at": "2025-06-17T11:05:29.509-04:00"}, {"id": 2561, "title": "DevDarshan", "devlogs_count": 1, "created_at": "2025-06-21T10:37:44.579-04:00"}, {"id": 3954, "title": "DropVault", "devlogs_count": 1, "created_at": "2025-06-26T13:41:35.904-04:00"}], "coding_time_seconds": 307084, "coding_time_seconds_today": 0, "balance": "You need to have a pocket watcher badge to view this.", "badges": [{"name": "Maiden Voyage", "text": "you shipped your first project! the journey begins...", "icon": "\ud83d\udea2"}], "created_at": "2025-06-16T12:39:19.821-04:00", "updated_at": "2025-09-10T22:51:41.324-04:00", "avatar": "https://secure.gravatar.com/avatar/1146d3cf6a56d90a52226e3af2ecd5b4.jpg?s=512&d=https%3A%2F%2Fa.slack-edge.com%2Fdf10d%2Fimg%2Favatars%2Fava_0017-512.png", "custom_css": null}, {"id": 1070, "slack_id": "U091MHM3ZD3", "display_name": "Legendre", "bio": null, "projects_count": 0, "devlogs_count": 0, "votes_count": 0, "ships_count": 0, "projects": [], "coding_time_seconds": 0, "coding_time_seconds_today": 0, "balance": "You need to have a pocket watcher badge to view this.", "badges": [], "created_at": "2025-06-16T12:39:20.455-04:00", "updated_at": "2025-07-03T19:15:57.698-04:00", "avatar": "https://avatars.slack-edge.com/2025-06-16/9050428143971_e6a2928dcd7081776d7f_original.png", "custom_css": null}, {"id": 1071, "slack_id": "U091GF7KM7G", "display_name": "Shantanu", "bio": null, "projects_count": 0, "devlogs_count": 0, "votes_count": 0, "ships_count": 0, "projects": [], "coding_time_seconds": 1887, "coding_time_seconds_today": 0, "balance": "You need to have a pocket watcher badge to view this.", "badges": [], "created_at": "2025-06-16T12:39:24.806-04:00", "updated_at": "2025-07-03T19:15:57.965-04:00", "avatar": "https://secure.gravatar.com/avatar/14060e0facf356cb1a68aeefe799d95d.jpg?s=512&d=https%3A%2F%2Fa.slack-edge.com%2Fdf10d%2Fimg%2Favatars%2Fava_0003-512.png", "custom_css": null}, {"id": 1072, "slack_id": "U02CWS020SD", "display_name": "alex", "bio": "", "projects_count": 0, "devlogs_count": 0, "votes_count": 0, "ships_count": 0, "projects": [], "coding_time_seconds": 0, "coding_time_seconds_today": 0, "balance": "You need to have a pocket watcher badge to view this.", "badges": [], "created_at": "2025-06-16T12:39:42.351-04:00", "updated_at": "2025-08-31T16:45:13.448-04:00", "avatar": "https://avatars.slack-edge.com/2025-01-08/8254178328887_faa4dc5cc079d0415413_original.jpg", "custom_css": null}, {"id": 1073, "slack_id": "U0921TJ4RL1", "display_name": "Dimas Wisnu", "bio": null, "projects_count": 0, "devlogs_count": 0, "votes_count": 0, "ships_count": 0, "projects": [], "coding_time_seconds": 0, "coding_time_seconds_today": 0, "balance": "You need to have a pocket watcher badge to view this.", "badges": [], "created_at": "2025-06-16T12:39:45.540-04:00", "updated_at": "2025-07-03T19:15:58.511-04:00", "avatar": "https://avatars.slack-edge.com/2025-06-16/9069956918465_a011f7ec0b9d86486dc1_original.jpg", "custom_css": null}, {"id": 1074, "slack_id": "U091MHS20VB", "display_name": "Jack Minehan", "bio": null, "projects_count": 0, "devlogs_count": 0, "votes_count": 0, "ships_count": 0, "projects": [], "coding_time_seconds": 0, "coding_time_seconds_today": 0, "balance": "You need to have a pocket watcher badge to view this.", "badges": [], "created_at": "2025-06-16T12:39:58.322-04:00", "updated_at": "2025-07-03T19:15:58.784-04:00", "avatar": "https://secure.gravatar.com/avatar/f7cf77aaa237f2bc216e5239854026b2.jpg?s=512&d=https%3A%2F%2Fa.slack-edge.com%2Fdf10d%2Fimg%2Favatars%2Fava_0012-512.png", "custom_css": null}, {"id": 1075, "slack_id": "U091GC64KM1", "display_name": "Hugo", "bio": null, "projects_count": 2, "devlogs_count": 2, "votes_count": 0, "ships_count": 0, "projects": [{"id": 124, "title": "I2C drivers for the Raspberry Pico", "devlogs_count": 1, "created_at": "2025-06-16T14:07:23.252-04:00"}, {"id": 10391, "title": "Common utilities", "devlogs_count": 1, "created_at": "2025-08-06T14:37:46.684-04:00"}], "coding_time_seconds": 94434, "coding_time_seconds_today": 0, "balance": "You need to have a pocket watcher badge to view this.", "badges": [], "created_at": "2025-06-16T12:40:08.331-04:00", "updated_at": "2025-08-06T14:09:04.828-04:00", "avatar": "https://secure.gravatar.com/avatar/e29c6246ba21afff87cc1f4ab5d76e60.jpg?s=512&d=https%3A%2F%2Fa.slack-edge.com%2Fdf10d%2Fimg%2Favatars%2Fava_0006-512.png", "custom_css": null}, {"id": 1076, "slack_id": "U0921T1F7LZ", "display_name": "HARSH TRIVEDI", "bio": null, "projects_count": 0, "devlogs_count": 0, "votes_count": 0, "ships_count": 0, "projects": [], "coding_time_seconds": 0, "coding_time_seconds_today": 0, "balance": "You need to have a pocket watcher badge to view this.", "badges": [], "created_at": "2025-06-16T12:40:16.210-04:00", "updated_at": "2025-07-03T19:15:59.323-04:00", "avatar": "https://avatars.slack-edge.com/2025-06-16/9055625483445_e604754be56ee7273ff2_original.png", "custom_css": null}, {"id": 1077, "slack_id": "U091PPN6HPE", "display_name": "wallace leonel", "bio": null, "projects_count": 0, "devlogs_count": 0, "votes_count": 0, "ships_count": 0, "projects": [], "coding_time_seconds": 8332, "coding_time_seconds_today": 0, "balance": "You need to have a pocket watcher badge to view this.", "badges": [], "created_at": "2025-06-16T12:40:24.980-04:00", "updated_at": "2025-07-03T19:15:59.597-04:00", "avatar": "https://secure.gravatar.com/avatar/7fe653b7c1664624cbaa46187ddab77e.jpg?s=512&d=https%3A%2F%2Fa.slack-edge.com%2Fdf10d%2Fimg%2Favatars%2Fava_0018-512.png", "custom_css": null}, {"id": 1078, "slack_id": "U091MHK07AR", "display_name": "Gmin", "bio": null, "projects_count": 0, "devlogs_count": 0, "votes_count": 0, "ships_count": 0, "projects": [], "coding_time_seconds": 518232, "coding_time_seconds_today": 2893, "balance": "You need to have a pocket watcher badge to view this.", "badges": [], "created_at": "2025-06-16T12:40:29.599-04:00", "updated_at": "2025-07-03T19:15:59.871-04:00", "avatar": "https://secure.gravatar.com/avatar/dacbe22b3370adfd9afc8e272c1c0021.jpg?s=512&d=https%3A%2F%2Fa.slack-edge.com%2Fdf10d%2Fimg%2Favatars%2Fava_0021-512.png", "custom_css": null}, {"id": 1079, "slack_id": "U091PALM10A", "display_name": "Guillermo Hern\u00e1ndez Bautista", "bio": null, "projects_count": 0, "devlogs_count": 0, "votes_count": 0, "ships_count": 0, "projects": [], "coding_time_seconds": 0, "coding_time_seconds_today": 0, "balance": "You need to have a pocket watcher badge to view this.", "badges": [], "created_at": "2025-06-16T12:40:37.173-04:00", "updated_at": "2025-07-03T19:16:00.134-04:00", "avatar": "https://secure.gravatar.com/avatar/ce596fababa63f7eb4417003f0a4300e.jpg?s=512&d=https%3A%2F%2Fa.slack-edge.com%2Fdf10d%2Fimg%2Favatars%2Fava_0023-512.png", "custom_css": null}, {"id": 1080, "slack_id": "U091PBC35DG", "display_name": "Musa \u00d6ZKAN", "bio": null, "projects_count": 0, "devlogs_count": 0, "votes_count": 0, "ships_count": 0, "projects": [], "coding_time_seconds": 0, "coding_time_seconds_today": 0, "balance": "You need to have a pocket watcher badge to view this.", "badges": [], "created_at": "2025-06-16T12:40:38.526-04:00", "updated_at": "2025-07-03T19:16:00.411-04:00", "avatar": "https://secure.gravatar.com/avatar/13ef787829ce34efc2fc4897a31aef78.jpg?s=512&d=https%3A%2F%2Fa.slack-edge.com%2Fdf10d%2Fimg%2Favatars%2Fava_0025-512.png", "custom_css": null}], "pagination": {"page": 54, "pages": 1192, "count": 23827, "items": 20}}