{"users": [{"id": 10781, "slack_id": "U08SYBG2DAN", "display_name": "Adi", "bio": null, "projects_count": 3, "devlogs_count": 11, "votes_count": 138, "ships_count": 2, "projects": [{"id": 2430, "title": "ChefsCircle", "devlogs_count": 9, "created_at": "2025-06-21T02:30:41.168-04:00"}, {"id": 6780, "title": "RickRoll Location Tracker ", "devlogs_count": 0, "created_at": "2025-07-16T04:53:15.845-04:00"}, {"id": 11344, "title": "My Culinary Masterpiece", "devlogs_count": 2, "created_at": "2025-08-15T04:02:07.523-04:00"}], "coding_time_seconds": 49415, "coding_time_seconds_today": 0, "balance": "You need to have a pocket watcher badge to view this.", "badges": [{"name": "Maiden Voyage", "text": "you shipped your first project! the journey begins...", "icon": "\ud83d\udea2"}, {"name": "Ballot Stuffer", "text": "vote 100 times.", "icon": "https://summer.hackclub.com/assets/i_voted-bf851b48.png"}], "created_at": "2025-06-21T01:49:26.879-04:00", "updated_at": "2025-09-10T22:56:33.161-04:00", "avatar": "https://avatars.slack-edge.com/2025-07-09/9173932691412_2dd418d9565878da2eb1_original.jpg", "custom_css": null}, {"id": 10782, "slack_id": "U092946B686", "display_name": "Abhishek", "bio": null, "projects_count": 0, "devlogs_count": 0, "votes_count": 0, "ships_count": 0, "projects": [], "coding_time_seconds": 0, "coding_time_seconds_today": 0, "balance": "You need to have a pocket watcher badge to view this.", "badges": [], "created_at": "2025-06-21T01:51:30.590-04:00", "updated_at": "2025-07-03T19:57:17.388-04:00", "avatar": "https://secure.gravatar.com/avatar/75930ffab1f82331aea2fa6f83f2f31f.jpg?s=512&d=https%3A%2F%2Fa.slack-edge.com%2Fdf10d%2Fimg%2Favatars%2Fava_0010-512.png", "custom_css": null}, {"id": 10783, "slack_id": "U092EBECNCV", "display_name": "Nagendra Kishore Girajala", "bio": null, "projects_count": 0, "devlogs_count": 0, "votes_count": 0, "ships_count": 0, "projects": [], "coding_time_seconds": 0, "coding_time_seconds_today": 0, "balance": "You need to have a pocket watcher badge to view this.", "badges": [], "created_at": "2025-06-21T01:52:04.738-04:00", "updated_at": "2025-07-03T22:01:22.421-04:00", "avatar": "https://secure.gravatar.com/avatar/b8f38774ec408ec99a50a06ff86d5bd8.jpg?s=512&d=https%3A%2F%2Fa.slack-edge.com%2Fdf10d%2Fimg%2Favatars%2Fava_0003-512.png", "custom_css": null}, {"id": 10784, "slack_id": "U0933BJN37A", "display_name": "Cara Cason", "bio": null, "projects_count": 0, "devlogs_count": 0, "votes_count": 0, "ships_count": 0, "projects": [], "coding_time_seconds": 0, "coding_time_seconds_today": 0, "balance": "You need to have a pocket watcher badge to view this.", "badges": [], "created_at": "2025-06-21T01:55:32.937-04:00", "updated_at": "2025-07-06T02:13:22.689-04:00", "avatar": "https://secure.gravatar.com/avatar/1927bfc3812792c0dbe983b6657b64c6.jpg?s=512&d=https%3A%2F%2Fa.slack-edge.com%2Fdf10d%2Fimg%2Favatars%2Fava_0000-512.png", "custom_css": null}, {"id": 10785, "slack_id": "U092U0P9W73", "display_name": "Carlos Jalel Izquierdo Santo", "bio": null, "projects_count": 0, "devlogs_count": 0, "votes_count": 0, "ships_count": 0, "projects": [], "coding_time_seconds": 0, "coding_time_seconds_today": 0, "balance": "You need to have a pocket watcher badge to view this.", "badges": [], "created_at": "2025-06-21T01:55:46.953-04:00", "updated_at": "2025-07-03T19:57:17.935-04:00", "avatar": "https://avatars.slack-edge.com/2025-06-20/9083187936450_951d33f1ac0ca9233d26_original.png", "custom_css": null}, {"id": 10786, "slack_id": "U0928EJGTA7", "display_name": "Shrestha", "bio": null, "projects_count": 0, "devlogs_count": 0, "votes_count": 0, "ships_count": 0, "projects": [], "coding_time_seconds": 0, "coding_time_seconds_today": 0, "balance": "You need to have a pocket watcher badge to view this.", "badges": [], "created_at": "2025-06-21T01:57:54.619-04:00", "updated_at": "2025-07-03T19:57:18.205-04:00", "avatar": "https://secure.gravatar.com/avatar/50efd64eb7f43e88d6cdb771c5933f40.jpg?s=512&d=https%3A%2F%2Fa.slack-edge.com%2Fdf10d%2Fimg%2Favatars%2Fava_0000-512.png", "custom_css": null}, {"id": 10787, "slack_id": "U0920FCSB7H", "display_name": "Jake Xie", "bio": null, "projects_count": 0, "devlogs_count": 0, "votes_count": 0, "ships_count": 0, "projects": [], "coding_time_seconds": 0, "coding_time_seconds_today": 0, "balance": "You need to have a pocket watcher badge to view this.", "badges": [], "created_at": "2025-06-21T02:01:53.766-04:00", "updated_at": "2025-07-03T19:57:18.478-04:00", "avatar": "https://avatars.slack-edge.com/2025-06-20/9082407695461_0bb7c63dbae3f424ebda_original.jpg", "custom_css": null}, {"id": 10788, "slack_id": "U0920F2016K", "display_name": "z x c", "bio": null, "projects_count": 0, "devlogs_count": 0, "votes_count": 0, "ships_count": 0, "projects": [], "coding_time_seconds": 0, "coding_time_seconds_today": 0, "balance": "You need to have a pocket watcher badge to view this.", "badges": [], "created_at": "2025-06-21T02:02:14.769-04:00", "updated_at": "2025-07-03T19:57:18.751-04:00", "avatar": "https://secure.gravatar.com/avatar/bae5e19bd1eced1f194366b30c4397f6.jpg?s=512&d=https%3A%2F%2Fa.slack-edge.com%2Fdf10d%2Fimg%2Favatars%2Fava_0008-512.png", "custom_css": null}, {"id": 10789, "slack_id": "U092FGQAN1J", "display_name": "lawa", "bio": null, "projects_count": 2, "devlogs_count": 7, "votes_count": 32, "ships_count": 1, "projects": [{"id": 12185, "title": "WarrantyPlus", "devlogs_count": 0, "created_at": "2025-08-24T05:54:18.881-04:00"}, {"id": 2428, "title": "UniLend", "devlogs_count": 7, "created_at": "2025-06-21T02:22:10.181-04:00"}], "coding_time_seconds": 185962, "coding_time_seconds_today": 0, "balance": "You need to have a pocket watcher badge to view this.", "badges": [{"name": "Maiden Voyage", "text": "you shipped your first project! the journey begins...", "icon": "\ud83d\udea2"}], "created_at": "2025-06-21T02:04:22.017-04:00", "updated_at": "2025-09-10T22:56:33.334-04:00", "avatar": "https://secure.gravatar.com/avatar/72d81173a74859e6c2e872806d17663b.jpg?s=512&d=https%3A%2F%2Fa.slack-edge.com%2Fdf10d%2Fimg%2Favatars%2Fava_0009-512.png", "custom_css": null}, {"id": 10790, "slack_id": "U0920FGCAK1", "display_name": "Tiberiu Ioan Bo\u0219can", "bio": null, "projects_count": 0, "devlogs_count": 0, "votes_count": 0, "ships_count": 0, "projects": [], "coding_time_seconds": 9534, "coding_time_seconds_today": 0, "balance": "You need to have a pocket watcher badge to view this.", "badges": [], "created_at": "2025-06-21T02:04:48.235-04:00", "updated_at": "2025-07-05T02:12:04.123-04:00", "avatar": "https://secure.gravatar.com/avatar/cf3f5e3e9d61fae8a6fa5ccac3a9d401.jpg?s=512&d=https%3A%2F%2Fa.slack-edge.com%2Fdf10d%2Fimg%2Favatars%2Fava_0012-512.png", "custom_css": null}, {"id": 10791, "slack_id": "U08BBMLC64A", "display_name": "Zylon", "bio": null, "projects_count": 0, "devlogs_count": 0, "votes_count": 0, "ships_count": 0, "projects": [], "coding_time_seconds": 0, "coding_time_seconds_today": 0, "balance": "You need to have a pocket watcher badge to view this.", "badges": [], "created_at": "2025-06-21T02:04:54.037-04:00", "updated_at": "2025-07-03T19:57:19.290-04:00", "avatar": "https://avatars.slack-edge.com/2025-05-24/8939373414243_9a01efcb88de4aaaac7a_original.jpg", "custom_css": null}, {"id": 10792, "slack_id": "U092FGW1BUL", "display_name": "Vihaan Punjabi", "bio": null, "projects_count": 0, "devlogs_count": 0, "votes_count": 0, "ships_count": 0, "projects": [], "coding_time_seconds": 10018, "coding_time_seconds_today": 0, "balance": "You need to have a pocket watcher badge to view this.", "badges": [], "created_at": "2025-06-21T02:08:25.939-04:00", "updated_at": "2025-07-08T15:44:23.153-04:00", "avatar": "https://secure.gravatar.com/avatar/870ef5e9442b79edf5643a798fbdee9b.jpg?s=512&d=https%3A%2F%2Fa.slack-edge.com%2Fdf10d%2Fimg%2Favatars%2Fava_0018-512.png", "custom_css": null}, {"id": 10793, "slack_id": "U0928FTFT1R", "display_name": "sanjay g", "bio": null, "projects_count": 0, "devlogs_count": 0, "votes_count": 0, "ships_count": 0, "projects": [], "coding_time_seconds": 0, "coding_time_seconds_today": 0, "balance": "You need to have a pocket watcher badge to view this.", "badges": [], "created_at": "2025-06-21T02:17:50.364-04:00", "updated_at": "2025-07-03T19:57:19.837-04:00", "avatar": "https://secure.gravatar.com/avatar/32838254ce7d3b665bf50f000dcd36df.jpg?s=512&d=https%3A%2F%2Fa.slack-edge.com%2Fdf10d%2Fimg%2Favatars%2Fava_0002-512.png", "custom_css": null}, {"id": 10794, "slack_id": "U092ECCS2SZ", "display_name": "Amarjeet", "bio": null, "projects_count": 0, "devlogs_count": 0, "votes_count": 0, "ships_count": 0, "projects": [], "coding_time_seconds": 0, "coding_time_seconds_today": 0, "balance": "You need to have a pocket watcher badge to view this.", "badges": [], "created_at": "2025-06-21T02:21:49.023-04:00", "updated_at": "2025-07-03T19:57:20.108-04:00", "avatar": "https://secure.gravatar.com/avatar/ad2ffbfe6d0ff48162175b63dbfdca05.jpg?s=512&d=https%3A%2F%2Fa.slack-edge.com%2Fdf10d%2Fimg%2Favatars%2Fava_0021-512.png", "custom_css": null}, {"id": 10795, "slack_id": "U092C6UF68M", "display_name": "Ishpuneet Singh", "bio": null, "projects_count": 0, "devlogs_count": 0, "votes_count": 0, "ships_count": 0, "projects": [], "coding_time_seconds": 0, "coding_time_seconds_today": 0, "balance": "You need to have a pocket watcher badge to view this.", "badges": [], "created_at": "2025-06-21T02:23:41.664-04:00", "updated_at": "2025-07-03T19:57:20.370-04:00", "avatar": "https://avatars.slack-edge.com/2025-06-20/9077204222294_264fff53c5795ae9a05e_original.jpg", "custom_css": null}, {"id": 10796, "slack_id": "U0920GL9CKZ", "display_name": "Keerthi Varman", "bio": null, "projects_count": 0, "devlogs_count": 0, "votes_count": 0, "ships_count": 0, "projects": [], "coding_time_seconds": 0, "coding_time_seconds_today": 0, "balance": "You need to have a pocket watcher badge to view this.", "badges": [], "created_at": "2025-06-21T02:30:49.216-04:00", "updated_at": "2025-07-03T19:57:20.636-04:00", "avatar": "https://avatars.slack-edge.com/2025-06-20/9076562901059_04f4d467c361b365e1b9_original.jpg", "custom_css": null}, {"id": 10797, "slack_id": "U0929642D62", "display_name": "Adi", "bio": null, "projects_count": 0, "devlogs_count": 0, "votes_count": 0, "ships_count": 0, "projects": [], "coding_time_seconds": 120, "coding_time_seconds_today": 0, "balance": "You need to have a pocket watcher badge to view this.", "badges": [], "created_at": "2025-06-21T02:33:24.791-04:00", "updated_at": "2025-07-05T20:12:27.052-04:00", "avatar": "https://secure.gravatar.com/avatar/4141ee6c10d30565d44947ec19a5b442.jpg?s=512&d=https%3A%2F%2Fa.slack-edge.com%2Fdf10d%2Fimg%2Favatars%2Fava_0017-512.png", "custom_css": null}, {"id": 10798, "slack_id": "U0928GDMASF", "display_name": "ovum82", "bio": null, "projects_count": 0, "devlogs_count": 0, "votes_count": 0, "ships_count": 0, "projects": [], "coding_time_seconds": 0, "coding_time_seconds_today": 0, "balance": "You need to have a pocket watcher badge to view this.", "badges": [], "created_at": "2025-06-21T02:33:42.361-04:00", "updated_at": "2025-07-04T08:26:55.910-04:00", "avatar": "https://secure.gravatar.com/avatar/61662cac7b92b43bce4e7b445f5fd9f6.jpg?s=512&d=https%3A%2F%2Fa.slack-edge.com%2Fdf10d%2Fimg%2Favatars%2Fava_0003-512.png", "custom_css": null}, {"id": 10799, "slack_id": "U092F6V1Y74", "display_name": "Abdullah", "bio": null, "projects_count": 0, "devlogs_count": 0, "votes_count": 0, "ships_count": 0, "projects": [], "coding_time_seconds": 0, "coding_time_seconds_today": 0, "balance": "You need to have a pocket watcher badge to view this.", "badges": [], "created_at": "2025-06-21T02:33:55.443-04:00", "updated_at": "2025-07-03T19:57:21.175-04:00", "avatar": "https://secure.gravatar.com/avatar/6047d7c278165365c3307ca9032a909f.jpg?s=512&d=https%3A%2F%2Fa.slack-edge.com%2Fdf10d%2Fimg%2Favatars%2Fava_0011-512.png", "custom_css": null}, {"id": 10800, "slack_id": "U092F6V2H9Q", "display_name": "TR RUPOM", "bio": null, "projects_count": 0, "devlogs_count": 0, "votes_count": 0, "ships_count": 0, "projects": [], "coding_time_seconds": 0, "coding_time_seconds_today": 0, "balance": "You need to have a pocket watcher badge to view this.", "badges": [], "created_at": "2025-06-21T02:34:28.368-04:00", "updated_at": "2025-07-03T19:57:21.444-04:00", "avatar": "https://secure.gravatar.com/avatar/46486a64b514db1fad3e56c1b547681d.jpg?s=512&d=https%3A%2F%2Fa.slack-edge.com%2Fdf10d%2Fimg%2Favatars%2Fava_0010-512.png", "custom_css": null}], "pagination": {"page": 540, "pages": 1192, "count": 23828, "items": 20}}