{"users": [{"id": 10801, "slack_id": "U09296JQ6S2", "display_name": "uchihaxg", "bio": null, "projects_count": 0, "devlogs_count": 0, "votes_count": 0, "ships_count": 0, "projects": [], "coding_time_seconds": 0, "coding_time_seconds_today": 0, "balance": "You need to have a pocket watcher badge to view this.", "badges": [], "created_at": "2025-06-21T02:44:37.578-04:00", "updated_at": "2025-07-03T19:57:21.712-04:00", "avatar": "https://secure.gravatar.com/avatar/173e1dcfa68344331eac0e79be07ea09.jpg?s=512&d=https%3A%2F%2Fa.slack-edge.com%2Fdf10d%2Fimg%2Favatars%2Fava_0007-512.png", "custom_css": null}, {"id": 10802, "slack_id": "U092FJ7RVC4", "display_name": "Aniket", "bio": null, "projects_count": 0, "devlogs_count": 0, "votes_count": 0, "ships_count": 0, "projects": [], "coding_time_seconds": 0, "coding_time_seconds_today": 0, "balance": "You need to have a pocket watcher badge to view this.", "badges": [], "created_at": "2025-06-21T02:46:48.832-04:00", "updated_at": "2025-07-03T19:57:21.989-04:00", "avatar": "https://secure.gravatar.com/avatar/bab806aee8d7bc0c279501e8043366e9.jpg?s=512&d=https%3A%2F%2Fa.slack-edge.com%2Fdf10d%2Fimg%2Favatars%2Fava_0022-512.png", "custom_css": null}, {"id": 10803, "slack_id": "U0933DM23Q8", "display_name": "Warren", "bio": null, "projects_count": 0, "devlogs_count": 0, "votes_count": 0, "ships_count": 0, "projects": [], "coding_time_seconds": 0, "coding_time_seconds_today": 0, "balance": "You need to have a pocket watcher badge to view this.", "badges": [], "created_at": "2025-06-21T02:50:39.001-04:00", "updated_at": "2025-07-04T20:11:30.178-04:00", "avatar": "https://secure.gravatar.com/avatar/75df964ad7c994b0458ffbae27d0dfa9.jpg?s=512&d=https%3A%2F%2Fa.slack-edge.com%2Fdf10d%2Fimg%2Favatars%2Fava_0004-512.png", "custom_css": null}, {"id": 10804, "slack_id": "U0928H44ELB", "display_name": "unc lav", "bio": null, "projects_count": 6, "devlogs_count": 20, "votes_count": 31, "ships_count": 5, "projects": [{"id": 2450, "title": "Byakugan", "devlogs_count": 1, "created_at": "2025-06-21T04:05:14.362-04:00"}, {"id": 4481, "title": "xander bot", "devlogs_count": 5, "created_at": "2025-06-30T07:45:19.190-04:00"}, {"id": 3948, "title": "HiddenNexus", "devlogs_count": 6, "created_at": "2025-06-26T12:32:51.179-04:00"}, {"id": 8415, "title": "GaurdUnc: Smart IoT Security System with ESP32-CAM", "devlogs_count": 5, "created_at": "2025-07-27T01:05:55.023-04:00"}, {"id": 4316, "title": "MeowCode", "devlogs_count": 1, "created_at": "2025-06-28T22:33:13.859-04:00"}, {"id": 4338, "title": "ctfhost", "devlogs_count": 2, "created_at": "2025-06-29T05:43:11.880-04:00"}], "coding_time_seconds": 136333, "coding_time_seconds_today": 0, "balance": "You need to have a pocket watcher badge to view this.", "badges": [{"name": "Maiden Voyage", "text": "you shipped your first project! the journey begins...", "icon": "\ud83d\udea2"}, {"name": "Ballot Stuffer", "text": "vote 100 times.", "icon": "https://summer.hackclub.com/assets/i_voted-bf851b48.png"}], "created_at": "2025-06-21T02:52:32.183-04:00", "updated_at": "2025-09-10T22:56:33.712-04:00", "avatar": "https://avatars.slack-edge.com/2025-06-30/9143754572992_6530d34aa5b2b798924f_original.jpg", "custom_css": null}, {"id": 10805, "slack_id": "U0920HL8YHM", "display_name": "Kirenga Boris", "bio": null, "projects_count": 1, "devlogs_count": 5, "votes_count": 0, "ships_count": 0, "projects": [{"id": 3005, "title": "F-Shiping", "devlogs_count": 5, "created_at": "2025-06-22T18:04:33.795-04:00"}], "coding_time_seconds": 113142, "coding_time_seconds_today": 0, "balance": "You need to have a pocket watcher badge to view this.", "badges": [], "created_at": "2025-06-21T02:52:33.231-04:00", "updated_at": "2025-07-03T19:57:22.643-04:00", "avatar": "https://avatars.slack-edge.com/2025-06-20/9083265398546_7aa07cea34f5aad7e2f7_original.png", "custom_css": null}, {"id": 10806, "slack_id": "U092FJKJFB6", "display_name": "Shubh Mishra", "bio": null, "projects_count": 0, "devlogs_count": 0, "votes_count": 1, "ships_count": 0, "projects": [], "coding_time_seconds": 720, "coding_time_seconds_today": 0, "balance": "You need to have a pocket watcher badge to view this.", "badges": [], "created_at": "2025-06-21T02:52:53.084-04:00", "updated_at": "2025-08-10T03:55:01.942-04:00", "avatar": "https://secure.gravatar.com/avatar/c834c07974335e11902a8fb71b0b1050.jpg?s=512&d=https%3A%2F%2Fa.slack-edge.com%2Fdf10d%2Fimg%2Favatars%2Fava_0008-512.png", "custom_css": null}, {"id": 10807, "slack_id": "U092U35SX41", "display_name": "Kham", "bio": null, "projects_count": 0, "devlogs_count": 0, "votes_count": 0, "ships_count": 0, "projects": [], "coding_time_seconds": 0, "coding_time_seconds_today": 0, "balance": "You need to have a pocket watcher badge to view this.", "badges": [], "created_at": "2025-06-21T02:57:29.826-04:00", "updated_at": "2025-07-07T02:13:03.637-04:00", "avatar": "https://secure.gravatar.com/avatar/5b99d9f9d692ebfc1167262db94aa140.jpg?s=512&d=https%3A%2F%2Fa.slack-edge.com%2Fdf10d%2Fimg%2Favatars%2Fava_0026-512.png", "custom_css": null}, {"id": 10808, "slack_id": "U092U3BHD2M", "display_name": "Anshu Panchamukhi", "bio": null, "projects_count": 0, "devlogs_count": 0, "votes_count": 0, "ships_count": 0, "projects": [], "coding_time_seconds": 2012, "coding_time_seconds_today": 0, "balance": "You need to have a pocket watcher badge to view this.", "badges": [], "created_at": "2025-06-21T02:58:33.049-04:00", "updated_at": "2025-07-04T02:30:41.444-04:00", "avatar": "https://avatars.slack-edge.com/2025-06-20/9077254167574_f6dfad6bbcc2aa6efb38_original.png", "custom_css": null}, {"id": 10809, "slack_id": "U0920HT8J5D", "display_name": "Ammar", "bio": null, "projects_count": 0, "devlogs_count": 0, "votes_count": 0, "ships_count": 0, "projects": [], "coding_time_seconds": 0, "coding_time_seconds_today": 0, "balance": "You need to have a pocket watcher badge to view this.", "badges": [], "created_at": "2025-06-21T02:59:13.806-04:00", "updated_at": "2025-07-03T19:57:23.518-04:00", "avatar": "https://secure.gravatar.com/avatar/486aef6abaa8db4833abbaa291c7e2d3.jpg?s=512&d=https%3A%2F%2Fa.slack-edge.com%2Fdf10d%2Fimg%2Favatars%2Fava_0014-512.png", "custom_css": null}, {"id": 10810, "slack_id": "U092F7STZ34", "display_name": "Krishna Maurya", "bio": null, "projects_count": 1, "devlogs_count": 0, "votes_count": 0, "ships_count": 0, "projects": [{"id": 2463, "title": "3D Web Design", "devlogs_count": 0, "created_at": "2025-06-21T04:40:53.497-04:00"}], "coding_time_seconds": 14157, "coding_time_seconds_today": 0, "balance": "You need to have a pocket watcher badge to view this.", "badges": [], "created_at": "2025-06-21T03:00:26.343-04:00", "updated_at": "2025-07-05T20:12:27.864-04:00", "avatar": "https://secure.gravatar.com/avatar/eb927d774a3dfbb155f28871aa9909e6.jpg?s=512&d=https%3A%2F%2Fa.slack-edge.com%2Fdf10d%2Fimg%2Favatars%2Fava_0004-512.png", "custom_css": null}, {"id": 10811, "slack_id": "U092U3PP9QR", "display_name": "Shubham Kumar Singh", "bio": null, "projects_count": 0, "devlogs_count": 0, "votes_count": 0, "ships_count": 0, "projects": [], "coding_time_seconds": 0, "coding_time_seconds_today": 0, "balance": "You need to have a pocket watcher badge to view this.", "badges": [], "created_at": "2025-06-21T03:06:17.001-04:00", "updated_at": "2025-07-03T19:57:23.945-04:00", "avatar": "https://secure.gravatar.com/avatar/53c33c2f15f8a9035c7429c07c257560.jpg?s=512&d=https%3A%2F%2Fa.slack-edge.com%2Fdf10d%2Fimg%2Favatars%2Fava_0012-512.png", "custom_css": null}, {"id": 10812, "slack_id": "U092F894UKU", "display_name": "vijay", "bio": null, "projects_count": 0, "devlogs_count": 0, "votes_count": 0, "ships_count": 0, "projects": [], "coding_time_seconds": 0, "coding_time_seconds_today": 0, "balance": "You need to have a pocket watcher badge to view this.", "badges": [], "created_at": "2025-06-21T03:08:04.467-04:00", "updated_at": "2025-07-03T19:57:24.212-04:00", "avatar": "https://secure.gravatar.com/avatar/0813c11586e76f5e0a5185e499171be8.jpg?s=512&d=https%3A%2F%2Fa.slack-edge.com%2Fdf10d%2Fimg%2Favatars%2Fava_0001-512.png", "custom_css": null}, {"id": 10813, "slack_id": "U0920JDNAAK", "display_name": "AJM", "bio": null, "projects_count": 0, "devlogs_count": 0, "votes_count": 0, "ships_count": 0, "projects": [], "coding_time_seconds": 0, "coding_time_seconds_today": 0, "balance": "You need to have a pocket watcher badge to view this.", "badges": [], "created_at": "2025-06-21T03:11:41.990-04:00", "updated_at": "2025-07-03T19:57:24.476-04:00", "avatar": "https://secure.gravatar.com/avatar/fecfc1e1affd0c6336c788aff2fb7bfb.jpg?s=512&d=https%3A%2F%2Fa.slack-edge.com%2Fdf10d%2Fimg%2Favatars%2Fava_0010-512.png", "custom_css": null}, {"id": 10814, "slack_id": "U092FKG42S0", "display_name": "Hamish", "bio": null, "projects_count": 1, "devlogs_count": 2, "votes_count": 0, "ships_count": 0, "projects": [{"id": 2475, "title": "Flashy Terminal Music App", "devlogs_count": 2, "created_at": "2025-06-21T05:02:30.241-04:00"}], "coding_time_seconds": 21550, "coding_time_seconds_today": 0, "balance": "You need to have a pocket watcher badge to view this.", "badges": [], "created_at": "2025-06-21T03:12:23.720-04:00", "updated_at": "2025-07-03T19:57:24.742-04:00", "avatar": "https://secure.gravatar.com/avatar/d608da17a269dcc7cdd2de4045912596.jpg?s=512&d=https%3A%2F%2Fa.slack-edge.com%2Fdf10d%2Fimg%2Favatars%2Fava_0023-512.png", "custom_css": null}, {"id": 10815, "slack_id": "U092FKHJRU4", "display_name": "RAJNEESH AVADHESH YADAV", "bio": null, "projects_count": 1, "devlogs_count": 1, "votes_count": 0, "ships_count": 0, "projects": [{"id": 2444, "title": "smartapi-gui (JAVA)", "devlogs_count": 1, "created_at": "2025-06-21T03:44:43.304-04:00"}], "coding_time_seconds": 30908, "coding_time_seconds_today": 0, "balance": "You need to have a pocket watcher badge to view this.", "badges": [], "created_at": "2025-06-21T03:14:41.075-04:00", "updated_at": "2025-07-05T20:12:28.322-04:00", "avatar": "https://secure.gravatar.com/avatar/0894f085379ae58d56811221f4d8a754.jpg?s=512&d=https%3A%2F%2Fa.slack-edge.com%2Fdf10d%2Fimg%2Favatars%2Fava_0000-512.png", "custom_css": null}, {"id": 10816, "slack_id": "U08882XF75J", "display_name": "Ni\u021bulescu Rafael", "bio": null, "projects_count": 0, "devlogs_count": 0, "votes_count": 0, "ships_count": 0, "projects": [], "coding_time_seconds": 577, "coding_time_seconds_today": 0, "balance": "You need to have a pocket watcher badge to view this.", "badges": [], "created_at": "2025-06-21T03:14:51.605-04:00", "updated_at": "2025-08-04T17:03:00.941-04:00", "avatar": "https://secure.gravatar.com/avatar/8434858ca049a03ee3a9068a6308ddac.jpg?s=512&d=https%3A%2F%2Fa.slack-edge.com%2Fdf10d%2Fimg%2Favatars%2Fava_0003-512.png", "custom_css": null}, {"id": 10817, "slack_id": "U0928J5DTMH", "display_name": "Hadjer Belahbib", "bio": null, "projects_count": 0, "devlogs_count": 0, "votes_count": 0, "ships_count": 0, "projects": [], "coding_time_seconds": 0, "coding_time_seconds_today": 0, "balance": "You need to have a pocket watcher badge to view this.", "badges": [], "created_at": "2025-06-21T03:18:01.241-04:00", "updated_at": "2025-07-03T19:57:25.413-04:00", "avatar": "https://secure.gravatar.com/avatar/6138ed54808c2b11cdff6ea4ee4bf42c.jpg?s=512&d=https%3A%2F%2Fa.slack-edge.com%2Fdf10d%2Fimg%2Favatars%2Fava_0012-512.png", "custom_css": null}, {"id": 10818, "slack_id": "U07V1G4396G", "display_name": "Mircea-Sebastian Turtureanu", "bio": null, "projects_count": 0, "devlogs_count": 5, "votes_count": 0, "ships_count": 0, "projects": [], "coding_time_seconds": 91002, "coding_time_seconds_today": 0, "balance": "You need to have a pocket watcher badge to view this.", "badges": [], "created_at": "2025-06-21T03:23:03.548-04:00", "updated_at": "2025-08-02T13:22:06.447-04:00", "avatar": "https://avatars.slack-edge.com/2024-11-11/8011260912307_c3e963897f44a11fab1a_original.png", "custom_css": null}, {"id": 10819, "slack_id": "U0933F68X4G", "display_name": "demon36", "bio": null, "projects_count": 0, "devlogs_count": 0, "votes_count": 0, "ships_count": 0, "projects": [], "coding_time_seconds": 0, "coding_time_seconds_today": 0, "balance": "You need to have a pocket watcher badge to view this.", "badges": [], "created_at": "2025-06-21T03:28:59.283-04:00", "updated_at": "2025-07-03T19:57:25.942-04:00", "avatar": "https://secure.gravatar.com/avatar/fdf5edb072bdb6d7782b768d3e270947.jpg?s=512&d=https%3A%2F%2Fa.slack-edge.com%2Fdf10d%2Fimg%2Favatars%2Fava_0023-512.png", "custom_css": null}, {"id": 10820, "slack_id": "U0928HUKGAX", "display_name": "Anhad Singh", "bio": null, "projects_count": 0, "devlogs_count": 0, "votes_count": 0, "ships_count": 0, "projects": [], "coding_time_seconds": 0, "coding_time_seconds_today": 0, "balance": "You need to have a pocket watcher badge to view this.", "badges": [], "created_at": "2025-06-21T03:32:11.385-04:00", "updated_at": "2025-07-07T17:09:01.852-04:00", "avatar": "https://secure.gravatar.com/avatar/dc777737ebe1a218ebfb98178a384589.jpg?s=512&d=https%3A%2F%2Fa.slack-edge.com%2Fdf10d%2Fimg%2Favatars%2Fava_0007-512.png", "custom_css": null}], "pagination": {"page": 541, "pages": 1192, "count": 23828, "items": 20}}