{"users": [{"id": 10821, "slack_id": "U0933F9P2D6", "display_name": "Krishna", "bio": null, "projects_count": 0, "devlogs_count": 0, "votes_count": 0, "ships_count": 0, "projects": [], "coding_time_seconds": 0, "coding_time_seconds_today": 0, "balance": "You need to have a pocket watcher badge to view this.", "badges": [], "created_at": "2025-06-21T03:32:22.384-04:00", "updated_at": "2025-07-03T19:57:26.344-04:00", "avatar": "https://secure.gravatar.com/avatar/4be972d7c7c7e613659fce00f15fc86f.jpg?s=512&d=https%3A%2F%2Fa.slack-edge.com%2Fdf10d%2Fimg%2Favatars%2Fava_0017-512.png", "custom_css": null}, {"id": 10822, "slack_id": "U092U4W4ALR", "display_name": "Ravioli", "bio": null, "projects_count": 0, "devlogs_count": 0, "votes_count": 0, "ships_count": 0, "projects": [], "coding_time_seconds": 246, "coding_time_seconds_today": 0, "balance": "You need to have a pocket watcher badge to view this.", "badges": [], "created_at": "2025-06-21T03:34:17.081-04:00", "updated_at": "2025-07-03T19:57:26.604-04:00", "avatar": "https://secure.gravatar.com/avatar/b445cad21f47a6b4a8b0d273210395fd.jpg?s=512&d=https%3A%2F%2Fa.slack-edge.com%2Fdf10d%2Fimg%2Favatars%2Fava_0014-512.png", "custom_css": null}, {"id": 10823, "slack_id": "U092F9A8VMY", "display_name": "Nullskulls", "bio": "Sleep deprived", "projects_count": 8, "devlogs_count": 68, "votes_count": 112, "ships_count": 7, "projects": [{"id": 3733, "title": "CLISnakeGame", "devlogs_count": 9, "created_at": "2025-06-25T12:29:17.465-04:00"}, {"id": 10873, "title": "Gamify", "devlogs_count": 18, "created_at": "2025-08-11T13:17:37.142-04:00"}, {"id": 12891, "title": "Vmpheus", "devlogs_count": 0, "created_at": "2025-09-04T13:25:18.482-04:00"}, {"id": 2455, "title": "Mini task tracker", "devlogs_count": 3, "created_at": "2025-06-21T04:22:45.624-04:00"}, {"id": 2790, "title": "ChessEngine", "devlogs_count": 14, "created_at": "2025-06-22T04:32:42.220-04:00"}, {"id": 9536, "title": "Portfolio", "devlogs_count": 3, "created_at": "2025-08-01T15:37:42.127-04:00"}, {"id": 4474, "title": "CLI Tetris", "devlogs_count": 10, "created_at": "2025-06-30T06:22:24.578-04:00"}, {"id": 9093, "title": "Quit!", "devlogs_count": 8, "created_at": "2025-07-30T15:01:11.472-04:00"}], "coding_time_seconds": 505112, "coding_time_seconds_today": 0, "balance": "You need to have a pocket watcher badge to view this.", "badges": [{"name": "Maiden Voyage", "text": "you shipped your first project! the journey begins...", "icon": "\ud83d\udea2"}, {"name": "Ballot Stuffer", "text": "vote 100 times.", "icon": "https://summer.hackclub.com/assets/i_voted-bf851b48.png"}], "created_at": "2025-06-21T03:34:52.422-04:00", "updated_at": "2025-09-22T15:54:45.731-04:00", "avatar": "https://avatars.slack-edge.com/2025-06-26/9104057076259_c30b172d1142670cbd7f_original.png", "custom_css": null}, {"id": 10824, "slack_id": "U0920KJL9C7", "display_name": "Hayang", "bio": null, "projects_count": 1, "devlogs_count": 0, "votes_count": 0, "ships_count": 0, "projects": [{"id": 2761, "title": "ProPresenter 7 Custom Bibles", "devlogs_count": 0, "created_at": "2025-06-22T01:37:03.617-04:00"}], "coding_time_seconds": 1355, "coding_time_seconds_today": 0, "balance": "You need to have a pocket watcher badge to view this.", "badges": [], "created_at": "2025-06-21T03:39:30.132-04:00", "updated_at": "2025-07-03T19:57:27.130-04:00", "avatar": "https://secure.gravatar.com/avatar/7485294c56bef8e0b9bb51dab285fc09.jpg?s=512&d=https%3A%2F%2Fa.slack-edge.com%2Fdf10d%2Fimg%2Favatars%2Fava_0024-512.png", "custom_css": null}, {"id": 10825, "slack_id": "U092EE84S21", "display_name": "kalyan", "bio": null, "projects_count": 0, "devlogs_count": 0, "votes_count": 0, "ships_count": 0, "projects": [], "coding_time_seconds": 0, "coding_time_seconds_today": 0, "balance": "You need to have a pocket watcher badge to view this.", "badges": [], "created_at": "2025-06-21T03:42:49.384-04:00", "updated_at": "2025-07-03T19:57:27.393-04:00", "avatar": "https://secure.gravatar.com/avatar/ccc89d17f91d9505bec0f419308c831e.jpg?s=512&d=https%3A%2F%2Fa.slack-edge.com%2Fdf10d%2Fimg%2Favatars%2Fava_0015-512.png", "custom_css": null}, {"id": 10826, "slack_id": "U092U5785DF", "display_name": "Michael Wong", "bio": null, "projects_count": 0, "devlogs_count": 0, "votes_count": 0, "ships_count": 0, "projects": [], "coding_time_seconds": 31510, "coding_time_seconds_today": 0, "balance": "You need to have a pocket watcher badge to view this.", "badges": [], "created_at": "2025-06-21T03:43:48.373-04:00", "updated_at": "2025-07-12T02:36:09.843-04:00", "avatar": "https://secure.gravatar.com/avatar/c639564d2b817d213b5955cc6faeea76.jpg?s=512&d=https%3A%2F%2Fa.slack-edge.com%2Fdf10d%2Fimg%2Favatars%2Fava_0005-512.png", "custom_css": null}, {"id": 10827, "slack_id": "U092FMGGXB6", "display_name": "Niru Najian", "bio": null, "projects_count": 0, "devlogs_count": 0, "votes_count": 0, "ships_count": 0, "projects": [], "coding_time_seconds": 0, "coding_time_seconds_today": 0, "balance": "You need to have a pocket watcher badge to view this.", "badges": [], "created_at": "2025-06-21T04:01:47.010-04:00", "updated_at": "2025-07-05T02:12:06.582-04:00", "avatar": "https://avatars.slack-edge.com/2025-06-21/9096215844145_4f228d38d136afea66c6_original.png", "custom_css": null}, {"id": 10828, "slack_id": "U0929AJCPP0", "display_name": "Neil", "bio": null, "projects_count": 0, "devlogs_count": 0, "votes_count": 0, "ships_count": 0, "projects": [], "coding_time_seconds": 0, "coding_time_seconds_today": 0, "balance": "You need to have a pocket watcher badge to view this.", "badges": [], "created_at": "2025-06-21T04:08:19.677-04:00", "updated_at": "2025-07-06T14:11:54.047-04:00", "avatar": "https://secure.gravatar.com/avatar/d79e6a49dc035535940077c115c25e8d.jpg?s=512&d=https%3A%2F%2Fa.slack-edge.com%2Fdf10d%2Fimg%2Favatars%2Fava_0025-512.png", "custom_css": null}, {"id": 10829, "slack_id": "U0933GQ70BS", "display_name": "Samuele", "bio": null, "projects_count": 0, "devlogs_count": 24, "votes_count": 13, "ships_count": 0, "projects": [], "coding_time_seconds": 359767, "coding_time_seconds_today": 0, "balance": "You need to have a pocket watcher badge to view this.", "badges": [{"name": "Maiden Voyage", "text": "you shipped your first project! the journey begins...", "icon": "\ud83d\udea2"}, {"name": "Ballot Stuffer", "text": "vote 100 times.", "icon": "https://summer.hackclub.com/assets/i_voted-bf851b48.png"}], "created_at": "2025-06-21T04:09:41.315-04:00", "updated_at": "2025-09-10T22:56:34.354-04:00", "avatar": "https://secure.gravatar.com/avatar/6d596430682422d64072f017e6f88680.jpg?s=512&d=https%3A%2F%2Fa.slack-edge.com%2Fdf10d%2Fimg%2Favatars%2Fava_0017-512.png", "custom_css": null}, {"id": 10830, "slack_id": "U0929ANADK8", "display_name": "Bhogan", "bio": null, "projects_count": 0, "devlogs_count": 0, "votes_count": 0, "ships_count": 0, "projects": [], "coding_time_seconds": 627, "coding_time_seconds_today": 0, "balance": "You need to have a pocket watcher badge to view this.", "badges": [], "created_at": "2025-06-21T04:12:20.904-04:00", "updated_at": "2025-07-03T19:57:28.368-04:00", "avatar": "https://secure.gravatar.com/avatar/da243591a0ccaa08382c51cfb47fe3e1.jpg?s=512&d=https%3A%2F%2Fa.slack-edge.com%2Fdf10d%2Fimg%2Favatars%2Fava_0008-512.png", "custom_css": null}, {"id": 10831, "slack_id": "U0933GXQD6U", "display_name": "Abdullah Jamshaid", "bio": null, "projects_count": 0, "devlogs_count": 0, "votes_count": 0, "ships_count": 0, "projects": [], "coding_time_seconds": 0, "coding_time_seconds_today": 0, "balance": "You need to have a pocket watcher badge to view this.", "badges": [], "created_at": "2025-06-21T04:16:48.152-04:00", "updated_at": "2025-07-03T19:57:28.630-04:00", "avatar": "https://secure.gravatar.com/avatar/11b3a206c65dc973af5b42505a4e5366.jpg?s=512&d=https%3A%2F%2Fa.slack-edge.com%2Fdf10d%2Fimg%2Favatars%2Fava_0008-512.png", "custom_css": null}, {"id": 10832, "slack_id": "U092U6NBY7K", "display_name": "\u3072\u3089\u3055\u308f", "bio": "", "projects_count": 2, "devlogs_count": 19, "votes_count": 50, "ships_count": 1, "projects": [{"id": 11831, "title": "FocusFlow", "devlogs_count": 6, "created_at": "2025-08-20T03:55:33.432-04:00"}, {"id": 4300, "title": "hackpad", "devlogs_count": 2, "created_at": "2025-06-28T19:17:54.242-04:00"}], "coding_time_seconds": 91967, "coding_time_seconds_today": 0, "balance": "You need to have a pocket watcher badge to view this.", "badges": [{"name": "Maiden Voyage", "text": "you shipped your first project! the journey begins...", "icon": "\ud83d\udea2"}], "created_at": "2025-06-21T04:19:10.479-04:00", "updated_at": "2025-09-10T22:56:34.449-04:00", "avatar": "https://secure.gravatar.com/avatar/52e6b5d50c52b2af9a455d054d3ce8dc.jpg?s=512&d=https%3A%2F%2Fa.slack-edge.com%2Fdf10d%2Fimg%2Favatars%2Fava_0015-512.png", "custom_css": null}, {"id": 10833, "slack_id": "U0933HGBV9N", "display_name": "Tawich Siammai", "bio": null, "projects_count": 0, "devlogs_count": 0, "votes_count": 0, "ships_count": 0, "projects": [], "coding_time_seconds": 0, "coding_time_seconds_today": 0, "balance": "You need to have a pocket watcher badge to view this.", "badges": [], "created_at": "2025-06-21T04:31:29.270-04:00", "updated_at": "2025-07-03T19:57:29.159-04:00", "avatar": "https://avatars.slack-edge.com/2025-06-21/9076730092547_093f5fc03c16046e211e_original.jpg", "custom_css": null}, {"id": 10834, "slack_id": "U0920N11RLP", "display_name": "Mayank Sharma", "bio": null, "projects_count": 0, "devlogs_count": 0, "votes_count": 0, "ships_count": 0, "projects": [], "coding_time_seconds": 0, "coding_time_seconds_today": 0, "balance": "You need to have a pocket watcher badge to view this.", "badges": [], "created_at": "2025-06-21T04:35:10.210-04:00", "updated_at": "2025-07-03T19:57:29.428-04:00", "avatar": "https://secure.gravatar.com/avatar/fa1326e2964166a262465515f25d45b7.jpg?s=512&d=https%3A%2F%2Fa.slack-edge.com%2Fdf10d%2Fimg%2Favatars%2Fava_0006-512.png", "custom_css": null}, {"id": 10835, "slack_id": "U0853M7L6TD", "display_name": "Chikaskas", "bio": null, "projects_count": 1, "devlogs_count": 1, "votes_count": 24, "ships_count": 1, "projects": [{"id": 5048, "title": "Board Game Banker", "devlogs_count": 1, "created_at": "2025-07-02T23:03:04.626-04:00"}], "coding_time_seconds": 26701, "coding_time_seconds_today": 0, "balance": "You need to have a pocket watcher badge to view this.", "badges": [{"name": "Maiden Voyage", "text": "you shipped your first project! the journey begins...", "icon": "\ud83d\udea2"}], "created_at": "2025-06-21T04:43:58.337-04:00", "updated_at": "2025-09-10T22:56:34.544-04:00", "avatar": "https://avatars.slack-edge.com/2025-01-04/8249808897124_2d566b80096373a0e45e_original.jpg", "custom_css": null}, {"id": 10836, "slack_id": "U0933J4AC3S", "display_name": "Adithya", "bio": null, "projects_count": 0, "devlogs_count": 0, "votes_count": 0, "ships_count": 0, "projects": [], "coding_time_seconds": 0, "coding_time_seconds_today": 0, "balance": "You need to have a pocket watcher badge to view this.", "badges": [], "created_at": "2025-06-21T04:50:12.471-04:00", "updated_at": "2025-07-04T08:26:59.397-04:00", "avatar": "https://secure.gravatar.com/avatar/901c60c83160392d02aec5f83777d465.jpg?s=512&d=https%3A%2F%2Fa.slack-edge.com%2Fdf10d%2Fimg%2Favatars%2Fava_0021-512.png", "custom_css": null}, {"id": 10837, "slack_id": "U0920NMMZF1", "display_name": "James Ockenfels", "bio": null, "projects_count": 0, "devlogs_count": 0, "votes_count": 0, "ships_count": 0, "projects": [], "coding_time_seconds": 5921, "coding_time_seconds_today": 0, "balance": "You need to have a pocket watcher badge to view this.", "badges": [], "created_at": "2025-06-21T04:52:36.676-04:00", "updated_at": "2025-07-03T19:57:30.109-04:00", "avatar": "https://avatars.slack-edge.com/2025-06-21/9096289974193_7cbc35b7b137acd26a85_original.jpg", "custom_css": null}, {"id": 10838, "slack_id": "U092EJ4EY13", "display_name": "Kiril Strezikozin", "bio": null, "projects_count": 1, "devlogs_count": 15, "votes_count": 20, "ships_count": 1, "projects": [{"id": 5341, "title": "Trello Activity Notifications in Discord", "devlogs_count": 15, "created_at": "2025-07-04T15:26:50.837-04:00"}], "coding_time_seconds": 448556, "coding_time_seconds_today": 0, "balance": "You need to have a pocket watcher badge to view this.", "badges": [{"name": "Maiden Voyage", "text": "you shipped your first project! the journey begins...", "icon": "\ud83d\udea2"}], "created_at": "2025-06-21T04:53:08.036-04:00", "updated_at": "2025-09-10T22:56:34.638-04:00", "avatar": "https://secure.gravatar.com/avatar/5b30a32a4c05eecc86d2c3bd50c84529.jpg?s=512&d=https%3A%2F%2Fa.slack-edge.com%2Fdf10d%2Fimg%2Favatars%2Fava_0005-512.png", "custom_css": null}, {"id": 10839, "slack_id": "U092U8H7W5P", "display_name": "oopsiesayesha", "bio": null, "projects_count": 2, "devlogs_count": 0, "votes_count": 0, "ships_count": 0, "projects": [{"id": 2515, "title": "Python Quadratic/Linear equation solver ", "devlogs_count": 0, "created_at": "2025-06-21T07:28:14.931-04:00"}, {"id": 4418, "title": "Digital tomogatchi (no idea if i spelled that right) ", "devlogs_count": 0, "created_at": "2025-06-29T18:23:16.405-04:00"}], "coding_time_seconds": 9661, "coding_time_seconds_today": 0, "balance": "You need to have a pocket watcher badge to view this.", "badges": [], "created_at": "2025-06-21T04:58:00.724-04:00", "updated_at": "2025-07-03T19:57:30.650-04:00", "avatar": "https://secure.gravatar.com/avatar/9a6f618a56df0ac9c409250a7f4aa710.jpg?s=512&d=https%3A%2F%2Fa.slack-edge.com%2Fdf10d%2Fimg%2Favatars%2Fava_0002-512.png", "custom_css": null}, {"id": 10840, "slack_id": "U092FCJ02Q2", "display_name": "sarina", "bio": null, "projects_count": 0, "devlogs_count": 0, "votes_count": 0, "ships_count": 0, "projects": [], "coding_time_seconds": 3954, "coding_time_seconds_today": 0, "balance": "You need to have a pocket watcher badge to view this.", "badges": [], "created_at": "2025-06-21T04:58:16.371-04:00", "updated_at": "2025-07-05T08:12:29.367-04:00", "avatar": "https://secure.gravatar.com/avatar/5b7d375d6a5c2afbfc99bf23df942551.jpg?s=512&d=https%3A%2F%2Fa.slack-edge.com%2Fdf10d%2Fimg%2Favatars%2Fava_0010-512.png", "custom_css": null}], "pagination": {"page": 542, "pages": 1192, "count": 23828, "items": 20}}