{"users": [{"id": 10841, "slack_id": "U091QEH3T4N", "display_name": "oliver coombs", "bio": null, "projects_count": 0, "devlogs_count": 0, "votes_count": 0, "ships_count": 0, "projects": [], "coding_time_seconds": 824, "coding_time_seconds_today": 0, "balance": "You need to have a pocket watcher badge to view this.", "badges": [], "created_at": "2025-06-21T04:58:17.855-04:00", "updated_at": "2025-07-03T19:57:31.042-04:00", "avatar": "https://avatars.slack-edge.com/2025-06-21/9096297451521_5d5a6d43794a59e1408d_original.png", "custom_css": null}, {"id": 10842, "slack_id": "U092FCGUHFU", "display_name": "zayan umar", "bio": null, "projects_count": 0, "devlogs_count": 0, "votes_count": 0, "ships_count": 0, "projects": [], "coding_time_seconds": 0, "coding_time_seconds_today": 0, "balance": "You need to have a pocket watcher badge to view this.", "badges": [], "created_at": "2025-06-21T04:58:29.373-04:00", "updated_at": "2025-07-03T19:57:31.306-04:00", "avatar": "https://secure.gravatar.com/avatar/319f5cac4df808a1627868a6f98e42a0.jpg?s=512&d=https%3A%2F%2Fa.slack-edge.com%2Fdf10d%2Fimg%2Favatars%2Fava_0022-512.png", "custom_css": null}, {"id": 10843, "slack_id": "U092FPYG1RA", "display_name": "Ruhan", "bio": null, "projects_count": 0, "devlogs_count": 0, "votes_count": 0, "ships_count": 0, "projects": [], "coding_time_seconds": 0, "coding_time_seconds_today": 0, "balance": "You need to have a pocket watcher badge to view this.", "badges": [], "created_at": "2025-06-21T04:59:08.929-04:00", "updated_at": "2025-07-03T19:57:31.587-04:00", "avatar": "https://secure.gravatar.com/avatar/67b0f585ea82620bbee32a9de2b8501b.jpg?s=512&d=https%3A%2F%2Fa.slack-edge.com%2Fdf10d%2Fimg%2Favatars%2Fava_0001-512.png", "custom_css": null}, {"id": 10844, "slack_id": "U092U8KM2GH", "display_name": "Alireza SN", "bio": null, "projects_count": 0, "devlogs_count": 0, "votes_count": 0, "ships_count": 0, "projects": [], "coding_time_seconds": 3933, "coding_time_seconds_today": 0, "balance": "You need to have a pocket watcher badge to view this.", "badges": [], "created_at": "2025-06-21T05:01:05.679-04:00", "updated_at": "2025-07-03T19:57:31.866-04:00", "avatar": "https://secure.gravatar.com/avatar/d185f1727462fb0cdc2238eb17ef33d9.jpg?s=512&d=https%3A%2F%2Fa.slack-edge.com%2Fdf10d%2Fimg%2Favatars%2Fava_0008-512.png", "custom_css": null}, {"id": 10845, "slack_id": "U092FCXRDRQ", "display_name": "Chandan", "bio": null, "projects_count": 1, "devlogs_count": 0, "votes_count": 0, "ships_count": 0, "projects": [{"id": 2486, "title": "Test", "devlogs_count": 0, "created_at": "2025-06-21T05:59:36.983-04:00"}], "coding_time_seconds": 24103, "coding_time_seconds_today": 0, "balance": "You need to have a pocket watcher badge to view this.", "badges": [], "created_at": "2025-06-21T05:03:38.373-04:00", "updated_at": "2025-07-04T08:26:59.986-04:00", "avatar": "https://secure.gravatar.com/avatar/462280f5bc313c1fa142401f34d64393.jpg?s=512&d=https%3A%2F%2Fa.slack-edge.com%2Fdf10d%2Fimg%2Favatars%2Fava_0009-512.png", "custom_css": null}, {"id": 10846, "slack_id": "U0929D5C3EJ", "display_name": "Geon Mikhail Reyes", "bio": null, "projects_count": 1, "devlogs_count": 1, "votes_count": 0, "ships_count": 0, "projects": [{"id": 2519, "title": "Web React Video Audio Downloader", "devlogs_count": 1, "created_at": "2025-06-21T07:34:58.374-04:00"}], "coding_time_seconds": 3881, "coding_time_seconds_today": 0, "balance": "You need to have a pocket watcher badge to view this.", "badges": [], "created_at": "2025-06-21T05:09:26.405-04:00", "updated_at": "2025-07-07T02:13:06.014-04:00", "avatar": "https://secure.gravatar.com/avatar/dbe412971cecc56d09da6aa9a5dba720.jpg?s=512&d=https%3A%2F%2Fa.slack-edge.com%2Fdf10d%2Fimg%2Favatars%2Fava_0014-512.png", "custom_css": null}, {"id": 10847, "slack_id": "U092U93CAP3", "display_name": "Devansh Gupta", "bio": null, "projects_count": 0, "devlogs_count": 0, "votes_count": 0, "ships_count": 0, "projects": [], "coding_time_seconds": 240, "coding_time_seconds_today": 0, "balance": "You need to have a pocket watcher badge to view this.", "badges": [], "created_at": "2025-06-21T05:11:16.409-04:00", "updated_at": "2025-07-03T19:57:32.708-04:00", "avatar": "https://secure.gravatar.com/avatar/37641ad9de28ac66ac0ce516680e6fa0.jpg?s=512&d=https%3A%2F%2Fa.slack-edge.com%2Fdf10d%2Fimg%2Favatars%2Fava_0015-512.png", "custom_css": null}, {"id": 10848, "slack_id": "U092G542CC8", "display_name": "LilithPandragon", "bio": null, "projects_count": 0, "devlogs_count": 0, "votes_count": 0, "ships_count": 0, "projects": [], "coding_time_seconds": 0, "coding_time_seconds_today": 0, "balance": "You need to have a pocket watcher badge to view this.", "badges": [], "created_at": "2025-06-21T05:15:38.186-04:00", "updated_at": "2025-07-03T19:57:33.013-04:00", "avatar": "https://avatars.slack-edge.com/2025-06-21/9083782756402_c47420a19313ce99a6c6_original.png", "custom_css": null}, {"id": 10849, "slack_id": "U0933K9E3DE", "display_name": "Suhani Yadav", "bio": null, "projects_count": 0, "devlogs_count": 0, "votes_count": 0, "ships_count": 0, "projects": [], "coding_time_seconds": 0, "coding_time_seconds_today": 0, "balance": "You need to have a pocket watcher badge to view this.", "badges": [], "created_at": "2025-06-21T05:17:19.879-04:00", "updated_at": "2025-07-04T20:11:33.756-04:00", "avatar": "https://secure.gravatar.com/avatar/1bee5e5773b2d23e0a707d0d3cdbc80c.jpg?s=512&d=https%3A%2F%2Fa.slack-edge.com%2Fdf10d%2Fimg%2Favatars%2Fava_0017-512.png", "custom_css": null}, {"id": 10850, "slack_id": "U092FQT7CKE", "display_name": "Amiya", "bio": null, "projects_count": 0, "devlogs_count": 0, "votes_count": 0, "ships_count": 0, "projects": [], "coding_time_seconds": 90951, "coding_time_seconds_today": 0, "balance": "You need to have a pocket watcher badge to view this.", "badges": [], "created_at": "2025-06-21T05:17:51.217-04:00", "updated_at": "2025-07-08T02:55:25.602-04:00", "avatar": "https://secure.gravatar.com/avatar/5b4c1898612660291c46ac234e3e6e6c.jpg?s=512&d=https%3A%2F%2Fa.slack-edge.com%2Fdf10d%2Fimg%2Favatars%2Fava_0019-512.png", "custom_css": null}, {"id": 10851, "slack_id": "U0929DMJ3T8", "display_name": "Yunus Emre Salcan", "bio": null, "projects_count": 0, "devlogs_count": 0, "votes_count": 0, "ships_count": 0, "projects": [], "coding_time_seconds": 23225, "coding_time_seconds_today": 0, "balance": "You need to have a pocket watcher badge to view this.", "badges": [], "created_at": "2025-06-21T05:19:56.233-04:00", "updated_at": "2025-07-03T22:01:27.116-04:00", "avatar": "https://avatars.slack-edge.com/2025-06-21/9096401677249_87f2b6b3d11ea0e0970a_original.png", "custom_css": null}, {"id": 10852, "slack_id": "U0920PSN88P", "display_name": "kacper1889", "bio": null, "projects_count": 0, "devlogs_count": 0, "votes_count": 0, "ships_count": 0, "projects": [], "coding_time_seconds": 464, "coding_time_seconds_today": 0, "balance": "You need to have a pocket watcher badge to view this.", "badges": [], "created_at": "2025-06-21T05:20:28.648-04:00", "updated_at": "2025-07-06T14:33:33.956-04:00", "avatar": "https://secure.gravatar.com/avatar/d3786806549ed42bc3aa7f0a28d7c93f.jpg?s=512&d=https%3A%2F%2Fa.slack-edge.com%2Fdf10d%2Fimg%2Favatars%2Fava_0025-512.png", "custom_css": null}, {"id": 10853, "slack_id": "U0823SH67SN", "display_name": "yousuf-shahzad", "bio": null, "projects_count": 0, "devlogs_count": 0, "votes_count": 0, "ships_count": 0, "projects": [], "coding_time_seconds": 151392, "coding_time_seconds_today": 0, "balance": "You need to have a pocket watcher badge to view this.", "badges": [], "created_at": "2025-06-21T05:20:54.927-04:00", "updated_at": "2025-07-06T08:11:41.817-04:00", "avatar": "https://secure.gravatar.com/avatar/8e365381492a550de6c073248fe6da22.jpg?s=512&d=https%3A%2F%2Fa.slack-edge.com%2Fdf10d%2Fimg%2Favatars%2Fava_0010-512.png", "custom_css": null}, {"id": 10854, "slack_id": "U0920Q5LX4P", "display_name": "Vidhan", "bio": null, "projects_count": 0, "devlogs_count": 0, "votes_count": 0, "ships_count": 0, "projects": [], "coding_time_seconds": 0, "coding_time_seconds_today": 0, "balance": "You need to have a pocket watcher badge to view this.", "badges": [], "created_at": "2025-06-21T05:30:05.992-04:00", "updated_at": "2025-07-05T08:12:30.391-04:00", "avatar": "https://secure.gravatar.com/avatar/db60521614cccbc78e3d5ab769d7ba68.jpg?s=512&d=https%3A%2F%2Fa.slack-edge.com%2Fdf10d%2Fimg%2Favatars%2Fava_0006-512.png", "custom_css": null}, {"id": 10855, "slack_id": "U0933HF634Y", "display_name": "Madhav Gupta", "bio": null, "projects_count": 0, "devlogs_count": 0, "votes_count": 0, "ships_count": 0, "projects": [], "coding_time_seconds": 436264, "coding_time_seconds_today": 2268, "balance": "You need to have a pocket watcher badge to view this.", "badges": [], "created_at": "2025-06-21T05:38:06.587-04:00", "updated_at": "2025-07-04T08:27:00.869-04:00", "avatar": "https://avatars.slack-edge.com/2025-06-21/9083492966786_9390a8d4eacd18919e63_original.jpg", "custom_css": null}, {"id": 10856, "slack_id": "U0933KZAXJL", "display_name": "Yusuf", "bio": null, "projects_count": 0, "devlogs_count": 0, "votes_count": 0, "ships_count": 0, "projects": [], "coding_time_seconds": 257, "coding_time_seconds_today": 0, "balance": "You need to have a pocket watcher badge to view this.", "badges": [], "created_at": "2025-06-21T05:38:57.232-04:00", "updated_at": "2025-07-03T19:57:34.391-04:00", "avatar": "https://secure.gravatar.com/avatar/ae7f49c74148c4b702e56cac32ef1a83.jpg?s=512&d=https%3A%2F%2Fa.slack-edge.com%2Fdf10d%2Fimg%2Favatars%2Fava_0004-512.png", "custom_css": null}, {"id": 10857, "slack_id": "U0933L394Q0", "display_name": "Nikolas Oravec", "bio": null, "projects_count": 1, "devlogs_count": 0, "votes_count": 0, "ships_count": 0, "projects": [{"id": 2493, "title": "Athena: Firewall & AdBlock", "devlogs_count": 0, "created_at": "2025-06-21T06:16:36.245-04:00"}], "coding_time_seconds": 235, "coding_time_seconds_today": 0, "balance": "You need to have a pocket watcher badge to view this.", "badges": [], "created_at": "2025-06-21T05:42:22.444-04:00", "updated_at": "2025-07-03T19:57:34.665-04:00", "avatar": "https://secure.gravatar.com/avatar/ee8c157d12fc8e26b4baf5185f40d578.jpg?s=512&d=https%3A%2F%2Fa.slack-edge.com%2Fdf10d%2Fimg%2Favatars%2Fava_0019-512.png", "custom_css": null}, {"id": 10858, "slack_id": "U0928PZ7ZEF", "display_name": "Maheshika Dodangoda", "bio": null, "projects_count": 0, "devlogs_count": 0, "votes_count": 0, "ships_count": 0, "projects": [], "coding_time_seconds": 0, "coding_time_seconds_today": 0, "balance": "You need to have a pocket watcher badge to view this.", "badges": [], "created_at": "2025-06-21T05:45:36.963-04:00", "updated_at": "2025-07-03T19:57:34.933-04:00", "avatar": "https://secure.gravatar.com/avatar/a05c84983bcffc2b907f542b0756acbb.jpg?s=512&d=https%3A%2F%2Fa.slack-edge.com%2Fdf10d%2Fimg%2Favatars%2Fava_0006-512.png", "custom_css": null}, {"id": 10859, "slack_id": "U06N3BPUZB2", "display_name": "Enigma.", "bio": null, "projects_count": 1, "devlogs_count": 5, "votes_count": 6, "ships_count": 0, "projects": [{"id": 3441, "title": "ForkThis", "devlogs_count": 5, "created_at": "2025-06-24T09:05:52.611-04:00"}], "coding_time_seconds": 139868, "coding_time_seconds_today": 0, "balance": "You need to have a pocket watcher badge to view this.", "badges": [], "created_at": "2025-06-21T05:55:59.568-04:00", "updated_at": "2025-07-03T19:57:35.202-04:00", "avatar": "https://avatars.slack-edge.com/2024-03-01/6751579766544_e6f887a1b250b1bfcaf9_original.jpg", "custom_css": null}, {"id": 10860, "slack_id": "U0920R8CJSK", "display_name": "Radiant", "bio": null, "projects_count": 1, "devlogs_count": 6, "votes_count": 0, "ships_count": 0, "projects": [{"id": 2866, "title": "rblx-godot", "devlogs_count": 6, "created_at": "2025-06-22T09:15:05.559-04:00"}], "coding_time_seconds": 322226, "coding_time_seconds_today": 0, "balance": "You need to have a pocket watcher badge to view this.", "badges": [], "created_at": "2025-06-21T05:56:04.433-04:00", "updated_at": "2025-08-06T17:17:41.850-04:00", "avatar": "https://avatars.slack-edge.com/2025-06-23/9111811660496_1cb2e0805f19b54ed9b0_original.png", "custom_css": null}], "pagination": {"page": 543, "pages": 1192, "count": 23828, "items": 20}}