{"users": [{"id": 10861, "slack_id": "U07DM4XGLLX", "display_name": "Adhish Sunishkumar", "bio": null, "projects_count": 1, "devlogs_count": 6, "votes_count": 2, "ships_count": 0, "projects": [{"id": 2507, "title": "snake (but ur 2 hollis chasing water bottles)", "devlogs_count": 6, "created_at": "2025-06-21T06:56:36.236-04:00"}], "coding_time_seconds": 45039, "coding_time_seconds_today": 0, "balance": "You need to have a pocket watcher badge to view this.", "badges": [], "created_at": "2025-06-21T05:57:31.425-04:00", "updated_at": "2025-07-04T02:30:44.919-04:00", "avatar": "https://secure.gravatar.com/avatar/ecadfc27472c42980d91d89343bba7a7.jpg?s=512&d=https%3A%2F%2Fa.slack-edge.com%2Fdf10d%2Fimg%2Favatars%2Fava_0006-512.png", "custom_css": null}, {"id": 10862, "slack_id": "U092U85NKS5", "display_name": "Gadugina Naveen", "bio": null, "projects_count": 0, "devlogs_count": 0, "votes_count": 0, "ships_count": 0, "projects": [], "coding_time_seconds": 0, "coding_time_seconds_today": 0, "balance": "You need to have a pocket watcher badge to view this.", "badges": [], "created_at": "2025-06-21T05:59:37.986-04:00", "updated_at": "2025-07-03T19:57:35.892-04:00", "avatar": "https://secure.gravatar.com/avatar/6e553d9c5726d306252d93600a4e7b91.jpg?s=512&d=https%3A%2F%2Fa.slack-edge.com%2Fdf10d%2Fimg%2Favatars%2Fava_0009-512.png", "custom_css": null}, {"id": 10863, "slack_id": "U0929F9FAAJ", "display_name": "InfamousMortal", "bio": null, "projects_count": 0, "devlogs_count": 0, "votes_count": 0, "ships_count": 0, "projects": [], "coding_time_seconds": 0, "coding_time_seconds_today": 0, "balance": "You need to have a pocket watcher badge to view this.", "badges": [], "created_at": "2025-06-21T06:00:29.544-04:00", "updated_at": "2025-07-03T19:57:36.165-04:00", "avatar": "https://secure.gravatar.com/avatar/28222d403b193676b2d38bea6faa9d33.jpg?s=512&d=https%3A%2F%2Fa.slack-edge.com%2Fdf10d%2Fimg%2Favatars%2Fava_0014-512.png", "custom_css": null}, {"id": 10864, "slack_id": "U091JUZPWP9", "display_name": "Radu Ghita", "bio": null, "projects_count": 0, "devlogs_count": 0, "votes_count": 0, "ships_count": 0, "projects": [], "coding_time_seconds": 0, "coding_time_seconds_today": 0, "balance": "You need to have a pocket watcher badge to view this.", "badges": [], "created_at": "2025-06-21T06:01:37.317-04:00", "updated_at": "2025-07-03T19:57:36.428-04:00", "avatar": "https://secure.gravatar.com/avatar/323e1d2067d9722d5d725d903bec3bdf.jpg?s=512&d=https%3A%2F%2Fa.slack-edge.com%2Fdf10d%2Fimg%2Favatars%2Fava_0010-512.png", "custom_css": null}, {"id": 10865, "slack_id": "U0928QWH751", "display_name": "yahali mor", "bio": null, "projects_count": 1, "devlogs_count": 4, "votes_count": 1, "ships_count": 0, "projects": [{"id": 2999, "title": "nervy racking", "devlogs_count": 4, "created_at": "2025-06-22T17:25:21.778-04:00"}], "coding_time_seconds": 352361, "coding_time_seconds_today": 0, "balance": "You need to have a pocket watcher badge to view this.", "badges": [], "created_at": "2025-06-21T06:04:47.624-04:00", "updated_at": "2025-07-03T22:01:28.132-04:00", "avatar": "https://avatars.slack-edge.com/2025-06-21/9083916375316_84ba5531cb7b9ba84af1_original.png", "custom_css": null}, {"id": 10866, "slack_id": "U08V6UU09ED", "display_name": "Audrey S", "bio": null, "projects_count": 0, "devlogs_count": 0, "votes_count": 0, "ships_count": 0, "projects": [], "coding_time_seconds": 148354, "coding_time_seconds_today": 0, "balance": "You need to have a pocket watcher badge to view this.", "badges": [], "created_at": "2025-06-21T06:05:35.939-04:00", "updated_at": "2025-08-25T20:56:22.744-04:00", "avatar": "https://avatars.slack-edge.com/2025-08-26/9406955367938_f4bd340f4e6f8be4f53a_original.png", "custom_css": null}, {"id": 10867, "slack_id": "U0920RTGYMV", "display_name": "Omkar Padhy", "bio": null, "projects_count": 0, "devlogs_count": 0, "votes_count": 0, "ships_count": 0, "projects": [], "coding_time_seconds": 26880, "coding_time_seconds_today": 0, "balance": "You need to have a pocket watcher badge to view this.", "badges": [], "created_at": "2025-06-21T06:10:32.787-04:00", "updated_at": "2025-07-03T19:57:37.122-04:00", "avatar": "https://secure.gravatar.com/avatar/4d39ddc7f6b80eecd108e9ee81ac020e.jpg?s=512&d=https%3A%2F%2Fa.slack-edge.com%2Fdf10d%2Fimg%2Favatars%2Fava_0023-512.png", "custom_css": null}, {"id": 10868, "slack_id": "U091YQJQ75Z", "display_name": "Nana Yaw", "bio": null, "projects_count": 0, "devlogs_count": 0, "votes_count": 0, "ships_count": 0, "projects": [], "coding_time_seconds": 0, "coding_time_seconds_today": 0, "balance": "You need to have a pocket watcher badge to view this.", "badges": [], "created_at": "2025-06-21T06:22:18.658-04:00", "updated_at": "2025-07-03T19:57:37.394-04:00", "avatar": "https://secure.gravatar.com/avatar/c2d1a883b6714f8d511c926cbc724e76.jpg?s=512&d=https%3A%2F%2Fa.slack-edge.com%2Fdf10d%2Fimg%2Favatars%2Fava_0000-512.png", "custom_css": null}, {"id": 10869, "slack_id": "U0929FXU63G", "display_name": "Sarvesh Kumar", "bio": null, "projects_count": 0, "devlogs_count": 0, "votes_count": 0, "ships_count": 0, "projects": [], "coding_time_seconds": 0, "coding_time_seconds_today": 0, "balance": "You need to have a pocket watcher badge to view this.", "badges": [], "created_at": "2025-06-21T06:28:07.814-04:00", "updated_at": "2025-07-03T19:57:37.669-04:00", "avatar": "https://secure.gravatar.com/avatar/d56e6031190f37a6a57eb3244250404d.jpg?s=512&d=https%3A%2F%2Fa.slack-edge.com%2Fdf10d%2Fimg%2Favatars%2Fava_0023-512.png", "custom_css": null}, {"id": 10870, "slack_id": "U0933MUDEEL", "display_name": "Tulsi Basetti", "bio": null, "projects_count": 0, "devlogs_count": 0, "votes_count": 0, "ships_count": 0, "projects": [], "coding_time_seconds": 0, "coding_time_seconds_today": 0, "balance": "You need to have a pocket watcher badge to view this.", "badges": [], "created_at": "2025-06-21T06:29:56.191-04:00", "updated_at": "2025-07-03T19:57:38.032-04:00", "avatar": "https://secure.gravatar.com/avatar/97fc768248857f004240f794d6ad8027.jpg?s=512&d=https%3A%2F%2Fa.slack-edge.com%2Fdf10d%2Fimg%2Favatars%2Fava_0007-512.png", "custom_css": null}, {"id": 10871, "slack_id": "U092UCECW7K", "display_name": "Flubi0", "bio": null, "projects_count": 1, "devlogs_count": 1, "votes_count": 0, "ships_count": 0, "projects": [{"id": 2510, "title": "Playdate", "devlogs_count": 1, "created_at": "2025-06-21T07:15:00.308-04:00"}], "coding_time_seconds": 2633, "coding_time_seconds_today": 0, "balance": "You need to have a pocket watcher badge to view this.", "badges": [], "created_at": "2025-06-21T06:30:40.511-04:00", "updated_at": "2025-07-03T19:57:38.294-04:00", "avatar": "https://secure.gravatar.com/avatar/f4ea1e41b400dd42dabf6479a5b6edda.jpg?s=512&d=https%3A%2F%2Fa.slack-edge.com%2Fdf10d%2Fimg%2Favatars%2Fava_0020-512.png", "custom_css": null}, {"id": 10872, "slack_id": "U07G04QSJ4Q", "display_name": "Alejandro Sanchez Infantes", "bio": null, "projects_count": 0, "devlogs_count": 0, "votes_count": 0, "ships_count": 0, "projects": [], "coding_time_seconds": 3693, "coding_time_seconds_today": 0, "balance": "You need to have a pocket watcher badge to view this.", "badges": [], "created_at": "2025-06-21T06:31:42.853-04:00", "updated_at": "2025-07-03T19:57:38.589-04:00", "avatar": "https://secure.gravatar.com/avatar/13cb5aa65728b9a8e1ae3dfe9bf45e3e.jpg?s=512&d=https%3A%2F%2Fa.slack-edge.com%2Fdf10d%2Fimg%2Favatars%2Fava_0009-512.png", "custom_css": null}, {"id": 10873, "slack_id": "U0920SNPT5M", "display_name": "Uel Jenya", "bio": null, "projects_count": 0, "devlogs_count": 0, "votes_count": 0, "ships_count": 0, "projects": [], "coding_time_seconds": 0, "coding_time_seconds_today": 0, "balance": "You need to have a pocket watcher badge to view this.", "badges": [], "created_at": "2025-06-21T06:32:46.492-04:00", "updated_at": "2025-07-03T19:57:38.872-04:00", "avatar": "https://secure.gravatar.com/avatar/1650aa224309bfb8f8b9826b778a079b.jpg?s=512&d=https%3A%2F%2Fa.slack-edge.com%2Fdf10d%2Fimg%2Favatars%2Fava_0001-512.png", "custom_css": null}, {"id": 10874, "slack_id": "U07DBPJT5JA", "display_name": "unity", "bio": null, "projects_count": 1, "devlogs_count": 0, "votes_count": 0, "ships_count": 0, "projects": [{"id": 2509, "title": "Lithium", "devlogs_count": 0, "created_at": "2025-06-21T07:07:57.393-04:00"}], "coding_time_seconds": 12172, "coding_time_seconds_today": 0, "balance": "You need to have a pocket watcher badge to view this.", "badges": [], "created_at": "2025-06-21T06:37:43.730-04:00", "updated_at": "2025-07-03T19:57:39.140-04:00", "avatar": "https://avatars.slack-edge.com/2024-09-07/7693714677827_89872221ff088fe20bd6_original.jpg", "custom_css": null}, {"id": 10875, "slack_id": "U0928S5KMTM", "display_name": "Alisha", "bio": null, "projects_count": 0, "devlogs_count": 0, "votes_count": 0, "ships_count": 0, "projects": [], "coding_time_seconds": 0, "coding_time_seconds_today": 0, "balance": "You need to have a pocket watcher badge to view this.", "badges": [], "created_at": "2025-06-21T06:42:38.016-04:00", "updated_at": "2025-07-03T19:57:39.404-04:00", "avatar": "https://secure.gravatar.com/avatar/a482e0d7138b86e593042416dfd81fab.jpg?s=512&d=https%3A%2F%2Fa.slack-edge.com%2Fdf10d%2Fimg%2Favatars%2Fava_0013-512.png", "custom_css": null}, {"id": 10876, "slack_id": "U092ENB67RB", "display_name": "Diwas Pathak", "bio": null, "projects_count": 0, "devlogs_count": 0, "votes_count": 0, "ships_count": 0, "projects": [], "coding_time_seconds": 0, "coding_time_seconds_today": 0, "balance": "You need to have a pocket watcher badge to view this.", "badges": [], "created_at": "2025-06-21T06:45:10.325-04:00", "updated_at": "2025-07-03T19:57:39.679-04:00", "avatar": "https://secure.gravatar.com/avatar/ce40ae444a5fe5ff594c9ff45f36160b.jpg?s=512&d=https%3A%2F%2Fa.slack-edge.com%2Fdf10d%2Fimg%2Favatars%2Fava_0019-512.png", "custom_css": null}, {"id": 10877, "slack_id": "U0928S977TM", "display_name": "Raufu Abdulrahman", "bio": null, "projects_count": 0, "devlogs_count": 0, "votes_count": 0, "ships_count": 0, "projects": [], "coding_time_seconds": 0, "coding_time_seconds_today": 0, "balance": "You need to have a pocket watcher badge to view this.", "badges": [], "created_at": "2025-06-21T06:45:43.023-04:00", "updated_at": "2025-07-03T19:57:39.972-04:00", "avatar": "https://secure.gravatar.com/avatar/3c91d4aa040b96930c6d6f82b58610f7.jpg?s=512&d=https%3A%2F%2Fa.slack-edge.com%2Fdf10d%2Fimg%2Favatars%2Fava_0023-512.png", "custom_css": null}, {"id": 10878, "slack_id": "U0933N5NMA4", "display_name": "adarshn", "bio": null, "projects_count": 0, "devlogs_count": 0, "votes_count": 0, "ships_count": 0, "projects": [], "coding_time_seconds": 0, "coding_time_seconds_today": 0, "balance": "You need to have a pocket watcher badge to view this.", "badges": [], "created_at": "2025-06-21T06:47:17.661-04:00", "updated_at": "2025-07-03T19:57:40.245-04:00", "avatar": "https://secure.gravatar.com/avatar/1bce873621a8b64c5701176420d6d503.jpg?s=512&d=https%3A%2F%2Fa.slack-edge.com%2Fdf10d%2Fimg%2Favatars%2Fava_0006-512.png", "custom_css": null}, {"id": 10879, "slack_id": "U0920TGFMST", "display_name": "hameedah", "bio": "", "projects_count": 5, "devlogs_count": 25, "votes_count": 51, "ships_count": 4, "projects": [{"id": 11852, "title": "European Geopedia", "devlogs_count": 6, "created_at": "2025-08-20T09:58:21.307-04:00"}, {"id": 13068, "title": "hunt for fashion", "devlogs_count": 2, "created_at": "2025-09-08T02:15:40.518-04:00"}, {"id": 9707, "title": "my fantasy world", "devlogs_count": 6, "created_at": "2025-08-02T04:42:24.807-04:00"}, {"id": 11021, "title": "my portfolio ", "devlogs_count": 3, "created_at": "2025-08-12T12:47:45.437-04:00"}, {"id": 11653, "title": "Factmals", "devlogs_count": 4, "created_at": "2025-08-18T06:21:48.709-04:00"}], "coding_time_seconds": 55095, "coding_time_seconds_today": 0, "balance": "You need to have a pocket watcher badge to view this.", "badges": [{"name": "Maiden Voyage", "text": "you shipped your first project! the journey begins...", "icon": "\ud83d\udea2"}], "created_at": "2025-06-21T06:52:58.275-04:00", "updated_at": "2025-09-10T22:56:36.009-04:00", "avatar": "https://avatars.slack-edge.com/2025-06-23/9092255192228_03bcb3e4ee9c0bff993a_original.png", "custom_css": null}, {"id": 10880, "slack_id": "U091KGU97DM", "display_name": "gaurav", "bio": null, "projects_count": 0, "devlogs_count": 0, "votes_count": 0, "ships_count": 0, "projects": [], "coding_time_seconds": 0, "coding_time_seconds_today": 0, "balance": "You need to have a pocket watcher badge to view this.", "badges": [], "created_at": "2025-06-21T06:55:31.855-04:00", "updated_at": "2025-07-03T19:57:40.776-04:00", "avatar": "https://secure.gravatar.com/avatar/23404541a93a940d6f59d1800a987a7f.jpg?s=512&d=https%3A%2F%2Fa.slack-edge.com%2Fdf10d%2Fimg%2Favatars%2Fava_0020-512.png", "custom_css": null}], "pagination": {"page": 544, "pages": 1192, "count": 23828, "items": 20}}