{"users": [{"id": 10881, "slack_id": "U0933P04R96", "display_name": "Rasesh Uniyal", "bio": null, "projects_count": 0, "devlogs_count": 0, "votes_count": 0, "ships_count": 0, "projects": [], "coding_time_seconds": 0, "coding_time_seconds_today": 0, "balance": "You need to have a pocket watcher badge to view this.", "badges": [], "created_at": "2025-06-21T07:03:03.381-04:00", "updated_at": "2025-07-03T19:57:41.060-04:00", "avatar": "https://secure.gravatar.com/avatar/d3f535b9524a5b3ad2b72702999b4b50.jpg?s=512&d=https%3A%2F%2Fa.slack-edge.com%2Fdf10d%2Fimg%2Favatars%2Fava_0014-512.png", "custom_css": null}, {"id": 10882, "slack_id": "U0928T46J9Z", "display_name": "Az", "bio": null, "projects_count": 0, "devlogs_count": 0, "votes_count": 0, "ships_count": 0, "projects": [], "coding_time_seconds": 0, "coding_time_seconds_today": 0, "balance": "You need to have a pocket watcher badge to view this.", "badges": [], "created_at": "2025-06-21T07:03:49.895-04:00", "updated_at": "2025-07-03T19:57:41.339-04:00", "avatar": "https://secure.gravatar.com/avatar/13c3fdbadc0ea72b559e450fb2c1c49f.jpg?s=512&d=https%3A%2F%2Fa.slack-edge.com%2Fdf10d%2Fimg%2Favatars%2Fava_0021-512.png", "custom_css": null}, {"id": 10883, "slack_id": "U03SE715QKY", "display_name": "Amit Kumar", "bio": null, "projects_count": 0, "devlogs_count": 0, "votes_count": 0, "ships_count": 0, "projects": [], "coding_time_seconds": 14797, "coding_time_seconds_today": 0, "balance": "You need to have a pocket watcher badge to view this.", "badges": [], "created_at": "2025-06-21T07:06:17.067-04:00", "updated_at": "2025-07-03T19:57:41.612-04:00", "avatar": "https://secure.gravatar.com/avatar/5a850761382a2dc62a8e68423e861b4b.jpg?s=512&d=https%3A%2F%2Fa.slack-edge.com%2Fdf10d%2Fimg%2Favatars%2Fava_0008-512.png", "custom_css": null}, {"id": 10884, "slack_id": "U0929J2J97Y", "display_name": "Nak.kiwi", "bio": null, "projects_count": 2, "devlogs_count": 2, "votes_count": 0, "ships_count": 0, "projects": [{"id": 2511, "title": "Arch Rice", "devlogs_count": 1, "created_at": "2025-06-21T07:19:59.544-04:00"}, {"id": 4003, "title": "JetLag:CaptureTheFlag", "devlogs_count": 1, "created_at": "2025-06-26T19:24:55.843-04:00"}], "coding_time_seconds": 104206, "coding_time_seconds_today": 0, "balance": "You need to have a pocket watcher badge to view this.", "badges": [], "created_at": "2025-06-21T07:08:20.392-04:00", "updated_at": "2025-07-03T19:57:41.947-04:00", "avatar": "https://secure.gravatar.com/avatar/94c8e44f12e5ade47c829d579a187e46.jpg?s=512&d=https%3A%2F%2Fa.slack-edge.com%2Fdf10d%2Fimg%2Favatars%2Fava_0000-512.png", "custom_css": null}, {"id": 10885, "slack_id": "U091Q9N8M26", "display_name": "sialil", "bio": null, "projects_count": 1, "devlogs_count": 5, "votes_count": 1, "ships_count": 0, "projects": [{"id": 2518, "title": "PortGL", "devlogs_count": 5, "created_at": "2025-06-21T07:34:36.995-04:00"}], "coding_time_seconds": 88561, "coding_time_seconds_today": 11739, "balance": "You need to have a pocket watcher badge to view this.", "badges": [], "created_at": "2025-06-21T07:13:03.258-04:00", "updated_at": "2025-07-03T19:57:42.220-04:00", "avatar": "https://secure.gravatar.com/avatar/d965bc1474513bd171c9e390fad4341b.jpg?s=512&d=https%3A%2F%2Fa.slack-edge.com%2Fdf10d%2Fimg%2Favatars%2Fava_0016-512.png", "custom_css": null}, {"id": 10886, "slack_id": "U092989UEJJ", "display_name": "Winss", "bio": "Hello! I'm an aspiring developer and designer, you can check out some of the projects that I made on https://winss.xyz/ ! \r\n\r\nContact me at \r\n\"winss.\" @ Discord!\r\n\r\n(domain email coming soon i forgot to update it after i changed providers)", "projects_count": 3, "devlogs_count": 15, "votes_count": 69, "ships_count": 2, "projects": [{"id": 11661, "title": "Cutscene engine", "devlogs_count": 0, "created_at": "2025-08-18T08:12:10.982-04:00"}, {"id": 2513, "title": "Dust lab", "devlogs_count": 9, "created_at": "2025-06-21T07:26:16.780-04:00"}, {"id": 2512, "title": "Wink", "devlogs_count": 6, "created_at": "2025-06-21T07:25:20.244-04:00"}], "coding_time_seconds": 254268, "coding_time_seconds_today": 1514, "balance": "You need to have a pocket watcher badge to view this.", "badges": [{"name": "Maiden Voyage", "text": "you shipped your first project! the journey begins...", "icon": "\ud83d\udea2"}], "created_at": "2025-06-21T07:16:52.174-04:00", "updated_at": "2025-09-17T16:29:58.562-04:00", "avatar": "https://avatars.slack-edge.com/2025-06-26/9102450184614_83b51e35fd4583dd0d3f_original.png", "custom_css": null}, {"id": 10887, "slack_id": "U092FJ49YCS", "display_name": "Ajmeera Pavan Kumar", "bio": null, "projects_count": 0, "devlogs_count": 0, "votes_count": 0, "ships_count": 0, "projects": [], "coding_time_seconds": 0, "coding_time_seconds_today": 0, "balance": "You need to have a pocket watcher badge to view this.", "badges": [], "created_at": "2025-06-21T07:19:48.764-04:00", "updated_at": "2025-07-03T19:57:42.632-04:00", "avatar": "https://secure.gravatar.com/avatar/79b13f61f78b702eea51ea02e0adb5d3.jpg?s=512&d=https%3A%2F%2Fa.slack-edge.com%2Fdf10d%2Fimg%2Favatars%2Fava_0016-512.png", "custom_css": null}, {"id": 10888, "slack_id": "U0928TSKQ8K", "display_name": "Aayush Raj", "bio": null, "projects_count": 0, "devlogs_count": 0, "votes_count": 0, "ships_count": 0, "projects": [], "coding_time_seconds": 407, "coding_time_seconds_today": 0, "balance": "You need to have a pocket watcher badge to view this.", "badges": [], "created_at": "2025-06-21T07:20:22.635-04:00", "updated_at": "2025-07-03T19:57:42.902-04:00", "avatar": "https://avatars.slack-edge.com/2025-06-21/9076950961955_b62ded7f67eb4d2ce360_original.png", "custom_css": null}, {"id": 10889, "slack_id": "U092FHS7Y58", "display_name": "Will", "bio": "This is meant to look like my website", "projects_count": 1, "devlogs_count": 6, "votes_count": 36, "ships_count": 1, "projects": [{"id": 3471, "title": "TickVote", "devlogs_count": 6, "created_at": "2025-06-24T11:28:42.635-04:00"}], "coding_time_seconds": 152474, "coding_time_seconds_today": 0, "balance": "You need to have a pocket watcher badge to view this.", "badges": [{"name": "Maiden Voyage", "text": "you shipped your first project! the journey begins...", "icon": "\ud83d\udea2"}, {"name": "Graphic Design is My Passion", "text": "Oh God How Did This Get Here I Am Not Good With Computer", "icon": "\ud83c\udfa8"}], "created_at": "2025-06-21T07:21:52.195-04:00", "updated_at": "2025-09-10T22:56:36.275-04:00", "avatar": "https://secure.gravatar.com/avatar/b235e95fa09041e847ead73743b15fee.jpg?s=512&d=https%3A%2F%2Fa.slack-edge.com%2Fdf10d%2Fimg%2Favatars%2Fava_0016-512.png", "custom_css": "body::before {\r\n  display: none !important;\r\n}\r\nbody {\r\n  background-color: #0c0e10 !important;\r\ntext-color: #cbd5e1 !important;\r\n}\r\n\r\n.profile-name {\r\n  color: #ffffff; /* Tailwind's gray-500 */\r\n  font-size: 3rem; /* Base size (text-5xl) */\r\n  font-weight: 800; /* font-extrabold */\r\n  letter-spacing: -0.02em; /* tighter spacing */\r\n  line-height: 1.2; /* Tailwind's leading-tight */\r\n  font-family: system-ui, -apple-system, BlinkMacSystemFont, \"Segoe UI\", Roboto, Helvetica, Arial, sans-serif;\r\n  margin: 1rem 0;\r\n  transition: color 0.4s cubic-bezier(.4,0,.2,1);\r\n}\r\n\r\nbutton {\r\n  background: transparent;\r\n  border: 2px solid #fff;\r\n  color: #fff;\r\n  padding: 12px 32px;\r\n  border-radius: 10px; /* Less rounded, more straight */\r\n  font-size: 1.1rem;\r\n  cursor: pointer;\r\n  transition: \r\n    border-color 0.2s,\r\n    color 0.2s,\r\n    box-shadow 0.2s;\r\n  outline: none;\r\n}\r\n\r\n.text-gray-800 {\r\n  color: #7dd3fc !important;\r\n  text-shadow: 0 0 20px rgba(125, 211, 252, 0.3);\r\n  font-family: system-ui, -apple-system, BlinkMacSystemFont, \"Segoe UI\", Roboto, Helvetica, Arial, sans-serif;\r\n  transition: color 0.4s cubic-bezier(.4,0,.2,1);\r\n}\r\n\r\n.card-with-gradient {\r\n  position: relative;\r\n  background: rgba(255, 255, 255, 0.03);\r\n  border: 1.5px solid #444;\r\n  border-radius: 14px;\r\n  padding: 32px 36px;\r\n  max-width: 420px;\r\n  width: 100%;\r\n  min-width: 280px;\r\n  color: #fff;\r\n  box-shadow: 0 2px 16px 0 rgba(0, 0, 0, 0.08);\r\n  transition: border-color 0.2s, box-shadow 0.2s, background 0.2s;\r\n  font-family: system-ui, -apple-system, BlinkMacSystemFont, \"Segoe UI\", Roboto, Helvetica, Arial, sans-serif;\r\n  font-size: 1.08rem;\r\n  line-height: 1.6;\r\n  letter-spacing: -0.01em;\r\n  display: flex;\r\n  flex-direction: column;\r\n  align-items: flex-start;\r\n  gap: 18px;\r\n  flex: 1 1 320px;\r\n  box-sizing: border-box;\r\n  overflow: hidden;\r\n  z-index: 0;\r\n}\r\n\r\n.card-with-gradient {\r\n  position: relative !important;\r\n  background: rgba(255, 255, 255, 0.03) !important;\r\n  border: 1.5px solid #444 !important;\r\n  border-radius: 14px !important;\r\n  padding: 32px 36px !important;\r\n  max-width: 420px !important;\r\n  width: 100% !important;\r\n  min-width: 280px !important;\r\n  color: #fff !important;\r\n  box-shadow: 0 2px 16px 0 rgba(0, 0, 0, 0.08) !important;\r\n  transition: border-color 0.2s, box-shadow 0.2s, background 0.2s !important;\r\n  font-family: system-ui, -apple-system, BlinkMacSystemFont, \"Segoe UI\", Roboto, Helvetica, Arial, sans-serif !important;\r\n  font-size: 1.08rem !important;\r\n  line-height: 1.6 !important;\r\n  letter-spacing: -0.01em !important;\r\n  display: flex !important;\r\n  flex-direction: column !important;\r\n  align-items: flex-start !important;\r\n  gap: 18px !important;\r\n  flex: 1 1 320px !important;\r\n  box-sizing: border-box !important;\r\n  overflow: hidden !important;\r\n  z-index: 0 !important;\r\n}\r\n\r\n.card-with-gradient::before {\r\n  content: \"\" !important;\r\n  position: absolute !important;\r\n  top: -50% !important;\r\n  left: -50% !important;\r\n  width: 200% !important;\r\n  height: 200% !important;\r\n  background: linear-gradient(130deg, #7dd3fc 0%, #a78bfa 50%, #38bdf8 100%) !important;\r\n  background-size: 300% 300% !important;\r\n  animation: gradientMove 8s ease infinite !important;\r\n  opacity: 0.08 !important;\r\n  z-index: -1 !important;\r\n  filter: blur(40px) !important;\r\n}\r\n\r\n\r\nh1, .heading-1 {\r\n  color: #ffffff !important;\r\n  font-size: 2.5rem !important;\r\n  font-weight: 700 !important;\r\n  letter-spacing: -0.015em !important;\r\n  line-height: 1.2 !important;\r\n  font-family: system-ui, -apple-system, BlinkMacSystemFont, \"Segoe UI\", Roboto, Helvetica, Arial, sans-serif !important;\r\n  margin: 1rem 0 !important;\r\n  transition: color 0.4s cubic-bezier(.4,0,.2,1) !important;\r\n}\r\n\r\nh2, .heading-2 {\r\n  color: #7dd3fc !important;\r\n  font-size: 1.8rem !important;\r\n  font-weight: 600 !important;\r\n  letter-spacing: -0.01em !important;\r\n  line-height: 1.35 !important;\r\n  font-family: system-ui, -apple-system, BlinkMacSystemFont, \"Segoe UI\", Roboto, Helvetica, Arial, sans-serif !important;\r\n  margin: 0.75rem 0 !important;\r\n  text-shadow: 0 0 12px rgba(125, 211, 252, 0.2) !important;\r\n  transition: color 0.4s cubic-bezier(.4,0,.2,1) !important;\r\n}\r\n\r\nli {\r\n  color: #cbd5e1 !important; /* Tailwind slate-300 */\r\n  font-size: 1.05rem !important;\r\n  line-height: 1.6 !important;\r\n  margin-left: 1.25rem !important;\r\n  padding-left: 0.5rem !important;\r\n  position: relative !important;\r\n  font-family: system-ui, -apple-system, BlinkMacSystemFont, \"Segoe UI\", Roboto, Helvetica, Arial, sans-serif !important;\r\n}\r\n\r\nli::before {\r\n  content: \"\u2022\" !important;\r\n  position: absolute !important;\r\n  left: 0 !important;\r\n  color: #7dd3fc !important;\r\n  font-size: 1.2rem !important;\r\n  line-height: 1 !important;\r\n}\r\n\r\n\r\np {\r\n  color: #cbd5e1 !important; /* Tailwind slate-300 */\r\n  font-size: 1.05rem !important;\r\n  line-height: 1.6 !important;\r\n  margin-left: 1.25rem !important;\r\n  padding-left: 0.5rem !important;\r\n  position: relative !important;\r\n  font-family: system-ui, -apple-system, BlinkMacSystemFont, \"Segoe UI\", Roboto, Helvetica, Arial, sans-serif !important;\r\n}"}, {"id": 10890, "slack_id": "U0880FTQUSU", "display_name": "James", "bio": null, "projects_count": 1, "devlogs_count": 1, "votes_count": 0, "ships_count": 0, "projects": [{"id": 3154, "title": "UK Bus Map", "devlogs_count": 1, "created_at": "2025-06-23T08:57:58.226-04:00"}], "coding_time_seconds": 50943, "coding_time_seconds_today": 0, "balance": "You need to have a pocket watcher badge to view this.", "badges": [], "created_at": "2025-06-21T07:21:59.807-04:00", "updated_at": "2025-07-03T19:57:43.432-04:00", "avatar": "https://secure.gravatar.com/avatar/2a81e76d4a6d62ccaf41fa8753661200.jpg?s=512&d=https%3A%2F%2Fa.slack-edge.com%2Fdf10d%2Fimg%2Favatars%2Fava_0001-512.png", "custom_css": null}, {"id": 10891, "slack_id": "U0933NQ3NBA", "display_name": "Anna", "bio": null, "projects_count": 0, "devlogs_count": 0, "votes_count": 0, "ships_count": 0, "projects": [], "coding_time_seconds": 0, "coding_time_seconds_today": 0, "balance": "You need to have a pocket watcher badge to view this.", "badges": [], "created_at": "2025-06-21T07:26:32.619-04:00", "updated_at": "2025-07-03T19:57:43.688-04:00", "avatar": "https://secure.gravatar.com/avatar/589d3660ab557c887a164f45513827e5.jpg?s=512&d=https%3A%2F%2Fa.slack-edge.com%2Fdf10d%2Fimg%2Favatars%2Fava_0022-512.png", "custom_css": null}, {"id": 10892, "slack_id": "U0933PXK02U", "display_name": "Yury Abykhodau", "bio": null, "projects_count": 0, "devlogs_count": 0, "votes_count": 0, "ships_count": 0, "projects": [], "coding_time_seconds": 0, "coding_time_seconds_today": 0, "balance": "You need to have a pocket watcher badge to view this.", "badges": [], "created_at": "2025-06-21T07:30:24.102-04:00", "updated_at": "2025-07-04T08:27:03.858-04:00", "avatar": "https://avatars.slack-edge.com/2025-06-21/9105820872416_ad7ca7a536f3853c8c2c_original.png", "custom_css": null}, {"id": 10893, "slack_id": "U07V115BY4U", "display_name": "Wei Dong", "bio": null, "projects_count": 0, "devlogs_count": 0, "votes_count": 0, "ships_count": 0, "projects": [], "coding_time_seconds": 128858, "coding_time_seconds_today": 0, "balance": "You need to have a pocket watcher badge to view this.", "badges": [], "created_at": "2025-06-21T07:30:33.402-04:00", "updated_at": "2025-07-08T22:44:12.072-04:00", "avatar": "https://secure.gravatar.com/avatar/478045ef4ce27a714197adfbdf393b5c.jpg?s=512&d=https%3A%2F%2Fa.slack-edge.com%2Fdf10d%2Fimg%2Favatars%2Fava_0003-512.png", "custom_css": null}, {"id": 10894, "slack_id": "U0929KAF78W", "display_name": "kawthar", "bio": null, "projects_count": 0, "devlogs_count": 0, "votes_count": 0, "ships_count": 0, "projects": [], "coding_time_seconds": 0, "coding_time_seconds_today": 0, "balance": "You need to have a pocket watcher badge to view this.", "badges": [], "created_at": "2025-06-21T07:35:38.979-04:00", "updated_at": "2025-07-03T19:57:44.351-04:00", "avatar": "https://secure.gravatar.com/avatar/1b744cb044529897f5e546598fc96cca.jpg?s=512&d=https%3A%2F%2Fa.slack-edge.com%2Fdf10d%2Fimg%2Favatars%2Fava_0009-512.png", "custom_css": null}, {"id": 10895, "slack_id": "U0920V996CX", "display_name": "Xenonesis", "bio": null, "projects_count": 0, "devlogs_count": 0, "votes_count": 0, "ships_count": 0, "projects": [], "coding_time_seconds": 0, "coding_time_seconds_today": 0, "balance": "You need to have a pocket watcher badge to view this.", "badges": [], "created_at": "2025-06-21T07:37:24.027-04:00", "updated_at": "2025-07-27T17:35:11.061-04:00", "avatar": "https://avatars.slack-edge.com/2025-07-27/9262178490644_37add755abdd83d65821_original.jpg", "custom_css": null}, {"id": 10896, "slack_id": "U092FJZ2P9Q", "display_name": "V HARSHA VARDHAN", "bio": null, "projects_count": 0, "devlogs_count": 0, "votes_count": 0, "ships_count": 0, "projects": [], "coding_time_seconds": 0, "coding_time_seconds_today": 0, "balance": "You need to have a pocket watcher badge to view this.", "badges": [], "created_at": "2025-06-21T07:42:18.995-04:00", "updated_at": "2025-07-03T19:57:44.903-04:00", "avatar": "https://secure.gravatar.com/avatar/be13b6e82fce5d7e03c973ebac11e80a.jpg?s=512&d=https%3A%2F%2Fa.slack-edge.com%2Fdf10d%2Fimg%2Favatars%2Fava_0016-512.png", "custom_css": null}, {"id": 10897, "slack_id": "U0929KQ4W3G", "display_name": "Vaibhav Gupta", "bio": null, "projects_count": 1, "devlogs_count": 1, "votes_count": 0, "ships_count": 0, "projects": [{"id": 2779, "title": "Python Tutorial Website", "devlogs_count": 1, "created_at": "2025-06-22T04:10:12.574-04:00"}], "coding_time_seconds": 15946, "coding_time_seconds_today": 0, "balance": "You need to have a pocket watcher badge to view this.", "badges": [], "created_at": "2025-06-21T07:45:48.747-04:00", "updated_at": "2025-07-08T02:55:34.801-04:00", "avatar": "https://avatars.slack-edge.com/2025-06-21/9082860500309_d249b8ce925582264796_original.jpg", "custom_css": null}, {"id": 10898, "slack_id": "U092ER55S13", "display_name": "Rehan", "bio": null, "projects_count": 0, "devlogs_count": 0, "votes_count": 0, "ships_count": 0, "projects": [], "coding_time_seconds": 0, "coding_time_seconds_today": 0, "balance": "You need to have a pocket watcher badge to view this.", "badges": [], "created_at": "2025-06-21T07:46:36.140-04:00", "updated_at": "2025-07-05T08:12:33.275-04:00", "avatar": "https://secure.gravatar.com/avatar/9f6467602405bf9667ce030026c5520d.jpg?s=512&d=https%3A%2F%2Fa.slack-edge.com%2Fdf10d%2Fimg%2Favatars%2Fava_0017-512.png", "custom_css": null}, {"id": 10899, "slack_id": "U0929KXNBSS", "display_name": "viraj singh", "bio": null, "projects_count": 0, "devlogs_count": 0, "votes_count": 0, "ships_count": 0, "projects": [], "coding_time_seconds": 8896, "coding_time_seconds_today": 0, "balance": "You need to have a pocket watcher badge to view this.", "badges": [], "created_at": "2025-06-21T07:51:22.736-04:00", "updated_at": "2025-07-04T08:27:04.356-04:00", "avatar": "https://avatars.slack-edge.com/2025-06-21/9076990552275_cfbe1a026cc8d7f4e61b_original.png", "custom_css": null}, {"id": 10900, "slack_id": "U092F4FKPFA", "display_name": "Aviral", "bio": null, "projects_count": 0, "devlogs_count": 0, "votes_count": 0, "ships_count": 0, "projects": [], "coding_time_seconds": 0, "coding_time_seconds_today": 0, "balance": "You need to have a pocket watcher badge to view this.", "badges": [], "created_at": "2025-06-21T07:53:16.721-04:00", "updated_at": "2025-07-03T19:57:45.572-04:00", "avatar": "https://secure.gravatar.com/avatar/32a243aa191b6eefb3ca2964cc087c37.jpg?s=512&d=https%3A%2F%2Fa.slack-edge.com%2Fdf10d%2Fimg%2Favatars%2Fava_0001-512.png", "custom_css": null}], "pagination": {"page": 545, "pages": 1192, "count": 23828, "items": 20}}