{"users": [{"id": 10921, "slack_id": "U09291Q87KM", "display_name": "luo juncheng", "bio": null, "projects_count": 0, "devlogs_count": 0, "votes_count": 0, "ships_count": 0, "projects": [], "coding_time_seconds": 0, "coding_time_seconds_today": 0, "balance": "You need to have a pocket watcher badge to view this.", "badges": [], "created_at": "2025-06-21T08:48:34.354-04:00", "updated_at": "2025-07-03T19:57:50.662-04:00", "avatar": "https://avatars.slack-edge.com/2025-06-21/9084139773748_b335f281be9766a710d0_original.png", "custom_css": null}, {"id": 10922, "slack_id": "U09212Y923Z", "display_name": "murderbot", "bio": null, "projects_count": 0, "devlogs_count": 0, "votes_count": 0, "ships_count": 0, "projects": [], "coding_time_seconds": 0, "coding_time_seconds_today": 0, "balance": "You need to have a pocket watcher badge to view this.", "badges": [], "created_at": "2025-06-21T08:52:52.196-04:00", "updated_at": "2025-07-06T14:11:59.907-04:00", "avatar": "https://secure.gravatar.com/avatar/20c5eb5176bac015bb61ccae130561d3.jpg?s=512&d=https%3A%2F%2Fa.slack-edge.com%2Fdf10d%2Fimg%2Favatars%2Fava_0011-512.png", "custom_css": null}, {"id": 10923, "slack_id": "U089F8X834N", "display_name": "Bereket Befekadu", "bio": null, "projects_count": 0, "devlogs_count": 54, "votes_count": 0, "ships_count": 0, "projects": [], "coding_time_seconds": 1188202, "coding_time_seconds_today": 0, "balance": "You need to have a pocket watcher badge to view this.", "badges": [{"name": "Maiden Voyage", "text": "you shipped your first project! the journey begins...", "icon": "\ud83d\udea2"}, {"name": "Ballot Stuffer", "text": "vote 100 times.", "icon": "https://summer.hackclub.com/assets/i_voted-bf851b48.png"}], "created_at": "2025-06-21T08:53:51.212-04:00", "updated_at": "2025-09-10T22:56:37.906-04:00", "avatar": "https://secure.gravatar.com/avatar/76b4b56056b482b70ea5b8d5254c2d47.jpg?s=512&d=https%3A%2F%2Fa.slack-edge.com%2Fdf10d%2Fimg%2Favatars%2Fava_0001-512.png", "custom_css": null}, {"id": 10924, "slack_id": "U092FN03M98", "display_name": "\u30ea\u30cb\u30a2", "bio": null, "projects_count": 2, "devlogs_count": 2, "votes_count": 18, "ships_count": 2, "projects": [{"id": 3093, "title": "command_line_RPG", "devlogs_count": 1, "created_at": "2025-06-23T04:32:21.804-04:00"}, {"id": 10064, "title": "My portfolio", "devlogs_count": 1, "created_at": "2025-08-03T19:52:37.189-04:00"}], "coding_time_seconds": 44558, "coding_time_seconds_today": 3187, "balance": "You need to have a pocket watcher badge to view this.", "badges": [{"name": "Maiden Voyage", "text": "you shipped your first project! the journey begins...", "icon": "\ud83d\udea2"}], "created_at": "2025-06-21T08:55:07.421-04:00", "updated_at": "2025-09-10T22:56:37.960-04:00", "avatar": "https://avatars.slack-edge.com/2025-06-21/9084149069636_fbd8d6ce858614b1d102_original.png", "custom_css": null}, {"id": 10925, "slack_id": "U0929NYKDT8", "display_name": "jacob", "bio": null, "projects_count": 0, "devlogs_count": 0, "votes_count": 0, "ships_count": 0, "projects": [], "coding_time_seconds": 0, "coding_time_seconds_today": 0, "balance": "You need to have a pocket watcher badge to view this.", "badges": [], "created_at": "2025-06-21T08:57:41.887-04:00", "updated_at": "2025-07-05T02:12:12.811-04:00", "avatar": "https://secure.gravatar.com/avatar/2e1618190d69a748505b7b6b93b210e8.jpg?s=512&d=https%3A%2F%2Fa.slack-edge.com%2Fdf10d%2Fimg%2Favatars%2Fava_0019-512.png", "custom_css": null}, {"id": 10926, "slack_id": "U09213ABHBR", "display_name": "simon", "bio": null, "projects_count": 0, "devlogs_count": 0, "votes_count": 0, "ships_count": 0, "projects": [], "coding_time_seconds": 161229, "coding_time_seconds_today": 0, "balance": "You need to have a pocket watcher badge to view this.", "badges": [], "created_at": "2025-06-21T08:59:23.956-04:00", "updated_at": "2025-07-03T19:57:51.757-04:00", "avatar": "https://secure.gravatar.com/avatar/a6c96984e87544d7cf51e55018e9921e.jpg?s=512&d=https%3A%2F%2Fa.slack-edge.com%2Fdf10d%2Fimg%2Favatars%2Fava_0007-512.png", "custom_css": null}, {"id": 10927, "slack_id": "U0933TM31CG", "display_name": "Elagrari Hicham", "bio": null, "projects_count": 0, "devlogs_count": 0, "votes_count": 0, "ships_count": 0, "projects": [], "coding_time_seconds": 22893, "coding_time_seconds_today": 0, "balance": "You need to have a pocket watcher badge to view this.", "badges": [], "created_at": "2025-06-21T09:05:56.713-04:00", "updated_at": "2025-07-03T19:57:52.025-04:00", "avatar": "https://secure.gravatar.com/avatar/baf4201aee77468bb12130ee52f7040d.jpg?s=512&d=https%3A%2F%2Fa.slack-edge.com%2Fdf10d%2Fimg%2Favatars%2Fava_0014-512.png", "custom_css": null}, {"id": 10928, "slack_id": "U092UK2CYJV", "display_name": "Shaik Sohail Sameer", "bio": null, "projects_count": 0, "devlogs_count": 0, "votes_count": 0, "ships_count": 0, "projects": [], "coding_time_seconds": 0, "coding_time_seconds_today": 0, "balance": "You need to have a pocket watcher badge to view this.", "badges": [], "created_at": "2025-06-21T09:05:56.936-04:00", "updated_at": "2025-07-03T19:57:52.328-04:00", "avatar": "https://secure.gravatar.com/avatar/1775fe2de18d5c0a23f0cd67b5e6e8eb.jpg?s=512&d=https%3A%2F%2Fa.slack-edge.com%2Fdf10d%2Fimg%2Favatars%2Fava_0001-512.png", "custom_css": null}, {"id": 10929, "slack_id": "U092FNBC1UJ", "display_name": "Bhumika", "bio": null, "projects_count": 0, "devlogs_count": 0, "votes_count": 0, "ships_count": 0, "projects": [], "coding_time_seconds": 0, "coding_time_seconds_today": 0, "balance": "You need to have a pocket watcher badge to view this.", "badges": [], "created_at": "2025-06-21T09:08:01.997-04:00", "updated_at": "2025-07-03T19:57:52.598-04:00", "avatar": "https://secure.gravatar.com/avatar/724ebeca2e553076c5d62b59d5d62ff8.jpg?s=512&d=https%3A%2F%2Fa.slack-edge.com%2Fdf10d%2Fimg%2Favatars%2Fava_0002-512.png", "custom_css": null}, {"id": 10930, "slack_id": "U09292D28V9", "display_name": "ashish", "bio": null, "projects_count": 0, "devlogs_count": 0, "votes_count": 0, "ships_count": 0, "projects": [], "coding_time_seconds": 0, "coding_time_seconds_today": 0, "balance": "You need to have a pocket watcher badge to view this.", "badges": [], "created_at": "2025-06-21T09:09:02.085-04:00", "updated_at": "2025-07-03T19:57:52.860-04:00", "avatar": "https://secure.gravatar.com/avatar/83efe88dca253fcbe7937b23d3b2a332.jpg?s=512&d=https%3A%2F%2Fa.slack-edge.com%2Fdf10d%2Fimg%2Favatars%2Fava_0018-512.png", "custom_css": null}, {"id": 10931, "slack_id": "U092FNG1RDG", "display_name": "Atlaz0", "bio": null, "projects_count": 2, "devlogs_count": 7, "votes_count": 26, "ships_count": 2, "projects": [{"id": 3787, "title": "EchoSnip", "devlogs_count": 5, "created_at": "2025-06-25T18:30:39.887-04:00"}, {"id": 10449, "title": "WebCCE", "devlogs_count": 2, "created_at": "2025-08-07T04:40:02.636-04:00"}], "coding_time_seconds": 64146, "coding_time_seconds_today": 0, "balance": "You need to have a pocket watcher badge to view this.", "badges": [{"name": "Maiden Voyage", "text": "you shipped your first project! the journey begins...", "icon": "\ud83d\udea2"}], "created_at": "2025-06-21T09:13:15.376-04:00", "updated_at": "2025-09-10T22:56:38.280-04:00", "avatar": "https://avatars.slack-edge.com/2025-06-21/9082975327253_3ed54d173267f06e90d0_original.png", "custom_css": null}, {"id": 10932, "slack_id": "U092EUHJNDT", "display_name": "Shaik Sohail Sameer", "bio": null, "projects_count": 0, "devlogs_count": 0, "votes_count": 0, "ships_count": 0, "projects": [], "coding_time_seconds": 0, "coding_time_seconds_today": 0, "balance": "You need to have a pocket watcher badge to view this.", "badges": [], "created_at": "2025-06-21T09:13:52.488-04:00", "updated_at": "2025-07-03T19:57:53.395-04:00", "avatar": "https://secure.gravatar.com/avatar/24c8fce64969fbd55ef755f9c69c82b0.jpg?s=512&d=https%3A%2F%2Fa.slack-edge.com%2Fdf10d%2Fimg%2Favatars%2Fava_0023-512.png", "custom_css": null}, {"id": 10933, "slack_id": "U087EPERRA4", "display_name": "Lyon K", "bio": null, "projects_count": 0, "devlogs_count": 0, "votes_count": 0, "ships_count": 0, "projects": [], "coding_time_seconds": 8955, "coding_time_seconds_today": 0, "balance": "You need to have a pocket watcher badge to view this.", "badges": [], "created_at": "2025-06-21T09:23:50.925-04:00", "updated_at": "2025-08-21T22:45:33.460-04:00", "avatar": "https://avatars.slack-edge.com/2024-12-31/8247954937409_a44560f926b65e62ca87_original.png", "custom_css": null}, {"id": 10934, "slack_id": "U092EV5SUKF", "display_name": "karan", "bio": null, "projects_count": 0, "devlogs_count": 0, "votes_count": 0, "ships_count": 0, "projects": [], "coding_time_seconds": 0, "coding_time_seconds_today": 0, "balance": "You need to have a pocket watcher badge to view this.", "badges": [], "created_at": "2025-06-21T09:30:29.672-04:00", "updated_at": "2025-07-03T19:57:53.788-04:00", "avatar": "https://avatars.slack-edge.com/2025-06-21/9069246963735_dbc42758f57f07683892_original.png", "custom_css": null}, {"id": 10935, "slack_id": "U078DJC3M2R", "display_name": "Vihaan Sharma", "bio": null, "projects_count": 0, "devlogs_count": 0, "votes_count": 0, "ships_count": 0, "projects": [], "coding_time_seconds": 0, "coding_time_seconds_today": 0, "balance": "You need to have a pocket watcher badge to view this.", "badges": [], "created_at": "2025-06-21T09:31:43.967-04:00", "updated_at": "2025-07-03T19:57:54.047-04:00", "avatar": "https://avatars.slack-edge.com/2024-06-17/7282151058790_b9e994f777f81a6319da_original.jpg", "custom_css": null}, {"id": 10936, "slack_id": "U0929PYEL1L", "display_name": "Haaanashii", "bio": null, "projects_count": 0, "devlogs_count": 0, "votes_count": 0, "ships_count": 0, "projects": [], "coding_time_seconds": 53776, "coding_time_seconds_today": 0, "balance": "You need to have a pocket watcher badge to view this.", "badges": [], "created_at": "2025-06-21T09:36:15.621-04:00", "updated_at": "2025-07-03T19:57:54.304-04:00", "avatar": "https://secure.gravatar.com/avatar/a870ce29ad0a4a245a07285c188e7342.jpg?s=512&d=https%3A%2F%2Fa.slack-edge.com%2Fdf10d%2Fimg%2Favatars%2Fava_0010-512.png", "custom_css": null}, {"id": 10937, "slack_id": "U092ULL8RBK", "display_name": "\u05d9\u05d5\u05e8\u05d0\u05d9 \u05e7\u05d5\u05d1\u05dc", "bio": null, "projects_count": 0, "devlogs_count": 0, "votes_count": 0, "ships_count": 0, "projects": [], "coding_time_seconds": 0, "coding_time_seconds_today": 0, "balance": "You need to have a pocket watcher badge to view this.", "badges": [], "created_at": "2025-06-21T09:41:57.815-04:00", "updated_at": "2025-07-03T19:57:54.574-04:00", "avatar": "https://avatars.slack-edge.com/2025-06-21/9083821335378_3ef8d5b2a34d7bd4de80_original.jpg", "custom_css": null}, {"id": 10938, "slack_id": "U092FPXDQKC", "display_name": "Jonas Kahnwald", "bio": null, "projects_count": 0, "devlogs_count": 0, "votes_count": 0, "ships_count": 0, "projects": [], "coding_time_seconds": 0, "coding_time_seconds_today": 0, "balance": "You need to have a pocket watcher badge to view this.", "badges": [], "created_at": "2025-06-21T09:43:11.411-04:00", "updated_at": "2025-07-03T19:57:54.863-04:00", "avatar": "https://avatars.slack-edge.com/2025-06-21/9083823269042_e72d987dd2be3b02c660_original.jpg", "custom_css": null}, {"id": 10939, "slack_id": "U092ER2RV9B", "display_name": "Jose Carlos", "bio": null, "projects_count": 0, "devlogs_count": 0, "votes_count": 0, "ships_count": 0, "projects": [], "coding_time_seconds": 0, "coding_time_seconds_today": 0, "balance": "You need to have a pocket watcher badge to view this.", "badges": [], "created_at": "2025-06-21T09:47:52.795-04:00", "updated_at": "2025-07-03T19:57:55.132-04:00", "avatar": "https://secure.gravatar.com/avatar/96010e3c6afe3ab8c8d44ece89a935bd.jpg?s=512&d=https%3A%2F%2Fa.slack-edge.com%2Fdf10d%2Fimg%2Favatars%2Fava_0008-512.png", "custom_css": null}, {"id": 10940, "slack_id": "U0929RJ90MU", "display_name": "DilaCode", "bio": null, "projects_count": 0, "devlogs_count": 0, "votes_count": 0, "ships_count": 0, "projects": [], "coding_time_seconds": 0, "coding_time_seconds_today": 0, "balance": "You need to have a pocket watcher badge to view this.", "badges": [], "created_at": "2025-06-21T09:52:31.955-04:00", "updated_at": "2025-07-03T19:57:55.411-04:00", "avatar": "https://secure.gravatar.com/avatar/8f659f996747e296de3e31d1045900e4.jpg?s=512&d=https%3A%2F%2Fa.slack-edge.com%2Fdf10d%2Fimg%2Favatars%2Fava_0022-512.png", "custom_css": null}], "pagination": {"page": 547, "pages": 1192, "count": 23828, "items": 20}}