{"users": [{"id": 10941, "slack_id": "U09211CJLJ3", "display_name": "Vishal Yadav", "bio": null, "projects_count": 0, "devlogs_count": 0, "votes_count": 0, "ships_count": 0, "projects": [], "coding_time_seconds": 0, "coding_time_seconds_today": 0, "balance": "You need to have a pocket watcher badge to view this.", "badges": [], "created_at": "2025-06-21T09:53:40.294-04:00", "updated_at": "2025-07-05T02:12:13.953-04:00", "avatar": "https://avatars.slack-edge.com/2025-06-21/9077878829126_79c353eac12c9eb751fb_original.png", "custom_css": null}, {"id": 10942, "slack_id": "U0933VAUACQ", "display_name": "Mov", "bio": "call me mov (oh wait thats my username alr lol)\r\ni make games and draw pictures\r\n\u271d\ufe0f \ud83d\udcbb \ud83d\ude82 \ud83d\udc68\u200d\ud83d\udcbb \ud83e\udd13 \u2622\ufe0f\ud83e\ude78\ud83e\udd5e>\ud83e\uddc7", "projects_count": 4, "devlogs_count": 34, "votes_count": 93, "ships_count": 2, "projects": [{"id": 6855, "title": "Constrictor", "devlogs_count": 1, "created_at": "2025-07-16T21:46:40.966-04:00"}, {"id": 10242, "title": "as the body falls", "devlogs_count": 7, "created_at": "2025-08-05T10:33:39.140-04:00"}, {"id": 11258, "title": "Emoji Mosaic", "devlogs_count": 4, "created_at": "2025-08-14T11:03:11.871-04:00"}, {"id": 3237, "title": "Emoji Dojo", "devlogs_count": 22, "created_at": "2025-06-23T14:28:13.116-04:00"}], "coding_time_seconds": 321354, "coding_time_seconds_today": 0, "balance": "You need to have a pocket watcher badge to view this.", "badges": [{"name": "Maiden Voyage", "text": "you shipped your first project! the journey begins...", "icon": "\ud83d\udea2"}, {"name": "Spider", "text": "this user has a pet!", "icon": "\ud83d\udd77\ufe0f"}, {"name": "Ballot Stuffer", "text": "vote 100 times.", "icon": "https://summer.hackclub.com/assets/i_voted-bf851b48.png"}], "created_at": "2025-06-21T09:53:55.142-04:00", "updated_at": "2025-09-10T22:56:38.615-04:00", "avatar": "https://avatars.slack-edge.com/2025-06-21/9078115283110_133afc602e1a845219ad_original.jpg", "custom_css": null}, {"id": 10943, "slack_id": "U092F0LGDM3", "display_name": "Vivek Mishra", "bio": null, "projects_count": 0, "devlogs_count": 0, "votes_count": 0, "ships_count": 0, "projects": [], "coding_time_seconds": 0, "coding_time_seconds_today": 0, "balance": "You need to have a pocket watcher badge to view this.", "badges": [], "created_at": "2025-06-21T09:54:15.957-04:00", "updated_at": "2025-07-03T19:57:55.965-04:00", "avatar": "https://secure.gravatar.com/avatar/64bec36161daed11227df55c1c0ba805.jpg?s=512&d=https%3A%2F%2Fa.slack-edge.com%2Fdf10d%2Fimg%2Favatars%2Fava_0005-512.png", "custom_css": null}, {"id": 10944, "slack_id": "U092G706V1A", "display_name": "Shreyansh Sahoo", "bio": "", "projects_count": 2, "devlogs_count": 38, "votes_count": 48, "ships_count": 1, "projects": [{"id": 13401, "title": "Scene -72 ( The River Glub!) ", "devlogs_count": 3, "created_at": "2025-09-15T12:00:10.492-04:00"}, {"id": 10986, "title": "Lanthanum.AI", "devlogs_count": 24, "created_at": "2025-08-12T08:04:29.570-04:00"}], "coding_time_seconds": 304829, "coding_time_seconds_today": 0, "balance": "You need to have a pocket watcher badge to view this.", "badges": [{"name": "Maiden Voyage", "text": "you shipped your first project! the journey begins...", "icon": "\ud83d\udea2"}], "created_at": "2025-06-21T10:01:13.116-04:00", "updated_at": "2025-09-10T22:56:38.676-04:00", "avatar": "https://avatars.slack-edge.com/2025-08-10/9342474528769_b50a0b6bcda72bd92f04_original.png", "custom_css": null}, {"id": 10945, "slack_id": "U09215U55SB", "display_name": "karmugilan", "bio": null, "projects_count": 0, "devlogs_count": 0, "votes_count": 0, "ships_count": 0, "projects": [], "coding_time_seconds": 0, "coding_time_seconds_today": 0, "balance": "You need to have a pocket watcher badge to view this.", "badges": [], "created_at": "2025-06-21T10:02:35.238-04:00", "updated_at": "2025-07-04T20:11:39.545-04:00", "avatar": "https://secure.gravatar.com/avatar/3cb6c6221fbefc63c1927358de7892c4.jpg?s=512&d=https%3A%2F%2Fa.slack-edge.com%2Fdf10d%2Fimg%2Favatars%2Fava_0017-512.png", "custom_css": null}, {"id": 10946, "slack_id": "U092F0TAN05", "display_name": "Harnam Singh", "bio": null, "projects_count": 0, "devlogs_count": 0, "votes_count": 0, "ships_count": 0, "projects": [], "coding_time_seconds": 0, "coding_time_seconds_today": 0, "balance": "You need to have a pocket watcher badge to view this.", "badges": [], "created_at": "2025-06-21T10:04:02.933-04:00", "updated_at": "2025-07-03T19:57:56.634-04:00", "avatar": "https://secure.gravatar.com/avatar/6bca45df4cc62ee2780a6060076b0a13.jpg?s=512&d=https%3A%2F%2Fa.slack-edge.com%2Fdf10d%2Fimg%2Favatars%2Fava_0016-512.png", "custom_css": null}, {"id": 10947, "slack_id": "U092UMPU2GH", "display_name": "mastergokul", "bio": null, "projects_count": 0, "devlogs_count": 0, "votes_count": 0, "ships_count": 0, "projects": [], "coding_time_seconds": 0, "coding_time_seconds_today": 0, "balance": "You need to have a pocket watcher badge to view this.", "badges": [], "created_at": "2025-06-21T10:06:59.060-04:00", "updated_at": "2025-07-03T19:57:56.904-04:00", "avatar": "https://secure.gravatar.com/avatar/7a73f062fa66cb808a20b4e4bea65e22.jpg?s=512&d=https%3A%2F%2Fa.slack-edge.com%2Fdf10d%2Fimg%2Favatars%2Fava_0003-512.png", "custom_css": null}, {"id": 10948, "slack_id": "U081TK3EKMH", "display_name": "Hamdan", "bio": null, "projects_count": 0, "devlogs_count": 0, "votes_count": 0, "ships_count": 0, "projects": [], "coding_time_seconds": 0, "coding_time_seconds_today": 0, "balance": "You need to have a pocket watcher badge to view this.", "badges": [], "created_at": "2025-06-21T10:08:39.450-04:00", "updated_at": "2025-07-03T19:57:57.171-04:00", "avatar": "https://secure.gravatar.com/avatar/93aa45f1d774b45d0466ae7cf66ea3af.jpg?s=512&d=https%3A%2F%2Fa.slack-edge.com%2Fdf10d%2Fimg%2Favatars%2Fava_0011-512.png", "custom_css": null}, {"id": 10949, "slack_id": "U09216EDQ7R", "display_name": "Mert", "bio": null, "projects_count": 0, "devlogs_count": 0, "votes_count": 0, "ships_count": 0, "projects": [], "coding_time_seconds": 0, "coding_time_seconds_today": 0, "balance": "You need to have a pocket watcher badge to view this.", "badges": [], "created_at": "2025-06-21T10:09:27.605-04:00", "updated_at": "2025-07-03T19:57:57.431-04:00", "avatar": "https://secure.gravatar.com/avatar/3c5a3a14ef947aecc86378c62f7c5a57.jpg?s=512&d=https%3A%2F%2Fa.slack-edge.com%2Fdf10d%2Fimg%2Favatars%2Fava_0000-512.png", "custom_css": null}, {"id": 10950, "slack_id": "U0929RW2GA1", "display_name": "Huan4Yi1", "bio": null, "projects_count": 0, "devlogs_count": 0, "votes_count": 0, "ships_count": 0, "projects": [], "coding_time_seconds": 0, "coding_time_seconds_today": 0, "balance": "You need to have a pocket watcher badge to view this.", "badges": [], "created_at": "2025-06-21T10:11:04.323-04:00", "updated_at": "2025-08-14T07:09:09.818-04:00", "avatar": "https://avatars.slack-edge.com/2025-06-21/9083877568178_d51a9d56474be5b49102_original.jpg", "custom_css": null}, {"id": 10951, "slack_id": "U092FR7T2US", "display_name": "editor99", "bio": null, "projects_count": 0, "devlogs_count": 0, "votes_count": 0, "ships_count": 0, "projects": [], "coding_time_seconds": 80837, "coding_time_seconds_today": 0, "balance": "You need to have a pocket watcher badge to view this.", "badges": [], "created_at": "2025-06-21T10:11:51.993-04:00", "updated_at": "2025-07-03T19:57:57.963-04:00", "avatar": "https://secure.gravatar.com/avatar/b2a875d373f1077eb996c4bf9adb1ad5.jpg?s=512&d=https%3A%2F%2Fa.slack-edge.com%2Fdf10d%2Fimg%2Favatars%2Fava_0008-512.png", "custom_css": null}, {"id": 10952, "slack_id": "U04NQPGGKBR", "display_name": "doruk", "bio": null, "projects_count": 0, "devlogs_count": 0, "votes_count": 0, "ships_count": 0, "projects": [], "coding_time_seconds": 167473, "coding_time_seconds_today": 0, "balance": "You need to have a pocket watcher badge to view this.", "badges": [], "created_at": "2025-06-21T10:12:43.233-04:00", "updated_at": "2025-08-02T07:39:49.197-04:00", "avatar": "https://avatars.slack-edge.com/2025-05-11/8877928104835_1b47f8ae798544c1cc2c_original.jpg", "custom_css": null}, {"id": 10953, "slack_id": "U09295JD9GB", "display_name": "Sophia", "bio": "Hihi! I'm Sophia. I like rust (the programming language).\r\nLinks:\r\nhttps://github.com/pufferfish101007\r\nhttps://pufferfish101007.edgecompute.app", "projects_count": 2, "devlogs_count": 26, "votes_count": 6, "ships_count": 0, "projects": [{"id": 2587, "title": "HyperQuark", "devlogs_count": 16, "created_at": "2025-06-21T11:40:50.976-04:00"}, {"id": 4896, "title": "Yak Stack", "devlogs_count": 10, "created_at": "2025-07-02T04:39:41.093-04:00"}], "coding_time_seconds": 252445, "coding_time_seconds_today": 0, "balance": "You need to have a pocket watcher badge to view this.", "badges": [], "created_at": "2025-06-21T10:16:59.392-04:00", "updated_at": "2025-07-03T19:57:58.505-04:00", "avatar": "https://avatars.slack-edge.com/2025-06-21/9083201166565_ec5150c8fd0ab63c1770_original.png", "custom_css": null}, {"id": 10954, "slack_id": "U09295J5E9H", "display_name": "Dalia Zidan", "bio": null, "projects_count": 0, "devlogs_count": 0, "votes_count": 0, "ships_count": 0, "projects": [], "coding_time_seconds": 109428, "coding_time_seconds_today": 0, "balance": "You need to have a pocket watcher badge to view this.", "badges": [], "created_at": "2025-06-21T10:17:21.972-04:00", "updated_at": "2025-07-03T19:57:58.771-04:00", "avatar": "https://secure.gravatar.com/avatar/ede9a31ad12f2c9aa0df680c22352506.jpg?s=512&d=https%3A%2F%2Fa.slack-edge.com%2Fdf10d%2Fimg%2Favatars%2Fava_0021-512.png", "custom_css": null}, {"id": 10955, "slack_id": "U092UNCHP4H", "display_name": "Danuka Thushan", "bio": null, "projects_count": 0, "devlogs_count": 0, "votes_count": 0, "ships_count": 0, "projects": [], "coding_time_seconds": 0, "coding_time_seconds_today": 0, "balance": "You need to have a pocket watcher badge to view this.", "badges": [], "created_at": "2025-06-21T10:23:10.804-04:00", "updated_at": "2025-07-08T02:55:55.031-04:00", "avatar": "https://secure.gravatar.com/avatar/69b30507d96f9d91dcbd0bb37cfe0d50.jpg?s=512&d=https%3A%2F%2Fa.slack-edge.com%2Fdf10d%2Fimg%2Favatars%2Fava_0025-512.png", "custom_css": null}, {"id": 10956, "slack_id": "U0921798PGX", "display_name": "Priyanshu .", "bio": null, "projects_count": 0, "devlogs_count": 0, "votes_count": 0, "ships_count": 0, "projects": [], "coding_time_seconds": 0, "coding_time_seconds_today": 0, "balance": "You need to have a pocket watcher badge to view this.", "badges": [], "created_at": "2025-06-21T10:24:55.167-04:00", "updated_at": "2025-07-03T19:57:59.175-04:00", "avatar": "https://secure.gravatar.com/avatar/47c59968faad48bb7efe22a9b5bf79e7.jpg?s=512&d=https%3A%2F%2Fa.slack-edge.com%2Fdf10d%2Fimg%2Favatars%2Fava_0006-512.png", "custom_css": null}, {"id": 10957, "slack_id": "U09341C4X5E", "display_name": "Kunal Kumar Keshri", "bio": null, "projects_count": 0, "devlogs_count": 0, "votes_count": 0, "ships_count": 0, "projects": [], "coding_time_seconds": 0, "coding_time_seconds_today": 0, "balance": "You need to have a pocket watcher badge to view this.", "badges": [], "created_at": "2025-06-21T10:25:27.125-04:00", "updated_at": "2025-07-04T02:30:51.890-04:00", "avatar": "https://secure.gravatar.com/avatar/987511a7082a139794c2457b842f5a2e.jpg?s=512&d=https%3A%2F%2Fa.slack-edge.com%2Fdf10d%2Fimg%2Favatars%2Fava_0000-512.png", "custom_css": null}, {"id": 10958, "slack_id": "U092G833YG4", "display_name": "Ryan Pickard", "bio": null, "projects_count": 1, "devlogs_count": 0, "votes_count": 0, "ships_count": 0, "projects": [{"id": 2661, "title": "Bomb Defusal Game", "devlogs_count": 0, "created_at": "2025-06-21T15:33:21.240-04:00"}], "coding_time_seconds": 3695, "coding_time_seconds_today": 0, "balance": "You need to have a pocket watcher badge to view this.", "badges": [], "created_at": "2025-06-21T10:25:46.081-04:00", "updated_at": "2025-07-03T19:57:59.591-04:00", "avatar": "https://secure.gravatar.com/avatar/305b205c98cfbab5d84464c053cf1158.jpg?s=512&d=https%3A%2F%2Fa.slack-edge.com%2Fdf10d%2Fimg%2Favatars%2Fava_0007-512.png", "custom_css": null}, {"id": 10959, "slack_id": "U0934187UG0", "display_name": "Ant\u00f4nio Alysson de Medeiros Carna\u00faba", "bio": null, "projects_count": 0, "devlogs_count": 0, "votes_count": 0, "ships_count": 0, "projects": [], "coding_time_seconds": 0, "coding_time_seconds_today": 0, "balance": "You need to have a pocket watcher badge to view this.", "badges": [], "created_at": "2025-06-21T10:26:13.254-04:00", "updated_at": "2025-07-03T19:57:59.856-04:00", "avatar": "https://secure.gravatar.com/avatar/080443b67b33779638b1fef901d1c1e2.jpg?s=512&d=https%3A%2F%2Fa.slack-edge.com%2Fdf10d%2Fimg%2Favatars%2Fava_0000-512.png", "custom_css": null}, {"id": 10960, "slack_id": "U09295MLZB5", "display_name": "Alex Kenny", "bio": null, "projects_count": 0, "devlogs_count": 0, "votes_count": 0, "ships_count": 0, "projects": [], "coding_time_seconds": 0, "coding_time_seconds_today": 0, "balance": "You need to have a pocket watcher badge to view this.", "badges": [], "created_at": "2025-06-21T10:26:32.731-04:00", "updated_at": "2025-07-04T02:30:52.152-04:00", "avatar": "https://secure.gravatar.com/avatar/dd7cbb15fc5d9aa1fcb8512eaa9489db.jpg?s=512&d=https%3A%2F%2Fa.slack-edge.com%2Fdf10d%2Fimg%2Favatars%2Fava_0012-512.png", "custom_css": null}], "pagination": {"page": 548, "pages": 1192, "count": 23828, "items": 20}}