{"users": [{"id": 10961, "slack_id": "U092F1YTMB7", "display_name": "Vidura Heshan", "bio": null, "projects_count": 0, "devlogs_count": 0, "votes_count": 0, "ships_count": 0, "projects": [], "coding_time_seconds": 16804, "coding_time_seconds_today": 0, "balance": "You need to have a pocket watcher badge to view this.", "badges": [], "created_at": "2025-06-21T10:27:40.417-04:00", "updated_at": "2025-07-03T19:58:00.273-04:00", "avatar": "https://secure.gravatar.com/avatar/4364412557fcb2678797282d7d5dd79c.jpg?s=512&d=https%3A%2F%2Fa.slack-edge.com%2Fdf10d%2Fimg%2Favatars%2Fava_0024-512.png", "custom_css": null}, {"id": 10962, "slack_id": "U0929TACJMC", "display_name": "shoto", "bio": null, "projects_count": 0, "devlogs_count": 0, "votes_count": 0, "ships_count": 0, "projects": [], "coding_time_seconds": 82978, "coding_time_seconds_today": 0, "balance": "You need to have a pocket watcher badge to view this.", "badges": [], "created_at": "2025-06-21T10:31:10.951-04:00", "updated_at": "2025-07-29T14:22:59.948-04:00", "avatar": "https://secure.gravatar.com/avatar/8d1f56d1f3263b6a65224006c363acf7.jpg?s=512&d=https%3A%2F%2Fa.slack-edge.com%2Fdf10d%2Fimg%2Favatars%2Fava_0018-512.png", "custom_css": null}, {"id": 10963, "slack_id": "U092FS23PH8", "display_name": "Chigot", "bio": null, "projects_count": 0, "devlogs_count": 0, "votes_count": 0, "ships_count": 0, "projects": [], "coding_time_seconds": 0, "coding_time_seconds_today": 0, "balance": "You need to have a pocket watcher badge to view this.", "badges": [], "created_at": "2025-06-21T10:31:13.569-04:00", "updated_at": "2025-07-03T19:58:00.713-04:00", "avatar": "https://secure.gravatar.com/avatar/bbcc03d99acc0e00a5a2e735ee79aa28.jpg?s=512&d=https%3A%2F%2Fa.slack-edge.com%2Fdf10d%2Fimg%2Favatars%2Fava_0009-512.png", "custom_css": null}, {"id": 10964, "slack_id": "U092963TR35", "display_name": "Pawe\u0142 \u015amigielski", "bio": null, "projects_count": 1, "devlogs_count": 0, "votes_count": 0, "ships_count": 0, "projects": [{"id": 2595, "title": "Endurafit", "devlogs_count": 0, "created_at": "2025-06-21T12:03:09.205-04:00"}], "coding_time_seconds": 120, "coding_time_seconds_today": 0, "balance": "You need to have a pocket watcher badge to view this.", "badges": [], "created_at": "2025-06-21T10:31:23.058-04:00", "updated_at": "2025-07-03T19:58:01.070-04:00", "avatar": "https://avatars.slack-edge.com/2025-06-21/9106061883696_89a172f3173bc4a30067_original.png", "custom_css": null}, {"id": 10965, "slack_id": "U091QBXJ38V", "display_name": "Amit Ray", "bio": null, "projects_count": 0, "devlogs_count": 0, "votes_count": 0, "ships_count": 0, "projects": [], "coding_time_seconds": 0, "coding_time_seconds_today": 0, "balance": "You need to have a pocket watcher badge to view this.", "badges": [], "created_at": "2025-06-21T10:33:25.996-04:00", "updated_at": "2025-07-03T19:58:01.353-04:00", "avatar": "https://avatars.slack-edge.com/2025-06-21/9106065074832_2b6f6123b09bdc2891ac_original.jpg", "custom_css": null}, {"id": 10966, "slack_id": "U09295X762X", "display_name": "Atnasiya", "bio": null, "projects_count": 0, "devlogs_count": 0, "votes_count": 0, "ships_count": 0, "projects": [], "coding_time_seconds": 0, "coding_time_seconds_today": 0, "balance": "You need to have a pocket watcher badge to view this.", "badges": [], "created_at": "2025-06-21T10:33:43.559-04:00", "updated_at": "2025-07-04T02:30:52.576-04:00", "avatar": "https://avatars.slack-edge.com/2025-06-21/9083898183330_7a115106147758a73fb1_original.jpg", "custom_css": null}, {"id": 10967, "slack_id": "U092G8P3TA8", "display_name": "Yash Rai", "bio": null, "projects_count": 0, "devlogs_count": 0, "votes_count": 0, "ships_count": 0, "projects": [], "coding_time_seconds": 0, "coding_time_seconds_today": 0, "balance": "You need to have a pocket watcher badge to view this.", "badges": [], "created_at": "2025-06-21T10:34:57.119-04:00", "updated_at": "2025-07-03T19:58:01.769-04:00", "avatar": "https://avatars.slack-edge.com/2025-06-21/9083086212421_60741732ede1c2291549_original.png", "custom_css": null}, {"id": 10968, "slack_id": "U09217JND2T", "display_name": "Deveroonie", "bio": null, "projects_count": 0, "devlogs_count": 0, "votes_count": 0, "ships_count": 0, "projects": [], "coding_time_seconds": 253786, "coding_time_seconds_today": 0, "balance": "You need to have a pocket watcher badge to view this.", "badges": [], "created_at": "2025-06-21T10:34:59.725-04:00", "updated_at": "2025-07-03T19:58:02.046-04:00", "avatar": "https://secure.gravatar.com/avatar/8163d9a880249adb72f32d3c189272fd.jpg?s=512&d=https%3A%2F%2Fa.slack-edge.com%2Fdf10d%2Fimg%2Favatars%2Fava_0019-512.png", "custom_css": null}, {"id": 10969, "slack_id": "U0887DVKHQR", "display_name": "Noah", "bio": null, "projects_count": 1, "devlogs_count": 11, "votes_count": 0, "ships_count": 0, "projects": [{"id": 2588, "title": "Canvas Launcher", "devlogs_count": 11, "created_at": "2025-06-21T11:46:30.651-04:00"}], "coding_time_seconds": 146875, "coding_time_seconds_today": 0, "balance": "You need to have a pocket watcher badge to view this.", "badges": [], "created_at": "2025-06-21T10:35:20.503-04:00", "updated_at": "2025-07-04T03:18:13.800-04:00", "avatar": "https://secure.gravatar.com/avatar/74fddfd599352004f29211520b1e6aeb.jpg?s=512&d=https%3A%2F%2Fa.slack-edge.com%2Fdf10d%2Fimg%2Favatars%2Fava_0019-512.png", "custom_css": null}, {"id": 10970, "slack_id": "U092UP3RLC9", "display_name": "Tharaka Madushanka Wanshathilaka", "bio": null, "projects_count": 0, "devlogs_count": 0, "votes_count": 0, "ships_count": 0, "projects": [], "coding_time_seconds": 0, "coding_time_seconds_today": 0, "balance": "You need to have a pocket watcher badge to view this.", "badges": [], "created_at": "2025-06-21T10:37:21.433-04:00", "updated_at": "2025-07-03T19:58:02.442-04:00", "avatar": "https://avatars.slack-edge.com/2025-06-21/9084333237972_8d11b8ab1748637d52e0_original.jpg", "custom_css": null}, {"id": 10971, "slack_id": "U092UP710M7", "display_name": "zeref", "bio": null, "projects_count": 1, "devlogs_count": 0, "votes_count": 0, "ships_count": 0, "projects": [{"id": 2583, "title": "Weather app", "devlogs_count": 0, "created_at": "2025-06-21T11:14:51.215-04:00"}], "coding_time_seconds": 141930, "coding_time_seconds_today": 0, "balance": "You need to have a pocket watcher badge to view this.", "badges": [], "created_at": "2025-06-21T10:40:11.684-04:00", "updated_at": "2025-07-05T02:12:15.855-04:00", "avatar": "https://secure.gravatar.com/avatar/9df62ef6aaf1464099d2689ad5dbb33e.jpg?s=512&d=https%3A%2F%2Fa.slack-edge.com%2Fdf10d%2Fimg%2Favatars%2Fava_0026-512.png", "custom_css": null}, {"id": 10972, "slack_id": "U09341Z52UQ", "display_name": "Ritabrata Das", "bio": null, "projects_count": 1, "devlogs_count": 0, "votes_count": 0, "ships_count": 0, "projects": [{"id": 3879, "title": "YSFLight Reforged (cirnoYSF)", "devlogs_count": 0, "created_at": "2025-06-26T05:08:35.285-04:00"}], "coding_time_seconds": 33446, "coding_time_seconds_today": 0, "balance": "You need to have a pocket watcher badge to view this.", "badges": [], "created_at": "2025-06-21T10:41:15.133-04:00", "updated_at": "2025-07-03T19:58:02.828-04:00", "avatar": "https://secure.gravatar.com/avatar/f619f67d686fb53305cdb18edcd794b2.jpg?s=512&d=https%3A%2F%2Fa.slack-edge.com%2Fdf10d%2Fimg%2Favatars%2Fava_0014-512.png", "custom_css": null}, {"id": 10973, "slack_id": "U092FSMEBGA", "display_name": "Rayhan", "bio": null, "projects_count": 0, "devlogs_count": 0, "votes_count": 0, "ships_count": 0, "projects": [], "coding_time_seconds": 19508, "coding_time_seconds_today": 0, "balance": "You need to have a pocket watcher badge to view this.", "badges": [], "created_at": "2025-06-21T10:47:19.523-04:00", "updated_at": "2025-07-03T19:58:03.095-04:00", "avatar": "https://secure.gravatar.com/avatar/9d7f30075494a6ab838cb76f09219911.jpg?s=512&d=https%3A%2F%2Fa.slack-edge.com%2Fdf10d%2Fimg%2Favatars%2Fava_0015-512.png", "custom_css": null}, {"id": 10974, "slack_id": "U06RD6YAPEV", "display_name": "not_a_robot", "bio": null, "projects_count": 0, "devlogs_count": 0, "votes_count": 0, "ships_count": 0, "projects": [], "coding_time_seconds": 20541, "coding_time_seconds_today": 0, "balance": "You need to have a pocket watcher badge to view this.", "badges": [], "created_at": "2025-06-21T10:49:57.690-04:00", "updated_at": "2025-07-06T11:04:55.292-04:00", "avatar": "https://avatars.slack-edge.com/2025-06-21/9084329177172_0ae5c030dbfaeb28a8f5_original.png", "custom_css": null}, {"id": 10975, "slack_id": "U0929757DR9", "display_name": "Hugo Jeanselme", "bio": null, "projects_count": 0, "devlogs_count": 0, "votes_count": 0, "ships_count": 0, "projects": [], "coding_time_seconds": 0, "coding_time_seconds_today": 0, "balance": "You need to have a pocket watcher badge to view this.", "badges": [], "created_at": "2025-06-21T10:54:47.977-04:00", "updated_at": "2025-07-04T02:30:53.311-04:00", "avatar": "https://secure.gravatar.com/avatar/aaf3a489315f486b578f9eb3652705ce.jpg?s=512&d=https%3A%2F%2Fa.slack-edge.com%2Fdf10d%2Fimg%2Favatars%2Fava_0003-512.png", "custom_css": null}, {"id": 10976, "slack_id": "U092G9CL9S8", "display_name": "Inochi Fumetsu", "bio": null, "projects_count": 0, "devlogs_count": 0, "votes_count": 0, "ships_count": 0, "projects": [], "coding_time_seconds": 0, "coding_time_seconds_today": 0, "balance": "You need to have a pocket watcher badge to view this.", "badges": [], "created_at": "2025-06-21T10:56:07.997-04:00", "updated_at": "2025-07-03T22:01:35.691-04:00", "avatar": "https://secure.gravatar.com/avatar/337ccf3b92d41c993896da33325df8a3.jpg?s=512&d=https%3A%2F%2Fa.slack-edge.com%2Fdf10d%2Fimg%2Favatars%2Fava_0015-512.png", "custom_css": null}, {"id": 10977, "slack_id": "U09218G6RM5", "display_name": "Shuaiwei Yu", "bio": null, "projects_count": 0, "devlogs_count": 0, "votes_count": 0, "ships_count": 0, "projects": [], "coding_time_seconds": 0, "coding_time_seconds_today": 0, "balance": "You need to have a pocket watcher badge to view this.", "badges": [], "created_at": "2025-06-21T10:58:57.021-04:00", "updated_at": "2025-07-03T19:58:03.767-04:00", "avatar": "https://secure.gravatar.com/avatar/ffcadf469ad62fa0dbb88674ed8dd84e.jpg?s=512&d=https%3A%2F%2Fa.slack-edge.com%2Fdf10d%2Fimg%2Favatars%2Fava_0003-512.png", "custom_css": null}, {"id": 10978, "slack_id": "U076RG4KR9Q", "display_name": "vanessa tan", "bio": null, "projects_count": 1, "devlogs_count": 0, "votes_count": 2, "ships_count": 0, "projects": [{"id": 10517, "title": "Auto", "devlogs_count": 0, "created_at": "2025-08-07T17:41:45.339-04:00"}], "coding_time_seconds": 2716, "coding_time_seconds_today": 0, "balance": "You need to have a pocket watcher badge to view this.", "badges": [], "created_at": "2025-06-21T10:59:00.375-04:00", "updated_at": "2025-08-07T17:24:17.819-04:00", "avatar": "https://secure.gravatar.com/avatar/e065b5a7b2dc6cd5218cfc013c34e198.jpg?s=512&d=https%3A%2F%2Fa.slack-edge.com%2Fdf10d%2Fimg%2Favatars%2Fava_0002-512.png", "custom_css": null}, {"id": 10979, "slack_id": "U092G9N9GMA", "display_name": "Joy Mandi", "bio": null, "projects_count": 0, "devlogs_count": 0, "votes_count": 0, "ships_count": 0, "projects": [], "coding_time_seconds": 5259, "coding_time_seconds_today": 0, "balance": "You need to have a pocket watcher badge to view this.", "badges": [], "created_at": "2025-06-21T11:00:41.137-04:00", "updated_at": "2025-07-03T19:58:04.179-04:00", "avatar": "https://avatars.slack-edge.com/2025-06-21/9083933074322_4c953c602b4d836482e6_original.png", "custom_css": null}, {"id": 10980, "slack_id": "U0929UQQUTY", "display_name": "Nishtha Jain", "bio": null, "projects_count": 0, "devlogs_count": 0, "votes_count": 0, "ships_count": 0, "projects": [], "coding_time_seconds": 0, "coding_time_seconds_today": 0, "balance": "You need to have a pocket watcher badge to view this.", "badges": [], "created_at": "2025-06-21T11:03:15.200-04:00", "updated_at": "2025-07-03T19:58:04.450-04:00", "avatar": "https://secure.gravatar.com/avatar/7d67a1597334fe02b392d789d19f2e56.jpg?s=512&d=https%3A%2F%2Fa.slack-edge.com%2Fdf10d%2Fimg%2Favatars%2Fava_0012-512.png", "custom_css": null}], "pagination": {"page": 549, "pages": 1192, "count": 23828, "items": 20}}