{"users": [{"id": 10981, "slack_id": "U092G9ZPZRA", "display_name": "MERLY C TOM", "bio": null, "projects_count": 1, "devlogs_count": 8, "votes_count": 1, "ships_count": 0, "projects": [{"id": 2608, "title": "StudySync", "devlogs_count": 8, "created_at": "2025-06-21T12:45:38.342-04:00"}], "coding_time_seconds": 88164, "coding_time_seconds_today": 0, "balance": "You need to have a pocket watcher badge to view this.", "badges": [], "created_at": "2025-06-21T11:04:02.395-04:00", "updated_at": "2025-07-03T19:58:04.721-04:00", "avatar": "https://secure.gravatar.com/avatar/2c1501487c4a6fdb7097cf300589b906.jpg?s=512&d=https%3A%2F%2Fa.slack-edge.com%2Fdf10d%2Fimg%2Favatars%2Fava_0001-512.png", "custom_css": null}, {"id": 10982, "slack_id": "U0929VDJMJA", "display_name": "Nathanael Kim", "bio": null, "projects_count": 0, "devlogs_count": 0, "votes_count": 0, "ships_count": 0, "projects": [], "coding_time_seconds": 37118, "coding_time_seconds_today": 0, "balance": "You need to have a pocket watcher badge to view this.", "badges": [], "created_at": "2025-06-21T11:11:45.345-04:00", "updated_at": "2025-07-03T19:58:04.988-04:00", "avatar": "https://secure.gravatar.com/avatar/85b269a3d9f2322d9bb6d3dd31affa3c.jpg?s=512&d=https%3A%2F%2Fa.slack-edge.com%2Fdf10d%2Fimg%2Favatars%2Fava_0013-512.png", "custom_css": null}, {"id": 10983, "slack_id": "U0929VAF58W", "display_name": "Jeyapragash", "bio": null, "projects_count": 0, "devlogs_count": 0, "votes_count": 0, "ships_count": 0, "projects": [], "coding_time_seconds": 0, "coding_time_seconds_today": 0, "balance": "You need to have a pocket watcher badge to view this.", "badges": [], "created_at": "2025-06-21T11:14:03.865-04:00", "updated_at": "2025-07-03T19:58:05.273-04:00", "avatar": "https://secure.gravatar.com/avatar/b5ae34c70d30dde454c45f2fdbb5f2cb.jpg?s=512&d=https%3A%2F%2Fa.slack-edge.com%2Fdf10d%2Fimg%2Favatars%2Fava_0007-512.png", "custom_css": null}, {"id": 10984, "slack_id": "U08RVE5PW68", "display_name": "suzukesan", "bio": null, "projects_count": 2, "devlogs_count": 5, "votes_count": 0, "ships_count": 0, "projects": [{"id": 9036, "title": "Liquid Garden", "devlogs_count": 5, "created_at": "2025-07-30T09:04:35.635-04:00"}, {"id": 9037, "title": "Liquid Garden", "devlogs_count": 0, "created_at": "2025-07-30T09:04:35.750-04:00"}], "coding_time_seconds": 169190, "coding_time_seconds_today": 0, "balance": "You need to have a pocket watcher badge to view this.", "badges": [], "created_at": "2025-06-21T11:15:40.730-04:00", "updated_at": "2025-09-02T13:21:09.524-04:00", "avatar": "https://avatars.slack-edge.com/2025-05-15/8924762262432_48b74deb663d310bdbf0_original.png", "custom_css": null}, {"id": 10985, "slack_id": "U092F3WKE21", "display_name": "Aayush Lal", "bio": null, "projects_count": 0, "devlogs_count": 0, "votes_count": 0, "ships_count": 0, "projects": [], "coding_time_seconds": 0, "coding_time_seconds_today": 0, "balance": "You need to have a pocket watcher badge to view this.", "badges": [], "created_at": "2025-06-21T11:15:49.177-04:00", "updated_at": "2025-07-03T19:58:05.796-04:00", "avatar": "https://secure.gravatar.com/avatar/a6725316f48f132c91be18bd8d3563e2.jpg?s=512&d=https%3A%2F%2Fa.slack-edge.com%2Fdf10d%2Fimg%2Favatars%2Fava_0000-512.png", "custom_css": null}, {"id": 10986, "slack_id": "U0932DPD75W", "display_name": "Md Shajatatul Yeakin", "bio": null, "projects_count": 0, "devlogs_count": 0, "votes_count": 0, "ships_count": 0, "projects": [], "coding_time_seconds": 0, "coding_time_seconds_today": 0, "balance": "You need to have a pocket watcher badge to view this.", "badges": [], "created_at": "2025-06-21T11:23:15.455-04:00", "updated_at": "2025-07-03T19:58:06.066-04:00", "avatar": "https://secure.gravatar.com/avatar/8d0ec6e4b86e4e581157e62cfba2f61a.jpg?s=512&d=https%3A%2F%2Fa.slack-edge.com%2Fdf10d%2Fimg%2Favatars%2Fava_0001-512.png", "custom_css": null}, {"id": 10987, "slack_id": "U093445A9CY", "display_name": "Sachleen", "bio": null, "projects_count": 0, "devlogs_count": 0, "votes_count": 0, "ships_count": 0, "projects": [], "coding_time_seconds": 77528, "coding_time_seconds_today": 0, "balance": "You need to have a pocket watcher badge to view this.", "badges": [], "created_at": "2025-06-21T11:33:49.278-04:00", "updated_at": "2025-07-19T03:37:38.973-04:00", "avatar": "https://avatars.slack-edge.com/2025-07-04/9144406266982_2b82ffaa37947768944b_original.jpg", "custom_css": null}, {"id": 10988, "slack_id": "U09298VPA8K", "display_name": "Hojin Jung", "bio": null, "projects_count": 0, "devlogs_count": 0, "votes_count": 0, "ships_count": 0, "projects": [], "coding_time_seconds": 10593, "coding_time_seconds_today": 426, "balance": "You need to have a pocket watcher badge to view this.", "badges": [], "created_at": "2025-06-21T11:34:44.001-04:00", "updated_at": "2025-07-03T22:01:36.476-04:00", "avatar": "https://secure.gravatar.com/avatar/1a64badc4f629ff535232d5339c0139a.jpg?s=512&d=https%3A%2F%2Fa.slack-edge.com%2Fdf10d%2Fimg%2Favatars%2Fava_0003-512.png", "custom_css": null}, {"id": 10989, "slack_id": "U09344CSA9W", "display_name": "jemmers", "bio": null, "projects_count": 0, "devlogs_count": 0, "votes_count": 0, "ships_count": 0, "projects": [], "coding_time_seconds": 0, "coding_time_seconds_today": 0, "balance": "You need to have a pocket watcher badge to view this.", "badges": [], "created_at": "2025-06-21T11:37:22.883-04:00", "updated_at": "2025-07-03T19:58:06.746-04:00", "avatar": "https://secure.gravatar.com/avatar/426765cbce4ce53223db93eebf273363.jpg?s=512&d=https%3A%2F%2Fa.slack-edge.com%2Fdf10d%2Fimg%2Favatars%2Fava_0015-512.png", "custom_css": null}, {"id": 10990, "slack_id": "U092URUCG8H", "display_name": "Cristian Ernesto Antonio Santiago", "bio": null, "projects_count": 0, "devlogs_count": 0, "votes_count": 0, "ships_count": 0, "projects": [], "coding_time_seconds": 0, "coding_time_seconds_today": 0, "balance": "You need to have a pocket watcher badge to view this.", "badges": [], "created_at": "2025-06-21T11:38:04.160-04:00", "updated_at": "2025-07-04T08:27:10.450-04:00", "avatar": "https://secure.gravatar.com/avatar/133a74a7b898550fde83671045af495a.jpg?s=512&d=https%3A%2F%2Fa.slack-edge.com%2Fdf10d%2Fimg%2Favatars%2Fava_0011-512.png", "custom_css": null}, {"id": 10991, "slack_id": "U07KR534PPT", "display_name": "ea99", "bio": null, "projects_count": 0, "devlogs_count": 0, "votes_count": 0, "ships_count": 0, "projects": [], "coding_time_seconds": 80326, "coding_time_seconds_today": 0, "balance": "You need to have a pocket watcher badge to view this.", "badges": [], "created_at": "2025-06-21T11:43:02.996-04:00", "updated_at": "2025-07-03T19:58:07.138-04:00", "avatar": "https://avatars.slack-edge.com/2025-06-05/9033249401792_5bd5846427f8401a4145_original.png", "custom_css": null}, {"id": 10992, "slack_id": "U09344HR072", "display_name": "Nina", "bio": null, "projects_count": 4, "devlogs_count": 20, "votes_count": 42, "ships_count": 3, "projects": [{"id": 6303, "title": "Proggramer vs Hackers game", "devlogs_count": 8, "created_at": "2025-07-12T06:15:15.850-04:00"}, {"id": 6722, "title": "Farm Runner", "devlogs_count": 4, "created_at": "2025-07-15T14:00:30.897-04:00"}, {"id": 5687, "title": "Rat Gems Pickup", "devlogs_count": 4, "created_at": "2025-07-07T04:40:34.733-04:00"}, {"id": 4118, "title": "Whatsapp Chat Analyzer", "devlogs_count": 4, "created_at": "2025-06-27T15:30:31.581-04:00"}], "coding_time_seconds": 201897, "coding_time_seconds_today": 0, "balance": "You need to have a pocket watcher badge to view this.", "badges": [{"name": "Maiden Voyage", "text": "you shipped your first project! the journey begins...", "icon": "\ud83d\udea2"}], "created_at": "2025-06-21T11:43:58.415-04:00", "updated_at": "2025-09-10T22:56:39.973-04:00", "avatar": "https://secure.gravatar.com/avatar/011714a1fc08b003ccaaf6dfbc3bddf4.jpg?s=512&d=https%3A%2F%2Fa.slack-edge.com%2Fdf10d%2Fimg%2Favatars%2Fava_0010-512.png", "custom_css": null}, {"id": 10993, "slack_id": "U092FV45610", "display_name": "Yash Jain", "bio": null, "projects_count": 0, "devlogs_count": 0, "votes_count": 0, "ships_count": 0, "projects": [], "coding_time_seconds": 44212, "coding_time_seconds_today": 0, "balance": "You need to have a pocket watcher badge to view this.", "badges": [], "created_at": "2025-06-21T11:44:08.269-04:00", "updated_at": "2025-07-04T02:30:54.745-04:00", "avatar": "https://secure.gravatar.com/avatar/b05e043c97b9dd09e0f9097ead5c766a.jpg?s=512&d=https%3A%2F%2Fa.slack-edge.com%2Fdf10d%2Fimg%2Favatars%2Fava_0021-512.png", "custom_css": null}, {"id": 10994, "slack_id": "U09342XED40", "display_name": "Bennet", "bio": null, "projects_count": 0, "devlogs_count": 0, "votes_count": 0, "ships_count": 0, "projects": [], "coding_time_seconds": 0, "coding_time_seconds_today": 0, "balance": "You need to have a pocket watcher badge to view this.", "badges": [], "created_at": "2025-06-21T11:48:19.112-04:00", "updated_at": "2025-07-03T19:58:07.664-04:00", "avatar": "https://secure.gravatar.com/avatar/08b96f0f164be6eb84302b96d85b7b45.jpg?s=512&d=https%3A%2F%2Fa.slack-edge.com%2Fdf10d%2Fimg%2Favatars%2Fava_0004-512.png", "custom_css": null}, {"id": 10995, "slack_id": "U092A0XK154", "display_name": "Amit", "bio": null, "projects_count": 1, "devlogs_count": 0, "votes_count": 0, "ships_count": 0, "projects": [{"id": 3436, "title": "Company Project", "devlogs_count": 0, "created_at": "2025-06-24T08:28:36.429-04:00"}], "coding_time_seconds": 573550, "coding_time_seconds_today": 3299, "balance": "You need to have a pocket watcher badge to view this.", "badges": [], "created_at": "2025-06-21T11:52:11.128-04:00", "updated_at": "2025-07-03T19:58:07.925-04:00", "avatar": "https://secure.gravatar.com/avatar/ffcfd7ebff6631e345de227d5fa7d8b1.jpg?s=512&d=https%3A%2F%2Fa.slack-edge.com%2Fdf10d%2Fimg%2Favatars%2Fava_0011-512.png", "custom_css": null}, {"id": 10996, "slack_id": "U092A1XFUQ6", "display_name": "Captain Rex (Veer Singh)", "bio": null, "projects_count": 1, "devlogs_count": 2, "votes_count": 0, "ships_count": 1, "projects": [{"id": 2639, "title": "voxEngine", "devlogs_count": 2, "created_at": "2025-06-21T14:26:17.289-04:00"}], "coding_time_seconds": 88968, "coding_time_seconds_today": 0, "balance": "You need to have a pocket watcher badge to view this.", "badges": [{"name": "Maiden Voyage", "text": "you shipped your first project! the journey begins...", "icon": "\ud83d\udea2"}], "created_at": "2025-06-21T11:55:46.331-04:00", "updated_at": "2025-09-10T22:56:40.072-04:00", "avatar": "https://avatars.slack-edge.com/2025-06-21/9084651712244_ec099daf3f63ac48099b_original.jpg", "custom_css": null}, {"id": 10997, "slack_id": "U092USCAZC1", "display_name": "Davide Cose", "bio": null, "projects_count": 0, "devlogs_count": 0, "votes_count": 0, "ships_count": 0, "projects": [], "coding_time_seconds": 0, "coding_time_seconds_today": 0, "balance": "You need to have a pocket watcher badge to view this.", "badges": [], "created_at": "2025-06-21T11:57:04.191-04:00", "updated_at": "2025-07-03T19:58:08.454-04:00", "avatar": "https://secure.gravatar.com/avatar/9aac8219f3e2419d11ee04aaf1f8cb5e.jpg?s=512&d=https%3A%2F%2Fa.slack-edge.com%2Fdf10d%2Fimg%2Favatars%2Fava_0026-512.png", "custom_css": null}, {"id": 10998, "slack_id": "UM1A0PCMC", "display_name": "Olga", "bio": null, "projects_count": 0, "devlogs_count": 0, "votes_count": 0, "ships_count": 0, "projects": [], "coding_time_seconds": 0, "coding_time_seconds_today": 0, "balance": "You need to have a pocket watcher badge to view this.", "badges": [], "created_at": "2025-06-21T11:57:15.296-04:00", "updated_at": "2025-07-03T19:58:08.730-04:00", "avatar": "https://avatars.slack-edge.com/2024-09-17/7764056030624_9e36610b5aa35eef40b4_original.jpg", "custom_css": null}, {"id": 10999, "slack_id": "U0924UDC41F", "display_name": "N Subha Kanth", "bio": null, "projects_count": 0, "devlogs_count": 0, "votes_count": 0, "ships_count": 0, "projects": [], "coding_time_seconds": 0, "coding_time_seconds_today": 0, "balance": "You need to have a pocket watcher badge to view this.", "badges": [], "created_at": "2025-06-21T11:58:33.976-04:00", "updated_at": "2025-07-04T20:11:42.808-04:00", "avatar": "https://secure.gravatar.com/avatar/f78c083bbb0f802fb86db707d8893648.jpg?s=512&d=https%3A%2F%2Fa.slack-edge.com%2Fdf10d%2Fimg%2Favatars%2Fava_0002-512.png", "custom_css": null}, {"id": 11000, "slack_id": "U092GCF7SCC", "display_name": "Pythonuser", "bio": null, "projects_count": 0, "devlogs_count": 0, "votes_count": 0, "ships_count": 0, "projects": [], "coding_time_seconds": 0, "coding_time_seconds_today": 0, "balance": "You need to have a pocket watcher badge to view this.", "badges": [], "created_at": "2025-06-21T11:59:10.870-04:00", "updated_at": "2025-07-04T02:30:55.285-04:00", "avatar": "https://secure.gravatar.com/avatar/51ad7e47cd6f4b320f1ddad45fab2b9f.jpg?s=512&d=https%3A%2F%2Fa.slack-edge.com%2Fdf10d%2Fimg%2Favatars%2Fava_0009-512.png", "custom_css": null}], "pagination": {"page": 550, "pages": 1192, "count": 23828, "items": 20}}