{"users": [{"id": 11061, "slack_id": "U091S4WDJ1G", "display_name": "Tarun", "bio": null, "projects_count": 0, "devlogs_count": 0, "votes_count": 0, "ships_count": 0, "projects": [], "coding_time_seconds": 0, "coding_time_seconds_today": 0, "balance": "You need to have a pocket watcher badge to view this.", "badges": [], "created_at": "2025-06-21T15:08:00.415-04:00", "updated_at": "2025-07-03T19:58:22.890-04:00", "avatar": "https://secure.gravatar.com/avatar/2c2d420453d8d65ca8b442d7d97e4ed5.jpg?s=512&d=https%3A%2F%2Fa.slack-edge.com%2Fdf10d%2Fimg%2Favatars%2Fava_0024-512.png", "custom_css": null}, {"id": 11062, "slack_id": "U092GLA6YLC", "display_name": "talilt fatima", "bio": null, "projects_count": 0, "devlogs_count": 0, "votes_count": 0, "ships_count": 0, "projects": [], "coding_time_seconds": 0, "coding_time_seconds_today": 0, "balance": "You need to have a pocket watcher badge to view this.", "badges": [], "created_at": "2025-06-21T15:10:03.810-04:00", "updated_at": "2025-07-03T19:58:23.166-04:00", "avatar": "https://avatars.slack-edge.com/2025-06-21/9097200073569_04facfabf433919446fd_original.png", "custom_css": null}, {"id": 11063, "slack_id": "U092FD0DZ7F", "display_name": "Will", "bio": null, "projects_count": 0, "devlogs_count": 0, "votes_count": 0, "ships_count": 0, "projects": [], "coding_time_seconds": 0, "coding_time_seconds_today": 0, "balance": "You need to have a pocket watcher badge to view this.", "badges": [], "created_at": "2025-06-21T15:12:29.055-04:00", "updated_at": "2025-07-03T19:58:23.435-04:00", "avatar": "https://secure.gravatar.com/avatar/343b557dcb20b359a9520af388922e4b.jpg?s=512&d=https%3A%2F%2Fa.slack-edge.com%2Fdf10d%2Fimg%2Favatars%2Fava_0026-512.png", "custom_css": null}, {"id": 11064, "slack_id": "U092AB26U78", "display_name": "Didia Praise Chimeka", "bio": null, "projects_count": 0, "devlogs_count": 0, "votes_count": 0, "ships_count": 0, "projects": [], "coding_time_seconds": 0, "coding_time_seconds_today": 0, "balance": "You need to have a pocket watcher badge to view this.", "badges": [], "created_at": "2025-06-21T15:21:37.816-04:00", "updated_at": "2025-07-05T08:12:43.717-04:00", "avatar": "https://avatars.slack-edge.com/2025-06-21/9069685238791_67a511401c6488660ac2_original.png", "custom_css": null}, {"id": 11065, "slack_id": "U092FA93ZBP", "display_name": "Alexa Curtis", "bio": null, "projects_count": 0, "devlogs_count": 0, "votes_count": 0, "ships_count": 0, "projects": [], "coding_time_seconds": 0, "coding_time_seconds_today": 0, "balance": "You need to have a pocket watcher badge to view this.", "badges": [], "created_at": "2025-06-21T15:23:26.345-04:00", "updated_at": "2025-07-03T19:58:23.845-04:00", "avatar": "https://avatars.slack-edge.com/2025-06-21/9069678928103_cfffdef73105e01f6c38_original.png", "custom_css": null}, {"id": 11066, "slack_id": "U0921KVNK6K", "display_name": "Colton Cox", "bio": null, "projects_count": 0, "devlogs_count": 0, "votes_count": 0, "ships_count": 0, "projects": [], "coding_time_seconds": 0, "coding_time_seconds_today": 0, "balance": "You need to have a pocket watcher badge to view this.", "badges": [], "created_at": "2025-06-21T15:26:08.125-04:00", "updated_at": "2025-07-03T22:01:41.668-04:00", "avatar": "https://secure.gravatar.com/avatar/c6d484bba866d1323d6bb6ee063ea82f.jpg?s=512&d=https%3A%2F%2Fa.slack-edge.com%2Fdf10d%2Fimg%2Favatars%2Fava_0018-512.png", "custom_css": null}, {"id": 11067, "slack_id": "U0929J7AS8K", "display_name": "Kewinur", "bio": null, "projects_count": 0, "devlogs_count": 0, "votes_count": 0, "ships_count": 0, "projects": [], "coding_time_seconds": 903, "coding_time_seconds_today": 0, "balance": "You need to have a pocket watcher badge to view this.", "badges": [], "created_at": "2025-06-21T15:29:26.920-04:00", "updated_at": "2025-07-03T19:58:24.262-04:00", "avatar": "https://secure.gravatar.com/avatar/8a13ec8f0db315e4317e2c45c17d6ea8.jpg?s=512&d=https%3A%2F%2Fa.slack-edge.com%2Fdf10d%2Fimg%2Favatars%2Fava_0009-512.png", "custom_css": null}, {"id": 11068, "slack_id": "U092ABCBEMC", "display_name": "AsderManas", "bio": null, "projects_count": 0, "devlogs_count": 0, "votes_count": 0, "ships_count": 0, "projects": [], "coding_time_seconds": 1107, "coding_time_seconds_today": 0, "balance": "You need to have a pocket watcher badge to view this.", "badges": [], "created_at": "2025-06-21T15:29:32.899-04:00", "updated_at": "2025-07-03T19:58:24.528-04:00", "avatar": "https://secure.gravatar.com/avatar/ca35edbfe872dedfe4fb0100ec296cf7.jpg?s=512&d=https%3A%2F%2Fa.slack-edge.com%2Fdf10d%2Fimg%2Favatars%2Fava_0007-512.png", "custom_css": null}, {"id": 11069, "slack_id": "U0934DFPLUQ", "display_name": "Isu", "bio": null, "projects_count": 0, "devlogs_count": 0, "votes_count": 0, "ships_count": 0, "projects": [], "coding_time_seconds": 0, "coding_time_seconds_today": 0, "balance": "You need to have a pocket watcher badge to view this.", "badges": [], "created_at": "2025-06-21T15:37:34.712-04:00", "updated_at": "2025-07-03T19:58:24.803-04:00", "avatar": "https://secure.gravatar.com/avatar/2432336067515e84fa2aafe350f9534f.jpg?s=512&d=https%3A%2F%2Fa.slack-edge.com%2Fdf10d%2Fimg%2Favatars%2Fava_0023-512.png", "custom_css": null}, {"id": 11070, "slack_id": "U086RRTQA3Z", "display_name": "Hoshino_tls123", "bio": null, "projects_count": 1, "devlogs_count": 1, "votes_count": 20, "ships_count": 1, "projects": [{"id": 6455, "title": "The Angel Next Door Spoils Me Rotten Kawaiiii!", "devlogs_count": 1, "created_at": "2025-07-13T13:28:51.149-04:00"}], "coding_time_seconds": 143996, "coding_time_seconds_today": 0, "balance": "You need to have a pocket watcher badge to view this.", "badges": [{"name": "Maiden Voyage", "text": "you shipped your first project! the journey begins...", "icon": "\ud83d\udea2"}], "created_at": "2025-06-21T15:47:04.990-04:00", "updated_at": "2025-09-10T22:56:42.264-04:00", "avatar": "https://avatars.slack-edge.com/2025-08-25/9396734163619_1169a54c0554d1b116e5_original.jpg", "custom_css": null}, {"id": 11071, "slack_id": "U092V71GD0R", "display_name": "Harish Chandar", "bio": null, "projects_count": 0, "devlogs_count": 0, "votes_count": 0, "ships_count": 0, "projects": [], "coding_time_seconds": 0, "coding_time_seconds_today": 0, "balance": "You need to have a pocket watcher badge to view this.", "badges": [], "created_at": "2025-06-21T15:48:56.373-04:00", "updated_at": "2025-07-03T19:58:25.334-04:00", "avatar": "https://avatars.slack-edge.com/2025-06-21/9106479772144_fb84fb2c987890a23020_original.png", "custom_css": null}, {"id": 11072, "slack_id": "U0921LTL5KR", "display_name": "test", "bio": null, "projects_count": 0, "devlogs_count": 0, "votes_count": 0, "ships_count": 0, "projects": [], "coding_time_seconds": 0, "coding_time_seconds_today": 0, "balance": "You need to have a pocket watcher badge to view this.", "badges": [], "created_at": "2025-06-21T15:52:45.641-04:00", "updated_at": "2025-07-03T19:58:25.599-04:00", "avatar": "https://secure.gravatar.com/avatar/a961e549baa58af5dd03fbbb0edc2675.jpg?s=512&d=https%3A%2F%2Fa.slack-edge.com%2Fdf10d%2Fimg%2Favatars%2Fava_0006-512.png", "custom_css": null}, {"id": 11073, "slack_id": "U092V7FCY8Z", "display_name": "Roni Kazmirci", "bio": null, "projects_count": 0, "devlogs_count": 0, "votes_count": 0, "ships_count": 0, "projects": [], "coding_time_seconds": 0, "coding_time_seconds_today": 0, "balance": "You need to have a pocket watcher badge to view this.", "badges": [], "created_at": "2025-06-21T15:56:42.854-04:00", "updated_at": "2025-07-03T19:58:25.861-04:00", "avatar": "https://secure.gravatar.com/avatar/e034d76bc64a2385a421aa40f0dbe592.jpg?s=512&d=https%3A%2F%2Fa.slack-edge.com%2Fdf10d%2Fimg%2Favatars%2Fava_0016-512.png", "custom_css": null}, {"id": 11074, "slack_id": "U092G9NPB0A", "display_name": "Jouska Brillian", "bio": null, "projects_count": 0, "devlogs_count": 0, "votes_count": 0, "ships_count": 0, "projects": [], "coding_time_seconds": 0, "coding_time_seconds_today": 0, "balance": "You need to have a pocket watcher badge to view this.", "badges": [], "created_at": "2025-06-21T15:56:50.246-04:00", "updated_at": "2025-07-03T19:58:26.135-04:00", "avatar": "https://secure.gravatar.com/avatar/d1c28a37f427c8ff546c3394c7161376.jpg?s=512&d=https%3A%2F%2Fa.slack-edge.com%2Fdf10d%2Fimg%2Favatars%2Fava_0020-512.png", "custom_css": null}, {"id": 11075, "slack_id": "U092ABYKV70", "display_name": "Abdo", "bio": null, "projects_count": 0, "devlogs_count": 0, "votes_count": 0, "ships_count": 0, "projects": [], "coding_time_seconds": 0, "coding_time_seconds_today": 0, "balance": "You need to have a pocket watcher badge to view this.", "badges": [], "created_at": "2025-06-21T15:58:50.622-04:00", "updated_at": "2025-07-05T14:13:50.761-04:00", "avatar": "https://secure.gravatar.com/avatar/769e278575e34976fdbd8e1438ac2ea8.jpg?s=512&d=https%3A%2F%2Fa.slack-edge.com%2Fdf10d%2Fimg%2Favatars%2Fava_0022-512.png", "custom_css": null}, {"id": 11076, "slack_id": "U0934E7U2PJ", "display_name": "Arinji", "bio": null, "projects_count": 6, "devlogs_count": 20, "votes_count": 31, "ships_count": 2, "projects": [{"id": 2872, "title": "Dasa Bot", "devlogs_count": 7, "created_at": "2025-06-22T09:40:06.076-04:00"}, {"id": 2932, "title": "Neovim Config", "devlogs_count": 5, "created_at": "2025-06-22T13:53:33.974-04:00"}, {"id": 4077, "title": "Evani Portfolio", "devlogs_count": 1, "created_at": "2025-06-27T10:21:06.249-04:00"}, {"id": 4329, "title": "Vocab Thing", "devlogs_count": 1, "created_at": "2025-06-29T01:10:08.183-04:00"}, {"id": 4860, "title": "Spotify UI", "devlogs_count": 5, "created_at": "2025-07-02T00:11:44.526-04:00"}, {"id": 4076, "title": "Ahaana Portfolio", "devlogs_count": 1, "created_at": "2025-06-27T09:53:54.124-04:00"}], "coding_time_seconds": 182457, "coding_time_seconds_today": 0, "balance": "You need to have a pocket watcher badge to view this.", "badges": [{"name": "Maiden Voyage", "text": "you shipped your first project! the journey begins...", "icon": "\ud83d\udea2"}], "created_at": "2025-06-21T15:59:57.056-04:00", "updated_at": "2025-09-10T22:56:42.447-04:00", "avatar": "https://secure.gravatar.com/avatar/0532be4339735ed00f6f2597b643ef5d.jpg?s=512&d=https%3A%2F%2Fa.slack-edge.com%2Fdf10d%2Fimg%2Favatars%2Fava_0026-512.png", "custom_css": null}, {"id": 11077, "slack_id": "U092GA0DXLJ", "display_name": "Tianhe Luo", "bio": null, "projects_count": 0, "devlogs_count": 0, "votes_count": 0, "ships_count": 0, "projects": [], "coding_time_seconds": 0, "coding_time_seconds_today": 0, "balance": "You need to have a pocket watcher badge to view this.", "badges": [], "created_at": "2025-06-21T16:05:41.530-04:00", "updated_at": "2025-07-06T20:12:41.168-04:00", "avatar": "https://secure.gravatar.com/avatar/7e5ec686922c0e59ff0d43fd7a11795b.jpg?s=512&d=https%3A%2F%2Fa.slack-edge.com%2Fdf10d%2Fimg%2Favatars%2Fava_0010-512.png", "custom_css": null}, {"id": 11078, "slack_id": "U08QRTADZTJ", "display_name": "Ari H.", "bio": null, "projects_count": 0, "devlogs_count": 0, "votes_count": 0, "ships_count": 0, "projects": [], "coding_time_seconds": 0, "coding_time_seconds_today": 0, "balance": "You need to have a pocket watcher badge to view this.", "badges": [], "created_at": "2025-06-21T16:06:31.613-04:00", "updated_at": "2025-07-30T09:01:26.405-04:00", "avatar": "https://avatars.slack-edge.com/2025-07-29/9269026479795_92bb13aea87cdebf8a78_original.png", "custom_css": null}, {"id": 11079, "slack_id": "U092GGP0D1S", "display_name": "Destiny (Qubzes)", "bio": null, "projects_count": 0, "devlogs_count": 0, "votes_count": 0, "ships_count": 0, "projects": [], "coding_time_seconds": 0, "coding_time_seconds_today": 0, "balance": "You need to have a pocket watcher badge to view this.", "badges": [], "created_at": "2025-06-21T16:07:58.558-04:00", "updated_at": "2025-07-05T14:13:51.040-04:00", "avatar": "https://avatars.slack-edge.com/2025-06-21/9084779524148_274ba496bcad00dd7789_original.jpg", "custom_css": null}, {"id": 11080, "slack_id": "U04K7BXT95X", "display_name": "Nidheesh", "bio": null, "projects_count": 1, "devlogs_count": 0, "votes_count": 0, "ships_count": 0, "projects": [{"id": 6155, "title": "Nidheesh & Rohit Games", "devlogs_count": 0, "created_at": "2025-07-11T00:59:39.849-04:00"}], "coding_time_seconds": 18096, "coding_time_seconds_today": 0, "balance": "You need to have a pocket watcher badge to view this.", "badges": [], "created_at": "2025-06-21T16:11:07.611-04:00", "updated_at": "2025-07-09T17:54:10.185-04:00", "avatar": "https://avatars.slack-edge.com/2025-03-31/8688245620914_4561828f1d55fc23a0e2_original.png", "custom_css": null}], "pagination": {"page": 554, "pages": 1192, "count": 23828, "items": 20}}