{"users": [{"id": 11081, "slack_id": "U08PX9815TQ", "display_name": "hackarina", "bio": null, "projects_count": 0, "devlogs_count": 0, "votes_count": 0, "ships_count": 0, "projects": [], "coding_time_seconds": 61131, "coding_time_seconds_today": 0, "balance": "You need to have a pocket watcher badge to view this.", "badges": [], "created_at": "2025-06-21T16:11:16.209-04:00", "updated_at": "2025-09-15T14:37:08.991-04:00", "avatar": "https://avatars.slack-edge.com/2025-04-30/8819807499398_16652d8efa94eec0ac8a_original.webp", "custom_css": null}, {"id": 11082, "slack_id": "U092FF9QPFX", "display_name": "A Giri", "bio": null, "projects_count": 3, "devlogs_count": 4, "votes_count": 0, "ships_count": 0, "projects": [{"id": 2698, "title": "Making a simple 2D game in OpenGL Python", "devlogs_count": 1, "created_at": "2025-06-21T17:55:51.620-04:00"}, {"id": 2938, "title": "Made a small program to solve a specific problem", "devlogs_count": 1, "created_at": "2025-06-22T14:05:02.437-04:00"}, {"id": 3299, "title": "Current Electricity Simulator", "devlogs_count": 2, "created_at": "2025-06-23T17:47:58.179-04:00"}], "coding_time_seconds": 26690, "coding_time_seconds_today": 0, "balance": "You need to have a pocket watcher badge to view this.", "badges": [], "created_at": "2025-06-21T16:20:57.336-04:00", "updated_at": "2025-07-03T19:58:27.471-04:00", "avatar": "https://secure.gravatar.com/avatar/c348c156e0c960c8eb3ca670657fe070.jpg?s=512&d=https%3A%2F%2Fa.slack-edge.com%2Fdf10d%2Fimg%2Favatars%2Fava_0003-512.png", "custom_css": null}, {"id": 11083, "slack_id": "U092GJD3J6Q", "display_name": "Pramod", "bio": null, "projects_count": 0, "devlogs_count": 0, "votes_count": 0, "ships_count": 0, "projects": [], "coding_time_seconds": 0, "coding_time_seconds_today": 0, "balance": "You need to have a pocket watcher badge to view this.", "badges": [], "created_at": "2025-06-21T16:25:21.586-04:00", "updated_at": "2025-07-03T19:58:27.730-04:00", "avatar": "https://secure.gravatar.com/avatar/78415a691ab9b985e400601a9825e590.jpg?s=512&d=https%3A%2F%2Fa.slack-edge.com%2Fdf10d%2Fimg%2Favatars%2Fava_0024-512.png", "custom_css": null}, {"id": 11084, "slack_id": "U0921N8FJG7", "display_name": "Aakanksha", "bio": null, "projects_count": 0, "devlogs_count": 0, "votes_count": 0, "ships_count": 0, "projects": [], "coding_time_seconds": 0, "coding_time_seconds_today": 0, "balance": "You need to have a pocket watcher badge to view this.", "badges": [], "created_at": "2025-06-21T16:29:29.834-04:00", "updated_at": "2025-07-03T19:58:27.998-04:00", "avatar": "https://secure.gravatar.com/avatar/e29aa422258e0adc924f51458755f4be.jpg?s=512&d=https%3A%2F%2Fa.slack-edge.com%2Fdf10d%2Fimg%2Favatars%2Fava_0026-512.png", "custom_css": null}, {"id": 11085, "slack_id": "U092V924V8R", "display_name": "Marc Sutthaloung", "bio": null, "projects_count": 0, "devlogs_count": 0, "votes_count": 0, "ships_count": 0, "projects": [], "coding_time_seconds": 0, "coding_time_seconds_today": 0, "balance": "You need to have a pocket watcher badge to view this.", "badges": [], "created_at": "2025-06-21T16:32:17.436-04:00", "updated_at": "2025-07-03T22:01:42.885-04:00", "avatar": "https://avatars.slack-edge.com/2025-06-21/9083539402981_318bd0db256a6e2fa97d_original.jpg", "custom_css": null}, {"id": 11086, "slack_id": "U0929LL36RZ", "display_name": "Jack Crowley", "bio": null, "projects_count": 0, "devlogs_count": 0, "votes_count": 0, "ships_count": 0, "projects": [], "coding_time_seconds": 0, "coding_time_seconds_today": 0, "balance": "You need to have a pocket watcher badge to view this.", "badges": [], "created_at": "2025-06-21T16:33:43.923-04:00", "updated_at": "2025-07-03T19:58:28.402-04:00", "avatar": "https://avatars.slack-edge.com/2025-06-21/9078487406230_03a4e50f644d60411e20_original.png", "custom_css": null}, {"id": 11087, "slack_id": "U092AE4QG7Q", "display_name": "patogp", "bio": null, "projects_count": 0, "devlogs_count": 0, "votes_count": 0, "ships_count": 0, "projects": [], "coding_time_seconds": 0, "coding_time_seconds_today": 0, "balance": "You need to have a pocket watcher badge to view this.", "badges": [], "created_at": "2025-06-21T16:36:24.090-04:00", "updated_at": "2025-07-03T19:58:28.658-04:00", "avatar": "https://secure.gravatar.com/avatar/5bba04cd77980c5c0db52f6d660124e5.jpg?s=512&d=https%3A%2F%2Fa.slack-edge.com%2Fdf10d%2Fimg%2Favatars%2Fava_0014-512.png", "custom_css": null}, {"id": 11088, "slack_id": "U08HE8KST8T", "display_name": "Alexander", "bio": null, "projects_count": 1, "devlogs_count": 1, "votes_count": 0, "ships_count": 0, "projects": [{"id": 3482, "title": "Guess the Fruit!", "devlogs_count": 1, "created_at": "2025-06-24T12:15:30.000-04:00"}], "coding_time_seconds": 7255, "coding_time_seconds_today": 0, "balance": "You need to have a pocket watcher badge to view this.", "badges": [], "created_at": "2025-06-21T16:36:53.404-04:00", "updated_at": "2025-08-14T13:41:08.024-04:00", "avatar": "https://secure.gravatar.com/avatar/5f2e633674213efa93828da8fd244ccb.jpg?s=512&d=https%3A%2F%2Fa.slack-edge.com%2Fdf10d%2Fimg%2Favatars%2Fava_0022-512.png", "custom_css": null}, {"id": 11089, "slack_id": "U08TJ79P0G4", "display_name": "DuckyBoi_XD", "bio": null, "projects_count": 7, "devlogs_count": 91, "votes_count": 79, "ships_count": 4, "projects": [{"id": 2777, "title": "DuckyDK MTR v1", "devlogs_count": 13, "created_at": "2025-06-22T03:47:04.467-04:00"}, {"id": 8318, "title": "Python Gamble Game", "devlogs_count": 0, "created_at": "2025-07-26T07:04:53.122-04:00"}, {"id": 8766, "title": "BlackDuck", "devlogs_count": 17, "created_at": "2025-07-29T06:51:51.699-04:00"}, {"id": 11911, "title": "Poker Over SSH Website", "devlogs_count": 20, "created_at": "2025-08-21T02:03:44.685-04:00"}, {"id": 12577, "title": "Ride The Duck", "devlogs_count": 28, "created_at": "2025-08-30T02:50:43.506-04:00"}, {"id": 10700, "title": "DuckDuckWeb(site)", "devlogs_count": 1, "created_at": "2025-08-09T20:33:13.372-04:00"}, {"id": 5546, "title": "Learning Python + Gamble game", "devlogs_count": 12, "created_at": "2025-07-06T04:20:55.392-04:00"}], "coding_time_seconds": 592646, "coding_time_seconds_today": 3954, "balance": "You need to have a pocket watcher badge to view this.", "badges": [{"name": "Maiden Voyage", "text": "you shipped your first project! the journey begins...", "icon": "\ud83d\udea2"}], "created_at": "2025-06-21T16:38:18.248-04:00", "updated_at": "2025-09-10T22:56:42.887-04:00", "avatar": "https://avatars.slack-edge.com/2025-05-22/8927940217270_1c584bedad6f5113d4dc_original.png", "custom_css": null}, {"id": 11090, "slack_id": "U0927PDQ3EW", "display_name": "Kingjon125", "bio": null, "projects_count": 0, "devlogs_count": 0, "votes_count": 0, "ships_count": 0, "projects": [], "coding_time_seconds": 0, "coding_time_seconds_today": 0, "balance": "You need to have a pocket watcher badge to view this.", "badges": [], "created_at": "2025-06-21T16:38:29.661-04:00", "updated_at": "2025-07-05T02:12:22.927-04:00", "avatar": "https://secure.gravatar.com/avatar/6907abbc4d6fe36b819ddbc80cd7a4cd.jpg?s=512&d=https%3A%2F%2Fa.slack-edge.com%2Fdf10d%2Fimg%2Favatars%2Fava_0002-512.png", "custom_css": null}, {"id": 11091, "slack_id": "U092AEBV746", "display_name": "Petar Mihov", "bio": null, "projects_count": 0, "devlogs_count": 0, "votes_count": 0, "ships_count": 0, "projects": [], "coding_time_seconds": 2119, "coding_time_seconds_today": 0, "balance": "You need to have a pocket watcher badge to view this.", "badges": [], "created_at": "2025-06-21T16:39:51.544-04:00", "updated_at": "2025-07-03T19:58:29.457-04:00", "avatar": "https://avatars.slack-edge.com/2025-06-21/9084819997892_d1a20ca97f4979cab55f_original.png", "custom_css": null}, {"id": 11092, "slack_id": "U092ADV7GH4", "display_name": "aggiczy", "bio": null, "projects_count": 3, "devlogs_count": 3, "votes_count": 3, "ships_count": 0, "projects": [{"id": 2803, "title": "Snake", "devlogs_count": 0, "created_at": "2025-06-22T05:35:57.858-04:00"}, {"id": 5795, "title": "Analog Clock", "devlogs_count": 0, "created_at": "2025-07-08T03:32:41.851-04:00"}, {"id": 3573, "title": "M\u00c1V log", "devlogs_count": 3, "created_at": "2025-06-24T18:49:42.279-04:00"}], "coding_time_seconds": 237185, "coding_time_seconds_today": 0, "balance": "You need to have a pocket watcher badge to view this.", "badges": [], "created_at": "2025-06-21T16:40:18.208-04:00", "updated_at": "2025-07-03T19:58:29.716-04:00", "avatar": "https://secure.gravatar.com/avatar/dd943a84f63c67be65eec2eb6d798e14.jpg?s=512&d=https%3A%2F%2Fa.slack-edge.com%2Fdf10d%2Fimg%2Favatars%2Fava_0026-512.png", "custom_css": null}, {"id": 11093, "slack_id": "U092AERSJHL", "display_name": "Svetlin Ivanov", "bio": null, "projects_count": 0, "devlogs_count": 0, "votes_count": 0, "ships_count": 0, "projects": [], "coding_time_seconds": 0, "coding_time_seconds_today": 0, "balance": "You need to have a pocket watcher badge to view this.", "badges": [], "created_at": "2025-06-21T16:49:47.233-04:00", "updated_at": "2025-07-03T19:58:29.994-04:00", "avatar": "https://secure.gravatar.com/avatar/0cf591b0406abfaef3f4d0fa8fdbf49d.jpg?s=512&d=https%3A%2F%2Fa.slack-edge.com%2Fdf10d%2Fimg%2Favatars%2Fava_0015-512.png", "custom_css": null}, {"id": 11094, "slack_id": "U092GQ5EM8C", "display_name": "Owen", "bio": null, "projects_count": 0, "devlogs_count": 0, "votes_count": 0, "ships_count": 0, "projects": [], "coding_time_seconds": 3092, "coding_time_seconds_today": 0, "balance": "You need to have a pocket watcher badge to view this.", "badges": [], "created_at": "2025-06-21T16:52:22.394-04:00", "updated_at": "2025-08-03T20:50:32.089-04:00", "avatar": "https://secure.gravatar.com/avatar/425ef4214f51dd06a733d3f68c670946.jpg?s=512&d=https%3A%2F%2Fa.slack-edge.com%2Fdf10d%2Fimg%2Favatars%2Fava_0025-512.png", "custom_css": null}, {"id": 11095, "slack_id": "U092V9U7QCR", "display_name": "Leonela", "bio": null, "projects_count": 0, "devlogs_count": 0, "votes_count": 0, "ships_count": 0, "projects": [], "coding_time_seconds": 0, "coding_time_seconds_today": 0, "balance": "You need to have a pocket watcher badge to view this.", "badges": [], "created_at": "2025-06-21T16:53:18.178-04:00", "updated_at": "2025-07-23T20:58:29.658-04:00", "avatar": "https://avatars.slack-edge.com/2025-07-23/9245692459314_ecb2eafd4612d2aa3878_original.jpg", "custom_css": null}, {"id": 11096, "slack_id": "U092V9UFV5X", "display_name": "umar", "bio": null, "projects_count": 0, "devlogs_count": 0, "votes_count": 0, "ships_count": 0, "projects": [], "coding_time_seconds": 0, "coding_time_seconds_today": 0, "balance": "You need to have a pocket watcher badge to view this.", "badges": [], "created_at": "2025-06-21T16:55:59.070-04:00", "updated_at": "2025-07-04T08:27:17.554-04:00", "avatar": "https://secure.gravatar.com/avatar/e7979d5e39944622eb5bec26dc1a8978.jpg?s=512&d=https%3A%2F%2Fa.slack-edge.com%2Fdf10d%2Fimg%2Favatars%2Fava_0011-512.png", "custom_css": null}, {"id": 11097, "slack_id": "U092GQJMTFE", "display_name": "Aditya Narayan", "bio": null, "projects_count": 0, "devlogs_count": 0, "votes_count": 0, "ships_count": 0, "projects": [], "coding_time_seconds": 0, "coding_time_seconds_today": 0, "balance": "You need to have a pocket watcher badge to view this.", "badges": [], "created_at": "2025-06-21T16:57:37.670-04:00", "updated_at": "2025-07-04T02:31:01.753-04:00", "avatar": "https://secure.gravatar.com/avatar/d623d398f813e6e962944fd49e5fdf14.jpg?s=512&d=https%3A%2F%2Fa.slack-edge.com%2Fdf10d%2Fimg%2Favatars%2Fava_0023-512.png", "custom_css": null}, {"id": 11098, "slack_id": "U080ZU8RJ1Y", "display_name": "DinoNuggies45", "bio": null, "projects_count": 0, "devlogs_count": 0, "votes_count": 0, "ships_count": 0, "projects": [], "coding_time_seconds": 479821, "coding_time_seconds_today": 0, "balance": "You need to have a pocket watcher badge to view this.", "badges": [], "created_at": "2025-06-21T16:58:10.674-04:00", "updated_at": "2025-08-05T00:40:23.085-04:00", "avatar": "https://avatars.slack-edge.com/2024-11-18/8047027803906_4422e5160f1736e16087_original.png", "custom_css": null}, {"id": 11099, "slack_id": "U092FGNHD29", "display_name": "Hari", "bio": null, "projects_count": 0, "devlogs_count": 0, "votes_count": 0, "ships_count": 0, "projects": [], "coding_time_seconds": 0, "coding_time_seconds_today": 0, "balance": "You need to have a pocket watcher badge to view this.", "badges": [], "created_at": "2025-06-21T17:01:39.091-04:00", "updated_at": "2025-07-03T19:58:31.275-04:00", "avatar": "https://secure.gravatar.com/avatar/e8247e87d3e80c7680cfb1f3ece1b1f0.jpg?s=512&d=https%3A%2F%2Fa.slack-edge.com%2Fdf10d%2Fimg%2Favatars%2Fava_0020-512.png", "custom_css": null}, {"id": 11100, "slack_id": "U092VA9DJ3B", "display_name": "Faizan Shaikh", "bio": null, "projects_count": 0, "devlogs_count": 0, "votes_count": 0, "ships_count": 0, "projects": [], "coding_time_seconds": 0, "coding_time_seconds_today": 0, "balance": "You need to have a pocket watcher badge to view this.", "badges": [], "created_at": "2025-06-21T17:02:49.997-04:00", "updated_at": "2025-07-03T19:58:31.560-04:00", "avatar": "https://secure.gravatar.com/avatar/9ab4f731d807ffb0670f37e018a7e886.jpg?s=512&d=https%3A%2F%2Fa.slack-edge.com%2Fdf10d%2Fimg%2Favatars%2Fava_0006-512.png", "custom_css": null}], "pagination": {"page": 555, "pages": 1192, "count": 23828, "items": 20}}