{"users": [{"id": 11101, "slack_id": "U07TNNM03E1", "display_name": "Corene", "bio": null, "projects_count": 0, "devlogs_count": 0, "votes_count": 0, "ships_count": 0, "projects": [], "coding_time_seconds": 0, "coding_time_seconds_today": 0, "balance": "You need to have a pocket watcher badge to view this.", "badges": [], "created_at": "2025-06-21T17:03:16.332-04:00", "updated_at": "2025-07-03T19:58:31.816-04:00", "avatar": "https://secure.gravatar.com/avatar/31cf9988ad00a8d9877db9db78226671.jpg?s=512&d=https%3A%2F%2Fa.slack-edge.com%2Fdf10d%2Fimg%2Favatars%2Fava_0021-512.png", "custom_css": null}, {"id": 11102, "slack_id": "U0921PPT3AB", "display_name": "simarjs", "bio": null, "projects_count": 0, "devlogs_count": 0, "votes_count": 0, "ships_count": 0, "projects": [], "coding_time_seconds": 12378, "coding_time_seconds_today": 0, "balance": "You need to have a pocket watcher badge to view this.", "badges": [], "created_at": "2025-06-21T17:08:09.799-04:00", "updated_at": "2025-07-03T19:58:32.080-04:00", "avatar": "https://secure.gravatar.com/avatar/215c97d82beb7f766cda3a5e0c175219.jpg?s=512&d=https%3A%2F%2Fa.slack-edge.com%2Fdf10d%2Fimg%2Favatars%2Fava_0003-512.png", "custom_css": null}, {"id": 11103, "slack_id": "U0934GWT52L", "display_name": "Lucas Lu", "bio": null, "projects_count": 0, "devlogs_count": 0, "votes_count": 0, "ships_count": 0, "projects": [], "coding_time_seconds": 626, "coding_time_seconds_today": 0, "balance": "You need to have a pocket watcher badge to view this.", "badges": [], "created_at": "2025-06-21T17:15:39.399-04:00", "updated_at": "2025-07-03T19:58:32.343-04:00", "avatar": "https://secure.gravatar.com/avatar/c16eb6d87677561ef99569023c144398.jpg?s=512&d=https%3A%2F%2Fa.slack-edge.com%2Fdf10d%2Fimg%2Favatars%2Fava_0012-512.png", "custom_css": null}, {"id": 11104, "slack_id": "U092GCEJD4J", "display_name": "NotchArrow", "bio": null, "projects_count": 0, "devlogs_count": 0, "votes_count": 0, "ships_count": 0, "projects": [], "coding_time_seconds": 121, "coding_time_seconds_today": 0, "balance": "You need to have a pocket watcher badge to view this.", "badges": [], "created_at": "2025-06-21T17:16:03.133-04:00", "updated_at": "2025-07-03T19:58:32.613-04:00", "avatar": "https://secure.gravatar.com/avatar/dcbb6d732ce0eecd13d521d68b229830.jpg?s=512&d=https%3A%2F%2Fa.slack-edge.com%2Fdf10d%2Fimg%2Favatars%2Fava_0023-512.png", "custom_css": null}, {"id": 11105, "slack_id": "U092GCGH9QA", "display_name": "Josephine Bauchan", "bio": null, "projects_count": 1, "devlogs_count": 1, "votes_count": 0, "ships_count": 0, "projects": [{"id": 2693, "title": "Peters website", "devlogs_count": 1, "created_at": "2025-06-21T17:31:22.855-04:00"}], "coding_time_seconds": 1759, "coding_time_seconds_today": 0, "balance": "You need to have a pocket watcher badge to view this.", "badges": [], "created_at": "2025-06-21T17:16:55.103-04:00", "updated_at": "2025-07-03T19:58:32.874-04:00", "avatar": "https://secure.gravatar.com/avatar/cc6e22323e413d41212ca567d671e9b8.jpg?s=512&d=https%3A%2F%2Fa.slack-edge.com%2Fdf10d%2Fimg%2Favatars%2Fava_0009-512.png", "custom_css": null}, {"id": 11106, "slack_id": "U092FHLK3N1", "display_name": "Noel Eisele", "bio": null, "projects_count": 1, "devlogs_count": 3, "votes_count": 0, "ships_count": 0, "projects": [{"id": 3170, "title": "SuperTux3d", "devlogs_count": 3, "created_at": "2025-06-23T10:12:50.520-04:00"}], "coding_time_seconds": 58259, "coding_time_seconds_today": 0, "balance": "You need to have a pocket watcher badge to view this.", "badges": [], "created_at": "2025-06-21T17:30:13.756-04:00", "updated_at": "2025-07-04T20:11:49.251-04:00", "avatar": "https://secure.gravatar.com/avatar/b5635c7d895e9010bbcd2a3e74a9d8db.jpg?s=512&d=https%3A%2F%2Fa.slack-edge.com%2Fdf10d%2Fimg%2Favatars%2Fava_0021-512.png", "custom_css": null}, {"id": 11107, "slack_id": "U0934HJCR5E", "display_name": "leo", "bio": null, "projects_count": 0, "devlogs_count": 0, "votes_count": 0, "ships_count": 0, "projects": [], "coding_time_seconds": 2656, "coding_time_seconds_today": 0, "balance": "You need to have a pocket watcher badge to view this.", "badges": [], "created_at": "2025-06-21T17:33:57.201-04:00", "updated_at": "2025-07-03T19:58:33.272-04:00", "avatar": "https://secure.gravatar.com/avatar/ede218a6c321b395b9949738285e4259.jpg?s=512&d=https%3A%2F%2Fa.slack-edge.com%2Fdf10d%2Fimg%2Favatars%2Fava_0023-512.png", "custom_css": null}, {"id": 11108, "slack_id": "U092FHPPBSR", "display_name": "dakicodeur", "bio": null, "projects_count": 0, "devlogs_count": 0, "votes_count": 0, "ships_count": 0, "projects": [], "coding_time_seconds": 0, "coding_time_seconds_today": 0, "balance": "You need to have a pocket watcher badge to view this.", "badges": [], "created_at": "2025-06-21T17:34:45.153-04:00", "updated_at": "2025-07-04T02:31:02.552-04:00", "avatar": "https://secure.gravatar.com/avatar/bfd49c70febd6a7fcf571ee6e666c9e5.jpg?s=512&d=https%3A%2F%2Fa.slack-edge.com%2Fdf10d%2Fimg%2Favatars%2Fava_0001-512.png", "custom_css": null}, {"id": 11109, "slack_id": "U0934HPF2SU", "display_name": "Mohammad Abbas", "bio": null, "projects_count": 0, "devlogs_count": 0, "votes_count": 0, "ships_count": 0, "projects": [], "coding_time_seconds": 711, "coding_time_seconds_today": 0, "balance": "You need to have a pocket watcher badge to view this.", "badges": [], "created_at": "2025-06-21T17:38:34.805-04:00", "updated_at": "2025-07-03T19:58:33.665-04:00", "avatar": "https://avatars.slack-edge.com/2025-06-21/9084446222994_e39151b6ad4c21f8da7c_original.jpg", "custom_css": null}, {"id": 11110, "slack_id": "U080KSRBUBB", "display_name": "Jack Fickes", "bio": null, "projects_count": 2, "devlogs_count": 3, "votes_count": 3, "ships_count": 1, "projects": [{"id": 5381, "title": "Notepad", "devlogs_count": 2, "created_at": "2025-07-04T23:37:01.376-04:00"}, {"id": 3038, "title": "Pirate Game", "devlogs_count": 1, "created_at": "2025-06-22T22:00:42.510-04:00"}], "coding_time_seconds": 25769, "coding_time_seconds_today": 0, "balance": "You need to have a pocket watcher badge to view this.", "badges": [{"name": "Maiden Voyage", "text": "you shipped your first project! the journey begins...", "icon": "\ud83d\udea2"}], "created_at": "2025-06-21T17:39:53.957-04:00", "updated_at": "2025-09-10T22:56:43.627-04:00", "avatar": "https://secure.gravatar.com/avatar/f63517e2c474a97acaac5603fbfbc37c.jpg?s=512&d=https%3A%2F%2Fa.slack-edge.com%2Fdf10d%2Fimg%2Favatars%2Fava_0004-512.png", "custom_css": null}, {"id": 11111, "slack_id": "U092GSBRUG4", "display_name": "Albert Fortuna", "bio": null, "projects_count": 0, "devlogs_count": 0, "votes_count": 0, "ships_count": 0, "projects": [], "coding_time_seconds": 0, "coding_time_seconds_today": 0, "balance": "You need to have a pocket watcher badge to view this.", "badges": [], "created_at": "2025-06-21T17:45:30.059-04:00", "updated_at": "2025-07-03T19:58:34.249-04:00", "avatar": "https://avatars.slack-edge.com/2025-06-21/9084902453204_6da82625ac8cd16b62fc_original.png", "custom_css": null}, {"id": 11112, "slack_id": "U092AGWHMD4", "display_name": "Subhan", "bio": null, "projects_count": 0, "devlogs_count": 0, "votes_count": 0, "ships_count": 0, "projects": [], "coding_time_seconds": 0, "coding_time_seconds_today": 0, "balance": "You need to have a pocket watcher badge to view this.", "badges": [], "created_at": "2025-06-21T17:45:40.475-04:00", "updated_at": "2025-07-03T19:58:34.527-04:00", "avatar": "https://secure.gravatar.com/avatar/e68368dadf4c77b5fe2c44de7685fb22.jpg?s=512&d=https%3A%2F%2Fa.slack-edge.com%2Fdf10d%2Fimg%2Favatars%2Fava_0019-512.png", "custom_css": null}, {"id": 11113, "slack_id": "U092GS9FKHS", "display_name": "Shreyan Bollisetty", "bio": null, "projects_count": 2, "devlogs_count": 3, "votes_count": 0, "ships_count": 0, "projects": [{"id": 3274, "title": "arcaea best 30 checker web", "devlogs_count": 2, "created_at": "2025-06-23T16:19:27.908-04:00"}, {"id": 5828, "title": "isometric tower defence game", "devlogs_count": 1, "created_at": "2025-07-08T09:49:28.164-04:00"}], "coding_time_seconds": 48340, "coding_time_seconds_today": 0, "balance": "You need to have a pocket watcher badge to view this.", "badges": [], "created_at": "2025-06-21T17:46:08.610-04:00", "updated_at": "2025-07-07T15:03:31.438-04:00", "avatar": "https://avatars.slack-edge.com/2025-06-21/9084903404324_d489e94968cdfe5e99db_original.jpg", "custom_css": null}, {"id": 11114, "slack_id": "U0934J6JTA4", "display_name": "joel", "bio": null, "projects_count": 0, "devlogs_count": 0, "votes_count": 0, "ships_count": 0, "projects": [], "coding_time_seconds": 0, "coding_time_seconds_today": 0, "balance": "You need to have a pocket watcher badge to view this.", "badges": [], "created_at": "2025-06-21T17:51:37.469-04:00", "updated_at": "2025-07-03T19:58:35.066-04:00", "avatar": "https://secure.gravatar.com/avatar/3b9f39332df3371decaaae04adb46769.jpg?s=512&d=https%3A%2F%2Fa.slack-edge.com%2Fdf10d%2Fimg%2Favatars%2Fava_0011-512.png", "custom_css": null}, {"id": 11115, "slack_id": "U080ZG49VJ5", "display_name": "Ras_rap", "bio": "", "projects_count": 10, "devlogs_count": 30, "votes_count": 41, "ships_count": 3, "projects": [{"id": 3241, "title": "Universal Configuration Language", "devlogs_count": 3, "created_at": "2025-06-23T14:40:37.851-04:00"}, {"id": 5362, "title": "Minecraft Magic", "devlogs_count": 1, "created_at": "2025-07-04T18:17:21.676-04:00"}, {"id": 9120, "title": "Kraken event", "devlogs_count": 0, "created_at": "2025-07-30T16:50:49.764-04:00"}, {"id": 9121, "title": "Kraken event", "devlogs_count": 2, "created_at": "2025-07-30T16:50:49.766-04:00"}, {"id": 10131, "title": "SD Tools", "devlogs_count": 1, "created_at": "2025-08-04T08:16:00.408-04:00"}, {"id": 10490, "title": "Ras Games", "devlogs_count": 1, "created_at": "2025-08-07T13:31:19.797-04:00"}, {"id": 10613, "title": "Private Equity Marker", "devlogs_count": 10, "created_at": "2025-08-09T00:08:49.368-04:00"}, {"id": 13119, "title": "Pair O' Dice", "devlogs_count": 1, "created_at": "2025-09-09T00:52:52.799-04:00"}, {"id": 9908, "title": "Portfolio", "devlogs_count": 3, "created_at": "2025-08-02T20:25:28.519-04:00"}, {"id": 3625, "title": "OpenPlace", "devlogs_count": 8, "created_at": "2025-06-25T02:13:59.608-04:00"}], "coding_time_seconds": 233247, "coding_time_seconds_today": 0, "balance": "You need to have a pocket watcher badge to view this.", "badges": [{"name": "Maiden Voyage", "text": "you shipped your first project! the journey begins...", "icon": "\ud83d\udea2"}, {"name": "Graphic Design is My Passion", "text": "Oh God How Did This Get Here I Am Not Good With Computer", "icon": "\ud83c\udfa8"}, {"name": "Spider", "text": "this user has a pet!", "icon": "\ud83d\udd77\ufe0f"}], "created_at": "2025-06-21T18:05:40.377-04:00", "updated_at": "2025-09-10T22:56:43.777-04:00", "avatar": "https://avatars.slack-edge.com/2025-08-08/9324998165490_e4d3194c8940800a95fe_original.png", "custom_css": "body {\r\n  min-height: 100vh;\r\n  background: linear-gradient(135deg,#ff6b6b,#f7d716,#4ecdc4,#5f27cd,#ff6b6b);\r\n  background-size: 400% 400%;\r\n  animation: bgmove 8s linear infinite, bodyhue 3s linear infinite;\r\n  font-family: 'Comic Sans MS', cursive, sans-serif;\r\n  overflow-x: hidden;\r\n}\r\n@keyframes bgmove {\r\n  0%{background-position:0% 50%;}\r\n  100%{background-position:100% 50%;}\r\n}\r\n@keyframes bodyhue {\r\n  0%{filter:hue-rotate(0deg);}\r\n  100%{filter:hue-rotate(360deg);}\r\n}\r\n.container,.profile-container {\r\n  border:8px dashed;\r\n  border-image: repeating-linear-gradient(90deg,#ff6b6b 0 10px,#f7d716 10px 20px,#4ecdc4 20px 30px,#5f27cd 30px 40px) 8;\r\n  border-radius:32px;\r\n  box-shadow:0 0 40px 10px #fff7,0 0 0 8px #0002 inset;\r\n  animation: borderwob 1.5s infinite linear;\r\n}\r\n@keyframes borderwob {\r\n  0%,100%{border-radius:32px;}\r\n  50%{border-radius:64px 16px 64px 16px;}\r\n}\r\n.profile-header {\r\n  text-align:center;\r\n  padding:2rem 0 1rem 0;\r\n  background:linear-gradient(90deg,#f7d716,#ff6b6b,#4ecdc4,#5f27cd);\r\n  background-size:200% 100%;\r\n  animation: headrain 3s linear infinite, headskew 1.2s infinite alternate;\r\n  border-radius:0 0 48px 48px;\r\n  box-shadow:0 8px 32px #0003;\r\n  position:relative;\r\n}\r\n@keyframes headrain {\r\n  0%{background-position:0% 50%;}\r\n  100%{background-position:100% 50%;}\r\n}\r\n@keyframes headskew {\r\n  0%{transform:skewX(0deg);}\r\n  100%{transform:skewX(10deg);}\r\n}\r\n.profile-header::after {\r\n  content:'\u2728';\r\n  position:absolute;right:10px;top:10px;font-size:2em;animation:sparkle 1s infinite alternate;\r\n}\r\n@keyframes sparkle {\r\n  0%{opacity:.3;transform:scale(1);}\r\n  100%{opacity:1;transform:scale(1.5);}\r\n}\r\n.profile-avatar {\r\n  width:120px;height:120px;border-radius:50%;\r\n  border:6px solid #fff;box-shadow:0 0 0 8px #f7d716,0 0 32px 8px #4ecdc4;\r\n  animation: avaspin 2s linear infinite, avabounce 1.2s ease-in-out infinite, avahue 3s linear infinite;\r\n  display:block;margin:0 auto 1rem auto;object-fit:cover;\r\n}\r\n@keyframes avaspin {\r\n  0%{transform:rotate(0deg);}\r\n  100%{transform:rotate(360deg);}\r\n}\r\n@keyframes avabounce {\r\n  0%,100%{transform:translateY(0);}\r\n  50%{transform:translateY(-18px) scale(1.1);}\r\n}\r\n@keyframes avahue {\r\n  0%{filter:hue-rotate(0deg);}\r\n  100%{filter:hue-rotate(360deg);}\r\n}\r\n.profile-name {\r\n  font-size:2.2rem;font-weight:bold;color:#fff;\r\n  text-shadow:0 0 8px #5f27cd,0 2px 8px #0008;\r\n  animation: namewob 1.1s infinite alternate, namerain 2s linear infinite;\r\n  letter-spacing:.1em;\r\n}\r\n@keyframes namewob {\r\n  0%{transform:skewX(0deg);}\r\n  25%{transform:skewX(8deg);}\r\n  50%{transform:skewX(-8deg);}\r\n  75%{transform:skewX(4deg);}\r\n  100%{transform:skewX(0deg);}\r\n}\r\n@keyframes namerain {\r\n  0%{filter:hue-rotate(0deg);}\r\n  100%{filter:hue-rotate(360deg);}\r\n}\r\n.profile-bio {\r\n  font-size:1.1rem;\r\n  background:linear-gradient(90deg,#f7d716,#4ecdc4,#ff6b6b,#5f27cd);\r\n  background-size:300% 100%;\r\n  -webkit-background-clip:text;\r\n  -webkit-text-fill-color:transparent;\r\n  animation: biocolor 3s linear infinite, biotype 3s steps(40) 1s 1 normal both, bioshake 1.2s infinite alternate;\r\n  border-radius:16px;padding:.5em 1em;margin:1em auto;max-width:500px;\r\n  box-shadow:0 2px 16px #4ecdc488;border:2px solid #fff4;position:relative;\r\n}\r\n@keyframes biocolor {\r\n  0%{background-position:0% 50%;}\r\n  100%{background-position:100% 50%;}\r\n}\r\n@keyframes biotype {\r\n  from{width:0;}\r\n  to{width:100%;}\r\n}\r\n@keyframes bioshake {\r\n  0%,100%{transform:rotate(-2deg);}\r\n  50%{transform:rotate(2deg);}\r\n}\r\n.profile-bio::after {\r\n  content:'\ud83d\udca5';\r\n  position:absolute;right:8px;top:8px;font-size:1.2em;animation:sparkle 1s infinite alternate;\r\n}\r\n.profile-stats {\r\n  display:flex;justify-content:center;gap:2rem;margin:2rem 0;flex-wrap:wrap;\r\n}\r\n.profile-stat {\r\n  background:linear-gradient(135deg,#ff6b6b,#f7d716,#4ecdc4,#5f27cd);\r\n  background-size:200% 200%;\r\n  animation: statbg 2s ease-in-out infinite alternate, statfloat 2.2s ease-in-out infinite, statspin 3s linear infinite;\r\n  color:#fff;font-size:1.2rem;font-weight:bold;border-radius:24px;\r\n  box-shadow:0 4px 24px #0004,0 0 0 4px #fff8 inset;\r\n  padding:1.2em 2em;border:3px solid #fff;position:relative;transition:transform .2s;cursor:pointer;\r\n}\r\n.profile-stat:hover {\r\n  transform:scale(1.15) rotate(-6deg);\r\n  box-shadow:0 8px 32px #f7d71688,0 0 0 8px #4ecdc4 inset;\r\n}\r\n@keyframes statbg {\r\n  0%{background-position:0% 0%;}\r\n  100%{background-position:100% 100%;}\r\n}\r\n@keyframes statfloat {\r\n  0%,100%{top:0;}\r\n  50%{top:-18px;}\r\n}\r\n@keyframes statspin {\r\n  0%{filter:hue-rotate(0deg);}\r\n  100%{filter:hue-rotate(360deg);}\r\n}\r\nh1,h2,h3,h4,h5,h6 {\r\n  color:#2c3e50;\r\n  font-family:'Comic Sans MS',cursive,sans-serif;\r\n  text-shadow:2px 2px 0 #f7d716,4px 4px 0 #4ecdc4,6px 6px 0 #ff6b6b,8px 8px 0 #5f27cd;\r\n  animation: headshadow 1.2s infinite alternate, headshake 1.5s infinite alternate;\r\n}\r\n@keyframes headshadow {\r\n  0%{text-shadow:2px 2px 0 #f7d716,4px 4px 0 #4ecdc4,6px 6px 0 #ff6b6b,8px 8px 0 #5f27cd;}\r\n  50%{text-shadow:4px 4px 0 #ff6b6b,2px 2px 0 #5f27cd,8px 8px 0 #f7d716,6px 6px 0 #4ecdc4;}\r\n  100%{text-shadow:2px 2px 0 #f7d716,4px 4px 0 #4ecdc4,6px 6px 0 #ff6b6b,8px 8px 0 #5f27cd;}\r\n}\r\n@keyframes headshake {\r\n  0%,100%{transform:skewX(0deg) scale(1);}\r\n  50%{transform:skewX(10deg) scale(1.1);}\r\n}\r\nbutton,.btn {\r\n  background:linear-gradient(90deg,#ff6b6b,#f7d716,#4ecdc4,#5f27cd);\r\n  background-size:200% 100%;\r\n  color:#fff;font-size:1.1rem;font-weight:bold;border:none;\r\n  border-radius:16px;padding:.7em 2em;\r\n  box-shadow:0 2px 16px #5f27cd88,0 0 0 4px #fff8 inset;\r\n  cursor:pointer;\r\n  animation: btnglow 1.5s infinite alternate, btnbgmove 2s linear infinite, btnspin 2.5s linear infinite;\r\n  transition:transform .2s;\r\n}\r\nbutton:hover,.btn:hover {\r\n  transform:scale(1.12) rotate(2deg);\r\n  box-shadow:0 8px 32px #f7d71688,0 0 0 8px #4ecdc4 inset;\r\n  animation: btnjelly .4s, btnspin 1s linear infinite;\r\n}\r\n@keyframes btnglow {\r\n  0%{box-shadow:0 2px 16px #5f27cd88,0 0 0 4px #fff8 inset;}\r\n  100%{box-shadow:0 8px 32px #f7d71688,0 0 0 8px #4ecdc4 inset;}\r\n}\r\n@keyframes btnbgmove {\r\n  0%{background-position:0% 50%;}\r\n  100%{background-position:100% 50%;}\r\n}\r\n@keyframes btnspin {\r\n  0%{filter:hue-rotate(0deg);}\r\n  100%{filter:hue-rotate(360deg);}\r\n}\r\n@keyframes btnjelly {\r\n  0%{transform:scale(1,1);}\r\n  30%{transform:scale(1.25,.75);}\r\n  40%{transform:scale(.75,1.25);}\r\n  50%{transform:scale(1.15,.85);}\r\n  65%{transform:scale(.95,1.05);}\r\n  75%{transform:scale(1.05,.95);}\r\n  100%{transform:scale(1,1);}\r\n}\r\n::-webkit-scrollbar {\r\n  width:14px;background:#4ecdc4;\r\n}\r\n::-webkit-scrollbar-thumb {\r\n  background:linear-gradient(135deg,#ff6b6b,#f7d716,#5f27cd);\r\n  border-radius:8px;box-shadow:0 0 8px #fff8;\r\n  animation: scrollblink 1.2s infinite alternate;\r\n}\r\n@keyframes scrollblink {\r\n  0%{opacity:1;}\r\n  100%{opacity:.6;}\r\n}\r\na {\r\n  color:#5f27cd;text-decoration:underline wavy #f7d716;font-weight:bold;\r\n  transition:color .2s;\r\n  animation: linkcolor 1.2s infinite alternate, linkwiggle .7s infinite;\r\n  display:inline-block;\r\n}\r\na:hover {\r\n  color:#ff6b6b;text-decoration:underline wavy #4ecdc4;\r\n  animation: linkcolor .6s infinite alternate, linkwiggle .3s infinite;\r\n}\r\n@keyframes linkcolor {\r\n  0%{color:#5f27cd;}\r\n  50%{color:#f7d716;}\r\n  100%{color:#4ecdc4;}\r\n}\r\n@keyframes linkwiggle {\r\n  0%,100%{transform:rotate(-4deg) scale(1);}\r\n  50%{transform:rotate(4deg) scale(1.1);}\r\n}\r\ninput,textarea,select {\r\n  border:3px solid #4ecdc4;border-radius:12px;padding:.5em 1em;\r\n  font-size:1.1rem;background:#fff9;box-shadow:0 2px 8px #ff6b6b44;\r\n  transition:border-color .3s,box-shadow .3s;\r\n  animation: inputpulse 1.5s infinite alternate, inputshake 1.2s infinite alternate;\r\n}\r\ninput:focus,textarea:focus,select:focus {\r\n  border-color:#f7d716;box-shadow:0 0 16px #f7d71688,0 0 0 4px #4ecdc4 inset;outline:none;\r\n}\r\n@keyframes inputpulse {\r\n  0%{box-shadow:0 2px 8px #ff6b6b44;}\r\n  100%{box-shadow:0 4px 16px #5f27cd44;}\r\n}\r\n@keyframes inputshake {\r\n  0%,100%{transform:rotate(-2deg);}\r\n  50%{transform:rotate(2deg);}\r\n}\r\nbody::before,body::after {\r\n  content:'';\r\n  position:fixed;top:0;left:0;width:100vw;height:100vh;pointer-events:none;z-index:9999;\r\n  background-image:\r\n    radial-gradient(circle,#ff6b6b 8px,transparent 10px),\r\n    radial-gradient(circle,#f7d716 6px,transparent 8px),\r\n    radial-gradient(circle,#4ecdc4 10px,transparent 12px),\r\n    radial-gradient(circle,#5f27cd 7px,transparent 9px);\r\n  background-size:120px 120px,180px 180px,200px 200px,160px 160px;\r\n  background-position:0 0,60px 90px,120px 60px,80px 120px;\r\n  animation: confetti 10s linear infinite, confhue 5s linear infinite;\r\n  opacity:.22;\r\n}\r\nbody::after {animation-delay:5s;opacity:.13;}\r\n@keyframes confetti {\r\n  0%{background-position:0 0,60px 90px,120px 60px,80px 120px;}\r\n  100%{background-position:0 100vh,60px 190vh,120px 160vh,80px 220vh;}\r\n}\r\n@keyframes confhue {\r\n  0%{filter:hue-rotate(0deg);}\r\n  100%{filter:hue-rotate(360deg);}\r\n}\r\nhtml {cursor:url('https://cdn.jsdelivr.net/gh/twitter/twemoji@14.0.2/assets/72x72/2728.png'),auto;}"}, {"id": 11116, "slack_id": "U092GE8LMR8", "display_name": "Ashwin Joshi", "bio": null, "projects_count": 0, "devlogs_count": 0, "votes_count": 0, "ships_count": 0, "projects": [], "coding_time_seconds": 0, "coding_time_seconds_today": 0, "balance": "You need to have a pocket watcher badge to view this.", "badges": [], "created_at": "2025-06-21T18:06:32.956-04:00", "updated_at": "2025-07-03T19:58:35.470-04:00", "avatar": "https://secure.gravatar.com/avatar/c68b34f59cc67bee17727721d79fa3a7.jpg?s=512&d=https%3A%2F%2Fa.slack-edge.com%2Fdf10d%2Fimg%2Favatars%2Fava_0020-512.png", "custom_css": null}, {"id": 11117, "slack_id": "U07E7MG2ST0", "display_name": "anniemated", "bio": null, "projects_count": 0, "devlogs_count": 0, "votes_count": 0, "ships_count": 0, "projects": [], "coding_time_seconds": 53735, "coding_time_seconds_today": 0, "balance": "You need to have a pocket watcher badge to view this.", "badges": [], "created_at": "2025-06-21T18:14:14.650-04:00", "updated_at": "2025-09-09T02:56:53.942-04:00", "avatar": "https://avatars.slack-edge.com/2025-09-08/9479417654819_0e9c4b76d3ec241764f1_original.png", "custom_css": null}, {"id": 11118, "slack_id": "U092AJ2PFDL", "display_name": "Oscar", "bio": null, "projects_count": 0, "devlogs_count": 0, "votes_count": 0, "ships_count": 0, "projects": [], "coding_time_seconds": 0, "coding_time_seconds_today": 0, "balance": "You need to have a pocket watcher badge to view this.", "badges": [], "created_at": "2025-06-21T18:15:15.949-04:00", "updated_at": "2025-07-03T19:58:36.015-04:00", "avatar": "https://secure.gravatar.com/avatar/4cfe29d72cf6201dc1baad755fce677c.jpg?s=512&d=https%3A%2F%2Fa.slack-edge.com%2Fdf10d%2Fimg%2Favatars%2Fava_0017-512.png", "custom_css": null}, {"id": 11119, "slack_id": "U07FP0R1S2Y", "display_name": "I.K. O.", "bio": null, "projects_count": 0, "devlogs_count": 0, "votes_count": 0, "ships_count": 0, "projects": [], "coding_time_seconds": 0, "coding_time_seconds_today": 0, "balance": "You need to have a pocket watcher badge to view this.", "badges": [], "created_at": "2025-06-21T18:22:16.628-04:00", "updated_at": "2025-07-04T08:27:19.053-04:00", "avatar": "https://avatars.slack-edge.com/2025-06-21/9078634172326_b5676d651ea94f043618_original.jpg", "custom_css": null}, {"id": 11120, "slack_id": "U0921SFG63Z", "display_name": "TotallyNotSeth.dev", "bio": null, "projects_count": 1, "devlogs_count": 1, "votes_count": 0, "ships_count": 0, "projects": [{"id": 3027, "title": "Bluesky Bot Framework", "devlogs_count": 1, "created_at": "2025-06-22T20:28:55.909-04:00"}], "coding_time_seconds": 31327, "coding_time_seconds_today": 0, "balance": "You need to have a pocket watcher badge to view this.", "badges": [], "created_at": "2025-06-21T18:23:42.144-04:00", "updated_at": "2025-07-03T19:58:36.439-04:00", "avatar": "https://secure.gravatar.com/avatar/71e349c0994b0d546d958268acb605a8.jpg?s=512&d=https%3A%2F%2Fa.slack-edge.com%2Fdf10d%2Fimg%2Favatars%2Fava_0010-512.png", "custom_css": null}], "pagination": {"page": 556, "pages": 1192, "count": 23828, "items": 20}}