{"users": [{"id": 11141, "slack_id": "U0934MLBGLQ", "display_name": "Aydin Q", "bio": null, "projects_count": 0, "devlogs_count": 0, "votes_count": 0, "ships_count": 0, "projects": [], "coding_time_seconds": 0, "coding_time_seconds_today": 0, "balance": "You need to have a pocket watcher badge to view this.", "badges": [], "created_at": "2025-06-21T19:36:08.659-04:00", "updated_at": "2025-07-03T19:58:40.986-04:00", "avatar": "https://secure.gravatar.com/avatar/5354d7e2be0bb09cf1196803cda3577e.jpg?s=512&d=https%3A%2F%2Fa.slack-edge.com%2Fdf10d%2Fimg%2Favatars%2Fava_0014-512.png", "custom_css": null}, {"id": 11142, "slack_id": "U092GHJ6ZNW", "display_name": "omerfaruk sarul", "bio": null, "projects_count": 0, "devlogs_count": 0, "votes_count": 0, "ships_count": 0, "projects": [], "coding_time_seconds": 0, "coding_time_seconds_today": 0, "balance": "You need to have a pocket watcher badge to view this.", "badges": [], "created_at": "2025-06-21T19:47:01.063-04:00", "updated_at": "2025-07-03T19:58:41.246-04:00", "avatar": "https://avatars.slack-edge.com/2025-06-21/9083745635461_a59730fabb3c681caff7_original.png", "custom_css": null}, {"id": 11143, "slack_id": "U0934N5GZG8", "display_name": "Siraj H. Emon", "bio": null, "projects_count": 0, "devlogs_count": 0, "votes_count": 0, "ships_count": 0, "projects": [], "coding_time_seconds": 0, "coding_time_seconds_today": 0, "balance": "You need to have a pocket watcher badge to view this.", "badges": [], "created_at": "2025-06-21T19:54:54.554-04:00", "updated_at": "2025-07-03T19:58:41.528-04:00", "avatar": "https://secure.gravatar.com/avatar/bea24277faeb65197ece85720732b117.jpg?s=512&d=https%3A%2F%2Fa.slack-edge.com%2Fdf10d%2Fimg%2Favatars%2Fava_0022-512.png", "custom_css": null}, {"id": 11144, "slack_id": "U092FMXURQV", "display_name": "Eli Ozcan", "bio": "you WILL use nixos", "projects_count": 8, "devlogs_count": 107, "votes_count": 315, "ships_count": 8, "projects": [{"id": 2717, "title": "flipper-rpc", "devlogs_count": 6, "created_at": "2025-06-21T20:53:25.379-04:00"}, {"id": 6038, "title": "web2050", "devlogs_count": 19, "created_at": "2025-07-10T06:32:59.116-04:00"}, {"id": 2716, "title": "flippy", "devlogs_count": 10, "created_at": "2025-06-21T20:50:18.289-04:00"}, {"id": 10512, "title": "pvbc", "devlogs_count": 2, "created_at": "2025-08-07T17:18:07.172-04:00"}, {"id": 7395, "title": "SoM Economy", "devlogs_count": 19, "created_at": "2025-07-21T15:44:53.490-04:00"}, {"id": 8258, "title": "how much of som is vibecoded", "devlogs_count": 15, "created_at": "2025-07-25T18:07:54.268-04:00"}, {"id": 5682, "title": "The Great Haiku Search", "devlogs_count": 4, "created_at": "2025-07-07T03:57:58.937-04:00"}, {"id": 4429, "title": "Tic-Tac-F\u02e3\u1d52k-You", "devlogs_count": 31, "created_at": "2025-06-29T19:44:42.934-04:00"}], "coding_time_seconds": 973166, "coding_time_seconds_today": 0, "balance": "You need to have a pocket watcher badge to view this.", "badges": [{"name": "Maiden Voyage", "text": "you shipped your first project! the journey begins...", "icon": "\ud83d\udea2"}, {"name": "Graphic Design is My Passion", "text": "Oh God How Did This Get Here I Am Not Good With Computer", "icon": "\ud83c\udfa8"}, {"name": "Ballot Stuffer", "text": "vote 100 times.", "icon": "https://summer.hackclub.com/assets/i_voted-bf851b48.png"}], "created_at": "2025-06-21T19:55:47.417-04:00", "updated_at": "2025-09-10T22:56:45.092-04:00", "avatar": "https://avatars.slack-edge.com/2025-06-22/9085312734788_56643e9701ec15c464e7_original.jpg", "custom_css": "/* replace eli with nora v3 */\r\n\r\n/* pvbc.css */\r\nh1.text-2xl > a:nth-child(1) > span:nth-child(1)::after {\r\n  content: \"\";\r\n  display: inline-block;\r\n  width: 8em;\r\n  height: 1.5em;\r\n  background-image: url(\"https://pvbc.e.hackclub.app/e6d3d972-3e70-4252-aafb-5c0fcb42dec7?logo=nixos&label=nixos+advocates&style=flat-square&color=7EBAE4&logoColor=white\");\r\n  background-size: contain;\r\n  background-repeat: no-repeat;\r\n  background-position: center;\r\n  vertical-align: middle;\r\n  filter: invert(1);\r\n  margin-left: 0.5em;\r\n}\r\n\r\n/* deletesidebar.css v69 */\r\ndiv.p-4:nth-child(1) { display: none; }\r\n\r\n/* pain.css v2 */\r\nbody {\r\n  font-family: \"Comic Sans MS\", \"Papyrus\", cursive;\r\n  background: url(\"https://www.spacejam.com/1996/img/bg_stars.gif\");\r\n  filter: invert(1) hue-rotate(69deg);\r\n  margin-left: auto;\r\n  width: 50vw;\r\n  position: relative;\r\n  /*animation: spinBody 5s linear infinite, shake 0.1s linear infinite;*/\r\n}\r\n\r\n.profile-bio-section {\r\n  font-size: 200px;\r\n}\r\n\r\n/*html::before {\r\n  position: fixed;\r\n  top: 0;\r\n  left: 0;\r\n  bottom: 0;\r\n  right: 0;\r\n\r\n  content: \"\";\r\n\r\n  background-size: 100% 100%;\r\n  background-repeat: no-repeat;\r\n  background-position: center;\r\n\r\n  background: url(\"https://hc-cdn.hel1.your-objectstorage.com/s/v3/0994bf8519cfd97a0476aad5eb8dbd184566eaea_wow.gif\");\r\n  z-index: 100;\r\n  pointer-events: none;\r\n}*/\r\n\r\n@keyframes spinBody {\r\n  0% {\r\n    transform: rotate(0deg) scale(1, 1.1);\r\n  }\r\n  25% {\r\n    transform: rotate(-5deg) scale(1.1, 1);\r\n  }\r\n  50% {\r\n    transform: rotate(0deg) scale(1, 1);\r\n  }\r\n  75% {\r\n    transform: rotate(5deg) scale(1.1, 1);\r\n  }\r\n  100% {\r\n    transform: rotate(0deg) scale(1, 1.1);\r\n  }\r\n}\r\n\r\n@keyframes shake {\r\n  0% { left: -3px; top: -3px; }\r\n  25% { left: 3px; top: -3px; }\r\n  50% { left: 3px; top: 3px; }\r\n  75% { left: -3px; top: 3px; }\r\n  100% { left: -3px; top: -3px; }\r\n}\r\n\r\n/* reset */\r\n.profile-avatar,\r\na[href=\"/users/11144\"] > span > span,\r\nimg[src=\"https://avatars.slack-edge.com/2025-06-22/9085312734788_56643e9701ec15c464e7_original.jpg\"],\r\ndiv.card-with-gradient:nth-child(2) > div:nth-child(1) > div:nth-child(1) > div:nth-child(1) > span:nth-child(2),\r\np.text-\\[\\#4a2d24\\]:nth-child(1),\r\ndiv[data-viewable-type=\"Devlog\"] > div:nth-child(2) > div:nth-child(2) img\r\n{ display: none; }\r\n\r\nimg {\r\n  filter: invert();\r\n}\r\n\r\ndiv.card-with-gradient:nth-child(2) > div:nth-child(1) > div:nth-child(1) > div:nth-child(1)::after {\r\n  content: \"3\";\r\n}\r\n\r\n/* rebuild individual images */\r\n.profile-header::before {\r\n  width: calc(var(--spacing)*24);\r\n  height: calc(var(--spacing)*24);\r\n  \r\n  margin-left: auto;\r\n  margin-right: auto;\r\n  margin-bottom: 1rem;\r\n}\r\n\r\ndiv[data-viewable-type=\"Devlog\"] > div:nth-child(2) > div:nth-child(2)::after {\r\n  content: \"\";\r\n  display: block;\r\n  width: 281px;\r\n  height: 498px;\r\n  cursor: pointer;\r\n  border-radius: 10px;\r\n  filter: invert();\r\n  background: url(\"https://c.tenor.com/NVP2kRD7CHsAAAAd/tenor.gif\");\r\n}\r\n\r\ndiv[data-viewable-type=\"Devlog\"] > div.flex.items-center.justify-between > div.flex.items-center::before {\r\n  width: calc(var(--spacing)*8);\r\n  height: calc(var(--spacing)*8);\r\n\r\n  margin-right: 10px;\r\n}\r\n\r\n.items-start > div:nth-child(1) img {\r\n  display: block;\r\n}\r\n\r\n/* common profile img src */\r\ndiv[data-viewable-type=\"Devlog\"] > div.flex.items-center.justify-between > div.flex.items-center::before,\r\n.items-start > div:nth-child(1)::before,\r\n.profile-header::before {\r\n  content: \"\";\r\n  display: block;\r\n  background-image: url(\"https://avatars.slack-edge.com/2024-10-26/7934206296214_7be35073eff88c2252bc_original.png\");\r\n  background-size: cover;\r\n  background-position: center;\r\n  border-radius: 100%;\r\n}\r\n\r\na[href=\"/users/11144\"]::before {\r\n  content: \"not nora\";\r\n  color: deeppink;\r\n  font-family: Comic Sans MS;\r\n}\r\n\r\na[href=\"/users/11144\"]::after {\r\n  content: \"\";\r\n  display: inline-block;\r\n\r\n  position: relative;\r\n  top: 5px;\r\n  left: -8px;\r\n\r\n  width: 20px;\r\n  height: 20px;\r\n\r\n  background-image: url(\"/assets/verified-b3645c3c.png\");\r\n  background-size: cover;\r\n  background-position: center;\r\n\r\n  cursor: help;\r\n}\r\n\r\ndiv.gap-2::after {\r\n  content: \"\";\r\n  position: relative;\r\n\r\n  display: inline-flex;\r\n  align-items: center;\r\n  justify-content: center;\r\n\r\n  height: calc(var(--spacing)*12);\r\n  width: calc(var(--spacing)*12);\r\n\r\n  border-style: var(--tw-border-style);\r\n  border-width: 2px;\r\n  border-color: var(--color-blue-500);\r\n\r\n  background-image: url(\"/assets/verified-b3645c3c.png\");\r\n  background-size: 20px 20px;\r\n  background-repeat: no-repeat;\r\n  background-position: center;\r\n  background-color: color-mix(in oklab, var(--color-blue-500) 10%, transparent);\r\n\r\n  cursor: help;\r\n}"}, {"id": 11145, "slack_id": "U08RQ06APV2", "display_name": "Warner", "bio": null, "projects_count": 0, "devlogs_count": 0, "votes_count": 0, "ships_count": 0, "projects": [], "coding_time_seconds": 1167, "coding_time_seconds_today": 0, "balance": "You need to have a pocket watcher badge to view this.", "badges": [], "created_at": "2025-06-21T20:00:00.369-04:00", "updated_at": "2025-07-04T08:27:20.831-04:00", "avatar": "https://avatars.slack-edge.com/2025-05-26/8947196828099_d9ec142d9ea363e5c9b7_original.png", "custom_css": null}, {"id": 11146, "slack_id": "U09220LPMBR", "display_name": "soleil", "bio": null, "projects_count": 0, "devlogs_count": 0, "votes_count": 0, "ships_count": 0, "projects": [], "coding_time_seconds": 0, "coding_time_seconds_today": 0, "balance": "You need to have a pocket watcher badge to view this.", "badges": [], "created_at": "2025-06-21T20:02:00.471-04:00", "updated_at": "2025-07-04T02:31:05.097-04:00", "avatar": "https://secure.gravatar.com/avatar/de008b2be8ef02772940d308a2877899.jpg?s=512&d=https%3A%2F%2Fa.slack-edge.com%2Fdf10d%2Fimg%2Favatars%2Fava_0014-512.png", "custom_css": null}, {"id": 11147, "slack_id": "U092FNDM4FP", "display_name": "Bunyamin", "bio": null, "projects_count": 0, "devlogs_count": 0, "votes_count": 0, "ships_count": 0, "projects": [], "coding_time_seconds": 0, "coding_time_seconds_today": 0, "balance": "You need to have a pocket watcher badge to view this.", "badges": [], "created_at": "2025-06-21T20:06:42.123-04:00", "updated_at": "2025-07-07T02:13:24.836-04:00", "avatar": "https://secure.gravatar.com/avatar/b4cd57874fb333bb70a9819fb75cae67.jpg?s=512&d=https%3A%2F%2Fa.slack-edge.com%2Fdf10d%2Fimg%2Favatars%2Fava_0009-512.png", "custom_css": null}, {"id": 11148, "slack_id": "U07JB8XES7M", "display_name": "Belal Mostafa", "bio": null, "projects_count": 0, "devlogs_count": 8, "votes_count": 20, "ships_count": 0, "projects": [], "coding_time_seconds": 421942, "coding_time_seconds_today": 0, "balance": "You need to have a pocket watcher badge to view this.", "badges": [{"name": "Maiden Voyage", "text": "you shipped your first project! the journey begins...", "icon": "\ud83d\udea2"}], "created_at": "2025-06-21T20:11:49.614-04:00", "updated_at": "2025-09-10T22:56:45.253-04:00", "avatar": "https://avatars.slack-edge.com/2025-01-09/8253325073095_5c431d3b5b4c277a66d7_original.jpg", "custom_css": null}, {"id": 11149, "slack_id": "U092ANQ4VFG", "display_name": "Sumii", "bio": null, "projects_count": 3, "devlogs_count": 3, "votes_count": 20, "ships_count": 1, "projects": [{"id": 7962, "title": "Daily Schedule App", "devlogs_count": 0, "created_at": "2025-07-23T21:01:35.257-04:00"}, {"id": 8049, "title": "Personal Site (Portfolio)", "devlogs_count": 1, "created_at": "2025-07-24T09:47:32.514-04:00"}, {"id": 9318, "title": "Corporate Alien", "devlogs_count": 2, "created_at": "2025-07-31T14:30:27.058-04:00"}], "coding_time_seconds": 76787, "coding_time_seconds_today": 0, "balance": "You need to have a pocket watcher badge to view this.", "badges": [{"name": "Maiden Voyage", "text": "you shipped your first project! the journey begins...", "icon": "\ud83d\udea2"}], "created_at": "2025-06-21T20:16:37.917-04:00", "updated_at": "2025-09-10T22:56:45.289-04:00", "avatar": "https://secure.gravatar.com/avatar/95ad185bcf60088d9db3aac3a4c0a470.jpg?s=512&d=https%3A%2F%2Fa.slack-edge.com%2Fdf10d%2Fimg%2Favatars%2Fava_0016-512.png", "custom_css": null}, {"id": 11150, "slack_id": "U092H2B2XNY", "display_name": "Ahmed Siddiq", "bio": null, "projects_count": 0, "devlogs_count": 0, "votes_count": 0, "ships_count": 0, "projects": [], "coding_time_seconds": 0, "coding_time_seconds_today": 0, "balance": "You need to have a pocket watcher badge to view this.", "badges": [], "created_at": "2025-06-21T20:19:35.053-04:00", "updated_at": "2025-07-03T19:58:43.170-04:00", "avatar": "https://secure.gravatar.com/avatar/0f2e10eb012bcd63a0fc512ee69e2646.jpg?s=512&d=https%3A%2F%2Fa.slack-edge.com%2Fdf10d%2Fimg%2Favatars%2Fava_0015-512.png", "custom_css": null}, {"id": 11151, "slack_id": "U092VHW1YSV", "display_name": "Jacob Freij", "bio": null, "projects_count": 0, "devlogs_count": 0, "votes_count": 0, "ships_count": 0, "projects": [], "coding_time_seconds": 19319, "coding_time_seconds_today": 0, "balance": "You need to have a pocket watcher badge to view this.", "badges": [], "created_at": "2025-06-21T20:20:37.133-04:00", "updated_at": "2025-07-05T08:12:49.544-04:00", "avatar": "https://secure.gravatar.com/avatar/9e4af3934333284863345aaf74fc0bc2.jpg?s=512&d=https%3A%2F%2Fa.slack-edge.com%2Fdf10d%2Fimg%2Favatars%2Fava_0007-512.png", "custom_css": null}, {"id": 11152, "slack_id": "U092APLH0R4", "display_name": "Bogdan", "bio": null, "projects_count": 0, "devlogs_count": 0, "votes_count": 0, "ships_count": 0, "projects": [], "coding_time_seconds": 0, "coding_time_seconds_today": 0, "balance": "You need to have a pocket watcher badge to view this.", "badges": [], "created_at": "2025-06-21T20:33:55.350-04:00", "updated_at": "2025-07-08T02:57:01.678-04:00", "avatar": "https://secure.gravatar.com/avatar/0ad6112cd42678ad1341e39cd44a43f0.jpg?s=512&d=https%3A%2F%2Fa.slack-edge.com%2Fdf10d%2Fimg%2Favatars%2Fava_0001-512.png", "custom_css": null}, {"id": 11153, "slack_id": "U04R8NX6770", "display_name": "Cait Prough", "bio": null, "projects_count": 0, "devlogs_count": 0, "votes_count": 0, "ships_count": 0, "projects": [], "coding_time_seconds": 85480, "coding_time_seconds_today": 0, "balance": "You need to have a pocket watcher badge to view this.", "badges": [], "created_at": "2025-06-21T20:43:49.410-04:00", "updated_at": "2025-07-04T02:31:05.625-04:00", "avatar": "https://avatars.slack-edge.com/2024-08-02/7533996832161_1896e8dc2950d3966427_original.jpg", "custom_css": null}, {"id": 11154, "slack_id": "U092GKTM1FU", "display_name": "Aditya Nair", "bio": null, "projects_count": 0, "devlogs_count": 0, "votes_count": 0, "ships_count": 0, "projects": [], "coding_time_seconds": 0, "coding_time_seconds_today": 0, "balance": "You need to have a pocket watcher badge to view this.", "badges": [], "created_at": "2025-06-21T20:52:37.604-04:00", "updated_at": "2025-07-03T19:58:43.929-04:00", "avatar": "https://secure.gravatar.com/avatar/d09c11556e0ee9a990d58b421683a33f.jpg?s=512&d=https%3A%2F%2Fa.slack-edge.com%2Fdf10d%2Fimg%2Favatars%2Fava_0011-512.png", "custom_css": null}, {"id": 11155, "slack_id": "U092VKAJMT3", "display_name": "Santiago Soto", "bio": null, "projects_count": 0, "devlogs_count": 0, "votes_count": 0, "ships_count": 0, "projects": [], "coding_time_seconds": 0, "coding_time_seconds_today": 0, "balance": "You need to have a pocket watcher badge to view this.", "badges": [], "created_at": "2025-06-21T20:56:55.783-04:00", "updated_at": "2025-07-03T19:58:44.201-04:00", "avatar": "https://secure.gravatar.com/avatar/4d98e7991bf7722ae3d4f384ed7c73ce.jpg?s=512&d=https%3A%2F%2Fa.slack-edge.com%2Fdf10d%2Fimg%2Favatars%2Fava_0015-512.png", "custom_css": null}, {"id": 11156, "slack_id": "U08D0MS44PN", "display_name": "ahmoin", "bio": null, "projects_count": 2, "devlogs_count": 0, "votes_count": 3, "ships_count": 0, "projects": [{"id": 2721, "title": "Ardemy", "devlogs_count": 0, "created_at": "2025-06-21T21:21:22.863-04:00"}, {"id": 13390, "title": "Calcrux", "devlogs_count": 0, "created_at": "2025-09-15T06:04:54.290-04:00"}], "coding_time_seconds": 854755, "coding_time_seconds_today": 0, "balance": "You need to have a pocket watcher badge to view this.", "badges": [], "created_at": "2025-06-21T20:59:27.654-04:00", "updated_at": "2025-08-09T10:21:38.481-04:00", "avatar": "https://avatars.slack-edge.com/2025-04-21/8769563571975_42916ab06031f0571beb_original.png", "custom_css": null}, {"id": 11157, "slack_id": "U092AQRF2BY", "display_name": "Ethan K", "bio": null, "projects_count": 0, "devlogs_count": 0, "votes_count": 0, "ships_count": 0, "projects": [], "coding_time_seconds": 170, "coding_time_seconds_today": 0, "balance": "You need to have a pocket watcher badge to view this.", "badges": [], "created_at": "2025-06-21T21:00:44.929-04:00", "updated_at": "2025-07-04T02:31:05.957-04:00", "avatar": "https://secure.gravatar.com/avatar/3e4cd9342457b0afead320974893442c.jpg?s=512&d=https%3A%2F%2Fa.slack-edge.com%2Fdf10d%2Fimg%2Favatars%2Fava_0000-512.png", "custom_css": null}, {"id": 11158, "slack_id": "U092AQYJSVC", "display_name": "Luis Tumialan", "bio": null, "projects_count": 0, "devlogs_count": 0, "votes_count": 0, "ships_count": 0, "projects": [], "coding_time_seconds": 0, "coding_time_seconds_today": 0, "balance": "You need to have a pocket watcher badge to view this.", "badges": [], "created_at": "2025-06-21T21:04:59.434-04:00", "updated_at": "2025-07-03T19:58:44.785-04:00", "avatar": "https://secure.gravatar.com/avatar/00e042ae303072f476feabd1024c7ebe.jpg?s=512&d=https%3A%2F%2Fa.slack-edge.com%2Fdf10d%2Fimg%2Favatars%2Fava_0016-512.png", "custom_css": null}, {"id": 11159, "slack_id": "U091JP84SAJ", "display_name": "Rishik Reddy", "bio": null, "projects_count": 0, "devlogs_count": 0, "votes_count": 0, "ships_count": 0, "projects": [], "coding_time_seconds": 0, "coding_time_seconds_today": 0, "balance": "You need to have a pocket watcher badge to view this.", "badges": [], "created_at": "2025-06-21T21:08:13.749-04:00", "updated_at": "2025-07-03T19:58:45.055-04:00", "avatar": "https://secure.gravatar.com/avatar/20897d1296f125f43e4b124e28e8fffc.jpg?s=512&d=https%3A%2F%2Fa.slack-edge.com%2Fdf10d%2Fimg%2Favatars%2Fava_0007-512.png", "custom_css": null}, {"id": 11160, "slack_id": "U08UCHH02TS", "display_name": "Bernice", "bio": null, "projects_count": 0, "devlogs_count": 0, "votes_count": 0, "ships_count": 0, "projects": [], "coding_time_seconds": 0, "coding_time_seconds_today": 0, "balance": "You need to have a pocket watcher badge to view this.", "badges": [], "created_at": "2025-06-21T21:12:51.351-04:00", "updated_at": "2025-07-03T19:58:45.316-04:00", "avatar": "https://avatars.slack-edge.com/2025-06-28/9106465928439_32d2cff374d029c74651_original.jpg", "custom_css": null}], "pagination": {"page": 558, "pages": 1192, "count": 23828, "items": 20}}