{"users": [{"id": 11161, "slack_id": "U092AQPKNDC", "display_name": "Hanzala", "bio": null, "projects_count": 1, "devlogs_count": 0, "votes_count": 0, "ships_count": 0, "projects": [{"id": 2794, "title": "Italy's Visa Appointment Checking Bot", "devlogs_count": 0, "created_at": "2025-06-22T04:36:40.957-04:00"}], "coding_time_seconds": 360, "coding_time_seconds_today": 0, "balance": "You need to have a pocket watcher badge to view this.", "badges": [], "created_at": "2025-06-21T21:15:07.418-04:00", "updated_at": "2025-07-03T22:01:48.031-04:00", "avatar": "https://avatars.slack-edge.com/2025-06-22/9085641122276_32388c94a7568c973eaa_original.png", "custom_css": null}, {"id": 11162, "slack_id": "U092A16H17D", "display_name": "Aliyah", "bio": null, "projects_count": 0, "devlogs_count": 0, "votes_count": 0, "ships_count": 0, "projects": [], "coding_time_seconds": 0, "coding_time_seconds_today": 0, "balance": "You need to have a pocket watcher badge to view this.", "badges": [], "created_at": "2025-06-21T21:15:33.634-04:00", "updated_at": "2025-07-03T19:58:45.721-04:00", "avatar": "https://secure.gravatar.com/avatar/49817431c63abc137fb0200025209135.jpg?s=512&d=https%3A%2F%2Fa.slack-edge.com%2Fdf10d%2Fimg%2Favatars%2Fava_0020-512.png", "custom_css": null}, {"id": 11163, "slack_id": "U0934RXD0KA", "display_name": "Paul Liao", "bio": null, "projects_count": 0, "devlogs_count": 0, "votes_count": 0, "ships_count": 0, "projects": [], "coding_time_seconds": 0, "coding_time_seconds_today": 0, "balance": "You need to have a pocket watcher badge to view this.", "badges": [], "created_at": "2025-06-21T21:36:07.175-04:00", "updated_at": "2025-07-03T19:58:45.989-04:00", "avatar": "https://secure.gravatar.com/avatar/db64edaac81ad03a8aaf2a5ce5a457b4.jpg?s=512&d=https%3A%2F%2Fa.slack-edge.com%2Fdf10d%2Fimg%2Favatars%2Fava_0018-512.png", "custom_css": null}, {"id": 11164, "slack_id": "U09224GAAKH", "display_name": "Ziyu Zhu", "bio": null, "projects_count": 0, "devlogs_count": 0, "votes_count": 0, "ships_count": 0, "projects": [], "coding_time_seconds": 0, "coding_time_seconds_today": 0, "balance": "You need to have a pocket watcher badge to view this.", "badges": [], "created_at": "2025-06-21T21:41:41.923-04:00", "updated_at": "2025-07-03T19:58:46.250-04:00", "avatar": "https://avatars.slack-edge.com/2025-06-21/9106907011472_29bfa818718d25be26fc_original.jpg", "custom_css": null}, {"id": 11165, "slack_id": "U0934S7T9RN", "display_name": "Aaron 25 gaming", "bio": null, "projects_count": 0, "devlogs_count": 0, "votes_count": 0, "ships_count": 0, "projects": [], "coding_time_seconds": 3078, "coding_time_seconds_today": 0, "balance": "You need to have a pocket watcher badge to view this.", "badges": [], "created_at": "2025-06-21T21:44:09.096-04:00", "updated_at": "2025-07-03T22:01:48.365-04:00", "avatar": "https://avatars.slack-edge.com/2025-06-21/9070161983767_524cabf7c4cdcdb854b3_original.jpg", "custom_css": null}, {"id": 11166, "slack_id": "U090NESQPNC", "display_name": "Automationman", "bio": null, "projects_count": 0, "devlogs_count": 0, "votes_count": 0, "ships_count": 0, "projects": [], "coding_time_seconds": 0, "coding_time_seconds_today": 0, "balance": "You need to have a pocket watcher badge to view this.", "badges": [], "created_at": "2025-06-21T21:51:05.011-04:00", "updated_at": "2025-07-28T22:50:33.595-04:00", "avatar": "https://avatars.slack-edge.com/2025-06-11/9058065788096_37746cbf874659afbc37_original.png", "custom_css": null}, {"id": 11167, "slack_id": "U092AT2SQNS", "display_name": "Eve Loraine", "bio": null, "projects_count": 0, "devlogs_count": 0, "votes_count": 0, "ships_count": 0, "projects": [], "coding_time_seconds": 12059, "coding_time_seconds_today": 0, "balance": "You need to have a pocket watcher badge to view this.", "badges": [], "created_at": "2025-06-21T22:00:17.646-04:00", "updated_at": "2025-07-03T22:01:48.557-04:00", "avatar": "https://secure.gravatar.com/avatar/847bd5c4c66b35d223f9d941f8a06c4f.jpg?s=512&d=https%3A%2F%2Fa.slack-edge.com%2Fdf10d%2Fimg%2Favatars%2Fava_0008-512.png", "custom_css": null}, {"id": 11168, "slack_id": "U092ATFPYBG", "display_name": "Ghifari Nafhan", "bio": null, "projects_count": 0, "devlogs_count": 0, "votes_count": 0, "ships_count": 0, "projects": [], "coding_time_seconds": 245323, "coding_time_seconds_today": 0, "balance": "You need to have a pocket watcher badge to view this.", "badges": [], "created_at": "2025-06-21T22:06:29.415-04:00", "updated_at": "2025-07-03T19:58:47.062-04:00", "avatar": "https://avatars.slack-edge.com/2025-06-21/9106923080320_be1edd8dbf9f38195ecc_original.jpg", "custom_css": null}, {"id": 11169, "slack_id": "U0934T617QQ", "display_name": "KcoderV2", "bio": null, "projects_count": 0, "devlogs_count": 0, "votes_count": 0, "ships_count": 0, "projects": [], "coding_time_seconds": 0, "coding_time_seconds_today": 0, "balance": "You need to have a pocket watcher badge to view this.", "badges": [], "created_at": "2025-06-21T22:12:52.431-04:00", "updated_at": "2025-07-03T19:58:47.332-04:00", "avatar": "https://secure.gravatar.com/avatar/b549f7512fa42910ab66db6845c60308.jpg?s=512&d=https%3A%2F%2Fa.slack-edge.com%2Fdf10d%2Fimg%2Favatars%2Fava_0017-512.png", "custom_css": null}, {"id": 11170, "slack_id": "U092A3A0U2X", "display_name": "Marlon Malo Dominguez", "bio": null, "projects_count": 0, "devlogs_count": 0, "votes_count": 0, "ships_count": 0, "projects": [], "coding_time_seconds": 0, "coding_time_seconds_today": 0, "balance": "You need to have a pocket watcher badge to view this.", "badges": [], "created_at": "2025-06-21T22:12:54.150-04:00", "updated_at": "2025-07-03T19:58:47.602-04:00", "avatar": "https://secure.gravatar.com/avatar/233881429858f3eec1bb555f86aa7229.jpg?s=512&d=https%3A%2F%2Fa.slack-edge.com%2Fdf10d%2Fimg%2Favatars%2Fava_0019-512.png", "custom_css": null}, {"id": 11171, "slack_id": "U07E6DADR1V", "display_name": "BuildNCode", "bio": null, "projects_count": 1, "devlogs_count": 1, "votes_count": 1, "ships_count": 0, "projects": [{"id": 3331, "title": "Personal Bio Website", "devlogs_count": 1, "created_at": "2025-06-23T20:57:29.090-04:00"}], "coding_time_seconds": 17511, "coding_time_seconds_today": 0, "balance": "You need to have a pocket watcher badge to view this.", "badges": [], "created_at": "2025-06-21T22:14:25.922-04:00", "updated_at": "2025-07-03T19:58:47.873-04:00", "avatar": "https://avatars.slack-edge.com/2025-06-24/9093688537574_af9194102326c73f09af_original.jpg", "custom_css": null}, {"id": 11172, "slack_id": "U09225WUWUX", "display_name": "hira tripathi", "bio": null, "projects_count": 0, "devlogs_count": 0, "votes_count": 0, "ships_count": 0, "projects": [], "coding_time_seconds": 0, "coding_time_seconds_today": 0, "balance": "You need to have a pocket watcher badge to view this.", "badges": [], "created_at": "2025-06-21T22:19:54.756-04:00", "updated_at": "2025-07-03T19:58:48.141-04:00", "avatar": "https://avatars.slack-edge.com/2025-06-21/9078127111843_548218e3d24701085424_original.png", "custom_css": null}, {"id": 11173, "slack_id": "U078LBZ9NTU", "display_name": "Sameer Dahal", "bio": null, "projects_count": 0, "devlogs_count": 0, "votes_count": 0, "ships_count": 0, "projects": [], "coding_time_seconds": 0, "coding_time_seconds_today": 0, "balance": "You need to have a pocket watcher badge to view this.", "badges": [], "created_at": "2025-06-21T22:25:45.440-04:00", "updated_at": "2025-07-03T19:58:48.427-04:00", "avatar": "https://avatars.slack-edge.com/2024-09-02/7660974010149_26b2f0d9fcf2c0a0b401_original.jpg", "custom_css": null}, {"id": 11174, "slack_id": "U092AU6KM1U", "display_name": "Anjit Kandel", "bio": null, "projects_count": 0, "devlogs_count": 0, "votes_count": 0, "ships_count": 0, "projects": [], "coding_time_seconds": 1834, "coding_time_seconds_today": 0, "balance": "You need to have a pocket watcher badge to view this.", "badges": [], "created_at": "2025-06-21T22:26:42.770-04:00", "updated_at": "2025-07-03T19:58:48.686-04:00", "avatar": "https://secure.gravatar.com/avatar/5d2d369ed9601971bd994d05b65dd912.jpg?s=512&d=https%3A%2F%2Fa.slack-edge.com%2Fdf10d%2Fimg%2Favatars%2Fava_0000-512.png", "custom_css": null}, {"id": 11175, "slack_id": "U092VP44JGH", "display_name": "Ayden", "bio": null, "projects_count": 0, "devlogs_count": 0, "votes_count": 0, "ships_count": 0, "projects": [], "coding_time_seconds": 8424, "coding_time_seconds_today": 0, "balance": "You need to have a pocket watcher badge to view this.", "badges": [], "created_at": "2025-06-21T22:28:41.569-04:00", "updated_at": "2025-07-03T19:58:48.949-04:00", "avatar": "https://secure.gravatar.com/avatar/c2a98bad92d3c5091648cbe68ea63a75.jpg?s=512&d=https%3A%2F%2Fa.slack-edge.com%2Fdf10d%2Fimg%2Favatars%2Fava_0013-512.png", "custom_css": null}, {"id": 11176, "slack_id": "U092VPC5A1F", "display_name": "yogita", "bio": null, "projects_count": 0, "devlogs_count": 0, "votes_count": 0, "ships_count": 0, "projects": [], "coding_time_seconds": 0, "coding_time_seconds_today": 0, "balance": "You need to have a pocket watcher badge to view this.", "badges": [], "created_at": "2025-06-21T22:33:32.218-04:00", "updated_at": "2025-07-07T02:13:26.702-04:00", "avatar": "https://secure.gravatar.com/avatar/7a0d82ff442ccf5c4fe5f4ff7c23c5a9.jpg?s=512&d=https%3A%2F%2Fa.slack-edge.com%2Fdf10d%2Fimg%2Favatars%2Fava_0013-512.png", "custom_css": null}, {"id": 11177, "slack_id": "U0934U73CGG", "display_name": "blind", "bio": null, "projects_count": 0, "devlogs_count": 0, "votes_count": 0, "ships_count": 0, "projects": [], "coding_time_seconds": 0, "coding_time_seconds_today": 0, "balance": "You need to have a pocket watcher badge to view this.", "badges": [], "created_at": "2025-06-21T22:44:31.468-04:00", "updated_at": "2025-07-04T20:11:53.426-04:00", "avatar": "https://secure.gravatar.com/avatar/f3772a87ef46c9725e4ef373a5eb7502.jpg?s=512&d=https%3A%2F%2Fa.slack-edge.com%2Fdf10d%2Fimg%2Favatars%2Fava_0026-512.png", "custom_css": null}, {"id": 11178, "slack_id": "U09226R4J07", "display_name": "Eri", "bio": null, "projects_count": 0, "devlogs_count": 0, "votes_count": 0, "ships_count": 0, "projects": [], "coding_time_seconds": 0, "coding_time_seconds_today": 0, "balance": "You need to have a pocket watcher badge to view this.", "badges": [], "created_at": "2025-06-21T22:45:19.895-04:00", "updated_at": "2025-07-03T19:58:49.480-04:00", "avatar": "https://secure.gravatar.com/avatar/c4b1e3eeded1774a0f86b8e70fb32b27.jpg?s=512&d=https%3A%2F%2Fa.slack-edge.com%2Fdf10d%2Fimg%2Favatars%2Fava_0026-512.png", "custom_css": null}, {"id": 11179, "slack_id": "U08264NBQ64", "display_name": "Bryce Conrad", "bio": null, "projects_count": 3, "devlogs_count": 7, "votes_count": 19, "ships_count": 1, "projects": [{"id": 5516, "title": "LeVibes", "devlogs_count": 4, "created_at": "2025-07-05T21:49:48.286-04:00"}, {"id": 12568, "title": "vender", "devlogs_count": 1, "created_at": "2025-08-29T20:28:11.548-04:00"}, {"id": 3507, "title": "Ticketize", "devlogs_count": 2, "created_at": "2025-06-24T14:09:39.714-04:00"}], "coding_time_seconds": 159585, "coding_time_seconds_today": 0, "balance": "You need to have a pocket watcher badge to view this.", "badges": [{"name": "Maiden Voyage", "text": "you shipped your first project! the journey begins...", "icon": "\ud83d\udea2"}], "created_at": "2025-06-21T22:48:20.258-04:00", "updated_at": "2025-09-10T22:56:46.052-04:00", "avatar": "https://avatars.slack-edge.com/2024-11-19/8052291447605_ca794719ce5e3b1f1f10_original.png", "custom_css": null}, {"id": 11180, "slack_id": "U08A64LPURJ", "display_name": "ProSureString", "bio": null, "projects_count": 0, "devlogs_count": 0, "votes_count": 0, "ships_count": 0, "projects": [], "coding_time_seconds": 121453, "coding_time_seconds_today": 388, "balance": "You need to have a pocket watcher badge to view this.", "badges": [], "created_at": "2025-06-21T22:52:24.946-04:00", "updated_at": "2025-07-03T19:58:49.883-04:00", "avatar": "https://avatars.slack-edge.com/2025-05-26/8944508288963_c27f7dd6e90f31370832_original.jpg", "custom_css": null}], "pagination": {"page": 559, "pages": 1192, "count": 23828, "items": 20}}