{"users": [{"id": 1101, "slack_id": "U08135E43EK", "display_name": "Maro", "bio": null, "projects_count": 0, "devlogs_count": 0, "votes_count": 0, "ships_count": 0, "projects": [], "coding_time_seconds": 49318, "coding_time_seconds_today": 0, "balance": "You need to have a pocket watcher badge to view this.", "badges": [], "created_at": "2025-06-16T12:42:00.827-04:00", "updated_at": "2025-07-03T19:16:06.241-04:00", "avatar": "https://avatars.slack-edge.com/2024-12-23/8223930078849_4d681c985576f4efb1c6_original.jpg", "custom_css": null}, {"id": 1102, "slack_id": "U082VSCQHQS", "display_name": "Shoaib", "bio": null, "projects_count": 0, "devlogs_count": 0, "votes_count": 0, "ships_count": 0, "projects": [], "coding_time_seconds": 0, "coding_time_seconds_today": 0, "balance": "You need to have a pocket watcher badge to view this.", "badges": [], "created_at": "2025-06-16T12:42:10.654-04:00", "updated_at": "2025-07-03T19:16:06.511-04:00", "avatar": "https://secure.gravatar.com/avatar/fb9f1df004da4cef648f107884fd73b0.jpg?s=512&d=https%3A%2F%2Fa.slack-edge.com%2Fdf10d%2Fimg%2Favatars%2Fava_0001-512.png", "custom_css": null}, {"id": 1103, "slack_id": "U092BRDUVSL", "display_name": "Baraka Onserio", "bio": null, "projects_count": 0, "devlogs_count": 0, "votes_count": 0, "ships_count": 0, "projects": [], "coding_time_seconds": 0, "coding_time_seconds_today": 0, "balance": "You need to have a pocket watcher badge to view this.", "badges": [], "created_at": "2025-06-16T12:42:14.430-04:00", "updated_at": "2025-07-03T19:16:06.780-04:00", "avatar": "https://secure.gravatar.com/avatar/b060181029c4d9d2862c57afe0838d11.jpg?s=512&d=https%3A%2F%2Fa.slack-edge.com%2Fdf10d%2Fimg%2Favatars%2Fava_0022-512.png", "custom_css": null}, {"id": 1104, "slack_id": "U091GCT9RMZ", "display_name": "andrei1010", "bio": null, "projects_count": 1, "devlogs_count": 3, "votes_count": 1, "ships_count": 1, "projects": [{"id": 6162, "title": "PolarLearn", "devlogs_count": 3, "created_at": "2025-07-11T02:30:08.603-04:00"}], "coding_time_seconds": 241083, "coding_time_seconds_today": 0, "balance": "You need to have a pocket watcher badge to view this.", "badges": [{"name": "Maiden Voyage", "text": "you shipped your first project! the journey begins...", "icon": "\ud83d\udea2"}], "created_at": "2025-06-16T12:42:17.785-04:00", "updated_at": "2025-09-10T22:51:42.354-04:00", "avatar": "https://secure.gravatar.com/avatar/70bf6ea3550aa836213d26aacfefe989.jpg?s=512&d=https%3A%2F%2Fa.slack-edge.com%2Fdf10d%2Fimg%2Favatars%2Fava_0025-512.png", "custom_css": null}, {"id": 1105, "slack_id": "U01LJGMNB33", "display_name": "Srishti Gauraha", "bio": null, "projects_count": 0, "devlogs_count": 0, "votes_count": 0, "ships_count": 0, "projects": [], "coding_time_seconds": 0, "coding_time_seconds_today": 0, "balance": "You need to have a pocket watcher badge to view this.", "badges": [], "created_at": "2025-06-16T12:42:21.769-04:00", "updated_at": "2025-07-03T19:16:07.322-04:00", "avatar": "https://avatars.slack-edge.com/2025-06-16/9050544331606_67fb8476fb04bf2c188b_original.png", "custom_css": null}, {"id": 1106, "slack_id": "U092BRJT3PA", "display_name": "Ali Haider", "bio": null, "projects_count": 0, "devlogs_count": 0, "votes_count": 0, "ships_count": 0, "projects": [], "coding_time_seconds": 2616, "coding_time_seconds_today": 0, "balance": "You need to have a pocket watcher badge to view this.", "badges": [], "created_at": "2025-06-16T12:42:22.439-04:00", "updated_at": "2025-07-05T13:30:23.596-04:00", "avatar": "https://secure.gravatar.com/avatar/c0d385cecda61ba835724a1fad47705e.jpg?s=512&d=https%3A%2F%2Fa.slack-edge.com%2Fdf10d%2Fimg%2Favatars%2Fava_0012-512.png", "custom_css": null}, {"id": 1107, "slack_id": "U091MJC064D", "display_name": "Harshil", "bio": null, "projects_count": 0, "devlogs_count": 0, "votes_count": 0, "ships_count": 0, "projects": [], "coding_time_seconds": 306, "coding_time_seconds_today": 0, "balance": "You need to have a pocket watcher badge to view this.", "badges": [], "created_at": "2025-06-16T12:42:35.039-04:00", "updated_at": "2025-07-03T19:16:07.860-04:00", "avatar": "https://secure.gravatar.com/avatar/8a7535dcf268808514f32b2d5dfa9b0d.jpg?s=512&d=https%3A%2F%2Fa.slack-edge.com%2Fdf10d%2Fimg%2Favatars%2Fava_0020-512.png", "custom_css": null}, {"id": 1108, "slack_id": "U0921U58GPK", "display_name": "Nour Ben aissa", "bio": null, "projects_count": 0, "devlogs_count": 0, "votes_count": 0, "ships_count": 0, "projects": [], "coding_time_seconds": 0, "coding_time_seconds_today": 0, "balance": "You need to have a pocket watcher badge to view this.", "badges": [], "created_at": "2025-06-16T12:42:39.556-04:00", "updated_at": "2025-07-03T19:16:08.119-04:00", "avatar": "https://avatars.slack-edge.com/2025-06-16/9069972346369_978f4a151618f02927f5_original.png", "custom_css": null}, {"id": 1109, "slack_id": "U09181AAZ5M", "display_name": "malezjaa", "bio": null, "projects_count": 0, "devlogs_count": 0, "votes_count": 0, "ships_count": 0, "projects": [], "coding_time_seconds": 11729, "coding_time_seconds_today": 0, "balance": "You need to have a pocket watcher badge to view this.", "badges": [], "created_at": "2025-06-16T12:42:45.284-04:00", "updated_at": "2025-07-03T19:16:08.389-04:00", "avatar": "https://secure.gravatar.com/avatar/2fe3bb1bc7e227b6dfa6b48447aab93b.jpg?s=512&d=https%3A%2F%2Fa.slack-edge.com%2Fdf10d%2Fimg%2Favatars%2Fava_0024-512.png", "custom_css": null}, {"id": 1110, "slack_id": "U082RHXU45T", "display_name": "redScorpe", "bio": null, "projects_count": 0, "devlogs_count": 0, "votes_count": 0, "ships_count": 0, "projects": [], "coding_time_seconds": 958, "coding_time_seconds_today": 0, "balance": "You need to have a pocket watcher badge to view this.", "badges": [], "created_at": "2025-06-16T12:42:47.682-04:00", "updated_at": "2025-08-31T14:11:24.501-04:00", "avatar": "https://secure.gravatar.com/avatar/486cf4500be9409681fc64ac1f4f259d.jpg?s=512&d=https%3A%2F%2Fa.slack-edge.com%2Fdf10d%2Fimg%2Favatars%2Fava_0019-512.png", "custom_css": null}, {"id": 1111, "slack_id": "U091PQ74NG4", "display_name": "Jef Fasseur", "bio": null, "projects_count": 0, "devlogs_count": 0, "votes_count": 0, "ships_count": 0, "projects": [], "coding_time_seconds": 0, "coding_time_seconds_today": 0, "balance": "You need to have a pocket watcher badge to view this.", "badges": [], "created_at": "2025-06-16T12:42:56.829-04:00", "updated_at": "2025-07-03T19:16:08.922-04:00", "avatar": "https://secure.gravatar.com/avatar/6233c90df1b6c94b782acbd4c313081f.jpg?s=512&d=https%3A%2F%2Fa.slack-edge.com%2Fdf10d%2Fimg%2Favatars%2Fava_0004-512.png", "custom_css": null}, {"id": 1112, "slack_id": "U091PBH478A", "display_name": "itsadiz", "bio": null, "projects_count": 0, "devlogs_count": 0, "votes_count": 0, "ships_count": 0, "projects": [], "coding_time_seconds": 0, "coding_time_seconds_today": 0, "balance": "You need to have a pocket watcher badge to view this.", "badges": [], "created_at": "2025-06-16T12:43:00.240-04:00", "updated_at": "2025-07-03T19:16:09.194-04:00", "avatar": "https://secure.gravatar.com/avatar/74ba09efc20f8eef30b11d5658c5cb11.jpg?s=512&d=https%3A%2F%2Fa.slack-edge.com%2Fdf10d%2Fimg%2Favatars%2Fava_0020-512.png", "custom_css": null}, {"id": 1113, "slack_id": "U08051W4AMB", "display_name": "Mohab Mekkawi", "bio": null, "projects_count": 0, "devlogs_count": 0, "votes_count": 0, "ships_count": 0, "projects": [], "coding_time_seconds": 5653, "coding_time_seconds_today": 0, "balance": "You need to have a pocket watcher badge to view this.", "badges": [], "created_at": "2025-06-16T12:43:04.721-04:00", "updated_at": "2025-07-03T19:16:09.481-04:00", "avatar": "https://avatars.slack-edge.com/2024-11-10/8007932278418_5927361f8b5347ef97a2_original.jpg", "custom_css": null}, {"id": 1114, "slack_id": "U0921TQ8249", "display_name": "Swati Jha", "bio": null, "projects_count": 0, "devlogs_count": 0, "votes_count": 0, "ships_count": 0, "projects": [], "coding_time_seconds": 0, "coding_time_seconds_today": 0, "balance": "You need to have a pocket watcher badge to view this.", "badges": [], "created_at": "2025-06-16T12:43:08.311-04:00", "updated_at": "2025-07-03T19:16:09.743-04:00", "avatar": "https://secure.gravatar.com/avatar/9b9c353b5d63bb88f151512d6d4f858c.jpg?s=512&d=https%3A%2F%2Fa.slack-edge.com%2Fdf10d%2Fimg%2Favatars%2Fava_0014-512.png", "custom_css": null}, {"id": 1115, "slack_id": "U091PQ4RFQU", "display_name": "Aikithan G", "bio": null, "projects_count": 0, "devlogs_count": 0, "votes_count": 0, "ships_count": 0, "projects": [], "coding_time_seconds": 0, "coding_time_seconds_today": 0, "balance": "You need to have a pocket watcher badge to view this.", "badges": [], "created_at": "2025-06-16T12:43:09.759-04:00", "updated_at": "2025-07-03T19:16:10.017-04:00", "avatar": "https://avatars.slack-edge.com/2025-06-16/9057413095554_6e80e83823d8abf02335_original.png", "custom_css": null}, {"id": 1116, "slack_id": "U091GFLBYNA", "display_name": "Woodie", "bio": null, "projects_count": 1, "devlogs_count": 7, "votes_count": 4, "ships_count": 0, "projects": [{"id": 10534, "title": "AI Discord Favourite GIF Search", "devlogs_count": 7, "created_at": "2025-08-07T22:22:23.662-04:00"}], "coding_time_seconds": 179034, "coding_time_seconds_today": 0, "balance": "You need to have a pocket watcher badge to view this.", "badges": [], "created_at": "2025-06-16T12:43:14.391-04:00", "updated_at": "2025-08-25T07:33:15.808-04:00", "avatar": "https://secure.gravatar.com/avatar/467abda1c2e624fda6b3f9e0b1944492.jpg?s=512&d=https%3A%2F%2Fa.slack-edge.com%2Fdf10d%2Fimg%2Favatars%2Fava_0003-512.png", "custom_css": null}, {"id": 1117, "slack_id": "U092BRUMVKJ", "display_name": "Juan Manuel Martinez", "bio": null, "projects_count": 0, "devlogs_count": 0, "votes_count": 0, "ships_count": 0, "projects": [], "coding_time_seconds": 0, "coding_time_seconds_today": 0, "balance": "You need to have a pocket watcher badge to view this.", "badges": [], "created_at": "2025-06-16T12:43:20.734-04:00", "updated_at": "2025-07-03T19:16:10.571-04:00", "avatar": "https://secure.gravatar.com/avatar/bf5e2766d9b0e851512639c9d0e0757a.jpg?s=512&d=https%3A%2F%2Fa.slack-edge.com%2Fdf10d%2Fimg%2Favatars%2Fava_0003-512.png", "custom_css": null}, {"id": 1118, "slack_id": "U09182CUKC7", "display_name": "Amir Moumen", "bio": null, "projects_count": 0, "devlogs_count": 0, "votes_count": 0, "ships_count": 0, "projects": [], "coding_time_seconds": 72719, "coding_time_seconds_today": 0, "balance": "You need to have a pocket watcher badge to view this.", "badges": [], "created_at": "2025-06-16T12:43:23.501-04:00", "updated_at": "2025-07-03T19:16:10.840-04:00", "avatar": "https://avatars.slack-edge.com/2025-06-16/9042273526599_7bc7079ed109653f3d8f_original.jpg", "custom_css": null}, {"id": 1119, "slack_id": "U091GCTRMDZ", "display_name": "NaveenDA", "bio": null, "projects_count": 0, "devlogs_count": 0, "votes_count": 0, "ships_count": 0, "projects": [], "coding_time_seconds": 0, "coding_time_seconds_today": 0, "balance": "You need to have a pocket watcher badge to view this.", "badges": [], "created_at": "2025-06-16T12:43:37.390-04:00", "updated_at": "2025-07-03T19:16:11.105-04:00", "avatar": "https://secure.gravatar.com/avatar/6560cfcdb73f38e243c794d06605f57d.jpg?s=512&d=https%3A%2F%2Fa.slack-edge.com%2Fdf10d%2Fimg%2Favatars%2Fava_0023-512.png", "custom_css": null}, {"id": 1120, "slack_id": "U07LJP5UMNU", "display_name": "TomC333", "bio": null, "projects_count": 1, "devlogs_count": 0, "votes_count": 0, "ships_count": 0, "projects": [{"id": 216, "title": "Redison", "devlogs_count": 0, "created_at": "2025-06-16T15:43:26.764-04:00"}], "coding_time_seconds": 234617, "coding_time_seconds_today": 0, "balance": "You need to have a pocket watcher badge to view this.", "badges": [], "created_at": "2025-06-16T12:43:39.276-04:00", "updated_at": "2025-07-03T19:16:11.377-04:00", "avatar": "https://secure.gravatar.com/avatar/090ac2abf5a0c40d6d775a07c937fbf7.jpg?s=512&d=https%3A%2F%2Fa.slack-edge.com%2Fdf10d%2Fimg%2Favatars%2Fava_0021-512.png", "custom_css": null}], "pagination": {"page": 56, "pages": 1192, "count": 23827, "items": 20}}