{"users": [{"id": 11201, "slack_id": "U092B47HL5U", "display_name": "Saksham", "bio": null, "projects_count": 0, "devlogs_count": 0, "votes_count": 0, "ships_count": 0, "projects": [], "coding_time_seconds": 0, "coding_time_seconds_today": 0, "balance": "You need to have a pocket watcher badge to view this.", "badges": [], "created_at": "2025-06-22T00:49:20.874-04:00", "updated_at": "2025-07-03T19:58:54.912-04:00", "avatar": "https://avatars.slack-edge.com/2025-06-21/9084952479810_561905ddf2b172fdfc82_original.jpg", "custom_css": null}, {"id": 11202, "slack_id": "U0922B8EV3R", "display_name": "mannat", "bio": null, "projects_count": 0, "devlogs_count": 0, "votes_count": 0, "ships_count": 0, "projects": [], "coding_time_seconds": 0, "coding_time_seconds_today": 0, "balance": "You need to have a pocket watcher badge to view this.", "badges": [], "created_at": "2025-06-22T00:50:42.455-04:00", "updated_at": "2025-07-04T02:31:09.022-04:00", "avatar": "https://secure.gravatar.com/avatar/e971a4b987b501cfd79fe2226d95efc3.jpg?s=512&d=https%3A%2F%2Fa.slack-edge.com%2Fdf10d%2Fimg%2Favatars%2Fava_0011-512.png", "custom_css": null}, {"id": 11203, "slack_id": "U092B1TQGTY", "display_name": "Beau Smith", "bio": null, "projects_count": 1, "devlogs_count": 1, "votes_count": 0, "ships_count": 0, "projects": [{"id": 10320, "title": "Chattrix", "devlogs_count": 1, "created_at": "2025-08-05T21:50:54.611-04:00"}], "coding_time_seconds": 33625, "coding_time_seconds_today": 0, "balance": "You need to have a pocket watcher badge to view this.", "badges": [], "created_at": "2025-06-22T00:56:52.976-04:00", "updated_at": "2025-07-24T00:04:02.761-04:00", "avatar": "https://avatars.slack-edge.com/2025-06-21/9084959755362_755ca25e7bd511f4cee9_original.png", "custom_css": null}, {"id": 11204, "slack_id": "U08AHSGD7ST", "display_name": "mona", "bio": null, "projects_count": 3, "devlogs_count": 3, "votes_count": 39, "ships_count": 3, "projects": [{"id": 10094, "title": "Mona cravings ", "devlogs_count": 1, "created_at": "2025-08-04T00:59:21.271-04:00"}, {"id": 10110, "title": "Dream-travel-wishlist.", "devlogs_count": 1, "created_at": "2025-08-04T05:50:35.666-04:00"}, {"id": 11135, "title": "kdrama bossladies", "devlogs_count": 1, "created_at": "2025-08-13T11:54:21.076-04:00"}], "coding_time_seconds": 112223, "coding_time_seconds_today": 0, "balance": "You need to have a pocket watcher badge to view this.", "badges": [{"name": "Maiden Voyage", "text": "you shipped your first project! the journey begins...", "icon": "\ud83d\udea2"}], "created_at": "2025-06-22T01:02:35.241-04:00", "updated_at": "2025-09-10T22:56:46.756-04:00", "avatar": "https://avatars.slack-edge.com/2025-07-29/9293335845632_a8d61809a2b8f26469a8_original.jpg", "custom_css": null}, {"id": 11205, "slack_id": "U091TPS4NEB", "display_name": "Rodion Tabares", "bio": null, "projects_count": 0, "devlogs_count": 0, "votes_count": 0, "ships_count": 0, "projects": [], "coding_time_seconds": 0, "coding_time_seconds_today": 0, "balance": "You need to have a pocket watcher badge to view this.", "badges": [], "created_at": "2025-06-22T01:13:52.573-04:00", "updated_at": "2025-07-03T19:58:55.745-04:00", "avatar": "https://avatars.slack-edge.com/2025-06-21/9079181676966_79e44309de4cca1bc6fd_original.jpg", "custom_css": null}, {"id": 11206, "slack_id": "U092W00D42D", "display_name": "Basit", "bio": null, "projects_count": 0, "devlogs_count": 0, "votes_count": 0, "ships_count": 0, "projects": [], "coding_time_seconds": 4432, "coding_time_seconds_today": 0, "balance": "You need to have a pocket watcher badge to view this.", "badges": [], "created_at": "2025-06-22T01:15:54.335-04:00", "updated_at": "2025-07-03T19:58:56.020-04:00", "avatar": "https://avatars.slack-edge.com/2025-06-22/9084099297765_257f963773960bc60898_original.jpg", "custom_css": null}, {"id": 11207, "slack_id": "U092B59L6QN", "display_name": "Tian Yin Lim", "bio": null, "projects_count": 0, "devlogs_count": 0, "votes_count": 0, "ships_count": 0, "projects": [], "coding_time_seconds": 490, "coding_time_seconds_today": 0, "balance": "You need to have a pocket watcher badge to view this.", "badges": [], "created_at": "2025-06-22T01:19:17.336-04:00", "updated_at": "2025-07-03T19:58:56.276-04:00", "avatar": "https://secure.gravatar.com/avatar/9f0c3730dde0016a6de039c0fdba3e7c.jpg?s=512&d=https%3A%2F%2Fa.slack-edge.com%2Fdf10d%2Fimg%2Favatars%2Fava_0012-512.png", "custom_css": null}, {"id": 11208, "slack_id": "U092HEMER2Q", "display_name": "Pavani", "bio": null, "projects_count": 0, "devlogs_count": 0, "votes_count": 0, "ships_count": 0, "projects": [], "coding_time_seconds": 0, "coding_time_seconds_today": 0, "balance": "You need to have a pocket watcher badge to view this.", "badges": [], "created_at": "2025-06-22T01:37:39.365-04:00", "updated_at": "2025-07-03T19:58:56.538-04:00", "avatar": "https://secure.gravatar.com/avatar/9c69e174bc84f92a500dd0920dac0b06.jpg?s=512&d=https%3A%2F%2Fa.slack-edge.com%2Fdf10d%2Fimg%2Favatars%2Fava_0026-512.png", "custom_css": null}, {"id": 11209, "slack_id": "U091C9UHSFP", "display_name": "Gabrysia", "bio": null, "projects_count": 0, "devlogs_count": 0, "votes_count": 0, "ships_count": 0, "projects": [], "coding_time_seconds": 0, "coding_time_seconds_today": 0, "balance": "You need to have a pocket watcher badge to view this.", "badges": [], "created_at": "2025-06-22T01:48:17.375-04:00", "updated_at": "2025-07-06T08:12:04.326-04:00", "avatar": "https://secure.gravatar.com/avatar/af8fc09ca07ee8a3555421566fb5e113.jpg?s=512&d=https%3A%2F%2Fa.slack-edge.com%2Fdf10d%2Fimg%2Favatars%2Fava_0003-512.png", "custom_css": null}, {"id": 11210, "slack_id": "U092HF58E2G", "display_name": "Aastha Bhadarka", "bio": null, "projects_count": 0, "devlogs_count": 0, "votes_count": 0, "ships_count": 0, "projects": [], "coding_time_seconds": 4867, "coding_time_seconds_today": 0, "balance": "You need to have a pocket watcher badge to view this.", "badges": [], "created_at": "2025-06-22T01:55:04.733-04:00", "updated_at": "2025-07-03T19:58:56.951-04:00", "avatar": "https://secure.gravatar.com/avatar/cdf6031f116e417ebbbb74136e699ba7.jpg?s=512&d=https%3A%2F%2Fa.slack-edge.com%2Fdf10d%2Fimg%2Favatars%2Fava_0019-512.png", "custom_css": null}, {"id": 11211, "slack_id": "U092H0NC4SW", "display_name": "Dash Skndash", "bio": null, "projects_count": 0, "devlogs_count": 0, "votes_count": 0, "ships_count": 0, "projects": [], "coding_time_seconds": 0, "coding_time_seconds_today": 0, "balance": "You need to have a pocket watcher badge to view this.", "badges": [], "created_at": "2025-06-22T01:59:37.975-04:00", "updated_at": "2025-07-03T19:58:57.213-04:00", "avatar": "https://avatars.slack-edge.com/2025-06-22/9070472069607_210dcda27386448a54dd_original.jpg", "custom_css": null}, {"id": 11212, "slack_id": "U09355LUKJL", "display_name": "sabin shrestha", "bio": null, "projects_count": 0, "devlogs_count": 0, "votes_count": 0, "ships_count": 0, "projects": [], "coding_time_seconds": 0, "coding_time_seconds_today": 0, "balance": "You need to have a pocket watcher badge to view this.", "badges": [], "created_at": "2025-06-22T02:10:27.108-04:00", "updated_at": "2025-07-03T19:58:57.483-04:00", "avatar": "https://secure.gravatar.com/avatar/964d1c047b527a7bfc6d8cd07430c2a7.jpg?s=512&d=https%3A%2F%2Fa.slack-edge.com%2Fdf10d%2Fimg%2Favatars%2Fava_0010-512.png", "custom_css": null}, {"id": 11213, "slack_id": "U0922E5BYB1", "display_name": "miirshe", "bio": null, "projects_count": 0, "devlogs_count": 0, "votes_count": 0, "ships_count": 0, "projects": [], "coding_time_seconds": 144849, "coding_time_seconds_today": 0, "balance": "You need to have a pocket watcher badge to view this.", "badges": [], "created_at": "2025-06-22T02:12:41.307-04:00", "updated_at": "2025-07-05T02:59:44.831-04:00", "avatar": "https://secure.gravatar.com/avatar/f7f234b38f4670fa8cf056264f29f0ce.jpg?s=512&d=https%3A%2F%2Fa.slack-edge.com%2Fdf10d%2Fimg%2Favatars%2Fava_0025-512.png", "custom_css": null}, {"id": 11214, "slack_id": "U0904T3T5K2", "display_name": "Ibrahim Usmani", "bio": null, "projects_count": 0, "devlogs_count": 0, "votes_count": 0, "ships_count": 0, "projects": [], "coding_time_seconds": 0, "coding_time_seconds_today": 0, "balance": "You need to have a pocket watcher badge to view this.", "badges": [], "created_at": "2025-06-22T02:13:11.930-04:00", "updated_at": "2025-07-03T19:58:58.016-04:00", "avatar": "https://secure.gravatar.com/avatar/927abbce0d418ce3f6fdde91c29bd948.jpg?s=512&d=https%3A%2F%2Fa.slack-edge.com%2Fdf10d%2Fimg%2Favatars%2Fava_0005-512.png", "custom_css": null}, {"id": 11215, "slack_id": "U092G4F20F7", "display_name": "Harsh Yadav", "bio": null, "projects_count": 0, "devlogs_count": 0, "votes_count": 0, "ships_count": 0, "projects": [], "coding_time_seconds": 38332, "coding_time_seconds_today": 0, "balance": "You need to have a pocket watcher badge to view this.", "badges": [], "created_at": "2025-06-22T02:14:04.924-04:00", "updated_at": "2025-07-03T19:58:58.287-04:00", "avatar": "https://secure.gravatar.com/avatar/b84b75ac50a3e2c80a8a432aa2787df5.jpg?s=512&d=https%3A%2F%2Fa.slack-edge.com%2Fdf10d%2Fimg%2Favatars%2Fava_0018-512.png", "custom_css": null}, {"id": 11216, "slack_id": "U092B7BUAUE", "display_name": "yuran1811", "bio": null, "projects_count": 1, "devlogs_count": 1, "votes_count": 0, "ships_count": 0, "projects": [{"id": 2769, "title": "Color Compressing", "devlogs_count": 1, "created_at": "2025-06-22T02:55:38.850-04:00"}], "coding_time_seconds": 9996, "coding_time_seconds_today": 0, "balance": "You need to have a pocket watcher badge to view this.", "badges": [], "created_at": "2025-06-22T02:14:34.707-04:00", "updated_at": "2025-07-03T19:58:58.565-04:00", "avatar": "https://secure.gravatar.com/avatar/4671e6bb3bf0ef88c06bb2eca55cad05.jpg?s=512&d=https%3A%2F%2Fa.slack-edge.com%2Fdf10d%2Fimg%2Favatars%2Fava_0011-512.png", "custom_css": null}, {"id": 11217, "slack_id": "U092HG50C12", "display_name": "Dhaqane-00", "bio": null, "projects_count": 0, "devlogs_count": 0, "votes_count": 0, "ships_count": 0, "projects": [], "coding_time_seconds": 338884, "coding_time_seconds_today": 0, "balance": "You need to have a pocket watcher badge to view this.", "badges": [], "created_at": "2025-06-22T02:18:18.113-04:00", "updated_at": "2025-07-03T19:58:58.824-04:00", "avatar": "https://secure.gravatar.com/avatar/f7e16bb77e53a1048e07b3b95d0b2118.jpg?s=512&d=https%3A%2F%2Fa.slack-edge.com%2Fdf10d%2Fimg%2Favatars%2Fava_0021-512.png", "custom_css": null}, {"id": 11218, "slack_id": "U092W2J0JKT", "display_name": "Mustaf Abubakar Abdullahi", "bio": null, "projects_count": 0, "devlogs_count": 0, "votes_count": 0, "ships_count": 0, "projects": [], "coding_time_seconds": 0, "coding_time_seconds_today": 0, "balance": "You need to have a pocket watcher badge to view this.", "badges": [], "created_at": "2025-06-22T02:18:19.386-04:00", "updated_at": "2025-07-03T19:58:59.080-04:00", "avatar": "https://avatars.slack-edge.com/2025-06-21/9107208001648_2e8ce5189c0b29bf734a_original.png", "custom_css": null}, {"id": 11219, "slack_id": "U092HG4BRA8", "display_name": "Ritika Parmar", "bio": null, "projects_count": 0, "devlogs_count": 0, "votes_count": 0, "ships_count": 0, "projects": [], "coding_time_seconds": 0, "coding_time_seconds_today": 0, "balance": "You need to have a pocket watcher badge to view this.", "badges": [], "created_at": "2025-06-22T02:20:09.792-04:00", "updated_at": "2025-07-03T19:58:59.347-04:00", "avatar": "https://secure.gravatar.com/avatar/b80e957011ab97e9cb6728ddb60862bf.jpg?s=512&d=https%3A%2F%2Fa.slack-edge.com%2Fdf10d%2Fimg%2Favatars%2Fava_0018-512.png", "custom_css": null}, {"id": 11220, "slack_id": "U09354ZSAUQ", "display_name": "minhaz", "bio": null, "projects_count": 0, "devlogs_count": 0, "votes_count": 0, "ships_count": 0, "projects": [], "coding_time_seconds": 0, "coding_time_seconds_today": 0, "balance": "You need to have a pocket watcher badge to view this.", "badges": [], "created_at": "2025-06-22T02:20:58.376-04:00", "updated_at": "2025-07-03T19:58:59.617-04:00", "avatar": "https://secure.gravatar.com/avatar/03799d4ab227844a25f01c032d309a49.jpg?s=512&d=https%3A%2F%2Fa.slack-edge.com%2Fdf10d%2Fimg%2Favatars%2Fava_0007-512.png", "custom_css": null}], "pagination": {"page": 561, "pages": 1192, "count": 23828, "items": 20}}