{"users": [{"id": 11221, "slack_id": "U093562GY3S", "display_name": "Daniel", "bio": null, "projects_count": 0, "devlogs_count": 0, "votes_count": 0, "ships_count": 0, "projects": [], "coding_time_seconds": 0, "coding_time_seconds_today": 0, "balance": "You need to have a pocket watcher badge to view this.", "badges": [], "created_at": "2025-06-22T02:23:45.342-04:00", "updated_at": "2025-07-04T20:11:56.054-04:00", "avatar": "https://secure.gravatar.com/avatar/21a14809d4835687aaa400234295ea32.jpg?s=512&d=https%3A%2F%2Fa.slack-edge.com%2Fdf10d%2Fimg%2Favatars%2Fava_0002-512.png", "custom_css": null}, {"id": 11222, "slack_id": "U092W2WFJQZ", "display_name": "Tanishq Gupta", "bio": null, "projects_count": 2, "devlogs_count": 1, "votes_count": 1, "ships_count": 0, "projects": [{"id": 3847, "title": "StarkSeek Website", "devlogs_count": 0, "created_at": "2025-06-26T02:01:30.594-04:00"}, {"id": 8417, "title": "Marvel Tic-Tac-Toe", "devlogs_count": 1, "created_at": "2025-07-27T02:19:52.058-04:00"}], "coding_time_seconds": 78936, "coding_time_seconds_today": 0, "balance": "You need to have a pocket watcher badge to view this.", "badges": [], "created_at": "2025-06-22T02:36:43.187-04:00", "updated_at": "2025-07-03T19:59:00.024-04:00", "avatar": "https://secure.gravatar.com/avatar/99a03364ce9d73973b82ff297f4610ac.jpg?s=512&d=https%3A%2F%2Fa.slack-edge.com%2Fdf10d%2Fimg%2Favatars%2Fava_0000-512.png", "custom_css": null}, {"id": 11223, "slack_id": "U0922F76LPR", "display_name": "Piyush Kumar", "bio": null, "projects_count": 0, "devlogs_count": 0, "votes_count": 0, "ships_count": 0, "projects": [], "coding_time_seconds": 317689, "coding_time_seconds_today": 0, "balance": "You need to have a pocket watcher badge to view this.", "badges": [], "created_at": "2025-06-22T02:38:56.595-04:00", "updated_at": "2025-08-11T05:12:11.471-04:00", "avatar": "https://secure.gravatar.com/avatar/108b362cd35e1394ff79afa2537239fe.jpg?s=512&d=https%3A%2F%2Fa.slack-edge.com%2Fdf10d%2Fimg%2Favatars%2Fava_0005-512.png", "custom_css": null}, {"id": 11224, "slack_id": "U09356L11NC", "display_name": "skyyy", "bio": null, "projects_count": 0, "devlogs_count": 0, "votes_count": 0, "ships_count": 0, "projects": [], "coding_time_seconds": 127, "coding_time_seconds_today": 0, "balance": "You need to have a pocket watcher badge to view this.", "badges": [], "created_at": "2025-06-22T02:39:12.283-04:00", "updated_at": "2025-07-05T14:14:00.686-04:00", "avatar": "https://secure.gravatar.com/avatar/507bc552ba8c41670e126f004236028b.jpg?s=512&d=https%3A%2F%2Fa.slack-edge.com%2Fdf10d%2Fimg%2Favatars%2Fava_0012-512.png", "custom_css": null}, {"id": 11225, "slack_id": "U0922F2BU8P", "display_name": "Bastian Kramer", "bio": null, "projects_count": 0, "devlogs_count": 0, "votes_count": 0, "ships_count": 0, "projects": [], "coding_time_seconds": 0, "coding_time_seconds_today": 0, "balance": "You need to have a pocket watcher badge to view this.", "badges": [], "created_at": "2025-06-22T02:40:13.168-04:00", "updated_at": "2025-07-03T19:59:00.750-04:00", "avatar": "https://secure.gravatar.com/avatar/190aee04529f523310f644c33b865d7e.jpg?s=512&d=https%3A%2F%2Fa.slack-edge.com%2Fdf10d%2Fimg%2Favatars%2Fava_0022-512.png", "custom_css": null}, {"id": 11226, "slack_id": "U09191H98QP", "display_name": "Adela", "bio": null, "projects_count": 0, "devlogs_count": 0, "votes_count": 0, "ships_count": 0, "projects": [], "coding_time_seconds": 0, "coding_time_seconds_today": 0, "balance": "You need to have a pocket watcher badge to view this.", "badges": [], "created_at": "2025-06-22T02:45:56.863-04:00", "updated_at": "2025-07-04T02:31:10.651-04:00", "avatar": "https://secure.gravatar.com/avatar/6e15ae7cff6b39ff64dee5984be265e4.jpg?s=512&d=https%3A%2F%2Fa.slack-edge.com%2Fdf10d%2Fimg%2Favatars%2Fava_0019-512.png", "custom_css": null}, {"id": 11227, "slack_id": "U092H28M2E6", "display_name": "Ixtiyorxon Xabibulloyev", "bio": null, "projects_count": 0, "devlogs_count": 0, "votes_count": 0, "ships_count": 0, "projects": [], "coding_time_seconds": 0, "coding_time_seconds_today": 0, "balance": "You need to have a pocket watcher badge to view this.", "badges": [], "created_at": "2025-06-22T02:46:50.638-04:00", "updated_at": "2025-07-03T19:59:01.191-04:00", "avatar": "https://secure.gravatar.com/avatar/0a9d43839c5e12a8ab815b7453234d4d.jpg?s=512&d=https%3A%2F%2Fa.slack-edge.com%2Fdf10d%2Fimg%2Favatars%2Fava_0010-512.png", "custom_css": null}, {"id": 11228, "slack_id": "U092G5HNHM3", "display_name": "jivas", "bio": null, "projects_count": 0, "devlogs_count": 0, "votes_count": 0, "ships_count": 0, "projects": [], "coding_time_seconds": 0, "coding_time_seconds_today": 0, "balance": "You need to have a pocket watcher badge to view this.", "badges": [], "created_at": "2025-06-22T02:48:32.446-04:00", "updated_at": "2025-07-04T20:11:56.680-04:00", "avatar": "https://secure.gravatar.com/avatar/e40e6611ecf399f6b9dded67e1c359a2.jpg?s=512&d=https%3A%2F%2Fa.slack-edge.com%2Fdf10d%2Fimg%2Favatars%2Fava_0024-512.png", "custom_css": null}, {"id": 11229, "slack_id": "U09356U6PUY", "display_name": "lohith", "bio": null, "projects_count": 2, "devlogs_count": 3, "votes_count": 0, "ships_count": 0, "projects": [{"id": 3017, "title": "Quote Generator", "devlogs_count": 0, "created_at": "2025-06-22T19:42:37.680-04:00"}, {"id": 3408, "title": "DevHub", "devlogs_count": 3, "created_at": "2025-06-24T05:54:04.699-04:00"}], "coding_time_seconds": 121237, "coding_time_seconds_today": 0, "balance": "You need to have a pocket watcher badge to view this.", "badges": [], "created_at": "2025-06-22T02:49:13.445-04:00", "updated_at": "2025-07-04T08:27:26.482-04:00", "avatar": "https://secure.gravatar.com/avatar/a532a20b0dbe71a0ab48acf8c701a4ea.jpg?s=512&d=https%3A%2F%2Fa.slack-edge.com%2Fdf10d%2Fimg%2Favatars%2Fava_0023-512.png", "custom_css": null}, {"id": 11230, "slack_id": "U092B8Y4S0N", "display_name": "Nadette", "bio": null, "projects_count": 0, "devlogs_count": 0, "votes_count": 0, "ships_count": 0, "projects": [], "coding_time_seconds": 0, "coding_time_seconds_today": 0, "balance": "You need to have a pocket watcher badge to view this.", "badges": [], "created_at": "2025-06-22T02:54:26.887-04:00", "updated_at": "2025-07-03T19:59:01.748-04:00", "avatar": "https://secure.gravatar.com/avatar/ce1a0a750f83b861ad89198685569ca4.jpg?s=512&d=https%3A%2F%2Fa.slack-edge.com%2Fdf10d%2Fimg%2Favatars%2Fava_0022-512.png", "custom_css": null}, {"id": 11231, "slack_id": "U092HHEJ1C4", "display_name": "Wehner's", "bio": null, "projects_count": 0, "devlogs_count": 0, "votes_count": 0, "ships_count": 0, "projects": [], "coding_time_seconds": 0, "coding_time_seconds_today": 0, "balance": "You need to have a pocket watcher badge to view this.", "badges": [], "created_at": "2025-06-22T02:55:02.846-04:00", "updated_at": "2025-07-03T22:01:52.931-04:00", "avatar": "https://secure.gravatar.com/avatar/556e7a5226f88f591c184ec8dc7a4909.jpg?s=512&d=https%3A%2F%2Fa.slack-edge.com%2Fdf10d%2Fimg%2Favatars%2Fava_0026-512.png", "custom_css": null}, {"id": 11232, "slack_id": "U092HHLTUJY", "display_name": "umi", "bio": null, "projects_count": 0, "devlogs_count": 0, "votes_count": 0, "ships_count": 0, "projects": [], "coding_time_seconds": 8508, "coding_time_seconds_today": 0, "balance": "You need to have a pocket watcher badge to view this.", "badges": [], "created_at": "2025-06-22T02:59:17.778-04:00", "updated_at": "2025-08-27T08:46:28.893-04:00", "avatar": "https://secure.gravatar.com/avatar/e22ddf95c41b8746d16b66b7c88d0f61.jpg?s=512&d=https%3A%2F%2Fa.slack-edge.com%2Fdf10d%2Fimg%2Favatars%2Fava_0024-512.png", "custom_css": null}, {"id": 11233, "slack_id": "U080Q0WPLG1", "display_name": "Chirag Bhalla", "bio": null, "projects_count": 0, "devlogs_count": 0, "votes_count": 0, "ships_count": 0, "projects": [], "coding_time_seconds": 0, "coding_time_seconds_today": 0, "balance": "You need to have a pocket watcher badge to view this.", "badges": [], "created_at": "2025-06-22T03:02:52.733-04:00", "updated_at": "2025-07-03T19:59:02.426-04:00", "avatar": "https://avatars.slack-edge.com/2024-11-11/8011258068819_1efced761720d08c9920_original.png", "custom_css": null}, {"id": 11234, "slack_id": "U092G62H8GM", "display_name": "Nurain", "bio": null, "projects_count": 0, "devlogs_count": 0, "votes_count": 0, "ships_count": 0, "projects": [], "coding_time_seconds": 0, "coding_time_seconds_today": 0, "balance": "You need to have a pocket watcher badge to view this.", "badges": [], "created_at": "2025-06-22T03:11:49.809-04:00", "updated_at": "2025-07-04T02:31:11.272-04:00", "avatar": "https://secure.gravatar.com/avatar/65330dcd8eb21e5271ffe57ea8291486.jpg?s=512&d=https%3A%2F%2Fa.slack-edge.com%2Fdf10d%2Fimg%2Favatars%2Fava_0017-512.png", "custom_css": null}, {"id": 11235, "slack_id": "U092B9CSHD4", "display_name": "Mitali Prajapat", "bio": null, "projects_count": 3, "devlogs_count": 4, "votes_count": 0, "ships_count": 0, "projects": [{"id": 3102, "title": "Simple calculartor", "devlogs_count": 1, "created_at": "2025-06-23T05:22:45.151-04:00"}, {"id": 3391, "title": "Pattern-Python", "devlogs_count": 1, "created_at": "2025-06-24T04:16:24.258-04:00"}, {"id": 3731, "title": "dice flip", "devlogs_count": 2, "created_at": "2025-06-25T12:22:49.069-04:00"}], "coding_time_seconds": 91808, "coding_time_seconds_today": 0, "balance": "You need to have a pocket watcher badge to view this.", "badges": [], "created_at": "2025-06-22T03:15:00.848-04:00", "updated_at": "2025-07-03T19:59:02.848-04:00", "avatar": "https://secure.gravatar.com/avatar/3cf4cce7c0577b66b298acbc438de131.jpg?s=512&d=https%3A%2F%2Fa.slack-edge.com%2Fdf10d%2Fimg%2Favatars%2Fava_0024-512.png", "custom_css": null}, {"id": 11236, "slack_id": "U092B9LJE3G", "display_name": "umi", "bio": null, "projects_count": 0, "devlogs_count": 0, "votes_count": 0, "ships_count": 0, "projects": [], "coding_time_seconds": 0, "coding_time_seconds_today": 0, "balance": "You need to have a pocket watcher badge to view this.", "badges": [], "created_at": "2025-06-22T03:20:02.611-04:00", "updated_at": "2025-07-04T02:31:11.460-04:00", "avatar": "https://secure.gravatar.com/avatar/6605fd4240f0fba79ba216deb8cdc4bd.jpg?s=512&d=https%3A%2F%2Fa.slack-edge.com%2Fdf10d%2Fimg%2Favatars%2Fava_0015-512.png", "custom_css": null}, {"id": 11237, "slack_id": "U092CFK2LJG", "display_name": "Adarsh", "bio": null, "projects_count": 3, "devlogs_count": 7, "votes_count": 20, "ships_count": 2, "projects": [{"id": 11890, "title": "Ekaant Landing Page", "devlogs_count": 1, "created_at": "2025-08-20T19:14:49.023-04:00"}, {"id": 12148, "title": "Vison2Web", "devlogs_count": 1, "created_at": "2025-08-23T16:03:21.614-04:00"}, {"id": 4287, "title": "DSA Explorer", "devlogs_count": 4, "created_at": "2025-06-28T17:07:32.136-04:00"}], "coding_time_seconds": 304467, "coding_time_seconds_today": 17442, "balance": "You need to have a pocket watcher badge to view this.", "badges": [{"name": "Maiden Voyage", "text": "you shipped your first project! the journey begins...", "icon": "\ud83d\udea2"}], "created_at": "2025-06-22T03:21:20.682-04:00", "updated_at": "2025-09-10T22:56:47.655-04:00", "avatar": "https://secure.gravatar.com/avatar/360c2e7be10b68853615b76921fd62c5.jpg?s=512&d=https%3A%2F%2Fa.slack-edge.com%2Fdf10d%2Fimg%2Favatars%2Fava_0014-512.png", "custom_css": null}, {"id": 11238, "slack_id": "U092BACTG30", "display_name": "Stavros", "bio": null, "projects_count": 0, "devlogs_count": 0, "votes_count": 0, "ships_count": 0, "projects": [], "coding_time_seconds": 0, "coding_time_seconds_today": 0, "balance": "You need to have a pocket watcher badge to view this.", "badges": [], "created_at": "2025-06-22T03:32:08.953-04:00", "updated_at": "2025-07-03T19:59:03.512-04:00", "avatar": "https://secure.gravatar.com/avatar/6d889528ea4cc518ca17cfe7e1837530.jpg?s=512&d=https%3A%2F%2Fa.slack-edge.com%2Fdf10d%2Fimg%2Favatars%2Fava_0010-512.png", "custom_css": null}, {"id": 11239, "slack_id": "U09358M1464", "display_name": "Sujal Gupta", "bio": null, "projects_count": 0, "devlogs_count": 0, "votes_count": 0, "ships_count": 0, "projects": [], "coding_time_seconds": 0, "coding_time_seconds_today": 0, "balance": "You need to have a pocket watcher badge to view this.", "badges": [], "created_at": "2025-06-22T03:34:02.179-04:00", "updated_at": "2025-07-04T02:31:11.766-04:00", "avatar": "https://secure.gravatar.com/avatar/a75cbd6fe576748e3250c04fbf55a14d.jpg?s=512&d=https%3A%2F%2Fa.slack-edge.com%2Fdf10d%2Fimg%2Favatars%2Fava_0003-512.png", "custom_css": null}, {"id": 11240, "slack_id": "U092BAQA43Y", "display_name": "nikhilhun", "bio": null, "projects_count": 0, "devlogs_count": 0, "votes_count": 0, "ships_count": 0, "projects": [], "coding_time_seconds": 0, "coding_time_seconds_today": 0, "balance": "You need to have a pocket watcher badge to view this.", "badges": [], "created_at": "2025-06-22T03:40:28.494-04:00", "updated_at": "2025-07-03T19:59:03.989-04:00", "avatar": "https://secure.gravatar.com/avatar/4ba191f5e8f94f54af6ff80dbc9ee72d.jpg?s=512&d=https%3A%2F%2Fa.slack-edge.com%2Fdf10d%2Fimg%2Favatars%2Fava_0019-512.png", "custom_css": null}], "pagination": {"page": 562, "pages": 1192, "count": 23828, "items": 20}}