{"users": [{"id": 11241, "slack_id": "U092H47A49Y", "display_name": "Aman Kukna", "bio": null, "projects_count": 0, "devlogs_count": 0, "votes_count": 0, "ships_count": 0, "projects": [], "coding_time_seconds": 0, "coding_time_seconds_today": 0, "balance": "You need to have a pocket watcher badge to view this.", "badges": [], "created_at": "2025-06-22T03:42:11.230-04:00", "updated_at": "2025-07-03T19:59:04.254-04:00", "avatar": "https://secure.gravatar.com/avatar/12f8d2a1f0998c4e61a186d3fbab249e.jpg?s=512&d=https%3A%2F%2Fa.slack-edge.com%2Fdf10d%2Fimg%2Favatars%2Fava_0007-512.png", "custom_css": null}, {"id": 11242, "slack_id": "U08Q86ASCG7", "display_name": "Anirudhya Ghosh", "bio": null, "projects_count": 3, "devlogs_count": 0, "votes_count": 0, "ships_count": 0, "projects": [{"id": 2785, "title": "Home Lab Setup", "devlogs_count": 0, "created_at": "2025-06-22T04:21:24.980-04:00"}, {"id": 2793, "title": "Forntend", "devlogs_count": 0, "created_at": "2025-06-22T04:36:23.501-04:00"}, {"id": 2783, "title": "Learning Ai ML", "devlogs_count": 0, "created_at": "2025-06-22T04:20:06.258-04:00"}], "coding_time_seconds": 74996, "coding_time_seconds_today": 0, "balance": "You need to have a pocket watcher badge to view this.", "badges": [], "created_at": "2025-06-22T03:46:15.995-04:00", "updated_at": "2025-07-03T19:59:04.527-04:00", "avatar": "https://secure.gravatar.com/avatar/779d73d03fcd12f4f016f10990832c99.jpg?s=512&d=https%3A%2F%2Fa.slack-edge.com%2Fdf10d%2Fimg%2Favatars%2Fava_0016-512.png", "custom_css": null}, {"id": 11243, "slack_id": "U092W4HQZG9", "display_name": "Vipul Tyagi", "bio": null, "projects_count": 0, "devlogs_count": 0, "votes_count": 0, "ships_count": 0, "projects": [], "coding_time_seconds": 0, "coding_time_seconds_today": 0, "balance": "You need to have a pocket watcher badge to view this.", "badges": [], "created_at": "2025-06-22T03:53:09.280-04:00", "updated_at": "2025-07-03T19:59:04.785-04:00", "avatar": "https://avatars.slack-edge.com/2025-06-22/9078537032355_8efac330bd1572216d76_original.jpg", "custom_css": null}, {"id": 11244, "slack_id": "U092HKU7P0U", "display_name": "Meet", "bio": null, "projects_count": 0, "devlogs_count": 0, "votes_count": 0, "ships_count": 0, "projects": [], "coding_time_seconds": 0, "coding_time_seconds_today": 0, "balance": "You need to have a pocket watcher badge to view this.", "badges": [], "created_at": "2025-06-22T03:54:33.539-04:00", "updated_at": "2025-07-03T19:59:05.061-04:00", "avatar": "https://secure.gravatar.com/avatar/5e4b9d539bb9e536123adb3b830bf18a.jpg?s=512&d=https%3A%2F%2Fa.slack-edge.com%2Fdf10d%2Fimg%2Favatars%2Fava_0019-512.png", "custom_css": null}, {"id": 11245, "slack_id": "U0921HUG4J3", "display_name": "itspanditlucky01", "bio": null, "projects_count": 0, "devlogs_count": 0, "votes_count": 0, "ships_count": 0, "projects": [], "coding_time_seconds": 0, "coding_time_seconds_today": 0, "balance": "You need to have a pocket watcher badge to view this.", "badges": [], "created_at": "2025-06-22T03:59:39.593-04:00", "updated_at": "2025-07-03T19:59:05.326-04:00", "avatar": "https://avatars.slack-edge.com/2025-06-22/9107328586784_820822ded2c4a6245556_original.jpg", "custom_css": null}, {"id": 11246, "slack_id": "U0919SZQAJK", "display_name": "Tayo", "bio": null, "projects_count": 0, "devlogs_count": 0, "votes_count": 0, "ships_count": 0, "projects": [], "coding_time_seconds": 0, "coding_time_seconds_today": 0, "balance": "You need to have a pocket watcher badge to view this.", "badges": [], "created_at": "2025-06-22T04:00:34.100-04:00", "updated_at": "2025-07-03T19:59:05.598-04:00", "avatar": "https://secure.gravatar.com/avatar/d8007e91d3e9d94b31f5bf17289d68a5.jpg?s=512&d=https%3A%2F%2Fa.slack-edge.com%2Fdf10d%2Fimg%2Favatars%2Fava_0026-512.png", "custom_css": null}, {"id": 11247, "slack_id": "U082JLRV4F3", "display_name": "Aditya", "bio": null, "projects_count": 0, "devlogs_count": 1, "votes_count": 0, "ships_count": 0, "projects": [], "coding_time_seconds": 562959, "coding_time_seconds_today": 0, "balance": "You need to have a pocket watcher badge to view this.", "badges": [], "created_at": "2025-06-22T04:01:43.774-04:00", "updated_at": "2025-09-15T09:06:50.515-04:00", "avatar": "https://avatars.slack-edge.com/2025-06-16/9067580044065_dc9a7800b3ebe1fe8997_original.jpg", "custom_css": null}, {"id": 11248, "slack_id": "U0922JGCDFZ", "display_name": "Varun Kumar", "bio": null, "projects_count": 0, "devlogs_count": 0, "votes_count": 0, "ships_count": 0, "projects": [], "coding_time_seconds": 204184, "coding_time_seconds_today": 0, "balance": "You need to have a pocket watcher badge to view this.", "badges": [], "created_at": "2025-06-22T04:16:13.853-04:00", "updated_at": "2025-07-27T02:17:12.057-04:00", "avatar": "https://avatars.slack-edge.com/2025-06-22/9098258175025_fd174129047c444fa9c2_original.jpg", "custom_css": null}, {"id": 11249, "slack_id": "U092AGL5MA7", "display_name": "Apurv", "bio": null, "projects_count": 0, "devlogs_count": 0, "votes_count": 0, "ships_count": 0, "projects": [], "coding_time_seconds": 240, "coding_time_seconds_today": 0, "balance": "You need to have a pocket watcher badge to view this.", "badges": [], "created_at": "2025-06-22T04:17:28.713-04:00", "updated_at": "2025-07-06T02:13:55.512-04:00", "avatar": "https://secure.gravatar.com/avatar/11720abd52315690a15da58c7a5c2ffb.jpg?s=512&d=https%3A%2F%2Fa.slack-edge.com%2Fdf10d%2Fimg%2Favatars%2Fava_0025-512.png", "custom_css": null}, {"id": 11250, "slack_id": "U092AGKSASF", "display_name": "RainPauL", "bio": null, "projects_count": 0, "devlogs_count": 0, "votes_count": 0, "ships_count": 0, "projects": [], "coding_time_seconds": 1, "coding_time_seconds_today": 0, "balance": "You need to have a pocket watcher badge to view this.", "badges": [], "created_at": "2025-06-22T04:19:04.897-04:00", "updated_at": "2025-07-03T19:59:06.580-04:00", "avatar": "https://secure.gravatar.com/avatar/df4c123350aa9dc540c21dacce0e1719.jpg?s=512&d=https%3A%2F%2Fa.slack-edge.com%2Fdf10d%2Fimg%2Favatars%2Fava_0011-512.png", "custom_css": null}, {"id": 11251, "slack_id": "U091JFX8JF9", "display_name": "\u771f\u7530\u60a0\u5e0c", "bio": null, "projects_count": 0, "devlogs_count": 0, "votes_count": 0, "ships_count": 0, "projects": [], "coding_time_seconds": 0, "coding_time_seconds_today": 0, "balance": "You need to have a pocket watcher badge to view this.", "badges": [], "created_at": "2025-06-22T04:19:43.546-04:00", "updated_at": "2025-07-03T19:59:06.840-04:00", "avatar": "https://avatars.slack-edge.com/2025-06-22/9084295007781_3b8e3d5f33cdf72f1ccd_original.png", "custom_css": null}, {"id": 11252, "slack_id": "U0922K7JUFR", "display_name": "Shelbiee004", "bio": null, "projects_count": 0, "devlogs_count": 0, "votes_count": 0, "ships_count": 0, "projects": [], "coding_time_seconds": 0, "coding_time_seconds_today": 0, "balance": "You need to have a pocket watcher badge to view this.", "badges": [], "created_at": "2025-06-22T04:26:21.910-04:00", "updated_at": "2025-07-03T19:59:07.112-04:00", "avatar": "https://secure.gravatar.com/avatar/6826d17395bc109b65ad3b443ab34028.jpg?s=512&d=https%3A%2F%2Fa.slack-edge.com%2Fdf10d%2Fimg%2Favatars%2Fava_0014-512.png", "custom_css": null}, {"id": 11253, "slack_id": "U07UDK3BH4N", "display_name": "Manuel Hofmarcher", "bio": null, "projects_count": 3, "devlogs_count": 27, "votes_count": 40, "ships_count": 2, "projects": [{"id": 5565, "title": "AFKGuard", "devlogs_count": 0, "created_at": "2025-07-06T08:14:34.236-04:00"}, {"id": 5129, "title": "//public:canvas", "devlogs_count": 15, "created_at": "2025-07-03T11:50:29.046-04:00"}, {"id": 2833, "title": "EBookToPDF", "devlogs_count": 12, "created_at": "2025-06-22T07:38:15.591-04:00"}], "coding_time_seconds": 311980, "coding_time_seconds_today": 0, "balance": "You need to have a pocket watcher badge to view this.", "badges": [{"name": "Maiden Voyage", "text": "you shipped your first project! the journey begins...", "icon": "\ud83d\udea2"}], "created_at": "2025-06-22T04:27:35.874-04:00", "updated_at": "2025-09-10T22:56:48.125-04:00", "avatar": "https://secure.gravatar.com/avatar/5ca9f8f53557769e8e6d202e7c62be86.jpg?s=512&d=https%3A%2F%2Fa.slack-edge.com%2Fdf10d%2Fimg%2Favatars%2Fava_0009-512.png", "custom_css": null}, {"id": 11254, "slack_id": "U0929P7RCMC", "display_name": "Ze Qin Khoo", "bio": null, "projects_count": 0, "devlogs_count": 0, "votes_count": 0, "ships_count": 0, "projects": [], "coding_time_seconds": 11909, "coding_time_seconds_today": 2010, "balance": "You need to have a pocket watcher badge to view this.", "badges": [], "created_at": "2025-06-22T04:28:06.572-04:00", "updated_at": "2025-07-03T19:59:07.525-04:00", "avatar": "https://avatars.slack-edge.com/2025-06-22/9098275016881_effd61fbf24f29188f5f_original.png", "custom_css": null}, {"id": 11255, "slack_id": "U0935AM5J0G", "display_name": "satyampathak", "bio": null, "projects_count": 1, "devlogs_count": 0, "votes_count": 0, "ships_count": 0, "projects": [{"id": 2795, "title": "OnionTalk", "devlogs_count": 0, "created_at": "2025-06-22T04:38:41.836-04:00"}], "coding_time_seconds": 1134, "coding_time_seconds_today": 0, "balance": "You need to have a pocket watcher badge to view this.", "badges": [], "created_at": "2025-06-22T04:30:27.114-04:00", "updated_at": "2025-07-04T20:11:58.283-04:00", "avatar": "https://secure.gravatar.com/avatar/7f65b76ca8df0534ee67225c018135e9.jpg?s=512&d=https%3A%2F%2Fa.slack-edge.com%2Fdf10d%2Fimg%2Favatars%2Fava_0015-512.png", "custom_css": null}, {"id": 11256, "slack_id": "U092HMGD4LU", "display_name": "Priyansh Sao", "bio": null, "projects_count": 0, "devlogs_count": 0, "votes_count": 0, "ships_count": 0, "projects": [], "coding_time_seconds": 214556, "coding_time_seconds_today": 0, "balance": "You need to have a pocket watcher badge to view this.", "badges": [], "created_at": "2025-06-22T04:36:11.785-04:00", "updated_at": "2025-07-17T02:33:10.957-04:00", "avatar": "https://secure.gravatar.com/avatar/da968559559ee49bfbf1b63bd3a7ccd3.jpg?s=512&d=https%3A%2F%2Fa.slack-edge.com%2Fdf10d%2Fimg%2Favatars%2Fava_0020-512.png", "custom_css": null}, {"id": 11257, "slack_id": "U092G9AHJGM", "display_name": "Vladyslav Timchenko", "bio": null, "projects_count": 0, "devlogs_count": 0, "votes_count": 0, "ships_count": 0, "projects": [], "coding_time_seconds": 0, "coding_time_seconds_today": 0, "balance": "You need to have a pocket watcher badge to view this.", "badges": [], "created_at": "2025-06-22T04:46:14.914-04:00", "updated_at": "2025-07-03T19:59:08.079-04:00", "avatar": "https://avatars.slack-edge.com/2025-06-22/9107386155856_61321b533c56696dd058_original.jpg", "custom_css": null}, {"id": 11258, "slack_id": "U092W8NQ7CZ", "display_name": "Urva Gandhi", "bio": null, "projects_count": 0, "devlogs_count": 0, "votes_count": 0, "ships_count": 0, "projects": [], "coding_time_seconds": 0, "coding_time_seconds_today": 0, "balance": "You need to have a pocket watcher badge to view this.", "badges": [], "created_at": "2025-06-22T04:47:57.369-04:00", "updated_at": "2025-07-03T19:59:08.377-04:00", "avatar": "https://secure.gravatar.com/avatar/cd970978b5db5d8ca6eda0c638a44498.jpg?s=512&d=https%3A%2F%2Fa.slack-edge.com%2Fdf10d%2Fimg%2Favatars%2Fava_0022-512.png", "custom_css": null}, {"id": 11259, "slack_id": "U088QCSQG4R", "display_name": "Vijayesh Vasanthakumar", "bio": null, "projects_count": 0, "devlogs_count": 0, "votes_count": 0, "ships_count": 0, "projects": [], "coding_time_seconds": 131857, "coding_time_seconds_today": 0, "balance": "You need to have a pocket watcher badge to view this.", "badges": [], "created_at": "2025-06-22T04:54:47.384-04:00", "updated_at": "2025-09-01T19:42:12.528-04:00", "avatar": "https://avatars.slack-edge.com/2025-01-12/8296443962433_62289d6ed1595cc56f37_original.png", "custom_css": null}, {"id": 11260, "slack_id": "U0922LYRWET", "display_name": "Harsh", "bio": null, "projects_count": 0, "devlogs_count": 0, "votes_count": 0, "ships_count": 0, "projects": [], "coding_time_seconds": 0, "coding_time_seconds_today": 0, "balance": "You need to have a pocket watcher badge to view this.", "badges": [], "created_at": "2025-06-22T05:08:01.443-04:00", "updated_at": "2025-07-03T19:59:08.900-04:00", "avatar": "https://secure.gravatar.com/avatar/8de322924270da79b6df07c0babb2de9.jpg?s=512&d=https%3A%2F%2Fa.slack-edge.com%2Fdf10d%2Fimg%2Favatars%2Fava_0006-512.png", "custom_css": null}], "pagination": {"page": 563, "pages": 1192, "count": 23828, "items": 20}}