{"users": [{"id": 11261, "slack_id": "U092HNX1TT6", "display_name": "Paras", "bio": null, "projects_count": 1, "devlogs_count": 0, "votes_count": 0, "ships_count": 0, "projects": [{"id": 12407, "title": "Flutter ", "devlogs_count": 0, "created_at": "2025-08-27T03:04:33.168-04:00"}], "coding_time_seconds": 22097, "coding_time_seconds_today": 0, "balance": "You need to have a pocket watcher badge to view this.", "badges": [], "created_at": "2025-06-22T05:08:09.273-04:00", "updated_at": "2025-08-27T03:01:50.547-04:00", "avatar": "https://secure.gravatar.com/avatar/45285b85b3e02eb10bdabd0782898ca9.jpg?s=512&d=https%3A%2F%2Fa.slack-edge.com%2Fdf10d%2Fimg%2Favatars%2Fava_0013-512.png", "custom_css": null}, {"id": 11262, "slack_id": "U0789SZSBRU", "display_name": "Finn", "bio": null, "projects_count": 0, "devlogs_count": 0, "votes_count": 0, "ships_count": 0, "projects": [], "coding_time_seconds": 0, "coding_time_seconds_today": 0, "balance": "You need to have a pocket watcher badge to view this.", "badges": [], "created_at": "2025-06-22T05:12:20.314-04:00", "updated_at": "2025-07-03T19:59:09.322-04:00", "avatar": "https://secure.gravatar.com/avatar/95bbfdf6fb16422731477b50a132a299.jpg?s=512&d=https%3A%2F%2Fa.slack-edge.com%2Fdf10d%2Fimg%2Favatars%2Fava_0018-512.png", "custom_css": null}, {"id": 11263, "slack_id": "U092GA2G6CD", "display_name": "Erebuzzz", "bio": null, "projects_count": 0, "devlogs_count": 0, "votes_count": 0, "ships_count": 0, "projects": [], "coding_time_seconds": 0, "coding_time_seconds_today": 0, "balance": "You need to have a pocket watcher badge to view this.", "badges": [], "created_at": "2025-06-22T05:17:43.091-04:00", "updated_at": "2025-07-03T19:59:09.588-04:00", "avatar": "https://secure.gravatar.com/avatar/8e513527feb6ff0e6b88e52e03252e03.jpg?s=512&d=https%3A%2F%2Fa.slack-edge.com%2Fdf10d%2Fimg%2Favatars%2Fava_0026-512.png", "custom_css": null}, {"id": 11264, "slack_id": "U092HPGRW84", "display_name": "Shaik Dhakshinadi Mastanbi", "bio": null, "projects_count": 0, "devlogs_count": 0, "votes_count": 0, "ships_count": 0, "projects": [], "coding_time_seconds": 0, "coding_time_seconds_today": 0, "balance": "You need to have a pocket watcher badge to view this.", "badges": [], "created_at": "2025-06-22T05:24:22.364-04:00", "updated_at": "2025-07-03T19:59:09.859-04:00", "avatar": "https://secure.gravatar.com/avatar/c882797e4b80fafb2a3d7c1bb2537b9b.jpg?s=512&d=https%3A%2F%2Fa.slack-edge.com%2Fdf10d%2Fimg%2Favatars%2Fava_0022-512.png", "custom_css": null}, {"id": 11265, "slack_id": "U07EBSER7JP", "display_name": "MarsasGRG", "bio": null, "projects_count": 1, "devlogs_count": 4, "votes_count": 0, "ships_count": 0, "projects": [{"id": 2849, "title": "Banana Branches", "devlogs_count": 4, "created_at": "2025-06-22T08:10:42.952-04:00"}], "coding_time_seconds": 37304, "coding_time_seconds_today": 0, "balance": "You need to have a pocket watcher badge to view this.", "badges": [], "created_at": "2025-06-22T05:27:29.345-04:00", "updated_at": "2025-07-03T19:59:10.207-04:00", "avatar": "https://avatars.slack-edge.com/2025-06-22/9079710007414_b02ca13787b7fe4e2e8f_original.png", "custom_css": null}, {"id": 11266, "slack_id": "U091S8XBEK0", "display_name": "Adity", "bio": null, "projects_count": 0, "devlogs_count": 0, "votes_count": 0, "ships_count": 0, "projects": [], "coding_time_seconds": 0, "coding_time_seconds_today": 0, "balance": "You need to have a pocket watcher badge to view this.", "badges": [], "created_at": "2025-06-22T05:27:35.912-04:00", "updated_at": "2025-07-03T19:59:10.490-04:00", "avatar": "https://secure.gravatar.com/avatar/5baf053b444a14a7602c485faa9c1739.jpg?s=512&d=https%3A%2F%2Fa.slack-edge.com%2Fdf10d%2Fimg%2Favatars%2Fava_0008-512.png", "custom_css": null}, {"id": 11267, "slack_id": "U092HPP5U12", "display_name": "Aakash", "bio": null, "projects_count": 0, "devlogs_count": 0, "votes_count": 0, "ships_count": 0, "projects": [], "coding_time_seconds": 0, "coding_time_seconds_today": 0, "balance": "You need to have a pocket watcher badge to view this.", "badges": [], "created_at": "2025-06-22T05:28:10.835-04:00", "updated_at": "2025-07-03T19:59:10.754-04:00", "avatar": "https://secure.gravatar.com/avatar/b64827040160f8130cb5e7d33349d0b2.jpg?s=512&d=https%3A%2F%2Fa.slack-edge.com%2Fdf10d%2Fimg%2Favatars%2Fava_0018-512.png", "custom_css": null}, {"id": 11268, "slack_id": "U092HPZBUTE", "display_name": "Noa", "bio": null, "projects_count": 0, "devlogs_count": 0, "votes_count": 0, "ships_count": 0, "projects": [], "coding_time_seconds": 0, "coding_time_seconds_today": 0, "balance": "You need to have a pocket watcher badge to view this.", "badges": [], "created_at": "2025-06-22T05:35:37.263-04:00", "updated_at": "2025-07-03T19:59:11.024-04:00", "avatar": "https://avatars.slack-edge.com/2025-06-22/9078677590723_0c71fc453d77690f5bb6_original.jpg", "custom_css": null}, {"id": 11269, "slack_id": "U092WAN376D", "display_name": "luis", "bio": null, "projects_count": 0, "devlogs_count": 0, "votes_count": 0, "ships_count": 0, "projects": [], "coding_time_seconds": 0, "coding_time_seconds_today": 0, "balance": "You need to have a pocket watcher badge to view this.", "badges": [], "created_at": "2025-06-22T05:36:24.574-04:00", "updated_at": "2025-07-03T22:01:55.470-04:00", "avatar": "https://secure.gravatar.com/avatar/d236fbeab9f6f7951b4a5ac2fa8daaa2.jpg?s=512&d=https%3A%2F%2Fa.slack-edge.com%2Fdf10d%2Fimg%2Favatars%2Fava_0002-512.png", "custom_css": null}, {"id": 11270, "slack_id": "U092AKRHK5Z", "display_name": "Vishnu Shukla", "bio": null, "projects_count": 0, "devlogs_count": 0, "votes_count": 0, "ships_count": 0, "projects": [], "coding_time_seconds": 0, "coding_time_seconds_today": 0, "balance": "You need to have a pocket watcher badge to view this.", "badges": [], "created_at": "2025-06-22T05:38:00.527-04:00", "updated_at": "2025-07-03T19:59:11.424-04:00", "avatar": "https://secure.gravatar.com/avatar/0ecf13f425fa4ba49673d445b2e47bd9.jpg?s=512&d=https%3A%2F%2Fa.slack-edge.com%2Fdf10d%2Fimg%2Favatars%2Fava_0017-512.png", "custom_css": null}, {"id": 11271, "slack_id": "U092GB4P0TX", "display_name": "tanh_Heng", "bio": null, "projects_count": 1, "devlogs_count": 0, "votes_count": 1, "ships_count": 0, "projects": [{"id": 3424, "title": "MirrorMcsmcdR", "devlogs_count": 0, "created_at": "2025-06-24T07:17:05.667-04:00"}], "coding_time_seconds": 23098, "coding_time_seconds_today": 0, "balance": "You need to have a pocket watcher badge to view this.", "badges": [], "created_at": "2025-06-22T05:39:36.011-04:00", "updated_at": "2025-07-03T19:59:11.686-04:00", "avatar": "https://secure.gravatar.com/avatar/bd162fc25c4dd789883453028a8b8181.jpg?s=512&d=https%3A%2F%2Fa.slack-edge.com%2Fdf10d%2Fimg%2Favatars%2Fava_0003-512.png", "custom_css": null}, {"id": 11272, "slack_id": "U092HQ50WS0", "display_name": "Tilak", "bio": null, "projects_count": 0, "devlogs_count": 0, "votes_count": 0, "ships_count": 0, "projects": [], "coding_time_seconds": 0, "coding_time_seconds_today": 0, "balance": "You need to have a pocket watcher badge to view this.", "badges": [], "created_at": "2025-06-22T05:40:49.289-04:00", "updated_at": "2025-07-04T20:11:59.307-04:00", "avatar": "https://secure.gravatar.com/avatar/0f8d8aecbc6ad044755a14fa1e025e17.jpg?s=512&d=https%3A%2F%2Fa.slack-edge.com%2Fdf10d%2Fimg%2Favatars%2Fava_0023-512.png", "custom_css": null}, {"id": 11273, "slack_id": "U092GBAHJR3", "display_name": "Yogesh Limbani", "bio": null, "projects_count": 1, "devlogs_count": 1, "votes_count": 0, "ships_count": 0, "projects": [{"id": 11778, "title": "ClipItChat", "devlogs_count": 1, "created_at": "2025-08-19T12:27:50.939-04:00"}], "coding_time_seconds": 182521, "coding_time_seconds_today": 0, "balance": "You need to have a pocket watcher badge to view this.", "badges": [], "created_at": "2025-06-22T05:44:59.607-04:00", "updated_at": "2025-08-19T03:26:42.860-04:00", "avatar": "https://secure.gravatar.com/avatar/be692fb1edfaa60b1fa85074c00604ca.jpg?s=512&d=https%3A%2F%2Fa.slack-edge.com%2Fdf10d%2Fimg%2Favatars%2Fava_0018-512.png", "custom_css": null}, {"id": 11274, "slack_id": "U092WBS1YPK", "display_name": "Luke Zhang", "bio": null, "projects_count": 0, "devlogs_count": 0, "votes_count": 0, "ships_count": 0, "projects": [], "coding_time_seconds": 26576, "coding_time_seconds_today": 0, "balance": "You need to have a pocket watcher badge to view this.", "badges": [], "created_at": "2025-06-22T05:58:30.497-04:00", "updated_at": "2025-07-03T19:59:12.324-04:00", "avatar": "https://secure.gravatar.com/avatar/036537da1d23615c7af52c796b1c6c99.jpg?s=512&d=https%3A%2F%2Fa.slack-edge.com%2Fdf10d%2Fimg%2Favatars%2Fava_0003-512.png", "custom_css": null}, {"id": 11275, "slack_id": "U092WBT2HLZ", "display_name": "Zaxpris", "bio": null, "projects_count": 2, "devlogs_count": 0, "votes_count": 0, "ships_count": 0, "projects": [{"id": 3435, "title": "CounterStrike2GSI", "devlogs_count": 0, "created_at": "2025-06-24T08:26:09.919-04:00"}, {"id": 6431, "title": "nekro_live_studioi", "devlogs_count": 0, "created_at": "2025-07-13T09:01:25.766-04:00"}], "coding_time_seconds": 63042, "coding_time_seconds_today": 0, "balance": "You need to have a pocket watcher badge to view this.", "badges": [], "created_at": "2025-06-22T05:59:55.858-04:00", "updated_at": "2025-07-03T19:59:12.590-04:00", "avatar": "https://avatars.slack-edge.com/2025-06-22/9085851785300_ea3527bf4cba1a8beea6_original.jpg", "custom_css": null}, {"id": 11276, "slack_id": "U0922PAUF47", "display_name": "Emily Evers", "bio": null, "projects_count": 0, "devlogs_count": 0, "votes_count": 0, "ships_count": 0, "projects": [], "coding_time_seconds": 0, "coding_time_seconds_today": 0, "balance": "You need to have a pocket watcher badge to view this.", "badges": [], "created_at": "2025-06-22T06:05:43.892-04:00", "updated_at": "2025-07-03T19:59:12.858-04:00", "avatar": "https://secure.gravatar.com/avatar/6499645ed873695097a4b9021bf5e1e7.jpg?s=512&d=https%3A%2F%2Fa.slack-edge.com%2Fdf10d%2Fimg%2Favatars%2Fava_0003-512.png", "custom_css": null}, {"id": 11277, "slack_id": "U092WC4SHR7", "display_name": "I Komang Keanu Raffa Widyana", "bio": null, "projects_count": 0, "devlogs_count": 0, "votes_count": 0, "ships_count": 0, "projects": [], "coding_time_seconds": 37069, "coding_time_seconds_today": 0, "balance": "You need to have a pocket watcher badge to view this.", "badges": [], "created_at": "2025-06-22T06:06:23.785-04:00", "updated_at": "2025-07-03T19:59:13.146-04:00", "avatar": "https://secure.gravatar.com/avatar/0b676d06029cc51f97a7c6a129fd26ca.jpg?s=512&d=https%3A%2F%2Fa.slack-edge.com%2Fdf10d%2Fimg%2Favatars%2Fava_0003-512.png", "custom_css": null}, {"id": 11278, "slack_id": "U0935E83AQG", "display_name": "JerryQAQ", "bio": null, "projects_count": 0, "devlogs_count": 0, "votes_count": 0, "ships_count": 0, "projects": [], "coding_time_seconds": 0, "coding_time_seconds_today": 0, "balance": "You need to have a pocket watcher badge to view this.", "badges": [], "created_at": "2025-06-22T06:07:45.824-04:00", "updated_at": "2025-07-03T19:59:13.420-04:00", "avatar": "https://secure.gravatar.com/avatar/b9601653bfca9c5c4d92061dcfc12187.jpg?s=512&d=https%3A%2F%2Fa.slack-edge.com%2Fdf10d%2Fimg%2Favatars%2Fava_0026-512.png", "custom_css": null}, {"id": 11279, "slack_id": "U092WCJE7UH", "display_name": "Furkan Ekiz", "bio": null, "projects_count": 0, "devlogs_count": 0, "votes_count": 0, "ships_count": 0, "projects": [], "coding_time_seconds": 150378, "coding_time_seconds_today": 0, "balance": "You need to have a pocket watcher badge to view this.", "badges": [], "created_at": "2025-06-22T06:15:30.257-04:00", "updated_at": "2025-07-08T02:57:39.412-04:00", "avatar": "https://secure.gravatar.com/avatar/2550e8eb1868508661828579752c7d1f.jpg?s=512&d=https%3A%2F%2Fa.slack-edge.com%2Fdf10d%2Fimg%2Favatars%2Fava_0021-512.png", "custom_css": null}, {"id": 11280, "slack_id": "U087NHS26KE", "display_name": "GW", "bio": null, "projects_count": 1, "devlogs_count": 4, "votes_count": 3, "ships_count": 0, "projects": [{"id": 6942, "title": "HamnaQ", "devlogs_count": 4, "created_at": "2025-07-17T14:19:26.977-04:00"}], "coding_time_seconds": 62832, "coding_time_seconds_today": 0, "balance": "You need to have a pocket watcher badge to view this.", "badges": [], "created_at": "2025-06-22T06:34:22.312-04:00", "updated_at": "2025-07-03T19:59:13.828-04:00", "avatar": "https://secure.gravatar.com/avatar/ad087c873f07937639272ba1d4195cfe.jpg?s=512&d=https%3A%2F%2Fa.slack-edge.com%2Fdf10d%2Fimg%2Favatars%2Fava_0005-512.png", "custom_css": null}], "pagination": {"page": 564, "pages": 1192, "count": 23828, "items": 20}}