{"users": [{"id": 11281, "slack_id": "U092GCZP0TF", "display_name": "quiet_star_gazing", "bio": null, "projects_count": 0, "devlogs_count": 0, "votes_count": 0, "ships_count": 0, "projects": [], "coding_time_seconds": 0, "coding_time_seconds_today": 0, "balance": "You need to have a pocket watcher badge to view this.", "badges": [], "created_at": "2025-06-22T06:40:41.544-04:00", "updated_at": "2025-07-03T19:59:14.100-04:00", "avatar": "https://secure.gravatar.com/avatar/fead2f798f7ed3f3d20091a5f7062b98.jpg?s=512&d=https%3A%2F%2Fa.slack-edge.com%2Fdf10d%2Fimg%2Favatars%2Fava_0014-512.png", "custom_css": null}, {"id": 11282, "slack_id": "U092HB16YTC", "display_name": "Tomas Nemec", "bio": null, "projects_count": 2, "devlogs_count": 13, "votes_count": 3, "ships_count": 0, "projects": [{"id": 2831, "title": "Balatro Wii U port", "devlogs_count": 13, "created_at": "2025-06-22T07:33:34.307-04:00"}, {"id": 10727, "title": "Octoprint SMB backup", "devlogs_count": 0, "created_at": "2025-08-10T05:48:55.394-04:00"}], "coding_time_seconds": 202018, "coding_time_seconds_today": 0, "balance": "You need to have a pocket watcher badge to view this.", "badges": [], "created_at": "2025-06-22T06:46:51.074-04:00", "updated_at": "2025-07-08T12:50:56.007-04:00", "avatar": "https://avatars.slack-edge.com/2025-06-22/9079641805398_4e81b97097da5a510e51_original.png", "custom_css": null}, {"id": 11283, "slack_id": "U0935FMDHG8", "display_name": "Ahmad Sabri", "bio": null, "projects_count": 0, "devlogs_count": 0, "votes_count": 0, "ships_count": 0, "projects": [], "coding_time_seconds": 0, "coding_time_seconds_today": 0, "balance": "You need to have a pocket watcher badge to view this.", "badges": [], "created_at": "2025-06-22T06:49:22.006-04:00", "updated_at": "2025-07-03T19:59:14.642-04:00", "avatar": "https://secure.gravatar.com/avatar/7875cfefdd118216548604edff56d25c.jpg?s=512&d=https%3A%2F%2Fa.slack-edge.com%2Fdf10d%2Fimg%2Favatars%2Fava_0012-512.png", "custom_css": null}, {"id": 11284, "slack_id": "U0935FMNBME", "display_name": "dany", "bio": null, "projects_count": 0, "devlogs_count": 0, "votes_count": 0, "ships_count": 0, "projects": [], "coding_time_seconds": 0, "coding_time_seconds_today": 0, "balance": "You need to have a pocket watcher badge to view this.", "badges": [], "created_at": "2025-06-22T06:50:26.972-04:00", "updated_at": "2025-07-03T19:59:14.920-04:00", "avatar": "https://secure.gravatar.com/avatar/6c02286f7c79eb6c71c56db32055feed.jpg?s=512&d=https%3A%2F%2Fa.slack-edge.com%2Fdf10d%2Fimg%2Favatars%2Fava_0002-512.png", "custom_css": null}, {"id": 11285, "slack_id": "U092HSQM9S8", "display_name": "Sufyan Ahmed", "bio": null, "projects_count": 0, "devlogs_count": 0, "votes_count": 0, "ships_count": 0, "projects": [], "coding_time_seconds": 0, "coding_time_seconds_today": 0, "balance": "You need to have a pocket watcher badge to view this.", "badges": [], "created_at": "2025-06-22T06:51:50.089-04:00", "updated_at": "2025-07-03T19:59:15.188-04:00", "avatar": "https://secure.gravatar.com/avatar/cac2d0880ce0420cb6e8d88cad77194e.jpg?s=512&d=https%3A%2F%2Fa.slack-edge.com%2Fdf10d%2Fimg%2Favatars%2Fava_0022-512.png", "custom_css": null}, {"id": 11286, "slack_id": "U0922RD83NK", "display_name": "nanami", "bio": null, "projects_count": 0, "devlogs_count": 0, "votes_count": 0, "ships_count": 0, "projects": [], "coding_time_seconds": 0, "coding_time_seconds_today": 0, "balance": "You need to have a pocket watcher badge to view this.", "badges": [], "created_at": "2025-06-22T07:04:25.528-04:00", "updated_at": "2025-07-03T22:01:56.592-04:00", "avatar": "https://secure.gravatar.com/avatar/ef0e3260305205d61ef803a878ebf822.jpg?s=512&d=https%3A%2F%2Fa.slack-edge.com%2Fdf10d%2Fimg%2Favatars%2Fava_0016-512.png", "custom_css": null}, {"id": 11287, "slack_id": "U092HTJT84C", "display_name": "PankajKumar Sah", "bio": null, "projects_count": 0, "devlogs_count": 0, "votes_count": 0, "ships_count": 0, "projects": [], "coding_time_seconds": 0, "coding_time_seconds_today": 0, "balance": "You need to have a pocket watcher badge to view this.", "badges": [], "created_at": "2025-06-22T07:07:56.839-04:00", "updated_at": "2025-07-03T19:59:15.600-04:00", "avatar": "https://avatars.slack-edge.com/2025-06-22/9085408937442_e3071944d6c55e878214_original.png", "custom_css": null}, {"id": 11288, "slack_id": "U092GE09RL5", "display_name": "Shishir", "bio": null, "projects_count": 0, "devlogs_count": 0, "votes_count": 0, "ships_count": 0, "projects": [], "coding_time_seconds": 0, "coding_time_seconds_today": 0, "balance": "You need to have a pocket watcher badge to view this.", "badges": [], "created_at": "2025-06-22T07:11:36.072-04:00", "updated_at": "2025-07-03T19:59:15.866-04:00", "avatar": "https://secure.gravatar.com/avatar/ff55b089e3500d1e50b1c06b8496b47e.jpg?s=512&d=https%3A%2F%2Fa.slack-edge.com%2Fdf10d%2Fimg%2Favatars%2Fava_0017-512.png", "custom_css": null}, {"id": 11289, "slack_id": "U092BFM5AEA", "display_name": "nainteeth", "bio": null, "projects_count": 0, "devlogs_count": 0, "votes_count": 0, "ships_count": 0, "projects": [], "coding_time_seconds": 4, "coding_time_seconds_today": 0, "balance": "You need to have a pocket watcher badge to view this.", "badges": [], "created_at": "2025-06-22T07:11:38.803-04:00", "updated_at": "2025-07-03T19:59:16.142-04:00", "avatar": "https://secure.gravatar.com/avatar/3329392e9ef172cce242051076ca4f0a.jpg?s=512&d=https%3A%2F%2Fa.slack-edge.com%2Fdf10d%2Fimg%2Favatars%2Fava_0018-512.png", "custom_css": null}, {"id": 11290, "slack_id": "U092HTUE38U", "display_name": "Antoine", "bio": null, "projects_count": 1, "devlogs_count": 0, "votes_count": 0, "ships_count": 0, "projects": [{"id": 2857, "title": "LuToine", "devlogs_count": 0, "created_at": "2025-06-22T08:41:28.206-04:00"}], "coding_time_seconds": 3, "coding_time_seconds_today": 0, "balance": "You need to have a pocket watcher badge to view this.", "badges": [], "created_at": "2025-06-22T07:13:51.973-04:00", "updated_at": "2025-07-08T02:57:44.304-04:00", "avatar": "https://avatars.slack-edge.com/2025-06-22/9085954765316_926235c80055ad10064e_original.jpg", "custom_css": null}, {"id": 11291, "slack_id": "U092AP957EF", "display_name": "hotsq", "bio": null, "projects_count": 0, "devlogs_count": 0, "votes_count": 0, "ships_count": 0, "projects": [], "coding_time_seconds": 0, "coding_time_seconds_today": 0, "balance": "You need to have a pocket watcher badge to view this.", "badges": [], "created_at": "2025-06-22T07:14:21.123-04:00", "updated_at": "2025-07-04T08:27:30.789-04:00", "avatar": "https://avatars.slack-edge.com/2025-06-25/9100478738546_0c2e6461bae2fe359f6f_original.png", "custom_css": null}, {"id": 11292, "slack_id": "U033NES5TC6", "display_name": "Rifzki Adiyaksa", "bio": null, "projects_count": 0, "devlogs_count": 0, "votes_count": 0, "ships_count": 0, "projects": [], "coding_time_seconds": 0, "coding_time_seconds_today": 0, "balance": "You need to have a pocket watcher badge to view this.", "badges": [], "created_at": "2025-06-22T07:16:39.582-04:00", "updated_at": "2025-07-03T19:59:16.684-04:00", "avatar": "https://secure.gravatar.com/avatar/3256cc43a9cb22ad877aae5e7a064f77.jpg?s=512&d=https%3A%2F%2Fa.slack-edge.com%2Fdf10d%2Fimg%2Favatars%2Fava_0017-512.png", "custom_css": null}, {"id": 11293, "slack_id": "U092WF35LM7", "display_name": "lina", "bio": null, "projects_count": 2, "devlogs_count": 4, "votes_count": 0, "ships_count": 0, "projects": [{"id": 2985, "title": "Quarkus Q&A website", "devlogs_count": 3, "created_at": "2025-06-22T16:39:18.687-04:00"}, {"id": 3403, "title": "GreenCity", "devlogs_count": 1, "created_at": "2025-06-24T04:46:41.150-04:00"}], "coding_time_seconds": 115178, "coding_time_seconds_today": 0, "balance": "You need to have a pocket watcher badge to view this.", "badges": [], "created_at": "2025-06-22T07:17:14.101-04:00", "updated_at": "2025-07-05T08:12:58.460-04:00", "avatar": "https://secure.gravatar.com/avatar/08c5fbfb4a570e575c440e9fa63651d4.jpg?s=512&d=https%3A%2F%2Fa.slack-edge.com%2Fdf10d%2Fimg%2Favatars%2Fava_0020-512.png", "custom_css": null}, {"id": 11294, "slack_id": "U092BL3Q2QN", "display_name": "Kashif", "bio": null, "projects_count": 0, "devlogs_count": 0, "votes_count": 0, "ships_count": 0, "projects": [], "coding_time_seconds": 0, "coding_time_seconds_today": 0, "balance": "You need to have a pocket watcher badge to view this.", "badges": [], "created_at": "2025-06-22T07:20:29.313-04:00", "updated_at": "2025-07-03T19:59:17.090-04:00", "avatar": "https://secure.gravatar.com/avatar/32b9a39ab8ef3dc304c9c56f6542b8b3.jpg?s=512&d=https%3A%2F%2Fa.slack-edge.com%2Fdf10d%2Fimg%2Favatars%2Fava_0009-512.png", "custom_css": null}, {"id": 11295, "slack_id": "U092WF5BP41", "display_name": "luna", "bio": "GitHub: [0yqc](https://github.com/0yqc/)\r\nMastodon: [y](https://chaos.social/@y)\r\nirl: Luna\r\n\r\nos: Debian Bookworm (Linux)\r\ndevice: Lenovo ThinkPad X380 Yoga", "projects_count": 7, "devlogs_count": 73, "votes_count": 90, "ships_count": 4, "projects": [{"id": 3965, "title": "the offline brick", "devlogs_count": 1, "created_at": "2025-06-26T14:31:23.433-04:00"}, {"id": 5979, "title": "brick analyzer", "devlogs_count": 7, "created_at": "2025-07-09T15:40:27.093-04:00"}, {"id": 13584, "title": "Caly - AI Calendar Interface", "devlogs_count": 1, "created_at": "2025-09-20T05:18:38.864-04:00"}, {"id": 13707, "title": "44. BWINF 2025", "devlogs_count": 1, "created_at": "2025-09-23T11:22:05.986-04:00"}, {"id": 4270, "title": "formsMD (fMD)", "devlogs_count": 59, "created_at": "2025-06-28T15:06:54.261-04:00"}, {"id": 5130, "title": "boredom_away", "devlogs_count": 2, "created_at": "2025-07-03T11:54:57.338-04:00"}, {"id": 10841, "title": "brickhelp", "devlogs_count": 2, "created_at": "2025-08-11T08:59:58.181-04:00"}], "coding_time_seconds": 386882, "coding_time_seconds_today": 0, "balance": "You need to have a pocket watcher badge to view this.", "badges": [{"name": "Maiden Voyage", "text": "you shipped your first project! the journey begins...", "icon": "\ud83d\udea2"}, {"name": "Ballot Stuffer", "text": "vote 100 times.", "icon": "https://summer.hackclub.com/assets/i_voted-bf851b48.png"}, {"name": "Yapper I", "text": "Posted 10 comments on devlogs.", "icon": "\ud83d\udcac"}], "created_at": "2025-06-22T07:21:06.696-04:00", "updated_at": "2025-09-13T01:14:08.941-04:00", "avatar": "https://avatars.slack-edge.com/2025-08-08/9328988872276_033c61d3862d202ba6ec_original.jpg", "custom_css": null}, {"id": 11296, "slack_id": "U092HCDFA74", "display_name": "prathmesh", "bio": null, "projects_count": 0, "devlogs_count": 0, "votes_count": 0, "ships_count": 0, "projects": [], "coding_time_seconds": 0, "coding_time_seconds_today": 0, "balance": "You need to have a pocket watcher badge to view this.", "badges": [], "created_at": "2025-06-22T07:23:07.537-04:00", "updated_at": "2025-07-03T19:59:17.611-04:00", "avatar": "https://secure.gravatar.com/avatar/6b5c43171945076f9a5a9e5d04da3213.jpg?s=512&d=https%3A%2F%2Fa.slack-edge.com%2Fdf10d%2Fimg%2Favatars%2Fava_0006-512.png", "custom_css": null}, {"id": 11297, "slack_id": "U092WFD50FK", "display_name": "sule", "bio": null, "projects_count": 1, "devlogs_count": 3, "votes_count": 0, "ships_count": 0, "projects": [{"id": 2877, "title": "electron-dypet", "devlogs_count": 3, "created_at": "2025-06-22T10:22:08.582-04:00"}], "coding_time_seconds": 139312, "coding_time_seconds_today": 0, "balance": "You need to have a pocket watcher badge to view this.", "badges": [], "created_at": "2025-06-22T07:24:55.144-04:00", "updated_at": "2025-07-03T19:59:17.877-04:00", "avatar": "https://secure.gravatar.com/avatar/ae43af756c2dfa26723dc254c83bbb50.jpg?s=512&d=https%3A%2F%2Fa.slack-edge.com%2Fdf10d%2Fimg%2Favatars%2Fava_0024-512.png", "custom_css": null}, {"id": 11298, "slack_id": "U092HCBD6F4", "display_name": "rinas", "bio": null, "projects_count": 0, "devlogs_count": 0, "votes_count": 0, "ships_count": 0, "projects": [], "coding_time_seconds": 0, "coding_time_seconds_today": 0, "balance": "You need to have a pocket watcher badge to view this.", "badges": [], "created_at": "2025-06-22T07:25:01.770-04:00", "updated_at": "2025-07-04T02:31:16.400-04:00", "avatar": "https://secure.gravatar.com/avatar/bc7d4522a1d874a3c0799b43c7c9e4bc.jpg?s=512&d=https%3A%2F%2Fa.slack-edge.com%2Fdf10d%2Fimg%2Favatars%2Fava_0017-512.png", "custom_css": null}, {"id": 11299, "slack_id": "U092HCFJQ8J", "display_name": "Akash", "bio": null, "projects_count": 1, "devlogs_count": 1, "votes_count": 0, "ships_count": 0, "projects": [{"id": 2920, "title": "SmartTradeBot: Agent-powered Intelligent Stock Trader ", "devlogs_count": 1, "created_at": "2025-06-22T13:08:34.965-04:00"}], "coding_time_seconds": 88187, "coding_time_seconds_today": 0, "balance": "You need to have a pocket watcher badge to view this.", "badges": [], "created_at": "2025-06-22T07:30:11.460-04:00", "updated_at": "2025-07-03T19:59:18.283-04:00", "avatar": "https://secure.gravatar.com/avatar/cb307236c4ccdb7f7b3e3c3f44804ff3.jpg?s=512&d=https%3A%2F%2Fa.slack-edge.com%2Fdf10d%2Fimg%2Favatars%2Fava_0008-512.png", "custom_css": null}, {"id": 11300, "slack_id": "U082TJ32ZFF", "display_name": "bluecore", "bio": null, "projects_count": 0, "devlogs_count": 0, "votes_count": 0, "ships_count": 0, "projects": [], "coding_time_seconds": 901, "coding_time_seconds_today": 0, "balance": "You need to have a pocket watcher badge to view this.", "badges": [], "created_at": "2025-06-22T07:32:18.106-04:00", "updated_at": "2025-07-03T19:59:18.551-04:00", "avatar": "https://avatars.slack-edge.com/2025-06-21/9084485619844_148b1b0f03091e643ddb_original.png", "custom_css": null}], "pagination": {"page": 565, "pages": 1192, "count": 23828, "items": 20}}