{"users": [{"id": 11321, "slack_id": "U0922UV7HGF", "display_name": "KRISHNA RAJ R", "bio": null, "projects_count": 0, "devlogs_count": 0, "votes_count": 0, "ships_count": 0, "projects": [], "coding_time_seconds": 0, "coding_time_seconds_today": 0, "balance": "You need to have a pocket watcher badge to view this.", "badges": [], "created_at": "2025-06-22T08:28:44.040-04:00", "updated_at": "2025-07-03T19:59:23.731-04:00", "avatar": "https://secure.gravatar.com/avatar/43f4acc487fb9a1759a66d678e668cf4.jpg?s=512&d=https%3A%2F%2Fa.slack-edge.com%2Fdf10d%2Fimg%2Favatars%2Fava_0004-512.png", "custom_css": null}, {"id": 11322, "slack_id": "U06C0TGFGVA", "display_name": "Random10xDev", "bio": null, "projects_count": 4, "devlogs_count": 8, "votes_count": 2, "ships_count": 0, "projects": [{"id": 3380, "title": "Flashcards CLI", "devlogs_count": 2, "created_at": "2025-06-24T03:16:53.507-04:00"}, {"id": 5680, "title": "Factorio Broken Bad Mod", "devlogs_count": 2, "created_at": "2025-07-07T02:56:35.766-04:00"}, {"id": 7140, "title": "My Portfolio", "devlogs_count": 3, "created_at": "2025-07-19T12:16:02.050-04:00"}, {"id": 8456, "title": "Aetheric Cipher", "devlogs_count": 0, "created_at": "2025-07-27T09:54:16.355-04:00"}], "coding_time_seconds": 165224, "coding_time_seconds_today": 0, "balance": "You need to have a pocket watcher badge to view this.", "badges": [], "created_at": "2025-06-22T08:31:21.828-04:00", "updated_at": "2025-07-05T20:13:01.523-04:00", "avatar": "https://avatars.slack-edge.com/2024-10-21/7935349362944_0ae8f3b794a4e2d7f84e_original.png", "custom_css": null}, {"id": 11323, "slack_id": "U08NCJ3RWLQ", "display_name": "sAI", "bio": null, "projects_count": 12, "devlogs_count": 28, "votes_count": 121, "ships_count": 8, "projects": [{"id": 6169, "title": "Mood Reflect", "devlogs_count": 2, "created_at": "2025-07-11T03:51:57.195-04:00"}, {"id": 7827, "title": "Brainrot Detector ", "devlogs_count": 1, "created_at": "2025-07-23T07:22:49.829-04:00"}, {"id": 8190, "title": "PyChess", "devlogs_count": 2, "created_at": "2025-07-25T06:41:00.101-04:00"}, {"id": 10617, "title": "Portfolio", "devlogs_count": 0, "created_at": "2025-08-09T01:19:22.440-04:00"}, {"id": 11226, "title": "Zelda", "devlogs_count": 6, "created_at": "2025-08-14T06:25:32.719-04:00"}, {"id": 11819, "title": "MackOS - Hack + MacOS", "devlogs_count": 6, "created_at": "2025-08-19T21:45:01.589-04:00"}, {"id": 13756, "title": "Finance Tracker", "devlogs_count": 0, "created_at": "2025-09-25T03:06:08.282-04:00"}, {"id": 5274, "title": "ThumbnailGPT ", "devlogs_count": 5, "created_at": "2025-07-04T06:20:53.413-04:00"}, {"id": 7330, "title": "Wave Save", "devlogs_count": 1, "created_at": "2025-07-21T02:00:35.661-04:00"}, {"id": 8274, "title": "Name Your Project", "devlogs_count": 3, "created_at": "2025-07-25T23:22:00.769-04:00"}, {"id": 10199, "title": "Summer Of Making Help AI", "devlogs_count": 1, "created_at": "2025-08-04T21:10:31.588-04:00"}, {"id": 8718, "title": "Voice Calculator", "devlogs_count": 1, "created_at": "2025-07-29T02:54:47.576-04:00"}], "coding_time_seconds": 403076, "coding_time_seconds_today": 4108, "balance": "You need to have a pocket watcher badge to view this.", "badges": [{"name": "Maiden Voyage", "text": "you shipped your first project! the journey begins...", "icon": "\ud83d\udea2"}, {"name": "Ballot Stuffer", "text": "vote 100 times.", "icon": "https://summer.hackclub.com/assets/i_voted-bf851b48.png"}], "created_at": "2025-06-22T08:33:19.566-04:00", "updated_at": "2025-09-10T22:56:50.019-04:00", "avatar": "https://avatars.slack-edge.com/2025-07-17/9212725969858_33a74c33caafe2b16d81_original.jpg", "custom_css": null}, {"id": 11324, "slack_id": "U0922UXFS15", "display_name": "Hala Mohamed", "bio": null, "projects_count": 0, "devlogs_count": 0, "votes_count": 0, "ships_count": 0, "projects": [], "coding_time_seconds": 0, "coding_time_seconds_today": 0, "balance": "You need to have a pocket watcher badge to view this.", "badges": [], "created_at": "2025-06-22T08:33:24.012-04:00", "updated_at": "2025-07-03T19:59:24.400-04:00", "avatar": "https://secure.gravatar.com/avatar/8a17a7617ae2e150dab2d4972cf05e0b.jpg?s=512&d=https%3A%2F%2Fa.slack-edge.com%2Fdf10d%2Fimg%2Favatars%2Fava_0008-512.png", "custom_css": null}, {"id": 11325, "slack_id": "U091Y6BE6UA", "display_name": "YSH", "bio": null, "projects_count": 0, "devlogs_count": 0, "votes_count": 0, "ships_count": 0, "projects": [], "coding_time_seconds": 0, "coding_time_seconds_today": 0, "balance": "You need to have a pocket watcher badge to view this.", "badges": [], "created_at": "2025-06-22T08:34:54.399-04:00", "updated_at": "2025-07-03T22:01:59.115-04:00", "avatar": "https://avatars.slack-edge.com/2025-06-22/9098633902897_cde424ff63d9036b6cef_original.png", "custom_css": null}, {"id": 11326, "slack_id": "U092ASDNC9Z", "display_name": "Collins Ibikunle", "bio": null, "projects_count": 1, "devlogs_count": 0, "votes_count": 0, "ships_count": 0, "projects": [{"id": 3595, "title": "Simple calculator", "devlogs_count": 0, "created_at": "2025-06-24T21:19:58.186-04:00"}], "coding_time_seconds": 16122, "coding_time_seconds_today": 0, "balance": "You need to have a pocket watcher badge to view this.", "badges": [], "created_at": "2025-06-22T08:35:38.468-04:00", "updated_at": "2025-07-03T19:59:24.799-04:00", "avatar": "https://secure.gravatar.com/avatar/1ceeaee74e1013bfa5006092b22b7cf6.jpg?s=512&d=https%3A%2F%2Fa.slack-edge.com%2Fdf10d%2Fimg%2Favatars%2Fava_0019-512.png", "custom_css": null}, {"id": 11327, "slack_id": "U092BP7RSJ2", "display_name": "Amber Do", "bio": null, "projects_count": 0, "devlogs_count": 0, "votes_count": 0, "ships_count": 0, "projects": [], "coding_time_seconds": 0, "coding_time_seconds_today": 0, "balance": "You need to have a pocket watcher badge to view this.", "badges": [], "created_at": "2025-06-22T08:37:00.291-04:00", "updated_at": "2025-07-03T19:59:25.072-04:00", "avatar": "https://secure.gravatar.com/avatar/8638a519bdaf99b437d15ad4510ff163.jpg?s=512&d=https%3A%2F%2Fa.slack-edge.com%2Fdf10d%2Fimg%2Favatars%2Fava_0005-512.png", "custom_css": null}, {"id": 11328, "slack_id": "U092ASM1YTV", "display_name": "DrTheo_", "bio": null, "projects_count": 0, "devlogs_count": 0, "votes_count": 0, "ships_count": 0, "projects": [], "coding_time_seconds": 372809, "coding_time_seconds_today": 0, "balance": "You need to have a pocket watcher badge to view this.", "badges": [], "created_at": "2025-06-22T08:37:32.439-04:00", "updated_at": "2025-07-03T19:59:25.336-04:00", "avatar": "https://secure.gravatar.com/avatar/d94711d42c603bc3f72fe2f2cee98acc.jpg?s=512&d=https%3A%2F%2Fa.slack-edge.com%2Fdf10d%2Fimg%2Favatars%2Fava_0014-512.png", "custom_css": null}, {"id": 11329, "slack_id": "U092BPCUS5U", "display_name": "aman jain", "bio": null, "projects_count": 0, "devlogs_count": 0, "votes_count": 0, "ships_count": 0, "projects": [], "coding_time_seconds": 0, "coding_time_seconds_today": 0, "balance": "You need to have a pocket watcher badge to view this.", "badges": [], "created_at": "2025-06-22T08:39:02.862-04:00", "updated_at": "2025-07-03T19:59:25.599-04:00", "avatar": "https://secure.gravatar.com/avatar/0c5e322e6702d6dbfda7dc193e62ade5.jpg?s=512&d=https%3A%2F%2Fa.slack-edge.com%2Fdf10d%2Fimg%2Favatars%2Fava_0015-512.png", "custom_css": null}, {"id": 11330, "slack_id": "U092HFCLJ74", "display_name": "T", "bio": null, "projects_count": 0, "devlogs_count": 0, "votes_count": 0, "ships_count": 0, "projects": [], "coding_time_seconds": 0, "coding_time_seconds_today": 0, "balance": "You need to have a pocket watcher badge to view this.", "badges": [], "created_at": "2025-06-22T08:42:23.952-04:00", "updated_at": "2025-07-03T19:59:25.871-04:00", "avatar": "https://secure.gravatar.com/avatar/c52050dca300edf68853c86f7a0469a5.jpg?s=512&d=https%3A%2F%2Fa.slack-edge.com%2Fdf10d%2Fimg%2Favatars%2Fava_0022-512.png", "custom_css": null}, {"id": 11331, "slack_id": "U092J208E92", "display_name": "Tymek", "bio": null, "projects_count": 0, "devlogs_count": 0, "votes_count": 0, "ships_count": 0, "projects": [], "coding_time_seconds": 0, "coding_time_seconds_today": 0, "balance": "You need to have a pocket watcher badge to view this.", "badges": [], "created_at": "2025-06-22T08:42:58.276-04:00", "updated_at": "2025-07-03T19:59:26.131-04:00", "avatar": "https://secure.gravatar.com/avatar/ea5122f128db381b04a1d80a7f9653ea.jpg?s=512&d=https%3A%2F%2Fa.slack-edge.com%2Fdf10d%2Fimg%2Favatars%2Fava_0000-512.png", "custom_css": null}, {"id": 11332, "slack_id": "U092J24LP6G", "display_name": "Sarthak", "bio": null, "projects_count": 1, "devlogs_count": 1, "votes_count": 0, "ships_count": 0, "projects": [{"id": 2875, "title": "QuickBlip", "devlogs_count": 1, "created_at": "2025-06-22T09:52:32.102-04:00"}], "coding_time_seconds": 23028, "coding_time_seconds_today": 0, "balance": "You need to have a pocket watcher badge to view this.", "badges": [], "created_at": "2025-06-22T08:44:07.290-04:00", "updated_at": "2025-07-04T02:31:18.676-04:00", "avatar": "https://secure.gravatar.com/avatar/cae85dc37cedd645ccb3de85ed7f7cac.jpg?s=512&d=https%3A%2F%2Fa.slack-edge.com%2Fdf10d%2Fimg%2Favatars%2Fava_0005-512.png", "custom_css": null}, {"id": 11333, "slack_id": "U09230675LP", "display_name": "kargnin", "bio": null, "projects_count": 0, "devlogs_count": 0, "votes_count": 0, "ships_count": 0, "projects": [], "coding_time_seconds": 116455, "coding_time_seconds_today": 0, "balance": "You need to have a pocket watcher badge to view this.", "badges": [], "created_at": "2025-06-22T08:45:13.448-04:00", "updated_at": "2025-07-03T19:59:26.559-04:00", "avatar": "https://secure.gravatar.com/avatar/808f276dfdba193569faf9b2ec7ea7e4.jpg?s=512&d=https%3A%2F%2Fa.slack-edge.com%2Fdf10d%2Fimg%2Favatars%2Fava_0001-512.png", "custom_css": null}, {"id": 11334, "slack_id": "U092304715M", "display_name": "mo", "bio": null, "projects_count": 4, "devlogs_count": 17, "votes_count": 9, "ships_count": 1, "projects": [{"id": 2879, "title": "Deal Dash", "devlogs_count": 5, "created_at": "2025-06-22T10:35:21.718-04:00"}, {"id": 2921, "title": "Hackomania", "devlogs_count": 3, "created_at": "2025-06-22T13:11:12.592-04:00"}, {"id": 3351, "title": "Spotify Macintosh Music Player", "devlogs_count": 6, "created_at": "2025-06-23T23:30:58.928-04:00"}, {"id": 3966, "title": "Hackomania v2", "devlogs_count": 3, "created_at": "2025-06-26T14:35:28.108-04:00"}], "coding_time_seconds": 310229, "coding_time_seconds_today": 0, "balance": "You need to have a pocket watcher badge to view this.", "badges": [{"name": "Maiden Voyage", "text": "you shipped your first project! the journey begins...", "icon": "\ud83d\udea2"}], "created_at": "2025-06-22T08:47:32.167-04:00", "updated_at": "2025-09-10T22:56:50.326-04:00", "avatar": "https://secure.gravatar.com/avatar/d07ed0393a94e8f5602303cd6e52ae3b.jpg?s=512&d=https%3A%2F%2Fa.slack-edge.com%2Fdf10d%2Fimg%2Favatars%2Fava_0025-512.png", "custom_css": null}, {"id": 11335, "slack_id": "U092H6VL8CU", "display_name": "Daksh Shrivastav", "bio": null, "projects_count": 4, "devlogs_count": 14, "votes_count": 10, "ships_count": 2, "projects": [{"id": 3194, "title": "TrayTrail", "devlogs_count": 9, "created_at": "2025-06-23T11:44:56.470-04:00"}, {"id": 7383, "title": "sync", "devlogs_count": 1, "created_at": "2025-07-21T12:57:03.574-04:00"}, {"id": 12659, "title": "FocusFlow", "devlogs_count": 0, "created_at": "2025-08-31T08:05:19.085-04:00"}, {"id": 3501, "title": "Portfolio Website", "devlogs_count": 4, "created_at": "2025-06-24T13:18:53.070-04:00"}], "coding_time_seconds": 103985, "coding_time_seconds_today": 0, "balance": "You need to have a pocket watcher badge to view this.", "badges": [{"name": "Maiden Voyage", "text": "you shipped your first project! the journey begins...", "icon": "\ud83d\udea2"}], "created_at": "2025-06-22T08:48:51.774-04:00", "updated_at": "2025-09-10T22:56:50.350-04:00", "avatar": "https://avatars.slack-edge.com/2025-06-22/9107692626432_a617240a339adc743026_original.jpg", "custom_css": null}, {"id": 11336, "slack_id": "U092BPSAT3Q", "display_name": "Laurensius Jeremy Fortino", "bio": null, "projects_count": 0, "devlogs_count": 0, "votes_count": 0, "ships_count": 0, "projects": [], "coding_time_seconds": 35489, "coding_time_seconds_today": 0, "balance": "You need to have a pocket watcher badge to view this.", "badges": [], "created_at": "2025-06-22T08:50:20.624-04:00", "updated_at": "2025-07-04T08:27:33.667-04:00", "avatar": "https://secure.gravatar.com/avatar/dbe5747a36677b2e3898cd96ee4113a6.jpg?s=512&d=https%3A%2F%2Fa.slack-edge.com%2Fdf10d%2Fimg%2Favatars%2Fava_0007-512.png", "custom_css": null}, {"id": 11337, "slack_id": "U092GH7TVPX", "display_name": "VINAY PRABHAKAR", "bio": null, "projects_count": 0, "devlogs_count": 0, "votes_count": 0, "ships_count": 0, "projects": [], "coding_time_seconds": 1193, "coding_time_seconds_today": 0, "balance": "You need to have a pocket watcher badge to view this.", "badges": [], "created_at": "2025-06-22T08:50:40.662-04:00", "updated_at": "2025-07-03T22:02:00.013-04:00", "avatar": "https://secure.gravatar.com/avatar/2c2059e2dbca7adc255a6c1c89b2073b.jpg?s=512&d=https%3A%2F%2Fa.slack-edge.com%2Fdf10d%2Fimg%2Favatars%2Fava_0005-512.png", "custom_css": null}, {"id": 11338, "slack_id": "U092WK4GNG1", "display_name": "Parisya Dannatha Hadyanura", "bio": null, "projects_count": 0, "devlogs_count": 0, "votes_count": 0, "ships_count": 0, "projects": [], "coding_time_seconds": 32426, "coding_time_seconds_today": 0, "balance": "You need to have a pocket watcher badge to view this.", "badges": [], "created_at": "2025-06-22T08:53:26.820-04:00", "updated_at": "2025-07-07T08:12:29.616-04:00", "avatar": "https://secure.gravatar.com/avatar/d9e91a30846bd559c6a1ea67b786aa4b.jpg?s=512&d=https%3A%2F%2Fa.slack-edge.com%2Fdf10d%2Fimg%2Favatars%2Fava_0004-512.png", "custom_css": null}, {"id": 11339, "slack_id": "U0935L97WHE", "display_name": "Harvey Orion Prabulegowo", "bio": null, "projects_count": 0, "devlogs_count": 0, "votes_count": 0, "ships_count": 0, "projects": [], "coding_time_seconds": 29140, "coding_time_seconds_today": 0, "balance": "You need to have a pocket watcher badge to view this.", "badges": [], "created_at": "2025-06-22T08:54:06.793-04:00", "updated_at": "2025-07-04T02:31:19.217-04:00", "avatar": "https://secure.gravatar.com/avatar/fdd1b0fd99348a33858da07097990a54.jpg?s=512&d=https%3A%2F%2Fa.slack-edge.com%2Fdf10d%2Fimg%2Favatars%2Fava_0023-512.png", "custom_css": null}, {"id": 11340, "slack_id": "U092BN7UMEG", "display_name": "Margot", "bio": null, "projects_count": 0, "devlogs_count": 0, "votes_count": 0, "ships_count": 0, "projects": [], "coding_time_seconds": 0, "coding_time_seconds_today": 0, "balance": "You need to have a pocket watcher badge to view this.", "badges": [], "created_at": "2025-06-22T08:54:32.859-04:00", "updated_at": "2025-07-03T19:59:27.659-04:00", "avatar": "https://secure.gravatar.com/avatar/e9ee24eb51bbc114454514fae26bbb0b.jpg?s=512&d=https%3A%2F%2Fa.slack-edge.com%2Fdf10d%2Fimg%2Favatars%2Fava_0007-512.png", "custom_css": null}], "pagination": {"page": 567, "pages": 1192, "count": 23828, "items": 20}}