{"users": [{"id": 11361, "slack_id": "U092GLHQJKF", "display_name": "sherlock", "bio": null, "projects_count": 0, "devlogs_count": 47, "votes_count": 23, "ships_count": 0, "projects": [], "coding_time_seconds": 796866, "coding_time_seconds_today": 0, "balance": "You need to have a pocket watcher badge to view this.", "badges": [{"name": "Maiden Voyage", "text": "you shipped your first project! the journey begins...", "icon": "\ud83d\udea2"}], "created_at": "2025-06-22T10:22:39.390-04:00", "updated_at": "2025-09-10T22:56:51.114-04:00", "avatar": "https://avatars.slack-edge.com/2025-06-24/9090614175829_14f6967db993ad0c392b_original.jpg", "custom_css": null}, {"id": 11362, "slack_id": "U092HKP1D3L", "display_name": "xCuzImVInni", "bio": null, "projects_count": 3, "devlogs_count": 9, "votes_count": 25, "ships_count": 1, "projects": [{"id": 3985, "title": "GeoSolver", "devlogs_count": 1, "created_at": "2025-06-26T17:23:41.615-04:00"}, {"id": 4710, "title": "GeoPrimes - Geometric Interpretation of Prime Factorization of Numbers", "devlogs_count": 3, "created_at": "2025-07-01T07:14:44.840-04:00"}, {"id": 2895, "title": "PrimeVector - new fast algorithm for GCD and LCM", "devlogs_count": 5, "created_at": "2025-06-22T11:43:09.224-04:00"}], "coding_time_seconds": 73591, "coding_time_seconds_today": 0, "balance": "You need to have a pocket watcher badge to view this.", "badges": [{"name": "Maiden Voyage", "text": "you shipped your first project! the journey begins...", "icon": "\ud83d\udea2"}], "created_at": "2025-06-22T10:27:25.343-04:00", "updated_at": "2025-09-10T22:56:51.138-04:00", "avatar": "https://secure.gravatar.com/avatar/4cf5c69baa6d2096c182e5a6d612d178.jpg?s=512&d=https%3A%2F%2Fa.slack-edge.com%2Fdf10d%2Fimg%2Favatars%2Fava_0007-512.png", "custom_css": null}, {"id": 11363, "slack_id": "U092GLPNF2R", "display_name": "Hursh", "bio": null, "projects_count": 6, "devlogs_count": 31, "votes_count": 231, "ships_count": 6, "projects": [{"id": 2911, "title": "Ion", "devlogs_count": 14, "created_at": "2025-06-22T12:36:23.837-04:00"}, {"id": 9896, "title": "The Eco Hub", "devlogs_count": 2, "created_at": "2025-08-02T18:25:10.877-04:00"}, {"id": 4088, "title": "IONIC-Loadblncr", "devlogs_count": 6, "created_at": "2025-06-27T12:02:11.926-04:00"}, {"id": 4718, "title": "The Brainfuck Interpreter", "devlogs_count": 2, "created_at": "2025-07-01T07:58:42.740-04:00"}, {"id": 8155, "title": "Spotlight", "devlogs_count": 2, "created_at": "2025-07-25T01:03:58.650-04:00"}, {"id": 11650, "title": "QuickFind", "devlogs_count": 5, "created_at": "2025-08-18T05:02:36.193-04:00"}], "coding_time_seconds": 523932, "coding_time_seconds_today": 0, "balance": "You need to have a pocket watcher badge to view this.", "badges": [{"name": "Maiden Voyage", "text": "you shipped your first project! the journey begins...", "icon": "\ud83d\udea2"}, {"name": "Ballot Stuffer", "text": "vote 100 times.", "icon": "https://summer.hackclub.com/assets/i_voted-bf851b48.png"}], "created_at": "2025-06-22T10:27:57.867-04:00", "updated_at": "2025-09-10T22:56:51.163-04:00", "avatar": "https://avatars.slack-edge.com/2025-06-22/9071165227639_be5af37b857bcb31ac97_original.png", "custom_css": null}, {"id": 11364, "slack_id": "U092BUBJ1L6", "display_name": "moiz", "bio": null, "projects_count": 0, "devlogs_count": 13, "votes_count": 0, "ships_count": 0, "projects": [], "coding_time_seconds": 460389, "coding_time_seconds_today": 0, "balance": "You need to have a pocket watcher badge to view this.", "badges": [{"name": "Maiden Voyage", "text": "you shipped your first project! the journey begins...", "icon": "\ud83d\udea2"}], "created_at": "2025-06-22T10:30:48.325-04:00", "updated_at": "2025-09-10T22:56:51.192-04:00", "avatar": "https://secure.gravatar.com/avatar/14d2ca9b994239fe82b1523e1e16be34.jpg?s=512&d=https%3A%2F%2Fa.slack-edge.com%2Fdf10d%2Fimg%2Favatars%2Fava_0003-512.png", "custom_css": null}, {"id": 11365, "slack_id": "U085Y363MJS", "display_name": "Hamza", "bio": null, "projects_count": 0, "devlogs_count": 0, "votes_count": 0, "ships_count": 0, "projects": [], "coding_time_seconds": 0, "coding_time_seconds_today": 0, "balance": "You need to have a pocket watcher badge to view this.", "badges": [], "created_at": "2025-06-22T10:32:15.857-04:00", "updated_at": "2025-07-05T14:14:11.700-04:00", "avatar": "https://secure.gravatar.com/avatar/74069ed9612730a9a0f77fc34bd8c01b.jpg?s=512&d=https%3A%2F%2Fa.slack-edge.com%2Fdf10d%2Fimg%2Favatars%2Fava_0005-512.png", "custom_css": null}, {"id": 11366, "slack_id": "U092BUCSEVC", "display_name": "Ayush Chauhan", "bio": null, "projects_count": 1, "devlogs_count": 0, "votes_count": 0, "ships_count": 0, "projects": [{"id": 2893, "title": "VideoStreamingBackend ", "devlogs_count": 0, "created_at": "2025-06-22T11:33:11.405-04:00"}], "coding_time_seconds": 56537, "coding_time_seconds_today": 0, "balance": "You need to have a pocket watcher badge to view this.", "badges": [], "created_at": "2025-06-22T10:35:46.750-04:00", "updated_at": "2025-07-03T19:59:33.617-04:00", "avatar": "https://secure.gravatar.com/avatar/b8ca14183ba2108ae55ba9abc4253131.jpg?s=512&d=https%3A%2F%2Fa.slack-edge.com%2Fdf10d%2Fimg%2Favatars%2Fava_0006-512.png", "custom_css": null}, {"id": 11367, "slack_id": "U09234ZCF2T", "display_name": "Adar S\u00f6nmez", "bio": null, "projects_count": 0, "devlogs_count": 0, "votes_count": 0, "ships_count": 0, "projects": [], "coding_time_seconds": 0, "coding_time_seconds_today": 0, "balance": "You need to have a pocket watcher badge to view this.", "badges": [], "created_at": "2025-06-22T10:36:18.276-04:00", "updated_at": "2025-07-03T19:59:33.887-04:00", "avatar": "https://secure.gravatar.com/avatar/a431474029566e1b8f91e22a09e3dd53.jpg?s=512&d=https%3A%2F%2Fa.slack-edge.com%2Fdf10d%2Fimg%2Favatars%2Fava_0005-512.png", "custom_css": null}, {"id": 11368, "slack_id": "U07DJHMCD6X", "display_name": "Kevin Gong", "bio": null, "projects_count": 0, "devlogs_count": 0, "votes_count": 0, "ships_count": 0, "projects": [], "coding_time_seconds": 0, "coding_time_seconds_today": 0, "balance": "You need to have a pocket watcher badge to view this.", "badges": [], "created_at": "2025-06-22T10:36:19.666-04:00", "updated_at": "2025-07-03T19:59:34.159-04:00", "avatar": "https://secure.gravatar.com/avatar/be37362127ec0bd85ebf8b355ae4be33.jpg?s=512&d=https%3A%2F%2Fa.slack-edge.com%2Fdf10d%2Fimg%2Favatars%2Fava_0008-512.png", "custom_css": null}, {"id": 11369, "slack_id": "U0796EB2BDW", "display_name": "Mi\u0142osz", "bio": null, "projects_count": 0, "devlogs_count": 0, "votes_count": 0, "ships_count": 0, "projects": [], "coding_time_seconds": 94575, "coding_time_seconds_today": 0, "balance": "You need to have a pocket watcher badge to view this.", "badges": [], "created_at": "2025-06-22T10:41:06.528-04:00", "updated_at": "2025-07-03T19:59:34.444-04:00", "avatar": "https://secure.gravatar.com/avatar/d4d5ac24a40494971aef2d0f2c4b24d7.jpg?s=512&d=https%3A%2F%2Fa.slack-edge.com%2Fdf10d%2Fimg%2Favatars%2Fava_0011-512.png", "custom_css": null}, {"id": 11370, "slack_id": "U092HLFD2DQ", "display_name": "Tree Plate", "bio": "github: https://github.com/treeplate\r\ncodingame: https://www.codingame.com/profile/8dbb0d45465f4bf4f9a717a32eabae817372043\r\nlichess: https://lichess.org/@/treeplate", "projects_count": 5, "devlogs_count": 18, "votes_count": 84, "ships_count": 4, "projects": [{"id": 4501, "title": "Depadeka", "devlogs_count": 7, "created_at": "2025-06-30T10:43:46.240-04:00"}, {"id": 6480, "title": "isd_treeclient", "devlogs_count": 2, "created_at": "2025-07-13T18:12:16.137-04:00"}, {"id": 6481, "title": "bushbowl", "devlogs_count": 1, "created_at": "2025-07-13T18:17:11.755-04:00"}, {"id": 11257, "title": "Tag Online", "devlogs_count": 5, "created_at": "2025-08-14T10:48:16.080-04:00"}, {"id": 5220, "title": "Fireworks", "devlogs_count": 3, "created_at": "2025-07-03T21:07:11.562-04:00"}], "coding_time_seconds": 164939, "coding_time_seconds_today": 0, "balance": "You need to have a pocket watcher badge to view this.", "badges": [{"name": "Maiden Voyage", "text": "you shipped your first project! the journey begins...", "icon": "\ud83d\udea2"}, {"name": "Ballot Stuffer", "text": "vote 100 times.", "icon": "https://summer.hackclub.com/assets/i_voted-bf851b48.png"}], "created_at": "2025-06-22T10:47:16.314-04:00", "updated_at": "2025-09-10T22:56:51.371-04:00", "avatar": "https://avatars.slack-edge.com/2025-06-22/9079995743238_aedc54beb03db0345ca2_original.png", "custom_css": null}, {"id": 11371, "slack_id": "U092B2M9GNP", "display_name": "t", "bio": null, "projects_count": 0, "devlogs_count": 0, "votes_count": 0, "ships_count": 0, "projects": [], "coding_time_seconds": 0, "coding_time_seconds_today": 0, "balance": "You need to have a pocket watcher badge to view this.", "badges": [], "created_at": "2025-06-22T10:47:53.488-04:00", "updated_at": "2025-07-03T22:02:02.462-04:00", "avatar": "https://secure.gravatar.com/avatar/b3c3139669ee3ba82c0b953d0430be69.jpg?s=512&d=https%3A%2F%2Fa.slack-edge.com%2Fdf10d%2Fimg%2Favatars%2Fava_0013-512.png", "custom_css": null}, {"id": 11372, "slack_id": "U092C012JVC", "display_name": "pozatron", "bio": null, "projects_count": 0, "devlogs_count": 0, "votes_count": 0, "ships_count": 0, "projects": [], "coding_time_seconds": 36414, "coding_time_seconds_today": 0, "balance": "You need to have a pocket watcher badge to view this.", "badges": [], "created_at": "2025-06-22T10:56:04.098-04:00", "updated_at": "2025-07-03T19:59:35.000-04:00", "avatar": "https://secure.gravatar.com/avatar/e81ec1a37519e56d170ad1b2e32e3b5e.jpg?s=512&d=https%3A%2F%2Fa.slack-edge.com%2Fdf10d%2Fimg%2Favatars%2Fava_0004-512.png", "custom_css": null}, {"id": 11373, "slack_id": "U08BY4AGM1V", "display_name": "Fabio Massimo Proietti", "bio": null, "projects_count": 0, "devlogs_count": 0, "votes_count": 0, "ships_count": 0, "projects": [], "coding_time_seconds": 37082, "coding_time_seconds_today": 0, "balance": "You need to have a pocket watcher badge to view this.", "badges": [], "created_at": "2025-06-22T10:56:50.245-04:00", "updated_at": "2025-07-03T22:02:02.657-04:00", "avatar": "https://secure.gravatar.com/avatar/ad1629cbd6a5d3c63221503cf8ac7436.jpg?s=512&d=https%3A%2F%2Fa.slack-edge.com%2Fdf10d%2Fimg%2Favatars%2Fava_0007-512.png", "custom_css": null}, {"id": 11374, "slack_id": "U092GN1QQLV", "display_name": "fytage", "bio": "https://summer.hackclub.com/users/11386", "projects_count": 3, "devlogs_count": 12, "votes_count": 61, "ships_count": 3, "projects": [{"id": 13603, "title": "Hackclub Mail Tracker Bot", "devlogs_count": 5, "created_at": "2025-09-20T15:14:41.030-04:00"}, {"id": 4348, "title": "CzechSurvival Updates", "devlogs_count": 4, "created_at": "2025-06-29T08:53:11.251-04:00"}, {"id": 4862, "title": "Legacy to MiniMessage Converter", "devlogs_count": 3, "created_at": "2025-07-02T00:36:53.417-04:00"}], "coding_time_seconds": 97024, "coding_time_seconds_today": 4334, "balance": "You need to have a pocket watcher badge to view this.", "badges": [{"name": "Maiden Voyage", "text": "you shipped your first project! the journey begins...", "icon": "\ud83d\udea2"}], "created_at": "2025-06-22T11:05:41.485-04:00", "updated_at": "2025-09-10T22:56:51.483-04:00", "avatar": "https://secure.gravatar.com/avatar/c0cb3549dbdcc05d5493999a5ef5dbd2.jpg?s=512&d=https%3A%2F%2Fa.slack-edge.com%2Fdf10d%2Fimg%2Favatars%2Fava_0010-512.png", "custom_css": null}, {"id": 11375, "slack_id": "U092C0KLF1U", "display_name": "aman", "bio": null, "projects_count": 1, "devlogs_count": 0, "votes_count": 0, "ships_count": 0, "projects": [{"id": 3214, "title": "vision.ai", "devlogs_count": 0, "created_at": "2025-06-23T13:31:52.850-04:00"}], "coding_time_seconds": 63930, "coding_time_seconds_today": 0, "balance": "You need to have a pocket watcher badge to view this.", "badges": [], "created_at": "2025-06-22T11:07:30.847-04:00", "updated_at": "2025-07-03T19:59:35.563-04:00", "avatar": "https://secure.gravatar.com/avatar/e209b4e025f5c6bd136527dcadf68f60.jpg?s=512&d=https%3A%2F%2Fa.slack-edge.com%2Fdf10d%2Fimg%2Favatars%2Fava_0001-512.png", "custom_css": null}, {"id": 11376, "slack_id": "U09236HVA4X", "display_name": "Asyut Hack Club", "bio": null, "projects_count": 0, "devlogs_count": 0, "votes_count": 0, "ships_count": 0, "projects": [], "coding_time_seconds": 1043, "coding_time_seconds_today": 0, "balance": "You need to have a pocket watcher badge to view this.", "badges": [], "created_at": "2025-06-22T11:10:07.781-04:00", "updated_at": "2025-07-22T12:44:06.584-04:00", "avatar": "https://avatars.slack-edge.com/2025-06-22/9085735147362_30170098f2036beade7f_original.png", "custom_css": null}, {"id": 11377, "slack_id": "U092HMFU56E", "display_name": "Kubiczeek", "bio": null, "projects_count": 1, "devlogs_count": 2, "votes_count": 0, "ships_count": 0, "projects": [{"id": 3522, "title": "Magist\u0159i", "devlogs_count": 2, "created_at": "2025-06-24T15:05:08.268-04:00"}], "coding_time_seconds": 137092, "coding_time_seconds_today": 0, "balance": "You need to have a pocket watcher badge to view this.", "badges": [], "created_at": "2025-06-22T11:11:44.865-04:00", "updated_at": "2025-07-03T19:59:35.981-04:00", "avatar": "https://secure.gravatar.com/avatar/c9b37e63ac161ff65e8196762a09e44b.jpg?s=512&d=https%3A%2F%2Fa.slack-edge.com%2Fdf10d%2Fimg%2Favatars%2Fava_0014-512.png", "custom_css": null}, {"id": 11378, "slack_id": "U0935S3LD7A", "display_name": "wowuyule", "bio": null, "projects_count": 0, "devlogs_count": 0, "votes_count": 0, "ships_count": 0, "projects": [], "coding_time_seconds": 0, "coding_time_seconds_today": 0, "balance": "You need to have a pocket watcher badge to view this.", "badges": [], "created_at": "2025-06-22T11:16:34.877-04:00", "updated_at": "2025-08-03T09:10:12.317-04:00", "avatar": "https://secure.gravatar.com/avatar/582c12c636159f41f58767952cc889f3.jpg?s=512&d=https%3A%2F%2Fa.slack-edge.com%2Fdf10d%2Fimg%2Favatars%2Fava_0023-512.png", "custom_css": null}, {"id": 11379, "slack_id": "U092WS3080H", "display_name": "zakkycrypt", "bio": null, "projects_count": 0, "devlogs_count": 0, "votes_count": 0, "ships_count": 0, "projects": [], "coding_time_seconds": 0, "coding_time_seconds_today": 0, "balance": "You need to have a pocket watcher badge to view this.", "badges": [], "created_at": "2025-06-22T11:21:33.827-04:00", "updated_at": "2025-07-03T19:59:36.520-04:00", "avatar": "https://secure.gravatar.com/avatar/29fe6d562c2c66f762f7b708b510887c.jpg?s=512&d=https%3A%2F%2Fa.slack-edge.com%2Fdf10d%2Fimg%2Favatars%2Fava_0025-512.png", "custom_css": null}, {"id": 11380, "slack_id": "U08S6NNS5J4", "display_name": "Faaz Mohamed", "bio": null, "projects_count": 1, "devlogs_count": 0, "votes_count": 0, "ships_count": 0, "projects": [{"id": 4089, "title": "Portfolio Website", "devlogs_count": 0, "created_at": "2025-06-27T12:17:25.078-04:00"}], "coding_time_seconds": 1082, "coding_time_seconds_today": 0, "balance": "You need to have a pocket watcher badge to view this.", "badges": [], "created_at": "2025-06-22T11:25:24.289-04:00", "updated_at": "2025-07-03T19:59:36.795-04:00", "avatar": "https://avatars.slack-edge.com/2025-05-15/8916036829921_bc93bfd00259c7addc14_original.jpg", "custom_css": null}], "pagination": {"page": 569, "pages": 1192, "count": 23828, "items": 20}}