{"users": [{"id": 1121, "slack_id": "U09182Y6C5V", "display_name": "Aicha", "bio": null, "projects_count": 0, "devlogs_count": 0, "votes_count": 0, "ships_count": 0, "projects": [], "coding_time_seconds": 0, "coding_time_seconds_today": 0, "balance": "You need to have a pocket watcher badge to view this.", "badges": [], "created_at": "2025-06-16T12:43:55.526-04:00", "updated_at": "2025-07-03T19:16:11.653-04:00", "avatar": "https://secure.gravatar.com/avatar/b03c20b1ba1c26a99a2fecd634571d53.jpg?s=512&d=https%3A%2F%2Fa.slack-edge.com%2Fdf10d%2Fimg%2Favatars%2Fava_0010-512.png", "custom_css": null}, {"id": 1122, "slack_id": "U091PQD24DA", "display_name": "Mikita Sirosh", "bio": null, "projects_count": 1, "devlogs_count": 1, "votes_count": 0, "ships_count": 1, "projects": [{"id": 1137, "title": "Sigma", "devlogs_count": 1, "created_at": "2025-06-17T17:30:54.333-04:00"}], "coding_time_seconds": 120362, "coding_time_seconds_today": 0, "balance": "You need to have a pocket watcher badge to view this.", "badges": [{"name": "Maiden Voyage", "text": "you shipped your first project! the journey begins...", "icon": "\ud83d\udea2"}], "created_at": "2025-06-16T12:44:04.587-04:00", "updated_at": "2025-09-10T22:51:42.820-04:00", "avatar": "https://secure.gravatar.com/avatar/91237fe30fe2428d50e9c7951438b3a4.jpg?s=512&d=https%3A%2F%2Fa.slack-edge.com%2Fdf10d%2Fimg%2Favatars%2Fava_0011-512.png", "custom_css": null}, {"id": 1123, "slack_id": "U091GE5H5DL", "display_name": "Manas Nagelia", "bio": null, "projects_count": 0, "devlogs_count": 0, "votes_count": 0, "ships_count": 0, "projects": [], "coding_time_seconds": 220445, "coding_time_seconds_today": 0, "balance": "You need to have a pocket watcher badge to view this.", "badges": [], "created_at": "2025-06-16T12:44:11.136-04:00", "updated_at": "2025-07-03T19:16:12.192-04:00", "avatar": "https://secure.gravatar.com/avatar/d3fe0ea3b0fc1ccd8d6d1b995980f941.jpg?s=512&d=https%3A%2F%2Fa.slack-edge.com%2Fdf10d%2Fimg%2Favatars%2Fava_0019-512.png", "custom_css": null}, {"id": 1124, "slack_id": "U091PBW4VFU", "display_name": "Avinash", "bio": null, "projects_count": 0, "devlogs_count": 0, "votes_count": 0, "ships_count": 0, "projects": [], "coding_time_seconds": 0, "coding_time_seconds_today": 0, "balance": "You need to have a pocket watcher badge to view this.", "badges": [], "created_at": "2025-06-16T12:44:13.475-04:00", "updated_at": "2025-07-03T19:16:12.471-04:00", "avatar": "https://secure.gravatar.com/avatar/bd09dc363124fb9eebd91a2b1591a469.jpg?s=512&d=https%3A%2F%2Fa.slack-edge.com%2Fdf10d%2Fimg%2Favatars%2Fava_0001-512.png", "custom_css": null}, {"id": 1125, "slack_id": "U091GCTQZGB", "display_name": "Jaina", "bio": null, "projects_count": 0, "devlogs_count": 0, "votes_count": 0, "ships_count": 0, "projects": [], "coding_time_seconds": 274218, "coding_time_seconds_today": 0, "balance": "You need to have a pocket watcher badge to view this.", "badges": [], "created_at": "2025-06-16T12:44:15.906-04:00", "updated_at": "2025-07-03T19:16:12.739-04:00", "avatar": "https://secure.gravatar.com/avatar/08fa7e315a0453f994d6e0a0e5baf35b.jpg?s=512&d=https%3A%2F%2Fa.slack-edge.com%2Fdf10d%2Fimg%2Favatars%2Fava_0000-512.png", "custom_css": null}, {"id": 1126, "slack_id": "U065R5BRFEX", "display_name": "Abdullahi.0x", "bio": null, "projects_count": 2, "devlogs_count": 1, "votes_count": 0, "ships_count": 0, "projects": [{"id": 2280, "title": "my fithub", "devlogs_count": 1, "created_at": "2025-06-20T16:07:32.236-04:00"}, {"id": 2289, "title": "Upscale", "devlogs_count": 0, "created_at": "2025-06-20T16:21:30.573-04:00"}], "coding_time_seconds": 919001, "coding_time_seconds_today": 0, "balance": "You need to have a pocket watcher badge to view this.", "badges": [], "created_at": "2025-06-16T12:44:25.950-04:00", "updated_at": "2025-07-03T19:16:13.022-04:00", "avatar": "https://avatars.slack-edge.com/2025-05-06/8855644755171_979338cff2655ed40847_original.jpg", "custom_css": null}, {"id": 1127, "slack_id": "U091PB3SZB4", "display_name": "pagzamaphone", "bio": null, "projects_count": 0, "devlogs_count": 0, "votes_count": 0, "ships_count": 0, "projects": [], "coding_time_seconds": 0, "coding_time_seconds_today": 0, "balance": "You need to have a pocket watcher badge to view this.", "badges": [], "created_at": "2025-06-16T12:44:26.407-04:00", "updated_at": "2025-07-03T19:16:13.291-04:00", "avatar": "https://secure.gravatar.com/avatar/3095759016d22652899e567b22394663.jpg?s=512&d=https%3A%2F%2Fa.slack-edge.com%2Fdf10d%2Fimg%2Favatars%2Fava_0026-512.png", "custom_css": null}, {"id": 1128, "slack_id": "U091MJACH9T", "display_name": "Juan Calzada Bernal", "bio": null, "projects_count": 0, "devlogs_count": 0, "votes_count": 0, "ships_count": 0, "projects": [], "coding_time_seconds": 0, "coding_time_seconds_today": 0, "balance": "You need to have a pocket watcher badge to view this.", "badges": [], "created_at": "2025-06-16T12:44:32.028-04:00", "updated_at": "2025-07-03T19:16:13.555-04:00", "avatar": "https://secure.gravatar.com/avatar/7cad5d44559410940c5daecd1fa60e3a.jpg?s=512&d=https%3A%2F%2Fa.slack-edge.com%2Fdf10d%2Fimg%2Favatars%2Fava_0002-512.png", "custom_css": null}, {"id": 1129, "slack_id": "U0921NV1N01", "display_name": "Vikramaditya", "bio": null, "projects_count": 0, "devlogs_count": 0, "votes_count": 0, "ships_count": 0, "projects": [], "coding_time_seconds": 0, "coding_time_seconds_today": 0, "balance": "You need to have a pocket watcher badge to view this.", "badges": [], "created_at": "2025-06-16T12:44:33.571-04:00", "updated_at": "2025-07-03T19:16:13.825-04:00", "avatar": "https://secure.gravatar.com/avatar/aff88a95e878e5b52ba178ba078dc515.jpg?s=512&d=https%3A%2F%2Fa.slack-edge.com%2Fdf10d%2Fimg%2Favatars%2Fava_0003-512.png", "custom_css": null}, {"id": 1130, "slack_id": "U0921T9CG73", "display_name": "Ayoub", "bio": null, "projects_count": 0, "devlogs_count": 0, "votes_count": 0, "ships_count": 0, "projects": [], "coding_time_seconds": 0, "coding_time_seconds_today": 0, "balance": "You need to have a pocket watcher badge to view this.", "badges": [], "created_at": "2025-06-16T12:44:39.446-04:00", "updated_at": "2025-07-03T19:16:14.100-04:00", "avatar": "https://secure.gravatar.com/avatar/e86256c66333110787679f651a6abb34.jpg?s=512&d=https%3A%2F%2Fa.slack-edge.com%2Fdf10d%2Fimg%2Favatars%2Fava_0017-512.png", "custom_css": null}, {"id": 1131, "slack_id": "U074MM2GARG", "display_name": "Shaurya Bisht", "bio": null, "projects_count": 0, "devlogs_count": 0, "votes_count": 0, "ships_count": 0, "projects": [], "coding_time_seconds": 241746, "coding_time_seconds_today": 0, "balance": "You need to have a pocket watcher badge to view this.", "badges": [], "created_at": "2025-06-16T12:44:42.629-04:00", "updated_at": "2025-08-15T02:02:45.243-04:00", "avatar": "https://avatars.slack-edge.com/2025-08-14/9384158188880_56d64a02058663826a48_original.png", "custom_css": null}, {"id": 1132, "slack_id": "U0921SNB2BB", "display_name": "Swiftalker", "bio": null, "projects_count": 0, "devlogs_count": 0, "votes_count": 0, "ships_count": 0, "projects": [], "coding_time_seconds": 6183, "coding_time_seconds_today": 0, "balance": "You need to have a pocket watcher badge to view this.", "badges": [], "created_at": "2025-06-16T12:44:42.698-04:00", "updated_at": "2025-07-03T19:16:14.641-04:00", "avatar": "https://secure.gravatar.com/avatar/9f69c223ee63cff1f66b7af129055975.jpg?s=512&d=https%3A%2F%2Fa.slack-edge.com%2Fdf10d%2Fimg%2Favatars%2Fava_0005-512.png", "custom_css": null}, {"id": 1133, "slack_id": "U091PQ9AZFW", "display_name": "Rahul", "bio": null, "projects_count": 0, "devlogs_count": 0, "votes_count": 0, "ships_count": 0, "projects": [], "coding_time_seconds": 0, "coding_time_seconds_today": 0, "balance": "You need to have a pocket watcher badge to view this.", "badges": [], "created_at": "2025-06-16T12:44:48.018-04:00", "updated_at": "2025-07-03T19:16:14.909-04:00", "avatar": "https://secure.gravatar.com/avatar/f0d01e262574531c8f13c49745a54160.jpg?s=512&d=https%3A%2F%2Fa.slack-edge.com%2Fdf10d%2Fimg%2Favatars%2Fava_0022-512.png", "custom_css": null}, {"id": 1134, "slack_id": "U091GBZK02F", "display_name": "Orlando", "bio": null, "projects_count": 0, "devlogs_count": 0, "votes_count": 0, "ships_count": 0, "projects": [], "coding_time_seconds": 12033, "coding_time_seconds_today": 0, "balance": "You need to have a pocket watcher badge to view this.", "badges": [], "created_at": "2025-06-16T12:44:56.001-04:00", "updated_at": "2025-07-03T19:16:15.193-04:00", "avatar": "https://secure.gravatar.com/avatar/3326a3ce7c20221686da387046d95305.jpg?s=512&d=https%3A%2F%2Fa.slack-edge.com%2Fdf10d%2Fimg%2Favatars%2Fava_0000-512.png", "custom_css": null}, {"id": 1135, "slack_id": "U091PQ6FCSG", "display_name": "priyadharshan", "bio": null, "projects_count": 1, "devlogs_count": 0, "votes_count": 0, "ships_count": 0, "projects": [{"id": 134, "title": "90 Degree Pride Homes", "devlogs_count": 0, "created_at": "2025-06-16T14:20:33.658-04:00"}], "coding_time_seconds": 48337, "coding_time_seconds_today": 0, "balance": "You need to have a pocket watcher badge to view this.", "badges": [], "created_at": "2025-06-16T12:45:09.484-04:00", "updated_at": "2025-07-03T19:16:15.460-04:00", "avatar": "https://secure.gravatar.com/avatar/08ad64408c2bfee804eda09a1290b4d1.jpg?s=512&d=https%3A%2F%2Fa.slack-edge.com%2Fdf10d%2Fimg%2Favatars%2Fava_0018-512.png", "custom_css": null}, {"id": 1136, "slack_id": "U091833319D", "display_name": "Alexandros Stathakopoulos", "bio": null, "projects_count": 0, "devlogs_count": 0, "votes_count": 0, "ships_count": 0, "projects": [], "coding_time_seconds": 4326, "coding_time_seconds_today": 0, "balance": "You need to have a pocket watcher badge to view this.", "badges": [], "created_at": "2025-06-16T12:45:18.346-04:00", "updated_at": "2025-07-03T19:16:15.733-04:00", "avatar": "https://secure.gravatar.com/avatar/7f13b1345c4a6f968a4e110e30ecdf6b.jpg?s=512&d=https%3A%2F%2Fa.slack-edge.com%2Fdf10d%2Fimg%2Favatars%2Fava_0017-512.png", "custom_css": null}, {"id": 1137, "slack_id": "U091PQFBWTE", "display_name": "Waseem Rahmani", "bio": null, "projects_count": 0, "devlogs_count": 0, "votes_count": 0, "ships_count": 0, "projects": [], "coding_time_seconds": 82654, "coding_time_seconds_today": 0, "balance": "You need to have a pocket watcher badge to view this.", "badges": [], "created_at": "2025-06-16T12:45:21.901-04:00", "updated_at": "2025-07-03T19:16:16.010-04:00", "avatar": "https://secure.gravatar.com/avatar/89011b464ea848f964b624662bf9f7fe.jpg?s=512&d=https%3A%2F%2Fa.slack-edge.com%2Fdf10d%2Fimg%2Favatars%2Fava_0013-512.png", "custom_css": null}, {"id": 1138, "slack_id": "U07AWNQTA30", "display_name": "valeriuv", "bio": null, "projects_count": 0, "devlogs_count": 0, "votes_count": 0, "ships_count": 0, "projects": [], "coding_time_seconds": 278350, "coding_time_seconds_today": 0, "balance": "You need to have a pocket watcher badge to view this.", "badges": [], "created_at": "2025-06-16T12:45:28.487-04:00", "updated_at": "2025-07-05T16:43:23.217-04:00", "avatar": "https://avatars.slack-edge.com/2024-07-25/7489588232993_389e951b73fea01c6713_original.jpg", "custom_css": null}, {"id": 1139, "slack_id": "U091GD03HL3", "display_name": "Marco Martinetz", "bio": null, "projects_count": 0, "devlogs_count": 0, "votes_count": 0, "ships_count": 0, "projects": [], "coding_time_seconds": 1750, "coding_time_seconds_today": 0, "balance": "You need to have a pocket watcher badge to view this.", "badges": [], "created_at": "2025-06-16T12:45:38.352-04:00", "updated_at": "2025-07-03T19:16:16.653-04:00", "avatar": "https://secure.gravatar.com/avatar/fb73051c49fe4be6dddea28cb1ca6a73.jpg?s=512&d=https%3A%2F%2Fa.slack-edge.com%2Fdf10d%2Fimg%2Favatars%2Fava_0019-512.png", "custom_css": null}, {"id": 1140, "slack_id": "U0826NXBN4B", "display_name": "Andrew Vincent", "bio": null, "projects_count": 0, "devlogs_count": 0, "votes_count": 0, "ships_count": 0, "projects": [], "coding_time_seconds": 5350, "coding_time_seconds_today": 0, "balance": "You need to have a pocket watcher badge to view this.", "badges": [], "created_at": "2025-06-16T12:45:40.279-04:00", "updated_at": "2025-07-03T19:16:16.927-04:00", "avatar": "https://secure.gravatar.com/avatar/f92cdd7647227807d7c9e9b4a65e4ce6.jpg?s=512&d=https%3A%2F%2Fa.slack-edge.com%2Fdf10d%2Fimg%2Favatars%2Fava_0003-512.png", "custom_css": null}], "pagination": {"page": 57, "pages": 1192, "count": 23827, "items": 20}}