{"users": [{"id": 11401, "slack_id": "U092B5U6ZD1", "display_name": "Gajendra Awasthi", "bio": null, "projects_count": 0, "devlogs_count": 0, "votes_count": 0, "ships_count": 0, "projects": [], "coding_time_seconds": 0, "coding_time_seconds_today": 0, "balance": "You need to have a pocket watcher badge to view this.", "badges": [], "created_at": "2025-06-22T12:04:36.083-04:00", "updated_at": "2025-07-03T19:59:40.999-04:00", "avatar": "https://secure.gravatar.com/avatar/9d81bc9eaa3eda17676946171f6d3fb5.jpg?s=512&d=https%3A%2F%2Fa.slack-edge.com%2Fdf10d%2Fimg%2Favatars%2Fava_0005-512.png", "custom_css": null}, {"id": 11402, "slack_id": "U085YGF3YJU", "display_name": "Carlo", "bio": null, "projects_count": 0, "devlogs_count": 0, "votes_count": 0, "ships_count": 0, "projects": [], "coding_time_seconds": 27090, "coding_time_seconds_today": 0, "balance": "You need to have a pocket watcher badge to view this.", "badges": [], "created_at": "2025-06-22T12:07:08.746-04:00", "updated_at": "2025-07-03T19:59:41.278-04:00", "avatar": "https://avatars.slack-edge.com/2024-12-20/8199726441077_6d864c6aac3e4226e982_original.png", "custom_css": null}, {"id": 11403, "slack_id": "U092HDH17V0", "display_name": "Debaditya", "bio": null, "projects_count": 0, "devlogs_count": 0, "votes_count": 0, "ships_count": 0, "projects": [], "coding_time_seconds": 0, "coding_time_seconds_today": 0, "balance": "You need to have a pocket watcher badge to view this.", "badges": [], "created_at": "2025-06-22T12:07:17.058-04:00", "updated_at": "2025-07-04T20:12:07.277-04:00", "avatar": "https://secure.gravatar.com/avatar/9e35d6f28e4e1591ae8627681ba25298.jpg?s=512&d=https%3A%2F%2Fa.slack-edge.com%2Fdf10d%2Fimg%2Favatars%2Fava_0001-512.png", "custom_css": null}, {"id": 11404, "slack_id": "U092HPT10LA", "display_name": "ARAVIND CHOCKALINGAM M", "bio": null, "projects_count": 0, "devlogs_count": 0, "votes_count": 0, "ships_count": 0, "projects": [], "coding_time_seconds": 0, "coding_time_seconds_today": 0, "balance": "You need to have a pocket watcher badge to view this.", "badges": [], "created_at": "2025-06-22T12:07:27.449-04:00", "updated_at": "2025-07-05T14:14:14.505-04:00", "avatar": "https://secure.gravatar.com/avatar/dba40713daf3903e3efa94825d0fbceb.jpg?s=512&d=https%3A%2F%2Fa.slack-edge.com%2Fdf10d%2Fimg%2Favatars%2Fava_0022-512.png", "custom_css": null}, {"id": 11405, "slack_id": "U08C2AF7B16", "display_name": "Hamza Sayed", "bio": "", "projects_count": 0, "devlogs_count": 4, "votes_count": 47, "ships_count": 0, "projects": [], "coding_time_seconds": 473205, "coding_time_seconds_today": 0, "balance": "You need to have a pocket watcher badge to view this.", "badges": [{"name": "Maiden Voyage", "text": "you shipped your first project! the journey begins...", "icon": "\ud83d\udea2"}], "created_at": "2025-06-22T12:09:29.218-04:00", "updated_at": "2025-09-10T22:56:52.497-04:00", "avatar": "https://avatars.slack-edge.com/2025-08-22/9421549398768_e95a8a345d5dbb9a256f_original.jpg", "custom_css": null}, {"id": 11406, "slack_id": "U092394JH0X", "display_name": "Ashlesh Deshmukh", "bio": null, "projects_count": 0, "devlogs_count": 0, "votes_count": 0, "ships_count": 0, "projects": [], "coding_time_seconds": 0, "coding_time_seconds_today": 0, "balance": "You need to have a pocket watcher badge to view this.", "badges": [], "created_at": "2025-06-22T12:12:38.376-04:00", "updated_at": "2025-07-03T19:59:42.089-04:00", "avatar": "https://secure.gravatar.com/avatar/886b47b3af5d0e13dbfd9b263a7c1f45.jpg?s=512&d=https%3A%2F%2Fa.slack-edge.com%2Fdf10d%2Fimg%2Favatars%2Fava_0012-512.png", "custom_css": null}, {"id": 11407, "slack_id": "U092GQKK9L5", "display_name": "Daniel Swart", "bio": null, "projects_count": 0, "devlogs_count": 0, "votes_count": 0, "ships_count": 0, "projects": [], "coding_time_seconds": 0, "coding_time_seconds_today": 0, "balance": "You need to have a pocket watcher badge to view this.", "badges": [], "created_at": "2025-06-22T12:16:33.215-04:00", "updated_at": "2025-07-03T19:59:42.358-04:00", "avatar": "https://secure.gravatar.com/avatar/94f0f95711e15e1feb54dedf1843b0e9.jpg?s=512&d=https%3A%2F%2Fa.slack-edge.com%2Fdf10d%2Fimg%2Favatars%2Fava_0017-512.png", "custom_css": null}, {"id": 11408, "slack_id": "U092B6NR75H", "display_name": "Muftasim Fuad Mahee", "bio": null, "projects_count": 0, "devlogs_count": 0, "votes_count": 0, "ships_count": 0, "projects": [], "coding_time_seconds": 0, "coding_time_seconds_today": 0, "balance": "You need to have a pocket watcher badge to view this.", "badges": [], "created_at": "2025-06-22T12:20:07.437-04:00", "updated_at": "2025-07-03T19:59:42.639-04:00", "avatar": "https://avatars.slack-edge.com/2025-06-22/9085832333826_c02dfe88678d49912b1b_original.png", "custom_css": null}, {"id": 11409, "slack_id": "U092JBT6G8L", "display_name": "David Oloketuyi", "bio": null, "projects_count": 1, "devlogs_count": 6, "votes_count": 3, "ships_count": 0, "projects": [{"id": 3174, "title": "Gameboy emu", "devlogs_count": 6, "created_at": "2025-06-23T10:21:43.882-04:00"}], "coding_time_seconds": 317004, "coding_time_seconds_today": 0, "balance": "You need to have a pocket watcher badge to view this.", "badges": [], "created_at": "2025-06-22T12:23:40.278-04:00", "updated_at": "2025-08-19T03:33:23.836-04:00", "avatar": "https://secure.gravatar.com/avatar/1468c06fe59eea3289d11ada6ce9713f.jpg?s=512&d=https%3A%2F%2Fa.slack-edge.com%2Fdf10d%2Fimg%2Favatars%2Fava_0026-512.png", "custom_css": null}, {"id": 11410, "slack_id": "U092292LQEM", "display_name": "Falandy Jean", "bio": null, "projects_count": 0, "devlogs_count": 0, "votes_count": 0, "ships_count": 0, "projects": [], "coding_time_seconds": 544251, "coding_time_seconds_today": 0, "balance": "You need to have a pocket watcher badge to view this.", "badges": [], "created_at": "2025-06-22T12:26:01.379-04:00", "updated_at": "2025-07-03T19:59:43.047-04:00", "avatar": "https://avatars.slack-edge.com/2025-06-22/9080146923958_f78e041cbb005b05f125_original.jpg", "custom_css": null}, {"id": 11411, "slack_id": "U092B6X4CLT", "display_name": "ashish rajpal", "bio": null, "projects_count": 0, "devlogs_count": 0, "votes_count": 0, "ships_count": 0, "projects": [], "coding_time_seconds": 213197, "coding_time_seconds_today": 120, "balance": "You need to have a pocket watcher badge to view this.", "badges": [], "created_at": "2025-06-22T12:28:28.769-04:00", "updated_at": "2025-07-03T19:59:43.327-04:00", "avatar": "https://avatars.slack-edge.com/2025-06-22/9079243754195_01bfce2ae978bd56dfe1_original.png", "custom_css": null}, {"id": 11412, "slack_id": "U092C475PM4", "display_name": "Emmanuel Mbappe", "bio": null, "projects_count": 1, "devlogs_count": 2, "votes_count": 1, "ships_count": 0, "projects": [{"id": 3445, "title": "Portal Jumper", "devlogs_count": 2, "created_at": "2025-06-24T09:48:00.350-04:00"}], "coding_time_seconds": 40533, "coding_time_seconds_today": 0, "balance": "You need to have a pocket watcher badge to view this.", "badges": [], "created_at": "2025-06-22T12:29:03.194-04:00", "updated_at": "2025-08-09T09:30:25.626-04:00", "avatar": "https://avatars.slack-edge.com/2025-06-22/9098999192241_0e568c79ac67bd9c3e79_original.jpg", "custom_css": null}, {"id": 11413, "slack_id": "U0935VA9A3A", "display_name": "Punya", "bio": null, "projects_count": 0, "devlogs_count": 0, "votes_count": 0, "ships_count": 0, "projects": [], "coding_time_seconds": 0, "coding_time_seconds_today": 0, "balance": "You need to have a pocket watcher badge to view this.", "badges": [], "created_at": "2025-06-22T12:32:18.767-04:00", "updated_at": "2025-07-03T19:59:43.876-04:00", "avatar": "https://secure.gravatar.com/avatar/49c8400a11b8e82e80595022e6326050.jpg?s=512&d=https%3A%2F%2Fa.slack-edge.com%2Fdf10d%2Fimg%2Favatars%2Fava_0023-512.png", "custom_css": null}, {"id": 11414, "slack_id": "U09209MF231", "display_name": "Aditya Pratap Singh", "bio": null, "projects_count": 2, "devlogs_count": 1, "votes_count": 2, "ships_count": 0, "projects": [{"id": 5542, "title": "One Piece", "devlogs_count": 1, "created_at": "2025-07-06T03:28:42.224-04:00"}, {"id": 2916, "title": "One Piece", "devlogs_count": 0, "created_at": "2025-06-22T12:50:33.078-04:00"}], "coding_time_seconds": 72350, "coding_time_seconds_today": 0, "balance": "You need to have a pocket watcher badge to view this.", "badges": [], "created_at": "2025-06-22T12:33:07.156-04:00", "updated_at": "2025-07-03T19:59:44.151-04:00", "avatar": "https://secure.gravatar.com/avatar/2f01228fa13b6ff8935452a19d77cc21.jpg?s=512&d=https%3A%2F%2Fa.slack-edge.com%2Fdf10d%2Fimg%2Favatars%2Fava_0021-512.png", "custom_css": null}, {"id": 11415, "slack_id": "U092GR84FN1", "display_name": "Isabella Alban", "bio": null, "projects_count": 0, "devlogs_count": 0, "votes_count": 0, "ships_count": 0, "projects": [], "coding_time_seconds": 0, "coding_time_seconds_today": 0, "balance": "You need to have a pocket watcher badge to view this.", "badges": [], "created_at": "2025-06-22T12:34:52.054-04:00", "updated_at": "2025-07-03T19:59:44.421-04:00", "avatar": "https://avatars.slack-edge.com/2025-06-22/9079251639667_2d7f31aa9637ed701961_original.jpg", "custom_css": null}, {"id": 11416, "slack_id": "U092X04GELR", "display_name": "Jeremy Quan", "bio": null, "projects_count": 2, "devlogs_count": 4, "votes_count": 0, "ships_count": 0, "projects": [{"id": 3002, "title": "Spark Games", "devlogs_count": 3, "created_at": "2025-06-22T17:44:10.823-04:00"}, {"id": 5759, "title": "Parkour Game", "devlogs_count": 1, "created_at": "2025-07-07T19:05:40.156-04:00"}], "coding_time_seconds": 205586, "coding_time_seconds_today": 0, "balance": "You need to have a pocket watcher badge to view this.", "badges": [], "created_at": "2025-06-22T12:37:19.048-04:00", "updated_at": "2025-07-03T22:02:05.599-04:00", "avatar": "https://secure.gravatar.com/avatar/ec238bc99cca722a690dd5bfdb6d952d.jpg?s=512&d=https%3A%2F%2Fa.slack-edge.com%2Fdf10d%2Fimg%2Favatars%2Fava_0021-512.png", "custom_css": null}, {"id": 11417, "slack_id": "U0931JYQY2U", "display_name": "Worapat Chuchoed", "bio": null, "projects_count": 0, "devlogs_count": 0, "votes_count": 0, "ships_count": 0, "projects": [], "coding_time_seconds": 0, "coding_time_seconds_today": 0, "balance": "You need to have a pocket watcher badge to view this.", "badges": [], "created_at": "2025-06-22T12:45:54.222-04:00", "updated_at": "2025-07-03T19:59:44.866-04:00", "avatar": "https://avatars.slack-edge.com/2025-06-22/9108018685728_340aae9e935084a779b6_original.png", "custom_css": null}, {"id": 11418, "slack_id": "U08N9HN5L87", "display_name": "Navya", "bio": null, "projects_count": 0, "devlogs_count": 0, "votes_count": 0, "ships_count": 0, "projects": [], "coding_time_seconds": 0, "coding_time_seconds_today": 0, "balance": "You need to have a pocket watcher badge to view this.", "badges": [], "created_at": "2025-06-22T12:46:23.829-04:00", "updated_at": "2025-07-03T19:59:45.132-04:00", "avatar": "https://avatars.slack-edge.com/2025-04-17/8757677043623_c6941cb0ef179d85a498_original.png", "custom_css": null}, {"id": 11419, "slack_id": "U092JCH6820", "display_name": "Kushal", "bio": null, "projects_count": 3, "devlogs_count": 13, "votes_count": 11, "ships_count": 2, "projects": [{"id": 3393, "title": " Mini Blog Viewer", "devlogs_count": 6, "created_at": "2025-06-24T04:21:09.015-04:00"}, {"id": 5000, "title": "meow-js", "devlogs_count": 5, "created_at": "2025-07-02T15:56:12.113-04:00"}, {"id": 3550, "title": "Trace Route Report", "devlogs_count": 2, "created_at": "2025-06-24T16:37:35.991-04:00"}], "coding_time_seconds": 592181, "coding_time_seconds_today": 4458, "balance": "You need to have a pocket watcher badge to view this.", "badges": [{"name": "Maiden Voyage", "text": "you shipped your first project! the journey begins...", "icon": "\ud83d\udea2"}], "created_at": "2025-06-22T12:46:43.124-04:00", "updated_at": "2025-09-10T22:56:53.082-04:00", "avatar": "https://avatars.slack-edge.com/2025-06-22/9084876534053_3db0e10b344137ab5b3c_original.png", "custom_css": null}, {"id": 11420, "slack_id": "U092C4TGF4N", "display_name": "Cypher1305", "bio": null, "projects_count": 0, "devlogs_count": 0, "votes_count": 0, "ships_count": 0, "projects": [], "coding_time_seconds": 0, "coding_time_seconds_today": 0, "balance": "You need to have a pocket watcher badge to view this.", "badges": [], "created_at": "2025-06-22T12:47:16.699-04:00", "updated_at": "2025-07-05T08:13:06.959-04:00", "avatar": "https://secure.gravatar.com/avatar/1100797d9f8134085a05057580d2866e.jpg?s=512&d=https%3A%2F%2Fa.slack-edge.com%2Fdf10d%2Fimg%2Favatars%2Fava_0015-512.png", "custom_css": null}], "pagination": {"page": 571, "pages": 1192, "count": 23828, "items": 20}}