{"users": [{"id": 11421, "slack_id": "U09360BUZ40", "display_name": "Saniya Sultana Ghazali", "bio": null, "projects_count": 0, "devlogs_count": 0, "votes_count": 0, "ships_count": 0, "projects": [], "coding_time_seconds": 28018, "coding_time_seconds_today": 0, "balance": "You need to have a pocket watcher badge to view this.", "badges": [], "created_at": "2025-06-22T12:48:54.194-04:00", "updated_at": "2025-07-07T12:17:37.936-04:00", "avatar": "https://avatars.slack-edge.com/2025-06-22/9099029778737_9fcb65d2e5a4efa6fb70_original.jpg", "custom_css": null}, {"id": 11422, "slack_id": "U092B7L3APM", "display_name": "manish", "bio": null, "projects_count": 0, "devlogs_count": 0, "votes_count": 0, "ships_count": 0, "projects": [], "coding_time_seconds": 0, "coding_time_seconds_today": 0, "balance": "You need to have a pocket watcher badge to view this.", "badges": [], "created_at": "2025-06-22T12:49:44.055-04:00", "updated_at": "2025-07-03T19:59:46.036-04:00", "avatar": "https://secure.gravatar.com/avatar/5168ce85d8ae6fc4d7cde4009df6135b.jpg?s=512&d=https%3A%2F%2Fa.slack-edge.com%2Fdf10d%2Fimg%2Favatars%2Fava_0024-512.png", "custom_css": null}, {"id": 11423, "slack_id": "U093606LHGQ", "display_name": "Mostafa Mohamed Abdallah Al-Arabi", "bio": null, "projects_count": 1, "devlogs_count": 1, "votes_count": 1, "ships_count": 0, "projects": [{"id": 5582, "title": "Derivative Calculator", "devlogs_count": 1, "created_at": "2025-07-06T11:20:03.854-04:00"}], "coding_time_seconds": 106925, "coding_time_seconds_today": 0, "balance": "You need to have a pocket watcher badge to view this.", "badges": [], "created_at": "2025-06-22T12:49:47.161-04:00", "updated_at": "2025-08-10T08:46:46.755-04:00", "avatar": "https://secure.gravatar.com/avatar/bf382c4ca76e4f8be8e280240277e20e.jpg?s=512&d=https%3A%2F%2Fa.slack-edge.com%2Fdf10d%2Fimg%2Favatars%2Fava_0023-512.png", "custom_css": null}, {"id": 11424, "slack_id": "U08TW98K90U", "display_name": "Pranathi", "bio": null, "projects_count": 0, "devlogs_count": 0, "votes_count": 0, "ships_count": 0, "projects": [], "coding_time_seconds": 0, "coding_time_seconds_today": 0, "balance": "You need to have a pocket watcher badge to view this.", "badges": [], "created_at": "2025-06-22T12:52:57.223-04:00", "updated_at": "2025-07-05T08:13:07.224-04:00", "avatar": "https://avatars.slack-edge.com/2025-05-28/8979612155425_86632ab8e921881f874b_original.jpg", "custom_css": null}, {"id": 11425, "slack_id": "U09360NH3DE", "display_name": "Sandeep Kommineni", "bio": null, "projects_count": 0, "devlogs_count": 0, "votes_count": 0, "ships_count": 0, "projects": [], "coding_time_seconds": 0, "coding_time_seconds_today": 0, "balance": "You need to have a pocket watcher badge to view this.", "badges": [], "created_at": "2025-06-22T12:57:26.339-04:00", "updated_at": "2025-07-03T19:59:46.706-04:00", "avatar": "https://secure.gravatar.com/avatar/87bd18d1fdc69d8a1c5dda9095ca70b6.jpg?s=512&d=https%3A%2F%2Fa.slack-edge.com%2Fdf10d%2Fimg%2Favatars%2Fava_0011-512.png", "custom_css": null}, {"id": 11426, "slack_id": "U092C5UGQB0", "display_name": "Nipun Dhananjaya", "bio": null, "projects_count": 0, "devlogs_count": 0, "votes_count": 0, "ships_count": 0, "projects": [], "coding_time_seconds": 0, "coding_time_seconds_today": 0, "balance": "You need to have a pocket watcher badge to view this.", "badges": [], "created_at": "2025-06-22T13:08:10.623-04:00", "updated_at": "2025-07-03T19:59:47.020-04:00", "avatar": "https://secure.gravatar.com/avatar/5a451fcbb29c977e113de7128670e98f.jpg?s=512&d=https%3A%2F%2Fa.slack-edge.com%2Fdf10d%2Fimg%2Favatars%2Fava_0024-512.png", "custom_css": null}, {"id": 11427, "slack_id": "U0923B35AUX", "display_name": "Calder Wilcox", "bio": null, "projects_count": 1, "devlogs_count": 3, "votes_count": 0, "ships_count": 0, "projects": [{"id": 3836, "title": "FAR", "devlogs_count": 3, "created_at": "2025-06-25T23:38:01.654-04:00"}], "coding_time_seconds": 27364, "coding_time_seconds_today": 0, "balance": "You need to have a pocket watcher badge to view this.", "badges": [], "created_at": "2025-06-22T13:08:52.038-04:00", "updated_at": "2025-07-03T19:59:47.274-04:00", "avatar": "https://secure.gravatar.com/avatar/62d848ea07dd8ca0ea803c6e3fb0805b.jpg?s=512&d=https%3A%2F%2Fa.slack-edge.com%2Fdf10d%2Fimg%2Favatars%2Fava_0002-512.png", "custom_css": null}, {"id": 11428, "slack_id": "U056M3XHW4S", "display_name": "ayonull", "bio": null, "projects_count": 0, "devlogs_count": 0, "votes_count": 0, "ships_count": 0, "projects": [], "coding_time_seconds": 0, "coding_time_seconds_today": 0, "balance": "You need to have a pocket watcher badge to view this.", "badges": [], "created_at": "2025-06-22T13:16:53.961-04:00", "updated_at": "2025-07-03T19:59:47.532-04:00", "avatar": "https://avatars.slack-edge.com/2024-05-19/7153408032817_ea8e77d06bbaf7f8a023_original.webp", "custom_css": null}, {"id": 11429, "slack_id": "U07U65DF8LE", "display_name": "Dumbhog", "bio": "", "projects_count": 2, "devlogs_count": 4, "votes_count": 6, "ships_count": 1, "projects": [{"id": 12606, "title": "Escape the Prison Recreation ", "devlogs_count": 0, "created_at": "2025-08-30T11:20:02.334-04:00"}, {"id": 12605, "title": "BookerBot", "devlogs_count": 4, "created_at": "2025-08-30T11:07:58.431-04:00"}], "coding_time_seconds": 42154, "coding_time_seconds_today": 0, "balance": "You need to have a pocket watcher badge to view this.", "badges": [{"name": "Maiden Voyage", "text": "you shipped your first project! the journey begins...", "icon": "\ud83d\udea2"}], "created_at": "2025-06-22T13:22:37.239-04:00", "updated_at": "2025-09-21T16:31:10.964-04:00", "avatar": "https://avatars.slack-edge.com/2024-12-14/8172269185717_9f428847944257ff0d01_original.png", "custom_css": null}, {"id": 11430, "slack_id": "U092GSTLW05", "display_name": "Mohd Anas", "bio": null, "projects_count": 1, "devlogs_count": 0, "votes_count": 0, "ships_count": 0, "projects": [{"id": 2933, "title": "BruhGrow Tools", "devlogs_count": 0, "created_at": "2025-06-22T13:53:59.390-04:00"}], "coding_time_seconds": 8775, "coding_time_seconds_today": 0, "balance": "You need to have a pocket watcher badge to view this.", "badges": [], "created_at": "2025-06-22T13:22:57.989-04:00", "updated_at": "2025-07-03T19:59:48.079-04:00", "avatar": "https://secure.gravatar.com/avatar/03d92690fa54ebb38062255a9cc5dd68.jpg?s=512&d=https%3A%2F%2Fa.slack-edge.com%2Fdf10d%2Fimg%2Favatars%2Fava_0013-512.png", "custom_css": null}, {"id": 11431, "slack_id": "U092HSR9CBC", "display_name": "Samuel", "bio": null, "projects_count": 0, "devlogs_count": 0, "votes_count": 0, "ships_count": 0, "projects": [], "coding_time_seconds": 0, "coding_time_seconds_today": 0, "balance": "You need to have a pocket watcher badge to view this.", "badges": [], "created_at": "2025-06-22T13:22:59.041-04:00", "updated_at": "2025-07-03T19:59:48.356-04:00", "avatar": "https://secure.gravatar.com/avatar/6e26fde63fa9164c250c04391246a096.jpg?s=512&d=https%3A%2F%2Fa.slack-edge.com%2Fdf10d%2Fimg%2Favatars%2Fava_0002-512.png", "custom_css": null}, {"id": 11432, "slack_id": "U01FW7BB1HT", "display_name": "Gavi", "bio": null, "projects_count": 0, "devlogs_count": 0, "votes_count": 0, "ships_count": 0, "projects": [], "coding_time_seconds": 0, "coding_time_seconds_today": 0, "balance": "You need to have a pocket watcher badge to view this.", "badges": [], "created_at": "2025-06-22T13:25:56.632-04:00", "updated_at": "2025-07-03T19:59:48.623-04:00", "avatar": "https://avatars.slack-edge.com/2021-03-23/1888291977027_51887a6c2bbd6e77d9c7_original.png", "custom_css": null}, {"id": 11433, "slack_id": "U09361LU6QG", "display_name": "Treasure", "bio": null, "projects_count": 0, "devlogs_count": 0, "votes_count": 0, "ships_count": 0, "projects": [], "coding_time_seconds": 0, "coding_time_seconds_today": 0, "balance": "You need to have a pocket watcher badge to view this.", "badges": [], "created_at": "2025-06-22T13:26:09.764-04:00", "updated_at": "2025-07-05T20:13:09.503-04:00", "avatar": "https://secure.gravatar.com/avatar/427f1083949454d6e55d2daf31928366.jpg?s=512&d=https%3A%2F%2Fa.slack-edge.com%2Fdf10d%2Fimg%2Favatars%2Fava_0008-512.png", "custom_css": null}, {"id": 11434, "slack_id": "U0923C3GB4P", "display_name": "Krazy Hacker", "bio": null, "projects_count": 0, "devlogs_count": 0, "votes_count": 0, "ships_count": 0, "projects": [], "coding_time_seconds": 298701, "coding_time_seconds_today": 0, "balance": "You need to have a pocket watcher badge to view this.", "badges": [], "created_at": "2025-06-22T13:26:32.733-04:00", "updated_at": "2025-08-15T18:23:05.530-04:00", "avatar": "https://secure.gravatar.com/avatar/bab1062e700d881b8f655c8bca671265.jpg?s=512&d=https%3A%2F%2Fa.slack-edge.com%2Fdf10d%2Fimg%2Favatars%2Fava_0012-512.png", "custom_css": null}, {"id": 11435, "slack_id": "U092C6MPW8N", "display_name": "decaaaa", "bio": null, "projects_count": 0, "devlogs_count": 55, "votes_count": 84, "ships_count": 0, "projects": [], "coding_time_seconds": 1287704, "coding_time_seconds_today": 0, "balance": "You need to have a pocket watcher badge to view this.", "badges": [{"name": "Maiden Voyage", "text": "you shipped your first project! the journey begins...", "icon": "\ud83d\udea2"}, {"name": "Ballot Stuffer", "text": "vote 100 times.", "icon": "https://summer.hackclub.com/assets/i_voted-bf851b48.png"}, {"name": "Preferred Customer", "text": "you'll never know what this does...", "icon": "https://summer.hackclub.com/assets/cool-9a1241d0.png"}], "created_at": "2025-06-22T13:27:00.960-04:00", "updated_at": "2025-09-10T22:56:53.547-04:00", "avatar": "https://avatars.slack-edge.com/2025-07-14/9218816568256_b81acca2ed5b8ea21cfb_original.png", "custom_css": null}, {"id": 11436, "slack_id": "U08LSHEDJES", "display_name": "Nour Sabir", "bio": null, "projects_count": 0, "devlogs_count": 0, "votes_count": 0, "ships_count": 0, "projects": [], "coding_time_seconds": 0, "coding_time_seconds_today": 0, "balance": "You need to have a pocket watcher badge to view this.", "badges": [], "created_at": "2025-06-22T13:29:52.133-04:00", "updated_at": "2025-07-03T19:59:49.434-04:00", "avatar": "https://avatars.slack-edge.com/2025-04-06/8699367080055_c53bc528cc9793f2c7d3_original.png", "custom_css": null}, {"id": 11437, "slack_id": "U092JE8PGN8", "display_name": "GOODNESS", "bio": null, "projects_count": 0, "devlogs_count": 0, "votes_count": 0, "ships_count": 0, "projects": [], "coding_time_seconds": 0, "coding_time_seconds_today": 0, "balance": "You need to have a pocket watcher badge to view this.", "badges": [], "created_at": "2025-06-22T13:31:24.412-04:00", "updated_at": "2025-07-04T08:27:40.421-04:00", "avatar": "https://secure.gravatar.com/avatar/e800391f8cadadeed823800c6e194cbe.jpg?s=512&d=https%3A%2F%2Fa.slack-edge.com%2Fdf10d%2Fimg%2Favatars%2Fava_0015-512.png", "custom_css": null}, {"id": 11438, "slack_id": "U092GSNCXBP", "display_name": "Omobolaji Adejumo", "bio": null, "projects_count": 0, "devlogs_count": 0, "votes_count": 0, "ships_count": 0, "projects": [], "coding_time_seconds": 0, "coding_time_seconds_today": 0, "balance": "You need to have a pocket watcher badge to view this.", "badges": [], "created_at": "2025-06-22T13:32:42.053-04:00", "updated_at": "2025-07-03T19:59:49.831-04:00", "avatar": "https://secure.gravatar.com/avatar/1a87a232e394417b9eb8af9ae48a233a.jpg?s=512&d=https%3A%2F%2Fa.slack-edge.com%2Fdf10d%2Fimg%2Favatars%2Fava_0026-512.png", "custom_css": null}, {"id": 11439, "slack_id": "U092GT6J4AZ", "display_name": "Ansh Singh", "bio": null, "projects_count": 0, "devlogs_count": 0, "votes_count": 0, "ships_count": 0, "projects": [], "coding_time_seconds": 0, "coding_time_seconds_today": 0, "balance": "You need to have a pocket watcher badge to view this.", "badges": [], "created_at": "2025-06-22T13:32:53.618-04:00", "updated_at": "2025-07-05T02:12:45.775-04:00", "avatar": "https://secure.gravatar.com/avatar/083f37f9ae8a946335dbeb35d68775c1.jpg?s=512&d=https%3A%2F%2Fa.slack-edge.com%2Fdf10d%2Fimg%2Favatars%2Fava_0017-512.png", "custom_css": null}, {"id": 11440, "slack_id": "U092GT5GMEH", "display_name": "Rohit Purkait", "bio": null, "projects_count": 0, "devlogs_count": 0, "votes_count": 0, "ships_count": 0, "projects": [], "coding_time_seconds": 4293, "coding_time_seconds_today": 0, "balance": "You need to have a pocket watcher badge to view this.", "badges": [], "created_at": "2025-06-22T13:35:10.364-04:00", "updated_at": "2025-07-03T19:59:50.229-04:00", "avatar": "https://avatars.slack-edge.com/2025-06-22/9071435145415_a7148a918db3df84d8ef_original.jpg", "custom_css": null}], "pagination": {"page": 572, "pages": 1192, "count": 23828, "items": 20}}