{"users": [{"id": 11441, "slack_id": "U0829PYMLEQ", "display_name": "Harrison Carmichael", "bio": null, "projects_count": 1, "devlogs_count": 2, "votes_count": 1, "ships_count": 0, "projects": [{"id": 4132, "title": "Tool Site", "devlogs_count": 2, "created_at": "2025-06-27T17:08:11.908-04:00"}], "coding_time_seconds": 106574, "coding_time_seconds_today": 0, "balance": "You need to have a pocket watcher badge to view this.", "badges": [], "created_at": "2025-06-22T13:36:49.067-04:00", "updated_at": "2025-07-03T19:59:50.487-04:00", "avatar": "https://secure.gravatar.com/avatar/8de391696855f033fe8c74d751ae36d9.jpg?s=512&d=https%3A%2F%2Fa.slack-edge.com%2Fdf10d%2Fimg%2Favatars%2Fava_0019-512.png", "custom_css": null}, {"id": 11442, "slack_id": "U092JEU181J", "display_name": "slawk0", "bio": null, "projects_count": 0, "devlogs_count": 0, "votes_count": 0, "ships_count": 0, "projects": [], "coding_time_seconds": 1, "coding_time_seconds_today": 0, "balance": "You need to have a pocket watcher badge to view this.", "badges": [], "created_at": "2025-06-22T13:39:36.678-04:00", "updated_at": "2025-07-03T19:59:50.748-04:00", "avatar": "https://secure.gravatar.com/avatar/bc48901cb96310c661b9fb60f24f8b4a.jpg?s=512&d=https%3A%2F%2Fa.slack-edge.com%2Fdf10d%2Fimg%2Favatars%2Fava_0013-512.png", "custom_css": null}, {"id": 11443, "slack_id": "U092X2THVHP", "display_name": "sus sus", "bio": null, "projects_count": 0, "devlogs_count": 0, "votes_count": 0, "ships_count": 0, "projects": [], "coding_time_seconds": 0, "coding_time_seconds_today": 0, "balance": "You need to have a pocket watcher badge to view this.", "badges": [], "created_at": "2025-06-22T13:39:45.087-04:00", "updated_at": "2025-07-03T19:59:51.006-04:00", "avatar": "https://secure.gravatar.com/avatar/c6d63e41ad2bfc0a71cae1c9936af621.jpg?s=512&d=https%3A%2F%2Fa.slack-edge.com%2Fdf10d%2Fimg%2Favatars%2Fava_0020-512.png", "custom_css": null}, {"id": 11444, "slack_id": "U09362H1X16", "display_name": "ruwak", "bio": null, "projects_count": 1, "devlogs_count": 0, "votes_count": 0, "ships_count": 0, "projects": [{"id": 3024, "title": "Shooting game(Idk the name yet)", "devlogs_count": 0, "created_at": "2025-06-22T20:09:49.234-04:00"}], "coding_time_seconds": 4630, "coding_time_seconds_today": 0, "balance": "You need to have a pocket watcher badge to view this.", "badges": [], "created_at": "2025-06-22T13:43:29.646-04:00", "updated_at": "2025-07-03T19:59:51.272-04:00", "avatar": "https://secure.gravatar.com/avatar/02038ec91a41d792596b2fcd9fdb5ad1.jpg?s=512&d=https%3A%2F%2Fa.slack-edge.com%2Fdf10d%2Fimg%2Favatars%2Fava_0024-512.png", "custom_css": null}, {"id": 11445, "slack_id": "U07BW41CW7R", "display_name": "Mizuki06", "bio": null, "projects_count": 0, "devlogs_count": 0, "votes_count": 0, "ships_count": 0, "projects": [], "coding_time_seconds": 0, "coding_time_seconds_today": 0, "balance": "You need to have a pocket watcher badge to view this.", "badges": [], "created_at": "2025-06-22T13:44:25.435-04:00", "updated_at": "2025-07-03T19:59:51.550-04:00", "avatar": "https://secure.gravatar.com/avatar/f587a63aa626fc7362d2681cf2a510a2.jpg?s=512&d=https%3A%2F%2Fa.slack-edge.com%2Fdf10d%2Fimg%2Favatars%2Fava_0026-512.png", "custom_css": null}, {"id": 11446, "slack_id": "U092C7HB894", "display_name": "Rohit Purkait", "bio": null, "projects_count": 0, "devlogs_count": 0, "votes_count": 0, "ships_count": 0, "projects": [], "coding_time_seconds": 71650, "coding_time_seconds_today": 0, "balance": "You need to have a pocket watcher badge to view this.", "badges": [], "created_at": "2025-06-22T13:50:18.335-04:00", "updated_at": "2025-07-03T19:59:51.813-04:00", "avatar": "https://avatars.slack-edge.com/2025-06-22/9086524570020_83265b993d4da6d74b35_original.png", "custom_css": null}, {"id": 11447, "slack_id": "U0923D38WP9", "display_name": "Egor Fynjirb", "bio": null, "projects_count": 0, "devlogs_count": 0, "votes_count": 0, "ships_count": 0, "projects": [], "coding_time_seconds": 0, "coding_time_seconds_today": 0, "balance": "You need to have a pocket watcher badge to view this.", "badges": [], "created_at": "2025-06-22T13:50:28.780-04:00", "updated_at": "2025-07-03T19:59:52.077-04:00", "avatar": "https://secure.gravatar.com/avatar/7f342b133517dac3eefcec5e530912e1.jpg?s=512&d=https%3A%2F%2Fa.slack-edge.com%2Fdf10d%2Fimg%2Favatars%2Fava_0013-512.png", "custom_css": null}, {"id": 11448, "slack_id": "U0868KBEVFE", "display_name": "Moaz Eid", "bio": null, "projects_count": 2, "devlogs_count": 10, "votes_count": 25, "ships_count": 2, "projects": [{"id": 13452, "title": "Breaking Orbits: A 3-Body Drama (Euler Can\u2019t Sit With Us)", "devlogs_count": 2, "created_at": "2025-09-16T20:49:26.599-04:00"}, {"id": 6087, "title": "Poke", "devlogs_count": 8, "created_at": "2025-07-10T13:23:12.812-04:00"}], "coding_time_seconds": 322292, "coding_time_seconds_today": 0, "balance": "You need to have a pocket watcher badge to view this.", "badges": [{"name": "Maiden Voyage", "text": "you shipped your first project! the journey begins...", "icon": "\ud83d\udea2"}], "created_at": "2025-06-22T13:54:33.757-04:00", "updated_at": "2025-09-10T22:56:53.887-04:00", "avatar": "https://avatars.slack-edge.com/2024-12-22/8210143297410_64889f745e12f8698f64_original.png", "custom_css": null}, {"id": 11449, "slack_id": "U092HTX0ZAN", "display_name": "Almeerah", "bio": null, "projects_count": 0, "devlogs_count": 0, "votes_count": 0, "ships_count": 0, "projects": [], "coding_time_seconds": 0, "coding_time_seconds_today": 0, "balance": "You need to have a pocket watcher badge to view this.", "badges": [], "created_at": "2025-06-22T13:56:36.454-04:00", "updated_at": "2025-07-03T19:59:52.596-04:00", "avatar": "https://secure.gravatar.com/avatar/e9394b85ece2ebb7022b06408bb9ce6c.jpg?s=512&d=https%3A%2F%2Fa.slack-edge.com%2Fdf10d%2Fimg%2Favatars%2Fava_0017-512.png", "custom_css": null}, {"id": 11450, "slack_id": "U0790C6S1GA", "display_name": "Fabio Toh", "bio": null, "projects_count": 0, "devlogs_count": 0, "votes_count": 0, "ships_count": 0, "projects": [], "coding_time_seconds": 287125, "coding_time_seconds_today": 0, "balance": "You need to have a pocket watcher badge to view this.", "badges": [], "created_at": "2025-06-22T13:59:55.607-04:00", "updated_at": "2025-07-03T19:59:52.856-04:00", "avatar": "https://avatars.slack-edge.com/2024-06-26/7357612303952_b2f75e3ac80d8ee858bc_original.jpg", "custom_css": null}, {"id": 11451, "slack_id": "U0923DJDL5D", "display_name": "Ekomobong Iwatt", "bio": null, "projects_count": 0, "devlogs_count": 0, "votes_count": 0, "ships_count": 0, "projects": [], "coding_time_seconds": 0, "coding_time_seconds_today": 0, "balance": "You need to have a pocket watcher badge to view this.", "badges": [], "created_at": "2025-06-22T14:03:27.867-04:00", "updated_at": "2025-07-03T19:59:53.128-04:00", "avatar": "https://avatars.slack-edge.com/2025-06-22/9099137174673_b5553c058f713375ea30_original.jpg", "custom_css": null}, {"id": 11452, "slack_id": "U092BAPJ0G3", "display_name": "Piyush", "bio": null, "projects_count": 0, "devlogs_count": 0, "votes_count": 0, "ships_count": 0, "projects": [], "coding_time_seconds": 0, "coding_time_seconds_today": 0, "balance": "You need to have a pocket watcher badge to view this.", "badges": [], "created_at": "2025-06-22T14:03:58.045-04:00", "updated_at": "2025-07-03T19:59:53.460-04:00", "avatar": "https://secure.gravatar.com/avatar/ab16b9a3f0655f6c3ba3cfba94d4d034.jpg?s=512&d=https%3A%2F%2Fa.slack-edge.com%2Fdf10d%2Fimg%2Favatars%2Fava_0025-512.png", "custom_css": null}, {"id": 11453, "slack_id": "U09363D1B88", "display_name": "James", "bio": null, "projects_count": 0, "devlogs_count": 0, "votes_count": 0, "ships_count": 0, "projects": [], "coding_time_seconds": 0, "coding_time_seconds_today": 0, "balance": "You need to have a pocket watcher badge to view this.", "badges": [], "created_at": "2025-06-22T14:05:55.614-04:00", "updated_at": "2025-07-03T19:59:53.739-04:00", "avatar": "https://secure.gravatar.com/avatar/f16edb82992b625999290de4b456585c.jpg?s=512&d=https%3A%2F%2Fa.slack-edge.com%2Fdf10d%2Fimg%2Favatars%2Fava_0001-512.png", "custom_css": null}, {"id": 11454, "slack_id": "U09363EL2JC", "display_name": "Eddy", "bio": null, "projects_count": 0, "devlogs_count": 0, "votes_count": 0, "ships_count": 0, "projects": [], "coding_time_seconds": 0, "coding_time_seconds_today": 0, "balance": "You need to have a pocket watcher badge to view this.", "badges": [], "created_at": "2025-06-22T14:08:07.193-04:00", "updated_at": "2025-07-03T19:59:53.998-04:00", "avatar": "https://secure.gravatar.com/avatar/6bcb14c49d0eb30b1969598eb7dac262.jpg?s=512&d=https%3A%2F%2Fa.slack-edge.com%2Fdf10d%2Fimg%2Favatars%2Fava_0010-512.png", "custom_css": null}, {"id": 11455, "slack_id": "U092GUAEY7P", "display_name": "Bigyan", "bio": null, "projects_count": 0, "devlogs_count": 0, "votes_count": 0, "ships_count": 0, "projects": [], "coding_time_seconds": 49430, "coding_time_seconds_today": 0, "balance": "You need to have a pocket watcher badge to view this.", "badges": [], "created_at": "2025-06-22T14:09:44.434-04:00", "updated_at": "2025-07-04T20:12:10.379-04:00", "avatar": "https://secure.gravatar.com/avatar/3682ddee0bb7d75f7213f3497f1af2dc.jpg?s=512&d=https%3A%2F%2Fa.slack-edge.com%2Fdf10d%2Fimg%2Favatars%2Fava_0013-512.png", "custom_css": null}, {"id": 11456, "slack_id": "U092JFZ3268", "display_name": "Nefnief", "bio": null, "projects_count": 0, "devlogs_count": 0, "votes_count": 0, "ships_count": 0, "projects": [], "coding_time_seconds": 54167, "coding_time_seconds_today": 0, "balance": "You need to have a pocket watcher badge to view this.", "badges": [], "created_at": "2025-06-22T14:10:03.085-04:00", "updated_at": "2025-07-04T20:12:10.495-04:00", "avatar": "https://secure.gravatar.com/avatar/ce8f1735b1223175d1df8663aa57a932.jpg?s=512&d=https%3A%2F%2Fa.slack-edge.com%2Fdf10d%2Fimg%2Favatars%2Fava_0019-512.png", "custom_css": null}, {"id": 11457, "slack_id": "U07L6UVCH5H", "display_name": "caleb", "bio": null, "projects_count": 0, "devlogs_count": 0, "votes_count": 0, "ships_count": 0, "projects": [], "coding_time_seconds": 0, "coding_time_seconds_today": 0, "balance": "You need to have a pocket watcher badge to view this.", "badges": [], "created_at": "2025-06-22T14:18:51.655-04:00", "updated_at": "2025-07-06T08:46:50.401-04:00", "avatar": "https://avatars.slack-edge.com/2024-09-24/7778690561860_5d5eb251d84845a58fe0_original.png", "custom_css": null}, {"id": 11458, "slack_id": "U0923EH0K47", "display_name": "Vani Jain", "bio": null, "projects_count": 0, "devlogs_count": 0, "votes_count": 0, "ships_count": 0, "projects": [], "coding_time_seconds": 0, "coding_time_seconds_today": 0, "balance": "You need to have a pocket watcher badge to view this.", "badges": [], "created_at": "2025-06-22T14:22:31.168-04:00", "updated_at": "2025-07-03T22:02:08.401-04:00", "avatar": "https://avatars.slack-edge.com/2025-06-22/9084983162741_3a1b2fc861e6e93ea3ad_original.png", "custom_css": null}, {"id": 11459, "slack_id": "U0923EJ5GLX", "display_name": "meh", "bio": null, "projects_count": 0, "devlogs_count": 0, "votes_count": 0, "ships_count": 0, "projects": [], "coding_time_seconds": 0, "coding_time_seconds_today": 0, "balance": "You need to have a pocket watcher badge to view this.", "badges": [], "created_at": "2025-06-22T14:28:13.286-04:00", "updated_at": "2025-07-03T19:59:54.973-04:00", "avatar": "https://secure.gravatar.com/avatar/c6996af00847adc74fc0f11cae34606d.jpg?s=512&d=https%3A%2F%2Fa.slack-edge.com%2Fdf10d%2Fimg%2Favatars%2Fava_0006-512.png", "custom_css": null}, {"id": 11460, "slack_id": "U092GUVD4MB", "display_name": "Majen", "bio": null, "projects_count": 0, "devlogs_count": 0, "votes_count": 0, "ships_count": 0, "projects": [], "coding_time_seconds": 0, "coding_time_seconds_today": 0, "balance": "You need to have a pocket watcher badge to view this.", "badges": [], "created_at": "2025-06-22T14:29:14.039-04:00", "updated_at": "2025-07-03T19:59:55.316-04:00", "avatar": "https://secure.gravatar.com/avatar/aacee998442dffdff0bb3c102acd3f14.jpg?s=512&d=https%3A%2F%2Fa.slack-edge.com%2Fdf10d%2Fimg%2Favatars%2Fava_0010-512.png", "custom_css": null}], "pagination": {"page": 573, "pages": 1192, "count": 23828, "items": 20}}