{"users": [{"id": 11481, "slack_id": "U092JKUGPFW", "display_name": "nanashi_314", "bio": null, "projects_count": 1, "devlogs_count": 1, "votes_count": 0, "ships_count": 0, "projects": [{"id": 2990, "title": "term-gamer", "devlogs_count": 1, "created_at": "2025-06-22T16:53:35.342-04:00"}], "coding_time_seconds": 146931, "coding_time_seconds_today": 452, "balance": "You need to have a pocket watcher badge to view this.", "badges": [], "created_at": "2025-06-22T15:45:22.214-04:00", "updated_at": "2025-07-03T20:00:00.294-04:00", "avatar": "https://avatars.slack-edge.com/2025-06-23/9100128967937_e3b94059485a982ccffa_original.png", "custom_css": null}, {"id": 11482, "slack_id": "U07G3PU71Q8", "display_name": "Ondrej Stanek", "bio": null, "projects_count": 6, "devlogs_count": 10, "votes_count": 39, "ships_count": 1, "projects": [{"id": 6678, "title": "Wavelength", "devlogs_count": 0, "created_at": "2025-07-15T04:05:16.919-04:00"}, {"id": 6679, "title": "Wavelength", "devlogs_count": 0, "created_at": "2025-07-15T04:05:17.619-04:00"}, {"id": 8563, "title": "voball", "devlogs_count": 0, "created_at": "2025-07-28T06:52:44.773-04:00"}, {"id": 9415, "title": "BlockOverlay", "devlogs_count": 0, "created_at": "2025-08-01T05:25:59.124-04:00"}, {"id": 4432, "title": "Canvas", "devlogs_count": 2, "created_at": "2025-06-29T20:09:20.480-04:00"}, {"id": 8658, "title": "LinkShare", "devlogs_count": 8, "created_at": "2025-07-28T20:01:41.515-04:00"}], "coding_time_seconds": 363137, "coding_time_seconds_today": 0, "balance": "You need to have a pocket watcher badge to view this.", "badges": [{"name": "Maiden Voyage", "text": "you shipped your first project! the journey begins...", "icon": "\ud83d\udea2"}], "created_at": "2025-06-22T15:49:03.001-04:00", "updated_at": "2025-09-10T22:56:55.006-04:00", "avatar": "https://secure.gravatar.com/avatar/4e05e4df232087189691ab38f39ef2da.jpg?s=512&d=https%3A%2F%2Fa.slack-edge.com%2Fdf10d%2Fimg%2Favatars%2Fava_0010-512.png", "custom_css": null}, {"id": 11483, "slack_id": "U0936768S0Y", "display_name": "jen", "bio": null, "projects_count": 0, "devlogs_count": 0, "votes_count": 0, "ships_count": 0, "projects": [], "coding_time_seconds": 0, "coding_time_seconds_today": 0, "balance": "You need to have a pocket watcher badge to view this.", "badges": [], "created_at": "2025-06-22T15:49:34.478-04:00", "updated_at": "2025-07-08T02:58:46.613-04:00", "avatar": "https://secure.gravatar.com/avatar/24a2ed869052d16279f1f615575a1d7d.jpg?s=512&d=https%3A%2F%2Fa.slack-edge.com%2Fdf10d%2Fimg%2Favatars%2Fava_0006-512.png", "custom_css": null}, {"id": 11484, "slack_id": "U09233MUUJK", "display_name": "Aarnav Thite", "bio": null, "projects_count": 1, "devlogs_count": 0, "votes_count": 0, "ships_count": 0, "projects": [{"id": 4610, "title": "Web Operator", "devlogs_count": 0, "created_at": "2025-06-30T21:21:41.587-04:00"}], "coding_time_seconds": 10092, "coding_time_seconds_today": 0, "balance": "You need to have a pocket watcher badge to view this.", "badges": [], "created_at": "2025-06-22T15:50:26.225-04:00", "updated_at": "2025-07-04T02:31:29.672-04:00", "avatar": "https://avatars.slack-edge.com/2025-06-22/9085077529509_1cbb910b30b4e2ad7fdf_original.png", "custom_css": null}, {"id": 11485, "slack_id": "U09366EQZ3J", "display_name": "Sadiq Teslim Adetola", "bio": null, "projects_count": 0, "devlogs_count": 0, "votes_count": 0, "ships_count": 0, "projects": [], "coding_time_seconds": 0, "coding_time_seconds_today": 0, "balance": "You need to have a pocket watcher badge to view this.", "badges": [], "created_at": "2025-06-22T15:52:31.243-04:00", "updated_at": "2025-07-03T20:00:01.132-04:00", "avatar": "https://secure.gravatar.com/avatar/2e03b6d7f72a580c8109ea2bec8c6d7c.jpg?s=512&d=https%3A%2F%2Fa.slack-edge.com%2Fdf10d%2Fimg%2Favatars%2Fava_0024-512.png", "custom_css": null}, {"id": 11486, "slack_id": "U092CCQ904W", "display_name": "Kalmia", "bio": null, "projects_count": 1, "devlogs_count": 2, "votes_count": 0, "ships_count": 0, "projects": [{"id": 3147, "title": "Java Calculator for BIGNUMBERs", "devlogs_count": 2, "created_at": "2025-06-23T08:34:13.703-04:00"}], "coding_time_seconds": 11043, "coding_time_seconds_today": 0, "balance": "You need to have a pocket watcher badge to view this.", "badges": [], "created_at": "2025-06-22T15:54:03.060-04:00", "updated_at": "2025-07-03T20:00:01.399-04:00", "avatar": "https://avatars.slack-edge.com/2025-06-22/9071620472983_37586df077ca9b0c0b00_original.jpg", "custom_css": null}, {"id": 11487, "slack_id": "U092X9DT6PK", "display_name": "Bipin", "bio": null, "projects_count": 0, "devlogs_count": 0, "votes_count": 0, "ships_count": 0, "projects": [], "coding_time_seconds": 26678, "coding_time_seconds_today": 0, "balance": "You need to have a pocket watcher badge to view this.", "badges": [], "created_at": "2025-06-22T16:16:39.097-04:00", "updated_at": "2025-07-03T20:00:01.686-04:00", "avatar": "https://secure.gravatar.com/avatar/2021a9783e5ccbf2a27a5a1f0aba543c.jpg?s=512&d=https%3A%2F%2Fa.slack-edge.com%2Fdf10d%2Fimg%2Favatars%2Fava_0024-512.png", "custom_css": null}, {"id": 11488, "slack_id": "U09368AGAKS", "display_name": "Reya Kannan", "bio": null, "projects_count": 1, "devlogs_count": 0, "votes_count": 0, "ships_count": 0, "projects": [{"id": 2991, "title": "The Lost Ruins", "devlogs_count": 0, "created_at": "2025-06-22T16:53:53.041-04:00"}], "coding_time_seconds": 378, "coding_time_seconds_today": 0, "balance": "You need to have a pocket watcher badge to view this.", "badges": [], "created_at": "2025-06-22T16:17:52.240-04:00", "updated_at": "2025-07-03T20:00:02.004-04:00", "avatar": "https://secure.gravatar.com/avatar/c0343cfe2ebf23fb1b04c78724dfc548.jpg?s=512&d=https%3A%2F%2Fa.slack-edge.com%2Fdf10d%2Fimg%2Favatars%2Fava_0011-512.png", "custom_css": null}, {"id": 11489, "slack_id": "U092X9KGZAM", "display_name": "Logan Cone", "bio": null, "projects_count": 0, "devlogs_count": 0, "votes_count": 0, "ships_count": 0, "projects": [], "coding_time_seconds": 41505, "coding_time_seconds_today": 0, "balance": "You need to have a pocket watcher badge to view this.", "badges": [], "created_at": "2025-06-22T16:18:30.891-04:00", "updated_at": "2025-07-04T02:31:30.014-04:00", "avatar": "https://secure.gravatar.com/avatar/1755821cb7ada7bbb7333a317303b29a.jpg?s=512&d=https%3A%2F%2Fa.slack-edge.com%2Fdf10d%2Fimg%2Favatars%2Fava_0020-512.png", "custom_css": null}, {"id": 11490, "slack_id": "U092BGAS683", "display_name": "Pedro", "bio": null, "projects_count": 0, "devlogs_count": 0, "votes_count": 0, "ships_count": 0, "projects": [], "coding_time_seconds": 60, "coding_time_seconds_today": 0, "balance": "You need to have a pocket watcher badge to view this.", "badges": [], "created_at": "2025-06-22T16:23:43.067-04:00", "updated_at": "2025-07-08T02:58:47.150-04:00", "avatar": "https://secure.gravatar.com/avatar/311944d76728eb18bd848cb6616a9df3.jpg?s=512&d=https%3A%2F%2Fa.slack-edge.com%2Fdf10d%2Fimg%2Favatars%2Fava_0004-512.png", "custom_css": null}, {"id": 11491, "slack_id": "U074M1T3AKW", "display_name": "Minglang Du", "bio": null, "projects_count": 0, "devlogs_count": 0, "votes_count": 0, "ships_count": 0, "projects": [], "coding_time_seconds": 38236, "coding_time_seconds_today": 0, "balance": "You need to have a pocket watcher badge to view this.", "badges": [], "created_at": "2025-06-22T16:33:16.223-04:00", "updated_at": "2025-07-06T10:34:32.920-04:00", "avatar": "https://avatars.slack-edge.com/2024-11-07/8000019746626_5003531663a1ae6d2a6c_original.png", "custom_css": null}, {"id": 11492, "slack_id": "U092JMSTR8C", "display_name": "Abdulaziz Bashir Umar", "bio": null, "projects_count": 0, "devlogs_count": 0, "votes_count": 0, "ships_count": 0, "projects": [], "coding_time_seconds": 0, "coding_time_seconds_today": 0, "balance": "You need to have a pocket watcher badge to view this.", "badges": [], "created_at": "2025-06-22T16:35:15.841-04:00", "updated_at": "2025-07-03T20:00:02.983-04:00", "avatar": "https://secure.gravatar.com/avatar/877e95debaa0f85b6666e250707b6477.jpg?s=512&d=https%3A%2F%2Fa.slack-edge.com%2Fdf10d%2Fimg%2Favatars%2Fava_0012-512.png", "custom_css": null}, {"id": 11493, "slack_id": "U09368U9KNC", "display_name": "Hailey Muniz", "bio": null, "projects_count": 0, "devlogs_count": 0, "votes_count": 0, "ships_count": 0, "projects": [], "coding_time_seconds": 0, "coding_time_seconds_today": 0, "balance": "You need to have a pocket watcher badge to view this.", "badges": [], "created_at": "2025-06-22T16:35:28.773-04:00", "updated_at": "2025-07-03T20:00:03.255-04:00", "avatar": "https://secure.gravatar.com/avatar/53878b7c59fad8961c384551b678d3ca.jpg?s=512&d=https%3A%2F%2Fa.slack-edge.com%2Fdf10d%2Fimg%2Favatars%2Fava_0005-512.png", "custom_css": null}, {"id": 11494, "slack_id": "U092CEKHH4N", "display_name": "Sami", "bio": null, "projects_count": 0, "devlogs_count": 0, "votes_count": 0, "ships_count": 0, "projects": [], "coding_time_seconds": 0, "coding_time_seconds_today": 0, "balance": "You need to have a pocket watcher badge to view this.", "badges": [], "created_at": "2025-06-22T16:40:32.141-04:00", "updated_at": "2025-07-05T02:12:49.090-04:00", "avatar": "https://secure.gravatar.com/avatar/47e7237578759427988447905eaea7f0.jpg?s=512&d=https%3A%2F%2Fa.slack-edge.com%2Fdf10d%2Fimg%2Favatars%2Fava_0024-512.png", "custom_css": null}, {"id": 11495, "slack_id": "U092JN1NY4U", "display_name": "Josh Smith", "bio": null, "projects_count": 0, "devlogs_count": 0, "votes_count": 0, "ships_count": 0, "projects": [], "coding_time_seconds": 0, "coding_time_seconds_today": 0, "balance": "You need to have a pocket watcher badge to view this.", "badges": [], "created_at": "2025-06-22T16:43:16.141-04:00", "updated_at": "2025-07-03T20:00:03.655-04:00", "avatar": "https://secure.gravatar.com/avatar/2961066f4cab028d2fb219c9f434bbf7.jpg?s=512&d=https%3A%2F%2Fa.slack-edge.com%2Fdf10d%2Fimg%2Favatars%2Fava_0026-512.png", "custom_css": null}, {"id": 11496, "slack_id": "U092XALDM7T", "display_name": "Sam", "bio": null, "projects_count": 0, "devlogs_count": 0, "votes_count": 0, "ships_count": 0, "projects": [], "coding_time_seconds": 0, "coding_time_seconds_today": 0, "balance": "You need to have a pocket watcher badge to view this.", "badges": [], "created_at": "2025-06-22T16:44:46.239-04:00", "updated_at": "2025-07-04T20:12:12.976-04:00", "avatar": "https://secure.gravatar.com/avatar/966d909462592f59bd5c1c38b312b895.jpg?s=512&d=https%3A%2F%2Fa.slack-edge.com%2Fdf10d%2Fimg%2Favatars%2Fava_0026-512.png", "custom_css": null}, {"id": 11497, "slack_id": "U092CF7957Y", "display_name": "Abudi", "bio": null, "projects_count": 3, "devlogs_count": 23, "votes_count": 59, "ships_count": 3, "projects": [{"id": 3162, "title": "Hype", "devlogs_count": 16, "created_at": "2025-06-23T09:35:12.580-04:00"}, {"id": 12143, "title": "my-personal-portfolio", "devlogs_count": 2, "created_at": "2025-08-23T14:14:14.702-04:00"}, {"id": 3802, "title": "TextCompleter", "devlogs_count": 4, "created_at": "2025-06-25T20:18:52.190-04:00"}], "coding_time_seconds": 338510, "coding_time_seconds_today": 0, "balance": "You need to have a pocket watcher badge to view this.", "badges": [{"name": "Maiden Voyage", "text": "you shipped your first project! the journey begins...", "icon": "\ud83d\udea2"}], "created_at": "2025-06-22T17:01:09.681-04:00", "updated_at": "2025-09-10T22:56:55.514-04:00", "avatar": "https://avatars.slack-edge.com/2025-06-22/9071711053431_3ea2a46d35a1bb840fdb_original.png", "custom_css": null}, {"id": 11498, "slack_id": "U092H4KPSA1", "display_name": "Umair", "bio": null, "projects_count": 0, "devlogs_count": 0, "votes_count": 0, "ships_count": 0, "projects": [], "coding_time_seconds": 114335, "coding_time_seconds_today": 0, "balance": "You need to have a pocket watcher badge to view this.", "badges": [], "created_at": "2025-06-22T17:05:34.981-04:00", "updated_at": "2025-07-03T20:00:04.210-04:00", "avatar": "https://secure.gravatar.com/avatar/fe42f8e7e7000d5956f50d2d893d05b7.jpg?s=512&d=https%3A%2F%2Fa.slack-edge.com%2Fdf10d%2Fimg%2Favatars%2Fava_0015-512.png", "custom_css": null}, {"id": 11499, "slack_id": "U092H4NFHB7", "display_name": "IMAD MESKACHE", "bio": null, "projects_count": 0, "devlogs_count": 0, "votes_count": 0, "ships_count": 0, "projects": [], "coding_time_seconds": 0, "coding_time_seconds_today": 0, "balance": "You need to have a pocket watcher badge to view this.", "badges": [], "created_at": "2025-06-22T17:09:57.131-04:00", "updated_at": "2025-07-04T08:27:44.502-04:00", "avatar": "https://avatars.slack-edge.com/2025-06-22/9080543525270_82dfef744781235eabd0_original.png", "custom_css": null}, {"id": 11500, "slack_id": "U0936AA9AJU", "display_name": "Claud\u00e9 Davis", "bio": null, "projects_count": 0, "devlogs_count": 0, "votes_count": 0, "ships_count": 0, "projects": [], "coding_time_seconds": 10889, "coding_time_seconds_today": 0, "balance": "You need to have a pocket watcher badge to view this.", "badges": [], "created_at": "2025-06-22T17:15:55.719-04:00", "updated_at": "2025-07-03T20:00:04.614-04:00", "avatar": "https://secure.gravatar.com/avatar/ae7becb132df8985c65deb8d96821eb9.jpg?s=512&d=https%3A%2F%2Fa.slack-edge.com%2Fdf10d%2Fimg%2Favatars%2Fava_0011-512.png", "custom_css": null}], "pagination": {"page": 575, "pages": 1192, "count": 23828, "items": 20}}