{"users": [{"id": 11501, "slack_id": "U092J69DC5Q", "display_name": "Perry Alex", "bio": null, "projects_count": 0, "devlogs_count": 0, "votes_count": 0, "ships_count": 0, "projects": [], "coding_time_seconds": 0, "coding_time_seconds_today": 0, "balance": "You need to have a pocket watcher badge to view this.", "badges": [], "created_at": "2025-06-22T17:21:19.954-04:00", "updated_at": "2025-07-03T20:00:04.870-04:00", "avatar": "https://avatars.slack-edge.com/2025-06-23/9092422470146_4ddc7d62e455a74d9adb_original.png", "custom_css": null}, {"id": 11502, "slack_id": "U0923MDLZ6K", "display_name": "Alexis Esperilla", "bio": null, "projects_count": 0, "devlogs_count": 0, "votes_count": 0, "ships_count": 0, "projects": [], "coding_time_seconds": 0, "coding_time_seconds_today": 0, "balance": "You need to have a pocket watcher badge to view this.", "badges": [], "created_at": "2025-06-22T17:21:58.045-04:00", "updated_at": "2025-07-04T08:27:44.740-04:00", "avatar": "https://secure.gravatar.com/avatar/2cb1b7e9b461c657dbb87f7e3d88ddaa.jpg?s=512&d=https%3A%2F%2Fa.slack-edge.com%2Fdf10d%2Fimg%2Favatars%2Fava_0018-512.png", "custom_css": null}, {"id": 11503, "slack_id": "U079B2WQRNV", "display_name": "Connor McHarg", "bio": null, "projects_count": 0, "devlogs_count": 0, "votes_count": 0, "ships_count": 0, "projects": [], "coding_time_seconds": 24688, "coding_time_seconds_today": 0, "balance": "You need to have a pocket watcher badge to view this.", "badges": [], "created_at": "2025-06-22T17:25:39.881-04:00", "updated_at": "2025-07-03T20:00:05.292-04:00", "avatar": "https://avatars.slack-edge.com/2024-07-26/7483503284197_5f1fa873dd6b659ee58a_original.jpg", "custom_css": null}, {"id": 11504, "slack_id": "U082A6E2BGC", "display_name": "TakeSomeBytes", "bio": null, "projects_count": 1, "devlogs_count": 0, "votes_count": 0, "ships_count": 0, "projects": [{"id": 9929, "title": "CycleBudget", "devlogs_count": 0, "created_at": "2025-08-03T00:49:50.749-04:00"}], "coding_time_seconds": 62844, "coding_time_seconds_today": 0, "balance": "You need to have a pocket watcher badge to view this.", "badges": [], "created_at": "2025-06-22T17:29:52.130-04:00", "updated_at": "2025-08-06T22:03:10.338-04:00", "avatar": "https://avatars.slack-edge.com/2025-06-22/9099508236497_a5fffc6493cca7849cf0_original.png", "custom_css": null}, {"id": 11505, "slack_id": "U0936B0H7FS", "display_name": "Wilson_", "bio": null, "projects_count": 0, "devlogs_count": 0, "votes_count": 0, "ships_count": 0, "projects": [], "coding_time_seconds": 0, "coding_time_seconds_today": 0, "balance": "You need to have a pocket watcher badge to view this.", "badges": [], "created_at": "2025-06-22T17:33:20.143-04:00", "updated_at": "2025-07-05T02:12:49.804-04:00", "avatar": "https://secure.gravatar.com/avatar/192310e016ce39063ae4a36dcbbc5372.jpg?s=512&d=https%3A%2F%2Fa.slack-edge.com%2Fdf10d%2Fimg%2Favatars%2Fava_0014-512.png", "custom_css": null}, {"id": 11506, "slack_id": "U0923N0HT1D", "display_name": "Kuba", "bio": null, "projects_count": 0, "devlogs_count": 0, "votes_count": 0, "ships_count": 0, "projects": [], "coding_time_seconds": 0, "coding_time_seconds_today": 0, "balance": "You need to have a pocket watcher badge to view this.", "badges": [], "created_at": "2025-06-22T17:33:21.957-04:00", "updated_at": "2025-07-03T20:00:05.975-04:00", "avatar": "https://secure.gravatar.com/avatar/0251faf51cbe430b8d701a53028dd67a.jpg?s=512&d=https%3A%2F%2Fa.slack-edge.com%2Fdf10d%2Fimg%2Favatars%2Fava_0004-512.png", "custom_css": null}, {"id": 11507, "slack_id": "U0923NBQPEK", "display_name": "Vaishnavi Kale", "bio": null, "projects_count": 0, "devlogs_count": 0, "votes_count": 0, "ships_count": 0, "projects": [], "coding_time_seconds": 0, "coding_time_seconds_today": 0, "balance": "You need to have a pocket watcher badge to view this.", "badges": [], "created_at": "2025-06-22T17:41:56.760-04:00", "updated_at": "2025-07-03T20:00:06.848-04:00", "avatar": "https://avatars.slack-edge.com/2025-06-22/9079660460803_c140f8e476abfdc3d8df_original.png", "custom_css": null}, {"id": 11508, "slack_id": "U092XCZB865", "display_name": "Orbernator", "bio": null, "projects_count": 1, "devlogs_count": 1, "votes_count": 1, "ships_count": 0, "projects": [{"id": 3072, "title": "Sentinel", "devlogs_count": 1, "created_at": "2025-06-23T01:47:34.170-04:00"}], "coding_time_seconds": 8395, "coding_time_seconds_today": 0, "balance": "You need to have a pocket watcher badge to view this.", "badges": [], "created_at": "2025-06-22T17:48:32.133-04:00", "updated_at": "2025-07-03T22:02:11.744-04:00", "avatar": "https://avatars.slack-edge.com/2025-06-23/9109001889536_9b544b4b5f8d8f7c309c_original.png", "custom_css": null}, {"id": 11509, "slack_id": "U092H067DNY", "display_name": "April Zhan", "bio": null, "projects_count": 0, "devlogs_count": 0, "votes_count": 0, "ships_count": 0, "projects": [], "coding_time_seconds": 0, "coding_time_seconds_today": 0, "balance": "You need to have a pocket watcher badge to view this.", "badges": [], "created_at": "2025-06-22T17:48:43.458-04:00", "updated_at": "2025-07-03T22:02:11.843-04:00", "avatar": "https://secure.gravatar.com/avatar/ac0031c95a87c65f0aa6eeb0c4539a5e.jpg?s=512&d=https%3A%2F%2Fa.slack-edge.com%2Fdf10d%2Fimg%2Favatars%2Fava_0005-512.png", "custom_css": null}, {"id": 11510, "slack_id": "U092A3XRFHC", "display_name": "Talha Niazi", "bio": null, "projects_count": 0, "devlogs_count": 0, "votes_count": 0, "ships_count": 0, "projects": [], "coding_time_seconds": 0, "coding_time_seconds_today": 0, "balance": "You need to have a pocket watcher badge to view this.", "badges": [], "created_at": "2025-06-22T17:56:18.294-04:00", "updated_at": "2025-07-04T02:31:31.671-04:00", "avatar": "https://avatars.slack-edge.com/2025-06-22/9086263230354_7c9cd064fdbf040623db_original.jpg", "custom_css": null}, {"id": 11511, "slack_id": "U092CHSSNTY", "display_name": "Eehan", "bio": null, "projects_count": 0, "devlogs_count": 0, "votes_count": 0, "ships_count": 0, "projects": [], "coding_time_seconds": 0, "coding_time_seconds_today": 0, "balance": "You need to have a pocket watcher badge to view this.", "badges": [], "created_at": "2025-06-22T18:00:22.237-04:00", "updated_at": "2025-07-03T20:00:07.534-04:00", "avatar": "https://secure.gravatar.com/avatar/3b6b4f59b3e6b3f63bdcc54f3716acae.jpg?s=512&d=https%3A%2F%2Fa.slack-edge.com%2Fdf10d%2Fimg%2Favatars%2Fava_0020-512.png", "custom_css": null}, {"id": 11512, "slack_id": "U0781SCMEFR", "display_name": "vrishank", "bio": null, "projects_count": 0, "devlogs_count": 0, "votes_count": 0, "ships_count": 0, "projects": [], "coding_time_seconds": 1225367, "coding_time_seconds_today": 0, "balance": "You need to have a pocket watcher badge to view this.", "badges": [], "created_at": "2025-06-22T18:10:42.542-04:00", "updated_at": "2025-07-03T20:00:07.804-04:00", "avatar": "https://avatars.slack-edge.com/2024-08-25/7626107249491_ccabf6e90ad5750e21dd_original.jpg", "custom_css": null}, {"id": 11513, "slack_id": "U092CH7JTFG", "display_name": "Hannes", "bio": null, "projects_count": 1, "devlogs_count": 0, "votes_count": 0, "ships_count": 0, "projects": [{"id": 4212, "title": "Web Scraping", "devlogs_count": 0, "created_at": "2025-06-28T07:33:51.458-04:00"}], "coding_time_seconds": 13895, "coding_time_seconds_today": 0, "balance": "You need to have a pocket watcher badge to view this.", "badges": [], "created_at": "2025-06-22T18:14:22.548-04:00", "updated_at": "2025-07-03T20:00:08.096-04:00", "avatar": "https://secure.gravatar.com/avatar/eac98cdb700c94297858ad1eff77ee0a.jpg?s=512&d=https%3A%2F%2Fa.slack-edge.com%2Fdf10d%2Fimg%2Favatars%2Fava_0004-512.png", "custom_css": null}, {"id": 11514, "slack_id": "U092XER77K3", "display_name": "Jorge Ale.", "bio": null, "projects_count": 0, "devlogs_count": 0, "votes_count": 0, "ships_count": 0, "projects": [], "coding_time_seconds": 0, "coding_time_seconds_today": 0, "balance": "You need to have a pocket watcher badge to view this.", "badges": [], "created_at": "2025-06-22T18:23:21.666-04:00", "updated_at": "2025-07-03T20:00:08.360-04:00", "avatar": "https://secure.gravatar.com/avatar/55da450668d6ae0061c112d9dfc56d58.jpg?s=512&d=https%3A%2F%2Fa.slack-edge.com%2Fdf10d%2Fimg%2Favatars%2Fava_0003-512.png", "custom_css": null}, {"id": 11515, "slack_id": "U092JSKCRFE", "display_name": "Beren", "bio": null, "projects_count": 0, "devlogs_count": 0, "votes_count": 0, "ships_count": 0, "projects": [], "coding_time_seconds": 0, "coding_time_seconds_today": 0, "balance": "You need to have a pocket watcher badge to view this.", "badges": [], "created_at": "2025-06-22T18:36:00.385-04:00", "updated_at": "2025-07-03T20:00:08.626-04:00", "avatar": "https://secure.gravatar.com/avatar/aaebffa400ec4684eb599bf3f29076a8.jpg?s=512&d=https%3A%2F%2Fa.slack-edge.com%2Fdf10d%2Fimg%2Favatars%2Fava_0012-512.png", "custom_css": null}, {"id": 11516, "slack_id": "U092JSKDDPW", "display_name": "King Sambonge", "bio": null, "projects_count": 0, "devlogs_count": 0, "votes_count": 0, "ships_count": 0, "projects": [], "coding_time_seconds": 0, "coding_time_seconds_today": 0, "balance": "You need to have a pocket watcher badge to view this.", "badges": [], "created_at": "2025-06-22T18:36:14.355-04:00", "updated_at": "2025-07-03T20:00:08.911-04:00", "avatar": "https://secure.gravatar.com/avatar/6eb81145eb6687ea5cb02f929abf80d7.jpg?s=512&d=https%3A%2F%2Fa.slack-edge.com%2Fdf10d%2Fimg%2Favatars%2Fava_0025-512.png", "custom_css": null}, {"id": 11517, "slack_id": "U092BMGMK19", "display_name": "Sam V", "bio": null, "projects_count": 4, "devlogs_count": 25, "votes_count": 20, "ships_count": 2, "projects": [{"id": 7310, "title": "Caption Editor", "devlogs_count": 6, "created_at": "2025-07-20T20:26:27.356-04:00"}, {"id": 12640, "title": "makemcserver CLI Tool", "devlogs_count": 6, "created_at": "2025-08-30T21:59:08.775-04:00"}, {"id": 13535, "title": "Country Guessing Game", "devlogs_count": 8, "created_at": "2025-09-18T20:12:40.611-04:00"}, {"id": 9897, "title": "Static Map API", "devlogs_count": 5, "created_at": "2025-08-02T18:40:20.729-04:00"}], "coding_time_seconds": 87037, "coding_time_seconds_today": 1964, "balance": "You need to have a pocket watcher badge to view this.", "badges": [{"name": "Maiden Voyage", "text": "you shipped your first project! the journey begins...", "icon": "\ud83d\udea2"}], "created_at": "2025-06-22T18:37:46.270-04:00", "updated_at": "2025-09-24T23:50:41.370-04:00", "avatar": "https://secure.gravatar.com/avatar/cfb2491eaba4f65bb8ba145fbe25d253.jpg?s=512&d=https%3A%2F%2Fa.slack-edge.com%2Fdf10d%2Fimg%2Favatars%2Fava_0020-512.png", "custom_css": null}, {"id": 11518, "slack_id": "U07GL0GG9CN", "display_name": "Kilometers H", "bio": null, "projects_count": 4, "devlogs_count": 9, "votes_count": 37, "ships_count": 2, "projects": [{"id": 8638, "title": "Robot Mower Installation Site", "devlogs_count": 0, "created_at": "2025-07-28T18:00:13.714-04:00"}, {"id": 10919, "title": "FTC Grant Tracker", "devlogs_count": 0, "created_at": "2025-08-11T19:28:14.474-04:00"}, {"id": 9545, "title": "Out of the Loop", "devlogs_count": 2, "created_at": "2025-08-01T16:08:23.070-04:00"}, {"id": 3029, "title": "FTC Robot Pathfinding/following", "devlogs_count": 7, "created_at": "2025-06-22T20:50:37.908-04:00"}], "coding_time_seconds": 249068, "coding_time_seconds_today": 0, "balance": "You need to have a pocket watcher badge to view this.", "badges": [{"name": "Maiden Voyage", "text": "you shipped your first project! the journey begins...", "icon": "\ud83d\udea2"}], "created_at": "2025-06-22T18:45:32.684-04:00", "updated_at": "2025-09-10T22:56:56.269-04:00", "avatar": "https://secure.gravatar.com/avatar/64eec4c037dbd7c84cc0f44ff6d0c62e.jpg?s=512&d=https%3A%2F%2Fa.slack-edge.com%2Fdf10d%2Fimg%2Favatars%2Fava_0011-512.png", "custom_css": null}, {"id": 11519, "slack_id": "U092XG3M5S5", "display_name": "Xonestly", "bio": null, "projects_count": 0, "devlogs_count": 0, "votes_count": 0, "ships_count": 0, "projects": [], "coding_time_seconds": 1331, "coding_time_seconds_today": 0, "balance": "You need to have a pocket watcher badge to view this.", "badges": [], "created_at": "2025-06-22T18:55:03.122-04:00", "updated_at": "2025-07-03T20:00:09.734-04:00", "avatar": "https://secure.gravatar.com/avatar/53fd561b2104826997eda137310c5992.jpg?s=512&d=https%3A%2F%2Fa.slack-edge.com%2Fdf10d%2Fimg%2Favatars%2Fava_0015-512.png", "custom_css": null}, {"id": 11520, "slack_id": "U092H83JZQD", "display_name": "Ryan Palmquist", "bio": null, "projects_count": 0, "devlogs_count": 0, "votes_count": 0, "ships_count": 0, "projects": [], "coding_time_seconds": 0, "coding_time_seconds_today": 0, "balance": "You need to have a pocket watcher badge to view this.", "badges": [], "created_at": "2025-06-22T18:55:23.194-04:00", "updated_at": "2025-07-04T02:31:32.397-04:00", "avatar": "https://secure.gravatar.com/avatar/1897cb5f83279aa41e3519090c730968.jpg?s=512&d=https%3A%2F%2Fa.slack-edge.com%2Fdf10d%2Fimg%2Favatars%2Fava_0016-512.png", "custom_css": null}], "pagination": {"page": 576, "pages": 1192, "count": 23828, "items": 20}}