{"users": [{"id": 11521, "slack_id": "U092H85KF53", "display_name": "Marek Kacvinsk\u00fd", "bio": null, "projects_count": 0, "devlogs_count": 0, "votes_count": 0, "ships_count": 0, "projects": [], "coding_time_seconds": 0, "coding_time_seconds_today": 0, "balance": "You need to have a pocket watcher badge to view this.", "badges": [], "created_at": "2025-06-22T18:55:23.881-04:00", "updated_at": "2025-07-04T02:31:32.520-04:00", "avatar": "https://secure.gravatar.com/avatar/e93ee51ae5b1ac59977360552c9a88f7.jpg?s=512&d=https%3A%2F%2Fa.slack-edge.com%2Fdf10d%2Fimg%2Favatars%2Fava_0024-512.png", "custom_css": null}, {"id": 11522, "slack_id": "U092XG20XG9", "display_name": "Lavanya", "bio": null, "projects_count": 1, "devlogs_count": 4, "votes_count": 0, "ships_count": 1, "projects": [{"id": 3015, "title": "Lavanya's Resteraunt (Fake) Menu", "devlogs_count": 4, "created_at": "2025-06-22T19:23:21.505-04:00"}], "coding_time_seconds": 15323, "coding_time_seconds_today": 0, "balance": "You need to have a pocket watcher badge to view this.", "badges": [{"name": "Maiden Voyage", "text": "you shipped your first project! the journey begins...", "icon": "\ud83d\udea2"}], "created_at": "2025-06-22T18:57:15.193-04:00", "updated_at": "2025-09-10T22:56:56.417-04:00", "avatar": "https://avatars.slack-edge.com/2025-06-27/9138239771616_65eebc98a34108147e29_original.jpg", "custom_css": null}, {"id": 11523, "slack_id": "U092H8G7LBF", "display_name": "Tech sis", "bio": null, "projects_count": 0, "devlogs_count": 0, "votes_count": 0, "ships_count": 0, "projects": [], "coding_time_seconds": 0, "coding_time_seconds_today": 0, "balance": "You need to have a pocket watcher badge to view this.", "badges": [], "created_at": "2025-06-22T19:03:55.838-04:00", "updated_at": "2025-07-05T08:13:13.077-04:00", "avatar": "https://secure.gravatar.com/avatar/c9e8e197632e2e2e0a341becf80d85c5.jpg?s=512&d=https%3A%2F%2Fa.slack-edge.com%2Fdf10d%2Fimg%2Favatars%2Fava_0026-512.png", "custom_css": null}, {"id": 11524, "slack_id": "U0936ELRRCG", "display_name": "street", "bio": null, "projects_count": 0, "devlogs_count": 0, "votes_count": 0, "ships_count": 0, "projects": [], "coding_time_seconds": 0, "coding_time_seconds_today": 0, "balance": "You need to have a pocket watcher badge to view this.", "badges": [], "created_at": "2025-06-22T19:04:48.044-04:00", "updated_at": "2025-07-03T20:00:10.870-04:00", "avatar": "https://secure.gravatar.com/avatar/d97744a47259ff94338ffe28b3692149.jpg?s=512&d=https%3A%2F%2Fa.slack-edge.com%2Fdf10d%2Fimg%2Favatars%2Fava_0003-512.png", "custom_css": null}, {"id": 11525, "slack_id": "U0936EX7PDW", "display_name": "Kayode", "bio": null, "projects_count": 0, "devlogs_count": 0, "votes_count": 0, "ships_count": 0, "projects": [], "coding_time_seconds": 467158, "coding_time_seconds_today": 1453, "balance": "You need to have a pocket watcher badge to view this.", "badges": [], "created_at": "2025-06-22T19:13:38.784-04:00", "updated_at": "2025-07-03T20:00:11.124-04:00", "avatar": "https://secure.gravatar.com/avatar/041386b45305c67edd3ba25d768dc3c8.jpg?s=512&d=https%3A%2F%2Fa.slack-edge.com%2Fdf10d%2Fimg%2Favatars%2Fava_0004-512.png", "custom_css": null}, {"id": 11526, "slack_id": "U092XHBAX7B", "display_name": "Alan", "bio": null, "projects_count": 1, "devlogs_count": 1, "votes_count": 0, "ships_count": 0, "projects": [{"id": 3020, "title": "Bindis", "devlogs_count": 1, "created_at": "2025-06-22T19:52:05.174-04:00"}], "coding_time_seconds": 15558, "coding_time_seconds_today": 0, "balance": "You need to have a pocket watcher badge to view this.", "badges": [], "created_at": "2025-06-22T19:17:35.783-04:00", "updated_at": "2025-07-03T20:00:11.405-04:00", "avatar": "https://secure.gravatar.com/avatar/d429385875b81f86cd9914fd92bbad12.jpg?s=512&d=https%3A%2F%2Fa.slack-edge.com%2Fdf10d%2Fimg%2Favatars%2Fava_0026-512.png", "custom_css": null}, {"id": 11527, "slack_id": "U092CN74GMU", "display_name": "advayc", "bio": "", "projects_count": 7, "devlogs_count": 53, "votes_count": 128, "ships_count": 5, "projects": [{"id": 3283, "title": "Gravity Collision Simulator", "devlogs_count": 7, "created_at": "2025-06-23T16:49:25.929-04:00"}, {"id": 11541, "title": "windows themed personal portfolio website", "devlogs_count": 12, "created_at": "2025-08-16T21:36:59.044-04:00"}, {"id": 11633, "title": "ChessPulse", "devlogs_count": 1, "created_at": "2025-08-17T23:42:23.829-04:00"}, {"id": 12864, "title": "spy", "devlogs_count": 21, "created_at": "2025-09-03T22:18:51.026-04:00"}, {"id": 11536, "title": "vex robotics robot", "devlogs_count": 1, "created_at": "2025-08-16T19:46:07.628-04:00"}, {"id": 11535, "title": "nums", "devlogs_count": 4, "created_at": "2025-08-16T19:45:18.381-04:00"}, {"id": 7513, "title": "resume to personal website generator", "devlogs_count": 7, "created_at": "2025-07-22T02:08:12.647-04:00"}], "coding_time_seconds": 381544, "coding_time_seconds_today": 0, "balance": "You need to have a pocket watcher badge to view this.", "badges": [{"name": "Maiden Voyage", "text": "you shipped your first project! the journey begins...", "icon": "\ud83d\udea2"}, {"name": "Ballot Stuffer", "text": "vote 100 times.", "icon": "https://summer.hackclub.com/assets/i_voted-bf851b48.png"}], "created_at": "2025-06-22T19:34:52.021-04:00", "updated_at": "2025-09-10T22:56:56.666-04:00", "avatar": "https://secure.gravatar.com/avatar/a6d86317851f8e733fa1776ba246addc.jpg?s=512&d=https%3A%2F%2Fa.slack-edge.com%2Fdf10d%2Fimg%2Favatars%2Fava_0003-512.png", "custom_css": null}, {"id": 11528, "slack_id": "U092K0CPSEQ", "display_name": "Luke", "bio": null, "projects_count": 1, "devlogs_count": 11, "votes_count": 51, "ships_count": 1, "projects": [{"id": 3396, "title": "psx-emu (PS1 Emulator)", "devlogs_count": 11, "created_at": "2025-06-24T04:30:41.792-04:00"}], "coding_time_seconds": 289043, "coding_time_seconds_today": 13366, "balance": "You need to have a pocket watcher badge to view this.", "badges": [{"name": "Maiden Voyage", "text": "you shipped your first project! the journey begins...", "icon": "\ud83d\udea2"}], "created_at": "2025-06-22T19:42:47.695-04:00", "updated_at": "2025-09-10T22:56:56.697-04:00", "avatar": "https://secure.gravatar.com/avatar/17b725600d9b1861ec835597d5cbf22a.jpg?s=512&d=https%3A%2F%2Fa.slack-edge.com%2Fdf10d%2Fimg%2Favatars%2Fava_0012-512.png", "custom_css": null}, {"id": 11529, "slack_id": "U0923PKQLMV", "display_name": "Calder Wilcox", "bio": null, "projects_count": 1, "devlogs_count": 1, "votes_count": 0, "ships_count": 0, "projects": [{"id": 3046, "title": "F.A.R.", "devlogs_count": 1, "created_at": "2025-06-22T22:47:49.794-04:00"}], "coding_time_seconds": 2238, "coding_time_seconds_today": 0, "balance": "You need to have a pocket watcher badge to view this.", "badges": [], "created_at": "2025-06-22T19:42:58.062-04:00", "updated_at": "2025-07-03T20:00:12.129-04:00", "avatar": "https://secure.gravatar.com/avatar/572ddcc27f36c74a24a7cf60b0d8c4be.jpg?s=512&d=https%3A%2F%2Fa.slack-edge.com%2Fdf10d%2Fimg%2Favatars%2Fava_0013-512.png", "custom_css": null}, {"id": 11530, "slack_id": "U0936GATCSC", "display_name": "Holden", "bio": null, "projects_count": 1, "devlogs_count": 2, "votes_count": 14, "ships_count": 1, "projects": [{"id": 3043, "title": "Calculus-Based Mechanics and Electromagnetics Book", "devlogs_count": 2, "created_at": "2025-06-22T22:31:49.852-04:00"}], "coding_time_seconds": 18223, "coding_time_seconds_today": 0, "balance": "You need to have a pocket watcher badge to view this.", "badges": [{"name": "Maiden Voyage", "text": "you shipped your first project! the journey begins...", "icon": "\ud83d\udea2"}], "created_at": "2025-06-22T19:43:35.771-04:00", "updated_at": "2025-09-10T22:56:56.765-04:00", "avatar": "https://secure.gravatar.com/avatar/34efdaaf40042109d13432faa29f533e.jpg?s=512&d=https%3A%2F%2Fa.slack-edge.com%2Fdf10d%2Fimg%2Favatars%2Fava_0017-512.png", "custom_css": null}, {"id": 11531, "slack_id": "U092K10JJ6Q", "display_name": "Pallavi Shah", "bio": null, "projects_count": 1, "devlogs_count": 2, "votes_count": 0, "ships_count": 0, "projects": [{"id": 3686, "title": "Ice Cream Website", "devlogs_count": 2, "created_at": "2025-06-25T08:09:56.973-04:00"}], "coding_time_seconds": 2156, "coding_time_seconds_today": 0, "balance": "You need to have a pocket watcher badge to view this.", "badges": [], "created_at": "2025-06-22T19:56:36.419-04:00", "updated_at": "2025-07-03T20:00:12.671-04:00", "avatar": "https://avatars.slack-edge.com/2025-06-22/9099668599521_3b28253ff871377909d8_original.png", "custom_css": null}, {"id": 11532, "slack_id": "U092XKD8EKB", "display_name": "Mia", "bio": null, "projects_count": 0, "devlogs_count": 0, "votes_count": 0, "ships_count": 0, "projects": [], "coding_time_seconds": 0, "coding_time_seconds_today": 0, "balance": "You need to have a pocket watcher badge to view this.", "badges": [], "created_at": "2025-06-22T19:57:39.916-04:00", "updated_at": "2025-07-03T20:00:12.932-04:00", "avatar": "https://secure.gravatar.com/avatar/0abf1c2de5e72968f6605732f574ad87.jpg?s=512&d=https%3A%2F%2Fa.slack-edge.com%2Fdf10d%2Fimg%2Favatars%2Fava_0025-512.png", "custom_css": null}, {"id": 11533, "slack_id": "U082M14RFM0", "display_name": "Alex Liu", "bio": null, "projects_count": 2, "devlogs_count": 5, "votes_count": 23, "ships_count": 2, "projects": [{"id": 3334, "title": "Fight the Monsters!", "devlogs_count": 2, "created_at": "2025-06-23T21:37:02.809-04:00"}, {"id": 3897, "title": "Mean Squared Error and Linear Model", "devlogs_count": 3, "created_at": "2025-06-26T07:03:44.891-04:00"}], "coding_time_seconds": 19946, "coding_time_seconds_today": 0, "balance": "You need to have a pocket watcher badge to view this.", "badges": [{"name": "Maiden Voyage", "text": "you shipped your first project! the journey begins...", "icon": "\ud83d\udea2"}], "created_at": "2025-06-22T20:02:04.936-04:00", "updated_at": "2025-09-10T22:56:56.839-04:00", "avatar": "https://secure.gravatar.com/avatar/31ddc41473467cce376f63ebcfe37292.jpg?s=512&d=https%3A%2F%2Fa.slack-edge.com%2Fdf10d%2Fimg%2Favatars%2Fava_0013-512.png", "custom_css": null}, {"id": 11534, "slack_id": "U0936HUF1CG", "display_name": "Charmi Doshi", "bio": null, "projects_count": 0, "devlogs_count": 0, "votes_count": 0, "ships_count": 0, "projects": [], "coding_time_seconds": 13093, "coding_time_seconds_today": 0, "balance": "You need to have a pocket watcher badge to view this.", "badges": [], "created_at": "2025-06-22T20:07:54.737-04:00", "updated_at": "2025-07-03T20:00:13.462-04:00", "avatar": "https://avatars.slack-edge.com/2025-06-22/9085397631509_e27d820214ab046db668_original.jpg", "custom_css": null}, {"id": 11535, "slack_id": "U092BRWLBJ7", "display_name": "Val", "bio": null, "projects_count": 1, "devlogs_count": 0, "votes_count": 0, "ships_count": 0, "projects": [{"id": 3055, "title": "Artwork manager", "devlogs_count": 0, "created_at": "2025-06-22T23:32:46.324-04:00"}], "coding_time_seconds": 1650, "coding_time_seconds_today": 0, "balance": "You need to have a pocket watcher badge to view this.", "badges": [], "created_at": "2025-06-22T20:17:41.352-04:00", "updated_at": "2025-07-04T02:31:33.476-04:00", "avatar": "https://secure.gravatar.com/avatar/e8a893132deb8f080b3c4f1f59380592.jpg?s=512&d=https%3A%2F%2Fa.slack-edge.com%2Fdf10d%2Fimg%2Favatars%2Fava_0014-512.png", "custom_css": null}, {"id": 11536, "slack_id": "U09242LTAQ7", "display_name": "stephen", "bio": null, "projects_count": 0, "devlogs_count": 0, "votes_count": 0, "ships_count": 0, "projects": [], "coding_time_seconds": 0, "coding_time_seconds_today": 0, "balance": "You need to have a pocket watcher badge to view this.", "badges": [], "created_at": "2025-06-22T20:48:33.383-04:00", "updated_at": "2025-07-08T02:59:07.113-04:00", "avatar": "https://secure.gravatar.com/avatar/6d5f8210318ca097f2218204f79d8b8e.jpg?s=512&d=https%3A%2F%2Fa.slack-edge.com%2Fdf10d%2Fimg%2Favatars%2Fava_0023-512.png", "custom_css": null}, {"id": 11537, "slack_id": "U091G1772LS", "display_name": "Ryan", "bio": "stupid idiot who touches computers sometimes . ", "projects_count": 1, "devlogs_count": 1, "votes_count": 10, "ships_count": 1, "projects": [{"id": 10703, "title": "pomegranate", "devlogs_count": 1, "created_at": "2025-08-09T21:35:08.964-04:00"}], "coding_time_seconds": 139474, "coding_time_seconds_today": 0, "balance": "You need to have a pocket watcher badge to view this.", "badges": [{"name": "Maiden Voyage", "text": "you shipped your first project! the journey begins...", "icon": "\ud83d\udea2"}], "created_at": "2025-06-22T20:56:47.317-04:00", "updated_at": "2025-09-10T22:56:56.954-04:00", "avatar": "https://avatars.slack-edge.com/2025-06-23/9080008154275_63c0b518b8c3766339db_original.jpg", "custom_css": null}, {"id": 11538, "slack_id": "U09243EK3BR", "display_name": "Pratyaksh Arora", "bio": null, "projects_count": 0, "devlogs_count": 0, "votes_count": 0, "ships_count": 0, "projects": [], "coding_time_seconds": 0, "coding_time_seconds_today": 0, "balance": "You need to have a pocket watcher badge to view this.", "badges": [], "created_at": "2025-06-22T21:00:10.841-04:00", "updated_at": "2025-07-03T20:00:14.149-04:00", "avatar": "https://secure.gravatar.com/avatar/9cb4c0f2c7d0fb8cf1d575591a9bb3a1.jpg?s=512&d=https%3A%2F%2Fa.slack-edge.com%2Fdf10d%2Fimg%2Favatars%2Fava_0022-512.png", "custom_css": null}, {"id": 11539, "slack_id": "U092HERC9GD", "display_name": "Javahn", "bio": null, "projects_count": 2, "devlogs_count": 2, "votes_count": 0, "ships_count": 0, "projects": [{"id": 3647, "title": "Paper Scissors Rock!", "devlogs_count": 2, "created_at": "2025-06-25T04:58:41.759-04:00"}, {"id": 4143, "title": "PyCalc tkGUI", "devlogs_count": 0, "created_at": "2025-06-27T19:13:23.500-04:00"}], "coding_time_seconds": 8900, "coding_time_seconds_today": 0, "balance": "You need to have a pocket watcher badge to view this.", "badges": [], "created_at": "2025-06-22T21:01:35.368-04:00", "updated_at": "2025-07-03T20:00:14.423-04:00", "avatar": "https://secure.gravatar.com/avatar/fa390a4d7c245c9560c036f34812f90c.jpg?s=512&d=https%3A%2F%2Fa.slack-edge.com%2Fdf10d%2Fimg%2Favatars%2Fava_0002-512.png", "custom_css": null}, {"id": 11540, "slack_id": "U092C0UN5TM", "display_name": "Convy32", "bio": "Hi", "projects_count": 4, "devlogs_count": 4, "votes_count": 6, "ships_count": 0, "projects": [{"id": 3777, "title": "Motorsport Quizzes ", "devlogs_count": 0, "created_at": "2025-06-25T17:27:04.438-04:00"}, {"id": 5534, "title": "Ducky Utils", "devlogs_count": 0, "created_at": "2025-07-06T00:46:05.800-04:00"}, {"id": 7319, "title": "YSWS Timer", "devlogs_count": 0, "created_at": "2025-07-20T23:03:48.265-04:00"}, {"id": 7815, "title": "SimDB", "devlogs_count": 4, "created_at": "2025-07-23T06:10:48.680-04:00"}], "coding_time_seconds": 42027, "coding_time_seconds_today": 0, "balance": "You need to have a pocket watcher badge to view this.", "badges": [], "created_at": "2025-06-22T21:01:49.375-04:00", "updated_at": "2025-07-08T05:56:12.380-04:00", "avatar": "https://secure.gravatar.com/avatar/f41bd6ae3880dae295075c4bc483e37d.jpg?s=512&d=https%3A%2F%2Fa.slack-edge.com%2Fdf10d%2Fimg%2Favatars%2Fava_0018-512.png", "custom_css": null}], "pagination": {"page": 577, "pages": 1192, "count": 23828, "items": 20}}