{"users": [{"id": 11541, "slack_id": "U092JHEHZ7C", "display_name": "noah", "bio": null, "projects_count": 0, "devlogs_count": 0, "votes_count": 0, "ships_count": 0, "projects": [], "coding_time_seconds": 0, "coding_time_seconds_today": 0, "balance": "You need to have a pocket watcher badge to view this.", "badges": [], "created_at": "2025-06-22T21:03:05.736-04:00", "updated_at": "2025-07-03T22:02:13.899-04:00", "avatar": "https://secure.gravatar.com/avatar/960d9256b88bdf97bd049e6fe61d0709.jpg?s=512&d=https%3A%2F%2Fa.slack-edge.com%2Fdf10d%2Fimg%2Favatars%2Fava_0024-512.png", "custom_css": null}, {"id": 11542, "slack_id": "U092CU6MG86", "display_name": "Owen", "bio": null, "projects_count": 0, "devlogs_count": 0, "votes_count": 0, "ships_count": 0, "projects": [], "coding_time_seconds": 0, "coding_time_seconds_today": 0, "balance": "You need to have a pocket watcher badge to view this.", "badges": [], "created_at": "2025-06-22T21:03:19.165-04:00", "updated_at": "2025-07-03T20:00:15.153-04:00", "avatar": "https://secure.gravatar.com/avatar/9fbd1d53cc6c746f64930b0212bc768a.jpg?s=512&d=https%3A%2F%2Fa.slack-edge.com%2Fdf10d%2Fimg%2Favatars%2Fava_0009-512.png", "custom_css": null}, {"id": 11543, "slack_id": "U07UEJUMBL5", "display_name": "William McCormick", "bio": null, "projects_count": 0, "devlogs_count": 0, "votes_count": 0, "ships_count": 0, "projects": [], "coding_time_seconds": 42103, "coding_time_seconds_today": 0, "balance": "You need to have a pocket watcher badge to view this.", "badges": [], "created_at": "2025-06-22T21:04:37.415-04:00", "updated_at": "2025-07-03T20:00:15.513-04:00", "avatar": "https://secure.gravatar.com/avatar/1b18a6cf4423021d885e739320c5d59d.jpg?s=512&d=https%3A%2F%2Fa.slack-edge.com%2Fdf10d%2Fimg%2Favatars%2Fava_0006-512.png", "custom_css": null}, {"id": 11544, "slack_id": "U092C17LPPD", "display_name": "Matthew", "bio": null, "projects_count": 0, "devlogs_count": 0, "votes_count": 0, "ships_count": 0, "projects": [], "coding_time_seconds": 38275, "coding_time_seconds_today": 0, "balance": "You need to have a pocket watcher badge to view this.", "badges": [], "created_at": "2025-06-22T21:06:56.845-04:00", "updated_at": "2025-07-03T20:00:15.806-04:00", "avatar": "https://secure.gravatar.com/avatar/a3e2cf522c32c49c53449b691f743d08.jpg?s=512&d=https%3A%2F%2Fa.slack-edge.com%2Fdf10d%2Fimg%2Favatars%2Fava_0013-512.png", "custom_css": null}, {"id": 11545, "slack_id": "U092HFE4ZE1", "display_name": "Rudolph De Villa", "bio": null, "projects_count": 1, "devlogs_count": 0, "votes_count": 0, "ships_count": 0, "projects": [{"id": 4766, "title": "MonoDev Studio", "devlogs_count": 0, "created_at": "2025-07-01T12:29:42.695-04:00"}], "coding_time_seconds": 80142, "coding_time_seconds_today": 0, "balance": "You need to have a pocket watcher badge to view this.", "badges": [], "created_at": "2025-06-22T21:11:51.447-04:00", "updated_at": "2025-07-04T02:31:34.552-04:00", "avatar": "https://avatars.slack-edge.com/2025-06-22/9108769482384_24bc6fb874dd45469144_original.jpg", "custom_css": null}, {"id": 11546, "slack_id": "U092XRGJVUZ", "display_name": "Gear ON", "bio": null, "projects_count": 0, "devlogs_count": 0, "votes_count": 0, "ships_count": 0, "projects": [], "coding_time_seconds": 0, "coding_time_seconds_today": 0, "balance": "You need to have a pocket watcher badge to view this.", "badges": [], "created_at": "2025-06-22T21:15:52.079-04:00", "updated_at": "2025-07-03T20:00:16.222-04:00", "avatar": "https://avatars.slack-edge.com/2025-06-22/9086647165122_bb38acb9cd5f0a5dc8ed_original.png", "custom_css": null}, {"id": 11547, "slack_id": "U092K81FTN0", "display_name": "Jacob", "bio": null, "projects_count": 0, "devlogs_count": 0, "votes_count": 0, "ships_count": 0, "projects": [], "coding_time_seconds": 277, "coding_time_seconds_today": 0, "balance": "You need to have a pocket watcher badge to view this.", "badges": [], "created_at": "2025-06-22T21:27:09.560-04:00", "updated_at": "2025-07-03T20:00:16.495-04:00", "avatar": "https://secure.gravatar.com/avatar/b77925e5f40e098c168077a178d99c4c.jpg?s=512&d=https%3A%2F%2Fa.slack-edge.com%2Fdf10d%2Fimg%2Favatars%2Fava_0016-512.png", "custom_css": null}, {"id": 11548, "slack_id": "U09245VJZ4P", "display_name": "Hansika Papisetti", "bio": null, "projects_count": 0, "devlogs_count": 0, "votes_count": 0, "ships_count": 0, "projects": [], "coding_time_seconds": 0, "coding_time_seconds_today": 0, "balance": "You need to have a pocket watcher badge to view this.", "badges": [], "created_at": "2025-06-22T21:28:14.557-04:00", "updated_at": "2025-07-03T20:00:16.776-04:00", "avatar": "https://avatars.slack-edge.com/2025-06-22/9108810727408_01a11ae7c9591a4d9050_original.png", "custom_css": null}, {"id": 11549, "slack_id": "U092K509QG4", "display_name": "Ryan", "bio": null, "projects_count": 3, "devlogs_count": 3, "votes_count": 28, "ships_count": 1, "projects": [{"id": 3370, "title": "Recursive AI", "devlogs_count": 1, "created_at": "2025-06-24T01:35:18.132-04:00"}, {"id": 6856, "title": "sysInfo", "devlogs_count": 1, "created_at": "2025-07-16T22:20:53.307-04:00"}, {"id": 3559, "title": "ChainedTogether", "devlogs_count": 1, "created_at": "2025-06-24T17:08:40.605-04:00"}], "coding_time_seconds": 43307, "coding_time_seconds_today": 0, "balance": "You need to have a pocket watcher badge to view this.", "badges": [{"name": "Maiden Voyage", "text": "you shipped your first project! the journey begins...", "icon": "\ud83d\udea2"}], "created_at": "2025-06-22T21:33:16.310-04:00", "updated_at": "2025-09-10T22:56:57.278-04:00", "avatar": "https://avatars.slack-edge.com/2025-08-11/9324046078711_51b8d57ac8521ce82514_original.jpg", "custom_css": null}, {"id": 11550, "slack_id": "U092K964MCL", "display_name": "Mohitkumar A", "bio": null, "projects_count": 0, "devlogs_count": 0, "votes_count": 0, "ships_count": 0, "projects": [], "coding_time_seconds": 140, "coding_time_seconds_today": 0, "balance": "You need to have a pocket watcher badge to view this.", "badges": [], "created_at": "2025-06-22T21:42:15.864-04:00", "updated_at": "2025-07-04T20:12:16.267-04:00", "avatar": "https://secure.gravatar.com/avatar/828dce8af274bde672b74b1b56e7eb8e.jpg?s=512&d=https%3A%2F%2Fa.slack-edge.com%2Fdf10d%2Fimg%2Favatars%2Fava_0018-512.png", "custom_css": null}, {"id": 11551, "slack_id": "U091FJT70P4", "display_name": "Maxine", "bio": null, "projects_count": 8, "devlogs_count": 10, "votes_count": 21, "ships_count": 3, "projects": [{"id": 5234, "title": "DeBunk'D", "devlogs_count": 9, "created_at": "2025-07-03T23:13:32.474-04:00"}, {"id": 8522, "title": "News Emailer", "devlogs_count": 0, "created_at": "2025-07-27T20:46:54.143-04:00"}, {"id": 10049, "title": "Daily News Creator", "devlogs_count": 1, "created_at": "2025-08-03T17:32:53.089-04:00"}, {"id": 10050, "title": "Daily News Creator", "devlogs_count": 0, "created_at": "2025-08-03T17:32:53.097-04:00"}, {"id": 8709, "title": "Email Writer", "devlogs_count": 0, "created_at": "2025-07-29T02:09:50.585-04:00"}, {"id": 5232, "title": "Orpheus Keychain", "devlogs_count": 0, "created_at": "2025-07-03T23:01:23.923-04:00"}, {"id": 10089, "title": "Magic 8 Site", "devlogs_count": 0, "created_at": "2025-08-04T00:12:30.896-04:00"}, {"id": 7997, "title": "About Me Website", "devlogs_count": 0, "created_at": "2025-07-24T01:01:47.636-04:00"}], "coding_time_seconds": 111066, "coding_time_seconds_today": 0, "balance": "You need to have a pocket watcher badge to view this.", "badges": [{"name": "Maiden Voyage", "text": "you shipped your first project! the journey begins...", "icon": "\ud83d\udea2"}], "created_at": "2025-06-22T21:47:53.870-04:00", "updated_at": "2025-09-10T22:56:57.324-04:00", "avatar": "https://secure.gravatar.com/avatar/619b0274ffcfd63054a9a59d4954241d.jpg?s=512&d=https%3A%2F%2Fa.slack-edge.com%2Fdf10d%2Fimg%2Favatars%2Fava_0025-512.png", "custom_css": null}, {"id": 11552, "slack_id": "U0936R68BJ4", "display_name": "Orion Leon", "bio": null, "projects_count": 0, "devlogs_count": 0, "votes_count": 0, "ships_count": 0, "projects": [], "coding_time_seconds": 0, "coding_time_seconds_today": 0, "balance": "You need to have a pocket watcher badge to view this.", "badges": [], "created_at": "2025-06-22T21:48:56.572-04:00", "updated_at": "2025-07-04T20:12:16.396-04:00", "avatar": "https://secure.gravatar.com/avatar/1448a4e6b77341bfea407e6f57fe8284.jpg?s=512&d=https%3A%2F%2Fa.slack-edge.com%2Fdf10d%2Fimg%2Favatars%2Fava_0008-512.png", "custom_css": null}, {"id": 11553, "slack_id": "U092JMM5KA6", "display_name": "Orion Leon", "bio": null, "projects_count": 0, "devlogs_count": 0, "votes_count": 0, "ships_count": 0, "projects": [], "coding_time_seconds": 5567, "coding_time_seconds_today": 0, "balance": "You need to have a pocket watcher badge to view this.", "badges": [], "created_at": "2025-06-22T21:54:22.820-04:00", "updated_at": "2025-07-09T13:48:48.511-04:00", "avatar": "https://secure.gravatar.com/avatar/53835a6c9de4d67d2a76d8bdc46a504e.jpg?s=512&d=https%3A%2F%2Fa.slack-edge.com%2Fdf10d%2Fimg%2Favatars%2Fava_0022-512.png", "custom_css": null}, {"id": 11554, "slack_id": "U07H8T3AL2W", "display_name": "Alex Wu", "bio": "hello . . .. .. .. ... ..", "projects_count": 4, "devlogs_count": 19, "votes_count": 5, "ships_count": 0, "projects": [{"id": 3045, "title": "testDB", "devlogs_count": 1, "created_at": "2025-06-22T22:36:35.453-04:00"}, {"id": 4150, "title": "Super Puzzle Fighter ", "devlogs_count": 15, "created_at": "2025-06-27T22:06:41.758-04:00"}, {"id": 7322, "title": "Personal Portfolio", "devlogs_count": 1, "created_at": "2025-07-20T23:48:43.437-04:00"}, {"id": 5332, "title": "Pathfinder Submission", "devlogs_count": 2, "created_at": "2025-07-04T13:21:03.206-04:00"}], "coding_time_seconds": 372238, "coding_time_seconds_today": 0, "balance": "You need to have a pocket watcher badge to view this.", "badges": [], "created_at": "2025-06-22T22:13:44.629-04:00", "updated_at": "2025-08-11T10:50:50.320-04:00", "avatar": "https://secure.gravatar.com/avatar/9b0780f4434de520c751bc7bcb2569b4.jpg?s=512&d=https%3A%2F%2Fa.slack-edge.com%2Fdf10d%2Fimg%2Favatars%2Fava_0026-512.png", "custom_css": null}, {"id": 11555, "slack_id": "U092JQ5Q0LS", "display_name": "Krish Shah", "bio": null, "projects_count": 0, "devlogs_count": 0, "votes_count": 0, "ships_count": 0, "projects": [], "coding_time_seconds": 0, "coding_time_seconds_today": 0, "balance": "You need to have a pocket watcher badge to view this.", "badges": [], "created_at": "2025-06-22T22:24:10.756-04:00", "updated_at": "2025-07-03T20:00:18.161-04:00", "avatar": "https://secure.gravatar.com/avatar/791c39f688e625c80651b3f091e35c97.jpg?s=512&d=https%3A%2F%2Fa.slack-edge.com%2Fdf10d%2Fimg%2Favatars%2Fava_0010-512.png", "custom_css": null}, {"id": 11556, "slack_id": "U092KCS3Y4U", "display_name": "Liz Leon", "bio": null, "projects_count": 0, "devlogs_count": 0, "votes_count": 0, "ships_count": 0, "projects": [], "coding_time_seconds": 0, "coding_time_seconds_today": 0, "balance": "You need to have a pocket watcher badge to view this.", "badges": [], "created_at": "2025-06-22T22:29:58.928-04:00", "updated_at": "2025-07-03T20:00:18.458-04:00", "avatar": "https://secure.gravatar.com/avatar/79dba77c3a1a00aa76eef6984838c088.jpg?s=512&d=https%3A%2F%2Fa.slack-edge.com%2Fdf10d%2Fimg%2Favatars%2Fava_0001-512.png", "custom_css": null}, {"id": 11557, "slack_id": "U092Y2PEW6M", "display_name": "John Lark", "bio": null, "projects_count": 0, "devlogs_count": 0, "votes_count": 0, "ships_count": 0, "projects": [], "coding_time_seconds": 0, "coding_time_seconds_today": 0, "balance": "You need to have a pocket watcher badge to view this.", "badges": [], "created_at": "2025-06-22T22:33:05.544-04:00", "updated_at": "2025-07-05T20:13:17.703-04:00", "avatar": "https://secure.gravatar.com/avatar/08c71be85d79337237254a55fdfdaa1d.jpg?s=512&d=https%3A%2F%2Fa.slack-edge.com%2Fdf10d%2Fimg%2Favatars%2Fava_0002-512.png", "custom_css": null}, {"id": 11558, "slack_id": "U092D6SQBU6", "display_name": "Gaurish", "bio": null, "projects_count": 0, "devlogs_count": 0, "votes_count": 0, "ships_count": 0, "projects": [], "coding_time_seconds": 54207, "coding_time_seconds_today": 0, "balance": "You need to have a pocket watcher badge to view this.", "badges": [], "created_at": "2025-06-22T22:42:10.633-04:00", "updated_at": "2025-07-22T03:26:56.799-04:00", "avatar": "https://secure.gravatar.com/avatar/f04a7642a0c6e9a19689f60ec159198c.jpg?s=512&d=https%3A%2F%2Fa.slack-edge.com%2Fdf10d%2Fimg%2Favatars%2Fava_0003-512.png", "custom_css": null}, {"id": 11559, "slack_id": "U092KES70KW", "display_name": "TheAdeyemiOlayinka", "bio": null, "projects_count": 0, "devlogs_count": 0, "votes_count": 0, "ships_count": 0, "projects": [], "coding_time_seconds": 53396, "coding_time_seconds_today": 0, "balance": "You need to have a pocket watcher badge to view this.", "badges": [], "created_at": "2025-06-22T22:49:38.842-04:00", "updated_at": "2025-07-03T22:02:15.236-04:00", "avatar": "https://secure.gravatar.com/avatar/804b48b7898612a5896a40c076e3cc90.jpg?s=512&d=https%3A%2F%2Fa.slack-edge.com%2Fdf10d%2Fimg%2Favatars%2Fava_0023-512.png", "custom_css": null}, {"id": 11560, "slack_id": "U07AC432QFK", "display_name": "Ccheng", "bio": null, "projects_count": 0, "devlogs_count": 0, "votes_count": 0, "ships_count": 0, "projects": [], "coding_time_seconds": 0, "coding_time_seconds_today": 0, "balance": "You need to have a pocket watcher badge to view this.", "badges": [], "created_at": "2025-06-22T22:52:21.433-04:00", "updated_at": "2025-07-03T20:00:19.278-04:00", "avatar": "https://secure.gravatar.com/avatar/877b35e300e643d86429df26c717b09f.jpg?s=512&d=https%3A%2F%2Fa.slack-edge.com%2Fdf10d%2Fimg%2Favatars%2Fava_0000-512.png", "custom_css": null}], "pagination": {"page": 578, "pages": 1192, "count": 23828, "items": 20}}