{"users": [{"id": 11561, "slack_id": "U092Y4HE0PK", "display_name": "Akalanka", "bio": null, "projects_count": 0, "devlogs_count": 0, "votes_count": 0, "ships_count": 0, "projects": [], "coding_time_seconds": 0, "coding_time_seconds_today": 0, "balance": "You need to have a pocket watcher badge to view this.", "badges": [], "created_at": "2025-06-22T22:56:54.115-04:00", "updated_at": "2025-07-03T20:00:19.631-04:00", "avatar": "https://secure.gravatar.com/avatar/444bb787856500ba3257f343cfe4786f.jpg?s=512&d=https%3A%2F%2Fa.slack-edge.com%2Fdf10d%2Fimg%2Favatars%2Fava_0008-512.png", "custom_css": null}, {"id": 11562, "slack_id": "U092C9KEA8K", "display_name": "Cypher", "bio": null, "projects_count": 4, "devlogs_count": 20, "votes_count": 64, "ships_count": 4, "projects": [{"id": 3177, "title": "Time Reader From Excel", "devlogs_count": 3, "created_at": "2025-06-23T10:31:08.997-04:00"}, {"id": 13087, "title": "Devews | Bank App", "devlogs_count": 2, "created_at": "2025-09-08T10:09:34.794-04:00"}, {"id": 5426, "title": "CMS", "devlogs_count": 14, "created_at": "2025-07-05T08:28:27.152-04:00"}, {"id": 10102, "title": "devCast - Weather application", "devlogs_count": 1, "created_at": "2025-08-04T03:46:15.273-04:00"}], "coding_time_seconds": 346932, "coding_time_seconds_today": 0, "balance": "You need to have a pocket watcher badge to view this.", "badges": [{"name": "Maiden Voyage", "text": "you shipped your first project! the journey begins...", "icon": "\ud83d\udea2"}], "created_at": "2025-06-22T22:58:17.212-04:00", "updated_at": "2025-09-10T22:56:57.585-04:00", "avatar": "https://avatars.slack-edge.com/2025-06-22/9100171734961_174d68fb659f5edec3db_original.png", "custom_css": null}, {"id": 11563, "slack_id": "U09362KC9FA", "display_name": "Daniel Omotoye", "bio": null, "projects_count": 0, "devlogs_count": 0, "votes_count": 0, "ships_count": 0, "projects": [], "coding_time_seconds": 0, "coding_time_seconds_today": 0, "balance": "You need to have a pocket watcher badge to view this.", "badges": [], "created_at": "2025-06-22T22:59:56.585-04:00", "updated_at": "2025-07-03T20:00:20.171-04:00", "avatar": "https://secure.gravatar.com/avatar/4c54a65a0055048c5d4dfd6666fe5d18.jpg?s=512&d=https%3A%2F%2Fa.slack-edge.com%2Fdf10d%2Fimg%2Favatars%2Fava_0019-512.png", "custom_css": null}, {"id": 11564, "slack_id": "U08A1PJF6UC", "display_name": "Albert Lungu", "bio": null, "projects_count": 0, "devlogs_count": 0, "votes_count": 0, "ships_count": 0, "projects": [], "coding_time_seconds": 34386, "coding_time_seconds_today": 0, "balance": "You need to have a pocket watcher badge to view this.", "badges": [], "created_at": "2025-06-22T23:01:57.200-04:00", "updated_at": "2025-07-03T20:00:20.460-04:00", "avatar": "https://avatars.slack-edge.com/2025-01-23/8341784577491_68f20d1d7c05650ca9f0_original.png", "custom_css": null}, {"id": 11565, "slack_id": "U09371NUGG0", "display_name": "Aniket Kumar", "bio": null, "projects_count": 0, "devlogs_count": 0, "votes_count": 0, "ships_count": 0, "projects": [], "coding_time_seconds": 887, "coding_time_seconds_today": 0, "balance": "You need to have a pocket watcher badge to view this.", "badges": [], "created_at": "2025-06-22T23:05:45.946-04:00", "updated_at": "2025-07-03T20:00:20.734-04:00", "avatar": "https://secure.gravatar.com/avatar/21127fab39d4397fae233fd8c443ad59.jpg?s=512&d=https%3A%2F%2Fa.slack-edge.com%2Fdf10d%2Fimg%2Favatars%2Fava_0000-512.png", "custom_css": null}, {"id": 11566, "slack_id": "U0924DY1RN3", "display_name": "Aditya Narayan Pandey", "bio": null, "projects_count": 0, "devlogs_count": 0, "votes_count": 0, "ships_count": 0, "projects": [], "coding_time_seconds": 0, "coding_time_seconds_today": 0, "balance": "You need to have a pocket watcher badge to view this.", "badges": [], "created_at": "2025-06-22T23:08:08.512-04:00", "updated_at": "2025-07-03T20:00:21.001-04:00", "avatar": "https://secure.gravatar.com/avatar/6066cb9c7e121037d4cf3c098fcdf6b8.jpg?s=512&d=https%3A%2F%2Fa.slack-edge.com%2Fdf10d%2Fimg%2Favatars%2Fava_0000-512.png", "custom_css": null}, {"id": 11567, "slack_id": "U092CBTB4E7", "display_name": "Muzamil Shaikh", "bio": null, "projects_count": 0, "devlogs_count": 0, "votes_count": 0, "ships_count": 0, "projects": [], "coding_time_seconds": 0, "coding_time_seconds_today": 0, "balance": "You need to have a pocket watcher badge to view this.", "badges": [], "created_at": "2025-06-22T23:22:43.782-04:00", "updated_at": "2025-07-03T20:00:21.267-04:00", "avatar": "https://secure.gravatar.com/avatar/050aa0991671d70b7b7074b2ea29ffee.jpg?s=512&d=https%3A%2F%2Fa.slack-edge.com%2Fdf10d%2Fimg%2Favatars%2Fava_0024-512.png", "custom_css": null}, {"id": 11568, "slack_id": "U092CCAS55H", "display_name": "Roshan Kh", "bio": null, "projects_count": 0, "devlogs_count": 0, "votes_count": 0, "ships_count": 0, "projects": [], "coding_time_seconds": 0, "coding_time_seconds_today": 0, "balance": "You need to have a pocket watcher badge to view this.", "badges": [], "created_at": "2025-06-22T23:29:53.783-04:00", "updated_at": "2025-07-03T20:00:21.538-04:00", "avatar": "https://secure.gravatar.com/avatar/da2d7c0fe32bc1ecc4d79ac6f8e7a237.jpg?s=512&d=https%3A%2F%2Fa.slack-edge.com%2Fdf10d%2Fimg%2Favatars%2Fava_0023-512.png", "custom_css": null}, {"id": 11569, "slack_id": "U092JV5QCRY", "display_name": "Rishabh", "bio": null, "projects_count": 0, "devlogs_count": 0, "votes_count": 0, "ships_count": 0, "projects": [], "coding_time_seconds": 0, "coding_time_seconds_today": 0, "balance": "You need to have a pocket watcher badge to view this.", "badges": [], "created_at": "2025-06-22T23:31:48.249-04:00", "updated_at": "2025-07-05T14:14:25.929-04:00", "avatar": "https://secure.gravatar.com/avatar/247ec89eaf528c34e47101e3e23a5a7c.jpg?s=512&d=https%3A%2F%2Fa.slack-edge.com%2Fdf10d%2Fimg%2Favatars%2Fava_0009-512.png", "custom_css": null}, {"id": 11570, "slack_id": "U092DB03VTQ", "display_name": "Sophie Lim", "bio": null, "projects_count": 1, "devlogs_count": 3, "votes_count": 1, "ships_count": 0, "projects": [{"id": 3352, "title": "Agentosaurus", "devlogs_count": 3, "created_at": "2025-06-23T23:35:15.631-04:00"}], "coding_time_seconds": 32145, "coding_time_seconds_today": 0, "balance": "You need to have a pocket watcher badge to view this.", "badges": [], "created_at": "2025-06-22T23:36:23.953-04:00", "updated_at": "2025-07-05T02:12:54.287-04:00", "avatar": "https://secure.gravatar.com/avatar/51afb353def0e24758c1b2ab8b6269e8.jpg?s=512&d=https%3A%2F%2Fa.slack-edge.com%2Fdf10d%2Fimg%2Favatars%2Fava_0020-512.png", "custom_css": null}, {"id": 11571, "slack_id": "U092KJS2E04", "display_name": "GRISCOSS", "bio": null, "projects_count": 0, "devlogs_count": 0, "votes_count": 0, "ships_count": 0, "projects": [], "coding_time_seconds": 0, "coding_time_seconds_today": 0, "balance": "You need to have a pocket watcher badge to view this.", "badges": [], "created_at": "2025-06-22T23:43:57.966-04:00", "updated_at": "2025-07-03T20:00:22.099-04:00", "avatar": "https://secure.gravatar.com/avatar/b107b12e3007b3f70000a7e63c2f7248.jpg?s=512&d=https%3A%2F%2Fa.slack-edge.com%2Fdf10d%2Fimg%2Favatars%2Fava_0005-512.png", "custom_css": null}, {"id": 11572, "slack_id": "U092Y8FFN65", "display_name": "wyatt", "bio": null, "projects_count": 0, "devlogs_count": 0, "votes_count": 0, "ships_count": 0, "projects": [], "coding_time_seconds": 172, "coding_time_seconds_today": 0, "balance": "You need to have a pocket watcher badge to view this.", "badges": [], "created_at": "2025-06-22T23:44:30.001-04:00", "updated_at": "2025-07-03T20:00:22.374-04:00", "avatar": "https://secure.gravatar.com/avatar/f7963adc5c7680e56fbe7bee2186c928.jpg?s=512&d=https%3A%2F%2Fa.slack-edge.com%2Fdf10d%2Fimg%2Favatars%2Fava_0012-512.png", "custom_css": null}, {"id": 11573, "slack_id": "U092EPJ4D3L", "display_name": "FIR3", "bio": null, "projects_count": 2, "devlogs_count": 4, "votes_count": 39, "ships_count": 2, "projects": [{"id": 3554, "title": "Space Shooter Game", "devlogs_count": 2, "created_at": "2025-06-24T16:53:05.095-04:00"}, {"id": 3074, "title": "Summer making first project!", "devlogs_count": 2, "created_at": "2025-06-23T02:23:08.848-04:00"}], "coding_time_seconds": 11539, "coding_time_seconds_today": 0, "balance": "You need to have a pocket watcher badge to view this.", "badges": [{"name": "Maiden Voyage", "text": "you shipped your first project! the journey begins...", "icon": "\ud83d\udea2"}], "created_at": "2025-06-22T23:47:00.066-04:00", "updated_at": "2025-09-10T22:56:57.907-04:00", "avatar": "https://avatars.slack-edge.com/2025-06-21/9083804285717_87c7aa0d21ffcbb9b5f0_original.png", "custom_css": null}, {"id": 11574, "slack_id": "U092KK673GU", "display_name": "Mohammad Equaan Kacchi", "bio": null, "projects_count": 0, "devlogs_count": 0, "votes_count": 0, "ships_count": 0, "projects": [], "coding_time_seconds": 0, "coding_time_seconds_today": 0, "balance": "You need to have a pocket watcher badge to view this.", "badges": [], "created_at": "2025-06-22T23:48:11.010-04:00", "updated_at": "2025-07-03T22:02:16.327-04:00", "avatar": "https://secure.gravatar.com/avatar/05c56a1060c3b1f3957b8fd467277a8c.jpg?s=512&d=https%3A%2F%2Fa.slack-edge.com%2Fdf10d%2Fimg%2Favatars%2Fava_0003-512.png", "custom_css": null}, {"id": 11575, "slack_id": "U09374L7796", "display_name": "Akhilesh Kumar", "bio": null, "projects_count": 0, "devlogs_count": 0, "votes_count": 0, "ships_count": 0, "projects": [], "coding_time_seconds": 1060, "coding_time_seconds_today": 0, "balance": "You need to have a pocket watcher badge to view this.", "badges": [], "created_at": "2025-06-22T23:49:05.136-04:00", "updated_at": "2025-07-04T02:30:59.502-04:00", "avatar": "https://secure.gravatar.com/avatar/559e65d2748a556dc16b57e4e7421bba.jpg?s=512&d=https%3A%2F%2Fa.slack-edge.com%2Fdf10d%2Fimg%2Favatars%2Fava_0017-512.png", "custom_css": null}, {"id": 11576, "slack_id": "U092C6C8S1Z", "display_name": "Manjinder Singh", "bio": null, "projects_count": 0, "devlogs_count": 0, "votes_count": 0, "ships_count": 0, "projects": [], "coding_time_seconds": 3368, "coding_time_seconds_today": 0, "balance": "You need to have a pocket watcher badge to view this.", "badges": [], "created_at": "2025-06-22T23:52:38.956-04:00", "updated_at": "2025-07-03T20:00:23.335-04:00", "avatar": "https://secure.gravatar.com/avatar/cb3483dc379c2547be043bf4aabef937.jpg?s=512&d=https%3A%2F%2Fa.slack-edge.com%2Fdf10d%2Fimg%2Favatars%2Fava_0014-512.png", "custom_css": null}, {"id": 11577, "slack_id": "U0924H91QMD", "display_name": "Daniel C", "bio": null, "projects_count": 10, "devlogs_count": 42, "votes_count": 171, "ships_count": 8, "projects": [{"id": 3719, "title": "Car UI", "devlogs_count": 1, "created_at": "2025-06-25T11:12:27.448-04:00"}, {"id": 3239, "title": "Image Enhancer", "devlogs_count": 3, "created_at": "2025-06-23T14:34:28.699-04:00"}, {"id": 13678, "title": "SOM Expedition Porple Point", "devlogs_count": 0, "created_at": "2025-09-22T19:01:29.490-04:00"}, {"id": 3277, "title": "Spotify Popularity Model", "devlogs_count": 8, "created_at": "2025-06-23T16:29:38.533-04:00"}, {"id": 3483, "title": "Block Breaker Game", "devlogs_count": 8, "created_at": "2025-06-24T12:29:10.997-04:00"}, {"id": 4382, "title": "Flappy Bird Ai", "devlogs_count": 3, "created_at": "2025-06-29T13:10:31.409-04:00"}, {"id": 7086, "title": "Mundane Transit Activities", "devlogs_count": 5, "created_at": "2025-07-18T21:41:00.736-04:00"}, {"id": 4764, "title": "Platformer Game", "devlogs_count": 5, "created_at": "2025-07-01T12:23:57.797-04:00"}, {"id": 3560, "title": "Haunted House Game", "devlogs_count": 5, "created_at": "2025-06-24T17:18:45.968-04:00"}, {"id": 5394, "title": "Chris's Crysuss", "devlogs_count": 4, "created_at": "2025-07-05T01:50:43.099-04:00"}], "coding_time_seconds": 347335, "coding_time_seconds_today": 0, "balance": "You need to have a pocket watcher badge to view this.", "badges": [{"name": "Maiden Voyage", "text": "you shipped your first project! the journey begins...", "icon": "\ud83d\udea2"}, {"name": "Ballot Stuffer", "text": "vote 100 times.", "icon": "https://summer.hackclub.com/assets/i_voted-bf851b48.png"}], "created_at": "2025-06-22T23:54:42.823-04:00", "updated_at": "2025-09-18T07:35:07.245-04:00", "avatar": "https://avatars.slack-edge.com/2025-06-22/9085902253125_135e4b0b20b6831e2519_original.jpg", "custom_css": null}, {"id": 11578, "slack_id": "U08KKTR8WJJ", "display_name": "Aaradhya Patel", "bio": null, "projects_count": 1, "devlogs_count": 2, "votes_count": 0, "ships_count": 0, "projects": [{"id": 3369, "title": "Forge-Modding", "devlogs_count": 2, "created_at": "2025-06-24T01:19:25.503-04:00"}], "coding_time_seconds": 80811, "coding_time_seconds_today": 0, "balance": "You need to have a pocket watcher badge to view this.", "badges": [], "created_at": "2025-06-22T23:56:06.930-04:00", "updated_at": "2025-07-03T20:00:23.870-04:00", "avatar": "https://avatars.slack-edge.com/2025-03-28/8674673277234_91646305d6b438491a5d_original.jpg", "custom_css": null}, {"id": 11579, "slack_id": "U092DCRNPNJ", "display_name": "cosmic", "bio": null, "projects_count": 0, "devlogs_count": 0, "votes_count": 0, "ships_count": 0, "projects": [], "coding_time_seconds": 6, "coding_time_seconds_today": 0, "balance": "You need to have a pocket watcher badge to view this.", "badges": [], "created_at": "2025-06-23T00:01:09.662-04:00", "updated_at": "2025-07-03T20:00:24.172-04:00", "avatar": "https://secure.gravatar.com/avatar/a13071017948abddb901173884e2ffa1.jpg?s=512&d=https%3A%2F%2Fa.slack-edge.com%2Fdf10d%2Fimg%2Favatars%2Fava_0025-512.png", "custom_css": null}, {"id": 11580, "slack_id": "U0924J5C607", "display_name": "Vedant", "bio": null, "projects_count": 0, "devlogs_count": 0, "votes_count": 0, "ships_count": 0, "projects": [], "coding_time_seconds": 0, "coding_time_seconds_today": 0, "balance": "You need to have a pocket watcher badge to view this.", "badges": [], "created_at": "2025-06-23T00:04:19.367-04:00", "updated_at": "2025-07-03T20:00:24.446-04:00", "avatar": "https://secure.gravatar.com/avatar/026b2c07db4d6ecc04442dc467dad9cb.jpg?s=512&d=https%3A%2F%2Fa.slack-edge.com%2Fdf10d%2Fimg%2Favatars%2Fava_0016-512.png", "custom_css": null}], "pagination": {"page": 579, "pages": 1192, "count": 23828, "items": 20}}