{"users": [{"id": 1141, "slack_id": "U09182MBDQF", "display_name": "Daniel Andrade", "bio": null, "projects_count": 0, "devlogs_count": 0, "votes_count": 0, "ships_count": 0, "projects": [], "coding_time_seconds": 0, "coding_time_seconds_today": 0, "balance": "You need to have a pocket watcher badge to view this.", "badges": [], "created_at": "2025-06-16T12:45:44.730-04:00", "updated_at": "2025-07-03T19:16:17.213-04:00", "avatar": "https://secure.gravatar.com/avatar/d6e269177bb20b4f8f854de7775e64fa.jpg?s=512&d=https%3A%2F%2Fa.slack-edge.com%2Fdf10d%2Fimg%2Favatars%2Fava_0003-512.png", "custom_css": null}, {"id": 1142, "slack_id": "U0921UKEXT3", "display_name": "Umut Deniz \u015eerefo\u011flu", "bio": null, "projects_count": 0, "devlogs_count": 0, "votes_count": 0, "ships_count": 0, "projects": [], "coding_time_seconds": 0, "coding_time_seconds_today": 0, "balance": "You need to have a pocket watcher badge to view this.", "badges": [], "created_at": "2025-06-16T12:45:46.844-04:00", "updated_at": "2025-07-03T19:16:17.489-04:00", "avatar": "https://avatars.slack-edge.com/2025-06-16/9050464040787_600dfb408e16ba67ba3c_original.png", "custom_css": null}, {"id": 1143, "slack_id": "U0921UHU5G9", "display_name": "Nirmith Shettigar", "bio": null, "projects_count": 0, "devlogs_count": 0, "votes_count": 0, "ships_count": 0, "projects": [], "coding_time_seconds": 0, "coding_time_seconds_today": 0, "balance": "You need to have a pocket watcher badge to view this.", "badges": [], "created_at": "2025-06-16T12:45:50.543-04:00", "updated_at": "2025-07-03T19:16:17.764-04:00", "avatar": "https://avatars.slack-edge.com/2025-06-16/9050564304214_97364baaa29c21ee4ac0_original.jpg", "custom_css": null}, {"id": 1144, "slack_id": "U091GG50TRU", "display_name": "Frank Yan", "bio": null, "projects_count": 0, "devlogs_count": 0, "votes_count": 0, "ships_count": 0, "projects": [], "coding_time_seconds": 0, "coding_time_seconds_today": 0, "balance": "You need to have a pocket watcher badge to view this.", "badges": [], "created_at": "2025-06-16T12:45:51.689-04:00", "updated_at": "2025-07-03T19:16:18.024-04:00", "avatar": "https://secure.gravatar.com/avatar/ddcd18ae4639af3b2a6aa66c304b0fdf.jpg?s=512&d=https%3A%2F%2Fa.slack-edge.com%2Fdf10d%2Fimg%2Favatars%2Fava_0014-512.png", "custom_css": null}, {"id": 1145, "slack_id": "U04J9A6NUAW", "display_name": "TheScientist101", "bio": null, "projects_count": 1, "devlogs_count": 4, "votes_count": 0, "ships_count": 0, "projects": [{"id": 1389, "title": "Advantage Kit Robobots Rewrite", "devlogs_count": 4, "created_at": "2025-06-18T13:08:14.285-04:00"}], "coding_time_seconds": 112235, "coding_time_seconds_today": 0, "balance": "You need to have a pocket watcher badge to view this.", "badges": [], "created_at": "2025-06-16T12:45:58.756-04:00", "updated_at": "2025-08-16T00:27:30.921-04:00", "avatar": "https://secure.gravatar.com/avatar/cf8c5180f081bf509a10826fad72a100.jpg?s=512&d=https%3A%2F%2Fa.slack-edge.com%2Fdf10d%2Fimg%2Favatars%2Fava_0012-512.png", "custom_css": null}, {"id": 1146, "slack_id": "U092BS11X96", "display_name": "vipul", "bio": null, "projects_count": 0, "devlogs_count": 0, "votes_count": 0, "ships_count": 0, "projects": [], "coding_time_seconds": 0, "coding_time_seconds_today": 0, "balance": "You need to have a pocket watcher badge to view this.", "badges": [], "created_at": "2025-06-16T12:45:59.323-04:00", "updated_at": "2025-07-03T19:16:18.563-04:00", "avatar": "https://secure.gravatar.com/avatar/e6240b1ad6c169ba09f55d80a344329d.jpg?s=512&d=https%3A%2F%2Fa.slack-edge.com%2Fdf10d%2Fimg%2Favatars%2Fava_0026-512.png", "custom_css": null}, {"id": 1147, "slack_id": "U07RXK7QWPQ", "display_name": "Krishiv", "bio": null, "projects_count": 0, "devlogs_count": 6, "votes_count": 2, "ships_count": 0, "projects": [], "coding_time_seconds": 455529, "coding_time_seconds_today": 0, "balance": "You need to have a pocket watcher badge to view this.", "badges": [{"name": "Maiden Voyage", "text": "you shipped your first project! the journey begins...", "icon": "\ud83d\udea2"}], "created_at": "2025-06-16T12:46:04.035-04:00", "updated_at": "2025-09-10T22:51:43.502-04:00", "avatar": "https://secure.gravatar.com/avatar/e740190b6514e8a0b0b8f7e7a04fd2da.jpg?s=512&d=https%3A%2F%2Fa.slack-edge.com%2Fdf10d%2Fimg%2Favatars%2Fava_0005-512.png", "custom_css": null}, {"id": 1148, "slack_id": "U091GG87ZEJ", "display_name": "Andrew", "bio": null, "projects_count": 0, "devlogs_count": 0, "votes_count": 0, "ships_count": 0, "projects": [], "coding_time_seconds": 0, "coding_time_seconds_today": 0, "balance": "You need to have a pocket watcher badge to view this.", "badges": [], "created_at": "2025-06-16T12:46:04.594-04:00", "updated_at": "2025-07-03T19:16:19.092-04:00", "avatar": "https://secure.gravatar.com/avatar/040cac52883f3594991c86c4f1c9d5a0.jpg?s=512&d=https%3A%2F%2Fa.slack-edge.com%2Fdf10d%2Fimg%2Favatars%2Fava_0009-512.png", "custom_css": null}, {"id": 1149, "slack_id": "U091PQSJKE0", "display_name": "Syed Tasavour", "bio": null, "projects_count": 0, "devlogs_count": 0, "votes_count": 0, "ships_count": 0, "projects": [], "coding_time_seconds": 29088, "coding_time_seconds_today": 0, "balance": "You need to have a pocket watcher badge to view this.", "badges": [], "created_at": "2025-06-16T12:46:15.976-04:00", "updated_at": "2025-07-03T19:16:19.366-04:00", "avatar": "https://secure.gravatar.com/avatar/198f78b01c83334dc92b782050fe434f.jpg?s=512&d=https%3A%2F%2Fa.slack-edge.com%2Fdf10d%2Fimg%2Favatars%2Fava_0000-512.png", "custom_css": null}, {"id": 1150, "slack_id": "U091MJUB9T7", "display_name": "Yiit", "bio": null, "projects_count": 0, "devlogs_count": 0, "votes_count": 0, "ships_count": 0, "projects": [], "coding_time_seconds": 97532, "coding_time_seconds_today": 0, "balance": "You need to have a pocket watcher badge to view this.", "badges": [], "created_at": "2025-06-16T12:46:18.212-04:00", "updated_at": "2025-07-03T19:16:19.635-04:00", "avatar": "https://secure.gravatar.com/avatar/f98f74d5ddfcb086fbc6331d58ce23f2.jpg?s=512&d=https%3A%2F%2Fa.slack-edge.com%2Fdf10d%2Fimg%2Favatars%2Fava_0012-512.png", "custom_css": null}, {"id": 1151, "slack_id": "U091831JWCF", "display_name": "Geschmaxi", "bio": null, "projects_count": 0, "devlogs_count": 0, "votes_count": 0, "ships_count": 0, "projects": [], "coding_time_seconds": 0, "coding_time_seconds_today": 0, "balance": "You need to have a pocket watcher badge to view this.", "badges": [], "created_at": "2025-06-16T12:46:26.392-04:00", "updated_at": "2025-07-03T19:16:19.913-04:00", "avatar": "https://secure.gravatar.com/avatar/38ce86eb2fb37dcc8b4b2b7acc09bff3.jpg?s=512&d=https%3A%2F%2Fa.slack-edge.com%2Fdf10d%2Fimg%2Favatars%2Fava_0012-512.png", "custom_css": null}, {"id": 1152, "slack_id": "U092BS73BH6", "display_name": "Magno Matos", "bio": null, "projects_count": 0, "devlogs_count": 0, "votes_count": 0, "ships_count": 0, "projects": [], "coding_time_seconds": 0, "coding_time_seconds_today": 0, "balance": "You need to have a pocket watcher badge to view this.", "badges": [], "created_at": "2025-06-16T12:46:31.913-04:00", "updated_at": "2025-07-03T19:16:20.190-04:00", "avatar": "https://avatars.slack-edge.com/2025-06-16/9050469435619_750b0219e7b0d1932b7e_original.jpg", "custom_css": null}, {"id": 1153, "slack_id": "U091838PVBR", "display_name": "REZZONICO", "bio": null, "projects_count": 0, "devlogs_count": 0, "votes_count": 0, "ships_count": 0, "projects": [], "coding_time_seconds": 5895, "coding_time_seconds_today": 0, "balance": "You need to have a pocket watcher badge to view this.", "badges": [], "created_at": "2025-06-16T12:46:38.582-04:00", "updated_at": "2025-07-03T19:16:20.460-04:00", "avatar": "https://secure.gravatar.com/avatar/3008ea27745404cf88d04a5babef49dc.jpg?s=512&d=https%3A%2F%2Fa.slack-edge.com%2Fdf10d%2Fimg%2Favatars%2Fava_0022-512.png", "custom_css": null}, {"id": 1154, "slack_id": "U091PQSD7C4", "display_name": "Sonsawan_Nicky", "bio": null, "projects_count": 0, "devlogs_count": 0, "votes_count": 0, "ships_count": 0, "projects": [], "coding_time_seconds": 0, "coding_time_seconds_today": 0, "balance": "You need to have a pocket watcher badge to view this.", "badges": [], "created_at": "2025-06-16T12:46:40.408-04:00", "updated_at": "2025-07-03T19:16:20.731-04:00", "avatar": "https://secure.gravatar.com/avatar/0c06a5f917ac61090231cadffa9e8abb.jpg?s=512&d=https%3A%2F%2Fa.slack-edge.com%2Fdf10d%2Fimg%2Favatars%2Fava_0024-512.png", "custom_css": null}, {"id": 1155, "slack_id": "U091GG0CN9L", "display_name": "Pratinav Kothia", "bio": null, "projects_count": 0, "devlogs_count": 0, "votes_count": 0, "ships_count": 0, "projects": [], "coding_time_seconds": 814541, "coding_time_seconds_today": 1319, "balance": "You need to have a pocket watcher badge to view this.", "badges": [], "created_at": "2025-06-16T12:46:43.346-04:00", "updated_at": "2025-07-03T19:16:21.017-04:00", "avatar": "https://avatars.slack-edge.com/2025-06-16/9042130205095_6fb6079a5876fffca869_original.png", "custom_css": null}, {"id": 1156, "slack_id": "U091GETLSR4", "display_name": "Javier Fontes Basabe", "bio": null, "projects_count": 0, "devlogs_count": 0, "votes_count": 0, "ships_count": 0, "projects": [], "coding_time_seconds": 0, "coding_time_seconds_today": 0, "balance": "You need to have a pocket watcher badge to view this.", "badges": [], "created_at": "2025-06-16T12:46:45.715-04:00", "updated_at": "2025-07-03T19:16:21.300-04:00", "avatar": "https://secure.gravatar.com/avatar/dd492c8c3f894071ba7eba5a93c8bcf5.jpg?s=512&d=https%3A%2F%2Fa.slack-edge.com%2Fdf10d%2Fimg%2Favatars%2Fava_0021-512.png", "custom_css": null}, {"id": 1157, "slack_id": "U091GCWMDEX", "display_name": "ted", "bio": null, "projects_count": 0, "devlogs_count": 0, "votes_count": 0, "ships_count": 0, "projects": [], "coding_time_seconds": 0, "coding_time_seconds_today": 0, "balance": "You need to have a pocket watcher badge to view this.", "badges": [], "created_at": "2025-06-16T12:46:46.680-04:00", "updated_at": "2025-07-03T19:16:21.579-04:00", "avatar": "https://secure.gravatar.com/avatar/6ae513ffe26ad8d80a10022462542866.jpg?s=512&d=https%3A%2F%2Fa.slack-edge.com%2Fdf10d%2Fimg%2Favatars%2Fava_0019-512.png", "custom_css": null}, {"id": 1158, "slack_id": "U091GD8HD8T", "display_name": "Matias", "bio": null, "projects_count": 0, "devlogs_count": 0, "votes_count": 0, "ships_count": 0, "projects": [], "coding_time_seconds": 2771, "coding_time_seconds_today": 0, "balance": "You need to have a pocket watcher badge to view this.", "badges": [], "created_at": "2025-06-16T12:46:47.407-04:00", "updated_at": "2025-07-03T19:16:21.846-04:00", "avatar": "https://secure.gravatar.com/avatar/eb5467ccac8fa750f077788b4a0df755.jpg?s=512&d=https%3A%2F%2Fa.slack-edge.com%2Fdf10d%2Fimg%2Favatars%2Fava_0026-512.png", "custom_css": null}, {"id": 1159, "slack_id": "U0921UZ47EV", "display_name": "Guilherme Farias", "bio": null, "projects_count": 0, "devlogs_count": 0, "votes_count": 0, "ships_count": 0, "projects": [], "coding_time_seconds": 0, "coding_time_seconds_today": 0, "balance": "You need to have a pocket watcher badge to view this.", "badges": [], "created_at": "2025-06-16T12:46:51.437-04:00", "updated_at": "2025-07-03T19:16:22.127-04:00", "avatar": "https://secure.gravatar.com/avatar/254c0b5bc347aa5f51181c784defd723.jpg?s=512&d=https%3A%2F%2Fa.slack-edge.com%2Fdf10d%2Fimg%2Favatars%2Fava_0000-512.png", "custom_css": null}, {"id": 1160, "slack_id": "U091PQGF9TN", "display_name": "Daniel Chacha", "bio": null, "projects_count": 0, "devlogs_count": 0, "votes_count": 0, "ships_count": 0, "projects": [], "coding_time_seconds": 0, "coding_time_seconds_today": 0, "balance": "You need to have a pocket watcher badge to view this.", "badges": [], "created_at": "2025-06-16T12:46:51.577-04:00", "updated_at": "2025-07-03T19:16:22.414-04:00", "avatar": "https://secure.gravatar.com/avatar/0abf05ae5c944b5cb7bfbb09406c3891.jpg?s=512&d=https%3A%2F%2Fa.slack-edge.com%2Fdf10d%2Fimg%2Favatars%2Fava_0001-512.png", "custom_css": null}], "pagination": {"page": 58, "pages": 1192, "count": 23827, "items": 20}}