{"users": [{"id": 11621, "slack_id": "U092516C4T1", "display_name": "Bernard", "bio": null, "projects_count": 0, "devlogs_count": 0, "votes_count": 0, "ships_count": 0, "projects": [], "coding_time_seconds": 0, "coding_time_seconds_today": 0, "balance": "You need to have a pocket watcher badge to view this.", "badges": [], "created_at": "2025-06-23T02:43:11.645-04:00", "updated_at": "2025-07-03T20:00:34.058-04:00", "avatar": "https://secure.gravatar.com/avatar/3524aa64c954c872c20953fbdf573c26.jpg?s=512&d=https%3A%2F%2Fa.slack-edge.com%2Fdf10d%2Fimg%2Favatars%2Fava_0008-512.png", "custom_css": null}, {"id": 11622, "slack_id": "U0937MQ9CGG", "display_name": "theman0805", "bio": null, "projects_count": 0, "devlogs_count": 0, "votes_count": 0, "ships_count": 0, "projects": [], "coding_time_seconds": 0, "coding_time_seconds_today": 0, "balance": "You need to have a pocket watcher badge to view this.", "badges": [], "created_at": "2025-06-23T02:56:59.251-04:00", "updated_at": "2025-07-03T20:00:34.319-04:00", "avatar": "https://secure.gravatar.com/avatar/cce1d50938c9e76135d81c25f3aa4f21.jpg?s=512&d=https%3A%2F%2Fa.slack-edge.com%2Fdf10d%2Fimg%2Favatars%2Fava_0014-512.png", "custom_css": null}, {"id": 11623, "slack_id": "U092E18MHLN", "display_name": "praveen", "bio": null, "projects_count": 0, "devlogs_count": 0, "votes_count": 0, "ships_count": 0, "projects": [], "coding_time_seconds": 0, "coding_time_seconds_today": 0, "balance": "You need to have a pocket watcher badge to view this.", "badges": [], "created_at": "2025-06-23T03:03:11.979-04:00", "updated_at": "2025-07-03T20:00:34.586-04:00", "avatar": "https://secure.gravatar.com/avatar/0d916777e2750c8b0a4736819c12ddd2.jpg?s=512&d=https%3A%2F%2Fa.slack-edge.com%2Fdf10d%2Fimg%2Favatars%2Fava_0002-512.png", "custom_css": null}, {"id": 11624, "slack_id": "U081P2T6BFY", "display_name": "Leon", "bio": null, "projects_count": 0, "devlogs_count": 3, "votes_count": 38, "ships_count": 0, "projects": [], "coding_time_seconds": 200443, "coding_time_seconds_today": 0, "balance": "You need to have a pocket watcher badge to view this.", "badges": [{"name": "Maiden Voyage", "text": "you shipped your first project! the journey begins...", "icon": "\ud83d\udea2"}], "created_at": "2025-06-23T03:04:09.480-04:00", "updated_at": "2025-09-10T22:56:59.358-04:00", "avatar": "https://avatars.slack-edge.com/2025-03-05/8562616300833_a1d22fe56c77e422752f_original.png", "custom_css": null}, {"id": 11625, "slack_id": "U092E0ZV38E", "display_name": "Flashfrien511", "bio": null, "projects_count": 1, "devlogs_count": 0, "votes_count": 0, "ships_count": 0, "projects": [{"id": 3085, "title": "MSTF EXplains SCiences", "devlogs_count": 0, "created_at": "2025-06-23T03:54:54.112-04:00"}], "coding_time_seconds": 123, "coding_time_seconds_today": 0, "balance": "You need to have a pocket watcher badge to view this.", "badges": [], "created_at": "2025-06-23T03:06:10.962-04:00", "updated_at": "2025-07-03T20:00:35.120-04:00", "avatar": "https://secure.gravatar.com/avatar/a933c3545b7a883b478eb209073da1b5.jpg?s=512&d=https%3A%2F%2Fa.slack-edge.com%2Fdf10d%2Fimg%2Favatars%2Fava_0006-512.png", "custom_css": null}, {"id": 11626, "slack_id": "U092YESFE01", "display_name": "Meeket", "bio": null, "projects_count": 0, "devlogs_count": 0, "votes_count": 0, "ships_count": 0, "projects": [], "coding_time_seconds": 6467, "coding_time_seconds_today": 0, "balance": "You need to have a pocket watcher badge to view this.", "badges": [], "created_at": "2025-06-23T03:09:03.144-04:00", "updated_at": "2025-07-06T20:13:15.826-04:00", "avatar": "https://secure.gravatar.com/avatar/054d58861399138fe0e35d8be3485f30.jpg?s=512&d=https%3A%2F%2Fa.slack-edge.com%2Fdf10d%2Fimg%2Favatars%2Fava_0012-512.png", "custom_css": null}, {"id": 11627, "slack_id": "U0937PE5NF2", "display_name": "Hitesh", "bio": null, "projects_count": 0, "devlogs_count": 0, "votes_count": 0, "ships_count": 0, "projects": [], "coding_time_seconds": 0, "coding_time_seconds_today": 0, "balance": "You need to have a pocket watcher badge to view this.", "badges": [], "created_at": "2025-06-23T03:09:20.111-04:00", "updated_at": "2025-07-03T20:00:35.570-04:00", "avatar": "https://secure.gravatar.com/avatar/8f6cc2f59a76437977d163755c9691c7.jpg?s=512&d=https%3A%2F%2Fa.slack-edge.com%2Fdf10d%2Fimg%2Favatars%2Fava_0002-512.png", "custom_css": null}, {"id": 11628, "slack_id": "U092KLSSPK4", "display_name": "Prashant Bhusal", "bio": null, "projects_count": 0, "devlogs_count": 0, "votes_count": 0, "ships_count": 0, "projects": [], "coding_time_seconds": 500669, "coding_time_seconds_today": 0, "balance": "You need to have a pocket watcher badge to view this.", "badges": [], "created_at": "2025-06-23T03:12:57.851-04:00", "updated_at": "2025-07-03T20:00:35.841-04:00", "avatar": "https://avatars.slack-edge.com/2025-06-23/9109835983904_f1987eb5287af839a3c4_original.jpg", "custom_css": null}, {"id": 11629, "slack_id": "U092D36G0UT", "display_name": "Matei Alexandru Gabriel", "bio": null, "projects_count": 0, "devlogs_count": 0, "votes_count": 0, "ships_count": 0, "projects": [], "coding_time_seconds": 0, "coding_time_seconds_today": 0, "balance": "You need to have a pocket watcher badge to view this.", "badges": [], "created_at": "2025-06-23T03:15:33.176-04:00", "updated_at": "2025-07-03T20:00:36.118-04:00", "avatar": "https://secure.gravatar.com/avatar/78d722330bc58b5b968af495a4ea3684.jpg?s=512&d=https%3A%2F%2Fa.slack-edge.com%2Fdf10d%2Fimg%2Favatars%2Fava_0011-512.png", "custom_css": null}, {"id": 11630, "slack_id": "U077RQKKHAR", "display_name": "abdurrafey", "bio": null, "projects_count": 1, "devlogs_count": 7, "votes_count": 0, "ships_count": 0, "projects": [{"id": 4366, "title": "pastpapers", "devlogs_count": 7, "created_at": "2025-06-29T11:29:51.212-04:00"}], "coding_time_seconds": 90917, "coding_time_seconds_today": 0, "balance": "You need to have a pocket watcher badge to view this.", "badges": [], "created_at": "2025-06-23T03:15:55.414-04:00", "updated_at": "2025-08-16T06:02:54.881-04:00", "avatar": "https://secure.gravatar.com/avatar/3f3e08cf44e1c2acab31c173b3c20534.jpg?s=512&d=https%3A%2F%2Fa.slack-edge.com%2Fdf10d%2Fimg%2Favatars%2Fava_0002-512.png", "custom_css": null}, {"id": 11631, "slack_id": "U0925879GRM", "display_name": "CheckedEagle", "bio": null, "projects_count": 0, "devlogs_count": 0, "votes_count": 0, "ships_count": 0, "projects": [], "coding_time_seconds": 0, "coding_time_seconds_today": 0, "balance": "You need to have a pocket watcher badge to view this.", "badges": [], "created_at": "2025-06-23T03:26:37.622-04:00", "updated_at": "2025-07-03T20:00:36.517-04:00", "avatar": "https://secure.gravatar.com/avatar/c208b6a0ee0ba006ccb93fbeeb8df4e7.jpg?s=512&d=https%3A%2F%2Fa.slack-edge.com%2Fdf10d%2Fimg%2Favatars%2Fava_0005-512.png", "custom_css": null}, {"id": 11632, "slack_id": "U09258XQVRD", "display_name": "Kanta", "bio": null, "projects_count": 1, "devlogs_count": 0, "votes_count": 0, "ships_count": 0, "projects": [{"id": 13175, "title": "Guitar Effecter", "devlogs_count": 0, "created_at": "2025-09-10T18:05:03.338-04:00"}], "coding_time_seconds": 92516, "coding_time_seconds_today": 538, "balance": "You need to have a pocket watcher badge to view this.", "badges": [], "created_at": "2025-06-23T03:28:42.863-04:00", "updated_at": "2025-09-10T17:56:21.407-04:00", "avatar": "https://secure.gravatar.com/avatar/576e23fc0e64b18d4a71961215cde077.jpg?s=512&d=https%3A%2F%2Fa.slack-edge.com%2Fdf10d%2Fimg%2Favatars%2Fava_0007-512.png", "custom_css": null}, {"id": 11633, "slack_id": "U092KNPHLAW", "display_name": "D\u00e1vid", "bio": null, "projects_count": 1, "devlogs_count": 1, "votes_count": 0, "ships_count": 0, "projects": [{"id": 3088, "title": "Android Browser", "devlogs_count": 1, "created_at": "2025-06-23T04:04:43.204-04:00"}], "coding_time_seconds": 53206, "coding_time_seconds_today": 0, "balance": "You need to have a pocket watcher badge to view this.", "badges": [], "created_at": "2025-06-23T03:28:57.825-04:00", "updated_at": "2025-07-04T08:27:53.633-04:00", "avatar": "https://secure.gravatar.com/avatar/9093789e8f573bf837b9defe59ebd497.jpg?s=512&d=https%3A%2F%2Fa.slack-edge.com%2Fdf10d%2Fimg%2Favatars%2Fava_0023-512.png", "custom_css": null}, {"id": 11634, "slack_id": "U092LBUEW5A", "display_name": "Minghan Li", "bio": null, "projects_count": 0, "devlogs_count": 0, "votes_count": 0, "ships_count": 0, "projects": [], "coding_time_seconds": 0, "coding_time_seconds_today": 0, "balance": "You need to have a pocket watcher badge to view this.", "badges": [], "created_at": "2025-06-23T03:29:29.029-04:00", "updated_at": "2025-07-03T20:00:37.173-04:00", "avatar": "https://secure.gravatar.com/avatar/c475579100d962b920f5b8d9d62c5861.jpg?s=512&d=https%3A%2F%2Fa.slack-edge.com%2Fdf10d%2Fimg%2Favatars%2Fava_0011-512.png", "custom_css": null}, {"id": 11635, "slack_id": "U092Z2WPA4R", "display_name": "shivam", "bio": null, "projects_count": 0, "devlogs_count": 0, "votes_count": 0, "ships_count": 0, "projects": [], "coding_time_seconds": 0, "coding_time_seconds_today": 0, "balance": "You need to have a pocket watcher badge to view this.", "badges": [], "created_at": "2025-06-23T03:31:28.388-04:00", "updated_at": "2025-07-03T20:00:37.447-04:00", "avatar": "https://secure.gravatar.com/avatar/e7bf3e2b8fbd939abe0df7a398dce3c5.jpg?s=512&d=https%3A%2F%2Fa.slack-edge.com%2Fdf10d%2Fimg%2Favatars%2Fava_0008-512.png", "custom_css": null}, {"id": 11636, "slack_id": "U092Z3PSGHX", "display_name": "sai karthik", "bio": null, "projects_count": 0, "devlogs_count": 0, "votes_count": 0, "ships_count": 0, "projects": [], "coding_time_seconds": 12286, "coding_time_seconds_today": 0, "balance": "You need to have a pocket watcher badge to view this.", "badges": [], "created_at": "2025-06-23T03:34:47.176-04:00", "updated_at": "2025-09-16T14:21:01.921-04:00", "avatar": "https://secure.gravatar.com/avatar/2542e56f5a4335a19b263db45250aa68.jpg?s=512&d=https%3A%2F%2Fa.slack-edge.com%2Fdf10d%2Fimg%2Favatars%2Fava_0024-512.png", "custom_css": null}, {"id": 11637, "slack_id": "U0937TBEVMW", "display_name": "rishav_san", "bio": null, "projects_count": 0, "devlogs_count": 0, "votes_count": 0, "ships_count": 0, "projects": [], "coding_time_seconds": 0, "coding_time_seconds_today": 0, "balance": "You need to have a pocket watcher badge to view this.", "badges": [], "created_at": "2025-06-23T03:38:03.976-04:00", "updated_at": "2025-07-03T20:00:38.017-04:00", "avatar": "https://secure.gravatar.com/avatar/e837dc5b15597588e4074530dc3a6ee5.jpg?s=512&d=https%3A%2F%2Fa.slack-edge.com%2Fdf10d%2Fimg%2Favatars%2Fava_0007-512.png", "custom_css": null}, {"id": 11638, "slack_id": "U092Z0KRB09", "display_name": "Hasindu Rangika", "bio": null, "projects_count": 0, "devlogs_count": 0, "votes_count": 0, "ships_count": 0, "projects": [], "coding_time_seconds": 399380, "coding_time_seconds_today": 4056, "balance": "You need to have a pocket watcher badge to view this.", "badges": [], "created_at": "2025-06-23T03:38:27.056-04:00", "updated_at": "2025-07-03T20:00:38.274-04:00", "avatar": "https://secure.gravatar.com/avatar/4cf0ba24cf08c9cc542bf57889ade6e1.jpg?s=512&d=https%3A%2F%2Fa.slack-edge.com%2Fdf10d%2Fimg%2Favatars%2Fava_0006-512.png", "custom_css": null}, {"id": 11639, "slack_id": "U0937TRGQHW", "display_name": "gitika chaitya ketha", "bio": null, "projects_count": 0, "devlogs_count": 0, "votes_count": 0, "ships_count": 0, "projects": [], "coding_time_seconds": 247124, "coding_time_seconds_today": 0, "balance": "You need to have a pocket watcher badge to view this.", "badges": [], "created_at": "2025-06-23T03:41:21.999-04:00", "updated_at": "2025-07-03T20:00:38.618-04:00", "avatar": "https://secure.gravatar.com/avatar/8ed94b3c832d2dd9aed6764145f8b6be.jpg?s=512&d=https%3A%2F%2Fa.slack-edge.com%2Fdf10d%2Fimg%2Favatars%2Fava_0015-512.png", "custom_css": null}, {"id": 11640, "slack_id": "U08V98JF7FY", "display_name": "tristanitoh", "bio": null, "projects_count": 2, "devlogs_count": 6, "votes_count": 20, "ships_count": 1, "projects": [{"id": 3394, "title": "Roverdrive", "devlogs_count": 5, "created_at": "2025-06-24T04:22:34.315-04:00"}, {"id": 3322, "title": "Build A Boat RNG", "devlogs_count": 1, "created_at": "2025-06-23T20:15:12.994-04:00"}], "coding_time_seconds": 133774, "coding_time_seconds_today": 0, "balance": "You need to have a pocket watcher badge to view this.", "badges": [{"name": "Maiden Voyage", "text": "you shipped your first project! the journey begins...", "icon": "\ud83d\udea2"}], "created_at": "2025-06-23T03:44:23.743-04:00", "updated_at": "2025-09-10T22:56:59.798-04:00", "avatar": "https://avatars.slack-edge.com/2025-06-05/9006340677845_24ef177d62791fcaf8e1_original.png", "custom_css": null}], "pagination": {"page": 582, "pages": 1192, "count": 23828, "items": 20}}