{"users": [{"id": 11641, "slack_id": "U0937UHLC4Q", "display_name": "Tsolmon Ts", "bio": null, "projects_count": 0, "devlogs_count": 0, "votes_count": 0, "ships_count": 0, "projects": [], "coding_time_seconds": 0, "coding_time_seconds_today": 0, "balance": "You need to have a pocket watcher badge to view this.", "badges": [], "created_at": "2025-06-23T03:45:09.696-04:00", "updated_at": "2025-07-05T02:12:58.818-04:00", "avatar": "https://secure.gravatar.com/avatar/228f07b8a5263ed53ed4948b9e31e97b.jpg?s=512&d=https%3A%2F%2Fa.slack-edge.com%2Fdf10d%2Fimg%2Favatars%2Fava_0015-512.png", "custom_css": null}, {"id": 11642, "slack_id": "U092KQY5ESW", "display_name": "Sergio", "bio": null, "projects_count": 0, "devlogs_count": 0, "votes_count": 0, "ships_count": 0, "projects": [], "coding_time_seconds": 0, "coding_time_seconds_today": 0, "balance": "You need to have a pocket watcher badge to view this.", "badges": [], "created_at": "2025-06-23T03:45:17.462-04:00", "updated_at": "2025-07-03T20:00:39.292-04:00", "avatar": "https://secure.gravatar.com/avatar/3ec60e88dbd9607307601ba74bbea430.jpg?s=512&d=https%3A%2F%2Fa.slack-edge.com%2Fdf10d%2Fimg%2Favatars%2Fava_0018-512.png", "custom_css": null}, {"id": 11643, "slack_id": "U092D6R64TD", "display_name": "Aaditya Siddharth", "bio": null, "projects_count": 0, "devlogs_count": 0, "votes_count": 0, "ships_count": 0, "projects": [], "coding_time_seconds": 0, "coding_time_seconds_today": 0, "balance": "You need to have a pocket watcher badge to view this.", "badges": [], "created_at": "2025-06-23T03:46:30.264-04:00", "updated_at": "2025-07-03T22:02:21.598-04:00", "avatar": "https://secure.gravatar.com/avatar/1813f2f120ffea42654308ba2551c0d0.jpg?s=512&d=https%3A%2F%2Fa.slack-edge.com%2Fdf10d%2Fimg%2Favatars%2Fava_0005-512.png", "custom_css": null}, {"id": 11644, "slack_id": "U092HSCARK4", "display_name": "Matei Z.", "bio": null, "projects_count": 4, "devlogs_count": 19, "votes_count": 60, "ships_count": 3, "projects": [{"id": 3409, "title": "My Home Web Server Simulator", "devlogs_count": 10, "created_at": "2025-06-24T05:54:40.489-04:00"}, {"id": 7116, "title": "Geometry Dash but on a Raspberry Pi Pico", "devlogs_count": 2, "created_at": "2025-07-19T06:42:40.834-04:00"}, {"id": 6728, "title": "WiFi Device Detector", "devlogs_count": 2, "created_at": "2025-07-15T15:07:57.752-04:00"}, {"id": 5929, "title": "Super Simple Cloud", "devlogs_count": 4, "created_at": "2025-07-09T07:06:25.087-04:00"}], "coding_time_seconds": 327666, "coding_time_seconds_today": 0, "balance": "You need to have a pocket watcher badge to view this.", "badges": [{"name": "Maiden Voyage", "text": "you shipped your first project! the journey begins...", "icon": "\ud83d\udea2"}], "created_at": "2025-06-23T03:47:42.894-04:00", "updated_at": "2025-09-10T22:56:59.903-04:00", "avatar": "https://secure.gravatar.com/avatar/8a9871a1d6651e173150f88a765c832b.jpg?s=512&d=https%3A%2F%2Fa.slack-edge.com%2Fdf10d%2Fimg%2Favatars%2Fava_0016-512.png", "custom_css": null}, {"id": 11645, "slack_id": "U092LF7JBRS", "display_name": "Shiv Kumar Sharma", "bio": null, "projects_count": 0, "devlogs_count": 0, "votes_count": 0, "ships_count": 0, "projects": [], "coding_time_seconds": 0, "coding_time_seconds_today": 0, "balance": "You need to have a pocket watcher badge to view this.", "badges": [], "created_at": "2025-06-23T03:54:33.122-04:00", "updated_at": "2025-07-04T08:27:54.430-04:00", "avatar": "https://secure.gravatar.com/avatar/3cdde21874829ac5e674ca52826b0d1d.jpg?s=512&d=https%3A%2F%2Fa.slack-edge.com%2Fdf10d%2Fimg%2Favatars%2Fava_0014-512.png", "custom_css": null}, {"id": 11646, "slack_id": "U092JLAS0F7", "display_name": "Siddharth", "bio": null, "projects_count": 0, "devlogs_count": 0, "votes_count": 0, "ships_count": 0, "projects": [], "coding_time_seconds": 0, "coding_time_seconds_today": 0, "balance": "You need to have a pocket watcher badge to view this.", "badges": [], "created_at": "2025-06-23T03:56:07.822-04:00", "updated_at": "2025-07-03T20:00:40.103-04:00", "avatar": "https://secure.gravatar.com/avatar/f360a49bc211f57ccba5f1aa923eab0d.jpg?s=512&d=https%3A%2F%2Fa.slack-edge.com%2Fdf10d%2Fimg%2Favatars%2Fava_0024-512.png", "custom_css": null}, {"id": 11647, "slack_id": "U092KFEKJ9Y", "display_name": "SanjeevKashyap", "bio": null, "projects_count": 1, "devlogs_count": 5, "votes_count": 0, "ships_count": 0, "projects": [{"id": 3098, "title": "Drive Clone: A React-Based Cloud Storage Application", "devlogs_count": 5, "created_at": "2025-06-23T05:08:37.461-04:00"}], "coding_time_seconds": 23128, "coding_time_seconds_today": 0, "balance": "You need to have a pocket watcher badge to view this.", "badges": [], "created_at": "2025-06-23T04:05:06.917-04:00", "updated_at": "2025-07-04T02:31:41.295-04:00", "avatar": "https://secure.gravatar.com/avatar/207eb85b83d47fb6070c3a51e3063517.jpg?s=512&d=https%3A%2F%2Fa.slack-edge.com%2Fdf10d%2Fimg%2Favatars%2Fava_0003-512.png", "custom_css": null}, {"id": 11648, "slack_id": "U092LHH6W12", "display_name": "pritammahata.dev", "bio": null, "projects_count": 0, "devlogs_count": 0, "votes_count": 0, "ships_count": 0, "projects": [], "coding_time_seconds": 0, "coding_time_seconds_today": 0, "balance": "You need to have a pocket watcher badge to view this.", "badges": [], "created_at": "2025-06-23T04:09:06.696-04:00", "updated_at": "2025-07-03T20:00:40.509-04:00", "avatar": "https://secure.gravatar.com/avatar/e801dc609acf1bfb6cbd93194f539f5c.jpg?s=512&d=https%3A%2F%2Fa.slack-edge.com%2Fdf10d%2Fimg%2Favatars%2Fava_0000-512.png", "custom_css": null}, {"id": 11649, "slack_id": "U092Z97PPR7", "display_name": "Leon", "bio": null, "projects_count": 4, "devlogs_count": 9, "votes_count": 3, "ships_count": 4, "projects": [{"id": 3864, "title": "btwArch", "devlogs_count": 1, "created_at": "2025-06-26T03:22:39.456-04:00"}, {"id": 5161, "title": "MyW \u2013 Your Smart, Modern Weather Companion", "devlogs_count": 1, "created_at": "2025-07-03T14:17:14.530-04:00"}, {"id": 5412, "title": "BobaBliss", "devlogs_count": 1, "created_at": "2025-07-05T06:12:04.744-04:00"}, {"id": 3863, "title": "Checkmate (ToDoList)", "devlogs_count": 6, "created_at": "2025-06-26T03:20:50.320-04:00"}], "coding_time_seconds": 119840, "coding_time_seconds_today": 0, "balance": "You need to have a pocket watcher badge to view this.", "badges": [{"name": "Maiden Voyage", "text": "you shipped your first project! the journey begins...", "icon": "\ud83d\udea2"}], "created_at": "2025-06-23T04:10:51.055-04:00", "updated_at": "2025-09-10T22:57:00.074-04:00", "avatar": "https://secure.gravatar.com/avatar/7c9257c115dfc1ca35200a7cbdadb00e.jpg?s=512&d=https%3A%2F%2Fa.slack-edge.com%2Fdf10d%2Fimg%2Favatars%2Fava_0015-512.png", "custom_css": null}, {"id": 11650, "slack_id": "U0925G19HAT", "display_name": "harsh", "bio": null, "projects_count": 0, "devlogs_count": 0, "votes_count": 0, "ships_count": 0, "projects": [], "coding_time_seconds": 0, "coding_time_seconds_today": 0, "balance": "You need to have a pocket watcher badge to view this.", "badges": [], "created_at": "2025-06-23T04:12:43.589-04:00", "updated_at": "2025-07-03T20:00:41.044-04:00", "avatar": "https://secure.gravatar.com/avatar/a83ce3c74763e1fe11966dad7ac9376a.jpg?s=512&d=https%3A%2F%2Fa.slack-edge.com%2Fdf10d%2Fimg%2Favatars%2Fava_0015-512.png", "custom_css": null}, {"id": 11651, "slack_id": "U092LJ5NMPE", "display_name": "Grigore", "bio": null, "projects_count": 0, "devlogs_count": 0, "votes_count": 0, "ships_count": 0, "projects": [], "coding_time_seconds": 0, "coding_time_seconds_today": 0, "balance": "You need to have a pocket watcher badge to view this.", "badges": [], "created_at": "2025-06-23T04:14:49.720-04:00", "updated_at": "2025-07-03T20:00:41.320-04:00", "avatar": "https://secure.gravatar.com/avatar/47586ba000457cf1014fd3691dbad2b4.jpg?s=512&d=https%3A%2F%2Fa.slack-edge.com%2Fdf10d%2Fimg%2Favatars%2Fava_0026-512.png", "custom_css": null}, {"id": 11652, "slack_id": "U092EARNLNS", "display_name": "zct", "bio": null, "projects_count": 2, "devlogs_count": 2, "votes_count": 0, "ships_count": 0, "projects": [{"id": 3632, "title": "Cryptocurrency real-time detection program", "devlogs_count": 1, "created_at": "2025-06-25T03:45:21.587-04:00"}, {"id": 4018, "title": "Trying to reproduce the neuro", "devlogs_count": 1, "created_at": "2025-06-26T22:19:19.473-04:00"}], "coding_time_seconds": 51824, "coding_time_seconds_today": 0, "balance": "You need to have a pocket watcher badge to view this.", "badges": [], "created_at": "2025-06-23T04:15:24.187-04:00", "updated_at": "2025-07-03T20:00:41.595-04:00", "avatar": "https://secure.gravatar.com/avatar/3a87a2ea5745739d2faeda265ea99936.jpg?s=512&d=https%3A%2F%2Fa.slack-edge.com%2Fdf10d%2Fimg%2Favatars%2Fava_0003-512.png", "custom_css": null}, {"id": 11653, "slack_id": "U092DC72Q67", "display_name": "Aamir", "bio": null, "projects_count": 0, "devlogs_count": 0, "votes_count": 0, "ships_count": 0, "projects": [], "coding_time_seconds": 0, "coding_time_seconds_today": 0, "balance": "You need to have a pocket watcher badge to view this.", "badges": [], "created_at": "2025-06-23T04:22:57.486-04:00", "updated_at": "2025-07-03T20:00:41.857-04:00", "avatar": "https://secure.gravatar.com/avatar/3263ea1fb12e64d86ce5d20a8f7da63c.jpg?s=512&d=https%3A%2F%2Fa.slack-edge.com%2Fdf10d%2Fimg%2Favatars%2Fava_0006-512.png", "custom_css": null}, {"id": 11654, "slack_id": "U092ED2P7SS", "display_name": "uni7iff", "bio": null, "projects_count": 0, "devlogs_count": 0, "votes_count": 0, "ships_count": 0, "projects": [], "coding_time_seconds": 0, "coding_time_seconds_today": 0, "balance": "You need to have a pocket watcher badge to view this.", "badges": [], "created_at": "2025-06-23T04:35:30.938-04:00", "updated_at": "2025-07-03T20:00:42.288-04:00", "avatar": "https://secure.gravatar.com/avatar/d604180f2fa8210967f1a45aeb291c91.jpg?s=512&d=https%3A%2F%2Fa.slack-edge.com%2Fdf10d%2Fimg%2Favatars%2Fava_0025-512.png", "custom_css": null}, {"id": 11655, "slack_id": "U0925K9B9NK", "display_name": "Usman", "bio": null, "projects_count": 1, "devlogs_count": 0, "votes_count": 0, "ships_count": 0, "projects": [{"id": 8433, "title": "Snake", "devlogs_count": 0, "created_at": "2025-07-27T04:24:40.459-04:00"}], "coding_time_seconds": 2519, "coding_time_seconds_today": 0, "balance": "You need to have a pocket watcher badge to view this.", "badges": [], "created_at": "2025-06-23T04:38:47.853-04:00", "updated_at": "2025-07-26T12:12:56.523-04:00", "avatar": "https://secure.gravatar.com/avatar/9212c355a4257bc66e244bd8805a47f6.jpg?s=512&d=https%3A%2F%2Fa.slack-edge.com%2Fdf10d%2Fimg%2Favatars%2Fava_0016-512.png", "custom_css": null}, {"id": 11656, "slack_id": "U092DEBQYBV", "display_name": "Bhashi Sharma", "bio": null, "projects_count": 0, "devlogs_count": 0, "votes_count": 0, "ships_count": 0, "projects": [], "coding_time_seconds": 0, "coding_time_seconds_today": 0, "balance": "You need to have a pocket watcher badge to view this.", "badges": [], "created_at": "2025-06-23T04:39:06.694-04:00", "updated_at": "2025-07-03T20:00:42.701-04:00", "avatar": "https://secure.gravatar.com/avatar/7a7f2a8b55fb84e8586aeee60ec2edca.jpg?s=512&d=https%3A%2F%2Fa.slack-edge.com%2Fdf10d%2Fimg%2Favatars%2Fava_0009-512.png", "custom_css": null}, {"id": 11657, "slack_id": "U093873A9QQ", "display_name": "Marono", "bio": null, "projects_count": 0, "devlogs_count": 0, "votes_count": 0, "ships_count": 0, "projects": [], "coding_time_seconds": 0, "coding_time_seconds_today": 0, "balance": "You need to have a pocket watcher badge to view this.", "badges": [], "created_at": "2025-06-23T04:39:35.091-04:00", "updated_at": "2025-07-07T02:13:56.179-04:00", "avatar": "https://secure.gravatar.com/avatar/9ecdd33b90ebcfb5757bb2b46dc8be68.jpg?s=512&d=https%3A%2F%2Fa.slack-edge.com%2Fdf10d%2Fimg%2Favatars%2Fava_0001-512.png", "custom_css": null}, {"id": 11658, "slack_id": "U092GUB07JQ", "display_name": "ilovecats4606", "bio": null, "projects_count": 1, "devlogs_count": 0, "votes_count": 0, "ships_count": 0, "projects": [{"id": 4182, "title": "OpenSignage", "devlogs_count": 0, "created_at": "2025-06-28T04:09:33.250-04:00"}], "coding_time_seconds": 45962, "coding_time_seconds_today": 0, "balance": "You need to have a pocket watcher badge to view this.", "badges": [], "created_at": "2025-06-23T04:42:06.458-04:00", "updated_at": "2025-07-03T20:00:43.097-04:00", "avatar": "https://avatars.slack-edge.com/2025-06-26/9107489566420_496a7c855ff1549c8568_original.jpg", "custom_css": null}, {"id": 11659, "slack_id": "U0921UWBDPH", "display_name": "Ayokanmi Adejola", "bio": null, "projects_count": 0, "devlogs_count": 0, "votes_count": 0, "ships_count": 0, "projects": [], "coding_time_seconds": 0, "coding_time_seconds_today": 0, "balance": "You need to have a pocket watcher badge to view this.", "badges": [], "created_at": "2025-06-23T04:45:55.263-04:00", "updated_at": "2025-07-03T20:00:43.355-04:00", "avatar": "https://avatars.slack-edge.com/2025-06-23/9088788176740_a33ba3cedcc4dbcb7297_original.jpg", "custom_css": null}, {"id": 11660, "slack_id": "U092C0AGDCK", "display_name": "Parth", "bio": null, "projects_count": 0, "devlogs_count": 0, "votes_count": 0, "ships_count": 0, "projects": [], "coding_time_seconds": 0, "coding_time_seconds_today": 0, "balance": "You need to have a pocket watcher badge to view this.", "badges": [], "created_at": "2025-06-23T04:57:53.735-04:00", "updated_at": "2025-07-03T20:00:43.650-04:00", "avatar": "https://secure.gravatar.com/avatar/9bc0fbdd6bb84d0280c7534f52b99eb3.jpg?s=512&d=https%3A%2F%2Fa.slack-edge.com%2Fdf10d%2Fimg%2Favatars%2Fava_0012-512.png", "custom_css": null}], "pagination": {"page": 583, "pages": 1192, "count": 23828, "items": 20}}