{"users": [{"id": 11661, "slack_id": "U0937S0NHA4", "display_name": "madhav b mahid", "bio": null, "projects_count": 0, "devlogs_count": 0, "votes_count": 0, "ships_count": 0, "projects": [], "coding_time_seconds": 0, "coding_time_seconds_today": 0, "balance": "You need to have a pocket watcher badge to view this.", "badges": [], "created_at": "2025-06-23T05:01:12.124-04:00", "updated_at": "2025-07-03T20:00:43.915-04:00", "avatar": "https://secure.gravatar.com/avatar/09e01491d863be887bc9c386b442bb88.jpg?s=512&d=https%3A%2F%2Fa.slack-edge.com%2Fdf10d%2Fimg%2Favatars%2Fava_0002-512.png", "custom_css": null}, {"id": 11662, "slack_id": "U079XCS2M6Y", "display_name": "Charan", "bio": null, "projects_count": 0, "devlogs_count": 0, "votes_count": 0, "ships_count": 0, "projects": [], "coding_time_seconds": 0, "coding_time_seconds_today": 0, "balance": "You need to have a pocket watcher badge to view this.", "badges": [], "created_at": "2025-06-23T05:08:52.221-04:00", "updated_at": "2025-07-03T20:00:44.183-04:00", "avatar": "https://secure.gravatar.com/avatar/78c22429682713a2975cd436a364c8b1.jpg?s=512&d=https%3A%2F%2Fa.slack-edge.com%2Fdf10d%2Fimg%2Favatars%2Fava_0001-512.png", "custom_css": null}, {"id": 11663, "slack_id": "U06TC6S98KY", "display_name": "shaza Mohammed", "bio": null, "projects_count": 0, "devlogs_count": 0, "votes_count": 0, "ships_count": 0, "projects": [], "coding_time_seconds": 0, "coding_time_seconds_today": 0, "balance": "You need to have a pocket watcher badge to view this.", "badges": [], "created_at": "2025-06-23T05:09:07.975-04:00", "updated_at": "2025-07-03T20:00:44.461-04:00", "avatar": "https://secure.gravatar.com/avatar/6c07025a9957b1f97b2b8dbddcc0a24e.jpg?s=512&d=https%3A%2F%2Fa.slack-edge.com%2Fdf10d%2Fimg%2Favatars%2Fava_0020-512.png", "custom_css": null}, {"id": 11664, "slack_id": "U092LSVRSEQ", "display_name": "anmoti", "bio": null, "projects_count": 0, "devlogs_count": 0, "votes_count": 0, "ships_count": 0, "projects": [], "coding_time_seconds": 222615, "coding_time_seconds_today": 2291, "balance": "You need to have a pocket watcher badge to view this.", "badges": [], "created_at": "2025-06-23T05:13:53.391-04:00", "updated_at": "2025-07-03T20:00:44.726-04:00", "avatar": "https://secure.gravatar.com/avatar/17b98e0d80cb80377e95e624282faffc.jpg?s=512&d=https%3A%2F%2Fa.slack-edge.com%2Fdf10d%2Fimg%2Favatars%2Fava_0026-512.png", "custom_css": null}, {"id": 11665, "slack_id": "U092DKXV719", "display_name": "Morph01", "bio": null, "projects_count": 0, "devlogs_count": 0, "votes_count": 0, "ships_count": 0, "projects": [], "coding_time_seconds": 0, "coding_time_seconds_today": 0, "balance": "You need to have a pocket watcher badge to view this.", "badges": [], "created_at": "2025-06-23T05:18:04.474-04:00", "updated_at": "2025-07-03T20:00:44.986-04:00", "avatar": "https://secure.gravatar.com/avatar/e10622b5de526a16fa3995abbbb568ee.jpg?s=512&d=https%3A%2F%2Fa.slack-edge.com%2Fdf10d%2Fimg%2Favatars%2Fava_0010-512.png", "custom_css": null}, {"id": 11666, "slack_id": "U0925RPH363", "display_name": "Nag19", "bio": null, "projects_count": 0, "devlogs_count": 0, "votes_count": 0, "ships_count": 0, "projects": [], "coding_time_seconds": 0, "coding_time_seconds_today": 0, "balance": "You need to have a pocket watcher badge to view this.", "badges": [], "created_at": "2025-06-23T05:20:13.504-04:00", "updated_at": "2025-07-03T20:00:45.260-04:00", "avatar": "https://avatars.slack-edge.com/2025-06-23/9073899133559_92613bc4e8a3ddb260b0_original.png", "custom_css": null}, {"id": 11667, "slack_id": "U092DLMQXU3", "display_name": "Th\u00e1i B\u1ea3o Anh", "bio": null, "projects_count": 2, "devlogs_count": 10, "votes_count": 2, "ships_count": 0, "projects": [{"id": 3192, "title": "hackpad", "devlogs_count": 4, "created_at": "2025-06-23T11:36:33.430-04:00"}, {"id": 3457, "title": "CNDWeb", "devlogs_count": 6, "created_at": "2025-06-24T11:00:56.247-04:00"}], "coding_time_seconds": 312945, "coding_time_seconds_today": 0, "balance": "You need to have a pocket watcher badge to view this.", "badges": [], "created_at": "2025-06-23T05:23:53.364-04:00", "updated_at": "2025-08-30T23:59:13.537-04:00", "avatar": "https://secure.gravatar.com/avatar/d4491a8f7d92f53ecd4bf9110ac6dd5a.jpg?s=512&d=https%3A%2F%2Fa.slack-edge.com%2Fdf10d%2Fimg%2Favatars%2Fava_0020-512.png", "custom_css": null}, {"id": 11668, "slack_id": "U092K50LHEZ", "display_name": "parminder", "bio": null, "projects_count": 0, "devlogs_count": 0, "votes_count": 0, "ships_count": 0, "projects": [], "coding_time_seconds": 366413, "coding_time_seconds_today": 5232, "balance": "You need to have a pocket watcher badge to view this.", "badges": [], "created_at": "2025-06-23T05:34:08.581-04:00", "updated_at": "2025-07-03T20:00:45.832-04:00", "avatar": "https://secure.gravatar.com/avatar/7ade6ffc78ef86ddecb2ef2dd062660d.jpg?s=512&d=https%3A%2F%2Fa.slack-edge.com%2Fdf10d%2Fimg%2Favatars%2Fava_0018-512.png", "custom_css": null}, {"id": 11669, "slack_id": "U092ENM9LJ2", "display_name": "Gagan N", "bio": null, "projects_count": 0, "devlogs_count": 0, "votes_count": 0, "ships_count": 0, "projects": [], "coding_time_seconds": 36266, "coding_time_seconds_today": 0, "balance": "You need to have a pocket watcher badge to view this.", "badges": [], "created_at": "2025-06-23T05:34:58.807-04:00", "updated_at": "2025-07-06T14:12:47.134-04:00", "avatar": "https://secure.gravatar.com/avatar/95b4ae59af0f8e7cc45657aaed146fe2.jpg?s=512&d=https%3A%2F%2Fa.slack-edge.com%2Fdf10d%2Fimg%2Favatars%2Fava_0022-512.png", "custom_css": null}, {"id": 11670, "slack_id": "U092LCDM7AN", "display_name": "Sania Khan", "bio": null, "projects_count": 0, "devlogs_count": 0, "votes_count": 0, "ships_count": 0, "projects": [], "coding_time_seconds": 0, "coding_time_seconds_today": 0, "balance": "You need to have a pocket watcher badge to view this.", "badges": [], "created_at": "2025-06-23T05:37:09.503-04:00", "updated_at": "2025-07-03T20:00:46.257-04:00", "avatar": "https://avatars.slack-edge.com/2025-06-23/9081774202083_7a07310f370940625929_original.png", "custom_css": null}, {"id": 11671, "slack_id": "U0925UGH28P", "display_name": "Khoi Tran", "bio": null, "projects_count": 0, "devlogs_count": 0, "votes_count": 0, "ships_count": 0, "projects": [], "coding_time_seconds": 0, "coding_time_seconds_today": 0, "balance": "You need to have a pocket watcher badge to view this.", "badges": [], "created_at": "2025-06-23T05:38:54.288-04:00", "updated_at": "2025-07-03T20:00:46.529-04:00", "avatar": "https://secure.gravatar.com/avatar/7e789ded63b2ecb26434f0ecb5e00e80.jpg?s=512&d=https%3A%2F%2Fa.slack-edge.com%2Fdf10d%2Fimg%2Favatars%2Fava_0011-512.png", "custom_css": null}, {"id": 11672, "slack_id": "U0874FSMZ7B", "display_name": "Huzaifa", "bio": null, "projects_count": 1, "devlogs_count": 0, "votes_count": 1, "ships_count": 0, "projects": [{"id": 4354, "title": "Pythoon", "devlogs_count": 0, "created_at": "2025-06-29T09:39:09.776-04:00"}], "coding_time_seconds": 3350, "coding_time_seconds_today": 0, "balance": "You need to have a pocket watcher badge to view this.", "badges": [], "created_at": "2025-06-23T05:42:51.672-04:00", "updated_at": "2025-07-03T20:00:46.816-04:00", "avatar": "https://secure.gravatar.com/avatar/81f7c8de0d26eb801dac4d6e34da63b1.jpg?s=512&d=https%3A%2F%2Fa.slack-edge.com%2Fdf10d%2Fimg%2Favatars%2Fava_0024-512.png", "custom_css": null}, {"id": 11673, "slack_id": "U092DP6E9H9", "display_name": "John Joseph", "bio": null, "projects_count": 1, "devlogs_count": 3, "votes_count": 0, "ships_count": 0, "projects": [{"id": 3362, "title": "microtasker", "devlogs_count": 3, "created_at": "2025-06-24T00:52:53.625-04:00"}], "coding_time_seconds": 34491, "coding_time_seconds_today": 0, "balance": "You need to have a pocket watcher badge to view this.", "badges": [], "created_at": "2025-06-23T05:46:47.104-04:00", "updated_at": "2025-07-03T20:00:47.089-04:00", "avatar": "https://secure.gravatar.com/avatar/8a08acf9c25eaf1335ea51e328839902.jpg?s=512&d=https%3A%2F%2Fa.slack-edge.com%2Fdf10d%2Fimg%2Favatars%2Fava_0019-512.png", "custom_css": null}, {"id": 11674, "slack_id": "U092LDV209Y", "display_name": "Kaustubh", "bio": null, "projects_count": 0, "devlogs_count": 0, "votes_count": 0, "ships_count": 0, "projects": [], "coding_time_seconds": 0, "coding_time_seconds_today": 0, "balance": "You need to have a pocket watcher badge to view this.", "badges": [], "created_at": "2025-06-23T05:47:19.775-04:00", "updated_at": "2025-08-15T11:56:53.604-04:00", "avatar": "https://secure.gravatar.com/avatar/5e8a0b09c3f8f16a0e5ea805e63532ce.jpg?s=512&d=https%3A%2F%2Fa.slack-edge.com%2Fdf10d%2Fimg%2Favatars%2Fava_0001-512.png", "custom_css": null}, {"id": 11675, "slack_id": "U091NPMNBA9", "display_name": "deimosdeist", "bio": null, "projects_count": 0, "devlogs_count": 0, "votes_count": 0, "ships_count": 0, "projects": [], "coding_time_seconds": 0, "coding_time_seconds_today": 0, "balance": "You need to have a pocket watcher badge to view this.", "badges": [], "created_at": "2025-06-23T05:52:49.879-04:00", "updated_at": "2025-07-06T14:12:47.549-04:00", "avatar": "https://secure.gravatar.com/avatar/87f0a9200c1a8b6ad15ec702c4fab20b.jpg?s=512&d=https%3A%2F%2Fa.slack-edge.com%2Fdf10d%2Fimg%2Favatars%2Fava_0001-512.png", "custom_css": null}, {"id": 11676, "slack_id": "U09261Y0939", "display_name": "Joscha Peter", "bio": null, "projects_count": 1, "devlogs_count": 9, "votes_count": 20, "ships_count": 1, "projects": [{"id": 3116, "title": "Code Editor", "devlogs_count": 9, "created_at": "2025-06-23T06:15:41.149-04:00"}], "coding_time_seconds": 395435, "coding_time_seconds_today": 1287, "balance": "You need to have a pocket watcher badge to view this.", "badges": [{"name": "Maiden Voyage", "text": "you shipped your first project! the journey begins...", "icon": "\ud83d\udea2"}], "created_at": "2025-06-23T06:02:36.766-04:00", "updated_at": "2025-09-10T22:57:00.804-04:00", "avatar": "https://secure.gravatar.com/avatar/503eb96dd303d96856dc6b5e7390ae62.jpg?s=512&d=https%3A%2F%2Fa.slack-edge.com%2Fdf10d%2Fimg%2Favatars%2Fava_0012-512.png", "custom_css": null}, {"id": 11677, "slack_id": "U092ESVPB7G", "display_name": "LeonJevtic", "bio": null, "projects_count": 0, "devlogs_count": 0, "votes_count": 0, "ships_count": 0, "projects": [], "coding_time_seconds": 0, "coding_time_seconds_today": 0, "balance": "You need to have a pocket watcher badge to view this.", "badges": [], "created_at": "2025-06-23T06:04:19.543-04:00", "updated_at": "2025-07-03T22:02:23.837-04:00", "avatar": "https://secure.gravatar.com/avatar/b3b060039c3cda33a001ac588238e3ef.jpg?s=512&d=https%3A%2F%2Fa.slack-edge.com%2Fdf10d%2Fimg%2Favatars%2Fava_0021-512.png", "custom_css": null}, {"id": 11678, "slack_id": "U092K9J5BNH", "display_name": "0xf4", "bio": null, "projects_count": 2, "devlogs_count": 2, "votes_count": 0, "ships_count": 0, "projects": [{"id": 3165, "title": "RCS Calculator", "devlogs_count": 0, "created_at": "2025-06-23T09:42:55.501-04:00"}, {"id": 3280, "title": "Cyber Craft", "devlogs_count": 2, "created_at": "2025-06-23T16:34:18.182-04:00"}], "coding_time_seconds": 38169, "coding_time_seconds_today": 3072, "balance": "You need to have a pocket watcher badge to view this.", "badges": [], "created_at": "2025-06-23T06:08:03.234-04:00", "updated_at": "2025-07-03T20:00:48.165-04:00", "avatar": "https://secure.gravatar.com/avatar/ed19d5f8257031eba91df6031694e0ca.jpg?s=512&d=https%3A%2F%2Fa.slack-edge.com%2Fdf10d%2Fimg%2Favatars%2Fava_0001-512.png", "custom_css": null}, {"id": 11679, "slack_id": "U092ET6GV2S", "display_name": "Pratik", "bio": null, "projects_count": 0, "devlogs_count": 0, "votes_count": 0, "ships_count": 0, "projects": [], "coding_time_seconds": 7666, "coding_time_seconds_today": 0, "balance": "You need to have a pocket watcher badge to view this.", "badges": [], "created_at": "2025-06-23T06:08:10.693-04:00", "updated_at": "2025-07-03T20:00:48.442-04:00", "avatar": "https://avatars.slack-edge.com/2025-06-23/9081914338931_35909f46a29bb0670ab3_original.jpg", "custom_css": null}, {"id": 11680, "slack_id": "U092ZU38JM7", "display_name": "Yahya Khan", "bio": "trying to complete myside chunks ASAP !!!!", "projects_count": 0, "devlogs_count": 113, "votes_count": 21, "ships_count": 0, "projects": [], "coding_time_seconds": 1926909, "coding_time_seconds_today": 0, "balance": "You need to have a pocket watcher badge to view this.", "badges": [{"name": "Maiden Voyage", "text": "you shipped your first project! the journey begins...", "icon": "\ud83d\udea2"}], "created_at": "2025-06-23T06:13:16.158-04:00", "updated_at": "2025-09-10T22:57:00.921-04:00", "avatar": "https://secure.gravatar.com/avatar/f91ee7705965f2d163d5d4991a1df3e6.jpg?s=512&d=https%3A%2F%2Fa.slack-edge.com%2Fdf10d%2Fimg%2Favatars%2Fava_0012-512.png", "custom_css": null}], "pagination": {"page": 584, "pages": 1192, "count": 23828, "items": 20}}