{"users": [{"id": 11701, "slack_id": "U091PF7HP71", "display_name": "David Kieu", "bio": null, "projects_count": 0, "devlogs_count": 0, "votes_count": 0, "ships_count": 0, "projects": [], "coding_time_seconds": 685, "coding_time_seconds_today": 0, "balance": "You need to have a pocket watcher badge to view this.", "badges": [], "created_at": "2025-06-23T06:56:37.260-04:00", "updated_at": "2025-07-03T20:00:54.555-04:00", "avatar": "https://secure.gravatar.com/avatar/77ae5d6fcbee151a327d0029ade9cf07.jpg?s=512&d=https%3A%2F%2Fa.slack-edge.com%2Fdf10d%2Fimg%2Favatars%2Fava_0003-512.png", "custom_css": null}, {"id": 11702, "slack_id": "U09304R515X", "display_name": "Robin", "bio": null, "projects_count": 0, "devlogs_count": 0, "votes_count": 0, "ships_count": 0, "projects": [], "coding_time_seconds": 0, "coding_time_seconds_today": 0, "balance": "You need to have a pocket watcher badge to view this.", "badges": [], "created_at": "2025-06-23T06:58:27.934-04:00", "updated_at": "2025-07-03T20:00:54.887-04:00", "avatar": "https://secure.gravatar.com/avatar/41d33f857127f37926e2f2bca64d3c72.jpg?s=512&d=https%3A%2F%2Fa.slack-edge.com%2Fdf10d%2Fimg%2Favatars%2Fava_0021-512.png", "custom_css": null}, {"id": 11703, "slack_id": "U092Z5KH4SD", "display_name": "Tran Nguyen Thuong Truong", "bio": null, "projects_count": 0, "devlogs_count": 0, "votes_count": 0, "ships_count": 0, "projects": [], "coding_time_seconds": 286539, "coding_time_seconds_today": 0, "balance": "You need to have a pocket watcher badge to view this.", "badges": [], "created_at": "2025-06-23T07:08:23.581-04:00", "updated_at": "2025-07-04T02:31:45.044-04:00", "avatar": "https://secure.gravatar.com/avatar/b6d3a44faecb571bca3bbe9cdcb96113.jpg?s=512&d=https%3A%2F%2Fa.slack-edge.com%2Fdf10d%2Fimg%2Favatars%2Fava_0021-512.png", "custom_css": null}, {"id": 11704, "slack_id": "U091CRXSSNB", "display_name": "John Volock", "bio": null, "projects_count": 0, "devlogs_count": 0, "votes_count": 0, "ships_count": 0, "projects": [], "coding_time_seconds": 0, "coding_time_seconds_today": 0, "balance": "You need to have a pocket watcher badge to view this.", "badges": [], "created_at": "2025-06-23T07:16:35.749-04:00", "updated_at": "2025-07-03T20:00:55.375-04:00", "avatar": "https://avatars.slack-edge.com/2025-06-23/9083226161782_9e2e8e7fa95411f43617_original.png", "custom_css": null}, {"id": 11705, "slack_id": "U0926BST9P1", "display_name": "SUHANI BANSAL", "bio": null, "projects_count": 0, "devlogs_count": 0, "votes_count": 0, "ships_count": 0, "projects": [], "coding_time_seconds": 0, "coding_time_seconds_today": 0, "balance": "You need to have a pocket watcher badge to view this.", "badges": [], "created_at": "2025-06-23T07:16:57.767-04:00", "updated_at": "2025-07-05T08:13:24.492-04:00", "avatar": "https://secure.gravatar.com/avatar/c797c6af16f71e9fa79f7b5d1a9a3773.jpg?s=512&d=https%3A%2F%2Fa.slack-edge.com%2Fdf10d%2Fimg%2Favatars%2Fava_0009-512.png", "custom_css": null}, {"id": 11706, "slack_id": "U0938V2CF7A", "display_name": "Lucas Koji", "bio": null, "projects_count": 0, "devlogs_count": 0, "votes_count": 0, "ships_count": 0, "projects": [], "coding_time_seconds": 236822, "coding_time_seconds_today": 120, "balance": "You need to have a pocket watcher badge to view this.", "badges": [], "created_at": "2025-06-23T07:19:16.080-04:00", "updated_at": "2025-07-03T20:00:55.937-04:00", "avatar": "https://avatars.slack-edge.com/2025-06-23/9087626539781_e3e25c8f6808b6bcd0f7_original.jpg", "custom_css": null}, {"id": 11707, "slack_id": "U092LRQ97RQ", "display_name": "Tom\u00e1s", "bio": null, "projects_count": 0, "devlogs_count": 0, "votes_count": 0, "ships_count": 0, "projects": [], "coding_time_seconds": 0, "coding_time_seconds_today": 0, "balance": "You need to have a pocket watcher badge to view this.", "badges": [], "created_at": "2025-06-23T07:21:45.573-04:00", "updated_at": "2025-07-03T20:00:56.336-04:00", "avatar": "https://secure.gravatar.com/avatar/563515063b1bb22b612bd349e48e1a03.jpg?s=512&d=https%3A%2F%2Fa.slack-edge.com%2Fdf10d%2Fimg%2Favatars%2Fava_0026-512.png", "custom_css": null}, {"id": 11708, "slack_id": "U092KHV6B6H", "display_name": "\u00c1lvaro", "bio": null, "projects_count": 0, "devlogs_count": 0, "votes_count": 0, "ships_count": 0, "projects": [], "coding_time_seconds": 0, "coding_time_seconds_today": 0, "balance": "You need to have a pocket watcher badge to view this.", "badges": [], "created_at": "2025-06-23T07:21:56.192-04:00", "updated_at": "2025-07-03T20:00:56.719-04:00", "avatar": "https://secure.gravatar.com/avatar/8db5300ec53eda895f56aaf2ee46f180.jpg?s=512&d=https%3A%2F%2Fa.slack-edge.com%2Fdf10d%2Fimg%2Favatars%2Fava_0004-512.png", "custom_css": null}, {"id": 11709, "slack_id": "U092F77R45U", "display_name": "Pratikpatil", "bio": null, "projects_count": 3, "devlogs_count": 6, "votes_count": 19, "ships_count": 3, "projects": [{"id": 3481, "title": "Mental health bot", "devlogs_count": 4, "created_at": "2025-06-24T12:10:04.814-04:00"}, {"id": 6931, "title": "news_App", "devlogs_count": 1, "created_at": "2025-07-17T12:33:14.093-04:00"}, {"id": 3423, "title": "SOLANA FAUCETS", "devlogs_count": 1, "created_at": "2025-06-24T07:14:54.676-04:00"}], "coding_time_seconds": 105785, "coding_time_seconds_today": 0, "balance": "You need to have a pocket watcher badge to view this.", "badges": [{"name": "Maiden Voyage", "text": "you shipped your first project! the journey begins...", "icon": "\ud83d\udea2"}], "created_at": "2025-06-23T07:24:56.955-04:00", "updated_at": "2025-09-10T22:57:01.757-04:00", "avatar": "https://secure.gravatar.com/avatar/6341f1eff9b7d4073e058547cea51e21.jpg?s=512&d=https%3A%2F%2Fa.slack-edge.com%2Fdf10d%2Fimg%2Favatars%2Fava_0026-512.png", "custom_css": null}, {"id": 11710, "slack_id": "U092F749RRC", "display_name": "copy_ninja05", "bio": null, "projects_count": 0, "devlogs_count": 0, "votes_count": 0, "ships_count": 0, "projects": [], "coding_time_seconds": 0, "coding_time_seconds_today": 0, "balance": "You need to have a pocket watcher badge to view this.", "badges": [], "created_at": "2025-06-23T07:25:43.431-04:00", "updated_at": "2025-07-03T20:00:57.505-04:00", "avatar": "https://secure.gravatar.com/avatar/c7e3e53b1ad56ae1d5f003fadd02d275.jpg?s=512&d=https%3A%2F%2Fa.slack-edge.com%2Fdf10d%2Fimg%2Favatars%2Fava_0005-512.png", "custom_css": null}, {"id": 11711, "slack_id": "U0920DQ7LH5", "display_name": "467 Ariz Shahid", "bio": null, "projects_count": 0, "devlogs_count": 0, "votes_count": 0, "ships_count": 0, "projects": [], "coding_time_seconds": 0, "coding_time_seconds_today": 0, "balance": "You need to have a pocket watcher badge to view this.", "badges": [], "created_at": "2025-06-23T07:26:41.963-04:00", "updated_at": "2025-07-03T20:00:57.857-04:00", "avatar": "https://avatars.slack-edge.com/2025-06-23/9102311995841_3054029fd674a6bf57e8_original.png", "custom_css": null}, {"id": 11712, "slack_id": "U092F7JQLUE", "display_name": "ahemad", "bio": null, "projects_count": 0, "devlogs_count": 0, "votes_count": 0, "ships_count": 0, "projects": [], "coding_time_seconds": 0, "coding_time_seconds_today": 0, "balance": "You need to have a pocket watcher badge to view this.", "badges": [], "created_at": "2025-06-23T07:28:55.132-04:00", "updated_at": "2025-07-04T02:31:45.639-04:00", "avatar": "https://secure.gravatar.com/avatar/ca283b83f19dbfb979b02773e9a5a1ab.jpg?s=512&d=https%3A%2F%2Fa.slack-edge.com%2Fdf10d%2Fimg%2Favatars%2Fava_0020-512.png", "custom_css": null}, {"id": 11713, "slack_id": "U09390T4G00", "display_name": "Akshat Raj", "bio": null, "projects_count": 0, "devlogs_count": 0, "votes_count": 0, "ships_count": 0, "projects": [], "coding_time_seconds": 0, "coding_time_seconds_today": 0, "balance": "You need to have a pocket watcher badge to view this.", "badges": [], "created_at": "2025-06-23T07:29:40.212-04:00", "updated_at": "2025-07-03T20:00:58.520-04:00", "avatar": "https://avatars.slack-edge.com/2025-06-23/9088929615394_fcd6a9acb9572081844f_original.png", "custom_css": null}, {"id": 11714, "slack_id": "U08TQF0D2BV", "display_name": "snakatakka", "bio": null, "projects_count": 3, "devlogs_count": 2, "votes_count": 2, "ships_count": 0, "projects": [{"id": 3323, "title": "Worst Game Ever", "devlogs_count": 2, "created_at": "2025-06-23T20:25:30.656-04:00"}, {"id": 3820, "title": "TaBSTMC!(THERE'S A BOMB STRAPPED TO MY COMPUTER!)", "devlogs_count": 0, "created_at": "2025-06-25T21:50:35.213-04:00"}, {"id": 5352, "title": "ROCKBOT 1979 [TEST]", "devlogs_count": 0, "created_at": "2025-07-04T16:56:08.075-04:00"}], "coding_time_seconds": 11781, "coding_time_seconds_today": 0, "balance": "You need to have a pocket watcher badge to view this.", "badges": [], "created_at": "2025-06-23T07:30:16.908-04:00", "updated_at": "2025-07-04T08:27:59.018-04:00", "avatar": "https://avatars.slack-edge.com/2025-05-25/8962336578321_43c32da8ada50b02f6af_original.png", "custom_css": null}, {"id": 11715, "slack_id": "U0926DDLTST", "display_name": "Ritika", "bio": null, "projects_count": 0, "devlogs_count": 0, "votes_count": 0, "ships_count": 0, "projects": [], "coding_time_seconds": 0, "coding_time_seconds_today": 0, "balance": "You need to have a pocket watcher badge to view this.", "badges": [], "created_at": "2025-06-23T07:31:40.514-04:00", "updated_at": "2025-07-03T20:00:59.240-04:00", "avatar": "https://avatars.slack-edge.com/2025-06-23/9088941226434_5dfb412064b1e0da20a1_original.jpg", "custom_css": null}, {"id": 11716, "slack_id": "U092MET1FQC", "display_name": "Tania Zu\u00f1iga", "bio": null, "projects_count": 0, "devlogs_count": 0, "votes_count": 0, "ships_count": 0, "projects": [], "coding_time_seconds": 0, "coding_time_seconds_today": 0, "balance": "You need to have a pocket watcher badge to view this.", "badges": [], "created_at": "2025-06-23T07:32:53.801-04:00", "updated_at": "2025-07-12T15:00:39.806-04:00", "avatar": "https://secure.gravatar.com/avatar/c52da493f76fb1c5da76cad9af708609.jpg?s=512&d=https%3A%2F%2Fa.slack-edge.com%2Fdf10d%2Fimg%2Favatars%2Fava_0013-512.png", "custom_css": null}, {"id": 11717, "slack_id": "U092XKDD58R", "display_name": "J\u00e1cio Mau\u00ea", "bio": null, "projects_count": 1, "devlogs_count": 2, "votes_count": 2, "ships_count": 0, "projects": [{"id": 9973, "title": "JackBlack", "devlogs_count": 2, "created_at": "2025-08-03T08:44:53.847-04:00"}], "coding_time_seconds": 201191, "coding_time_seconds_today": 0, "balance": "You need to have a pocket watcher badge to view this.", "badges": [], "created_at": "2025-06-23T07:35:39.248-04:00", "updated_at": "2025-08-06T16:26:29.630-04:00", "avatar": "https://avatars.slack-edge.com/2025-06-23/9088958536002_46af33d940711d98ab5e_original.jpg", "custom_css": null}, {"id": 11718, "slack_id": "U092E5N64QK", "display_name": "Divik Gupta", "bio": null, "projects_count": 1, "devlogs_count": 0, "votes_count": 0, "ships_count": 0, "projects": [{"id": 4716, "title": "BookBound", "devlogs_count": 0, "created_at": "2025-07-01T07:49:55.151-04:00"}], "coding_time_seconds": 48917, "coding_time_seconds_today": 1713, "balance": "You need to have a pocket watcher badge to view this.", "badges": [], "created_at": "2025-06-23T07:38:22.967-04:00", "updated_at": "2025-08-11T08:56:36.890-04:00", "avatar": "https://secure.gravatar.com/avatar/b46ed3b038f9c39dfd4ad90801417143.jpg?s=512&d=https%3A%2F%2Fa.slack-edge.com%2Fdf10d%2Fimg%2Favatars%2Fava_0017-512.png", "custom_css": null}, {"id": 11719, "slack_id": "U092E7C7MRR", "display_name": "Shunta", "bio": null, "projects_count": 0, "devlogs_count": 0, "votes_count": 0, "ships_count": 0, "projects": [], "coding_time_seconds": 24492, "coding_time_seconds_today": 0, "balance": "You need to have a pocket watcher badge to view this.", "badges": [], "created_at": "2025-06-23T07:44:59.984-04:00", "updated_at": "2025-07-04T02:31:46.123-04:00", "avatar": "https://secure.gravatar.com/avatar/f450ec8bf2a37bb1aaf7949198b70c2d.jpg?s=512&d=https%3A%2F%2Fa.slack-edge.com%2Fdf10d%2Fimg%2Favatars%2Fava_0000-512.png", "custom_css": null}, {"id": 11720, "slack_id": "U092BKNR44B", "display_name": "Ibrahim Makanjuola", "bio": null, "projects_count": 0, "devlogs_count": 0, "votes_count": 0, "ships_count": 0, "projects": [], "coding_time_seconds": 104814, "coding_time_seconds_today": 0, "balance": "You need to have a pocket watcher badge to view this.", "badges": [], "created_at": "2025-06-23T07:51:38.642-04:00", "updated_at": "2025-07-05T02:13:06.007-04:00", "avatar": "https://secure.gravatar.com/avatar/1a90df67f34816eba90a8be42b2250cf.jpg?s=512&d=https%3A%2F%2Fa.slack-edge.com%2Fdf10d%2Fimg%2Favatars%2Fava_0002-512.png", "custom_css": null}], "pagination": {"page": 586, "pages": 1192, "count": 23828, "items": 20}}