{"users": [{"id": 11721, "slack_id": "U09393NJYRE", "display_name": "RusticByte", "bio": null, "projects_count": 0, "devlogs_count": 0, "votes_count": 0, "ships_count": 0, "projects": [], "coding_time_seconds": 0, "coding_time_seconds_today": 0, "balance": "You need to have a pocket watcher badge to view this.", "badges": [], "created_at": "2025-06-23T07:53:43.004-04:00", "updated_at": "2025-07-03T20:01:00.673-04:00", "avatar": "https://secure.gravatar.com/avatar/4178e9169545761fc2d13cb9c3097eaa.jpg?s=512&d=https%3A%2F%2Fa.slack-edge.com%2Fdf10d%2Fimg%2Favatars%2Fava_0023-512.png", "custom_css": null}, {"id": 11722, "slack_id": "U092E8RJ5H9", "display_name": "Teddy Hunt", "bio": null, "projects_count": 0, "devlogs_count": 0, "votes_count": 0, "ships_count": 0, "projects": [], "coding_time_seconds": 0, "coding_time_seconds_today": 0, "balance": "You need to have a pocket watcher badge to view this.", "badges": [], "created_at": "2025-06-23T07:56:55.274-04:00", "updated_at": "2025-07-03T20:01:01.045-04:00", "avatar": "https://secure.gravatar.com/avatar/ea4cc8eadd741b0f241f8a1fef15cea5.jpg?s=512&d=https%3A%2F%2Fa.slack-edge.com%2Fdf10d%2Fimg%2Favatars%2Fava_0016-512.png", "custom_css": null}, {"id": 11723, "slack_id": "U092MJ14D0C", "display_name": "Jo\u00e3o Guilherme", "bio": null, "projects_count": 2, "devlogs_count": 0, "votes_count": 0, "ships_count": 0, "projects": [{"id": 3158, "title": "Orchestra-Front", "devlogs_count": 0, "created_at": "2025-06-23T09:26:57.655-04:00"}, {"id": 3182, "title": "Orchestra-API", "devlogs_count": 0, "created_at": "2025-06-23T10:48:27.772-04:00"}], "coding_time_seconds": 169310, "coding_time_seconds_today": 0, "balance": "You need to have a pocket watcher badge to view this.", "badges": [], "created_at": "2025-06-23T07:56:55.870-04:00", "updated_at": "2025-07-03T20:01:01.548-04:00", "avatar": "https://avatars.slack-edge.com/2025-06-23/9102443961697_4e544e268b4966d05ce4_original.jpg", "custom_css": null}, {"id": 11724, "slack_id": "U08MGN5EPHV", "display_name": "Faiz Basha", "bio": null, "projects_count": 1, "devlogs_count": 21, "votes_count": 2, "ships_count": 1, "projects": [{"id": 6313, "title": "SkylineOS", "devlogs_count": 19, "created_at": "2025-07-12T08:57:30.404-04:00"}], "coding_time_seconds": 168424, "coding_time_seconds_today": 0, "balance": "You need to have a pocket watcher badge to view this.", "badges": [{"name": "Maiden Voyage", "text": "you shipped your first project! the journey begins...", "icon": "\ud83d\udea2"}], "created_at": "2025-06-23T08:01:58.252-04:00", "updated_at": "2025-09-24T14:06:43.897-04:00", "avatar": "https://secure.gravatar.com/avatar/a24cb48ee2317659c0ff81fd794e8a45.jpg?s=512&d=https%3A%2F%2Fa.slack-edge.com%2Fdf10d%2Fimg%2Favatars%2Fava_0026-512.png", "custom_css": null}, {"id": 11725, "slack_id": "U092E9ZDPFD", "display_name": "Razi", "bio": null, "projects_count": 0, "devlogs_count": 0, "votes_count": 0, "ships_count": 0, "projects": [], "coding_time_seconds": 0, "coding_time_seconds_today": 0, "balance": "You need to have a pocket watcher badge to view this.", "badges": [], "created_at": "2025-06-23T08:04:50.465-04:00", "updated_at": "2025-07-03T20:01:02.659-04:00", "avatar": "https://secure.gravatar.com/avatar/1210c235b95ce2ec021329ca695246a4.jpg?s=512&d=https%3A%2F%2Fa.slack-edge.com%2Fdf10d%2Fimg%2Favatars%2Fava_0016-512.png", "custom_css": null}, {"id": 11726, "slack_id": "U09395UJ4MN", "display_name": "Hanuv Garg", "bio": null, "projects_count": 0, "devlogs_count": 0, "votes_count": 0, "ships_count": 0, "projects": [], "coding_time_seconds": 9508, "coding_time_seconds_today": 0, "balance": "You need to have a pocket watcher badge to view this.", "badges": [], "created_at": "2025-06-23T08:08:01.006-04:00", "updated_at": "2025-07-03T20:01:02.985-04:00", "avatar": "https://secure.gravatar.com/avatar/dbfd79ca319319422e07f17c11b55ad6.jpg?s=512&d=https%3A%2F%2Fa.slack-edge.com%2Fdf10d%2Fimg%2Favatars%2Fava_0002-512.png", "custom_css": null}, {"id": 11727, "slack_id": "U092KR6UMS9", "display_name": "Marcos Junior", "bio": null, "projects_count": 0, "devlogs_count": 0, "votes_count": 0, "ships_count": 0, "projects": [], "coding_time_seconds": 0, "coding_time_seconds_today": 0, "balance": "You need to have a pocket watcher badge to view this.", "badges": [], "created_at": "2025-06-23T08:18:35.493-04:00", "updated_at": "2025-07-03T20:01:03.314-04:00", "avatar": "https://secure.gravatar.com/avatar/e484e2e22547784d59c03face67e7877.jpg?s=512&d=https%3A%2F%2Fa.slack-edge.com%2Fdf10d%2Fimg%2Favatars%2Fava_0003-512.png", "custom_css": null}, {"id": 11728, "slack_id": "U0926CSV8TZ", "display_name": "Anye Happiness", "bio": null, "projects_count": 0, "devlogs_count": 0, "votes_count": 0, "ships_count": 0, "projects": [], "coding_time_seconds": 0, "coding_time_seconds_today": 0, "balance": "You need to have a pocket watcher badge to view this.", "badges": [], "created_at": "2025-06-23T08:22:09.134-04:00", "updated_at": "2025-07-08T03:00:23.905-04:00", "avatar": "https://avatars.slack-edge.com/2025-06-23/9074688205335_f02bd2879163e94f81f3_original.png", "custom_css": null}, {"id": 11729, "slack_id": "U08AXNMAKLJ", "display_name": "Stefan Dragos", "bio": null, "projects_count": 0, "devlogs_count": 0, "votes_count": 0, "ships_count": 0, "projects": [], "coding_time_seconds": 0, "coding_time_seconds_today": 0, "balance": "You need to have a pocket watcher badge to view this.", "badges": [], "created_at": "2025-06-23T08:25:30.217-04:00", "updated_at": "2025-07-03T20:01:03.993-04:00", "avatar": "https://avatars.slack-edge.com/2025-01-29/8357242891111_f4bee4b0e7e8f8cac68a_original.png", "custom_css": null}, {"id": 11730, "slack_id": "U0926LDVDK9", "display_name": "Aurora S", "bio": null, "projects_count": 0, "devlogs_count": 0, "votes_count": 0, "ships_count": 0, "projects": [], "coding_time_seconds": 0, "coding_time_seconds_today": 0, "balance": "You need to have a pocket watcher badge to view this.", "badges": [], "created_at": "2025-06-23T08:27:34.478-04:00", "updated_at": "2025-07-03T20:01:04.381-04:00", "avatar": "https://avatars.slack-edge.com/2025-06-23/9089770619972_91e21c8670d52bff3205_original.png", "custom_css": null}, {"id": 11731, "slack_id": "U054EK8Q31T", "display_name": "Sarim", "bio": null, "projects_count": 0, "devlogs_count": 0, "votes_count": 0, "ships_count": 0, "projects": [], "coding_time_seconds": 0, "coding_time_seconds_today": 0, "balance": "You need to have a pocket watcher badge to view this.", "badges": [], "created_at": "2025-06-23T08:28:26.301-04:00", "updated_at": "2025-07-03T20:01:04.749-04:00", "avatar": "https://secure.gravatar.com/avatar/35c6b27396b5f70692636cf331f14c28.jpg?s=512&d=https%3A%2F%2Fa.slack-edge.com%2Fdf10d%2Fimg%2Favatars%2Fava_0016-512.png", "custom_css": null}, {"id": 11732, "slack_id": "U092FEJ5678", "display_name": "Bento", "bio": null, "projects_count": 0, "devlogs_count": 0, "votes_count": 0, "ships_count": 0, "projects": [], "coding_time_seconds": 0, "coding_time_seconds_today": 0, "balance": "You need to have a pocket watcher badge to view this.", "badges": [], "created_at": "2025-06-23T08:30:55.517-04:00", "updated_at": "2025-07-03T20:01:05.177-04:00", "avatar": "https://secure.gravatar.com/avatar/7d22d9412f2c5ec06049eec8a92f95ec.jpg?s=512&d=https%3A%2F%2Fa.slack-edge.com%2Fdf10d%2Fimg%2Favatars%2Fava_0017-512.png", "custom_css": null}, {"id": 11733, "slack_id": "U0930HPD32M", "display_name": "cency", "bio": null, "projects_count": 0, "devlogs_count": 0, "votes_count": 0, "ships_count": 0, "projects": [], "coding_time_seconds": 373188, "coding_time_seconds_today": 0, "balance": "You need to have a pocket watcher badge to view this.", "badges": [], "created_at": "2025-06-23T08:30:58.330-04:00", "updated_at": "2025-07-03T20:01:05.593-04:00", "avatar": "https://secure.gravatar.com/avatar/c19e5363befdfff41c38dcde4543bb6b.jpg?s=512&d=https%3A%2F%2Fa.slack-edge.com%2Fdf10d%2Fimg%2Favatars%2Fava_0021-512.png", "custom_css": null}, {"id": 11734, "slack_id": "U09396KGN7J", "display_name": "J-Kibaki", "bio": null, "projects_count": 0, "devlogs_count": 0, "votes_count": 0, "ships_count": 0, "projects": [], "coding_time_seconds": 475, "coding_time_seconds_today": 0, "balance": "You need to have a pocket watcher badge to view this.", "badges": [], "created_at": "2025-06-23T08:40:04.369-04:00", "updated_at": "2025-07-09T02:55:18.231-04:00", "avatar": "https://secure.gravatar.com/avatar/d3d83740bd529f68cc73d2ac8f515773.jpg?s=512&d=https%3A%2F%2Fa.slack-edge.com%2Fdf10d%2Fimg%2Favatars%2Fava_0012-512.png", "custom_css": null}, {"id": 11735, "slack_id": "U092M7CR410", "display_name": "MIKE CHILOANE", "bio": null, "projects_count": 0, "devlogs_count": 0, "votes_count": 0, "ships_count": 0, "projects": [], "coding_time_seconds": 543880, "coding_time_seconds_today": 182, "balance": "You need to have a pocket watcher badge to view this.", "badges": [], "created_at": "2025-06-23T08:44:38.267-04:00", "updated_at": "2025-07-03T20:01:06.518-04:00", "avatar": "https://secure.gravatar.com/avatar/6a8b9e987fa2040e4059b0077d3e61b4.jpg?s=512&d=https%3A%2F%2Fa.slack-edge.com%2Fdf10d%2Fimg%2Favatars%2Fava_0024-512.png", "custom_css": null}, {"id": 11736, "slack_id": "U0926PH8371", "display_name": "Yirimaya", "bio": null, "projects_count": 0, "devlogs_count": 0, "votes_count": 0, "ships_count": 0, "projects": [], "coding_time_seconds": 43613, "coding_time_seconds_today": 0, "balance": "You need to have a pocket watcher badge to view this.", "badges": [], "created_at": "2025-06-23T08:49:28.631-04:00", "updated_at": "2025-08-13T11:26:25.498-04:00", "avatar": "https://secure.gravatar.com/avatar/874218ec51cbf0f898f61258bb0a9928.jpg?s=512&d=https%3A%2F%2Fa.slack-edge.com%2Fdf10d%2Fimg%2Favatars%2Fava_0001-512.png", "custom_css": null}, {"id": 11737, "slack_id": "U092L2H7D0V", "display_name": "Taylan Kafal\u0131", "bio": null, "projects_count": 0, "devlogs_count": 0, "votes_count": 0, "ships_count": 0, "projects": [], "coding_time_seconds": 0, "coding_time_seconds_today": 0, "balance": "You need to have a pocket watcher badge to view this.", "badges": [], "created_at": "2025-06-23T09:02:03.777-04:00", "updated_at": "2025-07-03T20:01:07.402-04:00", "avatar": "https://avatars.slack-edge.com/2025-06-23/9088096744469_bb3e6f40503845c753ae_original.jpg", "custom_css": null}, {"id": 11738, "slack_id": "U091PFXEYM8", "display_name": "tux", "bio": null, "projects_count": 0, "devlogs_count": 0, "votes_count": 0, "ships_count": 0, "projects": [], "coding_time_seconds": 0, "coding_time_seconds_today": 0, "balance": "You need to have a pocket watcher badge to view this.", "badges": [], "created_at": "2025-06-23T09:03:04.305-04:00", "updated_at": "2025-07-03T20:01:07.783-04:00", "avatar": "https://secure.gravatar.com/avatar/19d3b218fa4e886ba76a5aeb4468f712.jpg?s=512&d=https%3A%2F%2Fa.slack-edge.com%2Fdf10d%2Fimg%2Favatars%2Fava_0015-512.png", "custom_css": null}, {"id": 11739, "slack_id": "U0923EZHH17", "display_name": "eita tokushige", "bio": null, "projects_count": 0, "devlogs_count": 0, "votes_count": 0, "ships_count": 0, "projects": [], "coding_time_seconds": 0, "coding_time_seconds_today": 0, "balance": "You need to have a pocket watcher badge to view this.", "badges": [], "created_at": "2025-06-23T09:03:49.891-04:00", "updated_at": "2025-07-05T14:14:37.435-04:00", "avatar": "https://avatars.slack-edge.com/2025-06-23/9102810422529_6bdda9d9b0f1ea6b5ffc_original.png", "custom_css": null}, {"id": 11740, "slack_id": "U092ECLTVU0", "display_name": "daniyal", "bio": null, "projects_count": 0, "devlogs_count": 0, "votes_count": 0, "ships_count": 0, "projects": [], "coding_time_seconds": 0, "coding_time_seconds_today": 0, "balance": "You need to have a pocket watcher badge to view this.", "badges": [], "created_at": "2025-06-23T09:04:59.821-04:00", "updated_at": "2025-07-03T22:02:28.008-04:00", "avatar": "https://secure.gravatar.com/avatar/ceb0deb28df82373aafec6dd18035129.jpg?s=512&d=https%3A%2F%2Fa.slack-edge.com%2Fdf10d%2Fimg%2Favatars%2Fava_0009-512.png", "custom_css": null}], "pagination": {"page": 587, "pages": 1192, "count": 23828, "items": 20}}