{"users": [{"id": 11741, "slack_id": "U091S1NCJ8L", "display_name": "Divya Sundhari", "bio": null, "projects_count": 0, "devlogs_count": 0, "votes_count": 0, "ships_count": 0, "projects": [], "coding_time_seconds": 0, "coding_time_seconds_today": 0, "balance": "You need to have a pocket watcher badge to view this.", "badges": [], "created_at": "2025-06-23T09:06:13.115-04:00", "updated_at": "2025-07-03T20:01:08.672-04:00", "avatar": "https://secure.gravatar.com/avatar/a45f8ebc5e57cc885840add69bf3bc2d.jpg?s=512&d=https%3A%2F%2Fa.slack-edge.com%2Fdf10d%2Fimg%2Favatars%2Fava_0016-512.png", "custom_css": null}, {"id": 11742, "slack_id": "U092MBJQXL2", "display_name": "Yug DESAI", "bio": null, "projects_count": 0, "devlogs_count": 0, "votes_count": 0, "ships_count": 0, "projects": [], "coding_time_seconds": 0, "coding_time_seconds_today": 0, "balance": "You need to have a pocket watcher badge to view this.", "badges": [], "created_at": "2025-06-23T09:07:31.821-04:00", "updated_at": "2025-07-03T20:01:08.990-04:00", "avatar": "https://secure.gravatar.com/avatar/1c7c213a3b2d68fef6d513bf044041ec.jpg?s=512&d=https%3A%2F%2Fa.slack-edge.com%2Fdf10d%2Fimg%2Favatars%2Fava_0017-512.png", "custom_css": null}, {"id": 11743, "slack_id": "U092FNFCV2A", "display_name": "karol", "bio": null, "projects_count": 0, "devlogs_count": 0, "votes_count": 0, "ships_count": 0, "projects": [], "coding_time_seconds": 0, "coding_time_seconds_today": 0, "balance": "You need to have a pocket watcher badge to view this.", "badges": [], "created_at": "2025-06-23T09:13:53.854-04:00", "updated_at": "2025-07-03T20:01:09.249-04:00", "avatar": "https://avatars.slack-edge.com/2025-06-23/9083777973942_f559ee132500f7db3aca_original.jpg", "custom_css": null}, {"id": 11744, "slack_id": "U092MCAUX18", "display_name": "Aaron L", "bio": null, "projects_count": 0, "devlogs_count": 0, "votes_count": 0, "ships_count": 0, "projects": [], "coding_time_seconds": 1765, "coding_time_seconds_today": 0, "balance": "You need to have a pocket watcher badge to view this.", "badges": [], "created_at": "2025-06-23T09:16:33.445-04:00", "updated_at": "2025-07-03T20:01:09.515-04:00", "avatar": "https://secure.gravatar.com/avatar/fa50c56864a6206e17e0baf8aa540568.jpg?s=512&d=https%3A%2F%2Fa.slack-edge.com%2Fdf10d%2Fimg%2Favatars%2Fava_0026-512.png", "custom_css": null}, {"id": 11745, "slack_id": "U091MTV29EZ", "display_name": "Christian Rodriguez-Burns", "bio": null, "projects_count": 0, "devlogs_count": 0, "votes_count": 0, "ships_count": 0, "projects": [], "coding_time_seconds": 0, "coding_time_seconds_today": 0, "balance": "You need to have a pocket watcher badge to view this.", "badges": [], "created_at": "2025-06-23T09:17:56.287-04:00", "updated_at": "2025-07-03T20:01:09.783-04:00", "avatar": "https://secure.gravatar.com/avatar/acc90c35fa3f1e7545fda8239072cad1.jpg?s=512&d=https%3A%2F%2Fa.slack-edge.com%2Fdf10d%2Fimg%2Favatars%2Fava_0019-512.png", "custom_css": null}, {"id": 11746, "slack_id": "U092L51HX61", "display_name": "Shengkai Zhu", "bio": null, "projects_count": 0, "devlogs_count": 0, "votes_count": 0, "ships_count": 0, "projects": [], "coding_time_seconds": 1359, "coding_time_seconds_today": 0, "balance": "You need to have a pocket watcher badge to view this.", "badges": [], "created_at": "2025-06-23T09:18:38.328-04:00", "updated_at": "2025-07-03T20:01:10.044-04:00", "avatar": "https://secure.gravatar.com/avatar/eb5c17fccb36fb9c72b6f3be2784f972.jpg?s=512&d=https%3A%2F%2Fa.slack-edge.com%2Fdf10d%2Fimg%2Favatars%2Fava_0004-512.png", "custom_css": null}, {"id": 11747, "slack_id": "U092G0GCD52", "display_name": "Jayden Frans-Monney (Jay)", "bio": null, "projects_count": 0, "devlogs_count": 0, "votes_count": 0, "ships_count": 0, "projects": [], "coding_time_seconds": 1764, "coding_time_seconds_today": 0, "balance": "You need to have a pocket watcher badge to view this.", "badges": [], "created_at": "2025-06-23T09:18:57.921-04:00", "updated_at": "2025-07-06T08:12:37.147-04:00", "avatar": "https://avatars.slack-edge.com/2025-07-05/9151089103026_3e429dffa94f567ea82d_original.png", "custom_css": null}, {"id": 11748, "slack_id": "U0926U5RYET", "display_name": "Brian A", "bio": null, "projects_count": 1, "devlogs_count": 0, "votes_count": 0, "ships_count": 0, "projects": [{"id": 3168, "title": "Arbiz's Artificially Intelligent Identification Support System", "devlogs_count": 0, "created_at": "2025-06-23T10:08:35.711-04:00"}], "coding_time_seconds": 466, "coding_time_seconds_today": 0, "balance": "You need to have a pocket watcher badge to view this.", "badges": [], "created_at": "2025-06-23T09:19:10.249-04:00", "updated_at": "2025-07-03T20:01:10.670-04:00", "avatar": "https://secure.gravatar.com/avatar/c1461b293978860481845519e044d95b.jpg?s=512&d=https%3A%2F%2Fa.slack-edge.com%2Fdf10d%2Fimg%2Favatars%2Fava_0008-512.png", "custom_css": null}, {"id": 11749, "slack_id": "U092EM9GAUB", "display_name": "hiro", "bio": null, "projects_count": 0, "devlogs_count": 0, "votes_count": 0, "ships_count": 0, "projects": [], "coding_time_seconds": 0, "coding_time_seconds_today": 0, "balance": "You need to have a pocket watcher badge to view this.", "badges": [], "created_at": "2025-06-23T09:22:24.732-04:00", "updated_at": "2025-07-09T00:17:56.035-04:00", "avatar": "https://secure.gravatar.com/avatar/8b870b63c2816b966fe7b5bc49ac2741.jpg?s=512&d=https%3A%2F%2Fa.slack-edge.com%2Fdf10d%2Fimg%2Favatars%2Fava_0005-512.png", "custom_css": null}, {"id": 11750, "slack_id": "U0930U23EUR", "display_name": "Victor", "bio": null, "projects_count": 0, "devlogs_count": 0, "votes_count": 0, "ships_count": 0, "projects": [], "coding_time_seconds": 99703, "coding_time_seconds_today": 0, "balance": "You need to have a pocket watcher badge to view this.", "badges": [], "created_at": "2025-06-23T09:32:41.155-04:00", "updated_at": "2025-08-17T10:15:27.702-04:00", "avatar": "https://secure.gravatar.com/avatar/f1b019c9bb235ca87439d5930c18ce1f.jpg?s=512&d=https%3A%2F%2Fa.slack-edge.com%2Fdf10d%2Fimg%2Favatars%2Fava_0013-512.png", "custom_css": null}, {"id": 11751, "slack_id": "U09272175KR", "display_name": "Bekasyl", "bio": null, "projects_count": 0, "devlogs_count": 0, "votes_count": 0, "ships_count": 0, "projects": [], "coding_time_seconds": 0, "coding_time_seconds_today": 0, "balance": "You need to have a pocket watcher badge to view this.", "badges": [], "created_at": "2025-06-23T09:36:33.666-04:00", "updated_at": "2025-07-03T20:01:11.494-04:00", "avatar": "https://secure.gravatar.com/avatar/fc5d429a5041829a6f699ca1ed787bb2.jpg?s=512&d=https%3A%2F%2Fa.slack-edge.com%2Fdf10d%2Fimg%2Favatars%2Fava_0023-512.png", "custom_css": null}, {"id": 11752, "slack_id": "U092MCP1CRG", "display_name": "steeve", "bio": null, "projects_count": 0, "devlogs_count": 0, "votes_count": 0, "ships_count": 0, "projects": [], "coding_time_seconds": 0, "coding_time_seconds_today": 0, "balance": "You need to have a pocket watcher badge to view this.", "badges": [], "created_at": "2025-06-23T09:37:20.649-04:00", "updated_at": "2025-07-03T20:01:11.755-04:00", "avatar": "https://secure.gravatar.com/avatar/edc4d16fdb87b16bb97161011e345ad9.jpg?s=512&d=https%3A%2F%2Fa.slack-edge.com%2Fdf10d%2Fimg%2Favatars%2Fava_0021-512.png", "custom_css": null}, {"id": 11753, "slack_id": "U0926P6U53R", "display_name": "samir", "bio": null, "projects_count": 3, "devlogs_count": 7, "votes_count": 10, "ships_count": 1, "projects": [{"id": 3167, "title": "DigiMarket", "devlogs_count": 4, "created_at": "2025-06-23T10:02:28.038-04:00"}, {"id": 3179, "title": "DigiMarket Backend", "devlogs_count": 3, "created_at": "2025-06-23T10:40:02.154-04:00"}, {"id": 6031, "title": "Chatroom", "devlogs_count": 0, "created_at": "2025-07-10T05:30:36.155-04:00"}], "coding_time_seconds": 347478, "coding_time_seconds_today": 12291, "balance": "You need to have a pocket watcher badge to view this.", "badges": [{"name": "Maiden Voyage", "text": "you shipped your first project! the journey begins...", "icon": "\ud83d\udea2"}], "created_at": "2025-06-23T09:37:54.881-04:00", "updated_at": "2025-09-10T22:57:03.062-04:00", "avatar": "https://secure.gravatar.com/avatar/65c38247fe8b22c6cde1cf49b289408a.jpg?s=512&d=https%3A%2F%2Fa.slack-edge.com%2Fdf10d%2Fimg%2Favatars%2Fava_0004-512.png", "custom_css": null}, {"id": 11754, "slack_id": "U091GH3CH1C", "display_name": "Yael Elihu Pozos Castillo", "bio": null, "projects_count": 0, "devlogs_count": 0, "votes_count": 0, "ships_count": 0, "projects": [], "coding_time_seconds": 0, "coding_time_seconds_today": 0, "balance": "You need to have a pocket watcher badge to view this.", "badges": [], "created_at": "2025-06-23T09:38:59.709-04:00", "updated_at": "2025-07-03T20:01:12.291-04:00", "avatar": "https://secure.gravatar.com/avatar/4e4c1464380f6771ef2ba35afd31fed5.jpg?s=512&d=https%3A%2F%2Fa.slack-edge.com%2Fdf10d%2Fimg%2Favatars%2Fava_0012-512.png", "custom_css": null}, {"id": 11755, "slack_id": "U092CPLRA0Y", "display_name": "Osman Batur \u00c7elik", "bio": null, "projects_count": 0, "devlogs_count": 0, "votes_count": 0, "ships_count": 0, "projects": [], "coding_time_seconds": 0, "coding_time_seconds_today": 0, "balance": "You need to have a pocket watcher badge to view this.", "badges": [], "created_at": "2025-06-23T09:40:39.401-04:00", "updated_at": "2025-07-03T20:01:12.560-04:00", "avatar": "https://avatars.slack-edge.com/2025-06-23/9103043082161_f03222da874cb17bbcd4_original.jpg", "custom_css": null}, {"id": 11756, "slack_id": "U09310DLQ7K", "display_name": "Kaveh", "bio": null, "projects_count": 1, "devlogs_count": 0, "votes_count": 0, "ships_count": 0, "projects": [{"id": 3166, "title": "BikeTheft", "devlogs_count": 0, "created_at": "2025-06-23T09:53:43.329-04:00"}], "coding_time_seconds": 9597, "coding_time_seconds_today": 0, "balance": "You need to have a pocket watcher badge to view this.", "badges": [], "created_at": "2025-06-23T09:40:49.562-04:00", "updated_at": "2025-07-05T08:13:27.545-04:00", "avatar": "https://secure.gravatar.com/avatar/4612fbee3da61a48eb750a8c20050617.jpg?s=512&d=https%3A%2F%2Fa.slack-edge.com%2Fdf10d%2Fimg%2Favatars%2Fava_0016-512.png", "custom_css": null}, {"id": 11757, "slack_id": "U092M8N8ZPC", "display_name": "sumangal karan", "bio": null, "projects_count": 0, "devlogs_count": 0, "votes_count": 0, "ships_count": 0, "projects": [], "coding_time_seconds": 0, "coding_time_seconds_today": 0, "balance": "You need to have a pocket watcher badge to view this.", "badges": [], "created_at": "2025-06-23T09:57:03.950-04:00", "updated_at": "2025-07-03T20:01:12.970-04:00", "avatar": "https://avatars.slack-edge.com/2025-06-23/9089726370946_9199ea5ecefe26a175ab_original.jpg", "custom_css": null}, {"id": 11758, "slack_id": "U093100ANHX", "display_name": "xnamen", "bio": null, "projects_count": 0, "devlogs_count": 0, "votes_count": 0, "ships_count": 0, "projects": [], "coding_time_seconds": 503, "coding_time_seconds_today": 0, "balance": "You need to have a pocket watcher badge to view this.", "badges": [], "created_at": "2025-06-23T09:59:14.790-04:00", "updated_at": "2025-07-03T20:01:13.244-04:00", "avatar": "https://secure.gravatar.com/avatar/fbb13466c818baf83dff61451cd876a6.jpg?s=512&d=https%3A%2F%2Fa.slack-edge.com%2Fdf10d%2Fimg%2Favatars%2Fava_0026-512.png", "custom_css": null}, {"id": 11759, "slack_id": "U092K5PQ4A1", "display_name": "Milan", "bio": null, "projects_count": 0, "devlogs_count": 0, "votes_count": 0, "ships_count": 0, "projects": [], "coding_time_seconds": 0, "coding_time_seconds_today": 0, "balance": "You need to have a pocket watcher badge to view this.", "badges": [], "created_at": "2025-06-23T10:02:39.907-04:00", "updated_at": "2025-07-03T20:01:13.516-04:00", "avatar": "https://secure.gravatar.com/avatar/11e08ac9795b21ee6248f0aad142076f.jpg?s=512&d=https%3A%2F%2Fa.slack-edge.com%2Fdf10d%2Fimg%2Favatars%2Fava_0000-512.png", "custom_css": null}, {"id": 11760, "slack_id": "U092LBT6XSR", "display_name": "Adham Nader", "bio": null, "projects_count": 0, "devlogs_count": 0, "votes_count": 0, "ships_count": 0, "projects": [], "coding_time_seconds": 0, "coding_time_seconds_today": 0, "balance": "You need to have a pocket watcher badge to view this.", "badges": [], "created_at": "2025-06-23T10:03:48.382-04:00", "updated_at": "2025-07-03T20:01:13.781-04:00", "avatar": "https://avatars.slack-edge.com/2025-06-23/9082986260003_17d0ef9076273bcbfd4b_original.png", "custom_css": null}], "pagination": {"page": 588, "pages": 1192, "count": 23828, "items": 20}}