{"users": [{"id": 11761, "slack_id": "U07S56TC82C", "display_name": "jackson", "bio": null, "projects_count": 3, "devlogs_count": 15, "votes_count": 25, "ships_count": 2, "projects": [{"id": 3288, "title": "relotel", "devlogs_count": 9, "created_at": "2025-06-23T17:09:00.063-04:00"}, {"id": 7679, "title": "Mario Kart Go", "devlogs_count": 3, "created_at": "2025-07-22T14:05:45.502-04:00"}, {"id": 11390, "title": "Hackclub Website", "devlogs_count": 3, "created_at": "2025-08-15T12:29:25.739-04:00"}], "coding_time_seconds": 208877, "coding_time_seconds_today": 0, "balance": "You need to have a pocket watcher badge to view this.", "badges": [{"name": "Maiden Voyage", "text": "you shipped your first project! the journey begins...", "icon": "\ud83d\udea2"}], "created_at": "2025-06-23T10:05:37.551-04:00", "updated_at": "2025-09-10T22:57:03.251-04:00", "avatar": "https://avatars.slack-edge.com/2025-01-25/8347802276437_2c2f57a994e361ec36c7_original.jpg", "custom_css": null}, {"id": 11762, "slack_id": "U091K09SGG6", "display_name": "Alexander Whipp", "bio": null, "projects_count": 0, "devlogs_count": 0, "votes_count": 0, "ships_count": 0, "projects": [], "coding_time_seconds": 0, "coding_time_seconds_today": 0, "balance": "You need to have a pocket watcher badge to view this.", "badges": [], "created_at": "2025-06-23T10:09:47.785-04:00", "updated_at": "2025-07-03T20:01:14.316-04:00", "avatar": "https://secure.gravatar.com/avatar/488b4dc80c23435942e939730082074a.jpg?s=512&d=https%3A%2F%2Fa.slack-edge.com%2Fdf10d%2Fimg%2Favatars%2Fava_0019-512.png", "custom_css": null}, {"id": 11763, "slack_id": "U091YQ9F6B0", "display_name": "Thomas McConkey", "bio": "", "projects_count": 3, "devlogs_count": 35, "votes_count": 66, "ships_count": 3, "projects": [{"id": 3232, "title": "Finite Element Visualizer", "devlogs_count": 14, "created_at": "2025-06-23T14:13:15.549-04:00"}, {"id": 10297, "title": "UIL Forces", "devlogs_count": 11, "created_at": "2025-08-05T17:39:30.349-04:00"}, {"id": 7477, "title": "Fractal Desmos", "devlogs_count": 10, "created_at": "2025-07-21T23:31:51.532-04:00"}], "coding_time_seconds": 648178, "coding_time_seconds_today": 0, "balance": "You need to have a pocket watcher badge to view this.", "badges": [{"name": "Maiden Voyage", "text": "you shipped your first project! the journey begins...", "icon": "\ud83d\udea2"}], "created_at": "2025-06-23T10:15:22.150-04:00", "updated_at": "2025-09-10T22:57:03.323-04:00", "avatar": "https://avatars.slack-edge.com/2025-06-23/9092157461602_73ccc0f2eccf4b7319dc_original.png", "custom_css": null}, {"id": 11764, "slack_id": "U083F3QUN8J", "display_name": "ayami_thn", "bio": null, "projects_count": 2, "devlogs_count": 2, "votes_count": 3, "ships_count": 1, "projects": [{"id": 7150, "title": "TimeTracker ", "devlogs_count": 0, "created_at": "2025-07-19T13:35:15.740-04:00"}, {"id": 6955, "title": "TexToVoice", "devlogs_count": 2, "created_at": "2025-07-17T15:17:00.561-04:00"}], "coding_time_seconds": 6300, "coding_time_seconds_today": 0, "balance": "You need to have a pocket watcher badge to view this.", "badges": [{"name": "Maiden Voyage", "text": "you shipped your first project! the journey begins...", "icon": "\ud83d\udea2"}], "created_at": "2025-06-23T10:15:45.921-04:00", "updated_at": "2025-09-10T22:57:03.355-04:00", "avatar": "https://avatars.slack-edge.com/2025-02-18/8458828813687_8a71f9f0fc4fbbab43b6_original.png", "custom_css": null}, {"id": 11765, "slack_id": "U092BSKBN8G", "display_name": "Mike Sho", "bio": null, "projects_count": 0, "devlogs_count": 0, "votes_count": 0, "ships_count": 0, "projects": [], "coding_time_seconds": 0, "coding_time_seconds_today": 0, "balance": "You need to have a pocket watcher badge to view this.", "badges": [], "created_at": "2025-06-23T10:23:53.595-04:00", "updated_at": "2025-07-03T20:01:15.128-04:00", "avatar": "https://secure.gravatar.com/avatar/5848c4abe68b541f32b185cf4d399fd7.jpg?s=512&d=https%3A%2F%2Fa.slack-edge.com%2Fdf10d%2Fimg%2Favatars%2Fava_0009-512.png", "custom_css": null}, {"id": 11766, "slack_id": "U07ADRB2BK2", "display_name": "Jam", "bio": null, "projects_count": 3, "devlogs_count": 13, "votes_count": 20, "ships_count": 1, "projects": [{"id": 9278, "title": "Snapshot", "devlogs_count": 0, "created_at": "2025-07-31T10:43:14.801-04:00"}, {"id": 4706, "title": "Opal For Desktop", "devlogs_count": 13, "created_at": "2025-07-01T06:49:29.150-04:00"}, {"id": 3695, "title": "Blended", "devlogs_count": 0, "created_at": "2025-06-25T09:01:54.810-04:00"}], "coding_time_seconds": 356688, "coding_time_seconds_today": 0, "balance": "You need to have a pocket watcher badge to view this.", "badges": [{"name": "Maiden Voyage", "text": "you shipped your first project! the journey begins...", "icon": "\ud83d\udea2"}], "created_at": "2025-06-23T10:23:56.472-04:00", "updated_at": "2025-09-10T22:57:03.414-04:00", "avatar": "https://avatars.slack-edge.com/2025-02-01/8388476010884_a4c3dcbc84275b4c545c_original.png", "custom_css": null}, {"id": 11767, "slack_id": "U092GUM39UJ", "display_name": "Shayan M-Rafiee", "bio": null, "projects_count": 0, "devlogs_count": 0, "votes_count": 0, "ships_count": 0, "projects": [], "coding_time_seconds": 0, "coding_time_seconds_today": 0, "balance": "You need to have a pocket watcher badge to view this.", "badges": [], "created_at": "2025-06-23T10:32:17.645-04:00", "updated_at": "2025-07-04T20:12:29.862-04:00", "avatar": "https://secure.gravatar.com/avatar/fc66f945d0403950469e323a0dfb138c.jpg?s=512&d=https%3A%2F%2Fa.slack-edge.com%2Fdf10d%2Fimg%2Favatars%2Fava_0001-512.png", "custom_css": null}, {"id": 11768, "slack_id": "U091MSQ0J2G", "display_name": "Abdulrahman Farid", "bio": null, "projects_count": 0, "devlogs_count": 0, "votes_count": 0, "ships_count": 0, "projects": [], "coding_time_seconds": 0, "coding_time_seconds_today": 0, "balance": "You need to have a pocket watcher badge to view this.", "badges": [], "created_at": "2025-06-23T10:32:54.249-04:00", "updated_at": "2025-07-03T20:01:15.894-04:00", "avatar": "https://avatars.slack-edge.com/2025-06-16/9055908225524_720e94fd2f35eff785ef_original.png", "custom_css": null}, {"id": 11769, "slack_id": "U092BP5TBEC", "display_name": "Julio Coronetti", "bio": null, "projects_count": 3, "devlogs_count": 11, "votes_count": 31, "ships_count": 2, "projects": [{"id": 3451, "title": "Codele", "devlogs_count": 8, "created_at": "2025-06-24T10:16:02.849-04:00"}, {"id": 13099, "title": "The Blog", "devlogs_count": 1, "created_at": "2025-09-08T14:19:54.789-04:00"}, {"id": 4832, "title": "Pixel Grid", "devlogs_count": 2, "created_at": "2025-07-01T18:51:12.518-04:00"}], "coding_time_seconds": 240485, "coding_time_seconds_today": 0, "balance": "You need to have a pocket watcher badge to view this.", "badges": [{"name": "Maiden Voyage", "text": "you shipped your first project! the journey begins...", "icon": "\ud83d\udea2"}, {"name": "Ballot Stuffer", "text": "vote 100 times.", "icon": "https://summer.hackclub.com/assets/i_voted-bf851b48.png"}], "created_at": "2025-06-23T10:35:54.049-04:00", "updated_at": "2025-09-10T22:57:03.513-04:00", "avatar": "https://avatars.slack-edge.com/2025-06-24/9099467488004_5587b8c2ce191d11011e_original.png", "custom_css": null}, {"id": 11770, "slack_id": "U092F4VEVBM", "display_name": "Kabir Suri", "bio": null, "projects_count": 0, "devlogs_count": 0, "votes_count": 0, "ships_count": 0, "projects": [], "coding_time_seconds": 0, "coding_time_seconds_today": 0, "balance": "You need to have a pocket watcher badge to view this.", "badges": [], "created_at": "2025-06-23T10:36:28.152-04:00", "updated_at": "2025-07-03T20:01:16.303-04:00", "avatar": "https://secure.gravatar.com/avatar/61656a6fb167e7bef897bc43f7da55ab.jpg?s=512&d=https%3A%2F%2Fa.slack-edge.com%2Fdf10d%2Fimg%2Favatars%2Fava_0009-512.png", "custom_css": null}, {"id": 11771, "slack_id": "U092LL8UHPF", "display_name": "Kinga Skrzek", "bio": null, "projects_count": 0, "devlogs_count": 0, "votes_count": 0, "ships_count": 0, "projects": [], "coding_time_seconds": 0, "coding_time_seconds_today": 0, "balance": "You need to have a pocket watcher badge to view this.", "badges": [], "created_at": "2025-06-23T10:44:05.374-04:00", "updated_at": "2025-07-03T20:01:16.578-04:00", "avatar": "https://secure.gravatar.com/avatar/b5e76d0f82d09e9efdf084acd3488be6.jpg?s=512&d=https%3A%2F%2Fa.slack-edge.com%2Fdf10d%2Fimg%2Favatars%2Fava_0011-512.png", "custom_css": null}, {"id": 11772, "slack_id": "U092N1SU4D8", "display_name": "AlanCRL", "bio": null, "projects_count": 1, "devlogs_count": 25, "votes_count": 61, "ships_count": 1, "projects": [{"id": 3616, "title": "Inkeys", "devlogs_count": 25, "created_at": "2025-06-25T00:58:18.330-04:00"}], "coding_time_seconds": 389074, "coding_time_seconds_today": 709, "balance": "You need to have a pocket watcher badge to view this.", "badges": [{"name": "Maiden Voyage", "text": "you shipped your first project! the journey begins...", "icon": "\ud83d\udea2"}], "created_at": "2025-06-23T10:51:23.670-04:00", "updated_at": "2025-09-10T22:57:03.610-04:00", "avatar": "https://secure.gravatar.com/avatar/5a783e6ebf9578807861c494ab5536f4.jpg?s=512&d=https%3A%2F%2Fa.slack-edge.com%2Fdf10d%2Fimg%2Favatars%2Fava_0002-512.png", "custom_css": null}, {"id": 11773, "slack_id": "U091PGWBZ2N", "display_name": "Philipp", "bio": null, "projects_count": 0, "devlogs_count": 0, "votes_count": 0, "ships_count": 0, "projects": [], "coding_time_seconds": 0, "coding_time_seconds_today": 0, "balance": "You need to have a pocket watcher badge to view this.", "badges": [], "created_at": "2025-06-23T10:51:39.586-04:00", "updated_at": "2025-07-03T20:01:16.996-04:00", "avatar": "https://secure.gravatar.com/avatar/9e2999866ef0fb36712532eda6209116.jpg?s=512&d=https%3A%2F%2Fa.slack-edge.com%2Fdf10d%2Fimg%2Favatars%2Fava_0011-512.png", "custom_css": null}, {"id": 11774, "slack_id": "U092F7VCX5H", "display_name": "shanavas", "bio": null, "projects_count": 0, "devlogs_count": 0, "votes_count": 0, "ships_count": 0, "projects": [], "coding_time_seconds": 0, "coding_time_seconds_today": 0, "balance": "You need to have a pocket watcher badge to view this.", "badges": [], "created_at": "2025-06-23T10:53:22.313-04:00", "updated_at": "2025-07-03T20:01:17.265-04:00", "avatar": "https://secure.gravatar.com/avatar/83c628be0d08c5ca84be07687802544d.jpg?s=512&d=https%3A%2F%2Fa.slack-edge.com%2Fdf10d%2Fimg%2Favatars%2Fava_0005-512.png", "custom_css": null}, {"id": 11775, "slack_id": "U092GBJ9DRU", "display_name": "Nishan Bhattari", "bio": null, "projects_count": 0, "devlogs_count": 0, "votes_count": 0, "ships_count": 0, "projects": [], "coding_time_seconds": 0, "coding_time_seconds_today": 0, "balance": "You need to have a pocket watcher badge to view this.", "badges": [], "created_at": "2025-06-23T10:55:42.572-04:00", "updated_at": "2025-07-03T20:01:17.527-04:00", "avatar": "https://secure.gravatar.com/avatar/7f87006942a797d324b34eee48de2035.jpg?s=512&d=https%3A%2F%2Fa.slack-edge.com%2Fdf10d%2Fimg%2Favatars%2Fava_0009-512.png", "custom_css": null}, {"id": 11776, "slack_id": "U092GBHH11C", "display_name": "Khalid Elshorbagy", "bio": null, "projects_count": 3, "devlogs_count": 3, "votes_count": 1, "ships_count": 0, "projects": [{"id": 3386, "title": "Binary-Decimal Converter Tool", "devlogs_count": 1, "created_at": "2025-06-24T03:55:17.839-04:00"}, {"id": 3536, "title": "Seconds to Days Hours Minutes Seconds", "devlogs_count": 1, "created_at": "2025-06-24T15:47:43.181-04:00"}, {"id": 3545, "title": "Calculate Mean & Mode", "devlogs_count": 1, "created_at": "2025-06-24T16:16:30.559-04:00"}], "coding_time_seconds": 15589, "coding_time_seconds_today": 0, "balance": "You need to have a pocket watcher badge to view this.", "badges": [], "created_at": "2025-06-23T10:56:47.831-04:00", "updated_at": "2025-07-04T00:43:02.299-04:00", "avatar": "https://secure.gravatar.com/avatar/c881c4f6f4d8f507945ce4b34b5cf663.jpg?s=512&d=https%3A%2F%2Fa.slack-edge.com%2Fdf10d%2Fimg%2Favatars%2Fava_0004-512.png", "custom_css": null}, {"id": 11777, "slack_id": "U0925SR2V8F", "display_name": "Jessy", "bio": null, "projects_count": 0, "devlogs_count": 0, "votes_count": 0, "ships_count": 0, "projects": [], "coding_time_seconds": 0, "coding_time_seconds_today": 0, "balance": "You need to have a pocket watcher badge to view this.", "badges": [], "created_at": "2025-06-23T10:57:04.613-04:00", "updated_at": "2025-07-03T20:01:18.086-04:00", "avatar": "https://secure.gravatar.com/avatar/ced70bb9a6bcd31379163c8df4ed2a73.jpg?s=512&d=https%3A%2F%2Fa.slack-edge.com%2Fdf10d%2Fimg%2Favatars%2Fava_0006-512.png", "custom_css": null}, {"id": 11778, "slack_id": "U092H9VDJHY", "display_name": "Student1", "bio": null, "projects_count": 0, "devlogs_count": 0, "votes_count": 0, "ships_count": 0, "projects": [], "coding_time_seconds": 0, "coding_time_seconds_today": 0, "balance": "You need to have a pocket watcher badge to view this.", "badges": [], "created_at": "2025-06-23T11:04:09.895-04:00", "updated_at": "2025-07-03T20:01:18.365-04:00", "avatar": "https://secure.gravatar.com/avatar/7176549096c48da26847a4af270e3441.jpg?s=512&d=https%3A%2F%2Fa.slack-edge.com%2Fdf10d%2Fimg%2Favatars%2Fava_0017-512.png", "custom_css": null}, {"id": 11779, "slack_id": "U0923NQESUX", "display_name": "sapebs", "bio": null, "projects_count": 0, "devlogs_count": 0, "votes_count": 0, "ships_count": 0, "projects": [], "coding_time_seconds": 0, "coding_time_seconds_today": 0, "balance": "You need to have a pocket watcher badge to view this.", "badges": [], "created_at": "2025-06-23T11:07:54.332-04:00", "updated_at": "2025-07-03T20:01:18.627-04:00", "avatar": "https://secure.gravatar.com/avatar/83d1566b8a3f78c932551a4deb619d68.jpg?s=512&d=https%3A%2F%2Fa.slack-edge.com%2Fdf10d%2Fimg%2Favatars%2Fava_0000-512.png", "custom_css": null}, {"id": 11780, "slack_id": "U092N66UJGJ", "display_name": "S_P_Y", "bio": null, "projects_count": 0, "devlogs_count": 0, "votes_count": 0, "ships_count": 0, "projects": [], "coding_time_seconds": 278875, "coding_time_seconds_today": 0, "balance": "You need to have a pocket watcher badge to view this.", "badges": [], "created_at": "2025-06-23T11:11:29.221-04:00", "updated_at": "2025-07-16T09:45:33.255-04:00", "avatar": "https://secure.gravatar.com/avatar/293b6b58a48bc43b23b6c097217496ff.jpg?s=512&d=https%3A%2F%2Fa.slack-edge.com%2Fdf10d%2Fimg%2Favatars%2Fava_0020-512.png", "custom_css": null}], "pagination": {"page": 589, "pages": 1192, "count": 23828, "items": 20}}