{"users": [{"id": 1161, "slack_id": "U091PCEV5L2", "display_name": "Rohit Goud Kalakuntla", "bio": null, "projects_count": 0, "devlogs_count": 0, "votes_count": 0, "ships_count": 0, "projects": [], "coding_time_seconds": 0, "coding_time_seconds_today": 0, "balance": "You need to have a pocket watcher badge to view this.", "badges": [], "created_at": "2025-06-16T12:46:52.685-04:00", "updated_at": "2025-07-03T19:16:22.684-04:00", "avatar": "https://secure.gravatar.com/avatar/0a843e0b5eb19d3cd96fe846a5343825.jpg?s=512&d=https%3A%2F%2Fa.slack-edge.com%2Fdf10d%2Fimg%2Favatars%2Fava_0026-512.png", "custom_css": null}, {"id": 1162, "slack_id": "U091PQUNBHS", "display_name": "Seitarou", "bio": null, "projects_count": 0, "devlogs_count": 0, "votes_count": 0, "ships_count": 0, "projects": [], "coding_time_seconds": 0, "coding_time_seconds_today": 0, "balance": "You need to have a pocket watcher badge to view this.", "badges": [], "created_at": "2025-06-16T12:47:03.535-04:00", "updated_at": "2025-07-03T19:16:22.948-04:00", "avatar": "https://secure.gravatar.com/avatar/dec0b893a37a57071d05b51f703b4d40.jpg?s=512&d=https%3A%2F%2Fa.slack-edge.com%2Fdf10d%2Fimg%2Favatars%2Fava_0013-512.png", "custom_css": null}, {"id": 1163, "slack_id": "U091PQWLNDS", "display_name": "lmhinnel", "bio": null, "projects_count": 0, "devlogs_count": 0, "votes_count": 0, "ships_count": 0, "projects": [], "coding_time_seconds": 42113, "coding_time_seconds_today": 0, "balance": "You need to have a pocket watcher badge to view this.", "badges": [], "created_at": "2025-06-16T12:47:06.755-04:00", "updated_at": "2025-07-03T19:16:23.229-04:00", "avatar": "https://secure.gravatar.com/avatar/358ba321845cad00e257543bae2362b6.jpg?s=512&d=https%3A%2F%2Fa.slack-edge.com%2Fdf10d%2Fimg%2Favatars%2Fava_0009-512.png", "custom_css": null}, {"id": 1164, "slack_id": "U091GDA4D3M", "display_name": "Aryan Yadav", "bio": null, "projects_count": 0, "devlogs_count": 0, "votes_count": 0, "ships_count": 0, "projects": [], "coding_time_seconds": 6596, "coding_time_seconds_today": 0, "balance": "You need to have a pocket watcher badge to view this.", "badges": [], "created_at": "2025-06-16T12:47:09.267-04:00", "updated_at": "2025-07-03T19:16:23.499-04:00", "avatar": "https://avatars.slack-edge.com/2025-06-16/9079911759184_4a677a84c91194a39adc_original.webp", "custom_css": null}, {"id": 1165, "slack_id": "U092BS9RWQY", "display_name": "Harsh Prasad", "bio": null, "projects_count": 0, "devlogs_count": 0, "votes_count": 0, "ships_count": 0, "projects": [], "coding_time_seconds": 0, "coding_time_seconds_today": 0, "balance": "You need to have a pocket watcher badge to view this.", "badges": [], "created_at": "2025-06-16T12:47:14.223-04:00", "updated_at": "2025-07-03T19:16:23.768-04:00", "avatar": "https://secure.gravatar.com/avatar/0896a360cee526580fca7f8d6ca54890.jpg?s=512&d=https%3A%2F%2Fa.slack-edge.com%2Fdf10d%2Fimg%2Favatars%2Fava_0000-512.png", "custom_css": null}, {"id": 1166, "slack_id": "U09183GKRFH", "display_name": "xRyul", "bio": null, "projects_count": 0, "devlogs_count": 0, "votes_count": 0, "ships_count": 0, "projects": [], "coding_time_seconds": 0, "coding_time_seconds_today": 0, "balance": "You need to have a pocket watcher badge to view this.", "badges": [], "created_at": "2025-06-16T12:47:19.706-04:00", "updated_at": "2025-07-03T19:16:24.036-04:00", "avatar": "https://secure.gravatar.com/avatar/84e7d3a46483d4870dc08cfbb675b00d.jpg?s=512&d=https%3A%2F%2Fa.slack-edge.com%2Fdf10d%2Fimg%2Favatars%2Fava_0010-512.png", "custom_css": null}, {"id": 1167, "slack_id": "U091GFXQCG6", "display_name": "Vijay Aravynthan", "bio": null, "projects_count": 0, "devlogs_count": 0, "votes_count": 0, "ships_count": 0, "projects": [], "coding_time_seconds": 0, "coding_time_seconds_today": 0, "balance": "You need to have a pocket watcher badge to view this.", "badges": [], "created_at": "2025-06-16T12:47:21.669-04:00", "updated_at": "2025-07-03T19:16:24.315-04:00", "avatar": "https://secure.gravatar.com/avatar/2e39549258a3e6e1d3b5771883d35089.jpg?s=512&d=https%3A%2F%2Fa.slack-edge.com%2Fdf10d%2Fimg%2Favatars%2Fava_0001-512.png", "custom_css": null}, {"id": 1168, "slack_id": "U091PQXBYQL", "display_name": "Alex", "bio": null, "projects_count": 0, "devlogs_count": 0, "votes_count": 0, "ships_count": 0, "projects": [], "coding_time_seconds": 0, "coding_time_seconds_today": 0, "balance": "You need to have a pocket watcher badge to view this.", "badges": [], "created_at": "2025-06-16T12:47:26.436-04:00", "updated_at": "2025-07-03T19:16:24.582-04:00", "avatar": "https://secure.gravatar.com/avatar/a4085eb2d223a75b80b6972f97c4e9ce.jpg?s=512&d=https%3A%2F%2Fa.slack-edge.com%2Fdf10d%2Fimg%2Favatars%2Fava_0000-512.png", "custom_css": null}, {"id": 1169, "slack_id": "U091GFYA7T8", "display_name": "Ankit Agrawal", "bio": null, "projects_count": 0, "devlogs_count": 0, "votes_count": 0, "ships_count": 0, "projects": [], "coding_time_seconds": 57418, "coding_time_seconds_today": 0, "balance": "You need to have a pocket watcher badge to view this.", "badges": [], "created_at": "2025-06-16T12:47:30.624-04:00", "updated_at": "2025-08-12T23:28:33.213-04:00", "avatar": "https://secure.gravatar.com/avatar/a5080534c2a1fb596d12640cdf4ebe81.jpg?s=512&d=https%3A%2F%2Fa.slack-edge.com%2Fdf10d%2Fimg%2Favatars%2Fava_0004-512.png", "custom_css": null}, {"id": 1170, "slack_id": "U091PAAU1KL", "display_name": "James Jeffery", "bio": null, "projects_count": 0, "devlogs_count": 0, "votes_count": 0, "ships_count": 0, "projects": [], "coding_time_seconds": 0, "coding_time_seconds_today": 0, "balance": "You need to have a pocket watcher badge to view this.", "badges": [], "created_at": "2025-06-16T12:47:30.633-04:00", "updated_at": "2025-07-03T19:16:25.214-04:00", "avatar": "https://avatars.slack-edge.com/2025-06-16/9079913941248_7e783a900cedce8c47d4_original.png", "custom_css": null}, {"id": 1171, "slack_id": "U091GG9DPNJ", "display_name": "Ronaldo", "bio": null, "projects_count": 0, "devlogs_count": 0, "votes_count": 0, "ships_count": 0, "projects": [], "coding_time_seconds": 0, "coding_time_seconds_today": 0, "balance": "You need to have a pocket watcher badge to view this.", "badges": [], "created_at": "2025-06-16T12:47:31.464-04:00", "updated_at": "2025-07-03T19:16:25.501-04:00", "avatar": "https://secure.gravatar.com/avatar/2c087ef91133ac6a52b63d6186004fff.jpg?s=512&d=https%3A%2F%2Fa.slack-edge.com%2Fdf10d%2Fimg%2Favatars%2Fava_0016-512.png", "custom_css": null}, {"id": 1172, "slack_id": "U091MK8QJ2Z", "display_name": "loockeeer", "bio": null, "projects_count": 0, "devlogs_count": 0, "votes_count": 0, "ships_count": 0, "projects": [], "coding_time_seconds": 42399, "coding_time_seconds_today": 0, "balance": "You need to have a pocket watcher badge to view this.", "badges": [], "created_at": "2025-06-16T12:47:35.186-04:00", "updated_at": "2025-07-03T19:16:25.780-04:00", "avatar": "https://secure.gravatar.com/avatar/99b261bc8bd5881a0141a4f22b4c279b.jpg?s=512&d=https%3A%2F%2Fa.slack-edge.com%2Fdf10d%2Fimg%2Favatars%2Fava_0017-512.png", "custom_css": null}, {"id": 1173, "slack_id": "U091GDJKU83", "display_name": "BroJac5246", "bio": null, "projects_count": 0, "devlogs_count": 0, "votes_count": 1, "ships_count": 0, "projects": [], "coding_time_seconds": 0, "coding_time_seconds_today": 0, "balance": "You need to have a pocket watcher badge to view this.", "badges": [], "created_at": "2025-06-16T12:47:43.058-04:00", "updated_at": "2025-08-10T12:28:11.485-04:00", "avatar": "https://secure.gravatar.com/avatar/2b5f84ae439618c98057cdce9163fbd9.jpg?s=512&d=https%3A%2F%2Fa.slack-edge.com%2Fdf10d%2Fimg%2Favatars%2Fava_0004-512.png", "custom_css": null}, {"id": 1174, "slack_id": "U091PC6NUUA", "display_name": "Amrutesh Arun", "bio": null, "projects_count": 0, "devlogs_count": 0, "votes_count": 0, "ships_count": 0, "projects": [], "coding_time_seconds": 1561, "coding_time_seconds_today": 0, "balance": "You need to have a pocket watcher badge to view this.", "badges": [], "created_at": "2025-06-16T12:47:51.341-04:00", "updated_at": "2025-07-03T19:16:26.339-04:00", "avatar": "https://secure.gravatar.com/avatar/e8e77e1f3a9abb3c86a9dd12fab3509e.jpg?s=512&d=https%3A%2F%2Fa.slack-edge.com%2Fdf10d%2Fimg%2Favatars%2Fava_0010-512.png", "custom_css": null}, {"id": 1175, "slack_id": "U091PQN7R44", "display_name": "pragathish", "bio": null, "projects_count": 0, "devlogs_count": 0, "votes_count": 0, "ships_count": 0, "projects": [], "coding_time_seconds": 182190, "coding_time_seconds_today": 0, "balance": "You need to have a pocket watcher badge to view this.", "badges": [], "created_at": "2025-06-16T12:47:54.048-04:00", "updated_at": "2025-07-03T19:16:26.618-04:00", "avatar": "https://secure.gravatar.com/avatar/8042cf7f5a86efcaf818c701fec2e206.jpg?s=512&d=https%3A%2F%2Fa.slack-edge.com%2Fdf10d%2Fimg%2Favatars%2Fava_0025-512.png", "custom_css": null}, {"id": 1176, "slack_id": "U083PK90X4G", "display_name": "sophia", "bio": null, "projects_count": 0, "devlogs_count": 0, "votes_count": 0, "ships_count": 0, "projects": [], "coding_time_seconds": 564713, "coding_time_seconds_today": 850, "balance": "You need to have a pocket watcher badge to view this.", "badges": [], "created_at": "2025-06-16T12:47:56.631-04:00", "updated_at": "2025-08-27T10:25:49.656-04:00", "avatar": "https://avatars.slack-edge.com/2025-04-11/8724145988599_169ea68d011441ffd45d_original.jpg", "custom_css": null}, {"id": 1177, "slack_id": "U07H3E1CW7J", "display_name": "Barnab\u00e1s", "bio": "", "projects_count": 10, "devlogs_count": 21, "votes_count": 130, "ships_count": 7, "projects": [{"id": 6835, "title": "Flyte IOS", "devlogs_count": 0, "created_at": "2025-07-16T17:35:32.214-04:00"}, {"id": 8637, "title": "Shareify", "devlogs_count": 11, "created_at": "2025-07-28T17:59:39.998-04:00"}, {"id": 10182, "title": "SiteSuprise", "devlogs_count": 1, "created_at": "2025-08-04T17:25:53.914-04:00"}, {"id": 13106, "title": "3D model viewer", "devlogs_count": 0, "created_at": "2025-09-08T16:48:49.063-04:00"}, {"id": 13107, "title": "Rock Runner", "devlogs_count": 1, "created_at": "2025-09-08T16:50:11.325-04:00"}, {"id": 12717, "title": "F1 centerpiece", "devlogs_count": 1, "created_at": "2025-09-01T11:23:34.175-04:00"}, {"id": 8641, "title": "VV", "devlogs_count": 3, "created_at": "2025-07-28T18:17:35.907-04:00"}, {"id": 12627, "title": "Rasbperry pi 4 model B case with fan support", "devlogs_count": 1, "created_at": "2025-08-30T17:54:31.050-04:00"}, {"id": 12721, "title": "Mini fan", "devlogs_count": 1, "created_at": "2025-09-01T12:55:06.854-04:00"}, {"id": 5807, "title": "StatusBuddy - Neighborhood YSWS Database submission tracker", "devlogs_count": 2, "created_at": "2025-07-08T06:39:19.879-04:00"}], "coding_time_seconds": 294986, "coding_time_seconds_today": 0, "balance": "You need to have a pocket watcher badge to view this.", "badges": [{"name": "Maiden Voyage", "text": "you shipped your first project! the journey begins...", "icon": "\ud83d\udea2"}, {"name": "Ballot Stuffer", "text": "vote 100 times.", "icon": "https://summer.hackclub.com/assets/i_voted-bf851b48.png"}], "created_at": "2025-06-16T12:47:58.727-04:00", "updated_at": "2025-09-19T07:39:24.975-04:00", "avatar": "https://avatars.slack-edge.com/2025-05-05/8848921080468_ae88de8a18cd500569a1_original.png", "custom_css": null}, {"id": 1178, "slack_id": "U08MMCY18TU", "display_name": "Malefic", "bio": null, "projects_count": 0, "devlogs_count": 0, "votes_count": 0, "ships_count": 0, "projects": [], "coding_time_seconds": 366915, "coding_time_seconds_today": 0, "balance": "You need to have a pocket watcher badge to view this.", "badges": [], "created_at": "2025-06-16T12:48:08.415-04:00", "updated_at": "2025-07-03T19:16:27.450-04:00", "avatar": "https://avatars.slack-edge.com/2025-04-09/8735802172579_024e7290d691bbc550e4_original.png", "custom_css": null}, {"id": 1179, "slack_id": "U09183JJHK9", "display_name": "Hashim", "bio": null, "projects_count": 0, "devlogs_count": 0, "votes_count": 1, "ships_count": 0, "projects": [], "coding_time_seconds": 412, "coding_time_seconds_today": 0, "balance": "You need to have a pocket watcher badge to view this.", "badges": [], "created_at": "2025-06-16T12:48:09.041-04:00", "updated_at": "2025-07-03T19:16:27.726-04:00", "avatar": "https://secure.gravatar.com/avatar/fdab886d9f85d6d2c480295060d8c0b0.jpg?s=512&d=https%3A%2F%2Fa.slack-edge.com%2Fdf10d%2Fimg%2Favatars%2Fava_0015-512.png", "custom_css": null}, {"id": 1180, "slack_id": "U091GGFG0B0", "display_name": "Fabian Reyna", "bio": null, "projects_count": 0, "devlogs_count": 0, "votes_count": 0, "ships_count": 0, "projects": [], "coding_time_seconds": 0, "coding_time_seconds_today": 0, "balance": "You need to have a pocket watcher badge to view this.", "badges": [], "created_at": "2025-06-16T12:48:14.594-04:00", "updated_at": "2025-07-03T19:16:27.995-04:00", "avatar": "https://secure.gravatar.com/avatar/16078fa1fa59e7e5545f73faa0d3f134.jpg?s=512&d=https%3A%2F%2Fa.slack-edge.com%2Fdf10d%2Fimg%2Favatars%2Fava_0000-512.png", "custom_css": null}], "pagination": {"page": 59, "pages": 1192, "count": 23827, "items": 20}}