{"users": [{"id": 11781, "slack_id": "U0927CGP9LP", "display_name": "Suvash Kumar", "bio": null, "projects_count": 0, "devlogs_count": 0, "votes_count": 0, "ships_count": 0, "projects": [], "coding_time_seconds": 0, "coding_time_seconds_today": 0, "balance": "You need to have a pocket watcher badge to view this.", "badges": [], "created_at": "2025-06-23T11:13:35.710-04:00", "updated_at": "2025-07-03T20:01:19.150-04:00", "avatar": "https://secure.gravatar.com/avatar/3d172967e63316e4f0c447aecdc4de13.jpg?s=512&d=https%3A%2F%2Fa.slack-edge.com%2Fdf10d%2Fimg%2Favatars%2Fava_0009-512.png", "custom_css": null}, {"id": 11782, "slack_id": "U091PARMN8L", "display_name": "Brian", "bio": null, "projects_count": 0, "devlogs_count": 0, "votes_count": 0, "ships_count": 0, "projects": [], "coding_time_seconds": 8817, "coding_time_seconds_today": 0, "balance": "You need to have a pocket watcher badge to view this.", "badges": [], "created_at": "2025-06-23T11:13:37.880-04:00", "updated_at": "2025-07-03T20:01:19.419-04:00", "avatar": "https://secure.gravatar.com/avatar/10f6f01b23a4c0347455f25dfe89cee3.jpg?s=512&d=https%3A%2F%2Fa.slack-edge.com%2Fdf10d%2Fimg%2Favatars%2Fava_0002-512.png", "custom_css": null}, {"id": 11783, "slack_id": "U091MS50893", "display_name": "Joris", "bio": null, "projects_count": 2, "devlogs_count": 3, "votes_count": 2, "ships_count": 0, "projects": [{"id": 3699, "title": "My github readme", "devlogs_count": 1, "created_at": "2025-06-25T09:25:13.636-04:00"}, {"id": 5115, "title": "Minesweeper 2.0", "devlogs_count": 2, "created_at": "2025-07-03T10:44:04.852-04:00"}], "coding_time_seconds": 9560, "coding_time_seconds_today": 0, "balance": "You need to have a pocket watcher badge to view this.", "badges": [], "created_at": "2025-06-23T11:16:37.537-04:00", "updated_at": "2025-07-03T20:01:19.681-04:00", "avatar": "https://secure.gravatar.com/avatar/aec732076636553ec9813c0275b03213.jpg?s=512&d=https%3A%2F%2Fa.slack-edge.com%2Fdf10d%2Fimg%2Favatars%2Fava_0020-512.png", "custom_css": null}, {"id": 11784, "slack_id": "U092EM6B0J1", "display_name": "Enoch Bamigboye", "bio": null, "projects_count": 0, "devlogs_count": 0, "votes_count": 0, "ships_count": 0, "projects": [], "coding_time_seconds": 0, "coding_time_seconds_today": 0, "balance": "You need to have a pocket watcher badge to view this.", "badges": [], "created_at": "2025-06-23T11:19:05.569-04:00", "updated_at": "2025-07-03T20:01:19.941-04:00", "avatar": "https://avatars.slack-edge.com/2025-06-23/9090273237554_b1f0deb0a681ff83c912_original.jpg", "custom_css": null}, {"id": 11785, "slack_id": "U0927MW3K7H", "display_name": "Alex", "bio": null, "projects_count": 0, "devlogs_count": 0, "votes_count": 0, "ships_count": 0, "projects": [], "coding_time_seconds": 0, "coding_time_seconds_today": 0, "balance": "You need to have a pocket watcher badge to view this.", "badges": [], "created_at": "2025-06-23T11:21:19.974-04:00", "updated_at": "2025-07-03T20:01:20.215-04:00", "avatar": "https://secure.gravatar.com/avatar/6a59236920cfa7a868b3246a6f7e9d5c.jpg?s=512&d=https%3A%2F%2Fa.slack-edge.com%2Fdf10d%2Fimg%2Favatars%2Fava_0025-512.png", "custom_css": null}, {"id": 11786, "slack_id": "U07VCDTNYNB", "display_name": "Kotleciak", "bio": null, "projects_count": 4, "devlogs_count": 63, "votes_count": 23, "ships_count": 2, "projects": [{"id": 3767, "title": "Kotleciak's  chess", "devlogs_count": 0, "created_at": "2025-06-25T16:32:33.947-04:00"}, {"id": 7930, "title": "SpaceX(placeholder)", "devlogs_count": 44, "created_at": "2025-07-23T17:19:19.789-04:00"}, {"id": 3775, "title": "Kotleciak's canva", "devlogs_count": 7, "created_at": "2025-06-25T17:24:25.799-04:00"}, {"id": 5171, "title": "Kotleciak's Minesweeper", "devlogs_count": 12, "created_at": "2025-07-03T15:21:02.831-04:00"}], "coding_time_seconds": 226469, "coding_time_seconds_today": 453, "balance": "You need to have a pocket watcher badge to view this.", "badges": [{"name": "Maiden Voyage", "text": "you shipped your first project! the journey begins...", "icon": "\ud83d\udea2"}], "created_at": "2025-06-23T11:22:29.991-04:00", "updated_at": "2025-09-10T22:57:04.009-04:00", "avatar": "https://avatars.slack-edge.com/2024-11-11/7998782914599_239989c5e2679c7129de_original.png", "custom_css": null}, {"id": 11787, "slack_id": "U093ACP21UG", "display_name": "Emmanuel", "bio": null, "projects_count": 1, "devlogs_count": 0, "votes_count": 0, "ships_count": 0, "projects": [{"id": 4586, "title": "Understanding Hi-fi Rush Game", "devlogs_count": 0, "created_at": "2025-06-30T19:25:50.194-04:00"}], "coding_time_seconds": 98601, "coding_time_seconds_today": 0, "balance": "You need to have a pocket watcher badge to view this.", "badges": [], "created_at": "2025-06-23T11:25:05.010-04:00", "updated_at": "2025-07-03T20:01:20.752-04:00", "avatar": "https://secure.gravatar.com/avatar/d97b1017f6ddd2953922c07d339c9380.jpg?s=512&d=https%3A%2F%2Fa.slack-edge.com%2Fdf10d%2Fimg%2Favatars%2Fava_0011-512.png", "custom_css": null}, {"id": 11788, "slack_id": "U092FDGLETD", "display_name": "Sarah Tran", "bio": null, "projects_count": 0, "devlogs_count": 0, "votes_count": 0, "ships_count": 0, "projects": [], "coding_time_seconds": 0, "coding_time_seconds_today": 0, "balance": "You need to have a pocket watcher badge to view this.", "badges": [], "created_at": "2025-06-23T11:25:35.509-04:00", "updated_at": "2025-07-03T20:01:21.029-04:00", "avatar": "https://avatars.slack-edge.com/2025-06-23/9112448241424_b7ca42f11ef4cabd3106_original.png", "custom_css": null}, {"id": 11789, "slack_id": "U092FDW85KM", "display_name": "Michele Di Stasi", "bio": null, "projects_count": 0, "devlogs_count": 0, "votes_count": 0, "ships_count": 0, "projects": [], "coding_time_seconds": 0, "coding_time_seconds_today": 0, "balance": "You need to have a pocket watcher badge to view this.", "badges": [], "created_at": "2025-06-23T11:25:42.953-04:00", "updated_at": "2025-07-03T20:01:21.306-04:00", "avatar": "https://secure.gravatar.com/avatar/a48071f74b9dc06feccface18fcaecb9.jpg?s=512&d=https%3A%2F%2Fa.slack-edge.com%2Fdf10d%2Fimg%2Favatars%2Fava_0026-512.png", "custom_css": null}, {"id": 11790, "slack_id": "U092AH9D27Q", "display_name": "Ayeniemmy", "bio": null, "projects_count": 0, "devlogs_count": 0, "votes_count": 0, "ships_count": 0, "projects": [], "coding_time_seconds": 0, "coding_time_seconds_today": 0, "balance": "You need to have a pocket watcher badge to view this.", "badges": [], "created_at": "2025-06-23T11:27:37.668-04:00", "updated_at": "2025-07-03T20:01:21.570-04:00", "avatar": "https://secure.gravatar.com/avatar/3f6ac2530b29115cf20cc16cb96e122f.jpg?s=512&d=https%3A%2F%2Fa.slack-edge.com%2Fdf10d%2Fimg%2Favatars%2Fava_0004-512.png", "custom_css": null}, {"id": 11791, "slack_id": "U092GJGDP7Y", "display_name": "Dyindhar", "bio": null, "projects_count": 0, "devlogs_count": 0, "votes_count": 0, "ships_count": 0, "projects": [], "coding_time_seconds": 281, "coding_time_seconds_today": 0, "balance": "You need to have a pocket watcher badge to view this.", "badges": [], "created_at": "2025-06-23T11:31:23.995-04:00", "updated_at": "2025-07-03T20:01:21.828-04:00", "avatar": "https://secure.gravatar.com/avatar/3eb56b799605d665ad264e8b7b77ec48.jpg?s=512&d=https%3A%2F%2Fa.slack-edge.com%2Fdf10d%2Fimg%2Favatars%2Fava_0006-512.png", "custom_css": null}, {"id": 11792, "slack_id": "U092FF8V7A7", "display_name": "Mithun Dhanasuthan", "bio": null, "projects_count": 0, "devlogs_count": 0, "votes_count": 0, "ships_count": 0, "projects": [], "coding_time_seconds": 0, "coding_time_seconds_today": 0, "balance": "You need to have a pocket watcher badge to view this.", "badges": [], "created_at": "2025-06-23T11:31:33.975-04:00", "updated_at": "2025-07-04T02:31:50.801-04:00", "avatar": "https://avatars.slack-edge.com/2025-06-23/9103810560897_9c773b0775a5fc58cba6_original.jpg", "custom_css": null}, {"id": 11793, "slack_id": "U092C3VQYVA", "display_name": "Sterli", "bio": null, "projects_count": 0, "devlogs_count": 0, "votes_count": 0, "ships_count": 0, "projects": [], "coding_time_seconds": 0, "coding_time_seconds_today": 0, "balance": "You need to have a pocket watcher badge to view this.", "badges": [], "created_at": "2025-06-23T11:34:29.888-04:00", "updated_at": "2025-07-03T20:01:22.258-04:00", "avatar": "https://secure.gravatar.com/avatar/7c0d3f30ffd9b9ca007ee7de1a277276.jpg?s=512&d=https%3A%2F%2Fa.slack-edge.com%2Fdf10d%2Fimg%2Favatars%2Fava_0008-512.png", "custom_css": null}, {"id": 11794, "slack_id": "U092M0D389K", "display_name": "Nirvan Boggula", "bio": null, "projects_count": 0, "devlogs_count": 0, "votes_count": 0, "ships_count": 0, "projects": [], "coding_time_seconds": 0, "coding_time_seconds_today": 0, "balance": "You need to have a pocket watcher badge to view this.", "badges": [], "created_at": "2025-06-23T11:37:26.189-04:00", "updated_at": "2025-07-03T20:01:22.518-04:00", "avatar": "https://secure.gravatar.com/avatar/30314fd8d71660749be05f7bfa51ebda.jpg?s=512&d=https%3A%2F%2Fa.slack-edge.com%2Fdf10d%2Fimg%2Favatars%2Fava_0003-512.png", "custom_css": null}, {"id": 11795, "slack_id": "U092NB3TQG2", "display_name": "K K", "bio": null, "projects_count": 0, "devlogs_count": 0, "votes_count": 0, "ships_count": 0, "projects": [], "coding_time_seconds": 0, "coding_time_seconds_today": 0, "balance": "You need to have a pocket watcher badge to view this.", "badges": [], "created_at": "2025-06-23T11:37:39.466-04:00", "updated_at": "2025-07-03T20:01:22.789-04:00", "avatar": "https://secure.gravatar.com/avatar/ca45187d5347ac9c1edde3b25b0f4d99.jpg?s=512&d=https%3A%2F%2Fa.slack-edge.com%2Fdf10d%2Fimg%2Favatars%2Fava_0003-512.png", "custom_css": null}, {"id": 11796, "slack_id": "U0927QY4UNT", "display_name": "Isabella", "bio": null, "projects_count": 0, "devlogs_count": 8, "votes_count": 19, "ships_count": 0, "projects": [], "coding_time_seconds": 372286, "coding_time_seconds_today": 0, "balance": "You need to have a pocket watcher badge to view this.", "badges": [{"name": "Maiden Voyage", "text": "you shipped your first project! the journey begins...", "icon": "\ud83d\udea2"}], "created_at": "2025-06-23T11:37:40.143-04:00", "updated_at": "2025-09-10T22:57:04.497-04:00", "avatar": "https://secure.gravatar.com/avatar/9c2fdac16872682f79d1e891151d108f.jpg?s=512&d=https%3A%2F%2Fa.slack-edge.com%2Fdf10d%2Fimg%2Favatars%2Fava_0021-512.png", "custom_css": null}, {"id": 11797, "slack_id": "U0931R6HR41", "display_name": "Sachita", "bio": null, "projects_count": 0, "devlogs_count": 0, "votes_count": 0, "ships_count": 0, "projects": [], "coding_time_seconds": 0, "coding_time_seconds_today": 0, "balance": "You need to have a pocket watcher badge to view this.", "badges": [], "created_at": "2025-06-23T11:40:36.854-04:00", "updated_at": "2025-07-03T20:01:23.324-04:00", "avatar": "https://secure.gravatar.com/avatar/9a09f2aa950c0fdea033493e650bf48f.jpg?s=512&d=https%3A%2F%2Fa.slack-edge.com%2Fdf10d%2Fimg%2Favatars%2Fava_0011-512.png", "custom_css": null}, {"id": 11798, "slack_id": "U07C5TYRSMD", "display_name": "ricardo", "bio": null, "projects_count": 0, "devlogs_count": 0, "votes_count": 0, "ships_count": 0, "projects": [], "coding_time_seconds": 50, "coding_time_seconds_today": 0, "balance": "You need to have a pocket watcher badge to view this.", "badges": [], "created_at": "2025-06-23T11:41:46.461-04:00", "updated_at": "2025-07-03T20:01:23.602-04:00", "avatar": "https://secure.gravatar.com/avatar/631c4153c5fa09fd25930c29d09827ff.jpg?s=512&d=https%3A%2F%2Fa.slack-edge.com%2Fdf10d%2Fimg%2Favatars%2Fava_0010-512.png", "custom_css": null}, {"id": 11799, "slack_id": "U0921N0UTDM", "display_name": "Ousama Oujaber", "bio": null, "projects_count": 0, "devlogs_count": 0, "votes_count": 0, "ships_count": 0, "projects": [], "coding_time_seconds": 0, "coding_time_seconds_today": 0, "balance": "You need to have a pocket watcher badge to view this.", "badges": [], "created_at": "2025-06-23T11:44:51.950-04:00", "updated_at": "2025-07-03T22:02:32.040-04:00", "avatar": "https://avatars.slack-edge.com/2025-06-23/9103897617745_d1f0c378df71617da0ad_original.png", "custom_css": null}, {"id": 11800, "slack_id": "U093AGJURKJ", "display_name": "mohamed ibourki", "bio": null, "projects_count": 0, "devlogs_count": 0, "votes_count": 0, "ships_count": 0, "projects": [], "coding_time_seconds": 157341, "coding_time_seconds_today": 0, "balance": "You need to have a pocket watcher badge to view this.", "badges": [], "created_at": "2025-06-23T11:45:14.747-04:00", "updated_at": "2025-07-03T20:01:24.008-04:00", "avatar": "https://avatars.slack-edge.com/2025-06-23/9112577683232_dedc8777728541f5acd6_original.jpg", "custom_css": null}], "pagination": {"page": 590, "pages": 1192, "count": 23828, "items": 20}}