{"users": [{"id": 11801, "slack_id": "U092GNZHY22", "display_name": "Jackson", "bio": null, "projects_count": 0, "devlogs_count": 0, "votes_count": 0, "ships_count": 0, "projects": [], "coding_time_seconds": 0, "coding_time_seconds_today": 0, "balance": "You need to have a pocket watcher badge to view this.", "badges": [], "created_at": "2025-06-23T11:56:40.950-04:00", "updated_at": "2025-07-03T20:01:24.280-04:00", "avatar": "https://secure.gravatar.com/avatar/d6663a08a8deb3e231693099a454c0bf.jpg?s=512&d=https%3A%2F%2Fa.slack-edge.com%2Fdf10d%2Fimg%2Favatars%2Fava_0005-512.png", "custom_css": null}, {"id": 11802, "slack_id": "U079LHBTF29", "display_name": "The Guy Who Forgot his name", "bio": null, "projects_count": 0, "devlogs_count": 0, "votes_count": 0, "ships_count": 0, "projects": [], "coding_time_seconds": 0, "coding_time_seconds_today": 0, "balance": "You need to have a pocket watcher badge to view this.", "badges": [], "created_at": "2025-06-23T11:59:05.434-04:00", "updated_at": "2025-07-03T20:01:24.658-04:00", "avatar": "https://avatars.slack-edge.com/2024-08-04/7521521632821_5745b7475a6148619cd9_original.png", "custom_css": null}, {"id": 11803, "slack_id": "U092B6PU9TM", "display_name": "Jahin Ahnaf", "bio": null, "projects_count": 0, "devlogs_count": 0, "votes_count": 0, "ships_count": 0, "projects": [], "coding_time_seconds": 0, "coding_time_seconds_today": 0, "balance": "You need to have a pocket watcher badge to view this.", "badges": [], "created_at": "2025-06-23T12:01:44.131-04:00", "updated_at": "2025-07-03T20:01:24.935-04:00", "avatar": "https://avatars.slack-edge.com/2025-06-23/9089211066901_2ffe2788078630fe5f38_original.png", "custom_css": null}, {"id": 11804, "slack_id": "U092BTCDSV9", "display_name": "Royce", "bio": null, "projects_count": 0, "devlogs_count": 0, "votes_count": 0, "ships_count": 0, "projects": [], "coding_time_seconds": 0, "coding_time_seconds_today": 0, "balance": "You need to have a pocket watcher badge to view this.", "badges": [], "created_at": "2025-06-23T12:05:29.984-04:00", "updated_at": "2025-07-03T22:02:32.385-04:00", "avatar": "https://secure.gravatar.com/avatar/150db596463b127c5e8bc926a2f33d22.jpg?s=512&d=https%3A%2F%2Fa.slack-edge.com%2Fdf10d%2Fimg%2Favatars%2Fava_0005-512.png", "custom_css": null}, {"id": 11805, "slack_id": "U09282994H5", "display_name": "sahin ahmed", "bio": null, "projects_count": 0, "devlogs_count": 0, "votes_count": 0, "ships_count": 0, "projects": [], "coding_time_seconds": 0, "coding_time_seconds_today": 0, "balance": "You need to have a pocket watcher badge to view this.", "badges": [], "created_at": "2025-06-23T12:15:07.474-04:00", "updated_at": "2025-07-03T22:02:32.506-04:00", "avatar": "https://secure.gravatar.com/avatar/f80ccfd97d990cfb56395087b8db4b2e.jpg?s=512&d=https%3A%2F%2Fa.slack-edge.com%2Fdf10d%2Fimg%2Favatars%2Fava_0002-512.png", "custom_css": null}, {"id": 11806, "slack_id": "U0927UVDX2T", "display_name": "Nour", "bio": null, "projects_count": 0, "devlogs_count": 0, "votes_count": 0, "ships_count": 0, "projects": [], "coding_time_seconds": 0, "coding_time_seconds_today": 0, "balance": "You need to have a pocket watcher badge to view this.", "badges": [], "created_at": "2025-06-23T12:19:54.234-04:00", "updated_at": "2025-07-03T20:01:25.490-04:00", "avatar": "https://secure.gravatar.com/avatar/584cabd576fba8f6e83e8e04729c14a9.jpg?s=512&d=https%3A%2F%2Fa.slack-edge.com%2Fdf10d%2Fimg%2Favatars%2Fava_0001-512.png", "custom_css": null}, {"id": 11807, "slack_id": "U08RLFPDS7P", "display_name": "Natalia", "bio": null, "projects_count": 0, "devlogs_count": 0, "votes_count": 0, "ships_count": 0, "projects": [], "coding_time_seconds": 0, "coding_time_seconds_today": 0, "balance": "You need to have a pocket watcher badge to view this.", "badges": [], "created_at": "2025-06-23T12:22:16.299-04:00", "updated_at": "2025-07-03T20:01:25.769-04:00", "avatar": "https://secure.gravatar.com/avatar/deef3fa2b89d1d8f36b7eea1ed0634d0.jpg?s=512&d=https%3A%2F%2Fa.slack-edge.com%2Fdf10d%2Fimg%2Favatars%2Fava_0000-512.png", "custom_css": null}, {"id": 11808, "slack_id": "U0927NKFSCE", "display_name": "DVP", "bio": null, "projects_count": 1, "devlogs_count": 1, "votes_count": 0, "ships_count": 0, "projects": [{"id": 3208, "title": "Rust-stuff", "devlogs_count": 1, "created_at": "2025-06-23T13:01:22.433-04:00"}], "coding_time_seconds": 1655, "coding_time_seconds_today": 0, "balance": "You need to have a pocket watcher badge to view this.", "badges": [], "created_at": "2025-06-23T12:22:30.608-04:00", "updated_at": "2025-07-03T20:01:26.041-04:00", "avatar": "https://secure.gravatar.com/avatar/7e304906654da751b7914c363c2db8b7.jpg?s=512&d=https%3A%2F%2Fa.slack-edge.com%2Fdf10d%2Fimg%2Favatars%2Fava_0013-512.png", "custom_css": null}, {"id": 11809, "slack_id": "U092FRNKM5H", "display_name": "Maverick", "bio": null, "projects_count": 0, "devlogs_count": 0, "votes_count": 0, "ships_count": 0, "projects": [], "coding_time_seconds": 0, "coding_time_seconds_today": 0, "balance": "You need to have a pocket watcher badge to view this.", "badges": [], "created_at": "2025-06-23T12:31:07.203-04:00", "updated_at": "2025-07-03T20:01:26.318-04:00", "avatar": "https://secure.gravatar.com/avatar/1042f590b461bd9e80c66339b0a8030d.jpg?s=512&d=https%3A%2F%2Fa.slack-edge.com%2Fdf10d%2Fimg%2Favatars%2Fava_0017-512.png", "custom_css": null}, {"id": 11810, "slack_id": "U0795SNGE9L", "display_name": "Darsh", "bio": null, "projects_count": 0, "devlogs_count": 0, "votes_count": 0, "ships_count": 0, "projects": [], "coding_time_seconds": 0, "coding_time_seconds_today": 0, "balance": "You need to have a pocket watcher badge to view this.", "badges": [], "created_at": "2025-06-23T12:38:35.829-04:00", "updated_at": "2025-07-04T02:31:51.962-04:00", "avatar": "https://avatars.slack-edge.com/2025-07-03/9169504253488_f76199167da0bde4ca12_original.png", "custom_css": null}, {"id": 11811, "slack_id": "U092WC1S52M", "display_name": "Aaryan", "bio": null, "projects_count": 0, "devlogs_count": 0, "votes_count": 0, "ships_count": 0, "projects": [], "coding_time_seconds": 0, "coding_time_seconds_today": 0, "balance": "You need to have a pocket watcher badge to view this.", "badges": [], "created_at": "2025-06-23T12:41:55.829-04:00", "updated_at": "2025-07-03T20:01:26.842-04:00", "avatar": "https://secure.gravatar.com/avatar/d54b183a65a487f535a986e949180c24.jpg?s=512&d=https%3A%2F%2Fa.slack-edge.com%2Fdf10d%2Fimg%2Favatars%2Fava_0006-512.png", "custom_css": null}, {"id": 11812, "slack_id": "U092CG52P5G", "display_name": "Enes Gen\u00e7", "bio": null, "projects_count": 1, "devlogs_count": 7, "votes_count": 0, "ships_count": 1, "projects": [{"id": 10511, "title": "Pixli", "devlogs_count": 7, "created_at": "2025-08-07T16:55:03.615-04:00"}], "coding_time_seconds": 149331, "coding_time_seconds_today": 8474, "balance": "You need to have a pocket watcher badge to view this.", "badges": [{"name": "Maiden Voyage", "text": "you shipped your first project! the journey begins...", "icon": "\ud83d\udea2"}], "created_at": "2025-06-23T12:49:37.499-04:00", "updated_at": "2025-09-25T02:19:10.472-04:00", "avatar": "https://secure.gravatar.com/avatar/10392dee166e091e1c68f49d34a8c782.jpg?s=512&d=https%3A%2F%2Fa.slack-edge.com%2Fdf10d%2Fimg%2Favatars%2Fava_0007-512.png", "custom_css": null}, {"id": 11813, "slack_id": "U09255CRZBK", "display_name": "Adeeb Faiyaz", "bio": null, "projects_count": 0, "devlogs_count": 0, "votes_count": 0, "ships_count": 0, "projects": [], "coding_time_seconds": 0, "coding_time_seconds_today": 0, "balance": "You need to have a pocket watcher badge to view this.", "badges": [], "created_at": "2025-06-23T12:52:22.752-04:00", "updated_at": "2025-07-03T20:01:27.357-04:00", "avatar": "https://avatars.slack-edge.com/2025-06-23/9083999651379_60cd0c86ce85679fe243_original.png", "custom_css": null}, {"id": 11814, "slack_id": "U082QTUF27K", "display_name": "Quantenphysik09", "bio": null, "projects_count": 0, "devlogs_count": 0, "votes_count": 0, "ships_count": 0, "projects": [], "coding_time_seconds": 8066, "coding_time_seconds_today": 0, "balance": "You need to have a pocket watcher badge to view this.", "badges": [], "created_at": "2025-06-23T12:53:25.273-04:00", "updated_at": "2025-07-06T20:13:27.756-04:00", "avatar": "https://avatars.slack-edge.com/2025-01-06/8249873781091_7a991c30a16eb2f5f0c0_original.jpg", "custom_css": null}, {"id": 11815, "slack_id": "U09329VQ2UR", "display_name": "FrJ", "bio": null, "projects_count": 0, "devlogs_count": 0, "votes_count": 0, "ships_count": 0, "projects": [], "coding_time_seconds": 0, "coding_time_seconds_today": 0, "balance": "You need to have a pocket watcher badge to view this.", "badges": [], "created_at": "2025-06-23T12:55:57.407-04:00", "updated_at": "2025-07-04T02:31:52.382-04:00", "avatar": "https://avatars.slack-edge.com/2025-06-23/9085182930454_b0ce53ea999c2f2d47ed_original.jpg", "custom_css": null}, {"id": 11816, "slack_id": "U092G0JC5J7", "display_name": "test", "bio": null, "projects_count": 0, "devlogs_count": 0, "votes_count": 0, "ships_count": 0, "projects": [], "coding_time_seconds": 0, "coding_time_seconds_today": 0, "balance": "You need to have a pocket watcher badge to view this.", "badges": [], "created_at": "2025-06-23T12:58:51.860-04:00", "updated_at": "2025-07-04T02:31:52.476-04:00", "avatar": "https://secure.gravatar.com/avatar/83e79e2c5fa8789b23fd0bc4f70de5cc.jpg?s=512&d=https%3A%2F%2Fa.slack-edge.com%2Fdf10d%2Fimg%2Favatars%2Fava_0006-512.png", "custom_css": null}, {"id": 11817, "slack_id": "U092PCE1E76", "display_name": "Darko", "bio": null, "projects_count": 0, "devlogs_count": 0, "votes_count": 0, "ships_count": 0, "projects": [], "coding_time_seconds": 0, "coding_time_seconds_today": 0, "balance": "You need to have a pocket watcher badge to view this.", "badges": [], "created_at": "2025-06-23T13:01:25.858-04:00", "updated_at": "2025-07-07T02:14:06.480-04:00", "avatar": "https://secure.gravatar.com/avatar/cbd30a455ee3a50e93810c9cc2512336.jpg?s=512&d=https%3A%2F%2Fa.slack-edge.com%2Fdf10d%2Fimg%2Favatars%2Fava_0022-512.png", "custom_css": null}, {"id": 11818, "slack_id": "U0928ASA5QX", "display_name": "Neil", "bio": null, "projects_count": 0, "devlogs_count": 0, "votes_count": 0, "ships_count": 0, "projects": [], "coding_time_seconds": 62725, "coding_time_seconds_today": 0, "balance": "You need to have a pocket watcher badge to view this.", "badges": [], "created_at": "2025-06-23T13:01:54.753-04:00", "updated_at": "2025-07-03T20:01:28.215-04:00", "avatar": "https://secure.gravatar.com/avatar/dc682786b9d6116df6da4b95b8a6551b.jpg?s=512&d=https%3A%2F%2Fa.slack-edge.com%2Fdf10d%2Fimg%2Favatars%2Fava_0004-512.png", "custom_css": null}, {"id": 11819, "slack_id": "U092H5A3BEJ", "display_name": "Pratham", "bio": null, "projects_count": 0, "devlogs_count": 0, "votes_count": 0, "ships_count": 0, "projects": [], "coding_time_seconds": 0, "coding_time_seconds_today": 0, "balance": "You need to have a pocket watcher badge to view this.", "badges": [], "created_at": "2025-06-23T13:04:40.593-04:00", "updated_at": "2025-07-04T20:12:33.628-04:00", "avatar": "https://secure.gravatar.com/avatar/51807c28a103a555b421c6b8173ad1b5.jpg?s=512&d=https%3A%2F%2Fa.slack-edge.com%2Fdf10d%2Fimg%2Favatars%2Fava_0013-512.png", "custom_css": null}, {"id": 11820, "slack_id": "U092NT289PU", "display_name": "Eko", "bio": null, "projects_count": 0, "devlogs_count": 0, "votes_count": 0, "ships_count": 0, "projects": [], "coding_time_seconds": 83918, "coding_time_seconds_today": 0, "balance": "You need to have a pocket watcher badge to view this.", "badges": [], "created_at": "2025-06-23T13:05:51.905-04:00", "updated_at": "2025-07-03T20:01:28.615-04:00", "avatar": "https://secure.gravatar.com/avatar/0dfc8ea7d9504e86ac5e1ac237cfea28.jpg?s=512&d=https%3A%2F%2Fa.slack-edge.com%2Fdf10d%2Fimg%2Favatars%2Fava_0011-512.png", "custom_css": null}], "pagination": {"page": 591, "pages": 1192, "count": 23828, "items": 20}}