{"users": [{"id": 11821, "slack_id": "U07FKH7K6HF", "display_name": "Sebastian", "bio": null, "projects_count": 0, "devlogs_count": 0, "votes_count": 0, "ships_count": 0, "projects": [], "coding_time_seconds": 0, "coding_time_seconds_today": 0, "balance": "You need to have a pocket watcher badge to view this.", "badges": [], "created_at": "2025-06-23T13:05:57.246-04:00", "updated_at": "2025-07-03T20:01:28.877-04:00", "avatar": "https://secure.gravatar.com/avatar/31c0690e88373ba628283c070f60c90b.jpg?s=512&d=https%3A%2F%2Fa.slack-edge.com%2Fdf10d%2Fimg%2Favatars%2Fava_0003-512.png", "custom_css": null}, {"id": 11822, "slack_id": "U080K2XFBCZ", "display_name": "Slyther", "bio": null, "projects_count": 2, "devlogs_count": 3, "votes_count": 15, "ships_count": 1, "projects": [{"id": 9747, "title": "Slyther Portfolio", "devlogs_count": 3, "created_at": "2025-08-02T06:37:10.526-04:00"}, {"id": 10702, "title": "Quantum Cryptography Messenger", "devlogs_count": 0, "created_at": "2025-08-09T21:13:33.733-04:00"}], "coding_time_seconds": 48567, "coding_time_seconds_today": 3815, "balance": "You need to have a pocket watcher badge to view this.", "badges": [{"name": "Maiden Voyage", "text": "you shipped your first project! the journey begins...", "icon": "\ud83d\udea2"}], "created_at": "2025-06-23T13:10:15.626-04:00", "updated_at": "2025-09-10T22:57:05.200-04:00", "avatar": "https://avatars.slack-edge.com/2025-02-22/8495305819155_0d6af669b5ccf6ad8cf3_original.jpg", "custom_css": null}, {"id": 11823, "slack_id": "U0928CNATM5", "display_name": "NHL", "bio": null, "projects_count": 0, "devlogs_count": 0, "votes_count": 0, "ships_count": 0, "projects": [], "coding_time_seconds": 0, "coding_time_seconds_today": 0, "balance": "You need to have a pocket watcher badge to view this.", "badges": [], "created_at": "2025-06-23T13:14:34.142-04:00", "updated_at": "2025-07-03T20:01:29.638-04:00", "avatar": "https://secure.gravatar.com/avatar/3d88e5ae4ca9c1207dbd47d283b5b0b6.jpg?s=512&d=https%3A%2F%2Fa.slack-edge.com%2Fdf10d%2Fimg%2Favatars%2Fava_0006-512.png", "custom_css": null}, {"id": 11824, "slack_id": "U0932E0QMPT", "display_name": "Ethan Bui", "bio": null, "projects_count": 0, "devlogs_count": 0, "votes_count": 0, "ships_count": 0, "projects": [], "coding_time_seconds": 0, "coding_time_seconds_today": 0, "balance": "You need to have a pocket watcher badge to view this.", "badges": [], "created_at": "2025-06-23T13:17:03.951-04:00", "updated_at": "2025-07-03T20:01:29.894-04:00", "avatar": "https://secure.gravatar.com/avatar/28de476b13fb8089ea0cb4d4d48ffd79.jpg?s=512&d=https%3A%2F%2Fa.slack-edge.com%2Fdf10d%2Fimg%2Favatars%2Fava_0026-512.png", "custom_css": null}, {"id": 11825, "slack_id": "U0928D9SK7H", "display_name": "laroussi manel", "bio": null, "projects_count": 0, "devlogs_count": 0, "votes_count": 0, "ships_count": 0, "projects": [], "coding_time_seconds": 0, "coding_time_seconds_today": 0, "balance": "You need to have a pocket watcher badge to view this.", "badges": [], "created_at": "2025-06-23T13:18:20.097-04:00", "updated_at": "2025-07-03T20:01:30.162-04:00", "avatar": "https://avatars.slack-edge.com/2025-06-23/9085273540070_1f452b21bd8160761f80_original.png", "custom_css": null}, {"id": 11826, "slack_id": "U07G7CYV56K", "display_name": "PPenguin", "bio": null, "projects_count": 0, "devlogs_count": 0, "votes_count": 0, "ships_count": 0, "projects": [], "coding_time_seconds": 0, "coding_time_seconds_today": 0, "balance": "You need to have a pocket watcher badge to view this.", "badges": [], "created_at": "2025-06-23T13:18:54.449-04:00", "updated_at": "2025-07-03T20:01:30.422-04:00", "avatar": "https://secure.gravatar.com/avatar/cfdcbce1a8b96ea8d55645e4aa752164.jpg?s=512&d=https%3A%2F%2Fa.slack-edge.com%2Fdf10d%2Fimg%2Favatars%2Fava_0026-512.png", "custom_css": null}, {"id": 11827, "slack_id": "U082CTD3KL4", "display_name": "axell", "bio": null, "projects_count": 4, "devlogs_count": 12, "votes_count": 66, "ships_count": 1, "projects": [{"id": 3219, "title": "tinkearOs", "devlogs_count": 5, "created_at": "2025-06-23T13:41:41.049-04:00"}, {"id": 4286, "title": "rugplay launderer", "devlogs_count": 1, "created_at": "2025-06-28T16:52:04.662-04:00"}, {"id": 11385, "title": "ray", "devlogs_count": 1, "created_at": "2025-08-15T12:06:26.164-04:00"}, {"id": 5214, "title": "xpsync", "devlogs_count": 5, "created_at": "2025-07-03T20:12:22.373-04:00"}], "coding_time_seconds": 282069, "coding_time_seconds_today": 0, "balance": "You need to have a pocket watcher badge to view this.", "badges": [{"name": "Maiden Voyage", "text": "you shipped your first project! the journey begins...", "icon": "\ud83d\udea2"}], "created_at": "2025-06-23T13:21:16.104-04:00", "updated_at": "2025-09-10T22:57:05.333-04:00", "avatar": "https://avatars.slack-edge.com/2024-11-25/8081208611635_b1f3cddb13e5460a2b19_original.jpg", "custom_css": null}, {"id": 11828, "slack_id": "U092MKEMDFX", "display_name": "sam", "bio": null, "projects_count": 0, "devlogs_count": 2, "votes_count": 3, "ships_count": 0, "projects": [], "coding_time_seconds": 1407610, "coding_time_seconds_today": 0, "balance": "You need to have a pocket watcher badge to view this.", "badges": [], "created_at": "2025-06-23T13:25:12.550-04:00", "updated_at": "2025-08-30T12:56:24.453-04:00", "avatar": "https://secure.gravatar.com/avatar/aa57abbe0dc3141c3f2f11b7da2faeb9.jpg?s=512&d=https%3A%2F%2Fa.slack-edge.com%2Fdf10d%2Fimg%2Favatars%2Fava_0026-512.png", "custom_css": null}, {"id": 11829, "slack_id": "U0928ELRLKZ", "display_name": "Herambh Nagre", "bio": null, "projects_count": 0, "devlogs_count": 0, "votes_count": 0, "ships_count": 0, "projects": [], "coding_time_seconds": 11046, "coding_time_seconds_today": 0, "balance": "You need to have a pocket watcher badge to view this.", "badges": [], "created_at": "2025-06-23T13:27:33.943-04:00", "updated_at": "2025-07-03T20:01:31.101-04:00", "avatar": "https://secure.gravatar.com/avatar/96396509599b8efd62776b4e94841f69.jpg?s=512&d=https%3A%2F%2Fa.slack-edge.com%2Fdf10d%2Fimg%2Favatars%2Fava_0010-512.png", "custom_css": null}, {"id": 11830, "slack_id": "U092MKLUMM3", "display_name": "Enoch", "bio": null, "projects_count": 0, "devlogs_count": 0, "votes_count": 0, "ships_count": 0, "projects": [], "coding_time_seconds": 0, "coding_time_seconds_today": 0, "balance": "You need to have a pocket watcher badge to view this.", "badges": [], "created_at": "2025-06-23T13:27:54.821-04:00", "updated_at": "2025-07-03T20:01:31.363-04:00", "avatar": "https://secure.gravatar.com/avatar/6a1590fd9b90c339297e4c3ed2b8a687.jpg?s=512&d=https%3A%2F%2Fa.slack-edge.com%2Fdf10d%2Fimg%2Favatars%2Fava_0016-512.png", "custom_css": null}, {"id": 11831, "slack_id": "U0928TRPYFP", "display_name": "faizan", "bio": null, "projects_count": 0, "devlogs_count": 0, "votes_count": 0, "ships_count": 0, "projects": [], "coding_time_seconds": 0, "coding_time_seconds_today": 0, "balance": "You need to have a pocket watcher badge to view this.", "badges": [], "created_at": "2025-06-23T13:38:18.314-04:00", "updated_at": "2025-07-03T20:01:31.627-04:00", "avatar": "https://secure.gravatar.com/avatar/672633a1306d8cebd0cd4612a30f115b.jpg?s=512&d=https%3A%2F%2Fa.slack-edge.com%2Fdf10d%2Fimg%2Favatars%2Fava_0024-512.png", "custom_css": null}, {"id": 11832, "slack_id": "U07FMHZDYAW", "display_name": "Farhan Hamim", "bio": null, "projects_count": 2, "devlogs_count": 7, "votes_count": 24, "ships_count": 1, "projects": [{"id": 12118, "title": "mecha game", "devlogs_count": 0, "created_at": "2025-08-23T08:34:01.222-04:00"}, {"id": 5637, "title": "SimplyTrack", "devlogs_count": 7, "created_at": "2025-07-06T19:22:31.620-04:00"}], "coding_time_seconds": 96284, "coding_time_seconds_today": 0, "balance": "You need to have a pocket watcher badge to view this.", "badges": [{"name": "Maiden Voyage", "text": "you shipped your first project! the journey begins...", "icon": "\ud83d\udea2"}], "created_at": "2025-06-23T13:38:21.982-04:00", "updated_at": "2025-09-10T22:57:05.488-04:00", "avatar": "https://avatars.slack-edge.com/2024-08-05/7528826415829_11d604a7580c2f33b51b_original.jpg", "custom_css": null}, {"id": 11833, "slack_id": "U092MKJ9N3X", "display_name": "Muzammil", "bio": null, "projects_count": 0, "devlogs_count": 0, "votes_count": 0, "ships_count": 0, "projects": [], "coding_time_seconds": 0, "coding_time_seconds_today": 0, "balance": "You need to have a pocket watcher badge to view this.", "badges": [], "created_at": "2025-06-23T13:41:32.509-04:00", "updated_at": "2025-07-06T23:18:39.939-04:00", "avatar": "https://secure.gravatar.com/avatar/fd947750650258e604560a406a623079.jpg?s=512&d=https%3A%2F%2Fa.slack-edge.com%2Fdf10d%2Fimg%2Favatars%2Fava_0002-512.png", "custom_css": null}, {"id": 11834, "slack_id": "U091G33079R", "display_name": "Antonio Escalante", "bio": null, "projects_count": 0, "devlogs_count": 0, "votes_count": 0, "ships_count": 0, "projects": [], "coding_time_seconds": 0, "coding_time_seconds_today": 0, "balance": "You need to have a pocket watcher badge to view this.", "badges": [], "created_at": "2025-06-23T13:41:48.138-04:00", "updated_at": "2025-07-03T20:01:32.304-04:00", "avatar": "https://secure.gravatar.com/avatar/c44685fe846fcd88085060b385df75cf.jpg?s=512&d=https%3A%2F%2Fa.slack-edge.com%2Fdf10d%2Fimg%2Favatars%2Fava_0014-512.png", "custom_css": null}, {"id": 11835, "slack_id": "U092PKSBQ0L", "display_name": "Alexandra Borders", "bio": null, "projects_count": 0, "devlogs_count": 0, "votes_count": 0, "ships_count": 0, "projects": [], "coding_time_seconds": 0, "coding_time_seconds_today": 0, "balance": "You need to have a pocket watcher badge to view this.", "badges": [], "created_at": "2025-06-23T13:44:26.276-04:00", "updated_at": "2025-07-03T20:01:32.568-04:00", "avatar": "https://secure.gravatar.com/avatar/fe7349489cafdb694e7eb01552bc3664.jpg?s=512&d=https%3A%2F%2Fa.slack-edge.com%2Fdf10d%2Fimg%2Favatars%2Fava_0013-512.png", "custom_css": null}, {"id": 11836, "slack_id": "U092NAY65KN", "display_name": "18K GlintInnovator", "bio": null, "projects_count": 0, "devlogs_count": 0, "votes_count": 0, "ships_count": 0, "projects": [], "coding_time_seconds": 0, "coding_time_seconds_today": 0, "balance": "You need to have a pocket watcher badge to view this.", "badges": [], "created_at": "2025-06-23T13:48:55.357-04:00", "updated_at": "2025-07-03T20:01:32.832-04:00", "avatar": "https://avatars.slack-edge.com/2025-06-23/9104675100705_f50dc6ab5bfdb8a8e4c7_original.jpg", "custom_css": null}, {"id": 11837, "slack_id": "U0932726VU1", "display_name": "Justin", "bio": null, "projects_count": 0, "devlogs_count": 0, "votes_count": 0, "ships_count": 0, "projects": [], "coding_time_seconds": 8, "coding_time_seconds_today": 0, "balance": "You need to have a pocket watcher badge to view this.", "badges": [], "created_at": "2025-06-23T13:50:38.755-04:00", "updated_at": "2025-07-03T20:01:33.096-04:00", "avatar": "https://secure.gravatar.com/avatar/02dfebac64acd72cb0ec0ec5fd5b728a.jpg?s=512&d=https%3A%2F%2Fa.slack-edge.com%2Fdf10d%2Fimg%2Favatars%2Fava_0025-512.png", "custom_css": null}, {"id": 11838, "slack_id": "U092G7YJ9H9", "display_name": "philip thom george", "bio": null, "projects_count": 0, "devlogs_count": 0, "votes_count": 0, "ships_count": 0, "projects": [], "coding_time_seconds": 0, "coding_time_seconds_today": 0, "balance": "You need to have a pocket watcher badge to view this.", "badges": [], "created_at": "2025-06-23T13:52:21.104-04:00", "updated_at": "2025-07-05T08:13:33.419-04:00", "avatar": "https://secure.gravatar.com/avatar/b7960a307aac125afcae18e58fb6a973.jpg?s=512&d=https%3A%2F%2Fa.slack-edge.com%2Fdf10d%2Fimg%2Favatars%2Fava_0020-512.png", "custom_css": null}, {"id": 11839, "slack_id": "U092HEY48AJ", "display_name": "adarshdg", "bio": null, "projects_count": 0, "devlogs_count": 0, "votes_count": 0, "ships_count": 0, "projects": [], "coding_time_seconds": 0, "coding_time_seconds_today": 0, "balance": "You need to have a pocket watcher badge to view this.", "badges": [], "created_at": "2025-06-23T14:05:30.519-04:00", "updated_at": "2025-07-21T09:01:28.516-04:00", "avatar": "https://avatars.slack-edge.com/2025-07-21/9222805580131_6225de7cedfc341d3972_original.jpg", "custom_css": null}, {"id": 11840, "slack_id": "U093BDEP8FJ", "display_name": "Mr. ketan artist", "bio": null, "projects_count": 0, "devlogs_count": 0, "votes_count": 0, "ships_count": 0, "projects": [], "coding_time_seconds": 0, "coding_time_seconds_today": 0, "balance": "You need to have a pocket watcher badge to view this.", "badges": [], "created_at": "2025-06-23T14:14:14.316-04:00", "updated_at": "2025-07-03T20:01:33.748-04:00", "avatar": "https://avatars.slack-edge.com/2025-06-27/9116345760674_1e313e2005630f62b6c8_original.jpg", "custom_css": null}], "pagination": {"page": 592, "pages": 1192, "count": 23828, "items": 20}}