{"users": [{"id": 11841, "slack_id": "U092PGWG7S8", "display_name": "Oliver De Heaver", "bio": null, "projects_count": 0, "devlogs_count": 0, "votes_count": 0, "ships_count": 0, "projects": [], "coding_time_seconds": 0, "coding_time_seconds_today": 0, "balance": "You need to have a pocket watcher badge to view this.", "badges": [], "created_at": "2025-06-23T14:20:57.404-04:00", "updated_at": "2025-07-04T08:28:07.285-04:00", "avatar": "https://secure.gravatar.com/avatar/ec96bf06e154b361073ff168c76fdfc5.jpg?s=512&d=https%3A%2F%2Fa.slack-edge.com%2Fdf10d%2Fimg%2Favatars%2Fava_0012-512.png", "custom_css": null}, {"id": 11842, "slack_id": "U0928PUCRKR", "display_name": "Elliot Koon", "bio": null, "projects_count": 1, "devlogs_count": 1, "votes_count": 0, "ships_count": 0, "projects": [{"id": 3257, "title": "casino", "devlogs_count": 1, "created_at": "2025-06-23T15:48:31.882-04:00"}], "coding_time_seconds": 18673, "coding_time_seconds_today": 0, "balance": "You need to have a pocket watcher badge to view this.", "badges": [], "created_at": "2025-06-23T14:25:33.367-04:00", "updated_at": "2025-07-03T20:01:34.146-04:00", "avatar": "https://avatars.slack-edge.com/2025-06-23/9113531844928_02f5095d9b42bab2d39b_original.png", "custom_css": null}, {"id": 11843, "slack_id": "U0928Q3AEAK", "display_name": "Benkralex", "bio": "", "projects_count": 5, "devlogs_count": 81, "votes_count": 105, "ships_count": 4, "projects": [{"id": 3432, "title": "Werewolf App", "devlogs_count": 10, "created_at": "2025-06-24T08:03:52.261-04:00"}, {"id": 7022, "title": "Quiz App", "devlogs_count": 3, "created_at": "2025-07-18T09:50:51.374-04:00"}, {"id": 8587, "title": "PartyGames", "devlogs_count": 29, "created_at": "2025-07-28T10:46:21.231-04:00"}, {"id": 3917, "title": "Socius", "devlogs_count": 37, "created_at": "2025-06-26T10:18:04.456-04:00"}, {"id": 13395, "title": "mitbring-listen", "devlogs_count": 1, "created_at": "2025-09-15T09:26:18.990-04:00"}], "coding_time_seconds": 449244, "coding_time_seconds_today": 0, "balance": "You need to have a pocket watcher badge to view this.", "badges": [{"name": "Maiden Voyage", "text": "you shipped your first project! the journey begins...", "icon": "\ud83d\udea2"}, {"name": "Ballot Stuffer", "text": "vote 100 times.", "icon": "https://summer.hackclub.com/assets/i_voted-bf851b48.png"}], "created_at": "2025-06-23T14:27:44.466-04:00", "updated_at": "2025-09-10T22:57:05.930-04:00", "avatar": "https://secure.gravatar.com/avatar/3575b96752c2ee05e0360f8039b26ee2.jpg?s=512&d=https%3A%2F%2Fa.slack-edge.com%2Fdf10d%2Fimg%2Favatars%2Fava_0011-512.png", "custom_css": null}, {"id": 11844, "slack_id": "U0932S6DA65", "display_name": "B182", "bio": null, "projects_count": 0, "devlogs_count": 0, "votes_count": 0, "ships_count": 0, "projects": [], "coding_time_seconds": 0, "coding_time_seconds_today": 0, "balance": "You need to have a pocket watcher badge to view this.", "badges": [], "created_at": "2025-06-23T14:29:55.931-04:00", "updated_at": "2025-07-03T20:01:34.670-04:00", "avatar": "https://secure.gravatar.com/avatar/f5d052f9c5f5d2804688cd5c79438a7d.jpg?s=512&d=https%3A%2F%2Fa.slack-edge.com%2Fdf10d%2Fimg%2Favatars%2Fava_0013-512.png", "custom_css": null}, {"id": 11845, "slack_id": "U08HRAXLF2S", "display_name": "James Aitken", "bio": null, "projects_count": 0, "devlogs_count": 0, "votes_count": 0, "ships_count": 0, "projects": [], "coding_time_seconds": 0, "coding_time_seconds_today": 0, "balance": "You need to have a pocket watcher badge to view this.", "badges": [], "created_at": "2025-06-23T14:32:43.091-04:00", "updated_at": "2025-07-03T20:01:34.932-04:00", "avatar": "https://avatars.slack-edge.com/2025-03-16/8632051786736_3fa3a1f3f9b5c478609e_original.png", "custom_css": null}, {"id": 11846, "slack_id": "U0928R2L93R", "display_name": "Jeremiah", "bio": null, "projects_count": 3, "devlogs_count": 27, "votes_count": 21, "ships_count": 1, "projects": [{"id": 3245, "title": "PalTCG", "devlogs_count": 17, "created_at": "2025-06-23T14:46:57.514-04:00"}, {"id": 3285, "title": "PortfolioSite", "devlogs_count": 6, "created_at": "2025-06-23T16:59:43.728-04:00"}, {"id": 9321, "title": "GMTK 2025", "devlogs_count": 4, "created_at": "2025-07-31T14:47:00.283-04:00"}], "coding_time_seconds": 301794, "coding_time_seconds_today": 0, "balance": "You need to have a pocket watcher badge to view this.", "badges": [{"name": "Maiden Voyage", "text": "you shipped your first project! the journey begins...", "icon": "\ud83d\udea2"}], "created_at": "2025-06-23T14:33:20.991-04:00", "updated_at": "2025-09-10T22:57:06.009-04:00", "avatar": "https://secure.gravatar.com/avatar/ea85cff5efd02673bb614df3c855372b.jpg?s=512&d=https%3A%2F%2Fa.slack-edge.com%2Fdf10d%2Fimg%2Favatars%2Fava_0006-512.png", "custom_css": null}, {"id": 11847, "slack_id": "U08FBR3LYG0", "display_name": "Ashray Gowda", "bio": null, "projects_count": 0, "devlogs_count": 0, "votes_count": 0, "ships_count": 0, "projects": [], "coding_time_seconds": 0, "coding_time_seconds_today": 0, "balance": "You need to have a pocket watcher badge to view this.", "badges": [], "created_at": "2025-06-23T14:34:57.269-04:00", "updated_at": "2025-07-05T02:13:14.020-04:00", "avatar": "https://avatars.slack-edge.com/2025-02-23/8511048409553_8779168588b7fae07ab5_original.jpg", "custom_css": null}, {"id": 11848, "slack_id": "U093BFUBEBA", "display_name": "Thomas Harker", "bio": null, "projects_count": 4, "devlogs_count": 9, "votes_count": 2, "ships_count": 1, "projects": [{"id": 9476, "title": "Block game part 1", "devlogs_count": 9, "created_at": "2025-08-01T11:25:07.317-04:00"}, {"id": 11157, "title": "Python", "devlogs_count": 0, "created_at": "2025-08-13T16:25:53.097-04:00"}, {"id": 11279, "title": "MineBuild", "devlogs_count": 0, "created_at": "2025-08-14T14:20:42.679-04:00"}, {"id": 9477, "title": "Block game", "devlogs_count": 0, "created_at": "2025-08-01T11:25:07.328-04:00"}], "coding_time_seconds": 26064, "coding_time_seconds_today": 0, "balance": "You need to have a pocket watcher badge to view this.", "badges": [{"name": "Maiden Voyage", "text": "you shipped your first project! the journey begins...", "icon": "\ud83d\udea2"}], "created_at": "2025-06-23T14:36:21.338-04:00", "updated_at": "2025-09-10T22:57:06.090-04:00", "avatar": "https://secure.gravatar.com/avatar/cb0eb61620e4334389bccca8b244f389.jpg?s=512&d=https%3A%2F%2Fa.slack-edge.com%2Fdf10d%2Fimg%2Favatars%2Fava_0016-512.png", "custom_css": null}, {"id": 11849, "slack_id": "U06TS088L0P", "display_name": "Eli D", "bio": null, "projects_count": 1, "devlogs_count": 2, "votes_count": 0, "ships_count": 0, "projects": [{"id": 3246, "title": "NinjaCleanup", "devlogs_count": 2, "created_at": "2025-06-23T14:47:07.681-04:00"}], "coding_time_seconds": 62350, "coding_time_seconds_today": 0, "balance": "You need to have a pocket watcher badge to view this.", "badges": [], "created_at": "2025-06-23T14:38:25.739-04:00", "updated_at": "2025-07-03T20:01:35.861-04:00", "avatar": "https://avatars.slack-edge.com/2024-06-10/7247848638182_4c588d89954b0a01bb29_original.png", "custom_css": null}, {"id": 11850, "slack_id": "U092HKPGNGN", "display_name": "Ahmed kharboush", "bio": null, "projects_count": 0, "devlogs_count": 0, "votes_count": 0, "ships_count": 0, "projects": [], "coding_time_seconds": 0, "coding_time_seconds_today": 0, "balance": "You need to have a pocket watcher badge to view this.", "badges": [], "created_at": "2025-06-23T14:38:36.650-04:00", "updated_at": "2025-07-03T22:02:35.335-04:00", "avatar": "https://avatars.slack-edge.com/2025-06-23/9084549080291_ab6aa3428127233a878b_original.png", "custom_css": null}, {"id": 11851, "slack_id": "U092N18ES69", "display_name": "Sourashis Das", "bio": null, "projects_count": 0, "devlogs_count": 0, "votes_count": 0, "ships_count": 0, "projects": [], "coding_time_seconds": 0, "coding_time_seconds_today": 0, "balance": "You need to have a pocket watcher badge to view this.", "badges": [], "created_at": "2025-06-23T14:41:30.322-04:00", "updated_at": "2025-07-03T20:01:36.273-04:00", "avatar": "https://secure.gravatar.com/avatar/e1e15a6d6ab586aa9d575e7a51c9ec59.jpg?s=512&d=https%3A%2F%2Fa.slack-edge.com%2Fdf10d%2Fimg%2Favatars%2Fava_0013-512.png", "custom_css": null}, {"id": 11852, "slack_id": "U093BJCBE1W", "display_name": "Hady Elsayed", "bio": null, "projects_count": 0, "devlogs_count": 0, "votes_count": 0, "ships_count": 0, "projects": [], "coding_time_seconds": 13134, "coding_time_seconds_today": 0, "balance": "You need to have a pocket watcher badge to view this.", "badges": [], "created_at": "2025-06-23T14:45:39.041-04:00", "updated_at": "2025-07-03T20:01:36.542-04:00", "avatar": "https://secure.gravatar.com/avatar/72457e28e57eef7024e473dd7cd20f0c.jpg?s=512&d=https%3A%2F%2Fa.slack-edge.com%2Fdf10d%2Fimg%2Favatars%2Fava_0020-512.png", "custom_css": null}, {"id": 11853, "slack_id": "U0928TBDL2K", "display_name": "adwadawdwadawdwad", "bio": null, "projects_count": 0, "devlogs_count": 0, "votes_count": 0, "ships_count": 0, "projects": [], "coding_time_seconds": 0, "coding_time_seconds_today": 0, "balance": "You need to have a pocket watcher badge to view this.", "badges": [], "created_at": "2025-06-23T14:48:01.163-04:00", "updated_at": "2025-07-03T20:01:36.841-04:00", "avatar": "https://secure.gravatar.com/avatar/b5a31a5b7dfde816ff7c25c5b2615027.jpg?s=512&d=https%3A%2F%2Fa.slack-edge.com%2Fdf10d%2Fimg%2Favatars%2Fava_0009-512.png", "custom_css": null}, {"id": 11854, "slack_id": "U093BLCMDPA", "display_name": "Jade", "bio": null, "projects_count": 0, "devlogs_count": 0, "votes_count": 0, "ships_count": 0, "projects": [], "coding_time_seconds": 419, "coding_time_seconds_today": 0, "balance": "You need to have a pocket watcher badge to view this.", "badges": [], "created_at": "2025-06-23T15:01:42.925-04:00", "updated_at": "2025-07-03T20:01:37.123-04:00", "avatar": "https://secure.gravatar.com/avatar/7c7058c1f6f85687f20c3e7afd286160.jpg?s=512&d=https%3A%2F%2Fa.slack-edge.com%2Fdf10d%2Fimg%2Favatars%2Fava_0007-512.png", "custom_css": null}, {"id": 11855, "slack_id": "U07RNHWRZ1S", "display_name": "erne", "bio": null, "projects_count": 0, "devlogs_count": 0, "votes_count": 0, "ships_count": 0, "projects": [], "coding_time_seconds": 9890, "coding_time_seconds_today": 0, "balance": "You need to have a pocket watcher badge to view this.", "badges": [], "created_at": "2025-06-23T15:08:40.542-04:00", "updated_at": "2025-07-03T20:01:37.469-04:00", "avatar": "https://avatars.slack-edge.com/2024-10-12/7855729467927_cb32ccbcad94cef5f863_original.png", "custom_css": null}, {"id": 11856, "slack_id": "U092M782WJZ", "display_name": "Teddy Hunt", "bio": null, "projects_count": 3, "devlogs_count": 7, "votes_count": 1, "ships_count": 0, "projects": [{"id": 3727, "title": "Dino Destroyer", "devlogs_count": 5, "created_at": "2025-06-25T12:06:30.699-04:00"}, {"id": 4037, "title": "Portfolio", "devlogs_count": 1, "created_at": "2025-06-27T02:32:26.201-04:00"}, {"id": 4743, "title": "Make Waves", "devlogs_count": 1, "created_at": "2025-07-01T10:17:08.943-04:00"}], "coding_time_seconds": 65049, "coding_time_seconds_today": 0, "balance": "You need to have a pocket watcher badge to view this.", "badges": [], "created_at": "2025-06-23T15:09:16.067-04:00", "updated_at": "2025-07-03T22:02:35.829-04:00", "avatar": "https://secure.gravatar.com/avatar/909460f569dfd23b6215ce15d67f4b52.jpg?s=512&d=https%3A%2F%2Fa.slack-edge.com%2Fdf10d%2Fimg%2Favatars%2Fava_0014-512.png", "custom_css": null}, {"id": 11857, "slack_id": "U09290S62S3", "display_name": "Nate", "bio": null, "projects_count": 0, "devlogs_count": 0, "votes_count": 0, "ships_count": 0, "projects": [], "coding_time_seconds": 6554, "coding_time_seconds_today": 0, "balance": "You need to have a pocket watcher badge to view this.", "badges": [], "created_at": "2025-06-23T15:10:17.672-04:00", "updated_at": "2025-07-03T20:01:37.867-04:00", "avatar": "https://secure.gravatar.com/avatar/cd2d53032d1b0d2975e8c492f4439c09.jpg?s=512&d=https%3A%2F%2Fa.slack-edge.com%2Fdf10d%2Fimg%2Favatars%2Fava_0013-512.png", "custom_css": null}, {"id": 11858, "slack_id": "U08M1F0MHRS", "display_name": "Benjamin Ginsburg", "bio": null, "projects_count": 0, "devlogs_count": 0, "votes_count": 0, "ships_count": 0, "projects": [], "coding_time_seconds": 0, "coding_time_seconds_today": 0, "balance": "You need to have a pocket watcher badge to view this.", "badges": [], "created_at": "2025-06-23T15:12:06.650-04:00", "updated_at": "2025-07-03T20:01:38.132-04:00", "avatar": "https://secure.gravatar.com/avatar/1d2609c46e2317f2d9b6044a91baa531.jpg?s=512&d=https%3A%2F%2Fa.slack-edge.com%2Fdf10d%2Fimg%2Favatars%2Fava_0014-512.png", "custom_css": null}, {"id": 11859, "slack_id": "U092927MPHD", "display_name": "teszt", "bio": null, "projects_count": 0, "devlogs_count": 0, "votes_count": 0, "ships_count": 0, "projects": [], "coding_time_seconds": 0, "coding_time_seconds_today": 0, "balance": "You need to have a pocket watcher badge to view this.", "badges": [], "created_at": "2025-06-23T15:16:44.568-04:00", "updated_at": "2025-07-03T20:01:38.404-04:00", "avatar": "https://secure.gravatar.com/avatar/5af0aa67fa37265243ccf9dac0705846.jpg?s=512&d=https%3A%2F%2Fa.slack-edge.com%2Fdf10d%2Fimg%2Favatars%2Fava_0005-512.png", "custom_css": null}, {"id": 11860, "slack_id": "U092HSDB23Y", "display_name": "Bogdan", "bio": null, "projects_count": 0, "devlogs_count": 0, "votes_count": 0, "ships_count": 0, "projects": [], "coding_time_seconds": 0, "coding_time_seconds_today": 0, "balance": "You need to have a pocket watcher badge to view this.", "badges": [], "created_at": "2025-06-23T15:23:27.484-04:00", "updated_at": "2025-07-03T20:01:38.664-04:00", "avatar": "https://secure.gravatar.com/avatar/feb575de5e8515d177fa17a9475a578b.jpg?s=512&d=https%3A%2F%2Fa.slack-edge.com%2Fdf10d%2Fimg%2Favatars%2Fava_0024-512.png", "custom_css": null}], "pagination": {"page": 593, "pages": 1192, "count": 23828, "items": 20}}