{"users": [{"id": 11861, "slack_id": "U092N7G9NJH", "display_name": "stella zeng", "bio": null, "projects_count": 0, "devlogs_count": 0, "votes_count": 0, "ships_count": 0, "projects": [], "coding_time_seconds": 0, "coding_time_seconds_today": 0, "balance": "You need to have a pocket watcher badge to view this.", "badges": [], "created_at": "2025-06-23T15:25:45.258-04:00", "updated_at": "2025-07-03T20:01:38.930-04:00", "avatar": "https://avatars.slack-edge.com/2025-06-23/9113851688848_ffc886e98f3b1216aefa_original.png", "custom_css": null}, {"id": 11862, "slack_id": "U092N7F9XK7", "display_name": "Favour Akpasi", "bio": null, "projects_count": 0, "devlogs_count": 0, "votes_count": 0, "ships_count": 0, "projects": [], "coding_time_seconds": 0, "coding_time_seconds_today": 0, "balance": "You need to have a pocket watcher badge to view this.", "badges": [], "created_at": "2025-06-23T15:25:50.145-04:00", "updated_at": "2025-07-03T20:01:39.193-04:00", "avatar": "https://avatars.slack-edge.com/2025-06-23/9113850907968_7e96b88c78a301be6596_original.jpg", "custom_css": null}, {"id": 11863, "slack_id": "U09293WTT7H", "display_name": "urvashiba parmar", "bio": null, "projects_count": 0, "devlogs_count": 0, "votes_count": 0, "ships_count": 0, "projects": [], "coding_time_seconds": 0, "coding_time_seconds_today": 0, "balance": "You need to have a pocket watcher badge to view this.", "badges": [], "created_at": "2025-06-23T15:33:46.753-04:00", "updated_at": "2025-07-03T20:01:39.459-04:00", "avatar": "https://secure.gravatar.com/avatar/e3d31356ee43c71c30e1f0164268c4cb.jpg?s=512&d=https%3A%2F%2Fa.slack-edge.com%2Fdf10d%2Fimg%2Favatars%2Fava_0012-512.png", "custom_css": null}, {"id": 11864, "slack_id": "U092N5DCU0M", "display_name": "Emerson Ni", "bio": null, "projects_count": 0, "devlogs_count": 0, "votes_count": 0, "ships_count": 0, "projects": [], "coding_time_seconds": 0, "coding_time_seconds_today": 0, "balance": "You need to have a pocket watcher badge to view this.", "badges": [], "created_at": "2025-06-23T15:40:56.679-04:00", "updated_at": "2025-07-03T20:01:39.723-04:00", "avatar": "https://secure.gravatar.com/avatar/f8ffaaee02e0dba9b5955887f511f714.jpg?s=512&d=https%3A%2F%2Fa.slack-edge.com%2Fdf10d%2Fimg%2Favatars%2Fava_0025-512.png", "custom_css": null}, {"id": 11865, "slack_id": "U0929GM7CG6", "display_name": "Ying", "bio": null, "projects_count": 0, "devlogs_count": 0, "votes_count": 0, "ships_count": 0, "projects": [], "coding_time_seconds": 0, "coding_time_seconds_today": 0, "balance": "You need to have a pocket watcher badge to view this.", "badges": [], "created_at": "2025-06-23T15:42:23.007-04:00", "updated_at": "2025-07-03T20:01:39.990-04:00", "avatar": "https://secure.gravatar.com/avatar/782862ac6ea826d525361d923c431e93.jpg?s=512&d=https%3A%2F%2Fa.slack-edge.com%2Fdf10d%2Fimg%2Favatars%2Fava_0017-512.png", "custom_css": null}, {"id": 11866, "slack_id": "U09338XQJ9X", "display_name": "Nabhya", "bio": null, "projects_count": 0, "devlogs_count": 0, "votes_count": 0, "ships_count": 0, "projects": [], "coding_time_seconds": 0, "coding_time_seconds_today": 0, "balance": "You need to have a pocket watcher badge to view this.", "badges": [], "created_at": "2025-06-23T15:46:19.886-04:00", "updated_at": "2025-07-03T20:01:40.256-04:00", "avatar": "https://secure.gravatar.com/avatar/a529ed8cb9de28f60e0481e12cd8c19d.jpg?s=512&d=https%3A%2F%2Fa.slack-edge.com%2Fdf10d%2Fimg%2Favatars%2Fava_0010-512.png", "custom_css": null}, {"id": 11867, "slack_id": "U092Y2SMSHX", "display_name": "Arian", "bio": null, "projects_count": 0, "devlogs_count": 0, "votes_count": 0, "ships_count": 0, "projects": [], "coding_time_seconds": 0, "coding_time_seconds_today": 0, "balance": "You need to have a pocket watcher badge to view this.", "badges": [], "created_at": "2025-06-23T15:50:24.629-04:00", "updated_at": "2025-07-03T20:01:40.526-04:00", "avatar": "https://secure.gravatar.com/avatar/f2d2f9efb35850f9b1568d9f631f59d5.jpg?s=512&d=https%3A%2F%2Fa.slack-edge.com%2Fdf10d%2Fimg%2Favatars%2Fava_0026-512.png", "custom_css": null}, {"id": 11868, "slack_id": "U092J15L6H4", "display_name": "Austin", "bio": null, "projects_count": 2, "devlogs_count": 18, "votes_count": 21, "ships_count": 1, "projects": [{"id": 3278, "title": "enodo", "devlogs_count": 17, "created_at": "2025-06-23T16:31:00.151-04:00"}, {"id": 11625, "title": "libhtcpcp", "devlogs_count": 1, "created_at": "2025-08-17T20:41:25.716-04:00"}], "coding_time_seconds": 220691, "coding_time_seconds_today": 0, "balance": "You need to have a pocket watcher badge to view this.", "badges": [{"name": "Maiden Voyage", "text": "you shipped your first project! the journey begins...", "icon": "\ud83d\udea2"}], "created_at": "2025-06-23T15:54:29.585-04:00", "updated_at": "2025-09-10T22:57:06.798-04:00", "avatar": "https://avatars.slack-edge.com/2025-06-23/9078252752919_5cc36e73375f5070c351_original.jpg", "custom_css": null}, {"id": 11869, "slack_id": "U092PPVAH8U", "display_name": "corped", "bio": null, "projects_count": 0, "devlogs_count": 0, "votes_count": 0, "ships_count": 0, "projects": [], "coding_time_seconds": 0, "coding_time_seconds_today": 0, "balance": "You need to have a pocket watcher badge to view this.", "badges": [], "created_at": "2025-06-23T15:54:44.598-04:00", "updated_at": "2025-07-03T20:01:41.055-04:00", "avatar": "https://secure.gravatar.com/avatar/572cbf7e363c3b19932fda18790fbc3a.jpg?s=512&d=https%3A%2F%2Fa.slack-edge.com%2Fdf10d%2Fimg%2Favatars%2Fava_0009-512.png", "custom_css": null}, {"id": 11870, "slack_id": "U079XM9PARJ", "display_name": "_Dread", "bio": null, "projects_count": 0, "devlogs_count": 0, "votes_count": 0, "ships_count": 0, "projects": [], "coding_time_seconds": 110728, "coding_time_seconds_today": 0, "balance": "You need to have a pocket watcher badge to view this.", "badges": [], "created_at": "2025-06-23T15:54:49.082-04:00", "updated_at": "2025-08-20T19:59:43.970-04:00", "avatar": "https://avatars.slack-edge.com/2025-07-11/9185840264341_741c6a1182be2d5b8c6b_original.jpg", "custom_css": null}, {"id": 11871, "slack_id": "U07AH5SMD98", "display_name": "bo", "bio": null, "projects_count": 0, "devlogs_count": 0, "votes_count": 0, "ships_count": 0, "projects": [], "coding_time_seconds": 0, "coding_time_seconds_today": 0, "balance": "You need to have a pocket watcher badge to view this.", "badges": [], "created_at": "2025-06-23T15:57:42.167-04:00", "updated_at": "2025-07-03T20:01:41.457-04:00", "avatar": "https://avatars.slack-edge.com/2024-07-01/7369893290049_af1fd3f43277a77e20e5_original.jpg", "custom_css": null}, {"id": 11872, "slack_id": "U09207EJZ6K", "display_name": "Li Yang", "bio": null, "projects_count": 0, "devlogs_count": 0, "votes_count": 0, "ships_count": 0, "projects": [], "coding_time_seconds": 0, "coding_time_seconds_today": 0, "balance": "You need to have a pocket watcher badge to view this.", "badges": [], "created_at": "2025-06-23T15:57:56.309-04:00", "updated_at": "2025-07-03T20:01:41.731-04:00", "avatar": "https://secure.gravatar.com/avatar/ec6f4e11d69fc1b5801ad2edfa5212a3.jpg?s=512&d=https%3A%2F%2Fa.slack-edge.com%2Fdf10d%2Fimg%2Favatars%2Fava_0004-512.png", "custom_css": null}, {"id": 11873, "slack_id": "U0933BZM2QH", "display_name": "Flopper1_", "bio": null, "projects_count": 0, "devlogs_count": 0, "votes_count": 0, "ships_count": 0, "projects": [], "coding_time_seconds": 0, "coding_time_seconds_today": 0, "balance": "You need to have a pocket watcher badge to view this.", "badges": [], "created_at": "2025-06-23T16:05:06.468-04:00", "updated_at": "2025-07-03T20:01:41.998-04:00", "avatar": "https://secure.gravatar.com/avatar/035ba51ac4bce075ac16832edb1e3427.jpg?s=512&d=https%3A%2F%2Fa.slack-edge.com%2Fdf10d%2Fimg%2Favatars%2Fava_0010-512.png", "custom_css": null}, {"id": 11874, "slack_id": "U092PSPFSBC", "display_name": "Yazad Hilloowala", "bio": null, "projects_count": 0, "devlogs_count": 0, "votes_count": 0, "ships_count": 0, "projects": [], "coding_time_seconds": 0, "coding_time_seconds_today": 0, "balance": "You need to have a pocket watcher badge to view this.", "badges": [], "created_at": "2025-06-23T16:15:51.387-04:00", "updated_at": "2025-07-05T20:13:39.123-04:00", "avatar": "https://secure.gravatar.com/avatar/47cfd49726e01abde50376b6edd338e6.jpg?s=512&d=https%3A%2F%2Fa.slack-edge.com%2Fdf10d%2Fimg%2Favatars%2Fava_0004-512.png", "custom_css": null}, {"id": 11875, "slack_id": "U093C2RJ4M6", "display_name": "Glory Kanana", "bio": null, "projects_count": 0, "devlogs_count": 0, "votes_count": 0, "ships_count": 0, "projects": [], "coding_time_seconds": 0, "coding_time_seconds_today": 0, "balance": "You need to have a pocket watcher badge to view this.", "badges": [], "created_at": "2025-06-23T16:17:38.672-04:00", "updated_at": "2025-07-23T08:11:58.324-04:00", "avatar": "https://secure.gravatar.com/avatar/4c7ab66be75996af541f56e42d9c3c0d.jpg?s=512&d=https%3A%2F%2Fa.slack-edge.com%2Fdf10d%2Fimg%2Favatars%2Fava_0013-512.png", "custom_css": null}, {"id": 11876, "slack_id": "U092H0YBPJ7", "display_name": "Aiden", "bio": null, "projects_count": 2, "devlogs_count": 0, "votes_count": 0, "ships_count": 0, "projects": [{"id": 11435, "title": "Particle Life", "devlogs_count": 0, "created_at": "2025-08-15T21:58:12.519-04:00"}, {"id": 12061, "title": "Learning Audio Visualizers", "devlogs_count": 0, "created_at": "2025-08-22T13:59:43.418-04:00"}], "coding_time_seconds": 54342, "coding_time_seconds_today": 0, "balance": "You need to have a pocket watcher badge to view this.", "badges": [], "created_at": "2025-06-23T16:25:14.584-04:00", "updated_at": "2025-08-16T03:00:13.536-04:00", "avatar": "https://secure.gravatar.com/avatar/4c14dce905a8ee92488dcac907c9e318.jpg?s=512&d=https%3A%2F%2Fa.slack-edge.com%2Fdf10d%2Fimg%2Favatars%2Fava_0017-512.png", "custom_css": null}, {"id": 11877, "slack_id": "U06DRG3L7AN", "display_name": "Siwen", "bio": null, "projects_count": 1, "devlogs_count": 13, "votes_count": 21, "ships_count": 1, "projects": [{"id": 8702, "title": "Co-Sketch", "devlogs_count": 13, "created_at": "2025-07-29T01:21:59.909-04:00"}], "coding_time_seconds": 448117, "coding_time_seconds_today": 0, "balance": "You need to have a pocket watcher badge to view this.", "badges": [{"name": "Maiden Voyage", "text": "you shipped your first project! the journey begins...", "icon": "\ud83d\udea2"}], "created_at": "2025-06-23T16:29:55.598-04:00", "updated_at": "2025-09-10T22:57:07.097-04:00", "avatar": "https://avatars.slack-edge.com/2025-03-09/8558854988807_928309f35f6371bfe87e_original.png", "custom_css": null}, {"id": 11878, "slack_id": "U0762Q95HQA", "display_name": "Aubree", "bio": null, "projects_count": 1, "devlogs_count": 1, "votes_count": 0, "ships_count": 0, "projects": [{"id": 8251, "title": "WatchQueuer", "devlogs_count": 1, "created_at": "2025-07-25T17:11:26.555-04:00"}], "coding_time_seconds": 101129, "coding_time_seconds_today": 0, "balance": "You need to have a pocket watcher badge to view this.", "badges": [], "created_at": "2025-06-23T16:37:35.828-04:00", "updated_at": "2025-07-03T20:01:43.088-04:00", "avatar": "https://secure.gravatar.com/avatar/e8066e75fcb170832b46976aed32ae9e.jpg?s=512&d=https%3A%2F%2Fa.slack-edge.com%2Fdf10d%2Fimg%2Favatars%2Fava_0014-512.png", "custom_css": null}, {"id": 11879, "slack_id": "U092J7619CN", "display_name": "sub", "bio": null, "projects_count": 4, "devlogs_count": 21, "votes_count": 87, "ships_count": 4, "projects": [{"id": 3297, "title": "Midday", "devlogs_count": 2, "created_at": "2025-06-23T17:41:43.187-04:00"}, {"id": 3328, "title": "AccessEverything - ACE", "devlogs_count": 9, "created_at": "2025-06-23T20:44:55.066-04:00"}, {"id": 8648, "title": "NoNet", "devlogs_count": 6, "created_at": "2025-07-28T19:09:18.051-04:00"}, {"id": 8767, "title": "THE", "devlogs_count": 4, "created_at": "2025-07-29T07:37:50.091-04:00"}], "coding_time_seconds": 465395, "coding_time_seconds_today": 1752, "balance": "You need to have a pocket watcher badge to view this.", "badges": [{"name": "Maiden Voyage", "text": "you shipped your first project! the journey begins...", "icon": "\ud83d\udea2"}, {"name": "Ballot Stuffer", "text": "vote 100 times.", "icon": "https://summer.hackclub.com/assets/i_voted-bf851b48.png"}], "created_at": "2025-06-23T16:42:09.860-04:00", "updated_at": "2025-09-10T22:57:07.169-04:00", "avatar": "https://secure.gravatar.com/avatar/afe2607728f55f53566ba05986309fc7.jpg?s=512&d=https%3A%2F%2Fa.slack-edge.com%2Fdf10d%2Fimg%2Favatars%2Fava_0014-512.png", "custom_css": null}, {"id": 11880, "slack_id": "U091R7U4ZB4", "display_name": "Daniel Ganjali", "bio": null, "projects_count": 0, "devlogs_count": 0, "votes_count": 0, "ships_count": 0, "projects": [], "coding_time_seconds": 0, "coding_time_seconds_today": 0, "balance": "You need to have a pocket watcher badge to view this.", "badges": [], "created_at": "2025-06-23T16:47:49.188-04:00", "updated_at": "2025-07-03T20:01:43.617-04:00", "avatar": "https://secure.gravatar.com/avatar/ac4ff987da30e69ec85073080c4a0dd9.jpg?s=512&d=https%3A%2F%2Fa.slack-edge.com%2Fdf10d%2Fimg%2Favatars%2Fava_0007-512.png", "custom_css": null}], "pagination": {"page": 594, "pages": 1192, "count": 23828, "items": 20}}