{"users": [{"id": 11881, "slack_id": "U07AP9P4E73", "display_name": "kevin", "bio": null, "projects_count": 0, "devlogs_count": 0, "votes_count": 0, "ships_count": 0, "projects": [], "coding_time_seconds": 0, "coding_time_seconds_today": 0, "balance": "You need to have a pocket watcher badge to view this.", "badges": [], "created_at": "2025-06-23T16:54:01.499-04:00", "updated_at": "2025-07-03T20:01:43.883-04:00", "avatar": "https://avatars.slack-edge.com/2024-06-28/7350595540691_72231cf706d63e3c9015_original.png", "custom_css": null}, {"id": 11882, "slack_id": "U07FHA3HFU3", "display_name": "JillO", "bio": null, "projects_count": 2, "devlogs_count": 2, "votes_count": 0, "ships_count": 0, "projects": [{"id": 3517, "title": "filter-less", "devlogs_count": 0, "created_at": "2025-06-24T14:51:53.134-04:00"}, {"id": 3509, "title": "Volume", "devlogs_count": 2, "created_at": "2025-06-24T14:27:03.551-04:00"}], "coding_time_seconds": 3075, "coding_time_seconds_today": 0, "balance": "You need to have a pocket watcher badge to view this.", "badges": [], "created_at": "2025-06-23T17:04:40.040-04:00", "updated_at": "2025-07-04T08:28:09.994-04:00", "avatar": "https://avatars.slack-edge.com/2024-08-05/7532719844756_2f024fdac2bfe6093bc4_original.jpg", "custom_css": null}, {"id": 11883, "slack_id": "U08SJ788PQB", "display_name": "David Li", "bio": null, "projects_count": 0, "devlogs_count": 0, "votes_count": 0, "ships_count": 0, "projects": [], "coding_time_seconds": 176663, "coding_time_seconds_today": 0, "balance": "You need to have a pocket watcher badge to view this.", "badges": [], "created_at": "2025-06-23T17:07:01.545-04:00", "updated_at": "2025-07-03T20:01:44.281-04:00", "avatar": "https://avatars.slack-edge.com/2025-05-16/8902689531523_da34096bf411228e17d5_original.png", "custom_css": null}, {"id": 11884, "slack_id": "U092QKTFXGC", "display_name": "amy nix", "bio": null, "projects_count": 0, "devlogs_count": 0, "votes_count": 0, "ships_count": 0, "projects": [], "coding_time_seconds": 0, "coding_time_seconds_today": 0, "balance": "You need to have a pocket watcher badge to view this.", "badges": [], "created_at": "2025-06-23T17:07:05.792-04:00", "updated_at": "2025-07-03T20:01:44.543-04:00", "avatar": "https://secure.gravatar.com/avatar/4cda1d3fea2d415522afd632408f9a42.jpg?s=512&d=https%3A%2F%2Fa.slack-edge.com%2Fdf10d%2Fimg%2Favatars%2Fava_0017-512.png", "custom_css": null}, {"id": 11885, "slack_id": "U07B7J9BHAT", "display_name": "Holly", "bio": null, "projects_count": 0, "devlogs_count": 0, "votes_count": 0, "ships_count": 0, "projects": [], "coding_time_seconds": 0, "coding_time_seconds_today": 0, "balance": "You need to have a pocket watcher badge to view this.", "badges": [], "created_at": "2025-06-23T17:07:34.208-04:00", "updated_at": "2025-08-11T03:02:26.006-04:00", "avatar": "https://avatars.slack-edge.com/2025-08-11/9336492513636_3dd4ff30002dbd84a3a1_original.png", "custom_css": null}, {"id": 11886, "slack_id": "U091857JME3", "display_name": "Daniel", "bio": null, "projects_count": 0, "devlogs_count": 0, "votes_count": 0, "ships_count": 0, "projects": [], "coding_time_seconds": 0, "coding_time_seconds_today": 0, "balance": "You need to have a pocket watcher badge to view this.", "badges": [], "created_at": "2025-06-23T17:18:15.387-04:00", "updated_at": "2025-07-17T15:33:12.281-04:00", "avatar": "https://secure.gravatar.com/avatar/13431d8131bd6267322efec2e0101dfc.jpg?s=512&d=https%3A%2F%2Fa.slack-edge.com%2Fdf10d%2Fimg%2Favatars%2Fava_0005-512.png", "custom_css": null}, {"id": 11887, "slack_id": "U0926QA2FT5", "display_name": "Daniel", "bio": null, "projects_count": 0, "devlogs_count": 0, "votes_count": 0, "ships_count": 0, "projects": [], "coding_time_seconds": 0, "coding_time_seconds_today": 0, "balance": "You need to have a pocket watcher badge to view this.", "badges": [], "created_at": "2025-06-23T17:19:31.656-04:00", "updated_at": "2025-07-03T20:01:45.203-04:00", "avatar": "https://secure.gravatar.com/avatar/45cc3cd7f1f70487aa9bf8953399d437.jpg?s=512&d=https%3A%2F%2Fa.slack-edge.com%2Fdf10d%2Fimg%2Favatars%2Fava_0007-512.png", "custom_css": null}, {"id": 11888, "slack_id": "U08TFRHQ37G", "display_name": "Bala", "bio": null, "projects_count": 0, "devlogs_count": 0, "votes_count": 0, "ships_count": 0, "projects": [], "coding_time_seconds": 0, "coding_time_seconds_today": 0, "balance": "You need to have a pocket watcher badge to view this.", "badges": [], "created_at": "2025-06-23T17:19:34.768-04:00", "updated_at": "2025-07-03T20:01:45.461-04:00", "avatar": "https://avatars.slack-edge.com/2025-05-25/8945478831637_cebf33a362f91c27278e_original.jpg", "custom_css": null}, {"id": 11889, "slack_id": "U092Q60C57U", "display_name": "antonio susus", "bio": null, "projects_count": 0, "devlogs_count": 0, "votes_count": 0, "ships_count": 0, "projects": [], "coding_time_seconds": 1898, "coding_time_seconds_today": 0, "balance": "You need to have a pocket watcher badge to view this.", "badges": [], "created_at": "2025-06-23T17:20:10.623-04:00", "updated_at": "2025-07-03T20:01:45.717-04:00", "avatar": "https://avatars.slack-edge.com/2025-06-23/9085278590227_7ff55dd1a443557a7432_original.png", "custom_css": null}, {"id": 11890, "slack_id": "U092NPDMMUM", "display_name": "Max", "bio": null, "projects_count": 0, "devlogs_count": 0, "votes_count": 0, "ships_count": 0, "projects": [], "coding_time_seconds": 45350, "coding_time_seconds_today": 0, "balance": "You need to have a pocket watcher badge to view this.", "badges": [], "created_at": "2025-06-23T17:30:14.895-04:00", "updated_at": "2025-07-03T20:01:45.991-04:00", "avatar": "https://secure.gravatar.com/avatar/4de19ed59e701f6a99f85c6ed0706d3e.jpg?s=512&d=https%3A%2F%2Fa.slack-edge.com%2Fdf10d%2Fimg%2Favatars%2Fava_0007-512.png", "custom_css": null}, {"id": 11891, "slack_id": "U092H3T1SH3", "display_name": "Racheal", "bio": null, "projects_count": 0, "devlogs_count": 0, "votes_count": 0, "ships_count": 0, "projects": [], "coding_time_seconds": 0, "coding_time_seconds_today": 0, "balance": "You need to have a pocket watcher badge to view this.", "badges": [], "created_at": "2025-06-23T17:31:13.585-04:00", "updated_at": "2025-07-03T20:01:46.287-04:00", "avatar": "https://secure.gravatar.com/avatar/ff284d2b202c7f2ca08b463adc1439d9.jpg?s=512&d=https%3A%2F%2Fa.slack-edge.com%2Fdf10d%2Fimg%2Favatars%2Fava_0020-512.png", "custom_css": null}, {"id": 11892, "slack_id": "U092NCELZPS", "display_name": "Soham", "bio": null, "projects_count": 0, "devlogs_count": 0, "votes_count": 0, "ships_count": 0, "projects": [], "coding_time_seconds": 8231, "coding_time_seconds_today": 0, "balance": "You need to have a pocket watcher badge to view this.", "badges": [], "created_at": "2025-06-23T17:32:55.313-04:00", "updated_at": "2025-09-12T04:01:22.162-04:00", "avatar": "https://secure.gravatar.com/avatar/facf428c40e276dc2f765eb7a891f3fd.jpg?s=512&d=https%3A%2F%2Fa.slack-edge.com%2Fdf10d%2Fimg%2Favatars%2Fava_0009-512.png", "custom_css": null}, {"id": 11893, "slack_id": "U0921Q6JFT3", "display_name": "AD", "bio": null, "projects_count": 0, "devlogs_count": 0, "votes_count": 0, "ships_count": 0, "projects": [], "coding_time_seconds": 0, "coding_time_seconds_today": 0, "balance": "You need to have a pocket watcher badge to view this.", "badges": [], "created_at": "2025-06-23T17:36:09.716-04:00", "updated_at": "2025-07-03T20:01:46.818-04:00", "avatar": "https://secure.gravatar.com/avatar/abb4f7a6d2b271d9bc3c95e5cae45aa4.jpg?s=512&d=https%3A%2F%2Fa.slack-edge.com%2Fdf10d%2Fimg%2Favatars%2Fava_0009-512.png", "custom_css": null}, {"id": 11894, "slack_id": "U092NQ8EKLM", "display_name": "Alessandro Paoli", "bio": null, "projects_count": 1, "devlogs_count": 0, "votes_count": 3, "ships_count": 0, "projects": [{"id": 4468, "title": "EnglishCrypt", "devlogs_count": 0, "created_at": "2025-06-30T05:01:48.166-04:00"}], "coding_time_seconds": 264619, "coding_time_seconds_today": 0, "balance": "You need to have a pocket watcher badge to view this.", "badges": [], "created_at": "2025-06-23T17:37:47.135-04:00", "updated_at": "2025-07-03T20:01:47.084-04:00", "avatar": "https://avatars.slack-edge.com/2025-06-23/9077727699175_8130b2f314adf1b37c98_original.png", "custom_css": null}, {"id": 11895, "slack_id": "U093CDXPP7A", "display_name": "Techy", "bio": null, "projects_count": 0, "devlogs_count": 0, "votes_count": 0, "ships_count": 0, "projects": [], "coding_time_seconds": 0, "coding_time_seconds_today": 0, "balance": "You need to have a pocket watcher badge to view this.", "badges": [], "created_at": "2025-06-23T17:40:27.166-04:00", "updated_at": "2025-07-03T20:01:47.340-04:00", "avatar": "https://secure.gravatar.com/avatar/19709eda2d2d609d1a8aca2b85caef8f.jpg?s=512&d=https%3A%2F%2Fa.slack-edge.com%2Fdf10d%2Fimg%2Favatars%2Fava_0000-512.png", "custom_css": null}, {"id": 11896, "slack_id": "U078SP6AGBF", "display_name": "toby", "bio": null, "projects_count": 0, "devlogs_count": 0, "votes_count": 0, "ships_count": 0, "projects": [], "coding_time_seconds": 0, "coding_time_seconds_today": 0, "balance": "You need to have a pocket watcher badge to view this.", "badges": [], "created_at": "2025-06-23T17:43:44.197-04:00", "updated_at": "2025-07-03T22:02:38.411-04:00", "avatar": "https://secure.gravatar.com/avatar/f1bac44d1f4c4bd632f089a89055f7ba.jpg?s=512&d=https%3A%2F%2Fa.slack-edge.com%2Fdf10d%2Fimg%2Favatars%2Fava_0016-512.png", "custom_css": null}, {"id": 11897, "slack_id": "U0794V9KDGE", "display_name": "nithinlook", "bio": null, "projects_count": 1, "devlogs_count": 12, "votes_count": 55, "ships_count": 1, "projects": [{"id": 3597, "title": "terrabats FTC robot for lobster cup super cool awesomesauce", "devlogs_count": 12, "created_at": "2025-06-24T21:41:20.627-04:00"}], "coding_time_seconds": 221532, "coding_time_seconds_today": 0, "balance": "You need to have a pocket watcher badge to view this.", "badges": [{"name": "Maiden Voyage", "text": "you shipped your first project! the journey begins...", "icon": "\ud83d\udea2"}, {"name": "No Fun", "text": "opt-out added for the whimsy-impaired", "icon": "\ud83d\udeab"}], "created_at": "2025-06-23T17:45:23.419-04:00", "updated_at": "2025-09-10T22:57:07.780-04:00", "avatar": "https://avatars.slack-edge.com/2025-06-23/9092141703282_ce271bda963c450d687c_original.png", "custom_css": null}, {"id": 11898, "slack_id": "U092S94LKME", "display_name": "Wonder Williams", "bio": null, "projects_count": 0, "devlogs_count": 0, "votes_count": 0, "ships_count": 0, "projects": [], "coding_time_seconds": 0, "coding_time_seconds_today": 0, "balance": "You need to have a pocket watcher badge to view this.", "badges": [], "created_at": "2025-06-23T17:46:29.794-04:00", "updated_at": "2025-07-03T20:01:47.996-04:00", "avatar": "https://avatars.slack-edge.com/2025-06-23/9114510886240_974f4fc107ba42b67dc9_original.jpg", "custom_css": null}, {"id": 11899, "slack_id": "U078GA30NEP", "display_name": "tpguy825", "bio": null, "projects_count": 1, "devlogs_count": 1, "votes_count": 0, "ships_count": 0, "projects": [{"id": 3406, "title": "yapper", "devlogs_count": 1, "created_at": "2025-06-24T05:01:31.731-04:00"}], "coding_time_seconds": 256241, "coding_time_seconds_today": 0, "balance": "You need to have a pocket watcher badge to view this.", "badges": [], "created_at": "2025-06-23T17:49:31.453-04:00", "updated_at": "2025-08-18T08:24:21.253-04:00", "avatar": "https://avatars.slack-edge.com/2024-06-19/7303972864436_6966265f0312cdd06c1c_original.png", "custom_css": null}, {"id": 11900, "slack_id": "U080Z75V1AB", "display_name": "Das_cold", "bio": null, "projects_count": 0, "devlogs_count": 0, "votes_count": 0, "ships_count": 0, "projects": [], "coding_time_seconds": 0, "coding_time_seconds_today": 0, "balance": "You need to have a pocket watcher badge to view this.", "badges": [], "created_at": "2025-06-23T17:51:51.987-04:00", "updated_at": "2025-07-03T20:01:48.535-04:00", "avatar": "https://avatars.slack-edge.com/2024-12-08/8165226459280_7ae173a160a368be8694_original.png", "custom_css": null}], "pagination": {"page": 595, "pages": 1192, "count": 23828, "items": 20}}