{"users": [{"id": 11901, "slack_id": "U0929NADXJT", "display_name": "Ugoeze", "bio": null, "projects_count": 0, "devlogs_count": 0, "votes_count": 0, "ships_count": 0, "projects": [], "coding_time_seconds": 0, "coding_time_seconds_today": 0, "balance": "You need to have a pocket watcher badge to view this.", "badges": [], "created_at": "2025-06-23T17:52:05.072-04:00", "updated_at": "2025-07-03T22:02:38.846-04:00", "avatar": "https://secure.gravatar.com/avatar/8390219812570f36fec7426380091704.jpg?s=512&d=https%3A%2F%2Fa.slack-edge.com%2Fdf10d%2Fimg%2Favatars%2Fava_0005-512.png", "custom_css": null}, {"id": 11902, "slack_id": "U091P7P6W7L", "display_name": "PRABHU JYOTI PALAI", "bio": null, "projects_count": 0, "devlogs_count": 0, "votes_count": 0, "ships_count": 0, "projects": [], "coding_time_seconds": 387, "coding_time_seconds_today": 0, "balance": "You need to have a pocket watcher badge to view this.", "badges": [], "created_at": "2025-06-23T17:53:31.811-04:00", "updated_at": "2025-07-03T20:01:49.031-04:00", "avatar": "https://avatars.slack-edge.com/2025-06-23/9114535643168_61b5afd98e15180859f7_original.jpg", "custom_css": null}, {"id": 11903, "slack_id": "U091H3VUC2F", "display_name": "Octavio Alonso L\u00f3pez Guerrero", "bio": null, "projects_count": 0, "devlogs_count": 0, "votes_count": 0, "ships_count": 0, "projects": [], "coding_time_seconds": 0, "coding_time_seconds_today": 0, "balance": "You need to have a pocket watcher badge to view this.", "badges": [], "created_at": "2025-06-23T18:04:45.664-04:00", "updated_at": "2025-07-05T02:13:17.795-04:00", "avatar": "https://avatars.slack-edge.com/2025-06-23/9105960011841_a3d246efd60b540a498f_original.jpg", "custom_css": null}, {"id": 11904, "slack_id": "U093CGL9C7J", "display_name": "Tony Teets", "bio": null, "projects_count": 0, "devlogs_count": 0, "votes_count": 0, "ships_count": 0, "projects": [], "coding_time_seconds": 0, "coding_time_seconds_today": 0, "balance": "You need to have a pocket watcher badge to view this.", "badges": [], "created_at": "2025-06-23T18:04:55.386-04:00", "updated_at": "2025-07-03T20:01:49.438-04:00", "avatar": "https://secure.gravatar.com/avatar/4ca187bc3eb19a6bebb9a109519c9be2.jpg?s=512&d=https%3A%2F%2Fa.slack-edge.com%2Fdf10d%2Fimg%2Favatars%2Fava_0007-512.png", "custom_css": null}, {"id": 11905, "slack_id": "U092Q8TUZDY", "display_name": "R. Henry Warren", "bio": null, "projects_count": 6, "devlogs_count": 3, "votes_count": 3, "ships_count": 0, "projects": [{"id": 7289, "title": "RED", "devlogs_count": 0, "created_at": "2025-07-20T16:58:47.870-04:00"}, {"id": 7290, "title": "AXIOM Browser", "devlogs_count": 1, "created_at": "2025-07-20T17:01:41.087-04:00"}, {"id": 7291, "title": "My Site (rhw.one)", "devlogs_count": 1, "created_at": "2025-07-20T17:03:23.445-04:00"}, {"id": 7294, "title": "ChromeArcade", "devlogs_count": 1, "created_at": "2025-07-20T17:09:00.265-04:00"}, {"id": 7297, "title": "Little Guy (PICO-8)", "devlogs_count": 0, "created_at": "2025-07-20T17:54:19.369-04:00"}, {"id": 7331, "title": "Box 'o AI", "devlogs_count": 0, "created_at": "2025-07-21T02:14:33.717-04:00"}], "coding_time_seconds": 103887, "coding_time_seconds_today": 0, "balance": "You need to have a pocket watcher badge to view this.", "badges": [], "created_at": "2025-06-23T18:05:09.619-04:00", "updated_at": "2025-07-20T16:57:22.910-04:00", "avatar": "https://avatars.slack-edge.com/2025-06-23/9092381633474_756f680ecddb209a0d70_original.jpg", "custom_css": null}, {"id": 11906, "slack_id": "U092NT94PL5", "display_name": "Calli", "bio": null, "projects_count": 1, "devlogs_count": 3, "votes_count": 0, "ships_count": 0, "projects": [{"id": 3397, "title": "TravelTracker", "devlogs_count": 3, "created_at": "2025-06-24T04:35:36.470-04:00"}], "coding_time_seconds": 59010, "coding_time_seconds_today": 0, "balance": "You need to have a pocket watcher badge to view this.", "badges": [], "created_at": "2025-06-23T18:07:02.931-04:00", "updated_at": "2025-08-06T17:38:01.560-04:00", "avatar": "https://secure.gravatar.com/avatar/934d92aef8af591b7f5d437db074d24e.jpg?s=512&d=https%3A%2F%2Fa.slack-edge.com%2Fdf10d%2Fimg%2Favatars%2Fava_0007-512.png", "custom_css": null}, {"id": 11907, "slack_id": "U092QT0H5PE", "display_name": "Vihaan Goyal", "bio": null, "projects_count": 0, "devlogs_count": 0, "votes_count": 0, "ships_count": 0, "projects": [], "coding_time_seconds": 11666, "coding_time_seconds_today": 0, "balance": "You need to have a pocket watcher badge to view this.", "badges": [], "created_at": "2025-06-23T18:11:57.096-04:00", "updated_at": "2025-07-03T20:01:50.123-04:00", "avatar": "https://avatars.slack-edge.com/2025-06-23/9105986039105_6c627e8462020be23c1b_original.png", "custom_css": null}, {"id": 11908, "slack_id": "U091QSE1A84", "display_name": "Matteo Morb\u00e9e", "bio": null, "projects_count": 0, "devlogs_count": 0, "votes_count": 0, "ships_count": 0, "projects": [], "coding_time_seconds": 128, "coding_time_seconds_today": 0, "balance": "You need to have a pocket watcher badge to view this.", "badges": [], "created_at": "2025-06-23T18:16:19.350-04:00", "updated_at": "2025-07-04T20:12:39.361-04:00", "avatar": "https://secure.gravatar.com/avatar/3522e283f17b8907184f2359ad198f37.jpg?s=512&d=https%3A%2F%2Fa.slack-edge.com%2Fdf10d%2Fimg%2Favatars%2Fava_0023-512.png", "custom_css": null}, {"id": 11909, "slack_id": "U0918BQ1ZEK", "display_name": "Van", "bio": null, "projects_count": 0, "devlogs_count": 0, "votes_count": 0, "ships_count": 0, "projects": [], "coding_time_seconds": 0, "coding_time_seconds_today": 0, "balance": "You need to have a pocket watcher badge to view this.", "badges": [], "created_at": "2025-06-23T18:19:10.255-04:00", "updated_at": "2025-07-03T20:01:50.533-04:00", "avatar": "https://secure.gravatar.com/avatar/315dd3138f1487a1e8edec3b0895f325.jpg?s=512&d=https%3A%2F%2Fa.slack-edge.com%2Fdf10d%2Fimg%2Favatars%2Fava_0022-512.png", "custom_css": null}, {"id": 11910, "slack_id": "U092JJHDBFY", "display_name": "Pankaj", "bio": null, "projects_count": 0, "devlogs_count": 0, "votes_count": 0, "ships_count": 0, "projects": [], "coding_time_seconds": 129838, "coding_time_seconds_today": 5020, "balance": "You need to have a pocket watcher badge to view this.", "badges": [], "created_at": "2025-06-23T18:21:31.416-04:00", "updated_at": "2025-07-03T20:01:50.799-04:00", "avatar": "https://secure.gravatar.com/avatar/4973accfba0f0a817050470747614943.jpg?s=512&d=https%3A%2F%2Fa.slack-edge.com%2Fdf10d%2Fimg%2Favatars%2Fava_0023-512.png", "custom_css": null}, {"id": 11911, "slack_id": "U092QCRRBRQ", "display_name": "False", "bio": null, "projects_count": 0, "devlogs_count": 0, "votes_count": 0, "ships_count": 0, "projects": [], "coding_time_seconds": 0, "coding_time_seconds_today": 0, "balance": "You need to have a pocket watcher badge to view this.", "badges": [], "created_at": "2025-06-23T18:24:54.430-04:00", "updated_at": "2025-07-03T20:01:51.066-04:00", "avatar": "https://avatars.slack-edge.com/2025-06-23/9077887511895_cb983ce37720ee5cdb72_original.jpg", "custom_css": null}, {"id": 11912, "slack_id": "U079VBR2K2P", "display_name": "Matteo", "bio": null, "projects_count": 0, "devlogs_count": 0, "votes_count": 0, "ships_count": 0, "projects": [], "coding_time_seconds": 140826, "coding_time_seconds_today": 0, "balance": "You need to have a pocket watcher badge to view this.", "badges": [], "created_at": "2025-06-23T18:34:10.214-04:00", "updated_at": "2025-07-03T20:01:51.334-04:00", "avatar": "https://avatars.slack-edge.com/2024-07-24/7466488953734_65eb1d572cd97632d577_original.png", "custom_css": null}, {"id": 11913, "slack_id": "U093CL8EWN4", "display_name": "hirohiroto112607", "bio": null, "projects_count": 0, "devlogs_count": 0, "votes_count": 0, "ships_count": 0, "projects": [], "coding_time_seconds": 377880, "coding_time_seconds_today": 5023, "balance": "You need to have a pocket watcher badge to view this.", "badges": [], "created_at": "2025-06-23T18:42:49.842-04:00", "updated_at": "2025-07-04T08:28:12.091-04:00", "avatar": "https://secure.gravatar.com/avatar/df2905eaf2a12d59090d3fb82f654bf1.jpg?s=512&d=https%3A%2F%2Fa.slack-edge.com%2Fdf10d%2Fimg%2Favatars%2Fava_0016-512.png", "custom_css": null}, {"id": 11914, "slack_id": "U092HG7PSLT", "display_name": "Adam", "bio": null, "projects_count": 0, "devlogs_count": 0, "votes_count": 0, "ships_count": 0, "projects": [], "coding_time_seconds": 0, "coding_time_seconds_today": 0, "balance": "You need to have a pocket watcher badge to view this.", "badges": [], "created_at": "2025-06-23T18:46:24.080-04:00", "updated_at": "2025-07-03T20:01:51.797-04:00", "avatar": "https://secure.gravatar.com/avatar/ddf5fd78cd9abc083f7a44def46995f3.jpg?s=512&d=https%3A%2F%2Fa.slack-edge.com%2Fdf10d%2Fimg%2Favatars%2Fava_0003-512.png", "custom_css": null}, {"id": 11915, "slack_id": "U092JKXEXN2", "display_name": "antiq", "bio": null, "projects_count": 0, "devlogs_count": 0, "votes_count": 0, "ships_count": 0, "projects": [], "coding_time_seconds": 7811, "coding_time_seconds_today": 0, "balance": "You need to have a pocket watcher badge to view this.", "badges": [], "created_at": "2025-06-23T18:47:58.116-04:00", "updated_at": "2025-07-03T20:01:52.108-04:00", "avatar": "https://secure.gravatar.com/avatar/17666e2772ab62e909024d41155c1e5d.jpg?s=512&d=https%3A%2F%2Fa.slack-edge.com%2Fdf10d%2Fimg%2Favatars%2Fava_0015-512.png", "custom_css": null}, {"id": 11916, "slack_id": "U092JMJQ1ML", "display_name": "Angel", "bio": null, "projects_count": 0, "devlogs_count": 0, "votes_count": 0, "ships_count": 0, "projects": [], "coding_time_seconds": 0, "coding_time_seconds_today": 0, "balance": "You need to have a pocket watcher badge to view this.", "badges": [], "created_at": "2025-06-23T18:55:40.205-04:00", "updated_at": "2025-07-03T20:01:52.373-04:00", "avatar": "https://secure.gravatar.com/avatar/6901e69d8ae7f14f6a1f9896d01279b4.jpg?s=512&d=https%3A%2F%2Fa.slack-edge.com%2Fdf10d%2Fimg%2Favatars%2Fava_0012-512.png", "custom_css": null}, {"id": 11917, "slack_id": "U092QG2DNN6", "display_name": "KingPugII", "bio": null, "projects_count": 0, "devlogs_count": 0, "votes_count": 0, "ships_count": 0, "projects": [], "coding_time_seconds": 0, "coding_time_seconds_today": 0, "balance": "You need to have a pocket watcher badge to view this.", "badges": [], "created_at": "2025-06-23T19:01:50.197-04:00", "updated_at": "2025-07-03T20:01:52.639-04:00", "avatar": "https://secure.gravatar.com/avatar/02bd387b9e5bcdda14b00712d45a352d.jpg?s=512&d=https%3A%2F%2Fa.slack-edge.com%2Fdf10d%2Fimg%2Favatars%2Fava_0003-512.png", "custom_css": null}, {"id": 11918, "slack_id": "U0929VB14G7", "display_name": "youssef khalifa", "bio": null, "projects_count": 0, "devlogs_count": 0, "votes_count": 0, "ships_count": 0, "projects": [], "coding_time_seconds": 0, "coding_time_seconds_today": 0, "balance": "You need to have a pocket watcher badge to view this.", "badges": [], "created_at": "2025-06-23T19:05:57.795-04:00", "updated_at": "2025-07-08T03:01:17.242-04:00", "avatar": "https://secure.gravatar.com/avatar/06e64b427c8dab677d9aa8294a19e48e.jpg?s=512&d=https%3A%2F%2Fa.slack-edge.com%2Fdf10d%2Fimg%2Favatars%2Fava_0022-512.png", "custom_css": null}, {"id": 11919, "slack_id": "U092HJQPGLT", "display_name": "Sheikh Shaheed Rijwan Wuhan", "bio": "", "projects_count": 2, "devlogs_count": 12, "votes_count": 39, "ships_count": 2, "projects": [{"id": 4140, "title": "minimalistic drawing tool", "devlogs_count": 8, "created_at": "2025-06-27T18:05:15.194-04:00"}, {"id": 7847, "title": "Radar_visualizer", "devlogs_count": 4, "created_at": "2025-07-23T09:14:34.315-04:00"}], "coding_time_seconds": 131530, "coding_time_seconds_today": 0, "balance": "You need to have a pocket watcher badge to view this.", "badges": [{"name": "Maiden Voyage", "text": "you shipped your first project! the journey begins...", "icon": "\ud83d\udea2"}], "created_at": "2025-06-23T19:18:46.854-04:00", "updated_at": "2025-09-10T22:57:08.477-04:00", "avatar": "https://secure.gravatar.com/avatar/600d007753706155555c827171c8e318.jpg?s=512&d=https%3A%2F%2Fa.slack-edge.com%2Fdf10d%2Fimg%2Favatars%2Fava_0020-512.png", "custom_css": null}, {"id": 11920, "slack_id": "U093412KC8Z", "display_name": "Bravonica", "bio": null, "projects_count": 0, "devlogs_count": 0, "votes_count": 0, "ships_count": 0, "projects": [], "coding_time_seconds": 163, "coding_time_seconds_today": 0, "balance": "You need to have a pocket watcher badge to view this.", "badges": [], "created_at": "2025-06-23T19:42:39.605-04:00", "updated_at": "2025-07-03T20:01:53.232-04:00", "avatar": "https://secure.gravatar.com/avatar/836ae6fe89dc672919d04cb38b63690b.jpg?s=512&d=https%3A%2F%2Fa.slack-edge.com%2Fdf10d%2Fimg%2Favatars%2Fava_0018-512.png", "custom_css": null}], "pagination": {"page": 596, "pages": 1192, "count": 23828, "items": 20}}