{"users": [{"id": 11921, "slack_id": "U05NJ8TDFRQ", "display_name": "Shivam Gupta", "bio": null, "projects_count": 0, "devlogs_count": 9, "votes_count": 6, "ships_count": 0, "projects": [], "coding_time_seconds": 5530858, "coding_time_seconds_today": 0, "balance": "You need to have a pocket watcher badge to view this.", "badges": [{"name": "Maiden Voyage", "text": "you shipped your first project! the journey begins...", "icon": "\ud83d\udea2"}], "created_at": "2025-06-23T19:56:55.105-04:00", "updated_at": "2025-09-10T22:57:08.525-04:00", "avatar": "https://secure.gravatar.com/avatar/5d8f5da5c7bf04f7c2739ae957183ec5.jpg?s=512&d=https%3A%2F%2Fa.slack-edge.com%2Fdf10d%2Fimg%2Favatars%2Fava_0008-512.png", "custom_css": null}, {"id": 11922, "slack_id": "U093CSTTEDN", "display_name": "Shubh", "bio": null, "projects_count": 5, "devlogs_count": 17, "votes_count": 36, "ships_count": 2, "projects": [{"id": 4145, "title": "Maze Playground", "devlogs_count": 0, "created_at": "2025-06-27T20:58:22.317-04:00"}, {"id": 4379, "title": "Wavefunction Screensaver", "devlogs_count": 6, "created_at": "2025-06-29T12:34:23.053-04:00"}, {"id": 7203, "title": "Songbook", "devlogs_count": 0, "created_at": "2025-07-19T23:09:19.507-04:00"}, {"id": 11817, "title": "Personal Website", "devlogs_count": 1, "created_at": "2025-08-19T20:11:42.743-04:00"}, {"id": 8608, "title": "UIL Downloader", "devlogs_count": 10, "created_at": "2025-07-28T15:18:27.374-04:00"}], "coding_time_seconds": 352732, "coding_time_seconds_today": 0, "balance": "You need to have a pocket watcher badge to view this.", "badges": [{"name": "Maiden Voyage", "text": "you shipped your first project! the journey begins...", "icon": "\ud83d\udea2"}], "created_at": "2025-06-23T19:58:01.066-04:00", "updated_at": "2025-09-10T22:57:08.552-04:00", "avatar": "https://secure.gravatar.com/avatar/7a42bab64eb3bd33908ba119c4880132.jpg?s=512&d=https%3A%2F%2Fa.slack-edge.com%2Fdf10d%2Fimg%2Favatars%2Fava_0019-512.png", "custom_css": null}, {"id": 11923, "slack_id": "U092P7KB37F", "display_name": "Sibi Siddharth S", "bio": null, "projects_count": 1, "devlogs_count": 0, "votes_count": 0, "ships_count": 0, "projects": [{"id": 3324, "title": "MyMind", "devlogs_count": 0, "created_at": "2025-06-23T20:27:28.270-04:00"}], "coding_time_seconds": 560248, "coding_time_seconds_today": 5990, "balance": "You need to have a pocket watcher badge to view this.", "badges": [], "created_at": "2025-06-23T20:03:54.036-04:00", "updated_at": "2025-07-03T20:01:54.160-04:00", "avatar": "https://secure.gravatar.com/avatar/93f5d6e2bd9c6bd99a0d639f348a6838.jpg?s=512&d=https%3A%2F%2Fa.slack-edge.com%2Fdf10d%2Fimg%2Favatars%2Fava_0009-512.png", "custom_css": null}, {"id": 11924, "slack_id": "U0925CUPLHZ", "display_name": "Puneet Gopinath", "bio": "just an ordinary guy building cool stuff...", "projects_count": 2, "devlogs_count": 64, "votes_count": 120, "ships_count": 2, "projects": [{"id": 3358, "title": "Digital Business Card Generator", "devlogs_count": 12, "created_at": "2025-06-24T00:24:31.337-04:00"}, {"id": 3842, "title": "Chrono Capsule", "devlogs_count": 48, "created_at": "2025-06-26T00:36:46.645-04:00"}], "coding_time_seconds": 356122, "coding_time_seconds_today": 0, "balance": "You need to have a pocket watcher badge to view this.", "badges": [{"name": "Maiden Voyage", "text": "you shipped your first project! the journey begins...", "icon": "\ud83d\udea2"}, {"name": "Ballot Stuffer", "text": "vote 100 times.", "icon": "https://summer.hackclub.com/assets/i_voted-bf851b48.png"}], "created_at": "2025-06-23T20:06:50.220-04:00", "updated_at": "2025-09-10T22:57:08.601-04:00", "avatar": "https://avatars.slack-edge.com/2025-07-03/9129089232567_ffd5b7ba6b4a85de3de1_original.jpg", "custom_css": null}, {"id": 11925, "slack_id": "U092P8H7LER", "display_name": "Vuong Trieu Vy", "bio": null, "projects_count": 0, "devlogs_count": 0, "votes_count": 0, "ships_count": 0, "projects": [], "coding_time_seconds": 0, "coding_time_seconds_today": 0, "balance": "You need to have a pocket watcher badge to view this.", "badges": [], "created_at": "2025-06-23T20:13:48.659-04:00", "updated_at": "2025-07-03T20:01:54.698-04:00", "avatar": "https://secure.gravatar.com/avatar/c49761df47ecfe747160af6668f20645.jpg?s=512&d=https%3A%2F%2Fa.slack-edge.com%2Fdf10d%2Fimg%2Favatars%2Fava_0003-512.png", "custom_css": null}, {"id": 11926, "slack_id": "U084DKTS3FG", "display_name": "Khushi Jain", "bio": null, "projects_count": 0, "devlogs_count": 0, "votes_count": 0, "ships_count": 0, "projects": [], "coding_time_seconds": 0, "coding_time_seconds_today": 0, "balance": "You need to have a pocket watcher badge to view this.", "badges": [], "created_at": "2025-06-23T20:37:36.884-04:00", "updated_at": "2025-08-01T11:44:54.250-04:00", "avatar": "https://secure.gravatar.com/avatar/85007ae39936fd2dfdeba0cf3d95982e.jpg?s=512&d=https%3A%2F%2Fa.slack-edge.com%2Fdf10d%2Fimg%2Favatars%2Fava_0009-512.png", "custom_css": null}, {"id": 11927, "slack_id": "U092A8FSK6K", "display_name": "Ellie", "bio": null, "projects_count": 2, "devlogs_count": 2, "votes_count": 0, "ships_count": 0, "projects": [{"id": 3514, "title": "Glint", "devlogs_count": 1, "created_at": "2025-06-24T14:46:59.247-04:00"}, {"id": 5639, "title": "picmix scraper", "devlogs_count": 1, "created_at": "2025-07-06T19:52:36.654-04:00"}], "coding_time_seconds": 347660, "coding_time_seconds_today": 0, "balance": "You need to have a pocket watcher badge to view this.", "badges": [], "created_at": "2025-06-23T20:46:41.278-04:00", "updated_at": "2025-07-03T20:01:55.099-04:00", "avatar": "https://avatars.slack-edge.com/2025-06-24/9120107377536_6152c9448c0204f04138_original.png", "custom_css": null}, {"id": 11928, "slack_id": "U092HSZ0E7M", "display_name": "Andy", "bio": null, "projects_count": 0, "devlogs_count": 0, "votes_count": 0, "ships_count": 0, "projects": [], "coding_time_seconds": 86820, "coding_time_seconds_today": 0, "balance": "You need to have a pocket watcher badge to view this.", "badges": [], "created_at": "2025-06-23T20:51:08.882-04:00", "updated_at": "2025-07-03T22:02:40.641-04:00", "avatar": "https://secure.gravatar.com/avatar/0ed133bfa73cc2e380c8623151b263f1.jpg?s=512&d=https%3A%2F%2Fa.slack-edge.com%2Fdf10d%2Fimg%2Favatars%2Fava_0003-512.png", "custom_css": null}, {"id": 11929, "slack_id": "U092QTL0TDG", "display_name": "Floo Aquarius", "bio": null, "projects_count": 0, "devlogs_count": 0, "votes_count": 0, "ships_count": 0, "projects": [], "coding_time_seconds": 1527, "coding_time_seconds_today": 0, "balance": "You need to have a pocket watcher badge to view this.", "badges": [], "created_at": "2025-06-23T21:10:47.824-04:00", "updated_at": "2025-07-05T14:14:50.898-04:00", "avatar": "https://secure.gravatar.com/avatar/fb2ef1ad0527e215667f582ddff839f3.jpg?s=512&d=https%3A%2F%2Fa.slack-edge.com%2Fdf10d%2Fimg%2Favatars%2Fava_0026-512.png", "custom_css": null}, {"id": 11930, "slack_id": "U08099W5QSU", "display_name": "illusionz TBA", "bio": null, "projects_count": 0, "devlogs_count": 0, "votes_count": 0, "ships_count": 0, "projects": [], "coding_time_seconds": 0, "coding_time_seconds_today": 0, "balance": "You need to have a pocket watcher badge to view this.", "badges": [], "created_at": "2025-06-23T21:13:54.413-04:00", "updated_at": "2025-07-03T20:01:55.631-04:00", "avatar": "https://avatars.slack-edge.com/2024-11-05/7999228929281_d9399833a48543f7606d_original.png", "custom_css": null}, {"id": 11931, "slack_id": "U079Z0LAREE", "display_name": "velzie", "bio": null, "projects_count": 1, "devlogs_count": 1, "votes_count": 0, "ships_count": 0, "projects": [{"id": 3333, "title": "rv32ima.sh", "devlogs_count": 1, "created_at": "2025-06-23T21:25:43.676-04:00"}], "coding_time_seconds": 714380, "coding_time_seconds_today": 0, "balance": "You need to have a pocket watcher badge to view this.", "badges": [], "created_at": "2025-06-23T21:15:29.343-04:00", "updated_at": "2025-07-04T02:32:00.085-04:00", "avatar": "https://avatars.slack-edge.com/2025-05-16/8915102483252_00139aaff61d2532860f_original.png", "custom_css": null}, {"id": 11932, "slack_id": "U092AC4R695", "display_name": "Mr.Chicken", "bio": "blub", "projects_count": 2, "devlogs_count": 65, "votes_count": 8, "ships_count": 0, "projects": [{"id": 3349, "title": "Stageless", "devlogs_count": 62, "created_at": "2025-06-23T23:25:18.097-04:00"}, {"id": 10280, "title": "Roblox Solar System Simulator", "devlogs_count": 3, "created_at": "2025-08-05T14:04:23.163-04:00"}], "coding_time_seconds": 306749, "coding_time_seconds_today": 0, "balance": "You need to have a pocket watcher badge to view this.", "badges": [], "created_at": "2025-06-23T21:21:22.319-04:00", "updated_at": "2025-08-11T14:11:20.501-04:00", "avatar": "https://avatars.slack-edge.com/2025-06-23/9093740614804_7f890848fb740625b5a0_original.jpg", "custom_css": null}, {"id": 11933, "slack_id": "U092BCJF8LE", "display_name": "jibran", "bio": null, "projects_count": 0, "devlogs_count": 0, "votes_count": 0, "ships_count": 0, "projects": [], "coding_time_seconds": 0, "coding_time_seconds_today": 0, "balance": "You need to have a pocket watcher badge to view this.", "badges": [], "created_at": "2025-06-23T21:23:04.376-04:00", "updated_at": "2025-07-05T02:13:19.766-04:00", "avatar": "https://secure.gravatar.com/avatar/339b79c21f2b587bf353bb8dea7b174f.jpg?s=512&d=https%3A%2F%2Fa.slack-edge.com%2Fdf10d%2Fimg%2Favatars%2Fava_0024-512.png", "custom_css": null}, {"id": 11934, "slack_id": "U092D48HPJ4", "display_name": "Callie Warner", "bio": null, "projects_count": 0, "devlogs_count": 0, "votes_count": 0, "ships_count": 0, "projects": [], "coding_time_seconds": 0, "coding_time_seconds_today": 0, "balance": "You need to have a pocket watcher badge to view this.", "badges": [], "created_at": "2025-06-23T21:23:26.949-04:00", "updated_at": "2025-07-05T08:13:39.283-04:00", "avatar": "https://secure.gravatar.com/avatar/aae2ad533bfc70fde8f6cc07aeacf224.jpg?s=512&d=https%3A%2F%2Fa.slack-edge.com%2Fdf10d%2Fimg%2Favatars%2Fava_0002-512.png", "custom_css": null}, {"id": 11935, "slack_id": "U03UBRVG2MS", "display_name": "samliu", "bio": null, "projects_count": 10, "devlogs_count": 4, "votes_count": 1, "ships_count": 0, "projects": [{"id": 7374, "title": "Test", "devlogs_count": 1, "created_at": "2025-07-21T11:38:35.195-04:00"}, {"id": 9471, "title": "erfd", "devlogs_count": 0, "created_at": "2025-08-01T11:21:28.962-04:00"}, {"id": 9472, "title": "erfd", "devlogs_count": 0, "created_at": "2025-08-01T11:21:28.965-04:00"}, {"id": 9473, "title": "wefsdjoijwfeasd", "devlogs_count": 0, "created_at": "2025-08-01T11:22:06.621-04:00"}, {"id": 9474, "title": "wefasdz", "devlogs_count": 0, "created_at": "2025-08-01T11:22:27.745-04:00"}, {"id": 9475, "title": "wefasdz", "devlogs_count": 0, "created_at": "2025-08-01T11:22:27.755-04:00"}, {"id": 11405, "title": "dbf vc", "devlogs_count": 0, "created_at": "2025-08-15T14:30:49.504-04:00"}, {"id": 13440, "title": "this is a test", "devlogs_count": 1, "created_at": "2025-09-16T13:28:33.664-04:00"}, {"id": 8670, "title": "evdsc", "devlogs_count": 0, "created_at": "2025-07-28T21:24:52.230-04:00"}, {"id": 9470, "title": "test", "devlogs_count": 0, "created_at": "2025-08-01T11:21:08.452-04:00"}], "coding_time_seconds": 565973, "coding_time_seconds_today": 2044, "balance": "You need to have a pocket watcher badge to view this.", "badges": [{"name": "<%= admin_tool do %>", "text": "with great power comes great responsibility... and a ban hammer.", "icon": "\ud83d\udd28"}, {"name": "Maiden Voyage", "text": "you shipped your first project! the journey begins...", "icon": "\ud83d\udea2"}], "created_at": "2025-06-23T21:26:17.551-04:00", "updated_at": "2025-09-10T22:57:08.886-04:00", "avatar": "https://avatars.slack-edge.com/2025-09-03/9457294424914_ad28f313017e373498a5_original.png", "custom_css": null}, {"id": 11936, "slack_id": "U092K5QNSR4", "display_name": "amelia citra", "bio": null, "projects_count": 0, "devlogs_count": 0, "votes_count": 0, "ships_count": 0, "projects": [], "coding_time_seconds": 0, "coding_time_seconds_today": 0, "balance": "You need to have a pocket watcher badge to view this.", "badges": [], "created_at": "2025-06-23T21:28:50.150-04:00", "updated_at": "2025-07-03T20:01:56.779-04:00", "avatar": "https://secure.gravatar.com/avatar/ae91c2a6a9cdaa65da51f43f64c94e02.jpg?s=512&d=https%3A%2F%2Fa.slack-edge.com%2Fdf10d%2Fimg%2Favatars%2Fava_0008-512.png", "custom_css": null}, {"id": 11937, "slack_id": "U092J1DEU3V", "display_name": "Aspen Arnott", "bio": null, "projects_count": 2, "devlogs_count": 13, "votes_count": 22, "ships_count": 2, "projects": [{"id": 12734, "title": "ScoreQuest", "devlogs_count": 1, "created_at": "2025-09-01T19:43:50.706-04:00"}, {"id": 3561, "title": "Beneath Her Song", "devlogs_count": 12, "created_at": "2025-06-24T17:21:54.479-04:00"}], "coding_time_seconds": 189861, "coding_time_seconds_today": 0, "balance": "You need to have a pocket watcher badge to view this.", "badges": [{"name": "Maiden Voyage", "text": "you shipped your first project! the journey begins...", "icon": "\ud83d\udea2"}], "created_at": "2025-06-23T21:31:59.080-04:00", "updated_at": "2025-09-10T22:57:08.948-04:00", "avatar": "https://avatars.slack-edge.com/2025-06-23/9093019883090_ef478b47876c127bc0fb_original.png", "custom_css": null}, {"id": 11938, "slack_id": "U092RG8JGA0", "display_name": "Sai", "bio": null, "projects_count": 0, "devlogs_count": 0, "votes_count": 0, "ships_count": 0, "projects": [], "coding_time_seconds": 0, "coding_time_seconds_today": 0, "balance": "You need to have a pocket watcher badge to view this.", "badges": [], "created_at": "2025-06-23T21:41:15.595-04:00", "updated_at": "2025-07-03T20:01:57.312-04:00", "avatar": "https://secure.gravatar.com/avatar/4b379a3fbdd49c0235b18c2fcab2aedc.jpg?s=512&d=https%3A%2F%2Fa.slack-edge.com%2Fdf10d%2Fimg%2Favatars%2Fava_0023-512.png", "custom_css": null}, {"id": 11939, "slack_id": "U092RGNN9K6", "display_name": "danzzzg1432", "bio": null, "projects_count": 1, "devlogs_count": 0, "votes_count": 0, "ships_count": 0, "projects": [{"id": 3361, "title": "Real time ATAR ranking calculator", "devlogs_count": 0, "created_at": "2025-06-24T00:49:51.939-04:00"}], "coding_time_seconds": 70073, "coding_time_seconds_today": 0, "balance": "You need to have a pocket watcher badge to view this.", "badges": [], "created_at": "2025-06-23T21:45:30.708-04:00", "updated_at": "2025-07-03T20:01:57.572-04:00", "avatar": "https://avatars.slack-edge.com/2025-06-23/9115269159600_87ab459ae03cc192b43d_original.jpg", "custom_css": null}, {"id": 11940, "slack_id": "U092AE7TX1V", "display_name": "Soumyadeep Chatterjee", "bio": null, "projects_count": 0, "devlogs_count": 0, "votes_count": 0, "ships_count": 0, "projects": [], "coding_time_seconds": 0, "coding_time_seconds_today": 0, "balance": "You need to have a pocket watcher badge to view this.", "badges": [], "created_at": "2025-06-23T21:48:33.983-04:00", "updated_at": "2025-07-03T22:02:41.528-04:00", "avatar": "https://secure.gravatar.com/avatar/e94baa5b8a125262c937a07660a9605b.jpg?s=512&d=https%3A%2F%2Fa.slack-edge.com%2Fdf10d%2Fimg%2Favatars%2Fava_0013-512.png", "custom_css": null}], "pagination": {"page": 597, "pages": 1192, "count": 23828, "items": 20}}