{"users": [{"id": 11961, "slack_id": "U0931CLT94Z", "display_name": "\u5f35\u9298\u73c8", "bio": null, "projects_count": 1, "devlogs_count": 3, "votes_count": 7, "ships_count": 0, "projects": [{"id": 3366, "title": "An open-source fiction platform", "devlogs_count": 3, "created_at": "2025-06-24T01:01:11.735-04:00"}], "coding_time_seconds": 70443, "coding_time_seconds_today": 0, "balance": "You need to have a pocket watcher badge to view this.", "badges": [], "created_at": "2025-06-23T23:25:22.321-04:00", "updated_at": "2025-07-04T02:32:02.113-04:00", "avatar": "https://avatars.slack-edge.com/2025-06-23/9112139638624_29213f78dd12e14d8286_original.png", "custom_css": null}, {"id": 11962, "slack_id": "U091GAP835Z", "display_name": "KARTIKAY TRIVEDI", "bio": null, "projects_count": 0, "devlogs_count": 0, "votes_count": 0, "ships_count": 0, "projects": [], "coding_time_seconds": 0, "coding_time_seconds_today": 0, "balance": "You need to have a pocket watcher badge to view this.", "badges": [], "created_at": "2025-06-23T23:36:53.412-04:00", "updated_at": "2025-07-05T08:13:41.034-04:00", "avatar": "https://secure.gravatar.com/avatar/5ab525b544d315944306d5057d0d27b8.jpg?s=512&d=https%3A%2F%2Fa.slack-edge.com%2Fdf10d%2Fimg%2Favatars%2Fava_0019-512.png", "custom_css": null}, {"id": 11963, "slack_id": "U09330SGZJ5", "display_name": "mohamed hafid", "bio": null, "projects_count": 0, "devlogs_count": 0, "votes_count": 0, "ships_count": 0, "projects": [], "coding_time_seconds": 152397, "coding_time_seconds_today": 0, "balance": "You need to have a pocket watcher badge to view this.", "badges": [], "created_at": "2025-06-23T23:39:45.256-04:00", "updated_at": "2025-07-03T20:02:02.740-04:00", "avatar": "https://avatars.slack-edge.com/2025-06-23/9078830234359_df051dc9e080a560dcd9_original.jpg", "custom_css": null}, {"id": 11964, "slack_id": "U093DHXSVMW", "display_name": "Sushant Kushwaha", "bio": null, "projects_count": 0, "devlogs_count": 0, "votes_count": 0, "ships_count": 0, "projects": [], "coding_time_seconds": 0, "coding_time_seconds_today": 0, "balance": "You need to have a pocket watcher badge to view this.", "badges": [], "created_at": "2025-06-23T23:43:39.396-04:00", "updated_at": "2025-07-03T20:02:03.004-04:00", "avatar": "https://secure.gravatar.com/avatar/940e72754a988a0f3cf6c3d1cd263209.jpg?s=512&d=https%3A%2F%2Fa.slack-edge.com%2Fdf10d%2Fimg%2Favatars%2Fava_0010-512.png", "custom_css": null}, {"id": 11965, "slack_id": "U07H4EYLVG8", "display_name": "Maxwell", "bio": null, "projects_count": 0, "devlogs_count": 0, "votes_count": 0, "ships_count": 0, "projects": [], "coding_time_seconds": 1036, "coding_time_seconds_today": 0, "balance": "You need to have a pocket watcher badge to view this.", "badges": [], "created_at": "2025-06-23T23:49:48.872-04:00", "updated_at": "2025-07-03T20:02:03.343-04:00", "avatar": "https://secure.gravatar.com/avatar/a847e7d8fb5d5089ffcaca77c752fc52.jpg?s=512&d=https%3A%2F%2Fa.slack-edge.com%2Fdf10d%2Fimg%2Favatars%2Fava_0019-512.png", "custom_css": null}, {"id": 11966, "slack_id": "U08DT5W03AM", "display_name": "Quinn", "bio": null, "projects_count": 2, "devlogs_count": 5, "votes_count": 2, "ships_count": 1, "projects": [{"id": 7128, "title": "Simple Weather CLI", "devlogs_count": 3, "created_at": "2025-07-19T09:14:01.550-04:00"}, {"id": 9209, "title": "MegaToolbox", "devlogs_count": 0, "created_at": "2025-07-31T01:43:18.795-04:00"}], "coding_time_seconds": 38164, "coding_time_seconds_today": 0, "balance": "You need to have a pocket watcher badge to view this.", "badges": [{"name": "Maiden Voyage", "text": "you shipped your first project! the journey begins...", "icon": "\ud83d\udea2"}], "created_at": "2025-06-23T23:54:52.549-04:00", "updated_at": "2025-09-10T22:57:09.776-04:00", "avatar": "https://avatars.slack-edge.com/2025-07-22/9232345310918_df9886529ae591d1b0b3_original.jpg", "custom_css": null}, {"id": 11967, "slack_id": "U0922GVPUL9", "display_name": "Raphael", "bio": null, "projects_count": 0, "devlogs_count": 0, "votes_count": 0, "ships_count": 0, "projects": [], "coding_time_seconds": 0, "coding_time_seconds_today": 0, "balance": "You need to have a pocket watcher badge to view this.", "badges": [], "created_at": "2025-06-23T23:55:13.671-04:00", "updated_at": "2025-07-03T20:02:03.890-04:00", "avatar": "https://secure.gravatar.com/avatar/f4f2e343e947ca77cd7b519a6769d071.jpg?s=512&d=https%3A%2F%2Fa.slack-edge.com%2Fdf10d%2Fimg%2Favatars%2Fava_0014-512.png", "custom_css": null}, {"id": 11968, "slack_id": "U0903PR9ZM1", "display_name": "orange980730", "bio": null, "projects_count": 0, "devlogs_count": 0, "votes_count": 0, "ships_count": 0, "projects": [], "coding_time_seconds": 91828, "coding_time_seconds_today": 0, "balance": "You need to have a pocket watcher badge to view this.", "badges": [], "created_at": "2025-06-23T23:57:13.436-04:00", "updated_at": "2025-07-03T20:02:04.149-04:00", "avatar": "https://secure.gravatar.com/avatar/f1b3c3d80d71d6bec6a3100178cdbcd2.jpg?s=512&d=https%3A%2F%2Fa.slack-edge.com%2Fdf10d%2Fimg%2Favatars%2Fava_0001-512.png", "custom_css": null}, {"id": 11969, "slack_id": "U093DK2JL0Y", "display_name": "infinotiver", "bio": "Hi there, I'm trying to manage coding and my homework :)", "projects_count": 9, "devlogs_count": 51, "votes_count": 69, "ships_count": 5, "projects": [{"id": 7271, "title": "CSS Snippets Hub", "devlogs_count": 5, "created_at": "2025-07-20T15:25:21.010-04:00"}, {"id": 8331, "title": "Girlfriend Quotient", "devlogs_count": 3, "created_at": "2025-07-26T09:33:35.106-04:00"}, {"id": 4935, "title": "Emergency Number Lookup", "devlogs_count": 3, "created_at": "2025-07-02T09:54:36.238-04:00"}, {"id": 6206, "title": "Mind Sink", "devlogs_count": 19, "created_at": "2025-07-11T10:04:14.223-04:00"}, {"id": 7016, "title": "Typing Race (VS Code Extension)", "devlogs_count": 0, "created_at": "2025-07-18T09:22:48.867-04:00"}, {"id": 5533, "title": "Aesthetic Pomodoro Timer", "devlogs_count": 5, "created_at": "2025-07-06T00:45:58.355-04:00"}, {"id": 6690, "title": "Memento Mori Status (VS Code Extension)", "devlogs_count": 4, "created_at": "2025-07-15T06:17:41.896-04:00"}, {"id": 5429, "title": "1nf1n0t1v3r's Portfolio (v3)", "devlogs_count": 8, "created_at": "2025-07-05T08:47:49.099-04:00"}, {"id": 7002, "title": "JavaScript from Scratch", "devlogs_count": 4, "created_at": "2025-07-18T06:28:28.872-04:00"}], "coding_time_seconds": 229055, "coding_time_seconds_today": 0, "balance": "You need to have a pocket watcher badge to view this.", "badges": [{"name": "Maiden Voyage", "text": "you shipped your first project! the journey begins...", "icon": "\ud83d\udea2"}, {"name": "Ballot Stuffer", "text": "vote 100 times.", "icon": "https://summer.hackclub.com/assets/i_voted-bf851b48.png"}], "created_at": "2025-06-24T00:01:31.748-04:00", "updated_at": "2025-09-10T22:57:09.851-04:00", "avatar": "https://secure.gravatar.com/avatar/d73fa5115bf01f49ab9ee6320502d56b.jpg?s=512&d=https%3A%2F%2Fa.slack-edge.com%2Fdf10d%2Fimg%2Favatars%2Fava_0016-512.png", "custom_css": null}, {"id": 11970, "slack_id": "U092JF9D2MR", "display_name": "karan rathore", "bio": null, "projects_count": 7, "devlogs_count": 39, "votes_count": 21, "ships_count": 6, "projects": [{"id": 7354, "title": "GTA XI - LANDING PAGE", "devlogs_count": 3, "created_at": "2025-07-21T07:53:57.706-04:00"}, {"id": 9997, "title": "Password Manager", "devlogs_count": 7, "created_at": "2025-08-03T11:20:01.496-04:00"}, {"id": 13559, "title": "DragBoard", "devlogs_count": 1, "created_at": "2025-09-19T11:50:03.320-04:00"}, {"id": 12052, "title": "Send Me A Coffee -login git  only , payment not done ! please verify mercy its been last day of hackclub i dont know how to deploy", "devlogs_count": 10, "created_at": "2025-08-22T12:23:10.612-04:00"}, {"id": 8236, "title": "Taskify", "devlogs_count": 4, "created_at": "2025-07-25T13:22:38.066-04:00"}, {"id": 4779, "title": "spotify ui clone without functionality", "devlogs_count": 9, "created_at": "2025-07-01T13:28:42.550-04:00"}, {"id": 6868, "title": "X clone ", "devlogs_count": 5, "created_at": "2025-07-17T00:56:50.575-04:00"}], "coding_time_seconds": 267045, "coding_time_seconds_today": 294, "balance": "You need to have a pocket watcher badge to view this.", "badges": [{"name": "Maiden Voyage", "text": "you shipped your first project! the journey begins...", "icon": "\ud83d\udea2"}, {"name": "Ballot Stuffer", "text": "vote 100 times.", "icon": "https://summer.hackclub.com/assets/i_voted-bf851b48.png"}], "created_at": "2025-06-24T00:19:27.337-04:00", "updated_at": "2025-09-10T22:57:09.887-04:00", "avatar": "https://avatars.slack-edge.com/2025-07-20/9220755489859_fff792acca7febe56a8c_original.jpg", "custom_css": null}, {"id": 11971, "slack_id": "U09182SHH2B", "display_name": "Monil Mehta", "bio": null, "projects_count": 0, "devlogs_count": 0, "votes_count": 0, "ships_count": 0, "projects": [], "coding_time_seconds": 0, "coding_time_seconds_today": 0, "balance": "You need to have a pocket watcher badge to view this.", "badges": [], "created_at": "2025-06-24T00:37:29.867-04:00", "updated_at": "2025-07-03T20:02:04.823-04:00", "avatar": "https://secure.gravatar.com/avatar/4838b867cc39a489c999cac379c87719.jpg?s=512&d=https%3A%2F%2Fa.slack-edge.com%2Fdf10d%2Fimg%2Favatars%2Fava_0026-512.png", "custom_css": null}, {"id": 11972, "slack_id": "U092JHFE199", "display_name": "Kazlo", "bio": null, "projects_count": 0, "devlogs_count": 0, "votes_count": 0, "ships_count": 0, "projects": [], "coding_time_seconds": 0, "coding_time_seconds_today": 0, "balance": "You need to have a pocket watcher badge to view this.", "badges": [], "created_at": "2025-06-24T00:44:14.881-04:00", "updated_at": "2025-07-03T20:02:05.084-04:00", "avatar": "https://avatars.slack-edge.com/2025-06-23/9079017624087_0c5f5c4da40e5a512a4e_original.jpg", "custom_css": null}, {"id": 11973, "slack_id": "U07AM42EYD9", "display_name": "Kuek Kuek", "bio": null, "projects_count": 0, "devlogs_count": 0, "votes_count": 0, "ships_count": 0, "projects": [], "coding_time_seconds": 95631, "coding_time_seconds_today": 0, "balance": "You need to have a pocket watcher badge to view this.", "badges": [], "created_at": "2025-06-24T00:48:42.868-04:00", "updated_at": "2025-07-03T20:02:05.350-04:00", "avatar": "https://secure.gravatar.com/avatar/7fe35d7c5254823f43726b8a1bad2898.jpg?s=512&d=https%3A%2F%2Fa.slack-edge.com%2Fdf10d%2Fimg%2Favatars%2Fava_0014-512.png", "custom_css": null}, {"id": 11974, "slack_id": "U08CXT2TCQH", "display_name": "Forfer09", "bio": null, "projects_count": 0, "devlogs_count": 0, "votes_count": 0, "ships_count": 0, "projects": [], "coding_time_seconds": 0, "coding_time_seconds_today": 0, "balance": "You need to have a pocket watcher badge to view this.", "badges": [], "created_at": "2025-06-24T00:50:43.048-04:00", "updated_at": "2025-07-03T20:02:05.631-04:00", "avatar": "https://secure.gravatar.com/avatar/f20b94fe7429e7013204be4b07d86c14.jpg?s=512&d=https%3A%2F%2Fa.slack-edge.com%2Fdf10d%2Fimg%2Favatars%2Fava_0008-512.png", "custom_css": null}, {"id": 11975, "slack_id": "U092KNVHYQN", "display_name": "Boyang Ma", "bio": null, "projects_count": 0, "devlogs_count": 0, "votes_count": 0, "ships_count": 0, "projects": [], "coding_time_seconds": 4294, "coding_time_seconds_today": 0, "balance": "You need to have a pocket watcher badge to view this.", "badges": [], "created_at": "2025-06-24T00:51:07.037-04:00", "updated_at": "2025-07-03T20:02:05.897-04:00", "avatar": "https://secure.gravatar.com/avatar/dce736f247a0a63051edcd48357c0faf.jpg?s=512&d=https%3A%2F%2Fa.slack-edge.com%2Fdf10d%2Fimg%2Favatars%2Fava_0017-512.png", "custom_css": null}, {"id": 11976, "slack_id": "U092B0YCP47", "display_name": "Sai Rohith Vulapu", "bio": null, "projects_count": 0, "devlogs_count": 0, "votes_count": 0, "ships_count": 0, "projects": [], "coding_time_seconds": 0, "coding_time_seconds_today": 0, "balance": "You need to have a pocket watcher badge to view this.", "badges": [], "created_at": "2025-06-24T00:56:12.387-04:00", "updated_at": "2025-07-03T20:02:06.159-04:00", "avatar": "https://avatars.slack-edge.com/2025-06-23/9115834908720_23532bece7f04e06737f_original.jpg", "custom_css": null}, {"id": 11977, "slack_id": "U07F85ST3PC", "display_name": "sreyasaju", "bio": null, "projects_count": 1, "devlogs_count": 1, "votes_count": 0, "ships_count": 0, "projects": [{"id": 6732, "title": "heart_Sync", "devlogs_count": 1, "created_at": "2025-07-15T15:46:04.124-04:00"}], "coding_time_seconds": 138297, "coding_time_seconds_today": 0, "balance": "You need to have a pocket watcher badge to view this.", "badges": [], "created_at": "2025-06-24T01:04:02.773-04:00", "updated_at": "2025-07-03T20:02:06.415-04:00", "avatar": "https://avatars.slack-edge.com/2025-05-08/8866191652597_9f942267ecfbdea4b777_original.jpg", "custom_css": null}, {"id": 11978, "slack_id": "U09358185MF", "display_name": "Raju", "bio": null, "projects_count": 0, "devlogs_count": 0, "votes_count": 0, "ships_count": 0, "projects": [], "coding_time_seconds": 0, "coding_time_seconds_today": 0, "balance": "You need to have a pocket watcher badge to view this.", "badges": [], "created_at": "2025-06-24T01:09:04.867-04:00", "updated_at": "2025-07-03T20:02:06.685-04:00", "avatar": "https://secure.gravatar.com/avatar/a6dcc87d4b22c715ec54b160c86240a7.jpg?s=512&d=https%3A%2F%2Fa.slack-edge.com%2Fdf10d%2Fimg%2Favatars%2Fava_0007-512.png", "custom_css": null}, {"id": 11979, "slack_id": "U092S4XHL76", "display_name": "Victor Guo", "bio": null, "projects_count": 0, "devlogs_count": 0, "votes_count": 0, "ships_count": 0, "projects": [], "coding_time_seconds": 621, "coding_time_seconds_today": 0, "balance": "You need to have a pocket watcher badge to view this.", "badges": [], "created_at": "2025-06-24T01:20:11.643-04:00", "updated_at": "2025-07-04T08:28:16.488-04:00", "avatar": "https://avatars.slack-edge.com/2025-06-23/9087875569686_7b242250c51648503499_original.png", "custom_css": null}, {"id": 11980, "slack_id": "U092S4U6U3W", "display_name": "Rc", "bio": null, "projects_count": 0, "devlogs_count": 0, "votes_count": 0, "ships_count": 0, "projects": [], "coding_time_seconds": 0, "coding_time_seconds_today": 0, "balance": "You need to have a pocket watcher badge to view this.", "badges": [], "created_at": "2025-06-24T01:20:21.204-04:00", "updated_at": "2025-07-03T20:02:07.090-04:00", "avatar": "https://secure.gravatar.com/avatar/dfa1ba857d3325c2862070fdf8f39516.jpg?s=512&d=https%3A%2F%2Fa.slack-edge.com%2Fdf10d%2Fimg%2Favatars%2Fava_0013-512.png", "custom_css": null}], "pagination": {"page": 599, "pages": 1192, "count": 23828, "items": 20}}