{"users": [{"id": 101, "slack_id": "U07VDPG5KQR", "display_name": "Allen D", "bio": null, "projects_count": 1, "devlogs_count": 0, "votes_count": 0, "ships_count": 0, "projects": [{"id": 9680, "title": "Chrome OS Releases Database", "devlogs_count": 0, "created_at": "2025-08-02T02:38:45.894-04:00"}], "coding_time_seconds": 233684, "coding_time_seconds_today": 0, "balance": "You need to have a pocket watcher badge to view this.", "badges": [], "created_at": "2025-06-15T22:46:16.600-04:00", "updated_at": "2025-08-22T01:03:13.656-04:00", "avatar": "https://secure.gravatar.com/avatar/112b51abdb254c15665428ef5ef7828b.jpg?s=512&d=https%3A%2F%2Fa.slack-edge.com%2Fdf10d%2Fimg%2Favatars%2Fava_0004-512.png", "custom_css": null}, {"id": 102, "slack_id": "U07AM3C0VR8", "display_name": "owais", "bio": null, "projects_count": 1, "devlogs_count": 0, "votes_count": 0, "ships_count": 0, "projects": [{"id": 27, "title": "Lighthouse!", "devlogs_count": 0, "created_at": "2025-06-16T01:02:52.994-04:00"}], "coding_time_seconds": 2484, "coding_time_seconds_today": 0, "balance": "You need to have a pocket watcher badge to view this.", "badges": [], "created_at": "2025-06-15T22:50:15.548-04:00", "updated_at": "2025-08-05T12:48:34.168-04:00", "avatar": "https://avatars.slack-edge.com/2025-04-10/8735506420404_61425540b3793334b2fa_original.jpg", "custom_css": null}, {"id": 103, "slack_id": "U07NKS9S8GZ", "display_name": "Ryan (Jules)", "bio": null, "projects_count": 0, "devlogs_count": 0, "votes_count": 0, "ships_count": 0, "projects": [], "coding_time_seconds": 120, "coding_time_seconds_today": 0, "balance": "You need to have a pocket watcher badge to view this.", "badges": [], "created_at": "2025-06-15T22:53:25.124-04:00", "updated_at": "2025-07-03T19:11:25.697-04:00", "avatar": "https://avatars.slack-edge.com/2025-05-31/8977985969237_6b8848f697c183039af4_original.png", "custom_css": null}, {"id": 104, "slack_id": "U0868GCS15Z", "display_name": "Lavish Agrawal", "bio": null, "projects_count": 0, "devlogs_count": 0, "votes_count": 0, "ships_count": 0, "projects": [], "coding_time_seconds": 7496, "coding_time_seconds_today": 0, "balance": "You need to have a pocket watcher badge to view this.", "badges": [], "created_at": "2025-06-15T22:54:27.796-04:00", "updated_at": "2025-07-03T19:11:25.982-04:00", "avatar": "https://secure.gravatar.com/avatar/f8df780c1174f77beb92270a55692642.jpg?s=512&d=https%3A%2F%2Fa.slack-edge.com%2Fdf10d%2Fimg%2Favatars%2Fava_0008-512.png", "custom_css": null}, {"id": 105, "slack_id": "U082UPS8WAC", "display_name": "tanvi", "bio": null, "projects_count": 0, "devlogs_count": 0, "votes_count": 0, "ships_count": 0, "projects": [], "coding_time_seconds": 0, "coding_time_seconds_today": 0, "balance": "You need to have a pocket watcher badge to view this.", "badges": [], "created_at": "2025-06-15T22:55:59.426-04:00", "updated_at": "2025-07-03T19:11:26.246-04:00", "avatar": "https://avatars.slack-edge.com/2025-06-22/9078257003923_de0768b67a6266ca380c_original.jpg", "custom_css": null}, {"id": 106, "slack_id": "U080F2DBJJX", "display_name": "Jai", "bio": null, "projects_count": 0, "devlogs_count": 0, "votes_count": 0, "ships_count": 0, "projects": [], "coding_time_seconds": 0, "coding_time_seconds_today": 0, "balance": "You need to have a pocket watcher badge to view this.", "badges": [], "created_at": "2025-06-15T23:19:35.061-04:00", "updated_at": "2025-07-03T19:11:26.533-04:00", "avatar": "https://avatars.slack-edge.com/2024-11-21/8064744777860_65143ec1b1e4def5d1e1_original.png", "custom_css": null}, {"id": 107, "slack_id": "U04RA9UV3RA", "display_name": "john", "bio": null, "projects_count": 0, "devlogs_count": 0, "votes_count": 0, "ships_count": 0, "projects": [], "coding_time_seconds": 34366, "coding_time_seconds_today": 0, "balance": "You need to have a pocket watcher badge to view this.", "badges": [], "created_at": "2025-06-15T23:28:01.207-04:00", "updated_at": "2025-07-03T19:11:26.808-04:00", "avatar": "https://avatars.slack-edge.com/2024-12-03/8123525231780_04ff9925ff72df9c7d67_original.png", "custom_css": null}, {"id": 108, "slack_id": "U083VVA9M0W", "display_name": "Mohammed Zaid ( Zino )", "bio": null, "projects_count": 3, "devlogs_count": 13, "votes_count": 60, "ships_count": 3, "projects": [{"id": 5956, "title": "Grubby!", "devlogs_count": 1, "created_at": "2025-07-09T11:52:53.461-04:00"}, {"id": 8355, "title": "Pixie!~", "devlogs_count": 4, "created_at": "2025-07-26T12:14:40.752-04:00"}, {"id": 3888, "title": "Therapy Bubble V1", "devlogs_count": 8, "created_at": "2025-06-26T06:26:38.513-04:00"}], "coding_time_seconds": 51981, "coding_time_seconds_today": 2267, "balance": "You need to have a pocket watcher badge to view this.", "badges": [{"name": "Maiden Voyage", "text": "you shipped your first project! the journey begins...", "icon": "\ud83d\udea2"}], "created_at": "2025-06-15T23:28:50.438-04:00", "updated_at": "2025-09-18T18:00:17.405-04:00", "avatar": "https://avatars.slack-edge.com/2025-09-18/9570063458400_dc64a1fcee81f0306160_original.png", "custom_css": null}, {"id": 109, "slack_id": "U09278C98C8", "display_name": "no cap", "bio": null, "projects_count": 0, "devlogs_count": 0, "votes_count": 0, "ships_count": 0, "projects": [], "coding_time_seconds": 0, "coding_time_seconds_today": 0, "balance": "You need to have a pocket watcher badge to view this.", "badges": [], "created_at": "2025-06-15T23:34:58.869-04:00", "updated_at": "2025-07-03T19:11:27.344-04:00", "avatar": "https://avatars.slack-edge.com/2025-06-15/9075291105024_356fbb7203d3c6f7870a_original.png", "custom_css": null}, {"id": 110, "slack_id": "U086YN4ULMS", "display_name": "DURG supplier", "bio": null, "projects_count": 0, "devlogs_count": 2, "votes_count": 0, "ships_count": 0, "projects": [], "coding_time_seconds": 42182, "coding_time_seconds_today": 0, "balance": "You need to have a pocket watcher badge to view this.", "badges": [], "created_at": "2025-06-15T23:38:13.889-04:00", "updated_at": "2025-07-23T17:01:24.231-04:00", "avatar": "https://secure.gravatar.com/avatar/20c9d91d40378da967cb82ae2b1a22b5.jpg?s=512&d=https%3A%2F%2Fa.slack-edge.com%2Fdf10d%2Fimg%2Favatars%2Fava_0011-512.png", "custom_css": null}, {"id": 111, "slack_id": "U08TLAQ2B1N", "display_name": "Atharv", "bio": null, "projects_count": 0, "devlogs_count": 1, "votes_count": 0, "ships_count": 0, "projects": [], "coding_time_seconds": 84392, "coding_time_seconds_today": 0, "balance": "You need to have a pocket watcher badge to view this.", "badges": [], "created_at": "2025-06-15T23:40:04.342-04:00", "updated_at": "2025-09-01T00:07:10.151-04:00", "avatar": "https://avatars.slack-edge.com/2025-05-19/8914472029749_4e0444024d94aa7fecbf_original.jpg", "custom_css": null}, {"id": 112, "slack_id": "U04J8RCP4RW", "display_name": "Checkers", "bio": null, "projects_count": 6, "devlogs_count": 15, "votes_count": 25, "ships_count": 0, "projects": [{"id": 10918, "title": "Auto router", "devlogs_count": 8, "created_at": "2025-08-11T19:11:10.218-04:00"}, {"id": 12839, "title": "EXE installer", "devlogs_count": 0, "created_at": "2025-09-03T13:54:47.279-04:00"}, {"id": 12840, "title": "LnOTES", "devlogs_count": 0, "created_at": "2025-09-03T13:56:59.471-04:00"}, {"id": 12844, "title": "Nabu ", "devlogs_count": 0, "created_at": "2025-09-03T14:12:31.876-04:00"}, {"id": 12845, "title": "Mega viewer", "devlogs_count": 0, "created_at": "2025-09-03T14:14:26.941-04:00"}, {"id": 13196, "title": "Audio baker", "devlogs_count": 1, "created_at": "2025-09-11T11:46:17.854-04:00"}], "coding_time_seconds": 349416, "coding_time_seconds_today": 0, "balance": "You need to have a pocket watcher badge to view this.", "badges": [{"name": "Maiden Voyage", "text": "you shipped your first project! the journey begins...", "icon": "\ud83d\udea2"}], "created_at": "2025-06-15T23:44:46.028-04:00", "updated_at": "2025-09-10T22:51:09.308-04:00", "avatar": "https://avatars.slack-edge.com/2024-02-01/6562491344614_14ad40401ffd5005913d_original.png", "custom_css": null}, {"id": 113, "slack_id": "U083F2N7ZAM", "display_name": "BetterClient", "bio": null, "projects_count": 8, "devlogs_count": 90, "votes_count": 28, "ships_count": 2, "projects": [{"id": 123, "title": "Reverse Cursor", "devlogs_count": 9, "created_at": "2025-06-16T14:05:09.473-04:00"}, {"id": 3163, "title": "Xylophone", "devlogs_count": 6, "created_at": "2025-06-23T09:39:31.834-04:00"}, {"id": 4425, "title": "ClackyBoard", "devlogs_count": 1, "created_at": "2025-06-29T19:20:09.626-04:00"}, {"id": 5621, "title": "Gifify", "devlogs_count": 5, "created_at": "2025-07-06T16:26:00.455-04:00"}, {"id": 7371, "title": "Asphalt", "devlogs_count": 3, "created_at": "2025-07-21T11:35:15.478-04:00"}, {"id": 9965, "title": "J++", "devlogs_count": 9, "created_at": "2025-08-03T07:34:32.918-04:00"}, {"id": 11131, "title": "Ascendium", "devlogs_count": 50, "created_at": "2025-08-13T11:30:08.100-04:00"}, {"id": 13277, "title": "Summer of Making Shop Tracker", "devlogs_count": 7, "created_at": "2025-09-13T05:58:14.694-04:00"}], "coding_time_seconds": 810852, "coding_time_seconds_today": 0, "balance": "You need to have a pocket watcher badge to view this.", "badges": [{"name": "Maiden Voyage", "text": "you shipped your first project! the journey begins...", "icon": "\ud83d\udea2"}], "created_at": "2025-06-15T23:52:34.086-04:00", "updated_at": "2025-09-21T16:10:54.294-04:00", "avatar": "https://avatars.slack-edge.com/2025-02-27/8541973059712_37e1c34da3d506f891c4_original.png", "custom_css": null}, {"id": 114, "slack_id": "U07NXNK171N", "display_name": "Taran the Idiot", "bio": null, "projects_count": 1, "devlogs_count": 0, "votes_count": 0, "ships_count": 0, "projects": [{"id": 1281, "title": "Fold Board", "devlogs_count": 0, "created_at": "2025-06-18T05:10:06.211-04:00"}], "coding_time_seconds": 75884, "coding_time_seconds_today": 0, "balance": "You need to have a pocket watcher badge to view this.", "badges": [], "created_at": "2025-06-15T23:57:25.023-04:00", "updated_at": "2025-09-07T00:06:25.002-04:00", "avatar": "https://avatars.slack-edge.com/2025-08-24/9403415057236_7c60d8621aba93059b5b_original.png", "custom_css": null}, {"id": 115, "slack_id": "U088A30VB9R", "display_name": "bladerunner", "bio": null, "projects_count": 2, "devlogs_count": 2, "votes_count": 0, "ships_count": 0, "projects": [{"id": 1293, "title": "Glimpse: Chrome Extension", "devlogs_count": 2, "created_at": "2025-06-18T06:32:20.111-04:00"}, {"id": 35, "title": "Whim: The Anti-Productivity To-Do App", "devlogs_count": 0, "created_at": "2025-06-16T04:44:42.600-04:00"}], "coding_time_seconds": 92666, "coding_time_seconds_today": 0, "balance": "You need to have a pocket watcher badge to view this.", "badges": [], "created_at": "2025-06-15T23:58:24.131-04:00", "updated_at": "2025-07-03T19:11:28.963-04:00", "avatar": "https://avatars.slack-edge.com/2025-06-01/9005870493968_032a2eb07636d13ad280_original.jpg", "custom_css": null}, {"id": 116, "slack_id": "U07UL1VLZQB", "display_name": "maahi", "bio": "coder who makes cool not-soulless stuff\r\nhe/him \u00b7 trans dude", "projects_count": 1, "devlogs_count": 2, "votes_count": 20, "ships_count": 1, "projects": [{"id": 10548, "title": "Better Minecarts", "devlogs_count": 2, "created_at": "2025-08-08T02:27:25.914-04:00"}], "coding_time_seconds": 76624, "coding_time_seconds_today": 0, "balance": "You need to have a pocket watcher badge to view this.", "badges": [{"name": "Maiden Voyage", "text": "you shipped your first project! the journey begins...", "icon": "\ud83d\udea2"}], "created_at": "2025-06-16T00:00:33.958-04:00", "updated_at": "2025-09-10T22:51:09.429-04:00", "avatar": "https://avatars.slack-edge.com/2025-06-19/9068055406547_562252ef9f06b44a4976_original.png", "custom_css": null}, {"id": 117, "slack_id": "U0894AG5K1C", "display_name": "Mister Bashyal", "bio": "Check out my github: @Prarambha369", "projects_count": 0, "devlogs_count": 26, "votes_count": 20, "ships_count": 0, "projects": [], "coding_time_seconds": 515386, "coding_time_seconds_today": 0, "balance": "You need to have a pocket watcher badge to view this.", "badges": [{"name": "Maiden Voyage", "text": "you shipped your first project! the journey begins...", "icon": "\ud83d\udea2"}], "created_at": "2025-06-16T00:02:10.706-04:00", "updated_at": "2025-09-10T22:51:09.458-04:00", "avatar": "https://avatars.slack-edge.com/2025-07-27/9257498208790_b7582b974e5c7256a7e0_original.png", "custom_css": null}, {"id": 118, "slack_id": "U080EQT0Q4W", "display_name": "wenbang", "bio": null, "projects_count": 2, "devlogs_count": 7, "votes_count": 27, "ships_count": 2, "projects": [{"id": 409, "title": "fyora", "devlogs_count": 4, "created_at": "2025-06-16T20:28:46.613-04:00"}, {"id": 8404, "title": "XPType", "devlogs_count": 3, "created_at": "2025-07-26T22:09:17.005-04:00"}], "coding_time_seconds": 298284, "coding_time_seconds_today": 4917, "balance": "You need to have a pocket watcher badge to view this.", "badges": [{"name": "Maiden Voyage", "text": "you shipped your first project! the journey begins...", "icon": "\ud83d\udea2"}], "created_at": "2025-06-16T00:05:06.904-04:00", "updated_at": "2025-09-10T22:51:09.482-04:00", "avatar": "https://avatars.slack-edge.com/2025-07-27/9261412061828_3e5875facd0a224760d9_original.jpg", "custom_css": null}, {"id": 119, "slack_id": "U08F1KG2YFK", "display_name": "doge", "bio": null, "projects_count": 3, "devlogs_count": 3, "votes_count": 7, "ships_count": 0, "projects": [{"id": 540, "title": "d2t ev", "devlogs_count": 2, "created_at": "2025-06-17T00:47:48.920-04:00"}, {"id": 4046, "title": "FTC Libs", "devlogs_count": 1, "created_at": "2025-06-27T03:31:01.993-04:00"}, {"id": 4569, "title": "notakeeb", "devlogs_count": 0, "created_at": "2025-06-30T17:20:53.053-04:00"}], "coding_time_seconds": 45909, "coding_time_seconds_today": 0, "balance": "You need to have a pocket watcher badge to view this.", "badges": [], "created_at": "2025-06-16T00:07:59.140-04:00", "updated_at": "2025-08-06T14:43:49.288-04:00", "avatar": "https://avatars.slack-edge.com/2025-06-28/9119852108098_ef96d9f502dec43d7b83_original.jpg", "custom_css": null}, {"id": 120, "slack_id": "U04GVEDH049", "display_name": "Abhay", "bio": null, "projects_count": 4, "devlogs_count": 15, "votes_count": 80, "ships_count": 3, "projects": [{"id": 3190, "title": "Why go retro?", "devlogs_count": 2, "created_at": "2025-06-23T11:32:18.665-04:00"}, {"id": 492, "title": "Emotions!", "devlogs_count": 1, "created_at": "2025-06-16T23:34:26.912-04:00"}, {"id": 6113, "title": "world shift", "devlogs_count": 1, "created_at": "2025-07-10T15:30:44.733-04:00"}, {"id": 5305, "title": "JunkLang - A fastfood programming language", "devlogs_count": 10, "created_at": "2025-07-04T11:17:36.487-04:00"}], "coding_time_seconds": 371725, "coding_time_seconds_today": 1312, "balance": "You need to have a pocket watcher badge to view this.", "badges": [{"name": "Maiden Voyage", "text": "you shipped your first project! the journey begins...", "icon": "\ud83d\udea2"}], "created_at": "2025-06-16T00:14:02.796-04:00", "updated_at": "2025-09-10T22:51:09.545-04:00", "avatar": "https://avatars.slack-edge.com/2025-07-22/9259165348496_dd0f423372695d50ea46_original.png", "custom_css": null}], "pagination": {"page": 6, "pages": 1192, "count": 23827, "items": 20}}