{"users": [{"id": 1181, "slack_id": "U09183MLXU7", "display_name": "aidan", "bio": null, "projects_count": 0, "devlogs_count": 0, "votes_count": 0, "ships_count": 0, "projects": [], "coding_time_seconds": 476, "coding_time_seconds_today": 0, "balance": "You need to have a pocket watcher badge to view this.", "badges": [], "created_at": "2025-06-16T12:48:24.604-04:00", "updated_at": "2025-07-03T19:16:28.319-04:00", "avatar": "https://secure.gravatar.com/avatar/2d6f16ddbb448b183e8f79977be731f3.jpg?s=512&d=https%3A%2F%2Fa.slack-edge.com%2Fdf10d%2Fimg%2Favatars%2Fava_0023-512.png", "custom_css": null}, {"id": 1182, "slack_id": "U092BSPLM3J", "display_name": "Mukund Prasad", "bio": null, "projects_count": 0, "devlogs_count": 0, "votes_count": 0, "ships_count": 0, "projects": [], "coding_time_seconds": 0, "coding_time_seconds_today": 0, "balance": "You need to have a pocket watcher badge to view this.", "badges": [], "created_at": "2025-06-16T12:48:32.169-04:00", "updated_at": "2025-07-03T19:16:28.593-04:00", "avatar": "https://secure.gravatar.com/avatar/004e3d6e480a3ec83ca716003c28a521.jpg?s=512&d=https%3A%2F%2Fa.slack-edge.com%2Fdf10d%2Fimg%2Favatars%2Fava_0011-512.png", "custom_css": null}, {"id": 1183, "slack_id": "U091MK61ELV", "display_name": "Rodrigo", "bio": null, "projects_count": 0, "devlogs_count": 0, "votes_count": 0, "ships_count": 0, "projects": [], "coding_time_seconds": 0, "coding_time_seconds_today": 0, "balance": "You need to have a pocket watcher badge to view this.", "badges": [], "created_at": "2025-06-16T12:48:58.428-04:00", "updated_at": "2025-07-03T19:16:28.864-04:00", "avatar": "https://secure.gravatar.com/avatar/05489835de26c883789d5f949ae8534d.jpg?s=512&d=https%3A%2F%2Fa.slack-edge.com%2Fdf10d%2Fimg%2Favatars%2Fava_0001-512.png", "custom_css": null}, {"id": 1184, "slack_id": "U09183QJ5P1", "display_name": "PIAL PAUL", "bio": null, "projects_count": 0, "devlogs_count": 0, "votes_count": 0, "ships_count": 0, "projects": [], "coding_time_seconds": 0, "coding_time_seconds_today": 0, "balance": "You need to have a pocket watcher badge to view this.", "badges": [], "created_at": "2025-06-16T12:49:02.967-04:00", "updated_at": "2025-07-03T19:16:29.144-04:00", "avatar": "https://avatars.slack-edge.com/2025-06-16/9079921952480_152821325094f151f107_original.jpg", "custom_css": null}, {"id": 1185, "slack_id": "U091GDLQJ59", "display_name": "Amjad Ali", "bio": null, "projects_count": 0, "devlogs_count": 0, "votes_count": 0, "ships_count": 0, "projects": [], "coding_time_seconds": 0, "coding_time_seconds_today": 0, "balance": "You need to have a pocket watcher badge to view this.", "badges": [], "created_at": "2025-06-16T12:49:22.244-04:00", "updated_at": "2025-07-03T19:16:29.428-04:00", "avatar": "https://secure.gravatar.com/avatar/6714ae9df1d502b175afe28307ec101f.jpg?s=512&d=https%3A%2F%2Fa.slack-edge.com%2Fdf10d%2Fimg%2Favatars%2Fava_0014-512.png", "custom_css": null}, {"id": 1186, "slack_id": "U091MK9EKS9", "display_name": "kanisa", "bio": null, "projects_count": 0, "devlogs_count": 0, "votes_count": 0, "ships_count": 0, "projects": [], "coding_time_seconds": 24310, "coding_time_seconds_today": 0, "balance": "You need to have a pocket watcher badge to view this.", "badges": [], "created_at": "2025-06-16T12:49:29.224-04:00", "updated_at": "2025-07-03T19:16:29.694-04:00", "avatar": "https://secure.gravatar.com/avatar/f0cf81c2405bc6795a33e74bea8fd295.jpg?s=512&d=https%3A%2F%2Fa.slack-edge.com%2Fdf10d%2Fimg%2Favatars%2Fava_0011-512.png", "custom_css": null}, {"id": 1187, "slack_id": "U0921UPH4PK", "display_name": "Bilderbest", "bio": null, "projects_count": 0, "devlogs_count": 0, "votes_count": 0, "ships_count": 0, "projects": [], "coding_time_seconds": 0, "coding_time_seconds_today": 0, "balance": "You need to have a pocket watcher badge to view this.", "badges": [], "created_at": "2025-06-16T12:49:46.996-04:00", "updated_at": "2025-07-03T19:16:29.964-04:00", "avatar": "https://secure.gravatar.com/avatar/74e1f18b310d2d25e51ebe495f72deef.jpg?s=512&d=https%3A%2F%2Fa.slack-edge.com%2Fdf10d%2Fimg%2Favatars%2Fava_0006-512.png", "custom_css": null}, {"id": 1188, "slack_id": "U09183DKURM", "display_name": "Sebik", "bio": null, "projects_count": 0, "devlogs_count": 0, "votes_count": 0, "ships_count": 0, "projects": [], "coding_time_seconds": 0, "coding_time_seconds_today": 0, "balance": "You need to have a pocket watcher badge to view this.", "badges": [], "created_at": "2025-06-16T12:49:48.110-04:00", "updated_at": "2025-07-03T19:16:30.229-04:00", "avatar": "https://secure.gravatar.com/avatar/905cf64fd17765fb260441a6c7f6466b.jpg?s=512&d=https%3A%2F%2Fa.slack-edge.com%2Fdf10d%2Fimg%2Favatars%2Fava_0006-512.png", "custom_css": null}, {"id": 1189, "slack_id": "U0921V9AB09", "display_name": "Daksh Khandelwal", "bio": null, "projects_count": 0, "devlogs_count": 0, "votes_count": 0, "ships_count": 0, "projects": [], "coding_time_seconds": 986, "coding_time_seconds_today": 0, "balance": "You need to have a pocket watcher badge to view this.", "badges": [], "created_at": "2025-06-16T12:49:54.102-04:00", "updated_at": "2025-07-03T19:16:30.503-04:00", "avatar": "https://avatars.slack-edge.com/2025-06-16/9050487801667_a754f2130cc1772c34a7_original.png", "custom_css": null}, {"id": 1190, "slack_id": "U092BRN8BAL", "display_name": "Shivam Kumar", "bio": null, "projects_count": 0, "devlogs_count": 0, "votes_count": 0, "ships_count": 0, "projects": [], "coding_time_seconds": 0, "coding_time_seconds_today": 0, "balance": "You need to have a pocket watcher badge to view this.", "badges": [], "created_at": "2025-06-16T12:50:00.029-04:00", "updated_at": "2025-07-03T19:16:30.782-04:00", "avatar": "https://avatars.slack-edge.com/2025-06-16/9050586820102_333c8307b516d8aa071e_original.png", "custom_css": null}, {"id": 1191, "slack_id": "U091GD4LS91", "display_name": "Abner Fernandes", "bio": null, "projects_count": 0, "devlogs_count": 0, "votes_count": 0, "ships_count": 0, "projects": [], "coding_time_seconds": 0, "coding_time_seconds_today": 0, "balance": "You need to have a pocket watcher badge to view this.", "badges": [], "created_at": "2025-06-16T12:50:01.355-04:00", "updated_at": "2025-07-03T19:16:31.057-04:00", "avatar": "https://avatars.slack-edge.com/2025-06-16/9055682624005_fcbd324bea2df98f23b4_original.jpg", "custom_css": null}, {"id": 1192, "slack_id": "U091MK6JC6R", "display_name": "Daniel Soto", "bio": null, "projects_count": 0, "devlogs_count": 0, "votes_count": 0, "ships_count": 0, "projects": [], "coding_time_seconds": 840379, "coding_time_seconds_today": 0, "balance": "You need to have a pocket watcher badge to view this.", "badges": [], "created_at": "2025-06-16T12:50:06.803-04:00", "updated_at": "2025-07-03T19:16:31.325-04:00", "avatar": "https://avatars.slack-edge.com/2025-06-16/9050488519507_1e4c21b937d82cc35547_original.jpg", "custom_css": null}, {"id": 1193, "slack_id": "U091GGERXDL", "display_name": "Stein", "bio": null, "projects_count": 2, "devlogs_count": 10, "votes_count": 14, "ships_count": 1, "projects": [{"id": 144, "title": "Finura", "devlogs_count": 10, "created_at": "2025-06-16T14:26:44.756-04:00"}, {"id": 4534, "title": "RWS", "devlogs_count": 0, "created_at": "2025-06-30T13:38:34.107-04:00"}], "coding_time_seconds": 419873, "coding_time_seconds_today": 0, "balance": "You need to have a pocket watcher badge to view this.", "badges": [{"name": "Maiden Voyage", "text": "you shipped your first project! the journey begins...", "icon": "\ud83d\udea2"}], "created_at": "2025-06-16T12:50:17.120-04:00", "updated_at": "2025-09-10T22:51:45.039-04:00", "avatar": "https://avatars.slack-edge.com/2025-06-16/9050978224307_c734d0a56f45d79530e1_original.jpg", "custom_css": null}, {"id": 1194, "slack_id": "U092BT23V5W", "display_name": "Matthew", "bio": null, "projects_count": 0, "devlogs_count": 0, "votes_count": 0, "ships_count": 0, "projects": [], "coding_time_seconds": 0, "coding_time_seconds_today": 0, "balance": "You need to have a pocket watcher badge to view this.", "badges": [], "created_at": "2025-06-16T12:50:17.249-04:00", "updated_at": "2025-07-03T19:16:31.880-04:00", "avatar": "https://secure.gravatar.com/avatar/67eafc73e8781dd28f7a97e3724fd278.jpg?s=512&d=https%3A%2F%2Fa.slack-edge.com%2Fdf10d%2Fimg%2Favatars%2Fava_0007-512.png", "custom_css": null}, {"id": 1195, "slack_id": "U09183WENBH", "display_name": "heyobi", "bio": null, "projects_count": 0, "devlogs_count": 0, "votes_count": 0, "ships_count": 0, "projects": [], "coding_time_seconds": 0, "coding_time_seconds_today": 0, "balance": "You need to have a pocket watcher badge to view this.", "badges": [], "created_at": "2025-06-16T12:50:18.294-04:00", "updated_at": "2025-07-03T19:16:32.145-04:00", "avatar": "https://secure.gravatar.com/avatar/ce5b947a8202db877e25dbb4b2b85ea9.jpg?s=512&d=https%3A%2F%2Fa.slack-edge.com%2Fdf10d%2Fimg%2Favatars%2Fava_0025-512.png", "custom_css": null}, {"id": 1196, "slack_id": "U091MKJP98D", "display_name": "Gaurav Bhatt", "bio": null, "projects_count": 0, "devlogs_count": 0, "votes_count": 0, "ships_count": 0, "projects": [], "coding_time_seconds": 0, "coding_time_seconds_today": 0, "balance": "You need to have a pocket watcher badge to view this.", "badges": [], "created_at": "2025-06-16T12:50:30.744-04:00", "updated_at": "2025-07-03T19:16:32.415-04:00", "avatar": "https://avatars.slack-edge.com/2025-06-16/9070014027745_981f95a6957d56b16ca8_original.png", "custom_css": null}, {"id": 1197, "slack_id": "U056EAXHA9L", "display_name": "Yancheng", "bio": null, "projects_count": 0, "devlogs_count": 0, "votes_count": 0, "ships_count": 0, "projects": [], "coding_time_seconds": 114383, "coding_time_seconds_today": 0, "balance": "You need to have a pocket watcher badge to view this.", "badges": [], "created_at": "2025-06-16T12:50:36.258-04:00", "updated_at": "2025-08-20T20:03:59.338-04:00", "avatar": "https://avatars.slack-edge.com/2025-08-20/9386448203478_9c07314eb1db88c8ed3b_original.png", "custom_css": null}, {"id": 1198, "slack_id": "U091GGGK35L", "display_name": "Krishna Agrawal", "bio": null, "projects_count": 0, "devlogs_count": 0, "votes_count": 0, "ships_count": 0, "projects": [], "coding_time_seconds": 0, "coding_time_seconds_today": 0, "balance": "You need to have a pocket watcher badge to view this.", "badges": [], "created_at": "2025-06-16T12:50:42.328-04:00", "updated_at": "2025-07-03T19:16:32.951-04:00", "avatar": "https://secure.gravatar.com/avatar/29bfcb91d68bd3e9e0bad13ba2e08152.jpg?s=512&d=https%3A%2F%2Fa.slack-edge.com%2Fdf10d%2Fimg%2Favatars%2Fava_0002-512.png", "custom_css": null}, {"id": 1199, "slack_id": "U091PR7MFGU", "display_name": "sourabh raut", "bio": null, "projects_count": 0, "devlogs_count": 0, "votes_count": 0, "ships_count": 0, "projects": [], "coding_time_seconds": 14764, "coding_time_seconds_today": 0, "balance": "You need to have a pocket watcher badge to view this.", "badges": [], "created_at": "2025-06-16T12:50:51.916-04:00", "updated_at": "2025-07-03T19:16:33.224-04:00", "avatar": "https://secure.gravatar.com/avatar/e711ddbc54fed523200d9987eff41604.jpg?s=512&d=https%3A%2F%2Fa.slack-edge.com%2Fdf10d%2Fimg%2Favatars%2Fava_0005-512.png", "custom_css": null}, {"id": 1200, "slack_id": "U08RN3BT6CC", "display_name": "Isak Fiksdal", "bio": null, "projects_count": 0, "devlogs_count": 0, "votes_count": 0, "ships_count": 0, "projects": [], "coding_time_seconds": 368818, "coding_time_seconds_today": 1409, "balance": "You need to have a pocket watcher badge to view this.", "badges": [], "created_at": "2025-06-16T12:51:00.614-04:00", "updated_at": "2025-08-12T23:20:46.108-04:00", "avatar": "https://secure.gravatar.com/avatar/1dffa1abd6078a92584d576ec05d36a3.jpg?s=512&d=https%3A%2F%2Fa.slack-edge.com%2Fdf10d%2Fimg%2Favatars%2Fava_0021-512.png", "custom_css": null}], "pagination": {"page": 60, "pages": 1192, "count": 23827, "items": 20}}