{"users": [{"id": 11981, "slack_id": "U09344EC5T2", "display_name": "Aarzoo Bansal", "bio": null, "projects_count": 0, "devlogs_count": 0, "votes_count": 0, "ships_count": 0, "projects": [], "coding_time_seconds": 0, "coding_time_seconds_today": 0, "balance": "You need to have a pocket watcher badge to view this.", "badges": [], "created_at": "2025-06-24T01:40:00.085-04:00", "updated_at": "2025-07-03T20:02:07.368-04:00", "avatar": "https://avatars.slack-edge.com/2025-06-23/9092239708597_4673eacdec24e15948b2_original.png", "custom_css": null}, {"id": 11982, "slack_id": "U092JPBPXU3", "display_name": "Leon Marco Devela", "bio": null, "projects_count": 0, "devlogs_count": 0, "votes_count": 0, "ships_count": 0, "projects": [], "coding_time_seconds": 0, "coding_time_seconds_today": 0, "balance": "You need to have a pocket watcher badge to view this.", "badges": [], "created_at": "2025-06-24T01:47:34.178-04:00", "updated_at": "2025-07-03T20:02:07.629-04:00", "avatar": "https://avatars.slack-edge.com/2025-06-23/9087960533078_89f80ee6ba7a03183ab7_original.png", "custom_css": null}, {"id": 11983, "slack_id": "U091GP1004T", "display_name": "Ahad", "bio": null, "projects_count": 0, "devlogs_count": 0, "votes_count": 0, "ships_count": 0, "projects": [], "coding_time_seconds": 0, "coding_time_seconds_today": 0, "balance": "You need to have a pocket watcher badge to view this.", "badges": [], "created_at": "2025-06-24T01:54:00.653-04:00", "updated_at": "2025-07-03T20:02:07.893-04:00", "avatar": "https://secure.gravatar.com/avatar/ce3b07361b8976dd37031cc5daa2f2bf.jpg?s=512&d=https%3A%2F%2Fa.slack-edge.com%2Fdf10d%2Fimg%2Favatars%2Fava_0001-512.png", "custom_css": null}, {"id": 11984, "slack_id": "U092JRKT5UK", "display_name": "Glory", "bio": null, "projects_count": 0, "devlogs_count": 0, "votes_count": 0, "ships_count": 0, "projects": [], "coding_time_seconds": 0, "coding_time_seconds_today": 0, "balance": "You need to have a pocket watcher badge to view this.", "badges": [], "created_at": "2025-06-24T02:11:00.314-04:00", "updated_at": "2025-07-03T20:02:08.162-04:00", "avatar": "https://avatars.slack-edge.com/2025-06-23/9093867760498_b45bf7d0f513e9ff5226_original.jpg", "custom_css": null}, {"id": 11985, "slack_id": "U092JR54DS7", "display_name": "Alua", "bio": null, "projects_count": 0, "devlogs_count": 0, "votes_count": 0, "ships_count": 0, "projects": [], "coding_time_seconds": 0, "coding_time_seconds_today": 0, "balance": "You need to have a pocket watcher badge to view this.", "badges": [], "created_at": "2025-06-24T02:20:31.536-04:00", "updated_at": "2025-07-04T02:32:03.893-04:00", "avatar": "https://secure.gravatar.com/avatar/eebeb35689cd1614a13960acff1c6841.jpg?s=512&d=https%3A%2F%2Fa.slack-edge.com%2Fdf10d%2Fimg%2Favatars%2Fava_0014-512.png", "custom_css": null}, {"id": 11986, "slack_id": "U092BAC71L7", "display_name": "Xname", "bio": null, "projects_count": 3, "devlogs_count": 8, "votes_count": 0, "ships_count": 0, "projects": [{"id": 3374, "title": "Idle Game Unity", "devlogs_count": 1, "created_at": "2025-06-24T02:37:59.514-04:00"}, {"id": 3376, "title": "ReactFrontend", "devlogs_count": 2, "created_at": "2025-06-24T02:53:23.092-04:00"}, {"id": 7398, "title": "Lifeline", "devlogs_count": 2, "created_at": "2025-07-21T15:47:43.580-04:00"}], "coding_time_seconds": 25549, "coding_time_seconds_today": 0, "balance": "You need to have a pocket watcher badge to view this.", "badges": [], "created_at": "2025-06-24T02:24:57.070-04:00", "updated_at": "2025-07-03T20:02:08.598-04:00", "avatar": "https://secure.gravatar.com/avatar/10d2f43e92d11b0ae803d0731b26d03d.jpg?s=512&d=https%3A%2F%2Fa.slack-edge.com%2Fdf10d%2Fimg%2Favatars%2Fava_0008-512.png", "custom_css": null}, {"id": 11987, "slack_id": "U092RTUP31Q", "display_name": "Arbind Mishra", "bio": null, "projects_count": 1, "devlogs_count": 2, "votes_count": 0, "ships_count": 0, "projects": [{"id": 3377, "title": "Okta Role Mining with OPA-Driven Access Recommendations", "devlogs_count": 2, "created_at": "2025-06-24T03:00:20.712-04:00"}], "coding_time_seconds": 75979, "coding_time_seconds_today": 0, "balance": "You need to have a pocket watcher badge to view this.", "badges": [], "created_at": "2025-06-24T02:36:17.905-04:00", "updated_at": "2025-07-05T02:13:23.155-04:00", "avatar": "https://avatars.slack-edge.com/2025-06-23/9088135625878_cfb98c4406519ff4fd75_original.jpg", "custom_css": null}, {"id": 11988, "slack_id": "U091Q4WU0SE", "display_name": "jannetta", "bio": null, "projects_count": 0, "devlogs_count": 0, "votes_count": 0, "ships_count": 0, "projects": [], "coding_time_seconds": 0, "coding_time_seconds_today": 0, "balance": "You need to have a pocket watcher badge to view this.", "badges": [], "created_at": "2025-06-24T02:38:54.423-04:00", "updated_at": "2025-07-04T20:12:44.171-04:00", "avatar": "https://secure.gravatar.com/avatar/29d544fdefbd14ea72faf41b61e3af8d.jpg?s=512&d=https%3A%2F%2Fa.slack-edge.com%2Fdf10d%2Fimg%2Favatars%2Fava_0014-512.png", "custom_css": null}, {"id": 11989, "slack_id": "U093DGCMR4Y", "display_name": "sovan Acharya", "bio": null, "projects_count": 0, "devlogs_count": 0, "votes_count": 0, "ships_count": 0, "projects": [], "coding_time_seconds": 0, "coding_time_seconds_today": 0, "balance": "You need to have a pocket watcher badge to view this.", "badges": [], "created_at": "2025-06-24T02:39:41.556-04:00", "updated_at": "2025-07-03T22:02:44.784-04:00", "avatar": "https://secure.gravatar.com/avatar/60a32feff6ba34b354666ac1324d915c.jpg?s=512&d=https%3A%2F%2Fa.slack-edge.com%2Fdf10d%2Fimg%2Favatars%2Fava_0016-512.png", "custom_css": null}, {"id": 11990, "slack_id": "U092QDJRD9T", "display_name": "Flameo", "bio": null, "projects_count": 1, "devlogs_count": 1, "votes_count": 0, "ships_count": 0, "projects": [{"id": 3379, "title": "zendev", "devlogs_count": 1, "created_at": "2025-06-24T03:04:39.776-04:00"}], "coding_time_seconds": 4566, "coding_time_seconds_today": 0, "balance": "You need to have a pocket watcher badge to view this.", "badges": [], "created_at": "2025-06-24T02:45:33.731-04:00", "updated_at": "2025-07-10T04:16:58.844-04:00", "avatar": "https://avatars.slack-edge.com/2025-06-24/9080119789447_6f7dd42fbd4071649554_original.jpg", "custom_css": null}, {"id": 11991, "slack_id": "U092BCL472T", "display_name": "110380 YASHIKA SINGH", "bio": null, "projects_count": 0, "devlogs_count": 0, "votes_count": 0, "ships_count": 0, "projects": [], "coding_time_seconds": 0, "coding_time_seconds_today": 0, "balance": "You need to have a pocket watcher badge to view this.", "badges": [], "created_at": "2025-06-24T02:45:36.331-04:00", "updated_at": "2025-07-03T20:02:09.701-04:00", "avatar": "https://avatars.slack-edge.com/2025-06-23/9087028730099_991dc00a98407fc338b7_original.png", "custom_css": null}, {"id": 11992, "slack_id": "U092K103GLB", "display_name": "Gautam", "bio": null, "projects_count": 2, "devlogs_count": 5, "votes_count": 9, "ships_count": 1, "projects": [{"id": 3656, "title": "Discord Bot", "devlogs_count": 5, "created_at": "2025-06-25T05:41:17.841-04:00"}, {"id": 8195, "title": "Java DSA", "devlogs_count": 0, "created_at": "2025-07-25T07:02:55.224-04:00"}], "coding_time_seconds": 35303, "coding_time_seconds_today": 0, "balance": "You need to have a pocket watcher badge to view this.", "badges": [{"name": "Maiden Voyage", "text": "you shipped your first project! the journey begins...", "icon": "\ud83d\udea2"}], "created_at": "2025-06-24T02:56:04.964-04:00", "updated_at": "2025-09-10T22:57:10.532-04:00", "avatar": "https://secure.gravatar.com/avatar/c2daffe2e775f156a74a120009bf77cf.jpg?s=512&d=https%3A%2F%2Fa.slack-edge.com%2Fdf10d%2Fimg%2Favatars%2Fava_0026-512.png", "custom_css": null}, {"id": 11993, "slack_id": "U08BZEY0HJ9", "display_name": "CyclopsDev", "bio": null, "projects_count": 0, "devlogs_count": 0, "votes_count": 0, "ships_count": 0, "projects": [], "coding_time_seconds": 0, "coding_time_seconds_today": 0, "balance": "You need to have a pocket watcher badge to view this.", "badges": [], "created_at": "2025-06-24T02:59:09.936-04:00", "updated_at": "2025-07-05T08:13:42.816-04:00", "avatar": "https://avatars.slack-edge.com/2025-02-07/8431051199425_892015462c8741ea65fc_original.jpg", "custom_css": null}, {"id": 11994, "slack_id": "U07JW3FFGRW", "display_name": "falcoln", "bio": null, "projects_count": 4, "devlogs_count": 20, "votes_count": 6, "ships_count": 4, "projects": [{"id": 5198, "title": "PathFinding ALgorithm", "devlogs_count": 4, "created_at": "2025-07-03T17:20:35.356-04:00"}, {"id": 3506, "title": "Bug Simulation - Ant", "devlogs_count": 5, "created_at": "2025-06-24T14:05:14.297-04:00"}, {"id": 6265, "title": "Graph-Forge", "devlogs_count": 6, "created_at": "2025-07-11T18:56:03.528-04:00"}, {"id": 10003, "title": "Galaxy WebGL Simulation", "devlogs_count": 5, "created_at": "2025-08-03T11:40:24.716-04:00"}], "coding_time_seconds": 250118, "coding_time_seconds_today": 0, "balance": "You need to have a pocket watcher badge to view this.", "badges": [{"name": "Maiden Voyage", "text": "you shipped your first project! the journey begins...", "icon": "\ud83d\udea2"}], "created_at": "2025-06-24T03:00:33.239-04:00", "updated_at": "2025-09-10T22:57:10.602-04:00", "avatar": "https://avatars.slack-edge.com/2024-08-23/7613432913574_971fc5a7ae9a68ec68ed_original.png", "custom_css": null}, {"id": 11995, "slack_id": "U07SGG492FP", "display_name": "Licnex", "bio": null, "projects_count": 2, "devlogs_count": 3, "votes_count": 20, "ships_count": 1, "projects": [{"id": 4214, "title": "TGameHub", "devlogs_count": 2, "created_at": "2025-06-28T08:11:35.196-04:00"}, {"id": 10686, "title": "Redemption", "devlogs_count": 1, "created_at": "2025-08-09T15:24:44.324-04:00"}], "coding_time_seconds": 218974, "coding_time_seconds_today": 0, "balance": "You need to have a pocket watcher badge to view this.", "badges": [{"name": "Maiden Voyage", "text": "you shipped your first project! the journey begins...", "icon": "\ud83d\udea2"}], "created_at": "2025-06-24T03:03:50.054-04:00", "updated_at": "2025-09-10T22:57:10.639-04:00", "avatar": "https://avatars.slack-edge.com/2025-06-25/9126880709200_76d3b5b4a34d546e1dcc_original.jpg", "custom_css": null}, {"id": 11996, "slack_id": "U092L76E70E", "display_name": "Dev Yadav", "bio": null, "projects_count": 0, "devlogs_count": 0, "votes_count": 0, "ships_count": 0, "projects": [], "coding_time_seconds": 158132, "coding_time_seconds_today": 0, "balance": "You need to have a pocket watcher badge to view this.", "badges": [], "created_at": "2025-06-24T03:06:13.439-04:00", "updated_at": "2025-07-09T02:28:11.966-04:00", "avatar": "https://secure.gravatar.com/avatar/79b80e9e01aab9c31c871a301311a7be.jpg?s=512&d=https%3A%2F%2Fa.slack-edge.com%2Fdf10d%2Fimg%2Favatars%2Fava_0011-512.png", "custom_css": null}, {"id": 11997, "slack_id": "U092BFYGLG7", "display_name": "Quantimerrr", "bio": null, "projects_count": 1, "devlogs_count": 1, "votes_count": 0, "ships_count": 0, "projects": [{"id": 3402, "title": "FolingFold", "devlogs_count": 1, "created_at": "2025-06-24T04:46:01.822-04:00"}], "coding_time_seconds": 4168, "coding_time_seconds_today": 0, "balance": "You need to have a pocket watcher badge to view this.", "badges": [], "created_at": "2025-06-24T03:10:18.796-04:00", "updated_at": "2025-07-10T02:36:19.796-04:00", "avatar": "https://secure.gravatar.com/avatar/930e1b9ee72b9a458241b13ad526aec0.jpg?s=512&d=https%3A%2F%2Fa.slack-edge.com%2Fdf10d%2Fimg%2Favatars%2Fava_0008-512.png", "custom_css": null}, {"id": 11998, "slack_id": "U092A7B17AP", "display_name": "Wahaj", "bio": null, "projects_count": 0, "devlogs_count": 0, "votes_count": 0, "ships_count": 0, "projects": [], "coding_time_seconds": 0, "coding_time_seconds_today": 0, "balance": "You need to have a pocket watcher badge to view this.", "badges": [], "created_at": "2025-06-24T03:13:07.074-04:00", "updated_at": "2025-07-03T20:02:11.445-04:00", "avatar": "https://secure.gravatar.com/avatar/de7982236223593e643dd2cc65cee8e1.jpg?s=512&d=https%3A%2F%2Fa.slack-edge.com%2Fdf10d%2Fimg%2Favatars%2Fava_0026-512.png", "custom_css": null}, {"id": 11999, "slack_id": "U0919D66Z9V", "display_name": "Natalia Bogarin", "bio": null, "projects_count": 0, "devlogs_count": 0, "votes_count": 0, "ships_count": 0, "projects": [], "coding_time_seconds": 0, "coding_time_seconds_today": 0, "balance": "You need to have a pocket watcher badge to view this.", "badges": [], "created_at": "2025-06-24T03:27:09.342-04:00", "updated_at": "2025-07-03T20:02:11.711-04:00", "avatar": "https://secure.gravatar.com/avatar/c263a5e2f837be74cf0b0c1d85a9fa99.jpg?s=512&d=https%3A%2F%2Fa.slack-edge.com%2Fdf10d%2Fimg%2Favatars%2Fava_0005-512.png", "custom_css": null}, {"id": 12000, "slack_id": "U092S6GBXCJ", "display_name": "Manchan", "bio": null, "projects_count": 6, "devlogs_count": 20, "votes_count": 33, "ships_count": 5, "projects": [{"id": 4347, "title": "RAGBOT , locally hosted", "devlogs_count": 3, "created_at": "2025-06-29T08:47:17.236-04:00"}, {"id": 7039, "title": "Research-iiitk", "devlogs_count": 4, "created_at": "2025-07-18T13:22:08.172-04:00"}, {"id": 8309, "title": "Alumni", "devlogs_count": 1, "created_at": "2025-07-26T04:54:22.070-04:00"}, {"id": 9961, "title": "Documentation Website", "devlogs_count": 1, "created_at": "2025-08-03T06:59:04.540-04:00"}, {"id": 5453, "title": "College helper BOT", "devlogs_count": 3, "created_at": "2025-07-05T11:47:10.513-04:00"}, {"id": 3914, "title": "Data structures and Algorithms quiz website", "devlogs_count": 8, "created_at": "2025-06-26T09:46:41.420-04:00"}], "coding_time_seconds": 242573, "coding_time_seconds_today": 172, "balance": "You need to have a pocket watcher badge to view this.", "badges": [{"name": "Maiden Voyage", "text": "you shipped your first project! the journey begins...", "icon": "\ud83d\udea2"}], "created_at": "2025-06-24T03:41:18.224-04:00", "updated_at": "2025-09-10T22:57:10.813-04:00", "avatar": "https://avatars.slack-edge.com/2025-06-29/9143474118464_2a773269c64e0c195ac3_original.jpg", "custom_css": null}], "pagination": {"page": 600, "pages": 1192, "count": 23828, "items": 20}}