{"users": [{"id": 12001, "slack_id": "U091N77H5GE", "display_name": "Genadiy", "bio": null, "projects_count": 0, "devlogs_count": 0, "votes_count": 0, "ships_count": 0, "projects": [], "coding_time_seconds": 0, "coding_time_seconds_today": 0, "balance": "You need to have a pocket watcher badge to view this.", "badges": [], "created_at": "2025-06-24T03:43:06.911-04:00", "updated_at": "2025-07-03T20:02:12.133-04:00", "avatar": "https://secure.gravatar.com/avatar/90520371a1144b57b586d185b04a8fe7.jpg?s=512&d=https%3A%2F%2Fa.slack-edge.com%2Fdf10d%2Fimg%2Favatars%2Fava_0007-512.png", "custom_css": null}, {"id": 12002, "slack_id": "U092200GJP3", "display_name": "\u00c1ron", "bio": null, "projects_count": 0, "devlogs_count": 0, "votes_count": 0, "ships_count": 0, "projects": [], "coding_time_seconds": 0, "coding_time_seconds_today": 0, "balance": "You need to have a pocket watcher badge to view this.", "badges": [], "created_at": "2025-06-24T03:43:48.795-04:00", "updated_at": "2025-07-03T20:02:12.395-04:00", "avatar": "https://secure.gravatar.com/avatar/dd00ea3554ba35dcf33c53c9e5b09da6.jpg?s=512&d=https%3A%2F%2Fa.slack-edge.com%2Fdf10d%2Fimg%2Favatars%2Fava_0024-512.png", "custom_css": null}, {"id": 12003, "slack_id": "U092CDXFT9U", "display_name": "Null", "bio": null, "projects_count": 0, "devlogs_count": 0, "votes_count": 0, "ships_count": 0, "projects": [], "coding_time_seconds": 0, "coding_time_seconds_today": 0, "balance": "You need to have a pocket watcher badge to view this.", "badges": [], "created_at": "2025-06-24T03:53:36.924-04:00", "updated_at": "2025-07-03T20:02:12.658-04:00", "avatar": "https://secure.gravatar.com/avatar/d5fed09ca8462c05d1ea983aab10683d.jpg?s=512&d=https%3A%2F%2Fa.slack-edge.com%2Fdf10d%2Fimg%2Favatars%2Fava_0007-512.png", "custom_css": null}, {"id": 12004, "slack_id": "U0929SQ4LSK", "display_name": "radix", "bio": null, "projects_count": 0, "devlogs_count": 0, "votes_count": 0, "ships_count": 0, "projects": [], "coding_time_seconds": 0, "coding_time_seconds_today": 0, "balance": "You need to have a pocket watcher badge to view this.", "badges": [], "created_at": "2025-06-24T04:10:51.699-04:00", "updated_at": "2025-07-03T20:02:12.922-04:00", "avatar": "https://secure.gravatar.com/avatar/c496fa0fe66bce9d4804ae0e3d7baf1d.jpg?s=512&d=https%3A%2F%2Fa.slack-edge.com%2Fdf10d%2Fimg%2Favatars%2Fava_0006-512.png", "custom_css": null}, {"id": 12005, "slack_id": "U092SRP9XSQ", "display_name": "sharmavishvesh", "bio": null, "projects_count": 0, "devlogs_count": 0, "votes_count": 0, "ships_count": 0, "projects": [], "coding_time_seconds": 36378, "coding_time_seconds_today": 0, "balance": "You need to have a pocket watcher badge to view this.", "badges": [], "created_at": "2025-06-24T04:11:46.573-04:00", "updated_at": "2025-07-03T20:02:13.184-04:00", "avatar": "https://secure.gravatar.com/avatar/4a90aef19e5f718197dd0b628d37b57b.jpg?s=512&d=https%3A%2F%2Fa.slack-edge.com%2Fdf10d%2Fimg%2Favatars%2Fava_0003-512.png", "custom_css": null}, {"id": 12006, "slack_id": "U07FM1YDD6V", "display_name": "funtime.foxy", "bio": null, "projects_count": 0, "devlogs_count": 0, "votes_count": 0, "ships_count": 0, "projects": [], "coding_time_seconds": 24464, "coding_time_seconds_today": 0, "balance": "You need to have a pocket watcher badge to view this.", "badges": [], "created_at": "2025-06-24T04:13:46.205-04:00", "updated_at": "2025-07-03T20:02:13.454-04:00", "avatar": "https://avatars.slack-edge.com/2025-01-25/8372114992432_c1fd32e8a3d3a8f927d0_original.jpg", "custom_css": null}, {"id": 12007, "slack_id": "U092H2WRBNZ", "display_name": "precyors", "bio": null, "projects_count": 0, "devlogs_count": 0, "votes_count": 0, "ships_count": 0, "projects": [], "coding_time_seconds": 0, "coding_time_seconds_today": 0, "balance": "You need to have a pocket watcher badge to view this.", "badges": [], "created_at": "2025-06-24T04:16:55.559-04:00", "updated_at": "2025-07-03T20:02:13.721-04:00", "avatar": "https://secure.gravatar.com/avatar/d70846ec1f4d93e6ad4c302cf2a3b7d7.jpg?s=512&d=https%3A%2F%2Fa.slack-edge.com%2Fdf10d%2Fimg%2Favatars%2Fava_0022-512.png", "custom_css": null}, {"id": 12008, "slack_id": "U092KGECFH9", "display_name": "Bishal", "bio": null, "projects_count": 0, "devlogs_count": 0, "votes_count": 0, "ships_count": 0, "projects": [], "coding_time_seconds": 0, "coding_time_seconds_today": 0, "balance": "You need to have a pocket watcher badge to view this.", "badges": [], "created_at": "2025-06-24T04:41:51.902-04:00", "updated_at": "2025-07-03T20:02:14.002-04:00", "avatar": "https://secure.gravatar.com/avatar/20c8f9444d41d94584a8503f1f1cdc12.jpg?s=512&d=https%3A%2F%2Fa.slack-edge.com%2Fdf10d%2Fimg%2Favatars%2Fava_0011-512.png", "custom_css": null}, {"id": 12009, "slack_id": "U092ELVD0N4", "display_name": "johal", "bio": null, "projects_count": 0, "devlogs_count": 0, "votes_count": 0, "ships_count": 0, "projects": [], "coding_time_seconds": 55331, "coding_time_seconds_today": 0, "balance": "You need to have a pocket watcher badge to view this.", "badges": [], "created_at": "2025-06-24T04:49:11.817-04:00", "updated_at": "2025-07-03T20:02:14.263-04:00", "avatar": "https://secure.gravatar.com/avatar/42f1be79eb4bd52a956ea157ff884f7c.jpg?s=512&d=https%3A%2F%2Fa.slack-edge.com%2Fdf10d%2Fimg%2Favatars%2Fava_0006-512.png", "custom_css": null}, {"id": 12010, "slack_id": "U091Q0UUVMJ", "display_name": "glowria", "bio": null, "projects_count": 0, "devlogs_count": 0, "votes_count": 0, "ships_count": 0, "projects": [], "coding_time_seconds": 0, "coding_time_seconds_today": 0, "balance": "You need to have a pocket watcher badge to view this.", "badges": [], "created_at": "2025-06-24T04:58:20.570-04:00", "updated_at": "2025-07-03T20:02:14.526-04:00", "avatar": "https://secure.gravatar.com/avatar/aab7ff2dcb6f1616444e971a0d9a6696.jpg?s=512&d=https%3A%2F%2Fa.slack-edge.com%2Fdf10d%2Fimg%2Favatars%2Fava_0012-512.png", "custom_css": null}, {"id": 12011, "slack_id": "U092S6WDM26", "display_name": "Aun Shahid", "bio": null, "projects_count": 1, "devlogs_count": 0, "votes_count": 0, "ships_count": 0, "projects": [{"id": 5915, "title": "MindScribe", "devlogs_count": 0, "created_at": "2025-07-09T04:53:02.629-04:00"}], "coding_time_seconds": 457472, "coding_time_seconds_today": 2294, "balance": "You need to have a pocket watcher badge to view this.", "badges": [], "created_at": "2025-06-24T05:06:51.870-04:00", "updated_at": "2025-07-09T04:50:52.350-04:00", "avatar": "https://secure.gravatar.com/avatar/b3fa60fe707c97daeb60faa7fc6ade27.jpg?s=512&d=https%3A%2F%2Fa.slack-edge.com%2Fdf10d%2Fimg%2Favatars%2Fava_0024-512.png", "custom_css": null}, {"id": 12012, "slack_id": "U081SNW7JUA", "display_name": "ren (electricxangel)", "bio": null, "projects_count": 0, "devlogs_count": 0, "votes_count": 0, "ships_count": 0, "projects": [], "coding_time_seconds": 0, "coding_time_seconds_today": 0, "balance": "You need to have a pocket watcher badge to view this.", "badges": [], "created_at": "2025-06-24T05:09:46.777-04:00", "updated_at": "2025-07-03T20:02:15.063-04:00", "avatar": "https://avatars.slack-edge.com/2024-11-21/8065523298884_6b9daa93308af2ea0dd1_original.png", "custom_css": null}, {"id": 12013, "slack_id": "U092R3UP24D", "display_name": "Shreya", "bio": null, "projects_count": 6, "devlogs_count": 28, "votes_count": 74, "ships_count": 5, "projects": [{"id": 8498, "title": "Feller", "devlogs_count": 5, "created_at": "2025-07-27T15:43:03.523-04:00"}, {"id": 9964, "title": "C++FunIdeas", "devlogs_count": 4, "created_at": "2025-08-03T07:33:48.434-04:00"}, {"id": 12402, "title": "Vr_dj", "devlogs_count": 1, "created_at": "2025-08-27T01:16:31.893-04:00"}, {"id": 12963, "title": "Portfolio", "devlogs_count": 0, "created_at": "2025-09-06T07:33:13.277-04:00"}, {"id": 4064, "title": "InternetButFUn", "devlogs_count": 15, "created_at": "2025-06-27T07:30:19.133-04:00"}, {"id": 10367, "title": "Iron-man VR game", "devlogs_count": 3, "created_at": "2025-08-06T10:30:03.260-04:00"}], "coding_time_seconds": 704336, "coding_time_seconds_today": 0, "balance": "You need to have a pocket watcher badge to view this.", "badges": [{"name": "Maiden Voyage", "text": "you shipped your first project! the journey begins...", "icon": "\ud83d\udea2"}], "created_at": "2025-06-24T05:10:51.023-04:00", "updated_at": "2025-09-10T22:57:11.143-04:00", "avatar": "https://secure.gravatar.com/avatar/2f507281ea43791b2c7de5dd9e7744b5.jpg?s=512&d=https%3A%2F%2Fa.slack-edge.com%2Fdf10d%2Fimg%2Favatars%2Fava_0015-512.png", "custom_css": null}, {"id": 12014, "slack_id": "U091P3KPM9A", "display_name": "Pierre", "bio": null, "projects_count": 0, "devlogs_count": 0, "votes_count": 0, "ships_count": 0, "projects": [], "coding_time_seconds": 0, "coding_time_seconds_today": 0, "balance": "You need to have a pocket watcher badge to view this.", "badges": [], "created_at": "2025-06-24T05:14:36.009-04:00", "updated_at": "2025-07-03T20:02:15.645-04:00", "avatar": "https://secure.gravatar.com/avatar/685ff1e9fe90b0cb56f704f1e690c10e.jpg?s=512&d=https%3A%2F%2Fa.slack-edge.com%2Fdf10d%2Fimg%2Favatars%2Fava_0012-512.png", "custom_css": null}, {"id": 12015, "slack_id": "U092R56SDGV", "display_name": "kraeb__", "bio": "hi", "projects_count": 6, "devlogs_count": 5, "votes_count": 2, "ships_count": 2, "projects": [{"id": 5151, "title": "simple password generator", "devlogs_count": 0, "created_at": "2025-07-03T13:47:19.558-04:00"}, {"id": 6471, "title": "ChatGupta", "devlogs_count": 0, "created_at": "2025-07-13T15:58:44.220-04:00"}, {"id": 9482, "title": "cook samosa", "devlogs_count": 0, "created_at": "2025-08-01T11:42:21.652-04:00"}, {"id": 11276, "title": "Campfire", "devlogs_count": 1, "created_at": "2025-08-14T13:57:23.394-04:00"}, {"id": 5423, "title": "Sharpnix", "devlogs_count": 2, "created_at": "2025-07-05T07:33:25.672-04:00"}, {"id": 5279, "title": "CLIChat", "devlogs_count": 2, "created_at": "2025-07-04T06:58:42.623-04:00"}], "coding_time_seconds": 49849, "coding_time_seconds_today": 0, "balance": "You need to have a pocket watcher badge to view this.", "badges": [{"name": "Maiden Voyage", "text": "you shipped your first project! the journey begins...", "icon": "\ud83d\udea2"}], "created_at": "2025-06-24T05:22:54.882-04:00", "updated_at": "2025-09-10T22:57:11.195-04:00", "avatar": "https://secure.gravatar.com/avatar/c65883507eefa092e72a937168d53337.jpg?s=512&d=https%3A%2F%2Fa.slack-edge.com%2Fdf10d%2Fimg%2Favatars%2Fava_0012-512.png", "custom_css": null}, {"id": 12016, "slack_id": "U08MGAR85PH", "display_name": "piez", "bio": null, "projects_count": 0, "devlogs_count": 0, "votes_count": 0, "ships_count": 0, "projects": [], "coding_time_seconds": 120, "coding_time_seconds_today": 0, "balance": "You need to have a pocket watcher badge to view this.", "badges": [], "created_at": "2025-06-24T05:32:38.920-04:00", "updated_at": "2025-07-03T20:02:16.188-04:00", "avatar": "https://avatars.slack-edge.com/2025-04-12/8749285220899_42f4ccaba84ee761b9a5_original.jpg", "custom_css": null}, {"id": 12017, "slack_id": "U092KE6G78E", "display_name": "EHDW", "bio": null, "projects_count": 0, "devlogs_count": 0, "votes_count": 0, "ships_count": 0, "projects": [], "coding_time_seconds": 0, "coding_time_seconds_today": 0, "balance": "You need to have a pocket watcher badge to view this.", "badges": [], "created_at": "2025-06-24T05:34:25.459-04:00", "updated_at": "2025-07-06T08:12:53.977-04:00", "avatar": "https://secure.gravatar.com/avatar/a08c0452802862375c33c9c75692c92f.jpg?s=512&d=https%3A%2F%2Fa.slack-edge.com%2Fdf10d%2Fimg%2Favatars%2Fava_0000-512.png", "custom_css": null}, {"id": 12018, "slack_id": "U07DXDSPHPE", "display_name": "Moksh", "bio": null, "projects_count": 3, "devlogs_count": 5, "votes_count": 1, "ships_count": 1, "projects": [{"id": 11160, "title": "Gmail Alias Wizard", "devlogs_count": 3, "created_at": "2025-08-13T16:41:38.623-04:00"}, {"id": 11235, "title": "Terminal Text Editor", "devlogs_count": 1, "created_at": "2025-08-14T07:21:21.130-04:00"}, {"id": 10592, "title": "Diet Tracker", "devlogs_count": 1, "created_at": "2025-08-08T14:04:56.318-04:00"}], "coding_time_seconds": 88230, "coding_time_seconds_today": 0, "balance": "You need to have a pocket watcher badge to view this.", "badges": [{"name": "Maiden Voyage", "text": "you shipped your first project! the journey begins...", "icon": "\ud83d\udea2"}], "created_at": "2025-06-24T05:34:32.523-04:00", "updated_at": "2025-09-10T22:57:11.297-04:00", "avatar": "https://secure.gravatar.com/avatar/9b396aa0a54357c4f36f8527f7744d34.jpg?s=512&d=https%3A%2F%2Fa.slack-edge.com%2Fdf10d%2Fimg%2Favatars%2Fava_0002-512.png", "custom_css": null}, {"id": 12019, "slack_id": "U092R7H3PAR", "display_name": "RCPCM USSPRC", "bio": null, "projects_count": 0, "devlogs_count": 0, "votes_count": 0, "ships_count": 0, "projects": [], "coding_time_seconds": 0, "coding_time_seconds_today": 0, "balance": "You need to have a pocket watcher badge to view this.", "badges": [], "created_at": "2025-06-24T05:37:27.114-04:00", "updated_at": "2025-07-04T08:28:19.789-04:00", "avatar": "https://secure.gravatar.com/avatar/8adb8b8015307325466df01f8eeb2766.jpg?s=512&d=https%3A%2F%2Fa.slack-edge.com%2Fdf10d%2Fimg%2Favatars%2Fava_0004-512.png", "custom_css": null}, {"id": 12020, "slack_id": "U092KSD1E2X", "display_name": "Nikhil Soni", "bio": null, "projects_count": 0, "devlogs_count": 0, "votes_count": 0, "ships_count": 0, "projects": [], "coding_time_seconds": 0, "coding_time_seconds_today": 0, "balance": "You need to have a pocket watcher badge to view this.", "badges": [], "created_at": "2025-06-24T05:49:42.688-04:00", "updated_at": "2025-07-03T20:02:16.973-04:00", "avatar": "https://secure.gravatar.com/avatar/0f183860ccc6d3529929a9f3672eddfc.jpg?s=512&d=https%3A%2F%2Fa.slack-edge.com%2Fdf10d%2Fimg%2Favatars%2Fava_0012-512.png", "custom_css": null}], "pagination": {"page": 601, "pages": 1192, "count": 23828, "items": 20}}