{"users": [{"id": 12021, "slack_id": "U092M11403Y", "display_name": "akshay", "bio": null, "projects_count": 0, "devlogs_count": 0, "votes_count": 0, "ships_count": 0, "projects": [], "coding_time_seconds": 0, "coding_time_seconds_today": 0, "balance": "You need to have a pocket watcher badge to view this.", "badges": [], "created_at": "2025-06-24T05:53:39.125-04:00", "updated_at": "2025-07-03T20:02:17.238-04:00", "avatar": "https://secure.gravatar.com/avatar/6793d525b01f68e38cba9ede38656222.jpg?s=512&d=https%3A%2F%2Fa.slack-edge.com%2Fdf10d%2Fimg%2Favatars%2Fava_0000-512.png", "custom_css": null}, {"id": 12022, "slack_id": "U092RBUJB8V", "display_name": "Andrea Robu", "bio": null, "projects_count": 0, "devlogs_count": 0, "votes_count": 0, "ships_count": 0, "projects": [], "coding_time_seconds": 0, "coding_time_seconds_today": 0, "balance": "You need to have a pocket watcher badge to view this.", "badges": [], "created_at": "2025-06-24T06:11:06.364-04:00", "updated_at": "2025-07-03T20:02:17.543-04:00", "avatar": "https://avatars.slack-edge.com/2025-06-24/9089137359606_4a7ec89afd40609c3819_original.png", "custom_css": null}, {"id": 12023, "slack_id": "U092RBW3HS9", "display_name": "Khushpreet kaur", "bio": null, "projects_count": 0, "devlogs_count": 0, "votes_count": 0, "ships_count": 0, "projects": [], "coding_time_seconds": 0, "coding_time_seconds_today": 0, "balance": "You need to have a pocket watcher badge to view this.", "badges": [], "created_at": "2025-06-24T06:11:47.207-04:00", "updated_at": "2025-07-03T20:02:17.817-04:00", "avatar": "https://secure.gravatar.com/avatar/c3d2363c0768c968151b42d99b18b775.jpg?s=512&d=https%3A%2F%2Fa.slack-edge.com%2Fdf10d%2Fimg%2Favatars%2Fava_0013-512.png", "custom_css": null}, {"id": 12024, "slack_id": "U091RLBC291", "display_name": "kubo", "bio": null, "projects_count": 0, "devlogs_count": 0, "votes_count": 0, "ships_count": 0, "projects": [], "coding_time_seconds": 24520, "coding_time_seconds_today": 0, "balance": "You need to have a pocket watcher badge to view this.", "badges": [], "created_at": "2025-06-24T06:19:51.139-04:00", "updated_at": "2025-07-03T20:02:18.088-04:00", "avatar": "https://secure.gravatar.com/avatar/701e50f039a7d487d6d130e0cbbeac22.jpg?s=512&d=https%3A%2F%2Fa.slack-edge.com%2Fdf10d%2Fimg%2Favatars%2Fava_0015-512.png", "custom_css": null}, {"id": 12025, "slack_id": "U0933TPUZ6C", "display_name": "Pratyush Dhital", "bio": null, "projects_count": 0, "devlogs_count": 0, "votes_count": 0, "ships_count": 0, "projects": [], "coding_time_seconds": 0, "coding_time_seconds_today": 0, "balance": "You need to have a pocket watcher badge to view this.", "badges": [], "created_at": "2025-06-24T06:29:44.103-04:00", "updated_at": "2025-07-03T20:02:18.354-04:00", "avatar": "https://secure.gravatar.com/avatar/9f190a652b462dfd3a1fc9b667dcc765.jpg?s=512&d=https%3A%2F%2Fa.slack-edge.com%2Fdf10d%2Fimg%2Favatars%2Fava_0013-512.png", "custom_css": null}, {"id": 12026, "slack_id": "U08UJDY4TBP", "display_name": "Nike", "bio": null, "projects_count": 0, "devlogs_count": 0, "votes_count": 2, "ships_count": 0, "projects": [], "coding_time_seconds": 204409, "coding_time_seconds_today": 0, "balance": "You need to have a pocket watcher badge to view this.", "badges": [], "created_at": "2025-06-24T06:37:59.759-04:00", "updated_at": "2025-07-30T17:54:45.812-04:00", "avatar": "https://avatars.slack-edge.com/2025-05-29/8996800990928_72d182cd8d5ed27b2ea6_original.jpg", "custom_css": null}, {"id": 12027, "slack_id": "U06FTV6SQAH", "display_name": "ZigaoWang", "bio": null, "projects_count": 0, "devlogs_count": 0, "votes_count": 0, "ships_count": 0, "projects": [], "coding_time_seconds": 113686, "coding_time_seconds_today": 3712, "balance": "You need to have a pocket watcher badge to view this.", "badges": [], "created_at": "2025-06-24T06:51:14.688-04:00", "updated_at": "2025-07-03T20:02:18.770-04:00", "avatar": "https://avatars.slack-edge.com/2024-06-23/7311111090662_d627db1a4e9adcde72cc_original.png", "custom_css": null}, {"id": 12028, "slack_id": "U07V6A7CCFR", "display_name": "Tanisha", "bio": null, "projects_count": 0, "devlogs_count": 0, "votes_count": 0, "ships_count": 0, "projects": [], "coding_time_seconds": 0, "coding_time_seconds_today": 0, "balance": "You need to have a pocket watcher badge to view this.", "badges": [], "created_at": "2025-06-24T06:54:19.576-04:00", "updated_at": "2025-07-03T20:02:19.053-04:00", "avatar": "https://avatars.slack-edge.com/2024-11-09/8007335267427_6687cce134d0bfd3a435_original.jpg", "custom_css": null}, {"id": 12029, "slack_id": "U092T442KC2", "display_name": "Shashwat Mishra", "bio": null, "projects_count": 0, "devlogs_count": 0, "votes_count": 0, "ships_count": 0, "projects": [], "coding_time_seconds": 222013, "coding_time_seconds_today": 0, "balance": "You need to have a pocket watcher badge to view this.", "badges": [], "created_at": "2025-06-24T06:58:44.478-04:00", "updated_at": "2025-07-03T20:02:19.313-04:00", "avatar": "https://secure.gravatar.com/avatar/781812bcf018c19aa98835fc313954eb.jpg?s=512&d=https%3A%2F%2Fa.slack-edge.com%2Fdf10d%2Fimg%2Favatars%2Fava_0011-512.png", "custom_css": null}, {"id": 12030, "slack_id": "U092CK6LKEK", "display_name": "Raghav Gupta", "bio": null, "projects_count": 1, "devlogs_count": 0, "votes_count": 0, "ships_count": 0, "projects": [{"id": 10953, "title": "Calculator app", "devlogs_count": 0, "created_at": "2025-08-12T02:32:30.014-04:00"}], "coding_time_seconds": 253, "coding_time_seconds_today": 0, "balance": "You need to have a pocket watcher badge to view this.", "badges": [], "created_at": "2025-06-24T07:00:55.296-04:00", "updated_at": "2025-09-20T00:06:27.198-04:00", "avatar": "https://secure.gravatar.com/avatar/da3301091a73e094ac1d3492c0fffb14.jpg?s=512&d=https%3A%2F%2Fa.slack-edge.com%2Fdf10d%2Fimg%2Favatars%2Fava_0006-512.png", "custom_css": null}, {"id": 12031, "slack_id": "U07CVC2CW95", "display_name": "Em", "bio": null, "projects_count": 0, "devlogs_count": 0, "votes_count": 0, "ships_count": 0, "projects": [], "coding_time_seconds": 3380, "coding_time_seconds_today": 0, "balance": "You need to have a pocket watcher badge to view this.", "badges": [], "created_at": "2025-06-24T07:11:58.822-04:00", "updated_at": "2025-07-03T20:02:19.725-04:00", "avatar": "https://avatars.slack-edge.com/2025-05-19/8941612347984_05de31566a6b640e8e5e_original.png", "custom_css": null}, {"id": 12032, "slack_id": "U092MC3E39C", "display_name": "klifton cheng", "bio": null, "projects_count": 0, "devlogs_count": 0, "votes_count": 0, "ships_count": 0, "projects": [], "coding_time_seconds": 1359, "coding_time_seconds_today": 0, "balance": "You need to have a pocket watcher badge to view this.", "badges": [], "created_at": "2025-06-24T07:21:46.162-04:00", "updated_at": "2025-07-03T20:02:19.992-04:00", "avatar": "https://avatars.slack-edge.com/2025-06-24/9093701565333_9f6c156d833e7efab5ac_original.jpg", "custom_css": null}, {"id": 12033, "slack_id": "U092CNM6SJK", "display_name": "Fb1an", "bio": null, "projects_count": 0, "devlogs_count": 0, "votes_count": 0, "ships_count": 0, "projects": [], "coding_time_seconds": 191461, "coding_time_seconds_today": 0, "balance": "You need to have a pocket watcher badge to view this.", "badges": [], "created_at": "2025-06-24T07:26:16.556-04:00", "updated_at": "2025-07-03T20:02:20.275-04:00", "avatar": "https://secure.gravatar.com/avatar/bb97b8babb4febf7878aff7a31e75648.jpg?s=512&d=https%3A%2F%2Fa.slack-edge.com%2Fdf10d%2Fimg%2Favatars%2Fava_0024-512.png", "custom_css": null}, {"id": 12034, "slack_id": "U092CP7GXFH", "display_name": "Anurag Kumar", "bio": null, "projects_count": 0, "devlogs_count": 0, "votes_count": 0, "ships_count": 0, "projects": [], "coding_time_seconds": 0, "coding_time_seconds_today": 0, "balance": "You need to have a pocket watcher badge to view this.", "badges": [], "created_at": "2025-06-24T07:30:40.884-04:00", "updated_at": "2025-07-03T20:02:20.540-04:00", "avatar": "https://secure.gravatar.com/avatar/cbca637833d583c7d84c256c02d388b6.jpg?s=512&d=https%3A%2F%2Fa.slack-edge.com%2Fdf10d%2Fimg%2Favatars%2Fava_0022-512.png", "custom_css": null}, {"id": 12035, "slack_id": "U092T1M695Y", "display_name": "Orezin", "bio": null, "projects_count": 1, "devlogs_count": 1, "votes_count": 0, "ships_count": 0, "projects": [{"id": 3443, "title": "Zenith", "devlogs_count": 1, "created_at": "2025-06-24T09:32:41.019-04:00"}], "coding_time_seconds": 5253, "coding_time_seconds_today": 0, "balance": "You need to have a pocket watcher badge to view this.", "badges": [], "created_at": "2025-06-24T07:31:32.979-04:00", "updated_at": "2025-09-07T08:51:12.125-04:00", "avatar": "https://avatars.slack-edge.com/2025-06-24/9109072536577_1818d012a6266af737e9_original.jpg", "custom_css": null}, {"id": 12036, "slack_id": "U08BR4E34JG", "display_name": "Joel", "bio": null, "projects_count": 0, "devlogs_count": 0, "votes_count": 0, "ships_count": 0, "projects": [], "coding_time_seconds": 0, "coding_time_seconds_today": 0, "balance": "You need to have a pocket watcher badge to view this.", "badges": [], "created_at": "2025-06-24T07:40:28.108-04:00", "updated_at": "2025-08-20T08:34:21.552-04:00", "avatar": "https://secure.gravatar.com/avatar/423b531354d5766d095cca9d3eb39d33.jpg?s=512&d=https%3A%2F%2Fa.slack-edge.com%2Fdf10d%2Fimg%2Favatars%2Fava_0005-512.png", "custom_css": null}, {"id": 12037, "slack_id": "U082G657Y9F", "display_name": "Soham", "bio": null, "projects_count": 0, "devlogs_count": 0, "votes_count": 0, "ships_count": 0, "projects": [], "coding_time_seconds": 0, "coding_time_seconds_today": 0, "balance": "You need to have a pocket watcher badge to view this.", "badges": [], "created_at": "2025-06-24T07:48:37.153-04:00", "updated_at": "2025-07-03T22:02:48.086-04:00", "avatar": "https://avatars.slack-edge.com/2024-12-06/8121105196535_9c47316e06883d4725aa_original.png", "custom_css": null}, {"id": 12038, "slack_id": "U092CRFRD71", "display_name": "Samar", "bio": null, "projects_count": 0, "devlogs_count": 0, "votes_count": 0, "ships_count": 0, "projects": [], "coding_time_seconds": 0, "coding_time_seconds_today": 0, "balance": "You need to have a pocket watcher badge to view this.", "badges": [], "created_at": "2025-06-24T07:50:27.862-04:00", "updated_at": "2025-07-03T20:02:21.340-04:00", "avatar": "https://secure.gravatar.com/avatar/ea44a1e02fae94efaa207d7e7e320864.jpg?s=512&d=https%3A%2F%2Fa.slack-edge.com%2Fdf10d%2Fimg%2Favatars%2Fava_0022-512.png", "custom_css": null}, {"id": 12039, "slack_id": "U092RPE0B9T", "display_name": "ZhouCaizhe", "bio": null, "projects_count": 0, "devlogs_count": 0, "votes_count": 0, "ships_count": 0, "projects": [], "coding_time_seconds": 17435, "coding_time_seconds_today": 0, "balance": "You need to have a pocket watcher badge to view this.", "badges": [], "created_at": "2025-06-24T07:50:57.806-04:00", "updated_at": "2025-07-03T20:02:21.629-04:00", "avatar": "https://secure.gravatar.com/avatar/9069a8083d626f0bba53c9a3ff0a1372.jpg?s=512&d=https%3A%2F%2Fa.slack-edge.com%2Fdf10d%2Fimg%2Favatars%2Fava_0020-512.png", "custom_css": null}, {"id": 12040, "slack_id": "U092TU43CN8", "display_name": "Ahmet K\u00dcPEL\u0130KILIN\u00c7", "bio": null, "projects_count": 0, "devlogs_count": 0, "votes_count": 0, "ships_count": 0, "projects": [], "coding_time_seconds": 0, "coding_time_seconds_today": 0, "balance": "You need to have a pocket watcher badge to view this.", "badges": [], "created_at": "2025-06-24T07:57:33.573-04:00", "updated_at": "2025-07-03T22:02:48.311-04:00", "avatar": "https://secure.gravatar.com/avatar/328f76839d1194cb1085d44b7516d2c6.jpg?s=512&d=https%3A%2F%2Fa.slack-edge.com%2Fdf10d%2Fimg%2Favatars%2Fava_0006-512.png", "custom_css": null}], "pagination": {"page": 602, "pages": 1192, "count": 23828, "items": 20}}