{"users": [{"id": 12041, "slack_id": "U09372RK18R", "display_name": "David", "bio": null, "projects_count": 0, "devlogs_count": 0, "votes_count": 0, "ships_count": 0, "projects": [], "coding_time_seconds": 0, "coding_time_seconds_today": 0, "balance": "You need to have a pocket watcher badge to view this.", "badges": [], "created_at": "2025-06-24T07:57:51.031-04:00", "updated_at": "2025-07-03T20:02:22.038-04:00", "avatar": "https://secure.gravatar.com/avatar/d65dc3fcf9be092bf70520b6548de3bf.jpg?s=512&d=https%3A%2F%2Fa.slack-edge.com%2Fdf10d%2Fimg%2Favatars%2Fava_0026-512.png", "custom_css": null}, {"id": 12042, "slack_id": "U092MGU9HQE", "display_name": "Dhee", "bio": null, "projects_count": 0, "devlogs_count": 0, "votes_count": 0, "ships_count": 0, "projects": [], "coding_time_seconds": 0, "coding_time_seconds_today": 0, "balance": "You need to have a pocket watcher badge to view this.", "badges": [], "created_at": "2025-06-24T08:00:46.699-04:00", "updated_at": "2025-07-03T20:02:22.303-04:00", "avatar": "https://secure.gravatar.com/avatar/ad67ca9482fb68acdedc554f78697f99.jpg?s=512&d=https%3A%2F%2Fa.slack-edge.com%2Fdf10d%2Fimg%2Favatars%2Fava_0019-512.png", "custom_css": null}, {"id": 12043, "slack_id": "U092ML781QE", "display_name": "AaronO", "bio": null, "projects_count": 0, "devlogs_count": 0, "votes_count": 0, "ships_count": 0, "projects": [], "coding_time_seconds": 0, "coding_time_seconds_today": 0, "balance": "You need to have a pocket watcher badge to view this.", "badges": [], "created_at": "2025-06-24T08:25:04.195-04:00", "updated_at": "2025-07-03T20:02:22.576-04:00", "avatar": "https://secure.gravatar.com/avatar/d9fd2f2b2f05f59a71f7e0e2909b2312.jpg?s=512&d=https%3A%2F%2Fa.slack-edge.com%2Fdf10d%2Fimg%2Favatars%2Fava_0023-512.png", "custom_css": null}, {"id": 12044, "slack_id": "U092U2SF9QU", "display_name": "Jakub Tvarozek", "bio": null, "projects_count": 3, "devlogs_count": 2, "votes_count": 0, "ships_count": 0, "projects": [{"id": 3444, "title": "STK - School Training Kiosk", "devlogs_count": 0, "created_at": "2025-06-24T09:45:30.852-04:00"}, {"id": 7541, "title": "PTS - Public Tranport Simulator", "devlogs_count": 2, "created_at": "2025-07-22T04:17:49.088-04:00"}, {"id": 9307, "title": "Sudoku solver", "devlogs_count": 0, "created_at": "2025-07-31T13:44:32.442-04:00"}], "coding_time_seconds": 32120, "coding_time_seconds_today": 0, "balance": "You need to have a pocket watcher badge to view this.", "badges": [], "created_at": "2025-06-24T08:25:25.736-04:00", "updated_at": "2025-07-03T20:02:22.838-04:00", "avatar": "https://avatars.slack-edge.com/2025-06-24/9089702724678_49b4079c921ea57e93fe_original.jpg", "custom_css": null}, {"id": 12045, "slack_id": "U092D19JANT", "display_name": "Jackwastakenx2", "bio": null, "projects_count": 1, "devlogs_count": 5, "votes_count": 0, "ships_count": 0, "projects": [{"id": 3484, "title": "Funny DELTARUNE Mod (working title)", "devlogs_count": 5, "created_at": "2025-06-24T12:31:39.321-04:00"}], "coding_time_seconds": 112912, "coding_time_seconds_today": 0, "balance": "You need to have a pocket watcher badge to view this.", "badges": [], "created_at": "2025-06-24T08:27:32.284-04:00", "updated_at": "2025-07-04T20:12:47.522-04:00", "avatar": "https://avatars.slack-edge.com/2025-06-24/9094279475685_539e3ec7e86985933eff_original.png", "custom_css": null}, {"id": 12046, "slack_id": "U092D2V5HM5", "display_name": "Finley Grekuhl", "bio": null, "projects_count": 1, "devlogs_count": 0, "votes_count": 0, "ships_count": 0, "projects": [{"id": 4068, "title": "BeLL - Textanalasys with AI", "devlogs_count": 0, "created_at": "2025-06-27T08:43:51.722-04:00"}], "coding_time_seconds": 11470, "coding_time_seconds_today": 0, "balance": "You need to have a pocket watcher badge to view this.", "badges": [], "created_at": "2025-06-24T08:37:18.419-04:00", "updated_at": "2025-07-03T20:02:23.251-04:00", "avatar": "https://avatars.slack-edge.com/2025-06-24/9096177025908_1bdec4fd9e2f8a028b18_original.png", "custom_css": null}, {"id": 12047, "slack_id": "U092MP61YF8", "display_name": "MarsDev", "bio": null, "projects_count": 0, "devlogs_count": 0, "votes_count": 0, "ships_count": 0, "projects": [], "coding_time_seconds": 4497, "coding_time_seconds_today": 0, "balance": "You need to have a pocket watcher badge to view this.", "badges": [], "created_at": "2025-06-24T08:46:36.409-04:00", "updated_at": "2025-07-03T20:02:23.528-04:00", "avatar": "https://secure.gravatar.com/avatar/8a137c4aca7d969fd6ad1a67bdef3795.jpg?s=512&d=https%3A%2F%2Fa.slack-edge.com%2Fdf10d%2Fimg%2Favatars%2Fava_0017-512.png", "custom_css": null}, {"id": 12048, "slack_id": "U0937B5CNTT", "display_name": "Joshua Liu", "bio": null, "projects_count": 4, "devlogs_count": 6, "votes_count": 5, "ships_count": 1, "projects": [{"id": 3518, "title": "MochBot", "devlogs_count": 4, "created_at": "2025-06-24T14:53:37.054-04:00"}, {"id": 4218, "title": "TETR.IO Replay Renderer", "devlogs_count": 1, "created_at": "2025-06-28T08:48:54.910-04:00"}, {"id": 8066, "title": "Personal CDN", "devlogs_count": 1, "created_at": "2025-07-24T11:17:31.896-04:00"}, {"id": 3801, "title": "Zoron", "devlogs_count": 0, "created_at": "2025-06-25T20:12:48.743-04:00"}], "coding_time_seconds": 771205, "coding_time_seconds_today": 0, "balance": "You need to have a pocket watcher badge to view this.", "badges": [{"name": "Maiden Voyage", "text": "you shipped your first project! the journey begins...", "icon": "\ud83d\udea2"}], "created_at": "2025-06-24T08:55:09.462-04:00", "updated_at": "2025-09-10T22:57:12.185-04:00", "avatar": "https://avatars.slack-edge.com/2025-06-24/9094104324133_8e4713d69011e59497b3_original.png", "custom_css": null}, {"id": 12049, "slack_id": "U091LTYMTH9", "display_name": "John Lex Bacani", "bio": null, "projects_count": 0, "devlogs_count": 0, "votes_count": 0, "ships_count": 0, "projects": [], "coding_time_seconds": 0, "coding_time_seconds_today": 0, "balance": "You need to have a pocket watcher badge to view this.", "badges": [], "created_at": "2025-06-24T09:01:47.075-04:00", "updated_at": "2025-07-03T20:02:24.084-04:00", "avatar": "https://secure.gravatar.com/avatar/ff6f535cae870ab423e302720fd471f0.jpg?s=512&d=https%3A%2F%2Fa.slack-edge.com%2Fdf10d%2Fimg%2Favatars%2Fava_0005-512.png", "custom_css": null}, {"id": 12050, "slack_id": "U092D69AET1", "display_name": "Nafees Ahmad", "bio": null, "projects_count": 0, "devlogs_count": 0, "votes_count": 0, "ships_count": 0, "projects": [], "coding_time_seconds": 0, "coding_time_seconds_today": 0, "balance": "You need to have a pocket watcher badge to view this.", "badges": [], "created_at": "2025-06-24T09:01:52.690-04:00", "updated_at": "2025-07-03T20:02:24.360-04:00", "avatar": "https://secure.gravatar.com/avatar/b50552de9077b57ceaedf733fc3f3c45.jpg?s=512&d=https%3A%2F%2Fa.slack-edge.com%2Fdf10d%2Fimg%2Favatars%2Fava_0004-512.png", "custom_css": null}, {"id": 12051, "slack_id": "U092U959EUC", "display_name": "Gabriel Rojas", "bio": null, "projects_count": 0, "devlogs_count": 0, "votes_count": 0, "ships_count": 0, "projects": [], "coding_time_seconds": 0, "coding_time_seconds_today": 0, "balance": "You need to have a pocket watcher badge to view this.", "badges": [], "created_at": "2025-06-24T09:03:27.357-04:00", "updated_at": "2025-07-03T22:02:49.051-04:00", "avatar": "https://secure.gravatar.com/avatar/e9f762f922e5a630916c07993c264499.jpg?s=512&d=https%3A%2F%2Fa.slack-edge.com%2Fdf10d%2Fimg%2Favatars%2Fava_0015-512.png", "custom_css": null}, {"id": 12052, "slack_id": "U091S5J4A10", "display_name": "Ritu Panchal", "bio": null, "projects_count": 0, "devlogs_count": 0, "votes_count": 0, "ships_count": 0, "projects": [], "coding_time_seconds": 0, "coding_time_seconds_today": 0, "balance": "You need to have a pocket watcher badge to view this.", "badges": [], "created_at": "2025-06-24T09:04:35.201-04:00", "updated_at": "2025-07-08T03:02:04.015-04:00", "avatar": "https://secure.gravatar.com/avatar/5ce3efa1cfcebe08ca7493434d4448cb.jpg?s=512&d=https%3A%2F%2Fa.slack-edge.com%2Fdf10d%2Fimg%2Favatars%2Fava_0018-512.png", "custom_css": null}, {"id": 12053, "slack_id": "U091S7XU4M8", "display_name": "pratham77", "bio": null, "projects_count": 0, "devlogs_count": 0, "votes_count": 0, "ships_count": 0, "projects": [], "coding_time_seconds": 0, "coding_time_seconds_today": 0, "balance": "You need to have a pocket watcher badge to view this.", "badges": [], "created_at": "2025-06-24T09:05:48.216-04:00", "updated_at": "2025-07-03T22:02:49.210-04:00", "avatar": "https://secure.gravatar.com/avatar/f7d1cbcbaf1fb51237e876f1e31ef1f5.jpg?s=512&d=https%3A%2F%2Fa.slack-edge.com%2Fdf10d%2Fimg%2Favatars%2Fava_0004-512.png", "custom_css": null}, {"id": 12054, "slack_id": "U092JK2EGC8", "display_name": "viral Jain", "bio": null, "projects_count": 0, "devlogs_count": 0, "votes_count": 0, "ships_count": 0, "projects": [], "coding_time_seconds": 0, "coding_time_seconds_today": 0, "balance": "You need to have a pocket watcher badge to view this.", "badges": [], "created_at": "2025-06-24T09:07:12.191-04:00", "updated_at": "2025-07-03T20:02:25.102-04:00", "avatar": "https://secure.gravatar.com/avatar/c25876bb6d8c7ee8b0037a7de4b81ebc.jpg?s=512&d=https%3A%2F%2Fa.slack-edge.com%2Fdf10d%2Fimg%2Favatars%2Fava_0017-512.png", "custom_css": null}, {"id": 12055, "slack_id": "U091LBCC62X", "display_name": "Aniket", "bio": null, "projects_count": 0, "devlogs_count": 0, "votes_count": 0, "ships_count": 0, "projects": [], "coding_time_seconds": 0, "coding_time_seconds_today": 0, "balance": "You need to have a pocket watcher badge to view this.", "badges": [], "created_at": "2025-06-24T09:07:27.960-04:00", "updated_at": "2025-07-05T08:13:47.008-04:00", "avatar": "https://secure.gravatar.com/avatar/9c4a09bcab037f67c13ff2513fd72239.jpg?s=512&d=https%3A%2F%2Fa.slack-edge.com%2Fdf10d%2Fimg%2Favatars%2Fava_0000-512.png", "custom_css": null}, {"id": 12056, "slack_id": "U081REEGNDV", "display_name": "AndyPandy", "bio": null, "projects_count": 1, "devlogs_count": 2, "votes_count": 0, "ships_count": 0, "projects": [{"id": 3538, "title": "Hot or not", "devlogs_count": 2, "created_at": "2025-06-24T15:58:16.629-04:00"}], "coding_time_seconds": 14496, "coding_time_seconds_today": 0, "balance": "You need to have a pocket watcher badge to view this.", "badges": [], "created_at": "2025-06-24T09:14:32.112-04:00", "updated_at": "2025-07-03T20:02:25.522-04:00", "avatar": "https://avatars.slack-edge.com/2024-11-23/8076813788916_9333531a82de18f76449_original.jpg", "custom_css": null}, {"id": 12057, "slack_id": "U09267R365P", "display_name": "Ian Bromwich", "bio": null, "projects_count": 0, "devlogs_count": 0, "votes_count": 0, "ships_count": 0, "projects": [], "coding_time_seconds": 0, "coding_time_seconds_today": 0, "balance": "You need to have a pocket watcher badge to view this.", "badges": [], "created_at": "2025-06-24T09:14:48.453-04:00", "updated_at": "2025-07-03T20:02:25.790-04:00", "avatar": "https://avatars.slack-edge.com/2025-06-24/9081326667991_de326d1844eb20d6b43b_original.jpg", "custom_css": null}, {"id": 12058, "slack_id": "U092LRB18AF", "display_name": "Chinh VQ", "bio": null, "projects_count": 0, "devlogs_count": 0, "votes_count": 0, "ships_count": 0, "projects": [], "coding_time_seconds": 0, "coding_time_seconds_today": 0, "balance": "You need to have a pocket watcher badge to view this.", "badges": [], "created_at": "2025-06-24T09:18:01.618-04:00", "updated_at": "2025-07-03T20:02:26.061-04:00", "avatar": "https://secure.gravatar.com/avatar/262ccc2aa9ff211d159b56ade3c0ed4c.jpg?s=512&d=https%3A%2F%2Fa.slack-edge.com%2Fdf10d%2Fimg%2Favatars%2Fava_0019-512.png", "custom_css": null}, {"id": 12059, "slack_id": "U092UD97876", "display_name": "esp", "bio": null, "projects_count": 2, "devlogs_count": 13, "votes_count": 0, "ships_count": 0, "projects": [{"id": 3696, "title": "courses-platform", "devlogs_count": 7, "created_at": "2025-06-25T09:04:04.057-04:00"}, {"id": 6140, "title": "dtrade", "devlogs_count": 6, "created_at": "2025-07-10T20:19:42.459-04:00"}], "coding_time_seconds": 382144, "coding_time_seconds_today": 0, "balance": "You need to have a pocket watcher badge to view this.", "badges": [], "created_at": "2025-06-24T09:27:39.205-04:00", "updated_at": "2025-08-12T20:44:45.311-04:00", "avatar": "https://secure.gravatar.com/avatar/22b79b17bc8d5d5542c5ea21c90fb48f.jpg?s=512&d=https%3A%2F%2Fa.slack-edge.com%2Fdf10d%2Fimg%2Favatars%2Fava_0004-512.png", "custom_css": null}, {"id": 12060, "slack_id": "U091N7YLB9T", "display_name": "Nihal Awasthi", "bio": null, "projects_count": 0, "devlogs_count": 0, "votes_count": 0, "ships_count": 0, "projects": [], "coding_time_seconds": 36169, "coding_time_seconds_today": 490, "balance": "You need to have a pocket watcher badge to view this.", "badges": [], "created_at": "2025-06-24T09:42:34.607-04:00", "updated_at": "2025-07-03T20:02:26.603-04:00", "avatar": "https://secure.gravatar.com/avatar/20dac837f16bd2d3599e0fdbbffae8c2.jpg?s=512&d=https%3A%2F%2Fa.slack-edge.com%2Fdf10d%2Fimg%2Favatars%2Fava_0025-512.png", "custom_css": null}], "pagination": {"page": 603, "pages": 1192, "count": 23828, "items": 20}}