{"users": [{"id": 12061, "slack_id": "U092M0DF56F", "display_name": "withoutcereal", "bio": null, "projects_count": 0, "devlogs_count": 0, "votes_count": 0, "ships_count": 0, "projects": [], "coding_time_seconds": 0, "coding_time_seconds_today": 0, "balance": "You need to have a pocket watcher badge to view this.", "badges": [], "created_at": "2025-06-24T09:43:16.084-04:00", "updated_at": "2025-07-05T08:13:47.634-04:00", "avatar": "https://avatars.slack-edge.com/2025-06-24/9096577559044_9dd6b22dd400e8be3d3d_original.jpg", "custom_css": null}, {"id": 12062, "slack_id": "U093GCY2TL0", "display_name": "MayKoder", "bio": null, "projects_count": 0, "devlogs_count": 0, "votes_count": 0, "ships_count": 0, "projects": [], "coding_time_seconds": 0, "coding_time_seconds_today": 0, "balance": "You need to have a pocket watcher badge to view this.", "badges": [], "created_at": "2025-06-24T10:07:45.271-04:00", "updated_at": "2025-07-04T02:32:08.933-04:00", "avatar": "https://secure.gravatar.com/avatar/d698f7c5cf2a8a6c16eed8ea8f481c19.jpg?s=512&d=https%3A%2F%2Fa.slack-edge.com%2Fdf10d%2Fimg%2Favatars%2Fava_0019-512.png", "custom_css": null}, {"id": 12063, "slack_id": "U091SA12Z7W", "display_name": "Shiva Mahipal", "bio": null, "projects_count": 0, "devlogs_count": 0, "votes_count": 0, "ships_count": 0, "projects": [], "coding_time_seconds": 120, "coding_time_seconds_today": 0, "balance": "You need to have a pocket watcher badge to view this.", "badges": [], "created_at": "2025-06-24T10:15:20.054-04:00", "updated_at": "2025-07-03T20:02:27.133-04:00", "avatar": "https://secure.gravatar.com/avatar/e3c54cfbc36f3a3c3d6380008fc22a3e.jpg?s=512&d=https%3A%2F%2Fa.slack-edge.com%2Fdf10d%2Fimg%2Favatars%2Fava_0018-512.png", "custom_css": null}, {"id": 12064, "slack_id": "U092M8HNJ8K", "display_name": "Nived_Piduri", "bio": null, "projects_count": 0, "devlogs_count": 0, "votes_count": 0, "ships_count": 0, "projects": [], "coding_time_seconds": 0, "coding_time_seconds_today": 0, "balance": "You need to have a pocket watcher badge to view this.", "badges": [], "created_at": "2025-06-24T10:25:35.526-04:00", "updated_at": "2025-07-03T20:02:27.393-04:00", "avatar": "https://secure.gravatar.com/avatar/8c6cb0a6456d6061443c8a9a58ba20c4.jpg?s=512&d=https%3A%2F%2Fa.slack-edge.com%2Fdf10d%2Fimg%2Favatars%2Fava_0004-512.png", "custom_css": null}, {"id": 12065, "slack_id": "U092NCX80P8", "display_name": "Little Miss Environment Nairobi County", "bio": null, "projects_count": 0, "devlogs_count": 0, "votes_count": 0, "ships_count": 0, "projects": [], "coding_time_seconds": 104941, "coding_time_seconds_today": 0, "balance": "You need to have a pocket watcher badge to view this.", "badges": [], "created_at": "2025-06-24T10:30:23.090-04:00", "updated_at": "2025-07-03T20:02:27.815-04:00", "avatar": "https://avatars.slack-edge.com/2025-06-24/9094669079989_e3c528729a3bd5d7e042_original.jpg", "custom_css": null}, {"id": 12066, "slack_id": "U091R6L15LM", "display_name": "Devansh Mangla", "bio": null, "projects_count": 0, "devlogs_count": 0, "votes_count": 0, "ships_count": 0, "projects": [], "coding_time_seconds": 285958, "coding_time_seconds_today": 4069, "balance": "You need to have a pocket watcher badge to view this.", "badges": [], "created_at": "2025-06-24T10:33:07.875-04:00", "updated_at": "2025-07-03T20:02:28.074-04:00", "avatar": "https://secure.gravatar.com/avatar/717fc789adf27f64aeb59aa30f0dda9e.jpg?s=512&d=https%3A%2F%2Fa.slack-edge.com%2Fdf10d%2Fimg%2Favatars%2Fava_0011-512.png", "custom_css": null}, {"id": 12067, "slack_id": "U092SLC5TC5", "display_name": "Hasan M", "bio": null, "projects_count": 0, "devlogs_count": 0, "votes_count": 0, "ships_count": 0, "projects": [], "coding_time_seconds": 0, "coding_time_seconds_today": 0, "balance": "You need to have a pocket watcher badge to view this.", "badges": [], "created_at": "2025-06-24T10:36:42.901-04:00", "updated_at": "2025-07-03T20:02:28.343-04:00", "avatar": "https://secure.gravatar.com/avatar/2cab7c3c0e895d6dd1e53afdb28a2ce1.jpg?s=512&d=https%3A%2F%2Fa.slack-edge.com%2Fdf10d%2Fimg%2Favatars%2Fava_0016-512.png", "custom_css": null}, {"id": 12068, "slack_id": "U09380ZF9TK", "display_name": "Aaron Iziyaev", "bio": null, "projects_count": 0, "devlogs_count": 0, "votes_count": 0, "ships_count": 0, "projects": [], "coding_time_seconds": 167574, "coding_time_seconds_today": 0, "balance": "You need to have a pocket watcher badge to view this.", "badges": [], "created_at": "2025-06-24T10:38:05.556-04:00", "updated_at": "2025-07-03T20:02:28.602-04:00", "avatar": "https://secure.gravatar.com/avatar/ddb537bc449bc9852611e659116f7145.jpg?s=512&d=https%3A%2F%2Fa.slack-edge.com%2Fdf10d%2Fimg%2Favatars%2Fava_0025-512.png", "custom_css": null}, {"id": 12069, "slack_id": "U092NFDHN0N", "display_name": "JOSEPH LEONARD LANDEO QUISPE", "bio": null, "projects_count": 0, "devlogs_count": 0, "votes_count": 0, "ships_count": 0, "projects": [], "coding_time_seconds": 0, "coding_time_seconds_today": 0, "balance": "You need to have a pocket watcher badge to view this.", "badges": [], "created_at": "2025-06-24T10:42:20.022-04:00", "updated_at": "2025-07-04T20:12:49.004-04:00", "avatar": "https://avatars.slack-edge.com/2025-06-24/9096372430450_af2dc354168bc3a3f97d_original.png", "custom_css": null}, {"id": 12070, "slack_id": "U092V0MJFAQ", "display_name": "Devansh Baghel", "bio": null, "projects_count": 0, "devlogs_count": 0, "votes_count": 0, "ships_count": 0, "projects": [], "coding_time_seconds": 0, "coding_time_seconds_today": 0, "balance": "You need to have a pocket watcher badge to view this.", "badges": [], "created_at": "2025-06-24T10:50:28.638-04:00", "updated_at": "2025-07-03T20:02:29.010-04:00", "avatar": "https://avatars.slack-edge.com/2025-06-24/9096422740610_e9c790b0f2f13695ca0b_original.png", "custom_css": null}, {"id": 12071, "slack_id": "U092V0YDBC4", "display_name": "mickael", "bio": null, "projects_count": 0, "devlogs_count": 0, "votes_count": 0, "ships_count": 0, "projects": [], "coding_time_seconds": 0, "coding_time_seconds_today": 0, "balance": "You need to have a pocket watcher badge to view this.", "badges": [], "created_at": "2025-06-24T10:51:29.996-04:00", "updated_at": "2025-07-04T02:32:09.536-04:00", "avatar": "https://secure.gravatar.com/avatar/18b7c30c5c06bf9dba9d98dc2e1d39b1.jpg?s=512&d=https%3A%2F%2Fa.slack-edge.com%2Fdf10d%2Fimg%2Favatars%2Fava_0001-512.png", "custom_css": null}, {"id": 12072, "slack_id": "U07FF4G21NF", "display_name": "datpengu", "bio": null, "projects_count": 1, "devlogs_count": 8, "votes_count": 10, "ships_count": 1, "projects": [{"id": 4508, "title": "Portfolio Website", "devlogs_count": 8, "created_at": "2025-06-30T11:10:38.911-04:00"}], "coding_time_seconds": 20690, "coding_time_seconds_today": 0, "balance": "You need to have a pocket watcher badge to view this.", "badges": [{"name": "Maiden Voyage", "text": "you shipped your first project! the journey begins...", "icon": "\ud83d\udea2"}], "created_at": "2025-06-24T11:00:42.372-04:00", "updated_at": "2025-09-10T22:57:12.904-04:00", "avatar": "https://avatars.slack-edge.com/2024-08-05/7548069549984_c7eb249ea749f9dd4040_original.png", "custom_css": null}, {"id": 12073, "slack_id": "U09382E4UFJ", "display_name": "Shobhit Singh", "bio": null, "projects_count": 0, "devlogs_count": 0, "votes_count": 0, "ships_count": 0, "projects": [], "coding_time_seconds": 0, "coding_time_seconds_today": 0, "balance": "You need to have a pocket watcher badge to view this.", "badges": [], "created_at": "2025-06-24T11:02:02.197-04:00", "updated_at": "2025-07-03T20:02:29.551-04:00", "avatar": "https://secure.gravatar.com/avatar/b44e94ca5bdf5848f8e0fc4f0e8d497e.jpg?s=512&d=https%3A%2F%2Fa.slack-edge.com%2Fdf10d%2Fimg%2Favatars%2Fava_0017-512.png", "custom_css": null}, {"id": 12074, "slack_id": "U092UEYCJ2E", "display_name": "shreyanshu", "bio": null, "projects_count": 0, "devlogs_count": 0, "votes_count": 0, "ships_count": 0, "projects": [], "coding_time_seconds": 5, "coding_time_seconds_today": 0, "balance": "You need to have a pocket watcher badge to view this.", "badges": [], "created_at": "2025-06-24T11:04:27.710-04:00", "updated_at": "2025-07-03T20:02:29.809-04:00", "avatar": "https://secure.gravatar.com/avatar/2888ee22dea23ed499d8654f84155c40.jpg?s=512&d=https%3A%2F%2Fa.slack-edge.com%2Fdf10d%2Fimg%2Favatars%2Fava_0022-512.png", "custom_css": null}, {"id": 12075, "slack_id": "U092JQXUAQM", "display_name": "Darshan C H", "bio": null, "projects_count": 0, "devlogs_count": 0, "votes_count": 0, "ships_count": 0, "projects": [], "coding_time_seconds": 0, "coding_time_seconds_today": 0, "balance": "You need to have a pocket watcher badge to view this.", "badges": [], "created_at": "2025-06-24T11:05:07.273-04:00", "updated_at": "2025-07-04T02:32:09.854-04:00", "avatar": "https://secure.gravatar.com/avatar/658323fa82d8584bf79fcf62e71d5cdf.jpg?s=512&d=https%3A%2F%2Fa.slack-edge.com%2Fdf10d%2Fimg%2Favatars%2Fava_0017-512.png", "custom_css": null}, {"id": 12076, "slack_id": "U093GRZUFLY", "display_name": "Meltem", "bio": null, "projects_count": 0, "devlogs_count": 0, "votes_count": 0, "ships_count": 0, "projects": [], "coding_time_seconds": 0, "coding_time_seconds_today": 0, "balance": "You need to have a pocket watcher badge to view this.", "badges": [], "created_at": "2025-06-24T11:10:16.628-04:00", "updated_at": "2025-07-03T20:02:30.211-04:00", "avatar": "https://secure.gravatar.com/avatar/aeaff9c4a0f942dbbf5ef59f96ea1fad.jpg?s=512&d=https%3A%2F%2Fa.slack-edge.com%2Fdf10d%2Fimg%2Favatars%2Fava_0005-512.png", "custom_css": null}, {"id": 12077, "slack_id": "U093GSLKNF2", "display_name": "RRRRYYYGYY", "bio": null, "projects_count": 0, "devlogs_count": 0, "votes_count": 0, "ships_count": 0, "projects": [], "coding_time_seconds": 0, "coding_time_seconds_today": 0, "balance": "You need to have a pocket watcher badge to view this.", "badges": [], "created_at": "2025-06-24T11:11:28.735-04:00", "updated_at": "2025-07-04T08:28:23.570-04:00", "avatar": "https://secure.gravatar.com/avatar/a394b5d51a52f945433d51839b032da5.jpg?s=512&d=https%3A%2F%2Fa.slack-edge.com%2Fdf10d%2Fimg%2Favatars%2Fava_0019-512.png", "custom_css": null}, {"id": 12078, "slack_id": "U092UGLDQQ2", "display_name": "Davide", "bio": null, "projects_count": 2, "devlogs_count": 6, "votes_count": 2, "ships_count": 1, "projects": [{"id": 6953, "title": "Portale Auralis", "devlogs_count": 4, "created_at": "2025-07-17T15:13:53.108-04:00"}, {"id": 3499, "title": "Plug & Flow", "devlogs_count": 2, "created_at": "2025-06-24T13:13:52.235-04:00"}], "coding_time_seconds": 110461, "coding_time_seconds_today": 0, "balance": "You need to have a pocket watcher badge to view this.", "badges": [{"name": "Maiden Voyage", "text": "you shipped your first project! the journey begins...", "icon": "\ud83d\udea2"}], "created_at": "2025-06-24T11:14:23.086-04:00", "updated_at": "2025-09-10T22:57:13.108-04:00", "avatar": "https://avatars.slack-edge.com/2025-06-24/9118957202016_874ea0cc85af3eab525a_original.jpg", "custom_css": null}, {"id": 12079, "slack_id": "U092NN678EA", "display_name": "chandan kumar shah", "bio": null, "projects_count": 0, "devlogs_count": 0, "votes_count": 0, "ships_count": 0, "projects": [], "coding_time_seconds": 0, "coding_time_seconds_today": 0, "balance": "You need to have a pocket watcher badge to view this.", "badges": [], "created_at": "2025-06-24T11:16:21.239-04:00", "updated_at": "2025-07-03T20:02:30.911-04:00", "avatar": "https://secure.gravatar.com/avatar/71b0196bb531f6cb3c2cde094dc5a3a6.jpg?s=512&d=https%3A%2F%2Fa.slack-edge.com%2Fdf10d%2Fimg%2Favatars%2Fava_0003-512.png", "custom_css": null}, {"id": 12080, "slack_id": "U092UH90DTL", "display_name": "siliconsniffer", "bio": null, "projects_count": 0, "devlogs_count": 0, "votes_count": 0, "ships_count": 0, "projects": [], "coding_time_seconds": 11511, "coding_time_seconds_today": 0, "balance": "You need to have a pocket watcher badge to view this.", "badges": [], "created_at": "2025-06-24T11:17:29.245-04:00", "updated_at": "2025-07-03T20:02:31.184-04:00", "avatar": "https://secure.gravatar.com/avatar/2d886abe5e479f940ce19aaea2bf778e.jpg?s=512&d=https%3A%2F%2Fa.slack-edge.com%2Fdf10d%2Fimg%2Favatars%2Fava_0006-512.png", "custom_css": null}], "pagination": {"page": 604, "pages": 1192, "count": 23828, "items": 20}}