{"users": [{"id": 12081, "slack_id": "U092NN9KL4E", "display_name": "Atharv Mantri", "bio": null, "projects_count": 0, "devlogs_count": 0, "votes_count": 0, "ships_count": 0, "projects": [], "coding_time_seconds": 0, "coding_time_seconds_today": 0, "balance": "You need to have a pocket watcher badge to view this.", "badges": [], "created_at": "2025-06-24T11:20:44.294-04:00", "updated_at": "2025-07-06T14:13:14.437-04:00", "avatar": "https://avatars.slack-edge.com/2025-06-24/9090810537734_527f9df2466bd9525890_original.png", "custom_css": null}, {"id": 12082, "slack_id": "U091SMK5ABE", "display_name": "Samuel", "bio": null, "projects_count": 1, "devlogs_count": 1, "votes_count": 1, "ships_count": 0, "projects": [{"id": 6036, "title": "Youtube Drive", "devlogs_count": 1, "created_at": "2025-07-10T06:21:06.744-04:00"}], "coding_time_seconds": 30498, "coding_time_seconds_today": 0, "balance": "You need to have a pocket watcher badge to view this.", "badges": [], "created_at": "2025-06-24T11:21:55.800-04:00", "updated_at": "2025-09-05T13:05:11.310-04:00", "avatar": "https://secure.gravatar.com/avatar/15196e8ea3b5eb0347096cd4ec7f6528.jpg?s=512&d=https%3A%2F%2Fa.slack-edge.com%2Fdf10d%2Fimg%2Favatars%2Fava_0001-512.png", "custom_css": null}, {"id": 12083, "slack_id": "U092R413JR2", "display_name": "Aditya", "bio": null, "projects_count": 0, "devlogs_count": 0, "votes_count": 0, "ships_count": 0, "projects": [], "coding_time_seconds": 0, "coding_time_seconds_today": 0, "balance": "You need to have a pocket watcher badge to view this.", "badges": [], "created_at": "2025-06-24T11:26:11.197-04:00", "updated_at": "2025-07-03T20:02:31.731-04:00", "avatar": "https://secure.gravatar.com/avatar/51f69c1486fd7e388588850ab7810566.jpg?s=512&d=https%3A%2F%2Fa.slack-edge.com%2Fdf10d%2Fimg%2Favatars%2Fava_0000-512.png", "custom_css": null}, {"id": 12084, "slack_id": "U092UJ7M81Y", "display_name": "Eva", "bio": null, "projects_count": 0, "devlogs_count": 0, "votes_count": 0, "ships_count": 0, "projects": [], "coding_time_seconds": 0, "coding_time_seconds_today": 0, "balance": "You need to have a pocket watcher badge to view this.", "badges": [], "created_at": "2025-06-24T11:26:33.875-04:00", "updated_at": "2025-07-03T20:02:31.990-04:00", "avatar": "https://secure.gravatar.com/avatar/3aba6b4132e1135cda82c57662beab98.jpg?s=512&d=https%3A%2F%2Fa.slack-edge.com%2Fdf10d%2Fimg%2Favatars%2Fava_0005-512.png", "custom_css": null}, {"id": 12085, "slack_id": "U093GTVQKUG", "display_name": "Jerry", "bio": null, "projects_count": 1, "devlogs_count": 2, "votes_count": 0, "ships_count": 0, "projects": [{"id": 3474, "title": "Whats the Tea??", "devlogs_count": 2, "created_at": "2025-06-24T11:44:25.830-04:00"}], "coding_time_seconds": 117673, "coding_time_seconds_today": 0, "balance": "You need to have a pocket watcher badge to view this.", "badges": [], "created_at": "2025-06-24T11:30:14.180-04:00", "updated_at": "2025-07-03T20:02:32.252-04:00", "avatar": "https://secure.gravatar.com/avatar/b47e820fce67f1d3327069d1f96fcbef.jpg?s=512&d=https%3A%2F%2Fa.slack-edge.com%2Fdf10d%2Fimg%2Favatars%2Fava_0021-512.png", "custom_css": null}, {"id": 12086, "slack_id": "U092UL32W3U", "display_name": "Alexander Plaikner", "bio": null, "projects_count": 0, "devlogs_count": 0, "votes_count": 0, "ships_count": 0, "projects": [], "coding_time_seconds": 0, "coding_time_seconds_today": 0, "balance": "You need to have a pocket watcher badge to view this.", "badges": [], "created_at": "2025-06-24T11:30:56.316-04:00", "updated_at": "2025-07-03T20:02:32.528-04:00", "avatar": "https://secure.gravatar.com/avatar/be71cb04f26f0a5ded02bb2d95e6d5cb.jpg?s=512&d=https%3A%2F%2Fa.slack-edge.com%2Fdf10d%2Fimg%2Favatars%2Fava_0012-512.png", "custom_css": null}, {"id": 12087, "slack_id": "U093GV7SERW", "display_name": "Ahmed Elshaer", "bio": null, "projects_count": 0, "devlogs_count": 0, "votes_count": 0, "ships_count": 0, "projects": [], "coding_time_seconds": 4816, "coding_time_seconds_today": 0, "balance": "You need to have a pocket watcher badge to view this.", "badges": [], "created_at": "2025-06-24T11:35:47.845-04:00", "updated_at": "2025-07-03T20:02:32.789-04:00", "avatar": "https://avatars.slack-edge.com/2025-06-24/9111559738081_95f0d3f3758a85be6a67_original.jpg", "custom_css": null}, {"id": 12088, "slack_id": "U092NTSDT8E", "display_name": "NikolasP", "bio": null, "projects_count": 2, "devlogs_count": 4, "votes_count": 5, "ships_count": 0, "projects": [{"id": 3652, "title": "Mini Game Suite", "devlogs_count": 4, "created_at": "2025-06-25T05:21:44.380-04:00"}, {"id": 12197, "title": "Hues of Hope", "devlogs_count": 0, "created_at": "2025-08-24T09:07:37.325-04:00"}], "coding_time_seconds": 9694, "coding_time_seconds_today": 0, "balance": "You need to have a pocket watcher badge to view this.", "badges": [], "created_at": "2025-06-24T11:44:28.289-04:00", "updated_at": "2025-08-24T08:26:31.920-04:00", "avatar": "https://avatars.slack-edge.com/2025-06-26/9118694736097_7dee60252bee4e220c34_original.jpg", "custom_css": null}, {"id": 12089, "slack_id": "U091YJ10MTP", "display_name": "Th\u00e9o Privat", "bio": null, "projects_count": 0, "devlogs_count": 0, "votes_count": 0, "ships_count": 0, "projects": [], "coding_time_seconds": 0, "coding_time_seconds_today": 0, "balance": "You need to have a pocket watcher badge to view this.", "badges": [], "created_at": "2025-06-24T11:45:38.709-04:00", "updated_at": "2025-07-03T20:02:33.314-04:00", "avatar": "https://secure.gravatar.com/avatar/a87d777d511f96aa9c609512bb782ad4.jpg?s=512&d=https%3A%2F%2Fa.slack-edge.com%2Fdf10d%2Fimg%2Favatars%2Fava_0017-512.png", "custom_css": null}, {"id": 12090, "slack_id": "U0921L47PU1", "display_name": "Jack", "bio": null, "projects_count": 0, "devlogs_count": 0, "votes_count": 0, "ships_count": 0, "projects": [], "coding_time_seconds": 0, "coding_time_seconds_today": 0, "balance": "You need to have a pocket watcher badge to view this.", "badges": [], "created_at": "2025-06-24T11:50:51.491-04:00", "updated_at": "2025-07-03T20:02:33.579-04:00", "avatar": "https://secure.gravatar.com/avatar/64d896332ec34ffec5a15fa6e90e1b0e.jpg?s=512&d=https%3A%2F%2Fa.slack-edge.com%2Fdf10d%2Fimg%2Favatars%2Fava_0026-512.png", "custom_css": null}, {"id": 12091, "slack_id": "U092EB5S0MD", "display_name": "Violine", "bio": null, "projects_count": 0, "devlogs_count": 0, "votes_count": 0, "ships_count": 0, "projects": [], "coding_time_seconds": 0, "coding_time_seconds_today": 0, "balance": "You need to have a pocket watcher badge to view this.", "badges": [], "created_at": "2025-06-24T11:55:36.014-04:00", "updated_at": "2025-07-03T20:02:33.850-04:00", "avatar": "https://secure.gravatar.com/avatar/9bec65ddac588cf97378d83ed5aa67b8.jpg?s=512&d=https%3A%2F%2Fa.slack-edge.com%2Fdf10d%2Fimg%2Favatars%2Fava_0018-512.png", "custom_css": null}, {"id": 12092, "slack_id": "U091QNUEXPE", "display_name": "Greyson", "bio": null, "projects_count": 0, "devlogs_count": 0, "votes_count": 0, "ships_count": 0, "projects": [], "coding_time_seconds": 0, "coding_time_seconds_today": 0, "balance": "You need to have a pocket watcher badge to view this.", "badges": [], "created_at": "2025-06-24T11:55:57.901-04:00", "updated_at": "2025-07-03T20:02:34.132-04:00", "avatar": "https://secure.gravatar.com/avatar/c6b97830820c1a5a0db93ec142eeb9cd.jpg?s=512&d=https%3A%2F%2Fa.slack-edge.com%2Fdf10d%2Fimg%2Favatars%2Fava_0007-512.png", "custom_css": null}, {"id": 12093, "slack_id": "U07B3QKULDN", "display_name": "daniel", "bio": null, "projects_count": 0, "devlogs_count": 0, "votes_count": 0, "ships_count": 0, "projects": [], "coding_time_seconds": 0, "coding_time_seconds_today": 0, "balance": "You need to have a pocket watcher badge to view this.", "badges": [], "created_at": "2025-06-24T12:00:28.162-04:00", "updated_at": "2025-07-05T02:13:29.723-04:00", "avatar": "https://secure.gravatar.com/avatar/fc118e74608235db3bc6a5db23285b38.jpg?s=512&d=https%3A%2F%2Fa.slack-edge.com%2Fdf10d%2Fimg%2Favatars%2Fava_0005-512.png", "custom_css": null}, {"id": 12094, "slack_id": "U092UR9EE3U", "display_name": "Hassaan Zeeshan", "bio": null, "projects_count": 0, "devlogs_count": 0, "votes_count": 0, "ships_count": 0, "projects": [], "coding_time_seconds": 0, "coding_time_seconds_today": 0, "balance": "You need to have a pocket watcher badge to view this.", "badges": [], "created_at": "2025-06-24T12:01:07.405-04:00", "updated_at": "2025-07-03T20:02:34.530-04:00", "avatar": "https://secure.gravatar.com/avatar/1de59884c7fcfbe6ec702ffcdc626beb.jpg?s=512&d=https%3A%2F%2Fa.slack-edge.com%2Fdf10d%2Fimg%2Favatars%2Fava_0026-512.png", "custom_css": null}, {"id": 12095, "slack_id": "U091MRZN3GT", "display_name": "Lucky Joseph Hassan", "bio": null, "projects_count": 0, "devlogs_count": 0, "votes_count": 0, "ships_count": 0, "projects": [], "coding_time_seconds": 0, "coding_time_seconds_today": 0, "balance": "You need to have a pocket watcher badge to view this.", "badges": [], "created_at": "2025-06-24T12:02:53.893-04:00", "updated_at": "2025-07-03T20:02:34.790-04:00", "avatar": "https://secure.gravatar.com/avatar/a1c11821ece55bb71e65026a36fe1e4f.jpg?s=512&d=https%3A%2F%2Fa.slack-edge.com%2Fdf10d%2Fimg%2Favatars%2Fava_0026-512.png", "custom_css": null}, {"id": 12096, "slack_id": "U092T7N84J1", "display_name": "Priya", "bio": null, "projects_count": 0, "devlogs_count": 0, "votes_count": 0, "ships_count": 0, "projects": [], "coding_time_seconds": 0, "coding_time_seconds_today": 0, "balance": "You need to have a pocket watcher badge to view this.", "badges": [], "created_at": "2025-06-24T12:03:56.717-04:00", "updated_at": "2025-07-05T14:15:01.036-04:00", "avatar": "https://secure.gravatar.com/avatar/f58042704194d9218a8bd83f0ca9a1e0.jpg?s=512&d=https%3A%2F%2Fa.slack-edge.com%2Fdf10d%2Fimg%2Favatars%2Fava_0025-512.png", "custom_css": null}, {"id": 12097, "slack_id": "U092USL901G", "display_name": "Satwik Bhusanur", "bio": null, "projects_count": 2, "devlogs_count": 10, "votes_count": 23, "ships_count": 1, "projects": [{"id": 11128, "title": "Varzone", "devlogs_count": 5, "created_at": "2025-08-13T11:00:06.028-04:00"}, {"id": 12478, "title": "Linkedin / Twitter AutoPost", "devlogs_count": 5, "created_at": "2025-08-28T07:31:48.556-04:00"}], "coding_time_seconds": 182308, "coding_time_seconds_today": 5232, "balance": "You need to have a pocket watcher badge to view this.", "badges": [{"name": "Maiden Voyage", "text": "you shipped your first project! the journey begins...", "icon": "\ud83d\udea2"}], "created_at": "2025-06-24T12:06:14.112-04:00", "updated_at": "2025-09-10T22:57:13.729-04:00", "avatar": "https://avatars.slack-edge.com/2025-06-24/9097174608306_2128273ad6048585c595_original.jpg", "custom_css": null}, {"id": 12098, "slack_id": "U092MUE5W4T", "display_name": "Roadbobek", "bio": "Hi, I'm Roadbobek, a software and hardware engineer with a passion for building tools and systems.", "projects_count": 2, "devlogs_count": 13, "votes_count": 27, "ships_count": 2, "projects": [{"id": 11939, "title": "Facial Anonymisation Cam", "devlogs_count": 1, "created_at": "2025-08-21T08:25:21.100-04:00"}, {"id": 3650, "title": "Anonymous Graffiti & Street Art Database", "devlogs_count": 12, "created_at": "2025-06-25T05:17:41.129-04:00"}], "coding_time_seconds": 284292, "coding_time_seconds_today": 0, "balance": "You need to have a pocket watcher badge to view this.", "badges": [{"name": "Maiden Voyage", "text": "you shipped your first project! the journey begins...", "icon": "\ud83d\udea2"}], "created_at": "2025-06-24T12:06:18.949-04:00", "updated_at": "2025-09-10T22:57:13.810-04:00", "avatar": "https://avatars.slack-edge.com/2025-08-20/9408654080576_f2f1917fd33b042661c9_original.png", "custom_css": null}, {"id": 12099, "slack_id": "U092P3B2RCN", "display_name": "Andrew Leung", "bio": null, "projects_count": 0, "devlogs_count": 0, "votes_count": 0, "ships_count": 0, "projects": [], "coding_time_seconds": 0, "coding_time_seconds_today": 0, "balance": "You need to have a pocket watcher badge to view this.", "badges": [], "created_at": "2025-06-24T12:07:27.555-04:00", "updated_at": "2025-07-03T22:02:52.516-04:00", "avatar": "https://secure.gravatar.com/avatar/a33fe2cc44e6a9b54eecca70306f5c34.jpg?s=512&d=https%3A%2F%2Fa.slack-edge.com%2Fdf10d%2Fimg%2Favatars%2Fava_0010-512.png", "custom_css": null}, {"id": 12100, "slack_id": "U08372M7D25", "display_name": "scattercat_123", "bio": null, "projects_count": 0, "devlogs_count": 0, "votes_count": 0, "ships_count": 0, "projects": [], "coding_time_seconds": 358363, "coding_time_seconds_today": 0, "balance": "You need to have a pocket watcher badge to view this.", "badges": [], "created_at": "2025-06-24T12:07:42.382-04:00", "updated_at": "2025-08-08T11:53:23.002-04:00", "avatar": "https://avatars.slack-edge.com/2024-12-31/8257736281440_7763795d03d50d90d025_original.png", "custom_css": null}], "pagination": {"page": 605, "pages": 1192, "count": 23828, "items": 20}}