{"users": [{"id": 12101, "slack_id": "U07E8H9A24A", "display_name": "Youssef", "bio": "im confusion", "projects_count": 3, "devlogs_count": 63, "votes_count": 109, "ships_count": 3, "projects": [{"id": 12145, "title": "UnderTerm", "devlogs_count": 14, "created_at": "2025-08-23T15:17:31.448-04:00"}, {"id": 13288, "title": "kris-watcher", "devlogs_count": 9, "created_at": "2025-09-13T12:52:08.680-04:00"}, {"id": 3491, "title": "ReeTui", "devlogs_count": 40, "created_at": "2025-06-24T12:45:43.913-04:00"}], "coding_time_seconds": 1386151, "coding_time_seconds_today": 0, "balance": "You need to have a pocket watcher badge to view this.", "badges": [{"name": "Yapper I", "text": "Posted 10 comments on devlogs.", "icon": "\ud83d\udcac"}, {"name": "Maiden Voyage", "text": "you shipped your first project! the journey begins...", "icon": "\ud83d\udea2"}, {"name": "Lived Mas", "text": "you know what you did.", "icon": "https://summer.hackclub.com/assets/bong-2a18e50d.png"}, {"name": "Ballot Stuffer", "text": "vote 100 times.", "icon": "https://summer.hackclub.com/assets/i_voted-bf851b48.png"}], "created_at": "2025-06-24T12:13:19.624-04:00", "updated_at": "2025-09-21T09:46:36.898-04:00", "avatar": "https://avatars.slack-edge.com/2025-09-18/9543707988530_1ec05f7cfb08841ec7f7_original.jpg", "custom_css": null}, {"id": 12102, "slack_id": "U072K1WRLF9", "display_name": "Grub", "bio": null, "projects_count": 0, "devlogs_count": 0, "votes_count": 0, "ships_count": 0, "projects": [], "coding_time_seconds": 249752, "coding_time_seconds_today": 0, "balance": "You need to have a pocket watcher badge to view this.", "badges": [], "created_at": "2025-06-24T12:15:23.290-04:00", "updated_at": "2025-07-03T20:02:36.401-04:00", "avatar": "https://secure.gravatar.com/avatar/9b871c3a565ae5600b140328890bc404.jpg?s=512&d=https%3A%2F%2Fa.slack-edge.com%2Fdf10d%2Fimg%2Favatars%2Fava_0012-512.png", "custom_css": null}, {"id": 12103, "slack_id": "U092K39G1C6", "display_name": "Sahil Kumar", "bio": null, "projects_count": 0, "devlogs_count": 0, "votes_count": 0, "ships_count": 0, "projects": [], "coding_time_seconds": 0, "coding_time_seconds_today": 0, "balance": "You need to have a pocket watcher badge to view this.", "badges": [], "created_at": "2025-06-24T12:17:48.126-04:00", "updated_at": "2025-07-03T22:02:52.796-04:00", "avatar": "https://avatars.slack-edge.com/2025-06-24/9096991323762_728863f0804258f4f62a_original.png", "custom_css": null}, {"id": 12104, "slack_id": "U091QP32YAH", "display_name": "bezawit", "bio": null, "projects_count": 0, "devlogs_count": 0, "votes_count": 0, "ships_count": 0, "projects": [], "coding_time_seconds": 0, "coding_time_seconds_today": 0, "balance": "You need to have a pocket watcher badge to view this.", "badges": [], "created_at": "2025-06-24T12:18:05.574-04:00", "updated_at": "2025-07-03T22:02:52.893-04:00", "avatar": "https://secure.gravatar.com/avatar/1279ce6206295d945395b0947034a164.jpg?s=512&d=https%3A%2F%2Fa.slack-edge.com%2Fdf10d%2Fimg%2Favatars%2Fava_0025-512.png", "custom_css": null}, {"id": 12105, "slack_id": "U07930UD78W", "display_name": "Sidak Singh", "bio": null, "projects_count": 0, "devlogs_count": 0, "votes_count": 0, "ships_count": 0, "projects": [], "coding_time_seconds": 24855, "coding_time_seconds_today": 0, "balance": "You need to have a pocket watcher badge to view this.", "badges": [], "created_at": "2025-06-24T12:19:12.619-04:00", "updated_at": "2025-09-15T12:50:41.704-04:00", "avatar": "https://secure.gravatar.com/avatar/7dc3d0c695d7c817f603821bc8221959.jpg?s=512&d=https%3A%2F%2Fa.slack-edge.com%2Fdf10d%2Fimg%2Favatars%2Fava_0022-512.png", "custom_css": null}, {"id": 12106, "slack_id": "U092UUZKXEW", "display_name": "L\u00e9o", "bio": null, "projects_count": 6, "devlogs_count": 14, "votes_count": 77, "ships_count": 4, "projects": [{"id": 4100, "title": "Is My Server Down", "devlogs_count": 6, "created_at": "2025-06-27T12:49:43.073-04:00"}, {"id": 5276, "title": "BestPicture", "devlogs_count": 0, "created_at": "2025-07-04T06:35:01.651-04:00"}, {"id": 5607, "title": "Giveaway Discord Bot", "devlogs_count": 2, "created_at": "2025-07-06T14:09:19.605-04:00"}, {"id": 6467, "title": "DIR Bot for roleplay game", "devlogs_count": 4, "created_at": "2025-07-13T15:38:09.168-04:00"}, {"id": 11921, "title": "FactionBOT", "devlogs_count": 1, "created_at": "2025-08-21T05:42:17.545-04:00"}, {"id": 10149, "title": "RATP Bot for roleplay game", "devlogs_count": 1, "created_at": "2025-08-04T12:23:41.651-04:00"}], "coding_time_seconds": 267235, "coding_time_seconds_today": 0, "balance": "You need to have a pocket watcher badge to view this.", "badges": [{"name": "Maiden Voyage", "text": "you shipped your first project! the journey begins...", "icon": "\ud83d\udea2"}, {"name": "Ballot Stuffer", "text": "vote 100 times.", "icon": "https://summer.hackclub.com/assets/i_voted-bf851b48.png"}], "created_at": "2025-06-24T12:20:20.845-04:00", "updated_at": "2025-09-10T22:57:14.060-04:00", "avatar": "https://avatars.slack-edge.com/2025-06-24/9091209360870_59835d158c4b71ed574e_original.png", "custom_css": null}, {"id": 12107, "slack_id": "U07C01LL4JH", "display_name": "Lavanya Divakaran", "bio": null, "projects_count": 0, "devlogs_count": 0, "votes_count": 0, "ships_count": 0, "projects": [], "coding_time_seconds": 0, "coding_time_seconds_today": 0, "balance": "You need to have a pocket watcher badge to view this.", "badges": [], "created_at": "2025-06-24T12:24:41.684-04:00", "updated_at": "2025-07-04T20:12:51.314-04:00", "avatar": "https://secure.gravatar.com/avatar/7b58f818c8f569336a0578a60b5a325b.jpg?s=512&d=https%3A%2F%2Fa.slack-edge.com%2Fdf10d%2Fimg%2Favatars%2Fava_0017-512.png", "custom_css": null}, {"id": 12108, "slack_id": "U092V03ARTL", "display_name": "Abdo", "bio": null, "projects_count": 0, "devlogs_count": 0, "votes_count": 0, "ships_count": 0, "projects": [], "coding_time_seconds": 0, "coding_time_seconds_today": 0, "balance": "You need to have a pocket watcher badge to view this.", "badges": [], "created_at": "2025-06-24T12:26:09.383-04:00", "updated_at": "2025-07-03T20:02:37.485-04:00", "avatar": "https://avatars.slack-edge.com/2025-06-24/9119411238752_8beed825b3b931f253ab_original.png", "custom_css": null}, {"id": 12109, "slack_id": "U092V194RKL", "display_name": "Leonidas", "bio": "New to hackclub but I am an aspiring software engineer who is willing to learn from others and get inspired by other people on this platform to keep building projects and keep getting better at coding!", "projects_count": 1, "devlogs_count": 1, "votes_count": 3, "ships_count": 1, "projects": [{"id": 8082, "title": "First personal portfolio!", "devlogs_count": 1, "created_at": "2025-07-24T12:52:32.442-04:00"}], "coding_time_seconds": 45035, "coding_time_seconds_today": 0, "balance": "You need to have a pocket watcher badge to view this.", "badges": [{"name": "Maiden Voyage", "text": "you shipped your first project! the journey begins...", "icon": "\ud83d\udea2"}], "created_at": "2025-06-24T12:29:19.868-04:00", "updated_at": "2025-09-10T22:57:14.139-04:00", "avatar": "https://secure.gravatar.com/avatar/e06186ee13396cb260c7df3901078625.jpg?s=512&d=https%3A%2F%2Fa.slack-edge.com%2Fdf10d%2Fimg%2Favatars%2Fava_0017-512.png", "custom_css": null}, {"id": 12110, "slack_id": "U0938PN20BB", "display_name": "Diana", "bio": null, "projects_count": 0, "devlogs_count": 0, "votes_count": 0, "ships_count": 0, "projects": [], "coding_time_seconds": 0, "coding_time_seconds_today": 0, "balance": "You need to have a pocket watcher badge to view this.", "badges": [], "created_at": "2025-06-24T12:37:05.815-04:00", "updated_at": "2025-07-03T20:02:38.026-04:00", "avatar": "https://secure.gravatar.com/avatar/8ad60c99b5028b6857f268ce795c2d8d.jpg?s=512&d=https%3A%2F%2Fa.slack-edge.com%2Fdf10d%2Fimg%2Favatars%2Fava_0021-512.png", "custom_css": null}, {"id": 12111, "slack_id": "U092ELCRYGP", "display_name": "JopGamer", "bio": null, "projects_count": 0, "devlogs_count": 0, "votes_count": 0, "ships_count": 0, "projects": [], "coding_time_seconds": 0, "coding_time_seconds_today": 0, "balance": "You need to have a pocket watcher badge to view this.", "badges": [], "created_at": "2025-06-24T12:44:44.838-04:00", "updated_at": "2025-07-03T20:02:38.328-04:00", "avatar": "https://secure.gravatar.com/avatar/3f4d9712860e17003d1de3ccacd83152.jpg?s=512&d=https%3A%2F%2Fa.slack-edge.com%2Fdf10d%2Fimg%2Favatars%2Fava_0018-512.png", "custom_css": null}, {"id": 12112, "slack_id": "U092UUWDL9Y", "display_name": "Filippo Biancofiore", "bio": null, "projects_count": 0, "devlogs_count": 0, "votes_count": 0, "ships_count": 0, "projects": [], "coding_time_seconds": 0, "coding_time_seconds_today": 0, "balance": "You need to have a pocket watcher badge to view this.", "badges": [], "created_at": "2025-06-24T12:45:38.458-04:00", "updated_at": "2025-07-03T20:02:38.588-04:00", "avatar": "https://secure.gravatar.com/avatar/16f4bb675c72a25bbd93e2de21e2a240.jpg?s=512&d=https%3A%2F%2Fa.slack-edge.com%2Fdf10d%2Fimg%2Favatars%2Fava_0017-512.png", "custom_css": null}, {"id": 12113, "slack_id": "U092VQEUCBE", "display_name": "HARSH MOHAN", "bio": null, "projects_count": 0, "devlogs_count": 0, "votes_count": 0, "ships_count": 0, "projects": [], "coding_time_seconds": 23376, "coding_time_seconds_today": 0, "balance": "You need to have a pocket watcher badge to view this.", "badges": [], "created_at": "2025-06-24T12:49:46.639-04:00", "updated_at": "2025-07-03T20:02:38.852-04:00", "avatar": "https://avatars.slack-edge.com/2025-06-24/9082741001767_516c9d065ea0ed9783bd_original.png", "custom_css": null}, {"id": 12114, "slack_id": "U093HECQL8G", "display_name": "Jacinta Omondi", "bio": null, "projects_count": 0, "devlogs_count": 0, "votes_count": 0, "ships_count": 0, "projects": [], "coding_time_seconds": 0, "coding_time_seconds_today": 0, "balance": "You need to have a pocket watcher badge to view this.", "badges": [], "created_at": "2025-06-24T12:56:54.544-04:00", "updated_at": "2025-07-05T02:13:31.063-04:00", "avatar": "https://secure.gravatar.com/avatar/918b57b2479aeaf8375b6b9e9dc0944e.jpg?s=512&d=https%3A%2F%2Fa.slack-edge.com%2Fdf10d%2Fimg%2Favatars%2Fava_0017-512.png", "custom_css": null}, {"id": 12115, "slack_id": "U092N7TS03D", "display_name": "rigbycat", "bio": null, "projects_count": 0, "devlogs_count": 0, "votes_count": 0, "ships_count": 0, "projects": [], "coding_time_seconds": 9241, "coding_time_seconds_today": 0, "balance": "You need to have a pocket watcher badge to view this.", "badges": [], "created_at": "2025-06-24T12:56:55.668-04:00", "updated_at": "2025-07-04T20:12:51.806-04:00", "avatar": "https://secure.gravatar.com/avatar/5c74aeecc288faeea6e5bd9f52d2630c.jpg?s=512&d=https%3A%2F%2Fa.slack-edge.com%2Fdf10d%2Fimg%2Favatars%2Fava_0000-512.png", "custom_css": null}, {"id": 12116, "slack_id": "U02V70RDQEN", "display_name": "Xian007", "bio": null, "projects_count": 0, "devlogs_count": 0, "votes_count": 0, "ships_count": 0, "projects": [], "coding_time_seconds": 0, "coding_time_seconds_today": 0, "balance": "You need to have a pocket watcher badge to view this.", "badges": [], "created_at": "2025-06-24T13:01:11.628-04:00", "updated_at": "2025-07-08T03:02:28.732-04:00", "avatar": "https://avatars.slack-edge.com/2022-01-27/3040065921568_c5852670f06d97ceda27_original.jpg", "custom_css": null}, {"id": 12117, "slack_id": "U092DQE4CRH", "display_name": "Ardox", "bio": null, "projects_count": 0, "devlogs_count": 0, "votes_count": 0, "ships_count": 0, "projects": [], "coding_time_seconds": 0, "coding_time_seconds_today": 0, "balance": "You need to have a pocket watcher badge to view this.", "badges": [], "created_at": "2025-06-24T13:03:00.906-04:00", "updated_at": "2025-07-03T20:02:39.535-04:00", "avatar": "https://secure.gravatar.com/avatar/ab6e8cac23ec06bb2ec76a5d48dab94b.jpg?s=512&d=https%3A%2F%2Fa.slack-edge.com%2Fdf10d%2Fimg%2Favatars%2Fava_0016-512.png", "custom_css": null}, {"id": 12118, "slack_id": "U092N9QQK0B", "display_name": "Justin Sommer", "bio": null, "projects_count": 1, "devlogs_count": 5, "votes_count": 0, "ships_count": 0, "projects": [{"id": 3502, "title": "Object Recognition", "devlogs_count": 5, "created_at": "2025-06-24T13:28:52.273-04:00"}], "coding_time_seconds": 26919, "coding_time_seconds_today": 0, "balance": "You need to have a pocket watcher badge to view this.", "badges": [], "created_at": "2025-06-24T13:05:09.377-04:00", "updated_at": "2025-07-03T20:02:39.807-04:00", "avatar": "https://avatars.slack-edge.com/2025-06-24/9097273555506_1c1c561206409ca46c20_original.png", "custom_css": null}, {"id": 12119, "slack_id": "U092V89BDPC", "display_name": "Celine", "bio": null, "projects_count": 0, "devlogs_count": 0, "votes_count": 0, "ships_count": 0, "projects": [], "coding_time_seconds": 0, "coding_time_seconds_today": 0, "balance": "You need to have a pocket watcher badge to view this.", "badges": [], "created_at": "2025-06-24T13:08:43.044-04:00", "updated_at": "2025-07-03T20:02:40.091-04:00", "avatar": "https://secure.gravatar.com/avatar/da6f483e041fa3e0cf11659b398794cd.jpg?s=512&d=https%3A%2F%2Fa.slack-edge.com%2Fdf10d%2Fimg%2Favatars%2Fava_0020-512.png", "custom_css": null}, {"id": 12120, "slack_id": "U092PS5JM8S", "display_name": "lourimi ayoub", "bio": null, "projects_count": 0, "devlogs_count": 0, "votes_count": 0, "ships_count": 0, "projects": [], "coding_time_seconds": 0, "coding_time_seconds_today": 0, "balance": "You need to have a pocket watcher badge to view this.", "badges": [], "created_at": "2025-06-24T13:10:09.155-04:00", "updated_at": "2025-07-04T20:12:52.103-04:00", "avatar": "https://secure.gravatar.com/avatar/c26447f1713bf479f52fb4bae9bf4aae.jpg?s=512&d=https%3A%2F%2Fa.slack-edge.com%2Fdf10d%2Fimg%2Favatars%2Fava_0013-512.png", "custom_css": null}], "pagination": {"page": 606, "pages": 1192, "count": 23828, "items": 20}}