{"users": [{"id": 12121, "slack_id": "U092ER4HJ4F", "display_name": "Mohammed Faizan Ahmed", "bio": null, "projects_count": 0, "devlogs_count": 0, "votes_count": 0, "ships_count": 0, "projects": [], "coding_time_seconds": 1643, "coding_time_seconds_today": 0, "balance": "You need to have a pocket watcher badge to view this.", "badges": [], "created_at": "2025-06-24T13:10:40.165-04:00", "updated_at": "2025-07-03T20:02:40.497-04:00", "avatar": "https://avatars.slack-edge.com/2025-06-24/9119682123936_1448ba4dcdafe3cf4649_original.png", "custom_css": null}, {"id": 12122, "slack_id": "U08T9U51SG1", "display_name": "Shrey Yadav", "bio": null, "projects_count": 3, "devlogs_count": 4, "votes_count": 21, "ships_count": 1, "projects": [{"id": 4526, "title": "Clara", "devlogs_count": 2, "created_at": "2025-06-30T12:49:35.357-04:00"}, {"id": 5846, "title": "Poltergiest", "devlogs_count": 1, "created_at": "2025-07-08T12:44:46.511-04:00"}, {"id": 5517, "title": "Mote", "devlogs_count": 1, "created_at": "2025-07-05T22:00:39.553-04:00"}], "coding_time_seconds": 391670, "coding_time_seconds_today": 0, "balance": "You need to have a pocket watcher badge to view this.", "badges": [{"name": "Maiden Voyage", "text": "you shipped your first project! the journey begins...", "icon": "\ud83d\udea2"}], "created_at": "2025-06-24T13:15:34.787-04:00", "updated_at": "2025-09-10T22:57:14.470-04:00", "avatar": "https://secure.gravatar.com/avatar/88c2358fb9a03ca4fd2b259d7b67d42c.jpg?s=512&d=https%3A%2F%2Fa.slack-edge.com%2Fdf10d%2Fimg%2Favatars%2Fava_0011-512.png", "custom_css": null}, {"id": 12123, "slack_id": "U093916PJFK", "display_name": "Virej Dasani", "bio": null, "projects_count": 0, "devlogs_count": 0, "votes_count": 0, "ships_count": 0, "projects": [], "coding_time_seconds": 120, "coding_time_seconds_today": 0, "balance": "You need to have a pocket watcher badge to view this.", "badges": [], "created_at": "2025-06-24T13:16:40.855-04:00", "updated_at": "2025-07-03T20:02:40.915-04:00", "avatar": "https://avatars.slack-edge.com/2025-06-24/9111056304001_093683327c46eae4680f_original.jpg", "custom_css": null}, {"id": 12124, "slack_id": "U092VS2LKEG", "display_name": "Lucas Evangelista", "bio": null, "projects_count": 0, "devlogs_count": 0, "votes_count": 0, "ships_count": 0, "projects": [], "coding_time_seconds": 20159, "coding_time_seconds_today": 0, "balance": "You need to have a pocket watcher badge to view this.", "badges": [], "created_at": "2025-06-24T13:18:54.368-04:00", "updated_at": "2025-07-03T20:02:41.176-04:00", "avatar": "https://secure.gravatar.com/avatar/78caa1fdc3fceec411f2733243914567.jpg?s=512&d=https%3A%2F%2Fa.slack-edge.com%2Fdf10d%2Fimg%2Favatars%2Fava_0003-512.png", "custom_css": null}, {"id": 12125, "slack_id": "U093HMKLQF2", "display_name": "Natalia", "bio": null, "projects_count": 0, "devlogs_count": 0, "votes_count": 0, "ships_count": 0, "projects": [], "coding_time_seconds": 0, "coding_time_seconds_today": 0, "balance": "You need to have a pocket watcher badge to view this.", "badges": [], "created_at": "2025-06-24T13:22:59.020-04:00", "updated_at": "2025-07-03T22:02:54.637-04:00", "avatar": "https://secure.gravatar.com/avatar/c0e4dc27fc198c20bba28f71b813d101.jpg?s=512&d=https%3A%2F%2Fa.slack-edge.com%2Fdf10d%2Fimg%2Favatars%2Fava_0001-512.png", "custom_css": null}, {"id": 12126, "slack_id": "U092VBVTE74", "display_name": "musad", "bio": null, "projects_count": 0, "devlogs_count": 0, "votes_count": 0, "ships_count": 0, "projects": [], "coding_time_seconds": 0, "coding_time_seconds_today": 0, "balance": "You need to have a pocket watcher badge to view this.", "badges": [], "created_at": "2025-06-24T13:31:30.589-04:00", "updated_at": "2025-07-03T20:02:41.580-04:00", "avatar": "https://secure.gravatar.com/avatar/fe435b31a8780d8f7728ad9af70d5220.jpg?s=512&d=https%3A%2F%2Fa.slack-edge.com%2Fdf10d%2Fimg%2Favatars%2Fava_0013-512.png", "custom_css": null}, {"id": 12127, "slack_id": "U08QJGT4N7P", "display_name": "Shreya Sateesh", "bio": null, "projects_count": 0, "devlogs_count": 0, "votes_count": 0, "ships_count": 0, "projects": [], "coding_time_seconds": 0, "coding_time_seconds_today": 0, "balance": "You need to have a pocket watcher badge to view this.", "badges": [], "created_at": "2025-06-24T13:33:01.639-04:00", "updated_at": "2025-07-03T20:02:41.844-04:00", "avatar": "https://secure.gravatar.com/avatar/5f0e6d23933d74e6fc9faaedf3890c1e.jpg?s=512&d=https%3A%2F%2Fa.slack-edge.com%2Fdf10d%2Fimg%2Favatars%2Fava_0014-512.png", "custom_css": null}, {"id": 12128, "slack_id": "U092TP0KVTP", "display_name": "Shubham Kumar Dubey", "bio": null, "projects_count": 0, "devlogs_count": 0, "votes_count": 0, "ships_count": 0, "projects": [], "coding_time_seconds": 0, "coding_time_seconds_today": 0, "balance": "You need to have a pocket watcher badge to view this.", "badges": [], "created_at": "2025-06-24T13:34:52.557-04:00", "updated_at": "2025-07-03T20:02:42.107-04:00", "avatar": "https://avatars.slack-edge.com/2025-06-24/9091651425846_f5acd1f8d1b3b99e46cc_original.png", "custom_css": null}, {"id": 12129, "slack_id": "U0836FW88DS", "display_name": "Wawa Corporate Property (Brentan)", "bio": null, "projects_count": 1, "devlogs_count": 3, "votes_count": 0, "ships_count": 0, "projects": [{"id": 3533, "title": "Lazy Blogger", "devlogs_count": 3, "created_at": "2025-06-24T15:38:53.133-04:00"}], "coding_time_seconds": 41590, "coding_time_seconds_today": 0, "balance": "You need to have a pocket watcher badge to view this.", "badges": [], "created_at": "2025-06-24T13:38:13.212-04:00", "updated_at": "2025-07-08T03:02:29.682-04:00", "avatar": "https://avatars.slack-edge.com/2025-05-26/8948730034502_efb74708f6ad1576a2c9_original.png", "custom_css": null}, {"id": 12130, "slack_id": "U092PKEUCJ2", "display_name": "Strum with Arjun", "bio": null, "projects_count": 0, "devlogs_count": 0, "votes_count": 0, "ships_count": 0, "projects": [], "coding_time_seconds": 265, "coding_time_seconds_today": 0, "balance": "You need to have a pocket watcher badge to view this.", "badges": [], "created_at": "2025-06-24T13:41:08.286-04:00", "updated_at": "2025-07-11T13:03:16.796-04:00", "avatar": "https://avatars.slack-edge.com/2025-06-24/9111190809745_6a2e3b16dbdaf1abca7b_original.png", "custom_css": null}, {"id": 12131, "slack_id": "U08PZB2S3BL", "display_name": "Begad", "bio": null, "projects_count": 3, "devlogs_count": 12, "votes_count": 37, "ships_count": 2, "projects": [{"id": 3649, "title": "Rule-based adventure game", "devlogs_count": 6, "created_at": "2025-06-25T05:03:37.134-04:00"}, {"id": 7180, "title": "StuddyBuddy", "devlogs_count": 1, "created_at": "2025-07-19T17:32:05.582-04:00"}, {"id": 3944, "title": "BioLearn", "devlogs_count": 5, "created_at": "2025-06-26T12:12:09.272-04:00"}], "coding_time_seconds": 106999, "coding_time_seconds_today": 0, "balance": "You need to have a pocket watcher badge to view this.", "badges": [{"name": "Maiden Voyage", "text": "you shipped your first project! the journey begins...", "icon": "\ud83d\udea2"}], "created_at": "2025-06-24T13:41:28.968-04:00", "updated_at": "2025-09-10T22:57:14.705-04:00", "avatar": "https://secure.gravatar.com/avatar/4dd8ffdff7fc86d36b93d5923e101200.jpg?s=512&d=https%3A%2F%2Fa.slack-edge.com%2Fdf10d%2Fimg%2Favatars%2Fava_0012-512.png", "custom_css": null}, {"id": 12132, "slack_id": "U092NFQSX2P", "display_name": "Benjam\u00edn", "bio": null, "projects_count": 1, "devlogs_count": 2, "votes_count": 0, "ships_count": 0, "projects": [{"id": 3599, "title": "Narrate-It", "devlogs_count": 2, "created_at": "2025-06-24T21:57:39.332-04:00"}], "coding_time_seconds": 73757, "coding_time_seconds_today": 0, "balance": "You need to have a pocket watcher badge to view this.", "badges": [], "created_at": "2025-06-24T13:42:42.332-04:00", "updated_at": "2025-07-03T22:02:55.175-04:00", "avatar": "https://avatars.slack-edge.com/2025-06-24/9098173629108_f01a331fa393e6bab196_original.png", "custom_css": null}, {"id": 12133, "slack_id": "U092NGTH3D1", "display_name": "Arbaj", "bio": null, "projects_count": 0, "devlogs_count": 0, "votes_count": 0, "ships_count": 0, "projects": [], "coding_time_seconds": 1780, "coding_time_seconds_today": 0, "balance": "You need to have a pocket watcher badge to view this.", "badges": [], "created_at": "2025-06-24T13:49:15.857-04:00", "updated_at": "2025-07-03T20:02:43.186-04:00", "avatar": "https://secure.gravatar.com/avatar/ec6f56c0a87bb66fedccb75e2079e421.jpg?s=512&d=https%3A%2F%2Fa.slack-edge.com%2Fdf10d%2Fimg%2Favatars%2Fava_0025-512.png", "custom_css": null}, {"id": 12134, "slack_id": "U07MEFGKVLY", "display_name": "Username4D", "bio": null, "projects_count": 1, "devlogs_count": 4, "votes_count": 0, "ships_count": 0, "projects": [{"id": 5622, "title": "LoFly CLI", "devlogs_count": 1, "created_at": "2025-07-06T16:34:56.513-04:00"}], "coding_time_seconds": 313340, "coding_time_seconds_today": 0, "balance": "You need to have a pocket watcher badge to view this.", "badges": [], "created_at": "2025-06-24T13:49:58.747-04:00", "updated_at": "2025-07-06T16:30:59.525-04:00", "avatar": "https://secure.gravatar.com/avatar/12a827a1a4d0c055978027e955bc3830.jpg?s=512&d=https%3A%2F%2Fa.slack-edge.com%2Fdf10d%2Fimg%2Favatars%2Fava_0010-512.png", "custom_css": null}, {"id": 12135, "slack_id": "U092F2XSN2K", "display_name": "Emil Santing", "bio": null, "projects_count": 0, "devlogs_count": 0, "votes_count": 0, "ships_count": 0, "projects": [], "coding_time_seconds": 0, "coding_time_seconds_today": 0, "balance": "You need to have a pocket watcher badge to view this.", "badges": [], "created_at": "2025-06-24T13:52:43.921-04:00", "updated_at": "2025-07-04T08:28:27.273-04:00", "avatar": "https://avatars.slack-edge.com/2025-06-24/9098229340868_6e74af73980d946f93d4_original.png", "custom_css": null}, {"id": 12136, "slack_id": "U092NJ2CC4B", "display_name": "Ish-Gpt", "bio": null, "projects_count": 0, "devlogs_count": 0, "votes_count": 0, "ships_count": 0, "projects": [], "coding_time_seconds": 0, "coding_time_seconds_today": 0, "balance": "You need to have a pocket watcher badge to view this.", "badges": [], "created_at": "2025-06-24T13:59:55.654-04:00", "updated_at": "2025-07-05T20:13:55.726-04:00", "avatar": "https://secure.gravatar.com/avatar/9fdb8547621dc3f718b3a3b1a97128aa.jpg?s=512&d=https%3A%2F%2Fa.slack-edge.com%2Fdf10d%2Fimg%2Favatars%2Fava_0000-512.png", "custom_css": null}, {"id": 12137, "slack_id": "U092VG44NHY", "display_name": "Sandipan Roy", "bio": null, "projects_count": 0, "devlogs_count": 0, "votes_count": 0, "ships_count": 0, "projects": [], "coding_time_seconds": 0, "coding_time_seconds_today": 0, "balance": "You need to have a pocket watcher badge to view this.", "badges": [], "created_at": "2025-06-24T14:00:12.111-04:00", "updated_at": "2025-07-03T20:02:43.995-04:00", "avatar": "https://secure.gravatar.com/avatar/2c619c3c59ef8a662432f2ea13e5b65a.jpg?s=512&d=https%3A%2F%2Fa.slack-edge.com%2Fdf10d%2Fimg%2Favatars%2Fava_0012-512.png", "custom_css": null}, {"id": 12138, "slack_id": "U092PPNMQ22", "display_name": "ben monty (Plenjamin)", "bio": null, "projects_count": 0, "devlogs_count": 0, "votes_count": 0, "ships_count": 0, "projects": [], "coding_time_seconds": 0, "coding_time_seconds_today": 0, "balance": "You need to have a pocket watcher badge to view this.", "badges": [], "created_at": "2025-06-24T14:04:20.293-04:00", "updated_at": "2025-07-03T20:02:44.259-04:00", "avatar": "https://avatars.slack-edge.com/2025-06-24/9083181736215_0e329890f2c2bfdae925_original.png", "custom_css": null}, {"id": 12139, "slack_id": "U06UYA4AH6F", "display_name": "magic frog", "bio": null, "projects_count": 3, "devlogs_count": 4, "votes_count": 7, "ships_count": 1, "projects": [{"id": 12240, "title": "Personal Website", "devlogs_count": 1, "created_at": "2025-08-24T18:03:38.049-04:00"}, {"id": 7990, "title": "Zorp Bot", "devlogs_count": 1, "created_at": "2025-07-23T23:40:59.937-04:00"}, {"id": 3577, "title": "Jumpstart Website", "devlogs_count": 2, "created_at": "2025-06-24T19:10:33.674-04:00"}], "coding_time_seconds": 241413, "coding_time_seconds_today": 0, "balance": "You need to have a pocket watcher badge to view this.", "badges": [{"name": "Maiden Voyage", "text": "you shipped your first project! the journey begins...", "icon": "\ud83d\udea2"}], "created_at": "2025-06-24T14:05:56.903-04:00", "updated_at": "2025-09-10T22:57:14.885-04:00", "avatar": "https://avatars.slack-edge.com/2024-10-11/7854430211655_a8523581524186f41d0a_original.png", "custom_css": null}, {"id": 12140, "slack_id": "U09207WAU05", "display_name": "Christina", "bio": null, "projects_count": 0, "devlogs_count": 0, "votes_count": 0, "ships_count": 0, "projects": [], "coding_time_seconds": 0, "coding_time_seconds_today": 0, "balance": "You need to have a pocket watcher badge to view this.", "badges": [], "created_at": "2025-06-24T14:08:56.559-04:00", "updated_at": "2025-07-03T20:02:44.801-04:00", "avatar": "https://secure.gravatar.com/avatar/669598b7aae7b533af7c06011578144e.jpg?s=512&d=https%3A%2F%2Fa.slack-edge.com%2Fdf10d%2Fimg%2Favatars%2Fava_0022-512.png", "custom_css": null}], "pagination": {"page": 607, "pages": 1192, "count": 23828, "items": 20}}