{"users": [{"id": 12141, "slack_id": "U092VJJSXLJ", "display_name": "obr", "bio": null, "projects_count": 0, "devlogs_count": 0, "votes_count": 0, "ships_count": 0, "projects": [], "coding_time_seconds": 0, "coding_time_seconds_today": 0, "balance": "You need to have a pocket watcher badge to view this.", "badges": [], "created_at": "2025-06-24T14:13:12.130-04:00", "updated_at": "2025-07-03T20:02:45.063-04:00", "avatar": "https://secure.gravatar.com/avatar/9060cec3dc950b2fe96797295001375e.jpg?s=512&d=https%3A%2F%2Fa.slack-edge.com%2Fdf10d%2Fimg%2Favatars%2Fava_0020-512.png", "custom_css": null}, {"id": 12142, "slack_id": "U092NLKUN4T", "display_name": "James Grant", "bio": null, "projects_count": 0, "devlogs_count": 0, "votes_count": 0, "ships_count": 0, "projects": [], "coding_time_seconds": 1020, "coding_time_seconds_today": 0, "balance": "You need to have a pocket watcher badge to view this.", "badges": [], "created_at": "2025-06-24T14:13:36.091-04:00", "updated_at": "2025-07-04T20:12:53.442-04:00", "avatar": "https://avatars.slack-edge.com/2025-06-24/9096004821957_b168eae714f8d267da59_original.png", "custom_css": null}, {"id": 12143, "slack_id": "U092W9ZC1GU", "display_name": "Akshat Singh", "bio": null, "projects_count": 0, "devlogs_count": 0, "votes_count": 0, "ships_count": 0, "projects": [], "coding_time_seconds": 0, "coding_time_seconds_today": 0, "balance": "You need to have a pocket watcher badge to view this.", "badges": [], "created_at": "2025-06-24T14:14:59.812-04:00", "updated_at": "2025-07-03T22:02:56.081-04:00", "avatar": "https://avatars.slack-edge.com/2025-06-24/9091877073142_cc49bcb1d8a3f4dae411_original.png", "custom_css": null}, {"id": 12144, "slack_id": "U092W6RJEHJ", "display_name": "Pablo Andres Manjarres Negrette", "bio": null, "projects_count": 0, "devlogs_count": 0, "votes_count": 0, "ships_count": 0, "projects": [], "coding_time_seconds": 45824, "coding_time_seconds_today": 0, "balance": "You need to have a pocket watcher badge to view this.", "badges": [], "created_at": "2025-06-24T14:15:36.079-04:00", "updated_at": "2025-09-11T19:25:33.603-04:00", "avatar": "https://avatars.slack-edge.com/2025-09-02/9449689309654_637e977ab4f698d003de_original.jpg", "custom_css": null}, {"id": 12145, "slack_id": "U092F7PAUFR", "display_name": "V M", "bio": null, "projects_count": 0, "devlogs_count": 0, "votes_count": 0, "ships_count": 0, "projects": [], "coding_time_seconds": 0, "coding_time_seconds_today": 0, "balance": "You need to have a pocket watcher badge to view this.", "badges": [], "created_at": "2025-06-24T14:21:29.759-04:00", "updated_at": "2025-07-04T02:32:14.539-04:00", "avatar": "https://secure.gravatar.com/avatar/aa245871ef8a43fd2042a6936db2cd6d.jpg?s=512&d=https%3A%2F%2Fa.slack-edge.com%2Fdf10d%2Fimg%2Favatars%2Fava_0012-512.png", "custom_css": null}, {"id": 12146, "slack_id": "U092PSZJ2B0", "display_name": "Evan Whittaker", "bio": null, "projects_count": 4, "devlogs_count": 0, "votes_count": 1, "ships_count": 0, "projects": [{"id": 3526, "title": "BlueSky Link", "devlogs_count": 0, "created_at": "2025-06-24T15:14:49.421-04:00"}, {"id": 3855, "title": "Retro Player", "devlogs_count": 0, "created_at": "2025-06-26T02:45:45.884-04:00"}, {"id": 10910, "title": "Auto Caption", "devlogs_count": 0, "created_at": "2025-08-11T17:57:27.514-04:00"}, {"id": 3542, "title": "Proxmox App", "devlogs_count": 0, "created_at": "2025-06-24T16:05:00.825-04:00"}], "coding_time_seconds": 82685, "coding_time_seconds_today": 0, "balance": "You need to have a pocket watcher badge to view this.", "badges": [], "created_at": "2025-06-24T14:25:55.844-04:00", "updated_at": "2025-08-11T17:54:31.281-04:00", "avatar": "https://avatars.slack-edge.com/2025-06-24/9111434014833_95413eefc50b47acd40e_original.png", "custom_css": null}, {"id": 12147, "slack_id": "U092U1J1J3X", "display_name": "Helios", "bio": null, "projects_count": 0, "devlogs_count": 0, "votes_count": 0, "ships_count": 0, "projects": [], "coding_time_seconds": 0, "coding_time_seconds_today": 0, "balance": "You need to have a pocket watcher badge to view this.", "badges": [], "created_at": "2025-06-24T14:25:58.626-04:00", "updated_at": "2025-07-03T20:02:46.190-04:00", "avatar": "https://secure.gravatar.com/avatar/ab6bd533b5decec6db35a4322b3f49a3.jpg?s=512&d=https%3A%2F%2Fa.slack-edge.com%2Fdf10d%2Fimg%2Favatars%2Fava_0023-512.png", "custom_css": null}, {"id": 12148, "slack_id": "U0939CC14HX", "display_name": "Debaditya", "bio": null, "projects_count": 0, "devlogs_count": 0, "votes_count": 0, "ships_count": 0, "projects": [], "coding_time_seconds": 0, "coding_time_seconds_today": 0, "balance": "You need to have a pocket watcher badge to view this.", "badges": [], "created_at": "2025-06-24T14:26:04.166-04:00", "updated_at": "2025-07-03T20:02:46.464-04:00", "avatar": "https://secure.gravatar.com/avatar/e9be360a758ae50047072cca4b039977.jpg?s=512&d=https%3A%2F%2Fa.slack-edge.com%2Fdf10d%2Fimg%2Favatars%2Fava_0026-512.png", "custom_css": null}, {"id": 12149, "slack_id": "U092GJYRJ6P", "display_name": "Liam McArthur", "bio": null, "projects_count": 0, "devlogs_count": 0, "votes_count": 0, "ships_count": 0, "projects": [], "coding_time_seconds": 0, "coding_time_seconds_today": 0, "balance": "You need to have a pocket watcher badge to view this.", "badges": [], "created_at": "2025-06-24T14:27:50.186-04:00", "updated_at": "2025-07-03T20:02:46.733-04:00", "avatar": "https://secure.gravatar.com/avatar/63f6b9ceaeee8b5cd64e5159b4ed7819.jpg?s=512&d=https%3A%2F%2Fa.slack-edge.com%2Fdf10d%2Fimg%2Favatars%2Fava_0015-512.png", "custom_css": null}, {"id": 12150, "slack_id": "U092PU85YDC", "display_name": "Hasnain J", "bio": null, "projects_count": 0, "devlogs_count": 0, "votes_count": 0, "ships_count": 0, "projects": [], "coding_time_seconds": 0, "coding_time_seconds_today": 0, "balance": "You need to have a pocket watcher badge to view this.", "badges": [], "created_at": "2025-06-24T14:34:02.946-04:00", "updated_at": "2025-07-03T20:02:47.000-04:00", "avatar": "https://avatars.slack-edge.com/2025-06-24/9120147358832_65ff58da7b138c01248c_original.png", "custom_css": null}, {"id": 12151, "slack_id": "U081GA0TAPR", "display_name": "duykhanh09103", "bio": null, "projects_count": 1, "devlogs_count": 3, "votes_count": 20, "ships_count": 1, "projects": [{"id": 6219, "title": "Link Together", "devlogs_count": 3, "created_at": "2025-07-11T12:06:02.305-04:00"}], "coding_time_seconds": 140062, "coding_time_seconds_today": 0, "balance": "You need to have a pocket watcher badge to view this.", "badges": [{"name": "Maiden Voyage", "text": "you shipped your first project! the journey begins...", "icon": "\ud83d\udea2"}], "created_at": "2025-06-24T14:36:55.382-04:00", "updated_at": "2025-09-10T22:57:15.180-04:00", "avatar": "https://avatars.slack-edge.com/2024-12-05/8120710934934_516fe8e30c072a68c820_original.png", "custom_css": null}, {"id": 12152, "slack_id": "U092VN16WCA", "display_name": "rehneets", "bio": null, "projects_count": 0, "devlogs_count": 0, "votes_count": 0, "ships_count": 0, "projects": [], "coding_time_seconds": 0, "coding_time_seconds_today": 0, "balance": "You need to have a pocket watcher badge to view this.", "badges": [], "created_at": "2025-06-24T14:37:30.190-04:00", "updated_at": "2025-07-03T20:02:47.559-04:00", "avatar": "https://secure.gravatar.com/avatar/3d5c9d7e583239fac04c981269b2845c.jpg?s=512&d=https%3A%2F%2Fa.slack-edge.com%2Fdf10d%2Fimg%2Favatars%2Fava_0004-512.png", "custom_css": null}, {"id": 12153, "slack_id": "U091WTE96Q5", "display_name": "Manav Marmat", "bio": null, "projects_count": 0, "devlogs_count": 0, "votes_count": 0, "ships_count": 0, "projects": [], "coding_time_seconds": 0, "coding_time_seconds_today": 0, "balance": "You need to have a pocket watcher badge to view this.", "badges": [], "created_at": "2025-06-24T14:44:19.856-04:00", "updated_at": "2025-07-03T20:02:47.829-04:00", "avatar": "https://avatars.slack-edge.com/2025-06-24/9111532030177_6fe363d90d2074861ccc_original.png", "custom_css": null}, {"id": 12154, "slack_id": "U092VQV7H50", "display_name": "Ethan Wellner", "bio": null, "projects_count": 0, "devlogs_count": 0, "votes_count": 0, "ships_count": 0, "projects": [], "coding_time_seconds": 272, "coding_time_seconds_today": 0, "balance": "You need to have a pocket watcher badge to view this.", "badges": [], "created_at": "2025-06-24T14:56:40.914-04:00", "updated_at": "2025-07-06T08:13:02.726-04:00", "avatar": "https://secure.gravatar.com/avatar/10e0ff5dfb707a82b2d294ebe52b81e2.jpg?s=512&d=https%3A%2F%2Fa.slack-edge.com%2Fdf10d%2Fimg%2Favatars%2Fava_0020-512.png", "custom_css": null}, {"id": 12155, "slack_id": "U091X5EQH25", "display_name": "Amani", "bio": null, "projects_count": 0, "devlogs_count": 0, "votes_count": 0, "ships_count": 0, "projects": [], "coding_time_seconds": 96398, "coding_time_seconds_today": 0, "balance": "You need to have a pocket watcher badge to view this.", "badges": [], "created_at": "2025-06-24T15:01:17.979-04:00", "updated_at": "2025-07-27T17:42:06.079-04:00", "avatar": "https://avatars.slack-edge.com/2025-07-27/9260377131093_c99862e1d8350fe571fe_original.jpg", "custom_css": null}, {"id": 12156, "slack_id": "U092FDE8RAT", "display_name": "Omar Menshawy", "bio": null, "projects_count": 1, "devlogs_count": 1, "votes_count": 0, "ships_count": 0, "projects": [{"id": 3898, "title": "YouTube Video Downloader", "devlogs_count": 1, "created_at": "2025-06-26T07:08:48.810-04:00"}], "coding_time_seconds": 16082, "coding_time_seconds_today": 0, "balance": "You need to have a pocket watcher badge to view this.", "badges": [], "created_at": "2025-06-24T15:01:42.820-04:00", "updated_at": "2025-07-04T02:32:15.320-04:00", "avatar": "https://avatars.slack-edge.com/2025-06-24/9097966677442_9e3d6732d12e6ba93bf7_original.jpg", "custom_css": null}, {"id": 12157, "slack_id": "U092VSFTYTU", "display_name": "Ethan Zhou", "bio": null, "projects_count": 0, "devlogs_count": 0, "votes_count": 0, "ships_count": 0, "projects": [], "coding_time_seconds": 0, "coding_time_seconds_today": 0, "balance": "You need to have a pocket watcher badge to view this.", "badges": [], "created_at": "2025-06-24T15:03:16.114-04:00", "updated_at": "2025-07-03T20:02:48.513-04:00", "avatar": "https://secure.gravatar.com/avatar/738bd71f7fcef21ac5e108a2bf4dde54.jpg?s=512&d=https%3A%2F%2Fa.slack-edge.com%2Fdf10d%2Fimg%2Favatars%2Fava_0006-512.png", "custom_css": null}, {"id": 12158, "slack_id": "U091SMN9NSE", "display_name": "Chirag Rathod", "bio": null, "projects_count": 0, "devlogs_count": 0, "votes_count": 0, "ships_count": 0, "projects": [], "coding_time_seconds": 0, "coding_time_seconds_today": 0, "balance": "You need to have a pocket watcher badge to view this.", "badges": [], "created_at": "2025-06-24T15:03:26.225-04:00", "updated_at": "2025-07-03T20:02:48.846-04:00", "avatar": "https://avatars.slack-edge.com/2025-06-24/9098638624996_18bc4183385ff12d57b8_original.jpg", "custom_css": null}, {"id": 12159, "slack_id": "U092NQGMTM1", "display_name": "Jonathan Bercovici", "bio": null, "projects_count": 0, "devlogs_count": 0, "votes_count": 1, "ships_count": 0, "projects": [], "coding_time_seconds": 10118, "coding_time_seconds_today": 0, "balance": "You need to have a pocket watcher badge to view this.", "badges": [], "created_at": "2025-06-24T15:05:06.647-04:00", "updated_at": "2025-08-05T15:26:22.355-04:00", "avatar": "https://secure.gravatar.com/avatar/0b73d5d9a06228a0f80646a27229ece5.jpg?s=512&d=https%3A%2F%2Fa.slack-edge.com%2Fdf10d%2Fimg%2Favatars%2Fava_0025-512.png", "custom_css": null}, {"id": 12160, "slack_id": "U092U8LD95K", "display_name": "Jack Pexton", "bio": null, "projects_count": 0, "devlogs_count": 0, "votes_count": 0, "ships_count": 0, "projects": [], "coding_time_seconds": 372, "coding_time_seconds_today": 0, "balance": "You need to have a pocket watcher badge to view this.", "badges": [], "created_at": "2025-06-24T15:10:52.691-04:00", "updated_at": "2025-07-03T20:02:49.268-04:00", "avatar": "https://avatars.slack-edge.com/2025-06-24/9092179678198_d07741ec841fe4fc1cf7_original.png", "custom_css": null}], "pagination": {"page": 608, "pages": 1192, "count": 23828, "items": 20}}