{"users": [{"id": 1201, "slack_id": "U091MFSQ677", "display_name": "Florian Vollmer", "bio": null, "projects_count": 0, "devlogs_count": 0, "votes_count": 0, "ships_count": 0, "projects": [], "coding_time_seconds": 0, "coding_time_seconds_today": 0, "balance": "You need to have a pocket watcher badge to view this.", "badges": [], "created_at": "2025-06-16T12:51:04.901-04:00", "updated_at": "2025-07-03T19:16:33.766-04:00", "avatar": "https://secure.gravatar.com/avatar/436d41049b4d69b440cc5a793baf5cde.jpg?s=512&d=https%3A%2F%2Fa.slack-edge.com%2Fdf10d%2Fimg%2Favatars%2Fava_0014-512.png", "custom_css": null}, {"id": 1202, "slack_id": "U091GDX2LNP", "display_name": "Vartiuc", "bio": null, "projects_count": 0, "devlogs_count": 0, "votes_count": 0, "ships_count": 0, "projects": [], "coding_time_seconds": 705, "coding_time_seconds_today": 0, "balance": "You need to have a pocket watcher badge to view this.", "badges": [], "created_at": "2025-06-16T12:51:06.189-04:00", "updated_at": "2025-07-03T19:16:34.041-04:00", "avatar": "https://secure.gravatar.com/avatar/d3eff450cda0b037d616596cb489d5cd.jpg?s=512&d=https%3A%2F%2Fa.slack-edge.com%2Fdf10d%2Fimg%2Favatars%2Fava_0022-512.png", "custom_css": null}, {"id": 1203, "slack_id": "U091PD2UG10", "display_name": "\u738b\u5b9c\u74bf\uff08Starke\uff09", "bio": null, "projects_count": 0, "devlogs_count": 0, "votes_count": 0, "ships_count": 0, "projects": [], "coding_time_seconds": 0, "coding_time_seconds_today": 0, "balance": "You need to have a pocket watcher badge to view this.", "badges": [], "created_at": "2025-06-16T12:51:14.398-04:00", "updated_at": "2025-07-03T19:16:34.307-04:00", "avatar": "https://avatars.slack-edge.com/2025-06-16/9057457754178_20757b33df5ae7b6bb51_original.jpg", "custom_css": null}, {"id": 1204, "slack_id": "U091MKH389K", "display_name": "EmmanuelFerrario", "bio": null, "projects_count": 0, "devlogs_count": 0, "votes_count": 0, "ships_count": 0, "projects": [], "coding_time_seconds": 0, "coding_time_seconds_today": 0, "balance": "You need to have a pocket watcher badge to view this.", "badges": [], "created_at": "2025-06-16T12:51:24.655-04:00", "updated_at": "2025-07-03T19:16:34.573-04:00", "avatar": "https://secure.gravatar.com/avatar/a7433f27c5ebee5474dad0348be7be03.jpg?s=512&d=https%3A%2F%2Fa.slack-edge.com%2Fdf10d%2Fimg%2Favatars%2Fava_0003-512.png", "custom_css": null}, {"id": 1205, "slack_id": "U091GH1MB3Q", "display_name": "Axel", "bio": null, "projects_count": 0, "devlogs_count": 0, "votes_count": 0, "ships_count": 0, "projects": [], "coding_time_seconds": 0, "coding_time_seconds_today": 0, "balance": "You need to have a pocket watcher badge to view this.", "badges": [], "created_at": "2025-06-16T12:51:26.929-04:00", "updated_at": "2025-07-03T19:16:34.853-04:00", "avatar": "https://secure.gravatar.com/avatar/64026fe0c8fd02c5f1371b3965390b76.jpg?s=512&d=https%3A%2F%2Fa.slack-edge.com%2Fdf10d%2Fimg%2Favatars%2Fava_0014-512.png", "custom_css": null}, {"id": 1206, "slack_id": "U091846Q5F1", "display_name": "Gopal Payghan", "bio": null, "projects_count": 0, "devlogs_count": 0, "votes_count": 0, "ships_count": 0, "projects": [], "coding_time_seconds": 0, "coding_time_seconds_today": 0, "balance": "You need to have a pocket watcher badge to view this.", "badges": [], "created_at": "2025-06-16T12:51:27.302-04:00", "updated_at": "2025-07-03T19:16:35.114-04:00", "avatar": "https://secure.gravatar.com/avatar/f0e11a3df509d9733b6a53b4931d8531.jpg?s=512&d=https%3A%2F%2Fa.slack-edge.com%2Fdf10d%2Fimg%2Favatars%2Fava_0009-512.png", "custom_css": null}, {"id": 1207, "slack_id": "U091MKS6TC5", "display_name": "Poorvika", "bio": null, "projects_count": 0, "devlogs_count": 0, "votes_count": 0, "ships_count": 0, "projects": [], "coding_time_seconds": 0, "coding_time_seconds_today": 0, "balance": "You need to have a pocket watcher badge to view this.", "badges": [], "created_at": "2025-06-16T12:51:47.938-04:00", "updated_at": "2025-07-03T19:16:35.392-04:00", "avatar": "https://secure.gravatar.com/avatar/3158c138073bff7e411b4d7b22b49578.jpg?s=512&d=https%3A%2F%2Fa.slack-edge.com%2Fdf10d%2Fimg%2Favatars%2Fava_0023-512.png", "custom_css": null}, {"id": 1208, "slack_id": "U092BT9PS00", "display_name": "TheHacha167", "bio": null, "projects_count": 0, "devlogs_count": 0, "votes_count": 0, "ships_count": 0, "projects": [], "coding_time_seconds": 0, "coding_time_seconds_today": 0, "balance": "You need to have a pocket watcher badge to view this.", "badges": [], "created_at": "2025-06-16T12:51:53.543-04:00", "updated_at": "2025-07-03T19:16:35.659-04:00", "avatar": "https://secure.gravatar.com/avatar/dd9e5f2ec312e8ab855b58a70d8599d4.jpg?s=512&d=https%3A%2F%2Fa.slack-edge.com%2Fdf10d%2Fimg%2Favatars%2Fava_0025-512.png", "custom_css": null}, {"id": 1209, "slack_id": "U091PRME4SY", "display_name": "JAVVADI L V S GANESH", "bio": null, "projects_count": 0, "devlogs_count": 0, "votes_count": 0, "ships_count": 0, "projects": [], "coding_time_seconds": 0, "coding_time_seconds_today": 0, "balance": "You need to have a pocket watcher badge to view this.", "badges": [], "created_at": "2025-06-16T12:51:56.419-04:00", "updated_at": "2025-07-03T19:16:35.927-04:00", "avatar": "https://secure.gravatar.com/avatar/0ee5765a8756b35dad00b0de691c5765.jpg?s=512&d=https%3A%2F%2Fa.slack-edge.com%2Fdf10d%2Fimg%2Favatars%2Fava_0019-512.png", "custom_css": null}, {"id": 1210, "slack_id": "U092BT4HBG8", "display_name": "Fuegoo oo", "bio": null, "projects_count": 0, "devlogs_count": 0, "votes_count": 0, "ships_count": 0, "projects": [], "coding_time_seconds": 121, "coding_time_seconds_today": 0, "balance": "You need to have a pocket watcher badge to view this.", "badges": [], "created_at": "2025-06-16T12:52:00.921-04:00", "updated_at": "2025-07-03T19:16:36.206-04:00", "avatar": "https://avatars.slack-edge.com/2025-06-16/9042158165671_4e48a9ab7aa1b5e5ce15_original.png", "custom_css": null}, {"id": 1211, "slack_id": "U091MJUKLN9", "display_name": "phoenix", "bio": null, "projects_count": 0, "devlogs_count": 0, "votes_count": 0, "ships_count": 0, "projects": [], "coding_time_seconds": 49020, "coding_time_seconds_today": 0, "balance": "You need to have a pocket watcher badge to view this.", "badges": [], "created_at": "2025-06-16T12:52:02.296-04:00", "updated_at": "2025-07-03T19:16:36.483-04:00", "avatar": "https://secure.gravatar.com/avatar/08d0fa7c466305affb55c55df022a05c.jpg?s=512&d=https%3A%2F%2Fa.slack-edge.com%2Fdf10d%2Fimg%2Favatars%2Fava_0019-512.png", "custom_css": null}, {"id": 1212, "slack_id": "U05UBNWB1DW", "display_name": "Yash", "bio": "I make cool things\n", "projects_count": 3, "devlogs_count": 3, "votes_count": 3, "ships_count": 1, "projects": [{"id": 2637, "title": "Elembert", "devlogs_count": 1, "created_at": "2025-06-21T14:23:53.374-04:00"}, {"id": 5581, "title": "Repocalypse", "devlogs_count": 1, "created_at": "2025-07-06T11:19:32.395-04:00"}, {"id": 11381, "title": "Alem", "devlogs_count": 1, "created_at": "2025-08-15T11:49:51.813-04:00"}], "coding_time_seconds": 124588, "coding_time_seconds_today": 343, "balance": "You need to have a pocket watcher badge to view this.", "badges": [{"name": "Maiden Voyage", "text": "you shipped your first project! the journey begins...", "icon": "\ud83d\udea2"}], "created_at": "2025-06-16T12:52:02.471-04:00", "updated_at": "2025-09-10T22:51:45.525-04:00", "avatar": "https://avatars.slack-edge.com/2025-03-11/8591670972993_bd2ba11e459c9949289f_original.jpg", "custom_css": null}, {"id": 1213, "slack_id": "U0922054XLZ", "display_name": "Cornbread 2100", "bio": null, "projects_count": 2, "devlogs_count": 19, "votes_count": 53, "ships_count": 2, "projects": [{"id": 980, "title": "Hopper", "devlogs_count": 6, "created_at": "2025-06-17T12:51:50.603-04:00"}, {"id": 525, "title": "MC Server Scanner", "devlogs_count": 13, "created_at": "2025-06-17T00:18:51.823-04:00"}], "coding_time_seconds": 304692, "coding_time_seconds_today": 0, "balance": "You need to have a pocket watcher badge to view this.", "badges": [{"name": "Maiden Voyage", "text": "you shipped your first project! the journey begins...", "icon": "\ud83d\udea2"}], "created_at": "2025-06-16T12:52:10.157-04:00", "updated_at": "2025-09-10T22:51:45.550-04:00", "avatar": "https://avatars.slack-edge.com/2025-06-16/9050598836422_75120a42fb3ddb98e00b_original.jpg", "custom_css": null}, {"id": 1214, "slack_id": "U091PR0CPC4", "display_name": "Izabella Podowski", "bio": null, "projects_count": 0, "devlogs_count": 0, "votes_count": 0, "ships_count": 0, "projects": [], "coding_time_seconds": 0, "coding_time_seconds_today": 0, "balance": "You need to have a pocket watcher badge to view this.", "badges": [], "created_at": "2025-06-16T12:52:13.697-04:00", "updated_at": "2025-07-03T19:16:37.321-04:00", "avatar": "https://avatars.slack-edge.com/2025-06-16/9050506005043_5b523cda6b88e3e95992_original.png", "custom_css": null}, {"id": 1215, "slack_id": "U0922014LCR", "display_name": "Umar Abdulganiyy", "bio": null, "projects_count": 0, "devlogs_count": 0, "votes_count": 0, "ships_count": 0, "projects": [], "coding_time_seconds": 0, "coding_time_seconds_today": 0, "balance": "You need to have a pocket watcher badge to view this.", "badges": [], "created_at": "2025-06-16T12:52:16.969-04:00", "updated_at": "2025-07-03T19:16:37.591-04:00", "avatar": "https://secure.gravatar.com/avatar/8051899230a8864d8a137045f6d48466.jpg?s=512&d=https%3A%2F%2Fa.slack-edge.com%2Fdf10d%2Fimg%2Favatars%2Fava_0022-512.png", "custom_css": null}, {"id": 1216, "slack_id": "U092BSTU1MW", "display_name": "Sithum Ranasinghe", "bio": null, "projects_count": 0, "devlogs_count": 0, "votes_count": 0, "ships_count": 0, "projects": [], "coding_time_seconds": 0, "coding_time_seconds_today": 0, "balance": "You need to have a pocket watcher badge to view this.", "badges": [], "created_at": "2025-06-16T12:52:25.479-04:00", "updated_at": "2025-07-03T19:16:37.876-04:00", "avatar": "https://avatars.slack-edge.com/2025-06-16/9070023928145_93e2f4f2cedf115eb34a_original.jpg", "custom_css": null}, {"id": 1217, "slack_id": "U080VKUPD4G", "display_name": "Jayden Chun", "bio": null, "projects_count": 2, "devlogs_count": 37, "votes_count": 24, "ships_count": 1, "projects": [{"id": 207, "title": "Vibe", "devlogs_count": 15, "created_at": "2025-06-16T15:27:58.973-04:00"}, {"id": 205, "title": "Personal Portfolio", "devlogs_count": 22, "created_at": "2025-06-16T15:25:30.838-04:00"}], "coding_time_seconds": 211361, "coding_time_seconds_today": 0, "balance": "You need to have a pocket watcher badge to view this.", "badges": [{"name": "Maiden Voyage", "text": "you shipped your first project! the journey begins...", "icon": "\ud83d\udea2"}], "created_at": "2025-06-16T12:52:29.756-04:00", "updated_at": "2025-09-10T22:51:45.641-04:00", "avatar": "https://avatars.slack-edge.com/2024-11-09/8019571186321_0d576341fff9019f1a02_original.jpg", "custom_css": null}, {"id": 1218, "slack_id": "U091GH1V84E", "display_name": "Harsh Dagur", "bio": null, "projects_count": 0, "devlogs_count": 0, "votes_count": 0, "ships_count": 0, "projects": [], "coding_time_seconds": 0, "coding_time_seconds_today": 0, "balance": "You need to have a pocket watcher badge to view this.", "badges": [], "created_at": "2025-06-16T12:52:31.267-04:00", "updated_at": "2025-07-03T19:16:38.421-04:00", "avatar": "https://secure.gravatar.com/avatar/e3cb8ac2723285d28a9100fba983bf13.jpg?s=512&d=https%3A%2F%2Fa.slack-edge.com%2Fdf10d%2Fimg%2Favatars%2Fava_0010-512.png", "custom_css": null}, {"id": 1219, "slack_id": "U09184DD3N3", "display_name": "Breno Amaral", "bio": null, "projects_count": 0, "devlogs_count": 0, "votes_count": 0, "ships_count": 0, "projects": [], "coding_time_seconds": 7287, "coding_time_seconds_today": 0, "balance": "You need to have a pocket watcher badge to view this.", "badges": [], "created_at": "2025-06-16T12:52:37.756-04:00", "updated_at": "2025-07-03T19:16:38.694-04:00", "avatar": "https://secure.gravatar.com/avatar/6079bbeb75cd45a1625389c0460aeee0.jpg?s=512&d=https%3A%2F%2Fa.slack-edge.com%2Fdf10d%2Fimg%2Favatars%2Fava_0008-512.png", "custom_css": null}, {"id": 1220, "slack_id": "U092BSJ9EFJ", "display_name": "Cristian Monzon", "bio": null, "projects_count": 0, "devlogs_count": 0, "votes_count": 0, "ships_count": 0, "projects": [], "coding_time_seconds": 120, "coding_time_seconds_today": 0, "balance": "You need to have a pocket watcher badge to view this.", "badges": [], "created_at": "2025-06-16T12:52:38.100-04:00", "updated_at": "2025-07-03T19:16:39.015-04:00", "avatar": "https://secure.gravatar.com/avatar/825d8e4c29dd9ab4b678c0cf025c543c.jpg?s=512&d=https%3A%2F%2Fa.slack-edge.com%2Fdf10d%2Fimg%2Favatars%2Fava_0011-512.png", "custom_css": null}], "pagination": {"page": 61, "pages": 1192, "count": 23827, "items": 20}}