{"users": [{"id": 12201, "slack_id": "U082RHUC2TF", "display_name": "Squawkykaka", "bio": null, "projects_count": 3, "devlogs_count": 9, "votes_count": 20, "ships_count": 2, "projects": [{"id": 12252, "title": "Kaka Nest", "devlogs_count": 4, "created_at": "2025-08-24T21:16:00.889-04:00"}, {"id": 13112, "title": "Choreonius", "devlogs_count": 2, "created_at": "2025-09-08T19:44:14.818-04:00"}, {"id": 3579, "title": "Paper Scissors Terminal", "devlogs_count": 3, "created_at": "2025-06-24T19:17:06.368-04:00"}], "coding_time_seconds": 761254, "coding_time_seconds_today": 183, "balance": "You need to have a pocket watcher badge to view this.", "badges": [{"name": "Maiden Voyage", "text": "you shipped your first project! the journey begins...", "icon": "\ud83d\udea2"}], "created_at": "2025-06-24T19:10:50.437-04:00", "updated_at": "2025-09-10T22:57:16.629-04:00", "avatar": "https://secure.gravatar.com/avatar/5c1df971619a5599a68fcedeabfe121b.jpg?s=512&d=https%3A%2F%2Fa.slack-edge.com%2Fdf10d%2Fimg%2Favatars%2Fava_0020-512.png", "custom_css": null}, {"id": 12202, "slack_id": "U093AKK6CJD", "display_name": "Gianna Digiulio", "bio": null, "projects_count": 0, "devlogs_count": 0, "votes_count": 0, "ships_count": 0, "projects": [], "coding_time_seconds": 0, "coding_time_seconds_today": 0, "balance": "You need to have a pocket watcher badge to view this.", "badges": [], "created_at": "2025-06-24T19:17:21.802-04:00", "updated_at": "2025-07-03T20:03:00.644-04:00", "avatar": "https://avatars.slack-edge.com/2025-06-24/9092072768003_1d2957b72a60afc3e335_original.png", "custom_css": null}, {"id": 12203, "slack_id": "U07J6H2CNES", "display_name": "abdo", "bio": null, "projects_count": 0, "devlogs_count": 0, "votes_count": 0, "ships_count": 0, "projects": [], "coding_time_seconds": 33963, "coding_time_seconds_today": 0, "balance": "You need to have a pocket watcher badge to view this.", "badges": [], "created_at": "2025-06-24T19:18:30.251-04:00", "updated_at": "2025-09-03T20:55:23.646-04:00", "avatar": "https://avatars.slack-edge.com/2025-09-02/9447418555684_405c6742b7a08917fad9_original.jpg", "custom_css": null}, {"id": 12204, "slack_id": "U092XNX1MEY", "display_name": "Jiacheng", "bio": "", "projects_count": 2, "devlogs_count": 4, "votes_count": 20, "ships_count": 1, "projects": [{"id": 10601, "title": "Costco Food Court Canada", "devlogs_count": 1, "created_at": "2025-08-08T16:53:10.893-04:00"}, {"id": 12162, "title": "Costco Food Court Graveyard", "devlogs_count": 3, "created_at": "2025-08-23T21:12:26.938-04:00"}], "coding_time_seconds": 256772, "coding_time_seconds_today": 0, "balance": "You need to have a pocket watcher badge to view this.", "badges": [{"name": "Maiden Voyage", "text": "you shipped your first project! the journey begins...", "icon": "\ud83d\udea2"}], "created_at": "2025-06-24T19:26:30.527-04:00", "updated_at": "2025-09-10T22:57:16.743-04:00", "avatar": "https://secure.gravatar.com/avatar/5a94b557fbcf8ce344b6619278b2a720.jpg?s=512&d=https%3A%2F%2Fa.slack-edge.com%2Fdf10d%2Fimg%2Favatars%2Fava_0023-512.png", "custom_css": null}, {"id": 12205, "slack_id": "U093ALQUV17", "display_name": "Colin", "bio": null, "projects_count": 0, "devlogs_count": 0, "votes_count": 0, "ships_count": 0, "projects": [], "coding_time_seconds": 0, "coding_time_seconds_today": 0, "balance": "You need to have a pocket watcher badge to view this.", "badges": [], "created_at": "2025-06-24T19:31:05.699-04:00", "updated_at": "2025-07-03T20:03:01.471-04:00", "avatar": "https://secure.gravatar.com/avatar/4821fb87781b7ebd8c1e5dfbdd930ae6.jpg?s=512&d=https%3A%2F%2Fa.slack-edge.com%2Fdf10d%2Fimg%2Favatars%2Fava_0023-512.png", "custom_css": null}, {"id": 12206, "slack_id": "U08SXA71Y6N", "display_name": "tc", "bio": null, "projects_count": 0, "devlogs_count": 0, "votes_count": 0, "ships_count": 0, "projects": [], "coding_time_seconds": 0, "coding_time_seconds_today": 0, "balance": "You need to have a pocket watcher badge to view this.", "badges": [], "created_at": "2025-06-24T19:31:49.476-04:00", "updated_at": "2025-07-03T20:03:01.773-04:00", "avatar": "https://secure.gravatar.com/avatar/6dddf4b046a63cf127c62557974ed9d6.jpg?s=512&d=https%3A%2F%2Fa.slack-edge.com%2Fdf10d%2Fimg%2Favatars%2Fava_0022-512.png", "custom_css": null}, {"id": 12207, "slack_id": "U07BGARTUSE", "display_name": "Matthias Wuyts", "bio": null, "projects_count": 0, "devlogs_count": 0, "votes_count": 0, "ships_count": 0, "projects": [], "coding_time_seconds": 0, "coding_time_seconds_today": 0, "balance": "You need to have a pocket watcher badge to view this.", "badges": [], "created_at": "2025-06-24T19:33:26.792-04:00", "updated_at": "2025-07-03T20:03:02.038-04:00", "avatar": "https://secure.gravatar.com/avatar/70013a8209a1ce01844ad04002355d21.jpg?s=512&d=https%3A%2F%2Fa.slack-edge.com%2Fdf10d%2Fimg%2Favatars%2Fava_0008-512.png", "custom_css": null}, {"id": 12208, "slack_id": "U092GKFB7HD", "display_name": "oxeu123", "bio": null, "projects_count": 0, "devlogs_count": 0, "votes_count": 1, "ships_count": 0, "projects": [], "coding_time_seconds": 10890, "coding_time_seconds_today": 0, "balance": "You need to have a pocket watcher badge to view this.", "badges": [], "created_at": "2025-06-24T19:36:34.867-04:00", "updated_at": "2025-09-02T23:40:27.419-04:00", "avatar": "https://avatars.slack-edge.com/2025-06-24/9084817137031_9c341d0c0d635436bff3_original.png", "custom_css": null}, {"id": 12209, "slack_id": "U092GKZME9M", "display_name": "JUAN ANDR\u00c9S L\u00d3PEZ LEDEZMA", "bio": null, "projects_count": 0, "devlogs_count": 0, "votes_count": 0, "ships_count": 0, "projects": [], "coding_time_seconds": 0, "coding_time_seconds_today": 0, "balance": "You need to have a pocket watcher badge to view this.", "badges": [], "created_at": "2025-06-24T19:40:50.728-04:00", "updated_at": "2025-07-03T20:03:02.579-04:00", "avatar": "https://secure.gravatar.com/avatar/774a54c1577caca4fab697f5edb1bbc6.jpg?s=512&d=https%3A%2F%2Fa.slack-edge.com%2Fdf10d%2Fimg%2Favatars%2Fava_0002-512.png", "custom_css": null}, {"id": 12210, "slack_id": "U091Q6JF9CJ", "display_name": "Miriam", "bio": null, "projects_count": 0, "devlogs_count": 0, "votes_count": 0, "ships_count": 0, "projects": [], "coding_time_seconds": 0, "coding_time_seconds_today": 0, "balance": "You need to have a pocket watcher badge to view this.", "badges": [], "created_at": "2025-06-24T19:41:15.198-04:00", "updated_at": "2025-07-03T20:03:02.874-04:00", "avatar": "https://secure.gravatar.com/avatar/25bc3abd6bbbf01976a476a5c012c370.jpg?s=512&d=https%3A%2F%2Fa.slack-edge.com%2Fdf10d%2Fimg%2Favatars%2Fava_0000-512.png", "custom_css": null}, {"id": 12211, "slack_id": "U08JDQ1HESK", "display_name": "pufferfish", "bio": "", "projects_count": 0, "devlogs_count": 0, "votes_count": 5, "ships_count": 0, "projects": [], "coding_time_seconds": 228964, "coding_time_seconds_today": 0, "balance": "You need to have a pocket watcher badge to view this.", "badges": [], "created_at": "2025-06-24T19:43:01.146-04:00", "updated_at": "2025-08-18T21:03:35.013-04:00", "avatar": "https://avatars.slack-edge.com/2025-08-18/9373898126454_fed592849548c98d86f5_original.jpg", "custom_css": null}, {"id": 12212, "slack_id": "U092R983NJ2", "display_name": "Yousef Gaber", "bio": null, "projects_count": 1, "devlogs_count": 3, "votes_count": 31, "ships_count": 1, "projects": [{"id": 10479, "title": "AutoReply Manager | Discord Bot", "devlogs_count": 1, "created_at": "2025-08-07T11:27:19.895-04:00"}], "coding_time_seconds": 129228, "coding_time_seconds_today": 0, "balance": "You need to have a pocket watcher badge to view this.", "badges": [{"name": "Maiden Voyage", "text": "you shipped your first project! the journey begins...", "icon": "\ud83d\udea2"}], "created_at": "2025-06-24T19:58:11.415-04:00", "updated_at": "2025-09-10T22:57:16.890-04:00", "avatar": "https://avatars.slack-edge.com/2025-06-26/9131993322160_19fca252103dd7b75eed_original.jpg", "custom_css": null}, {"id": 12213, "slack_id": "U092VDCBSJ1", "display_name": "Vo Thi Dong Nghi", "bio": null, "projects_count": 0, "devlogs_count": 0, "votes_count": 0, "ships_count": 0, "projects": [], "coding_time_seconds": 0, "coding_time_seconds_today": 0, "balance": "You need to have a pocket watcher badge to view this.", "badges": [], "created_at": "2025-06-24T20:03:19.224-04:00", "updated_at": "2025-07-03T20:03:04.388-04:00", "avatar": "https://avatars.slack-edge.com/2025-06-25/9084823761351_70990886dce214a5c449_original.jpg", "custom_css": null}, {"id": 12214, "slack_id": "U092VE03GN9", "display_name": "Ramez Osama Abass Elwakil", "bio": null, "projects_count": 0, "devlogs_count": 0, "votes_count": 0, "ships_count": 0, "projects": [], "coding_time_seconds": 0, "coding_time_seconds_today": 0, "balance": "You need to have a pocket watcher badge to view this.", "badges": [], "created_at": "2025-06-24T20:13:38.759-04:00", "updated_at": "2025-07-03T20:03:04.661-04:00", "avatar": "https://secure.gravatar.com/avatar/a2e78e62ff7ffacaf6b04ed9099f8838.jpg?s=512&d=https%3A%2F%2Fa.slack-edge.com%2Fdf10d%2Fimg%2Favatars%2Fava_0011-512.png", "custom_css": null}, {"id": 12215, "slack_id": "U092RB4JC0N", "display_name": "Kris", "bio": null, "projects_count": 0, "devlogs_count": 0, "votes_count": 0, "ships_count": 0, "projects": [], "coding_time_seconds": 0, "coding_time_seconds_today": 0, "balance": "You need to have a pocket watcher badge to view this.", "badges": [], "created_at": "2025-06-24T20:16:49.902-04:00", "updated_at": "2025-07-03T22:03:00.838-04:00", "avatar": "https://secure.gravatar.com/avatar/2ca5cf16c1155c5cc3e72656a92f2d3e.jpg?s=512&d=https%3A%2F%2Fa.slack-edge.com%2Fdf10d%2Fimg%2Favatars%2Fava_0025-512.png", "custom_css": null}, {"id": 12216, "slack_id": "U092X5AUC82", "display_name": "Radsfer", "bio": null, "projects_count": 0, "devlogs_count": 0, "votes_count": 0, "ships_count": 0, "projects": [], "coding_time_seconds": 0, "coding_time_seconds_today": 0, "balance": "You need to have a pocket watcher badge to view this.", "badges": [], "created_at": "2025-06-24T20:37:09.401-04:00", "updated_at": "2025-07-03T20:03:05.063-04:00", "avatar": "https://secure.gravatar.com/avatar/ffcf1ad9ced549b0cf392590adbf61d7.jpg?s=512&d=https%3A%2F%2Fa.slack-edge.com%2Fdf10d%2Fimg%2Favatars%2Fava_0023-512.png", "custom_css": null}, {"id": 12217, "slack_id": "U092QJZCTLN", "display_name": "Jennica Xu", "bio": null, "projects_count": 0, "devlogs_count": 0, "votes_count": 0, "ships_count": 0, "projects": [], "coding_time_seconds": 0, "coding_time_seconds_today": 0, "balance": "You need to have a pocket watcher badge to view this.", "badges": [], "created_at": "2025-06-24T20:44:45.189-04:00", "updated_at": "2025-07-03T20:03:05.327-04:00", "avatar": "https://secure.gravatar.com/avatar/933815de4ed8adf8b032c2cc93270e2d.jpg?s=512&d=https%3A%2F%2Fa.slack-edge.com%2Fdf10d%2Fimg%2Favatars%2Fava_0003-512.png", "custom_css": null}, {"id": 12218, "slack_id": "U092X63EQBC", "display_name": "Amr", "bio": null, "projects_count": 0, "devlogs_count": 0, "votes_count": 0, "ships_count": 0, "projects": [], "coding_time_seconds": 2207, "coding_time_seconds_today": 0, "balance": "You need to have a pocket watcher badge to view this.", "badges": [], "created_at": "2025-06-24T20:47:26.583-04:00", "updated_at": "2025-08-08T08:14:22.568-04:00", "avatar": "https://secure.gravatar.com/avatar/d3d270738fc2ec08b283496bbab26c31.jpg?s=512&d=https%3A%2F%2Fa.slack-edge.com%2Fdf10d%2Fimg%2Favatars%2Fava_0022-512.png", "custom_css": null}, {"id": 12219, "slack_id": "U092KEZTCD6", "display_name": "Linus Honer", "bio": null, "projects_count": 0, "devlogs_count": 0, "votes_count": 0, "ships_count": 0, "projects": [], "coding_time_seconds": 3963, "coding_time_seconds_today": 0, "balance": "You need to have a pocket watcher badge to view this.", "badges": [], "created_at": "2025-06-24T20:49:22.772-04:00", "updated_at": "2025-07-03T20:03:05.853-04:00", "avatar": "https://avatars.slack-edge.com/2025-06-24/9084909097895_8ec9da16e20009718055_original.png", "custom_css": null}, {"id": 12220, "slack_id": "U093AUR828H", "display_name": "Kevin Martin", "bio": null, "projects_count": 0, "devlogs_count": 0, "votes_count": 0, "ships_count": 0, "projects": [], "coding_time_seconds": 26554, "coding_time_seconds_today": 0, "balance": "You need to have a pocket watcher badge to view this.", "badges": [], "created_at": "2025-06-24T21:06:58.595-04:00", "updated_at": "2025-07-03T20:03:06.112-04:00", "avatar": "https://secure.gravatar.com/avatar/6ff3aa4764fe607b675479d8d2a51211.jpg?s=512&d=https%3A%2F%2Fa.slack-edge.com%2Fdf10d%2Fimg%2Favatars%2Fava_0023-512.png", "custom_css": null}], "pagination": {"page": 611, "pages": 1192, "count": 23828, "items": 20}}