{"users": [{"id": 12221, "slack_id": "U092X8PJD6W", "display_name": "Noah Jaye", "bio": null, "projects_count": 0, "devlogs_count": 0, "votes_count": 0, "ships_count": 0, "projects": [], "coding_time_seconds": 11369, "coding_time_seconds_today": 0, "balance": "You need to have a pocket watcher badge to view this.", "badges": [], "created_at": "2025-06-24T21:14:56.622-04:00", "updated_at": "2025-07-03T22:03:01.310-04:00", "avatar": "https://secure.gravatar.com/avatar/8eb24744170ceef1e80e9a697740af4b.jpg?s=512&d=https%3A%2F%2Fa.slack-edge.com%2Fdf10d%2Fimg%2Favatars%2Fava_0022-512.png", "custom_css": null}, {"id": 12222, "slack_id": "U08PX9YEYNQ", "display_name": "humaninexistance", "bio": null, "projects_count": 2, "devlogs_count": 3, "votes_count": 0, "ships_count": 0, "projects": [{"id": 3856, "title": "4fold", "devlogs_count": 1, "created_at": "2025-06-26T02:48:42.009-04:00"}, {"id": 5670, "title": "Science Water Filtration Project", "devlogs_count": 2, "created_at": "2025-07-07T00:44:44.227-04:00"}], "coding_time_seconds": 16183, "coding_time_seconds_today": 0, "balance": "You need to have a pocket watcher badge to view this.", "badges": [], "created_at": "2025-06-24T21:19:46.697-04:00", "updated_at": "2025-07-03T20:03:06.511-04:00", "avatar": "https://avatars.slack-edge.com/2025-06-18/9062625946307_51c9ea2671c6d2d01083_original.jpg", "custom_css": null}, {"id": 12223, "slack_id": "U092RH29P1U", "display_name": "Sebastian Bereche", "bio": null, "projects_count": 0, "devlogs_count": 0, "votes_count": 0, "ships_count": 0, "projects": [], "coding_time_seconds": 0, "coding_time_seconds_today": 0, "balance": "You need to have a pocket watcher badge to view this.", "badges": [], "created_at": "2025-06-24T21:26:07.314-04:00", "updated_at": "2025-07-03T20:03:06.780-04:00", "avatar": "https://secure.gravatar.com/avatar/fecdc159596e16bf99821874aba46696.jpg?s=512&d=https%3A%2F%2Fa.slack-edge.com%2Fdf10d%2Fimg%2Favatars%2Fava_0013-512.png", "custom_css": null}, {"id": 12224, "slack_id": "U092H1634KZ", "display_name": "Ollie Trower", "bio": null, "projects_count": 0, "devlogs_count": 0, "votes_count": 0, "ships_count": 0, "projects": [], "coding_time_seconds": 3897, "coding_time_seconds_today": 0, "balance": "You need to have a pocket watcher badge to view this.", "badges": [], "created_at": "2025-06-24T21:32:01.212-04:00", "updated_at": "2025-07-03T20:03:07.054-04:00", "avatar": "https://avatars.slack-edge.com/2025-06-25/9092496889043_b3ecc74ee564f52d0d8b_original.png", "custom_css": null}, {"id": 12225, "slack_id": "U093KQNH00G", "display_name": "XD123456", "bio": null, "projects_count": 0, "devlogs_count": 0, "votes_count": 0, "ships_count": 0, "projects": [], "coding_time_seconds": 0, "coding_time_seconds_today": 0, "balance": "You need to have a pocket watcher badge to view this.", "badges": [], "created_at": "2025-06-24T21:38:05.389-04:00", "updated_at": "2025-07-03T20:03:07.317-04:00", "avatar": "https://secure.gravatar.com/avatar/29a275ef4781f58dc2f9061cd5bcdfe2.jpg?s=512&d=https%3A%2F%2Fa.slack-edge.com%2Fdf10d%2Fimg%2Favatars%2Fava_0000-512.png", "custom_css": null}, {"id": 12226, "slack_id": "U092RK3USES", "display_name": "Mohit Kumar Rathi", "bio": null, "projects_count": 0, "devlogs_count": 0, "votes_count": 0, "ships_count": 0, "projects": [], "coding_time_seconds": 214926, "coding_time_seconds_today": 5255, "balance": "You need to have a pocket watcher badge to view this.", "badges": [], "created_at": "2025-06-24T21:44:33.489-04:00", "updated_at": "2025-07-03T20:03:07.597-04:00", "avatar": "https://secure.gravatar.com/avatar/c9b65b67c452885186414e6bdb7cf507.jpg?s=512&d=https%3A%2F%2Fa.slack-edge.com%2Fdf10d%2Fimg%2Favatars%2Fava_0022-512.png", "custom_css": null}, {"id": 12227, "slack_id": "U092XB7CML2", "display_name": "Mahesh Bhandari", "bio": null, "projects_count": 0, "devlogs_count": 0, "votes_count": 0, "ships_count": 0, "projects": [], "coding_time_seconds": 357401, "coding_time_seconds_today": 0, "balance": "You need to have a pocket watcher badge to view this.", "badges": [], "created_at": "2025-06-24T21:47:58.453-04:00", "updated_at": "2025-07-03T20:03:07.862-04:00", "avatar": "https://secure.gravatar.com/avatar/6e881daaa34f74921b6ff05592090af8.jpg?s=512&d=https%3A%2F%2Fa.slack-edge.com%2Fdf10d%2Fimg%2Favatars%2Fava_0004-512.png", "custom_css": null}, {"id": 12228, "slack_id": "U092F2UGAUS", "display_name": "Liam Bagabag", "bio": null, "projects_count": 0, "devlogs_count": 0, "votes_count": 0, "ships_count": 0, "projects": [], "coding_time_seconds": 0, "coding_time_seconds_today": 0, "balance": "You need to have a pocket watcher badge to view this.", "badges": [], "created_at": "2025-06-24T21:56:49.028-04:00", "updated_at": "2025-07-04T08:28:35.328-04:00", "avatar": "https://avatars.slack-edge.com/2025-06-24/9113136223073_e3c990f01cb755719d14_original.png", "custom_css": null}, {"id": 12229, "slack_id": "U08F02P6D97", "display_name": "bloom", "bio": null, "projects_count": 0, "devlogs_count": 0, "votes_count": 0, "ships_count": 0, "projects": [], "coding_time_seconds": 0, "coding_time_seconds_today": 0, "balance": "You need to have a pocket watcher badge to view this.", "badges": [], "created_at": "2025-06-24T22:06:28.651-04:00", "updated_at": "2025-07-03T22:03:02.005-04:00", "avatar": "https://secure.gravatar.com/avatar/7da7b8d43be41d51d4ef40869e834661.jpg?s=512&d=https%3A%2F%2Fa.slack-edge.com%2Fdf10d%2Fimg%2Favatars%2Fava_0017-512.png", "custom_css": null}, {"id": 12230, "slack_id": "U08047GCEU8", "display_name": "ahk", "bio": null, "projects_count": 0, "devlogs_count": 0, "votes_count": 0, "ships_count": 0, "projects": [], "coding_time_seconds": 4709, "coding_time_seconds_today": 0, "balance": "You need to have a pocket watcher badge to view this.", "badges": [], "created_at": "2025-06-24T22:10:43.537-04:00", "updated_at": "2025-07-03T22:03:02.147-04:00", "avatar": "https://secure.gravatar.com/avatar/bf660d92b3004d566902ffd8022bce82.jpg?s=512&d=https%3A%2F%2Fa.slack-edge.com%2Fdf10d%2Fimg%2Favatars%2Fava_0005-512.png", "custom_css": null}, {"id": 12231, "slack_id": "U07TNPM41D1", "display_name": "revanth", "bio": null, "projects_count": 0, "devlogs_count": 0, "votes_count": 0, "ships_count": 0, "projects": [], "coding_time_seconds": 0, "coding_time_seconds_today": 0, "balance": "You need to have a pocket watcher badge to view this.", "badges": [], "created_at": "2025-06-24T22:19:10.093-04:00", "updated_at": "2025-07-03T20:03:08.542-04:00", "avatar": "https://secure.gravatar.com/avatar/2e848777e401f27f2d5cc4b86f003c46.jpg?s=512&d=https%3A%2F%2Fa.slack-edge.com%2Fdf10d%2Fimg%2Favatars%2Fava_0013-512.png", "custom_css": null}, {"id": 12232, "slack_id": "U093B5WL7J5", "display_name": "Hongru He", "bio": null, "projects_count": 0, "devlogs_count": 0, "votes_count": 0, "ships_count": 0, "projects": [], "coding_time_seconds": 0, "coding_time_seconds_today": 0, "balance": "You need to have a pocket watcher badge to view this.", "badges": [], "created_at": "2025-06-24T22:21:25.254-04:00", "updated_at": "2025-07-03T20:03:08.803-04:00", "avatar": "https://secure.gravatar.com/avatar/23687f1b5a5686b156e8afa76de222de.jpg?s=512&d=https%3A%2F%2Fa.slack-edge.com%2Fdf10d%2Fimg%2Favatars%2Fava_0008-512.png", "custom_css": null}, {"id": 12233, "slack_id": "U092VSFHN5B", "display_name": "Muhammad Rizky Aulia", "bio": null, "projects_count": 0, "devlogs_count": 0, "votes_count": 0, "ships_count": 0, "projects": [], "coding_time_seconds": 0, "coding_time_seconds_today": 0, "balance": "You need to have a pocket watcher badge to view this.", "badges": [], "created_at": "2025-06-24T22:23:21.029-04:00", "updated_at": "2025-07-03T20:03:09.067-04:00", "avatar": "https://secure.gravatar.com/avatar/311ee8a798ae5c9f94bfa97fdb130907.jpg?s=512&d=https%3A%2F%2Fa.slack-edge.com%2Fdf10d%2Fimg%2Favatars%2Fava_0025-512.png", "custom_css": null}, {"id": 12234, "slack_id": "U092XET4WUA", "display_name": "Rodin Hooshiyar", "bio": null, "projects_count": 0, "devlogs_count": 0, "votes_count": 0, "ships_count": 0, "projects": [], "coding_time_seconds": 9100, "coding_time_seconds_today": 0, "balance": "You need to have a pocket watcher badge to view this.", "badges": [], "created_at": "2025-06-24T22:25:00.436-04:00", "updated_at": "2025-07-03T20:03:09.346-04:00", "avatar": "https://avatars.slack-edge.com/2025-06-24/9113219519169_f9b8d6ab8bc2eb919949_original.jpg", "custom_css": null}, {"id": 12235, "slack_id": "U092RPWKEDU", "display_name": "smile snack", "bio": null, "projects_count": 0, "devlogs_count": 0, "votes_count": 0, "ships_count": 0, "projects": [], "coding_time_seconds": 0, "coding_time_seconds_today": 0, "balance": "You need to have a pocket watcher badge to view this.", "badges": [], "created_at": "2025-06-24T22:32:15.306-04:00", "updated_at": "2025-07-03T20:03:09.611-04:00", "avatar": "https://avatars.slack-edge.com/2025-06-24/9085264940615_4547ffde80637f71696f_original.png", "custom_css": null}, {"id": 12236, "slack_id": "U093L0ZJ9CY", "display_name": "Zidane Ho", "bio": null, "projects_count": 0, "devlogs_count": 0, "votes_count": 0, "ships_count": 0, "projects": [], "coding_time_seconds": 0, "coding_time_seconds_today": 0, "balance": "You need to have a pocket watcher badge to view this.", "badges": [], "created_at": "2025-06-24T22:36:29.612-04:00", "updated_at": "2025-07-03T20:03:09.903-04:00", "avatar": "https://secure.gravatar.com/avatar/d39551591760b329617d2f1fc20f266b.jpg?s=512&d=https%3A%2F%2Fa.slack-edge.com%2Fdf10d%2Fimg%2Favatars%2Fava_0008-512.png", "custom_css": null}, {"id": 12237, "slack_id": "U092WCZ0VFE", "display_name": "Kameren", "bio": null, "projects_count": 0, "devlogs_count": 0, "votes_count": 0, "ships_count": 0, "projects": [], "coding_time_seconds": 0, "coding_time_seconds_today": 0, "balance": "You need to have a pocket watcher badge to view this.", "badges": [], "created_at": "2025-06-24T22:45:53.136-04:00", "updated_at": "2025-07-03T20:03:10.177-04:00", "avatar": "https://secure.gravatar.com/avatar/a49cd963e06eaf61a26a735b377d7f40.jpg?s=512&d=https%3A%2F%2Fa.slack-edge.com%2Fdf10d%2Fimg%2Favatars%2Fava_0013-512.png", "custom_css": null}, {"id": 12238, "slack_id": "U092YCB0X36", "display_name": "Gavin", "bio": null, "projects_count": 0, "devlogs_count": 0, "votes_count": 0, "ships_count": 0, "projects": [], "coding_time_seconds": 0, "coding_time_seconds_today": 0, "balance": "You need to have a pocket watcher badge to view this.", "badges": [], "created_at": "2025-06-24T22:46:04.905-04:00", "updated_at": "2025-07-07T02:14:32.199-04:00", "avatar": "https://secure.gravatar.com/avatar/8793e0d44af75732cf0b87fc84ed3cad.jpg?s=512&d=https%3A%2F%2Fa.slack-edge.com%2Fdf10d%2Fimg%2Favatars%2Fava_0004-512.png", "custom_css": null}, {"id": 12239, "slack_id": "U093BBHGPSM", "display_name": "sterlaen", "bio": null, "projects_count": 0, "devlogs_count": 0, "votes_count": 0, "ships_count": 0, "projects": [], "coding_time_seconds": 23, "coding_time_seconds_today": 0, "balance": "You need to have a pocket watcher badge to view this.", "badges": [], "created_at": "2025-06-24T23:31:28.225-04:00", "updated_at": "2025-07-03T20:03:10.601-04:00", "avatar": "https://secure.gravatar.com/avatar/ded9062483057add2d3d7d2168ce1d3a.jpg?s=512&d=https%3A%2F%2Fa.slack-edge.com%2Fdf10d%2Fimg%2Favatars%2Fava_0014-512.png", "custom_css": null}, {"id": 12240, "slack_id": "U0928GX3JP8", "display_name": "Jayana", "bio": null, "projects_count": 0, "devlogs_count": 0, "votes_count": 0, "ships_count": 0, "projects": [], "coding_time_seconds": 0, "coding_time_seconds_today": 0, "balance": "You need to have a pocket watcher badge to view this.", "badges": [], "created_at": "2025-06-24T23:38:01.827-04:00", "updated_at": "2025-07-03T20:03:10.864-04:00", "avatar": "https://secure.gravatar.com/avatar/ab25ed6c5acfd2aaa18f8ae9d4ab95f3.jpg?s=512&d=https%3A%2F%2Fa.slack-edge.com%2Fdf10d%2Fimg%2Favatars%2Fava_0019-512.png", "custom_css": null}], "pagination": {"page": 612, "pages": 1192, "count": 23828, "items": 20}}