{"users": [{"id": 12241, "slack_id": "U08RA4P19K8", "display_name": "Brooklyn", "bio": null, "projects_count": 0, "devlogs_count": 0, "votes_count": 0, "ships_count": 0, "projects": [], "coding_time_seconds": 0, "coding_time_seconds_today": 0, "balance": "You need to have a pocket watcher badge to view this.", "badges": [], "created_at": "2025-06-24T23:42:28.186-04:00", "updated_at": "2025-07-03T20:03:11.128-04:00", "avatar": "https://avatars.slack-edge.com/2025-05-30/8978580099906_4bf1140b7b610f67f0d2_original.png", "custom_css": null}, {"id": 12242, "slack_id": "U092HE1V0J3", "display_name": "NeilK", "bio": null, "projects_count": 0, "devlogs_count": 2, "votes_count": 9, "ships_count": 0, "projects": [], "coding_time_seconds": 59991, "coding_time_seconds_today": 0, "balance": "You need to have a pocket watcher badge to view this.", "badges": [{"name": "Maiden Voyage", "text": "you shipped your first project! the journey begins...", "icon": "\ud83d\udea2"}], "created_at": "2025-06-24T23:43:15.265-04:00", "updated_at": "2025-09-10T22:57:17.479-04:00", "avatar": "https://secure.gravatar.com/avatar/da0fb08defbe602d5a0d88bba91011a0.jpg?s=512&d=https%3A%2F%2Fa.slack-edge.com%2Fdf10d%2Fimg%2Favatars%2Fava_0008-512.png", "custom_css": null}, {"id": 12243, "slack_id": "U093L893EKA", "display_name": "Sahil", "bio": null, "projects_count": 0, "devlogs_count": 0, "votes_count": 0, "ships_count": 0, "projects": [], "coding_time_seconds": 0, "coding_time_seconds_today": 0, "balance": "You need to have a pocket watcher badge to view this.", "badges": [], "created_at": "2025-06-24T23:52:54.651-04:00", "updated_at": "2025-07-03T20:03:11.661-04:00", "avatar": "https://secure.gravatar.com/avatar/eb987e248e5d7ee48a07856539018986.jpg?s=512&d=https%3A%2F%2Fa.slack-edge.com%2Fdf10d%2Fimg%2Favatars%2Fava_0016-512.png", "custom_css": null}, {"id": 12244, "slack_id": "U092XT935CZ", "display_name": "Julia ALOTOOM", "bio": null, "projects_count": 0, "devlogs_count": 0, "votes_count": 0, "ships_count": 0, "projects": [], "coding_time_seconds": 0, "coding_time_seconds_today": 0, "balance": "You need to have a pocket watcher badge to view this.", "badges": [], "created_at": "2025-06-24T23:53:43.144-04:00", "updated_at": "2025-07-03T20:03:11.921-04:00", "avatar": "https://avatars.slack-edge.com/2025-06-24/9100651651348_c9f0548759915729c90f_original.jpg", "custom_css": null}, {"id": 12245, "slack_id": "U092VRMQMTP", "display_name": "Leith Dorricott", "bio": null, "projects_count": 0, "devlogs_count": 0, "votes_count": 0, "ships_count": 0, "projects": [], "coding_time_seconds": 0, "coding_time_seconds_today": 0, "balance": "You need to have a pocket watcher badge to view this.", "badges": [], "created_at": "2025-06-24T23:56:03.299-04:00", "updated_at": "2025-08-07T18:59:33.072-04:00", "avatar": "https://secure.gravatar.com/avatar/f52e06b1f8b8adc3b972aaf393f03367.jpg?s=512&d=https%3A%2F%2Fa.slack-edge.com%2Fdf10d%2Fimg%2Favatars%2Fava_0023-512.png", "custom_css": null}, {"id": 12246, "slack_id": "U092YK1H28L", "display_name": "poojit", "bio": null, "projects_count": 0, "devlogs_count": 0, "votes_count": 0, "ships_count": 0, "projects": [], "coding_time_seconds": 55379, "coding_time_seconds_today": 0, "balance": "You need to have a pocket watcher badge to view this.", "badges": [], "created_at": "2025-06-24T23:57:06.231-04:00", "updated_at": "2025-07-20T06:41:43.832-04:00", "avatar": "https://secure.gravatar.com/avatar/1c729977a3c5e5be055283b130530f74.jpg?s=512&d=https%3A%2F%2Fa.slack-edge.com%2Fdf10d%2Fimg%2Favatars%2Fava_0008-512.png", "custom_css": null}, {"id": 12247, "slack_id": "U093L90KYCQ", "display_name": "sagar panwar", "bio": null, "projects_count": 0, "devlogs_count": 0, "votes_count": 0, "ships_count": 0, "projects": [], "coding_time_seconds": 0, "coding_time_seconds_today": 0, "balance": "You need to have a pocket watcher badge to view this.", "badges": [], "created_at": "2025-06-25T00:02:12.031-04:00", "updated_at": "2025-07-08T03:03:02.203-04:00", "avatar": "https://avatars.slack-edge.com/2025-06-24/9100680181028_508614a5f4fc421e3585_original.jpg", "custom_css": null}, {"id": 12248, "slack_id": "U092W63AS93", "display_name": "Aadya Jindal", "bio": null, "projects_count": 0, "devlogs_count": 0, "votes_count": 0, "ships_count": 0, "projects": [], "coding_time_seconds": 0, "coding_time_seconds_today": 0, "balance": "You need to have a pocket watcher badge to view this.", "badges": [], "created_at": "2025-06-25T00:07:46.560-04:00", "updated_at": "2025-07-03T20:03:12.858-04:00", "avatar": "https://secure.gravatar.com/avatar/fe1cdcfb80369b0bf5275951b450193a.jpg?s=512&d=https%3A%2F%2Fa.slack-edge.com%2Fdf10d%2Fimg%2Favatars%2Fava_0000-512.png", "custom_css": null}, {"id": 12249, "slack_id": "U0855M9D3L4", "display_name": "BirbGoBrrrrr", "bio": null, "projects_count": 0, "devlogs_count": 0, "votes_count": 0, "ships_count": 0, "projects": [], "coding_time_seconds": 0, "coding_time_seconds_today": 0, "balance": "You need to have a pocket watcher badge to view this.", "badges": [], "created_at": "2025-06-25T00:13:52.865-04:00", "updated_at": "2025-07-03T20:03:13.120-04:00", "avatar": "https://secure.gravatar.com/avatar/5b815019acd2368b2cbf0d02e0cda35a.jpg?s=512&d=https%3A%2F%2Fa.slack-edge.com%2Fdf10d%2Fimg%2Favatars%2Fava_0022-512.png", "custom_css": null}, {"id": 12250, "slack_id": "U091S4PLF6Z", "display_name": "sjx", "bio": null, "projects_count": 0, "devlogs_count": 0, "votes_count": 0, "ships_count": 0, "projects": [], "coding_time_seconds": 64037, "coding_time_seconds_today": 415, "balance": "You need to have a pocket watcher badge to view this.", "badges": [], "created_at": "2025-06-25T00:14:59.623-04:00", "updated_at": "2025-07-03T20:03:13.392-04:00", "avatar": "https://secure.gravatar.com/avatar/9d9908de53be78d3e5ff07e5260f3aae.jpg?s=512&d=https%3A%2F%2Fa.slack-edge.com%2Fdf10d%2Fimg%2Favatars%2Fava_0014-512.png", "custom_css": null}, {"id": 12251, "slack_id": "U07V5FSCJLQ", "display_name": "Umarbek", "bio": null, "projects_count": 0, "devlogs_count": 0, "votes_count": 0, "ships_count": 0, "projects": [], "coding_time_seconds": 142380, "coding_time_seconds_today": 0, "balance": "You need to have a pocket watcher badge to view this.", "badges": [], "created_at": "2025-06-25T00:28:13.641-04:00", "updated_at": "2025-07-03T20:03:13.671-04:00", "avatar": "https://avatars.slack-edge.com/2024-11-01/7981575478849_cf92504be8bdc11e691f_original.png", "custom_css": null}, {"id": 12252, "slack_id": "U092R0QN9MZ", "display_name": "Andy", "bio": null, "projects_count": 0, "devlogs_count": 0, "votes_count": 0, "ships_count": 0, "projects": [], "coding_time_seconds": 0, "coding_time_seconds_today": 0, "balance": "You need to have a pocket watcher badge to view this.", "badges": [], "created_at": "2025-06-25T00:29:57.128-04:00", "updated_at": "2025-07-04T08:28:36.870-04:00", "avatar": "https://secure.gravatar.com/avatar/2f010adfa4951e388cd3b0ea094924b0.jpg?s=512&d=https%3A%2F%2Fa.slack-edge.com%2Fdf10d%2Fimg%2Favatars%2Fava_0019-512.png", "custom_css": null}, {"id": 12253, "slack_id": "U092HJWU6LX", "display_name": "Micquel D", "bio": null, "projects_count": 0, "devlogs_count": 0, "votes_count": 0, "ships_count": 0, "projects": [], "coding_time_seconds": 0, "coding_time_seconds_today": 0, "balance": "You need to have a pocket watcher badge to view this.", "badges": [], "created_at": "2025-06-25T00:33:10.818-04:00", "updated_at": "2025-07-03T20:03:14.075-04:00", "avatar": "https://secure.gravatar.com/avatar/80bfa67c70a88319fbd2a9d035b38d36.jpg?s=512&d=https%3A%2F%2Fa.slack-edge.com%2Fdf10d%2Fimg%2Favatars%2Fava_0022-512.png", "custom_css": null}, {"id": 12254, "slack_id": "U092W93E19B", "display_name": "King", "bio": null, "projects_count": 0, "devlogs_count": 0, "votes_count": 0, "ships_count": 0, "projects": [], "coding_time_seconds": 5720, "coding_time_seconds_today": 0, "balance": "You need to have a pocket watcher badge to view this.", "badges": [], "created_at": "2025-06-25T00:37:06.897-04:00", "updated_at": "2025-07-03T20:03:14.372-04:00", "avatar": "https://secure.gravatar.com/avatar/2af8c6a10958e62451ae859bfc919782.jpg?s=512&d=https%3A%2F%2Fa.slack-edge.com%2Fdf10d%2Fimg%2Favatars%2Fava_0011-512.png", "custom_css": null}, {"id": 12255, "slack_id": "U092HKVSX8F", "display_name": "Navreet Singh", "bio": null, "projects_count": 0, "devlogs_count": 0, "votes_count": 0, "ships_count": 0, "projects": [], "coding_time_seconds": 27162, "coding_time_seconds_today": 0, "balance": "You need to have a pocket watcher badge to view this.", "badges": [], "created_at": "2025-06-25T00:43:59.981-04:00", "updated_at": "2025-07-03T20:03:14.638-04:00", "avatar": "https://avatars.slack-edge.com/2025-06-24/9093082967011_5c6a162acd795a42ab9b_original.jpg", "custom_css": null}, {"id": 12256, "slack_id": "U092W9NA09K", "display_name": "Rafa", "bio": null, "projects_count": 0, "devlogs_count": 0, "votes_count": 0, "ships_count": 0, "projects": [], "coding_time_seconds": 0, "coding_time_seconds_today": 0, "balance": "You need to have a pocket watcher badge to view this.", "badges": [], "created_at": "2025-06-25T00:45:53.576-04:00", "updated_at": "2025-07-07T02:14:33.323-04:00", "avatar": "https://secure.gravatar.com/avatar/da8f9b7aa25fca4427c8eba78355163f.jpg?s=512&d=https%3A%2F%2Fa.slack-edge.com%2Fdf10d%2Fimg%2Favatars%2Fava_0017-512.png", "custom_css": null}, {"id": 12257, "slack_id": "U093LDPFVS4", "display_name": "Patrick Anderson", "bio": null, "projects_count": 0, "devlogs_count": 0, "votes_count": 0, "ships_count": 0, "projects": [], "coding_time_seconds": 0, "coding_time_seconds_today": 0, "balance": "You need to have a pocket watcher badge to view this.", "badges": [], "created_at": "2025-06-25T00:53:34.718-04:00", "updated_at": "2025-08-13T22:33:28.366-04:00", "avatar": "https://avatars.slack-edge.com/2025-08-07/9309446696135_6fd5498fa9ee28aad73c_original.png", "custom_css": null}, {"id": 12258, "slack_id": "U093BKKABJ5", "display_name": "Chimera", "bio": null, "projects_count": 0, "devlogs_count": 0, "votes_count": 0, "ships_count": 0, "projects": [], "coding_time_seconds": 0, "coding_time_seconds_today": 0, "balance": "You need to have a pocket watcher badge to view this.", "badges": [], "created_at": "2025-06-25T01:04:16.031-04:00", "updated_at": "2025-07-03T20:03:15.179-04:00", "avatar": "https://avatars.slack-edge.com/2025-06-25/9113759451745_8765153d6b4c960727e1_original.png", "custom_css": null}, {"id": 12259, "slack_id": "U093LFFB132", "display_name": "robin", "bio": null, "projects_count": 0, "devlogs_count": 0, "votes_count": 0, "ships_count": 0, "projects": [], "coding_time_seconds": 0, "coding_time_seconds_today": 0, "balance": "You need to have a pocket watcher badge to view this.", "badges": [], "created_at": "2025-06-25T01:05:39.020-04:00", "updated_at": "2025-07-03T20:03:15.443-04:00", "avatar": "https://secure.gravatar.com/avatar/d2a728f9c4aad619e68ab837700a7e98.jpg?s=512&d=https%3A%2F%2Fa.slack-edge.com%2Fdf10d%2Fimg%2Favatars%2Fava_0020-512.png", "custom_css": null}, {"id": 12260, "slack_id": "U092R4NLH6F", "display_name": "Devansh Goel", "bio": null, "projects_count": 0, "devlogs_count": 0, "votes_count": 0, "ships_count": 0, "projects": [], "coding_time_seconds": 39932, "coding_time_seconds_today": 0, "balance": "You need to have a pocket watcher badge to view this.", "badges": [], "created_at": "2025-06-25T01:09:11.651-04:00", "updated_at": "2025-07-03T20:03:15.718-04:00", "avatar": "https://secure.gravatar.com/avatar/35b9e65f12f3426609760a6a3d4f591a.jpg?s=512&d=https%3A%2F%2Fa.slack-edge.com%2Fdf10d%2Fimg%2Favatars%2Fava_0025-512.png", "custom_css": null}], "pagination": {"page": 613, "pages": 1192, "count": 23828, "items": 20}}