{"users": [{"id": 12281, "slack_id": "U092WMBALTX", "display_name": "Jimminer", "bio": null, "projects_count": 0, "devlogs_count": 0, "votes_count": 0, "ships_count": 0, "projects": [], "coding_time_seconds": 0, "coding_time_seconds_today": 0, "balance": "You need to have a pocket watcher badge to view this.", "badges": [], "created_at": "2025-06-25T02:34:48.814-04:00", "updated_at": "2025-07-03T20:03:20.320-04:00", "avatar": "https://secure.gravatar.com/avatar/da8bda292fbc879e05fcd6c3e69cd2d6.jpg?s=512&d=https%3A%2F%2Fa.slack-edge.com%2Fdf10d%2Fimg%2Favatars%2Fava_0013-512.png", "custom_css": null}, {"id": 12282, "slack_id": "U093LSBNC4Q", "display_name": "new", "bio": null, "projects_count": 0, "devlogs_count": 0, "votes_count": 0, "ships_count": 0, "projects": [], "coding_time_seconds": 7672, "coding_time_seconds_today": 0, "balance": "You need to have a pocket watcher badge to view this.", "badges": [], "created_at": "2025-06-25T02:42:20.336-04:00", "updated_at": "2025-07-03T20:03:20.587-04:00", "avatar": "https://secure.gravatar.com/avatar/55c0f3951b17dc154b2f4fb92521a5e8.jpg?s=512&d=https%3A%2F%2Fa.slack-edge.com%2Fdf10d%2Fimg%2Favatars%2Fava_0002-512.png", "custom_css": null}, {"id": 12283, "slack_id": "U092WNGRX8V", "display_name": "Salvo 07", "bio": null, "projects_count": 0, "devlogs_count": 0, "votes_count": 0, "ships_count": 0, "projects": [], "coding_time_seconds": 19122, "coding_time_seconds_today": 0, "balance": "You need to have a pocket watcher badge to view this.", "badges": [], "created_at": "2025-06-25T02:46:07.138-04:00", "updated_at": "2025-07-03T20:03:20.857-04:00", "avatar": "https://avatars.slack-edge.com/2025-06-24/9086158778951_929d5404e8d2d9c896b0_original.png", "custom_css": null}, {"id": 12284, "slack_id": "U092TLV7L3S", "display_name": "Sirivennela Chethireddy", "bio": null, "projects_count": 0, "devlogs_count": 0, "votes_count": 0, "ships_count": 0, "projects": [], "coding_time_seconds": 56785, "coding_time_seconds_today": 0, "balance": "You need to have a pocket watcher badge to view this.", "badges": [], "created_at": "2025-06-25T02:47:17.263-04:00", "updated_at": "2025-07-03T20:03:21.122-04:00", "avatar": "https://secure.gravatar.com/avatar/34c28056d2b50047ba34c207d5d8f744.jpg?s=512&d=https%3A%2F%2Fa.slack-edge.com%2Fdf10d%2Fimg%2Favatars%2Fava_0008-512.png", "custom_css": null}, {"id": 12285, "slack_id": "U08UNHU676H", "display_name": "Alex", "bio": null, "projects_count": 1, "devlogs_count": 1, "votes_count": 0, "ships_count": 0, "projects": [{"id": 3911, "title": "LinkManager", "devlogs_count": 1, "created_at": "2025-06-26T09:36:27.716-04:00"}], "coding_time_seconds": 234031, "coding_time_seconds_today": 0, "balance": "You need to have a pocket watcher badge to view this.", "badges": [], "created_at": "2025-06-25T02:51:26.770-04:00", "updated_at": "2025-07-03T20:03:21.382-04:00", "avatar": "https://secure.gravatar.com/avatar/95146ce3f58c7b99fb74c9fa97f46d90.jpg?s=512&d=https%3A%2F%2Fa.slack-edge.com%2Fdf10d%2Fimg%2Favatars%2Fava_0000-512.png", "custom_css": null}, {"id": 12286, "slack_id": "U092RG8MB8T", "display_name": "reyaan", "bio": null, "projects_count": 1, "devlogs_count": 2, "votes_count": 7, "ships_count": 0, "projects": [{"id": 4570, "title": "Saber Assistant", "devlogs_count": 2, "created_at": "2025-06-30T17:21:29.701-04:00"}], "coding_time_seconds": 254892, "coding_time_seconds_today": 0, "balance": "You need to have a pocket watcher badge to view this.", "badges": [], "created_at": "2025-06-25T02:53:33.655-04:00", "updated_at": "2025-08-07T02:06:56.554-04:00", "avatar": "https://secure.gravatar.com/avatar/ffe2bb3bcbe3eab350b9d7ce65bd54c9.jpg?s=512&d=https%3A%2F%2Fa.slack-edge.com%2Fdf10d%2Fimg%2Favatars%2Fava_0025-512.png", "custom_css": null}, {"id": 12287, "slack_id": "U08BN162ML2", "display_name": "HuTao", "bio": null, "projects_count": 0, "devlogs_count": 0, "votes_count": 0, "ships_count": 0, "projects": [], "coding_time_seconds": 0, "coding_time_seconds_today": 0, "balance": "You need to have a pocket watcher badge to view this.", "badges": [], "created_at": "2025-06-25T03:00:55.251-04:00", "updated_at": "2025-07-03T20:03:21.915-04:00", "avatar": "https://avatars.slack-edge.com/2025-02-04/8408759898209_dc93c6ec17d8aa27fdb8_original.jpg", "custom_css": null}, {"id": 12288, "slack_id": "U0919PBR280", "display_name": "ischenyu", "bio": null, "projects_count": 0, "devlogs_count": 0, "votes_count": 0, "ships_count": 0, "projects": [], "coding_time_seconds": 37834, "coding_time_seconds_today": 0, "balance": "You need to have a pocket watcher badge to view this.", "badges": [], "created_at": "2025-06-25T03:24:36.155-04:00", "updated_at": "2025-07-03T20:03:22.178-04:00", "avatar": "https://avatars.slack-edge.com/2025-06-28/9117367208437_753ea90de61c5da9cfa9_original.jpg", "custom_css": null}, {"id": 12289, "slack_id": "U0926A1GRAN", "display_name": "Faqih", "bio": null, "projects_count": 0, "devlogs_count": 0, "votes_count": 0, "ships_count": 0, "projects": [], "coding_time_seconds": 0, "coding_time_seconds_today": 0, "balance": "You need to have a pocket watcher badge to view this.", "badges": [], "created_at": "2025-06-25T03:35:06.371-04:00", "updated_at": "2025-07-03T20:03:22.439-04:00", "avatar": "https://secure.gravatar.com/avatar/63a0f19383226654174270f81b9a2426.jpg?s=512&d=https%3A%2F%2Fa.slack-edge.com%2Fdf10d%2Fimg%2Favatars%2Fava_0013-512.png", "custom_css": null}, {"id": 12290, "slack_id": "U092JAD3DSB", "display_name": "QRs", "bio": null, "projects_count": 0, "devlogs_count": 0, "votes_count": 0, "ships_count": 0, "projects": [], "coding_time_seconds": 3733, "coding_time_seconds_today": 0, "balance": "You need to have a pocket watcher badge to view this.", "badges": [], "created_at": "2025-06-25T03:42:01.774-04:00", "updated_at": "2025-07-03T20:03:22.704-04:00", "avatar": "https://secure.gravatar.com/avatar/f2fb90efed423cecd120de1c2e27266c.jpg?s=512&d=https%3A%2F%2Fa.slack-edge.com%2Fdf10d%2Fimg%2Favatars%2Fava_0011-512.png", "custom_css": null}, {"id": 12291, "slack_id": "U092ZF5QK9S", "display_name": "Taqdees Farrukh.", "bio": null, "projects_count": 0, "devlogs_count": 0, "votes_count": 0, "ships_count": 0, "projects": [], "coding_time_seconds": 0, "coding_time_seconds_today": 0, "balance": "You need to have a pocket watcher badge to view this.", "badges": [], "created_at": "2025-06-25T03:48:33.944-04:00", "updated_at": "2025-07-04T20:13:06.424-04:00", "avatar": "https://avatars.slack-edge.com/2025-06-25/9101574735940_257f8a9c472635142e85_original.jpg", "custom_css": null}, {"id": 12292, "slack_id": "U092X2W3CN9", "display_name": "Dipendra Singh", "bio": null, "projects_count": 1, "devlogs_count": 0, "votes_count": 0, "ships_count": 0, "projects": [{"id": 3637, "title": "Lending-Defi-App", "devlogs_count": 0, "created_at": "2025-06-25T04:23:19.990-04:00"}], "coding_time_seconds": 8584, "coding_time_seconds_today": 0, "balance": "You need to have a pocket watcher badge to view this.", "badges": [], "created_at": "2025-06-25T03:55:11.106-04:00", "updated_at": "2025-07-04T08:28:40.228-04:00", "avatar": "https://secure.gravatar.com/avatar/45aa2b1f15b83ca6aaab8dad257dabf8.jpg?s=512&d=https%3A%2F%2Fa.slack-edge.com%2Fdf10d%2Fimg%2Favatars%2Fava_0007-512.png", "custom_css": null}, {"id": 12293, "slack_id": "U092ZHHUNJ0", "display_name": "Ian", "bio": null, "projects_count": 0, "devlogs_count": 0, "votes_count": 0, "ships_count": 0, "projects": [], "coding_time_seconds": 0, "coding_time_seconds_today": 0, "balance": "You need to have a pocket watcher badge to view this.", "badges": [], "created_at": "2025-06-25T03:55:50.794-04:00", "updated_at": "2025-07-05T20:14:06.689-04:00", "avatar": "https://secure.gravatar.com/avatar/f181d7fe7834bf2e9bfe6934e2c1a93e.jpg?s=512&d=https%3A%2F%2Fa.slack-edge.com%2Fdf10d%2Fimg%2Favatars%2Fava_0020-512.png", "custom_css": null}, {"id": 12294, "slack_id": "U092X3APMK7", "display_name": "Aadi", "bio": null, "projects_count": 0, "devlogs_count": 0, "votes_count": 0, "ships_count": 0, "projects": [], "coding_time_seconds": 0, "coding_time_seconds_today": 0, "balance": "You need to have a pocket watcher badge to view this.", "badges": [], "created_at": "2025-06-25T03:58:17.792-04:00", "updated_at": "2025-07-04T02:32:24.784-04:00", "avatar": "https://avatars.slack-edge.com/2025-06-25/9100727634722_bd40f238fe1fd78f2d41_original.png", "custom_css": null}, {"id": 12295, "slack_id": "U092JF2LX0X", "display_name": "Nishank Gangwar", "bio": null, "projects_count": 4, "devlogs_count": 16, "votes_count": 24, "ships_count": 2, "projects": [{"id": 3648, "title": "zerodha clone", "devlogs_count": 0, "created_at": "2025-06-25T04:59:02.040-04:00"}, {"id": 4189, "title": "my diary", "devlogs_count": 0, "created_at": "2025-06-28T05:07:23.911-04:00"}, {"id": 10513, "title": "BMI calculator", "devlogs_count": 1, "created_at": "2025-08-07T17:20:23.942-04:00"}, {"id": 5695, "title": "javascript-app ", "devlogs_count": 9, "created_at": "2025-07-07T07:46:07.749-04:00"}], "coding_time_seconds": 441351, "coding_time_seconds_today": 0, "balance": "You need to have a pocket watcher badge to view this.", "badges": [{"name": "Maiden Voyage", "text": "you shipped your first project! the journey begins...", "icon": "\ud83d\udea2"}, {"name": "Spider", "text": "this user has a pet!", "icon": "\ud83d\udd77\ufe0f"}], "created_at": "2025-06-25T04:00:51.341-04:00", "updated_at": "2025-09-10T22:57:19.739-04:00", "avatar": "https://avatars.slack-edge.com/2025-06-25/9099151225221_95a8880cedf51a1019e4_original.png", "custom_css": null}, {"id": 12296, "slack_id": "U092ZLA6B3N", "display_name": "Mish", "bio": null, "projects_count": 0, "devlogs_count": 0, "votes_count": 0, "ships_count": 0, "projects": [], "coding_time_seconds": 3757, "coding_time_seconds_today": 0, "balance": "You need to have a pocket watcher badge to view this.", "badges": [], "created_at": "2025-06-25T04:12:35.140-04:00", "updated_at": "2025-07-04T02:32:24.971-04:00", "avatar": "https://secure.gravatar.com/avatar/fa0a1b95e439e807f827b8e00e0ff216.jpg?s=512&d=https%3A%2F%2Fa.slack-edge.com%2Fdf10d%2Fimg%2Favatars%2Fava_0015-512.png", "custom_css": null}, {"id": 12297, "slack_id": "U092ZN5GW0L", "display_name": "G\u00f6cz\u0151 Gerg\u0151", "bio": null, "projects_count": 1, "devlogs_count": 0, "votes_count": 0, "ships_count": 0, "projects": [{"id": 3681, "title": "Train Stats", "devlogs_count": 0, "created_at": "2025-06-25T07:27:32.290-04:00"}], "coding_time_seconds": 7446, "coding_time_seconds_today": 0, "balance": "You need to have a pocket watcher badge to view this.", "badges": [], "created_at": "2025-06-25T04:26:47.952-04:00", "updated_at": "2025-07-03T20:03:23.943-04:00", "avatar": "https://secure.gravatar.com/avatar/2ac92dfe26f32d90fcd63c32677670fc.jpg?s=512&d=https%3A%2F%2Fa.slack-edge.com%2Fdf10d%2Fimg%2Favatars%2Fava_0000-512.png", "custom_css": null}, {"id": 12298, "slack_id": "U092JL8NVEK", "display_name": "Tortila", "bio": null, "projects_count": 0, "devlogs_count": 0, "votes_count": 0, "ships_count": 0, "projects": [], "coding_time_seconds": 0, "coding_time_seconds_today": 0, "balance": "You need to have a pocket watcher badge to view this.", "badges": [], "created_at": "2025-06-25T04:34:20.927-04:00", "updated_at": "2025-07-04T20:13:06.873-04:00", "avatar": "https://secure.gravatar.com/avatar/21289e15b8edbfd853d5f51285983548.jpg?s=512&d=https%3A%2F%2Fa.slack-edge.com%2Fdf10d%2Fimg%2Favatars%2Fava_0003-512.png", "custom_css": null}, {"id": 12299, "slack_id": "U08S8AKCUVA", "display_name": "Stanis\u0142aw", "bio": null, "projects_count": 0, "devlogs_count": 0, "votes_count": 0, "ships_count": 0, "projects": [], "coding_time_seconds": 0, "coding_time_seconds_today": 0, "balance": "You need to have a pocket watcher badge to view this.", "badges": [], "created_at": "2025-06-25T04:38:18.882-04:00", "updated_at": "2025-07-03T20:03:24.353-04:00", "avatar": "https://secure.gravatar.com/avatar/5ca39a115a15c2c4fbd3bcb90eca1cc0.jpg?s=512&d=https%3A%2F%2Fa.slack-edge.com%2Fdf10d%2Fimg%2Favatars%2Fava_0001-512.png", "custom_css": null}, {"id": 12300, "slack_id": "U092XABDSER", "display_name": "Chals91", "bio": null, "projects_count": 0, "devlogs_count": 0, "votes_count": 0, "ships_count": 0, "projects": [], "coding_time_seconds": 78693, "coding_time_seconds_today": 0, "balance": "You need to have a pocket watcher badge to view this.", "badges": [], "created_at": "2025-06-25T04:42:48.028-04:00", "updated_at": "2025-07-03T20:03:24.613-04:00", "avatar": "https://secure.gravatar.com/avatar/a04fcc34306891d0112f5e659184ad83.jpg?s=512&d=https%3A%2F%2Fa.slack-edge.com%2Fdf10d%2Fimg%2Favatars%2Fava_0024-512.png", "custom_css": null}], "pagination": {"page": 615, "pages": 1192, "count": 23828, "items": 20}}