{"users": [{"id": 12301, "slack_id": "U092YUQSU58", "display_name": "Dr.Xm", "bio": null, "projects_count": 0, "devlogs_count": 0, "votes_count": 0, "ships_count": 0, "projects": [], "coding_time_seconds": 0, "coding_time_seconds_today": 0, "balance": "You need to have a pocket watcher badge to view this.", "badges": [], "created_at": "2025-06-25T04:50:16.148-04:00", "updated_at": "2025-07-05T08:14:02.901-04:00", "avatar": "https://secure.gravatar.com/avatar/c3a331adddcd4ee7a13de2f6208fb359.jpg?s=512&d=https%3A%2F%2Fa.slack-edge.com%2Fdf10d%2Fimg%2Favatars%2Fava_0010-512.png", "custom_css": null}, {"id": 12302, "slack_id": "U093CHSTXCZ", "display_name": "PurpleSmileGuy", "bio": null, "projects_count": 0, "devlogs_count": 0, "votes_count": 0, "ships_count": 0, "projects": [], "coding_time_seconds": 21447, "coding_time_seconds_today": 0, "balance": "You need to have a pocket watcher badge to view this.", "badges": [], "created_at": "2025-06-25T04:51:14.482-04:00", "updated_at": "2025-07-03T20:03:25.429-04:00", "avatar": "https://secure.gravatar.com/avatar/782789e7a50f70950d26327b056432cb.jpg?s=512&d=https%3A%2F%2Fa.slack-edge.com%2Fdf10d%2Fimg%2Favatars%2Fava_0013-512.png", "custom_css": null}, {"id": 12303, "slack_id": "U092T94HRML", "display_name": "Zebicolon", "bio": null, "projects_count": 0, "devlogs_count": 0, "votes_count": 0, "ships_count": 0, "projects": [], "coding_time_seconds": 23904, "coding_time_seconds_today": 0, "balance": "You need to have a pocket watcher badge to view this.", "badges": [], "created_at": "2025-06-25T04:55:44.582-04:00", "updated_at": "2025-07-03T20:03:25.696-04:00", "avatar": "https://secure.gravatar.com/avatar/a5b8b08e06c582c8c121196c26792076.jpg?s=512&d=https%3A%2F%2Fa.slack-edge.com%2Fdf10d%2Fimg%2Favatars%2Fava_0014-512.png", "custom_css": null}, {"id": 12304, "slack_id": "U093CL8M8Q1", "display_name": "Vlad Grigorescu", "bio": null, "projects_count": 0, "devlogs_count": 0, "votes_count": 0, "ships_count": 0, "projects": [], "coding_time_seconds": 0, "coding_time_seconds_today": 0, "balance": "You need to have a pocket watcher badge to view this.", "badges": [], "created_at": "2025-06-25T05:06:56.238-04:00", "updated_at": "2025-07-05T02:13:42.743-04:00", "avatar": "https://secure.gravatar.com/avatar/e7bd7961e896a9e5ca9b1a5440439504.jpg?s=512&d=https%3A%2F%2Fa.slack-edge.com%2Fdf10d%2Fimg%2Favatars%2Fava_0000-512.png", "custom_css": null}, {"id": 12305, "slack_id": "U092JQ6TDTR", "display_name": "riya05092007", "bio": null, "projects_count": 0, "devlogs_count": 0, "votes_count": 0, "ships_count": 0, "projects": [], "coding_time_seconds": 0, "coding_time_seconds_today": 0, "balance": "You need to have a pocket watcher badge to view this.", "badges": [], "created_at": "2025-06-25T05:07:17.608-04:00", "updated_at": "2025-07-03T20:03:26.130-04:00", "avatar": "https://secure.gravatar.com/avatar/735f0cd71ed341103ccad5033a652c2a.jpg?s=512&d=https%3A%2F%2Fa.slack-edge.com%2Fdf10d%2Fimg%2Favatars%2Fava_0011-512.png", "custom_css": null}, {"id": 12306, "slack_id": "U092XFAJPJ9", "display_name": "L\u00e9na Jellinek", "bio": null, "projects_count": 0, "devlogs_count": 0, "votes_count": 0, "ships_count": 0, "projects": [], "coding_time_seconds": 0, "coding_time_seconds_today": 0, "balance": "You need to have a pocket watcher badge to view this.", "badges": [], "created_at": "2025-06-25T05:11:25.366-04:00", "updated_at": "2025-07-03T20:03:26.396-04:00", "avatar": "https://avatars.slack-edge.com/2025-06-25/9114734779649_205b33b059e629c6c9af_original.jpg", "custom_css": null}, {"id": 12307, "slack_id": "U092JSPLANT", "display_name": "mandela ferede", "bio": null, "projects_count": 0, "devlogs_count": 71, "votes_count": 0, "ships_count": 0, "projects": [], "coding_time_seconds": 1663117, "coding_time_seconds_today": 0, "balance": "You need to have a pocket watcher badge to view this.", "badges": [{"name": "Maiden Voyage", "text": "you shipped your first project! the journey begins...", "icon": "\ud83d\udea2"}, {"name": "Ballot Stuffer", "text": "vote 100 times.", "icon": "https://summer.hackclub.com/assets/i_voted-bf851b48.png"}], "created_at": "2025-06-25T05:12:10.332-04:00", "updated_at": "2025-09-10T22:57:20.106-04:00", "avatar": "https://avatars.slack-edge.com/2025-06-25/9102030227380_096fdadb413f03c1f628_original.png", "custom_css": null}, {"id": 12308, "slack_id": "U092TBU0U1L", "display_name": "Chipzryum", "bio": null, "projects_count": 0, "devlogs_count": 0, "votes_count": 0, "ships_count": 0, "projects": [], "coding_time_seconds": 0, "coding_time_seconds_today": 0, "balance": "You need to have a pocket watcher badge to view this.", "badges": [], "created_at": "2025-06-25T05:12:40.156-04:00", "updated_at": "2025-07-03T20:03:26.925-04:00", "avatar": "https://secure.gravatar.com/avatar/6a8ec31626408a184e2795cd9cb3e373.jpg?s=512&d=https%3A%2F%2Fa.slack-edge.com%2Fdf10d%2Fimg%2Favatars%2Fava_0001-512.png", "custom_css": null}, {"id": 12309, "slack_id": "U092XGV64MB", "display_name": "Bojeshwar", "bio": null, "projects_count": 0, "devlogs_count": 0, "votes_count": 0, "ships_count": 0, "projects": [], "coding_time_seconds": 0, "coding_time_seconds_today": 0, "balance": "You need to have a pocket watcher badge to view this.", "badges": [], "created_at": "2025-06-25T05:22:11.425-04:00", "updated_at": "2025-07-05T02:13:43.059-04:00", "avatar": "https://secure.gravatar.com/avatar/d1fe144c50c74900d2a35a22c0606b03.jpg?s=512&d=https%3A%2F%2Fa.slack-edge.com%2Fdf10d%2Fimg%2Favatars%2Fava_0015-512.png", "custom_css": null}, {"id": 12310, "slack_id": "U093CR8AQ9X", "display_name": "DAs", "bio": null, "projects_count": 0, "devlogs_count": 0, "votes_count": 0, "ships_count": 0, "projects": [], "coding_time_seconds": 0, "coding_time_seconds_today": 0, "balance": "You need to have a pocket watcher badge to view this.", "badges": [], "created_at": "2025-06-25T05:39:41.653-04:00", "updated_at": "2025-07-03T20:03:27.319-04:00", "avatar": "https://secure.gravatar.com/avatar/743a7a0c7f71132d81b82e69a9102070.jpg?s=512&d=https%3A%2F%2Fa.slack-edge.com%2Fdf10d%2Fimg%2Favatars%2Fava_0026-512.png", "custom_css": null}, {"id": 12311, "slack_id": "U092Z7ZMEHY", "display_name": "Nithesh", "bio": null, "projects_count": 1, "devlogs_count": 5, "votes_count": 2, "ships_count": 1, "projects": [{"id": 5143, "title": "AetherDrive: An AI Brain for Autonomous Driving Simulation", "devlogs_count": 5, "created_at": "2025-07-03T12:49:22.368-04:00"}], "coding_time_seconds": 161173, "coding_time_seconds_today": 2170, "balance": "You need to have a pocket watcher badge to view this.", "badges": [{"name": "Maiden Voyage", "text": "you shipped your first project! the journey begins...", "icon": "\ud83d\udea2"}], "created_at": "2025-06-25T05:44:40.957-04:00", "updated_at": "2025-09-12T13:37:00.654-04:00", "avatar": "https://secure.gravatar.com/avatar/a184ebfe42a8655c947a92aa86060c09.jpg?s=512&d=https%3A%2F%2Fa.slack-edge.com%2Fdf10d%2Fimg%2Favatars%2Fava_0015-512.png", "custom_css": null}, {"id": 12312, "slack_id": "U093053SLG4", "display_name": "Posh", "bio": null, "projects_count": 0, "devlogs_count": 0, "votes_count": 0, "ships_count": 0, "projects": [], "coding_time_seconds": 3631, "coding_time_seconds_today": 0, "balance": "You need to have a pocket watcher badge to view this.", "badges": [], "created_at": "2025-06-25T05:44:47.962-04:00", "updated_at": "2025-07-03T20:03:27.716-04:00", "avatar": "https://secure.gravatar.com/avatar/6ba95d0134ecc720dfc875083a39f5e0.jpg?s=512&d=https%3A%2F%2Fa.slack-edge.com%2Fdf10d%2Fimg%2Favatars%2Fava_0021-512.png", "custom_css": null}, {"id": 12313, "slack_id": "U093MQW9MQ8", "display_name": "jia hong", "bio": null, "projects_count": 0, "devlogs_count": 0, "votes_count": 0, "ships_count": 0, "projects": [], "coding_time_seconds": 275, "coding_time_seconds_today": 0, "balance": "You need to have a pocket watcher badge to view this.", "badges": [], "created_at": "2025-06-25T05:45:57.080-04:00", "updated_at": "2025-07-03T20:03:27.974-04:00", "avatar": "https://secure.gravatar.com/avatar/0767d9ebabc97ce4ad52cb72df006d80.jpg?s=512&d=https%3A%2F%2Fa.slack-edge.com%2Fdf10d%2Fimg%2Favatars%2Fava_0017-512.png", "custom_css": null}, {"id": 12314, "slack_id": "U092TJ5EPLN", "display_name": "Elaria", "bio": null, "projects_count": 0, "devlogs_count": 0, "votes_count": 0, "ships_count": 0, "projects": [], "coding_time_seconds": 625, "coding_time_seconds_today": 0, "balance": "You need to have a pocket watcher badge to view this.", "badges": [], "created_at": "2025-06-25T05:54:42.211-04:00", "updated_at": "2025-07-03T20:03:28.233-04:00", "avatar": "https://secure.gravatar.com/avatar/bb99931bc33f20793078481e1f6de212.jpg?s=512&d=https%3A%2F%2Fa.slack-edge.com%2Fdf10d%2Fimg%2Favatars%2Fava_0013-512.png", "custom_css": null}, {"id": 12315, "slack_id": "U092TKWD1FG", "display_name": "Tuxy", "bio": null, "projects_count": 1, "devlogs_count": 1, "votes_count": 0, "ships_count": 0, "projects": [{"id": 3703, "title": "Tools For Myself", "devlogs_count": 1, "created_at": "2025-06-25T09:38:18.867-04:00"}], "coding_time_seconds": 26202, "coding_time_seconds_today": 0, "balance": "You need to have a pocket watcher badge to view this.", "badges": [], "created_at": "2025-06-25T06:05:39.769-04:00", "updated_at": "2025-07-03T20:03:28.499-04:00", "avatar": "https://secure.gravatar.com/avatar/ae255d109aa34bfd5a5f6e776bdebd5e.jpg?s=512&d=https%3A%2F%2Fa.slack-edge.com%2Fdf10d%2Fimg%2Favatars%2Fava_0024-512.png", "custom_css": null}, {"id": 12316, "slack_id": "U092K6S4B71", "display_name": "Stefan", "bio": null, "projects_count": 0, "devlogs_count": 0, "votes_count": 0, "ships_count": 0, "projects": [], "coding_time_seconds": 3691, "coding_time_seconds_today": 0, "balance": "You need to have a pocket watcher badge to view this.", "badges": [], "created_at": "2025-06-25T06:12:41.593-04:00", "updated_at": "2025-07-05T02:13:43.480-04:00", "avatar": "https://secure.gravatar.com/avatar/a0b5261765195815fb5f16ba7b9da591.jpg?s=512&d=https%3A%2F%2Fa.slack-edge.com%2Fdf10d%2Fimg%2Favatars%2Fava_0008-512.png", "custom_css": null}, {"id": 12317, "slack_id": "U092K7BGDJB", "display_name": "adv", "bio": null, "projects_count": 0, "devlogs_count": 0, "votes_count": 0, "ships_count": 0, "projects": [], "coding_time_seconds": 0, "coding_time_seconds_today": 0, "balance": "You need to have a pocket watcher badge to view this.", "badges": [], "created_at": "2025-06-25T06:17:07.606-04:00", "updated_at": "2025-07-03T20:03:28.905-04:00", "avatar": "https://secure.gravatar.com/avatar/c9be7d1ee6c68a69d605de297b103f3b.jpg?s=512&d=https%3A%2F%2Fa.slack-edge.com%2Fdf10d%2Fimg%2Favatars%2Fava_0019-512.png", "custom_css": null}, {"id": 12318, "slack_id": "U0829BMR7QB", "display_name": "Advaith", "bio": null, "projects_count": 0, "devlogs_count": 0, "votes_count": 0, "ships_count": 0, "projects": [], "coding_time_seconds": 120, "coding_time_seconds_today": 0, "balance": "You need to have a pocket watcher badge to view this.", "badges": [], "created_at": "2025-06-25T06:24:13.303-04:00", "updated_at": "2025-07-03T20:03:29.167-04:00", "avatar": "https://avatars.slack-edge.com/2024-11-29/8092858706182_ca5331e9e6b3fdbb0768_original.png", "custom_css": null}, {"id": 12319, "slack_id": "U092YFU11DW", "display_name": "Menah Samy", "bio": null, "projects_count": 0, "devlogs_count": 0, "votes_count": 0, "ships_count": 0, "projects": [], "coding_time_seconds": 0, "coding_time_seconds_today": 0, "balance": "You need to have a pocket watcher badge to view this.", "badges": [], "created_at": "2025-06-25T06:26:08.892-04:00", "updated_at": "2025-07-03T20:03:29.437-04:00", "avatar": "https://secure.gravatar.com/avatar/14b9be524167fd700843f4041c5626f1.jpg?s=512&d=https%3A%2F%2Fa.slack-edge.com%2Fdf10d%2Fimg%2Favatars%2Fava_0021-512.png", "custom_css": null}, {"id": 12320, "slack_id": "U092XT4M7C5", "display_name": "uroba", "bio": null, "projects_count": 0, "devlogs_count": 0, "votes_count": 0, "ships_count": 0, "projects": [], "coding_time_seconds": 0, "coding_time_seconds_today": 0, "balance": "You need to have a pocket watcher badge to view this.", "badges": [], "created_at": "2025-06-25T06:40:21.856-04:00", "updated_at": "2025-07-15T15:20:50.752-04:00", "avatar": "https://secure.gravatar.com/avatar/85bfbd2e077ff1eb1db17d7cff0a5760.jpg?s=512&d=https%3A%2F%2Fa.slack-edge.com%2Fdf10d%2Fimg%2Favatars%2Fava_0000-512.png", "custom_css": null}], "pagination": {"page": 616, "pages": 1192, "count": 23828, "items": 20}}