{"users": [{"id": 12321, "slack_id": "U093LJD916C", "display_name": "Yonael getachew", "bio": null, "projects_count": 0, "devlogs_count": 0, "votes_count": 0, "ships_count": 0, "projects": [], "coding_time_seconds": 0, "coding_time_seconds_today": 0, "balance": "You need to have a pocket watcher badge to view this.", "badges": [], "created_at": "2025-06-25T06:48:30.527-04:00", "updated_at": "2025-07-03T20:03:29.977-04:00", "avatar": "https://secure.gravatar.com/avatar/ee9a7b4b6387153f6d8885efd4591796.jpg?s=512&d=https%3A%2F%2Fa.slack-edge.com%2Fdf10d%2Fimg%2Favatars%2Fava_0010-512.png", "custom_css": null}, {"id": 12322, "slack_id": "U0930FE4HEY", "display_name": "Duwaragie Kugaraj", "bio": null, "projects_count": 0, "devlogs_count": 0, "votes_count": 0, "ships_count": 0, "projects": [], "coding_time_seconds": 0, "coding_time_seconds_today": 0, "balance": "You need to have a pocket watcher badge to view this.", "badges": [], "created_at": "2025-06-25T06:58:33.866-04:00", "updated_at": "2025-07-03T22:03:08.397-04:00", "avatar": "https://secure.gravatar.com/avatar/364ee1cc8ecbc51a1848808018787338.jpg?s=512&d=https%3A%2F%2Fa.slack-edge.com%2Fdf10d%2Fimg%2Favatars%2Fava_0013-512.png", "custom_css": null}, {"id": 12323, "slack_id": "U093N7XJ5HN", "display_name": "Sparkles", "bio": null, "projects_count": 0, "devlogs_count": 0, "votes_count": 0, "ships_count": 0, "projects": [], "coding_time_seconds": 69834, "coding_time_seconds_today": 0, "balance": "You need to have a pocket watcher badge to view this.", "badges": [], "created_at": "2025-06-25T07:17:03.397-04:00", "updated_at": "2025-07-04T20:13:09.301-04:00", "avatar": "https://avatars.slack-edge.com/2025-06-25/9098835536790_4e590995ffb422cb97be_original.png", "custom_css": null}, {"id": 12324, "slack_id": "U092JPSMZ47", "display_name": "Stanis\u0142aw Kawulok", "bio": null, "projects_count": 2, "devlogs_count": 23, "votes_count": 59, "ships_count": 2, "projects": [{"id": 3683, "title": "Aftermath - Epilogue", "devlogs_count": 11, "created_at": "2025-06-25T08:04:22.251-04:00"}, {"id": 8304, "title": "Bookkeeper", "devlogs_count": 12, "created_at": "2025-07-26T04:34:25.642-04:00"}], "coding_time_seconds": 179876, "coding_time_seconds_today": 0, "balance": "You need to have a pocket watcher badge to view this.", "badges": [{"name": "Maiden Voyage", "text": "you shipped your first project! the journey begins...", "icon": "\ud83d\udea2"}], "created_at": "2025-06-25T07:19:27.419-04:00", "updated_at": "2025-09-10T22:57:20.636-04:00", "avatar": "https://avatars.slack-edge.com/2025-06-25/9124303008448_d35092c19e682b22073d_original.png", "custom_css": null}, {"id": 12325, "slack_id": "U0930JZV736", "display_name": "ARIS RAHMAN", "bio": null, "projects_count": 0, "devlogs_count": 0, "votes_count": 0, "ships_count": 0, "projects": [], "coding_time_seconds": 0, "coding_time_seconds_today": 0, "balance": "You need to have a pocket watcher badge to view this.", "badges": [], "created_at": "2025-06-25T07:25:24.231-04:00", "updated_at": "2025-07-03T20:03:30.789-04:00", "avatar": "https://secure.gravatar.com/avatar/8ecbab12984c5d58403f585538a2b148.jpg?s=512&d=https%3A%2F%2Fa.slack-edge.com%2Fdf10d%2Fimg%2Favatars%2Fava_0021-512.png", "custom_css": null}, {"id": 12326, "slack_id": "U093N96F3G8", "display_name": "Niksssss", "bio": null, "projects_count": 0, "devlogs_count": 0, "votes_count": 0, "ships_count": 0, "projects": [], "coding_time_seconds": 0, "coding_time_seconds_today": 0, "balance": "You need to have a pocket watcher badge to view this.", "badges": [], "created_at": "2025-06-25T07:27:26.642-04:00", "updated_at": "2025-07-04T08:28:43.106-04:00", "avatar": "https://secure.gravatar.com/avatar/db86e803c0a586610e3c893915758bf4.jpg?s=512&d=https%3A%2F%2Fa.slack-edge.com%2Fdf10d%2Fimg%2Favatars%2Fava_0012-512.png", "custom_css": null}, {"id": 12327, "slack_id": "U092ZMDGAGJ", "display_name": "NotS1ick", "bio": null, "projects_count": 2, "devlogs_count": 0, "votes_count": 0, "ships_count": 0, "projects": [{"id": 3687, "title": "Attenuator", "devlogs_count": 0, "created_at": "2025-06-25T08:17:30.036-04:00"}, {"id": 3688, "title": "Portfolio", "devlogs_count": 0, "created_at": "2025-06-25T08:19:22.109-04:00"}], "coding_time_seconds": 83111, "coding_time_seconds_today": 0, "balance": "You need to have a pocket watcher badge to view this.", "badges": [], "created_at": "2025-06-25T07:29:00.496-04:00", "updated_at": "2025-07-03T20:03:31.214-04:00", "avatar": "https://secure.gravatar.com/avatar/0b812ac9c117b6687e35ff339beb1e61.jpg?s=512&d=https%3A%2F%2Fa.slack-edge.com%2Fdf10d%2Fimg%2Favatars%2Fava_0009-512.png", "custom_css": null}, {"id": 12328, "slack_id": "U092K2PPBPY", "display_name": "Ta-le", "bio": null, "projects_count": 0, "devlogs_count": 0, "votes_count": 0, "ships_count": 0, "projects": [], "coding_time_seconds": 0, "coding_time_seconds_today": 0, "balance": "You need to have a pocket watcher badge to view this.", "badges": [], "created_at": "2025-06-25T07:30:28.405-04:00", "updated_at": "2025-07-05T08:14:04.700-04:00", "avatar": "https://secure.gravatar.com/avatar/aa059d391113aceb3542fe578c7c625f.jpg?s=512&d=https%3A%2F%2Fa.slack-edge.com%2Fdf10d%2Fimg%2Favatars%2Fava_0014-512.png", "custom_css": null}, {"id": 12329, "slack_id": "U093N9H0V16", "display_name": "Raphael Larsen", "bio": null, "projects_count": 4, "devlogs_count": 38, "votes_count": 34, "ships_count": 1, "projects": [{"id": 3757, "title": "Disposable", "devlogs_count": 5, "created_at": "2025-06-25T15:53:40.339-04:00"}, {"id": 4737, "title": "Rust NAT puncher server.", "devlogs_count": 9, "created_at": "2025-07-01T09:50:13.151-04:00"}, {"id": 7162, "title": "Voxel Tools Bevy", "devlogs_count": 23, "created_at": "2025-07-19T15:27:33.413-04:00"}, {"id": 7056, "title": "Bevy Snake Game", "devlogs_count": 1, "created_at": "2025-07-18T15:49:07.371-04:00"}], "coding_time_seconds": 1336256, "coding_time_seconds_today": 0, "balance": "You need to have a pocket watcher badge to view this.", "badges": [{"name": "Maiden Voyage", "text": "you shipped your first project! the journey begins...", "icon": "\ud83d\udea2"}], "created_at": "2025-06-25T07:30:34.267-04:00", "updated_at": "2025-09-10T22:57:20.777-04:00", "avatar": "https://avatars.slack-edge.com/2025-06-27/9131653885041_f1bee66bf3bae0e529b3_original.jpg", "custom_css": null}, {"id": 12330, "slack_id": "U092Y79BSTX", "display_name": "Max Harrison", "bio": null, "projects_count": 0, "devlogs_count": 0, "votes_count": 0, "ships_count": 0, "projects": [], "coding_time_seconds": 0, "coding_time_seconds_today": 0, "balance": "You need to have a pocket watcher badge to view this.", "badges": [], "created_at": "2025-06-25T07:47:47.645-04:00", "updated_at": "2025-07-03T20:03:31.886-04:00", "avatar": "https://secure.gravatar.com/avatar/421fc67b97f8af2ea828336675cfa205.jpg?s=512&d=https%3A%2F%2Fa.slack-edge.com%2Fdf10d%2Fimg%2Favatars%2Fava_0026-512.png", "custom_css": null}, {"id": 12331, "slack_id": "U092Y9U00SZ", "display_name": "Karanjot Singh", "bio": null, "projects_count": 0, "devlogs_count": 0, "votes_count": 0, "ships_count": 0, "projects": [], "coding_time_seconds": 0, "coding_time_seconds_today": 0, "balance": "You need to have a pocket watcher badge to view this.", "badges": [], "created_at": "2025-06-25T08:02:38.693-04:00", "updated_at": "2025-07-03T20:03:32.156-04:00", "avatar": "https://secure.gravatar.com/avatar/7d122a7b908e1ae14c735736b3efec84.jpg?s=512&d=https%3A%2F%2Fa.slack-edge.com%2Fdf10d%2Fimg%2Favatars%2Fava_0026-512.png", "custom_css": null}, {"id": 12332, "slack_id": "U092TPLHG4W", "display_name": "Jeremy Hunt", "bio": null, "projects_count": 0, "devlogs_count": 0, "votes_count": 0, "ships_count": 0, "projects": [], "coding_time_seconds": 0, "coding_time_seconds_today": 0, "balance": "You need to have a pocket watcher badge to view this.", "badges": [], "created_at": "2025-06-25T08:10:40.483-04:00", "updated_at": "2025-07-03T20:03:32.419-04:00", "avatar": "https://secure.gravatar.com/avatar/b3a489c977441fa4c901c2485ad1913b.jpg?s=512&d=https%3A%2F%2Fa.slack-edge.com%2Fdf10d%2Fimg%2Favatars%2Fava_0004-512.png", "custom_css": null}, {"id": 12333, "slack_id": "U091PGLQN3U", "display_name": "Parth", "bio": null, "projects_count": 2, "devlogs_count": 3, "votes_count": 20, "ships_count": 1, "projects": [{"id": 4139, "title": "Recipe Locator", "devlogs_count": 1, "created_at": "2025-06-27T17:48:20.810-04:00"}, {"id": 3755, "title": "My Personal Homepage", "devlogs_count": 2, "created_at": "2025-06-25T15:46:59.419-04:00"}], "coding_time_seconds": 21920, "coding_time_seconds_today": 0, "balance": "You need to have a pocket watcher badge to view this.", "badges": [{"name": "Maiden Voyage", "text": "you shipped your first project! the journey begins...", "icon": "\ud83d\udea2"}], "created_at": "2025-06-25T08:14:53.161-04:00", "updated_at": "2025-09-10T22:57:20.874-04:00", "avatar": "https://secure.gravatar.com/avatar/8e5655680b5a7e03a02b08c050eb729a.jpg?s=512&d=https%3A%2F%2Fa.slack-edge.com%2Fdf10d%2Fimg%2Favatars%2Fava_0023-512.png", "custom_css": null}, {"id": 12334, "slack_id": "U0921GHV2MU", "display_name": "Agasta", "bio": null, "projects_count": 0, "devlogs_count": 0, "votes_count": 0, "ships_count": 0, "projects": [], "coding_time_seconds": 0, "coding_time_seconds_today": 0, "balance": "You need to have a pocket watcher badge to view this.", "badges": [], "created_at": "2025-06-25T08:18:22.517-04:00", "updated_at": "2025-07-08T03:03:36.869-04:00", "avatar": "https://secure.gravatar.com/avatar/10100681c74542d34f22ef0f170c5962.jpg?s=512&d=https%3A%2F%2Fa.slack-edge.com%2Fdf10d%2Fimg%2Favatars%2Fava_0002-512.png", "custom_css": null}, {"id": 12335, "slack_id": "U092YADV4BF", "display_name": "Ilef Zenkri", "bio": null, "projects_count": 0, "devlogs_count": 0, "votes_count": 0, "ships_count": 0, "projects": [], "coding_time_seconds": 0, "coding_time_seconds_today": 0, "balance": "You need to have a pocket watcher badge to view this.", "badges": [], "created_at": "2025-06-25T08:18:26.970-04:00", "updated_at": "2025-07-29T16:24:20.483-04:00", "avatar": "https://secure.gravatar.com/avatar/7dec0ce625371f8c28d9e58ac262107a.jpg?s=512&d=https%3A%2F%2Fa.slack-edge.com%2Fdf10d%2Fimg%2Favatars%2Fava_0002-512.png", "custom_css": null}, {"id": 12336, "slack_id": "U093DFJLBUH", "display_name": "John", "bio": null, "projects_count": 0, "devlogs_count": 0, "votes_count": 0, "ships_count": 0, "projects": [], "coding_time_seconds": 0, "coding_time_seconds_today": 0, "balance": "You need to have a pocket watcher badge to view this.", "badges": [], "created_at": "2025-06-25T08:27:20.640-04:00", "updated_at": "2025-07-03T22:03:09.319-04:00", "avatar": "https://secure.gravatar.com/avatar/2bafa2e3a3d998ef7934e11cae4b3435.jpg?s=512&d=https%3A%2F%2Fa.slack-edge.com%2Fdf10d%2Fimg%2Favatars%2Fava_0013-512.png", "custom_css": null}, {"id": 12337, "slack_id": "U093DJ0SWKB", "display_name": "Flixii", "bio": null, "projects_count": 0, "devlogs_count": 0, "votes_count": 0, "ships_count": 0, "projects": [], "coding_time_seconds": 0, "coding_time_seconds_today": 0, "balance": "You need to have a pocket watcher badge to view this.", "badges": [], "created_at": "2025-06-25T08:27:47.088-04:00", "updated_at": "2025-07-03T20:03:33.495-04:00", "avatar": "https://avatars.slack-edge.com/2025-06-25/9102023894962_5c0d62faea0f932bf1e0_original.png", "custom_css": null}, {"id": 12338, "slack_id": "U093108PGLC", "display_name": "supastishn", "bio": null, "projects_count": 0, "devlogs_count": 94, "votes_count": 102, "ships_count": 0, "projects": [], "coding_time_seconds": 1733914, "coding_time_seconds_today": 0, "balance": "You need to have a pocket watcher badge to view this.", "badges": [{"name": "Maiden Voyage", "text": "you shipped your first project! the journey begins...", "icon": "\ud83d\udea2"}, {"name": "Ballot Stuffer", "text": "vote 100 times.", "icon": "https://summer.hackclub.com/assets/i_voted-bf851b48.png"}, {"name": "Verified", "text": "this user is verified (i.e. gave us $8)", "icon": "https://summer.hackclub.com/assets/verified-c9457a9f.png"}], "created_at": "2025-06-25T08:39:30.134-04:00", "updated_at": "2025-09-10T22:57:21.030-04:00", "avatar": "https://avatars.slack-edge.com/2025-06-25/9100540906789_a505c1c181941b34d76f_original.jpg", "custom_css": null}, {"id": 12339, "slack_id": "U092YFBENKX", "display_name": "ansh tripathi", "bio": null, "projects_count": 0, "devlogs_count": 0, "votes_count": 0, "ships_count": 0, "projects": [], "coding_time_seconds": 0, "coding_time_seconds_today": 0, "balance": "You need to have a pocket watcher badge to view this.", "badges": [], "created_at": "2025-06-25T08:41:52.206-04:00", "updated_at": "2025-07-04T08:28:44.033-04:00", "avatar": "https://avatars.slack-edge.com/2025-06-25/9103037405588_0bc387f1ff72188b95cf_original.jpg", "custom_css": null}, {"id": 12340, "slack_id": "U092KU2MLLX", "display_name": "Miguel", "bio": null, "projects_count": 0, "devlogs_count": 0, "votes_count": 0, "ships_count": 0, "projects": [], "coding_time_seconds": 3729, "coding_time_seconds_today": 0, "balance": "You need to have a pocket watcher badge to view this.", "badges": [], "created_at": "2025-06-25T08:44:57.948-04:00", "updated_at": "2025-07-03T20:03:34.024-04:00", "avatar": "https://secure.gravatar.com/avatar/c2a885e96597d65e4c0811fe5eeadc8b.jpg?s=512&d=https%3A%2F%2Fa.slack-edge.com%2Fdf10d%2Fimg%2Favatars%2Fava_0014-512.png", "custom_css": null}], "pagination": {"page": 617, "pages": 1192, "count": 23828, "items": 20}}