{"users": [{"id": 12341, "slack_id": "U083PTX4USU", "display_name": "MagmaMonster", "bio": null, "projects_count": 0, "devlogs_count": 0, "votes_count": 0, "ships_count": 0, "projects": [], "coding_time_seconds": 0, "coding_time_seconds_today": 0, "balance": "You need to have a pocket watcher badge to view this.", "badges": [], "created_at": "2025-06-25T08:55:42.227-04:00", "updated_at": "2025-08-15T09:12:10.639-04:00", "avatar": "https://secure.gravatar.com/avatar/e995996e6add083d7336754ce84ed6ae.jpg?s=512&d=https%3A%2F%2Fa.slack-edge.com%2Fdf10d%2Fimg%2Favatars%2Fava_0023-512.png", "custom_css": null}, {"id": 12342, "slack_id": "U0924Q4KL9J", "display_name": "Rinkesh Abbad", "bio": null, "projects_count": 0, "devlogs_count": 0, "votes_count": 0, "ships_count": 0, "projects": [], "coding_time_seconds": 379, "coding_time_seconds_today": 0, "balance": "You need to have a pocket watcher badge to view this.", "badges": [], "created_at": "2025-06-25T09:02:46.884-04:00", "updated_at": "2025-07-03T20:03:34.434-04:00", "avatar": "https://secure.gravatar.com/avatar/2a76eccabd71ec85ba41710f43a9a5c7.jpg?s=512&d=https%3A%2F%2Fa.slack-edge.com%2Fdf10d%2Fimg%2Favatars%2Fava_0018-512.png", "custom_css": null}, {"id": 12343, "slack_id": "U092L2C47D5", "display_name": "Calvin", "bio": null, "projects_count": 3, "devlogs_count": 3, "votes_count": 8, "ships_count": 1, "projects": [{"id": 3724, "title": "tic-tac-toe", "devlogs_count": 0, "created_at": "2025-06-25T11:53:21.552-04:00"}, {"id": 3741, "title": "space bar clicker", "devlogs_count": 3, "created_at": "2025-06-25T13:27:40.678-04:00"}, {"id": 3725, "title": "rpg maze", "devlogs_count": 0, "created_at": "2025-06-25T11:58:09.093-04:00"}], "coding_time_seconds": 10142, "coding_time_seconds_today": 0, "balance": "You need to have a pocket watcher badge to view this.", "badges": [{"name": "Maiden Voyage", "text": "you shipped your first project! the journey begins...", "icon": "\ud83d\udea2"}], "created_at": "2025-06-25T09:06:21.221-04:00", "updated_at": "2025-09-15T10:50:17.457-04:00", "avatar": "https://avatars.slack-edge.com/2025-06-25/9103525325700_e247afe0d3ef3940a6da_original.png", "custom_css": null}, {"id": 12344, "slack_id": "U0922PDGE5S", "display_name": "frank", "bio": null, "projects_count": 0, "devlogs_count": 0, "votes_count": 0, "ships_count": 0, "projects": [], "coding_time_seconds": 0, "coding_time_seconds_today": 0, "balance": "You need to have a pocket watcher badge to view this.", "badges": [], "created_at": "2025-06-25T09:06:27.433-04:00", "updated_at": "2025-07-03T20:03:34.835-04:00", "avatar": "https://secure.gravatar.com/avatar/15a6a5bf53cbc1edacf4b2b3508e9d74.jpg?s=512&d=https%3A%2F%2Fa.slack-edge.com%2Fdf10d%2Fimg%2Favatars%2Fava_0025-512.png", "custom_css": null}, {"id": 12345, "slack_id": "U092Y6N66J1", "display_name": "Teja Naga Sai Pilla", "bio": null, "projects_count": 0, "devlogs_count": 0, "votes_count": 0, "ships_count": 0, "projects": [], "coding_time_seconds": 0, "coding_time_seconds_today": 0, "balance": "You need to have a pocket watcher badge to view this.", "badges": [], "created_at": "2025-06-25T09:06:37.823-04:00", "updated_at": "2025-07-03T20:03:35.101-04:00", "avatar": "https://secure.gravatar.com/avatar/05a65b57e38bca5c58ee7a3e7ce2505b.jpg?s=512&d=https%3A%2F%2Fa.slack-edge.com%2Fdf10d%2Fimg%2Favatars%2Fava_0013-512.png", "custom_css": null}, {"id": 12346, "slack_id": "U078MK8UB38", "display_name": "Jaime", "bio": null, "projects_count": 1, "devlogs_count": 0, "votes_count": 4, "ships_count": 0, "projects": [{"id": 3702, "title": "TMUA Practice application", "devlogs_count": 0, "created_at": "2025-06-25T09:37:51.227-04:00"}], "coding_time_seconds": 674, "coding_time_seconds_today": 0, "balance": "You need to have a pocket watcher badge to view this.", "badges": [], "created_at": "2025-06-25T09:10:30.528-04:00", "updated_at": "2025-07-03T20:03:35.376-04:00", "avatar": "https://secure.gravatar.com/avatar/3699e34b01ab624c4350b7db47d8e470.jpg?s=512&d=https%3A%2F%2Fa.slack-edge.com%2Fdf10d%2Fimg%2Favatars%2Fava_0020-512.png", "custom_css": null}, {"id": 12347, "slack_id": "U092TD4LV2P", "display_name": "Cay Wetzig", "bio": null, "projects_count": 0, "devlogs_count": 0, "votes_count": 0, "ships_count": 0, "projects": [], "coding_time_seconds": 0, "coding_time_seconds_today": 0, "balance": "You need to have a pocket watcher badge to view this.", "badges": [], "created_at": "2025-06-25T09:21:43.741-04:00", "updated_at": "2025-07-03T20:03:35.642-04:00", "avatar": "https://avatars.slack-edge.com/2025-06-25/9096629484150_84a5829fe2c4a3faaf99_original.png", "custom_css": null}, {"id": 12348, "slack_id": "U093DSVNRU1", "display_name": "Yassine Ben younes", "bio": null, "projects_count": 0, "devlogs_count": 0, "votes_count": 0, "ships_count": 0, "projects": [], "coding_time_seconds": 0, "coding_time_seconds_today": 0, "balance": "You need to have a pocket watcher badge to view this.", "badges": [], "created_at": "2025-06-25T09:22:23.925-04:00", "updated_at": "2025-07-03T20:03:35.919-04:00", "avatar": "https://avatars.slack-edge.com/2025-06-25/9100793875349_dfdcbc6524ca08753f3a_original.jpg", "custom_css": null}, {"id": 12349, "slack_id": "U08HF56HDNK", "display_name": "Remzzzz", "bio": null, "projects_count": 2, "devlogs_count": 11, "votes_count": 21, "ships_count": 1, "projects": [{"id": 5500, "title": "Pokemon Clicker", "devlogs_count": 3, "created_at": "2025-07-05T18:03:26.515-04:00"}, {"id": 3915, "title": "Pokemon of the day", "devlogs_count": 8, "created_at": "2025-06-26T09:56:14.453-04:00"}], "coding_time_seconds": 59899, "coding_time_seconds_today": 0, "balance": "You need to have a pocket watcher badge to view this.", "badges": [{"name": "Maiden Voyage", "text": "you shipped your first project! the journey begins...", "icon": "\ud83d\udea2"}], "created_at": "2025-06-25T09:23:28.865-04:00", "updated_at": "2025-09-10T22:57:21.320-04:00", "avatar": "https://avatars.slack-edge.com/2025-05-21/8935602377202_b13cb3781d07a658e291_original.png", "custom_css": null}, {"id": 12350, "slack_id": "U092UJT2W4E", "display_name": "Aarav Garg", "bio": null, "projects_count": 0, "devlogs_count": 0, "votes_count": 0, "ships_count": 0, "projects": [], "coding_time_seconds": 43, "coding_time_seconds_today": 0, "balance": "You need to have a pocket watcher badge to view this.", "badges": [], "created_at": "2025-06-25T09:26:39.889-04:00", "updated_at": "2025-07-03T20:03:36.467-04:00", "avatar": "https://avatars.slack-edge.com/2025-06-25/9115961145185_6a855a0cf5521cc57bc3_original.png", "custom_css": null}, {"id": 12351, "slack_id": "U092J0ZJXA6", "display_name": "Aya Farag Abd Elwahed Ebrahim", "bio": null, "projects_count": 0, "devlogs_count": 0, "votes_count": 0, "ships_count": 0, "projects": [], "coding_time_seconds": 0, "coding_time_seconds_today": 0, "balance": "You need to have a pocket watcher badge to view this.", "badges": [], "created_at": "2025-06-25T09:28:40.985-04:00", "updated_at": "2025-07-06T20:14:00.409-04:00", "avatar": "https://secure.gravatar.com/avatar/ffcdb6b0e2255888c59fc9bae3b05361.jpg?s=512&d=https%3A%2F%2Fa.slack-edge.com%2Fdf10d%2Fimg%2Favatars%2Fava_0017-512.png", "custom_css": null}, {"id": 12352, "slack_id": "U08HF570JRM", "display_name": "Benji", "bio": null, "projects_count": 1, "devlogs_count": 3, "votes_count": 19, "ships_count": 1, "projects": [{"id": 4051, "title": "Gesture recognition Poker game :)", "devlogs_count": 3, "created_at": "2025-06-27T05:03:33.941-04:00"}], "coding_time_seconds": 20556, "coding_time_seconds_today": 0, "balance": "You need to have a pocket watcher badge to view this.", "badges": [{"name": "Maiden Voyage", "text": "you shipped your first project! the journey begins...", "icon": "\ud83d\udea2"}], "created_at": "2025-06-25T09:31:24.797-04:00", "updated_at": "2025-09-10T22:57:21.394-04:00", "avatar": "https://secure.gravatar.com/avatar/566356df4a90afa36bb498d0b4a53d7b.jpg?s=512&d=https%3A%2F%2Fa.slack-edge.com%2Fdf10d%2Fimg%2Favatars%2Fava_0025-512.png", "custom_css": null}, {"id": 12353, "slack_id": "U092SV0V2GH", "display_name": "RetroInsider", "bio": null, "projects_count": 0, "devlogs_count": 0, "votes_count": 0, "ships_count": 0, "projects": [], "coding_time_seconds": 21304, "coding_time_seconds_today": 0, "balance": "You need to have a pocket watcher badge to view this.", "badges": [], "created_at": "2025-06-25T09:55:27.631-04:00", "updated_at": "2025-07-03T20:03:37.019-04:00", "avatar": "https://secure.gravatar.com/avatar/1013a93e3b11b68f07f418b12fab91d4.jpg?s=512&d=https%3A%2F%2Fa.slack-edge.com%2Fdf10d%2Fimg%2Favatars%2Fava_0010-512.png", "custom_css": null}, {"id": 12354, "slack_id": "U092TTHEF1Q", "display_name": "Manas Kumar Dutta", "bio": null, "projects_count": 0, "devlogs_count": 0, "votes_count": 0, "ships_count": 0, "projects": [], "coding_time_seconds": 0, "coding_time_seconds_today": 0, "balance": "You need to have a pocket watcher badge to view this.", "badges": [], "created_at": "2025-06-25T10:03:01.116-04:00", "updated_at": "2025-07-03T20:03:37.297-04:00", "avatar": "https://secure.gravatar.com/avatar/97ee227cad001253bd7ac75c76f431c4.jpg?s=512&d=https%3A%2F%2Fa.slack-edge.com%2Fdf10d%2Fimg%2Favatars%2Fava_0009-512.png", "custom_css": null}, {"id": 12355, "slack_id": "U093E5JCKTK", "display_name": "Dawson", "bio": null, "projects_count": 1, "devlogs_count": 0, "votes_count": 0, "ships_count": 0, "projects": [{"id": 3709, "title": "Carbon Host", "devlogs_count": 0, "created_at": "2025-06-25T10:20:36.878-04:00"}], "coding_time_seconds": 1756, "coding_time_seconds_today": 0, "balance": "You need to have a pocket watcher badge to view this.", "badges": [], "created_at": "2025-06-25T10:04:26.960-04:00", "updated_at": "2025-07-03T20:03:37.558-04:00", "avatar": "https://secure.gravatar.com/avatar/5d0598bc6e8526568549e54ab067ca68.jpg?s=512&d=https%3A%2F%2Fa.slack-edge.com%2Fdf10d%2Fimg%2Favatars%2Fava_0014-512.png", "custom_css": null}, {"id": 12356, "slack_id": "U092URAD4Q6", "display_name": "Bhavik Mahalle", "bio": null, "projects_count": 3, "devlogs_count": 3, "votes_count": 2, "ships_count": 0, "projects": [{"id": 6394, "title": "AI-Blogs", "devlogs_count": 1, "created_at": "2025-07-13T01:49:38.735-04:00"}, {"id": 6396, "title": "Flappy bird clone", "devlogs_count": 1, "created_at": "2025-07-13T02:29:15.065-04:00"}, {"id": 6397, "title": "Procedural City Game", "devlogs_count": 1, "created_at": "2025-07-13T02:34:30.155-04:00"}], "coding_time_seconds": 117396, "coding_time_seconds_today": 0, "balance": "You need to have a pocket watcher badge to view this.", "badges": [], "created_at": "2025-06-25T10:04:49.529-04:00", "updated_at": "2025-07-13T06:10:01.579-04:00", "avatar": "https://avatars.slack-edge.com/2025-06-25/9101090920677_3b6753ebbb6976cbf8f6_original.jpg", "custom_css": null}, {"id": 12357, "slack_id": "U092LF7U5U7", "display_name": "Jagadeesh Kota", "bio": null, "projects_count": 0, "devlogs_count": 0, "votes_count": 0, "ships_count": 0, "projects": [], "coding_time_seconds": 0, "coding_time_seconds_today": 0, "balance": "You need to have a pocket watcher badge to view this.", "badges": [], "created_at": "2025-06-25T10:09:16.382-04:00", "updated_at": "2025-07-06T14:13:31.439-04:00", "avatar": "https://secure.gravatar.com/avatar/d71557faffac37db2eb2171b6d31138c.jpg?s=512&d=https%3A%2F%2Fa.slack-edge.com%2Fdf10d%2Fimg%2Favatars%2Fava_0026-512.png", "custom_css": null}, {"id": 12358, "slack_id": "U0931HPTY8L", "display_name": "Ben", "bio": null, "projects_count": 0, "devlogs_count": 0, "votes_count": 0, "ships_count": 0, "projects": [], "coding_time_seconds": 0, "coding_time_seconds_today": 0, "balance": "You need to have a pocket watcher badge to view this.", "badges": [], "created_at": "2025-06-25T10:11:42.927-04:00", "updated_at": "2025-07-03T20:03:38.244-04:00", "avatar": "https://secure.gravatar.com/avatar/1aad78b0db7a437dc27a6fee2b44c85d.jpg?s=512&d=https%3A%2F%2Fa.slack-edge.com%2Fdf10d%2Fimg%2Favatars%2Fava_0000-512.png", "custom_css": null}, {"id": 12359, "slack_id": "U0930MCDUM8", "display_name": "Peter Bodis", "bio": null, "projects_count": 0, "devlogs_count": 0, "votes_count": 1, "ships_count": 0, "projects": [], "coding_time_seconds": 0, "coding_time_seconds_today": 0, "balance": "You need to have a pocket watcher badge to view this.", "badges": [], "created_at": "2025-06-25T10:21:35.158-04:00", "updated_at": "2025-08-11T10:28:55.343-04:00", "avatar": "https://avatars.slack-edge.com/2025-06-25/9102744246674_4238a2d5f0693b719c8d_original.png", "custom_css": null}, {"id": 12360, "slack_id": "U08TGB7HTTN", "display_name": "Bobbie Toon", "bio": null, "projects_count": 0, "devlogs_count": 0, "votes_count": 0, "ships_count": 0, "projects": [], "coding_time_seconds": 0, "coding_time_seconds_today": 0, "balance": "You need to have a pocket watcher badge to view this.", "badges": [], "created_at": "2025-06-25T10:25:47.258-04:00", "updated_at": "2025-07-03T20:03:38.648-04:00", "avatar": "https://avatars.slack-edge.com/2025-05-23/8940992363749_f711f6704b2bb92a762e_original.png", "custom_css": null}], "pagination": {"page": 618, "pages": 1192, "count": 23828, "items": 20}}