{"users": [{"id": 12361, "slack_id": "U0930NHPGBA", "display_name": "Mateo Rodriguez", "bio": null, "projects_count": 0, "devlogs_count": 0, "votes_count": 0, "ships_count": 0, "projects": [], "coding_time_seconds": 0, "coding_time_seconds_today": 0, "balance": "You need to have a pocket watcher badge to view this.", "badges": [], "created_at": "2025-06-25T10:31:14.709-04:00", "updated_at": "2025-07-05T02:13:46.193-04:00", "avatar": "https://avatars.slack-edge.com/2025-06-25/9095946999923_af11ed08194a8c6cfed7_original.png", "custom_css": null}, {"id": 12362, "slack_id": "U0922A5AYN9", "display_name": "Jomana Mohamed", "bio": null, "projects_count": 0, "devlogs_count": 0, "votes_count": 0, "ships_count": 0, "projects": [], "coding_time_seconds": 0, "coding_time_seconds_today": 0, "balance": "You need to have a pocket watcher badge to view this.", "badges": [], "created_at": "2025-06-25T10:34:19.452-04:00", "updated_at": "2025-07-03T20:03:39.042-04:00", "avatar": "https://secure.gravatar.com/avatar/6c6326a9feb666a0e0e2eb2bbdc354cb.jpg?s=512&d=https%3A%2F%2Fa.slack-edge.com%2Fdf10d%2Fimg%2Favatars%2Fava_0022-512.png", "custom_css": null}, {"id": 12363, "slack_id": "U092Z8RSU85", "display_name": "Zeyad Ahmed Mohamed", "bio": null, "projects_count": 0, "devlogs_count": 0, "votes_count": 0, "ships_count": 0, "projects": [], "coding_time_seconds": 0, "coding_time_seconds_today": 0, "balance": "You need to have a pocket watcher badge to view this.", "badges": [], "created_at": "2025-06-25T10:40:37.489-04:00", "updated_at": "2025-07-03T20:03:39.310-04:00", "avatar": "https://secure.gravatar.com/avatar/5aa708af987ed6c6b54025804cb4fa8d.jpg?s=512&d=https%3A%2F%2Fa.slack-edge.com%2Fdf10d%2Fimg%2Favatars%2Fava_0001-512.png", "custom_css": null}, {"id": 12364, "slack_id": "U0930QYLYDQ", "display_name": "mdnajeeb", "bio": null, "projects_count": 0, "devlogs_count": 0, "votes_count": 0, "ships_count": 0, "projects": [], "coding_time_seconds": 0, "coding_time_seconds_today": 0, "balance": "You need to have a pocket watcher badge to view this.", "badges": [], "created_at": "2025-06-25T10:42:42.659-04:00", "updated_at": "2025-07-03T22:03:11.253-04:00", "avatar": "https://secure.gravatar.com/avatar/335d33af527764bf785c401fe7505167.jpg?s=512&d=https%3A%2F%2Fa.slack-edge.com%2Fdf10d%2Fimg%2Favatars%2Fava_0017-512.png", "custom_css": null}, {"id": 12365, "slack_id": "U091H8GU2CW", "display_name": "Guido Mello Rezende", "bio": null, "projects_count": 0, "devlogs_count": 0, "votes_count": 0, "ships_count": 0, "projects": [], "coding_time_seconds": 0, "coding_time_seconds_today": 0, "balance": "You need to have a pocket watcher badge to view this.", "badges": [], "created_at": "2025-06-25T10:52:16.554-04:00", "updated_at": "2025-07-04T08:28:45.682-04:00", "avatar": "https://secure.gravatar.com/avatar/290d8a508305c412d1b280320ee3c810.jpg?s=512&d=https%3A%2F%2Fa.slack-edge.com%2Fdf10d%2Fimg%2Favatars%2Fava_0015-512.png", "custom_css": null}, {"id": 12366, "slack_id": "U093EGJUMPT", "display_name": "ABDERRAHMANE", "bio": null, "projects_count": 0, "devlogs_count": 0, "votes_count": 0, "ships_count": 0, "projects": [], "coding_time_seconds": 0, "coding_time_seconds_today": 0, "balance": "You need to have a pocket watcher badge to view this.", "badges": [], "created_at": "2025-06-25T11:00:40.304-04:00", "updated_at": "2025-07-03T20:03:39.857-04:00", "avatar": "https://secure.gravatar.com/avatar/729b83b45089c866ab14c04bdadcd95c.jpg?s=512&d=https%3A%2F%2Fa.slack-edge.com%2Fdf10d%2Fimg%2Favatars%2Fava_0000-512.png", "custom_css": null}, {"id": 12367, "slack_id": "U092U39RZ4K", "display_name": "SIBISAKTHIVEL K", "bio": null, "projects_count": 0, "devlogs_count": 0, "votes_count": 0, "ships_count": 0, "projects": [], "coding_time_seconds": 0, "coding_time_seconds_today": 0, "balance": "You need to have a pocket watcher badge to view this.", "badges": [], "created_at": "2025-06-25T11:02:06.847-04:00", "updated_at": "2025-07-03T20:03:40.122-04:00", "avatar": "https://secure.gravatar.com/avatar/57a82b7635f89cf92a6d9f88a26423c5.jpg?s=512&d=https%3A%2F%2Fa.slack-edge.com%2Fdf10d%2Fimg%2Favatars%2Fava_0012-512.png", "custom_css": null}, {"id": 12368, "slack_id": "U092LTEN0VD", "display_name": "\u8bb8\u6893\u6052", "bio": null, "projects_count": 0, "devlogs_count": 0, "votes_count": 0, "ships_count": 0, "projects": [], "coding_time_seconds": 0, "coding_time_seconds_today": 0, "balance": "You need to have a pocket watcher badge to view this.", "badges": [], "created_at": "2025-06-25T11:10:37.607-04:00", "updated_at": "2025-07-03T20:03:40.388-04:00", "avatar": "https://avatars.slack-edge.com/2025-06-25/9088975791543_640bb11c871ce607479c_original.jpg", "custom_css": null}, {"id": 12369, "slack_id": "U091Q1R2ML4", "display_name": "MostlyTurquoise", "bio": null, "projects_count": 2, "devlogs_count": 1, "votes_count": 2, "ships_count": 0, "projects": [{"id": 11111, "title": "Life Simulator", "devlogs_count": 1, "created_at": "2025-08-13T08:35:40.553-04:00"}, {"id": 4900, "title": "Homepage", "devlogs_count": 0, "created_at": "2025-07-02T05:03:29.033-04:00"}], "coding_time_seconds": 117343, "coding_time_seconds_today": 0, "balance": "You need to have a pocket watcher badge to view this.", "badges": [], "created_at": "2025-06-25T11:13:51.165-04:00", "updated_at": "2025-08-13T08:32:04.510-04:00", "avatar": "https://secure.gravatar.com/avatar/677e021288e61c15f17cecdb85be7522.jpg?s=512&d=https%3A%2F%2Fa.slack-edge.com%2Fdf10d%2Fimg%2Favatars%2Fava_0017-512.png", "custom_css": null}, {"id": 12370, "slack_id": "U091RMT7EDS", "display_name": "Michael", "bio": null, "projects_count": 0, "devlogs_count": 0, "votes_count": 0, "ships_count": 0, "projects": [], "coding_time_seconds": 0, "coding_time_seconds_today": 0, "balance": "You need to have a pocket watcher badge to view this.", "badges": [], "created_at": "2025-06-25T11:17:35.076-04:00", "updated_at": "2025-07-03T20:03:40.924-04:00", "avatar": "https://secure.gravatar.com/avatar/fabc086ffb813ea37dacea37dc1ffdaf.jpg?s=512&d=https%3A%2F%2Fa.slack-edge.com%2Fdf10d%2Fimg%2Favatars%2Fava_0018-512.png", "custom_css": null}, {"id": 12371, "slack_id": "U093ELC9WMP", "display_name": "Syed Muhammad Anas", "bio": null, "projects_count": 0, "devlogs_count": 0, "votes_count": 0, "ships_count": 0, "projects": [], "coding_time_seconds": 142924, "coding_time_seconds_today": 0, "balance": "You need to have a pocket watcher badge to view this.", "badges": [], "created_at": "2025-06-25T11:19:32.862-04:00", "updated_at": "2025-07-03T20:03:41.189-04:00", "avatar": "https://secure.gravatar.com/avatar/b0cf37c7fd16e0930dd546a28bfc0dde.jpg?s=512&d=https%3A%2F%2Fa.slack-edge.com%2Fdf10d%2Fimg%2Favatars%2Fava_0020-512.png", "custom_css": null}, {"id": 12372, "slack_id": "U092M0BRPHD", "display_name": "Nexus", "bio": null, "projects_count": 0, "devlogs_count": 0, "votes_count": 0, "ships_count": 0, "projects": [], "coding_time_seconds": 278, "coding_time_seconds_today": 0, "balance": "You need to have a pocket watcher badge to view this.", "badges": [], "created_at": "2025-06-25T11:21:16.327-04:00", "updated_at": "2025-08-18T13:22:05.508-04:00", "avatar": "https://secure.gravatar.com/avatar/42c5cbfc35211bf9dfb06c27e683019d.jpg?s=512&d=https%3A%2F%2Fa.slack-edge.com%2Fdf10d%2Fimg%2Favatars%2Fava_0006-512.png", "custom_css": null}, {"id": 12373, "slack_id": "U093PL4343S", "display_name": "Felipe", "bio": null, "projects_count": 0, "devlogs_count": 0, "votes_count": 0, "ships_count": 0, "projects": [], "coding_time_seconds": 0, "coding_time_seconds_today": 0, "balance": "You need to have a pocket watcher badge to view this.", "badges": [], "created_at": "2025-06-25T11:23:46.825-04:00", "updated_at": "2025-07-03T20:03:41.736-04:00", "avatar": "https://secure.gravatar.com/avatar/091acfab6903bf80c7800c438228e29b.jpg?s=512&d=https%3A%2F%2Fa.slack-edge.com%2Fdf10d%2Fimg%2Favatars%2Fava_0018-512.png", "custom_css": null}, {"id": 12374, "slack_id": "U08E76FG57E", "display_name": "_Shift_xd_", "bio": null, "projects_count": 0, "devlogs_count": 74, "votes_count": 24, "ships_count": 0, "projects": [], "coding_time_seconds": 1338237, "coding_time_seconds_today": 0, "balance": "You need to have a pocket watcher badge to view this.", "badges": [{"name": "Maiden Voyage", "text": "you shipped your first project! the journey begins...", "icon": "\ud83d\udea2"}, {"name": "Yapper I", "text": "Posted 10 comments on devlogs.", "icon": "\ud83d\udcac"}, {"name": "Ballot Stuffer", "text": "vote 100 times.", "icon": "https://summer.hackclub.com/assets/i_voted-bf851b48.png"}], "created_at": "2025-06-25T11:24:47.850-04:00", "updated_at": "2025-09-10T22:57:22.045-04:00", "avatar": "https://avatars.slack-edge.com/2025-07-09/9181239085873_e3538ebecd87a88a4c5b_original.jpg", "custom_css": null}, {"id": 12375, "slack_id": "U08UGBF4PB2", "display_name": "Codegirl", "bio": null, "projects_count": 4, "devlogs_count": 10, "votes_count": 0, "ships_count": 1, "projects": [{"id": 3919, "title": "File analyzer & Manager App", "devlogs_count": 1, "created_at": "2025-06-26T10:33:51.556-04:00"}, {"id": 5538, "title": "Popcorn Animation", "devlogs_count": 3, "created_at": "2025-07-06T01:44:08.079-04:00"}, {"id": 6560, "title": "ESO Lang", "devlogs_count": 2, "created_at": "2025-07-14T08:45:55.472-04:00"}, {"id": 4049, "title": "3D Snake Game", "devlogs_count": 4, "created_at": "2025-06-27T04:26:32.475-04:00"}], "coding_time_seconds": 107565, "coding_time_seconds_today": 0, "balance": "You need to have a pocket watcher badge to view this.", "badges": [{"name": "Maiden Voyage", "text": "you shipped your first project! the journey begins...", "icon": "\ud83d\udea2"}], "created_at": "2025-06-25T11:26:47.918-04:00", "updated_at": "2025-09-10T22:57:22.075-04:00", "avatar": "https://secure.gravatar.com/avatar/8e3f19f9710ae654468202b5266e8495.jpg?s=512&d=https%3A%2F%2Fa.slack-edge.com%2Fdf10d%2Fimg%2Favatars%2Fava_0022-512.png", "custom_css": null}, {"id": 12376, "slack_id": "U093PRDSFG8", "display_name": "Anijah Morales", "bio": null, "projects_count": 0, "devlogs_count": 0, "votes_count": 0, "ships_count": 0, "projects": [], "coding_time_seconds": 10750, "coding_time_seconds_today": 0, "balance": "You need to have a pocket watcher badge to view this.", "badges": [], "created_at": "2025-06-25T11:47:22.078-04:00", "updated_at": "2025-07-03T22:03:12.141-04:00", "avatar": "https://secure.gravatar.com/avatar/68bda0b42b59190395a183c03c55953b.jpg?s=512&d=https%3A%2F%2Fa.slack-edge.com%2Fdf10d%2Fimg%2Favatars%2Fava_0020-512.png", "custom_css": null}, {"id": 12377, "slack_id": "U091UAJQD9R", "display_name": "priyanshi kumari singh", "bio": null, "projects_count": 0, "devlogs_count": 0, "votes_count": 0, "ships_count": 0, "projects": [], "coding_time_seconds": 0, "coding_time_seconds_today": 0, "balance": "You need to have a pocket watcher badge to view this.", "badges": [], "created_at": "2025-06-25T11:49:22.979-04:00", "updated_at": "2025-07-04T08:28:46.568-04:00", "avatar": "https://secure.gravatar.com/avatar/c2eb86649eaab2dfcf52a027104f08cc.jpg?s=512&d=https%3A%2F%2Fa.slack-edge.com%2Fdf10d%2Fimg%2Favatars%2Fava_0026-512.png", "custom_css": null}, {"id": 12378, "slack_id": "U08S5CQF1UL", "display_name": "Lapis", "bio": "she/her\r\nproud trans woman who likes to code :3", "projects_count": 1, "devlogs_count": 7, "votes_count": 4, "ships_count": 1, "projects": [{"id": 3754, "title": "OpenWeather", "devlogs_count": 7, "created_at": "2025-06-25T15:45:40.156-04:00"}], "coding_time_seconds": 24855, "coding_time_seconds_today": 0, "balance": "You need to have a pocket watcher badge to view this.", "badges": [{"name": "Maiden Voyage", "text": "you shipped your first project! the journey begins...", "icon": "\ud83d\udea2"}], "created_at": "2025-06-25T11:59:44.789-04:00", "updated_at": "2025-09-10T22:57:22.155-04:00", "avatar": "https://avatars.slack-edge.com/2025-06-25/9101980019221_8aaeb323349b766baf95_original.png", "custom_css": null}, {"id": 12379, "slack_id": "U093F0WTKT3", "display_name": "Rossa", "bio": null, "projects_count": 0, "devlogs_count": 0, "votes_count": 0, "ships_count": 0, "projects": [], "coding_time_seconds": 2897, "coding_time_seconds_today": 0, "balance": "You need to have a pocket watcher badge to view this.", "badges": [], "created_at": "2025-06-25T12:10:00.535-04:00", "updated_at": "2025-07-03T22:03:12.381-04:00", "avatar": "https://secure.gravatar.com/avatar/d1201b3bfc7ea86be6a06b71a6a13f98.jpg?s=512&d=https%3A%2F%2Fa.slack-edge.com%2Fdf10d%2Fimg%2Favatars%2Fava_0022-512.png", "custom_css": null}, {"id": 12380, "slack_id": "U07CFRM0SQH", "display_name": "youkononame", "bio": "smaller than the eye can see!", "projects_count": 2, "devlogs_count": 10, "votes_count": 28, "ships_count": 2, "projects": [{"id": 3819, "title": "Ekonn", "devlogs_count": 9, "created_at": "2025-06-25T21:46:51.477-04:00"}, {"id": 8920, "title": "Bible API", "devlogs_count": 1, "created_at": "2025-07-29T16:53:31.090-04:00"}], "coding_time_seconds": 84403, "coding_time_seconds_today": 0, "balance": "You need to have a pocket watcher badge to view this.", "badges": [{"name": "Maiden Voyage", "text": "you shipped your first project! the journey begins...", "icon": "\ud83d\udea2"}], "created_at": "2025-06-25T12:14:44.066-04:00", "updated_at": "2025-09-10T22:57:22.206-04:00", "avatar": "https://avatars.slack-edge.com/2025-05-29/8965331244886_6dc0dd0431fe54587ffb_original.png", "custom_css": null}], "pagination": {"page": 619, "pages": 1192, "count": 23828, "items": 20}}