{"users": [{"id": 1221, "slack_id": "U092BT328QY", "display_name": "Qamreen", "bio": null, "projects_count": 0, "devlogs_count": 0, "votes_count": 0, "ships_count": 0, "projects": [], "coding_time_seconds": 0, "coding_time_seconds_today": 0, "balance": "You need to have a pocket watcher badge to view this.", "badges": [], "created_at": "2025-06-16T12:53:09.810-04:00", "updated_at": "2025-07-03T19:16:39.294-04:00", "avatar": "https://secure.gravatar.com/avatar/d787784eae2e23eec2d3c5be25593d80.jpg?s=512&d=https%3A%2F%2Fa.slack-edge.com%2Fdf10d%2Fimg%2Favatars%2Fava_0006-512.png", "custom_css": null}, {"id": 1222, "slack_id": "U091GH76TB8", "display_name": "ownstj", "bio": null, "projects_count": 1, "devlogs_count": 0, "votes_count": 0, "ships_count": 0, "projects": [{"id": 1870, "title": "Best Bus Finder", "devlogs_count": 0, "created_at": "2025-06-19T13:35:59.663-04:00"}], "coding_time_seconds": 70131, "coding_time_seconds_today": 0, "balance": "You need to have a pocket watcher badge to view this.", "badges": [], "created_at": "2025-06-16T12:53:12.148-04:00", "updated_at": "2025-07-03T19:16:39.557-04:00", "avatar": "https://secure.gravatar.com/avatar/920ac282ff44b0266a83eb3ac2f7bbfe.jpg?s=512&d=https%3A%2F%2Fa.slack-edge.com%2Fdf10d%2Fimg%2Favatars%2Fava_0019-512.png", "custom_css": null}, {"id": 1223, "slack_id": "U091GBU8CJX", "display_name": "Harsha Nimeda", "bio": null, "projects_count": 0, "devlogs_count": 0, "votes_count": 0, "ships_count": 0, "projects": [], "coding_time_seconds": 0, "coding_time_seconds_today": 0, "balance": "You need to have a pocket watcher badge to view this.", "badges": [], "created_at": "2025-06-16T12:53:15.096-04:00", "updated_at": "2025-07-03T19:16:39.824-04:00", "avatar": "https://avatars.slack-edge.com/2025-06-16/9055696049621_e2bb6f7fea05cd2f5f39_original.png", "custom_css": null}, {"id": 1224, "slack_id": "U091GH6CXT8", "display_name": "Saaleh Poovathumkadavil", "bio": null, "projects_count": 1, "devlogs_count": 1, "votes_count": 0, "ships_count": 0, "projects": [{"id": 337, "title": "Digispec", "devlogs_count": 1, "created_at": "2025-06-16T18:23:13.507-04:00"}], "coding_time_seconds": 38730, "coding_time_seconds_today": 0, "balance": "You need to have a pocket watcher badge to view this.", "badges": [], "created_at": "2025-06-16T12:53:22.095-04:00", "updated_at": "2025-07-03T19:16:40.085-04:00", "avatar": "https://secure.gravatar.com/avatar/a2212803f74ccfb12a64e6bf33135b39.jpg?s=512&d=https%3A%2F%2Fa.slack-edge.com%2Fdf10d%2Fimg%2Favatars%2Fava_0015-512.png", "custom_css": null}, {"id": 1225, "slack_id": "U091GEBSBM1", "display_name": "ThisIs-Developer", "bio": null, "projects_count": 0, "devlogs_count": 0, "votes_count": 0, "ships_count": 0, "projects": [], "coding_time_seconds": 0, "coding_time_seconds_today": 0, "balance": "You need to have a pocket watcher badge to view this.", "badges": [], "created_at": "2025-06-16T12:53:30.325-04:00", "updated_at": "2025-07-03T19:16:40.358-04:00", "avatar": "https://secure.gravatar.com/avatar/5bc01fb990ef9dabd6d79784dfa45cb8.jpg?s=512&d=https%3A%2F%2Fa.slack-edge.com%2Fdf10d%2Fimg%2Favatars%2Fava_0017-512.png", "custom_css": null}, {"id": 1226, "slack_id": "U091GHFMRPG", "display_name": "Rosany Straub", "bio": null, "projects_count": 0, "devlogs_count": 0, "votes_count": 0, "ships_count": 0, "projects": [], "coding_time_seconds": 0, "coding_time_seconds_today": 0, "balance": "You need to have a pocket watcher badge to view this.", "badges": [], "created_at": "2025-06-16T12:53:37.857-04:00", "updated_at": "2025-07-03T19:16:40.630-04:00", "avatar": "https://secure.gravatar.com/avatar/4ddc96acf789323f5d936b6ca9d95ef8.jpg?s=512&d=https%3A%2F%2Fa.slack-edge.com%2Fdf10d%2Fimg%2Favatars%2Fava_0025-512.png", "custom_css": null}, {"id": 1227, "slack_id": "U091GHBDNKY", "display_name": "Steve", "bio": null, "projects_count": 0, "devlogs_count": 0, "votes_count": 0, "ships_count": 0, "projects": [], "coding_time_seconds": 872, "coding_time_seconds_today": 0, "balance": "You need to have a pocket watcher badge to view this.", "badges": [], "created_at": "2025-06-16T12:53:38.083-04:00", "updated_at": "2025-07-03T19:16:40.904-04:00", "avatar": "https://secure.gravatar.com/avatar/231155e24e82dba0ff2e126aaedd0eb9.jpg?s=512&d=https%3A%2F%2Fa.slack-edge.com%2Fdf10d%2Fimg%2Favatars%2Fava_0008-512.png", "custom_css": null}, {"id": 1228, "slack_id": "U091ML4JA1K", "display_name": "LoveDoLove", "bio": null, "projects_count": 0, "devlogs_count": 0, "votes_count": 0, "ships_count": 0, "projects": [], "coding_time_seconds": 0, "coding_time_seconds_today": 0, "balance": "You need to have a pocket watcher badge to view this.", "badges": [], "created_at": "2025-06-16T12:53:38.791-04:00", "updated_at": "2025-07-03T19:16:41.183-04:00", "avatar": "https://secure.gravatar.com/avatar/d58f47a7b7cc5d95bb4142497fac82f6.jpg?s=512&d=https%3A%2F%2Fa.slack-edge.com%2Fdf10d%2Fimg%2Favatars%2Fava_0000-512.png", "custom_css": null}, {"id": 1229, "slack_id": "U091PRH8TDJ", "display_name": "Abdullah Ak\u00e7ay", "bio": null, "projects_count": 0, "devlogs_count": 0, "votes_count": 0, "ships_count": 0, "projects": [], "coding_time_seconds": 0, "coding_time_seconds_today": 0, "balance": "You need to have a pocket watcher badge to view this.", "badges": [], "created_at": "2025-06-16T12:53:45.595-04:00", "updated_at": "2025-07-03T19:16:41.479-04:00", "avatar": "https://secure.gravatar.com/avatar/fa72e002ceb9f2604d3091a4ded9f853.jpg?s=512&d=https%3A%2F%2Fa.slack-edge.com%2Fdf10d%2Fimg%2Favatars%2Fava_0003-512.png", "custom_css": null}, {"id": 1230, "slack_id": "U091PCLC5R8", "display_name": "Nguy\u1ec5n L\u00ea Minh Nh\u1eadt", "bio": null, "projects_count": 0, "devlogs_count": 0, "votes_count": 0, "ships_count": 0, "projects": [], "coding_time_seconds": 0, "coding_time_seconds_today": 0, "balance": "You need to have a pocket watcher badge to view this.", "badges": [], "created_at": "2025-06-16T12:53:48.181-04:00", "updated_at": "2025-07-03T19:16:41.760-04:00", "avatar": "https://secure.gravatar.com/avatar/355a1edb0cfd210fb93a98c432abc49c.jpg?s=512&d=https%3A%2F%2Fa.slack-edge.com%2Fdf10d%2Fimg%2Favatars%2Fava_0002-512.png", "custom_css": null}, {"id": 1231, "slack_id": "U091GECEAUT", "display_name": "Miqdad salman", "bio": null, "projects_count": 2, "devlogs_count": 3, "votes_count": 10, "ships_count": 1, "projects": [{"id": 3100, "title": "Genai - AI image generator.", "devlogs_count": 3, "created_at": "2025-06-23T05:13:06.729-04:00"}, {"id": 12016, "title": "Calorie_detector", "devlogs_count": 0, "created_at": "2025-08-22T07:10:30.513-04:00"}], "coding_time_seconds": 157782, "coding_time_seconds_today": 0, "balance": "You need to have a pocket watcher badge to view this.", "badges": [{"name": "Maiden Voyage", "text": "you shipped your first project! the journey begins...", "icon": "\ud83d\udea2"}], "created_at": "2025-06-16T12:54:07.687-04:00", "updated_at": "2025-09-10T22:51:46.038-04:00", "avatar": "https://avatars.slack-edge.com/2025-06-16/9050510458835_dc4b7f822d733b2f73fc_original.png", "custom_css": null}, {"id": 1232, "slack_id": "U09184NH0ET", "display_name": "Jose Escal\u00f3n Prada", "bio": null, "projects_count": 0, "devlogs_count": 0, "votes_count": 0, "ships_count": 0, "projects": [], "coding_time_seconds": 3226, "coding_time_seconds_today": 0, "balance": "You need to have a pocket watcher badge to view this.", "badges": [], "created_at": "2025-06-16T12:54:08.112-04:00", "updated_at": "2025-07-03T19:16:42.307-04:00", "avatar": "https://avatars.slack-edge.com/2025-06-16/9057470400738_e6614ad570624307797b_original.jpg", "custom_css": null}, {"id": 1233, "slack_id": "U091GEE9UG3", "display_name": "Rameez Parwez", "bio": null, "projects_count": 0, "devlogs_count": 0, "votes_count": 0, "ships_count": 0, "projects": [], "coding_time_seconds": 51420, "coding_time_seconds_today": 0, "balance": "You need to have a pocket watcher badge to view this.", "badges": [], "created_at": "2025-06-16T12:54:17.043-04:00", "updated_at": "2025-07-03T19:16:42.581-04:00", "avatar": "https://secure.gravatar.com/avatar/362727bc1192cff99b8223614fb81309.jpg?s=512&d=https%3A%2F%2Fa.slack-edge.com%2Fdf10d%2Fimg%2Favatars%2Fava_0017-512.png", "custom_css": null}, {"id": 1234, "slack_id": "U091ML8UGN9", "display_name": "Ghuncha", "bio": null, "projects_count": 0, "devlogs_count": 0, "votes_count": 0, "ships_count": 0, "projects": [], "coding_time_seconds": 0, "coding_time_seconds_today": 0, "balance": "You need to have a pocket watcher badge to view this.", "badges": [], "created_at": "2025-06-16T12:54:17.242-04:00", "updated_at": "2025-07-03T19:16:42.853-04:00", "avatar": "https://secure.gravatar.com/avatar/d76bc8bd0495852b681f7cb6f97f4e25.jpg?s=512&d=https%3A%2F%2Fa.slack-edge.com%2Fdf10d%2Fimg%2Favatars%2Fava_0024-512.png", "custom_css": null}, {"id": 1235, "slack_id": "U09184NHSG7", "display_name": "David", "bio": null, "projects_count": 0, "devlogs_count": 0, "votes_count": 0, "ships_count": 0, "projects": [], "coding_time_seconds": 2997, "coding_time_seconds_today": 0, "balance": "You need to have a pocket watcher badge to view this.", "badges": [], "created_at": "2025-06-16T12:54:18.194-04:00", "updated_at": "2025-07-03T19:16:43.138-04:00", "avatar": "https://avatars.slack-edge.com/2025-06-16/9055701739861_c9b23b9750eb0d4dc246_original.png", "custom_css": null}, {"id": 1236, "slack_id": "U07URRX2W06", "display_name": "Charlie", "bio": null, "projects_count": 0, "devlogs_count": 0, "votes_count": 0, "ships_count": 0, "projects": [], "coding_time_seconds": 296859, "coding_time_seconds_today": 0, "balance": "You need to have a pocket watcher badge to view this.", "badges": [], "created_at": "2025-06-16T12:54:21.062-04:00", "updated_at": "2025-07-03T19:16:43.401-04:00", "avatar": "https://avatars.slack-edge.com/2024-11-07/7990419632598_966e163e76373de511ad_original.png", "custom_css": null}, {"id": 1237, "slack_id": "U091GHBV9F0", "display_name": "Shawaiz Haider", "bio": null, "projects_count": 0, "devlogs_count": 0, "votes_count": 0, "ships_count": 0, "projects": [], "coding_time_seconds": 45246, "coding_time_seconds_today": 0, "balance": "You need to have a pocket watcher badge to view this.", "badges": [], "created_at": "2025-06-16T12:54:28.205-04:00", "updated_at": "2025-07-03T19:16:43.671-04:00", "avatar": "https://secure.gravatar.com/avatar/e7b699b74f96c48950eddf58b2846194.jpg?s=512&d=https%3A%2F%2Fa.slack-edge.com%2Fdf10d%2Fimg%2Favatars%2Fava_0020-512.png", "custom_css": null}, {"id": 1238, "slack_id": "U091ML8TD4M", "display_name": "Akash Mishra", "bio": null, "projects_count": 0, "devlogs_count": 0, "votes_count": 0, "ships_count": 0, "projects": [], "coding_time_seconds": 5012, "coding_time_seconds_today": 0, "balance": "You need to have a pocket watcher badge to view this.", "badges": [], "created_at": "2025-06-16T12:54:35.061-04:00", "updated_at": "2025-07-03T19:16:43.956-04:00", "avatar": "https://secure.gravatar.com/avatar/fd4cc61a5cebec48d22b95412f8e8ae8.jpg?s=512&d=https%3A%2F%2Fa.slack-edge.com%2Fdf10d%2Fimg%2Favatars%2Fava_0008-512.png", "custom_css": null}, {"id": 1239, "slack_id": "U091GHLLBD4", "display_name": "Aayush Dhiman", "bio": null, "projects_count": 0, "devlogs_count": 0, "votes_count": 0, "ships_count": 0, "projects": [], "coding_time_seconds": 0, "coding_time_seconds_today": 0, "balance": "You need to have a pocket watcher badge to view this.", "badges": [], "created_at": "2025-06-16T12:54:48.798-04:00", "updated_at": "2025-07-03T19:16:44.230-04:00", "avatar": "https://secure.gravatar.com/avatar/8abde99682e7bba80dbfa8e20e9d38af.jpg?s=512&d=https%3A%2F%2Fa.slack-edge.com%2Fdf10d%2Fimg%2Favatars%2Fava_0003-512.png", "custom_css": null}, {"id": 1240, "slack_id": "U07C0RR30GZ", "display_name": "50ShadesOfGay (dodge)", "bio": null, "projects_count": 0, "devlogs_count": 0, "votes_count": 9, "ships_count": 0, "projects": [], "coding_time_seconds": 131134, "coding_time_seconds_today": 1915, "balance": "You need to have a pocket watcher badge to view this.", "badges": [], "created_at": "2025-06-16T12:54:49.737-04:00", "updated_at": "2025-09-24T18:02:23.809-04:00", "avatar": "https://avatars.slack-edge.com/2025-09-24/9562254740375_7981cc5bcb88bc455c43_original.png", "custom_css": null}], "pagination": {"page": 62, "pages": 1192, "count": 23827, "items": 20}}