{"users": [{"id": 12381, "slack_id": "U092VMXEAR4", "display_name": "Rayhan", "bio": null, "projects_count": 0, "devlogs_count": 0, "votes_count": 0, "ships_count": 0, "projects": [], "coding_time_seconds": 1137, "coding_time_seconds_today": 0, "balance": "You need to have a pocket watcher badge to view this.", "badges": [], "created_at": "2025-06-25T12:18:24.559-04:00", "updated_at": "2025-07-03T20:03:43.370-04:00", "avatar": "https://avatars.slack-edge.com/2025-06-27/9108772517766_e2863a54048120e8b358_original.jpg", "custom_css": null}, {"id": 12382, "slack_id": "U09310PL918", "display_name": "Coderlol", "bio": null, "projects_count": 0, "devlogs_count": 0, "votes_count": 0, "ships_count": 0, "projects": [], "coding_time_seconds": 0, "coding_time_seconds_today": 0, "balance": "You need to have a pocket watcher badge to view this.", "badges": [], "created_at": "2025-06-25T12:18:48.730-04:00", "updated_at": "2025-07-07T10:04:09.140-04:00", "avatar": "https://secure.gravatar.com/avatar/d5ae7a7a187e308b16c318cde9a2ebeb.jpg?s=512&d=https%3A%2F%2Fa.slack-edge.com%2Fdf10d%2Fimg%2Favatars%2Fava_0002-512.png", "custom_css": null}, {"id": 12383, "slack_id": "U0795H4CAAZ", "display_name": "Brody", "bio": null, "projects_count": 2, "devlogs_count": 6, "votes_count": 3, "ships_count": 1, "projects": [{"id": 3794, "title": "NFC Bracelet ", "devlogs_count": 3, "created_at": "2025-06-25T19:27:59.411-04:00"}, {"id": 4979, "title": "PeakFit", "devlogs_count": 3, "created_at": "2025-07-02T14:13:12.112-04:00"}], "coding_time_seconds": 229671, "coding_time_seconds_today": 0, "balance": "You need to have a pocket watcher badge to view this.", "badges": [{"name": "Maiden Voyage", "text": "you shipped your first project! the journey begins...", "icon": "\ud83d\udea2"}], "created_at": "2025-06-25T12:20:32.524-04:00", "updated_at": "2025-09-10T22:57:22.283-04:00", "avatar": "https://avatars.slack-edge.com/2025-03-03/8566390678560_5ca396e6765cb3c880f3_original.png", "custom_css": null}, {"id": 12384, "slack_id": "U092UMZKM51", "display_name": "Jai Krishna Tavva", "bio": null, "projects_count": 0, "devlogs_count": 0, "votes_count": 0, "ships_count": 0, "projects": [], "coding_time_seconds": 0, "coding_time_seconds_today": 0, "balance": "You need to have a pocket watcher badge to view this.", "badges": [], "created_at": "2025-06-25T12:28:19.537-04:00", "updated_at": "2025-07-03T20:03:44.044-04:00", "avatar": "https://avatars.slack-edge.com/2025-06-25/9096766295731_a04c0c27489ffc484952_original.png", "custom_css": null}, {"id": 12385, "slack_id": "U0931J5TWBC", "display_name": "sam lau", "bio": null, "projects_count": 0, "devlogs_count": 0, "votes_count": 0, "ships_count": 0, "projects": [], "coding_time_seconds": 0, "coding_time_seconds_today": 0, "balance": "You need to have a pocket watcher badge to view this.", "badges": [], "created_at": "2025-06-25T12:30:25.794-04:00", "updated_at": "2025-07-05T02:13:47.852-04:00", "avatar": "https://avatars.slack-edge.com/2025-06-25/9096783133347_678c3eaf4359a12e61ca_original.png", "custom_css": null}, {"id": 12386, "slack_id": "U0930G42N4S", "display_name": "Dilraj Singh", "bio": null, "projects_count": 0, "devlogs_count": 0, "votes_count": 0, "ships_count": 0, "projects": [], "coding_time_seconds": 0, "coding_time_seconds_today": 0, "balance": "You need to have a pocket watcher badge to view this.", "badges": [], "created_at": "2025-06-25T12:30:43.450-04:00", "updated_at": "2025-07-05T14:15:22.905-04:00", "avatar": "https://avatars.slack-edge.com/2025-06-25/9096784183331_2c982df4d51f9bfec227_original.png", "custom_css": null}, {"id": 12387, "slack_id": "U093Q4ZC864", "display_name": "Sidik", "bio": null, "projects_count": 0, "devlogs_count": 0, "votes_count": 0, "ships_count": 0, "projects": [], "coding_time_seconds": 0, "coding_time_seconds_today": 0, "balance": "You need to have a pocket watcher badge to view this.", "badges": [], "created_at": "2025-06-25T12:33:54.619-04:00", "updated_at": "2025-07-03T20:03:44.587-04:00", "avatar": "https://secure.gravatar.com/avatar/925e55c62f4022b402f8a699f1db5c2b.jpg?s=512&d=https%3A%2F%2Fa.slack-edge.com%2Fdf10d%2Fimg%2Favatars%2Fava_0003-512.png", "custom_css": null}, {"id": 12388, "slack_id": "U0932HEUNG4", "display_name": "Fawaz", "bio": null, "projects_count": 0, "devlogs_count": 0, "votes_count": 0, "ships_count": 0, "projects": [], "coding_time_seconds": 0, "coding_time_seconds_today": 0, "balance": "You need to have a pocket watcher badge to view this.", "badges": [], "created_at": "2025-06-25T12:39:53.307-04:00", "updated_at": "2025-07-03T20:03:44.859-04:00", "avatar": "https://secure.gravatar.com/avatar/dfa9c9d7e58b55da841450e27a3e5117.jpg?s=512&d=https%3A%2F%2Fa.slack-edge.com%2Fdf10d%2Fimg%2Favatars%2Fava_0010-512.png", "custom_css": null}, {"id": 12389, "slack_id": "U091JD51Z50", "display_name": "Rainier P.S.", "bio": null, "projects_count": 0, "devlogs_count": 35, "votes_count": 0, "ships_count": 0, "projects": [], "coding_time_seconds": 200535, "coding_time_seconds_today": 0, "balance": "You need to have a pocket watcher badge to view this.", "badges": [{"name": "Maiden Voyage", "text": "you shipped your first project! the journey begins...", "icon": "\ud83d\udea2"}, {"name": "Ballot Stuffer", "text": "vote 100 times.", "icon": "https://summer.hackclub.com/assets/i_voted-bf851b48.png"}], "created_at": "2025-06-25T12:45:49.055-04:00", "updated_at": "2025-09-15T12:52:11.145-04:00", "avatar": "https://secure.gravatar.com/avatar/b6414011da9f2fd776d12658601d1bbc.jpg?s=512&d=https%3A%2F%2Fa.slack-edge.com%2Fdf10d%2Fimg%2Favatars%2Fava_0021-512.png", "custom_css": null}, {"id": 12390, "slack_id": "U092USLBQ3D", "display_name": "Joel Dykstra", "bio": null, "projects_count": 0, "devlogs_count": 0, "votes_count": 0, "ships_count": 0, "projects": [], "coding_time_seconds": 0, "coding_time_seconds_today": 0, "balance": "You need to have a pocket watcher badge to view this.", "badges": [], "created_at": "2025-06-25T12:53:12.451-04:00", "updated_at": "2025-07-03T20:03:45.388-04:00", "avatar": "https://secure.gravatar.com/avatar/98cc9ada1fb95d42c62bdeb4fd3b3c56.jpg?s=512&d=https%3A%2F%2Fa.slack-edge.com%2Fdf10d%2Fimg%2Favatars%2Fava_0000-512.png", "custom_css": null}, {"id": 12391, "slack_id": "U0932LFPKHA", "display_name": "Joyston Monteiro", "bio": null, "projects_count": 0, "devlogs_count": 0, "votes_count": 0, "ships_count": 0, "projects": [], "coding_time_seconds": 240, "coding_time_seconds_today": 0, "balance": "You need to have a pocket watcher badge to view this.", "badges": [], "created_at": "2025-06-25T12:53:27.049-04:00", "updated_at": "2025-07-03T20:03:45.660-04:00", "avatar": "https://secure.gravatar.com/avatar/b711beacb1876369ebd6e3e1ed51a859.jpg?s=512&d=https%3A%2F%2Fa.slack-edge.com%2Fdf10d%2Fimg%2Favatars%2Fava_0012-512.png", "custom_css": null}, {"id": 12392, "slack_id": "U093F9M14QZ", "display_name": "Marcelo", "bio": null, "projects_count": 0, "devlogs_count": 0, "votes_count": 0, "ships_count": 0, "projects": [], "coding_time_seconds": 0, "coding_time_seconds_today": 0, "balance": "You need to have a pocket watcher badge to view this.", "badges": [], "created_at": "2025-06-25T12:59:30.234-04:00", "updated_at": "2025-07-03T22:03:13.276-04:00", "avatar": "https://secure.gravatar.com/avatar/19d5f03536b332c6b8e8558e92b6730b.jpg?s=512&d=https%3A%2F%2Fa.slack-edge.com%2Fdf10d%2Fimg%2Favatars%2Fava_0023-512.png", "custom_css": null}, {"id": 12393, "slack_id": "U08SF9AR8Q2", "display_name": "Daniel", "bio": null, "projects_count": 3, "devlogs_count": 6, "votes_count": 11, "ships_count": 2, "projects": [{"id": 8499, "title": "Archon", "devlogs_count": 1, "created_at": "2025-07-27T15:44:54.973-04:00"}, {"id": 8505, "title": "mafia-online-party-game", "devlogs_count": 2, "created_at": "2025-07-27T16:15:28.557-04:00"}, {"id": 5082, "title": "PromptBeatAi", "devlogs_count": 3, "created_at": "2025-07-03T06:17:15.726-04:00"}], "coding_time_seconds": 371402, "coding_time_seconds_today": 1813, "balance": "You need to have a pocket watcher badge to view this.", "badges": [{"name": "Maiden Voyage", "text": "you shipped your first project! the journey begins...", "icon": "\ud83d\udea2"}], "created_at": "2025-06-25T13:01:48.803-04:00", "updated_at": "2025-09-10T22:57:22.546-04:00", "avatar": "https://secure.gravatar.com/avatar/0766b823f6d67e9d2a4e64cf5a55b48b.jpg?s=512&d=https%3A%2F%2Fa.slack-edge.com%2Fdf10d%2Fimg%2Favatars%2Fava_0002-512.png", "custom_css": null}, {"id": 12394, "slack_id": "U093QA4LFLY", "display_name": "Sumit P. Makwana", "bio": null, "projects_count": 0, "devlogs_count": 0, "votes_count": 0, "ships_count": 0, "projects": [], "coding_time_seconds": 0, "coding_time_seconds_today": 0, "balance": "You need to have a pocket watcher badge to view this.", "badges": [], "created_at": "2025-06-25T13:04:17.337-04:00", "updated_at": "2025-07-07T23:07:42.504-04:00", "avatar": "https://avatars.slack-edge.com/2025-06-25/9117380323345_e1406e650e305b4660db_original.png", "custom_css": null}, {"id": 12395, "slack_id": "U091R8SGCH4", "display_name": "Reena S", "bio": null, "projects_count": 0, "devlogs_count": 0, "votes_count": 0, "ships_count": 0, "projects": [], "coding_time_seconds": 0, "coding_time_seconds_today": 0, "balance": "You need to have a pocket watcher badge to view this.", "badges": [], "created_at": "2025-06-25T13:29:10.219-04:00", "updated_at": "2025-07-03T20:03:46.591-04:00", "avatar": "https://secure.gravatar.com/avatar/6790db6e4514aa95343ac7313120a22f.jpg?s=512&d=https%3A%2F%2Fa.slack-edge.com%2Fdf10d%2Fimg%2Favatars%2Fava_0004-512.png", "custom_css": null}, {"id": 12396, "slack_id": "U0932TSDWCC", "display_name": "kolaa", "bio": null, "projects_count": 0, "devlogs_count": 0, "votes_count": 0, "ships_count": 0, "projects": [], "coding_time_seconds": 0, "coding_time_seconds_today": 0, "balance": "You need to have a pocket watcher badge to view this.", "badges": [], "created_at": "2025-06-25T13:33:05.154-04:00", "updated_at": "2025-07-06T14:13:33.900-04:00", "avatar": "https://secure.gravatar.com/avatar/02b187c5bc6f1112504bfaf273c6a83d.jpg?s=512&d=https%3A%2F%2Fa.slack-edge.com%2Fdf10d%2Fimg%2Favatars%2Fava_0001-512.png", "custom_css": null}, {"id": 12397, "slack_id": "U092V4TKY11", "display_name": "Alex Pan", "bio": null, "projects_count": 0, "devlogs_count": 0, "votes_count": 0, "ships_count": 0, "projects": [], "coding_time_seconds": 0, "coding_time_seconds_today": 0, "balance": "You need to have a pocket watcher badge to view this.", "badges": [], "created_at": "2025-06-25T13:34:37.731-04:00", "updated_at": "2025-07-03T20:03:46.998-04:00", "avatar": "https://avatars.slack-edge.com/2025-06-25/9126533502144_a83558a695fc3af79747_original.png", "custom_css": null}, {"id": 12398, "slack_id": "U092MSJU4LF", "display_name": "Boston", "bio": null, "projects_count": 0, "devlogs_count": 0, "votes_count": 0, "ships_count": 0, "projects": [], "coding_time_seconds": 0, "coding_time_seconds_today": 0, "balance": "You need to have a pocket watcher badge to view this.", "badges": [], "created_at": "2025-06-25T13:35:14.936-04:00", "updated_at": "2025-07-04T02:32:31.774-04:00", "avatar": "https://secure.gravatar.com/avatar/c6e8959d6454a09097dfc1fac9b839be.jpg?s=512&d=https%3A%2F%2Fa.slack-edge.com%2Fdf10d%2Fimg%2Favatars%2Fava_0004-512.png", "custom_css": null}, {"id": 12399, "slack_id": "U092MT8JLMD", "display_name": "Bidhi", "bio": null, "projects_count": 0, "devlogs_count": 0, "votes_count": 0, "ships_count": 0, "projects": [], "coding_time_seconds": 0, "coding_time_seconds_today": 0, "balance": "You need to have a pocket watcher badge to view this.", "badges": [], "created_at": "2025-06-25T13:40:53.710-04:00", "updated_at": "2025-07-06T20:14:03.426-04:00", "avatar": "https://secure.gravatar.com/avatar/13080c533990eaa922308c05c0276815.jpg?s=512&d=https%3A%2F%2Fa.slack-edge.com%2Fdf10d%2Fimg%2Favatars%2Fava_0009-512.png", "custom_css": null}, {"id": 12400, "slack_id": "U092V54475Z", "display_name": "Ulises", "bio": null, "projects_count": 0, "devlogs_count": 0, "votes_count": 0, "ships_count": 0, "projects": [], "coding_time_seconds": 0, "coding_time_seconds_today": 0, "balance": "You need to have a pocket watcher badge to view this.", "badges": [], "created_at": "2025-06-25T13:41:56.989-04:00", "updated_at": "2025-07-04T02:32:31.952-04:00", "avatar": "https://secure.gravatar.com/avatar/ec0be105cea435f6b1c61715f271eb04.jpg?s=512&d=https%3A%2F%2Fa.slack-edge.com%2Fdf10d%2Fimg%2Favatars%2Fava_0022-512.png", "custom_css": null}], "pagination": {"page": 620, "pages": 1192, "count": 23828, "items": 20}}