{"users": [{"id": 12401, "slack_id": "U0825SY0B51", "display_name": "Aayan", "bio": null, "projects_count": 0, "devlogs_count": 0, "votes_count": 0, "ships_count": 0, "projects": [], "coding_time_seconds": 0, "coding_time_seconds_today": 0, "balance": "You need to have a pocket watcher badge to view this.", "badges": [], "created_at": "2025-06-25T13:42:24.299-04:00", "updated_at": "2025-07-03T20:03:47.671-04:00", "avatar": "https://avatars.slack-edge.com/2024-12-03/8112512048611_f38f4f4aa377fb52f037_original.jpg", "custom_css": null}, {"id": 12402, "slack_id": "U092E23ETU5", "display_name": "Johnny", "bio": null, "projects_count": 3, "devlogs_count": 1, "votes_count": 1, "ships_count": 0, "projects": [{"id": 6738, "title": "Interpreter", "devlogs_count": 1, "created_at": "2025-07-15T16:35:13.199-04:00"}, {"id": 6756, "title": "Scraper", "devlogs_count": 0, "created_at": "2025-07-15T21:58:33.798-04:00"}, {"id": 6757, "title": "Obsidian Vault", "devlogs_count": 0, "created_at": "2025-07-15T21:59:26.240-04:00"}], "coding_time_seconds": 38207, "coding_time_seconds_today": 0, "balance": "You need to have a pocket watcher badge to view this.", "badges": [], "created_at": "2025-06-25T13:45:20.531-04:00", "updated_at": "2025-07-17T12:47:55.399-04:00", "avatar": "https://avatars.slack-edge.com/2025-06-25/9104083684706_88df459aab0cecf8549a_original.jpg", "custom_css": null}, {"id": 12403, "slack_id": "U093QGZE0HW", "display_name": "Fazil S", "bio": null, "projects_count": 0, "devlogs_count": 0, "votes_count": 0, "ships_count": 0, "projects": [], "coding_time_seconds": 0, "coding_time_seconds_today": 0, "balance": "You need to have a pocket watcher badge to view this.", "badges": [], "created_at": "2025-06-25T13:46:53.732-04:00", "updated_at": "2025-07-03T20:03:48.211-04:00", "avatar": "https://secure.gravatar.com/avatar/c3f81850c802f762761ff6baad9d7073.jpg?s=512&d=https%3A%2F%2Fa.slack-edge.com%2Fdf10d%2Fimg%2Favatars%2Fava_0004-512.png", "custom_css": null}, {"id": 12404, "slack_id": "U093FJTCQFK", "display_name": "SPRAYemergency", "bio": null, "projects_count": 0, "devlogs_count": 0, "votes_count": 0, "ships_count": 0, "projects": [], "coding_time_seconds": 0, "coding_time_seconds_today": 0, "balance": "You need to have a pocket watcher badge to view this.", "badges": [], "created_at": "2025-06-25T13:54:24.215-04:00", "updated_at": "2025-07-03T20:03:48.480-04:00", "avatar": "https://secure.gravatar.com/avatar/fa5ef80c25c134428a06ab43742dbdf6.jpg?s=512&d=https%3A%2F%2Fa.slack-edge.com%2Fdf10d%2Fimg%2Favatars%2Fava_0016-512.png", "custom_css": null}, {"id": 12405, "slack_id": "U091GQQRSDC", "display_name": "Trisha Agarwal", "bio": null, "projects_count": 0, "devlogs_count": 0, "votes_count": 0, "ships_count": 0, "projects": [], "coding_time_seconds": 0, "coding_time_seconds_today": 0, "balance": "You need to have a pocket watcher badge to view this.", "badges": [], "created_at": "2025-06-25T14:02:35.328-04:00", "updated_at": "2025-07-03T20:03:48.743-04:00", "avatar": "https://secure.gravatar.com/avatar/91278ae4e84be6452ffdab770bb3fccc.jpg?s=512&d=https%3A%2F%2Fa.slack-edge.com%2Fdf10d%2Fimg%2Favatars%2Fava_0007-512.png", "custom_css": null}, {"id": 12406, "slack_id": "U092N2Z8P2T", "display_name": "Lotanna", "bio": null, "projects_count": 0, "devlogs_count": 0, "votes_count": 0, "ships_count": 0, "projects": [], "coding_time_seconds": 103780, "coding_time_seconds_today": 0, "balance": "You need to have a pocket watcher badge to view this.", "badges": [], "created_at": "2025-06-25T14:12:41.856-04:00", "updated_at": "2025-07-03T20:03:49.005-04:00", "avatar": "https://secure.gravatar.com/avatar/203a574d9163ef91718c8b8c00af6101.jpg?s=512&d=https%3A%2F%2Fa.slack-edge.com%2Fdf10d%2Fimg%2Favatars%2Fava_0012-512.png", "custom_css": null}, {"id": 12407, "slack_id": "U092VBQSNHZ", "display_name": "Eric", "bio": null, "projects_count": 0, "devlogs_count": 0, "votes_count": 0, "ships_count": 0, "projects": [], "coding_time_seconds": 0, "coding_time_seconds_today": 0, "balance": "You need to have a pocket watcher badge to view this.", "badges": [], "created_at": "2025-06-25T14:14:15.825-04:00", "updated_at": "2025-07-03T20:03:49.335-04:00", "avatar": "https://secure.gravatar.com/avatar/eb0af1d21b296650ed98f25e1abaacda.jpg?s=512&d=https%3A%2F%2Fa.slack-edge.com%2Fdf10d%2Fimg%2Favatars%2Fava_0005-512.png", "custom_css": null}, {"id": 12408, "slack_id": "U092VCWBQCB", "display_name": "Account 1", "bio": null, "projects_count": 0, "devlogs_count": 0, "votes_count": 0, "ships_count": 0, "projects": [], "coding_time_seconds": 0, "coding_time_seconds_today": 0, "balance": "You need to have a pocket watcher badge to view this.", "badges": [], "created_at": "2025-06-25T14:21:16.807-04:00", "updated_at": "2025-07-03T20:03:49.599-04:00", "avatar": "https://avatars.slack-edge.com/2025-06-25/9126785682128_ba1dd34b1d36bb4b1e5a_original.png", "custom_css": null}, {"id": 12409, "slack_id": "U072XJ37NET", "display_name": "Emilio Mendoza", "bio": null, "projects_count": 0, "devlogs_count": 0, "votes_count": 0, "ships_count": 0, "projects": [], "coding_time_seconds": 67633, "coding_time_seconds_today": 0, "balance": "You need to have a pocket watcher badge to view this.", "badges": [], "created_at": "2025-06-25T14:22:30.067-04:00", "updated_at": "2025-07-08T03:04:06.447-04:00", "avatar": "https://secure.gravatar.com/avatar/99e63ad3720073b488a6eb8433e2ed11.jpg?s=512&d=https%3A%2F%2Fa.slack-edge.com%2Fdf10d%2Fimg%2Favatars%2Fava_0007-512.png", "custom_css": null}, {"id": 12410, "slack_id": "U0930CT28E9", "display_name": "Kundan Baliga", "bio": null, "projects_count": 0, "devlogs_count": 0, "votes_count": 0, "ships_count": 0, "projects": [], "coding_time_seconds": 151, "coding_time_seconds_today": 0, "balance": "You need to have a pocket watcher badge to view this.", "badges": [], "created_at": "2025-06-25T14:25:56.134-04:00", "updated_at": "2025-08-07T19:28:55.545-04:00", "avatar": "https://avatars.slack-edge.com/2025-08-07/9308712048855_4e55ca2c6bf0dccf08ba_original.png", "custom_css": null}, {"id": 12411, "slack_id": "U093378NCG4", "display_name": "Amal", "bio": null, "projects_count": 0, "devlogs_count": 0, "votes_count": 0, "ships_count": 0, "projects": [], "coding_time_seconds": 0, "coding_time_seconds_today": 0, "balance": "You need to have a pocket watcher badge to view this.", "badges": [], "created_at": "2025-06-25T14:26:27.807-04:00", "updated_at": "2025-07-03T20:03:50.267-04:00", "avatar": "https://secure.gravatar.com/avatar/66c55e9388b1f5a17db410334f9346dd.jpg?s=512&d=https%3A%2F%2Fa.slack-edge.com%2Fdf10d%2Fimg%2Favatars%2Fava_0012-512.png", "custom_css": null}, {"id": 12412, "slack_id": "U093QPED06L", "display_name": "Griffin", "bio": null, "projects_count": 0, "devlogs_count": 0, "votes_count": 0, "ships_count": 0, "projects": [], "coding_time_seconds": 0, "coding_time_seconds_today": 0, "balance": "You need to have a pocket watcher badge to view this.", "badges": [], "created_at": "2025-06-25T14:27:05.525-04:00", "updated_at": "2025-07-03T20:03:50.548-04:00", "avatar": "https://avatars.slack-edge.com/2025-06-25/9098476655299_0dd09703d271336d2d15_original.jpg", "custom_css": null}, {"id": 12413, "slack_id": "U0930LEGK53", "display_name": "Radiotbo", "bio": null, "projects_count": 0, "devlogs_count": 0, "votes_count": 0, "ships_count": 0, "projects": [], "coding_time_seconds": 0, "coding_time_seconds_today": 0, "balance": "You need to have a pocket watcher badge to view this.", "badges": [], "created_at": "2025-06-25T14:29:35.460-04:00", "updated_at": "2025-07-05T14:15:24.490-04:00", "avatar": "https://avatars.slack-edge.com/2025-06-25/9105294844612_a9869d061eb05778bb1d_original.png", "custom_css": null}, {"id": 12414, "slack_id": "U085HGVQE9F", "display_name": "Sophie", "bio": "", "projects_count": 2, "devlogs_count": 15, "votes_count": 22, "ships_count": 2, "projects": [{"id": 5536, "title": "Aurora", "devlogs_count": 14, "created_at": "2025-07-06T01:19:54.195-04:00"}, {"id": 12393, "title": "dl.mrwork.shop", "devlogs_count": 1, "created_at": "2025-08-26T18:36:20.483-04:00"}], "coding_time_seconds": 757145, "coding_time_seconds_today": 0, "balance": "You need to have a pocket watcher badge to view this.", "badges": [{"name": "Maiden Voyage", "text": "you shipped your first project! the journey begins...", "icon": "\ud83d\udea2"}, {"name": "Graphic Design is My Passion", "text": "Oh God How Did This Get Here I Am Not Good With Computer", "icon": "\ud83c\udfa8"}], "created_at": "2025-06-25T14:33:05.605-04:00", "updated_at": "2025-09-10T22:57:23.184-04:00", "avatar": "https://avatars.slack-edge.com/2025-06-11/9028062887942_ead1aeee60eb7b4d4aa5_original.png", "custom_css": ".profile-container {\r\nbackground-image: url(\"https://i.imgur.com/BJurwvd.jpeg\");\r\nbackground-position: center;\r\nbackground-size: auto;\r\n}\r\n.profile-avatar {\r\nborder: 5px solid #ebaaee;\r\n}"}, {"id": 12415, "slack_id": "U093QJ3QLP2", "display_name": "space_guitar", "bio": null, "projects_count": 0, "devlogs_count": 0, "votes_count": 0, "ships_count": 0, "projects": [], "coding_time_seconds": 0, "coding_time_seconds_today": 0, "balance": "You need to have a pocket watcher badge to view this.", "badges": [], "created_at": "2025-06-25T14:33:42.823-04:00", "updated_at": "2025-07-03T20:03:51.224-04:00", "avatar": "https://secure.gravatar.com/avatar/93e8455be58da0e0dc0f576886aa0858.jpg?s=512&d=https%3A%2F%2Fa.slack-edge.com%2Fdf10d%2Fimg%2Favatars%2Fava_0000-512.png", "custom_css": null}, {"id": 12416, "slack_id": "U0932AN3SP4", "display_name": "Joy", "bio": null, "projects_count": 0, "devlogs_count": 0, "votes_count": 0, "ships_count": 0, "projects": [], "coding_time_seconds": 0, "coding_time_seconds_today": 0, "balance": "You need to have a pocket watcher badge to view this.", "badges": [], "created_at": "2025-06-25T14:34:58.267-04:00", "updated_at": "2025-07-03T22:03:15.112-04:00", "avatar": "https://secure.gravatar.com/avatar/a5f579f7817a17b40b2110e57b4e1047.jpg?s=512&d=https%3A%2F%2Fa.slack-edge.com%2Fdf10d%2Fimg%2Favatars%2Fava_0023-512.png", "custom_css": null}, {"id": 12417, "slack_id": "U093FSJC9T3", "display_name": "kiwi", "bio": null, "projects_count": 0, "devlogs_count": 0, "votes_count": 0, "ships_count": 0, "projects": [], "coding_time_seconds": 0, "coding_time_seconds_today": 0, "balance": "You need to have a pocket watcher badge to view this.", "badges": [], "created_at": "2025-06-25T14:42:22.949-04:00", "updated_at": "2025-07-03T22:03:15.223-04:00", "avatar": "https://secure.gravatar.com/avatar/87e428fd821b03a00330849de54e0100.jpg?s=512&d=https%3A%2F%2Fa.slack-edge.com%2Fdf10d%2Fimg%2Favatars%2Fava_0015-512.png", "custom_css": null}, {"id": 12418, "slack_id": "U0930NVC1NH", "display_name": "Neil Marwah", "bio": null, "projects_count": 1, "devlogs_count": 0, "votes_count": 4, "ships_count": 0, "projects": [{"id": 7969, "title": "Shopping Cart App", "devlogs_count": 0, "created_at": "2025-07-23T21:59:57.446-04:00"}], "coding_time_seconds": 165048, "coding_time_seconds_today": 0, "balance": "You need to have a pocket watcher badge to view this.", "badges": [], "created_at": "2025-06-25T14:43:06.654-04:00", "updated_at": "2025-07-13T03:07:19.012-04:00", "avatar": "https://avatars.slack-edge.com/2025-06-25/9105364170324_b43fb2c5c2d58b532c15_original.png", "custom_css": null}, {"id": 12419, "slack_id": "U0932CKLTDG", "display_name": "Adam Koukal", "bio": null, "projects_count": 0, "devlogs_count": 0, "votes_count": 0, "ships_count": 0, "projects": [], "coding_time_seconds": 0, "coding_time_seconds_today": 0, "balance": "You need to have a pocket watcher badge to view this.", "badges": [], "created_at": "2025-06-25T14:49:30.074-04:00", "updated_at": "2025-07-03T22:03:15.401-04:00", "avatar": "https://secure.gravatar.com/avatar/14ed698ba3b0bc060002b725adfb5192.jpg?s=512&d=https%3A%2F%2Fa.slack-edge.com%2Fdf10d%2Fimg%2Favatars%2Fava_0004-512.png", "custom_css": null}, {"id": 12420, "slack_id": "U093FTVU0HX", "display_name": "Wavemaker", "bio": null, "projects_count": 0, "devlogs_count": 0, "votes_count": 0, "ships_count": 0, "projects": [], "coding_time_seconds": 0, "coding_time_seconds_today": 0, "balance": "You need to have a pocket watcher badge to view this.", "badges": [], "created_at": "2025-06-25T14:49:50.003-04:00", "updated_at": "2025-07-03T22:03:15.508-04:00", "avatar": "https://secure.gravatar.com/avatar/e1e280eb7fdf48cf624cfe1946555dae.jpg?s=512&d=https%3A%2F%2Fa.slack-edge.com%2Fdf10d%2Fimg%2Favatars%2Fava_0022-512.png", "custom_css": null}], "pagination": {"page": 621, "pages": 1192, "count": 23828, "items": 20}}