{"users": [{"id": 12421, "slack_id": "U078EGNPWAZ", "display_name": "TheSeagullDev", "bio": "code.", "projects_count": 7, "devlogs_count": 24, "votes_count": 39, "ships_count": 2, "projects": [{"id": 5725, "title": "JS Hashmap", "devlogs_count": 0, "created_at": "2025-07-07T13:29:53.624-04:00"}, {"id": 6437, "title": "JS Binary Search Tree", "devlogs_count": 0, "created_at": "2025-07-13T09:52:48.929-04:00"}, {"id": 11544, "title": "Binary bingo", "devlogs_count": 3, "created_at": "2025-08-16T22:53:01.274-04:00"}, {"id": 12045, "title": "Place", "devlogs_count": 9, "created_at": "2025-08-22T11:44:51.945-04:00"}, {"id": 13373, "title": "Personal Site", "devlogs_count": 4, "created_at": "2025-09-14T20:07:03.886-04:00"}, {"id": 10478, "title": "Svelte Todo List", "devlogs_count": 7, "created_at": "2025-08-07T11:22:47.132-04:00"}, {"id": 5291, "title": "JS Linked List", "devlogs_count": 1, "created_at": "2025-07-04T09:01:46.616-04:00"}], "coding_time_seconds": 119553, "coding_time_seconds_today": 0, "balance": "You need to have a pocket watcher badge to view this.", "badges": [{"name": "Maiden Voyage", "text": "you shipped your first project! the journey begins...", "icon": "\ud83d\udea2"}], "created_at": "2025-06-25T14:54:43.050-04:00", "updated_at": "2025-09-10T22:57:23.344-04:00", "avatar": "https://secure.gravatar.com/avatar/678724bd12bd4eff44400d9fe6cce9bb.jpg?s=512&d=https%3A%2F%2Fa.slack-edge.com%2Fdf10d%2Fimg%2Favatars%2Fava_0024-512.png", "custom_css": null}, {"id": 12422, "slack_id": "U0932DT3DEE", "display_name": "Kitsune", "bio": null, "projects_count": 0, "devlogs_count": 0, "votes_count": 1, "ships_count": 0, "projects": [], "coding_time_seconds": 0, "coding_time_seconds_today": 0, "balance": "You need to have a pocket watcher badge to view this.", "badges": [], "created_at": "2025-06-25T14:55:56.294-04:00", "updated_at": "2025-08-07T23:48:01.753-04:00", "avatar": "https://avatars.slack-edge.com/2025-06-28/9119745167314_01268bba547830e38392_original.png", "custom_css": null}, {"id": 12423, "slack_id": "U081L9SALFL", "display_name": "Zixuan Zhao", "bio": null, "projects_count": 0, "devlogs_count": 0, "votes_count": 0, "ships_count": 0, "projects": [], "coding_time_seconds": 80264, "coding_time_seconds_today": 0, "balance": "You need to have a pocket watcher badge to view this.", "badges": [], "created_at": "2025-06-25T14:57:45.709-04:00", "updated_at": "2025-07-03T20:03:52.782-04:00", "avatar": "https://secure.gravatar.com/avatar/fbfc3f6b4a67398191b92685e33a3edd.jpg?s=512&d=https%3A%2F%2Fa.slack-edge.com%2Fdf10d%2Fimg%2Favatars%2Fava_0026-512.png", "custom_css": null}, {"id": 12424, "slack_id": "U092WMBUKAS", "display_name": "mohamed", "bio": null, "projects_count": 0, "devlogs_count": 0, "votes_count": 0, "ships_count": 0, "projects": [], "coding_time_seconds": 0, "coding_time_seconds_today": 0, "balance": "You need to have a pocket watcher badge to view this.", "badges": [], "created_at": "2025-06-25T14:58:19.138-04:00", "updated_at": "2025-07-03T22:03:15.795-04:00", "avatar": "https://secure.gravatar.com/avatar/86bc0d750708d0bfb26d42255bfc22d9.jpg?s=512&d=https%3A%2F%2Fa.slack-edge.com%2Fdf10d%2Fimg%2Favatars%2Fava_0014-512.png", "custom_css": null}, {"id": 12425, "slack_id": "U093FV0J6CR", "display_name": "Kids Bergquist", "bio": null, "projects_count": 0, "devlogs_count": 0, "votes_count": 0, "ships_count": 0, "projects": [], "coding_time_seconds": 0, "coding_time_seconds_today": 0, "balance": "You need to have a pocket watcher badge to view this.", "badges": [], "created_at": "2025-06-25T15:01:12.761-04:00", "updated_at": "2025-07-06T20:14:05.561-04:00", "avatar": "https://avatars.slack-edge.com/2025-06-25/9090405575383_81eb89e77fe1a0e780ba_original.png", "custom_css": null}, {"id": 12426, "slack_id": "U0933DE7QJ0", "display_name": "Zain Nazeer", "bio": null, "projects_count": 0, "devlogs_count": 0, "votes_count": 0, "ships_count": 0, "projects": [], "coding_time_seconds": 1169, "coding_time_seconds_today": 0, "balance": "You need to have a pocket watcher badge to view this.", "badges": [], "created_at": "2025-06-25T15:02:16.577-04:00", "updated_at": "2025-07-03T22:03:15.982-04:00", "avatar": "https://secure.gravatar.com/avatar/8be8d3998b6be51d96fc404d9231d86d.jpg?s=512&d=https%3A%2F%2Fa.slack-edge.com%2Fdf10d%2Fimg%2Favatars%2Fava_0010-512.png", "custom_css": null}, {"id": 12427, "slack_id": "U07F8SSE7GV", "display_name": "Jakub", "bio": null, "projects_count": 2, "devlogs_count": 7, "votes_count": 2, "ships_count": 0, "projects": [{"id": 5183, "title": "PromptBeatAI", "devlogs_count": 2, "created_at": "2025-07-03T16:31:56.782-04:00"}, {"id": 6094, "title": "mafia-online-party-game", "devlogs_count": 5, "created_at": "2025-07-10T14:03:38.243-04:00"}], "coding_time_seconds": 368102, "coding_time_seconds_today": 0, "balance": "You need to have a pocket watcher badge to view this.", "badges": [], "created_at": "2025-06-25T15:09:03.465-04:00", "updated_at": "2025-07-17T15:05:19.540-04:00", "avatar": "https://avatars.slack-edge.com/2025-07-17/9215672847844_ab6e90c9eac911fe7549_original.jpg", "custom_css": null}, {"id": 12428, "slack_id": "U092NC6DLQP", "display_name": "Israt Jahan Tammi", "bio": null, "projects_count": 0, "devlogs_count": 0, "votes_count": 0, "ships_count": 0, "projects": [], "coding_time_seconds": 0, "coding_time_seconds_today": 0, "balance": "You need to have a pocket watcher badge to view this.", "badges": [], "created_at": "2025-06-25T15:10:05.894-04:00", "updated_at": "2025-07-04T08:28:50.080-04:00", "avatar": "https://secure.gravatar.com/avatar/77569a07db71926daaf0a4db3bc479e0.jpg?s=512&d=https%3A%2F%2Fa.slack-edge.com%2Fdf10d%2Fimg%2Favatars%2Fava_0005-512.png", "custom_css": null}, {"id": 12429, "slack_id": "U0930SBMLE9", "display_name": "Who is Toney", "bio": null, "projects_count": 0, "devlogs_count": 0, "votes_count": 0, "ships_count": 0, "projects": [], "coding_time_seconds": 0, "coding_time_seconds_today": 0, "balance": "You need to have a pocket watcher badge to view this.", "badges": [], "created_at": "2025-06-25T15:16:56.741-04:00", "updated_at": "2025-07-05T02:13:50.515-04:00", "avatar": "https://avatars.slack-edge.com/2025-06-25/9102975844021_94837756b0ae5f467cde_original.jpg", "custom_css": null}, {"id": 12430, "slack_id": "U0933K1JXJQ", "display_name": "Infireux", "bio": null, "projects_count": 0, "devlogs_count": 0, "votes_count": 0, "ships_count": 0, "projects": [], "coding_time_seconds": 0, "coding_time_seconds_today": 0, "balance": "You need to have a pocket watcher badge to view this.", "badges": [], "created_at": "2025-06-25T15:38:07.641-04:00", "updated_at": "2025-07-03T20:03:54.004-04:00", "avatar": "https://secure.gravatar.com/avatar/adf54142f6d60208ce15e1fbb15f5efa.jpg?s=512&d=https%3A%2F%2Fa.slack-edge.com%2Fdf10d%2Fimg%2Favatars%2Fava_0010-512.png", "custom_css": null}, {"id": 12431, "slack_id": "U06LSVCCTJ5", "display_name": "Crllect", "bio": null, "projects_count": 0, "devlogs_count": 0, "votes_count": 0, "ships_count": 0, "projects": [], "coding_time_seconds": 0, "coding_time_seconds_today": 0, "balance": "You need to have a pocket watcher badge to view this.", "badges": [], "created_at": "2025-06-25T15:41:04.065-04:00", "updated_at": "2025-07-04T08:28:51.191-04:00", "avatar": "https://avatars.slack-edge.com/2024-02-24/6698211923892_b27ca1fedf9c7964a5c0_original.png", "custom_css": null}, {"id": 12432, "slack_id": "U093R37QSQ0", "display_name": "Arthur Des Ligneris", "bio": null, "projects_count": 0, "devlogs_count": 0, "votes_count": 0, "ships_count": 0, "projects": [], "coding_time_seconds": 0, "coding_time_seconds_today": 0, "balance": "You need to have a pocket watcher badge to view this.", "badges": [], "created_at": "2025-06-25T16:03:46.600-04:00", "updated_at": "2025-07-03T20:03:54.408-04:00", "avatar": "https://avatars.slack-edge.com/2025-06-25/9098026711363_c12102937837e71978b3_original.png", "custom_css": null}, {"id": 12433, "slack_id": "U093FTQEDJM", "display_name": "Jos\u00e9 \u00c1ngel Garc\u00eda", "bio": null, "projects_count": 0, "devlogs_count": 0, "votes_count": 0, "ships_count": 0, "projects": [], "coding_time_seconds": 0, "coding_time_seconds_today": 0, "balance": "You need to have a pocket watcher badge to view this.", "badges": [], "created_at": "2025-06-25T16:06:08.234-04:00", "updated_at": "2025-07-03T20:03:54.687-04:00", "avatar": "https://avatars.slack-edge.com/2025-06-25/9099111925318_22a291181da07a672048_original.jpg", "custom_css": null}, {"id": 12434, "slack_id": "U0932TUFXT4", "display_name": "amarachi okoli", "bio": null, "projects_count": 1, "devlogs_count": 1, "votes_count": 6, "ships_count": 1, "projects": [{"id": 3795, "title": "Book Tracker", "devlogs_count": 1, "created_at": "2025-06-25T19:32:04.594-04:00"}], "coding_time_seconds": 29797, "coding_time_seconds_today": 0, "balance": "You need to have a pocket watcher badge to view this.", "badges": [{"name": "Maiden Voyage", "text": "you shipped your first project! the journey begins...", "icon": "\ud83d\udea2"}], "created_at": "2025-06-25T16:23:49.479-04:00", "updated_at": "2025-09-10T22:57:23.700-04:00", "avatar": "https://secure.gravatar.com/avatar/6917f5a4a63c0dda3fe7e10f0a51be1e.jpg?s=512&d=https%3A%2F%2Fa.slack-edge.com%2Fdf10d%2Fimg%2Favatars%2Fava_0005-512.png", "custom_css": null}, {"id": 12435, "slack_id": "U08MHAAMNMD", "display_name": "elliotanderson", "bio": null, "projects_count": 0, "devlogs_count": 16, "votes_count": 49, "ships_count": 0, "projects": [], "coding_time_seconds": 157071, "coding_time_seconds_today": 0, "balance": "You need to have a pocket watcher badge to view this.", "badges": [{"name": "Maiden Voyage", "text": "you shipped your first project! the journey begins...", "icon": "\ud83d\udea2"}], "created_at": "2025-06-25T16:25:29.157-04:00", "updated_at": "2025-09-10T22:57:23.736-04:00", "avatar": "https://avatars.slack-edge.com/2025-04-12/8749245922804_dac6dc6f84787fb59a01_original.jpg", "custom_css": null}, {"id": 12436, "slack_id": "U093188S65B", "display_name": "Wadee\u2019 Muhareb", "bio": null, "projects_count": 0, "devlogs_count": 0, "votes_count": 0, "ships_count": 0, "projects": [], "coding_time_seconds": 0, "coding_time_seconds_today": 0, "balance": "You need to have a pocket watcher badge to view this.", "badges": [], "created_at": "2025-06-25T16:25:38.055-04:00", "updated_at": "2025-07-03T20:03:55.507-04:00", "avatar": "https://secure.gravatar.com/avatar/fa23949e326c58f29098976887538998.jpg?s=512&d=https%3A%2F%2Fa.slack-edge.com%2Fdf10d%2Fimg%2Favatars%2Fava_0018-512.png", "custom_css": null}, {"id": 12437, "slack_id": "U0799FE1R89", "display_name": "Adam", "bio": null, "projects_count": 1, "devlogs_count": 2, "votes_count": 0, "ships_count": 0, "projects": [{"id": 6675, "title": "Wordle in Slack", "devlogs_count": 2, "created_at": "2025-07-15T02:53:09.471-04:00"}], "coding_time_seconds": 48790, "coding_time_seconds_today": 0, "balance": "You need to have a pocket watcher badge to view this.", "badges": [], "created_at": "2025-06-25T16:27:06.531-04:00", "updated_at": "2025-07-09T21:52:22.365-04:00", "avatar": "https://avatars.slack-edge.com/2024-06-19/7296227996854_7fe3e4943246194f9710_original.png", "custom_css": null}, {"id": 12438, "slack_id": "U093RD4SS0G", "display_name": "Aniket Mishra", "bio": null, "projects_count": 0, "devlogs_count": 0, "votes_count": 0, "ships_count": 0, "projects": [], "coding_time_seconds": 49853, "coding_time_seconds_today": 0, "balance": "You need to have a pocket watcher badge to view this.", "badges": [], "created_at": "2025-06-25T16:35:26.251-04:00", "updated_at": "2025-07-05T20:14:16.267-04:00", "avatar": "https://avatars.slack-edge.com/2025-06-25/9127469852720_fca9a0adcf8c6e05fc98_original.png", "custom_css": null}, {"id": 12439, "slack_id": "U092X7ZS7GW", "display_name": "manar", "bio": null, "projects_count": 0, "devlogs_count": 0, "votes_count": 0, "ships_count": 0, "projects": [], "coding_time_seconds": 0, "coding_time_seconds_today": 0, "balance": "You need to have a pocket watcher badge to view this.", "badges": [], "created_at": "2025-06-25T16:42:35.405-04:00", "updated_at": "2025-07-03T20:03:56.062-04:00", "avatar": "https://secure.gravatar.com/avatar/24ae2f24563d2d7af1f50fdd925b8936.jpg?s=512&d=https%3A%2F%2Fa.slack-edge.com%2Fdf10d%2Fimg%2Favatars%2Fava_0007-512.png", "custom_css": null}, {"id": 12440, "slack_id": "U077AAQA6NQ", "display_name": "Angel Redic", "bio": null, "projects_count": 0, "devlogs_count": 0, "votes_count": 0, "ships_count": 0, "projects": [], "coding_time_seconds": 0, "coding_time_seconds_today": 0, "balance": "You need to have a pocket watcher badge to view this.", "badges": [], "created_at": "2025-06-25T16:43:52.186-04:00", "updated_at": "2025-07-03T20:03:56.318-04:00", "avatar": "https://secure.gravatar.com/avatar/afafe7990e66cba0d4d93fc566d05f45.jpg?s=512&d=https%3A%2F%2Fa.slack-edge.com%2Fdf10d%2Fimg%2Favatars%2Fava_0011-512.png", "custom_css": null}], "pagination": {"page": 622, "pages": 1192, "count": 23828, "items": 20}}