{"users": [{"id": 12441, "slack_id": "U09340H2LEQ", "display_name": "Jerry", "bio": null, "projects_count": 0, "devlogs_count": 0, "votes_count": 0, "ships_count": 0, "projects": [], "coding_time_seconds": 0, "coding_time_seconds_today": 0, "balance": "You need to have a pocket watcher badge to view this.", "badges": [], "created_at": "2025-06-25T16:51:01.417-04:00", "updated_at": "2025-07-04T02:32:34.718-04:00", "avatar": "https://secure.gravatar.com/avatar/a9d8dcf16a233ba3a6416271c8eda91a.jpg?s=512&d=https%3A%2F%2Fa.slack-edge.com%2Fdf10d%2Fimg%2Favatars%2Fava_0021-512.png", "custom_css": null}, {"id": 12442, "slack_id": "U070D1H9BNX", "display_name": "HildingL", "bio": null, "projects_count": 0, "devlogs_count": 0, "votes_count": 0, "ships_count": 0, "projects": [], "coding_time_seconds": 0, "coding_time_seconds_today": 0, "balance": "You need to have a pocket watcher badge to view this.", "badges": [], "created_at": "2025-06-25T16:53:28.149-04:00", "updated_at": "2025-07-03T20:03:56.714-04:00", "avatar": "https://avatars.slack-edge.com/2025-01-20/8323725824052_a59fdec0e17d423f76d4_original.jpg", "custom_css": null}, {"id": 12443, "slack_id": "U09331ED3EW", "display_name": "SC", "bio": null, "projects_count": 0, "devlogs_count": 0, "votes_count": 0, "ships_count": 0, "projects": [], "coding_time_seconds": 0, "coding_time_seconds_today": 0, "balance": "You need to have a pocket watcher badge to view this.", "badges": [], "created_at": "2025-06-25T16:54:10.717-04:00", "updated_at": "2025-07-03T20:03:56.978-04:00", "avatar": "https://avatars.slack-edge.com/2025-06-25/9127555706016_6f9f27f2bef005a15b67_original.png", "custom_css": null}, {"id": 12444, "slack_id": "U093RHX7P40", "display_name": "Vulcannyx", "bio": null, "projects_count": 0, "devlogs_count": 0, "votes_count": 0, "ships_count": 0, "projects": [], "coding_time_seconds": 0, "coding_time_seconds_today": 0, "balance": "You need to have a pocket watcher badge to view this.", "badges": [], "created_at": "2025-06-25T17:16:02.949-04:00", "updated_at": "2025-07-06T08:13:20.709-04:00", "avatar": "https://secure.gravatar.com/avatar/4787f242669f63836bb5a327e1922d57.jpg?s=512&d=https%3A%2F%2Fa.slack-edge.com%2Fdf10d%2Fimg%2Favatars%2Fava_0019-512.png", "custom_css": null}, {"id": 12445, "slack_id": "U091LJZ31LN", "display_name": "3ls3if", "bio": null, "projects_count": 0, "devlogs_count": 0, "votes_count": 0, "ships_count": 0, "projects": [], "coding_time_seconds": 0, "coding_time_seconds_today": 0, "balance": "You need to have a pocket watcher badge to view this.", "badges": [], "created_at": "2025-06-25T17:17:56.718-04:00", "updated_at": "2025-07-03T20:03:57.379-04:00", "avatar": "https://secure.gravatar.com/avatar/9646e0e4abb24a17a46f4965123571fa.jpg?s=512&d=https%3A%2F%2Fa.slack-edge.com%2Fdf10d%2Fimg%2Favatars%2Fava_0022-512.png", "custom_css": null}, {"id": 12446, "slack_id": "U092P2FKY6B", "display_name": "Adrien Le Niniven", "bio": null, "projects_count": 0, "devlogs_count": 0, "votes_count": 0, "ships_count": 0, "projects": [], "coding_time_seconds": 0, "coding_time_seconds_today": 0, "balance": "You need to have a pocket watcher badge to view this.", "badges": [], "created_at": "2025-06-25T17:19:59.453-04:00", "updated_at": "2025-07-03T20:03:57.648-04:00", "avatar": "https://secure.gravatar.com/avatar/44581fcc95116694066cfb4cb8033c5f.jpg?s=512&d=https%3A%2F%2Fa.slack-edge.com%2Fdf10d%2Fimg%2Favatars%2Fava_0002-512.png", "custom_css": null}, {"id": 12447, "slack_id": "U093673JBTK", "display_name": "Rowey Paglinawan", "bio": null, "projects_count": 0, "devlogs_count": 0, "votes_count": 0, "ships_count": 0, "projects": [], "coding_time_seconds": 0, "coding_time_seconds_today": 0, "balance": "You need to have a pocket watcher badge to view this.", "badges": [], "created_at": "2025-06-25T17:21:08.991-04:00", "updated_at": "2025-09-19T13:04:15.012-04:00", "avatar": "https://avatars.slack-edge.com/2025-09-20/9547585328181_c9c477a998496a6658a4_original.png", "custom_css": null}, {"id": 12448, "slack_id": "U0866U3MS8L", "display_name": "Lezetho", "bio": null, "projects_count": 1, "devlogs_count": 0, "votes_count": 0, "ships_count": 0, "projects": [{"id": 3959, "title": "ptdlmanage", "devlogs_count": 0, "created_at": "2025-06-26T14:03:32.261-04:00"}], "coding_time_seconds": 8489, "coding_time_seconds_today": 0, "balance": "You need to have a pocket watcher badge to view this.", "badges": [], "created_at": "2025-06-25T17:24:53.712-04:00", "updated_at": "2025-07-30T21:04:34.359-04:00", "avatar": "https://avatars.slack-edge.com/2025-07-30/9278312294482_fbb85db561d88c21670d_original.png", "custom_css": null}, {"id": 12449, "slack_id": "U08DJKA5A4C", "display_name": "Isaac Levesque", "bio": null, "projects_count": 0, "devlogs_count": 0, "votes_count": 0, "ships_count": 0, "projects": [], "coding_time_seconds": 0, "coding_time_seconds_today": 0, "balance": "You need to have a pocket watcher badge to view this.", "badges": [], "created_at": "2025-06-25T17:28:41.988-04:00", "updated_at": "2025-07-03T20:03:58.378-04:00", "avatar": "https://secure.gravatar.com/avatar/8c5f4fb63d615d044438c594ecc299dc.jpg?s=512&d=https%3A%2F%2Fa.slack-edge.com%2Fdf10d%2Fimg%2Favatars%2Fava_0004-512.png", "custom_css": null}, {"id": 12450, "slack_id": "U092XEV7QCE", "display_name": "Paul", "bio": null, "projects_count": 1, "devlogs_count": 3, "votes_count": 0, "ships_count": 0, "projects": [{"id": 3887, "title": "Mandelbrot Explorer", "devlogs_count": 3, "created_at": "2025-06-26T06:01:56.341-04:00"}], "coding_time_seconds": 162846, "coding_time_seconds_today": 0, "balance": "You need to have a pocket watcher badge to view this.", "badges": [], "created_at": "2025-06-25T17:32:52.877-04:00", "updated_at": "2025-07-04T02:32:35.346-04:00", "avatar": "https://secure.gravatar.com/avatar/d771b80127c29abf5c0aa5ecffcee8a3.jpg?s=512&d=https%3A%2F%2Fa.slack-edge.com%2Fdf10d%2Fimg%2Favatars%2Fava_0009-512.png", "custom_css": null}, {"id": 12451, "slack_id": "U092WE3DBNX", "display_name": "teddy", "bio": null, "projects_count": 0, "devlogs_count": 0, "votes_count": 0, "ships_count": 0, "projects": [], "coding_time_seconds": 0, "coding_time_seconds_today": 0, "balance": "You need to have a pocket watcher badge to view this.", "badges": [], "created_at": "2025-06-25T17:41:59.361-04:00", "updated_at": "2025-07-03T20:03:58.783-04:00", "avatar": "https://secure.gravatar.com/avatar/a112edaf20ae2d63ab5c51c43928d5b2.jpg?s=512&d=https%3A%2F%2Fa.slack-edge.com%2Fdf10d%2Fimg%2Favatars%2Fava_0017-512.png", "custom_css": null}, {"id": 12452, "slack_id": "U092XHMG5RC", "display_name": "Maryam", "bio": null, "projects_count": 0, "devlogs_count": 0, "votes_count": 0, "ships_count": 0, "projects": [], "coding_time_seconds": 0, "coding_time_seconds_today": 0, "balance": "You need to have a pocket watcher badge to view this.", "badges": [], "created_at": "2025-06-25T17:57:42.646-04:00", "updated_at": "2025-07-03T20:03:59.056-04:00", "avatar": "https://secure.gravatar.com/avatar/7e5cc257cf86102449c2adb83cb2fdeb.jpg?s=512&d=https%3A%2F%2Fa.slack-edge.com%2Fdf10d%2Fimg%2Favatars%2Fava_0007-512.png", "custom_css": null}, {"id": 12453, "slack_id": "U092JG0FCET", "display_name": "Sage M", "bio": null, "projects_count": 0, "devlogs_count": 0, "votes_count": 0, "ships_count": 0, "projects": [], "coding_time_seconds": 0, "coding_time_seconds_today": 0, "balance": "You need to have a pocket watcher badge to view this.", "badges": [], "created_at": "2025-06-25T18:00:28.328-04:00", "updated_at": "2025-07-03T20:03:59.314-04:00", "avatar": "https://avatars.slack-edge.com/2025-06-25/9104150065077_a53462688768ea93056d_original.jpg", "custom_css": null}, {"id": 12454, "slack_id": "U092P84N8KH", "display_name": "Aarush Tripathi", "bio": null, "projects_count": 0, "devlogs_count": 0, "votes_count": 0, "ships_count": 0, "projects": [], "coding_time_seconds": 0, "coding_time_seconds_today": 0, "balance": "You need to have a pocket watcher badge to view this.", "badges": [], "created_at": "2025-06-25T18:07:19.903-04:00", "updated_at": "2025-07-04T08:28:53.037-04:00", "avatar": "https://secure.gravatar.com/avatar/9964dc46c92df3ec37efe54db2d41636.jpg?s=512&d=https%3A%2F%2Fa.slack-edge.com%2Fdf10d%2Fimg%2Favatars%2Fava_0015-512.png", "custom_css": null}, {"id": 12455, "slack_id": "U093RQZ77T2", "display_name": "Jason", "bio": null, "projects_count": 0, "devlogs_count": 0, "votes_count": 0, "ships_count": 0, "projects": [], "coding_time_seconds": 0, "coding_time_seconds_today": 0, "balance": "You need to have a pocket watcher badge to view this.", "badges": [], "created_at": "2025-06-25T18:10:19.482-04:00", "updated_at": "2025-07-03T20:03:59.718-04:00", "avatar": "https://secure.gravatar.com/avatar/8561c146c1ed0dfa78f1ae2f6c0a09d8.jpg?s=512&d=https%3A%2F%2Fa.slack-edge.com%2Fdf10d%2Fimg%2Favatars%2Fava_0004-512.png", "custom_css": null}, {"id": 12456, "slack_id": "U091K9S2PAS", "display_name": "Brendan", "bio": null, "projects_count": 0, "devlogs_count": 0, "votes_count": 0, "ships_count": 0, "projects": [], "coding_time_seconds": 0, "coding_time_seconds_today": 0, "balance": "You need to have a pocket watcher badge to view this.", "badges": [], "created_at": "2025-06-25T18:15:22.150-04:00", "updated_at": "2025-07-03T20:03:59.986-04:00", "avatar": "https://secure.gravatar.com/avatar/7d105abc4b82f4a31cfa09ecc6d22495.jpg?s=512&d=https%3A%2F%2Fa.slack-edge.com%2Fdf10d%2Fimg%2Favatars%2Fava_0025-512.png", "custom_css": null}, {"id": 12457, "slack_id": "U08U0CDGR2M", "display_name": "Nina_Teck", "bio": null, "projects_count": 2, "devlogs_count": 4, "votes_count": 2, "ships_count": 0, "projects": [{"id": 4227, "title": "BubbleOS", "devlogs_count": 3, "created_at": "2025-06-28T10:02:29.393-04:00"}, {"id": 5496, "title": "Axo clean up", "devlogs_count": 1, "created_at": "2025-07-05T17:48:14.143-04:00"}], "coding_time_seconds": 10161, "coding_time_seconds_today": 0, "balance": "You need to have a pocket watcher badge to view this.", "badges": [], "created_at": "2025-06-25T18:34:52.569-04:00", "updated_at": "2025-07-05T17:19:20.318-04:00", "avatar": "https://avatars.slack-edge.com/2025-06-25/9106416711764_51b804e4f466c173b434_original.png", "custom_css": null}, {"id": 12458, "slack_id": "U07A14ZDTEY", "display_name": "oreo", "bio": null, "projects_count": 1, "devlogs_count": 0, "votes_count": 1, "ships_count": 0, "projects": [{"id": 5230, "title": "Personal Portfolio", "devlogs_count": 0, "created_at": "2025-07-03T22:15:50.770-04:00"}], "coding_time_seconds": 43761, "coding_time_seconds_today": 0, "balance": "You need to have a pocket watcher badge to view this.", "badges": [], "created_at": "2025-06-25T18:36:05.234-04:00", "updated_at": "2025-09-05T13:47:40.837-04:00", "avatar": "https://avatars.slack-edge.com/2025-06-26/9105360528054_63596900cb47a65351c7_original.jpg", "custom_css": null}, {"id": 12459, "slack_id": "U093RTPBQ6L", "display_name": "hackerbcy52", "bio": null, "projects_count": 0, "devlogs_count": 0, "votes_count": 0, "ships_count": 0, "projects": [], "coding_time_seconds": 0, "coding_time_seconds_today": 0, "balance": "You need to have a pocket watcher badge to view this.", "badges": [], "created_at": "2025-06-25T18:40:10.611-04:00", "updated_at": "2025-07-04T08:28:53.456-04:00", "avatar": "https://secure.gravatar.com/avatar/e9cfb56ebf5bd9c1a789c8f024c463c0.jpg?s=512&d=https%3A%2F%2Fa.slack-edge.com%2Fdf10d%2Fimg%2Favatars%2Fava_0001-512.png", "custom_css": null}, {"id": 12460, "slack_id": "U079ASWN7P1", "display_name": "swarage", "bio": null, "projects_count": 0, "devlogs_count": 0, "votes_count": 0, "ships_count": 0, "projects": [], "coding_time_seconds": 0, "coding_time_seconds_today": 0, "balance": "You need to have a pocket watcher badge to view this.", "badges": [], "created_at": "2025-06-25T18:48:34.638-04:00", "updated_at": "2025-07-03T22:03:18.247-04:00", "avatar": "https://avatars.slack-edge.com/2025-01-22/8329759073365_9e29c25f0505fe554e3f_original.png", "custom_css": null}], "pagination": {"page": 623, "pages": 1192, "count": 23828, "items": 20}}