{"users": [{"id": 12461, "slack_id": "U092RRJDGJ0", "display_name": "Zain Konadu", "bio": null, "projects_count": 0, "devlogs_count": 0, "votes_count": 0, "ships_count": 0, "projects": [], "coding_time_seconds": 0, "coding_time_seconds_today": 0, "balance": "You need to have a pocket watcher badge to view this.", "badges": [], "created_at": "2025-06-25T19:08:05.700-04:00", "updated_at": "2025-07-03T20:04:00.931-04:00", "avatar": "https://secure.gravatar.com/avatar/f8cc34bdc1fc79d217917ad6a39450c7.jpg?s=512&d=https%3A%2F%2Fa.slack-edge.com%2Fdf10d%2Fimg%2Favatars%2Fava_0017-512.png", "custom_css": null}, {"id": 12462, "slack_id": "U092NGLNWG1", "display_name": "Gabriel Cerdeira", "bio": null, "projects_count": 0, "devlogs_count": 0, "votes_count": 0, "ships_count": 0, "projects": [], "coding_time_seconds": 0, "coding_time_seconds_today": 0, "balance": "You need to have a pocket watcher badge to view this.", "badges": [], "created_at": "2025-06-25T19:13:29.262-04:00", "updated_at": "2025-07-03T20:04:01.183-04:00", "avatar": "https://secure.gravatar.com/avatar/adc0d51db2b4956e81581fd70117f297.jpg?s=512&d=https%3A%2F%2Fa.slack-edge.com%2Fdf10d%2Fimg%2Favatars%2Fava_0000-512.png", "custom_css": null}, {"id": 12463, "slack_id": "U093S1NE8UQ", "display_name": "kwabena", "bio": null, "projects_count": 0, "devlogs_count": 0, "votes_count": 0, "ships_count": 0, "projects": [], "coding_time_seconds": 0, "coding_time_seconds_today": 0, "balance": "You need to have a pocket watcher badge to view this.", "badges": [], "created_at": "2025-06-25T19:20:30.339-04:00", "updated_at": "2025-07-03T20:04:01.451-04:00", "avatar": "https://secure.gravatar.com/avatar/8f2233a599a7dc5952dfec1499fb8ae6.jpg?s=512&d=https%3A%2F%2Fa.slack-edge.com%2Fdf10d%2Fimg%2Favatars%2Fava_0002-512.png", "custom_css": null}, {"id": 12464, "slack_id": "U092PF52WB1", "display_name": "Marcus Costa", "bio": null, "projects_count": 0, "devlogs_count": 0, "votes_count": 0, "ships_count": 0, "projects": [], "coding_time_seconds": 0, "coding_time_seconds_today": 0, "balance": "You need to have a pocket watcher badge to view this.", "badges": [], "created_at": "2025-06-25T19:20:47.534-04:00", "updated_at": "2025-07-03T20:04:01.720-04:00", "avatar": "https://secure.gravatar.com/avatar/fcb3d077f1575fd0ab9d4782bccf6a81.jpg?s=512&d=https%3A%2F%2Fa.slack-edge.com%2Fdf10d%2Fimg%2Favatars%2Fava_0014-512.png", "custom_css": null}, {"id": 12465, "slack_id": "U0923BS24L9", "display_name": "Mohamed Nour Elkady", "bio": null, "projects_count": 0, "devlogs_count": 0, "votes_count": 0, "ships_count": 0, "projects": [], "coding_time_seconds": 0, "coding_time_seconds_today": 0, "balance": "You need to have a pocket watcher badge to view this.", "badges": [], "created_at": "2025-06-25T19:36:08.826-04:00", "updated_at": "2025-07-03T20:04:01.999-04:00", "avatar": "https://secure.gravatar.com/avatar/1f3a5cc548a59ad06791934d6ad0efad.jpg?s=512&d=https%3A%2F%2Fa.slack-edge.com%2Fdf10d%2Fimg%2Favatars%2Fava_0005-512.png", "custom_css": null}, {"id": 12466, "slack_id": "U0933NWLX34", "display_name": "Chelsea", "bio": null, "projects_count": 0, "devlogs_count": 0, "votes_count": 1, "ships_count": 0, "projects": [], "coding_time_seconds": 878, "coding_time_seconds_today": 0, "balance": "You need to have a pocket watcher badge to view this.", "badges": [], "created_at": "2025-06-25T19:46:25.017-04:00", "updated_at": "2025-08-09T22:01:58.273-04:00", "avatar": "https://avatars.slack-edge.com/2025-07-12/9187970618530_cb03adeb1d7a74bc32fa_original.jpg", "custom_css": null}, {"id": 12467, "slack_id": "U078J017TSP", "display_name": "Slavik", "bio": null, "projects_count": 1, "devlogs_count": 0, "votes_count": 0, "ships_count": 0, "projects": [{"id": 3804, "title": "Ecommerce Website", "devlogs_count": 0, "created_at": "2025-06-25T20:34:03.379-04:00"}], "coding_time_seconds": 19972, "coding_time_seconds_today": 0, "balance": "You need to have a pocket watcher badge to view this.", "badges": [], "created_at": "2025-06-25T19:58:04.109-04:00", "updated_at": "2025-07-04T08:28:54.048-04:00", "avatar": "https://secure.gravatar.com/avatar/41e1a935baa9ac67475cc8e9b8b7c800.jpg?s=512&d=https%3A%2F%2Fa.slack-edge.com%2Fdf10d%2Fimg%2Favatars%2Fava_0011-512.png", "custom_css": null}, {"id": 12468, "slack_id": "U092REPV5NG", "display_name": "Lucas", "bio": null, "projects_count": 3, "devlogs_count": 18, "votes_count": 30, "ships_count": 2, "projects": [{"id": 5768, "title": "21-Companion", "devlogs_count": 5, "created_at": "2025-07-07T20:38:36.700-04:00"}, {"id": 7201, "title": "IntoTheDeep-OpenSourceClaw", "devlogs_count": 8, "created_at": "2025-07-19T22:16:03.994-04:00"}, {"id": 3805, "title": "Similar Size To", "devlogs_count": 5, "created_at": "2025-06-25T20:36:31.208-04:00"}], "coding_time_seconds": 101241, "coding_time_seconds_today": 0, "balance": "You need to have a pocket watcher badge to view this.", "badges": [{"name": "Maiden Voyage", "text": "you shipped your first project! the journey begins...", "icon": "\ud83d\udea2"}], "created_at": "2025-06-25T20:08:35.568-04:00", "updated_at": "2025-09-10T22:57:24.695-04:00", "avatar": "https://secure.gravatar.com/avatar/8c29acce88b78920720b360c90452dd6.jpg?s=512&d=https%3A%2F%2Fa.slack-edge.com%2Fdf10d%2Fimg%2Favatars%2Fava_0000-512.png", "custom_css": null}, {"id": 12469, "slack_id": "U092Y0LQELE", "display_name": "Fish", "bio": null, "projects_count": 0, "devlogs_count": 0, "votes_count": 0, "ships_count": 0, "projects": [], "coding_time_seconds": 0, "coding_time_seconds_today": 0, "balance": "You need to have a pocket watcher badge to view this.", "badges": [], "created_at": "2025-06-25T20:08:48.652-04:00", "updated_at": "2025-08-14T20:33:31.165-04:00", "avatar": "https://secure.gravatar.com/avatar/fcdf580334e13b6ce51ef36bc8dccf6b.jpg?s=512&d=https%3A%2F%2Fa.slack-edge.com%2Fdf10d%2Fimg%2Favatars%2Fava_0012-512.png", "custom_css": null}, {"id": 12470, "slack_id": "U092X0X5HJ7", "display_name": "nassim", "bio": null, "projects_count": 0, "devlogs_count": 0, "votes_count": 0, "ships_count": 0, "projects": [], "coding_time_seconds": 0, "coding_time_seconds_today": 0, "balance": "You need to have a pocket watcher badge to view this.", "badges": [], "created_at": "2025-06-25T20:25:09.088-04:00", "updated_at": "2025-07-03T20:04:03.086-04:00", "avatar": "https://secure.gravatar.com/avatar/68f77eab167c8b19b167eb2237d742a4.jpg?s=512&d=https%3A%2F%2Fa.slack-edge.com%2Fdf10d%2Fimg%2Favatars%2Fava_0023-512.png", "custom_css": null}, {"id": 12471, "slack_id": "U093S8P47Q8", "display_name": "Thomas Rivas", "bio": null, "projects_count": 0, "devlogs_count": 0, "votes_count": 0, "ships_count": 0, "projects": [], "coding_time_seconds": 151, "coding_time_seconds_today": 0, "balance": "You need to have a pocket watcher badge to view this.", "badges": [], "created_at": "2025-06-25T20:38:32.477-04:00", "updated_at": "2025-07-08T09:31:11.178-04:00", "avatar": "https://avatars.slack-edge.com/2025-06-25/9119372303521_f70f9e4477f876b28842_original.png", "custom_css": null}, {"id": 12472, "slack_id": "U092VVDESN6", "display_name": "Joker", "bio": null, "projects_count": 0, "devlogs_count": 0, "votes_count": 0, "ships_count": 0, "projects": [], "coding_time_seconds": 0, "coding_time_seconds_today": 0, "balance": "You need to have a pocket watcher badge to view this.", "badges": [], "created_at": "2025-06-25T20:45:16.737-04:00", "updated_at": "2025-07-03T20:04:03.478-04:00", "avatar": "https://secure.gravatar.com/avatar/9ce9ce4347fe22bfe519299d2c32ff1c.jpg?s=512&d=https%3A%2F%2Fa.slack-edge.com%2Fdf10d%2Fimg%2Favatars%2Fava_0014-512.png", "custom_css": null}, {"id": 12473, "slack_id": "U084PC0SD6H", "display_name": "Aaditya S", "bio": null, "projects_count": 0, "devlogs_count": 31, "votes_count": 166, "ships_count": 0, "projects": [], "coding_time_seconds": 347896, "coding_time_seconds_today": 0, "balance": "You need to have a pocket watcher badge to view this.", "badges": [{"name": "Maiden Voyage", "text": "you shipped your first project! the journey begins...", "icon": "\ud83d\udea2"}, {"name": "Ballot Stuffer", "text": "vote 100 times.", "icon": "https://summer.hackclub.com/assets/i_voted-bf851b48.png"}], "created_at": "2025-06-25T21:07:03.412-04:00", "updated_at": "2025-09-15T17:52:51.254-04:00", "avatar": "https://avatars.slack-edge.com/2024-12-11/8147752224151_053cd61b56b0a8816606_original.png", "custom_css": null}, {"id": 12474, "slack_id": "U092V9V9LCW", "display_name": "Hau-Cheng Peng", "bio": null, "projects_count": 0, "devlogs_count": 0, "votes_count": 0, "ships_count": 0, "projects": [], "coding_time_seconds": 0, "coding_time_seconds_today": 0, "balance": "You need to have a pocket watcher badge to view this.", "badges": [], "created_at": "2025-06-25T21:20:28.181-04:00", "updated_at": "2025-07-03T20:04:04.005-04:00", "avatar": "https://secure.gravatar.com/avatar/be3e42f0383a387198415ec2c15481a2.jpg?s=512&d=https%3A%2F%2Fa.slack-edge.com%2Fdf10d%2Fimg%2Favatars%2Fava_0008-512.png", "custom_css": null}, {"id": 12475, "slack_id": "U0932AFJNP7", "display_name": "Joshua Kwizera", "bio": null, "projects_count": 0, "devlogs_count": 0, "votes_count": 0, "ships_count": 0, "projects": [], "coding_time_seconds": 0, "coding_time_seconds_today": 0, "balance": "You need to have a pocket watcher badge to view this.", "badges": [], "created_at": "2025-06-25T21:47:54.224-04:00", "updated_at": "2025-07-03T20:04:04.271-04:00", "avatar": "https://secure.gravatar.com/avatar/67497b8067ff1f7a6032b4655dd27579.jpg?s=512&d=https%3A%2F%2Fa.slack-edge.com%2Fdf10d%2Fimg%2Favatars%2Fava_0019-512.png", "custom_css": null}, {"id": 12476, "slack_id": "U08JFQN4T29", "display_name": "markalmax", "bio": null, "projects_count": 0, "devlogs_count": 0, "votes_count": 0, "ships_count": 0, "projects": [], "coding_time_seconds": 20696, "coding_time_seconds_today": 9525, "balance": "You need to have a pocket watcher badge to view this.", "badges": [], "created_at": "2025-06-25T22:26:46.224-04:00", "updated_at": "2025-07-06T14:13:38.787-04:00", "avatar": "https://avatars.slack-edge.com/2025-05-14/8888454358806_0c7359542605f8a40eac_original.jpg", "custom_css": null}, {"id": 12477, "slack_id": "U092Q3TMBCP", "display_name": "yuvraj singh nirwan", "bio": null, "projects_count": 0, "devlogs_count": 0, "votes_count": 0, "ships_count": 0, "projects": [], "coding_time_seconds": 2046, "coding_time_seconds_today": 0, "balance": "You need to have a pocket watcher badge to view this.", "badges": [], "created_at": "2025-06-25T22:34:57.007-04:00", "updated_at": "2025-07-03T20:04:04.668-04:00", "avatar": "https://secure.gravatar.com/avatar/c3785c773fcb7028099acd010cfee706.jpg?s=512&d=https%3A%2F%2Fa.slack-edge.com%2Fdf10d%2Fimg%2Favatars%2Fava_0022-512.png", "custom_css": null}, {"id": 12478, "slack_id": "U093SK3JK4Y", "display_name": "Migite", "bio": null, "projects_count": 0, "devlogs_count": 0, "votes_count": 0, "ships_count": 0, "projects": [], "coding_time_seconds": 0, "coding_time_seconds_today": 0, "balance": "You need to have a pocket watcher badge to view this.", "badges": [], "created_at": "2025-06-25T22:35:33.667-04:00", "updated_at": "2025-07-03T20:04:04.933-04:00", "avatar": "https://secure.gravatar.com/avatar/302a7088552d4346097493fefa3005c3.jpg?s=512&d=https%3A%2F%2Fa.slack-edge.com%2Fdf10d%2Fimg%2Favatars%2Fava_0016-512.png", "custom_css": null}, {"id": 12479, "slack_id": "U092XF6AMC3", "display_name": "Tony Dong", "bio": null, "projects_count": 0, "devlogs_count": 0, "votes_count": 0, "ships_count": 0, "projects": [], "coding_time_seconds": 0, "coding_time_seconds_today": 0, "balance": "You need to have a pocket watcher badge to view this.", "badges": [], "created_at": "2025-06-25T22:55:56.570-04:00", "updated_at": "2025-07-04T08:28:54.890-04:00", "avatar": "https://secure.gravatar.com/avatar/32c6def9f45a15366d17e54d835e6159.jpg?s=512&d=https%3A%2F%2Fa.slack-edge.com%2Fdf10d%2Fimg%2Favatars%2Fava_0016-512.png", "custom_css": null}, {"id": 12480, "slack_id": "U09253A0NTE", "display_name": "abhi", "bio": null, "projects_count": 0, "devlogs_count": 0, "votes_count": 0, "ships_count": 0, "projects": [], "coding_time_seconds": 0, "coding_time_seconds_today": 0, "balance": "You need to have a pocket watcher badge to view this.", "badges": [], "created_at": "2025-06-25T23:08:17.386-04:00", "updated_at": "2025-07-05T08:14:15.010-04:00", "avatar": "https://secure.gravatar.com/avatar/fc4aab19121bb1e437c1cd83a840db2d.jpg?s=512&d=https%3A%2F%2Fa.slack-edge.com%2Fdf10d%2Fimg%2Favatars%2Fava_0009-512.png", "custom_css": null}], "pagination": {"page": 624, "pages": 1192, "count": 23828, "items": 20}}