{"users": [{"id": 12501, "slack_id": "U09350CVBHQ", "display_name": "Celestin", "bio": null, "projects_count": 0, "devlogs_count": 0, "votes_count": 0, "ships_count": 0, "projects": [], "coding_time_seconds": 0, "coding_time_seconds_today": 0, "balance": "You need to have a pocket watcher badge to view this.", "badges": [], "created_at": "2025-06-26T02:00:06.407-04:00", "updated_at": "2025-07-03T20:04:09.334-04:00", "avatar": "https://secure.gravatar.com/avatar/19d8fa0323091386ef30cb7c9624a9b2.jpg?s=512&d=https%3A%2F%2Fa.slack-edge.com%2Fdf10d%2Fimg%2Favatars%2Fava_0006-512.png", "custom_css": null}, {"id": 12502, "slack_id": "U092QPCKPTR", "display_name": "Salmon", "bio": null, "projects_count": 0, "devlogs_count": 0, "votes_count": 0, "ships_count": 0, "projects": [], "coding_time_seconds": 0, "coding_time_seconds_today": 0, "balance": "You need to have a pocket watcher badge to view this.", "badges": [], "created_at": "2025-06-26T02:11:30.719-04:00", "updated_at": "2025-07-03T20:04:09.595-04:00", "avatar": "https://secure.gravatar.com/avatar/ce51503d85b8003d0eb94c7c3494f6ce.jpg?s=512&d=https%3A%2F%2Fa.slack-edge.com%2Fdf10d%2Fimg%2Favatars%2Fava_0019-512.png", "custom_css": null}, {"id": 12503, "slack_id": "U091XSW9GTX", "display_name": "Rashi", "bio": null, "projects_count": 0, "devlogs_count": 0, "votes_count": 0, "ships_count": 0, "projects": [], "coding_time_seconds": 70863, "coding_time_seconds_today": 1548, "balance": "You need to have a pocket watcher badge to view this.", "badges": [], "created_at": "2025-06-26T02:12:47.614-04:00", "updated_at": "2025-08-19T03:18:58.594-04:00", "avatar": "https://secure.gravatar.com/avatar/af0ca6e6ef5cdb6e746769e92538dfbe.jpg?s=512&d=https%3A%2F%2Fa.slack-edge.com%2Fdf10d%2Fimg%2Favatars%2Fava_0002-512.png", "custom_css": null}, {"id": 12504, "slack_id": "U093T984WCQ", "display_name": "ground zero", "bio": null, "projects_count": 0, "devlogs_count": 0, "votes_count": 0, "ships_count": 0, "projects": [], "coding_time_seconds": 0, "coding_time_seconds_today": 0, "balance": "You need to have a pocket watcher badge to view this.", "badges": [], "created_at": "2025-06-26T02:22:54.348-04:00", "updated_at": "2025-07-04T08:28:56.611-04:00", "avatar": "https://secure.gravatar.com/avatar/19874af4384e59fecfafa532128e2470.jpg?s=512&d=https%3A%2F%2Fa.slack-edge.com%2Fdf10d%2Fimg%2Favatars%2Fava_0004-512.png", "custom_css": null}, {"id": 12505, "slack_id": "U08MSM5TQ0G", "display_name": "Alvik", "bio": null, "projects_count": 0, "devlogs_count": 0, "votes_count": 0, "ships_count": 0, "projects": [], "coding_time_seconds": 0, "coding_time_seconds_today": 0, "balance": "You need to have a pocket watcher badge to view this.", "badges": [], "created_at": "2025-06-26T02:25:03.381-04:00", "updated_at": "2025-08-22T02:00:05.653-04:00", "avatar": "https://secure.gravatar.com/avatar/a1e883814dafe77b152d675c3b1cfd2d.jpg?s=512&d=https%3A%2F%2Fa.slack-edge.com%2Fdf10d%2Fimg%2Favatars%2Fava_0013-512.png", "custom_css": null}, {"id": 12506, "slack_id": "U085HQ9R0RE", "display_name": "Xexi", "bio": null, "projects_count": 0, "devlogs_count": 0, "votes_count": 0, "ships_count": 0, "projects": [], "coding_time_seconds": 0, "coding_time_seconds_today": 0, "balance": "You need to have a pocket watcher badge to view this.", "badges": [], "created_at": "2025-06-26T02:30:43.013-04:00", "updated_at": "2025-07-17T04:28:42.632-04:00", "avatar": "https://avatars.slack-edge.com/2024-12-12/8163776840997_3376f57fb6cce2b5eb74_original.png", "custom_css": null}, {"id": 12507, "slack_id": "U092Z75SK2S", "display_name": "GAUTAM SAVARAM PRAJAPAT", "bio": null, "projects_count": 0, "devlogs_count": 0, "votes_count": 0, "ships_count": 0, "projects": [], "coding_time_seconds": 0, "coding_time_seconds_today": 0, "balance": "You need to have a pocket watcher badge to view this.", "badges": [], "created_at": "2025-06-26T02:44:26.222-04:00", "updated_at": "2025-07-03T20:04:10.544-04:00", "avatar": "https://secure.gravatar.com/avatar/fceb66871a2d3aa1de8a72195d68db3b.jpg?s=512&d=https%3A%2F%2Fa.slack-edge.com%2Fdf10d%2Fimg%2Favatars%2Fava_0025-512.png", "custom_css": null}, {"id": 12508, "slack_id": "U08EUSU38VC", "display_name": "Liam Newbill", "bio": null, "projects_count": 0, "devlogs_count": 0, "votes_count": 0, "ships_count": 0, "projects": [], "coding_time_seconds": 82644, "coding_time_seconds_today": 0, "balance": "You need to have a pocket watcher badge to view this.", "badges": [], "created_at": "2025-06-26T02:47:00.096-04:00", "updated_at": "2025-07-04T08:28:56.927-04:00", "avatar": "https://avatars.slack-edge.com/2025-02-25/8535068377232_e2c480ee8d554f6da2a1_original.png", "custom_css": null}, {"id": 12509, "slack_id": "U08CQ1L3S15", "display_name": "Nicholas1023", "bio": null, "projects_count": 0, "devlogs_count": 3, "votes_count": 2, "ships_count": 0, "projects": [], "coding_time_seconds": 152889, "coding_time_seconds_today": 0, "balance": "You need to have a pocket watcher badge to view this.", "badges": [{"name": "Maiden Voyage", "text": "you shipped your first project! the journey begins...", "icon": "\ud83d\udea2"}], "created_at": "2025-06-26T03:25:24.995-04:00", "updated_at": "2025-09-10T22:57:25.955-04:00", "avatar": "https://avatars.slack-edge.com/2025-09-09/9479558076355_6a98654bae426b1c4140_original.jpg", "custom_css": null}, {"id": 12510, "slack_id": "U093JMDPDT3", "display_name": "V01In", "bio": null, "projects_count": 0, "devlogs_count": 0, "votes_count": 0, "ships_count": 0, "projects": [], "coding_time_seconds": 0, "coding_time_seconds_today": 0, "balance": "You need to have a pocket watcher badge to view this.", "badges": [], "created_at": "2025-06-26T03:27:05.775-04:00", "updated_at": "2025-07-03T20:04:11.221-04:00", "avatar": "https://avatars.slack-edge.com/2025-06-28/9113440176230_544a535a50f16c73c5ff_original.jpg", "custom_css": null}, {"id": 12511, "slack_id": "U092R58L1RD", "display_name": "Aayan", "bio": null, "projects_count": 0, "devlogs_count": 0, "votes_count": 0, "ships_count": 0, "projects": [], "coding_time_seconds": 0, "coding_time_seconds_today": 0, "balance": "You need to have a pocket watcher badge to view this.", "badges": [], "created_at": "2025-06-26T03:44:15.810-04:00", "updated_at": "2025-07-10T03:15:58.114-04:00", "avatar": "https://secure.gravatar.com/avatar/ae841639b2538ab002093ad37ef04749.jpg?s=512&d=https%3A%2F%2Fa.slack-edge.com%2Fdf10d%2Fimg%2Favatars%2Fava_0005-512.png", "custom_css": null}, {"id": 12512, "slack_id": "U093TNBB3BJ", "display_name": "Amna Shah", "bio": null, "projects_count": 0, "devlogs_count": 0, "votes_count": 0, "ships_count": 0, "projects": [], "coding_time_seconds": 0, "coding_time_seconds_today": 0, "balance": "You need to have a pocket watcher badge to view this.", "badges": [], "created_at": "2025-06-26T04:02:30.535-04:00", "updated_at": "2025-07-03T20:04:11.619-04:00", "avatar": "https://avatars.slack-edge.com/2025-06-26/9120937222993_b82553bd57eeec86ad0f_original.png", "custom_css": null}, {"id": 12513, "slack_id": "U093JTPJGJD", "display_name": "Chawarat Th", "bio": null, "projects_count": 0, "devlogs_count": 0, "votes_count": 0, "ships_count": 0, "projects": [], "coding_time_seconds": 34191, "coding_time_seconds_today": 0, "balance": "You need to have a pocket watcher badge to view this.", "badges": [], "created_at": "2025-06-26T04:07:00.168-04:00", "updated_at": "2025-07-03T20:04:11.887-04:00", "avatar": "https://secure.gravatar.com/avatar/2b92f83fb3d4b27b12abb95cfb2f6630.jpg?s=512&d=https%3A%2F%2Fa.slack-edge.com%2Fdf10d%2Fimg%2Favatars%2Fava_0011-512.png", "custom_css": null}, {"id": 12514, "slack_id": "U086VTQTB29", "display_name": "Ivan", "bio": null, "projects_count": 14, "devlogs_count": 159, "votes_count": 243, "ships_count": 12, "projects": [{"id": 7258, "title": "Undefinite", "devlogs_count": 4, "created_at": "2025-07-20T12:01:24.258-04:00"}, {"id": 11942, "title": "pendilums :D", "devlogs_count": 1, "created_at": "2025-08-21T09:48:50.950-04:00"}, {"id": 12484, "title": "Krank", "devlogs_count": 38, "created_at": "2025-08-28T08:15:10.971-04:00"}, {"id": 13158, "title": "FunFun", "devlogs_count": 15, "created_at": "2025-09-10T04:26:57.774-04:00"}, {"id": 13560, "title": "Ants", "devlogs_count": 6, "created_at": "2025-09-19T14:02:49.116-04:00"}, {"id": 13731, "title": "SpaceFortress", "devlogs_count": 4, "created_at": "2025-09-24T04:59:46.768-04:00"}, {"id": 8776, "title": "Console3D", "devlogs_count": 7, "created_at": "2025-07-29T08:16:50.037-04:00"}, {"id": 8116, "title": "Shine", "devlogs_count": 8, "created_at": "2025-07-24T17:55:22.319-04:00"}, {"id": 10675, "title": "Squizy", "devlogs_count": 9, "created_at": "2025-08-09T14:02:41.668-04:00"}, {"id": 9295, "title": "Infect", "devlogs_count": 4, "created_at": "2025-07-31T11:41:54.142-04:00"}, {"id": 10889, "title": "CityBuild", "devlogs_count": 12, "created_at": "2025-08-11T15:34:11.397-04:00"}, {"id": 11416, "title": "catch it!", "devlogs_count": 11, "created_at": "2025-08-15T16:47:33.822-04:00"}, {"id": 5843, "title": "TideHunter", "devlogs_count": 14, "created_at": "2025-07-08T12:04:39.554-04:00"}, {"id": 11792, "title": "Go Down", "devlogs_count": 14, "created_at": "2025-08-19T14:13:38.600-04:00"}], "coding_time_seconds": 960389, "coding_time_seconds_today": 4934, "balance": "You need to have a pocket watcher badge to view this.", "badges": [{"name": "Maiden Voyage", "text": "you shipped your first project! the journey begins...", "icon": "\ud83d\udea2"}, {"name": "Ballot Stuffer", "text": "vote 100 times.", "icon": "https://summer.hackclub.com/assets/i_voted-bf851b48.png"}], "created_at": "2025-06-26T04:23:35.812-04:00", "updated_at": "2025-09-10T22:57:26.121-04:00", "avatar": "https://avatars.slack-edge.com/2025-02-02/8384479482133_73e52df1bdf0cb8ddb8f_original.jpg", "custom_css": null}, {"id": 12515, "slack_id": "U0933M35UMB", "display_name": "Vimalkumar", "bio": null, "projects_count": 0, "devlogs_count": 0, "votes_count": 0, "ships_count": 0, "projects": [], "coding_time_seconds": 0, "coding_time_seconds_today": 0, "balance": "You need to have a pocket watcher badge to view this.", "badges": [], "created_at": "2025-06-26T04:32:40.262-04:00", "updated_at": "2025-07-06T03:32:39.327-04:00", "avatar": "https://secure.gravatar.com/avatar/e39ec518b1fe6ee2e899527233ab2f09.jpg?s=512&d=https%3A%2F%2Fa.slack-edge.com%2Fdf10d%2Fimg%2Favatars%2Fava_0005-512.png", "custom_css": null}, {"id": 12516, "slack_id": "U093K3GAPCH", "display_name": "Jophit Sebastian", "bio": null, "projects_count": 0, "devlogs_count": 0, "votes_count": 0, "ships_count": 0, "projects": [], "coding_time_seconds": 0, "coding_time_seconds_today": 0, "balance": "You need to have a pocket watcher badge to view this.", "badges": [], "created_at": "2025-06-26T04:43:23.818-04:00", "updated_at": "2025-07-05T08:14:17.367-04:00", "avatar": "https://secure.gravatar.com/avatar/8996c70c77ece5bc5f5cde1a2437b9eb.jpg?s=512&d=https%3A%2F%2Fa.slack-edge.com%2Fdf10d%2Fimg%2Favatars%2Fava_0005-512.png", "custom_css": null}, {"id": 12517, "slack_id": "U093U2B1K1N", "display_name": "Kevin Fredric Joseph", "bio": null, "projects_count": 0, "devlogs_count": 0, "votes_count": 0, "ships_count": 0, "projects": [], "coding_time_seconds": 0, "coding_time_seconds_today": 0, "balance": "You need to have a pocket watcher badge to view this.", "badges": [], "created_at": "2025-06-26T05:07:54.466-04:00", "updated_at": "2025-07-03T20:04:12.689-04:00", "avatar": "https://avatars.slack-edge.com/2025-06-26/9107974228802_d4da6f5a530634a72a24_original.png", "custom_css": null}, {"id": 12518, "slack_id": "U092ZUEF66S", "display_name": "hotur563", "bio": null, "projects_count": 0, "devlogs_count": 0, "votes_count": 0, "ships_count": 0, "projects": [], "coding_time_seconds": 0, "coding_time_seconds_today": 0, "balance": "You need to have a pocket watcher badge to view this.", "badges": [], "created_at": "2025-06-26T05:08:09.154-04:00", "updated_at": "2025-07-03T20:04:12.978-04:00", "avatar": "https://secure.gravatar.com/avatar/c3eb9ba8ae841a198fee8ea1f792fca1.jpg?s=512&d=https%3A%2F%2Fa.slack-edge.com%2Fdf10d%2Fimg%2Favatars%2Fava_0017-512.png", "custom_css": null}, {"id": 12519, "slack_id": "U07F560NV29", "display_name": "Anushri", "bio": null, "projects_count": 0, "devlogs_count": 0, "votes_count": 0, "ships_count": 0, "projects": [], "coding_time_seconds": 0, "coding_time_seconds_today": 0, "balance": "You need to have a pocket watcher badge to view this.", "badges": [], "created_at": "2025-06-26T05:13:21.757-04:00", "updated_at": "2025-07-03T20:04:13.236-04:00", "avatar": "https://secure.gravatar.com/avatar/ef58d3ad94dc43bb1e07cf2806c8fdfe.jpg?s=512&d=https%3A%2F%2Fa.slack-edge.com%2Fdf10d%2Fimg%2Favatars%2Fava_0017-512.png", "custom_css": null}, {"id": 12520, "slack_id": "U0936UPDXA8", "display_name": "Rian Islam", "bio": null, "projects_count": 0, "devlogs_count": 0, "votes_count": 0, "ships_count": 0, "projects": [], "coding_time_seconds": 0, "coding_time_seconds_today": 0, "balance": "You need to have a pocket watcher badge to view this.", "badges": [], "created_at": "2025-06-26T05:42:44.703-04:00", "updated_at": "2025-07-03T20:04:13.499-04:00", "avatar": "https://avatars.slack-edge.com/2025-06-26/9121443787233_2211f085ebeb4070125b_original.jpg", "custom_css": null}], "pagination": {"page": 626, "pages": 1192, "count": 23828, "items": 20}}