{"users": [{"id": 12521, "slack_id": "U093U74US2C", "display_name": "Ariel", "bio": null, "projects_count": 0, "devlogs_count": 0, "votes_count": 0, "ships_count": 0, "projects": [], "coding_time_seconds": 0, "coding_time_seconds_today": 0, "balance": "You need to have a pocket watcher badge to view this.", "badges": [], "created_at": "2025-06-26T05:44:30.372-04:00", "updated_at": "2025-07-03T20:04:13.767-04:00", "avatar": "https://secure.gravatar.com/avatar/101b6b7370f1af3cd3ebe37a7d0e9238.jpg?s=512&d=https%3A%2F%2Fa.slack-edge.com%2Fdf10d%2Fimg%2Favatars%2Fava_0005-512.png", "custom_css": null}, {"id": 12522, "slack_id": "U0936492TGS", "display_name": "TEJESH NAIDU", "bio": null, "projects_count": 1, "devlogs_count": 1, "votes_count": 0, "ships_count": 0, "projects": [{"id": 4456, "title": "PlantBuddy", "devlogs_count": 1, "created_at": "2025-06-30T02:59:00.168-04:00"}], "coding_time_seconds": 16841, "coding_time_seconds_today": 0, "balance": "You need to have a pocket watcher badge to view this.", "badges": [], "created_at": "2025-06-26T05:45:02.374-04:00", "updated_at": "2025-07-22T10:18:32.018-04:00", "avatar": "https://avatars.slack-edge.com/2025-06-26/9108196842722_331b69bf1cb2cf39b0c9_original.jpg", "custom_css": null}, {"id": 12523, "slack_id": "U09370GS02Y", "display_name": "Hemanth Vasudev N P", "bio": null, "projects_count": 0, "devlogs_count": 0, "votes_count": 0, "ships_count": 0, "projects": [], "coding_time_seconds": 11372, "coding_time_seconds_today": 0, "balance": "You need to have a pocket watcher badge to view this.", "badges": [], "created_at": "2025-06-26T05:54:19.002-04:00", "updated_at": "2025-07-03T20:04:14.375-04:00", "avatar": "https://secure.gravatar.com/avatar/82cc11a2eb3eb6e141a26f1849130cf2.jpg?s=512&d=https%3A%2F%2Fa.slack-edge.com%2Fdf10d%2Fimg%2Favatars%2Fava_0012-512.png", "custom_css": null}, {"id": 12524, "slack_id": "U092W6W0NTD", "display_name": "Sarah Kumar", "bio": null, "projects_count": 0, "devlogs_count": 0, "votes_count": 0, "ships_count": 0, "projects": [], "coding_time_seconds": 6754, "coding_time_seconds_today": 0, "balance": "You need to have a pocket watcher badge to view this.", "badges": [], "created_at": "2025-06-26T05:58:36.332-04:00", "updated_at": "2025-07-03T20:04:14.640-04:00", "avatar": "https://secure.gravatar.com/avatar/d81cb449e93f0cff60a01adc2ed2619b.jpg?s=512&d=https%3A%2F%2Fa.slack-edge.com%2Fdf10d%2Fimg%2Favatars%2Fava_0008-512.png", "custom_css": null}, {"id": 12525, "slack_id": "U092Z9ALMAP", "display_name": "Raju Lama", "bio": null, "projects_count": 0, "devlogs_count": 0, "votes_count": 0, "ships_count": 0, "projects": [], "coding_time_seconds": 66292, "coding_time_seconds_today": 0, "balance": "You need to have a pocket watcher badge to view this.", "badges": [], "created_at": "2025-06-26T06:08:25.403-04:00", "updated_at": "2025-07-03T20:04:14.918-04:00", "avatar": "https://secure.gravatar.com/avatar/8a5e5cb5ed699aca14679770a9b0b489.jpg?s=512&d=https%3A%2F%2Fa.slack-edge.com%2Fdf10d%2Fimg%2Favatars%2Fava_0011-512.png", "custom_css": null}, {"id": 12526, "slack_id": "U092RSSBYDV", "display_name": "Yash Mandal", "bio": null, "projects_count": 0, "devlogs_count": 0, "votes_count": 0, "ships_count": 0, "projects": [], "coding_time_seconds": 0, "coding_time_seconds_today": 0, "balance": "You need to have a pocket watcher badge to view this.", "badges": [], "created_at": "2025-06-26T06:14:21.659-04:00", "updated_at": "2025-07-03T20:04:15.191-04:00", "avatar": "https://avatars.slack-edge.com/2025-06-26/9106197642981_08269f4b0dd48a670a1c_original.jpg", "custom_css": null}, {"id": 12527, "slack_id": "U093KHQD7PB", "display_name": "Chocobo", "bio": null, "projects_count": 0, "devlogs_count": 0, "votes_count": 0, "ships_count": 0, "projects": [], "coding_time_seconds": 0, "coding_time_seconds_today": 0, "balance": "You need to have a pocket watcher badge to view this.", "badges": [], "created_at": "2025-06-26T06:22:49.155-04:00", "updated_at": "2025-07-04T08:28:58.137-04:00", "avatar": "https://secure.gravatar.com/avatar/33ff9b061739789670769dd4b5fd13e4.jpg?s=512&d=https%3A%2F%2Fa.slack-edge.com%2Fdf10d%2Fimg%2Favatars%2Fava_0000-512.png", "custom_css": null}, {"id": 12528, "slack_id": "U092ZBADA3D", "display_name": "Zarif Ben Alam", "bio": null, "projects_count": 0, "devlogs_count": 0, "votes_count": 0, "ships_count": 0, "projects": [], "coding_time_seconds": 7535, "coding_time_seconds_today": 0, "balance": "You need to have a pocket watcher badge to view this.", "badges": [], "created_at": "2025-06-26T06:23:14.057-04:00", "updated_at": "2025-07-03T20:04:15.588-04:00", "avatar": "https://secure.gravatar.com/avatar/c944d66acf8fab380e2e83854aabd629.jpg?s=512&d=https%3A%2F%2Fa.slack-edge.com%2Fdf10d%2Fimg%2Favatars%2Fava_0000-512.png", "custom_css": null}, {"id": 12529, "slack_id": "U093UCTE5TJ", "display_name": "Gema", "bio": null, "projects_count": 0, "devlogs_count": 0, "votes_count": 0, "ships_count": 0, "projects": [], "coding_time_seconds": 0, "coding_time_seconds_today": 0, "balance": "You need to have a pocket watcher badge to view this.", "badges": [], "created_at": "2025-06-26T06:27:20.115-04:00", "updated_at": "2025-07-03T20:04:15.896-04:00", "avatar": "https://secure.gravatar.com/avatar/369a1d48687fc21a41fe2aebeb66ca7d.jpg?s=512&d=https%3A%2F%2Fa.slack-edge.com%2Fdf10d%2Fimg%2Favatars%2Fava_0013-512.png", "custom_css": null}, {"id": 12530, "slack_id": "U092ZCP8FDZ", "display_name": "guilherme", "bio": null, "projects_count": 0, "devlogs_count": 0, "votes_count": 0, "ships_count": 0, "projects": [], "coding_time_seconds": 0, "coding_time_seconds_today": 0, "balance": "You need to have a pocket watcher badge to view this.", "badges": [], "created_at": "2025-06-26T06:35:34.594-04:00", "updated_at": "2025-07-03T20:04:16.166-04:00", "avatar": "https://secure.gravatar.com/avatar/31cbaaf5a52984e596f67d58233bac1e.jpg?s=512&d=https%3A%2F%2Fa.slack-edge.com%2Fdf10d%2Fimg%2Favatars%2Fava_0006-512.png", "custom_css": null}, {"id": 12531, "slack_id": "U092ZFMFMV1", "display_name": "Habibullah", "bio": null, "projects_count": 0, "devlogs_count": 0, "votes_count": 0, "ships_count": 0, "projects": [], "coding_time_seconds": 14672, "coding_time_seconds_today": 0, "balance": "You need to have a pocket watcher badge to view this.", "badges": [], "created_at": "2025-06-26T06:59:33.319-04:00", "updated_at": "2025-07-03T20:04:16.437-04:00", "avatar": "https://secure.gravatar.com/avatar/89a9a24e41a38ad45cc4b31044df39ad.jpg?s=512&d=https%3A%2F%2Fa.slack-edge.com%2Fdf10d%2Fimg%2Favatars%2Fava_0006-512.png", "custom_css": null}, {"id": 12532, "slack_id": "U093UJ6S3AL", "display_name": "Student", "bio": null, "projects_count": 1, "devlogs_count": 0, "votes_count": 1, "ships_count": 0, "projects": [{"id": 4782, "title": "Weather onchain logger", "devlogs_count": 0, "created_at": "2025-07-01T13:40:06.935-04:00"}], "coding_time_seconds": 114, "coding_time_seconds_today": 0, "balance": "You need to have a pocket watcher badge to view this.", "badges": [], "created_at": "2025-06-26T07:09:55.978-04:00", "updated_at": "2025-07-03T20:04:16.701-04:00", "avatar": "https://secure.gravatar.com/avatar/28e5a9acfaa3df608f8caf805cc3509d.jpg?s=512&d=https%3A%2F%2Fa.slack-edge.com%2Fdf10d%2Fimg%2Favatars%2Fava_0005-512.png", "custom_css": null}, {"id": 12533, "slack_id": "U05E8BGMFRP", "display_name": "Mohamed Zaki", "bio": null, "projects_count": 0, "devlogs_count": 0, "votes_count": 0, "ships_count": 0, "projects": [], "coding_time_seconds": 10963, "coding_time_seconds_today": 2433, "balance": "You need to have a pocket watcher badge to view this.", "badges": [], "created_at": "2025-06-26T07:14:46.464-04:00", "updated_at": "2025-07-03T20:04:16.969-04:00", "avatar": "https://secure.gravatar.com/avatar/3cca52619fbc8887488e79992e45eb88.jpg?s=512&d=https%3A%2F%2Fa.slack-edge.com%2Fdf10d%2Fimg%2Favatars%2Fava_0009-512.png", "custom_css": null}, {"id": 12534, "slack_id": "U092S6KS1EK", "display_name": "RainbowSolid", "bio": null, "projects_count": 0, "devlogs_count": 0, "votes_count": 0, "ships_count": 0, "projects": [], "coding_time_seconds": 27142, "coding_time_seconds_today": 0, "balance": "You need to have a pocket watcher badge to view this.", "badges": [], "created_at": "2025-06-26T07:24:31.766-04:00", "updated_at": "2025-07-03T20:04:17.228-04:00", "avatar": "https://secure.gravatar.com/avatar/545805bd84e80061aa2dec2cb6e4a036.jpg?s=512&d=https%3A%2F%2Fa.slack-edge.com%2Fdf10d%2Fimg%2Favatars%2Fava_0003-512.png", "custom_css": null}, {"id": 12535, "slack_id": "U0930JN7DHU", "display_name": "Ayandon", "bio": null, "projects_count": 0, "devlogs_count": 0, "votes_count": 0, "ships_count": 0, "projects": [], "coding_time_seconds": 0, "coding_time_seconds_today": 0, "balance": "You need to have a pocket watcher badge to view this.", "badges": [], "created_at": "2025-06-26T07:24:40.035-04:00", "updated_at": "2025-07-05T08:14:18.908-04:00", "avatar": "https://secure.gravatar.com/avatar/6e828f0132d6115f70fca030aff2d5ef.jpg?s=512&d=https%3A%2F%2Fa.slack-edge.com%2Fdf10d%2Fimg%2Favatars%2Fava_0020-512.png", "custom_css": null}, {"id": 12536, "slack_id": "U0825BURFN2", "display_name": "kartik deshpande", "bio": null, "projects_count": 0, "devlogs_count": 0, "votes_count": 0, "ships_count": 0, "projects": [], "coding_time_seconds": 0, "coding_time_seconds_today": 0, "balance": "You need to have a pocket watcher badge to view this.", "badges": [], "created_at": "2025-06-26T07:31:26.775-04:00", "updated_at": "2025-07-03T20:04:17.634-04:00", "avatar": "https://avatars.slack-edge.com/2024-11-25/8092712041441_903a85f43c5a2affed05_original.png", "custom_css": null}, {"id": 12537, "slack_id": "U092S6KFHHD", "display_name": "Thapelo", "bio": null, "projects_count": 0, "devlogs_count": 0, "votes_count": 0, "ships_count": 0, "projects": [], "coding_time_seconds": 0, "coding_time_seconds_today": 0, "balance": "You need to have a pocket watcher badge to view this.", "badges": [], "created_at": "2025-06-26T07:31:31.926-04:00", "updated_at": "2025-07-05T20:14:22.272-04:00", "avatar": "https://secure.gravatar.com/avatar/49e9a4db77d02a21ab391d04eef2c286.jpg?s=512&d=https%3A%2F%2Fa.slack-edge.com%2Fdf10d%2Fimg%2Favatars%2Fava_0011-512.png", "custom_css": null}, {"id": 12538, "slack_id": "U0936KGPVRQ", "display_name": "Koeqaife", "bio": null, "projects_count": 2, "devlogs_count": 114, "votes_count": 66, "ships_count": 2, "projects": [{"id": 10469, "title": "SharinFlame", "devlogs_count": 57, "created_at": "2025-08-07T09:54:05.222-04:00"}, {"id": 3912, "title": "HyprYou", "devlogs_count": 57, "created_at": "2025-06-26T09:41:29.892-04:00"}], "coding_time_seconds": 1036089, "coding_time_seconds_today": 0, "balance": "You need to have a pocket watcher badge to view this.", "badges": [{"name": "Maiden Voyage", "text": "you shipped your first project! the journey begins...", "icon": "\ud83d\udea2"}, {"name": "Verified", "text": "this user is verified (i.e. gave us $8)", "icon": "https://summer.hackclub.com/assets/verified-c9457a9f.png"}, {"name": "Preferred Customer", "text": "you'll never know what this does...", "icon": "https://summer.hackclub.com/assets/cool-9a1241d0.png"}, {"name": "Lived Mas", "text": "you know what you did.", "icon": "https://summer.hackclub.com/assets/bong-2a18e50d.png"}], "created_at": "2025-06-26T07:35:27.815-04:00", "updated_at": "2025-09-20T16:51:17.637-04:00", "avatar": "https://avatars.slack-edge.com/2025-08-25/9404404051042_b2501b6e1419c37c36a5_original.png", "custom_css": null}, {"id": 12539, "slack_id": "U0930LVT11C", "display_name": "Maja", "bio": null, "projects_count": 1, "devlogs_count": 0, "votes_count": 0, "ships_count": 0, "projects": [{"id": 4135, "title": "Voting Game ", "devlogs_count": 0, "created_at": "2025-06-27T17:23:12.584-04:00"}], "coding_time_seconds": 28200, "coding_time_seconds_today": 0, "balance": "You need to have a pocket watcher badge to view this.", "badges": [], "created_at": "2025-06-26T07:40:37.307-04:00", "updated_at": "2025-07-03T20:04:18.299-04:00", "avatar": "https://secure.gravatar.com/avatar/fd5d260701cef94e54e17d42b38e8d9f.jpg?s=512&d=https%3A%2F%2Fa.slack-edge.com%2Fdf10d%2Fimg%2Favatars%2Fava_0020-512.png", "custom_css": null}, {"id": 12540, "slack_id": "U092ZQJE7AP", "display_name": "Suryansh", "bio": null, "projects_count": 0, "devlogs_count": 30, "votes_count": 10, "ships_count": 0, "projects": [], "coding_time_seconds": 486208, "coding_time_seconds_today": 0, "balance": "You need to have a pocket watcher badge to view this.", "badges": [{"name": "Maiden Voyage", "text": "you shipped your first project! the journey begins...", "icon": "\ud83d\udea2"}], "created_at": "2025-06-26T08:11:33.764-04:00", "updated_at": "2025-09-10T22:57:27.016-04:00", "avatar": "https://secure.gravatar.com/avatar/9c6ec6d076d718ba96e5c774913a8f46.jpg?s=512&d=https%3A%2F%2Fa.slack-edge.com%2Fdf10d%2Fimg%2Favatars%2Fava_0009-512.png", "custom_css": null}], "pagination": {"page": 627, "pages": 1192, "count": 23828, "items": 20}}