{"users": [{"id": 12541, "slack_id": "U07F4S15BA7", "display_name": "Lucky", "bio": null, "projects_count": 0, "devlogs_count": 0, "votes_count": 0, "ships_count": 0, "projects": [], "coding_time_seconds": 48098, "coding_time_seconds_today": 0, "balance": "You need to have a pocket watcher badge to view this.", "badges": [], "created_at": "2025-06-26T08:14:47.371-04:00", "updated_at": "2025-07-05T20:14:22.541-04:00", "avatar": "https://secure.gravatar.com/avatar/16901e818058d983e353d21bb12ccea6.jpg?s=512&d=https%3A%2F%2Fa.slack-edge.com%2Fdf10d%2Fimg%2Favatars%2Fava_0015-512.png", "custom_css": null}, {"id": 12542, "slack_id": "U0936S3NETU", "display_name": "Raihan", "bio": null, "projects_count": 0, "devlogs_count": 0, "votes_count": 0, "ships_count": 0, "projects": [], "coding_time_seconds": 0, "coding_time_seconds_today": 0, "balance": "You need to have a pocket watcher badge to view this.", "badges": [], "created_at": "2025-06-26T08:22:29.607-04:00", "updated_at": "2025-07-03T20:04:18.961-04:00", "avatar": "https://secure.gravatar.com/avatar/ab05c761f1bcde5d1502366049f47413.jpg?s=512&d=https%3A%2F%2Fa.slack-edge.com%2Fdf10d%2Fimg%2Favatars%2Fava_0007-512.png", "custom_css": null}, {"id": 12543, "slack_id": "U0936T19R5G", "display_name": "Levi Kiran Nalendra", "bio": null, "projects_count": 0, "devlogs_count": 0, "votes_count": 0, "ships_count": 0, "projects": [], "coding_time_seconds": 34040, "coding_time_seconds_today": 0, "balance": "You need to have a pocket watcher badge to view this.", "badges": [], "created_at": "2025-06-26T08:30:26.373-04:00", "updated_at": "2025-07-04T02:32:41.629-04:00", "avatar": "https://secure.gravatar.com/avatar/4778dcfdb77f3691c81590a7282cc84b.jpg?s=512&d=https%3A%2F%2Fa.slack-edge.com%2Fdf10d%2Fimg%2Favatars%2Fava_0004-512.png", "custom_css": null}, {"id": 12544, "slack_id": "U0936T0T6H0", "display_name": "Fluffy Grass", "bio": null, "projects_count": 0, "devlogs_count": 0, "votes_count": 0, "ships_count": 0, "projects": [], "coding_time_seconds": 67571, "coding_time_seconds_today": 0, "balance": "You need to have a pocket watcher badge to view this.", "badges": [], "created_at": "2025-06-26T08:34:11.469-04:00", "updated_at": "2025-07-04T20:13:22.700-04:00", "avatar": "https://secure.gravatar.com/avatar/52ef68acef803424afa117ce3fb9490d.jpg?s=512&d=https%3A%2F%2Fa.slack-edge.com%2Fdf10d%2Fimg%2Favatars%2Fava_0017-512.png", "custom_css": null}, {"id": 12545, "slack_id": "U0937L9G59S", "display_name": "KABIL", "bio": null, "projects_count": 0, "devlogs_count": 0, "votes_count": 0, "ships_count": 0, "projects": [], "coding_time_seconds": 0, "coding_time_seconds_today": 0, "balance": "You need to have a pocket watcher badge to view this.", "badges": [], "created_at": "2025-06-26T08:38:42.784-04:00", "updated_at": "2025-07-03T20:04:19.498-04:00", "avatar": "https://secure.gravatar.com/avatar/fe7259028b8382a6104e05892c8226f9.jpg?s=512&d=https%3A%2F%2Fa.slack-edge.com%2Fdf10d%2Fimg%2Favatars%2Fava_0017-512.png", "custom_css": null}, {"id": 12546, "slack_id": "U092VCSF9RU", "display_name": "Abhishek", "bio": null, "projects_count": 0, "devlogs_count": 0, "votes_count": 0, "ships_count": 0, "projects": [], "coding_time_seconds": 0, "coding_time_seconds_today": 0, "balance": "You need to have a pocket watcher badge to view this.", "badges": [], "created_at": "2025-06-26T08:54:31.472-04:00", "updated_at": "2025-07-05T08:14:19.591-04:00", "avatar": "https://avatars.slack-edge.com/2025-06-26/9109068384770_697deed1f389ce9c5686_original.png", "custom_css": null}, {"id": 12547, "slack_id": "U093L8CSJ2V", "display_name": "Saanvi Suman", "bio": null, "projects_count": 0, "devlogs_count": 0, "votes_count": 0, "ships_count": 0, "projects": [], "coding_time_seconds": 0, "coding_time_seconds_today": 0, "balance": "You need to have a pocket watcher badge to view this.", "badges": [], "created_at": "2025-06-26T08:55:01.514-04:00", "updated_at": "2025-07-03T22:03:24.900-04:00", "avatar": "https://secure.gravatar.com/avatar/b1e6afca5c93ad7800ca12ca99711d09.jpg?s=512&d=https%3A%2F%2Fa.slack-edge.com%2Fdf10d%2Fimg%2Favatars%2Fava_0000-512.png", "custom_css": null}, {"id": 12548, "slack_id": "U092SKE7LDD", "display_name": "Berkhan Bayraktar", "bio": null, "projects_count": 0, "devlogs_count": 0, "votes_count": 0, "ships_count": 0, "projects": [], "coding_time_seconds": 1073, "coding_time_seconds_today": 0, "balance": "You need to have a pocket watcher badge to view this.", "badges": [], "created_at": "2025-06-26T08:56:40.185-04:00", "updated_at": "2025-07-04T02:32:42.031-04:00", "avatar": "https://secure.gravatar.com/avatar/77386eedc87ab377003688e1bc4757e8.jpg?s=512&d=https%3A%2F%2Fa.slack-edge.com%2Fdf10d%2Fimg%2Favatars%2Fava_0011-512.png", "custom_css": null}, {"id": 12549, "slack_id": "U0937RGB4CC", "display_name": "Marriyam", "bio": null, "projects_count": 0, "devlogs_count": 0, "votes_count": 0, "ships_count": 0, "projects": [], "coding_time_seconds": 0, "coding_time_seconds_today": 0, "balance": "You need to have a pocket watcher badge to view this.", "badges": [], "created_at": "2025-06-26T08:59:13.689-04:00", "updated_at": "2025-07-03T20:04:20.197-04:00", "avatar": "https://secure.gravatar.com/avatar/c29405201ff25d5b7186ec6f4f9648c8.jpg?s=512&d=https%3A%2F%2Fa.slack-edge.com%2Fdf10d%2Fimg%2Favatars%2Fava_0015-512.png", "custom_css": null}, {"id": 12550, "slack_id": "U093V4AQQUQ", "display_name": "luniq", "bio": null, "projects_count": 0, "devlogs_count": 0, "votes_count": 0, "ships_count": 0, "projects": [], "coding_time_seconds": 0, "coding_time_seconds_today": 0, "balance": "You need to have a pocket watcher badge to view this.", "badges": [], "created_at": "2025-06-26T09:08:53.251-04:00", "updated_at": "2025-07-03T22:03:25.123-04:00", "avatar": "https://secure.gravatar.com/avatar/6a32430119e21e141e5601d7f4605c71.jpg?s=512&d=https%3A%2F%2Fa.slack-edge.com%2Fdf10d%2Fimg%2Favatars%2Fava_0007-512.png", "custom_css": null}, {"id": 12551, "slack_id": "U09305K0CQ3", "display_name": "Bexultan", "bio": null, "projects_count": 0, "devlogs_count": 0, "votes_count": 0, "ships_count": 0, "projects": [], "coding_time_seconds": 623118, "coding_time_seconds_today": 1504, "balance": "You need to have a pocket watcher badge to view this.", "badges": [], "created_at": "2025-06-26T09:16:54.596-04:00", "updated_at": "2025-07-03T22:03:25.222-04:00", "avatar": "https://secure.gravatar.com/avatar/82f3fd5d685a2102d450b6dfe81a3d7e.jpg?s=512&d=https%3A%2F%2Fa.slack-edge.com%2Fdf10d%2Fimg%2Favatars%2Fava_0021-512.png", "custom_css": null}, {"id": 12552, "slack_id": "U09318XRDNJ", "display_name": "Xavier Sax", "bio": null, "projects_count": 0, "devlogs_count": 0, "votes_count": 0, "ships_count": 0, "projects": [], "coding_time_seconds": 2499, "coding_time_seconds_today": 0, "balance": "You need to have a pocket watcher badge to view this.", "badges": [], "created_at": "2025-06-26T09:26:44.500-04:00", "updated_at": "2025-07-03T22:03:25.311-04:00", "avatar": "https://secure.gravatar.com/avatar/75271c4194f02d28c341b2ed199288aa.jpg?s=512&d=https%3A%2F%2Fa.slack-edge.com%2Fdf10d%2Fimg%2Favatars%2Fava_0009-512.png", "custom_css": null}, {"id": 12553, "slack_id": "U09307CJSR1", "display_name": "Miles Palmer", "bio": null, "projects_count": 0, "devlogs_count": 0, "votes_count": 0, "ships_count": 0, "projects": [], "coding_time_seconds": 0, "coding_time_seconds_today": 0, "balance": "You need to have a pocket watcher badge to view this.", "badges": [], "created_at": "2025-06-26T09:26:46.015-04:00", "updated_at": "2025-07-03T20:04:20.888-04:00", "avatar": "https://secure.gravatar.com/avatar/caa1ae251dee51de4840e3f0dd767905.jpg?s=512&d=https%3A%2F%2Fa.slack-edge.com%2Fdf10d%2Fimg%2Favatars%2Fava_0004-512.png", "custom_css": null}, {"id": 12554, "slack_id": "U093LE05USD", "display_name": "Moaz Mohamed", "bio": null, "projects_count": 0, "devlogs_count": 0, "votes_count": 0, "ships_count": 0, "projects": [], "coding_time_seconds": 0, "coding_time_seconds_today": 0, "balance": "You need to have a pocket watcher badge to view this.", "badges": [], "created_at": "2025-06-26T09:32:36.524-04:00", "updated_at": "2025-08-28T05:58:10.189-04:00", "avatar": "https://secure.gravatar.com/avatar/c35b648f68ab4ce5e4cf84a30df66143.jpg?s=512&d=https%3A%2F%2Fa.slack-edge.com%2Fdf10d%2Fimg%2Favatars%2Fava_0015-512.png", "custom_css": null}, {"id": 12555, "slack_id": "U09352Z6QMT", "display_name": "Muntasir Islam", "bio": null, "projects_count": 0, "devlogs_count": 0, "votes_count": 0, "ships_count": 0, "projects": [], "coding_time_seconds": 0, "coding_time_seconds_today": 0, "balance": "You need to have a pocket watcher badge to view this.", "badges": [], "created_at": "2025-06-26T09:37:01.957-04:00", "updated_at": "2025-07-04T02:32:42.567-04:00", "avatar": "https://secure.gravatar.com/avatar/b7931590d4023a517b75edd4443ac57e.jpg?s=512&d=https%3A%2F%2Fa.slack-edge.com%2Fdf10d%2Fimg%2Favatars%2Fava_0024-512.png", "custom_css": null}, {"id": 12556, "slack_id": "U08N6K6FS82", "display_name": "tonicatOWO", "bio": null, "projects_count": 0, "devlogs_count": 0, "votes_count": 0, "ships_count": 0, "projects": [], "coding_time_seconds": 119580, "coding_time_seconds_today": 0, "balance": "You need to have a pocket watcher badge to view this.", "badges": [], "created_at": "2025-06-26T09:45:16.361-04:00", "updated_at": "2025-08-07T10:33:16.884-04:00", "avatar": "https://avatars.slack-edge.com/2025-05-05/8833090664119_631944703acb589ba64f_original.png", "custom_css": null}, {"id": 12557, "slack_id": "U093VBYA58Q", "display_name": "Pranav Vinod", "bio": null, "projects_count": 0, "devlogs_count": 0, "votes_count": 0, "ships_count": 0, "projects": [], "coding_time_seconds": 0, "coding_time_seconds_today": 0, "balance": "You need to have a pocket watcher badge to view this.", "badges": [], "created_at": "2025-06-26T09:50:06.434-04:00", "updated_at": "2025-07-03T20:04:21.706-04:00", "avatar": "https://secure.gravatar.com/avatar/10ff7c7fbe74c84e697a4f0b37882198.jpg?s=512&d=https%3A%2F%2Fa.slack-edge.com%2Fdf10d%2Fimg%2Favatars%2Fava_0020-512.png", "custom_css": null}, {"id": 12558, "slack_id": "U0937BFNN2E", "display_name": "Fares", "bio": null, "projects_count": 0, "devlogs_count": 0, "votes_count": 0, "ships_count": 0, "projects": [], "coding_time_seconds": 0, "coding_time_seconds_today": 0, "balance": "You need to have a pocket watcher badge to view this.", "badges": [], "created_at": "2025-06-26T09:50:53.324-04:00", "updated_at": "2025-07-03T20:04:21.972-04:00", "avatar": "https://secure.gravatar.com/avatar/665be8649daad91156af30c270e949a9.jpg?s=512&d=https%3A%2F%2Fa.slack-edge.com%2Fdf10d%2Fimg%2Favatars%2Fava_0015-512.png", "custom_css": null}, {"id": 12559, "slack_id": "U093VC8063S", "display_name": "trtk", "bio": null, "projects_count": 0, "devlogs_count": 0, "votes_count": 0, "ships_count": 0, "projects": [], "coding_time_seconds": 0, "coding_time_seconds_today": 0, "balance": "You need to have a pocket watcher badge to view this.", "badges": [], "created_at": "2025-06-26T09:51:26.435-04:00", "updated_at": "2025-07-03T20:04:22.235-04:00", "avatar": "https://secure.gravatar.com/avatar/4905a22541339fd1079d7e83e77804ea.jpg?s=512&d=https%3A%2F%2Fa.slack-edge.com%2Fdf10d%2Fimg%2Favatars%2Fava_0026-512.png", "custom_css": null}, {"id": 12560, "slack_id": "U092YFQTEH0", "display_name": "Xotic", "bio": null, "projects_count": 0, "devlogs_count": 0, "votes_count": 0, "ships_count": 0, "projects": [], "coding_time_seconds": 0, "coding_time_seconds_today": 0, "balance": "You need to have a pocket watcher badge to view this.", "badges": [], "created_at": "2025-06-26T09:55:45.884-04:00", "updated_at": "2025-07-06T02:15:28.578-04:00", "avatar": "https://secure.gravatar.com/avatar/d5fc30cf0f88c8cead8f1c91cf947794.jpg?s=512&d=https%3A%2F%2Fa.slack-edge.com%2Fdf10d%2Fimg%2Favatars%2Fava_0025-512.png", "custom_css": null}], "pagination": {"page": 628, "pages": 1192, "count": 23828, "items": 20}}