{"users": [{"id": 12561, "slack_id": "U0926KJGH8A", "display_name": "raftaar", "bio": null, "projects_count": 0, "devlogs_count": 0, "votes_count": 0, "ships_count": 0, "projects": [], "coding_time_seconds": 0, "coding_time_seconds_today": 0, "balance": "You need to have a pocket watcher badge to view this.", "badges": [], "created_at": "2025-06-26T10:03:33.523-04:00", "updated_at": "2025-07-03T20:04:22.855-04:00", "avatar": "https://secure.gravatar.com/avatar/fe426755dc5c05ba8c6a5a2f33c59819.jpg?s=512&d=https%3A%2F%2Fa.slack-edge.com%2Fdf10d%2Fimg%2Favatars%2Fava_0006-512.png", "custom_css": null}, {"id": 12562, "slack_id": "U0937F6HKPC", "display_name": "\u0e18\u0e35\u0e23\u0e1e\u0e07\u0e28\u0e4c \u0e0a\u0e38\u0e21\u0e41\u0e01\u0e49\u0e27", "bio": null, "projects_count": 0, "devlogs_count": 0, "votes_count": 0, "ships_count": 0, "projects": [], "coding_time_seconds": 0, "coding_time_seconds_today": 0, "balance": "You need to have a pocket watcher badge to view this.", "badges": [], "created_at": "2025-06-26T10:03:39.269-04:00", "updated_at": "2025-07-03T20:04:23.127-04:00", "avatar": "https://avatars.slack-edge.com/2025-06-26/9131523640816_0cb67c0b38218d618c95_original.gif", "custom_css": null}, {"id": 12563, "slack_id": "U09389CFB2Q", "display_name": "Stefano Motta", "bio": null, "projects_count": 0, "devlogs_count": 0, "votes_count": 0, "ships_count": 0, "projects": [], "coding_time_seconds": 0, "coding_time_seconds_today": 0, "balance": "You need to have a pocket watcher badge to view this.", "badges": [], "created_at": "2025-06-26T10:07:03.420-04:00", "updated_at": "2025-07-03T20:04:24.072-04:00", "avatar": "https://secure.gravatar.com/avatar/098c617d549da16d3563ad76a864d434.jpg?s=512&d=https%3A%2F%2Fa.slack-edge.com%2Fdf10d%2Fimg%2Favatars%2Fava_0019-512.png", "custom_css": null}, {"id": 12564, "slack_id": "U0937FZ313L", "display_name": "Marci", "bio": null, "projects_count": 5, "devlogs_count": 38, "votes_count": 75, "ships_count": 4, "projects": [{"id": 6190, "title": "Vessel Tracker", "devlogs_count": 5, "created_at": "2025-07-11T07:57:12.266-04:00"}, {"id": 11371, "title": "BookTech", "devlogs_count": 9, "created_at": "2025-08-15T10:27:59.750-04:00"}, {"id": 3972, "title": "Slack-Course", "devlogs_count": 5, "created_at": "2025-06-26T15:05:54.573-04:00"}, {"id": 4828, "title": "SolarDash", "devlogs_count": 6, "created_at": "2025-07-01T18:29:26.533-04:00"}, {"id": 7272, "title": "Study Center", "devlogs_count": 12, "created_at": "2025-07-20T15:30:05.284-04:00"}], "coding_time_seconds": 529589, "coding_time_seconds_today": 0, "balance": "You need to have a pocket watcher badge to view this.", "badges": [{"name": "Maiden Voyage", "text": "you shipped your first project! the journey begins...", "icon": "\ud83d\udea2"}, {"name": "Ballot Stuffer", "text": "vote 100 times.", "icon": "https://summer.hackclub.com/assets/i_voted-bf851b48.png"}], "created_at": "2025-06-26T10:09:18.216-04:00", "updated_at": "2025-09-10T22:57:27.800-04:00", "avatar": "https://avatars.slack-edge.com/2025-06-27/9108833533555_0d028dc9915185e6c3e9_original.png", "custom_css": null}, {"id": 12565, "slack_id": "U0937GM9E6N", "display_name": "Midhunsankar", "bio": null, "projects_count": 0, "devlogs_count": 0, "votes_count": 0, "ships_count": 0, "projects": [], "coding_time_seconds": 0, "coding_time_seconds_today": 0, "balance": "You need to have a pocket watcher badge to view this.", "badges": [], "created_at": "2025-06-26T10:12:14.065-04:00", "updated_at": "2025-07-04T08:29:00.574-04:00", "avatar": "https://secure.gravatar.com/avatar/6007325057a22fbea1056f1cd73a9a51.jpg?s=512&d=https%3A%2F%2Fa.slack-edge.com%2Fdf10d%2Fimg%2Favatars%2Fava_0006-512.png", "custom_css": null}, {"id": 12566, "slack_id": "U07EX8L557Y", "display_name": "Mitang", "bio": null, "projects_count": 0, "devlogs_count": 0, "votes_count": 0, "ships_count": 0, "projects": [], "coding_time_seconds": 16423, "coding_time_seconds_today": 1044, "balance": "You need to have a pocket watcher badge to view this.", "badges": [], "created_at": "2025-06-26T10:16:43.859-04:00", "updated_at": "2025-07-04T20:13:23.959-04:00", "avatar": "https://avatars.slack-edge.com/2025-04-16/8756225136950_dfe95c30442d2c1e69f2_original.png", "custom_css": null}, {"id": 12567, "slack_id": "U0938BHRY9J", "display_name": "Amogh", "bio": null, "projects_count": 0, "devlogs_count": 0, "votes_count": 0, "ships_count": 0, "projects": [], "coding_time_seconds": 13496, "coding_time_seconds_today": 0, "balance": "You need to have a pocket watcher badge to view this.", "badges": [], "created_at": "2025-06-26T10:18:20.064-04:00", "updated_at": "2025-07-03T20:04:24.893-04:00", "avatar": "https://secure.gravatar.com/avatar/e37c040771ba2ffd514caf1929819596.jpg?s=512&d=https%3A%2F%2Fa.slack-edge.com%2Fdf10d%2Fimg%2Favatars%2Fava_0018-512.png", "custom_css": null}, {"id": 12568, "slack_id": "U0931K419HU", "display_name": "JOSH", "bio": null, "projects_count": 0, "devlogs_count": 0, "votes_count": 0, "ships_count": 0, "projects": [], "coding_time_seconds": 13650, "coding_time_seconds_today": 0, "balance": "You need to have a pocket watcher badge to view this.", "badges": [], "created_at": "2025-06-26T10:19:12.547-04:00", "updated_at": "2025-07-05T08:14:20.940-04:00", "avatar": "https://secure.gravatar.com/avatar/9c71b11a1a312032e9d916ad117a4aec.jpg?s=512&d=https%3A%2F%2Fa.slack-edge.com%2Fdf10d%2Fimg%2Favatars%2Fava_0001-512.png", "custom_css": null}, {"id": 12569, "slack_id": "U093LUM2KTK", "display_name": "Kaveesha", "bio": null, "projects_count": 0, "devlogs_count": 0, "votes_count": 0, "ships_count": 0, "projects": [], "coding_time_seconds": 0, "coding_time_seconds_today": 0, "balance": "You need to have a pocket watcher badge to view this.", "badges": [], "created_at": "2025-06-26T10:41:54.300-04:00", "updated_at": "2025-07-04T20:13:24.166-04:00", "avatar": "https://secure.gravatar.com/avatar/d3a340c56e84d4425940b4f988b8fbbc.jpg?s=512&d=https%3A%2F%2Fa.slack-edge.com%2Fdf10d%2Fimg%2Favatars%2Fava_0025-512.png", "custom_css": null}, {"id": 12570, "slack_id": "U07GGFA42T0", "display_name": "Tshurthacking", "bio": null, "projects_count": 1, "devlogs_count": 2, "votes_count": 6, "ships_count": 0, "projects": [{"id": 4387, "title": "Fate's Way Ch-1 Swordmasters path", "devlogs_count": 2, "created_at": "2025-06-29T13:59:00.757-04:00"}], "coding_time_seconds": 40161, "coding_time_seconds_today": 0, "balance": "You need to have a pocket watcher badge to view this.", "badges": [], "created_at": "2025-06-26T10:44:38.944-04:00", "updated_at": "2025-09-04T13:24:48.666-04:00", "avatar": "https://secure.gravatar.com/avatar/a5f0c8f1701f29e409490a517552e145.jpg?s=512&d=https%3A%2F%2Fa.slack-edge.com%2Fdf10d%2Fimg%2Favatars%2Fava_0003-512.png", "custom_css": null}, {"id": 12571, "slack_id": "U0937PWJ11Q", "display_name": "Zhi Hao Wang", "bio": null, "projects_count": 0, "devlogs_count": 0, "votes_count": 0, "ships_count": 0, "projects": [], "coding_time_seconds": 0, "coding_time_seconds_today": 0, "balance": "You need to have a pocket watcher badge to view this.", "badges": [], "created_at": "2025-06-26T10:54:58.998-04:00", "updated_at": "2025-07-03T20:04:25.703-04:00", "avatar": "https://secure.gravatar.com/avatar/f0194eee74dc8874ad5134692551cac3.jpg?s=512&d=https%3A%2F%2Fa.slack-edge.com%2Fdf10d%2Fimg%2Favatars%2Fava_0023-512.png", "custom_css": null}, {"id": 12572, "slack_id": "U093M1ZGGF3", "display_name": "Robin", "bio": null, "projects_count": 0, "devlogs_count": 0, "votes_count": 0, "ships_count": 0, "projects": [], "coding_time_seconds": 0, "coding_time_seconds_today": 0, "balance": "You need to have a pocket watcher badge to view this.", "badges": [], "created_at": "2025-06-26T10:57:28.174-04:00", "updated_at": "2025-07-03T20:04:25.972-04:00", "avatar": "https://secure.gravatar.com/avatar/63fa8030849a40c26139584cbe2b7371.jpg?s=512&d=https%3A%2F%2Fa.slack-edge.com%2Fdf10d%2Fimg%2Favatars%2Fava_0020-512.png", "custom_css": null}, {"id": 12573, "slack_id": "U092RBS3N1L", "display_name": "Abdelrahman Samy", "bio": null, "projects_count": 0, "devlogs_count": 0, "votes_count": 0, "ships_count": 0, "projects": [], "coding_time_seconds": 0, "coding_time_seconds_today": 0, "balance": "You need to have a pocket watcher badge to view this.", "badges": [], "created_at": "2025-06-26T10:57:59.058-04:00", "updated_at": "2025-08-07T16:05:36.618-04:00", "avatar": "https://secure.gravatar.com/avatar/a01938cf8785614771928feb9285fda0.jpg?s=512&d=https%3A%2F%2Fa.slack-edge.com%2Fdf10d%2Fimg%2Favatars%2Fava_0016-512.png", "custom_css": null}, {"id": 12574, "slack_id": "U0938M7Q50U", "display_name": "DavidGDA", "bio": null, "projects_count": 1, "devlogs_count": 0, "votes_count": 0, "ships_count": 0, "projects": [{"id": 4562, "title": "image-to-text-web-app", "devlogs_count": 0, "created_at": "2025-06-30T16:15:15.289-04:00"}], "coding_time_seconds": 322044, "coding_time_seconds_today": 0, "balance": "You need to have a pocket watcher badge to view this.", "badges": [], "created_at": "2025-06-26T11:06:07.101-04:00", "updated_at": "2025-09-10T04:51:00.155-04:00", "avatar": "https://secure.gravatar.com/avatar/5e16dff1ad4de0222562d9a2b281063f.jpg?s=512&d=https%3A%2F%2Fa.slack-edge.com%2Fdf10d%2Fimg%2Favatars%2Fava_0012-512.png", "custom_css": null}, {"id": 12575, "slack_id": "U093M5QBRNV", "display_name": "TX 9394", "bio": null, "projects_count": 1, "devlogs_count": 12, "votes_count": 8, "ships_count": 0, "projects": [{"id": 9408, "title": "Calcunator", "devlogs_count": 2, "created_at": "2025-08-01T03:22:29.621-04:00"}], "coding_time_seconds": 14950, "coding_time_seconds_today": 0, "balance": "You need to have a pocket watcher badge to view this.", "badges": [{"name": "Maiden Voyage", "text": "you shipped your first project! the journey begins...", "icon": "\ud83d\udea2"}], "created_at": "2025-06-26T11:14:26.559-04:00", "updated_at": "2025-09-10T22:57:28.059-04:00", "avatar": "https://avatars.slack-edge.com/2025-08-23/9402628007668_5d53ff8592a7271eb3b8_original.jpg", "custom_css": null}, {"id": 12576, "slack_id": "U0930UH271R", "display_name": "Mithraa", "bio": null, "projects_count": 0, "devlogs_count": 0, "votes_count": 0, "ships_count": 0, "projects": [], "coding_time_seconds": 0, "coding_time_seconds_today": 0, "balance": "You need to have a pocket watcher badge to view this.", "badges": [], "created_at": "2025-06-26T11:18:13.724-04:00", "updated_at": "2025-07-09T17:03:00.785-04:00", "avatar": "https://secure.gravatar.com/avatar/f678827827d8d335b0fc4d40fdbc474d.jpg?s=512&d=https%3A%2F%2Fa.slack-edge.com%2Fdf10d%2Fimg%2Favatars%2Fava_0026-512.png", "custom_css": null}, {"id": 12577, "slack_id": "U09322GE05C", "display_name": "Mahaswi", "bio": null, "projects_count": 0, "devlogs_count": 0, "votes_count": 0, "ships_count": 0, "projects": [], "coding_time_seconds": 24088, "coding_time_seconds_today": 0, "balance": "You need to have a pocket watcher badge to view this.", "badges": [], "created_at": "2025-06-26T11:20:25.793-04:00", "updated_at": "2025-07-05T02:14:00.291-04:00", "avatar": "https://secure.gravatar.com/avatar/4ee60b11cfc0159214e013509607d2b0.jpg?s=512&d=https%3A%2F%2Fa.slack-edge.com%2Fdf10d%2Fimg%2Favatars%2Fava_0010-512.png", "custom_css": null}, {"id": 12578, "slack_id": "U0935NG8205", "display_name": "Mukund MV", "bio": null, "projects_count": 0, "devlogs_count": 0, "votes_count": 0, "ships_count": 0, "projects": [], "coding_time_seconds": 0, "coding_time_seconds_today": 0, "balance": "You need to have a pocket watcher badge to view this.", "badges": [], "created_at": "2025-06-26T11:21:40.412-04:00", "updated_at": "2025-07-04T08:29:01.550-04:00", "avatar": "https://secure.gravatar.com/avatar/68b0636479a9b5e238451f41dd741f0e.jpg?s=512&d=https%3A%2F%2Fa.slack-edge.com%2Fdf10d%2Fimg%2Favatars%2Fava_0009-512.png", "custom_css": null}, {"id": 12579, "slack_id": "U093262L1UY", "display_name": "Jasper Hartzell", "bio": null, "projects_count": 0, "devlogs_count": 0, "votes_count": 0, "ships_count": 0, "projects": [], "coding_time_seconds": 221191, "coding_time_seconds_today": 0, "balance": "You need to have a pocket watcher badge to view this.", "badges": [], "created_at": "2025-06-26T11:22:54.966-04:00", "updated_at": "2025-07-06T02:15:30.011-04:00", "avatar": "https://avatars.slack-edge.com/2025-06-26/9095627247063_4486d2e6ffdc90246aa7_original.png", "custom_css": null}, {"id": 12580, "slack_id": "U0938PVR8RJ", "display_name": "Sebastian WImmer", "bio": null, "projects_count": 0, "devlogs_count": 0, "votes_count": 0, "ships_count": 0, "projects": [], "coding_time_seconds": 7481, "coding_time_seconds_today": 0, "balance": "You need to have a pocket watcher badge to view this.", "badges": [], "created_at": "2025-06-26T11:38:44.038-04:00", "updated_at": "2025-07-05T08:14:21.689-04:00", "avatar": "https://avatars.slack-edge.com/2025-06-26/9123383254321_8da9f7e07cf5a908eb21_original.png", "custom_css": null}], "pagination": {"page": 629, "pages": 1192, "count": 23828, "items": 20}}