{"users": [{"id": 1241, "slack_id": "U091GEFLUTD", "display_name": "Gabriel Warner", "bio": null, "projects_count": 0, "devlogs_count": 0, "votes_count": 0, "ships_count": 0, "projects": [], "coding_time_seconds": 0, "coding_time_seconds_today": 0, "balance": "You need to have a pocket watcher badge to view this.", "badges": [], "created_at": "2025-06-16T12:55:12.411-04:00", "updated_at": "2025-07-03T19:16:44.788-04:00", "avatar": "https://secure.gravatar.com/avatar/632dc49bf91c2b837fb069d6086a506a.jpg?s=512&d=https%3A%2F%2Fa.slack-edge.com%2Fdf10d%2Fimg%2Favatars%2Fava_0019-512.png", "custom_css": null}, {"id": 1242, "slack_id": "U09220N5U2V", "display_name": "Hishhh", "bio": null, "projects_count": 0, "devlogs_count": 0, "votes_count": 0, "ships_count": 0, "projects": [], "coding_time_seconds": 68952, "coding_time_seconds_today": 0, "balance": "You need to have a pocket watcher badge to view this.", "badges": [], "created_at": "2025-06-16T12:55:34.489-04:00", "updated_at": "2025-07-21T18:16:09.512-04:00", "avatar": "https://secure.gravatar.com/avatar/8d21c3ddb135e7f7ade388665ca71b7c.jpg?s=512&d=https%3A%2F%2Fa.slack-edge.com%2Fdf10d%2Fimg%2Favatars%2Fava_0025-512.png", "custom_css": null}, {"id": 1243, "slack_id": "U07AD1XFCRH", "display_name": "Andy Chen", "bio": null, "projects_count": 0, "devlogs_count": 0, "votes_count": 0, "ships_count": 0, "projects": [], "coding_time_seconds": 120, "coding_time_seconds_today": 0, "balance": "You need to have a pocket watcher badge to view this.", "badges": [], "created_at": "2025-06-16T12:55:44.866-04:00", "updated_at": "2025-07-03T19:16:45.325-04:00", "avatar": "https://avatars.slack-edge.com/2024-06-29/7338622332951_d30c474325de8c9ade1d_original.png", "custom_css": null}, {"id": 1244, "slack_id": "U091MLGG2JZ", "display_name": "Aniruddh Dubey", "bio": null, "projects_count": 0, "devlogs_count": 0, "votes_count": 0, "ships_count": 0, "projects": [], "coding_time_seconds": 38839, "coding_time_seconds_today": 0, "balance": "You need to have a pocket watcher badge to view this.", "badges": [], "created_at": "2025-06-16T12:55:52.697-04:00", "updated_at": "2025-07-03T19:16:45.599-04:00", "avatar": "https://secure.gravatar.com/avatar/00b3c1546e655efbdb51646089af583b.jpg?s=512&d=https%3A%2F%2Fa.slack-edge.com%2Fdf10d%2Fimg%2Favatars%2Fava_0003-512.png", "custom_css": null}, {"id": 1245, "slack_id": "U092BTK4BUG", "display_name": "Jonas", "bio": null, "projects_count": 0, "devlogs_count": 0, "votes_count": 0, "ships_count": 0, "projects": [], "coding_time_seconds": 0, "coding_time_seconds_today": 0, "balance": "You need to have a pocket watcher badge to view this.", "badges": [], "created_at": "2025-06-16T12:55:53.904-04:00", "updated_at": "2025-07-03T19:16:45.863-04:00", "avatar": "https://secure.gravatar.com/avatar/a758a671e6276ce3aba81a13355c230f.jpg?s=512&d=https%3A%2F%2Fa.slack-edge.com%2Fdf10d%2Fimg%2Favatars%2Fava_0008-512.png", "custom_css": null}, {"id": 1246, "slack_id": "U09220FV5Q9", "display_name": "Jothin Kumar", "bio": null, "projects_count": 2, "devlogs_count": 2, "votes_count": 4, "ships_count": 1, "projects": [{"id": 203, "title": "A-Maze: Create, Play and Share mazes!", "devlogs_count": 1, "created_at": "2025-06-16T15:22:56.456-04:00"}, {"id": 10342, "title": "Mozhigraph", "devlogs_count": 1, "created_at": "2025-08-06T04:54:56.073-04:00"}], "coding_time_seconds": 87298, "coding_time_seconds_today": 0, "balance": "You need to have a pocket watcher badge to view this.", "badges": [{"name": "Maiden Voyage", "text": "you shipped your first project! the journey begins...", "icon": "\ud83d\udea2"}], "created_at": "2025-06-16T12:55:54.379-04:00", "updated_at": "2025-09-10T22:51:46.457-04:00", "avatar": "https://secure.gravatar.com/avatar/bcd284e5ecebc38d1a700bf775acc337.jpg?s=512&d=https%3A%2F%2Fa.slack-edge.com%2Fdf10d%2Fimg%2Favatars%2Fava_0007-512.png", "custom_css": null}, {"id": 1247, "slack_id": "U091GEFF8GK", "display_name": "Ayoub Koddam", "bio": null, "projects_count": 0, "devlogs_count": 0, "votes_count": 0, "ships_count": 0, "projects": [], "coding_time_seconds": 0, "coding_time_seconds_today": 0, "balance": "You need to have a pocket watcher badge to view this.", "badges": [], "created_at": "2025-06-16T12:56:11.574-04:00", "updated_at": "2025-07-03T19:16:46.396-04:00", "avatar": "https://avatars.slack-edge.com/2025-06-16/9070044332225_bba9bc0b5dbfccf715d1_original.jpg", "custom_css": null}, {"id": 1248, "slack_id": "U091MLE7VQV", "display_name": "Charley", "bio": null, "projects_count": 3, "devlogs_count": 1, "votes_count": 0, "ships_count": 0, "projects": [{"id": 167, "title": "Basecamp", "devlogs_count": 0, "created_at": "2025-06-16T14:49:05.469-04:00"}, {"id": 329, "title": "Basecamp Landing Page", "devlogs_count": 1, "created_at": "2025-06-16T18:11:21.213-04:00"}, {"id": 10046, "title": "Lunch Ordering System", "devlogs_count": 0, "created_at": "2025-08-03T17:04:21.040-04:00"}], "coding_time_seconds": 480960, "coding_time_seconds_today": 0, "balance": "You need to have a pocket watcher badge to view this.", "badges": [], "created_at": "2025-06-16T12:56:12.645-04:00", "updated_at": "2025-07-03T19:16:46.669-04:00", "avatar": "https://secure.gravatar.com/avatar/a2d777cb515e03684ab80f772065ae54.jpg?s=512&d=https%3A%2F%2Fa.slack-edge.com%2Fdf10d%2Fimg%2Favatars%2Fava_0005-512.png", "custom_css": null}, {"id": 1249, "slack_id": "U07DTAMEMS6", "display_name": "Ne\u0159\u00edkej mi O\u0148\u010fa", "bio": null, "projects_count": 1, "devlogs_count": 7, "votes_count": 0, "ships_count": 0, "projects": [{"id": 1707, "title": "Looplens", "devlogs_count": 7, "created_at": "2025-06-19T04:17:50.512-04:00"}], "coding_time_seconds": 99789, "coding_time_seconds_today": 0, "balance": "You need to have a pocket watcher badge to view this.", "badges": [], "created_at": "2025-06-16T12:56:15.129-04:00", "updated_at": "2025-09-02T04:32:37.384-04:00", "avatar": "https://avatars.slack-edge.com/2024-07-24/7466493119509_49542b282762ff75b7ea_original.png", "custom_css": null}, {"id": 1250, "slack_id": "U091818Q1PH", "display_name": "dreadfulstep", "bio": null, "projects_count": 0, "devlogs_count": 0, "votes_count": 0, "ships_count": 0, "projects": [], "coding_time_seconds": 36539, "coding_time_seconds_today": 0, "balance": "You need to have a pocket watcher badge to view this.", "badges": [], "created_at": "2025-06-16T12:56:15.586-04:00", "updated_at": "2025-07-03T19:16:47.210-04:00", "avatar": "https://avatars.slack-edge.com/2025-06-16/9070043816449_169dd594db83ecc998f5_original.jpg", "custom_css": null}, {"id": 1251, "slack_id": "U091PS3GDE0", "display_name": "Abderrahmane Hafdane", "bio": null, "projects_count": 0, "devlogs_count": 0, "votes_count": 0, "ships_count": 0, "projects": [], "coding_time_seconds": 0, "coding_time_seconds_today": 0, "balance": "You need to have a pocket watcher badge to view this.", "badges": [], "created_at": "2025-06-16T12:56:21.257-04:00", "updated_at": "2025-07-03T19:16:47.497-04:00", "avatar": "https://secure.gravatar.com/avatar/8b9d344f131aad1ca8ddb866a63d08ce.jpg?s=512&d=https%3A%2F%2Fa.slack-edge.com%2Fdf10d%2Fimg%2Favatars%2Fava_0007-512.png", "custom_css": null}, {"id": 1252, "slack_id": "U091PSGL468", "display_name": "Lucas Rosen", "bio": null, "projects_count": 1, "devlogs_count": 1, "votes_count": 0, "ships_count": 0, "projects": [{"id": 2930, "title": "Risk", "devlogs_count": 1, "created_at": "2025-06-22T13:42:05.554-04:00"}], "coding_time_seconds": 8834, "coding_time_seconds_today": 0, "balance": "You need to have a pocket watcher badge to view this.", "badges": [], "created_at": "2025-06-16T12:56:28.232-04:00", "updated_at": "2025-07-03T19:16:47.761-04:00", "avatar": "https://secure.gravatar.com/avatar/34b73c65bd6aa15e6312dadbfbc75caa.jpg?s=512&d=https%3A%2F%2Fa.slack-edge.com%2Fdf10d%2Fimg%2Favatars%2Fava_0005-512.png", "custom_css": null}, {"id": 1253, "slack_id": "U09215LSTPB", "display_name": "Saleh", "bio": null, "projects_count": 0, "devlogs_count": 0, "votes_count": 0, "ships_count": 0, "projects": [], "coding_time_seconds": 0, "coding_time_seconds_today": 0, "balance": "You need to have a pocket watcher badge to view this.", "badges": [], "created_at": "2025-06-16T12:56:33.872-04:00", "updated_at": "2025-07-03T19:16:48.034-04:00", "avatar": "https://secure.gravatar.com/avatar/4d5ce4274636cc09922827fd36434f19.jpg?s=512&d=https%3A%2F%2Fa.slack-edge.com%2Fdf10d%2Fimg%2Favatars%2Fava_0003-512.png", "custom_css": null}, {"id": 1254, "slack_id": "U091GHD5C7Q", "display_name": "The Quantum Cog", "bio": null, "projects_count": 0, "devlogs_count": 0, "votes_count": 0, "ships_count": 0, "projects": [], "coding_time_seconds": 0, "coding_time_seconds_today": 0, "balance": "You need to have a pocket watcher badge to view this.", "badges": [], "created_at": "2025-06-16T12:56:34.223-04:00", "updated_at": "2025-07-03T19:16:48.308-04:00", "avatar": "https://secure.gravatar.com/avatar/5464e42cff4eaa9d861810982748eed0.jpg?s=512&d=https%3A%2F%2Fa.slack-edge.com%2Fdf10d%2Fimg%2Favatars%2Fava_0012-512.png", "custom_css": null}, {"id": 1255, "slack_id": "U091MLUP537", "display_name": "Khiem Doan", "bio": null, "projects_count": 0, "devlogs_count": 0, "votes_count": 0, "ships_count": 0, "projects": [], "coding_time_seconds": 0, "coding_time_seconds_today": 0, "balance": "You need to have a pocket watcher badge to view this.", "badges": [], "created_at": "2025-06-16T12:56:39.722-04:00", "updated_at": "2025-07-03T19:16:48.605-04:00", "avatar": "https://secure.gravatar.com/avatar/7752e3ae8f2647977ae0b60898cee899.jpg?s=512&d=https%3A%2F%2Fa.slack-edge.com%2Fdf10d%2Fimg%2Favatars%2Fava_0005-512.png", "custom_css": null}, {"id": 1256, "slack_id": "U07EY6YRJ4W", "display_name": "Shiva Prakash", "bio": null, "projects_count": 1, "devlogs_count": 2, "votes_count": 0, "ships_count": 0, "projects": [{"id": 2759, "title": "Shiva's Corner of the Internet", "devlogs_count": 2, "created_at": "2025-06-22T01:20:44.414-04:00"}], "coding_time_seconds": 11081, "coding_time_seconds_today": 0, "balance": "You need to have a pocket watcher badge to view this.", "badges": [], "created_at": "2025-06-16T12:56:40.919-04:00", "updated_at": "2025-07-03T19:16:48.879-04:00", "avatar": "https://avatars.slack-edge.com/2025-06-14/9062761330081_a16da0f927519b509c46_original.jpg", "custom_css": null}, {"id": 1257, "slack_id": "U092BTWLD5E", "display_name": "Rhys", "bio": null, "projects_count": 0, "devlogs_count": 0, "votes_count": 0, "ships_count": 0, "projects": [], "coding_time_seconds": 0, "coding_time_seconds_today": 0, "balance": "You need to have a pocket watcher badge to view this.", "badges": [], "created_at": "2025-06-16T12:56:53.821-04:00", "updated_at": "2025-07-03T19:16:49.143-04:00", "avatar": "https://secure.gravatar.com/avatar/1d54a7719e96be69d30b8ea369ccbcd5.jpg?s=512&d=https%3A%2F%2Fa.slack-edge.com%2Fdf10d%2Fimg%2Favatars%2Fava_0013-512.png", "custom_css": null}, {"id": 1258, "slack_id": "U09184SULCF", "display_name": "Clayton", "bio": null, "projects_count": 3, "devlogs_count": 0, "votes_count": 0, "ships_count": 0, "projects": [{"id": 108, "title": "telemetry", "devlogs_count": 0, "created_at": "2025-06-16T13:43:26.427-04:00"}, {"id": 215, "title": "Quack Fire", "devlogs_count": 0, "created_at": "2025-06-16T15:43:08.228-04:00"}, {"id": 217, "title": "A memory game ", "devlogs_count": 0, "created_at": "2025-06-16T15:46:17.705-04:00"}], "coding_time_seconds": 36901, "coding_time_seconds_today": 0, "balance": "You need to have a pocket watcher badge to view this.", "badges": [], "created_at": "2025-06-16T12:57:00.723-04:00", "updated_at": "2025-07-03T19:16:49.409-04:00", "avatar": "https://secure.gravatar.com/avatar/78c039c7aef19f6b19d572a576008795.jpg?s=512&d=https%3A%2F%2Fa.slack-edge.com%2Fdf10d%2Fimg%2Favatars%2Fava_0018-512.png", "custom_css": null}, {"id": 1259, "slack_id": "U091ML8L5QD", "display_name": "Enock", "bio": null, "projects_count": 0, "devlogs_count": 0, "votes_count": 0, "ships_count": 0, "projects": [], "coding_time_seconds": 208177, "coding_time_seconds_today": 7404, "balance": "You need to have a pocket watcher badge to view this.", "badges": [], "created_at": "2025-06-16T12:57:11.862-04:00", "updated_at": "2025-07-03T19:16:49.694-04:00", "avatar": "https://secure.gravatar.com/avatar/de43941215d47276dcc2f46997efe8ae.jpg?s=512&d=https%3A%2F%2Fa.slack-edge.com%2Fdf10d%2Fimg%2Favatars%2Fava_0002-512.png", "custom_css": null}, {"id": 1260, "slack_id": "U0921NHAQFK", "display_name": "Kushagra Garg", "bio": null, "projects_count": 0, "devlogs_count": 0, "votes_count": 0, "ships_count": 0, "projects": [], "coding_time_seconds": 44977, "coding_time_seconds_today": 0, "balance": "You need to have a pocket watcher badge to view this.", "badges": [], "created_at": "2025-06-16T12:57:20.293-04:00", "updated_at": "2025-07-03T19:16:49.972-04:00", "avatar": "https://secure.gravatar.com/avatar/a12f2b165357daa5ac7b0e4fbf97375b.jpg?s=512&d=https%3A%2F%2Fa.slack-edge.com%2Fdf10d%2Fimg%2Favatars%2Fava_0002-512.png", "custom_css": null}], "pagination": {"page": 63, "pages": 1192, "count": 23827, "items": 20}}