{"users": [{"id": 12581, "slack_id": "U09308WG570", "display_name": "hasnain haidar", "bio": null, "projects_count": 0, "devlogs_count": 0, "votes_count": 0, "ships_count": 0, "projects": [], "coding_time_seconds": 0, "coding_time_seconds_today": 0, "balance": "You need to have a pocket watcher badge to view this.", "badges": [], "created_at": "2025-06-26T11:39:32.886-04:00", "updated_at": "2025-07-03T20:04:27.585-04:00", "avatar": "https://secure.gravatar.com/avatar/9819bb8458db984fa9ebdbe2c80b6d04.jpg?s=512&d=https%3A%2F%2Fa.slack-edge.com%2Fdf10d%2Fimg%2Favatars%2Fava_0004-512.png", "custom_css": null}, {"id": 12582, "slack_id": "U0938UXLJ76", "display_name": "Amirkhan", "bio": null, "projects_count": 0, "devlogs_count": 0, "votes_count": 0, "ships_count": 0, "projects": [], "coding_time_seconds": 0, "coding_time_seconds_today": 0, "balance": "You need to have a pocket watcher badge to view this.", "badges": [], "created_at": "2025-06-26T11:44:37.169-04:00", "updated_at": "2025-07-03T20:04:27.847-04:00", "avatar": "https://secure.gravatar.com/avatar/2231d3dc54a779c2569663e136508a0e.jpg?s=512&d=https%3A%2F%2Fa.slack-edge.com%2Fdf10d%2Fimg%2Favatars%2Fava_0024-512.png", "custom_css": null}, {"id": 12583, "slack_id": "U08BTC7QXFS", "display_name": "BachHummus", "bio": null, "projects_count": 0, "devlogs_count": 0, "votes_count": 1, "ships_count": 0, "projects": [], "coding_time_seconds": 0, "coding_time_seconds_today": 0, "balance": "You need to have a pocket watcher badge to view this.", "badges": [], "created_at": "2025-06-26T11:50:32.708-04:00", "updated_at": "2025-08-19T06:44:21.511-04:00", "avatar": "https://secure.gravatar.com/avatar/c306c6b2c36b98f1f1a332a2b28c4805.jpg?s=512&d=https%3A%2F%2Fa.slack-edge.com%2Fdf10d%2Fimg%2Favatars%2Fava_0006-512.png", "custom_css": null}, {"id": 12584, "slack_id": "U079F86R9EK", "display_name": "Ashton Antila", "bio": null, "projects_count": 0, "devlogs_count": 0, "votes_count": 0, "ships_count": 0, "projects": [], "coding_time_seconds": 107006, "coding_time_seconds_today": 0, "balance": "You need to have a pocket watcher badge to view this.", "badges": [], "created_at": "2025-06-26T11:57:46.316-04:00", "updated_at": "2025-07-03T20:04:28.366-04:00", "avatar": "https://secure.gravatar.com/avatar/0d165a2372779e522c7364d59f32fbc6.jpg?s=512&d=https%3A%2F%2Fa.slack-edge.com%2Fdf10d%2Fimg%2Favatars%2Fava_0004-512.png", "custom_css": null}, {"id": 12585, "slack_id": "U093WB6JYM6", "display_name": "Yuvraj singh", "bio": null, "projects_count": 2, "devlogs_count": 2, "votes_count": 9, "ships_count": 1, "projects": [{"id": 4971, "title": "DevTinder: A Full-Stack MERN Application for Real-Time Developer Networking", "devlogs_count": 1, "created_at": "2025-07-02T13:09:26.359-04:00"}, {"id": 5976, "title": "Dev-Tinder-Backend (Build by learning )", "devlogs_count": 1, "created_at": "2025-07-09T14:33:25.586-04:00"}], "coding_time_seconds": 903434, "coding_time_seconds_today": 0, "balance": "You need to have a pocket watcher badge to view this.", "badges": [{"name": "Maiden Voyage", "text": "you shipped your first project! the journey begins...", "icon": "\ud83d\udea2"}], "created_at": "2025-06-26T12:16:17.993-04:00", "updated_at": "2025-09-10T22:57:28.325-04:00", "avatar": "https://secure.gravatar.com/avatar/c4ab8ebbdd22ee123c7253156c8197d3.jpg?s=512&d=https%3A%2F%2Fa.slack-edge.com%2Fdf10d%2Fimg%2Favatars%2Fava_0014-512.png", "custom_css": null}, {"id": 12586, "slack_id": "U082C7QH7K5", "display_name": "ewph", "bio": null, "projects_count": 0, "devlogs_count": 0, "votes_count": 0, "ships_count": 0, "projects": [], "coding_time_seconds": 0, "coding_time_seconds_today": 0, "balance": "You need to have a pocket watcher badge to view this.", "badges": [], "created_at": "2025-06-26T12:20:38.462-04:00", "updated_at": "2025-07-04T08:29:02.139-04:00", "avatar": "https://secure.gravatar.com/avatar/a53b9a3f792888550f1ff827c848f037.jpg?s=512&d=https%3A%2F%2Fa.slack-edge.com%2Fdf10d%2Fimg%2Favatars%2Fava_0021-512.png", "custom_css": null}, {"id": 12587, "slack_id": "U0932F0KS4E", "display_name": "Vinz Kanal", "bio": null, "projects_count": 0, "devlogs_count": 0, "votes_count": 0, "ships_count": 0, "projects": [], "coding_time_seconds": 0, "coding_time_seconds_today": 0, "balance": "You need to have a pocket watcher badge to view this.", "badges": [], "created_at": "2025-06-26T12:21:30.313-04:00", "updated_at": "2025-07-03T20:04:29.033-04:00", "avatar": "https://avatars.slack-edge.com/2025-06-26/9132423768256_ba3bc20dcc7477b7ceec_original.jpg", "custom_css": null}, {"id": 12588, "slack_id": "U0932FDJ27Q", "display_name": "Code Demon", "bio": null, "projects_count": 0, "devlogs_count": 0, "votes_count": 0, "ships_count": 0, "projects": [], "coding_time_seconds": 0, "coding_time_seconds_today": 0, "balance": "You need to have a pocket watcher badge to view this.", "badges": [], "created_at": "2025-06-26T12:25:23.176-04:00", "updated_at": "2025-07-03T20:04:29.293-04:00", "avatar": "https://avatars.slack-edge.com/2025-06-26/9111268346196_0766dc75b41501d3f23f_original.jpg", "custom_css": null}, {"id": 12589, "slack_id": "U09399DV2MS", "display_name": "Shashikant Shashikant", "bio": null, "projects_count": 2, "devlogs_count": 0, "votes_count": 0, "ships_count": 0, "projects": [{"id": 3962, "title": "ERR (Emergency response robot)", "devlogs_count": 0, "created_at": "2025-06-26T14:20:01.367-04:00"}, {"id": 3963, "title": "ERR (Emergency response robot)", "devlogs_count": 0, "created_at": "2025-06-26T14:20:02.439-04:00"}], "coding_time_seconds": 480, "coding_time_seconds_today": 0, "balance": "You need to have a pocket watcher badge to view this.", "badges": [], "created_at": "2025-06-26T12:37:17.539-04:00", "updated_at": "2025-07-03T20:04:29.550-04:00", "avatar": "https://avatars.slack-edge.com/2025-06-26/9104628778422_b5dc85c8e2b6f1140627_original.png", "custom_css": null}, {"id": 12590, "slack_id": "U0939A7DCKE", "display_name": "Atiksh Nagpal", "bio": null, "projects_count": 0, "devlogs_count": 0, "votes_count": 0, "ships_count": 0, "projects": [], "coding_time_seconds": 2054, "coding_time_seconds_today": 0, "balance": "You need to have a pocket watcher badge to view this.", "badges": [], "created_at": "2025-06-26T12:44:26.236-04:00", "updated_at": "2025-07-29T03:02:43.736-04:00", "avatar": "https://secure.gravatar.com/avatar/8906ed48a227a98261879bfd78831217.jpg?s=512&d=https%3A%2F%2Fa.slack-edge.com%2Fdf10d%2Fimg%2Favatars%2Fava_0007-512.png", "custom_css": null}, {"id": 12591, "slack_id": "U093WG9SE48", "display_name": "Matteo", "bio": null, "projects_count": 0, "devlogs_count": 0, "votes_count": 0, "ships_count": 0, "projects": [], "coding_time_seconds": 0, "coding_time_seconds_today": 0, "balance": "You need to have a pocket watcher badge to view this.", "badges": [], "created_at": "2025-06-26T12:45:00.697-04:00", "updated_at": "2025-07-03T20:04:30.084-04:00", "avatar": "https://secure.gravatar.com/avatar/1c426fda457c382a10c30d4d50f86458.jpg?s=512&d=https%3A%2F%2Fa.slack-edge.com%2Fdf10d%2Fimg%2Favatars%2Fava_0016-512.png", "custom_css": null}, {"id": 12592, "slack_id": "U0931GXGN2F", "display_name": "Vivek Verma", "bio": null, "projects_count": 0, "devlogs_count": 0, "votes_count": 0, "ships_count": 0, "projects": [], "coding_time_seconds": 0, "coding_time_seconds_today": 0, "balance": "You need to have a pocket watcher badge to view this.", "badges": [], "created_at": "2025-06-26T12:57:52.802-04:00", "updated_at": "2025-07-03T20:04:30.340-04:00", "avatar": "https://secure.gravatar.com/avatar/1880abfbadd6d3d79afbcb21807a67e0.jpg?s=512&d=https%3A%2F%2Fa.slack-edge.com%2Fdf10d%2Fimg%2Favatars%2Fava_0001-512.png", "custom_css": null}, {"id": 12593, "slack_id": "U07ANPHJGF7", "display_name": "Ziad", "bio": null, "projects_count": 0, "devlogs_count": 0, "votes_count": 0, "ships_count": 0, "projects": [], "coding_time_seconds": 157, "coding_time_seconds_today": 0, "balance": "You need to have a pocket watcher badge to view this.", "badges": [], "created_at": "2025-06-26T13:04:05.402-04:00", "updated_at": "2025-07-03T20:04:30.603-04:00", "avatar": "https://avatars.slack-edge.com/2025-06-01/8976533565782_cf013fd04af86393f5b8_original.png", "custom_css": null}, {"id": 12594, "slack_id": "U08RQ7U2LA3", "display_name": "Kawtar Ziadi", "bio": null, "projects_count": 1, "devlogs_count": 0, "votes_count": 0, "ships_count": 0, "projects": [{"id": 8204, "title": "myBMR", "devlogs_count": 0, "created_at": "2025-07-25T07:36:18.861-04:00"}], "coding_time_seconds": 5263, "coding_time_seconds_today": 0, "balance": "You need to have a pocket watcher badge to view this.", "badges": [], "created_at": "2025-06-26T13:18:00.653-04:00", "updated_at": "2025-07-06T07:32:31.174-04:00", "avatar": "https://avatars.slack-edge.com/2025-05-13/8881244999958_7206205e5b151c503755_original.png", "custom_css": null}, {"id": 12595, "slack_id": "U0932QR1QEA", "display_name": "PrimeX", "bio": null, "projects_count": 1, "devlogs_count": 0, "votes_count": 0, "ships_count": 0, "projects": [{"id": 5090, "title": "FoundLyrics ", "devlogs_count": 0, "created_at": "2025-07-03T07:44:30.855-04:00"}], "coding_time_seconds": 102954, "coding_time_seconds_today": 0, "balance": "You need to have a pocket watcher badge to view this.", "badges": [], "created_at": "2025-06-26T13:19:49.249-04:00", "updated_at": "2025-08-14T04:55:13.182-04:00", "avatar": "https://secure.gravatar.com/avatar/44cc21f91eaf0f8bd338e4238b711948.jpg?s=512&d=https%3A%2F%2Fa.slack-edge.com%2Fdf10d%2Fimg%2Favatars%2Fava_0004-512.png", "custom_css": null}, {"id": 12596, "slack_id": "U093M0AC98R", "display_name": "sparkle", "bio": null, "projects_count": 0, "devlogs_count": 0, "votes_count": 0, "ships_count": 0, "projects": [], "coding_time_seconds": 0, "coding_time_seconds_today": 0, "balance": "You need to have a pocket watcher badge to view this.", "badges": [], "created_at": "2025-06-26T13:20:25.944-04:00", "updated_at": "2025-07-03T20:04:31.394-04:00", "avatar": "https://secure.gravatar.com/avatar/0457d9822c3691148f4a59f78814eefc.jpg?s=512&d=https%3A%2F%2Fa.slack-edge.com%2Fdf10d%2Fimg%2Favatars%2Fava_0012-512.png", "custom_css": null}, {"id": 12597, "slack_id": "U0936EVMH4M", "display_name": "Asra Irshad", "bio": null, "projects_count": 0, "devlogs_count": 0, "votes_count": 0, "ships_count": 0, "projects": [], "coding_time_seconds": 0, "coding_time_seconds_today": 0, "balance": "You need to have a pocket watcher badge to view this.", "badges": [], "created_at": "2025-06-26T13:29:14.918-04:00", "updated_at": "2025-07-03T20:04:31.654-04:00", "avatar": "https://secure.gravatar.com/avatar/c48a1c9feeb3622d4d32bb4bc8b16df8.jpg?s=512&d=https%3A%2F%2Fa.slack-edge.com%2Fdf10d%2Fimg%2Favatars%2Fava_0024-512.png", "custom_css": null}, {"id": 12598, "slack_id": "U0936GXRR45", "display_name": "cyril crua", "bio": null, "projects_count": 0, "devlogs_count": 0, "votes_count": 0, "ships_count": 0, "projects": [], "coding_time_seconds": 0, "coding_time_seconds_today": 0, "balance": "You need to have a pocket watcher badge to view this.", "badges": [], "created_at": "2025-06-26T13:36:50.090-04:00", "updated_at": "2025-07-03T20:04:31.920-04:00", "avatar": "https://secure.gravatar.com/avatar/b08f173f83422098cd15f542a28c4d48.jpg?s=512&d=https%3A%2F%2Fa.slack-edge.com%2Fdf10d%2Fimg%2Favatars%2Fava_0017-512.png", "custom_css": null}, {"id": 12599, "slack_id": "U092CJ4FZE2", "display_name": "Luca", "bio": null, "projects_count": 0, "devlogs_count": 0, "votes_count": 0, "ships_count": 0, "projects": [], "coding_time_seconds": 0, "coding_time_seconds_today": 0, "balance": "You need to have a pocket watcher badge to view this.", "badges": [], "created_at": "2025-06-26T13:42:36.571-04:00", "updated_at": "2025-07-04T08:29:03.592-04:00", "avatar": "https://secure.gravatar.com/avatar/5c9352dbaaa9110db8aee29bff96c807.jpg?s=512&d=https%3A%2F%2Fa.slack-edge.com%2Fdf10d%2Fimg%2Favatars%2Fava_0022-512.png", "custom_css": null}, {"id": 12600, "slack_id": "U0936KAETQD", "display_name": "aarvin", "bio": "classical violinist & software engineer", "projects_count": 0, "devlogs_count": 124, "votes_count": 151, "ships_count": 0, "projects": [], "coding_time_seconds": 256943, "coding_time_seconds_today": 0, "balance": "You need to have a pocket watcher badge to view this.", "badges": [{"name": "Maiden Voyage", "text": "you shipped your first project! the journey begins...", "icon": "\ud83d\udea2"}, {"name": "Ballot Stuffer", "text": "vote 100 times.", "icon": "https://summer.hackclub.com/assets/i_voted-bf851b48.png"}], "created_at": "2025-06-26T13:54:56.226-04:00", "updated_at": "2025-09-10T22:57:28.814-04:00", "avatar": "https://avatars.slack-edge.com/2025-06-26/9096702291399_4b5ed9c01cfaf9a6f5c8_original.png", "custom_css": null}], "pagination": {"page": 630, "pages": 1192, "count": 23828, "items": 20}}