{"users": [{"id": 12601, "slack_id": "U091DPK5K39", "display_name": "Mousy", "bio": null, "projects_count": 1, "devlogs_count": 0, "votes_count": 0, "ships_count": 0, "projects": [{"id": 3981, "title": "Dashfinity", "devlogs_count": 0, "created_at": "2025-06-26T16:00:40.938-04:00"}], "coding_time_seconds": 170, "coding_time_seconds_today": 0, "balance": "You need to have a pocket watcher badge to view this.", "badges": [], "created_at": "2025-06-26T14:05:57.100-04:00", "updated_at": "2025-07-03T20:04:32.473-04:00", "avatar": "https://avatars.slack-edge.com/2025-06-26/9096632079863_84a72d87e434a38b51df_original.png", "custom_css": null}, {"id": 12602, "slack_id": "U06UVG57QMT", "display_name": "Eamonn", "bio": null, "projects_count": 0, "devlogs_count": 0, "votes_count": 0, "ships_count": 0, "projects": [], "coding_time_seconds": 242, "coding_time_seconds_today": 0, "balance": "You need to have a pocket watcher badge to view this.", "badges": [], "created_at": "2025-06-26T14:11:55.297-04:00", "updated_at": "2025-07-03T20:04:32.734-04:00", "avatar": "https://secure.gravatar.com/avatar/a9181feb795d21304187d0731aea733b.jpg?s=512&d=https%3A%2F%2Fa.slack-edge.com%2Fdf10d%2Fimg%2Favatars%2Fava_0004-512.png", "custom_css": null}, {"id": 12603, "slack_id": "U092UJZUB55", "display_name": "Samarth", "bio": null, "projects_count": 0, "devlogs_count": 0, "votes_count": 0, "ships_count": 0, "projects": [], "coding_time_seconds": 1443, "coding_time_seconds_today": 0, "balance": "You need to have a pocket watcher badge to view this.", "badges": [], "created_at": "2025-06-26T14:12:16.382-04:00", "updated_at": "2025-07-04T20:13:26.281-04:00", "avatar": "https://secure.gravatar.com/avatar/92131a3cd1368cc4b99cf0aeb933aa40.jpg?s=512&d=https%3A%2F%2Fa.slack-edge.com%2Fdf10d%2Fimg%2Favatars%2Fava_0004-512.png", "custom_css": null}, {"id": 12604, "slack_id": "U09336P7A5C", "display_name": "Michael", "bio": null, "projects_count": 2, "devlogs_count": 2, "votes_count": 0, "ships_count": 0, "projects": [{"id": 3979, "title": "Routely Backend API", "devlogs_count": 2, "created_at": "2025-06-26T15:35:31.947-04:00"}, {"id": 4108, "title": "Routely Mobile App", "devlogs_count": 0, "created_at": "2025-06-27T14:14:16.938-04:00"}], "coding_time_seconds": 46723, "coding_time_seconds_today": 0, "balance": "You need to have a pocket watcher badge to view this.", "badges": [], "created_at": "2025-06-26T14:20:54.844-04:00", "updated_at": "2025-07-04T02:32:45.822-04:00", "avatar": "https://secure.gravatar.com/avatar/3a80b3a3fe1ea47ed0d8b0338262aec1.jpg?s=512&d=https%3A%2F%2Fa.slack-edge.com%2Fdf10d%2Fimg%2Favatars%2Fava_0025-512.png", "custom_css": null}, {"id": 12605, "slack_id": "U093NA5PESD", "display_name": "ssss", "bio": null, "projects_count": 0, "devlogs_count": 0, "votes_count": 0, "ships_count": 0, "projects": [], "coding_time_seconds": 0, "coding_time_seconds_today": 0, "balance": "You need to have a pocket watcher badge to view this.", "badges": [], "created_at": "2025-06-26T14:21:16.915-04:00", "updated_at": "2025-07-04T08:29:04.030-04:00", "avatar": "https://secure.gravatar.com/avatar/29fb5a441573e7f21754740c95ab4b5e.jpg?s=512&d=https%3A%2F%2Fa.slack-edge.com%2Fdf10d%2Fimg%2Favatars%2Fava_0019-512.png", "custom_css": null}, {"id": 12606, "slack_id": "U09398PPAR0", "display_name": "Bobby Royal", "bio": null, "projects_count": 1, "devlogs_count": 0, "votes_count": 0, "ships_count": 0, "projects": [{"id": 4027, "title": "storage conversion", "devlogs_count": 0, "created_at": "2025-06-27T00:04:34.999-04:00"}], "coding_time_seconds": 8804, "coding_time_seconds_today": 0, "balance": "You need to have a pocket watcher badge to view this.", "badges": [], "created_at": "2025-06-26T14:46:39.035-04:00", "updated_at": "2025-07-04T08:29:04.118-04:00", "avatar": "https://avatars.slack-edge.com/2025-06-26/9124725402401_24db2118879c14dd0027_original.png", "custom_css": null}, {"id": 12607, "slack_id": "U093A32R5RS", "display_name": "Gordon Li", "bio": null, "projects_count": 3, "devlogs_count": 0, "votes_count": 0, "ships_count": 0, "projects": [{"id": 5505, "title": "ML for Taxi Trips", "devlogs_count": 0, "created_at": "2025-07-05T20:12:35.451-04:00"}, {"id": 5506, "title": "ML for Calories burnt during Exercises", "devlogs_count": 0, "created_at": "2025-07-05T20:14:24.651-04:00"}, {"id": 5507, "title": "Make a Google Docs Copy", "devlogs_count": 0, "created_at": "2025-07-05T20:15:04.480-04:00"}], "coding_time_seconds": 36110, "coding_time_seconds_today": 0, "balance": "You need to have a pocket watcher badge to view this.", "badges": [], "created_at": "2025-06-26T14:57:30.930-04:00", "updated_at": "2025-07-03T20:04:33.535-04:00", "avatar": "https://secure.gravatar.com/avatar/c28ae556a9d706b73f52b7a6658d9b5e.jpg?s=512&d=https%3A%2F%2Fa.slack-edge.com%2Fdf10d%2Fimg%2Favatars%2Fava_0003-512.png", "custom_css": null}, {"id": 12608, "slack_id": "U093NGWC3T3", "display_name": "nam Nguy\u1ec5n", "bio": null, "projects_count": 0, "devlogs_count": 5, "votes_count": 15, "ships_count": 0, "projects": [], "coding_time_seconds": 271126, "coding_time_seconds_today": 0, "balance": "You need to have a pocket watcher badge to view this.", "badges": [{"name": "Maiden Voyage", "text": "you shipped your first project! the journey begins...", "icon": "\ud83d\udea2"}], "created_at": "2025-06-26T15:02:34.234-04:00", "updated_at": "2025-09-10T22:57:29.024-04:00", "avatar": "https://avatars.slack-edge.com/2025-06-26/9109058974645_f22582d0988c40e6477c_original.jpg", "custom_css": null}, {"id": 12609, "slack_id": "U093XBCPHU0", "display_name": "Shubham Dhall", "bio": null, "projects_count": 2, "devlogs_count": 5, "votes_count": 43, "ships_count": 1, "projects": [{"id": 10388, "title": "ZipCast", "devlogs_count": 5, "created_at": "2025-08-06T14:18:41.717-04:00"}, {"id": 12646, "title": "Workout Trainer", "devlogs_count": 0, "created_at": "2025-08-31T01:15:23.220-04:00"}], "coding_time_seconds": 36381, "coding_time_seconds_today": 0, "balance": "You need to have a pocket watcher badge to view this.", "badges": [{"name": "Maiden Voyage", "text": "you shipped your first project! the journey begins...", "icon": "\ud83d\udea2"}], "created_at": "2025-06-26T15:16:34.000-04:00", "updated_at": "2025-09-10T22:57:29.072-04:00", "avatar": "https://secure.gravatar.com/avatar/02a9194c3082b6ba12a48f503dc69159.jpg?s=512&d=https%3A%2F%2Fa.slack-edge.com%2Fdf10d%2Fimg%2Favatars%2Fava_0023-512.png", "custom_css": null}, {"id": 12610, "slack_id": "U093A693NQ4", "display_name": "mare", "bio": null, "projects_count": 0, "devlogs_count": 0, "votes_count": 0, "ships_count": 0, "projects": [], "coding_time_seconds": 6122, "coding_time_seconds_today": 0, "balance": "You need to have a pocket watcher badge to view this.", "badges": [], "created_at": "2025-06-26T15:17:18.982-04:00", "updated_at": "2025-08-19T01:30:14.928-04:00", "avatar": "https://secure.gravatar.com/avatar/6f4dd451d51e6f4a28c615fb9629a179.jpg?s=512&d=https%3A%2F%2Fa.slack-edge.com%2Fdf10d%2Fimg%2Favatars%2Fava_0026-512.png", "custom_css": null}, {"id": 12611, "slack_id": "U092V0NCK71", "display_name": "mukuvi", "bio": null, "projects_count": 0, "devlogs_count": 0, "votes_count": 0, "ships_count": 0, "projects": [], "coding_time_seconds": 0, "coding_time_seconds_today": 0, "balance": "You need to have a pocket watcher badge to view this.", "badges": [], "created_at": "2025-06-26T15:27:41.497-04:00", "updated_at": "2025-07-03T20:04:34.590-04:00", "avatar": "https://secure.gravatar.com/avatar/d6101c73a0a2bad73b74be9d02aa5538.jpg?s=512&d=https%3A%2F%2Fa.slack-edge.com%2Fdf10d%2Fimg%2Favatars%2Fava_0018-512.png", "custom_css": null}, {"id": 12612, "slack_id": "U093XD30T96", "display_name": "minu makhdoom", "bio": null, "projects_count": 0, "devlogs_count": 0, "votes_count": 0, "ships_count": 0, "projects": [], "coding_time_seconds": 3324, "coding_time_seconds_today": 0, "balance": "You need to have a pocket watcher badge to view this.", "badges": [], "created_at": "2025-06-26T15:28:38.122-04:00", "updated_at": "2025-07-03T20:04:34.846-04:00", "avatar": "https://secure.gravatar.com/avatar/c78a5905110e9d60acac3fc411add383.jpg?s=512&d=https%3A%2F%2Fa.slack-edge.com%2Fdf10d%2Fimg%2Favatars%2Fava_0015-512.png", "custom_css": null}, {"id": 12613, "slack_id": "U09375T67E1", "display_name": "achraf rick", "bio": null, "projects_count": 0, "devlogs_count": 0, "votes_count": 0, "ships_count": 0, "projects": [], "coding_time_seconds": 0, "coding_time_seconds_today": 0, "balance": "You need to have a pocket watcher badge to view this.", "badges": [], "created_at": "2025-06-26T15:32:54.859-04:00", "updated_at": "2025-07-03T20:04:35.188-04:00", "avatar": "https://secure.gravatar.com/avatar/817c5ba1f363df2359d65bb69821c88e.jpg?s=512&d=https%3A%2F%2Fa.slack-edge.com%2Fdf10d%2Fimg%2Favatars%2Fava_0013-512.png", "custom_css": null}, {"id": 12614, "slack_id": "U0939GEQY82", "display_name": "Seth McCloghrie", "bio": null, "projects_count": 2, "devlogs_count": 0, "votes_count": 0, "ships_count": 0, "projects": [{"id": 11470, "title": "SurvivalRPG", "devlogs_count": 0, "created_at": "2025-08-16T06:52:22.921-04:00"}, {"id": 11751, "title": "Grade 11 IT PAT", "devlogs_count": 0, "created_at": "2025-08-19T05:45:44.440-04:00"}], "coding_time_seconds": 37258, "coding_time_seconds_today": 0, "balance": "You need to have a pocket watcher badge to view this.", "badges": [], "created_at": "2025-06-26T15:33:35.328-04:00", "updated_at": "2025-08-16T06:43:14.584-04:00", "avatar": "https://secure.gravatar.com/avatar/f608679fd99bf1c52dda4d0af9b56c46.jpg?s=512&d=https%3A%2F%2Fa.slack-edge.com%2Fdf10d%2Fimg%2Favatars%2Fava_0015-512.png", "custom_css": null}, {"id": 12615, "slack_id": "U093775A3GD", "display_name": "Nikhil Mangali", "bio": null, "projects_count": 0, "devlogs_count": 0, "votes_count": 0, "ships_count": 0, "projects": [], "coding_time_seconds": 0, "coding_time_seconds_today": 0, "balance": "You need to have a pocket watcher badge to view this.", "badges": [], "created_at": "2025-06-26T15:44:13.116-04:00", "updated_at": "2025-07-03T20:04:35.720-04:00", "avatar": "https://avatars.slack-edge.com/2025-06-26/9124810890321_7f88030e0628c6021f0d_original.jpg", "custom_css": null}, {"id": 12616, "slack_id": "U091GGTNR27", "display_name": "Karthikeya Aman Turimalla", "bio": null, "projects_count": 0, "devlogs_count": 0, "votes_count": 0, "ships_count": 0, "projects": [], "coding_time_seconds": 0, "coding_time_seconds_today": 0, "balance": "You need to have a pocket watcher badge to view this.", "badges": [], "created_at": "2025-06-26T15:49:14.900-04:00", "updated_at": "2025-07-03T20:04:35.980-04:00", "avatar": "https://avatars.slack-edge.com/2025-06-26/9112388933508_9e5d78ae67bbd2a2fdf4_original.png", "custom_css": null}, {"id": 12617, "slack_id": "U093XGY8AKS", "display_name": "Jannick", "bio": null, "projects_count": 0, "devlogs_count": 0, "votes_count": 0, "ships_count": 0, "projects": [], "coding_time_seconds": 0, "coding_time_seconds_today": 0, "balance": "You need to have a pocket watcher badge to view this.", "badges": [], "created_at": "2025-06-26T15:55:53.248-04:00", "updated_at": "2025-08-28T16:21:25.291-04:00", "avatar": "https://secure.gravatar.com/avatar/9035c2cbbf902243dc9196c4616dfcd5.jpg?s=512&d=https%3A%2F%2Fa.slack-edge.com%2Fdf10d%2Fimg%2Favatars%2Fava_0009-512.png", "custom_css": null}, {"id": 12618, "slack_id": "U084C6E5DAL", "display_name": "Knivier", "bio": null, "projects_count": 0, "devlogs_count": 0, "votes_count": 0, "ships_count": 0, "projects": [], "coding_time_seconds": 0, "coding_time_seconds_today": 0, "balance": "You need to have a pocket watcher badge to view this.", "badges": [], "created_at": "2025-06-26T16:01:17.751-04:00", "updated_at": "2025-07-03T20:04:36.510-04:00", "avatar": "https://avatars.slack-edge.com/2025-01-15/8301227524546_1b4955f50286d2738c7b_original.png", "custom_css": null}, {"id": 12619, "slack_id": "U091EFJ9Z7F", "display_name": "Judith", "bio": null, "projects_count": 1, "devlogs_count": 1, "votes_count": 1, "ships_count": 0, "projects": [{"id": 13389, "title": "APUSH Crashout", "devlogs_count": 1, "created_at": "2025-09-15T05:07:56.789-04:00"}], "coding_time_seconds": 57533, "coding_time_seconds_today": 0, "balance": "You need to have a pocket watcher badge to view this.", "badges": [], "created_at": "2025-06-26T16:24:21.751-04:00", "updated_at": "2025-09-15T05:08:29.825-04:00", "avatar": "https://avatars.slack-edge.com/2025-06-14/9050938605124_8fc3e8857916e298d868_original.png", "custom_css": null}, {"id": 12620, "slack_id": "U07FTJ3N4P3", "display_name": "Cody", "bio": null, "projects_count": 1, "devlogs_count": 0, "votes_count": 0, "ships_count": 0, "projects": [{"id": 6370, "title": "Flashcards to Everything", "devlogs_count": 0, "created_at": "2025-07-12T18:38:43.835-04:00"}], "coding_time_seconds": 3932, "coding_time_seconds_today": 0, "balance": "You need to have a pocket watcher badge to view this.", "badges": [], "created_at": "2025-06-26T16:35:34.921-04:00", "updated_at": "2025-07-05T20:14:27.413-04:00", "avatar": "https://avatars.slack-edge.com/2024-08-04/7527436368548_8643c100ffaf65b48fb4_original.jpg", "custom_css": null}], "pagination": {"page": 631, "pages": 1192, "count": 23828, "items": 20}}