{"users": [{"id": 12621, "slack_id": "U092VC31DB9", "display_name": "Bao", "bio": null, "projects_count": 0, "devlogs_count": 0, "votes_count": 0, "ships_count": 0, "projects": [], "coding_time_seconds": 0, "coding_time_seconds_today": 0, "balance": "You need to have a pocket watcher badge to view this.", "badges": [], "created_at": "2025-06-26T16:36:40.333-04:00", "updated_at": "2025-07-05T02:14:03.131-04:00", "avatar": "https://secure.gravatar.com/avatar/1f348ac157505fe25a163f2c0b2cff5e.jpg?s=512&d=https%3A%2F%2Fa.slack-edge.com%2Fdf10d%2Fimg%2Favatars%2Fava_0025-512.png", "custom_css": null}, {"id": 12622, "slack_id": "U093AJCBP0C", "display_name": "Alfie Barlow", "bio": null, "projects_count": 0, "devlogs_count": 0, "votes_count": 0, "ships_count": 0, "projects": [], "coding_time_seconds": 8275, "coding_time_seconds_today": 0, "balance": "You need to have a pocket watcher badge to view this.", "badges": [], "created_at": "2025-06-26T16:38:50.534-04:00", "updated_at": "2025-08-16T12:42:19.715-04:00", "avatar": "https://avatars.slack-edge.com/2025-06-26/9111927726562_bbc0f867221619f9fa6f_original.webp", "custom_css": null}, {"id": 12623, "slack_id": "U0932NHTLAF", "display_name": "Max", "bio": null, "projects_count": 0, "devlogs_count": 0, "votes_count": 0, "ships_count": 0, "projects": [], "coding_time_seconds": 0, "coding_time_seconds_today": 0, "balance": "You need to have a pocket watcher badge to view this.", "badges": [], "created_at": "2025-06-26T16:47:30.734-04:00", "updated_at": "2025-07-05T02:14:03.268-04:00", "avatar": "https://secure.gravatar.com/avatar/877df147ed6b021638d08f2ed034effc.jpg?s=512&d=https%3A%2F%2Fa.slack-edge.com%2Fdf10d%2Fimg%2Favatars%2Fava_0024-512.png", "custom_css": null}, {"id": 12624, "slack_id": "U09398846L9", "display_name": "Kizzle", "bio": null, "projects_count": 0, "devlogs_count": 0, "votes_count": 0, "ships_count": 0, "projects": [], "coding_time_seconds": 0, "coding_time_seconds_today": 0, "balance": "You need to have a pocket watcher badge to view this.", "badges": [], "created_at": "2025-06-26T16:50:46.371-04:00", "updated_at": "2025-07-04T08:29:05.274-04:00", "avatar": "https://secure.gravatar.com/avatar/7d7032d6a65859ef55b9ef234fac33f9.jpg?s=512&d=https%3A%2F%2Fa.slack-edge.com%2Fdf10d%2Fimg%2Favatars%2Fava_0021-512.png", "custom_css": null}, {"id": 12625, "slack_id": "U06MMBZBFAN", "display_name": "Ellie", "bio": null, "projects_count": 0, "devlogs_count": 0, "votes_count": 0, "ships_count": 0, "projects": [], "coding_time_seconds": 0, "coding_time_seconds_today": 0, "balance": "You need to have a pocket watcher badge to view this.", "badges": [], "created_at": "2025-06-26T17:11:14.773-04:00", "updated_at": "2025-07-05T08:14:24.389-04:00", "avatar": "https://avatars.slack-edge.com/2025-06-04/8993872577715_bf3daa9475e0f2275e7d_original.png", "custom_css": null}, {"id": 12626, "slack_id": "U093XU26NN4", "display_name": "Collin", "bio": null, "projects_count": 0, "devlogs_count": 0, "votes_count": 0, "ships_count": 0, "projects": [], "coding_time_seconds": 0, "coding_time_seconds_today": 0, "balance": "You need to have a pocket watcher badge to view this.", "badges": [], "created_at": "2025-06-26T17:18:30.199-04:00", "updated_at": "2025-07-05T02:14:03.458-04:00", "avatar": "https://secure.gravatar.com/avatar/f62abfe6ec21b915ce1d90c8f3ebb95c.jpg?s=512&d=https%3A%2F%2Fa.slack-edge.com%2Fdf10d%2Fimg%2Favatars%2Fava_0006-512.png", "custom_css": null}, {"id": 12627, "slack_id": "U093ASUA6PN", "display_name": "Joao Mendonca", "bio": null, "projects_count": 0, "devlogs_count": 0, "votes_count": 0, "ships_count": 0, "projects": [], "coding_time_seconds": 0, "coding_time_seconds_today": 0, "balance": "You need to have a pocket watcher badge to view this.", "badges": [], "created_at": "2025-06-26T17:43:14.728-04:00", "updated_at": "2025-07-03T20:04:38.128-04:00", "avatar": "https://secure.gravatar.com/avatar/bf6e54aa874123b53effd25167739f26.jpg?s=512&d=https%3A%2F%2Fa.slack-edge.com%2Fdf10d%2Fimg%2Favatars%2Fava_0016-512.png", "custom_css": null}, {"id": 12628, "slack_id": "U092VP44H63", "display_name": "C. Frederick", "bio": null, "projects_count": 0, "devlogs_count": 0, "votes_count": 0, "ships_count": 0, "projects": [], "coding_time_seconds": 0, "coding_time_seconds_today": 0, "balance": "You need to have a pocket watcher badge to view this.", "badges": [], "created_at": "2025-06-26T18:08:12.252-04:00", "updated_at": "2025-07-03T20:04:38.400-04:00", "avatar": "https://secure.gravatar.com/avatar/07715cb3308bbe1d9288f86f67a5f3fc.jpg?s=512&d=https%3A%2F%2Fa.slack-edge.com%2Fdf10d%2Fimg%2Favatars%2Fava_0009-512.png", "custom_css": null}, {"id": 12629, "slack_id": "U079T4N51PT", "display_name": "Tevin Mbogo", "bio": null, "projects_count": 0, "devlogs_count": 0, "votes_count": 0, "ships_count": 0, "projects": [], "coding_time_seconds": 0, "coding_time_seconds_today": 0, "balance": "You need to have a pocket watcher badge to view this.", "badges": [], "created_at": "2025-06-26T18:22:41.408-04:00", "updated_at": "2025-07-04T20:13:28.133-04:00", "avatar": "https://secure.gravatar.com/avatar/0141dc1edcb9402bfafd5795068dfe57.jpg?s=512&d=https%3A%2F%2Fa.slack-edge.com%2Fdf10d%2Fimg%2Favatars%2Fava_0008-512.png", "custom_css": null}, {"id": 12630, "slack_id": "U093Y7GB200", "display_name": "Valentin", "bio": null, "projects_count": 0, "devlogs_count": 0, "votes_count": 0, "ships_count": 0, "projects": [], "coding_time_seconds": 185, "coding_time_seconds_today": 0, "balance": "You need to have a pocket watcher badge to view this.", "badges": [], "created_at": "2025-06-26T18:39:36.293-04:00", "updated_at": "2025-07-05T13:04:43.817-04:00", "avatar": "https://secure.gravatar.com/avatar/ee3af96e68b8c4a172a341d4ca4a6b40.jpg?s=512&d=https%3A%2F%2Fa.slack-edge.com%2Fdf10d%2Fimg%2Favatars%2Fava_0025-512.png", "custom_css": null}, {"id": 12631, "slack_id": "U06M0NQP05S", "display_name": "Henry Naujack", "bio": null, "projects_count": 1, "devlogs_count": 0, "votes_count": 0, "ships_count": 0, "projects": [{"id": 4000, "title": "Dark Mode for my Schools Website (Firefox Extension)", "devlogs_count": 0, "created_at": "2025-06-26T19:09:20.233-04:00"}], "coding_time_seconds": 2236, "coding_time_seconds_today": 0, "balance": "You need to have a pocket watcher badge to view this.", "badges": [], "created_at": "2025-06-26T18:59:40.548-04:00", "updated_at": "2025-07-03T20:04:39.058-04:00", "avatar": "https://secure.gravatar.com/avatar/81a8465dd35f7a6341c114260910b3f5.jpg?s=512&d=https%3A%2F%2Fa.slack-edge.com%2Fdf10d%2Fimg%2Favatars%2Fava_0006-512.png", "custom_css": null}, {"id": 12632, "slack_id": "U092VN7N2BZ", "display_name": "Naitik Patel", "bio": null, "projects_count": 1, "devlogs_count": 0, "votes_count": 0, "ships_count": 0, "projects": [{"id": 4005, "title": "TruthCheckAI", "devlogs_count": 0, "created_at": "2025-06-26T19:32:30.673-04:00"}], "coding_time_seconds": 266, "coding_time_seconds_today": 0, "balance": "You need to have a pocket watcher badge to view this.", "badges": [], "created_at": "2025-06-26T19:05:12.787-04:00", "updated_at": "2025-07-03T20:04:39.320-04:00", "avatar": "https://secure.gravatar.com/avatar/d7f784f71f7bfaca2e46b500a4604905.jpg?s=512&d=https%3A%2F%2Fa.slack-edge.com%2Fdf10d%2Fimg%2Favatars%2Fava_0023-512.png", "custom_css": null}, {"id": 12633, "slack_id": "U072819C9B5", "display_name": "Dylan", "bio": null, "projects_count": 0, "devlogs_count": 0, "votes_count": 0, "ships_count": 0, "projects": [], "coding_time_seconds": 0, "coding_time_seconds_today": 0, "balance": "You need to have a pocket watcher badge to view this.", "badges": [], "created_at": "2025-06-26T19:26:02.514-04:00", "updated_at": "2025-08-21T03:00:09.634-04:00", "avatar": "https://secure.gravatar.com/avatar/115c0123649f68d359ffa278f5982812.jpg?s=512&d=https%3A%2F%2Fa.slack-edge.com%2Fdf10d%2Fimg%2Favatars%2Fava_0013-512.png", "custom_css": null}, {"id": 12634, "slack_id": "U093S6UNJSU", "display_name": "Luke Williams", "bio": null, "projects_count": 0, "devlogs_count": 0, "votes_count": 0, "ships_count": 0, "projects": [], "coding_time_seconds": 0, "coding_time_seconds_today": 0, "balance": "You need to have a pocket watcher badge to view this.", "badges": [], "created_at": "2025-06-26T19:27:23.914-04:00", "updated_at": "2025-07-03T20:04:39.851-04:00", "avatar": "https://secure.gravatar.com/avatar/33117e840d6d5e8f98dcf5c58094da23.jpg?s=512&d=https%3A%2F%2Fa.slack-edge.com%2Fdf10d%2Fimg%2Favatars%2Fava_0004-512.png", "custom_css": null}, {"id": 12635, "slack_id": "U09383AN937", "display_name": "Srinija Ch.", "bio": null, "projects_count": 0, "devlogs_count": 0, "votes_count": 0, "ships_count": 0, "projects": [], "coding_time_seconds": 22996, "coding_time_seconds_today": 0, "balance": "You need to have a pocket watcher badge to view this.", "badges": [], "created_at": "2025-06-26T19:29:25.595-04:00", "updated_at": "2025-07-03T20:04:40.113-04:00", "avatar": "https://secure.gravatar.com/avatar/8fee466a04af68dc45479a3543bf64b9.jpg?s=512&d=https%3A%2F%2Fa.slack-edge.com%2Fdf10d%2Fimg%2Favatars%2Fava_0002-512.png", "custom_css": null}, {"id": 12636, "slack_id": "U093B8W357W", "display_name": "Connor", "bio": null, "projects_count": 1, "devlogs_count": 2, "votes_count": 2, "ships_count": 0, "projects": [{"id": 10419, "title": "Learn Pybricks", "devlogs_count": 2, "created_at": "2025-08-06T20:48:59.056-04:00"}], "coding_time_seconds": 100977, "coding_time_seconds_today": 0, "balance": "You need to have a pocket watcher badge to view this.", "badges": [], "created_at": "2025-06-26T19:41:58.967-04:00", "updated_at": "2025-08-07T17:03:07.686-04:00", "avatar": "https://secure.gravatar.com/avatar/ef25a13a4e9e2a70011461a72cc8e160.jpg?s=512&d=https%3A%2F%2Fa.slack-edge.com%2Fdf10d%2Fimg%2Favatars%2Fava_0024-512.png", "custom_css": null}, {"id": 12637, "slack_id": "U093PP6CBJ5", "display_name": "Lucy", "bio": null, "projects_count": 1, "devlogs_count": 2, "votes_count": 25, "ships_count": 1, "projects": [{"id": 4074, "title": "Belladonna Game Demo", "devlogs_count": 2, "created_at": "2025-06-27T09:51:56.948-04:00"}], "coding_time_seconds": 70332, "coding_time_seconds_today": 0, "balance": "You need to have a pocket watcher badge to view this.", "badges": [{"name": "Maiden Voyage", "text": "you shipped your first project! the journey begins...", "icon": "\ud83d\udea2"}], "created_at": "2025-06-26T19:52:45.796-04:00", "updated_at": "2025-09-10T22:57:29.772-04:00", "avatar": "https://avatars.slack-edge.com/2025-06-27/9109893120886_d406460d27470baac093_original.jpg", "custom_css": null}, {"id": 12638, "slack_id": "U092W3SEKC7", "display_name": "Jacob Villeneuve", "bio": null, "projects_count": 0, "devlogs_count": 0, "votes_count": 0, "ships_count": 0, "projects": [], "coding_time_seconds": 0, "coding_time_seconds_today": 0, "balance": "You need to have a pocket watcher badge to view this.", "badges": [], "created_at": "2025-06-26T19:56:27.860-04:00", "updated_at": "2025-07-03T20:04:40.782-04:00", "avatar": "https://secure.gravatar.com/avatar/3e2189f2f0ff6f63ea247958b673b707.jpg?s=512&d=https%3A%2F%2Fa.slack-edge.com%2Fdf10d%2Fimg%2Favatars%2Fava_0019-512.png", "custom_css": null}, {"id": 12639, "slack_id": "U0934MKJMK8", "display_name": "Kristi Ciko", "bio": null, "projects_count": 0, "devlogs_count": 0, "votes_count": 0, "ships_count": 0, "projects": [], "coding_time_seconds": 0, "coding_time_seconds_today": 0, "balance": "You need to have a pocket watcher badge to view this.", "badges": [], "created_at": "2025-06-26T20:18:05.051-04:00", "updated_at": "2025-07-08T03:05:27.081-04:00", "avatar": "https://avatars.slack-edge.com/2025-06-26/9105517980755_502cc07f1287b023a528_original.png", "custom_css": null}, {"id": 12640, "slack_id": "U0934Q53C86", "display_name": "Im_Ravioli", "bio": null, "projects_count": 0, "devlogs_count": 0, "votes_count": 0, "ships_count": 0, "projects": [], "coding_time_seconds": 0, "coding_time_seconds_today": 0, "balance": "You need to have a pocket watcher badge to view this.", "badges": [], "created_at": "2025-06-26T20:47:04.823-04:00", "updated_at": "2025-07-03T20:04:41.172-04:00", "avatar": "https://secure.gravatar.com/avatar/bceb9277b86ee6936522b19db6f8f411.jpg?s=512&d=https%3A%2F%2Fa.slack-edge.com%2Fdf10d%2Fimg%2Favatars%2Fava_0014-512.png", "custom_css": null}], "pagination": {"page": 632, "pages": 1192, "count": 23828, "items": 20}}