{"users": [{"id": 12661, "slack_id": "U093Z4Z3DHN", "display_name": "riri", "bio": null, "projects_count": 0, "devlogs_count": 0, "votes_count": 0, "ships_count": 0, "projects": [], "coding_time_seconds": 0, "coding_time_seconds_today": 0, "balance": "You need to have a pocket watcher badge to view this.", "badges": [], "created_at": "2025-06-26T23:51:58.885-04:00", "updated_at": "2025-07-03T20:04:45.541-04:00", "avatar": "https://secure.gravatar.com/avatar/286acc375412aba90587275847492288.jpg?s=512&d=https%3A%2F%2Fa.slack-edge.com%2Fdf10d%2Fimg%2Favatars%2Fava_0013-512.png", "custom_css": null}, {"id": 12662, "slack_id": "U0938R2U1A9", "display_name": "Jeff", "bio": null, "projects_count": 1, "devlogs_count": 0, "votes_count": 1, "ships_count": 0, "projects": [{"id": 5348, "title": "Modular Macropad", "devlogs_count": 0, "created_at": "2025-07-04T16:21:56.912-04:00"}], "coding_time_seconds": 2707, "coding_time_seconds_today": 0, "balance": "You need to have a pocket watcher badge to view this.", "badges": [], "created_at": "2025-06-26T23:53:16.175-04:00", "updated_at": "2025-07-03T20:04:45.797-04:00", "avatar": "https://secure.gravatar.com/avatar/d4236b3f5762529424ac5cfeb7b23364.jpg?s=512&d=https%3A%2F%2Fa.slack-edge.com%2Fdf10d%2Fimg%2Favatars%2Fava_0006-512.png", "custom_css": null}, {"id": 12663, "slack_id": "U0171V1S7L7", "display_name": "Ballav Timalsina", "bio": null, "projects_count": 0, "devlogs_count": 0, "votes_count": 0, "ships_count": 0, "projects": [], "coding_time_seconds": 0, "coding_time_seconds_today": 0, "balance": "You need to have a pocket watcher badge to view this.", "badges": [], "created_at": "2025-06-27T00:03:32.146-04:00", "updated_at": "2025-07-03T20:04:46.053-04:00", "avatar": "https://avatars.slack-edge.com/2020-07-25/1261356742405_0579f2a0c5df83aed1eb_original.png", "custom_css": null}, {"id": 12664, "slack_id": "U09345D4V2P", "display_name": "Yasiru Kaveeshwara", "bio": null, "projects_count": 0, "devlogs_count": 0, "votes_count": 0, "ships_count": 0, "projects": [], "coding_time_seconds": 0, "coding_time_seconds_today": 0, "balance": "You need to have a pocket watcher badge to view this.", "badges": [], "created_at": "2025-06-27T00:13:11.369-04:00", "updated_at": "2025-07-03T20:04:46.385-04:00", "avatar": "https://secure.gravatar.com/avatar/da31160c77ee244702996d57254bab7b.jpg?s=512&d=https%3A%2F%2Fa.slack-edge.com%2Fdf10d%2Fimg%2Favatars%2Fava_0013-512.png", "custom_css": null}, {"id": 12665, "slack_id": "U09349D0WFL", "display_name": "Noah Werden", "bio": null, "projects_count": 0, "devlogs_count": 0, "votes_count": 0, "ships_count": 0, "projects": [], "coding_time_seconds": 0, "coding_time_seconds_today": 0, "balance": "You need to have a pocket watcher badge to view this.", "badges": [], "created_at": "2025-06-27T00:17:48.072-04:00", "updated_at": "2025-07-03T20:04:46.644-04:00", "avatar": "https://avatars.slack-edge.com/2025-06-25/9106319333730_b69c111ee4471619e37e_original.png", "custom_css": null}, {"id": 12666, "slack_id": "U08FE5E7BMK", "display_name": "Alberto4944", "bio": null, "projects_count": 1, "devlogs_count": 1, "votes_count": 1, "ships_count": 0, "projects": [{"id": 9637, "title": "Paddle Jump", "devlogs_count": 1, "created_at": "2025-08-02T00:15:59.144-04:00"}], "coding_time_seconds": 12287, "coding_time_seconds_today": 0, "balance": "You need to have a pocket watcher badge to view this.", "badges": [], "created_at": "2025-06-27T00:26:36.794-04:00", "updated_at": "2025-09-19T01:54:05.071-04:00", "avatar": "https://avatars.slack-edge.com/2025-02-27/8527193354786_d5dea5ce152ec82740ad_original.png", "custom_css": null}, {"id": 12667, "slack_id": "U04CBLNSVH6", "display_name": "kody", "bio": null, "projects_count": 0, "devlogs_count": 0, "votes_count": 0, "ships_count": 0, "projects": [], "coding_time_seconds": 196441, "coding_time_seconds_today": 0, "balance": "You need to have a pocket watcher badge to view this.", "badges": [], "created_at": "2025-06-27T00:37:50.936-04:00", "updated_at": "2025-09-08T09:05:27.694-04:00", "avatar": "https://avatars.slack-edge.com/2025-09-08/9478709085814_7416e330ee831ca51597_original.png", "custom_css": null}, {"id": 12668, "slack_id": "U06NBLKLTDW", "display_name": "fiona", "bio": null, "projects_count": 0, "devlogs_count": 0, "votes_count": 0, "ships_count": 0, "projects": [], "coding_time_seconds": 66331, "coding_time_seconds_today": 0, "balance": "You need to have a pocket watcher badge to view this.", "badges": [], "created_at": "2025-06-27T00:40:51.186-04:00", "updated_at": "2025-07-21T23:18:00.181-04:00", "avatar": "https://avatars.slack-edge.com/2024-03-03/6739366215620_b38097cd1ff11557865b_original.jpg", "custom_css": null}, {"id": 12669, "slack_id": "U0935G3MZJA", "display_name": "Nuos", "bio": null, "projects_count": 0, "devlogs_count": 0, "votes_count": 0, "ships_count": 0, "projects": [], "coding_time_seconds": 0, "coding_time_seconds_today": 0, "balance": "You need to have a pocket watcher badge to view this.", "badges": [], "created_at": "2025-06-27T00:45:30.277-04:00", "updated_at": "2025-07-03T20:04:47.707-04:00", "avatar": "https://secure.gravatar.com/avatar/98908a5eae58f4d0289d5633e2b05953.jpg?s=512&d=https%3A%2F%2Fa.slack-edge.com%2Fdf10d%2Fimg%2Favatars%2Fava_0019-512.png", "custom_css": null}, {"id": 12670, "slack_id": "U093C7KGQDS", "display_name": "Aarav", "bio": null, "projects_count": 0, "devlogs_count": 0, "votes_count": 0, "ships_count": 0, "projects": [], "coding_time_seconds": 0, "coding_time_seconds_today": 0, "balance": "You need to have a pocket watcher badge to view this.", "badges": [], "created_at": "2025-06-27T01:04:24.835-04:00", "updated_at": "2025-07-04T20:13:30.570-04:00", "avatar": "https://secure.gravatar.com/avatar/cf7461fd1513e2896cb718dd759324c9.jpg?s=512&d=https%3A%2F%2Fa.slack-edge.com%2Fdf10d%2Fimg%2Favatars%2Fava_0010-512.png", "custom_css": null}, {"id": 12671, "slack_id": "U092RNZNX2L", "display_name": "Joseph", "bio": null, "projects_count": 0, "devlogs_count": 0, "votes_count": 0, "ships_count": 0, "projects": [], "coding_time_seconds": 0, "coding_time_seconds_today": 0, "balance": "You need to have a pocket watcher badge to view this.", "badges": [], "created_at": "2025-06-27T01:19:47.119-04:00", "updated_at": "2025-07-03T20:04:48.128-04:00", "avatar": "https://secure.gravatar.com/avatar/14f372328fc69c13330ab6132f752e01.jpg?s=512&d=https%3A%2F%2Fa.slack-edge.com%2Fdf10d%2Fimg%2Favatars%2Fava_0003-512.png", "custom_css": null}, {"id": 12672, "slack_id": "U0935L6AA9L", "display_name": "Sukhpreet Singh", "bio": null, "projects_count": 1, "devlogs_count": 0, "votes_count": 0, "ships_count": 0, "projects": [{"id": 6714, "title": "first", "devlogs_count": 0, "created_at": "2025-07-15T12:39:10.707-04:00"}], "coding_time_seconds": 37357, "coding_time_seconds_today": 0, "balance": "You need to have a pocket watcher badge to view this.", "badges": [], "created_at": "2025-06-27T01:33:01.900-04:00", "updated_at": "2025-07-15T12:37:32.156-04:00", "avatar": "https://secure.gravatar.com/avatar/d036cd20b283b1b47298d364b0ece468.jpg?s=512&d=https%3A%2F%2Fa.slack-edge.com%2Fdf10d%2Fimg%2Favatars%2Fava_0001-512.png", "custom_css": null}, {"id": 12673, "slack_id": "U0934EJAAJX", "display_name": "PRANTO", "bio": null, "projects_count": 0, "devlogs_count": 0, "votes_count": 0, "ships_count": 0, "projects": [], "coding_time_seconds": 0, "coding_time_seconds_today": 0, "balance": "You need to have a pocket watcher badge to view this.", "badges": [], "created_at": "2025-06-27T02:02:16.550-04:00", "updated_at": "2025-07-03T20:04:48.525-04:00", "avatar": "https://secure.gravatar.com/avatar/fd58b66688e35ed03bc8cc375ee4fd39.jpg?s=512&d=https%3A%2F%2Fa.slack-edge.com%2Fdf10d%2Fimg%2Favatars%2Fava_0021-512.png", "custom_css": null}, {"id": 12674, "slack_id": "U093CEBLF0C", "display_name": "Devan Williamson", "bio": null, "projects_count": 0, "devlogs_count": 0, "votes_count": 0, "ships_count": 0, "projects": [], "coding_time_seconds": 0, "coding_time_seconds_today": 0, "balance": "You need to have a pocket watcher badge to view this.", "badges": [], "created_at": "2025-06-27T02:08:09.590-04:00", "updated_at": "2025-07-05T20:14:30.636-04:00", "avatar": "https://secure.gravatar.com/avatar/b1c46a9e04f8c139f8c28c1949ee3e53.jpg?s=512&d=https%3A%2F%2Fa.slack-edge.com%2Fdf10d%2Fimg%2Favatars%2Fava_0005-512.png", "custom_css": null}, {"id": 12675, "slack_id": "U091RPPACGL", "display_name": "Chan-Tat", "bio": null, "projects_count": 0, "devlogs_count": 0, "votes_count": 0, "ships_count": 0, "projects": [], "coding_time_seconds": 0, "coding_time_seconds_today": 0, "balance": "You need to have a pocket watcher badge to view this.", "badges": [], "created_at": "2025-06-27T02:10:10.051-04:00", "updated_at": "2025-07-04T20:13:30.901-04:00", "avatar": "https://secure.gravatar.com/avatar/753612402092fd353f1f38ef1a36bb8b.jpg?s=512&d=https%3A%2F%2Fa.slack-edge.com%2Fdf10d%2Fimg%2Favatars%2Fava_0025-512.png", "custom_css": null}, {"id": 12676, "slack_id": "U09351GQY10", "display_name": "Master MPCS", "bio": null, "projects_count": 0, "devlogs_count": 0, "votes_count": 0, "ships_count": 0, "projects": [], "coding_time_seconds": 0, "coding_time_seconds_today": 0, "balance": "You need to have a pocket watcher badge to view this.", "badges": [], "created_at": "2025-06-27T02:12:14.174-04:00", "updated_at": "2025-07-03T20:04:49.060-04:00", "avatar": "https://secure.gravatar.com/avatar/5f64ed68fb0b11c553d927fc08bde920.jpg?s=512&d=https%3A%2F%2Fa.slack-edge.com%2Fdf10d%2Fimg%2Favatars%2Fava_0018-512.png", "custom_css": null}, {"id": 12677, "slack_id": "U093CFKCU12", "display_name": "Jeslyn", "bio": null, "projects_count": 1, "devlogs_count": 2, "votes_count": 1, "ships_count": 0, "projects": [{"id": 7667, "title": "Parkinson's & other disease detection suite", "devlogs_count": 2, "created_at": "2025-07-22T12:58:40.147-04:00"}], "coding_time_seconds": 259566, "coding_time_seconds_today": 121, "balance": "You need to have a pocket watcher badge to view this.", "badges": [], "created_at": "2025-06-27T02:19:02.435-04:00", "updated_at": "2025-07-23T11:57:21.214-04:00", "avatar": "https://secure.gravatar.com/avatar/b3bf5d5d86e3880bb2965ee7adc1fdb0.jpg?s=512&d=https%3A%2F%2Fa.slack-edge.com%2Fdf10d%2Fimg%2Favatars%2Fava_0013-512.png", "custom_css": null}, {"id": 12678, "slack_id": "U09398Q14UV", "display_name": "Atharva_45", "bio": null, "projects_count": 0, "devlogs_count": 0, "votes_count": 0, "ships_count": 0, "projects": [], "coding_time_seconds": 178687, "coding_time_seconds_today": 0, "balance": "You need to have a pocket watcher badge to view this.", "badges": [], "created_at": "2025-06-27T02:21:42.849-04:00", "updated_at": "2025-07-08T03:05:38.068-04:00", "avatar": "https://secure.gravatar.com/avatar/72b64b44f182044696a93a3dccd63bbf.jpg?s=512&d=https%3A%2F%2Fa.slack-edge.com%2Fdf10d%2Fimg%2Favatars%2Fava_0020-512.png", "custom_css": null}, {"id": 12679, "slack_id": "U093ZK6JWAC", "display_name": "29-Nguy\u1ec5n Kh\u00e1nh Nam", "bio": null, "projects_count": 0, "devlogs_count": 0, "votes_count": 0, "ships_count": 0, "projects": [], "coding_time_seconds": 0, "coding_time_seconds_today": 0, "balance": "You need to have a pocket watcher badge to view this.", "badges": [], "created_at": "2025-06-27T02:24:28.104-04:00", "updated_at": "2025-07-03T20:04:49.719-04:00", "avatar": "https://avatars.slack-edge.com/2025-06-26/9111319260501_2e431ef81a0d34a22871_original.png", "custom_css": null}, {"id": 12680, "slack_id": "U093KCCSHDX", "display_name": "Shravankumar Nagarajan", "bio": null, "projects_count": 1, "devlogs_count": 0, "votes_count": 0, "ships_count": 0, "projects": [{"id": 4040, "title": "Portfolio website", "devlogs_count": 0, "created_at": "2025-06-27T02:54:25.672-04:00"}], "coding_time_seconds": 187, "coding_time_seconds_today": 0, "balance": "You need to have a pocket watcher badge to view this.", "badges": [], "created_at": "2025-06-27T02:34:57.584-04:00", "updated_at": "2025-07-03T20:04:49.996-04:00", "avatar": "https://secure.gravatar.com/avatar/b4f2a6cf5eb4a8b68d8eb695177f5e83.jpg?s=512&d=https%3A%2F%2Fa.slack-edge.com%2Fdf10d%2Fimg%2Favatars%2Fava_0024-512.png", "custom_css": null}], "pagination": {"page": 634, "pages": 1192, "count": 23828, "items": 20}}