{"users": [{"id": 12681, "slack_id": "U086RGLL6NT", "display_name": "Jakub Jamrozy", "bio": null, "projects_count": 1, "devlogs_count": 1, "votes_count": 8, "ships_count": 1, "projects": [{"id": 12830, "title": "Notesky", "devlogs_count": 1, "created_at": "2025-09-03T12:16:04.520-04:00"}], "coding_time_seconds": 269170, "coding_time_seconds_today": 0, "balance": "You need to have a pocket watcher badge to view this.", "badges": [{"name": "Maiden Voyage", "text": "you shipped your first project! the journey begins...", "icon": "\ud83d\udea2"}], "created_at": "2025-06-27T02:41:10.451-04:00", "updated_at": "2025-09-10T22:57:31.191-04:00", "avatar": "https://avatars.slack-edge.com/2025-01-03/8244091547650_9c73874731842da9d618_original.png", "custom_css": null}, {"id": 12682, "slack_id": "U0934L5P36F", "display_name": "Ivan", "bio": null, "projects_count": 0, "devlogs_count": 0, "votes_count": 0, "ships_count": 0, "projects": [], "coding_time_seconds": 0, "coding_time_seconds_today": 0, "balance": "You need to have a pocket watcher badge to view this.", "badges": [], "created_at": "2025-06-27T02:50:37.402-04:00", "updated_at": "2025-07-04T08:29:09.106-04:00", "avatar": "https://secure.gravatar.com/avatar/3b8aa7b1b54731cb14127211ea06c611.jpg?s=512&d=https%3A%2F%2Fa.slack-edge.com%2Fdf10d%2Fimg%2Favatars%2Fava_0005-512.png", "custom_css": null}, {"id": 12683, "slack_id": "U08TTJUP1DZ", "display_name": "Cyprian", "bio": null, "projects_count": 3, "devlogs_count": 0, "votes_count": 0, "ships_count": 0, "projects": [{"id": 6495, "title": "BakeBuild", "devlogs_count": 0, "created_at": "2025-07-13T20:36:55.749-04:00"}, {"id": 10609, "title": "Minecraft mod", "devlogs_count": 0, "created_at": "2025-08-08T21:54:23.050-04:00"}, {"id": 10610, "title": "adventure game", "devlogs_count": 0, "created_at": "2025-08-08T21:55:30.612-04:00"}], "coding_time_seconds": 658, "coding_time_seconds_today": 0, "balance": "You need to have a pocket watcher badge to view this.", "badges": [], "created_at": "2025-06-27T02:58:52.373-04:00", "updated_at": "2025-08-08T21:58:12.851-04:00", "avatar": "https://secure.gravatar.com/avatar/407b039d62c1327b40a9b40a0da4eb75.jpg?s=512&d=https%3A%2F%2Fa.slack-edge.com%2Fdf10d%2Fimg%2Favatars%2Fava_0016-512.png", "custom_css": null}, {"id": 12684, "slack_id": "U093Z9PSLG0", "display_name": "Zain", "bio": null, "projects_count": 0, "devlogs_count": 0, "votes_count": 0, "ships_count": 0, "projects": [], "coding_time_seconds": 0, "coding_time_seconds_today": 0, "balance": "You need to have a pocket watcher badge to view this.", "badges": [], "created_at": "2025-06-27T03:14:13.097-04:00", "updated_at": "2025-07-03T20:04:50.916-04:00", "avatar": "https://secure.gravatar.com/avatar/765172073df76ec461597ee5b484af53.jpg?s=512&d=https%3A%2F%2Fa.slack-edge.com%2Fdf10d%2Fimg%2Favatars%2Fava_0017-512.png", "custom_css": null}, {"id": 12685, "slack_id": "U0939GPQML5", "display_name": "Aastha Bajpay", "bio": null, "projects_count": 2, "devlogs_count": 2, "votes_count": 0, "ships_count": 1, "projects": [{"id": 9652, "title": "About ME", "devlogs_count": 1, "created_at": "2025-08-02T01:14:52.424-04:00"}, {"id": 9653, "title": "About ME", "devlogs_count": 0, "created_at": "2025-08-02T01:14:52.500-04:00"}], "coding_time_seconds": 1745, "coding_time_seconds_today": 0, "balance": "You need to have a pocket watcher badge to view this.", "badges": [{"name": "Maiden Voyage", "text": "you shipped your first project! the journey begins...", "icon": "\ud83d\udea2"}], "created_at": "2025-06-27T03:31:20.958-04:00", "updated_at": "2025-09-10T22:57:31.316-04:00", "avatar": "https://secure.gravatar.com/avatar/50f55531b5ca340ba6f6a2bdbdfa2648.jpg?s=512&d=https%3A%2F%2Fa.slack-edge.com%2Fdf10d%2Fimg%2Favatars%2Fava_0010-512.png", "custom_css": null}, {"id": 12686, "slack_id": "U093R9UT5TK", "display_name": "Rustaman Delvianova", "bio": null, "projects_count": 1, "devlogs_count": 1, "votes_count": 2, "ships_count": 0, "projects": [{"id": 12465, "title": "muziek App Player Music", "devlogs_count": 1, "created_at": "2025-08-28T00:50:53.501-04:00"}], "coding_time_seconds": 99733, "coding_time_seconds_today": 5851, "balance": "You need to have a pocket watcher badge to view this.", "badges": [], "created_at": "2025-06-27T03:51:40.008-04:00", "updated_at": "2025-08-10T22:12:19.046-04:00", "avatar": "https://secure.gravatar.com/avatar/46bba9056c0e0c065f8a4c3ffcac107b.jpg?s=512&d=https%3A%2F%2Fa.slack-edge.com%2Fdf10d%2Fimg%2Favatars%2Fava_0024-512.png", "custom_css": null}, {"id": 12687, "slack_id": "U0939KV7J4D", "display_name": "Akhil Brahmandam", "bio": null, "projects_count": 0, "devlogs_count": 0, "votes_count": 0, "ships_count": 0, "projects": [], "coding_time_seconds": 78619, "coding_time_seconds_today": 0, "balance": "You need to have a pocket watcher badge to view this.", "badges": [], "created_at": "2025-06-27T03:54:31.524-04:00", "updated_at": "2025-07-09T23:21:00.500-04:00", "avatar": "https://avatars.slack-edge.com/2025-06-27/9108253610326_da77aa98f4b5d1b3976e_original.png", "custom_css": null}, {"id": 12688, "slack_id": "U0939LRT6AZ", "display_name": "Jimit", "bio": null, "projects_count": 0, "devlogs_count": 0, "votes_count": 0, "ships_count": 0, "projects": [], "coding_time_seconds": 3138, "coding_time_seconds_today": 0, "balance": "You need to have a pocket watcher badge to view this.", "badges": [], "created_at": "2025-06-27T04:00:23.671-04:00", "updated_at": "2025-07-09T09:53:50.367-04:00", "avatar": "https://secure.gravatar.com/avatar/7bc52235780b56c112f28c5a728b977f.jpg?s=512&d=https%3A%2F%2Fa.slack-edge.com%2Fdf10d%2Fimg%2Favatars%2Fava_0001-512.png", "custom_css": null}, {"id": 12689, "slack_id": "U092XLZPGNT", "display_name": "GcpLearn", "bio": null, "projects_count": 0, "devlogs_count": 0, "votes_count": 0, "ships_count": 0, "projects": [], "coding_time_seconds": 0, "coding_time_seconds_today": 0, "balance": "You need to have a pocket watcher badge to view this.", "badges": [], "created_at": "2025-06-27T04:03:29.938-04:00", "updated_at": "2025-07-03T20:04:52.254-04:00", "avatar": "https://secure.gravatar.com/avatar/c6b5c95a3a03dac0338cf8e3ba268363.jpg?s=512&d=https%3A%2F%2Fa.slack-edge.com%2Fdf10d%2Fimg%2Favatars%2Fava_0007-512.png", "custom_css": null}, {"id": 12690, "slack_id": "U0936910V7G", "display_name": "Jack", "bio": null, "projects_count": 0, "devlogs_count": 0, "votes_count": 0, "ships_count": 0, "projects": [], "coding_time_seconds": 0, "coding_time_seconds_today": 0, "balance": "You need to have a pocket watcher badge to view this.", "badges": [], "created_at": "2025-06-27T04:08:46.718-04:00", "updated_at": "2025-07-03T20:04:52.518-04:00", "avatar": "https://secure.gravatar.com/avatar/f9354fccc8659eb7e33f10bad2c6a149.jpg?s=512&d=https%3A%2F%2Fa.slack-edge.com%2Fdf10d%2Fimg%2Favatars%2Fava_0013-512.png", "custom_css": null}, {"id": 12691, "slack_id": "U092XQ3T1PH", "display_name": "Talha Aslam", "bio": null, "projects_count": 0, "devlogs_count": 0, "votes_count": 0, "ships_count": 0, "projects": [], "coding_time_seconds": 116899, "coding_time_seconds_today": 0, "balance": "You need to have a pocket watcher badge to view this.", "badges": [], "created_at": "2025-06-27T04:25:03.998-04:00", "updated_at": "2025-07-03T20:04:52.811-04:00", "avatar": "https://avatars.slack-edge.com/2025-06-27/9099962807335_1824f3d64dac18a8c72a_original.png", "custom_css": null}, {"id": 12692, "slack_id": "U0934NWNFAP", "display_name": "Shivansh Choudhary", "bio": null, "projects_count": 0, "devlogs_count": 0, "votes_count": 0, "ships_count": 0, "projects": [], "coding_time_seconds": 0, "coding_time_seconds_today": 0, "balance": "You need to have a pocket watcher badge to view this.", "badges": [], "created_at": "2025-06-27T04:30:14.021-04:00", "updated_at": "2025-07-04T08:29:09.765-04:00", "avatar": "https://secure.gravatar.com/avatar/0cb151372b3b1e5a4cb549e59936848b.jpg?s=512&d=https%3A%2F%2Fa.slack-edge.com%2Fdf10d%2Fimg%2Favatars%2Fava_0019-512.png", "custom_css": null}, {"id": 12693, "slack_id": "U09355GQK43", "display_name": "N0VAfr", "bio": null, "projects_count": 0, "devlogs_count": 0, "votes_count": 0, "ships_count": 0, "projects": [], "coding_time_seconds": 0, "coding_time_seconds_today": 0, "balance": "You need to have a pocket watcher badge to view this.", "badges": [], "created_at": "2025-06-27T04:44:04.781-04:00", "updated_at": "2025-07-04T08:29:09.865-04:00", "avatar": "https://secure.gravatar.com/avatar/18f090a84fd2c22e07e01546c951d4a1.jpg?s=512&d=https%3A%2F%2Fa.slack-edge.com%2Fdf10d%2Fimg%2Favatars%2Fava_0002-512.png", "custom_css": null}, {"id": 12694, "slack_id": "U093D7TMNH2", "display_name": "red_turtle", "bio": null, "projects_count": 0, "devlogs_count": 0, "votes_count": 0, "ships_count": 0, "projects": [], "coding_time_seconds": 226288, "coding_time_seconds_today": 0, "balance": "You need to have a pocket watcher badge to view this.", "badges": [], "created_at": "2025-06-27T05:09:02.393-04:00", "updated_at": "2025-07-04T20:13:32.076-04:00", "avatar": "https://secure.gravatar.com/avatar/f4a78c71c8533277d5f507cdc9d9cd9a.jpg?s=512&d=https%3A%2F%2Fa.slack-edge.com%2Fdf10d%2Fimg%2Favatars%2Fava_0020-512.png", "custom_css": null}, {"id": 12695, "slack_id": "U09409TH3CG", "display_name": "Rudra Narayan Barik", "bio": null, "projects_count": 0, "devlogs_count": 0, "votes_count": 0, "ships_count": 0, "projects": [], "coding_time_seconds": 0, "coding_time_seconds_today": 0, "balance": "You need to have a pocket watcher badge to view this.", "badges": [], "created_at": "2025-06-27T05:17:55.206-04:00", "updated_at": "2025-07-04T20:13:32.158-04:00", "avatar": "https://secure.gravatar.com/avatar/6f319eed033957be9c08d133718fbd38.jpg?s=512&d=https%3A%2F%2Fa.slack-edge.com%2Fdf10d%2Fimg%2Favatars%2Fava_0006-512.png", "custom_css": null}, {"id": 12696, "slack_id": "U092BM5CP7Y", "display_name": "Bigbroski", "bio": null, "projects_count": 0, "devlogs_count": 0, "votes_count": 0, "ships_count": 0, "projects": [], "coding_time_seconds": 0, "coding_time_seconds_today": 0, "balance": "You need to have a pocket watcher badge to view this.", "badges": [], "created_at": "2025-06-27T05:21:54.480-04:00", "updated_at": "2025-07-03T22:03:34.776-04:00", "avatar": "https://secure.gravatar.com/avatar/f29a840f19caff923de153a79ef81090.jpg?s=512&d=https%3A%2F%2Fa.slack-edge.com%2Fdf10d%2Fimg%2Favatars%2Fava_0026-512.png", "custom_css": null}, {"id": 12697, "slack_id": "U092H76NM0V", "display_name": "Manuel Kalueka", "bio": null, "projects_count": 0, "devlogs_count": 0, "votes_count": 1, "ships_count": 0, "projects": [], "coding_time_seconds": 0, "coding_time_seconds_today": 0, "balance": "You need to have a pocket watcher badge to view this.", "badges": [], "created_at": "2025-06-27T05:30:16.181-04:00", "updated_at": "2025-07-03T20:04:53.752-04:00", "avatar": "https://secure.gravatar.com/avatar/c8a7bbfe84d3fdcc9f6893d5125bf7ba.jpg?s=512&d=https%3A%2F%2Fa.slack-edge.com%2Fdf10d%2Fimg%2Favatars%2Fava_0015-512.png", "custom_css": null}, {"id": 12698, "slack_id": "U093A5JJK0V", "display_name": "fra bre", "bio": null, "projects_count": 0, "devlogs_count": 0, "votes_count": 0, "ships_count": 0, "projects": [], "coding_time_seconds": 4895, "coding_time_seconds_today": 0, "balance": "You need to have a pocket watcher badge to view this.", "badges": [], "created_at": "2025-06-27T05:40:58.116-04:00", "updated_at": "2025-07-04T08:29:10.194-04:00", "avatar": "https://avatars.slack-edge.com/2025-06-27/9112193380645_9a9eb65b2e40256571b1_original.png", "custom_css": null}, {"id": 12699, "slack_id": "U08TRQRNE9E", "display_name": "Kevin Basaly", "bio": null, "projects_count": 0, "devlogs_count": 0, "votes_count": 0, "ships_count": 0, "projects": [], "coding_time_seconds": 0, "coding_time_seconds_today": 0, "balance": "You need to have a pocket watcher badge to view this.", "badges": [], "created_at": "2025-06-27T05:43:20.234-04:00", "updated_at": "2025-07-03T20:04:54.162-04:00", "avatar": "https://secure.gravatar.com/avatar/1ffcd2346f32fe5cf9193c94aaee686c.jpg?s=512&d=https%3A%2F%2Fa.slack-edge.com%2Fdf10d%2Fimg%2Favatars%2Fava_0002-512.png", "custom_css": null}, {"id": 12700, "slack_id": "U07R60R3KM4", "display_name": "Mehmet", "bio": null, "projects_count": 0, "devlogs_count": 0, "votes_count": 2, "ships_count": 0, "projects": [], "coding_time_seconds": 1372, "coding_time_seconds_today": 0, "balance": "You need to have a pocket watcher badge to view this.", "badges": [], "created_at": "2025-06-27T05:47:26.994-04:00", "updated_at": "2025-07-04T02:32:52.192-04:00", "avatar": "https://secure.gravatar.com/avatar/0bddea8da00d31a5a24dfedd0e6cf734.jpg?s=512&d=https%3A%2F%2Fa.slack-edge.com%2Fdf10d%2Fimg%2Favatars%2Fava_0002-512.png", "custom_css": null}], "pagination": {"page": 635, "pages": 1192, "count": 23828, "items": 20}}