{"users": [{"id": 12701, "slack_id": "U08RU5PF37G", "display_name": "Aymen", "bio": null, "projects_count": 1, "devlogs_count": 0, "votes_count": 0, "ships_count": 0, "projects": [{"id": 4057, "title": "Yoshi", "devlogs_count": 0, "created_at": "2025-06-27T05:57:07.809-04:00"}], "coding_time_seconds": 46821, "coding_time_seconds_today": 0, "balance": "You need to have a pocket watcher badge to view this.", "badges": [], "created_at": "2025-06-27T05:53:58.559-04:00", "updated_at": "2025-07-03T20:04:54.558-04:00", "avatar": "https://avatars.slack-edge.com/2025-05-12/8897963377297_c413a7bd8fdba42bd132_original.jpg", "custom_css": null}, {"id": 12702, "slack_id": "U07GMUJRACA", "display_name": "allusion", "bio": null, "projects_count": 0, "devlogs_count": 0, "votes_count": 0, "ships_count": 0, "projects": [], "coding_time_seconds": 1900, "coding_time_seconds_today": 0, "balance": "You need to have a pocket watcher badge to view this.", "badges": [], "created_at": "2025-06-27T06:07:53.293-04:00", "updated_at": "2025-07-03T20:04:54.830-04:00", "avatar": "https://secure.gravatar.com/avatar/c2d1afdccbaad57991b4fafbf7befe04.jpg?s=512&d=https%3A%2F%2Fa.slack-edge.com%2Fdf10d%2Fimg%2Favatars%2Fava_0009-512.png", "custom_css": null}, {"id": 12703, "slack_id": "U0936UKCQSJ", "display_name": "Cameron Virtue", "bio": null, "projects_count": 0, "devlogs_count": 0, "votes_count": 0, "ships_count": 0, "projects": [], "coding_time_seconds": 0, "coding_time_seconds_today": 0, "balance": "You need to have a pocket watcher badge to view this.", "badges": [], "created_at": "2025-06-27T06:36:18.458-04:00", "updated_at": "2025-07-04T02:32:52.422-04:00", "avatar": "https://avatars.slack-edge.com/2025-06-27/9100442505079_86474248ea50f5220ab0_original.png", "custom_css": null}, {"id": 12704, "slack_id": "U082S9BGMMW", "display_name": "YCY", "bio": null, "projects_count": 1, "devlogs_count": 11, "votes_count": 14, "ships_count": 1, "projects": [{"id": 4216, "title": "VocabVibe", "devlogs_count": 6, "created_at": "2025-06-28T08:38:36.194-04:00"}], "coding_time_seconds": 200632, "coding_time_seconds_today": 0, "balance": "You need to have a pocket watcher badge to view this.", "badges": [{"name": "Maiden Voyage", "text": "you shipped your first project! the journey begins...", "icon": "\ud83d\udea2"}], "created_at": "2025-06-27T06:38:12.953-04:00", "updated_at": "2025-09-10T22:57:31.902-04:00", "avatar": "https://avatars.slack-edge.com/2024-12-10/8174649212400_a684a3731d2a9da6141f_original.png", "custom_css": null}, {"id": 12705, "slack_id": "U092YDHGQLX", "display_name": "Vignesh", "bio": null, "projects_count": 0, "devlogs_count": 0, "votes_count": 0, "ships_count": 0, "projects": [], "coding_time_seconds": 0, "coding_time_seconds_today": 0, "balance": "You need to have a pocket watcher badge to view this.", "badges": [], "created_at": "2025-06-27T06:44:31.518-04:00", "updated_at": "2025-07-03T20:04:55.504-04:00", "avatar": "https://secure.gravatar.com/avatar/a82ebdd7f055d4710cc960308ed37edf.jpg?s=512&d=https%3A%2F%2Fa.slack-edge.com%2Fdf10d%2Fimg%2Favatars%2Fava_0010-512.png", "custom_css": null}, {"id": 12706, "slack_id": "U08RQLFQ8JF", "display_name": "Krupa", "bio": null, "projects_count": 1, "devlogs_count": 0, "votes_count": 0, "ships_count": 0, "projects": [{"id": 10476, "title": "PURSUIT", "devlogs_count": 0, "created_at": "2025-08-07T10:38:38.571-04:00"}], "coding_time_seconds": 135392, "coding_time_seconds_today": 0, "balance": "You need to have a pocket watcher badge to view this.", "badges": [], "created_at": "2025-06-27T06:58:39.886-04:00", "updated_at": "2025-08-07T10:25:16.399-04:00", "avatar": "https://secure.gravatar.com/avatar/87c1bc8a9bb65afab98e6ed0d15d4794.jpg?s=512&d=https%3A%2F%2Fa.slack-edge.com%2Fdf10d%2Fimg%2Favatars%2Fava_0020-512.png", "custom_css": null}, {"id": 12707, "slack_id": "U093S2WCPTK", "display_name": "Lunar.sh", "bio": null, "projects_count": 6, "devlogs_count": 13, "votes_count": 28, "ships_count": 3, "projects": [{"id": 4219, "title": "Lumina", "devlogs_count": 1, "created_at": "2025-06-28T08:50:34.411-04:00"}, {"id": 4237, "title": "When Fate Says No", "devlogs_count": 3, "created_at": "2025-06-28T11:21:02.246-04:00"}, {"id": 6314, "title": "User.Home", "devlogs_count": 1, "created_at": "2025-07-12T09:09:45.052-04:00"}, {"id": 8644, "title": "Lunar.home", "devlogs_count": 0, "created_at": "2025-07-28T18:41:19.818-04:00"}, {"id": 4817, "title": "Lunar.moon", "devlogs_count": 4, "created_at": "2025-07-01T17:16:25.271-04:00"}, {"id": 6646, "title": "Lunar.Bot", "devlogs_count": 1, "created_at": "2025-07-14T18:55:03.477-04:00"}], "coding_time_seconds": 106796, "coding_time_seconds_today": 0, "balance": "You need to have a pocket watcher badge to view this.", "badges": [{"name": "Maiden Voyage", "text": "you shipped your first project! the journey begins...", "icon": "\ud83d\udea2"}], "created_at": "2025-06-27T07:04:38.534-04:00", "updated_at": "2025-09-10T22:57:31.994-04:00", "avatar": "https://avatars.slack-edge.com/2025-07-15/9200244220290_146fe387e93bc286a361_original.png", "custom_css": null}, {"id": 12708, "slack_id": "U0935QC3ND9", "display_name": "Jia Peng", "bio": null, "projects_count": 1, "devlogs_count": 1, "votes_count": 0, "ships_count": 0, "projects": [{"id": 9179, "title": "Checkout Operator", "devlogs_count": 1, "created_at": "2025-07-30T21:49:30.511-04:00"}], "coding_time_seconds": 109552, "coding_time_seconds_today": 0, "balance": "You need to have a pocket watcher badge to view this.", "badges": [], "created_at": "2025-06-27T07:18:31.180-04:00", "updated_at": "2025-07-31T10:26:33.489-04:00", "avatar": "https://secure.gravatar.com/avatar/de59b0c9f49f64a4a37b06d53b28408d.jpg?s=512&d=https%3A%2F%2Fa.slack-edge.com%2Fdf10d%2Fimg%2Favatars%2Fava_0008-512.png", "custom_css": null}, {"id": 12709, "slack_id": "U0940UZ7XQQ", "display_name": "Denis", "bio": null, "projects_count": 0, "devlogs_count": 0, "votes_count": 0, "ships_count": 0, "projects": [], "coding_time_seconds": 0, "coding_time_seconds_today": 0, "balance": "You need to have a pocket watcher badge to view this.", "badges": [], "created_at": "2025-06-27T07:31:36.885-04:00", "updated_at": "2025-07-05T20:14:32.918-04:00", "avatar": "https://secure.gravatar.com/avatar/034f559dd0f80719d92f5d90145423b7.jpg?s=512&d=https%3A%2F%2Fa.slack-edge.com%2Fdf10d%2Fimg%2Favatars%2Fava_0002-512.png", "custom_css": null}, {"id": 12710, "slack_id": "U093S9NEU4R", "display_name": "Mariam", "bio": null, "projects_count": 0, "devlogs_count": 0, "votes_count": 0, "ships_count": 0, "projects": [], "coding_time_seconds": 0, "coding_time_seconds_today": 0, "balance": "You need to have a pocket watcher badge to view this.", "badges": [], "created_at": "2025-06-27T07:36:34.706-04:00", "updated_at": "2025-07-03T20:04:56.742-04:00", "avatar": "https://secure.gravatar.com/avatar/1bdbcdcbc4e8f4d6ed24ccf6f1ec7e95.jpg?s=512&d=https%3A%2F%2Fa.slack-edge.com%2Fdf10d%2Fimg%2Favatars%2Fava_0017-512.png", "custom_css": null}, {"id": 12711, "slack_id": "U093SAB45FB", "display_name": "MOSAB", "bio": null, "projects_count": 0, "devlogs_count": 0, "votes_count": 0, "ships_count": 0, "projects": [], "coding_time_seconds": 15301, "coding_time_seconds_today": 0, "balance": "You need to have a pocket watcher badge to view this.", "badges": [], "created_at": "2025-06-27T07:39:50.166-04:00", "updated_at": "2025-07-03T20:04:57.000-04:00", "avatar": "https://avatars.slack-edge.com/2025-06-27/9115911765476_158685d771f394c4e2f5_original.png", "custom_css": null}, {"id": 12712, "slack_id": "U0939KHDEAC", "display_name": "Jimmy Steve", "bio": null, "projects_count": 0, "devlogs_count": 0, "votes_count": 0, "ships_count": 0, "projects": [], "coding_time_seconds": 0, "coding_time_seconds_today": 0, "balance": "You need to have a pocket watcher badge to view this.", "badges": [], "created_at": "2025-06-27T07:55:39.397-04:00", "updated_at": "2025-07-03T20:04:57.260-04:00", "avatar": "https://secure.gravatar.com/avatar/e0c56b1a0e165dbe557dc22fdad484a1.jpg?s=512&d=https%3A%2F%2Fa.slack-edge.com%2Fdf10d%2Fimg%2Favatars%2Fava_0025-512.png", "custom_css": null}, {"id": 12713, "slack_id": "U093AM60QTF", "display_name": "Geraint", "bio": null, "projects_count": 0, "devlogs_count": 0, "votes_count": 0, "ships_count": 0, "projects": [], "coding_time_seconds": 0, "coding_time_seconds_today": 0, "balance": "You need to have a pocket watcher badge to view this.", "badges": [], "created_at": "2025-06-27T07:58:47.316-04:00", "updated_at": "2025-07-03T20:04:57.522-04:00", "avatar": "https://secure.gravatar.com/avatar/d7aa220c4f35f715673bb91d1feb178b.jpg?s=512&d=https%3A%2F%2Fa.slack-edge.com%2Fdf10d%2Fimg%2Favatars%2Fava_0012-512.png", "custom_css": null}, {"id": 12714, "slack_id": "U09361P5X1R", "display_name": "Christopher Cotter", "bio": null, "projects_count": 0, "devlogs_count": 0, "votes_count": 0, "ships_count": 0, "projects": [], "coding_time_seconds": 0, "coding_time_seconds_today": 0, "balance": "You need to have a pocket watcher badge to view this.", "badges": [], "created_at": "2025-06-27T08:14:55.798-04:00", "updated_at": "2025-07-03T20:04:57.779-04:00", "avatar": "https://secure.gravatar.com/avatar/c4483489692bf5a3f17e50215abed8de.jpg?s=512&d=https%3A%2F%2Fa.slack-edge.com%2Fdf10d%2Fimg%2Favatars%2Fava_0017-512.png", "custom_css": null}, {"id": 12715, "slack_id": "U0937D9FXV4", "display_name": "gz-w7", "bio": null, "projects_count": 1, "devlogs_count": 2, "votes_count": 20, "ships_count": 1, "projects": [{"id": 4213, "title": "ADAM - a python assistant", "devlogs_count": 2, "created_at": "2025-06-28T08:00:04.139-04:00"}], "coding_time_seconds": 38668, "coding_time_seconds_today": 0, "balance": "You need to have a pocket watcher badge to view this.", "badges": [{"name": "Maiden Voyage", "text": "you shipped your first project! the journey begins...", "icon": "\ud83d\udea2"}], "created_at": "2025-06-27T08:44:43.601-04:00", "updated_at": "2025-09-10T22:57:32.251-04:00", "avatar": "https://avatars.slack-edge.com/2025-06-27/9112954944389_df0fd06856b08be9f2eb_original.png", "custom_css": null}, {"id": 12716, "slack_id": "U08SS4G8UH3", "display_name": "f1shticks", "bio": null, "projects_count": 2, "devlogs_count": 10, "votes_count": 22, "ships_count": 1, "projects": [{"id": 4311, "title": "Gizmo", "devlogs_count": 9, "created_at": "2025-06-28T21:37:05.895-04:00"}, {"id": 7596, "title": "Website", "devlogs_count": 1, "created_at": "2025-07-22T08:06:56.649-04:00"}], "coding_time_seconds": 178494, "coding_time_seconds_today": 0, "balance": "You need to have a pocket watcher badge to view this.", "badges": [{"name": "Maiden Voyage", "text": "you shipped your first project! the journey begins...", "icon": "\ud83d\udea2"}], "created_at": "2025-06-27T08:54:54.072-04:00", "updated_at": "2025-09-10T22:57:32.283-04:00", "avatar": "https://avatars.slack-edge.com/2025-06-29/9123233750628_eb044110b6b5eb62c39f_original.png", "custom_css": null}, {"id": 12717, "slack_id": "U093DC8PXL2", "display_name": "Nel", "bio": null, "projects_count": 0, "devlogs_count": 0, "votes_count": 0, "ships_count": 0, "projects": [], "coding_time_seconds": 0, "coding_time_seconds_today": 0, "balance": "You need to have a pocket watcher badge to view this.", "badges": [], "created_at": "2025-06-27T08:55:17.861-04:00", "updated_at": "2025-07-03T20:04:58.582-04:00", "avatar": "https://secure.gravatar.com/avatar/05982f173723db2af5f76e567c554206.jpg?s=512&d=https%3A%2F%2Fa.slack-edge.com%2Fdf10d%2Fimg%2Favatars%2Fava_0010-512.png", "custom_css": null}, {"id": 12718, "slack_id": "U093DESQWBU", "display_name": "Rohit", "bio": null, "projects_count": 0, "devlogs_count": 0, "votes_count": 0, "ships_count": 0, "projects": [], "coding_time_seconds": 0, "coding_time_seconds_today": 0, "balance": "You need to have a pocket watcher badge to view this.", "badges": [], "created_at": "2025-06-27T09:07:43.904-04:00", "updated_at": "2025-07-03T20:04:58.842-04:00", "avatar": "https://secure.gravatar.com/avatar/f4ebaaae9cd4382a59832309cf807272.jpg?s=512&d=https%3A%2F%2Fa.slack-edge.com%2Fdf10d%2Fimg%2Favatars%2Fava_0006-512.png", "custom_css": null}, {"id": 12719, "slack_id": "U0941J60MR6", "display_name": "Thy Tran", "bio": null, "projects_count": 0, "devlogs_count": 0, "votes_count": 0, "ships_count": 0, "projects": [], "coding_time_seconds": 0, "coding_time_seconds_today": 0, "balance": "You need to have a pocket watcher badge to view this.", "badges": [], "created_at": "2025-06-27T09:49:41.727-04:00", "updated_at": "2025-07-03T20:04:59.106-04:00", "avatar": "https://secure.gravatar.com/avatar/cd2fb6f5bdf428f220e14dcf4ec50fb3.jpg?s=512&d=https%3A%2F%2Fa.slack-edge.com%2Fdf10d%2Fimg%2Favatars%2Fava_0013-512.png", "custom_css": null}, {"id": 12720, "slack_id": "U081ZBSDMDL", "display_name": "kaushal", "bio": null, "projects_count": 0, "devlogs_count": 0, "votes_count": 0, "ships_count": 0, "projects": [], "coding_time_seconds": 21711, "coding_time_seconds_today": 0, "balance": "You need to have a pocket watcher badge to view this.", "badges": [], "created_at": "2025-06-27T09:52:07.347-04:00", "updated_at": "2025-08-01T15:12:58.207-04:00", "avatar": "https://avatars.slack-edge.com/2025-08-01/9288362436131_2799b433d6fca64612f4_original.png", "custom_css": null}], "pagination": {"page": 636, "pages": 1192, "count": 23828, "items": 20}}