{"users": [{"id": 12741, "slack_id": "U093EEL80HG", "display_name": "Dc_trick", "bio": null, "projects_count": 0, "devlogs_count": 0, "votes_count": 0, "ships_count": 0, "projects": [], "coding_time_seconds": 0, "coding_time_seconds_today": 0, "balance": "You need to have a pocket watcher badge to view this.", "badges": [], "created_at": "2025-06-27T12:03:11.786-04:00", "updated_at": "2025-07-03T20:05:04.221-04:00", "avatar": "https://secure.gravatar.com/avatar/9ef1fe6eab925650dcc425b018112665.jpg?s=512&d=https%3A%2F%2Fa.slack-edge.com%2Fdf10d%2Fimg%2Favatars%2Fava_0002-512.png", "custom_css": null}, {"id": 12742, "slack_id": "U093407DG1G", "display_name": "Malaysia Williams (Malay)", "bio": null, "projects_count": 0, "devlogs_count": 0, "votes_count": 0, "ships_count": 0, "projects": [], "coding_time_seconds": 4056, "coding_time_seconds_today": 0, "balance": "You need to have a pocket watcher badge to view this.", "badges": [], "created_at": "2025-06-27T12:12:11.522-04:00", "updated_at": "2025-07-08T03:05:54.608-04:00", "avatar": "https://avatars.slack-edge.com/2025-06-27/9116561542914_15dc1df1ec4c34cd832b_original.jpg", "custom_css": null}, {"id": 12743, "slack_id": "U0937CM4DEF", "display_name": "Deepinder Singh", "bio": null, "projects_count": 0, "devlogs_count": 0, "votes_count": 0, "ships_count": 0, "projects": [], "coding_time_seconds": 17049, "coding_time_seconds_today": 0, "balance": "You need to have a pocket watcher badge to view this.", "badges": [], "created_at": "2025-06-27T12:16:39.301-04:00", "updated_at": "2025-07-03T20:05:04.883-04:00", "avatar": "https://secure.gravatar.com/avatar/b3d614137c7ee7b40911a5210c98b089.jpg?s=512&d=https%3A%2F%2Fa.slack-edge.com%2Fdf10d%2Fimg%2Favatars%2Fava_0019-512.png", "custom_css": null}, {"id": 12744, "slack_id": "U093C5BM493", "display_name": "therealgofrez", "bio": null, "projects_count": 0, "devlogs_count": 0, "votes_count": 0, "ships_count": 0, "projects": [], "coding_time_seconds": 0, "coding_time_seconds_today": 0, "balance": "You need to have a pocket watcher badge to view this.", "badges": [], "created_at": "2025-06-27T12:17:46.285-04:00", "updated_at": "2025-07-04T07:39:20.010-04:00", "avatar": "https://secure.gravatar.com/avatar/4ac5600695eca7b647620f09dd0317e5.jpg?s=512&d=https%3A%2F%2Fa.slack-edge.com%2Fdf10d%2Fimg%2Favatars%2Fava_0001-512.png", "custom_css": null}, {"id": 12745, "slack_id": "U0938MZG8Q6", "display_name": "christian", "bio": null, "projects_count": 1, "devlogs_count": 10, "votes_count": 34, "ships_count": 0, "projects": [{"id": 13486, "title": "zapi", "devlogs_count": 1, "created_at": "2025-09-17T14:40:25.829-04:00"}], "coding_time_seconds": 63618, "coding_time_seconds_today": 0, "balance": "You need to have a pocket watcher badge to view this.", "badges": [{"name": "Maiden Voyage", "text": "you shipped your first project! the journey begins...", "icon": "\ud83d\udea2"}], "created_at": "2025-06-27T12:27:24.009-04:00", "updated_at": "2025-09-10T22:57:33.030-04:00", "avatar": "https://avatars.slack-edge.com/2025-07-04/9146108136582_11010e6b7ab446d126ee_original.png", "custom_css": null}, {"id": 12746, "slack_id": "U083FLECPMJ", "display_name": "Sophia C", "bio": null, "projects_count": 0, "devlogs_count": 0, "votes_count": 2, "ships_count": 0, "projects": [], "coding_time_seconds": 34987, "coding_time_seconds_today": 0, "balance": "You need to have a pocket watcher badge to view this.", "badges": [], "created_at": "2025-06-27T12:32:42.334-04:00", "updated_at": "2025-07-03T20:05:05.665-04:00", "avatar": "https://avatars.slack-edge.com/2025-03-03/8541339428021_c71a5e3f97803ade7a84_original.jpg", "custom_css": null}, {"id": 12747, "slack_id": "U0942G89PQ8", "display_name": "Mohamed Elzalook", "bio": null, "projects_count": 0, "devlogs_count": 0, "votes_count": 0, "ships_count": 0, "projects": [], "coding_time_seconds": 292884, "coding_time_seconds_today": 0, "balance": "You need to have a pocket watcher badge to view this.", "badges": [], "created_at": "2025-06-27T12:34:35.906-04:00", "updated_at": "2025-07-14T16:54:51.160-04:00", "avatar": "https://secure.gravatar.com/avatar/8fce5ed12136247a69563f147fa9fd43.jpg?s=512&d=https%3A%2F%2Fa.slack-edge.com%2Fdf10d%2Fimg%2Favatars%2Fava_0019-512.png", "custom_css": null}, {"id": 12748, "slack_id": "U092B53AWP8", "display_name": "Vaibhav Kumar", "bio": null, "projects_count": 0, "devlogs_count": 0, "votes_count": 0, "ships_count": 0, "projects": [], "coding_time_seconds": 281759, "coding_time_seconds_today": 0, "balance": "You need to have a pocket watcher badge to view this.", "badges": [], "created_at": "2025-06-27T12:42:40.783-04:00", "updated_at": "2025-07-03T20:05:06.211-04:00", "avatar": "https://secure.gravatar.com/avatar/78dfd49b89bcd7b31acd77bdc46f7785.jpg?s=512&d=https%3A%2F%2Fa.slack-edge.com%2Fdf10d%2Fimg%2Favatars%2Fava_0026-512.png", "custom_css": null}, {"id": 12749, "slack_id": "U093Z7XU1C0", "display_name": "Vexed", "bio": null, "projects_count": 1, "devlogs_count": 1, "votes_count": 0, "ships_count": 0, "projects": [{"id": 4111, "title": "Piano Walk", "devlogs_count": 1, "created_at": "2025-06-27T14:25:25.111-04:00"}], "coding_time_seconds": 7228, "coding_time_seconds_today": 0, "balance": "You need to have a pocket watcher badge to view this.", "badges": [], "created_at": "2025-06-27T13:13:24.573-04:00", "updated_at": "2025-07-03T20:05:06.474-04:00", "avatar": "https://secure.gravatar.com/avatar/0d2387d1cb455209a3276d7ca02a9c6e.jpg?s=512&d=https%3A%2F%2Fa.slack-edge.com%2Fdf10d%2Fimg%2Favatars%2Fava_0011-512.png", "custom_css": null}, {"id": 12750, "slack_id": "U09390BHMF0", "display_name": "Subeedei Uriyanghai", "bio": null, "projects_count": 0, "devlogs_count": 0, "votes_count": 0, "ships_count": 0, "projects": [], "coding_time_seconds": 0, "coding_time_seconds_today": 0, "balance": "You need to have a pocket watcher badge to view this.", "badges": [], "created_at": "2025-06-27T13:15:34.811-04:00", "updated_at": "2025-07-03T20:05:06.744-04:00", "avatar": "https://avatars.slack-edge.com/2025-06-27/9117732375684_3c86aebc60339ca2dfaf_original.png", "custom_css": null}, {"id": 12751, "slack_id": "U0937MU4MR9", "display_name": "ayush", "bio": null, "projects_count": 0, "devlogs_count": 0, "votes_count": 0, "ships_count": 0, "projects": [], "coding_time_seconds": 0, "coding_time_seconds_today": 0, "balance": "You need to have a pocket watcher badge to view this.", "badges": [], "created_at": "2025-06-27T13:19:24.884-04:00", "updated_at": "2025-07-03T20:05:07.014-04:00", "avatar": "https://secure.gravatar.com/avatar/f24b72f65c01da7610f60e2be496c80f.jpg?s=512&d=https%3A%2F%2Fa.slack-edge.com%2Fdf10d%2Fimg%2Favatars%2Fava_0017-512.png", "custom_css": null}, {"id": 12752, "slack_id": "U093JQN5J5P", "display_name": "zhj", "bio": null, "projects_count": 0, "devlogs_count": 0, "votes_count": 0, "ships_count": 0, "projects": [], "coding_time_seconds": 371760, "coding_time_seconds_today": 9846, "balance": "You need to have a pocket watcher badge to view this.", "badges": [], "created_at": "2025-06-27T13:19:27.582-04:00", "updated_at": "2025-07-03T22:03:38.525-04:00", "avatar": "https://secure.gravatar.com/avatar/394a6a7437e48ebbbfbe4944079e23e9.jpg?s=512&d=https%3A%2F%2Fa.slack-edge.com%2Fdf10d%2Fimg%2Favatars%2Fava_0003-512.png", "custom_css": null}, {"id": 12753, "slack_id": "U09392FP3C6", "display_name": "Tasnim", "bio": null, "projects_count": 0, "devlogs_count": 34, "votes_count": 75, "ships_count": 0, "projects": [], "coding_time_seconds": 689871, "coding_time_seconds_today": 0, "balance": "You need to have a pocket watcher badge to view this.", "badges": [{"name": "Maiden Voyage", "text": "you shipped your first project! the journey begins...", "icon": "\ud83d\udea2"}, {"name": "Ballot Stuffer", "text": "vote 100 times.", "icon": "https://summer.hackclub.com/assets/i_voted-bf851b48.png"}], "created_at": "2025-06-27T13:29:16.767-04:00", "updated_at": "2025-09-10T22:57:33.237-04:00", "avatar": "https://secure.gravatar.com/avatar/b1a57fa58626c7c06060ba33c81499e3.jpg?s=512&d=https%3A%2F%2Fa.slack-edge.com%2Fdf10d%2Fimg%2Favatars%2Fava_0011-512.png", "custom_css": null}, {"id": 12754, "slack_id": "U09394SJQ4W", "display_name": "Alexander Stephens", "bio": null, "projects_count": 0, "devlogs_count": 0, "votes_count": 0, "ships_count": 0, "projects": [], "coding_time_seconds": 0, "coding_time_seconds_today": 0, "balance": "You need to have a pocket watcher badge to view this.", "badges": [], "created_at": "2025-06-27T13:44:16.587-04:00", "updated_at": "2025-07-03T20:05:07.561-04:00", "avatar": "https://secure.gravatar.com/avatar/5927684084cd626d72ee29925c23b626.jpg?s=512&d=https%3A%2F%2Fa.slack-edge.com%2Fdf10d%2Fimg%2Favatars%2Fava_0019-512.png", "custom_css": null}, {"id": 12755, "slack_id": "U078ZJHUKFW", "display_name": "max h", "bio": null, "projects_count": 2, "devlogs_count": 0, "votes_count": 0, "ships_count": 0, "projects": [{"id": 13718, "title": "Marshland", "devlogs_count": 0, "created_at": "2025-09-23T15:43:01.792-04:00"}, {"id": 13359, "title": "storyboard #1", "devlogs_count": 0, "created_at": "2025-09-14T13:39:45.546-04:00"}], "coding_time_seconds": 437073, "coding_time_seconds_today": 0, "balance": "You need to have a pocket watcher badge to view this.", "badges": [], "created_at": "2025-06-27T13:53:02.244-04:00", "updated_at": "2025-09-14T13:32:23.188-04:00", "avatar": "https://avatars.slack-edge.com/2025-02-12/8434408470294_37bb03eeb5b4f227991a_original.png", "custom_css": null}, {"id": 12756, "slack_id": "U093G1K5668", "display_name": "Manuraj", "bio": null, "projects_count": 0, "devlogs_count": 0, "votes_count": 0, "ships_count": 0, "projects": [], "coding_time_seconds": 0, "coding_time_seconds_today": 0, "balance": "You need to have a pocket watcher badge to view this.", "badges": [], "created_at": "2025-06-27T14:21:05.429-04:00", "updated_at": "2025-07-03T20:05:07.983-04:00", "avatar": "https://secure.gravatar.com/avatar/064709f6b35ec3b3aa1a54331ddf25b6.jpg?s=512&d=https%3A%2F%2Fa.slack-edge.com%2Fdf10d%2Fimg%2Favatars%2Fava_0010-512.png", "custom_css": null}, {"id": 12757, "slack_id": "U093UG62MPT", "display_name": "Henry Chen", "bio": null, "projects_count": 1, "devlogs_count": 0, "votes_count": 0, "ships_count": 0, "projects": [{"id": 4423, "title": "Mongol Clicker", "devlogs_count": 0, "created_at": "2025-06-29T19:08:09.873-04:00"}], "coding_time_seconds": 66891, "coding_time_seconds_today": 0, "balance": "You need to have a pocket watcher badge to view this.", "badges": [], "created_at": "2025-06-27T14:29:44.843-04:00", "updated_at": "2025-07-03T20:05:08.248-04:00", "avatar": "https://avatars.slack-edge.com/2025-06-27/9139140362048_ae67359b5cb4b67e208c_original.jpg", "custom_css": null}, {"id": 12758, "slack_id": "U093DGWPJQ1", "display_name": "Taghi", "bio": null, "projects_count": 0, "devlogs_count": 0, "votes_count": 0, "ships_count": 0, "projects": [], "coding_time_seconds": 0, "coding_time_seconds_today": 0, "balance": "You need to have a pocket watcher badge to view this.", "badges": [], "created_at": "2025-06-27T14:31:48.623-04:00", "updated_at": "2025-07-03T20:05:08.520-04:00", "avatar": "https://secure.gravatar.com/avatar/2797b247a8ff167eada62bf0f004302b.jpg?s=512&d=https%3A%2F%2Fa.slack-edge.com%2Fdf10d%2Fimg%2Favatars%2Fava_0024-512.png", "custom_css": null}, {"id": 12759, "slack_id": "U093UGTGMG9", "display_name": "David", "bio": null, "projects_count": 1, "devlogs_count": 0, "votes_count": 0, "ships_count": 0, "projects": [{"id": 11241, "title": "Benchgo", "devlogs_count": 0, "created_at": "2025-08-14T08:26:04.372-04:00"}], "coding_time_seconds": 6430, "coding_time_seconds_today": 0, "balance": "You need to have a pocket watcher badge to view this.", "badges": [], "created_at": "2025-06-27T14:33:41.425-04:00", "updated_at": "2025-08-11T13:03:30.656-04:00", "avatar": "https://secure.gravatar.com/avatar/a4b4edf40663f54ca78caa387e1d599d.jpg?s=512&d=https%3A%2F%2Fa.slack-edge.com%2Fdf10d%2Fimg%2Favatars%2Fava_0011-512.png", "custom_css": null}, {"id": 12760, "slack_id": "U093AN210GJ", "display_name": "Max Goodfellow", "bio": null, "projects_count": 0, "devlogs_count": 0, "votes_count": 0, "ships_count": 0, "projects": [], "coding_time_seconds": 163972, "coding_time_seconds_today": 0, "balance": "You need to have a pocket watcher badge to view this.", "badges": [], "created_at": "2025-06-27T14:44:58.582-04:00", "updated_at": "2025-07-04T08:29:14.350-04:00", "avatar": "https://secure.gravatar.com/avatar/54de6b2d59deeabdd82d97b018a42a37.jpg?s=512&d=https%3A%2F%2Fa.slack-edge.com%2Fdf10d%2Fimg%2Favatars%2Fava_0002-512.png", "custom_css": null}], "pagination": {"page": 638, "pages": 1192, "count": 23828, "items": 20}}