{"users": [{"id": 12761, "slack_id": "U092BDQMELB", "display_name": "RADYO_ACTIV", "bio": null, "projects_count": 0, "devlogs_count": 0, "votes_count": 0, "ships_count": 0, "projects": [], "coding_time_seconds": 0, "coding_time_seconds_today": 0, "balance": "You need to have a pocket watcher badge to view this.", "badges": [], "created_at": "2025-06-27T14:56:49.127-04:00", "updated_at": "2025-07-03T20:05:09.211-04:00", "avatar": "https://secure.gravatar.com/avatar/2213ae6fbb838045d4fe967f572fcd6f.jpg?s=512&d=https%3A%2F%2Fa.slack-edge.com%2Fdf10d%2Fimg%2Favatars%2Fava_0015-512.png", "custom_css": null}, {"id": 12762, "slack_id": "U09389H6F0B", "display_name": "Floris Tabak", "bio": null, "projects_count": 0, "devlogs_count": 0, "votes_count": 0, "ships_count": 0, "projects": [], "coding_time_seconds": 11693, "coding_time_seconds_today": 0, "balance": "You need to have a pocket watcher badge to view this.", "badges": [], "created_at": "2025-06-27T15:04:37.624-04:00", "updated_at": "2025-07-03T20:05:09.479-04:00", "avatar": "https://secure.gravatar.com/avatar/d5eb5cd72ca920ce7aa808b6193632d6.jpg?s=512&d=https%3A%2F%2Fa.slack-edge.com%2Fdf10d%2Fimg%2Favatars%2Fava_0014-512.png", "custom_css": null}, {"id": 12763, "slack_id": "U081LEKFE69", "display_name": "Gregory Serwadda", "bio": null, "projects_count": 0, "devlogs_count": 0, "votes_count": 0, "ships_count": 0, "projects": [], "coding_time_seconds": 95253, "coding_time_seconds_today": 0, "balance": "You need to have a pocket watcher badge to view this.", "badges": [], "created_at": "2025-06-27T15:06:44.288-04:00", "updated_at": "2025-07-07T07:00:36.824-04:00", "avatar": "https://avatars.slack-edge.com/2024-11-20/8057392646402_4f7b0ed6394db68f3aef_original.png", "custom_css": null}, {"id": 12764, "slack_id": "U093FE3PSMQ", "display_name": "Aiden Jiang", "bio": null, "projects_count": 0, "devlogs_count": 0, "votes_count": 0, "ships_count": 0, "projects": [], "coding_time_seconds": 0, "coding_time_seconds_today": 0, "balance": "You need to have a pocket watcher badge to view this.", "badges": [], "created_at": "2025-06-27T15:20:38.689-04:00", "updated_at": "2025-07-03T20:05:09.885-04:00", "avatar": "https://avatars.slack-edge.com/2025-06-27/9115127172501_792bbe346d287c865d1d_original.jpg", "custom_css": null}, {"id": 12765, "slack_id": "U09315JCRGF", "display_name": "side Quests", "bio": null, "projects_count": 0, "devlogs_count": 0, "votes_count": 1, "ships_count": 0, "projects": [], "coding_time_seconds": 85346, "coding_time_seconds_today": 0, "balance": "You need to have a pocket watcher badge to view this.", "badges": [], "created_at": "2025-06-27T15:29:43.061-04:00", "updated_at": "2025-07-06T02:15:42.544-04:00", "avatar": "https://avatars.slack-edge.com/2025-06-27/9130847650561_c1fbf65bf17dcb75f52b_original.png", "custom_css": null}, {"id": 12766, "slack_id": "U0938JKD599", "display_name": "Yurika", "bio": null, "projects_count": 0, "devlogs_count": 0, "votes_count": 0, "ships_count": 0, "projects": [], "coding_time_seconds": 0, "coding_time_seconds_today": 0, "balance": "You need to have a pocket watcher badge to view this.", "badges": [], "created_at": "2025-06-27T16:09:12.654-04:00", "updated_at": "2025-07-04T08:29:14.820-04:00", "avatar": "https://secure.gravatar.com/avatar/28eeb72c9ed8ab9d5b116f4e1e66503c.jpg?s=512&d=https%3A%2F%2Fa.slack-edge.com%2Fdf10d%2Fimg%2Favatars%2Fava_0006-512.png", "custom_css": null}, {"id": 12767, "slack_id": "U0938EGPWPM", "display_name": "Morgon", "bio": null, "projects_count": 0, "devlogs_count": 0, "votes_count": 0, "ships_count": 0, "projects": [], "coding_time_seconds": 0, "coding_time_seconds_today": 0, "balance": "You need to have a pocket watcher badge to view this.", "badges": [], "created_at": "2025-06-27T16:15:11.503-04:00", "updated_at": "2025-07-06T08:13:41.474-04:00", "avatar": "https://secure.gravatar.com/avatar/85a514a272b603d98d449f7c7ab839f3.jpg?s=512&d=https%3A%2F%2Fa.slack-edge.com%2Fdf10d%2Fimg%2Favatars%2Fava_0022-512.png", "custom_css": null}, {"id": 12768, "slack_id": "U093GHY41U4", "display_name": "holeintheearth", "bio": null, "projects_count": 0, "devlogs_count": 0, "votes_count": 0, "ships_count": 0, "projects": [], "coding_time_seconds": 0, "coding_time_seconds_today": 0, "balance": "You need to have a pocket watcher badge to view this.", "badges": [], "created_at": "2025-06-27T16:22:10.572-04:00", "updated_at": "2025-07-03T20:05:10.555-04:00", "avatar": "https://secure.gravatar.com/avatar/a113e4c9f1d05ef35e03c85fb8a3d90a.jpg?s=512&d=https%3A%2F%2Fa.slack-edge.com%2Fdf10d%2Fimg%2Favatars%2Fava_0013-512.png", "custom_css": null}, {"id": 12769, "slack_id": "U093GJ69ZFW", "display_name": "Suumer DeLaMe King Jr", "bio": null, "projects_count": 1, "devlogs_count": 0, "votes_count": 0, "ships_count": 0, "projects": [{"id": 4127, "title": "Me!", "devlogs_count": 0, "created_at": "2025-06-27T16:32:48.696-04:00"}], "coding_time_seconds": 4479, "coding_time_seconds_today": 0, "balance": "You need to have a pocket watcher badge to view this.", "badges": [], "created_at": "2025-06-27T16:23:47.132-04:00", "updated_at": "2025-07-03T22:03:39.668-04:00", "avatar": "https://secure.gravatar.com/avatar/81c1a1829c962c90d2c6ef3bd258b945.jpg?s=512&d=https%3A%2F%2Fa.slack-edge.com%2Fdf10d%2Fimg%2Favatars%2Fava_0015-512.png", "custom_css": null}, {"id": 12770, "slack_id": "U093FNNGN5Q", "display_name": "the hacker", "bio": null, "projects_count": 0, "devlogs_count": 0, "votes_count": 0, "ships_count": 0, "projects": [], "coding_time_seconds": 0, "coding_time_seconds_today": 0, "balance": "You need to have a pocket watcher badge to view this.", "badges": [], "created_at": "2025-06-27T16:31:49.107-04:00", "updated_at": "2025-07-03T20:05:10.963-04:00", "avatar": "https://secure.gravatar.com/avatar/354388ec4b4401e2d88ce7961d70fd14.jpg?s=512&d=https%3A%2F%2Fa.slack-edge.com%2Fdf10d%2Fimg%2Favatars%2Fava_0004-512.png", "custom_css": null}, {"id": 12771, "slack_id": "U0943MKABB2", "display_name": "Arshia D", "bio": null, "projects_count": 0, "devlogs_count": 0, "votes_count": 0, "ships_count": 0, "projects": [], "coding_time_seconds": 0, "coding_time_seconds_today": 0, "balance": "You need to have a pocket watcher badge to view this.", "badges": [], "created_at": "2025-06-27T16:51:50.444-04:00", "updated_at": "2025-07-03T20:05:11.249-04:00", "avatar": "https://secure.gravatar.com/avatar/c88285bdcb1b527076b2d2c4c2949bfe.jpg?s=512&d=https%3A%2F%2Fa.slack-edge.com%2Fdf10d%2Fimg%2Favatars%2Fava_0025-512.png", "custom_css": null}, {"id": 12772, "slack_id": "U093FQYKH26", "display_name": "Aman Puttagunta", "bio": null, "projects_count": 1, "devlogs_count": 0, "votes_count": 1, "ships_count": 0, "projects": [{"id": 6508, "title": "Wawzysko Fan Page", "devlogs_count": 0, "created_at": "2025-07-13T23:27:49.737-04:00"}], "coding_time_seconds": 18887, "coding_time_seconds_today": 0, "balance": "You need to have a pocket watcher badge to view this.", "badges": [], "created_at": "2025-06-27T16:51:53.747-04:00", "updated_at": "2025-07-03T20:05:11.511-04:00", "avatar": "https://avatars.slack-edge.com/2025-06-27/9139751985056_97a4910ce3db4115ccac_original.png", "custom_css": null}, {"id": 12773, "slack_id": "U081F1BKZ8U", "display_name": "Cat Dev", "bio": null, "projects_count": 0, "devlogs_count": 0, "votes_count": 0, "ships_count": 0, "projects": [], "coding_time_seconds": 0, "coding_time_seconds_today": 0, "balance": "You need to have a pocket watcher badge to view this.", "badges": [], "created_at": "2025-06-27T17:12:28.544-04:00", "updated_at": "2025-07-03T20:05:11.867-04:00", "avatar": "https://avatars.slack-edge.com/2024-12-19/8210544537089_ef9407652f8d52825dd1_original.jpg", "custom_css": null}, {"id": 12774, "slack_id": "U0938TNMN3V", "display_name": "Caleb Shearer", "bio": null, "projects_count": 0, "devlogs_count": 0, "votes_count": 0, "ships_count": 0, "projects": [], "coding_time_seconds": 0, "coding_time_seconds_today": 0, "balance": "You need to have a pocket watcher badge to view this.", "badges": [], "created_at": "2025-06-27T17:22:16.979-04:00", "updated_at": "2025-07-03T20:05:12.135-04:00", "avatar": "https://secure.gravatar.com/avatar/ef1a7b43aeb3c10ee66491c29eb287a4.jpg?s=512&d=https%3A%2F%2Fa.slack-edge.com%2Fdf10d%2Fimg%2Favatars%2Fava_0003-512.png", "custom_css": null}, {"id": 12775, "slack_id": "U093GS6AAUC", "display_name": "wojtek", "bio": null, "projects_count": 2, "devlogs_count": 6, "votes_count": 14, "ships_count": 1, "projects": [{"id": 8484, "title": "Github Visualization Site", "devlogs_count": 2, "created_at": "2025-07-27T13:07:50.986-04:00"}, {"id": 13642, "title": "Customizable Day Planner", "devlogs_count": 4, "created_at": "2025-09-21T19:20:59.305-04:00"}], "coding_time_seconds": 82033, "coding_time_seconds_today": 1980, "balance": "You need to have a pocket watcher badge to view this.", "badges": [{"name": "Maiden Voyage", "text": "you shipped your first project! the journey begins...", "icon": "\ud83d\udea2"}], "created_at": "2025-06-27T17:34:37.672-04:00", "updated_at": "2025-09-22T12:20:44.013-04:00", "avatar": "https://secure.gravatar.com/avatar/85e7dcc801e0d940abc0baed12e8f9cd.jpg?s=512&d=https%3A%2F%2Fa.slack-edge.com%2Fdf10d%2Fimg%2Favatars%2Fava_0018-512.png", "custom_css": null}, {"id": 12776, "slack_id": "U093FV2190S", "display_name": "Hawa Kenneh", "bio": null, "projects_count": 0, "devlogs_count": 0, "votes_count": 0, "ships_count": 0, "projects": [], "coding_time_seconds": 7220, "coding_time_seconds_today": 0, "balance": "You need to have a pocket watcher badge to view this.", "badges": [], "created_at": "2025-06-27T17:48:32.465-04:00", "updated_at": "2025-07-03T20:05:12.658-04:00", "avatar": "https://secure.gravatar.com/avatar/b1a6934b7509095236dde19a9915c144.jpg?s=512&d=https%3A%2F%2Fa.slack-edge.com%2Fdf10d%2Fimg%2Favatars%2Fava_0015-512.png", "custom_css": null}, {"id": 12777, "slack_id": "U09390XMRS7", "display_name": "Farishta", "bio": null, "projects_count": 0, "devlogs_count": 0, "votes_count": 0, "ships_count": 0, "projects": [], "coding_time_seconds": 1958, "coding_time_seconds_today": 0, "balance": "You need to have a pocket watcher badge to view this.", "badges": [], "created_at": "2025-06-27T17:51:01.694-04:00", "updated_at": "2025-07-03T20:05:12.924-04:00", "avatar": "https://avatars.slack-edge.com/2025-06-27/9103996464199_bb253593f6e0f3215e9c_original.png", "custom_css": null}, {"id": 12778, "slack_id": "U093DNQMACD", "display_name": "wm01", "bio": null, "projects_count": 0, "devlogs_count": 0, "votes_count": 0, "ships_count": 0, "projects": [], "coding_time_seconds": 23006, "coding_time_seconds_today": 0, "balance": "You need to have a pocket watcher badge to view this.", "badges": [], "created_at": "2025-06-27T18:12:00.627-04:00", "updated_at": "2025-07-04T02:32:57.832-04:00", "avatar": "https://secure.gravatar.com/avatar/d45de303a8bd6ec660e73d6dbbcbf2e0.jpg?s=512&d=https%3A%2F%2Fa.slack-edge.com%2Fdf10d%2Fimg%2Favatars%2Fava_0011-512.png", "custom_css": null}, {"id": 12779, "slack_id": "U093GUSQX5J", "display_name": "WeirdBoi", "bio": null, "projects_count": 0, "devlogs_count": 0, "votes_count": 0, "ships_count": 0, "projects": [], "coding_time_seconds": 0, "coding_time_seconds_today": 0, "balance": "You need to have a pocket watcher badge to view this.", "badges": [], "created_at": "2025-06-27T18:23:56.213-04:00", "updated_at": "2025-07-03T20:05:13.322-04:00", "avatar": "https://avatars.slack-edge.com/2025-06-27/9115818106725_1ebe334e6e027496f033_original.png", "custom_css": null}, {"id": 12780, "slack_id": "U08TZ8M3EUS", "display_name": "FavourEgbo", "bio": null, "projects_count": 0, "devlogs_count": 0, "votes_count": 0, "ships_count": 0, "projects": [], "coding_time_seconds": 0, "coding_time_seconds_today": 0, "balance": "You need to have a pocket watcher badge to view this.", "badges": [], "created_at": "2025-06-27T18:41:53.146-04:00", "updated_at": "2025-07-04T02:32:58.024-04:00", "avatar": "https://secure.gravatar.com/avatar/19dacac30ba06e13635f8a6f44308e09.jpg?s=512&d=https%3A%2F%2Fa.slack-edge.com%2Fdf10d%2Fimg%2Favatars%2Fava_0014-512.png", "custom_css": null}], "pagination": {"page": 639, "pages": 1192, "count": 23828, "items": 20}}