{"users": [{"id": 1261, "slack_id": "U092BU1L09E", "display_name": "Gon\u00e7alo Coelho", "bio": null, "projects_count": 0, "devlogs_count": 0, "votes_count": 0, "ships_count": 0, "projects": [], "coding_time_seconds": 0, "coding_time_seconds_today": 0, "balance": "You need to have a pocket watcher badge to view this.", "badges": [], "created_at": "2025-06-16T12:57:30.118-04:00", "updated_at": "2025-07-03T19:16:50.249-04:00", "avatar": "https://secure.gravatar.com/avatar/9f5d6a695d1463d8d2393f8707bf8f0e.jpg?s=512&d=https%3A%2F%2Fa.slack-edge.com%2Fdf10d%2Fimg%2Favatars%2Fava_0001-512.png", "custom_css": null}, {"id": 1262, "slack_id": "U09220YBTGR", "display_name": "Gurkirat Singh Khinda", "bio": null, "projects_count": 0, "devlogs_count": 0, "votes_count": 0, "ships_count": 0, "projects": [], "coding_time_seconds": 0, "coding_time_seconds_today": 0, "balance": "You need to have a pocket watcher badge to view this.", "badges": [], "created_at": "2025-06-16T12:57:32.777-04:00", "updated_at": "2025-07-03T19:16:50.516-04:00", "avatar": "https://secure.gravatar.com/avatar/ce4bab03c816e2c7391f76ebf21e9718.jpg?s=512&d=https%3A%2F%2Fa.slack-edge.com%2Fdf10d%2Fimg%2Favatars%2Fava_0025-512.png", "custom_css": null}, {"id": 1263, "slack_id": "U091PSDPEPN", "display_name": "PRAVIN KUMAR R", "bio": null, "projects_count": 0, "devlogs_count": 0, "votes_count": 0, "ships_count": 0, "projects": [], "coding_time_seconds": 0, "coding_time_seconds_today": 0, "balance": "You need to have a pocket watcher badge to view this.", "badges": [], "created_at": "2025-06-16T12:57:39.048-04:00", "updated_at": "2025-07-03T19:16:50.788-04:00", "avatar": "https://avatars.slack-edge.com/2025-06-16/9055719723205_52acf007917298dd9866_original.jpg", "custom_css": null}, {"id": 1264, "slack_id": "U091854F9U7", "display_name": "Gabriele", "bio": null, "projects_count": 0, "devlogs_count": 0, "votes_count": 0, "ships_count": 0, "projects": [], "coding_time_seconds": 0, "coding_time_seconds_today": 0, "balance": "You need to have a pocket watcher badge to view this.", "badges": [], "created_at": "2025-06-16T12:57:52.722-04:00", "updated_at": "2025-07-03T19:16:51.075-04:00", "avatar": "https://secure.gravatar.com/avatar/34cf61b92d1f7f05b22cfd700ce44e1c.jpg?s=512&d=https%3A%2F%2Fa.slack-edge.com%2Fdf10d%2Fimg%2Favatars%2Fava_0020-512.png", "custom_css": null}, {"id": 1265, "slack_id": "U092BTVPYHW", "display_name": "Angus", "bio": null, "projects_count": 0, "devlogs_count": 0, "votes_count": 0, "ships_count": 0, "projects": [], "coding_time_seconds": 0, "coding_time_seconds_today": 0, "balance": "You need to have a pocket watcher badge to view this.", "badges": [], "created_at": "2025-06-16T12:57:54.534-04:00", "updated_at": "2025-07-03T19:16:51.344-04:00", "avatar": "https://avatars.slack-edge.com/2025-06-16/9050533362867_a26b7834b4cb29c4b302_original.jpg", "custom_css": null}, {"id": 1266, "slack_id": "U07958LE5S4", "display_name": "EXELVI", "bio": null, "projects_count": 1, "devlogs_count": 4, "votes_count": 0, "ships_count": 0, "projects": [{"id": 4671, "title": "Site Update", "devlogs_count": 4, "created_at": "2025-07-01T03:21:20.419-04:00"}], "coding_time_seconds": 189203, "coding_time_seconds_today": 586, "balance": "You need to have a pocket watcher badge to view this.", "badges": [], "created_at": "2025-06-16T12:57:57.102-04:00", "updated_at": "2025-08-21T06:38:49.402-04:00", "avatar": "https://secure.gravatar.com/avatar/1ffee063e9dcb28936ba4bc71ce09834.jpg?s=512&d=https%3A%2F%2Fa.slack-edge.com%2Fdf10d%2Fimg%2Favatars%2Fava_0019-512.png", "custom_css": null}, {"id": 1267, "slack_id": "U092BU1041E", "display_name": "Leon Janz", "bio": null, "projects_count": 1, "devlogs_count": 2, "votes_count": 0, "ships_count": 0, "projects": [{"id": 1059, "title": "The Gear Age - Website", "devlogs_count": 2, "created_at": "2025-06-17T15:00:28.584-04:00"}], "coding_time_seconds": 244327, "coding_time_seconds_today": 0, "balance": "You need to have a pocket watcher badge to view this.", "badges": [], "created_at": "2025-06-16T12:58:03.156-04:00", "updated_at": "2025-07-09T15:46:34.064-04:00", "avatar": "https://secure.gravatar.com/avatar/3fffff885ecf5b6326d50f2ab0102a19.jpg?s=512&d=https%3A%2F%2Fa.slack-edge.com%2Fdf10d%2Fimg%2Favatars%2Fava_0025-512.png", "custom_css": null}, {"id": 1268, "slack_id": "U091MKWLEKF", "display_name": "Ringkhang BTY", "bio": null, "projects_count": 2, "devlogs_count": 2, "votes_count": 15, "ships_count": 1, "projects": [{"id": 145, "title": "QuizMind", "devlogs_count": 1, "created_at": "2025-06-16T14:27:20.194-04:00"}, {"id": 13566, "title": "QuizMindWeb", "devlogs_count": 1, "created_at": "2025-09-19T16:25:57.537-04:00"}], "coding_time_seconds": 312411, "coding_time_seconds_today": 0, "balance": "You need to have a pocket watcher badge to view this.", "badges": [{"name": "Maiden Voyage", "text": "you shipped your first project! the journey begins...", "icon": "\ud83d\udea2"}], "created_at": "2025-06-16T12:58:05.565-04:00", "updated_at": "2025-09-10T22:51:46.994-04:00", "avatar": "https://avatars.slack-edge.com/2025-06-16/9070167944625_2e0e53445d15da5bc842_original.jpg", "custom_css": null}, {"id": 1269, "slack_id": "U091FUDJSAJ", "display_name": "Laxman Choudhary", "bio": null, "projects_count": 0, "devlogs_count": 0, "votes_count": 0, "ships_count": 0, "projects": [], "coding_time_seconds": 0, "coding_time_seconds_today": 0, "balance": "You need to have a pocket watcher badge to view this.", "badges": [], "created_at": "2025-06-16T12:58:11.428-04:00", "updated_at": "2025-07-03T19:16:52.437-04:00", "avatar": "https://secure.gravatar.com/avatar/7e29ca1310d45c1173fbaa14ea4dad8e.jpg?s=512&d=https%3A%2F%2Fa.slack-edge.com%2Fdf10d%2Fimg%2Favatars%2Fava_0024-512.png", "custom_css": null}, {"id": 1270, "slack_id": "U091PS39JH2", "display_name": "efesn", "bio": null, "projects_count": 0, "devlogs_count": 0, "votes_count": 0, "ships_count": 0, "projects": [], "coding_time_seconds": 0, "coding_time_seconds_today": 0, "balance": "You need to have a pocket watcher badge to view this.", "badges": [], "created_at": "2025-06-16T12:58:11.482-04:00", "updated_at": "2025-07-03T19:16:52.806-04:00", "avatar": "https://secure.gravatar.com/avatar/76d923cc84d62acdfa5a4f9f69de7625.jpg?s=512&d=https%3A%2F%2Fa.slack-edge.com%2Fdf10d%2Fimg%2Favatars%2Fava_0013-512.png", "custom_css": null}, {"id": 1271, "slack_id": "U07BU2HS17Z", "display_name": "Felix Gao", "bio": null, "projects_count": 0, "devlogs_count": 0, "votes_count": 0, "ships_count": 0, "projects": [], "coding_time_seconds": 78018, "coding_time_seconds_today": 0, "balance": "You need to have a pocket watcher badge to view this.", "badges": [], "created_at": "2025-06-16T12:58:16.918-04:00", "updated_at": "2025-08-18T18:50:47.722-04:00", "avatar": "https://avatars.slack-edge.com/2025-04-12/8738899206854_089c45fd1600a0673363_original.png", "custom_css": null}, {"id": 1272, "slack_id": "U091853M36K", "display_name": "Luccin Masirika", "bio": null, "projects_count": 0, "devlogs_count": 0, "votes_count": 0, "ships_count": 0, "projects": [], "coding_time_seconds": 0, "coding_time_seconds_today": 0, "balance": "You need to have a pocket watcher badge to view this.", "badges": [], "created_at": "2025-06-16T12:58:21.532-04:00", "updated_at": "2025-07-03T19:16:53.347-04:00", "avatar": "https://secure.gravatar.com/avatar/28419844b42e9f665b18a1ba7a23e565.jpg?s=512&d=https%3A%2F%2Fa.slack-edge.com%2Fdf10d%2Fimg%2Favatars%2Fava_0022-512.png", "custom_css": null}, {"id": 1273, "slack_id": "U091PSK9RB6", "display_name": "Prince Kumar Gupta 1BI22CS118", "bio": null, "projects_count": 1, "devlogs_count": 0, "votes_count": 0, "ships_count": 0, "projects": [{"id": 127, "title": "CleanSlate", "devlogs_count": 0, "created_at": "2025-06-16T14:10:32.829-04:00"}], "coding_time_seconds": 22587, "coding_time_seconds_today": 0, "balance": "You need to have a pocket watcher badge to view this.", "badges": [], "created_at": "2025-06-16T12:58:23.260-04:00", "updated_at": "2025-07-03T19:16:53.618-04:00", "avatar": "https://avatars.slack-edge.com/2025-06-16/9050536033667_04818b74f64c34d5f6a1_original.png", "custom_css": null}, {"id": 1274, "slack_id": "U091GJ3V1K8", "display_name": "Maksym Bardakh", "bio": null, "projects_count": 0, "devlogs_count": 0, "votes_count": 0, "ships_count": 0, "projects": [], "coding_time_seconds": 386739, "coding_time_seconds_today": 0, "balance": "You need to have a pocket watcher badge to view this.", "badges": [], "created_at": "2025-06-16T12:58:26.050-04:00", "updated_at": "2025-07-03T19:16:53.900-04:00", "avatar": "https://avatars.slack-edge.com/2025-06-16/9079971393056_74e188b5540c78c53bdc_original.png", "custom_css": null}, {"id": 1275, "slack_id": "U091856MCCX", "display_name": "Mayx", "bio": null, "projects_count": 0, "devlogs_count": 0, "votes_count": 0, "ships_count": 0, "projects": [], "coding_time_seconds": 0, "coding_time_seconds_today": 0, "balance": "You need to have a pocket watcher badge to view this.", "badges": [], "created_at": "2025-06-16T12:58:33.846-04:00", "updated_at": "2025-07-03T19:16:54.167-04:00", "avatar": "https://secure.gravatar.com/avatar/3b8794c611ec44a9ac2ccaa706950d72.jpg?s=512&d=https%3A%2F%2Fa.slack-edge.com%2Fdf10d%2Fimg%2Favatars%2Fava_0004-512.png", "custom_css": null}, {"id": 1276, "slack_id": "U091PSNQ8DS", "display_name": "Karthik Raghuram", "bio": null, "projects_count": 0, "devlogs_count": 0, "votes_count": 0, "ships_count": 0, "projects": [], "coding_time_seconds": 0, "coding_time_seconds_today": 0, "balance": "You need to have a pocket watcher badge to view this.", "badges": [], "created_at": "2025-06-16T12:58:34.925-04:00", "updated_at": "2025-07-03T19:16:54.433-04:00", "avatar": "https://avatars.slack-edge.com/2025-06-16/9079971422256_a2f4d2b94ee439648bab_original.png", "custom_css": null}, {"id": 1277, "slack_id": "U091MLQ1T3P", "display_name": "Vincent Lu", "bio": null, "projects_count": 0, "devlogs_count": 0, "votes_count": 0, "ships_count": 0, "projects": [], "coding_time_seconds": 0, "coding_time_seconds_today": 0, "balance": "You need to have a pocket watcher badge to view this.", "badges": [], "created_at": "2025-06-16T12:58:38.596-04:00", "updated_at": "2025-07-03T19:16:54.708-04:00", "avatar": "https://avatars.slack-edge.com/2025-06-16/9057916841044_7f28119f313280efd4f3_original.jpg", "custom_css": null}, {"id": 1278, "slack_id": "U0918500NS3", "display_name": "vlad", "bio": null, "projects_count": 0, "devlogs_count": 0, "votes_count": 0, "ships_count": 0, "projects": [], "coding_time_seconds": 3034, "coding_time_seconds_today": 0, "balance": "You need to have a pocket watcher badge to view this.", "badges": [], "created_at": "2025-06-16T12:58:55.764-04:00", "updated_at": "2025-07-03T19:16:54.968-04:00", "avatar": "https://secure.gravatar.com/avatar/472af589fcb9d75c35bbe9fb05306c80.jpg?s=512&d=https%3A%2F%2Fa.slack-edge.com%2Fdf10d%2Fimg%2Favatars%2Fava_0018-512.png", "custom_css": null}, {"id": 1279, "slack_id": "U09185BN9HV", "display_name": "Ordinary0x", "bio": null, "projects_count": 0, "devlogs_count": 0, "votes_count": 0, "ships_count": 0, "projects": [], "coding_time_seconds": 8871, "coding_time_seconds_today": 0, "balance": "You need to have a pocket watcher badge to view this.", "badges": [], "created_at": "2025-06-16T12:58:59.626-04:00", "updated_at": "2025-07-07T15:16:12.612-04:00", "avatar": "https://secure.gravatar.com/avatar/af73297eb84fba2e7c2eb5124b201aa7.jpg?s=512&d=https%3A%2F%2Fa.slack-edge.com%2Fdf10d%2Fimg%2Favatars%2Fava_0014-512.png", "custom_css": null}, {"id": 1280, "slack_id": "U092BU4M9B2", "display_name": "Wael", "bio": null, "projects_count": 0, "devlogs_count": 0, "votes_count": 0, "ships_count": 0, "projects": [], "coding_time_seconds": 0, "coding_time_seconds_today": 0, "balance": "You need to have a pocket watcher badge to view this.", "badges": [], "created_at": "2025-06-16T12:59:11.141-04:00", "updated_at": "2025-07-03T19:16:55.507-04:00", "avatar": "https://secure.gravatar.com/avatar/214b7dd0d20c57a29d7e3acadd348a5b.jpg?s=512&d=https%3A%2F%2Fa.slack-edge.com%2Fdf10d%2Fimg%2Favatars%2Fava_0019-512.png", "custom_css": null}], "pagination": {"page": 64, "pages": 1192, "count": 23827, "items": 20}}