{"users": [{"id": 12801, "slack_id": "U0944HUMKS4", "display_name": "Greyson", "bio": null, "projects_count": 0, "devlogs_count": 0, "votes_count": 0, "ships_count": 0, "projects": [], "coding_time_seconds": 2515, "coding_time_seconds_today": 0, "balance": "You need to have a pocket watcher badge to view this.", "badges": [], "created_at": "2025-06-27T23:45:24.685-04:00", "updated_at": "2025-07-03T20:05:18.264-04:00", "avatar": "https://secure.gravatar.com/avatar/847cb91272c2c2f2282553ff5e298751.jpg?s=512&d=https%3A%2F%2Fa.slack-edge.com%2Fdf10d%2Fimg%2Favatars%2Fava_0001-512.png", "custom_css": null}, {"id": 12802, "slack_id": "U0932CQBLUF", "display_name": "SABARISH CSE2023", "bio": null, "projects_count": 0, "devlogs_count": 0, "votes_count": 0, "ships_count": 0, "projects": [], "coding_time_seconds": 0, "coding_time_seconds_today": 0, "balance": "You need to have a pocket watcher badge to view this.", "badges": [], "created_at": "2025-06-27T23:53:37.031-04:00", "updated_at": "2025-07-03T20:05:18.542-04:00", "avatar": "https://avatars.slack-edge.com/2025-06-27/9104441392023_0807027c48aef78dbcb5_original.jpg", "custom_css": null}, {"id": 12803, "slack_id": "U09221PEW07", "display_name": "Mika Chang", "bio": null, "projects_count": 0, "devlogs_count": 0, "votes_count": 0, "ships_count": 0, "projects": [], "coding_time_seconds": 0, "coding_time_seconds_today": 0, "balance": "You need to have a pocket watcher badge to view this.", "badges": [], "created_at": "2025-06-27T23:54:25.673-04:00", "updated_at": "2025-07-03T20:05:18.813-04:00", "avatar": "https://avatars.slack-edge.com/2025-06-27/9132047723057_ae93885ee5736c99d121_original.jpg", "custom_css": null}, {"id": 12804, "slack_id": "U093AU7BKK8", "display_name": "Waffle 6056", "bio": null, "projects_count": 0, "devlogs_count": 0, "votes_count": 0, "ships_count": 0, "projects": [], "coding_time_seconds": 0, "coding_time_seconds_today": 0, "balance": "You need to have a pocket watcher badge to view this.", "badges": [], "created_at": "2025-06-28T00:07:24.636-04:00", "updated_at": "2025-09-10T23:04:38.208-04:00", "avatar": "https://avatars.slack-edge.com/2025-06-27/9118743337330_d1398a3acbac2e257045_original.png", "custom_css": null}, {"id": 12805, "slack_id": "U0932DVAAKZ", "display_name": "Mr_Enderkid", "bio": null, "projects_count": 1, "devlogs_count": 3, "votes_count": 2, "ships_count": 1, "projects": [{"id": 4215, "title": "Cave Cruncher", "devlogs_count": 3, "created_at": "2025-06-28T08:34:16.111-04:00"}], "coding_time_seconds": 93832, "coding_time_seconds_today": 0, "balance": "You need to have a pocket watcher badge to view this.", "badges": [{"name": "Maiden Voyage", "text": "you shipped your first project! the journey begins...", "icon": "\ud83d\udea2"}], "created_at": "2025-06-28T00:22:31.921-04:00", "updated_at": "2025-09-21T01:50:52.706-04:00", "avatar": "https://avatars.slack-edge.com/2025-06-29/9134396043841_711c08e0f46913391c15_original.png", "custom_css": null}, {"id": 12806, "slack_id": "U093GN7PGNN", "display_name": "Hao Xie", "bio": null, "projects_count": 0, "devlogs_count": 0, "votes_count": 0, "ships_count": 0, "projects": [], "coding_time_seconds": 0, "coding_time_seconds_today": 0, "balance": "You need to have a pocket watcher badge to view this.", "badges": [], "created_at": "2025-06-28T00:24:20.258-04:00", "updated_at": "2025-07-03T20:05:19.598-04:00", "avatar": "https://avatars.slack-edge.com/2025-06-27/9118765026482_f6350193bf0186f44d0a_original.png", "custom_css": null}, {"id": 12807, "slack_id": "U093HKR13N0", "display_name": "Tsundoiii", "bio": null, "projects_count": 1, "devlogs_count": 3, "votes_count": 8, "ships_count": 1, "projects": [{"id": 9210, "title": "Psil", "devlogs_count": 3, "created_at": "2025-07-31T01:51:37.989-04:00"}], "coding_time_seconds": 68058, "coding_time_seconds_today": 0, "balance": "You need to have a pocket watcher badge to view this.", "badges": [{"name": "Maiden Voyage", "text": "you shipped your first project! the journey begins...", "icon": "\ud83d\udea2"}], "created_at": "2025-06-28T00:25:40.309-04:00", "updated_at": "2025-09-10T22:57:34.793-04:00", "avatar": "https://secure.gravatar.com/avatar/efb838cfc29058f8534f1a1d502f42ba.jpg?s=512&d=https%3A%2F%2Fa.slack-edge.com%2Fdf10d%2Fimg%2Favatars%2Fava_0002-512.png", "custom_css": null}, {"id": 12808, "slack_id": "U093GNVHLKU", "display_name": "Vishvjeet Singh Tanwar", "bio": null, "projects_count": 0, "devlogs_count": 0, "votes_count": 0, "ships_count": 0, "projects": [], "coding_time_seconds": 0, "coding_time_seconds_today": 0, "balance": "You need to have a pocket watcher badge to view this.", "badges": [], "created_at": "2025-06-28T00:39:03.815-04:00", "updated_at": "2025-07-03T20:05:19.995-04:00", "avatar": "https://secure.gravatar.com/avatar/b7a097df5158e720b745283e88dee91d.jpg?s=512&d=https%3A%2F%2Fa.slack-edge.com%2Fdf10d%2Fimg%2Favatars%2Fava_0003-512.png", "custom_css": null}, {"id": 12809, "slack_id": "U093HN6H71S", "display_name": "Aditya Asthana", "bio": null, "projects_count": 0, "devlogs_count": 0, "votes_count": 0, "ships_count": 0, "projects": [], "coding_time_seconds": 0, "coding_time_seconds_today": 0, "balance": "You need to have a pocket watcher badge to view this.", "badges": [], "created_at": "2025-06-28T01:17:15.835-04:00", "updated_at": "2025-07-07T12:55:24.217-04:00", "avatar": "https://secure.gravatar.com/avatar/dbaef3b3c3b172dd90439cff3230dcfd.jpg?s=512&d=https%3A%2F%2Fa.slack-edge.com%2Fdf10d%2Fimg%2Favatars%2Fava_0024-512.png", "custom_css": null}, {"id": 12810, "slack_id": "U093B2GRYEA", "display_name": "Shivansh", "bio": null, "projects_count": 0, "devlogs_count": 0, "votes_count": 0, "ships_count": 0, "projects": [], "coding_time_seconds": 0, "coding_time_seconds_today": 0, "balance": "You need to have a pocket watcher badge to view this.", "badges": [], "created_at": "2025-06-28T01:34:08.019-04:00", "updated_at": "2025-07-04T08:29:17.565-04:00", "avatar": "https://secure.gravatar.com/avatar/c7ce6201e887a4e0cbd4dbeb3657a0e1.jpg?s=512&d=https%3A%2F%2Fa.slack-edge.com%2Fdf10d%2Fimg%2Favatars%2Fava_0018-512.png", "custom_css": null}, {"id": 12811, "slack_id": "U0944N66F96", "display_name": "Raghav Sinha", "bio": null, "projects_count": 0, "devlogs_count": 0, "votes_count": 0, "ships_count": 0, "projects": [], "coding_time_seconds": 0, "coding_time_seconds_today": 0, "balance": "You need to have a pocket watcher badge to view this.", "badges": [], "created_at": "2025-06-28T01:34:27.769-04:00", "updated_at": "2025-07-03T20:05:20.649-04:00", "avatar": "https://secure.gravatar.com/avatar/685affe0bbbd991430dfbcfe07941428.jpg?s=512&d=https%3A%2F%2Fa.slack-edge.com%2Fdf10d%2Fimg%2Favatars%2Fava_0018-512.png", "custom_css": null}, {"id": 12812, "slack_id": "U093HP22ENQ", "display_name": "Pankaj", "bio": null, "projects_count": 1, "devlogs_count": 2, "votes_count": 1, "ships_count": 0, "projects": [{"id": 5474, "title": "FreshGuard", "devlogs_count": 2, "created_at": "2025-07-05T14:36:57.625-04:00"}], "coding_time_seconds": 223833, "coding_time_seconds_today": 0, "balance": "You need to have a pocket watcher badge to view this.", "badges": [], "created_at": "2025-06-28T01:39:46.709-04:00", "updated_at": "2025-07-05T14:06:10.165-04:00", "avatar": "https://avatars.slack-edge.com/2025-06-27/9132184590161_c434fee84655fcaadefe_original.png", "custom_css": null}, {"id": 12813, "slack_id": "U0932HNHK0X", "display_name": "Prawo jazdy", "bio": null, "projects_count": 0, "devlogs_count": 0, "votes_count": 0, "ships_count": 0, "projects": [], "coding_time_seconds": 9095, "coding_time_seconds_today": 0, "balance": "You need to have a pocket watcher badge to view this.", "badges": [], "created_at": "2025-06-28T01:57:51.317-04:00", "updated_at": "2025-07-04T20:13:39.089-04:00", "avatar": "https://secure.gravatar.com/avatar/f79b689eeb54daca175f6cde0f4f377e.jpg?s=512&d=https%3A%2F%2Fa.slack-edge.com%2Fdf10d%2Fimg%2Favatars%2Fava_0007-512.png", "custom_css": null}, {"id": 12814, "slack_id": "U093W65M34Z", "display_name": "E Thrinadh Chowdary", "bio": null, "projects_count": 0, "devlogs_count": 0, "votes_count": 0, "ships_count": 0, "projects": [], "coding_time_seconds": 0, "coding_time_seconds_today": 0, "balance": "You need to have a pocket watcher badge to view this.", "badges": [], "created_at": "2025-06-28T02:03:03.875-04:00", "updated_at": "2025-07-03T20:05:21.303-04:00", "avatar": "https://secure.gravatar.com/avatar/87ba0382087fe33be41b5a78b1794bee.jpg?s=512&d=https%3A%2F%2Fa.slack-edge.com%2Fdf10d%2Fimg%2Favatars%2Fava_0022-512.png", "custom_css": null}, {"id": 12815, "slack_id": "U0932J69S23", "display_name": "Ishan", "bio": null, "projects_count": 0, "devlogs_count": 0, "votes_count": 0, "ships_count": 0, "projects": [], "coding_time_seconds": 0, "coding_time_seconds_today": 0, "balance": "You need to have a pocket watcher badge to view this.", "badges": [], "created_at": "2025-06-28T02:07:12.319-04:00", "updated_at": "2025-07-04T20:13:39.232-04:00", "avatar": "https://secure.gravatar.com/avatar/2d8ce673593309072d5beb16586760cb.jpg?s=512&d=https%3A%2F%2Fa.slack-edge.com%2Fdf10d%2Fimg%2Favatars%2Fava_0025-512.png", "custom_css": null}, {"id": 12816, "slack_id": "U093ELC1SH3", "display_name": "Kanav Jindal", "bio": null, "projects_count": 0, "devlogs_count": 0, "votes_count": 3, "ships_count": 0, "projects": [], "coding_time_seconds": 189, "coding_time_seconds_today": 0, "balance": "You need to have a pocket watcher badge to view this.", "badges": [], "created_at": "2025-06-28T02:43:12.217-04:00", "updated_at": "2025-08-22T01:54:14.806-04:00", "avatar": "https://secure.gravatar.com/avatar/5ebdc36eec2e4e9d80d0455398ce5659.jpg?s=512&d=https%3A%2F%2Fa.slack-edge.com%2Fdf10d%2Fimg%2Favatars%2Fava_0020-512.png", "custom_css": null}, {"id": 12817, "slack_id": "U082US09WNQ", "display_name": "Safvan Rahman", "bio": null, "projects_count": 1, "devlogs_count": 1, "votes_count": 0, "ships_count": 0, "projects": [{"id": 4377, "title": "HACKCLUB.MY", "devlogs_count": 1, "created_at": "2025-06-29T12:32:13.420-04:00"}], "coding_time_seconds": 6225, "coding_time_seconds_today": 0, "balance": "You need to have a pocket watcher badge to view this.", "badges": [], "created_at": "2025-06-28T02:54:11.596-04:00", "updated_at": "2025-07-03T20:05:21.848-04:00", "avatar": "https://secure.gravatar.com/avatar/fbb510e82f5c55d4aeb26f6013703713.jpg?s=512&d=https%3A%2F%2Fa.slack-edge.com%2Fdf10d%2Fimg%2Favatars%2Fava_0001-512.png", "custom_css": null}, {"id": 12818, "slack_id": "U093GUD7D7U", "display_name": "taisei-EV3", "bio": null, "projects_count": 0, "devlogs_count": 0, "votes_count": 1, "ships_count": 0, "projects": [], "coding_time_seconds": 58823, "coding_time_seconds_today": 0, "balance": "You need to have a pocket watcher badge to view this.", "badges": [], "created_at": "2025-06-28T03:03:40.859-04:00", "updated_at": "2025-08-26T15:50:12.936-04:00", "avatar": "https://secure.gravatar.com/avatar/c743d9a83c0b15726febb748b8000e96.jpg?s=512&d=https%3A%2F%2Fa.slack-edge.com%2Fdf10d%2Fimg%2Favatars%2Fava_0004-512.png", "custom_css": null}, {"id": 12819, "slack_id": "U0939V7RKK5", "display_name": "Jagveer Suran", "bio": null, "projects_count": 0, "devlogs_count": 0, "votes_count": 0, "ships_count": 0, "projects": [], "coding_time_seconds": 0, "coding_time_seconds_today": 0, "balance": "You need to have a pocket watcher badge to view this.", "badges": [], "created_at": "2025-06-28T03:06:55.190-04:00", "updated_at": "2025-07-05T14:15:52.767-04:00", "avatar": "https://secure.gravatar.com/avatar/4e27d60b3344237f62afebd12e5482c4.jpg?s=512&d=https%3A%2F%2Fa.slack-edge.com%2Fdf10d%2Fimg%2Favatars%2Fava_0008-512.png", "custom_css": null}, {"id": 12820, "slack_id": "U093W8Y90HX", "display_name": "Renzo Mazzarello", "bio": null, "projects_count": 0, "devlogs_count": 0, "votes_count": 0, "ships_count": 0, "projects": [], "coding_time_seconds": 0, "coding_time_seconds_today": 0, "balance": "You need to have a pocket watcher badge to view this.", "badges": [], "created_at": "2025-06-28T03:18:55.981-04:00", "updated_at": "2025-07-04T15:25:09.907-04:00", "avatar": "https://secure.gravatar.com/avatar/fc614ed3ba2dd4dd0b575dbf99469ac2.jpg?s=512&d=https%3A%2F%2Fa.slack-edge.com%2Fdf10d%2Fimg%2Favatars%2Fava_0024-512.png", "custom_css": null}], "pagination": {"page": 641, "pages": 1192, "count": 23828, "items": 20}}