{"users": [{"id": 12821, "slack_id": "U093ENQGE8M", "display_name": "Lino Brendler", "bio": null, "projects_count": 0, "devlogs_count": 0, "votes_count": 0, "ships_count": 0, "projects": [], "coding_time_seconds": 9655, "coding_time_seconds_today": 0, "balance": "You need to have a pocket watcher badge to view this.", "badges": [], "created_at": "2025-06-28T03:41:30.408-04:00", "updated_at": "2025-09-07T01:49:19.411-04:00", "avatar": "https://secure.gravatar.com/avatar/8f0feaeba6eee30e1c914304401d16db.jpg?s=512&d=https%3A%2F%2Fa.slack-edge.com%2Fdf10d%2Fimg%2Favatars%2Fava_0014-512.png", "custom_css": null}, {"id": 12822, "slack_id": "U093GCST081", "display_name": "Bro", "bio": null, "projects_count": 0, "devlogs_count": 0, "votes_count": 0, "ships_count": 0, "projects": [], "coding_time_seconds": 0, "coding_time_seconds_today": 0, "balance": "You need to have a pocket watcher badge to view this.", "badges": [], "created_at": "2025-06-28T03:51:18.761-04:00", "updated_at": "2025-07-05T14:15:52.948-04:00", "avatar": "https://secure.gravatar.com/avatar/54773433501be999acef45f8703a4a0f.jpg?s=512&d=https%3A%2F%2Fa.slack-edge.com%2Fdf10d%2Fimg%2Favatars%2Fava_0003-512.png", "custom_css": null}, {"id": 12823, "slack_id": "U093H1TU1S6", "display_name": "Rahul Bhai", "bio": null, "projects_count": 0, "devlogs_count": 0, "votes_count": 0, "ships_count": 0, "projects": [], "coding_time_seconds": 0, "coding_time_seconds_today": 0, "balance": "You need to have a pocket watcher badge to view this.", "badges": [], "created_at": "2025-06-28T04:16:01.504-04:00", "updated_at": "2025-07-03T20:05:23.063-04:00", "avatar": "https://avatars.slack-edge.com/2025-06-28/9119069036754_4a7a830793ea6a39779e_original.jpg", "custom_css": null}, {"id": 12824, "slack_id": "U093757LBTM", "display_name": "Nguyen Hong Son", "bio": null, "projects_count": 0, "devlogs_count": 0, "votes_count": 0, "ships_count": 0, "projects": [], "coding_time_seconds": 0, "coding_time_seconds_today": 0, "balance": "You need to have a pocket watcher badge to view this.", "badges": [], "created_at": "2025-06-28T04:16:16.733-04:00", "updated_at": "2025-07-03T22:03:43.274-04:00", "avatar": "https://secure.gravatar.com/avatar/e2286b8b3621897aa1fbec39710a3084.jpg?s=512&d=https%3A%2F%2Fa.slack-edge.com%2Fdf10d%2Fimg%2Favatars%2Fava_0010-512.png", "custom_css": null}, {"id": 12825, "slack_id": "U093A4MJ32P", "display_name": "Ph\u1ea1m Tu\u1ea5n Anh", "bio": null, "projects_count": 0, "devlogs_count": 0, "votes_count": 0, "ships_count": 0, "projects": [], "coding_time_seconds": 0, "coding_time_seconds_today": 0, "balance": "You need to have a pocket watcher badge to view this.", "badges": [], "created_at": "2025-06-28T05:03:15.515-04:00", "updated_at": "2025-07-03T20:05:23.478-04:00", "avatar": "https://avatars.slack-edge.com/2025-06-29/9113640179587_494de21d1f20cdf63980_original.png", "custom_css": null}, {"id": 12826, "slack_id": "U093J2NPYH2", "display_name": "Yashwanth", "bio": null, "projects_count": 0, "devlogs_count": 0, "votes_count": 0, "ships_count": 0, "projects": [], "coding_time_seconds": 0, "coding_time_seconds_today": 0, "balance": "You need to have a pocket watcher badge to view this.", "badges": [], "created_at": "2025-06-28T05:14:52.711-04:00", "updated_at": "2025-07-05T02:14:16.488-04:00", "avatar": "https://secure.gravatar.com/avatar/952cafb469fd958f37f4022b0e4147d0.jpg?s=512&d=https%3A%2F%2Fa.slack-edge.com%2Fdf10d%2Fimg%2Favatars%2Fava_0017-512.png", "custom_css": null}, {"id": 12827, "slack_id": "U093WD2SDKK", "display_name": "om", "bio": null, "projects_count": 0, "devlogs_count": 0, "votes_count": 0, "ships_count": 0, "projects": [], "coding_time_seconds": 0, "coding_time_seconds_today": 0, "balance": "You need to have a pocket watcher badge to view this.", "badges": [], "created_at": "2025-06-28T05:21:06.207-04:00", "updated_at": "2025-07-05T08:14:37.296-04:00", "avatar": "https://secure.gravatar.com/avatar/e7eeed9cfe21bf03f86acc031bd0bd73.jpg?s=512&d=https%3A%2F%2Fa.slack-edge.com%2Fdf10d%2Fimg%2Favatars%2Fava_0023-512.png", "custom_css": null}, {"id": 12828, "slack_id": "U093WDQ583B", "display_name": "Azwad F Hasan", "bio": null, "projects_count": 0, "devlogs_count": 0, "votes_count": 0, "ships_count": 0, "projects": [], "coding_time_seconds": 0, "coding_time_seconds_today": 0, "balance": "You need to have a pocket watcher badge to view this.", "badges": [], "created_at": "2025-06-28T05:29:25.021-04:00", "updated_at": "2025-07-03T20:05:24.034-04:00", "avatar": "https://secure.gravatar.com/avatar/a4212ae4975a0610f9044dc83d6522f2.jpg?s=512&d=https%3A%2F%2Fa.slack-edge.com%2Fdf10d%2Fimg%2Favatars%2Fava_0021-512.png", "custom_css": null}, {"id": 12829, "slack_id": "U093BE3AVHU", "display_name": "Blaze", "bio": null, "projects_count": 0, "devlogs_count": 0, "votes_count": 0, "ships_count": 0, "projects": [], "coding_time_seconds": 0, "coding_time_seconds_today": 0, "balance": "You need to have a pocket watcher badge to view this.", "badges": [], "created_at": "2025-06-28T06:00:00.286-04:00", "updated_at": "2025-07-03T20:05:24.298-04:00", "avatar": "https://secure.gravatar.com/avatar/fd5758a604aa5e4224e1146d3d7f228a.jpg?s=512&d=https%3A%2F%2Fa.slack-edge.com%2Fdf10d%2Fimg%2Favatars%2Fava_0003-512.png", "custom_css": null}, {"id": 12830, "slack_id": "U093A7CBGV9", "display_name": "Hoang Nguyen", "bio": null, "projects_count": 0, "devlogs_count": 0, "votes_count": 0, "ships_count": 0, "projects": [], "coding_time_seconds": 0, "coding_time_seconds_today": 0, "balance": "You need to have a pocket watcher badge to view this.", "badges": [], "created_at": "2025-06-28T06:10:44.119-04:00", "updated_at": "2025-07-04T08:29:18.841-04:00", "avatar": "https://secure.gravatar.com/avatar/729c887a210dff876c1bbc9258ba5bec.jpg?s=512&d=https%3A%2F%2Fa.slack-edge.com%2Fdf10d%2Fimg%2Favatars%2Fava_0008-512.png", "custom_css": null}, {"id": 12831, "slack_id": "U093A7K0KEF", "display_name": "Fateh Mudassar", "bio": null, "projects_count": 0, "devlogs_count": 0, "votes_count": 0, "ships_count": 0, "projects": [], "coding_time_seconds": 0, "coding_time_seconds_today": 0, "balance": "You need to have a pocket watcher badge to view this.", "badges": [], "created_at": "2025-06-28T06:17:06.887-04:00", "updated_at": "2025-07-05T08:14:37.542-04:00", "avatar": "https://secure.gravatar.com/avatar/54380ac33c885fb181188a69784b6676.jpg?s=512&d=https%3A%2F%2Fa.slack-edge.com%2Fdf10d%2Fimg%2Favatars%2Fava_0024-512.png", "custom_css": null}, {"id": 12832, "slack_id": "U08F95SST0V", "display_name": "okcoder1", "bio": null, "projects_count": 4, "devlogs_count": 12, "votes_count": 45, "ships_count": 3, "projects": [{"id": 5384, "title": "okbot1", "devlogs_count": 2, "created_at": "2025-07-05T01:04:08.599-04:00"}, {"id": 8227, "title": "Portfolio Website", "devlogs_count": 7, "created_at": "2025-07-25T11:53:26.373-04:00"}, {"id": 13712, "title": "web_block", "devlogs_count": 0, "created_at": "2025-09-23T13:17:11.224-04:00"}, {"id": 5464, "title": "Matrix Blocks", "devlogs_count": 3, "created_at": "2025-07-05T13:15:53.431-04:00"}], "coding_time_seconds": 90688, "coding_time_seconds_today": 0, "balance": "You need to have a pocket watcher badge to view this.", "badges": [{"name": "Maiden Voyage", "text": "you shipped your first project! the journey begins...", "icon": "\ud83d\udea2"}], "created_at": "2025-06-28T06:27:49.084-04:00", "updated_at": "2025-09-10T22:57:35.410-04:00", "avatar": "https://avatars.slack-edge.com/2025-02-27/8507044893335_74862d0da0e878f71326_original.png", "custom_css": null}, {"id": 12833, "slack_id": "U093A7M9W0K", "display_name": "Mohammed Fadi", "bio": null, "projects_count": 0, "devlogs_count": 0, "votes_count": 0, "ships_count": 0, "projects": [], "coding_time_seconds": 0, "coding_time_seconds_today": 0, "balance": "You need to have a pocket watcher badge to view this.", "badges": [], "created_at": "2025-06-28T06:33:26.414-04:00", "updated_at": "2025-07-04T02:33:01.395-04:00", "avatar": "https://secure.gravatar.com/avatar/ee6b51264a297d7bf2bb3675d938d8ce.jpg?s=512&d=https%3A%2F%2Fa.slack-edge.com%2Fdf10d%2Fimg%2Favatars%2Fava_0004-512.png", "custom_css": null}, {"id": 12834, "slack_id": "U093A83BA67", "display_name": "Abhishek Singh", "bio": null, "projects_count": 0, "devlogs_count": 0, "votes_count": 0, "ships_count": 0, "projects": [], "coding_time_seconds": 0, "coding_time_seconds_today": 0, "balance": "You need to have a pocket watcher badge to view this.", "badges": [], "created_at": "2025-06-28T06:33:34.300-04:00", "updated_at": "2025-07-06T02:15:47.594-04:00", "avatar": "https://secure.gravatar.com/avatar/b10b93c246a9c17f5630fadf49fbbaad.jpg?s=512&d=https%3A%2F%2Fa.slack-edge.com%2Fdf10d%2Fimg%2Favatars%2Fava_0001-512.png", "custom_css": null}, {"id": 12835, "slack_id": "U093H76NW7L", "display_name": "burger", "bio": null, "projects_count": 0, "devlogs_count": 0, "votes_count": 2, "ships_count": 0, "projects": [], "coding_time_seconds": 121367, "coding_time_seconds_today": 0, "balance": "You need to have a pocket watcher badge to view this.", "badges": [], "created_at": "2025-06-28T06:38:57.461-04:00", "updated_at": "2025-07-24T06:43:33.759-04:00", "avatar": "https://secure.gravatar.com/avatar/2d93b2932d301d3ceab6fdd1fbf52620.jpg?s=512&d=https%3A%2F%2Fa.slack-edge.com%2Fdf10d%2Fimg%2Favatars%2Fava_0010-512.png", "custom_css": null}, {"id": 12836, "slack_id": "U093F1ECBFX", "display_name": "KxB", "bio": null, "projects_count": 0, "devlogs_count": 0, "votes_count": 0, "ships_count": 0, "projects": [], "coding_time_seconds": 0, "coding_time_seconds_today": 0, "balance": "You need to have a pocket watcher badge to view this.", "badges": [], "created_at": "2025-06-28T06:43:20.190-04:00", "updated_at": "2025-07-05T14:15:53.749-04:00", "avatar": "https://avatars.slack-edge.com/2025-06-28/9119258466258_82c1d2ed61c1439289d2_original.jpg", "custom_css": null}, {"id": 12837, "slack_id": "U07D53W8L6R", "display_name": "Dimitris", "bio": null, "projects_count": 0, "devlogs_count": 0, "votes_count": 0, "ships_count": 0, "projects": [], "coding_time_seconds": 720, "coding_time_seconds_today": 0, "balance": "You need to have a pocket watcher badge to view this.", "badges": [], "created_at": "2025-06-28T06:51:53.663-04:00", "updated_at": "2025-08-12T13:26:14.480-04:00", "avatar": "https://avatars.slack-edge.com/2025-05-31/8992728138001_0b0e29e2d80d76ddd5fa_original.png", "custom_css": null}, {"id": 12838, "slack_id": "U093WG12R41", "display_name": "Manuela.Aki", "bio": null, "projects_count": 0, "devlogs_count": 0, "votes_count": 0, "ships_count": 0, "projects": [], "coding_time_seconds": 0, "coding_time_seconds_today": 0, "balance": "You need to have a pocket watcher badge to view this.", "badges": [], "created_at": "2025-06-28T07:04:45.129-04:00", "updated_at": "2025-07-03T20:05:25.899-04:00", "avatar": "https://secure.gravatar.com/avatar/70d24d04c0797fae3ae77d8faf425fc1.jpg?s=512&d=https%3A%2F%2Fa.slack-edge.com%2Fdf10d%2Fimg%2Favatars%2Fava_0014-512.png", "custom_css": null}, {"id": 12839, "slack_id": "U09330J144F", "display_name": "YASH", "bio": null, "projects_count": 0, "devlogs_count": 0, "votes_count": 0, "ships_count": 0, "projects": [], "coding_time_seconds": 0, "coding_time_seconds_today": 0, "balance": "You need to have a pocket watcher badge to view this.", "badges": [], "created_at": "2025-06-28T07:11:12.343-04:00", "updated_at": "2025-07-03T20:05:26.173-04:00", "avatar": "https://secure.gravatar.com/avatar/d986e9161c676a595f7638589ce1b71d.jpg?s=512&d=https%3A%2F%2Fa.slack-edge.com%2Fdf10d%2Fimg%2Favatars%2Fava_0000-512.png", "custom_css": null}, {"id": 12840, "slack_id": "U093WH6S0JD", "display_name": "LT", "bio": null, "projects_count": 0, "devlogs_count": 0, "votes_count": 0, "ships_count": 0, "projects": [], "coding_time_seconds": 0, "coding_time_seconds_today": 0, "balance": "You need to have a pocket watcher badge to view this.", "badges": [], "created_at": "2025-06-28T07:16:37.233-04:00", "updated_at": "2025-07-04T02:33:02.005-04:00", "avatar": "https://secure.gravatar.com/avatar/839f8ea72290e58cd2f356522b21c313.jpg?s=512&d=https%3A%2F%2Fa.slack-edge.com%2Fdf10d%2Fimg%2Favatars%2Fava_0024-512.png", "custom_css": null}], "pagination": {"page": 642, "pages": 1192, "count": 23828, "items": 20}}