{"users": [{"id": 12841, "slack_id": "U08U0AQLHDY", "display_name": "Isha Saleem", "bio": "", "projects_count": 7, "devlogs_count": 14, "votes_count": 31, "ships_count": 4, "projects": [{"id": 6212, "title": "Intelligent Tic-Tac-Toe", "devlogs_count": 1, "created_at": "2025-07-11T11:08:48.854-04:00"}, {"id": 7381, "title": "Mind Math Match", "devlogs_count": 0, "created_at": "2025-07-21T12:47:43.102-04:00"}, {"id": 7388, "title": "Squares Game", "devlogs_count": 0, "created_at": "2025-07-21T13:44:15.184-04:00"}, {"id": 12559, "title": "Classic Sudoku", "devlogs_count": 1, "created_at": "2025-08-29T15:31:41.018-04:00"}, {"id": 7121, "title": "Snake-Game", "devlogs_count": 1, "created_at": "2025-07-19T07:58:58.340-04:00"}, {"id": 5800, "title": "ARCADE HUB", "devlogs_count": 7, "created_at": "2025-07-08T05:33:03.186-04:00"}, {"id": 6821, "title": "Hangman", "devlogs_count": 1, "created_at": "2025-07-16T15:32:26.611-04:00"}], "coding_time_seconds": 90168, "coding_time_seconds_today": 0, "balance": "You need to have a pocket watcher badge to view this.", "badges": [{"name": "Maiden Voyage", "text": "you shipped your first project! the journey begins...", "icon": "\ud83d\udea2"}], "created_at": "2025-06-28T07:22:19.055-04:00", "updated_at": "2025-09-10T22:57:35.643-04:00", "avatar": "https://avatars.slack-edge.com/2025-06-28/9132676014753_569ee9e3f158261a7f5b_original.jpg", "custom_css": null}, {"id": 12842, "slack_id": "U08NCS5L9FG", "display_name": "Nick Redleaf", "bio": null, "projects_count": 0, "devlogs_count": 0, "votes_count": 0, "ships_count": 0, "projects": [], "coding_time_seconds": 0, "coding_time_seconds_today": 0, "balance": "You need to have a pocket watcher badge to view this.", "badges": [], "created_at": "2025-06-28T07:37:28.535-04:00", "updated_at": "2025-07-03T20:05:26.890-04:00", "avatar": "https://secure.gravatar.com/avatar/a0360e50d3fc4b842249db0797a74430.jpg?s=512&d=https%3A%2F%2Fa.slack-edge.com%2Fdf10d%2Fimg%2Favatars%2Fava_0000-512.png", "custom_css": null}, {"id": 12843, "slack_id": "U093AAZBH8B", "display_name": "Muhammad Mash Hood", "bio": null, "projects_count": 0, "devlogs_count": 0, "votes_count": 0, "ships_count": 0, "projects": [], "coding_time_seconds": 0, "coding_time_seconds_today": 0, "balance": "You need to have a pocket watcher badge to view this.", "badges": [], "created_at": "2025-06-28T07:47:56.916-04:00", "updated_at": "2025-07-03T20:05:27.168-04:00", "avatar": "https://secure.gravatar.com/avatar/f760746ebb05b278b886c8cf8b8cb683.jpg?s=512&d=https%3A%2F%2Fa.slack-edge.com%2Fdf10d%2Fimg%2Favatars%2Fava_0026-512.png", "custom_css": null}, {"id": 12844, "slack_id": "U093HA523DY", "display_name": "Khushi Shah", "bio": null, "projects_count": 0, "devlogs_count": 0, "votes_count": 0, "ships_count": 0, "projects": [], "coding_time_seconds": 0, "coding_time_seconds_today": 0, "balance": "You need to have a pocket watcher badge to view this.", "badges": [], "created_at": "2025-06-28T08:01:08.774-04:00", "updated_at": "2025-07-05T14:15:54.224-04:00", "avatar": "https://secure.gravatar.com/avatar/d5d36c76e5b03d9bbe28922bb89c924d.jpg?s=512&d=https%3A%2F%2Fa.slack-edge.com%2Fdf10d%2Fimg%2Favatars%2Fava_0005-512.png", "custom_css": null}, {"id": 12845, "slack_id": "U093B5V5412", "display_name": "Nehir Durusu", "bio": null, "projects_count": 0, "devlogs_count": 0, "votes_count": 0, "ships_count": 0, "projects": [], "coding_time_seconds": 0, "coding_time_seconds_today": 0, "balance": "You need to have a pocket watcher badge to view this.", "badges": [], "created_at": "2025-06-28T08:23:39.318-04:00", "updated_at": "2025-07-03T20:05:27.570-04:00", "avatar": "https://avatars.slack-edge.com/2025-06-28/9117205634021_9fefb320fe1c8d1d0171_original.jpg", "custom_css": null}, {"id": 12846, "slack_id": "U092AN02T70", "display_name": "Yen Nguyen", "bio": null, "projects_count": 0, "devlogs_count": 0, "votes_count": 0, "ships_count": 0, "projects": [], "coding_time_seconds": 0, "coding_time_seconds_today": 0, "balance": "You need to have a pocket watcher badge to view this.", "badges": [], "created_at": "2025-06-28T08:28:50.316-04:00", "updated_at": "2025-07-03T20:05:27.840-04:00", "avatar": "https://avatars.slack-edge.com/2025-06-28/9120363276452_7f38fd32c2b024d642ab_original.jpg", "custom_css": null}, {"id": 12847, "slack_id": "U093HBANN3U", "display_name": "Shveta Sunkar", "bio": null, "projects_count": 0, "devlogs_count": 0, "votes_count": 0, "ships_count": 0, "projects": [], "coding_time_seconds": 0, "coding_time_seconds_today": 0, "balance": "You need to have a pocket watcher badge to view this.", "badges": [], "created_at": "2025-06-28T08:30:44.889-04:00", "updated_at": "2025-07-03T20:05:28.111-04:00", "avatar": "https://avatars.slack-edge.com/2025-06-28/9141335471808_d67d881469b17fea8c4d_original.jpg", "custom_css": null}, {"id": 12848, "slack_id": "U0879V7MBPX", "display_name": "DinoDrax", "bio": null, "projects_count": 0, "devlogs_count": 0, "votes_count": 0, "ships_count": 0, "projects": [], "coding_time_seconds": 0, "coding_time_seconds_today": 0, "balance": "You need to have a pocket watcher badge to view this.", "badges": [], "created_at": "2025-06-28T08:55:56.994-04:00", "updated_at": "2025-08-21T07:51:48.118-04:00", "avatar": "https://avatars.slack-edge.com/2025-01-05/8253355269924_56484e3e45a47a397a03_original.png", "custom_css": null}, {"id": 12849, "slack_id": "U09334ZATPZ", "display_name": "Intellektueller", "bio": null, "projects_count": 0, "devlogs_count": 0, "votes_count": 0, "ships_count": 0, "projects": [], "coding_time_seconds": 0, "coding_time_seconds_today": 0, "balance": "You need to have a pocket watcher badge to view this.", "badges": [], "created_at": "2025-06-28T09:04:20.700-04:00", "updated_at": "2025-07-03T20:05:28.642-04:00", "avatar": "https://secure.gravatar.com/avatar/d886f5cc04b4cc8c3c42ab9309200133.jpg?s=512&d=https%3A%2F%2Fa.slack-edge.com%2Fdf10d%2Fimg%2Favatars%2Fava_0021-512.png", "custom_css": null}, {"id": 12850, "slack_id": "U09335385E3", "display_name": "Davide", "bio": null, "projects_count": 0, "devlogs_count": 0, "votes_count": 0, "ships_count": 0, "projects": [], "coding_time_seconds": 2134, "coding_time_seconds_today": 0, "balance": "You need to have a pocket watcher badge to view this.", "badges": [], "created_at": "2025-06-28T09:06:35.065-04:00", "updated_at": "2025-07-03T20:05:28.912-04:00", "avatar": "https://secure.gravatar.com/avatar/bcc378356f0c35ce43e04c781450d936.jpg?s=512&d=https%3A%2F%2Fa.slack-edge.com%2Fdf10d%2Fimg%2Favatars%2Fava_0000-512.png", "custom_css": null}, {"id": 12851, "slack_id": "U093D1R0T1B", "display_name": "sara", "bio": null, "projects_count": 0, "devlogs_count": 0, "votes_count": 0, "ships_count": 0, "projects": [], "coding_time_seconds": 0, "coding_time_seconds_today": 0, "balance": "You need to have a pocket watcher badge to view this.", "badges": [], "created_at": "2025-06-28T09:11:58.414-04:00", "updated_at": "2025-07-03T20:05:29.178-04:00", "avatar": "https://secure.gravatar.com/avatar/56dfb232ca126ddd7b0dcc1e626442e9.jpg?s=512&d=https%3A%2F%2Fa.slack-edge.com%2Fdf10d%2Fimg%2Favatars%2Fava_0018-512.png", "custom_css": null}, {"id": 12852, "slack_id": "U093WMETLCR", "display_name": "Ahmad Mustafa", "bio": null, "projects_count": 0, "devlogs_count": 0, "votes_count": 0, "ships_count": 0, "projects": [], "coding_time_seconds": 0, "coding_time_seconds_today": 0, "balance": "You need to have a pocket watcher badge to view this.", "badges": [], "created_at": "2025-06-28T09:12:20.710-04:00", "updated_at": "2025-07-03T20:05:29.439-04:00", "avatar": "https://secure.gravatar.com/avatar/e444d78c1251be1ad7a3aaa3f32e611a.jpg?s=512&d=https%3A%2F%2Fa.slack-edge.com%2Fdf10d%2Fimg%2Favatars%2Fava_0021-512.png", "custom_css": null}, {"id": 12853, "slack_id": "U093JCC63K6", "display_name": "Sohan Pradeep Salehittal", "bio": null, "projects_count": 0, "devlogs_count": 0, "votes_count": 0, "ships_count": 0, "projects": [], "coding_time_seconds": 0, "coding_time_seconds_today": 0, "balance": "You need to have a pocket watcher badge to view this.", "badges": [], "created_at": "2025-06-28T09:14:47.285-04:00", "updated_at": "2025-07-03T20:05:29.717-04:00", "avatar": "https://secure.gravatar.com/avatar/36af27097ad00f352b985fd3e698a749.jpg?s=512&d=https%3A%2F%2Fa.slack-edge.com%2Fdf10d%2Fimg%2Favatars%2Fava_0022-512.png", "custom_css": null}, {"id": 12854, "slack_id": "U093F8L3U1K", "display_name": "Anas Elhaag", "bio": null, "projects_count": 0, "devlogs_count": 0, "votes_count": 0, "ships_count": 0, "projects": [], "coding_time_seconds": 0, "coding_time_seconds_today": 0, "balance": "You need to have a pocket watcher badge to view this.", "badges": [], "created_at": "2025-06-28T09:23:48.609-04:00", "updated_at": "2025-07-03T20:05:29.987-04:00", "avatar": "https://avatars.slack-edge.com/2025-06-28/9141412862688_a26a38b060da1c5bba5f_original.jpg", "custom_css": null}, {"id": 12855, "slack_id": "U08Q3KYPLQ0", "display_name": "Ali Baddou", "bio": null, "projects_count": 1, "devlogs_count": 1, "votes_count": 0, "ships_count": 0, "projects": [{"id": 4284, "title": "EmberTeX", "devlogs_count": 1, "created_at": "2025-06-28T16:44:11.770-04:00"}], "coding_time_seconds": 31111, "coding_time_seconds_today": 0, "balance": "You need to have a pocket watcher badge to view this.", "badges": [], "created_at": "2025-06-28T09:36:31.920-04:00", "updated_at": "2025-08-24T21:06:31.019-04:00", "avatar": "https://avatars.slack-edge.com/2025-08-24/9405285047476_0666fabe160c94f03df7_original.png", "custom_css": null}, {"id": 12856, "slack_id": "U093JDRGYQ4", "display_name": "Yuchen", "bio": null, "projects_count": 0, "devlogs_count": 0, "votes_count": 0, "ships_count": 0, "projects": [], "coding_time_seconds": 0, "coding_time_seconds_today": 0, "balance": "You need to have a pocket watcher badge to view this.", "badges": [], "created_at": "2025-06-28T09:45:44.602-04:00", "updated_at": "2025-07-07T05:34:17.777-04:00", "avatar": "https://secure.gravatar.com/avatar/36a6bac6a263610a67d8fdb1dd16c31b.jpg?s=512&d=https%3A%2F%2Fa.slack-edge.com%2Fdf10d%2Fimg%2Favatars%2Fava_0019-512.png", "custom_css": null}, {"id": 12857, "slack_id": "U09336KJSNB", "display_name": "Sai Kiran", "bio": null, "projects_count": 0, "devlogs_count": 0, "votes_count": 0, "ships_count": 0, "projects": [], "coding_time_seconds": 0, "coding_time_seconds_today": 0, "balance": "You need to have a pocket watcher badge to view this.", "badges": [], "created_at": "2025-06-28T09:46:43.616-04:00", "updated_at": "2025-07-05T20:14:42.792-04:00", "avatar": "https://secure.gravatar.com/avatar/79ad7cb3d6dfc98731de2eef990038b7.jpg?s=512&d=https%3A%2F%2Fa.slack-edge.com%2Fdf10d%2Fimg%2Favatars%2Fava_0020-512.png", "custom_css": null}, {"id": 12858, "slack_id": "U093BRKDZ2A", "display_name": "I'mani", "bio": null, "projects_count": 0, "devlogs_count": 0, "votes_count": 0, "ships_count": 0, "projects": [], "coding_time_seconds": 0, "coding_time_seconds_today": 0, "balance": "You need to have a pocket watcher badge to view this.", "badges": [], "created_at": "2025-06-28T10:12:08.437-04:00", "updated_at": "2025-07-03T20:05:30.917-04:00", "avatar": "https://avatars.slack-edge.com/2025-06-28/9117394849301_85a8d6217bb97a9d868d_original.jpg", "custom_css": null}, {"id": 12859, "slack_id": "U093WPSD3HP", "display_name": "Celine E", "bio": null, "projects_count": 0, "devlogs_count": 0, "votes_count": 0, "ships_count": 0, "projects": [], "coding_time_seconds": 0, "coding_time_seconds_today": 0, "balance": "You need to have a pocket watcher badge to view this.", "badges": [], "created_at": "2025-06-28T10:12:14.954-04:00", "updated_at": "2025-07-03T22:03:45.550-04:00", "avatar": "https://secure.gravatar.com/avatar/6caa6c4e884c4e37c37586b0e0a11578.jpg?s=512&d=https%3A%2F%2Fa.slack-edge.com%2Fdf10d%2Fimg%2Favatars%2Fava_0020-512.png", "custom_css": null}, {"id": 12860, "slack_id": "U093WPRET1P", "display_name": "Dena", "bio": null, "projects_count": 0, "devlogs_count": 0, "votes_count": 0, "ships_count": 0, "projects": [], "coding_time_seconds": 0, "coding_time_seconds_today": 0, "balance": "You need to have a pocket watcher badge to view this.", "badges": [], "created_at": "2025-06-28T10:12:21.287-04:00", "updated_at": "2025-07-03T20:05:31.352-04:00", "avatar": "https://secure.gravatar.com/avatar/f06bb6fd4d2f5eba02dbef34bcc775b6.jpg?s=512&d=https%3A%2F%2Fa.slack-edge.com%2Fdf10d%2Fimg%2Favatars%2Fava_0020-512.png", "custom_css": null}], "pagination": {"page": 643, "pages": 1192, "count": 23828, "items": 20}}