{"users": [{"id": 12861, "slack_id": "U093AH8MM99", "display_name": "Solymar", "bio": null, "projects_count": 0, "devlogs_count": 0, "votes_count": 0, "ships_count": 0, "projects": [], "coding_time_seconds": 0, "coding_time_seconds_today": 0, "balance": "You need to have a pocket watcher badge to view this.", "badges": [], "created_at": "2025-06-28T10:12:29.254-04:00", "updated_at": "2025-07-03T20:05:31.620-04:00", "avatar": "https://secure.gravatar.com/avatar/54864f22a1f344102052be2c059960d1.jpg?s=512&d=https%3A%2F%2Fa.slack-edge.com%2Fdf10d%2Fimg%2Favatars%2Fava_0024-512.png", "custom_css": null}, {"id": 12862, "slack_id": "U093FAX4FU5", "display_name": "Saige", "bio": null, "projects_count": 0, "devlogs_count": 0, "votes_count": 0, "ships_count": 0, "projects": [], "coding_time_seconds": 0, "coding_time_seconds_today": 0, "balance": "You need to have a pocket watcher badge to view this.", "badges": [], "created_at": "2025-06-28T10:12:35.853-04:00", "updated_at": "2025-07-03T20:05:31.893-04:00", "avatar": "https://secure.gravatar.com/avatar/621b7778cdad7cac5d7a89c25dad1039.jpg?s=512&d=https%3A%2F%2Fa.slack-edge.com%2Fdf10d%2Fimg%2Favatars%2Fava_0001-512.png", "custom_css": null}, {"id": 12863, "slack_id": "U093BRJ3X9U", "display_name": "Laila", "bio": null, "projects_count": 0, "devlogs_count": 0, "votes_count": 0, "ships_count": 0, "projects": [], "coding_time_seconds": 0, "coding_time_seconds_today": 0, "balance": "You need to have a pocket watcher badge to view this.", "badges": [], "created_at": "2025-06-28T10:12:45.644-04:00", "updated_at": "2025-07-03T20:05:32.159-04:00", "avatar": "https://secure.gravatar.com/avatar/ffddd86a18b2cb4f83599aff9e42616f.jpg?s=512&d=https%3A%2F%2Fa.slack-edge.com%2Fdf10d%2Fimg%2Favatars%2Fava_0008-512.png", "custom_css": null}, {"id": 12864, "slack_id": "U093HFLKEFL", "display_name": "Cristabelle Sunoto", "bio": null, "projects_count": 0, "devlogs_count": 0, "votes_count": 0, "ships_count": 0, "projects": [], "coding_time_seconds": 0, "coding_time_seconds_today": 0, "balance": "You need to have a pocket watcher badge to view this.", "badges": [], "created_at": "2025-06-28T10:12:49.551-04:00", "updated_at": "2025-07-03T20:05:32.507-04:00", "avatar": "https://secure.gravatar.com/avatar/938f14885e804d18094965f317b48676.jpg?s=512&d=https%3A%2F%2Fa.slack-edge.com%2Fdf10d%2Fimg%2Favatars%2Fava_0002-512.png", "custom_css": null}, {"id": 12865, "slack_id": "U093BRJMS1L", "display_name": "Maria", "bio": null, "projects_count": 0, "devlogs_count": 0, "votes_count": 0, "ships_count": 0, "projects": [], "coding_time_seconds": 0, "coding_time_seconds_today": 0, "balance": "You need to have a pocket watcher badge to view this.", "badges": [], "created_at": "2025-06-28T10:13:07.309-04:00", "updated_at": "2025-07-03T20:05:32.780-04:00", "avatar": "https://secure.gravatar.com/avatar/885b8a25e22abf8d88f9e51dda3a4388.jpg?s=512&d=https%3A%2F%2Fa.slack-edge.com%2Fdf10d%2Fimg%2Favatars%2Fava_0011-512.png", "custom_css": null}, {"id": 12866, "slack_id": "U093BRGHJRL", "display_name": "Sultan Nunley", "bio": null, "projects_count": 0, "devlogs_count": 0, "votes_count": 0, "ships_count": 0, "projects": [], "coding_time_seconds": 0, "coding_time_seconds_today": 0, "balance": "You need to have a pocket watcher badge to view this.", "badges": [], "created_at": "2025-06-28T10:14:16.926-04:00", "updated_at": "2025-07-06T08:13:47.254-04:00", "avatar": "https://secure.gravatar.com/avatar/9a3860eee0d0bd37a0665c02fb759205.jpg?s=512&d=https%3A%2F%2Fa.slack-edge.com%2Fdf10d%2Fimg%2Favatars%2Fava_0008-512.png", "custom_css": null}, {"id": 12867, "slack_id": "U093BRK25CN", "display_name": "ziggy", "bio": null, "projects_count": 0, "devlogs_count": 0, "votes_count": 0, "ships_count": 0, "projects": [], "coding_time_seconds": 0, "coding_time_seconds_today": 0, "balance": "You need to have a pocket watcher badge to view this.", "badges": [], "created_at": "2025-06-28T10:14:27.459-04:00", "updated_at": "2025-07-03T22:03:46.144-04:00", "avatar": "https://secure.gravatar.com/avatar/3fb6fd067577d08994b4053c95a5be26.jpg?s=512&d=https%3A%2F%2Fa.slack-edge.com%2Fdf10d%2Fimg%2Favatars%2Fava_0017-512.png", "custom_css": null}, {"id": 12868, "slack_id": "U093WPPTBED", "display_name": "Tassabih Sabour", "bio": null, "projects_count": 0, "devlogs_count": 0, "votes_count": 0, "ships_count": 0, "projects": [], "coding_time_seconds": 0, "coding_time_seconds_today": 0, "balance": "You need to have a pocket watcher badge to view this.", "badges": [], "created_at": "2025-06-28T10:14:45.447-04:00", "updated_at": "2025-07-03T20:05:33.309-04:00", "avatar": "https://secure.gravatar.com/avatar/2adca1ed00558771060dd779a944ce75.jpg?s=512&d=https%3A%2F%2Fa.slack-edge.com%2Fdf10d%2Fimg%2Favatars%2Fava_0014-512.png", "custom_css": null}, {"id": 12869, "slack_id": "U093AHATFV1", "display_name": "London", "bio": null, "projects_count": 0, "devlogs_count": 0, "votes_count": 0, "ships_count": 0, "projects": [], "coding_time_seconds": 0, "coding_time_seconds_today": 0, "balance": "You need to have a pocket watcher badge to view this.", "badges": [], "created_at": "2025-06-28T10:17:11.380-04:00", "updated_at": "2025-07-03T20:05:33.585-04:00", "avatar": "https://secure.gravatar.com/avatar/517a256b5c30b571306f909b34d79e3c.jpg?s=512&d=https%3A%2F%2Fa.slack-edge.com%2Fdf10d%2Fimg%2Favatars%2Fava_0003-512.png", "custom_css": null}, {"id": 12870, "slack_id": "U093383GNBH", "display_name": "Jay", "bio": null, "projects_count": 0, "devlogs_count": 0, "votes_count": 0, "ships_count": 0, "projects": [], "coding_time_seconds": 0, "coding_time_seconds_today": 0, "balance": "You need to have a pocket watcher badge to view this.", "badges": [], "created_at": "2025-06-28T10:17:24.302-04:00", "updated_at": "2025-07-03T20:05:33.850-04:00", "avatar": "https://secure.gravatar.com/avatar/9df1e796ab18953a6a0a6d8d2a54389e.jpg?s=512&d=https%3A%2F%2Fa.slack-edge.com%2Fdf10d%2Fimg%2Favatars%2Fava_0012-512.png", "custom_css": null}, {"id": 12871, "slack_id": "U093384NYTZ", "display_name": "Divino Franco Rocamora Aurellano", "bio": null, "projects_count": 0, "devlogs_count": 0, "votes_count": 0, "ships_count": 0, "projects": [], "coding_time_seconds": 0, "coding_time_seconds_today": 0, "balance": "You need to have a pocket watcher badge to view this.", "badges": [], "created_at": "2025-06-28T10:18:50.198-04:00", "updated_at": "2025-07-03T20:05:34.110-04:00", "avatar": "https://secure.gravatar.com/avatar/e2ca569c6e15bdbb87e5105993815901.jpg?s=512&d=https%3A%2F%2Fa.slack-edge.com%2Fdf10d%2Fimg%2Favatars%2Fava_0003-512.png", "custom_css": null}, {"id": 12872, "slack_id": "U093FB38745", "display_name": "Jasmine", "bio": null, "projects_count": 0, "devlogs_count": 0, "votes_count": 0, "ships_count": 0, "projects": [], "coding_time_seconds": 0, "coding_time_seconds_today": 0, "balance": "You need to have a pocket watcher badge to view this.", "badges": [], "created_at": "2025-06-28T10:18:52.647-04:00", "updated_at": "2025-07-03T20:05:34.401-04:00", "avatar": "https://secure.gravatar.com/avatar/8ebcc7701121d6c22711bcee1e1c2b79.jpg?s=512&d=https%3A%2F%2Fa.slack-edge.com%2Fdf10d%2Fimg%2Favatars%2Fava_0015-512.png", "custom_css": null}, {"id": 12873, "slack_id": "U093BRY26LW", "display_name": "Ebtissam Sabour", "bio": null, "projects_count": 0, "devlogs_count": 0, "votes_count": 0, "ships_count": 0, "projects": [], "coding_time_seconds": 0, "coding_time_seconds_today": 0, "balance": "You need to have a pocket watcher badge to view this.", "badges": [], "created_at": "2025-06-28T10:19:24.035-04:00", "updated_at": "2025-07-04T02:33:04.224-04:00", "avatar": "https://avatars.slack-edge.com/2025-06-28/9141493210032_a57b69a730b8781571ff_original.jpg", "custom_css": null}, {"id": 12874, "slack_id": "U093HFGKK7C", "display_name": "nessma", "bio": null, "projects_count": 0, "devlogs_count": 0, "votes_count": 0, "ships_count": 0, "projects": [], "coding_time_seconds": 0, "coding_time_seconds_today": 0, "balance": "You need to have a pocket watcher badge to view this.", "badges": [], "created_at": "2025-06-28T10:20:47.509-04:00", "updated_at": "2025-07-03T20:05:34.817-04:00", "avatar": "https://secure.gravatar.com/avatar/d2924263db4e3317f789038679a1e89b.jpg?s=512&d=https%3A%2F%2Fa.slack-edge.com%2Fdf10d%2Fimg%2Favatars%2Fava_0024-512.png", "custom_css": null}, {"id": 12875, "slack_id": "U093HFM394J", "display_name": "Aaliyah Robinson", "bio": null, "projects_count": 0, "devlogs_count": 0, "votes_count": 0, "ships_count": 0, "projects": [], "coding_time_seconds": 0, "coding_time_seconds_today": 0, "balance": "You need to have a pocket watcher badge to view this.", "badges": [], "created_at": "2025-06-28T10:20:55.728-04:00", "updated_at": "2025-07-03T22:03:46.702-04:00", "avatar": "https://secure.gravatar.com/avatar/6e2bfc30e258962295c3ee60fcc028c5.jpg?s=512&d=https%3A%2F%2Fa.slack-edge.com%2Fdf10d%2Fimg%2Favatars%2Fava_0022-512.png", "custom_css": null}, {"id": 12876, "slack_id": "U093AH7TGR1", "display_name": "Nahira Daye", "bio": null, "projects_count": 0, "devlogs_count": 0, "votes_count": 0, "ships_count": 0, "projects": [], "coding_time_seconds": 0, "coding_time_seconds_today": 0, "balance": "You need to have a pocket watcher badge to view this.", "badges": [], "created_at": "2025-06-28T10:21:22.281-04:00", "updated_at": "2025-07-04T20:13:42.771-04:00", "avatar": "https://secure.gravatar.com/avatar/268bd86915cf81f0f7dcc32bce62ed9d.jpg?s=512&d=https%3A%2F%2Fa.slack-edge.com%2Fdf10d%2Fimg%2Favatars%2Fava_0003-512.png", "custom_css": null}, {"id": 12877, "slack_id": "U07BRAQN24A", "display_name": "Rafsyn", "bio": null, "projects_count": 0, "devlogs_count": 0, "votes_count": 0, "ships_count": 0, "projects": [], "coding_time_seconds": 6291, "coding_time_seconds_today": 0, "balance": "You need to have a pocket watcher badge to view this.", "badges": [], "created_at": "2025-06-28T10:21:57.679-04:00", "updated_at": "2025-07-03T20:05:35.362-04:00", "avatar": "https://avatars.slack-edge.com/2025-06-28/9119549951586_a939872428cb9fcada8b_original.jpg", "custom_css": null}, {"id": 12878, "slack_id": "U093BRY6PF0", "display_name": "Eric Barton", "bio": null, "projects_count": 0, "devlogs_count": 0, "votes_count": 0, "ships_count": 0, "projects": [], "coding_time_seconds": 0, "coding_time_seconds_today": 0, "balance": "You need to have a pocket watcher badge to view this.", "badges": [], "created_at": "2025-06-28T10:22:49.992-04:00", "updated_at": "2025-07-04T08:29:21.863-04:00", "avatar": "https://secure.gravatar.com/avatar/d84f9fddebee12d187fbf28f10fdcee4.jpg?s=512&d=https%3A%2F%2Fa.slack-edge.com%2Fdf10d%2Fimg%2Favatars%2Fava_0008-512.png", "custom_css": null}, {"id": 12879, "slack_id": "U093HG8UQAW", "display_name": "Nylla", "bio": null, "projects_count": 0, "devlogs_count": 0, "votes_count": 0, "ships_count": 0, "projects": [], "coding_time_seconds": 0, "coding_time_seconds_today": 0, "balance": "You need to have a pocket watcher badge to view this.", "badges": [], "created_at": "2025-06-28T10:25:13.440-04:00", "updated_at": "2025-07-03T20:05:35.761-04:00", "avatar": "https://secure.gravatar.com/avatar/d042fb3da1eacad20af2b09a61a5724f.jpg?s=512&d=https%3A%2F%2Fa.slack-edge.com%2Fdf10d%2Fimg%2Favatars%2Fava_0023-512.png", "custom_css": null}, {"id": 12880, "slack_id": "U09338EMNJK", "display_name": "Cordero", "bio": null, "projects_count": 0, "devlogs_count": 0, "votes_count": 0, "ships_count": 0, "projects": [], "coding_time_seconds": 0, "coding_time_seconds_today": 0, "balance": "You need to have a pocket watcher badge to view this.", "badges": [], "created_at": "2025-06-28T10:25:32.498-04:00", "updated_at": "2025-07-03T20:05:36.030-04:00", "avatar": "https://secure.gravatar.com/avatar/1f9c0faa379ff5df4588be11e683310a.jpg?s=512&d=https%3A%2F%2Fa.slack-edge.com%2Fdf10d%2Fimg%2Favatars%2Fava_0017-512.png", "custom_css": null}], "pagination": {"page": 644, "pages": 1192, "count": 23828, "items": 20}}