{"users": [{"id": 12881, "slack_id": "U07J5M069HR", "display_name": "Anvitha Vemula", "bio": null, "projects_count": 0, "devlogs_count": 0, "votes_count": 0, "ships_count": 0, "projects": [], "coding_time_seconds": 146, "coding_time_seconds_today": 0, "balance": "You need to have a pocket watcher badge to view this.", "badges": [], "created_at": "2025-06-28T10:26:06.048-04:00", "updated_at": "2025-07-03T20:05:36.288-04:00", "avatar": "https://avatars.slack-edge.com/2024-08-22/7603275067319_6a08231150a53a405ed3_original.png", "custom_css": null}, {"id": 12882, "slack_id": "U093FAX1BAR", "display_name": "Sadia Raisa", "bio": null, "projects_count": 0, "devlogs_count": 0, "votes_count": 0, "ships_count": 0, "projects": [], "coding_time_seconds": 0, "coding_time_seconds_today": 0, "balance": "You need to have a pocket watcher badge to view this.", "badges": [], "created_at": "2025-06-28T10:26:39.609-04:00", "updated_at": "2025-07-03T20:05:36.559-04:00", "avatar": "https://secure.gravatar.com/avatar/62e59b1e7f02885cf383886d842a4cdb.jpg?s=512&d=https%3A%2F%2Fa.slack-edge.com%2Fdf10d%2Fimg%2Favatars%2Fava_0005-512.png", "custom_css": null}, {"id": 12883, "slack_id": "U093AHS0BMH", "display_name": "Aidan", "bio": null, "projects_count": 0, "devlogs_count": 0, "votes_count": 0, "ships_count": 0, "projects": [], "coding_time_seconds": 0, "coding_time_seconds_today": 0, "balance": "You need to have a pocket watcher badge to view this.", "badges": [], "created_at": "2025-06-28T10:27:58.914-04:00", "updated_at": "2025-07-03T20:05:36.837-04:00", "avatar": "https://secure.gravatar.com/avatar/817bb9be726b5a66ffe7634a32d3c0fe.jpg?s=512&d=https%3A%2F%2Fa.slack-edge.com%2Fdf10d%2Fimg%2Favatars%2Fava_0013-512.png", "custom_css": null}, {"id": 12884, "slack_id": "U0945EMM2V6", "display_name": "Marcos Coelho", "bio": null, "projects_count": 0, "devlogs_count": 0, "votes_count": 0, "ships_count": 0, "projects": [], "coding_time_seconds": 0, "coding_time_seconds_today": 0, "balance": "You need to have a pocket watcher badge to view this.", "badges": [], "created_at": "2025-06-28T10:28:13.490-04:00", "updated_at": "2025-07-04T02:33:05.036-04:00", "avatar": "https://avatars.slack-edge.com/2025-06-28/9132835134305_77f408b3b9424f87c483_original.jpg", "custom_css": null}, {"id": 12885, "slack_id": "U093JFJKSGL", "display_name": "Corri Shorter", "bio": null, "projects_count": 0, "devlogs_count": 0, "votes_count": 0, "ships_count": 0, "projects": [], "coding_time_seconds": 0, "coding_time_seconds_today": 0, "balance": "You need to have a pocket watcher badge to view this.", "badges": [], "created_at": "2025-06-28T10:28:32.653-04:00", "updated_at": "2025-07-03T20:05:37.251-04:00", "avatar": "https://secure.gravatar.com/avatar/18f3b86b93ee49d58c2579bcd068d959.jpg?s=512&d=https%3A%2F%2Fa.slack-edge.com%2Fdf10d%2Fimg%2Favatars%2Fava_0021-512.png", "custom_css": null}, {"id": 12886, "slack_id": "U09338LUT6K", "display_name": "Loceny Soumahoro", "bio": null, "projects_count": 0, "devlogs_count": 0, "votes_count": 0, "ships_count": 0, "projects": [], "coding_time_seconds": 0, "coding_time_seconds_today": 0, "balance": "You need to have a pocket watcher badge to view this.", "badges": [], "created_at": "2025-06-28T10:30:12.547-04:00", "updated_at": "2025-07-03T20:05:37.533-04:00", "avatar": "https://secure.gravatar.com/avatar/5dbdc3fbbacd7975112ec03eb8821f3e.jpg?s=512&d=https%3A%2F%2Fa.slack-edge.com%2Fdf10d%2Fimg%2Favatars%2Fava_0014-512.png", "custom_css": null}, {"id": 12887, "slack_id": "U093BRLURNJ", "display_name": "Janiyah Davis", "bio": null, "projects_count": 0, "devlogs_count": 0, "votes_count": 0, "ships_count": 0, "projects": [], "coding_time_seconds": 0, "coding_time_seconds_today": 0, "balance": "You need to have a pocket watcher badge to view this.", "badges": [], "created_at": "2025-06-28T10:33:51.178-04:00", "updated_at": "2025-07-05T02:14:20.342-04:00", "avatar": "https://secure.gravatar.com/avatar/bd67cab0cc88f870be1d9751b26a3e04.jpg?s=512&d=https%3A%2F%2Fa.slack-edge.com%2Fdf10d%2Fimg%2Favatars%2Fava_0015-512.png", "custom_css": null}, {"id": 12888, "slack_id": "U0945EVCMAL", "display_name": "P R SHAAM", "bio": null, "projects_count": 0, "devlogs_count": 0, "votes_count": 0, "ships_count": 0, "projects": [], "coding_time_seconds": 0, "coding_time_seconds_today": 0, "balance": "You need to have a pocket watcher badge to view this.", "badges": [], "created_at": "2025-06-28T10:34:11.020-04:00", "updated_at": "2025-07-03T20:05:37.957-04:00", "avatar": "https://secure.gravatar.com/avatar/92623ac9134dfc5b2015855c945a1ad4.jpg?s=512&d=https%3A%2F%2Fa.slack-edge.com%2Fdf10d%2Fimg%2Favatars%2Fava_0006-512.png", "custom_css": null}, {"id": 12889, "slack_id": "U084RS4SKC7", "display_name": "eu, almeida", "bio": null, "projects_count": 0, "devlogs_count": 0, "votes_count": 0, "ships_count": 0, "projects": [], "coding_time_seconds": 476700, "coding_time_seconds_today": 0, "balance": "You need to have a pocket watcher badge to view this.", "badges": [], "created_at": "2025-06-28T10:39:29.469-04:00", "updated_at": "2025-07-05T08:14:41.891-04:00", "avatar": "https://avatars.slack-edge.com/2025-04-23/8799028510740_569cd95847e37a79ba47_original.jpg", "custom_css": null}, {"id": 12890, "slack_id": "U093WQV7Q1F", "display_name": "Eric Barton", "bio": null, "projects_count": 0, "devlogs_count": 0, "votes_count": 0, "ships_count": 0, "projects": [], "coding_time_seconds": 0, "coding_time_seconds_today": 0, "balance": "You need to have a pocket watcher badge to view this.", "badges": [], "created_at": "2025-06-28T10:41:43.651-04:00", "updated_at": "2025-07-04T02:33:05.459-04:00", "avatar": "https://avatars.slack-edge.com/2025-06-28/9105318191847_ac2d06db9fd1c477272e_original.png", "custom_css": null}, {"id": 12891, "slack_id": "U093WRSCF25", "display_name": "Armanii Pope", "bio": null, "projects_count": 0, "devlogs_count": 0, "votes_count": 0, "ships_count": 0, "projects": [], "coding_time_seconds": 0, "coding_time_seconds_today": 0, "balance": "You need to have a pocket watcher badge to view this.", "badges": [], "created_at": "2025-06-28T11:03:30.681-04:00", "updated_at": "2025-07-03T20:05:38.502-04:00", "avatar": "https://secure.gravatar.com/avatar/b08ab58b97e9c38975d6e746fd93dbd7.jpg?s=512&d=https%3A%2F%2Fa.slack-edge.com%2Fdf10d%2Fimg%2Favatars%2Fava_0010-512.png", "custom_css": null}, {"id": 12892, "slack_id": "U093BUGLADC", "display_name": "Haran. v", "bio": null, "projects_count": 0, "devlogs_count": 0, "votes_count": 0, "ships_count": 0, "projects": [], "coding_time_seconds": 0, "coding_time_seconds_today": 0, "balance": "You need to have a pocket watcher badge to view this.", "badges": [], "created_at": "2025-06-28T11:13:37.281-04:00", "updated_at": "2025-07-03T20:05:38.778-04:00", "avatar": "https://secure.gravatar.com/avatar/bd548096cc595e5a2b93ee26d72a1013.jpg?s=512&d=https%3A%2F%2Fa.slack-edge.com%2Fdf10d%2Fimg%2Favatars%2Fava_0010-512.png", "custom_css": null}, {"id": 12893, "slack_id": "U091JTSU78B", "display_name": "27_\u0e2a\u0e32\u0e18\u0e34\u0e15 \u0e1e\u0e27\u0e07\u0e21\u0e32\u0e25\u0e354.3", "bio": null, "projects_count": 0, "devlogs_count": 0, "votes_count": 0, "ships_count": 0, "projects": [], "coding_time_seconds": 0, "coding_time_seconds_today": 0, "balance": "You need to have a pocket watcher badge to view this.", "badges": [], "created_at": "2025-06-28T11:13:57.808-04:00", "updated_at": "2025-07-03T20:05:39.050-04:00", "avatar": "https://avatars.slack-edge.com/2025-06-28/9120608166836_a8047bd704eb48dc56ed_original.png", "custom_css": null}, {"id": 12894, "slack_id": "U070ASPKDQR", "display_name": "Ingenious Albert", "bio": null, "projects_count": 0, "devlogs_count": 0, "votes_count": 0, "ships_count": 0, "projects": [], "coding_time_seconds": 0, "coding_time_seconds_today": 0, "balance": "You need to have a pocket watcher badge to view this.", "badges": [], "created_at": "2025-06-28T11:19:11.652-04:00", "updated_at": "2025-07-03T20:05:39.307-04:00", "avatar": "https://avatars.slack-edge.com/2024-06-25/7325554007446_d9531a209f0023f30ca6_original.png", "custom_css": null}, {"id": 12895, "slack_id": "U08NF4T4SP9", "display_name": "Whitedevil", "bio": null, "projects_count": 0, "devlogs_count": 0, "votes_count": 0, "ships_count": 0, "projects": [], "coding_time_seconds": 0, "coding_time_seconds_today": 0, "balance": "You need to have a pocket watcher badge to view this.", "badges": [], "created_at": "2025-06-28T11:22:41.306-04:00", "updated_at": "2025-07-03T20:05:39.569-04:00", "avatar": "https://avatars.slack-edge.com/2025-06-12/9040811804516_e1aa00b26f3e8679dcbc_original.png", "custom_css": null}, {"id": 12896, "slack_id": "U091M1C416J", "display_name": "Pranav Chaudhary Tharu", "bio": null, "projects_count": 0, "devlogs_count": 0, "votes_count": 0, "ships_count": 0, "projects": [], "coding_time_seconds": 0, "coding_time_seconds_today": 0, "balance": "You need to have a pocket watcher badge to view this.", "badges": [], "created_at": "2025-06-28T11:23:17.678-04:00", "updated_at": "2025-07-03T20:05:39.837-04:00", "avatar": "https://avatars.slack-edge.com/2025-06-28/9119643834978_88174835d3bed448899c_original.png", "custom_css": null}, {"id": 12897, "slack_id": "U093WSJCMQR", "display_name": "Muhaimin Hossain", "bio": null, "projects_count": 0, "devlogs_count": 0, "votes_count": 0, "ships_count": 0, "projects": [], "coding_time_seconds": 0, "coding_time_seconds_today": 0, "balance": "You need to have a pocket watcher badge to view this.", "badges": [], "created_at": "2025-06-28T11:26:51.602-04:00", "updated_at": "2025-07-03T20:05:40.110-04:00", "avatar": "https://secure.gravatar.com/avatar/7470685cfd740d04222609a12c690197.jpg?s=512&d=https%3A%2F%2Fa.slack-edge.com%2Fdf10d%2Fimg%2Favatars%2Fava_0001-512.png", "custom_css": null}, {"id": 12898, "slack_id": "U092H0559A8", "display_name": "Joaquin Gaspar Doppelt", "bio": null, "projects_count": 0, "devlogs_count": 0, "votes_count": 0, "ships_count": 0, "projects": [], "coding_time_seconds": 0, "coding_time_seconds_today": 0, "balance": "You need to have a pocket watcher badge to view this.", "badges": [], "created_at": "2025-06-28T11:32:10.841-04:00", "updated_at": "2025-07-04T08:29:23.215-04:00", "avatar": "https://avatars.slack-edge.com/2025-06-28/9114011345942_48708bd243c587517236_original.png", "custom_css": null}, {"id": 12899, "slack_id": "U093JJUERT6", "display_name": "Aaliyah Robinson", "bio": null, "projects_count": 0, "devlogs_count": 0, "votes_count": 0, "ships_count": 0, "projects": [], "coding_time_seconds": 0, "coding_time_seconds_today": 0, "balance": "You need to have a pocket watcher badge to view this.", "badges": [], "created_at": "2025-06-28T11:37:46.468-04:00", "updated_at": "2025-07-05T14:15:57.849-04:00", "avatar": "https://secure.gravatar.com/avatar/7a31aa54b6759bd3057170283255dbcb.jpg?s=512&d=https%3A%2F%2Fa.slack-edge.com%2Fdf10d%2Fimg%2Favatars%2Fava_0021-512.png", "custom_css": null}, {"id": 12900, "slack_id": "U093WTNND89", "display_name": "Yegor Afanaseva", "bio": null, "projects_count": 0, "devlogs_count": 0, "votes_count": 0, "ships_count": 0, "projects": [], "coding_time_seconds": 0, "coding_time_seconds_today": 0, "balance": "You need to have a pocket watcher badge to view this.", "badges": [], "created_at": "2025-06-28T11:50:50.096-04:00", "updated_at": "2025-07-03T20:05:40.644-04:00", "avatar": "https://secure.gravatar.com/avatar/6e0f5f68ed35f533d143827caa9ea3ca.jpg?s=512&d=https%3A%2F%2Fa.slack-edge.com%2Fdf10d%2Fimg%2Favatars%2Fava_0016-512.png", "custom_css": null}], "pagination": {"page": 645, "pages": 1192, "count": 23828, "items": 20}}