{"users": [{"id": 12901, "slack_id": "U0933C0E2HM", "display_name": "Aaliyah", "bio": null, "projects_count": 0, "devlogs_count": 0, "votes_count": 0, "ships_count": 0, "projects": [], "coding_time_seconds": 0, "coding_time_seconds_today": 0, "balance": "You need to have a pocket watcher badge to view this.", "badges": [], "created_at": "2025-06-28T11:51:02.976-04:00", "updated_at": "2025-07-03T20:05:40.909-04:00", "avatar": "https://avatars.slack-edge.com/2025-06-28/9114041376118_472eabf5efe5dab4e4b5_original.jpg", "custom_css": null}, {"id": 12902, "slack_id": "U0945JKSNFJ", "display_name": "Bejaoui", "bio": null, "projects_count": 0, "devlogs_count": 0, "votes_count": 0, "ships_count": 0, "projects": [], "coding_time_seconds": 0, "coding_time_seconds_today": 0, "balance": "You need to have a pocket watcher badge to view this.", "badges": [], "created_at": "2025-06-28T11:58:45.306-04:00", "updated_at": "2025-07-08T03:06:50.419-04:00", "avatar": "https://secure.gravatar.com/avatar/63a72f96b84acb3f124257a1268faea7.jpg?s=512&d=https%3A%2F%2Fa.slack-edge.com%2Fdf10d%2Fimg%2Favatars%2Fava_0003-512.png", "custom_css": null}, {"id": 12903, "slack_id": "U093AMZGBD1", "display_name": "Nafiul", "bio": null, "projects_count": 0, "devlogs_count": 0, "votes_count": 0, "ships_count": 0, "projects": [], "coding_time_seconds": 0, "coding_time_seconds_today": 0, "balance": "You need to have a pocket watcher badge to view this.", "badges": [], "created_at": "2025-06-28T12:00:32.719-04:00", "updated_at": "2025-07-04T02:33:06.339-04:00", "avatar": "https://secure.gravatar.com/avatar/bc198d6976604bb0e76973dcc3cb893d.jpg?s=512&d=https%3A%2F%2Fa.slack-edge.com%2Fdf10d%2Fimg%2Favatars%2Fava_0026-512.png", "custom_css": null}, {"id": 12904, "slack_id": "U0945JUGC9W", "display_name": "Aditya", "bio": null, "projects_count": 2, "devlogs_count": 2, "votes_count": 21, "ships_count": 2, "projects": [{"id": 6769, "title": "Auto clicker", "devlogs_count": 1, "created_at": "2025-07-16T01:07:08.316-04:00"}, {"id": 7127, "title": "Aim trainer", "devlogs_count": 1, "created_at": "2025-07-19T09:02:00.697-04:00"}], "coding_time_seconds": 190810, "coding_time_seconds_today": 0, "balance": "You need to have a pocket watcher badge to view this.", "badges": [{"name": "Maiden Voyage", "text": "you shipped your first project! the journey begins...", "icon": "\ud83d\udea2"}], "created_at": "2025-06-28T12:03:05.060-04:00", "updated_at": "2025-09-10T22:57:37.415-04:00", "avatar": "https://secure.gravatar.com/avatar/9dbe4a455e39c8f41b06b43422b7a883.jpg?s=512&d=https%3A%2F%2Fa.slack-edge.com%2Fdf10d%2Fimg%2Favatars%2Fava_0001-512.png", "custom_css": null}, {"id": 12905, "slack_id": "U092M0DLQEA", "display_name": "Ming Yew", "bio": null, "projects_count": 0, "devlogs_count": 0, "votes_count": 0, "ships_count": 0, "projects": [], "coding_time_seconds": 0, "coding_time_seconds_today": 0, "balance": "You need to have a pocket watcher badge to view this.", "badges": [], "created_at": "2025-06-28T12:33:33.559-04:00", "updated_at": "2025-07-03T20:05:41.591-04:00", "avatar": "https://secure.gravatar.com/avatar/bba4cbec0b86a81ab2e2de95b3a3b895.jpg?s=512&d=https%3A%2F%2Fa.slack-edge.com%2Fdf10d%2Fimg%2Favatars%2Fava_0002-512.png", "custom_css": null}, {"id": 12906, "slack_id": "U093FHUHDRT", "display_name": "saatyaki mitra", "bio": null, "projects_count": 0, "devlogs_count": 0, "votes_count": 0, "ships_count": 0, "projects": [], "coding_time_seconds": 0, "coding_time_seconds_today": 0, "balance": "You need to have a pocket watcher badge to view this.", "badges": [], "created_at": "2025-06-28T12:36:21.057-04:00", "updated_at": "2025-07-03T20:05:41.860-04:00", "avatar": "https://avatars.slack-edge.com/2025-06-28/9112814358499_ddcd4c690c1bce46578c_original.png", "custom_css": null}, {"id": 12907, "slack_id": "U083BPWTV4J", "display_name": "omer", "bio": null, "projects_count": 0, "devlogs_count": 0, "votes_count": 0, "ships_count": 0, "projects": [], "coding_time_seconds": 100, "coding_time_seconds_today": 0, "balance": "You need to have a pocket watcher badge to view this.", "badges": [], "created_at": "2025-06-28T12:36:28.514-04:00", "updated_at": "2025-07-03T20:05:42.134-04:00", "avatar": "https://secure.gravatar.com/avatar/ff3a8d1dc72d81825eccc77562e558a5.jpg?s=512&d=https%3A%2F%2Fa.slack-edge.com%2Fdf10d%2Fimg%2Favatars%2Fava_0021-512.png", "custom_css": null}, {"id": 12908, "slack_id": "U093APT48BD", "display_name": "Aditya Mathew", "bio": null, "projects_count": 0, "devlogs_count": 0, "votes_count": 0, "ships_count": 0, "projects": [], "coding_time_seconds": 0, "coding_time_seconds_today": 0, "balance": "You need to have a pocket watcher badge to view this.", "badges": [], "created_at": "2025-06-28T12:37:58.600-04:00", "updated_at": "2025-07-03T20:05:42.399-04:00", "avatar": "https://avatars.slack-edge.com/2025-06-28/9117618801685_77ae86a50aacf74418db_original.png", "custom_css": null}, {"id": 12909, "slack_id": "U07JJL30HPA", "display_name": "RAThav", "bio": null, "projects_count": 0, "devlogs_count": 0, "votes_count": 0, "ships_count": 0, "projects": [], "coding_time_seconds": 0, "coding_time_seconds_today": 0, "balance": "You need to have a pocket watcher badge to view this.", "badges": [], "created_at": "2025-06-28T12:38:10.488-04:00", "updated_at": "2025-07-03T20:05:42.660-04:00", "avatar": "https://avatars.slack-edge.com/2025-02-25/8532856103472_19a90f10377cdb84139b_original.png", "custom_css": null}, {"id": 12910, "slack_id": "U093FJ7DWH3", "display_name": "vikas bhat d", "bio": null, "projects_count": 0, "devlogs_count": 0, "votes_count": 0, "ships_count": 0, "projects": [], "coding_time_seconds": 0, "coding_time_seconds_today": 0, "balance": "You need to have a pocket watcher badge to view this.", "badges": [], "created_at": "2025-06-28T12:45:18.897-04:00", "updated_at": "2025-07-03T20:05:42.921-04:00", "avatar": "https://secure.gravatar.com/avatar/fd43981024e57360cb2e41aff82c137a.jpg?s=512&d=https%3A%2F%2Fa.slack-edge.com%2Fdf10d%2Fimg%2Favatars%2Fava_0000-512.png", "custom_css": null}, {"id": 12911, "slack_id": "U0945LY2MMW", "display_name": "Beto Chira", "bio": null, "projects_count": 0, "devlogs_count": 0, "votes_count": 0, "ships_count": 0, "projects": [], "coding_time_seconds": 0, "coding_time_seconds_today": 0, "balance": "You need to have a pocket watcher badge to view this.", "badges": [], "created_at": "2025-06-28T12:51:24.280-04:00", "updated_at": "2025-07-03T20:05:43.185-04:00", "avatar": "https://secure.gravatar.com/avatar/48d19b4695dc58b6f9c4ba6d439c6878.jpg?s=512&d=https%3A%2F%2Fa.slack-edge.com%2Fdf10d%2Fimg%2Favatars%2Fava_0023-512.png", "custom_css": null}, {"id": 12912, "slack_id": "U075KPSPBQA", "display_name": "petercrossen", "bio": null, "projects_count": 0, "devlogs_count": 0, "votes_count": 0, "ships_count": 0, "projects": [], "coding_time_seconds": 187, "coding_time_seconds_today": 0, "balance": "You need to have a pocket watcher badge to view this.", "badges": [], "created_at": "2025-06-28T12:55:45.577-04:00", "updated_at": "2025-07-03T20:05:43.440-04:00", "avatar": "https://avatars.slack-edge.com/2025-06-29/9115967656966_fc6b7f51fc864a03b956_original.png", "custom_css": null}, {"id": 12913, "slack_id": "U07H46FDEQG", "display_name": "cleo", "bio": null, "projects_count": 0, "devlogs_count": 0, "votes_count": 0, "ships_count": 0, "projects": [], "coding_time_seconds": 0, "coding_time_seconds_today": 0, "balance": "You need to have a pocket watcher badge to view this.", "badges": [], "created_at": "2025-06-28T12:59:18.894-04:00", "updated_at": "2025-07-03T20:05:43.703-04:00", "avatar": "https://avatars.slack-edge.com/2025-06-01/8968883108359_e6c1221fe07c396da941_original.png", "custom_css": null}, {"id": 12914, "slack_id": "U093FJTN7UM", "display_name": "Kartik Sharma", "bio": null, "projects_count": 0, "devlogs_count": 0, "votes_count": 0, "ships_count": 0, "projects": [], "coding_time_seconds": 0, "coding_time_seconds_today": 0, "balance": "You need to have a pocket watcher badge to view this.", "badges": [], "created_at": "2025-06-28T13:00:03.440-04:00", "updated_at": "2025-07-03T20:05:43.975-04:00", "avatar": "https://secure.gravatar.com/avatar/29b38d2125ad4b25260cbd3724a52cbf.jpg?s=512&d=https%3A%2F%2Fa.slack-edge.com%2Fdf10d%2Fimg%2Favatars%2Fava_0000-512.png", "custom_css": null}, {"id": 12915, "slack_id": "U08SMP05ZGS", "display_name": "Victor", "bio": null, "projects_count": 0, "devlogs_count": 0, "votes_count": 0, "ships_count": 0, "projects": [], "coding_time_seconds": 269051, "coding_time_seconds_today": 0, "balance": "You need to have a pocket watcher badge to view this.", "badges": [], "created_at": "2025-06-28T13:18:35.178-04:00", "updated_at": "2025-07-03T20:05:44.249-04:00", "avatar": "https://secure.gravatar.com/avatar/ae8bd00750f383962f8004c484fe31ef.jpg?s=512&d=https%3A%2F%2Fa.slack-edge.com%2Fdf10d%2Fimg%2Favatars%2Fava_0017-512.png", "custom_css": null}, {"id": 12916, "slack_id": "U0933G51PQX", "display_name": "haider", "bio": null, "projects_count": 0, "devlogs_count": 0, "votes_count": 0, "ships_count": 0, "projects": [], "coding_time_seconds": 0, "coding_time_seconds_today": 0, "balance": "You need to have a pocket watcher badge to view this.", "badges": [], "created_at": "2025-06-28T13:22:17.806-04:00", "updated_at": "2025-07-03T22:03:49.508-04:00", "avatar": "https://secure.gravatar.com/avatar/96f38effe022c03564f69336fd425dc7.jpg?s=512&d=https%3A%2F%2Fa.slack-edge.com%2Fdf10d%2Fimg%2Favatars%2Fava_0013-512.png", "custom_css": null}, {"id": 12917, "slack_id": "U093FL65UR3", "display_name": "Nivey", "bio": null, "projects_count": 0, "devlogs_count": 0, "votes_count": 0, "ships_count": 0, "projects": [], "coding_time_seconds": 0, "coding_time_seconds_today": 0, "balance": "You need to have a pocket watcher badge to view this.", "badges": [], "created_at": "2025-06-28T13:28:48.260-04:00", "updated_at": "2025-07-03T20:05:44.644-04:00", "avatar": "https://secure.gravatar.com/avatar/42dd19398cd563dcd083b749dd235708.jpg?s=512&d=https%3A%2F%2Fa.slack-edge.com%2Fdf10d%2Fimg%2Favatars%2Fava_0025-512.png", "custom_css": null}, {"id": 12918, "slack_id": "U093JQ6FM60", "display_name": "sanyam", "bio": null, "projects_count": 0, "devlogs_count": 0, "votes_count": 0, "ships_count": 0, "projects": [], "coding_time_seconds": 0, "coding_time_seconds_today": 0, "balance": "You need to have a pocket watcher badge to view this.", "badges": [], "created_at": "2025-06-28T13:34:35.504-04:00", "updated_at": "2025-07-03T20:05:44.907-04:00", "avatar": "https://secure.gravatar.com/avatar/24c3d65996a86ff5d052299de6e0157f.jpg?s=512&d=https%3A%2F%2Fa.slack-edge.com%2Fdf10d%2Fimg%2Favatars%2Fava_0006-512.png", "custom_css": null}, {"id": 12919, "slack_id": "U093JQE0BDJ", "display_name": "Lin", "bio": null, "projects_count": 0, "devlogs_count": 0, "votes_count": 0, "ships_count": 0, "projects": [], "coding_time_seconds": 0, "coding_time_seconds_today": 0, "balance": "You need to have a pocket watcher badge to view this.", "badges": [], "created_at": "2025-06-28T13:39:51.864-04:00", "updated_at": "2025-07-03T20:05:45.184-04:00", "avatar": "https://secure.gravatar.com/avatar/7317587017d5adab3c4fdda6871e9008.jpg?s=512&d=https%3A%2F%2Fa.slack-edge.com%2Fdf10d%2Fimg%2Favatars%2Fava_0012-512.png", "custom_css": null}, {"id": 12920, "slack_id": "U0945P0KVB2", "display_name": "Mariam", "bio": null, "projects_count": 0, "devlogs_count": 0, "votes_count": 0, "ships_count": 0, "projects": [], "coding_time_seconds": 0, "coding_time_seconds_today": 0, "balance": "You need to have a pocket watcher badge to view this.", "badges": [], "created_at": "2025-06-28T13:41:13.497-04:00", "updated_at": "2025-07-03T20:05:45.446-04:00", "avatar": "https://avatars.slack-edge.com/2025-06-28/9133087263617_934eeafa1e10e9fea982_original.png", "custom_css": null}], "pagination": {"page": 646, "pages": 1192, "count": 23828, "items": 20}}