{"users": [{"id": 12941, "slack_id": "U093B3R6HCK", "display_name": "Timothy Popp", "bio": null, "projects_count": 0, "devlogs_count": 0, "votes_count": 0, "ships_count": 0, "projects": [], "coding_time_seconds": 0, "coding_time_seconds_today": 0, "balance": "You need to have a pocket watcher badge to view this.", "badges": [], "created_at": "2025-06-28T16:35:07.523-04:00", "updated_at": "2025-07-04T20:13:46.857-04:00", "avatar": "https://avatars.slack-edge.com/2025-06-28/9105810798135_faf95fe813041c978ffc_original.png", "custom_css": null}, {"id": 12942, "slack_id": "U092B78SEJF", "display_name": "moh_tawab", "bio": null, "projects_count": 0, "devlogs_count": 0, "votes_count": 0, "ships_count": 0, "projects": [], "coding_time_seconds": 0, "coding_time_seconds_today": 0, "balance": "You need to have a pocket watcher badge to view this.", "badges": [], "created_at": "2025-06-28T16:39:40.677-04:00", "updated_at": "2025-07-03T20:05:50.470-04:00", "avatar": "https://secure.gravatar.com/avatar/80169041392d7fb297db707c6039aa80.jpg?s=512&d=https%3A%2F%2Fa.slack-edge.com%2Fdf10d%2Fimg%2Favatars%2Fava_0013-512.png", "custom_css": null}, {"id": 12943, "slack_id": "U093CGJ882J", "display_name": "Danylo", "bio": null, "projects_count": 0, "devlogs_count": 0, "votes_count": 0, "ships_count": 0, "projects": [], "coding_time_seconds": 0, "coding_time_seconds_today": 0, "balance": "You need to have a pocket watcher badge to view this.", "badges": [], "created_at": "2025-06-28T17:54:56.748-04:00", "updated_at": "2025-07-05T14:16:02.519-04:00", "avatar": "https://secure.gravatar.com/avatar/6de6660909fd9c29f86690e08b55aefd.jpg?s=512&d=https%3A%2F%2Fa.slack-edge.com%2Fdf10d%2Fimg%2Favatars%2Fava_0015-512.png", "custom_css": null}, {"id": 12944, "slack_id": "U093J4P76CS", "display_name": "pikamoo", "bio": null, "projects_count": 0, "devlogs_count": 0, "votes_count": 0, "ships_count": 0, "projects": [], "coding_time_seconds": 0, "coding_time_seconds_today": 0, "balance": "You need to have a pocket watcher badge to view this.", "badges": [], "created_at": "2025-06-28T17:57:37.569-04:00", "updated_at": "2025-07-03T20:05:50.879-04:00", "avatar": "https://avatars.slack-edge.com/2025-06-28/9133390404193_b48831314fe5958c63e7_original.png", "custom_css": null}, {"id": 12945, "slack_id": "U093CGZ26KY", "display_name": "Lammy Wong", "bio": null, "projects_count": 0, "devlogs_count": 0, "votes_count": 0, "ships_count": 0, "projects": [], "coding_time_seconds": 0, "coding_time_seconds_today": 0, "balance": "You need to have a pocket watcher badge to view this.", "badges": [], "created_at": "2025-06-28T18:05:28.610-04:00", "updated_at": "2025-07-06T02:15:57.455-04:00", "avatar": "https://secure.gravatar.com/avatar/c1f8512918317ceaec038c32a59b957a.jpg?s=512&d=https%3A%2F%2Fa.slack-edge.com%2Fdf10d%2Fimg%2Favatars%2Fava_0023-512.png", "custom_css": null}, {"id": 12946, "slack_id": "U093K5X8V7W", "display_name": "Yasseen Hamdouchi", "bio": null, "projects_count": 0, "devlogs_count": 0, "votes_count": 0, "ships_count": 0, "projects": [], "coding_time_seconds": 537, "coding_time_seconds_today": 0, "balance": "You need to have a pocket watcher badge to view this.", "badges": [], "created_at": "2025-06-28T18:26:45.113-04:00", "updated_at": "2025-07-03T22:03:51.572-04:00", "avatar": "https://secure.gravatar.com/avatar/cd0739509219335fb5e930eaf8482f1d.jpg?s=512&d=https%3A%2F%2Fa.slack-edge.com%2Fdf10d%2Fimg%2Favatars%2Fava_0002-512.png", "custom_css": null}, {"id": 12947, "slack_id": "U093CJ78FB8", "display_name": "Gamillion", "bio": null, "projects_count": 0, "devlogs_count": 0, "votes_count": 0, "ships_count": 0, "projects": [], "coding_time_seconds": 0, "coding_time_seconds_today": 0, "balance": "You need to have a pocket watcher badge to view this.", "badges": [], "created_at": "2025-06-28T18:37:31.689-04:00", "updated_at": "2025-07-03T20:05:51.403-04:00", "avatar": "https://secure.gravatar.com/avatar/1a1a1060dc4d074d7b4561e8fd44bd22.jpg?s=512&d=https%3A%2F%2Fa.slack-edge.com%2Fdf10d%2Fimg%2Favatars%2Fava_0021-512.png", "custom_css": null}, {"id": 12948, "slack_id": "U093K6J8QGL", "display_name": "Yasseen Hamdouchi", "bio": null, "projects_count": 0, "devlogs_count": 0, "votes_count": 0, "ships_count": 0, "projects": [], "coding_time_seconds": 0, "coding_time_seconds_today": 0, "balance": "You need to have a pocket watcher badge to view this.", "badges": [], "created_at": "2025-06-28T18:40:57.269-04:00", "updated_at": "2025-07-03T20:05:51.673-04:00", "avatar": "https://secure.gravatar.com/avatar/1109382d16772fd31a2b7c18a2eb6448.jpg?s=512&d=https%3A%2F%2Fa.slack-edge.com%2Fdf10d%2Fimg%2Favatars%2Fava_0023-512.png", "custom_css": null}, {"id": 12949, "slack_id": "U09466DTGGG", "display_name": "Shriyans.", "bio": null, "projects_count": 0, "devlogs_count": 0, "votes_count": 0, "ships_count": 0, "projects": [], "coding_time_seconds": 0, "coding_time_seconds_today": 0, "balance": "You need to have a pocket watcher badge to view this.", "badges": [], "created_at": "2025-06-28T19:10:15.761-04:00", "updated_at": "2025-07-03T20:05:51.932-04:00", "avatar": "https://avatars.slack-edge.com/2025-06-28/9114672639974_1a9903457866c2f8eea2_original.png", "custom_css": null}, {"id": 12950, "slack_id": "U07TNAC1HMH", "display_name": "Genesis Camacho", "bio": null, "projects_count": 0, "devlogs_count": 0, "votes_count": 0, "ships_count": 0, "projects": [], "coding_time_seconds": 0, "coding_time_seconds_today": 0, "balance": "You need to have a pocket watcher badge to view this.", "badges": [], "created_at": "2025-06-28T19:20:37.566-04:00", "updated_at": "2025-07-05T14:16:04.076-04:00", "avatar": "https://avatars.slack-edge.com/2024-11-15/8037127079954_667f4f0f9ad0a704a545_original.png", "custom_css": null}, {"id": 12951, "slack_id": "U093405SU6B", "display_name": "Bronson Salazar", "bio": null, "projects_count": 0, "devlogs_count": 0, "votes_count": 0, "ships_count": 0, "projects": [], "coding_time_seconds": 36384, "coding_time_seconds_today": 0, "balance": "You need to have a pocket watcher badge to view this.", "badges": [], "created_at": "2025-06-28T19:23:02.373-04:00", "updated_at": "2025-09-22T01:07:09.165-04:00", "avatar": "https://avatars.slack-edge.com/2025-09-21/9584475777536_3dde54aeb66ee5556f70_original.jpg", "custom_css": null}, {"id": 12952, "slack_id": "U093J7YP2R0", "display_name": "People", "bio": null, "projects_count": 0, "devlogs_count": 0, "votes_count": 0, "ships_count": 0, "projects": [], "coding_time_seconds": 0, "coding_time_seconds_today": 0, "balance": "You need to have a pocket watcher badge to view this.", "badges": [], "created_at": "2025-06-28T19:25:39.035-04:00", "updated_at": "2025-07-03T20:05:52.680-04:00", "avatar": "https://secure.gravatar.com/avatar/bf59ed5d5e9f3b9a192df4dca9e951dd.jpg?s=512&d=https%3A%2F%2Fa.slack-edge.com%2Fdf10d%2Fimg%2Favatars%2Fava_0014-512.png", "custom_css": null}, {"id": 12953, "slack_id": "U093AR9NP0U", "display_name": "Malak hishmet", "bio": null, "projects_count": 0, "devlogs_count": 0, "votes_count": 0, "ships_count": 0, "projects": [], "coding_time_seconds": 0, "coding_time_seconds_today": 0, "balance": "You need to have a pocket watcher badge to view this.", "badges": [], "created_at": "2025-06-28T19:52:42.036-04:00", "updated_at": "2025-07-03T22:03:52.109-04:00", "avatar": "https://secure.gravatar.com/avatar/d581dc63dd861e088d713003a2945a38.jpg?s=512&d=https%3A%2F%2Fa.slack-edge.com%2Fdf10d%2Fimg%2Favatars%2Fava_0016-512.png", "custom_css": null}, {"id": 12954, "slack_id": "U093JB4TG74", "display_name": "Rahul", "bio": null, "projects_count": 0, "devlogs_count": 0, "votes_count": 0, "ships_count": 0, "projects": [], "coding_time_seconds": 5069, "coding_time_seconds_today": 0, "balance": "You need to have a pocket watcher badge to view this.", "badges": [], "created_at": "2025-06-28T20:55:24.844-04:00", "updated_at": "2025-07-03T20:05:53.079-04:00", "avatar": "https://secure.gravatar.com/avatar/800cf65f7ab4eca019e151b5053caf85.jpg?s=512&d=https%3A%2F%2Fa.slack-edge.com%2Fdf10d%2Fimg%2Favatars%2Fava_0015-512.png", "custom_css": null}, {"id": 12955, "slack_id": "U07FQUD7VPZ", "display_name": "random nerd", "bio": null, "projects_count": 0, "devlogs_count": 0, "votes_count": 0, "ships_count": 0, "projects": [], "coding_time_seconds": 232126, "coding_time_seconds_today": 0, "balance": "You need to have a pocket watcher badge to view this.", "badges": [], "created_at": "2025-06-28T21:00:07.241-04:00", "updated_at": "2025-07-04T08:29:26.903-04:00", "avatar": "https://avatars.slack-edge.com/2024-08-08/7546628384357_4d4cd7ea34226ea067fe_original.jpg", "custom_css": null}, {"id": 12956, "slack_id": "U09344B7USK", "display_name": "John Hepworth", "bio": null, "projects_count": 3, "devlogs_count": 2, "votes_count": 15, "ships_count": 1, "projects": [{"id": 4503, "title": "Zooma - Quiz Web App", "devlogs_count": 0, "created_at": "2025-06-30T10:52:34.609-04:00"}, {"id": 4977, "title": "Digital Doorstep Business Website", "devlogs_count": 1, "created_at": "2025-07-02T14:05:16.788-04:00"}, {"id": 5971, "title": "Cargo Current", "devlogs_count": 1, "created_at": "2025-07-09T14:01:25.385-04:00"}], "coding_time_seconds": 48315, "coding_time_seconds_today": 0, "balance": "You need to have a pocket watcher badge to view this.", "badges": [{"name": "Maiden Voyage", "text": "you shipped your first project! the journey begins...", "icon": "\ud83d\udea2"}], "created_at": "2025-06-28T21:12:58.511-04:00", "updated_at": "2025-09-10T22:57:39.030-04:00", "avatar": "https://secure.gravatar.com/avatar/eda6d3a16f64e3d020b3e038c5d2b1e4.jpg?s=512&d=https%3A%2F%2Fa.slack-edge.com%2Fdf10d%2Fimg%2Favatars%2Fava_0008-512.png", "custom_css": null}, {"id": 12957, "slack_id": "U07937WV7JP", "display_name": "Tarun", "bio": null, "projects_count": 0, "devlogs_count": 0, "votes_count": 0, "ships_count": 0, "projects": [], "coding_time_seconds": 0, "coding_time_seconds_today": 0, "balance": "You need to have a pocket watcher badge to view this.", "badges": [], "created_at": "2025-06-28T21:18:00.657-04:00", "updated_at": "2025-07-03T20:05:53.612-04:00", "avatar": "https://avatars.slack-edge.com/2024-06-20/7309724874914_fa432b27354c363e0372_original.jpg", "custom_css": null}, {"id": 12958, "slack_id": "U093GAJRBRT", "display_name": "Emma Liu", "bio": null, "projects_count": 0, "devlogs_count": 0, "votes_count": 0, "ships_count": 0, "projects": [], "coding_time_seconds": 0, "coding_time_seconds_today": 0, "balance": "You need to have a pocket watcher badge to view this.", "badges": [], "created_at": "2025-06-28T21:29:04.842-04:00", "updated_at": "2025-07-03T20:05:53.884-04:00", "avatar": "https://secure.gravatar.com/avatar/d575c8f9d4a791012ed7aa51b870257a.jpg?s=512&d=https%3A%2F%2Fa.slack-edge.com%2Fdf10d%2Fimg%2Favatars%2Fava_0010-512.png", "custom_css": null}, {"id": 12959, "slack_id": "U093KCRPNAG", "display_name": "Welsey_", "bio": null, "projects_count": 0, "devlogs_count": 0, "votes_count": 0, "ships_count": 0, "projects": [], "coding_time_seconds": 0, "coding_time_seconds_today": 0, "balance": "You need to have a pocket watcher badge to view this.", "badges": [], "created_at": "2025-06-28T21:29:41.818-04:00", "updated_at": "2025-07-07T01:07:37.436-04:00", "avatar": "https://avatars.slack-edge.com/2025-07-02/9163550635936_cd9bd72805308e26aa1e_original.png", "custom_css": null}, {"id": 12960, "slack_id": "U093KE8RP2Q", "display_name": "OC", "bio": null, "projects_count": 0, "devlogs_count": 0, "votes_count": 0, "ships_count": 0, "projects": [], "coding_time_seconds": 0, "coding_time_seconds_today": 0, "balance": "You need to have a pocket watcher badge to view this.", "badges": [], "created_at": "2025-06-28T22:04:19.430-04:00", "updated_at": "2025-07-03T20:05:54.285-04:00", "avatar": "https://secure.gravatar.com/avatar/87e4beae8a7c6d2c4887b90cea38d443.jpg?s=512&d=https%3A%2F%2Fa.slack-edge.com%2Fdf10d%2Fimg%2Favatars%2Fava_0020-512.png", "custom_css": null}], "pagination": {"page": 648, "pages": 1192, "count": 23828, "items": 20}}