{"users": [{"id": 12961, "slack_id": "U093BG8GVV1", "display_name": "Chickenchickenchicken", "bio": null, "projects_count": 0, "devlogs_count": 0, "votes_count": 0, "ships_count": 0, "projects": [], "coding_time_seconds": 0, "coding_time_seconds_today": 0, "balance": "You need to have a pocket watcher badge to view this.", "badges": [], "created_at": "2025-06-28T22:22:55.788-04:00", "updated_at": "2025-07-03T20:05:54.550-04:00", "avatar": "https://secure.gravatar.com/avatar/8905a33c8badd9ad633d21d3fe30e6d5.jpg?s=512&d=https%3A%2F%2Fa.slack-edge.com%2Fdf10d%2Fimg%2Favatars%2Fava_0021-512.png", "custom_css": null}, {"id": 12962, "slack_id": "U07EK7ZE9MG", "display_name": "Matthew Epshtein", "bio": null, "projects_count": 0, "devlogs_count": 0, "votes_count": 0, "ships_count": 0, "projects": [], "coding_time_seconds": 49858, "coding_time_seconds_today": 0, "balance": "You need to have a pocket watcher badge to view this.", "badges": [], "created_at": "2025-06-28T23:04:36.815-04:00", "updated_at": "2025-07-03T20:05:54.819-04:00", "avatar": "https://secure.gravatar.com/avatar/ff006913ec8ef6e6b7b1cad872f754c1.jpg?s=512&d=https%3A%2F%2Fa.slack-edge.com%2Fdf10d%2Fimg%2Favatars%2Fava_0000-512.png", "custom_css": null}, {"id": 12963, "slack_id": "U0946H2TBJL", "display_name": "Ahad", "bio": null, "projects_count": 0, "devlogs_count": 0, "votes_count": 0, "ships_count": 0, "projects": [], "coding_time_seconds": 0, "coding_time_seconds_today": 0, "balance": "You need to have a pocket watcher badge to view this.", "badges": [], "created_at": "2025-06-28T23:54:47.107-04:00", "updated_at": "2025-07-03T20:05:55.096-04:00", "avatar": "https://secure.gravatar.com/avatar/83f80e05808f02bc056e41ac2a8edb5a.jpg?s=512&d=https%3A%2F%2Fa.slack-edge.com%2Fdf10d%2Fimg%2Favatars%2Fava_0022-512.png", "custom_css": null}, {"id": 12964, "slack_id": "U083ZLXUH45", "display_name": "Deepak Pandian", "bio": null, "projects_count": 0, "devlogs_count": 0, "votes_count": 0, "ships_count": 0, "projects": [], "coding_time_seconds": 0, "coding_time_seconds_today": 0, "balance": "You need to have a pocket watcher badge to view this.", "badges": [], "created_at": "2025-06-29T00:12:31.123-04:00", "updated_at": "2025-07-03T20:05:55.378-04:00", "avatar": "https://secure.gravatar.com/avatar/592b34488ba34bbb9c7313ac6c55532c.jpg?s=512&d=https%3A%2F%2Fa.slack-edge.com%2Fdf10d%2Fimg%2Favatars%2Fava_0003-512.png", "custom_css": null}, {"id": 12965, "slack_id": "U07BE4LRABW", "display_name": "Jayden", "bio": null, "projects_count": 0, "devlogs_count": 0, "votes_count": 0, "ships_count": 0, "projects": [], "coding_time_seconds": 0, "coding_time_seconds_today": 0, "balance": "You need to have a pocket watcher badge to view this.", "badges": [], "created_at": "2025-06-29T00:40:20.497-04:00", "updated_at": "2025-07-03T20:05:55.631-04:00", "avatar": "https://secure.gravatar.com/avatar/178f418d4c31fca8d8f7be41ec613ade.jpg?s=512&d=https%3A%2F%2Fa.slack-edge.com%2Fdf10d%2Fimg%2Favatars%2Fava_0022-512.png", "custom_css": null}, {"id": 12966, "slack_id": "U093KLF443W", "display_name": "Bareera", "bio": null, "projects_count": 0, "devlogs_count": 0, "votes_count": 0, "ships_count": 0, "projects": [], "coding_time_seconds": 0, "coding_time_seconds_today": 0, "balance": "You need to have a pocket watcher badge to view this.", "badges": [], "created_at": "2025-06-29T00:57:09.258-04:00", "updated_at": "2025-07-03T22:03:53.029-04:00", "avatar": "https://secure.gravatar.com/avatar/4d7b05d4e2a615355c0fad7dd37464d0.jpg?s=512&d=https%3A%2F%2Fa.slack-edge.com%2Fdf10d%2Fimg%2Favatars%2Fava_0002-512.png", "custom_css": null}, {"id": 12967, "slack_id": "U093D51KRNJ", "display_name": "Jack Whalen", "bio": null, "projects_count": 0, "devlogs_count": 0, "votes_count": 0, "ships_count": 0, "projects": [], "coding_time_seconds": 0, "coding_time_seconds_today": 0, "balance": "You need to have a pocket watcher badge to view this.", "badges": [], "created_at": "2025-06-29T01:39:44.109-04:00", "updated_at": "2025-07-03T20:05:56.023-04:00", "avatar": "https://secure.gravatar.com/avatar/7281f2e6af11851b1229cd1e59cb85cf.jpg?s=512&d=https%3A%2F%2Fa.slack-edge.com%2Fdf10d%2Fimg%2Favatars%2Fava_0006-512.png", "custom_css": null}, {"id": 12968, "slack_id": "U093JM5PNHY", "display_name": "Bylnn", "bio": null, "projects_count": 0, "devlogs_count": 0, "votes_count": 0, "ships_count": 0, "projects": [], "coding_time_seconds": 0, "coding_time_seconds_today": 0, "balance": "You need to have a pocket watcher badge to view this.", "badges": [], "created_at": "2025-06-29T01:48:01.371-04:00", "updated_at": "2025-07-04T20:13:48.417-04:00", "avatar": "https://secure.gravatar.com/avatar/b998fee445004348097049a29332536d.jpg?s=512&d=https%3A%2F%2Fa.slack-edge.com%2Fdf10d%2Fimg%2Favatars%2Fava_0010-512.png", "custom_css": null}, {"id": 12969, "slack_id": "U093GLXQ1JR", "display_name": "Luca D.", "bio": null, "projects_count": 0, "devlogs_count": 0, "votes_count": 0, "ships_count": 0, "projects": [], "coding_time_seconds": 0, "coding_time_seconds_today": 0, "balance": "You need to have a pocket watcher badge to view this.", "badges": [], "created_at": "2025-06-29T02:01:04.847-04:00", "updated_at": "2025-07-03T20:05:56.422-04:00", "avatar": "https://secure.gravatar.com/avatar/721337b9876b5b5e81b048eecb1328e3.jpg?s=512&d=https%3A%2F%2Fa.slack-edge.com%2Fdf10d%2Fimg%2Favatars%2Fava_0023-512.png", "custom_css": null}, {"id": 12970, "slack_id": "U093BPQFUKD", "display_name": "gongbhao", "bio": null, "projects_count": 0, "devlogs_count": 0, "votes_count": 0, "ships_count": 0, "projects": [], "coding_time_seconds": 0, "coding_time_seconds_today": 0, "balance": "You need to have a pocket watcher badge to view this.", "badges": [], "created_at": "2025-06-29T02:01:20.829-04:00", "updated_at": "2025-07-03T20:05:56.674-04:00", "avatar": "https://avatars.slack-edge.com/2025-06-29/9115226517462_849b7b8017e80327d94d_original.jpg", "custom_css": null}, {"id": 12971, "slack_id": "U092UK7HBUH", "display_name": "adem", "bio": null, "projects_count": 0, "devlogs_count": 0, "votes_count": 0, "ships_count": 0, "projects": [], "coding_time_seconds": 21659, "coding_time_seconds_today": 0, "balance": "You need to have a pocket watcher badge to view this.", "badges": [], "created_at": "2025-06-29T02:05:57.715-04:00", "updated_at": "2025-07-04T20:13:48.623-04:00", "avatar": "https://secure.gravatar.com/avatar/fddf8d4c31b4c58cc07e4e529160b0cc.jpg?s=512&d=https%3A%2F%2Fa.slack-edge.com%2Fdf10d%2Fimg%2Favatars%2Fava_0019-512.png", "custom_css": null}, {"id": 12972, "slack_id": "U093BQH5327", "display_name": "Brittany", "bio": null, "projects_count": 0, "devlogs_count": 0, "votes_count": 0, "ships_count": 0, "projects": [], "coding_time_seconds": 0, "coding_time_seconds_today": 0, "balance": "You need to have a pocket watcher badge to view this.", "badges": [], "created_at": "2025-06-29T02:19:30.412-04:00", "updated_at": "2025-07-03T20:05:57.079-04:00", "avatar": "https://secure.gravatar.com/avatar/8191ba2829f6bdb60dfddadd550aedc2.jpg?s=512&d=https%3A%2F%2Fa.slack-edge.com%2Fdf10d%2Fimg%2Favatars%2Fava_0005-512.png", "custom_css": null}, {"id": 12973, "slack_id": "U092UKQ0H7B", "display_name": "N8N _BLAZE", "bio": null, "projects_count": 0, "devlogs_count": 0, "votes_count": 0, "ships_count": 0, "projects": [], "coding_time_seconds": 334, "coding_time_seconds_today": 0, "balance": "You need to have a pocket watcher badge to view this.", "badges": [], "created_at": "2025-06-29T02:26:36.963-04:00", "updated_at": "2025-07-03T20:05:57.337-04:00", "avatar": "https://avatars.slack-edge.com/2025-06-28/9120785907362_79cc8858c81f0e62b324_original.png", "custom_css": null}, {"id": 12974, "slack_id": "U0934FL4CH5", "display_name": "Abhir Nayak", "bio": null, "projects_count": 0, "devlogs_count": 0, "votes_count": 0, "ships_count": 0, "projects": [], "coding_time_seconds": 1430, "coding_time_seconds_today": 0, "balance": "You need to have a pocket watcher badge to view this.", "badges": [], "created_at": "2025-06-29T02:31:34.904-04:00", "updated_at": "2025-07-03T20:05:57.613-04:00", "avatar": "https://secure.gravatar.com/avatar/a97eb3181d9b13e34223afa002b4fd4b.jpg?s=512&d=https%3A%2F%2Fa.slack-edge.com%2Fdf10d%2Fimg%2Favatars%2Fava_0002-512.png", "custom_css": null}, {"id": 12975, "slack_id": "U093BRJT26P", "display_name": "Kyle", "bio": null, "projects_count": 0, "devlogs_count": 0, "votes_count": 0, "ships_count": 0, "projects": [], "coding_time_seconds": 0, "coding_time_seconds_today": 0, "balance": "You need to have a pocket watcher badge to view this.", "badges": [], "created_at": "2025-06-29T02:52:31.774-04:00", "updated_at": "2025-07-05T08:14:47.693-04:00", "avatar": "https://secure.gravatar.com/avatar/f5fbb424c80c75f7b6a76632b593d1e6.jpg?s=512&d=https%3A%2F%2Fa.slack-edge.com%2Fdf10d%2Fimg%2Favatars%2Fava_0013-512.png", "custom_css": null}, {"id": 12976, "slack_id": "U0946Q031R6", "display_name": "BLAZExFURY", "bio": null, "projects_count": 1, "devlogs_count": 3, "votes_count": 4, "ships_count": 1, "projects": [{"id": 4673, "title": "Minecraft_Mods-Gen", "devlogs_count": 3, "created_at": "2025-07-01T03:36:33.342-04:00"}], "coding_time_seconds": 53153, "coding_time_seconds_today": 0, "balance": "You need to have a pocket watcher badge to view this.", "badges": [{"name": "Maiden Voyage", "text": "you shipped your first project! the journey begins...", "icon": "\ud83d\udea2"}], "created_at": "2025-06-29T02:59:37.194-04:00", "updated_at": "2025-09-10T22:57:39.636-04:00", "avatar": "https://secure.gravatar.com/avatar/2eb6d318d910ff09782f304becf8205a.jpg?s=512&d=https%3A%2F%2Fa.slack-edge.com%2Fdf10d%2Fimg%2Favatars%2Fava_0014-512.png", "custom_css": null}, {"id": 12977, "slack_id": "U0946QHN072", "display_name": "Arya", "bio": null, "projects_count": 0, "devlogs_count": 0, "votes_count": 0, "ships_count": 0, "projects": [], "coding_time_seconds": 0, "coding_time_seconds_today": 0, "balance": "You need to have a pocket watcher badge to view this.", "badges": [], "created_at": "2025-06-29T03:11:27.913-04:00", "updated_at": "2025-07-04T20:13:49.028-04:00", "avatar": "https://secure.gravatar.com/avatar/702e558b3abee3028bea6c0d34509bcb.jpg?s=512&d=https%3A%2F%2Fa.slack-edge.com%2Fdf10d%2Fimg%2Favatars%2Fava_0016-512.png", "custom_css": null}, {"id": 12978, "slack_id": "U092UN2TKA5", "display_name": "A.Ashwin", "bio": null, "projects_count": 0, "devlogs_count": 0, "votes_count": 1, "ships_count": 0, "projects": [], "coding_time_seconds": 1419, "coding_time_seconds_today": 0, "balance": "You need to have a pocket watcher badge to view this.", "badges": [], "created_at": "2025-06-29T03:35:09.378-04:00", "updated_at": "2025-07-07T09:35:26.353-04:00", "avatar": "https://avatars.slack-edge.com/2025-06-29/9115351286758_f2a9cffef9c34cdd749b_original.jpg", "custom_css": null}, {"id": 12979, "slack_id": "U093GTU323X", "display_name": "Moaaz", "bio": "", "projects_count": 0, "devlogs_count": 0, "votes_count": 0, "ships_count": 0, "projects": [], "coding_time_seconds": 5070, "coding_time_seconds_today": 0, "balance": "You need to have a pocket watcher badge to view this.", "badges": [], "created_at": "2025-06-29T04:51:50.854-04:00", "updated_at": "2025-07-19T04:15:29.473-04:00", "avatar": "https://secure.gravatar.com/avatar/b8eb0232779ec2f52ca816747793accb.jpg?s=512&d=https%3A%2F%2Fa.slack-edge.com%2Fdf10d%2Fimg%2Favatars%2Fava_0021-512.png", "custom_css": null}, {"id": 12980, "slack_id": "U06ECJWQDEX", "display_name": "DevKiD", "bio": null, "projects_count": 3, "devlogs_count": 27, "votes_count": 3, "ships_count": 1, "projects": [{"id": 4518, "title": "Moo - A mathematically framework", "devlogs_count": 18, "created_at": "2025-06-30T11:54:32.221-04:00"}, {"id": 7161, "title": "Readers", "devlogs_count": 1, "created_at": "2025-07-19T15:17:06.179-04:00"}, {"id": 6611, "title": "CANSAT", "devlogs_count": 8, "created_at": "2025-07-14T14:27:21.554-04:00"}], "coding_time_seconds": 187895, "coding_time_seconds_today": 0, "balance": "You need to have a pocket watcher badge to view this.", "badges": [{"name": "Maiden Voyage", "text": "you shipped your first project! the journey begins...", "icon": "\ud83d\udea2"}], "created_at": "2025-06-29T04:57:19.392-04:00", "updated_at": "2025-09-10T22:57:39.796-04:00", "avatar": "https://avatars.slack-edge.com/2024-01-19/6502117732308_e6b28044365346c9437d_original.png", "custom_css": null}], "pagination": {"page": 649, "pages": 1192, "count": 23828, "items": 20}}