{"users": [{"id": 1281, "slack_id": "U091GHTN4R4", "display_name": "Leonardo Gabriel", "bio": null, "projects_count": 0, "devlogs_count": 0, "votes_count": 0, "ships_count": 0, "projects": [], "coding_time_seconds": 0, "coding_time_seconds_today": 0, "balance": "You need to have a pocket watcher badge to view this.", "badges": [], "created_at": "2025-06-16T12:59:14.609-04:00", "updated_at": "2025-07-03T19:16:55.771-04:00", "avatar": "https://avatars.slack-edge.com/2025-06-16/9079976364304_f039b6801d095b87c8e4_original.jpg", "custom_css": null}, {"id": 1282, "slack_id": "U07EH2CKVMJ", "display_name": "Josh", "bio": null, "projects_count": 0, "devlogs_count": 0, "votes_count": 0, "ships_count": 0, "projects": [], "coding_time_seconds": 81910, "coding_time_seconds_today": 0, "balance": "You need to have a pocket watcher badge to view this.", "badges": [], "created_at": "2025-06-16T12:59:22.441-04:00", "updated_at": "2025-08-19T20:03:22.304-04:00", "avatar": "https://avatars.slack-edge.com/2025-08-19/9405253581024_3a8df8b2c54adbc00366_original.png", "custom_css": null}, {"id": 1283, "slack_id": "U091GJ3G0T0", "display_name": "Arnav Labhasetwar", "bio": null, "projects_count": 2, "devlogs_count": 2, "votes_count": 19, "ships_count": 2, "projects": [{"id": 115, "title": "TDS Virtual Teaching Assistant", "devlogs_count": 1, "created_at": "2025-06-16T13:57:17.198-04:00"}, {"id": 6613, "title": "Skill Swap", "devlogs_count": 1, "created_at": "2025-07-14T14:35:20.327-04:00"}], "coding_time_seconds": 97737, "coding_time_seconds_today": 2003, "balance": "You need to have a pocket watcher badge to view this.", "badges": [{"name": "Maiden Voyage", "text": "you shipped your first project! the journey begins...", "icon": "\ud83d\udea2"}], "created_at": "2025-06-16T12:59:22.450-04:00", "updated_at": "2025-09-10T22:51:47.377-04:00", "avatar": "https://avatars.slack-edge.com/2025-06-16/9079976992288_cf6d3544f4b8e451966d_original.jpg", "custom_css": null}, {"id": 1284, "slack_id": "U080FE88MM3", "display_name": "emptiedfull", "bio": "", "projects_count": 3, "devlogs_count": 17, "votes_count": 36, "ships_count": 2, "projects": [{"id": 4919, "title": "ExGameBoy", "devlogs_count": 9, "created_at": "2025-07-02T07:53:36.144-04:00"}, {"id": 2477, "title": "EXPACMAN", "devlogs_count": 7, "created_at": "2025-06-21T05:14:16.660-04:00"}, {"id": 11637, "title": "ExMinet", "devlogs_count": 1, "created_at": "2025-08-18T01:32:59.444-04:00"}], "coding_time_seconds": 449002, "coding_time_seconds_today": 0, "balance": "You need to have a pocket watcher badge to view this.", "badges": [{"name": "Maiden Voyage", "text": "you shipped your first project! the journey begins...", "icon": "\ud83d\udea2"}, {"name": "Graphic Design is My Passion", "text": "Oh God How Did This Get Here I Am Not Good With Computer", "icon": "\ud83c\udfa8"}], "created_at": "2025-06-16T12:59:22.610-04:00", "updated_at": "2025-09-10T22:51:47.413-04:00", "avatar": "https://avatars.slack-edge.com/2025-08-11/9338564075908_9a0ed4efc4831fb9ed3f_original.png", "custom_css": "body {\r\n    background: #88c070; \r\n    font-family: 'Press Start 2P', monospace;\r\n\r\n}\r\n\r\n.profile-name{\r\n color:#2977F5 !important;\r\n}\r\n\r\n.flex.items-center.justify-between{\r\njustify-content:center !important;\r\n}\r\n\r\n#activities-list{\r\n    padding:2rem !important;\r\n}\r\n\r\nbody::before {\r\n    content: '';\r\n    position: fixed;\r\n    top: 0;\r\n    left: 0;\r\n    width: 100%;\r\n    height: 100vh;\r\n    background: repeating-linear-gradient(\r\n        0deg,\r\n        transparent 0px,\r\n        transparent 2px,\r\n        rgba(15, 56, 15, 0.09) 2px, \r\n        rgba(15, 100, 15, 0.09) 3px,\r\n        transparent 5px,\r\n        transparent 12px\r\n    );\r\n    pointer-events: none;\r\n    z-index: 1;\r\n    animation: scanlines-move 0.2s linear infinite;\r\n}\r\n\r\n@keyframes scanlines-move {\r\n    0% { transform: translateY(0px); }\r\n    100% { transform: translateY(12px); } \r\n}\r\n\r\n.card-with-gradient {\r\nbackground-color: #d8f8c2 !important;\r\n    margin-bottom: 60px !important;\r\n    border-radius: 6px;\r\n    \r\n   \r\n    box-shadow: \r\n        inset 2px 2px 0 #ffffff,\r\n\r\n        /* Medium border layer */\r\n        0 0 0 4px #0f380f,\r\n        \r\n        /* Dark outer border */\r\n        0 0 0 14px #557c44,\r\n        0 0 0 18px #0f380f,\r\n        \r\n        /* Outer shadow for depth */\r\n        2px 2px 0 20px #306230,\r\n        4px 4px 8px 20px rgba(15, 56, 15, 0.4) !important;\r\n\r\n}"}, {"id": 1285, "slack_id": "U091PDMNVT4", "display_name": "JhonatanGay", "bio": null, "projects_count": 0, "devlogs_count": 0, "votes_count": 0, "ships_count": 0, "projects": [], "coding_time_seconds": 0, "coding_time_seconds_today": 0, "balance": "You need to have a pocket watcher badge to view this.", "badges": [], "created_at": "2025-06-16T12:59:24.352-04:00", "updated_at": "2025-07-03T19:16:56.857-04:00", "avatar": "https://secure.gravatar.com/avatar/bdc376e3f331cf4df59c5c027fcd3925.jpg?s=512&d=https%3A%2F%2Fa.slack-edge.com%2Fdf10d%2Fimg%2Favatars%2Fava_0025-512.png", "custom_css": null}, {"id": 1286, "slack_id": "U092BUE232L", "display_name": "Arism\u00e1rio Neves", "bio": null, "projects_count": 0, "devlogs_count": 0, "votes_count": 0, "ships_count": 0, "projects": [], "coding_time_seconds": 0, "coding_time_seconds_today": 0, "balance": "You need to have a pocket watcher badge to view this.", "badges": [], "created_at": "2025-06-16T12:59:28.769-04:00", "updated_at": "2025-07-03T19:16:57.141-04:00", "avatar": "https://secure.gravatar.com/avatar/79955082fceeee73f11be1caf872324d.jpg?s=512&d=https%3A%2F%2Fa.slack-edge.com%2Fdf10d%2Fimg%2Favatars%2Fava_0024-512.png", "custom_css": null}, {"id": 1287, "slack_id": "U091PEE9PFC", "display_name": "Rafael Kerni", "bio": null, "projects_count": 0, "devlogs_count": 0, "votes_count": 0, "ships_count": 0, "projects": [], "coding_time_seconds": 0, "coding_time_seconds_today": 0, "balance": "You need to have a pocket watcher badge to view this.", "badges": [], "created_at": "2025-06-16T12:59:55.084-04:00", "updated_at": "2025-07-03T19:16:57.411-04:00", "avatar": "https://secure.gravatar.com/avatar/39c16fa362b48eff17669149bbc8de71.jpg?s=512&d=https%3A%2F%2Fa.slack-edge.com%2Fdf10d%2Fimg%2Favatars%2Fava_0014-512.png", "custom_css": null}, {"id": 1288, "slack_id": "U091856RSGP", "display_name": "uvenkatateja", "bio": null, "projects_count": 0, "devlogs_count": 0, "votes_count": 0, "ships_count": 0, "projects": [], "coding_time_seconds": 19741, "coding_time_seconds_today": 0, "balance": "You need to have a pocket watcher badge to view this.", "badges": [], "created_at": "2025-06-16T13:00:00.888-04:00", "updated_at": "2025-07-03T19:16:57.689-04:00", "avatar": "https://secure.gravatar.com/avatar/3414c69b58d0514bf002b7b48cce7ff5.jpg?s=512&d=https%3A%2F%2Fa.slack-edge.com%2Fdf10d%2Fimg%2Favatars%2Fava_0012-512.png", "custom_css": null}, {"id": 1289, "slack_id": "U0491CZ3B5H", "display_name": "Yousef Shamsaldeen", "bio": null, "projects_count": 0, "devlogs_count": 3, "votes_count": 40, "ships_count": 0, "projects": [], "coding_time_seconds": 121338, "coding_time_seconds_today": 0, "balance": "You need to have a pocket watcher badge to view this.", "badges": [{"name": "Maiden Voyage", "text": "you shipped your first project! the journey begins...", "icon": "\ud83d\udea2"}], "created_at": "2025-06-16T13:00:04.256-04:00", "updated_at": "2025-09-10T22:51:47.560-04:00", "avatar": "https://avatars.slack-edge.com/2025-06-19/9069888372198_e0cd78f413eceadbcefc_original.jpg", "custom_css": null}, {"id": 1290, "slack_id": "U091GJCL3T8", "display_name": "CaptainBoy7", "bio": null, "projects_count": 0, "devlogs_count": 0, "votes_count": 0, "ships_count": 0, "projects": [], "coding_time_seconds": 0, "coding_time_seconds_today": 0, "balance": "You need to have a pocket watcher badge to view this.", "badges": [], "created_at": "2025-06-16T13:00:20.491-04:00", "updated_at": "2025-07-03T19:16:58.256-04:00", "avatar": "https://secure.gravatar.com/avatar/8933801e986d0df3c9cdb374efa502a3.jpg?s=512&d=https%3A%2F%2Fa.slack-edge.com%2Fdf10d%2Fimg%2Favatars%2Fava_0016-512.png", "custom_css": null}, {"id": 1291, "slack_id": "U09221C2073", "display_name": "Pamuda Goonatilake", "bio": null, "projects_count": 0, "devlogs_count": 0, "votes_count": 0, "ships_count": 0, "projects": [], "coding_time_seconds": 142101, "coding_time_seconds_today": 5890, "balance": "You need to have a pocket watcher badge to view this.", "badges": [], "created_at": "2025-06-16T13:00:25.238-04:00", "updated_at": "2025-07-03T19:16:58.556-04:00", "avatar": "https://secure.gravatar.com/avatar/5e53b5b1584c45c6a6c8655b82e5dbdd.jpg?s=512&d=https%3A%2F%2Fa.slack-edge.com%2Fdf10d%2Fimg%2Favatars%2Fava_0012-512.png", "custom_css": null}, {"id": 1292, "slack_id": "U091PAZ7R18", "display_name": "Marcel", "bio": null, "projects_count": 0, "devlogs_count": 0, "votes_count": 0, "ships_count": 0, "projects": [], "coding_time_seconds": 10610, "coding_time_seconds_today": 0, "balance": "You need to have a pocket watcher badge to view this.", "badges": [], "created_at": "2025-06-16T13:00:34.071-04:00", "updated_at": "2025-07-03T19:16:58.825-04:00", "avatar": "https://secure.gravatar.com/avatar/58a790ab44ae98a564b8275d855a0660.jpg?s=512&d=https%3A%2F%2Fa.slack-edge.com%2Fdf10d%2Fimg%2Favatars%2Fava_0008-512.png", "custom_css": null}, {"id": 1293, "slack_id": "U091PEAA350", "display_name": "Duong", "bio": null, "projects_count": 0, "devlogs_count": 0, "votes_count": 0, "ships_count": 0, "projects": [], "coding_time_seconds": 0, "coding_time_seconds_today": 0, "balance": "You need to have a pocket watcher badge to view this.", "badges": [], "created_at": "2025-06-16T13:00:34.873-04:00", "updated_at": "2025-07-03T19:16:59.086-04:00", "avatar": "https://secure.gravatar.com/avatar/15360f91e6572a4e018670fa56c86e61.jpg?s=512&d=https%3A%2F%2Fa.slack-edge.com%2Fdf10d%2Fimg%2Favatars%2Fava_0000-512.png", "custom_css": null}, {"id": 1294, "slack_id": "U09185KDKFZ", "display_name": "Vladislav", "bio": null, "projects_count": 0, "devlogs_count": 0, "votes_count": 0, "ships_count": 0, "projects": [], "coding_time_seconds": 5900, "coding_time_seconds_today": 0, "balance": "You need to have a pocket watcher badge to view this.", "badges": [], "created_at": "2025-06-16T13:00:36.451-04:00", "updated_at": "2025-07-03T19:16:59.355-04:00", "avatar": "https://secure.gravatar.com/avatar/50cc453d9b409d0b7b5b3c29f0fc342f.jpg?s=512&d=https%3A%2F%2Fa.slack-edge.com%2Fdf10d%2Fimg%2Favatars%2Fava_0005-512.png", "custom_css": null}, {"id": 1295, "slack_id": "U091GJ89FBQ", "display_name": "minimumSpanningTree", "bio": null, "projects_count": 0, "devlogs_count": 0, "votes_count": 0, "ships_count": 0, "projects": [], "coding_time_seconds": 13992, "coding_time_seconds_today": 0, "balance": "You need to have a pocket watcher badge to view this.", "badges": [], "created_at": "2025-06-16T13:00:38.076-04:00", "updated_at": "2025-07-03T19:16:59.624-04:00", "avatar": "https://secure.gravatar.com/avatar/3d726fe7e8671f6f063d4d8b6d23d448.jpg?s=512&d=https%3A%2F%2Fa.slack-edge.com%2Fdf10d%2Fimg%2Favatars%2Fava_0017-512.png", "custom_css": null}, {"id": 1296, "slack_id": "U09185GSF2T", "display_name": "advithiya", "bio": null, "projects_count": 0, "devlogs_count": 0, "votes_count": 0, "ships_count": 0, "projects": [], "coding_time_seconds": 2963, "coding_time_seconds_today": 0, "balance": "You need to have a pocket watcher badge to view this.", "badges": [], "created_at": "2025-06-16T13:00:56.513-04:00", "updated_at": "2025-07-03T19:16:59.899-04:00", "avatar": "https://secure.gravatar.com/avatar/b08a09db41c9d5b7a3b5023dc6f19266.jpg?s=512&d=https%3A%2F%2Fa.slack-edge.com%2Fdf10d%2Fimg%2Favatars%2Fava_0022-512.png", "custom_css": null}, {"id": 1297, "slack_id": "U092BUCLBMW", "display_name": "YASH PANCHAL", "bio": "", "projects_count": 0, "devlogs_count": 45, "votes_count": 74, "ships_count": 0, "projects": [], "coding_time_seconds": 191070, "coding_time_seconds_today": 0, "balance": "You need to have a pocket watcher badge to view this.", "badges": [{"name": "Maiden Voyage", "text": "you shipped your first project! the journey begins...", "icon": "\ud83d\udea2"}, {"name": "Ballot Stuffer", "text": "vote 100 times.", "icon": "https://summer.hackclub.com/assets/i_voted-bf851b48.png"}], "created_at": "2025-06-16T13:00:57.549-04:00", "updated_at": "2025-09-10T22:51:47.762-04:00", "avatar": "https://secure.gravatar.com/avatar/deb120dae819559971b11da00ca69585.jpg?s=512&d=https%3A%2F%2Fa.slack-edge.com%2Fdf10d%2Fimg%2Favatars%2Fava_0004-512.png", "custom_css": null}, {"id": 1298, "slack_id": "U078V3ML9L1", "display_name": "Micha", "bio": "", "projects_count": 2, "devlogs_count": 7, "votes_count": 20, "ships_count": 1, "projects": [{"id": 11879, "title": "Inlook: fuck Outlook", "devlogs_count": 4, "created_at": "2025-08-20T15:48:26.125-04:00"}, {"id": 6973, "title": "Bopper", "devlogs_count": 3, "created_at": "2025-07-17T19:54:32.836-04:00"}], "coding_time_seconds": 389668, "coding_time_seconds_today": 0, "balance": "You need to have a pocket watcher badge to view this.", "badges": [{"name": "Maiden Voyage", "text": "you shipped your first project! the journey begins...", "icon": "\ud83d\udea2"}], "created_at": "2025-06-16T13:00:58.289-04:00", "updated_at": "2025-09-10T22:51:47.792-04:00", "avatar": "https://secure.gravatar.com/avatar/47a248f0d03e8f7fac4b3432f4060539.jpg?s=512&d=https%3A%2F%2Fa.slack-edge.com%2Fdf10d%2Fimg%2Favatars%2Fava_0020-512.png", "custom_css": null}, {"id": 1299, "slack_id": "U092BU6LK7S", "display_name": "Aryaveer Singh", "bio": null, "projects_count": 0, "devlogs_count": 0, "votes_count": 0, "ships_count": 0, "projects": [], "coding_time_seconds": 0, "coding_time_seconds_today": 0, "balance": "You need to have a pocket watcher badge to view this.", "badges": [], "created_at": "2025-06-16T13:01:10.498-04:00", "updated_at": "2025-07-03T19:17:00.742-04:00", "avatar": "https://secure.gravatar.com/avatar/e8202407ad3faa4c2ef0e6aff9fd48be.jpg?s=512&d=https%3A%2F%2Fa.slack-edge.com%2Fdf10d%2Fimg%2Favatars%2Fava_0018-512.png", "custom_css": null}, {"id": 1300, "slack_id": "U059S5F9GG5", "display_name": "mghacker", "bio": "\u0e56\u06e3\u06dcM\u0e04\u0e20g\u0e04l N\u0e04\u03c4h \u0f04\u01b3\u0e04d\u0e04v\r\nhe/him\r\n\ud83d\udcbbaka \ud835\ude48\ud835\ude42 \ud835\ude43\ud835\ude56\ud835\ude58\ud835\ude60\ud835\ude5ar\r\n|| Top 2% in TryHackMe ||\r\n\ud83d\ude80 Experienced Front End Developer & Cybersecurity Researcher \ud83d\ude80\r\nI AM ATOMIC!!!\u26a1\u26a1", "projects_count": 0, "devlogs_count": 34, "votes_count": 77, "ships_count": 0, "projects": [], "coding_time_seconds": 439068, "coding_time_seconds_today": 0, "balance": "You need to have a pocket watcher badge to view this.", "badges": [{"name": "Maiden Voyage", "text": "you shipped your first project! the journey begins...", "icon": "\ud83d\udea2"}], "created_at": "2025-06-16T13:01:12.473-04:00", "updated_at": "2025-09-10T22:51:47.836-04:00", "avatar": "https://avatars.slack-edge.com/2023-05-30/5325716212615_87936c6b546d742ddda7_original.jpg", "custom_css": null}], "pagination": {"page": 65, "pages": 1192, "count": 23827, "items": 20}}