{"users": [{"id": 12981, "slack_id": "U0946UX1GNL", "display_name": "Manya Modi", "bio": null, "projects_count": 0, "devlogs_count": 0, "votes_count": 0, "ships_count": 0, "projects": [], "coding_time_seconds": 1824, "coding_time_seconds_today": 0, "balance": "You need to have a pocket watcher badge to view this.", "badges": [], "created_at": "2025-06-29T05:07:14.397-04:00", "updated_at": "2025-07-03T20:05:59.202-04:00", "avatar": "https://avatars.slack-edge.com/2025-06-29/9115481969238_283131c674804b30bc8f_original.png", "custom_css": null}, {"id": 12982, "slack_id": "U085ZMRLZNC", "display_name": "iotran207", "bio": null, "projects_count": 1, "devlogs_count": 0, "votes_count": 0, "ships_count": 0, "projects": [{"id": 4754, "title": "DARK NIGHT - the age of the hope", "devlogs_count": 0, "created_at": "2025-07-01T11:29:30.620-04:00"}], "coding_time_seconds": 62502, "coding_time_seconds_today": 0, "balance": "You need to have a pocket watcher badge to view this.", "badges": [], "created_at": "2025-06-29T05:14:43.238-04:00", "updated_at": "2025-07-03T20:05:59.458-04:00", "avatar": "https://avatars.slack-edge.com/2025-06-30/9112268471079_05dc58c67dd5cf9c2980_original.png", "custom_css": null}, {"id": 12983, "slack_id": "U079E7G5FNK", "display_name": "TRXAlpha", "bio": null, "projects_count": 0, "devlogs_count": 0, "votes_count": 0, "ships_count": 0, "projects": [], "coding_time_seconds": 14956, "coding_time_seconds_today": 0, "balance": "You need to have a pocket watcher badge to view this.", "badges": [], "created_at": "2025-06-29T05:32:43.064-04:00", "updated_at": "2025-07-03T20:05:59.718-04:00", "avatar": "https://avatars.slack-edge.com/2024-10-07/7827142560055_5a64b7c7066937c19ce7_original.jpg", "custom_css": null}, {"id": 12984, "slack_id": "U08DJ6F9HCK", "display_name": "ItzDenki", "bio": null, "projects_count": 2, "devlogs_count": 11, "votes_count": 21, "ships_count": 1, "projects": [{"id": 10483, "title": "DenkiWE", "devlogs_count": 0, "created_at": "2025-08-07T11:55:29.975-04:00"}, {"id": 9949, "title": "Exam preparation website", "devlogs_count": 10, "created_at": "2025-08-03T05:01:46.867-04:00"}], "coding_time_seconds": 89614, "coding_time_seconds_today": 0, "balance": "You need to have a pocket watcher badge to view this.", "badges": [{"name": "Maiden Voyage", "text": "you shipped your first project! the journey begins...", "icon": "\ud83d\udea2"}], "created_at": "2025-06-29T06:03:45.233-04:00", "updated_at": "2025-09-10T22:57:39.894-04:00", "avatar": "https://avatars.slack-edge.com/2025-02-16/8453651773414_73e072eef1604ebc4ce3_original.png", "custom_css": null}, {"id": 12985, "slack_id": "U093K1ZHNLA", "display_name": "Kristijan", "bio": null, "projects_count": 0, "devlogs_count": 0, "votes_count": 0, "ships_count": 0, "projects": [], "coding_time_seconds": 15345, "coding_time_seconds_today": 0, "balance": "You need to have a pocket watcher badge to view this.", "badges": [], "created_at": "2025-06-29T06:11:38.748-04:00", "updated_at": "2025-07-03T20:06:00.116-04:00", "avatar": "https://secure.gravatar.com/avatar/c95474cba0a68c33c634d9bfb0e9f5e9.jpg?s=512&d=https%3A%2F%2Fa.slack-edge.com%2Fdf10d%2Fimg%2Favatars%2Fava_0021-512.png", "custom_css": null}, {"id": 12986, "slack_id": "U093DL3JJDU", "display_name": "Mayci Cail", "bio": null, "projects_count": 0, "devlogs_count": 0, "votes_count": 0, "ships_count": 0, "projects": [], "coding_time_seconds": 0, "coding_time_seconds_today": 0, "balance": "You need to have a pocket watcher badge to view this.", "badges": [], "created_at": "2025-06-29T07:41:09.918-04:00", "updated_at": "2025-07-05T02:14:26.524-04:00", "avatar": "https://avatars.slack-edge.com/2025-06-29/9115710331494_97e4ec132e9ce10734ab_original.jpg", "custom_css": null}, {"id": 12987, "slack_id": "U0934TY1Y87", "display_name": "Riah", "bio": null, "projects_count": 0, "devlogs_count": 0, "votes_count": 0, "ships_count": 0, "projects": [], "coding_time_seconds": 0, "coding_time_seconds_today": 0, "balance": "You need to have a pocket watcher badge to view this.", "badges": [], "created_at": "2025-06-29T07:49:09.182-04:00", "updated_at": "2025-07-14T05:36:00.704-04:00", "avatar": "https://secure.gravatar.com/avatar/8e3bb2ca93e59cb760ac301fa743d436.jpg?s=512&d=https%3A%2F%2Fa.slack-edge.com%2Fdf10d%2Fimg%2Favatars%2Fava_0021-512.png", "custom_css": null}, {"id": 12988, "slack_id": "U093H6763V3", "display_name": "sharanya", "bio": null, "projects_count": 0, "devlogs_count": 0, "votes_count": 0, "ships_count": 0, "projects": [], "coding_time_seconds": 0, "coding_time_seconds_today": 0, "balance": "You need to have a pocket watcher badge to view this.", "badges": [], "created_at": "2025-06-29T07:59:31.071-04:00", "updated_at": "2025-07-03T20:06:00.649-04:00", "avatar": "https://secure.gravatar.com/avatar/503f099f951036fe93472a48a0f3a97e.jpg?s=512&d=https%3A%2F%2Fa.slack-edge.com%2Fdf10d%2Fimg%2Favatars%2Fava_0008-512.png", "custom_css": null}, {"id": 12989, "slack_id": "U093H6CV8JZ", "display_name": "Mithra", "bio": null, "projects_count": 0, "devlogs_count": 0, "votes_count": 0, "ships_count": 0, "projects": [], "coding_time_seconds": 0, "coding_time_seconds_today": 0, "balance": "You need to have a pocket watcher badge to view this.", "badges": [], "created_at": "2025-06-29T08:00:59.927-04:00", "updated_at": "2025-07-04T02:33:12.036-04:00", "avatar": "https://secure.gravatar.com/avatar/e3aba7d990d57ebad16cde48e8756101.jpg?s=512&d=https%3A%2F%2Fa.slack-edge.com%2Fdf10d%2Fimg%2Favatars%2Fava_0019-512.png", "custom_css": null}, {"id": 12990, "slack_id": "U093DMBC3N2", "display_name": "Meet Patel", "bio": null, "projects_count": 0, "devlogs_count": 0, "votes_count": 0, "ships_count": 0, "projects": [], "coding_time_seconds": 0, "coding_time_seconds_today": 0, "balance": "You need to have a pocket watcher badge to view this.", "badges": [], "created_at": "2025-06-29T08:09:07.284-04:00", "updated_at": "2025-07-03T20:06:01.138-04:00", "avatar": "https://secure.gravatar.com/avatar/ba2660ce2198e2e657902837579c413e.jpg?s=512&d=https%3A%2F%2Fa.slack-edge.com%2Fdf10d%2Fimg%2Favatars%2Fava_0000-512.png", "custom_css": null}, {"id": 12991, "slack_id": "U09463LBPLG", "display_name": "Ankush kumar Singh", "bio": null, "projects_count": 0, "devlogs_count": 0, "votes_count": 0, "ships_count": 0, "projects": [], "coding_time_seconds": 0, "coding_time_seconds_today": 0, "balance": "You need to have a pocket watcher badge to view this.", "badges": [], "created_at": "2025-06-29T08:29:35.208-04:00", "updated_at": "2025-07-03T20:06:01.400-04:00", "avatar": "https://secure.gravatar.com/avatar/5ec323048d8a71d8d2c35da2e3d9683c.jpg?s=512&d=https%3A%2F%2Fa.slack-edge.com%2Fdf10d%2Fimg%2Favatars%2Fava_0013-512.png", "custom_css": null}, {"id": 12992, "slack_id": "U093DNGJN14", "display_name": "twinengine", "bio": null, "projects_count": 0, "devlogs_count": 0, "votes_count": 0, "ships_count": 0, "projects": [], "coding_time_seconds": 0, "coding_time_seconds_today": 0, "balance": "You need to have a pocket watcher badge to view this.", "badges": [], "created_at": "2025-06-29T08:35:07.047-04:00", "updated_at": "2025-07-03T20:06:01.659-04:00", "avatar": "https://secure.gravatar.com/avatar/942d4bb1350acac88d0fc3173888105c.jpg?s=512&d=https%3A%2F%2Fa.slack-edge.com%2Fdf10d%2Fimg%2Favatars%2Fava_0024-512.png", "custom_css": null}, {"id": 12993, "slack_id": "U09350QC0UX", "display_name": "Pankaj Tiwari", "bio": null, "projects_count": 0, "devlogs_count": 0, "votes_count": 0, "ships_count": 0, "projects": [], "coding_time_seconds": 0, "coding_time_seconds_today": 0, "balance": "You need to have a pocket watcher badge to view this.", "badges": [], "created_at": "2025-06-29T08:41:44.120-04:00", "updated_at": "2025-07-03T20:06:01.921-04:00", "avatar": "https://avatars.slack-edge.com/2025-06-29/9119285598693_4c4f30e7f3fe04106d86_original.png", "custom_css": null}, {"id": 12994, "slack_id": "U093K7VHJSW", "display_name": "Aditya Singh", "bio": null, "projects_count": 0, "devlogs_count": 0, "votes_count": 0, "ships_count": 0, "projects": [], "coding_time_seconds": 0, "coding_time_seconds_today": 0, "balance": "You need to have a pocket watcher badge to view this.", "badges": [], "created_at": "2025-06-29T08:45:40.166-04:00", "updated_at": "2025-07-03T20:06:02.185-04:00", "avatar": "https://secure.gravatar.com/avatar/9d9023452de3e8e9e85f890f08343ab3.jpg?s=512&d=https%3A%2F%2Fa.slack-edge.com%2Fdf10d%2Fimg%2Favatars%2Fava_0025-512.png", "custom_css": null}, {"id": 12995, "slack_id": "U093YA1LWGH", "display_name": "Tharaka T", "bio": null, "projects_count": 0, "devlogs_count": 0, "votes_count": 0, "ships_count": 0, "projects": [], "coding_time_seconds": 0, "coding_time_seconds_today": 0, "balance": "You need to have a pocket watcher badge to view this.", "badges": [], "created_at": "2025-06-29T08:48:11.751-04:00", "updated_at": "2025-08-04T01:50:01.956-04:00", "avatar": "https://secure.gravatar.com/avatar/466a9c3e06245f7a6b09569d3ef83f13.jpg?s=512&d=https%3A%2F%2Fa.slack-edge.com%2Fdf10d%2Fimg%2Favatars%2Fava_0002-512.png", "custom_css": null}, {"id": 12996, "slack_id": "U09351DNF5M", "display_name": "stepan stepanovna", "bio": null, "projects_count": 0, "devlogs_count": 0, "votes_count": 0, "ships_count": 0, "projects": [], "coding_time_seconds": 0, "coding_time_seconds_today": 0, "balance": "You need to have a pocket watcher badge to view this.", "badges": [], "created_at": "2025-06-29T09:03:40.985-04:00", "updated_at": "2025-07-03T22:03:55.036-04:00", "avatar": "https://secure.gravatar.com/avatar/13ab23f2b90c4834b9e7b7aeb47a5f2d.jpg?s=512&d=https%3A%2F%2Fa.slack-edge.com%2Fdf10d%2Fimg%2Favatars%2Fava_0009-512.png", "custom_css": null}, {"id": 12997, "slack_id": "U093CA5JLAX", "display_name": "Harsh Prajapati", "bio": null, "projects_count": 0, "devlogs_count": 0, "votes_count": 0, "ships_count": 0, "projects": [], "coding_time_seconds": 0, "coding_time_seconds_today": 0, "balance": "You need to have a pocket watcher badge to view this.", "badges": [], "created_at": "2025-06-29T09:06:24.295-04:00", "updated_at": "2025-07-03T20:06:02.850-04:00", "avatar": "https://secure.gravatar.com/avatar/0aaff8a547547f6b259d5b5a9db05b61.jpg?s=512&d=https%3A%2F%2Fa.slack-edge.com%2Fdf10d%2Fimg%2Favatars%2Fava_0004-512.png", "custom_css": null}, {"id": 12998, "slack_id": "U0918UV2R3R", "display_name": "b", "bio": null, "projects_count": 0, "devlogs_count": 0, "votes_count": 0, "ships_count": 0, "projects": [], "coding_time_seconds": 0, "coding_time_seconds_today": 0, "balance": "You need to have a pocket watcher badge to view this.", "badges": [], "created_at": "2025-06-29T09:10:40.658-04:00", "updated_at": "2025-07-03T20:06:03.108-04:00", "avatar": "https://secure.gravatar.com/avatar/5340c76571627133852f2834b740fe98.jpg?s=512&d=https%3A%2F%2Fa.slack-edge.com%2Fdf10d%2Fimg%2Favatars%2Fava_0004-512.png", "custom_css": null}, {"id": 12999, "slack_id": "U093CAM903D", "display_name": "AttiPlayz", "bio": "I do silly self hosting stuff like a Jellyfin instance", "projects_count": 2, "devlogs_count": 5, "votes_count": 23, "ships_count": 1, "projects": [{"id": 5241, "title": "Atti's RPG Template", "devlogs_count": 1, "created_at": "2025-07-04T01:06:16.307-04:00"}, {"id": 5296, "title": "Portfolio", "devlogs_count": 4, "created_at": "2025-07-04T09:52:47.018-04:00"}], "coding_time_seconds": 14920, "coding_time_seconds_today": 0, "balance": "You need to have a pocket watcher badge to view this.", "badges": [{"name": "Maiden Voyage", "text": "you shipped your first project! the journey begins...", "icon": "\ud83d\udea2"}], "created_at": "2025-06-29T09:21:40.769-04:00", "updated_at": "2025-09-10T22:57:40.383-04:00", "avatar": "https://avatars.slack-edge.com/2025-07-31/9280593009267_2a9f8c8397ce3f9f4afb_original.png", "custom_css": null}, {"id": 13000, "slack_id": "U093K9YAZEW", "display_name": "Magi", "bio": null, "projects_count": 0, "devlogs_count": 0, "votes_count": 0, "ships_count": 0, "projects": [], "coding_time_seconds": 0, "coding_time_seconds_today": 0, "balance": "You need to have a pocket watcher badge to view this.", "badges": [], "created_at": "2025-06-29T09:38:02.689-04:00", "updated_at": "2025-07-05T14:16:07.597-04:00", "avatar": "https://secure.gravatar.com/avatar/2aa62652326aa6b53059c6aa4f617b84.jpg?s=512&d=https%3A%2F%2Fa.slack-edge.com%2Fdf10d%2Fimg%2Favatars%2Fava_0015-512.png", "custom_css": null}], "pagination": {"page": 650, "pages": 1192, "count": 23828, "items": 20}}