{"users": [{"id": 13021, "slack_id": "U093HJ1CCQ5", "display_name": "Nathan Chin", "bio": null, "projects_count": 0, "devlogs_count": 0, "votes_count": 0, "ships_count": 0, "projects": [], "coding_time_seconds": 285040, "coding_time_seconds_today": 0, "balance": "You need to have a pocket watcher badge to view this.", "badges": [], "created_at": "2025-06-29T12:24:01.221-04:00", "updated_at": "2025-07-03T20:06:09.081-04:00", "avatar": "https://secure.gravatar.com/avatar/21ab24b87a969bcbfb4362b357c4703e.jpg?s=512&d=https%3A%2F%2Fa.slack-edge.com%2Fdf10d%2Fimg%2Favatars%2Fava_0026-512.png", "custom_css": null}, {"id": 13022, "slack_id": "U093CHWB6RH", "display_name": "Sarthak", "bio": null, "projects_count": 0, "devlogs_count": 0, "votes_count": 0, "ships_count": 0, "projects": [], "coding_time_seconds": 0, "coding_time_seconds_today": 0, "balance": "You need to have a pocket watcher badge to view this.", "badges": [], "created_at": "2025-06-29T12:25:49.673-04:00", "updated_at": "2025-07-03T20:06:09.353-04:00", "avatar": "https://secure.gravatar.com/avatar/3305ffaac564a05bd06aadded2224fe1.jpg?s=512&d=https%3A%2F%2Fa.slack-edge.com%2Fdf10d%2Fimg%2Favatars%2Fava_0005-512.png", "custom_css": null}, {"id": 13023, "slack_id": "U093HKF5W2H", "display_name": "Armaan", "bio": null, "projects_count": 1, "devlogs_count": 2, "votes_count": 21, "ships_count": 1, "projects": [{"id": 5444, "title": "Hypnos", "devlogs_count": 2, "created_at": "2025-07-05T10:46:47.471-04:00"}], "coding_time_seconds": 47344, "coding_time_seconds_today": 0, "balance": "You need to have a pocket watcher badge to view this.", "badges": [{"name": "Maiden Voyage", "text": "you shipped your first project! the journey begins...", "icon": "\ud83d\udea2"}], "created_at": "2025-06-29T12:55:02.044-04:00", "updated_at": "2025-09-10T22:57:41.143-04:00", "avatar": "https://avatars.slack-edge.com/2025-06-30/9122739915669_b3135788de75f5e534d3_original.png", "custom_css": null}, {"id": 13024, "slack_id": "U093HKGBTBP", "display_name": "Indrek Kannel", "bio": null, "projects_count": 0, "devlogs_count": 0, "votes_count": 0, "ships_count": 0, "projects": [], "coding_time_seconds": 0, "coding_time_seconds_today": 0, "balance": "You need to have a pocket watcher badge to view this.", "badges": [], "created_at": "2025-06-29T12:56:43.226-04:00", "updated_at": "2025-07-05T02:14:28.993-04:00", "avatar": "https://avatars.slack-edge.com/2025-06-29/9143617748400_19f2535159aa8030e994_original.png", "custom_css": null}, {"id": 13025, "slack_id": "U0947J3UM40", "display_name": "SHREY TRIPATHI", "bio": null, "projects_count": 0, "devlogs_count": 0, "votes_count": 0, "ships_count": 0, "projects": [], "coding_time_seconds": 189, "coding_time_seconds_today": 0, "balance": "You need to have a pocket watcher badge to view this.", "badges": [], "created_at": "2025-06-29T13:00:41.871-04:00", "updated_at": "2025-07-03T20:06:10.026-04:00", "avatar": "https://avatars.slack-edge.com/2025-06-29/9121617246434_51a7eec91b9140a1a140_original.jpg", "custom_css": null}, {"id": 13026, "slack_id": "U093LKZPQGL", "display_name": "Izumi", "bio": null, "projects_count": 0, "devlogs_count": 0, "votes_count": 0, "ships_count": 0, "projects": [], "coding_time_seconds": 0, "coding_time_seconds_today": 0, "balance": "You need to have a pocket watcher badge to view this.", "badges": [], "created_at": "2025-06-29T13:02:19.466-04:00", "updated_at": "2025-07-08T03:07:23.348-04:00", "avatar": "https://secure.gravatar.com/avatar/fd7375b37f294849a5d905c18954d502.jpg?s=512&d=https%3A%2F%2Fa.slack-edge.com%2Fdf10d%2Fimg%2Favatars%2Fava_0020-512.png", "custom_css": null}, {"id": 13027, "slack_id": "U093HE4KRH8", "display_name": "Fyodor Traskin", "bio": null, "projects_count": 0, "devlogs_count": 0, "votes_count": 0, "ships_count": 0, "projects": [], "coding_time_seconds": 0, "coding_time_seconds_today": 0, "balance": "You need to have a pocket watcher badge to view this.", "badges": [], "created_at": "2025-06-29T13:09:56.072-04:00", "updated_at": "2025-07-04T02:33:14.616-04:00", "avatar": "https://avatars.slack-edge.com/2025-06-29/9122702897028_c8f6b724fa57b82be25c_original.png", "custom_css": null}, {"id": 13028, "slack_id": "U07AWK7KPAP", "display_name": "Sumit", "bio": null, "projects_count": 0, "devlogs_count": 0, "votes_count": 0, "ships_count": 0, "projects": [], "coding_time_seconds": 0, "coding_time_seconds_today": 0, "balance": "You need to have a pocket watcher badge to view this.", "badges": [], "created_at": "2025-06-29T13:13:27.966-04:00", "updated_at": "2025-07-03T20:06:10.581-04:00", "avatar": "https://avatars.slack-edge.com/2024-07-03/7373249127748_201d3f64a89bf946e2e5_original.png", "custom_css": null}, {"id": 13029, "slack_id": "U0922N2R2KF", "display_name": "juwarsnicht", "bio": null, "projects_count": 0, "devlogs_count": 0, "votes_count": 0, "ships_count": 0, "projects": [], "coding_time_seconds": 0, "coding_time_seconds_today": 0, "balance": "You need to have a pocket watcher badge to view this.", "badges": [], "created_at": "2025-06-29T13:27:19.605-04:00", "updated_at": "2025-07-03T20:06:10.847-04:00", "avatar": "https://secure.gravatar.com/avatar/d30ce2abc0b46067b5d2955a0f09e967.jpg?s=512&d=https%3A%2F%2Fa.slack-edge.com%2Fdf10d%2Fimg%2Favatars%2Fava_0001-512.png", "custom_css": null}, {"id": 13030, "slack_id": "U093KKC514J", "display_name": "Madhav Sakhuja", "bio": null, "projects_count": 0, "devlogs_count": 0, "votes_count": 0, "ships_count": 0, "projects": [], "coding_time_seconds": 0, "coding_time_seconds_today": 0, "balance": "You need to have a pocket watcher badge to view this.", "badges": [], "created_at": "2025-06-29T13:35:26.659-04:00", "updated_at": "2025-07-03T20:06:11.117-04:00", "avatar": "https://secure.gravatar.com/avatar/1b617a774bd4ca82b08103401413bd6b.jpg?s=512&d=https%3A%2F%2Fa.slack-edge.com%2Fdf10d%2Fimg%2Favatars%2Fava_0001-512.png", "custom_css": null}, {"id": 13031, "slack_id": "U093YMGBQNM", "display_name": "Michiel", "bio": null, "projects_count": 0, "devlogs_count": 0, "votes_count": 0, "ships_count": 0, "projects": [], "coding_time_seconds": 0, "coding_time_seconds_today": 0, "balance": "You need to have a pocket watcher badge to view this.", "badges": [], "created_at": "2025-06-29T13:50:48.488-04:00", "updated_at": "2025-07-04T02:33:14.927-04:00", "avatar": "https://secure.gravatar.com/avatar/c3ada2d26a0d99afd165163c6b98122d.jpg?s=512&d=https%3A%2F%2Fa.slack-edge.com%2Fdf10d%2Fimg%2Favatars%2Fava_0006-512.png", "custom_css": null}, {"id": 13032, "slack_id": "U093CMFK39R", "display_name": "Chad Whitely", "bio": null, "projects_count": 0, "devlogs_count": 0, "votes_count": 0, "ships_count": 0, "projects": [], "coding_time_seconds": 0, "coding_time_seconds_today": 0, "balance": "You need to have a pocket watcher badge to view this.", "badges": [], "created_at": "2025-06-29T13:56:01.350-04:00", "updated_at": "2025-07-03T20:06:11.524-04:00", "avatar": "https://avatars.slack-edge.com/2025-06-29/9143699887920_08766f55570030eef2d2_original.png", "custom_css": null}, {"id": 13033, "slack_id": "U082X9Q27GE", "display_name": "Queryzi", "bio": null, "projects_count": 0, "devlogs_count": 0, "votes_count": 0, "ships_count": 0, "projects": [], "coding_time_seconds": 0, "coding_time_seconds_today": 0, "balance": "You need to have a pocket watcher badge to view this.", "badges": [], "created_at": "2025-06-29T14:08:20.595-04:00", "updated_at": "2025-07-03T20:06:11.788-04:00", "avatar": "https://secure.gravatar.com/avatar/724c074508ae961c98121847f88882d6.jpg?s=512&d=https%3A%2F%2Fa.slack-edge.com%2Fdf10d%2Fimg%2Favatars%2Fava_0012-512.png", "custom_css": null}, {"id": 13034, "slack_id": "U08EFR15GMA", "display_name": "Mager Luo", "bio": null, "projects_count": 0, "devlogs_count": 0, "votes_count": 0, "ships_count": 0, "projects": [], "coding_time_seconds": 17207, "coding_time_seconds_today": 0, "balance": "You need to have a pocket watcher badge to view this.", "badges": [], "created_at": "2025-06-29T14:08:49.630-04:00", "updated_at": "2025-07-03T21:58:41.424-04:00", "avatar": "https://avatars.slack-edge.com/2025-02-21/8476382939271_b3ce45a016d2fd90bfb1_original.jpg", "custom_css": null}, {"id": 13035, "slack_id": "U093CN4EDT5", "display_name": "mark", "bio": null, "projects_count": 0, "devlogs_count": 0, "votes_count": 0, "ships_count": 0, "projects": [], "coding_time_seconds": 0, "coding_time_seconds_today": 0, "balance": "You need to have a pocket watcher badge to view this.", "badges": [], "created_at": "2025-06-29T14:08:53.144-04:00", "updated_at": "2025-07-03T20:06:12.181-04:00", "avatar": "https://secure.gravatar.com/avatar/b0de9eb3cd962b5c284ea7e667a21502.jpg?s=512&d=https%3A%2F%2Fa.slack-edge.com%2Fdf10d%2Fimg%2Favatars%2Fava_0008-512.png", "custom_css": null}, {"id": 13036, "slack_id": "U093KLV33C2", "display_name": "Queryzi", "bio": null, "projects_count": 0, "devlogs_count": 0, "votes_count": 0, "ships_count": 0, "projects": [], "coding_time_seconds": 0, "coding_time_seconds_today": 0, "balance": "You need to have a pocket watcher badge to view this.", "badges": [], "created_at": "2025-06-29T14:12:24.628-04:00", "updated_at": "2025-07-10T16:53:06.349-04:00", "avatar": "https://secure.gravatar.com/avatar/8d8e26050afd7eaabea4bc59aa418c69.jpg?s=512&d=https%3A%2F%2Fa.slack-edge.com%2Fdf10d%2Fimg%2Favatars%2Fava_0002-512.png", "custom_css": null}, {"id": 13037, "slack_id": "U093LP54E3E", "display_name": "Fazeelah Ali", "bio": null, "projects_count": 0, "devlogs_count": 0, "votes_count": 0, "ships_count": 0, "projects": [], "coding_time_seconds": 360, "coding_time_seconds_today": 0, "balance": "You need to have a pocket watcher badge to view this.", "badges": [], "created_at": "2025-06-29T14:17:46.699-04:00", "updated_at": "2025-07-18T14:45:48.464-04:00", "avatar": "https://avatars.slack-edge.com/2025-06-29/9121724657714_4274869730057f927806_original.gif", "custom_css": null}, {"id": 13038, "slack_id": "U084ML802AK", "display_name": "BurntRanch", "bio": null, "projects_count": 2, "devlogs_count": 8, "votes_count": 21, "ships_count": 2, "projects": [{"id": 7152, "title": "Lost in Transit", "devlogs_count": 7, "created_at": "2025-07-19T13:49:27.524-04:00"}, {"id": 10748, "title": " BurntSite", "devlogs_count": 1, "created_at": "2025-08-10T10:27:10.957-04:00"}], "coding_time_seconds": 392378, "coding_time_seconds_today": 0, "balance": "You need to have a pocket watcher badge to view this.", "badges": [{"name": "Maiden Voyage", "text": "you shipped your first project! the journey begins...", "icon": "\ud83d\udea2"}], "created_at": "2025-06-29T14:55:27.915-04:00", "updated_at": "2025-09-10T22:57:41.569-04:00", "avatar": "https://avatars.slack-edge.com/2024-12-14/8174124841971_4889cf3a7228bde1a2b1_original.png", "custom_css": null}, {"id": 13039, "slack_id": "U093EA2QJF8", "display_name": "souban", "bio": null, "projects_count": 0, "devlogs_count": 0, "votes_count": 0, "ships_count": 0, "projects": [], "coding_time_seconds": 0, "coding_time_seconds_today": 0, "balance": "You need to have a pocket watcher badge to view this.", "badges": [], "created_at": "2025-06-29T15:03:59.072-04:00", "updated_at": "2025-07-03T20:06:13.003-04:00", "avatar": "https://secure.gravatar.com/avatar/4b7877e501899c6ff3ab70ed29ff8117.jpg?s=512&d=https%3A%2F%2Fa.slack-edge.com%2Fdf10d%2Fimg%2Favatars%2Fava_0002-512.png", "custom_css": null}, {"id": 13040, "slack_id": "U0826QCSV5Y", "display_name": "Andy Han", "bio": null, "projects_count": 1, "devlogs_count": 0, "votes_count": 0, "ships_count": 0, "projects": [{"id": 4444, "title": "Catalyst Website", "devlogs_count": 0, "created_at": "2025-06-29T23:25:01.065-04:00"}], "coding_time_seconds": 6269, "coding_time_seconds_today": 0, "balance": "You need to have a pocket watcher badge to view this.", "badges": [], "created_at": "2025-06-29T15:31:19.739-04:00", "updated_at": "2025-07-04T02:33:15.599-04:00", "avatar": "https://avatars.slack-edge.com/2025-04-03/8706251502306_52a0e418e436825e8a02_original.jpg", "custom_css": null}], "pagination": {"page": 652, "pages": 1192, "count": 23828, "items": 20}}