{"users": [{"id": 13041, "slack_id": "U093KPYSZT4", "display_name": "andrei", "bio": null, "projects_count": 0, "devlogs_count": 0, "votes_count": 0, "ships_count": 0, "projects": [], "coding_time_seconds": 0, "coding_time_seconds_today": 0, "balance": "You need to have a pocket watcher badge to view this.", "badges": [], "created_at": "2025-06-29T15:32:43.537-04:00", "updated_at": "2025-07-03T22:03:58.218-04:00", "avatar": "https://secure.gravatar.com/avatar/9561d271e85fa1f1b50dffb1e51ff4fb.jpg?s=512&d=https%3A%2F%2Fa.slack-edge.com%2Fdf10d%2Fimg%2Favatars%2Fava_0003-512.png", "custom_css": null}, {"id": 13042, "slack_id": "U093LSAAYFN", "display_name": "Sky07", "bio": null, "projects_count": 0, "devlogs_count": 0, "votes_count": 0, "ships_count": 0, "projects": [], "coding_time_seconds": 0, "coding_time_seconds_today": 0, "balance": "You need to have a pocket watcher badge to view this.", "badges": [], "created_at": "2025-06-29T15:38:25.148-04:00", "updated_at": "2025-07-03T20:06:13.538-04:00", "avatar": "https://secure.gravatar.com/avatar/573120d49363dac355c125eedffe0eee.jpg?s=512&d=https%3A%2F%2Fa.slack-edge.com%2Fdf10d%2Fimg%2Favatars%2Fava_0013-512.png", "custom_css": null}, {"id": 13043, "slack_id": "U093EBMLU30", "display_name": "Artyom Karapetyan", "bio": null, "projects_count": 1, "devlogs_count": 0, "votes_count": 2, "ships_count": 0, "projects": [{"id": 4552, "title": "Market Mind", "devlogs_count": 0, "created_at": "2025-06-30T15:31:32.522-04:00"}], "coding_time_seconds": 26060, "coding_time_seconds_today": 0, "balance": "You need to have a pocket watcher badge to view this.", "badges": [], "created_at": "2025-06-29T15:42:24.385-04:00", "updated_at": "2025-08-25T13:22:49.097-04:00", "avatar": "https://secure.gravatar.com/avatar/dec6cf604a6021877396a2bf355740f0.jpg?s=512&d=https%3A%2F%2Fa.slack-edge.com%2Fdf10d%2Fimg%2Favatars%2Fava_0000-512.png", "custom_css": null}, {"id": 13044, "slack_id": "U093HTEB59T", "display_name": "harshith yelle", "bio": null, "projects_count": 0, "devlogs_count": 0, "votes_count": 0, "ships_count": 0, "projects": [], "coding_time_seconds": 0, "coding_time_seconds_today": 0, "balance": "You need to have a pocket watcher badge to view this.", "badges": [], "created_at": "2025-06-29T16:05:59.276-04:00", "updated_at": "2025-07-03T20:06:14.069-04:00", "avatar": "https://secure.gravatar.com/avatar/651e1d584015ffb64c200c79dc767155.jpg?s=512&d=https%3A%2F%2Fa.slack-edge.com%2Fdf10d%2Fimg%2Favatars%2Fava_0010-512.png", "custom_css": null}, {"id": 13045, "slack_id": "U086TBX167R", "display_name": "Uglje\u0161a", "bio": null, "projects_count": 4, "devlogs_count": 10, "votes_count": 37, "ships_count": 3, "projects": [{"id": 10759, "title": "Dogger", "devlogs_count": 1, "created_at": "2025-08-10T12:25:56.378-04:00"}, {"id": 12135, "title": "SuperTux Engine", "devlogs_count": 1, "created_at": "2025-08-23T12:39:03.540-04:00"}, {"id": 13579, "title": "V4L2 H264 video decoding library", "devlogs_count": 4, "created_at": "2025-09-20T01:57:28.825-04:00"}, {"id": 9436, "title": "unicap", "devlogs_count": 1, "created_at": "2025-08-01T07:53:08.239-04:00"}], "coding_time_seconds": 508927, "coding_time_seconds_today": 1090, "balance": "You need to have a pocket watcher badge to view this.", "badges": [{"name": "Maiden Voyage", "text": "you shipped your first project! the journey begins...", "icon": "\ud83d\udea2"}], "created_at": "2025-06-29T16:06:40.840-04:00", "updated_at": "2025-09-10T22:57:41.840-04:00", "avatar": "https://secure.gravatar.com/avatar/f29fda76a435a86d7a6adacd3acd237f.jpg?s=512&d=https%3A%2F%2Fa.slack-edge.com%2Fdf10d%2Fimg%2Favatars%2Fava_0006-512.png", "custom_css": null}, {"id": 13046, "slack_id": "U0947S5L200", "display_name": "CaptainEugene", "bio": null, "projects_count": 0, "devlogs_count": 0, "votes_count": 0, "ships_count": 0, "projects": [], "coding_time_seconds": 0, "coding_time_seconds_today": 0, "balance": "You need to have a pocket watcher badge to view this.", "badges": [], "created_at": "2025-06-29T16:29:52.120-04:00", "updated_at": "2025-07-03T20:06:14.589-04:00", "avatar": "https://avatars.slack-edge.com/2025-06-29/9114938402179_cf2ce68cdda1982878e0_original.png", "custom_css": null}, {"id": 13047, "slack_id": "U093HUGFVNZ", "display_name": "Tyler Kinney", "bio": null, "projects_count": 1, "devlogs_count": 0, "votes_count": 0, "ships_count": 0, "projects": [{"id": 4770, "title": "modNG", "devlogs_count": 0, "created_at": "2025-07-01T12:37:58.960-04:00"}], "coding_time_seconds": 110540, "coding_time_seconds_today": 0, "balance": "You need to have a pocket watcher badge to view this.", "badges": [], "created_at": "2025-06-29T16:33:21.074-04:00", "updated_at": "2025-07-03T22:03:58.663-04:00", "avatar": "https://secure.gravatar.com/avatar/07cc5a33613e029c08aba76bbeeaf35d.jpg?s=512&d=https%3A%2F%2Fa.slack-edge.com%2Fdf10d%2Fimg%2Favatars%2Fava_0024-512.png", "custom_css": null}, {"id": 13048, "slack_id": "U093CTJHX6X", "display_name": "John Hepworth", "bio": null, "projects_count": 0, "devlogs_count": 0, "votes_count": 0, "ships_count": 0, "projects": [], "coding_time_seconds": 0, "coding_time_seconds_today": 0, "balance": "You need to have a pocket watcher badge to view this.", "badges": [], "created_at": "2025-06-29T16:41:31.156-04:00", "updated_at": "2025-07-03T20:06:14.984-04:00", "avatar": "https://secure.gravatar.com/avatar/8abe5f6678ca89ea3039c42ab1508e46.jpg?s=512&d=https%3A%2F%2Fa.slack-edge.com%2Fdf10d%2Fimg%2Favatars%2Fava_0007-512.png", "custom_css": null}, {"id": 13049, "slack_id": "U093EE5RKEJ", "display_name": "Lucas", "bio": null, "projects_count": 0, "devlogs_count": 0, "votes_count": 0, "ships_count": 0, "projects": [], "coding_time_seconds": 1533, "coding_time_seconds_today": 0, "balance": "You need to have a pocket watcher badge to view this.", "badges": [], "created_at": "2025-06-29T16:47:01.587-04:00", "updated_at": "2025-07-05T02:14:30.466-04:00", "avatar": "https://secure.gravatar.com/avatar/4a49f2188512f8daf09fb7cba4931bd2.jpg?s=512&d=https%3A%2F%2Fa.slack-edge.com%2Fdf10d%2Fimg%2Favatars%2Fava_0013-512.png", "custom_css": null}, {"id": 13050, "slack_id": "U07GUA27VCH", "display_name": "SilverVRCode", "bio": null, "projects_count": 1, "devlogs_count": 1, "votes_count": 0, "ships_count": 0, "projects": [{"id": 4556, "title": "Chickn", "devlogs_count": 1, "created_at": "2025-06-30T15:56:11.060-04:00"}], "coding_time_seconds": 39598, "coding_time_seconds_today": 0, "balance": "You need to have a pocket watcher badge to view this.", "badges": [], "created_at": "2025-06-29T16:51:43.268-04:00", "updated_at": "2025-08-31T14:51:03.217-04:00", "avatar": "https://avatars.slack-edge.com/2025-06-29/9122255585426_8d52f570c7e25c078866_original.png", "custom_css": null}, {"id": 13051, "slack_id": "U082XA2DB7A", "display_name": "SkyExploreWasTaken", "bio": null, "projects_count": 0, "devlogs_count": 0, "votes_count": 0, "ships_count": 0, "projects": [], "coding_time_seconds": 889, "coding_time_seconds_today": 0, "balance": "You need to have a pocket watcher badge to view this.", "badges": [], "created_at": "2025-06-29T16:58:57.482-04:00", "updated_at": "2025-07-03T22:03:58.928-04:00", "avatar": "https://avatars.slack-edge.com/2024-12-04/8125336108404_05f4452e3c4fb7177d1a_original.png", "custom_css": null}, {"id": 13052, "slack_id": "U093KU3S4GJ", "display_name": "Emma", "bio": null, "projects_count": 0, "devlogs_count": 0, "votes_count": 0, "ships_count": 0, "projects": [], "coding_time_seconds": 0, "coding_time_seconds_today": 0, "balance": "You need to have a pocket watcher badge to view this.", "badges": [], "created_at": "2025-06-29T17:28:39.655-04:00", "updated_at": "2025-07-03T22:03:59.023-04:00", "avatar": "https://secure.gravatar.com/avatar/dc2282820add6f672ad781f179bf2230.jpg?s=512&d=https%3A%2F%2Fa.slack-edge.com%2Fdf10d%2Fimg%2Favatars%2Fava_0019-512.png", "custom_css": null}, {"id": 13053, "slack_id": "U0922D10473", "display_name": "Mujtaba Taimur", "bio": null, "projects_count": 0, "devlogs_count": 0, "votes_count": 0, "ships_count": 0, "projects": [], "coding_time_seconds": 0, "coding_time_seconds_today": 0, "balance": "You need to have a pocket watcher badge to view this.", "badges": [], "created_at": "2025-06-29T17:41:09.820-04:00", "updated_at": "2025-07-03T20:06:15.935-04:00", "avatar": "https://secure.gravatar.com/avatar/72e504f135e04f049894fa900ff9890b.jpg?s=512&d=https%3A%2F%2Fa.slack-edge.com%2Fdf10d%2Fimg%2Favatars%2Fava_0002-512.png", "custom_css": null}, {"id": 13054, "slack_id": "U093J1L5MTP", "display_name": "Harman", "bio": null, "projects_count": 0, "devlogs_count": 0, "votes_count": 0, "ships_count": 0, "projects": [], "coding_time_seconds": 10192, "coding_time_seconds_today": 0, "balance": "You need to have a pocket watcher badge to view this.", "badges": [], "created_at": "2025-06-29T17:42:19.934-04:00", "updated_at": "2025-07-07T15:40:11.815-04:00", "avatar": "https://secure.gravatar.com/avatar/a914071f7964f49af2e9f4c491a15a9c.jpg?s=512&d=https%3A%2F%2Fa.slack-edge.com%2Fdf10d%2Fimg%2Favatars%2Fava_0025-512.png", "custom_css": null}, {"id": 13055, "slack_id": "U093Z0PA8RX", "display_name": "Grant", "bio": null, "projects_count": 4, "devlogs_count": 10, "votes_count": 58, "ships_count": 3, "projects": [{"id": 4435, "title": "Finance Bros", "devlogs_count": 5, "created_at": "2025-06-29T20:39:32.453-04:00"}, {"id": 8483, "title": "Slappy Bird", "devlogs_count": 1, "created_at": "2025-07-27T13:05:09.448-04:00"}, {"id": 12170, "title": "Flappy++", "devlogs_count": 1, "created_at": "2025-08-23T23:13:27.172-04:00"}, {"id": 8481, "title": "Motion Detector", "devlogs_count": 1, "created_at": "2025-07-27T12:46:59.049-04:00"}], "coding_time_seconds": 92229, "coding_time_seconds_today": 0, "balance": "You need to have a pocket watcher badge to view this.", "badges": [{"name": "Maiden Voyage", "text": "you shipped your first project! the journey begins...", "icon": "\ud83d\udea2"}], "created_at": "2025-06-29T17:56:25.033-04:00", "updated_at": "2025-09-10T22:57:42.107-04:00", "avatar": "https://avatars.slack-edge.com/2025-06-29/9121998952002_6d8fa036d49e1b9f03a9_original.png", "custom_css": null}, {"id": 13056, "slack_id": "U093EH3754N", "display_name": "Ann W", "bio": null, "projects_count": 0, "devlogs_count": 0, "votes_count": 1, "ships_count": 0, "projects": [], "coding_time_seconds": 52888, "coding_time_seconds_today": 0, "balance": "You need to have a pocket watcher badge to view this.", "badges": [], "created_at": "2025-06-29T17:57:10.395-04:00", "updated_at": "2025-07-03T20:06:16.727-04:00", "avatar": "https://secure.gravatar.com/avatar/c073ac3f0cd7a92b2088e7346161c998.jpg?s=512&d=https%3A%2F%2Fa.slack-edge.com%2Fdf10d%2Fimg%2Favatars%2Fava_0023-512.png", "custom_css": null}, {"id": 13057, "slack_id": "U093D16LE9H", "display_name": "lofichill", "bio": null, "projects_count": 0, "devlogs_count": 0, "votes_count": 0, "ships_count": 0, "projects": [], "coding_time_seconds": 0, "coding_time_seconds_today": 0, "balance": "You need to have a pocket watcher badge to view this.", "badges": [], "created_at": "2025-06-29T18:01:30.609-04:00", "updated_at": "2025-07-03T20:06:16.987-04:00", "avatar": "https://secure.gravatar.com/avatar/f6a04b83bf7f3db47c2d2571cbb4c9fe.jpg?s=512&d=https%3A%2F%2Fa.slack-edge.com%2Fdf10d%2Fimg%2Favatars%2Fava_0018-512.png", "custom_css": null}, {"id": 13058, "slack_id": "U093L0TE8NN", "display_name": "Ahmed", "bio": null, "projects_count": 0, "devlogs_count": 0, "votes_count": 0, "ships_count": 0, "projects": [], "coding_time_seconds": 5522, "coding_time_seconds_today": 0, "balance": "You need to have a pocket watcher badge to view this.", "badges": [], "created_at": "2025-06-29T18:23:57.969-04:00", "updated_at": "2025-08-08T20:43:05.477-04:00", "avatar": "https://avatars.slack-edge.com/2025-06-29/9122036808498_b3638d74f2763b56af12_original.png", "custom_css": null}, {"id": 13059, "slack_id": "U07UFFDJ3C4", "display_name": "vindognz", "bio": null, "projects_count": 3, "devlogs_count": 15, "votes_count": 65, "ships_count": 2, "projects": [{"id": 9587, "title": "PyConnect-4", "devlogs_count": 10, "created_at": "2025-08-01T18:35:01.032-04:00"}, {"id": 10525, "title": "Dementris-C", "devlogs_count": 1, "created_at": "2025-08-07T19:58:31.546-04:00"}, {"id": 6172, "title": "PyGambler", "devlogs_count": 4, "created_at": "2025-07-11T04:31:18.432-04:00"}], "coding_time_seconds": 174246, "coding_time_seconds_today": 0, "balance": "You need to have a pocket watcher badge to view this.", "badges": [{"name": "Maiden Voyage", "text": "you shipped your first project! the journey begins...", "icon": "\ud83d\udea2"}], "created_at": "2025-06-29T18:24:24.048-04:00", "updated_at": "2025-09-10T22:57:42.206-04:00", "avatar": "https://avatars.slack-edge.com/2025-07-02/9136893083556_938233160d1d05581ad9_original.jpg", "custom_css": null}, {"id": 13060, "slack_id": "U0935S2R031", "display_name": "giovanni", "bio": null, "projects_count": 0, "devlogs_count": 0, "votes_count": 0, "ships_count": 0, "projects": [], "coding_time_seconds": 0, "coding_time_seconds_today": 0, "balance": "You need to have a pocket watcher badge to view this.", "badges": [], "created_at": "2025-06-29T19:01:18.288-04:00", "updated_at": "2025-07-03T20:06:17.636-04:00", "avatar": "https://secure.gravatar.com/avatar/31d6dd25900785949b069dfe9d1e20fc.jpg?s=512&d=https%3A%2F%2Fa.slack-edge.com%2Fdf10d%2Fimg%2Favatars%2Fava_0008-512.png", "custom_css": null}], "pagination": {"page": 653, "pages": 1192, "count": 23828, "items": 20}}