{"users": [{"id": 13061, "slack_id": "U093M57J5QU", "display_name": "Asav", "bio": null, "projects_count": 1, "devlogs_count": 1, "votes_count": 0, "ships_count": 0, "projects": [{"id": 6848, "title": "QBClues", "devlogs_count": 1, "created_at": "2025-07-16T20:29:29.936-04:00"}], "coding_time_seconds": 83962, "coding_time_seconds_today": 0, "balance": "You need to have a pocket watcher badge to view this.", "badges": [], "created_at": "2025-06-29T19:03:13.060-04:00", "updated_at": "2025-08-15T00:49:52.052-04:00", "avatar": "https://secure.gravatar.com/avatar/8dc4a6037a546c627690da306ffe7501.jpg?s=512&d=https%3A%2F%2Fa.slack-edge.com%2Fdf10d%2Fimg%2Favatars%2Fava_0003-512.png", "custom_css": null}, {"id": 13062, "slack_id": "U093M8G2X28", "display_name": "hidayatilham", "bio": null, "projects_count": 0, "devlogs_count": 0, "votes_count": 0, "ships_count": 0, "projects": [], "coding_time_seconds": 0, "coding_time_seconds_today": 0, "balance": "You need to have a pocket watcher badge to view this.", "badges": [], "created_at": "2025-06-29T20:03:50.928-04:00", "updated_at": "2025-07-03T20:06:18.179-04:00", "avatar": "https://secure.gravatar.com/avatar/f674582cb6dba3bbbd8500f856ed0388.jpg?s=512&d=https%3A%2F%2Fa.slack-edge.com%2Fdf10d%2Fimg%2Favatars%2Fava_0013-512.png", "custom_css": null}, {"id": 13063, "slack_id": "U056WQ9MNBB", "display_name": "Asa", "bio": null, "projects_count": 0, "devlogs_count": 0, "votes_count": 0, "ships_count": 0, "projects": [], "coding_time_seconds": 2877, "coding_time_seconds_today": 0, "balance": "You need to have a pocket watcher badge to view this.", "badges": [], "created_at": "2025-06-29T20:20:40.752-04:00", "updated_at": "2025-08-07T09:58:20.745-04:00", "avatar": "https://avatars.slack-edge.com/2024-06-28/7346801750725_7dd6cc80adcb3821d4eb_original.png", "custom_css": null}, {"id": 13064, "slack_id": "U09362QQRDM", "display_name": "Zaiven", "bio": null, "projects_count": 0, "devlogs_count": 0, "votes_count": 0, "ships_count": 0, "projects": [], "coding_time_seconds": 0, "coding_time_seconds_today": 0, "balance": "You need to have a pocket watcher badge to view this.", "badges": [], "created_at": "2025-06-29T20:43:00.059-04:00", "updated_at": "2025-07-06T14:14:14.709-04:00", "avatar": "https://secure.gravatar.com/avatar/45d1800e862ab7e543a8ad52ab9ae280.jpg?s=512&d=https%3A%2F%2Fa.slack-edge.com%2Fdf10d%2Fimg%2Favatars%2Fava_0008-512.png", "custom_css": null}, {"id": 13065, "slack_id": "U093JBJ0KM3", "display_name": "Shailesh Singh", "bio": null, "projects_count": 0, "devlogs_count": 0, "votes_count": 0, "ships_count": 0, "projects": [], "coding_time_seconds": 0, "coding_time_seconds_today": 0, "balance": "You need to have a pocket watcher badge to view this.", "badges": [], "created_at": "2025-06-29T20:45:07.119-04:00", "updated_at": "2025-07-03T20:06:18.863-04:00", "avatar": "https://secure.gravatar.com/avatar/95fd9f0c104315f2e02d59b233f48a55.jpg?s=512&d=https%3A%2F%2Fa.slack-edge.com%2Fdf10d%2Fimg%2Favatars%2Fava_0007-512.png", "custom_css": null}, {"id": 13066, "slack_id": "U09363CJML7", "display_name": "Siddhant", "bio": null, "projects_count": 0, "devlogs_count": 0, "votes_count": 0, "ships_count": 0, "projects": [], "coding_time_seconds": 0, "coding_time_seconds_today": 0, "balance": "You need to have a pocket watcher badge to view this.", "badges": [], "created_at": "2025-06-29T20:48:03.431-04:00", "updated_at": "2025-07-07T08:14:19.810-04:00", "avatar": "https://secure.gravatar.com/avatar/dbe2047ddb47100fb2cf94ec900fe640.jpg?s=512&d=https%3A%2F%2Fa.slack-edge.com%2Fdf10d%2Fimg%2Favatars%2Fava_0024-512.png", "custom_css": null}, {"id": 13067, "slack_id": "U093JC5MPK7", "display_name": "Arnav Vedula", "bio": null, "projects_count": 1, "devlogs_count": 1, "votes_count": 0, "ships_count": 0, "projects": [{"id": 8527, "title": "Study App", "devlogs_count": 1, "created_at": "2025-07-27T23:48:47.268-04:00"}], "coding_time_seconds": 171542, "coding_time_seconds_today": 0, "balance": "You need to have a pocket watcher badge to view this.", "badges": [], "created_at": "2025-06-29T20:52:43.145-04:00", "updated_at": "2025-07-04T02:33:17.323-04:00", "avatar": "https://secure.gravatar.com/avatar/1eea2a268fef657d0f913042d16e8015.jpg?s=512&d=https%3A%2F%2Fa.slack-edge.com%2Fdf10d%2Fimg%2Favatars%2Fava_0013-512.png", "custom_css": null}, {"id": 13068, "slack_id": "U093MCPAUNQ", "display_name": "Parth", "bio": null, "projects_count": 2, "devlogs_count": 5, "votes_count": 0, "ships_count": 0, "projects": [{"id": 4624, "title": "DOTS", "devlogs_count": 2, "created_at": "2025-06-30T22:28:25.737-04:00"}, {"id": 8405, "title": "Study App", "devlogs_count": 3, "created_at": "2025-07-26T22:23:37.626-04:00"}], "coding_time_seconds": 238989, "coding_time_seconds_today": 0, "balance": "You need to have a pocket watcher badge to view this.", "badges": [], "created_at": "2025-06-29T21:01:16.607-04:00", "updated_at": "2025-07-03T20:06:19.389-04:00", "avatar": "https://secure.gravatar.com/avatar/29d679ada5ffdd9fcd79fd48382d2807.jpg?s=512&d=https%3A%2F%2Fa.slack-edge.com%2Fdf10d%2Fimg%2Favatars%2Fava_0006-512.png", "custom_css": null}, {"id": 13069, "slack_id": "U092HR0GL69", "display_name": "Evan Yeung", "bio": null, "projects_count": 0, "devlogs_count": 0, "votes_count": 0, "ships_count": 0, "projects": [], "coding_time_seconds": 0, "coding_time_seconds_today": 0, "balance": "You need to have a pocket watcher badge to view this.", "badges": [], "created_at": "2025-06-29T21:09:40.503-04:00", "updated_at": "2025-07-03T20:06:19.649-04:00", "avatar": "https://secure.gravatar.com/avatar/0229eac38ebbf50bba6d53fe0446b765.jpg?s=512&d=https%3A%2F%2Fa.slack-edge.com%2Fdf10d%2Fimg%2Favatars%2Fava_0021-512.png", "custom_css": null}, {"id": 13070, "slack_id": "U093LB9ER5G", "display_name": "Omkaar Sampigeadi", "bio": null, "projects_count": 1, "devlogs_count": 5, "votes_count": 9, "ships_count": 1, "projects": [{"id": 4912, "title": "AMCraft: A Web Application", "devlogs_count": 5, "created_at": "2025-07-02T07:16:34.101-04:00"}], "coding_time_seconds": 129020, "coding_time_seconds_today": 0, "balance": "You need to have a pocket watcher badge to view this.", "badges": [{"name": "Maiden Voyage", "text": "you shipped your first project! the journey begins...", "icon": "\ud83d\udea2"}], "created_at": "2025-06-29T21:20:28.925-04:00", "updated_at": "2025-09-22T16:52:53.532-04:00", "avatar": "https://secure.gravatar.com/avatar/d8cae3a7b3893341191432ff382a1cb9.jpg?s=512&d=https%3A%2F%2Fa.slack-edge.com%2Fdf10d%2Fimg%2Favatars%2Fava_0012-512.png", "custom_css": null}, {"id": 13071, "slack_id": "U080KQB8CFK", "display_name": "Laurens", "bio": null, "projects_count": 1, "devlogs_count": 0, "votes_count": 0, "ships_count": 0, "projects": [{"id": 4578, "title": "Owe Mate", "devlogs_count": 0, "created_at": "2025-06-30T18:17:58.623-04:00"}], "coding_time_seconds": 38351, "coding_time_seconds_today": 0, "balance": "You need to have a pocket watcher badge to view this.", "badges": [], "created_at": "2025-06-29T21:23:26.253-04:00", "updated_at": "2025-07-03T20:06:20.184-04:00", "avatar": "https://avatars.slack-edge.com/2025-05-11/8876332752421_18ac9987fbc96025bef5_original.png", "custom_css": null}, {"id": 13072, "slack_id": "U079BBUFAD8", "display_name": "Ayo", "bio": null, "projects_count": 1, "devlogs_count": 2, "votes_count": 3, "ships_count": 1, "projects": [{"id": 4544, "title": "Linked List", "devlogs_count": 2, "created_at": "2025-06-30T14:46:21.230-04:00"}], "coding_time_seconds": 28856, "coding_time_seconds_today": 0, "balance": "You need to have a pocket watcher badge to view this.", "badges": [{"name": "Maiden Voyage", "text": "you shipped your first project! the journey begins...", "icon": "\ud83d\udea2"}], "created_at": "2025-06-29T21:27:56.755-04:00", "updated_at": "2025-09-12T21:06:55.884-04:00", "avatar": "https://secure.gravatar.com/avatar/da0e91accecb6f88a6b2a2dc8ef6575f.jpg?s=512&d=https%3A%2F%2Fa.slack-edge.com%2Fdf10d%2Fimg%2Favatars%2Fava_0025-512.png", "custom_css": null}, {"id": 13073, "slack_id": "U093F1N8FCN", "display_name": "Yazan Al Nirab", "bio": null, "projects_count": 0, "devlogs_count": 0, "votes_count": 0, "ships_count": 0, "projects": [], "coding_time_seconds": 0, "coding_time_seconds_today": 0, "balance": "You need to have a pocket watcher badge to view this.", "badges": [], "created_at": "2025-06-29T21:38:39.316-04:00", "updated_at": "2025-07-03T20:06:20.728-04:00", "avatar": "https://secure.gravatar.com/avatar/84a7188286d854b93041d56756b7540d.jpg?s=512&d=https%3A%2F%2Fa.slack-edge.com%2Fdf10d%2Fimg%2Favatars%2Fava_0015-512.png", "custom_css": null}, {"id": 13074, "slack_id": "U093MGHDM9A", "display_name": "kronyx", "bio": null, "projects_count": 0, "devlogs_count": 0, "votes_count": 0, "ships_count": 0, "projects": [], "coding_time_seconds": 0, "coding_time_seconds_today": 0, "balance": "You need to have a pocket watcher badge to view this.", "badges": [], "created_at": "2025-06-29T21:51:41.165-04:00", "updated_at": "2025-07-25T06:44:01.366-04:00", "avatar": "https://avatars.slack-edge.com/2025-06-30/9123853813396_e482dcc41cabbed97aeb_original.png", "custom_css": null}, {"id": 13075, "slack_id": "U093MH7C22G", "display_name": "yatra", "bio": null, "projects_count": 0, "devlogs_count": 0, "votes_count": 0, "ships_count": 0, "projects": [], "coding_time_seconds": 0, "coding_time_seconds_today": 0, "balance": "You need to have a pocket watcher badge to view this.", "badges": [], "created_at": "2025-06-29T22:09:04.278-04:00", "updated_at": "2025-07-03T20:06:21.276-04:00", "avatar": "https://avatars.slack-edge.com/2025-06-29/9123629983316_284b5fec24f00c5ca640_original.jpg", "custom_css": null}, {"id": 13076, "slack_id": "U093ZER3YQ1", "display_name": "Gabriella.A", "bio": null, "projects_count": 3, "devlogs_count": 1, "votes_count": 0, "ships_count": 0, "projects": [{"id": 7332, "title": "Hand held milk foamer", "devlogs_count": 1, "created_at": "2025-07-21T02:28:56.163-04:00"}, {"id": 7333, "title": "Hand held milk foamer", "devlogs_count": 0, "created_at": "2025-07-21T02:28:57.244-04:00"}, {"id": 5363, "title": "Digital Command Center", "devlogs_count": 0, "created_at": "2025-07-04T18:55:10.368-04:00"}], "coding_time_seconds": 7377, "coding_time_seconds_today": 0, "balance": "You need to have a pocket watcher badge to view this.", "badges": [], "created_at": "2025-06-29T22:14:26.508-04:00", "updated_at": "2025-07-21T03:08:36.876-04:00", "avatar": "https://avatars.slack-edge.com/2025-07-20/9212435611143_004545062f68027e0081_original.png", "custom_css": null}, {"id": 13077, "slack_id": "U08RS58GL6A", "display_name": "alge", "bio": null, "projects_count": 0, "devlogs_count": 0, "votes_count": 0, "ships_count": 0, "projects": [], "coding_time_seconds": 0, "coding_time_seconds_today": 0, "balance": "You need to have a pocket watcher badge to view this.", "badges": [], "created_at": "2025-06-29T22:17:54.825-04:00", "updated_at": "2025-08-01T20:12:40.760-04:00", "avatar": "https://secure.gravatar.com/avatar/675a22f0097c9229838caec6de0974e3.jpg?s=512&d=https%3A%2F%2Fa.slack-edge.com%2Fdf10d%2Fimg%2Favatars%2Fava_0022-512.png", "custom_css": null}, {"id": 13078, "slack_id": "U0948G78VHN", "display_name": "akemi", "bio": null, "projects_count": 0, "devlogs_count": 0, "votes_count": 0, "ships_count": 0, "projects": [], "coding_time_seconds": 0, "coding_time_seconds_today": 0, "balance": "You need to have a pocket watcher badge to view this.", "badges": [], "created_at": "2025-06-29T22:22:34.188-04:00", "updated_at": "2025-07-03T20:06:22.074-04:00", "avatar": "https://avatars.slack-edge.com/2025-06-30/9135928424433_6ac6b4f41d6efb7b03ef_original.jpg", "custom_css": null}, {"id": 13079, "slack_id": "U093YC2HUDP", "display_name": "Liam Domaleczny", "bio": null, "projects_count": 0, "devlogs_count": 0, "votes_count": 0, "ships_count": 0, "projects": [], "coding_time_seconds": 4046, "coding_time_seconds_today": 0, "balance": "You need to have a pocket watcher badge to view this.", "badges": [], "created_at": "2025-06-29T22:33:06.363-04:00", "updated_at": "2025-07-07T07:28:49.069-04:00", "avatar": "https://avatars.slack-edge.com/2025-06-29/9122589823906_46795780ab51363af080_original.png", "custom_css": null}, {"id": 13080, "slack_id": "U076WBQK29J", "display_name": "Suryansh", "bio": null, "projects_count": 0, "devlogs_count": 0, "votes_count": 0, "ships_count": 0, "projects": [], "coding_time_seconds": 0, "coding_time_seconds_today": 0, "balance": "You need to have a pocket watcher badge to view this.", "badges": [], "created_at": "2025-06-29T22:39:04.064-04:00", "updated_at": "2025-07-03T20:06:22.679-04:00", "avatar": "https://avatars.slack-edge.com/2024-06-07/7225682495351_a7e89a3685e840e89e73_original.png", "custom_css": null}], "pagination": {"page": 654, "pages": 1192, "count": 23828, "items": 20}}