{"users": [{"id": 13081, "slack_id": "U093DJUDP6F", "display_name": "Prithvi Chhipa", "bio": "", "projects_count": 0, "devlogs_count": 77, "votes_count": 45, "ships_count": 0, "projects": [], "coding_time_seconds": 1546108, "coding_time_seconds_today": 0, "balance": "You need to have a pocket watcher badge to view this.", "badges": [{"name": "Maiden Voyage", "text": "you shipped your first project! the journey begins...", "icon": "\ud83d\udea2"}, {"name": "Ballot Stuffer", "text": "vote 100 times.", "icon": "https://summer.hackclub.com/assets/i_voted-bf851b48.png"}], "created_at": "2025-06-29T22:39:04.583-04:00", "updated_at": "2025-09-10T22:57:42.882-04:00", "avatar": "https://avatars.slack-edge.com/2025-08-07/9311361295910_7e57a55254f91cf5a8d1_original.jpg", "custom_css": null}, {"id": 13082, "slack_id": "U0936CNQLCF", "display_name": "slqnt", "bio": null, "projects_count": 0, "devlogs_count": 0, "votes_count": 0, "ships_count": 0, "projects": [], "coding_time_seconds": 0, "coding_time_seconds_today": 0, "balance": "You need to have a pocket watcher badge to view this.", "badges": [], "created_at": "2025-06-29T22:45:02.525-04:00", "updated_at": "2025-07-03T20:06:23.238-04:00", "avatar": "https://avatars.slack-edge.com/2025-06-29/9122627423010_92624db44b221a3b5e65_original.jpg", "custom_css": null}, {"id": 13083, "slack_id": "U07D8ESMZBP", "display_name": "SemicolonUnexpected", "bio": null, "projects_count": 0, "devlogs_count": 0, "votes_count": 0, "ships_count": 0, "projects": [], "coding_time_seconds": 135542, "coding_time_seconds_today": 915, "balance": "You need to have a pocket watcher badge to view this.", "badges": [], "created_at": "2025-06-29T22:47:57.889-04:00", "updated_at": "2025-08-09T10:26:22.740-04:00", "avatar": "https://secure.gravatar.com/avatar/cd754438217b261234f392fcd123f376.jpg?s=512&d=https%3A%2F%2Fa.slack-edge.com%2Fdf10d%2Fimg%2Favatars%2Fava_0010-512.png", "custom_css": null}, {"id": 13084, "slack_id": "U093F7ZBWP8", "display_name": "\u5434\u4e1c", "bio": null, "projects_count": 0, "devlogs_count": 0, "votes_count": 0, "ships_count": 0, "projects": [], "coding_time_seconds": 0, "coding_time_seconds_today": 0, "balance": "You need to have a pocket watcher badge to view this.", "badges": [], "created_at": "2025-06-29T22:52:52.912-04:00", "updated_at": "2025-07-06T20:14:48.120-04:00", "avatar": "https://avatars.slack-edge.com/2025-06-30/9108478247063_e2941d1b33c97649ba5a_original.png", "custom_css": null}, {"id": 13085, "slack_id": "U06U806NCMA", "display_name": "Hi", "bio": null, "projects_count": 0, "devlogs_count": 0, "votes_count": 0, "ships_count": 0, "projects": [], "coding_time_seconds": 7049, "coding_time_seconds_today": 0, "balance": "You need to have a pocket watcher badge to view this.", "badges": [], "created_at": "2025-06-29T22:55:56.478-04:00", "updated_at": "2025-07-03T20:06:23.911-04:00", "avatar": "https://avatars.slack-edge.com/2024-04-12/6954626310837_8fae5a860a09ab54b870_original.png", "custom_css": null}, {"id": 13086, "slack_id": "U093JSL0DBP", "display_name": "Adarsh ramgirwar", "bio": null, "projects_count": 0, "devlogs_count": 0, "votes_count": 0, "ships_count": 0, "projects": [], "coding_time_seconds": 0, "coding_time_seconds_today": 0, "balance": "You need to have a pocket watcher badge to view this.", "badges": [], "created_at": "2025-06-29T23:56:38.002-04:00", "updated_at": "2025-07-03T20:06:24.169-04:00", "avatar": "https://secure.gravatar.com/avatar/35b598bcffe8129bc73395dc32e9c57e.jpg?s=512&d=https%3A%2F%2Fa.slack-edge.com%2Fdf10d%2Fimg%2Favatars%2Fava_0005-512.png", "custom_css": null}, {"id": 13087, "slack_id": "U093DS7GLUT", "display_name": "\u0110inh Tu\u1ea5n Minh", "bio": null, "projects_count": 0, "devlogs_count": 0, "votes_count": 0, "ships_count": 0, "projects": [], "coding_time_seconds": 78940, "coding_time_seconds_today": 0, "balance": "You need to have a pocket watcher badge to view this.", "badges": [], "created_at": "2025-06-30T00:12:48.510-04:00", "updated_at": "2025-07-03T20:06:24.440-04:00", "avatar": "https://secure.gravatar.com/avatar/39f6824f57487a832b917a89b0fb6568.jpg?s=512&d=https%3A%2F%2Fa.slack-edge.com%2Fdf10d%2Fimg%2Favatars%2Fava_0004-512.png", "custom_css": null}, {"id": 13088, "slack_id": "U093MG4RE3W", "display_name": "alan", "bio": null, "projects_count": 0, "devlogs_count": 0, "votes_count": 0, "ships_count": 0, "projects": [], "coding_time_seconds": 0, "coding_time_seconds_today": 0, "balance": "You need to have a pocket watcher badge to view this.", "badges": [], "created_at": "2025-06-30T00:17:03.330-04:00", "updated_at": "2025-07-04T08:29:35.532-04:00", "avatar": "https://secure.gravatar.com/avatar/52fe51e46634b1df8d5051316c59a00e.jpg?s=512&d=https%3A%2F%2Fa.slack-edge.com%2Fdf10d%2Fimg%2Favatars%2Fava_0024-512.png", "custom_css": null}, {"id": 13089, "slack_id": "U093LRZ0RJN", "display_name": "Ansh", "bio": null, "projects_count": 1, "devlogs_count": 1, "votes_count": 14, "ships_count": 1, "projects": [{"id": 9942, "title": "Scratchy_Whiteboard", "devlogs_count": 1, "created_at": "2025-08-03T03:19:15.990-04:00"}], "coding_time_seconds": 28161, "coding_time_seconds_today": 0, "balance": "You need to have a pocket watcher badge to view this.", "badges": [{"name": "Maiden Voyage", "text": "you shipped your first project! the journey begins...", "icon": "\ud83d\udea2"}], "created_at": "2025-06-30T00:32:10.732-04:00", "updated_at": "2025-09-10T22:57:43.082-04:00", "avatar": "https://avatars.slack-edge.com/2025-06-29/9122903009362_e57583b6b2453635c920_original.png", "custom_css": null}, {"id": 13090, "slack_id": "U0922A5QJ3F", "display_name": "Dhairya Shah", "bio": null, "projects_count": 6, "devlogs_count": 9, "votes_count": 10, "ships_count": 1, "projects": [{"id": 5751, "title": "RequiStore", "devlogs_count": 1, "created_at": "2025-07-07T17:16:07.829-04:00"}, {"id": 7323, "title": "Dotfiles", "devlogs_count": 2, "created_at": "2025-07-20T23:57:51.149-04:00"}, {"id": 9378, "title": "Rift", "devlogs_count": 0, "created_at": "2025-07-31T22:44:17.457-04:00"}, {"id": 13601, "title": "Stride", "devlogs_count": 1, "created_at": "2025-09-20T13:52:11.179-04:00"}, {"id": 5342, "title": "Glade", "devlogs_count": 4, "created_at": "2025-07-04T15:28:44.277-04:00"}, {"id": 13711, "title": "Raspite", "devlogs_count": 0, "created_at": "2025-09-23T12:56:36.102-04:00"}], "coding_time_seconds": 450836, "coding_time_seconds_today": 0, "balance": "You need to have a pocket watcher badge to view this.", "badges": [{"name": "Maiden Voyage", "text": "you shipped your first project! the journey begins...", "icon": "\ud83d\udea2"}], "created_at": "2025-06-30T01:01:01.917-04:00", "updated_at": "2025-09-20T14:12:57.524-04:00", "avatar": "https://secure.gravatar.com/avatar/12dcea989b6a2931963f857422a5bf18.jpg?s=512&d=https%3A%2F%2Fa.slack-edge.com%2Fdf10d%2Fimg%2Favatars%2Fava_0006-512.png", "custom_css": null}, {"id": 13091, "slack_id": "U093FL59N8N", "display_name": "Anant", "bio": null, "projects_count": 0, "devlogs_count": 0, "votes_count": 0, "ships_count": 0, "projects": [], "coding_time_seconds": 0, "coding_time_seconds_today": 0, "balance": "You need to have a pocket watcher badge to view this.", "badges": [], "created_at": "2025-06-30T01:17:13.022-04:00", "updated_at": "2025-07-05T02:14:32.992-04:00", "avatar": "https://secure.gravatar.com/avatar/5b78f28185a983334f599ce8b65889ff.jpg?s=512&d=https%3A%2F%2Fa.slack-edge.com%2Fdf10d%2Fimg%2Favatars%2Fava_0001-512.png", "custom_css": null}, {"id": 13092, "slack_id": "U093E2PL003", "display_name": "Sadik", "bio": null, "projects_count": 0, "devlogs_count": 0, "votes_count": 0, "ships_count": 0, "projects": [], "coding_time_seconds": 0, "coding_time_seconds_today": 0, "balance": "You need to have a pocket watcher badge to view this.", "badges": [], "created_at": "2025-06-30T01:23:02.881-04:00", "updated_at": "2025-07-03T20:06:25.364-04:00", "avatar": "https://secure.gravatar.com/avatar/52f0500aef1a9db86501f023e6d3f3e8.jpg?s=512&d=https%3A%2F%2Fa.slack-edge.com%2Fdf10d%2Fimg%2Favatars%2Fava_0008-512.png", "custom_css": null}, {"id": 13093, "slack_id": "U0936JTMMM5", "display_name": "Riley Dowse", "bio": null, "projects_count": 0, "devlogs_count": 0, "votes_count": 0, "ships_count": 0, "projects": [], "coding_time_seconds": 16761, "coding_time_seconds_today": 0, "balance": "You need to have a pocket watcher badge to view this.", "badges": [], "created_at": "2025-06-30T01:31:37.197-04:00", "updated_at": "2025-09-17T01:41:20.982-04:00", "avatar": "https://avatars.slack-edge.com/2025-06-29/9145068879264_5da0855930fe1c695f94_original.png", "custom_css": null}, {"id": 13094, "slack_id": "U093NBU7SDS", "display_name": "Liam Smith", "bio": null, "projects_count": 0, "devlogs_count": 0, "votes_count": 0, "ships_count": 0, "projects": [], "coding_time_seconds": 0, "coding_time_seconds_today": 0, "balance": "You need to have a pocket watcher badge to view this.", "badges": [], "created_at": "2025-06-30T02:28:55.872-04:00", "updated_at": "2025-09-07T23:53:56.565-04:00", "avatar": "https://secure.gravatar.com/avatar/ef01cf4a5d8172c70280520f9ee98e50.jpg?s=512&d=https%3A%2F%2Fa.slack-edge.com%2Fdf10d%2Fimg%2Favatars%2Fava_0003-512.png", "custom_css": null}, {"id": 13095, "slack_id": "U093NBS4D0C", "display_name": "Olha", "bio": null, "projects_count": 0, "devlogs_count": 0, "votes_count": 0, "ships_count": 0, "projects": [], "coding_time_seconds": 0, "coding_time_seconds_today": 0, "balance": "You need to have a pocket watcher badge to view this.", "badges": [], "created_at": "2025-06-30T02:29:52.819-04:00", "updated_at": "2025-07-03T20:06:26.185-04:00", "avatar": "https://avatars.slack-edge.com/2025-06-30/9121457656245_05ca2a54215944109ab1_original.png", "custom_css": null}, {"id": 13096, "slack_id": "U093G15NU86", "display_name": "Rashmi Rajkumar", "bio": null, "projects_count": 0, "devlogs_count": 0, "votes_count": 0, "ships_count": 0, "projects": [], "coding_time_seconds": 0, "coding_time_seconds_today": 0, "balance": "You need to have a pocket watcher badge to view this.", "badges": [], "created_at": "2025-06-30T02:53:49.511-04:00", "updated_at": "2025-07-03T22:04:02.162-04:00", "avatar": "https://avatars.slack-edge.com/2025-06-29/9118055940390_f503d88c0896e9628529_original.jpg", "custom_css": null}, {"id": 13097, "slack_id": "U093ECYRL1Z", "display_name": "Harrison", "bio": "", "projects_count": 1, "devlogs_count": 2, "votes_count": 27, "ships_count": 1, "projects": [{"id": 8293, "title": "Caveborn", "devlogs_count": 2, "created_at": "2025-07-26T03:05:19.692-04:00"}], "coding_time_seconds": 93240, "coding_time_seconds_today": 2181, "balance": "You need to have a pocket watcher badge to view this.", "badges": [{"name": "Maiden Voyage", "text": "you shipped your first project! the journey begins...", "icon": "\ud83d\udea2"}], "created_at": "2025-06-30T02:59:18.375-04:00", "updated_at": "2025-09-10T22:57:43.287-04:00", "avatar": "https://secure.gravatar.com/avatar/fdc9b906c2ac2052b13930052ad171cb.jpg?s=512&d=https%3A%2F%2Fa.slack-edge.com%2Fdf10d%2Fimg%2Favatars%2Fava_0019-512.png", "custom_css": null}, {"id": 13098, "slack_id": "U093KHSD2P7", "display_name": "Arshad Ansari", "bio": null, "projects_count": 0, "devlogs_count": 0, "votes_count": 0, "ships_count": 0, "projects": [], "coding_time_seconds": 0, "coding_time_seconds_today": 0, "balance": "You need to have a pocket watcher badge to view this.", "badges": [], "created_at": "2025-06-30T03:24:21.447-04:00", "updated_at": "2025-07-03T20:06:26.880-04:00", "avatar": "https://secure.gravatar.com/avatar/1f57a3b1e57a2e932b5db24bf8c48fd3.jpg?s=512&d=https%3A%2F%2Fa.slack-edge.com%2Fdf10d%2Fimg%2Favatars%2Fava_0018-512.png", "custom_css": null}, {"id": 13099, "slack_id": "U0937EQ1PBR", "display_name": "Noah Pescozo", "bio": null, "projects_count": 0, "devlogs_count": 0, "votes_count": 0, "ships_count": 0, "projects": [], "coding_time_seconds": 0, "coding_time_seconds_today": 0, "balance": "You need to have a pocket watcher badge to view this.", "badges": [], "created_at": "2025-06-30T03:58:09.531-04:00", "updated_at": "2025-07-03T20:06:27.140-04:00", "avatar": "https://secure.gravatar.com/avatar/1f718a7879564538637ad14051950cd3.jpg?s=512&d=https%3A%2F%2Fa.slack-edge.com%2Fdf10d%2Fimg%2Favatars%2Fava_0024-512.png", "custom_css": null}, {"id": 13100, "slack_id": "U093NR4NN20", "display_name": "Pikachu", "bio": null, "projects_count": 2, "devlogs_count": 3, "votes_count": 4, "ships_count": 2, "projects": [{"id": 4932, "title": "Freax", "devlogs_count": 2, "created_at": "2025-07-02T09:17:02.625-04:00"}, {"id": 11871, "title": "gh-dlp", "devlogs_count": 1, "created_at": "2025-08-20T13:48:24.781-04:00"}], "coding_time_seconds": 466368, "coding_time_seconds_today": 624, "balance": "You need to have a pocket watcher badge to view this.", "badges": [{"name": "Maiden Voyage", "text": "you shipped your first project! the journey begins...", "icon": "\ud83d\udea2"}], "created_at": "2025-06-30T04:06:17.978-04:00", "updated_at": "2025-09-10T22:57:43.347-04:00", "avatar": "https://avatars.slack-edge.com/2025-06-30/9118569235638_a7057bba3ec1e97d2232_original.jpg", "custom_css": null}], "pagination": {"page": 655, "pages": 1192, "count": 23828, "items": 20}}