{"users": [{"id": 13121, "slack_id": "U093HCH6XAA", "display_name": "Wow_doge", "bio": null, "projects_count": 0, "devlogs_count": 0, "votes_count": 0, "ships_count": 0, "projects": [], "coding_time_seconds": 0, "coding_time_seconds_today": 0, "balance": "You need to have a pocket watcher badge to view this.", "badges": [], "created_at": "2025-06-30T07:39:01.536-04:00", "updated_at": "2025-07-03T20:06:32.679-04:00", "avatar": "https://secure.gravatar.com/avatar/aae28210d1f68709c666887c7f862e94.jpg?s=512&d=https%3A%2F%2Fa.slack-edge.com%2Fdf10d%2Fimg%2Favatars%2Fava_0018-512.png", "custom_css": null}, {"id": 13122, "slack_id": "U093FNM1M43", "display_name": "sharan", "bio": null, "projects_count": 0, "devlogs_count": 0, "votes_count": 0, "ships_count": 0, "projects": [], "coding_time_seconds": 0, "coding_time_seconds_today": 0, "balance": "You need to have a pocket watcher badge to view this.", "badges": [], "created_at": "2025-06-30T07:51:27.336-04:00", "updated_at": "2025-07-03T20:06:32.947-04:00", "avatar": "https://secure.gravatar.com/avatar/bdcdfa978caf9e87cf1bcaeedadb1412.jpg?s=512&d=https%3A%2F%2Fa.slack-edge.com%2Fdf10d%2Fimg%2Favatars%2Fava_0005-512.png", "custom_css": null}, {"id": 13123, "slack_id": "U091VPYJD8U", "display_name": "Xoychte", "bio": "French student, MPI* Champollion, Grenoble\r\n", "projects_count": 2, "devlogs_count": 9, "votes_count": 66, "ships_count": 1, "projects": [{"id": 4506, "title": "LIDAR-based pathfinding", "devlogs_count": 0, "created_at": "2025-06-30T10:59:33.467-04:00"}, {"id": 5154, "title": "RayBagnole", "devlogs_count": 9, "created_at": "2025-07-03T13:49:34.293-04:00"}], "coding_time_seconds": 129680, "coding_time_seconds_today": 0, "balance": "You need to have a pocket watcher badge to view this.", "badges": [{"name": "Maiden Voyage", "text": "you shipped your first project! the journey begins...", "icon": "\ud83d\udea2"}], "created_at": "2025-06-30T07:57:37.987-04:00", "updated_at": "2025-09-10T22:57:43.948-04:00", "avatar": "https://secure.gravatar.com/avatar/78aa23c2ab3626c2dce5e95276305471.jpg?s=512&d=https%3A%2F%2Fa.slack-edge.com%2Fdf10d%2Fimg%2Favatars%2Fava_0007-512.png", "custom_css": null}, {"id": 13124, "slack_id": "U093M0NALA1", "display_name": "Kafaa Billahi Syahida", "bio": null, "projects_count": 0, "devlogs_count": 0, "votes_count": 0, "ships_count": 0, "projects": [], "coding_time_seconds": 2232, "coding_time_seconds_today": 0, "balance": "You need to have a pocket watcher badge to view this.", "badges": [], "created_at": "2025-06-30T08:34:10.337-04:00", "updated_at": "2025-07-03T20:06:33.347-04:00", "avatar": "https://secure.gravatar.com/avatar/85f10aac19fd6f950a7dd48acb9c215d.jpg?s=512&d=https%3A%2F%2Fa.slack-edge.com%2Fdf10d%2Fimg%2Favatars%2Fava_0026-512.png", "custom_css": null}, {"id": 13125, "slack_id": "U093HNMM65T", "display_name": "Queryzi", "bio": null, "projects_count": 0, "devlogs_count": 0, "votes_count": 0, "ships_count": 0, "projects": [], "coding_time_seconds": 0, "coding_time_seconds_today": 0, "balance": "You need to have a pocket watcher badge to view this.", "badges": [], "created_at": "2025-06-30T08:57:09.522-04:00", "updated_at": "2025-07-04T08:29:38.047-04:00", "avatar": "https://secure.gravatar.com/avatar/6e5e7cc1a4a87c3b618c21b33fe36130.jpg?s=512&d=https%3A%2F%2Fa.slack-edge.com%2Fdf10d%2Fimg%2Favatars%2Fava_0026-512.png", "custom_css": null}, {"id": 13126, "slack_id": "U094B1SAU72", "display_name": "martina marconi", "bio": null, "projects_count": 0, "devlogs_count": 0, "votes_count": 0, "ships_count": 0, "projects": [], "coding_time_seconds": 32353, "coding_time_seconds_today": 0, "balance": "You need to have a pocket watcher badge to view this.", "badges": [], "created_at": "2025-06-30T09:00:40.129-04:00", "updated_at": "2025-07-03T20:06:33.739-04:00", "avatar": "https://secure.gravatar.com/avatar/a87df167ca6fac7e7c5d1ae2e1892313.jpg?s=512&d=https%3A%2F%2Fa.slack-edge.com%2Fdf10d%2Fimg%2Favatars%2Fava_0014-512.png", "custom_css": null}, {"id": 13127, "slack_id": "U093G6S7CNP", "display_name": "Muhammad Umair", "bio": null, "projects_count": 0, "devlogs_count": 0, "votes_count": 0, "ships_count": 0, "projects": [], "coding_time_seconds": 0, "coding_time_seconds_today": 0, "balance": "You need to have a pocket watcher badge to view this.", "badges": [], "created_at": "2025-06-30T09:24:34.160-04:00", "updated_at": "2025-07-08T03:07:58.493-04:00", "avatar": "https://secure.gravatar.com/avatar/398debb9d72a2aa7abc990a6fb4ac76b.jpg?s=512&d=https%3A%2F%2Fa.slack-edge.com%2Fdf10d%2Fimg%2Favatars%2Fava_0022-512.png", "custom_css": null}, {"id": 13128, "slack_id": "U091XAHLH4H", "display_name": "marie animation friends", "bio": null, "projects_count": 0, "devlogs_count": 0, "votes_count": 0, "ships_count": 0, "projects": [], "coding_time_seconds": 0, "coding_time_seconds_today": 0, "balance": "You need to have a pocket watcher badge to view this.", "badges": [], "created_at": "2025-06-30T09:28:48.243-04:00", "updated_at": "2025-07-03T20:06:34.132-04:00", "avatar": "https://avatars.slack-edge.com/2025-06-30/9147253847072_3778e05750beb45e0924_original.png", "custom_css": null}, {"id": 13129, "slack_id": "U0942387TPB", "display_name": "\ubc15\ud0dc\ubbfc", "bio": null, "projects_count": 0, "devlogs_count": 0, "votes_count": 0, "ships_count": 0, "projects": [], "coding_time_seconds": 0, "coding_time_seconds_today": 0, "balance": "You need to have a pocket watcher badge to view this.", "badges": [], "created_at": "2025-06-30T09:32:25.559-04:00", "updated_at": "2025-07-03T20:06:34.476-04:00", "avatar": "https://avatars.slack-edge.com/2025-06-30/9111187682151_fa7e8f2537f65c4eb22f_original.png", "custom_css": null}, {"id": 13130, "slack_id": "U093G9B4D8B", "display_name": "Gian Lucca", "bio": null, "projects_count": 0, "devlogs_count": 0, "votes_count": 0, "ships_count": 0, "projects": [], "coding_time_seconds": 0, "coding_time_seconds_today": 0, "balance": "You need to have a pocket watcher badge to view this.", "badges": [], "created_at": "2025-06-30T09:39:45.409-04:00", "updated_at": "2025-07-03T20:06:34.747-04:00", "avatar": "https://secure.gravatar.com/avatar/b2dca5f9497bdbfefe14c361c1ddd68a.jpg?s=512&d=https%3A%2F%2Fa.slack-edge.com%2Fdf10d%2Fimg%2Favatars%2Fava_0000-512.png", "custom_css": null}, {"id": 13131, "slack_id": "U093G9G4A8K", "display_name": "Daniel Ik", "bio": null, "projects_count": 0, "devlogs_count": 0, "votes_count": 0, "ships_count": 0, "projects": [], "coding_time_seconds": 0, "coding_time_seconds_today": 0, "balance": "You need to have a pocket watcher badge to view this.", "badges": [], "created_at": "2025-06-30T09:40:34.493-04:00", "updated_at": "2025-07-03T20:06:35.019-04:00", "avatar": "https://secure.gravatar.com/avatar/5209feb1c2c758d1ccbd8b5eb9e701ea.jpg?s=512&d=https%3A%2F%2Fa.slack-edge.com%2Fdf10d%2Fimg%2Favatars%2Fava_0005-512.png", "custom_css": null}, {"id": 13132, "slack_id": "U094277HCSD", "display_name": "Sandro", "bio": null, "projects_count": 0, "devlogs_count": 0, "votes_count": 0, "ships_count": 0, "projects": [], "coding_time_seconds": 14795, "coding_time_seconds_today": 0, "balance": "You need to have a pocket watcher badge to view this.", "badges": [], "created_at": "2025-06-30T09:40:49.201-04:00", "updated_at": "2025-07-03T20:06:35.286-04:00", "avatar": "https://secure.gravatar.com/avatar/974f611dce935661cb6b764baaf22563.jpg?s=512&d=https%3A%2F%2Fa.slack-edge.com%2Fdf10d%2Fimg%2Favatars%2Fava_0002-512.png", "custom_css": null}, {"id": 13133, "slack_id": "U094B992AF2", "display_name": "Enlik", "bio": null, "projects_count": 0, "devlogs_count": 0, "votes_count": 0, "ships_count": 0, "projects": [], "coding_time_seconds": 0, "coding_time_seconds_today": 0, "balance": "You need to have a pocket watcher badge to view this.", "badges": [], "created_at": "2025-06-30T09:40:56.261-04:00", "updated_at": "2025-07-03T20:06:35.548-04:00", "avatar": "https://avatars.slack-edge.com/2025-06-30/9125362130258_93b3b9d9a76635afee9f_original.jpg", "custom_css": null}, {"id": 13134, "slack_id": "U093J22FPC6", "display_name": "M\u00e1ty\u00e1s Vincze", "bio": null, "projects_count": 0, "devlogs_count": 0, "votes_count": 0, "ships_count": 0, "projects": [], "coding_time_seconds": 0, "coding_time_seconds_today": 0, "balance": "You need to have a pocket watcher badge to view this.", "badges": [], "created_at": "2025-06-30T09:40:56.343-04:00", "updated_at": "2025-07-03T20:06:35.814-04:00", "avatar": "https://avatars.slack-edge.com/2025-06-30/9126506253860_7fc1a4d3afab0be6de47_original.jpg", "custom_css": null}, {"id": 13135, "slack_id": "U093QEEEEMS", "display_name": "Sonu Babu", "bio": null, "projects_count": 0, "devlogs_count": 0, "votes_count": 0, "ships_count": 0, "projects": [], "coding_time_seconds": 0, "coding_time_seconds_today": 0, "balance": "You need to have a pocket watcher badge to view this.", "badges": [], "created_at": "2025-06-30T09:41:01.755-04:00", "updated_at": "2025-07-03T20:06:36.084-04:00", "avatar": "https://secure.gravatar.com/avatar/60bdab16f125d145cadddefd3fdc8aae.jpg?s=512&d=https%3A%2F%2Fa.slack-edge.com%2Fdf10d%2Fimg%2Favatars%2Fava_0015-512.png", "custom_css": null}, {"id": 13136, "slack_id": "U09396822BZ", "display_name": "Manish Yepuri", "bio": null, "projects_count": 0, "devlogs_count": 0, "votes_count": 0, "ships_count": 0, "projects": [], "coding_time_seconds": 0, "coding_time_seconds_today": 0, "balance": "You need to have a pocket watcher badge to view this.", "badges": [], "created_at": "2025-06-30T09:41:24.424-04:00", "updated_at": "2025-07-03T20:06:36.347-04:00", "avatar": "https://secure.gravatar.com/avatar/c40ff79bc111859e4f4b007caaf0134e.jpg?s=512&d=https%3A%2F%2Fa.slack-edge.com%2Fdf10d%2Fimg%2Favatars%2Fava_0018-512.png", "custom_css": null}, {"id": 13137, "slack_id": "U093PABC7DY", "display_name": "Antonis", "bio": null, "projects_count": 0, "devlogs_count": 0, "votes_count": 0, "ships_count": 0, "projects": [], "coding_time_seconds": 0, "coding_time_seconds_today": 0, "balance": "You need to have a pocket watcher badge to view this.", "badges": [], "created_at": "2025-06-30T09:42:11.569-04:00", "updated_at": "2025-07-03T20:06:36.611-04:00", "avatar": "https://secure.gravatar.com/avatar/1d8ce9ae3f21a641c8e22121ae2b7036.jpg?s=512&d=https%3A%2F%2Fa.slack-edge.com%2Fdf10d%2Fimg%2Favatars%2Fava_0025-512.png", "custom_css": null}, {"id": 13138, "slack_id": "U09427HAJPK", "display_name": "Jaan", "bio": null, "projects_count": 0, "devlogs_count": 0, "votes_count": 0, "ships_count": 0, "projects": [], "coding_time_seconds": 0, "coding_time_seconds_today": 0, "balance": "You need to have a pocket watcher badge to view this.", "badges": [], "created_at": "2025-06-30T09:42:31.077-04:00", "updated_at": "2025-07-03T20:06:36.885-04:00", "avatar": "https://secure.gravatar.com/avatar/b1968a7e53def41863198208c07c8bd6.jpg?s=512&d=https%3A%2F%2Fa.slack-edge.com%2Fdf10d%2Fimg%2Favatars%2Fava_0025-512.png", "custom_css": null}, {"id": 13139, "slack_id": "U06P19MEXEZ", "display_name": "Anson Chung", "bio": null, "projects_count": 2, "devlogs_count": 0, "votes_count": 0, "ships_count": 0, "projects": [{"id": 4491, "title": "Hong Kong GTFS", "devlogs_count": 0, "created_at": "2025-06-30T09:50:14.822-04:00"}, {"id": 6694, "title": "GTFS-Dense", "devlogs_count": 0, "created_at": "2025-07-15T07:04:28.413-04:00"}], "coding_time_seconds": 271077, "coding_time_seconds_today": 0, "balance": "You need to have a pocket watcher badge to view this.", "badges": [], "created_at": "2025-06-30T09:44:28.723-04:00", "updated_at": "2025-07-03T20:06:37.156-04:00", "avatar": "https://avatars.slack-edge.com/2025-04-23/8795495029940_98cb65a6431b62e0840a_original.png", "custom_css": null}, {"id": 13140, "slack_id": "U094B9L68AC", "display_name": "Maris", "bio": null, "projects_count": 0, "devlogs_count": 0, "votes_count": 0, "ships_count": 0, "projects": [], "coding_time_seconds": 0, "coding_time_seconds_today": 0, "balance": "You need to have a pocket watcher badge to view this.", "badges": [], "created_at": "2025-06-30T09:44:29.644-04:00", "updated_at": "2025-07-05T08:14:57.277-04:00", "avatar": "https://secure.gravatar.com/avatar/15c8aa3fc9f57acfe67525f98be1c8ee.jpg?s=512&d=https%3A%2F%2Fa.slack-edge.com%2Fdf10d%2Fimg%2Favatars%2Fava_0024-512.png", "custom_css": null}], "pagination": {"page": 657, "pages": 1192, "count": 23828, "items": 20}}