{"users": [{"id": 13141, "slack_id": "U0939721F55", "display_name": "Hasnain Ali", "bio": null, "projects_count": 0, "devlogs_count": 0, "votes_count": 0, "ships_count": 0, "projects": [], "coding_time_seconds": 0, "coding_time_seconds_today": 0, "balance": "You need to have a pocket watcher badge to view this.", "badges": [], "created_at": "2025-06-30T09:44:36.486-04:00", "updated_at": "2025-07-03T20:06:37.561-04:00", "avatar": "https://secure.gravatar.com/avatar/2dac99550922d341dd3c241b487c4b51.jpg?s=512&d=https%3A%2F%2Fa.slack-edge.com%2Fdf10d%2Fimg%2Favatars%2Fava_0008-512.png", "custom_css": null}, {"id": 13142, "slack_id": "U093QF4U38C", "display_name": "Alex C", "bio": null, "projects_count": 1, "devlogs_count": 4, "votes_count": 18, "ships_count": 1, "projects": [{"id": 4498, "title": "ESP32 weather Station with Android App (WIP)", "devlogs_count": 4, "created_at": "2025-06-30T10:36:29.585-04:00"}], "coding_time_seconds": 125783, "coding_time_seconds_today": 0, "balance": "You need to have a pocket watcher badge to view this.", "badges": [{"name": "Maiden Voyage", "text": "you shipped your first project! the journey begins...", "icon": "\ud83d\udea2"}], "created_at": "2025-06-30T09:44:57.487-04:00", "updated_at": "2025-09-10T22:57:44.616-04:00", "avatar": "https://secure.gravatar.com/avatar/b9d19be2d50043a02314c0f771b54ac4.jpg?s=512&d=https%3A%2F%2Fa.slack-edge.com%2Fdf10d%2Fimg%2Favatars%2Fava_0024-512.png", "custom_css": null}, {"id": 13143, "slack_id": "U093978B0J3", "display_name": "kisbAlt", "bio": null, "projects_count": 0, "devlogs_count": 0, "votes_count": 0, "ships_count": 0, "projects": [], "coding_time_seconds": 0, "coding_time_seconds_today": 0, "balance": "You need to have a pocket watcher badge to view this.", "badges": [], "created_at": "2025-06-30T09:45:24.074-04:00", "updated_at": "2025-07-03T20:06:37.972-04:00", "avatar": "https://secure.gravatar.com/avatar/b54b9fe3ae6be8dce6205b67c7c5027c.jpg?s=512&d=https%3A%2F%2Fa.slack-edge.com%2Fdf10d%2Fimg%2Favatars%2Fava_0017-512.png", "custom_css": null}, {"id": 13144, "slack_id": "U09397CCKQX", "display_name": "Ramisha", "bio": null, "projects_count": 0, "devlogs_count": 0, "votes_count": 0, "ships_count": 0, "projects": [], "coding_time_seconds": 0, "coding_time_seconds_today": 0, "balance": "You need to have a pocket watcher badge to view this.", "badges": [], "created_at": "2025-06-30T09:45:32.077-04:00", "updated_at": "2025-07-03T20:06:38.238-04:00", "avatar": "https://secure.gravatar.com/avatar/698df97f5d00f25f48761260cf766cc1.jpg?s=512&d=https%3A%2F%2Fa.slack-edge.com%2Fdf10d%2Fimg%2Favatars%2Fava_0005-512.png", "custom_css": null}, {"id": 13145, "slack_id": "U09397EL8LX", "display_name": "underscored", "bio": null, "projects_count": 0, "devlogs_count": 0, "votes_count": 0, "ships_count": 0, "projects": [], "coding_time_seconds": 105606, "coding_time_seconds_today": 0, "balance": "You need to have a pocket watcher badge to view this.", "badges": [], "created_at": "2025-06-30T09:45:42.101-04:00", "updated_at": "2025-07-03T20:06:39.111-04:00", "avatar": "https://secure.gravatar.com/avatar/49d9f2181acd361d53c43abfef1aed13.jpg?s=512&d=https%3A%2F%2Fa.slack-edge.com%2Fdf10d%2Fimg%2Favatars%2Fava_0022-512.png", "custom_css": null}, {"id": 13146, "slack_id": "U094284NWFK", "display_name": "Zimmermann Helain", "bio": null, "projects_count": 0, "devlogs_count": 0, "votes_count": 0, "ships_count": 0, "projects": [], "coding_time_seconds": 0, "coding_time_seconds_today": 0, "balance": "You need to have a pocket watcher badge to view this.", "badges": [], "created_at": "2025-06-30T09:45:58.896-04:00", "updated_at": "2025-07-03T20:06:39.372-04:00", "avatar": "https://secure.gravatar.com/avatar/8024390806e932b03db1722f8918b4d0.jpg?s=512&d=https%3A%2F%2Fa.slack-edge.com%2Fdf10d%2Fimg%2Favatars%2Fava_0011-512.png", "custom_css": null}, {"id": 13147, "slack_id": "U093QF015MJ", "display_name": "Pratham", "bio": null, "projects_count": 0, "devlogs_count": 0, "votes_count": 0, "ships_count": 0, "projects": [], "coding_time_seconds": 18939, "coding_time_seconds_today": 0, "balance": "You need to have a pocket watcher badge to view this.", "badges": [], "created_at": "2025-06-30T09:46:37.235-04:00", "updated_at": "2025-07-03T20:06:39.635-04:00", "avatar": "https://secure.gravatar.com/avatar/22f146ec389e86e3f214078eec514fcb.jpg?s=512&d=https%3A%2F%2Fa.slack-edge.com%2Fdf10d%2Fimg%2Favatars%2Fava_0015-512.png", "custom_css": null}, {"id": 13148, "slack_id": "U093GAJUGNP", "display_name": "Jesgran Dan", "bio": null, "projects_count": 0, "devlogs_count": 0, "votes_count": 0, "ships_count": 0, "projects": [], "coding_time_seconds": 25132, "coding_time_seconds_today": 0, "balance": "You need to have a pocket watcher badge to view this.", "badges": [], "created_at": "2025-06-30T09:47:35.848-04:00", "updated_at": "2025-07-03T20:06:39.898-04:00", "avatar": "https://avatars.slack-edge.com/2025-06-30/9120291410230_a8d547ec3eeb1280ff8a_original.jpg", "custom_css": null}, {"id": 13149, "slack_id": "U094289QGKB", "display_name": "Chirag Yadav", "bio": null, "projects_count": 0, "devlogs_count": 0, "votes_count": 0, "ships_count": 0, "projects": [], "coding_time_seconds": 0, "coding_time_seconds_today": 0, "balance": "You need to have a pocket watcher badge to view this.", "badges": [], "created_at": "2025-06-30T09:48:31.628-04:00", "updated_at": "2025-07-03T20:06:40.167-04:00", "avatar": "https://secure.gravatar.com/avatar/4c4ad2b4283b86105aba582c063302ce.jpg?s=512&d=https%3A%2F%2Fa.slack-edge.com%2Fdf10d%2Fimg%2Favatars%2Fava_0004-512.png", "custom_css": null}, {"id": 13150, "slack_id": "U093PBM0ZNW", "display_name": "Jakub \u0160tolba", "bio": null, "projects_count": 0, "devlogs_count": 0, "votes_count": 0, "ships_count": 0, "projects": [], "coding_time_seconds": 31603, "coding_time_seconds_today": 0, "balance": "You need to have a pocket watcher badge to view this.", "badges": [], "created_at": "2025-06-30T09:49:43.780-04:00", "updated_at": "2025-07-03T22:04:06.149-04:00", "avatar": "https://secure.gravatar.com/avatar/3fa61b7eeb72a638f913dfad718efb7d.jpg?s=512&d=https%3A%2F%2Fa.slack-edge.com%2Fdf10d%2Fimg%2Favatars%2Fava_0001-512.png", "custom_css": null}, {"id": 13151, "slack_id": "U093J2J2J78", "display_name": "Sai Lakshmi Prasanna", "bio": null, "projects_count": 0, "devlogs_count": 0, "votes_count": 0, "ships_count": 0, "projects": [], "coding_time_seconds": 0, "coding_time_seconds_today": 0, "balance": "You need to have a pocket watcher badge to view this.", "badges": [], "created_at": "2025-06-30T09:49:51.750-04:00", "updated_at": "2025-07-03T20:06:40.579-04:00", "avatar": "https://secure.gravatar.com/avatar/9ab8ea1bf73886053fb6a7b459701cf8.jpg?s=512&d=https%3A%2F%2Fa.slack-edge.com%2Fdf10d%2Fimg%2Favatars%2Fava_0008-512.png", "custom_css": null}, {"id": 13152, "slack_id": "U093985A3ST", "display_name": "Bram", "bio": null, "projects_count": 0, "devlogs_count": 0, "votes_count": 0, "ships_count": 0, "projects": [], "coding_time_seconds": 0, "coding_time_seconds_today": 0, "balance": "You need to have a pocket watcher badge to view this.", "badges": [], "created_at": "2025-06-30T09:50:16.831-04:00", "updated_at": "2025-07-03T20:06:40.845-04:00", "avatar": "https://secure.gravatar.com/avatar/b62c771524cd58a4ec9b1e03c6a91cf6.jpg?s=512&d=https%3A%2F%2Fa.slack-edge.com%2Fdf10d%2Fimg%2Favatars%2Fava_0012-512.png", "custom_css": null}, {"id": 13153, "slack_id": "U093PC4GGDQ", "display_name": "vish", "bio": null, "projects_count": 0, "devlogs_count": 0, "votes_count": 0, "ships_count": 0, "projects": [], "coding_time_seconds": 0, "coding_time_seconds_today": 0, "balance": "You need to have a pocket watcher badge to view this.", "badges": [], "created_at": "2025-06-30T09:51:56.835-04:00", "updated_at": "2025-07-03T20:06:41.134-04:00", "avatar": "https://secure.gravatar.com/avatar/5c8ad5a903557627bddd579287ec8d73.jpg?s=512&d=https%3A%2F%2Fa.slack-edge.com%2Fdf10d%2Fimg%2Favatars%2Fava_0000-512.png", "custom_css": null}, {"id": 13154, "slack_id": "U093PC509MG", "display_name": "Sami Ullah", "bio": null, "projects_count": 0, "devlogs_count": 0, "votes_count": 0, "ships_count": 0, "projects": [], "coding_time_seconds": 0, "coding_time_seconds_today": 0, "balance": "You need to have a pocket watcher badge to view this.", "badges": [], "created_at": "2025-06-30T09:52:14.215-04:00", "updated_at": "2025-07-05T08:14:58.119-04:00", "avatar": "https://secure.gravatar.com/avatar/f7ce9ccd98dd86eb2a0d1e0eaf893684.jpg?s=512&d=https%3A%2F%2Fa.slack-edge.com%2Fdf10d%2Fimg%2Favatars%2Fava_0010-512.png", "custom_css": null}, {"id": 13155, "slack_id": "U093PCB2FL2", "display_name": "Nijgururaj Ashtagi", "bio": null, "projects_count": 0, "devlogs_count": 0, "votes_count": 0, "ships_count": 0, "projects": [], "coding_time_seconds": 0, "coding_time_seconds_today": 0, "balance": "You need to have a pocket watcher badge to view this.", "badges": [], "created_at": "2025-06-30T09:52:24.422-04:00", "updated_at": "2025-07-05T14:16:19.162-04:00", "avatar": "https://secure.gravatar.com/avatar/70c5af831b9f055a517ac7a494273255.jpg?s=512&d=https%3A%2F%2Fa.slack-edge.com%2Fdf10d%2Fimg%2Favatars%2Fava_0009-512.png", "custom_css": null}, {"id": 13156, "slack_id": "U093QGBSS2Y", "display_name": "Huzefa", "bio": null, "projects_count": 0, "devlogs_count": 0, "votes_count": 0, "ships_count": 0, "projects": [], "coding_time_seconds": 0, "coding_time_seconds_today": 0, "balance": "You need to have a pocket watcher badge to view this.", "badges": [], "created_at": "2025-06-30T09:52:54.730-04:00", "updated_at": "2025-07-03T20:06:41.693-04:00", "avatar": "https://secure.gravatar.com/avatar/41edb3533efda96d848f1dd84e9ba770.jpg?s=512&d=https%3A%2F%2Fa.slack-edge.com%2Fdf10d%2Fimg%2Favatars%2Fava_0011-512.png", "custom_css": null}, {"id": 13157, "slack_id": "U093MFB6SDT", "display_name": "Ihor", "bio": null, "projects_count": 0, "devlogs_count": 0, "votes_count": 0, "ships_count": 0, "projects": [], "coding_time_seconds": 0, "coding_time_seconds_today": 0, "balance": "You need to have a pocket watcher badge to view this.", "badges": [], "created_at": "2025-06-30T09:54:14.538-04:00", "updated_at": "2025-07-03T20:06:41.952-04:00", "avatar": "https://avatars.slack-edge.com/2025-06-30/9125443157186_98c39a37613582a5db4a_original.jpg", "custom_css": null}, {"id": 13158, "slack_id": "U09429LMHSM", "display_name": "Enrico", "bio": null, "projects_count": 0, "devlogs_count": 0, "votes_count": 0, "ships_count": 0, "projects": [], "coding_time_seconds": 0, "coding_time_seconds_today": 0, "balance": "You need to have a pocket watcher badge to view this.", "badges": [], "created_at": "2025-06-30T09:54:57.003-04:00", "updated_at": "2025-07-03T20:06:42.222-04:00", "avatar": "https://secure.gravatar.com/avatar/05fcbe18534577c6260cd4825c5fa620.jpg?s=512&d=https%3A%2F%2Fa.slack-edge.com%2Fdf10d%2Fimg%2Favatars%2Fava_0016-512.png", "custom_css": null}, {"id": 13159, "slack_id": "U093995F207", "display_name": "VincentZ", "bio": null, "projects_count": 0, "devlogs_count": 0, "votes_count": 0, "ships_count": 0, "projects": [], "coding_time_seconds": 0, "coding_time_seconds_today": 0, "balance": "You need to have a pocket watcher badge to view this.", "badges": [], "created_at": "2025-06-30T09:55:37.546-04:00", "updated_at": "2025-07-03T20:06:42.493-04:00", "avatar": "https://secure.gravatar.com/avatar/ffd096a84ee3d77cb9bf8fbb59f6cff6.jpg?s=512&d=https%3A%2F%2Fa.slack-edge.com%2Fdf10d%2Fimg%2Favatars%2Fava_0006-512.png", "custom_css": null}, {"id": 13160, "slack_id": "U0941J25HL1", "display_name": "Person Biped", "bio": null, "projects_count": 0, "devlogs_count": 0, "votes_count": 0, "ships_count": 0, "projects": [], "coding_time_seconds": 0, "coding_time_seconds_today": 0, "balance": "You need to have a pocket watcher badge to view this.", "badges": [], "created_at": "2025-06-30T09:55:40.180-04:00", "updated_at": "2025-07-03T20:06:42.766-04:00", "avatar": "https://secure.gravatar.com/avatar/496f67ee22149870680ac47c6669cd81.jpg?s=512&d=https%3A%2F%2Fa.slack-edge.com%2Fdf10d%2Fimg%2Favatars%2Fava_0004-512.png", "custom_css": null}], "pagination": {"page": 658, "pages": 1192, "count": 23828, "items": 20}}