{"users": [{"id": 13161, "slack_id": "U09429LKK4H", "display_name": "Kabab33", "bio": null, "projects_count": 0, "devlogs_count": 0, "votes_count": 0, "ships_count": 0, "projects": [], "coding_time_seconds": 0, "coding_time_seconds_today": 0, "balance": "You need to have a pocket watcher badge to view this.", "badges": [], "created_at": "2025-06-30T09:56:29.253-04:00", "updated_at": "2025-08-10T12:48:01.376-04:00", "avatar": "https://secure.gravatar.com/avatar/46b5e4e025f2ae6bc67e7d33b95da03a.jpg?s=512&d=https%3A%2F%2Fa.slack-edge.com%2Fdf10d%2Fimg%2Favatars%2Fava_0008-512.png", "custom_css": null}, {"id": 13162, "slack_id": "U0942A3QU2V", "display_name": "Faustyna Marczyk", "bio": null, "projects_count": 1, "devlogs_count": 1, "votes_count": 2, "ships_count": 0, "projects": [{"id": 4517, "title": "Landing Page Analysis AI Agent", "devlogs_count": 1, "created_at": "2025-06-30T11:51:06.992-04:00"}], "coding_time_seconds": 67201, "coding_time_seconds_today": 0, "balance": "You need to have a pocket watcher badge to view this.", "badges": [], "created_at": "2025-06-30T09:57:38.554-04:00", "updated_at": "2025-07-08T09:46:04.078-04:00", "avatar": "https://avatars.slack-edge.com/2025-06-30/9123557526741_1c71b5bcb48a432f1f4f_original.png", "custom_css": null}, {"id": 13163, "slack_id": "U078B50BE78", "display_name": "Justus", "bio": null, "projects_count": 1, "devlogs_count": 0, "votes_count": 0, "ships_count": 0, "projects": [{"id": 4504, "title": "Nullbock", "devlogs_count": 0, "created_at": "2025-06-30T10:59:27.502-04:00"}], "coding_time_seconds": 9138, "coding_time_seconds_today": 0, "balance": "You need to have a pocket watcher badge to view this.", "badges": [], "created_at": "2025-06-30T09:58:31.945-04:00", "updated_at": "2025-07-03T20:06:43.566-04:00", "avatar": "https://secure.gravatar.com/avatar/d0d74595246a6558792f07a80b4418ff.jpg?s=512&d=https%3A%2F%2Fa.slack-edge.com%2Fdf10d%2Fimg%2Favatars%2Fava_0013-512.png", "custom_css": null}, {"id": 13164, "slack_id": "U094BCFRGM6", "display_name": "Maman Khan", "bio": null, "projects_count": 0, "devlogs_count": 0, "votes_count": 0, "ships_count": 0, "projects": [], "coding_time_seconds": 0, "coding_time_seconds_today": 0, "balance": "You need to have a pocket watcher badge to view this.", "badges": [], "created_at": "2025-06-30T09:59:49.659-04:00", "updated_at": "2025-07-04T02:33:24.545-04:00", "avatar": "https://avatars.slack-edge.com/2025-06-30/9120200649990_1d25a702be863cb70842_original.jpg", "custom_css": null}, {"id": 13165, "slack_id": "U0942AL354Z", "display_name": "Prithvi J", "bio": null, "projects_count": 0, "devlogs_count": 0, "votes_count": 0, "ships_count": 0, "projects": [], "coding_time_seconds": 6563, "coding_time_seconds_today": 0, "balance": "You need to have a pocket watcher badge to view this.", "badges": [], "created_at": "2025-06-30T10:00:02.100-04:00", "updated_at": "2025-07-03T20:06:43.963-04:00", "avatar": "https://avatars.slack-edge.com/2025-06-30/9138379106049_ac2d4454cbb21f45e5e3_original.png", "custom_css": null}, {"id": 13166, "slack_id": "U0942AQH9CH", "display_name": "numa", "bio": null, "projects_count": 0, "devlogs_count": 0, "votes_count": 0, "ships_count": 0, "projects": [], "coding_time_seconds": 0, "coding_time_seconds_today": 0, "balance": "You need to have a pocket watcher badge to view this.", "badges": [], "created_at": "2025-06-30T10:00:26.832-04:00", "updated_at": "2025-07-03T20:06:44.238-04:00", "avatar": "https://secure.gravatar.com/avatar/29740292cf5801120a7599c490cbd29d.jpg?s=512&d=https%3A%2F%2Fa.slack-edge.com%2Fdf10d%2Fimg%2Favatars%2Fava_0013-512.png", "custom_css": null}, {"id": 13167, "slack_id": "U09399WSMT9", "display_name": "Himanshu Sharma", "bio": null, "projects_count": 1, "devlogs_count": 1, "votes_count": 0, "ships_count": 0, "projects": [{"id": 5037, "title": "NCS", "devlogs_count": 1, "created_at": "2025-07-02T20:52:56.932-04:00"}], "coding_time_seconds": 51405, "coding_time_seconds_today": 0, "balance": "You need to have a pocket watcher badge to view this.", "badges": [], "created_at": "2025-06-30T10:00:42.218-04:00", "updated_at": "2025-07-06T02:16:13.817-04:00", "avatar": "https://secure.gravatar.com/avatar/3bf096f5aade777bafb33b97d3b898d9.jpg?s=512&d=https%3A%2F%2Fa.slack-edge.com%2Fdf10d%2Fimg%2Favatars%2Fava_0023-512.png", "custom_css": null}, {"id": 13168, "slack_id": "U0942AGSXQR", "display_name": "Armaan Pasha", "bio": null, "projects_count": 0, "devlogs_count": 0, "votes_count": 0, "ships_count": 0, "projects": [], "coding_time_seconds": 317959, "coding_time_seconds_today": 0, "balance": "You need to have a pocket watcher badge to view this.", "badges": [], "created_at": "2025-06-30T10:00:53.121-04:00", "updated_at": "2025-07-05T20:15:03.520-04:00", "avatar": "https://avatars.slack-edge.com/2025-06-30/9123577988645_27c356b7b93fa58942c4_original.jpg", "custom_css": null}, {"id": 13169, "slack_id": "U094BDDTRC0", "display_name": "Kamal Dhital", "bio": null, "projects_count": 0, "devlogs_count": 0, "votes_count": 0, "ships_count": 0, "projects": [], "coding_time_seconds": 0, "coding_time_seconds_today": 0, "balance": "You need to have a pocket watcher badge to view this.", "badges": [], "created_at": "2025-06-30T10:01:22.658-04:00", "updated_at": "2025-07-03T20:06:44.782-04:00", "avatar": "https://avatars.slack-edge.com/2025-06-30/9125498785058_e8d1db0ef77e97ec22eb_original.png", "custom_css": null}, {"id": 13170, "slack_id": "U093J671WFQ", "display_name": "Vikram Singh", "bio": null, "projects_count": 0, "devlogs_count": 0, "votes_count": 0, "ships_count": 0, "projects": [], "coding_time_seconds": 0, "coding_time_seconds_today": 0, "balance": "You need to have a pocket watcher badge to view this.", "badges": [], "created_at": "2025-06-30T10:01:55.812-04:00", "updated_at": "2025-07-03T20:06:45.083-04:00", "avatar": "https://avatars.slack-edge.com/2025-06-30/9147465671200_db206630bda78f9ba14c_original.jpg", "custom_css": null}, {"id": 13171, "slack_id": "U093PEFTC2W", "display_name": "Ankur", "bio": null, "projects_count": 0, "devlogs_count": 0, "votes_count": 0, "ships_count": 0, "projects": [], "coding_time_seconds": 27852, "coding_time_seconds_today": 0, "balance": "You need to have a pocket watcher badge to view this.", "badges": [], "created_at": "2025-06-30T10:03:10.711-04:00", "updated_at": "2025-07-03T20:06:45.349-04:00", "avatar": "https://secure.gravatar.com/avatar/56b7e1cd814d2935679f3681c6dc6e01.jpg?s=512&d=https%3A%2F%2Fa.slack-edge.com%2Fdf10d%2Fimg%2Favatars%2Fava_0002-512.png", "custom_css": null}, {"id": 13172, "slack_id": "U0942BF9DH7", "display_name": "Arnau Taberner Garc\u00eda", "bio": null, "projects_count": 0, "devlogs_count": 0, "votes_count": 0, "ships_count": 0, "projects": [], "coding_time_seconds": 19551, "coding_time_seconds_today": 0, "balance": "You need to have a pocket watcher badge to view this.", "badges": [], "created_at": "2025-06-30T10:03:12.203-04:00", "updated_at": "2025-07-03T20:06:45.621-04:00", "avatar": "https://secure.gravatar.com/avatar/64ab85c562e5e1aca862c2f4312707dd.jpg?s=512&d=https%3A%2F%2Fa.slack-edge.com%2Fdf10d%2Fimg%2Favatars%2Fava_0013-512.png", "custom_css": null}, {"id": 13173, "slack_id": "U093QJBCY2Y", "display_name": "Ramanson Thapa", "bio": null, "projects_count": 0, "devlogs_count": 0, "votes_count": 0, "ships_count": 0, "projects": [], "coding_time_seconds": 0, "coding_time_seconds_today": 0, "balance": "You need to have a pocket watcher badge to view this.", "badges": [], "created_at": "2025-06-30T10:04:08.948-04:00", "updated_at": "2025-07-03T20:06:45.892-04:00", "avatar": "https://avatars.slack-edge.com/2025-06-30/9138413617265_fe9cb1db49027a8893ff_original.png", "custom_css": null}, {"id": 13174, "slack_id": "U093QJAD3T6", "display_name": "Tigran", "bio": null, "projects_count": 0, "devlogs_count": 0, "votes_count": 0, "ships_count": 0, "projects": [], "coding_time_seconds": 0, "coding_time_seconds_today": 0, "balance": "You need to have a pocket watcher badge to view this.", "badges": [], "created_at": "2025-06-30T10:05:07.619-04:00", "updated_at": "2025-07-03T20:06:46.163-04:00", "avatar": "https://secure.gravatar.com/avatar/23bcc665a9cf5b9fc8b3ea37f2d11cf1.jpg?s=512&d=https%3A%2F%2Fa.slack-edge.com%2Fdf10d%2Fimg%2Favatars%2Fava_0019-512.png", "custom_css": null}, {"id": 13175, "slack_id": "U093QK5Q05A", "display_name": "laia", "bio": null, "projects_count": 0, "devlogs_count": 0, "votes_count": 0, "ships_count": 0, "projects": [], "coding_time_seconds": 0, "coding_time_seconds_today": 0, "balance": "You need to have a pocket watcher badge to view this.", "badges": [], "created_at": "2025-06-30T10:05:17.404-04:00", "updated_at": "2025-07-05T20:15:04.224-04:00", "avatar": "https://secure.gravatar.com/avatar/ed477801967b787b0119b1ac592a08ed.jpg?s=512&d=https%3A%2F%2Fa.slack-edge.com%2Fdf10d%2Fimg%2Favatars%2Fava_0024-512.png", "custom_css": null}, {"id": 13176, "slack_id": "U094BCN8Q8G", "display_name": "dj", "bio": null, "projects_count": 0, "devlogs_count": 0, "votes_count": 0, "ships_count": 0, "projects": [], "coding_time_seconds": 0, "coding_time_seconds_today": 0, "balance": "You need to have a pocket watcher badge to view this.", "badges": [], "created_at": "2025-06-30T10:06:11.949-04:00", "updated_at": "2025-07-04T02:33:25.326-04:00", "avatar": "https://secure.gravatar.com/avatar/a032d3f1b6796e38babdddbb9484b412.jpg?s=512&d=https%3A%2F%2Fa.slack-edge.com%2Fdf10d%2Fimg%2Favatars%2Fava_0017-512.png", "custom_css": null}, {"id": 13177, "slack_id": "U093GDRD5DZ", "display_name": "mac and cheese", "bio": null, "projects_count": 0, "devlogs_count": 0, "votes_count": 0, "ships_count": 0, "projects": [], "coding_time_seconds": 0, "coding_time_seconds_today": 0, "balance": "You need to have a pocket watcher badge to view this.", "badges": [], "created_at": "2025-06-30T10:06:19.362-04:00", "updated_at": "2025-07-03T20:06:47.228-04:00", "avatar": "https://secure.gravatar.com/avatar/187ba79bbad6158eaf6e00951ddb58be.jpg?s=512&d=https%3A%2F%2Fa.slack-edge.com%2Fdf10d%2Fimg%2Favatars%2Fava_0004-512.png", "custom_css": null}, {"id": 13178, "slack_id": "U093QKDGWKW", "display_name": "Jonas", "bio": null, "projects_count": 2, "devlogs_count": 1, "votes_count": 0, "ships_count": 1, "projects": [{"id": 4520, "title": "yip.py", "devlogs_count": 1, "created_at": "2025-06-30T11:58:21.975-04:00"}, {"id": 4555, "title": "Plaudr", "devlogs_count": 0, "created_at": "2025-06-30T15:52:18.997-04:00"}], "coding_time_seconds": 5013, "coding_time_seconds_today": 0, "balance": "You need to have a pocket watcher badge to view this.", "badges": [{"name": "Maiden Voyage", "text": "you shipped your first project! the journey begins...", "icon": "\ud83d\udea2"}], "created_at": "2025-06-30T10:07:21.769-04:00", "updated_at": "2025-09-10T22:57:45.526-04:00", "avatar": "https://secure.gravatar.com/avatar/2f0aa309da3462605633ebb4395d1e06.jpg?s=512&d=https%3A%2F%2Fa.slack-edge.com%2Fdf10d%2Fimg%2Favatars%2Fava_0008-512.png", "custom_css": null}, {"id": 13179, "slack_id": "U093PFCF6Q2", "display_name": "Malek", "bio": null, "projects_count": 0, "devlogs_count": 0, "votes_count": 0, "ships_count": 0, "projects": [], "coding_time_seconds": 0, "coding_time_seconds_today": 0, "balance": "You need to have a pocket watcher badge to view this.", "badges": [], "created_at": "2025-06-30T10:07:27.188-04:00", "updated_at": "2025-07-03T20:06:47.638-04:00", "avatar": "https://secure.gravatar.com/avatar/7a495d3c1d7f8941749d0525e5653c2a.jpg?s=512&d=https%3A%2F%2Fa.slack-edge.com%2Fdf10d%2Fimg%2Favatars%2Fava_0011-512.png", "custom_css": null}, {"id": 13180, "slack_id": "U094BEEP8SU", "display_name": "Sanskar", "bio": null, "projects_count": 0, "devlogs_count": 0, "votes_count": 0, "ships_count": 0, "projects": [], "coding_time_seconds": 0, "coding_time_seconds_today": 0, "balance": "You need to have a pocket watcher badge to view this.", "badges": [], "created_at": "2025-06-30T10:08:04.466-04:00", "updated_at": "2025-07-04T02:33:25.637-04:00", "avatar": "https://secure.gravatar.com/avatar/63763b8575431fd2d0b535795ba212ac.jpg?s=512&d=https%3A%2F%2Fa.slack-edge.com%2Fdf10d%2Fimg%2Favatars%2Fava_0001-512.png", "custom_css": null}], "pagination": {"page": 659, "pages": 1192, "count": 23828, "items": 20}}