{"users": [{"id": 1301, "slack_id": "U08AK5R1V60", "display_name": "Sahil Khan", "bio": null, "projects_count": 1, "devlogs_count": 0, "votes_count": 0, "ships_count": 0, "projects": [{"id": 4521, "title": "OneLined", "devlogs_count": 0, "created_at": "2025-06-30T12:06:11.927-04:00"}], "coding_time_seconds": 70746, "coding_time_seconds_today": 0, "balance": "You need to have a pocket watcher badge to view this.", "badges": [], "created_at": "2025-06-16T13:01:15.114-04:00", "updated_at": "2025-07-03T19:17:01.288-04:00", "avatar": "https://avatars.slack-edge.com/2025-01-28/8385317145696_4bcc4b076318476ed525_original.png", "custom_css": null}, {"id": 1302, "slack_id": "U09185BNUPR", "display_name": "Dev Gautam Kumar", "bio": null, "projects_count": 0, "devlogs_count": 0, "votes_count": 0, "ships_count": 0, "projects": [], "coding_time_seconds": 11907, "coding_time_seconds_today": 0, "balance": "You need to have a pocket watcher badge to view this.", "badges": [], "created_at": "2025-06-16T13:01:16.938-04:00", "updated_at": "2025-07-03T19:17:01.568-04:00", "avatar": "https://secure.gravatar.com/avatar/1c2031b60dc986a0ab796b6a91fdbaad.jpg?s=512&d=https%3A%2F%2Fa.slack-edge.com%2Fdf10d%2Fimg%2Favatars%2Fava_0017-512.png", "custom_css": null}, {"id": 1303, "slack_id": "U092BV14QF2", "display_name": "Fynn Bauer", "bio": null, "projects_count": 1, "devlogs_count": 1, "votes_count": 0, "ships_count": 0, "projects": [{"id": 11140, "title": "studiis", "devlogs_count": 1, "created_at": "2025-08-13T13:01:50.203-04:00"}], "coding_time_seconds": 100288, "coding_time_seconds_today": 0, "balance": "You need to have a pocket watcher badge to view this.", "badges": [], "created_at": "2025-06-16T13:01:24.018-04:00", "updated_at": "2025-08-13T13:00:41.013-04:00", "avatar": "https://secure.gravatar.com/avatar/4548a6aae9fb0bbd4ab94f8c8e0c8dcf.jpg?s=512&d=https%3A%2F%2Fa.slack-edge.com%2Fdf10d%2Fimg%2Favatars%2Fava_0024-512.png", "custom_css": null}, {"id": 1304, "slack_id": "U04C8LLPKS7", "display_name": "manu", "bio": null, "projects_count": 1, "devlogs_count": 30, "votes_count": 29, "ships_count": 1, "projects": [{"id": 272, "title": "Dysperse", "devlogs_count": 30, "created_at": "2025-06-16T16:51:00.456-04:00"}], "coding_time_seconds": 333512, "coding_time_seconds_today": 0, "balance": "You need to have a pocket watcher badge to view this.", "badges": [{"name": "Maiden Voyage", "text": "you shipped your first project! the journey begins...", "icon": "\ud83d\udea2"}], "created_at": "2025-06-16T13:01:24.802-04:00", "updated_at": "2025-09-10T22:51:47.938-04:00", "avatar": "https://avatars.slack-edge.com/2024-05-29/7189630063861_6e9a8bd202ae22747c27_original.png", "custom_css": null}, {"id": 1305, "slack_id": "U091GK5PN0N", "display_name": "Amelia S Greene", "bio": null, "projects_count": 0, "devlogs_count": 0, "votes_count": 0, "ships_count": 0, "projects": [], "coding_time_seconds": 0, "coding_time_seconds_today": 0, "balance": "You need to have a pocket watcher badge to view this.", "badges": [], "created_at": "2025-06-16T13:01:28.549-04:00", "updated_at": "2025-07-03T19:17:02.404-04:00", "avatar": "https://secure.gravatar.com/avatar/24e46db386d4f0d3537831f9d2208868.jpg?s=512&d=https%3A%2F%2Fa.slack-edge.com%2Fdf10d%2Fimg%2Favatars%2Fava_0016-512.png", "custom_css": null}, {"id": 1306, "slack_id": "U091MMBRH5K", "display_name": "Asif", "bio": null, "projects_count": 0, "devlogs_count": 0, "votes_count": 0, "ships_count": 0, "projects": [], "coding_time_seconds": 0, "coding_time_seconds_today": 0, "balance": "You need to have a pocket watcher badge to view this.", "badges": [], "created_at": "2025-06-16T13:01:38.878-04:00", "updated_at": "2025-07-03T19:17:02.683-04:00", "avatar": "https://secure.gravatar.com/avatar/b24e550ab3991bfad04d624f29e5fe66.jpg?s=512&d=https%3A%2F%2Fa.slack-edge.com%2Fdf10d%2Fimg%2Favatars%2Fava_0003-512.png", "custom_css": null}, {"id": 1307, "slack_id": "U07F2QA059B", "display_name": "Lazyllama", "bio": null, "projects_count": 0, "devlogs_count": 0, "votes_count": 0, "ships_count": 0, "projects": [], "coding_time_seconds": 0, "coding_time_seconds_today": 0, "balance": "You need to have a pocket watcher badge to view this.", "badges": [], "created_at": "2025-06-16T13:01:45.025-04:00", "updated_at": "2025-07-03T19:17:02.953-04:00", "avatar": "https://secure.gravatar.com/avatar/a38d0cea990b9a3c02fed161604a1d25.jpg?s=512&d=https%3A%2F%2Fa.slack-edge.com%2Fdf10d%2Fimg%2Favatars%2Fava_0025-512.png", "custom_css": null}, {"id": 1308, "slack_id": "U091GJGC18E", "display_name": "Raphael", "bio": null, "projects_count": 0, "devlogs_count": 0, "votes_count": 0, "ships_count": 0, "projects": [], "coding_time_seconds": 0, "coding_time_seconds_today": 0, "balance": "You need to have a pocket watcher badge to view this.", "badges": [], "created_at": "2025-06-16T13:01:46.539-04:00", "updated_at": "2025-07-03T19:17:03.218-04:00", "avatar": "https://secure.gravatar.com/avatar/87c4726c612dd8e396e18af21188c510.jpg?s=512&d=https%3A%2F%2Fa.slack-edge.com%2Fdf10d%2Fimg%2Favatars%2Fava_0020-512.png", "custom_css": null}, {"id": 1309, "slack_id": "U091PSUMVM2", "display_name": "Sanjay Javangula", "bio": null, "projects_count": 1, "devlogs_count": 6, "votes_count": 29, "ships_count": 1, "projects": [{"id": 3381, "title": "ExpressBuddy", "devlogs_count": 6, "created_at": "2025-06-24T03:21:07.952-04:00"}], "coding_time_seconds": 194352, "coding_time_seconds_today": 0, "balance": "You need to have a pocket watcher badge to view this.", "badges": [{"name": "Maiden Voyage", "text": "you shipped your first project! the journey begins...", "icon": "\ud83d\udea2"}], "created_at": "2025-06-16T13:01:58.810-04:00", "updated_at": "2025-09-10T22:51:48.063-04:00", "avatar": "https://secure.gravatar.com/avatar/94948cdd6b4c69d306497feed84077e4.jpg?s=512&d=https%3A%2F%2Fa.slack-edge.com%2Fdf10d%2Fimg%2Favatars%2Fava_0001-512.png", "custom_css": null}, {"id": 1310, "slack_id": "U091GEFNMJ7", "display_name": "Yunkai Li", "bio": null, "projects_count": 4, "devlogs_count": 21, "votes_count": 44, "ships_count": 1, "projects": [{"id": 404, "title": "AIs in the darkness", "devlogs_count": 3, "created_at": "2025-06-16T20:24:29.254-04:00"}, {"id": 6033, "title": "EasyTeam", "devlogs_count": 1, "created_at": "2025-07-10T05:48:26.344-04:00"}, {"id": 11636, "title": "Fly Vision", "devlogs_count": 0, "created_at": "2025-08-18T01:28:10.676-04:00"}, {"id": 410, "title": "FTC16093 premier event", "devlogs_count": 17, "created_at": "2025-06-16T20:29:03.898-04:00"}], "coding_time_seconds": 344032, "coding_time_seconds_today": 701, "balance": "You need to have a pocket watcher badge to view this.", "badges": [{"name": "Maiden Voyage", "text": "you shipped your first project! the journey begins...", "icon": "\ud83d\udea2"}, {"name": "Yapper I", "text": "Posted 10 comments on devlogs.", "icon": "\ud83d\udcac"}], "created_at": "2025-06-16T13:02:01.957-04:00", "updated_at": "2025-09-10T22:51:48.091-04:00", "avatar": "https://secure.gravatar.com/avatar/ddfbb8deaab800074132943825dc6cce.jpg?s=512&d=https%3A%2F%2Fa.slack-edge.com%2Fdf10d%2Fimg%2Favatars%2Fava_0011-512.png", "custom_css": null}, {"id": 1311, "slack_id": "U092BUX37MW", "display_name": "Krishna", "bio": null, "projects_count": 0, "devlogs_count": 0, "votes_count": 0, "ships_count": 0, "projects": [], "coding_time_seconds": 0, "coding_time_seconds_today": 0, "balance": "You need to have a pocket watcher badge to view this.", "badges": [], "created_at": "2025-06-16T13:02:05.584-04:00", "updated_at": "2025-07-03T19:17:04.115-04:00", "avatar": "https://secure.gravatar.com/avatar/3bcc5bdab829c9bb80730856a48d67ad.jpg?s=512&d=https%3A%2F%2Fa.slack-edge.com%2Fdf10d%2Fimg%2Favatars%2Fava_0016-512.png", "custom_css": null}, {"id": 1312, "slack_id": "U091GK0HES2", "display_name": "Mistr", "bio": null, "projects_count": 0, "devlogs_count": 0, "votes_count": 0, "ships_count": 0, "projects": [], "coding_time_seconds": 69177, "coding_time_seconds_today": 0, "balance": "You need to have a pocket watcher badge to view this.", "badges": [], "created_at": "2025-06-16T13:02:09.951-04:00", "updated_at": "2025-07-03T19:17:04.394-04:00", "avatar": "https://avatars.slack-edge.com/2025-06-16/9050861483603_209e0bfe15a48327001c_original.jpg", "custom_css": null}, {"id": 1313, "slack_id": "U091GGAEKL3", "display_name": "Turgut Baban", "bio": null, "projects_count": 0, "devlogs_count": 0, "votes_count": 0, "ships_count": 0, "projects": [], "coding_time_seconds": 0, "coding_time_seconds_today": 0, "balance": "You need to have a pocket watcher badge to view this.", "badges": [], "created_at": "2025-06-16T13:02:10.090-04:00", "updated_at": "2025-07-03T19:17:04.663-04:00", "avatar": "https://secure.gravatar.com/avatar/be2b2e4ac6f43cda1f5f79b369b8e822.jpg?s=512&d=https%3A%2F%2Fa.slack-edge.com%2Fdf10d%2Fimg%2Favatars%2Fava_0017-512.png", "custom_css": null}, {"id": 1314, "slack_id": "U091GGAFBMH", "display_name": "Robert", "bio": null, "projects_count": 4, "devlogs_count": 12, "votes_count": 13, "ships_count": 1, "projects": [{"id": 252, "title": "Simple Password Manager", "devlogs_count": 3, "created_at": "2025-06-16T16:21:07.099-04:00"}, {"id": 3665, "title": "Boat Sailing in MAUI", "devlogs_count": 3, "created_at": "2025-06-25T06:30:53.727-04:00"}, {"id": 3678, "title": "Xamarin Messenger", "devlogs_count": 3, "created_at": "2025-06-25T07:18:38.775-04:00"}, {"id": 3677, "title": "StudentJournal_WF", "devlogs_count": 3, "created_at": "2025-06-25T07:17:38.162-04:00"}], "coding_time_seconds": 701141, "coding_time_seconds_today": 0, "balance": "You need to have a pocket watcher badge to view this.", "badges": [{"name": "Maiden Voyage", "text": "you shipped your first project! the journey begins...", "icon": "\ud83d\udea2"}], "created_at": "2025-06-16T13:02:11.973-04:00", "updated_at": "2025-09-10T22:51:48.207-04:00", "avatar": "https://secure.gravatar.com/avatar/3528d146dd4de6d0bba489687a8061ea.jpg?s=512&d=https%3A%2F%2Fa.slack-edge.com%2Fdf10d%2Fimg%2Favatars%2Fava_0010-512.png", "custom_css": null}, {"id": 1315, "slack_id": "U091GFNJ8R1", "display_name": "Antoni Simka", "bio": null, "projects_count": 0, "devlogs_count": 0, "votes_count": 0, "ships_count": 0, "projects": [], "coding_time_seconds": 0, "coding_time_seconds_today": 0, "balance": "You need to have a pocket watcher badge to view this.", "badges": [], "created_at": "2025-06-16T13:02:19.407-04:00", "updated_at": "2025-07-03T19:17:05.196-04:00", "avatar": "https://avatars.slack-edge.com/2025-06-16/9057528461618_7b0c1ec3d2042939198b_original.jpg", "custom_css": null}, {"id": 1316, "slack_id": "U091GK6KJCE", "display_name": "Marcus Melo", "bio": null, "projects_count": 0, "devlogs_count": 0, "votes_count": 0, "ships_count": 0, "projects": [], "coding_time_seconds": 0, "coding_time_seconds_today": 0, "balance": "You need to have a pocket watcher badge to view this.", "badges": [], "created_at": "2025-06-16T13:02:21.078-04:00", "updated_at": "2025-07-03T19:17:05.494-04:00", "avatar": "https://secure.gravatar.com/avatar/4adb5cfb597215dab9d5518c482bdb35.jpg?s=512&d=https%3A%2F%2Fa.slack-edge.com%2Fdf10d%2Fimg%2Favatars%2Fava_0006-512.png", "custom_css": null}, {"id": 1317, "slack_id": "U091PTFH76Y", "display_name": "Kamil", "bio": null, "projects_count": 0, "devlogs_count": 0, "votes_count": 0, "ships_count": 0, "projects": [], "coding_time_seconds": 16729, "coding_time_seconds_today": 120, "balance": "You need to have a pocket watcher badge to view this.", "badges": [], "created_at": "2025-06-16T13:02:22.921-04:00", "updated_at": "2025-07-03T19:17:05.765-04:00", "avatar": "https://secure.gravatar.com/avatar/cd927043e790f898c2940c451024618e.jpg?s=512&d=https%3A%2F%2Fa.slack-edge.com%2Fdf10d%2Fimg%2Favatars%2Fava_0011-512.png", "custom_css": null}, {"id": 1318, "slack_id": "U08RLCHDUBC", "display_name": "Ayham", "bio": null, "projects_count": 1, "devlogs_count": 1, "votes_count": 0, "ships_count": 0, "projects": [{"id": 2212, "title": "Bab Coding Group", "devlogs_count": 1, "created_at": "2025-06-20T12:55:02.489-04:00"}], "coding_time_seconds": 42325, "coding_time_seconds_today": 0, "balance": "You need to have a pocket watcher badge to view this.", "badges": [], "created_at": "2025-06-16T13:02:27.481-04:00", "updated_at": "2025-07-03T19:17:06.038-04:00", "avatar": "https://secure.gravatar.com/avatar/eac5c3bb4af1e377faa5f9a8608317f8.jpg?s=512&d=https%3A%2F%2Fa.slack-edge.com%2Fdf10d%2Fimg%2Favatars%2Fava_0019-512.png", "custom_css": null}, {"id": 1319, "slack_id": "U091PF79PLJ", "display_name": "Anmol Kumar", "bio": null, "projects_count": 0, "devlogs_count": 0, "votes_count": 0, "ships_count": 0, "projects": [], "coding_time_seconds": 19738, "coding_time_seconds_today": 0, "balance": "You need to have a pocket watcher badge to view this.", "badges": [], "created_at": "2025-06-16T13:02:31.853-04:00", "updated_at": "2025-07-03T19:17:06.316-04:00", "avatar": "https://secure.gravatar.com/avatar/020dcb7853ffa9bfdbf046219f88522f.jpg?s=512&d=https%3A%2F%2Fa.slack-edge.com%2Fdf10d%2Fimg%2Favatars%2Fava_0001-512.png", "custom_css": null}, {"id": 1320, "slack_id": "U092BV4SDG8", "display_name": "Sai Srujana Sri Vangapandu", "bio": null, "projects_count": 9, "devlogs_count": 25, "votes_count": 73, "ships_count": 5, "projects": [{"id": 2346, "title": "Practice python by creating mini projects", "devlogs_count": 3, "created_at": "2025-06-20T18:50:15.962-04:00"}, {"id": 2751, "title": "Cooking Website", "devlogs_count": 1, "created_at": "2025-06-22T00:01:15.237-04:00"}, {"id": 10913, "title": "StudyNow", "devlogs_count": 3, "created_at": "2025-08-11T18:24:53.372-04:00"}, {"id": 7048, "title": "Memory Flip Game", "devlogs_count": 4, "created_at": "2025-07-18T14:17:23.811-04:00"}, {"id": 7401, "title": "Portfolio", "devlogs_count": 0, "created_at": "2025-07-21T15:57:43.862-04:00"}, {"id": 8379, "title": "Weather_dress", "devlogs_count": 0, "created_at": "2025-07-26T17:11:36.521-04:00"}, {"id": 4240, "title": "quiz game", "devlogs_count": 5, "created_at": "2025-06-28T11:37:06.667-04:00"}, {"id": 10058, "title": "Timezone Converter", "devlogs_count": 3, "created_at": "2025-08-03T18:23:23.256-04:00"}, {"id": 2538, "title": "Cooking Website", "devlogs_count": 6, "created_at": "2025-06-21T08:59:32.939-04:00"}], "coding_time_seconds": 197995, "coding_time_seconds_today": 0, "balance": "You need to have a pocket watcher badge to view this.", "badges": [{"name": "Maiden Voyage", "text": "you shipped your first project! the journey begins...", "icon": "\ud83d\udea2"}], "created_at": "2025-06-16T13:02:35.041-04:00", "updated_at": "2025-09-10T22:51:48.483-04:00", "avatar": "https://secure.gravatar.com/avatar/5c4c23570a0082be82f5af43a4a7604d.jpg?s=512&d=https%3A%2F%2Fa.slack-edge.com%2Fdf10d%2Fimg%2Favatars%2Fava_0018-512.png", "custom_css": null}], "pagination": {"page": 66, "pages": 1192, "count": 23827, "items": 20}}