{"users": [{"id": 13201, "slack_id": "U093GG2J2M9", "display_name": "Jason Boultbee", "bio": null, "projects_count": 0, "devlogs_count": 0, "votes_count": 0, "ships_count": 0, "projects": [], "coding_time_seconds": 0, "coding_time_seconds_today": 0, "balance": "You need to have a pocket watcher badge to view this.", "badges": [], "created_at": "2025-06-30T10:19:20.501-04:00", "updated_at": "2025-07-03T20:06:52.406-04:00", "avatar": "https://secure.gravatar.com/avatar/863cf5ba1a694e3e3e49d73bb42a5f98.jpg?s=512&d=https%3A%2F%2Fa.slack-edge.com%2Fdf10d%2Fimg%2Favatars%2Fava_0014-512.png", "custom_css": null}, {"id": 13202, "slack_id": "U093GG43SRZ", "display_name": "Lucas", "bio": null, "projects_count": 0, "devlogs_count": 0, "votes_count": 0, "ships_count": 0, "projects": [], "coding_time_seconds": 0, "coding_time_seconds_today": 0, "balance": "You need to have a pocket watcher badge to view this.", "badges": [], "created_at": "2025-06-30T10:19:38.086-04:00", "updated_at": "2025-07-03T20:06:52.667-04:00", "avatar": "https://secure.gravatar.com/avatar/a6380a3cf2733c1fb76de4a2f9aa21f3.jpg?s=512&d=https%3A%2F%2Fa.slack-edge.com%2Fdf10d%2Fimg%2Favatars%2Fava_0012-512.png", "custom_css": null}, {"id": 13203, "slack_id": "U093J978FPG", "display_name": "Mohammed Ahnaf Bhuiyan", "bio": null, "projects_count": 1, "devlogs_count": 10, "votes_count": 61, "ships_count": 1, "projects": [{"id": 5397, "title": "NOVX | Electron-based Fast & Private Browser", "devlogs_count": 10, "created_at": "2025-07-05T02:26:39.301-04:00"}], "coding_time_seconds": 95812, "coding_time_seconds_today": 0, "balance": "You need to have a pocket watcher badge to view this.", "badges": [{"name": "Maiden Voyage", "text": "you shipped your first project! the journey begins...", "icon": "\ud83d\udea2"}], "created_at": "2025-06-30T10:19:47.713-04:00", "updated_at": "2025-09-10T22:57:46.275-04:00", "avatar": "https://avatars.slack-edge.com/2025-06-30/9125617328930_d216676c098dbc521356_original.png", "custom_css": null}, {"id": 13204, "slack_id": "U0942D6T4GH", "display_name": "\u00dczeyir", "bio": null, "projects_count": 0, "devlogs_count": 0, "votes_count": 0, "ships_count": 0, "projects": [], "coding_time_seconds": 259228, "coding_time_seconds_today": 0, "balance": "You need to have a pocket watcher badge to view this.", "badges": [], "created_at": "2025-06-30T10:19:48.970-04:00", "updated_at": "2025-07-03T20:06:53.189-04:00", "avatar": "https://secure.gravatar.com/avatar/90f00426aa8b258dc2e7a7cf22060745.jpg?s=512&d=https%3A%2F%2Fa.slack-edge.com%2Fdf10d%2Fimg%2Favatars%2Fava_0025-512.png", "custom_css": null}, {"id": 13205, "slack_id": "U093J9NL138", "display_name": "Paulo Henrique de Farias Martins", "bio": null, "projects_count": 0, "devlogs_count": 0, "votes_count": 0, "ships_count": 0, "projects": [], "coding_time_seconds": 56494, "coding_time_seconds_today": 0, "balance": "You need to have a pocket watcher badge to view this.", "badges": [], "created_at": "2025-06-30T10:20:34.902-04:00", "updated_at": "2025-07-03T20:06:53.457-04:00", "avatar": "https://secure.gravatar.com/avatar/2a550d50d8aa0261068e174e6354642c.jpg?s=512&d=https%3A%2F%2Fa.slack-edge.com%2Fdf10d%2Fimg%2Favatars%2Fava_0008-512.png", "custom_css": null}, {"id": 13206, "slack_id": "U093PHZ0QJW", "display_name": "nour rachdi", "bio": null, "projects_count": 0, "devlogs_count": 0, "votes_count": 0, "ships_count": 0, "projects": [], "coding_time_seconds": 0, "coding_time_seconds_today": 0, "balance": "You need to have a pocket watcher badge to view this.", "badges": [], "created_at": "2025-06-30T10:21:10.507-04:00", "updated_at": "2025-07-08T03:08:36.071-04:00", "avatar": "https://secure.gravatar.com/avatar/2867c2981624e905c4d7fc85c261c705.jpg?s=512&d=https%3A%2F%2Fa.slack-edge.com%2Fdf10d%2Fimg%2Favatars%2Fava_0018-512.png", "custom_css": null}, {"id": 13207, "slack_id": "U094BH1A6C8", "display_name": "Uladzislau", "bio": null, "projects_count": 0, "devlogs_count": 0, "votes_count": 0, "ships_count": 0, "projects": [], "coding_time_seconds": 1398, "coding_time_seconds_today": 0, "balance": "You need to have a pocket watcher badge to view this.", "badges": [], "created_at": "2025-06-30T10:21:27.464-04:00", "updated_at": "2025-07-03T20:06:53.864-04:00", "avatar": "https://secure.gravatar.com/avatar/23a06f4bb9a3e8cce99ea87a465ad32d.jpg?s=512&d=https%3A%2F%2Fa.slack-edge.com%2Fdf10d%2Fimg%2Favatars%2Fava_0006-512.png", "custom_css": null}, {"id": 13208, "slack_id": "U091KA55Y4B", "display_name": "Akshita Gupta", "bio": null, "projects_count": 0, "devlogs_count": 0, "votes_count": 0, "ships_count": 0, "projects": [], "coding_time_seconds": 0, "coding_time_seconds_today": 0, "balance": "You need to have a pocket watcher badge to view this.", "badges": [], "created_at": "2025-06-30T10:22:17.888-04:00", "updated_at": "2025-07-03T20:06:54.126-04:00", "avatar": "https://avatars.slack-edge.com/2025-06-30/9138526473233_36cde6776c734190a86f_original.jpg", "custom_css": null}, {"id": 13209, "slack_id": "U094BHBKWGY", "display_name": "Darshan K", "bio": null, "projects_count": 0, "devlogs_count": 0, "votes_count": 0, "ships_count": 0, "projects": [], "coding_time_seconds": 0, "coding_time_seconds_today": 0, "balance": "You need to have a pocket watcher badge to view this.", "badges": [], "created_at": "2025-06-30T10:24:29.801-04:00", "updated_at": "2025-07-03T20:06:54.387-04:00", "avatar": "https://secure.gravatar.com/avatar/e039dfe24cbb00cb78295e873a72e97a.jpg?s=512&d=https%3A%2F%2Fa.slack-edge.com%2Fdf10d%2Fimg%2Favatars%2Fava_0010-512.png", "custom_css": null}, {"id": 13210, "slack_id": "U0942ELBDDX", "display_name": "Alexey", "bio": "", "projects_count": 6, "devlogs_count": 64, "votes_count": 102, "ships_count": 6, "projects": [{"id": 6387, "title": "NMS Planet Types", "devlogs_count": 4, "created_at": "2025-07-12T23:41:10.707-04:00"}, {"id": 11521, "title": "Just a Platformer", "devlogs_count": 15, "created_at": "2025-08-16T15:09:52.580-04:00"}, {"id": 12854, "title": "Space Shooter", "devlogs_count": 21, "created_at": "2025-09-03T16:41:23.607-04:00"}, {"id": 8266, "title": "D&D Dice Roller", "devlogs_count": 2, "created_at": "2025-07-25T19:49:06.913-04:00"}, {"id": 6266, "title": "Jeopardy IRL", "devlogs_count": 19, "created_at": "2025-07-11T20:21:45.878-04:00"}, {"id": 4859, "title": "Board Game Turn Timer", "devlogs_count": 3, "created_at": "2025-07-02T00:05:44.921-04:00"}], "coding_time_seconds": 186132, "coding_time_seconds_today": 0, "balance": "You need to have a pocket watcher badge to view this.", "badges": [{"name": "Maiden Voyage", "text": "you shipped your first project! the journey begins...", "icon": "\ud83d\udea2"}, {"name": "Ballot Stuffer", "text": "vote 100 times.", "icon": "https://summer.hackclub.com/assets/i_voted-bf851b48.png"}], "created_at": "2025-06-30T10:24:46.725-04:00", "updated_at": "2025-09-23T23:54:20.339-04:00", "avatar": "https://secure.gravatar.com/avatar/8e5d6a4a1f27fcf587ce0a8f94c7cf6a.jpg?s=512&d=https%3A%2F%2Fa.slack-edge.com%2Fdf10d%2Fimg%2Favatars%2Fava_0023-512.png", "custom_css": null}, {"id": 13211, "slack_id": "U094BHE8256", "display_name": "hemanth06", "bio": null, "projects_count": 0, "devlogs_count": 0, "votes_count": 0, "ships_count": 0, "projects": [], "coding_time_seconds": 0, "coding_time_seconds_today": 0, "balance": "You need to have a pocket watcher badge to view this.", "badges": [], "created_at": "2025-06-30T10:25:01.247-04:00", "updated_at": "2025-07-03T20:06:54.918-04:00", "avatar": "https://secure.gravatar.com/avatar/3ec370425fcf6455ebef94b1ad44e92e.jpg?s=512&d=https%3A%2F%2Fa.slack-edge.com%2Fdf10d%2Fimg%2Favatars%2Fava_0018-512.png", "custom_css": null}, {"id": 13212, "slack_id": "U0939F3MWGP", "display_name": "Garv Agarwal", "bio": null, "projects_count": 1, "devlogs_count": 0, "votes_count": 1, "ships_count": 0, "projects": [{"id": 4887, "title": "Ellena", "devlogs_count": 0, "created_at": "2025-07-02T03:28:50.685-04:00"}], "coding_time_seconds": 178405, "coding_time_seconds_today": 0, "balance": "You need to have a pocket watcher badge to view this.", "badges": [], "created_at": "2025-06-30T10:25:05.522-04:00", "updated_at": "2025-07-03T20:06:55.201-04:00", "avatar": "https://avatars.slack-edge.com/2025-06-30/9147615964880_383b37ac43b8ddc65d0e_original.jpg", "custom_css": null}, {"id": 13213, "slack_id": "U093MML4H1B", "display_name": "ljh", "bio": null, "projects_count": 0, "devlogs_count": 0, "votes_count": 0, "ships_count": 0, "projects": [], "coding_time_seconds": 0, "coding_time_seconds_today": 0, "balance": "You need to have a pocket watcher badge to view this.", "badges": [], "created_at": "2025-06-30T10:26:12.608-04:00", "updated_at": "2025-07-05T14:16:24.183-04:00", "avatar": "https://secure.gravatar.com/avatar/430d919d1ce188c35887ded047957808.jpg?s=512&d=https%3A%2F%2Fa.slack-edge.com%2Fdf10d%2Fimg%2Favatars%2Fava_0009-512.png", "custom_css": null}, {"id": 13214, "slack_id": "U0939F5M171", "display_name": "keshav", "bio": null, "projects_count": 0, "devlogs_count": 0, "votes_count": 0, "ships_count": 0, "projects": [], "coding_time_seconds": 170537, "coding_time_seconds_today": 0, "balance": "You need to have a pocket watcher badge to view this.", "badges": [], "created_at": "2025-06-30T10:26:17.115-04:00", "updated_at": "2025-07-05T11:08:36.953-04:00", "avatar": "https://secure.gravatar.com/avatar/dd834cb1d62bf63c2d00791b221f6732.jpg?s=512&d=https%3A%2F%2Fa.slack-edge.com%2Fdf10d%2Fimg%2Favatars%2Fava_0009-512.png", "custom_css": null}, {"id": 13215, "slack_id": "U0942C12QAV", "display_name": "Robin", "bio": null, "projects_count": 0, "devlogs_count": 0, "votes_count": 0, "ships_count": 0, "projects": [], "coding_time_seconds": 0, "coding_time_seconds_today": 0, "balance": "You need to have a pocket watcher badge to view this.", "badges": [], "created_at": "2025-06-30T10:26:59.399-04:00", "updated_at": "2025-07-03T20:06:55.912-04:00", "avatar": "https://secure.gravatar.com/avatar/a4528af867b8698c7df7bfc22ace4f91.jpg?s=512&d=https%3A%2F%2Fa.slack-edge.com%2Fdf10d%2Fimg%2Favatars%2Fava_0002-512.png", "custom_css": null}, {"id": 13216, "slack_id": "U093JAQN88N", "display_name": "Abdallah_Mohamed", "bio": null, "projects_count": 0, "devlogs_count": 0, "votes_count": 0, "ships_count": 0, "projects": [], "coding_time_seconds": 0, "coding_time_seconds_today": 0, "balance": "You need to have a pocket watcher badge to view this.", "badges": [], "created_at": "2025-06-30T10:27:03.797-04:00", "updated_at": "2025-07-03T20:06:56.185-04:00", "avatar": "https://secure.gravatar.com/avatar/867dacf247a9ac6dcee428416f517228.jpg?s=512&d=https%3A%2F%2Fa.slack-edge.com%2Fdf10d%2Fimg%2Favatars%2Fava_0024-512.png", "custom_css": null}, {"id": 13217, "slack_id": "U093MMUPTLM", "display_name": "Vihaan Parlikar", "bio": null, "projects_count": 0, "devlogs_count": 0, "votes_count": 0, "ships_count": 0, "projects": [], "coding_time_seconds": 0, "coding_time_seconds_today": 0, "balance": "You need to have a pocket watcher badge to view this.", "badges": [], "created_at": "2025-06-30T10:27:22.100-04:00", "updated_at": "2025-07-04T20:14:04.581-04:00", "avatar": "https://secure.gravatar.com/avatar/826ae25f927e30828baf8dfdbf43aad2.jpg?s=512&d=https%3A%2F%2Fa.slack-edge.com%2Fdf10d%2Fimg%2Favatars%2Fava_0025-512.png", "custom_css": null}, {"id": 13218, "slack_id": "U093QP5JVRA", "display_name": "Akshit", "bio": null, "projects_count": 0, "devlogs_count": 0, "votes_count": 0, "ships_count": 0, "projects": [], "coding_time_seconds": 0, "coding_time_seconds_today": 0, "balance": "You need to have a pocket watcher badge to view this.", "badges": [], "created_at": "2025-06-30T10:28:49.932-04:00", "updated_at": "2025-07-03T20:06:56.595-04:00", "avatar": "https://avatars.slack-edge.com/2025-06-30/9125673932642_3fc343ef82c328b0bf09_original.jpg", "custom_css": null}, {"id": 13219, "slack_id": "U0939FMFCP9", "display_name": "Rafaela", "bio": null, "projects_count": 0, "devlogs_count": 0, "votes_count": 0, "ships_count": 0, "projects": [], "coding_time_seconds": 0, "coding_time_seconds_today": 0, "balance": "You need to have a pocket watcher badge to view this.", "badges": [], "created_at": "2025-06-30T10:29:09.932-04:00", "updated_at": "2025-07-03T20:06:56.863-04:00", "avatar": "https://secure.gravatar.com/avatar/c4eea6ec516e9c70b1cdd0d8ec80be94.jpg?s=512&d=https%3A%2F%2Fa.slack-edge.com%2Fdf10d%2Fimg%2Favatars%2Fava_0017-512.png", "custom_css": null}, {"id": 13220, "slack_id": "U093GHK15SP", "display_name": "Sift Ullah", "bio": null, "projects_count": 0, "devlogs_count": 0, "votes_count": 0, "ships_count": 0, "projects": [], "coding_time_seconds": 0, "coding_time_seconds_today": 0, "balance": "You need to have a pocket watcher badge to view this.", "badges": [], "created_at": "2025-06-30T10:29:15.363-04:00", "updated_at": "2025-07-03T20:06:57.132-04:00", "avatar": "https://avatars.slack-edge.com/2025-06-30/9125673656978_eff4bebd316772f173b4_original.png", "custom_css": null}], "pagination": {"page": 661, "pages": 1192, "count": 23828, "items": 20}}