{"users": [{"id": 13261, "slack_id": "U093PNX51FU", "display_name": "Tejas Kumar", "bio": null, "projects_count": 0, "devlogs_count": 0, "votes_count": 0, "ships_count": 0, "projects": [], "coding_time_seconds": 0, "coding_time_seconds_today": 0, "balance": "You need to have a pocket watcher badge to view this.", "badges": [], "created_at": "2025-06-30T10:47:02.973-04:00", "updated_at": "2025-07-04T20:14:07.198-04:00", "avatar": "https://avatars.slack-edge.com/2025-06-30/9138683732545_159604f8e3d6fc455eb6_original.jpg", "custom_css": null}, {"id": 13262, "slack_id": "U0939K6LAUX", "display_name": "Lokesh E", "bio": null, "projects_count": 0, "devlogs_count": 0, "votes_count": 0, "ships_count": 0, "projects": [], "coding_time_seconds": 0, "coding_time_seconds_today": 0, "balance": "You need to have a pocket watcher badge to view this.", "badges": [], "created_at": "2025-06-30T10:47:15.255-04:00", "updated_at": "2025-07-03T20:07:06.745-04:00", "avatar": "https://secure.gravatar.com/avatar/a9fbc0f64f7124b7ccd815140ff4f9e1.jpg?s=512&d=https%3A%2F%2Fa.slack-edge.com%2Fdf10d%2Fimg%2Favatars%2Fava_0026-512.png", "custom_css": null}, {"id": 13263, "slack_id": "U093QPSSV3N", "display_name": "a", "bio": null, "projects_count": 0, "devlogs_count": 0, "votes_count": 0, "ships_count": 0, "projects": [], "coding_time_seconds": 0, "coding_time_seconds_today": 0, "balance": "You need to have a pocket watcher badge to view this.", "badges": [], "created_at": "2025-06-30T10:48:39.336-04:00", "updated_at": "2025-07-03T20:07:07.009-04:00", "avatar": "https://secure.gravatar.com/avatar/710f2fed30231d6c08b6677d91a6491e.jpg?s=512&d=https%3A%2F%2Fa.slack-edge.com%2Fdf10d%2Fimg%2Favatars%2Fava_0011-512.png", "custom_css": null}, {"id": 13264, "slack_id": "U0939KGU6FR", "display_name": "bini sha", "bio": null, "projects_count": 0, "devlogs_count": 0, "votes_count": 0, "ships_count": 0, "projects": [], "coding_time_seconds": 0, "coding_time_seconds_today": 0, "balance": "You need to have a pocket watcher badge to view this.", "badges": [], "created_at": "2025-06-30T10:48:55.957-04:00", "updated_at": "2025-07-05T20:15:10.980-04:00", "avatar": "https://secure.gravatar.com/avatar/c01fc0b6bcbeb84cb684f48767c4163e.jpg?s=512&d=https%3A%2F%2Fa.slack-edge.com%2Fdf10d%2Fimg%2Favatars%2Fava_0008-512.png", "custom_css": null}, {"id": 13265, "slack_id": "U07VB7SQCBB", "display_name": "yeayi", "bio": null, "projects_count": 0, "devlogs_count": 0, "votes_count": 0, "ships_count": 0, "projects": [], "coding_time_seconds": 0, "coding_time_seconds_today": 0, "balance": "You need to have a pocket watcher badge to view this.", "badges": [], "created_at": "2025-06-30T10:49:03.240-04:00", "updated_at": "2025-07-03T20:07:07.409-04:00", "avatar": "https://avatars.slack-edge.com/2024-12-13/8174252090482_c92023c114e031736162_original.jpg", "custom_css": null}, {"id": 13266, "slack_id": "U093GM2PCD9", "display_name": "THIAGO FERREYRA POFFO", "bio": null, "projects_count": 1, "devlogs_count": 1, "votes_count": 0, "ships_count": 0, "projects": [{"id": 13612, "title": "Escape Pixelado", "devlogs_count": 1, "created_at": "2025-09-20T22:18:24.767-04:00"}], "coding_time_seconds": 5353, "coding_time_seconds_today": 0, "balance": "You need to have a pocket watcher badge to view this.", "badges": [], "created_at": "2025-06-30T10:51:44.869-04:00", "updated_at": "2025-09-20T23:02:33.841-04:00", "avatar": "https://avatars.slack-edge.com/2025-06-30/9123917195861_bf39af8d01e343c3080d_original.png", "custom_css": null}, {"id": 13267, "slack_id": "U093QTTNHUL", "display_name": "Shashank Karan", "bio": null, "projects_count": 0, "devlogs_count": 0, "votes_count": 0, "ships_count": 0, "projects": [], "coding_time_seconds": 87433, "coding_time_seconds_today": 0, "balance": "You need to have a pocket watcher badge to view this.", "badges": [], "created_at": "2025-06-30T10:52:18.843-04:00", "updated_at": "2025-07-03T20:07:07.947-04:00", "avatar": "https://secure.gravatar.com/avatar/e88aebb66c6bffe53de05c15355805d3.jpg?s=512&d=https%3A%2F%2Fa.slack-edge.com%2Fdf10d%2Fimg%2Favatars%2Fava_0009-512.png", "custom_css": null}, {"id": 13268, "slack_id": "U093MSJHBFF", "display_name": "Anubhav Tripathi", "bio": null, "projects_count": 0, "devlogs_count": 0, "votes_count": 0, "ships_count": 0, "projects": [], "coding_time_seconds": 0, "coding_time_seconds_today": 0, "balance": "You need to have a pocket watcher badge to view this.", "badges": [], "created_at": "2025-06-30T10:52:30.157-04:00", "updated_at": "2025-07-03T20:07:08.207-04:00", "avatar": "https://avatars.slack-edge.com/2025-06-30/9126966103540_3749ef9f5d8915aa9f44_original.jpg", "custom_css": null}, {"id": 13269, "slack_id": "U093JFE2JBG", "display_name": "Aishani Gajrani", "bio": null, "projects_count": 0, "devlogs_count": 0, "votes_count": 0, "ships_count": 0, "projects": [], "coding_time_seconds": 0, "coding_time_seconds_today": 0, "balance": "You need to have a pocket watcher badge to view this.", "badges": [], "created_at": "2025-06-30T10:54:04.412-04:00", "updated_at": "2025-09-15T14:22:48.231-04:00", "avatar": "https://secure.gravatar.com/avatar/6a786dab372369576c22755e0dafb1d7.jpg?s=512&d=https%3A%2F%2Fa.slack-edge.com%2Fdf10d%2Fimg%2Favatars%2Fava_0017-512.png", "custom_css": null}, {"id": 13270, "slack_id": "U0942LTJ6KB", "display_name": "Thomas Ka Chung Lam", "bio": null, "projects_count": 0, "devlogs_count": 0, "votes_count": 0, "ships_count": 0, "projects": [], "coding_time_seconds": 0, "coding_time_seconds_today": 0, "balance": "You need to have a pocket watcher badge to view this.", "badges": [], "created_at": "2025-06-30T10:54:31.977-04:00", "updated_at": "2025-07-03T20:07:08.766-04:00", "avatar": "https://avatars.slack-edge.com/2025-06-30/9125844784578_67132b594716da2b0b60_original.png", "custom_css": null}, {"id": 13271, "slack_id": "U093QUECF60", "display_name": "Jannis Reufsteck", "bio": null, "projects_count": 0, "devlogs_count": 0, "votes_count": 0, "ships_count": 0, "projects": [], "coding_time_seconds": 0, "coding_time_seconds_today": 0, "balance": "You need to have a pocket watcher badge to view this.", "badges": [], "created_at": "2025-06-30T10:54:47.288-04:00", "updated_at": "2025-07-05T20:15:11.511-04:00", "avatar": "https://avatars.slack-edge.com/2025-06-30/9111723152327_84bc4f985d02afbe8604_original.png", "custom_css": null}, {"id": 13272, "slack_id": "U093PQLFB6W", "display_name": "Bibek Ray", "bio": null, "projects_count": 0, "devlogs_count": 0, "votes_count": 0, "ships_count": 0, "projects": [], "coding_time_seconds": 40035, "coding_time_seconds_today": 0, "balance": "You need to have a pocket watcher badge to view this.", "badges": [], "created_at": "2025-06-30T10:56:23.710-04:00", "updated_at": "2025-07-03T20:07:09.171-04:00", "avatar": "https://avatars.slack-edge.com/2025-06-30/9118782718227_1ce49510b8a1592a88b4_original.jpg", "custom_css": null}, {"id": 13273, "slack_id": "U093QUXCATW", "display_name": "Kavi Gupta", "bio": null, "projects_count": 2, "devlogs_count": 3, "votes_count": 0, "ships_count": 0, "projects": [{"id": 4609, "title": "Live Transcriber", "devlogs_count": 1, "created_at": "2025-06-30T21:21:14.204-04:00"}, {"id": 5792, "title": "WIP", "devlogs_count": 2, "created_at": "2025-07-08T02:27:34.080-04:00"}], "coding_time_seconds": 696180, "coding_time_seconds_today": 120, "balance": "You need to have a pocket watcher badge to view this.", "badges": [], "created_at": "2025-06-30T10:57:00.529-04:00", "updated_at": "2025-07-03T20:07:09.427-04:00", "avatar": "https://secure.gravatar.com/avatar/269aaabdb2dd63be209c93f4cbcb7596.jpg?s=512&d=https%3A%2F%2Fa.slack-edge.com%2Fdf10d%2Fimg%2Favatars%2Fava_0016-512.png", "custom_css": null}, {"id": 13274, "slack_id": "U093QUTTKDJ", "display_name": "ovum82", "bio": null, "projects_count": 0, "devlogs_count": 0, "votes_count": 0, "ships_count": 0, "projects": [], "coding_time_seconds": 0, "coding_time_seconds_today": 0, "balance": "You need to have a pocket watcher badge to view this.", "badges": [], "created_at": "2025-06-30T10:57:40.475-04:00", "updated_at": "2025-07-03T20:07:09.699-04:00", "avatar": "https://secure.gravatar.com/avatar/f8f044635cc1697efbbbf2ddb9af80b6.jpg?s=512&d=https%3A%2F%2Fa.slack-edge.com%2Fdf10d%2Fimg%2Favatars%2Fava_0020-512.png", "custom_css": null}, {"id": 13275, "slack_id": "U093JGK264E", "display_name": "Judah Harris", "bio": null, "projects_count": 1, "devlogs_count": 1, "votes_count": 0, "ships_count": 0, "projects": [{"id": 5155, "title": "Cubegenius", "devlogs_count": 1, "created_at": "2025-07-03T13:52:35.499-04:00"}], "coding_time_seconds": 294941, "coding_time_seconds_today": 0, "balance": "You need to have a pocket watcher badge to view this.", "badges": [], "created_at": "2025-06-30T10:57:54.622-04:00", "updated_at": "2025-07-03T20:07:09.969-04:00", "avatar": "https://secure.gravatar.com/avatar/e8003fe0c5dfa1be93199527eb564e68.jpg?s=512&d=https%3A%2F%2Fa.slack-edge.com%2Fdf10d%2Fimg%2Favatars%2Fava_0008-512.png", "custom_css": null}, {"id": 13276, "slack_id": "U081KAQ8Q8Z", "display_name": "Axeno", "bio": null, "projects_count": 1, "devlogs_count": 0, "votes_count": 0, "ships_count": 0, "projects": [{"id": 12332, "title": "Nexora - Plugin", "devlogs_count": 0, "created_at": "2025-08-25T22:10:05.748-04:00"}], "coding_time_seconds": 878167, "coding_time_seconds_today": 0, "balance": "You need to have a pocket watcher badge to view this.", "badges": [], "created_at": "2025-06-30T10:59:08.772-04:00", "updated_at": "2025-08-25T22:06:59.427-04:00", "avatar": "https://avatars.slack-edge.com/2024-11-17/8064442295296_49fb8f7b916837fdac51_original.webp", "custom_css": null}, {"id": 13277, "slack_id": "U050B2060TZ", "display_name": "Gagandeep", "bio": null, "projects_count": 0, "devlogs_count": 0, "votes_count": 0, "ships_count": 0, "projects": [], "coding_time_seconds": 0, "coding_time_seconds_today": 0, "balance": "You need to have a pocket watcher badge to view this.", "badges": [], "created_at": "2025-06-30T10:59:46.407-04:00", "updated_at": "2025-07-06T02:16:20.623-04:00", "avatar": "https://secure.gravatar.com/avatar/4e07e6cee5b9d617930fd4ae6de54981.jpg?s=512&d=https%3A%2F%2Fa.slack-edge.com%2Fdf10d%2Fimg%2Favatars%2Fava_0021-512.png", "custom_css": null}, {"id": 13278, "slack_id": "U093GNXKFHR", "display_name": "Gabriel Demamann", "bio": null, "projects_count": 0, "devlogs_count": 0, "votes_count": 0, "ships_count": 0, "projects": [], "coding_time_seconds": 0, "coding_time_seconds_today": 0, "balance": "You need to have a pocket watcher badge to view this.", "badges": [], "created_at": "2025-06-30T11:00:22.509-04:00", "updated_at": "2025-07-03T22:04:15.052-04:00", "avatar": "https://secure.gravatar.com/avatar/d646badb05bc4343da659200d4c80430.jpg?s=512&d=https%3A%2F%2Fa.slack-edge.com%2Fdf10d%2Fimg%2Favatars%2Fava_0022-512.png", "custom_css": null}, {"id": 13279, "slack_id": "U094BPVE056", "display_name": "Ishaan", "bio": null, "projects_count": 0, "devlogs_count": 0, "votes_count": 0, "ships_count": 0, "projects": [], "coding_time_seconds": 0, "coding_time_seconds_today": 0, "balance": "You need to have a pocket watcher badge to view this.", "badges": [], "created_at": "2025-06-30T11:00:27.569-04:00", "updated_at": "2025-07-03T20:07:10.627-04:00", "avatar": "https://secure.gravatar.com/avatar/bb548efd039ebbab2fff163a8ae78e11.jpg?s=512&d=https%3A%2F%2Fa.slack-edge.com%2Fdf10d%2Fimg%2Favatars%2Fava_0004-512.png", "custom_css": null}, {"id": 13280, "slack_id": "U093MU22NG5", "display_name": "Deckris", "bio": null, "projects_count": 0, "devlogs_count": 0, "votes_count": 0, "ships_count": 0, "projects": [], "coding_time_seconds": 2910, "coding_time_seconds_today": 0, "balance": "You need to have a pocket watcher badge to view this.", "badges": [], "created_at": "2025-06-30T11:00:36.095-04:00", "updated_at": "2025-07-03T20:07:10.885-04:00", "avatar": "https://secure.gravatar.com/avatar/ad98fe3ef14269d3c023c56a577676e0.jpg?s=512&d=https%3A%2F%2Fa.slack-edge.com%2Fdf10d%2Fimg%2Favatars%2Fava_0018-512.png", "custom_css": null}], "pagination": {"page": 664, "pages": 1192, "count": 23828, "items": 20}}