{"users": [{"id": 13281, "slack_id": "U0942N2QZT3", "display_name": "Eric Vidal Marcos", "bio": null, "projects_count": 0, "devlogs_count": 0, "votes_count": 0, "ships_count": 0, "projects": [], "coding_time_seconds": 0, "coding_time_seconds_today": 0, "balance": "You need to have a pocket watcher badge to view this.", "badges": [], "created_at": "2025-06-30T11:01:04.785-04:00", "updated_at": "2025-07-03T20:07:11.137-04:00", "avatar": "https://avatars.slack-edge.com/2025-06-30/9127028607828_5ad991f572ad346b141e_original.jpg", "custom_css": null}, {"id": 13282, "slack_id": "U093PS004US", "display_name": "ben", "bio": null, "projects_count": 0, "devlogs_count": 0, "votes_count": 0, "ships_count": 0, "projects": [], "coding_time_seconds": 0, "coding_time_seconds_today": 0, "balance": "You need to have a pocket watcher badge to view this.", "badges": [], "created_at": "2025-06-30T11:01:23.193-04:00", "updated_at": "2025-07-03T20:07:11.400-04:00", "avatar": "https://secure.gravatar.com/avatar/637900bbc57acad83f05330da8bce9fd.jpg?s=512&d=https%3A%2F%2Fa.slack-edge.com%2Fdf10d%2Fimg%2Favatars%2Fava_0010-512.png", "custom_css": null}, {"id": 13283, "slack_id": "U093GQ00HH9", "display_name": "Roy", "bio": null, "projects_count": 0, "devlogs_count": 0, "votes_count": 0, "ships_count": 0, "projects": [], "coding_time_seconds": 0, "coding_time_seconds_today": 0, "balance": "You need to have a pocket watcher badge to view this.", "badges": [], "created_at": "2025-06-30T11:02:37.211-04:00", "updated_at": "2025-07-03T20:07:11.668-04:00", "avatar": "https://secure.gravatar.com/avatar/831b2a33883d7ad2aed5081548e2f5c2.jpg?s=512&d=https%3A%2F%2Fa.slack-edge.com%2Fdf10d%2Fimg%2Favatars%2Fava_0010-512.png", "custom_css": null}, {"id": 13284, "slack_id": "U093JHFQZ54", "display_name": "Abhinav Ramanan", "bio": null, "projects_count": 0, "devlogs_count": 17, "votes_count": 38, "ships_count": 0, "projects": [], "coding_time_seconds": 263170, "coding_time_seconds_today": 0, "balance": "You need to have a pocket watcher badge to view this.", "badges": [{"name": "Maiden Voyage", "text": "you shipped your first project! the journey begins...", "icon": "\ud83d\udea2"}, {"name": "Ballot Stuffer", "text": "vote 100 times.", "icon": "https://summer.hackclub.com/assets/i_voted-bf851b48.png"}], "created_at": "2025-06-30T11:02:42.328-04:00", "updated_at": "2025-09-10T22:57:48.746-04:00", "avatar": "https://secure.gravatar.com/avatar/0664aaaa877c6f39d10394ea85d58196.jpg?s=512&d=https%3A%2F%2Fa.slack-edge.com%2Fdf10d%2Fimg%2Favatars%2Fava_0024-512.png", "custom_css": null}, {"id": 13285, "slack_id": "U093GQ1M41H", "display_name": "Sam S.", "bio": null, "projects_count": 0, "devlogs_count": 0, "votes_count": 0, "ships_count": 0, "projects": [], "coding_time_seconds": 0, "coding_time_seconds_today": 0, "balance": "You need to have a pocket watcher badge to view this.", "badges": [], "created_at": "2025-06-30T11:04:36.682-04:00", "updated_at": "2025-07-03T22:04:15.580-04:00", "avatar": "https://secure.gravatar.com/avatar/d1e8e9ff7d12f5f7b98aafb23d3c30c5.jpg?s=512&d=https%3A%2F%2Fa.slack-edge.com%2Fdf10d%2Fimg%2Favatars%2Fava_0013-512.png", "custom_css": null}, {"id": 13286, "slack_id": "U093PSK34RG", "display_name": "Swxish", "bio": null, "projects_count": 0, "devlogs_count": 0, "votes_count": 0, "ships_count": 0, "projects": [], "coding_time_seconds": 0, "coding_time_seconds_today": 0, "balance": "You need to have a pocket watcher badge to view this.", "badges": [], "created_at": "2025-06-30T11:05:57.393-04:00", "updated_at": "2025-07-16T14:11:34.490-04:00", "avatar": "https://secure.gravatar.com/avatar/f6698d3184847cf98f6223ae4da1ffed.jpg?s=512&d=https%3A%2F%2Fa.slack-edge.com%2Fdf10d%2Fimg%2Favatars%2Fava_0000-512.png", "custom_css": null}, {"id": 13287, "slack_id": "U0942PR8W4R", "display_name": "Chris", "bio": null, "projects_count": 0, "devlogs_count": 0, "votes_count": 0, "ships_count": 0, "projects": [], "coding_time_seconds": 0, "coding_time_seconds_today": 0, "balance": "You need to have a pocket watcher badge to view this.", "badges": [], "created_at": "2025-06-30T11:08:11.791-04:00", "updated_at": "2025-07-03T20:07:12.523-04:00", "avatar": "https://secure.gravatar.com/avatar/da82b0e542851ccba1c449782bab8dd6.jpg?s=512&d=https%3A%2F%2Fa.slack-edge.com%2Fdf10d%2Fimg%2Favatars%2Fava_0004-512.png", "custom_css": null}, {"id": 13288, "slack_id": "U0939M87K39", "display_name": "Steban", "bio": null, "projects_count": 0, "devlogs_count": 0, "votes_count": 0, "ships_count": 0, "projects": [], "coding_time_seconds": 0, "coding_time_seconds_today": 0, "balance": "You need to have a pocket watcher badge to view this.", "badges": [], "created_at": "2025-06-30T11:14:46.267-04:00", "updated_at": "2025-07-03T20:07:12.787-04:00", "avatar": "https://secure.gravatar.com/avatar/7572a5443f2b1c43f7f73f6be1e80da6.jpg?s=512&d=https%3A%2F%2Fa.slack-edge.com%2Fdf10d%2Fimg%2Favatars%2Fava_0017-512.png", "custom_css": null}, {"id": 13289, "slack_id": "U03QVGZ0BDZ", "display_name": "dak5h", "bio": null, "projects_count": 0, "devlogs_count": 0, "votes_count": 0, "ships_count": 0, "projects": [], "coding_time_seconds": 105116, "coding_time_seconds_today": 581, "balance": "You need to have a pocket watcher badge to view this.", "badges": [], "created_at": "2025-06-30T11:16:41.446-04:00", "updated_at": "2025-08-01T22:33:52.727-04:00", "avatar": "https://avatars.slack-edge.com/2024-02-13/6638882269972_acf7033414f1fbfc9cd3_original.jpg", "custom_css": null}, {"id": 13290, "slack_id": "U088W9GH4T1", "display_name": "Ernests Austri\u0146\u0161", "bio": null, "projects_count": 0, "devlogs_count": 0, "votes_count": 0, "ships_count": 0, "projects": [], "coding_time_seconds": 22092, "coding_time_seconds_today": 0, "balance": "You need to have a pocket watcher badge to view this.", "badges": [], "created_at": "2025-06-30T11:16:46.204-04:00", "updated_at": "2025-07-03T20:07:13.305-04:00", "avatar": "https://avatars.slack-edge.com/2025-01-19/8319497147476_4d2bef620132b9754659_original.jpg", "custom_css": null}, {"id": 13291, "slack_id": "U093N1591MK", "display_name": "Aron Kokas", "bio": null, "projects_count": 0, "devlogs_count": 0, "votes_count": 0, "ships_count": 0, "projects": [], "coding_time_seconds": 0, "coding_time_seconds_today": 0, "balance": "You need to have a pocket watcher badge to view this.", "badges": [], "created_at": "2025-06-30T11:16:58.972-04:00", "updated_at": "2025-07-03T20:07:13.574-04:00", "avatar": "https://secure.gravatar.com/avatar/2fba70f3a16fb8b9058b1de5133d8366.jpg?s=512&d=https%3A%2F%2Fa.slack-edge.com%2Fdf10d%2Fimg%2Favatars%2Fava_0014-512.png", "custom_css": null}, {"id": 13292, "slack_id": "U093R2JLDNG", "display_name": "Jose M.", "bio": "I <3 programming", "projects_count": 8, "devlogs_count": 12, "votes_count": 118, "ships_count": 5, "projects": [{"id": 4515, "title": "jmc", "devlogs_count": 1, "created_at": "2025-06-30T11:35:40.130-04:00"}, {"id": 5175, "title": "CarTracker", "devlogs_count": 3, "created_at": "2025-07-03T15:58:31.012-04:00"}, {"id": 6137, "title": "som-mcp", "devlogs_count": 1, "created_at": "2025-07-10T19:05:47.270-04:00"}, {"id": 11756, "title": "som-vote-tracker", "devlogs_count": 0, "created_at": "2025-08-19T08:06:55.957-04:00"}, {"id": 5942, "title": "som-data", "devlogs_count": 3, "created_at": "2025-07-09T09:26:41.557-04:00"}, {"id": 6597, "title": "xpchatter", "devlogs_count": 3, "created_at": "2025-07-14T13:04:32.369-04:00"}, {"id": 5693, "title": "portfolio", "devlogs_count": 0, "created_at": "2025-07-07T06:54:14.558-04:00"}, {"id": 4646, "title": "pastie", "devlogs_count": 1, "created_at": "2025-07-01T00:47:06.270-04:00"}], "coding_time_seconds": 736847, "coding_time_seconds_today": 0, "balance": "You need to have a pocket watcher badge to view this.", "badges": [{"name": "Maiden Voyage", "text": "you shipped your first project! the journey begins...", "icon": "\ud83d\udea2"}, {"name": "Ballot Stuffer", "text": "vote 100 times.", "icon": "https://summer.hackclub.com/assets/i_voted-bf851b48.png"}], "created_at": "2025-06-30T11:18:45.531-04:00", "updated_at": "2025-09-10T22:57:49.098-04:00", "avatar": "https://avatars.slack-edge.com/2025-08-13/9375246907632_3595d3d3a4a81d685b79_original.png", "custom_css": null}, {"id": 13293, "slack_id": "U093R3C3UMA", "display_name": "Anushka", "bio": null, "projects_count": 0, "devlogs_count": 0, "votes_count": 0, "ships_count": 0, "projects": [], "coding_time_seconds": 0, "coding_time_seconds_today": 0, "balance": "You need to have a pocket watcher badge to view this.", "badges": [], "created_at": "2025-06-30T11:18:56.779-04:00", "updated_at": "2025-07-03T20:07:14.107-04:00", "avatar": "https://secure.gravatar.com/avatar/93904eecf7f300037c6b29639d3b6434.jpg?s=512&d=https%3A%2F%2Fa.slack-edge.com%2Fdf10d%2Fimg%2Favatars%2Fava_0017-512.png", "custom_css": null}, {"id": 13294, "slack_id": "U0939S6EBM5", "display_name": "Firas Ridene", "bio": null, "projects_count": 0, "devlogs_count": 0, "votes_count": 0, "ships_count": 0, "projects": [], "coding_time_seconds": 0, "coding_time_seconds_today": 0, "balance": "You need to have a pocket watcher badge to view this.", "badges": [], "created_at": "2025-06-30T11:20:18.178-04:00", "updated_at": "2025-07-03T22:04:16.185-04:00", "avatar": "https://secure.gravatar.com/avatar/dae1b1291e17c4477ee38a318be6c375.jpg?s=512&d=https%3A%2F%2Fa.slack-edge.com%2Fdf10d%2Fimg%2Favatars%2Fava_0018-512.png", "custom_css": null}, {"id": 13295, "slack_id": "U093GSJTKQB", "display_name": "AS", "bio": null, "projects_count": 4, "devlogs_count": 5, "votes_count": 12, "ships_count": 2, "projects": [{"id": 4791, "title": "SympAPI Version 1", "devlogs_count": 4, "created_at": "2025-07-01T14:25:24.451-04:00"}, {"id": 5181, "title": "HealthTrackAI", "devlogs_count": 0, "created_at": "2025-07-03T16:20:47.911-04:00"}, {"id": 9826, "title": "HealthTrack AI API", "devlogs_count": 0, "created_at": "2025-08-02T12:04:00.830-04:00"}, {"id": 9827, "title": "HealthTrack AI API", "devlogs_count": 1, "created_at": "2025-08-02T12:04:00.881-04:00"}], "coding_time_seconds": 85063, "coding_time_seconds_today": 0, "balance": "You need to have a pocket watcher badge to view this.", "badges": [{"name": "Maiden Voyage", "text": "you shipped your first project! the journey begins...", "icon": "\ud83d\udea2"}], "created_at": "2025-06-30T11:21:15.509-04:00", "updated_at": "2025-09-10T22:57:49.179-04:00", "avatar": "https://secure.gravatar.com/avatar/8565f2b965d6598e592934a4b8399591.jpg?s=512&d=https%3A%2F%2Fa.slack-edge.com%2Fdf10d%2Fimg%2Favatars%2Fava_0009-512.png", "custom_css": null}, {"id": 13296, "slack_id": "U093GT7L2V9", "display_name": "Sandeep singh", "bio": null, "projects_count": 0, "devlogs_count": 0, "votes_count": 0, "ships_count": 0, "projects": [], "coding_time_seconds": 0, "coding_time_seconds_today": 0, "balance": "You need to have a pocket watcher badge to view this.", "badges": [], "created_at": "2025-06-30T11:21:20.534-04:00", "updated_at": "2025-07-03T20:07:15.025-04:00", "avatar": "https://secure.gravatar.com/avatar/35a6528b02cf3ac1d6647ffdb3673f7d.jpg?s=512&d=https%3A%2F%2Fa.slack-edge.com%2Fdf10d%2Fimg%2Favatars%2Fava_0003-512.png", "custom_css": null}, {"id": 13297, "slack_id": "U093R44U0KE", "display_name": "Safeer Hassan", "bio": null, "projects_count": 0, "devlogs_count": 1, "votes_count": 1, "ships_count": 0, "projects": [], "coding_time_seconds": 9988, "coding_time_seconds_today": 0, "balance": "You need to have a pocket watcher badge to view this.", "badges": [], "created_at": "2025-06-30T11:22:34.438-04:00", "updated_at": "2025-07-18T07:43:35.950-04:00", "avatar": "https://secure.gravatar.com/avatar/f7267565037976d3b693291b6ae70933.jpg?s=512&d=https%3A%2F%2Fa.slack-edge.com%2Fdf10d%2Fimg%2Favatars%2Fava_0019-512.png", "custom_css": null}, {"id": 13298, "slack_id": "U0942S8SHA5", "display_name": "bhavarth sonar", "bio": null, "projects_count": 0, "devlogs_count": 0, "votes_count": 0, "ships_count": 0, "projects": [], "coding_time_seconds": 0, "coding_time_seconds_today": 0, "balance": "You need to have a pocket watcher badge to view this.", "badges": [], "created_at": "2025-06-30T11:22:36.437-04:00", "updated_at": "2025-07-05T02:14:46.374-04:00", "avatar": "https://secure.gravatar.com/avatar/5aea9458836b3d6b11661805eec81512.jpg?s=512&d=https%3A%2F%2Fa.slack-edge.com%2Fdf10d%2Fimg%2Favatars%2Fava_0004-512.png", "custom_css": null}, {"id": 13299, "slack_id": "U093JMMH2MU", "display_name": "Matthew Searle", "bio": null, "projects_count": 0, "devlogs_count": 0, "votes_count": 0, "ships_count": 0, "projects": [], "coding_time_seconds": 0, "coding_time_seconds_today": 0, "balance": "You need to have a pocket watcher badge to view this.", "badges": [], "created_at": "2025-06-30T11:23:09.436-04:00", "updated_at": "2025-07-03T20:07:15.553-04:00", "avatar": "https://secure.gravatar.com/avatar/11b15c0397ebcad48e7c5b00e7e99b4a.jpg?s=512&d=https%3A%2F%2Fa.slack-edge.com%2Fdf10d%2Fimg%2Favatars%2Fava_0026-512.png", "custom_css": null}, {"id": 13300, "slack_id": "U07DGMQTBEZ", "display_name": "Connor", "bio": null, "projects_count": 0, "devlogs_count": 0, "votes_count": 0, "ships_count": 0, "projects": [], "coding_time_seconds": 0, "coding_time_seconds_today": 0, "balance": "You need to have a pocket watcher badge to view this.", "badges": [], "created_at": "2025-06-30T11:23:55.611-04:00", "updated_at": "2025-07-21T18:41:42.670-04:00", "avatar": "https://avatars.slack-edge.com/2024-07-26/7482430734053_7ac31bcce85573ee8211_original.png", "custom_css": null}], "pagination": {"page": 665, "pages": 1192, "count": 23828, "items": 20}}