{"users": [{"id": 13301, "slack_id": "U093N3SB6AZ", "display_name": "Siddharth K M", "bio": null, "projects_count": 0, "devlogs_count": 0, "votes_count": 0, "ships_count": 0, "projects": [], "coding_time_seconds": 0, "coding_time_seconds_today": 0, "balance": "You need to have a pocket watcher badge to view this.", "badges": [], "created_at": "2025-06-30T11:26:49.505-04:00", "updated_at": "2025-07-10T07:13:14.418-04:00", "avatar": "https://avatars.slack-edge.com/2025-06-30/9148027137232_3d8cc108e27042f6351d_original.jpg", "custom_css": null}, {"id": 13302, "slack_id": "U093N3ZAZLM", "display_name": "Pao", "bio": null, "projects_count": 0, "devlogs_count": 0, "votes_count": 0, "ships_count": 0, "projects": [], "coding_time_seconds": 0, "coding_time_seconds_today": 0, "balance": "You need to have a pocket watcher badge to view this.", "badges": [], "created_at": "2025-06-30T11:26:53.410-04:00", "updated_at": "2025-07-03T20:07:16.227-04:00", "avatar": "https://secure.gravatar.com/avatar/74b16a629e18115cc9f5b4fa37e61066.jpg?s=512&d=https%3A%2F%2Fa.slack-edge.com%2Fdf10d%2Fimg%2Favatars%2Fava_0021-512.png", "custom_css": null}, {"id": 13303, "slack_id": "U093JLHRMN2", "display_name": "George O'Keeffe", "bio": null, "projects_count": 0, "devlogs_count": 0, "votes_count": 0, "ships_count": 0, "projects": [], "coding_time_seconds": 5032, "coding_time_seconds_today": 0, "balance": "You need to have a pocket watcher badge to view this.", "badges": [], "created_at": "2025-06-30T11:27:42.932-04:00", "updated_at": "2025-07-05T02:14:46.749-04:00", "avatar": "https://avatars.slack-edge.com/2025-06-30/9124158383205_0a0680c249a32bb8b0db_original.png", "custom_css": null}, {"id": 13304, "slack_id": "U0939TP67GF", "display_name": "Long Nguyen", "bio": null, "projects_count": 0, "devlogs_count": 16, "votes_count": 59, "ships_count": 0, "projects": [], "coding_time_seconds": 364434, "coding_time_seconds_today": 0, "balance": "You need to have a pocket watcher badge to view this.", "badges": [{"name": "Maiden Voyage", "text": "you shipped your first project! the journey begins...", "icon": "\ud83d\udea2"}], "created_at": "2025-06-30T11:29:34.020-04:00", "updated_at": "2025-09-10T22:57:49.407-04:00", "avatar": "https://secure.gravatar.com/avatar/10b9e1caed52e77344ecf02e54a278de.jpg?s=512&d=https%3A%2F%2Fa.slack-edge.com%2Fdf10d%2Fimg%2Favatars%2Fava_0014-512.png", "custom_css": null}, {"id": 13305, "slack_id": "U0942TSD03T", "display_name": "Mat\u011bj", "bio": null, "projects_count": 0, "devlogs_count": 0, "votes_count": 0, "ships_count": 0, "projects": [], "coding_time_seconds": 0, "coding_time_seconds_today": 0, "balance": "You need to have a pocket watcher badge to view this.", "badges": [], "created_at": "2025-06-30T11:31:18.970-04:00", "updated_at": "2025-07-03T20:07:16.900-04:00", "avatar": "https://secure.gravatar.com/avatar/fe69d7a56964c32e16e3c061a111ee78.jpg?s=512&d=https%3A%2F%2Fa.slack-edge.com%2Fdf10d%2Fimg%2Favatars%2Fava_0004-512.png", "custom_css": null}, {"id": 13306, "slack_id": "U093GT03Z19", "display_name": "Siddhant Maji", "bio": null, "projects_count": 3, "devlogs_count": 1, "votes_count": 3, "ships_count": 1, "projects": [{"id": 6384, "title": "Financial Sentiment Analysis", "devlogs_count": 0, "created_at": "2025-07-12T23:07:25.442-04:00"}, {"id": 6485, "title": "PeerCodex", "devlogs_count": 1, "created_at": "2025-07-13T18:43:21.100-04:00"}, {"id": 7448, "title": "Garbage Classification", "devlogs_count": 0, "created_at": "2025-07-21T20:16:40.853-04:00"}], "coding_time_seconds": 130768, "coding_time_seconds_today": 0, "balance": "You need to have a pocket watcher badge to view this.", "badges": [{"name": "Maiden Voyage", "text": "you shipped your first project! the journey begins...", "icon": "\ud83d\udea2"}], "created_at": "2025-06-30T11:31:21.313-04:00", "updated_at": "2025-09-10T22:57:49.465-04:00", "avatar": "https://secure.gravatar.com/avatar/688712006a77f9dc3ba6800a3791f032.jpg?s=512&d=https%3A%2F%2Fa.slack-edge.com%2Fdf10d%2Fimg%2Favatars%2Fava_0016-512.png", "custom_css": null}, {"id": 13307, "slack_id": "U093GV3HRLK", "display_name": "Arjun Sharma", "bio": null, "projects_count": 0, "devlogs_count": 0, "votes_count": 0, "ships_count": 0, "projects": [], "coding_time_seconds": 0, "coding_time_seconds_today": 0, "balance": "You need to have a pocket watcher badge to view this.", "badges": [], "created_at": "2025-06-30T11:31:32.254-04:00", "updated_at": "2025-07-05T14:16:31.000-04:00", "avatar": "https://secure.gravatar.com/avatar/b578e0874445a6af207d82f36b7fb97e.jpg?s=512&d=https%3A%2F%2Fa.slack-edge.com%2Fdf10d%2Fimg%2Favatars%2Fava_0006-512.png", "custom_css": null}, {"id": 13308, "slack_id": "U093N4G6BE1", "display_name": "MAYANK JOSHI /", "bio": null, "projects_count": 0, "devlogs_count": 0, "votes_count": 0, "ships_count": 0, "projects": [], "coding_time_seconds": 0, "coding_time_seconds_today": 0, "balance": "You need to have a pocket watcher badge to view this.", "badges": [], "created_at": "2025-06-30T11:32:54.576-04:00", "updated_at": "2025-07-03T20:07:17.441-04:00", "avatar": "https://avatars.slack-edge.com/2025-06-30/9126113472402_044472c8b2f03dc6e22d_original.png", "custom_css": null}, {"id": 13309, "slack_id": "U0942U51L5P", "display_name": "Omkar Arora", "bio": null, "projects_count": 0, "devlogs_count": 0, "votes_count": 0, "ships_count": 0, "projects": [], "coding_time_seconds": 0, "coding_time_seconds_today": 0, "balance": "You need to have a pocket watcher badge to view this.", "badges": [], "created_at": "2025-06-30T11:34:22.639-04:00", "updated_at": "2025-07-03T20:07:17.710-04:00", "avatar": "https://secure.gravatar.com/avatar/d6972c221f736acf2d0e2ef5edd86ca8.jpg?s=512&d=https%3A%2F%2Fa.slack-edge.com%2Fdf10d%2Fimg%2Favatars%2Fava_0004-512.png", "custom_css": null}, {"id": 13310, "slack_id": "U093N5JFEVB", "display_name": "ritvik", "bio": null, "projects_count": 0, "devlogs_count": 0, "votes_count": 0, "ships_count": 0, "projects": [], "coding_time_seconds": 0, "coding_time_seconds_today": 0, "balance": "You need to have a pocket watcher badge to view this.", "badges": [], "created_at": "2025-06-30T11:34:47.279-04:00", "updated_at": "2025-07-03T20:07:17.982-04:00", "avatar": "https://secure.gravatar.com/avatar/d3191d9e6c6133cb4b3c15ea02258b7b.jpg?s=512&d=https%3A%2F%2Fa.slack-edge.com%2Fdf10d%2Fimg%2Favatars%2Fava_0009-512.png", "custom_css": null}, {"id": 13311, "slack_id": "U094C29SBC0", "display_name": "Kylian", "bio": null, "projects_count": 0, "devlogs_count": 0, "votes_count": 1, "ships_count": 0, "projects": [], "coding_time_seconds": 8236, "coding_time_seconds_today": 0, "balance": "You need to have a pocket watcher badge to view this.", "badges": [], "created_at": "2025-06-30T11:35:48.889-04:00", "updated_at": "2025-07-03T20:07:18.250-04:00", "avatar": "https://secure.gravatar.com/avatar/232eed7e683ecee3a5a0b512224ddb79.jpg?s=512&d=https%3A%2F%2Fa.slack-edge.com%2Fdf10d%2Fimg%2Favatars%2Fava_0007-512.png", "custom_css": null}, {"id": 13312, "slack_id": "U093R6T65QU", "display_name": "harshal", "bio": null, "projects_count": 0, "devlogs_count": 0, "votes_count": 0, "ships_count": 0, "projects": [], "coding_time_seconds": 0, "coding_time_seconds_today": 0, "balance": "You need to have a pocket watcher badge to view this.", "badges": [], "created_at": "2025-06-30T11:35:50.904-04:00", "updated_at": "2025-07-03T20:07:18.543-04:00", "avatar": "https://secure.gravatar.com/avatar/6ebf7678793b76b864ec683e2e141819.jpg?s=512&d=https%3A%2F%2Fa.slack-edge.com%2Fdf10d%2Fimg%2Favatars%2Fava_0000-512.png", "custom_css": null}, {"id": 13313, "slack_id": "U093R73B8R2", "display_name": "Benjamin", "bio": null, "projects_count": 0, "devlogs_count": 0, "votes_count": 0, "ships_count": 0, "projects": [], "coding_time_seconds": 0, "coding_time_seconds_today": 0, "balance": "You need to have a pocket watcher badge to view this.", "badges": [], "created_at": "2025-06-30T11:36:09.273-04:00", "updated_at": "2025-07-03T20:07:18.827-04:00", "avatar": "https://secure.gravatar.com/avatar/017d131d8f38af5e43cdb3f8793fc838.jpg?s=512&d=https%3A%2F%2Fa.slack-edge.com%2Fdf10d%2Fimg%2Favatars%2Fava_0019-512.png", "custom_css": null}, {"id": 13314, "slack_id": "U093MSCQ0J1", "display_name": "Damien", "bio": null, "projects_count": 0, "devlogs_count": 0, "votes_count": 0, "ships_count": 0, "projects": [], "coding_time_seconds": 0, "coding_time_seconds_today": 0, "balance": "You need to have a pocket watcher badge to view this.", "badges": [], "created_at": "2025-06-30T11:37:02.307-04:00", "updated_at": "2025-07-05T14:16:31.501-04:00", "avatar": "https://secure.gravatar.com/avatar/e229291fade4969dfb24bd0831bca0fb.jpg?s=512&d=https%3A%2F%2Fa.slack-edge.com%2Fdf10d%2Fimg%2Favatars%2Fava_0025-512.png", "custom_css": null}, {"id": 13315, "slack_id": "U093N62GDE1", "display_name": "Dhananjay Singh", "bio": null, "projects_count": 3, "devlogs_count": 4, "votes_count": 10, "ships_count": 2, "projects": [{"id": 6194, "title": "Algo Trainer", "devlogs_count": 3, "created_at": "2025-07-11T08:36:02.789-04:00"}, {"id": 5250, "title": "Portfolio", "devlogs_count": 1, "created_at": "2025-07-04T02:10:26.300-04:00"}, {"id": 5570, "title": "Blog app", "devlogs_count": 0, "created_at": "2025-07-06T09:23:16.556-04:00"}], "coding_time_seconds": 226298, "coding_time_seconds_today": 0, "balance": "You need to have a pocket watcher badge to view this.", "badges": [{"name": "Maiden Voyage", "text": "you shipped your first project! the journey begins...", "icon": "\ud83d\udea2"}], "created_at": "2025-06-30T11:37:18.489-04:00", "updated_at": "2025-09-10T22:57:49.720-04:00", "avatar": "https://avatars.slack-edge.com/2025-06-30/9124224014325_89a93752d87475913d9f_original.png", "custom_css": null}, {"id": 13316, "slack_id": "U093R7D3XGC", "display_name": "Zain Marshall", "bio": null, "projects_count": 0, "devlogs_count": 0, "votes_count": 0, "ships_count": 0, "projects": [], "coding_time_seconds": 0, "coding_time_seconds_today": 0, "balance": "You need to have a pocket watcher badge to view this.", "badges": [], "created_at": "2025-06-30T11:38:00.512-04:00", "updated_at": "2025-07-04T20:14:10.850-04:00", "avatar": "https://avatars.slack-edge.com/2025-06-30/9126146856722_2a5a72ed428cf0440df0_original.jpg", "custom_css": null}, {"id": 13317, "slack_id": "U093R4FFTB6", "display_name": "Chish", "bio": null, "projects_count": 1, "devlogs_count": 8, "votes_count": 23, "ships_count": 1, "projects": [{"id": 7327, "title": "StackSense", "devlogs_count": 8, "created_at": "2025-07-21T00:34:44.388-04:00"}], "coding_time_seconds": 229809, "coding_time_seconds_today": 0, "balance": "You need to have a pocket watcher badge to view this.", "badges": [{"name": "Maiden Voyage", "text": "you shipped your first project! the journey begins...", "icon": "\ud83d\udea2"}], "created_at": "2025-06-30T11:38:05.995-04:00", "updated_at": "2025-09-10T22:57:49.777-04:00", "avatar": "https://avatars.slack-edge.com/2025-07-25/9265893778321_cce8345337fb42b2f7ce_original.png", "custom_css": null}, {"id": 13318, "slack_id": "U093JQ5TM7G", "display_name": "Doha", "bio": null, "projects_count": 0, "devlogs_count": 0, "votes_count": 0, "ships_count": 0, "projects": [], "coding_time_seconds": 0, "coding_time_seconds_today": 0, "balance": "You need to have a pocket watcher badge to view this.", "badges": [], "created_at": "2025-06-30T11:38:12.176-04:00", "updated_at": "2025-07-03T22:04:18.042-04:00", "avatar": "https://secure.gravatar.com/avatar/ca79fd5aeb912dfdee593acf3d655bb9.jpg?s=512&d=https%3A%2F%2Fa.slack-edge.com%2Fdf10d%2Fimg%2Favatars%2Fava_0005-512.png", "custom_css": null}, {"id": 13319, "slack_id": "U07LKNBB1HB", "display_name": "Maxim", "bio": null, "projects_count": 1, "devlogs_count": 12, "votes_count": 43, "ships_count": 1, "projects": [{"id": 4580, "title": "FreePaperMaps", "devlogs_count": 12, "created_at": "2025-06-30T18:47:04.987-04:00"}], "coding_time_seconds": 341422, "coding_time_seconds_today": 0, "balance": "You need to have a pocket watcher badge to view this.", "badges": [{"name": "Maiden Voyage", "text": "you shipped your first project! the journey begins...", "icon": "\ud83d\udea2"}], "created_at": "2025-06-30T11:38:16.467-04:00", "updated_at": "2025-09-10T22:57:50.022-04:00", "avatar": "https://secure.gravatar.com/avatar/12d0020ff69ef55cb4a00cf7054373e7.jpg?s=512&d=https%3A%2F%2Fa.slack-edge.com%2Fdf10d%2Fimg%2Favatars%2Fava_0019-512.png", "custom_css": null}, {"id": 13320, "slack_id": "U093A08EZJB", "display_name": "Kendrick Bui", "bio": null, "projects_count": 0, "devlogs_count": 0, "votes_count": 0, "ships_count": 0, "projects": [], "coding_time_seconds": 0, "coding_time_seconds_today": 0, "balance": "You need to have a pocket watcher badge to view this.", "badges": [], "created_at": "2025-06-30T11:39:25.589-04:00", "updated_at": "2025-07-05T20:15:14.697-04:00", "avatar": "https://avatars.slack-edge.com/2025-06-30/9124236601157_b31a82fae7d0cc13443f_original.jpg", "custom_css": null}], "pagination": {"page": 666, "pages": 1192, "count": 23828, "items": 20}}