{"users": [{"id": 13321, "slack_id": "U094C2CUH6C", "display_name": "Himank Mahani", "bio": null, "projects_count": 0, "devlogs_count": 0, "votes_count": 0, "ships_count": 0, "projects": [], "coding_time_seconds": 126203, "coding_time_seconds_today": 0, "balance": "You need to have a pocket watcher badge to view this.", "badges": [], "created_at": "2025-06-30T11:40:37.473-04:00", "updated_at": "2025-07-03T20:07:20.324-04:00", "avatar": "https://secure.gravatar.com/avatar/ad4fb34c6992176a5b5edbdfe57fc1e2.jpg?s=512&d=https%3A%2F%2Fa.slack-edge.com%2Fdf10d%2Fimg%2Favatars%2Fava_0024-512.png", "custom_css": null}, {"id": 13322, "slack_id": "U093Q3PP76W", "display_name": "Berkan", "bio": null, "projects_count": 0, "devlogs_count": 0, "votes_count": 0, "ships_count": 0, "projects": [], "coding_time_seconds": 0, "coding_time_seconds_today": 0, "balance": "You need to have a pocket watcher badge to view this.", "badges": [], "created_at": "2025-06-30T11:41:02.517-04:00", "updated_at": "2025-07-03T20:07:20.599-04:00", "avatar": "https://secure.gravatar.com/avatar/80669d16df79a8351536153a80c1a278.jpg?s=512&d=https%3A%2F%2Fa.slack-edge.com%2Fdf10d%2Fimg%2Favatars%2Fava_0024-512.png", "custom_css": null}, {"id": 13323, "slack_id": "U094C2L0Y2U", "display_name": "Tim Nikitin", "bio": null, "projects_count": 0, "devlogs_count": 0, "votes_count": 0, "ships_count": 0, "projects": [], "coding_time_seconds": 0, "coding_time_seconds_today": 0, "balance": "You need to have a pocket watcher badge to view this.", "badges": [], "created_at": "2025-06-30T11:41:49.470-04:00", "updated_at": "2025-07-03T20:07:20.865-04:00", "avatar": "https://secure.gravatar.com/avatar/e121f57163dd4556c55eb21c7e15cabd.jpg?s=512&d=https%3A%2F%2Fa.slack-edge.com%2Fdf10d%2Fimg%2Favatars%2Fava_0020-512.png", "custom_css": null}, {"id": 13324, "slack_id": "U093N77MPFF", "display_name": "kobe", "bio": null, "projects_count": 0, "devlogs_count": 0, "votes_count": 0, "ships_count": 0, "projects": [], "coding_time_seconds": 0, "coding_time_seconds_today": 0, "balance": "You need to have a pocket watcher badge to view this.", "badges": [], "created_at": "2025-06-30T11:46:18.850-04:00", "updated_at": "2025-07-03T20:07:21.129-04:00", "avatar": "https://secure.gravatar.com/avatar/75c884c8d3f42ce2b1fadb99e805dbbe.jpg?s=512&d=https%3A%2F%2Fa.slack-edge.com%2Fdf10d%2Fimg%2Favatars%2Fava_0020-512.png", "custom_css": null}, {"id": 13325, "slack_id": "U094C3UKDKJ", "display_name": "Vikash kumar", "bio": null, "projects_count": 0, "devlogs_count": 0, "votes_count": 0, "ships_count": 0, "projects": [], "coding_time_seconds": 0, "coding_time_seconds_today": 0, "balance": "You need to have a pocket watcher badge to view this.", "badges": [], "created_at": "2025-06-30T11:46:24.831-04:00", "updated_at": "2025-07-03T20:07:21.401-04:00", "avatar": "https://secure.gravatar.com/avatar/096148cd218323a8665de49b60ec6bd9.jpg?s=512&d=https%3A%2F%2Fa.slack-edge.com%2Fdf10d%2Fimg%2Favatars%2Fava_0000-512.png", "custom_css": null}, {"id": 13326, "slack_id": "U093R94MAQ4", "display_name": "Michael Mafort", "bio": null, "projects_count": 0, "devlogs_count": 0, "votes_count": 0, "ships_count": 0, "projects": [], "coding_time_seconds": 0, "coding_time_seconds_today": 0, "balance": "You need to have a pocket watcher badge to view this.", "badges": [], "created_at": "2025-06-30T11:46:52.662-04:00", "updated_at": "2025-07-03T20:07:21.674-04:00", "avatar": "https://secure.gravatar.com/avatar/bdf24ec4f08de8ce1afc5422bdff6329.jpg?s=512&d=https%3A%2F%2Fa.slack-edge.com%2Fdf10d%2Fimg%2Favatars%2Fava_0005-512.png", "custom_css": null}, {"id": 13327, "slack_id": "U093A20D6SK", "display_name": "Tanish Gupta", "bio": null, "projects_count": 0, "devlogs_count": 0, "votes_count": 0, "ships_count": 0, "projects": [], "coding_time_seconds": 0, "coding_time_seconds_today": 0, "balance": "You need to have a pocket watcher badge to view this.", "badges": [], "created_at": "2025-06-30T11:48:10.663-04:00", "updated_at": "2025-07-03T22:04:18.709-04:00", "avatar": "https://avatars.slack-edge.com/2025-06-30/9139073499377_b223cd8e2419ff418959_original.jpg", "custom_css": null}, {"id": 13328, "slack_id": "U093BA7GGJF", "display_name": "Aiden Cohen", "bio": null, "projects_count": 0, "devlogs_count": 0, "votes_count": 0, "ships_count": 0, "projects": [], "coding_time_seconds": 9837, "coding_time_seconds_today": 0, "balance": "You need to have a pocket watcher badge to view this.", "badges": [], "created_at": "2025-06-30T11:48:48.321-04:00", "updated_at": "2025-07-03T20:07:22.064-04:00", "avatar": "https://avatars.slack-edge.com/2025-06-28/9113347801139_f743978a7d3066c0d96d_original.png", "custom_css": null}, {"id": 13329, "slack_id": "U093A2YET4P", "display_name": "Jo\u00e3o Neto", "bio": null, "projects_count": 1, "devlogs_count": 1, "votes_count": 4, "ships_count": 0, "projects": [{"id": 5168, "title": " nexo-dash", "devlogs_count": 1, "created_at": "2025-07-03T14:47:40.215-04:00"}], "coding_time_seconds": 65371, "coding_time_seconds_today": 0, "balance": "You need to have a pocket watcher badge to view this.", "badges": [], "created_at": "2025-06-30T11:53:17.899-04:00", "updated_at": "2025-07-06T14:14:31.339-04:00", "avatar": "https://secure.gravatar.com/avatar/08e3ec4d120a61d9cf57f465ed576159.jpg?s=512&d=https%3A%2F%2Fa.slack-edge.com%2Fdf10d%2Fimg%2Favatars%2Fava_0014-512.png", "custom_css": null}, {"id": 13330, "slack_id": "U09432LKLV7", "display_name": "Do Huy Thinh", "bio": null, "projects_count": 0, "devlogs_count": 0, "votes_count": 0, "ships_count": 0, "projects": [], "coding_time_seconds": 0, "coding_time_seconds_today": 0, "balance": "You need to have a pocket watcher badge to view this.", "badges": [], "created_at": "2025-06-30T11:53:46.660-04:00", "updated_at": "2025-07-03T20:07:22.463-04:00", "avatar": "https://secure.gravatar.com/avatar/74de8766e906ba0ea2d5835421914edd.jpg?s=512&d=https%3A%2F%2Fa.slack-edge.com%2Fdf10d%2Fimg%2Favatars%2Fava_0012-512.png", "custom_css": null}, {"id": 13331, "slack_id": "U093Q6TM4JW", "display_name": "luffy", "bio": null, "projects_count": 0, "devlogs_count": 0, "votes_count": 0, "ships_count": 0, "projects": [], "coding_time_seconds": 0, "coding_time_seconds_today": 0, "balance": "You need to have a pocket watcher badge to view this.", "badges": [], "created_at": "2025-06-30T11:55:38.587-04:00", "updated_at": "2025-07-03T20:07:22.724-04:00", "avatar": "https://secure.gravatar.com/avatar/7eec658b676aafd3985ada935c7ef848.jpg?s=512&d=https%3A%2F%2Fa.slack-edge.com%2Fdf10d%2Fimg%2Favatars%2Fava_0010-512.png", "custom_css": null}, {"id": 13332, "slack_id": "U094C5NNYG0", "display_name": "Abhijeet", "bio": null, "projects_count": 0, "devlogs_count": 0, "votes_count": 0, "ships_count": 0, "projects": [], "coding_time_seconds": 4481, "coding_time_seconds_today": 0, "balance": "You need to have a pocket watcher badge to view this.", "badges": [], "created_at": "2025-06-30T11:55:52.071-04:00", "updated_at": "2025-07-03T20:07:22.982-04:00", "avatar": "https://secure.gravatar.com/avatar/662988db306dbc5767e0214077a413f7.jpg?s=512&d=https%3A%2F%2Fa.slack-edge.com%2Fdf10d%2Fimg%2Favatars%2Fava_0001-512.png", "custom_css": null}, {"id": 13333, "slack_id": "U093H42T9B5", "display_name": "SummerHackClubGuy", "bio": null, "projects_count": 0, "devlogs_count": 0, "votes_count": 0, "ships_count": 0, "projects": [], "coding_time_seconds": 0, "coding_time_seconds_today": 0, "balance": "You need to have a pocket watcher badge to view this.", "badges": [], "created_at": "2025-06-30T11:57:08.906-04:00", "updated_at": "2025-07-03T20:07:23.242-04:00", "avatar": "https://secure.gravatar.com/avatar/b43b01e1ba62f4b139cb5606bcd5ed47.jpg?s=512&d=https%3A%2F%2Fa.slack-edge.com%2Fdf10d%2Fimg%2Favatars%2Fava_0010-512.png", "custom_css": null}, {"id": 13334, "slack_id": "U09433FMFT3", "display_name": "P.M.SALMAN KHAN", "bio": null, "projects_count": 0, "devlogs_count": 0, "votes_count": 0, "ships_count": 0, "projects": [], "coding_time_seconds": 0, "coding_time_seconds_today": 0, "balance": "You need to have a pocket watcher badge to view this.", "badges": [], "created_at": "2025-06-30T11:57:57.647-04:00", "updated_at": "2025-07-03T22:04:19.194-04:00", "avatar": "https://avatars.slack-edge.com/2025-06-30/9127392182676_5d81683ac0dfae5b5275_original.jpg", "custom_css": null}, {"id": 13335, "slack_id": "U094C61PFFS", "display_name": "Megan_ts_coder", "bio": null, "projects_count": 0, "devlogs_count": 0, "votes_count": 0, "ships_count": 0, "projects": [], "coding_time_seconds": 6884, "coding_time_seconds_today": 0, "balance": "You need to have a pocket watcher badge to view this.", "badges": [], "created_at": "2025-06-30T11:58:05.832-04:00", "updated_at": "2025-07-03T20:07:23.721-04:00", "avatar": "https://secure.gravatar.com/avatar/084f680bce9ae192162009d3c2b20a19.jpg?s=512&d=https%3A%2F%2Fa.slack-edge.com%2Fdf10d%2Fimg%2Favatars%2Fava_0010-512.png", "custom_css": null}, {"id": 13336, "slack_id": "U07G0C6JZME", "display_name": "jim", "bio": "Full-Stack 15 year old developer from greece\n- Freelanced on python for 3 years\n- Recently I got first place on a hackathon around AI\n- Launched AI SaaS Startup\n- Currently working on a custom programming language", "projects_count": 12, "devlogs_count": 46, "votes_count": 81, "ships_count": 4, "projects": [{"id": 4522, "title": "Hand gestures to volume", "devlogs_count": 2, "created_at": "2025-06-30T12:17:52.775-04:00"}, {"id": 5153, "title": "Dropboard", "devlogs_count": 5, "created_at": "2025-07-03T13:48:42.354-04:00"}, {"id": 8999, "title": "Codecheck", "devlogs_count": 1, "created_at": "2025-07-30T06:31:06.663-04:00"}, {"id": 9000, "title": "Codecheck", "devlogs_count": 0, "created_at": "2025-07-30T06:31:06.754-04:00"}, {"id": 10854, "title": "Gina", "devlogs_count": 5, "created_at": "2025-08-11T10:35:59.043-04:00"}, {"id": 12149, "title": "Clinic AI", "devlogs_count": 7, "created_at": "2025-08-23T16:50:19.046-04:00"}, {"id": 12812, "title": "Lucy (ysws-orgs)", "devlogs_count": 0, "created_at": "2025-09-03T05:06:40.514-04:00"}, {"id": 12813, "title": "Lucy (ysws-orgs)", "devlogs_count": 2, "created_at": "2025-09-03T05:06:47.698-04:00"}, {"id": 4898, "title": "Programming Language (custom)", "devlogs_count": 12, "created_at": "2025-07-02T04:44:39.962-04:00"}, {"id": 4529, "title": "Cancer Prediction Python ML", "devlogs_count": 6, "created_at": "2025-06-30T13:12:27.367-04:00"}, {"id": 4897, "title": "Custom Programming Language", "devlogs_count": 0, "created_at": "2025-07-02T04:44:37.603-04:00"}, {"id": 7872, "title": "Authly", "devlogs_count": 5, "created_at": "2025-07-23T11:05:47.629-04:00"}], "coding_time_seconds": 469903, "coding_time_seconds_today": 0, "balance": "You need to have a pocket watcher badge to view this.", "badges": [{"name": "Maiden Voyage", "text": "you shipped your first project! the journey begins...", "icon": "\ud83d\udea2"}], "created_at": "2025-06-30T11:58:26.296-04:00", "updated_at": "2025-09-10T22:57:50.455-04:00", "avatar": "https://avatars.slack-edge.com/2025-08-26/9414515758950_bcd5156aa4981bc7cfd4_original.png", "custom_css": null}, {"id": 13337, "slack_id": "U093GL7DXLK", "display_name": "Srinidhi N S", "bio": null, "projects_count": 1, "devlogs_count": 0, "votes_count": 0, "ships_count": 0, "projects": [{"id": 9687, "title": "Campus-Hub", "devlogs_count": 0, "created_at": "2025-08-02T03:08:13.657-04:00"}], "coding_time_seconds": 12538, "coding_time_seconds_today": 0, "balance": "You need to have a pocket watcher badge to view this.", "badges": [], "created_at": "2025-06-30T11:59:11.558-04:00", "updated_at": "2025-08-02T03:01:06.232-04:00", "avatar": "https://secure.gravatar.com/avatar/f8d04c9b30627194603b91bda9e3b46e.jpg?s=512&d=https%3A%2F%2Fa.slack-edge.com%2Fdf10d%2Fimg%2Favatars%2Fava_0011-512.png", "custom_css": null}, {"id": 13338, "slack_id": "U093Q7V721Y", "display_name": "Riddhima Medatwal", "bio": null, "projects_count": 0, "devlogs_count": 0, "votes_count": 0, "ships_count": 0, "projects": [], "coding_time_seconds": 0, "coding_time_seconds_today": 0, "balance": "You need to have a pocket watcher badge to view this.", "badges": [], "created_at": "2025-06-30T11:59:12.918-04:00", "updated_at": "2025-07-03T20:07:24.515-04:00", "avatar": "https://avatars.slack-edge.com/2025-06-30/9127399829508_4c16934c8d9505779af7_original.jpg", "custom_css": null}, {"id": 13339, "slack_id": "U093H4PG44B", "display_name": "Muhammad", "bio": null, "projects_count": 0, "devlogs_count": 0, "votes_count": 0, "ships_count": 0, "projects": [], "coding_time_seconds": 0, "coding_time_seconds_today": 0, "balance": "You need to have a pocket watcher badge to view this.", "badges": [], "created_at": "2025-06-30T11:59:54.837-04:00", "updated_at": "2025-07-03T20:07:24.783-04:00", "avatar": "https://secure.gravatar.com/avatar/76a58f27174c25e274337ab5740e2dd5.jpg?s=512&d=https%3A%2F%2Fa.slack-edge.com%2Fdf10d%2Fimg%2Favatars%2Fava_0020-512.png", "custom_css": null}, {"id": 13340, "slack_id": "U093H4DSAAX", "display_name": "Sanat", "bio": null, "projects_count": 0, "devlogs_count": 0, "votes_count": 0, "ships_count": 0, "projects": [], "coding_time_seconds": 0, "coding_time_seconds_today": 0, "balance": "You need to have a pocket watcher badge to view this.", "badges": [], "created_at": "2025-06-30T12:00:18.297-04:00", "updated_at": "2025-07-03T20:07:25.042-04:00", "avatar": "https://secure.gravatar.com/avatar/4c545d35734625d6f26e088545c82c96.jpg?s=512&d=https%3A%2F%2Fa.slack-edge.com%2Fdf10d%2Fimg%2Favatars%2Fava_0023-512.png", "custom_css": null}], "pagination": {"page": 667, "pages": 1192, "count": 23828, "items": 20}}