{"users": [{"id": 13341, "slack_id": "U093JV48B54", "display_name": "dilz", "bio": null, "projects_count": 1, "devlogs_count": 1, "votes_count": 0, "ships_count": 0, "projects": [{"id": 4523, "title": "yomu", "devlogs_count": 1, "created_at": "2025-06-30T12:25:18.530-04:00"}], "coding_time_seconds": 759, "coding_time_seconds_today": 0, "balance": "You need to have a pocket watcher badge to view this.", "badges": [], "created_at": "2025-06-30T12:04:19.552-04:00", "updated_at": "2025-07-03T20:07:25.303-04:00", "avatar": "https://secure.gravatar.com/avatar/957171d84a12cf2bd5119fc7e61c8c1e.jpg?s=512&d=https%3A%2F%2Fa.slack-edge.com%2Fdf10d%2Fimg%2Favatars%2Fava_0025-512.png", "custom_css": null}, {"id": 13342, "slack_id": "U094C7X4WMN", "display_name": "Sidharth Grover", "bio": null, "projects_count": 0, "devlogs_count": 0, "votes_count": 0, "ships_count": 0, "projects": [], "coding_time_seconds": 0, "coding_time_seconds_today": 0, "balance": "You need to have a pocket watcher badge to view this.", "badges": [], "created_at": "2025-06-30T12:05:17.783-04:00", "updated_at": "2025-07-03T20:07:25.566-04:00", "avatar": "https://secure.gravatar.com/avatar/2b48ee0ef5cf989fa50fabe20aad8d1b.jpg?s=512&d=https%3A%2F%2Fa.slack-edge.com%2Fdf10d%2Fimg%2Favatars%2Fava_0011-512.png", "custom_css": null}, {"id": 13343, "slack_id": "U08QX8WUQCD", "display_name": "Dominic", "bio": null, "projects_count": 3, "devlogs_count": 7, "votes_count": 4, "ships_count": 1, "projects": [{"id": 4846, "title": "Keto", "devlogs_count": 2, "created_at": "2025-07-01T21:45:58.155-04:00"}, {"id": 7740, "title": "Aura Code", "devlogs_count": 0, "created_at": "2025-07-22T19:43:07.902-04:00"}, {"id": 6058, "title": "Nocturne", "devlogs_count": 5, "created_at": "2025-07-10T09:33:28.414-04:00"}], "coding_time_seconds": 467130, "coding_time_seconds_today": 0, "balance": "You need to have a pocket watcher badge to view this.", "badges": [{"name": "Maiden Voyage", "text": "you shipped your first project! the journey begins...", "icon": "\ud83d\udea2"}], "created_at": "2025-06-30T12:08:17.054-04:00", "updated_at": "2025-09-10T22:57:50.626-04:00", "avatar": "https://avatars.slack-edge.com/2025-05-19/8905986553271_5c56914244e91e42828c_original.png", "custom_css": null}, {"id": 13344, "slack_id": "U093YB7DCAD", "display_name": "AttiPlayz", "bio": null, "projects_count": 0, "devlogs_count": 0, "votes_count": 0, "ships_count": 0, "projects": [], "coding_time_seconds": 0, "coding_time_seconds_today": 0, "balance": "You need to have a pocket watcher badge to view this.", "badges": [], "created_at": "2025-06-30T12:08:28.832-04:00", "updated_at": "2025-07-03T20:07:26.102-04:00", "avatar": "https://secure.gravatar.com/avatar/7bb27325c7ba7c3e9aa6bd03ff7542f8.jpg?s=512&d=https%3A%2F%2Fa.slack-edge.com%2Fdf10d%2Fimg%2Favatars%2Fava_0024-512.png", "custom_css": null}, {"id": 13345, "slack_id": "U094C8MMN8Y", "display_name": "Rick", "bio": null, "projects_count": 0, "devlogs_count": 0, "votes_count": 0, "ships_count": 0, "projects": [], "coding_time_seconds": 0, "coding_time_seconds_today": 0, "balance": "You need to have a pocket watcher badge to view this.", "badges": [], "created_at": "2025-06-30T12:08:35.301-04:00", "updated_at": "2025-07-03T20:07:26.360-04:00", "avatar": "https://secure.gravatar.com/avatar/f1913b691e62ba8b9996e01b0d465d1d.jpg?s=512&d=https%3A%2F%2Fa.slack-edge.com%2Fdf10d%2Fimg%2Favatars%2Fava_0014-512.png", "custom_css": null}, {"id": 13346, "slack_id": "U094C7GN3T2", "display_name": "Whitebow", "bio": null, "projects_count": 0, "devlogs_count": 0, "votes_count": 0, "ships_count": 0, "projects": [], "coding_time_seconds": 50460, "coding_time_seconds_today": 0, "balance": "You need to have a pocket watcher badge to view this.", "badges": [], "created_at": "2025-06-30T12:08:43.502-04:00", "updated_at": "2025-07-05T14:16:34.516-04:00", "avatar": "https://secure.gravatar.com/avatar/dd56197b2d442589a1c3ad253f3d1819.jpg?s=512&d=https%3A%2F%2Fa.slack-edge.com%2Fdf10d%2Fimg%2Favatars%2Fava_0024-512.png", "custom_css": null}, {"id": 13347, "slack_id": "U093H6YPCM9", "display_name": "lelillilly", "bio": null, "projects_count": 0, "devlogs_count": 0, "votes_count": 0, "ships_count": 0, "projects": [], "coding_time_seconds": 0, "coding_time_seconds_today": 0, "balance": "You need to have a pocket watcher badge to view this.", "badges": [], "created_at": "2025-06-30T12:11:09.339-04:00", "updated_at": "2025-07-03T20:07:26.756-04:00", "avatar": "https://secure.gravatar.com/avatar/9b3bf88ad3e02a8dbcc575d4936a238c.jpg?s=512&d=https%3A%2F%2Fa.slack-edge.com%2Fdf10d%2Fimg%2Favatars%2Fava_0005-512.png", "custom_css": null}, {"id": 13348, "slack_id": "U093NC1H1C5", "display_name": "ukrzaliznitsya", "bio": null, "projects_count": 0, "devlogs_count": 0, "votes_count": 0, "ships_count": 0, "projects": [], "coding_time_seconds": 0, "coding_time_seconds_today": 0, "balance": "You need to have a pocket watcher badge to view this.", "badges": [], "created_at": "2025-06-30T12:11:18.760-04:00", "updated_at": "2025-07-03T22:04:20.112-04:00", "avatar": "https://secure.gravatar.com/avatar/ec8068f781dac0e679ccd6ca4ec04d6c.jpg?s=512&d=https%3A%2F%2Fa.slack-edge.com%2Fdf10d%2Fimg%2Favatars%2Fava_0020-512.png", "custom_css": null}, {"id": 13349, "slack_id": "U093A6T2571", "display_name": "Jonathan", "bio": null, "projects_count": 0, "devlogs_count": 0, "votes_count": 0, "ships_count": 0, "projects": [], "coding_time_seconds": 33108, "coding_time_seconds_today": 0, "balance": "You need to have a pocket watcher badge to view this.", "badges": [], "created_at": "2025-06-30T12:11:22.781-04:00", "updated_at": "2025-07-05T02:14:49.450-04:00", "avatar": "https://secure.gravatar.com/avatar/8a839c4bcd78c12b3700ccd514c48d83.jpg?s=512&d=https%3A%2F%2Fa.slack-edge.com%2Fdf10d%2Fimg%2Favatars%2Fava_0015-512.png", "custom_css": null}, {"id": 13350, "slack_id": "U093H75EGGK", "display_name": "Shivam Ganguly", "bio": null, "projects_count": 0, "devlogs_count": 0, "votes_count": 0, "ships_count": 0, "projects": [], "coding_time_seconds": 106921, "coding_time_seconds_today": 0, "balance": "You need to have a pocket watcher badge to view this.", "badges": [], "created_at": "2025-06-30T12:11:44.635-04:00", "updated_at": "2025-07-04T20:14:12.792-04:00", "avatar": "https://secure.gravatar.com/avatar/b9e1a0899ba8e3e546b756d5218c9a1a.jpg?s=512&d=https%3A%2F%2Fa.slack-edge.com%2Fdf10d%2Fimg%2Favatars%2Fava_0002-512.png", "custom_css": null}, {"id": 13351, "slack_id": "U093NCP2A5B", "display_name": "petik", "bio": null, "projects_count": 1, "devlogs_count": 1, "votes_count": 0, "ships_count": 0, "projects": [{"id": 5170, "title": "Launchpad Animator", "devlogs_count": 1, "created_at": "2025-07-03T15:13:28.841-04:00"}], "coding_time_seconds": 16541, "coding_time_seconds_today": 0, "balance": "You need to have a pocket watcher badge to view this.", "badges": [], "created_at": "2025-06-30T12:12:05.489-04:00", "updated_at": "2025-07-03T20:07:27.425-04:00", "avatar": "https://avatars.slack-edge.com/2025-06-30/9112503508487_45d5b91d223b3505ac5b_original.png", "custom_css": null}, {"id": 13352, "slack_id": "U093QA576M8", "display_name": "Erik Currier", "bio": null, "projects_count": 0, "devlogs_count": 0, "votes_count": 0, "ships_count": 0, "projects": [], "coding_time_seconds": 0, "coding_time_seconds_today": 0, "balance": "You need to have a pocket watcher badge to view this.", "badges": [], "created_at": "2025-06-30T12:13:02.253-04:00", "updated_at": "2025-07-05T02:14:49.658-04:00", "avatar": "https://secure.gravatar.com/avatar/3b93dcb7030bcb654c5b1b4e2db87072.jpg?s=512&d=https%3A%2F%2Fa.slack-edge.com%2Fdf10d%2Fimg%2Favatars%2Fava_0021-512.png", "custom_css": null}, {"id": 13353, "slack_id": "U093NCE8D1T", "display_name": "Anuj mishra", "bio": null, "projects_count": 0, "devlogs_count": 0, "votes_count": 0, "ships_count": 0, "projects": [], "coding_time_seconds": 0, "coding_time_seconds_today": 0, "balance": "You need to have a pocket watcher badge to view this.", "badges": [], "created_at": "2025-06-30T12:14:13.000-04:00", "updated_at": "2025-07-05T14:16:34.974-04:00", "avatar": "https://secure.gravatar.com/avatar/a6536bdc35228e7c57fd8ce37a5e6dab.jpg?s=512&d=https%3A%2F%2Fa.slack-edge.com%2Fdf10d%2Fimg%2Favatars%2Fava_0022-512.png", "custom_css": null}, {"id": 13354, "slack_id": "U081RUXGF7H", "display_name": "Dili", "bio": null, "projects_count": 1, "devlogs_count": 0, "votes_count": 1, "ships_count": 0, "projects": [{"id": 8799, "title": "ARS Glasses", "devlogs_count": 0, "created_at": "2025-07-29T09:55:18.967-04:00"}], "coding_time_seconds": 45430, "coding_time_seconds_today": 0, "balance": "You need to have a pocket watcher badge to view this.", "badges": [], "created_at": "2025-06-30T12:14:40.571-04:00", "updated_at": "2025-09-08T13:33:18.865-04:00", "avatar": "https://avatars.slack-edge.com/2025-07-29/9272738165700_bee538c170cd6f2b9968_original.png", "custom_css": null}, {"id": 13355, "slack_id": "U093K1SD3AS", "display_name": "Nguy\u1ec5n C\u01b0\u01a1ng L\u0129nh", "bio": null, "projects_count": 0, "devlogs_count": 0, "votes_count": 0, "ships_count": 0, "projects": [], "coding_time_seconds": 0, "coding_time_seconds_today": 0, "balance": "You need to have a pocket watcher badge to view this.", "badges": [], "created_at": "2025-06-30T12:16:12.266-04:00", "updated_at": "2025-07-07T08:14:37.636-04:00", "avatar": "https://avatars.slack-edge.com/2025-07-01/9128383719172_1155996b9f30c97c90f9_original.png", "custom_css": null}, {"id": 13356, "slack_id": "U094C9L9532", "display_name": "Alan Rong", "bio": null, "projects_count": 0, "devlogs_count": 0, "votes_count": 0, "ships_count": 0, "projects": [], "coding_time_seconds": 777, "coding_time_seconds_today": 0, "balance": "You need to have a pocket watcher badge to view this.", "badges": [], "created_at": "2025-06-30T12:16:18.207-04:00", "updated_at": "2025-07-03T20:07:28.285-04:00", "avatar": "https://secure.gravatar.com/avatar/dff079159d45727a27f4d67166d4b04c.jpg?s=512&d=https%3A%2F%2Fa.slack-edge.com%2Fdf10d%2Fimg%2Favatars%2Fava_0010-512.png", "custom_css": null}, {"id": 13357, "slack_id": "U093NDFSMMK", "display_name": "Nick Adams", "bio": null, "projects_count": 0, "devlogs_count": 0, "votes_count": 0, "ships_count": 0, "projects": [], "coding_time_seconds": 0, "coding_time_seconds_today": 0, "balance": "You need to have a pocket watcher badge to view this.", "badges": [], "created_at": "2025-06-30T12:16:25.565-04:00", "updated_at": "2025-07-05T02:14:50.044-04:00", "avatar": "https://avatars.slack-edge.com/2025-06-30/9112277264007_9c7740c8e1440e25e24a_original.png", "custom_css": null}, {"id": 13358, "slack_id": "U093H7PSE4T", "display_name": "Lucifer", "bio": null, "projects_count": 0, "devlogs_count": 0, "votes_count": 0, "ships_count": 0, "projects": [], "coding_time_seconds": 0, "coding_time_seconds_today": 0, "balance": "You need to have a pocket watcher badge to view this.", "badges": [], "created_at": "2025-06-30T12:16:56.568-04:00", "updated_at": "2025-07-03T20:07:28.694-04:00", "avatar": "https://secure.gravatar.com/avatar/790601db101a6f354d01874073b01a12.jpg?s=512&d=https%3A%2F%2Fa.slack-edge.com%2Fdf10d%2Fimg%2Favatars%2Fava_0008-512.png", "custom_css": null}, {"id": 13359, "slack_id": "U093A6L217H", "display_name": "Refilwe", "bio": null, "projects_count": 0, "devlogs_count": 0, "votes_count": 0, "ships_count": 0, "projects": [], "coding_time_seconds": 0, "coding_time_seconds_today": 0, "balance": "You need to have a pocket watcher badge to view this.", "badges": [], "created_at": "2025-06-30T12:18:10.695-04:00", "updated_at": "2025-07-03T20:07:28.955-04:00", "avatar": "https://secure.gravatar.com/avatar/8d0c9b1b395fbf76ca5eca59b3eb2ec7.jpg?s=512&d=https%3A%2F%2Fa.slack-edge.com%2Fdf10d%2Fimg%2Favatars%2Fava_0000-512.png", "custom_css": null}, {"id": 13360, "slack_id": "U093NDNSW5B", "display_name": "phuquocchamp", "bio": null, "projects_count": 0, "devlogs_count": 0, "votes_count": 0, "ships_count": 0, "projects": [], "coding_time_seconds": 0, "coding_time_seconds_today": 0, "balance": "You need to have a pocket watcher badge to view this.", "badges": [], "created_at": "2025-06-30T12:18:51.481-04:00", "updated_at": "2025-07-05T02:14:50.253-04:00", "avatar": "https://secure.gravatar.com/avatar/47ca6f9bc54ed6133888c005822d1f64.jpg?s=512&d=https%3A%2F%2Fa.slack-edge.com%2Fdf10d%2Fimg%2Favatars%2Fava_0015-512.png", "custom_css": null}], "pagination": {"page": 668, "pages": 1192, "count": 23828, "items": 20}}