{"users": [{"id": 1321, "slack_id": "U091869R8MD", "display_name": "Russel Dsouza", "bio": null, "projects_count": 0, "devlogs_count": 0, "votes_count": 0, "ships_count": 0, "projects": [], "coding_time_seconds": 0, "coding_time_seconds_today": 0, "balance": "You need to have a pocket watcher badge to view this.", "badges": [], "created_at": "2025-06-16T13:02:35.101-04:00", "updated_at": "2025-07-03T19:17:06.864-04:00", "avatar": "https://avatars.slack-edge.com/2025-06-16/9057531149826_2f530fca20917e04691b_original.png", "custom_css": null}, {"id": 1322, "slack_id": "U09184G0DJT", "display_name": "rajnish", "bio": null, "projects_count": 0, "devlogs_count": 0, "votes_count": 0, "ships_count": 0, "projects": [], "coding_time_seconds": 0, "coding_time_seconds_today": 0, "balance": "You need to have a pocket watcher badge to view this.", "badges": [], "created_at": "2025-06-16T13:02:45.651-04:00", "updated_at": "2025-07-09T14:02:46.202-04:00", "avatar": "https://avatars.slack-edge.com/2025-07-09/9167334040742_5226b316ef878d7c81a1_original.jpg", "custom_css": null}, {"id": 1323, "slack_id": "U091PTJ5YRJ", "display_name": "HARRYYY", "bio": null, "projects_count": 0, "devlogs_count": 0, "votes_count": 0, "ships_count": 0, "projects": [], "coding_time_seconds": 10718, "coding_time_seconds_today": 0, "balance": "You need to have a pocket watcher badge to view this.", "badges": [], "created_at": "2025-06-16T13:02:56.768-04:00", "updated_at": "2025-07-03T19:17:07.412-04:00", "avatar": "https://secure.gravatar.com/avatar/10eefeb027561ecbf64bd48e54761939.jpg?s=512&d=https%3A%2F%2Fa.slack-edge.com%2Fdf10d%2Fimg%2Favatars%2Fava_0017-512.png", "custom_css": null}, {"id": 1324, "slack_id": "U092BUV2T1N", "display_name": "Oleksii Novytskyi", "bio": null, "projects_count": 1, "devlogs_count": 1, "votes_count": 0, "ships_count": 0, "projects": [{"id": 366, "title": "wbsrv", "devlogs_count": 1, "created_at": "2025-06-16T19:21:53.869-04:00"}], "coding_time_seconds": 124683, "coding_time_seconds_today": 0, "balance": "You need to have a pocket watcher badge to view this.", "badges": [], "created_at": "2025-06-16T13:02:58.440-04:00", "updated_at": "2025-07-03T19:17:07.683-04:00", "avatar": "https://avatars.slack-edge.com/2025-06-16/9050671591814_7ccc3ea49a5b21f8b9cc_original.jpg", "custom_css": null}, {"id": 1325, "slack_id": "U07A7DQNCAV", "display_name": "joey", "bio": null, "projects_count": 1, "devlogs_count": 0, "votes_count": 0, "ships_count": 0, "projects": [{"id": 10207, "title": "Cozy Campfires", "devlogs_count": 0, "created_at": "2025-08-05T00:15:34.685-04:00"}], "coding_time_seconds": 73786, "coding_time_seconds_today": 0, "balance": "You need to have a pocket watcher badge to view this.", "badges": [], "created_at": "2025-06-16T13:03:00.418-04:00", "updated_at": "2025-07-03T19:17:07.948-04:00", "avatar": "https://avatars.slack-edge.com/2024-06-26/7337295947412_d95c72caa3e6b8351872_original.png", "custom_css": null}, {"id": 1326, "slack_id": "U091865RL3Z", "display_name": "KevIron", "bio": null, "projects_count": 1, "devlogs_count": 4, "votes_count": 1, "ships_count": 0, "projects": [{"id": 197, "title": "Nodesole", "devlogs_count": 4, "created_at": "2025-06-16T15:16:33.597-04:00"}], "coding_time_seconds": 80920, "coding_time_seconds_today": 0, "balance": "You need to have a pocket watcher badge to view this.", "badges": [], "created_at": "2025-06-16T13:03:02.231-04:00", "updated_at": "2025-07-28T05:45:29.089-04:00", "avatar": "https://secure.gravatar.com/avatar/a7f119e7ae4a3b5885335d44b2397801.jpg?s=512&d=https%3A%2F%2Fa.slack-edge.com%2Fdf10d%2Fimg%2Favatars%2Fava_0006-512.png", "custom_css": null}, {"id": 1327, "slack_id": "U091PTJFSTW", "display_name": "Artur Miguel", "bio": null, "projects_count": 0, "devlogs_count": 0, "votes_count": 0, "ships_count": 0, "projects": [], "coding_time_seconds": 0, "coding_time_seconds_today": 0, "balance": "You need to have a pocket watcher badge to view this.", "badges": [], "created_at": "2025-06-16T13:03:15.894-04:00", "updated_at": "2025-07-03T19:17:08.492-04:00", "avatar": "https://secure.gravatar.com/avatar/ec6b4fe3c430c79e45da7d406072d2e7.jpg?s=512&d=https%3A%2F%2Fa.slack-edge.com%2Fdf10d%2Fimg%2Favatars%2Fava_0026-512.png", "custom_css": null}, {"id": 1328, "slack_id": "U091PF7UEKC", "display_name": "Tushar Sharma", "bio": null, "projects_count": 0, "devlogs_count": 0, "votes_count": 0, "ships_count": 0, "projects": [], "coding_time_seconds": 6880, "coding_time_seconds_today": 0, "balance": "You need to have a pocket watcher badge to view this.", "badges": [], "created_at": "2025-06-16T13:03:26.899-04:00", "updated_at": "2025-07-03T19:17:08.759-04:00", "avatar": "https://avatars.slack-edge.com/2025-06-16/9055764931397_a934fae9a0c17b3ba244_original.jpg", "custom_css": null}, {"id": 1329, "slack_id": "U091MN7MNJH", "display_name": "Alex Huang", "bio": null, "projects_count": 0, "devlogs_count": 0, "votes_count": 0, "ships_count": 0, "projects": [], "coding_time_seconds": 22027, "coding_time_seconds_today": 0, "balance": "You need to have a pocket watcher badge to view this.", "badges": [], "created_at": "2025-06-16T13:03:49.141-04:00", "updated_at": "2025-07-03T19:17:09.029-04:00", "avatar": "https://secure.gravatar.com/avatar/41a567b8a0be4cf723a060b3af5d2c74.jpg?s=512&d=https%3A%2F%2Fa.slack-edge.com%2Fdf10d%2Fimg%2Favatars%2Fava_0015-512.png", "custom_css": null}, {"id": 1330, "slack_id": "U091MN5SCMT", "display_name": "Blake Harper", "bio": null, "projects_count": 1, "devlogs_count": 1, "votes_count": 0, "ships_count": 0, "projects": [{"id": 383, "title": "fishing game!", "devlogs_count": 1, "created_at": "2025-06-16T19:49:41.183-04:00"}], "coding_time_seconds": 2785, "coding_time_seconds_today": 0, "balance": "You need to have a pocket watcher badge to view this.", "badges": [], "created_at": "2025-06-16T13:03:58.682-04:00", "updated_at": "2025-07-03T19:17:09.293-04:00", "avatar": "https://secure.gravatar.com/avatar/6b199c1b9f7df6b55e4a824141db92f4.jpg?s=512&d=https%3A%2F%2Fa.slack-edge.com%2Fdf10d%2Fimg%2Favatars%2Fava_0017-512.png", "custom_css": null}, {"id": 1331, "slack_id": "U09222KFXMX", "display_name": "Asl\u0131 Bayar", "bio": null, "projects_count": 0, "devlogs_count": 0, "votes_count": 0, "ships_count": 0, "projects": [], "coding_time_seconds": 0, "coding_time_seconds_today": 0, "balance": "You need to have a pocket watcher badge to view this.", "badges": [], "created_at": "2025-06-16T13:04:03.479-04:00", "updated_at": "2025-07-03T19:17:09.562-04:00", "avatar": "https://avatars.slack-edge.com/2025-06-16/9070097129233_051919a05f68924b9e58_original.jpg", "custom_css": null}, {"id": 1332, "slack_id": "U092228FCLR", "display_name": "Sebastian David Escorcia", "bio": null, "projects_count": 1, "devlogs_count": 0, "votes_count": 0, "ships_count": 0, "projects": [{"id": 141, "title": "Kassa-Food", "devlogs_count": 0, "created_at": "2025-06-16T14:25:46.197-04:00"}], "coding_time_seconds": 13760, "coding_time_seconds_today": 0, "balance": "You need to have a pocket watcher badge to view this.", "badges": [], "created_at": "2025-06-16T13:04:04.503-04:00", "updated_at": "2025-07-03T19:17:09.827-04:00", "avatar": "https://secure.gravatar.com/avatar/3871ba71d2fa668566bf7cfd29b3a986.jpg?s=512&d=https%3A%2F%2Fa.slack-edge.com%2Fdf10d%2Fimg%2Favatars%2Fava_0012-512.png", "custom_css": null}, {"id": 1333, "slack_id": "U091MN26RU5", "display_name": "Shahbin Hossain", "bio": null, "projects_count": 0, "devlogs_count": 0, "votes_count": 0, "ships_count": 0, "projects": [], "coding_time_seconds": 221004, "coding_time_seconds_today": 0, "balance": "You need to have a pocket watcher badge to view this.", "badges": [], "created_at": "2025-06-16T13:04:07.619-04:00", "updated_at": "2025-07-03T19:17:10.107-04:00", "avatar": "https://avatars.slack-edge.com/2025-06-16/9070097207153_2aaed104161f3290612b_original.jpg", "custom_css": null}, {"id": 1334, "slack_id": "U078VEJRBR7", "display_name": "Oliver", "bio": "", "projects_count": 5, "devlogs_count": 18, "votes_count": 63, "ships_count": 4, "projects": [{"id": 1357, "title": "Branch YSWS", "devlogs_count": 4, "created_at": "2025-06-18T11:31:12.647-04:00"}, {"id": 7608, "title": "CyberKit", "devlogs_count": 5, "created_at": "2025-07-22T09:24:48.400-04:00"}, {"id": 2619, "title": "CourseNotes", "devlogs_count": 5, "created_at": "2025-06-21T13:20:30.964-04:00"}, {"id": 10013, "title": "opott.uk", "devlogs_count": 1, "created_at": "2025-08-03T12:49:47.952-04:00"}, {"id": 10561, "title": "Gradient Club", "devlogs_count": 3, "created_at": "2025-08-08T07:00:00.128-04:00"}], "coding_time_seconds": 122855, "coding_time_seconds_today": 0, "balance": "You need to have a pocket watcher badge to view this.", "badges": [{"name": "<%= admin_tool do %>", "text": "with great power comes great responsibility... and a ban hammer.", "icon": "\ud83d\udd28"}, {"name": "Maiden Voyage", "text": "you shipped your first project! the journey begins...", "icon": "\ud83d\udea2"}], "created_at": "2025-06-16T13:04:20.338-04:00", "updated_at": "2025-09-18T12:03:08.094-04:00", "avatar": "https://avatars.slack-edge.com/2025-09-18/9541398273138_3d603a5bd952cb356d45_original.png", "custom_css": null}, {"id": 1335, "slack_id": "U091GGJ6X5H", "display_name": "Developer7", "bio": null, "projects_count": 0, "devlogs_count": 0, "votes_count": 0, "ships_count": 0, "projects": [], "coding_time_seconds": 0, "coding_time_seconds_today": 0, "balance": "You need to have a pocket watcher badge to view this.", "badges": [], "created_at": "2025-06-16T13:04:21.886-04:00", "updated_at": "2025-07-03T19:17:10.652-04:00", "avatar": "https://secure.gravatar.com/avatar/38ad0c5cf6d77ec620b35fecceabf864.jpg?s=512&d=https%3A%2F%2Fa.slack-edge.com%2Fdf10d%2Fimg%2Favatars%2Fava_0017-512.png", "custom_css": null}, {"id": 1336, "slack_id": "U092BVDBPFA", "display_name": "Aman Kumar Jha", "bio": null, "projects_count": 0, "devlogs_count": 0, "votes_count": 0, "ships_count": 0, "projects": [], "coding_time_seconds": 515, "coding_time_seconds_today": 267, "balance": "You need to have a pocket watcher badge to view this.", "badges": [], "created_at": "2025-06-16T13:04:30.634-04:00", "updated_at": "2025-07-03T19:17:10.927-04:00", "avatar": "https://avatars.slack-edge.com/2025-06-16/9042248131751_9ad5d46423f7f9b6d5e7_original.jpg", "custom_css": null}, {"id": 1337, "slack_id": "U0918668E4F", "display_name": "amdla", "bio": null, "projects_count": 0, "devlogs_count": 0, "votes_count": 0, "ships_count": 0, "projects": [], "coding_time_seconds": 3264, "coding_time_seconds_today": 0, "balance": "You need to have a pocket watcher badge to view this.", "badges": [], "created_at": "2025-06-16T13:04:47.677-04:00", "updated_at": "2025-07-03T19:17:11.194-04:00", "avatar": "https://secure.gravatar.com/avatar/27deab8e3fd7f7ad96fb5eae63ff7719.jpg?s=512&d=https%3A%2F%2Fa.slack-edge.com%2Fdf10d%2Fimg%2Favatars%2Fava_0005-512.png", "custom_css": null}, {"id": 1338, "slack_id": "U09186HG4PR", "display_name": "Ankit Khandelwal", "bio": null, "projects_count": 0, "devlogs_count": 0, "votes_count": 0, "ships_count": 0, "projects": [], "coding_time_seconds": 374270, "coding_time_seconds_today": 0, "balance": "You need to have a pocket watcher badge to view this.", "badges": [], "created_at": "2025-06-16T13:05:01.429-04:00", "updated_at": "2025-07-03T19:17:11.466-04:00", "avatar": "https://secure.gravatar.com/avatar/b297c02fa9cb5a7c323c12017ba03065.jpg?s=512&d=https%3A%2F%2Fa.slack-edge.com%2Fdf10d%2Fimg%2Favatars%2Fava_0005-512.png", "custom_css": null}, {"id": 1339, "slack_id": "U09220NC93K", "display_name": "Pry Uchiha", "bio": null, "projects_count": 0, "devlogs_count": 0, "votes_count": 0, "ships_count": 0, "projects": [], "coding_time_seconds": 157188, "coding_time_seconds_today": 0, "balance": "You need to have a pocket watcher badge to view this.", "badges": [], "created_at": "2025-06-16T13:05:03.267-04:00", "updated_at": "2025-07-03T19:17:11.733-04:00", "avatar": "https://secure.gravatar.com/avatar/d57edeb7afc767b656446947c9d61d40.jpg?s=512&d=https%3A%2F%2Fa.slack-edge.com%2Fdf10d%2Fimg%2Favatars%2Fava_0025-512.png", "custom_css": null}, {"id": 1340, "slack_id": "U091GKMDMGE", "display_name": "Aayush Atharva", "bio": null, "projects_count": 0, "devlogs_count": 0, "votes_count": 0, "ships_count": 0, "projects": [], "coding_time_seconds": 0, "coding_time_seconds_today": 0, "balance": "You need to have a pocket watcher badge to view this.", "badges": [], "created_at": "2025-06-16T13:05:06.461-04:00", "updated_at": "2025-07-03T19:17:12.011-04:00", "avatar": "https://secure.gravatar.com/avatar/6d9caef0ed598817e0f49e13c24f5055.jpg?s=512&d=https%3A%2F%2Fa.slack-edge.com%2Fdf10d%2Fimg%2Favatars%2Fava_0022-512.png", "custom_css": null}], "pagination": {"page": 67, "pages": 1192, "count": 23827, "items": 20}}