{"users": [{"id": 13381, "slack_id": "U093HAKKAF5", "display_name": "Varun Singh", "bio": null, "projects_count": 1, "devlogs_count": 0, "votes_count": 0, "ships_count": 0, "projects": [{"id": 4957, "title": "TheChaiClub", "devlogs_count": 0, "created_at": "2025-07-02T11:38:08.094-04:00"}], "coding_time_seconds": 35441, "coding_time_seconds_today": 0, "balance": "You need to have a pocket watcher badge to view this.", "badges": [], "created_at": "2025-06-30T12:33:54.396-04:00", "updated_at": "2025-07-21T15:48:57.151-04:00", "avatar": "https://avatars.slack-edge.com/2025-06-30/9148459818832_15e58d20b3ab58a7e7b5_original.png", "custom_css": null}, {"id": 13382, "slack_id": "U093HAQTE4T", "display_name": "Tanya", "bio": null, "projects_count": 0, "devlogs_count": 0, "votes_count": 0, "ships_count": 0, "projects": [], "coding_time_seconds": 0, "coding_time_seconds_today": 0, "balance": "You need to have a pocket watcher badge to view this.", "badges": [], "created_at": "2025-06-30T12:35:20.485-04:00", "updated_at": "2025-07-03T20:07:34.375-04:00", "avatar": "https://secure.gravatar.com/avatar/420b315f9290c7c37ca118e8b82179a3.jpg?s=512&d=https%3A%2F%2Fa.slack-edge.com%2Fdf10d%2Fimg%2Favatars%2Fava_0015-512.png", "custom_css": null}, {"id": 13383, "slack_id": "U093QEWEACA", "display_name": "Sushi", "bio": null, "projects_count": 3, "devlogs_count": 7, "votes_count": 12, "ships_count": 1, "projects": [{"id": 5095, "title": "Clip", "devlogs_count": 4, "created_at": "2025-07-03T08:08:26.030-04:00"}, {"id": 6257, "title": "ClipSync", "devlogs_count": 1, "created_at": "2025-07-11T16:26:00.178-04:00"}, {"id": 12910, "title": "Nest Setup", "devlogs_count": 1, "created_at": "2025-09-05T05:56:00.857-04:00"}], "coding_time_seconds": 474265, "coding_time_seconds_today": 0, "balance": "You need to have a pocket watcher badge to view this.", "badges": [{"name": "Maiden Voyage", "text": "you shipped your first project! the journey begins...", "icon": "\ud83d\udea2"}], "created_at": "2025-06-30T12:36:18.439-04:00", "updated_at": "2025-09-10T22:57:51.802-04:00", "avatar": "https://secure.gravatar.com/avatar/3610ab4d5c17aa0c81ecb06adea1876f.jpg?s=512&d=https%3A%2F%2Fa.slack-edge.com%2Fdf10d%2Fimg%2Favatars%2Fava_0013-512.png", "custom_css": null}, {"id": 13384, "slack_id": "U093RGWAC68", "display_name": "Bennet Roy Mathew", "bio": null, "projects_count": 0, "devlogs_count": 0, "votes_count": 0, "ships_count": 0, "projects": [], "coding_time_seconds": 0, "coding_time_seconds_today": 0, "balance": "You need to have a pocket watcher badge to view this.", "badges": [], "created_at": "2025-06-30T12:36:43.989-04:00", "updated_at": "2025-07-03T20:07:34.908-04:00", "avatar": "https://avatars.slack-edge.com/2025-06-30/9126524579698_4e57c8b196965ea87062_original.png", "custom_css": null}, {"id": 13385, "slack_id": "U094CDH2ZU0", "display_name": "Sta\u015b", "bio": null, "projects_count": 0, "devlogs_count": 11, "votes_count": 20, "ships_count": 0, "projects": [], "coding_time_seconds": 830941, "coding_time_seconds_today": 0, "balance": "You need to have a pocket watcher badge to view this.", "badges": [{"name": "Maiden Voyage", "text": "you shipped your first project! the journey begins...", "icon": "\ud83d\udea2"}], "created_at": "2025-06-30T12:37:17.061-04:00", "updated_at": "2025-09-10T22:57:51.866-04:00", "avatar": "https://secure.gravatar.com/avatar/1590d463c07fbed209d1d2448e35b550.jpg?s=512&d=https%3A%2F%2Fa.slack-edge.com%2Fdf10d%2Fimg%2Favatars%2Fava_0000-512.png", "custom_css": null}, {"id": 13386, "slack_id": "U093HBM3V8B", "display_name": "Madhav Lakhotia", "bio": null, "projects_count": 0, "devlogs_count": 0, "votes_count": 0, "ships_count": 0, "projects": [], "coding_time_seconds": 0, "coding_time_seconds_today": 0, "balance": "You need to have a pocket watcher badge to view this.", "badges": [], "created_at": "2025-06-30T12:40:01.684-04:00", "updated_at": "2025-07-03T20:07:35.441-04:00", "avatar": "https://secure.gravatar.com/avatar/113c3b374c3e62b631eab08abd2241fe.jpg?s=512&d=https%3A%2F%2Fa.slack-edge.com%2Fdf10d%2Fimg%2Favatars%2Fava_0009-512.png", "custom_css": null}, {"id": 13387, "slack_id": "U093HBGCGUT", "display_name": "Geographically Stupid", "bio": null, "projects_count": 0, "devlogs_count": 0, "votes_count": 0, "ships_count": 0, "projects": [], "coding_time_seconds": 1595, "coding_time_seconds_today": 0, "balance": "You need to have a pocket watcher badge to view this.", "badges": [], "created_at": "2025-06-30T12:40:56.319-04:00", "updated_at": "2025-07-06T14:14:35.207-04:00", "avatar": "https://avatars.slack-edge.com/2025-06-30/9139398174401_7f4b1b715d167c612345_original.jpg", "custom_css": null}, {"id": 13388, "slack_id": "U093AC62S2K", "display_name": "AXEL RAYO", "bio": null, "projects_count": 0, "devlogs_count": 0, "votes_count": 0, "ships_count": 0, "projects": [], "coding_time_seconds": 0, "coding_time_seconds_today": 0, "balance": "You need to have a pocket watcher badge to view this.", "badges": [], "created_at": "2025-06-30T12:41:12.885-04:00", "updated_at": "2025-07-05T02:14:51.983-04:00", "avatar": "https://avatars.slack-edge.com/2025-06-30/9124622707189_8c8fecf179509064fc1a_original.gif", "custom_css": null}, {"id": 13389, "slack_id": "U093HBWGXFV", "display_name": "Saswat S. Patra", "bio": null, "projects_count": 0, "devlogs_count": 0, "votes_count": 0, "ships_count": 0, "projects": [], "coding_time_seconds": 0, "coding_time_seconds_today": 0, "balance": "You need to have a pocket watcher badge to view this.", "badges": [], "created_at": "2025-06-30T12:43:36.158-04:00", "updated_at": "2025-07-03T20:07:35.977-04:00", "avatar": "https://secure.gravatar.com/avatar/167c87594dcf9c0f1275e11ded655acf.jpg?s=512&d=https%3A%2F%2Fa.slack-edge.com%2Fdf10d%2Fimg%2Favatars%2Fava_0007-512.png", "custom_css": null}, {"id": 13390, "slack_id": "U093HBXERC3", "display_name": "Emir G\u00f6cen", "bio": null, "projects_count": 0, "devlogs_count": 0, "votes_count": 0, "ships_count": 0, "projects": [], "coding_time_seconds": 0, "coding_time_seconds_today": 0, "balance": "You need to have a pocket watcher badge to view this.", "badges": [], "created_at": "2025-06-30T12:44:09.459-04:00", "updated_at": "2025-07-03T20:07:36.238-04:00", "avatar": "https://avatars.slack-edge.com/2025-06-30/9112443914359_a39c7f6b33f74ae92391_original.png", "custom_css": null}, {"id": 13391, "slack_id": "U093QFQCRM0", "display_name": "Manish Sharma", "bio": null, "projects_count": 0, "devlogs_count": 0, "votes_count": 0, "ships_count": 0, "projects": [], "coding_time_seconds": 0, "coding_time_seconds_today": 0, "balance": "You need to have a pocket watcher badge to view this.", "badges": [], "created_at": "2025-06-30T12:45:05.760-04:00", "updated_at": "2025-07-03T20:07:36.512-04:00", "avatar": "https://secure.gravatar.com/avatar/3c17558f81f4f3730e7a179e1f3e8475.jpg?s=512&d=https%3A%2F%2Fa.slack-edge.com%2Fdf10d%2Fimg%2Favatars%2Fava_0013-512.png", "custom_css": null}, {"id": 13392, "slack_id": "U093K6VAQJ2", "display_name": "Shubham Paul", "bio": null, "projects_count": 0, "devlogs_count": 0, "votes_count": 0, "ships_count": 0, "projects": [], "coding_time_seconds": 0, "coding_time_seconds_today": 0, "balance": "You need to have a pocket watcher badge to view this.", "badges": [], "created_at": "2025-06-30T12:45:48.164-04:00", "updated_at": "2025-07-24T06:49:33.126-04:00", "avatar": "https://avatars.slack-edge.com/2025-06-30/9148523541520_63e78df9c7fcc02ee448_original.png", "custom_css": null}, {"id": 13393, "slack_id": "U093K6CCHM4", "display_name": "Bruno Cardoso", "bio": null, "projects_count": 0, "devlogs_count": 0, "votes_count": 0, "ships_count": 0, "projects": [], "coding_time_seconds": 0, "coding_time_seconds_today": 0, "balance": "You need to have a pocket watcher badge to view this.", "badges": [], "created_at": "2025-06-30T12:48:45.385-04:00", "updated_at": "2025-07-06T14:14:35.584-04:00", "avatar": "https://secure.gravatar.com/avatar/11fbd140ef3db1f8eea6269afd31e949.jpg?s=512&d=https%3A%2F%2Fa.slack-edge.com%2Fdf10d%2Fimg%2Favatars%2Fava_0009-512.png", "custom_css": null}, {"id": 13394, "slack_id": "U094CFS1V40", "display_name": "Pasindu Dushan", "bio": null, "projects_count": 0, "devlogs_count": 0, "votes_count": 0, "ships_count": 0, "projects": [], "coding_time_seconds": 0, "coding_time_seconds_today": 0, "balance": "You need to have a pocket watcher badge to view this.", "badges": [], "created_at": "2025-06-30T12:52:02.411-04:00", "updated_at": "2025-07-08T03:09:21.214-04:00", "avatar": "https://secure.gravatar.com/avatar/18f9ef52ee5c2dd8ad571e45b58f70a5.jpg?s=512&d=https%3A%2F%2Fa.slack-edge.com%2Fdf10d%2Fimg%2Favatars%2Fava_0010-512.png", "custom_css": null}, {"id": 13395, "slack_id": "U093K7VSQR4", "display_name": "Ali", "bio": null, "projects_count": 0, "devlogs_count": 0, "votes_count": 0, "ships_count": 0, "projects": [], "coding_time_seconds": 0, "coding_time_seconds_today": 0, "balance": "You need to have a pocket watcher badge to view this.", "badges": [], "created_at": "2025-06-30T12:54:14.432-04:00", "updated_at": "2025-07-03T20:07:37.312-04:00", "avatar": "https://secure.gravatar.com/avatar/40101d773fda5e9dfe209a022f88773a.jpg?s=512&d=https%3A%2F%2Fa.slack-edge.com%2Fdf10d%2Fimg%2Favatars%2Fava_0007-512.png", "custom_css": null}, {"id": 13396, "slack_id": "U093RMSMQ4U", "display_name": "Prajith Ravisankar", "bio": null, "projects_count": 0, "devlogs_count": 0, "votes_count": 0, "ships_count": 0, "projects": [], "coding_time_seconds": 0, "coding_time_seconds_today": 0, "balance": "You need to have a pocket watcher badge to view this.", "badges": [], "created_at": "2025-06-30T12:57:57.669-04:00", "updated_at": "2025-07-03T20:07:37.572-04:00", "avatar": "https://avatars.slack-edge.com/2025-06-30/9119499253907_808b45e1b11d6e7a693e_original.png", "custom_css": null}, {"id": 13397, "slack_id": "U094CGUNTRN", "display_name": "Jesse He", "bio": null, "projects_count": 3, "devlogs_count": 2, "votes_count": 27, "ships_count": 1, "projects": [{"id": 4554, "title": "Advanced Flashcard App", "devlogs_count": 0, "created_at": "2025-06-30T15:48:29.592-04:00"}, {"id": 4563, "title": "Left Right", "devlogs_count": 1, "created_at": "2025-06-30T16:15:48.099-04:00"}, {"id": 4615, "title": "QR Code website", "devlogs_count": 1, "created_at": "2025-06-30T21:42:06.419-04:00"}], "coding_time_seconds": 35715, "coding_time_seconds_today": 0, "balance": "You need to have a pocket watcher badge to view this.", "badges": [{"name": "Maiden Voyage", "text": "you shipped your first project! the journey begins...", "icon": "\ud83d\udea2"}], "created_at": "2025-06-30T12:58:18.284-04:00", "updated_at": "2025-09-10T22:57:52.164-04:00", "avatar": "https://secure.gravatar.com/avatar/c5d554e84c008eecd3fcaaa603bd0d7b.jpg?s=512&d=https%3A%2F%2Fa.slack-edge.com%2Fdf10d%2Fimg%2Favatars%2Fava_0000-512.png", "custom_css": null}, {"id": 13398, "slack_id": "U093HDFCN1Z", "display_name": "Young", "bio": null, "projects_count": 0, "devlogs_count": 0, "votes_count": 0, "ships_count": 0, "projects": [], "coding_time_seconds": 0, "coding_time_seconds_today": 0, "balance": "You need to have a pocket watcher badge to view this.", "badges": [], "created_at": "2025-06-30T12:59:30.404-04:00", "updated_at": "2025-07-03T20:07:38.105-04:00", "avatar": "https://secure.gravatar.com/avatar/69e964b053c66c7c1a701b1cd4e7056e.jpg?s=512&d=https%3A%2F%2Fa.slack-edge.com%2Fdf10d%2Fimg%2Favatars%2Fava_0011-512.png", "custom_css": null}, {"id": 13399, "slack_id": "U0943E7E3UZ", "display_name": "Ankit Sharma", "bio": null, "projects_count": 0, "devlogs_count": 0, "votes_count": 0, "ships_count": 0, "projects": [], "coding_time_seconds": 0, "coding_time_seconds_today": 0, "balance": "You need to have a pocket watcher badge to view this.", "badges": [], "created_at": "2025-06-30T13:00:01.755-04:00", "updated_at": "2025-07-04T20:14:15.653-04:00", "avatar": "https://secure.gravatar.com/avatar/ed3c4cf73642b49bee3017aeac48533e.jpg?s=512&d=https%3A%2F%2Fa.slack-edge.com%2Fdf10d%2Fimg%2Favatars%2Fava_0006-512.png", "custom_css": null}, {"id": 13400, "slack_id": "U093NH8NTLM", "display_name": "Rohit Ratna Sthapit", "bio": null, "projects_count": 0, "devlogs_count": 0, "votes_count": 0, "ships_count": 0, "projects": [], "coding_time_seconds": 0, "coding_time_seconds_today": 0, "balance": "You need to have a pocket watcher badge to view this.", "badges": [], "created_at": "2025-06-30T13:02:29.918-04:00", "updated_at": "2025-07-03T20:07:38.504-04:00", "avatar": "https://secure.gravatar.com/avatar/696bc96edf76792783862a752dc322af.jpg?s=512&d=https%3A%2F%2Fa.slack-edge.com%2Fdf10d%2Fimg%2Favatars%2Fava_0018-512.png", "custom_css": null}], "pagination": {"page": 670, "pages": 1192, "count": 23828, "items": 20}}