{"users": [{"id": 13401, "slack_id": "U0943EX2QV7", "display_name": "rayyan", "bio": null, "projects_count": 0, "devlogs_count": 0, "votes_count": 0, "ships_count": 0, "projects": [], "coding_time_seconds": 0, "coding_time_seconds_today": 0, "balance": "You need to have a pocket watcher badge to view this.", "badges": [], "created_at": "2025-06-30T13:02:40.190-04:00", "updated_at": "2025-07-03T20:07:38.757-04:00", "avatar": "https://secure.gravatar.com/avatar/7e8e79f381f8bd3ac3b4606fd8949682.jpg?s=512&d=https%3A%2F%2Fa.slack-edge.com%2Fdf10d%2Fimg%2Favatars%2Fava_0005-512.png", "custom_css": null}, {"id": 13402, "slack_id": "U093PBMG3FU", "display_name": "hoovad", "bio": null, "projects_count": 1, "devlogs_count": 2, "votes_count": 20, "ships_count": 1, "projects": [{"id": 4566, "title": "discord.rb", "devlogs_count": 2, "created_at": "2025-06-30T16:32:55.772-04:00"}], "coding_time_seconds": 196394, "coding_time_seconds_today": 0, "balance": "You need to have a pocket watcher badge to view this.", "badges": [{"name": "Maiden Voyage", "text": "you shipped your first project! the journey begins...", "icon": "\ud83d\udea2"}], "created_at": "2025-06-30T13:02:47.477-04:00", "updated_at": "2025-09-21T19:09:31.627-04:00", "avatar": "https://avatars.slack-edge.com/2025-09-21/9553585668421_2a00454fa3c0478d1582_original.png", "custom_css": null}, {"id": 13403, "slack_id": "U093HF8PZNF", "display_name": "LimeR", "bio": null, "projects_count": 1, "devlogs_count": 0, "votes_count": 0, "ships_count": 0, "projects": [{"id": 4549, "title": "Audio File Shrinker", "devlogs_count": 0, "created_at": "2025-06-30T15:25:35.309-04:00"}], "coding_time_seconds": 16573, "coding_time_seconds_today": 0, "balance": "You need to have a pocket watcher badge to view this.", "badges": [], "created_at": "2025-06-30T13:02:50.172-04:00", "updated_at": "2025-07-03T20:07:39.443-04:00", "avatar": "https://secure.gravatar.com/avatar/be84ffcb4081fca5ca6b22a4bfa7d946.jpg?s=512&d=https%3A%2F%2Fa.slack-edge.com%2Fdf10d%2Fimg%2Favatars%2Fava_0012-512.png", "custom_css": null}, {"id": 13404, "slack_id": "U0943D5S1UH", "display_name": "Deependra Singh Shekhawat", "bio": null, "projects_count": 0, "devlogs_count": 0, "votes_count": 0, "ships_count": 0, "projects": [], "coding_time_seconds": 0, "coding_time_seconds_today": 0, "balance": "You need to have a pocket watcher badge to view this.", "badges": [], "created_at": "2025-06-30T13:03:31.534-04:00", "updated_at": "2025-07-05T02:14:53.115-04:00", "avatar": "https://secure.gravatar.com/avatar/db9b441348c600e42d1cd67f39fb720c.jpg?s=512&d=https%3A%2F%2Fa.slack-edge.com%2Fdf10d%2Fimg%2Favatars%2Fava_0018-512.png", "custom_css": null}, {"id": 13405, "slack_id": "U093QKHB1UJ", "display_name": "krushna", "bio": null, "projects_count": 0, "devlogs_count": 0, "votes_count": 0, "ships_count": 0, "projects": [], "coding_time_seconds": 0, "coding_time_seconds_today": 0, "balance": "You need to have a pocket watcher badge to view this.", "badges": [], "created_at": "2025-06-30T13:04:31.430-04:00", "updated_at": "2025-07-03T20:07:39.846-04:00", "avatar": "https://secure.gravatar.com/avatar/7ab8539601f7cb2d5e817c8e176eb32f.jpg?s=512&d=https%3A%2F%2Fa.slack-edge.com%2Fdf10d%2Fimg%2Favatars%2Fava_0022-512.png", "custom_css": null}, {"id": 13406, "slack_id": "U07AFS04T0C", "display_name": "Vishal", "bio": null, "projects_count": 0, "devlogs_count": 0, "votes_count": 0, "ships_count": 0, "projects": [], "coding_time_seconds": 0, "coding_time_seconds_today": 0, "balance": "You need to have a pocket watcher badge to view this.", "badges": [], "created_at": "2025-06-30T13:08:16.394-04:00", "updated_at": "2025-07-03T20:07:40.109-04:00", "avatar": "https://avatars.slack-edge.com/2024-07-02/7363680247236_4a07b4f510523c41dd86_original.jpg", "custom_css": null}, {"id": 13407, "slack_id": "U094CK2P95W", "display_name": "Yash Bansal", "bio": null, "projects_count": 0, "devlogs_count": 0, "votes_count": 0, "ships_count": 0, "projects": [], "coding_time_seconds": 0, "coding_time_seconds_today": 0, "balance": "You need to have a pocket watcher badge to view this.", "badges": [], "created_at": "2025-06-30T13:09:05.073-04:00", "updated_at": "2025-07-04T08:29:56.359-04:00", "avatar": "https://secure.gravatar.com/avatar/f8a74a20737f253f22cfd7e8f2ce5150.jpg?s=512&d=https%3A%2F%2Fa.slack-edge.com%2Fdf10d%2Fimg%2Favatars%2Fava_0019-512.png", "custom_css": null}, {"id": 13408, "slack_id": "U093QLED0CS", "display_name": "Vorpal Elf", "bio": null, "projects_count": 4, "devlogs_count": 16, "votes_count": 2, "ships_count": 2, "projects": [{"id": 4530, "title": "Cultivate App", "devlogs_count": 0, "created_at": "2025-06-30T13:18:45.457-04:00"}, {"id": 4532, "title": "Music School App", "devlogs_count": 6, "created_at": "2025-06-30T13:27:44.815-04:00"}, {"id": 10115, "title": "LinkedIn Scrapper", "devlogs_count": 7, "created_at": "2025-08-04T06:46:21.557-04:00"}, {"id": 10245, "title": "JobSpy Scrapper", "devlogs_count": 3, "created_at": "2025-08-05T10:54:37.042-04:00"}], "coding_time_seconds": 218080, "coding_time_seconds_today": 0, "balance": "You need to have a pocket watcher badge to view this.", "badges": [{"name": "Maiden Voyage", "text": "you shipped your first project! the journey begins...", "icon": "\ud83d\udea2"}], "created_at": "2025-06-30T13:09:05.960-04:00", "updated_at": "2025-09-10T22:57:52.504-04:00", "avatar": "https://secure.gravatar.com/avatar/42b649a4e6f823cfa187acf98c0366a8.jpg?s=512&d=https%3A%2F%2Fa.slack-edge.com%2Fdf10d%2Fimg%2Favatars%2Fava_0012-512.png", "custom_css": null}, {"id": 13409, "slack_id": "U093AGXM1RV", "display_name": "Scripted Manzana", "bio": null, "projects_count": 0, "devlogs_count": 0, "votes_count": 0, "ships_count": 0, "projects": [], "coding_time_seconds": 0, "coding_time_seconds_today": 0, "balance": "You need to have a pocket watcher badge to view this.", "badges": [], "created_at": "2025-06-30T13:09:11.785-04:00", "updated_at": "2025-07-03T20:07:40.768-04:00", "avatar": "https://avatars.slack-edge.com/2025-06-30/9112593024167_5cfaf04c3d5a4f41e1da_original.jpg", "custom_css": null}, {"id": 13410, "slack_id": "U08PHU5HFAP", "display_name": "Devin Liu", "bio": null, "projects_count": 1, "devlogs_count": 0, "votes_count": 0, "ships_count": 0, "projects": [{"id": 10507, "title": "genoguess", "devlogs_count": 0, "created_at": "2025-08-07T15:49:18.734-04:00"}], "coding_time_seconds": 7104, "coding_time_seconds_today": 0, "balance": "You need to have a pocket watcher badge to view this.", "badges": [], "created_at": "2025-06-30T13:11:18.791-04:00", "updated_at": "2025-08-09T03:35:51.516-04:00", "avatar": "https://avatars.slack-edge.com/2025-04-23/8794374982053_cb5ac204227e2bed6b48_original.png", "custom_css": null}, {"id": 13411, "slack_id": "U0943GE34LR", "display_name": "siddhi", "bio": null, "projects_count": 0, "devlogs_count": 0, "votes_count": 0, "ships_count": 0, "projects": [], "coding_time_seconds": 0, "coding_time_seconds_today": 0, "balance": "You need to have a pocket watcher badge to view this.", "badges": [], "created_at": "2025-06-30T13:11:56.009-04:00", "updated_at": "2025-07-03T20:07:41.191-04:00", "avatar": "https://secure.gravatar.com/avatar/ecd42a6d6472093fdfbfd1c0adc911cd.jpg?s=512&d=https%3A%2F%2Fa.slack-edge.com%2Fdf10d%2Fimg%2Favatars%2Fava_0001-512.png", "custom_css": null}, {"id": 13412, "slack_id": "U093RQEBPNG", "display_name": "Kyal Sin Ko Ko", "bio": null, "projects_count": 0, "devlogs_count": 0, "votes_count": 0, "ships_count": 0, "projects": [], "coding_time_seconds": 32824, "coding_time_seconds_today": 0, "balance": "You need to have a pocket watcher badge to view this.", "badges": [], "created_at": "2025-06-30T13:12:19.993-04:00", "updated_at": "2025-07-03T20:07:41.461-04:00", "avatar": "https://secure.gravatar.com/avatar/31b16aca4278bbb34ce8d727819c3827.jpg?s=512&d=https%3A%2F%2Fa.slack-edge.com%2Fdf10d%2Fimg%2Favatars%2Fava_0000-512.png", "custom_css": null}, {"id": 13413, "slack_id": "U08E9A66TEF", "display_name": "happy", "bio": null, "projects_count": 1, "devlogs_count": 0, "votes_count": 0, "ships_count": 0, "projects": [{"id": 6414, "title": "reversemarketplace ", "devlogs_count": 0, "created_at": "2025-07-13T05:18:29.795-04:00"}], "coding_time_seconds": 125363, "coding_time_seconds_today": 0, "balance": "You need to have a pocket watcher badge to view this.", "badges": [], "created_at": "2025-06-30T13:14:44.011-04:00", "updated_at": "2025-08-10T15:44:04.187-04:00", "avatar": "https://avatars.slack-edge.com/2025-05-26/8952283530258_e5ea1c834c732182367b_original.png", "custom_css": null}, {"id": 13414, "slack_id": "U093NPJQ5RB", "display_name": "Majd", "bio": null, "projects_count": 0, "devlogs_count": 0, "votes_count": 0, "ships_count": 0, "projects": [], "coding_time_seconds": 0, "coding_time_seconds_today": 0, "balance": "You need to have a pocket watcher badge to view this.", "badges": [], "created_at": "2025-06-30T13:15:18.505-04:00", "updated_at": "2025-07-03T20:07:42.010-04:00", "avatar": "https://secure.gravatar.com/avatar/b04d65ddd8e48f2c71dc4cc7c0408c50.jpg?s=512&d=https%3A%2F%2Fa.slack-edge.com%2Fdf10d%2Fimg%2Favatars%2Fava_0008-512.png", "custom_css": null}, {"id": 13415, "slack_id": "U093KBZPM6J", "display_name": "Alan Jos\u00e9", "bio": null, "projects_count": 0, "devlogs_count": 0, "votes_count": 0, "ships_count": 0, "projects": [], "coding_time_seconds": 0, "coding_time_seconds_today": 0, "balance": "You need to have a pocket watcher badge to view this.", "badges": [], "created_at": "2025-06-30T13:16:27.540-04:00", "updated_at": "2025-07-04T02:33:41.464-04:00", "avatar": "https://avatars.slack-edge.com/2025-06-30/9126753305506_bd369af5bf91ded63820_original.png", "custom_css": null}, {"id": 13416, "slack_id": "U093HHK0MUK", "display_name": "MohamedG.", "bio": null, "projects_count": 0, "devlogs_count": 0, "votes_count": 0, "ships_count": 0, "projects": [], "coding_time_seconds": 0, "coding_time_seconds_today": 0, "balance": "You need to have a pocket watcher badge to view this.", "badges": [], "created_at": "2025-06-30T13:18:31.238-04:00", "updated_at": "2025-07-03T20:07:42.506-04:00", "avatar": "https://secure.gravatar.com/avatar/ba289507634dd8a40d302c4a5f709ffd.jpg?s=512&d=https%3A%2F%2Fa.slack-edge.com%2Fdf10d%2Fimg%2Favatars%2Fava_0020-512.png", "custom_css": null}, {"id": 13417, "slack_id": "U07CJJMKPDY", "display_name": "ComputerToast", "bio": null, "projects_count": 0, "devlogs_count": 0, "votes_count": 0, "ships_count": 0, "projects": [], "coding_time_seconds": 0, "coding_time_seconds_today": 0, "balance": "You need to have a pocket watcher badge to view this.", "badges": [], "created_at": "2025-06-30T13:19:00.878-04:00", "updated_at": "2025-07-03T20:07:42.757-04:00", "avatar": "https://avatars.slack-edge.com/2024-07-15/7426565645699_df2e5d13cfb6548b4c6d_original.jpg", "custom_css": null}, {"id": 13418, "slack_id": "U094CM4E29E", "display_name": "Kevin Huang (Shibah)", "bio": null, "projects_count": 3, "devlogs_count": 23, "votes_count": 114, "ships_count": 3, "projects": [{"id": 7105, "title": "Very simple discord giveaway bot and grow a garden stock", "devlogs_count": 5, "created_at": "2025-07-19T03:12:20.474-04:00"}, {"id": 4545, "title": "Discord Giveaway Bot", "devlogs_count": 16, "created_at": "2025-06-30T14:59:42.795-04:00"}, {"id": 4536, "title": "Drawing board", "devlogs_count": 2, "created_at": "2025-06-30T13:44:19.686-04:00"}], "coding_time_seconds": 184685, "coding_time_seconds_today": 0, "balance": "You need to have a pocket watcher badge to view this.", "badges": [{"name": "Maiden Voyage", "text": "you shipped your first project! the journey begins...", "icon": "\ud83d\udea2"}, {"name": "Ballot Stuffer", "text": "vote 100 times.", "icon": "https://summer.hackclub.com/assets/i_voted-bf851b48.png"}], "created_at": "2025-06-30T13:22:23.217-04:00", "updated_at": "2025-09-10T22:57:52.752-04:00", "avatar": "https://avatars.slack-edge.com/2025-06-30/9121454765542_a489a4b4e3521ea16222_original.png", "custom_css": null}, {"id": 13419, "slack_id": "U093NQP2ZJR", "display_name": "David", "bio": null, "projects_count": 0, "devlogs_count": 0, "votes_count": 0, "ships_count": 0, "projects": [], "coding_time_seconds": 3608, "coding_time_seconds_today": 0, "balance": "You need to have a pocket watcher badge to view this.", "badges": [], "created_at": "2025-06-30T13:23:28.886-04:00", "updated_at": "2025-07-03T22:04:24.978-04:00", "avatar": "https://secure.gravatar.com/avatar/887ab3cf09e52c61c09749a42fd386d4.jpg?s=512&d=https%3A%2F%2Fa.slack-edge.com%2Fdf10d%2Fimg%2Favatars%2Fava_0009-512.png", "custom_css": null}, {"id": 13420, "slack_id": "U094CJS59SL", "display_name": "zubair", "bio": null, "projects_count": 0, "devlogs_count": 0, "votes_count": 0, "ships_count": 0, "projects": [], "coding_time_seconds": 0, "coding_time_seconds_today": 0, "balance": "You need to have a pocket watcher badge to view this.", "badges": [], "created_at": "2025-06-30T13:23:52.689-04:00", "updated_at": "2025-07-03T20:07:43.418-04:00", "avatar": "https://secure.gravatar.com/avatar/23828a55feb5f2676e04c2f2c452eb67.jpg?s=512&d=https%3A%2F%2Fa.slack-edge.com%2Fdf10d%2Fimg%2Favatars%2Fava_0003-512.png", "custom_css": null}], "pagination": {"page": 671, "pages": 1192, "count": 23828, "items": 20}}