{"users": [{"id": 13421, "slack_id": "U093QNRKD1Q", "display_name": "Benjamin K", "bio": null, "projects_count": 0, "devlogs_count": 0, "votes_count": 0, "ships_count": 0, "projects": [], "coding_time_seconds": 0, "coding_time_seconds_today": 0, "balance": "You need to have a pocket watcher badge to view this.", "badges": [], "created_at": "2025-06-30T13:25:34.748-04:00", "updated_at": "2025-07-03T22:04:25.137-04:00", "avatar": "https://secure.gravatar.com/avatar/f312efc689b910bf1c2e7c4917cabe7a.jpg?s=512&d=https%3A%2F%2Fa.slack-edge.com%2Fdf10d%2Fimg%2Favatars%2Fava_0015-512.png", "custom_css": null}, {"id": 13422, "slack_id": "U093RSTBJG4", "display_name": "SuperAnimaux", "bio": null, "projects_count": 1, "devlogs_count": 4, "votes_count": 21, "ships_count": 1, "projects": [{"id": 4690, "title": "Huffman compression algorithm ", "devlogs_count": 4, "created_at": "2025-07-01T05:12:57.037-04:00"}], "coding_time_seconds": 16063, "coding_time_seconds_today": 0, "balance": "You need to have a pocket watcher badge to view this.", "badges": [{"name": "Maiden Voyage", "text": "you shipped your first project! the journey begins...", "icon": "\ud83d\udea2"}], "created_at": "2025-06-30T13:26:33.520-04:00", "updated_at": "2025-09-10T22:57:52.933-04:00", "avatar": "https://secure.gravatar.com/avatar/41d81bcf050e15d7bea234830927e1b2.jpg?s=512&d=https%3A%2F%2Fa.slack-edge.com%2Fdf10d%2Fimg%2Favatars%2Fava_0022-512.png", "custom_css": null}, {"id": 13423, "slack_id": "U093KCZ2FE2", "display_name": "Sarvesh Gaonkadkar", "bio": null, "projects_count": 0, "devlogs_count": 0, "votes_count": 0, "ships_count": 0, "projects": [], "coding_time_seconds": 0, "coding_time_seconds_today": 0, "balance": "You need to have a pocket watcher badge to view this.", "badges": [], "created_at": "2025-06-30T13:30:05.688-04:00", "updated_at": "2025-07-03T20:07:44.791-04:00", "avatar": "https://avatars.slack-edge.com/2025-06-30/9148776278144_0c3d19c23a881ba5cf6f_original.png", "custom_css": null}, {"id": 13424, "slack_id": "U08R4FBFEPR", "display_name": "Abdullah", "bio": null, "projects_count": 0, "devlogs_count": 0, "votes_count": 0, "ships_count": 0, "projects": [], "coding_time_seconds": 0, "coding_time_seconds_today": 0, "balance": "You need to have a pocket watcher badge to view this.", "badges": [], "created_at": "2025-06-30T13:30:37.586-04:00", "updated_at": "2025-07-03T20:07:45.062-04:00", "avatar": "https://secure.gravatar.com/avatar/cc9dd974e07ddc799ddd6f8c7cdad5e0.jpg?s=512&d=https%3A%2F%2Fa.slack-edge.com%2Fdf10d%2Fimg%2Favatars%2Fava_0008-512.png", "custom_css": null}, {"id": 13425, "slack_id": "U0943KC5XND", "display_name": "Punit", "bio": null, "projects_count": 0, "devlogs_count": 0, "votes_count": 0, "ships_count": 0, "projects": [], "coding_time_seconds": 0, "coding_time_seconds_today": 0, "balance": "You need to have a pocket watcher badge to view this.", "badges": [], "created_at": "2025-06-30T13:30:52.983-04:00", "updated_at": "2025-07-03T22:04:25.415-04:00", "avatar": "https://secure.gravatar.com/avatar/6fa488e95a1f638da1a247acf7d4ed45.jpg?s=512&d=https%3A%2F%2Fa.slack-edge.com%2Fdf10d%2Fimg%2Favatars%2Fava_0017-512.png", "custom_css": null}, {"id": 13426, "slack_id": "U08A073MD40", "display_name": "Sam Flynn", "bio": null, "projects_count": 2, "devlogs_count": 0, "votes_count": 0, "ships_count": 0, "projects": [{"id": 5033, "title": "TheSilentJourney", "devlogs_count": 0, "created_at": "2025-07-02T20:29:56.387-04:00"}, {"id": 6656, "title": "Wakatime Fusion 360 Interconnect", "devlogs_count": 0, "created_at": "2025-07-14T22:18:39.553-04:00"}], "coding_time_seconds": 16839, "coding_time_seconds_today": 0, "balance": "You need to have a pocket watcher badge to view this.", "badges": [], "created_at": "2025-06-30T13:34:34.192-04:00", "updated_at": "2025-07-14T22:17:20.527-04:00", "avatar": "https://avatars.slack-edge.com/2025-01-19/8302895030839_26935daa39de4a6c088e_original.jpg", "custom_css": null}, {"id": 13427, "slack_id": "U093KEV1KF0", "display_name": "Saviru Kashmira", "bio": null, "projects_count": 0, "devlogs_count": 0, "votes_count": 0, "ships_count": 0, "projects": [], "coding_time_seconds": 0, "coding_time_seconds_today": 0, "balance": "You need to have a pocket watcher badge to view this.", "badges": [], "created_at": "2025-06-30T13:34:35.110-04:00", "updated_at": "2025-07-03T20:07:45.586-04:00", "avatar": "https://secure.gravatar.com/avatar/647ee3f69397f4f741af18827e32955e.jpg?s=512&d=https%3A%2F%2Fa.slack-edge.com%2Fdf10d%2Fimg%2Favatars%2Fava_0023-512.png", "custom_css": null}, {"id": 13428, "slack_id": "U093NT66YH3", "display_name": "Wasif", "bio": null, "projects_count": 0, "devlogs_count": 0, "votes_count": 0, "ships_count": 0, "projects": [], "coding_time_seconds": 0, "coding_time_seconds_today": 0, "balance": "You need to have a pocket watcher badge to view this.", "badges": [], "created_at": "2025-06-30T13:37:48.720-04:00", "updated_at": "2025-07-05T06:12:00.683-04:00", "avatar": "https://secure.gravatar.com/avatar/512189368b577a87f986937d615e4983.jpg?s=512&d=https%3A%2F%2Fa.slack-edge.com%2Fdf10d%2Fimg%2Favatars%2Fava_0007-512.png", "custom_css": null}, {"id": 13429, "slack_id": "U08R4Q9H8EB", "display_name": "Tanishq Goyal", "bio": null, "projects_count": 1, "devlogs_count": 1, "votes_count": 0, "ships_count": 0, "projects": [{"id": 11909, "title": "Motion", "devlogs_count": 1, "created_at": "2025-08-21T00:43:27.558-04:00"}], "coding_time_seconds": 59057, "coding_time_seconds_today": 0, "balance": "You need to have a pocket watcher badge to view this.", "badges": [], "created_at": "2025-06-30T13:42:16.474-04:00", "updated_at": "2025-09-15T19:09:41.902-04:00", "avatar": "https://avatars.slack-edge.com/2025-09-15/9536390436257_321b91b2232b1e1943cd_original.png", "custom_css": null}, {"id": 13430, "slack_id": "U0943LT7AG1", "display_name": "Kusi", "bio": null, "projects_count": 0, "devlogs_count": 0, "votes_count": 0, "ships_count": 0, "projects": [], "coding_time_seconds": 0, "coding_time_seconds_today": 0, "balance": "You need to have a pocket watcher badge to view this.", "badges": [], "created_at": "2025-06-30T13:42:44.163-04:00", "updated_at": "2025-07-03T20:07:46.258-04:00", "avatar": "https://secure.gravatar.com/avatar/4e39e6afaa8c0806a85c892276f12ee5.jpg?s=512&d=https%3A%2F%2Fa.slack-edge.com%2Fdf10d%2Fimg%2Favatars%2Fava_0010-512.png", "custom_css": null}, {"id": 13431, "slack_id": "U094CQ2RB4G", "display_name": "Muhammad Khurram", "bio": null, "projects_count": 0, "devlogs_count": 0, "votes_count": 0, "ships_count": 0, "projects": [], "coding_time_seconds": 0, "coding_time_seconds_today": 0, "balance": "You need to have a pocket watcher badge to view this.", "badges": [], "created_at": "2025-06-30T13:43:02.506-04:00", "updated_at": "2025-07-03T20:07:46.527-04:00", "avatar": "https://secure.gravatar.com/avatar/ab37dda0471376d6045c932caa6cceac.jpg?s=512&d=https%3A%2F%2Fa.slack-edge.com%2Fdf10d%2Fimg%2Favatars%2Fava_0014-512.png", "custom_css": null}, {"id": 13432, "slack_id": "U093QRY4EP4", "display_name": "Raksha Pahariya", "bio": null, "projects_count": 1, "devlogs_count": 0, "votes_count": 0, "ships_count": 0, "projects": [{"id": 4773, "title": "ConnectME", "devlogs_count": 0, "created_at": "2025-07-01T12:46:01.763-04:00"}], "coding_time_seconds": 7463, "coding_time_seconds_today": 0, "balance": "You need to have a pocket watcher badge to view this.", "badges": [], "created_at": "2025-06-30T13:43:46.157-04:00", "updated_at": "2025-07-03T20:07:46.783-04:00", "avatar": "https://avatars.slack-edge.com/2025-06-30/9119738088163_34ce2cd2743ec5bff6e3_original.png", "custom_css": null}, {"id": 13433, "slack_id": "U093AMTTLR5", "display_name": "ground28productions", "bio": null, "projects_count": 0, "devlogs_count": 0, "votes_count": 0, "ships_count": 0, "projects": [], "coding_time_seconds": 0, "coding_time_seconds_today": 0, "balance": "You need to have a pocket watcher badge to view this.", "badges": [], "created_at": "2025-06-30T13:44:00.635-04:00", "updated_at": "2025-07-03T20:07:47.049-04:00", "avatar": "https://avatars.slack-edge.com/2025-06-30/9126901153106_f865cd8aea2072291dbc_original.jpg", "custom_css": null}, {"id": 13434, "slack_id": "U0943MFQC6M", "display_name": "luckyluck", "bio": null, "projects_count": 0, "devlogs_count": 0, "votes_count": 0, "ships_count": 0, "projects": [], "coding_time_seconds": 0, "coding_time_seconds_today": 0, "balance": "You need to have a pocket watcher badge to view this.", "badges": [], "created_at": "2025-06-30T13:45:24.969-04:00", "updated_at": "2025-07-03T20:07:47.314-04:00", "avatar": "https://secure.gravatar.com/avatar/3fcf62ff9cdd3b1576b639a3a9d60e7b.jpg?s=512&d=https%3A%2F%2Fa.slack-edge.com%2Fdf10d%2Fimg%2Favatars%2Fava_0000-512.png", "custom_css": null}, {"id": 13435, "slack_id": "U094CQ86U5N", "display_name": "vikas pm", "bio": null, "projects_count": 0, "devlogs_count": 0, "votes_count": 0, "ships_count": 0, "projects": [], "coding_time_seconds": 0, "coding_time_seconds_today": 0, "balance": "You need to have a pocket watcher badge to view this.", "badges": [], "created_at": "2025-06-30T13:46:09.496-04:00", "updated_at": "2025-07-03T20:07:47.584-04:00", "avatar": "https://secure.gravatar.com/avatar/c9eb79e73c5883d3f0a23e0cf72814eb.jpg?s=512&d=https%3A%2F%2Fa.slack-edge.com%2Fdf10d%2Fimg%2Favatars%2Fava_0019-512.png", "custom_css": null}, {"id": 13436, "slack_id": "U094CRCV5B2", "display_name": "Mhamad", "bio": null, "projects_count": 0, "devlogs_count": 0, "votes_count": 0, "ships_count": 0, "projects": [], "coding_time_seconds": 0, "coding_time_seconds_today": 0, "balance": "You need to have a pocket watcher badge to view this.", "badges": [], "created_at": "2025-06-30T13:48:41.450-04:00", "updated_at": "2025-07-05T02:14:55.081-04:00", "avatar": "https://secure.gravatar.com/avatar/a0e4517389b6405fc84d232e3ae4bae1.jpg?s=512&d=https%3A%2F%2Fa.slack-edge.com%2Fdf10d%2Fimg%2Favatars%2Fava_0017-512.png", "custom_css": null}, {"id": 13437, "slack_id": "U093NV3C34M", "display_name": "Dian Huang", "bio": null, "projects_count": 0, "devlogs_count": 0, "votes_count": 0, "ships_count": 0, "projects": [], "coding_time_seconds": 0, "coding_time_seconds_today": 0, "balance": "You need to have a pocket watcher badge to view this.", "badges": [], "created_at": "2025-06-30T13:49:54.998-04:00", "updated_at": "2025-07-03T20:07:47.976-04:00", "avatar": "https://avatars.slack-edge.com/2025-06-30/9125002538997_bebebddbeaef5b2c5986_original.png", "custom_css": null}, {"id": 13438, "slack_id": "U093KH5GDN2", "display_name": "Ilyas", "bio": null, "projects_count": 0, "devlogs_count": 0, "votes_count": 0, "ships_count": 0, "projects": [], "coding_time_seconds": 0, "coding_time_seconds_today": 0, "balance": "You need to have a pocket watcher badge to view this.", "badges": [], "created_at": "2025-06-30T13:51:19.006-04:00", "updated_at": "2025-07-03T20:07:48.250-04:00", "avatar": "https://avatars.slack-edge.com/2025-06-30/9112823570263_2b74263dc059cf66f399_original.jpg", "custom_css": null}, {"id": 13439, "slack_id": "U07G02622J3", "display_name": "slowmo", "bio": null, "projects_count": 0, "devlogs_count": 0, "votes_count": 0, "ships_count": 0, "projects": [], "coding_time_seconds": 0, "coding_time_seconds_today": 0, "balance": "You need to have a pocket watcher badge to view this.", "badges": [], "created_at": "2025-06-30T13:54:24.305-04:00", "updated_at": "2025-07-03T20:07:48.526-04:00", "avatar": "https://secure.gravatar.com/avatar/3f265f60a88d68338909fdaccb08c32c.jpg?s=512&d=https%3A%2F%2Fa.slack-edge.com%2Fdf10d%2Fimg%2Favatars%2Fava_0010-512.png", "custom_css": null}, {"id": 13440, "slack_id": "U0798MYL669", "display_name": "sarthak pm", "bio": null, "projects_count": 1, "devlogs_count": 0, "votes_count": 0, "ships_count": 0, "projects": [{"id": 4541, "title": "Brainrot Labs", "devlogs_count": 0, "created_at": "2025-06-30T14:32:42.919-04:00"}], "coding_time_seconds": 38555, "coding_time_seconds_today": 0, "balance": "You need to have a pocket watcher badge to view this.", "badges": [], "created_at": "2025-06-30T13:54:58.458-04:00", "updated_at": "2025-07-08T03:09:36.632-04:00", "avatar": "https://secure.gravatar.com/avatar/ab8c04723354001802a500670b9cc902.jpg?s=512&d=https%3A%2F%2Fa.slack-edge.com%2Fdf10d%2Fimg%2Favatars%2Fava_0008-512.png", "custom_css": null}], "pagination": {"page": 672, "pages": 1192, "count": 23828, "items": 20}}