{"users": [{"id": 13441, "slack_id": "U094CRX2C0Y", "display_name": "readsack", "bio": null, "projects_count": 1, "devlogs_count": 1, "votes_count": 1, "ships_count": 0, "projects": [{"id": 5437, "title": "Super E-Reader + Notes", "devlogs_count": 1, "created_at": "2025-07-05T09:55:45.282-04:00"}], "coding_time_seconds": 41057, "coding_time_seconds_today": 0, "balance": "You need to have a pocket watcher badge to view this.", "badges": [], "created_at": "2025-06-30T13:56:35.661-04:00", "updated_at": "2025-07-08T11:55:59.427-04:00", "avatar": "https://secure.gravatar.com/avatar/e664f83e6295ca7cb3ad2e002ce5ced3.jpg?s=512&d=https%3A%2F%2Fa.slack-edge.com%2Fdf10d%2Fimg%2Favatars%2Fava_0004-512.png", "custom_css": null}, {"id": 13442, "slack_id": "U094CSKF7GQ", "display_name": "Shivam Shukla", "bio": null, "projects_count": 0, "devlogs_count": 0, "votes_count": 0, "ships_count": 0, "projects": [], "coding_time_seconds": 0, "coding_time_seconds_today": 0, "balance": "You need to have a pocket watcher badge to view this.", "badges": [], "created_at": "2025-06-30T13:57:31.659-04:00", "updated_at": "2025-07-03T20:07:49.064-04:00", "avatar": "https://avatars.slack-edge.com/2025-06-30/9121637228054_9e76528056dd16b5afc9_original.png", "custom_css": null}, {"id": 13443, "slack_id": "U093S27GN6Q", "display_name": "Nashra", "bio": null, "projects_count": 0, "devlogs_count": 0, "votes_count": 0, "ships_count": 0, "projects": [], "coding_time_seconds": 0, "coding_time_seconds_today": 0, "balance": "You need to have a pocket watcher badge to view this.", "badges": [], "created_at": "2025-06-30T13:59:03.318-04:00", "updated_at": "2025-07-04T20:14:18.267-04:00", "avatar": "https://secure.gravatar.com/avatar/753068c593ff45d0c5afe3a197217d46.jpg?s=512&d=https%3A%2F%2Fa.slack-edge.com%2Fdf10d%2Fimg%2Favatars%2Fava_0011-512.png", "custom_css": null}, {"id": 13444, "slack_id": "U093S2QT65S", "display_name": "Gyanendra Thakur", "bio": null, "projects_count": 0, "devlogs_count": 0, "votes_count": 0, "ships_count": 0, "projects": [], "coding_time_seconds": 11582, "coding_time_seconds_today": 0, "balance": "You need to have a pocket watcher badge to view this.", "badges": [], "created_at": "2025-06-30T14:02:15.413-04:00", "updated_at": "2025-07-29T09:52:05.220-04:00", "avatar": "https://avatars.slack-edge.com/2025-06-30/9112889715207_881c1ff153904bb7cf08_original.jpg", "custom_css": null}, {"id": 13445, "slack_id": "U091K3G3HAT", "display_name": "Sau", "bio": null, "projects_count": 0, "devlogs_count": 0, "votes_count": 0, "ships_count": 0, "projects": [], "coding_time_seconds": 0, "coding_time_seconds_today": 0, "balance": "You need to have a pocket watcher badge to view this.", "badges": [], "created_at": "2025-06-30T14:04:37.084-04:00", "updated_at": "2025-07-05T14:16:41.203-04:00", "avatar": "https://secure.gravatar.com/avatar/07624dcd01bd87aab1fcbe0857eeb07e.jpg?s=512&d=https%3A%2F%2Fa.slack-edge.com%2Fdf10d%2Fimg%2Favatars%2Fava_0000-512.png", "custom_css": null}, {"id": 13446, "slack_id": "U093R02K7BL", "display_name": "Michael Bryan", "bio": null, "projects_count": 0, "devlogs_count": 0, "votes_count": 0, "ships_count": 0, "projects": [], "coding_time_seconds": 0, "coding_time_seconds_today": 0, "balance": "You need to have a pocket watcher badge to view this.", "badges": [], "created_at": "2025-06-30T14:05:02.401-04:00", "updated_at": "2025-07-06T02:16:33.612-04:00", "avatar": "https://secure.gravatar.com/avatar/740da537b04290b08b31eb22aef28f32.jpg?s=512&d=https%3A%2F%2Fa.slack-edge.com%2Fdf10d%2Fimg%2Favatars%2Fava_0021-512.png", "custom_css": null}, {"id": 13447, "slack_id": "U093P2EQSUD", "display_name": "kammmran", "bio": null, "projects_count": 1, "devlogs_count": 1, "votes_count": 1, "ships_count": 1, "projects": [{"id": 8921, "title": "BigBOY", "devlogs_count": 1, "created_at": "2025-07-29T17:00:55.160-04:00"}], "coding_time_seconds": 1288, "coding_time_seconds_today": 0, "balance": "You need to have a pocket watcher badge to view this.", "badges": [{"name": "Maiden Voyage", "text": "you shipped your first project! the journey begins...", "icon": "\ud83d\udea2"}], "created_at": "2025-06-30T14:06:27.462-04:00", "updated_at": "2025-09-10T22:57:53.591-04:00", "avatar": "https://secure.gravatar.com/avatar/4f60093c73bdec8296365a3695069863.jpg?s=512&d=https%3A%2F%2Fa.slack-edge.com%2Fdf10d%2Fimg%2Favatars%2Fava_0025-512.png", "custom_css": null}, {"id": 13448, "slack_id": "U093P2N0KPF", "display_name": "Priya V.M.", "bio": null, "projects_count": 0, "devlogs_count": 0, "votes_count": 0, "ships_count": 0, "projects": [], "coding_time_seconds": 0, "coding_time_seconds_today": 0, "balance": "You need to have a pocket watcher badge to view this.", "badges": [], "created_at": "2025-06-30T14:09:10.272-04:00", "updated_at": "2025-07-04T08:29:59.567-04:00", "avatar": "https://avatars.slack-edge.com/2025-06-30/9127039779954_b38ed4d3c870c639f82b_original.png", "custom_css": null}, {"id": 13449, "slack_id": "U093AT8T8LX", "display_name": "cyberaspect", "bio": null, "projects_count": 1, "devlogs_count": 0, "votes_count": 0, "ships_count": 0, "projects": [{"id": 6965, "title": "Infinite", "devlogs_count": 0, "created_at": "2025-07-17T17:36:56.702-04:00"}], "coding_time_seconds": 223007, "coding_time_seconds_today": 0, "balance": "You need to have a pocket watcher badge to view this.", "badges": [], "created_at": "2025-06-30T14:11:32.656-04:00", "updated_at": "2025-07-18T03:10:44.107-04:00", "avatar": "https://avatars.slack-edge.com/2025-07-17/9201771512103_d4a2b2aa4f793a95a538_original.png", "custom_css": null}, {"id": 13450, "slack_id": "U093S4CT7RA", "display_name": "Satwik Santosh", "bio": null, "projects_count": 0, "devlogs_count": 0, "votes_count": 0, "ships_count": 0, "projects": [], "coding_time_seconds": 0, "coding_time_seconds_today": 0, "balance": "You need to have a pocket watcher badge to view this.", "badges": [], "created_at": "2025-06-30T14:12:30.723-04:00", "updated_at": "2025-07-03T20:07:50.398-04:00", "avatar": "https://secure.gravatar.com/avatar/5cf528fc7ee58802af8e52ba931d9fe8.jpg?s=512&d=https%3A%2F%2Fa.slack-edge.com%2Fdf10d%2Fimg%2Favatars%2Fava_0003-512.png", "custom_css": null}, {"id": 13451, "slack_id": "U093KM40V6J", "display_name": "abhimanyu", "bio": null, "projects_count": 1, "devlogs_count": 1, "votes_count": 1, "ships_count": 0, "projects": [{"id": 5334, "title": "blogsite", "devlogs_count": 1, "created_at": "2025-07-04T13:48:16.542-04:00"}], "coding_time_seconds": 7542, "coding_time_seconds_today": 0, "balance": "You need to have a pocket watcher badge to view this.", "badges": [], "created_at": "2025-06-30T14:14:46.860-04:00", "updated_at": "2025-07-04T13:31:46.020-04:00", "avatar": "https://secure.gravatar.com/avatar/c23429f119a4ef569a20b916a3994fdc.jpg?s=512&d=https%3A%2F%2Fa.slack-edge.com%2Fdf10d%2Fimg%2Favatars%2Fava_0008-512.png", "custom_css": null}, {"id": 13452, "slack_id": "U093A5X8CRM", "display_name": "Daniel Zhu", "bio": null, "projects_count": 0, "devlogs_count": 0, "votes_count": 0, "ships_count": 0, "projects": [], "coding_time_seconds": 0, "coding_time_seconds_today": 0, "balance": "You need to have a pocket watcher badge to view this.", "badges": [], "created_at": "2025-06-30T14:18:00.724-04:00", "updated_at": "2025-07-03T20:07:50.932-04:00", "avatar": "https://secure.gravatar.com/avatar/2f52f10caf259c1aa8642125fde5fbba.jpg?s=512&d=https%3A%2F%2Fa.slack-edge.com%2Fdf10d%2Fimg%2Favatars%2Fava_0021-512.png", "custom_css": null}, {"id": 13453, "slack_id": "U091G8TGU83", "display_name": "Andrew Logan", "bio": null, "projects_count": 0, "devlogs_count": 0, "votes_count": 0, "ships_count": 0, "projects": [], "coding_time_seconds": 392, "coding_time_seconds_today": 0, "balance": "You need to have a pocket watcher badge to view this.", "badges": [], "created_at": "2025-06-30T14:18:11.421-04:00", "updated_at": "2025-07-03T20:07:51.199-04:00", "avatar": "https://avatars.slack-edge.com/2025-06-30/9125154682709_658ddfe45db779d21660_original.png", "custom_css": null}, {"id": 13454, "slack_id": "U093AU6KB1D", "display_name": "Make", "bio": null, "projects_count": 0, "devlogs_count": 0, "votes_count": 0, "ships_count": 0, "projects": [], "coding_time_seconds": 0, "coding_time_seconds_today": 0, "balance": "You need to have a pocket watcher badge to view this.", "badges": [], "created_at": "2025-06-30T14:18:26.551-04:00", "updated_at": "2025-07-03T20:07:51.455-04:00", "avatar": "https://secure.gravatar.com/avatar/c3398bb5b142740fbe789f24860dc78e.jpg?s=512&d=https%3A%2F%2Fa.slack-edge.com%2Fdf10d%2Fimg%2Favatars%2Fava_0002-512.png", "custom_css": null}, {"id": 13455, "slack_id": "U093R1ZFLR0", "display_name": "OtterTheBear", "bio": null, "projects_count": 0, "devlogs_count": 0, "votes_count": 0, "ships_count": 0, "projects": [], "coding_time_seconds": 0, "coding_time_seconds_today": 0, "balance": "You need to have a pocket watcher badge to view this.", "badges": [], "created_at": "2025-06-30T14:20:25.129-04:00", "updated_at": "2025-07-03T20:07:51.715-04:00", "avatar": "https://secure.gravatar.com/avatar/b323631639eabca6bbeb6e490e4d201a.jpg?s=512&d=https%3A%2F%2Fa.slack-edge.com%2Fdf10d%2Fimg%2Favatars%2Fava_0003-512.png", "custom_css": null}, {"id": 13456, "slack_id": "U093R2802CS", "display_name": "Edmundo Moreno", "bio": null, "projects_count": 0, "devlogs_count": 0, "votes_count": 0, "ships_count": 0, "projects": [], "coding_time_seconds": 104669, "coding_time_seconds_today": 0, "balance": "You need to have a pocket watcher badge to view this.", "badges": [], "created_at": "2025-06-30T14:20:36.413-04:00", "updated_at": "2025-07-08T03:09:49.822-04:00", "avatar": "https://secure.gravatar.com/avatar/d089a441a0cb9757a2bbcf05e73eb7c7.jpg?s=512&d=https%3A%2F%2Fa.slack-edge.com%2Fdf10d%2Fimg%2Favatars%2Fava_0004-512.png", "custom_css": null}, {"id": 13457, "slack_id": "U093HTFS535", "display_name": "Raphael Motalib", "bio": null, "projects_count": 0, "devlogs_count": 0, "votes_count": 0, "ships_count": 0, "projects": [], "coding_time_seconds": 0, "coding_time_seconds_today": 0, "balance": "You need to have a pocket watcher badge to view this.", "badges": [], "created_at": "2025-06-30T14:27:06.280-04:00", "updated_at": "2025-07-03T20:07:52.182-04:00", "avatar": "https://avatars.slack-edge.com/2025-06-30/9121792883398_7885f20fb30b523c60e3_original.png", "custom_css": null}, {"id": 13458, "slack_id": "U093P5DGPLM", "display_name": "STAG", "bio": null, "projects_count": 0, "devlogs_count": 0, "votes_count": 0, "ships_count": 0, "projects": [], "coding_time_seconds": 0, "coding_time_seconds_today": 0, "balance": "You need to have a pocket watcher badge to view this.", "badges": [], "created_at": "2025-06-30T14:27:22.134-04:00", "updated_at": "2025-07-03T20:07:52.443-04:00", "avatar": "https://avatars.slack-edge.com/2025-06-30/9121793487126_c78bee96d93a49f266e2_original.png", "custom_css": null}, {"id": 13459, "slack_id": "U093KP9S4T0", "display_name": "Rama", "bio": null, "projects_count": 0, "devlogs_count": 0, "votes_count": 0, "ships_count": 0, "projects": [], "coding_time_seconds": 0, "coding_time_seconds_today": 0, "balance": "You need to have a pocket watcher badge to view this.", "badges": [], "created_at": "2025-06-30T14:30:35.799-04:00", "updated_at": "2025-07-03T20:07:52.704-04:00", "avatar": "https://secure.gravatar.com/avatar/c81bd83ef48a46b99290cf97701492b8.jpg?s=512&d=https%3A%2F%2Fa.slack-edge.com%2Fdf10d%2Fimg%2Favatars%2Fava_0024-512.png", "custom_css": null}, {"id": 13460, "slack_id": "U07FCDZUCGM", "display_name": "Jad Menkara", "bio": null, "projects_count": 1, "devlogs_count": 0, "votes_count": 5, "ships_count": 0, "projects": [{"id": 4796, "title": "Portfolio Website - J.M", "devlogs_count": 0, "created_at": "2025-07-01T15:06:10.134-04:00"}], "coding_time_seconds": 24331, "coding_time_seconds_today": 0, "balance": "You need to have a pocket watcher badge to view this.", "badges": [], "created_at": "2025-06-30T14:31:04.994-04:00", "updated_at": "2025-07-04T02:33:44.635-04:00", "avatar": "https://avatars.slack-edge.com/2024-09-03/7666608377686_dbc7397a9a856bc6d459_original.png", "custom_css": null}], "pagination": {"page": 673, "pages": 1192, "count": 23828, "items": 20}}