{"users": [{"id": 13461, "slack_id": "U093HUG3F5Z", "display_name": "mohammad omar tanbour", "bio": null, "projects_count": 0, "devlogs_count": 0, "votes_count": 0, "ships_count": 0, "projects": [], "coding_time_seconds": 50751, "coding_time_seconds_today": 0, "balance": "You need to have a pocket watcher badge to view this.", "badges": [], "created_at": "2025-06-30T14:34:12.709-04:00", "updated_at": "2025-07-03T20:07:53.121-04:00", "avatar": "https://secure.gravatar.com/avatar/9c1250a454bd0dbb2e522eaec32b87ab.jpg?s=512&d=https%3A%2F%2Fa.slack-edge.com%2Fdf10d%2Fimg%2Favatars%2Fava_0023-512.png", "custom_css": null}, {"id": 13462, "slack_id": "U094D2LQAAU", "display_name": "Andi", "bio": null, "projects_count": 0, "devlogs_count": 0, "votes_count": 0, "ships_count": 0, "projects": [], "coding_time_seconds": 0, "coding_time_seconds_today": 0, "balance": "You need to have a pocket watcher badge to view this.", "badges": [], "created_at": "2025-06-30T14:34:41.923-04:00", "updated_at": "2025-07-03T20:07:53.381-04:00", "avatar": "https://secure.gravatar.com/avatar/edde1d9d194c8f2490ed3507a82ce9a9.jpg?s=512&d=https%3A%2F%2Fa.slack-edge.com%2Fdf10d%2Fimg%2Favatars%2Fava_0006-512.png", "custom_css": null}, {"id": 13463, "slack_id": "U094D3VGHDE", "display_name": "Aadish Verma", "bio": null, "projects_count": 0, "devlogs_count": 0, "votes_count": 0, "ships_count": 0, "projects": [], "coding_time_seconds": 0, "coding_time_seconds_today": 0, "balance": "You need to have a pocket watcher badge to view this.", "badges": [], "created_at": "2025-06-30T14:39:56.593-04:00", "updated_at": "2025-07-04T20:14:19.642-04:00", "avatar": "https://avatars.slack-edge.com/2025-06-30/9113087519847_e4facbe050403f3bc4fc_original.jpg", "custom_css": null}, {"id": 13464, "slack_id": "U094D41P23A", "display_name": "Adwaith PJ", "bio": null, "projects_count": 0, "devlogs_count": 0, "votes_count": 0, "ships_count": 0, "projects": [], "coding_time_seconds": 0, "coding_time_seconds_today": 0, "balance": "You need to have a pocket watcher badge to view this.", "badges": [], "created_at": "2025-06-30T14:40:52.206-04:00", "updated_at": "2025-07-06T02:16:34.740-04:00", "avatar": "https://secure.gravatar.com/avatar/1847cfeee15d1d59fd846f587c72d331.jpg?s=512&d=https%3A%2F%2Fa.slack-edge.com%2Fdf10d%2Fimg%2Favatars%2Fava_0005-512.png", "custom_css": null}, {"id": 13465, "slack_id": "U093P7MU4JH", "display_name": "vicky", "bio": null, "projects_count": 0, "devlogs_count": 0, "votes_count": 0, "ships_count": 0, "projects": [], "coding_time_seconds": 0, "coding_time_seconds_today": 0, "balance": "You need to have a pocket watcher badge to view this.", "badges": [], "created_at": "2025-06-30T14:42:02.700-04:00", "updated_at": "2025-07-03T20:07:53.914-04:00", "avatar": "https://secure.gravatar.com/avatar/fa3549ef02952316c02bf6eec7354dd2.jpg?s=512&d=https%3A%2F%2Fa.slack-edge.com%2Fdf10d%2Fimg%2Favatars%2Fava_0019-512.png", "custom_css": null}, {"id": 13466, "slack_id": "U094D46U188", "display_name": "Vedant Mahawar", "bio": null, "projects_count": 0, "devlogs_count": 0, "votes_count": 0, "ships_count": 0, "projects": [], "coding_time_seconds": 0, "coding_time_seconds_today": 0, "balance": "You need to have a pocket watcher badge to view this.", "badges": [], "created_at": "2025-06-30T14:42:09.551-04:00", "updated_at": "2025-07-03T20:07:54.211-04:00", "avatar": "https://secure.gravatar.com/avatar/6f443586e695135a75b6cef8bb66c8ec.jpg?s=512&d=https%3A%2F%2Fa.slack-edge.com%2Fdf10d%2Fimg%2Favatars%2Fava_0018-512.png", "custom_css": null}, {"id": 13467, "slack_id": "U081XDZT1SR", "display_name": "Shankar Krishnamurthy", "bio": null, "projects_count": 0, "devlogs_count": 0, "votes_count": 0, "ships_count": 0, "projects": [], "coding_time_seconds": 172259, "coding_time_seconds_today": 0, "balance": "You need to have a pocket watcher badge to view this.", "badges": [], "created_at": "2025-06-30T14:44:23.683-04:00", "updated_at": "2025-07-09T17:03:50.388-04:00", "avatar": "https://avatars.slack-edge.com/2024-11-21/8091122328864_3f25f784853392d8f0ad_original.jpg", "custom_css": null}, {"id": 13468, "slack_id": "U093QC1PATU", "display_name": "Jimut", "bio": null, "projects_count": 0, "devlogs_count": 0, "votes_count": 0, "ships_count": 0, "projects": [], "coding_time_seconds": 0, "coding_time_seconds_today": 0, "balance": "You need to have a pocket watcher badge to view this.", "badges": [], "created_at": "2025-06-30T14:48:30.630-04:00", "updated_at": "2025-07-03T20:07:54.743-04:00", "avatar": "https://secure.gravatar.com/avatar/a2f0237ee1051263df3c9bbb04a1df9a.jpg?s=512&d=https%3A%2F%2Fa.slack-edge.com%2Fdf10d%2Fimg%2Favatars%2Fava_0010-512.png", "custom_css": null}, {"id": 13469, "slack_id": "U093P7YJA93", "display_name": "Gael Alburo", "bio": null, "projects_count": 0, "devlogs_count": 0, "votes_count": 0, "ships_count": 0, "projects": [], "coding_time_seconds": 22126, "coding_time_seconds_today": 0, "balance": "You need to have a pocket watcher badge to view this.", "badges": [], "created_at": "2025-06-30T14:50:40.407-04:00", "updated_at": "2025-07-03T20:07:55.005-04:00", "avatar": "https://secure.gravatar.com/avatar/3086a8445ff30e8d0ee1ab48fe377284.jpg?s=512&d=https%3A%2F%2Fa.slack-edge.com%2Fdf10d%2Fimg%2Favatars%2Fava_0013-512.png", "custom_css": null}, {"id": 13470, "slack_id": "U0868SC9AUW", "display_name": "Fire Exe", "bio": null, "projects_count": 0, "devlogs_count": 0, "votes_count": 0, "ships_count": 0, "projects": [], "coding_time_seconds": 0, "coding_time_seconds_today": 0, "balance": "You need to have a pocket watcher badge to view this.", "badges": [], "created_at": "2025-06-30T14:51:40.987-04:00", "updated_at": "2025-07-03T20:07:55.272-04:00", "avatar": "https://avatars.slack-edge.com/2025-02-10/8437525392657_80d66247dda66d360c1f_original.png", "custom_css": null}, {"id": 13471, "slack_id": "U093SAC6GP6", "display_name": "Abdu C\u00f3digos", "bio": null, "projects_count": 0, "devlogs_count": 0, "votes_count": 0, "ships_count": 0, "projects": [], "coding_time_seconds": 0, "coding_time_seconds_today": 0, "balance": "You need to have a pocket watcher badge to view this.", "badges": [], "created_at": "2025-06-30T14:52:49.304-04:00", "updated_at": "2025-07-03T20:07:55.541-04:00", "avatar": "https://secure.gravatar.com/avatar/6115d19905f4e6e951c2cbba306a09d1.jpg?s=512&d=https%3A%2F%2Fa.slack-edge.com%2Fdf10d%2Fimg%2Favatars%2Fava_0009-512.png", "custom_css": null}, {"id": 13472, "slack_id": "U092L9CAX9Q", "display_name": "Friedrich Heineke", "bio": null, "projects_count": 0, "devlogs_count": 0, "votes_count": 0, "ships_count": 0, "projects": [], "coding_time_seconds": 0, "coding_time_seconds_today": 0, "balance": "You need to have a pocket watcher badge to view this.", "badges": [], "created_at": "2025-06-30T14:58:53.729-04:00", "updated_at": "2025-07-03T22:04:28.669-04:00", "avatar": "https://avatars.slack-edge.com/2025-06-30/9113182641927_8696b122617e6ca9b559_original.png", "custom_css": null}, {"id": 13473, "slack_id": "U093B5SDZB9", "display_name": "BrailleBennett", "bio": null, "projects_count": 0, "devlogs_count": 0, "votes_count": 0, "ships_count": 0, "projects": [], "coding_time_seconds": 42313, "coding_time_seconds_today": 0, "balance": "You need to have a pocket watcher badge to view this.", "badges": [], "created_at": "2025-06-30T15:03:39.227-04:00", "updated_at": "2025-08-21T15:40:29.572-04:00", "avatar": "https://secure.gravatar.com/avatar/29f5cbfce64f6441990a31c2b3aa4694.jpg?s=512&d=https%3A%2F%2Fa.slack-edge.com%2Fdf10d%2Fimg%2Favatars%2Fava_0021-512.png", "custom_css": null}, {"id": 13474, "slack_id": "U094D7WDG8G", "display_name": "retrievaaaa", "bio": null, "projects_count": 0, "devlogs_count": 0, "votes_count": 0, "ships_count": 0, "projects": [], "coding_time_seconds": 7200, "coding_time_seconds_today": 0, "balance": "You need to have a pocket watcher badge to view this.", "badges": [], "created_at": "2025-06-30T15:05:54.682-04:00", "updated_at": "2025-07-03T20:07:56.239-04:00", "avatar": "https://secure.gravatar.com/avatar/9edcf49c36a4937ebc2651f4932f0b25.jpg?s=512&d=https%3A%2F%2Fa.slack-edge.com%2Fdf10d%2Fimg%2Favatars%2Fava_0017-512.png", "custom_css": null}, {"id": 13475, "slack_id": "U094D843D88", "display_name": "anatolij1923", "bio": null, "projects_count": 0, "devlogs_count": 0, "votes_count": 0, "ships_count": 0, "projects": [], "coding_time_seconds": 0, "coding_time_seconds_today": 0, "balance": "You need to have a pocket watcher badge to view this.", "badges": [], "created_at": "2025-06-30T15:07:38.173-04:00", "updated_at": "2025-07-03T22:04:28.939-04:00", "avatar": "https://secure.gravatar.com/avatar/c02d814593b4e6dac0f70e175a7cdb7a.jpg?s=512&d=https%3A%2F%2Fa.slack-edge.com%2Fdf10d%2Fimg%2Favatars%2Fava_0017-512.png", "custom_css": null}, {"id": 13476, "slack_id": "U0894C6MNTE", "display_name": "Toryn", "bio": null, "projects_count": 1, "devlogs_count": 0, "votes_count": 0, "ships_count": 0, "projects": [{"id": 5231, "title": "LED Bracelets", "devlogs_count": 0, "created_at": "2025-07-03T22:28:29.057-04:00"}], "coding_time_seconds": 160682, "coding_time_seconds_today": 0, "balance": "You need to have a pocket watcher badge to view this.", "badges": [], "created_at": "2025-06-30T15:09:25.432-04:00", "updated_at": "2025-07-03T20:07:56.633-04:00", "avatar": "https://secure.gravatar.com/avatar/1bc3870f08b755f14a71f53d1dcac326.jpg?s=512&d=https%3A%2F%2Fa.slack-edge.com%2Fdf10d%2Fimg%2Favatars%2Fava_0021-512.png", "custom_css": null}, {"id": 13477, "slack_id": "U093J4T8KGT", "display_name": "Efdal", "bio": null, "projects_count": 1, "devlogs_count": 0, "votes_count": 0, "ships_count": 0, "projects": [{"id": 4551, "title": "Breaktime Tracker", "devlogs_count": 0, "created_at": "2025-06-30T15:30:16.797-04:00"}], "coding_time_seconds": 22513, "coding_time_seconds_today": 0, "balance": "You need to have a pocket watcher badge to view this.", "badges": [], "created_at": "2025-06-30T15:13:58.038-04:00", "updated_at": "2025-07-03T22:04:29.129-04:00", "avatar": "https://secure.gravatar.com/avatar/e35da9bc121b8fe588b9ca345032ad4d.jpg?s=512&d=https%3A%2F%2Fa.slack-edge.com%2Fdf10d%2Fimg%2Favatars%2Fava_0025-512.png", "custom_css": null}, {"id": 13478, "slack_id": "U094469BJN5", "display_name": "Pusheen", "bio": null, "projects_count": 1, "devlogs_count": 0, "votes_count": 2, "ships_count": 0, "projects": [{"id": 4621, "title": "githubcdn", "devlogs_count": 0, "created_at": "2025-06-30T22:06:31.097-04:00"}], "coding_time_seconds": 47239, "coding_time_seconds_today": 0, "balance": "You need to have a pocket watcher badge to view this.", "badges": [], "created_at": "2025-06-30T15:18:08.034-04:00", "updated_at": "2025-07-03T22:04:29.252-04:00", "avatar": "https://avatars.slack-edge.com/2025-06-30/9125457542357_a85bee65eb1f16cfb532_original.png", "custom_css": null}, {"id": 13479, "slack_id": "U093PBPSREH", "display_name": "mehrinshamim", "bio": null, "projects_count": 0, "devlogs_count": 0, "votes_count": 0, "ships_count": 0, "projects": [], "coding_time_seconds": 0, "coding_time_seconds_today": 0, "balance": "You need to have a pocket watcher badge to view this.", "badges": [], "created_at": "2025-06-30T15:18:45.843-04:00", "updated_at": "2025-07-03T20:07:57.172-04:00", "avatar": "https://secure.gravatar.com/avatar/c6b84b490c97ff429615749bde1a26a1.jpg?s=512&d=https%3A%2F%2Fa.slack-edge.com%2Fdf10d%2Fimg%2Favatars%2Fava_0025-512.png", "custom_css": null}, {"id": 13480, "slack_id": "U093S0Y9X44", "display_name": "Adrian C", "bio": null, "projects_count": 0, "devlogs_count": 0, "votes_count": 0, "ships_count": 0, "projects": [], "coding_time_seconds": 0, "coding_time_seconds_today": 0, "balance": "You need to have a pocket watcher badge to view this.", "badges": [], "created_at": "2025-06-30T15:18:49.263-04:00", "updated_at": "2025-07-03T20:07:57.446-04:00", "avatar": "https://secure.gravatar.com/avatar/55f8dc3dd323df96b590f6d957dba010.jpg?s=512&d=https%3A%2F%2Fa.slack-edge.com%2Fdf10d%2Fimg%2Favatars%2Fava_0018-512.png", "custom_css": null}], "pagination": {"page": 674, "pages": 1192, "count": 23828, "items": 20}}