{"users": [{"id": 13481, "slack_id": "U094D9TLDT2", "display_name": "Cara", "bio": null, "projects_count": 0, "devlogs_count": 0, "votes_count": 0, "ships_count": 0, "projects": [], "coding_time_seconds": 0, "coding_time_seconds_today": 0, "balance": "You need to have a pocket watcher badge to view this.", "badges": [], "created_at": "2025-06-30T15:20:57.555-04:00", "updated_at": "2025-07-03T20:07:57.709-04:00", "avatar": "https://secure.gravatar.com/avatar/975675927010e298e7f2bba0006221bf.jpg?s=512&d=https%3A%2F%2Fa.slack-edge.com%2Fdf10d%2Fimg%2Favatars%2Fava_0020-512.png", "custom_css": null}, {"id": 13482, "slack_id": "U093RBPM4TU", "display_name": "Christlieb Dela", "bio": null, "projects_count": 0, "devlogs_count": 0, "votes_count": 0, "ships_count": 0, "projects": [], "coding_time_seconds": 0, "coding_time_seconds_today": 0, "balance": "You need to have a pocket watcher badge to view this.", "badges": [], "created_at": "2025-06-30T15:22:30.454-04:00", "updated_at": "2025-07-03T20:07:57.973-04:00", "avatar": "https://avatars.slack-edge.com/2025-06-30/9127426318130_af07b40387bfee28f789_original.jpg", "custom_css": null}, {"id": 13483, "slack_id": "U093RD4E3MG", "display_name": "vijay kumar", "bio": null, "projects_count": 0, "devlogs_count": 0, "votes_count": 0, "ships_count": 0, "projects": [], "coding_time_seconds": 0, "coding_time_seconds_today": 0, "balance": "You need to have a pocket watcher badge to view this.", "badges": [], "created_at": "2025-06-30T15:32:08.324-04:00", "updated_at": "2025-07-04T02:33:46.239-04:00", "avatar": "https://secure.gravatar.com/avatar/c5071ba9f58d576f60c0308d41295161.jpg?s=512&d=https%3A%2F%2Fa.slack-edge.com%2Fdf10d%2Fimg%2Favatars%2Fava_0021-512.png", "custom_css": null}, {"id": 13484, "slack_id": "U093SGP5TAQ", "display_name": "emim", "bio": null, "projects_count": 0, "devlogs_count": 0, "votes_count": 0, "ships_count": 0, "projects": [], "coding_time_seconds": 95647, "coding_time_seconds_today": 0, "balance": "You need to have a pocket watcher badge to view this.", "badges": [], "created_at": "2025-06-30T15:33:43.524-04:00", "updated_at": "2025-07-03T20:07:58.368-04:00", "avatar": "https://secure.gravatar.com/avatar/0a3f6941005d513ca9ad15aa20faa8ce.jpg?s=512&d=https%3A%2F%2Fa.slack-edge.com%2Fdf10d%2Fimg%2Favatars%2Fava_0021-512.png", "custom_css": null}, {"id": 13485, "slack_id": "U093J80M0P5", "display_name": "Farida", "bio": null, "projects_count": 0, "devlogs_count": 0, "votes_count": 0, "ships_count": 0, "projects": [], "coding_time_seconds": 0, "coding_time_seconds_today": 0, "balance": "You need to have a pocket watcher badge to view this.", "badges": [], "created_at": "2025-06-30T15:42:25.707-04:00", "updated_at": "2025-07-03T20:07:58.631-04:00", "avatar": "https://secure.gravatar.com/avatar/275fee72b468ac495b5ba35b79a00f2a.jpg?s=512&d=https%3A%2F%2Fa.slack-edge.com%2Fdf10d%2Fimg%2Favatars%2Fava_0016-512.png", "custom_css": null}, {"id": 13486, "slack_id": "U093SHYET8C", "display_name": "Ruixuan Zhang", "bio": null, "projects_count": 0, "devlogs_count": 0, "votes_count": 0, "ships_count": 0, "projects": [], "coding_time_seconds": 0, "coding_time_seconds_today": 0, "balance": "You need to have a pocket watcher badge to view this.", "badges": [], "created_at": "2025-06-30T15:43:32.315-04:00", "updated_at": "2025-07-06T08:14:24.376-04:00", "avatar": "https://secure.gravatar.com/avatar/22d9a58cb3a37afe2980fd37f9c61187.jpg?s=512&d=https%3A%2F%2Fa.slack-edge.com%2Fdf10d%2Fimg%2Favatars%2Fava_0004-512.png", "custom_css": null}, {"id": 13487, "slack_id": "U093S8X1TFW", "display_name": "Eliezer Runolfsson", "bio": null, "projects_count": 0, "devlogs_count": 0, "votes_count": 0, "ships_count": 0, "projects": [], "coding_time_seconds": 0, "coding_time_seconds_today": 0, "balance": "You need to have a pocket watcher badge to view this.", "badges": [], "created_at": "2025-06-30T15:46:58.263-04:00", "updated_at": "2025-07-05T02:14:58.572-04:00", "avatar": "https://secure.gravatar.com/avatar/e4d0f543b1643a5b6f0c4b6200067b88.jpg?s=512&d=https%3A%2F%2Fa.slack-edge.com%2Fdf10d%2Fimg%2Favatars%2Fava_0007-512.png", "custom_css": null}, {"id": 13488, "slack_id": "U093L51HGNA", "display_name": "Nikita Sachan", "bio": null, "projects_count": 0, "devlogs_count": 0, "votes_count": 0, "ships_count": 0, "projects": [], "coding_time_seconds": 0, "coding_time_seconds_today": 0, "balance": "You need to have a pocket watcher badge to view this.", "badges": [], "created_at": "2025-06-30T15:48:00.866-04:00", "updated_at": "2025-07-03T20:07:59.168-04:00", "avatar": "https://secure.gravatar.com/avatar/79c45be3e20a8ab7ffa2559d07c3d1f9.jpg?s=512&d=https%3A%2F%2Fa.slack-edge.com%2Fdf10d%2Fimg%2Favatars%2Fava_0002-512.png", "custom_css": null}, {"id": 13489, "slack_id": "U093SJZA412", "display_name": "Garima Baldawa", "bio": null, "projects_count": 0, "devlogs_count": 0, "votes_count": 0, "ships_count": 0, "projects": [], "coding_time_seconds": 0, "coding_time_seconds_today": 0, "balance": "You need to have a pocket watcher badge to view this.", "badges": [], "created_at": "2025-06-30T15:49:34.466-04:00", "updated_at": "2025-07-04T02:33:47.118-04:00", "avatar": "https://secure.gravatar.com/avatar/014f922686c586589695c550ba91da46.jpg?s=512&d=https%3A%2F%2Fa.slack-edge.com%2Fdf10d%2Fimg%2Favatars%2Fava_0002-512.png", "custom_css": null}, {"id": 13490, "slack_id": "U0944AUH941", "display_name": "Thejas Kiran", "bio": null, "projects_count": 0, "devlogs_count": 0, "votes_count": 0, "ships_count": 0, "projects": [], "coding_time_seconds": 0, "coding_time_seconds_today": 0, "balance": "You need to have a pocket watcher badge to view this.", "badges": [], "created_at": "2025-06-30T15:51:51.017-04:00", "updated_at": "2025-07-08T18:05:17.662-04:00", "avatar": "https://avatars.slack-edge.com/2025-06-30/9127552140818_28c929efc5f72cacd39a_original.jpg", "custom_css": null}, {"id": 13491, "slack_id": "U094DCLBDDE", "display_name": "Crystal", "bio": null, "projects_count": 1, "devlogs_count": 1, "votes_count": 0, "ships_count": 0, "projects": [{"id": 4726, "title": "Green Rabbit Learning", "devlogs_count": 1, "created_at": "2025-07-01T08:44:31.562-04:00"}], "coding_time_seconds": 16092, "coding_time_seconds_today": 0, "balance": "You need to have a pocket watcher badge to view this.", "badges": [], "created_at": "2025-06-30T15:59:10.324-04:00", "updated_at": "2025-07-10T13:47:40.810-04:00", "avatar": "https://secure.gravatar.com/avatar/cda2fbc3cec0625dae895fb590f4cca9.jpg?s=512&d=https%3A%2F%2Fa.slack-edge.com%2Fdf10d%2Fimg%2Favatars%2Fava_0006-512.png", "custom_css": null}, {"id": 13492, "slack_id": "U093PKKE6MT", "display_name": "Yusra Mullen", "bio": null, "projects_count": 0, "devlogs_count": 0, "votes_count": 0, "ships_count": 0, "projects": [], "coding_time_seconds": 0, "coding_time_seconds_today": 0, "balance": "You need to have a pocket watcher badge to view this.", "badges": [], "created_at": "2025-06-30T16:03:37.584-04:00", "updated_at": "2025-07-03T20:07:59.961-04:00", "avatar": "https://secure.gravatar.com/avatar/8a63cbbb4733e5b3660594cfc8b61311.jpg?s=512&d=https%3A%2F%2Fa.slack-edge.com%2Fdf10d%2Fimg%2Favatars%2Fava_0008-512.png", "custom_css": null}, {"id": 13493, "slack_id": "U07C4D9Q535", "display_name": "Yaseen Ait Simmou", "bio": null, "projects_count": 2, "devlogs_count": 2, "votes_count": 7, "ships_count": 1, "projects": [{"id": 7618, "title": "Rocket Trajectory Simulator", "devlogs_count": 1, "created_at": "2025-07-22T10:02:42.282-04:00"}, {"id": 11152, "title": "My Personal Website", "devlogs_count": 1, "created_at": "2025-08-13T15:27:14.959-04:00"}], "coding_time_seconds": 121953, "coding_time_seconds_today": 0, "balance": "You need to have a pocket watcher badge to view this.", "badges": [{"name": "Maiden Voyage", "text": "you shipped your first project! the journey begins...", "icon": "\ud83d\udea2"}], "created_at": "2025-06-30T16:10:39.838-04:00", "updated_at": "2025-09-10T22:57:55.135-04:00", "avatar": "https://avatars.slack-edge.com/2024-08-11/7559507774034_24e2b87fc6e1f0981d27_original.jpg", "custom_css": null}, {"id": 13494, "slack_id": "U093BFVPEH5", "display_name": "Aditya Singh", "bio": null, "projects_count": 0, "devlogs_count": 0, "votes_count": 0, "ships_count": 0, "projects": [], "coding_time_seconds": 0, "coding_time_seconds_today": 0, "balance": "You need to have a pocket watcher badge to view this.", "badges": [], "created_at": "2025-06-30T16:11:44.751-04:00", "updated_at": "2025-07-03T20:08:00.361-04:00", "avatar": "https://secure.gravatar.com/avatar/f0bcb54abb65037b6b23cc943c978eab.jpg?s=512&d=https%3A%2F%2Fa.slack-edge.com%2Fdf10d%2Fimg%2Favatars%2Fava_0002-512.png", "custom_css": null}, {"id": 13495, "slack_id": "U093RKQCP18", "display_name": "Abhilash Potnuru", "bio": null, "projects_count": 0, "devlogs_count": 0, "votes_count": 0, "ships_count": 0, "projects": [], "coding_time_seconds": 0, "coding_time_seconds_today": 0, "balance": "You need to have a pocket watcher badge to view this.", "badges": [], "created_at": "2025-06-30T16:19:38.505-04:00", "updated_at": "2025-07-03T20:08:00.622-04:00", "avatar": "https://secure.gravatar.com/avatar/742317738a677f4d784277917c4b95a3.jpg?s=512&d=https%3A%2F%2Fa.slack-edge.com%2Fdf10d%2Fimg%2Favatars%2Fava_0014-512.png", "custom_css": null}, {"id": 13496, "slack_id": "U093RB7QC3C", "display_name": "Huda", "bio": null, "projects_count": 0, "devlogs_count": 0, "votes_count": 0, "ships_count": 0, "projects": [], "coding_time_seconds": 0, "coding_time_seconds_today": 0, "balance": "You need to have a pocket watcher badge to view this.", "badges": [], "created_at": "2025-06-30T16:20:14.850-04:00", "updated_at": "2025-07-03T20:08:00.879-04:00", "avatar": "https://secure.gravatar.com/avatar/4c364808f9630d2c81aaad4c33c1418a.jpg?s=512&d=https%3A%2F%2Fa.slack-edge.com%2Fdf10d%2Fimg%2Favatars%2Fava_0024-512.png", "custom_css": null}, {"id": 13497, "slack_id": "U093RL0NDJN", "display_name": "Vishnu", "bio": null, "projects_count": 0, "devlogs_count": 0, "votes_count": 0, "ships_count": 0, "projects": [], "coding_time_seconds": 42956, "coding_time_seconds_today": 2102, "balance": "You need to have a pocket watcher badge to view this.", "badges": [], "created_at": "2025-06-30T16:22:04.350-04:00", "updated_at": "2025-07-03T20:08:01.154-04:00", "avatar": "https://secure.gravatar.com/avatar/200ed5d726926e034ef1c5099cd4df33.jpg?s=512&d=https%3A%2F%2Fa.slack-edge.com%2Fdf10d%2Fimg%2Favatars%2Fava_0018-512.png", "custom_css": null}, {"id": 13498, "slack_id": "U093PN36EUD", "display_name": "Abdul Rafeh", "bio": null, "projects_count": 0, "devlogs_count": 0, "votes_count": 0, "ships_count": 0, "projects": [], "coding_time_seconds": 0, "coding_time_seconds_today": 0, "balance": "You need to have a pocket watcher badge to view this.", "badges": [], "created_at": "2025-06-30T16:22:52.683-04:00", "updated_at": "2025-07-03T20:08:01.422-04:00", "avatar": "https://secure.gravatar.com/avatar/fd1ee7e3bf39f77bf34897b5beda78e2.jpg?s=512&d=https%3A%2F%2Fa.slack-edge.com%2Fdf10d%2Fimg%2Favatars%2Fava_0022-512.png", "custom_css": null}, {"id": 13499, "slack_id": "U093JE03WLT", "display_name": "Kyrylo Kolesnichenko", "bio": null, "projects_count": 0, "devlogs_count": 0, "votes_count": 0, "ships_count": 0, "projects": [], "coding_time_seconds": 0, "coding_time_seconds_today": 0, "balance": "You need to have a pocket watcher badge to view this.", "badges": [], "created_at": "2025-06-30T16:30:13.328-04:00", "updated_at": "2025-07-03T20:08:01.690-04:00", "avatar": "https://secure.gravatar.com/avatar/ca625f32376ab894ad291211c31f9e83.jpg?s=512&d=https%3A%2F%2Fa.slack-edge.com%2Fdf10d%2Fimg%2Favatars%2Fava_0002-512.png", "custom_css": null}, {"id": 13500, "slack_id": "U093JEQFYRH", "display_name": "Chimaobi", "bio": null, "projects_count": 1, "devlogs_count": 4, "votes_count": 1, "ships_count": 1, "projects": [{"id": 5257, "title": "Kairos", "devlogs_count": 4, "created_at": "2025-07-04T04:02:20.602-04:00"}], "coding_time_seconds": 86730, "coding_time_seconds_today": 0, "balance": "You need to have a pocket watcher badge to view this.", "badges": [{"name": "Maiden Voyage", "text": "you shipped your first project! the journey begins...", "icon": "\ud83d\udea2"}], "created_at": "2025-06-30T16:31:49.746-04:00", "updated_at": "2025-09-10T22:57:55.315-04:00", "avatar": "https://secure.gravatar.com/avatar/9542525e9c17c47af299c53b6c2aaa48.jpg?s=512&d=https%3A%2F%2Fa.slack-edge.com%2Fdf10d%2Fimg%2Favatars%2Fava_0005-512.png", "custom_css": null}], "pagination": {"page": 675, "pages": 1192, "count": 23828, "items": 20}}