{"users": [{"id": 13501, "slack_id": "U093JF1MYKV", "display_name": "madnansultandotme", "bio": null, "projects_count": 0, "devlogs_count": 0, "votes_count": 0, "ships_count": 0, "projects": [], "coding_time_seconds": 0, "coding_time_seconds_today": 0, "balance": "You need to have a pocket watcher badge to view this.", "badges": [], "created_at": "2025-06-30T16:35:27.266-04:00", "updated_at": "2025-07-03T20:08:02.296-04:00", "avatar": "https://secure.gravatar.com/avatar/87e2adcabc524050fcfc759338bb3833.jpg?s=512&d=https%3A%2F%2Fa.slack-edge.com%2Fdf10d%2Fimg%2Favatars%2Fava_0017-512.png", "custom_css": null}, {"id": 13502, "slack_id": "U094DLUAEE4", "display_name": "Lars73", "bio": null, "projects_count": 0, "devlogs_count": 0, "votes_count": 0, "ships_count": 0, "projects": [], "coding_time_seconds": 0, "coding_time_seconds_today": 0, "balance": "You need to have a pocket watcher badge to view this.", "badges": [], "created_at": "2025-06-30T16:39:03.969-04:00", "updated_at": "2025-07-03T20:08:02.561-04:00", "avatar": "https://secure.gravatar.com/avatar/290685807d103221d347b778efac9ffd.jpg?s=512&d=https%3A%2F%2Fa.slack-edge.com%2Fdf10d%2Fimg%2Favatars%2Fava_0024-512.png", "custom_css": null}, {"id": 13503, "slack_id": "U0944JG7JU9", "display_name": "Gautam Binu", "bio": null, "projects_count": 1, "devlogs_count": 0, "votes_count": 1, "ships_count": 0, "projects": [{"id": 8238, "title": "Library Managment system", "devlogs_count": 0, "created_at": "2025-07-25T13:52:17.063-04:00"}], "coding_time_seconds": 112880, "coding_time_seconds_today": 0, "balance": "You need to have a pocket watcher badge to view this.", "badges": [], "created_at": "2025-06-30T16:46:12.716-04:00", "updated_at": "2025-07-03T20:08:02.811-04:00", "avatar": "https://secure.gravatar.com/avatar/a4759872acd0fc89067163b1920b7322.jpg?s=512&d=https%3A%2F%2Fa.slack-edge.com%2Fdf10d%2Fimg%2Favatars%2Fava_0002-512.png", "custom_css": null}, {"id": 13504, "slack_id": "U093LD7H91C", "display_name": "Ismail", "bio": null, "projects_count": 0, "devlogs_count": 0, "votes_count": 0, "ships_count": 0, "projects": [], "coding_time_seconds": 0, "coding_time_seconds_today": 0, "balance": "You need to have a pocket watcher badge to view this.", "badges": [], "created_at": "2025-06-30T16:47:32.103-04:00", "updated_at": "2025-07-03T20:08:03.072-04:00", "avatar": "https://secure.gravatar.com/avatar/b59f19887a82b2453d801a9c11952df9.jpg?s=512&d=https%3A%2F%2Fa.slack-edge.com%2Fdf10d%2Fimg%2Favatars%2Fava_0012-512.png", "custom_css": null}, {"id": 13505, "slack_id": "U093LD7RTEJ", "display_name": "Michael", "bio": null, "projects_count": 0, "devlogs_count": 0, "votes_count": 0, "ships_count": 0, "projects": [], "coding_time_seconds": 0, "coding_time_seconds_today": 0, "balance": "You need to have a pocket watcher badge to view this.", "badges": [], "created_at": "2025-06-30T16:47:51.256-04:00", "updated_at": "2025-07-04T20:14:22.125-04:00", "avatar": "https://secure.gravatar.com/avatar/b12a2b1edfd9f914b17815fb735ced85.jpg?s=512&d=https%3A%2F%2Fa.slack-edge.com%2Fdf10d%2Fimg%2Favatars%2Fava_0021-512.png", "custom_css": null}, {"id": 13506, "slack_id": "U094BL8EKUG", "display_name": "Jacobo Ganon", "bio": null, "projects_count": 0, "devlogs_count": 0, "votes_count": 0, "ships_count": 0, "projects": [], "coding_time_seconds": 0, "coding_time_seconds_today": 0, "balance": "You need to have a pocket watcher badge to view this.", "badges": [], "created_at": "2025-06-30T16:49:13.858-04:00", "updated_at": "2025-07-03T22:04:31.480-04:00", "avatar": "https://secure.gravatar.com/avatar/4205cb9c97fba702f19c034d57f4adfe.jpg?s=512&d=https%3A%2F%2Fa.slack-edge.com%2Fdf10d%2Fimg%2Favatars%2Fava_0005-512.png", "custom_css": null}, {"id": 13507, "slack_id": "U08TV49FS04", "display_name": "shar", "bio": null, "projects_count": 0, "devlogs_count": 0, "votes_count": 0, "ships_count": 0, "projects": [], "coding_time_seconds": 166758, "coding_time_seconds_today": 0, "balance": "You need to have a pocket watcher badge to view this.", "badges": [], "created_at": "2025-06-30T16:51:23.626-04:00", "updated_at": "2025-08-13T15:11:28.271-04:00", "avatar": "https://avatars.slack-edge.com/2025-08-13/9375016342224_450ee5d73ce90536a805_original.png", "custom_css": null}, {"id": 13508, "slack_id": "U093BMUUUA3", "display_name": "vivian", "bio": null, "projects_count": 0, "devlogs_count": 0, "votes_count": 0, "ships_count": 0, "projects": [], "coding_time_seconds": 0, "coding_time_seconds_today": 0, "balance": "You need to have a pocket watcher badge to view this.", "badges": [], "created_at": "2025-06-30T16:54:26.905-04:00", "updated_at": "2025-08-21T02:41:34.087-04:00", "avatar": "https://secure.gravatar.com/avatar/53ea2f82964bbc8b87145cfa3c3f1188.jpg?s=512&d=https%3A%2F%2Fa.slack-edge.com%2Fdf10d%2Fimg%2Favatars%2Fava_0000-512.png", "custom_css": null}, {"id": 13509, "slack_id": "U093PSWDK5K", "display_name": "Dexter575", "bio": null, "projects_count": 0, "devlogs_count": 0, "votes_count": 0, "ships_count": 0, "projects": [], "coding_time_seconds": 0, "coding_time_seconds_today": 0, "balance": "You need to have a pocket watcher badge to view this.", "badges": [], "created_at": "2025-06-30T16:58:33.394-04:00", "updated_at": "2025-07-03T20:08:04.024-04:00", "avatar": "https://secure.gravatar.com/avatar/a7a31ec5abfe33031e0c3033dfb275a0.jpg?s=512&d=https%3A%2F%2Fa.slack-edge.com%2Fdf10d%2Fimg%2Favatars%2Fava_0002-512.png", "custom_css": null}, {"id": 13510, "slack_id": "U093RRSKNNN", "display_name": "Vinicius Rosa", "bio": null, "projects_count": 0, "devlogs_count": 0, "votes_count": 0, "ships_count": 0, "projects": [], "coding_time_seconds": 0, "coding_time_seconds_today": 0, "balance": "You need to have a pocket watcher badge to view this.", "badges": [], "created_at": "2025-06-30T17:04:11.975-04:00", "updated_at": "2025-07-03T20:08:04.282-04:00", "avatar": "https://secure.gravatar.com/avatar/5a7dbfac6844e7de06a925c5eaf46278.jpg?s=512&d=https%3A%2F%2Fa.slack-edge.com%2Fdf10d%2Fimg%2Favatars%2Fava_0007-512.png", "custom_css": null}, {"id": 13511, "slack_id": "U094DQHMH1N", "display_name": "Kaya-Sem", "bio": null, "projects_count": 0, "devlogs_count": 0, "votes_count": 0, "ships_count": 0, "projects": [], "coding_time_seconds": 0, "coding_time_seconds_today": 0, "balance": "You need to have a pocket watcher badge to view this.", "badges": [], "created_at": "2025-06-30T17:06:25.403-04:00", "updated_at": "2025-07-03T20:08:04.557-04:00", "avatar": "https://avatars.slack-edge.com/2025-06-30/9140735758161_c842a224a192ed5049f4_original.png", "custom_css": null}, {"id": 13512, "slack_id": "U04FRGGTBDL", "display_name": "Vidhi", "bio": null, "projects_count": 2, "devlogs_count": 0, "votes_count": 0, "ships_count": 0, "projects": [{"id": 4568, "title": "Promptly", "devlogs_count": 0, "created_at": "2025-06-30T17:19:49.225-04:00"}, {"id": 4572, "title": "Leetcode", "devlogs_count": 0, "created_at": "2025-06-30T17:29:41.802-04:00"}], "coding_time_seconds": 97956, "coding_time_seconds_today": 0, "balance": "You need to have a pocket watcher badge to view this.", "badges": [], "created_at": "2025-06-30T17:11:09.562-04:00", "updated_at": "2025-07-03T22:04:31.914-04:00", "avatar": "https://secure.gravatar.com/avatar/4523c3362f1a4799bc2b6265e3c8ccc3.jpg?s=512&d=https%3A%2F%2Fa.slack-edge.com%2Fdf10d%2Fimg%2Favatars%2Fava_0014-512.png", "custom_css": null}, {"id": 13513, "slack_id": "U093HMZ124B", "display_name": "Colin Ding", "bio": null, "projects_count": 1, "devlogs_count": 1, "votes_count": 1, "ships_count": 0, "projects": [{"id": 4573, "title": "zigfish", "devlogs_count": 1, "created_at": "2025-06-30T17:41:58.398-04:00"}], "coding_time_seconds": 125301, "coding_time_seconds_today": 0, "balance": "You need to have a pocket watcher badge to view this.", "badges": [], "created_at": "2025-06-30T17:17:22.962-04:00", "updated_at": "2025-07-04T08:30:04.049-04:00", "avatar": "https://avatars.slack-edge.com/2025-06-30/9149894063840_82134b3871b0324fcdf0_original.png", "custom_css": null}, {"id": 13514, "slack_id": "U078HK3ARMY", "display_name": "david", "bio": null, "projects_count": 3, "devlogs_count": 5, "votes_count": 21, "ships_count": 2, "projects": [{"id": 7228, "title": "ATtiny44 Servo Tester", "devlogs_count": 4, "created_at": "2025-07-20T06:31:35.585-04:00"}, {"id": 10960, "title": "ESP32 Motion detector", "devlogs_count": 1, "created_at": "2025-08-12T03:38:46.599-04:00"}, {"id": 11528, "title": "Laboratory protocol generator", "devlogs_count": 0, "created_at": "2025-08-16T16:34:23.508-04:00"}], "coding_time_seconds": 71317, "coding_time_seconds_today": 0, "balance": "You need to have a pocket watcher badge to view this.", "badges": [{"name": "Maiden Voyage", "text": "you shipped your first project! the journey begins...", "icon": "\ud83d\udea2"}], "created_at": "2025-06-30T17:20:21.466-04:00", "updated_at": "2025-09-10T22:57:55.731-04:00", "avatar": "https://avatars.slack-edge.com/2024-06-18/7287748485206_8e4432fc06c8a6475d5d_original.jpg", "custom_css": null}, {"id": 13515, "slack_id": "U093JRZEYP7", "display_name": "Anthony Revel", "bio": null, "projects_count": 0, "devlogs_count": 0, "votes_count": 0, "ships_count": 0, "projects": [], "coding_time_seconds": 0, "coding_time_seconds_today": 0, "balance": "You need to have a pocket watcher badge to view this.", "badges": [], "created_at": "2025-06-30T17:20:41.776-04:00", "updated_at": "2025-07-03T20:08:05.367-04:00", "avatar": "https://secure.gravatar.com/avatar/e8afae216e8258731da64e8eddc88363.jpg?s=512&d=https%3A%2F%2Fa.slack-edge.com%2Fdf10d%2Fimg%2Favatars%2Fava_0001-512.png", "custom_css": null}, {"id": 13516, "slack_id": "U093RU33S02", "display_name": "Kaitlyn Tran", "bio": null, "projects_count": 0, "devlogs_count": 0, "votes_count": 0, "ships_count": 0, "projects": [], "coding_time_seconds": 0, "coding_time_seconds_today": 0, "balance": "You need to have a pocket watcher badge to view this.", "badges": [], "created_at": "2025-06-30T17:22:09.049-04:00", "updated_at": "2025-07-03T20:08:05.633-04:00", "avatar": "https://avatars.slack-edge.com/2025-06-30/9129091028980_46b55aaa1bd4891a414c_original.jpg", "custom_css": null}, {"id": 13517, "slack_id": "U093NESTUUV", "display_name": "Rohith Veeramachaneni", "bio": null, "projects_count": 0, "devlogs_count": 0, "votes_count": 0, "ships_count": 0, "projects": [], "coding_time_seconds": 0, "coding_time_seconds_today": 0, "balance": "You need to have a pocket watcher badge to view this.", "badges": [], "created_at": "2025-06-30T17:23:33.154-04:00", "updated_at": "2025-07-03T20:08:05.900-04:00", "avatar": "https://secure.gravatar.com/avatar/d550efdd9beb1b7eaad5985e900da180.jpg?s=512&d=https%3A%2F%2Fa.slack-edge.com%2Fdf10d%2Fimg%2Favatars%2Fava_0010-512.png", "custom_css": null}, {"id": 13518, "slack_id": "U091GNY3G3Y", "display_name": "Elaine Che", "bio": null, "projects_count": 0, "devlogs_count": 0, "votes_count": 0, "ships_count": 0, "projects": [], "coding_time_seconds": 0, "coding_time_seconds_today": 0, "balance": "You need to have a pocket watcher badge to view this.", "badges": [], "created_at": "2025-06-30T17:27:46.560-04:00", "updated_at": "2025-07-05T20:15:26.787-04:00", "avatar": "https://avatars.slack-edge.com/2025-06-30/9149932948608_36cc9f094e6bafa0170a_original.jpg", "custom_css": null}, {"id": 13519, "slack_id": "U08PY1XE5EE", "display_name": "itsme", "bio": null, "projects_count": 3, "devlogs_count": 8, "votes_count": 1, "ships_count": 0, "projects": [{"id": 5125, "title": "lockin", "devlogs_count": 0, "created_at": "2025-07-03T11:29:43.876-04:00"}, {"id": 10231, "title": "htkbd", "devlogs_count": 8, "created_at": "2025-08-05T07:06:44.831-04:00"}, {"id": 10568, "title": "<script>alert(1)</script>", "devlogs_count": 0, "created_at": "2025-08-08T08:23:44.608-04:00"}], "coding_time_seconds": 266067, "coding_time_seconds_today": 0, "balance": "You need to have a pocket watcher badge to view this.", "badges": [], "created_at": "2025-06-30T17:34:38.788-04:00", "updated_at": "2025-08-08T08:11:45.639-04:00", "avatar": "https://avatars.slack-edge.com/2025-07-21/9227733048755_9d1f86a45327d3974b61_original.png", "custom_css": null}, {"id": 13520, "slack_id": "U0944QJDZ41", "display_name": "CC2012", "bio": null, "projects_count": 0, "devlogs_count": 0, "votes_count": 0, "ships_count": 0, "projects": [], "coding_time_seconds": 0, "coding_time_seconds_today": 0, "balance": "You need to have a pocket watcher badge to view this.", "badges": [], "created_at": "2025-06-30T17:34:56.273-04:00", "updated_at": "2025-07-17T21:27:56.007-04:00", "avatar": "https://secure.gravatar.com/avatar/05498c23e6560bf3d51bb6b4a927e0f1.jpg?s=512&d=https%3A%2F%2Fa.slack-edge.com%2Fdf10d%2Fimg%2Favatars%2Fava_0018-512.png", "custom_css": null}], "pagination": {"page": 676, "pages": 1192, "count": 23828, "items": 20}}