{"users": [{"id": 13521, "slack_id": "U093T4N1TN0", "display_name": "Samriddhi Dubey", "bio": null, "projects_count": 1, "devlogs_count": 1, "votes_count": 1, "ships_count": 0, "projects": [{"id": 6048, "title": "Mission English", "devlogs_count": 1, "created_at": "2025-07-10T08:22:50.596-04:00"}], "coding_time_seconds": 151310, "coding_time_seconds_today": 0, "balance": "You need to have a pocket watcher badge to view this.", "badges": [], "created_at": "2025-06-30T17:43:26.486-04:00", "updated_at": "2025-07-10T10:52:44.004-04:00", "avatar": "https://secure.gravatar.com/avatar/d427f858c72ce7a972b3665284d970b0.jpg?s=512&d=https%3A%2F%2Fa.slack-edge.com%2Fdf10d%2Fimg%2Favatars%2Fava_0026-512.png", "custom_css": null}, {"id": 13522, "slack_id": "U093S239SHG", "display_name": "May", "bio": null, "projects_count": 0, "devlogs_count": 0, "votes_count": 0, "ships_count": 0, "projects": [], "coding_time_seconds": 16493, "coding_time_seconds_today": 0, "balance": "You need to have a pocket watcher badge to view this.", "badges": [], "created_at": "2025-06-30T17:54:28.950-04:00", "updated_at": "2025-07-03T20:08:07.098-04:00", "avatar": "https://secure.gravatar.com/avatar/6fd8cc314e030326297b7fa95fceeb0e.jpg?s=512&d=https%3A%2F%2Fa.slack-edge.com%2Fdf10d%2Fimg%2Favatars%2Fava_0008-512.png", "custom_css": null}, {"id": 13523, "slack_id": "U093Q482H1B", "display_name": "Thomas Newman", "bio": null, "projects_count": 2, "devlogs_count": 1, "votes_count": 2, "ships_count": 1, "projects": [{"id": 9589, "title": "Personal Project Website", "devlogs_count": 0, "created_at": "2025-08-01T18:35:03.400-04:00"}, {"id": 9588, "title": "Personal Portfolio Website", "devlogs_count": 1, "created_at": "2025-08-01T18:35:03.396-04:00"}], "coding_time_seconds": 57629, "coding_time_seconds_today": 0, "balance": "You need to have a pocket watcher badge to view this.", "badges": [{"name": "Maiden Voyage", "text": "you shipped your first project! the journey begins...", "icon": "\ud83d\udea2"}], "created_at": "2025-06-30T17:55:48.624-04:00", "updated_at": "2025-09-10T22:57:55.960-04:00", "avatar": "https://secure.gravatar.com/avatar/df78d3057861f3ebace110927a790223.jpg?s=512&d=https%3A%2F%2Fa.slack-edge.com%2Fdf10d%2Fimg%2Favatars%2Fava_0022-512.png", "custom_css": null}, {"id": 13524, "slack_id": "U093JQAQFDH", "display_name": "Nikhil Sinha", "bio": null, "projects_count": 0, "devlogs_count": 0, "votes_count": 0, "ships_count": 0, "projects": [], "coding_time_seconds": 0, "coding_time_seconds_today": 0, "balance": "You need to have a pocket watcher badge to view this.", "badges": [], "created_at": "2025-06-30T17:56:36.027-04:00", "updated_at": "2025-07-04T02:33:49.481-04:00", "avatar": "https://avatars.slack-edge.com/2025-06-30/9122742420822_3223db1397c4d4dd0744_original.jpg", "custom_css": null}, {"id": 13525, "slack_id": "U07966B7JDN", "display_name": "Chris B", "bio": null, "projects_count": 1, "devlogs_count": 0, "votes_count": 0, "ships_count": 0, "projects": [{"id": 6684, "title": "wovmoH", "devlogs_count": 0, "created_at": "2025-07-15T05:13:59.678-04:00"}], "coding_time_seconds": 250714, "coding_time_seconds_today": 0, "balance": "You need to have a pocket watcher badge to view this.", "badges": [], "created_at": "2025-06-30T17:58:26.822-04:00", "updated_at": "2025-07-20T02:48:53.988-04:00", "avatar": "https://avatars.slack-edge.com/2025-05-31/8980070587682_baa70722253df728ec26_original.png", "custom_css": null}, {"id": 13526, "slack_id": "U0944U2LF1P", "display_name": "Emy", "bio": null, "projects_count": 0, "devlogs_count": 0, "votes_count": 0, "ships_count": 0, "projects": [], "coding_time_seconds": 0, "coding_time_seconds_today": 0, "balance": "You need to have a pocket watcher badge to view this.", "badges": [], "created_at": "2025-06-30T18:07:22.637-04:00", "updated_at": "2025-07-03T20:08:08.033-04:00", "avatar": "https://secure.gravatar.com/avatar/8ccb5ac6dfe5e065eebbb487a3149b3e.jpg?s=512&d=https%3A%2F%2Fa.slack-edge.com%2Fdf10d%2Fimg%2Favatars%2Fava_0023-512.png", "custom_css": null}, {"id": 13527, "slack_id": "U093C1DQVEK", "display_name": "Preetam Kumar", "bio": null, "projects_count": 0, "devlogs_count": 0, "votes_count": 0, "ships_count": 0, "projects": [], "coding_time_seconds": 64400, "coding_time_seconds_today": 0, "balance": "You need to have a pocket watcher badge to view this.", "badges": [], "created_at": "2025-06-30T18:11:21.799-04:00", "updated_at": "2025-07-03T22:04:33.045-04:00", "avatar": "https://secure.gravatar.com/avatar/bc6b83ca4122c95148510d773ccd4cbc.jpg?s=512&d=https%3A%2F%2Fa.slack-edge.com%2Fdf10d%2Fimg%2Favatars%2Fava_0017-512.png", "custom_css": null}, {"id": 13528, "slack_id": "U078WR7CKGR", "display_name": "James Lollback", "bio": null, "projects_count": 0, "devlogs_count": 0, "votes_count": 0, "ships_count": 0, "projects": [], "coding_time_seconds": 340, "coding_time_seconds_today": 0, "balance": "You need to have a pocket watcher badge to view this.", "badges": [], "created_at": "2025-06-30T18:11:38.860-04:00", "updated_at": "2025-07-03T20:08:08.428-04:00", "avatar": "https://secure.gravatar.com/avatar/a0cb4dbd87b3f75ab40b28d89664ed04.jpg?s=512&d=https%3A%2F%2Fa.slack-edge.com%2Fdf10d%2Fimg%2Favatars%2Fava_0024-512.png", "custom_css": null}, {"id": 13529, "slack_id": "U08C2GBU0Q5", "display_name": "Nickje2000", "bio": null, "projects_count": 3, "devlogs_count": 12, "votes_count": 54, "ships_count": 3, "projects": [{"id": 11588, "title": "Portifolio site", "devlogs_count": 1, "created_at": "2025-08-17T09:52:44.191-04:00"}, {"id": 4767, "title": "GPDB", "devlogs_count": 9, "created_at": "2025-07-01T12:31:01.641-04:00"}, {"id": 10995, "title": "Weird Tank Game", "devlogs_count": 2, "created_at": "2025-08-12T09:33:11.964-04:00"}], "coding_time_seconds": 45561, "coding_time_seconds_today": 0, "balance": "You need to have a pocket watcher badge to view this.", "badges": [{"name": "Maiden Voyage", "text": "you shipped your first project! the journey begins...", "icon": "\ud83d\udea2"}, {"name": "Yapper I", "text": "Posted 10 comments on devlogs.", "icon": "\ud83d\udcac"}, {"name": "Spider", "text": "this user has a pet!", "icon": "\ud83d\udd77\ufe0f"}], "created_at": "2025-06-30T18:15:25.817-04:00", "updated_at": "2025-09-10T22:57:56.116-04:00", "avatar": "https://avatars.slack-edge.com/2025-08-17/9366870666854_daeedd3e5d59ca186675_original.jpg", "custom_css": null}, {"id": 13530, "slack_id": "U0944UTB457", "display_name": "Param Thawani", "bio": null, "projects_count": 1, "devlogs_count": 2, "votes_count": 0, "ships_count": 0, "projects": [{"id": 4869, "title": "Tars Robot 01", "devlogs_count": 2, "created_at": "2025-07-02T01:14:46.667-04:00"}], "coding_time_seconds": 130832, "coding_time_seconds_today": 0, "balance": "You need to have a pocket watcher badge to view this.", "badges": [], "created_at": "2025-06-30T18:15:54.166-04:00", "updated_at": "2025-07-03T20:08:08.963-04:00", "avatar": "https://secure.gravatar.com/avatar/847b55467376d010f5d20c2b3410f459.jpg?s=512&d=https%3A%2F%2Fa.slack-edge.com%2Fdf10d%2Fimg%2Favatars%2Fava_0015-512.png", "custom_css": null}, {"id": 13531, "slack_id": "U04FP8V5JMB", "display_name": "Alan T.", "bio": null, "projects_count": 0, "devlogs_count": 0, "votes_count": 0, "ships_count": 0, "projects": [], "coding_time_seconds": 0, "coding_time_seconds_today": 0, "balance": "You need to have a pocket watcher badge to view this.", "badges": [], "created_at": "2025-06-30T18:26:05.450-04:00", "updated_at": "2025-07-03T20:08:09.229-04:00", "avatar": "https://secure.gravatar.com/avatar/cccece2947fad640a78747f2d4a2c3f5.jpg?s=512&d=https%3A%2F%2Fa.slack-edge.com%2Fdf10d%2Fimg%2Favatars%2Fava_0022-512.png", "custom_css": null}, {"id": 13532, "slack_id": "U093C2YE7GF", "display_name": "Mirian", "bio": "", "projects_count": 4, "devlogs_count": 28, "votes_count": 73, "ships_count": 3, "projects": [{"id": 10967, "title": "Tiny Town Explorer", "devlogs_count": 10, "created_at": "2025-08-12T04:50:45.132-04:00"}, {"id": 4879, "title": "MindBloom", "devlogs_count": 3, "created_at": "2025-07-02T02:30:26.291-04:00"}, {"id": 5018, "title": "Quote Garden", "devlogs_count": 11, "created_at": "2025-07-02T18:22:46.000-04:00"}, {"id": 6352, "title": "Yumverse", "devlogs_count": 4, "created_at": "2025-07-12T15:53:40.558-04:00"}], "coding_time_seconds": 210986, "coding_time_seconds_today": 0, "balance": "You need to have a pocket watcher badge to view this.", "badges": [{"name": "Maiden Voyage", "text": "you shipped your first project! the journey begins...", "icon": "\ud83d\udea2"}], "created_at": "2025-06-30T18:30:10.702-04:00", "updated_at": "2025-09-10T22:57:56.235-04:00", "avatar": "https://avatars.slack-edge.com/2025-07-01/9128755383366_432377a8c698ad8c38b3_original.jpg", "custom_css": null}, {"id": 13533, "slack_id": "U09450U6NBB", "display_name": "Nils Sellergren", "bio": null, "projects_count": 0, "devlogs_count": 0, "votes_count": 0, "ships_count": 0, "projects": [], "coding_time_seconds": 0, "coding_time_seconds_today": 0, "balance": "You need to have a pocket watcher badge to view this.", "badges": [], "created_at": "2025-06-30T18:34:00.687-04:00", "updated_at": "2025-07-03T20:08:09.760-04:00", "avatar": "https://secure.gravatar.com/avatar/0c50c2faf14fb00767f77110725046a8.jpg?s=512&d=https%3A%2F%2Fa.slack-edge.com%2Fdf10d%2Fimg%2Favatars%2Fava_0017-512.png", "custom_css": null}, {"id": 13534, "slack_id": "U093Q8HLRGV", "display_name": "Timothy", "bio": null, "projects_count": 0, "devlogs_count": 0, "votes_count": 0, "ships_count": 0, "projects": [], "coding_time_seconds": 166357, "coding_time_seconds_today": 0, "balance": "You need to have a pocket watcher badge to view this.", "badges": [], "created_at": "2025-06-30T18:38:46.290-04:00", "updated_at": "2025-07-03T22:04:33.567-04:00", "avatar": "https://avatars.slack-edge.com/2025-06-30/9126327076869_774eb1fd6a6ae1ebd274_original.jpg", "custom_css": null}, {"id": 13535, "slack_id": "U093JUA0EKV", "display_name": "Osintedx", "bio": null, "projects_count": 0, "devlogs_count": 0, "votes_count": 0, "ships_count": 0, "projects": [], "coding_time_seconds": 0, "coding_time_seconds_today": 0, "balance": "You need to have a pocket watcher badge to view this.", "badges": [], "created_at": "2025-06-30T18:41:03.158-04:00", "updated_at": "2025-07-03T20:08:10.155-04:00", "avatar": "https://avatars.slack-edge.com/2025-06-30/9120973829139_221affe43c4203eaacc3_original.jpg", "custom_css": null}, {"id": 13536, "slack_id": "U093TAN2PM2", "display_name": "Guilherme Araujo", "bio": null, "projects_count": 0, "devlogs_count": 0, "votes_count": 0, "ships_count": 0, "projects": [], "coding_time_seconds": 0, "coding_time_seconds_today": 0, "balance": "You need to have a pocket watcher badge to view this.", "badges": [], "created_at": "2025-06-30T18:41:56.221-04:00", "updated_at": "2025-07-04T08:30:05.938-04:00", "avatar": "https://secure.gravatar.com/avatar/d78ebdb436e7c5fcd23312653e6d313f.jpg?s=512&d=https%3A%2F%2Fa.slack-edge.com%2Fdf10d%2Fimg%2Favatars%2Fava_0024-512.png", "custom_css": null}, {"id": 13537, "slack_id": "U093C4GC5B9", "display_name": "Salma Nasser", "bio": null, "projects_count": 0, "devlogs_count": 0, "votes_count": 0, "ships_count": 0, "projects": [], "coding_time_seconds": 0, "coding_time_seconds_today": 0, "balance": "You need to have a pocket watcher badge to view this.", "badges": [], "created_at": "2025-06-30T18:43:39.266-04:00", "updated_at": "2025-07-03T20:08:10.568-04:00", "avatar": "https://secure.gravatar.com/avatar/26f77039ad2a67904d9cf0fda0c74b22.jpg?s=512&d=https%3A%2F%2Fa.slack-edge.com%2Fdf10d%2Fimg%2Favatars%2Fava_0013-512.png", "custom_css": null}, {"id": 13538, "slack_id": "U093C4S01MM", "display_name": "Emad Adnan", "bio": null, "projects_count": 0, "devlogs_count": 0, "votes_count": 0, "ships_count": 0, "projects": [], "coding_time_seconds": 0, "coding_time_seconds_today": 0, "balance": "You need to have a pocket watcher badge to view this.", "badges": [], "created_at": "2025-06-30T18:48:37.892-04:00", "updated_at": "2025-07-07T15:12:19.830-04:00", "avatar": "https://secure.gravatar.com/avatar/414718f8f722a46c664adb6556875ef3.jpg?s=512&d=https%3A%2F%2Fa.slack-edge.com%2Fdf10d%2Fimg%2Favatars%2Fava_0007-512.png", "custom_css": null}, {"id": 13539, "slack_id": "U092BLDPT16", "display_name": "Max C", "bio": null, "projects_count": 0, "devlogs_count": 0, "votes_count": 0, "ships_count": 0, "projects": [], "coding_time_seconds": 4977, "coding_time_seconds_today": 0, "balance": "You need to have a pocket watcher badge to view this.", "badges": [], "created_at": "2025-06-30T18:51:24.869-04:00", "updated_at": "2025-07-03T20:08:11.090-04:00", "avatar": "https://secure.gravatar.com/avatar/b6466f0af4fa9777b3532b43d82dfdbd.jpg?s=512&d=https%3A%2F%2Fa.slack-edge.com%2Fdf10d%2Fimg%2Favatars%2Fava_0012-512.png", "custom_css": null}, {"id": 13540, "slack_id": "U08UW1NGFUL", "display_name": "smaran sure", "bio": null, "projects_count": 0, "devlogs_count": 0, "votes_count": 0, "ships_count": 0, "projects": [], "coding_time_seconds": 241, "coding_time_seconds_today": 0, "balance": "You need to have a pocket watcher badge to view this.", "badges": [], "created_at": "2025-06-30T19:00:54.798-04:00", "updated_at": "2025-08-27T04:19:11.664-04:00", "avatar": "https://secure.gravatar.com/avatar/5763804e560ab7c5082360e45ef94695.jpg?s=512&d=https%3A%2F%2Fa.slack-edge.com%2Fdf10d%2Fimg%2Favatars%2Fava_0019-512.png", "custom_css": null}], "pagination": {"page": 677, "pages": 1192, "count": 23828, "items": 20}}