{"users": [{"id": 13541, "slack_id": "U093QAJV3HT", "display_name": "Ammar Yasser", "bio": null, "projects_count": 0, "devlogs_count": 0, "votes_count": 0, "ships_count": 0, "projects": [], "coding_time_seconds": 0, "coding_time_seconds_today": 0, "balance": "You need to have a pocket watcher badge to view this.", "badges": [], "created_at": "2025-06-30T19:00:58.714-04:00", "updated_at": "2025-07-03T20:08:11.494-04:00", "avatar": "https://avatars.slack-edge.com/2025-06-30/9126369065077_ba7308d6eada0b5ea891_original.png", "custom_css": null}, {"id": 13542, "slack_id": "U093TCC8Q04", "display_name": "rokocuba555", "bio": null, "projects_count": 0, "devlogs_count": 0, "votes_count": 0, "ships_count": 0, "projects": [], "coding_time_seconds": 67972, "coding_time_seconds_today": 0, "balance": "You need to have a pocket watcher badge to view this.", "badges": [], "created_at": "2025-06-30T19:01:23.203-04:00", "updated_at": "2025-07-03T20:08:11.756-04:00", "avatar": "https://secure.gravatar.com/avatar/97cc8f2e7d88ff86c6319c198396853e.jpg?s=512&d=https%3A%2F%2Fa.slack-edge.com%2Fdf10d%2Fimg%2Favatars%2Fava_0003-512.png", "custom_css": null}, {"id": 13543, "slack_id": "U078LGJHZ7W", "display_name": "giilbert", "bio": null, "projects_count": 0, "devlogs_count": 17, "votes_count": 1, "ships_count": 0, "projects": [], "coding_time_seconds": 655756, "coding_time_seconds_today": 0, "balance": "You need to have a pocket watcher badge to view this.", "badges": [], "created_at": "2025-06-30T19:22:37.833-04:00", "updated_at": "2025-07-07T02:15:51.923-04:00", "avatar": "https://avatars.slack-edge.com/2024-06-17/7292652832356_6fca69f0ee38d4a9107f_original.png", "custom_css": null}, {"id": 13544, "slack_id": "U04FRJE5L5Q", "display_name": "aiden", "bio": null, "projects_count": 1, "devlogs_count": 0, "votes_count": 0, "ships_count": 0, "projects": [{"id": 4588, "title": "EV Project", "devlogs_count": 0, "created_at": "2025-06-30T19:31:42.650-04:00"}], "coding_time_seconds": 1989, "coding_time_seconds_today": 0, "balance": "You need to have a pocket watcher badge to view this.", "badges": [], "created_at": "2025-06-30T19:24:16.771-04:00", "updated_at": "2025-07-03T20:08:12.206-04:00", "avatar": "https://avatars.slack-edge.com/2024-09-18/7762838410289_e0e016f0d951dbb44cf6_original.png", "custom_css": null}, {"id": 13545, "slack_id": "U06SYKZJPDM", "display_name": "Joseph Dang", "bio": null, "projects_count": 0, "devlogs_count": 0, "votes_count": 0, "ships_count": 0, "projects": [], "coding_time_seconds": 0, "coding_time_seconds_today": 0, "balance": "You need to have a pocket watcher badge to view this.", "badges": [], "created_at": "2025-06-30T19:24:34.757-04:00", "updated_at": "2025-07-04T20:14:25.066-04:00", "avatar": "https://secure.gravatar.com/avatar/d59ed3b20df92ead8d859c1b00b4f672.jpg?s=512&d=https%3A%2F%2Fa.slack-edge.com%2Fdf10d%2Fimg%2Favatars%2Fava_0018-512.png", "custom_css": null}, {"id": 13546, "slack_id": "U091G3A0K5G", "display_name": "Vish Venugopal", "bio": null, "projects_count": 0, "devlogs_count": 0, "votes_count": 0, "ships_count": 0, "projects": [], "coding_time_seconds": 0, "coding_time_seconds_today": 0, "balance": "You need to have a pocket watcher badge to view this.", "badges": [], "created_at": "2025-06-30T19:26:08.463-04:00", "updated_at": "2025-07-03T20:08:12.631-04:00", "avatar": "https://avatars.slack-edge.com/2025-06-16/9059943408882_f98e9aa4c9724866d175_original.jpg", "custom_css": null}, {"id": 13547, "slack_id": "U04BRK020E7", "display_name": "Omegakitty", "bio": null, "projects_count": 0, "devlogs_count": 0, "votes_count": 0, "ships_count": 0, "projects": [], "coding_time_seconds": 0, "coding_time_seconds_today": 0, "balance": "You need to have a pocket watcher badge to view this.", "badges": [], "created_at": "2025-06-30T19:27:36.255-04:00", "updated_at": "2025-07-03T20:08:12.885-04:00", "avatar": "https://avatars.slack-edge.com/2022-11-20/4399646931459_a03192e5f5997cf59a4a_original.jpg", "custom_css": null}, {"id": 13548, "slack_id": "U093QD9EQDB", "display_name": "Callum", "bio": null, "projects_count": 1, "devlogs_count": 2, "votes_count": 1, "ships_count": 1, "projects": [{"id": 4694, "title": "Personal Website", "devlogs_count": 2, "created_at": "2025-07-01T05:56:19.548-04:00"}], "coding_time_seconds": 25265, "coding_time_seconds_today": 0, "balance": "You need to have a pocket watcher badge to view this.", "badges": [{"name": "Maiden Voyage", "text": "you shipped your first project! the journey begins...", "icon": "\ud83d\udea2"}], "created_at": "2025-06-30T19:33:59.114-04:00", "updated_at": "2025-09-10T22:57:56.812-04:00", "avatar": "https://secure.gravatar.com/avatar/22b2fb35029a21df661ae95efbb2abe1.jpg?s=512&d=https%3A%2F%2Fa.slack-edge.com%2Fdf10d%2Fimg%2Favatars%2Fava_0008-512.png", "custom_css": null}, {"id": 13549, "slack_id": "U093TFAD4DA", "display_name": "Riya", "bio": null, "projects_count": 0, "devlogs_count": 0, "votes_count": 0, "ships_count": 0, "projects": [], "coding_time_seconds": 0, "coding_time_seconds_today": 0, "balance": "You need to have a pocket watcher badge to view this.", "badges": [], "created_at": "2025-06-30T19:34:01.033-04:00", "updated_at": "2025-07-03T20:08:13.480-04:00", "avatar": "https://secure.gravatar.com/avatar/2240eb257e44970620336b4d73cff459.jpg?s=512&d=https%3A%2F%2Fa.slack-edge.com%2Fdf10d%2Fimg%2Favatars%2Fava_0007-512.png", "custom_css": null}, {"id": 13550, "slack_id": "U093K36AY1Z", "display_name": "Erin", "bio": null, "projects_count": 0, "devlogs_count": 0, "votes_count": 0, "ships_count": 0, "projects": [], "coding_time_seconds": 0, "coding_time_seconds_today": 0, "balance": "You need to have a pocket watcher badge to view this.", "badges": [], "created_at": "2025-06-30T19:34:08.835-04:00", "updated_at": "2025-07-03T20:08:13.747-04:00", "avatar": "https://secure.gravatar.com/avatar/94f6f5e2e0a4f7b79a1a0d0d1f5cbb45.jpg?s=512&d=https%3A%2F%2Fa.slack-edge.com%2Fdf10d%2Fimg%2Favatars%2Fava_0007-512.png", "custom_css": null}, {"id": 13551, "slack_id": "U07BNJALA9G", "display_name": "Manthan Jindal", "bio": "lumoslearn is the goat of all learning platforms follow to see the SAAS launch", "projects_count": 1, "devlogs_count": 15, "votes_count": 12, "ships_count": 1, "projects": [{"id": 5264, "title": "LumosLearn", "devlogs_count": 14, "created_at": "2025-07-04T05:00:48.636-04:00"}], "coding_time_seconds": 147608, "coding_time_seconds_today": 0, "balance": "You need to have a pocket watcher badge to view this.", "badges": [{"name": "Maiden Voyage", "text": "you shipped your first project! the journey begins...", "icon": "\ud83d\udea2"}, {"name": "Ballot Stuffer", "text": "vote 100 times.", "icon": "https://summer.hackclub.com/assets/i_voted-bf851b48.png"}], "created_at": "2025-06-30T19:34:14.091-04:00", "updated_at": "2025-09-10T22:57:56.895-04:00", "avatar": "https://secure.gravatar.com/avatar/33ef6dd3ff51d1cf5d239d9ce9dbba17.jpg?s=512&d=https%3A%2F%2Fa.slack-edge.com%2Fdf10d%2Fimg%2Favatars%2Fava_0013-512.png", "custom_css": null}, {"id": 13552, "slack_id": "U02D4REL267", "display_name": "Angela Yang", "bio": null, "projects_count": 3, "devlogs_count": 1, "votes_count": 21, "ships_count": 1, "projects": [{"id": 5190, "title": "Giggle Job Search", "devlogs_count": 0, "created_at": "2025-07-03T17:05:27.781-04:00"}, {"id": 6411, "title": "Personal Portfolio", "devlogs_count": 1, "created_at": "2025-07-13T05:04:59.589-04:00"}, {"id": 5195, "title": "Love Rawrsona", "devlogs_count": 0, "created_at": "2025-07-03T17:16:14.222-04:00"}], "coding_time_seconds": 95672, "coding_time_seconds_today": 0, "balance": "You need to have a pocket watcher badge to view this.", "badges": [{"name": "Maiden Voyage", "text": "you shipped your first project! the journey begins...", "icon": "\ud83d\udea2"}], "created_at": "2025-06-30T19:36:39.501-04:00", "updated_at": "2025-09-10T22:57:56.921-04:00", "avatar": "https://avatars.slack-edge.com/2025-06-30/9150346860560_2c8a8a460bdf04097f04_original.jpg", "custom_css": null}, {"id": 13553, "slack_id": "U06NZJ17YTB", "display_name": "Eshaan Marutheesh", "bio": null, "projects_count": 0, "devlogs_count": 0, "votes_count": 0, "ships_count": 0, "projects": [], "coding_time_seconds": 0, "coding_time_seconds_today": 0, "balance": "You need to have a pocket watcher badge to view this.", "badges": [], "created_at": "2025-06-30T19:36:46.386-04:00", "updated_at": "2025-07-03T20:08:14.405-04:00", "avatar": "https://secure.gravatar.com/avatar/47747507f4eb676fc26160e9e96ad4bb.jpg?s=512&d=https%3A%2F%2Fa.slack-edge.com%2Fdf10d%2Fimg%2Favatars%2Fava_0011-512.png", "custom_css": null}, {"id": 13554, "slack_id": "U093C8ZNELX", "display_name": "Sundram Kumar Tiwari", "bio": null, "projects_count": 0, "devlogs_count": 0, "votes_count": 0, "ships_count": 0, "projects": [], "coding_time_seconds": 0, "coding_time_seconds_today": 0, "balance": "You need to have a pocket watcher badge to view this.", "badges": [], "created_at": "2025-06-30T19:37:21.085-04:00", "updated_at": "2025-07-04T02:33:51.387-04:00", "avatar": "https://secure.gravatar.com/avatar/02ac2b979e060b288a2cd45adedfe6fd.jpg?s=512&d=https%3A%2F%2Fa.slack-edge.com%2Fdf10d%2Fimg%2Favatars%2Fava_0015-512.png", "custom_css": null}, {"id": 13555, "slack_id": "U093M1LAS6S", "display_name": "Ishaan Singh", "bio": null, "projects_count": 0, "devlogs_count": 0, "votes_count": 0, "ships_count": 0, "projects": [], "coding_time_seconds": 0, "coding_time_seconds_today": 0, "balance": "You need to have a pocket watcher badge to view this.", "badges": [], "created_at": "2025-06-30T19:37:38.359-04:00", "updated_at": "2025-07-03T20:08:14.811-04:00", "avatar": "https://secure.gravatar.com/avatar/496dd7aa757283e4ff4af72532c2d665.jpg?s=512&d=https%3A%2F%2Fa.slack-edge.com%2Fdf10d%2Fimg%2Favatars%2Fava_0002-512.png", "custom_css": null}, {"id": 13556, "slack_id": "U093QDS5XTP", "display_name": "Dylan B", "bio": null, "projects_count": 0, "devlogs_count": 0, "votes_count": 0, "ships_count": 0, "projects": [], "coding_time_seconds": 0, "coding_time_seconds_today": 0, "balance": "You need to have a pocket watcher badge to view this.", "badges": [], "created_at": "2025-06-30T19:37:42.193-04:00", "updated_at": "2025-07-03T20:08:15.075-04:00", "avatar": "https://secure.gravatar.com/avatar/e28cba6ca4e370f20e367e757e355a04.jpg?s=512&d=https%3A%2F%2Fa.slack-edge.com%2Fdf10d%2Fimg%2Favatars%2Fava_0008-512.png", "custom_css": null}, {"id": 13557, "slack_id": "U094E9XF6LQ", "display_name": "DJ", "bio": null, "projects_count": 0, "devlogs_count": 2, "votes_count": 0, "ships_count": 0, "projects": [], "coding_time_seconds": 1827892, "coding_time_seconds_today": 0, "balance": "You need to have a pocket watcher badge to view this.", "badges": [], "created_at": "2025-06-30T19:37:43.992-04:00", "updated_at": "2025-07-09T17:03:55.449-04:00", "avatar": "https://secure.gravatar.com/avatar/31ac32f79f9b057c76a1aa21e92b3204.jpg?s=512&d=https%3A%2F%2Fa.slack-edge.com%2Fdf10d%2Fimg%2Favatars%2Fava_0005-512.png", "custom_css": null}, {"id": 13558, "slack_id": "U07NVDMGDRQ", "display_name": "darian", "bio": null, "projects_count": 0, "devlogs_count": 0, "votes_count": 1, "ships_count": 0, "projects": [], "coding_time_seconds": 310284, "coding_time_seconds_today": 1046, "balance": "You need to have a pocket watcher badge to view this.", "badges": [], "created_at": "2025-06-30T19:38:16.653-04:00", "updated_at": "2025-07-11T00:54:30.769-04:00", "avatar": "https://avatars.slack-edge.com/2025-01-05/8272222488368_b36a215457a9d8d6d521_original.gif", "custom_css": null}, {"id": 13559, "slack_id": "U079SFD0N22", "display_name": "Joshua Seo", "bio": null, "projects_count": 0, "devlogs_count": 0, "votes_count": 0, "ships_count": 0, "projects": [], "coding_time_seconds": 0, "coding_time_seconds_today": 0, "balance": "You need to have a pocket watcher badge to view this.", "badges": [], "created_at": "2025-06-30T19:38:51.731-04:00", "updated_at": "2025-07-03T20:08:15.874-04:00", "avatar": "https://secure.gravatar.com/avatar/32f129d706bd29292eb946642ca620b2.jpg?s=512&d=https%3A%2F%2Fa.slack-edge.com%2Fdf10d%2Fimg%2Favatars%2Fava_0011-512.png", "custom_css": null}, {"id": 13560, "slack_id": "U07LECV4Q59", "display_name": "Stars", "bio": null, "projects_count": 2, "devlogs_count": 1, "votes_count": 3, "ships_count": 0, "projects": [{"id": 5216, "title": "Grow a Macro", "devlogs_count": 1, "created_at": "2025-07-03T20:36:09.623-04:00"}, {"id": 5744, "title": "TVC Simulator", "devlogs_count": 0, "created_at": "2025-07-07T16:47:47.121-04:00"}], "coding_time_seconds": 165529, "coding_time_seconds_today": 0, "balance": "You need to have a pocket watcher badge to view this.", "badges": [], "created_at": "2025-06-30T19:39:23.428-04:00", "updated_at": "2025-09-19T01:10:27.890-04:00", "avatar": "https://avatars.slack-edge.com/2025-09-18/9540576493475_692fed600a70d7c90dde_original.png", "custom_css": null}], "pagination": {"page": 678, "pages": 1192, "count": 23828, "items": 20}}