{"users": [{"id": 13561, "slack_id": "U093K3BUCG3", "display_name": "karthikeyan", "bio": null, "projects_count": 0, "devlogs_count": 0, "votes_count": 0, "ships_count": 0, "projects": [], "coding_time_seconds": 0, "coding_time_seconds_today": 0, "balance": "You need to have a pocket watcher badge to view this.", "badges": [], "created_at": "2025-06-30T19:39:26.626-04:00", "updated_at": "2025-07-03T20:08:16.265-04:00", "avatar": "https://secure.gravatar.com/avatar/6f218ecadf46ef2145c20aa8e10cada6.jpg?s=512&d=https%3A%2F%2Fa.slack-edge.com%2Fdf10d%2Fimg%2Favatars%2Fava_0026-512.png", "custom_css": null}, {"id": 13562, "slack_id": "U07K9QWCDUZ", "display_name": "Ameboid", "bio": null, "projects_count": 0, "devlogs_count": 0, "votes_count": 0, "ships_count": 0, "projects": [], "coding_time_seconds": 0, "coding_time_seconds_today": 0, "balance": "You need to have a pocket watcher badge to view this.", "badges": [], "created_at": "2025-06-30T19:40:05.795-04:00", "updated_at": "2025-07-03T20:08:16.526-04:00", "avatar": "https://avatars.slack-edge.com/2024-12-22/8203936966566_0c1001b800c7eedf6c47_original.jpg", "custom_css": null}, {"id": 13563, "slack_id": "U093M1X3CRL", "display_name": "LeonMS123", "bio": null, "projects_count": 0, "devlogs_count": 0, "votes_count": 0, "ships_count": 0, "projects": [], "coding_time_seconds": 0, "coding_time_seconds_today": 0, "balance": "You need to have a pocket watcher badge to view this.", "badges": [], "created_at": "2025-06-30T19:40:35.027-04:00", "updated_at": "2025-07-04T02:11:05.959-04:00", "avatar": "https://secure.gravatar.com/avatar/cca3e3f69449f466fc95f6b380512f89.jpg?s=512&d=https%3A%2F%2Fa.slack-edge.com%2Fdf10d%2Fimg%2Favatars%2Fava_0012-512.png", "custom_css": null}, {"id": 13564, "slack_id": "U093K43TK3M", "display_name": "Tharun Sundar", "bio": null, "projects_count": 0, "devlogs_count": 0, "votes_count": 0, "ships_count": 0, "projects": [], "coding_time_seconds": 0, "coding_time_seconds_today": 0, "balance": "You need to have a pocket watcher badge to view this.", "badges": [], "created_at": "2025-06-30T19:44:16.684-04:00", "updated_at": "2025-07-03T20:08:17.062-04:00", "avatar": "https://secure.gravatar.com/avatar/5d3f3b505d71273d6b773e998bb96d41.jpg?s=512&d=https%3A%2F%2Fa.slack-edge.com%2Fdf10d%2Fimg%2Favatars%2Fava_0007-512.png", "custom_css": null}, {"id": 13565, "slack_id": "U080S3RC2EA", "display_name": "apii", "bio": null, "projects_count": 0, "devlogs_count": 0, "votes_count": 0, "ships_count": 0, "projects": [], "coding_time_seconds": 0, "coding_time_seconds_today": 0, "balance": "You need to have a pocket watcher badge to view this.", "badges": [], "created_at": "2025-06-30T19:44:31.604-04:00", "updated_at": "2025-07-04T02:33:52.162-04:00", "avatar": "https://avatars.slack-edge.com/2024-11-14/8018841705687_9921f734d3181c672be4_original.png", "custom_css": null}, {"id": 13566, "slack_id": "U094EAJR9LY", "display_name": "Mercedes Gentry", "bio": null, "projects_count": 0, "devlogs_count": 0, "votes_count": 0, "ships_count": 0, "projects": [], "coding_time_seconds": 0, "coding_time_seconds_today": 0, "balance": "You need to have a pocket watcher badge to view this.", "badges": [], "created_at": "2025-06-30T19:46:02.051-04:00", "updated_at": "2025-07-03T20:08:17.466-04:00", "avatar": "https://secure.gravatar.com/avatar/cd60065c0bcdd4d3f45b0aaa03c1cd09.jpg?s=512&d=https%3A%2F%2Fa.slack-edge.com%2Fdf10d%2Fimg%2Favatars%2Fava_0005-512.png", "custom_css": null}, {"id": 13567, "slack_id": "U07HEMQFXHA", "display_name": "Melter", "bio": null, "projects_count": 0, "devlogs_count": 0, "votes_count": 0, "ships_count": 0, "projects": [], "coding_time_seconds": 0, "coding_time_seconds_today": 0, "balance": "You need to have a pocket watcher badge to view this.", "badges": [], "created_at": "2025-06-30T19:46:49.273-04:00", "updated_at": "2025-07-05T02:15:03.797-04:00", "avatar": "https://avatars.slack-edge.com/2024-12-31/8249421224193_3fde1db54f4150b73d62_original.png", "custom_css": null}, {"id": 13568, "slack_id": "U06DP2ZMZ3P", "display_name": "Jorge el smirb", "bio": null, "projects_count": 1, "devlogs_count": 2, "votes_count": 0, "ships_count": 0, "projects": [{"id": 9868, "title": "T.E. Operating Environment", "devlogs_count": 2, "created_at": "2025-08-02T14:54:40.214-04:00"}], "coding_time_seconds": 31818, "coding_time_seconds_today": 0, "balance": "You need to have a pocket watcher badge to view this.", "badges": [], "created_at": "2025-06-30T19:47:04.576-04:00", "updated_at": "2025-08-06T18:45:18.779-04:00", "avatar": "https://secure.gravatar.com/avatar/f9e430c42b209d258db66ffc2f7f79d4.jpg?s=512&d=https%3A%2F%2Fa.slack-edge.com%2Fdf10d%2Fimg%2Favatars%2Fava_0008-512.png", "custom_css": null}, {"id": 13569, "slack_id": "U08CFQF0F99", "display_name": "Techcrafter", "bio": null, "projects_count": 0, "devlogs_count": 14, "votes_count": 62, "ships_count": 0, "projects": [], "coding_time_seconds": 841083, "coding_time_seconds_today": 0, "balance": "You need to have a pocket watcher badge to view this.", "badges": [{"name": "Maiden Voyage", "text": "you shipped your first project! the journey begins...", "icon": "\ud83d\udea2"}], "created_at": "2025-06-30T19:47:56.156-04:00", "updated_at": "2025-09-10T22:57:57.392-04:00", "avatar": "https://avatars.slack-edge.com/2025-03-13/8583754037831_72905cbe5dd35dfa3e83_original.jpg", "custom_css": null}, {"id": 13570, "slack_id": "U07FQTPMRDY", "display_name": "Filip", "bio": null, "projects_count": 0, "devlogs_count": 0, "votes_count": 0, "ships_count": 0, "projects": [], "coding_time_seconds": 0, "coding_time_seconds_today": 0, "balance": "You need to have a pocket watcher badge to view this.", "badges": [], "created_at": "2025-06-30T19:48:40.787-04:00", "updated_at": "2025-07-16T21:11:35.265-04:00", "avatar": "https://avatars.slack-edge.com/2025-07-16/9223179363937_e85615fb24151fe841b6_original.png", "custom_css": null}, {"id": 13571, "slack_id": "U08G2V1FSBX", "display_name": "Prithviraj Banerjee", "bio": null, "projects_count": 0, "devlogs_count": 0, "votes_count": 0, "ships_count": 0, "projects": [], "coding_time_seconds": 0, "coding_time_seconds_today": 0, "balance": "You need to have a pocket watcher badge to view this.", "badges": [], "created_at": "2025-06-30T19:50:06.184-04:00", "updated_at": "2025-07-03T20:08:18.550-04:00", "avatar": "https://avatars.slack-edge.com/2025-03-04/8534708983607_6123cb9f491e8f74b549_original.jpg", "custom_css": null}, {"id": 13572, "slack_id": "U093M2PTPB8", "display_name": "tiggen", "bio": null, "projects_count": 0, "devlogs_count": 0, "votes_count": 0, "ships_count": 0, "projects": [], "coding_time_seconds": 1236, "coding_time_seconds_today": 0, "balance": "You need to have a pocket watcher badge to view this.", "badges": [], "created_at": "2025-06-30T19:50:09.514-04:00", "updated_at": "2025-07-04T08:30:08.321-04:00", "avatar": "https://secure.gravatar.com/avatar/768d72c2d2b86644ac2171e53e3750ec.jpg?s=512&d=https%3A%2F%2Fa.slack-edge.com%2Fdf10d%2Fimg%2Favatars%2Fava_0000-512.png", "custom_css": null}, {"id": 13573, "slack_id": "U093SCVRZGS", "display_name": "Christina", "bio": null, "projects_count": 0, "devlogs_count": 0, "votes_count": 0, "ships_count": 0, "projects": [], "coding_time_seconds": 0, "coding_time_seconds_today": 0, "balance": "You need to have a pocket watcher badge to view this.", "badges": [], "created_at": "2025-06-30T19:51:55.007-04:00", "updated_at": "2025-07-03T20:08:18.961-04:00", "avatar": "https://secure.gravatar.com/avatar/4a9ce6f76aef2fdbfbf09bf61aa6efcf.jpg?s=512&d=https%3A%2F%2Fa.slack-edge.com%2Fdf10d%2Fimg%2Favatars%2Fava_0022-512.png", "custom_css": null}, {"id": 13574, "slack_id": "U0781S4367R", "display_name": "ThatXliner", "bio": null, "projects_count": 5, "devlogs_count": 9, "votes_count": 13, "ships_count": 2, "projects": [{"id": 11069, "title": "istheresoftwarethat.com", "devlogs_count": 1, "created_at": "2025-08-13T01:01:56.480-04:00"}, {"id": 11072, "title": "NerdLens", "devlogs_count": 1, "created_at": "2025-08-13T01:05:51.105-04:00"}, {"id": 11075, "title": "Smooth Operator", "devlogs_count": 1, "created_at": "2025-08-13T01:34:06.952-04:00"}, {"id": 12736, "title": "Quillium", "devlogs_count": 1, "created_at": "2025-09-01T20:38:53.989-04:00"}, {"id": 10895, "title": "Quiz Bowl Bot", "devlogs_count": 5, "created_at": "2025-08-11T16:00:29.467-04:00"}], "coding_time_seconds": 310033, "coding_time_seconds_today": 0, "balance": "You need to have a pocket watcher badge to view this.", "badges": [{"name": "Maiden Voyage", "text": "you shipped your first project! the journey begins...", "icon": "\ud83d\udea2"}], "created_at": "2025-06-30T19:52:03.048-04:00", "updated_at": "2025-09-10T22:57:57.503-04:00", "avatar": "https://secure.gravatar.com/avatar/664c729962808493df9bf237abf59f05.jpg?s=512&d=https%3A%2F%2Fa.slack-edge.com%2Fdf10d%2Fimg%2Favatars%2Fava_0020-512.png", "custom_css": null}, {"id": 13575, "slack_id": "U094EAYV7DE", "display_name": "Eion", "bio": null, "projects_count": 0, "devlogs_count": 0, "votes_count": 0, "ships_count": 0, "projects": [], "coding_time_seconds": 0, "coding_time_seconds_today": 0, "balance": "You need to have a pocket watcher badge to view this.", "badges": [], "created_at": "2025-06-30T19:53:34.706-04:00", "updated_at": "2025-07-03T20:08:19.492-04:00", "avatar": "https://secure.gravatar.com/avatar/09abd535bd1fd9cb5a40216cc751881c.jpg?s=512&d=https%3A%2F%2Fa.slack-edge.com%2Fdf10d%2Fimg%2Favatars%2Fava_0018-512.png", "custom_css": null}, {"id": 13576, "slack_id": "U082ZLET1HA", "display_name": "Divyansh Shukla", "bio": null, "projects_count": 0, "devlogs_count": 0, "votes_count": 0, "ships_count": 0, "projects": [], "coding_time_seconds": 994, "coding_time_seconds_today": 0, "balance": "You need to have a pocket watcher badge to view this.", "badges": [], "created_at": "2025-06-30T19:53:46.703-04:00", "updated_at": "2025-07-03T20:08:19.768-04:00", "avatar": "https://secure.gravatar.com/avatar/14f2f3c174a315f41502022474a1ca89.jpg?s=512&d=https%3A%2F%2Fa.slack-edge.com%2Fdf10d%2Fimg%2Favatars%2Fava_0022-512.png", "custom_css": null}, {"id": 13577, "slack_id": "U093CALQAA3", "display_name": "Mau", "bio": null, "projects_count": 0, "devlogs_count": 0, "votes_count": 0, "ships_count": 0, "projects": [], "coding_time_seconds": 0, "coding_time_seconds_today": 0, "balance": "You need to have a pocket watcher badge to view this.", "badges": [], "created_at": "2025-06-30T19:53:52.650-04:00", "updated_at": "2025-07-04T20:14:26.992-04:00", "avatar": "https://secure.gravatar.com/avatar/29b71f3c46f6bc9c3ba95f115f1b34ea.jpg?s=512&d=https%3A%2F%2Fa.slack-edge.com%2Fdf10d%2Fimg%2Favatars%2Fava_0008-512.png", "custom_css": null}, {"id": 13578, "slack_id": "U09457ZKXJ5", "display_name": "Yoga Sakti", "bio": null, "projects_count": 0, "devlogs_count": 0, "votes_count": 0, "ships_count": 0, "projects": [], "coding_time_seconds": 0, "coding_time_seconds_today": 0, "balance": "You need to have a pocket watcher badge to view this.", "badges": [], "created_at": "2025-06-30T19:54:36.601-04:00", "updated_at": "2025-07-05T02:15:04.492-04:00", "avatar": "https://avatars.slack-edge.com/2025-06-30/9123116836710_c5c8fb91070e73b1658d_original.jpg", "custom_css": null}, {"id": 13579, "slack_id": "U094EB80YCQ", "display_name": "Shaily", "bio": null, "projects_count": 0, "devlogs_count": 0, "votes_count": 0, "ships_count": 0, "projects": [], "coding_time_seconds": 0, "coding_time_seconds_today": 0, "balance": "You need to have a pocket watcher badge to view this.", "badges": [], "created_at": "2025-06-30T19:55:19.759-04:00", "updated_at": "2025-07-03T20:08:20.292-04:00", "avatar": "https://secure.gravatar.com/avatar/f3ed1d5ed6fa4d15f998d1763395121a.jpg?s=512&d=https%3A%2F%2Fa.slack-edge.com%2Fdf10d%2Fimg%2Favatars%2Fava_0005-512.png", "custom_css": null}, {"id": 13580, "slack_id": "U093TGZABT6", "display_name": "Aditya Bhatia", "bio": null, "projects_count": 0, "devlogs_count": 0, "votes_count": 0, "ships_count": 0, "projects": [], "coding_time_seconds": 0, "coding_time_seconds_today": 0, "balance": "You need to have a pocket watcher badge to view this.", "badges": [], "created_at": "2025-06-30T19:58:42.769-04:00", "updated_at": "2025-08-20T22:31:45.648-04:00", "avatar": "https://secure.gravatar.com/avatar/f8e8eb58f465fac5575f892a5d844837.jpg?s=512&d=https%3A%2F%2Fa.slack-edge.com%2Fdf10d%2Fimg%2Favatars%2Fava_0006-512.png", "custom_css": null}], "pagination": {"page": 679, "pages": 1192, "count": 23828, "items": 20}}