{"users": [{"id": 1341, "slack_id": "U091PFH9R42", "display_name": "xdnikhil", "bio": null, "projects_count": 0, "devlogs_count": 5, "votes_count": 28, "ships_count": 0, "projects": [], "coding_time_seconds": 54415, "coding_time_seconds_today": 0, "balance": "You need to have a pocket watcher badge to view this.", "badges": [{"name": "Maiden Voyage", "text": "you shipped your first project! the journey begins...", "icon": "\ud83d\udea2"}], "created_at": "2025-06-16T13:05:09.403-04:00", "updated_at": "2025-09-24T00:31:01.534-04:00", "avatar": "https://avatars.slack-edge.com/2025-06-17/9056339743765_8dfc9cbe520de2bd06c1_original.jpg", "custom_css": null}, {"id": 1342, "slack_id": "U091G6MF8UB", "display_name": "VISHNU_MATCHA", "bio": null, "projects_count": 0, "devlogs_count": 0, "votes_count": 0, "ships_count": 0, "projects": [], "coding_time_seconds": 0, "coding_time_seconds_today": 0, "balance": "You need to have a pocket watcher badge to view this.", "badges": [], "created_at": "2025-06-16T13:05:14.803-04:00", "updated_at": "2025-07-03T19:17:12.535-04:00", "avatar": "https://secure.gravatar.com/avatar/234869b613b74b083517215caacd1eaf.jpg?s=512&d=https%3A%2F%2Fa.slack-edge.com%2Fdf10d%2Fimg%2Favatars%2Fava_0023-512.png", "custom_css": null}, {"id": 1343, "slack_id": "U091PFKRSUS", "display_name": "Maniram Tatipamula", "bio": null, "projects_count": 0, "devlogs_count": 0, "votes_count": 0, "ships_count": 0, "projects": [], "coding_time_seconds": 0, "coding_time_seconds_today": 0, "balance": "You need to have a pocket watcher badge to view this.", "badges": [], "created_at": "2025-06-16T13:05:16.199-04:00", "updated_at": "2025-07-03T19:17:12.804-04:00", "avatar": "https://avatars.slack-edge.com/2025-06-16/9050792642102_389f6eb138acb12e9366_original.jpg", "custom_css": null}, {"id": 1344, "slack_id": "U091MN3AD4M", "display_name": "Daniel Cunha", "bio": null, "projects_count": 0, "devlogs_count": 0, "votes_count": 0, "ships_count": 0, "projects": [], "coding_time_seconds": 6376, "coding_time_seconds_today": 0, "balance": "You need to have a pocket watcher badge to view this.", "badges": [], "created_at": "2025-06-16T13:05:23.778-04:00", "updated_at": "2025-07-03T19:17:13.093-04:00", "avatar": "https://avatars.slack-edge.com/2025-06-16/9080021949744_90ee392018401a52e197_original.jpg", "custom_css": null}, {"id": 1345, "slack_id": "U091PTWHWAY", "display_name": "sachi", "bio": null, "projects_count": 0, "devlogs_count": 0, "votes_count": 0, "ships_count": 0, "projects": [], "coding_time_seconds": 142455, "coding_time_seconds_today": 0, "balance": "You need to have a pocket watcher badge to view this.", "badges": [], "created_at": "2025-06-16T13:05:41.521-04:00", "updated_at": "2025-07-03T19:17:13.361-04:00", "avatar": "https://secure.gravatar.com/avatar/fde418666c9a6219f3c0c9ba9c5fa592.jpg?s=512&d=https%3A%2F%2Fa.slack-edge.com%2Fdf10d%2Fimg%2Favatars%2Fava_0008-512.png", "custom_css": null}, {"id": 1346, "slack_id": "U09221EK6G1", "display_name": "Switcherag", "bio": null, "projects_count": 0, "devlogs_count": 0, "votes_count": 0, "ships_count": 0, "projects": [], "coding_time_seconds": 0, "coding_time_seconds_today": 0, "balance": "You need to have a pocket watcher badge to view this.", "badges": [], "created_at": "2025-06-16T13:05:43.691-04:00", "updated_at": "2025-07-03T19:17:13.627-04:00", "avatar": "https://secure.gravatar.com/avatar/e16dd6dadd26e737afaf06fe130f227f.jpg?s=512&d=https%3A%2F%2Fa.slack-edge.com%2Fdf10d%2Fimg%2Favatars%2Fava_0009-512.png", "custom_css": null}, {"id": 1347, "slack_id": "U091MN8E7L5", "display_name": "HARIZI BOUABDELLAH", "bio": null, "projects_count": 0, "devlogs_count": 0, "votes_count": 0, "ships_count": 0, "projects": [], "coding_time_seconds": 1708, "coding_time_seconds_today": 0, "balance": "You need to have a pocket watcher badge to view this.", "badges": [], "created_at": "2025-06-16T13:06:03.452-04:00", "updated_at": "2025-07-03T19:17:13.896-04:00", "avatar": "https://avatars.slack-edge.com/2025-06-16/9057968044244_fe92e477b50a9ed10fa8_original.jpg", "custom_css": null}, {"id": 1348, "slack_id": "U091PTTU5FW", "display_name": "ROBERT", "bio": null, "projects_count": 0, "devlogs_count": 0, "votes_count": 0, "ships_count": 0, "projects": [], "coding_time_seconds": 0, "coding_time_seconds_today": 0, "balance": "You need to have a pocket watcher badge to view this.", "badges": [], "created_at": "2025-06-16T13:06:13.258-04:00", "updated_at": "2025-07-03T19:17:14.161-04:00", "avatar": "https://secure.gravatar.com/avatar/90b92982617b24b9d2f83f0994b7b980.jpg?s=512&d=https%3A%2F%2Fa.slack-edge.com%2Fdf10d%2Fimg%2Favatars%2Fava_0012-512.png", "custom_css": null}, {"id": 1349, "slack_id": "U091MNGNRA9", "display_name": "Drew Ratner", "bio": null, "projects_count": 5, "devlogs_count": 63, "votes_count": 70, "ships_count": 2, "projects": [{"id": 6750, "title": "FacTerm", "devlogs_count": 4, "created_at": "2025-07-15T19:35:10.532-04:00"}, {"id": 7946, "title": "codeos", "devlogs_count": 2, "created_at": "2025-07-23T18:53:45.497-04:00"}, {"id": 11626, "title": "What Pack Should I Buy??", "devlogs_count": 1, "created_at": "2025-08-17T21:56:35.900-04:00"}, {"id": 138, "title": "Filatrack", "devlogs_count": 41, "created_at": "2025-06-16T14:23:01.183-04:00"}, {"id": 8631, "title": "Produce", "devlogs_count": 12, "created_at": "2025-07-28T17:53:59.137-04:00"}], "coding_time_seconds": 318539, "coding_time_seconds_today": 0, "balance": "You need to have a pocket watcher badge to view this.", "badges": [{"name": "Maiden Voyage", "text": "you shipped your first project! the journey begins...", "icon": "\ud83d\udea2"}, {"name": "Ballot Stuffer", "text": "vote 100 times.", "icon": "https://summer.hackclub.com/assets/i_voted-bf851b48.png"}], "created_at": "2025-06-16T13:06:37.644-04:00", "updated_at": "2025-09-20T18:51:59.745-04:00", "avatar": "https://secure.gravatar.com/avatar/2f6fa1a082c932ada7e2abbdc8c19be8.jpg?s=512&d=https%3A%2F%2Fa.slack-edge.com%2Fdf10d%2Fimg%2Favatars%2Fava_0015-512.png", "custom_css": null}, {"id": 1350, "slack_id": "U091PU0NZFW", "display_name": "Josiah Aideloje", "bio": "Hi, I am Josiah, a Frontend Web Developer with 2+ years of experience. I am available for any job that suits my role. Check me out on X: https://x.com/JAideloje47355", "projects_count": 3, "devlogs_count": 14, "votes_count": 38, "ships_count": 2, "projects": [{"id": 985, "title": "A computer Based Test ", "devlogs_count": 8, "created_at": "2025-06-17T12:58:54.803-04:00"}, {"id": 11315, "title": "Xspace ", "devlogs_count": 3, "created_at": "2025-08-14T21:28:18.468-04:00"}, {"id": 1857, "title": "Portfolio", "devlogs_count": 3, "created_at": "2025-06-19T12:56:57.809-04:00"}], "coding_time_seconds": 465849, "coding_time_seconds_today": 2161, "balance": "You need to have a pocket watcher badge to view this.", "badges": [{"name": "Maiden Voyage", "text": "you shipped your first project! the journey begins...", "icon": "\ud83d\udea2"}, {"name": "Spider", "text": "this user has a pet!", "icon": "\ud83d\udd77\ufe0f"}], "created_at": "2025-06-16T13:06:39.607-04:00", "updated_at": "2025-09-10T22:51:49.641-04:00", "avatar": "https://avatars.slack-edge.com/2025-06-16/9042250499415_e7038ec16668b16e7328_original.jpg", "custom_css": null}, {"id": 1351, "slack_id": "U091PTLC2SG", "display_name": "Toshik Soni", "bio": null, "projects_count": 0, "devlogs_count": 0, "votes_count": 0, "ships_count": 0, "projects": [], "coding_time_seconds": 120, "coding_time_seconds_today": 0, "balance": "You need to have a pocket watcher badge to view this.", "badges": [], "created_at": "2025-06-16T13:06:46.093-04:00", "updated_at": "2025-07-03T19:17:14.980-04:00", "avatar": "https://secure.gravatar.com/avatar/cf87482aa35cc26bd629aa4dff662d4a.jpg?s=512&d=https%3A%2F%2Fa.slack-edge.com%2Fdf10d%2Fimg%2Favatars%2Fava_0014-512.png", "custom_css": null}, {"id": 1352, "slack_id": "U09222ZKR7T", "display_name": "vempr", "bio": null, "projects_count": 3, "devlogs_count": 33, "votes_count": 40, "ships_count": 2, "projects": [{"id": 12191, "title": "gdview", "devlogs_count": 4, "created_at": "2025-08-24T07:55:07.384-04:00"}, {"id": 130, "title": "libsim", "devlogs_count": 25, "created_at": "2025-06-16T14:15:06.100-04:00"}, {"id": 11559, "title": "My SOM Experience", "devlogs_count": 4, "created_at": "2025-08-17T04:22:59.318-04:00"}], "coding_time_seconds": 536432, "coding_time_seconds_today": 12146, "balance": "You need to have a pocket watcher badge to view this.", "badges": [{"name": "Maiden Voyage", "text": "you shipped your first project! the journey begins...", "icon": "\ud83d\udea2"}], "created_at": "2025-06-16T13:06:52.132-04:00", "updated_at": "2025-09-10T22:51:49.695-04:00", "avatar": "https://avatars.slack-edge.com/2025-07-10/9178418036914_5b01fc982a5ef22a4b3e_original.png", "custom_css": null}, {"id": 1353, "slack_id": "U07B27ZHEJU", "display_name": "alaninnovates", "bio": "asdf", "projects_count": 8, "devlogs_count": 68, "votes_count": 57, "ships_count": 4, "projects": [{"id": 12000, "title": "Bell for Watch", "devlogs_count": 0, "created_at": "2025-08-22T01:48:27.534-04:00"}, {"id": 11451, "title": "Drill Utils (for Marching Band)", "devlogs_count": 17, "created_at": "2025-08-16T02:37:13.962-04:00"}, {"id": 13578, "title": "EagleStrat - Strategy for FRC", "devlogs_count": 0, "created_at": "2025-09-20T00:03:11.303-04:00"}, {"id": 13751, "title": "FRC Robotics Field Pathing", "devlogs_count": 1, "created_at": "2025-09-24T21:25:08.031-04:00"}, {"id": 8684, "title": "JamFrame", "devlogs_count": 5, "created_at": "2025-07-28T22:13:00.650-04:00"}, {"id": 4579, "title": "Student Manager - Attendance tracker, student search, and more!", "devlogs_count": 12, "created_at": "2025-06-30T18:32:31.470-04:00"}, {"id": 406, "title": "TrigTok", "devlogs_count": 16, "created_at": "2025-06-16T20:24:56.550-04:00"}, {"id": 6376, "title": "Beebo", "devlogs_count": 17, "created_at": "2025-07-12T21:23:11.401-04:00"}], "coding_time_seconds": 291959, "coding_time_seconds_today": 0, "balance": "You need to have a pocket watcher badge to view this.", "badges": [{"name": "Maiden Voyage", "text": "you shipped your first project! the journey begins...", "icon": "\ud83d\udea2"}], "created_at": "2025-06-16T13:06:53.213-04:00", "updated_at": "2025-09-10T22:51:49.729-04:00", "avatar": "https://avatars.slack-edge.com/2024-06-29/7355967098836_ec494be617574d02498c_original.jpg", "custom_css": null}, {"id": 1354, "slack_id": "U091GKVFNMU", "display_name": "Gabriel Delphini", "bio": null, "projects_count": 0, "devlogs_count": 0, "votes_count": 0, "ships_count": 0, "projects": [], "coding_time_seconds": 0, "coding_time_seconds_today": 0, "balance": "You need to have a pocket watcher badge to view this.", "badges": [], "created_at": "2025-06-16T13:06:56.845-04:00", "updated_at": "2025-07-03T19:17:15.845-04:00", "avatar": "https://secure.gravatar.com/avatar/29154b4055230cc305d79eac75d8cc24.jpg?s=512&d=https%3A%2F%2Fa.slack-edge.com%2Fdf10d%2Fimg%2Favatars%2Fava_0005-512.png", "custom_css": null}, {"id": 1355, "slack_id": "U09186UU6MV", "display_name": "MettaBlender", "bio": null, "projects_count": 5, "devlogs_count": 47, "votes_count": 82, "ships_count": 5, "projects": [{"id": 11640, "title": "colorful themes", "devlogs_count": 8, "created_at": "2025-08-18T02:15:27.036-04:00"}, {"id": 562, "title": "fpv learning platform", "devlogs_count": 17, "created_at": "2025-06-17T01:20:04.368-04:00"}, {"id": 11195, "title": "NIC", "devlogs_count": 13, "created_at": "2025-08-14T00:57:30.808-04:00"}, {"id": 5686, "title": "File To QR-Code", "devlogs_count": 7, "created_at": "2025-07-07T04:39:13.616-04:00"}, {"id": 5326, "title": "GeoReminder", "devlogs_count": 2, "created_at": "2025-07-04T12:58:31.597-04:00"}], "coding_time_seconds": 398687, "coding_time_seconds_today": 0, "balance": "You need to have a pocket watcher badge to view this.", "badges": [{"name": "Maiden Voyage", "text": "you shipped your first project! the journey begins...", "icon": "\ud83d\udea2"}], "created_at": "2025-06-16T13:06:59.301-04:00", "updated_at": "2025-09-10T22:51:49.776-04:00", "avatar": "https://secure.gravatar.com/avatar/77d5ea631186189fe8ee9786332163f4.jpg?s=512&d=https%3A%2F%2Fa.slack-edge.com%2Fdf10d%2Fimg%2Favatars%2Fava_0000-512.png", "custom_css": null}, {"id": 1356, "slack_id": "U091MNNCJVB", "display_name": "Kanishk K U", "bio": null, "projects_count": 0, "devlogs_count": 0, "votes_count": 0, "ships_count": 0, "projects": [], "coding_time_seconds": 0, "coding_time_seconds_today": 0, "balance": "You need to have a pocket watcher badge to view this.", "badges": [], "created_at": "2025-06-16T13:06:59.454-04:00", "updated_at": "2025-07-03T19:17:16.398-04:00", "avatar": "https://avatars.slack-edge.com/2025-06-16/9050695749334_79229bd8058f72a08ef8_original.png", "custom_css": null}, {"id": 1357, "slack_id": "U091MNNHA85", "display_name": "Himanshu Shekhar", "bio": null, "projects_count": 0, "devlogs_count": 0, "votes_count": 0, "ships_count": 0, "projects": [], "coding_time_seconds": 0, "coding_time_seconds_today": 0, "balance": "You need to have a pocket watcher badge to view this.", "badges": [], "created_at": "2025-06-16T13:07:04.264-04:00", "updated_at": "2025-07-03T19:17:16.681-04:00", "avatar": "https://secure.gravatar.com/avatar/8884d1fc28434ef35666259e317d6821.jpg?s=512&d=https%3A%2F%2Fa.slack-edge.com%2Fdf10d%2Fimg%2Favatars%2Fava_0001-512.png", "custom_css": null}, {"id": 1358, "slack_id": "U08RXPM98V7", "display_name": "RS", "bio": null, "projects_count": 1, "devlogs_count": 10, "votes_count": 17, "ships_count": 1, "projects": [{"id": 8657, "title": "ExpenseTracker", "devlogs_count": 10, "created_at": "2025-07-28T19:59:19.406-04:00"}], "coding_time_seconds": 144993, "coding_time_seconds_today": 0, "balance": "You need to have a pocket watcher badge to view this.", "badges": [{"name": "Maiden Voyage", "text": "you shipped your first project! the journey begins...", "icon": "\ud83d\udea2"}], "created_at": "2025-06-16T13:07:15.220-04:00", "updated_at": "2025-09-10T22:51:49.858-04:00", "avatar": "https://avatars.slack-edge.com/2025-08-17/9363867245378_26ff2f63ff011b26b5da_original.png", "custom_css": null}, {"id": 1359, "slack_id": "U09222ZCLU9", "display_name": "Vedant Shetty", "bio": null, "projects_count": 0, "devlogs_count": 0, "votes_count": 0, "ships_count": 0, "projects": [], "coding_time_seconds": 0, "coding_time_seconds_today": 0, "balance": "You need to have a pocket watcher badge to view this.", "badges": [], "created_at": "2025-06-16T13:07:16.442-04:00", "updated_at": "2025-07-03T19:17:17.225-04:00", "avatar": "https://secure.gravatar.com/avatar/87c0c912cd5634812c4d98dc14a3d31a.jpg?s=512&d=https%3A%2F%2Fa.slack-edge.com%2Fdf10d%2Fimg%2Favatars%2Fava_0012-512.png", "custom_css": null}, {"id": 1360, "slack_id": "U09222710KB", "display_name": "Muhammad Hamza", "bio": null, "projects_count": 0, "devlogs_count": 0, "votes_count": 0, "ships_count": 0, "projects": [], "coding_time_seconds": 1938, "coding_time_seconds_today": 0, "balance": "You need to have a pocket watcher badge to view this.", "badges": [], "created_at": "2025-06-16T13:07:41.960-04:00", "updated_at": "2025-07-03T19:17:17.488-04:00", "avatar": "https://secure.gravatar.com/avatar/6950ccde8baecbe5263db198d4a28e3f.jpg?s=512&d=https%3A%2F%2Fa.slack-edge.com%2Fdf10d%2Fimg%2Favatars%2Fava_0016-512.png", "custom_css": null}], "pagination": {"page": 68, "pages": 1192, "count": 23827, "items": 20}}