{"users": [{"id": 13601, "slack_id": "U07FESU5LTU", "display_name": "Rishabh Thosani", "bio": null, "projects_count": 1, "devlogs_count": 3, "votes_count": 17, "ships_count": 1, "projects": [{"id": 7182, "title": "SAT Maxer", "devlogs_count": 3, "created_at": "2025-07-19T18:01:05.728-04:00"}], "coding_time_seconds": 60301, "coding_time_seconds_today": 0, "balance": "You need to have a pocket watcher badge to view this.", "badges": [{"name": "Maiden Voyage", "text": "you shipped your first project! the journey begins...", "icon": "\ud83d\udea2"}], "created_at": "2025-06-30T20:23:43.050-04:00", "updated_at": "2025-09-10T22:57:58.233-04:00", "avatar": "https://secure.gravatar.com/avatar/eb1604ba06da021e626c9ca7413556c1.jpg?s=512&d=https%3A%2F%2Fa.slack-edge.com%2Fdf10d%2Fimg%2Favatars%2Fava_0002-512.png", "custom_css": null}, {"id": 13602, "slack_id": "U094EE9BQQ0", "display_name": "Zaman Zahid", "bio": null, "projects_count": 0, "devlogs_count": 0, "votes_count": 0, "ships_count": 0, "projects": [], "coding_time_seconds": 0, "coding_time_seconds_today": 0, "balance": "You need to have a pocket watcher badge to view this.", "badges": [], "created_at": "2025-06-30T20:23:52.258-04:00", "updated_at": "2025-07-03T20:08:25.356-04:00", "avatar": "https://secure.gravatar.com/avatar/37544568bf72f12af92843ece9a7d1a0.jpg?s=512&d=https%3A%2F%2Fa.slack-edge.com%2Fdf10d%2Fimg%2Favatars%2Fava_0026-512.png", "custom_css": null}, {"id": 13603, "slack_id": "U093TKUNZ5J", "display_name": "Zelamene", "bio": null, "projects_count": 1, "devlogs_count": 0, "votes_count": 0, "ships_count": 0, "projects": [{"id": 5447, "title": "Particle Swarm Optimization Simulator", "devlogs_count": 0, "created_at": "2025-07-05T10:53:37.484-04:00"}], "coding_time_seconds": 75301, "coding_time_seconds_today": 0, "balance": "You need to have a pocket watcher badge to view this.", "badges": [], "created_at": "2025-06-30T20:24:08.536-04:00", "updated_at": "2025-07-05T10:45:40.257-04:00", "avatar": "https://secure.gravatar.com/avatar/1afd2c0a5b7582c98749ada02a68749d.jpg?s=512&d=https%3A%2F%2Fa.slack-edge.com%2Fdf10d%2Fimg%2Favatars%2Fava_0024-512.png", "custom_css": null}, {"id": 13604, "slack_id": "U074H71NH0T", "display_name": "Kahan Shah", "bio": null, "projects_count": 0, "devlogs_count": 0, "votes_count": 0, "ships_count": 0, "projects": [], "coding_time_seconds": 74, "coding_time_seconds_today": 0, "balance": "You need to have a pocket watcher badge to view this.", "badges": [], "created_at": "2025-06-30T20:24:39.216-04:00", "updated_at": "2025-07-05T14:16:52.584-04:00", "avatar": "https://avatars.slack-edge.com/2024-08-25/7629425645764_f55c6cc3a9d9a4d5873a_original.png", "custom_css": null}, {"id": 13605, "slack_id": "U079JH3KCUF", "display_name": "wils", "bio": null, "projects_count": 0, "devlogs_count": 0, "votes_count": 0, "ships_count": 0, "projects": [], "coding_time_seconds": 0, "coding_time_seconds_today": 0, "balance": "You need to have a pocket watcher badge to view this.", "badges": [], "created_at": "2025-06-30T20:26:53.838-04:00", "updated_at": "2025-07-03T20:08:25.901-04:00", "avatar": "https://avatars.slack-edge.com/2024-06-27/7337318274150_015c29474763a83a0472_original.jpg", "custom_css": null}, {"id": 13606, "slack_id": "U081ZD4EP47", "display_name": "DHMango", "bio": null, "projects_count": 0, "devlogs_count": 0, "votes_count": 0, "ships_count": 0, "projects": [], "coding_time_seconds": 215, "coding_time_seconds_today": 0, "balance": "You need to have a pocket watcher badge to view this.", "badges": [], "created_at": "2025-06-30T20:28:33.021-04:00", "updated_at": "2025-07-04T08:30:10.592-04:00", "avatar": "https://avatars.slack-edge.com/2025-05-27/8958751138165_8b5e6a824caf22153349_original.png", "custom_css": null}, {"id": 13607, "slack_id": "U081GCAT5LH", "display_name": "Harkeerat Singh", "bio": null, "projects_count": 0, "devlogs_count": 0, "votes_count": 0, "ships_count": 0, "projects": [], "coding_time_seconds": 0, "coding_time_seconds_today": 0, "balance": "You need to have a pocket watcher badge to view this.", "badges": [], "created_at": "2025-06-30T20:28:50.400-04:00", "updated_at": "2025-07-04T08:30:10.673-04:00", "avatar": "https://secure.gravatar.com/avatar/710e4d4fbe275b58dc8ee7be1aff80c8.jpg?s=512&d=https%3A%2F%2Fa.slack-edge.com%2Fdf10d%2Fimg%2Favatars%2Fava_0000-512.png", "custom_css": null}, {"id": 13608, "slack_id": "U0945A0LW3B", "display_name": "Iam Fake", "bio": null, "projects_count": 0, "devlogs_count": 0, "votes_count": 0, "ships_count": 0, "projects": [], "coding_time_seconds": 0, "coding_time_seconds_today": 0, "balance": "You need to have a pocket watcher badge to view this.", "badges": [], "created_at": "2025-06-30T20:29:38.650-04:00", "updated_at": "2025-07-03T20:08:26.436-04:00", "avatar": "https://avatars.slack-edge.com/2025-06-30/9123234907782_c2f30ac9b19b9f2d9b89_original.png", "custom_css": null}, {"id": 13609, "slack_id": "U0945BEBL5P", "display_name": "Zane Beidas", "bio": null, "projects_count": 3, "devlogs_count": 13, "votes_count": 21, "ships_count": 1, "projects": [{"id": 4618, "title": "Colorusher", "devlogs_count": 2, "created_at": "2025-06-30T21:53:05.988-04:00"}, {"id": 5495, "title": "Gambling Simulator", "devlogs_count": 3, "created_at": "2025-07-05T17:44:42.413-04:00"}, {"id": 4727, "title": "Gotta-Dodg'em", "devlogs_count": 8, "created_at": "2025-07-01T08:56:16.055-04:00"}], "coding_time_seconds": 555079, "coding_time_seconds_today": 0, "balance": "You need to have a pocket watcher badge to view this.", "badges": [{"name": "Maiden Voyage", "text": "you shipped your first project! the journey begins...", "icon": "\ud83d\udea2"}], "created_at": "2025-06-30T20:29:48.216-04:00", "updated_at": "2025-09-10T22:57:58.510-04:00", "avatar": "https://secure.gravatar.com/avatar/7a95638626e74ae6e1b970dc5a474283.jpg?s=512&d=https%3A%2F%2Fa.slack-edge.com%2Fdf10d%2Fimg%2Favatars%2Fava_0020-512.png", "custom_css": null}, {"id": 13610, "slack_id": "U093K86JUSF", "display_name": "Pranav Sirur", "bio": null, "projects_count": 0, "devlogs_count": 0, "votes_count": 0, "ships_count": 0, "projects": [], "coding_time_seconds": 0, "coding_time_seconds_today": 0, "balance": "You need to have a pocket watcher badge to view this.", "badges": [], "created_at": "2025-06-30T20:31:53.210-04:00", "updated_at": "2025-07-03T20:08:26.829-04:00", "avatar": "https://avatars.slack-edge.com/2025-06-30/9129717683876_cc3ac48b8d99102b42fb_original.png", "custom_css": null}, {"id": 13611, "slack_id": "U07FC3TTP6W", "display_name": "Mehar Raj Pradhan", "bio": null, "projects_count": 0, "devlogs_count": 0, "votes_count": 0, "ships_count": 0, "projects": [], "coding_time_seconds": 0, "coding_time_seconds_today": 0, "balance": "You need to have a pocket watcher badge to view this.", "badges": [], "created_at": "2025-06-30T20:33:17.142-04:00", "updated_at": "2025-07-03T22:04:39.153-04:00", "avatar": "https://avatars.slack-edge.com/2025-04-10/8719937510775_b1757d09e2852926c8d6_original.jpg", "custom_css": null}, {"id": 13612, "slack_id": "U0945BWGZ8R", "display_name": "Eddie Wang", "bio": null, "projects_count": 0, "devlogs_count": 0, "votes_count": 0, "ships_count": 0, "projects": [], "coding_time_seconds": 0, "coding_time_seconds_today": 0, "balance": "You need to have a pocket watcher badge to view this.", "badges": [], "created_at": "2025-06-30T20:34:37.303-04:00", "updated_at": "2025-07-03T22:04:39.254-04:00", "avatar": "https://avatars.slack-edge.com/2025-06-30/9150530067712_70977dbe939223e7aa0f_original.jpg", "custom_css": null}, {"id": 13613, "slack_id": "U0879RLUGBC", "display_name": "Aidan", "bio": null, "projects_count": 6, "devlogs_count": 23, "votes_count": 42, "ships_count": 4, "projects": [{"id": 5032, "title": "TelegramBot", "devlogs_count": 8, "created_at": "2025-07-02T20:13:16.534-04:00"}, {"id": 5638, "title": "Yurikey Fork", "devlogs_count": 2, "created_at": "2025-07-06T19:42:52.930-04:00"}, {"id": 9681, "title": "aidxnCC", "devlogs_count": 0, "created_at": "2025-08-02T02:42:30.771-04:00"}, {"id": 9682, "title": "aidxnCC", "devlogs_count": 5, "created_at": "2025-08-02T02:42:30.773-04:00"}, {"id": 5031, "title": "pontus-front", "devlogs_count": 3, "created_at": "2025-07-02T20:09:08.304-04:00"}, {"id": 10192, "title": "modules", "devlogs_count": 5, "created_at": "2025-08-04T20:11:38.450-04:00"}], "coding_time_seconds": 624109, "coding_time_seconds_today": 0, "balance": "You need to have a pocket watcher badge to view this.", "badges": [{"name": "Maiden Voyage", "text": "you shipped your first project! the journey begins...", "icon": "\ud83d\udea2"}], "created_at": "2025-06-30T20:35:46.617-04:00", "updated_at": "2025-09-10T22:57:58.627-04:00", "avatar": "https://secure.gravatar.com/avatar/f4cb156641d5ab9f212cf6c5a7cdd0f2.jpg?s=512&d=https%3A%2F%2Fa.slack-edge.com%2Fdf10d%2Fimg%2Favatars%2Fava_0004-512.png", "custom_css": null}, {"id": 13614, "slack_id": "U093CF1TULF", "display_name": "Jose Laurencio", "bio": null, "projects_count": 1, "devlogs_count": 1, "votes_count": 4, "ships_count": 0, "projects": [{"id": 6390, "title": "NeuroCal", "devlogs_count": 1, "created_at": "2025-07-13T01:21:05.821-04:00"}], "coding_time_seconds": 4782, "coding_time_seconds_today": 0, "balance": "You need to have a pocket watcher badge to view this.", "badges": [], "created_at": "2025-06-30T20:37:22.955-04:00", "updated_at": "2025-07-13T01:15:25.568-04:00", "avatar": "https://secure.gravatar.com/avatar/423550b159c4a2ebd8e21bb129792eff.jpg?s=512&d=https%3A%2F%2Fa.slack-edge.com%2Fdf10d%2Fimg%2Favatars%2Fava_0021-512.png", "custom_css": null}, {"id": 13615, "slack_id": "U094EFT1UBS", "display_name": "Erik", "bio": null, "projects_count": 0, "devlogs_count": 0, "votes_count": 0, "ships_count": 0, "projects": [], "coding_time_seconds": 0, "coding_time_seconds_today": 0, "balance": "You need to have a pocket watcher badge to view this.", "badges": [], "created_at": "2025-06-30T20:39:28.979-04:00", "updated_at": "2025-07-03T20:08:27.877-04:00", "avatar": "https://secure.gravatar.com/avatar/c262473641f8deb323545d29bad0296d.jpg?s=512&d=https%3A%2F%2Fa.slack-edge.com%2Fdf10d%2Fimg%2Favatars%2Fava_0003-512.png", "custom_css": null}, {"id": 13616, "slack_id": "U093K8NLD1R", "display_name": "Regis", "bio": null, "projects_count": 0, "devlogs_count": 0, "votes_count": 0, "ships_count": 0, "projects": [], "coding_time_seconds": 0, "coding_time_seconds_today": 0, "balance": "You need to have a pocket watcher badge to view this.", "badges": [], "created_at": "2025-06-30T20:41:05.475-04:00", "updated_at": "2025-07-04T02:33:55.424-04:00", "avatar": "https://secure.gravatar.com/avatar/489f5f5cb07d1612be0582a1c19ef719.jpg?s=512&d=https%3A%2F%2Fa.slack-edge.com%2Fdf10d%2Fimg%2Favatars%2Fava_0023-512.png", "custom_css": null}, {"id": 13617, "slack_id": "U0794AVS2GN", "display_name": "Collin Casteel", "bio": null, "projects_count": 0, "devlogs_count": 0, "votes_count": 0, "ships_count": 0, "projects": [], "coding_time_seconds": 0, "coding_time_seconds_today": 0, "balance": "You need to have a pocket watcher badge to view this.", "badges": [], "created_at": "2025-06-30T20:41:09.381-04:00", "updated_at": "2025-07-03T20:08:28.272-04:00", "avatar": "https://secure.gravatar.com/avatar/86dace7800c0fd0e4cce812491853800.jpg?s=512&d=https%3A%2F%2Fa.slack-edge.com%2Fdf10d%2Fimg%2Favatars%2Fava_0021-512.png", "custom_css": null}, {"id": 13618, "slack_id": "U091JL9PXD4", "display_name": "Nishit", "bio": null, "projects_count": 0, "devlogs_count": 0, "votes_count": 0, "ships_count": 0, "projects": [], "coding_time_seconds": 0, "coding_time_seconds_today": 0, "balance": "You need to have a pocket watcher badge to view this.", "badges": [], "created_at": "2025-06-30T20:41:54.244-04:00", "updated_at": "2025-07-03T20:08:28.535-04:00", "avatar": "https://secure.gravatar.com/avatar/cfffd2909a2d47a83f5db42990d2538e.jpg?s=512&d=https%3A%2F%2Fa.slack-edge.com%2Fdf10d%2Fimg%2Favatars%2Fava_0017-512.png", "custom_css": null}, {"id": 13619, "slack_id": "U093CFP50QP", "display_name": "Zaman Zahid", "bio": null, "projects_count": 0, "devlogs_count": 0, "votes_count": 0, "ships_count": 0, "projects": [], "coding_time_seconds": 0, "coding_time_seconds_today": 0, "balance": "You need to have a pocket watcher badge to view this.", "badges": [], "created_at": "2025-06-30T20:44:56.551-04:00", "updated_at": "2025-07-05T08:15:29.426-04:00", "avatar": "https://secure.gravatar.com/avatar/58d102ba9f5d68fd8b3ba23407e16329.jpg?s=512&d=https%3A%2F%2Fa.slack-edge.com%2Fdf10d%2Fimg%2Favatars%2Fava_0010-512.png", "custom_css": null}, {"id": 13620, "slack_id": "U093CFURAJK", "display_name": "Kai", "bio": null, "projects_count": 0, "devlogs_count": 0, "votes_count": 0, "ships_count": 0, "projects": [], "coding_time_seconds": 0, "coding_time_seconds_today": 0, "balance": "You need to have a pocket watcher badge to view this.", "badges": [], "created_at": "2025-06-30T20:46:49.979-04:00", "updated_at": "2025-07-03T20:08:28.932-04:00", "avatar": "https://secure.gravatar.com/avatar/2fa666b725319970ce84e10b041f33bf.jpg?s=512&d=https%3A%2F%2Fa.slack-edge.com%2Fdf10d%2Fimg%2Favatars%2Fava_0006-512.png", "custom_css": null}], "pagination": {"page": 681, "pages": 1192, "count": 23828, "items": 20}}