{"users": [{"id": 13621, "slack_id": "U094EG4Q464", "display_name": "Sami Kayyal", "bio": null, "projects_count": 0, "devlogs_count": 0, "votes_count": 0, "ships_count": 0, "projects": [], "coding_time_seconds": 0, "coding_time_seconds_today": 0, "balance": "You need to have a pocket watcher badge to view this.", "badges": [], "created_at": "2025-06-30T20:47:29.560-04:00", "updated_at": "2025-07-05T02:15:07.867-04:00", "avatar": "https://secure.gravatar.com/avatar/2a77be1ee0ed8078eaea0f397e5e049b.jpg?s=512&d=https%3A%2F%2Fa.slack-edge.com%2Fdf10d%2Fimg%2Favatars%2Fava_0002-512.png", "custom_css": null}, {"id": 13622, "slack_id": "U082X1D3YEP", "display_name": "Alhwyn", "bio": null, "projects_count": 0, "devlogs_count": 0, "votes_count": 0, "ships_count": 0, "projects": [], "coding_time_seconds": 0, "coding_time_seconds_today": 0, "balance": "You need to have a pocket watcher badge to view this.", "badges": [], "created_at": "2025-06-30T20:47:41.417-04:00", "updated_at": "2025-07-04T02:33:55.886-04:00", "avatar": "https://avatars.slack-edge.com/2024-11-28/8096310203237_3010d9e31afb53e44ddb_original.png", "custom_css": null}, {"id": 13623, "slack_id": "U091RGPEMCN", "display_name": "wEI", "bio": null, "projects_count": 0, "devlogs_count": 0, "votes_count": 0, "ships_count": 0, "projects": [], "coding_time_seconds": 0, "coding_time_seconds_today": 0, "balance": "You need to have a pocket watcher badge to view this.", "badges": [], "created_at": "2025-06-30T20:47:57.734-04:00", "updated_at": "2025-07-04T08:30:11.733-04:00", "avatar": "https://secure.gravatar.com/avatar/3a22719999834275ab46445da5c1cb5f.jpg?s=512&d=https%3A%2F%2Fa.slack-edge.com%2Fdf10d%2Fimg%2Favatars%2Fava_0009-512.png", "custom_css": null}, {"id": 13624, "slack_id": "U093QLV0YSZ", "display_name": "turtlehwan", "bio": null, "projects_count": 0, "devlogs_count": 0, "votes_count": 0, "ships_count": 0, "projects": [], "coding_time_seconds": 0, "coding_time_seconds_today": 0, "balance": "You need to have a pocket watcher badge to view this.", "badges": [], "created_at": "2025-06-30T20:51:56.723-04:00", "updated_at": "2025-07-03T20:08:29.643-04:00", "avatar": "https://secure.gravatar.com/avatar/6d0716539b7e434dabcd71177fe3271d.jpg?s=512&d=https%3A%2F%2Fa.slack-edge.com%2Fdf10d%2Fimg%2Favatars%2Fava_0004-512.png", "custom_css": null}, {"id": 13625, "slack_id": "U042MP4PJ5U", "display_name": "Number Basher", "bio": null, "projects_count": 0, "devlogs_count": 0, "votes_count": 0, "ships_count": 0, "projects": [], "coding_time_seconds": 153784, "coding_time_seconds_today": 0, "balance": "You need to have a pocket watcher badge to view this.", "badges": [], "created_at": "2025-06-30T20:53:43.247-04:00", "updated_at": "2025-07-05T14:16:53.837-04:00", "avatar": "https://avatars.slack-edge.com/2022-09-19/4086489406535_cce9902821a4369d52f5_original.png", "custom_css": null}, {"id": 13626, "slack_id": "U093CGWMXPH", "display_name": "Dhikshith Gajulapalli", "bio": null, "projects_count": 0, "devlogs_count": 0, "votes_count": 0, "ships_count": 0, "projects": [], "coding_time_seconds": 0, "coding_time_seconds_today": 0, "balance": "You need to have a pocket watcher badge to view this.", "badges": [], "created_at": "2025-06-30T20:55:08.339-04:00", "updated_at": "2025-07-04T02:33:56.212-04:00", "avatar": "https://secure.gravatar.com/avatar/fa62e9760a84bda479ffc973349c7f22.jpg?s=512&d=https%3A%2F%2Fa.slack-edge.com%2Fdf10d%2Fimg%2Favatars%2Fava_0005-512.png", "custom_css": null}, {"id": 13627, "slack_id": "U0900AEM62C", "display_name": "Drin", "bio": "Student from SMAN 1 Rejang Lebong!", "projects_count": 2, "devlogs_count": 5, "votes_count": 39, "ships_count": 1, "projects": [{"id": 7824, "title": "KardSkrip", "devlogs_count": 4, "created_at": "2025-07-23T07:07:54.037-04:00"}, {"id": 7813, "title": "HeadacheOS", "devlogs_count": 1, "created_at": "2025-07-23T05:58:22.701-04:00"}], "coding_time_seconds": 366992, "coding_time_seconds_today": 0, "balance": "You need to have a pocket watcher badge to view this.", "badges": [{"name": "Maiden Voyage", "text": "you shipped your first project! the journey begins...", "icon": "\ud83d\udea2"}], "created_at": "2025-06-30T20:58:00.380-04:00", "updated_at": "2025-09-10T22:57:58.987-04:00", "avatar": "https://secure.gravatar.com/avatar/09bc25fb1d0513ddab645e9c1dcfd6c7.jpg?s=512&d=https%3A%2F%2Fa.slack-edge.com%2Fdf10d%2Fimg%2Favatars%2Fava_0017-512.png", "custom_css": null}, {"id": 13628, "slack_id": "U091HMNS4DU", "display_name": "Lai Son Kou (Laison KORRISON ANSON Kou)", "bio": null, "projects_count": 0, "devlogs_count": 0, "votes_count": 0, "ships_count": 0, "projects": [], "coding_time_seconds": 0, "coding_time_seconds_today": 0, "balance": "You need to have a pocket watcher badge to view this.", "badges": [], "created_at": "2025-06-30T20:58:13.363-04:00", "updated_at": "2025-07-08T03:10:46.931-04:00", "avatar": "https://avatars.slack-edge.com/2025-07-01/9121439678387_0b9d01cb5392f84703f0_original.png", "custom_css": null}, {"id": 13629, "slack_id": "U093QMNB2JH", "display_name": "Walter M.", "bio": null, "projects_count": 1, "devlogs_count": 0, "votes_count": 0, "ships_count": 0, "projects": [{"id": 4801, "title": "Forest game", "devlogs_count": 0, "created_at": "2025-07-01T15:47:13.458-04:00"}], "coding_time_seconds": 5691, "coding_time_seconds_today": 0, "balance": "You need to have a pocket watcher badge to view this.", "badges": [], "created_at": "2025-06-30T21:01:02.850-04:00", "updated_at": "2025-07-03T20:08:30.449-04:00", "avatar": "https://secure.gravatar.com/avatar/b0861d8cb0f978e686dcea6fc4e4d0bc.jpg?s=512&d=https%3A%2F%2Fa.slack-edge.com%2Fdf10d%2Fimg%2Favatars%2Fava_0006-512.png", "custom_css": null}, {"id": 13630, "slack_id": "U07V45G6PEX", "display_name": "fifthsol", "bio": null, "projects_count": 0, "devlogs_count": 0, "votes_count": 3, "ships_count": 0, "projects": [], "coding_time_seconds": 120, "coding_time_seconds_today": 0, "balance": "You need to have a pocket watcher badge to view this.", "badges": [], "created_at": "2025-06-30T21:01:49.789-04:00", "updated_at": "2025-07-03T20:08:30.721-04:00", "avatar": "https://avatars.slack-edge.com/2024-11-06/7990330051362_a134538f413b0127e38b_original.jpg", "custom_css": null}, {"id": 13631, "slack_id": "U0943NG73PA", "display_name": "julia do", "bio": null, "projects_count": 9, "devlogs_count": 45, "votes_count": 104, "ships_count": 8, "projects": [{"id": 10813, "title": "verdict", "devlogs_count": 1, "created_at": "2025-08-11T04:16:50.218-04:00"}, {"id": 12267, "title": "Crimitine", "devlogs_count": 8, "created_at": "2025-08-25T04:57:43.136-04:00"}, {"id": 12678, "title": "calamity", "devlogs_count": 3, "created_at": "2025-08-31T15:07:34.078-04:00"}, {"id": 12991, "title": "Packing Up", "devlogs_count": 3, "created_at": "2025-09-06T16:03:01.829-04:00"}, {"id": 13681, "title": "fo koos", "devlogs_count": 3, "created_at": "2025-09-22T20:28:15.634-04:00"}, {"id": 7465, "title": "bloggy", "devlogs_count": 2, "created_at": "2025-07-21T22:13:15.883-04:00"}, {"id": 10957, "title": "wayward", "devlogs_count": 9, "created_at": "2025-08-12T03:25:56.271-04:00"}, {"id": 5635, "title": "Text-Based Leveling System", "devlogs_count": 2, "created_at": "2025-07-06T19:17:39.971-04:00"}, {"id": 11647, "title": "out-perform", "devlogs_count": 13, "created_at": "2025-08-18T03:32:07.104-04:00"}], "coding_time_seconds": 527369, "coding_time_seconds_today": 0, "balance": "You need to have a pocket watcher badge to view this.", "badges": [{"name": "Maiden Voyage", "text": "you shipped your first project! the journey begins...", "icon": "\ud83d\udea2"}, {"name": "Ballot Stuffer", "text": "vote 100 times.", "icon": "https://summer.hackclub.com/assets/i_voted-bf851b48.png"}, {"name": "Yapper I", "text": "Posted 10 comments on devlogs.", "icon": "\ud83d\udcac"}], "created_at": "2025-06-30T21:02:17.196-04:00", "updated_at": "2025-09-22T21:02:38.208-04:00", "avatar": "https://avatars.slack-edge.com/2025-09-07/9475783933314_14ad4efe4e1ebb466a0d_original.png", "custom_css": null}, {"id": 13632, "slack_id": "U070DRRF6RJ", "display_name": "Harsh Patel", "bio": null, "projects_count": 1, "devlogs_count": 0, "votes_count": 4, "ships_count": 0, "projects": [{"id": 5373, "title": "PigeonRun", "devlogs_count": 0, "created_at": "2025-07-04T21:36:07.123-04:00"}], "coding_time_seconds": 6833, "coding_time_seconds_today": 0, "balance": "You need to have a pocket watcher badge to view this.", "badges": [], "created_at": "2025-06-30T21:02:29.708-04:00", "updated_at": "2025-07-03T20:08:31.241-04:00", "avatar": "https://avatars.slack-edge.com/2024-04-23/7034196968160_ed03fc74060e9d0bb7fb_original.jpg", "custom_css": null}, {"id": 13633, "slack_id": "U093KAZ2CJX", "display_name": "Dibyadyuti Das", "bio": null, "projects_count": 0, "devlogs_count": 0, "votes_count": 0, "ships_count": 0, "projects": [], "coding_time_seconds": 0, "coding_time_seconds_today": 0, "balance": "You need to have a pocket watcher badge to view this.", "badges": [], "created_at": "2025-06-30T21:02:46.946-04:00", "updated_at": "2025-07-22T03:56:23.531-04:00", "avatar": "https://avatars.slack-edge.com/2025-06-30/9150620309776_4f1099c0a66cf2699485_original.png", "custom_css": null}, {"id": 13634, "slack_id": "U08SRF3DUJY", "display_name": "c", "bio": null, "projects_count": 0, "devlogs_count": 0, "votes_count": 0, "ships_count": 0, "projects": [], "coding_time_seconds": 0, "coding_time_seconds_today": 0, "balance": "You need to have a pocket watcher badge to view this.", "badges": [], "created_at": "2025-06-30T21:03:14.190-04:00", "updated_at": "2025-07-03T20:08:31.770-04:00", "avatar": "https://secure.gravatar.com/avatar/5110d91758b713187478eca83cd54b1b.jpg?s=512&d=https%3A%2F%2Fa.slack-edge.com%2Fdf10d%2Fimg%2Favatars%2Fava_0007-512.png", "custom_css": null}, {"id": 13635, "slack_id": "U078DJGBDE1", "display_name": "Aayan Khan", "bio": null, "projects_count": 0, "devlogs_count": 0, "votes_count": 0, "ships_count": 0, "projects": [], "coding_time_seconds": 0, "coding_time_seconds_today": 0, "balance": "You need to have a pocket watcher badge to view this.", "badges": [], "created_at": "2025-06-30T21:03:35.713-04:00", "updated_at": "2025-09-04T09:33:28.321-04:00", "avatar": "https://avatars.slack-edge.com/2024-06-17/7288433742723_75b971728bc628604d5c_original.jpg", "custom_css": null}, {"id": 13636, "slack_id": "U094EJ7GQBA", "display_name": "Youssef Ibrahim", "bio": null, "projects_count": 0, "devlogs_count": 0, "votes_count": 0, "ships_count": 0, "projects": [], "coding_time_seconds": 0, "coding_time_seconds_today": 0, "balance": "You need to have a pocket watcher badge to view this.", "badges": [], "created_at": "2025-06-30T21:06:13.392-04:00", "updated_at": "2025-07-03T20:08:32.292-04:00", "avatar": "https://secure.gravatar.com/avatar/88258f21c27d80d8acea88ea509b3a0f.jpg?s=512&d=https%3A%2F%2Fa.slack-edge.com%2Fdf10d%2Fimg%2Favatars%2Fava_0007-512.png", "custom_css": null}, {"id": 13637, "slack_id": "U093QP2NA7P", "display_name": "Krish Sharma", "bio": null, "projects_count": 0, "devlogs_count": 0, "votes_count": 0, "ships_count": 0, "projects": [], "coding_time_seconds": 0, "coding_time_seconds_today": 0, "balance": "You need to have a pocket watcher badge to view this.", "badges": [], "created_at": "2025-06-30T21:11:42.584-04:00", "updated_at": "2025-07-03T20:08:32.546-04:00", "avatar": "https://avatars.slack-edge.com/2025-06-30/9129852752788_84de6aac39e655956d50_original.webp", "custom_css": null}, {"id": 13638, "slack_id": "U07BAF0B030", "display_name": "Dhruv", "bio": null, "projects_count": 0, "devlogs_count": 0, "votes_count": 0, "ships_count": 0, "projects": [], "coding_time_seconds": 0, "coding_time_seconds_today": 0, "balance": "You need to have a pocket watcher badge to view this.", "badges": [], "created_at": "2025-06-30T21:13:14.035-04:00", "updated_at": "2025-07-03T20:08:32.804-04:00", "avatar": "https://secure.gravatar.com/avatar/6a1577cda83d311037cd5ab73d786d56.jpg?s=512&d=https%3A%2F%2Fa.slack-edge.com%2Fdf10d%2Fimg%2Favatars%2Fava_0017-512.png", "custom_css": null}, {"id": 13639, "slack_id": "U093CJLDKEK", "display_name": "Dinesh karthick", "bio": null, "projects_count": 0, "devlogs_count": 0, "votes_count": 0, "ships_count": 0, "projects": [], "coding_time_seconds": 0, "coding_time_seconds_today": 0, "balance": "You need to have a pocket watcher badge to view this.", "badges": [], "created_at": "2025-06-30T21:14:18.474-04:00", "updated_at": "2025-07-03T20:08:33.071-04:00", "avatar": "https://secure.gravatar.com/avatar/dfdf926a4006976b89731be549371ac4.jpg?s=512&d=https%3A%2F%2Fa.slack-edge.com%2Fdf10d%2Fimg%2Favatars%2Fava_0011-512.png", "custom_css": null}, {"id": 13640, "slack_id": "U07SXE4DWM7", "display_name": "angelcube", "bio": null, "projects_count": 0, "devlogs_count": 0, "votes_count": 0, "ships_count": 0, "projects": [], "coding_time_seconds": 173622, "coding_time_seconds_today": 0, "balance": "You need to have a pocket watcher badge to view this.", "badges": [], "created_at": "2025-06-30T21:15:48.404-04:00", "updated_at": "2025-09-20T20:03:42.881-04:00", "avatar": "https://avatars.slack-edge.com/2025-09-20/9581080070144_b72c17562f5a96acae59_original.png", "custom_css": null}], "pagination": {"page": 682, "pages": 1192, "count": 23828, "items": 20}}