{"users": [{"id": 13641, "slack_id": "U081LKK2B44", "display_name": "yuji128", "bio": null, "projects_count": 0, "devlogs_count": 0, "votes_count": 0, "ships_count": 0, "projects": [], "coding_time_seconds": 0, "coding_time_seconds_today": 0, "balance": "You need to have a pocket watcher badge to view this.", "badges": [], "created_at": "2025-06-30T21:16:10.572-04:00", "updated_at": "2025-07-04T08:30:13.734-04:00", "avatar": "https://secure.gravatar.com/avatar/0ca62819bfed52321cfc6c8a5e911cf0.jpg?s=512&d=https%3A%2F%2Fa.slack-edge.com%2Fdf10d%2Fimg%2Favatars%2Fava_0003-512.png", "custom_css": null}, {"id": 13642, "slack_id": "U08QC36NM55", "display_name": "Jasmine Tran", "bio": null, "projects_count": 1, "devlogs_count": 1, "votes_count": 7, "ships_count": 1, "projects": [{"id": 4649, "title": "Sudoku Solver", "devlogs_count": 1, "created_at": "2025-07-01T01:13:51.384-04:00"}], "coding_time_seconds": 124979, "coding_time_seconds_today": 0, "balance": "You need to have a pocket watcher badge to view this.", "badges": [{"name": "Maiden Voyage", "text": "you shipped your first project! the journey begins...", "icon": "\ud83d\udea2"}], "created_at": "2025-06-30T21:17:15.198-04:00", "updated_at": "2025-09-10T22:57:59.418-04:00", "avatar": "https://avatars.slack-edge.com/2025-07-07/9156127976470_54c4ef65fc31876efbf0_original.png", "custom_css": null}, {"id": 13643, "slack_id": "U0854V0HFT3", "display_name": "Nathan", "bio": null, "projects_count": 6, "devlogs_count": 10, "votes_count": 25, "ships_count": 2, "projects": [{"id": 5061, "title": "Moving Maze", "devlogs_count": 0, "created_at": "2025-07-03T01:47:13.739-04:00"}, {"id": 5669, "title": "Robot Game", "devlogs_count": 4, "created_at": "2025-07-07T00:41:30.972-04:00"}, {"id": 6661, "title": "Knockout", "devlogs_count": 0, "created_at": "2025-07-14T22:57:37.492-04:00"}, {"id": 5008, "title": "Card Matching", "devlogs_count": 3, "created_at": "2025-07-02T17:19:02.521-04:00"}, {"id": 5242, "title": "AutoClicker", "devlogs_count": 0, "created_at": "2025-07-04T01:07:27.009-04:00"}, {"id": 4815, "title": "Tic-Tac-Toe", "devlogs_count": 3, "created_at": "2025-07-01T17:11:11.088-04:00"}], "coding_time_seconds": 101395, "coding_time_seconds_today": 0, "balance": "You need to have a pocket watcher badge to view this.", "badges": [{"name": "Maiden Voyage", "text": "you shipped your first project! the journey begins...", "icon": "\ud83d\udea2"}], "created_at": "2025-06-30T21:17:26.158-04:00", "updated_at": "2025-09-10T22:57:59.445-04:00", "avatar": "https://secure.gravatar.com/avatar/182f171b040e5bcd2a4222fa1f30bec6.jpg?s=512&d=https%3A%2F%2Fa.slack-edge.com%2Fdf10d%2Fimg%2Favatars%2Fava_0002-512.png", "custom_css": null}, {"id": 13644, "slack_id": "U08V7GNJB5F", "display_name": "Matthew", "bio": null, "projects_count": 0, "devlogs_count": 0, "votes_count": 0, "ships_count": 0, "projects": [], "coding_time_seconds": 0, "coding_time_seconds_today": 0, "balance": "You need to have a pocket watcher badge to view this.", "badges": [], "created_at": "2025-06-30T21:17:28.252-04:00", "updated_at": "2025-07-03T20:08:34.132-04:00", "avatar": "https://avatars.slack-edge.com/2025-05-31/8982544683154_9d5f942144bfc4d46adc_original.webp", "custom_css": null}, {"id": 13645, "slack_id": "U082B71HP8B", "display_name": "duckeydev", "bio": null, "projects_count": 1, "devlogs_count": 4, "votes_count": 2, "ships_count": 1, "projects": [{"id": 4616, "title": "NetGoat - Smart Reverse Proxy with more features", "devlogs_count": 4, "created_at": "2025-06-30T21:44:33.976-04:00"}], "coding_time_seconds": 251177, "coding_time_seconds_today": 0, "balance": "You need to have a pocket watcher badge to view this.", "badges": [{"name": "Maiden Voyage", "text": "you shipped your first project! the journey begins...", "icon": "\ud83d\udea2"}], "created_at": "2025-06-30T21:20:08.785-04:00", "updated_at": "2025-09-10T22:57:59.491-04:00", "avatar": "https://avatars.slack-edge.com/2025-03-07/8577890515793_2987802612941e08a4a7_original.jpg", "custom_css": null}, {"id": 13646, "slack_id": "U07UKGR4551", "display_name": "Anay", "bio": null, "projects_count": 0, "devlogs_count": 0, "votes_count": 0, "ships_count": 0, "projects": [], "coding_time_seconds": 0, "coding_time_seconds_today": 0, "balance": "You need to have a pocket watcher badge to view this.", "badges": [], "created_at": "2025-06-30T21:21:02.387-04:00", "updated_at": "2025-07-03T20:08:34.683-04:00", "avatar": "https://avatars.slack-edge.com/2024-11-01/7974191757620_207417ef21e6e79de880_original.jpg", "custom_css": null}, {"id": 13647, "slack_id": "U093SNE5FGA", "display_name": "Ayushi Saha", "bio": null, "projects_count": 0, "devlogs_count": 0, "votes_count": 0, "ships_count": 0, "projects": [], "coding_time_seconds": 0, "coding_time_seconds_today": 0, "balance": "You need to have a pocket watcher badge to view this.", "badges": [], "created_at": "2025-06-30T21:24:58.771-04:00", "updated_at": "2025-07-03T20:08:34.982-04:00", "avatar": "https://secure.gravatar.com/avatar/9167360b71336867f35d4e47114fcb53.jpg?s=512&d=https%3A%2F%2Fa.slack-edge.com%2Fdf10d%2Fimg%2Favatars%2Fava_0010-512.png", "custom_css": null}, {"id": 13648, "slack_id": "U091HLD1RTM", "display_name": "Emison Dias", "bio": null, "projects_count": 0, "devlogs_count": 0, "votes_count": 0, "ships_count": 0, "projects": [], "coding_time_seconds": 0, "coding_time_seconds_today": 0, "balance": "You need to have a pocket watcher badge to view this.", "badges": [], "created_at": "2025-06-30T21:26:50.482-04:00", "updated_at": "2025-07-22T03:29:25.429-04:00", "avatar": "https://avatars.slack-edge.com/2025-06-30/9121461533203_1548d3e90ce384a90d7f_original.png", "custom_css": null}, {"id": 13649, "slack_id": "U093SN9E4LA", "display_name": "Jeet Anil", "bio": null, "projects_count": 0, "devlogs_count": 0, "votes_count": 0, "ships_count": 0, "projects": [], "coding_time_seconds": 0, "coding_time_seconds_today": 0, "balance": "You need to have a pocket watcher badge to view this.", "badges": [], "created_at": "2025-06-30T21:27:08.067-04:00", "updated_at": "2025-07-03T22:04:41.643-04:00", "avatar": "https://avatars.slack-edge.com/2025-06-30/9123428851510_975135fe2f531e6b7573_original.png", "custom_css": null}, {"id": 13650, "slack_id": "U093QQ4EUGM", "display_name": "Fiona Fang", "bio": null, "projects_count": 0, "devlogs_count": 0, "votes_count": 0, "ships_count": 0, "projects": [], "coding_time_seconds": 0, "coding_time_seconds_today": 0, "balance": "You need to have a pocket watcher badge to view this.", "badges": [], "created_at": "2025-06-30T21:28:46.337-04:00", "updated_at": "2025-07-03T20:08:35.659-04:00", "avatar": "https://avatars.slack-edge.com/2025-06-30/9126845763205_6a47728b53834f2ceeb3_original.png", "custom_css": null}, {"id": 13651, "slack_id": "U094EK2APC0", "display_name": "Stasi", "bio": null, "projects_count": 0, "devlogs_count": 0, "votes_count": 0, "ships_count": 0, "projects": [], "coding_time_seconds": 0, "coding_time_seconds_today": 0, "balance": "You need to have a pocket watcher badge to view this.", "badges": [], "created_at": "2025-06-30T21:36:54.043-04:00", "updated_at": "2025-07-03T20:08:36.048-04:00", "avatar": "https://secure.gravatar.com/avatar/2607a1cbe3e4d15af4cbd2f5eacfe91e.jpg?s=512&d=https%3A%2F%2Fa.slack-edge.com%2Fdf10d%2Fimg%2Favatars%2Fava_0015-512.png", "custom_css": null}, {"id": 13652, "slack_id": "U093SPKD8UA", "display_name": "Srinath B", "bio": null, "projects_count": 0, "devlogs_count": 0, "votes_count": 0, "ships_count": 0, "projects": [], "coding_time_seconds": 0, "coding_time_seconds_today": 0, "balance": "You need to have a pocket watcher badge to view this.", "badges": [], "created_at": "2025-06-30T21:37:14.872-04:00", "updated_at": "2025-07-03T20:08:36.323-04:00", "avatar": "https://secure.gravatar.com/avatar/a59a61156122a07a709b95b24807fd5d.jpg?s=512&d=https%3A%2F%2Fa.slack-edge.com%2Fdf10d%2Fimg%2Favatars%2Fava_0008-512.png", "custom_css": null}, {"id": 13653, "slack_id": "U093T2F9UKW", "display_name": "Harpurr (Birdy)", "bio": "SoM support team/Professional goofball ", "projects_count": 4, "devlogs_count": 14, "votes_count": 49, "ships_count": 2, "projects": [{"id": 7141, "title": "HikeBuddy", "devlogs_count": 3, "created_at": "2025-07-19T12:26:49.688-04:00"}, {"id": 9914, "title": "BirdHouse", "devlogs_count": 3, "created_at": "2025-08-02T21:56:43.561-04:00"}, {"id": 12948, "title": "Cmprs", "devlogs_count": 1, "created_at": "2025-09-05T22:52:57.787-04:00"}, {"id": 4834, "title": "GenPass", "devlogs_count": 7, "created_at": "2025-07-01T19:10:42.634-04:00"}], "coding_time_seconds": 53567, "coding_time_seconds_today": 0, "balance": "You need to have a pocket watcher badge to view this.", "badges": [{"name": "Maiden Voyage", "text": "you shipped your first project! the journey begins...", "icon": "\ud83d\udea2"}, {"name": "Yapper I", "text": "Posted 10 comments on devlogs.", "icon": "\ud83d\udcac"}], "created_at": "2025-06-30T21:37:17.369-04:00", "updated_at": "2025-09-24T19:11:28.424-04:00", "avatar": "https://avatars.slack-edge.com/2025-09-24/9562572219047_130117b7098db9fdba53_original.jpg", "custom_css": null}, {"id": 13654, "slack_id": "U094EMBEZ4Y", "display_name": "Tim L", "bio": null, "projects_count": 0, "devlogs_count": 0, "votes_count": 0, "ships_count": 0, "projects": [], "coding_time_seconds": 0, "coding_time_seconds_today": 0, "balance": "You need to have a pocket watcher badge to view this.", "badges": [], "created_at": "2025-06-30T21:39:59.337-04:00", "updated_at": "2025-07-03T20:08:36.723-04:00", "avatar": "https://secure.gravatar.com/avatar/84222fdd048c9a0b0f8783a555ce0b44.jpg?s=512&d=https%3A%2F%2Fa.slack-edge.com%2Fdf10d%2Fimg%2Favatars%2Fava_0002-512.png", "custom_css": null}, {"id": 13655, "slack_id": "U020WRQPDC4", "display_name": "Maaz", "bio": null, "projects_count": 0, "devlogs_count": 0, "votes_count": 0, "ships_count": 0, "projects": [], "coding_time_seconds": 0, "coding_time_seconds_today": 0, "balance": "You need to have a pocket watcher badge to view this.", "badges": [], "created_at": "2025-06-30T21:42:44.084-04:00", "updated_at": "2025-07-03T20:08:37.007-04:00", "avatar": "https://avatars.slack-edge.com/2021-05-04/2021433124646_7f827e963889fb5dd55d_original.png", "custom_css": null}, {"id": 13656, "slack_id": "U08S19JUS6A", "display_name": "Hestia", "bio": null, "projects_count": 0, "devlogs_count": 0, "votes_count": 0, "ships_count": 0, "projects": [], "coding_time_seconds": 193274, "coding_time_seconds_today": 0, "balance": "You need to have a pocket watcher badge to view this.", "badges": [], "created_at": "2025-06-30T21:45:58.212-04:00", "updated_at": "2025-08-31T21:11:05.774-04:00", "avatar": "https://avatars.slack-edge.com/2025-08-31/9423574925095_8da4488700f993b10acf_original.png", "custom_css": null}, {"id": 13657, "slack_id": "U094EDJCYNL", "display_name": "Jozias Martini", "bio": null, "projects_count": 0, "devlogs_count": 0, "votes_count": 0, "ships_count": 0, "projects": [], "coding_time_seconds": 0, "coding_time_seconds_today": 0, "balance": "You need to have a pocket watcher badge to view this.", "badges": [], "created_at": "2025-06-30T21:46:06.963-04:00", "updated_at": "2025-07-04T08:30:14.928-04:00", "avatar": "https://secure.gravatar.com/avatar/02773762fdf9589fa2f9e54ca1a3c7ec.jpg?s=512&d=https%3A%2F%2Fa.slack-edge.com%2Fdf10d%2Fimg%2Favatars%2Fava_0020-512.png", "custom_css": null}, {"id": 13658, "slack_id": "U093CME1NH5", "display_name": "Keegan", "bio": null, "projects_count": 0, "devlogs_count": 0, "votes_count": 0, "ships_count": 0, "projects": [], "coding_time_seconds": 0, "coding_time_seconds_today": 0, "balance": "You need to have a pocket watcher badge to view this.", "badges": [], "created_at": "2025-06-30T21:48:09.006-04:00", "updated_at": "2025-07-03T22:04:42.322-04:00", "avatar": "https://avatars.slack-edge.com/2025-06-30/9126920093397_70f5e3e3c140667a0a0e_original.png", "custom_css": null}, {"id": 13659, "slack_id": "U08RH4J9WQ5", "display_name": "aj", "bio": null, "projects_count": 0, "devlogs_count": 0, "votes_count": 0, "ships_count": 0, "projects": [], "coding_time_seconds": 600462, "coding_time_seconds_today": 0, "balance": "You need to have a pocket watcher badge to view this.", "badges": [], "created_at": "2025-06-30T21:48:57.265-04:00", "updated_at": "2025-09-02T16:21:58.661-04:00", "avatar": "https://avatars.slack-edge.com/2025-07-29/9297176613104_eeea7783f8397d23ac46_original.png", "custom_css": null}, {"id": 13660, "slack_id": "U093CN5C407", "display_name": "GOH MIN WEN TED Student", "bio": null, "projects_count": 0, "devlogs_count": 0, "votes_count": 0, "ships_count": 0, "projects": [], "coding_time_seconds": 0, "coding_time_seconds_today": 0, "balance": "You need to have a pocket watcher badge to view this.", "badges": [], "created_at": "2025-06-30T21:53:20.134-04:00", "updated_at": "2025-07-03T20:08:37.938-04:00", "avatar": "https://avatars.slack-edge.com/2025-06-30/9114769635479_1450c4e5a348550cef13_original.png", "custom_css": null}], "pagination": {"page": 683, "pages": 1192, "count": 23828, "items": 20}}