{"users": [{"id": 13681, "slack_id": "U093U3489UL", "display_name": "kaveesha", "bio": null, "projects_count": 0, "devlogs_count": 0, "votes_count": 0, "ships_count": 0, "projects": [], "coding_time_seconds": 0, "coding_time_seconds_today": 0, "balance": "You need to have a pocket watcher badge to view this.", "badges": [], "created_at": "2025-06-30T22:33:47.614-04:00", "updated_at": "2025-07-03T20:08:42.427-04:00", "avatar": "https://secure.gravatar.com/avatar/72130ff4849358c5df266274b81c4aa4.jpg?s=512&d=https%3A%2F%2Fa.slack-edge.com%2Fdf10d%2Fimg%2Favatars%2Fava_0011-512.png", "custom_css": null}, {"id": 13682, "slack_id": "U08J6GFMFSM", "display_name": "Bunch-of-cells", "bio": null, "projects_count": 2, "devlogs_count": 2, "votes_count": 3, "ships_count": 1, "projects": [{"id": 5055, "title": "Astronomy Olympiad Guide", "devlogs_count": 1, "created_at": "2025-07-03T00:52:13.386-04:00"}, {"id": 4637, "title": "Celestial Sphere", "devlogs_count": 1, "created_at": "2025-06-30T23:55:09.197-04:00"}], "coding_time_seconds": 44763, "coding_time_seconds_today": 0, "balance": "You need to have a pocket watcher badge to view this.", "badges": [{"name": "Maiden Voyage", "text": "you shipped your first project! the journey begins...", "icon": "\ud83d\udea2"}], "created_at": "2025-06-30T22:34:40.949-04:00", "updated_at": "2025-09-10T22:58:00.756-04:00", "avatar": "https://avatars.slack-edge.com/2025-03-15/8618559813441_45ceb4d9794960407dd5_original.jpg", "custom_css": null}, {"id": 13683, "slack_id": "U093SV2SURY", "display_name": "kausthubh nandimandalamm", "bio": null, "projects_count": 0, "devlogs_count": 0, "votes_count": 0, "ships_count": 0, "projects": [], "coding_time_seconds": 0, "coding_time_seconds_today": 0, "balance": "You need to have a pocket watcher badge to view this.", "badges": [], "created_at": "2025-06-30T22:36:46.686-04:00", "updated_at": "2025-07-06T08:14:36.615-04:00", "avatar": "https://avatars.slack-edge.com/2025-06-30/9129004125986_fb32b648eef7c2a6bf51_original.png", "custom_css": null}, {"id": 13684, "slack_id": "U093SU2HPM0", "display_name": "Taylor", "bio": null, "projects_count": 1, "devlogs_count": 0, "votes_count": 0, "ships_count": 0, "projects": [{"id": 4847, "title": "QuickScript", "devlogs_count": 0, "created_at": "2025-07-01T22:06:54.813-04:00"}], "coding_time_seconds": 29569, "coding_time_seconds_today": 0, "balance": "You need to have a pocket watcher badge to view this.", "badges": [], "created_at": "2025-06-30T22:37:14.700-04:00", "updated_at": "2025-07-03T20:08:43.151-04:00", "avatar": "https://avatars.slack-edge.com/2025-07-01/9132162236837_5668a5b953e76069fcf1_original.jpg", "custom_css": null}, {"id": 13685, "slack_id": "U07M5HWE0KA", "display_name": "Andrew", "bio": null, "projects_count": 0, "devlogs_count": 0, "votes_count": 0, "ships_count": 0, "projects": [], "coding_time_seconds": 364659, "coding_time_seconds_today": 0, "balance": "You need to have a pocket watcher badge to view this.", "badges": [], "created_at": "2025-06-30T22:37:35.128-04:00", "updated_at": "2025-08-05T02:46:06.269-04:00", "avatar": "https://avatars.slack-edge.com/2025-03-13/8612946048641_94b198ba93dda0459843_original.jpg", "custom_css": null}, {"id": 13686, "slack_id": "U0945N37M89", "display_name": "Junho Lee", "bio": null, "projects_count": 0, "devlogs_count": 0, "votes_count": 0, "ships_count": 0, "projects": [], "coding_time_seconds": 0, "coding_time_seconds_today": 0, "balance": "You need to have a pocket watcher badge to view this.", "badges": [], "created_at": "2025-06-30T22:39:11.507-04:00", "updated_at": "2025-07-03T20:08:43.675-04:00", "avatar": "https://secure.gravatar.com/avatar/2075e05d15f1df65460ecdc8b60097a6.jpg?s=512&d=https%3A%2F%2Fa.slack-edge.com%2Fdf10d%2Fimg%2Favatars%2Fava_0000-512.png", "custom_css": null}, {"id": 13687, "slack_id": "U08T9CDN0HL", "display_name": "Anahita Rai", "bio": null, "projects_count": 0, "devlogs_count": 0, "votes_count": 0, "ships_count": 0, "projects": [], "coding_time_seconds": 54707, "coding_time_seconds_today": 0, "balance": "You need to have a pocket watcher badge to view this.", "badges": [], "created_at": "2025-06-30T22:43:10.232-04:00", "updated_at": "2025-07-10T03:19:00.240-04:00", "avatar": "https://avatars.slack-edge.com/2025-05-25/8973293988128_6bf54f7301ff1bf2b8a9_original.jpg", "custom_css": null}, {"id": 13688, "slack_id": "U093R2UM23F", "display_name": "Emil Sahel", "bio": null, "projects_count": 3, "devlogs_count": 4, "votes_count": 44, "ships_count": 2, "projects": [{"id": 6268, "title": "nano++", "devlogs_count": 0, "created_at": "2025-07-11T21:17:17.908-04:00"}, {"id": 12679, "title": "Portfolio", "devlogs_count": 3, "created_at": "2025-08-31T15:13:36.451-04:00"}, {"id": 5594, "title": "LDM", "devlogs_count": 1, "created_at": "2025-07-06T12:27:25.619-04:00"}], "coding_time_seconds": 188054, "coding_time_seconds_today": 0, "balance": "You need to have a pocket watcher badge to view this.", "badges": [{"name": "Maiden Voyage", "text": "you shipped your first project! the journey begins...", "icon": "\ud83d\udea2"}], "created_at": "2025-06-30T22:52:59.375-04:00", "updated_at": "2025-09-10T22:58:00.984-04:00", "avatar": "https://avatars.slack-edge.com/2025-09-06/9472419362722_ddc025b269ff110b3d1b_original.webp", "custom_css": null}, {"id": 13689, "slack_id": "U094EUQGS0G", "display_name": "Maria", "bio": null, "projects_count": 0, "devlogs_count": 0, "votes_count": 0, "ships_count": 0, "projects": [], "coding_time_seconds": 157310, "coding_time_seconds_today": 0, "balance": "You need to have a pocket watcher badge to view this.", "badges": [], "created_at": "2025-06-30T22:57:29.410-04:00", "updated_at": "2025-07-03T20:08:44.353-04:00", "avatar": "https://secure.gravatar.com/avatar/60dee991eb6147d971f320f15910117d.jpg?s=512&d=https%3A%2F%2Fa.slack-edge.com%2Fdf10d%2Fimg%2Favatars%2Fava_0019-512.png", "custom_css": null}, {"id": 13690, "slack_id": "U08FQLRM7NY", "display_name": "Isha Malhotra", "bio": null, "projects_count": 0, "devlogs_count": 0, "votes_count": 0, "ships_count": 0, "projects": [], "coding_time_seconds": 0, "coding_time_seconds_today": 0, "balance": "You need to have a pocket watcher badge to view this.", "badges": [], "created_at": "2025-06-30T22:57:44.172-04:00", "updated_at": "2025-07-03T20:08:44.614-04:00", "avatar": "https://secure.gravatar.com/avatar/e3e31362d71dbcdc761e02039405b31f.jpg?s=512&d=https%3A%2F%2Fa.slack-edge.com%2Fdf10d%2Fimg%2Favatars%2Fava_0016-512.png", "custom_css": null}, {"id": 13691, "slack_id": "U0935E3SZ8Q", "display_name": "8man", "bio": null, "projects_count": 1, "devlogs_count": 0, "votes_count": 0, "ships_count": 0, "projects": [{"id": 4633, "title": "Vega", "devlogs_count": 0, "created_at": "2025-06-30T23:33:32.992-04:00"}], "coding_time_seconds": 532311, "coding_time_seconds_today": 0, "balance": "You need to have a pocket watcher badge to view this.", "badges": [], "created_at": "2025-06-30T22:59:29.463-04:00", "updated_at": "2025-07-08T00:36:06.198-04:00", "avatar": "https://secure.gravatar.com/avatar/3772bbf3e3d815fdfb17667cdf2ac4f2.jpg?s=512&d=https%3A%2F%2Fa.slack-edge.com%2Fdf10d%2Fimg%2Favatars%2Fava_0025-512.png", "custom_css": null}, {"id": 13692, "slack_id": "U093MM1DGCE", "display_name": "Alex Luo", "bio": null, "projects_count": 0, "devlogs_count": 0, "votes_count": 0, "ships_count": 0, "projects": [], "coding_time_seconds": 0, "coding_time_seconds_today": 0, "balance": "You need to have a pocket watcher badge to view this.", "badges": [], "created_at": "2025-06-30T22:59:40.978-04:00", "updated_at": "2025-07-03T20:08:45.211-04:00", "avatar": "https://secure.gravatar.com/avatar/e99a5a5d4ea75f035ead7dd8b8e01576.jpg?s=512&d=https%3A%2F%2Fa.slack-edge.com%2Fdf10d%2Fimg%2Favatars%2Fava_0016-512.png", "custom_css": null}, {"id": 13693, "slack_id": "U092VAYGH32", "display_name": "Jaedon Yassin", "bio": null, "projects_count": 0, "devlogs_count": 0, "votes_count": 0, "ships_count": 0, "projects": [], "coding_time_seconds": 0, "coding_time_seconds_today": 0, "balance": "You need to have a pocket watcher badge to view this.", "badges": [], "created_at": "2025-06-30T23:00:32.589-04:00", "updated_at": "2025-07-03T20:08:45.463-04:00", "avatar": "https://secure.gravatar.com/avatar/938614de0bb7a7493fb66f4ae57b1ffe.jpg?s=512&d=https%3A%2F%2Fa.slack-edge.com%2Fdf10d%2Fimg%2Favatars%2Fava_0017-512.png", "custom_css": null}, {"id": 13694, "slack_id": "U07BM9YFN4A", "display_name": "Obt", "bio": null, "projects_count": 0, "devlogs_count": 0, "votes_count": 0, "ships_count": 0, "projects": [], "coding_time_seconds": 137759, "coding_time_seconds_today": 7548, "balance": "You need to have a pocket watcher badge to view this.", "badges": [], "created_at": "2025-06-30T23:02:00.746-04:00", "updated_at": "2025-07-04T20:14:34.562-04:00", "avatar": "https://secure.gravatar.com/avatar/09e1c24b9e4cfb0711a5dbfff70d3302.jpg?s=512&d=https%3A%2F%2Fa.slack-edge.com%2Fdf10d%2Fimg%2Favatars%2Fava_0003-512.png", "custom_css": null}, {"id": 13695, "slack_id": "U093U5WM3EG", "display_name": "Harsh Kadam", "bio": null, "projects_count": 0, "devlogs_count": 0, "votes_count": 0, "ships_count": 0, "projects": [], "coding_time_seconds": 0, "coding_time_seconds_today": 0, "balance": "You need to have a pocket watcher badge to view this.", "badges": [], "created_at": "2025-06-30T23:02:24.919-04:00", "updated_at": "2025-07-03T22:04:45.142-04:00", "avatar": "https://secure.gravatar.com/avatar/3e595496871e243b3d961270fc95c454.jpg?s=512&d=https%3A%2F%2Fa.slack-edge.com%2Fdf10d%2Fimg%2Favatars%2Fava_0021-512.png", "custom_css": null}, {"id": 13696, "slack_id": "U093TPYKB0C", "display_name": "Isaak", "bio": null, "projects_count": 0, "devlogs_count": 0, "votes_count": 0, "ships_count": 0, "projects": [], "coding_time_seconds": 0, "coding_time_seconds_today": 0, "balance": "You need to have a pocket watcher badge to view this.", "badges": [], "created_at": "2025-06-30T23:03:14.561-04:00", "updated_at": "2025-07-03T20:08:45.997-04:00", "avatar": "https://secure.gravatar.com/avatar/7fe3ea3dce067c5a40fa7a265c37cd05.jpg?s=512&d=https%3A%2F%2Fa.slack-edge.com%2Fdf10d%2Fimg%2Favatars%2Fava_0021-512.png", "custom_css": null}, {"id": 13697, "slack_id": "U093MMMJC6A", "display_name": "AS", "bio": null, "projects_count": 0, "devlogs_count": 0, "votes_count": 0, "ships_count": 0, "projects": [], "coding_time_seconds": 0, "coding_time_seconds_today": 0, "balance": "You need to have a pocket watcher badge to view this.", "badges": [], "created_at": "2025-06-30T23:05:53.907-04:00", "updated_at": "2025-07-03T20:08:46.263-04:00", "avatar": "https://secure.gravatar.com/avatar/ec49829668c89b98b6f67925a636dd47.jpg?s=512&d=https%3A%2F%2Fa.slack-edge.com%2Fdf10d%2Fimg%2Favatars%2Fava_0001-512.png", "custom_css": null}, {"id": 13698, "slack_id": "U082NLA5M2B", "display_name": "Sanjay Bhandari", "bio": null, "projects_count": 0, "devlogs_count": 17, "votes_count": 15, "ships_count": 0, "projects": [], "coding_time_seconds": 633828, "coding_time_seconds_today": 0, "balance": "You need to have a pocket watcher badge to view this.", "badges": [{"name": "Maiden Voyage", "text": "you shipped your first project! the journey begins...", "icon": "\ud83d\udea2"}], "created_at": "2025-06-30T23:06:39.674-04:00", "updated_at": "2025-09-10T22:58:01.261-04:00", "avatar": "https://avatars.slack-edge.com/2024-11-30/8128019372752_bd4b3a2147edb7775092_original.jpg", "custom_css": null}, {"id": 13699, "slack_id": "U092D7BKHKL", "display_name": "ncchen", "bio": null, "projects_count": 0, "devlogs_count": 0, "votes_count": 0, "ships_count": 0, "projects": [], "coding_time_seconds": 119808, "coding_time_seconds_today": 0, "balance": "You need to have a pocket watcher badge to view this.", "badges": [], "created_at": "2025-06-30T23:09:58.822-04:00", "updated_at": "2025-07-03T20:08:46.784-04:00", "avatar": "https://secure.gravatar.com/avatar/de92e403a228bbd8921f45976263e5a6.jpg?s=512&d=https%3A%2F%2Fa.slack-edge.com%2Fdf10d%2Fimg%2Favatars%2Fava_0006-512.png", "custom_css": null}, {"id": 13700, "slack_id": "U093KNN33EF", "display_name": "Artin", "bio": null, "projects_count": 0, "devlogs_count": 0, "votes_count": 0, "ships_count": 0, "projects": [], "coding_time_seconds": 0, "coding_time_seconds_today": 0, "balance": "You need to have a pocket watcher badge to view this.", "badges": [], "created_at": "2025-06-30T23:13:25.331-04:00", "updated_at": "2025-07-08T03:11:12.310-04:00", "avatar": "https://secure.gravatar.com/avatar/c114ee346bb5454e9b22df6bcd463295.jpg?s=512&d=https%3A%2F%2Fa.slack-edge.com%2Fdf10d%2Fimg%2Favatars%2Fava_0002-512.png", "custom_css": null}], "pagination": {"page": 685, "pages": 1192, "count": 23828, "items": 20}}