{"users": [{"id": 13701, "slack_id": "U093MNA4U1L", "display_name": "ER Carltz", "bio": null, "projects_count": 0, "devlogs_count": 0, "votes_count": 0, "ships_count": 0, "projects": [], "coding_time_seconds": 56748, "coding_time_seconds_today": 0, "balance": "You need to have a pocket watcher badge to view this.", "badges": [], "created_at": "2025-06-30T23:14:30.114-04:00", "updated_at": "2025-07-03T20:08:47.186-04:00", "avatar": "https://avatars.slack-edge.com/2025-06-30/9123772419622_f73bccb86ad4b3375497_original.jpg", "custom_css": null}, {"id": 13702, "slack_id": "U093MNB3V54", "display_name": "Thadi Vinod", "bio": null, "projects_count": 0, "devlogs_count": 0, "votes_count": 0, "ships_count": 0, "projects": [], "coding_time_seconds": 0, "coding_time_seconds_today": 0, "balance": "You need to have a pocket watcher badge to view this.", "badges": [], "created_at": "2025-06-30T23:15:08.306-04:00", "updated_at": "2025-07-03T20:08:47.456-04:00", "avatar": "https://secure.gravatar.com/avatar/4ba899ec73021f2cefcb84c714db3710.jpg?s=512&d=https%3A%2F%2Fa.slack-edge.com%2Fdf10d%2Fimg%2Favatars%2Fava_0008-512.png", "custom_css": null}, {"id": 13703, "slack_id": "U08H19M04G7", "display_name": "Jaxon Beaman", "bio": null, "projects_count": 0, "devlogs_count": 0, "votes_count": 0, "ships_count": 0, "projects": [], "coding_time_seconds": 0, "coding_time_seconds_today": 0, "balance": "You need to have a pocket watcher badge to view this.", "badges": [], "created_at": "2025-06-30T23:19:23.083-04:00", "updated_at": "2025-07-03T20:08:47.715-04:00", "avatar": "https://avatars.slack-edge.com/2025-06-01/8982527784658_d0d99a2a9e64847586c5_original.png", "custom_css": null}, {"id": 13704, "slack_id": "U094F18EGBS", "display_name": "Divyansh", "bio": null, "projects_count": 0, "devlogs_count": 0, "votes_count": 0, "ships_count": 0, "projects": [], "coding_time_seconds": 0, "coding_time_seconds_today": 0, "balance": "You need to have a pocket watcher badge to view this.", "badges": [], "created_at": "2025-06-30T23:20:32.776-04:00", "updated_at": "2025-07-03T20:08:47.978-04:00", "avatar": "https://secure.gravatar.com/avatar/3449ed5fec224867b2f56ce156082fd7.jpg?s=512&d=https%3A%2F%2Fa.slack-edge.com%2Fdf10d%2Fimg%2Favatars%2Fava_0001-512.png", "custom_css": null}, {"id": 13705, "slack_id": "U084RU0TKUM", "display_name": "shuva", "bio": null, "projects_count": 0, "devlogs_count": 38, "votes_count": 0, "ships_count": 0, "projects": [], "coding_time_seconds": 949779, "coding_time_seconds_today": 0, "balance": "You need to have a pocket watcher badge to view this.", "badges": [{"name": "Maiden Voyage", "text": "you shipped your first project! the journey begins...", "icon": "\ud83d\udea2"}, {"name": "Ballot Stuffer", "text": "vote 100 times.", "icon": "https://summer.hackclub.com/assets/i_voted-bf851b48.png"}], "created_at": "2025-06-30T23:24:52.409-04:00", "updated_at": "2025-09-19T15:37:48.850-04:00", "avatar": "https://secure.gravatar.com/avatar/7d8254a6d274b4162a6a766cc2fa8a21.jpg?s=512&d=https%3A%2F%2Fa.slack-edge.com%2Fdf10d%2Fimg%2Favatars%2Fava_0020-512.png", "custom_css": null}, {"id": 13706, "slack_id": "U092CK6BZC3", "display_name": "StavinFern", "bio": null, "projects_count": 0, "devlogs_count": 0, "votes_count": 0, "ships_count": 0, "projects": [], "coding_time_seconds": 1036, "coding_time_seconds_today": 0, "balance": "You need to have a pocket watcher badge to view this.", "badges": [], "created_at": "2025-06-30T23:30:00.355-04:00", "updated_at": "2025-07-03T20:08:48.501-04:00", "avatar": "https://secure.gravatar.com/avatar/cebe0d03ad5d5f7ac6720ea5efb526f2.jpg?s=512&d=https%3A%2F%2Fa.slack-edge.com%2Fdf10d%2Fimg%2Favatars%2Fava_0008-512.png", "custom_css": null}, {"id": 13707, "slack_id": "U09248D0QHX", "display_name": "Ankan", "bio": null, "projects_count": 0, "devlogs_count": 0, "votes_count": 0, "ships_count": 0, "projects": [], "coding_time_seconds": 0, "coding_time_seconds_today": 0, "balance": "You need to have a pocket watcher badge to view this.", "badges": [], "created_at": "2025-06-30T23:32:37.980-04:00", "updated_at": "2025-07-03T20:08:48.767-04:00", "avatar": "https://secure.gravatar.com/avatar/302f77b132081e17db792b7add43209d.jpg?s=512&d=https%3A%2F%2Fa.slack-edge.com%2Fdf10d%2Fimg%2Favatars%2Fava_0012-512.png", "custom_css": null}, {"id": 13708, "slack_id": "U093R63LNJ1", "display_name": "vaishnavi", "bio": null, "projects_count": 0, "devlogs_count": 0, "votes_count": 0, "ships_count": 0, "projects": [], "coding_time_seconds": 0, "coding_time_seconds_today": 0, "balance": "You need to have a pocket watcher badge to view this.", "badges": [], "created_at": "2025-06-30T23:36:02.701-04:00", "updated_at": "2025-07-03T20:08:49.038-04:00", "avatar": "https://secure.gravatar.com/avatar/d0a745483ad179cedc660a24ae33e3b3.jpg?s=512&d=https%3A%2F%2Fa.slack-edge.com%2Fdf10d%2Fimg%2Favatars%2Fava_0019-512.png", "custom_css": null}, {"id": 13709, "slack_id": "U04JXQ33VL2", "display_name": "Nikhil Prabhu", "bio": null, "projects_count": 0, "devlogs_count": 0, "votes_count": 0, "ships_count": 0, "projects": [], "coding_time_seconds": 277, "coding_time_seconds_today": 0, "balance": "You need to have a pocket watcher badge to view this.", "badges": [], "created_at": "2025-06-30T23:36:13.985-04:00", "updated_at": "2025-07-05T02:15:13.026-04:00", "avatar": "https://avatars.slack-edge.com/2023-01-21/4679081993970_606ccdb106b3fb9d2dfa_original.png", "custom_css": null}, {"id": 13710, "slack_id": "U07E16BP7C5", "display_name": "Flenderr", "bio": null, "projects_count": 1, "devlogs_count": 1, "votes_count": 2, "ships_count": 0, "projects": [{"id": 4659, "title": "firefox_data_retracer", "devlogs_count": 1, "created_at": "2025-07-01T01:40:40.684-04:00"}], "coding_time_seconds": 75708, "coding_time_seconds_today": 0, "balance": "You need to have a pocket watcher badge to view this.", "badges": [], "created_at": "2025-06-30T23:37:46.912-04:00", "updated_at": "2025-07-03T22:04:46.105-04:00", "avatar": "https://avatars.slack-edge.com/2024-07-25/7465570959767_9ea2d20c485f7f1c5004_original.jpg", "custom_css": null}, {"id": 13711, "slack_id": "U093D23NEMV", "display_name": "kavinda dissanayake", "bio": null, "projects_count": 1, "devlogs_count": 1, "votes_count": 0, "ships_count": 0, "projects": [{"id": 4873, "title": "online user management system using MERN stack", "devlogs_count": 1, "created_at": "2025-07-02T01:35:28.694-04:00"}], "coding_time_seconds": 117328, "coding_time_seconds_today": 0, "balance": "You need to have a pocket watcher badge to view this.", "badges": [], "created_at": "2025-06-30T23:37:48.917-04:00", "updated_at": "2025-07-03T20:08:49.581-04:00", "avatar": "https://secure.gravatar.com/avatar/5e786bf847ac13711bde26aeab0cbcbc.jpg?s=512&d=https%3A%2F%2Fa.slack-edge.com%2Fdf10d%2Fimg%2Favatars%2Fava_0020-512.png", "custom_css": null}, {"id": 13712, "slack_id": "U094F2L7G7J", "display_name": "Nova hickman", "bio": null, "projects_count": 0, "devlogs_count": 0, "votes_count": 0, "ships_count": 0, "projects": [], "coding_time_seconds": 0, "coding_time_seconds_today": 0, "balance": "You need to have a pocket watcher badge to view this.", "badges": [], "created_at": "2025-06-30T23:40:25.941-04:00", "updated_at": "2025-07-03T20:08:49.858-04:00", "avatar": "https://avatars.slack-edge.com/2025-06-30/9130317612916_ed63d8a84f8ee6c7901a_original.png", "custom_css": null}, {"id": 13713, "slack_id": "U06VCMLNX44", "display_name": "Emi", "bio": null, "projects_count": 0, "devlogs_count": 0, "votes_count": 0, "ships_count": 0, "projects": [], "coding_time_seconds": 0, "coding_time_seconds_today": 0, "balance": "You need to have a pocket watcher badge to view this.", "badges": [], "created_at": "2025-06-30T23:44:00.054-04:00", "updated_at": "2025-07-04T20:14:35.704-04:00", "avatar": "https://secure.gravatar.com/avatar/58211d4813f350164e6b0283faca2573.jpg?s=512&d=https%3A%2F%2Fa.slack-edge.com%2Fdf10d%2Fimg%2Favatars%2Fava_0001-512.png", "custom_css": null}, {"id": 13714, "slack_id": "U094F36C0LQ", "display_name": "\u0421\u0435\u0439\u043c\u0443\u0440 \u0410\u0433\u0430\u0435\u0432", "bio": null, "projects_count": 0, "devlogs_count": 0, "votes_count": 0, "ships_count": 0, "projects": [], "coding_time_seconds": 0, "coding_time_seconds_today": 0, "balance": "You need to have a pocket watcher badge to view this.", "badges": [], "created_at": "2025-06-30T23:45:05.738-04:00", "updated_at": "2025-07-03T22:04:46.372-04:00", "avatar": "https://avatars.slack-edge.com/2025-06-30/9151121581840_86f5a87eca1db6cbc443_original.png", "custom_css": null}, {"id": 13715, "slack_id": "U093U9DH6SY", "display_name": "Dele", "bio": null, "projects_count": 0, "devlogs_count": 0, "votes_count": 0, "ships_count": 0, "projects": [], "coding_time_seconds": 0, "coding_time_seconds_today": 0, "balance": "You need to have a pocket watcher badge to view this.", "badges": [], "created_at": "2025-06-30T23:47:32.544-04:00", "updated_at": "2025-07-05T08:15:37.357-04:00", "avatar": "https://secure.gravatar.com/avatar/ed614d4f72a345dac6388e07872a0af9.jpg?s=512&d=https%3A%2F%2Fa.slack-edge.com%2Fdf10d%2Fimg%2Favatars%2Fava_0015-512.png", "custom_css": null}, {"id": 13716, "slack_id": "U093D35A3F1", "display_name": "Mike Camara", "bio": null, "projects_count": 0, "devlogs_count": 0, "votes_count": 0, "ships_count": 0, "projects": [], "coding_time_seconds": 0, "coding_time_seconds_today": 0, "balance": "You need to have a pocket watcher badge to view this.", "badges": [], "created_at": "2025-06-30T23:48:33.896-04:00", "updated_at": "2025-07-03T20:08:50.548-04:00", "avatar": "https://secure.gravatar.com/avatar/e41ef0045ed0bac5da7f1eba6d2ebe23.jpg?s=512&d=https%3A%2F%2Fa.slack-edge.com%2Fdf10d%2Fimg%2Favatars%2Fava_0017-512.png", "custom_css": null}, {"id": 13717, "slack_id": "U093KRRHDRR", "display_name": "Kenny Will", "bio": null, "projects_count": 0, "devlogs_count": 0, "votes_count": 0, "ships_count": 0, "projects": [], "coding_time_seconds": 0, "coding_time_seconds_today": 0, "balance": "You need to have a pocket watcher badge to view this.", "badges": [], "created_at": "2025-06-30T23:52:43.937-04:00", "updated_at": "2025-07-03T20:08:50.890-04:00", "avatar": "https://secure.gravatar.com/avatar/50d2883b2d4a83142841c0786ea7221c.jpg?s=512&d=https%3A%2F%2Fa.slack-edge.com%2Fdf10d%2Fimg%2Favatars%2Fava_0008-512.png", "custom_css": null}, {"id": 13718, "slack_id": "U07F09QHHCH", "display_name": "Eric Shu", "bio": null, "projects_count": 1, "devlogs_count": 0, "votes_count": 13, "ships_count": 0, "projects": [{"id": 4650, "title": "Shoeplanner", "devlogs_count": 0, "created_at": "2025-07-01T01:14:37.104-04:00"}], "coding_time_seconds": 316, "coding_time_seconds_today": 0, "balance": "You need to have a pocket watcher badge to view this.", "badges": [], "created_at": "2025-06-30T23:53:50.380-04:00", "updated_at": "2025-07-03T20:08:51.155-04:00", "avatar": "https://avatars.slack-edge.com/2025-06-30/9129226246834_082b218fb90b465cc8a1_original.webp", "custom_css": null}, {"id": 13719, "slack_id": "U093T6E6LGJ", "display_name": "Sahib Walia", "bio": null, "projects_count": 0, "devlogs_count": 0, "votes_count": 0, "ships_count": 0, "projects": [], "coding_time_seconds": 0, "coding_time_seconds_today": 0, "balance": "You need to have a pocket watcher badge to view this.", "badges": [], "created_at": "2025-06-30T23:55:09.422-04:00", "updated_at": "2025-07-03T20:08:51.440-04:00", "avatar": "https://avatars.slack-edge.com/2025-06-30/9130358020468_8ae3ac9afc601e8653cb_original.jpg", "custom_css": null}, {"id": 13720, "slack_id": "U07A8U1QAJC", "display_name": "Ratnesh Kumar", "bio": null, "projects_count": 0, "devlogs_count": 0, "votes_count": 0, "ships_count": 0, "projects": [], "coding_time_seconds": 0, "coding_time_seconds_today": 0, "balance": "You need to have a pocket watcher badge to view this.", "badges": [], "created_at": "2025-06-30T23:59:28.753-04:00", "updated_at": "2025-07-04T20:14:36.118-04:00", "avatar": "https://secure.gravatar.com/avatar/e4b9b22dd50d8663b14e824121046d32.jpg?s=512&d=https%3A%2F%2Fa.slack-edge.com%2Fdf10d%2Fimg%2Favatars%2Fava_0019-512.png", "custom_css": null}], "pagination": {"page": 686, "pages": 1192, "count": 23828, "items": 20}}