{"users": [{"id": 13721, "slack_id": "U09461H0RSM", "display_name": "umi", "bio": null, "projects_count": 0, "devlogs_count": 0, "votes_count": 0, "ships_count": 0, "projects": [], "coding_time_seconds": 0, "coding_time_seconds_today": 0, "balance": "You need to have a pocket watcher badge to view this.", "badges": [], "created_at": "2025-06-30T23:59:35.670-04:00", "updated_at": "2025-07-08T10:14:18.962-04:00", "avatar": "https://avatars.slack-edge.com/2025-07-08/9160623064246_c34b058d919f84562dc5_original.jpg", "custom_css": null}, {"id": 13722, "slack_id": "U093D4M71AT", "display_name": "Jh", "bio": null, "projects_count": 0, "devlogs_count": 0, "votes_count": 0, "ships_count": 0, "projects": [], "coding_time_seconds": 3665, "coding_time_seconds_today": 0, "balance": "You need to have a pocket watcher badge to view this.", "badges": [], "created_at": "2025-07-01T00:03:50.164-04:00", "updated_at": "2025-07-03T20:08:52.112-04:00", "avatar": "https://secure.gravatar.com/avatar/61f8fa519de724d963315b703149f7c2.jpg?s=512&d=https%3A%2F%2Fa.slack-edge.com%2Fdf10d%2Fimg%2Favatars%2Fava_0012-512.png", "custom_css": null}, {"id": 13723, "slack_id": "U093MSNVBGW", "display_name": "Mothish", "bio": null, "projects_count": 0, "devlogs_count": 0, "votes_count": 0, "ships_count": 0, "projects": [], "coding_time_seconds": 42734, "coding_time_seconds_today": 0, "balance": "You need to have a pocket watcher badge to view this.", "badges": [], "created_at": "2025-07-01T00:04:32.969-04:00", "updated_at": "2025-07-08T03:11:18.044-04:00", "avatar": "https://secure.gravatar.com/avatar/5c1873c658e554fdca09ae486e5acc07.jpg?s=512&d=https%3A%2F%2Fa.slack-edge.com%2Fdf10d%2Fimg%2Favatars%2Fava_0005-512.png", "custom_css": null}, {"id": 13724, "slack_id": "U093MSUAHLN", "display_name": "23F3000442 AKASH KUMAR PRASAD", "bio": null, "projects_count": 0, "devlogs_count": 0, "votes_count": 0, "ships_count": 0, "projects": [], "coding_time_seconds": 0, "coding_time_seconds_today": 0, "balance": "You need to have a pocket watcher badge to view this.", "badges": [], "created_at": "2025-07-01T00:07:02.217-04:00", "updated_at": "2025-07-04T02:34:02.832-04:00", "avatar": "https://avatars.slack-edge.com/2025-06-30/9142088897889_ff3f7c68d8faebb2aa31_original.png", "custom_css": null}, {"id": 13725, "slack_id": "U093D4YJ9T9", "display_name": "Edwin", "bio": null, "projects_count": 0, "devlogs_count": 0, "votes_count": 0, "ships_count": 0, "projects": [], "coding_time_seconds": 0, "coding_time_seconds_today": 0, "balance": "You need to have a pocket watcher badge to view this.", "badges": [], "created_at": "2025-07-01T00:08:30.864-04:00", "updated_at": "2025-07-04T08:30:19.434-04:00", "avatar": "https://secure.gravatar.com/avatar/b15831000c1aa3bef6f5373b3077ace8.jpg?s=512&d=https%3A%2F%2Fa.slack-edge.com%2Fdf10d%2Fimg%2Favatars%2Fava_0009-512.png", "custom_css": null}, {"id": 13726, "slack_id": "U092BTF0AU8", "display_name": "Namandeep Singh", "bio": null, "projects_count": 0, "devlogs_count": 0, "votes_count": 0, "ships_count": 0, "projects": [], "coding_time_seconds": 0, "coding_time_seconds_today": 0, "balance": "You need to have a pocket watcher badge to view this.", "badges": [], "created_at": "2025-07-01T00:13:50.594-04:00", "updated_at": "2025-07-04T20:14:36.489-04:00", "avatar": "https://avatars.slack-edge.com/2025-06-30/9115196475479_94b86fad552522f2a3da_original.png", "custom_css": null}, {"id": 13727, "slack_id": "U093D5BS8S3", "display_name": "Katherine Chang", "bio": null, "projects_count": 0, "devlogs_count": 0, "votes_count": 0, "ships_count": 0, "projects": [], "coding_time_seconds": 0, "coding_time_seconds_today": 0, "balance": "You need to have a pocket watcher badge to view this.", "badges": [], "created_at": "2025-07-01T00:14:52.055-04:00", "updated_at": "2025-08-22T18:42:59.261-04:00", "avatar": "https://avatars.slack-edge.com/2025-06-30/9129297120114_3f37c1832858d6c4e93b_original.png", "custom_css": null}, {"id": 13728, "slack_id": "U094F5T9T7S", "display_name": "Ronggo", "bio": null, "projects_count": 0, "devlogs_count": 0, "votes_count": 0, "ships_count": 0, "projects": [], "coding_time_seconds": 0, "coding_time_seconds_today": 0, "balance": "You need to have a pocket watcher badge to view this.", "badges": [], "created_at": "2025-07-01T00:15:56.106-04:00", "updated_at": "2025-07-03T20:08:53.204-04:00", "avatar": "https://secure.gravatar.com/avatar/7e57e281db1c8cd0b5136b103c8df402.jpg?s=512&d=https%3A%2F%2Fa.slack-edge.com%2Fdf10d%2Fimg%2Favatars%2Fava_0003-512.png", "custom_css": null}, {"id": 13729, "slack_id": "U093T8G7ENN", "display_name": "Paul Jones", "bio": null, "projects_count": 0, "devlogs_count": 0, "votes_count": 0, "ships_count": 0, "projects": [], "coding_time_seconds": 40680, "coding_time_seconds_today": 0, "balance": "You need to have a pocket watcher badge to view this.", "badges": [], "created_at": "2025-07-01T00:17:08.468-04:00", "updated_at": "2025-07-05T02:15:14.244-04:00", "avatar": "https://avatars.slack-edge.com/2025-06-30/9123952540742_a6662b963328b7662773_original.jpg", "custom_css": null}, {"id": 13730, "slack_id": "U093KTT7HA7", "display_name": "OG Dev", "bio": null, "projects_count": 0, "devlogs_count": 0, "votes_count": 0, "ships_count": 0, "projects": [], "coding_time_seconds": 0, "coding_time_seconds_today": 0, "balance": "You need to have a pocket watcher badge to view this.", "badges": [], "created_at": "2025-07-01T00:17:20.482-04:00", "updated_at": "2025-07-03T20:08:53.615-04:00", "avatar": "https://avatars.slack-edge.com/2025-06-30/9123953771494_d863664d1ba1d9a54875_original.png", "custom_css": null}, {"id": 13731, "slack_id": "U094F65L29W", "display_name": "Apurv Chudasama", "bio": null, "projects_count": 0, "devlogs_count": 0, "votes_count": 3, "ships_count": 0, "projects": [], "coding_time_seconds": 597387, "coding_time_seconds_today": 0, "balance": "You need to have a pocket watcher badge to view this.", "badges": [], "created_at": "2025-07-01T00:19:13.832-04:00", "updated_at": "2025-07-05T14:17:00.714-04:00", "avatar": "https://secure.gravatar.com/avatar/7d4059a29df8372c763df4ca3d5b7fd3.jpg?s=512&d=https%3A%2F%2Fa.slack-edge.com%2Fdf10d%2Fimg%2Favatars%2Fava_0019-512.png", "custom_css": null}, {"id": 13732, "slack_id": "U07AG75Q9BK", "display_name": "Murtaza Haque", "bio": null, "projects_count": 2, "devlogs_count": 4, "votes_count": 0, "ships_count": 0, "projects": [{"id": 5812, "title": "New Website (NextJS)", "devlogs_count": 4, "created_at": "2025-07-08T07:26:17.830-04:00"}, {"id": 5813, "title": "Attack on Titan Minecraft Mod", "devlogs_count": 0, "created_at": "2025-07-08T07:27:42.595-04:00"}], "coding_time_seconds": 189804, "coding_time_seconds_today": 0, "balance": "You need to have a pocket watcher badge to view this.", "badges": [], "created_at": "2025-07-01T00:19:55.063-04:00", "updated_at": "2025-08-25T16:06:03.942-04:00", "avatar": "https://avatars.slack-edge.com/2024-07-01/7359666062002_a9869e79a33d9a21b3ab_original.png", "custom_css": null}, {"id": 13733, "slack_id": "U06U40J5P0D", "display_name": "mikael", "bio": null, "projects_count": 0, "devlogs_count": 0, "votes_count": 0, "ships_count": 0, "projects": [], "coding_time_seconds": 0, "coding_time_seconds_today": 0, "balance": "You need to have a pocket watcher badge to view this.", "badges": [], "created_at": "2025-07-01T00:21:46.988-04:00", "updated_at": "2025-08-06T23:04:28.217-04:00", "avatar": "https://avatars.slack-edge.com/2025-06-27/9114187986388_13b67770d646193d614b_original.png", "custom_css": null}, {"id": 13734, "slack_id": "U09463QTR41", "display_name": "meow", "bio": null, "projects_count": 0, "devlogs_count": 0, "votes_count": 0, "ships_count": 0, "projects": [], "coding_time_seconds": 0, "coding_time_seconds_today": 0, "balance": "You need to have a pocket watcher badge to view this.", "badges": [], "created_at": "2025-07-01T00:24:00.388-04:00", "updated_at": "2025-07-03T20:08:54.556-04:00", "avatar": "https://secure.gravatar.com/avatar/66703e986957805ad072658b084c8f25.jpg?s=512&d=https%3A%2F%2Fa.slack-edge.com%2Fdf10d%2Fimg%2Favatars%2Fava_0000-512.png", "custom_css": null}, {"id": 13735, "slack_id": "U093D6EH8DD", "display_name": "Mina Girgis", "bio": null, "projects_count": 0, "devlogs_count": 0, "votes_count": 0, "ships_count": 0, "projects": [], "coding_time_seconds": 0, "coding_time_seconds_today": 0, "balance": "You need to have a pocket watcher badge to view this.", "badges": [], "created_at": "2025-07-01T00:25:23.180-04:00", "updated_at": "2025-07-03T20:08:54.816-04:00", "avatar": "https://avatars.slack-edge.com/2025-06-30/9142145163809_342ecfd9ae1186573ede_original.jpg", "custom_css": null}, {"id": 13736, "slack_id": "U093D6464RM", "display_name": "Ameya Thakur", "bio": null, "projects_count": 1, "devlogs_count": 0, "votes_count": 0, "ships_count": 0, "projects": [{"id": 10762, "title": "OMR Scanner", "devlogs_count": 0, "created_at": "2025-08-10T12:59:48.473-04:00"}], "coding_time_seconds": 1430, "coding_time_seconds_today": 0, "balance": "You need to have a pocket watcher badge to view this.", "badges": [], "created_at": "2025-07-01T00:28:07.086-04:00", "updated_at": "2025-08-10T12:50:36.502-04:00", "avatar": "https://secure.gravatar.com/avatar/1ef21938ae71a833b3d150d8c6298a49.jpg?s=512&d=https%3A%2F%2Fa.slack-edge.com%2Fdf10d%2Fimg%2Favatars%2Fava_0026-512.png", "custom_css": null}, {"id": 13737, "slack_id": "U09464G7SKT", "display_name": "vividvanilla24", "bio": null, "projects_count": 0, "devlogs_count": 0, "votes_count": 0, "ships_count": 0, "projects": [], "coding_time_seconds": 81087, "coding_time_seconds_today": 0, "balance": "You need to have a pocket watcher badge to view this.", "badges": [], "created_at": "2025-07-01T00:32:23.868-04:00", "updated_at": "2025-07-03T20:08:55.214-04:00", "avatar": "https://secure.gravatar.com/avatar/89d74221f82a2024f6f9e2a6bf8b419a.jpg?s=512&d=https%3A%2F%2Fa.slack-edge.com%2Fdf10d%2Fimg%2Favatars%2Fava_0019-512.png", "custom_css": null}, {"id": 13738, "slack_id": "U093D79C155", "display_name": "Pranav Moolan", "bio": null, "projects_count": 0, "devlogs_count": 0, "votes_count": 0, "ships_count": 0, "projects": [], "coding_time_seconds": 0, "coding_time_seconds_today": 0, "balance": "You need to have a pocket watcher badge to view this.", "badges": [], "created_at": "2025-07-01T00:33:51.046-04:00", "updated_at": "2025-07-05T14:17:01.168-04:00", "avatar": "https://secure.gravatar.com/avatar/ea6e6a953bf86a4ff1b23af261722451.jpg?s=512&d=https%3A%2F%2Fa.slack-edge.com%2Fdf10d%2Fimg%2Favatars%2Fava_0017-512.png", "custom_css": null}, {"id": 13739, "slack_id": "U093UDTUX9S", "display_name": "Shwetangi Tiwari", "bio": null, "projects_count": 0, "devlogs_count": 0, "votes_count": 0, "ships_count": 0, "projects": [], "coding_time_seconds": 0, "coding_time_seconds_today": 0, "balance": "You need to have a pocket watcher badge to view this.", "badges": [], "created_at": "2025-07-01T00:35:29.398-04:00", "updated_at": "2025-07-03T20:08:55.622-04:00", "avatar": "https://secure.gravatar.com/avatar/2384223d349b006d8b13f795bb374937.jpg?s=512&d=https%3A%2F%2Fa.slack-edge.com%2Fdf10d%2Fimg%2Favatars%2Fava_0019-512.png", "custom_css": null}, {"id": 13740, "slack_id": "U0939GBGAUX", "display_name": "nilshaaaa", "bio": null, "projects_count": 0, "devlogs_count": 0, "votes_count": 0, "ships_count": 0, "projects": [], "coding_time_seconds": 0, "coding_time_seconds_today": 0, "balance": "You need to have a pocket watcher badge to view this.", "badges": [], "created_at": "2025-07-01T00:37:47.239-04:00", "updated_at": "2025-07-03T20:08:55.887-04:00", "avatar": "https://secure.gravatar.com/avatar/7ec20f8d50d1baf83db101207d31e5e4.jpg?s=512&d=https%3A%2F%2Fa.slack-edge.com%2Fdf10d%2Fimg%2Favatars%2Fava_0025-512.png", "custom_css": null}], "pagination": {"page": 687, "pages": 1192, "count": 23828, "items": 20}}