{"users": [{"id": 13741, "slack_id": "U093RC6SZNZ", "display_name": "Rithika S", "bio": null, "projects_count": 0, "devlogs_count": 0, "votes_count": 0, "ships_count": 0, "projects": [], "coding_time_seconds": 0, "coding_time_seconds_today": 0, "balance": "You need to have a pocket watcher badge to view this.", "badges": [], "created_at": "2025-07-01T00:38:02.116-04:00", "updated_at": "2025-07-03T20:08:56.150-04:00", "avatar": "https://secure.gravatar.com/avatar/b0faa3788701d14bcdc2b3ed934f44b2.jpg?s=512&d=https%3A%2F%2Fa.slack-edge.com%2Fdf10d%2Fimg%2Favatars%2Fava_0024-512.png", "custom_css": null}, {"id": 13742, "slack_id": "U093UEBPQKE", "display_name": "gyxx xc", "bio": null, "projects_count": 0, "devlogs_count": 0, "votes_count": 0, "ships_count": 0, "projects": [], "coding_time_seconds": 0, "coding_time_seconds_today": 0, "balance": "You need to have a pocket watcher badge to view this.", "badges": [], "created_at": "2025-07-01T00:40:07.570-04:00", "updated_at": "2025-07-03T20:08:56.414-04:00", "avatar": "https://secure.gravatar.com/avatar/05e95696f5ff8500e2af444e4564f4a8.jpg?s=512&d=https%3A%2F%2Fa.slack-edge.com%2Fdf10d%2Fimg%2Favatars%2Fava_0008-512.png", "custom_css": null}, {"id": 13743, "slack_id": "U093MV3UULW", "display_name": "Dhyan", "bio": null, "projects_count": 0, "devlogs_count": 0, "votes_count": 0, "ships_count": 0, "projects": [], "coding_time_seconds": 104107, "coding_time_seconds_today": 1557, "balance": "You need to have a pocket watcher badge to view this.", "badges": [], "created_at": "2025-07-01T00:41:09.259-04:00", "updated_at": "2025-07-05T17:00:02.137-04:00", "avatar": "https://secure.gravatar.com/avatar/b90bb83e024520d01a2cdefafcff3aa4.jpg?s=512&d=https%3A%2F%2Fa.slack-edge.com%2Fdf10d%2Fimg%2Favatars%2Fava_0016-512.png", "custom_css": null}, {"id": 13744, "slack_id": "U093D7Z1QLX", "display_name": "Srinjay", "bio": null, "projects_count": 0, "devlogs_count": 0, "votes_count": 1, "ships_count": 0, "projects": [], "coding_time_seconds": 30285, "coding_time_seconds_today": 0, "balance": "You need to have a pocket watcher badge to view this.", "badges": [], "created_at": "2025-07-01T00:42:26.257-04:00", "updated_at": "2025-07-03T20:08:56.823-04:00", "avatar": "https://secure.gravatar.com/avatar/b7910b620f5e4424674bd8f26e4f210e.jpg?s=512&d=https%3A%2F%2Fa.slack-edge.com%2Fdf10d%2Fimg%2Favatars%2Fava_0013-512.png", "custom_css": null}, {"id": 13745, "slack_id": "U094F82HLPJ", "display_name": "AKSH GUPTA", "bio": null, "projects_count": 0, "devlogs_count": 0, "votes_count": 0, "ships_count": 0, "projects": [], "coding_time_seconds": 0, "coding_time_seconds_today": 0, "balance": "You need to have a pocket watcher badge to view this.", "badges": [], "created_at": "2025-07-01T00:43:08.194-04:00", "updated_at": "2025-07-08T03:11:27.611-04:00", "avatar": "https://secure.gravatar.com/avatar/68382258381def6333e8766c87731b56.jpg?s=512&d=https%3A%2F%2Fa.slack-edge.com%2Fdf10d%2Fimg%2Favatars%2Fava_0021-512.png", "custom_css": null}, {"id": 13746, "slack_id": "U09465LQ741", "display_name": "Akshat Tripathi", "bio": null, "projects_count": 0, "devlogs_count": 0, "votes_count": 0, "ships_count": 0, "projects": [], "coding_time_seconds": 234875, "coding_time_seconds_today": 0, "balance": "You need to have a pocket watcher badge to view this.", "badges": [], "created_at": "2025-07-01T00:43:09.960-04:00", "updated_at": "2025-07-03T20:08:57.230-04:00", "avatar": "https://secure.gravatar.com/avatar/19b3ae76405c74a9a80df9965e033703.jpg?s=512&d=https%3A%2F%2Fa.slack-edge.com%2Fdf10d%2Fimg%2Favatars%2Fava_0015-512.png", "custom_css": null}, {"id": 13747, "slack_id": "U091JRY8FRC", "display_name": "Harry", "bio": null, "projects_count": 0, "devlogs_count": 0, "votes_count": 0, "ships_count": 0, "projects": [], "coding_time_seconds": 0, "coding_time_seconds_today": 0, "balance": "You need to have a pocket watcher badge to view this.", "badges": [], "created_at": "2025-07-01T00:45:08.637-04:00", "updated_at": "2025-07-03T20:08:57.499-04:00", "avatar": "https://secure.gravatar.com/avatar/c8ba00d03affcd61000c0ae65b91f158.jpg?s=512&d=https%3A%2F%2Fa.slack-edge.com%2Fdf10d%2Fimg%2Favatars%2Fava_0015-512.png", "custom_css": null}, {"id": 13748, "slack_id": "U09466ATL9X", "display_name": "Tushar Varale", "bio": null, "projects_count": 0, "devlogs_count": 0, "votes_count": 0, "ships_count": 0, "projects": [], "coding_time_seconds": 0, "coding_time_seconds_today": 0, "balance": "You need to have a pocket watcher badge to view this.", "badges": [], "created_at": "2025-07-01T00:49:50.484-04:00", "updated_at": "2025-07-03T20:08:57.751-04:00", "avatar": "https://secure.gravatar.com/avatar/19412adf90bf39c535697cd9788a4d39.jpg?s=512&d=https%3A%2F%2Fa.slack-edge.com%2Fdf10d%2Fimg%2Favatars%2Fava_0006-512.png", "custom_css": null}, {"id": 13749, "slack_id": "U093MQGTKU6", "display_name": "Rohan Mandal", "bio": null, "projects_count": 0, "devlogs_count": 0, "votes_count": 0, "ships_count": 0, "projects": [], "coding_time_seconds": 0, "coding_time_seconds_today": 0, "balance": "You need to have a pocket watcher badge to view this.", "badges": [], "created_at": "2025-07-01T00:51:19.757-04:00", "updated_at": "2025-07-03T20:08:58.009-04:00", "avatar": "https://secure.gravatar.com/avatar/f902bc40cdbfebf0e01cdebf5bdccb40.jpg?s=512&d=https%3A%2F%2Fa.slack-edge.com%2Fdf10d%2Fimg%2Favatars%2Fava_0005-512.png", "custom_css": null}, {"id": 13750, "slack_id": "U093L3181A7", "display_name": "Pranjal Saini", "bio": null, "projects_count": 0, "devlogs_count": 0, "votes_count": 0, "ships_count": 0, "projects": [], "coding_time_seconds": 0, "coding_time_seconds_today": 0, "balance": "You need to have a pocket watcher badge to view this.", "badges": [], "created_at": "2025-07-01T01:06:58.989-04:00", "updated_at": "2025-07-04T02:34:04.616-04:00", "avatar": "https://avatars.slack-edge.com/2025-06-30/9130588269652_17e257fadf8617d8e0ad_original.jpg", "custom_css": null}, {"id": 13751, "slack_id": "U093TBDNEDQ", "display_name": "Akshat Nigam", "bio": null, "projects_count": 1, "devlogs_count": 1, "votes_count": 16, "ships_count": 1, "projects": [{"id": 4972, "title": "Snake-Water-Gun Game", "devlogs_count": 1, "created_at": "2025-07-02T13:19:54.161-04:00"}], "coding_time_seconds": 24570, "coding_time_seconds_today": 0, "balance": "You need to have a pocket watcher badge to view this.", "badges": [{"name": "Maiden Voyage", "text": "you shipped your first project! the journey begins...", "icon": "\ud83d\udea2"}], "created_at": "2025-07-01T01:09:02.786-04:00", "updated_at": "2025-09-10T22:58:02.579-04:00", "avatar": "https://secure.gravatar.com/avatar/70457852a6e804c8bdcbe7450a4c038e.jpg?s=512&d=https%3A%2F%2Fa.slack-edge.com%2Fdf10d%2Fimg%2Favatars%2Fava_0013-512.png", "custom_css": null}, {"id": 13752, "slack_id": "U093RF9CV8D", "display_name": "aaaron", "bio": null, "projects_count": 0, "devlogs_count": 0, "votes_count": 0, "ships_count": 0, "projects": [], "coding_time_seconds": 0, "coding_time_seconds_today": 0, "balance": "You need to have a pocket watcher badge to view this.", "badges": [], "created_at": "2025-07-01T01:11:34.484-04:00", "updated_at": "2025-07-03T20:08:58.682-04:00", "avatar": "https://secure.gravatar.com/avatar/c42532e66289fe2fe8a37ff98efc1764.jpg?s=512&d=https%3A%2F%2Fa.slack-edge.com%2Fdf10d%2Fimg%2Favatars%2Fava_0020-512.png", "custom_css": null}, {"id": 13753, "slack_id": "U093RFALRNZ", "display_name": "Praveer", "bio": null, "projects_count": 0, "devlogs_count": 0, "votes_count": 0, "ships_count": 0, "projects": [], "coding_time_seconds": 135705, "coding_time_seconds_today": 0, "balance": "You need to have a pocket watcher badge to view this.", "badges": [], "created_at": "2025-07-01T01:12:13.772-04:00", "updated_at": "2025-07-03T20:08:58.948-04:00", "avatar": "https://secure.gravatar.com/avatar/e43764b5cf4aa4f73b3cf07e342a7356.jpg?s=512&d=https%3A%2F%2Fa.slack-edge.com%2Fdf10d%2Fimg%2Favatars%2Fava_0001-512.png", "custom_css": null}, {"id": 13754, "slack_id": "U08263QKG67", "display_name": "ValixT", "bio": null, "projects_count": 0, "devlogs_count": 0, "votes_count": 0, "ships_count": 0, "projects": [], "coding_time_seconds": 0, "coding_time_seconds_today": 0, "balance": "You need to have a pocket watcher badge to view this.", "badges": [], "created_at": "2025-07-01T01:13:30.492-04:00", "updated_at": "2025-07-03T22:04:49.109-04:00", "avatar": "https://secure.gravatar.com/avatar/e2baa9fde17ad459fd618aaf1ae83a1c.jpg?s=512&d=https%3A%2F%2Fa.slack-edge.com%2Fdf10d%2Fimg%2Favatars%2Fava_0009-512.png", "custom_css": null}, {"id": 13755, "slack_id": "U093UJ525GU", "display_name": "Michael", "bio": null, "projects_count": 0, "devlogs_count": 0, "votes_count": 0, "ships_count": 0, "projects": [], "coding_time_seconds": 0, "coding_time_seconds_today": 0, "balance": "You need to have a pocket watcher badge to view this.", "badges": [], "created_at": "2025-07-01T01:17:55.000-04:00", "updated_at": "2025-07-03T20:08:59.360-04:00", "avatar": "https://secure.gravatar.com/avatar/1b95ace9c475d6e51ad7c75678a69621.jpg?s=512&d=https%3A%2F%2Fa.slack-edge.com%2Fdf10d%2Fimg%2Favatars%2Fava_0024-512.png", "custom_css": null}, {"id": 13756, "slack_id": "U094FBGG8EL", "display_name": "Kenneth", "bio": null, "projects_count": 0, "devlogs_count": 0, "votes_count": 0, "ships_count": 0, "projects": [], "coding_time_seconds": 0, "coding_time_seconds_today": 0, "balance": "You need to have a pocket watcher badge to view this.", "badges": [], "created_at": "2025-07-01T01:19:01.356-04:00", "updated_at": "2025-07-07T15:12:35.043-04:00", "avatar": "https://secure.gravatar.com/avatar/ddb6fb473270ad7285f5ed187e55270b.jpg?s=512&d=https%3A%2F%2Fa.slack-edge.com%2Fdf10d%2Fimg%2Favatars%2Fava_0022-512.png", "custom_css": null}, {"id": 13757, "slack_id": "U06064QAMA6", "display_name": "Julie", "bio": null, "projects_count": 0, "devlogs_count": 0, "votes_count": 0, "ships_count": 0, "projects": [], "coding_time_seconds": 76582, "coding_time_seconds_today": 0, "balance": "You need to have a pocket watcher badge to view this.", "badges": [], "created_at": "2025-07-01T01:20:33.283-04:00", "updated_at": "2025-08-29T03:13:20.789-04:00", "avatar": "https://avatars.slack-edge.com/2025-08-28/9424208897859_3edc08d470b3fa1f93a3_original.png", "custom_css": null}, {"id": 13758, "slack_id": "U093L4C6XJ7", "display_name": "Swarnim Pandey", "bio": null, "projects_count": 0, "devlogs_count": 0, "votes_count": 0, "ships_count": 0, "projects": [], "coding_time_seconds": 25085, "coding_time_seconds_today": 0, "balance": "You need to have a pocket watcher badge to view this.", "badges": [], "created_at": "2025-07-01T01:21:56.964-04:00", "updated_at": "2025-08-15T12:34:42.375-04:00", "avatar": "https://secure.gravatar.com/avatar/dd2472a4ed5f2679fd20976049ef6527.jpg?s=512&d=https%3A%2F%2Fa.slack-edge.com%2Fdf10d%2Fimg%2Favatars%2Fava_0017-512.png", "custom_css": null}, {"id": 13759, "slack_id": "U094FCERCSU", "display_name": "Dominic Yoder", "bio": null, "projects_count": 0, "devlogs_count": 0, "votes_count": 0, "ships_count": 0, "projects": [], "coding_time_seconds": 0, "coding_time_seconds_today": 0, "balance": "You need to have a pocket watcher badge to view this.", "badges": [], "created_at": "2025-07-01T01:29:02.108-04:00", "updated_at": "2025-07-03T20:09:00.423-04:00", "avatar": "https://secure.gravatar.com/avatar/2da31f6149f59a3f81463e28d71e747e.jpg?s=512&d=https%3A%2F%2Fa.slack-edge.com%2Fdf10d%2Fimg%2Favatars%2Fava_0019-512.png", "custom_css": null}, {"id": 13760, "slack_id": "U0925842H5M", "display_name": "Krishna M S", "bio": null, "projects_count": 0, "devlogs_count": 0, "votes_count": 0, "ships_count": 0, "projects": [], "coding_time_seconds": 0, "coding_time_seconds_today": 0, "balance": "You need to have a pocket watcher badge to view this.", "badges": [], "created_at": "2025-07-01T01:30:04.308-04:00", "updated_at": "2025-07-03T20:09:00.696-04:00", "avatar": "https://secure.gravatar.com/avatar/19a066f894251d2e85f6517461d1ae2a.jpg?s=512&d=https%3A%2F%2Fa.slack-edge.com%2Fdf10d%2Fimg%2Favatars%2Fava_0006-512.png", "custom_css": null}], "pagination": {"page": 688, "pages": 1192, "count": 23828, "items": 20}}