{"users": [{"id": 13761, "slack_id": "U093MTEQSKG", "display_name": "SANJAY YOGESWARAN", "bio": null, "projects_count": 0, "devlogs_count": 0, "votes_count": 0, "ships_count": 0, "projects": [], "coding_time_seconds": 0, "coding_time_seconds_today": 0, "balance": "You need to have a pocket watcher badge to view this.", "badges": [], "created_at": "2025-07-01T01:30:29.027-04:00", "updated_at": "2025-07-16T14:26:34.141-04:00", "avatar": "https://avatars.slack-edge.com/2025-06-30/9124189032310_880b582f9cf2fa7affb5_original.png", "custom_css": null}, {"id": 13762, "slack_id": "U093DCPJCFR", "display_name": "mgud", "bio": null, "projects_count": 0, "devlogs_count": 0, "votes_count": 0, "ships_count": 0, "projects": [], "coding_time_seconds": 12550, "coding_time_seconds_today": 0, "balance": "You need to have a pocket watcher badge to view this.", "badges": [], "created_at": "2025-07-01T01:31:18.341-04:00", "updated_at": "2025-07-03T20:09:01.218-04:00", "avatar": "https://secure.gravatar.com/avatar/2cc0c5f9bf76a4972ae5ad87e9af1294.jpg?s=512&d=https%3A%2F%2Fa.slack-edge.com%2Fdf10d%2Fimg%2Favatars%2Fava_0025-512.png", "custom_css": null}, {"id": 13763, "slack_id": "U093C055C4F", "display_name": "Joshua Lea", "bio": null, "projects_count": 0, "devlogs_count": 0, "votes_count": 0, "ships_count": 0, "projects": [], "coding_time_seconds": 0, "coding_time_seconds_today": 0, "balance": "You need to have a pocket watcher badge to view this.", "badges": [], "created_at": "2025-07-01T01:32:47.701-04:00", "updated_at": "2025-07-03T20:09:01.473-04:00", "avatar": "https://secure.gravatar.com/avatar/4a26077c0d9f23281ea60a854223ef53.jpg?s=512&d=https%3A%2F%2Fa.slack-edge.com%2Fdf10d%2Fimg%2Favatars%2Fava_0009-512.png", "custom_css": null}, {"id": 13764, "slack_id": "U093N5GQ56J", "display_name": "Shivansh Agrawal", "bio": null, "projects_count": 0, "devlogs_count": 0, "votes_count": 0, "ships_count": 0, "projects": [], "coding_time_seconds": 0, "coding_time_seconds_today": 0, "balance": "You need to have a pocket watcher badge to view this.", "badges": [], "created_at": "2025-07-01T01:33:54.179-04:00", "updated_at": "2025-07-03T20:09:01.739-04:00", "avatar": "https://secure.gravatar.com/avatar/da7bae680285107c67c0638056cf52c0.jpg?s=512&d=https%3A%2F%2Fa.slack-edge.com%2Fdf10d%2Fimg%2Favatars%2Fava_0017-512.png", "custom_css": null}, {"id": 13765, "slack_id": "U07UTNSE1J5", "display_name": "Bruno Albertoni", "bio": null, "projects_count": 0, "devlogs_count": 0, "votes_count": 0, "ships_count": 0, "projects": [], "coding_time_seconds": 0, "coding_time_seconds_today": 0, "balance": "You need to have a pocket watcher badge to view this.", "badges": [], "created_at": "2025-07-01T01:34:05.986-04:00", "updated_at": "2025-07-03T20:09:01.999-04:00", "avatar": "https://secure.gravatar.com/avatar/0d4050a35a377250c2fb6af1197b7290.jpg?s=512&d=https%3A%2F%2Fa.slack-edge.com%2Fdf10d%2Fimg%2Favatars%2Fava_0014-512.png", "custom_css": null}, {"id": 13766, "slack_id": "U093RHHPL93", "display_name": "Om", "bio": null, "projects_count": 0, "devlogs_count": 0, "votes_count": 0, "ships_count": 0, "projects": [], "coding_time_seconds": 0, "coding_time_seconds_today": 0, "balance": "You need to have a pocket watcher badge to view this.", "badges": [], "created_at": "2025-07-01T01:34:16.088-04:00", "updated_at": "2025-07-03T20:09:02.261-04:00", "avatar": "https://secure.gravatar.com/avatar/b587af72c1d956d36d5011e0cf6765bb.jpg?s=512&d=https%3A%2F%2Fa.slack-edge.com%2Fdf10d%2Fimg%2Favatars%2Fava_0004-512.png", "custom_css": null}, {"id": 13767, "slack_id": "U093DD7UGTH", "display_name": "Lohith", "bio": null, "projects_count": 1, "devlogs_count": 0, "votes_count": 0, "ships_count": 0, "projects": [{"id": 5336, "title": "ChessAIBot", "devlogs_count": 0, "created_at": "2025-07-04T14:19:31.154-04:00"}], "coding_time_seconds": 136519, "coding_time_seconds_today": 0, "balance": "You need to have a pocket watcher badge to view this.", "badges": [], "created_at": "2025-07-01T01:36:52.694-04:00", "updated_at": "2025-08-14T02:50:10.301-04:00", "avatar": "https://secure.gravatar.com/avatar/68cd52fdfdbf319f0cb70f0e67daa718.jpg?s=512&d=https%3A%2F%2Fa.slack-edge.com%2Fdf10d%2Fimg%2Favatars%2Fava_0013-512.png", "custom_css": null}, {"id": 13768, "slack_id": "U093UKYE204", "display_name": "Melat Kebede", "bio": null, "projects_count": 0, "devlogs_count": 0, "votes_count": 0, "ships_count": 0, "projects": [], "coding_time_seconds": 617, "coding_time_seconds_today": 0, "balance": "You need to have a pocket watcher badge to view this.", "badges": [], "created_at": "2025-07-01T01:37:41.857-04:00", "updated_at": "2025-07-03T20:09:02.647-04:00", "avatar": "https://secure.gravatar.com/avatar/3e145be5da7c47824e73878393f01763.jpg?s=512&d=https%3A%2F%2Fa.slack-edge.com%2Fdf10d%2Fimg%2Favatars%2Fava_0023-512.png", "custom_css": null}, {"id": 13769, "slack_id": "U093TE0QTNE", "display_name": "Newton Wakhungu", "bio": null, "projects_count": 1, "devlogs_count": 1, "votes_count": 4, "ships_count": 0, "projects": [{"id": 5177, "title": "EduShare Hub", "devlogs_count": 1, "created_at": "2025-07-03T16:07:44.327-04:00"}], "coding_time_seconds": 86923, "coding_time_seconds_today": 0, "balance": "You need to have a pocket watcher badge to view this.", "badges": [], "created_at": "2025-07-01T01:37:58.602-04:00", "updated_at": "2025-08-20T09:46:42.974-04:00", "avatar": "https://secure.gravatar.com/avatar/7b5e90cbb4d53f318188a6312a6f10eb.jpg?s=512&d=https%3A%2F%2Fa.slack-edge.com%2Fdf10d%2Fimg%2Favatars%2Fava_0012-512.png", "custom_css": null}, {"id": 13770, "slack_id": "U093DDGQ479", "display_name": "Sabari07", "bio": null, "projects_count": 0, "devlogs_count": 0, "votes_count": 0, "ships_count": 0, "projects": [], "coding_time_seconds": 0, "coding_time_seconds_today": 0, "balance": "You need to have a pocket watcher badge to view this.", "badges": [], "created_at": "2025-07-01T01:40:23.874-04:00", "updated_at": "2025-07-04T20:14:39.157-04:00", "avatar": "https://secure.gravatar.com/avatar/879ce8d59f4384883e5dc9c63855f4b2.jpg?s=512&d=https%3A%2F%2Fa.slack-edge.com%2Fdf10d%2Fimg%2Favatars%2Fava_0014-512.png", "custom_css": null}, {"id": 13771, "slack_id": "U0828N10CCU", "display_name": "Kabeer Abbas", "bio": null, "projects_count": 0, "devlogs_count": 0, "votes_count": 1, "ships_count": 0, "projects": [], "coding_time_seconds": 0, "coding_time_seconds_today": 0, "balance": "You need to have a pocket watcher badge to view this.", "badges": [], "created_at": "2025-07-01T01:40:53.648-04:00", "updated_at": "2025-07-03T20:09:03.310-04:00", "avatar": "https://secure.gravatar.com/avatar/62f4c0f96f46f214d7024a61cc5daa81.jpg?s=512&d=https%3A%2F%2Fa.slack-edge.com%2Fdf10d%2Fimg%2Favatars%2Fava_0016-512.png", "custom_css": null}, {"id": 13772, "slack_id": "U093L6HHRQT", "display_name": "sahil", "bio": null, "projects_count": 0, "devlogs_count": 0, "votes_count": 0, "ships_count": 0, "projects": [], "coding_time_seconds": 0, "coding_time_seconds_today": 0, "balance": "You need to have a pocket watcher badge to view this.", "badges": [], "created_at": "2025-07-01T01:45:45.805-04:00", "updated_at": "2025-07-03T20:09:03.566-04:00", "avatar": "https://secure.gravatar.com/avatar/d3d4d1c1a8e0d838bcb519b3f249b406.jpg?s=512&d=https%3A%2F%2Fa.slack-edge.com%2Fdf10d%2Fimg%2Favatars%2Fava_0015-512.png", "custom_css": null}, {"id": 13773, "slack_id": "U093N6VN70E", "display_name": "Vishnu", "bio": null, "projects_count": 0, "devlogs_count": 0, "votes_count": 0, "ships_count": 0, "projects": [], "coding_time_seconds": 0, "coding_time_seconds_today": 0, "balance": "You need to have a pocket watcher badge to view this.", "badges": [], "created_at": "2025-07-01T01:46:48.696-04:00", "updated_at": "2025-07-03T20:09:03.823-04:00", "avatar": "https://secure.gravatar.com/avatar/93874a9986f1fb6fd0820e5c1a70fa9f.jpg?s=512&d=https%3A%2F%2Fa.slack-edge.com%2Fdf10d%2Fimg%2Favatars%2Fava_0013-512.png", "custom_css": null}, {"id": 13774, "slack_id": "U093N6U459C", "display_name": "Himani", "bio": null, "projects_count": 0, "devlogs_count": 0, "votes_count": 0, "ships_count": 0, "projects": [], "coding_time_seconds": 2269, "coding_time_seconds_today": 0, "balance": "You need to have a pocket watcher badge to view this.", "badges": [], "created_at": "2025-07-01T01:49:43.217-04:00", "updated_at": "2025-07-04T08:30:23.092-04:00", "avatar": "https://secure.gravatar.com/avatar/d7429e5264a9c635618fe3f5ae31a00e.jpg?s=512&d=https%3A%2F%2Fa.slack-edge.com%2Fdf10d%2Fimg%2Favatars%2Fava_0000-512.png", "custom_css": null}, {"id": 13775, "slack_id": "U093L754RD1", "display_name": "Girvana Vagisha", "bio": null, "projects_count": 0, "devlogs_count": 0, "votes_count": 0, "ships_count": 0, "projects": [], "coding_time_seconds": 0, "coding_time_seconds_today": 0, "balance": "You need to have a pocket watcher badge to view this.", "badges": [], "created_at": "2025-07-01T01:55:21.964-04:00", "updated_at": "2025-07-03T20:09:04.236-04:00", "avatar": "https://secure.gravatar.com/avatar/21829e825627d02daf58ea4002ffc0c9.jpg?s=512&d=https%3A%2F%2Fa.slack-edge.com%2Fdf10d%2Fimg%2Favatars%2Fava_0010-512.png", "custom_css": null}, {"id": 13776, "slack_id": "U093UMLV0BE", "display_name": "Siya", "bio": null, "projects_count": 0, "devlogs_count": 0, "votes_count": 0, "ships_count": 0, "projects": [], "coding_time_seconds": 9999, "coding_time_seconds_today": 0, "balance": "You need to have a pocket watcher badge to view this.", "badges": [], "created_at": "2025-07-01T01:55:34.860-04:00", "updated_at": "2025-07-04T15:48:46.492-04:00", "avatar": "https://secure.gravatar.com/avatar/cb5c0a8b816282ee24b577e21f156db9.jpg?s=512&d=https%3A%2F%2Fa.slack-edge.com%2Fdf10d%2Fimg%2Favatars%2Fava_0024-512.png", "custom_css": null}, {"id": 13777, "slack_id": "U093L7C9AM9", "display_name": "Athul K Kumar", "bio": null, "projects_count": 0, "devlogs_count": 0, "votes_count": 0, "ships_count": 0, "projects": [], "coding_time_seconds": 0, "coding_time_seconds_today": 0, "balance": "You need to have a pocket watcher badge to view this.", "badges": [], "created_at": "2025-07-01T01:55:59.461-04:00", "updated_at": "2025-07-05T02:15:17.183-04:00", "avatar": "https://secure.gravatar.com/avatar/1bae6a5837938314353c405697cb13a0.jpg?s=512&d=https%3A%2F%2Fa.slack-edge.com%2Fdf10d%2Fimg%2Favatars%2Fava_0013-512.png", "custom_css": null}, {"id": 13778, "slack_id": "U08MB86ULG7", "display_name": "Ayush Sharma", "bio": null, "projects_count": 0, "devlogs_count": 0, "votes_count": 0, "ships_count": 0, "projects": [], "coding_time_seconds": 9619, "coding_time_seconds_today": 0, "balance": "You need to have a pocket watcher badge to view this.", "badges": [], "created_at": "2025-07-01T01:56:40.354-04:00", "updated_at": "2025-08-09T10:08:05.298-04:00", "avatar": "https://secure.gravatar.com/avatar/4537f4355ddc3f9b96a203a37df4b914.jpg?s=512&d=https%3A%2F%2Fa.slack-edge.com%2Fdf10d%2Fimg%2Favatars%2Fava_0011-512.png", "custom_css": null}, {"id": 13779, "slack_id": "U08R9HJN68Y", "display_name": "loliipoppi", "bio": null, "projects_count": 0, "devlogs_count": 0, "votes_count": 0, "ships_count": 0, "projects": [], "coding_time_seconds": 136395, "coding_time_seconds_today": 0, "balance": "You need to have a pocket watcher badge to view this.", "badges": [], "created_at": "2025-07-01T02:05:19.186-04:00", "updated_at": "2025-09-24T15:00:02.605-04:00", "avatar": "https://avatars.slack-edge.com/2025-05-30/8976614644741_a14fd894d6b1337585bf_original.jpg", "custom_css": null}, {"id": 13780, "slack_id": "U093TK3B6V8", "display_name": "Jay Ravlani", "bio": null, "projects_count": 0, "devlogs_count": 0, "votes_count": 0, "ships_count": 0, "projects": [], "coding_time_seconds": 0, "coding_time_seconds_today": 0, "balance": "You need to have a pocket watcher badge to view this.", "badges": [], "created_at": "2025-07-01T02:06:19.432-04:00", "updated_at": "2025-07-04T20:14:39.749-04:00", "avatar": "https://secure.gravatar.com/avatar/323f536d00aff2db4a7a9e30a074ebce.jpg?s=512&d=https%3A%2F%2Fa.slack-edge.com%2Fdf10d%2Fimg%2Favatars%2Fava_0024-512.png", "custom_css": null}], "pagination": {"page": 689, "pages": 1192, "count": 23828, "items": 20}}