{"users": [{"id": 1361, "slack_id": "U06FMCCDS1K", "display_name": "bunnyguy", "bio": "tinkering artist", "projects_count": 1, "devlogs_count": 11, "votes_count": 20, "ships_count": 1, "projects": [{"id": 11384, "title": "bunnyguy.foo v10", "devlogs_count": 10, "created_at": "2025-08-15T12:06:23.563-04:00"}], "coding_time_seconds": 161141, "coding_time_seconds_today": 0, "balance": "You need to have a pocket watcher badge to view this.", "badges": [{"name": "Maiden Voyage", "text": "you shipped your first project! the journey begins...", "icon": "\ud83d\udea2"}], "created_at": "2025-06-16T13:07:44.245-04:00", "updated_at": "2025-09-24T12:02:52.941-04:00", "avatar": "https://avatars.slack-edge.com/2025-09-24/9575647591346_83155eece020ac0e629a_original.png", "custom_css": null}, {"id": 1362, "slack_id": "U09222LQYRF", "display_name": "Sabir Khan", "bio": null, "projects_count": 1, "devlogs_count": 0, "votes_count": 0, "ships_count": 0, "projects": [{"id": 2435, "title": "MoviezNow", "devlogs_count": 0, "created_at": "2025-06-21T03:02:17.709-04:00"}], "coding_time_seconds": 9536, "coding_time_seconds_today": 0, "balance": "You need to have a pocket watcher badge to view this.", "badges": [], "created_at": "2025-06-16T13:08:02.832-04:00", "updated_at": "2025-07-03T19:17:18.017-04:00", "avatar": "https://avatars.slack-edge.com/2025-06-16/9050603136435_d537d7e8f4aa280faee0_original.png", "custom_css": null}, {"id": 1363, "slack_id": "U091PFY7L8J", "display_name": "Paul Limpin", "bio": null, "projects_count": 0, "devlogs_count": 0, "votes_count": 0, "ships_count": 0, "projects": [], "coding_time_seconds": 0, "coding_time_seconds_today": 0, "balance": "You need to have a pocket watcher badge to view this.", "badges": [], "created_at": "2025-06-16T13:08:03.277-04:00", "updated_at": "2025-07-03T19:17:18.293-04:00", "avatar": "https://secure.gravatar.com/avatar/fd7f5cb8d3f9083c7714789b547bfe1d.jpg?s=512&d=https%3A%2F%2Fa.slack-edge.com%2Fdf10d%2Fimg%2Favatars%2Fava_0008-512.png", "custom_css": null}, {"id": 1364, "slack_id": "U091GL3KCUE", "display_name": "Akbar", "bio": null, "projects_count": 0, "devlogs_count": 0, "votes_count": 0, "ships_count": 0, "projects": [], "coding_time_seconds": 119352, "coding_time_seconds_today": 0, "balance": "You need to have a pocket watcher badge to view this.", "badges": [], "created_at": "2025-06-16T13:08:08.241-04:00", "updated_at": "2025-07-03T19:17:18.560-04:00", "avatar": "https://avatars.slack-edge.com/2025-06-16/9080037248592_2b8d7af4c337978a7d7b_original.jpg", "custom_css": null}, {"id": 1365, "slack_id": "U07SX29CECA", "display_name": "froppii", "bio": null, "projects_count": 2, "devlogs_count": 2, "votes_count": 0, "ships_count": 0, "projects": [{"id": 8663, "title": "scheduling app thingy", "devlogs_count": 1, "created_at": "2025-07-28T20:34:35.058-04:00"}, {"id": 13180, "title": "personal-site", "devlogs_count": 1, "created_at": "2025-09-11T00:00:39.006-04:00"}], "coding_time_seconds": 218848, "coding_time_seconds_today": 8316, "balance": "You need to have a pocket watcher badge to view this.", "badges": [], "created_at": "2025-06-16T13:08:22.018-04:00", "updated_at": "2025-08-19T14:03:24.112-04:00", "avatar": "https://avatars.slack-edge.com/2025-08-19/9402604027536_3c6e3985c692f040fdf6_original.jpg", "custom_css": null}, {"id": 1366, "slack_id": "U091GL8FK2S", "display_name": "Juan Trejo", "bio": null, "projects_count": 0, "devlogs_count": 0, "votes_count": 0, "ships_count": 0, "projects": [], "coding_time_seconds": 0, "coding_time_seconds_today": 0, "balance": "You need to have a pocket watcher badge to view this.", "badges": [], "created_at": "2025-06-16T13:08:27.938-04:00", "updated_at": "2025-07-03T19:17:19.081-04:00", "avatar": "https://secure.gravatar.com/avatar/747a1b3b8936eca9d14b374df8740757.jpg?s=512&d=https%3A%2F%2Fa.slack-edge.com%2Fdf10d%2Fimg%2Favatars%2Fava_0002-512.png", "custom_css": null}, {"id": 1367, "slack_id": "U08A100HZT3", "display_name": "Laney", "bio": null, "projects_count": 0, "devlogs_count": 0, "votes_count": 0, "ships_count": 0, "projects": [], "coding_time_seconds": 132321, "coding_time_seconds_today": 0, "balance": "You need to have a pocket watcher badge to view this.", "badges": [], "created_at": "2025-06-16T13:08:54.762-04:00", "updated_at": "2025-07-03T19:17:19.352-04:00", "avatar": "https://secure.gravatar.com/avatar/aa30099007cc9f4a419054c7e67088f4.jpg?s=512&d=https%3A%2F%2Fa.slack-edge.com%2Fdf10d%2Fimg%2Favatars%2Fava_0020-512.png", "custom_css": null}, {"id": 1368, "slack_id": "U091PUG6BGC", "display_name": "Adriaan", "bio": null, "projects_count": 0, "devlogs_count": 0, "votes_count": 0, "ships_count": 0, "projects": [], "coding_time_seconds": 1413, "coding_time_seconds_today": 0, "balance": "You need to have a pocket watcher badge to view this.", "badges": [], "created_at": "2025-06-16T13:08:55.111-04:00", "updated_at": "2025-07-03T19:17:19.644-04:00", "avatar": "https://secure.gravatar.com/avatar/8c6e4426c36c436be7336412abb0c159.jpg?s=512&d=https%3A%2F%2Fa.slack-edge.com%2Fdf10d%2Fimg%2Favatars%2Fava_0015-512.png", "custom_css": null}, {"id": 1369, "slack_id": "U091G8VDY1Z", "display_name": "David Zumaquero Mairena", "bio": null, "projects_count": 0, "devlogs_count": 0, "votes_count": 0, "ships_count": 0, "projects": [], "coding_time_seconds": 191872, "coding_time_seconds_today": 0, "balance": "You need to have a pocket watcher badge to view this.", "badges": [], "created_at": "2025-06-16T13:08:56.483-04:00", "updated_at": "2025-07-03T19:17:19.913-04:00", "avatar": "https://avatars.slack-edge.com/2025-06-16/9050608633795_38d5d2008cefa466b6f2_original.jpg", "custom_css": null}, {"id": 1370, "slack_id": "U091PUGHMDJ", "display_name": "Yashesh Mehta", "bio": null, "projects_count": 0, "devlogs_count": 0, "votes_count": 0, "ships_count": 0, "projects": [], "coding_time_seconds": 0, "coding_time_seconds_today": 0, "balance": "You need to have a pocket watcher badge to view this.", "badges": [], "created_at": "2025-06-16T13:09:05.441-04:00", "updated_at": "2025-07-03T19:17:20.179-04:00", "avatar": "https://secure.gravatar.com/avatar/8ec69c2e4d7962f232b7e22e8a0a741c.jpg?s=512&d=https%3A%2F%2Fa.slack-edge.com%2Fdf10d%2Fimg%2Favatars%2Fava_0006-512.png", "custom_css": null}, {"id": 1371, "slack_id": "U091GL9T63Y", "display_name": "Laura", "bio": null, "projects_count": 0, "devlogs_count": 0, "votes_count": 0, "ships_count": 0, "projects": [], "coding_time_seconds": 953, "coding_time_seconds_today": 0, "balance": "You need to have a pocket watcher badge to view this.", "badges": [], "created_at": "2025-06-16T13:09:09.085-04:00", "updated_at": "2025-07-03T19:17:20.453-04:00", "avatar": "https://secure.gravatar.com/avatar/234cff47305fc52eef4eb83b642da9b5.jpg?s=512&d=https%3A%2F%2Fa.slack-edge.com%2Fdf10d%2Fimg%2Favatars%2Fava_0005-512.png", "custom_css": null}, {"id": 1372, "slack_id": "U09186XL9L7", "display_name": "qrywo", "bio": null, "projects_count": 0, "devlogs_count": 0, "votes_count": 0, "ships_count": 0, "projects": [], "coding_time_seconds": 0, "coding_time_seconds_today": 0, "balance": "You need to have a pocket watcher badge to view this.", "badges": [], "created_at": "2025-06-16T13:09:24.309-04:00", "updated_at": "2025-07-03T19:17:20.713-04:00", "avatar": "https://secure.gravatar.com/avatar/185a61750d65ebf88573fcfe9de9dd89.jpg?s=512&d=https%3A%2F%2Fa.slack-edge.com%2Fdf10d%2Fimg%2Favatars%2Fava_0026-512.png", "custom_css": null}, {"id": 1373, "slack_id": "U091GDYR07Q", "display_name": "Javier Ruano", "bio": null, "projects_count": 0, "devlogs_count": 0, "votes_count": 0, "ships_count": 0, "projects": [], "coding_time_seconds": 0, "coding_time_seconds_today": 0, "balance": "You need to have a pocket watcher badge to view this.", "badges": [], "created_at": "2025-06-16T13:09:26.882-04:00", "updated_at": "2025-07-03T19:17:20.980-04:00", "avatar": "https://avatars.slack-edge.com/2025-06-16/9057570045730_3e940120a1747d747e89_original.jpg", "custom_css": null}, {"id": 1374, "slack_id": "U091MP05G6R", "display_name": "nvrcharan", "bio": null, "projects_count": 0, "devlogs_count": 0, "votes_count": 0, "ships_count": 0, "projects": [], "coding_time_seconds": 0, "coding_time_seconds_today": 0, "balance": "You need to have a pocket watcher badge to view this.", "badges": [], "created_at": "2025-06-16T13:09:33.846-04:00", "updated_at": "2025-07-03T19:17:21.243-04:00", "avatar": "https://secure.gravatar.com/avatar/551a006cb4ba43f875b23edf989bd208.jpg?s=512&d=https%3A%2F%2Fa.slack-edge.com%2Fdf10d%2Fimg%2Favatars%2Fava_0010-512.png", "custom_css": null}, {"id": 1375, "slack_id": "U091GLDBMFG", "display_name": "Felipe Quental", "bio": null, "projects_count": 0, "devlogs_count": 0, "votes_count": 0, "ships_count": 0, "projects": [], "coding_time_seconds": 0, "coding_time_seconds_today": 0, "balance": "You need to have a pocket watcher badge to view this.", "badges": [], "created_at": "2025-06-16T13:09:38.257-04:00", "updated_at": "2025-07-03T19:17:21.514-04:00", "avatar": "https://secure.gravatar.com/avatar/6e34f1c4aeebacb95c9fc266f295a5a3.jpg?s=512&d=https%3A%2F%2Fa.slack-edge.com%2Fdf10d%2Fimg%2Favatars%2Fava_0003-512.png", "custom_css": null}, {"id": 1376, "slack_id": "U091PFTE75G", "display_name": "Mohit Agarwal", "bio": null, "projects_count": 0, "devlogs_count": 0, "votes_count": 0, "ships_count": 0, "projects": [], "coding_time_seconds": 0, "coding_time_seconds_today": 0, "balance": "You need to have a pocket watcher badge to view this.", "badges": [], "created_at": "2025-06-16T13:09:40.981-04:00", "updated_at": "2025-07-03T19:17:21.796-04:00", "avatar": "https://secure.gravatar.com/avatar/0c14eed118c1a9415a366a6b3a2b0487.jpg?s=512&d=https%3A%2F%2Fa.slack-edge.com%2Fdf10d%2Fimg%2Favatars%2Fava_0021-512.png", "custom_css": null}, {"id": 1377, "slack_id": "U091MP0F537", "display_name": "Mr. Aniket", "bio": null, "projects_count": 0, "devlogs_count": 0, "votes_count": 0, "ships_count": 0, "projects": [], "coding_time_seconds": 0, "coding_time_seconds_today": 0, "balance": "You need to have a pocket watcher badge to view this.", "badges": [], "created_at": "2025-06-16T13:09:50.390-04:00", "updated_at": "2025-07-03T19:17:22.064-04:00", "avatar": "https://secure.gravatar.com/avatar/c620e41d7b00a847546e59ff2403eb0c.jpg?s=512&d=https%3A%2F%2Fa.slack-edge.com%2Fdf10d%2Fimg%2Favatars%2Fava_0003-512.png", "custom_css": null}, {"id": 1378, "slack_id": "U08B4GTKLDS", "display_name": "lumentae", "bio": "", "projects_count": 5, "devlogs_count": 24, "votes_count": 41, "ships_count": 3, "projects": [{"id": 9137, "title": "Orbital Outposts", "devlogs_count": 2, "created_at": "2025-07-30T18:25:42.065-04:00"}, {"id": 11174, "title": "3d Printing Service", "devlogs_count": 1, "created_at": "2025-08-13T19:00:04.682-04:00"}, {"id": 11803, "title": "Provisioner", "devlogs_count": 19, "created_at": "2025-08-19T16:35:45.691-04:00"}, {"id": 12777, "title": "Wool and Fire", "devlogs_count": 1, "created_at": "2025-09-02T10:56:53.463-04:00"}, {"id": 5436, "title": "Personal Website", "devlogs_count": 1, "created_at": "2025-07-05T09:52:52.845-04:00"}], "coding_time_seconds": 487154, "coding_time_seconds_today": 0, "balance": "You need to have a pocket watcher badge to view this.", "badges": [{"name": "Maiden Voyage", "text": "you shipped your first project! the journey begins...", "icon": "\ud83d\udea2"}], "created_at": "2025-06-16T13:10:01.445-04:00", "updated_at": "2025-09-14T18:03:24.684-04:00", "avatar": "https://avatars.slack-edge.com/2025-09-14/9542357345808_dc597f9c1fbe472e55af_original.jpg", "custom_css": null}, {"id": 1379, "slack_id": "U091874TDUP", "display_name": "Aditya Tapase", "bio": null, "projects_count": 0, "devlogs_count": 0, "votes_count": 0, "ships_count": 0, "projects": [], "coding_time_seconds": 0, "coding_time_seconds_today": 0, "balance": "You need to have a pocket watcher badge to view this.", "badges": [], "created_at": "2025-06-16T13:10:03.193-04:00", "updated_at": "2025-07-03T19:17:22.599-04:00", "avatar": "https://secure.gravatar.com/avatar/6fe1616076d97cd5f0e80145d7997bcf.jpg?s=512&d=https%3A%2F%2Fa.slack-edge.com%2Fdf10d%2Fimg%2Favatars%2Fava_0016-512.png", "custom_css": null}, {"id": 1380, "slack_id": "U092C103KLY", "display_name": "Galih Ridho Utomo", "bio": null, "projects_count": 0, "devlogs_count": 0, "votes_count": 0, "ships_count": 0, "projects": [], "coding_time_seconds": 83912, "coding_time_seconds_today": 0, "balance": "You need to have a pocket watcher badge to view this.", "badges": [], "created_at": "2025-06-16T13:10:12.386-04:00", "updated_at": "2025-07-03T19:17:22.889-04:00", "avatar": "https://avatars.slack-edge.com/2025-06-16/9055802344165_dd7c522ae96a1d06c400_original.jpg", "custom_css": null}], "pagination": {"page": 69, "pages": 1192, "count": 23827, "items": 20}}