{"users": [{"id": 13781, "slack_id": "U094FGSL43S", "display_name": "Vansh", "bio": null, "projects_count": 0, "devlogs_count": 0, "votes_count": 0, "ships_count": 0, "projects": [], "coding_time_seconds": 0, "coding_time_seconds_today": 0, "balance": "You need to have a pocket watcher badge to view this.", "badges": [], "created_at": "2025-07-01T02:09:25.822-04:00", "updated_at": "2025-07-03T20:09:05.644-04:00", "avatar": "https://avatars.slack-edge.com/2025-06-30/9129680249826_f981c143aa8e0809deed_original.jpg", "custom_css": null}, {"id": 13782, "slack_id": "U093N9FU3JS", "display_name": "Pardheev_dev", "bio": null, "projects_count": 0, "devlogs_count": 0, "votes_count": 0, "ships_count": 0, "projects": [], "coding_time_seconds": 0, "coding_time_seconds_today": 0, "balance": "You need to have a pocket watcher badge to view this.", "badges": [], "created_at": "2025-07-01T02:09:56.470-04:00", "updated_at": "2025-08-04T23:18:20.265-04:00", "avatar": "https://secure.gravatar.com/avatar/b2c57a3f7fec0b1c6490decabbdd5419.jpg?s=512&d=https%3A%2F%2Fa.slack-edge.com%2Fdf10d%2Fimg%2Favatars%2Fava_0000-512.png", "custom_css": null}, {"id": 13783, "slack_id": "U093TKR7E9G", "display_name": "Anubhav", "bio": null, "projects_count": 0, "devlogs_count": 0, "votes_count": 0, "ships_count": 0, "projects": [], "coding_time_seconds": 0, "coding_time_seconds_today": 0, "balance": "You need to have a pocket watcher badge to view this.", "badges": [], "created_at": "2025-07-01T02:10:16.630-04:00", "updated_at": "2025-07-03T20:09:06.177-04:00", "avatar": "https://secure.gravatar.com/avatar/f469a5c27da4e978c2bc63f1f625753f.jpg?s=512&d=https%3A%2F%2Fa.slack-edge.com%2Fdf10d%2Fimg%2Favatars%2Fava_0007-512.png", "custom_css": null}, {"id": 13784, "slack_id": "U07GGBEM613", "display_name": "Lucky Kumar", "bio": null, "projects_count": 0, "devlogs_count": 0, "votes_count": 0, "ships_count": 0, "projects": [], "coding_time_seconds": 0, "coding_time_seconds_today": 0, "balance": "You need to have a pocket watcher badge to view this.", "badges": [], "created_at": "2025-07-01T02:10:42.892-04:00", "updated_at": "2025-07-03T20:09:06.433-04:00", "avatar": "https://secure.gravatar.com/avatar/6fc5ec9668bbd3797b550ba25ebe8f06.jpg?s=512&d=https%3A%2F%2Fa.slack-edge.com%2Fdf10d%2Fimg%2Favatars%2Fava_0001-512.png", "custom_css": null}, {"id": 13785, "slack_id": "U08RH40589K", "display_name": "noahsh.dev", "bio": null, "projects_count": 2, "devlogs_count": 6, "votes_count": 3, "ships_count": 0, "projects": [{"id": 4664, "title": "Antenna", "devlogs_count": 2, "created_at": "2025-07-01T02:31:54.091-04:00"}, {"id": 12340, "title": "Linux 2: Electric Boogaloo (NOS)", "devlogs_count": 4, "created_at": "2025-08-26T00:45:18.562-04:00"}], "coding_time_seconds": 85386, "coding_time_seconds_today": 0, "balance": "You need to have a pocket watcher badge to view this.", "badges": [], "created_at": "2025-07-01T02:12:37.087-04:00", "updated_at": "2025-08-26T00:47:26.852-04:00", "avatar": "https://avatars.slack-edge.com/2025-06-16/9059252732004_cc3fee4cf9eca8e45aa9_original.png", "custom_css": null}, {"id": 13786, "slack_id": "U093RMU1CCD", "display_name": "fristy", "bio": null, "projects_count": 0, "devlogs_count": 0, "votes_count": 0, "ships_count": 0, "projects": [], "coding_time_seconds": 0, "coding_time_seconds_today": 0, "balance": "You need to have a pocket watcher badge to view this.", "badges": [], "created_at": "2025-07-01T02:14:48.918-04:00", "updated_at": "2025-07-03T20:09:06.831-04:00", "avatar": "https://avatars.slack-edge.com/2025-07-01/9129706997298_eab6f7df1ad7e4720e4e_original.png", "custom_css": null}, {"id": 13787, "slack_id": "U08RZ8HAKHV", "display_name": "MihinMUD", "bio": null, "projects_count": 1, "devlogs_count": 1, "votes_count": 1, "ships_count": 0, "projects": [{"id": 9047, "title": "School ICT Club website", "devlogs_count": 1, "created_at": "2025-07-30T09:44:00.721-04:00"}], "coding_time_seconds": 87891, "coding_time_seconds_today": 0, "balance": "You need to have a pocket watcher badge to view this.", "badges": [], "created_at": "2025-07-01T02:18:46.636-04:00", "updated_at": "2025-07-30T09:35:48.869-04:00", "avatar": "https://secure.gravatar.com/avatar/695d9f9d67600c3599653b72ad3df384.jpg?s=512&d=https%3A%2F%2Fa.slack-edge.com%2Fdf10d%2Fimg%2Favatars%2Fava_0021-512.png", "custom_css": null}, {"id": 13788, "slack_id": "U093NAXDJ94", "display_name": "Aditya Kumar", "bio": null, "projects_count": 0, "devlogs_count": 0, "votes_count": 0, "ships_count": 0, "projects": [], "coding_time_seconds": 0, "coding_time_seconds_today": 0, "balance": "You need to have a pocket watcher badge to view this.", "badges": [], "created_at": "2025-07-01T02:21:07.137-04:00", "updated_at": "2025-07-03T22:04:52.036-04:00", "avatar": "https://secure.gravatar.com/avatar/31deb8382e4692df4442d9a45af536be.jpg?s=512&d=https%3A%2F%2Fa.slack-edge.com%2Fdf10d%2Fimg%2Favatars%2Fava_0014-512.png", "custom_css": null}, {"id": 13789, "slack_id": "U07UKCU9R6H", "display_name": "Sherlock Holmes", "bio": null, "projects_count": 2, "devlogs_count": 2, "votes_count": 8, "ships_count": 1, "projects": [{"id": 10348, "title": "rust-cite", "devlogs_count": 0, "created_at": "2025-08-06T06:30:12.810-04:00"}, {"id": 10719, "title": "markov-text", "devlogs_count": 2, "created_at": "2025-08-10T03:17:15.232-04:00"}], "coding_time_seconds": 93026, "coding_time_seconds_today": 0, "balance": "You need to have a pocket watcher badge to view this.", "badges": [{"name": "Maiden Voyage", "text": "you shipped your first project! the journey begins...", "icon": "\ud83d\udea2"}], "created_at": "2025-07-01T02:29:23.322-04:00", "updated_at": "2025-09-10T22:58:03.672-04:00", "avatar": "https://secure.gravatar.com/avatar/06d296d68a1e1593e9b27bd90ebbad2d.jpg?s=512&d=https%3A%2F%2Fa.slack-edge.com%2Fdf10d%2Fimg%2Favatars%2Fava_0012-512.png", "custom_css": null}, {"id": 13790, "slack_id": "U093URNVC84", "display_name": "bober", "bio": null, "projects_count": 1, "devlogs_count": 37, "votes_count": 26, "ships_count": 1, "projects": [{"id": 4772, "title": "Minecraft++", "devlogs_count": 37, "created_at": "2025-07-01T12:42:02.939-04:00"}], "coding_time_seconds": 630223, "coding_time_seconds_today": 0, "balance": "You need to have a pocket watcher badge to view this.", "badges": [{"name": "Maiden Voyage", "text": "you shipped your first project! the journey begins...", "icon": "\ud83d\udea2"}, {"name": "Spider", "text": "this user has a pet!", "icon": "\ud83d\udd77\ufe0f"}, {"name": "Verified", "text": "this user is verified (i.e. gave us $8)", "icon": "https://summer.hackclub.com/assets/verified-c9457a9f.png"}], "created_at": "2025-07-01T02:31:43.579-04:00", "updated_at": "2025-09-10T22:58:03.698-04:00", "avatar": "https://avatars.slack-edge.com/2025-07-21/9226386508754_93f09931bd192a42e435_original.png", "custom_css": null}, {"id": 13791, "slack_id": "U093TP669PC", "display_name": "Chandransh Gupta", "bio": null, "projects_count": 0, "devlogs_count": 0, "votes_count": 0, "ships_count": 0, "projects": [], "coding_time_seconds": 1594, "coding_time_seconds_today": 0, "balance": "You need to have a pocket watcher badge to view this.", "badges": [], "created_at": "2025-07-01T02:40:43.914-04:00", "updated_at": "2025-07-03T20:09:07.796-04:00", "avatar": "https://secure.gravatar.com/avatar/7aba9027d4460689e8f62ec588cf8927.jpg?s=512&d=https%3A%2F%2Fa.slack-edge.com%2Fdf10d%2Fimg%2Favatars%2Fava_0008-512.png", "custom_css": null}, {"id": 13792, "slack_id": "U07ACR6NMC2", "display_name": "ThePangel", "bio": null, "projects_count": 5, "devlogs_count": 21, "votes_count": 52, "ships_count": 4, "projects": [{"id": 7822, "title": ": \\> Bashr!_", "devlogs_count": 4, "created_at": "2025-07-23T06:49:47.864-04:00"}, {"id": 8723, "title": "Lynkr", "devlogs_count": 11, "created_at": "2025-07-29T03:15:11.134-04:00"}, {"id": 5011, "title": "Prusce", "devlogs_count": 4, "created_at": "2025-07-02T17:42:44.623-04:00"}, {"id": 10867, "title": "RustifyDL", "devlogs_count": 1, "created_at": "2025-08-11T12:15:46.981-04:00"}, {"id": 4682, "title": "spotGrab", "devlogs_count": 1, "created_at": "2025-07-01T04:45:42.374-04:00"}], "coding_time_seconds": 394365, "coding_time_seconds_today": 0, "balance": "You need to have a pocket watcher badge to view this.", "badges": [{"name": "Maiden Voyage", "text": "you shipped your first project! the journey begins...", "icon": "\ud83d\udea2"}], "created_at": "2025-07-01T02:45:43.438-04:00", "updated_at": "2025-09-10T22:58:03.758-04:00", "avatar": "https://avatars.slack-edge.com/2025-05-18/8906441764611_820a0024ea27ac39d08f_original.jpg", "custom_css": null}, {"id": 13793, "slack_id": "U093LD9EDEX", "display_name": "Shreyansh Koladiya", "bio": null, "projects_count": 0, "devlogs_count": 0, "votes_count": 0, "ships_count": 0, "projects": [], "coding_time_seconds": 0, "coding_time_seconds_today": 0, "balance": "You need to have a pocket watcher badge to view this.", "badges": [], "created_at": "2025-07-01T02:46:50.255-04:00", "updated_at": "2025-07-03T20:09:08.192-04:00", "avatar": "https://secure.gravatar.com/avatar/9255df32a9ff89a19a9b3cfb6963cb64.jpg?s=512&d=https%3A%2F%2Fa.slack-edge.com%2Fdf10d%2Fimg%2Favatars%2Fava_0024-512.png", "custom_css": null}, {"id": 13794, "slack_id": "U090A9JL10Q", "display_name": "Kasturi V", "bio": null, "projects_count": 0, "devlogs_count": 0, "votes_count": 0, "ships_count": 0, "projects": [], "coding_time_seconds": 0, "coding_time_seconds_today": 0, "balance": "You need to have a pocket watcher badge to view this.", "badges": [], "created_at": "2025-07-01T02:48:19.450-04:00", "updated_at": "2025-07-03T20:09:08.447-04:00", "avatar": "https://secure.gravatar.com/avatar/2d808df6e72ec6c920659e38d0bb1a80.jpg?s=512&d=https%3A%2F%2Fa.slack-edge.com%2Fdf10d%2Fimg%2Favatars%2Fava_0003-512.png", "custom_css": null}, {"id": 13795, "slack_id": "U094FMKB4MN", "display_name": "Hems", "bio": null, "projects_count": 0, "devlogs_count": 0, "votes_count": 0, "ships_count": 0, "projects": [], "coding_time_seconds": 0, "coding_time_seconds_today": 0, "balance": "You need to have a pocket watcher badge to view this.", "badges": [], "created_at": "2025-07-01T02:53:03.204-04:00", "updated_at": "2025-07-03T20:09:08.704-04:00", "avatar": "https://secure.gravatar.com/avatar/52d6e30ce3d7882fdbbe17cdb0bc732f.jpg?s=512&d=https%3A%2F%2Fa.slack-edge.com%2Fdf10d%2Fimg%2Favatars%2Fava_0007-512.png", "custom_css": null}, {"id": 13796, "slack_id": "U093DN3FE07", "display_name": "Ayush", "bio": null, "projects_count": 0, "devlogs_count": 0, "votes_count": 0, "ships_count": 0, "projects": [], "coding_time_seconds": 0, "coding_time_seconds_today": 0, "balance": "You need to have a pocket watcher badge to view this.", "badges": [], "created_at": "2025-07-01T02:55:02.309-04:00", "updated_at": "2025-07-03T20:09:08.964-04:00", "avatar": "https://secure.gravatar.com/avatar/4bc5d8fcdb6b52b12770e6e4bafe8bca.jpg?s=512&d=https%3A%2F%2Fa.slack-edge.com%2Fdf10d%2Fimg%2Favatars%2Fava_0018-512.png", "custom_css": null}, {"id": 13797, "slack_id": "U093RSSGTGV", "display_name": "vaibhav parte", "bio": null, "projects_count": 0, "devlogs_count": 0, "votes_count": 0, "ships_count": 0, "projects": [], "coding_time_seconds": 0, "coding_time_seconds_today": 0, "balance": "You need to have a pocket watcher badge to view this.", "badges": [], "created_at": "2025-07-01T02:57:16.514-04:00", "updated_at": "2025-07-05T20:15:43.838-04:00", "avatar": "https://avatars.slack-edge.com/2025-06-30/9127929100341_6e48bc6bd4225eac299a_original.jpg", "custom_css": null}, {"id": 13798, "slack_id": "U093DNEKL5D", "display_name": "Mani Kiran Sagar", "bio": null, "projects_count": 0, "devlogs_count": 0, "votes_count": 0, "ships_count": 0, "projects": [], "coding_time_seconds": 0, "coding_time_seconds_today": 0, "balance": "You need to have a pocket watcher badge to view this.", "badges": [], "created_at": "2025-07-01T02:59:11.277-04:00", "updated_at": "2025-07-03T22:04:53.437-04:00", "avatar": "https://secure.gravatar.com/avatar/c73982ee166877e03a15187a1214beeb.jpg?s=512&d=https%3A%2F%2Fa.slack-edge.com%2Fdf10d%2Fimg%2Favatars%2Fava_0012-512.png", "custom_css": null}, {"id": 13799, "slack_id": "U093F9D1Z6W", "display_name": "Elhanan", "bio": null, "projects_count": 0, "devlogs_count": 0, "votes_count": 0, "ships_count": 0, "projects": [], "coding_time_seconds": 0, "coding_time_seconds_today": 0, "balance": "You need to have a pocket watcher badge to view this.", "badges": [], "created_at": "2025-07-01T02:59:46.563-04:00", "updated_at": "2025-07-08T03:11:43.425-04:00", "avatar": "https://avatars.slack-edge.com/2025-07-06/9176599086864_40ed0060ebea8fab1ef7_original.jpg", "custom_css": null}, {"id": 13800, "slack_id": "U094FPD11CG", "display_name": "Daniel Xu", "bio": null, "projects_count": 0, "devlogs_count": 0, "votes_count": 0, "ships_count": 0, "projects": [], "coding_time_seconds": 0, "coding_time_seconds_today": 0, "balance": "You need to have a pocket watcher badge to view this.", "badges": [], "created_at": "2025-07-01T03:03:17.763-04:00", "updated_at": "2025-07-03T20:09:09.759-04:00", "avatar": "https://secure.gravatar.com/avatar/c988fbc7f177f79c23c97784d70c9d8d.jpg?s=512&d=https%3A%2F%2Fa.slack-edge.com%2Fdf10d%2Fimg%2Favatars%2Fava_0000-512.png", "custom_css": null}], "pagination": {"page": 690, "pages": 1192, "count": 23828, "items": 20}}