{"users": [{"id": 13801, "slack_id": "U094FQCCF40", "display_name": "Basanta", "bio": null, "projects_count": 3, "devlogs_count": 13, "votes_count": 100, "ships_count": 3, "projects": [{"id": 12369, "title": "Personal Website", "devlogs_count": 1, "created_at": "2025-08-26T10:29:12.849-04:00"}, {"id": 5958, "title": "Terminal Spiel", "devlogs_count": 10, "created_at": "2025-07-09T12:07:37.571-04:00"}, {"id": 13589, "title": "PY DOS", "devlogs_count": 3, "created_at": "2025-09-20T08:08:10.999-04:00"}], "coding_time_seconds": 244695, "coding_time_seconds_today": 2030, "balance": "You need to have a pocket watcher badge to view this.", "badges": [{"name": "Maiden Voyage", "text": "you shipped your first project! the journey begins...", "icon": "\ud83d\udea2"}, {"name": "Yapper I", "text": "Posted 10 comments on devlogs.", "icon": "\ud83d\udcac"}, {"name": "Ballot Stuffer", "text": "vote 100 times.", "icon": "https://summer.hackclub.com/assets/i_voted-bf851b48.png"}], "created_at": "2025-07-01T03:10:09.133-04:00", "updated_at": "2025-09-21T09:52:59.440-04:00", "avatar": "https://avatars.slack-edge.com/2025-07-01/9152038664368_73978855755bc43cbf22_original.jpg", "custom_css": null}, {"id": 13802, "slack_id": "U093BG99JNT", "display_name": "Pushkar Gupta", "bio": null, "projects_count": 0, "devlogs_count": 0, "votes_count": 0, "ships_count": 0, "projects": [], "coding_time_seconds": 0, "coding_time_seconds_today": 0, "balance": "You need to have a pocket watcher badge to view this.", "badges": [], "created_at": "2025-07-01T03:11:24.650-04:00", "updated_at": "2025-07-03T20:09:10.278-04:00", "avatar": "https://secure.gravatar.com/avatar/23dba25029f98abf60d42e6e8e71ce59.jpg?s=512&d=https%3A%2F%2Fa.slack-edge.com%2Fdf10d%2Fimg%2Favatars%2Fava_0019-512.png", "custom_css": null}, {"id": 13803, "slack_id": "U093LHFP3B5", "display_name": "Ayush Kumar Singh", "bio": null, "projects_count": 0, "devlogs_count": 0, "votes_count": 0, "ships_count": 0, "projects": [], "coding_time_seconds": 7607, "coding_time_seconds_today": 0, "balance": "You need to have a pocket watcher badge to view this.", "badges": [], "created_at": "2025-07-01T03:17:50.339-04:00", "updated_at": "2025-07-03T20:09:10.536-04:00", "avatar": "https://secure.gravatar.com/avatar/cdf3417696a883d896b3e61ccabaeb2f.jpg?s=512&d=https%3A%2F%2Fa.slack-edge.com%2Fdf10d%2Fimg%2Favatars%2Fava_0003-512.png", "custom_css": null}, {"id": 13804, "slack_id": "U093DRMU7E3", "display_name": "Zubair", "bio": null, "projects_count": 0, "devlogs_count": 0, "votes_count": 0, "ships_count": 0, "projects": [], "coding_time_seconds": 0, "coding_time_seconds_today": 0, "balance": "You need to have a pocket watcher badge to view this.", "badges": [], "created_at": "2025-07-01T03:19:56.802-04:00", "updated_at": "2025-07-04T20:14:42.117-04:00", "avatar": "https://secure.gravatar.com/avatar/5fcbe4c218363e29d75a28b4e1f91eb6.jpg?s=512&d=https%3A%2F%2Fa.slack-edge.com%2Fdf10d%2Fimg%2Favatars%2Fava_0007-512.png", "custom_css": null}, {"id": 13805, "slack_id": "U093TV06YN6", "display_name": "Plaban", "bio": null, "projects_count": 0, "devlogs_count": 0, "votes_count": 0, "ships_count": 0, "projects": [], "coding_time_seconds": 0, "coding_time_seconds_today": 0, "balance": "You need to have a pocket watcher badge to view this.", "badges": [], "created_at": "2025-07-01T03:21:14.518-04:00", "updated_at": "2025-07-04T02:34:08.268-04:00", "avatar": "https://secure.gravatar.com/avatar/2613fa3257832ebea24fa6abd5319430.jpg?s=512&d=https%3A%2F%2Fa.slack-edge.com%2Fdf10d%2Fimg%2Favatars%2Fava_0018-512.png", "custom_css": null}, {"id": 13806, "slack_id": "U092KNU7JNQ", "display_name": "Yogendra", "bio": null, "projects_count": 0, "devlogs_count": 0, "votes_count": 0, "ships_count": 0, "projects": [], "coding_time_seconds": 0, "coding_time_seconds_today": 0, "balance": "You need to have a pocket watcher badge to view this.", "badges": [], "created_at": "2025-07-01T03:22:07.696-04:00", "updated_at": "2025-07-06T03:02:30.274-04:00", "avatar": "https://secure.gravatar.com/avatar/7bdf1e36bb7afe71e3222efc1887b45c.jpg?s=512&d=https%3A%2F%2Fa.slack-edge.com%2Fdf10d%2Fimg%2Favatars%2Fava_0002-512.png", "custom_css": null}, {"id": 13807, "slack_id": "U0934TKG0MA", "display_name": "Victor", "bio": null, "projects_count": 0, "devlogs_count": 0, "votes_count": 0, "ships_count": 0, "projects": [], "coding_time_seconds": 0, "coding_time_seconds_today": 0, "balance": "You need to have a pocket watcher badge to view this.", "badges": [], "created_at": "2025-07-01T03:25:54.311-04:00", "updated_at": "2025-07-03T20:09:11.290-04:00", "avatar": "https://secure.gravatar.com/avatar/ffb27c564d28da161cd2e6e6c87012a4.jpg?s=512&d=https%3A%2F%2Fa.slack-edge.com%2Fdf10d%2Fimg%2Favatars%2Fava_0026-512.png", "custom_css": null}, {"id": 13808, "slack_id": "U091S0SGYBE", "display_name": "Lily", "bio": null, "projects_count": 0, "devlogs_count": 0, "votes_count": 0, "ships_count": 0, "projects": [], "coding_time_seconds": 0, "coding_time_seconds_today": 0, "balance": "You need to have a pocket watcher badge to view this.", "badges": [], "created_at": "2025-07-01T03:26:04.330-04:00", "updated_at": "2025-07-03T20:09:11.548-04:00", "avatar": "https://secure.gravatar.com/avatar/dfcec180b269fd5971685aaea9b4d9eb.jpg?s=512&d=https%3A%2F%2Fa.slack-edge.com%2Fdf10d%2Fimg%2Favatars%2Fava_0019-512.png", "custom_css": null}, {"id": 13809, "slack_id": "U093KJLRGVC", "display_name": "Prathamesh", "bio": null, "projects_count": 0, "devlogs_count": 0, "votes_count": 0, "ships_count": 0, "projects": [], "coding_time_seconds": 0, "coding_time_seconds_today": 0, "balance": "You need to have a pocket watcher badge to view this.", "badges": [], "created_at": "2025-07-01T03:27:00.629-04:00", "updated_at": "2025-07-03T20:09:11.813-04:00", "avatar": "https://secure.gravatar.com/avatar/e1a8ea0eed8d3c79e7db36e51dab156a.jpg?s=512&d=https%3A%2F%2Fa.slack-edge.com%2Fdf10d%2Fimg%2Favatars%2Fava_0001-512.png", "custom_css": null}, {"id": 13810, "slack_id": "U093DSFDUNB", "display_name": "Sushanth Mantrala", "bio": null, "projects_count": 0, "devlogs_count": 0, "votes_count": 0, "ships_count": 0, "projects": [], "coding_time_seconds": 0, "coding_time_seconds_today": 0, "balance": "You need to have a pocket watcher badge to view this.", "badges": [], "created_at": "2025-07-01T03:27:56.594-04:00", "updated_at": "2025-07-23T10:19:06.707-04:00", "avatar": "https://secure.gravatar.com/avatar/69ea5d46f1a6a373e96ca14a2336abaa.jpg?s=512&d=https%3A%2F%2Fa.slack-edge.com%2Fdf10d%2Fimg%2Favatars%2Fava_0014-512.png", "custom_css": null}, {"id": 13811, "slack_id": "U092C39BM2L", "display_name": "Usman", "bio": null, "projects_count": 0, "devlogs_count": 0, "votes_count": 0, "ships_count": 0, "projects": [], "coding_time_seconds": 0, "coding_time_seconds_today": 0, "balance": "You need to have a pocket watcher badge to view this.", "badges": [], "created_at": "2025-07-01T03:28:11.702-04:00", "updated_at": "2025-07-03T20:09:12.333-04:00", "avatar": "https://secure.gravatar.com/avatar/8b913a15a3197d2546d52df0a43aa989.jpg?s=512&d=https%3A%2F%2Fa.slack-edge.com%2Fdf10d%2Fimg%2Favatars%2Fava_0024-512.png", "custom_css": null}, {"id": 13812, "slack_id": "U093TRM3NAW", "display_name": "Spandan Mukherjee", "bio": null, "projects_count": 0, "devlogs_count": 0, "votes_count": 0, "ships_count": 0, "projects": [], "coding_time_seconds": 0, "coding_time_seconds_today": 0, "balance": "You need to have a pocket watcher badge to view this.", "badges": [], "created_at": "2025-07-01T03:28:32.313-04:00", "updated_at": "2025-07-03T22:04:54.330-04:00", "avatar": "https://avatars.slack-edge.com/2025-07-01/9130035987218_d29ccef4a15e6a8b73e8_original.jpg", "custom_css": null}, {"id": 13813, "slack_id": "U093S21DQG5", "display_name": "pablo", "bio": null, "projects_count": 0, "devlogs_count": 0, "votes_count": 0, "ships_count": 0, "projects": [], "coding_time_seconds": 0, "coding_time_seconds_today": 0, "balance": "You need to have a pocket watcher badge to view this.", "badges": [], "created_at": "2025-07-01T03:29:11.509-04:00", "updated_at": "2025-07-03T20:09:12.740-04:00", "avatar": "https://secure.gravatar.com/avatar/d6da7740e7926ffa8f54c05b328c7a6e.jpg?s=512&d=https%3A%2F%2Fa.slack-edge.com%2Fdf10d%2Fimg%2Favatars%2Fava_0016-512.png", "custom_css": null}, {"id": 13814, "slack_id": "U093DT83FC7", "display_name": "Steward", "bio": null, "projects_count": 0, "devlogs_count": 0, "votes_count": 0, "ships_count": 0, "projects": [], "coding_time_seconds": 0, "coding_time_seconds_today": 0, "balance": "You need to have a pocket watcher badge to view this.", "badges": [], "created_at": "2025-07-01T03:31:13.884-04:00", "updated_at": "2025-07-04T02:34:08.919-04:00", "avatar": "https://secure.gravatar.com/avatar/cf53f17261d8e40048b51a8ada94b56d.jpg?s=512&d=https%3A%2F%2Fa.slack-edge.com%2Fdf10d%2Fimg%2Favatars%2Fava_0019-512.png", "custom_css": null}, {"id": 13815, "slack_id": "U093V6ANV36", "display_name": "Marc Chew", "bio": null, "projects_count": 0, "devlogs_count": 0, "votes_count": 0, "ships_count": 0, "projects": [], "coding_time_seconds": 0, "coding_time_seconds_today": 0, "balance": "You need to have a pocket watcher badge to view this.", "badges": [], "created_at": "2025-07-01T03:41:45.911-04:00", "updated_at": "2025-07-07T02:16:08.528-04:00", "avatar": "https://secure.gravatar.com/avatar/0faf66eac0c71841c39b3b15dbf4c574.jpg?s=512&d=https%3A%2F%2Fa.slack-edge.com%2Fdf10d%2Fimg%2Favatars%2Fava_0021-512.png", "custom_css": null}, {"id": 13816, "slack_id": "U093SU68GHY", "display_name": "NDEH PAUL ZUHWAIMBOH", "bio": null, "projects_count": 0, "devlogs_count": 0, "votes_count": 0, "ships_count": 0, "projects": [], "coding_time_seconds": 0, "coding_time_seconds_today": 0, "balance": "You need to have a pocket watcher badge to view this.", "badges": [], "created_at": "2025-07-01T03:42:57.849-04:00", "updated_at": "2025-07-03T20:09:13.269-04:00", "avatar": "https://secure.gravatar.com/avatar/ad1c027ae13ae5d72d289091027cda68.jpg?s=512&d=https%3A%2F%2Fa.slack-edge.com%2Fdf10d%2Fimg%2Favatars%2Fava_0007-512.png", "custom_css": null}, {"id": 13817, "slack_id": "U093DVB76GP", "display_name": "Shivansh Singh Rathore", "bio": null, "projects_count": 0, "devlogs_count": 0, "votes_count": 0, "ships_count": 0, "projects": [], "coding_time_seconds": 0, "coding_time_seconds_today": 0, "balance": "You need to have a pocket watcher badge to view this.", "badges": [], "created_at": "2025-07-01T03:45:29.355-04:00", "updated_at": "2025-07-05T02:15:22.073-04:00", "avatar": "https://secure.gravatar.com/avatar/5d93f7c9eb64a078172976ce1f8f30e0.jpg?s=512&d=https%3A%2F%2Fa.slack-edge.com%2Fdf10d%2Fimg%2Favatars%2Fava_0001-512.png", "custom_css": null}, {"id": 13818, "slack_id": "U03BSE3BTT6", "display_name": "Mateja Sreji\u0107", "bio": null, "projects_count": 0, "devlogs_count": 0, "votes_count": 0, "ships_count": 0, "projects": [], "coding_time_seconds": 0, "coding_time_seconds_today": 0, "balance": "You need to have a pocket watcher badge to view this.", "badges": [], "created_at": "2025-07-01T03:45:34.483-04:00", "updated_at": "2025-07-03T22:04:54.728-04:00", "avatar": "https://avatars.slack-edge.com/2023-07-26/5634720898485_684d8cb6d3d808ff5fdc_original.png", "custom_css": null}, {"id": 13819, "slack_id": "U094G080G8Y", "display_name": "Neil", "bio": null, "projects_count": 0, "devlogs_count": 0, "votes_count": 0, "ships_count": 0, "projects": [], "coding_time_seconds": 0, "coding_time_seconds_today": 0, "balance": "You need to have a pocket watcher badge to view this.", "badges": [], "created_at": "2025-07-01T03:48:56.875-04:00", "updated_at": "2025-07-08T08:39:46.098-04:00", "avatar": "https://secure.gravatar.com/avatar/3d1812e51f235de94b8dd0418ca5493c.jpg?s=512&d=https%3A%2F%2Fa.slack-edge.com%2Fdf10d%2Fimg%2Favatars%2Fava_0023-512.png", "custom_css": null}, {"id": 13820, "slack_id": "U080HHYN0JD", "display_name": "Mathias", "bio": null, "projects_count": 0, "devlogs_count": 0, "votes_count": 0, "ships_count": 0, "projects": [], "coding_time_seconds": 475760, "coding_time_seconds_today": 0, "balance": "You need to have a pocket watcher badge to view this.", "badges": [], "created_at": "2025-07-01T03:50:38.843-04:00", "updated_at": "2025-08-23T21:12:42.687-04:00", "avatar": "https://avatars.slack-edge.com/2025-08-23/9386333406887_0c128dace783a53cf1be_original.png", "custom_css": null}], "pagination": {"page": 691, "pages": 1192, "count": 23828, "items": 20}}