{"users": [{"id": 13821, "slack_id": "U0946URV56V", "display_name": "Deepesh Patil", "bio": null, "projects_count": 0, "devlogs_count": 0, "votes_count": 0, "ships_count": 0, "projects": [], "coding_time_seconds": 0, "coding_time_seconds_today": 0, "balance": "You need to have a pocket watcher badge to view this.", "badges": [], "created_at": "2025-07-01T03:55:09.731-04:00", "updated_at": "2025-07-05T14:17:07.700-04:00", "avatar": "https://secure.gravatar.com/avatar/a688b10fc744de00b3f98881b7fae00d.jpg?s=512&d=https%3A%2F%2Fa.slack-edge.com%2Fdf10d%2Fimg%2Favatars%2Fava_0009-512.png", "custom_css": null}, {"id": 13822, "slack_id": "U093LPLRM6F", "display_name": "Enzo Abad", "bio": null, "projects_count": 0, "devlogs_count": 0, "votes_count": 0, "ships_count": 0, "projects": [], "coding_time_seconds": 0, "coding_time_seconds_today": 0, "balance": "You need to have a pocket watcher badge to view this.", "badges": [], "created_at": "2025-07-01T03:58:10.331-04:00", "updated_at": "2025-07-04T02:34:09.519-04:00", "avatar": "https://secure.gravatar.com/avatar/0d389ee0416fa430888925455ee39a5c.jpg?s=512&d=https%3A%2F%2Fa.slack-edge.com%2Fdf10d%2Fimg%2Favatars%2Fava_0010-512.png", "custom_css": null}, {"id": 13823, "slack_id": "U094G1NV60G", "display_name": "Virendra", "bio": null, "projects_count": 0, "devlogs_count": 0, "votes_count": 0, "ships_count": 0, "projects": [], "coding_time_seconds": 8436, "coding_time_seconds_today": 0, "balance": "You need to have a pocket watcher badge to view this.", "badges": [], "created_at": "2025-07-01T03:59:14.241-04:00", "updated_at": "2025-07-03T20:09:14.488-04:00", "avatar": "https://secure.gravatar.com/avatar/9bd91f9474e81c72e0034a3d495ea2a3.jpg?s=512&d=https%3A%2F%2Fa.slack-edge.com%2Fdf10d%2Fimg%2Favatars%2Fava_0009-512.png", "custom_css": null}, {"id": 13824, "slack_id": "U094G1NMHMW", "display_name": "Nolhan-Nathan Luzolo Adoho", "bio": null, "projects_count": 0, "devlogs_count": 0, "votes_count": 0, "ships_count": 0, "projects": [], "coding_time_seconds": 0, "coding_time_seconds_today": 0, "balance": "You need to have a pocket watcher badge to view this.", "badges": [], "created_at": "2025-07-01T04:00:21.772-04:00", "updated_at": "2025-07-03T20:09:14.749-04:00", "avatar": "https://avatars.slack-edge.com/2025-07-01/9131331080228_e0bbc7b0c23741dd6567_original.png", "custom_css": null}, {"id": 13825, "slack_id": "U094CL05K88", "display_name": "Shahjahan Luni", "bio": null, "projects_count": 1, "devlogs_count": 0, "votes_count": 0, "ships_count": 0, "projects": [{"id": 4677, "title": "Noise Reduction Microservice", "devlogs_count": 0, "created_at": "2025-07-01T04:21:20.987-04:00"}], "coding_time_seconds": 31792, "coding_time_seconds_today": 0, "balance": "You need to have a pocket watcher badge to view this.", "badges": [], "created_at": "2025-07-01T04:03:00.975-04:00", "updated_at": "2025-07-03T20:09:15.003-04:00", "avatar": "https://secure.gravatar.com/avatar/a88b6b9513fa9ea8dc4b7495e2b80b11.jpg?s=512&d=https%3A%2F%2Fa.slack-edge.com%2Fdf10d%2Fimg%2Favatars%2Fava_0010-512.png", "custom_css": null}, {"id": 13826, "slack_id": "U093NRLDBNJ", "display_name": "Kennard", "bio": null, "projects_count": 1, "devlogs_count": 1, "votes_count": 0, "ships_count": 0, "projects": [{"id": 4680, "title": "fishy-game", "devlogs_count": 1, "created_at": "2025-07-01T04:36:45.848-04:00"}], "coding_time_seconds": 6043, "coding_time_seconds_today": 0, "balance": "You need to have a pocket watcher badge to view this.", "badges": [], "created_at": "2025-07-01T04:06:07.622-04:00", "updated_at": "2025-09-15T07:26:34.359-04:00", "avatar": "https://secure.gravatar.com/avatar/65800b570272df9d713f2321b29217cf.jpg?s=512&d=https%3A%2F%2Fa.slack-edge.com%2Fdf10d%2Fimg%2Favatars%2Fava_0004-512.png", "custom_css": null}, {"id": 13827, "slack_id": "U094728N0BT", "display_name": "Spark", "bio": null, "projects_count": 0, "devlogs_count": 0, "votes_count": 0, "ships_count": 0, "projects": [], "coding_time_seconds": 0, "coding_time_seconds_today": 0, "balance": "You need to have a pocket watcher badge to view this.", "badges": [], "created_at": "2025-07-01T04:12:52.375-04:00", "updated_at": "2025-07-03T20:09:15.407-04:00", "avatar": "https://secure.gravatar.com/avatar/139c4aa05cdf9e869927b67b9064e993.jpg?s=512&d=https%3A%2F%2Fa.slack-edge.com%2Fdf10d%2Fimg%2Favatars%2Fava_0015-512.png", "custom_css": null}, {"id": 13828, "slack_id": "U09472WCA8Z", "display_name": "Gerda", "bio": null, "projects_count": 0, "devlogs_count": 0, "votes_count": 0, "ships_count": 0, "projects": [], "coding_time_seconds": 0, "coding_time_seconds_today": 0, "balance": "You need to have a pocket watcher badge to view this.", "badges": [], "created_at": "2025-07-01T04:15:10.246-04:00", "updated_at": "2025-07-03T22:04:55.393-04:00", "avatar": "https://avatars.slack-edge.com/2025-07-01/9123161391155_c24d02514143a1b2fcd8_original.png", "custom_css": null}, {"id": 13829, "slack_id": "U094739MDCZ", "display_name": "Elizabeth Inglis", "bio": null, "projects_count": 0, "devlogs_count": 0, "votes_count": 0, "ships_count": 0, "projects": [], "coding_time_seconds": 0, "coding_time_seconds_today": 0, "balance": "You need to have a pocket watcher badge to view this.", "badges": [], "created_at": "2025-07-01T04:17:53.592-04:00", "updated_at": "2025-07-03T20:09:15.826-04:00", "avatar": "https://avatars.slack-edge.com/2025-07-01/9122926935731_d9739228f8d4dd183508_original.jpg", "custom_css": null}, {"id": 13830, "slack_id": "U079ELVGEUF", "display_name": "\u00c1bel Nagy", "bio": null, "projects_count": 0, "devlogs_count": 0, "votes_count": 0, "ships_count": 0, "projects": [], "coding_time_seconds": 0, "coding_time_seconds_today": 0, "balance": "You need to have a pocket watcher badge to view this.", "badges": [], "created_at": "2025-07-01T04:21:26.364-04:00", "updated_at": "2025-07-03T20:09:16.108-04:00", "avatar": "https://secure.gravatar.com/avatar/c9df8c2c34de37707fb4305835b1572c.jpg?s=512&d=https%3A%2F%2Fa.slack-edge.com%2Fdf10d%2Fimg%2Favatars%2Fava_0013-512.png", "custom_css": null}, {"id": 13831, "slack_id": "U093E579RLP", "display_name": "Asim", "bio": null, "projects_count": 0, "devlogs_count": 0, "votes_count": 0, "ships_count": 0, "projects": [], "coding_time_seconds": 0, "coding_time_seconds_today": 0, "balance": "You need to have a pocket watcher badge to view this.", "badges": [], "created_at": "2025-07-01T04:22:19.372-04:00", "updated_at": "2025-07-03T20:09:16.371-04:00", "avatar": "https://secure.gravatar.com/avatar/8e151e7d69df783eb09f501d7628be1d.jpg?s=512&d=https%3A%2F%2Fa.slack-edge.com%2Fdf10d%2Fimg%2Favatars%2Fava_0008-512.png", "custom_css": null}, {"id": 13832, "slack_id": "U093LTUKGD9", "display_name": "mh", "bio": null, "projects_count": 0, "devlogs_count": 0, "votes_count": 0, "ships_count": 0, "projects": [], "coding_time_seconds": 0, "coding_time_seconds_today": 0, "balance": "You need to have a pocket watcher badge to view this.", "badges": [], "created_at": "2025-07-01T04:24:43.565-04:00", "updated_at": "2025-07-05T08:15:44.489-04:00", "avatar": "https://secure.gravatar.com/avatar/10c11c2c96b6e79de8de9933a4ff834c.jpg?s=512&d=https%3A%2F%2Fa.slack-edge.com%2Fdf10d%2Fimg%2Favatars%2Fava_0006-512.png", "custom_css": null}, {"id": 13833, "slack_id": "U093VDD35UL", "display_name": "Dylan Quek", "bio": null, "projects_count": 0, "devlogs_count": 0, "votes_count": 0, "ships_count": 0, "projects": [], "coding_time_seconds": 0, "coding_time_seconds_today": 0, "balance": "You need to have a pocket watcher badge to view this.", "badges": [], "created_at": "2025-07-01T04:25:30.617-04:00", "updated_at": "2025-07-03T20:09:16.812-04:00", "avatar": "https://avatars.slack-edge.com/2025-07-01/9124989150214_c8ac13aaca457e9c2e6c_original.jpg", "custom_css": null}, {"id": 13834, "slack_id": "U093LQQ1N4B", "display_name": "Hridyesh Gupta", "bio": null, "projects_count": 0, "devlogs_count": 0, "votes_count": 0, "ships_count": 0, "projects": [], "coding_time_seconds": 588, "coding_time_seconds_today": 0, "balance": "You need to have a pocket watcher badge to view this.", "badges": [], "created_at": "2025-07-01T04:26:47.670-04:00", "updated_at": "2025-07-03T20:09:17.065-04:00", "avatar": "https://secure.gravatar.com/avatar/64a4d55d2ad6ff0ccedc45a9761d5c39.jpg?s=512&d=https%3A%2F%2Fa.slack-edge.com%2Fdf10d%2Fimg%2Favatars%2Fava_0014-512.png", "custom_css": null}, {"id": 13835, "slack_id": "U078H9TL743", "display_name": "BishBashBosh", "bio": null, "projects_count": 2, "devlogs_count": 0, "votes_count": 0, "ships_count": 0, "projects": [{"id": 6800, "title": "Hitbox", "devlogs_count": 0, "created_at": "2025-07-16T10:50:22.071-04:00"}, {"id": 6730, "title": "Lost Light", "devlogs_count": 0, "created_at": "2025-07-15T15:32:27.398-04:00"}], "coding_time_seconds": 61680, "coding_time_seconds_today": 0, "balance": "You need to have a pocket watcher badge to view this.", "badges": [], "created_at": "2025-07-01T04:31:29.124-04:00", "updated_at": "2025-07-14T04:41:43.077-04:00", "avatar": "https://avatars.slack-edge.com/2024-06-17/7312251154256_dcf0365f846e6c745742_original.png", "custom_css": null}, {"id": 13836, "slack_id": "U07JD3VEBHU", "display_name": "Furkan Erken", "bio": null, "projects_count": 0, "devlogs_count": 0, "votes_count": 0, "ships_count": 0, "projects": [], "coding_time_seconds": 0, "coding_time_seconds_today": 0, "balance": "You need to have a pocket watcher badge to view this.", "badges": [], "created_at": "2025-07-01T04:32:07.042-04:00", "updated_at": "2025-07-03T20:09:17.641-04:00", "avatar": "https://avatars.slack-edge.com/2025-07-01/9125028337142_e495b9deacc5e9abe1c3_original.png", "custom_css": null}, {"id": 13837, "slack_id": "U093VEK5H1A", "display_name": "Alessia Ait-Azzouzene", "bio": null, "projects_count": 0, "devlogs_count": 0, "votes_count": 0, "ships_count": 0, "projects": [], "coding_time_seconds": 0, "coding_time_seconds_today": 0, "balance": "You need to have a pocket watcher badge to view this.", "badges": [], "created_at": "2025-07-01T04:32:23.174-04:00", "updated_at": "2025-07-03T20:09:17.906-04:00", "avatar": "https://avatars.slack-edge.com/2025-07-01/9125030500950_b3c6a601e461dbc87adb_original.png", "custom_css": null}, {"id": 13838, "slack_id": "U093E791B0X", "display_name": "Bart\u0142omiej Gut", "bio": null, "projects_count": 0, "devlogs_count": 0, "votes_count": 0, "ships_count": 0, "projects": [], "coding_time_seconds": 0, "coding_time_seconds_today": 0, "balance": "You need to have a pocket watcher badge to view this.", "badges": [], "created_at": "2025-07-01T04:35:45.839-04:00", "updated_at": "2025-07-03T20:09:18.169-04:00", "avatar": "https://avatars.slack-edge.com/2025-07-01/9128438819925_184f0301d6a8dc62d2e3_original.jpg", "custom_css": null}, {"id": 13839, "slack_id": "U093VFB6S5S", "display_name": "Pumindu", "bio": null, "projects_count": 0, "devlogs_count": 0, "votes_count": 0, "ships_count": 0, "projects": [], "coding_time_seconds": 0, "coding_time_seconds_today": 0, "balance": "You need to have a pocket watcher badge to view this.", "badges": [], "created_at": "2025-07-01T04:36:44.031-04:00", "updated_at": "2025-07-03T20:09:18.430-04:00", "avatar": "https://secure.gravatar.com/avatar/d4924e4d8ad2f3764fc4359ddbe88039.jpg?s=512&d=https%3A%2F%2Fa.slack-edge.com%2Fdf10d%2Fimg%2Favatars%2Fava_0021-512.png", "custom_css": null}, {"id": 13840, "slack_id": "U09476G2R3K", "display_name": "Mohammad Alameri", "bio": null, "projects_count": 0, "devlogs_count": 0, "votes_count": 0, "ships_count": 0, "projects": [], "coding_time_seconds": 0, "coding_time_seconds_today": 0, "balance": "You need to have a pocket watcher badge to view this.", "badges": [], "created_at": "2025-07-01T04:37:12.048-04:00", "updated_at": "2025-07-04T08:30:27.491-04:00", "avatar": "https://avatars.slack-edge.com/2025-07-01/9125074453862_7638dabf543fee7cb3a5_original.png", "custom_css": null}], "pagination": {"page": 692, "pages": 1192, "count": 23828, "items": 20}}