{"users": [{"id": 13841, "slack_id": "U094770DDPB", "display_name": "Hrishikesh", "bio": null, "projects_count": 0, "devlogs_count": 0, "votes_count": 0, "ships_count": 0, "projects": [], "coding_time_seconds": 0, "coding_time_seconds_today": 0, "balance": "You need to have a pocket watcher badge to view this.", "badges": [], "created_at": "2025-07-01T04:41:35.744-04:00", "updated_at": "2025-07-03T20:09:18.841-04:00", "avatar": "https://secure.gravatar.com/avatar/5fbbc884b50c9551c36a90e286c5cd4d.jpg?s=512&d=https%3A%2F%2Fa.slack-edge.com%2Fdf10d%2Fimg%2Favatars%2Fava_0006-512.png", "custom_css": null}, {"id": 13842, "slack_id": "U093M1Y8U91", "display_name": "Gopikrishna", "bio": null, "projects_count": 0, "devlogs_count": 0, "votes_count": 0, "ships_count": 0, "projects": [], "coding_time_seconds": 0, "coding_time_seconds_today": 0, "balance": "You need to have a pocket watcher badge to view this.", "badges": [], "created_at": "2025-07-01T04:47:56.923-04:00", "updated_at": "2025-07-13T09:13:17.697-04:00", "avatar": "https://avatars.slack-edge.com/2025-07-13/9202832501921_8a75f2ed6b1b7a3cf4a9_original.jpg", "custom_css": null}, {"id": 13843, "slack_id": "U093E9F8X9D", "display_name": "Devanshi Pandey", "bio": null, "projects_count": 2, "devlogs_count": 0, "votes_count": 0, "ships_count": 0, "projects": [{"id": 9650, "title": "TIC TAC TOE", "devlogs_count": 0, "created_at": "2025-08-02T00:57:02.836-04:00"}, {"id": 9651, "title": "TIC TAC TOE", "devlogs_count": 0, "created_at": "2025-08-02T00:57:02.917-04:00"}], "coding_time_seconds": 504, "coding_time_seconds_today": 0, "balance": "You need to have a pocket watcher badge to view this.", "badges": [], "created_at": "2025-07-01T04:47:59.434-04:00", "updated_at": "2025-08-02T00:30:13.026-04:00", "avatar": "https://secure.gravatar.com/avatar/5fff0fc300e645454f98d57ab60261e9.jpg?s=512&d=https%3A%2F%2Fa.slack-edge.com%2Fdf10d%2Fimg%2Favatars%2Fava_0001-512.png", "custom_css": null}, {"id": 13844, "slack_id": "U093VDE9Q7N", "display_name": "Oliver Sim", "bio": null, "projects_count": 0, "devlogs_count": 0, "votes_count": 0, "ships_count": 0, "projects": [], "coding_time_seconds": 9751, "coding_time_seconds_today": 0, "balance": "You need to have a pocket watcher badge to view this.", "badges": [], "created_at": "2025-07-01T04:50:33.237-04:00", "updated_at": "2025-09-02T11:50:17.140-04:00", "avatar": "https://secure.gravatar.com/avatar/5c9e1074bf700ee51fa8cf0a2ccee0b6.jpg?s=512&d=https%3A%2F%2Fa.slack-edge.com%2Fdf10d%2Fimg%2Favatars%2Fava_0023-512.png", "custom_css": null}, {"id": 13845, "slack_id": "U093UDBMCCS", "display_name": "Albert R. L.", "bio": null, "projects_count": 0, "devlogs_count": 0, "votes_count": 0, "ships_count": 0, "projects": [], "coding_time_seconds": 0, "coding_time_seconds_today": 0, "balance": "You need to have a pocket watcher badge to view this.", "badges": [], "created_at": "2025-07-01T04:52:57.770-04:00", "updated_at": "2025-07-03T22:04:56.480-04:00", "avatar": "https://secure.gravatar.com/avatar/86b22953f473dca94967c954ea66b13e.jpg?s=512&d=https%3A%2F%2Fa.slack-edge.com%2Fdf10d%2Fimg%2Favatars%2Fava_0026-512.png", "custom_css": null}, {"id": 13846, "slack_id": "U093M36TFNF", "display_name": "Dinesh Kumar Panda", "bio": null, "projects_count": 0, "devlogs_count": 0, "votes_count": 0, "ships_count": 0, "projects": [], "coding_time_seconds": 11188, "coding_time_seconds_today": 0, "balance": "You need to have a pocket watcher badge to view this.", "badges": [], "created_at": "2025-07-01T04:58:14.837-04:00", "updated_at": "2025-07-03T20:09:20.011-04:00", "avatar": "https://avatars.slack-edge.com/2025-07-01/9125166554742_1f3d3d2e41a6fd0fa798_original.png", "custom_css": null}, {"id": 13847, "slack_id": "U037JPN3YF9", "display_name": "Rahul Kumar", "bio": null, "projects_count": 0, "devlogs_count": 0, "votes_count": 0, "ships_count": 0, "projects": [], "coding_time_seconds": 0, "coding_time_seconds_today": 0, "balance": "You need to have a pocket watcher badge to view this.", "badges": [], "created_at": "2025-07-01T05:02:23.038-04:00", "updated_at": "2025-07-06T02:17:00.298-04:00", "avatar": "https://avatars.slack-edge.com/2022-03-21/3284020858337_79d7a09e42f4950e8765_original.png", "custom_css": null}, {"id": 13848, "slack_id": "U091HRL3UKV", "display_name": "Ivan", "bio": null, "projects_count": 0, "devlogs_count": 0, "votes_count": 0, "ships_count": 0, "projects": [], "coding_time_seconds": 0, "coding_time_seconds_today": 0, "balance": "You need to have a pocket watcher badge to view this.", "badges": [], "created_at": "2025-07-01T05:02:42.192-04:00", "updated_at": "2025-07-03T20:09:20.399-04:00", "avatar": "https://secure.gravatar.com/avatar/88975c96c4b1102dcb413e2dade770b0.jpg?s=512&d=https%3A%2F%2Fa.slack-edge.com%2Fdf10d%2Fimg%2Favatars%2Fava_0022-512.png", "custom_css": null}, {"id": 13849, "slack_id": "U093VL1G5U4", "display_name": "tl", "bio": null, "projects_count": 0, "devlogs_count": 0, "votes_count": 0, "ships_count": 0, "projects": [], "coding_time_seconds": 0, "coding_time_seconds_today": 0, "balance": "You need to have a pocket watcher badge to view this.", "badges": [], "created_at": "2025-07-01T05:08:06.645-04:00", "updated_at": "2025-07-03T20:09:20.671-04:00", "avatar": "https://secure.gravatar.com/avatar/4fe77932688f902a6db8f1e1b6777d00.jpg?s=512&d=https%3A%2F%2Fa.slack-edge.com%2Fdf10d%2Fimg%2Favatars%2Fava_0020-512.png", "custom_css": null}, {"id": 13850, "slack_id": "U093P6X1K38", "display_name": "bbb", "bio": null, "projects_count": 0, "devlogs_count": 0, "votes_count": 0, "ships_count": 0, "projects": [], "coding_time_seconds": 122292, "coding_time_seconds_today": 0, "balance": "You need to have a pocket watcher badge to view this.", "badges": [], "created_at": "2025-07-01T05:12:08.247-04:00", "updated_at": "2025-08-16T09:12:58.543-04:00", "avatar": "https://avatars.slack-edge.com/2025-08-16/9356405032403_efc08cd13bc9fc134474_original.jpg", "custom_css": null}, {"id": 13851, "slack_id": "U015SDXHEPR", "display_name": "Pragya", "bio": null, "projects_count": 0, "devlogs_count": 0, "votes_count": 0, "ships_count": 0, "projects": [], "coding_time_seconds": 0, "coding_time_seconds_today": 0, "balance": "You need to have a pocket watcher badge to view this.", "badges": [], "created_at": "2025-07-01T05:14:10.029-04:00", "updated_at": "2025-07-04T20:14:44.970-04:00", "avatar": "https://avatars.slack-edge.com/2022-11-10/4354650341140_21a2708d3e42675bd00d_original.jpg", "custom_css": null}, {"id": 13852, "slack_id": "U08QUAK8E04", "display_name": "JASS", "bio": null, "projects_count": 0, "devlogs_count": 0, "votes_count": 1, "ships_count": 0, "projects": [], "coding_time_seconds": 181802, "coding_time_seconds_today": 0, "balance": "You need to have a pocket watcher badge to view this.", "badges": [], "created_at": "2025-07-01T05:14:42.461-04:00", "updated_at": "2025-09-24T19:12:41.964-04:00", "avatar": "https://avatars.slack-edge.com/2025-09-25/9562899016791_121d2d8cd40c61dde949_original.jpg", "custom_css": null}, {"id": 13853, "slack_id": "U094GBQCLGG", "display_name": "Lune", "bio": null, "projects_count": 0, "devlogs_count": 0, "votes_count": 0, "ships_count": 0, "projects": [], "coding_time_seconds": 0, "coding_time_seconds_today": 0, "balance": "You need to have a pocket watcher badge to view this.", "badges": [], "created_at": "2025-07-01T05:16:41.752-04:00", "updated_at": "2025-07-04T02:34:11.465-04:00", "avatar": "https://secure.gravatar.com/avatar/ca99ece88ae5b255750ea547558cd61c.jpg?s=512&d=https%3A%2F%2Fa.slack-edge.com%2Fdf10d%2Fimg%2Favatars%2Fava_0016-512.png", "custom_css": null}, {"id": 13854, "slack_id": "U093M6K43GB", "display_name": "selin", "bio": null, "projects_count": 0, "devlogs_count": 0, "votes_count": 0, "ships_count": 0, "projects": [], "coding_time_seconds": 0, "coding_time_seconds_today": 0, "balance": "You need to have a pocket watcher badge to view this.", "badges": [], "created_at": "2025-07-01T05:16:56.722-04:00", "updated_at": "2025-07-05T20:15:47.136-04:00", "avatar": "https://secure.gravatar.com/avatar/feeea8f70a8c91cc84ca1290aa4f56be.jpg?s=512&d=https%3A%2F%2Fa.slack-edge.com%2Fdf10d%2Fimg%2Favatars%2Fava_0019-512.png", "custom_css": null}, {"id": 13855, "slack_id": "U080YS97JF7", "display_name": "EasyDoor", "bio": "shish", "projects_count": 0, "devlogs_count": 0, "votes_count": 0, "ships_count": 0, "projects": [], "coding_time_seconds": 112858, "coding_time_seconds_today": 0, "balance": "You need to have a pocket watcher badge to view this.", "badges": [], "created_at": "2025-07-01T05:20:02.934-04:00", "updated_at": "2025-08-22T21:13:12.803-04:00", "avatar": "https://avatars.slack-edge.com/2025-08-23/9384410472279_6dabbcb8f47cbeb601c4_original.png", "custom_css": null}, {"id": 13856, "slack_id": "U093M6X3G3D", "display_name": "Druky", "bio": null, "projects_count": 0, "devlogs_count": 0, "votes_count": 0, "ships_count": 0, "projects": [], "coding_time_seconds": 0, "coding_time_seconds_today": 0, "balance": "You need to have a pocket watcher badge to view this.", "badges": [], "created_at": "2025-07-01T05:20:24.668-04:00", "updated_at": "2025-07-03T20:09:21.890-04:00", "avatar": "https://secure.gravatar.com/avatar/62ae8ca49e6dd739bb6a0d964b9e16ed.jpg?s=512&d=https%3A%2F%2Fa.slack-edge.com%2Fdf10d%2Fimg%2Favatars%2Fava_0017-512.png", "custom_css": null}, {"id": 13857, "slack_id": "U094GDZ5048", "display_name": "Matan Fchima", "bio": null, "projects_count": 0, "devlogs_count": 0, "votes_count": 0, "ships_count": 0, "projects": [], "coding_time_seconds": 646, "coding_time_seconds_today": 0, "balance": "You need to have a pocket watcher badge to view this.", "badges": [], "created_at": "2025-07-01T05:20:43.523-04:00", "updated_at": "2025-07-04T08:30:28.646-04:00", "avatar": "https://avatars.slack-edge.com/2025-07-01/9152488934464_53926bc4b9d86bdd0ce3_original.jpg", "custom_css": null}, {"id": 13858, "slack_id": "U093M6ZP9V1", "display_name": "RemBar1", "bio": null, "projects_count": 0, "devlogs_count": 0, "votes_count": 0, "ships_count": 0, "projects": [], "coding_time_seconds": 0, "coding_time_seconds_today": 0, "balance": "You need to have a pocket watcher badge to view this.", "badges": [], "created_at": "2025-07-01T05:20:45.568-04:00", "updated_at": "2025-07-03T20:09:22.293-04:00", "avatar": "https://secure.gravatar.com/avatar/41982031d01c53b60b699a7b6d4e2d03.jpg?s=512&d=https%3A%2F%2Fa.slack-edge.com%2Fdf10d%2Fimg%2Favatars%2Fava_0023-512.png", "custom_css": null}, {"id": 13859, "slack_id": "U092EMP3PNX", "display_name": "Emilian", "bio": null, "projects_count": 0, "devlogs_count": 0, "votes_count": 0, "ships_count": 0, "projects": [], "coding_time_seconds": 0, "coding_time_seconds_today": 0, "balance": "You need to have a pocket watcher badge to view this.", "badges": [], "created_at": "2025-07-01T05:20:48.265-04:00", "updated_at": "2025-07-03T20:09:22.560-04:00", "avatar": "https://secure.gravatar.com/avatar/f3394e2c9530337d2555c275bbd64451.jpg?s=512&d=https%3A%2F%2Fa.slack-edge.com%2Fdf10d%2Fimg%2Favatars%2Fava_0013-512.png", "custom_css": null}, {"id": 13860, "slack_id": "U093PUJBHPC", "display_name": "Devanshu Sabharwal", "bio": null, "projects_count": 0, "devlogs_count": 0, "votes_count": 3, "ships_count": 0, "projects": [], "coding_time_seconds": 103624, "coding_time_seconds_today": 0, "balance": "You need to have a pocket watcher badge to view this.", "badges": [], "created_at": "2025-07-01T05:21:55.876-04:00", "updated_at": "2025-07-09T03:47:43.862-04:00", "avatar": "https://secure.gravatar.com/avatar/d2b3ffdc0cbd6a6f783d3e4a05453294.jpg?s=512&d=https%3A%2F%2Fa.slack-edge.com%2Fdf10d%2Fimg%2Favatars%2Fava_0024-512.png", "custom_css": null}], "pagination": {"page": 693, "pages": 1192, "count": 23828, "items": 20}}