{"users": [{"id": 13881, "slack_id": "U091DCUTX2P", "display_name": "Damiano Giangregorio", "bio": null, "projects_count": 0, "devlogs_count": 0, "votes_count": 0, "ships_count": 0, "projects": [], "coding_time_seconds": 0, "coding_time_seconds_today": 0, "balance": "You need to have a pocket watcher badge to view this.", "badges": [], "created_at": "2025-07-01T06:03:56.828-04:00", "updated_at": "2025-07-03T20:09:27.909-04:00", "avatar": "https://secure.gravatar.com/avatar/eb149d91225e065ed122afd80bc2dfbd.jpg?s=512&d=https%3A%2F%2Fa.slack-edge.com%2Fdf10d%2Fimg%2Favatars%2Fava_0014-512.png", "custom_css": null}, {"id": 13882, "slack_id": "U093EN5CB39", "display_name": "Sai Pranav", "bio": null, "projects_count": 0, "devlogs_count": 0, "votes_count": 0, "ships_count": 0, "projects": [], "coding_time_seconds": 1586, "coding_time_seconds_today": 0, "balance": "You need to have a pocket watcher badge to view this.", "badges": [], "created_at": "2025-07-01T06:12:20.650-04:00", "updated_at": "2025-07-11T01:56:23.950-04:00", "avatar": "https://secure.gravatar.com/avatar/979d4321a65893f22408dbdd8499a1dc.jpg?s=512&d=https%3A%2F%2Fa.slack-edge.com%2Fdf10d%2Fimg%2Favatars%2Fava_0017-512.png", "custom_css": null}, {"id": 13883, "slack_id": "U093USN63C2", "display_name": "Suryansh Singh", "bio": null, "projects_count": 0, "devlogs_count": 0, "votes_count": 0, "ships_count": 0, "projects": [], "coding_time_seconds": 0, "coding_time_seconds_today": 0, "balance": "You need to have a pocket watcher badge to view this.", "badges": [], "created_at": "2025-07-01T06:15:50.882-04:00", "updated_at": "2025-07-03T20:09:28.439-04:00", "avatar": "https://secure.gravatar.com/avatar/6bb83028c85aa9b1e5e89bfbf544cb99.jpg?s=512&d=https%3A%2F%2Fa.slack-edge.com%2Fdf10d%2Fimg%2Favatars%2Fava_0023-512.png", "custom_css": null}, {"id": 13884, "slack_id": "U093W18722G", "display_name": "thunder", "bio": null, "projects_count": 0, "devlogs_count": 0, "votes_count": 0, "ships_count": 0, "projects": [], "coding_time_seconds": 47, "coding_time_seconds_today": 0, "balance": "You need to have a pocket watcher badge to view this.", "badges": [], "created_at": "2025-07-01T06:17:27.057-04:00", "updated_at": "2025-07-03T20:09:28.698-04:00", "avatar": "https://secure.gravatar.com/avatar/54608f9ee9147a8229add2742b004b8d.jpg?s=512&d=https%3A%2F%2Fa.slack-edge.com%2Fdf10d%2Fimg%2Favatars%2Fava_0000-512.png", "custom_css": null}, {"id": 13885, "slack_id": "U07T9HP36TU", "display_name": "Passion", "bio": null, "projects_count": 0, "devlogs_count": 0, "votes_count": 0, "ships_count": 0, "projects": [], "coding_time_seconds": 0, "coding_time_seconds_today": 0, "balance": "You need to have a pocket watcher badge to view this.", "badges": [], "created_at": "2025-07-01T06:20:41.206-04:00", "updated_at": "2025-07-03T20:09:28.998-04:00", "avatar": "https://avatars.slack-edge.com/2024-10-23/7930106614500_c46ba096188385a70a9e_original.png", "custom_css": null}, {"id": 13886, "slack_id": "U093W1XNJLC", "display_name": "j", "bio": null, "projects_count": 0, "devlogs_count": 0, "votes_count": 0, "ships_count": 0, "projects": [], "coding_time_seconds": 0, "coding_time_seconds_today": 0, "balance": "You need to have a pocket watcher badge to view this.", "badges": [], "created_at": "2025-07-01T06:24:10.077-04:00", "updated_at": "2025-07-03T20:09:29.256-04:00", "avatar": "https://secure.gravatar.com/avatar/be95e84ff980b9fe8de277589e0032c3.jpg?s=512&d=https%3A%2F%2Fa.slack-edge.com%2Fdf10d%2Fimg%2Favatars%2Fava_0000-512.png", "custom_css": null}, {"id": 13887, "slack_id": "U08RTC26ADC", "display_name": "MaximusW", "bio": null, "projects_count": 0, "devlogs_count": 0, "votes_count": 0, "ships_count": 0, "projects": [], "coding_time_seconds": 0, "coding_time_seconds_today": 0, "balance": "You need to have a pocket watcher badge to view this.", "badges": [], "created_at": "2025-07-01T06:24:17.095-04:00", "updated_at": "2025-08-02T16:21:01.236-04:00", "avatar": "https://avatars.slack-edge.com/2025-05-31/8966286801927_368d152bec33d9f9e83d_original.png", "custom_css": null}, {"id": 13888, "slack_id": "U093V07SUUS", "display_name": "Eric C", "bio": null, "projects_count": 0, "devlogs_count": 0, "votes_count": 0, "ships_count": 0, "projects": [], "coding_time_seconds": 0, "coding_time_seconds_today": 0, "balance": "You need to have a pocket watcher badge to view this.", "badges": [], "created_at": "2025-07-01T06:38:42.031-04:00", "updated_at": "2025-07-03T20:09:29.780-04:00", "avatar": "https://secure.gravatar.com/avatar/c43a2a01a42a6cce09e5cd2085ae64ec.jpg?s=512&d=https%3A%2F%2Fa.slack-edge.com%2Fdf10d%2Fimg%2Favatars%2Fava_0000-512.png", "custom_css": null}, {"id": 13889, "slack_id": "U093PKHLFPG", "display_name": "salman pasha", "bio": null, "projects_count": 0, "devlogs_count": 0, "votes_count": 0, "ships_count": 0, "projects": [], "coding_time_seconds": 0, "coding_time_seconds_today": 0, "balance": "You need to have a pocket watcher badge to view this.", "badges": [], "created_at": "2025-07-01T06:38:59.081-04:00", "updated_at": "2025-07-03T20:09:30.042-04:00", "avatar": "https://secure.gravatar.com/avatar/3c7eaf37ce41374dc381c24c21049f41.jpg?s=512&d=https%3A%2F%2Fa.slack-edge.com%2Fdf10d%2Fimg%2Favatars%2Fava_0008-512.png", "custom_css": null}, {"id": 13890, "slack_id": "U08J7GQQ4EA", "display_name": "PoliEcho", "bio": null, "projects_count": 5, "devlogs_count": 34, "votes_count": 99, "ships_count": 5, "projects": [{"id": 4785, "title": "Pupes releases tracker", "devlogs_count": 5, "created_at": "2025-07-01T13:53:29.185-04:00"}, {"id": 12066, "title": "Vector Blow", "devlogs_count": 7, "created_at": "2025-08-22T15:02:55.103-04:00"}, {"id": 5694, "title": "ASM Game of life ", "devlogs_count": 9, "created_at": "2025-07-07T07:40:11.205-04:00"}, {"id": 10989, "title": "UEFI_fireworks", "devlogs_count": 5, "created_at": "2025-08-12T08:33:45.235-04:00"}, {"id": 8203, "title": "Pea 2 Pea", "devlogs_count": 8, "created_at": "2025-07-25T07:33:58.579-04:00"}], "coding_time_seconds": 667713, "coding_time_seconds_today": 4162, "balance": "You need to have a pocket watcher badge to view this.", "badges": [{"name": "Maiden Voyage", "text": "you shipped your first project! the journey begins...", "icon": "\ud83d\udea2"}], "created_at": "2025-07-01T06:40:50.136-04:00", "updated_at": "2025-09-10T22:58:06.469-04:00", "avatar": "https://secure.gravatar.com/avatar/3f963298822e26cf82ff532f09ee1d44.jpg?s=512&d=https%3A%2F%2Fa.slack-edge.com%2Fdf10d%2Fimg%2Favatars%2Fava_0010-512.png", "custom_css": null}, {"id": 13891, "slack_id": "U093W4ETP44", "display_name": "Visith Ilayperuma", "bio": null, "projects_count": 0, "devlogs_count": 0, "votes_count": 0, "ships_count": 0, "projects": [], "coding_time_seconds": 0, "coding_time_seconds_today": 0, "balance": "You need to have a pocket watcher badge to view this.", "badges": [], "created_at": "2025-07-01T06:40:57.852-04:00", "updated_at": "2025-07-03T20:09:30.434-04:00", "avatar": "https://avatars.slack-edge.com/2025-07-01/9125690361462_ccd8dffc237b136a3a59_original.jpg", "custom_css": null}, {"id": 13892, "slack_id": "U093T0KN6TX", "display_name": "FeldherrWeiprecht", "bio": null, "projects_count": 0, "devlogs_count": 40, "votes_count": 53, "ships_count": 0, "projects": [], "coding_time_seconds": 708527, "coding_time_seconds_today": 0, "balance": "You need to have a pocket watcher badge to view this.", "badges": [{"name": "Maiden Voyage", "text": "you shipped your first project! the journey begins...", "icon": "\ud83d\udea2"}, {"name": "Ballot Stuffer", "text": "vote 100 times.", "icon": "https://summer.hackclub.com/assets/i_voted-bf851b48.png"}], "created_at": "2025-07-01T06:41:24.703-04:00", "updated_at": "2025-09-10T22:58:06.528-04:00", "avatar": "https://avatars.slack-edge.com/2025-07-01/9131054036482_1bc72455b502303ffb50_original.png", "custom_css": null}, {"id": 13893, "slack_id": "U08TQSQD5FW", "display_name": "toshani", "bio": null, "projects_count": 2, "devlogs_count": 0, "votes_count": 0, "ships_count": 0, "projects": [{"id": 5764, "title": "Breach Bot", "devlogs_count": 0, "created_at": "2025-07-07T19:29:38.173-04:00"}, {"id": 5765, "title": "Breach Bot", "devlogs_count": 0, "created_at": "2025-07-07T19:29:38.926-04:00"}], "coding_time_seconds": 7260, "coding_time_seconds_today": 0, "balance": "You need to have a pocket watcher badge to view this.", "badges": [], "created_at": "2025-07-01T06:45:04.579-04:00", "updated_at": "2025-07-29T16:29:06.912-04:00", "avatar": "https://avatars.slack-edge.com/2025-07-28/9268291181300_1a5e789b508524786a1c_original.jpg", "custom_css": null}, {"id": 13894, "slack_id": "U093PKYN6ES", "display_name": "Isaac Tiza", "bio": null, "projects_count": 0, "devlogs_count": 0, "votes_count": 0, "ships_count": 0, "projects": [], "coding_time_seconds": 0, "coding_time_seconds_today": 0, "balance": "You need to have a pocket watcher badge to view this.", "badges": [], "created_at": "2025-07-01T06:45:09.792-04:00", "updated_at": "2025-07-03T20:09:31.117-04:00", "avatar": "https://avatars.slack-edge.com/2025-07-01/9123673995587_fef556442c43cba105f4_original.jpg", "custom_css": null}, {"id": 13895, "slack_id": "U093MJV0091", "display_name": "Kawpun", "bio": null, "projects_count": 0, "devlogs_count": 0, "votes_count": 0, "ships_count": 0, "projects": [], "coding_time_seconds": 0, "coding_time_seconds_today": 0, "balance": "You need to have a pocket watcher badge to view this.", "badges": [], "created_at": "2025-07-01T06:46:15.348-04:00", "updated_at": "2025-07-06T02:17:03.923-04:00", "avatar": "https://secure.gravatar.com/avatar/7715814da871061a8a0ecb41c3660afa.jpg?s=512&d=https%3A%2F%2Fa.slack-edge.com%2Fdf10d%2Fimg%2Favatars%2Fava_0010-512.png", "custom_css": null}, {"id": 13896, "slack_id": "U07GLM89TUJ", "display_name": "Luan Alves Da Silva", "bio": null, "projects_count": 0, "devlogs_count": 0, "votes_count": 0, "ships_count": 0, "projects": [], "coding_time_seconds": 0, "coding_time_seconds_today": 0, "balance": "You need to have a pocket watcher badge to view this.", "badges": [], "created_at": "2025-07-01T06:47:02.217-04:00", "updated_at": "2025-07-03T20:09:31.515-04:00", "avatar": "https://secure.gravatar.com/avatar/ac5a207d2f012291a7a613e3a75bdea3.jpg?s=512&d=https%3A%2F%2Fa.slack-edge.com%2Fdf10d%2Fimg%2Favatars%2Fava_0007-512.png", "custom_css": null}, {"id": 13897, "slack_id": "U093ESQ35QF", "display_name": "Wasif Mostofa", "bio": null, "projects_count": 0, "devlogs_count": 0, "votes_count": 0, "ships_count": 0, "projects": [], "coding_time_seconds": 0, "coding_time_seconds_today": 0, "balance": "You need to have a pocket watcher badge to view this.", "badges": [], "created_at": "2025-07-01T06:48:46.626-04:00", "updated_at": "2025-07-05T08:15:49.189-04:00", "avatar": "https://secure.gravatar.com/avatar/5a3c5aa96ddddc1bc7d6472e5f36760a.jpg?s=512&d=https%3A%2F%2Fa.slack-edge.com%2Fdf10d%2Fimg%2Favatars%2Fava_0020-512.png", "custom_css": null}, {"id": 13898, "slack_id": "U093W3K21S8", "display_name": "Shema Kerry", "bio": null, "projects_count": 0, "devlogs_count": 0, "votes_count": 0, "ships_count": 0, "projects": [], "coding_time_seconds": 0, "coding_time_seconds_today": 0, "balance": "You need to have a pocket watcher badge to view this.", "badges": [], "created_at": "2025-07-01T06:48:52.552-04:00", "updated_at": "2025-07-03T20:09:31.914-04:00", "avatar": "https://secure.gravatar.com/avatar/456c97e6483e168e92f826fa9572d837.jpg?s=512&d=https%3A%2F%2Fa.slack-edge.com%2Fdf10d%2Fimg%2Favatars%2Fava_0016-512.png", "custom_css": null}, {"id": 13899, "slack_id": "U08QZ5TQFMF", "display_name": "Lakshya Raj", "bio": null, "projects_count": 2, "devlogs_count": 17, "votes_count": 28, "ships_count": 2, "projects": [{"id": 6188, "title": "GrubWars", "devlogs_count": 15, "created_at": "2025-07-11T06:48:06.751-04:00"}, {"id": 5430, "title": "Learn about musical instruments", "devlogs_count": 1, "created_at": "2025-07-05T08:54:33.700-04:00"}], "coding_time_seconds": 242454, "coding_time_seconds_today": 3242, "balance": "You need to have a pocket watcher badge to view this.", "badges": [{"name": "Maiden Voyage", "text": "you shipped your first project! the journey begins...", "icon": "\ud83d\udea2"}], "created_at": "2025-07-01T06:50:20.167-04:00", "updated_at": "2025-09-10T22:58:06.721-04:00", "avatar": "https://avatars.slack-edge.com/2025-05-01/8835023980981_efdd85ef03c2c485d559_original.png", "custom_css": null}, {"id": 13900, "slack_id": "U08878RCRFX", "display_name": "satr14", "bio": null, "projects_count": 3, "devlogs_count": 4, "votes_count": 30, "ships_count": 3, "projects": [{"id": 5666, "title": "Project Helper", "devlogs_count": 1, "created_at": "2025-07-06T23:38:10.746-04:00"}, {"id": 10992, "title": "nix-conf", "devlogs_count": 1, "created_at": "2025-08-12T09:12:04.762-04:00"}, {"id": 5673, "title": "satr14's site (5th attempt)", "devlogs_count": 1, "created_at": "2025-07-07T00:49:28.428-04:00"}], "coding_time_seconds": 176427, "coding_time_seconds_today": 0, "balance": "You need to have a pocket watcher badge to view this.", "badges": [{"name": "Maiden Voyage", "text": "you shipped your first project! the journey begins...", "icon": "\ud83d\udea2"}], "created_at": "2025-07-01T06:53:17.144-04:00", "updated_at": "2025-09-10T22:58:06.751-04:00", "avatar": "https://avatars.slack-edge.com/2025-01-12/8275567972054_4f55642ddc7608bd91ce_original.jpg", "custom_css": null}], "pagination": {"page": 695, "pages": 1192, "count": 23828, "items": 20}}