{"users": [{"id": 13901, "slack_id": "U093V2A835Y", "display_name": "Advithya", "bio": null, "projects_count": 0, "devlogs_count": 0, "votes_count": 0, "ships_count": 0, "projects": [], "coding_time_seconds": 0, "coding_time_seconds_today": 0, "balance": "You need to have a pocket watcher badge to view this.", "badges": [], "created_at": "2025-07-01T06:56:45.570-04:00", "updated_at": "2025-07-08T03:12:18.729-04:00", "avatar": "https://avatars.slack-edge.com/2025-07-01/9129133203157_f2ec18ef77fd3a4c11ec_original.png", "custom_css": null}, {"id": 13902, "slack_id": "U093CLJHU2K", "display_name": "Clarice", "bio": null, "projects_count": 0, "devlogs_count": 0, "votes_count": 0, "ships_count": 0, "projects": [], "coding_time_seconds": 0, "coding_time_seconds_today": 0, "balance": "You need to have a pocket watcher badge to view this.", "badges": [], "created_at": "2025-07-01T06:58:36.628-04:00", "updated_at": "2025-07-03T20:09:32.898-04:00", "avatar": "https://avatars.slack-edge.com/2025-07-01/9131109449362_2249b409be3afc0cc9ce_original.png", "custom_css": null}, {"id": 13903, "slack_id": "U08JPB7SBR6", "display_name": "iostpa", "bio": null, "projects_count": 0, "devlogs_count": 0, "votes_count": 0, "ships_count": 0, "projects": [], "coding_time_seconds": 8713, "coding_time_seconds_today": 0, "balance": "You need to have a pocket watcher badge to view this.", "badges": [], "created_at": "2025-07-01T06:59:40.734-04:00", "updated_at": "2025-07-03T20:09:33.154-04:00", "avatar": "https://avatars.slack-edge.com/2025-07-01/9133951446626_29e83574cf3ca261a7c1_original.png", "custom_css": null}, {"id": 13904, "slack_id": "U0947TPDBQR", "display_name": "Muhammad Muqtafin Nuha", "bio": null, "projects_count": 1, "devlogs_count": 0, "votes_count": 0, "ships_count": 0, "projects": [{"id": 4712, "title": "Kai-Portfolio", "devlogs_count": 0, "created_at": "2025-07-01T07:23:45.968-04:00"}], "coding_time_seconds": 133416, "coding_time_seconds_today": 0, "balance": "You need to have a pocket watcher badge to view this.", "badges": [], "created_at": "2025-07-01T07:04:13.378-04:00", "updated_at": "2025-07-06T08:14:50.580-04:00", "avatar": "https://avatars.slack-edge.com/2025-07-01/9131140757906_701abb9fec67f4b4eb78_original.jpg", "custom_css": null}, {"id": 13905, "slack_id": "U091V88QW4U", "display_name": "Naimish Omar", "bio": null, "projects_count": 1, "devlogs_count": 1, "votes_count": 1, "ships_count": 1, "projects": [{"id": 4713, "title": "DRONA- AI POWERED LEARNING PLATFORM", "devlogs_count": 1, "created_at": "2025-07-01T07:26:37.161-04:00"}], "coding_time_seconds": 373608, "coding_time_seconds_today": 0, "balance": "You need to have a pocket watcher badge to view this.", "badges": [{"name": "Maiden Voyage", "text": "you shipped your first project! the journey begins...", "icon": "\ud83d\udea2"}], "created_at": "2025-07-01T07:04:30.924-04:00", "updated_at": "2025-09-10T22:58:06.886-04:00", "avatar": "https://avatars.slack-edge.com/2025-07-01/9125792765382_230e21a6ca6ba5b6fdfa_original.jpg", "custom_css": null}, {"id": 13906, "slack_id": "U05EKDV1E00", "display_name": "Geo", "bio": null, "projects_count": 0, "devlogs_count": 0, "votes_count": 0, "ships_count": 0, "projects": [], "coding_time_seconds": 9279, "coding_time_seconds_today": 0, "balance": "You need to have a pocket watcher badge to view this.", "badges": [], "created_at": "2025-07-01T07:07:48.863-04:00", "updated_at": "2025-07-12T15:19:47.981-04:00", "avatar": "https://avatars.slack-edge.com/2024-02-10/6616367267477_e729f263e099887b168b_original.jpg", "custom_css": null}, {"id": 13907, "slack_id": "U08HDDMQCQ0", "display_name": "Aaron", "bio": null, "projects_count": 2, "devlogs_count": 6, "votes_count": 17, "ships_count": 2, "projects": [{"id": 5074, "title": "A.S.S.E.T.", "devlogs_count": 5, "created_at": "2025-07-03T04:11:16.279-04:00"}, {"id": 7376, "title": "M.E.T.E.O.R.", "devlogs_count": 1, "created_at": "2025-07-21T12:05:49.392-04:00"}], "coding_time_seconds": 44667, "coding_time_seconds_today": 0, "balance": "You need to have a pocket watcher badge to view this.", "badges": [{"name": "Maiden Voyage", "text": "you shipped your first project! the journey begins...", "icon": "\ud83d\udea2"}], "created_at": "2025-07-01T07:08:24.009-04:00", "updated_at": "2025-09-10T22:58:06.943-04:00", "avatar": "https://avatars.slack-edge.com/2025-04-06/8705404928662_421c840962d2509c87ce_original.png", "custom_css": null}, {"id": 13908, "slack_id": "U0947UPLXQR", "display_name": "Shalom abdiyah", "bio": null, "projects_count": 0, "devlogs_count": 0, "votes_count": 0, "ships_count": 0, "projects": [], "coding_time_seconds": 0, "coding_time_seconds_today": 0, "balance": "You need to have a pocket watcher badge to view this.", "badges": [], "created_at": "2025-07-01T07:12:53.336-04:00", "updated_at": "2025-07-03T20:09:34.331-04:00", "avatar": "https://secure.gravatar.com/avatar/89f0aa864e01097ca9207a92c5d6dcb7.jpg?s=512&d=https%3A%2F%2Fa.slack-edge.com%2Fdf10d%2Fimg%2Favatars%2Fava_0013-512.png", "custom_css": null}, {"id": 13909, "slack_id": "U08RLRBU361", "display_name": "Soumy", "bio": null, "projects_count": 0, "devlogs_count": 0, "votes_count": 0, "ships_count": 0, "projects": [], "coding_time_seconds": 43719, "coding_time_seconds_today": 0, "balance": "You need to have a pocket watcher badge to view this.", "badges": [], "created_at": "2025-07-01T07:13:33.144-04:00", "updated_at": "2025-09-23T13:23:10.146-04:00", "avatar": "https://avatars.slack-edge.com/2025-09-23/9553388485479_1c6cd118c34a90b80b40_original.jpg", "custom_css": null}, {"id": 13910, "slack_id": "U093V5M4B8S", "display_name": "ukriu", "bio": null, "projects_count": 1, "devlogs_count": 2, "votes_count": 1, "ships_count": 0, "projects": [{"id": 11578, "title": "HyperUnlocked", "devlogs_count": 2, "created_at": "2025-08-17T06:56:41.701-04:00"}], "coding_time_seconds": 98519, "coding_time_seconds_today": 0, "balance": "You need to have a pocket watcher badge to view this.", "badges": [], "created_at": "2025-07-01T07:19:35.820-04:00", "updated_at": "2025-08-17T08:30:03.368-04:00", "avatar": "https://avatars.slack-edge.com/2025-07-01/9129481411765_45e618bf2b69c059dd34_original.png", "custom_css": null}, {"id": 13911, "slack_id": "U093F1HMQF9", "display_name": "Arnav Vijish", "bio": null, "projects_count": 0, "devlogs_count": 0, "votes_count": 0, "ships_count": 0, "projects": [], "coding_time_seconds": 0, "coding_time_seconds_today": 0, "balance": "You need to have a pocket watcher badge to view this.", "badges": [], "created_at": "2025-07-01T07:22:47.805-04:00", "updated_at": "2025-07-03T20:09:35.134-04:00", "avatar": "https://secure.gravatar.com/avatar/72f018f01ade2944c4836d9bce7026e7.jpg?s=512&d=https%3A%2F%2Fa.slack-edge.com%2Fdf10d%2Fimg%2Favatars%2Fava_0015-512.png", "custom_css": null}, {"id": 13912, "slack_id": "U093F21TYTZ", "display_name": "mik3lson", "bio": null, "projects_count": 0, "devlogs_count": 0, "votes_count": 0, "ships_count": 0, "projects": [], "coding_time_seconds": 0, "coding_time_seconds_today": 0, "balance": "You need to have a pocket watcher badge to view this.", "badges": [], "created_at": "2025-07-01T07:26:55.038-04:00", "updated_at": "2025-07-03T20:09:35.404-04:00", "avatar": "https://secure.gravatar.com/avatar/d18f626ded5efef51c85c8c04bd75ba7.jpg?s=512&d=https%3A%2F%2Fa.slack-edge.com%2Fdf10d%2Fimg%2Favatars%2Fava_0011-512.png", "custom_css": null}, {"id": 13913, "slack_id": "U093F3EK6LF", "display_name": "Aradhya Jain", "bio": null, "projects_count": 0, "devlogs_count": 0, "votes_count": 0, "ships_count": 0, "projects": [], "coding_time_seconds": 0, "coding_time_seconds_today": 0, "balance": "You need to have a pocket watcher badge to view this.", "badges": [], "created_at": "2025-07-01T07:36:28.859-04:00", "updated_at": "2025-07-04T02:34:15.493-04:00", "avatar": "https://secure.gravatar.com/avatar/3b2119308482a25c92d097d3107083ea.jpg?s=512&d=https%3A%2F%2Fa.slack-edge.com%2Fdf10d%2Fimg%2Favatars%2Fava_0024-512.png", "custom_css": null}, {"id": 13914, "slack_id": "U093WCED0DS", "display_name": "Imad", "bio": null, "projects_count": 0, "devlogs_count": 0, "votes_count": 0, "ships_count": 0, "projects": [], "coding_time_seconds": 0, "coding_time_seconds_today": 0, "balance": "You need to have a pocket watcher badge to view this.", "badges": [], "created_at": "2025-07-01T07:39:57.556-04:00", "updated_at": "2025-07-03T20:09:35.798-04:00", "avatar": "https://secure.gravatar.com/avatar/684c6e2f0828d78299f9c410241002d6.jpg?s=512&d=https%3A%2F%2Fa.slack-edge.com%2Fdf10d%2Fimg%2Favatars%2Fava_0019-512.png", "custom_css": null}, {"id": 13915, "slack_id": "U093PTUFACW", "display_name": "adrian", "bio": null, "projects_count": 0, "devlogs_count": 0, "votes_count": 0, "ships_count": 0, "projects": [], "coding_time_seconds": 0, "coding_time_seconds_today": 0, "balance": "You need to have a pocket watcher badge to view this.", "badges": [], "created_at": "2025-07-01T07:43:14.827-04:00", "updated_at": "2025-07-03T20:09:36.060-04:00", "avatar": "https://secure.gravatar.com/avatar/5c18f44e2cf32c837fd59e35b4b2c074.jpg?s=512&d=https%3A%2F%2Fa.slack-edge.com%2Fdf10d%2Fimg%2Favatars%2Fava_0013-512.png", "custom_css": null}, {"id": 13916, "slack_id": "U094H2X39JL", "display_name": "ashpect", "bio": null, "projects_count": 0, "devlogs_count": 0, "votes_count": 0, "ships_count": 0, "projects": [], "coding_time_seconds": 0, "coding_time_seconds_today": 0, "balance": "You need to have a pocket watcher badge to view this.", "badges": [], "created_at": "2025-07-01T07:46:23.919-04:00", "updated_at": "2025-07-03T20:09:36.333-04:00", "avatar": "https://secure.gravatar.com/avatar/97968d26d80d714163e444d77da1cd87.jpg?s=512&d=https%3A%2F%2Fa.slack-edge.com%2Fdf10d%2Fimg%2Favatars%2Fava_0014-512.png", "custom_css": null}, {"id": 13917, "slack_id": "U08S1NTUP89", "display_name": "grixami", "bio": null, "projects_count": 0, "devlogs_count": 1, "votes_count": 0, "ships_count": 0, "projects": [], "coding_time_seconds": 392886, "coding_time_seconds_today": 0, "balance": "You need to have a pocket watcher badge to view this.", "badges": [], "created_at": "2025-07-01T07:52:33.328-04:00", "updated_at": "2025-07-23T03:29:56.251-04:00", "avatar": "https://avatars.slack-edge.com/2025-06-26/9102011474118_54053b9c31d9ce5ea996_original.png", "custom_css": null}, {"id": 13918, "slack_id": "U09484GB6HX", "display_name": "FARHAN AHMED", "bio": null, "projects_count": 0, "devlogs_count": 0, "votes_count": 0, "ships_count": 0, "projects": [], "coding_time_seconds": 0, "coding_time_seconds_today": 0, "balance": "You need to have a pocket watcher badge to view this.", "badges": [], "created_at": "2025-07-01T07:54:29.216-04:00", "updated_at": "2025-07-11T11:21:36.595-04:00", "avatar": "https://secure.gravatar.com/avatar/b0f6fcd22a72bb283e01b96b7fa4bc7c.jpg?s=512&d=https%3A%2F%2Fa.slack-edge.com%2Fdf10d%2Fimg%2Favatars%2Fava_0017-512.png", "custom_css": null}, {"id": 13919, "slack_id": "U094H3XG6LQ", "display_name": "M.Sri Ram Sai Eswar", "bio": null, "projects_count": 0, "devlogs_count": 0, "votes_count": 0, "ships_count": 0, "projects": [], "coding_time_seconds": 0, "coding_time_seconds_today": 0, "balance": "You need to have a pocket watcher badge to view this.", "badges": [], "created_at": "2025-07-01T07:56:46.105-04:00", "updated_at": "2025-07-03T20:09:36.978-04:00", "avatar": "https://secure.gravatar.com/avatar/bd1d9b2bfb1ba0501f8cf6a462fd0c2d.jpg?s=512&d=https%3A%2F%2Fa.slack-edge.com%2Fdf10d%2Fimg%2Favatars%2Fava_0012-512.png", "custom_css": null}, {"id": 13920, "slack_id": "U07BUJWGGK0", "display_name": "Zeus", "bio": null, "projects_count": 0, "devlogs_count": 0, "votes_count": 0, "ships_count": 0, "projects": [], "coding_time_seconds": 522329, "coding_time_seconds_today": 0, "balance": "You need to have a pocket watcher badge to view this.", "badges": [], "created_at": "2025-07-01T08:03:40.997-04:00", "updated_at": "2025-08-25T01:18:07.548-04:00", "avatar": "https://avatars.slack-edge.com/2024-07-11/7402888511222_287d2c923d45a00619e8_original.jpg", "custom_css": null}], "pagination": {"page": 696, "pages": 1192, "count": 23828, "items": 20}}