{"users": [{"id": 13921, "slack_id": "U093F6J87GX", "display_name": "Kamal Singh", "bio": null, "projects_count": 0, "devlogs_count": 0, "votes_count": 0, "ships_count": 0, "projects": [], "coding_time_seconds": 0, "coding_time_seconds_today": 0, "balance": "You need to have a pocket watcher badge to view this.", "badges": [], "created_at": "2025-07-01T08:05:51.935-04:00", "updated_at": "2025-07-03T20:09:37.377-04:00", "avatar": "https://secure.gravatar.com/avatar/60732936fcca99117af31fe1c8e345c8.jpg?s=512&d=https%3A%2F%2Fa.slack-edge.com%2Fdf10d%2Fimg%2Favatars%2Fava_0017-512.png", "custom_css": null}, {"id": 13922, "slack_id": "U0947KGP73K", "display_name": "Ayush Singh", "bio": null, "projects_count": 1, "devlogs_count": 1, "votes_count": 1, "ships_count": 0, "projects": [{"id": 6134, "title": "Indian Startup Ecosystem Analysis & Funding Predictor", "devlogs_count": 1, "created_at": "2025-07-10T18:09:52.823-04:00"}], "coding_time_seconds": 63444, "coding_time_seconds_today": 0, "balance": "You need to have a pocket watcher badge to view this.", "badges": [], "created_at": "2025-07-01T08:09:16.847-04:00", "updated_at": "2025-07-10T18:06:46.904-04:00", "avatar": "https://secure.gravatar.com/avatar/458be38632cd858ca10528eaf8ed93ec.jpg?s=512&d=https%3A%2F%2Fa.slack-edge.com%2Fdf10d%2Fimg%2Favatars%2Fava_0019-512.png", "custom_css": null}, {"id": 13923, "slack_id": "U093Q2FHRQE", "display_name": "Ada", "bio": null, "projects_count": 0, "devlogs_count": 0, "votes_count": 0, "ships_count": 0, "projects": [], "coding_time_seconds": 0, "coding_time_seconds_today": 0, "balance": "You need to have a pocket watcher badge to view this.", "badges": [], "created_at": "2025-07-01T08:12:23.247-04:00", "updated_at": "2025-07-03T20:09:37.779-04:00", "avatar": "https://secure.gravatar.com/avatar/d4d2764c457a2f9f6df7c35749453466.jpg?s=512&d=https%3A%2F%2Fa.slack-edge.com%2Fdf10d%2Fimg%2Favatars%2Fava_0002-512.png", "custom_css": null}, {"id": 13924, "slack_id": "U093F79DFV5", "display_name": "krystianqur", "bio": null, "projects_count": 0, "devlogs_count": 0, "votes_count": 0, "ships_count": 0, "projects": [], "coding_time_seconds": 0, "coding_time_seconds_today": 0, "balance": "You need to have a pocket watcher badge to view this.", "badges": [], "created_at": "2025-07-01T08:15:56.691-04:00", "updated_at": "2025-07-03T20:09:38.061-04:00", "avatar": "https://secure.gravatar.com/avatar/be8499eb15cc60d6500c386a27892454.jpg?s=512&d=https%3A%2F%2Fa.slack-edge.com%2Fdf10d%2Fimg%2Favatars%2Fava_0017-512.png", "custom_css": null}, {"id": 13925, "slack_id": "U0806H4GNLF", "display_name": "deemduck", "bio": null, "projects_count": 0, "devlogs_count": 0, "votes_count": 0, "ships_count": 0, "projects": [], "coding_time_seconds": 0, "coding_time_seconds_today": 0, "balance": "You need to have a pocket watcher badge to view this.", "badges": [], "created_at": "2025-07-01T08:16:13.234-04:00", "updated_at": "2025-07-03T20:09:38.341-04:00", "avatar": "https://avatars.slack-edge.com/2025-06-30/9117454409763_a609ff0264722ab64927_original.jpg", "custom_css": null}, {"id": 13926, "slack_id": "U093N1YMEGK", "display_name": "Penuel", "bio": null, "projects_count": 0, "devlogs_count": 0, "votes_count": 0, "ships_count": 0, "projects": [], "coding_time_seconds": 0, "coding_time_seconds_today": 0, "balance": "You need to have a pocket watcher badge to view this.", "badges": [], "created_at": "2025-07-01T08:22:18.116-04:00", "updated_at": "2025-07-03T20:09:38.630-04:00", "avatar": "https://secure.gravatar.com/avatar/abbe8893c52ca476147e5e5eaa174c72.jpg?s=512&d=https%3A%2F%2Fa.slack-edge.com%2Fdf10d%2Fimg%2Favatars%2Fava_0022-512.png", "custom_css": null}, {"id": 13927, "slack_id": "U093WKBPJTW", "display_name": "Ttiki", "bio": null, "projects_count": 0, "devlogs_count": 0, "votes_count": 0, "ships_count": 0, "projects": [], "coding_time_seconds": 0, "coding_time_seconds_today": 0, "balance": "You need to have a pocket watcher badge to view this.", "badges": [], "created_at": "2025-07-01T08:29:28.384-04:00", "updated_at": "2025-07-03T22:05:02.024-04:00", "avatar": "https://secure.gravatar.com/avatar/1d66e2628cf6575e11950b2192942c3e.jpg?s=512&d=https%3A%2F%2Fa.slack-edge.com%2Fdf10d%2Fimg%2Favatars%2Fava_0020-512.png", "custom_css": null}, {"id": 13928, "slack_id": "U094H9HCQ0Y", "display_name": "\u30ef\u30a4\u30c9\u30b4\u30fc\u30eb\u30c9\u30a2\u30a4\u30c6\u30e0\u4fdd\u7ba1\u30b5\u30a4\u30ed", "bio": null, "projects_count": 0, "devlogs_count": 0, "votes_count": 0, "ships_count": 0, "projects": [], "coding_time_seconds": 0, "coding_time_seconds_today": 0, "balance": "You need to have a pocket watcher badge to view this.", "badges": [], "created_at": "2025-07-01T08:37:57.732-04:00", "updated_at": "2025-07-24T18:00:32.154-04:00", "avatar": "https://avatars.slack-edge.com/2025-07-01/9129644343797_6d8dde603a182d8762a4_original.jpg", "custom_css": null}, {"id": 13929, "slack_id": "U093VGKSCN6", "display_name": "Charos Yusupova", "bio": null, "projects_count": 0, "devlogs_count": 0, "votes_count": 0, "ships_count": 0, "projects": [], "coding_time_seconds": 0, "coding_time_seconds_today": 0, "balance": "You need to have a pocket watcher badge to view this.", "badges": [], "created_at": "2025-07-01T08:38:46.417-04:00", "updated_at": "2025-07-03T20:09:39.175-04:00", "avatar": "https://secure.gravatar.com/avatar/fccd8a8dc07770db87e46b01f272460d.jpg?s=512&d=https%3A%2F%2Fa.slack-edge.com%2Fdf10d%2Fimg%2Favatars%2Fava_0003-512.png", "custom_css": null}, {"id": 13930, "slack_id": "U093FBWL8MV", "display_name": "Jonah", "bio": null, "projects_count": 0, "devlogs_count": 0, "votes_count": 0, "ships_count": 0, "projects": [], "coding_time_seconds": 0, "coding_time_seconds_today": 0, "balance": "You need to have a pocket watcher badge to view this.", "badges": [], "created_at": "2025-07-01T08:39:53.354-04:00", "updated_at": "2025-07-03T20:09:39.441-04:00", "avatar": "https://secure.gravatar.com/avatar/7159eb363f2d94cfa5e280650f5d63d7.jpg?s=512&d=https%3A%2F%2Fa.slack-edge.com%2Fdf10d%2Fimg%2Favatars%2Fava_0000-512.png", "custom_css": null}, {"id": 13931, "slack_id": "U093N5RFTJ7", "display_name": "Lakshya Sharma", "bio": null, "projects_count": 0, "devlogs_count": 0, "votes_count": 0, "ships_count": 0, "projects": [], "coding_time_seconds": 0, "coding_time_seconds_today": 0, "balance": "You need to have a pocket watcher badge to view this.", "badges": [], "created_at": "2025-07-01T08:46:49.882-04:00", "updated_at": "2025-07-16T16:42:48.374-04:00", "avatar": "https://secure.gravatar.com/avatar/f789b37c244366f81363f6cfc51689c6.jpg?s=512&d=https%3A%2F%2Fa.slack-edge.com%2Fdf10d%2Fimg%2Favatars%2Fava_0022-512.png", "custom_css": null}, {"id": 13932, "slack_id": "U093TK7F9GV", "display_name": "Ananya", "bio": null, "projects_count": 0, "devlogs_count": 0, "votes_count": 0, "ships_count": 0, "projects": [], "coding_time_seconds": 0, "coding_time_seconds_today": 0, "balance": "You need to have a pocket watcher badge to view this.", "badges": [], "created_at": "2025-07-01T08:50:29.937-04:00", "updated_at": "2025-07-03T22:05:02.474-04:00", "avatar": "https://secure.gravatar.com/avatar/af574e9c33cee5403040532644861703.jpg?s=512&d=https%3A%2F%2Fa.slack-edge.com%2Fdf10d%2Fimg%2Favatars%2Fava_0012-512.png", "custom_css": null}, {"id": 13933, "slack_id": "U094HBDGSQG", "display_name": "flopater Esha", "bio": null, "projects_count": 0, "devlogs_count": 0, "votes_count": 0, "ships_count": 0, "projects": [], "coding_time_seconds": 0, "coding_time_seconds_today": 0, "balance": "You need to have a pocket watcher badge to view this.", "badges": [], "created_at": "2025-07-01T08:51:16.911-04:00", "updated_at": "2025-07-04T08:30:34.727-04:00", "avatar": "https://avatars.slack-edge.com/2025-07-01/9144447721137_8c9746a2141743022204_original.png", "custom_css": null}, {"id": 13934, "slack_id": "U093FG54R3R", "display_name": "Andr\u00e9 Luis", "bio": null, "projects_count": 0, "devlogs_count": 0, "votes_count": 0, "ships_count": 0, "projects": [], "coding_time_seconds": 378619, "coding_time_seconds_today": 0, "balance": "You need to have a pocket watcher badge to view this.", "badges": [], "created_at": "2025-07-01T09:02:35.871-04:00", "updated_at": "2025-07-04T08:30:34.826-04:00", "avatar": "https://secure.gravatar.com/avatar/fb975c3951f42c7ac1f00546cf8238be.jpg?s=512&d=https%3A%2F%2Fa.slack-edge.com%2Fdf10d%2Fimg%2Favatars%2Fava_0018-512.png", "custom_css": null}, {"id": 13935, "slack_id": "U094HE47VEC", "display_name": "Hank He", "bio": null, "projects_count": 1, "devlogs_count": 0, "votes_count": 1, "ships_count": 0, "projects": [{"id": 5763, "title": "Animal Choir Simulator", "devlogs_count": 0, "created_at": "2025-07-07T19:27:58.155-04:00"}], "coding_time_seconds": 6067, "coding_time_seconds_today": 0, "balance": "You need to have a pocket watcher badge to view this.", "badges": [], "created_at": "2025-07-01T09:05:02.789-04:00", "updated_at": "2025-07-03T20:09:40.250-04:00", "avatar": "https://secure.gravatar.com/avatar/cf557427fe513ad3b9461973b989dea6.jpg?s=512&d=https%3A%2F%2Fa.slack-edge.com%2Fdf10d%2Fimg%2Favatars%2Fava_0026-512.png", "custom_css": null}, {"id": 13936, "slack_id": "U093QB41H62", "display_name": "Shailendra Sahani", "bio": null, "projects_count": 0, "devlogs_count": 0, "votes_count": 0, "ships_count": 0, "projects": [], "coding_time_seconds": 0, "coding_time_seconds_today": 0, "balance": "You need to have a pocket watcher badge to view this.", "badges": [], "created_at": "2025-07-01T09:05:22.095-04:00", "updated_at": "2025-07-03T22:05:02.826-04:00", "avatar": "https://secure.gravatar.com/avatar/5a5bb41b8b4c114dfc1f289e47486627.jpg?s=512&d=https%3A%2F%2Fa.slack-edge.com%2Fdf10d%2Fimg%2Favatars%2Fava_0014-512.png", "custom_css": null}, {"id": 13937, "slack_id": "U08B534DRML", "display_name": "lowes2", "bio": null, "projects_count": 0, "devlogs_count": 0, "votes_count": 0, "ships_count": 0, "projects": [], "coding_time_seconds": 17, "coding_time_seconds_today": 0, "balance": "You need to have a pocket watcher badge to view this.", "badges": [], "created_at": "2025-07-01T09:07:30.955-04:00", "updated_at": "2025-07-03T20:09:40.642-04:00", "avatar": "https://avatars.slack-edge.com/2025-02-13/8435854201095_f8fd065477cfee2732fd_original.png", "custom_css": null}, {"id": 13938, "slack_id": "U078KGHJL4T", "display_name": "HJRaptor", "bio": null, "projects_count": 0, "devlogs_count": 0, "votes_count": 0, "ships_count": 0, "projects": [], "coding_time_seconds": 20462, "coding_time_seconds_today": 0, "balance": "You need to have a pocket watcher badge to view this.", "badges": [], "created_at": "2025-07-01T09:14:26.439-04:00", "updated_at": "2025-07-04T02:34:17.191-04:00", "avatar": "https://avatars.slack-edge.com/2024-06-23/7330112936225_b99973264f278e86c694_original.png", "custom_css": null}, {"id": 13939, "slack_id": "U093QCKMP4N", "display_name": "aryaa agarwal", "bio": null, "projects_count": 0, "devlogs_count": 0, "votes_count": 0, "ships_count": 0, "projects": [], "coding_time_seconds": 0, "coding_time_seconds_today": 0, "balance": "You need to have a pocket watcher badge to view this.", "badges": [], "created_at": "2025-07-01T09:15:11.721-04:00", "updated_at": "2025-07-03T20:09:41.062-04:00", "avatar": "https://secure.gravatar.com/avatar/40d1ee2acc54461fd8581189e3ddb643.jpg?s=512&d=https%3A%2F%2Fa.slack-edge.com%2Fdf10d%2Fimg%2Favatars%2Fava_0004-512.png", "custom_css": null}, {"id": 13940, "slack_id": "U0948HQUA8Z", "display_name": "SATYAPAL RAJ", "bio": null, "projects_count": 0, "devlogs_count": 0, "votes_count": 0, "ships_count": 0, "projects": [], "coding_time_seconds": 0, "coding_time_seconds_today": 0, "balance": "You need to have a pocket watcher badge to view this.", "badges": [], "created_at": "2025-07-01T09:19:49.882-04:00", "updated_at": "2025-07-03T20:09:41.361-04:00", "avatar": "https://avatars.slack-edge.com/2025-07-03/9141783456946_d79c78b12e37b7f3e926_original.png", "custom_css": null}], "pagination": {"page": 697, "pages": 1192, "count": 23828, "items": 20}}