{"users": [{"id": 13941, "slack_id": "U0948HZH36V", "display_name": "Cipher Shadow", "bio": null, "projects_count": 0, "devlogs_count": 0, "votes_count": 0, "ships_count": 0, "projects": [], "coding_time_seconds": 0, "coding_time_seconds_today": 0, "balance": "You need to have a pocket watcher badge to view this.", "badges": [], "created_at": "2025-07-01T09:21:31.638-04:00", "updated_at": "2025-07-03T20:09:41.632-04:00", "avatar": "https://avatars.slack-edge.com/2025-07-01/9144630366705_f9be361f657e7f6dfeff_original.jpg", "custom_css": null}, {"id": 13942, "slack_id": "U093NCMTXHR", "display_name": "Ankith", "bio": null, "projects_count": 0, "devlogs_count": 0, "votes_count": 0, "ships_count": 0, "projects": [], "coding_time_seconds": 0, "coding_time_seconds_today": 0, "balance": "You need to have a pocket watcher badge to view this.", "badges": [], "created_at": "2025-07-01T09:26:00.850-04:00", "updated_at": "2025-07-05T08:15:53.958-04:00", "avatar": "https://secure.gravatar.com/avatar/993e1a55a2250a6296a60ea55d341734.jpg?s=512&d=https%3A%2F%2Fa.slack-edge.com%2Fdf10d%2Fimg%2Favatars%2Fava_0013-512.png", "custom_css": null}, {"id": 13943, "slack_id": "U093QF0HFGE", "display_name": "GitHub", "bio": null, "projects_count": 0, "devlogs_count": 0, "votes_count": 0, "ships_count": 0, "projects": [], "coding_time_seconds": 0, "coding_time_seconds_today": 0, "balance": "You need to have a pocket watcher badge to view this.", "badges": [], "created_at": "2025-07-01T09:27:19.068-04:00", "updated_at": "2025-07-03T20:09:42.050-04:00", "avatar": "https://secure.gravatar.com/avatar/cf2cc27e8872eb178c9cd27b96a4f8bc.jpg?s=512&d=https%3A%2F%2Fa.slack-edge.com%2Fdf10d%2Fimg%2Favatars%2Fava_0017-512.png", "custom_css": null}, {"id": 13944, "slack_id": "U093FMMMYCF", "display_name": "Preyansh Thaker", "bio": null, "projects_count": 0, "devlogs_count": 0, "votes_count": 0, "ships_count": 0, "projects": [], "coding_time_seconds": 0, "coding_time_seconds_today": 0, "balance": "You need to have a pocket watcher badge to view this.", "badges": [], "created_at": "2025-07-01T09:34:12.366-04:00", "updated_at": "2025-07-03T20:09:42.319-04:00", "avatar": "https://secure.gravatar.com/avatar/3c8a1ee89b444f4d52dd8cb351b5168e.jpg?s=512&d=https%3A%2F%2Fa.slack-edge.com%2Fdf10d%2Fimg%2Favatars%2Fava_0008-512.png", "custom_css": null}, {"id": 13945, "slack_id": "U093VSFFJ1Y", "display_name": "Suyash Nepal", "bio": null, "projects_count": 0, "devlogs_count": 0, "votes_count": 0, "ships_count": 0, "projects": [], "coding_time_seconds": 0, "coding_time_seconds_today": 0, "balance": "You need to have a pocket watcher badge to view this.", "badges": [], "created_at": "2025-07-01T09:34:25.379-04:00", "updated_at": "2025-07-03T20:09:42.581-04:00", "avatar": "https://avatars.slack-edge.com/2025-07-01/9133071708180_9458db162f5aacf45093_original.jpg", "custom_css": null}, {"id": 13946, "slack_id": "U093QGGUDRC", "display_name": "Jenifer Pl\u00e1cido", "bio": null, "projects_count": 0, "devlogs_count": 0, "votes_count": 0, "ships_count": 0, "projects": [], "coding_time_seconds": 0, "coding_time_seconds_today": 0, "balance": "You need to have a pocket watcher badge to view this.", "badges": [], "created_at": "2025-07-01T09:34:37.369-04:00", "updated_at": "2025-07-05T20:15:52.768-04:00", "avatar": "https://secure.gravatar.com/avatar/c0b633c404cb092a62e265ac4201d6b6.jpg?s=512&d=https%3A%2F%2Fa.slack-edge.com%2Fdf10d%2Fimg%2Favatars%2Fava_0018-512.png", "custom_css": null}, {"id": 13947, "slack_id": "U06MP6FJB4K", "display_name": "abhi", "bio": null, "projects_count": 0, "devlogs_count": 0, "votes_count": 0, "ships_count": 0, "projects": [], "coding_time_seconds": 0, "coding_time_seconds_today": 0, "balance": "You need to have a pocket watcher badge to view this.", "badges": [], "created_at": "2025-07-01T09:35:04.039-04:00", "updated_at": "2025-07-03T20:09:42.976-04:00", "avatar": "https://avatars.slack-edge.com/2024-03-03/6730722490806_9e52b428282c1bce65bc_original.png", "custom_css": null}, {"id": 13948, "slack_id": "U091BRVU63Y", "display_name": "Adneem Al Tahsan", "bio": null, "projects_count": 0, "devlogs_count": 0, "votes_count": 0, "ships_count": 0, "projects": [], "coding_time_seconds": 0, "coding_time_seconds_today": 0, "balance": "You need to have a pocket watcher badge to view this.", "badges": [], "created_at": "2025-07-01T09:36:18.032-04:00", "updated_at": "2025-07-04T20:14:51.390-04:00", "avatar": "https://secure.gravatar.com/avatar/789757fe449b0bde5dcfc8c2c6d363eb.jpg?s=512&d=https%3A%2F%2Fa.slack-edge.com%2Fdf10d%2Fimg%2Favatars%2Fava_0012-512.png", "custom_css": null}, {"id": 13949, "slack_id": "U093QF93S06", "display_name": "AzharKusmanova", "bio": null, "projects_count": 0, "devlogs_count": 0, "votes_count": 0, "ships_count": 0, "projects": [], "coding_time_seconds": 0, "coding_time_seconds_today": 0, "balance": "You need to have a pocket watcher badge to view this.", "badges": [], "created_at": "2025-07-01T09:36:35.235-04:00", "updated_at": "2025-07-07T12:23:55.294-04:00", "avatar": "https://secure.gravatar.com/avatar/013d2d20667daaa5b50b527ae538d441.jpg?s=512&d=https%3A%2F%2Fa.slack-edge.com%2Fdf10d%2Fimg%2Favatars%2Fava_0026-512.png", "custom_css": null}, {"id": 13950, "slack_id": "U093X356AGL", "display_name": "Saksham Agrawal", "bio": null, "projects_count": 0, "devlogs_count": 0, "votes_count": 0, "ships_count": 0, "projects": [], "coding_time_seconds": 0, "coding_time_seconds_today": 0, "balance": "You need to have a pocket watcher badge to view this.", "badges": [], "created_at": "2025-07-01T09:43:39.469-04:00", "updated_at": "2025-07-03T20:09:43.640-04:00", "avatar": "https://secure.gravatar.com/avatar/7813f4f73a94aaeb3a23056798adb4b6.jpg?s=512&d=https%3A%2F%2Fa.slack-edge.com%2Fdf10d%2Fimg%2Favatars%2Fava_0022-512.png", "custom_css": null}, {"id": 13951, "slack_id": "U093NGDPKPV", "display_name": "Hembdr Pun", "bio": null, "projects_count": 0, "devlogs_count": 0, "votes_count": 0, "ships_count": 0, "projects": [], "coding_time_seconds": 0, "coding_time_seconds_today": 0, "balance": "You need to have a pocket watcher badge to view this.", "badges": [], "created_at": "2025-07-01T09:46:29.017-04:00", "updated_at": "2025-07-08T03:12:38.365-04:00", "avatar": "https://secure.gravatar.com/avatar/37dee0926056f1b6c0696e9578a9f22f.jpg?s=512&d=https%3A%2F%2Fa.slack-edge.com%2Fdf10d%2Fimg%2Favatars%2Fava_0019-512.png", "custom_css": null}, {"id": 13952, "slack_id": "U093VUM4UKU", "display_name": "R Mohanish", "bio": null, "projects_count": 0, "devlogs_count": 0, "votes_count": 0, "ships_count": 0, "projects": [], "coding_time_seconds": 0, "coding_time_seconds_today": 0, "balance": "You need to have a pocket watcher badge to view this.", "badges": [], "created_at": "2025-07-01T09:47:33.549-04:00", "updated_at": "2025-07-05T08:15:54.563-04:00", "avatar": "https://secure.gravatar.com/avatar/94a253fb5ae8357085a7d798a3bcc2a1.jpg?s=512&d=https%3A%2F%2Fa.slack-edge.com%2Fdf10d%2Fimg%2Favatars%2Fava_0001-512.png", "custom_css": null}, {"id": 13953, "slack_id": "U093NH7CHD1", "display_name": "JASHWANTH DASARI", "bio": null, "projects_count": 0, "devlogs_count": 0, "votes_count": 0, "ships_count": 0, "projects": [], "coding_time_seconds": 0, "coding_time_seconds_today": 0, "balance": "You need to have a pocket watcher badge to view this.", "badges": [], "created_at": "2025-07-01T09:55:06.357-04:00", "updated_at": "2025-07-03T20:09:44.171-04:00", "avatar": "https://avatars.slack-edge.com/2025-07-01/9144837464641_c1620e7e1c4a02f08a9a_original.jpg", "custom_css": null}, {"id": 13954, "slack_id": "U0948RGTZPT", "display_name": "Dhananjay Kumar", "bio": null, "projects_count": 0, "devlogs_count": 0, "votes_count": 0, "ships_count": 0, "projects": [], "coding_time_seconds": 0, "coding_time_seconds_today": 0, "balance": "You need to have a pocket watcher badge to view this.", "badges": [], "created_at": "2025-07-01T10:10:19.588-04:00", "updated_at": "2025-07-05T02:15:32.579-04:00", "avatar": "https://secure.gravatar.com/avatar/da1a3f4c0c6de2bcf90c6f3517b52b18.jpg?s=512&d=https%3A%2F%2Fa.slack-edge.com%2Fdf10d%2Fimg%2Favatars%2Fava_0005-512.png", "custom_css": null}, {"id": 13955, "slack_id": "U093FRU8NUX", "display_name": "Arun", "bio": null, "projects_count": 0, "devlogs_count": 0, "votes_count": 0, "ships_count": 0, "projects": [], "coding_time_seconds": 0, "coding_time_seconds_today": 0, "balance": "You need to have a pocket watcher badge to view this.", "badges": [], "created_at": "2025-07-01T10:11:20.187-04:00", "updated_at": "2025-07-03T20:09:44.572-04:00", "avatar": "https://secure.gravatar.com/avatar/92efa7d94985d2a5d175c0a232c0f857.jpg?s=512&d=https%3A%2F%2Fa.slack-edge.com%2Fdf10d%2Fimg%2Favatars%2Fava_0008-512.png", "custom_css": null}, {"id": 13956, "slack_id": "U093QQ7BCSJ", "display_name": "Elias", "bio": null, "projects_count": 0, "devlogs_count": 0, "votes_count": 0, "ships_count": 0, "projects": [], "coding_time_seconds": 0, "coding_time_seconds_today": 0, "balance": "You need to have a pocket watcher badge to view this.", "badges": [], "created_at": "2025-07-01T10:14:49.648-04:00", "updated_at": "2025-07-03T20:09:44.853-04:00", "avatar": "https://secure.gravatar.com/avatar/9dd3b6621bd25933c90575dea2cf3f0e.jpg?s=512&d=https%3A%2F%2Fa.slack-edge.com%2Fdf10d%2Fimg%2Favatars%2Fava_0019-512.png", "custom_css": null}, {"id": 13957, "slack_id": "U094HSJ1BR6", "display_name": "Kat Lin", "bio": null, "projects_count": 0, "devlogs_count": 0, "votes_count": 0, "ships_count": 0, "projects": [], "coding_time_seconds": 241, "coding_time_seconds_today": 0, "balance": "You need to have a pocket watcher badge to view this.", "badges": [], "created_at": "2025-07-01T10:15:59.451-04:00", "updated_at": "2025-07-04T08:30:36.487-04:00", "avatar": "https://secure.gravatar.com/avatar/d2baba8ccf497cf2b163c91ed07d4dae.jpg?s=512&d=https%3A%2F%2Fa.slack-edge.com%2Fdf10d%2Fimg%2Favatars%2Fava_0010-512.png", "custom_css": null}, {"id": 13958, "slack_id": "U093NMVF6SX", "display_name": "Led Remavega", "bio": null, "projects_count": 0, "devlogs_count": 0, "votes_count": 0, "ships_count": 0, "projects": [], "coding_time_seconds": 0, "coding_time_seconds_today": 0, "balance": "You need to have a pocket watcher badge to view this.", "badges": [], "created_at": "2025-07-01T10:17:27.791-04:00", "updated_at": "2025-07-03T20:09:45.255-04:00", "avatar": "https://secure.gravatar.com/avatar/e48b8009e3991e95aef92478a1e849ed.jpg?s=512&d=https%3A%2F%2Fa.slack-edge.com%2Fdf10d%2Fimg%2Favatars%2Fava_0000-512.png", "custom_css": null}, {"id": 13959, "slack_id": "U093U7ACSSZ", "display_name": "A", "bio": null, "projects_count": 0, "devlogs_count": 0, "votes_count": 0, "ships_count": 0, "projects": [], "coding_time_seconds": 0, "coding_time_seconds_today": 0, "balance": "You need to have a pocket watcher badge to view this.", "badges": [], "created_at": "2025-07-01T10:22:27.042-04:00", "updated_at": "2025-07-03T20:09:45.528-04:00", "avatar": "https://avatars.slack-edge.com/2025-07-01/9118066294967_ab9b5e6968f4f9fa84ff_original.png", "custom_css": null}, {"id": 13960, "slack_id": "U093NQ2JJCB", "display_name": "Sangeetha", "bio": null, "projects_count": 1, "devlogs_count": 2, "votes_count": 11, "ships_count": 1, "projects": [{"id": 5218, "title": "Interior Designer Website", "devlogs_count": 2, "created_at": "2025-07-03T20:43:10.130-04:00"}], "coding_time_seconds": 115179, "coding_time_seconds_today": 0, "balance": "You need to have a pocket watcher badge to view this.", "badges": [{"name": "Maiden Voyage", "text": "you shipped your first project! the journey begins...", "icon": "\ud83d\udea2"}], "created_at": "2025-07-01T10:27:18.245-04:00", "updated_at": "2025-09-10T22:58:08.427-04:00", "avatar": "https://secure.gravatar.com/avatar/3fe206a7ce768a1a8d54ae436cb536ba.jpg?s=512&d=https%3A%2F%2Fa.slack-edge.com%2Fdf10d%2Fimg%2Favatars%2Fava_0023-512.png", "custom_css": null}], "pagination": {"page": 698, "pages": 1192, "count": 23828, "items": 20}}