{"users": [{"id": 121, "slack_id": "UDK5M9Y13", "display_name": "cwalker", "bio": null, "projects_count": 1, "devlogs_count": 2, "votes_count": 2, "ships_count": 0, "projects": [{"id": 10255, "title": "Hack Club Essays", "devlogs_count": 1, "created_at": "2025-08-05T11:57:32.652-04:00"}], "coding_time_seconds": 40546, "coding_time_seconds_today": 0, "balance": "You need to have a pocket watcher badge to view this.", "badges": [{"name": "<%= admin_tool do %>", "text": "with great power comes great responsibility... and a ban hammer.", "icon": "\ud83d\udd28"}, {"name": "Maiden Voyage", "text": "you shipped your first project! the journey begins...", "icon": "\ud83d\udea2"}], "created_at": "2025-06-16T00:22:30.121-04:00", "updated_at": "2025-09-10T22:51:09.586-04:00", "avatar": "https://avatars.slack-edge.com/2024-09-18/7741282663462_be619c5a709929f29524_original.jpg", "custom_css": null}, {"id": 122, "slack_id": "U079E6V7R28", "display_name": "Nibbles", "bio": null, "projects_count": 3, "devlogs_count": 18, "votes_count": 8, "ships_count": 1, "projects": [{"id": 81, "title": "Yanimator", "devlogs_count": 4, "created_at": "2025-06-16T12:23:16.250-04:00"}, {"id": 357, "title": "Yan", "devlogs_count": 6, "created_at": "2025-06-16T19:03:14.287-04:00"}, {"id": 11811, "title": "Rhythm Tengoku - Deltarune Battle in Night Walk Mod", "devlogs_count": 8, "created_at": "2025-08-19T17:49:20.749-04:00"}], "coding_time_seconds": 178976, "coding_time_seconds_today": 0, "balance": "You need to have a pocket watcher badge to view this.", "badges": [{"name": "Maiden Voyage", "text": "you shipped your first project! the journey begins...", "icon": "\ud83d\udea2"}], "created_at": "2025-06-16T00:25:54.865-04:00", "updated_at": "2025-09-10T22:51:09.621-04:00", "avatar": "https://avatars.slack-edge.com/2024-06-22/7311126135782_bbb6a69e1da606f6a474_original.png", "custom_css": null}, {"id": 123, "slack_id": "U091L9Y85FE", "display_name": "meow meow", "bio": null, "projects_count": 0, "devlogs_count": 0, "votes_count": 0, "ships_count": 0, "projects": [], "coding_time_seconds": 0, "coding_time_seconds_today": 0, "balance": "You need to have a pocket watcher badge to view this.", "badges": [], "created_at": "2025-06-16T00:28:57.246-04:00", "updated_at": "2025-07-03T19:11:31.173-04:00", "avatar": "https://secure.gravatar.com/avatar/6c6919e8afe25693d5eb858d6b195bb4.jpg?s=512&d=https%3A%2F%2Fa.slack-edge.com%2Fdf10d%2Fimg%2Favatars%2Fava_0018-512.png", "custom_css": null}, {"id": 124, "slack_id": "U07ABK0UD61", "display_name": "microwave", "bio": null, "projects_count": 0, "devlogs_count": 0, "votes_count": 0, "ships_count": 0, "projects": [], "coding_time_seconds": 0, "coding_time_seconds_today": 0, "balance": "You need to have a pocket watcher badge to view this.", "badges": [], "created_at": "2025-06-16T00:30:05.871-04:00", "updated_at": "2025-07-03T19:11:31.451-04:00", "avatar": "https://avatars.slack-edge.com/2024-07-10/7403368082834_1bc1cf03bd7e807b482a_original.jpg", "custom_css": null}, {"id": 125, "slack_id": "U06UYA5GMB5", "display_name": "Jeremy", "bio": null, "projects_count": 2, "devlogs_count": 3, "votes_count": 20, "ships_count": 1, "projects": [{"id": 12625, "title": "AnonConnect", "devlogs_count": 1, "created_at": "2025-08-30T17:36:55.406-04:00"}, {"id": 13324, "title": "SlackFS", "devlogs_count": 1, "created_at": "2025-09-14T03:08:27.910-04:00"}], "coding_time_seconds": 394956, "coding_time_seconds_today": 0, "balance": "You need to have a pocket watcher badge to view this.", "badges": [{"name": "Maiden Voyage", "text": "you shipped your first project! the journey begins...", "icon": "\ud83d\udea2"}], "created_at": "2025-06-16T00:30:32.662-04:00", "updated_at": "2025-09-10T22:51:09.725-04:00", "avatar": "https://avatars.slack-edge.com/2025-08-14/9364799505153_08d39ae979bf06875f2e_original.png", "custom_css": null}, {"id": 126, "slack_id": "U07C3SJ99RP", "display_name": "dave9123", "bio": "Hello there, I'm Dave, a student developer from Indonesia", "projects_count": 3, "devlogs_count": 26, "votes_count": 9, "ships_count": 1, "projects": [{"id": 5822, "title": "Recall Me", "devlogs_count": 15, "created_at": "2025-07-08T09:02:59.623-04:00"}, {"id": 9603, "title": "InstaQuote", "devlogs_count": 1, "created_at": "2025-08-01T20:50:34.863-04:00"}, {"id": 32, "title": "Lenie", "devlogs_count": 10, "created_at": "2025-06-16T04:06:33.355-04:00"}], "coding_time_seconds": 274340, "coding_time_seconds_today": 0, "balance": "You need to have a pocket watcher badge to view this.", "badges": [{"name": "Maiden Voyage", "text": "you shipped your first project! the journey begins...", "icon": "\ud83d\udea2"}], "created_at": "2025-06-16T00:33:38.352-04:00", "updated_at": "2025-09-10T22:51:09.773-04:00", "avatar": "https://secure.gravatar.com/avatar/a5f2e9c21189eda58ed2e3c5b05be80a.jpg?s=512&d=https%3A%2F%2Fa.slack-edge.com%2Fdf10d%2Fimg%2Favatars%2Fava_0000-512.png", "custom_css": null}, {"id": 127, "slack_id": "U08BBLLG6JE", "display_name": "logabe", "bio": null, "projects_count": 5, "devlogs_count": 36, "votes_count": 48, "ships_count": 2, "projects": [{"id": 4299, "title": "MiniChat: Simple web chat in Rust", "devlogs_count": 19, "created_at": "2025-06-28T18:56:14.402-04:00"}, {"id": 7776, "title": "WIP Social Media", "devlogs_count": 2, "created_at": "2025-07-23T01:51:46.937-04:00"}, {"id": 10707, "title": "Mini Libraries: Book sharing platform", "devlogs_count": 1, "created_at": "2025-08-10T01:07:30.642-04:00"}, {"id": 12347, "title": "PianoFlow: Piano practice and Rhythm game", "devlogs_count": 9, "created_at": "2025-08-26T03:09:08.141-04:00"}, {"id": 1639, "title": "Pass-the-project: Slack-based community game", "devlogs_count": 5, "created_at": "2025-06-18T22:56:43.954-04:00"}], "coding_time_seconds": 372738, "coding_time_seconds_today": 561, "balance": "You need to have a pocket watcher badge to view this.", "badges": [{"name": "Maiden Voyage", "text": "you shipped your first project! the journey begins...", "icon": "\ud83d\udea2"}], "created_at": "2025-06-16T00:37:14.265-04:00", "updated_at": "2025-09-10T22:51:09.832-04:00", "avatar": "https://avatars.slack-edge.com/2025-03-18/8623823885363_471eb91f9bbd28b24b1e_original.jpg", "custom_css": null}, {"id": 128, "slack_id": "U05UQ2RTJ6T", "display_name": "Mohamad", "bio": null, "projects_count": 0, "devlogs_count": 0, "votes_count": 0, "ships_count": 0, "projects": [], "coding_time_seconds": 520467, "coding_time_seconds_today": 615, "balance": "You need to have a pocket watcher badge to view this.", "badges": [], "created_at": "2025-06-16T00:41:33.782-04:00", "updated_at": "2025-07-29T19:30:01.182-04:00", "avatar": "https://avatars.slack-edge.com/2025-06-23/9075019480519_c2545225f31eb21e2fa5_original.png", "custom_css": null}, {"id": 129, "slack_id": "U07DGKKHDJ9", "display_name": "MMKF", "bio": null, "projects_count": 1, "devlogs_count": 0, "votes_count": 1, "ships_count": 0, "projects": [{"id": 5567, "title": "Flipper Zero Philips sonicare toothbrush unlocker", "devlogs_count": 0, "created_at": "2025-07-06T08:30:21.379-04:00"}], "coding_time_seconds": 5580, "coding_time_seconds_today": 0, "balance": "You need to have a pocket watcher badge to view this.", "badges": [], "created_at": "2025-06-16T00:47:39.975-04:00", "updated_at": "2025-07-06T04:34:10.808-04:00", "avatar": "https://secure.gravatar.com/avatar/12bc0bc9fba47632ea3de50e8c09f294.jpg?s=512&d=https%3A%2F%2Fa.slack-edge.com%2Fdf10d%2Fimg%2Favatars%2Fava_0024-512.png", "custom_css": null}, {"id": 130, "slack_id": "U079V1D2W0J", "display_name": "Shubh", "bio": null, "projects_count": 3, "devlogs_count": 6, "votes_count": 20, "ships_count": 1, "projects": [{"id": 4070, "title": "Prizmlearn", "devlogs_count": 0, "created_at": "2025-06-27T08:45:37.168-04:00"}, {"id": 1240, "title": "Scrapesite", "devlogs_count": 0, "created_at": "2025-06-18T01:05:35.393-04:00"}, {"id": 4336, "title": "IPMATbot", "devlogs_count": 6, "created_at": "2025-06-29T04:21:18.950-04:00"}], "coding_time_seconds": 274895, "coding_time_seconds_today": 960, "balance": "You need to have a pocket watcher badge to view this.", "badges": [{"name": "Maiden Voyage", "text": "you shipped your first project! the journey begins...", "icon": "\ud83d\udea2"}, {"name": "Graphic Design is My Passion", "text": "Oh God How Did This Get Here I Am Not Good With Computer", "icon": "\ud83c\udfa8"}, {"name": "Spider", "text": "this user has a pet!", "icon": "\ud83d\udd77\ufe0f"}], "created_at": "2025-06-16T00:50:11.061-04:00", "updated_at": "2025-09-10T22:51:09.935-04:00", "avatar": "https://avatars.slack-edge.com/2025-09-03/9454729092724_8ec71119481bcdddde5a_original.jpg", "custom_css": null}, {"id": 131, "slack_id": "U081YTQ1AMR", "display_name": "John Meshtastic", "bio": null, "projects_count": 1, "devlogs_count": 7, "votes_count": 0, "ships_count": 0, "projects": [{"id": 1314, "title": "I made my own web", "devlogs_count": 7, "created_at": "2025-06-18T07:58:20.356-04:00"}], "coding_time_seconds": 233176, "coding_time_seconds_today": 0, "balance": "You need to have a pocket watcher badge to view this.", "badges": [], "created_at": "2025-06-16T00:50:25.321-04:00", "updated_at": "2025-08-09T11:40:37.604-04:00", "avatar": "https://avatars.slack-edge.com/2024-11-21/8089854813168_4eb4dfe527a067c2c47c_original.jpg", "custom_css": null}, {"id": 132, "slack_id": "U06391ZNZNW", "display_name": "Guy", "bio": null, "projects_count": 9, "devlogs_count": 13, "votes_count": 56, "ships_count": 5, "projects": [{"id": 5643, "title": "Ultimate Sqeak Mouse", "devlogs_count": 2, "created_at": "2025-07-06T20:42:55.607-04:00"}, {"id": 8400, "title": "HackDucky Browsing History Stealer", "devlogs_count": 1, "created_at": "2025-07-26T20:40:44.140-04:00"}, {"id": 10666, "title": "Hack Club YSWS storage API", "devlogs_count": 0, "created_at": "2025-08-09T13:03:48.802-04:00"}, {"id": 13640, "title": "The Ugly Isles", "devlogs_count": 1, "created_at": "2025-09-21T17:36:54.303-04:00"}, {"id": 13263, "title": "Canvas Module Downloader", "devlogs_count": 4, "created_at": "2025-09-12T21:21:52.004-04:00"}, {"id": 28, "title": "Static Hack Club", "devlogs_count": 0, "created_at": "2025-06-16T01:04:36.832-04:00"}, {"id": 71, "title": "Dodoloader", "devlogs_count": 0, "created_at": "2025-06-16T12:05:41.603-04:00"}, {"id": 5217, "title": "4 LEDs + 4 Button Games for Pathfinder (PCB+2 Games)", "devlogs_count": 2, "created_at": "2025-07-03T20:42:31.000-04:00"}, {"id": 2336, "title": "HCmail", "devlogs_count": 3, "created_at": "2025-06-20T18:15:55.677-04:00"}], "coding_time_seconds": 305149, "coding_time_seconds_today": 0, "balance": "You need to have a pocket watcher badge to view this.", "badges": [{"name": "Maiden Voyage", "text": "you shipped your first project! the journey begins...", "icon": "\ud83d\udea2"}], "created_at": "2025-06-16T00:55:44.223-04:00", "updated_at": "2025-09-10T22:51:10.008-04:00", "avatar": "https://avatars.slack-edge.com/2023-10-28/6113518343412_1d907d6597a278566bad_original.png", "custom_css": null}, {"id": 133, "slack_id": "U056J6JURFF", "display_name": "sofia", "bio": null, "projects_count": 1, "devlogs_count": 0, "votes_count": 0, "ships_count": 0, "projects": [{"id": 4750, "title": "llp", "devlogs_count": 0, "created_at": "2025-07-01T11:22:30.796-04:00"}], "coding_time_seconds": 227032, "coding_time_seconds_today": 960, "balance": "You need to have a pocket watcher badge to view this.", "badges": [], "created_at": "2025-06-16T01:02:02.082-04:00", "updated_at": "2025-08-24T02:00:21.126-04:00", "avatar": "https://avatars.slack-edge.com/2025-08-24/9413676362945_140b26ae1e9b306bb8b2_original.png", "custom_css": null}, {"id": 134, "slack_id": "U07CAPBB9B5", "display_name": "ajhalili2006", "bio": null, "projects_count": 0, "devlogs_count": 0, "votes_count": 0, "ships_count": 0, "projects": [], "coding_time_seconds": 45526, "coding_time_seconds_today": 0, "balance": "You need to have a pocket watcher badge to view this.", "badges": [], "created_at": "2025-06-16T01:06:27.962-04:00", "updated_at": "2025-09-10T20:00:25.919-04:00", "avatar": "https://avatars.slack-edge.com/2025-09-11/9497171314002_9ae2934c67278a720146_original.jpg", "custom_css": null}, {"id": 135, "slack_id": "U06270VKY4V", "display_name": "adi", "bio": null, "projects_count": 0, "devlogs_count": 0, "votes_count": 0, "ships_count": 0, "projects": [], "coding_time_seconds": 30680, "coding_time_seconds_today": 0, "balance": "You need to have a pocket watcher badge to view this.", "badges": [], "created_at": "2025-06-16T01:06:57.487-04:00", "updated_at": "2025-07-13T00:01:03.680-04:00", "avatar": "https://avatars.slack-edge.com/2024-10-16/7871655554967_c215dec02f46f7e635b8_original.png", "custom_css": null}, {"id": 136, "slack_id": "U0823APHVK7", "display_name": "Stef", "bio": "", "projects_count": 7, "devlogs_count": 95, "votes_count": 176, "ships_count": 6, "projects": [{"id": 5814, "title": "My Personal Website V2", "devlogs_count": 1, "created_at": "2025-07-08T07:45:36.605-04:00"}, {"id": 11116, "title": "Zipline Android App", "devlogs_count": 21, "created_at": "2025-08-13T09:38:48.860-04:00"}, {"id": 2964, "title": "Linux Custom Desktop Shell", "devlogs_count": 30, "created_at": "2025-06-22T15:21:53.525-04:00"}, {"id": 12151, "title": "App Version Control", "devlogs_count": 14, "created_at": "2025-08-23T17:14:21.033-04:00"}, {"id": 13362, "title": "Hackatime Android App", "devlogs_count": 11, "created_at": "2025-09-14T14:21:42.540-04:00"}, {"id": 5395, "title": "Discord Create Addon Notifier", "devlogs_count": 4, "created_at": "2025-07-05T02:04:52.781-04:00"}, {"id": 2448, "title": "NixOS Dots", "devlogs_count": 13, "created_at": "2025-06-21T03:58:32.495-04:00"}], "coding_time_seconds": 1090411, "coding_time_seconds_today": 0, "balance": "You need to have a pocket watcher badge to view this.", "badges": [{"name": "Maiden Voyage", "text": "you shipped your first project! the journey begins...", "icon": "\ud83d\udea2"}, {"name": "Ballot Stuffer", "text": "vote 100 times.", "icon": "https://summer.hackclub.com/assets/i_voted-bf851b48.png"}], "created_at": "2025-06-16T01:14:44.547-04:00", "updated_at": "2025-09-10T22:51:10.139-04:00", "avatar": "https://secure.gravatar.com/avatar/dd17903aa658cb68b13288ba1b967078.jpg?s=512&d=https%3A%2F%2Fa.slack-edge.com%2Fdf10d%2Fimg%2Favatars%2Fava_0018-512.png", "custom_css": null}, {"id": 137, "slack_id": "U07UH9DQA4B", "display_name": "eth0", "bio": null, "projects_count": 8, "devlogs_count": 43, "votes_count": 0, "ships_count": 0, "projects": [{"id": 1067, "title": "hctv", "devlogs_count": 17, "created_at": "2025-06-17T15:14:08.910-04:00"}, {"id": 4083, "title": "Vinci", "devlogs_count": 9, "created_at": "2025-06-27T11:10:23.697-04:00"}, {"id": 4695, "title": "srizan.dev", "devlogs_count": 1, "created_at": "2025-07-01T06:11:19.956-04:00"}, {"id": 8385, "title": "Powerful Hungarian Pandas", "devlogs_count": 1, "created_at": "2025-07-26T18:12:10.901-04:00"}, {"id": 13524, "title": "discord-prox2", "devlogs_count": 9, "created_at": "2025-09-18T13:28:05.591-04:00"}, {"id": 13571, "title": "Circles YSWS website", "devlogs_count": 1, "created_at": "2025-09-19T18:55:59.797-04:00"}, {"id": 13437, "title": "NIC", "devlogs_count": 1, "created_at": "2025-09-16T12:11:34.288-04:00"}, {"id": 6574, "title": "Pilot", "devlogs_count": 4, "created_at": "2025-07-14T10:32:00.689-04:00"}], "coding_time_seconds": 384303, "coding_time_seconds_today": 0, "balance": "You need to have a pocket watcher badge to view this.", "badges": [], "created_at": "2025-06-16T01:20:44.570-04:00", "updated_at": "2025-08-18T13:15:35.429-04:00", "avatar": "https://avatars.slack-edge.com/2025-08-13/9332104895863_b0203bc18e25fd993a02_original.jpg", "custom_css": null}, {"id": 138, "slack_id": "U07ET4C0L90", "display_name": "Natey'); DROP TABLE Students;--", "bio": null, "projects_count": 0, "devlogs_count": 0, "votes_count": 0, "ships_count": 0, "projects": [], "coding_time_seconds": 56460, "coding_time_seconds_today": 0, "balance": "You need to have a pocket watcher badge to view this.", "badges": [], "created_at": "2025-06-16T01:31:24.953-04:00", "updated_at": "2025-07-03T19:11:35.843-04:00", "avatar": "https://avatars.slack-edge.com/2025-04-14/8757417659779_b2eb80a5be0effa71763_original.png", "custom_css": null}, {"id": 139, "slack_id": "U079QQC1BEZ", "display_name": "ishi28", "bio": null, "projects_count": 0, "devlogs_count": 1, "votes_count": 1, "ships_count": 0, "projects": [], "coding_time_seconds": 74811, "coding_time_seconds_today": 0, "balance": "You need to have a pocket watcher badge to view this.", "badges": [{"name": "Maiden Voyage", "text": "you shipped your first project! the journey begins...", "icon": "\ud83d\udea2"}], "created_at": "2025-06-16T01:35:47.707-04:00", "updated_at": "2025-09-10T22:51:10.226-04:00", "avatar": "https://avatars.slack-edge.com/2024-06-29/7337728592503_0f18a6300d49983ca6c8_original.png", "custom_css": null}, {"id": 140, "slack_id": "U06VA7C4DAN", "display_name": "vracto", "bio": "hi", "projects_count": 1, "devlogs_count": 3, "votes_count": 24, "ships_count": 1, "projects": [{"id": 13374, "title": "Symbldle", "devlogs_count": 3, "created_at": "2025-09-14T20:28:23.805-04:00"}], "coding_time_seconds": 67565, "coding_time_seconds_today": 0, "balance": "You need to have a pocket watcher badge to view this.", "badges": [{"name": "Maiden Voyage", "text": "you shipped your first project! the journey begins...", "icon": "\ud83d\udea2"}], "created_at": "2025-06-16T01:38:32.232-04:00", "updated_at": "2025-09-14T22:48:27.241-04:00", "avatar": "https://avatars.slack-edge.com/2024-04-21/6995271109093_217fb9a83193bee31eb1_original.png", "custom_css": null}], "pagination": {"page": 7, "pages": 1192, "count": 23827, "items": 20}}