{"users": [{"id": 1381, "slack_id": "U09222K94KT", "display_name": "khadee", "bio": null, "projects_count": 0, "devlogs_count": 0, "votes_count": 0, "ships_count": 0, "projects": [], "coding_time_seconds": 0, "coding_time_seconds_today": 0, "balance": "You need to have a pocket watcher badge to view this.", "badges": [], "created_at": "2025-06-16T13:10:20.488-04:00", "updated_at": "2025-07-03T19:17:23.152-04:00", "avatar": "https://secure.gravatar.com/avatar/9991dd4fa79316b6d083f4719ee21e6c.jpg?s=512&d=https%3A%2F%2Fa.slack-edge.com%2Fdf10d%2Fimg%2Favatars%2Fava_0011-512.png", "custom_css": null}, {"id": 1382, "slack_id": "U092C0MDE80", "display_name": "Jeffrey Zang", "bio": null, "projects_count": 0, "devlogs_count": 0, "votes_count": 0, "ships_count": 0, "projects": [], "coding_time_seconds": 8229, "coding_time_seconds_today": 0, "balance": "You need to have a pocket watcher badge to view this.", "badges": [], "created_at": "2025-06-16T13:10:34.555-04:00", "updated_at": "2025-07-03T19:17:23.427-04:00", "avatar": "https://secure.gravatar.com/avatar/9195c22e13ef46ad7361907550539378.jpg?s=512&d=https%3A%2F%2Fa.slack-edge.com%2Fdf10d%2Fimg%2Favatars%2Fava_0026-512.png", "custom_css": null}, {"id": 1383, "slack_id": "U0867PL413N", "display_name": "Jelco", "bio": null, "projects_count": 2, "devlogs_count": 33, "votes_count": 91, "ships_count": 2, "projects": [{"id": 11299, "title": "WHY2025 website", "devlogs_count": 1, "created_at": "2025-08-14T17:59:20.953-04:00"}, {"id": 228, "title": "Pterodactyl Rewritten", "devlogs_count": 32, "created_at": "2025-06-16T15:57:50.847-04:00"}], "coding_time_seconds": 452099, "coding_time_seconds_today": 0, "balance": "You need to have a pocket watcher badge to view this.", "badges": [{"name": "Maiden Voyage", "text": "you shipped your first project! the journey begins...", "icon": "\ud83d\udea2"}], "created_at": "2025-06-16T13:10:51.368-04:00", "updated_at": "2025-09-10T22:51:50.509-04:00", "avatar": "https://avatars.slack-edge.com/2025-06-17/9057236772645_aca763733da431656e6c_original.png", "custom_css": null}, {"id": 1384, "slack_id": "U08RWDQE0JV", "display_name": "Melvin", "bio": null, "projects_count": 0, "devlogs_count": 0, "votes_count": 0, "ships_count": 0, "projects": [], "coding_time_seconds": 3834, "coding_time_seconds_today": 0, "balance": "You need to have a pocket watcher badge to view this.", "badges": [], "created_at": "2025-06-16T13:10:56.615-04:00", "updated_at": "2025-07-03T19:17:23.840-04:00", "avatar": "https://secure.gravatar.com/avatar/299ddff5639355485f531c65b8947f2b.jpg?s=512&d=https%3A%2F%2Fa.slack-edge.com%2Fdf10d%2Fimg%2Favatars%2Fava_0010-512.png", "custom_css": null}, {"id": 1385, "slack_id": "U091PUN1LP6", "display_name": "Parthib Chakraborty", "bio": null, "projects_count": 0, "devlogs_count": 0, "votes_count": 0, "ships_count": 0, "projects": [], "coding_time_seconds": 136017, "coding_time_seconds_today": 0, "balance": "You need to have a pocket watcher badge to view this.", "badges": [], "created_at": "2025-06-16T13:11:13.605-04:00", "updated_at": "2025-07-03T19:17:24.131-04:00", "avatar": "https://secure.gravatar.com/avatar/ff1d9d241d4ae2055dc9d3d0688719c9.jpg?s=512&d=https%3A%2F%2Fa.slack-edge.com%2Fdf10d%2Fimg%2Favatars%2Fava_0005-512.png", "custom_css": null}, {"id": 1386, "slack_id": "U091GHQ4NKV", "display_name": "Leander", "bio": null, "projects_count": 0, "devlogs_count": 0, "votes_count": 0, "ships_count": 0, "projects": [], "coding_time_seconds": 33693, "coding_time_seconds_today": 0, "balance": "You need to have a pocket watcher badge to view this.", "badges": [], "created_at": "2025-06-16T13:11:13.934-04:00", "updated_at": "2025-07-03T19:17:24.392-04:00", "avatar": "https://secure.gravatar.com/avatar/06258104927431967a38ec5ef8d97d23.jpg?s=512&d=https%3A%2F%2Fa.slack-edge.com%2Fdf10d%2Fimg%2Favatars%2Fava_0023-512.png", "custom_css": null}, {"id": 1387, "slack_id": "U091PUW3MGU", "display_name": "Marten mrfc", "bio": null, "projects_count": 6, "devlogs_count": 22, "votes_count": 5, "ships_count": 2, "projects": [{"id": 888, "title": "KnockBackFFA 0.8.0", "devlogs_count": 3, "created_at": "2025-06-17T10:30:50.667-04:00"}, {"id": 2146, "title": "Achievements", "devlogs_count": 10, "created_at": "2025-06-20T09:39:31.620-04:00"}, {"id": 3197, "title": "Personal site", "devlogs_count": 3, "created_at": "2025-06-23T11:57:08.691-04:00"}, {"id": 3752, "title": " Hydrocarbons Naming", "devlogs_count": 2, "created_at": "2025-06-25T15:40:59.861-04:00"}, {"id": 5563, "title": "ClaspSetup", "devlogs_count": 1, "created_at": "2025-07-06T07:57:11.161-04:00"}, {"id": 7576, "title": "EasyLearn", "devlogs_count": 3, "created_at": "2025-07-22T07:03:03.980-04:00"}], "coding_time_seconds": 336442, "coding_time_seconds_today": 0, "balance": "You need to have a pocket watcher badge to view this.", "badges": [{"name": "Maiden Voyage", "text": "you shipped your first project! the journey begins...", "icon": "\ud83d\udea2"}], "created_at": "2025-06-16T13:11:21.679-04:00", "updated_at": "2025-09-10T22:51:50.873-04:00", "avatar": "https://avatars.slack-edge.com/2025-06-16/9080052935824_1800dd3bffcd6c286d95_original.png", "custom_css": null}, {"id": 1388, "slack_id": "U092C0W0D08", "display_name": "Tommy", "bio": null, "projects_count": 0, "devlogs_count": 0, "votes_count": 0, "ships_count": 0, "projects": [], "coding_time_seconds": 0, "coding_time_seconds_today": 0, "balance": "You need to have a pocket watcher badge to view this.", "badges": [], "created_at": "2025-06-16T13:11:50.116-04:00", "updated_at": "2025-07-03T19:17:24.937-04:00", "avatar": "https://secure.gravatar.com/avatar/441fb45aa10bb1848f16b4f920ee34f1.jpg?s=512&d=https%3A%2F%2Fa.slack-edge.com%2Fdf10d%2Fimg%2Favatars%2Fava_0021-512.png", "custom_css": null}, {"id": 1389, "slack_id": "U091PFZ5F2N", "display_name": "Antoine Bollengier", "bio": null, "projects_count": 3, "devlogs_count": 7, "votes_count": 11, "ships_count": 1, "projects": [{"id": 103, "title": "Atwy", "devlogs_count": 6, "created_at": "2025-06-16T13:31:16.778-04:00"}, {"id": 106, "title": "YouTubeKit", "devlogs_count": 0, "created_at": "2025-06-16T13:35:24.267-04:00"}, {"id": 13432, "title": "BetterMenus", "devlogs_count": 1, "created_at": "2025-09-16T09:33:49.255-04:00"}], "coding_time_seconds": 284159, "coding_time_seconds_today": 0, "balance": "You need to have a pocket watcher badge to view this.", "badges": [{"name": "Maiden Voyage", "text": "you shipped your first project! the journey begins...", "icon": "\ud83d\udea2"}], "created_at": "2025-06-16T13:11:55.521-04:00", "updated_at": "2025-09-10T22:51:50.931-04:00", "avatar": "https://secure.gravatar.com/avatar/d7332ee17c69b373258028db25875021.jpg?s=512&d=https%3A%2F%2Fa.slack-edge.com%2Fdf10d%2Fimg%2Favatars%2Fava_0005-512.png", "custom_css": null}, {"id": 1390, "slack_id": "U09223L6XG9", "display_name": "Ahmed Hassan Sheikh", "bio": null, "projects_count": 0, "devlogs_count": 0, "votes_count": 0, "ships_count": 0, "projects": [], "coding_time_seconds": 0, "coding_time_seconds_today": 0, "balance": "You need to have a pocket watcher badge to view this.", "badges": [], "created_at": "2025-06-16T13:12:05.883-04:00", "updated_at": "2025-07-03T19:17:25.492-04:00", "avatar": "https://secure.gravatar.com/avatar/f4628eafcbcbb5db1b28c6ca856e7c6b.jpg?s=512&d=https%3A%2F%2Fa.slack-edge.com%2Fdf10d%2Fimg%2Favatars%2Fava_0005-512.png", "custom_css": null}, {"id": 1391, "slack_id": "U091GHVFQHH", "display_name": "Nitin Mane", "bio": null, "projects_count": 0, "devlogs_count": 0, "votes_count": 0, "ships_count": 0, "projects": [], "coding_time_seconds": 0, "coding_time_seconds_today": 0, "balance": "You need to have a pocket watcher badge to view this.", "badges": [], "created_at": "2025-06-16T13:12:07.947-04:00", "updated_at": "2025-07-03T19:17:25.760-04:00", "avatar": "https://avatars.slack-edge.com/2025-06-16/9042279066103_12f25f38a4186ef6688a_original.jpg", "custom_css": null}, {"id": 1392, "slack_id": "U091GLSMRNJ", "display_name": "Archit Jain", "bio": null, "projects_count": 0, "devlogs_count": 0, "votes_count": 0, "ships_count": 0, "projects": [], "coding_time_seconds": 0, "coding_time_seconds_today": 0, "balance": "You need to have a pocket watcher badge to view this.", "badges": [], "created_at": "2025-06-16T13:12:12.206-04:00", "updated_at": "2025-07-03T19:17:26.029-04:00", "avatar": "https://secure.gravatar.com/avatar/91c02acec6629f4780b7b586c49cc50e.jpg?s=512&d=https%3A%2F%2Fa.slack-edge.com%2Fdf10d%2Fimg%2Favatars%2Fava_0020-512.png", "custom_css": null}, {"id": 1393, "slack_id": "U091MP03AKX", "display_name": "Tanmay", "bio": null, "projects_count": 0, "devlogs_count": 0, "votes_count": 0, "ships_count": 0, "projects": [], "coding_time_seconds": 0, "coding_time_seconds_today": 0, "balance": "You need to have a pocket watcher badge to view this.", "badges": [], "created_at": "2025-06-16T13:12:14.877-04:00", "updated_at": "2025-07-03T19:17:26.297-04:00", "avatar": "https://secure.gravatar.com/avatar/c11305701037b9779f48157ce2273bd9.jpg?s=512&d=https%3A%2F%2Fa.slack-edge.com%2Fdf10d%2Fimg%2Favatars%2Fava_0006-512.png", "custom_css": null}, {"id": 1394, "slack_id": "U09223TA3H7", "display_name": "Luca", "bio": null, "projects_count": 0, "devlogs_count": 0, "votes_count": 0, "ships_count": 0, "projects": [], "coding_time_seconds": 3192, "coding_time_seconds_today": 0, "balance": "You need to have a pocket watcher badge to view this.", "badges": [], "created_at": "2025-06-16T13:12:25.794-04:00", "updated_at": "2025-07-03T19:17:26.565-04:00", "avatar": "https://avatars.slack-edge.com/2025-06-16/9070141787825_3e6ee59ae8a2dc7bcb0d_original.jpg", "custom_css": null}, {"id": 1395, "slack_id": "U08NL7U2MME", "display_name": "nandini", "bio": "", "projects_count": 1, "devlogs_count": 1, "votes_count": 2, "ships_count": 0, "projects": [{"id": 2270, "title": "particulate", "devlogs_count": 1, "created_at": "2025-06-20T15:48:16.666-04:00"}], "coding_time_seconds": 186225, "coding_time_seconds_today": 0, "balance": "You need to have a pocket watcher badge to view this.", "badges": [], "created_at": "2025-06-16T13:12:30.229-04:00", "updated_at": "2025-09-23T06:02:52.525-04:00", "avatar": "https://avatars.slack-edge.com/2025-09-22/9577939063537_d5ebf26d3753c0785547_original.png", "custom_css": null}, {"id": 1396, "slack_id": "U091GL29078", "display_name": "Ishani Pigera", "bio": null, "projects_count": 0, "devlogs_count": 0, "votes_count": 0, "ships_count": 0, "projects": [], "coding_time_seconds": 0, "coding_time_seconds_today": 0, "balance": "You need to have a pocket watcher badge to view this.", "badges": [], "created_at": "2025-06-16T13:12:35.551-04:00", "updated_at": "2025-07-03T19:17:27.093-04:00", "avatar": "https://avatars.slack-edge.com/2025-06-16/9050725701526_b013124b537576aac9dd_original.jpg", "custom_css": null}, {"id": 1397, "slack_id": "U091GGE0AP8", "display_name": "Laia", "bio": null, "projects_count": 1, "devlogs_count": 1, "votes_count": 1, "ships_count": 0, "projects": [{"id": 6537, "title": "ScoreVault", "devlogs_count": 1, "created_at": "2025-07-14T04:37:31.771-04:00"}], "coding_time_seconds": 19140, "coding_time_seconds_today": 0, "balance": "You need to have a pocket watcher badge to view this.", "badges": [], "created_at": "2025-06-16T13:12:48.765-04:00", "updated_at": "2025-07-03T19:17:27.359-04:00", "avatar": "https://secure.gravatar.com/avatar/b2c57db0463e19635d44c43df15938b3.jpg?s=512&d=https%3A%2F%2Fa.slack-edge.com%2Fdf10d%2Fimg%2Favatars%2Fava_0017-512.png", "custom_css": null}, {"id": 1398, "slack_id": "U091GM57MNJ", "display_name": "Cody Tilley", "bio": null, "projects_count": 0, "devlogs_count": 0, "votes_count": 0, "ships_count": 0, "projects": [], "coding_time_seconds": 0, "coding_time_seconds_today": 0, "balance": "You need to have a pocket watcher badge to view this.", "badges": [], "created_at": "2025-06-16T13:12:51.608-04:00", "updated_at": "2025-07-03T19:17:27.627-04:00", "avatar": "https://secure.gravatar.com/avatar/828ac208849b127caa0be5338a356190.jpg?s=512&d=https%3A%2F%2Fa.slack-edge.com%2Fdf10d%2Fimg%2Favatars%2Fava_0026-512.png", "custom_css": null}, {"id": 1399, "slack_id": "U08GBRP54GP", "display_name": "50", "bio": null, "projects_count": 0, "devlogs_count": 0, "votes_count": 0, "ships_count": 0, "projects": [], "coding_time_seconds": 0, "coding_time_seconds_today": 0, "balance": "You need to have a pocket watcher badge to view this.", "badges": [], "created_at": "2025-06-16T13:12:54.696-04:00", "updated_at": "2025-07-03T19:17:27.970-04:00", "avatar": "https://avatars.slack-edge.com/2025-03-07/8593871531808_665309c616cd2fe4a878_original.png", "custom_css": null}, {"id": 1400, "slack_id": "U09187YD2S3", "display_name": "Adam", "bio": null, "projects_count": 1, "devlogs_count": 2, "votes_count": 0, "ships_count": 0, "projects": [{"id": 5600, "title": "music-monitors", "devlogs_count": 2, "created_at": "2025-07-06T13:14:54.791-04:00"}], "coding_time_seconds": 13667, "coding_time_seconds_today": 0, "balance": "You need to have a pocket watcher badge to view this.", "badges": [], "created_at": "2025-06-16T13:13:03.034-04:00", "updated_at": "2025-07-06T11:46:01.924-04:00", "avatar": "https://secure.gravatar.com/avatar/6eec74b13a3d9b515ee733dbefcfa45d.jpg?s=512&d=https%3A%2F%2Fa.slack-edge.com%2Fdf10d%2Fimg%2Favatars%2Fava_0008-512.png", "custom_css": null}], "pagination": {"page": 70, "pages": 1192, "count": 23827, "items": 20}}