{"users": [{"id": 13981, "slack_id": "U093UJ49KLM", "display_name": "Ariel Amagua\u00f1a", "bio": null, "projects_count": 0, "devlogs_count": 0, "votes_count": 0, "ships_count": 0, "projects": [], "coding_time_seconds": 0, "coding_time_seconds_today": 0, "balance": "You need to have a pocket watcher badge to view this.", "badges": [], "created_at": "2025-07-01T11:24:20.084-04:00", "updated_at": "2025-07-07T08:15:18.562-04:00", "avatar": "https://secure.gravatar.com/avatar/734b5146cd0c6381cb4e8270d8c5033d.jpg?s=512&d=https%3A%2F%2Fa.slack-edge.com%2Fdf10d%2Fimg%2Favatars%2Fava_0000-512.png", "custom_css": null}, {"id": 13982, "slack_id": "U093RAEJQ5U", "display_name": "HP", "bio": null, "projects_count": 0, "devlogs_count": 0, "votes_count": 0, "ships_count": 0, "projects": [], "coding_time_seconds": 0, "coding_time_seconds_today": 0, "balance": "You need to have a pocket watcher badge to view this.", "badges": [], "created_at": "2025-07-01T11:32:20.812-04:00", "updated_at": "2025-07-04T08:30:38.079-04:00", "avatar": "https://secure.gravatar.com/avatar/2423cdb04809d0161fab0b0b5637440a.jpg?s=512&d=https%3A%2F%2Fa.slack-edge.com%2Fdf10d%2Fimg%2Favatars%2Fava_0024-512.png", "custom_css": null}, {"id": 13983, "slack_id": "U093P7KR7B5", "display_name": "Brenda Lopes", "bio": null, "projects_count": 0, "devlogs_count": 0, "votes_count": 0, "ships_count": 0, "projects": [], "coding_time_seconds": 0, "coding_time_seconds_today": 0, "balance": "You need to have a pocket watcher badge to view this.", "badges": [], "created_at": "2025-07-01T11:34:42.587-04:00", "updated_at": "2025-07-03T20:09:50.740-04:00", "avatar": "https://avatars.slack-edge.com/2025-07-01/9133877021844_b4c08dfa22b86336e26e_original.webp", "custom_css": null}, {"id": 13984, "slack_id": "U091RTS1PJN", "display_name": "Jonny Chang", "bio": null, "projects_count": 0, "devlogs_count": 0, "votes_count": 0, "ships_count": 0, "projects": [], "coding_time_seconds": 0, "coding_time_seconds_today": 0, "balance": "You need to have a pocket watcher badge to view this.", "badges": [], "created_at": "2025-07-01T11:34:51.633-04:00", "updated_at": "2025-07-04T08:30:38.234-04:00", "avatar": "https://avatars.slack-edge.com/2025-07-01/9145499421633_fc2a6a7b50b5ec47c71f_original.png", "custom_css": null}, {"id": 13985, "slack_id": "U093P8AC8BD", "display_name": "baldev ghimire", "bio": null, "projects_count": 0, "devlogs_count": 0, "votes_count": 0, "ships_count": 0, "projects": [], "coding_time_seconds": 0, "coding_time_seconds_today": 0, "balance": "You need to have a pocket watcher badge to view this.", "badges": [], "created_at": "2025-07-01T11:38:41.584-04:00", "updated_at": "2025-07-08T09:38:13.473-04:00", "avatar": "https://secure.gravatar.com/avatar/661e9571e88c0b66e583c12419a1badf.jpg?s=512&d=https%3A%2F%2Fa.slack-edge.com%2Fdf10d%2Fimg%2Favatars%2Fava_0020-512.png", "custom_css": null}, {"id": 13986, "slack_id": "U0949EPKNLR", "display_name": "PogU", "bio": null, "projects_count": 0, "devlogs_count": 0, "votes_count": 0, "ships_count": 0, "projects": [], "coding_time_seconds": 0, "coding_time_seconds_today": 0, "balance": "You need to have a pocket watcher badge to view this.", "badges": [], "created_at": "2025-07-01T11:38:43.628-04:00", "updated_at": "2025-07-29T22:58:20.472-04:00", "avatar": "https://avatars.slack-edge.com/2025-07-01/9125303537155_c4afcbb00e44aea44ff1_original.jpg", "custom_css": null}, {"id": 13987, "slack_id": "U093P8K3P99", "display_name": "Kacper", "bio": null, "projects_count": 0, "devlogs_count": 0, "votes_count": 1, "ships_count": 0, "projects": [], "coding_time_seconds": 0, "coding_time_seconds_today": 0, "balance": "You need to have a pocket watcher badge to view this.", "badges": [], "created_at": "2025-07-01T11:40:04.090-04:00", "updated_at": "2025-07-03T22:05:06.319-04:00", "avatar": "https://secure.gravatar.com/avatar/06fe538e634f07a0f6808c621d8001cc.jpg?s=512&d=https%3A%2F%2Fa.slack-edge.com%2Fdf10d%2Fimg%2Favatars%2Fava_0008-512.png", "custom_css": null}, {"id": 13988, "slack_id": "U090E1GBLAC", "display_name": "Mayo", "bio": null, "projects_count": 0, "devlogs_count": 0, "votes_count": 0, "ships_count": 0, "projects": [], "coding_time_seconds": 0, "coding_time_seconds_today": 0, "balance": "You need to have a pocket watcher badge to view this.", "badges": [], "created_at": "2025-07-01T11:40:42.745-04:00", "updated_at": "2025-07-04T20:14:53.823-04:00", "avatar": "https://avatars.slack-edge.com/2025-06-03/9014050824592_8de381840225b26e023e_original.jpg", "custom_css": null}, {"id": 13989, "slack_id": "U07L463H1EZ", "display_name": "Jordan Tran", "bio": null, "projects_count": 0, "devlogs_count": 0, "votes_count": 0, "ships_count": 0, "projects": [], "coding_time_seconds": 0, "coding_time_seconds_today": 0, "balance": "You need to have a pocket watcher badge to view this.", "badges": [], "created_at": "2025-07-01T11:46:32.038-04:00", "updated_at": "2025-07-08T03:12:52.972-04:00", "avatar": "https://avatars.slack-edge.com/2024-09-05/7699759021825_79413424ee5599aae7ad_original.png", "custom_css": null}, {"id": 13990, "slack_id": "U082KTT67FY", "display_name": "Robby", "bio": "", "projects_count": 2, "devlogs_count": 1, "votes_count": 2, "ships_count": 0, "projects": [{"id": 12433, "title": "e-money api", "devlogs_count": 1, "created_at": "2025-08-27T11:01:28.807-04:00"}, {"id": 12500, "title": "eclipse", "devlogs_count": 0, "created_at": "2025-08-28T13:37:26.113-04:00"}], "coding_time_seconds": 3135, "coding_time_seconds_today": 0, "balance": "You need to have a pocket watcher badge to view this.", "badges": [], "created_at": "2025-07-01T11:50:57.671-04:00", "updated_at": "2025-08-27T15:26:24.886-04:00", "avatar": "https://secure.gravatar.com/avatar/72acd7e69bb155af75a740c89b28af84.jpg?s=512&d=https%3A%2F%2Fa.slack-edge.com%2Fdf10d%2Fimg%2Favatars%2Fava_0024-512.png", "custom_css": null}, {"id": 13991, "slack_id": "U093WNWQDCJ", "display_name": "Ahmed Silat", "bio": null, "projects_count": 0, "devlogs_count": 0, "votes_count": 2, "ships_count": 0, "projects": [], "coding_time_seconds": 0, "coding_time_seconds_today": 0, "balance": "You need to have a pocket watcher badge to view this.", "badges": [], "created_at": "2025-07-01T11:51:00.411-04:00", "updated_at": "2025-07-05T02:15:35.485-04:00", "avatar": "https://avatars.slack-edge.com/2025-07-01/9133976797172_ceb232065ec809c2c1ab_original.png", "custom_css": null}, {"id": 13992, "slack_id": "U0943G5431P", "display_name": "Leviathan", "bio": null, "projects_count": 0, "devlogs_count": 0, "votes_count": 0, "ships_count": 0, "projects": [], "coding_time_seconds": 0, "coding_time_seconds_today": 0, "balance": "You need to have a pocket watcher badge to view this.", "badges": [], "created_at": "2025-07-01T11:51:55.711-04:00", "updated_at": "2025-07-04T08:30:38.801-04:00", "avatar": "https://secure.gravatar.com/avatar/cb81fb89a207d6f09bcf20c893940de9.jpg?s=512&d=https%3A%2F%2Fa.slack-edge.com%2Fdf10d%2Fimg%2Favatars%2Fava_0007-512.png", "custom_css": null}, {"id": 13993, "slack_id": "U093RE2RUK0", "display_name": "Hugo Brisebois", "bio": null, "projects_count": 8, "devlogs_count": 21, "votes_count": 96, "ships_count": 5, "projects": [{"id": 5339, "title": "password manager", "devlogs_count": 3, "created_at": "2025-07-04T14:52:10.435-04:00"}, {"id": 6144, "title": "console book finder", "devlogs_count": 3, "created_at": "2025-07-10T20:47:19.287-04:00"}, {"id": 12454, "title": "NoteDesk", "devlogs_count": 1, "created_at": "2025-08-27T19:53:43.518-04:00"}, {"id": 13251, "title": "the Toruist guide to Sutton", "devlogs_count": 5, "created_at": "2025-09-12T14:02:37.507-04:00"}, {"id": 13716, "title": "Text Based Dungeon crawler", "devlogs_count": 0, "created_at": "2025-09-23T15:31:59.881-04:00"}, {"id": 13723, "title": "The Elephants butt glacier", "devlogs_count": 0, "created_at": "2025-09-23T17:47:36.876-04:00"}, {"id": 4808, "title": "Space Explorer", "devlogs_count": 5, "created_at": "2025-07-01T16:37:09.016-04:00"}, {"id": 5701, "title": "E-Portfolio", "devlogs_count": 2, "created_at": "2025-07-07T09:28:40.835-04:00"}], "coding_time_seconds": 232473, "coding_time_seconds_today": 0, "balance": "You need to have a pocket watcher badge to view this.", "badges": [{"name": "Maiden Voyage", "text": "you shipped your first project! the journey begins...", "icon": "\ud83d\udea2"}], "created_at": "2025-07-01T11:52:42.244-04:00", "updated_at": "2025-09-10T22:58:09.432-04:00", "avatar": "https://secure.gravatar.com/avatar/9c6fcd4e5dc7c9aa96f00e9a49cf2880.jpg?s=512&d=https%3A%2F%2Fa.slack-edge.com%2Fdf10d%2Fimg%2Favatars%2Fava_0012-512.png", "custom_css": null}, {"id": 13994, "slack_id": "U093WPFAMLJ", "display_name": "Mr Robot", "bio": null, "projects_count": 0, "devlogs_count": 0, "votes_count": 0, "ships_count": 0, "projects": [], "coding_time_seconds": 0, "coding_time_seconds_today": 0, "balance": "You need to have a pocket watcher badge to view this.", "badges": [], "created_at": "2025-07-01T11:57:02.794-04:00", "updated_at": "2025-07-07T02:16:19.647-04:00", "avatar": "https://secure.gravatar.com/avatar/ef4f08f8e9f6c5d50776253e2b0e464c.jpg?s=512&d=https%3A%2F%2Fa.slack-edge.com%2Fdf10d%2Fimg%2Favatars%2Fava_0006-512.png", "custom_css": null}, {"id": 13995, "slack_id": "U093PBN0211", "display_name": "Sobia khan", "bio": null, "projects_count": 0, "devlogs_count": 0, "votes_count": 0, "ships_count": 0, "projects": [], "coding_time_seconds": 0, "coding_time_seconds_today": 0, "balance": "You need to have a pocket watcher badge to view this.", "badges": [], "created_at": "2025-07-01T11:58:07.427-04:00", "updated_at": "2025-07-03T20:09:52.785-04:00", "avatar": "https://avatars.slack-edge.com/2025-07-01/9130873627749_39f83ab8b9e00cdd17ce_original.jpg", "custom_css": null}, {"id": 13996, "slack_id": "U08FCQGMQDR", "display_name": "Dhairya Agarwal", "bio": null, "projects_count": 0, "devlogs_count": 39, "votes_count": 48, "ships_count": 0, "projects": [], "coding_time_seconds": 1050003, "coding_time_seconds_today": 0, "balance": "You need to have a pocket watcher badge to view this.", "badges": [{"name": "Maiden Voyage", "text": "you shipped your first project! the journey begins...", "icon": "\ud83d\udea2"}], "created_at": "2025-07-01T11:58:36.175-04:00", "updated_at": "2025-09-10T22:58:09.529-04:00", "avatar": "https://avatars.slack-edge.com/2025-07-01/9155367368224_ca8c949368389e37da3e_original.jpg", "custom_css": null}, {"id": 13997, "slack_id": "U093H63MNRZ", "display_name": "shuvo", "bio": null, "projects_count": 0, "devlogs_count": 0, "votes_count": 0, "ships_count": 0, "projects": [], "coding_time_seconds": 0, "coding_time_seconds_today": 0, "balance": "You need to have a pocket watcher badge to view this.", "badges": [], "created_at": "2025-07-01T12:02:13.840-04:00", "updated_at": "2025-07-03T20:09:53.330-04:00", "avatar": "https://secure.gravatar.com/avatar/c693a3eba4348bf0d329f70a624c13e4.jpg?s=512&d=https%3A%2F%2Fa.slack-edge.com%2Fdf10d%2Fimg%2Favatars%2Fava_0026-512.png", "custom_css": null}, {"id": 13998, "slack_id": "U093RGU7BAA", "display_name": "CuteTechbro", "bio": null, "projects_count": 0, "devlogs_count": 0, "votes_count": 0, "ships_count": 0, "projects": [], "coding_time_seconds": 0, "coding_time_seconds_today": 0, "balance": "You need to have a pocket watcher badge to view this.", "badges": [], "created_at": "2025-07-01T12:05:21.002-04:00", "updated_at": "2025-07-03T20:09:53.601-04:00", "avatar": "https://avatars.slack-edge.com/2025-07-01/9125472245235_bbc4c0db2b396d7edba1_original.jpg", "custom_css": null}, {"id": 13999, "slack_id": "U085KKYFA6Q", "display_name": "Devansh Awatramani", "bio": null, "projects_count": 0, "devlogs_count": 0, "votes_count": 0, "ships_count": 0, "projects": [], "coding_time_seconds": 14630, "coding_time_seconds_today": 0, "balance": "You need to have a pocket watcher badge to view this.", "badges": [], "created_at": "2025-07-01T12:05:59.289-04:00", "updated_at": "2025-07-03T20:09:53.871-04:00", "avatar": "https://avatars.slack-edge.com/2024-12-17/8180552343446_5987430f232b76986b28_original.png", "custom_css": null}, {"id": 14000, "slack_id": "U093PEH77DZ", "display_name": "eoliva14", "bio": null, "projects_count": 0, "devlogs_count": 0, "votes_count": 0, "ships_count": 0, "projects": [], "coding_time_seconds": 0, "coding_time_seconds_today": 0, "balance": "You need to have a pocket watcher badge to view this.", "badges": [], "created_at": "2025-07-01T12:11:32.147-04:00", "updated_at": "2025-07-07T08:29:54.740-04:00", "avatar": "https://secure.gravatar.com/avatar/54356c014b28895c34d3b20bbaf9c4ec.jpg?s=512&d=https%3A%2F%2Fa.slack-edge.com%2Fdf10d%2Fimg%2Favatars%2Fava_0018-512.png", "custom_css": null}], "pagination": {"page": 700, "pages": 1192, "count": 23828, "items": 20}}