{"users": [{"id": 14001, "slack_id": "U08UK16J99N", "display_name": "The_Unicycling_1", "bio": null, "projects_count": 0, "devlogs_count": 0, "votes_count": 0, "ships_count": 0, "projects": [], "coding_time_seconds": 0, "coding_time_seconds_today": 0, "balance": "You need to have a pocket watcher badge to view this.", "badges": [], "created_at": "2025-07-01T12:12:11.110-04:00", "updated_at": "2025-07-03T20:09:54.484-04:00", "avatar": "https://avatars.slack-edge.com/2025-05-24/8949379918674_39255116f988b6b0c106_original.jpg", "custom_css": null}, {"id": 14002, "slack_id": "U094CSTBUHW", "display_name": "Pratham", "bio": null, "projects_count": 0, "devlogs_count": 0, "votes_count": 0, "ships_count": 0, "projects": [], "coding_time_seconds": 3349, "coding_time_seconds_today": 0, "balance": "You need to have a pocket watcher badge to view this.", "badges": [], "created_at": "2025-07-01T12:13:07.640-04:00", "updated_at": "2025-07-03T20:09:54.749-04:00", "avatar": "https://secure.gravatar.com/avatar/e1491950c1e569abe195bee48107586c.jpg?s=512&d=https%3A%2F%2Fa.slack-edge.com%2Fdf10d%2Fimg%2Favatars%2Fava_0011-512.png", "custom_css": null}, {"id": 14003, "slack_id": "U07970MC2N4", "display_name": "Sebastian Turner", "bio": null, "projects_count": 0, "devlogs_count": 0, "votes_count": 0, "ships_count": 0, "projects": [], "coding_time_seconds": 0, "coding_time_seconds_today": 0, "balance": "You need to have a pocket watcher badge to view this.", "badges": [], "created_at": "2025-07-01T12:14:14.085-04:00", "updated_at": "2025-07-03T20:09:55.015-04:00", "avatar": "https://secure.gravatar.com/avatar/5f35a2559c5ea5d5ab614091485d9dc8.jpg?s=512&d=https%3A%2F%2Fa.slack-edge.com%2Fdf10d%2Fimg%2Favatars%2Fava_0001-512.png", "custom_css": null}, {"id": 14004, "slack_id": "U093GNMBYTZ", "display_name": "Mustafa Khan", "bio": null, "projects_count": 0, "devlogs_count": 0, "votes_count": 0, "ships_count": 0, "projects": [], "coding_time_seconds": 6972, "coding_time_seconds_today": 0, "balance": "You need to have a pocket watcher badge to view this.", "badges": [], "created_at": "2025-07-01T12:15:46.209-04:00", "updated_at": "2025-07-03T20:09:55.277-04:00", "avatar": "https://avatars.slack-edge.com/2025-07-01/9125533009091_9a4b91de9aa25430a7d2_original.jpg", "custom_css": null}, {"id": 14005, "slack_id": "U093C9U1WET", "display_name": "Zakhar Kozlov", "bio": null, "projects_count": 0, "devlogs_count": 0, "votes_count": 0, "ships_count": 0, "projects": [], "coding_time_seconds": 0, "coding_time_seconds_today": 0, "balance": "You need to have a pocket watcher badge to view this.", "badges": [], "created_at": "2025-07-01T12:17:23.045-04:00", "updated_at": "2025-07-03T20:09:55.533-04:00", "avatar": "https://avatars.slack-edge.com/2025-07-01/9127663807622_3b84618c34e719a624c7_original.png", "custom_css": null}, {"id": 14006, "slack_id": "U094JKE5HU0", "display_name": "Anas Serag", "bio": "love u Flok", "projects_count": 0, "devlogs_count": 24, "votes_count": 78, "ships_count": 0, "projects": [], "coding_time_seconds": 651025, "coding_time_seconds_today": 0, "balance": "You need to have a pocket watcher badge to view this.", "badges": [{"name": "Maiden Voyage", "text": "you shipped your first project! the journey begins...", "icon": "\ud83d\udea2"}, {"name": "Ballot Stuffer", "text": "vote 100 times.", "icon": "https://summer.hackclub.com/assets/i_voted-bf851b48.png"}], "created_at": "2025-07-01T12:18:36.099-04:00", "updated_at": "2025-09-10T22:58:09.814-04:00", "avatar": "https://avatars.slack-edge.com/2025-07-01/9145774483089_59f5a1a4a875105b72cc_original.png", "custom_css": null}, {"id": 14007, "slack_id": "U093PFQ6RGT", "display_name": "Faizan", "bio": null, "projects_count": 0, "devlogs_count": 0, "votes_count": 0, "ships_count": 0, "projects": [], "coding_time_seconds": 0, "coding_time_seconds_today": 0, "balance": "You need to have a pocket watcher badge to view this.", "badges": [], "created_at": "2025-07-01T12:22:27.135-04:00", "updated_at": "2025-07-03T20:09:56.054-04:00", "avatar": "https://secure.gravatar.com/avatar/f4cee952b2d3355c4c5dd5bc04a30b2e.jpg?s=512&d=https%3A%2F%2Fa.slack-edge.com%2Fdf10d%2Fimg%2Favatars%2Fava_0017-512.png", "custom_css": null}, {"id": 14008, "slack_id": "U093V098RC5", "display_name": "Prashant subedi", "bio": null, "projects_count": 0, "devlogs_count": 0, "votes_count": 0, "ships_count": 0, "projects": [], "coding_time_seconds": 0, "coding_time_seconds_today": 0, "balance": "You need to have a pocket watcher badge to view this.", "badges": [], "created_at": "2025-07-01T12:27:36.568-04:00", "updated_at": "2025-07-03T20:09:56.322-04:00", "avatar": "https://secure.gravatar.com/avatar/57e1e5ea9e0fea5a6f6b850e2cf67814.jpg?s=512&d=https%3A%2F%2Fa.slack-edge.com%2Fdf10d%2Fimg%2Favatars%2Fava_0008-512.png", "custom_css": null}, {"id": 14009, "slack_id": "U093X0ZQAPL", "display_name": "ROHAN GOPALAN - STUDENT", "bio": null, "projects_count": 0, "devlogs_count": 0, "votes_count": 0, "ships_count": 0, "projects": [], "coding_time_seconds": 0, "coding_time_seconds_today": 0, "balance": "You need to have a pocket watcher badge to view this.", "badges": [], "created_at": "2025-07-01T12:32:45.569-04:00", "updated_at": "2025-07-03T22:05:07.980-04:00", "avatar": "https://avatars.slack-edge.com/2025-07-01/9131090418613_33a87b3107628f5db293_original.jpg", "custom_css": null}, {"id": 14010, "slack_id": "U093PJ9NMPD", "display_name": "Lina Mar\u00eda Monta\u00f1o Ram\u00edrez", "bio": null, "projects_count": 0, "devlogs_count": 0, "votes_count": 0, "ships_count": 0, "projects": [], "coding_time_seconds": 46339, "coding_time_seconds_today": 0, "balance": "You need to have a pocket watcher badge to view this.", "badges": [], "created_at": "2025-07-01T12:33:19.578-04:00", "updated_at": "2025-07-21T22:43:47.655-04:00", "avatar": "https://avatars.slack-edge.com/2025-07-01/9133059833042_33902b331690933c3d0a_original.jpg", "custom_css": null}, {"id": 14011, "slack_id": "U093X1NN0BU", "display_name": "Enjie Ye", "bio": null, "projects_count": 0, "devlogs_count": 0, "votes_count": 0, "ships_count": 0, "projects": [], "coding_time_seconds": 0, "coding_time_seconds_today": 0, "balance": "You need to have a pocket watcher badge to view this.", "badges": [], "created_at": "2025-07-01T12:35:07.989-04:00", "updated_at": "2025-07-03T20:09:56.992-04:00", "avatar": "https://avatars.slack-edge.com/2025-07-01/9125644468099_bbea63798f4831f4ace7_original.jpg", "custom_css": null}, {"id": 14012, "slack_id": "U093GT9PNKZ", "display_name": "Sunay Desai", "bio": null, "projects_count": 0, "devlogs_count": 0, "votes_count": 0, "ships_count": 0, "projects": [], "coding_time_seconds": 0, "coding_time_seconds_today": 0, "balance": "You need to have a pocket watcher badge to view this.", "badges": [], "created_at": "2025-07-01T12:37:29.795-04:00", "updated_at": "2025-07-03T22:05:08.234-04:00", "avatar": "https://secure.gravatar.com/avatar/769cce8276fbc7f6c43c3a3c6c44c995.jpg?s=512&d=https%3A%2F%2Fa.slack-edge.com%2Fdf10d%2Fimg%2Favatars%2Fava_0025-512.png", "custom_css": null}, {"id": 14013, "slack_id": "U094JPCNSLQ", "display_name": "Padma Jyothish", "bio": null, "projects_count": 0, "devlogs_count": 0, "votes_count": 0, "ships_count": 0, "projects": [], "coding_time_seconds": 0, "coding_time_seconds_today": 0, "balance": "You need to have a pocket watcher badge to view this.", "badges": [], "created_at": "2025-07-01T12:38:18.851-04:00", "updated_at": "2025-07-03T20:09:57.394-04:00", "avatar": "https://secure.gravatar.com/avatar/4793d1ad2b00069897c0167ebb62b067.jpg?s=512&d=https%3A%2F%2Fa.slack-edge.com%2Fdf10d%2Fimg%2Favatars%2Fava_0020-512.png", "custom_css": null}, {"id": 14014, "slack_id": "U084KF62KQV", "display_name": "Kaustap Khanal", "bio": null, "projects_count": 0, "devlogs_count": 0, "votes_count": 1, "ships_count": 0, "projects": [], "coding_time_seconds": 45377, "coding_time_seconds_today": 0, "balance": "You need to have a pocket watcher badge to view this.", "badges": [], "created_at": "2025-07-01T12:41:15.244-04:00", "updated_at": "2025-07-03T20:09:57.648-04:00", "avatar": "https://secure.gravatar.com/avatar/2a6ebfcf3d90bdf23c60d9f5fdc1aef4.jpg?s=512&d=https%3A%2F%2Fa.slack-edge.com%2Fdf10d%2Fimg%2Favatars%2Fava_0014-512.png", "custom_css": null}, {"id": 14015, "slack_id": "U093Y8HQS6Q", "display_name": "sankalp", "bio": null, "projects_count": 0, "devlogs_count": 0, "votes_count": 0, "ships_count": 0, "projects": [], "coding_time_seconds": 0, "coding_time_seconds_today": 0, "balance": "You need to have a pocket watcher badge to view this.", "badges": [], "created_at": "2025-07-01T12:42:32.559-04:00", "updated_at": "2025-07-03T20:09:57.914-04:00", "avatar": "https://secure.gravatar.com/avatar/a9830cae83361b4d9acb60a40a794ee9.jpg?s=512&d=https%3A%2F%2Fa.slack-edge.com%2Fdf10d%2Fimg%2Favatars%2Fava_0017-512.png", "custom_css": null}, {"id": 14016, "slack_id": "U093GTDHKJT", "display_name": "Yucong Mao", "bio": null, "projects_count": 0, "devlogs_count": 0, "votes_count": 0, "ships_count": 0, "projects": [], "coding_time_seconds": 0, "coding_time_seconds_today": 0, "balance": "You need to have a pocket watcher badge to view this.", "badges": [], "created_at": "2025-07-01T12:51:43.489-04:00", "updated_at": "2025-07-03T20:09:58.248-04:00", "avatar": "https://secure.gravatar.com/avatar/57ed6a41431ca208a7e49d882b8d8d37.jpg?s=512&d=https%3A%2F%2Fa.slack-edge.com%2Fdf10d%2Fimg%2Favatars%2Fava_0021-512.png", "custom_css": null}, {"id": 14017, "slack_id": "U078DNPSCUD", "display_name": "Skalixur", "bio": null, "projects_count": 0, "devlogs_count": 0, "votes_count": 0, "ships_count": 0, "projects": [], "coding_time_seconds": 0, "coding_time_seconds_today": 0, "balance": "You need to have a pocket watcher badge to view this.", "badges": [], "created_at": "2025-07-01T12:51:47.939-04:00", "updated_at": "2025-07-03T20:09:58.504-04:00", "avatar": "https://avatars.slack-edge.com/2024-06-17/7288721645522_9f1543b33d59d213d047_original.png", "custom_css": null}, {"id": 14018, "slack_id": "U094JPJEVS4", "display_name": "Shrestha Kar", "bio": null, "projects_count": 0, "devlogs_count": 0, "votes_count": 0, "ships_count": 0, "projects": [], "coding_time_seconds": 0, "coding_time_seconds_today": 0, "balance": "You need to have a pocket watcher badge to view this.", "badges": [], "created_at": "2025-07-01T12:51:51.313-04:00", "updated_at": "2025-07-03T20:09:58.767-04:00", "avatar": "https://avatars.slack-edge.com/2025-07-01/9119019478135_3eb3073c5dce13dc61d4_original.png", "custom_css": null}, {"id": 14019, "slack_id": "U080UB0L5K2", "display_name": "hitarth", "bio": null, "projects_count": 0, "devlogs_count": 0, "votes_count": 0, "ships_count": 0, "projects": [], "coding_time_seconds": 0, "coding_time_seconds_today": 0, "balance": "You need to have a pocket watcher badge to view this.", "badges": [], "created_at": "2025-07-01T12:53:59.484-04:00", "updated_at": "2025-07-03T20:09:59.035-04:00", "avatar": "https://avatars.slack-edge.com/2025-01-28/8354729807702_95e25cb14eb9c5b6139c_original.jpg", "custom_css": null}, {"id": 14020, "slack_id": "U093V5NA4N9", "display_name": "Shariq", "bio": null, "projects_count": 0, "devlogs_count": 0, "votes_count": 0, "ships_count": 0, "projects": [], "coding_time_seconds": 0, "coding_time_seconds_today": 0, "balance": "You need to have a pocket watcher badge to view this.", "badges": [], "created_at": "2025-07-01T12:55:04.739-04:00", "updated_at": "2025-07-03T20:09:59.302-04:00", "avatar": "https://secure.gravatar.com/avatar/d24924c45d3f496646d5fe8e43ed3f05.jpg?s=512&d=https%3A%2F%2Fa.slack-edge.com%2Fdf10d%2Fimg%2Favatars%2Fava_0021-512.png", "custom_css": null}], "pagination": {"page": 701, "pages": 1192, "count": 23828, "items": 20}}