{"users": [{"id": 14021, "slack_id": "U06U1AFH1N0", "display_name": "Wajeeh", "bio": null, "projects_count": 2, "devlogs_count": 3, "votes_count": 1, "ships_count": 0, "projects": [{"id": 4792, "title": "6ixWay", "devlogs_count": 2, "created_at": "2025-07-01T14:29:35.881-04:00"}, {"id": 12521, "title": "DragonHacks", "devlogs_count": 1, "created_at": "2025-08-29T00:40:03.731-04:00"}], "coding_time_seconds": 55786, "coding_time_seconds_today": 0, "balance": "You need to have a pocket watcher badge to view this.", "badges": [], "created_at": "2025-07-01T12:55:33.701-04:00", "updated_at": "2025-08-16T14:38:15.881-04:00", "avatar": "https://avatars.slack-edge.com/2024-11-19/8078233645472_d7cdfc1838d2310645b8_original.png", "custom_css": null}, {"id": 14022, "slack_id": "U0939QN1BGF", "display_name": "Kesav", "bio": null, "projects_count": 0, "devlogs_count": 0, "votes_count": 0, "ships_count": 0, "projects": [], "coding_time_seconds": 0, "coding_time_seconds_today": 0, "balance": "You need to have a pocket watcher badge to view this.", "badges": [], "created_at": "2025-07-01T12:56:35.330-04:00", "updated_at": "2025-07-03T20:09:59.705-04:00", "avatar": "https://secure.gravatar.com/avatar/a9d13bc8b370ef4e175516ff2c8c5d46.jpg?s=512&d=https%3A%2F%2Fa.slack-edge.com%2Fdf10d%2Fimg%2Favatars%2Fava_0010-512.png", "custom_css": null}, {"id": 14023, "slack_id": "U093PPM541K", "display_name": "Alban Cabannes", "bio": null, "projects_count": 0, "devlogs_count": 0, "votes_count": 0, "ships_count": 0, "projects": [], "coding_time_seconds": 0, "coding_time_seconds_today": 0, "balance": "You need to have a pocket watcher badge to view this.", "badges": [], "created_at": "2025-07-01T12:59:31.621-04:00", "updated_at": "2025-07-03T20:09:59.966-04:00", "avatar": "https://avatars.slack-edge.com/2025-07-01/9133199114850_9176bc16f9cd77ea4bf8_original.jpg", "custom_css": null}, {"id": 14024, "slack_id": "U093H2A51CP", "display_name": "Jakub Martenek", "bio": null, "projects_count": 0, "devlogs_count": 0, "votes_count": 0, "ships_count": 0, "projects": [], "coding_time_seconds": 0, "coding_time_seconds_today": 0, "balance": "You need to have a pocket watcher badge to view this.", "badges": [], "created_at": "2025-07-01T13:04:14.874-04:00", "updated_at": "2025-07-04T20:14:56.884-04:00", "avatar": "https://secure.gravatar.com/avatar/8b8ed2b840e1e9957c75b2ec9a067f89.jpg?s=512&d=https%3A%2F%2Fa.slack-edge.com%2Fdf10d%2Fimg%2Favatars%2Fava_0008-512.png", "custom_css": null}, {"id": 14025, "slack_id": "U093RU8420N", "display_name": "AFV 1", "bio": null, "projects_count": 0, "devlogs_count": 0, "votes_count": 0, "ships_count": 0, "projects": [], "coding_time_seconds": 0, "coding_time_seconds_today": 0, "balance": "You need to have a pocket watcher badge to view this.", "badges": [], "created_at": "2025-07-01T13:09:42.390-04:00", "updated_at": "2025-07-04T20:14:56.963-04:00", "avatar": "https://avatars.slack-edge.com/2025-07-01/9155002044368_73eb2f854b0700520fd2_original.jpg", "custom_css": null}, {"id": 14026, "slack_id": "U09485VAA49", "display_name": "Abdul Wasay", "bio": null, "projects_count": 0, "devlogs_count": 0, "votes_count": 0, "ships_count": 0, "projects": [], "coding_time_seconds": 0, "coding_time_seconds_today": 0, "balance": "You need to have a pocket watcher badge to view this.", "badges": [], "created_at": "2025-07-01T13:09:48.011-04:00", "updated_at": "2025-07-03T20:10:00.505-04:00", "avatar": "https://avatars.slack-edge.com/2025-07-01/9155000264592_f39ed1f975a28e4b191f_original.png", "custom_css": null}, {"id": 14027, "slack_id": "U090J54F3NH", "display_name": "Advik", "bio": null, "projects_count": 0, "devlogs_count": 0, "votes_count": 0, "ships_count": 0, "projects": [], "coding_time_seconds": 0, "coding_time_seconds_today": 0, "balance": "You need to have a pocket watcher badge to view this.", "badges": [], "created_at": "2025-07-01T13:11:39.539-04:00", "updated_at": "2025-07-04T08:30:41.453-04:00", "avatar": "https://secure.gravatar.com/avatar/a62f272e62ed70cd23ffa83939850387.jpg?s=512&d=https%3A%2F%2Fa.slack-edge.com%2Fdf10d%2Fimg%2Favatars%2Fava_0009-512.png", "custom_css": null}, {"id": 14028, "slack_id": "U093V8TUHK7", "display_name": "Devansh", "bio": null, "projects_count": 0, "devlogs_count": 0, "votes_count": 0, "ships_count": 0, "projects": [], "coding_time_seconds": 0, "coding_time_seconds_today": 0, "balance": "You need to have a pocket watcher badge to view this.", "badges": [], "created_at": "2025-07-01T13:26:38.871-04:00", "updated_at": "2025-07-03T20:10:00.917-04:00", "avatar": "https://secure.gravatar.com/avatar/c13f86df1b9ab4cb4cbf877de93299f0.jpg?s=512&d=https%3A%2F%2Fa.slack-edge.com%2Fdf10d%2Fimg%2Favatars%2Fava_0002-512.png", "custom_css": null}, {"id": 14029, "slack_id": "U0943G1R8BB", "display_name": "urja", "bio": null, "projects_count": 0, "devlogs_count": 0, "votes_count": 0, "ships_count": 0, "projects": [], "coding_time_seconds": 0, "coding_time_seconds_today": 0, "balance": "You need to have a pocket watcher badge to view this.", "badges": [], "created_at": "2025-07-01T13:26:41.514-04:00", "updated_at": "2025-07-07T02:16:21.840-04:00", "avatar": "https://secure.gravatar.com/avatar/d749ce8a9a5d99d258a5673ec25a31a2.jpg?s=512&d=https%3A%2F%2Fa.slack-edge.com%2Fdf10d%2Fimg%2Favatars%2Fava_0001-512.png", "custom_css": null}, {"id": 14030, "slack_id": "U0946EABN0H", "display_name": "Mann Joshi", "bio": null, "projects_count": 0, "devlogs_count": 0, "votes_count": 0, "ships_count": 0, "projects": [], "coding_time_seconds": 0, "coding_time_seconds_today": 0, "balance": "You need to have a pocket watcher badge to view this.", "badges": [], "created_at": "2025-07-01T13:26:42.899-04:00", "updated_at": "2025-07-03T20:10:01.396-04:00", "avatar": "https://secure.gravatar.com/avatar/87ade7845dd2a1148a1cfa6ed0c3e89f.jpg?s=512&d=https%3A%2F%2Fa.slack-edge.com%2Fdf10d%2Fimg%2Favatars%2Fava_0008-512.png", "custom_css": null}, {"id": 14031, "slack_id": "U093R9BPP6G", "display_name": "Ranveer 34", "bio": null, "projects_count": 0, "devlogs_count": 0, "votes_count": 0, "ships_count": 0, "projects": [], "coding_time_seconds": 65, "coding_time_seconds_today": 0, "balance": "You need to have a pocket watcher badge to view this.", "badges": [], "created_at": "2025-07-01T13:26:44.348-04:00", "updated_at": "2025-08-06T12:56:28.192-04:00", "avatar": "https://avatars.slack-edge.com/2025-07-01/9131355954853_fbe9702d392ac76982fd_original.png", "custom_css": null}, {"id": 14032, "slack_id": "U093YG00G2Y", "display_name": "Kailash Parshad", "bio": null, "projects_count": 0, "devlogs_count": 0, "votes_count": 0, "ships_count": 0, "projects": [], "coding_time_seconds": 0, "coding_time_seconds_today": 0, "balance": "You need to have a pocket watcher badge to view this.", "badges": [], "created_at": "2025-07-01T13:28:07.315-04:00", "updated_at": "2025-07-03T20:10:01.954-04:00", "avatar": "https://secure.gravatar.com/avatar/7aef816e05056e1cabce0379b35505be.jpg?s=512&d=https%3A%2F%2Fa.slack-edge.com%2Fdf10d%2Fimg%2Favatars%2Fava_0008-512.png", "custom_css": null}, {"id": 14033, "slack_id": "U093VB5S269", "display_name": "lemonjacob", "bio": null, "projects_count": 0, "devlogs_count": 0, "votes_count": 0, "ships_count": 0, "projects": [], "coding_time_seconds": 0, "coding_time_seconds_today": 0, "balance": "You need to have a pocket watcher badge to view this.", "badges": [], "created_at": "2025-07-01T13:28:54.014-04:00", "updated_at": "2025-07-17T08:02:02.113-04:00", "avatar": "https://secure.gravatar.com/avatar/c4b9d04d211f26449037ff6a43027e9a.jpg?s=512&d=https%3A%2F%2Fa.slack-edge.com%2Fdf10d%2Fimg%2Favatars%2Fava_0019-512.png", "custom_css": null}, {"id": 14034, "slack_id": "U08VC0K82CC", "display_name": "Dipanshu Kumar", "bio": null, "projects_count": 0, "devlogs_count": 0, "votes_count": 0, "ships_count": 0, "projects": [], "coding_time_seconds": 0, "coding_time_seconds_today": 0, "balance": "You need to have a pocket watcher badge to view this.", "badges": [], "created_at": "2025-07-01T13:31:36.017-04:00", "updated_at": "2025-07-03T20:10:02.501-04:00", "avatar": "https://secure.gravatar.com/avatar/dc69af06630310ccd5cf6f122648d438.jpg?s=512&d=https%3A%2F%2Fa.slack-edge.com%2Fdf10d%2Fimg%2Favatars%2Fava_0019-512.png", "custom_css": null}, {"id": 14035, "slack_id": "U07GTQV16DQ", "display_name": "Gideon", "bio": null, "projects_count": 3, "devlogs_count": 14, "votes_count": 28, "ships_count": 3, "projects": [{"id": 4914, "title": "Bearplans", "devlogs_count": 2, "created_at": "2025-07-02T07:32:44.776-04:00"}, {"id": 5200, "title": "ezcap", "devlogs_count": 3, "created_at": "2025-07-03T17:27:56.120-04:00"}, {"id": 5775, "title": "Gideon's Chess Engine", "devlogs_count": 9, "created_at": "2025-07-07T22:59:35.045-04:00"}], "coding_time_seconds": 475019, "coding_time_seconds_today": 0, "balance": "You need to have a pocket watcher badge to view this.", "badges": [{"name": "Maiden Voyage", "text": "you shipped your first project! the journey begins...", "icon": "\ud83d\udea2"}], "created_at": "2025-07-01T13:31:45.292-04:00", "updated_at": "2025-09-10T22:58:10.512-04:00", "avatar": "https://secure.gravatar.com/avatar/497bda12279de916b440fd64cfbe96e2.jpg?s=512&d=https%3A%2F%2Fa.slack-edge.com%2Fdf10d%2Fimg%2Favatars%2Fava_0020-512.png", "custom_css": null}, {"id": 14036, "slack_id": "U091MBX6761", "display_name": "Akshat Kumar Singh", "bio": null, "projects_count": 0, "devlogs_count": 0, "votes_count": 0, "ships_count": 0, "projects": [], "coding_time_seconds": 0, "coding_time_seconds_today": 0, "balance": "You need to have a pocket watcher badge to view this.", "badges": [], "created_at": "2025-07-01T13:33:02.849-04:00", "updated_at": "2025-07-03T20:10:02.908-04:00", "avatar": "https://avatars.slack-edge.com/2025-07-01/9133387802082_c2e828f6cbe5f86d9ce7_original.jpg", "custom_css": null}, {"id": 14037, "slack_id": "U0945NV0Q0H", "display_name": "Maurice", "bio": null, "projects_count": 0, "devlogs_count": 0, "votes_count": 0, "ships_count": 0, "projects": [], "coding_time_seconds": 18652, "coding_time_seconds_today": 0, "balance": "You need to have a pocket watcher badge to view this.", "badges": [], "created_at": "2025-07-01T13:36:29.875-04:00", "updated_at": "2025-07-03T20:10:03.179-04:00", "avatar": "https://secure.gravatar.com/avatar/99fb6a42efb7d94957fed17c17b14db0.jpg?s=512&d=https%3A%2F%2Fa.slack-edge.com%2Fdf10d%2Fimg%2Favatars%2Fava_0014-512.png", "custom_css": null}, {"id": 14038, "slack_id": "U093YBRJ78C", "display_name": "Jeevana Sapavath", "bio": null, "projects_count": 0, "devlogs_count": 0, "votes_count": 0, "ships_count": 0, "projects": [], "coding_time_seconds": 0, "coding_time_seconds_today": 0, "balance": "You need to have a pocket watcher badge to view this.", "badges": [], "created_at": "2025-07-01T13:39:22.927-04:00", "updated_at": "2025-07-04T08:30:42.170-04:00", "avatar": "https://avatars.slack-edge.com/2025-07-01/9125989248483_757f5027e6e06b31405d_original.png", "custom_css": null}, {"id": 14039, "slack_id": "U042WBRGH8X", "display_name": "Dev Shah", "bio": null, "projects_count": 0, "devlogs_count": 0, "votes_count": 0, "ships_count": 0, "projects": [], "coding_time_seconds": 0, "coding_time_seconds_today": 0, "balance": "You need to have a pocket watcher badge to view this.", "badges": [], "created_at": "2025-07-01T13:40:36.553-04:00", "updated_at": "2025-07-03T20:10:03.587-04:00", "avatar": "https://avatars.slack-edge.com/2022-09-21/4125848807921_61887dd181d301066252_original.png", "custom_css": null}, {"id": 14040, "slack_id": "U08RR26L3EY", "display_name": "Moaz", "bio": null, "projects_count": 0, "devlogs_count": 0, "votes_count": 0, "ships_count": 0, "projects": [], "coding_time_seconds": 42432, "coding_time_seconds_today": 0, "balance": "You need to have a pocket watcher badge to view this.", "badges": [], "created_at": "2025-07-01T13:41:53.572-04:00", "updated_at": "2025-07-04T09:45:16.438-04:00", "avatar": "https://secure.gravatar.com/avatar/020c80408e025d6fcbd1f1b9c5ec41b5.jpg?s=512&d=https%3A%2F%2Fa.slack-edge.com%2Fdf10d%2Fimg%2Favatars%2Fava_0003-512.png", "custom_css": null}], "pagination": {"page": 702, "pages": 1192, "count": 23828, "items": 20}}