{"users": [{"id": 14041, "slack_id": "U093S57N3M4", "display_name": "Xvine Player", "bio": null, "projects_count": 0, "devlogs_count": 0, "votes_count": 0, "ships_count": 0, "projects": [], "coding_time_seconds": 0, "coding_time_seconds_today": 0, "balance": "You need to have a pocket watcher badge to view this.", "badges": [], "created_at": "2025-07-01T13:47:17.286-04:00", "updated_at": "2025-07-06T20:15:46.246-04:00", "avatar": "https://avatars.slack-edge.com/2025-07-01/9133480237602_54ab073bdaa41ce7f9d0_original.png", "custom_css": null}, {"id": 14042, "slack_id": "U093H9DMNB1", "display_name": "Yuxi", "bio": null, "projects_count": 0, "devlogs_count": 0, "votes_count": 0, "ships_count": 0, "projects": [], "coding_time_seconds": 626, "coding_time_seconds_today": 0, "balance": "You need to have a pocket watcher badge to view this.", "badges": [], "created_at": "2025-07-01T13:47:43.275-04:00", "updated_at": "2025-07-10T19:03:01.636-04:00", "avatar": "https://secure.gravatar.com/avatar/53b3b86dbda599c97c3811f61ca57b86.jpg?s=512&d=https%3A%2F%2Fa.slack-edge.com%2Fdf10d%2Fimg%2Favatars%2Fava_0004-512.png", "custom_css": null}, {"id": 14043, "slack_id": "U094K5ZC3CG", "display_name": "Jas Arora", "bio": null, "projects_count": 0, "devlogs_count": 0, "votes_count": 0, "ships_count": 0, "projects": [], "coding_time_seconds": 0, "coding_time_seconds_today": 0, "balance": "You need to have a pocket watcher badge to view this.", "badges": [], "created_at": "2025-07-01T14:01:59.588-04:00", "updated_at": "2025-07-05T20:15:58.731-04:00", "avatar": "https://secure.gravatar.com/avatar/fbd9281bd713aeb9641bceff80f7477f.jpg?s=512&d=https%3A%2F%2Fa.slack-edge.com%2Fdf10d%2Fimg%2Favatars%2Fava_0025-512.png", "custom_css": null}, {"id": 14044, "slack_id": "U093S7W7HEJ", "display_name": "Kutemwa", "bio": null, "projects_count": 0, "devlogs_count": 0, "votes_count": 0, "ships_count": 0, "projects": [], "coding_time_seconds": 0, "coding_time_seconds_today": 0, "balance": "You need to have a pocket watcher badge to view this.", "badges": [], "created_at": "2025-07-01T14:06:39.852-04:00", "updated_at": "2025-07-03T20:10:04.539-04:00", "avatar": "https://secure.gravatar.com/avatar/75529947adbc39ec0608269a91431bb3.jpg?s=512&d=https%3A%2F%2Fa.slack-edge.com%2Fdf10d%2Fimg%2Favatars%2Fava_0020-512.png", "custom_css": null}, {"id": 14045, "slack_id": "U093S6D28TG", "display_name": "Sameer Krishna", "bio": null, "projects_count": 0, "devlogs_count": 0, "votes_count": 0, "ships_count": 0, "projects": [], "coding_time_seconds": 0, "coding_time_seconds_today": 0, "balance": "You need to have a pocket watcher badge to view this.", "badges": [], "created_at": "2025-07-01T14:13:40.603-04:00", "updated_at": "2025-07-08T03:13:12.826-04:00", "avatar": "https://avatars.slack-edge.com/2025-07-01/9134812435396_07e078a2c94ed6930923_original.jpg", "custom_css": null}, {"id": 14046, "slack_id": "U093XHAAVM0", "display_name": "chlorine", "bio": null, "projects_count": 0, "devlogs_count": 0, "votes_count": 0, "ships_count": 0, "projects": [], "coding_time_seconds": 13751, "coding_time_seconds_today": 0, "balance": "You need to have a pocket watcher badge to view this.", "badges": [], "created_at": "2025-07-01T14:14:02.819-04:00", "updated_at": "2025-08-27T00:41:38.357-04:00", "avatar": "https://avatars.slack-edge.com/2025-07-01/9127474871635_0114c41a8ed7c50de95c_original.png", "custom_css": null}, {"id": 14047, "slack_id": "U078XA9GBN2", "display_name": "Owen Laney", "bio": null, "projects_count": 0, "devlogs_count": 0, "votes_count": 0, "ships_count": 0, "projects": [], "coding_time_seconds": 0, "coding_time_seconds_today": 0, "balance": "You need to have a pocket watcher badge to view this.", "badges": [], "created_at": "2025-07-01T14:16:27.439-04:00", "updated_at": "2025-07-06T20:15:46.592-04:00", "avatar": "https://secure.gravatar.com/avatar/628a8ca6e6923e080a51e50b3a9f06d0.jpg?s=512&d=https%3A%2F%2Fa.slack-edge.com%2Fdf10d%2Fimg%2Favatars%2Fava_0009-512.png", "custom_css": null}, {"id": 14048, "slack_id": "U09480RSQLR", "display_name": "YR", "bio": null, "projects_count": 0, "devlogs_count": 0, "votes_count": 0, "ships_count": 0, "projects": [], "coding_time_seconds": 0, "coding_time_seconds_today": 0, "balance": "You need to have a pocket watcher badge to view this.", "badges": [], "created_at": "2025-07-01T14:20:08.014-04:00", "updated_at": "2025-07-03T22:05:10.664-04:00", "avatar": "https://secure.gravatar.com/avatar/d21b4600a7918fa7a231d0fa0ae10808.jpg?s=512&d=https%3A%2F%2Fa.slack-edge.com%2Fdf10d%2Fimg%2Favatars%2Fava_0020-512.png", "custom_css": null}, {"id": 14049, "slack_id": "U04AT2QQ741", "display_name": "Manas Mahendra", "bio": null, "projects_count": 0, "devlogs_count": 0, "votes_count": 0, "ships_count": 0, "projects": [], "coding_time_seconds": 0, "coding_time_seconds_today": 0, "balance": "You need to have a pocket watcher badge to view this.", "badges": [], "created_at": "2025-07-01T14:22:54.568-04:00", "updated_at": "2025-07-05T08:16:00.553-04:00", "avatar": "https://avatars.slack-edge.com/2022-11-10/4351518305253_877279fe8cb5e3fd8f0f_original.png", "custom_css": null}, {"id": 14050, "slack_id": "U093XK0296W", "display_name": "Pal", "bio": null, "projects_count": 0, "devlogs_count": 0, "votes_count": 0, "ships_count": 0, "projects": [], "coding_time_seconds": 0, "coding_time_seconds_today": 0, "balance": "You need to have a pocket watcher badge to view this.", "badges": [], "created_at": "2025-07-01T14:26:35.169-04:00", "updated_at": "2025-07-06T14:15:17.046-04:00", "avatar": "https://secure.gravatar.com/avatar/0ab132dc7264ef511fd54fb74bcb28a5.jpg?s=512&d=https%3A%2F%2Fa.slack-edge.com%2Fdf10d%2Fimg%2Favatars%2Fava_0014-512.png", "custom_css": null}, {"id": 14051, "slack_id": "U08QP75U4PN", "display_name": "Vikhyat Konchada", "bio": null, "projects_count": 2, "devlogs_count": 1, "votes_count": 4, "ships_count": 1, "projects": [{"id": 6081, "title": "unnamedgame", "devlogs_count": 0, "created_at": "2025-07-10T12:52:10.526-04:00"}, {"id": 4822, "title": "Vikhyat's Website", "devlogs_count": 1, "created_at": "2025-07-01T17:49:08.669-04:00"}], "coding_time_seconds": 39885, "coding_time_seconds_today": 0, "balance": "You need to have a pocket watcher badge to view this.", "badges": [{"name": "Maiden Voyage", "text": "you shipped your first project! the journey begins...", "icon": "\ud83d\udea2"}], "created_at": "2025-07-01T14:26:37.521-04:00", "updated_at": "2025-09-10T22:58:10.854-04:00", "avatar": "https://secure.gravatar.com/avatar/95b7b0631acae1024e418a11bd0e967a.jpg?s=512&d=https%3A%2F%2Fa.slack-edge.com%2Fdf10d%2Fimg%2Favatars%2Fava_0005-512.png", "custom_css": null}, {"id": 14052, "slack_id": "U093HG16K1V", "display_name": "Sagexd", "bio": null, "projects_count": 0, "devlogs_count": 0, "votes_count": 0, "ships_count": 0, "projects": [], "coding_time_seconds": 0, "coding_time_seconds_today": 0, "balance": "You need to have a pocket watcher badge to view this.", "badges": [], "created_at": "2025-07-01T14:30:45.448-04:00", "updated_at": "2025-07-03T20:10:05.910-04:00", "avatar": "https://secure.gravatar.com/avatar/0341934399b0acd0663d83374a8fc78c.jpg?s=512&d=https%3A%2F%2Fa.slack-edge.com%2Fdf10d%2Fimg%2Favatars%2Fava_0016-512.png", "custom_css": null}, {"id": 14053, "slack_id": "U03PR23RTSB", "display_name": "Sarvesh M", "bio": null, "projects_count": 0, "devlogs_count": 0, "votes_count": 0, "ships_count": 0, "projects": [], "coding_time_seconds": 16741, "coding_time_seconds_today": 0, "balance": "You need to have a pocket watcher badge to view this.", "badges": [], "created_at": "2025-07-01T14:32:23.059-04:00", "updated_at": "2025-07-03T20:10:06.177-04:00", "avatar": "https://avatars.slack-edge.com/2022-07-19/3821618873795_7fc15b8753d701078462_original.png", "custom_css": null}, {"id": 14054, "slack_id": "U093HGGN7LP", "display_name": "Brian", "bio": null, "projects_count": 1, "devlogs_count": 0, "votes_count": 0, "ships_count": 0, "projects": [{"id": 6369, "title": "Sportlingo", "devlogs_count": 0, "created_at": "2025-07-12T18:38:09.998-04:00"}], "coding_time_seconds": 48518, "coding_time_seconds_today": 0, "balance": "You need to have a pocket watcher badge to view this.", "badges": [], "created_at": "2025-07-01T14:32:35.709-04:00", "updated_at": "2025-07-03T20:10:06.435-04:00", "avatar": "https://secure.gravatar.com/avatar/71f5ba4a4eb82f3f14ad4f286d9be484.jpg?s=512&d=https%3A%2F%2Fa.slack-edge.com%2Fdf10d%2Fimg%2Favatars%2Fava_0000-512.png", "custom_css": null}, {"id": 14055, "slack_id": "U07F1QRR4MC", "display_name": "mio-yo", "bio": null, "projects_count": 1, "devlogs_count": 0, "votes_count": 0, "ships_count": 0, "projects": [{"id": 4803, "title": "Retro Arcade Game w/ AI Enemy", "devlogs_count": 0, "created_at": "2025-07-01T16:06:26.414-04:00"}], "coding_time_seconds": 8178, "coding_time_seconds_today": 0, "balance": "You need to have a pocket watcher badge to view this.", "badges": [], "created_at": "2025-07-01T14:35:42.853-04:00", "updated_at": "2025-07-03T20:10:06.695-04:00", "avatar": "https://secure.gravatar.com/avatar/e7944e637a0a730b778c6d9dab0b6303.jpg?s=512&d=https%3A%2F%2Fa.slack-edge.com%2Fdf10d%2Fimg%2Favatars%2Fava_0014-512.png", "custom_css": null}, {"id": 14056, "slack_id": "U093VNNN6J1", "display_name": "santhosh kumar", "bio": null, "projects_count": 0, "devlogs_count": 0, "votes_count": 0, "ships_count": 0, "projects": [], "coding_time_seconds": 0, "coding_time_seconds_today": 0, "balance": "You need to have a pocket watcher badge to view this.", "badges": [], "created_at": "2025-07-01T14:44:16.733-04:00", "updated_at": "2025-07-03T22:05:11.207-04:00", "avatar": "https://secure.gravatar.com/avatar/6b700ddd712c13b5ea0347542bd8840f.jpg?s=512&d=https%3A%2F%2Fa.slack-edge.com%2Fdf10d%2Fimg%2Favatars%2Fava_0017-512.png", "custom_css": null}, {"id": 14057, "slack_id": "U093XMLM1GA", "display_name": "Alex", "bio": null, "projects_count": 8, "devlogs_count": 88, "votes_count": 160, "ships_count": 5, "projects": [{"id": 7404, "title": "WebOS portofolio", "devlogs_count": 29, "created_at": "2025-07-21T16:20:13.242-04:00"}, {"id": 4829, "title": "MeowFeeder", "devlogs_count": 17, "created_at": "2025-07-01T18:34:59.586-04:00"}, {"id": 7044, "title": "TenebraUi", "devlogs_count": 1, "created_at": "2025-07-18T13:44:21.928-04:00"}, {"id": 10001, "title": "Legends of the Whispering Vale", "devlogs_count": 0, "created_at": "2025-08-03T11:37:26.256-04:00"}, {"id": 13280, "title": "InfoBase", "devlogs_count": 14, "created_at": "2025-09-13T06:58:45.766-04:00"}, {"id": 6797, "title": "AngryFlappyBird", "devlogs_count": 14, "created_at": "2025-07-16T10:06:42.273-04:00"}, {"id": 10341, "title": "angry birds chess", "devlogs_count": 10, "created_at": "2025-08-06T04:51:25.874-04:00"}, {"id": 6699, "title": "HorL", "devlogs_count": 4, "created_at": "2025-07-15T08:08:04.004-04:00"}], "coding_time_seconds": 336692, "coding_time_seconds_today": 0, "balance": "You need to have a pocket watcher badge to view this.", "badges": [{"name": "Maiden Voyage", "text": "you shipped your first project! the journey begins...", "icon": "\ud83d\udea2"}, {"name": "Ballot Stuffer", "text": "vote 100 times.", "icon": "https://summer.hackclub.com/assets/i_voted-bf851b48.png"}], "created_at": "2025-07-01T14:45:14.119-04:00", "updated_at": "2025-09-10T22:58:11.055-04:00", "avatar": "https://avatars.slack-edge.com/2025-07-02/9156558093104_e0eb94c0aeefc953a316_original.png", "custom_css": null}, {"id": 14058, "slack_id": "U0825SY4151", "display_name": "Diamond Pixals", "bio": null, "projects_count": 0, "devlogs_count": 0, "votes_count": 0, "ships_count": 0, "projects": [], "coding_time_seconds": 0, "coding_time_seconds_today": 0, "balance": "You need to have a pocket watcher badge to view this.", "badges": [], "created_at": "2025-07-01T14:45:53.484-04:00", "updated_at": "2025-07-03T20:10:07.226-04:00", "avatar": "https://avatars.slack-edge.com/2024-11-25/8080641871989_b7b42ae9af32a4dc8ba0_original.png", "custom_css": null}, {"id": 14059, "slack_id": "U094KFQL0Q0", "display_name": "Rizwan Refai", "bio": null, "projects_count": 0, "devlogs_count": 0, "votes_count": 0, "ships_count": 0, "projects": [], "coding_time_seconds": 234, "coding_time_seconds_today": 0, "balance": "You need to have a pocket watcher badge to view this.", "badges": [], "created_at": "2025-07-01T14:56:15.417-04:00", "updated_at": "2025-07-03T20:10:07.486-04:00", "avatar": "https://secure.gravatar.com/avatar/b710a925b396dcbfffbfa21e55b3b909.jpg?s=512&d=https%3A%2F%2Fa.slack-edge.com%2Fdf10d%2Fimg%2Favatars%2Fava_0011-512.png", "custom_css": null}, {"id": 14060, "slack_id": "U094KH1R3RN", "display_name": "Carlos Hernandez", "bio": null, "projects_count": 0, "devlogs_count": 0, "votes_count": 0, "ships_count": 0, "projects": [], "coding_time_seconds": 0, "coding_time_seconds_today": 0, "balance": "You need to have a pocket watcher badge to view this.", "badges": [], "created_at": "2025-07-01T15:02:04.863-04:00", "updated_at": "2025-07-03T20:10:07.742-04:00", "avatar": "https://secure.gravatar.com/avatar/a179b879f9d16a8263a36de915081027.jpg?s=512&d=https%3A%2F%2Fa.slack-edge.com%2Fdf10d%2Fimg%2Favatars%2Fava_0024-512.png", "custom_css": null}], "pagination": {"page": 703, "pages": 1192, "count": 23828, "items": 20}}