{"users": [{"id": 14061, "slack_id": "U093SGNBY3Y", "display_name": "Rithi Sadu", "bio": null, "projects_count": 0, "devlogs_count": 0, "votes_count": 0, "ships_count": 0, "projects": [], "coding_time_seconds": 0, "coding_time_seconds_today": 0, "balance": "You need to have a pocket watcher badge to view this.", "badges": [], "created_at": "2025-07-01T15:04:17.919-04:00", "updated_at": "2025-07-03T20:10:08.004-04:00", "avatar": "https://secure.gravatar.com/avatar/7cd6782dad18f99475e3b47c4b560112.jpg?s=512&d=https%3A%2F%2Fa.slack-edge.com%2Fdf10d%2Fimg%2Favatars%2Fava_0000-512.png", "custom_css": null}, {"id": 14062, "slack_id": "U093SGXNDT8", "display_name": "Osvaldo Fabian Ramiro Balboa", "bio": null, "projects_count": 0, "devlogs_count": 0, "votes_count": 0, "ships_count": 0, "projects": [], "coding_time_seconds": 0, "coding_time_seconds_today": 0, "balance": "You need to have a pocket watcher badge to view this.", "badges": [], "created_at": "2025-07-01T15:05:31.809-04:00", "updated_at": "2025-07-03T20:10:08.264-04:00", "avatar": "https://secure.gravatar.com/avatar/be2e128eadcdc02a2f26b2183f8b106d.jpg?s=512&d=https%3A%2F%2Fa.slack-edge.com%2Fdf10d%2Fimg%2Favatars%2Fava_0013-512.png", "custom_css": null}, {"id": 14063, "slack_id": "U093SJ503PY", "display_name": "Ishan", "bio": null, "projects_count": 0, "devlogs_count": 0, "votes_count": 0, "ships_count": 0, "projects": [], "coding_time_seconds": 0, "coding_time_seconds_today": 0, "balance": "You need to have a pocket watcher badge to view this.", "badges": [], "created_at": "2025-07-01T15:08:12.737-04:00", "updated_at": "2025-07-03T20:10:08.543-04:00", "avatar": "https://secure.gravatar.com/avatar/6b58133bc79f7647166e7f08641e88f1.jpg?s=512&d=https%3A%2F%2Fa.slack-edge.com%2Fdf10d%2Fimg%2Favatars%2Fava_0007-512.png", "custom_css": null}, {"id": 14064, "slack_id": "U081ZBN3ZHU", "display_name": "Ali", "bio": null, "projects_count": 0, "devlogs_count": 0, "votes_count": 0, "ships_count": 0, "projects": [], "coding_time_seconds": 0, "coding_time_seconds_today": 0, "balance": "You need to have a pocket watcher badge to view this.", "badges": [], "created_at": "2025-07-01T15:08:19.905-04:00", "updated_at": "2025-07-03T20:10:08.810-04:00", "avatar": "https://avatars.slack-edge.com/2024-11-25/8084141060308_be56d889270c7a082a0a_original.png", "custom_css": null}, {"id": 14065, "slack_id": "U093SJ83ZBQ", "display_name": "Ena Umpleby", "bio": null, "projects_count": 1, "devlogs_count": 0, "votes_count": 10, "ships_count": 0, "projects": [{"id": 5869, "title": "mole in a hole", "devlogs_count": 0, "created_at": "2025-07-08T16:18:17.382-04:00"}], "coding_time_seconds": 14401, "coding_time_seconds_today": 0, "balance": "You need to have a pocket watcher badge to view this.", "badges": [], "created_at": "2025-07-01T15:12:22.649-04:00", "updated_at": "2025-07-08T03:13:18.209-04:00", "avatar": "https://avatars.slack-edge.com/2025-07-07/9156527479286_f432543cd267c7bc9e6c_original.jpg", "custom_css": null}, {"id": 14066, "slack_id": "U07GYN286QP", "display_name": "Bilal ElMasry", "bio": null, "projects_count": 0, "devlogs_count": 0, "votes_count": 0, "ships_count": 0, "projects": [], "coding_time_seconds": 0, "coding_time_seconds_today": 0, "balance": "You need to have a pocket watcher badge to view this.", "badges": [], "created_at": "2025-07-01T15:13:35.709-04:00", "updated_at": "2025-07-03T20:10:09.346-04:00", "avatar": "https://secure.gravatar.com/avatar/bc5390af4bc15860ef65741be303b725.jpg?s=512&d=https%3A%2F%2Fa.slack-edge.com%2Fdf10d%2Fimg%2Favatars%2Fava_0010-512.png", "custom_css": null}, {"id": 14067, "slack_id": "U079NMWKAPR", "display_name": "Ahmet Arslan", "bio": null, "projects_count": 0, "devlogs_count": 0, "votes_count": 0, "ships_count": 0, "projects": [], "coding_time_seconds": 23994, "coding_time_seconds_today": 0, "balance": "You need to have a pocket watcher badge to view this.", "badges": [], "created_at": "2025-07-01T15:19:57.794-04:00", "updated_at": "2025-07-03T22:05:12.082-04:00", "avatar": "https://avatars.slack-edge.com/2024-08-27/7639609863908_d477851aee4d7c744bfc_original.png", "custom_css": null}, {"id": 14068, "slack_id": "U093K482UQK", "display_name": "Ahmaad Hassan", "bio": null, "projects_count": 0, "devlogs_count": 0, "votes_count": 0, "ships_count": 0, "projects": [], "coding_time_seconds": 0, "coding_time_seconds_today": 0, "balance": "You need to have a pocket watcher badge to view this.", "badges": [], "created_at": "2025-07-01T15:30:28.499-04:00", "updated_at": "2025-08-10T22:07:41.061-04:00", "avatar": "https://secure.gravatar.com/avatar/5f49ac1e589626d1fe03efa4f69e0d2b.jpg?s=512&d=https%3A%2F%2Fa.slack-edge.com%2Fdf10d%2Fimg%2Favatars%2Fava_0013-512.png", "custom_css": null}, {"id": 14069, "slack_id": "U093XULMKK4", "display_name": "Saori", "bio": null, "projects_count": 0, "devlogs_count": 0, "votes_count": 0, "ships_count": 0, "projects": [], "coding_time_seconds": 0, "coding_time_seconds_today": 0, "balance": "You need to have a pocket watcher badge to view this.", "badges": [], "created_at": "2025-07-01T15:32:27.969-04:00", "updated_at": "2025-07-03T20:10:09.884-04:00", "avatar": "https://secure.gravatar.com/avatar/4d91039b48d6ae24f019998a2b3ada28.jpg?s=512&d=https%3A%2F%2Fa.slack-edge.com%2Fdf10d%2Fimg%2Favatars%2Fava_0006-512.png", "custom_css": null}, {"id": 14070, "slack_id": "U093SMPG938", "display_name": "janek", "bio": null, "projects_count": 0, "devlogs_count": 0, "votes_count": 0, "ships_count": 0, "projects": [], "coding_time_seconds": 0, "coding_time_seconds_today": 0, "balance": "You need to have a pocket watcher badge to view this.", "badges": [], "created_at": "2025-07-01T15:32:48.862-04:00", "updated_at": "2025-07-04T02:34:25.804-04:00", "avatar": "https://secure.gravatar.com/avatar/1bf5897b0ef857c083d2fca96ea5319f.jpg?s=512&d=https%3A%2F%2Fa.slack-edge.com%2Fdf10d%2Fimg%2Favatars%2Fava_0015-512.png", "custom_css": null}, {"id": 14071, "slack_id": "U093XUUDCCS", "display_name": "Kabanos", "bio": null, "projects_count": 1, "devlogs_count": 5, "votes_count": 17, "ships_count": 1, "projects": [{"id": 5485, "title": "LoLnections", "devlogs_count": 5, "created_at": "2025-07-05T15:57:59.667-04:00"}], "coding_time_seconds": 21883, "coding_time_seconds_today": 0, "balance": "You need to have a pocket watcher badge to view this.", "badges": [{"name": "Maiden Voyage", "text": "you shipped your first project! the journey begins...", "icon": "\ud83d\udea2"}], "created_at": "2025-07-01T15:34:41.437-04:00", "updated_at": "2025-09-10T22:58:11.369-04:00", "avatar": "https://secure.gravatar.com/avatar/464ea8caa3b5a46d76ab93e573e2ef08.jpg?s=512&d=https%3A%2F%2Fa.slack-edge.com%2Fdf10d%2Fimg%2Favatars%2Fava_0024-512.png", "custom_css": null}, {"id": 14072, "slack_id": "U094AQG4LFK", "display_name": "Gato", "bio": null, "projects_count": 0, "devlogs_count": 0, "votes_count": 0, "ships_count": 0, "projects": [], "coding_time_seconds": 0, "coding_time_seconds_today": 0, "balance": "You need to have a pocket watcher badge to view this.", "badges": [], "created_at": "2025-07-01T15:40:52.359-04:00", "updated_at": "2025-07-03T20:10:10.557-04:00", "avatar": "https://secure.gravatar.com/avatar/edfa661fad4e0bd986fd72b076f87b17.jpg?s=512&d=https%3A%2F%2Fa.slack-edge.com%2Fdf10d%2Fimg%2Favatars%2Fava_0010-512.png", "custom_css": null}, {"id": 14073, "slack_id": "U094AQH2TNV", "display_name": "wikipopxyz", "bio": null, "projects_count": 0, "devlogs_count": 0, "votes_count": 0, "ships_count": 0, "projects": [], "coding_time_seconds": 0, "coding_time_seconds_today": 0, "balance": "You need to have a pocket watcher badge to view this.", "badges": [], "created_at": "2025-07-01T15:41:42.907-04:00", "updated_at": "2025-07-03T20:10:10.824-04:00", "avatar": "https://secure.gravatar.com/avatar/4ab7f0fcc26e92f0caf6792ba6cbcbac.jpg?s=512&d=https%3A%2F%2Fa.slack-edge.com%2Fdf10d%2Fimg%2Favatars%2Fava_0008-512.png", "custom_css": null}, {"id": 14074, "slack_id": "U093W1HGHV3", "display_name": "Priyesh", "bio": null, "projects_count": 0, "devlogs_count": 0, "votes_count": 0, "ships_count": 0, "projects": [], "coding_time_seconds": 0, "coding_time_seconds_today": 0, "balance": "You need to have a pocket watcher badge to view this.", "badges": [], "created_at": "2025-07-01T15:42:17.613-04:00", "updated_at": "2025-07-04T08:30:45.072-04:00", "avatar": "https://avatars.slack-edge.com/2025-07-01/9119922847815_d842d375b0e5addeac3a_original.png", "custom_css": null}, {"id": 14075, "slack_id": "U07JWCZHS01", "display_name": "james lamb", "bio": null, "projects_count": 0, "devlogs_count": 0, "votes_count": 0, "ships_count": 0, "projects": [], "coding_time_seconds": 0, "coding_time_seconds_today": 0, "balance": "You need to have a pocket watcher badge to view this.", "badges": [], "created_at": "2025-07-01T15:47:21.341-04:00", "updated_at": "2025-07-03T20:10:11.300-04:00", "avatar": "https://secure.gravatar.com/avatar/f5b0a69f4e9291c8e32e5e5adde25ecc.jpg?s=512&d=https%3A%2F%2Fa.slack-edge.com%2Fdf10d%2Fimg%2Favatars%2Fava_0011-512.png", "custom_css": null}, {"id": 14076, "slack_id": "U094AS28YEM", "display_name": "Kacper", "bio": null, "projects_count": 0, "devlogs_count": 0, "votes_count": 0, "ships_count": 0, "projects": [], "coding_time_seconds": 0, "coding_time_seconds_today": 0, "balance": "You need to have a pocket watcher badge to view this.", "badges": [], "created_at": "2025-07-01T15:53:21.981-04:00", "updated_at": "2025-07-03T20:10:11.562-04:00", "avatar": "https://secure.gravatar.com/avatar/cba3d2a6e868754c1ff18c4311916fc0.jpg?s=512&d=https%3A%2F%2Fa.slack-edge.com%2Fdf10d%2Fimg%2Favatars%2Fava_0018-512.png", "custom_css": null}, {"id": 14077, "slack_id": "U05PYCG0YGK", "display_name": "Rishit Narang", "bio": null, "projects_count": 0, "devlogs_count": 0, "votes_count": 5, "ships_count": 0, "projects": [], "coding_time_seconds": 89196, "coding_time_seconds_today": 0, "balance": "You need to have a pocket watcher badge to view this.", "badges": [], "created_at": "2025-07-01T15:55:48.856-04:00", "updated_at": "2025-07-03T20:10:11.840-04:00", "avatar": "https://secure.gravatar.com/avatar/6224b08915f81cbb6fd8efcd7ef080cc.jpg?s=512&d=https%3A%2F%2Fa.slack-edge.com%2Fdf10d%2Fimg%2Favatars%2Fava_0001-512.png", "custom_css": null}, {"id": 14078, "slack_id": "U093W3BS1K7", "display_name": "Diana Paredes", "bio": null, "projects_count": 0, "devlogs_count": 0, "votes_count": 0, "ships_count": 0, "projects": [], "coding_time_seconds": 0, "coding_time_seconds_today": 0, "balance": "You need to have a pocket watcher badge to view this.", "badges": [], "created_at": "2025-07-01T15:55:55.839-04:00", "updated_at": "2025-07-03T20:10:12.103-04:00", "avatar": "https://secure.gravatar.com/avatar/6b9bdcee8b6e25be671f74b2b1016306.jpg?s=512&d=https%3A%2F%2Fa.slack-edge.com%2Fdf10d%2Fimg%2Favatars%2Fava_0026-512.png", "custom_css": null}, {"id": 14079, "slack_id": "U094APNUZ4H", "display_name": "wikipop", "bio": null, "projects_count": 0, "devlogs_count": 0, "votes_count": 0, "ships_count": 0, "projects": [], "coding_time_seconds": 0, "coding_time_seconds_today": 0, "balance": "You need to have a pocket watcher badge to view this.", "badges": [], "created_at": "2025-07-01T16:00:08.458-04:00", "updated_at": "2025-07-03T20:10:12.369-04:00", "avatar": "https://secure.gravatar.com/avatar/e55dff27fd6f8e1ac820d9cb4d713b2a.jpg?s=512&d=https%3A%2F%2Fa.slack-edge.com%2Fdf10d%2Fimg%2Favatars%2Fava_0004-512.png", "custom_css": null}, {"id": 14080, "slack_id": "U093Y9UL2FL", "display_name": "Franklin Liu", "bio": null, "projects_count": 1, "devlogs_count": 0, "votes_count": 0, "ships_count": 0, "projects": [{"id": 4826, "title": "Dancypants", "devlogs_count": 0, "created_at": "2025-07-01T18:07:46.672-04:00"}], "coding_time_seconds": 56441, "coding_time_seconds_today": 0, "balance": "You need to have a pocket watcher badge to view this.", "badges": [], "created_at": "2025-07-01T16:49:46.070-04:00", "updated_at": "2025-07-03T20:10:12.628-04:00", "avatar": "https://secure.gravatar.com/avatar/027ccbe610bc98e90a2c5926d0941bf6.jpg?s=512&d=https%3A%2F%2Fa.slack-edge.com%2Fdf10d%2Fimg%2Favatars%2Fava_0024-512.png", "custom_css": null}], "pagination": {"page": 704, "pages": 1192, "count": 23828, "items": 20}}