{"users": [{"id": 14081, "slack_id": "U094B4MR4BT", "display_name": "Harsh Bhardwaj", "bio": null, "projects_count": 0, "devlogs_count": 0, "votes_count": 1, "ships_count": 0, "projects": [], "coding_time_seconds": 0, "coding_time_seconds_today": 0, "balance": "You need to have a pocket watcher badge to view this.", "badges": [], "created_at": "2025-07-01T16:51:29.850-04:00", "updated_at": "2025-07-03T20:10:12.891-04:00", "avatar": "https://secure.gravatar.com/avatar/b2508ec84a652889a08367c32d1d380d.jpg?s=512&d=https%3A%2F%2Fa.slack-edge.com%2Fdf10d%2Fimg%2Favatars%2Fava_0013-512.png", "custom_css": null}, {"id": 14082, "slack_id": "U08QTHCDGCD", "display_name": "Kush Ray", "bio": null, "projects_count": 2, "devlogs_count": 20, "votes_count": 11, "ships_count": 1, "projects": [{"id": 5003, "title": "PuzzleGame", "devlogs_count": 9, "created_at": "2025-07-02T16:57:49.573-04:00"}, {"id": 5489, "title": "PyShooter", "devlogs_count": 11, "created_at": "2025-07-05T16:56:16.852-04:00"}], "coding_time_seconds": 86324, "coding_time_seconds_today": 0, "balance": "You need to have a pocket watcher badge to view this.", "badges": [{"name": "Maiden Voyage", "text": "you shipped your first project! the journey begins...", "icon": "\ud83d\udea2"}], "created_at": "2025-07-01T16:56:15.791-04:00", "updated_at": "2025-09-10T22:58:11.642-04:00", "avatar": "https://secure.gravatar.com/avatar/add75def56388656d6cdba5930d57d07.jpg?s=512&d=https%3A%2F%2Fa.slack-edge.com%2Fdf10d%2Fimg%2Favatars%2Fava_0015-512.png", "custom_css": null}, {"id": 14083, "slack_id": "U07A3P2LUAF", "display_name": "Gabriel Chen", "bio": null, "projects_count": 2, "devlogs_count": 0, "votes_count": 0, "ships_count": 0, "projects": [{"id": 6623, "title": "Shad News", "devlogs_count": 0, "created_at": "2025-07-14T15:49:22.351-04:00"}, {"id": 6628, "title": "pwnagotchi", "devlogs_count": 0, "created_at": "2025-07-14T16:10:49.318-04:00"}], "coding_time_seconds": 17489, "coding_time_seconds_today": 0, "balance": "You need to have a pocket watcher badge to view this.", "badges": [], "created_at": "2025-07-01T16:57:25.569-04:00", "updated_at": "2025-09-09T00:14:49.105-04:00", "avatar": "https://secure.gravatar.com/avatar/fdcfd8d1b85ddd631101332a9a4303cc.jpg?s=512&d=https%3A%2F%2Fa.slack-edge.com%2Fdf10d%2Fimg%2Favatars%2Fava_0010-512.png", "custom_css": null}, {"id": 14084, "slack_id": "U05J4G2GC7J", "display_name": "Darren Su", "bio": null, "projects_count": 0, "devlogs_count": 0, "votes_count": 0, "ships_count": 0, "projects": [], "coding_time_seconds": 2866, "coding_time_seconds_today": 0, "balance": "You need to have a pocket watcher badge to view this.", "badges": [], "created_at": "2025-07-01T16:58:37.083-04:00", "updated_at": "2025-07-04T20:15:01.257-04:00", "avatar": "https://avatars.slack-edge.com/2025-02-13/8437318264007_d033d95f1f8620f3d942_original.jpg", "custom_css": null}, {"id": 14085, "slack_id": "U094L5G8PC0", "display_name": "Franzo", "bio": null, "projects_count": 0, "devlogs_count": 0, "votes_count": 2, "ships_count": 0, "projects": [], "coding_time_seconds": 3712, "coding_time_seconds_today": 0, "balance": "You need to have a pocket watcher badge to view this.", "badges": [], "created_at": "2025-07-01T17:02:28.632-04:00", "updated_at": "2025-07-03T20:10:13.828-04:00", "avatar": "https://secure.gravatar.com/avatar/95c930f15deda7d1ab4a44c348e5ac69.jpg?s=512&d=https%3A%2F%2Fa.slack-edge.com%2Fdf10d%2Fimg%2Favatars%2Fava_0001-512.png", "custom_css": null}, {"id": 14086, "slack_id": "U094B5Z7K6D", "display_name": "BHOOMIKA SHARMA", "bio": null, "projects_count": 0, "devlogs_count": 0, "votes_count": 0, "ships_count": 0, "projects": [], "coding_time_seconds": 0, "coding_time_seconds_today": 0, "balance": "You need to have a pocket watcher badge to view this.", "badges": [], "created_at": "2025-07-01T17:04:01.470-04:00", "updated_at": "2025-07-08T03:13:23.666-04:00", "avatar": "https://avatars.slack-edge.com/2025-07-01/9134416638978_fc4ff5a3b8407ff8a65f_original.png", "custom_css": null}, {"id": 14087, "slack_id": "U0935C572N8", "display_name": "Bhurley", "bio": null, "projects_count": 0, "devlogs_count": 0, "votes_count": 0, "ships_count": 0, "projects": [], "coding_time_seconds": 0, "coding_time_seconds_today": 0, "balance": "You need to have a pocket watcher badge to view this.", "badges": [], "created_at": "2025-07-01T17:05:52.066-04:00", "updated_at": "2025-07-03T20:10:14.226-04:00", "avatar": "https://secure.gravatar.com/avatar/c3362be8f34eaedac2f0f60e9208299d.jpg?s=512&d=https%3A%2F%2Fa.slack-edge.com%2Fdf10d%2Fimg%2Favatars%2Fava_0024-512.png", "custom_css": null}, {"id": 14088, "slack_id": "U093H2A1TH9", "display_name": "Jasper Gorchov", "bio": null, "projects_count": 0, "devlogs_count": 0, "votes_count": 1, "ships_count": 0, "projects": [], "coding_time_seconds": 126172, "coding_time_seconds_today": 0, "balance": "You need to have a pocket watcher badge to view this.", "badges": [], "created_at": "2025-07-01T17:16:05.189-04:00", "updated_at": "2025-07-03T20:10:14.482-04:00", "avatar": "https://avatars.slack-edge.com/2025-07-01/9127025655891_5b94d07d7ffd9dd8fac1_original.png", "custom_css": null}, {"id": 14089, "slack_id": "U08H24LJTKL", "display_name": "Felix", "bio": null, "projects_count": 0, "devlogs_count": 0, "votes_count": 0, "ships_count": 0, "projects": [], "coding_time_seconds": 120178, "coding_time_seconds_today": 0, "balance": "You need to have a pocket watcher badge to view this.", "badges": [], "created_at": "2025-07-01T17:16:36.333-04:00", "updated_at": "2025-07-23T21:15:36.640-04:00", "avatar": "https://avatars.slack-edge.com/2025-07-23/9241459646325_fee739a7535f8adc5dd9_original.jpg", "custom_css": null}, {"id": 14090, "slack_id": "U093QVCPGFM", "display_name": "Abigail", "bio": null, "projects_count": 0, "devlogs_count": 0, "votes_count": 0, "ships_count": 0, "projects": [], "coding_time_seconds": 0, "coding_time_seconds_today": 0, "balance": "You need to have a pocket watcher badge to view this.", "badges": [], "created_at": "2025-07-01T17:17:12.154-04:00", "updated_at": "2025-07-04T20:15:01.651-04:00", "avatar": "https://secure.gravatar.com/avatar/c22200123ed4fc6c7542a74bec854d3d.jpg?s=512&d=https%3A%2F%2Fa.slack-edge.com%2Fdf10d%2Fimg%2Favatars%2Fava_0006-512.png", "custom_css": null}, {"id": 14091, "slack_id": "U093ZLFJQAY", "display_name": "Abraham Revolorio", "bio": null, "projects_count": 0, "devlogs_count": 0, "votes_count": 0, "ships_count": 0, "projects": [], "coding_time_seconds": 0, "coding_time_seconds_today": 0, "balance": "You need to have a pocket watcher badge to view this.", "badges": [], "created_at": "2025-07-01T17:17:29.089-04:00", "updated_at": "2025-07-05T08:16:03.395-04:00", "avatar": "https://secure.gravatar.com/avatar/5c9b022c12f19f3215b0266f09f4fac7.jpg?s=512&d=https%3A%2F%2Fa.slack-edge.com%2Fdf10d%2Fimg%2Favatars%2Fava_0009-512.png", "custom_css": null}, {"id": 14092, "slack_id": "U094B82Q6L9", "display_name": "Droneboi", "bio": null, "projects_count": 2, "devlogs_count": 3, "votes_count": 11, "ships_count": 1, "projects": [{"id": 13750, "title": "Lipo charger splitter (+case)", "devlogs_count": 1, "created_at": "2025-09-24T21:25:05.940-04:00"}, {"id": 8480, "title": "3D printed 10\" Drone", "devlogs_count": 2, "created_at": "2025-07-27T12:37:26.733-04:00"}], "coding_time_seconds": 65971, "coding_time_seconds_today": 0, "balance": "You need to have a pocket watcher badge to view this.", "badges": [{"name": "Maiden Voyage", "text": "you shipped your first project! the journey begins...", "icon": "\ud83d\udea2"}], "created_at": "2025-07-01T17:18:07.973-04:00", "updated_at": "2025-09-10T22:58:11.849-04:00", "avatar": "https://secure.gravatar.com/avatar/8f34abbb2fcdc3d97ee4f78b351c337c.jpg?s=512&d=https%3A%2F%2Fa.slack-edge.com%2Fdf10d%2Fimg%2Favatars%2Fava_0026-512.png", "custom_css": null}, {"id": 14093, "slack_id": "U093T6TT3U6", "display_name": "Aman janwani", "bio": null, "projects_count": 0, "devlogs_count": 0, "votes_count": 0, "ships_count": 0, "projects": [], "coding_time_seconds": 4194, "coding_time_seconds_today": 0, "balance": "You need to have a pocket watcher badge to view this.", "badges": [], "created_at": "2025-07-01T17:19:19.783-04:00", "updated_at": "2025-07-07T12:00:27.471-04:00", "avatar": "https://avatars.slack-edge.com/2025-07-01/9135719597380_07f0f27e8fabec433ee0_original.jpg", "custom_css": null}, {"id": 14094, "slack_id": "U093YDNK010", "display_name": "Abigail", "bio": null, "projects_count": 0, "devlogs_count": 0, "votes_count": 0, "ships_count": 0, "projects": [], "coding_time_seconds": 0, "coding_time_seconds_today": 0, "balance": "You need to have a pocket watcher badge to view this.", "badges": [], "created_at": "2025-07-01T17:19:53.244-04:00", "updated_at": "2025-07-03T20:10:15.701-04:00", "avatar": "https://secure.gravatar.com/avatar/bab5c50422206555b793a9eed315add5.jpg?s=512&d=https%3A%2F%2Fa.slack-edge.com%2Fdf10d%2Fimg%2Favatars%2Fava_0005-512.png", "custom_css": null}, {"id": 14095, "slack_id": "U094L1WNBC0", "display_name": "Sharqawy Wael", "bio": null, "projects_count": 0, "devlogs_count": 0, "votes_count": 0, "ships_count": 0, "projects": [], "coding_time_seconds": 0, "coding_time_seconds_today": 0, "balance": "You need to have a pocket watcher badge to view this.", "badges": [], "created_at": "2025-07-01T17:28:19.407-04:00", "updated_at": "2025-07-03T20:10:15.959-04:00", "avatar": "https://avatars.slack-edge.com/2025-07-01/9120403847239_07b408a799283400c867_original.png", "custom_css": null}, {"id": 14096, "slack_id": "U08MTMQ6R42", "display_name": "Suhana Chand", "bio": null, "projects_count": 0, "devlogs_count": 0, "votes_count": 0, "ships_count": 0, "projects": [], "coding_time_seconds": 70125, "coding_time_seconds_today": 0, "balance": "You need to have a pocket watcher badge to view this.", "badges": [], "created_at": "2025-07-01T17:58:17.770-04:00", "updated_at": "2025-08-31T19:08:50.928-04:00", "avatar": "https://secure.gravatar.com/avatar/a627c49eae9272d0ccf0f41d2696dd36.jpg?s=512&d=https%3A%2F%2Fa.slack-edge.com%2Fdf10d%2Fimg%2Favatars%2Fava_0016-512.png", "custom_css": null}, {"id": 14097, "slack_id": "U093JEEDTNK", "display_name": "kavin", "bio": null, "projects_count": 0, "devlogs_count": 0, "votes_count": 0, "ships_count": 0, "projects": [], "coding_time_seconds": 0, "coding_time_seconds_today": 0, "balance": "You need to have a pocket watcher badge to view this.", "badges": [], "created_at": "2025-07-01T18:00:08.472-04:00", "updated_at": "2025-07-03T20:10:16.490-04:00", "avatar": "https://secure.gravatar.com/avatar/558e7fb4e4130bebbe5efc1065e128df.jpg?s=512&d=https%3A%2F%2Fa.slack-edge.com%2Fdf10d%2Fimg%2Favatars%2Fava_0021-512.png", "custom_css": null}, {"id": 14098, "slack_id": "U082SM5PRA4", "display_name": "andre", "bio": null, "projects_count": 0, "devlogs_count": 0, "votes_count": 0, "ships_count": 0, "projects": [], "coding_time_seconds": 0, "coding_time_seconds_today": 0, "balance": "You need to have a pocket watcher badge to view this.", "badges": [], "created_at": "2025-07-01T18:03:05.225-04:00", "updated_at": "2025-07-03T20:10:16.753-04:00", "avatar": "https://avatars.slack-edge.com/2024-11-26/8088602397490_c0ed14533e134823cae5_original.png", "custom_css": null}, {"id": 14099, "slack_id": "U091MTDFM6Z", "display_name": "Vismay", "bio": null, "projects_count": 0, "devlogs_count": 0, "votes_count": 0, "ships_count": 0, "projects": [], "coding_time_seconds": 0, "coding_time_seconds_today": 0, "balance": "You need to have a pocket watcher badge to view this.", "badges": [], "created_at": "2025-07-01T18:06:53.171-04:00", "updated_at": "2025-07-03T20:10:17.019-04:00", "avatar": "https://secure.gravatar.com/avatar/8685712e0724e02aa489b35bc7ed9ebc.jpg?s=512&d=https%3A%2F%2Fa.slack-edge.com%2Fdf10d%2Fimg%2Favatars%2Fava_0012-512.png", "custom_css": null}, {"id": 14100, "slack_id": "U07DBP6UM2P", "display_name": "elpython3 7", "bio": null, "projects_count": 0, "devlogs_count": 0, "votes_count": 0, "ships_count": 0, "projects": [], "coding_time_seconds": 4130, "coding_time_seconds_today": 0, "balance": "You need to have a pocket watcher badge to view this.", "badges": [], "created_at": "2025-07-01T18:11:51.943-04:00", "updated_at": "2025-07-03T20:10:17.350-04:00", "avatar": "https://avatars.slack-edge.com/2024-07-22/7461730013107_5e68d15ac6d7d63d4f8e_original.png", "custom_css": null}], "pagination": {"page": 705, "pages": 1192, "count": 23828, "items": 20}}