{"users": [{"id": 14101, "slack_id": "U093WLFNZS9", "display_name": "Patty Mejia", "bio": null, "projects_count": 0, "devlogs_count": 0, "votes_count": 0, "ships_count": 0, "projects": [], "coding_time_seconds": 0, "coding_time_seconds_today": 0, "balance": "You need to have a pocket watcher badge to view this.", "badges": [], "created_at": "2025-07-01T18:20:05.548-04:00", "updated_at": "2025-07-03T20:10:17.609-04:00", "avatar": "https://avatars.slack-edge.com/2025-07-01/9132715508613_829189bc3403333c12e3_original.jpg", "custom_css": null}, {"id": 14102, "slack_id": "U093ZD1D3G9", "display_name": "kronyx", "bio": null, "projects_count": 0, "devlogs_count": 0, "votes_count": 0, "ships_count": 0, "projects": [], "coding_time_seconds": 0, "coding_time_seconds_today": 0, "balance": "You need to have a pocket watcher badge to view this.", "badges": [], "created_at": "2025-07-01T18:41:40.113-04:00", "updated_at": "2025-07-07T08:55:35.159-04:00", "avatar": "https://avatars.slack-edge.com/2025-07-02/9136013797876_0ebb02bd283d78a5c209_original.png", "custom_css": null}, {"id": 14103, "slack_id": "U07DNTN46AH", "display_name": "Andrew Liu", "bio": null, "projects_count": 2, "devlogs_count": 8, "votes_count": 13, "ships_count": 1, "projects": [{"id": 6222, "title": "Wordle Solver", "devlogs_count": 2, "created_at": "2025-07-11T12:30:55.303-04:00"}, {"id": 4840, "title": "Andrew's Travel Blog", "devlogs_count": 6, "created_at": "2025-07-01T20:48:34.097-04:00"}], "coding_time_seconds": 182454, "coding_time_seconds_today": 0, "balance": "You need to have a pocket watcher badge to view this.", "badges": [{"name": "Maiden Voyage", "text": "you shipped your first project! the journey begins...", "icon": "\ud83d\udea2"}], "created_at": "2025-07-01T18:47:03.137-04:00", "updated_at": "2025-09-10T22:58:12.136-04:00", "avatar": "https://avatars.slack-edge.com/2024-07-23/7461210993254_f3336a56cbf8d7870e4d_original.png", "custom_css": null}, {"id": 14104, "slack_id": "U093WPFNNN9", "display_name": "Ali Arabi", "bio": null, "projects_count": 0, "devlogs_count": 0, "votes_count": 0, "ships_count": 0, "projects": [], "coding_time_seconds": 0, "coding_time_seconds_today": 0, "balance": "You need to have a pocket watcher badge to view this.", "badges": [], "created_at": "2025-07-01T18:53:16.637-04:00", "updated_at": "2025-07-04T02:34:28.074-04:00", "avatar": "https://avatars.slack-edge.com/2025-07-01/9147603325169_b1c52e5154dbcf2b3bb5_original.jpg", "custom_css": null}, {"id": 14105, "slack_id": "U094BJDEWP3", "display_name": "Sloane Marciniak Velazco", "bio": null, "projects_count": 0, "devlogs_count": 0, "votes_count": 0, "ships_count": 0, "projects": [], "coding_time_seconds": 0, "coding_time_seconds_today": 0, "balance": "You need to have a pocket watcher badge to view this.", "badges": [], "created_at": "2025-07-01T19:02:34.584-04:00", "updated_at": "2025-07-03T20:10:18.525-04:00", "avatar": "https://avatars.slack-edge.com/2025-07-01/9120716821271_e93a08024249f046c8ba_original.jpg", "custom_css": null}, {"id": 14106, "slack_id": "U08QE3XPM7F", "display_name": "mpt", "bio": null, "projects_count": 0, "devlogs_count": 0, "votes_count": 0, "ships_count": 0, "projects": [], "coding_time_seconds": 0, "coding_time_seconds_today": 0, "balance": "You need to have a pocket watcher badge to view this.", "badges": [], "created_at": "2025-07-01T19:17:55.858-04:00", "updated_at": "2025-07-04T20:15:02.684-04:00", "avatar": "https://secure.gravatar.com/avatar/51184ab89fda57857f81fdc92be0ca71.jpg?s=512&d=https%3A%2F%2Fa.slack-edge.com%2Fdf10d%2Fimg%2Favatars%2Fava_0003-512.png", "custom_css": null}, {"id": 14107, "slack_id": "U09402VQVFE", "display_name": "Bill", "bio": null, "projects_count": 0, "devlogs_count": 0, "votes_count": 0, "ships_count": 0, "projects": [], "coding_time_seconds": 0, "coding_time_seconds_today": 0, "balance": "You need to have a pocket watcher badge to view this.", "badges": [], "created_at": "2025-07-01T19:19:42.078-04:00", "updated_at": "2025-07-18T00:49:14.528-04:00", "avatar": "https://secure.gravatar.com/avatar/f9434d6db298c03994979616738f40a0.jpg?s=512&d=https%3A%2F%2Fa.slack-edge.com%2Fdf10d%2Fimg%2Favatars%2Fava_0019-512.png", "custom_css": null}, {"id": 14108, "slack_id": "U094BLGPGP3", "display_name": "Marnes Cassule", "bio": null, "projects_count": 0, "devlogs_count": 0, "votes_count": 0, "ships_count": 0, "projects": [], "coding_time_seconds": 0, "coding_time_seconds_today": 0, "balance": "You need to have a pocket watcher badge to view this.", "badges": [], "created_at": "2025-07-01T19:29:31.481-04:00", "updated_at": "2025-07-03T20:10:19.178-04:00", "avatar": "https://avatars.slack-edge.com/2025-07-01/9134891090994_d35e019bd2d20b13c96c_original.jpg", "custom_css": null}, {"id": 14109, "slack_id": "U093JPM9FAB", "display_name": "Nemuemu", "bio": null, "projects_count": 0, "devlogs_count": 0, "votes_count": 0, "ships_count": 0, "projects": [], "coding_time_seconds": 42244, "coding_time_seconds_today": 0, "balance": "You need to have a pocket watcher badge to view this.", "badges": [], "created_at": "2025-07-01T19:35:16.184-04:00", "updated_at": "2025-07-23T11:35:01.914-04:00", "avatar": "https://secure.gravatar.com/avatar/ff03a4cabeeb3e0ca8733dbeccd5716d.jpg?s=512&d=https%3A%2F%2Fa.slack-edge.com%2Fdf10d%2Fimg%2Favatars%2Fava_0024-512.png", "custom_css": null}, {"id": 14110, "slack_id": "U07BXNY5HQA", "display_name": "Akshat", "bio": null, "projects_count": 0, "devlogs_count": 0, "votes_count": 9, "ships_count": 0, "projects": [], "coding_time_seconds": 0, "coding_time_seconds_today": 0, "balance": "You need to have a pocket watcher badge to view this.", "badges": [], "created_at": "2025-07-01T19:39:58.620-04:00", "updated_at": "2025-07-03T20:10:19.705-04:00", "avatar": "https://avatars.slack-edge.com/2024-08-16/7580524903237_6be396354e2025f8a321_original.png", "custom_css": null}, {"id": 14111, "slack_id": "U093TMSCMJS", "display_name": "Vaness Kyeremeh", "bio": null, "projects_count": 0, "devlogs_count": 0, "votes_count": 0, "ships_count": 0, "projects": [], "coding_time_seconds": 0, "coding_time_seconds_today": 0, "balance": "You need to have a pocket watcher badge to view this.", "badges": [], "created_at": "2025-07-01T19:48:36.108-04:00", "updated_at": "2025-07-03T20:10:19.986-04:00", "avatar": "https://avatars.slack-edge.com/2025-07-01/9132970374965_e8d7feaece14b33c06a2_original.jpg", "custom_css": null}, {"id": 14112, "slack_id": "U074R56PAHH", "display_name": "Neil Dembla", "bio": null, "projects_count": 2, "devlogs_count": 2, "votes_count": 1, "ships_count": 1, "projects": [{"id": 5050, "title": "Met Maestro", "devlogs_count": 1, "created_at": "2025-07-02T23:11:09.312-04:00"}, {"id": 5052, "title": "The Movie Browser", "devlogs_count": 1, "created_at": "2025-07-02T23:17:30.874-04:00"}], "coding_time_seconds": 148314, "coding_time_seconds_today": 0, "balance": "You need to have a pocket watcher badge to view this.", "badges": [{"name": "Maiden Voyage", "text": "you shipped your first project! the journey begins...", "icon": "\ud83d\udea2"}], "created_at": "2025-07-01T20:03:19.436-04:00", "updated_at": "2025-09-10T22:58:12.378-04:00", "avatar": "https://avatars.slack-edge.com/2024-05-23/7158426782357_887e326cc04ae3451fd8_original.png", "custom_css": null}, {"id": 14113, "slack_id": "U093X0CP4F7", "display_name": "Shaneel", "bio": null, "projects_count": 1, "devlogs_count": 1, "votes_count": 0, "ships_count": 0, "projects": [{"id": 5211, "title": "skyID", "devlogs_count": 1, "created_at": "2025-07-03T19:26:29.455-04:00"}], "coding_time_seconds": 12638, "coding_time_seconds_today": 0, "balance": "You need to have a pocket watcher badge to view this.", "badges": [], "created_at": "2025-07-01T20:04:52.054-04:00", "updated_at": "2025-07-04T02:34:28.759-04:00", "avatar": "https://avatars.slack-edge.com/2025-07-01/9135215475682_bc8169828ffb8c714873_original.png", "custom_css": null}, {"id": 14114, "slack_id": "U093Z0JBN1G", "display_name": "King", "bio": "", "projects_count": 1, "devlogs_count": 1, "votes_count": 0, "ships_count": 1, "projects": [{"id": 8353, "title": "learn java", "devlogs_count": 1, "created_at": "2025-07-26T11:59:21.723-04:00"}], "coding_time_seconds": 78166, "coding_time_seconds_today": 0, "balance": "You need to have a pocket watcher badge to view this.", "badges": [{"name": "Maiden Voyage", "text": "you shipped your first project! the journey begins...", "icon": "\ud83d\udea2"}], "created_at": "2025-07-01T20:15:59.415-04:00", "updated_at": "2025-09-10T22:58:12.436-04:00", "avatar": "https://secure.gravatar.com/avatar/25fbbff7d361e2a6d8aa8b397f2e3a1f.jpg?s=512&d=https%3A%2F%2Fa.slack-edge.com%2Fdf10d%2Fimg%2Favatars%2Fava_0014-512.png", "custom_css": null}, {"id": 14115, "slack_id": "U093JTVC1AB", "display_name": "akira tusan", "bio": null, "projects_count": 0, "devlogs_count": 0, "votes_count": 0, "ships_count": 0, "projects": [], "coding_time_seconds": 0, "coding_time_seconds_today": 0, "balance": "You need to have a pocket watcher badge to view this.", "badges": [], "created_at": "2025-07-01T20:22:33.420-04:00", "updated_at": "2025-07-03T20:10:20.783-04:00", "avatar": "https://secure.gravatar.com/avatar/d94a295fbfe092d99e698707d2d80a76.jpg?s=512&d=https%3A%2F%2Fa.slack-edge.com%2Fdf10d%2Fimg%2Favatars%2Fava_0004-512.png", "custom_css": null}, {"id": 14116, "slack_id": "U093RKAV343", "display_name": "Adarsh", "bio": null, "projects_count": 1, "devlogs_count": 0, "votes_count": 0, "ships_count": 0, "projects": [{"id": 9920, "title": "Updating Java Applets to the modern world", "devlogs_count": 0, "created_at": "2025-08-02T22:58:35.366-04:00"}], "coding_time_seconds": 79618, "coding_time_seconds_today": 0, "balance": "You need to have a pocket watcher badge to view this.", "badges": [], "created_at": "2025-07-01T20:46:18.794-04:00", "updated_at": "2025-08-09T23:54:55.583-04:00", "avatar": "https://avatars.slack-edge.com/2025-07-17/9216441667220_c4df3be6bc889381b6ab_original.png", "custom_css": null}, {"id": 14117, "slack_id": "U094LTKP0G0", "display_name": "Vikrant Balyan", "bio": null, "projects_count": 0, "devlogs_count": 0, "votes_count": 0, "ships_count": 0, "projects": [], "coding_time_seconds": 0, "coding_time_seconds_today": 0, "balance": "You need to have a pocket watcher badge to view this.", "badges": [], "created_at": "2025-07-01T20:49:36.582-04:00", "updated_at": "2025-07-03T22:05:15.535-04:00", "avatar": "https://secure.gravatar.com/avatar/c5e9d4a8a761935053711f9433d3a70e.jpg?s=512&d=https%3A%2F%2Fa.slack-edge.com%2Fdf10d%2Fimg%2Favatars%2Fava_0003-512.png", "custom_css": null}, {"id": 14118, "slack_id": "U093TU1CEVC", "display_name": "Prathamesh Parnerkar", "bio": null, "projects_count": 0, "devlogs_count": 0, "votes_count": 0, "ships_count": 0, "projects": [], "coding_time_seconds": 2635, "coding_time_seconds_today": 0, "balance": "You need to have a pocket watcher badge to view this.", "badges": [], "created_at": "2025-07-01T20:54:18.664-04:00", "updated_at": "2025-07-23T14:08:42.523-04:00", "avatar": "https://avatars.slack-edge.com/2025-07-01/9121057461783_9759c2daaba5a8297523_original.png", "custom_css": null}, {"id": 14119, "slack_id": "U0827F7C7N0", "display_name": "Max Saraf", "bio": null, "projects_count": 1, "devlogs_count": 3, "votes_count": 8, "ships_count": 1, "projects": [{"id": 4843, "title": "Seaborn and Pandas Data Analysis (for a summer course)", "devlogs_count": 3, "created_at": "2025-07-01T21:18:21.253-04:00"}], "coding_time_seconds": 41692, "coding_time_seconds_today": 0, "balance": "You need to have a pocket watcher badge to view this.", "badges": [{"name": "Maiden Voyage", "text": "you shipped your first project! the journey begins...", "icon": "\ud83d\udea2"}], "created_at": "2025-07-01T20:55:59.257-04:00", "updated_at": "2025-09-10T22:58:12.643-04:00", "avatar": "https://secure.gravatar.com/avatar/2ad46096af6f312209fecebac04b16b1.jpg?s=512&d=https%3A%2F%2Fa.slack-edge.com%2Fdf10d%2Fimg%2Favatars%2Fava_0002-512.png", "custom_css": null}, {"id": 14120, "slack_id": "U081ZBRBJ30", "display_name": "k_lub", "bio": null, "projects_count": 0, "devlogs_count": 0, "votes_count": 0, "ships_count": 0, "projects": [], "coding_time_seconds": 0, "coding_time_seconds_today": 0, "balance": "You need to have a pocket watcher badge to view this.", "badges": [], "created_at": "2025-07-01T20:59:07.134-04:00", "updated_at": "2025-07-04T02:34:29.672-04:00", "avatar": "https://avatars.slack-edge.com/2025-05-14/8884184745063_2fde739bf24f3d1abc08_original.png", "custom_css": null}], "pagination": {"page": 706, "pages": 1192, "count": 23828, "items": 20}}