{"users": [{"id": 14121, "slack_id": "U094LV6B9S4", "display_name": "Dolfee", "bio": null, "projects_count": 0, "devlogs_count": 0, "votes_count": 0, "ships_count": 0, "projects": [], "coding_time_seconds": 166343, "coding_time_seconds_today": 1304, "balance": "You need to have a pocket watcher badge to view this.", "badges": [], "created_at": "2025-07-01T21:04:03.541-04:00", "updated_at": "2025-07-03T20:10:21.998-04:00", "avatar": "https://secure.gravatar.com/avatar/03e533e2ee8068e35dd2af91abb66683.jpg?s=512&d=https%3A%2F%2Fa.slack-edge.com%2Fdf10d%2Fimg%2Favatars%2Fava_0002-512.png", "custom_css": null}, {"id": 14122, "slack_id": "U091NAJSCMP", "display_name": "ar_soft", "bio": null, "projects_count": 0, "devlogs_count": 0, "votes_count": 0, "ships_count": 0, "projects": [], "coding_time_seconds": 2156, "coding_time_seconds_today": 0, "balance": "You need to have a pocket watcher badge to view this.", "badges": [], "created_at": "2025-07-01T21:04:26.761-04:00", "updated_at": "2025-07-03T20:10:22.270-04:00", "avatar": "https://secure.gravatar.com/avatar/8970c291eaea823756afe23cafa3b918.jpg?s=512&d=https%3A%2F%2Fa.slack-edge.com%2Fdf10d%2Fimg%2Favatars%2Fava_0013-512.png", "custom_css": null}, {"id": 14123, "slack_id": "U081WE47D08", "display_name": "naitique", "bio": null, "projects_count": 0, "devlogs_count": 0, "votes_count": 1, "ships_count": 0, "projects": [], "coding_time_seconds": 0, "coding_time_seconds_today": 0, "balance": "You need to have a pocket watcher badge to view this.", "badges": [], "created_at": "2025-07-01T21:19:11.961-04:00", "updated_at": "2025-07-04T08:30:48.386-04:00", "avatar": "https://avatars.slack-edge.com/2024-11-17/8041612461539_fea0114b553b5d1a2e64_original.png", "custom_css": null}, {"id": 14124, "slack_id": "U093RNVSR9R", "display_name": "kurshid", "bio": null, "projects_count": 0, "devlogs_count": 0, "votes_count": 0, "ships_count": 0, "projects": [], "coding_time_seconds": 0, "coding_time_seconds_today": 0, "balance": "You need to have a pocket watcher badge to view this.", "badges": [], "created_at": "2025-07-01T21:24:22.010-04:00", "updated_at": "2025-07-03T20:10:22.674-04:00", "avatar": "https://secure.gravatar.com/avatar/97b73dbd72dfa5bfe6a1b5c7fb68da3e.jpg?s=512&d=https%3A%2F%2Fa.slack-edge.com%2Fdf10d%2Fimg%2Favatars%2Fava_0025-512.png", "custom_css": null}, {"id": 14125, "slack_id": "U093U1MM8H4", "display_name": "Hung-Chi Wang", "bio": null, "projects_count": 1, "devlogs_count": 1, "votes_count": 0, "ships_count": 0, "projects": [{"id": 10420, "title": "Project Idea Generation", "devlogs_count": 1, "created_at": "2025-08-06T21:17:01.602-04:00"}], "coding_time_seconds": 255268, "coding_time_seconds_today": 0, "balance": "You need to have a pocket watcher badge to view this.", "badges": [], "created_at": "2025-07-01T21:26:18.838-04:00", "updated_at": "2025-08-06T21:14:26.964-04:00", "avatar": "https://avatars.slack-edge.com/2025-07-01/9157068578752_0459174f9e6efff0b989_original.png", "custom_css": null}, {"id": 14126, "slack_id": "U091ZF2L8CT", "display_name": "Shreya Shetty", "bio": null, "projects_count": 0, "devlogs_count": 0, "votes_count": 0, "ships_count": 0, "projects": [], "coding_time_seconds": 0, "coding_time_seconds_today": 0, "balance": "You need to have a pocket watcher badge to view this.", "badges": [], "created_at": "2025-07-01T21:34:51.514-04:00", "updated_at": "2025-07-04T08:30:48.609-04:00", "avatar": "https://avatars.slack-edge.com/2025-07-01/9121190729271_41074cc730438f5e0288_original.png", "custom_css": null}, {"id": 14127, "slack_id": "U08JYS4P3BM", "display_name": "Kristian", "bio": null, "projects_count": 0, "devlogs_count": 0, "votes_count": 0, "ships_count": 0, "projects": [], "coding_time_seconds": 32579, "coding_time_seconds_today": 683, "balance": "You need to have a pocket watcher badge to view this.", "badges": [], "created_at": "2025-07-01T21:47:20.107-04:00", "updated_at": "2025-07-03T20:10:23.342-04:00", "avatar": "https://avatars.slack-edge.com/2025-03-24/8640755608390_a91f3132730119687a39_original.jpg", "custom_css": null}, {"id": 14128, "slack_id": "U08A7NEAV3P", "display_name": "Joel Mathews", "bio": null, "projects_count": 0, "devlogs_count": 0, "votes_count": 0, "ships_count": 0, "projects": [], "coding_time_seconds": 0, "coding_time_seconds_today": 0, "balance": "You need to have a pocket watcher badge to view this.", "badges": [], "created_at": "2025-07-01T21:55:26.974-04:00", "updated_at": "2025-07-03T20:10:23.613-04:00", "avatar": "https://avatars.slack-edge.com/2025-06-04/8987579395879_4878179729c9cca31850_original.png", "custom_css": null}, {"id": 14129, "slack_id": "U093ZA39CJE", "display_name": "Shobhika", "bio": null, "projects_count": 0, "devlogs_count": 0, "votes_count": 0, "ships_count": 0, "projects": [], "coding_time_seconds": 0, "coding_time_seconds_today": 0, "balance": "You need to have a pocket watcher badge to view this.", "badges": [], "created_at": "2025-07-01T22:00:25.040-04:00", "updated_at": "2025-07-03T20:10:23.883-04:00", "avatar": "https://secure.gravatar.com/avatar/2400852a16a7348c23dcfbf877d82db7.jpg?s=512&d=https%3A%2F%2Fa.slack-edge.com%2Fdf10d%2Fimg%2Favatars%2Fava_0026-512.png", "custom_css": null}, {"id": 14130, "slack_id": "U093CDYMC2K", "display_name": "boop", "bio": null, "projects_count": 0, "devlogs_count": 0, "votes_count": 0, "ships_count": 0, "projects": [], "coding_time_seconds": 0, "coding_time_seconds_today": 0, "balance": "You need to have a pocket watcher badge to view this.", "badges": [], "created_at": "2025-07-01T22:12:52.481-04:00", "updated_at": "2025-08-20T04:30:05.703-04:00", "avatar": "https://secure.gravatar.com/avatar/1b62ec7400fea0daf5e13d1568b3dc25.jpg?s=512&d=https%3A%2F%2Fa.slack-edge.com%2Fdf10d%2Fimg%2Favatars%2Fava_0003-512.png", "custom_css": null}, {"id": 14131, "slack_id": "U093XCYKY8M", "display_name": "Prasun Sharma", "bio": null, "projects_count": 1, "devlogs_count": 3, "votes_count": 7, "ships_count": 1, "projects": [{"id": 7099, "title": "Royal Theater - movie booking system", "devlogs_count": 3, "created_at": "2025-07-19T01:16:45.468-04:00"}], "coding_time_seconds": 185436, "coding_time_seconds_today": 0, "balance": "You need to have a pocket watcher badge to view this.", "badges": [{"name": "Maiden Voyage", "text": "you shipped your first project! the journey begins...", "icon": "\ud83d\udea2"}], "created_at": "2025-07-01T22:18:52.016-04:00", "updated_at": "2025-09-10T22:58:12.979-04:00", "avatar": "https://avatars.slack-edge.com/2025-07-01/9135410078818_d92f1049b99eee5426a0_original.png", "custom_css": null}, {"id": 14132, "slack_id": "U094M6JAG2U", "display_name": "abhijith", "bio": null, "projects_count": 0, "devlogs_count": 0, "votes_count": 0, "ships_count": 0, "projects": [], "coding_time_seconds": 0, "coding_time_seconds_today": 0, "balance": "You need to have a pocket watcher badge to view this.", "badges": [], "created_at": "2025-07-01T22:19:03.337-04:00", "updated_at": "2025-07-03T20:10:24.660-04:00", "avatar": "https://secure.gravatar.com/avatar/eb60b79cff542222e1cfebe879411fea.jpg?s=512&d=https%3A%2F%2Fa.slack-edge.com%2Fdf10d%2Fimg%2Favatars%2Fava_0020-512.png", "custom_css": null}, {"id": 14133, "slack_id": "U093ZBTNMBL", "display_name": "sife", "bio": null, "projects_count": 0, "devlogs_count": 0, "votes_count": 0, "ships_count": 0, "projects": [], "coding_time_seconds": 0, "coding_time_seconds_today": 0, "balance": "You need to have a pocket watcher badge to view this.", "badges": [], "created_at": "2025-07-01T22:19:27.738-04:00", "updated_at": "2025-07-03T20:10:24.934-04:00", "avatar": "https://avatars.slack-edge.com/2025-07-01/9148222126737_fa48b6cb30d6dbf23481_original.png", "custom_css": null}, {"id": 14134, "slack_id": "U094C716BFB", "display_name": "Triumph Agbeko", "bio": null, "projects_count": 0, "devlogs_count": 0, "votes_count": 0, "ships_count": 0, "projects": [], "coding_time_seconds": 0, "coding_time_seconds_today": 0, "balance": "You need to have a pocket watcher badge to view this.", "badges": [], "created_at": "2025-07-01T22:31:50.303-04:00", "updated_at": "2025-07-03T20:10:25.195-04:00", "avatar": "https://secure.gravatar.com/avatar/dbb3fb708240ca9b54da0abefeab1ec1.jpg?s=512&d=https%3A%2F%2Fa.slack-edge.com%2Fdf10d%2Fimg%2Favatars%2Fava_0007-512.png", "custom_css": null}, {"id": 14135, "slack_id": "U093KB6GLLX", "display_name": "Anas", "bio": null, "projects_count": 0, "devlogs_count": 0, "votes_count": 0, "ships_count": 0, "projects": [], "coding_time_seconds": 0, "coding_time_seconds_today": 0, "balance": "You need to have a pocket watcher badge to view this.", "badges": [], "created_at": "2025-07-01T22:41:02.214-04:00", "updated_at": "2025-07-03T20:10:25.455-04:00", "avatar": "https://avatars.slack-edge.com/2025-07-01/9128020245507_6418b790709a4b1f2c67_original.png", "custom_css": null}, {"id": 14136, "slack_id": "U093U8QSYMU", "display_name": "Pushpaje Kumar (SP)", "bio": null, "projects_count": 0, "devlogs_count": 0, "votes_count": 0, "ships_count": 0, "projects": [], "coding_time_seconds": 0, "coding_time_seconds_today": 0, "balance": "You need to have a pocket watcher badge to view this.", "badges": [], "created_at": "2025-07-01T22:43:19.056-04:00", "updated_at": "2025-07-06T14:15:22.671-04:00", "avatar": "https://avatars.slack-edge.com/2025-07-01/9136777246372_eb9e00902fd4d2e6dabe_original.jpg", "custom_css": null}, {"id": 14137, "slack_id": "U094M9MUWHE", "display_name": "Jacobo Sandoval P\u00e9rez", "bio": null, "projects_count": 3, "devlogs_count": 7, "votes_count": 41, "ships_count": 2, "projects": [{"id": 5027, "title": "Ultradexbot-Your interactive poke-companion on Discord", "devlogs_count": 3, "created_at": "2025-07-02T19:34:10.511-04:00"}, {"id": 11901, "title": "Portfolio", "devlogs_count": 1, "created_at": "2025-08-20T22:29:48.643-04:00"}, {"id": 5371, "title": "Oreo Saurus Website", "devlogs_count": 3, "created_at": "2025-07-04T21:02:25.923-04:00"}], "coding_time_seconds": 19093, "coding_time_seconds_today": 0, "balance": "You need to have a pocket watcher badge to view this.", "badges": [{"name": "Maiden Voyage", "text": "you shipped your first project! the journey begins...", "icon": "\ud83d\udea2"}], "created_at": "2025-07-01T22:56:16.664-04:00", "updated_at": "2025-09-10T22:58:13.160-04:00", "avatar": "https://secure.gravatar.com/avatar/72974a6bb090c15db9dbe5c18e87fc48.jpg?s=512&d=https%3A%2F%2Fa.slack-edge.com%2Fdf10d%2Fimg%2Favatars%2Fava_0008-512.png", "custom_css": null}, {"id": 14138, "slack_id": "U0940NC7ZSQ", "display_name": "Melisek", "bio": null, "projects_count": 0, "devlogs_count": 0, "votes_count": 0, "ships_count": 0, "projects": [], "coding_time_seconds": 0, "coding_time_seconds_today": 0, "balance": "You need to have a pocket watcher badge to view this.", "badges": [], "created_at": "2025-07-01T22:59:36.309-04:00", "updated_at": "2025-07-03T20:10:26.002-04:00", "avatar": "https://secure.gravatar.com/avatar/392545b9bf6b5594a4b3f0da00cd4821.jpg?s=512&d=https%3A%2F%2Fa.slack-edge.com%2Fdf10d%2Fimg%2Favatars%2Fava_0018-512.png", "custom_css": null}, {"id": 14139, "slack_id": "U0940PU7DT6", "display_name": "yousef", "bio": "yousef\ud83d\udc23\r\ncool man \r\nlove sprots doing task and CODING \r\n", "projects_count": 0, "devlogs_count": 11, "votes_count": 61, "ships_count": 0, "projects": [], "coding_time_seconds": 993653, "coding_time_seconds_today": 0, "balance": "You need to have a pocket watcher badge to view this.", "badges": [{"name": "Maiden Voyage", "text": "you shipped your first project! the journey begins...", "icon": "\ud83d\udea2"}], "created_at": "2025-07-01T23:07:47.583-04:00", "updated_at": "2025-09-10T22:58:13.241-04:00", "avatar": "https://avatars.slack-edge.com/2025-07-04/9147083929090_d161e070a09f71c9a5f2_original.jpg", "custom_css": null}, {"id": 14140, "slack_id": "U07PUQ9269X", "display_name": "Romit Das", "bio": null, "projects_count": 0, "devlogs_count": 0, "votes_count": 0, "ships_count": 0, "projects": [], "coding_time_seconds": 0, "coding_time_seconds_today": 0, "balance": "You need to have a pocket watcher badge to view this.", "badges": [], "created_at": "2025-07-01T23:19:38.362-04:00", "updated_at": "2025-09-01T12:34:00.452-04:00", "avatar": "https://secure.gravatar.com/avatar/93c4e2c37898c41141db3062122f9f66.jpg?s=512&d=https%3A%2F%2Fa.slack-edge.com%2Fdf10d%2Fimg%2Favatars%2Fava_0006-512.png", "custom_css": null}], "pagination": {"page": 707, "pages": 1192, "count": 23828, "items": 20}}