{"users": [{"id": 14141, "slack_id": "U094MBXR65N", "display_name": "Nyan Lin Ko", "bio": null, "projects_count": 7, "devlogs_count": 4, "votes_count": 11, "ships_count": 3, "projects": [{"id": 8549, "title": "Song Mood Classifier", "devlogs_count": 1, "created_at": "2025-07-28T05:40:26.622-04:00"}, {"id": 8292, "title": "Portfolio Maker", "devlogs_count": 1, "created_at": "2025-07-26T02:35:19.914-04:00"}, {"id": 8453, "title": "TimeGlobe: A 3D History of the World", "devlogs_count": 0, "created_at": "2025-07-27T09:40:59.296-04:00"}, {"id": 8546, "title": "Empire Builder", "devlogs_count": 0, "created_at": "2025-07-28T05:37:43.330-04:00"}, {"id": 8797, "title": "Interactive Myanmar", "devlogs_count": 0, "created_at": "2025-07-29T09:55:02.620-04:00"}, {"id": 13272, "title": "Huntr/x Rising", "devlogs_count": 0, "created_at": "2025-09-13T03:02:46.719-04:00"}, {"id": 8796, "title": "Dream Analyzer", "devlogs_count": 1, "created_at": "2025-07-29T09:55:02.066-04:00"}], "coding_time_seconds": 36642, "coding_time_seconds_today": 0, "balance": "You need to have a pocket watcher badge to view this.", "badges": [{"name": "Maiden Voyage", "text": "you shipped your first project! the journey begins...", "icon": "\ud83d\udea2"}], "created_at": "2025-07-01T23:21:01.974-04:00", "updated_at": "2025-09-10T22:58:13.301-04:00", "avatar": "https://secure.gravatar.com/avatar/427bc216b5202e0427b398830948d210.jpg?s=512&d=https%3A%2F%2Fa.slack-edge.com%2Fdf10d%2Fimg%2Favatars%2Fava_0022-512.png", "custom_css": null}, {"id": 14142, "slack_id": "U07FRDXJAD7", "display_name": "Nathan Tung", "bio": null, "projects_count": 1, "devlogs_count": 1, "votes_count": 1, "ships_count": 0, "projects": [{"id": 4853, "title": "Lava", "devlogs_count": 1, "created_at": "2025-07-01T23:34:55.664-04:00"}], "coding_time_seconds": 629008, "coding_time_seconds_today": 6112, "balance": "You need to have a pocket watcher badge to view this.", "badges": [], "created_at": "2025-07-01T23:23:28.077-04:00", "updated_at": "2025-07-03T20:10:26.963-04:00", "avatar": "https://secure.gravatar.com/avatar/fa8dde5c445d71dd5bbbb539de849551.jpg?s=512&d=https%3A%2F%2Fa.slack-edge.com%2Fdf10d%2Fimg%2Favatars%2Fava_0018-512.png", "custom_css": null}, {"id": 14143, "slack_id": "U094CBP8MLH", "display_name": "Abhishek Tiwari", "bio": null, "projects_count": 0, "devlogs_count": 0, "votes_count": 0, "ships_count": 0, "projects": [], "coding_time_seconds": 169562, "coding_time_seconds_today": 0, "balance": "You need to have a pocket watcher badge to view this.", "badges": [], "created_at": "2025-07-01T23:23:37.688-04:00", "updated_at": "2025-07-03T20:10:27.231-04:00", "avatar": "https://avatars.slack-edge.com/2025-07-01/9130427072886_b0ced1d693bb72557e84_original.png", "custom_css": null}, {"id": 14144, "slack_id": "U0940SY8Y3E", "display_name": "Shivani Muthukumar", "bio": null, "projects_count": 0, "devlogs_count": 0, "votes_count": 0, "ships_count": 0, "projects": [], "coding_time_seconds": 0, "coding_time_seconds_today": 0, "balance": "You need to have a pocket watcher badge to view this.", "badges": [], "created_at": "2025-07-01T23:32:05.140-04:00", "updated_at": "2025-07-03T20:10:27.574-04:00", "avatar": "https://avatars.slack-edge.com/2025-07-01/9157448109376_e1bd117c41768914a698_original.png", "custom_css": null}, {"id": 14145, "slack_id": "U0940T4SZEY", "display_name": "Vanessa Mona", "bio": null, "projects_count": 0, "devlogs_count": 0, "votes_count": 0, "ships_count": 0, "projects": [], "coding_time_seconds": 0, "coding_time_seconds_today": 0, "balance": "You need to have a pocket watcher badge to view this.", "badges": [], "created_at": "2025-07-01T23:34:52.108-04:00", "updated_at": "2025-07-06T20:15:52.536-04:00", "avatar": "https://secure.gravatar.com/avatar/91bf5c056303e928c9617b9ce0458088.jpg?s=512&d=https%3A%2F%2Fa.slack-edge.com%2Fdf10d%2Fimg%2Favatars%2Fava_0021-512.png", "custom_css": null}, {"id": 14146, "slack_id": "U08UW6CCY2X", "display_name": "vinay nori", "bio": null, "projects_count": 0, "devlogs_count": 0, "votes_count": 3, "ships_count": 0, "projects": [], "coding_time_seconds": 169698, "coding_time_seconds_today": 0, "balance": "You need to have a pocket watcher badge to view this.", "badges": [], "created_at": "2025-07-01T23:41:21.218-04:00", "updated_at": "2025-08-27T00:09:18.309-04:00", "avatar": "https://secure.gravatar.com/avatar/f739dc80415ab1ece6a1354f4fc58b02.jpg?s=512&d=https%3A%2F%2Fa.slack-edge.com%2Fdf10d%2Fimg%2Favatars%2Fava_0026-512.png", "custom_css": null}, {"id": 14147, "slack_id": "U093XMZ8Q2H", "display_name": "Oliver C", "bio": null, "projects_count": 0, "devlogs_count": 0, "votes_count": 0, "ships_count": 0, "projects": [], "coding_time_seconds": 0, "coding_time_seconds_today": 0, "balance": "You need to have a pocket watcher badge to view this.", "badges": [], "created_at": "2025-07-02T00:04:42.659-04:00", "updated_at": "2025-07-04T02:34:31.558-04:00", "avatar": "https://avatars.slack-edge.com/2025-07-01/9135714842930_dadc521f2ffeb19b01b3_original.png", "custom_css": null}, {"id": 14148, "slack_id": "U09410C2WAG", "display_name": "Muhammad Ammar", "bio": null, "projects_count": 0, "devlogs_count": 0, "votes_count": 0, "ships_count": 0, "projects": [], "coding_time_seconds": 41499, "coding_time_seconds_today": 0, "balance": "You need to have a pocket watcher badge to view this.", "badges": [], "created_at": "2025-07-02T00:05:42.387-04:00", "updated_at": "2025-07-03T20:10:28.376-04:00", "avatar": "https://avatars.slack-edge.com/2025-07-02/9128301497235_b4284b5b8686bcb551c2_original.jpg", "custom_css": null}, {"id": 14149, "slack_id": "U093ZMVBC4A", "display_name": "Safeer Hassan", "bio": "just developing some cool stuff:)", "projects_count": 0, "devlogs_count": 14, "votes_count": 40, "ships_count": 0, "projects": [], "coding_time_seconds": 145661, "coding_time_seconds_today": 0, "balance": "You need to have a pocket watcher badge to view this.", "badges": [{"name": "Maiden Voyage", "text": "you shipped your first project! the journey begins...", "icon": "\ud83d\udea2"}], "created_at": "2025-07-02T00:20:19.990-04:00", "updated_at": "2025-09-10T22:58:13.491-04:00", "avatar": "https://avatars.slack-edge.com/2025-08-03/9281318319383_f93dd49ab74b3a84a759_original.png", "custom_css": null}, {"id": 14150, "slack_id": "U0743GQBHR9", "display_name": "Pavi Kalra", "bio": null, "projects_count": 0, "devlogs_count": 0, "votes_count": 0, "ships_count": 0, "projects": [], "coding_time_seconds": 0, "coding_time_seconds_today": 0, "balance": "You need to have a pocket watcher badge to view this.", "badges": [], "created_at": "2025-07-02T00:28:05.465-04:00", "updated_at": "2025-07-03T20:10:28.916-04:00", "avatar": "https://secure.gravatar.com/avatar/c5890f0a5a5f6a8e13ea31752118510a.jpg?s=512&d=https%3A%2F%2Fa.slack-edge.com%2Fdf10d%2Fimg%2Favatars%2Fava_0008-512.png", "custom_css": null}, {"id": 14151, "slack_id": "U091WMR7X0A", "display_name": "Avery", "bio": null, "projects_count": 0, "devlogs_count": 0, "votes_count": 0, "ships_count": 0, "projects": [], "coding_time_seconds": 0, "coding_time_seconds_today": 0, "balance": "You need to have a pocket watcher badge to view this.", "badges": [], "created_at": "2025-07-02T01:05:33.001-04:00", "updated_at": "2025-07-03T20:10:29.242-04:00", "avatar": "https://secure.gravatar.com/avatar/3a1b9f58996bf9714ae44b48ce000de6.jpg?s=512&d=https%3A%2F%2Fa.slack-edge.com%2Fdf10d%2Fimg%2Favatars%2Fava_0009-512.png", "custom_css": null}, {"id": 14152, "slack_id": "U093KQG0N9M", "display_name": "Sachindu Nethmin", "bio": "", "projects_count": 0, "devlogs_count": 0, "votes_count": 0, "ships_count": 0, "projects": [], "coding_time_seconds": 0, "coding_time_seconds_today": 0, "balance": "You need to have a pocket watcher badge to view this.", "badges": [], "created_at": "2025-07-02T01:12:53.344-04:00", "updated_at": "2025-08-10T23:38:02.088-04:00", "avatar": "https://secure.gravatar.com/avatar/e8a141605c05e33d8baa61e1a3e202a1.jpg?s=512&d=https%3A%2F%2Fa.slack-edge.com%2Fdf10d%2Fimg%2Favatars%2Fava_0025-512.png", "custom_css": null}, {"id": 14153, "slack_id": "U09417ZBYJ0", "display_name": "Hardev Khandhar", "bio": null, "projects_count": 0, "devlogs_count": 0, "votes_count": 0, "ships_count": 0, "projects": [], "coding_time_seconds": 0, "coding_time_seconds_today": 0, "balance": "You need to have a pocket watcher badge to view this.", "badges": [], "created_at": "2025-07-02T01:27:37.518-04:00", "updated_at": "2025-07-03T20:10:29.774-04:00", "avatar": "https://avatars.slack-edge.com/2025-07-01/9134024743589_800fbb4273a37127bad2_original.jpg", "custom_css": null}, {"id": 14154, "slack_id": "U093ZTX3R7U", "display_name": "Siddharth Yelugam", "bio": null, "projects_count": 0, "devlogs_count": 0, "votes_count": 0, "ships_count": 0, "projects": [], "coding_time_seconds": 29823, "coding_time_seconds_today": 0, "balance": "You need to have a pocket watcher badge to view this.", "badges": [], "created_at": "2025-07-02T01:27:54.668-04:00", "updated_at": "2025-07-03T20:10:30.055-04:00", "avatar": "https://avatars.slack-edge.com/2025-07-01/9148770054209_4144e0f4fe7c1181c2ae_original.png", "custom_css": null}, {"id": 14155, "slack_id": "U093USG3A30", "display_name": "Kritish Neupane", "bio": null, "projects_count": 1, "devlogs_count": 0, "votes_count": 2, "ships_count": 0, "projects": [{"id": 4921, "title": "OnlineBid", "devlogs_count": 0, "created_at": "2025-07-02T08:12:56.053-04:00"}], "coding_time_seconds": 142963, "coding_time_seconds_today": 0, "balance": "You need to have a pocket watcher badge to view this.", "badges": [], "created_at": "2025-07-02T01:59:33.150-04:00", "updated_at": "2025-07-03T20:10:30.326-04:00", "avatar": "https://avatars.slack-edge.com/2025-07-02/9157948965088_718785888aba8e41ad2a_original.png", "custom_css": null}, {"id": 14156, "slack_id": "U093UU5QST0", "display_name": "Lafayette Childs", "bio": null, "projects_count": 0, "devlogs_count": 0, "votes_count": 0, "ships_count": 0, "projects": [], "coding_time_seconds": 0, "coding_time_seconds_today": 0, "balance": "You need to have a pocket watcher badge to view this.", "badges": [], "created_at": "2025-07-02T02:14:05.292-04:00", "updated_at": "2025-07-04T08:30:50.619-04:00", "avatar": "https://secure.gravatar.com/avatar/efdd78c3539bc9b888ff6efa7b83bffa.jpg?s=512&d=https%3A%2F%2Fa.slack-edge.com%2Fdf10d%2Fimg%2Favatars%2Fava_0005-512.png", "custom_css": null}, {"id": 14157, "slack_id": "U093UUERV54", "display_name": "Advik Punugu", "bio": null, "projects_count": 0, "devlogs_count": 0, "votes_count": 0, "ships_count": 0, "projects": [], "coding_time_seconds": 0, "coding_time_seconds_today": 0, "balance": "You need to have a pocket watcher badge to view this.", "badges": [], "created_at": "2025-07-02T02:16:09.334-04:00", "updated_at": "2025-07-03T20:10:30.722-04:00", "avatar": "https://secure.gravatar.com/avatar/03acb920b35f2aa99111e1ce299517cd.jpg?s=512&d=https%3A%2F%2Fa.slack-edge.com%2Fdf10d%2Fimg%2Favatars%2Fava_0000-512.png", "custom_css": null}, {"id": 14158, "slack_id": "U08064S4XS7", "display_name": "Emiel", "bio": null, "projects_count": 0, "devlogs_count": 0, "votes_count": 0, "ships_count": 0, "projects": [], "coding_time_seconds": 0, "coding_time_seconds_today": 0, "balance": "You need to have a pocket watcher badge to view this.", "badges": [], "created_at": "2025-07-02T02:24:06.044-04:00", "updated_at": "2025-07-03T22:05:18.307-04:00", "avatar": "https://secure.gravatar.com/avatar/cb7e0602bcf954dcc757ee65323fa8c0.jpg?s=512&d=https%3A%2F%2Fa.slack-edge.com%2Fdf10d%2Fimg%2Favatars%2Fava_0005-512.png", "custom_css": null}, {"id": 14159, "slack_id": "U093L2LA8R5", "display_name": "dephan", "bio": null, "projects_count": 0, "devlogs_count": 0, "votes_count": 0, "ships_count": 0, "projects": [], "coding_time_seconds": 0, "coding_time_seconds_today": 0, "balance": "You need to have a pocket watcher badge to view this.", "badges": [], "created_at": "2025-07-02T02:26:55.913-04:00", "updated_at": "2025-07-04T08:30:50.842-04:00", "avatar": "https://secure.gravatar.com/avatar/0138be8e6a138541eea9dd316abec0af.jpg?s=512&d=https%3A%2F%2Fa.slack-edge.com%2Fdf10d%2Fimg%2Favatars%2Fava_0015-512.png", "custom_css": null}, {"id": 14160, "slack_id": "U093DQV7C0P", "display_name": "Tolu1ni", "bio": null, "projects_count": 0, "devlogs_count": 0, "votes_count": 0, "ships_count": 0, "projects": [], "coding_time_seconds": 240, "coding_time_seconds_today": 0, "balance": "You need to have a pocket watcher badge to view this.", "badges": [], "created_at": "2025-07-02T02:48:10.232-04:00", "updated_at": "2025-07-06T14:15:24.109-04:00", "avatar": "https://secure.gravatar.com/avatar/b269d29abbbd80766b90c6aa54797cc7.jpg?s=512&d=https%3A%2F%2Fa.slack-edge.com%2Fdf10d%2Fimg%2Favatars%2Fava_0003-512.png", "custom_css": null}], "pagination": {"page": 708, "pages": 1192, "count": 23828, "items": 20}}