{"users": [{"id": 14161, "slack_id": "U07H6M18G01", "display_name": "kakenbutter", "bio": null, "projects_count": 1, "devlogs_count": 1, "votes_count": 2, "ships_count": 0, "projects": [{"id": 4960, "title": "flashy", "devlogs_count": 1, "created_at": "2025-07-02T12:04:13.766-04:00"}], "coding_time_seconds": 74142, "coding_time_seconds_today": 0, "balance": "You need to have a pocket watcher badge to view this.", "badges": [], "created_at": "2025-07-02T02:59:28.902-04:00", "updated_at": "2025-09-08T14:14:22.265-04:00", "avatar": "https://secure.gravatar.com/avatar/25582f82ac759d1c4c1400ed5ea0f1cf.jpg?s=512&d=https%3A%2F%2Fa.slack-edge.com%2Fdf10d%2Fimg%2Favatars%2Fava_0019-512.png", "custom_css": null}, {"id": 14162, "slack_id": "U093SQHND6X", "display_name": "Turbash Negi", "bio": null, "projects_count": 11, "devlogs_count": 66, "votes_count": 255, "ships_count": 10, "projects": [{"id": 8290, "title": "Love letter generator", "devlogs_count": 5, "created_at": "2025-07-26T02:13:06.026-04:00"}, {"id": 10106, "title": "Image Converter", "devlogs_count": 10, "created_at": "2025-08-04T05:24:11.253-04:00"}, {"id": 10277, "title": "Regret Vault Api", "devlogs_count": 8, "created_at": "2025-08-05T13:51:20.158-04:00"}, {"id": 11462, "title": "Indian Law Assistant", "devlogs_count": 12, "created_at": "2025-08-16T05:48:07.644-04:00"}, {"id": 5286, "title": "Whispr", "devlogs_count": 3, "created_at": "2025-07-04T08:00:44.586-04:00"}, {"id": 5928, "title": "Clash of Clans Style Portfolio", "devlogs_count": 3, "created_at": "2025-07-09T07:04:43.510-04:00"}, {"id": 5390, "title": "TubeFetch", "devlogs_count": 4, "created_at": "2025-07-05T01:31:33.870-04:00"}, {"id": 8427, "title": "Favourite Junk Food", "devlogs_count": 1, "created_at": "2025-07-27T03:38:16.522-04:00"}, {"id": 10010, "title": "Brainrot", "devlogs_count": 1, "created_at": "2025-08-03T12:31:42.067-04:00"}, {"id": 4907, "title": "Holiday Planner", "devlogs_count": 8, "created_at": "2025-07-02T05:41:00.768-04:00"}, {"id": 5123, "title": "Web Crawler ", "devlogs_count": 2, "created_at": "2025-07-03T11:17:48.516-04:00"}], "coding_time_seconds": 458045, "coding_time_seconds_today": 0, "balance": "You need to have a pocket watcher badge to view this.", "badges": [{"name": "Maiden Voyage", "text": "you shipped your first project! the journey begins...", "icon": "\ud83d\udea2"}, {"name": "Ballot Stuffer", "text": "vote 100 times.", "icon": "https://summer.hackclub.com/assets/i_voted-bf851b48.png"}], "created_at": "2025-07-02T03:01:15.958-04:00", "updated_at": "2025-09-10T22:58:13.841-04:00", "avatar": "https://secure.gravatar.com/avatar/06edffb7e39d48dc326342476603c3bd.jpg?s=512&d=https%3A%2F%2Fa.slack-edge.com%2Fdf10d%2Fimg%2Favatars%2Fava_0024-512.png", "custom_css": null}, {"id": 14163, "slack_id": "U08714VB3JS", "display_name": "Jakub Pitner", "bio": null, "projects_count": 1, "devlogs_count": 0, "votes_count": 0, "ships_count": 0, "projects": [{"id": 4937, "title": "SkillStack", "devlogs_count": 0, "created_at": "2025-07-02T10:12:58.233-04:00"}], "coding_time_seconds": 64807, "coding_time_seconds_today": 0, "balance": "You need to have a pocket watcher badge to view this.", "badges": [], "created_at": "2025-07-02T03:02:42.128-04:00", "updated_at": "2025-07-03T20:10:31.811-04:00", "avatar": "https://secure.gravatar.com/avatar/59b150f977bae16541d7df8e4ee5fc7c.jpg?s=512&d=https%3A%2F%2Fa.slack-edge.com%2Fdf10d%2Fimg%2Favatars%2Fava_0016-512.png", "custom_css": null}, {"id": 14164, "slack_id": "U094N4PEVCG", "display_name": "akash", "bio": null, "projects_count": 0, "devlogs_count": 0, "votes_count": 0, "ships_count": 0, "projects": [], "coding_time_seconds": 2128, "coding_time_seconds_today": 0, "balance": "You need to have a pocket watcher badge to view this.", "badges": [], "created_at": "2025-07-02T03:05:36.762-04:00", "updated_at": "2025-07-03T20:10:32.076-04:00", "avatar": "https://secure.gravatar.com/avatar/1003278c9dce7f1761ab75b1a9390b47.jpg?s=512&d=https%3A%2F%2Fa.slack-edge.com%2Fdf10d%2Fimg%2Favatars%2Fava_0011-512.png", "custom_css": null}, {"id": 14165, "slack_id": "U093YCHSVK7", "display_name": "Sahithi Lakshmi Dontukurti", "bio": null, "projects_count": 0, "devlogs_count": 0, "votes_count": 0, "ships_count": 0, "projects": [], "coding_time_seconds": 298681, "coding_time_seconds_today": 0, "balance": "You need to have a pocket watcher badge to view this.", "badges": [], "created_at": "2025-07-02T03:12:31.160-04:00", "updated_at": "2025-07-04T02:34:32.886-04:00", "avatar": "https://avatars.slack-edge.com/2025-07-02/9122318204871_f88d551a69762b9e2fcf_original.png", "custom_css": null}, {"id": 14166, "slack_id": "U0940ATRHUJ", "display_name": "Pratham Gaba", "bio": null, "projects_count": 1, "devlogs_count": 1, "votes_count": 0, "ships_count": 0, "projects": [{"id": 4903, "title": "Started Learning Python", "devlogs_count": 1, "created_at": "2025-07-02T05:31:30.750-04:00"}], "coding_time_seconds": 68682, "coding_time_seconds_today": 0, "balance": "You need to have a pocket watcher badge to view this.", "badges": [], "created_at": "2025-07-02T03:15:05.760-04:00", "updated_at": "2025-07-03T20:10:32.477-04:00", "avatar": "https://secure.gravatar.com/avatar/c7712c4f3fdc3075c8b18bb556ff12ea.jpg?s=512&d=https%3A%2F%2Fa.slack-edge.com%2Fdf10d%2Fimg%2Favatars%2Fava_0001-512.png", "custom_css": null}, {"id": 14167, "slack_id": "U094N6F4RQ8", "display_name": "Aryan Kumar", "bio": null, "projects_count": 0, "devlogs_count": 0, "votes_count": 0, "ships_count": 0, "projects": [], "coding_time_seconds": 0, "coding_time_seconds_today": 0, "balance": "You need to have a pocket watcher badge to view this.", "badges": [], "created_at": "2025-07-02T03:18:47.826-04:00", "updated_at": "2025-07-03T20:10:32.738-04:00", "avatar": "https://secure.gravatar.com/avatar/7ccfcb9804a331c4c0183e5426db452b.jpg?s=512&d=https%3A%2F%2Fa.slack-edge.com%2Fdf10d%2Fimg%2Favatars%2Fava_0013-512.png", "custom_css": null}, {"id": 14168, "slack_id": "U094N8NNWSC", "display_name": "Anjali Dass", "bio": null, "projects_count": 0, "devlogs_count": 0, "votes_count": 0, "ships_count": 0, "projects": [], "coding_time_seconds": 0, "coding_time_seconds_today": 0, "balance": "You need to have a pocket watcher badge to view this.", "badges": [], "created_at": "2025-07-02T03:33:36.503-04:00", "updated_at": "2025-07-03T20:10:32.996-04:00", "avatar": "https://secure.gravatar.com/avatar/da88ba60195a29cc533591a434d6104f.jpg?s=512&d=https%3A%2F%2Fa.slack-edge.com%2Fdf10d%2Fimg%2Favatars%2Fava_0000-512.png", "custom_css": null}, {"id": 14169, "slack_id": "U093L9ZUSAK", "display_name": "Mursaleen Nisar", "bio": null, "projects_count": 0, "devlogs_count": 0, "votes_count": 0, "ships_count": 0, "projects": [], "coding_time_seconds": 0, "coding_time_seconds_today": 0, "balance": "You need to have a pocket watcher badge to view this.", "badges": [], "created_at": "2025-07-02T03:38:09.788-04:00", "updated_at": "2025-07-05T08:16:08.431-04:00", "avatar": "https://secure.gravatar.com/avatar/03c797ea7c25086a0aea89d5e7143819.jpg?s=512&d=https%3A%2F%2Fa.slack-edge.com%2Fdf10d%2Fimg%2Favatars%2Fava_0014-512.png", "custom_css": null}, {"id": 14170, "slack_id": "U093N53551R", "display_name": "Priyanshu Verma", "bio": "I am learning a lot of stuff at the same time it may be a bad habit but it still fun", "projects_count": 0, "devlogs_count": 22, "votes_count": 69, "ships_count": 0, "projects": [], "coding_time_seconds": 282249, "coding_time_seconds_today": 208, "balance": "You need to have a pocket watcher badge to view this.", "badges": [{"name": "Maiden Voyage", "text": "you shipped your first project! the journey begins...", "icon": "\ud83d\udea2"}], "created_at": "2025-07-02T03:41:35.236-04:00", "updated_at": "2025-09-12T10:58:46.177-04:00", "avatar": "https://secure.gravatar.com/avatar/53389cadf6681de65b9e0fc96a187b5a.jpg?s=512&d=https%3A%2F%2Fa.slack-edge.com%2Fdf10d%2Fimg%2Favatars%2Fava_0018-512.png", "custom_css": null}, {"id": 14171, "slack_id": "U08UD8S9RQB", "display_name": "Sanujana Alahakoon", "bio": null, "projects_count": 0, "devlogs_count": 0, "votes_count": 0, "ships_count": 0, "projects": [], "coding_time_seconds": 0, "coding_time_seconds_today": 0, "balance": "You need to have a pocket watcher badge to view this.", "badges": [], "created_at": "2025-07-02T03:44:14.420-04:00", "updated_at": "2025-07-03T22:05:19.261-04:00", "avatar": "https://avatars.slack-edge.com/2025-07-02/9136518950514_ef3a105587a8d5ef584a_original.png", "custom_css": null}, {"id": 14172, "slack_id": "U08TT0SL0KC", "display_name": "Isabella", "bio": null, "projects_count": 0, "devlogs_count": 0, "votes_count": 0, "ships_count": 0, "projects": [], "coding_time_seconds": 4294, "coding_time_seconds_today": 3242, "balance": "You need to have a pocket watcher badge to view this.", "badges": [], "created_at": "2025-07-02T03:46:18.519-04:00", "updated_at": "2025-07-03T20:10:33.803-04:00", "avatar": "https://secure.gravatar.com/avatar/c19de4c39e5066eedd736fbaefb27258.jpg?s=512&d=https%3A%2F%2Fa.slack-edge.com%2Fdf10d%2Fimg%2Favatars%2Fava_0015-512.png", "custom_css": null}, {"id": 14173, "slack_id": "U094200B7K6", "display_name": "Neeraj", "bio": null, "projects_count": 0, "devlogs_count": 0, "votes_count": 0, "ships_count": 0, "projects": [], "coding_time_seconds": 0, "coding_time_seconds_today": 0, "balance": "You need to have a pocket watcher badge to view this.", "badges": [], "created_at": "2025-07-02T04:14:48.276-04:00", "updated_at": "2025-07-03T20:10:34.063-04:00", "avatar": "https://secure.gravatar.com/avatar/f0cf1d37a9c4b738b777011c07b1f74c.jpg?s=512&d=https%3A%2F%2Fa.slack-edge.com%2Fdf10d%2Fimg%2Favatars%2Fava_0007-512.png", "custom_css": null}, {"id": 14174, "slack_id": "U094NFB5RH6", "display_name": "Israr", "bio": null, "projects_count": 0, "devlogs_count": 0, "votes_count": 0, "ships_count": 0, "projects": [], "coding_time_seconds": 0, "coding_time_seconds_today": 0, "balance": "You need to have a pocket watcher badge to view this.", "badges": [], "created_at": "2025-07-02T04:24:00.708-04:00", "updated_at": "2025-07-04T08:30:51.817-04:00", "avatar": "https://secure.gravatar.com/avatar/7d993eeee6a756d6aa8f1b975466ad67.jpg?s=512&d=https%3A%2F%2Fa.slack-edge.com%2Fdf10d%2Fimg%2Favatars%2Fava_0023-512.png", "custom_css": null}, {"id": 14175, "slack_id": "U093TBFCB8T", "display_name": "Reema Crasta", "bio": null, "projects_count": 0, "devlogs_count": 0, "votes_count": 0, "ships_count": 0, "projects": [], "coding_time_seconds": 0, "coding_time_seconds_today": 0, "balance": "You need to have a pocket watcher badge to view this.", "badges": [], "created_at": "2025-07-02T04:57:26.671-04:00", "updated_at": "2025-07-05T02:15:46.789-04:00", "avatar": "https://secure.gravatar.com/avatar/94228d89b3ef486a93f0687f1b15f853.jpg?s=512&d=https%3A%2F%2Fa.slack-edge.com%2Fdf10d%2Fimg%2Favatars%2Fava_0016-512.png", "custom_css": null}, {"id": 14176, "slack_id": "U093LMX3JAK", "display_name": "Ammar", "bio": null, "projects_count": 0, "devlogs_count": 0, "votes_count": 0, "ships_count": 0, "projects": [], "coding_time_seconds": 0, "coding_time_seconds_today": 0, "balance": "You need to have a pocket watcher badge to view this.", "badges": [], "created_at": "2025-07-02T05:04:38.195-04:00", "updated_at": "2025-07-03T22:05:19.632-04:00", "avatar": "https://secure.gravatar.com/avatar/daef9a9ab8bff0fb39b5c46d5d6ae084.jpg?s=512&d=https%3A%2F%2Fa.slack-edge.com%2Fdf10d%2Fimg%2Favatars%2Fava_0020-512.png", "custom_css": null}, {"id": 14177, "slack_id": "U0940T181V0", "display_name": "Leo", "bio": null, "projects_count": 0, "devlogs_count": 0, "votes_count": 0, "ships_count": 0, "projects": [], "coding_time_seconds": 175676, "coding_time_seconds_today": 0, "balance": "You need to have a pocket watcher badge to view this.", "badges": [], "created_at": "2025-07-02T05:12:33.283-04:00", "updated_at": "2025-07-04T20:15:06.867-04:00", "avatar": "https://secure.gravatar.com/avatar/6ed7528129e28afa8eced8670395ee74.jpg?s=512&d=https%3A%2F%2Fa.slack-edge.com%2Fdf10d%2Fimg%2Favatars%2Fava_0017-512.png", "custom_css": null}, {"id": 14178, "slack_id": "U093Z443545", "display_name": "Muhammad Jalil Ahmad", "bio": null, "projects_count": 0, "devlogs_count": 0, "votes_count": 0, "ships_count": 0, "projects": [], "coding_time_seconds": 0, "coding_time_seconds_today": 0, "balance": "You need to have a pocket watcher badge to view this.", "badges": [], "created_at": "2025-07-02T05:29:12.368-04:00", "updated_at": "2025-07-03T20:10:34.875-04:00", "avatar": "https://secure.gravatar.com/avatar/d9b14fb95c21018a585258944fabfd15.jpg?s=512&d=https%3A%2F%2Fa.slack-edge.com%2Fdf10d%2Fimg%2Favatars%2Fava_0005-512.png", "custom_css": null}, {"id": 14179, "slack_id": "U0933B6QQDT", "display_name": "Gagana V", "bio": null, "projects_count": 0, "devlogs_count": 0, "votes_count": 0, "ships_count": 0, "projects": [], "coding_time_seconds": 0, "coding_time_seconds_today": 0, "balance": "You need to have a pocket watcher badge to view this.", "badges": [], "created_at": "2025-07-02T05:30:17.066-04:00", "updated_at": "2025-07-03T20:10:35.129-04:00", "avatar": "https://secure.gravatar.com/avatar/c1ec3ba2b3a02fbbd3295e65e7e60065.jpg?s=512&d=https%3A%2F%2Fa.slack-edge.com%2Fdf10d%2Fimg%2Favatars%2Fava_0013-512.png", "custom_css": null}, {"id": 14180, "slack_id": "U093TJ21U4T", "display_name": "Shubham", "bio": null, "projects_count": 1, "devlogs_count": 0, "votes_count": 0, "ships_count": 0, "projects": [{"id": 9945, "title": "Interest calculator", "devlogs_count": 0, "created_at": "2025-08-03T04:30:58.451-04:00"}], "coding_time_seconds": 24285, "coding_time_seconds_today": 0, "balance": "You need to have a pocket watcher badge to view this.", "badges": [], "created_at": "2025-07-02T05:35:53.200-04:00", "updated_at": "2025-08-03T04:26:12.173-04:00", "avatar": "https://avatars.slack-edge.com/2025-07-02/9131974772998_52260d6490850bb27cf3_original.png", "custom_css": null}], "pagination": {"page": 709, "pages": 1192, "count": 23828, "items": 20}}