{"users": [{"id": 1401, "slack_id": "U0922281Z7T", "display_name": "Shahmeer", "bio": null, "projects_count": 0, "devlogs_count": 0, "votes_count": 0, "ships_count": 0, "projects": [], "coding_time_seconds": 0, "coding_time_seconds_today": 0, "balance": "You need to have a pocket watcher badge to view this.", "badges": [], "created_at": "2025-06-16T13:13:07.159-04:00", "updated_at": "2025-07-03T19:17:28.509-04:00", "avatar": "https://secure.gravatar.com/avatar/1fde27603a4376a7e21067ba5b1b39dc.jpg?s=512&d=https%3A%2F%2Fa.slack-edge.com%2Fdf10d%2Fimg%2Favatars%2Fava_0008-512.png", "custom_css": null}, {"id": 1402, "slack_id": "U091GJ7FGFM", "display_name": "Sandeep V", "bio": null, "projects_count": 0, "devlogs_count": 0, "votes_count": 0, "ships_count": 0, "projects": [], "coding_time_seconds": 0, "coding_time_seconds_today": 0, "balance": "You need to have a pocket watcher badge to view this.", "badges": [], "created_at": "2025-06-16T13:13:13.731-04:00", "updated_at": "2025-07-03T19:17:28.785-04:00", "avatar": "https://avatars.slack-edge.com/2025-06-16/9050631848227_cf21d65b98f9c91fbc51_original.jpg", "custom_css": null}, {"id": 1403, "slack_id": "U092C0RJYF2", "display_name": "Soumyadip Mandal", "bio": null, "projects_count": 0, "devlogs_count": 0, "votes_count": 0, "ships_count": 0, "projects": [], "coding_time_seconds": 0, "coding_time_seconds_today": 0, "balance": "You need to have a pocket watcher badge to view this.", "badges": [], "created_at": "2025-06-16T13:13:14.155-04:00", "updated_at": "2025-07-03T19:17:29.048-04:00", "avatar": "https://secure.gravatar.com/avatar/7b89ec36bce0ecef1808d1afa02d61ba.jpg?s=512&d=https%3A%2F%2Fa.slack-edge.com%2Fdf10d%2Fimg%2Favatars%2Fava_0022-512.png", "custom_css": null}, {"id": 1404, "slack_id": "U091PFX2QKC", "display_name": "Micha\u0142 Talaga", "bio": null, "projects_count": 0, "devlogs_count": 0, "votes_count": 0, "ships_count": 0, "projects": [], "coding_time_seconds": 0, "coding_time_seconds_today": 0, "balance": "You need to have a pocket watcher badge to view this.", "badges": [], "created_at": "2025-06-16T13:13:22.560-04:00", "updated_at": "2025-07-03T19:17:29.326-04:00", "avatar": "https://avatars.slack-edge.com/2025-06-16/9042286331847_45c440c7044ef37d0c7d_original.png", "custom_css": null}, {"id": 1405, "slack_id": "U092C1D0T4G", "display_name": "Milan Bhadarka", "bio": null, "projects_count": 0, "devlogs_count": 0, "votes_count": 0, "ships_count": 0, "projects": [], "coding_time_seconds": 3818, "coding_time_seconds_today": 0, "balance": "You need to have a pocket watcher badge to view this.", "badges": [], "created_at": "2025-06-16T13:13:24.165-04:00", "updated_at": "2025-07-03T19:17:29.603-04:00", "avatar": "https://secure.gravatar.com/avatar/822d733d0fca1855d4cac9446e7adfbe.jpg?s=512&d=https%3A%2F%2Fa.slack-edge.com%2Fdf10d%2Fimg%2Favatars%2Fava_0017-512.png", "custom_css": null}, {"id": 1406, "slack_id": "U091GM8F6TY", "display_name": "savvy", "bio": null, "projects_count": 0, "devlogs_count": 0, "votes_count": 0, "ships_count": 0, "projects": [], "coding_time_seconds": 0, "coding_time_seconds_today": 0, "balance": "You need to have a pocket watcher badge to view this.", "badges": [], "created_at": "2025-06-16T13:13:29.086-04:00", "updated_at": "2025-07-03T19:17:29.873-04:00", "avatar": "https://secure.gravatar.com/avatar/261d5c875fa9524b8f5b484b79ca1017.jpg?s=512&d=https%3A%2F%2Fa.slack-edge.com%2Fdf10d%2Fimg%2Favatars%2Fava_0008-512.png", "custom_css": null}, {"id": 1407, "slack_id": "U07KQ8V37PG", "display_name": "Woody Willis", "bio": null, "projects_count": 2, "devlogs_count": 8, "votes_count": 6, "ships_count": 1, "projects": [{"id": 137, "title": "Ready or Not", "devlogs_count": 8, "created_at": "2025-06-16T14:22:58.360-04:00"}, {"id": 9668, "title": "Artificial Agentics", "devlogs_count": 0, "created_at": "2025-08-02T01:42:44.862-04:00"}], "coding_time_seconds": 369928, "coding_time_seconds_today": 0, "balance": "You need to have a pocket watcher badge to view this.", "badges": [{"name": "Maiden Voyage", "text": "you shipped your first project! the journey begins...", "icon": "\ud83d\udea2"}], "created_at": "2025-06-16T13:13:34.005-04:00", "updated_at": "2025-09-10T22:51:51.331-04:00", "avatar": "https://avatars.slack-edge.com/2025-06-26/9129531027616_d3e07eb38f4cbf13a66e_original.jpg", "custom_css": null}, {"id": 1408, "slack_id": "U09223ZM941", "display_name": "Ahb-7", "bio": null, "projects_count": 0, "devlogs_count": 0, "votes_count": 0, "ships_count": 0, "projects": [], "coding_time_seconds": 0, "coding_time_seconds_today": 0, "balance": "You need to have a pocket watcher badge to view this.", "badges": [], "created_at": "2025-06-16T13:13:34.635-04:00", "updated_at": "2025-07-03T19:17:30.417-04:00", "avatar": "https://secure.gravatar.com/avatar/bf1f884cd9d8bc48312bd5746bd5e0a3.jpg?s=512&d=https%3A%2F%2Fa.slack-edge.com%2Fdf10d%2Fimg%2Favatars%2Fava_0023-512.png", "custom_css": null}, {"id": 1409, "slack_id": "U091881JSMV", "display_name": "Dibyataru", "bio": null, "projects_count": 0, "devlogs_count": 0, "votes_count": 0, "ships_count": 0, "projects": [], "coding_time_seconds": 0, "coding_time_seconds_today": 0, "balance": "You need to have a pocket watcher badge to view this.", "badges": [], "created_at": "2025-06-16T13:13:38.317-04:00", "updated_at": "2025-07-03T19:17:30.691-04:00", "avatar": "https://secure.gravatar.com/avatar/f1ff15850cfe9f3279f5864224944afa.jpg?s=512&d=https%3A%2F%2Fa.slack-edge.com%2Fdf10d%2Fimg%2Favatars%2Fava_0004-512.png", "custom_css": null}, {"id": 1410, "slack_id": "U091PGS9L2W", "display_name": "Athar", "bio": null, "projects_count": 0, "devlogs_count": 0, "votes_count": 0, "ships_count": 0, "projects": [], "coding_time_seconds": 0, "coding_time_seconds_today": 0, "balance": "You need to have a pocket watcher badge to view this.", "badges": [], "created_at": "2025-06-16T13:13:39.280-04:00", "updated_at": "2025-07-03T19:17:30.971-04:00", "avatar": "https://secure.gravatar.com/avatar/3f440679046fbaeb6641846d1e704827.jpg?s=512&d=https%3A%2F%2Fa.slack-edge.com%2Fdf10d%2Fimg%2Favatars%2Fava_0019-512.png", "custom_css": null}, {"id": 1411, "slack_id": "U09223YEV3K", "display_name": "Aswarth", "bio": null, "projects_count": 0, "devlogs_count": 0, "votes_count": 0, "ships_count": 0, "projects": [], "coding_time_seconds": 0, "coding_time_seconds_today": 0, "balance": "You need to have a pocket watcher badge to view this.", "badges": [], "created_at": "2025-06-16T13:13:57.096-04:00", "updated_at": "2025-07-03T19:17:31.252-04:00", "avatar": "https://secure.gravatar.com/avatar/63017e259fda2cfae4583fb192bb9a0a.jpg?s=512&d=https%3A%2F%2Fa.slack-edge.com%2Fdf10d%2Fimg%2Favatars%2Fava_0005-512.png", "custom_css": null}, {"id": 1412, "slack_id": "U091880FLPR", "display_name": "Pankaj Kumar", "bio": null, "projects_count": 0, "devlogs_count": 0, "votes_count": 0, "ships_count": 0, "projects": [], "coding_time_seconds": 0, "coding_time_seconds_today": 0, "balance": "You need to have a pocket watcher badge to view this.", "badges": [], "created_at": "2025-06-16T13:14:05.639-04:00", "updated_at": "2025-07-03T19:17:31.529-04:00", "avatar": "https://secure.gravatar.com/avatar/d614c7fb0877cc3c320ce1ead3262183.jpg?s=512&d=https%3A%2F%2Fa.slack-edge.com%2Fdf10d%2Fimg%2Favatars%2Fava_0014-512.png", "custom_css": null}, {"id": 1413, "slack_id": "U08AC6D869G", "display_name": "Dheirya", "bio": null, "projects_count": 2, "devlogs_count": 8, "votes_count": 19, "ships_count": 1, "projects": [{"id": 780, "title": "simple e\u02e3planations", "devlogs_count": 6, "created_at": "2025-06-17T08:08:20.555-04:00"}, {"id": 2969, "title": "Coltie Project", "devlogs_count": 2, "created_at": "2025-06-22T15:55:47.401-04:00"}], "coding_time_seconds": 125059, "coding_time_seconds_today": 0, "balance": "You need to have a pocket watcher badge to view this.", "badges": [{"name": "Maiden Voyage", "text": "you shipped your first project! the journey begins...", "icon": "\ud83d\udea2"}], "created_at": "2025-06-16T13:14:06.808-04:00", "updated_at": "2025-09-10T22:51:51.485-04:00", "avatar": "https://avatars.slack-edge.com/2025-05-31/8982378880980_efb8b03eb30c1d038b09_original.png", "custom_css": null}, {"id": 1414, "slack_id": "U091PH2G2US", "display_name": "Shubham Subedi", "bio": null, "projects_count": 0, "devlogs_count": 0, "votes_count": 0, "ships_count": 0, "projects": [], "coding_time_seconds": 1313, "coding_time_seconds_today": 0, "balance": "You need to have a pocket watcher badge to view this.", "badges": [], "created_at": "2025-06-16T13:14:12.330-04:00", "updated_at": "2025-07-03T19:17:32.083-04:00", "avatar": "https://secure.gravatar.com/avatar/26f02128becd88e648ba5bb6e99e0df8.jpg?s=512&d=https%3A%2F%2Fa.slack-edge.com%2Fdf10d%2Fimg%2Favatars%2Fava_0012-512.png", "custom_css": null}, {"id": 1415, "slack_id": "U091MPR60N9", "display_name": "RomikSm", "bio": null, "projects_count": 0, "devlogs_count": 0, "votes_count": 0, "ships_count": 0, "projects": [], "coding_time_seconds": 731, "coding_time_seconds_today": 0, "balance": "You need to have a pocket watcher badge to view this.", "badges": [], "created_at": "2025-06-16T13:14:18.438-04:00", "updated_at": "2025-07-03T19:17:32.355-04:00", "avatar": "https://secure.gravatar.com/avatar/3cb5e7013557490b274cec38fd67ff21.jpg?s=512&d=https%3A%2F%2Fa.slack-edge.com%2Fdf10d%2Fimg%2Favatars%2Fava_0016-512.png", "custom_css": null}, {"id": 1416, "slack_id": "U091GJ7GZNX", "display_name": "eddy", "bio": null, "projects_count": 0, "devlogs_count": 0, "votes_count": 0, "ships_count": 0, "projects": [], "coding_time_seconds": 0, "coding_time_seconds_today": 0, "balance": "You need to have a pocket watcher badge to view this.", "badges": [], "created_at": "2025-06-16T13:14:24.992-04:00", "updated_at": "2025-07-03T19:17:32.641-04:00", "avatar": "https://secure.gravatar.com/avatar/f09acc6cc4a63401960b6f614ef4bcb4.jpg?s=512&d=https%3A%2F%2Fa.slack-edge.com%2Fdf10d%2Fimg%2Favatars%2Fava_0006-512.png", "custom_css": null}, {"id": 1417, "slack_id": "U078XA4CUHK", "display_name": "Michealtheratz", "bio": null, "projects_count": 0, "devlogs_count": 0, "votes_count": 0, "ships_count": 0, "projects": [], "coding_time_seconds": 5877, "coding_time_seconds_today": 0, "balance": "You need to have a pocket watcher badge to view this.", "badges": [], "created_at": "2025-06-16T13:14:25.589-04:00", "updated_at": "2025-07-03T19:17:32.913-04:00", "avatar": "https://avatars.slack-edge.com/2025-05-21/8942986539025_be46cdb378c25d7cb963_original.png", "custom_css": null}, {"id": 1418, "slack_id": "U091GJ1N1BM", "display_name": "Latika Sekhri", "bio": null, "projects_count": 0, "devlogs_count": 0, "votes_count": 0, "ships_count": 0, "projects": [], "coding_time_seconds": 0, "coding_time_seconds_today": 0, "balance": "You need to have a pocket watcher badge to view this.", "badges": [], "created_at": "2025-06-16T13:14:26.253-04:00", "updated_at": "2025-07-03T19:17:33.175-04:00", "avatar": "https://avatars.slack-edge.com/2025-06-16/9042291351047_055133ca01807c713a63_original.png", "custom_css": null}, {"id": 1419, "slack_id": "U091887C0MD", "display_name": "Rahul Prasad", "bio": null, "projects_count": 0, "devlogs_count": 0, "votes_count": 0, "ships_count": 0, "projects": [], "coding_time_seconds": 0, "coding_time_seconds_today": 0, "balance": "You need to have a pocket watcher badge to view this.", "badges": [], "created_at": "2025-06-16T13:14:51.031-04:00", "updated_at": "2025-07-03T19:17:33.449-04:00", "avatar": "https://avatars.slack-edge.com/2025-06-16/9050738304246_52b0f421e90da59850cf_original.png", "custom_css": null}, {"id": 1420, "slack_id": "U078E3A7JP7", "display_name": "Evan", "bio": null, "projects_count": 0, "devlogs_count": 0, "votes_count": 0, "ships_count": 0, "projects": [], "coding_time_seconds": 21167, "coding_time_seconds_today": 0, "balance": "You need to have a pocket watcher badge to view this.", "badges": [], "created_at": "2025-06-16T13:14:54.606-04:00", "updated_at": "2025-07-03T19:17:33.717-04:00", "avatar": "https://secure.gravatar.com/avatar/4f3f16d6acea2ab801443ec33923645f.jpg?s=512&d=https%3A%2F%2Fa.slack-edge.com%2Fdf10d%2Fimg%2Favatars%2Fava_0019-512.png", "custom_css": null}], "pagination": {"page": 71, "pages": 1192, "count": 23827, "items": 20}}