{"users": [{"id": 14181, "slack_id": "U0798DFMVL0", "display_name": "Mourinhom6", "bio": null, "projects_count": 0, "devlogs_count": 0, "votes_count": 0, "ships_count": 0, "projects": [], "coding_time_seconds": 0, "coding_time_seconds_today": 0, "balance": "You need to have a pocket watcher badge to view this.", "badges": [], "created_at": "2025-07-02T05:40:45.249-04:00", "updated_at": "2025-07-04T08:30:52.263-04:00", "avatar": "https://secure.gravatar.com/avatar/880c5786ade5f753763973b77a4c370f.jpg?s=512&d=https%3A%2F%2Fa.slack-edge.com%2Fdf10d%2Fimg%2Favatars%2Fava_0019-512.png", "custom_css": null}, {"id": 14182, "slack_id": "U087AR6S9RV", "display_name": "Xie Zicong", "bio": null, "projects_count": 0, "devlogs_count": 0, "votes_count": 0, "ships_count": 0, "projects": [], "coding_time_seconds": 239576, "coding_time_seconds_today": 0, "balance": "You need to have a pocket watcher badge to view this.", "badges": [], "created_at": "2025-07-02T05:49:01.104-04:00", "updated_at": "2025-07-03T20:10:35.662-04:00", "avatar": "https://secure.gravatar.com/avatar/070ae9112ec8a8d38202df3fd53986da.jpg?s=512&d=https%3A%2F%2Fa.slack-edge.com%2Fdf10d%2Fimg%2Favatars%2Fava_0017-512.png", "custom_css": null}, {"id": 14183, "slack_id": "U09434M4VTK", "display_name": "khushant goyal", "bio": null, "projects_count": 2, "devlogs_count": 4, "votes_count": 3, "ships_count": 0, "projects": [{"id": 12755, "title": "solomon bharat", "devlogs_count": 1, "created_at": "2025-09-02T01:35:21.856-04:00"}, {"id": 12764, "title": "network card pro", "devlogs_count": 1, "created_at": "2025-09-02T06:33:59.568-04:00"}], "coding_time_seconds": 26112, "coding_time_seconds_today": 0, "balance": "You need to have a pocket watcher badge to view this.", "badges": [], "created_at": "2025-07-02T05:59:10.752-04:00", "updated_at": "2025-09-02T01:40:49.542-04:00", "avatar": "https://secure.gravatar.com/avatar/e757dd7cfcdaf10a218b1a422f5b0ca2.jpg?s=512&d=https%3A%2F%2Fa.slack-edge.com%2Fdf10d%2Fimg%2Favatars%2Fava_0022-512.png", "custom_css": null}, {"id": 14184, "slack_id": "U0942HPVDHS", "display_name": "Tomas", "bio": null, "projects_count": 0, "devlogs_count": 0, "votes_count": 0, "ships_count": 0, "projects": [], "coding_time_seconds": 0, "coding_time_seconds_today": 0, "balance": "You need to have a pocket watcher badge to view this.", "badges": [], "created_at": "2025-07-02T06:11:24.551-04:00", "updated_at": "2025-07-04T20:15:07.309-04:00", "avatar": "https://secure.gravatar.com/avatar/950945f873f5fdb1d10fd268a1d315e4.jpg?s=512&d=https%3A%2F%2Fa.slack-edge.com%2Fdf10d%2Fimg%2Favatars%2Fava_0010-512.png", "custom_css": null}, {"id": 14185, "slack_id": "U093M7FGSJ3", "display_name": "PIYUS", "bio": null, "projects_count": 0, "devlogs_count": 0, "votes_count": 0, "ships_count": 0, "projects": [], "coding_time_seconds": 0, "coding_time_seconds_today": 0, "balance": "You need to have a pocket watcher badge to view this.", "badges": [], "created_at": "2025-07-02T06:16:53.706-04:00", "updated_at": "2025-07-05T20:16:08.244-04:00", "avatar": "https://secure.gravatar.com/avatar/1024e7ce6fe72958bc021d86b5967a7f.jpg?s=512&d=https%3A%2F%2Fa.slack-edge.com%2Fdf10d%2Fimg%2Favatars%2Fava_0024-512.png", "custom_css": null}, {"id": 14186, "slack_id": "U094P311L1E", "display_name": "Nick", "bio": null, "projects_count": 0, "devlogs_count": 0, "votes_count": 0, "ships_count": 0, "projects": [], "coding_time_seconds": 0, "coding_time_seconds_today": 0, "balance": "You need to have a pocket watcher badge to view this.", "badges": [], "created_at": "2025-07-02T06:19:29.153-04:00", "updated_at": "2025-07-03T20:10:36.321-04:00", "avatar": "https://secure.gravatar.com/avatar/4cc8b297e518b0544072f954332db6ff.jpg?s=512&d=https%3A%2F%2Fa.slack-edge.com%2Fdf10d%2Fimg%2Favatars%2Fava_0021-512.png", "custom_css": null}, {"id": 14187, "slack_id": "U093TS5CKB5", "display_name": "Dhyan Patel", "bio": null, "projects_count": 0, "devlogs_count": 0, "votes_count": 0, "ships_count": 0, "projects": [], "coding_time_seconds": 0, "coding_time_seconds_today": 0, "balance": "You need to have a pocket watcher badge to view this.", "badges": [], "created_at": "2025-07-02T06:35:09.127-04:00", "updated_at": "2025-07-06T08:15:09.494-04:00", "avatar": "https://secure.gravatar.com/avatar/44dc861dbbb4b3b896fa3965eca29770.jpg?s=512&d=https%3A%2F%2Fa.slack-edge.com%2Fdf10d%2Fimg%2Favatars%2Fava_0023-512.png", "custom_css": null}, {"id": 14188, "slack_id": "U093W83M9F0", "display_name": "Shreyas D Devadiga", "bio": null, "projects_count": 8, "devlogs_count": 62, "votes_count": 72, "ships_count": 8, "projects": [{"id": 11343, "title": "Udaan \u2013 AI-Powered Scholarship Matcher", "devlogs_count": 7, "created_at": "2025-08-15T03:34:38.108-04:00"}, {"id": 13029, "title": "LoopBid Live: Collaborative Real-Time Auction Platform for Educational Events", "devlogs_count": 9, "created_at": "2025-09-07T07:05:54.121-04:00"}, {"id": 13340, "title": "CTF_Platform", "devlogs_count": 14, "created_at": "2025-09-14T09:31:44.705-04:00"}, {"id": 6326, "title": "Scholarship matching website", "devlogs_count": 9, "created_at": "2025-07-12T10:45:13.664-04:00"}, {"id": 9486, "title": "Notecraft - Minecraft themed Note app", "devlogs_count": 3, "created_at": "2025-08-01T12:10:14.999-04:00"}, {"id": 8078, "title": "Fusion fry - a  tech blog website", "devlogs_count": 11, "created_at": "2025-07-24T12:39:12.180-04:00"}, {"id": 9692, "title": "Clash O Chief", "devlogs_count": 8, "created_at": "2025-08-02T03:30:55.011-04:00"}, {"id": 10017, "title": "My Todo App", "devlogs_count": 1, "created_at": "2025-08-03T13:13:20.953-04:00"}], "coding_time_seconds": 429143, "coding_time_seconds_today": 0, "balance": "You need to have a pocket watcher badge to view this.", "badges": [{"name": "Maiden Voyage", "text": "you shipped your first project! the journey begins...", "icon": "\ud83d\udea2"}, {"name": "Ballot Stuffer", "text": "vote 100 times.", "icon": "https://summer.hackclub.com/assets/i_voted-bf851b48.png"}], "created_at": "2025-07-02T06:42:04.337-04:00", "updated_at": "2025-09-10T22:58:14.482-04:00", "avatar": "https://secure.gravatar.com/avatar/f1c6f60e18458fcab1add919beaca0bb.jpg?s=512&d=https%3A%2F%2Fa.slack-edge.com%2Fdf10d%2Fimg%2Favatars%2Fava_0018-512.png", "custom_css": null}, {"id": 14189, "slack_id": "U082UK1HEEP", "display_name": "Sam", "bio": null, "projects_count": 0, "devlogs_count": 0, "votes_count": 0, "ships_count": 0, "projects": [], "coding_time_seconds": 0, "coding_time_seconds_today": 0, "balance": "You need to have a pocket watcher badge to view this.", "badges": [], "created_at": "2025-07-02T06:48:57.603-04:00", "updated_at": "2025-07-03T20:10:36.863-04:00", "avatar": "https://secure.gravatar.com/avatar/e12aefe0b7c21bc6533128aa27d78a52.jpg?s=512&d=https%3A%2F%2Fa.slack-edge.com%2Fdf10d%2Fimg%2Favatars%2Fava_0011-512.png", "custom_css": null}, {"id": 14190, "slack_id": "U093MC5TL5V", "display_name": "Nisanth S", "bio": null, "projects_count": 0, "devlogs_count": 0, "votes_count": 0, "ships_count": 0, "projects": [], "coding_time_seconds": 0, "coding_time_seconds_today": 0, "balance": "You need to have a pocket watcher badge to view this.", "badges": [], "created_at": "2025-07-02T06:50:05.913-04:00", "updated_at": "2025-07-03T20:10:37.127-04:00", "avatar": "https://avatars.slack-edge.com/2025-07-02/9129960211907_5cc41c09f625a0185e43_original.png", "custom_css": null}, {"id": 14191, "slack_id": "U093ZG25MTP", "display_name": "Vedant Porwal", "bio": null, "projects_count": 0, "devlogs_count": 0, "votes_count": 0, "ships_count": 0, "projects": [], "coding_time_seconds": 0, "coding_time_seconds_today": 0, "balance": "You need to have a pocket watcher badge to view this.", "badges": [], "created_at": "2025-07-02T06:54:09.500-04:00", "updated_at": "2025-07-03T20:10:37.381-04:00", "avatar": "https://secure.gravatar.com/avatar/421d311314f46b4fb3dc29b26f81d0d2.jpg?s=512&d=https%3A%2F%2Fa.slack-edge.com%2Fdf10d%2Fimg%2Favatars%2Fava_0025-512.png", "custom_css": null}, {"id": 14192, "slack_id": "U0941BZ6XT4", "display_name": "Soumitra Ghosh", "bio": null, "projects_count": 1, "devlogs_count": 0, "votes_count": 0, "ships_count": 0, "projects": [{"id": 4913, "title": "Face Recognition NIT", "devlogs_count": 0, "created_at": "2025-07-02T07:27:07.971-04:00"}], "coding_time_seconds": 6000, "coding_time_seconds_today": 0, "balance": "You need to have a pocket watcher badge to view this.", "badges": [], "created_at": "2025-07-02T06:54:40.285-04:00", "updated_at": "2025-07-03T20:10:37.637-04:00", "avatar": "https://secure.gravatar.com/avatar/cf5d6ed7aefa4e62219fef6cdfcaf868.jpg?s=512&d=https%3A%2F%2Fa.slack-edge.com%2Fdf10d%2Fimg%2Favatars%2Fava_0023-512.png", "custom_css": null}, {"id": 14193, "slack_id": "U093WAZGQ22", "display_name": "bhagyesh", "bio": null, "projects_count": 0, "devlogs_count": 0, "votes_count": 0, "ships_count": 0, "projects": [], "coding_time_seconds": 0, "coding_time_seconds_today": 0, "balance": "You need to have a pocket watcher badge to view this.", "badges": [], "created_at": "2025-07-02T07:07:47.967-04:00", "updated_at": "2025-07-03T20:10:37.890-04:00", "avatar": "https://secure.gravatar.com/avatar/bef36de3a4f9abc081ea84ee4179f8b5.jpg?s=512&d=https%3A%2F%2Fa.slack-edge.com%2Fdf10d%2Fimg%2Favatars%2Fava_0017-512.png", "custom_css": null}, {"id": 14194, "slack_id": "U0942RPV020", "display_name": "Divyanshu Singh", "bio": null, "projects_count": 0, "devlogs_count": 0, "votes_count": 0, "ships_count": 0, "projects": [], "coding_time_seconds": 0, "coding_time_seconds_today": 0, "balance": "You need to have a pocket watcher badge to view this.", "badges": [], "created_at": "2025-07-02T07:12:08.569-04:00", "updated_at": "2025-07-03T20:10:38.148-04:00", "avatar": "https://secure.gravatar.com/avatar/e671c98b6ff8abc1bcddf468508d2007.jpg?s=512&d=https%3A%2F%2Fa.slack-edge.com%2Fdf10d%2Fimg%2Favatars%2Fava_0001-512.png", "custom_css": null}, {"id": 14195, "slack_id": "U093W9L1JE9", "display_name": "Mahiman Bhatt", "bio": null, "projects_count": 0, "devlogs_count": 0, "votes_count": 0, "ships_count": 0, "projects": [], "coding_time_seconds": 0, "coding_time_seconds_today": 0, "balance": "You need to have a pocket watcher badge to view this.", "badges": [], "created_at": "2025-07-02T07:16:24.150-04:00", "updated_at": "2025-07-08T03:13:59.321-04:00", "avatar": "https://avatars.slack-edge.com/2025-07-02/9137517032738_900582c04aff4db00bb0_original.png", "custom_css": null}, {"id": 14196, "slack_id": "U0941EY87FC", "display_name": "J Sai Manideepak", "bio": null, "projects_count": 0, "devlogs_count": 0, "votes_count": 0, "ships_count": 0, "projects": [], "coding_time_seconds": 0, "coding_time_seconds_today": 0, "balance": "You need to have a pocket watcher badge to view this.", "badges": [], "created_at": "2025-07-02T07:19:14.293-04:00", "updated_at": "2025-07-03T20:10:38.555-04:00", "avatar": "https://secure.gravatar.com/avatar/b305d3aee7da5ad49186788f632a8968.jpg?s=512&d=https%3A%2F%2Fa.slack-edge.com%2Fdf10d%2Fimg%2Favatars%2Fava_0018-512.png", "custom_css": null}, {"id": 14197, "slack_id": "U07GD1K0DDG", "display_name": "Faith", "bio": null, "projects_count": 0, "devlogs_count": 0, "votes_count": 0, "ships_count": 0, "projects": [], "coding_time_seconds": 0, "coding_time_seconds_today": 0, "balance": "You need to have a pocket watcher badge to view this.", "badges": [], "created_at": "2025-07-02T07:23:06.494-04:00", "updated_at": "2025-07-03T20:10:38.814-04:00", "avatar": "https://avatars.slack-edge.com/2024-09-25/7765461131831_4bbe975c7736596e98e1_original.png", "custom_css": null}, {"id": 14198, "slack_id": "U093WEBPU6S", "display_name": "realthedev", "bio": null, "projects_count": 1, "devlogs_count": 0, "votes_count": 0, "ships_count": 0, "projects": [{"id": 5205, "title": "BughiLive", "devlogs_count": 0, "created_at": "2025-07-03T17:44:59.475-04:00"}], "coding_time_seconds": 55229, "coding_time_seconds_today": 0, "balance": "You need to have a pocket watcher badge to view this.", "badges": [], "created_at": "2025-07-02T07:32:15.011-04:00", "updated_at": "2025-07-03T17:41:30.923-04:00", "avatar": "https://secure.gravatar.com/avatar/dffcbb893e464e134eca91aab3e0cdbb.jpg?s=512&d=https%3A%2F%2Fa.slack-edge.com%2Fdf10d%2Fimg%2Favatars%2Fava_0014-512.png", "custom_css": null}, {"id": 14199, "slack_id": "U094EC0JJ1X", "display_name": "Toby", "bio": null, "projects_count": 1, "devlogs_count": 2, "votes_count": 2, "ships_count": 1, "projects": [{"id": 4918, "title": "MonsterDex", "devlogs_count": 2, "created_at": "2025-07-02T07:49:08.417-04:00"}], "coding_time_seconds": 54185, "coding_time_seconds_today": 0, "balance": "You need to have a pocket watcher badge to view this.", "badges": [{"name": "Maiden Voyage", "text": "you shipped your first project! the journey begins...", "icon": "\ud83d\udea2"}], "created_at": "2025-07-02T07:40:20.904-04:00", "updated_at": "2025-09-10T22:58:14.753-04:00", "avatar": "https://avatars.slack-edge.com/2025-07-02/9130236420451_02d551aa91e898ca279e_original.jpg", "custom_css": null}, {"id": 14200, "slack_id": "U093MJS9JUX", "display_name": "Abella", "bio": null, "projects_count": 0, "devlogs_count": 0, "votes_count": 0, "ships_count": 0, "projects": [], "coding_time_seconds": 0, "coding_time_seconds_today": 0, "balance": "You need to have a pocket watcher badge to view this.", "badges": [], "created_at": "2025-07-02T07:44:28.770-04:00", "updated_at": "2025-07-05T14:17:33.771-04:00", "avatar": "https://secure.gravatar.com/avatar/5b7f3551b0b45f96be87339e178eea11.jpg?s=512&d=https%3A%2F%2Fa.slack-edge.com%2Fdf10d%2Fimg%2Favatars%2Fava_0011-512.png", "custom_css": null}], "pagination": {"page": 710, "pages": 1192, "count": 23828, "items": 20}}