{"users": [{"id": 14201, "slack_id": "U093U4RHY1Z", "display_name": "Finn Ermert", "bio": null, "projects_count": 0, "devlogs_count": 0, "votes_count": 0, "ships_count": 0, "projects": [], "coding_time_seconds": 0, "coding_time_seconds_today": 0, "balance": "You need to have a pocket watcher badge to view this.", "badges": [], "created_at": "2025-07-02T07:45:00.710-04:00", "updated_at": "2025-07-06T14:15:26.664-04:00", "avatar": "https://secure.gravatar.com/avatar/422fd40e4e04f6944fb080935c5be8a6.jpg?s=512&d=https%3A%2F%2Fa.slack-edge.com%2Fdf10d%2Fimg%2Favatars%2Fava_0002-512.png", "custom_css": null}, {"id": 14202, "slack_id": "U07VB636GQH", "display_name": "fe4rlisa", "bio": null, "projects_count": 0, "devlogs_count": 0, "votes_count": 0, "ships_count": 0, "projects": [], "coding_time_seconds": 0, "coding_time_seconds_today": 0, "balance": "You need to have a pocket watcher badge to view this.", "badges": [], "created_at": "2025-07-02T07:45:02.470-04:00", "updated_at": "2025-07-03T20:10:39.754-04:00", "avatar": "https://avatars.slack-edge.com/2024-11-08/8001419298437_c712ced617595de05dbe_original.jpg", "custom_css": null}, {"id": 14203, "slack_id": "U0925Q3PB0Q", "display_name": "Eucatastrophe", "bio": "People of Earth, your attention please.This is Prostetnic Vogon Jeltz of the Galactic Hyperspace Planning Council.As you will no doubt be aware, the plans for development of the outlying regions of the Galaxy require the building of a hyperspatial express route through your star system, and, regrettably your planet is one of those scheduled for demolition. The process will take slightly less than two of your Earth minutes. Thank you.\r\n\r\nWHy do I have (gulp) 170 hours? Basically this summer I have nothing to do. So when I'm not taking a walk or being in my imaginary world, I make code things", "projects_count": 7, "devlogs_count": 41, "votes_count": 111, "ships_count": 5, "projects": [{"id": 5460, "title": "sciolyskillz", "devlogs_count": 22, "created_at": "2025-07-05T12:45:19.389-04:00"}, {"id": 13615, "title": "the wiggling wigglewoods!!!!!!!", "devlogs_count": 0, "created_at": "2025-09-21T00:31:14.005-04:00"}, {"id": 13691, "title": "existential", "devlogs_count": 0, "created_at": "2025-09-23T01:49:41.791-04:00"}, {"id": 12695, "title": "retroweb site", "devlogs_count": 9, "created_at": "2025-09-01T03:19:21.654-04:00"}, {"id": 10488, "title": "marbles", "devlogs_count": 1, "created_at": "2025-08-07T12:57:52.317-04:00"}, {"id": 10701, "title": "inconspicuous authorization a 5 minutes ish game ", "devlogs_count": 4, "created_at": "2025-08-09T20:50:08.094-04:00"}, {"id": 10434, "title": "sands", "devlogs_count": 3, "created_at": "2025-08-07T01:00:29.421-04:00"}], "coding_time_seconds": 623371, "coding_time_seconds_today": 0, "balance": "You need to have a pocket watcher badge to view this.", "badges": [{"name": "Maiden Voyage", "text": "you shipped your first project! the journey begins...", "icon": "\ud83d\udea2"}, {"name": "Graphic Design is My Passion", "text": "Oh God How Did This Get Here I Am Not Good With Computer", "icon": "\ud83c\udfa8"}, {"name": "Yapper I", "text": "Posted 10 comments on devlogs.", "icon": "\ud83d\udcac"}, {"name": "Ballot Stuffer", "text": "vote 100 times.", "icon": "https://summer.hackclub.com/assets/i_voted-bf851b48.png"}], "created_at": "2025-07-02T07:48:25.549-04:00", "updated_at": "2025-09-10T22:58:14.870-04:00", "avatar": "https://avatars.slack-edge.com/2025-08-13/9338344344199_6ff1104a4cc33a12d28b_original.jpg", "custom_css": "h3 { font-size: 30px; color: cyan;}\r\n\r\n.space-y-6 {\r\n}\r\n\r\n.card-with-gradient {\r\nbackground-color: black; !important\r\n} \r\n\r\nh3::after {\r\n  content: \"\";\r\nz-index: 99999;\r\n  position: absolute;\r\n  top: 30px;\r\nopacity: 0.5;\r\n  left:0;\r\nopacity: 0.5;\r\n  filter: drop-shadow(0 0 6px cyan);\r\n  width: 100px;\r\n  height: 100px;\r\n  background-image: url('https://media.tenor.com/NnQyCt_FdQgAAAAi/hatsune-miku-anime.gif');\r\n\r\n  background-size: cover;\r\n  background-repeat: no-repeat;\r\n  pointer-events: none;\r\n}\r\n\r\n.profile-stat { border: 5px dashed orange; }\r\n\r\n.div { font-family: \"Comic Sans MS\", \"Comic Sans\", cursive; }\r\n\r\n.w-6.h-6.mr-1  {\r\ntransform-origin: center;\r\n  animation: spinScale3D 1s infinite linear, glowFlicker 0.3s infinite alternate;\r\n  filter: filter: drop-shadow(0 0 6px cyan);\r\n}\r\n\r\n\r\nsvg { background-color: transparent}\r\n.grid { background-color: transparent}\r\n.ml-4 {\r\n  border: 12px dotted blue;\r\n  position: relative;\r\n  animation: borderSpin 3s ease-in-out infinite alternate, borderColorChange 5s linear infinite;\r\n}\r\n\r\n@keyframes borderSpin {\r\n  0%   { transform: rotate(0deg); }\r\n  50%  { transform: rotate(10deg); }\r\n  100% { transform: rotate(0deg); }\r\n}\r\n\r\n@keyframes borderColorChange {\r\n  0%   { border-color: blue; }\r\n  25%  { border-color: magenta; }\r\n  75%  { border-color: yellow; }\r\n  100% { border-color: blue; }\r\n}\r\n\r\n.ml-4::after {\r\n  content: '';\r\n  position: absolute;\r\n  top: -50px;   \r\n  right: -50px; \r\n  width: 200px; \r\n  height: 200px\r\n  background: url('https://i.imgur.com/YZ9AbYb.jpeg') center/contain;\r\nz-index: 99999;\r\n  pointer-events: none;\r\n}\r\n\r\n\r\n\r\n.profile-header::before {\r\n  z-index: 99999;\r\n  content: '';\r\n  position: fixed;\r\n  top: 60%;\r\n  left: 25%;\r\n  transform: translateY(-50%);\r\n  width: 4em;\r\n  height: 4em;\r\n  background: url('https://upload.wikimedia.org/wikipedia/commons/thumb/8/81/Twitter_Verified_Badge_Gold.svg/2048px-Twitter_Verified_Badge_Gold.svg.png') no-repeat center;\r\n  background-size: contain;\r\n  transform-origin: center;\r\n  animation: spinScale3D 1s infinite linear, glowFlicker 0.3s infinite alternate;\r\n  filter: drop-shadow(0 0 4px cyan) drop-shadow(0 0 8px magenta);\r\n}\r\n\r\n\r\n.profile-container {\r\n  background-image: url('https://media.tenor.com/ZlYEwEcLfvQAAAAM/1.gif');\r\n  background-repeat: repeat;\r\n  border-radius: 12px;\r\n  animation: spinOnceFromCenter 2s ease-out 1;\r\n  transform-origin: 50% 200px;\r\n  overflow: visible;\r\n}\r\n\r\n\r\n.flex.items-center.justify-between {\r\n  display: inline-block; \r\n}\r\n\r\n.flex.items-center.justify-between span {\r\n  display: inline-block;\r\n  animation: chaoticWave 2s infinite ease-in-out;\r\n  position: relative;\r\n}\r\n\r\n.flex.items-center.justify-between span:nth-child(odd) {\r\n  animation-delay: 0s;\r\n}\r\n.flex.items-center.justify-between span:nth-child(even) {\r\n  animation-delay: 1s;\r\n}\r\n\r\n@keyframes chaoticWave {\r\n  0%, 100% {\r\n    transform: translateY(0);\r\n  }\r\n  25% {\r\n    transform: translateY(-6px);\r\n  }\r\n  50% {\r\n    transform: translateY(4px);\r\n  }\r\n  75% {\r\n    transform: translateY(-3px);\r\n  }\r\n}\r\n\r\n\r\n@keyframes colorShift {\r\n  0% {\r\n    background-position: 0% 50%;\r\n  }\r\n  50% {\r\n    background-position: 100% 50%;\r\n  }\r\n  100% {\r\n    background-position: 0% 50%;\r\n  }\r\n}\r\n\r\n\r\n.activities-list {\r\n  background: repeating-conic-gradient(\r\n  from 0deg,\r\n  magenta,\r\n  cyan 120deg,\r\n  yellow 240deg,\r\n  magenta 360deg\r\n);\r\n\r\n  background-blend-mode: difference;\r\n  padding: 1rem;\r\n  border-radius: 10px;\r\n  color: white;\r\n}\r\n\r\np {\r\n  color: white;\r\n  background: linear-gradient(270deg, blue, purple, violet, magenta);\r\n  background-size: 600% 600%;\r\n  -webkit-background-clip: text;\r\n  background-clip: text;\r\n  color: transparent;\r\n  mix-blend-mode: screen;\r\n  animation: gradientShift 10s ease infinite;\r\n  user-select: none;\r\n}\r\n\r\n@keyframes gradientShift {\r\n  0% {\r\n    background-position: 0% 50%;\r\ntransform: scale(1.2);\r\n  }\r\n  50% {\r\n    background-position: 100% 50%;\r\ntransform: scale(1.35);\r\n  }\r\n  100% {\r\n    background-position: 0% 50%;\r\ntransform: scale(1.2);\r\n  }\r\n}\r\n\r\n.profile-name {\r\n  font-size: 3rem !important;\r\n  font-weight: 900 !important;\r\n  color: transparent !important;\r\n  background: repeating-conic-gradient(\r\n    from 0deg,\r\n    red,\r\n    orange 10deg,\r\n    yellow 30deg,\r\n    green 45deg,\r\n    blue 60deg,\r\n    indigo 75deg,\r\n    violet 90deg\r\n  );\r\n  -webkit-background-clip: text;\r\n  background-clip: text;\r\n  animation: swirlText 7s linear infinite, glitchText 1.5s infinite;\r\n  letter-spacing: 0.2em;\r\n  text-transform: uppercase;\r\n  text-shadow:\r\n    2px 2px 0 #ff0000,\r\n    -2px -2px 0 #00ff00,\r\n    2px -2px 0 #0000ff;\r\n  filter: drop-shadow(0 0 6px cyan);\r\n  user-select: none;\r\n  transform-origin: center;\r\n  display: inline-block;\r\n}\r\n\r\n@keyframes swirlText {\r\n  0% {\r\n    background-position: 0% 50%;\r\n    transform: rotate(0deg) scale(1);\r\n  }\r\n  50% {\r\n    background-position: 100% 50%;\r\n    transform: rotate(360deg) scale(1.3);\r\n  }\r\n  100% {\r\n    background-position: 0% 50%;\r\n    transform: rotate(0deg) scale(1);\r\n  }\r\n}\r\n\r\n@keyframes glitchText {\r\n  0% {\r\n    text-shadow:\r\n      2px 2px 0 #ff0000,\r\n      -2px -2px 0 #00ff00,\r\n      2px -2px 0 #0000ff;\r\n    clip-path: inset(0 0 0 0);\r\n  }\r\n  50% {\r\n    text-shadow:\r\n      -2px -2px 0 #ff00ff,\r\n      2px 2px 0 #00ffff,\r\n      -2px 2px 0 #ffff00;\r\n    clip-path: inset(10% 0 20% 0);\r\n  }\r\n  100% {\r\n    text-shadow:\r\n      2px 2px 0 #ff0000,\r\n      -2px -2px 0 #00ff00,\r\n      2px -2px 0 #0000ff;\r\n    clip-path: inset(0 0 0 0);\r\n  }\r\n}\r\n\r\n\r\n.profile-avatar {\r\n  border-radius: 50%;\r\nwidth: 150px; height: 150px;\r\npadding: 5px;\r\n\r\n  animation: rainbowGlow 3s linear infinite, spin 5s linear infinite;\r\n\r\n  box-shadow: 0 0 15px red;\r\n  display: inline-block;\r\n}\r\n\r\n@keyframes rainbowGlow {\r\n  0%   { box-shadow: 0 0 40px 20px red; }\r\n  16%  { box-shadow: 0 0 40px 20px orange; }\r\n  32%  { box-shadow: 0 0 40px 20px yellow; }\r\n  48%  { box-shadow: 0 0 40px 20px lime; }\r\n  64%  { box-shadow: 0 0 40px 20px cyan; }\r\n  80%  { box-shadow: 0 0 40px 20px magenta; }\r\n  100% { box-shadow: 0 0 40px 20px red; }\r\n}\r\n\r\n\r\n\r\n@keyframes spin {\r\n  from { transform: rotate(0deg); }\r\n  to   { transform: rotate(360deg); }\r\n}\r\n\r\n.profile-bio {\r\n  padding: 10px;\r\n  border: 5px solid transparent;\r\n  position: relative;\r\n  z-index: 1;\r\n  background-color: black; \r\n  color: white;\r\n  border-radius: 10px;\r\n  overflow: hidden;\r\n}\r\n\r\n\r\n.profile-bio::before {\r\n  content: '';\r\n  position: absolute;\r\n  top: -5px;\r\n  left: -5px;\r\n  right: -5px;\r\n  bottom: -5px;\r\n  z-index: -1;\r\n  background: linear-gradient(45deg, red, orange, yellow, green, blue, indigo, violet);\r\n  background-size: 400% 400%;\r\n  animation: borderGlow 6s linear infinite;\r\n  border-radius: 15px;\r\n  filter: blur(5px);\r\n}\r\n\r\n@keyframes borderGlow {\r\n  0% { background-position: 0% 50%; }\r\n  50% { background-position: 100% 50%; }\r\n  100% { background-position: 0% 50%; }\r\n}\r\n\r\n\r\n\r\n\r\n\r\n.profile-name {\r\n  position: relative;\r\n  padding-right:3 em;\r\n}\r\n\r\n\r\n@keyframes spinScale3D {\r\n  0% {\r\n    transform: rotateX(0deg) rotateY(0deg) rotateZ(0deg) scale(2);\r\n  }\r\n  25% {\r\n    transform: rotateX(90deg) rotateY(90deg) rotateZ(45deg) scale(2);\r\n  }\r\n  50% {\r\n    transform: rotateX(180deg) rotateY(180deg) rotateZ(90deg) scale(2);\r\n  }\r\n  75% {\r\n    transform: rotateX(270deg) rotateY(270deg) rotateZ(135deg) scale(2); \r\n  }\r\n  100% {\r\n    transform: rotateX(0deg) rotateY(0deg) rotateZ(360deg) scale(2);\r\n  }\r\n}\r\n\r\n\r\n\r\n\r\n\r\n.profile-header::after {\r\n  z-index: 99999;\r\n  content: '';\r\n  position: fixed;\r\n  top: 50%;\r\n  left: 20%;\r\n  transform: translateY(-50%);\r\n  width: 4em;\r\n  height: 4em;\r\n  background: url('https://upload.wikimedia.org/wikipedia/commons/thumb/e/e4/Twitter_Verified_Badge.svg/512px-Twitter_Verified_Badge.svg.png') no-repeat center;\r\n  background-size: contain;\r\n  transform-origin: center;\r\n  animation: spinScale3D 1s infinite linear, glowFlicker 0.3s infinite alternate;\r\n  filter: drop-shadow(0 0 4px cyan) drop-shadow(0 0 8px magenta);\r\n}\r\n\r\n@keyframes glowFlicker {\r\n  0% {\r\n    filter: drop-shadow(0 0 2px #0ff) drop-shadow(0 0 4px #f0f);\r\n  }\r\n  25% {\r\n    filter: drop-shadow(0 0 6px #0ff) drop-shadow(0 0 12px #ff0);\r\n  }\r\n  50% {\r\n    filter: drop-shadow(0 0 8px #f0f) drop-shadow(0 0 16px #0ff);\r\n  }\r\n  75% {\r\n    filter: drop-shadow(0 0 3px #ff0) drop-shadow(0 0 6px #f0f);\r\n  }\r\n  100% {\r\n    filter: drop-shadow(0 0 5px #0ff) drop-shadow(0 0 10px #ff0);\r\n  }\r\n}\r\n\r\n\r\n\r\n.card-with-gradient {\r\nposition: relative;\r\nz-index: 99999;\r\n  border-radius: 12px;\r\n  background: linear-gradient(270deg, blue, indigo, violet);\r\n  background-size: 1400% 1400%;\r\n  animation: rainbowBG 10s ease infinite;\r\n  transition: transform 0.5s ease;\r\n  transform-origin: top left;\r\n  box-shadow: 0 4px 10px rgba(0,0,0,0.15);\r\n  color: white;\r\n  padding: 1rem;\r\noverflow: visible;  \r\n}\r\n\r\n.card-with-gradient:hover {\r\n  transform: rotate(7.5deg);\r\n}\r\n\r\n\r\n.card-with-gradient::after {\r\n  content: \"\";\r\n  position: absolute;\r\n  top: 30px;\r\n  right: 0;\r\n  width: 100px;\r\n  height: 100px;\r\n  background-image: \r\nurl('https://media.tenor.com/PaYEcjSLOp8AAAAi/miku.gif');\r\n  background-size: cover;\r\n  background-repeat: no-repeat;\r\n  pointer-events: none;\r\n  transform-origin: center;\r\nfilter: drop-shadow(0 0 6px cyan);\r\n}\r\n\r\n\r\n\r\n.profile-stats::after {\r\n  content: '';\r\n  position: fixed;\r\n  top: 50%;\r\n  left: 50%;\r\n  width: 20vw;\r\n  height: 20vw;\r\n  background: \r\nz-index: 999999;\r\nurl('https://media.tenor.com/XWA1LLif2RsAAAAj/cockroach.gif') no-repeat center;\r\n  background-size: contain;\r\n  transform: translate(-50%, -50%);\r\n  animation: spinAround 5s linear infinite;\r\n  z-index: 99999;\r\n  pointer-events: none;\r\n}\r\n\r\n@keyframes spinAround {\r\n  0% {\r\n    transform: rotate(0deg) translateX(20vw) rotate(0deg);\r\n  }\r\n  100% {\r\n    transform: rotate(360deg) translateX(20vw) rotate(-360deg);\r\n  }\r\n}"}, {"id": 14204, "slack_id": "U093ZRV9EG5", "display_name": "RoyBeer", "bio": null, "projects_count": 0, "devlogs_count": 0, "votes_count": 0, "ships_count": 0, "projects": [], "coding_time_seconds": 206231, "coding_time_seconds_today": 0, "balance": "You need to have a pocket watcher badge to view this.", "badges": [], "created_at": "2025-07-02T08:07:37.301-04:00", "updated_at": "2025-07-03T20:10:40.280-04:00", "avatar": "https://secure.gravatar.com/avatar/15c566793fe4047c280f2b2272aee89e.jpg?s=512&d=https%3A%2F%2Fa.slack-edge.com%2Fdf10d%2Fimg%2Favatars%2Fava_0005-512.png", "custom_css": null}, {"id": 14205, "slack_id": "U094PGZCEBS", "display_name": "Breyanna Andrade", "bio": null, "projects_count": 0, "devlogs_count": 0, "votes_count": 0, "ships_count": 0, "projects": [], "coding_time_seconds": 0, "coding_time_seconds_today": 0, "balance": "You need to have a pocket watcher badge to view this.", "badges": [], "created_at": "2025-07-02T08:13:10.321-04:00", "updated_at": "2025-07-04T02:34:35.753-04:00", "avatar": "https://avatars.slack-edge.com/2025-07-02/9130327625171_88f9cab9ea6c03d773a8_original.png", "custom_css": null}, {"id": 14206, "slack_id": "U093UARHZDZ", "display_name": "Arya Pathak", "bio": null, "projects_count": 0, "devlogs_count": 0, "votes_count": 1, "ships_count": 0, "projects": [], "coding_time_seconds": 2892, "coding_time_seconds_today": 0, "balance": "You need to have a pocket watcher badge to view this.", "badges": [], "created_at": "2025-07-02T08:26:39.888-04:00", "updated_at": "2025-07-08T03:14:12.217-04:00", "avatar": "https://avatars.slack-edge.com/2025-07-02/9137819927314_776f4e8c20f121347de2_original.jpg", "custom_css": null}, {"id": 14207, "slack_id": "U094EKWN0L9", "display_name": "Raj", "bio": null, "projects_count": 0, "devlogs_count": 0, "votes_count": 0, "ships_count": 0, "projects": [], "coding_time_seconds": 0, "coding_time_seconds_today": 0, "balance": "You need to have a pocket watcher badge to view this.", "badges": [], "created_at": "2025-07-02T08:42:27.210-04:00", "updated_at": "2025-07-03T20:10:40.852-04:00", "avatar": "https://secure.gravatar.com/avatar/347443a7dc9595f84593a937791c8979.jpg?s=512&d=https%3A%2F%2Fa.slack-edge.com%2Fdf10d%2Fimg%2Favatars%2Fava_0006-512.png", "custom_css": null}, {"id": 14208, "slack_id": "U09401S6C13", "display_name": "Alex", "bio": null, "projects_count": 0, "devlogs_count": 0, "votes_count": 0, "ships_count": 0, "projects": [], "coding_time_seconds": 0, "coding_time_seconds_today": 0, "balance": "You need to have a pocket watcher badge to view this.", "badges": [], "created_at": "2025-07-02T08:46:18.670-04:00", "updated_at": "2025-07-03T20:10:41.113-04:00", "avatar": "https://secure.gravatar.com/avatar/8ccdb7989943c42bf59dc3f22a2ec17b.jpg?s=512&d=https%3A%2F%2Fa.slack-edge.com%2Fdf10d%2Fimg%2Favatars%2Fava_0010-512.png", "custom_css": null}, {"id": 14209, "slack_id": "U093WRPDN94", "display_name": "Philip Yu", "bio": null, "projects_count": 1, "devlogs_count": 5, "votes_count": 9, "ships_count": 1, "projects": [{"id": 5753, "title": "Amazon Scraper", "devlogs_count": 5, "created_at": "2025-07-07T17:46:24.953-04:00"}], "coding_time_seconds": 39755, "coding_time_seconds_today": 0, "balance": "You need to have a pocket watcher badge to view this.", "badges": [{"name": "Maiden Voyage", "text": "you shipped your first project! the journey begins...", "icon": "\ud83d\udea2"}], "created_at": "2025-07-02T08:53:07.850-04:00", "updated_at": "2025-09-10T22:58:15.036-04:00", "avatar": "https://secure.gravatar.com/avatar/f01868a05d6995d706398480cb21c702.jpg?s=512&d=https%3A%2F%2Fa.slack-edge.com%2Fdf10d%2Fimg%2Favatars%2Fava_0018-512.png", "custom_css": null}, {"id": 14210, "slack_id": "U07DY3SJXK3", "display_name": "Qi An", "bio": "", "projects_count": 1, "devlogs_count": 10, "votes_count": 24, "ships_count": 1, "projects": [{"id": 6403, "title": "Waves", "devlogs_count": 8, "created_at": "2025-07-13T03:49:49.064-04:00"}], "coding_time_seconds": 300675, "coding_time_seconds_today": 0, "balance": "You need to have a pocket watcher badge to view this.", "badges": [{"name": "Maiden Voyage", "text": "you shipped your first project! the journey begins...", "icon": "\ud83d\udea2"}], "created_at": "2025-07-02T08:53:14.454-04:00", "updated_at": "2025-09-10T22:58:15.096-04:00", "avatar": "https://avatars.slack-edge.com/2024-07-22/7463988381876_e3f2651d83c44691a73a_original.jpg", "custom_css": null}, {"id": 14211, "slack_id": "U093UFR7FBM", "display_name": "Abdullah Mohammed Helmy", "bio": null, "projects_count": 1, "devlogs_count": 4, "votes_count": 1, "ships_count": 1, "projects": [{"id": 4931, "title": "Calculator", "devlogs_count": 4, "created_at": "2025-07-02T09:16:19.827-04:00"}], "coding_time_seconds": 113293, "coding_time_seconds_today": 0, "balance": "You need to have a pocket watcher badge to view this.", "badges": [{"name": "Maiden Voyage", "text": "you shipped your first project! the journey begins...", "icon": "\ud83d\udea2"}], "created_at": "2025-07-02T08:59:16.900-04:00", "updated_at": "2025-09-10T22:58:15.126-04:00", "avatar": "https://secure.gravatar.com/avatar/79359a55e0b5e33722ff6ac2ffe76cf9.jpg?s=512&d=https%3A%2F%2Fa.slack-edge.com%2Fdf10d%2Fimg%2Favatars%2Fava_0000-512.png", "custom_css": null}, {"id": 14212, "slack_id": "U093N25B85V", "display_name": "Raunak Mandil", "bio": null, "projects_count": 0, "devlogs_count": 0, "votes_count": 0, "ships_count": 0, "projects": [], "coding_time_seconds": 170966, "coding_time_seconds_today": 0, "balance": "You need to have a pocket watcher badge to view this.", "badges": [], "created_at": "2025-07-02T09:02:34.244-04:00", "updated_at": "2025-07-04T20:15:09.062-04:00", "avatar": "https://avatars.slack-edge.com/2025-07-02/9159843590672_ba926c5f7c6eef654064_original.jpg", "custom_css": null}, {"id": 14213, "slack_id": "U094PQWF3A4", "display_name": "Spark", "bio": null, "projects_count": 0, "devlogs_count": 56, "votes_count": 77, "ships_count": 0, "projects": [], "coding_time_seconds": 732755, "coding_time_seconds_today": 0, "balance": "You need to have a pocket watcher badge to view this.", "badges": [{"name": "Maiden Voyage", "text": "you shipped your first project! the journey begins...", "icon": "\ud83d\udea2"}, {"name": "Ballot Stuffer", "text": "vote 100 times.", "icon": "https://summer.hackclub.com/assets/i_voted-bf851b48.png"}, {"name": "Lived Mas", "text": "you know what you did.", "icon": "https://summer.hackclub.com/assets/bong-2a18e50d.png"}, {"name": "Verified", "text": "this user is verified (i.e. gave us $8)", "icon": "https://summer.hackclub.com/assets/verified-c9457a9f.png"}], "created_at": "2025-07-02T09:05:24.945-04:00", "updated_at": "2025-09-10T22:58:15.174-04:00", "avatar": "https://secure.gravatar.com/avatar/4f00906f0bc5107436c52d0f7c350f4c.jpg?s=512&d=https%3A%2F%2Fa.slack-edge.com%2Fdf10d%2Fimg%2Favatars%2Fava_0020-512.png", "custom_css": null}, {"id": 14214, "slack_id": "U083QDBU4UF", "display_name": "Bhavin", "bio": null, "projects_count": 0, "devlogs_count": 0, "votes_count": 0, "ships_count": 0, "projects": [], "coding_time_seconds": 0, "coding_time_seconds_today": 0, "balance": "You need to have a pocket watcher badge to view this.", "badges": [], "created_at": "2025-07-02T09:06:02.361-04:00", "updated_at": "2025-07-03T20:10:42.436-04:00", "avatar": "https://secure.gravatar.com/avatar/8a3931c23d04f8843bd1d0c4412bbf4b.jpg?s=512&d=https%3A%2F%2Fa.slack-edge.com%2Fdf10d%2Fimg%2Favatars%2Fava_0006-512.png", "custom_css": null}, {"id": 14215, "slack_id": "U093WV7LGPQ", "display_name": "Julian Stanislawek", "bio": null, "projects_count": 0, "devlogs_count": 0, "votes_count": 0, "ships_count": 0, "projects": [], "coding_time_seconds": 0, "coding_time_seconds_today": 0, "balance": "You need to have a pocket watcher badge to view this.", "badges": [], "created_at": "2025-07-02T09:09:44.183-04:00", "updated_at": "2025-07-07T02:16:33.646-04:00", "avatar": "https://secure.gravatar.com/avatar/3e2b51ece487bd5e8af087cf57d52d78.jpg?s=512&d=https%3A%2F%2Fa.slack-edge.com%2Fdf10d%2Fimg%2Favatars%2Fava_0017-512.png", "custom_css": null}, {"id": 14216, "slack_id": "U093X14FFTQ", "display_name": "Harsh Yadav", "bio": null, "projects_count": 1, "devlogs_count": 0, "votes_count": 2, "ships_count": 0, "projects": [{"id": 4948, "title": "Campusly", "devlogs_count": 0, "created_at": "2025-07-02T10:54:18.783-04:00"}], "coding_time_seconds": 138280, "coding_time_seconds_today": 0, "balance": "You need to have a pocket watcher badge to view this.", "badges": [], "created_at": "2025-07-02T09:16:50.195-04:00", "updated_at": "2025-07-03T20:10:42.824-04:00", "avatar": "https://secure.gravatar.com/avatar/c09d8a98bcaf3aa85127c2a65c90402f.jpg?s=512&d=https%3A%2F%2Fa.slack-edge.com%2Fdf10d%2Fimg%2Favatars%2Fava_0009-512.png", "custom_css": null}, {"id": 14217, "slack_id": "U093QAPL1EH", "display_name": "Lincoln", "bio": null, "projects_count": 0, "devlogs_count": 0, "votes_count": 0, "ships_count": 0, "projects": [], "coding_time_seconds": 19119, "coding_time_seconds_today": 0, "balance": "You need to have a pocket watcher badge to view this.", "badges": [], "created_at": "2025-07-02T09:21:02.414-04:00", "updated_at": "2025-07-05T02:15:49.385-04:00", "avatar": "https://secure.gravatar.com/avatar/7cd6c9c2143705e4d6908944d3057047.jpg?s=512&d=https%3A%2F%2Fa.slack-edge.com%2Fdf10d%2Fimg%2Favatars%2Fava_0013-512.png", "custom_css": null}, {"id": 14218, "slack_id": "U0925TU9C76", "display_name": "louis7363", "bio": null, "projects_count": 0, "devlogs_count": 0, "votes_count": 0, "ships_count": 0, "projects": [], "coding_time_seconds": 0, "coding_time_seconds_today": 0, "balance": "You need to have a pocket watcher badge to view this.", "badges": [], "created_at": "2025-07-02T09:27:20.499-04:00", "updated_at": "2025-07-03T20:10:43.216-04:00", "avatar": "https://secure.gravatar.com/avatar/5c03a6ea72765dee199a7aaa9ce0e980.jpg?s=512&d=https%3A%2F%2Fa.slack-edge.com%2Fdf10d%2Fimg%2Favatars%2Fava_0022-512.png", "custom_css": null}, {"id": 14219, "slack_id": "U094EU07MUZ", "display_name": "MANISH OMPRAKASH", "bio": null, "projects_count": 0, "devlogs_count": 0, "votes_count": 0, "ships_count": 0, "projects": [], "coding_time_seconds": 1855, "coding_time_seconds_today": 0, "balance": "You need to have a pocket watcher badge to view this.", "badges": [], "created_at": "2025-07-02T09:27:23.673-04:00", "updated_at": "2025-07-03T20:10:43.473-04:00", "avatar": "https://secure.gravatar.com/avatar/7bbfe4f10e916aae8c3c9c3276d4f07a.jpg?s=512&d=https%3A%2F%2Fa.slack-edge.com%2Fdf10d%2Fimg%2Favatars%2Fava_0002-512.png", "custom_css": null}, {"id": 14220, "slack_id": "U087PR1B2HX", "display_name": "Jan", "bio": null, "projects_count": 0, "devlogs_count": 0, "votes_count": 0, "ships_count": 0, "projects": [], "coding_time_seconds": 242625, "coding_time_seconds_today": 0, "balance": "You need to have a pocket watcher badge to view this.", "badges": [], "created_at": "2025-07-02T09:35:49.821-04:00", "updated_at": "2025-09-19T19:14:08.214-04:00", "avatar": "https://avatars.slack-edge.com/2025-09-19/9550546819010_279eebd16cb56a19f5a5_original.png", "custom_css": null}], "pagination": {"page": 711, "pages": 1192, "count": 23828, "items": 20}}