{"users": [{"id": 14241, "slack_id": "U094QNWPV4Y", "display_name": "Shivi Chourey", "bio": null, "projects_count": 1, "devlogs_count": 1, "votes_count": 9, "ships_count": 0, "projects": [{"id": 5856, "title": "National Group of Education", "devlogs_count": 1, "created_at": "2025-07-08T13:54:49.357-04:00"}], "coding_time_seconds": 136723, "coding_time_seconds_today": 0, "balance": "You need to have a pocket watcher badge to view this.", "badges": [], "created_at": "2025-07-02T11:38:33.349-04:00", "updated_at": "2025-07-03T20:10:48.137-04:00", "avatar": "https://secure.gravatar.com/avatar/f0ff8cb5b95cdb497f89d48b174ee738.jpg?s=512&d=https%3A%2F%2Fa.slack-edge.com%2Fdf10d%2Fimg%2Favatars%2Fava_0007-512.png", "custom_css": null}, {"id": 14242, "slack_id": "U07PGSDARM0", "display_name": "Anish Laha", "bio": null, "projects_count": 0, "devlogs_count": 0, "votes_count": 0, "ships_count": 0, "projects": [], "coding_time_seconds": 606359, "coding_time_seconds_today": 0, "balance": "You need to have a pocket watcher badge to view this.", "badges": [], "created_at": "2025-07-02T11:44:44.319-04:00", "updated_at": "2025-07-03T20:10:48.398-04:00", "avatar": "https://secure.gravatar.com/avatar/7cb9a2a14d57dcd69a344fdd994ec532.jpg?s=512&d=https%3A%2F%2Fa.slack-edge.com%2Fdf10d%2Fimg%2Favatars%2Fava_0026-512.png", "custom_css": null}, {"id": 14243, "slack_id": "U09430VB1NE", "display_name": "Ziad W.", "bio": null, "projects_count": 0, "devlogs_count": 0, "votes_count": 0, "ships_count": 0, "projects": [], "coding_time_seconds": 54389, "coding_time_seconds_today": 0, "balance": "You need to have a pocket watcher badge to view this.", "badges": [], "created_at": "2025-07-02T11:49:09.250-04:00", "updated_at": "2025-07-03T20:10:48.670-04:00", "avatar": "https://avatars.slack-edge.com/2025-07-02/9137279305045_f8ac05fc8e16b9a25048_original.png", "custom_css": null}, {"id": 14244, "slack_id": "U093RLJ5LKE", "display_name": "Muhammad Tahir", "bio": null, "projects_count": 0, "devlogs_count": 0, "votes_count": 0, "ships_count": 0, "projects": [], "coding_time_seconds": 0, "coding_time_seconds_today": 0, "balance": "You need to have a pocket watcher badge to view this.", "badges": [], "created_at": "2025-07-02T11:50:21.359-04:00", "updated_at": "2025-07-03T20:10:48.936-04:00", "avatar": "https://secure.gravatar.com/avatar/62a16a3b34aabb09e827d784d029d9a7.jpg?s=512&d=https%3A%2F%2Fa.slack-edge.com%2Fdf10d%2Fimg%2Favatars%2Fava_0013-512.png", "custom_css": null}, {"id": 14245, "slack_id": "U094N2ZQQHW", "display_name": "Vaishali Kadam", "bio": null, "projects_count": 0, "devlogs_count": 0, "votes_count": 0, "ships_count": 0, "projects": [], "coding_time_seconds": 120023, "coding_time_seconds_today": 0, "balance": "You need to have a pocket watcher badge to view this.", "badges": [], "created_at": "2025-07-02T11:51:06.095-04:00", "updated_at": "2025-07-03T20:10:49.226-04:00", "avatar": "https://avatars.slack-edge.com/2025-07-02/9149116654545_44054fdcd413de89b96d_original.png", "custom_css": null}, {"id": 14246, "slack_id": "U094177UZPX", "display_name": "Daniel", "bio": null, "projects_count": 0, "devlogs_count": 0, "votes_count": 0, "ships_count": 0, "projects": [], "coding_time_seconds": 0, "coding_time_seconds_today": 0, "balance": "You need to have a pocket watcher badge to view this.", "badges": [], "created_at": "2025-07-02T11:51:12.750-04:00", "updated_at": "2025-07-03T20:10:49.505-04:00", "avatar": "https://avatars.slack-edge.com/2025-07-02/9134134851238_bc096635047c76b8a76e_original.png", "custom_css": null}, {"id": 14247, "slack_id": "U094FRGE33K", "display_name": "Nakul Singh", "bio": null, "projects_count": 0, "devlogs_count": 0, "votes_count": 0, "ships_count": 0, "projects": [], "coding_time_seconds": 567, "coding_time_seconds_today": 0, "balance": "You need to have a pocket watcher badge to view this.", "badges": [], "created_at": "2025-07-02T11:55:12.108-04:00", "updated_at": "2025-07-03T20:10:49.766-04:00", "avatar": "https://secure.gravatar.com/avatar/03fefdd58ef12354ac5f5b457042ef21.jpg?s=512&d=https%3A%2F%2Fa.slack-edge.com%2Fdf10d%2Fimg%2Favatars%2Fava_0006-512.png", "custom_css": null}, {"id": 14248, "slack_id": "U09449M2YBW", "display_name": "Sanjeevarasa Satkunarasa", "bio": null, "projects_count": 0, "devlogs_count": 0, "votes_count": 0, "ships_count": 0, "projects": [], "coding_time_seconds": 0, "coding_time_seconds_today": 0, "balance": "You need to have a pocket watcher badge to view this.", "badges": [], "created_at": "2025-07-02T11:56:25.131-04:00", "updated_at": "2025-07-03T20:10:50.031-04:00", "avatar": "https://secure.gravatar.com/avatar/4ffcf4240a2bea8fe60ba4975af9f9e0.jpg?s=512&d=https%3A%2F%2Fa.slack-edge.com%2Fdf10d%2Fimg%2Favatars%2Fava_0018-512.png", "custom_css": null}, {"id": 14334, "slack_id": "U08TBE25U82", "display_name": "xXx_n0sc0peZ_xXx", "bio": null, "projects_count": 0, "devlogs_count": 0, "votes_count": 0, "ships_count": 0, "projects": [], "coding_time_seconds": 0, "coding_time_seconds_today": 0, "balance": "You need to have a pocket watcher badge to view this.", "badges": [], "created_at": "2025-07-02T15:23:58.157-04:00", "updated_at": "2025-08-22T11:25:34.337-04:00", "avatar": "https://avatars.slack-edge.com/2025-05-23/8936499814195_6a3b444e4bdfa7941f98_original.jpg", "custom_css": null}, {"id": 14335, "slack_id": "U093WPSQ8SF", "display_name": "Maximilian Seiler", "bio": "", "projects_count": 2, "devlogs_count": 2, "votes_count": 2, "ships_count": 0, "projects": [{"id": 5202, "title": "Graviscape", "devlogs_count": 1, "created_at": "2025-07-03T17:33:28.046-04:00"}, {"id": 6915, "title": "Personal Portfolio", "devlogs_count": 1, "created_at": "2025-07-17T10:27:16.975-04:00"}], "coding_time_seconds": 184393, "coding_time_seconds_today": 0, "balance": "You need to have a pocket watcher badge to view this.", "badges": [], "created_at": "2025-07-02T15:24:49.920-04:00", "updated_at": "2025-08-18T17:40:51.887-04:00", "avatar": "https://avatars.slack-edge.com/2025-07-02/9135361777318_23cd91852371e866b5c1_original.jpg", "custom_css": null}, {"id": 14336, "slack_id": "U0942ECGYRK", "display_name": "jorrrz", "bio": null, "projects_count": 0, "devlogs_count": 0, "votes_count": 0, "ships_count": 0, "projects": [], "coding_time_seconds": 0, "coding_time_seconds_today": 0, "balance": "You need to have a pocket watcher badge to view this.", "badges": [], "created_at": "2025-07-02T15:26:18.478-04:00", "updated_at": "2025-07-03T22:05:25.790-04:00", "avatar": "https://secure.gravatar.com/avatar/3bfd4e8a1e525860c0041fea4b657658.jpg?s=512&d=https%3A%2F%2Fa.slack-edge.com%2Fdf10d%2Fimg%2Favatars%2Fava_0014-512.png", "custom_css": null}, {"id": 14337, "slack_id": "U070QUER659", "display_name": "Peter", "bio": null, "projects_count": 0, "devlogs_count": 0, "votes_count": 0, "ships_count": 0, "projects": [], "coding_time_seconds": 0, "coding_time_seconds_today": 0, "balance": "You need to have a pocket watcher badge to view this.", "badges": [], "created_at": "2025-07-02T15:28:57.732-04:00", "updated_at": "2025-07-03T20:10:50.820-04:00", "avatar": "https://secure.gravatar.com/avatar/e4a6276b45584ce1252e5a463ce7f850.jpg?s=512&d=https%3A%2F%2Fa.slack-edge.com%2Fdf10d%2Fimg%2Favatars%2Fava_0009-512.png", "custom_css": null}, {"id": 14338, "slack_id": "U091UV9NEAG", "display_name": "Lorencs Meijers", "bio": null, "projects_count": 0, "devlogs_count": 0, "votes_count": 0, "ships_count": 0, "projects": [], "coding_time_seconds": 36073, "coding_time_seconds_today": 0, "balance": "You need to have a pocket watcher badge to view this.", "badges": [], "created_at": "2025-07-02T15:42:57.506-04:00", "updated_at": "2025-08-07T02:41:06.059-04:00", "avatar": "https://secure.gravatar.com/avatar/e81e6cb3966d84d6b91391fac08c54f0.jpg?s=512&d=https%3A%2F%2Fa.slack-edge.com%2Fdf10d%2Fimg%2Favatars%2Fava_0011-512.png", "custom_css": null}, {"id": 14339, "slack_id": "U093ZDHRWB0", "display_name": "ABC00012345", "bio": null, "projects_count": 2, "devlogs_count": 4, "votes_count": 18, "ships_count": 1, "projects": [{"id": 5173, "title": "3drender in terminal", "devlogs_count": 2, "created_at": "2025-07-03T15:34:00.211-04:00"}, {"id": 5482, "title": "NESEMU", "devlogs_count": 2, "created_at": "2025-07-05T15:19:28.893-04:00"}], "coding_time_seconds": 176245, "coding_time_seconds_today": 0, "balance": "You need to have a pocket watcher badge to view this.", "badges": [{"name": "Maiden Voyage", "text": "you shipped your first project! the journey begins...", "icon": "\ud83d\udea2"}], "created_at": "2025-07-02T15:46:24.713-04:00", "updated_at": "2025-09-10T22:58:16.139-04:00", "avatar": "https://secure.gravatar.com/avatar/7773ec30e6bdd86c72b7c646197b4259.jpg?s=512&d=https%3A%2F%2Fa.slack-edge.com%2Fdf10d%2Fimg%2Favatars%2Fava_0012-512.png", "custom_css": null}, {"id": 14340, "slack_id": "U089QTPBYJ0", "display_name": "temidaradev", "bio": null, "projects_count": 6, "devlogs_count": 23, "votes_count": 87, "ships_count": 5, "projects": [{"id": 5948, "title": "Room", "devlogs_count": 1, "created_at": "2025-07-09T10:25:53.265-04:00"}, {"id": 12934, "title": "NeuralRust", "devlogs_count": 2, "created_at": "2025-09-05T15:34:15.499-04:00"}, {"id": 8100, "title": "P2P Messaging App", "devlogs_count": 9, "created_at": "2025-07-24T16:04:40.514-04:00"}, {"id": 5002, "title": "Otori", "devlogs_count": 6, "created_at": "2025-07-02T16:14:14.531-04:00"}, {"id": 12051, "title": "Fight For Union", "devlogs_count": 1, "created_at": "2025-08-22T12:07:21.772-04:00"}, {"id": 12010, "title": "Temidaradev's Personal Website", "devlogs_count": 3, "created_at": "2025-08-22T04:47:35.092-04:00"}], "coding_time_seconds": 554938, "coding_time_seconds_today": 533, "balance": "You need to have a pocket watcher badge to view this.", "badges": [{"name": "Maiden Voyage", "text": "you shipped your first project! the journey begins...", "icon": "\ud83d\udea2"}], "created_at": "2025-07-02T15:49:04.891-04:00", "updated_at": "2025-09-10T22:58:16.172-04:00", "avatar": "https://avatars.slack-edge.com/2025-07-03/9138406944899_8ff0acbf1e9dbedc50d2_original.jpg", "custom_css": null}, {"id": 14341, "slack_id": "U094H3EAW9X", "display_name": "Tanish", "bio": null, "projects_count": 0, "devlogs_count": 0, "votes_count": 0, "ships_count": 0, "projects": [], "coding_time_seconds": 0, "coding_time_seconds_today": 0, "balance": "You need to have a pocket watcher badge to view this.", "badges": [], "created_at": "2025-07-02T15:57:19.795-04:00", "updated_at": "2025-07-04T02:34:39.188-04:00", "avatar": "https://avatars.slack-edge.com/2025-07-03/9153165148913_08a2e944ca80d0cdeab3_original.jpg", "custom_css": null}, {"id": 14342, "slack_id": "U091PBLC1PU", "display_name": "Piyush", "bio": null, "projects_count": 0, "devlogs_count": 0, "votes_count": 0, "ships_count": 0, "projects": [], "coding_time_seconds": 0, "coding_time_seconds_today": 0, "balance": "You need to have a pocket watcher badge to view this.", "badges": [], "created_at": "2025-07-02T15:57:54.770-04:00", "updated_at": "2025-07-04T02:34:39.295-04:00", "avatar": "https://secure.gravatar.com/avatar/1133c63ec098a10175d4b58c35bf01cb.jpg?s=512&d=https%3A%2F%2Fa.slack-edge.com%2Fdf10d%2Fimg%2Favatars%2Fava_0004-512.png", "custom_css": null}, {"id": 14343, "slack_id": "U07ED30Q4LF", "display_name": "Kavin", "bio": null, "projects_count": 0, "devlogs_count": 0, "votes_count": 0, "ships_count": 0, "projects": [], "coding_time_seconds": 32813, "coding_time_seconds_today": 0, "balance": "You need to have a pocket watcher badge to view this.", "badges": [], "created_at": "2025-07-02T16:02:21.994-04:00", "updated_at": "2025-07-03T20:10:52.133-04:00", "avatar": "https://secure.gravatar.com/avatar/baf9561cf4be978e6133cad9d12e6b47.jpg?s=512&d=https%3A%2F%2Fa.slack-edge.com%2Fdf10d%2Fimg%2Favatars%2Fava_0003-512.png", "custom_css": null}, {"id": 14344, "slack_id": "U091QNXN47N", "display_name": "Ethan", "bio": null, "projects_count": 0, "devlogs_count": 0, "votes_count": 0, "ships_count": 0, "projects": [], "coding_time_seconds": 0, "coding_time_seconds_today": 0, "balance": "You need to have a pocket watcher badge to view this.", "badges": [], "created_at": "2025-07-02T16:06:04.079-04:00", "updated_at": "2025-07-04T08:30:57.295-04:00", "avatar": "https://secure.gravatar.com/avatar/926c8ac0584012d33f87c26d643b94f4.jpg?s=512&d=https%3A%2F%2Fa.slack-edge.com%2Fdf10d%2Fimg%2Favatars%2Fava_0013-512.png", "custom_css": null}, {"id": 14345, "slack_id": "U0929A22WKD", "display_name": "Princess Mbamalu", "bio": null, "projects_count": 0, "devlogs_count": 0, "votes_count": 0, "ships_count": 0, "projects": [], "coding_time_seconds": 0, "coding_time_seconds_today": 0, "balance": "You need to have a pocket watcher badge to view this.", "badges": [], "created_at": "2025-07-02T16:11:17.844-04:00", "updated_at": "2025-07-08T18:30:01.680-04:00", "avatar": "https://avatars.slack-edge.com/2025-07-02/9142004210820_3a0326b8c7bf6d6316f7_original.png", "custom_css": null}], "pagination": {"page": 713, "pages": 1192, "count": 23828, "items": 20}}