{"users": [{"id": 14406, "slack_id": "U0943QF9GE6", "display_name": "Yukti", "bio": null, "projects_count": 0, "devlogs_count": 0, "votes_count": 0, "ships_count": 0, "projects": [], "coding_time_seconds": 0, "coding_time_seconds_today": 0, "balance": "You need to have a pocket watcher badge to view this.", "badges": [], "created_at": "2025-07-02T19:37:31.955-04:00", "updated_at": "2025-07-03T20:11:06.600-04:00", "avatar": "https://secure.gravatar.com/avatar/0558d83d6b89d279759a2bc81f39960b.jpg?s=512&d=https%3A%2F%2Fa.slack-edge.com%2Fdf10d%2Fimg%2Favatars%2Fava_0021-512.png", "custom_css": null}, {"id": 14407, "slack_id": "U094GHT0M97", "display_name": "ABC00012345", "bio": null, "projects_count": 0, "devlogs_count": 0, "votes_count": 0, "ships_count": 0, "projects": [], "coding_time_seconds": 0, "coding_time_seconds_today": 0, "balance": "You need to have a pocket watcher badge to view this.", "badges": [], "created_at": "2025-07-02T19:37:35.261-04:00", "updated_at": "2025-07-05T20:16:19.007-04:00", "avatar": "https://secure.gravatar.com/avatar/cdcef8f5ef257de5e9a90ba3058369a3.jpg?s=512&d=https%3A%2F%2Fa.slack-edge.com%2Fdf10d%2Fimg%2Favatars%2Fava_0010-512.png", "custom_css": null}, {"id": 14408, "slack_id": "U093YSKNP2S", "display_name": "Filip Rehacek", "bio": null, "projects_count": 0, "devlogs_count": 0, "votes_count": 0, "ships_count": 0, "projects": [], "coding_time_seconds": 12055, "coding_time_seconds_today": 0, "balance": "You need to have a pocket watcher badge to view this.", "badges": [], "created_at": "2025-07-02T19:37:37.061-04:00", "updated_at": "2025-07-04T08:31:01.444-04:00", "avatar": "https://secure.gravatar.com/avatar/12bea3da0fd52a086158564aa1b0ac45.jpg?s=512&d=https%3A%2F%2Fa.slack-edge.com%2Fdf10d%2Fimg%2Favatars%2Fava_0001-512.png", "custom_css": null}, {"id": 14409, "slack_id": "U093Q463P9D", "display_name": "Bera Alkurdi", "bio": null, "projects_count": 0, "devlogs_count": 0, "votes_count": 0, "ships_count": 0, "projects": [], "coding_time_seconds": 0, "coding_time_seconds_today": 0, "balance": "You need to have a pocket watcher badge to view this.", "badges": [], "created_at": "2025-07-02T19:37:38.767-04:00", "updated_at": "2025-07-03T20:11:07.139-04:00", "avatar": "https://secure.gravatar.com/avatar/81aa85403c457e76e80d2d8cd0bb73d1.jpg?s=512&d=https%3A%2F%2Fa.slack-edge.com%2Fdf10d%2Fimg%2Favatars%2Fava_0012-512.png", "custom_css": null}, {"id": 14410, "slack_id": "U092JEUL2TA", "display_name": "Hamzah Sohail", "bio": null, "projects_count": 1, "devlogs_count": 0, "votes_count": 0, "ships_count": 0, "projects": [{"id": 5410, "title": "Summer Hack Club - Project 1", "devlogs_count": 0, "created_at": "2025-07-05T05:59:23.101-04:00"}], "coding_time_seconds": 1370, "coding_time_seconds_today": 0, "balance": "You need to have a pocket watcher badge to view this.", "badges": [], "created_at": "2025-07-02T19:37:40.096-04:00", "updated_at": "2025-09-06T06:56:47.982-04:00", "avatar": "https://secure.gravatar.com/avatar/b9b54653b4b6ed46d41979e2b8a61b9e.jpg?s=512&d=https%3A%2F%2Fa.slack-edge.com%2Fdf10d%2Fimg%2Favatars%2Fava_0017-512.png", "custom_css": null}, {"id": 14411, "slack_id": "U093WFC4PRR", "display_name": "Sameer pasha", "bio": null, "projects_count": 0, "devlogs_count": 0, "votes_count": 0, "ships_count": 0, "projects": [], "coding_time_seconds": 0, "coding_time_seconds_today": 0, "balance": "You need to have a pocket watcher badge to view this.", "badges": [], "created_at": "2025-07-02T19:37:41.591-04:00", "updated_at": "2025-07-03T20:11:07.655-04:00", "avatar": "https://secure.gravatar.com/avatar/37dd4eb9efe4783520222e3824224f6d.jpg?s=512&d=https%3A%2F%2Fa.slack-edge.com%2Fdf10d%2Fimg%2Favatars%2Fava_0008-512.png", "custom_css": null}, {"id": 14412, "slack_id": "U094RPF5EJU", "display_name": "Dominik Stempel", "bio": null, "projects_count": 0, "devlogs_count": 0, "votes_count": 0, "ships_count": 0, "projects": [], "coding_time_seconds": 0, "coding_time_seconds_today": 0, "balance": "You need to have a pocket watcher badge to view this.", "badges": [], "created_at": "2025-07-02T19:37:42.954-04:00", "updated_at": "2025-07-03T20:11:07.910-04:00", "avatar": "https://avatars.slack-edge.com/2025-07-02/9126298879943_2022620682ba4044bf3c_original.jpg", "custom_css": null}, {"id": 14413, "slack_id": "U0944007CRY", "display_name": "Arabi Sayed", "bio": null, "projects_count": 0, "devlogs_count": 0, "votes_count": 0, "ships_count": 0, "projects": [], "coding_time_seconds": 0, "coding_time_seconds_today": 0, "balance": "You need to have a pocket watcher badge to view this.", "badges": [], "created_at": "2025-07-02T19:37:44.205-04:00", "updated_at": "2025-07-03T20:11:08.175-04:00", "avatar": "https://secure.gravatar.com/avatar/a32a7dd466dd7faebe26c6c4b1a5e6ab.jpg?s=512&d=https%3A%2F%2Fa.slack-edge.com%2Fdf10d%2Fimg%2Favatars%2Fava_0025-512.png", "custom_css": null}, {"id": 14414, "slack_id": "U0943V9KFT4", "display_name": "Kaden Yeung", "bio": null, "projects_count": 0, "devlogs_count": 0, "votes_count": 0, "ships_count": 0, "projects": [], "coding_time_seconds": 0, "coding_time_seconds_today": 0, "balance": "You need to have a pocket watcher badge to view this.", "badges": [], "created_at": "2025-07-02T19:37:45.717-04:00", "updated_at": "2025-07-03T20:11:08.437-04:00", "avatar": "https://secure.gravatar.com/avatar/0a8572b84ec618a0e59e8d5b3689bfe3.jpg?s=512&d=https%3A%2F%2Fa.slack-edge.com%2Fdf10d%2Fimg%2Favatars%2Fava_0017-512.png", "custom_css": null}, {"id": 14415, "slack_id": "U093Z3FKKLN", "display_name": "David Cutlac", "bio": null, "projects_count": 0, "devlogs_count": 0, "votes_count": 0, "ships_count": 0, "projects": [], "coding_time_seconds": 0, "coding_time_seconds_today": 0, "balance": "You need to have a pocket watcher badge to view this.", "badges": [], "created_at": "2025-07-02T19:37:47.097-04:00", "updated_at": "2025-07-24T06:51:40.287-04:00", "avatar": "https://secure.gravatar.com/avatar/bc7bca3f713c5ef96f3d21d4b4eced1c.jpg?s=512&d=https%3A%2F%2Fa.slack-edge.com%2Fdf10d%2Fimg%2Favatars%2Fava_0017-512.png", "custom_css": null}, {"id": 14416, "slack_id": "U094RQS1ZTJ", "display_name": "Noob King", "bio": null, "projects_count": 0, "devlogs_count": 0, "votes_count": 0, "ships_count": 0, "projects": [], "coding_time_seconds": 0, "coding_time_seconds_today": 0, "balance": "You need to have a pocket watcher badge to view this.", "badges": [], "created_at": "2025-07-02T19:37:48.642-04:00", "updated_at": "2025-07-05T14:17:41.980-04:00", "avatar": "https://secure.gravatar.com/avatar/f418dfe53de2b8c8c60d0e2c09a249f5.jpg?s=512&d=https%3A%2F%2Fa.slack-edge.com%2Fdf10d%2Fimg%2Favatars%2Fava_0004-512.png", "custom_css": null}, {"id": 14417, "slack_id": "U094290LWLV", "display_name": "Gk", "bio": null, "projects_count": 0, "devlogs_count": 0, "votes_count": 0, "ships_count": 0, "projects": [], "coding_time_seconds": 0, "coding_time_seconds_today": 0, "balance": "You need to have a pocket watcher badge to view this.", "badges": [], "created_at": "2025-07-02T19:37:49.867-04:00", "updated_at": "2025-07-03T20:11:08.984-04:00", "avatar": "https://secure.gravatar.com/avatar/30f7c75a82a398f4e294f2e90bdf67b7.jpg?s=512&d=https%3A%2F%2Fa.slack-edge.com%2Fdf10d%2Fimg%2Favatars%2Fava_0015-512.png", "custom_css": null}, {"id": 14418, "slack_id": "U09429MGM37", "display_name": "Ayza", "bio": null, "projects_count": 0, "devlogs_count": 0, "votes_count": 0, "ships_count": 0, "projects": [], "coding_time_seconds": 0, "coding_time_seconds_today": 0, "balance": "You need to have a pocket watcher badge to view this.", "badges": [], "created_at": "2025-07-02T19:37:51.141-04:00", "updated_at": "2025-07-03T20:11:09.244-04:00", "avatar": "https://secure.gravatar.com/avatar/7d285e85f8790f42a4649448a69840c7.jpg?s=512&d=https%3A%2F%2Fa.slack-edge.com%2Fdf10d%2Fimg%2Favatars%2Fava_0026-512.png", "custom_css": null}, {"id": 14419, "slack_id": "U094RSML2JU", "display_name": "Toiseo", "bio": null, "projects_count": 0, "devlogs_count": 0, "votes_count": 0, "ships_count": 0, "projects": [], "coding_time_seconds": 0, "coding_time_seconds_today": 0, "balance": "You need to have a pocket watcher badge to view this.", "badges": [], "created_at": "2025-07-02T19:37:52.404-04:00", "updated_at": "2025-07-03T20:11:09.506-04:00", "avatar": "https://secure.gravatar.com/avatar/2d3d739540a0c8c6452cf4db66869481.jpg?s=512&d=https%3A%2F%2Fa.slack-edge.com%2Fdf10d%2Fimg%2Favatars%2Fava_0026-512.png", "custom_css": null}, {"id": 14420, "slack_id": "U09443NHCJE", "display_name": "YASH DUTT SHARMA", "bio": null, "projects_count": 0, "devlogs_count": 0, "votes_count": 0, "ships_count": 0, "projects": [], "coding_time_seconds": 0, "coding_time_seconds_today": 0, "balance": "You need to have a pocket watcher badge to view this.", "badges": [], "created_at": "2025-07-02T19:37:53.714-04:00", "updated_at": "2025-07-05T02:15:57.516-04:00", "avatar": "https://secure.gravatar.com/avatar/fd67cd8e7413924e0013edbf3131342b.jpg?s=512&d=https%3A%2F%2Fa.slack-edge.com%2Fdf10d%2Fimg%2Favatars%2Fava_0001-512.png", "custom_css": null}, {"id": 14421, "slack_id": "U094RU7QFEU", "display_name": "Kush Dutt Sharma", "bio": null, "projects_count": 0, "devlogs_count": 0, "votes_count": 0, "ships_count": 0, "projects": [], "coding_time_seconds": 0, "coding_time_seconds_today": 0, "balance": "You need to have a pocket watcher badge to view this.", "badges": [], "created_at": "2025-07-02T19:37:55.141-04:00", "updated_at": "2025-07-03T20:11:09.921-04:00", "avatar": "https://avatars.slack-edge.com/2025-07-02/9161975832592_1724781d11c1e4af33a0_original.png", "custom_css": null}, {"id": 14422, "slack_id": "U094GSV78PK", "display_name": "Livmoderhj\u00e4lmen", "bio": null, "projects_count": 0, "devlogs_count": 0, "votes_count": 0, "ships_count": 0, "projects": [], "coding_time_seconds": 0, "coding_time_seconds_today": 0, "balance": "You need to have a pocket watcher badge to view this.", "badges": [], "created_at": "2025-07-02T19:37:56.477-04:00", "updated_at": "2025-07-03T20:11:10.191-04:00", "avatar": "https://secure.gravatar.com/avatar/dac42faec7a82d539407e36b6d8a24f9.jpg?s=512&d=https%3A%2F%2Fa.slack-edge.com%2Fdf10d%2Fimg%2Favatars%2Fava_0021-512.png", "custom_css": null}, {"id": 14423, "slack_id": "U093Z97FH7Y", "display_name": "Oden", "bio": null, "projects_count": 1, "devlogs_count": 1, "votes_count": 2, "ships_count": 0, "projects": [{"id": 5269, "title": "HeyMe!", "devlogs_count": 1, "created_at": "2025-07-04T05:58:02.802-04:00"}], "coding_time_seconds": 2700, "coding_time_seconds_today": 0, "balance": "You need to have a pocket watcher badge to view this.", "badges": [], "created_at": "2025-07-02T19:37:57.742-04:00", "updated_at": "2025-07-04T05:03:11.128-04:00", "avatar": "https://secure.gravatar.com/avatar/79e79b3c61adc52b844deeab30c3c861.jpg?s=512&d=https%3A%2F%2Fa.slack-edge.com%2Fdf10d%2Fimg%2Favatars%2Fava_0014-512.png", "custom_css": null}, {"id": 14424, "slack_id": "U094SL10596", "display_name": "rswearingen", "bio": null, "projects_count": 0, "devlogs_count": 0, "votes_count": 0, "ships_count": 0, "projects": [], "coding_time_seconds": 60674, "coding_time_seconds_today": 0, "balance": "You need to have a pocket watcher badge to view this.", "badges": [], "created_at": "2025-07-02T19:46:52.612-04:00", "updated_at": "2025-07-04T22:14:46.915-04:00", "avatar": "https://avatars.slack-edge.com/2025-07-02/9136540964166_0636e2b4cca4619764e4_original.jpg", "custom_css": null}, {"id": 14425, "slack_id": "U094T1GNGG0", "display_name": "Nimay Desai", "bio": null, "projects_count": 0, "devlogs_count": 0, "votes_count": 0, "ships_count": 0, "projects": [], "coding_time_seconds": 0, "coding_time_seconds_today": 0, "balance": "You need to have a pocket watcher badge to view this.", "badges": [], "created_at": "2025-07-02T19:57:07.132-04:00", "updated_at": "2025-07-03T20:11:10.976-04:00", "avatar": "https://avatars.slack-edge.com/2025-07-02/9136472162438_84b89ac93a96f0e9c113_original.png", "custom_css": null}], "pagination": {"page": 717, "pages": 1192, "count": 23828, "items": 20}}