{"users": [{"id": 14426, "slack_id": "U093SB6A58T", "display_name": "Mingy", "bio": null, "projects_count": 0, "devlogs_count": 0, "votes_count": 0, "ships_count": 0, "projects": [], "coding_time_seconds": 15157, "coding_time_seconds_today": 0, "balance": "You need to have a pocket watcher badge to view this.", "badges": [], "created_at": "2025-07-02T20:07:27.098-04:00", "updated_at": "2025-07-03T20:11:11.246-04:00", "avatar": "https://secure.gravatar.com/avatar/1a6468787e96dcdf3cfce3a4efe2f4f2.jpg?s=512&d=https%3A%2F%2Fa.slack-edge.com%2Fdf10d%2Fimg%2Favatars%2Fava_0023-512.png", "custom_css": null}, {"id": 14427, "slack_id": "U07C0UXV16C", "display_name": "mari", "bio": null, "projects_count": 0, "devlogs_count": 0, "votes_count": 0, "ships_count": 0, "projects": [], "coding_time_seconds": 0, "coding_time_seconds_today": 0, "balance": "You need to have a pocket watcher badge to view this.", "badges": [], "created_at": "2025-07-02T20:07:36.526-04:00", "updated_at": "2025-07-03T20:11:11.512-04:00", "avatar": "https://secure.gravatar.com/avatar/1776d823bf8ca34d6988e180edb84ee7.jpg?s=512&d=https%3A%2F%2Fa.slack-edge.com%2Fdf10d%2Fimg%2Favatars%2Fava_0015-512.png", "custom_css": null}, {"id": 14428, "slack_id": "U0946RU1G04", "display_name": "Nimay Desai", "bio": null, "projects_count": 1, "devlogs_count": 1, "votes_count": 1, "ships_count": 0, "projects": [{"id": 6260, "title": "Pitchdeck", "devlogs_count": 1, "created_at": "2025-07-11T16:47:13.751-04:00"}], "coding_time_seconds": 8044, "coding_time_seconds_today": 0, "balance": "You need to have a pocket watcher badge to view this.", "badges": [], "created_at": "2025-07-02T20:09:28.981-04:00", "updated_at": "2025-07-03T20:11:11.772-04:00", "avatar": "https://avatars.slack-edge.com/2025-07-02/9154035102993_809ebd5961c57f0d7e5b_original.jpg", "custom_css": null}, {"id": 14429, "slack_id": "U0940FFQC5C", "display_name": "Plak", "bio": null, "projects_count": 0, "devlogs_count": 0, "votes_count": 0, "ships_count": 0, "projects": [], "coding_time_seconds": 0, "coding_time_seconds_today": 0, "balance": "You need to have a pocket watcher badge to view this.", "badges": [], "created_at": "2025-07-02T20:15:22.482-04:00", "updated_at": "2025-07-03T20:11:12.046-04:00", "avatar": "https://secure.gravatar.com/avatar/0c85d2b3db22799f03308f333ca23ee2.jpg?s=512&d=https%3A%2F%2Fa.slack-edge.com%2Fdf10d%2Fimg%2Favatars%2Fava_0011-512.png", "custom_css": null}, {"id": 14430, "slack_id": "U086SDV57SN", "display_name": "Dr. Jovo", "bio": null, "projects_count": 1, "devlogs_count": 2, "votes_count": 0, "ships_count": 0, "projects": [{"id": 5036, "title": "Falling Through Space", "devlogs_count": 2, "created_at": "2025-07-02T20:38:26.984-04:00"}], "coding_time_seconds": 99871, "coding_time_seconds_today": 0, "balance": "You need to have a pocket watcher badge to view this.", "badges": [], "created_at": "2025-07-02T20:24:30.662-04:00", "updated_at": "2025-08-14T20:08:37.633-04:00", "avatar": "https://avatars.slack-edge.com/2025-07-02/9139100559298_2a08f2d57868ca21b1c2_original.jpg", "custom_css": null}, {"id": 14431, "slack_id": "U0943LFKBK7", "display_name": "edgar salinas", "bio": null, "projects_count": 0, "devlogs_count": 0, "votes_count": 0, "ships_count": 0, "projects": [], "coding_time_seconds": 0, "coding_time_seconds_today": 0, "balance": "You need to have a pocket watcher badge to view this.", "badges": [], "created_at": "2025-07-02T20:43:08.298-04:00", "updated_at": "2025-07-03T20:11:12.476-04:00", "avatar": "https://secure.gravatar.com/avatar/44f560af07ebe0e3732736a5302838be.jpg?s=512&d=https%3A%2F%2Fa.slack-edge.com%2Fdf10d%2Fimg%2Favatars%2Fava_0014-512.png", "custom_css": null}, {"id": 14432, "slack_id": "U094J4577UZ", "display_name": "Raneem Zekeria", "bio": null, "projects_count": 0, "devlogs_count": 0, "votes_count": 0, "ships_count": 0, "projects": [], "coding_time_seconds": 0, "coding_time_seconds_today": 0, "balance": "You need to have a pocket watcher badge to view this.", "badges": [], "created_at": "2025-07-02T20:50:13.592-04:00", "updated_at": "2025-07-03T20:11:12.742-04:00", "avatar": "https://avatars.slack-edge.com/2025-07-02/9141361641938_634fe6c4a16cfe92514c_original.jpg", "custom_css": null}, {"id": 14433, "slack_id": "U0946VDUHN0", "display_name": "catalina", "bio": null, "projects_count": 5, "devlogs_count": 4, "votes_count": 18, "ships_count": 1, "projects": [{"id": 5210, "title": "Create.ly", "devlogs_count": 2, "created_at": "2025-07-03T18:42:35.914-04:00"}, {"id": 5722, "title": "Welcome Discord Bot", "devlogs_count": 0, "created_at": "2025-07-07T13:07:33.197-04:00"}, {"id": 9448, "title": "personal website", "devlogs_count": 0, "created_at": "2025-08-01T09:03:23.040-04:00"}, {"id": 9449, "title": "personal website", "devlogs_count": 1, "created_at": "2025-08-01T09:03:23.093-04:00"}, {"id": 11423, "title": "Cute Calculator", "devlogs_count": 1, "created_at": "2025-08-15T20:10:03.637-04:00"}], "coding_time_seconds": 87308, "coding_time_seconds_today": 0, "balance": "You need to have a pocket watcher badge to view this.", "badges": [{"name": "Maiden Voyage", "text": "you shipped your first project! the journey begins...", "icon": "\ud83d\udea2"}], "created_at": "2025-07-02T20:50:56.102-04:00", "updated_at": "2025-09-10T22:58:18.812-04:00", "avatar": "https://secure.gravatar.com/avatar/67e0c31a486fb9dce07aeb2a35f80ca5.jpg?s=512&d=https%3A%2F%2Fa.slack-edge.com%2Fdf10d%2Fimg%2Favatars%2Fava_0016-512.png", "custom_css": null}, {"id": 14434, "slack_id": "U0947149XC4", "display_name": "Zier Koey", "bio": null, "projects_count": 0, "devlogs_count": 0, "votes_count": 0, "ships_count": 0, "projects": [], "coding_time_seconds": 0, "coding_time_seconds_today": 0, "balance": "You need to have a pocket watcher badge to view this.", "badges": [], "created_at": "2025-07-02T21:00:42.805-04:00", "updated_at": "2025-07-04T02:34:45.568-04:00", "avatar": "https://secure.gravatar.com/avatar/e51f00984c2db49e5e4068cc6343a5da.jpg?s=512&d=https%3A%2F%2Fa.slack-edge.com%2Fdf10d%2Fimg%2Favatars%2Fava_0020-512.png", "custom_css": null}, {"id": 14435, "slack_id": "U0940KYQEPQ", "display_name": "Abin Kark", "bio": null, "projects_count": 0, "devlogs_count": 0, "votes_count": 0, "ships_count": 0, "projects": [], "coding_time_seconds": 66208, "coding_time_seconds_today": 0, "balance": "You need to have a pocket watcher badge to view this.", "badges": [], "created_at": "2025-07-02T21:02:13.307-04:00", "updated_at": "2025-07-04T20:15:18.699-04:00", "avatar": "https://secure.gravatar.com/avatar/4dc788ba274bf451e0f150adc8249500.jpg?s=512&d=https%3A%2F%2Fa.slack-edge.com%2Fdf10d%2Fimg%2Favatars%2Fava_0016-512.png", "custom_css": null}, {"id": 14436, "slack_id": "U07DGFLNRFX", "display_name": "Jordan A", "bio": null, "projects_count": 0, "devlogs_count": 0, "votes_count": 0, "ships_count": 0, "projects": [], "coding_time_seconds": 0, "coding_time_seconds_today": 0, "balance": "You need to have a pocket watcher badge to view this.", "badges": [], "created_at": "2025-07-02T21:06:40.399-04:00", "updated_at": "2025-07-06T14:15:36.058-04:00", "avatar": "https://secure.gravatar.com/avatar/f6e838cce33e0be65a90091381ab0be6.jpg?s=512&d=https%3A%2F%2Fa.slack-edge.com%2Fdf10d%2Fimg%2Favatars%2Fava_0018-512.png", "custom_css": null}, {"id": 14437, "slack_id": "U093Y1Z56Q3", "display_name": "Ansh Abhishek", "bio": null, "projects_count": 0, "devlogs_count": 0, "votes_count": 0, "ships_count": 0, "projects": [], "coding_time_seconds": 0, "coding_time_seconds_today": 0, "balance": "You need to have a pocket watcher badge to view this.", "badges": [], "created_at": "2025-07-02T21:09:06.895-04:00", "updated_at": "2025-07-05T08:16:21.429-04:00", "avatar": "https://avatars.slack-edge.com/2025-07-02/9141421213122_aaa29b6e7b2c8c5783f1_original.png", "custom_css": null}, {"id": 14438, "slack_id": "U07UY7CPZ53", "display_name": "Fox", "bio": null, "projects_count": 2, "devlogs_count": 6, "votes_count": 3, "ships_count": 1, "projects": [{"id": 6758, "title": "Guthrie: A high performance messaging protocol", "devlogs_count": 5, "created_at": "2025-07-15T22:20:55.288-04:00"}, {"id": 13724, "title": "Fox TLS Fingerprinting Filtering", "devlogs_count": 1, "created_at": "2025-09-23T19:17:46.398-04:00"}], "coding_time_seconds": 909297, "coding_time_seconds_today": 1575, "balance": "You need to have a pocket watcher badge to view this.", "badges": [{"name": "Maiden Voyage", "text": "you shipped your first project! the journey begins...", "icon": "\ud83d\udea2"}], "created_at": "2025-07-02T21:09:27.151-04:00", "updated_at": "2025-09-10T22:58:18.946-04:00", "avatar": "https://avatars.slack-edge.com/2024-11-05/7984438397269_91af01c3cfae16d3aee1_original.png", "custom_css": null}, {"id": 14439, "slack_id": "U093KBPQ1AT", "display_name": "Nikhil Tembhe", "bio": null, "projects_count": 0, "devlogs_count": 0, "votes_count": 0, "ships_count": 0, "projects": [], "coding_time_seconds": 0, "coding_time_seconds_today": 0, "balance": "You need to have a pocket watcher badge to view this.", "badges": [], "created_at": "2025-07-02T21:25:30.424-04:00", "updated_at": "2025-07-03T20:11:14.065-04:00", "avatar": "https://secure.gravatar.com/avatar/47961fd4024bca3f5586e5c599755f06.jpg?s=512&d=https%3A%2F%2Fa.slack-edge.com%2Fdf10d%2Fimg%2Favatars%2Fava_0023-512.png", "custom_css": null}, {"id": 14440, "slack_id": "U0943UDPE4D", "display_name": "Lohith Koppula", "bio": null, "projects_count": 0, "devlogs_count": 0, "votes_count": 0, "ships_count": 0, "projects": [], "coding_time_seconds": 0, "coding_time_seconds_today": 0, "balance": "You need to have a pocket watcher badge to view this.", "badges": [], "created_at": "2025-07-02T22:00:18.934-04:00", "updated_at": "2025-07-03T20:11:14.333-04:00", "avatar": "https://secure.gravatar.com/avatar/816c715fde5dc16318d6057cf165795e.jpg?s=512&d=https%3A%2F%2Fa.slack-edge.com%2Fdf10d%2Fimg%2Favatars%2Fava_0000-512.png", "custom_css": null}, {"id": 14441, "slack_id": "U078C8Z9ETG", "display_name": "bobby", "bio": null, "projects_count": 1, "devlogs_count": 3, "votes_count": 7, "ships_count": 0, "projects": [{"id": 5087, "title": "Classani", "devlogs_count": 3, "created_at": "2025-07-03T07:28:39.106-04:00"}], "coding_time_seconds": 95858, "coding_time_seconds_today": 0, "balance": "You need to have a pocket watcher badge to view this.", "badges": [], "created_at": "2025-07-02T22:01:16.695-04:00", "updated_at": "2025-08-09T22:56:27.730-04:00", "avatar": "https://secure.gravatar.com/avatar/d27d660ea75c621094d9b7349be29e48.jpg?s=512&d=https%3A%2F%2Fa.slack-edge.com%2Fdf10d%2Fimg%2Favatars%2Fava_0012-512.png", "custom_css": null}, {"id": 14442, "slack_id": "U09440FFBQD", "display_name": "Sakha Wibisono", "bio": null, "projects_count": 0, "devlogs_count": 0, "votes_count": 0, "ships_count": 0, "projects": [], "coding_time_seconds": 0, "coding_time_seconds_today": 0, "balance": "You need to have a pocket watcher badge to view this.", "badges": [], "created_at": "2025-07-02T22:13:39.711-04:00", "updated_at": "2025-07-03T20:11:14.882-04:00", "avatar": "https://secure.gravatar.com/avatar/a963ef50ff4d27943f4a294e48216992.jpg?s=512&d=https%3A%2F%2Fa.slack-edge.com%2Fdf10d%2Fimg%2Favatars%2Fava_0000-512.png", "custom_css": null}, {"id": 14443, "slack_id": "U084560GUTF", "display_name": "Joseph", "bio": null, "projects_count": 1, "devlogs_count": 0, "votes_count": 1, "ships_count": 0, "projects": [{"id": 5046, "title": "Grind", "devlogs_count": 0, "created_at": "2025-07-02T22:56:04.001-04:00"}], "coding_time_seconds": 72499, "coding_time_seconds_today": 0, "balance": "You need to have a pocket watcher badge to view this.", "badges": [], "created_at": "2025-07-02T22:13:43.990-04:00", "updated_at": "2025-07-03T20:11:15.149-04:00", "avatar": "https://avatars.slack-edge.com/2024-12-09/8156737937553_aa9a8a2f89afa97b3059_original.jpg", "custom_css": null}, {"id": 14444, "slack_id": "U09410TEBHU", "display_name": "krisha", "bio": null, "projects_count": 0, "devlogs_count": 0, "votes_count": 0, "ships_count": 0, "projects": [], "coding_time_seconds": 0, "coding_time_seconds_today": 0, "balance": "You need to have a pocket watcher badge to view this.", "badges": [], "created_at": "2025-07-02T22:52:55.940-04:00", "updated_at": "2025-07-03T20:11:15.407-04:00", "avatar": "https://secure.gravatar.com/avatar/c86897221355e5f535d4d23cf98a3b35.jpg?s=512&d=https%3A%2F%2Fa.slack-edge.com%2Fdf10d%2Fimg%2Favatars%2Fava_0013-512.png", "custom_css": null}, {"id": 14445, "slack_id": "U0941167M38", "display_name": "nadiahna", "bio": null, "projects_count": 0, "devlogs_count": 0, "votes_count": 0, "ships_count": 0, "projects": [], "coding_time_seconds": 0, "coding_time_seconds_today": 0, "balance": "You need to have a pocket watcher badge to view this.", "badges": [], "created_at": "2025-07-02T22:55:03.676-04:00", "updated_at": "2025-07-03T20:11:15.665-04:00", "avatar": "https://secure.gravatar.com/avatar/c0b954315d26dd1d70c92acc8988d335.jpg?s=512&d=https%3A%2F%2Fa.slack-edge.com%2Fdf10d%2Fimg%2Favatars%2Fava_0018-512.png", "custom_css": null}], "pagination": {"page": 718, "pages": 1192, "count": 23828, "items": 20}}