{"users": [{"id": 14446, "slack_id": "U093YDMS0MR", "display_name": "Zain Masood Khan", "bio": null, "projects_count": 0, "devlogs_count": 0, "votes_count": 1, "ships_count": 0, "projects": [], "coding_time_seconds": 411975, "coding_time_seconds_today": 7161, "balance": "You need to have a pocket watcher badge to view this.", "badges": [], "created_at": "2025-07-02T23:21:39.279-04:00", "updated_at": "2025-07-04T08:31:05.275-04:00", "avatar": "https://secure.gravatar.com/avatar/32f4a4177427452e33a49ff37d4eced6.jpg?s=512&d=https%3A%2F%2Fa.slack-edge.com%2Fdf10d%2Fimg%2Favatars%2Fava_0003-512.png", "custom_css": null}, {"id": 14447, "slack_id": "U094JKW4WG1", "display_name": "Faz", "bio": null, "projects_count": 0, "devlogs_count": 0, "votes_count": 0, "ships_count": 0, "projects": [], "coding_time_seconds": 0, "coding_time_seconds_today": 0, "balance": "You need to have a pocket watcher badge to view this.", "badges": [], "created_at": "2025-07-02T23:54:56.863-04:00", "updated_at": "2025-07-03T20:11:16.063-04:00", "avatar": "https://secure.gravatar.com/avatar/6a70258f3c82af3b6a5d7330495243c1.jpg?s=512&d=https%3A%2F%2Fa.slack-edge.com%2Fdf10d%2Fimg%2Favatars%2Fava_0009-512.png", "custom_css": null}, {"id": 14448, "slack_id": "U0944A9KK6Z", "display_name": "L\u00e1zaro KayHack", "bio": null, "projects_count": 0, "devlogs_count": 0, "votes_count": 1, "ships_count": 0, "projects": [], "coding_time_seconds": 461614, "coding_time_seconds_today": 0, "balance": "You need to have a pocket watcher badge to view this.", "badges": [], "created_at": "2025-07-03T00:07:54.913-04:00", "updated_at": "2025-07-12T03:16:39.035-04:00", "avatar": "https://avatars.slack-edge.com/2025-07-12/9185713640501_d21573f40f3a93ee4829_original.png", "custom_css": null}, {"id": 14449, "slack_id": "U094TPEAWKS", "display_name": "Thakur", "bio": null, "projects_count": 0, "devlogs_count": 0, "votes_count": 0, "ships_count": 0, "projects": [], "coding_time_seconds": 121844, "coding_time_seconds_today": 0, "balance": "You need to have a pocket watcher badge to view this.", "badges": [], "created_at": "2025-07-03T00:10:40.011-04:00", "updated_at": "2025-07-03T20:11:16.581-04:00", "avatar": "https://avatars.slack-edge.com/2025-07-03/9140414415301_a99acb8b9f987fde29c2_original.jpg", "custom_css": null}, {"id": 14450, "slack_id": "U093XKQK8P7", "display_name": "Edwin", "bio": null, "projects_count": 0, "devlogs_count": 0, "votes_count": 0, "ships_count": 0, "projects": [], "coding_time_seconds": 0, "coding_time_seconds_today": 0, "balance": "You need to have a pocket watcher badge to view this.", "badges": [], "created_at": "2025-07-03T00:42:37.315-04:00", "updated_at": "2025-07-03T20:11:16.859-04:00", "avatar": "https://secure.gravatar.com/avatar/7aae7aacac1b0d5e5e1b9673c5a87f17.jpg?s=512&d=https%3A%2F%2Fa.slack-edge.com%2Fdf10d%2Fimg%2Favatars%2Fava_0012-512.png", "custom_css": null}, {"id": 14451, "slack_id": "U094TPLNAP2", "display_name": "Riddhi", "bio": null, "projects_count": 1, "devlogs_count": 2, "votes_count": 1, "ships_count": 1, "projects": [{"id": 5060, "title": "MyndReader", "devlogs_count": 2, "created_at": "2025-07-03T01:34:36.213-04:00"}], "coding_time_seconds": 7184, "coding_time_seconds_today": 0, "balance": "You need to have a pocket watcher badge to view this.", "badges": [{"name": "Maiden Voyage", "text": "you shipped your first project! the journey begins...", "icon": "\ud83d\udea2"}], "created_at": "2025-07-03T00:54:14.296-04:00", "updated_at": "2025-09-10T22:58:19.394-04:00", "avatar": "https://secure.gravatar.com/avatar/e7b2aab62028bb9250068449f1969b3e.jpg?s=512&d=https%3A%2F%2Fa.slack-edge.com%2Fdf10d%2Fimg%2Favatars%2Fava_0003-512.png", "custom_css": null}, {"id": 14452, "slack_id": "U0944ER3R4M", "display_name": "Sofiia", "bio": null, "projects_count": 0, "devlogs_count": 0, "votes_count": 0, "ships_count": 0, "projects": [], "coding_time_seconds": 0, "coding_time_seconds_today": 0, "balance": "You need to have a pocket watcher badge to view this.", "badges": [], "created_at": "2025-07-03T00:56:02.129-04:00", "updated_at": "2025-07-03T20:11:17.452-04:00", "avatar": "https://secure.gravatar.com/avatar/be6cd39eb5bdcf24825608a8e12a42b1.jpg?s=512&d=https%3A%2F%2Fa.slack-edge.com%2Fdf10d%2Fimg%2Favatars%2Fava_0014-512.png", "custom_css": null}, {"id": 14453, "slack_id": "U09460YLWF4", "display_name": "Haroon Ahmad", "bio": null, "projects_count": 0, "devlogs_count": 0, "votes_count": 0, "ships_count": 0, "projects": [], "coding_time_seconds": 0, "coding_time_seconds_today": 0, "balance": "You need to have a pocket watcher badge to view this.", "badges": [], "created_at": "2025-07-03T00:56:32.501-04:00", "updated_at": "2025-07-03T20:11:17.711-04:00", "avatar": "https://secure.gravatar.com/avatar/3c3cd50e2e36a5beb1566003d4de7f20.jpg?s=512&d=https%3A%2F%2Fa.slack-edge.com%2Fdf10d%2Fimg%2Favatars%2Fava_0009-512.png", "custom_css": null}, {"id": 14454, "slack_id": "U09461N4VB4", "display_name": "Rahul C", "bio": null, "projects_count": 0, "devlogs_count": 0, "votes_count": 0, "ships_count": 0, "projects": [], "coding_time_seconds": 34170, "coding_time_seconds_today": 0, "balance": "You need to have a pocket watcher badge to view this.", "badges": [], "created_at": "2025-07-03T01:03:24.112-04:00", "updated_at": "2025-07-03T20:11:17.985-04:00", "avatar": "https://secure.gravatar.com/avatar/68794f67c398d13d78122c3ef0dfa5bf.jpg?s=512&d=https%3A%2F%2Fa.slack-edge.com%2Fdf10d%2Fimg%2Favatars%2Fava_0003-512.png", "custom_css": null}, {"id": 14455, "slack_id": "U093YPY9Y59", "display_name": "Michael", "bio": null, "projects_count": 0, "devlogs_count": 0, "votes_count": 0, "ships_count": 0, "projects": [], "coding_time_seconds": 120, "coding_time_seconds_today": 0, "balance": "You need to have a pocket watcher badge to view this.", "badges": [], "created_at": "2025-07-03T01:22:25.122-04:00", "updated_at": "2025-07-03T20:11:18.253-04:00", "avatar": "https://secure.gravatar.com/avatar/38b0e0837e3c0ac1501c38b43d68aa35.jpg?s=512&d=https%3A%2F%2Fa.slack-edge.com%2Fdf10d%2Fimg%2Favatars%2Fava_0004-512.png", "custom_css": null}, {"id": 14456, "slack_id": "U093SNDT4VD", "display_name": "Raheeb Hassan", "bio": null, "projects_count": 0, "devlogs_count": 0, "votes_count": 0, "ships_count": 0, "projects": [], "coding_time_seconds": 7406, "coding_time_seconds_today": 0, "balance": "You need to have a pocket watcher badge to view this.", "badges": [], "created_at": "2025-07-03T01:23:15.211-04:00", "updated_at": "2025-07-03T20:11:18.509-04:00", "avatar": "https://avatars.slack-edge.com/2025-07-02/9143866202084_8fb25f56c8d16e147a18_original.jpg", "custom_css": null}, {"id": 14457, "slack_id": "U0944JVU7NZ", "display_name": "Aaruni", "bio": null, "projects_count": 0, "devlogs_count": 0, "votes_count": 0, "ships_count": 0, "projects": [], "coding_time_seconds": 0, "coding_time_seconds_today": 0, "balance": "You need to have a pocket watcher badge to view this.", "badges": [], "created_at": "2025-07-03T01:37:09.436-04:00", "updated_at": "2025-07-03T20:11:18.778-04:00", "avatar": "https://avatars.slack-edge.com/2025-07-02/9164081483168_1c305297d5fc5f391f21_original.png", "custom_css": null}, {"id": 14458, "slack_id": "U093SR5J3FZ", "display_name": "Garv Mehra", "bio": null, "projects_count": 0, "devlogs_count": 0, "votes_count": 0, "ships_count": 0, "projects": [], "coding_time_seconds": 0, "coding_time_seconds_today": 0, "balance": "You need to have a pocket watcher badge to view this.", "badges": [], "created_at": "2025-07-03T01:51:04.909-04:00", "updated_at": "2025-07-03T20:11:19.061-04:00", "avatar": "https://avatars.slack-edge.com/2025-07-02/9140707451429_62c8a9ecdb1ddad58bde_original.png", "custom_css": null}, {"id": 14459, "slack_id": "U093YT10491", "display_name": "sap", "bio": null, "projects_count": 0, "devlogs_count": 0, "votes_count": 0, "ships_count": 0, "projects": [], "coding_time_seconds": 0, "coding_time_seconds_today": 0, "balance": "You need to have a pocket watcher badge to view this.", "badges": [], "created_at": "2025-07-03T01:53:47.977-04:00", "updated_at": "2025-07-05T02:15:59.949-04:00", "avatar": "https://secure.gravatar.com/avatar/2a26a02dda72fdbf0938e59bbfa2414e.jpg?s=512&d=https%3A%2F%2Fa.slack-edge.com%2Fdf10d%2Fimg%2Favatars%2Fava_0014-512.png", "custom_css": null}, {"id": 14460, "slack_id": "U094667DG9Y", "display_name": "Lasyapriya PSS", "bio": "", "projects_count": 0, "devlogs_count": 0, "votes_count": 1, "ships_count": 0, "projects": [], "coding_time_seconds": 18938, "coding_time_seconds_today": 0, "balance": "You need to have a pocket watcher badge to view this.", "badges": [], "created_at": "2025-07-03T01:57:21.663-04:00", "updated_at": "2025-07-07T12:28:35.150-04:00", "avatar": "https://secure.gravatar.com/avatar/ab9ce612ae5952762ee205d925781685.jpg?s=512&d=https%3A%2F%2Fa.slack-edge.com%2Fdf10d%2Fimg%2Favatars%2Fava_0013-512.png", "custom_css": null}, {"id": 14461, "slack_id": "U07BPPFQFS6", "display_name": "will", "bio": null, "projects_count": 0, "devlogs_count": 0, "votes_count": 0, "ships_count": 0, "projects": [], "coding_time_seconds": 185381, "coding_time_seconds_today": 0, "balance": "You need to have a pocket watcher badge to view this.", "badges": [], "created_at": "2025-07-03T02:26:00.353-04:00", "updated_at": "2025-07-03T20:11:19.602-04:00", "avatar": "https://secure.gravatar.com/avatar/cfda90fdac7239221b10ba6e2cbab629.jpg?s=512&d=https%3A%2F%2Fa.slack-edge.com%2Fdf10d%2Fimg%2Favatars%2Fava_0020-512.png", "custom_css": null}, {"id": 14462, "slack_id": "U094K4W9CLR", "display_name": "Marvs", "bio": null, "projects_count": 0, "devlogs_count": 0, "votes_count": 0, "ships_count": 0, "projects": [], "coding_time_seconds": 0, "coding_time_seconds_today": 0, "balance": "You need to have a pocket watcher badge to view this.", "badges": [], "created_at": "2025-07-03T02:31:07.886-04:00", "updated_at": "2025-07-03T20:11:19.886-04:00", "avatar": "https://secure.gravatar.com/avatar/bff7c2268103eceab8f20af3a604357a.jpg?s=512&d=https%3A%2F%2Fa.slack-edge.com%2Fdf10d%2Fimg%2Favatars%2Fava_0024-512.png", "custom_css": null}, {"id": 14463, "slack_id": "U076WU1KEJG", "display_name": "dean", "bio": null, "projects_count": 1, "devlogs_count": 0, "votes_count": 2, "ships_count": 0, "projects": [{"id": 5128, "title": "Build Cool Shit", "devlogs_count": 0, "created_at": "2025-07-03T11:40:01.792-04:00"}], "coding_time_seconds": 9065, "coding_time_seconds_today": 0, "balance": "You need to have a pocket watcher badge to view this.", "badges": [], "created_at": "2025-07-03T02:37:26.845-04:00", "updated_at": "2025-07-03T20:11:20.143-04:00", "avatar": "https://secure.gravatar.com/avatar/bfcf5054bcf7b2d7201811826e5167cc.jpg?s=512&d=https%3A%2F%2Fa.slack-edge.com%2Fdf10d%2Fimg%2Favatars%2Fava_0019-512.png", "custom_css": null}, {"id": 14464, "slack_id": "U0941PLAHV4", "display_name": "Ranadeep Laskar", "bio": null, "projects_count": 0, "devlogs_count": 0, "votes_count": 0, "ships_count": 0, "projects": [], "coding_time_seconds": 0, "coding_time_seconds_today": 0, "balance": "You need to have a pocket watcher badge to view this.", "badges": [], "created_at": "2025-07-03T02:45:33.693-04:00", "updated_at": "2025-07-04T20:15:20.483-04:00", "avatar": "https://avatars.slack-edge.com/2025-07-02/9137818992422_774b4142d2be1fef3888_original.jpg", "custom_css": null}, {"id": 14465, "slack_id": "U093Z233XMH", "display_name": "mistic", "bio": null, "projects_count": 0, "devlogs_count": 0, "votes_count": 0, "ships_count": 0, "projects": [], "coding_time_seconds": 0, "coding_time_seconds_today": 0, "balance": "You need to have a pocket watcher badge to view this.", "badges": [], "created_at": "2025-07-03T02:46:33.916-04:00", "updated_at": "2025-07-08T03:15:04.160-04:00", "avatar": "https://secure.gravatar.com/avatar/0506cb96ab8c9fa0ad0a33c39305db7f.jpg?s=512&d=https%3A%2F%2Fa.slack-edge.com%2Fdf10d%2Fimg%2Favatars%2Fava_0000-512.png", "custom_css": null}], "pagination": {"page": 719, "pages": 1192, "count": 23828, "items": 20}}