{"users": [{"id": 14466, "slack_id": "U0944SJ538V", "display_name": "Snex", "bio": null, "projects_count": 0, "devlogs_count": 0, "votes_count": 0, "ships_count": 0, "projects": [], "coding_time_seconds": 0, "coding_time_seconds_today": 0, "balance": "You need to have a pocket watcher badge to view this.", "badges": [], "created_at": "2025-07-03T02:48:49.759-04:00", "updated_at": "2025-07-05T13:06:07.895-04:00", "avatar": "https://secure.gravatar.com/avatar/1247ec9c3802774ae3e33aa34544120f.jpg?s=512&d=https%3A%2F%2Fa.slack-edge.com%2Fdf10d%2Fimg%2Favatars%2Fava_0015-512.png", "custom_css": null}, {"id": 14467, "slack_id": "U09487JBJ76", "display_name": "Pavel Nikolaichev", "bio": null, "projects_count": 1, "devlogs_count": 1, "votes_count": 0, "ships_count": 0, "projects": [{"id": 5076, "title": "Artisan Market", "devlogs_count": 1, "created_at": "2025-07-03T04:36:25.223-04:00"}], "coding_time_seconds": 295063, "coding_time_seconds_today": 0, "balance": "You need to have a pocket watcher badge to view this.", "badges": [], "created_at": "2025-07-03T03:09:56.410-04:00", "updated_at": "2025-07-03T22:05:34.754-04:00", "avatar": "https://avatars.slack-edge.com/2025-07-03/9164440360432_f6df023290f1ae388b54_original.png", "custom_css": null}, {"id": 14468, "slack_id": "U09450X20H3", "display_name": "encrypted", "bio": null, "projects_count": 1, "devlogs_count": 1, "votes_count": 0, "ships_count": 0, "projects": [{"id": 5149, "title": "Cameleon S3", "devlogs_count": 1, "created_at": "2025-07-03T13:34:18.061-04:00"}], "coding_time_seconds": 5315, "coding_time_seconds_today": 0, "balance": "You need to have a pocket watcher badge to view this.", "badges": [], "created_at": "2025-07-03T03:10:02.735-04:00", "updated_at": "2025-07-03T20:11:20.954-04:00", "avatar": "https://secure.gravatar.com/avatar/1144af2116a54dcf081726792ee8ff8d.jpg?s=512&d=https%3A%2F%2Fa.slack-edge.com%2Fdf10d%2Fimg%2Favatars%2Fava_0001-512.png", "custom_css": null}, {"id": 14469, "slack_id": "U093T793L8P", "display_name": "Tracy", "bio": null, "projects_count": 0, "devlogs_count": 0, "votes_count": 0, "ships_count": 0, "projects": [], "coding_time_seconds": 0, "coding_time_seconds_today": 0, "balance": "You need to have a pocket watcher badge to view this.", "badges": [], "created_at": "2025-07-03T03:19:27.223-04:00", "updated_at": "2025-07-03T20:11:21.223-04:00", "avatar": "https://secure.gravatar.com/avatar/b5885c7d54b078a4e676c367ea300674.jpg?s=512&d=https%3A%2F%2Fa.slack-edge.com%2Fdf10d%2Fimg%2Favatars%2Fava_0012-512.png", "custom_css": null}, {"id": 14470, "slack_id": "U07UE64UQNA", "display_name": "clevf0", "bio": null, "projects_count": 0, "devlogs_count": 0, "votes_count": 1, "ships_count": 0, "projects": [], "coding_time_seconds": 19096, "coding_time_seconds_today": 0, "balance": "You need to have a pocket watcher badge to view this.", "badges": [], "created_at": "2025-07-03T03:29:05.781-04:00", "updated_at": "2025-07-05T01:55:02.556-04:00", "avatar": "https://secure.gravatar.com/avatar/ced37b80e5b183930afa227d3aee667a.jpg?s=512&d=https%3A%2F%2Fa.slack-edge.com%2Fdf10d%2Fimg%2Favatars%2Fava_0006-512.png", "custom_css": null}, {"id": 14471, "slack_id": "U094KBYPZNV", "display_name": "bovizdb", "bio": null, "projects_count": 2, "devlogs_count": 23, "votes_count": 29, "ships_count": 1, "projects": [{"id": 13478, "title": "CardChess", "devlogs_count": 8, "created_at": "2025-09-17T12:01:13.389-04:00"}, {"id": 9071, "title": "8-ball pool 3D visualizer", "devlogs_count": 15, "created_at": "2025-07-30T13:16:17.252-04:00"}], "coding_time_seconds": 823336, "coding_time_seconds_today": 5393, "balance": "You need to have a pocket watcher badge to view this.", "badges": [{"name": "Maiden Voyage", "text": "you shipped your first project! the journey begins...", "icon": "\ud83d\udea2"}], "created_at": "2025-07-03T03:29:53.965-04:00", "updated_at": "2025-09-10T22:58:19.990-04:00", "avatar": "https://avatars.slack-edge.com/2025-08-01/9305780105633_337ab6ae5133eb1a41e2_original.jpg", "custom_css": null}, {"id": 14472, "slack_id": "U09420T0E5C", "display_name": "Rumaisa Chhapra", "bio": null, "projects_count": 0, "devlogs_count": 0, "votes_count": 0, "ships_count": 0, "projects": [], "coding_time_seconds": 0, "coding_time_seconds_today": 0, "balance": "You need to have a pocket watcher badge to view this.", "badges": [], "created_at": "2025-07-03T03:32:32.806-04:00", "updated_at": "2025-08-11T13:37:30.364-04:00", "avatar": "https://secure.gravatar.com/avatar/d817dd8be74f3ff25e9b778eb62ff279.jpg?s=512&d=https%3A%2F%2Fa.slack-edge.com%2Fdf10d%2Fimg%2Favatars%2Fava_0007-512.png", "custom_css": null}, {"id": 14473, "slack_id": "U093T9H2431", "display_name": "bheemaraya b", "bio": "", "projects_count": 6, "devlogs_count": 26, "votes_count": 61, "ships_count": 5, "projects": [{"id": 13622, "title": "KaZeTab", "devlogs_count": 8, "created_at": "2025-09-21T08:40:45.357-04:00"}, {"id": 11565, "title": "AnimeT", "devlogs_count": 1, "created_at": "2025-08-17T05:39:11.439-04:00"}, {"id": 13065, "title": "Luffy's Treasure Hunt", "devlogs_count": 4, "created_at": "2025-09-08T00:24:33.797-04:00"}, {"id": 13285, "title": "OtakuWalL", "devlogs_count": 10, "created_at": "2025-09-13T10:33:43.363-04:00"}, {"id": 5597, "title": "Password Locker Bot \u2013 Secure Vault in Discord", "devlogs_count": 1, "created_at": "2025-07-06T12:45:36.626-04:00"}, {"id": 6168, "title": "Anime/Movie Bot", "devlogs_count": 1, "created_at": "2025-07-11T03:50:00.645-04:00"}], "coding_time_seconds": 552431, "coding_time_seconds_today": 3425, "balance": "You need to have a pocket watcher badge to view this.", "badges": [{"name": "Maiden Voyage", "text": "you shipped your first project! the journey begins...", "icon": "\ud83d\udea2"}, {"name": "Spider", "text": "this user has a pet!", "icon": "\ud83d\udd77\ufe0f"}, {"name": "Graphic Design is My Passion", "text": "Oh God How Did This Get Here I Am Not Good With Computer", "icon": "\ud83c\udfa8"}], "created_at": "2025-07-03T03:33:45.748-04:00", "updated_at": "2025-09-19T13:22:34.137-04:00", "avatar": "https://avatars.slack-edge.com/2025-07-18/9214772978067_7999eeebe942f298f7c9_original.jpg", "custom_css": "body{\r\n  background-color: #ffbfbf !important;\r\n\r\n}"}, {"id": 14474, "slack_id": "U079Y9MQK8U", "display_name": "wacper", "bio": null, "projects_count": 2, "devlogs_count": 11, "votes_count": 16, "ships_count": 1, "projects": [{"id": 13561, "title": "JotDown", "devlogs_count": 0, "created_at": "2025-09-19T14:23:33.291-04:00"}, {"id": 5081, "title": "Volo System", "devlogs_count": 11, "created_at": "2025-07-03T06:13:06.266-04:00"}], "coding_time_seconds": 119066, "coding_time_seconds_today": 0, "balance": "You need to have a pocket watcher badge to view this.", "badges": [{"name": "Maiden Voyage", "text": "you shipped your first project! the journey begins...", "icon": "\ud83d\udea2"}], "created_at": "2025-07-03T03:38:11.806-04:00", "updated_at": "2025-09-16T11:16:08.876-04:00", "avatar": "https://avatars.slack-edge.com/2025-08-06/9315580930757_63c221d588493608b598_original.jpg", "custom_css": null}, {"id": 14475, "slack_id": "U093ZBN53TM", "display_name": "Tahmeed Ahmad", "bio": null, "projects_count": 0, "devlogs_count": 0, "votes_count": 0, "ships_count": 0, "projects": [], "coding_time_seconds": 0, "coding_time_seconds_today": 0, "balance": "You need to have a pocket watcher badge to view this.", "badges": [], "created_at": "2025-07-03T03:44:06.646-04:00", "updated_at": "2025-07-04T02:34:48.337-04:00", "avatar": "https://avatars.slack-edge.com/2025-07-03/9138105584246_2a3e2a18b26c99fedf63_original.png", "custom_css": null}, {"id": 14476, "slack_id": "U093ZDJSGRH", "display_name": "K DHANESH", "bio": null, "projects_count": 0, "devlogs_count": 0, "votes_count": 0, "ships_count": 0, "projects": [], "coding_time_seconds": 0, "coding_time_seconds_today": 0, "balance": "You need to have a pocket watcher badge to view this.", "badges": [], "created_at": "2025-07-03T03:59:58.722-04:00", "updated_at": "2025-07-03T20:11:22.696-04:00", "avatar": "https://secure.gravatar.com/avatar/614d648a67d2a0270d7488909f99c9a2.jpg?s=512&d=https%3A%2F%2Fa.slack-edge.com%2Fdf10d%2Fimg%2Favatars%2Fava_0012-512.png", "custom_css": null}, {"id": 14477, "slack_id": "U094UKDRCMN", "display_name": "jogang", "bio": null, "projects_count": 0, "devlogs_count": 0, "votes_count": 0, "ships_count": 0, "projects": [], "coding_time_seconds": 23908, "coding_time_seconds_today": 0, "balance": "You need to have a pocket watcher badge to view this.", "badges": [], "created_at": "2025-07-03T04:00:26.519-04:00", "updated_at": "2025-07-03T20:11:22.969-04:00", "avatar": "https://secure.gravatar.com/avatar/a38389cfd0332bc25f1c0a401d25eeb0.jpg?s=512&d=https%3A%2F%2Fa.slack-edge.com%2Fdf10d%2Fimg%2Favatars%2Fava_0005-512.png", "custom_css": null}, {"id": 14478, "slack_id": "U094KAGF5QR", "display_name": "Arpit", "bio": null, "projects_count": 0, "devlogs_count": 0, "votes_count": 0, "ships_count": 0, "projects": [], "coding_time_seconds": 0, "coding_time_seconds_today": 0, "balance": "You need to have a pocket watcher badge to view this.", "badges": [], "created_at": "2025-07-03T04:02:26.990-04:00", "updated_at": "2025-07-05T08:16:24.214-04:00", "avatar": "https://secure.gravatar.com/avatar/a8c1ee6f9523881290956211c7fd70e3.jpg?s=512&d=https%3A%2F%2Fa.slack-edge.com%2Fdf10d%2Fimg%2Favatars%2Fava_0006-512.png", "custom_css": null}, {"id": 14479, "slack_id": "U094KHW44RF", "display_name": "Shamgar David", "bio": null, "projects_count": 0, "devlogs_count": 0, "votes_count": 0, "ships_count": 0, "projects": [], "coding_time_seconds": 0, "coding_time_seconds_today": 0, "balance": "You need to have a pocket watcher badge to view this.", "badges": [], "created_at": "2025-07-03T04:06:08.022-04:00", "updated_at": "2025-07-03T20:11:23.364-04:00", "avatar": "https://secure.gravatar.com/avatar/48264a87681826857c96135e8b872980.jpg?s=512&d=https%3A%2F%2Fa.slack-edge.com%2Fdf10d%2Fimg%2Favatars%2Fava_0006-512.png", "custom_css": null}, {"id": 14480, "slack_id": "U05APP82JMR", "display_name": "Darren Lau", "bio": null, "projects_count": 2, "devlogs_count": 2, "votes_count": 0, "ships_count": 0, "projects": [{"id": 5078, "title": "Dashy", "devlogs_count": 2, "created_at": "2025-07-03T04:59:22.435-04:00"}, {"id": 5247, "title": "Dashy Server Status (Backend)", "devlogs_count": 0, "created_at": "2025-07-04T01:46:55.098-04:00"}], "coding_time_seconds": 12314, "coding_time_seconds_today": 0, "balance": "You need to have a pocket watcher badge to view this.", "badges": [], "created_at": "2025-07-03T04:18:37.585-04:00", "updated_at": "2025-07-03T18:05:43.486-04:00", "avatar": "https://avatars.slack-edge.com/2025-04-13/8757590602497_0526ec11e8f25f77171b_original.png", "custom_css": null}, {"id": 14481, "slack_id": "U093TH9LLKZ", "display_name": "moin", "bio": null, "projects_count": 0, "devlogs_count": 0, "votes_count": 0, "ships_count": 0, "projects": [], "coding_time_seconds": 0, "coding_time_seconds_today": 0, "balance": "You need to have a pocket watcher badge to view this.", "badges": [], "created_at": "2025-07-03T04:24:30.997-04:00", "updated_at": "2025-07-04T08:31:07.596-04:00", "avatar": "https://secure.gravatar.com/avatar/ed97351b6a9c2776dc202c6fc7e3a8c0.jpg?s=512&d=https%3A%2F%2Fa.slack-edge.com%2Fdf10d%2Fimg%2Favatars%2Fava_0002-512.png", "custom_css": null}, {"id": 14482, "slack_id": "U094KK9A0PK", "display_name": "Aryan Jaiswal", "bio": null, "projects_count": 0, "devlogs_count": 0, "votes_count": 0, "ships_count": 0, "projects": [], "coding_time_seconds": 0, "coding_time_seconds_today": 0, "balance": "You need to have a pocket watcher badge to view this.", "badges": [], "created_at": "2025-07-03T04:39:56.509-04:00", "updated_at": "2025-08-01T23:11:37.069-04:00", "avatar": "https://avatars.slack-edge.com/2025-07-07/9158402384324_0b95c38ed983dfb40334_original.jpg", "custom_css": null}, {"id": 14483, "slack_id": "U07FVTUUN8G", "display_name": "Axel Darren Suryanto", "bio": null, "projects_count": 1, "devlogs_count": 1, "votes_count": 1, "ships_count": 0, "projects": [{"id": 6027, "title": "IT List: IT Project Management Web App", "devlogs_count": 1, "created_at": "2025-07-10T04:22:11.645-04:00"}], "coding_time_seconds": 190657, "coding_time_seconds_today": 0, "balance": "You need to have a pocket watcher badge to view this.", "badges": [], "created_at": "2025-07-03T04:40:21.369-04:00", "updated_at": "2025-08-19T23:23:39.856-04:00", "avatar": "https://avatars.slack-edge.com/2025-07-03/9164876001424_08b8ae7279216d51d043_original.png", "custom_css": null}, {"id": 14484, "slack_id": "U0945FHNYTX", "display_name": "Felipe", "bio": null, "projects_count": 0, "devlogs_count": 0, "votes_count": 0, "ships_count": 0, "projects": [], "coding_time_seconds": 5332, "coding_time_seconds_today": 0, "balance": "You need to have a pocket watcher badge to view this.", "badges": [], "created_at": "2025-07-03T04:44:48.894-04:00", "updated_at": "2025-07-03T22:05:35.883-04:00", "avatar": "https://secure.gravatar.com/avatar/441928929cb6e7a306bf2461d26ecff8.jpg?s=512&d=https%3A%2F%2Fa.slack-edge.com%2Fdf10d%2Fimg%2Favatars%2Fava_0001-512.png", "custom_css": null}, {"id": 14485, "slack_id": "U093TMY0ENB", "display_name": "Jigi", "bio": null, "projects_count": 0, "devlogs_count": 0, "votes_count": 0, "ships_count": 0, "projects": [], "coding_time_seconds": 0, "coding_time_seconds_today": 0, "balance": "You need to have a pocket watcher badge to view this.", "badges": [], "created_at": "2025-07-03T04:55:17.942-04:00", "updated_at": "2025-07-03T20:11:24.452-04:00", "avatar": "https://secure.gravatar.com/avatar/47a3ea8bbf855737649fe57e36fcc765.jpg?s=512&d=https%3A%2F%2Fa.slack-edge.com%2Fdf10d%2Fimg%2Favatars%2Fava_0017-512.png", "custom_css": null}], "pagination": {"page": 720, "pages": 1192, "count": 23828, "items": 20}}