{"users": [{"id": 14506, "slack_id": "U0612HPM52R", "display_name": "Gg", "bio": null, "projects_count": 0, "devlogs_count": 0, "votes_count": 0, "ships_count": 0, "projects": [], "coding_time_seconds": 0, "coding_time_seconds_today": 0, "balance": "You need to have a pocket watcher badge to view this.", "badges": [], "created_at": "2025-07-03T09:27:01.009-04:00", "updated_at": "2025-07-04T02:34:50.517-04:00", "avatar": "https://avatars.slack-edge.com/2024-06-28/7353750992836_9bd0bca0491214b757dd_original.jpg", "custom_css": null}, {"id": 14507, "slack_id": "U094M5M203T", "display_name": "vishweshwar", "bio": null, "projects_count": 0, "devlogs_count": 0, "votes_count": 0, "ships_count": 0, "projects": [], "coding_time_seconds": 46250, "coding_time_seconds_today": 0, "balance": "You need to have a pocket watcher badge to view this.", "badges": [], "created_at": "2025-07-03T09:35:21.849-04:00", "updated_at": "2025-07-03T20:11:29.505-04:00", "avatar": "https://secure.gravatar.com/avatar/0dee3f45fd666aa0bd2c74c4ce2eb799.jpg?s=512&d=https%3A%2F%2Fa.slack-edge.com%2Fdf10d%2Fimg%2Favatars%2Fava_0008-512.png", "custom_css": null}, {"id": 14508, "slack_id": "U094A3YTHNY", "display_name": "Reshabh Ohall", "bio": null, "projects_count": 4, "devlogs_count": 2, "votes_count": 10, "ships_count": 0, "projects": [{"id": 6770, "title": "PiBridge", "devlogs_count": 0, "created_at": "2025-07-16T01:08:17.013-04:00"}, {"id": 6771, "title": "connectTo", "devlogs_count": 2, "created_at": "2025-07-16T01:08:19.580-04:00"}, {"id": 13066, "title": "Gamey", "devlogs_count": 0, "created_at": "2025-09-08T01:02:45.328-04:00"}, {"id": 13067, "title": "N@SP", "devlogs_count": 0, "created_at": "2025-09-08T01:08:54.893-04:00"}], "coding_time_seconds": 24322, "coding_time_seconds_today": 0, "balance": "You need to have a pocket watcher badge to view this.", "badges": [], "created_at": "2025-07-03T09:47:53.075-04:00", "updated_at": "2025-08-12T01:08:28.170-04:00", "avatar": "https://secure.gravatar.com/avatar/183df18e24d0e5de22bf8e01c57e81d0.jpg?s=512&d=https%3A%2F%2Fa.slack-edge.com%2Fdf10d%2Fimg%2Favatars%2Fava_0014-512.png", "custom_css": null}, {"id": 14509, "slack_id": "U09471PFXHT", "display_name": "Nitin S", "bio": null, "projects_count": 0, "devlogs_count": 0, "votes_count": 0, "ships_count": 0, "projects": [], "coding_time_seconds": 139, "coding_time_seconds_today": 0, "balance": "You need to have a pocket watcher badge to view this.", "badges": [], "created_at": "2025-07-03T09:48:39.269-04:00", "updated_at": "2025-08-07T09:10:48.503-04:00", "avatar": "https://avatars.slack-edge.com/2025-07-03/9139993089206_82e2e8fcde8826050d59_original.png", "custom_css": null}, {"id": 14510, "slack_id": "U094168A6EP", "display_name": "Adoramis", "bio": null, "projects_count": 0, "devlogs_count": 0, "votes_count": 0, "ships_count": 0, "projects": [], "coding_time_seconds": 0, "coding_time_seconds_today": 0, "balance": "You need to have a pocket watcher badge to view this.", "badges": [], "created_at": "2025-07-03T09:54:11.003-04:00", "updated_at": "2025-07-04T20:15:23.302-04:00", "avatar": "https://secure.gravatar.com/avatar/e233889adda206c16cecf74d9b7d7f72.jpg?s=512&d=https%3A%2F%2Fa.slack-edge.com%2Fdf10d%2Fimg%2Favatars%2Fava_0008-512.png", "custom_css": null}, {"id": 14511, "slack_id": "U078XENBTSM", "display_name": "Arsh", "bio": null, "projects_count": 0, "devlogs_count": 0, "votes_count": 0, "ships_count": 0, "projects": [], "coding_time_seconds": 42, "coding_time_seconds_today": 0, "balance": "You need to have a pocket watcher badge to view this.", "badges": [], "created_at": "2025-07-03T10:01:50.928-04:00", "updated_at": "2025-09-16T01:14:34.151-04:00", "avatar": "https://avatars.slack-edge.com/2025-09-16/9508094061495_8d443c1bc102de78186e_original.png", "custom_css": null}, {"id": 14512, "slack_id": "U094747ES5T", "display_name": "Doruk", "bio": null, "projects_count": 0, "devlogs_count": 0, "votes_count": 0, "ships_count": 0, "projects": [], "coding_time_seconds": 5609, "coding_time_seconds_today": 0, "balance": "You need to have a pocket watcher badge to view this.", "badges": [], "created_at": "2025-07-03T10:02:48.669-04:00", "updated_at": "2025-07-03T20:11:30.577-04:00", "avatar": "https://secure.gravatar.com/avatar/4496d13c3b92d7be9571eb5edde0a0c1.jpg?s=512&d=https%3A%2F%2Fa.slack-edge.com%2Fdf10d%2Fimg%2Favatars%2Fava_0024-512.png", "custom_css": null}, {"id": 14513, "slack_id": "U07UL5PTB27", "display_name": "Bilal Khan", "bio": null, "projects_count": 8, "devlogs_count": 23, "votes_count": 40, "ships_count": 1, "projects": [{"id": 6395, "title": "Roblox Club", "devlogs_count": 0, "created_at": "2025-07-13T02:07:56.330-04:00"}, {"id": 6503, "title": "Jump up", "devlogs_count": 0, "created_at": "2025-07-13T22:54:21.893-04:00"}, {"id": 7100, "title": "Sky Squid Game", "devlogs_count": 0, "created_at": "2025-07-19T01:44:41.557-04:00"}, {"id": 12270, "title": "QuoteMe", "devlogs_count": 6, "created_at": "2025-08-25T05:15:21.534-04:00"}, {"id": 12473, "title": "GhostChat", "devlogs_count": 1, "created_at": "2025-08-28T04:15:39.886-04:00"}, {"id": 12534, "title": "Chess Arena", "devlogs_count": 9, "created_at": "2025-08-29T04:45:26.788-04:00"}, {"id": 13651, "title": "Pixpress", "devlogs_count": 7, "created_at": "2025-09-22T00:31:43.820-04:00"}, {"id": 6026, "title": "Squid Wars", "devlogs_count": 0, "created_at": "2025-07-10T03:28:57.598-04:00"}], "coding_time_seconds": 524929, "coding_time_seconds_today": 9919, "balance": "You need to have a pocket watcher badge to view this.", "badges": [{"name": "Maiden Voyage", "text": "you shipped your first project! the journey begins...", "icon": "\ud83d\udea2"}], "created_at": "2025-07-03T10:06:32.671-04:00", "updated_at": "2025-09-10T22:58:21.398-04:00", "avatar": "https://avatars.slack-edge.com/2025-03-08/8572877095666_71f697384c8ccb3c7187_original.png", "custom_css": null}, {"id": 14514, "slack_id": "U09476LKU0M", "display_name": "Himansh Sharma", "bio": null, "projects_count": 0, "devlogs_count": 0, "votes_count": 0, "ships_count": 0, "projects": [], "coding_time_seconds": 0, "coding_time_seconds_today": 0, "balance": "You need to have a pocket watcher badge to view this.", "badges": [], "created_at": "2025-07-03T10:11:02.513-04:00", "updated_at": "2025-07-06T14:15:41.184-04:00", "avatar": "https://avatars.slack-edge.com/2025-07-03/9140146453782_81fe8668fa1cc6646096_original.jpg", "custom_css": null}, {"id": 14515, "slack_id": "U08SB25QYLV", "display_name": "Anis_0w0", "bio": null, "projects_count": 0, "devlogs_count": 0, "votes_count": 0, "ships_count": 0, "projects": [], "coding_time_seconds": 0, "coding_time_seconds_today": 0, "balance": "You need to have a pocket watcher badge to view this.", "badges": [], "created_at": "2025-07-03T10:27:42.460-04:00", "updated_at": "2025-07-03T22:05:37.889-04:00", "avatar": "https://secure.gravatar.com/avatar/255e88b9f4db3ecbd76e06d1ddde9a99.jpg?s=512&d=https%3A%2F%2Fa.slack-edge.com%2Fdf10d%2Fimg%2Favatars%2Fava_0018-512.png", "custom_css": null}, {"id": 14516, "slack_id": "U086RBDBWG7", "display_name": "Jazzzny", "bio": null, "projects_count": 0, "devlogs_count": 0, "votes_count": 0, "ships_count": 0, "projects": [], "coding_time_seconds": 23517, "coding_time_seconds_today": 0, "balance": "You need to have a pocket watcher badge to view this.", "badges": [], "created_at": "2025-07-03T10:52:09.023-04:00", "updated_at": "2025-07-03T20:11:31.271-04:00", "avatar": "https://secure.gravatar.com/avatar/88595cbbecbd1e90e35dc2979ecbdacc.jpg?s=512&d=https%3A%2F%2Fa.slack-edge.com%2Fdf10d%2Fimg%2Favatars%2Fava_0010-512.png", "custom_css": null}, {"id": 14517, "slack_id": "U0944G2UEP8", "display_name": "Unnati Kishor Girase", "bio": null, "projects_count": 0, "devlogs_count": 0, "votes_count": 0, "ships_count": 0, "projects": [], "coding_time_seconds": 0, "coding_time_seconds_today": 0, "balance": "You need to have a pocket watcher badge to view this.", "badges": [], "created_at": "2025-07-03T11:15:25.750-04:00", "updated_at": "2025-07-03T20:11:31.530-04:00", "avatar": "https://secure.gravatar.com/avatar/acfc5a7b20a027e557af4c8f85e76e4c.jpg?s=512&d=https%3A%2F%2Fa.slack-edge.com%2Fdf10d%2Fimg%2Favatars%2Fava_0001-512.png", "custom_css": null}, {"id": 14518, "slack_id": "U0941PG85C3", "display_name": "Darshan Kishor Girase", "bio": null, "projects_count": 4, "devlogs_count": 0, "votes_count": 1, "ships_count": 0, "projects": [{"id": 5139, "title": "Tic Tac Toe", "devlogs_count": 0, "created_at": "2025-07-03T12:33:02.791-04:00"}, {"id": 5251, "title": "Flappy bird", "devlogs_count": 0, "created_at": "2025-07-04T02:18:25.363-04:00"}, {"id": 5324, "title": "sfdsdfasd", "devlogs_count": 0, "created_at": "2025-07-04T12:50:04.393-04:00"}, {"id": 5322, "title": "unnat", "devlogs_count": 0, "created_at": "2025-07-04T12:38:23.601-04:00"}], "coding_time_seconds": 53254, "coding_time_seconds_today": 0, "balance": "You need to have a pocket watcher badge to view this.", "badges": [], "created_at": "2025-07-03T11:31:27.224-04:00", "updated_at": "2025-07-03T20:11:31.813-04:00", "avatar": "https://secure.gravatar.com/avatar/3156a48453be5f93cbbc612471bf0f73.jpg?s=512&d=https%3A%2F%2Fa.slack-edge.com%2Fdf10d%2Fimg%2Favatars%2Fava_0013-512.png", "custom_css": null}, {"id": 14519, "slack_id": "U0941Q0A63D", "display_name": "Vitor", "bio": null, "projects_count": 0, "devlogs_count": 0, "votes_count": 0, "ships_count": 0, "projects": [], "coding_time_seconds": 0, "coding_time_seconds_today": 0, "balance": "You need to have a pocket watcher badge to view this.", "badges": [], "created_at": "2025-07-03T11:32:07.540-04:00", "updated_at": "2025-07-03T20:11:32.073-04:00", "avatar": "https://secure.gravatar.com/avatar/844d30fdceab0e974c9853829ce78363.jpg?s=512&d=https%3A%2F%2Fa.slack-edge.com%2Fdf10d%2Fimg%2Favatars%2Fava_0002-512.png", "custom_css": null}, {"id": 14520, "slack_id": "U0948QHM57C", "display_name": "Matheus Mello", "bio": null, "projects_count": 0, "devlogs_count": 0, "votes_count": 0, "ships_count": 0, "projects": [], "coding_time_seconds": 0, "coding_time_seconds_today": 0, "balance": "You need to have a pocket watcher badge to view this.", "badges": [], "created_at": "2025-07-03T11:33:45.011-04:00", "updated_at": "2025-07-03T22:05:38.336-04:00", "avatar": "https://avatars.slack-edge.com/2025-07-03/9140685326710_6e52c875801325bf743d_original.png", "custom_css": null}, {"id": 14521, "slack_id": "U094MUCJF3K", "display_name": "winnet101", "bio": null, "projects_count": 2, "devlogs_count": 1, "votes_count": 6, "ships_count": 0, "projects": [{"id": 5178, "title": "Here to Slay", "devlogs_count": 1, "created_at": "2025-07-03T16:14:03.344-04:00"}, {"id": 8011, "title": "SITE-342 SECURE CONSOLE", "devlogs_count": 0, "created_at": "2025-07-24T02:45:41.558-04:00"}], "coding_time_seconds": 170287, "coding_time_seconds_today": 0, "balance": "You need to have a pocket watcher badge to view this.", "badges": [], "created_at": "2025-07-03T11:38:29.495-04:00", "updated_at": "2025-08-19T16:19:59.219-04:00", "avatar": "https://avatars.slack-edge.com/2025-07-03/9145880000978_1bb5fcef95ee048144c3_original.jpg", "custom_css": null}, {"id": 14522, "slack_id": "U0944MCHKJA", "display_name": "Arnav Gupta", "bio": null, "projects_count": 0, "devlogs_count": 0, "votes_count": 0, "ships_count": 0, "projects": [], "coding_time_seconds": 17647, "coding_time_seconds_today": 0, "balance": "You need to have a pocket watcher badge to view this.", "badges": [], "created_at": "2025-07-03T11:45:04.919-04:00", "updated_at": "2025-07-05T02:16:04.228-04:00", "avatar": "https://secure.gravatar.com/avatar/3e5515d961c64acffcee3b83d8b68dd7.jpg?s=512&d=https%3A%2F%2Fa.slack-edge.com%2Fdf10d%2Fimg%2Favatars%2Fava_0004-512.png", "custom_css": null}, {"id": 14523, "slack_id": "U094N0BG38R", "display_name": "Anshika Chauhan", "bio": null, "projects_count": 0, "devlogs_count": 0, "votes_count": 0, "ships_count": 0, "projects": [], "coding_time_seconds": 182, "coding_time_seconds_today": 0, "balance": "You need to have a pocket watcher badge to view this.", "badges": [], "created_at": "2025-07-03T11:50:11.667-04:00", "updated_at": "2025-07-03T20:11:32.878-04:00", "avatar": "https://secure.gravatar.com/avatar/505af8d07045e52f3d53bb4de0271943.jpg?s=512&d=https%3A%2F%2Fa.slack-edge.com%2Fdf10d%2Fimg%2Favatars%2Fava_0007-512.png", "custom_css": null}, {"id": 14524, "slack_id": "U0944PZEK8E", "display_name": "ndayizerapascal", "bio": null, "projects_count": 0, "devlogs_count": 0, "votes_count": 0, "ships_count": 0, "projects": [], "coding_time_seconds": 0, "coding_time_seconds_today": 0, "balance": "You need to have a pocket watcher badge to view this.", "badges": [], "created_at": "2025-07-03T12:00:23.399-04:00", "updated_at": "2025-07-05T08:16:27.006-04:00", "avatar": "https://secure.gravatar.com/avatar/0db72e4be9dde7643a43a6face4ae33c.jpg?s=512&d=https%3A%2F%2Fa.slack-edge.com%2Fdf10d%2Fimg%2Favatars%2Fava_0025-512.png", "custom_css": null}, {"id": 14525, "slack_id": "U094X3V42AU", "display_name": "Harshit", "bio": null, "projects_count": 0, "devlogs_count": 0, "votes_count": 0, "ships_count": 0, "projects": [], "coding_time_seconds": 83426, "coding_time_seconds_today": 0, "balance": "You need to have a pocket watcher badge to view this.", "badges": [], "created_at": "2025-07-03T12:07:18.505-04:00", "updated_at": "2025-07-03T20:11:33.298-04:00", "avatar": "https://secure.gravatar.com/avatar/65ad2308888a8af59f9ed09dc1861122.jpg?s=512&d=https%3A%2F%2Fa.slack-edge.com%2Fdf10d%2Fimg%2Favatars%2Fava_0020-512.png", "custom_css": null}], "pagination": {"page": 722, "pages": 1192, "count": 23828, "items": 20}}