{"users": [{"id": 14526, "slack_id": "U094215SNTD", "display_name": "Connor Johnson", "bio": null, "projects_count": 0, "devlogs_count": 0, "votes_count": 0, "ships_count": 0, "projects": [], "coding_time_seconds": 0, "coding_time_seconds_today": 0, "balance": "You need to have a pocket watcher badge to view this.", "badges": [], "created_at": "2025-07-03T12:11:36.173-04:00", "updated_at": "2025-07-03T20:11:33.557-04:00", "avatar": "https://secure.gravatar.com/avatar/5d0d6f6158dbb23bffb811ce1ebe8e1c.jpg?s=512&d=https%3A%2F%2Fa.slack-edge.com%2Fdf10d%2Fimg%2Favatars%2Fava_0001-512.png", "custom_css": null}, {"id": 14527, "slack_id": "U093WE21AQH", "display_name": "victor", "bio": null, "projects_count": 0, "devlogs_count": 0, "votes_count": 0, "ships_count": 0, "projects": [], "coding_time_seconds": 0, "coding_time_seconds_today": 0, "balance": "You need to have a pocket watcher badge to view this.", "badges": [], "created_at": "2025-07-03T12:18:32.550-04:00", "updated_at": "2025-07-03T20:11:33.823-04:00", "avatar": "https://avatars.slack-edge.com/2025-07-03/9138110223827_ef72d9f066eab03202e5_original.jpg", "custom_css": null}, {"id": 14528, "slack_id": "U094836DBD3", "display_name": "Sachkeerat", "bio": null, "projects_count": 0, "devlogs_count": 0, "votes_count": 1, "ships_count": 0, "projects": [], "coding_time_seconds": 12307, "coding_time_seconds_today": 0, "balance": "You need to have a pocket watcher badge to view this.", "badges": [], "created_at": "2025-07-03T12:35:04.819-04:00", "updated_at": "2025-07-04T02:34:51.919-04:00", "avatar": "https://secure.gravatar.com/avatar/0a2c156cca5a61c1a4724726628891f7.jpg?s=512&d=https%3A%2F%2Fa.slack-edge.com%2Fdf10d%2Fimg%2Favatars%2Fava_0007-512.png", "custom_css": null}, {"id": 14529, "slack_id": "U09483QNTFX", "display_name": "Jonathan", "bio": null, "projects_count": 0, "devlogs_count": 0, "votes_count": 0, "ships_count": 0, "projects": [], "coding_time_seconds": 0, "coding_time_seconds_today": 0, "balance": "You need to have a pocket watcher badge to view this.", "badges": [], "created_at": "2025-07-03T12:38:14.034-04:00", "updated_at": "2025-07-03T20:11:34.212-04:00", "avatar": "https://secure.gravatar.com/avatar/e3dabd5a63028bb59ec4ecceda59507c.jpg?s=512&d=https%3A%2F%2Fa.slack-edge.com%2Fdf10d%2Fimg%2Favatars%2Fava_0020-512.png", "custom_css": null}, {"id": 14530, "slack_id": "U093WAG2RV5", "display_name": "Johan", "bio": null, "projects_count": 0, "devlogs_count": 0, "votes_count": 0, "ships_count": 0, "projects": [], "coding_time_seconds": 0, "coding_time_seconds_today": 0, "balance": "You need to have a pocket watcher badge to view this.", "badges": [], "created_at": "2025-07-03T12:47:07.379-04:00", "updated_at": "2025-07-05T02:16:04.774-04:00", "avatar": "https://avatars.slack-edge.com/2025-07-03/9132371094423_3dda046024c9efa2174c_original.jpg", "custom_css": null}, {"id": 14531, "slack_id": "U07EHKCMWHF", "display_name": "Ace", "bio": null, "projects_count": 0, "devlogs_count": 0, "votes_count": 0, "ships_count": 0, "projects": [], "coding_time_seconds": 0, "coding_time_seconds_today": 0, "balance": "You need to have a pocket watcher badge to view this.", "badges": [], "created_at": "2025-07-03T12:51:11.206-04:00", "updated_at": "2025-07-03T20:11:34.616-04:00", "avatar": "https://avatars.slack-edge.com/2024-08-05/7522852822406_b9c8d88f15e721acf005_original.jpg", "custom_css": null}, {"id": 14532, "slack_id": "U0948542L4V", "display_name": "Dhruv", "bio": null, "projects_count": 0, "devlogs_count": 0, "votes_count": 0, "ships_count": 0, "projects": [], "coding_time_seconds": 0, "coding_time_seconds_today": 0, "balance": "You need to have a pocket watcher badge to view this.", "badges": [], "created_at": "2025-07-03T12:53:26.286-04:00", "updated_at": "2025-07-04T02:34:52.205-04:00", "avatar": "https://secure.gravatar.com/avatar/9d0a7c051693e8c249483c1dc3731ae2.jpg?s=512&d=https%3A%2F%2Fa.slack-edge.com%2Fdf10d%2Fimg%2Favatars%2Fava_0010-512.png", "custom_css": null}, {"id": 14533, "slack_id": "U07ET8QTJV6", "display_name": "9", "bio": null, "projects_count": 2, "devlogs_count": 0, "votes_count": 0, "ships_count": 0, "projects": [{"id": 5162, "title": "flappy radius", "devlogs_count": 0, "created_at": "2025-07-03T14:20:58.516-04:00"}, {"id": 5160, "title": "radius", "devlogs_count": 0, "created_at": "2025-07-03T14:14:08.799-04:00"}], "coding_time_seconds": 41482, "coding_time_seconds_today": 0, "balance": "You need to have a pocket watcher badge to view this.", "badges": [], "created_at": "2025-07-03T13:01:31.599-04:00", "updated_at": "2025-07-03T20:11:35.029-04:00", "avatar": "https://avatars.slack-edge.com/2025-05-25/8972553385584_48046f57b274639f9e99_original.png", "custom_css": null}, {"id": 14534, "slack_id": "U09497ERT34", "display_name": "Sabyr", "bio": null, "projects_count": 0, "devlogs_count": 0, "votes_count": 0, "ships_count": 0, "projects": [], "coding_time_seconds": 149333, "coding_time_seconds_today": 0, "balance": "You need to have a pocket watcher badge to view this.", "badges": [], "created_at": "2025-07-03T13:03:02.069-04:00", "updated_at": "2025-07-03T20:11:35.292-04:00", "avatar": "https://secure.gravatar.com/avatar/2d2e4399b514867dc1f51f7fdfd980a4.jpg?s=512&d=https%3A%2F%2Fa.slack-edge.com%2Fdf10d%2Fimg%2Favatars%2Fava_0011-512.png", "custom_css": null}, {"id": 14535, "slack_id": "U07N7HEJKMF", "display_name": "Bodha", "bio": null, "projects_count": 0, "devlogs_count": 26, "votes_count": 45, "ships_count": 0, "projects": [], "coding_time_seconds": 294113, "coding_time_seconds_today": 0, "balance": "You need to have a pocket watcher badge to view this.", "badges": [{"name": "Maiden Voyage", "text": "you shipped your first project! the journey begins...", "icon": "\ud83d\udea2"}], "created_at": "2025-07-03T13:15:34.902-04:00", "updated_at": "2025-09-10T22:58:21.875-04:00", "avatar": "https://secure.gravatar.com/avatar/58bf9e8293bdcf97dfe8c837a3199ca8.jpg?s=512&d=https%3A%2F%2Fa.slack-edge.com%2Fdf10d%2Fimg%2Favatars%2Fava_0010-512.png", "custom_css": null}, {"id": 14536, "slack_id": "U093WGD79N3", "display_name": "Sarah", "bio": null, "projects_count": 2, "devlogs_count": 3, "votes_count": 0, "ships_count": 0, "projects": [{"id": 9369, "title": "My First Website", "devlogs_count": 0, "created_at": "2025-07-31T21:05:07.680-04:00"}, {"id": 9370, "title": "My First Website", "devlogs_count": 3, "created_at": "2025-07-31T21:05:07.693-04:00"}], "coding_time_seconds": 6796, "coding_time_seconds_today": 0, "balance": "You need to have a pocket watcher badge to view this.", "badges": [], "created_at": "2025-07-03T13:25:43.388-04:00", "updated_at": "2025-08-12T17:21:15.309-04:00", "avatar": "https://avatars.slack-edge.com/2025-07-31/9285462595909_8ea7236d2580c2d77380_original.png", "custom_css": null}, {"id": 14537, "slack_id": "U09451ZMA8N", "display_name": "codewithkin", "bio": null, "projects_count": 0, "devlogs_count": 0, "votes_count": 0, "ships_count": 0, "projects": [], "coding_time_seconds": 0, "coding_time_seconds_today": 0, "balance": "You need to have a pocket watcher badge to view this.", "badges": [], "created_at": "2025-07-03T13:28:17.115-04:00", "updated_at": "2025-07-03T20:11:36.169-04:00", "avatar": "https://secure.gravatar.com/avatar/e43a3b4cbe9404563b9916686a97bdf8.jpg?s=512&d=https%3A%2F%2Fa.slack-edge.com%2Fdf10d%2Fimg%2Favatars%2Fava_0019-512.png", "custom_css": null}, {"id": 14538, "slack_id": "U094NGPSCSD", "display_name": "Deeps", "bio": null, "projects_count": 0, "devlogs_count": 0, "votes_count": 0, "ships_count": 0, "projects": [], "coding_time_seconds": 0, "coding_time_seconds_today": 0, "balance": "You need to have a pocket watcher badge to view this.", "badges": [], "created_at": "2025-07-03T13:28:42.445-04:00", "updated_at": "2025-07-05T14:17:49.791-04:00", "avatar": "https://secure.gravatar.com/avatar/2bb96aa6c1f51683d2b7bc9ec2560468.jpg?s=512&d=https%3A%2F%2Fa.slack-edge.com%2Fdf10d%2Fimg%2Favatars%2Fava_0011-512.png", "custom_css": null}, {"id": 14539, "slack_id": "U093UKX99B6", "display_name": "Thidas Senavirathna", "bio": null, "projects_count": 0, "devlogs_count": 0, "votes_count": 0, "ships_count": 0, "projects": [], "coding_time_seconds": 0, "coding_time_seconds_today": 0, "balance": "You need to have a pocket watcher badge to view this.", "badges": [], "created_at": "2025-07-03T13:33:56.417-04:00", "updated_at": "2025-07-04T02:34:52.725-04:00", "avatar": "https://secure.gravatar.com/avatar/035017d74bed58d97a9fdf18c58ce9f4.jpg?s=512&d=https%3A%2F%2Fa.slack-edge.com%2Fdf10d%2Fimg%2Favatars%2Fava_0020-512.png", "custom_css": null}, {"id": 14540, "slack_id": "U094E3XF1MF", "display_name": "Gurjap Singh", "bio": null, "projects_count": 0, "devlogs_count": 0, "votes_count": 0, "ships_count": 0, "projects": [], "coding_time_seconds": 0, "coding_time_seconds_today": 0, "balance": "You need to have a pocket watcher badge to view this.", "badges": [], "created_at": "2025-07-03T13:39:54.590-04:00", "updated_at": "2025-07-04T20:15:25.541-04:00", "avatar": "https://avatars.slack-edge.com/2025-07-03/9147459927012_14f90b1faf0d1da10045_original.png", "custom_css": null}, {"id": 14541, "slack_id": "U093WK3LH1D", "display_name": "amitesh s", "bio": null, "projects_count": 0, "devlogs_count": 0, "votes_count": 0, "ships_count": 0, "projects": [], "coding_time_seconds": 0, "coding_time_seconds_today": 0, "balance": "You need to have a pocket watcher badge to view this.", "badges": [], "created_at": "2025-07-03T13:41:50.851-04:00", "updated_at": "2025-07-03T20:11:36.825-04:00", "avatar": "https://secure.gravatar.com/avatar/c07bd8e3e4d67c9b3daf4a52d20f8a75.jpg?s=512&d=https%3A%2F%2Fa.slack-edge.com%2Fdf10d%2Fimg%2Favatars%2Fava_0015-512.png", "custom_css": null}, {"id": 14542, "slack_id": "U0949EKC0JW", "display_name": "Ryan Chan", "bio": "Hi, I'm Ryan! I'm a passionate computer programmer, video editor & tennis enthusiast looking to make something cool!", "projects_count": 2, "devlogs_count": 10, "votes_count": 53, "ships_count": 2, "projects": [{"id": 10293, "title": "New York City Public Wifi Finder", "devlogs_count": 6, "created_at": "2025-08-05T15:24:43.987-04:00"}, {"id": 5370, "title": "Ryan's Portfolio", "devlogs_count": 4, "created_at": "2025-07-04T20:58:34.324-04:00"}], "coding_time_seconds": 149142, "coding_time_seconds_today": 0, "balance": "You need to have a pocket watcher badge to view this.", "badges": [{"name": "Maiden Voyage", "text": "you shipped your first project! the journey begins...", "icon": "\ud83d\udea2"}], "created_at": "2025-07-03T13:47:56.424-04:00", "updated_at": "2025-09-10T22:58:22.037-04:00", "avatar": "https://secure.gravatar.com/avatar/b58350d91696be5018444b200414d8eb.jpg?s=512&d=https%3A%2F%2Fa.slack-edge.com%2Fdf10d%2Fimg%2Favatars%2Fava_0024-512.png", "custom_css": null}, {"id": 14543, "slack_id": "U094XLNU1FS", "display_name": "Shaurya", "bio": null, "projects_count": 0, "devlogs_count": 4, "votes_count": 17, "ships_count": 0, "projects": [], "coding_time_seconds": 660205, "coding_time_seconds_today": 0, "balance": "You need to have a pocket watcher badge to view this.", "badges": [{"name": "Maiden Voyage", "text": "you shipped your first project! the journey begins...", "icon": "\ud83d\udea2"}], "created_at": "2025-07-03T13:58:26.220-04:00", "updated_at": "2025-09-10T22:58:22.066-04:00", "avatar": "https://secure.gravatar.com/avatar/03d10504fd8cddbcaf7cc420f899980d.jpg?s=512&d=https%3A%2F%2Fa.slack-edge.com%2Fdf10d%2Fimg%2Favatars%2Fava_0004-512.png", "custom_css": null}, {"id": 14544, "slack_id": "U094BGK5X3N", "display_name": "Aditya Shrivastava", "bio": null, "projects_count": 0, "devlogs_count": 0, "votes_count": 0, "ships_count": 0, "projects": [], "coding_time_seconds": 120, "coding_time_seconds_today": 0, "balance": "You need to have a pocket watcher badge to view this.", "badges": [], "created_at": "2025-07-03T14:04:28.963-04:00", "updated_at": "2025-07-03T20:11:37.620-04:00", "avatar": "https://secure.gravatar.com/avatar/5376139319da18cdc077681fe70e997c.jpg?s=512&d=https%3A%2F%2Fa.slack-edge.com%2Fdf10d%2Fimg%2Favatars%2Fava_0001-512.png", "custom_css": null}, {"id": 14545, "slack_id": "U093WPWC8SK", "display_name": "Ain Shamsudheen", "bio": null, "projects_count": 0, "devlogs_count": 0, "votes_count": 0, "ships_count": 0, "projects": [], "coding_time_seconds": 0, "coding_time_seconds_today": 0, "balance": "You need to have a pocket watcher badge to view this.", "badges": [], "created_at": "2025-07-03T14:15:02.042-04:00", "updated_at": "2025-07-03T20:11:37.894-04:00", "avatar": "https://secure.gravatar.com/avatar/4616f3dc26d78f2b6c2637954a74f6a7.jpg?s=512&d=https%3A%2F%2Fa.slack-edge.com%2Fdf10d%2Fimg%2Favatars%2Fava_0023-512.png", "custom_css": null}], "pagination": {"page": 723, "pages": 1192, "count": 23828, "items": 20}}