{"users": [{"id": 14546, "slack_id": "U094XQGEJ2C", "display_name": "Raiyan Potrick", "bio": null, "projects_count": 0, "devlogs_count": 0, "votes_count": 0, "ships_count": 0, "projects": [], "coding_time_seconds": 0, "coding_time_seconds_today": 0, "balance": "You need to have a pocket watcher badge to view this.", "badges": [], "created_at": "2025-07-03T14:25:41.037-04:00", "updated_at": "2025-07-03T22:05:40.132-04:00", "avatar": "https://secure.gravatar.com/avatar/e6dd42547b366fb9eaf2b9a7817e007b.jpg?s=512&d=https%3A%2F%2Fa.slack-edge.com%2Fdf10d%2Fimg%2Favatars%2Fava_0007-512.png", "custom_css": null}, {"id": 14547, "slack_id": "U0949L02TEW", "display_name": "Atticus Harple", "bio": null, "projects_count": 0, "devlogs_count": 0, "votes_count": 0, "ships_count": 0, "projects": [], "coding_time_seconds": 0, "coding_time_seconds_today": 0, "balance": "You need to have a pocket watcher badge to view this.", "badges": [], "created_at": "2025-07-03T14:29:27.212-04:00", "updated_at": "2025-07-04T08:31:11.871-04:00", "avatar": "https://secure.gravatar.com/avatar/41eeb44a4b62a2113be1ee68e5a619b3.jpg?s=512&d=https%3A%2F%2Fa.slack-edge.com%2Fdf10d%2Fimg%2Favatars%2Fava_0007-512.png", "custom_css": null}, {"id": 14548, "slack_id": "U094NTBR1S5", "display_name": "twonum", "bio": "This is not slack, please see my slack", "projects_count": 3, "devlogs_count": 26, "votes_count": 56, "ships_count": 2, "projects": [{"id": 5731, "title": "twonum.org", "devlogs_count": 20, "created_at": "2025-07-07T15:19:33.985-04:00"}, {"id": 6464, "title": "Multipoint Slideshow Display", "devlogs_count": 0, "created_at": "2025-07-13T14:45:20.405-04:00"}, {"id": 5174, "title": "ClubFeed", "devlogs_count": 6, "created_at": "2025-07-03T15:38:44.400-04:00"}], "coding_time_seconds": 381051, "coding_time_seconds_today": 0, "balance": "You need to have a pocket watcher badge to view this.", "badges": [{"name": "Maiden Voyage", "text": "you shipped your first project! the journey begins...", "icon": "\ud83d\udea2"}], "created_at": "2025-07-03T14:42:40.014-04:00", "updated_at": "2025-09-10T22:58:22.184-04:00", "avatar": "https://avatars.slack-edge.com/2025-07-14/9219968812960_e15ff73a9db35bad16bb_original.png", "custom_css": null}, {"id": 14549, "slack_id": "U094BKXCG92", "display_name": "Samma Aly", "bio": null, "projects_count": 1, "devlogs_count": 1, "votes_count": 3, "ships_count": 1, "projects": [{"id": 13311, "title": "2D platformer", "devlogs_count": 1, "created_at": "2025-09-13T18:01:27.071-04:00"}], "coding_time_seconds": 112560, "coding_time_seconds_today": 0, "balance": "You need to have a pocket watcher badge to view this.", "badges": [{"name": "Maiden Voyage", "text": "you shipped your first project! the journey begins...", "icon": "\ud83d\udea2"}], "created_at": "2025-07-03T14:42:44.186-04:00", "updated_at": "2025-09-13T18:52:31.448-04:00", "avatar": "https://avatars.slack-edge.com/2025-09-08/9478217273413_324b355b293c8f89d49a_original.jpg", "custom_css": null}, {"id": 14550, "slack_id": "U094XT1EN1E", "display_name": "Vighnesh", "bio": null, "projects_count": 0, "devlogs_count": 0, "votes_count": 0, "ships_count": 0, "projects": [], "coding_time_seconds": 0, "coding_time_seconds_today": 0, "balance": "You need to have a pocket watcher badge to view this.", "badges": [], "created_at": "2025-07-03T14:45:30.467-04:00", "updated_at": "2025-07-03T20:11:38.823-04:00", "avatar": "https://secure.gravatar.com/avatar/e51ff771e6e5371f9a39eb21743ddb14.jpg?s=512&d=https%3A%2F%2Fa.slack-edge.com%2Fdf10d%2Fimg%2Favatars%2Fava_0006-512.png", "custom_css": null}, {"id": 14551, "slack_id": "U091YRYL58F", "display_name": "Muhammad Osama", "bio": null, "projects_count": 1, "devlogs_count": 1, "votes_count": 0, "ships_count": 0, "projects": [{"id": 5172, "title": "AI based pentesting tools", "devlogs_count": 1, "created_at": "2025-07-03T15:28:55.345-04:00"}], "coding_time_seconds": 4638, "coding_time_seconds_today": 0, "balance": "You need to have a pocket watcher badge to view this.", "badges": [], "created_at": "2025-07-03T14:51:11.042-04:00", "updated_at": "2025-07-03T20:11:39.100-04:00", "avatar": "https://secure.gravatar.com/avatar/24907d5d4f802116b3d79ba9c5c67bdd.jpg?s=512&d=https%3A%2F%2Fa.slack-edge.com%2Fdf10d%2Fimg%2Favatars%2Fava_0000-512.png", "custom_css": null}, {"id": 14552, "slack_id": "U094XU4LDT2", "display_name": "Dion", "bio": null, "projects_count": 0, "devlogs_count": 0, "votes_count": 0, "ships_count": 0, "projects": [], "coding_time_seconds": 0, "coding_time_seconds_today": 0, "balance": "You need to have a pocket watcher badge to view this.", "badges": [], "created_at": "2025-07-03T14:53:11.851-04:00", "updated_at": "2025-07-03T20:11:39.366-04:00", "avatar": "https://secure.gravatar.com/avatar/03dfb026f9bfcc8a95f28afcc3487bc0.jpg?s=512&d=https%3A%2F%2Fa.slack-edge.com%2Fdf10d%2Fimg%2Favatars%2Fava_0020-512.png", "custom_css": null}, {"id": 14553, "slack_id": "U0948PH5GQM", "display_name": "Amogh Patnaik", "bio": null, "projects_count": 0, "devlogs_count": 0, "votes_count": 0, "ships_count": 0, "projects": [], "coding_time_seconds": 9313, "coding_time_seconds_today": 0, "balance": "You need to have a pocket watcher badge to view this.", "badges": [], "created_at": "2025-07-03T14:58:14.268-04:00", "updated_at": "2025-07-08T09:28:45.245-04:00", "avatar": "https://secure.gravatar.com/avatar/93e6995c58b790154d5febfbe7246500.jpg?s=512&d=https%3A%2F%2Fa.slack-edge.com%2Fdf10d%2Fimg%2Favatars%2Fava_0024-512.png", "custom_css": null}, {"id": 14554, "slack_id": "U092J0NE6F4", "display_name": "Zeke W", "bio": null, "projects_count": 1, "devlogs_count": 1, "votes_count": 6, "ships_count": 0, "projects": [{"id": 5999, "title": "DC Metro Sign", "devlogs_count": 1, "created_at": "2025-07-09T21:01:59.042-04:00"}], "coding_time_seconds": 4793, "coding_time_seconds_today": 0, "balance": "You need to have a pocket watcher badge to view this.", "badges": [], "created_at": "2025-07-03T15:06:57.831-04:00", "updated_at": "2025-07-09T20:51:51.226-04:00", "avatar": "https://secure.gravatar.com/avatar/0d6b9f15cf67602c0b2b3215b5297d25.jpg?s=512&d=https%3A%2F%2Fa.slack-edge.com%2Fdf10d%2Fimg%2Favatars%2Fava_0024-512.png", "custom_css": null}, {"id": 14555, "slack_id": "U094Y2E4LLQ", "display_name": "Subhan Ahmed", "bio": null, "projects_count": 0, "devlogs_count": 0, "votes_count": 0, "ships_count": 0, "projects": [], "coding_time_seconds": 0, "coding_time_seconds_today": 0, "balance": "You need to have a pocket watcher badge to view this.", "badges": [], "created_at": "2025-07-03T15:22:31.307-04:00", "updated_at": "2025-07-03T20:11:40.155-04:00", "avatar": "https://secure.gravatar.com/avatar/d81ad7727ce0183ba64f069d57e66619.jpg?s=512&d=https%3A%2F%2Fa.slack-edge.com%2Fdf10d%2Fimg%2Favatars%2Fava_0023-512.png", "custom_css": null}, {"id": 14556, "slack_id": "U08T0C846F6", "display_name": "Shameel P", "bio": null, "projects_count": 0, "devlogs_count": 0, "votes_count": 1, "ships_count": 0, "projects": [], "coding_time_seconds": 120, "coding_time_seconds_today": 0, "balance": "You need to have a pocket watcher badge to view this.", "badges": [], "created_at": "2025-07-03T15:28:58.043-04:00", "updated_at": "2025-08-28T16:06:48.047-04:00", "avatar": "https://avatars.slack-edge.com/2025-07-07/9177203578800_48b469689dc57cde5c1e_original.png", "custom_css": null}, {"id": 14557, "slack_id": "U094324QB51", "display_name": "Tj", "bio": null, "projects_count": 0, "devlogs_count": 0, "votes_count": 0, "ships_count": 0, "projects": [], "coding_time_seconds": 19344, "coding_time_seconds_today": 0, "balance": "You need to have a pocket watcher badge to view this.", "badges": [], "created_at": "2025-07-03T15:44:06.065-04:00", "updated_at": "2025-07-10T21:17:02.235-04:00", "avatar": "https://avatars.slack-edge.com/2025-07-10/9174469364131_b66b4e7023be3c78d7e9_original.png", "custom_css": null}, {"id": 14558, "slack_id": "U090XRFL5UK", "display_name": "Tomas Kuchta", "bio": null, "projects_count": 0, "devlogs_count": 0, "votes_count": 0, "ships_count": 0, "projects": [], "coding_time_seconds": 0, "coding_time_seconds_today": 0, "balance": "You need to have a pocket watcher badge to view this.", "badges": [], "created_at": "2025-07-03T15:50:37.058-04:00", "updated_at": "2025-07-03T20:11:40.819-04:00", "avatar": "https://secure.gravatar.com/avatar/1eda98db8fa3ff3d23868463a8ee0c0c.jpg?s=512&d=https%3A%2F%2Fa.slack-edge.com%2Fdf10d%2Fimg%2Favatars%2Fava_0009-512.png", "custom_css": null}, {"id": 14559, "slack_id": "U094P6TSDMF", "display_name": "NOUREDDINE", "bio": null, "projects_count": 0, "devlogs_count": 0, "votes_count": 0, "ships_count": 0, "projects": [], "coding_time_seconds": 0, "coding_time_seconds_today": 0, "balance": "You need to have a pocket watcher badge to view this.", "badges": [], "created_at": "2025-07-03T15:56:11.875-04:00", "updated_at": "2025-07-03T20:11:41.079-04:00", "avatar": "https://secure.gravatar.com/avatar/f0cf72855b4ca39b2b45bd692cb5bbd4.jpg?s=512&d=https%3A%2F%2Fa.slack-edge.com%2Fdf10d%2Fimg%2Favatars%2Fava_0006-512.png", "custom_css": null}, {"id": 14560, "slack_id": "U094P6Q9XUH", "display_name": "Abdullah", "bio": null, "projects_count": 0, "devlogs_count": 0, "votes_count": 0, "ships_count": 0, "projects": [], "coding_time_seconds": 0, "coding_time_seconds_today": 0, "balance": "You need to have a pocket watcher badge to view this.", "badges": [], "created_at": "2025-07-03T15:57:32.925-04:00", "updated_at": "2025-07-03T20:11:41.341-04:00", "avatar": "https://secure.gravatar.com/avatar/984f1012dd39b853bcfbfd1c983f7e6e.jpg?s=512&d=https%3A%2F%2Fa.slack-edge.com%2Fdf10d%2Fimg%2Favatars%2Fava_0010-512.png", "custom_css": null}, {"id": 14561, "slack_id": "U08E8RU0161", "display_name": "Rishi Shah", "bio": null, "projects_count": 0, "devlogs_count": 0, "votes_count": 0, "ships_count": 0, "projects": [], "coding_time_seconds": 0, "coding_time_seconds_today": 0, "balance": "You need to have a pocket watcher badge to view this.", "badges": [], "created_at": "2025-07-03T15:58:04.756-04:00", "updated_at": "2025-07-03T20:25:49.004-04:00", "avatar": "https://secure.gravatar.com/avatar/d7f805acf7b9de9a2be34e9b1d06e0dc.jpg?s=512&d=https%3A%2F%2Fa.slack-edge.com%2Fdf10d%2Fimg%2Favatars%2Fava_0017-512.png", "custom_css": null}, {"id": 14562, "slack_id": "U094P85PM33", "display_name": "hamza", "bio": null, "projects_count": 0, "devlogs_count": 0, "votes_count": 0, "ships_count": 0, "projects": [], "coding_time_seconds": 0, "coding_time_seconds_today": 0, "balance": "You need to have a pocket watcher badge to view this.", "badges": [], "created_at": "2025-07-03T16:05:09.971-04:00", "updated_at": "2025-07-03T20:11:41.868-04:00", "avatar": "https://avatars.slack-edge.com/2025-07-03/9148091142372_34e29faf9a873bf7ebbc_original.png", "custom_css": null}, {"id": 14563, "slack_id": "U09492HQWE9", "display_name": "Gil", "bio": null, "projects_count": 0, "devlogs_count": 0, "votes_count": 0, "ships_count": 0, "projects": [], "coding_time_seconds": 0, "coding_time_seconds_today": 0, "balance": "You need to have a pocket watcher badge to view this.", "badges": [], "created_at": "2025-07-03T16:06:02.795-04:00", "updated_at": "2025-07-04T20:15:26.918-04:00", "avatar": "https://secure.gravatar.com/avatar/18ac5528ba300769bf6cef0fe867d059.jpg?s=512&d=https%3A%2F%2Fa.slack-edge.com%2Fdf10d%2Fimg%2Favatars%2Fava_0008-512.png", "custom_css": null}, {"id": 14564, "slack_id": "U093YJXB6RX", "display_name": "Michael Royce", "bio": null, "projects_count": 0, "devlogs_count": 0, "votes_count": 0, "ships_count": 0, "projects": [], "coding_time_seconds": 0, "coding_time_seconds_today": 0, "balance": "You need to have a pocket watcher badge to view this.", "badges": [], "created_at": "2025-07-03T16:06:15.484-04:00", "updated_at": "2025-07-03T20:11:42.269-04:00", "avatar": "https://secure.gravatar.com/avatar/53f9c88be5075a46107edb6d07072929.jpg?s=512&d=https%3A%2F%2Fa.slack-edge.com%2Fdf10d%2Fimg%2Favatars%2Fava_0019-512.png", "custom_css": null}, {"id": 14565, "slack_id": "U094Y8U2CMN", "display_name": "Akash kr", "bio": null, "projects_count": 0, "devlogs_count": 0, "votes_count": 0, "ships_count": 0, "projects": [], "coding_time_seconds": 0, "coding_time_seconds_today": 0, "balance": "You need to have a pocket watcher badge to view this.", "badges": [], "created_at": "2025-07-03T16:14:25.787-04:00", "updated_at": "2025-07-03T20:11:42.524-04:00", "avatar": "https://secure.gravatar.com/avatar/d67b8f13016e2eebea95e30700d0e996.jpg?s=512&d=https%3A%2F%2Fa.slack-edge.com%2Fdf10d%2Fimg%2Favatars%2Fava_0006-512.png", "custom_css": null}], "pagination": {"page": 724, "pages": 1192, "count": 23828, "items": 20}}