{"users": [{"id": 14566, "slack_id": "U094A23UF4J", "display_name": "David Martin", "bio": null, "projects_count": 0, "devlogs_count": 0, "votes_count": 0, "ships_count": 0, "projects": [], "coding_time_seconds": 0, "coding_time_seconds_today": 0, "balance": "You need to have a pocket watcher badge to view this.", "badges": [], "created_at": "2025-07-03T16:14:27.835-04:00", "updated_at": "2025-07-03T20:11:42.780-04:00", "avatar": "https://avatars.slack-edge.com/2025-07-03/9159432025697_e88f62710819693ef238_original.jpg", "custom_css": null}, {"id": 14567, "slack_id": "U09494AMYVB", "display_name": "Trevor Leavitt", "bio": null, "projects_count": 0, "devlogs_count": 0, "votes_count": 0, "ships_count": 0, "projects": [], "coding_time_seconds": 0, "coding_time_seconds_today": 0, "balance": "You need to have a pocket watcher badge to view this.", "badges": [], "created_at": "2025-07-03T16:21:44.176-04:00", "updated_at": "2025-07-03T20:11:43.116-04:00", "avatar": "https://secure.gravatar.com/avatar/dd02383c5152b4be35c8c7a6e9135e55.jpg?s=512&d=https%3A%2F%2Fa.slack-edge.com%2Fdf10d%2Fimg%2Favatars%2Fava_0015-512.png", "custom_css": null}, {"id": 14568, "slack_id": "U094PALPVMX", "display_name": "fatma", "bio": null, "projects_count": 0, "devlogs_count": 0, "votes_count": 0, "ships_count": 0, "projects": [], "coding_time_seconds": 0, "coding_time_seconds_today": 0, "balance": "You need to have a pocket watcher badge to view this.", "badges": [], "created_at": "2025-07-03T16:26:40.759-04:00", "updated_at": "2025-07-03T20:11:43.411-04:00", "avatar": "https://avatars.slack-edge.com/2025-07-03/9133421641351_4a6bee0b884e3e4cf85b_original.png", "custom_css": null}, {"id": 14569, "slack_id": "U0825T0B4TV", "display_name": "Elliot Zhang", "bio": null, "projects_count": 4, "devlogs_count": 18, "votes_count": 20, "ships_count": 2, "projects": [{"id": 9363, "title": "TolstAI", "devlogs_count": 2, "created_at": "2025-07-31T19:47:20.365-04:00"}, {"id": 11814, "title": "linen", "devlogs_count": 1, "created_at": "2025-08-19T18:08:53.812-04:00"}, {"id": 5245, "title": "bill-split", "devlogs_count": 5, "created_at": "2025-07-04T01:35:31.832-04:00"}, {"id": 8586, "title": "SANTA SHIELD", "devlogs_count": 10, "created_at": "2025-07-28T10:42:21.009-04:00"}], "coding_time_seconds": 185299, "coding_time_seconds_today": 0, "balance": "You need to have a pocket watcher badge to view this.", "badges": [{"name": "Maiden Voyage", "text": "you shipped your first project! the journey begins...", "icon": "\ud83d\udea2"}], "created_at": "2025-07-03T16:27:29.654-04:00", "updated_at": "2025-09-10T22:58:22.774-04:00", "avatar": "https://avatars.slack-edge.com/2025-01-02/8235763431110_b9bf44b10ada4e070d79_original.png", "custom_css": null}, {"id": 14570, "slack_id": "U082F0J53EJ", "display_name": "cryptic", "bio": null, "projects_count": 0, "devlogs_count": 0, "votes_count": 1, "ships_count": 0, "projects": [], "coding_time_seconds": 101911, "coding_time_seconds_today": 0, "balance": "You need to have a pocket watcher badge to view this.", "badges": [], "created_at": "2025-07-03T16:33:51.978-04:00", "updated_at": "2025-07-08T03:15:43.474-04:00", "avatar": "https://avatars.slack-edge.com/2024-11-27/8098630793812_523cb45ab16b849c49b6_original.jpg", "custom_css": null}, {"id": 14571, "slack_id": "U094YBGA42U", "display_name": "Mahim Hossain Khan", "bio": null, "projects_count": 0, "devlogs_count": 0, "votes_count": 0, "ships_count": 0, "projects": [], "coding_time_seconds": 0, "coding_time_seconds_today": 0, "balance": "You need to have a pocket watcher badge to view this.", "badges": [], "created_at": "2025-07-03T16:34:41.827-04:00", "updated_at": "2025-07-03T20:11:43.954-04:00", "avatar": "https://secure.gravatar.com/avatar/8a7226478fba96b31bb20ec3f5ad3f4d.jpg?s=512&d=https%3A%2F%2Fa.slack-edge.com%2Fdf10d%2Fimg%2Favatars%2Fava_0008-512.png", "custom_css": null}, {"id": 14572, "slack_id": "U085B15J7QW", "display_name": "Jayson", "bio": null, "projects_count": 0, "devlogs_count": 0, "votes_count": 0, "ships_count": 0, "projects": [], "coding_time_seconds": 8254, "coding_time_seconds_today": 0, "balance": "You need to have a pocket watcher badge to view this.", "badges": [], "created_at": "2025-07-03T16:34:55.976-04:00", "updated_at": "2025-07-12T09:50:08.241-04:00", "avatar": "https://avatars.slack-edge.com/2025-05-19/8924318872420_5468b67633b8c386b197_original.jpg", "custom_css": null}, {"id": 14573, "slack_id": "U09496UHKKP", "display_name": "Dvir Biton", "bio": null, "projects_count": 1, "devlogs_count": 37, "votes_count": 20, "ships_count": 1, "projects": [{"id": 5191, "title": "MyraOS", "devlogs_count": 37, "created_at": "2025-07-03T17:13:07.458-04:00"}], "coding_time_seconds": 896154, "coding_time_seconds_today": 0, "balance": "You need to have a pocket watcher badge to view this.", "badges": [{"name": "Maiden Voyage", "text": "you shipped your first project! the journey begins...", "icon": "\ud83d\udea2"}], "created_at": "2025-07-03T16:46:18.117-04:00", "updated_at": "2025-09-14T10:31:55.656-04:00", "avatar": "https://avatars.slack-edge.com/2025-07-03/9168444270768_5175ecfdc7756852c07b_original.jpg", "custom_css": null}, {"id": 14574, "slack_id": "U093XEMR2UX", "display_name": "Octavius Szeto", "bio": null, "projects_count": 1, "devlogs_count": 0, "votes_count": 0, "ships_count": 0, "projects": [{"id": 11806, "title": "WikiNeedia", "devlogs_count": 0, "created_at": "2025-08-19T16:47:43.308-04:00"}], "coding_time_seconds": 0, "coding_time_seconds_today": 0, "balance": "You need to have a pocket watcher badge to view this.", "badges": [], "created_at": "2025-07-03T16:49:04.441-04:00", "updated_at": "2025-08-19T16:48:34.406-04:00", "avatar": "https://avatars.slack-edge.com/2025-07-03/9133509467863_085749411cb56399ccb3_original.jpg", "custom_css": null}, {"id": 14575, "slack_id": "U094A6F9UUS", "display_name": "HackLord monster", "bio": null, "projects_count": 1, "devlogs_count": 0, "votes_count": 2, "ships_count": 0, "projects": [{"id": 5864, "title": "Quantum Potest", "devlogs_count": 0, "created_at": "2025-07-08T14:55:52.229-04:00"}], "coding_time_seconds": 92478, "coding_time_seconds_today": 0, "balance": "You need to have a pocket watcher badge to view this.", "badges": [], "created_at": "2025-07-03T16:51:04.721-04:00", "updated_at": "2025-08-07T10:48:17.521-04:00", "avatar": "https://avatars.slack-edge.com/2025-07-03/9133517405255_0d3a88768595a0a53082_original.png", "custom_css": null}, {"id": 14576, "slack_id": "U094C74QKNG", "display_name": "Ahmed", "bio": null, "projects_count": 0, "devlogs_count": 0, "votes_count": 0, "ships_count": 0, "projects": [], "coding_time_seconds": 0, "coding_time_seconds_today": 0, "balance": "You need to have a pocket watcher badge to view this.", "badges": [], "created_at": "2025-07-03T16:51:16.450-04:00", "updated_at": "2025-07-03T20:11:45.266-04:00", "avatar": "https://avatars.slack-edge.com/2025-07-03/9168461939456_76b2e2a500ada89087c7_original.png", "custom_css": null}, {"id": 14577, "slack_id": "U07ULNFPQ4T", "display_name": "lynn (fonz)", "bio": null, "projects_count": 0, "devlogs_count": 0, "votes_count": 0, "ships_count": 0, "projects": [], "coding_time_seconds": 31775, "coding_time_seconds_today": 0, "balance": "You need to have a pocket watcher badge to view this.", "badges": [], "created_at": "2025-07-03T17:07:46.584-04:00", "updated_at": "2025-09-23T19:15:49.105-04:00", "avatar": "https://avatars.slack-edge.com/2025-09-23/9570178395926_97182780213ae523d3eb_original.png", "custom_css": null}, {"id": 14578, "slack_id": "U094A83F0JW", "display_name": "Stephen Chan", "bio": null, "projects_count": 1, "devlogs_count": 2, "votes_count": 3, "ships_count": 0, "projects": [{"id": 5207, "title": "Bunny & Copper", "devlogs_count": 2, "created_at": "2025-07-03T17:55:27.587-04:00"}], "coding_time_seconds": 35902, "coding_time_seconds_today": 0, "balance": "You need to have a pocket watcher badge to view this.", "badges": [], "created_at": "2025-07-03T17:13:47.921-04:00", "updated_at": "2025-07-03T22:05:42.226-04:00", "avatar": "https://avatars.slack-edge.com/2025-07-03/9145349104085_623eb70ce4f109131a2a_original.gif", "custom_css": null}, {"id": 14579, "slack_id": "U094PG0REU9", "display_name": "Tabish", "bio": null, "projects_count": 0, "devlogs_count": 0, "votes_count": 1, "ships_count": 0, "projects": [], "coding_time_seconds": 0, "coding_time_seconds_today": 0, "balance": "You need to have a pocket watcher badge to view this.", "badges": [], "created_at": "2025-07-03T17:16:22.307-04:00", "updated_at": "2025-07-03T20:11:45.946-04:00", "avatar": "https://secure.gravatar.com/avatar/c90db3edd8b3adaf84c183067b5e0281.jpg?s=512&d=https%3A%2F%2Fa.slack-edge.com%2Fdf10d%2Fimg%2Favatars%2Fava_0016-512.png", "custom_css": null}, {"id": 14580, "slack_id": "U094YGDDKR6", "display_name": "Sayed", "bio": null, "projects_count": 0, "devlogs_count": 0, "votes_count": 0, "ships_count": 0, "projects": [], "coding_time_seconds": 0, "coding_time_seconds_today": 0, "balance": "You need to have a pocket watcher badge to view this.", "badges": [], "created_at": "2025-07-03T17:20:55.486-04:00", "updated_at": "2025-07-04T20:15:27.922-04:00", "avatar": "https://avatars.slack-edge.com/2025-07-03/9148366655524_c9afe9d0b8257e2fda38_original.png", "custom_css": null}, {"id": 14581, "slack_id": "U094CAUU9RS", "display_name": "Melissa livingston", "bio": null, "projects_count": 0, "devlogs_count": 0, "votes_count": 0, "ships_count": 0, "projects": [], "coding_time_seconds": 0, "coding_time_seconds_today": 0, "balance": "You need to have a pocket watcher badge to view this.", "badges": [], "created_at": "2025-07-03T17:27:12.611-04:00", "updated_at": "2025-07-03T20:11:46.337-04:00", "avatar": "https://secure.gravatar.com/avatar/8af77582dc59bf171d49e137a56a0f7e.jpg?s=512&d=https%3A%2F%2Fa.slack-edge.com%2Fdf10d%2Fimg%2Favatars%2Fava_0001-512.png", "custom_css": null}, {"id": 14582, "slack_id": "U0943E1CM5Z", "display_name": "Kilian", "bio": null, "projects_count": 0, "devlogs_count": 0, "votes_count": 0, "ships_count": 0, "projects": [], "coding_time_seconds": 0, "coding_time_seconds_today": 0, "balance": "You need to have a pocket watcher badge to view this.", "badges": [], "created_at": "2025-07-03T17:36:03.170-04:00", "updated_at": "2025-07-03T20:11:46.609-04:00", "avatar": "https://avatars.slack-edge.com/2025-07-03/9142459252038_cc97a2d004066277e8c9_original.png", "custom_css": null}, {"id": 14583, "slack_id": "U094672M7TQ", "display_name": "Noam Rothschild", "bio": null, "projects_count": 0, "devlogs_count": 0, "votes_count": 0, "ships_count": 0, "projects": [], "coding_time_seconds": 0, "coding_time_seconds_today": 0, "balance": "You need to have a pocket watcher badge to view this.", "badges": [], "created_at": "2025-07-03T17:47:43.827-04:00", "updated_at": "2025-07-03T20:11:46.863-04:00", "avatar": "https://avatars.slack-edge.com/2025-07-03/9148446901492_6a15fa83a7f0f357b62c_original.png", "custom_css": null}, {"id": 14584, "slack_id": "U07VBGCE3FZ", "display_name": "Andagom", "bio": null, "projects_count": 0, "devlogs_count": 0, "votes_count": 0, "ships_count": 0, "projects": [], "coding_time_seconds": 120, "coding_time_seconds_today": 0, "balance": "You need to have a pocket watcher badge to view this.", "badges": [], "created_at": "2025-07-03T17:51:44.906-04:00", "updated_at": "2025-07-04T13:03:06.799-04:00", "avatar": "https://avatars.slack-edge.com/2024-11-12/8019232621476_5d5f5fe6673d3c639ecc_original.jpg", "custom_css": null}, {"id": 14585, "slack_id": "U0949DH4J3F", "display_name": "Matteo Sanderson", "bio": null, "projects_count": 0, "devlogs_count": 0, "votes_count": 0, "ships_count": 0, "projects": [], "coding_time_seconds": 0, "coding_time_seconds_today": 0, "balance": "You need to have a pocket watcher badge to view this.", "badges": [], "created_at": "2025-07-03T17:55:14.309-04:00", "updated_at": "2025-07-05T08:16:30.684-04:00", "avatar": "https://secure.gravatar.com/avatar/7a9ab032afbc0c99c7cbb410e032022c.jpg?s=512&d=https%3A%2F%2Fa.slack-edge.com%2Fdf10d%2Fimg%2Favatars%2Fava_0001-512.png", "custom_css": null}], "pagination": {"page": 725, "pages": 1192, "count": 23828, "items": 20}}