{"users": [{"id": 14586, "slack_id": "U094PKJ2ZRP", "display_name": "Anvid", "bio": null, "projects_count": 0, "devlogs_count": 0, "votes_count": 0, "ships_count": 0, "projects": [], "coding_time_seconds": 0, "coding_time_seconds_today": 0, "balance": "You need to have a pocket watcher badge to view this.", "badges": [], "created_at": "2025-07-03T17:56:40.500-04:00", "updated_at": "2025-07-03T20:11:47.397-04:00", "avatar": "https://secure.gravatar.com/avatar/77f4f07beaa2a029e8871d87fa72f25a.jpg?s=512&d=https%3A%2F%2Fa.slack-edge.com%2Fdf10d%2Fimg%2Favatars%2Fava_0002-512.png", "custom_css": null}, {"id": 14587, "slack_id": "U092WS5H0D9", "display_name": "Aaron Qin", "bio": null, "projects_count": 0, "devlogs_count": 0, "votes_count": 0, "ships_count": 0, "projects": [], "coding_time_seconds": 0, "coding_time_seconds_today": 0, "balance": "You need to have a pocket watcher badge to view this.", "badges": [], "created_at": "2025-07-03T17:57:23.517-04:00", "updated_at": "2025-07-03T20:11:47.665-04:00", "avatar": "https://avatars.slack-edge.com/2025-07-03/9146429385170_7244aae5fe426d0c93ae_original.jpg", "custom_css": null}, {"id": 14588, "slack_id": "U094PLC9NL9", "display_name": "abhay ajjarapu", "bio": null, "projects_count": 0, "devlogs_count": 0, "votes_count": 0, "ships_count": 0, "projects": [], "coding_time_seconds": 0, "coding_time_seconds_today": 0, "balance": "You need to have a pocket watcher badge to view this.", "badges": [], "created_at": "2025-07-03T18:01:45.227-04:00", "updated_at": "2025-07-03T20:11:47.924-04:00", "avatar": "https://avatars.slack-edge.com/2025-07-03/9133761775623_5ffcf52c31dcf7ba1230_original.png", "custom_css": null}, {"id": 14589, "slack_id": "U08GQH2TNUD", "display_name": "eulerfan40", "bio": null, "projects_count": 0, "devlogs_count": 0, "votes_count": 0, "ships_count": 0, "projects": [], "coding_time_seconds": 0, "coding_time_seconds_today": 0, "balance": "You need to have a pocket watcher badge to view this.", "badges": [], "created_at": "2025-07-03T18:08:57.822-04:00", "updated_at": "2025-07-03T18:13:29.675-04:00", "avatar": "https://secure.gravatar.com/avatar/37968b3f522e768d8df913adb602cf29.jpg?s=512&d=https%3A%2F%2Fa.slack-edge.com%2Fdf10d%2Fimg%2Favatars%2Fava_0015-512.png", "custom_css": null}, {"id": 14590, "slack_id": "U094YN2NM08", "display_name": "Arshum", "bio": null, "projects_count": 1, "devlogs_count": 0, "votes_count": 0, "ships_count": 0, "projects": [{"id": 5520, "title": "The Cool Mod Pack", "devlogs_count": 0, "created_at": "2025-07-05T22:13:31.984-04:00"}], "coding_time_seconds": 0, "coding_time_seconds_today": 0, "balance": "You need to have a pocket watcher badge to view this.", "badges": [], "created_at": "2025-07-03T18:23:29.537-04:00", "updated_at": "2025-07-05T22:12:27.633-04:00", "avatar": "https://secure.gravatar.com/avatar/2d26f9187c305727a7959a6f94e318fb.jpg?s=512&d=https%3A%2F%2Fa.slack-edge.com%2Fdf10d%2Fimg%2Favatars%2Fava_0021-512.png", "custom_css": null}, {"id": 14591, "slack_id": "U0946HQ7170", "display_name": "Jayden S", "bio": null, "projects_count": 0, "devlogs_count": 0, "votes_count": 0, "ships_count": 0, "projects": [], "coding_time_seconds": 0, "coding_time_seconds_today": 0, "balance": "You need to have a pocket watcher badge to view this.", "badges": [], "created_at": "2025-07-03T18:27:10.759-04:00", "updated_at": "2025-07-03T20:11:48.458-04:00", "avatar": "https://secure.gravatar.com/avatar/e281a77eaea3b841d217792218712982.jpg?s=512&d=https%3A%2F%2Fa.slack-edge.com%2Fdf10d%2Fimg%2Favatars%2Fava_0018-512.png", "custom_css": null}, {"id": 14592, "slack_id": "U091W4H1ZST", "display_name": "Placier", "bio": null, "projects_count": 0, "devlogs_count": 0, "votes_count": 0, "ships_count": 0, "projects": [], "coding_time_seconds": 0, "coding_time_seconds_today": 0, "balance": "You need to have a pocket watcher badge to view this.", "badges": [], "created_at": "2025-07-03T18:34:20.643-04:00", "updated_at": "2025-07-03T18:34:40.701-04:00", "avatar": "https://avatars.slack-edge.com/2025-06-20/9073416038275_12ec91e9a0f834375b87_original.jpg", "custom_css": null}, {"id": 14593, "slack_id": "U07GG7BRQ2E", "display_name": "tyzrichard", "bio": null, "projects_count": 0, "devlogs_count": 0, "votes_count": 2, "ships_count": 0, "projects": [], "coding_time_seconds": 9028, "coding_time_seconds_today": 0, "balance": "You need to have a pocket watcher badge to view this.", "badges": [], "created_at": "2025-07-03T18:54:56.994-04:00", "updated_at": "2025-07-05T04:45:12.963-04:00", "avatar": "https://secure.gravatar.com/avatar/43086fce71a6a18c5457871116a5f07e.jpg?s=512&d=https%3A%2F%2Fa.slack-edge.com%2Fdf10d%2Fimg%2Favatars%2Fava_0011-512.png", "custom_css": null}, {"id": 14594, "slack_id": "U0943LEB12P", "display_name": "BYEONGUN PARK", "bio": null, "projects_count": 0, "devlogs_count": 0, "votes_count": 0, "ships_count": 0, "projects": [], "coding_time_seconds": 0, "coding_time_seconds_today": 0, "balance": "You need to have a pocket watcher badge to view this.", "badges": [], "created_at": "2025-07-03T18:59:28.548-04:00", "updated_at": "2025-07-03T20:11:49.007-04:00", "avatar": "https://secure.gravatar.com/avatar/0b8300e21e4864ba7ba681d94a5712d7.jpg?s=512&d=https%3A%2F%2Fa.slack-edge.com%2Fdf10d%2Fimg%2Favatars%2Fava_0007-512.png", "custom_css": null}, {"id": 14595, "slack_id": "U0949GXQM7X", "display_name": "Zain", "bio": null, "projects_count": 0, "devlogs_count": 0, "votes_count": 0, "ships_count": 0, "projects": [], "coding_time_seconds": 0, "coding_time_seconds_today": 0, "balance": "You need to have a pocket watcher badge to view this.", "badges": [], "created_at": "2025-07-03T19:01:00.176-04:00", "updated_at": "2025-07-06T18:24:51.239-04:00", "avatar": "https://secure.gravatar.com/avatar/079668d8e031c562acc51556eeeb9267.jpg?s=512&d=https%3A%2F%2Fa.slack-edge.com%2Fdf10d%2Fimg%2Favatars%2Fava_0026-512.png", "custom_css": null}, {"id": 14596, "slack_id": "U0943LXG30B", "display_name": "madison", "bio": null, "projects_count": 0, "devlogs_count": 0, "votes_count": 0, "ships_count": 0, "projects": [], "coding_time_seconds": 0, "coding_time_seconds_today": 0, "balance": "You need to have a pocket watcher badge to view this.", "badges": [], "created_at": "2025-07-03T19:03:20.419-04:00", "updated_at": "2025-07-05T08:16:31.362-04:00", "avatar": "https://secure.gravatar.com/avatar/6f62627ae714da70c9dc5cf337796393.jpg?s=512&d=https%3A%2F%2Fa.slack-edge.com%2Fdf10d%2Fimg%2Favatars%2Fava_0018-512.png", "custom_css": null}, {"id": 14597, "slack_id": "U09409Y9LN7", "display_name": "jay shin", "bio": null, "projects_count": 0, "devlogs_count": 0, "votes_count": 0, "ships_count": 0, "projects": [], "coding_time_seconds": 0, "coding_time_seconds_today": 0, "balance": "You need to have a pocket watcher badge to view this.", "badges": [], "created_at": "2025-07-03T19:06:18.226-04:00", "updated_at": "2025-07-08T03:15:49.292-04:00", "avatar": "https://secure.gravatar.com/avatar/f29ca875bfeb4846085fa157e0afc670.jpg?s=512&d=https%3A%2F%2Fa.slack-edge.com%2Fdf10d%2Fimg%2Favatars%2Fava_0001-512.png", "custom_css": null}, {"id": 14598, "slack_id": "U0949KRDVFF", "display_name": "Hesam", "bio": null, "projects_count": 0, "devlogs_count": 0, "votes_count": 0, "ships_count": 0, "projects": [], "coding_time_seconds": 0, "coding_time_seconds_today": 0, "balance": "You need to have a pocket watcher badge to view this.", "badges": [], "created_at": "2025-07-03T19:13:49.155-04:00", "updated_at": "2025-07-03T20:11:49.712-04:00", "avatar": "https://avatars.slack-edge.com/2025-07-03/9139745370947_f8973c18db8bbd3458ee_original.png", "custom_css": null}, {"id": 14599, "slack_id": "U093XULC0G7", "display_name": "Joan Jesus Ramirez Perez", "bio": null, "projects_count": 0, "devlogs_count": 0, "votes_count": 0, "ships_count": 0, "projects": [], "coding_time_seconds": 0, "coding_time_seconds_today": 0, "balance": "You need to have a pocket watcher badge to view this.", "badges": [], "created_at": "2025-07-03T19:23:49.318-04:00", "updated_at": "2025-07-04T20:15:29.109-04:00", "avatar": "https://avatars.slack-edge.com/2025-07-03/9148696186868_ab157cc6e5837afb643c_original.jpg", "custom_css": null}, {"id": 14600, "slack_id": "U0751S2F8DP", "display_name": "Arjun H", "bio": null, "projects_count": 0, "devlogs_count": 0, "votes_count": 0, "ships_count": 0, "projects": [], "coding_time_seconds": 39415, "coding_time_seconds_today": 0, "balance": "You need to have a pocket watcher badge to view this.", "badges": [], "created_at": "2025-07-03T19:24:11.068-04:00", "updated_at": "2025-07-30T23:32:40.929-04:00", "avatar": "https://avatars.slack-edge.com/2024-05-22/7171888888353_a7ce1a76e4be234aceb7_original.jpg", "custom_css": null}, {"id": 14601, "slack_id": "U094AKL083U", "display_name": "Liam", "bio": null, "projects_count": 0, "devlogs_count": 0, "votes_count": 0, "ships_count": 0, "projects": [], "coding_time_seconds": 0, "coding_time_seconds_today": 0, "balance": "You need to have a pocket watcher badge to view this.", "badges": [], "created_at": "2025-07-03T19:39:58.355-04:00", "updated_at": "2025-07-04T02:34:56.893-04:00", "avatar": "https://secure.gravatar.com/avatar/081cb7220ee0d0ebe6e94bd023d76a75.jpg?s=512&d=https%3A%2F%2Fa.slack-edge.com%2Fdf10d%2Fimg%2Favatars%2Fava_0003-512.png", "custom_css": null}, {"id": 14602, "slack_id": "U07F9DP4YKX", "display_name": "dxrkinfuser44", "bio": null, "projects_count": 0, "devlogs_count": 0, "votes_count": 0, "ships_count": 0, "projects": [], "coding_time_seconds": 0, "coding_time_seconds_today": 0, "balance": "You need to have a pocket watcher badge to view this.", "badges": [], "created_at": "2025-07-03T19:44:02.593-04:00", "updated_at": "2025-07-03T19:44:12.728-04:00", "avatar": "https://secure.gravatar.com/avatar/17547e947e96e4a20388567ede64c758.jpg?s=512&d=https%3A%2F%2Fa.slack-edge.com%2Fdf10d%2Fimg%2Favatars%2Fava_0008-512.png", "custom_css": null}, {"id": 14603, "slack_id": "U093Y3LSX6K", "display_name": "Walla", "bio": null, "projects_count": 0, "devlogs_count": 0, "votes_count": 0, "ships_count": 0, "projects": [], "coding_time_seconds": 0, "coding_time_seconds_today": 0, "balance": "You need to have a pocket watcher badge to view this.", "badges": [], "created_at": "2025-07-03T20:18:09.365-04:00", "updated_at": "2025-07-04T08:31:15.396-04:00", "avatar": "https://avatars.slack-edge.com/2025-07-03/9146774750514_0a9a6ccceabd06f96f57_original.png", "custom_css": null}, {"id": 14604, "slack_id": "U094AQ68EM8", "display_name": "zenn", "bio": null, "projects_count": 0, "devlogs_count": 0, "votes_count": 0, "ships_count": 0, "projects": [], "coding_time_seconds": 0, "coding_time_seconds_today": 0, "balance": "You need to have a pocket watcher badge to view this.", "badges": [], "created_at": "2025-07-03T20:41:00.854-04:00", "updated_at": "2025-07-03T22:05:44.067-04:00", "avatar": "https://avatars.slack-edge.com/2025-07-03/9148901835492_3a595301667cbcc33b2e_original.png", "custom_css": null}, {"id": 14605, "slack_id": "U0949PK0NDB", "display_name": "Imraul", "bio": null, "projects_count": 0, "devlogs_count": 0, "votes_count": 0, "ships_count": 0, "projects": [], "coding_time_seconds": 0, "coding_time_seconds_today": 0, "balance": "You need to have a pocket watcher badge to view this.", "badges": [], "created_at": "2025-07-03T20:45:31.986-04:00", "updated_at": "2025-07-05T08:16:32.114-04:00", "avatar": "https://secure.gravatar.com/avatar/0db7d41297e0188201e0ae32688bf118.jpg?s=512&d=https%3A%2F%2Fa.slack-edge.com%2Fdf10d%2Fimg%2Favatars%2Fava_0016-512.png", "custom_css": null}], "pagination": {"page": 726, "pages": 1192, "count": 23828, "items": 20}}