{"users": [{"id": 14606, "slack_id": "U0949TQBNJ1", "display_name": "Nicholas Ching", "bio": null, "projects_count": 1, "devlogs_count": 0, "votes_count": 1, "ships_count": 0, "projects": [{"id": 5867, "title": "LLM Research Analysis", "devlogs_count": 0, "created_at": "2025-07-08T15:47:24.781-04:00"}], "coding_time_seconds": 102238, "coding_time_seconds_today": 0, "balance": "You need to have a pocket watcher badge to view this.", "badges": [], "created_at": "2025-07-03T20:57:26.691-04:00", "updated_at": "2025-08-12T23:00:28.217-04:00", "avatar": "https://secure.gravatar.com/avatar/04e7268a0c6716ee04b7f44907e269bf.jpg?s=512&d=https%3A%2F%2Fa.slack-edge.com%2Fdf10d%2Fimg%2Favatars%2Fava_0010-512.png", "custom_css": null}, {"id": 14607, "slack_id": "U09441K230T", "display_name": "frcmike", "bio": null, "projects_count": 0, "devlogs_count": 0, "votes_count": 0, "ships_count": 0, "projects": [], "coding_time_seconds": 0, "coding_time_seconds_today": 0, "balance": "You need to have a pocket watcher badge to view this.", "badges": [], "created_at": "2025-07-03T21:14:00.587-04:00", "updated_at": "2025-07-05T02:16:09.682-04:00", "avatar": "https://secure.gravatar.com/avatar/1c3963a5d266ea5acbacdbd898485a4d.jpg?s=512&d=https%3A%2F%2Fa.slack-edge.com%2Fdf10d%2Fimg%2Favatars%2Fava_0017-512.png", "custom_css": null}, {"id": 14608, "slack_id": "U094Q738F17", "display_name": "wdff ifdwi0ek", "bio": null, "projects_count": 5, "devlogs_count": 15, "votes_count": 15, "ships_count": 0, "projects": [{"id": 9302, "title": "Greenalysis", "devlogs_count": 0, "created_at": "2025-07-31T12:36:11.462-04:00"}, {"id": 9386, "title": "Outquest", "devlogs_count": 11, "created_at": "2025-07-31T23:43:36.155-04:00"}, {"id": 9390, "title": "Parking Meter", "devlogs_count": 0, "created_at": "2025-08-01T00:04:27.160-04:00"}, {"id": 11167, "title": "Townmood", "devlogs_count": 4, "created_at": "2025-08-13T17:26:04.918-04:00"}, {"id": 12675, "title": "Geovim", "devlogs_count": 0, "created_at": "2025-08-31T13:14:20.665-04:00"}], "coding_time_seconds": 317234, "coding_time_seconds_today": 120, "balance": "You need to have a pocket watcher badge to view this.", "badges": [], "created_at": "2025-07-03T21:23:58.674-04:00", "updated_at": "2025-08-11T13:52:19.724-04:00", "avatar": "https://avatars.slack-edge.com/2025-07-03/9160250004593_dbd0f5f32f4e7ebfa2f8_original.png", "custom_css": null}, {"id": 14609, "slack_id": "U07ARM2R56U", "display_name": "ivan", "bio": null, "projects_count": 0, "devlogs_count": 0, "votes_count": 0, "ships_count": 0, "projects": [], "coding_time_seconds": 0, "coding_time_seconds_today": 0, "balance": "You need to have a pocket watcher badge to view this.", "badges": [], "created_at": "2025-07-03T21:42:11.891-04:00", "updated_at": "2025-07-04T20:15:29.738-04:00", "avatar": "https://secure.gravatar.com/avatar/6df69d31a1db8159c6374b61a667d3c9.jpg?s=512&d=https%3A%2F%2Fa.slack-edge.com%2Fdf10d%2Fimg%2Favatars%2Fava_0007-512.png", "custom_css": null}, {"id": 14610, "slack_id": "U094B1DGYTU", "display_name": "Samuel", "bio": null, "projects_count": 0, "devlogs_count": 0, "votes_count": 0, "ships_count": 0, "projects": [], "coding_time_seconds": 0, "coding_time_seconds_today": 0, "balance": "You need to have a pocket watcher badge to view this.", "badges": [], "created_at": "2025-07-03T22:07:18.340-04:00", "updated_at": "2025-07-04T08:31:15.868-04:00", "avatar": "https://secure.gravatar.com/avatar/c334b9c2e3241811b2d50fc00b4143cd.jpg?s=512&d=https%3A%2F%2Fa.slack-edge.com%2Fdf10d%2Fimg%2Favatars%2Fava_0010-512.png", "custom_css": null}, {"id": 14611, "slack_id": "U094A3G9QCD", "display_name": "Dervin", "bio": null, "projects_count": 0, "devlogs_count": 0, "votes_count": 0, "ships_count": 0, "projects": [], "coding_time_seconds": 0, "coding_time_seconds_today": 0, "balance": "You need to have a pocket watcher badge to view this.", "badges": [], "created_at": "2025-07-03T22:09:58.190-04:00", "updated_at": "2025-07-06T08:15:31.694-04:00", "avatar": "https://secure.gravatar.com/avatar/e798e2a95aaea2a691b9bc59569deb20.jpg?s=512&d=https%3A%2F%2Fa.slack-edge.com%2Fdf10d%2Fimg%2Favatars%2Fava_0022-512.png", "custom_css": null}, {"id": 14612, "slack_id": "U094B231DCJ", "display_name": "Kafaa Billahi Syahida", "bio": null, "projects_count": 0, "devlogs_count": 0, "votes_count": 0, "ships_count": 0, "projects": [], "coding_time_seconds": 0, "coding_time_seconds_today": 0, "balance": "You need to have a pocket watcher badge to view this.", "badges": [], "created_at": "2025-07-03T22:11:30.399-04:00", "updated_at": "2025-07-05T08:16:32.602-04:00", "avatar": "https://secure.gravatar.com/avatar/ed3d9b4fcfdac2f0990af6f156f31719.jpg?s=512&d=https%3A%2F%2Fa.slack-edge.com%2Fdf10d%2Fimg%2Favatars%2Fava_0014-512.png", "custom_css": null}, {"id": 14613, "slack_id": "U094B2C0XUJ", "display_name": "Sudeep Pasarakonda", "bio": null, "projects_count": 0, "devlogs_count": 0, "votes_count": 0, "ships_count": 0, "projects": [], "coding_time_seconds": 0, "coding_time_seconds_today": 0, "balance": "You need to have a pocket watcher badge to view this.", "badges": [], "created_at": "2025-07-03T22:14:35.069-04:00", "updated_at": "2025-07-06T14:15:47.565-04:00", "avatar": "https://avatars.slack-edge.com/2025-07-03/9140268014819_be34fc68d3a5470dfe6f_original.jpg", "custom_css": null}, {"id": 14614, "slack_id": "U094ZB9R2QG", "display_name": "ValorDopz", "bio": null, "projects_count": 0, "devlogs_count": 0, "votes_count": 0, "ships_count": 0, "projects": [], "coding_time_seconds": 568, "coding_time_seconds_today": 0, "balance": "You need to have a pocket watcher badge to view this.", "badges": [], "created_at": "2025-07-03T22:16:55.240-04:00", "updated_at": "2025-07-11T03:31:00.532-04:00", "avatar": "https://secure.gravatar.com/avatar/5ed1c88e100e0078d3a8379eeb1d1fd1.jpg?s=512&d=https%3A%2F%2Fa.slack-edge.com%2Fdf10d%2Fimg%2Favatars%2Fava_0010-512.png", "custom_css": null}, {"id": 14615, "slack_id": "U08LQ1RV3KL", "display_name": "vi vi king", "bio": null, "projects_count": 0, "devlogs_count": 0, "votes_count": 0, "ships_count": 0, "projects": [], "coding_time_seconds": 92564, "coding_time_seconds_today": 0, "balance": "You need to have a pocket watcher badge to view this.", "badges": [], "created_at": "2025-07-03T22:28:05.632-04:00", "updated_at": "2025-07-04T20:15:30.083-04:00", "avatar": "https://avatars.slack-edge.com/2025-04-03/8699642257605_d91f333fd24e5251a40b_original.png", "custom_css": null}, {"id": 14616, "slack_id": "U0908HR211R", "display_name": "Caleb", "bio": null, "projects_count": 0, "devlogs_count": 0, "votes_count": 0, "ships_count": 0, "projects": [], "coding_time_seconds": 0, "coding_time_seconds_today": 0, "balance": "You need to have a pocket watcher badge to view this.", "badges": [], "created_at": "2025-07-03T22:28:47.630-04:00", "updated_at": "2025-07-04T16:55:04.039-04:00", "avatar": "https://avatars.slack-edge.com/2025-07-03/9134526466775_989924a7d343a214c898_original.png", "custom_css": null}, {"id": 14617, "slack_id": "U094D7ST1PE", "display_name": "sarvkritika", "bio": null, "projects_count": 0, "devlogs_count": 0, "votes_count": 0, "ships_count": 0, "projects": [], "coding_time_seconds": 0, "coding_time_seconds_today": 0, "balance": "You need to have a pocket watcher badge to view this.", "badges": [], "created_at": "2025-07-03T22:50:14.486-04:00", "updated_at": "2025-07-04T08:31:16.374-04:00", "avatar": "https://secure.gravatar.com/avatar/5f5146dcc62554060d1536cb13a341a8.jpg?s=512&d=https%3A%2F%2Fa.slack-edge.com%2Fdf10d%2Fimg%2Favatars%2Fava_0014-512.png", "custom_css": null}, {"id": 14618, "slack_id": "U094QEQ94KT", "display_name": "Kenshindev", "bio": null, "projects_count": 1, "devlogs_count": 1, "votes_count": 8, "ships_count": 1, "projects": [{"id": 5859, "title": "revive-ev", "devlogs_count": 1, "created_at": "2025-07-08T14:03:51.457-04:00"}], "coding_time_seconds": 23090, "coding_time_seconds_today": 0, "balance": "You need to have a pocket watcher badge to view this.", "badges": [{"name": "Maiden Voyage", "text": "you shipped your first project! the journey begins...", "icon": "\ud83d\udea2"}], "created_at": "2025-07-03T22:57:50.821-04:00", "updated_at": "2025-09-10T22:58:24.010-04:00", "avatar": "https://secure.gravatar.com/avatar/98dfa11002e9887784612f0c1b7df5fd.jpg?s=512&d=https%3A%2F%2Fa.slack-edge.com%2Fdf10d%2Fimg%2Favatars%2Fava_0011-512.png", "custom_css": null}, {"id": 14619, "slack_id": "U093L4D998B", "display_name": "kyle", "bio": null, "projects_count": 0, "devlogs_count": 0, "votes_count": 0, "ships_count": 0, "projects": [], "coding_time_seconds": 0, "coding_time_seconds_today": 0, "balance": "You need to have a pocket watcher badge to view this.", "badges": [], "created_at": "2025-07-03T23:04:25.299-04:00", "updated_at": "2025-07-05T02:16:10.460-04:00", "avatar": "https://secure.gravatar.com/avatar/a66975fcf1d191bb4d92ea8cd9a41ecd.jpg?s=512&d=https%3A%2F%2Fa.slack-edge.com%2Fdf10d%2Fimg%2Favatars%2Fava_0004-512.png", "custom_css": null}, {"id": 14620, "slack_id": "U094B8E67DG", "display_name": "blue butterfly", "bio": null, "projects_count": 0, "devlogs_count": 0, "votes_count": 0, "ships_count": 0, "projects": [], "coding_time_seconds": 0, "coding_time_seconds_today": 0, "balance": "You need to have a pocket watcher badge to view this.", "badges": [], "created_at": "2025-07-03T23:33:09.728-04:00", "updated_at": "2025-07-04T02:34:58.150-04:00", "avatar": "https://avatars.slack-edge.com/2025-07-03/9134719228407_a38fa4dc0ff93e3672b2_original.png", "custom_css": null}, {"id": 14621, "slack_id": "U078V1KH87R", "display_name": "Daniel", "bio": null, "projects_count": 0, "devlogs_count": 0, "votes_count": 0, "ships_count": 0, "projects": [], "coding_time_seconds": 0, "coding_time_seconds_today": 0, "balance": "You need to have a pocket watcher badge to view this.", "badges": [], "created_at": "2025-07-03T23:37:53.520-04:00", "updated_at": "2025-07-03T23:38:05.037-04:00", "avatar": "https://avatars.slack-edge.com/2024-08-27/7620309489975_277ccee5190425ca7dae_original.jpg", "custom_css": null}, {"id": 14622, "slack_id": "U085853MWJV", "display_name": "Akshit Erukulla", "bio": null, "projects_count": 0, "devlogs_count": 0, "votes_count": 0, "ships_count": 0, "projects": [], "coding_time_seconds": 0, "coding_time_seconds_today": 0, "balance": "You need to have a pocket watcher badge to view this.", "badges": [], "created_at": "2025-07-03T23:54:35.911-04:00", "updated_at": "2025-07-03T23:59:29.657-04:00", "avatar": "https://secure.gravatar.com/avatar/0e9ba4e3ff54c4beb0a1e8a4537d9000.jpg?s=512&d=https%3A%2F%2Fa.slack-edge.com%2Fdf10d%2Fimg%2Favatars%2Fava_0008-512.png", "custom_css": null}, {"id": 14623, "slack_id": "U094B9X75C2", "display_name": "G Monish", "bio": null, "projects_count": 0, "devlogs_count": 0, "votes_count": 0, "ships_count": 0, "projects": [], "coding_time_seconds": 0, "coding_time_seconds_today": 0, "balance": "You need to have a pocket watcher badge to view this.", "badges": [], "created_at": "2025-07-03T23:55:33.701-04:00", "updated_at": "2025-07-05T08:16:33.460-04:00", "avatar": "https://secure.gravatar.com/avatar/6d7381c2de9d2ed23290c73008450ee0.jpg?s=512&d=https%3A%2F%2Fa.slack-edge.com%2Fdf10d%2Fimg%2Favatars%2Fava_0005-512.png", "custom_css": null}, {"id": 14624, "slack_id": "U0947GF37ML", "display_name": "Krishnab b", "bio": null, "projects_count": 0, "devlogs_count": 0, "votes_count": 0, "ships_count": 0, "projects": [], "coding_time_seconds": 0, "coding_time_seconds_today": 0, "balance": "You need to have a pocket watcher badge to view this.", "badges": [], "created_at": "2025-07-03T23:58:23.724-04:00", "updated_at": "2025-07-04T02:34:58.444-04:00", "avatar": "https://avatars.slack-edge.com/2025-07-03/9143571757622_6ad14045de868640173d_original.png", "custom_css": null}, {"id": 14625, "slack_id": "U094AD0TL4D", "display_name": "Charjya Gogoi", "bio": null, "projects_count": 0, "devlogs_count": 0, "votes_count": 0, "ships_count": 0, "projects": [], "coding_time_seconds": 40794, "coding_time_seconds_today": 0, "balance": "You need to have a pocket watcher badge to view this.", "badges": [], "created_at": "2025-07-03T23:58:33.964-04:00", "updated_at": "2025-07-05T02:16:10.841-04:00", "avatar": "https://avatars.slack-edge.com/2025-07-03/9146452995493_6b6adcf328836861d6e0_original.png", "custom_css": null}], "pagination": {"page": 727, "pages": 1192, "count": 23828, "items": 20}}