{"users": [{"id": 14626, "slack_id": "U094AEDH04D", "display_name": "Suryanandan Babbar", "bio": null, "projects_count": 3, "devlogs_count": 1, "votes_count": 14, "ships_count": 1, "projects": [{"id": 5248, "title": "Treasure Hunt - 2D RPG Game", "devlogs_count": 1, "created_at": "2025-07-04T01:52:28.133-04:00"}, {"id": 5263, "title": "Treasure Hunt - 2D RPG Game", "devlogs_count": 0, "created_at": "2025-07-04T04:35:58.103-04:00"}, {"id": 5672, "title": "Intelligent CPU Scheduler Simulator", "devlogs_count": 0, "created_at": "2025-07-07T00:49:24.193-04:00"}], "coding_time_seconds": 11262, "coding_time_seconds_today": 0, "balance": "You need to have a pocket watcher badge to view this.", "badges": [{"name": "Maiden Voyage", "text": "you shipped your first project! the journey begins...", "icon": "\ud83d\udea2"}], "created_at": "2025-07-04T00:15:41.069-04:00", "updated_at": "2025-09-10T22:58:24.183-04:00", "avatar": "https://secure.gravatar.com/avatar/bbf5ba6f092699de9b45c8a815ebc509.jpg?s=512&d=https%3A%2F%2Fa.slack-edge.com%2Fdf10d%2Fimg%2Favatars%2Fava_0025-512.png", "custom_css": null}, {"id": 14627, "slack_id": "U094AF89QA1", "display_name": "Manny", "bio": null, "projects_count": 0, "devlogs_count": 0, "votes_count": 0, "ships_count": 0, "projects": [], "coding_time_seconds": 0, "coding_time_seconds_today": 0, "balance": "You need to have a pocket watcher badge to view this.", "badges": [], "created_at": "2025-07-04T00:24:52.815-04:00", "updated_at": "2025-07-05T08:16:33.794-04:00", "avatar": "https://secure.gravatar.com/avatar/ffe1f8f19cc7972d84d1ed6d3ab9892c.jpg?s=512&d=https%3A%2F%2Fa.slack-edge.com%2Fdf10d%2Fimg%2Favatars%2Fava_0023-512.png", "custom_css": null}, {"id": 14628, "slack_id": "U094AJ129FF", "display_name": "\u0420\u0430\u0434\u043c\u0438\u0440", "bio": null, "projects_count": 0, "devlogs_count": 0, "votes_count": 0, "ships_count": 0, "projects": [], "coding_time_seconds": 9460, "coding_time_seconds_today": 0, "balance": "You need to have a pocket watcher badge to view this.", "badges": [], "created_at": "2025-07-04T00:58:15.702-04:00", "updated_at": "2025-07-05T08:16:33.880-04:00", "avatar": "https://avatars.slack-edge.com/2025-07-03/9146618366293_4201a76e7a5fdd63b2b5_original.png", "custom_css": null}, {"id": 14629, "slack_id": "U094BFJLEEN", "display_name": "Guy Lukin", "bio": null, "projects_count": 0, "devlogs_count": 0, "votes_count": 0, "ships_count": 0, "projects": [], "coding_time_seconds": 0, "coding_time_seconds_today": 0, "balance": "You need to have a pocket watcher badge to view this.", "badges": [], "created_at": "2025-07-04T01:03:50.048-04:00", "updated_at": "2025-07-05T08:16:33.952-04:00", "avatar": "https://secure.gravatar.com/avatar/5732321c529289df962afcee452adb7d.jpg?s=512&d=https%3A%2F%2Fa.slack-edge.com%2Fdf10d%2Fimg%2Favatars%2Fava_0004-512.png", "custom_css": null}, {"id": 14630, "slack_id": "U0944P6M9K5", "display_name": "Cormac_BR", "bio": null, "projects_count": 0, "devlogs_count": 0, "votes_count": 0, "ships_count": 0, "projects": [], "coding_time_seconds": 0, "coding_time_seconds_today": 0, "balance": "You need to have a pocket watcher badge to view this.", "badges": [], "created_at": "2025-07-04T01:36:23.540-04:00", "updated_at": "2025-07-06T02:17:50.627-04:00", "avatar": "https://secure.gravatar.com/avatar/4d8b9abcddfbe88e7604b4efea2e59c5.jpg?s=512&d=https%3A%2F%2Fa.slack-edge.com%2Fdf10d%2Fimg%2Favatars%2Fava_0024-512.png", "custom_css": null}, {"id": 14631, "slack_id": "U0944PRC5RR", "display_name": "K. Aditi Varma", "bio": null, "projects_count": 0, "devlogs_count": 0, "votes_count": 0, "ships_count": 0, "projects": [], "coding_time_seconds": 0, "coding_time_seconds_today": 0, "balance": "You need to have a pocket watcher badge to view this.", "badges": [], "created_at": "2025-07-04T01:40:13.850-04:00", "updated_at": "2025-07-05T02:16:11.216-04:00", "avatar": "https://secure.gravatar.com/avatar/ff6a3133d7d8e97eb0cfc99640f81d1d.jpg?s=512&d=https%3A%2F%2Fa.slack-edge.com%2Fdf10d%2Fimg%2Favatars%2Fava_0019-512.png", "custom_css": null}, {"id": 14632, "slack_id": "U094BKH2C6N", "display_name": "Adarsh", "bio": null, "projects_count": 0, "devlogs_count": 0, "votes_count": 0, "ships_count": 0, "projects": [], "coding_time_seconds": 0, "coding_time_seconds_today": 0, "balance": "You need to have a pocket watcher badge to view this.", "badges": [], "created_at": "2025-07-04T01:47:30.608-04:00", "updated_at": "2025-07-04T02:34:59.010-04:00", "avatar": "https://secure.gravatar.com/avatar/e1f26f820c8007dbbf23d47686ea2b59.jpg?s=512&d=https%3A%2F%2Fa.slack-edge.com%2Fdf10d%2Fimg%2Favatars%2Fava_0009-512.png", "custom_css": null}, {"id": 14633, "slack_id": "U083AD9S1HP", "display_name": "crystallized", "bio": null, "projects_count": 0, "devlogs_count": 0, "votes_count": 0, "ships_count": 0, "projects": [], "coding_time_seconds": 0, "coding_time_seconds_today": 0, "balance": "You need to have a pocket watcher badge to view this.", "badges": [], "created_at": "2025-07-04T01:55:05.586-04:00", "updated_at": "2025-07-04T01:58:08.605-04:00", "avatar": "https://secure.gravatar.com/avatar/648b55ecc51f47fd347d82a3d9c69126.jpg?s=512&d=https%3A%2F%2Fa.slack-edge.com%2Fdf10d%2Fimg%2Favatars%2Fava_0001-512.png", "custom_css": null}, {"id": 14634, "slack_id": "U091GMLCUAX", "display_name": "Vaibhav", "bio": null, "projects_count": 0, "devlogs_count": 0, "votes_count": 0, "ships_count": 0, "projects": [], "coding_time_seconds": 0, "coding_time_seconds_today": 0, "balance": "You need to have a pocket watcher badge to view this.", "badges": [], "created_at": "2025-07-04T01:58:16.559-04:00", "updated_at": "2025-07-08T03:15:59.825-04:00", "avatar": "https://avatars.slack-edge.com/2025-07-08/9161365376322_642b8b35eabb2057b479_original.jpg", "custom_css": null}, {"id": 14635, "slack_id": "U0944RLNWAF", "display_name": "Suwahyudi Syarif", "bio": null, "projects_count": 0, "devlogs_count": 0, "votes_count": 0, "ships_count": 0, "projects": [], "coding_time_seconds": 0, "coding_time_seconds_today": 0, "balance": "You need to have a pocket watcher badge to view this.", "badges": [], "created_at": "2025-07-04T01:59:26.751-04:00", "updated_at": "2025-07-04T08:31:17.584-04:00", "avatar": "https://secure.gravatar.com/avatar/dabbd7f4d5d855430c0a5c1208780429.jpg?s=512&d=https%3A%2F%2Fa.slack-edge.com%2Fdf10d%2Fimg%2Favatars%2Fava_0026-512.png", "custom_css": null}, {"id": 14636, "slack_id": "U0947U5HB1U", "display_name": "Dafa Nurul Fauziansyah", "bio": null, "projects_count": 0, "devlogs_count": 0, "votes_count": 0, "ships_count": 0, "projects": [], "coding_time_seconds": 0, "coding_time_seconds_today": 0, "balance": "You need to have a pocket watcher badge to view this.", "badges": [], "created_at": "2025-07-04T02:05:13.924-04:00", "updated_at": "2025-07-04T08:31:17.682-04:00", "avatar": "https://secure.gravatar.com/avatar/c5d5a679a8c35c7fa38d746552cc4f47.jpg?s=512&d=https%3A%2F%2Fa.slack-edge.com%2Fdf10d%2Fimg%2Favatars%2Fava_0003-512.png", "custom_css": null}, {"id": 14637, "slack_id": "U09482FRPPG", "display_name": "Akshat Kumar", "bio": null, "projects_count": 2, "devlogs_count": 0, "votes_count": 0, "ships_count": 0, "projects": [{"id": 5273, "title": "SONG RECOMMENDER AI ", "devlogs_count": 0, "created_at": "2025-07-04T06:16:29.545-04:00"}, {"id": 5266, "title": "AI FOR BUSINESS", "devlogs_count": 0, "created_at": "2025-07-04T05:45:23.263-04:00"}], "coding_time_seconds": 34922, "coding_time_seconds_today": 0, "balance": "You need to have a pocket watcher badge to view this.", "badges": [], "created_at": "2025-07-04T02:38:56.203-04:00", "updated_at": "2025-07-05T14:17:57.730-04:00", "avatar": "https://secure.gravatar.com/avatar/90bcc6d266bc39fbfd0c0c278c330a7e.jpg?s=512&d=https%3A%2F%2Fa.slack-edge.com%2Fdf10d%2Fimg%2Favatars%2Fava_0024-512.png", "custom_css": null}, {"id": 14638, "slack_id": "U094DSRFPL4", "display_name": "SuQiuLing", "bio": null, "projects_count": 0, "devlogs_count": 0, "votes_count": 0, "ships_count": 0, "projects": [], "coding_time_seconds": 0, "coding_time_seconds_today": 0, "balance": "You need to have a pocket watcher badge to view this.", "badges": [], "created_at": "2025-07-04T02:40:21.149-04:00", "updated_at": "2025-07-06T02:17:51.168-04:00", "avatar": "https://secure.gravatar.com/avatar/476b65760ecd83b89a0bf8720bbec3f1.jpg?s=512&d=https%3A%2F%2Fa.slack-edge.com%2Fdf10d%2Fimg%2Favatars%2Fava_0002-512.png", "custom_css": null}, {"id": 14639, "slack_id": "U095071MF4G", "display_name": "\u0110\u00c0M NH\u01af \u0110\u1ea0T", "bio": null, "projects_count": 0, "devlogs_count": 0, "votes_count": 0, "ships_count": 0, "projects": [], "coding_time_seconds": 0, "coding_time_seconds_today": 0, "balance": "You need to have a pocket watcher badge to view this.", "badges": [], "created_at": "2025-07-04T02:55:06.075-04:00", "updated_at": "2025-07-06T20:16:18.643-04:00", "avatar": "https://secure.gravatar.com/avatar/c8f4ce21adaa9046ce15127c963bd714.jpg?s=512&d=https%3A%2F%2Fa.slack-edge.com%2Fdf10d%2Fimg%2Favatars%2Fava_0017-512.png", "custom_css": null}, {"id": 14640, "slack_id": "U085P7ADHDX", "display_name": "Le Minh Loc", "bio": null, "projects_count": 0, "devlogs_count": 0, "votes_count": 0, "ships_count": 0, "projects": [], "coding_time_seconds": 15062, "coding_time_seconds_today": 0, "balance": "You need to have a pocket watcher badge to view this.", "badges": [], "created_at": "2025-07-04T03:15:53.205-04:00", "updated_at": "2025-07-06T23:43:03.314-04:00", "avatar": "https://secure.gravatar.com/avatar/0542f96bee66f8780535a187aa563461.jpg?s=512&d=https%3A%2F%2Fa.slack-edge.com%2Fdf10d%2Fimg%2Favatars%2Fava_0014-512.png", "custom_css": null}, {"id": 14641, "slack_id": "U08AX228LJJ", "display_name": "arjun agarwal", "bio": null, "projects_count": 9, "devlogs_count": 19, "votes_count": 58, "ships_count": 4, "projects": [{"id": 9379, "title": "puzzle-bot", "devlogs_count": 0, "created_at": "2025-07-31T23:13:29.313-04:00"}, {"id": 9380, "title": "puzzle-bot", "devlogs_count": 10, "created_at": "2025-07-31T23:13:29.334-04:00"}, {"id": 9387, "title": "Jarvis", "devlogs_count": 1, "created_at": "2025-07-31T23:54:59.422-04:00"}, {"id": 9388, "title": "Jarvis", "devlogs_count": 0, "created_at": "2025-07-31T23:54:59.912-04:00"}, {"id": 9702, "title": "arj-torch", "devlogs_count": 0, "created_at": "2025-08-02T04:12:06.626-04:00"}, {"id": 9984, "title": "smart-todo", "devlogs_count": 5, "created_at": "2025-08-03T09:41:03.129-04:00"}, {"id": 11352, "title": "Cool_simulations", "devlogs_count": 1, "created_at": "2025-08-15T05:46:19.966-04:00"}, {"id": 11930, "title": "Simulat_Environment", "devlogs_count": 0, "created_at": "2025-08-21T07:11:14.911-04:00"}, {"id": 9701, "title": "arj-torch", "devlogs_count": 2, "created_at": "2025-08-02T04:12:06.353-04:00"}], "coding_time_seconds": 564864, "coding_time_seconds_today": 0, "balance": "You need to have a pocket watcher badge to view this.", "badges": [{"name": "Maiden Voyage", "text": "you shipped your first project! the journey begins...", "icon": "\ud83d\udea2"}], "created_at": "2025-07-04T03:44:06.606-04:00", "updated_at": "2025-09-10T22:58:24.574-04:00", "avatar": "https://avatars.slack-edge.com/2025-02-11/8434025152562_342120c5b2d1a4c9810f_original.png", "custom_css": null}, {"id": 14642, "slack_id": "U093ZJCH1CP", "display_name": "Amrith Niyogi", "bio": null, "projects_count": 0, "devlogs_count": 0, "votes_count": 0, "ships_count": 0, "projects": [], "coding_time_seconds": 0, "coding_time_seconds_today": 0, "balance": "You need to have a pocket watcher badge to view this.", "badges": [], "created_at": "2025-07-04T03:55:25.735-04:00", "updated_at": "2025-07-12T04:34:10.401-04:00", "avatar": "https://avatars.slack-edge.com/2025-07-04/9144424887878_75d18465c872ec12c499_original.png", "custom_css": null}, {"id": 14643, "slack_id": "U0950F377CY", "display_name": "drax1", "bio": null, "projects_count": 0, "devlogs_count": 0, "votes_count": 0, "ships_count": 0, "projects": [], "coding_time_seconds": 0, "coding_time_seconds_today": 0, "balance": "You need to have a pocket watcher badge to view this.", "badges": [], "created_at": "2025-07-04T03:56:42.307-04:00", "updated_at": "2025-07-05T02:16:11.983-04:00", "avatar": "https://secure.gravatar.com/avatar/0fb8c7b1867396973e50a967e285b5ec.jpg?s=512&d=https%3A%2F%2Fa.slack-edge.com%2Fdf10d%2Fimg%2Favatars%2Fava_0010-512.png", "custom_css": null}, {"id": 14644, "slack_id": "U0948CBM0R4", "display_name": "Ashish", "bio": null, "projects_count": 0, "devlogs_count": 0, "votes_count": 0, "ships_count": 0, "projects": [], "coding_time_seconds": 19394, "coding_time_seconds_today": 0, "balance": "You need to have a pocket watcher badge to view this.", "badges": [], "created_at": "2025-07-04T04:00:28.157-04:00", "updated_at": "2025-09-09T21:16:06.630-04:00", "avatar": "https://avatars.slack-edge.com/2025-09-09/9488365590694_dd4b08f158f1286ee2c5_original.png", "custom_css": null}, {"id": 14645, "slack_id": "U094RFMGV09", "display_name": "Alexandr Vinichenko", "bio": null, "projects_count": 1, "devlogs_count": 1, "votes_count": 0, "ships_count": 0, "projects": [{"id": 5702, "title": "SIMS", "devlogs_count": 1, "created_at": "2025-07-07T09:38:26.329-04:00"}], "coding_time_seconds": 855156, "coding_time_seconds_today": 0, "balance": "You need to have a pocket watcher badge to view this.", "badges": [], "created_at": "2025-07-04T04:05:09.874-04:00", "updated_at": "2025-07-07T14:28:10.449-04:00", "avatar": "https://secure.gravatar.com/avatar/32a351ee4be34ee70b63f6dbc3dac444.jpg?s=512&d=https%3A%2F%2Fa.slack-edge.com%2Fdf10d%2Fimg%2Favatars%2Fava_0015-512.png", "custom_css": null}], "pagination": {"page": 728, "pages": 1192, "count": 23828, "items": 20}}