{"users": [{"id": 14646, "slack_id": "U0950G35064", "display_name": "OutLaW", "bio": null, "projects_count": 0, "devlogs_count": 0, "votes_count": 0, "ships_count": 0, "projects": [], "coding_time_seconds": 0, "coding_time_seconds_today": 0, "balance": "You need to have a pocket watcher badge to view this.", "badges": [], "created_at": "2025-07-04T04:10:59.092-04:00", "updated_at": "2025-07-21T17:43:56.514-04:00", "avatar": "https://secure.gravatar.com/avatar/10de405d3b772d290871a9182391b915.jpg?s=512&d=https%3A%2F%2Fa.slack-edge.com%2Fdf10d%2Fimg%2Favatars%2Fava_0000-512.png", "custom_css": null}, {"id": 14647, "slack_id": "U0950KEAU0G", "display_name": "Abushan ISRO", "bio": null, "projects_count": 0, "devlogs_count": 0, "votes_count": 0, "ships_count": 0, "projects": [], "coding_time_seconds": 0, "coding_time_seconds_today": 0, "balance": "You need to have a pocket watcher badge to view this.", "badges": [], "created_at": "2025-07-04T04:27:29.189-04:00", "updated_at": "2025-07-04T08:31:18.493-04:00", "avatar": "https://avatars.slack-edge.com/2025-07-04/9150472728948_06b2a294f9c805deaa64_original.jpg", "custom_css": null}, {"id": 14648, "slack_id": "U093SU1M555", "display_name": "thea", "bio": null, "projects_count": 0, "devlogs_count": 0, "votes_count": 0, "ships_count": 0, "projects": [], "coding_time_seconds": 0, "coding_time_seconds_today": 0, "balance": "You need to have a pocket watcher badge to view this.", "badges": [], "created_at": "2025-07-04T04:40:34.695-04:00", "updated_at": "2025-07-06T02:17:51.859-04:00", "avatar": "https://secure.gravatar.com/avatar/e8d44118d3bc9302e1c7b32ac927e85a.jpg?s=512&d=https%3A%2F%2Fa.slack-edge.com%2Fdf10d%2Fimg%2Favatars%2Fava_0003-512.png", "custom_css": null}, {"id": 14649, "slack_id": "U094EGCART6", "display_name": "Rahul Yadav", "bio": null, "projects_count": 0, "devlogs_count": 0, "votes_count": 0, "ships_count": 0, "projects": [], "coding_time_seconds": 0, "coding_time_seconds_today": 0, "balance": "You need to have a pocket watcher badge to view this.", "badges": [], "created_at": "2025-07-04T04:47:51.369-04:00", "updated_at": "2025-07-06T14:15:49.998-04:00", "avatar": "https://avatars.slack-edge.com/2025-07-04/9144674354598_b7f3549b5f3ff141115f_original.png", "custom_css": null}, {"id": 14650, "slack_id": "U0950NV7LQY", "display_name": "Fachru", "bio": null, "projects_count": 0, "devlogs_count": 0, "votes_count": 0, "ships_count": 0, "projects": [], "coding_time_seconds": 144148, "coding_time_seconds_today": 0, "balance": "You need to have a pocket watcher badge to view this.", "badges": [], "created_at": "2025-07-04T04:51:07.774-04:00", "updated_at": "2025-07-04T08:31:18.707-04:00", "avatar": "https://avatars.slack-edge.com/2025-07-04/9161822969745_66ed4a18e7eecbe7ad5c_original.jpg", "custom_css": null}, {"id": 14651, "slack_id": "U08BQ13CJ1X", "display_name": "Kagen0u", "bio": null, "projects_count": 1, "devlogs_count": 0, "votes_count": 0, "ships_count": 0, "projects": [{"id": 11286, "title": "AI Sentiment Stock Analysis", "devlogs_count": 0, "created_at": "2025-08-14T15:36:11.045-04:00"}], "coding_time_seconds": 9788, "coding_time_seconds_today": 0, "balance": "You need to have a pocket watcher badge to view this.", "badges": [], "created_at": "2025-07-04T04:55:02.121-04:00", "updated_at": "2025-08-07T16:53:18.847-04:00", "avatar": "https://secure.gravatar.com/avatar/c244050c225c5ed5f753bfaf01630267.jpg?s=512&d=https%3A%2F%2Fa.slack-edge.com%2Fdf10d%2Fimg%2Favatars%2Fava_0005-512.png", "custom_css": null}, {"id": 14652, "slack_id": "U093ZUAQLBH", "display_name": "Abdrahman Mostafa", "bio": null, "projects_count": 0, "devlogs_count": 0, "votes_count": 0, "ships_count": 0, "projects": [], "coding_time_seconds": 0, "coding_time_seconds_today": 0, "balance": "You need to have a pocket watcher badge to view this.", "badges": [], "created_at": "2025-07-04T05:08:55.642-04:00", "updated_at": "2025-07-05T08:16:35.740-04:00", "avatar": "https://avatars.slack-edge.com/2025-07-04/9144777108118_e2287db5906dca3e9995_original.jpg", "custom_css": null}, {"id": 14653, "slack_id": "U07P24VBQGN", "display_name": "Spicy nuggets", "bio": null, "projects_count": 0, "devlogs_count": 0, "votes_count": 0, "ships_count": 0, "projects": [], "coding_time_seconds": 0, "coding_time_seconds_today": 0, "balance": "You need to have a pocket watcher badge to view this.", "badges": [], "created_at": "2025-07-04T05:09:39.098-04:00", "updated_at": "2025-07-10T16:50:07.008-04:00", "avatar": "https://avatars.slack-edge.com/2024-11-07/7996018527957_e75cf250f988eb1a519a_original.png", "custom_css": null}, {"id": 14654, "slack_id": "U0948T57KN2", "display_name": "Rayane", "bio": null, "projects_count": 0, "devlogs_count": 0, "votes_count": 0, "ships_count": 0, "projects": [], "coding_time_seconds": 42893, "coding_time_seconds_today": 0, "balance": "You need to have a pocket watcher badge to view this.", "badges": [], "created_at": "2025-07-04T05:44:49.143-04:00", "updated_at": "2025-07-05T02:16:12.774-04:00", "avatar": "https://secure.gravatar.com/avatar/cfc19d4b9f3941f009a108390f02d044.jpg?s=512&d=https%3A%2F%2Fa.slack-edge.com%2Fdf10d%2Fimg%2Favatars%2Fava_0008-512.png", "custom_css": null}, {"id": 14655, "slack_id": "U07QATLA7TK", "display_name": "sahana", "bio": null, "projects_count": 0, "devlogs_count": 0, "votes_count": 0, "ships_count": 0, "projects": [], "coding_time_seconds": 2043, "coding_time_seconds_today": 0, "balance": "You need to have a pocket watcher badge to view this.", "badges": [], "created_at": "2025-07-04T05:49:33.425-04:00", "updated_at": "2025-07-14T11:44:16.448-04:00", "avatar": "https://avatars.slack-edge.com/2025-07-04/9148987585509_757026e68d254a0e7555_original.png", "custom_css": null}, {"id": 14656, "slack_id": "U09511U5LNL", "display_name": "Mateo Desuasido", "bio": null, "projects_count": 3, "devlogs_count": 16, "votes_count": 34, "ships_count": 3, "projects": [{"id": 5419, "title": "Control My Aircon", "devlogs_count": 9, "created_at": "2025-07-05T07:04:34.996-04:00"}, {"id": 5950, "title": "Countdown to School", "devlogs_count": 4, "created_at": "2025-07-09T10:37:04.107-04:00"}, {"id": 5288, "title": "Practice", "devlogs_count": 3, "created_at": "2025-07-04T08:36:58.467-04:00"}], "coding_time_seconds": 121034, "coding_time_seconds_today": 0, "balance": "You need to have a pocket watcher badge to view this.", "badges": [{"name": "Maiden Voyage", "text": "you shipped your first project! the journey begins...", "icon": "\ud83d\udea2"}], "created_at": "2025-07-04T05:53:28.039-04:00", "updated_at": "2025-09-10T22:58:25.048-04:00", "avatar": "https://avatars.slack-edge.com/2025-07-04/9141914853475_6b8fa8c3bc91f7e2fe1e_original.png", "custom_css": null}, {"id": 14657, "slack_id": "U094BQVS3UM", "display_name": "Pratham R", "bio": null, "projects_count": 0, "devlogs_count": 0, "votes_count": 0, "ships_count": 0, "projects": [], "coding_time_seconds": 0, "coding_time_seconds_today": 0, "balance": "You need to have a pocket watcher badge to view this.", "badges": [], "created_at": "2025-07-04T06:11:13.957-04:00", "updated_at": "2025-07-06T20:16:19.702-04:00", "avatar": "https://avatars.slack-edge.com/2025-07-04/9150970849124_02e3fd371fe753eb7dbe_original.png", "custom_css": null}, {"id": 14658, "slack_id": "U0940BHG5QX", "display_name": "Rabe56", "bio": null, "projects_count": 0, "devlogs_count": 0, "votes_count": 0, "ships_count": 0, "projects": [], "coding_time_seconds": 0, "coding_time_seconds_today": 0, "balance": "You need to have a pocket watcher badge to view this.", "badges": [], "created_at": "2025-07-04T06:51:43.828-04:00", "updated_at": "2025-07-04T20:15:32.969-04:00", "avatar": "https://secure.gravatar.com/avatar/a757fb955e72c81a14010226f2eb0477.jpg?s=512&d=https%3A%2F%2Fa.slack-edge.com%2Fdf10d%2Fimg%2Favatars%2Fava_0019-512.png", "custom_css": null}, {"id": 14659, "slack_id": "U094C0AD23X", "display_name": "Sobia Khan", "bio": null, "projects_count": 0, "devlogs_count": 0, "votes_count": 0, "ships_count": 0, "projects": [], "coding_time_seconds": 0, "coding_time_seconds_today": 0, "balance": "You need to have a pocket watcher badge to view this.", "badges": [], "created_at": "2025-07-04T06:57:01.867-04:00", "updated_at": "2025-09-11T03:16:27.863-04:00", "avatar": "https://avatars.slack-edge.com/2025-09-10/9499084632180_58fe545057671d587dac_original.jpg", "custom_css": null}, {"id": 14660, "slack_id": "U094S22TA5P", "display_name": "Leonard Schrage", "bio": null, "projects_count": 0, "devlogs_count": 0, "votes_count": 0, "ships_count": 0, "projects": [], "coding_time_seconds": 784, "coding_time_seconds_today": 0, "balance": "You need to have a pocket watcher badge to view this.", "badges": [], "created_at": "2025-07-04T07:08:04.800-04:00", "updated_at": "2025-07-06T02:17:52.623-04:00", "avatar": "https://secure.gravatar.com/avatar/bfd1d2230f7af15f90a008e357d93429.jpg?s=512&d=https%3A%2F%2Fa.slack-edge.com%2Fdf10d%2Fimg%2Favatars%2Fava_0014-512.png", "custom_css": null}, {"id": 14661, "slack_id": "U094S9ZC5G9", "display_name": "Derek Daniel", "bio": null, "projects_count": 1, "devlogs_count": 0, "votes_count": 6, "ships_count": 0, "projects": [{"id": 5664, "title": "Eco Ninja", "devlogs_count": 0, "created_at": "2025-07-06T23:01:50.283-04:00"}], "coding_time_seconds": 120, "coding_time_seconds_today": 0, "balance": "You need to have a pocket watcher badge to view this.", "badges": [], "created_at": "2025-07-04T07:11:50.654-04:00", "updated_at": "2025-07-06T23:19:40.573-04:00", "avatar": "https://secure.gravatar.com/avatar/91eefb7b5d59139029b62e655b9008e1.jpg?s=512&d=https%3A%2F%2Fa.slack-edge.com%2Fdf10d%2Fimg%2Favatars%2Fava_0021-512.png", "custom_css": null}, {"id": 14662, "slack_id": "U0940EN3TK9", "display_name": "Amiram Turgeman", "bio": null, "projects_count": 1, "devlogs_count": 0, "votes_count": 1, "ships_count": 0, "projects": [{"id": 5611, "title": "Mop", "devlogs_count": 0, "created_at": "2025-07-06T14:33:45.529-04:00"}], "coding_time_seconds": 2638, "coding_time_seconds_today": 0, "balance": "You need to have a pocket watcher badge to view this.", "badges": [], "created_at": "2025-07-04T07:17:59.272-04:00", "updated_at": "2025-08-07T12:46:03.658-04:00", "avatar": "https://secure.gravatar.com/avatar/b97fcfb8deaab8314c1be808c628d135.jpg?s=512&d=https%3A%2F%2Fa.slack-edge.com%2Fdf10d%2Fimg%2Favatars%2Fava_0001-512.png", "custom_css": null}, {"id": 14663, "slack_id": "U09427YCA01", "display_name": "Douglas Ara\u00fajo", "bio": null, "projects_count": 0, "devlogs_count": 0, "votes_count": 0, "ships_count": 0, "projects": [], "coding_time_seconds": 0, "coding_time_seconds_today": 0, "balance": "You need to have a pocket watcher badge to view this.", "badges": [], "created_at": "2025-07-04T07:38:56.150-04:00", "updated_at": "2025-07-05T02:16:13.825-04:00", "avatar": "https://avatars.slack-edge.com/2025-07-04/9149120045714_39d38234b23c0157d0b4_original.png", "custom_css": null}, {"id": 14664, "slack_id": "U094F9RBG1J", "display_name": "Manoj Kumawat", "bio": null, "projects_count": 0, "devlogs_count": 0, "votes_count": 0, "ships_count": 0, "projects": [], "coding_time_seconds": 3365, "coding_time_seconds_today": 0, "balance": "You need to have a pocket watcher badge to view this.", "badges": [], "created_at": "2025-07-04T07:48:33.931-04:00", "updated_at": "2025-07-04T20:15:33.353-04:00", "avatar": "https://secure.gravatar.com/avatar/483e57b85d79a3ba0a55c7a09080964f.jpg?s=512&d=https%3A%2F%2Fa.slack-edge.com%2Fdf10d%2Fimg%2Favatars%2Fava_0010-512.png", "custom_css": null}, {"id": 14665, "slack_id": "U094FBQP08L", "display_name": "peps_win", "bio": null, "projects_count": 0, "devlogs_count": 0, "votes_count": 0, "ships_count": 0, "projects": [], "coding_time_seconds": 0, "coding_time_seconds_today": 0, "balance": "You need to have a pocket watcher badge to view this.", "badges": [], "created_at": "2025-07-04T08:04:18.085-04:00", "updated_at": "2025-07-04T08:31:19.987-04:00", "avatar": "https://secure.gravatar.com/avatar/0fbdcff1ba450a4009b1504ffc21620c.jpg?s=512&d=https%3A%2F%2Fa.slack-edge.com%2Fdf10d%2Fimg%2Favatars%2Fava_0021-512.png", "custom_css": null}], "pagination": {"page": 729, "pages": 1192, "count": 23828, "items": 20}}