{"users": [{"id": 1441, "slack_id": "U09188DJ6JK", "display_name": "Paolo Galang", "bio": null, "projects_count": 0, "devlogs_count": 0, "votes_count": 0, "ships_count": 0, "projects": [], "coding_time_seconds": 0, "coding_time_seconds_today": 0, "balance": "You need to have a pocket watcher badge to view this.", "badges": [], "created_at": "2025-06-16T13:17:22.780-04:00", "updated_at": "2025-07-03T19:17:39.311-04:00", "avatar": "https://avatars.slack-edge.com/2025-06-16/9050654993811_d19573de8b4b21f9639e_original.jpg", "custom_css": null}, {"id": 1442, "slack_id": "U09188LL2EB", "display_name": "RISHI RAJ", "bio": null, "projects_count": 0, "devlogs_count": 0, "votes_count": 0, "ships_count": 0, "projects": [], "coding_time_seconds": 203530, "coding_time_seconds_today": 0, "balance": "You need to have a pocket watcher badge to view this.", "badges": [], "created_at": "2025-06-16T13:17:23.512-04:00", "updated_at": "2025-07-03T19:17:39.587-04:00", "avatar": "https://secure.gravatar.com/avatar/7d024c6a4361d76dfa874ab732f874bc.jpg?s=512&d=https%3A%2F%2Fa.slack-edge.com%2Fdf10d%2Fimg%2Favatars%2Fava_0008-512.png", "custom_css": null}, {"id": 1443, "slack_id": "U09224GGM8R", "display_name": "Ciro Mota", "bio": null, "projects_count": 0, "devlogs_count": 0, "votes_count": 0, "ships_count": 0, "projects": [], "coding_time_seconds": 19999, "coding_time_seconds_today": 0, "balance": "You need to have a pocket watcher badge to view this.", "badges": [], "created_at": "2025-06-16T13:17:24.620-04:00", "updated_at": "2025-07-03T19:17:39.858-04:00", "avatar": "https://secure.gravatar.com/avatar/c2762ca6983439dd2d95a3d3c1f226bc.jpg?s=512&d=https%3A%2F%2Fa.slack-edge.com%2Fdf10d%2Fimg%2Favatars%2Fava_0025-512.png", "custom_css": null}, {"id": 1444, "slack_id": "U091MQA42DT", "display_name": "kagep", "bio": null, "projects_count": 0, "devlogs_count": 0, "votes_count": 0, "ships_count": 0, "projects": [], "coding_time_seconds": 108236, "coding_time_seconds_today": 0, "balance": "You need to have a pocket watcher badge to view this.", "badges": [], "created_at": "2025-06-16T13:17:40.916-04:00", "updated_at": "2025-07-03T19:17:40.148-04:00", "avatar": "https://secure.gravatar.com/avatar/8c3fc97e30065baf8bb831ed441d580e.jpg?s=512&d=https%3A%2F%2Fa.slack-edge.com%2Fdf10d%2Fimg%2Favatars%2Fava_0013-512.png", "custom_css": null}, {"id": 1445, "slack_id": "U091Q04748L", "display_name": "Harsh Kumar", "bio": null, "projects_count": 0, "devlogs_count": 0, "votes_count": 0, "ships_count": 0, "projects": [], "coding_time_seconds": 0, "coding_time_seconds_today": 0, "balance": "You need to have a pocket watcher badge to view this.", "badges": [], "created_at": "2025-06-16T13:17:48.473-04:00", "updated_at": "2025-07-03T19:17:40.412-04:00", "avatar": "https://secure.gravatar.com/avatar/da5d2aa6df1f87fda667b1fadb395e84.jpg?s=512&d=https%3A%2F%2Fa.slack-edge.com%2Fdf10d%2Fimg%2Favatars%2Fava_0021-512.png", "custom_css": null}, {"id": 1446, "slack_id": "U09188DR19D", "display_name": "Pedro", "bio": null, "projects_count": 0, "devlogs_count": 0, "votes_count": 0, "ships_count": 0, "projects": [], "coding_time_seconds": 0, "coding_time_seconds_today": 0, "balance": "You need to have a pocket watcher badge to view this.", "badges": [], "created_at": "2025-06-16T13:17:49.551-04:00", "updated_at": "2025-07-04T15:35:43.711-04:00", "avatar": "https://secure.gravatar.com/avatar/60069a27ce622bc7a93151034b7ea2fd.jpg?s=512&d=https%3A%2F%2Fa.slack-edge.com%2Fdf10d%2Fimg%2Favatars%2Fava_0009-512.png", "custom_css": null}, {"id": 1447, "slack_id": "U091MQ9HYAZ", "display_name": "Owain Lord", "bio": null, "projects_count": 0, "devlogs_count": 0, "votes_count": 0, "ships_count": 0, "projects": [], "coding_time_seconds": 66832, "coding_time_seconds_today": 0, "balance": "You need to have a pocket watcher badge to view this.", "badges": [], "created_at": "2025-06-16T13:17:52.847-04:00", "updated_at": "2025-07-03T19:17:40.980-04:00", "avatar": "https://secure.gravatar.com/avatar/216b03a2cb930aaac419393d4d978465.jpg?s=512&d=https%3A%2F%2Fa.slack-edge.com%2Fdf10d%2Fimg%2Favatars%2Fava_0011-512.png", "custom_css": null}, {"id": 1448, "slack_id": "U09188GS3FH", "display_name": "Rehatbir Singh", "bio": null, "projects_count": 2, "devlogs_count": 11, "votes_count": 32, "ships_count": 2, "projects": [{"id": 6912, "title": "Free VoIP", "devlogs_count": 8, "created_at": "2025-07-17T10:03:16.528-04:00"}, {"id": 143, "title": "Toilet Paper", "devlogs_count": 3, "created_at": "2025-06-16T14:26:30.829-04:00"}], "coding_time_seconds": 179944, "coding_time_seconds_today": 0, "balance": "You need to have a pocket watcher badge to view this.", "badges": [{"name": "Maiden Voyage", "text": "you shipped your first project! the journey begins...", "icon": "\ud83d\udea2"}], "created_at": "2025-06-16T13:17:54.135-04:00", "updated_at": "2025-09-11T13:00:15.922-04:00", "avatar": "https://secure.gravatar.com/avatar/2576814e43486df414781fb5a6e75b22.jpg?s=512&d=https%3A%2F%2Fa.slack-edge.com%2Fdf10d%2Fimg%2Favatars%2Fava_0010-512.png", "custom_css": null}, {"id": 1449, "slack_id": "U091PHJLQE6", "display_name": "Ibrahim Sharif", "bio": null, "projects_count": 0, "devlogs_count": 0, "votes_count": 0, "ships_count": 0, "projects": [], "coding_time_seconds": 0, "coding_time_seconds_today": 0, "balance": "You need to have a pocket watcher badge to view this.", "badges": [], "created_at": "2025-06-16T13:17:55.778-04:00", "updated_at": "2025-07-03T19:17:41.516-04:00", "avatar": "https://secure.gravatar.com/avatar/6f558bb0063e2cd96a8f73835b40f749.jpg?s=512&d=https%3A%2F%2Fa.slack-edge.com%2Fdf10d%2Fimg%2Favatars%2Fava_0025-512.png", "custom_css": null}, {"id": 1450, "slack_id": "U08AK8UURRU", "display_name": "Andy", "bio": null, "projects_count": 1, "devlogs_count": 7, "votes_count": 19, "ships_count": 1, "projects": [{"id": 318, "title": "PageMark", "devlogs_count": 7, "created_at": "2025-06-16T17:57:06.325-04:00"}], "coding_time_seconds": 88584, "coding_time_seconds_today": 0, "balance": "You need to have a pocket watcher badge to view this.", "badges": [{"name": "Maiden Voyage", "text": "you shipped your first project! the journey begins...", "icon": "\ud83d\udea2"}], "created_at": "2025-06-16T13:17:55.930-04:00", "updated_at": "2025-09-10T22:51:52.429-04:00", "avatar": "https://secure.gravatar.com/avatar/dd775e34c90fba3c8e7e85eade46bfab.jpg?s=512&d=https%3A%2F%2Fa.slack-edge.com%2Fdf10d%2Fimg%2Favatars%2Fava_0019-512.png", "custom_css": null}, {"id": 1451, "slack_id": "U091Q0FUCJY", "display_name": "Rajul thakur", "bio": null, "projects_count": 1, "devlogs_count": 1, "votes_count": 11, "ships_count": 1, "projects": [{"id": 5163, "title": "CodePulse", "devlogs_count": 1, "created_at": "2025-07-03T14:25:06.632-04:00"}], "coding_time_seconds": 74154, "coding_time_seconds_today": 0, "balance": "You need to have a pocket watcher badge to view this.", "badges": [{"name": "Maiden Voyage", "text": "you shipped your first project! the journey begins...", "icon": "\ud83d\udea2"}], "created_at": "2025-06-16T13:18:18.207-04:00", "updated_at": "2025-09-10T22:51:52.457-04:00", "avatar": "https://avatars.slack-edge.com/2025-06-16/9050759036710_793477f9591e4bef18a7_original.png", "custom_css": null}, {"id": 1452, "slack_id": "U091GJW8S7M", "display_name": "Andrew Gerst", "bio": null, "projects_count": 0, "devlogs_count": 0, "votes_count": 0, "ships_count": 0, "projects": [], "coding_time_seconds": 0, "coding_time_seconds_today": 0, "balance": "You need to have a pocket watcher badge to view this.", "badges": [], "created_at": "2025-06-16T13:18:19.407-04:00", "updated_at": "2025-07-03T19:17:42.328-04:00", "avatar": "https://avatars.slack-edge.com/2025-06-16/9055845879525_c4eb248ee9f459666c06_original.jpg", "custom_css": null}, {"id": 1453, "slack_id": "U08N2EW704R", "display_name": "Rohan the Codebreaker (my code)", "bio": "I like to make silly projects that often don't really have very much practical application.\r\n\r\nCurrently working on Euclidia for the Jumpstart YSWS.\r\n\r\nShoutout to @fireentity and @venco for making super cool projects.", "projects_count": 7, "devlogs_count": 94, "votes_count": 93, "ships_count": 5, "projects": [{"id": 247, "title": "DNA-cryption", "devlogs_count": 7, "created_at": "2025-06-16T16:18:53.371-04:00"}, {"id": 10670, "title": "Personal Page", "devlogs_count": 9, "created_at": "2025-08-09T13:32:18.464-04:00"}, {"id": 13269, "title": "Letter Game", "devlogs_count": 12, "created_at": "2025-09-13T01:16:58.069-04:00"}, {"id": 5767, "title": "Graph Editor", "devlogs_count": 21, "created_at": "2025-07-07T19:59:09.334-04:00"}, {"id": 6103, "title": "Jumpstart Project Showcase Page", "devlogs_count": 7, "created_at": "2025-07-10T14:59:00.837-04:00"}, {"id": 6773, "title": "Ruby Mine - for Railway YSWS!", "devlogs_count": 23, "created_at": "2025-07-16T01:45:01.965-04:00"}, {"id": 4811, "title": "Euclidia", "devlogs_count": 15, "created_at": "2025-07-01T16:49:09.726-04:00"}], "coding_time_seconds": 562228, "coding_time_seconds_today": 0, "balance": "You need to have a pocket watcher badge to view this.", "badges": [{"name": "Maiden Voyage", "text": "you shipped your first project! the journey begins...", "icon": "\ud83d\udea2"}, {"name": "Spider", "text": "this user has a pet!", "icon": "\ud83d\udd77\ufe0f"}, {"name": "Graphic Design is My Passion", "text": "Oh God How Did This Get Here I Am Not Good With Computer", "icon": "\ud83c\udfa8"}, {"name": "Preferred Customer", "text": "you'll never know what this does...", "icon": "https://summer.hackclub.com/assets/cool-9a1241d0.png"}, {"name": "Yapper I", "text": "Posted 10 comments on devlogs.", "icon": "\ud83d\udcac"}, {"name": "Ballot Stuffer", "text": "vote 100 times.", "icon": "https://summer.hackclub.com/assets/i_voted-bf851b48.png"}], "created_at": "2025-06-16T13:18:27.985-04:00", "updated_at": "2025-09-10T22:51:52.556-04:00", "avatar": "https://avatars.slack-edge.com/2025-08-01/9292969825060_399cbfe573636c9a70a6_original.png", "custom_css": ".box-border { background-image: url(https://opengameart.org/sites/default/files/512x512_purple_nebula_1.png); }\r\n\r\n.profile-container h2 { color: white; }\r\n\r\n.card-with-gradient { background: #BBA499 !important; }\r\n.card-with-gradient:hover { box-shadow: 0 0 15px white; }\r\n\r\n.profile-stats { background-image: url(https://opengameart.org/sites/default/files/512x512_purple_nebula_1.png); border-radius: 15px; padding-right: 7.5px; padding-top: 15px; padding-left: 15px; padding-bottom: 25px;\r\ntext-shadow: 0 0 3px black, 0 0 5px white; }\r\n\r\n.profile-stats .text-xs { color: white; }\r\n.profile-stats .text-sm { color: white; }\r\n\r\n.profile-bio { background-image: url(https://opengameart.org/sites/default/files/512x512_purple_nebula_1.png); color: white; border-radius: 15px; padding: 7.5px; padding-left: 15px;\r\ntext-shadow: 0 0 3px black, 0 0 5px white; }"}, {"id": 1454, "slack_id": "U091MQKHG05", "display_name": "Diego Andrade", "bio": null, "projects_count": 0, "devlogs_count": 0, "votes_count": 0, "ships_count": 0, "projects": [], "coding_time_seconds": 0, "coding_time_seconds_today": 0, "balance": "You need to have a pocket watcher badge to view this.", "badges": [], "created_at": "2025-06-16T13:18:40.099-04:00", "updated_at": "2025-07-03T19:17:42.867-04:00", "avatar": "https://avatars.slack-edge.com/2025-06-16/9070173850449_46dcd44c6770e121b945_original.jpg", "custom_css": null}, {"id": 1455, "slack_id": "U091GAAD9SA", "display_name": "Abhi Saxena", "bio": null, "projects_count": 0, "devlogs_count": 0, "votes_count": 0, "ships_count": 0, "projects": [], "coding_time_seconds": 677287, "coding_time_seconds_today": 2122, "balance": "You need to have a pocket watcher badge to view this.", "badges": [], "created_at": "2025-06-16T13:18:48.062-04:00", "updated_at": "2025-07-03T19:17:43.148-04:00", "avatar": "https://secure.gravatar.com/avatar/a709afab518c011a2055c891b1395555.jpg?s=512&d=https%3A%2F%2Fa.slack-edge.com%2Fdf10d%2Fimg%2Favatars%2Fava_0022-512.png", "custom_css": null}, {"id": 1456, "slack_id": "U091GMV25CN", "display_name": "Abhisek Mohanty", "bio": null, "projects_count": 0, "devlogs_count": 0, "votes_count": 0, "ships_count": 0, "projects": [], "coding_time_seconds": 0, "coding_time_seconds_today": 0, "balance": "You need to have a pocket watcher badge to view this.", "badges": [], "created_at": "2025-06-16T13:18:50.016-04:00", "updated_at": "2025-07-03T19:17:43.426-04:00", "avatar": "https://avatars.slack-edge.com/2025-06-16/9055847768149_58771ec207c9aa48359e_original.png", "custom_css": null}, {"id": 1457, "slack_id": "U091GJ28PHU", "display_name": "Alex Secor", "bio": null, "projects_count": 0, "devlogs_count": 0, "votes_count": 0, "ships_count": 0, "projects": [], "coding_time_seconds": 0, "coding_time_seconds_today": 0, "balance": "You need to have a pocket watcher badge to view this.", "badges": [], "created_at": "2025-06-16T13:18:51.155-04:00", "updated_at": "2025-07-03T19:17:43.709-04:00", "avatar": "https://secure.gravatar.com/avatar/64d69509b053c0244bb5fc18e3597803.jpg?s=512&d=https%3A%2F%2Fa.slack-edge.com%2Fdf10d%2Fimg%2Favatars%2Fava_0010-512.png", "custom_css": null}, {"id": 1458, "slack_id": "U09188VU8UF", "display_name": "trkl", "bio": null, "projects_count": 2, "devlogs_count": 29, "votes_count": 59, "ships_count": 2, "projects": [{"id": 1422, "title": "WinForms Sticky Notes App", "devlogs_count": 2, "created_at": "2025-06-18T14:31:50.123-04:00"}, {"id": 7933, "title": "\"tangentr\u00f6ra\" C# Terminal Based Text Editor", "devlogs_count": 27, "created_at": "2025-07-23T17:35:18.634-04:00"}], "coding_time_seconds": 317313, "coding_time_seconds_today": 0, "balance": "You need to have a pocket watcher badge to view this.", "badges": [{"name": "Maiden Voyage", "text": "you shipped your first project! the journey begins...", "icon": "\ud83d\udea2"}], "created_at": "2025-06-16T13:18:58.277-04:00", "updated_at": "2025-09-10T22:51:52.687-04:00", "avatar": "https://secure.gravatar.com/avatar/4e6d54fe51106b93858bbda7436aaac0.jpg?s=512&d=https%3A%2F%2Fa.slack-edge.com%2Fdf10d%2Fimg%2Favatars%2Fava_0010-512.png", "custom_css": null}, {"id": 1459, "slack_id": "U091Q0H6PNG", "display_name": "Anushka Pal", "bio": null, "projects_count": 0, "devlogs_count": 0, "votes_count": 0, "ships_count": 0, "projects": [], "coding_time_seconds": 0, "coding_time_seconds_today": 0, "balance": "You need to have a pocket watcher badge to view this.", "badges": [], "created_at": "2025-06-16T13:19:02.271-04:00", "updated_at": "2025-07-03T19:17:44.242-04:00", "avatar": "https://secure.gravatar.com/avatar/1cb29a4e8d10422ae1340de587ee9f42.jpg?s=512&d=https%3A%2F%2Fa.slack-edge.com%2Fdf10d%2Fimg%2Favatars%2Fava_0019-512.png", "custom_css": null}, {"id": 1460, "slack_id": "U091GK0T64B", "display_name": "Jonas636", "bio": null, "projects_count": 0, "devlogs_count": 0, "votes_count": 0, "ships_count": 0, "projects": [], "coding_time_seconds": 0, "coding_time_seconds_today": 0, "balance": "You need to have a pocket watcher badge to view this.", "badges": [], "created_at": "2025-06-16T13:19:10.013-04:00", "updated_at": "2025-07-03T19:17:44.510-04:00", "avatar": "https://secure.gravatar.com/avatar/066ff06fc68e98401545949ed2694baa.jpg?s=512&d=https%3A%2F%2Fa.slack-edge.com%2Fdf10d%2Fimg%2Favatars%2Fava_0018-512.png", "custom_css": null}], "pagination": {"page": 73, "pages": 1192, "count": 23827, "items": 20}}