{"users": [{"id": 14666, "slack_id": "U0949DPM57G", "display_name": "Tanvi Sonawane", "bio": null, "projects_count": 0, "devlogs_count": 0, "votes_count": 0, "ships_count": 0, "projects": [], "coding_time_seconds": 0, "coding_time_seconds_today": 0, "balance": "You need to have a pocket watcher badge to view this.", "badges": [], "created_at": "2025-07-04T08:06:37.659-04:00", "updated_at": "2025-07-04T08:31:20.105-04:00", "avatar": "https://secure.gravatar.com/avatar/1a89c4ade19ae9f2a8ee60a9ef4d4ad3.jpg?s=512&d=https%3A%2F%2Fa.slack-edge.com%2Fdf10d%2Fimg%2Favatars%2Fava_0001-512.png", "custom_css": null}, {"id": 14667, "slack_id": "U08ADU34J9H", "display_name": "sloebre", "bio": null, "projects_count": 4, "devlogs_count": 15, "votes_count": 32, "ships_count": 1, "projects": [{"id": 5302, "title": "The History of Everything", "devlogs_count": 3, "created_at": "2025-07-04T10:49:30.948-04:00"}, {"id": 6843, "title": "Epic Mount", "devlogs_count": 0, "created_at": "2025-07-16T19:18:16.714-04:00"}, {"id": 5483, "title": "Community Chess", "devlogs_count": 10, "created_at": "2025-07-05T15:49:30.343-04:00"}, {"id": 6833, "title": "Markdown Typist", "devlogs_count": 2, "created_at": "2025-07-16T17:01:50.238-04:00"}], "coding_time_seconds": 101999, "coding_time_seconds_today": 0, "balance": "You need to have a pocket watcher badge to view this.", "badges": [{"name": "Maiden Voyage", "text": "you shipped your first project! the journey begins...", "icon": "\ud83d\udea2"}], "created_at": "2025-07-04T08:34:30.723-04:00", "updated_at": "2025-09-10T22:58:25.315-04:00", "avatar": "https://secure.gravatar.com/avatar/e9d947db712fef08b219ac62d5977df0.jpg?s=512&d=https%3A%2F%2Fa.slack-edge.com%2Fdf10d%2Fimg%2Favatars%2Fava_0018-512.png", "custom_css": null}, {"id": 14668, "slack_id": "U094D9DEBSN", "display_name": "Ayaan sharif", "bio": null, "projects_count": 0, "devlogs_count": 0, "votes_count": 0, "ships_count": 0, "projects": [], "coding_time_seconds": 0, "coding_time_seconds_today": 0, "balance": "You need to have a pocket watcher badge to view this.", "badges": [], "created_at": "2025-07-04T08:35:12.770-04:00", "updated_at": "2025-07-06T14:15:51.212-04:00", "avatar": "https://secure.gravatar.com/avatar/67900e72e3d4116c6b5c080b45506771.jpg?s=512&d=https%3A%2F%2Fa.slack-edge.com%2Fdf10d%2Fimg%2Favatars%2Fava_0016-512.png", "custom_css": null}, {"id": 14669, "slack_id": "U07HNEUJD7D", "display_name": "Aleksej", "bio": null, "projects_count": 0, "devlogs_count": 0, "votes_count": 0, "ships_count": 0, "projects": [], "coding_time_seconds": 0, "coding_time_seconds_today": 0, "balance": "You need to have a pocket watcher badge to view this.", "badges": [], "created_at": "2025-07-04T08:40:50.857-04:00", "updated_at": "2025-07-04T16:33:34.854-04:00", "avatar": "https://avatars.slack-edge.com/2024-08-20/7604358837652_bf82eec9213d17a115c3_original.jpg", "custom_css": null}, {"id": 14670, "slack_id": "U09408TAM39", "display_name": "Daniel A", "bio": null, "projects_count": 1, "devlogs_count": 1, "votes_count": 1, "ships_count": 0, "projects": [{"id": 5514, "title": "Arduino TFT Sim-Racing Dash", "devlogs_count": 1, "created_at": "2025-07-05T21:27:02.330-04:00"}], "coding_time_seconds": 12939, "coding_time_seconds_today": 0, "balance": "You need to have a pocket watcher badge to view this.", "badges": [], "created_at": "2025-07-04T08:49:42.420-04:00", "updated_at": "2025-07-12T18:46:00.232-04:00", "avatar": "https://secure.gravatar.com/avatar/d133d033ef8a0a5f6ffb35647443d5f8.jpg?s=512&d=https%3A%2F%2Fa.slack-edge.com%2Fdf10d%2Fimg%2Favatars%2Fava_0013-512.png", "custom_css": null}, {"id": 14671, "slack_id": "U0946KABH5H", "display_name": "Kishore", "bio": null, "projects_count": 0, "devlogs_count": 0, "votes_count": 0, "ships_count": 0, "projects": [], "coding_time_seconds": 0, "coding_time_seconds_today": 0, "balance": "You need to have a pocket watcher badge to view this.", "badges": [], "created_at": "2025-07-04T09:05:04.206-04:00", "updated_at": "2025-07-05T20:16:36.350-04:00", "avatar": "https://secure.gravatar.com/avatar/e0089261e3855a184f432a69f535b2d1.jpg?s=512&d=https%3A%2F%2Fa.slack-edge.com%2Fdf10d%2Fimg%2Favatars%2Fava_0011-512.png", "custom_css": null}, {"id": 14672, "slack_id": "U094FL9DSPN", "display_name": "Nila S", "bio": null, "projects_count": 0, "devlogs_count": 0, "votes_count": 0, "ships_count": 0, "projects": [], "coding_time_seconds": 6366, "coding_time_seconds_today": 0, "balance": "You need to have a pocket watcher badge to view this.", "badges": [], "created_at": "2025-07-04T09:13:57.590-04:00", "updated_at": "2025-07-04T20:15:33.859-04:00", "avatar": "https://avatars.slack-edge.com/2025-07-04/9142705204995_1639924b083bd9fd7ac4_original.png", "custom_css": null}, {"id": 14673, "slack_id": "U0936HC6PT9", "display_name": "Tim", "bio": null, "projects_count": 0, "devlogs_count": 0, "votes_count": 0, "ships_count": 0, "projects": [], "coding_time_seconds": 0, "coding_time_seconds_today": 0, "balance": "You need to have a pocket watcher badge to view this.", "badges": [], "created_at": "2025-07-04T09:19:07.787-04:00", "updated_at": "2025-07-05T02:16:14.450-04:00", "avatar": "https://secure.gravatar.com/avatar/53d84428afd39559bdb397bf2631ca6f.jpg?s=512&d=https%3A%2F%2Fa.slack-edge.com%2Fdf10d%2Fimg%2Favatars%2Fava_0020-512.png", "custom_css": null}, {"id": 14674, "slack_id": "U050RGDU8NN", "display_name": "YoungChief", "bio": null, "projects_count": 0, "devlogs_count": 0, "votes_count": 0, "ships_count": 0, "projects": [], "coding_time_seconds": 11371, "coding_time_seconds_today": 0, "balance": "You need to have a pocket watcher badge to view this.", "badges": [], "created_at": "2025-07-04T09:20:02.438-04:00", "updated_at": "2025-07-04T09:36:51.981-04:00", "avatar": "https://avatars.slack-edge.com/2024-10-25/7933900967283_f8a37d4fea214b249883_original.jpg", "custom_css": null}, {"id": 14675, "slack_id": "U0940ULSU15", "display_name": "VROOM", "bio": null, "projects_count": 1, "devlogs_count": 1, "votes_count": 1, "ships_count": 0, "projects": [{"id": 10189, "title": "MACROPAD!", "devlogs_count": 0, "created_at": "2025-08-04T18:39:00.032-04:00"}], "coding_time_seconds": 109508, "coding_time_seconds_today": 0, "balance": "You need to have a pocket watcher badge to view this.", "badges": [], "created_at": "2025-07-04T09:22:08.713-04:00", "updated_at": "2025-09-07T21:16:23.846-04:00", "avatar": "https://avatars.slack-edge.com/2025-09-07/9473098590245_1f94fd85afd7c89bcf6f_original.png", "custom_css": null}, {"id": 14676, "slack_id": "U0949P277T8", "display_name": "Chandan", "bio": null, "projects_count": 1, "devlogs_count": 2, "votes_count": 0, "ships_count": 1, "projects": [{"id": 8462, "title": "Object Detection ", "devlogs_count": 2, "created_at": "2025-07-27T10:54:59.257-04:00"}], "coding_time_seconds": 102836, "coding_time_seconds_today": 0, "balance": "You need to have a pocket watcher badge to view this.", "badges": [{"name": "Maiden Voyage", "text": "you shipped your first project! the journey begins...", "icon": "\ud83d\udea2"}], "created_at": "2025-07-04T09:27:39.733-04:00", "updated_at": "2025-09-10T22:58:25.523-04:00", "avatar": "https://secure.gravatar.com/avatar/b8d7f3b075c9cc8c1ce1fa222055c688.jpg?s=512&d=https%3A%2F%2Fa.slack-edge.com%2Fdf10d%2Fimg%2Favatars%2Fava_0010-512.png", "custom_css": null}, {"id": 14677, "slack_id": "U0940V6U231", "display_name": "M. Ariful Islam Arman", "bio": null, "projects_count": 0, "devlogs_count": 0, "votes_count": 0, "ships_count": 0, "projects": [], "coding_time_seconds": 0, "coding_time_seconds_today": 0, "balance": "You need to have a pocket watcher badge to view this.", "badges": [], "created_at": "2025-07-04T09:28:12.848-04:00", "updated_at": "2025-07-05T08:16:37.742-04:00", "avatar": "https://secure.gravatar.com/avatar/63cbcb9de528ed36eb7b0c7c6384fc3d.jpg?s=512&d=https%3A%2F%2Fa.slack-edge.com%2Fdf10d%2Fimg%2Favatars%2Fava_0004-512.png", "custom_css": null}, {"id": 14678, "slack_id": "U0874S3MZFS", "display_name": "CrabbyDisk", "bio": null, "projects_count": 3, "devlogs_count": 6, "votes_count": 20, "ships_count": 1, "projects": [{"id": 5481, "title": "lolcat-rs", "devlogs_count": 2, "created_at": "2025-07-05T15:12:34.395-04:00"}, {"id": 5625, "title": "sudoku-tui", "devlogs_count": 3, "created_at": "2025-07-06T17:05:25.827-04:00"}, {"id": 5432, "title": "Simple Base converter", "devlogs_count": 1, "created_at": "2025-07-05T09:19:07.994-04:00"}], "coding_time_seconds": 125933, "coding_time_seconds_today": 0, "balance": "You need to have a pocket watcher badge to view this.", "badges": [{"name": "Maiden Voyage", "text": "you shipped your first project! the journey begins...", "icon": "\ud83d\udea2"}], "created_at": "2025-07-04T09:37:25.512-04:00", "updated_at": "2025-09-10T22:58:25.563-04:00", "avatar": "https://secure.gravatar.com/avatar/38ae96d553f43f32a634603a8b1a41a1.jpg?s=512&d=https%3A%2F%2Fa.slack-edge.com%2Fdf10d%2Fimg%2Favatars%2Fava_0014-512.png", "custom_css": null}, {"id": 14679, "slack_id": "U093DCTE821", "display_name": "Maheen", "bio": null, "projects_count": 0, "devlogs_count": 0, "votes_count": 0, "ships_count": 0, "projects": [], "coding_time_seconds": 0, "coding_time_seconds_today": 0, "balance": "You need to have a pocket watcher badge to view this.", "badges": [], "created_at": "2025-07-04T09:53:02.682-04:00", "updated_at": "2025-08-15T11:32:46.039-04:00", "avatar": "https://secure.gravatar.com/avatar/b14c2b85c7f56b6dee5577850511ba85.jpg?s=512&d=https%3A%2F%2Fa.slack-edge.com%2Fdf10d%2Fimg%2Favatars%2Fava_0013-512.png", "custom_css": null}, {"id": 14680, "slack_id": "U09522LNQN4", "display_name": "TheBlueRuby", "bio": null, "projects_count": 1, "devlogs_count": 1, "votes_count": 0, "ships_count": 0, "projects": [{"id": 8045, "title": "TaskTrack", "devlogs_count": 1, "created_at": "2025-07-24T09:28:21.805-04:00"}], "coding_time_seconds": 25962, "coding_time_seconds_today": 0, "balance": "You need to have a pocket watcher badge to view this.", "badges": [], "created_at": "2025-07-04T10:06:56.937-04:00", "updated_at": "2025-07-24T17:17:48.022-04:00", "avatar": "https://secure.gravatar.com/avatar/6ee1fc860be3c77629b5f226853ff412.jpg?s=512&d=https%3A%2F%2Fa.slack-edge.com%2Fdf10d%2Fimg%2Favatars%2Fava_0012-512.png", "custom_css": null}, {"id": 14681, "slack_id": "U0946U3MCUB", "display_name": "gustii1", "bio": null, "projects_count": 0, "devlogs_count": 0, "votes_count": 0, "ships_count": 0, "projects": [], "coding_time_seconds": 0, "coding_time_seconds_today": 0, "balance": "You need to have a pocket watcher badge to view this.", "badges": [], "created_at": "2025-07-04T10:18:26.762-04:00", "updated_at": "2025-07-05T14:18:02.088-04:00", "avatar": "https://secure.gravatar.com/avatar/f6d92d1d595ee777ad988486d61cf082.jpg?s=512&d=https%3A%2F%2Fa.slack-edge.com%2Fdf10d%2Fimg%2Favatars%2Fava_0015-512.png", "custom_css": null}, {"id": 14682, "slack_id": "U09526EPCTA", "display_name": "Banaan007", "bio": null, "projects_count": 0, "devlogs_count": 0, "votes_count": 0, "ships_count": 0, "projects": [], "coding_time_seconds": 0, "coding_time_seconds_today": 0, "balance": "You need to have a pocket watcher badge to view this.", "badges": [], "created_at": "2025-07-04T10:41:12.049-04:00", "updated_at": "2025-07-05T14:18:02.170-04:00", "avatar": "https://secure.gravatar.com/avatar/fd645c714ec6ec4f5a01a625e9f77060.jpg?s=512&d=https%3A%2F%2Fa.slack-edge.com%2Fdf10d%2Fimg%2Favatars%2Fava_0021-512.png", "custom_css": null}, {"id": 14683, "slack_id": "U094A2EK4FQ", "display_name": "Agent Pingu", "bio": null, "projects_count": 0, "devlogs_count": 0, "votes_count": 0, "ships_count": 0, "projects": [], "coding_time_seconds": 0, "coding_time_seconds_today": 0, "balance": "You need to have a pocket watcher badge to view this.", "badges": [], "created_at": "2025-07-04T10:44:16.748-04:00", "updated_at": "2025-07-05T14:18:02.255-04:00", "avatar": "https://secure.gravatar.com/avatar/ccd95f01914a94155fc93fb227f79888.jpg?s=512&d=https%3A%2F%2Fa.slack-edge.com%2Fdf10d%2Fimg%2Favatars%2Fava_0023-512.png", "custom_css": null}, {"id": 14684, "slack_id": "U093YUWL3BP", "display_name": "Blessing", "bio": null, "projects_count": 0, "devlogs_count": 0, "votes_count": 0, "ships_count": 0, "projects": [], "coding_time_seconds": 0, "coding_time_seconds_today": 0, "balance": "You need to have a pocket watcher badge to view this.", "badges": [], "created_at": "2025-07-04T10:57:54.593-04:00", "updated_at": "2025-07-06T02:17:54.317-04:00", "avatar": "https://secure.gravatar.com/avatar/8d714faf7cb78292e2bd60ba0e5e0aa8.jpg?s=512&d=https%3A%2F%2Fa.slack-edge.com%2Fdf10d%2Fimg%2Favatars%2Fava_0000-512.png", "custom_css": null}, {"id": 14685, "slack_id": "U094T6NKMEV", "display_name": "Arne Meeus", "bio": null, "projects_count": 0, "devlogs_count": 0, "votes_count": 0, "ships_count": 0, "projects": [], "coding_time_seconds": 0, "coding_time_seconds_today": 0, "balance": "You need to have a pocket watcher badge to view this.", "badges": [], "created_at": "2025-07-04T10:59:44.129-04:00", "updated_at": "2025-07-04T20:15:34.618-04:00", "avatar": "https://secure.gravatar.com/avatar/a449ad2d448937cf6693afe8f0209ab8.jpg?s=512&d=https%3A%2F%2Fa.slack-edge.com%2Fdf10d%2Fimg%2Favatars%2Fava_0011-512.png", "custom_css": null}], "pagination": {"page": 730, "pages": 1192, "count": 23828, "items": 20}}