{"users": [{"id": 14686, "slack_id": "U083CFQ2E0H", "display_name": "Yudi", "bio": null, "projects_count": 0, "devlogs_count": 0, "votes_count": 0, "ships_count": 0, "projects": [], "coding_time_seconds": 0, "coding_time_seconds_today": 0, "balance": "You need to have a pocket watcher badge to view this.", "badges": [], "created_at": "2025-07-04T11:02:01.109-04:00", "updated_at": "2025-07-05T02:16:15.281-04:00", "avatar": "https://avatars.slack-edge.com/2025-06-08/9009588087187_f989c9cf3ebd4ccb981e_original.png", "custom_css": null}, {"id": 14687, "slack_id": "U091UC0N11T", "display_name": "albin", "bio": null, "projects_count": 0, "devlogs_count": 0, "votes_count": 0, "ships_count": 0, "projects": [], "coding_time_seconds": 875, "coding_time_seconds_today": 0, "balance": "You need to have a pocket watcher badge to view this.", "badges": [], "created_at": "2025-07-04T11:05:56.459-04:00", "updated_at": "2025-07-05T08:16:38.350-04:00", "avatar": "https://secure.gravatar.com/avatar/6c519cb033c95deb2023eb07ccb6d7a3.jpg?s=512&d=https%3A%2F%2Fa.slack-edge.com%2Fdf10d%2Fimg%2Favatars%2Fava_0000-512.png", "custom_css": null}, {"id": 14688, "slack_id": "U094A5NL8LW", "display_name": "Ast", "bio": null, "projects_count": 1, "devlogs_count": 1, "votes_count": 3, "ships_count": 0, "projects": [{"id": 7340, "title": "Heist", "devlogs_count": 1, "created_at": "2025-07-21T04:12:05.211-04:00"}], "coding_time_seconds": 118215, "coding_time_seconds_today": 0, "balance": "You need to have a pocket watcher badge to view this.", "badges": [], "created_at": "2025-07-04T11:16:27.346-04:00", "updated_at": "2025-07-17T16:42:12.838-04:00", "avatar": "https://secure.gravatar.com/avatar/263dd5fc5ae5f836b16e5589dc9be094.jpg?s=512&d=https%3A%2F%2Fa.slack-edge.com%2Fdf10d%2Fimg%2Favatars%2Fava_0021-512.png", "custom_css": null}, {"id": 14689, "slack_id": "U094CUAH4LV", "display_name": "cannizaro", "bio": null, "projects_count": 0, "devlogs_count": 0, "votes_count": 0, "ships_count": 0, "projects": [], "coding_time_seconds": 760, "coding_time_seconds_today": 0, "balance": "You need to have a pocket watcher badge to view this.", "badges": [], "created_at": "2025-07-04T11:22:00.591-04:00", "updated_at": "2025-07-06T02:17:54.670-04:00", "avatar": "https://avatars.slack-edge.com/2025-07-04/9152239265300_219b455cc4559208f744_original.png", "custom_css": null}, {"id": 14690, "slack_id": "U094A5RKGT0", "display_name": "Arjun Jain", "bio": null, "projects_count": 0, "devlogs_count": 0, "votes_count": 0, "ships_count": 0, "projects": [], "coding_time_seconds": 0, "coding_time_seconds_today": 0, "balance": "You need to have a pocket watcher badge to view this.", "badges": [], "created_at": "2025-07-04T11:24:53.173-04:00", "updated_at": "2025-07-05T02:16:15.538-04:00", "avatar": "https://secure.gravatar.com/avatar/b54c2e551842984dc906b17303789968.jpg?s=512&d=https%3A%2F%2Fa.slack-edge.com%2Fdf10d%2Fimg%2Favatars%2Fava_0014-512.png", "custom_css": null}, {"id": 14691, "slack_id": "U0941CL3PFZ", "display_name": "Muhammad Bilal", "bio": null, "projects_count": 0, "devlogs_count": 0, "votes_count": 0, "ships_count": 0, "projects": [], "coding_time_seconds": 0, "coding_time_seconds_today": 0, "balance": "You need to have a pocket watcher badge to view this.", "badges": [], "created_at": "2025-07-04T11:25:40.829-04:00", "updated_at": "2025-07-05T20:16:37.712-04:00", "avatar": "https://secure.gravatar.com/avatar/391efc47f9806bef17d5950c10383cbe.jpg?s=512&d=https%3A%2F%2Fa.slack-edge.com%2Fdf10d%2Fimg%2Favatars%2Fava_0020-512.png", "custom_css": null}, {"id": 14692, "slack_id": "U0941CVD0UF", "display_name": "swar", "bio": null, "projects_count": 0, "devlogs_count": 0, "votes_count": 0, "ships_count": 0, "projects": [], "coding_time_seconds": 0, "coding_time_seconds_today": 0, "balance": "You need to have a pocket watcher badge to view this.", "badges": [], "created_at": "2025-07-04T11:26:56.020-04:00", "updated_at": "2025-07-05T08:16:38.641-04:00", "avatar": "https://secure.gravatar.com/avatar/5634ad0cf781780dfb85c12b80361ed1.jpg?s=512&d=https%3A%2F%2Fa.slack-edge.com%2Fdf10d%2Fimg%2Favatars%2Fava_0005-512.png", "custom_css": null}, {"id": 14693, "slack_id": "U094CV8VDCM", "display_name": "Midhun Aarush", "bio": null, "projects_count": 0, "devlogs_count": 0, "votes_count": 0, "ships_count": 0, "projects": [], "coding_time_seconds": 0, "coding_time_seconds_today": 0, "balance": "You need to have a pocket watcher badge to view this.", "badges": [], "created_at": "2025-07-04T11:29:46.603-04:00", "updated_at": "2025-07-06T14:15:52.731-04:00", "avatar": "https://secure.gravatar.com/avatar/c36fedd6274a0e6c1378f59074dddabe.jpg?s=512&d=https%3A%2F%2Fa.slack-edge.com%2Fdf10d%2Fimg%2Favatars%2Fava_0024-512.png", "custom_css": null}, {"id": 14694, "slack_id": "U0952F7T9H6", "display_name": "Felix", "bio": null, "projects_count": 0, "devlogs_count": 0, "votes_count": 0, "ships_count": 0, "projects": [], "coding_time_seconds": 0, "coding_time_seconds_today": 0, "balance": "You need to have a pocket watcher badge to view this.", "badges": [], "created_at": "2025-07-04T12:04:17.715-04:00", "updated_at": "2025-07-05T02:16:16.161-04:00", "avatar": "https://secure.gravatar.com/avatar/0bc559d8d76714b6c425670a89e2e24b.jpg?s=512&d=https%3A%2F%2Fa.slack-edge.com%2Fdf10d%2Fimg%2Favatars%2Fava_0026-512.png", "custom_css": null}, {"id": 14695, "slack_id": "U0941HA21N3", "display_name": "nuray", "bio": null, "projects_count": 0, "devlogs_count": 0, "votes_count": 0, "ships_count": 0, "projects": [], "coding_time_seconds": 0, "coding_time_seconds_today": 0, "balance": "You need to have a pocket watcher badge to view this.", "badges": [], "created_at": "2025-07-04T12:12:35.600-04:00", "updated_at": "2025-07-05T20:16:37.977-04:00", "avatar": "https://secure.gravatar.com/avatar/6ed7b374ea092a78f6b7188d90c14128.jpg?s=512&d=https%3A%2F%2Fa.slack-edge.com%2Fdf10d%2Fimg%2Favatars%2Fava_0010-512.png", "custom_css": null}, {"id": 14696, "slack_id": "U094TEM4XFT", "display_name": "Khushaan Sharma", "bio": null, "projects_count": 0, "devlogs_count": 0, "votes_count": 0, "ships_count": 0, "projects": [], "coding_time_seconds": 0, "coding_time_seconds_today": 0, "balance": "You need to have a pocket watcher badge to view this.", "badges": [], "created_at": "2025-07-04T12:20:06.965-04:00", "updated_at": "2025-07-06T08:15:36.864-04:00", "avatar": "https://secure.gravatar.com/avatar/784acbf2972a00e436e0da4858594749.jpg?s=512&d=https%3A%2F%2Fa.slack-edge.com%2Fdf10d%2Fimg%2Favatars%2Fava_0002-512.png", "custom_css": null}, {"id": 14697, "slack_id": "U0947BTMA11", "display_name": "-AVINASH RAJPUT", "bio": null, "projects_count": 0, "devlogs_count": 0, "votes_count": 0, "ships_count": 0, "projects": [], "coding_time_seconds": 34621, "coding_time_seconds_today": 0, "balance": "You need to have a pocket watcher badge to view this.", "badges": [], "created_at": "2025-07-04T12:23:54.477-04:00", "updated_at": "2025-07-07T14:34:00.319-04:00", "avatar": "https://avatars.slack-edge.com/2025-07-04/9143415144195_b6c227e6bc68d780b071_original.jpg", "custom_css": null}, {"id": 14698, "slack_id": "U094ACBJGBY", "display_name": "Shayan Noorullah", "bio": null, "projects_count": 0, "devlogs_count": 0, "votes_count": 0, "ships_count": 0, "projects": [], "coding_time_seconds": 27967, "coding_time_seconds_today": 0, "balance": "You need to have a pocket watcher badge to view this.", "badges": [], "created_at": "2025-07-04T12:26:45.310-04:00", "updated_at": "2025-07-05T02:19:41.533-04:00", "avatar": "https://avatars.slack-edge.com/2025-07-04/9172592693152_97b0f4010e8a0a230525_original.jpg", "custom_css": null}, {"id": 14699, "slack_id": "U0947C56DV1", "display_name": "K E Nandagopal (KE)", "bio": null, "projects_count": 0, "devlogs_count": 0, "votes_count": 0, "ships_count": 0, "projects": [], "coding_time_seconds": 0, "coding_time_seconds_today": 0, "balance": "You need to have a pocket watcher badge to view this.", "badges": [], "created_at": "2025-07-04T12:28:29.993-04:00", "updated_at": "2025-07-04T20:15:35.412-04:00", "avatar": "https://avatars.slack-edge.com/2025-07-04/9137644317111_e4af7f1767d3c2e70963_original.png", "custom_css": null}, {"id": 14700, "slack_id": "U094GGQRB52", "display_name": "Camille Mei", "bio": null, "projects_count": 0, "devlogs_count": 0, "votes_count": 0, "ships_count": 0, "projects": [], "coding_time_seconds": 0, "coding_time_seconds_today": 0, "balance": "You need to have a pocket watcher badge to view this.", "badges": [], "created_at": "2025-07-04T13:14:13.336-04:00", "updated_at": "2025-07-05T02:16:17.076-04:00", "avatar": "https://secure.gravatar.com/avatar/16b33585a543a9132ca7eecb71a09dba.jpg?s=512&d=https%3A%2F%2Fa.slack-edge.com%2Fdf10d%2Fimg%2Favatars%2Fava_0007-512.png", "custom_css": null}, {"id": 14701, "slack_id": "U0947FEHSR1", "display_name": "Ny", "bio": null, "projects_count": 0, "devlogs_count": 0, "votes_count": 0, "ships_count": 0, "projects": [], "coding_time_seconds": 1417, "coding_time_seconds_today": 0, "balance": "You need to have a pocket watcher badge to view this.", "badges": [], "created_at": "2025-07-04T13:18:18.609-04:00", "updated_at": "2025-07-05T13:06:18.888-04:00", "avatar": "https://secure.gravatar.com/avatar/5409975c94a4f3214a0c7679e63d65db.jpg?s=512&d=https%3A%2F%2Fa.slack-edge.com%2Fdf10d%2Fimg%2Favatars%2Fava_0024-512.png", "custom_css": null}, {"id": 14702, "slack_id": "U0951EVQ47J", "display_name": "Theo Brown", "bio": null, "projects_count": 0, "devlogs_count": 0, "votes_count": 0, "ships_count": 0, "projects": [], "coding_time_seconds": 5785, "coding_time_seconds_today": 0, "balance": "You need to have a pocket watcher badge to view this.", "badges": [], "created_at": "2025-07-04T13:24:47.918-04:00", "updated_at": "2025-07-10T16:19:33.150-04:00", "avatar": "https://avatars.slack-edge.com/2025-07-04/9152687588772_f2a16e2dff6f66bc42bb_original.png", "custom_css": null}, {"id": 14703, "slack_id": "U094444R9J8", "display_name": "Tamoghna Kommaraju", "bio": null, "projects_count": 0, "devlogs_count": 0, "votes_count": 0, "ships_count": 0, "projects": [], "coding_time_seconds": 490, "coding_time_seconds_today": 0, "balance": "You need to have a pocket watcher badge to view this.", "badges": [], "created_at": "2025-07-04T13:40:45.390-04:00", "updated_at": "2025-07-05T02:16:17.281-04:00", "avatar": "https://avatars.slack-edge.com/2025-07-04/9172784846832_70bc61582880cca8248f_original.png", "custom_css": null}, {"id": 14704, "slack_id": "U0952P93LPJ", "display_name": "arfa", "bio": null, "projects_count": 0, "devlogs_count": 0, "votes_count": 0, "ships_count": 0, "projects": [], "coding_time_seconds": 0, "coding_time_seconds_today": 0, "balance": "You need to have a pocket watcher badge to view this.", "badges": [], "created_at": "2025-07-04T13:49:04.915-04:00", "updated_at": "2025-07-04T20:15:35.771-04:00", "avatar": "https://secure.gravatar.com/avatar/ed4b1eded88e6272ec3dbbb5d1452f67.jpg?s=512&d=https%3A%2F%2Fa.slack-edge.com%2Fdf10d%2Fimg%2Favatars%2Fava_0004-512.png", "custom_css": null}, {"id": 14705, "slack_id": "U0952PFDZUY", "display_name": "Kevin Ehab", "bio": null, "projects_count": 6, "devlogs_count": 35, "votes_count": 339, "ships_count": 6, "projects": [{"id": 5649, "title": "Expense Tracker App", "devlogs_count": 8, "created_at": "2025-07-06T21:14:33.104-04:00"}, {"id": 6309, "title": "Flag Quiz Game", "devlogs_count": 6, "created_at": "2025-07-12T07:59:24.898-04:00"}, {"id": 12503, "title": "Nile - E Commerce website", "devlogs_count": 3, "created_at": "2025-08-28T14:10:27.466-04:00"}, {"id": 12735, "title": "Github Shield Maker", "devlogs_count": 5, "created_at": "2025-09-01T20:12:46.992-04:00"}, {"id": 11180, "title": "Notes to Quizzes", "devlogs_count": 7, "created_at": "2025-08-13T21:17:38.539-04:00"}, {"id": 11331, "title": "Rebite", "devlogs_count": 6, "created_at": "2025-08-14T23:46:33.464-04:00"}], "coding_time_seconds": 287855, "coding_time_seconds_today": 0, "balance": "You need to have a pocket watcher badge to view this.", "badges": [{"name": "Maiden Voyage", "text": "you shipped your first project! the journey begins...", "icon": "\ud83d\udea2"}, {"name": "Ballot Stuffer", "text": "vote 100 times.", "icon": "https://summer.hackclub.com/assets/i_voted-bf851b48.png"}], "created_at": "2025-07-04T13:53:44.522-04:00", "updated_at": "2025-09-10T22:58:26.315-04:00", "avatar": "https://avatars.slack-edge.com/2025-09-01/9427637661367_81058049dcbafe3246d3_original.jpg", "custom_css": null}], "pagination": {"page": 731, "pages": 1192, "count": 23828, "items": 20}}