{"users": [{"id": 14706, "slack_id": "U094GKWUHB6", "display_name": "Samikshan", "bio": null, "projects_count": 0, "devlogs_count": 0, "votes_count": 0, "ships_count": 0, "projects": [], "coding_time_seconds": 0, "coding_time_seconds_today": 0, "balance": "You need to have a pocket watcher badge to view this.", "badges": [], "created_at": "2025-07-04T13:56:39.591-04:00", "updated_at": "2025-07-05T20:16:39.211-04:00", "avatar": "https://secure.gravatar.com/avatar/313ed1cd6b3b1062cca772c35f17b0aa.jpg?s=512&d=https%3A%2F%2Fa.slack-edge.com%2Fdf10d%2Fimg%2Favatars%2Fava_0026-512.png", "custom_css": null}, {"id": 14707, "slack_id": "U0944DGFU1H", "display_name": "Xayden Y", "bio": null, "projects_count": 4, "devlogs_count": 4, "votes_count": 5, "ships_count": 4, "projects": [{"id": 5349, "title": "IQ detector", "devlogs_count": 1, "created_at": "2025-07-04T16:23:55.558-04:00"}, {"id": 5359, "title": "DND Character Creator", "devlogs_count": 1, "created_at": "2025-07-04T18:09:49.522-04:00"}, {"id": 5640, "title": "Clippy Devloper Suite", "devlogs_count": 1, "created_at": "2025-07-06T19:56:00.217-04:00"}, {"id": 5618, "title": "Richest Companies", "devlogs_count": 1, "created_at": "2025-07-06T15:49:02.594-04:00"}], "coding_time_seconds": 50286, "coding_time_seconds_today": 0, "balance": "You need to have a pocket watcher badge to view this.", "badges": [{"name": "Maiden Voyage", "text": "you shipped your first project! the journey begins...", "icon": "\ud83d\udea2"}], "created_at": "2025-07-04T14:19:41.309-04:00", "updated_at": "2025-09-10T22:58:26.372-04:00", "avatar": "https://avatars.slack-edge.com/2025-07-05/9174710477424_1dd9f1185dc22d01d57e_original.png", "custom_css": null}, {"id": 14708, "slack_id": "U094TR0C7LH", "display_name": "Prajualit Tickoo", "bio": null, "projects_count": 0, "devlogs_count": 0, "votes_count": 0, "ships_count": 0, "projects": [], "coding_time_seconds": 0, "coding_time_seconds_today": 0, "balance": "You need to have a pocket watcher badge to view this.", "badges": [], "created_at": "2025-07-04T14:42:31.168-04:00", "updated_at": "2025-07-06T08:15:37.602-04:00", "avatar": "https://avatars.slack-edge.com/2025-07-04/9137963597287_4d668d08b6a3cc6dd230_original.png", "custom_css": null}, {"id": 14709, "slack_id": "U094EFS41FC", "display_name": "Tushar pathneja", "bio": null, "projects_count": 0, "devlogs_count": 0, "votes_count": 0, "ships_count": 0, "projects": [], "coding_time_seconds": 0, "coding_time_seconds_today": 0, "balance": "You need to have a pocket watcher badge to view this.", "badges": [], "created_at": "2025-07-04T14:46:54.607-04:00", "updated_at": "2025-07-06T08:15:37.679-04:00", "avatar": "https://secure.gravatar.com/avatar/464d865a6d9e603476b37be053044383.jpg?s=512&d=https%3A%2F%2Fa.slack-edge.com%2Fdf10d%2Fimg%2Favatars%2Fava_0011-512.png", "custom_css": null}, {"id": 14710, "slack_id": "U094GPTCBSQ", "display_name": "Muhammad Qasim", "bio": null, "projects_count": 0, "devlogs_count": 0, "votes_count": 0, "ships_count": 0, "projects": [], "coding_time_seconds": 0, "coding_time_seconds_today": 0, "balance": "You need to have a pocket watcher badge to view this.", "badges": [], "created_at": "2025-07-04T14:52:48.759-04:00", "updated_at": "2025-07-05T14:18:04.766-04:00", "avatar": "https://secure.gravatar.com/avatar/753a7f5a82f4c922e1f74f0baa7bffce.jpg?s=512&d=https%3A%2F%2Fa.slack-edge.com%2Fdf10d%2Fimg%2Favatars%2Fava_0004-512.png", "custom_css": null}, {"id": 14711, "slack_id": "U094GSF948L", "display_name": "Eesa", "bio": null, "projects_count": 0, "devlogs_count": 0, "votes_count": 0, "ships_count": 0, "projects": [], "coding_time_seconds": 0, "coding_time_seconds_today": 0, "balance": "You need to have a pocket watcher badge to view this.", "badges": [], "created_at": "2025-07-04T15:30:25.674-04:00", "updated_at": "2025-07-05T13:06:19.457-04:00", "avatar": "https://secure.gravatar.com/avatar/1e5a79dadd199cf3130a49492a21bfca.jpg?s=512&d=https%3A%2F%2Fa.slack-edge.com%2Fdf10d%2Fimg%2Favatars%2Fava_0008-512.png", "custom_css": null}, {"id": 14712, "slack_id": "U094EK3578S", "display_name": "EyeOfTheCosmos", "bio": null, "projects_count": 0, "devlogs_count": 0, "votes_count": 0, "ships_count": 0, "projects": [], "coding_time_seconds": 6356, "coding_time_seconds_today": 0, "balance": "You need to have a pocket watcher badge to view this.", "badges": [], "created_at": "2025-07-04T15:36:30.969-04:00", "updated_at": "2025-07-06T14:15:54.267-04:00", "avatar": "https://secure.gravatar.com/avatar/28b92afe53afc7f5c8ee5ed8e147d1c8.jpg?s=512&d=https%3A%2F%2Fa.slack-edge.com%2Fdf10d%2Fimg%2Favatars%2Fava_0016-512.png", "custom_css": null}, {"id": 14713, "slack_id": "U093U6F5091", "display_name": "Romeo", "bio": null, "projects_count": 0, "devlogs_count": 0, "votes_count": 0, "ships_count": 0, "projects": [], "coding_time_seconds": 0, "coding_time_seconds_today": 0, "balance": "You need to have a pocket watcher badge to view this.", "badges": [], "created_at": "2025-07-04T16:06:20.655-04:00", "updated_at": "2025-07-05T14:18:04.958-04:00", "avatar": "https://secure.gravatar.com/avatar/d7d7b5977975f178022dcbcd55d852c3.jpg?s=512&d=https%3A%2F%2Fa.slack-edge.com%2Fdf10d%2Fimg%2Favatars%2Fava_0018-512.png", "custom_css": null}, {"id": 14714, "slack_id": "U093WDHQVAS", "display_name": "Guneet", "bio": null, "projects_count": 0, "devlogs_count": 0, "votes_count": 0, "ships_count": 0, "projects": [], "coding_time_seconds": 45553, "coding_time_seconds_today": 0, "balance": "You need to have a pocket watcher badge to view this.", "badges": [], "created_at": "2025-07-04T16:08:07.422-04:00", "updated_at": "2025-07-06T20:16:23.600-04:00", "avatar": "https://secure.gravatar.com/avatar/a03f04c7f33b01cd524b2929b4ecc666.jpg?s=512&d=https%3A%2F%2Fa.slack-edge.com%2Fdf10d%2Fimg%2Favatars%2Fava_0023-512.png", "custom_css": null}, {"id": 14715, "slack_id": "U094242QMDM", "display_name": "Youssef Mohamed", "bio": null, "projects_count": 0, "devlogs_count": 0, "votes_count": 0, "ships_count": 0, "projects": [], "coding_time_seconds": 0, "coding_time_seconds_today": 0, "balance": "You need to have a pocket watcher badge to view this.", "badges": [], "created_at": "2025-07-04T16:13:31.282-04:00", "updated_at": "2025-07-06T02:17:56.936-04:00", "avatar": "https://avatars.slack-edge.com/2025-07-04/9150736777234_c685c8288c891a7df367_original.png", "custom_css": null}, {"id": 14716, "slack_id": "U094AJ9LWJJ", "display_name": "Raghav kathuria", "bio": null, "projects_count": 0, "devlogs_count": 0, "votes_count": 0, "ships_count": 0, "projects": [], "coding_time_seconds": 0, "coding_time_seconds_today": 0, "balance": "You need to have a pocket watcher badge to view this.", "badges": [], "created_at": "2025-07-04T16:26:31.857-04:00", "updated_at": "2025-07-05T13:06:19.785-04:00", "avatar": "https://secure.gravatar.com/avatar/b723bb858cbe849f18a5fadd0a95a837.jpg?s=512&d=https%3A%2F%2Fa.slack-edge.com%2Fdf10d%2Fimg%2Favatars%2Fava_0017-512.png", "custom_css": null}, {"id": 14717, "slack_id": "U094H0P0XT6", "display_name": "Emmanuel C.A", "bio": null, "projects_count": 0, "devlogs_count": 0, "votes_count": 0, "ships_count": 0, "projects": [], "coding_time_seconds": 0, "coding_time_seconds_today": 0, "balance": "You need to have a pocket watcher badge to view this.", "badges": [], "created_at": "2025-07-04T16:31:06.392-04:00", "updated_at": "2025-07-05T08:16:40.187-04:00", "avatar": "https://secure.gravatar.com/avatar/015bfd014b9007d7b60099f79eb8b507.jpg?s=512&d=https%3A%2F%2Fa.slack-edge.com%2Fdf10d%2Fimg%2Favatars%2Fava_0010-512.png", "custom_css": null}, {"id": 14718, "slack_id": "U09482L7QP5", "display_name": "Noah", "bio": null, "projects_count": 0, "devlogs_count": 0, "votes_count": 0, "ships_count": 0, "projects": [], "coding_time_seconds": 0, "coding_time_seconds_today": 0, "balance": "You need to have a pocket watcher badge to view this.", "badges": [], "created_at": "2025-07-04T17:22:14.488-04:00", "updated_at": "2025-07-05T08:16:40.349-04:00", "avatar": "https://secure.gravatar.com/avatar/4f5736f41d37967e0d86fa8821f7dd68.jpg?s=512&d=https%3A%2F%2Fa.slack-edge.com%2Fdf10d%2Fimg%2Favatars%2Fava_0023-512.png", "custom_css": null}, {"id": 14719, "slack_id": "U094B349JA2", "display_name": "Anne", "bio": null, "projects_count": 0, "devlogs_count": 0, "votes_count": 0, "ships_count": 0, "projects": [], "coding_time_seconds": 0, "coding_time_seconds_today": 0, "balance": "You need to have a pocket watcher badge to view this.", "badges": [], "created_at": "2025-07-04T17:48:55.980-04:00", "updated_at": "2025-07-09T23:35:32.558-04:00", "avatar": "https://avatars.slack-edge.com/2025-07-04/9147113007718_b12812d66ef6be900ba5_original.png", "custom_css": null}, {"id": 14720, "slack_id": "U094DQ69W69", "display_name": "abuzar haneefi", "bio": null, "projects_count": 0, "devlogs_count": 0, "votes_count": 2, "ships_count": 0, "projects": [], "coding_time_seconds": 0, "coding_time_seconds_today": 0, "balance": "You need to have a pocket watcher badge to view this.", "badges": [], "created_at": "2025-07-04T17:53:43.141-04:00", "updated_at": "2025-07-07T15:48:57.750-04:00", "avatar": "https://secure.gravatar.com/avatar/33787760e048e086597ef8f018054bc7.jpg?s=512&d=https%3A%2F%2Fa.slack-edge.com%2Fdf10d%2Fimg%2Favatars%2Fava_0009-512.png", "custom_css": null}, {"id": 14721, "slack_id": "U094U7J5S1F", "display_name": "mustafa", "bio": null, "projects_count": 0, "devlogs_count": 0, "votes_count": 0, "ships_count": 0, "projects": [], "coding_time_seconds": 0, "coding_time_seconds_today": 0, "balance": "You need to have a pocket watcher badge to view this.", "badges": [], "created_at": "2025-07-04T18:17:55.834-04:00", "updated_at": "2025-07-06T02:17:57.279-04:00", "avatar": "https://secure.gravatar.com/avatar/69a8e21dbdeb9f52dbbb9311968430da.jpg?s=512&d=https%3A%2F%2Fa.slack-edge.com%2Fdf10d%2Fimg%2Favatars%2Fava_0002-512.png", "custom_css": null}, {"id": 14722, "slack_id": "U0942B6C4F9", "display_name": "Ritik", "bio": null, "projects_count": 0, "devlogs_count": 0, "votes_count": 0, "ships_count": 0, "projects": [], "coding_time_seconds": 0, "coding_time_seconds_today": 0, "balance": "You need to have a pocket watcher badge to view this.", "badges": [], "created_at": "2025-07-04T18:40:53.042-04:00", "updated_at": "2025-07-04T20:15:36.878-04:00", "avatar": "https://secure.gravatar.com/avatar/a3ff9fe2b2404a7bc0a5a68c5a1b0598.jpg?s=512&d=https%3A%2F%2Fa.slack-edge.com%2Fdf10d%2Fimg%2Favatars%2Fava_0013-512.png", "custom_css": null}, {"id": 14723, "slack_id": "U092JJD1UTV", "display_name": "Sivaibala K", "bio": null, "projects_count": 0, "devlogs_count": 0, "votes_count": 0, "ships_count": 0, "projects": [], "coding_time_seconds": 0, "coding_time_seconds_today": 0, "balance": "You need to have a pocket watcher badge to view this.", "badges": [], "created_at": "2025-07-04T18:54:27.031-04:00", "updated_at": "2025-07-05T14:18:05.644-04:00", "avatar": "https://secure.gravatar.com/avatar/0f279a85261a609fd6b87c32ce708a5d.jpg?s=512&d=https%3A%2F%2Fa.slack-edge.com%2Fdf10d%2Fimg%2Favatars%2Fava_0010-512.png", "custom_css": null}, {"id": 14724, "slack_id": "U094E05RBAR", "display_name": "Pratiyush Verma", "bio": null, "projects_count": 0, "devlogs_count": 0, "votes_count": 0, "ships_count": 0, "projects": [], "coding_time_seconds": 0, "coding_time_seconds_today": 0, "balance": "You need to have a pocket watcher badge to view this.", "badges": [], "created_at": "2025-07-04T20:18:46.770-04:00", "updated_at": "2025-07-06T14:15:55.015-04:00", "avatar": "https://avatars.slack-edge.com/2025-07-04/9147310754710_72fe60dda25245974579_original.gif", "custom_css": null}, {"id": 14725, "slack_id": "U094E1GPZRB", "display_name": "Johnnie Dom", "bio": null, "projects_count": 0, "devlogs_count": 0, "votes_count": 0, "ships_count": 0, "projects": [], "coding_time_seconds": 239614, "coding_time_seconds_today": 0, "balance": "You need to have a pocket watcher badge to view this.", "badges": [], "created_at": "2025-07-04T20:47:17.351-04:00", "updated_at": "2025-07-05T08:16:40.816-04:00", "avatar": "https://avatars.slack-edge.com/2025-07-04/9150061798821_922954192d3c90212814_original.png", "custom_css": null}], "pagination": {"page": 732, "pages": 1192, "count": 23828, "items": 20}}