{"users": [{"id": 14726, "slack_id": "U078TF4743W", "display_name": "achester88", "bio": null, "projects_count": 2, "devlogs_count": 1, "votes_count": 2, "ships_count": 0, "projects": [{"id": 5378, "title": "CYD Gameboy", "devlogs_count": 0, "created_at": "2025-07-04T23:04:10.320-04:00"}, {"id": 10432, "title": "Esp-ReadGood", "devlogs_count": 1, "created_at": "2025-08-07T00:42:01.616-04:00"}], "coding_time_seconds": 58795, "coding_time_seconds_today": 0, "balance": "You need to have a pocket watcher badge to view this.", "badges": [], "created_at": "2025-07-04T21:28:03.205-04:00", "updated_at": "2025-08-07T00:37:27.563-04:00", "avatar": "https://secure.gravatar.com/avatar/f3142d749645853d28eb95b95e0b1bb9.jpg?s=512&d=https%3A%2F%2Fa.slack-edge.com%2Fdf10d%2Fimg%2Favatars%2Fava_0023-512.png", "custom_css": null}, {"id": 14727, "slack_id": "U08PLHD4L2J", "display_name": "Azzy", "bio": null, "projects_count": 0, "devlogs_count": 0, "votes_count": 0, "ships_count": 0, "projects": [], "coding_time_seconds": 28806, "coding_time_seconds_today": 0, "balance": "You need to have a pocket watcher badge to view this.", "badges": [], "created_at": "2025-07-04T21:29:42.338-04:00", "updated_at": "2025-08-01T20:18:52.554-04:00", "avatar": "https://avatars.slack-edge.com/2025-07-18/9220814976325_6f2643fcc3621b6dd7dc_original.png", "custom_css": null}, {"id": 14728, "slack_id": "U08BGEWGR1B", "display_name": "Starlight", "bio": null, "projects_count": 0, "devlogs_count": 0, "votes_count": 2, "ships_count": 0, "projects": [], "coding_time_seconds": 4266, "coding_time_seconds_today": 0, "balance": "You need to have a pocket watcher badge to view this.", "badges": [], "created_at": "2025-07-04T21:36:56.887-04:00", "updated_at": "2025-07-07T23:59:00.306-04:00", "avatar": "https://avatars.slack-edge.com/2025-07-06/9151735162966_382cad179fb4177fca91_original.png", "custom_css": null}, {"id": 14729, "slack_id": "U0942JE8N5D", "display_name": "Raghav Kumawat", "bio": null, "projects_count": 0, "devlogs_count": 0, "votes_count": 0, "ships_count": 0, "projects": [], "coding_time_seconds": 0, "coding_time_seconds_today": 0, "balance": "You need to have a pocket watcher badge to view this.", "badges": [], "created_at": "2025-07-04T21:49:11.926-04:00", "updated_at": "2025-07-05T20:16:40.558-04:00", "avatar": "https://secure.gravatar.com/avatar/4e8d098517af12dd07198f03447f624b.jpg?s=512&d=https%3A%2F%2Fa.slack-edge.com%2Fdf10d%2Fimg%2Favatars%2Fava_0018-512.png", "custom_css": null}, {"id": 14730, "slack_id": "U0902GPSK5E", "display_name": "Danny F", "bio": null, "projects_count": 0, "devlogs_count": 0, "votes_count": 0, "ships_count": 0, "projects": [], "coding_time_seconds": 0, "coding_time_seconds_today": 0, "balance": "You need to have a pocket watcher badge to view this.", "badges": [], "created_at": "2025-07-04T22:16:38.107-04:00", "updated_at": "2025-07-06T08:15:38.938-04:00", "avatar": "https://secure.gravatar.com/avatar/3e3600855e6c1fbbe0826fab00b816cd.jpg?s=512&d=https%3A%2F%2Fa.slack-edge.com%2Fdf10d%2Fimg%2Favatars%2Fava_0007-512.png", "custom_css": null}, {"id": 14731, "slack_id": "U094BE1V3SA", "display_name": "Ceylin Avci", "bio": null, "projects_count": 1, "devlogs_count": 0, "votes_count": 2, "ships_count": 0, "projects": [{"id": 6482, "title": "My Personal Website", "devlogs_count": 0, "created_at": "2025-07-13T18:17:45.536-04:00"}], "coding_time_seconds": 0, "coding_time_seconds_today": 0, "balance": "You need to have a pocket watcher badge to view this.", "badges": [], "created_at": "2025-07-04T22:30:58.127-04:00", "updated_at": "2025-08-11T19:13:46.934-04:00", "avatar": "https://avatars.slack-edge.com/2025-07-04/9147487150918_bec7ae039982975deb9c_original.jpg", "custom_css": null}, {"id": 14732, "slack_id": "U0948H15RCK", "display_name": "leomick", "bio": null, "projects_count": 0, "devlogs_count": 0, "votes_count": 0, "ships_count": 0, "projects": [], "coding_time_seconds": 0, "coding_time_seconds_today": 0, "balance": "You need to have a pocket watcher badge to view this.", "badges": [], "created_at": "2025-07-04T22:42:12.352-04:00", "updated_at": "2025-07-05T02:16:19.439-04:00", "avatar": "https://avatars.slack-edge.com/2025-07-04/9164640507313_a295063ab9cadd385a47_original.png", "custom_css": null}, {"id": 14733, "slack_id": "U0953KK7XAL", "display_name": "Lucas C", "bio": null, "projects_count": 0, "devlogs_count": 0, "votes_count": 0, "ships_count": 0, "projects": [], "coding_time_seconds": 0, "coding_time_seconds_today": 0, "balance": "You need to have a pocket watcher badge to view this.", "badges": [], "created_at": "2025-07-04T22:44:06.960-04:00", "updated_at": "2025-07-05T02:16:19.511-04:00", "avatar": "https://avatars.slack-edge.com/2025-07-04/9151319841378_1576ca24b9270b235106_original.gif", "custom_css": null}, {"id": 14734, "slack_id": "U094BEU4Z1U", "display_name": "Durga Pavan Sriram Sannidhi", "bio": null, "projects_count": 0, "devlogs_count": 0, "votes_count": 0, "ships_count": 0, "projects": [], "coding_time_seconds": 0, "coding_time_seconds_today": 0, "balance": "You need to have a pocket watcher badge to view this.", "badges": [], "created_at": "2025-07-04T22:51:28.697-04:00", "updated_at": "2025-07-05T02:16:19.590-04:00", "avatar": "https://avatars.slack-edge.com/2025-07-04/9138706143847_8f23bf63aa905de63e09_original.png", "custom_css": null}, {"id": 14735, "slack_id": "U0953KMBG56", "display_name": "moonlit", "bio": null, "projects_count": 1, "devlogs_count": 1, "votes_count": 9, "ships_count": 1, "projects": [{"id": 5389, "title": "Synovia AI ", "devlogs_count": 1, "created_at": "2025-07-05T01:30:54.333-04:00"}], "coding_time_seconds": 165715, "coding_time_seconds_today": 0, "balance": "You need to have a pocket watcher badge to view this.", "badges": [{"name": "Maiden Voyage", "text": "you shipped your first project! the journey begins...", "icon": "\ud83d\udea2"}], "created_at": "2025-07-04T23:10:47.631-04:00", "updated_at": "2025-09-10T22:58:27.140-04:00", "avatar": "https://secure.gravatar.com/avatar/507375230f51273d327911721b4dabf3.jpg?s=512&d=https%3A%2F%2Fa.slack-edge.com%2Fdf10d%2Fimg%2Favatars%2Fava_0026-512.png", "custom_css": null}, {"id": 14736, "slack_id": "U0948BTBXA7", "display_name": "Anish Paleja", "bio": null, "projects_count": 3, "devlogs_count": 2, "votes_count": 8, "ships_count": 2, "projects": [{"id": 5476, "title": "Autism Helper", "devlogs_count": 1, "created_at": "2025-07-05T14:43:56.856-04:00"}, {"id": 6744, "title": "Facial Recognition Model", "devlogs_count": 0, "created_at": "2025-07-15T17:33:45.111-04:00"}, {"id": 7730, "title": "Nexus CLI", "devlogs_count": 1, "created_at": "2025-07-22T18:14:14.465-04:00"}], "coding_time_seconds": 77905, "coding_time_seconds_today": 0, "balance": "You need to have a pocket watcher badge to view this.", "badges": [{"name": "Maiden Voyage", "text": "you shipped your first project! the journey begins...", "icon": "\ud83d\udea2"}], "created_at": "2025-07-04T23:20:20.248-04:00", "updated_at": "2025-09-10T22:58:27.167-04:00", "avatar": "https://secure.gravatar.com/avatar/92ba6193aa938a80b0898feb67df4d78.jpg?s=512&d=https%3A%2F%2Fa.slack-edge.com%2Fdf10d%2Fimg%2Favatars%2Fava_0023-512.png", "custom_css": null}, {"id": 14737, "slack_id": "U07UXKARZLH", "display_name": "Landon", "bio": null, "projects_count": 0, "devlogs_count": 0, "votes_count": 0, "ships_count": 0, "projects": [], "coding_time_seconds": 0, "coding_time_seconds_today": 0, "balance": "You need to have a pocket watcher badge to view this.", "badges": [], "created_at": "2025-07-04T23:23:38.327-04:00", "updated_at": "2025-07-05T13:06:20.932-04:00", "avatar": "https://secure.gravatar.com/avatar/2a5d82435a68f8a38f12ca61680fe943.jpg?s=512&d=https%3A%2F%2Fa.slack-edge.com%2Fdf10d%2Fimg%2Favatars%2Fava_0014-512.png", "custom_css": null}, {"id": 14738, "slack_id": "U0948L5EWSX", "display_name": "Aakash Singh Mahori", "bio": null, "projects_count": 0, "devlogs_count": 0, "votes_count": 0, "ships_count": 0, "projects": [], "coding_time_seconds": 0, "coding_time_seconds_today": 0, "balance": "You need to have a pocket watcher badge to view this.", "badges": [], "created_at": "2025-07-05T00:00:28.484-04:00", "updated_at": "2025-07-05T02:16:19.891-04:00", "avatar": "https://secure.gravatar.com/avatar/16dd8e937e1e9f58c3d04910ea8380ca.jpg?s=512&d=https%3A%2F%2Fa.slack-edge.com%2Fdf10d%2Fimg%2Favatars%2Fava_0017-512.png", "custom_css": null}, {"id": 14739, "slack_id": "U0953P2FA3A", "display_name": "Anush Khatri", "bio": null, "projects_count": 0, "devlogs_count": 0, "votes_count": 0, "ships_count": 0, "projects": [], "coding_time_seconds": 0, "coding_time_seconds_today": 0, "balance": "You need to have a pocket watcher badge to view this.", "badges": [], "created_at": "2025-07-05T00:44:25.272-04:00", "updated_at": "2025-07-08T03:16:30.988-04:00", "avatar": "https://secure.gravatar.com/avatar/6217eff85591af89d73a06abf89595d9.jpg?s=512&d=https%3A%2F%2Fa.slack-edge.com%2Fdf10d%2Fimg%2Favatars%2Fava_0011-512.png", "custom_css": null}, {"id": 14740, "slack_id": "U08303DBQAD", "display_name": "Ethan Chiu", "bio": null, "projects_count": 0, "devlogs_count": 0, "votes_count": 1, "ships_count": 0, "projects": [], "coding_time_seconds": 86546, "coding_time_seconds_today": 0, "balance": "You need to have a pocket watcher badge to view this.", "badges": [], "created_at": "2025-07-05T00:49:15.500-04:00", "updated_at": "2025-07-05T06:34:21.808-04:00", "avatar": "https://secure.gravatar.com/avatar/fba8b07e51bffa72cec3de6511a69cc3.jpg?s=512&d=https%3A%2F%2Fa.slack-edge.com%2Fdf10d%2Fimg%2Favatars%2Fava_0022-512.png", "custom_css": null}, {"id": 14741, "slack_id": "U07SZB2S1A6", "display_name": "Dheeraj", "bio": null, "projects_count": 0, "devlogs_count": 40, "votes_count": 79, "ships_count": 0, "projects": [], "coding_time_seconds": 393576, "coding_time_seconds_today": 0, "balance": "You need to have a pocket watcher badge to view this.", "badges": [{"name": "Maiden Voyage", "text": "you shipped your first project! the journey begins...", "icon": "\ud83d\udea2"}], "created_at": "2025-07-05T00:55:14.534-04:00", "updated_at": "2025-09-10T22:58:27.282-04:00", "avatar": "https://avatars.slack-edge.com/2025-07-12/9199085354561_dc903787b430946c8f0d_original.jpg", "custom_css": null}, {"id": 14742, "slack_id": "U094BK6RVGW", "display_name": "Future Maker", "bio": null, "projects_count": 0, "devlogs_count": 0, "votes_count": 0, "ships_count": 0, "projects": [], "coding_time_seconds": 0, "coding_time_seconds_today": 0, "balance": "You need to have a pocket watcher badge to view this.", "badges": [], "created_at": "2025-07-05T00:55:29.075-04:00", "updated_at": "2025-07-05T14:18:07.583-04:00", "avatar": "https://secure.gravatar.com/avatar/bf3804d4584343ebfa2f41d06e115988.jpg?s=512&d=https%3A%2F%2Fa.slack-edge.com%2Fdf10d%2Fimg%2Favatars%2Fava_0022-512.png", "custom_css": null}, {"id": 14743, "slack_id": "U0953QVJ1FA", "display_name": "Vrishank Madishetty", "bio": null, "projects_count": 0, "devlogs_count": 0, "votes_count": 0, "ships_count": 0, "projects": [], "coding_time_seconds": 44503, "coding_time_seconds_today": 0, "balance": "You need to have a pocket watcher badge to view this.", "badges": [], "created_at": "2025-07-05T01:07:42.352-04:00", "updated_at": "2025-07-06T08:15:40.499-04:00", "avatar": "https://secure.gravatar.com/avatar/4e526e413be96eb1e135cb1c751fc437.jpg?s=512&d=https%3A%2F%2Fa.slack-edge.com%2Fdf10d%2Fimg%2Favatars%2Fava_0026-512.png", "custom_css": null}, {"id": 14744, "slack_id": "U0942SAAS95", "display_name": "Daniel Echeverria", "bio": null, "projects_count": 0, "devlogs_count": 0, "votes_count": 0, "ships_count": 0, "projects": [], "coding_time_seconds": 0, "coding_time_seconds_today": 0, "balance": "You need to have a pocket watcher badge to view this.", "badges": [], "created_at": "2025-07-05T01:30:52.865-04:00", "updated_at": "2025-07-05T14:18:07.724-04:00", "avatar": "https://avatars.slack-edge.com/2025-07-04/9138902285207_ac90a4f4b5b6b717867b_original.png", "custom_css": null}, {"id": 14745, "slack_id": "U094BLQHNTY", "display_name": "Some Random Guy", "bio": null, "projects_count": 0, "devlogs_count": 0, "votes_count": 0, "ships_count": 0, "projects": [], "coding_time_seconds": 0, "coding_time_seconds_today": 0, "balance": "You need to have a pocket watcher badge to view this.", "badges": [], "created_at": "2025-07-05T01:35:57.118-04:00", "updated_at": "2025-07-05T14:18:07.820-04:00", "avatar": "https://secure.gravatar.com/avatar/371f73786688eb17512d68dd9338cd23.jpg?s=512&d=https%3A%2F%2Fa.slack-edge.com%2Fdf10d%2Fimg%2Favatars%2Fava_0011-512.png", "custom_css": null}], "pagination": {"page": 733, "pages": 1192, "count": 23828, "items": 20}}