{"users": [{"id": 14746, "slack_id": "U036N1SDEPQ", "display_name": "a\u00efleen", "bio": null, "projects_count": 0, "devlogs_count": 0, "votes_count": 0, "ships_count": 0, "projects": [], "coding_time_seconds": 0, "coding_time_seconds_today": 0, "balance": "You need to have a pocket watcher badge to view this.", "badges": [], "created_at": "2025-07-05T01:47:02.720-04:00", "updated_at": "2025-08-23T15:17:22.319-04:00", "avatar": "https://avatars.slack-edge.com/2025-08-23/9400683409894_d840a457548270b17aac_original.jpg", "custom_css": null}, {"id": 14747, "slack_id": "U0948RBR88K", "display_name": "Ishan Sharma", "bio": null, "projects_count": 3, "devlogs_count": 17, "votes_count": 59, "ships_count": 2, "projects": [{"id": 13064, "title": "Reverse Pacman", "devlogs_count": 1, "created_at": "2025-09-08T00:14:57.122-04:00"}, {"id": 11326, "title": "Canva Pro Elements Remover", "devlogs_count": 10, "created_at": "2025-08-14T23:28:42.605-04:00"}, {"id": 5776, "title": "Language Learning Assistant", "devlogs_count": 6, "created_at": "2025-07-07T23:19:26.293-04:00"}], "coding_time_seconds": 290137, "coding_time_seconds_today": 1042, "balance": "You need to have a pocket watcher badge to view this.", "badges": [{"name": "Maiden Voyage", "text": "you shipped your first project! the journey begins...", "icon": "\ud83d\udea2"}], "created_at": "2025-07-05T01:51:49.543-04:00", "updated_at": "2025-09-10T22:58:27.465-04:00", "avatar": "https://secure.gravatar.com/avatar/159d54aba3b09e4525e564ad881a95dc.jpg?s=512&d=https%3A%2F%2Fa.slack-edge.com%2Fdf10d%2Fimg%2Favatars%2Fava_0015-512.png", "custom_css": null}, {"id": 14748, "slack_id": "U0948TNU6GK", "display_name": "\u0428\u0430\u0445\u0437\u043e\u0434 \u041a\u0430\u044e\u043c\u043e\u0432", "bio": null, "projects_count": 0, "devlogs_count": 0, "votes_count": 0, "ships_count": 0, "projects": [], "coding_time_seconds": 0, "coding_time_seconds_today": 0, "balance": "You need to have a pocket watcher badge to view this.", "badges": [], "created_at": "2025-07-05T02:40:45.181-04:00", "updated_at": "2025-07-05T14:18:08.029-04:00", "avatar": "https://avatars.slack-edge.com/2025-07-05/9164945073505_9a10d372886d85e85cdc_original.png", "custom_css": null}, {"id": 14749, "slack_id": "U094HT0PVPE", "display_name": "Ben7.7.7", "bio": null, "projects_count": 0, "devlogs_count": 0, "votes_count": 0, "ships_count": 0, "projects": [], "coding_time_seconds": 650, "coding_time_seconds_today": 0, "balance": "You need to have a pocket watcher badge to view this.", "badges": [], "created_at": "2025-07-05T02:58:51.527-04:00", "updated_at": "2025-07-06T04:06:54.902-04:00", "avatar": "https://secure.gravatar.com/avatar/0f03f9a41fbee2c78bbdfe88f2653e7e.jpg?s=512&d=https%3A%2F%2Fa.slack-edge.com%2Fdf10d%2Fimg%2Favatars%2Fava_0014-512.png", "custom_css": null}, {"id": 14750, "slack_id": "U094HU4BS2G", "display_name": "Isaac", "bio": null, "projects_count": 0, "devlogs_count": 0, "votes_count": 0, "ships_count": 0, "projects": [], "coding_time_seconds": 6463, "coding_time_seconds_today": 0, "balance": "You need to have a pocket watcher badge to view this.", "badges": [], "created_at": "2025-07-05T03:13:43.456-04:00", "updated_at": "2025-07-06T08:15:40.895-04:00", "avatar": "https://secure.gravatar.com/avatar/54e0cccaba4fc28006725b14fff59174.jpg?s=512&d=https%3A%2F%2Fa.slack-edge.com%2Fdf10d%2Fimg%2Favatars%2Fava_0025-512.png", "custom_css": null}, {"id": 14751, "slack_id": "U094EFNJPEZ", "display_name": "AhmadTigress", "bio": null, "projects_count": 0, "devlogs_count": 0, "votes_count": 0, "ships_count": 0, "projects": [], "coding_time_seconds": 0, "coding_time_seconds_today": 0, "balance": "You need to have a pocket watcher badge to view this.", "badges": [], "created_at": "2025-07-05T03:21:29.977-04:00", "updated_at": "2025-07-05T08:16:42.532-04:00", "avatar": "https://secure.gravatar.com/avatar/a4422e12a565cd831a80b6a7697226cd.jpg?s=512&d=https%3A%2F%2Fa.slack-edge.com%2Fdf10d%2Fimg%2Favatars%2Fava_0010-512.png", "custom_css": null}, {"id": 14752, "slack_id": "U09431PDXL7", "display_name": "Shaheryar Khan", "bio": null, "projects_count": 0, "devlogs_count": 0, "votes_count": 0, "ships_count": 0, "projects": [], "coding_time_seconds": 0, "coding_time_seconds_today": 0, "balance": "You need to have a pocket watcher badge to view this.", "badges": [], "created_at": "2025-07-05T03:39:59.112-04:00", "updated_at": "2025-07-05T08:16:42.621-04:00", "avatar": "https://secure.gravatar.com/avatar/8dee9704368deb34b2b665c33a682dba.jpg?s=512&d=https%3A%2F%2Fa.slack-edge.com%2Fdf10d%2Fimg%2Favatars%2Fava_0026-512.png", "custom_css": null}, {"id": 14753, "slack_id": "U094HV75AF6", "display_name": "Asela Hemantha", "bio": null, "projects_count": 0, "devlogs_count": 0, "votes_count": 0, "ships_count": 0, "projects": [], "coding_time_seconds": 0, "coding_time_seconds_today": 0, "balance": "You need to have a pocket watcher badge to view this.", "badges": [], "created_at": "2025-07-05T03:42:05.858-04:00", "updated_at": "2025-07-05T14:18:08.400-04:00", "avatar": "https://secure.gravatar.com/avatar/29e832095e8dd786bc8c88750ee840f9.jpg?s=512&d=https%3A%2F%2Fa.slack-edge.com%2Fdf10d%2Fimg%2Favatars%2Fava_0021-512.png", "custom_css": null}, {"id": 14754, "slack_id": "U094EH631GD", "display_name": "Rohit Kumar", "bio": null, "projects_count": 3, "devlogs_count": 1, "votes_count": 0, "ships_count": 0, "projects": [{"id": 5511, "title": "Portfolio", "devlogs_count": 1, "created_at": "2025-07-05T20:47:54.117-04:00"}, {"id": 5596, "title": "Web-Dashboard", "devlogs_count": 0, "created_at": "2025-07-06T12:41:49.167-04:00"}, {"id": 5728, "title": "Data-Analytics-Dashboard ", "devlogs_count": 0, "created_at": "2025-07-07T13:52:55.463-04:00"}], "coding_time_seconds": 54862, "coding_time_seconds_today": 0, "balance": "You need to have a pocket watcher badge to view this.", "badges": [], "created_at": "2025-07-05T03:55:04.056-04:00", "updated_at": "2025-07-06T02:17:59.317-04:00", "avatar": "https://secure.gravatar.com/avatar/bdf8b382b47e4ccabf5ffd127a76eec5.jpg?s=512&d=https%3A%2F%2Fa.slack-edge.com%2Fdf10d%2Fimg%2Favatars%2Fava_0012-512.png", "custom_css": null}, {"id": 14755, "slack_id": "U081YRJLQ8N", "display_name": "Frosetrain", "bio": null, "projects_count": 1, "devlogs_count": 1, "votes_count": 0, "ships_count": 0, "projects": [{"id": 11316, "title": "Chronon Authenticator", "devlogs_count": 1, "created_at": "2025-08-14T21:38:14.138-04:00"}], "coding_time_seconds": 179017, "coding_time_seconds_today": 1463, "balance": "You need to have a pocket watcher badge to view this.", "badges": [], "created_at": "2025-07-05T04:21:40.382-04:00", "updated_at": "2025-08-14T21:36:50.477-04:00", "avatar": "https://avatars.slack-edge.com/2025-03-13/8596744087253_ba4ff6114783e5328b14_original.jpg", "custom_css": null}, {"id": 14756, "slack_id": "U094J1E25PE", "display_name": "Max Theobald", "bio": null, "projects_count": 0, "devlogs_count": 0, "votes_count": 0, "ships_count": 0, "projects": [], "coding_time_seconds": 0, "coding_time_seconds_today": 0, "balance": "You need to have a pocket watcher badge to view this.", "badges": [], "created_at": "2025-07-05T04:27:46.038-04:00", "updated_at": "2025-07-06T02:17:59.866-04:00", "avatar": "https://secure.gravatar.com/avatar/256fcc45bc13d8086a14730e49c6a5f4.jpg?s=512&d=https%3A%2F%2Fa.slack-edge.com%2Fdf10d%2Fimg%2Favatars%2Fava_0005-512.png", "custom_css": null}, {"id": 14757, "slack_id": "U09490QGRB5", "display_name": "Kruxxdd", "bio": null, "projects_count": 0, "devlogs_count": 0, "votes_count": 0, "ships_count": 0, "projects": [], "coding_time_seconds": 0, "coding_time_seconds_today": 0, "balance": "You need to have a pocket watcher badge to view this.", "badges": [], "created_at": "2025-07-05T04:35:36.626-04:00", "updated_at": "2025-07-06T14:15:57.561-04:00", "avatar": "https://avatars.slack-edge.com/2025-07-05/9154074105748_6f1e531f6a12e3d248e2_original.png", "custom_css": null}, {"id": 14758, "slack_id": "U083H3AR60Y", "display_name": "illuminum", "bio": null, "projects_count": 0, "devlogs_count": 0, "votes_count": 0, "ships_count": 0, "projects": [], "coding_time_seconds": 72924, "coding_time_seconds_today": 120, "balance": "You need to have a pocket watcher badge to view this.", "badges": [], "created_at": "2025-07-05T04:35:49.003-04:00", "updated_at": "2025-08-24T03:02:31.949-04:00", "avatar": "https://secure.gravatar.com/avatar/afda178c93b9616d510e9eb58d870406.jpg?s=512&d=https%3A%2F%2Fa.slack-edge.com%2Fdf10d%2Fimg%2Favatars%2Fava_0024-512.png", "custom_css": null}, {"id": 14759, "slack_id": "U09543T3L1W", "display_name": "Sean Cinac", "bio": null, "projects_count": 0, "devlogs_count": 0, "votes_count": 0, "ships_count": 0, "projects": [], "coding_time_seconds": 38332, "coding_time_seconds_today": 0, "balance": "You need to have a pocket watcher badge to view this.", "badges": [], "created_at": "2025-07-05T04:37:20.627-04:00", "updated_at": "2025-07-06T08:15:41.474-04:00", "avatar": "https://secure.gravatar.com/avatar/4a6a027df603a51e0a44bda504df229c.jpg?s=512&d=https%3A%2F%2Fa.slack-edge.com%2Fdf10d%2Fimg%2Favatars%2Fava_0024-512.png", "custom_css": null}, {"id": 14760, "slack_id": "U07VCS792FN", "display_name": "Ethan Lim", "bio": null, "projects_count": 0, "devlogs_count": 0, "votes_count": 2, "ships_count": 0, "projects": [], "coding_time_seconds": 134405, "coding_time_seconds_today": 0, "balance": "You need to have a pocket watcher badge to view this.", "badges": [], "created_at": "2025-07-05T05:06:22.458-04:00", "updated_at": "2025-07-07T20:33:03.758-04:00", "avatar": "https://secure.gravatar.com/avatar/4e933c1d81763b04dcdf4295cd32b0dd.jpg?s=512&d=https%3A%2F%2Fa.slack-edge.com%2Fdf10d%2Fimg%2Favatars%2Fava_0003-512.png", "custom_css": null}, {"id": 14761, "slack_id": "U094J3GHY3E", "display_name": "kaz_i", "bio": null, "projects_count": 0, "devlogs_count": 0, "votes_count": 0, "ships_count": 0, "projects": [], "coding_time_seconds": 0, "coding_time_seconds_today": 0, "balance": "You need to have a pocket watcher badge to view this.", "badges": [], "created_at": "2025-07-05T05:14:24.970-04:00", "updated_at": "2025-07-05T14:18:08.879-04:00", "avatar": "https://secure.gravatar.com/avatar/a9a20421a304cbf3cee6818e01dd1054.jpg?s=512&d=https%3A%2F%2Fa.slack-edge.com%2Fdf10d%2Fimg%2Favatars%2Fava_0024-512.png", "custom_css": null}, {"id": 14762, "slack_id": "U08T5C1F5V2", "display_name": "Mansoon Paudel", "bio": null, "projects_count": 2, "devlogs_count": 2, "votes_count": 3, "ships_count": 1, "projects": [{"id": 10462, "title": "Revenge Creeper", "devlogs_count": 1, "created_at": "2025-08-07T09:08:17.330-04:00"}, {"id": 12588, "title": "GO--GO--GO", "devlogs_count": 1, "created_at": "2025-08-30T07:30:54.886-04:00"}], "coding_time_seconds": 123687, "coding_time_seconds_today": 0, "balance": "You need to have a pocket watcher badge to view this.", "badges": [{"name": "Maiden Voyage", "text": "you shipped your first project! the journey begins...", "icon": "\ud83d\udea2"}], "created_at": "2025-07-05T05:20:15.592-04:00", "updated_at": "2025-09-10T22:58:27.792-04:00", "avatar": "https://avatars.slack-edge.com/2025-08-24/9413637561553_ce27c394d01e89ed2cf9_original.jpg", "custom_css": null}, {"id": 14763, "slack_id": "U08QVNKU620", "display_name": "Sinura", "bio": null, "projects_count": 0, "devlogs_count": 0, "votes_count": 2, "ships_count": 0, "projects": [], "coding_time_seconds": 123092, "coding_time_seconds_today": 0, "balance": "You need to have a pocket watcher badge to view this.", "badges": [], "created_at": "2025-07-05T05:20:42.058-04:00", "updated_at": "2025-09-19T05:01:38.168-04:00", "avatar": "https://avatars.slack-edge.com/2025-05-02/8845780853012_939955967c50fd143048_original.png", "custom_css": null}, {"id": 14764, "slack_id": "U095463RD4G", "display_name": "ish", "bio": null, "projects_count": 0, "devlogs_count": 0, "votes_count": 0, "ships_count": 0, "projects": [], "coding_time_seconds": 0, "coding_time_seconds_today": 0, "balance": "You need to have a pocket watcher badge to view this.", "badges": [], "created_at": "2025-07-05T05:31:48.348-04:00", "updated_at": "2025-07-08T03:16:44.876-04:00", "avatar": "https://secure.gravatar.com/avatar/3af508e7b6d6df49a1c661704ccdb008.jpg?s=512&d=https%3A%2F%2Fa.slack-edge.com%2Fdf10d%2Fimg%2Favatars%2Fava_0016-512.png", "custom_css": null}, {"id": 14765, "slack_id": "U08QE5655QV", "display_name": "seth", "bio": null, "projects_count": 0, "devlogs_count": 0, "votes_count": 0, "ships_count": 0, "projects": [], "coding_time_seconds": 28661, "coding_time_seconds_today": 0, "balance": "You need to have a pocket watcher badge to view this.", "badges": [], "created_at": "2025-07-05T05:32:48.374-04:00", "updated_at": "2025-07-06T02:18:00.620-04:00", "avatar": "https://avatars.slack-edge.com/2025-06-03/8987658308037_f34bd600bb59beab210e_original.png", "custom_css": null}], "pagination": {"page": 734, "pages": 1192, "count": 23828, "items": 20}}