{"users": [{"id": 14766, "slack_id": "U07ANR80LV7", "display_name": "Shlok", "bio": null, "projects_count": 0, "devlogs_count": 0, "votes_count": 0, "ships_count": 0, "projects": [], "coding_time_seconds": 0, "coding_time_seconds_today": 0, "balance": "You need to have a pocket watcher badge to view this.", "badges": [], "created_at": "2025-07-05T06:07:47.619-04:00", "updated_at": "2025-07-06T02:18:00.702-04:00", "avatar": "https://secure.gravatar.com/avatar/cb1bfdd077664af02a50061b8556b444.jpg?s=512&d=https%3A%2F%2Fa.slack-edge.com%2Fdf10d%2Fimg%2Favatars%2Fava_0014-512.png", "custom_css": null}, {"id": 14767, "slack_id": "U094ENJ7LAH", "display_name": "Josh", "bio": null, "projects_count": 4, "devlogs_count": 12, "votes_count": 34, "ships_count": 2, "projects": [{"id": 5797, "title": "ESP32 Battery Tester", "devlogs_count": 1, "created_at": "2025-07-08T03:43:30.922-04:00"}, {"id": 10847, "title": "Webgate", "devlogs_count": 0, "created_at": "2025-08-11T09:40:55.556-04:00"}, {"id": 7985, "title": "eyeMEI", "devlogs_count": 7, "created_at": "2025-07-23T23:20:58.631-04:00"}, {"id": 5541, "title": "Personal Website", "devlogs_count": 4, "created_at": "2025-07-06T02:29:36.990-04:00"}], "coding_time_seconds": 79311, "coding_time_seconds_today": 0, "balance": "You need to have a pocket watcher badge to view this.", "badges": [{"name": "Maiden Voyage", "text": "you shipped your first project! the journey begins...", "icon": "\ud83d\udea2"}], "created_at": "2025-07-05T06:23:32.362-04:00", "updated_at": "2025-09-10T22:58:27.903-04:00", "avatar": "https://secure.gravatar.com/avatar/efb38c015065be6ed1bdb6792e12e2d8.jpg?s=512&d=https%3A%2F%2Fa.slack-edge.com%2Fdf10d%2Fimg%2Favatars%2Fava_0021-512.png", "custom_css": null}, {"id": 14768, "slack_id": "U09499L6AHH", "display_name": "Anadi gupta", "bio": null, "projects_count": 0, "devlogs_count": 0, "votes_count": 0, "ships_count": 0, "projects": [], "coding_time_seconds": 0, "coding_time_seconds_today": 0, "balance": "You need to have a pocket watcher badge to view this.", "badges": [], "created_at": "2025-07-05T06:37:08.435-04:00", "updated_at": "2025-07-05T08:16:43.559-04:00", "avatar": "https://avatars.slack-edge.com/2025-07-05/9145340210899_2c2907c9a7d6a670a67a_original.jpg", "custom_css": null}, {"id": 14769, "slack_id": "U094FU45BFU", "display_name": "Hend Rashad", "bio": null, "projects_count": 0, "devlogs_count": 0, "votes_count": 0, "ships_count": 0, "projects": [], "coding_time_seconds": 6572, "coding_time_seconds_today": 0, "balance": "You need to have a pocket watcher badge to view this.", "badges": [], "created_at": "2025-07-05T06:53:37.076-04:00", "updated_at": "2025-08-06T14:02:13.339-04:00", "avatar": "https://secure.gravatar.com/avatar/13165f6fe63dde289bda736ce57e930c.jpg?s=512&d=https%3A%2F%2Fa.slack-edge.com%2Fdf10d%2Fimg%2Favatars%2Fava_0017-512.png", "custom_css": null}, {"id": 14770, "slack_id": "U091W9XAYFL", "display_name": "vitskv", "bio": null, "projects_count": 0, "devlogs_count": 0, "votes_count": 0, "ships_count": 0, "projects": [], "coding_time_seconds": 0, "coding_time_seconds_today": 0, "balance": "You need to have a pocket watcher badge to view this.", "badges": [], "created_at": "2025-07-05T07:05:01.023-04:00", "updated_at": "2025-07-08T03:16:45.348-04:00", "avatar": "https://secure.gravatar.com/avatar/1b204e28176284832c9d7738058ac783.jpg?s=512&d=https%3A%2F%2Fa.slack-edge.com%2Fdf10d%2Fimg%2Favatars%2Fava_0011-512.png", "custom_css": null}, {"id": 14771, "slack_id": "U094C744GKG", "display_name": "Denzel", "bio": null, "projects_count": 0, "devlogs_count": 0, "votes_count": 0, "ships_count": 0, "projects": [], "coding_time_seconds": 3606, "coding_time_seconds_today": 0, "balance": "You need to have a pocket watcher badge to view this.", "badges": [], "created_at": "2025-07-05T08:35:13.537-04:00", "updated_at": "2025-08-11T02:54:02.685-04:00", "avatar": "https://secure.gravatar.com/avatar/3fcca222a09c79a05bf2f2c6d1676486.jpg?s=512&d=https%3A%2F%2Fa.slack-edge.com%2Fdf10d%2Fimg%2Favatars%2Fava_0004-512.png", "custom_css": null}, {"id": 14772, "slack_id": "U094VCUKH97", "display_name": "Shivansh", "bio": null, "projects_count": 0, "devlogs_count": 0, "votes_count": 0, "ships_count": 0, "projects": [], "coding_time_seconds": 0, "coding_time_seconds_today": 0, "balance": "You need to have a pocket watcher badge to view this.", "badges": [], "created_at": "2025-07-05T08:52:10.014-04:00", "updated_at": "2025-07-05T14:18:09.832-04:00", "avatar": "https://secure.gravatar.com/avatar/00815c1ea96c296d9b6857d3c18017ff.jpg?s=512&d=https%3A%2F%2Fa.slack-edge.com%2Fdf10d%2Fimg%2Favatars%2Fava_0004-512.png", "custom_css": null}, {"id": 14773, "slack_id": "U0949HT6JBD", "display_name": "Yeoh-TH", "bio": null, "projects_count": 0, "devlogs_count": 0, "votes_count": 0, "ships_count": 0, "projects": [], "coding_time_seconds": 0, "coding_time_seconds_today": 0, "balance": "You need to have a pocket watcher badge to view this.", "badges": [], "created_at": "2025-07-05T09:21:38.495-04:00", "updated_at": "2025-07-08T03:16:45.560-04:00", "avatar": "https://secure.gravatar.com/avatar/3ed10d2d00da2982f46ccb51903f6507.jpg?s=512&d=https%3A%2F%2Fa.slack-edge.com%2Fdf10d%2Fimg%2Favatars%2Fava_0015-512.png", "custom_css": null}, {"id": 14774, "slack_id": "U094VE0H1Q9", "display_name": "Prathiksha", "bio": null, "projects_count": 0, "devlogs_count": 0, "votes_count": 0, "ships_count": 0, "projects": [], "coding_time_seconds": 0, "coding_time_seconds_today": 0, "balance": "You need to have a pocket watcher badge to view this.", "badges": [], "created_at": "2025-07-05T09:23:33.927-04:00", "updated_at": "2025-07-06T02:18:01.240-04:00", "avatar": "https://secure.gravatar.com/avatar/31c0049723869732458dc8bb19b966ea.jpg?s=512&d=https%3A%2F%2Fa.slack-edge.com%2Fdf10d%2Fimg%2Favatars%2Fava_0000-512.png", "custom_css": null}, {"id": 14775, "slack_id": "U07FQKP34LD", "display_name": "Lyosha", "bio": null, "projects_count": 0, "devlogs_count": 0, "votes_count": 0, "ships_count": 0, "projects": [], "coding_time_seconds": 0, "coding_time_seconds_today": 0, "balance": "You need to have a pocket watcher badge to view this.", "badges": [], "created_at": "2025-07-05T09:26:19.122-04:00", "updated_at": "2025-07-05T10:14:36.333-04:00", "avatar": "https://avatars.slack-edge.com/2024-08-11/7580850515056_e53d8cca6dc9124f8849_original.jpg", "custom_css": null}, {"id": 14776, "slack_id": "U094ETLLUJH", "display_name": "fiker hailegnaw", "bio": null, "projects_count": 0, "devlogs_count": 0, "votes_count": 0, "ships_count": 0, "projects": [], "coding_time_seconds": 0, "coding_time_seconds_today": 0, "balance": "You need to have a pocket watcher badge to view this.", "badges": [], "created_at": "2025-07-05T09:27:32.285-04:00", "updated_at": "2025-07-30T21:17:19.661-04:00", "avatar": "https://avatars.slack-edge.com/2025-07-30/9274660680726_8ac01b5d35362816dbe6_original.jpg", "custom_css": null}, {"id": 14777, "slack_id": "U07F3DX1SR3", "display_name": "Justinorange", "bio": null, "projects_count": 0, "devlogs_count": 0, "votes_count": 0, "ships_count": 0, "projects": [], "coding_time_seconds": 0, "coding_time_seconds_today": 0, "balance": "You need to have a pocket watcher badge to view this.", "badges": [], "created_at": "2025-07-05T10:11:15.291-04:00", "updated_at": "2025-07-05T10:45:42.761-04:00", "avatar": "https://secure.gravatar.com/avatar/67d1bffe89f768515427d6eac12a2fe4.jpg?s=512&d=https%3A%2F%2Fa.slack-edge.com%2Fdf10d%2Fimg%2Favatars%2Fava_0022-512.png", "custom_css": null}, {"id": 14778, "slack_id": "U094F212J2H", "display_name": "Aryan kumar", "bio": null, "projects_count": 0, "devlogs_count": 0, "votes_count": 0, "ships_count": 0, "projects": [], "coding_time_seconds": 0, "coding_time_seconds_today": 0, "balance": "You need to have a pocket watcher badge to view this.", "badges": [], "created_at": "2025-07-05T10:21:37.811-04:00", "updated_at": "2025-07-07T08:16:03.231-04:00", "avatar": "https://secure.gravatar.com/avatar/c43fed8548d3653c7d2ec133d4fa3d4f.jpg?s=512&d=https%3A%2F%2Fa.slack-edge.com%2Fdf10d%2Fimg%2Favatars%2Fava_0009-512.png", "custom_css": null}, {"id": 14779, "slack_id": "U080CQFCY92", "display_name": "EdoSgarbo", "bio": null, "projects_count": 0, "devlogs_count": 0, "votes_count": 0, "ships_count": 0, "projects": [], "coding_time_seconds": 4713, "coding_time_seconds_today": 0, "balance": "You need to have a pocket watcher badge to view this.", "badges": [], "created_at": "2025-07-05T10:37:21.839-04:00", "updated_at": "2025-07-05T12:00:20.495-04:00", "avatar": "https://secure.gravatar.com/avatar/8d29c7fad21bda226f749328021ad8e6.jpg?s=512&d=https%3A%2F%2Fa.slack-edge.com%2Fdf10d%2Fimg%2Favatars%2Fava_0019-512.png", "custom_css": null}, {"id": 14780, "slack_id": "U094G87FYR0", "display_name": "Mert Usluo\u011flu", "bio": null, "projects_count": 0, "devlogs_count": 0, "votes_count": 0, "ships_count": 0, "projects": [], "coding_time_seconds": 0, "coding_time_seconds_today": 0, "balance": "You need to have a pocket watcher badge to view this.", "badges": [], "created_at": "2025-07-05T10:39:13.200-04:00", "updated_at": "2025-07-05T14:18:10.425-04:00", "avatar": "https://secure.gravatar.com/avatar/f04a9595bd2cbaade6edfc82b0a916a9.jpg?s=512&d=https%3A%2F%2Fa.slack-edge.com%2Fdf10d%2Fimg%2Favatars%2Fava_0015-512.png", "custom_css": null}, {"id": 14781, "slack_id": "U0943JYBTDM", "display_name": "mustafa", "bio": null, "projects_count": 0, "devlogs_count": 0, "votes_count": 1, "ships_count": 0, "projects": [], "coding_time_seconds": 8882, "coding_time_seconds_today": 0, "balance": "You need to have a pocket watcher badge to view this.", "badges": [], "created_at": "2025-07-05T10:42:46.137-04:00", "updated_at": "2025-07-08T03:16:50.158-04:00", "avatar": "https://secure.gravatar.com/avatar/726e4d5f8bd5843cd6cf6277768bba6e.jpg?s=512&d=https%3A%2F%2Fa.slack-edge.com%2Fdf10d%2Fimg%2Favatars%2Fava_0000-512.png", "custom_css": null}, {"id": 14782, "slack_id": "U094F357JMB", "display_name": "Miguel Ambulo", "bio": null, "projects_count": 0, "devlogs_count": 0, "votes_count": 0, "ships_count": 0, "projects": [], "coding_time_seconds": 6829, "coding_time_seconds_today": 0, "balance": "You need to have a pocket watcher badge to view this.", "badges": [], "created_at": "2025-07-05T10:46:42.751-04:00", "updated_at": "2025-07-06T02:18:01.722-04:00", "avatar": "https://avatars.slack-edge.com/2025-07-05/9148430900262_db1060280e61b7124769_original.jpg", "custom_css": null}, {"id": 14783, "slack_id": "U094JGLQYE8", "display_name": "Iqbal", "bio": null, "projects_count": 1, "devlogs_count": 0, "votes_count": 0, "ships_count": 0, "projects": [{"id": 5677, "title": "Anomaly Button", "devlogs_count": 0, "created_at": "2025-07-07T02:07:03.952-04:00"}], "coding_time_seconds": 16409, "coding_time_seconds_today": 0, "balance": "You need to have a pocket watcher badge to view this.", "badges": [], "created_at": "2025-07-05T10:51:41.589-04:00", "updated_at": "2025-07-05T20:16:43.753-04:00", "avatar": "https://secure.gravatar.com/avatar/a6dd959664e6d96acddc40c41882c1a1.jpg?s=512&d=https%3A%2F%2Fa.slack-edge.com%2Fdf10d%2Fimg%2Favatars%2Fava_0009-512.png", "custom_css": null}, {"id": 14784, "slack_id": "U0943KM13AB", "display_name": "Shreya Mohanty", "bio": null, "projects_count": 0, "devlogs_count": 0, "votes_count": 0, "ships_count": 0, "projects": [], "coding_time_seconds": 55996, "coding_time_seconds_today": 0, "balance": "You need to have a pocket watcher badge to view this.", "badges": [], "created_at": "2025-07-05T10:57:44.113-04:00", "updated_at": "2025-07-05T20:16:43.830-04:00", "avatar": "https://avatars.slack-edge.com/2025-07-05/9151127699205_f409009030457a81cc4a_original.png", "custom_css": null}, {"id": 14785, "slack_id": "U0949PSNLRZ", "display_name": "Leo Manica", "bio": null, "projects_count": 2, "devlogs_count": 1, "votes_count": 1, "ships_count": 0, "projects": [{"id": 9859, "title": "crs_py_tools", "devlogs_count": 1, "created_at": "2025-08-02T13:33:52.298-04:00"}, {"id": 9860, "title": "crs_py_tools", "devlogs_count": 0, "created_at": "2025-08-02T13:33:52.306-04:00"}], "coding_time_seconds": 5284, "coding_time_seconds_today": 0, "balance": "You need to have a pocket watcher badge to view this.", "badges": [], "created_at": "2025-07-05T11:20:13.358-04:00", "updated_at": "2025-07-07T08:16:03.635-04:00", "avatar": "https://secure.gravatar.com/avatar/4c755ef8d94c1a571eb539216b4ee10f.jpg?s=512&d=https%3A%2F%2Fa.slack-edge.com%2Fdf10d%2Fimg%2Favatars%2Fava_0004-512.png", "custom_css": null}], "pagination": {"page": 735, "pages": 1192, "count": 23828, "items": 20}}