{"users": [{"id": 14806, "slack_id": "U092JCCCMA9", "display_name": "K3RIoT", "bio": null, "projects_count": 0, "devlogs_count": 0, "votes_count": 0, "ships_count": 0, "projects": [], "coding_time_seconds": 0, "coding_time_seconds_today": 0, "balance": "You need to have a pocket watcher badge to view this.", "badges": [], "created_at": "2025-07-05T14:19:42.979-04:00", "updated_at": "2025-07-06T02:18:04.344-04:00", "avatar": "https://secure.gravatar.com/avatar/00fe711898e5544f641114c9dc99ded7.jpg?s=512&d=https%3A%2F%2Fa.slack-edge.com%2Fdf10d%2Fimg%2Favatars%2Fava_0022-512.png", "custom_css": null}, {"id": 14807, "slack_id": "U094A3DVB3M", "display_name": "Bobbesvamp", "bio": null, "projects_count": 0, "devlogs_count": 0, "votes_count": 0, "ships_count": 0, "projects": [], "coding_time_seconds": 59949, "coding_time_seconds_today": 0, "balance": "You need to have a pocket watcher badge to view this.", "badges": [], "created_at": "2025-07-05T14:22:40.273-04:00", "updated_at": "2025-07-06T06:22:36.046-04:00", "avatar": "https://secure.gravatar.com/avatar/48f37df9efbe40ab535d73f1cc58a345.jpg?s=512&d=https%3A%2F%2Fa.slack-edge.com%2Fdf10d%2Fimg%2Favatars%2Fava_0013-512.png", "custom_css": null}, {"id": 14808, "slack_id": "U05ECC430TW", "display_name": "High_Kid", "bio": null, "projects_count": 0, "devlogs_count": 0, "votes_count": 0, "ships_count": 0, "projects": [], "coding_time_seconds": 0, "coding_time_seconds_today": 0, "balance": "You need to have a pocket watcher badge to view this.", "badges": [], "created_at": "2025-07-05T15:08:17.052-04:00", "updated_at": "2025-07-05T15:12:05.680-04:00", "avatar": "https://secure.gravatar.com/avatar/e397027c1c6b8adbb47e39c5d3274716.jpg?s=512&d=https%3A%2F%2Fa.slack-edge.com%2Fdf10d%2Fimg%2Favatars%2Fava_0024-512.png", "custom_css": null}, {"id": 14809, "slack_id": "U094FD01BCM", "display_name": "hello.techie", "bio": null, "projects_count": 0, "devlogs_count": 0, "votes_count": 0, "ships_count": 0, "projects": [], "coding_time_seconds": 0, "coding_time_seconds_today": 0, "balance": "You need to have a pocket watcher badge to view this.", "badges": [], "created_at": "2025-07-05T15:14:38.878-04:00", "updated_at": "2025-07-06T20:16:29.881-04:00", "avatar": "https://secure.gravatar.com/avatar/c0563526a386c90b356204e8b0b60965.jpg?s=512&d=https%3A%2F%2Fa.slack-edge.com%2Fdf10d%2Fimg%2Favatars%2Fava_0015-512.png", "custom_css": null}, {"id": 14810, "slack_id": "U094A680199", "display_name": "Mohab", "bio": null, "projects_count": 0, "devlogs_count": 0, "votes_count": 0, "ships_count": 0, "projects": [], "coding_time_seconds": 0, "coding_time_seconds_today": 0, "balance": "You need to have a pocket watcher badge to view this.", "badges": [], "created_at": "2025-07-05T15:17:08.261-04:00", "updated_at": "2025-07-08T03:17:00.188-04:00", "avatar": "https://secure.gravatar.com/avatar/8d6ea827fd117c507cf1907300f7c6d5.jpg?s=512&d=https%3A%2F%2Fa.slack-edge.com%2Fdf10d%2Fimg%2Favatars%2Fava_0019-512.png", "custom_css": null}, {"id": 14811, "slack_id": "U094CPELGJJ", "display_name": "Ewoenam Agbe", "bio": null, "projects_count": 0, "devlogs_count": 0, "votes_count": 0, "ships_count": 0, "projects": [], "coding_time_seconds": 0, "coding_time_seconds_today": 0, "balance": "You need to have a pocket watcher badge to view this.", "badges": [], "created_at": "2025-07-05T15:22:41.319-04:00", "updated_at": "2025-07-06T02:18:04.698-04:00", "avatar": "https://secure.gravatar.com/avatar/25e0a1751577a667180f0d191b303e78.jpg?s=512&d=https%3A%2F%2Fa.slack-edge.com%2Fdf10d%2Fimg%2Favatars%2Fava_0003-512.png", "custom_css": null}, {"id": 14812, "slack_id": "U094FE4FJ1K", "display_name": "Janesh Kapoor", "bio": null, "projects_count": 0, "devlogs_count": 0, "votes_count": 0, "ships_count": 0, "projects": [], "coding_time_seconds": 0, "coding_time_seconds_today": 0, "balance": "You need to have a pocket watcher badge to view this.", "badges": [], "created_at": "2025-07-05T15:33:04.346-04:00", "updated_at": "2025-07-08T03:17:04.365-04:00", "avatar": "https://avatars.slack-edge.com/2025-07-05/9140074955111_f73f315013d680d60d74_original.gif", "custom_css": null}, {"id": 14813, "slack_id": "U092GL2SZLY", "display_name": "Aaryan JAYASWAL", "bio": null, "projects_count": 0, "devlogs_count": 0, "votes_count": 0, "ships_count": 0, "projects": [], "coding_time_seconds": 0, "coding_time_seconds_today": 0, "balance": "You need to have a pocket watcher badge to view this.", "badges": [], "created_at": "2025-07-05T15:48:00.280-04:00", "updated_at": "2025-07-06T08:15:44.859-04:00", "avatar": "https://avatars.slack-edge.com/2025-07-05/9175071874368_c42929a5d36e81405dc8_original.jpg", "custom_css": null}, {"id": 14814, "slack_id": "U094CQB7622", "display_name": "Chaitanya", "bio": null, "projects_count": 0, "devlogs_count": 0, "votes_count": 0, "ships_count": 0, "projects": [], "coding_time_seconds": 0, "coding_time_seconds_today": 0, "balance": "You need to have a pocket watcher badge to view this.", "badges": [], "created_at": "2025-07-05T15:52:21.331-04:00", "updated_at": "2025-07-06T08:15:44.945-04:00", "avatar": "https://secure.gravatar.com/avatar/ed1348fa9e375fc30f7ce53688b7978b.jpg?s=512&d=https%3A%2F%2Fa.slack-edge.com%2Fdf10d%2Fimg%2Favatars%2Fava_0017-512.png", "custom_css": null}, {"id": 14815, "slack_id": "U094GM090US", "display_name": "ichraf sassi", "bio": null, "projects_count": 0, "devlogs_count": 0, "votes_count": 0, "ships_count": 0, "projects": [], "coding_time_seconds": 457, "coding_time_seconds_today": 0, "balance": "You need to have a pocket watcher badge to view this.", "badges": [], "created_at": "2025-07-05T15:54:10.270-04:00", "updated_at": "2025-07-06T08:35:01.708-04:00", "avatar": "https://avatars.slack-edge.com/2025-07-05/9166023988417_d4c74d9d1a0de07fbfc3_original.png", "custom_css": null}, {"id": 14816, "slack_id": "U094JUXRK36", "display_name": "M Lucky", "bio": null, "projects_count": 0, "devlogs_count": 0, "votes_count": 0, "ships_count": 0, "projects": [], "coding_time_seconds": 20591, "coding_time_seconds_today": 0, "balance": "You need to have a pocket watcher badge to view this.", "badges": [], "created_at": "2025-07-05T16:04:25.128-04:00", "updated_at": "2025-07-05T20:16:45.773-04:00", "avatar": "https://secure.gravatar.com/avatar/c47a8aa22e6ae1f4731625885e5b5120.jpg?s=512&d=https%3A%2F%2Fa.slack-edge.com%2Fdf10d%2Fimg%2Favatars%2Fava_0005-512.png", "custom_css": null}, {"id": 14817, "slack_id": "U09443C7FEK", "display_name": "Vishnu Satheesh", "bio": null, "projects_count": 0, "devlogs_count": 0, "votes_count": 0, "ships_count": 0, "projects": [], "coding_time_seconds": 0, "coding_time_seconds_today": 0, "balance": "You need to have a pocket watcher badge to view this.", "badges": [], "created_at": "2025-07-05T16:11:12.737-04:00", "updated_at": "2025-07-08T03:17:08.749-04:00", "avatar": "https://secure.gravatar.com/avatar/eebb53ed19e43e3437523db6bf9ef4c9.jpg?s=512&d=https%3A%2F%2Fa.slack-edge.com%2Fdf10d%2Fimg%2Favatars%2Fava_0019-512.png", "custom_css": null}, {"id": 14818, "slack_id": "U094K0424AG", "display_name": "zox", "bio": null, "projects_count": 0, "devlogs_count": 0, "votes_count": 0, "ships_count": 0, "projects": [], "coding_time_seconds": 0, "coding_time_seconds_today": 0, "balance": "You need to have a pocket watcher badge to view this.", "badges": [], "created_at": "2025-07-05T16:21:55.382-04:00", "updated_at": "2025-07-06T14:16:01.932-04:00", "avatar": "https://avatars.slack-edge.com/2025-07-05/9140139649783_534f7653ecf76ce0cc37_original.jpg", "custom_css": null}, {"id": 14819, "slack_id": "U087QDHCZ5F", "display_name": "Abdelrahman", "bio": null, "projects_count": 0, "devlogs_count": 0, "votes_count": 0, "ships_count": 0, "projects": [], "coding_time_seconds": 2966, "coding_time_seconds_today": 0, "balance": "You need to have a pocket watcher badge to view this.", "badges": [], "created_at": "2025-07-05T16:26:17.472-04:00", "updated_at": "2025-07-05T16:44:37.097-04:00", "avatar": "https://secure.gravatar.com/avatar/b65b91c4c65c6a196d35adeec8d26989.jpg?s=512&d=https%3A%2F%2Fa.slack-edge.com%2Fdf10d%2Fimg%2Favatars%2Fava_0005-512.png", "custom_css": null}, {"id": 14820, "slack_id": "U07E59ZQ50E", "display_name": "Aryaman Jain", "bio": null, "projects_count": 0, "devlogs_count": 0, "votes_count": 0, "ships_count": 0, "projects": [], "coding_time_seconds": 0, "coding_time_seconds_today": 0, "balance": "You need to have a pocket watcher badge to view this.", "badges": [], "created_at": "2025-07-05T16:35:34.974-04:00", "updated_at": "2025-07-05T16:35:43.970-04:00", "avatar": "https://secure.gravatar.com/avatar/9a439a5c89714b2c90c6c63953f0615e.jpg?s=512&d=https%3A%2F%2Fa.slack-edge.com%2Fdf10d%2Fimg%2Favatars%2Fava_0025-512.png", "custom_css": null}, {"id": 14821, "slack_id": "U09533JTJ48", "display_name": "Patrick", "bio": null, "projects_count": 0, "devlogs_count": 0, "votes_count": 0, "ships_count": 0, "projects": [], "coding_time_seconds": 0, "coding_time_seconds_today": 0, "balance": "You need to have a pocket watcher badge to view this.", "badges": [], "created_at": "2025-07-05T16:47:45.168-04:00", "updated_at": "2025-07-06T14:16:02.121-04:00", "avatar": "https://secure.gravatar.com/avatar/17ffbff3e43b62453c88a948031f5f62.jpg?s=512&d=https%3A%2F%2Fa.slack-edge.com%2Fdf10d%2Fimg%2Favatars%2Fava_0000-512.png", "custom_css": null}, {"id": 14822, "slack_id": "U09444UEK9D", "display_name": "Patrick", "bio": null, "projects_count": 1, "devlogs_count": 0, "votes_count": 0, "ships_count": 0, "projects": [{"id": 5518, "title": "Tiger surfer", "devlogs_count": 0, "created_at": "2025-07-05T22:03:13.865-04:00"}], "coding_time_seconds": 17572, "coding_time_seconds_today": 0, "balance": "You need to have a pocket watcher badge to view this.", "badges": [], "created_at": "2025-07-05T16:48:54.950-04:00", "updated_at": "2025-07-06T17:45:19.529-04:00", "avatar": "https://secure.gravatar.com/avatar/eea7d83a288aa8492cff9e32581c2250.jpg?s=512&d=https%3A%2F%2Fa.slack-edge.com%2Fdf10d%2Fimg%2Favatars%2Fava_0004-512.png", "custom_css": null}, {"id": 14823, "slack_id": "U094ABT34PM", "display_name": "Onur Kaan", "bio": null, "projects_count": 0, "devlogs_count": 1, "votes_count": 4, "ships_count": 0, "projects": [], "coding_time_seconds": 204555, "coding_time_seconds_today": 0, "balance": "You need to have a pocket watcher badge to view this.", "badges": [{"name": "Maiden Voyage", "text": "you shipped your first project! the journey begins...", "icon": "\ud83d\udea2"}], "created_at": "2025-07-05T17:18:25.037-04:00", "updated_at": "2025-09-10T22:58:29.954-04:00", "avatar": "https://secure.gravatar.com/avatar/e13dc11927a55ec5ad85881dac3a3cd9.jpg?s=512&d=https%3A%2F%2Fa.slack-edge.com%2Fdf10d%2Fimg%2Favatars%2Fava_0018-512.png", "custom_css": null}, {"id": 14824, "slack_id": "U094W6HMRG9", "display_name": "valium", "bio": null, "projects_count": 0, "devlogs_count": 0, "votes_count": 0, "ships_count": 0, "projects": [], "coding_time_seconds": 0, "coding_time_seconds_today": 0, "balance": "You need to have a pocket watcher badge to view this.", "badges": [], "created_at": "2025-07-05T18:40:19.385-04:00", "updated_at": "2025-07-08T03:17:09.214-04:00", "avatar": "https://secure.gravatar.com/avatar/16a4ad54b663b92f610fda887d750196.jpg?s=512&d=https%3A%2F%2Fa.slack-edge.com%2Fdf10d%2Fimg%2Favatars%2Fava_0023-512.png", "custom_css": null}, {"id": 14825, "slack_id": "U094AFY8L83", "display_name": "Az", "bio": null, "projects_count": 0, "devlogs_count": 0, "votes_count": 0, "ships_count": 0, "projects": [], "coding_time_seconds": 0, "coding_time_seconds_today": 0, "balance": "You need to have a pocket watcher badge to view this.", "badges": [], "created_at": "2025-07-05T18:54:50.894-04:00", "updated_at": "2025-07-06T14:16:02.460-04:00", "avatar": "https://secure.gravatar.com/avatar/dcf9bcaddbe986f381c072ecf0d9b098.jpg?s=512&d=https%3A%2F%2Fa.slack-edge.com%2Fdf10d%2Fimg%2Favatars%2Fava_0000-512.png", "custom_css": null}], "pagination": {"page": 737, "pages": 1192, "count": 23828, "items": 20}}