{"users": [{"id": 14826, "slack_id": "U090LQTMMRP", "display_name": "Cary", "bio": null, "projects_count": 4, "devlogs_count": 15, "votes_count": 19, "ships_count": 4, "projects": [{"id": 6865, "title": "Focus Time", "devlogs_count": 4, "created_at": "2025-07-17T00:28:56.818-04:00"}, {"id": 6371, "title": "Pixel Painters", "devlogs_count": 4, "created_at": "2025-07-12T18:51:16.694-04:00"}, {"id": 5530, "title": "School Year Simulator", "devlogs_count": 6, "created_at": "2025-07-05T23:36:03.252-04:00"}, {"id": 6814, "title": "Student Life", "devlogs_count": 1, "created_at": "2025-07-16T13:48:31.871-04:00"}], "coding_time_seconds": 90580, "coding_time_seconds_today": 0, "balance": "You need to have a pocket watcher badge to view this.", "badges": [{"name": "Maiden Voyage", "text": "you shipped your first project! the journey begins...", "icon": "\ud83d\udea2"}], "created_at": "2025-07-05T19:13:49.745-04:00", "updated_at": "2025-09-10T22:58:30.016-04:00", "avatar": "https://secure.gravatar.com/avatar/66a7c692c9266ba1761b19539bd48665.jpg?s=512&d=https%3A%2F%2Fa.slack-edge.com%2Fdf10d%2Fimg%2Favatars%2Fava_0015-512.png", "custom_css": null}, {"id": 14827, "slack_id": "U094H0EAJRY", "display_name": "Miles Knaebe", "bio": null, "projects_count": 0, "devlogs_count": 0, "votes_count": 0, "ships_count": 0, "projects": [], "coding_time_seconds": 146679, "coding_time_seconds_today": 0, "balance": "You need to have a pocket watcher badge to view this.", "badges": [], "created_at": "2025-07-05T20:00:59.068-04:00", "updated_at": "2025-07-08T03:17:09.459-04:00", "avatar": "https://secure.gravatar.com/avatar/ca25f1ee4659335bdbf8c409a57aa10c.jpg?s=512&d=https%3A%2F%2Fa.slack-edge.com%2Fdf10d%2Fimg%2Favatars%2Fava_0025-512.png", "custom_css": null}, {"id": 14828, "slack_id": "U094FPUE5EZ", "display_name": "Romy Anand", "bio": null, "projects_count": 0, "devlogs_count": 0, "votes_count": 0, "ships_count": 0, "projects": [], "coding_time_seconds": 1657, "coding_time_seconds_today": 0, "balance": "You need to have a pocket watcher badge to view this.", "badges": [], "created_at": "2025-07-05T20:11:20.689-04:00", "updated_at": "2025-07-07T08:16:06.351-04:00", "avatar": "https://avatars.slack-edge.com/2025-07-05/9155276038468_dadbd119addd41f5e1b8_original.png", "custom_css": null}, {"id": 14829, "slack_id": "U079FE80WN7", "display_name": "enVId Tech", "bio": null, "projects_count": 1, "devlogs_count": 2, "votes_count": 2, "ships_count": 0, "projects": [{"id": 5510, "title": "Minecraft Server Manager", "devlogs_count": 2, "created_at": "2025-07-05T20:40:47.929-04:00"}], "coding_time_seconds": 363717, "coding_time_seconds_today": 0, "balance": "You need to have a pocket watcher badge to view this.", "badges": [], "created_at": "2025-07-05T20:29:23.128-04:00", "updated_at": "2025-07-07T02:17:05.635-04:00", "avatar": "https://avatars.slack-edge.com/2024-06-24/7344426102560_aa16cb42975aa61db8fb_original.png", "custom_css": null}, {"id": 14830, "slack_id": "U091JM3KG30", "display_name": "Oluwafunmilayo Oshebeyo", "bio": null, "projects_count": 0, "devlogs_count": 0, "votes_count": 0, "ships_count": 0, "projects": [], "coding_time_seconds": 0, "coding_time_seconds_today": 0, "balance": "You need to have a pocket watcher badge to view this.", "badges": [], "created_at": "2025-07-05T20:49:17.299-04:00", "updated_at": "2025-07-06T08:15:45.961-04:00", "avatar": "https://avatars.slack-edge.com/2025-07-05/9155321624804_e10eecf744e8a72a8617_original.jpg", "custom_css": null}, {"id": 14831, "slack_id": "U094H44JVK4", "display_name": "Chessmen", "bio": null, "projects_count": 2, "devlogs_count": 3, "votes_count": 0, "ships_count": 0, "projects": [{"id": 5655, "title": "Gambling Bot for Discord", "devlogs_count": 1, "created_at": "2025-07-06T22:00:58.834-04:00"}, {"id": 6501, "title": "App Controller", "devlogs_count": 2, "created_at": "2025-07-13T22:46:46.995-04:00"}], "coding_time_seconds": 50731, "coding_time_seconds_today": 0, "balance": "You need to have a pocket watcher badge to view this.", "badges": [], "created_at": "2025-07-05T21:44:11.565-04:00", "updated_at": "2025-07-08T03:17:09.745-04:00", "avatar": "https://avatars.slack-edge.com/2025-07-07/9151309722598_219482caaace34a12785_original.jpg", "custom_css": null}, {"id": 14832, "slack_id": "U094WDEGNF3", "display_name": "Tawhidul Hasan", "bio": null, "projects_count": 0, "devlogs_count": 0, "votes_count": 2, "ships_count": 0, "projects": [], "coding_time_seconds": 403, "coding_time_seconds_today": 0, "balance": "You need to have a pocket watcher badge to view this.", "badges": [], "created_at": "2025-07-05T21:47:56.721-04:00", "updated_at": "2025-07-06T08:15:46.093-04:00", "avatar": "https://avatars.slack-edge.com/2025-07-05/9166464346097_ad9eb1764c378c4ea2c3_original.jpg", "custom_css": null}, {"id": 14833, "slack_id": "U0953H9S2RW", "display_name": "Yash Parab", "bio": null, "projects_count": 0, "devlogs_count": 0, "votes_count": 0, "ships_count": 0, "projects": [], "coding_time_seconds": 0, "coding_time_seconds_today": 0, "balance": "You need to have a pocket watcher badge to view this.", "badges": [], "created_at": "2025-07-05T21:59:06.135-04:00", "updated_at": "2025-07-07T02:17:05.894-04:00", "avatar": "https://secure.gravatar.com/avatar/88d37b4c05b8af778eaae330d362a58d.jpg?s=512&d=https%3A%2F%2Fa.slack-edge.com%2Fdf10d%2Fimg%2Favatars%2Fava_0011-512.png", "custom_css": null}, {"id": 14834, "slack_id": "U094H56FKJ6", "display_name": "Asha Annae", "bio": null, "projects_count": 0, "devlogs_count": 0, "votes_count": 0, "ships_count": 0, "projects": [], "coding_time_seconds": 0, "coding_time_seconds_today": 0, "balance": "You need to have a pocket watcher badge to view this.", "badges": [], "created_at": "2025-07-05T22:08:02.466-04:00", "updated_at": "2025-07-08T03:17:13.998-04:00", "avatar": "https://secure.gravatar.com/avatar/d8c129249d4a3717b5e29528e0c2f611.jpg?s=512&d=https%3A%2F%2Fa.slack-edge.com%2Fdf10d%2Fimg%2Favatars%2Fava_0013-512.png", "custom_css": null}, {"id": 14835, "slack_id": "U081R7C3SB1", "display_name": "DARKSTARx178", "bio": null, "projects_count": 1, "devlogs_count": 2, "votes_count": 17, "ships_count": 1, "projects": [{"id": 5525, "title": "TwinXCare", "devlogs_count": 2, "created_at": "2025-07-05T22:35:34.954-04:00"}], "coding_time_seconds": 241608, "coding_time_seconds_today": 1191, "balance": "You need to have a pocket watcher badge to view this.", "badges": [{"name": "Maiden Voyage", "text": "you shipped your first project! the journey begins...", "icon": "\ud83d\udea2"}], "created_at": "2025-07-05T22:16:35.694-04:00", "updated_at": "2025-09-10T22:58:30.242-04:00", "avatar": "https://avatars.slack-edge.com/2024-11-22/8073786265266_48217873b2bd368d4514_original.jpg", "custom_css": null}, {"id": 14836, "slack_id": "U079SBVPALQ", "display_name": "Ujval", "bio": null, "projects_count": 0, "devlogs_count": 0, "votes_count": 0, "ships_count": 0, "projects": [], "coding_time_seconds": 17380, "coding_time_seconds_today": 0, "balance": "You need to have a pocket watcher badge to view this.", "badges": [], "created_at": "2025-07-05T22:38:09.343-04:00", "updated_at": "2025-07-05T22:44:04.001-04:00", "avatar": "https://secure.gravatar.com/avatar/72e03881b05609ee42a8c23f896b0e8e.jpg?s=512&d=https%3A%2F%2Fa.slack-edge.com%2Fdf10d%2Fimg%2Favatars%2Fava_0011-512.png", "custom_css": null}, {"id": 14837, "slack_id": "U07PHV339JA", "display_name": "jacob_fr", "bio": null, "projects_count": 1, "devlogs_count": 1, "votes_count": 1, "ships_count": 0, "projects": [{"id": 5769, "title": "Project Z", "devlogs_count": 1, "created_at": "2025-07-07T21:16:31.093-04:00"}], "coding_time_seconds": 51879, "coding_time_seconds_today": 0, "balance": "You need to have a pocket watcher badge to view this.", "badges": [], "created_at": "2025-07-05T22:46:45.656-04:00", "updated_at": "2025-07-08T03:17:18.240-04:00", "avatar": "https://avatars.slack-edge.com/2025-07-07/9161299673106_ef2b4f403062ac2c671c_original.png", "custom_css": null}, {"id": 14838, "slack_id": "U094G04GCKF", "display_name": "Charlie Russo", "bio": null, "projects_count": 0, "devlogs_count": 17, "votes_count": 15, "ships_count": 0, "projects": [], "coding_time_seconds": 422566, "coding_time_seconds_today": 0, "balance": "You need to have a pocket watcher badge to view this.", "badges": [{"name": "Maiden Voyage", "text": "you shipped your first project! the journey begins...", "icon": "\ud83d\udea2"}], "created_at": "2025-07-05T22:52:58.298-04:00", "updated_at": "2025-09-10T22:58:30.303-04:00", "avatar": "https://secure.gravatar.com/avatar/6ccfa15d246c7c8d8eff4ec6ff99a596.jpg?s=512&d=https%3A%2F%2Fa.slack-edge.com%2Fdf10d%2Fimg%2Favatars%2Fava_0002-512.png", "custom_css": null}, {"id": 14839, "slack_id": "U094WGFP533", "display_name": "Kaiane Cordeiro", "bio": null, "projects_count": 0, "devlogs_count": 0, "votes_count": 0, "ships_count": 0, "projects": [], "coding_time_seconds": 0, "coding_time_seconds_today": 0, "balance": "You need to have a pocket watcher badge to view this.", "badges": [], "created_at": "2025-07-05T23:14:20.701-04:00", "updated_at": "2025-07-08T03:17:22.428-04:00", "avatar": "https://secure.gravatar.com/avatar/5eb499dba0d4e7bff568bacf767ec280.jpg?s=512&d=https%3A%2F%2Fa.slack-edge.com%2Fdf10d%2Fimg%2Favatars%2Fava_0001-512.png", "custom_css": null}, {"id": 14840, "slack_id": "U094DAC3SBG", "display_name": "Ziyue Xu", "bio": null, "projects_count": 0, "devlogs_count": 0, "votes_count": 0, "ships_count": 0, "projects": [], "coding_time_seconds": 26975, "coding_time_seconds_today": 0, "balance": "You need to have a pocket watcher badge to view this.", "badges": [], "created_at": "2025-07-05T23:17:35.062-04:00", "updated_at": "2025-07-07T02:17:06.296-04:00", "avatar": "https://secure.gravatar.com/avatar/b6cd771bdaa9014234956580e273c236.jpg?s=512&d=https%3A%2F%2Fa.slack-edge.com%2Fdf10d%2Fimg%2Favatars%2Fava_0005-512.png", "custom_css": null}, {"id": 14841, "slack_id": "U0955K4FDT2", "display_name": "Akshat Bhasin", "bio": null, "projects_count": 0, "devlogs_count": 0, "votes_count": 0, "ships_count": 0, "projects": [], "coding_time_seconds": 0, "coding_time_seconds_today": 0, "balance": "You need to have a pocket watcher badge to view this.", "badges": [], "created_at": "2025-07-05T23:37:09.706-04:00", "updated_at": "2025-07-06T02:18:06.626-04:00", "avatar": "https://secure.gravatar.com/avatar/2cc76b762a62582816c71f64653bb362.jpg?s=512&d=https%3A%2F%2Fa.slack-edge.com%2Fdf10d%2Fimg%2Favatars%2Fava_0012-512.png", "custom_css": null}, {"id": 14842, "slack_id": "U08US8FJ62U", "display_name": "AVSC", "bio": null, "projects_count": 0, "devlogs_count": 0, "votes_count": 0, "ships_count": 0, "projects": [], "coding_time_seconds": 0, "coding_time_seconds_today": 0, "balance": "You need to have a pocket watcher badge to view this.", "badges": [], "created_at": "2025-07-05T23:57:28.225-04:00", "updated_at": "2025-07-05T23:57:43.194-04:00", "avatar": "https://avatars.slack-edge.com/2025-05-28/8976410221361_84d9538b243bda31bd22_original.jpg", "custom_css": null}, {"id": 14843, "slack_id": "U094DCL2T2S", "display_name": "AS", "bio": null, "projects_count": 0, "devlogs_count": 0, "votes_count": 0, "ships_count": 0, "projects": [], "coding_time_seconds": 0, "coding_time_seconds_today": 0, "balance": "You need to have a pocket watcher badge to view this.", "badges": [], "created_at": "2025-07-06T00:29:23.361-04:00", "updated_at": "2025-07-08T03:17:22.703-04:00", "avatar": "https://secure.gravatar.com/avatar/0f6364bef2a5aa94221cc77906f9a393.jpg?s=512&d=https%3A%2F%2Fa.slack-edge.com%2Fdf10d%2Fimg%2Favatars%2Fava_0000-512.png", "custom_css": null}, {"id": 14844, "slack_id": "U07E44R9ZNC", "display_name": "Med", "bio": null, "projects_count": 0, "devlogs_count": 0, "votes_count": 0, "ships_count": 0, "projects": [], "coding_time_seconds": 28422, "coding_time_seconds_today": 0, "balance": "You need to have a pocket watcher badge to view this.", "badges": [], "created_at": "2025-07-06T00:48:18.598-04:00", "updated_at": "2025-07-06T02:18:07.268-04:00", "avatar": "https://avatars.slack-edge.com/2025-01-17/8332908910640_24677e434640084a6b11_original.png", "custom_css": null}, {"id": 14845, "slack_id": "U094JG57E2G", "display_name": "Ellen", "bio": null, "projects_count": 0, "devlogs_count": 0, "votes_count": 0, "ships_count": 0, "projects": [], "coding_time_seconds": 52152, "coding_time_seconds_today": 0, "balance": "You need to have a pocket watcher badge to view this.", "badges": [], "created_at": "2025-07-06T01:34:35.850-04:00", "updated_at": "2025-07-06T02:18:07.348-04:00", "avatar": "https://secure.gravatar.com/avatar/9cd25a9a7a439edbdfcf3df6f7fa9e88.jpg?s=512&d=https%3A%2F%2Fa.slack-edge.com%2Fdf10d%2Fimg%2Favatars%2Fava_0012-512.png", "custom_css": null}], "pagination": {"page": 738, "pages": 1192, "count": 23828, "items": 20}}