{"users": [{"id": 14846, "slack_id": "U02DWUQNQJU", "display_name": "Mahir", "bio": null, "projects_count": 1, "devlogs_count": 6, "votes_count": 0, "ships_count": 0, "projects": [{"id": 10769, "title": "BeWare", "devlogs_count": 6, "created_at": "2025-08-10T14:41:14.575-04:00"}], "coding_time_seconds": 28821, "coding_time_seconds_today": 0, "balance": "You need to have a pocket watcher badge to view this.", "badges": [], "created_at": "2025-07-06T02:16:56.587-04:00", "updated_at": "2025-08-10T12:48:26.633-04:00", "avatar": "https://avatars.slack-edge.com/2024-02-05/6571042230663_769a8dc679155a5304dd_original.jpg", "custom_css": null}, {"id": 14847, "slack_id": "U094B6DHNUB", "display_name": "vyom kt", "bio": null, "projects_count": 0, "devlogs_count": 0, "votes_count": 0, "ships_count": 0, "projects": [], "coding_time_seconds": 0, "coding_time_seconds_today": 0, "balance": "You need to have a pocket watcher badge to view this.", "badges": [], "created_at": "2025-07-06T02:17:08.283-04:00", "updated_at": "2025-07-06T20:16:32.085-04:00", "avatar": "https://avatars.slack-edge.com/2025-07-05/9140899111863_3ce75a197aa6d45a100a_original.png", "custom_css": null}, {"id": 14848, "slack_id": "U094WQ07G0H", "display_name": "Joel Amaldas", "bio": null, "projects_count": 0, "devlogs_count": 0, "votes_count": 0, "ships_count": 0, "projects": [], "coding_time_seconds": 0, "coding_time_seconds_today": 0, "balance": "You need to have a pocket watcher badge to view this.", "badges": [], "created_at": "2025-07-06T02:33:40.662-04:00", "updated_at": "2025-07-07T08:16:07.575-04:00", "avatar": "https://secure.gravatar.com/avatar/5e1fc83b9f7576439d0ef1338799f4a7.jpg?s=512&d=https%3A%2F%2Fa.slack-edge.com%2Fdf10d%2Fimg%2Favatars%2Fava_0001-512.png", "custom_css": null}, {"id": 14849, "slack_id": "U0712BRLYSZ", "display_name": "Panchetty Sai Siddharth", "bio": null, "projects_count": 0, "devlogs_count": 0, "votes_count": 0, "ships_count": 0, "projects": [], "coding_time_seconds": 407, "coding_time_seconds_today": 0, "balance": "You need to have a pocket watcher badge to view this.", "badges": [], "created_at": "2025-07-06T02:42:20.737-04:00", "updated_at": "2025-07-06T02:48:58.676-04:00", "avatar": "https://secure.gravatar.com/avatar/73473ab7cd8deffeb127037b25d162ba.jpg?s=512&d=https%3A%2F%2Fa.slack-edge.com%2Fdf10d%2Fimg%2Favatars%2Fava_0009-512.png", "custom_css": null}, {"id": 14850, "slack_id": "U0955T55Y6L", "display_name": "flexsy bilbis", "bio": null, "projects_count": 0, "devlogs_count": 0, "votes_count": 0, "ships_count": 0, "projects": [], "coding_time_seconds": 139036, "coding_time_seconds_today": 0, "balance": "You need to have a pocket watcher badge to view this.", "badges": [], "created_at": "2025-07-06T03:28:45.221-04:00", "updated_at": "2025-07-06T14:16:03.974-04:00", "avatar": "https://secure.gravatar.com/avatar/4d6fe0a5ea985357cb0956afb4ad0603.jpg?s=512&d=https%3A%2F%2Fa.slack-edge.com%2Fdf10d%2Fimg%2Favatars%2Fava_0021-512.png", "custom_css": null}, {"id": 14851, "slack_id": "U052WLC2QDU", "display_name": "Aaron Lee", "bio": null, "projects_count": 0, "devlogs_count": 0, "votes_count": 0, "ships_count": 0, "projects": [], "coding_time_seconds": 63724, "coding_time_seconds_today": 0, "balance": "You need to have a pocket watcher badge to view this.", "badges": [], "created_at": "2025-07-06T03:40:09.042-04:00", "updated_at": "2025-07-06T08:15:47.204-04:00", "avatar": "https://avatars.slack-edge.com/2023-04-13/5102354989493_16e2925f6ec74f338436_original.jpg", "custom_css": null}, {"id": 14852, "slack_id": "U0944VDPRMM", "display_name": "Oskar", "bio": null, "projects_count": 0, "devlogs_count": 0, "votes_count": 0, "ships_count": 0, "projects": [], "coding_time_seconds": 0, "coding_time_seconds_today": 0, "balance": "You need to have a pocket watcher badge to view this.", "badges": [], "created_at": "2025-07-06T03:44:04.131-04:00", "updated_at": "2025-07-07T08:16:07.837-04:00", "avatar": "https://secure.gravatar.com/avatar/1995e6e9ecebf83f047c16335ed9ac95.jpg?s=512&d=https%3A%2F%2Fa.slack-edge.com%2Fdf10d%2Fimg%2Favatars%2Fava_0003-512.png", "custom_css": null}, {"id": 14853, "slack_id": "U0955U0RE48", "display_name": "Ipshita Bhardwaj", "bio": null, "projects_count": 0, "devlogs_count": 0, "votes_count": 0, "ships_count": 0, "projects": [], "coding_time_seconds": 44580, "coding_time_seconds_today": 0, "balance": "You need to have a pocket watcher badge to view this.", "badges": [], "created_at": "2025-07-06T03:54:16.434-04:00", "updated_at": "2025-07-10T09:18:26.337-04:00", "avatar": "https://avatars.slack-edge.com/2025-07-10/9174978002149_35c861c33c756434b630_original.jpg", "custom_css": null}, {"id": 14854, "slack_id": "U094HJ67X8S", "display_name": "vishwajeet", "bio": null, "projects_count": 0, "devlogs_count": 0, "votes_count": 0, "ships_count": 0, "projects": [], "coding_time_seconds": 0, "coding_time_seconds_today": 0, "balance": "You need to have a pocket watcher badge to view this.", "badges": [], "created_at": "2025-07-06T04:01:09.934-04:00", "updated_at": "2025-07-06T08:15:47.458-04:00", "avatar": "https://secure.gravatar.com/avatar/216bcc9d9ed667440968b7f89e59bb63.jpg?s=512&d=https%3A%2F%2Fa.slack-edge.com%2Fdf10d%2Fimg%2Favatars%2Fava_0000-512.png", "custom_css": null}, {"id": 14855, "slack_id": "U094BB9SQHZ", "display_name": "Baribal", "bio": null, "projects_count": 0, "devlogs_count": 0, "votes_count": 0, "ships_count": 0, "projects": [], "coding_time_seconds": 1300, "coding_time_seconds_today": 0, "balance": "You need to have a pocket watcher badge to view this.", "badges": [], "created_at": "2025-07-06T04:04:28.686-04:00", "updated_at": "2025-07-06T15:48:25.782-04:00", "avatar": "https://secure.gravatar.com/avatar/1b23e0d1ba950f1c7ba823544e37db79.jpg?s=512&d=https%3A%2F%2Fa.slack-edge.com%2Fdf10d%2Fimg%2Favatars%2Fava_0007-512.png", "custom_css": null}, {"id": 14856, "slack_id": "U09451STFFZ", "display_name": "jiya", "bio": null, "projects_count": 0, "devlogs_count": 0, "votes_count": 0, "ships_count": 0, "projects": [], "coding_time_seconds": 92552, "coding_time_seconds_today": 0, "balance": "You need to have a pocket watcher badge to view this.", "badges": [], "created_at": "2025-07-06T04:28:11.442-04:00", "updated_at": "2025-07-06T20:16:32.875-04:00", "avatar": "https://secure.gravatar.com/avatar/45d96e9c030cfd150d5197c487063c3b.jpg?s=512&d=https%3A%2F%2Fa.slack-edge.com%2Fdf10d%2Fimg%2Favatars%2Fava_0018-512.png", "custom_css": null}, {"id": 14857, "slack_id": "U08BUL0BQRX", "display_name": "blxddy", "bio": null, "projects_count": 1, "devlogs_count": 2, "votes_count": 1, "ships_count": 0, "projects": [{"id": 5553, "title": "BSSR Nodes Dashboard", "devlogs_count": 2, "created_at": "2025-07-06T06:12:43.836-04:00"}], "coding_time_seconds": 60348, "coding_time_seconds_today": 0, "balance": "You need to have a pocket watcher badge to view this.", "badges": [], "created_at": "2025-07-06T04:36:19.784-04:00", "updated_at": "2025-07-06T05:24:40.708-04:00", "avatar": "https://avatars.slack-edge.com/2025-02-03/8375483643431_ffc89a6a7690aa37e8bc_original.png", "custom_css": null}, {"id": 14858, "slack_id": "U094HKMEL2W", "display_name": "Anshu Jangid", "bio": null, "projects_count": 0, "devlogs_count": 0, "votes_count": 0, "ships_count": 0, "projects": [], "coding_time_seconds": 0, "coding_time_seconds_today": 0, "balance": "You need to have a pocket watcher badge to view this.", "badges": [], "created_at": "2025-07-06T04:39:24.246-04:00", "updated_at": "2025-07-08T03:17:31.859-04:00", "avatar": "https://avatars.slack-edge.com/2025-07-06/9152426155765_00bae1d90f84810fba49_original.png", "custom_css": null}, {"id": 14859, "slack_id": "U093JKDQWD8", "display_name": "arjit", "bio": null, "projects_count": 3, "devlogs_count": 1, "votes_count": 15, "ships_count": 1, "projects": [{"id": 6347, "title": "Working with langchain", "devlogs_count": 0, "created_at": "2025-07-12T15:03:01.021-04:00"}, {"id": 6348, "title": "Working with langchain", "devlogs_count": 0, "created_at": "2025-07-12T15:03:02.199-04:00"}, {"id": 6345, "title": "Book Finder", "devlogs_count": 1, "created_at": "2025-07-12T15:01:59.087-04:00"}], "coding_time_seconds": 75211, "coding_time_seconds_today": 0, "balance": "You need to have a pocket watcher badge to view this.", "badges": [{"name": "Maiden Voyage", "text": "you shipped your first project! the journey begins...", "icon": "\ud83d\udea2"}], "created_at": "2025-07-06T04:40:07.210-04:00", "updated_at": "2025-09-10T22:58:30.918-04:00", "avatar": "https://secure.gravatar.com/avatar/f14639022fd88bdae6dd65cff126eedd.jpg?s=512&d=https%3A%2F%2Fa.slack-edge.com%2Fdf10d%2Fimg%2Favatars%2Fava_0000-512.png", "custom_css": null}, {"id": 14860, "slack_id": "U08LEND5FM4", "display_name": "Anjali", "bio": null, "projects_count": 0, "devlogs_count": 0, "votes_count": 0, "ships_count": 0, "projects": [], "coding_time_seconds": 0, "coding_time_seconds_today": 0, "balance": "You need to have a pocket watcher badge to view this.", "badges": [], "created_at": "2025-07-06T04:40:14.543-04:00", "updated_at": "2025-07-06T08:15:47.810-04:00", "avatar": "https://secure.gravatar.com/avatar/a9ebd1932bca709b11a99a9dfe223cd8.jpg?s=512&d=https%3A%2F%2Fa.slack-edge.com%2Fdf10d%2Fimg%2Favatars%2Fava_0012-512.png", "custom_css": null}, {"id": 14861, "slack_id": "U094X0Z18NM", "display_name": "Vallabha", "bio": null, "projects_count": 0, "devlogs_count": 0, "votes_count": 0, "ships_count": 0, "projects": [], "coding_time_seconds": 0, "coding_time_seconds_today": 0, "balance": "You need to have a pocket watcher badge to view this.", "badges": [], "created_at": "2025-07-06T05:06:16.462-04:00", "updated_at": "2025-07-06T08:15:47.890-04:00", "avatar": "https://secure.gravatar.com/avatar/5e1babc5c355ef2224d10985f45ef88e.jpg?s=512&d=https%3A%2F%2Fa.slack-edge.com%2Fdf10d%2Fimg%2Favatars%2Fava_0001-512.png", "custom_css": null}, {"id": 14862, "slack_id": "U094BFE620K", "display_name": "Habiba Mohammed", "bio": null, "projects_count": 3, "devlogs_count": 7, "votes_count": 22, "ships_count": 2, "projects": [{"id": 6142, "title": "AI Thread/Channel Summarizer", "devlogs_count": 1, "created_at": "2025-07-10T20:41:18.448-04:00"}, {"id": 11673, "title": "SkyTime - Countdown timer for your cozy events", "devlogs_count": 5, "created_at": "2025-08-18T10:17:41.152-04:00"}, {"id": 7734, "title": "Text To image bot", "devlogs_count": 1, "created_at": "2025-07-22T18:35:59.064-04:00"}], "coding_time_seconds": 59520, "coding_time_seconds_today": 0, "balance": "You need to have a pocket watcher badge to view this.", "badges": [{"name": "Maiden Voyage", "text": "you shipped your first project! the journey begins...", "icon": "\ud83d\udea2"}], "created_at": "2025-07-06T05:25:09.994-04:00", "updated_at": "2025-09-20T20:38:09.785-04:00", "avatar": "https://avatars.slack-edge.com/2025-07-13/9174568428151_91dafb3f4c085091e07a_original.jpg", "custom_css": null}, {"id": 14863, "slack_id": "U08EPTAGRS4", "display_name": "Joshua Clements", "bio": null, "projects_count": 0, "devlogs_count": 0, "votes_count": 0, "ships_count": 0, "projects": [], "coding_time_seconds": 716, "coding_time_seconds_today": 0, "balance": "You need to have a pocket watcher badge to view this.", "badges": [], "created_at": "2025-07-06T05:27:48.590-04:00", "updated_at": "2025-07-06T05:38:34.238-04:00", "avatar": "https://secure.gravatar.com/avatar/d6652ae54ba6acc8f79892b8870a2989.jpg?s=512&d=https%3A%2F%2Fa.slack-edge.com%2Fdf10d%2Fimg%2Favatars%2Fava_0026-512.png", "custom_css": null}, {"id": 14864, "slack_id": "U09562A1UDN", "display_name": "Amritansh Mishra", "bio": null, "projects_count": 0, "devlogs_count": 0, "votes_count": 0, "ships_count": 0, "projects": [], "coding_time_seconds": 0, "coding_time_seconds_today": 0, "balance": "You need to have a pocket watcher badge to view this.", "badges": [], "created_at": "2025-07-06T05:27:49.365-04:00", "updated_at": "2025-07-06T14:16:04.903-04:00", "avatar": "https://avatars.slack-edge.com/2025-07-06/9153740703298_35546e51c8ad07276590_original.jpg", "custom_css": null}, {"id": 14865, "slack_id": "U09562AHL00", "display_name": "Jessie", "bio": null, "projects_count": 0, "devlogs_count": 34, "votes_count": 53, "ships_count": 0, "projects": [], "coding_time_seconds": 1163408, "coding_time_seconds_today": 0, "balance": "You need to have a pocket watcher badge to view this.", "badges": [{"name": "Maiden Voyage", "text": "you shipped your first project! the journey begins...", "icon": "\ud83d\udea2"}], "created_at": "2025-07-06T05:28:36.699-04:00", "updated_at": "2025-09-10T22:58:31.078-04:00", "avatar": "https://secure.gravatar.com/avatar/0c624844181a1b94a8e68efe47c8d75b.jpg?s=512&d=https%3A%2F%2Fa.slack-edge.com%2Fdf10d%2Fimg%2Favatars%2Fava_0004-512.png", "custom_css": null}], "pagination": {"page": 739, "pages": 1192, "count": 23828, "items": 20}}