{"users": [{"id": 1461, "slack_id": "U092C1VG2GY", "display_name": "Sari shaoi", "bio": null, "projects_count": 0, "devlogs_count": 0, "votes_count": 0, "ships_count": 0, "projects": [], "coding_time_seconds": 0, "coding_time_seconds_today": 0, "balance": "You need to have a pocket watcher badge to view this.", "badges": [], "created_at": "2025-06-16T13:19:11.004-04:00", "updated_at": "2025-07-03T19:17:44.787-04:00", "avatar": "https://avatars.slack-edge.com/2025-06-16/9070171119937_13c6391c21cdcb6f784a_original.png", "custom_css": null}, {"id": 1462, "slack_id": "U09224H07Q9", "display_name": "Saksham Soni", "bio": null, "projects_count": 0, "devlogs_count": 0, "votes_count": 0, "ships_count": 0, "projects": [], "coding_time_seconds": 93845, "coding_time_seconds_today": 0, "balance": "You need to have a pocket watcher badge to view this.", "badges": [], "created_at": "2025-06-16T13:19:12.442-04:00", "updated_at": "2025-07-03T19:17:45.055-04:00", "avatar": "https://secure.gravatar.com/avatar/be935a71614adb782cb30ec2785a89f9.jpg?s=512&d=https%3A%2F%2Fa.slack-edge.com%2Fdf10d%2Fimg%2Favatars%2Fava_0022-512.png", "custom_css": null}, {"id": 1463, "slack_id": "U09188R5W4F", "display_name": "bhaumik", "bio": null, "projects_count": 0, "devlogs_count": 0, "votes_count": 0, "ships_count": 0, "projects": [], "coding_time_seconds": 0, "coding_time_seconds_today": 0, "balance": "You need to have a pocket watcher badge to view this.", "badges": [], "created_at": "2025-06-16T13:19:16.179-04:00", "updated_at": "2025-07-03T19:17:45.315-04:00", "avatar": "https://secure.gravatar.com/avatar/820fdc7ca913f1fd7609d15cb2ca4937.jpg?s=512&d=https%3A%2F%2Fa.slack-edge.com%2Fdf10d%2Fimg%2Favatars%2Fava_0000-512.png", "custom_css": null}, {"id": 1464, "slack_id": "U09224R2XT3", "display_name": "Viktor Konkov", "bio": null, "projects_count": 1, "devlogs_count": 2, "votes_count": 0, "ships_count": 1, "projects": [{"id": 963, "title": "NetSour", "devlogs_count": 2, "created_at": "2025-06-17T12:27:44.101-04:00"}], "coding_time_seconds": 77455, "coding_time_seconds_today": 0, "balance": "You need to have a pocket watcher badge to view this.", "badges": [{"name": "Maiden Voyage", "text": "you shipped your first project! the journey begins...", "icon": "\ud83d\udea2"}], "created_at": "2025-06-16T13:19:35.601-04:00", "updated_at": "2025-09-10T22:51:52.856-04:00", "avatar": "https://secure.gravatar.com/avatar/72fb309f8e4d9970f6d7b473d0b3af70.jpg?s=512&d=https%3A%2F%2Fa.slack-edge.com%2Fdf10d%2Fimg%2Favatars%2Fava_0021-512.png", "custom_css": null}, {"id": 1465, "slack_id": "U09188XHGQP", "display_name": "Steve", "bio": null, "projects_count": 0, "devlogs_count": 0, "votes_count": 0, "ships_count": 0, "projects": [], "coding_time_seconds": 0, "coding_time_seconds_today": 0, "balance": "You need to have a pocket watcher badge to view this.", "badges": [], "created_at": "2025-06-16T13:19:36.036-04:00", "updated_at": "2025-07-14T10:04:41.665-04:00", "avatar": "https://secure.gravatar.com/avatar/96099f6f0ae93ef4d46b7f9e36d91fde.jpg?s=512&d=https%3A%2F%2Fa.slack-edge.com%2Fdf10d%2Fimg%2Favatars%2Fava_0002-512.png", "custom_css": null}, {"id": 1466, "slack_id": "U0917V1RJKZ", "display_name": "Konstantin Weber", "bio": null, "projects_count": 1, "devlogs_count": 0, "votes_count": 0, "ships_count": 0, "projects": [{"id": 1270, "title": "ytsync", "devlogs_count": 0, "created_at": "2025-06-18T03:43:22.720-04:00"}], "coding_time_seconds": 186379, "coding_time_seconds_today": 0, "balance": "You need to have a pocket watcher badge to view this.", "badges": [], "created_at": "2025-06-16T13:19:36.647-04:00", "updated_at": "2025-07-03T19:17:46.117-04:00", "avatar": "https://secure.gravatar.com/avatar/a3257253b45ca2ea6314ed8379d4b46c.jpg?s=512&d=https%3A%2F%2Fa.slack-edge.com%2Fdf10d%2Fimg%2Favatars%2Fava_0008-512.png", "custom_css": null}, {"id": 1467, "slack_id": "U091MQCRCCD", "display_name": "Eric", "bio": null, "projects_count": 0, "devlogs_count": 0, "votes_count": 0, "ships_count": 0, "projects": [], "coding_time_seconds": 0, "coding_time_seconds_today": 0, "balance": "You need to have a pocket watcher badge to view this.", "badges": [], "created_at": "2025-06-16T13:19:47.340-04:00", "updated_at": "2025-07-03T19:17:46.382-04:00", "avatar": "https://secure.gravatar.com/avatar/924019c7227655e5d680bdee5305f1c9.jpg?s=512&d=https%3A%2F%2Fa.slack-edge.com%2Fdf10d%2Fimg%2Favatars%2Fava_0014-512.png", "custom_css": null}, {"id": 1468, "slack_id": "U091PGDUZ50", "display_name": "Mathis Demonet", "bio": null, "projects_count": 2, "devlogs_count": 3, "votes_count": 10, "ships_count": 1, "projects": [{"id": 3400, "title": "Automatic call with Apium", "devlogs_count": 2, "created_at": "2025-06-24T04:44:39.775-04:00"}, {"id": 4073, "title": "Tutoriel FR Pytest Appium and Plywright", "devlogs_count": 1, "created_at": "2025-06-27T09:31:50.162-04:00"}], "coding_time_seconds": 31863, "coding_time_seconds_today": 0, "balance": "You need to have a pocket watcher badge to view this.", "badges": [{"name": "Maiden Voyage", "text": "you shipped your first project! the journey begins...", "icon": "\ud83d\udea2"}], "created_at": "2025-06-16T13:20:03.086-04:00", "updated_at": "2025-09-10T22:51:52.968-04:00", "avatar": "https://secure.gravatar.com/avatar/8b57fb2eecd8a8258a26f0eb76566f2e.jpg?s=512&d=https%3A%2F%2Fa.slack-edge.com%2Fdf10d%2Fimg%2Favatars%2Fava_0021-512.png", "custom_css": null}, {"id": 1469, "slack_id": "U091MPYRZJ9", "display_name": "Gaurav", "bio": null, "projects_count": 0, "devlogs_count": 0, "votes_count": 0, "ships_count": 0, "projects": [], "coding_time_seconds": 0, "coding_time_seconds_today": 0, "balance": "You need to have a pocket watcher badge to view this.", "badges": [], "created_at": "2025-06-16T13:20:03.643-04:00", "updated_at": "2025-08-13T04:32:22.215-04:00", "avatar": "https://secure.gravatar.com/avatar/b0748040174b9b7d0b09fe544fa7280f.jpg?s=512&d=https%3A%2F%2Fa.slack-edge.com%2Fdf10d%2Fimg%2Favatars%2Fava_0019-512.png", "custom_css": null}, {"id": 1470, "slack_id": "U092C0LKL48", "display_name": "maryam Kurbanova", "bio": null, "projects_count": 0, "devlogs_count": 0, "votes_count": 0, "ships_count": 0, "projects": [], "coding_time_seconds": 5442, "coding_time_seconds_today": 0, "balance": "You need to have a pocket watcher badge to view this.", "badges": [], "created_at": "2025-06-16T13:20:05.001-04:00", "updated_at": "2025-07-03T19:17:47.195-04:00", "avatar": "https://avatars.slack-edge.com/2025-06-16/9050670835187_ec98b815fefd7afe6d51_original.png", "custom_css": null}, {"id": 1471, "slack_id": "U092C2EGGM6", "display_name": "Suki pro", "bio": null, "projects_count": 1, "devlogs_count": 0, "votes_count": 0, "ships_count": 0, "projects": [{"id": 6772, "title": "shell ai ", "devlogs_count": 0, "created_at": "2025-07-16T01:09:49.689-04:00"}], "coding_time_seconds": 126139, "coding_time_seconds_today": 6409, "balance": "You need to have a pocket watcher badge to view this.", "badges": [], "created_at": "2025-06-16T13:20:07.370-04:00", "updated_at": "2025-07-16T01:10:17.501-04:00", "avatar": "https://secure.gravatar.com/avatar/fe922ad2e987987fdd7d2df9c2eaa1e2.jpg?s=512&d=https%3A%2F%2Fa.slack-edge.com%2Fdf10d%2Fimg%2Favatars%2Fava_0011-512.png", "custom_css": null}, {"id": 1472, "slack_id": "U092C24R2GG", "display_name": "Uday Kumar", "bio": null, "projects_count": 0, "devlogs_count": 0, "votes_count": 0, "ships_count": 0, "projects": [], "coding_time_seconds": 0, "coding_time_seconds_today": 0, "balance": "You need to have a pocket watcher badge to view this.", "badges": [], "created_at": "2025-06-16T13:20:25.607-04:00", "updated_at": "2025-07-03T19:17:47.724-04:00", "avatar": "https://secure.gravatar.com/avatar/621900737bcf945d4518fa6ac4cf6fbe.jpg?s=512&d=https%3A%2F%2Fa.slack-edge.com%2Fdf10d%2Fimg%2Favatars%2Fava_0008-512.png", "custom_css": null}, {"id": 1473, "slack_id": "U091PJ3NE3U", "display_name": "Alfonso", "bio": null, "projects_count": 0, "devlogs_count": 0, "votes_count": 0, "ships_count": 0, "projects": [], "coding_time_seconds": 0, "coding_time_seconds_today": 0, "balance": "You need to have a pocket watcher badge to view this.", "badges": [], "created_at": "2025-06-16T13:20:35.031-04:00", "updated_at": "2025-07-03T19:17:47.992-04:00", "avatar": "https://secure.gravatar.com/avatar/b435a80cd64d608071ee21a7765cb1de.jpg?s=512&d=https%3A%2F%2Fa.slack-edge.com%2Fdf10d%2Fimg%2Favatars%2Fava_0001-512.png", "custom_css": null}, {"id": 1474, "slack_id": "U092C24MK88", "display_name": "mubarak", "bio": null, "projects_count": 0, "devlogs_count": 0, "votes_count": 0, "ships_count": 0, "projects": [], "coding_time_seconds": 0, "coding_time_seconds_today": 0, "balance": "You need to have a pocket watcher badge to view this.", "badges": [], "created_at": "2025-06-16T13:20:36.984-04:00", "updated_at": "2025-07-03T19:17:48.269-04:00", "avatar": "https://secure.gravatar.com/avatar/ace965b4d3e24551b91a16dcb18e63f0.jpg?s=512&d=https%3A%2F%2Fa.slack-edge.com%2Fdf10d%2Fimg%2Favatars%2Fava_0014-512.png", "custom_css": null}, {"id": 1475, "slack_id": "U07ULQZQQ58", "display_name": "Muhammad Rohan Ghalib", "bio": null, "projects_count": 0, "devlogs_count": 0, "votes_count": 0, "ships_count": 0, "projects": [], "coding_time_seconds": 48586, "coding_time_seconds_today": 0, "balance": "You need to have a pocket watcher badge to view this.", "badges": [], "created_at": "2025-06-16T13:20:39.129-04:00", "updated_at": "2025-07-07T14:03:08.054-04:00", "avatar": "https://avatars.slack-edge.com/2025-07-07/9158980379250_30a64e47122b1ff84336_original.jpg", "custom_css": null}, {"id": 1476, "slack_id": "U091MQQ6VCM", "display_name": "Donovan Adcox", "bio": null, "projects_count": 0, "devlogs_count": 0, "votes_count": 0, "ships_count": 0, "projects": [], "coding_time_seconds": 0, "coding_time_seconds_today": 0, "balance": "You need to have a pocket watcher badge to view this.", "badges": [], "created_at": "2025-06-16T13:20:43.545-04:00", "updated_at": "2025-07-03T19:17:48.822-04:00", "avatar": "https://secure.gravatar.com/avatar/34490bed5643ae0ec7aec67b5d573382.jpg?s=512&d=https%3A%2F%2Fa.slack-edge.com%2Fdf10d%2Fimg%2Favatars%2Fava_0014-512.png", "custom_css": null}, {"id": 1477, "slack_id": "U091PJ57LQ2", "display_name": "Md Tanvir Hasan", "bio": null, "projects_count": 0, "devlogs_count": 0, "votes_count": 0, "ships_count": 0, "projects": [], "coding_time_seconds": 0, "coding_time_seconds_today": 0, "balance": "You need to have a pocket watcher badge to view this.", "badges": [], "created_at": "2025-06-16T13:20:45.771-04:00", "updated_at": "2025-07-03T19:17:49.098-04:00", "avatar": "https://secure.gravatar.com/avatar/1a6c0084362aab5d558f621ee4bdffa4.jpg?s=512&d=https%3A%2F%2Fa.slack-edge.com%2Fdf10d%2Fimg%2Favatars%2Fava_0023-512.png", "custom_css": null}, {"id": 1478, "slack_id": "U091GNBCJ86", "display_name": "Danee", "bio": "17yo web developer", "projects_count": 6, "devlogs_count": 14, "votes_count": 59, "ships_count": 4, "projects": [{"id": 7160, "title": "Beepo", "devlogs_count": 5, "created_at": "2025-07-19T15:16:34.532-04:00"}, {"id": 8884, "title": "Foocus SillyTavern connector", "devlogs_count": 0, "created_at": "2025-07-29T15:00:04.676-04:00"}, {"id": 8887, "title": "Fictive web article website", "devlogs_count": 2, "created_at": "2025-07-29T15:05:58.433-04:00"}, {"id": 9239, "title": "better-giveaways npm package", "devlogs_count": 5, "created_at": "2025-07-31T06:17:59.160-04:00"}, {"id": 4360, "title": "DevPage", "devlogs_count": 0, "created_at": "2025-06-29T10:32:41.365-04:00"}, {"id": 4364, "title": "Domainer", "devlogs_count": 2, "created_at": "2025-06-29T10:49:16.972-04:00"}], "coding_time_seconds": 161401, "coding_time_seconds_today": 0, "balance": "You need to have a pocket watcher badge to view this.", "badges": [{"name": "Maiden Voyage", "text": "you shipped your first project! the journey begins...", "icon": "\ud83d\udea2"}], "created_at": "2025-06-16T13:20:47.780-04:00", "updated_at": "2025-09-10T22:51:53.336-04:00", "avatar": "https://secure.gravatar.com/avatar/495d945cd5d29b99df2733103af044d1.jpg?s=512&d=https%3A%2F%2Fa.slack-edge.com%2Fdf10d%2Fimg%2Favatars%2Fava_0002-512.png", "custom_css": null}, {"id": 1479, "slack_id": "U091MQSE1GD", "display_name": "Alseny Cisse", "bio": null, "projects_count": 0, "devlogs_count": 0, "votes_count": 0, "ships_count": 0, "projects": [], "coding_time_seconds": 0, "coding_time_seconds_today": 0, "balance": "You need to have a pocket watcher badge to view this.", "badges": [], "created_at": "2025-06-16T13:21:08.490-04:00", "updated_at": "2025-07-03T19:17:49.647-04:00", "avatar": "https://avatars.slack-edge.com/2025-06-16/9042327284103_286a26d40f141a75c8ce_original.png", "custom_css": null}, {"id": 1480, "slack_id": "U091GJYDD0T", "display_name": "sai", "bio": null, "projects_count": 0, "devlogs_count": 0, "votes_count": 0, "ships_count": 0, "projects": [], "coding_time_seconds": 0, "coding_time_seconds_today": 0, "balance": "You need to have a pocket watcher badge to view this.", "badges": [], "created_at": "2025-06-16T13:21:12.615-04:00", "updated_at": "2025-07-03T19:17:49.919-04:00", "avatar": "https://secure.gravatar.com/avatar/d7d4ccdaa54a2630ac07d2c41ba84d4e.jpg?s=512&d=https%3A%2F%2Fa.slack-edge.com%2Fdf10d%2Fimg%2Favatars%2Fava_0023-512.png", "custom_css": null}], "pagination": {"page": 74, "pages": 1192, "count": 23827, "items": 20}}