{"users": [{"id": 14866, "slack_id": "U094BFSACLT", "display_name": "Abideen Sanyaolu", "bio": null, "projects_count": 0, "devlogs_count": 0, "votes_count": 0, "ships_count": 0, "projects": [], "coding_time_seconds": 1341, "coding_time_seconds_today": 0, "balance": "You need to have a pocket watcher badge to view this.", "badges": [], "created_at": "2025-07-06T05:34:20.040-04:00", "updated_at": "2025-07-07T08:16:08.726-04:00", "avatar": "https://secure.gravatar.com/avatar/c4244c46bc657b6a5cc715f15d2df96c.jpg?s=512&d=https%3A%2F%2Fa.slack-edge.com%2Fdf10d%2Fimg%2Favatars%2Fava_0006-512.png", "custom_css": null}, {"id": 14867, "slack_id": "U09562HHXCY", "display_name": "Marijus", "bio": null, "projects_count": 0, "devlogs_count": 0, "votes_count": 0, "ships_count": 0, "projects": [], "coding_time_seconds": 0, "coding_time_seconds_today": 0, "balance": "You need to have a pocket watcher badge to view this.", "badges": [], "created_at": "2025-07-06T05:34:38.270-04:00", "updated_at": "2025-07-06T20:16:34.075-04:00", "avatar": "https://secure.gravatar.com/avatar/64d6ca7f5b7bbdcc76003065568f1a24.jpg?s=512&d=https%3A%2F%2Fa.slack-edge.com%2Fdf10d%2Fimg%2Favatars%2Fava_0023-512.png", "custom_css": null}, {"id": 14868, "slack_id": "U094GF4EQJ1", "display_name": "L\u01b0u Xu\u00e2n T\u00e2n", "bio": null, "projects_count": 0, "devlogs_count": 0, "votes_count": 0, "ships_count": 0, "projects": [], "coding_time_seconds": 0, "coding_time_seconds_today": 0, "balance": "You need to have a pocket watcher badge to view this.", "badges": [], "created_at": "2025-07-06T05:55:55.717-04:00", "updated_at": "2025-07-06T20:16:34.141-04:00", "avatar": "https://secure.gravatar.com/avatar/bdcb6d8436fd4266610f677ddfe0a742.jpg?s=512&d=https%3A%2F%2Fa.slack-edge.com%2Fdf10d%2Fimg%2Favatars%2Fava_0006-512.png", "custom_css": null}, {"id": 14869, "slack_id": "U094X3GUF8R", "display_name": "Jikeha Axcradio", "bio": null, "projects_count": 0, "devlogs_count": 0, "votes_count": 0, "ships_count": 0, "projects": [], "coding_time_seconds": 0, "coding_time_seconds_today": 0, "balance": "You need to have a pocket watcher badge to view this.", "badges": [], "created_at": "2025-07-06T06:08:21.932-04:00", "updated_at": "2025-07-06T08:15:48.396-04:00", "avatar": "https://secure.gravatar.com/avatar/25b47e6ef30aa6dbec2ae7dbb6a2e62c.jpg?s=512&d=https%3A%2F%2Fa.slack-edge.com%2Fdf10d%2Fimg%2Favatars%2Fava_0022-512.png", "custom_css": null}, {"id": 14870, "slack_id": "U094GG5A693", "display_name": "yusuf", "bio": null, "projects_count": 0, "devlogs_count": 0, "votes_count": 0, "ships_count": 0, "projects": [], "coding_time_seconds": 0, "coding_time_seconds_today": 0, "balance": "You need to have a pocket watcher badge to view this.", "badges": [], "created_at": "2025-07-06T06:22:00.540-04:00", "updated_at": "2025-07-06T14:16:05.309-04:00", "avatar": "https://secure.gravatar.com/avatar/c6ccac31e5ad24b1a5297e8bf8e1e2c5.jpg?s=512&d=https%3A%2F%2Fa.slack-edge.com%2Fdf10d%2Fimg%2Favatars%2Fava_0007-512.png", "custom_css": null}, {"id": 14871, "slack_id": "U08PEQ6VD61", "display_name": "Hardik Singh", "bio": null, "projects_count": 0, "devlogs_count": 0, "votes_count": 0, "ships_count": 0, "projects": [], "coding_time_seconds": 28, "coding_time_seconds_today": 0, "balance": "You need to have a pocket watcher badge to view this.", "badges": [], "created_at": "2025-07-06T06:40:49.424-04:00", "updated_at": "2025-07-07T08:16:09.056-04:00", "avatar": "https://secure.gravatar.com/avatar/45ac1457de27f415219df0d62cea4592.jpg?s=512&d=https%3A%2F%2Fa.slack-edge.com%2Fdf10d%2Fimg%2Favatars%2Fava_0016-512.png", "custom_css": null}, {"id": 14872, "slack_id": "U094HQFADQS", "display_name": "Ayyash Fous", "bio": null, "projects_count": 0, "devlogs_count": 0, "votes_count": 0, "ships_count": 0, "projects": [], "coding_time_seconds": 122, "coding_time_seconds_today": 0, "balance": "You need to have a pocket watcher badge to view this.", "badges": [], "created_at": "2025-07-06T06:45:04.446-04:00", "updated_at": "2025-07-06T14:16:05.445-04:00", "avatar": "https://avatars.slack-edge.com/2025-07-06/9149887036518_867b1226e014eb1dd9ff_original.png", "custom_css": null}, {"id": 14873, "slack_id": "U094BLB65KM", "display_name": "Resa Suhendra", "bio": null, "projects_count": 0, "devlogs_count": 0, "votes_count": 0, "ships_count": 0, "projects": [], "coding_time_seconds": 0, "coding_time_seconds_today": 0, "balance": "You need to have a pocket watcher badge to view this.", "badges": [], "created_at": "2025-07-06T07:08:53.959-04:00", "updated_at": "2025-07-06T20:16:34.473-04:00", "avatar": "https://secure.gravatar.com/avatar/20c189688c15fac8449182a594f01588.jpg?s=512&d=https%3A%2F%2Fa.slack-edge.com%2Fdf10d%2Fimg%2Favatars%2Fava_0012-512.png", "custom_css": null}, {"id": 14874, "slack_id": "U094L1KJH1S", "display_name": "Sahil", "bio": null, "projects_count": 0, "devlogs_count": 0, "votes_count": 0, "ships_count": 0, "projects": [], "coding_time_seconds": 0, "coding_time_seconds_today": 0, "balance": "You need to have a pocket watcher badge to view this.", "badges": [], "created_at": "2025-07-06T07:20:01.966-04:00", "updated_at": "2025-07-06T08:15:48.692-04:00", "avatar": "https://avatars.slack-edge.com/2025-07-06/9152629412469_ebe886a5fa4ee894882a_original.png", "custom_css": null}, {"id": 14875, "slack_id": "U07UVNBS90D", "display_name": "Dominik", "bio": null, "projects_count": 1, "devlogs_count": 0, "votes_count": 0, "ships_count": 0, "projects": [{"id": 5562, "title": "NovaCookie", "devlogs_count": 0, "created_at": "2025-07-06T07:48:13.523-04:00"}], "coding_time_seconds": 19918, "coding_time_seconds_today": 0, "balance": "You need to have a pocket watcher badge to view this.", "badges": [], "created_at": "2025-07-06T07:36:24.526-04:00", "updated_at": "2025-07-06T07:44:12.349-04:00", "avatar": "https://secure.gravatar.com/avatar/3c80e1c5b3b4e70eba09c3684eeb2428.jpg?s=512&d=https%3A%2F%2Fa.slack-edge.com%2Fdf10d%2Fimg%2Favatars%2Fava_0015-512.png", "custom_css": null}, {"id": 14876, "slack_id": "U094GKACGMT", "display_name": "Freya", "bio": null, "projects_count": 0, "devlogs_count": 0, "votes_count": 0, "ships_count": 0, "projects": [], "coding_time_seconds": 0, "coding_time_seconds_today": 0, "balance": "You need to have a pocket watcher badge to view this.", "badges": [], "created_at": "2025-07-06T07:48:44.994-04:00", "updated_at": "2025-07-08T03:17:33.093-04:00", "avatar": "https://secure.gravatar.com/avatar/2072fd96d8e469dd9f812f02462f678e.jpg?s=512&d=https%3A%2F%2Fa.slack-edge.com%2Fdf10d%2Fimg%2Favatars%2Fava_0004-512.png", "custom_css": null}, {"id": 14877, "slack_id": "U09567J2RQ8", "display_name": "Zain Nadeem", "bio": null, "projects_count": 0, "devlogs_count": 0, "votes_count": 0, "ships_count": 0, "projects": [], "coding_time_seconds": 0, "coding_time_seconds_today": 0, "balance": "You need to have a pocket watcher badge to view this.", "badges": [], "created_at": "2025-07-06T07:57:30.513-04:00", "updated_at": "2025-07-06T20:16:34.770-04:00", "avatar": "https://secure.gravatar.com/avatar/1d2e6576c3ef854d0276686aba170461.jpg?s=512&d=https%3A%2F%2Fa.slack-edge.com%2Fdf10d%2Fimg%2Favatars%2Fava_0026-512.png", "custom_css": null}, {"id": 14878, "slack_id": "U094HU91K3L", "display_name": "shoNz", "bio": null, "projects_count": 0, "devlogs_count": 0, "votes_count": 0, "ships_count": 0, "projects": [], "coding_time_seconds": 0, "coding_time_seconds_today": 0, "balance": "You need to have a pocket watcher badge to view this.", "badges": [], "created_at": "2025-07-06T08:20:55.627-04:00", "updated_at": "2025-07-06T20:16:34.847-04:00", "avatar": "https://secure.gravatar.com/avatar/e8b89251cbac2e5395e50405ab228e2e.jpg?s=512&d=https%3A%2F%2Fa.slack-edge.com%2Fdf10d%2Fimg%2Favatars%2Fava_0013-512.png", "custom_css": null}, {"id": 14879, "slack_id": "U094GMTTNTX", "display_name": "gue doc", "bio": null, "projects_count": 0, "devlogs_count": 0, "votes_count": 2, "ships_count": 0, "projects": [], "coding_time_seconds": 676995, "coding_time_seconds_today": 0, "balance": "You need to have a pocket watcher badge to view this.", "badges": [], "created_at": "2025-07-06T08:50:53.698-04:00", "updated_at": "2025-09-01T23:45:31.726-04:00", "avatar": "https://avatars.slack-edge.com/2025-07-06/9154009136834_13f3e8ded8a1b800fe92_original.png", "custom_css": null}, {"id": 14880, "slack_id": "U094L5BTY5S", "display_name": "H2kked", "bio": null, "projects_count": 0, "devlogs_count": 0, "votes_count": 0, "ships_count": 0, "projects": [], "coding_time_seconds": 0, "coding_time_seconds_today": 0, "balance": "You need to have a pocket watcher badge to view this.", "badges": [], "created_at": "2025-07-06T08:52:37.488-04:00", "updated_at": "2025-07-08T03:17:33.404-04:00", "avatar": "https://secure.gravatar.com/avatar/4c0b861675560423038ee36eea2fa5bc.jpg?s=512&d=https%3A%2F%2Fa.slack-edge.com%2Fdf10d%2Fimg%2Favatars%2Fava_0012-512.png", "custom_css": null}, {"id": 14881, "slack_id": "U094GN8D4NR", "display_name": "Lavrentyev Artem", "bio": null, "projects_count": 0, "devlogs_count": 0, "votes_count": 0, "ships_count": 0, "projects": [], "coding_time_seconds": 0, "coding_time_seconds_today": 0, "balance": "You need to have a pocket watcher badge to view this.", "badges": [], "created_at": "2025-07-06T08:59:45.558-04:00", "updated_at": "2025-07-08T03:17:33.474-04:00", "avatar": "https://secure.gravatar.com/avatar/b970cafbc977415c55bac887df69d248.jpg?s=512&d=https%3A%2F%2Fa.slack-edge.com%2Fdf10d%2Fimg%2Favatars%2Fava_0004-512.png", "custom_css": null}, {"id": 14882, "slack_id": "U0945DD60NT", "display_name": "Mosin", "bio": null, "projects_count": 0, "devlogs_count": 0, "votes_count": 0, "ships_count": 0, "projects": [], "coding_time_seconds": 0, "coding_time_seconds_today": 0, "balance": "You need to have a pocket watcher badge to view this.", "badges": [], "created_at": "2025-07-06T09:03:08.520-04:00", "updated_at": "2025-07-08T03:17:33.549-04:00", "avatar": "https://secure.gravatar.com/avatar/dfaf647010dc287328a561769afa8c16.jpg?s=512&d=https%3A%2F%2Fa.slack-edge.com%2Fdf10d%2Fimg%2Favatars%2Fava_0007-512.png", "custom_css": null}, {"id": 14883, "slack_id": "U0956AHPXFS", "display_name": "Sathwik Giddi", "bio": null, "projects_count": 0, "devlogs_count": 0, "votes_count": 0, "ships_count": 0, "projects": [], "coding_time_seconds": 47761, "coding_time_seconds_today": 0, "balance": "You need to have a pocket watcher badge to view this.", "badges": [], "created_at": "2025-07-06T09:06:05.752-04:00", "updated_at": "2025-07-07T12:07:42.175-04:00", "avatar": "https://secure.gravatar.com/avatar/97c746305bf341bfea0742cb63406675.jpg?s=512&d=https%3A%2F%2Fa.slack-edge.com%2Fdf10d%2Fimg%2Favatars%2Fava_0026-512.png", "custom_css": null}, {"id": 14884, "slack_id": "U094BS5M3T5", "display_name": "Addy99", "bio": null, "projects_count": 0, "devlogs_count": 0, "votes_count": 0, "ships_count": 0, "projects": [], "coding_time_seconds": 0, "coding_time_seconds_today": 0, "balance": "You need to have a pocket watcher badge to view this.", "badges": [], "created_at": "2025-07-06T09:08:49.106-04:00", "updated_at": "2025-07-06T14:16:06.194-04:00", "avatar": "https://secure.gravatar.com/avatar/c1f582a2af7f7e0b8dcdb4f1ae79a49a.jpg?s=512&d=https%3A%2F%2Fa.slack-edge.com%2Fdf10d%2Fimg%2Favatars%2Fava_0020-512.png", "custom_css": null}, {"id": 14885, "slack_id": "U0956AGU1NU", "display_name": "Anfaal Fatima", "bio": null, "projects_count": 0, "devlogs_count": 0, "votes_count": 0, "ships_count": 0, "projects": [], "coding_time_seconds": 0, "coding_time_seconds_today": 0, "balance": "You need to have a pocket watcher badge to view this.", "badges": [], "created_at": "2025-07-06T09:09:28.653-04:00", "updated_at": "2025-07-07T08:16:10.500-04:00", "avatar": "https://secure.gravatar.com/avatar/e1498c440b805dca94b3ca9246594873.jpg?s=512&d=https%3A%2F%2Fa.slack-edge.com%2Fdf10d%2Fimg%2Favatars%2Fava_0001-512.png", "custom_css": null}], "pagination": {"page": 740, "pages": 1192, "count": 23828, "items": 20}}