{"users": [{"id": 14906, "slack_id": "U094C9PBGTD", "display_name": "Freya Moran", "bio": null, "projects_count": 0, "devlogs_count": 0, "votes_count": 2, "ships_count": 0, "projects": [], "coding_time_seconds": 4951, "coding_time_seconds_today": 0, "balance": "You need to have a pocket watcher badge to view this.", "badges": [], "created_at": "2025-07-06T13:27:12.478-04:00", "updated_at": "2025-07-06T20:16:36.715-04:00", "avatar": "https://secure.gravatar.com/avatar/d7a8980f0031ade07bc1f89f099a4248.jpg?s=512&d=https%3A%2F%2Fa.slack-edge.com%2Fdf10d%2Fimg%2Favatars%2Fava_0025-512.png", "custom_css": null}, {"id": 14907, "slack_id": "U094G6YJWA1", "display_name": "Hardik Bandhiya", "bio": null, "projects_count": 0, "devlogs_count": 0, "votes_count": 0, "ships_count": 0, "projects": [], "coding_time_seconds": 0, "coding_time_seconds_today": 0, "balance": "You need to have a pocket watcher badge to view this.", "badges": [], "created_at": "2025-07-06T13:30:49.871-04:00", "updated_at": "2025-07-07T08:16:11.890-04:00", "avatar": "https://secure.gravatar.com/avatar/885fe8964cf3c1ef1387d8040042a313.jpg?s=512&d=https%3A%2F%2Fa.slack-edge.com%2Fdf10d%2Fimg%2Favatars%2Fava_0011-512.png", "custom_css": null}, {"id": 14908, "slack_id": "U094LGMS8F6", "display_name": "Yush", "bio": null, "projects_count": 0, "devlogs_count": 0, "votes_count": 0, "ships_count": 0, "projects": [], "coding_time_seconds": 0, "coding_time_seconds_today": 0, "balance": "You need to have a pocket watcher badge to view this.", "badges": [], "created_at": "2025-07-06T13:40:20.846-04:00", "updated_at": "2025-07-08T03:17:43.553-04:00", "avatar": "https://secure.gravatar.com/avatar/a0b7ae78d3aaf1e065098fde70506cc2.jpg?s=512&d=https%3A%2F%2Fa.slack-edge.com%2Fdf10d%2Fimg%2Favatars%2Fava_0004-512.png", "custom_css": null}, {"id": 14909, "slack_id": "U078GC9QS3Y", "display_name": "Yoshi", "bio": null, "projects_count": 0, "devlogs_count": 0, "votes_count": 0, "ships_count": 0, "projects": [], "coding_time_seconds": 0, "coding_time_seconds_today": 0, "balance": "You need to have a pocket watcher badge to view this.", "badges": [], "created_at": "2025-07-06T13:40:29.870-04:00", "updated_at": "2025-07-06T13:40:51.873-04:00", "avatar": "https://secure.gravatar.com/avatar/af997bb08fa03fe96776b1da414e903f.jpg?s=512&d=https%3A%2F%2Fa.slack-edge.com%2Fdf10d%2Fimg%2Favatars%2Fava_0004-512.png", "custom_css": null}, {"id": 14910, "slack_id": "U0956MJPKU0", "display_name": "Amna", "bio": null, "projects_count": 0, "devlogs_count": 0, "votes_count": 0, "ships_count": 0, "projects": [], "coding_time_seconds": 0, "coding_time_seconds_today": 0, "balance": "You need to have a pocket watcher badge to view this.", "badges": [], "created_at": "2025-07-06T13:43:33.531-04:00", "updated_at": "2025-07-06T14:16:07.825-04:00", "avatar": "https://secure.gravatar.com/avatar/2eb565ea6eb321766e0b04c2627f6c6a.jpg?s=512&d=https%3A%2F%2Fa.slack-edge.com%2Fdf10d%2Fimg%2Favatars%2Fava_0025-512.png", "custom_css": null}, {"id": 14911, "slack_id": "U094XPBRK33", "display_name": "Tarun Gangadharan Latha Parvathi", "bio": null, "projects_count": 0, "devlogs_count": 0, "votes_count": 0, "ships_count": 0, "projects": [], "coding_time_seconds": 0, "coding_time_seconds_today": 0, "balance": "You need to have a pocket watcher badge to view this.", "badges": [], "created_at": "2025-07-06T13:44:38.694-04:00", "updated_at": "2025-07-08T03:17:43.756-04:00", "avatar": "https://avatars.slack-edge.com/2025-07-06/9153172700885_6140d4c2f4d32f0a9877_original.jpg", "custom_css": null}, {"id": 14912, "slack_id": "U094LGSL9UL", "display_name": "shadow hacker", "bio": null, "projects_count": 0, "devlogs_count": 0, "votes_count": 0, "ships_count": 0, "projects": [], "coding_time_seconds": 0, "coding_time_seconds_today": 0, "balance": "You need to have a pocket watcher badge to view this.", "badges": [], "created_at": "2025-07-06T13:45:07.920-04:00", "updated_at": "2025-07-06T14:16:07.972-04:00", "avatar": "https://secure.gravatar.com/avatar/8eb6cc3731c37e64f6a8eca2f5a0d62d.jpg?s=512&d=https%3A%2F%2Fa.slack-edge.com%2Fdf10d%2Fimg%2Favatars%2Fava_0014-512.png", "custom_css": null}, {"id": 14913, "slack_id": "U094LGRSQRJ", "display_name": "Suleman Gazyani", "bio": "", "projects_count": 1, "devlogs_count": 1, "votes_count": 1, "ships_count": 1, "projects": [{"id": 13157, "title": "chess game", "devlogs_count": 1, "created_at": "2025-09-10T02:39:42.566-04:00"}], "coding_time_seconds": 600, "coding_time_seconds_today": 0, "balance": "You need to have a pocket watcher badge to view this.", "badges": [{"name": "Maiden Voyage", "text": "you shipped your first project! the journey begins...", "icon": "\ud83d\udea2"}], "created_at": "2025-07-06T13:51:38.046-04:00", "updated_at": "2025-09-10T22:58:32.441-04:00", "avatar": "https://avatars.slack-edge.com/2025-07-06/9154438059234_1d33f951554e3943ecfa_original.png", "custom_css": null}, {"id": 14914, "slack_id": "U094JCZC7AN", "display_name": "Manik Kapoor", "bio": null, "projects_count": 4, "devlogs_count": 10, "votes_count": 78, "ships_count": 3, "projects": [{"id": 12980, "title": "Warranty Manager", "devlogs_count": 0, "created_at": "2025-09-06T13:52:25.265-04:00"}, {"id": 13351, "title": "Countdown for Club Event", "devlogs_count": 1, "created_at": "2025-09-14T11:34:37.530-04:00"}, {"id": 6020, "title": "PDF tracker", "devlogs_count": 6, "created_at": "2025-07-10T02:38:29.950-04:00"}, {"id": 5609, "title": "UniLend", "devlogs_count": 3, "created_at": "2025-07-06T14:32:09.865-04:00"}], "coding_time_seconds": 251392, "coding_time_seconds_today": 1711, "balance": "You need to have a pocket watcher badge to view this.", "badges": [{"name": "Maiden Voyage", "text": "you shipped your first project! the journey begins...", "icon": "\ud83d\udea2"}], "created_at": "2025-07-06T14:01:29.179-04:00", "updated_at": "2025-09-10T22:58:32.490-04:00", "avatar": "https://avatars.slack-edge.com/2025-07-06/9167826759025_e16401158704526c24cf_original.jpg", "custom_css": null}, {"id": 14915, "slack_id": "U094JDVUNHG", "display_name": "Olivia", "bio": null, "projects_count": 0, "devlogs_count": 0, "votes_count": 0, "ships_count": 0, "projects": [], "coding_time_seconds": 0, "coding_time_seconds_today": 0, "balance": "You need to have a pocket watcher badge to view this.", "badges": [], "created_at": "2025-07-06T14:19:48.751-04:00", "updated_at": "2025-07-07T02:17:10.933-04:00", "avatar": "https://secure.gravatar.com/avatar/13c162ff8bcf453a8b6f38887579a470.jpg?s=512&d=https%3A%2F%2Fa.slack-edge.com%2Fdf10d%2Fimg%2Favatars%2Fava_0002-512.png", "custom_css": null}, {"id": 14916, "slack_id": "U094EE5EN30", "display_name": "This is a test", "bio": "https://summer.hackclub.com/magic-link?token=ae68ac85ff41015b8773bc23520967cc\r\n\r\nHello how are you? I stole this test account :) -felix", "projects_count": 0, "devlogs_count": 0, "votes_count": 0, "ships_count": 0, "projects": [], "coding_time_seconds": 0, "coding_time_seconds_today": 0, "balance": "You need to have a pocket watcher badge to view this.", "badges": [], "created_at": "2025-07-06T14:21:43.167-04:00", "updated_at": "2025-07-10T12:47:56.758-04:00", "avatar": "https://secure.gravatar.com/avatar/4858ea689ceeab9d64ceb0d79b9e3183.jpg?s=512&d=https%3A%2F%2Fa.slack-edge.com%2Fdf10d%2Fimg%2Favatars%2Fava_0006-512.png", "custom_css": null}, {"id": 14917, "slack_id": "U0945T6NDT9", "display_name": "shiyas", "bio": null, "projects_count": 0, "devlogs_count": 0, "votes_count": 0, "ships_count": 0, "projects": [], "coding_time_seconds": 0, "coding_time_seconds_today": 0, "balance": "You need to have a pocket watcher badge to view this.", "badges": [], "created_at": "2025-07-06T14:23:49.592-04:00", "updated_at": "2025-07-06T20:16:37.391-04:00", "avatar": "https://secure.gravatar.com/avatar/549f7c581b6e0c95e2e07ce4da897db6.jpg?s=512&d=https%3A%2F%2Fa.slack-edge.com%2Fdf10d%2Fimg%2Favatars%2Fava_0014-512.png", "custom_css": null}, {"id": 14918, "slack_id": "U07UL6CS69K", "display_name": "Harsha Mohan", "bio": null, "projects_count": 0, "devlogs_count": 0, "votes_count": 0, "ships_count": 0, "projects": [], "coding_time_seconds": 0, "coding_time_seconds_today": 0, "balance": "You need to have a pocket watcher badge to view this.", "badges": [], "created_at": "2025-07-06T14:33:23.692-04:00", "updated_at": "2025-07-08T03:17:44.253-04:00", "avatar": "https://secure.gravatar.com/avatar/c64531d3816adffc350b90635bad2150.jpg?s=512&d=https%3A%2F%2Fa.slack-edge.com%2Fdf10d%2Fimg%2Favatars%2Fava_0000-512.png", "custom_css": null}, {"id": 14919, "slack_id": "U094H7H9ZQD", "display_name": "Abrar Al Razee", "bio": null, "projects_count": 2, "devlogs_count": 2, "votes_count": 7, "ships_count": 2, "projects": [{"id": 11566, "title": "Line and Object Detection using machine learning ", "devlogs_count": 1, "created_at": "2025-08-17T05:39:53.476-04:00"}, {"id": 7676, "title": "Windows-11-animation clone", "devlogs_count": 1, "created_at": "2025-07-22T13:50:22.613-04:00"}], "coding_time_seconds": 80897, "coding_time_seconds_today": 0, "balance": "You need to have a pocket watcher badge to view this.", "badges": [{"name": "Maiden Voyage", "text": "you shipped your first project! the journey begins...", "icon": "\ud83d\udea2"}], "created_at": "2025-07-06T14:57:42.977-04:00", "updated_at": "2025-09-10T22:58:32.658-04:00", "avatar": "https://avatars.slack-edge.com/2025-07-20/9237789067121_1eaa44b9dad9b2b55153_original.jpg", "custom_css": null}, {"id": 14920, "slack_id": "U094LL4EJSG", "display_name": "AnonymousSomebody", "bio": null, "projects_count": 0, "devlogs_count": 0, "votes_count": 0, "ships_count": 0, "projects": [], "coding_time_seconds": 13934, "coding_time_seconds_today": 0, "balance": "You need to have a pocket watcher badge to view this.", "badges": [], "created_at": "2025-07-06T15:17:57.348-04:00", "updated_at": "2025-07-11T14:46:44.263-04:00", "avatar": "https://secure.gravatar.com/avatar/5eaccf8fb7ab809ec2309e9241af0bc1.jpg?s=512&d=https%3A%2F%2Fa.slack-edge.com%2Fdf10d%2Fimg%2Favatars%2Fava_0017-512.png", "custom_css": null}, {"id": 14921, "slack_id": "U05PK932X6W", "display_name": "Jakob", "bio": null, "projects_count": 0, "devlogs_count": 0, "votes_count": 0, "ships_count": 0, "projects": [], "coding_time_seconds": 0, "coding_time_seconds_today": 0, "balance": "You need to have a pocket watcher badge to view this.", "badges": [], "created_at": "2025-07-06T15:33:29.671-04:00", "updated_at": "2025-07-08T03:17:44.479-04:00", "avatar": "https://avatars.slack-edge.com/2024-07-19/7441964821702_37b2c4e82a90efc76179_original.png", "custom_css": null}, {"id": 14922, "slack_id": "U08FH1UG4J0", "display_name": "Andrea", "bio": null, "projects_count": 0, "devlogs_count": 0, "votes_count": 0, "ships_count": 0, "projects": [], "coding_time_seconds": 18280, "coding_time_seconds_today": 0, "balance": "You need to have a pocket watcher badge to view this.", "badges": [], "created_at": "2025-07-06T15:52:46.180-04:00", "updated_at": "2025-07-08T03:17:44.557-04:00", "avatar": "https://secure.gravatar.com/avatar/292fb4a5fc83eb0bd9b98f326982ec72.jpg?s=512&d=https%3A%2F%2Fa.slack-edge.com%2Fdf10d%2Fimg%2Favatars%2Fava_0026-512.png", "custom_css": null}, {"id": 14923, "slack_id": "U094XUKUYSV", "display_name": "Matthew", "bio": null, "projects_count": 0, "devlogs_count": 0, "votes_count": 0, "ships_count": 0, "projects": [], "coding_time_seconds": 0, "coding_time_seconds_today": 0, "balance": "You need to have a pocket watcher badge to view this.", "badges": [], "created_at": "2025-07-06T15:55:40.633-04:00", "updated_at": "2025-07-07T02:17:11.483-04:00", "avatar": "https://secure.gravatar.com/avatar/dcc2c59294ecab32c30d1e23737100d5.jpg?s=512&d=https%3A%2F%2Fa.slack-edge.com%2Fdf10d%2Fimg%2Favatars%2Fava_0007-512.png", "custom_css": null}, {"id": 14924, "slack_id": "U094EHMQA94", "display_name": "Emma", "bio": null, "projects_count": 0, "devlogs_count": 0, "votes_count": 0, "ships_count": 0, "projects": [], "coding_time_seconds": 0, "coding_time_seconds_today": 0, "balance": "You need to have a pocket watcher badge to view this.", "badges": [], "created_at": "2025-07-06T15:58:59.577-04:00", "updated_at": "2025-07-08T03:17:44.739-04:00", "avatar": "https://secure.gravatar.com/avatar/f55cbca4a5bdc980606f7ca83a7c7c3b.jpg?s=512&d=https%3A%2F%2Fa.slack-edge.com%2Fdf10d%2Fimg%2Favatars%2Fava_0002-512.png", "custom_css": null}, {"id": 14925, "slack_id": "U094HAD2VSR", "display_name": "Aarav Jaiswal", "bio": null, "projects_count": 0, "devlogs_count": 0, "votes_count": 0, "ships_count": 0, "projects": [], "coding_time_seconds": 0, "coding_time_seconds_today": 0, "balance": "You need to have a pocket watcher badge to view this.", "badges": [], "created_at": "2025-07-06T16:05:44.032-04:00", "updated_at": "2025-07-08T03:17:44.815-04:00", "avatar": "https://secure.gravatar.com/avatar/4a38e99a5454041c53b95538f45ba6c9.jpg?s=512&d=https%3A%2F%2Fa.slack-edge.com%2Fdf10d%2Fimg%2Favatars%2Fava_0007-512.png", "custom_css": null}], "pagination": {"page": 742, "pages": 1192, "count": 23828, "items": 20}}