{"users": [{"id": 14926, "slack_id": "U09462N3Z1D", "display_name": "TEILLET", "bio": null, "projects_count": 0, "devlogs_count": 0, "votes_count": 0, "ships_count": 0, "projects": [], "coding_time_seconds": 5330, "coding_time_seconds_today": 0, "balance": "You need to have a pocket watcher badge to view this.", "badges": [], "created_at": "2025-07-06T16:22:55.658-04:00", "updated_at": "2025-07-08T03:17:44.894-04:00", "avatar": "https://secure.gravatar.com/avatar/a3e602b4d04aef8cfa9d077b5bafbb92.jpg?s=512&d=https%3A%2F%2Fa.slack-edge.com%2Fdf10d%2Fimg%2Favatars%2Fava_0020-512.png", "custom_css": null}, {"id": 14927, "slack_id": "U0956TY3B0Q", "display_name": "Mohammad Danish", "bio": null, "projects_count": 0, "devlogs_count": 0, "votes_count": 0, "ships_count": 0, "projects": [], "coding_time_seconds": 46108, "coding_time_seconds_today": 0, "balance": "You need to have a pocket watcher badge to view this.", "badges": [], "created_at": "2025-07-06T16:34:30.703-04:00", "updated_at": "2025-07-08T03:17:44.967-04:00", "avatar": "https://secure.gravatar.com/avatar/0d53b7f17f7f91eaeb21ac1c1c019e7f.jpg?s=512&d=https%3A%2F%2Fa.slack-edge.com%2Fdf10d%2Fimg%2Favatars%2Fava_0002-512.png", "custom_css": null}, {"id": 14928, "slack_id": "U0833HE3XU2", "display_name": "simpansoftware", "bio": null, "projects_count": 1, "devlogs_count": 2, "votes_count": 3, "ships_count": 1, "projects": [{"id": 5726, "title": "SRT Maker in bash", "devlogs_count": 2, "created_at": "2025-07-07T13:44:37.348-04:00"}], "coding_time_seconds": 16629, "coding_time_seconds_today": 0, "balance": "You need to have a pocket watcher badge to view this.", "badges": [{"name": "Maiden Voyage", "text": "you shipped your first project! the journey begins...", "icon": "\ud83d\udea2"}], "created_at": "2025-07-06T16:38:32.034-04:00", "updated_at": "2025-09-10T22:58:32.911-04:00", "avatar": "https://secure.gravatar.com/avatar/74e15b37bee0c50becf85a918e6f2e76.jpg?s=512&d=https%3A%2F%2Fa.slack-edge.com%2Fdf10d%2Fimg%2Favatars%2Fava_0007-512.png", "custom_css": null}, {"id": 14929, "slack_id": "U094Y145RMF", "display_name": "Artin", "bio": null, "projects_count": 0, "devlogs_count": 0, "votes_count": 0, "ships_count": 0, "projects": [], "coding_time_seconds": 0, "coding_time_seconds_today": 0, "balance": "You need to have a pocket watcher badge to view this.", "badges": [], "created_at": "2025-07-06T16:41:38.997-04:00", "updated_at": "2025-07-07T08:16:13.268-04:00", "avatar": "https://avatars.slack-edge.com/2025-07-07/9153412732917_8521a3dba39c61e71ec6_original.jpg", "custom_css": null}, {"id": 14930, "slack_id": "U07AWK0T1FE", "display_name": "Tejas Upadhyay", "bio": null, "projects_count": 0, "devlogs_count": 0, "votes_count": 0, "ships_count": 0, "projects": [], "coding_time_seconds": 6936, "coding_time_seconds_today": 0, "balance": "You need to have a pocket watcher badge to view this.", "badges": [], "created_at": "2025-07-06T17:08:50.226-04:00", "updated_at": "2025-07-06T17:18:33.906-04:00", "avatar": "https://avatars.slack-edge.com/2024-07-04/7377328346066_fc652adaf7c8ff9803ef_original.png", "custom_css": null}, {"id": 14931, "slack_id": "U094LQKN5JQ", "display_name": "Mohd Zaki", "bio": null, "projects_count": 0, "devlogs_count": 0, "votes_count": 0, "ships_count": 0, "projects": [], "coding_time_seconds": 0, "coding_time_seconds_today": 0, "balance": "You need to have a pocket watcher badge to view this.", "badges": [], "created_at": "2025-07-06T17:14:25.659-04:00", "updated_at": "2025-07-06T20:16:38.263-04:00", "avatar": "https://secure.gravatar.com/avatar/981f5493b931e9d79f7772894b8f5064.jpg?s=512&d=https%3A%2F%2Fa.slack-edge.com%2Fdf10d%2Fimg%2Favatars%2Fava_0012-512.png", "custom_css": null}, {"id": 14932, "slack_id": "U08SS81N3ND", "display_name": "max1", "bio": null, "projects_count": 0, "devlogs_count": 0, "votes_count": 0, "ships_count": 0, "projects": [], "coding_time_seconds": 40193, "coding_time_seconds_today": 0, "balance": "You need to have a pocket watcher badge to view this.", "badges": [], "created_at": "2025-07-06T17:23:28.963-04:00", "updated_at": "2025-07-09T10:06:21.290-04:00", "avatar": "https://secure.gravatar.com/avatar/833d862bfcb73067d368ecfdb0ebe459.jpg?s=512&d=https%3A%2F%2Fa.slack-edge.com%2Fdf10d%2Fimg%2Favatars%2Fava_0000-512.png", "custom_css": null}, {"id": 14933, "slack_id": "U094HDBU1QV", "display_name": "Joaodacarrossa", "bio": null, "projects_count": 0, "devlogs_count": 0, "votes_count": 0, "ships_count": 0, "projects": [], "coding_time_seconds": 0, "coding_time_seconds_today": 0, "balance": "You need to have a pocket watcher badge to view this.", "badges": [], "created_at": "2025-07-06T17:23:34.868-04:00", "updated_at": "2025-07-08T03:17:45.397-04:00", "avatar": "https://secure.gravatar.com/avatar/b5410453d6557dcea1462b399012d914.jpg?s=512&d=https%3A%2F%2Fa.slack-edge.com%2Fdf10d%2Fimg%2Favatars%2Fava_0016-512.png", "custom_css": null}, {"id": 14934, "slack_id": "U094Y27G7J5", "display_name": "Gustavo Souza", "bio": null, "projects_count": 1, "devlogs_count": 0, "votes_count": 0, "ships_count": 0, "projects": [{"id": 5657, "title": "Finn the Diver", "devlogs_count": 0, "created_at": "2025-07-06T22:11:12.467-04:00"}], "coding_time_seconds": 3459, "coding_time_seconds_today": 0, "balance": "You need to have a pocket watcher badge to view this.", "badges": [], "created_at": "2025-07-06T17:26:11.558-04:00", "updated_at": "2025-07-06T21:54:22.057-04:00", "avatar": "https://secure.gravatar.com/avatar/daef65345e96759541fa2beed1b707d3.jpg?s=512&d=https%3A%2F%2Fa.slack-edge.com%2Fdf10d%2Fimg%2Favatars%2Fava_0007-512.png", "custom_css": null}, {"id": 14935, "slack_id": "U094HD9ND6Z", "display_name": "Rowida Arafa Elgendy", "bio": null, "projects_count": 0, "devlogs_count": 0, "votes_count": 0, "ships_count": 0, "projects": [], "coding_time_seconds": 0, "coding_time_seconds_today": 0, "balance": "You need to have a pocket watcher badge to view this.", "badges": [], "created_at": "2025-07-06T17:26:24.807-04:00", "updated_at": "2025-07-07T02:17:12.275-04:00", "avatar": "https://secure.gravatar.com/avatar/97f0840dc80b228d9312fe5e79dd3f45.jpg?s=512&d=https%3A%2F%2Fa.slack-edge.com%2Fdf10d%2Fimg%2Favatars%2Fava_0026-512.png", "custom_css": null}, {"id": 14936, "slack_id": "U094CNCLBDZ", "display_name": "Aamir", "bio": null, "projects_count": 0, "devlogs_count": 0, "votes_count": 0, "ships_count": 0, "projects": [], "coding_time_seconds": 18773, "coding_time_seconds_today": 0, "balance": "You need to have a pocket watcher badge to view this.", "badges": [], "created_at": "2025-07-06T17:47:41.221-04:00", "updated_at": "2025-07-06T20:16:38.606-04:00", "avatar": "https://secure.gravatar.com/avatar/ff20a8e0f876046e65e2ee1303bb55af.jpg?s=512&d=https%3A%2F%2Fa.slack-edge.com%2Fdf10d%2Fimg%2Favatars%2Fava_0005-512.png", "custom_css": null}, {"id": 14937, "slack_id": "U094Y4S40BB", "display_name": "\u05de\u05d9\u05e7\u05d4 \u05e8\u05d9\u05d9\u05e1 \u05db\u05d4\u05df", "bio": null, "projects_count": 0, "devlogs_count": 0, "votes_count": 0, "ships_count": 0, "projects": [], "coding_time_seconds": 0, "coding_time_seconds_today": 0, "balance": "You need to have a pocket watcher badge to view this.", "badges": [], "created_at": "2025-07-06T18:09:47.211-04:00", "updated_at": "2025-07-06T20:16:38.684-04:00", "avatar": "https://avatars.slack-edge.com/2025-07-06/9156909645252_ed5c91ba0fd9a2891e7f_original.png", "custom_css": null}, {"id": 14938, "slack_id": "U09572XEPUG", "display_name": "troy", "bio": null, "projects_count": 1, "devlogs_count": 0, "votes_count": 0, "ships_count": 0, "projects": [{"id": 12322, "title": "honmoon", "devlogs_count": 0, "created_at": "2025-08-25T17:07:00.983-04:00"}], "coding_time_seconds": 137753, "coding_time_seconds_today": 0, "balance": "You need to have a pocket watcher badge to view this.", "badges": [], "created_at": "2025-07-06T18:32:34.429-04:00", "updated_at": "2025-08-25T16:56:37.888-04:00", "avatar": "https://avatars.slack-edge.com/2025-07-06/9154829521826_29248a1954748b55bb97_original.png", "custom_css": null}, {"id": 14939, "slack_id": "U09572PP7B2", "display_name": "Sai Sricharan Dangeti", "bio": null, "projects_count": 0, "devlogs_count": 0, "votes_count": 0, "ships_count": 0, "projects": [], "coding_time_seconds": 0, "coding_time_seconds_today": 0, "balance": "You need to have a pocket watcher badge to view this.", "badges": [], "created_at": "2025-07-06T18:37:40.034-04:00", "updated_at": "2025-07-08T03:17:49.840-04:00", "avatar": "https://secure.gravatar.com/avatar/121edad3ab99ae496c1c278d375d10f8.jpg?s=512&d=https%3A%2F%2Fa.slack-edge.com%2Fdf10d%2Fimg%2Favatars%2Fava_0004-512.png", "custom_css": null}, {"id": 14940, "slack_id": "U094CR9SHRR", "display_name": "mia4696", "bio": null, "projects_count": 0, "devlogs_count": 0, "votes_count": 0, "ships_count": 0, "projects": [], "coding_time_seconds": 0, "coding_time_seconds_today": 0, "balance": "You need to have a pocket watcher badge to view this.", "badges": [], "created_at": "2025-07-06T18:44:41.573-04:00", "updated_at": "2025-07-08T03:17:49.940-04:00", "avatar": "https://secure.gravatar.com/avatar/677c5dd93bd4909795c33a520b04c32d.jpg?s=512&d=https%3A%2F%2Fa.slack-edge.com%2Fdf10d%2Fimg%2Favatars%2Fava_0021-512.png", "custom_css": null}, {"id": 14941, "slack_id": "U094JR7NUTC", "display_name": "Mohammad Hasan", "bio": null, "projects_count": 0, "devlogs_count": 0, "votes_count": 0, "ships_count": 0, "projects": [], "coding_time_seconds": 0, "coding_time_seconds_today": 0, "balance": "You need to have a pocket watcher badge to view this.", "badges": [], "created_at": "2025-07-06T19:04:30.760-04:00", "updated_at": "2025-07-07T02:17:12.648-04:00", "avatar": "https://avatars.slack-edge.com/2025-07-06/9168254108769_159c8cefd7ceb317e230_original.png", "custom_css": null}, {"id": 14942, "slack_id": "U091T7ND23E", "display_name": "Tanu Kumar", "bio": null, "projects_count": 0, "devlogs_count": 0, "votes_count": 0, "ships_count": 0, "projects": [], "coding_time_seconds": 0, "coding_time_seconds_today": 0, "balance": "You need to have a pocket watcher badge to view this.", "badges": [], "created_at": "2025-07-06T19:17:25.488-04:00", "updated_at": "2025-07-07T08:16:14.073-04:00", "avatar": "https://avatars.slack-edge.com/2025-07-03/9140966190339_00be21ba95a5176d266b_original.png", "custom_css": null}, {"id": 14943, "slack_id": "U0944V3PTAP", "display_name": "random guy", "bio": null, "projects_count": 0, "devlogs_count": 0, "votes_count": 0, "ships_count": 0, "projects": [], "coding_time_seconds": 0, "coding_time_seconds_today": 0, "balance": "You need to have a pocket watcher badge to view this.", "badges": [], "created_at": "2025-07-06T19:17:27.083-04:00", "updated_at": "2025-07-07T08:16:14.155-04:00", "avatar": "https://avatars.slack-edge.com/2025-07-03/9135278039015_f90131ce72a628d374e6_original.png", "custom_css": null}, {"id": 14944, "slack_id": "U094SH4P933", "display_name": "Ayaan Sharif", "bio": null, "projects_count": 0, "devlogs_count": 0, "votes_count": 0, "ships_count": 0, "projects": [], "coding_time_seconds": 0, "coding_time_seconds_today": 0, "balance": "You need to have a pocket watcher badge to view this.", "badges": [], "created_at": "2025-07-06T19:17:28.268-04:00", "updated_at": "2025-07-08T03:17:50.255-04:00", "avatar": "https://secure.gravatar.com/avatar/686158ff9db2a9702be4b1522b66bf2b.jpg?s=512&d=https%3A%2F%2Fa.slack-edge.com%2Fdf10d%2Fimg%2Favatars%2Fava_0005-512.png", "custom_css": null}, {"id": 14945, "slack_id": "U094F2U96CS", "display_name": "Klayvem Guimar\u00e3es", "bio": null, "projects_count": 0, "devlogs_count": 0, "votes_count": 0, "ships_count": 0, "projects": [], "coding_time_seconds": 0, "coding_time_seconds_today": 0, "balance": "You need to have a pocket watcher badge to view this.", "badges": [], "created_at": "2025-07-06T19:17:29.373-04:00", "updated_at": "2025-07-08T03:17:54.382-04:00", "avatar": "https://avatars.slack-edge.com/2025-07-04/9147302759030_5a337e3301da21374886_original.jpg", "custom_css": null}], "pagination": {"page": 743, "pages": 1192, "count": 23828, "items": 20}}