{"users": [{"id": 14946, "slack_id": "U094JQR818U", "display_name": "kottapalli Deepak varma", "bio": null, "projects_count": 0, "devlogs_count": 0, "votes_count": 0, "ships_count": 0, "projects": [], "coding_time_seconds": 2656, "coding_time_seconds_today": 0, "balance": "You need to have a pocket watcher badge to view this.", "badges": [], "created_at": "2025-07-06T19:17:30.476-04:00", "updated_at": "2025-07-14T13:56:24.124-04:00", "avatar": "https://secure.gravatar.com/avatar/caec1f91db694359273bceec53aeab78.jpg?s=512&d=https%3A%2F%2Fa.slack-edge.com%2Fdf10d%2Fimg%2Favatars%2Fava_0006-512.png", "custom_css": null}, {"id": 14947, "slack_id": "U091KMKHM1V", "display_name": "Bobbysam", "bio": null, "projects_count": 0, "devlogs_count": 0, "votes_count": 0, "ships_count": 0, "projects": [], "coding_time_seconds": 0, "coding_time_seconds_today": 0, "balance": "You need to have a pocket watcher badge to view this.", "badges": [], "created_at": "2025-07-06T19:17:31.542-04:00", "updated_at": "2025-07-07T08:16:14.431-04:00", "avatar": "https://secure.gravatar.com/avatar/b17882036326ba56dbd3768e4af5d8e1.jpg?s=512&d=https%3A%2F%2Fa.slack-edge.com%2Fdf10d%2Fimg%2Favatars%2Fava_0014-512.png", "custom_css": null}, {"id": 14948, "slack_id": "U094CV56B61", "display_name": "Only Gold", "bio": null, "projects_count": 0, "devlogs_count": 0, "votes_count": 0, "ships_count": 0, "projects": [], "coding_time_seconds": 0, "coding_time_seconds_today": 0, "balance": "You need to have a pocket watcher badge to view this.", "badges": [], "created_at": "2025-07-06T19:17:32.670-04:00", "updated_at": "2025-07-06T20:16:39.316-04:00", "avatar": "https://secure.gravatar.com/avatar/cddb9d45a8805657c5120c0c4d4aa63d.jpg?s=512&d=https%3A%2F%2Fa.slack-edge.com%2Fdf10d%2Fimg%2Favatars%2Fava_0015-512.png", "custom_css": null}, {"id": 14949, "slack_id": "U094K1EQG92", "display_name": "Akiranandhan Reddy Jaklapally", "bio": null, "projects_count": 0, "devlogs_count": 0, "votes_count": 0, "ships_count": 0, "projects": [], "coding_time_seconds": 0, "coding_time_seconds_today": 0, "balance": "You need to have a pocket watcher badge to view this.", "badges": [], "created_at": "2025-07-06T19:17:33.852-04:00", "updated_at": "2025-07-06T20:16:39.391-04:00", "avatar": "https://secure.gravatar.com/avatar/280f0772fbb3cf70bd135177bddb9ad0.jpg?s=512&d=https%3A%2F%2Fa.slack-edge.com%2Fdf10d%2Fimg%2Favatars%2Fava_0006-512.png", "custom_css": null}, {"id": 14950, "slack_id": "U0955QA3F08", "display_name": "Hao", "bio": null, "projects_count": 0, "devlogs_count": 0, "votes_count": 0, "ships_count": 0, "projects": [], "coding_time_seconds": 0, "coding_time_seconds_today": 0, "balance": "You need to have a pocket watcher badge to view this.", "badges": [], "created_at": "2025-07-06T19:17:35.058-04:00", "updated_at": "2025-07-08T03:17:54.726-04:00", "avatar": "https://secure.gravatar.com/avatar/f658a062b12ac22b5e65357113a2ec66.jpg?s=512&d=https%3A%2F%2Fa.slack-edge.com%2Fdf10d%2Fimg%2Favatars%2Fava_0017-512.png", "custom_css": null}, {"id": 14951, "slack_id": "U094C1WEJTV", "display_name": "Sohail", "bio": null, "projects_count": 0, "devlogs_count": 0, "votes_count": 0, "ships_count": 0, "projects": [], "coding_time_seconds": 0, "coding_time_seconds_today": 0, "balance": "You need to have a pocket watcher badge to view this.", "badges": [], "created_at": "2025-07-06T19:17:37.665-04:00", "updated_at": "2025-07-08T03:17:54.816-04:00", "avatar": "https://secure.gravatar.com/avatar/28d1c209c0324e30274dd0f2af7ee493.jpg?s=512&d=https%3A%2F%2Fa.slack-edge.com%2Fdf10d%2Fimg%2Favatars%2Fava_0010-512.png", "custom_css": null}, {"id": 14952, "slack_id": "U094LH8GKU4", "display_name": "Ananya Dhandapani Anand", "bio": null, "projects_count": 0, "devlogs_count": 0, "votes_count": 0, "ships_count": 0, "projects": [], "coding_time_seconds": 0, "coding_time_seconds_today": 0, "balance": "You need to have a pocket watcher badge to view this.", "badges": [], "created_at": "2025-07-06T19:17:38.756-04:00", "updated_at": "2025-07-08T03:17:54.897-04:00", "avatar": "https://secure.gravatar.com/avatar/c688cac888efbc3d61cc1d5cfae586c4.jpg?s=512&d=https%3A%2F%2Fa.slack-edge.com%2Fdf10d%2Fimg%2Favatars%2Fava_0007-512.png", "custom_css": null}, {"id": 14953, "slack_id": "U094JDA24NN", "display_name": "Uthkrushta Mathur", "bio": null, "projects_count": 0, "devlogs_count": 0, "votes_count": 0, "ships_count": 0, "projects": [], "coding_time_seconds": 0, "coding_time_seconds_today": 0, "balance": "You need to have a pocket watcher badge to view this.", "badges": [], "created_at": "2025-07-06T19:17:39.836-04:00", "updated_at": "2025-07-08T03:17:54.976-04:00", "avatar": "https://avatars.slack-edge.com/2025-07-06/9167836227633_7ca3e24980b40b4577fd_original.jpg", "custom_css": null}, {"id": 14954, "slack_id": "U094XQEG117", "display_name": "tara", "bio": null, "projects_count": 0, "devlogs_count": 0, "votes_count": 0, "ships_count": 0, "projects": [], "coding_time_seconds": 0, "coding_time_seconds_today": 0, "balance": "You need to have a pocket watcher badge to view this.", "badges": [], "created_at": "2025-07-06T19:17:40.905-04:00", "updated_at": "2025-07-08T03:17:55.055-04:00", "avatar": "https://secure.gravatar.com/avatar/ee9119e25701c44ae13a1ebc78dbd0b9.jpg?s=512&d=https%3A%2F%2Fa.slack-edge.com%2Fdf10d%2Fimg%2Favatars%2Fava_0019-512.png", "custom_css": null}, {"id": 14955, "slack_id": "U092MFHJ397", "display_name": "Derek Wen", "bio": null, "projects_count": 0, "devlogs_count": 0, "votes_count": 0, "ships_count": 0, "projects": [], "coding_time_seconds": 0, "coding_time_seconds_today": 0, "balance": "You need to have a pocket watcher badge to view this.", "badges": [], "created_at": "2025-07-06T19:17:42.172-04:00", "updated_at": "2025-07-08T03:17:55.131-04:00", "avatar": "https://secure.gravatar.com/avatar/8f4cb2dbb5188f311105548ef166473b.jpg?s=512&d=https%3A%2F%2Fa.slack-edge.com%2Fdf10d%2Fimg%2Favatars%2Fava_0010-512.png", "custom_css": null}, {"id": 14956, "slack_id": "U06R82WJNTX", "display_name": "Mo", "bio": null, "projects_count": 2, "devlogs_count": 2, "votes_count": 2, "ships_count": 0, "projects": [{"id": 5704, "title": "LegBand", "devlogs_count": 2, "created_at": "2025-07-07T10:06:54.129-04:00"}, {"id": 6880, "title": "ESP32 controlled moon lamp.", "devlogs_count": 0, "created_at": "2025-07-17T03:35:26.103-04:00"}], "coding_time_seconds": 12787, "coding_time_seconds_today": 480, "balance": "You need to have a pocket watcher badge to view this.", "badges": [], "created_at": "2025-07-06T19:23:05.151-04:00", "updated_at": "2025-09-03T11:01:04.229-04:00", "avatar": "https://avatars.slack-edge.com/2025-07-07/9150886935142_81e0462a81566620c046_original.webp", "custom_css": null}, {"id": 14957, "slack_id": "U094ST4RECQ", "display_name": "fgyshm", "bio": null, "projects_count": 0, "devlogs_count": 0, "votes_count": 0, "ships_count": 0, "projects": [], "coding_time_seconds": 0, "coding_time_seconds_today": 0, "balance": "You need to have a pocket watcher badge to view this.", "badges": [], "created_at": "2025-07-06T20:24:04.944-04:00", "updated_at": "2025-07-07T08:16:15.035-04:00", "avatar": "https://secure.gravatar.com/avatar/13dc5703eb553d5750a94f6984eaabec.jpg?s=512&d=https%3A%2F%2Fa.slack-edge.com%2Fdf10d%2Fimg%2Favatars%2Fava_0000-512.png", "custom_css": null}, {"id": 14958, "slack_id": "U09579BDPUY", "display_name": "Fatma", "bio": null, "projects_count": 0, "devlogs_count": 0, "votes_count": 0, "ships_count": 0, "projects": [], "coding_time_seconds": 0, "coding_time_seconds_today": 0, "balance": "You need to have a pocket watcher badge to view this.", "badges": [], "created_at": "2025-07-06T20:33:03.207-04:00", "updated_at": "2025-07-08T03:17:59.406-04:00", "avatar": "https://avatars.slack-edge.com/2025-07-06/9168436818945_ddb8b7630cc4f3e8353d_original.png", "custom_css": null}, {"id": 14959, "slack_id": "U093SRT08UA", "display_name": "Ali Ammari", "bio": null, "projects_count": 1, "devlogs_count": 1, "votes_count": 0, "ships_count": 0, "projects": [{"id": 5724, "title": "Portfolio Website", "devlogs_count": 1, "created_at": "2025-07-07T13:22:24.107-04:00"}], "coding_time_seconds": 64422, "coding_time_seconds_today": 0, "balance": "You need to have a pocket watcher badge to view this.", "badges": [], "created_at": "2025-07-06T20:52:07.870-04:00", "updated_at": "2025-07-07T20:34:23.919-04:00", "avatar": "https://avatars.slack-edge.com/2025-07-06/9157196143796_111c2085c33cce86b03e_original.png", "custom_css": null}, {"id": 14960, "slack_id": "U086E1FP5NZ", "display_name": "ayaanogrovertis", "bio": null, "projects_count": 0, "devlogs_count": 0, "votes_count": 0, "ships_count": 0, "projects": [], "coding_time_seconds": 320778, "coding_time_seconds_today": 0, "balance": "You need to have a pocket watcher badge to view this.", "badges": [], "created_at": "2025-07-06T20:56:18.147-04:00", "updated_at": "2025-08-31T22:00:06.331-04:00", "avatar": "https://avatars.slack-edge.com/2025-02-26/8530661216625_f4c79a712cc2bcbd5ffb_original.png", "custom_css": null}, {"id": 14961, "slack_id": "U08MUPEPLUQ", "display_name": "Lor14N", "bio": null, "projects_count": 1, "devlogs_count": 0, "votes_count": 0, "ships_count": 0, "projects": [{"id": 13294, "title": "Personal Website", "devlogs_count": 0, "created_at": "2025-09-13T14:54:19.107-04:00"}], "coding_time_seconds": 1938, "coding_time_seconds_today": 0, "balance": "You need to have a pocket watcher badge to view this.", "badges": [], "created_at": "2025-07-06T21:34:33.514-04:00", "updated_at": "2025-09-03T04:00:05.984-04:00", "avatar": "https://avatars.slack-edge.com/2025-05-23/8943784678069_cac47e41e4f8f06ea124_original.png", "custom_css": null}, {"id": 14962, "slack_id": "U094HUU8WHK", "display_name": "Rohan", "bio": null, "projects_count": 0, "devlogs_count": 0, "votes_count": 0, "ships_count": 0, "projects": [], "coding_time_seconds": 0, "coding_time_seconds_today": 0, "balance": "You need to have a pocket watcher badge to view this.", "badges": [], "created_at": "2025-07-06T21:53:10.243-04:00", "updated_at": "2025-07-07T02:17:13.945-04:00", "avatar": "https://secure.gravatar.com/avatar/0b40a4393b564c7c72e6dfdd2531e08b.jpg?s=512&d=https%3A%2F%2Fa.slack-edge.com%2Fdf10d%2Fimg%2Favatars%2Fava_0008-512.png", "custom_css": null}, {"id": 14963, "slack_id": "U094YK12S1F", "display_name": "Gautam Annamalai", "bio": null, "projects_count": 1, "devlogs_count": 1, "votes_count": 0, "ships_count": 0, "projects": [{"id": 7312, "title": "RRT Algorithm ", "devlogs_count": 1, "created_at": "2025-07-20T20:47:29.078-04:00"}], "coding_time_seconds": 56955, "coding_time_seconds_today": 0, "balance": "You need to have a pocket watcher badge to view this.", "badges": [], "created_at": "2025-07-06T21:54:37.506-04:00", "updated_at": "2025-07-22T07:26:01.644-04:00", "avatar": "https://secure.gravatar.com/avatar/2176423ca5c74816d76df0eca192a5e5.jpg?s=512&d=https%3A%2F%2Fa.slack-edge.com%2Fdf10d%2Fimg%2Favatars%2Fava_0008-512.png", "custom_css": null}, {"id": 14964, "slack_id": "U0928BNRLAD", "display_name": "Berns Barker", "bio": null, "projects_count": 1, "devlogs_count": 3, "votes_count": 2, "ships_count": 1, "projects": [{"id": 5678, "title": "Tetris ", "devlogs_count": 3, "created_at": "2025-07-07T02:21:32.010-04:00"}], "coding_time_seconds": 52544, "coding_time_seconds_today": 0, "balance": "You need to have a pocket watcher badge to view this.", "badges": [{"name": "Maiden Voyage", "text": "you shipped your first project! the journey begins...", "icon": "\ud83d\udea2"}], "created_at": "2025-07-06T22:36:08.487-04:00", "updated_at": "2025-09-10T22:58:33.884-04:00", "avatar": "https://secure.gravatar.com/avatar/049ad02fc23322b9e787ff23a53566b1.jpg?s=512&d=https%3A%2F%2Fa.slack-edge.com%2Fdf10d%2Fimg%2Favatars%2Fava_0008-512.png", "custom_css": null}, {"id": 14965, "slack_id": "U08G6A5NEMC", "display_name": "kq4wlc", "bio": null, "projects_count": 2, "devlogs_count": 3, "votes_count": 13, "ships_count": 1, "projects": [{"id": 10693, "title": "EX64", "devlogs_count": 1, "created_at": "2025-08-09T17:53:39.295-04:00"}, {"id": 11291, "title": "azz8mbler", "devlogs_count": 2, "created_at": "2025-08-14T16:50:39.660-04:00"}], "coding_time_seconds": 227490, "coding_time_seconds_today": 0, "balance": "You need to have a pocket watcher badge to view this.", "badges": [{"name": "Maiden Voyage", "text": "you shipped your first project! the journey begins...", "icon": "\ud83d\udea2"}], "created_at": "2025-07-06T22:54:15.550-04:00", "updated_at": "2025-09-10T22:58:33.914-04:00", "avatar": "https://avatars.slack-edge.com/2025-07-06/9168797311905_db7627f3883587a9aeb1_original.jpg", "custom_css": null}], "pagination": {"page": 744, "pages": 1192, "count": 23828, "items": 20}}