{"users": [{"id": 14966, "slack_id": "U094J4MM7AR", "display_name": "An Ph\u00fa", "bio": null, "projects_count": 0, "devlogs_count": 0, "votes_count": 0, "ships_count": 0, "projects": [], "coding_time_seconds": 0, "coding_time_seconds_today": 0, "balance": "You need to have a pocket watcher badge to view this.", "badges": [], "created_at": "2025-07-06T22:58:51.076-04:00", "updated_at": "2025-07-08T03:17:59.988-04:00", "avatar": "https://secure.gravatar.com/avatar/9f7a9a740ff2488f17b0b351f3a943c8.jpg?s=512&d=https%3A%2F%2Fa.slack-edge.com%2Fdf10d%2Fimg%2Favatars%2Fava_0006-512.png", "custom_css": null}, {"id": 14967, "slack_id": "U094J596CSH", "display_name": "Deeparjo Ganguli", "bio": null, "projects_count": 0, "devlogs_count": 0, "votes_count": 0, "ships_count": 0, "projects": [], "coding_time_seconds": 9782, "coding_time_seconds_today": 0, "balance": "You need to have a pocket watcher badge to view this.", "badges": [], "created_at": "2025-07-06T23:05:51.455-04:00", "updated_at": "2025-07-13T10:12:51.500-04:00", "avatar": "https://secure.gravatar.com/avatar/ebf642892bf4546ea887d38b6e4d742b.jpg?s=512&d=https%3A%2F%2Fa.slack-edge.com%2Fdf10d%2Fimg%2Favatars%2Fava_0010-512.png", "custom_css": null}, {"id": 14968, "slack_id": "U0957MW37Q8", "display_name": "Yash", "bio": null, "projects_count": 0, "devlogs_count": 0, "votes_count": 0, "ships_count": 0, "projects": [], "coding_time_seconds": 0, "coding_time_seconds_today": 0, "balance": "You need to have a pocket watcher badge to view this.", "badges": [], "created_at": "2025-07-06T23:19:42.605-04:00", "updated_at": "2025-07-07T08:16:15.742-04:00", "avatar": "https://secure.gravatar.com/avatar/fe85954030f7b7a451c89d3d34214c3d.jpg?s=512&d=https%3A%2F%2Fa.slack-edge.com%2Fdf10d%2Fimg%2Favatars%2Fava_0015-512.png", "custom_css": null}, {"id": 14969, "slack_id": "U094MHBV8AY", "display_name": "Rajarshi Datta", "bio": null, "projects_count": 0, "devlogs_count": 0, "votes_count": 0, "ships_count": 0, "projects": [], "coding_time_seconds": 0, "coding_time_seconds_today": 0, "balance": "You need to have a pocket watcher badge to view this.", "badges": [], "created_at": "2025-07-06T23:34:15.103-04:00", "updated_at": "2025-07-08T03:18:00.210-04:00", "avatar": "https://secure.gravatar.com/avatar/afb2ee93933c116c0b9cb5257c0e3c06.jpg?s=512&d=https%3A%2F%2Fa.slack-edge.com%2Fdf10d%2Fimg%2Favatars%2Fava_0016-512.png", "custom_css": null}, {"id": 14970, "slack_id": "U094C0A036X", "display_name": "Ankit Pal", "bio": null, "projects_count": 0, "devlogs_count": 0, "votes_count": 0, "ships_count": 0, "projects": [], "coding_time_seconds": 0, "coding_time_seconds_today": 0, "balance": "You need to have a pocket watcher badge to view this.", "badges": [], "created_at": "2025-07-06T23:50:27.409-04:00", "updated_at": "2025-07-08T03:18:00.296-04:00", "avatar": "https://avatars.slack-edge.com/2025-07-06/9143028795863_70943ea5f4076daa85e7_original.png", "custom_css": null}, {"id": 14971, "slack_id": "U094KHLJ7RQ", "display_name": "Solar", "bio": null, "projects_count": 0, "devlogs_count": 0, "votes_count": 0, "ships_count": 0, "projects": [], "coding_time_seconds": 0, "coding_time_seconds_today": 0, "balance": "You need to have a pocket watcher badge to view this.", "badges": [], "created_at": "2025-07-07T00:03:27.933-04:00", "updated_at": "2025-07-08T03:18:00.382-04:00", "avatar": "https://avatars.slack-edge.com/2025-07-07/9149730049123_e6c090154954e7b63077_original.jpg", "custom_css": null}, {"id": 14972, "slack_id": "U084ENTEE7J", "display_name": "Abhinav Siluwal", "bio": "", "projects_count": 5, "devlogs_count": 17, "votes_count": 93, "ships_count": 3, "projects": [{"id": 11950, "title": "Playstore App Scraper", "devlogs_count": 2, "created_at": "2025-08-21T11:35:07.268-04:00"}, {"id": 12414, "title": "QuickRecall - A Ai Study helper web-app", "devlogs_count": 9, "created_at": "2025-08-27T05:51:14.312-04:00"}, {"id": 12714, "title": "Fast Line Following Robot", "devlogs_count": 0, "created_at": "2025-09-01T10:06:17.825-04:00"}, {"id": 11856, "title": "Terminal Themed Portfolio", "devlogs_count": 1, "created_at": "2025-08-20T10:56:29.821-04:00"}, {"id": 11374, "title": "website for nonprofit", "devlogs_count": 1, "created_at": "2025-08-15T10:47:27.458-04:00"}], "coding_time_seconds": 123244, "coding_time_seconds_today": 0, "balance": "You need to have a pocket watcher badge to view this.", "badges": [{"name": "Maiden Voyage", "text": "you shipped your first project! the journey begins...", "icon": "\ud83d\udea2"}], "created_at": "2025-07-07T00:29:51.441-04:00", "updated_at": "2025-09-10T22:58:34.168-04:00", "avatar": "https://avatars.slack-edge.com/2025-07-22/9218419357127_9ca3969d5a26d39293bc_original.png", "custom_css": null}, {"id": 14973, "slack_id": "U0957U2EGL8", "display_name": "Tanishka Goyal", "bio": null, "projects_count": 0, "devlogs_count": 0, "votes_count": 0, "ships_count": 0, "projects": [], "coding_time_seconds": 0, "coding_time_seconds_today": 0, "balance": "You need to have a pocket watcher badge to view this.", "badges": [], "created_at": "2025-07-07T00:41:31.510-04:00", "updated_at": "2025-07-07T02:17:14.709-04:00", "avatar": "https://avatars.slack-edge.com/2025-07-06/9177969242128_5a40642a3117942841c5_original.png", "custom_css": null}, {"id": 14974, "slack_id": "U091J3HENDU", "display_name": "william", "bio": null, "projects_count": 0, "devlogs_count": 0, "votes_count": 0, "ships_count": 0, "projects": [], "coding_time_seconds": 0, "coding_time_seconds_today": 0, "balance": "You need to have a pocket watcher badge to view this.", "badges": [], "created_at": "2025-07-07T00:51:16.093-04:00", "updated_at": "2025-07-08T03:18:00.579-04:00", "avatar": "https://secure.gravatar.com/avatar/56b0e2afc64a4f74eb52d853e88ac07e.jpg?s=512&d=https%3A%2F%2Fa.slack-edge.com%2Fdf10d%2Fimg%2Favatars%2Fava_0023-512.png", "custom_css": null}, {"id": 14975, "slack_id": "U094FL47KCN", "display_name": "HIREQ", "bio": null, "projects_count": 0, "devlogs_count": 0, "votes_count": 0, "ships_count": 0, "projects": [], "coding_time_seconds": 472, "coding_time_seconds_today": 0, "balance": "You need to have a pocket watcher badge to view this.", "badges": [], "created_at": "2025-07-07T00:53:48.762-04:00", "updated_at": "2025-07-07T02:17:14.843-04:00", "avatar": "https://secure.gravatar.com/avatar/0da919af6e19a0c1e9c93f7a181e2531.jpg?s=512&d=https%3A%2F%2Fa.slack-edge.com%2Fdf10d%2Fimg%2Favatars%2Fava_0012-512.png", "custom_css": null}, {"id": 14976, "slack_id": "U094FL98YBG", "display_name": "Noor", "bio": null, "projects_count": 0, "devlogs_count": 0, "votes_count": 0, "ships_count": 0, "projects": [], "coding_time_seconds": 2312, "coding_time_seconds_today": 0, "balance": "You need to have a pocket watcher badge to view this.", "badges": [], "created_at": "2025-07-07T00:55:22.451-04:00", "updated_at": "2025-07-10T05:27:01.781-04:00", "avatar": "https://secure.gravatar.com/avatar/56bace21494e5c956ef0df8708c04440.jpg?s=512&d=https%3A%2F%2Fa.slack-edge.com%2Fdf10d%2Fimg%2Favatars%2Fava_0019-512.png", "custom_css": null}, {"id": 14977, "slack_id": "U094KL58AUS", "display_name": "Coding_God", "bio": null, "projects_count": 0, "devlogs_count": 0, "votes_count": 0, "ships_count": 0, "projects": [], "coding_time_seconds": 0, "coding_time_seconds_today": 0, "balance": "You need to have a pocket watcher badge to view this.", "badges": [], "created_at": "2025-07-07T01:07:29.371-04:00", "updated_at": "2025-07-08T03:18:04.827-04:00", "avatar": "https://secure.gravatar.com/avatar/338bd7806ad957dfa4f2716cfee6648b.jpg?s=512&d=https%3A%2F%2Fa.slack-edge.com%2Fdf10d%2Fimg%2Favatars%2Fava_0018-512.png", "custom_css": null}, {"id": 14978, "slack_id": "U09584FQ8SC", "display_name": "Zain Ul Abideen", "bio": null, "projects_count": 0, "devlogs_count": 0, "votes_count": 0, "ships_count": 0, "projects": [], "coding_time_seconds": 0, "coding_time_seconds_today": 0, "balance": "You need to have a pocket watcher badge to view this.", "badges": [], "created_at": "2025-07-07T01:46:20.359-04:00", "updated_at": "2025-07-07T08:16:16.594-04:00", "avatar": "https://secure.gravatar.com/avatar/20e28695fbf260e30f1a09836f56d129.jpg?s=512&d=https%3A%2F%2Fa.slack-edge.com%2Fdf10d%2Fimg%2Favatars%2Fava_0019-512.png", "custom_css": null}, {"id": 14979, "slack_id": "U073V562AAZ", "display_name": "Retroz", "bio": null, "projects_count": 2, "devlogs_count": 6, "votes_count": 39, "ships_count": 1, "projects": [{"id": 13625, "title": "PortfolioOS", "devlogs_count": 2, "created_at": "2025-09-21T10:14:11.497-04:00"}, {"id": 12614, "title": "Chrobit", "devlogs_count": 4, "created_at": "2025-08-30T13:18:16.916-04:00"}], "coding_time_seconds": 29387, "coding_time_seconds_today": 0, "balance": "You need to have a pocket watcher badge to view this.", "badges": [{"name": "Maiden Voyage", "text": "you shipped your first project! the journey begins...", "icon": "\ud83d\udea2"}], "created_at": "2025-07-07T02:15:08.798-04:00", "updated_at": "2025-09-10T22:58:34.391-04:00", "avatar": "https://avatars.slack-edge.com/2025-07-07/9160680750706_da3fbb2ebd6a4e148899_original.png", "custom_css": null}, {"id": 14980, "slack_id": "U094ZKGSZ9P", "display_name": "Md. Fahim Bin Imam Nahid", "bio": null, "projects_count": 0, "devlogs_count": 0, "votes_count": 0, "ships_count": 0, "projects": [], "coding_time_seconds": 0, "coding_time_seconds_today": 0, "balance": "You need to have a pocket watcher badge to view this.", "badges": [], "created_at": "2025-07-07T03:14:35.205-04:00", "updated_at": "2025-07-08T03:18:05.063-04:00", "avatar": "https://secure.gravatar.com/avatar/3b65149cbbcac2e705b75d264e120e25.jpg?s=512&d=https%3A%2F%2Fa.slack-edge.com%2Fdf10d%2Fimg%2Favatars%2Fava_0004-512.png", "custom_css": null}, {"id": 14981, "slack_id": "U094ZLWEJ9F", "display_name": "Diego Medina", "bio": null, "projects_count": 0, "devlogs_count": 0, "votes_count": 0, "ships_count": 0, "projects": [], "coding_time_seconds": 0, "coding_time_seconds_today": 0, "balance": "You need to have a pocket watcher badge to view this.", "badges": [], "created_at": "2025-07-07T03:24:29.262-04:00", "updated_at": "2025-07-08T03:18:05.159-04:00", "avatar": "https://secure.gravatar.com/avatar/c8bc7c7ab959c78e1f93d810565bb55f.jpg?s=512&d=https%3A%2F%2Fa.slack-edge.com%2Fdf10d%2Fimg%2Favatars%2Fava_0005-512.png", "custom_css": null}, {"id": 14982, "slack_id": "U0958G0TRBJ", "display_name": "CassiusW", "bio": null, "projects_count": 1, "devlogs_count": 0, "votes_count": 0, "ships_count": 0, "projects": [{"id": 5683, "title": "Cassius' Portfolio.", "devlogs_count": 0, "created_at": "2025-07-07T04:02:01.107-04:00"}], "coding_time_seconds": 3677, "coding_time_seconds_today": 0, "balance": "You need to have a pocket watcher badge to view this.", "badges": [], "created_at": "2025-07-07T03:26:07.167-04:00", "updated_at": "2025-07-09T10:40:47.343-04:00", "avatar": "https://avatars.slack-edge.com/2025-07-08/9167060099284_fb5bf477da9b39588826_original.jpg", "custom_css": null}, {"id": 14983, "slack_id": "U094G9EQ89L", "display_name": "Frontend Champ", "bio": null, "projects_count": 0, "devlogs_count": 0, "votes_count": 0, "ships_count": 0, "projects": [], "coding_time_seconds": 253, "coding_time_seconds_today": 0, "balance": "You need to have a pocket watcher badge to view this.", "badges": [], "created_at": "2025-07-07T03:40:24.274-04:00", "updated_at": "2025-07-08T03:18:05.316-04:00", "avatar": "https://secure.gravatar.com/avatar/13c6370d9348b3e6b7ac50625b93ec80.jpg?s=512&d=https%3A%2F%2Fa.slack-edge.com%2Fdf10d%2Fimg%2Favatars%2Fava_0016-512.png", "custom_css": null}, {"id": 14984, "slack_id": "U094ZQ5NSJD", "display_name": "Yasiru Perera", "bio": null, "projects_count": 0, "devlogs_count": 0, "votes_count": 0, "ships_count": 0, "projects": [], "coding_time_seconds": 0, "coding_time_seconds_today": 0, "balance": "You need to have a pocket watcher badge to view this.", "badges": [], "created_at": "2025-07-07T03:48:45.784-04:00", "updated_at": "2025-07-08T03:18:05.413-04:00", "avatar": "https://secure.gravatar.com/avatar/96ebef14e92da086faa20cd1248bcec8.jpg?s=512&d=https%3A%2F%2Fa.slack-edge.com%2Fdf10d%2Fimg%2Favatars%2Fava_0022-512.png", "custom_css": null}, {"id": 14985, "slack_id": "U0947SYV4FR", "display_name": "Moldovan David", "bio": null, "projects_count": 0, "devlogs_count": 0, "votes_count": 0, "ships_count": 0, "projects": [], "coding_time_seconds": 0, "coding_time_seconds_today": 0, "balance": "You need to have a pocket watcher badge to view this.", "badges": [], "created_at": "2025-07-07T04:06:36.451-04:00", "updated_at": "2025-07-07T08:16:17.037-04:00", "avatar": "https://secure.gravatar.com/avatar/cb2e97ae56a746dcfa86ef73cf4a54be.jpg?s=512&d=https%3A%2F%2Fa.slack-edge.com%2Fdf10d%2Fimg%2Favatars%2Fava_0013-512.png", "custom_css": null}], "pagination": {"page": 745, "pages": 1192, "count": 23828, "items": 20}}