{"users": [{"id": 14986, "slack_id": "U07U5GG8FT2", "display_name": "Advik Mowkthik Punugu", "bio": null, "projects_count": 3, "devlogs_count": 2, "votes_count": 3, "ships_count": 3, "projects": [{"id": 5691, "title": "Website Making Guide", "devlogs_count": 0, "created_at": "2025-07-07T05:48:34.260-04:00"}, {"id": 5799, "title": "VR-Solar-System", "devlogs_count": 1, "created_at": "2025-07-08T04:35:00.617-04:00"}, {"id": 5793, "title": "Neon Defender", "devlogs_count": 1, "created_at": "2025-07-08T03:03:54.166-04:00"}], "coding_time_seconds": 39906, "coding_time_seconds_today": 0, "balance": "You need to have a pocket watcher badge to view this.", "badges": [{"name": "Maiden Voyage", "text": "you shipped your first project! the journey begins...", "icon": "\ud83d\udea2"}], "created_at": "2025-07-07T04:33:25.986-04:00", "updated_at": "2025-09-10T22:58:34.549-04:00", "avatar": "https://secure.gravatar.com/avatar/8347536b87dfb7915a773f5e80190a04.jpg?s=512&d=https%3A%2F%2Fa.slack-edge.com%2Fdf10d%2Fimg%2Favatars%2Fava_0019-512.png", "custom_css": null}, {"id": 14987, "slack_id": "U08S2S9JBUL", "display_name": "Ammar Syamil", "bio": null, "projects_count": 1, "devlogs_count": 0, "votes_count": 0, "ships_count": 0, "projects": [{"id": 6379, "title": "ROTA Pi", "devlogs_count": 0, "created_at": "2025-07-12T22:16:59.372-04:00"}], "coding_time_seconds": 572407, "coding_time_seconds_today": 2036, "balance": "You need to have a pocket watcher badge to view this.", "badges": [], "created_at": "2025-07-07T04:40:52.886-04:00", "updated_at": "2025-07-16T22:04:00.539-04:00", "avatar": "https://avatars.slack-edge.com/2025-05-12/8888116359890_a031adce501d663d8200_original.jpg", "custom_css": null}, {"id": 14988, "slack_id": "U078B469URL", "display_name": "reloia", "bio": null, "projects_count": 0, "devlogs_count": 0, "votes_count": 0, "ships_count": 0, "projects": [], "coding_time_seconds": 0, "coding_time_seconds_today": 0, "balance": "You need to have a pocket watcher badge to view this.", "badges": [], "created_at": "2025-07-07T04:54:10.475-04:00", "updated_at": "2025-07-07T04:54:30.444-04:00", "avatar": "https://secure.gravatar.com/avatar/99037cece305932a4a2395f1e7870720.jpg?s=512&d=https%3A%2F%2Fa.slack-edge.com%2Fdf10d%2Fimg%2Favatars%2Fava_0016-512.png", "custom_css": null}, {"id": 14989, "slack_id": "U090KCEGBLL", "display_name": "Kusmanova Azhar", "bio": null, "projects_count": 0, "devlogs_count": 0, "votes_count": 0, "ships_count": 0, "projects": [], "coding_time_seconds": 93396, "coding_time_seconds_today": 0, "balance": "You need to have a pocket watcher badge to view this.", "badges": [], "created_at": "2025-07-07T05:11:22.702-04:00", "updated_at": "2025-07-07T08:16:17.314-04:00", "avatar": "https://avatars.slack-edge.com/2025-07-07/9170268095793_0274b8e9e8aa58da9458_original.jpg", "custom_css": null}, {"id": 14990, "slack_id": "U094KHBEZNZ", "display_name": "Amit", "bio": null, "projects_count": 0, "devlogs_count": 0, "votes_count": 3, "ships_count": 0, "projects": [], "coding_time_seconds": 9367, "coding_time_seconds_today": 0, "balance": "You need to have a pocket watcher badge to view this.", "badges": [], "created_at": "2025-07-07T05:15:19.989-04:00", "updated_at": "2025-07-08T03:18:09.861-04:00", "avatar": "https://secure.gravatar.com/avatar/541b684f229b1bdcb35e38a3adceee03.jpg?s=512&d=https%3A%2F%2Fa.slack-edge.com%2Fdf10d%2Fimg%2Favatars%2Fava_0021-512.png", "custom_css": null}, {"id": 14991, "slack_id": "U0921R1DHCZ", "display_name": "Jescaps Antwi", "bio": null, "projects_count": 0, "devlogs_count": 0, "votes_count": 0, "ships_count": 0, "projects": [], "coding_time_seconds": 0, "coding_time_seconds_today": 0, "balance": "You need to have a pocket watcher badge to view this.", "badges": [], "created_at": "2025-07-07T05:33:42.587-04:00", "updated_at": "2025-07-08T03:18:09.949-04:00", "avatar": "https://avatars.slack-edge.com/2025-07-07/9156963872882_566915efd5b3bcc84eb0_original.png", "custom_css": null}, {"id": 14992, "slack_id": "U094LUK7TU2", "display_name": "Ahmed", "bio": null, "projects_count": 0, "devlogs_count": 0, "votes_count": 0, "ships_count": 0, "projects": [], "coding_time_seconds": 0, "coding_time_seconds_today": 0, "balance": "You need to have a pocket watcher badge to view this.", "badges": [], "created_at": "2025-07-07T05:38:55.115-04:00", "updated_at": "2025-07-08T03:18:10.036-04:00", "avatar": "https://secure.gravatar.com/avatar/1b24521a4bcfda7d88fcd8fa592ae159.jpg?s=512&d=https%3A%2F%2Fa.slack-edge.com%2Fdf10d%2Fimg%2Favatars%2Fava_0004-512.png", "custom_css": null}, {"id": 14993, "slack_id": "U094P282D5J", "display_name": "Abhishek Kumar Giri", "bio": null, "projects_count": 0, "devlogs_count": 0, "votes_count": 0, "ships_count": 0, "projects": [], "coding_time_seconds": 9348, "coding_time_seconds_today": 0, "balance": "You need to have a pocket watcher badge to view this.", "badges": [], "created_at": "2025-07-07T06:10:03.149-04:00", "updated_at": "2025-07-09T05:00:19.255-04:00", "avatar": "https://secure.gravatar.com/avatar/6767a01bc78027f72f2b320e48705710.jpg?s=512&d=https%3A%2F%2Fa.slack-edge.com%2Fdf10d%2Fimg%2Favatars%2Fava_0026-512.png", "custom_css": null}, {"id": 14994, "slack_id": "U094P21MKPE", "display_name": "Rumman", "bio": null, "projects_count": 0, "devlogs_count": 0, "votes_count": 0, "ships_count": 0, "projects": [], "coding_time_seconds": 0, "coding_time_seconds_today": 0, "balance": "You need to have a pocket watcher badge to view this.", "badges": [], "created_at": "2025-07-07T06:20:13.936-04:00", "updated_at": "2025-07-08T03:18:10.189-04:00", "avatar": "https://secure.gravatar.com/avatar/89bb5f9c2588ef94cb01a64f8b38ff41.jpg?s=512&d=https%3A%2F%2Fa.slack-edge.com%2Fdf10d%2Fimg%2Favatars%2Fava_0017-512.png", "custom_css": null}, {"id": 14995, "slack_id": "U094H34M970", "display_name": "Jakub L\u00edska", "bio": null, "projects_count": 0, "devlogs_count": 0, "votes_count": 0, "ships_count": 0, "projects": [], "coding_time_seconds": 6176, "coding_time_seconds_today": 0, "balance": "You need to have a pocket watcher badge to view this.", "badges": [], "created_at": "2025-07-07T06:21:06.149-04:00", "updated_at": "2025-07-07T08:16:17.692-04:00", "avatar": "https://secure.gravatar.com/avatar/f4fb787bf56c2d8a3f81d02ce2008fa8.jpg?s=512&d=https%3A%2F%2Fa.slack-edge.com%2Fdf10d%2Fimg%2Favatars%2Fava_0016-512.png", "custom_css": null}, {"id": 14996, "slack_id": "U0950KU56JD", "display_name": "Lindamust", "bio": null, "projects_count": 1, "devlogs_count": 0, "votes_count": 0, "ships_count": 0, "projects": [{"id": 5696, "title": "Fluid Simulator", "devlogs_count": 0, "created_at": "2025-07-07T07:58:06.913-04:00"}], "coding_time_seconds": 4387, "coding_time_seconds_today": 0, "balance": "You need to have a pocket watcher badge to view this.", "badges": [], "created_at": "2025-07-07T06:40:54.983-04:00", "updated_at": "2025-07-07T08:16:17.793-04:00", "avatar": "https://secure.gravatar.com/avatar/ed5cb2de9c4ce0d75bfd2eb00e104789.jpg?s=512&d=https%3A%2F%2Fa.slack-edge.com%2Fdf10d%2Fimg%2Favatars%2Fava_0018-512.png", "custom_css": null}, {"id": 14997, "slack_id": "U094L1LDTTP", "display_name": "Sannely06", "bio": null, "projects_count": 0, "devlogs_count": 0, "votes_count": 0, "ships_count": 0, "projects": [], "coding_time_seconds": 0, "coding_time_seconds_today": 0, "balance": "You need to have a pocket watcher badge to view this.", "badges": [], "created_at": "2025-07-07T06:54:27.861-04:00", "updated_at": "2025-07-08T07:58:01.751-04:00", "avatar": "https://secure.gravatar.com/avatar/55d64d49adb751f625c3f186d3df7100.jpg?s=512&d=https%3A%2F%2Fa.slack-edge.com%2Fdf10d%2Fimg%2Favatars%2Fava_0006-512.png", "custom_css": null}, {"id": 14998, "slack_id": "U094FFTMB8T", "display_name": "R ROSHAN", "bio": null, "projects_count": 0, "devlogs_count": 0, "votes_count": 0, "ships_count": 0, "projects": [], "coding_time_seconds": 0, "coding_time_seconds_today": 0, "balance": "You need to have a pocket watcher badge to view this.", "badges": [], "created_at": "2025-07-07T06:55:18.661-04:00", "updated_at": "2025-07-08T03:18:10.503-04:00", "avatar": "https://secure.gravatar.com/avatar/f4a666ca403b1d5bd2b84665c5e6cd72.jpg?s=512&d=https%3A%2F%2Fa.slack-edge.com%2Fdf10d%2Fimg%2Favatars%2Fava_0025-512.png", "custom_css": null}, {"id": 14999, "slack_id": "U0948MZA1FH", "display_name": "Alex", "bio": null, "projects_count": 0, "devlogs_count": 0, "votes_count": 0, "ships_count": 0, "projects": [], "coding_time_seconds": 0, "coding_time_seconds_today": 0, "balance": "You need to have a pocket watcher badge to view this.", "badges": [], "created_at": "2025-07-07T07:11:57.795-04:00", "updated_at": "2025-07-08T03:18:10.594-04:00", "avatar": "https://secure.gravatar.com/avatar/7cacb1a124716caa64fa11239079855c.jpg?s=512&d=https%3A%2F%2Fa.slack-edge.com%2Fdf10d%2Fimg%2Favatars%2Fava_0004-512.png", "custom_css": null}, {"id": 15000, "slack_id": "U094P9HLRFE", "display_name": "stella", "bio": null, "projects_count": 0, "devlogs_count": 0, "votes_count": 0, "ships_count": 0, "projects": [], "coding_time_seconds": 12467, "coding_time_seconds_today": 0, "balance": "You need to have a pocket watcher badge to view this.", "badges": [], "created_at": "2025-07-07T07:20:27.274-04:00", "updated_at": "2025-07-07T08:16:18.043-04:00", "avatar": "https://secure.gravatar.com/avatar/662c7ca069324942a47575a03f767d94.jpg?s=512&d=https%3A%2F%2Fa.slack-edge.com%2Fdf10d%2Fimg%2Favatars%2Fava_0014-512.png", "custom_css": null}, {"id": 15001, "slack_id": "U0959K0K4AC", "display_name": "Hamoudi", "bio": null, "projects_count": 0, "devlogs_count": 0, "votes_count": 0, "ships_count": 0, "projects": [], "coding_time_seconds": 0, "coding_time_seconds_today": 0, "balance": "You need to have a pocket watcher badge to view this.", "badges": [], "created_at": "2025-07-07T07:29:32.401-04:00", "updated_at": "2025-07-08T03:18:10.753-04:00", "avatar": "https://secure.gravatar.com/avatar/60f71f346900bee5d6b77d403ac658c7.jpg?s=512&d=https%3A%2F%2Fa.slack-edge.com%2Fdf10d%2Fimg%2Favatars%2Fava_0003-512.png", "custom_css": null}, {"id": 15002, "slack_id": "U094HBVNX1U", "display_name": "Similar", "bio": null, "projects_count": 0, "devlogs_count": 0, "votes_count": 0, "ships_count": 0, "projects": [], "coding_time_seconds": 0, "coding_time_seconds_today": 0, "balance": "You need to have a pocket watcher badge to view this.", "badges": [], "created_at": "2025-07-07T07:31:51.086-04:00", "updated_at": "2025-07-08T03:18:10.827-04:00", "avatar": "https://secure.gravatar.com/avatar/83248e3c8490cc5bc3608a1bcd86e3f1.jpg?s=512&d=https%3A%2F%2Fa.slack-edge.com%2Fdf10d%2Fimg%2Favatars%2Fava_0004-512.png", "custom_css": null}, {"id": 15003, "slack_id": "U094HHPS5B8", "display_name": "sebashtioon", "bio": null, "projects_count": 0, "devlogs_count": 0, "votes_count": 0, "ships_count": 0, "projects": [], "coding_time_seconds": 0, "coding_time_seconds_today": 0, "balance": "You need to have a pocket watcher badge to view this.", "badges": [], "created_at": "2025-07-07T08:18:17.731-04:00", "updated_at": "2025-07-08T03:18:10.906-04:00", "avatar": "https://secure.gravatar.com/avatar/a26a1dfd48b1af7ecf3108bbff05ba93.jpg?s=512&d=https%3A%2F%2Fa.slack-edge.com%2Fdf10d%2Fimg%2Favatars%2Fava_0002-512.png", "custom_css": null}, {"id": 15004, "slack_id": "U094MLN6LR0", "display_name": "namehacker_sani", "bio": null, "projects_count": 0, "devlogs_count": 0, "votes_count": 0, "ships_count": 0, "projects": [], "coding_time_seconds": 168, "coding_time_seconds_today": 0, "balance": "You need to have a pocket watcher badge to view this.", "badges": [], "created_at": "2025-07-07T08:26:57.278-04:00", "updated_at": "2025-07-08T03:18:10.989-04:00", "avatar": "https://secure.gravatar.com/avatar/69c5a2315ac75a8e5946a8f29d1d62ca.jpg?s=512&d=https%3A%2F%2Fa.slack-edge.com%2Fdf10d%2Fimg%2Favatars%2Fava_0021-512.png", "custom_css": null}, {"id": 15005, "slack_id": "U0951525K41", "display_name": "Madiha Mubeen Hawaldar", "bio": null, "projects_count": 4, "devlogs_count": 14, "votes_count": 55, "ships_count": 3, "projects": [{"id": 6171, "title": "Calculator Hub", "devlogs_count": 9, "created_at": "2025-07-11T04:24:19.122-04:00"}, {"id": 11233, "title": "Florious", "devlogs_count": 1, "created_at": "2025-08-14T07:14:18.617-04:00"}, {"id": 5934, "title": "Memory Card Game", "devlogs_count": 1, "created_at": "2025-07-09T07:55:14.806-04:00"}, {"id": 11412, "title": "Tetris Game", "devlogs_count": 1, "created_at": "2025-08-15T16:00:19.357-04:00"}], "coding_time_seconds": 568132, "coding_time_seconds_today": 0, "balance": "You need to have a pocket watcher badge to view this.", "badges": [{"name": "Maiden Voyage", "text": "you shipped your first project! the journey begins...", "icon": "\ud83d\udea2"}], "created_at": "2025-07-07T08:35:14.631-04:00", "updated_at": "2025-09-10T22:58:35.210-04:00", "avatar": "https://secure.gravatar.com/avatar/a613893e62dd64d5977f9864a1ebcdfa.jpg?s=512&d=https%3A%2F%2Fa.slack-edge.com%2Fdf10d%2Fimg%2Favatars%2Fava_0002-512.png", "custom_css": null}], "pagination": {"page": 746, "pages": 1192, "count": 23828, "items": 20}}