{"users": [{"id": 15026, "slack_id": "U094EBLBGMN", "display_name": "Sam  Nishanth Veedhi", "bio": null, "projects_count": 0, "devlogs_count": 0, "votes_count": 0, "ships_count": 0, "projects": [], "coding_time_seconds": 0, "coding_time_seconds_today": 0, "balance": "You need to have a pocket watcher badge to view this.", "badges": [], "created_at": "2025-07-07T12:01:53.072-04:00", "updated_at": "2025-07-08T03:18:16.803-04:00", "avatar": "https://secure.gravatar.com/avatar/caae1a42bfd1e1ac5941592a8a167205.jpg?s=512&d=https%3A%2F%2Fa.slack-edge.com%2Fdf10d%2Fimg%2Favatars%2Fava_0019-512.png", "custom_css": null}, {"id": 15027, "slack_id": "U0943RP6H2B", "display_name": "Agust\u00edn Brambilla", "bio": null, "projects_count": 0, "devlogs_count": 0, "votes_count": 0, "ships_count": 0, "projects": [], "coding_time_seconds": 0, "coding_time_seconds_today": 0, "balance": "You need to have a pocket watcher badge to view this.", "badges": [], "created_at": "2025-07-07T12:06:19.120-04:00", "updated_at": "2025-07-08T03:18:16.899-04:00", "avatar": "https://avatars.slack-edge.com/2025-07-07/9155082804358_61931dee0c5d37847bf7_original.png", "custom_css": null}, {"id": 15028, "slack_id": "U0952B6DG9F", "display_name": "Maia", "bio": null, "projects_count": 0, "devlogs_count": 0, "votes_count": 0, "ships_count": 0, "projects": [], "coding_time_seconds": 0, "coding_time_seconds_today": 0, "balance": "You need to have a pocket watcher badge to view this.", "badges": [], "created_at": "2025-07-07T12:20:33.097-04:00", "updated_at": "2025-07-08T03:18:16.990-04:00", "avatar": "https://secure.gravatar.com/avatar/aa305615459a191d191a8693007cb69a.jpg?s=512&d=https%3A%2F%2Fa.slack-edge.com%2Fdf10d%2Fimg%2Favatars%2Fava_0023-512.png", "custom_css": null}, {"id": 15029, "slack_id": "U07J00Z6RQX", "display_name": "juanes1020", "bio": null, "projects_count": 0, "devlogs_count": 0, "votes_count": 0, "ships_count": 0, "projects": [], "coding_time_seconds": 8902, "coding_time_seconds_today": 0, "balance": "You need to have a pocket watcher badge to view this.", "badges": [], "created_at": "2025-07-07T12:36:47.968-04:00", "updated_at": "2025-07-08T03:18:17.068-04:00", "avatar": "https://avatars.slack-edge.com/2025-05-22/8932615799891_874432dd64e5df1dfb75_original.jpg", "custom_css": null}, {"id": 15030, "slack_id": "U094N2CN5MK", "display_name": "Leo Li", "bio": null, "projects_count": 0, "devlogs_count": 0, "votes_count": 1, "ships_count": 0, "projects": [], "coding_time_seconds": 0, "coding_time_seconds_today": 0, "balance": "You need to have a pocket watcher badge to view this.", "badges": [], "created_at": "2025-07-07T12:48:32.400-04:00", "updated_at": "2025-07-08T10:16:24.167-04:00", "avatar": "https://secure.gravatar.com/avatar/c14a88fba635ca601ed983ac5976ed14.jpg?s=512&d=https%3A%2F%2Fa.slack-edge.com%2Fdf10d%2Fimg%2Favatars%2Fava_0001-512.png", "custom_css": null}, {"id": 15031, "slack_id": "U094AHZT5T9", "display_name": "ena", "bio": null, "projects_count": 0, "devlogs_count": 0, "votes_count": 0, "ships_count": 0, "projects": [], "coding_time_seconds": 5618, "coding_time_seconds_today": 0, "balance": "You need to have a pocket watcher badge to view this.", "badges": [], "created_at": "2025-07-07T12:50:39.076-04:00", "updated_at": "2025-07-08T03:18:17.224-04:00", "avatar": "https://secure.gravatar.com/avatar/d4362ebc0608914213d61e3fb917ef46.jpg?s=512&d=https%3A%2F%2Fa.slack-edge.com%2Fdf10d%2Fimg%2Favatars%2Fava_0014-512.png", "custom_css": null}, {"id": 15032, "slack_id": "U0952SJNE4R", "display_name": "a c", "bio": null, "projects_count": 0, "devlogs_count": 0, "votes_count": 0, "ships_count": 0, "projects": [], "coding_time_seconds": 652, "coding_time_seconds_today": 0, "balance": "You need to have a pocket watcher badge to view this.", "badges": [], "created_at": "2025-07-07T13:24:07.692-04:00", "updated_at": "2025-07-08T03:18:17.304-04:00", "avatar": "https://secure.gravatar.com/avatar/caca41471330ec09baa941d661279bb3.jpg?s=512&d=https%3A%2F%2Fa.slack-edge.com%2Fdf10d%2Fimg%2Favatars%2Fava_0005-512.png", "custom_css": null}, {"id": 15033, "slack_id": "U095307ATRP", "display_name": "Thomas Perron", "bio": null, "projects_count": 0, "devlogs_count": 0, "votes_count": 0, "ships_count": 0, "projects": [], "coding_time_seconds": 89796, "coding_time_seconds_today": 0, "balance": "You need to have a pocket watcher badge to view this.", "badges": [], "created_at": "2025-07-07T13:46:03.983-04:00", "updated_at": "2025-07-08T03:18:17.393-04:00", "avatar": "https://secure.gravatar.com/avatar/fc0e8ff33273152be6c7d751df4ff161.jpg?s=512&d=https%3A%2F%2Fa.slack-edge.com%2Fdf10d%2Fimg%2Favatars%2Fava_0025-512.png", "custom_css": null}, {"id": 15034, "slack_id": "U094ND06FS9", "display_name": "LangXi Zhou", "bio": null, "projects_count": 0, "devlogs_count": 0, "votes_count": 0, "ships_count": 0, "projects": [], "coding_time_seconds": 0, "coding_time_seconds_today": 0, "balance": "You need to have a pocket watcher badge to view this.", "badges": [], "created_at": "2025-07-07T13:46:45.497-04:00", "updated_at": "2025-07-08T03:18:17.474-04:00", "avatar": "https://avatars.slack-edge.com/2025-07-07/9159985360965_42c303a8d241171f2009_original.png", "custom_css": null}, {"id": 15035, "slack_id": "U094PJZ7V0A", "display_name": "Rambler", "bio": null, "projects_count": 0, "devlogs_count": 0, "votes_count": 0, "ships_count": 0, "projects": [], "coding_time_seconds": 0, "coding_time_seconds_today": 0, "balance": "You need to have a pocket watcher badge to view this.", "badges": [], "created_at": "2025-07-07T13:56:21.265-04:00", "updated_at": "2025-07-08T03:18:17.547-04:00", "avatar": "https://secure.gravatar.com/avatar/0ee2a78398131bee0f51d5df0d7b3df6.jpg?s=512&d=https%3A%2F%2Fa.slack-edge.com%2Fdf10d%2Fimg%2Favatars%2Fava_0007-512.png", "custom_css": null}, {"id": 15036, "slack_id": "U094J2AV3AP", "display_name": "Ciurbe Nicolae", "bio": null, "projects_count": 0, "devlogs_count": 9, "votes_count": 53, "ships_count": 0, "projects": [], "coding_time_seconds": 138662, "coding_time_seconds_today": 0, "balance": "You need to have a pocket watcher badge to view this.", "badges": [{"name": "Maiden Voyage", "text": "you shipped your first project! the journey begins...", "icon": "\ud83d\udea2"}], "created_at": "2025-07-07T14:09:07.399-04:00", "updated_at": "2025-09-10T22:58:36.159-04:00", "avatar": "https://secure.gravatar.com/avatar/7fc9d297777efe1848f003ef95a05681.jpg?s=512&d=https%3A%2F%2Fa.slack-edge.com%2Fdf10d%2Fimg%2Favatars%2Fava_0002-512.png", "custom_css": null}, {"id": 15037, "slack_id": "U094NJH1N5B", "display_name": "Aiden Pinto", "bio": null, "projects_count": 0, "devlogs_count": 0, "votes_count": 0, "ships_count": 0, "projects": [], "coding_time_seconds": 0, "coding_time_seconds_today": 0, "balance": "You need to have a pocket watcher badge to view this.", "badges": [], "created_at": "2025-07-07T14:22:12.332-04:00", "updated_at": "2025-07-08T03:18:17.705-04:00", "avatar": "https://secure.gravatar.com/avatar/8240eada60aa65f8965bbf01b24d1b72.jpg?s=512&d=https%3A%2F%2Fa.slack-edge.com%2Fdf10d%2Fimg%2Favatars%2Fava_0021-512.png", "custom_css": null}, {"id": 15038, "slack_id": "U094KTX3CLE", "display_name": "RedLinux", "bio": null, "projects_count": 0, "devlogs_count": 0, "votes_count": 0, "ships_count": 0, "projects": [], "coding_time_seconds": 0, "coding_time_seconds_today": 0, "balance": "You need to have a pocket watcher badge to view this.", "badges": [], "created_at": "2025-07-07T14:50:45.103-04:00", "updated_at": "2025-07-08T03:18:17.785-04:00", "avatar": "https://avatars.slack-edge.com/2025-07-07/9154313487267_7cdfd42ce478dafe4fd9_original.jpg", "custom_css": null}, {"id": 15039, "slack_id": "U094B6RKFPH", "display_name": "Jakub. Bazant", "bio": null, "projects_count": 0, "devlogs_count": 0, "votes_count": 0, "ships_count": 0, "projects": [], "coding_time_seconds": 0, "coding_time_seconds_today": 0, "balance": "You need to have a pocket watcher badge to view this.", "badges": [], "created_at": "2025-07-07T15:10:00.234-04:00", "updated_at": "2025-07-08T03:18:17.862-04:00", "avatar": "https://secure.gravatar.com/avatar/b87a2e9dde229c7faa107322c86e1a3a.jpg?s=512&d=https%3A%2F%2Fa.slack-edge.com%2Fdf10d%2Fimg%2Favatars%2Fava_0002-512.png", "custom_css": null}, {"id": 15040, "slack_id": "U0827C2E18W", "display_name": "Hasan Erdogan", "bio": null, "projects_count": 0, "devlogs_count": 0, "votes_count": 0, "ships_count": 0, "projects": [], "coding_time_seconds": 0, "coding_time_seconds_today": 0, "balance": "You need to have a pocket watcher badge to view this.", "badges": [], "created_at": "2025-07-07T15:24:28.049-04:00", "updated_at": "2025-07-07T15:28:03.712-04:00", "avatar": "https://secure.gravatar.com/avatar/f1659ae16f695a94ed6bcc8cf7e7b987.jpg?s=512&d=https%3A%2F%2Fa.slack-edge.com%2Fdf10d%2Fimg%2Favatars%2Fava_0023-512.png", "custom_css": null}, {"id": 15041, "slack_id": "U06PR6B8D37", "display_name": "alexren", "bio": null, "projects_count": 0, "devlogs_count": 0, "votes_count": 0, "ships_count": 0, "projects": [], "coding_time_seconds": 66744, "coding_time_seconds_today": 0, "balance": "You need to have a pocket watcher badge to view this.", "badges": [], "created_at": "2025-07-07T15:26:18.494-04:00", "updated_at": "2025-08-06T18:49:12.038-04:00", "avatar": "https://avatars.slack-edge.com/2024-09-13/7719377981030_e5e50ac7baff713a4cd9_original.png", "custom_css": null}, {"id": 15042, "slack_id": "U08KP7T5V7A", "display_name": "Lucas Zhao", "bio": null, "projects_count": 0, "devlogs_count": 0, "votes_count": 0, "ships_count": 0, "projects": [], "coding_time_seconds": 99798, "coding_time_seconds_today": 0, "balance": "You need to have a pocket watcher badge to view this.", "badges": [], "created_at": "2025-07-07T15:52:18.056-04:00", "updated_at": "2025-07-08T03:18:18.072-04:00", "avatar": "https://avatars.slack-edge.com/2025-03-24/8669276489664_6db3bd2756f494e0193f_original.jpg", "custom_css": null}, {"id": 15043, "slack_id": "U091EHK6R25", "display_name": "usagi.02808", "bio": null, "projects_count": 1, "devlogs_count": 2, "votes_count": 3, "ships_count": 0, "projects": [{"id": 5957, "title": "APRS transmission monitor", "devlogs_count": 2, "created_at": "2025-07-09T12:02:52.322-04:00"}], "coding_time_seconds": 58585, "coding_time_seconds_today": 0, "balance": "You need to have a pocket watcher badge to view this.", "badges": [], "created_at": "2025-07-07T15:54:23.047-04:00", "updated_at": "2025-07-09T08:13:48.221-04:00", "avatar": "https://secure.gravatar.com/avatar/5d3abf0f1525673adeb1f9bdb1241b65.jpg?s=512&d=https%3A%2F%2Fa.slack-edge.com%2Fdf10d%2Fimg%2Favatars%2Fava_0005-512.png", "custom_css": null}, {"id": 15044, "slack_id": "U092LRGQQNB", "display_name": "joaquin terrazas", "bio": null, "projects_count": 0, "devlogs_count": 0, "votes_count": 0, "ships_count": 0, "projects": [], "coding_time_seconds": 0, "coding_time_seconds_today": 0, "balance": "You need to have a pocket watcher badge to view this.", "badges": [], "created_at": "2025-07-07T16:21:44.939-04:00", "updated_at": "2025-07-08T03:18:22.248-04:00", "avatar": "https://avatars.slack-edge.com/2025-07-07/9182511992352_4b578c8f751ea310f91a_original.png", "custom_css": null}, {"id": 15045, "slack_id": "U0953NG00N5", "display_name": "Ria Deshpande", "bio": null, "projects_count": 0, "devlogs_count": 0, "votes_count": 0, "ships_count": 0, "projects": [], "coding_time_seconds": 0, "coding_time_seconds_today": 0, "balance": "You need to have a pocket watcher badge to view this.", "badges": [], "created_at": "2025-07-07T16:23:22.996-04:00", "updated_at": "2025-07-10T18:25:13.306-04:00", "avatar": "https://secure.gravatar.com/avatar/a6de3b35c3f4a39a185ab11792f5a7bf.jpg?s=512&d=https%3A%2F%2Fa.slack-edge.com%2Fdf10d%2Fimg%2Favatars%2Fava_0024-512.png", "custom_css": null}], "pagination": {"page": 748, "pages": 1192, "count": 23828, "items": 20}}